{"header":{"xyz":{"source":[],"mosaic":false},"page":5155,"raw":{"soiltest_result":"0","bbox":"57.598333,109.544722,1.933333,163.806111","page":"5155"},"conditions":{"soiltest_result":0,"north":57.598333,"west":109.544722,"south":1.933333,"east":163.806111},"success":true,"message":""},"data":{"meta":{"total":212844,"page":5155,"pages":7095,"count":30},"values":[{"id":165925,"code":"B4KJ201801005-4174","latitude":"35.1247511","longitude":"136.8637122","source_code":"CB52365649012","project_name":"","survey_name":"\u662d\u548c61\u5e74\u5ea6\u662d\u548c\u6a4b\u901a\u5730\u8cea\u8abf\u67fb","client_name":"\u56fd\u571f\u4ea4\u901a\u7701\u4e2d\u90e8\u5730\u65b9\u6574\u5099\u5c40\u540d\u53e4\u5c4b\u56fd\u9053\u4e8b\u52d9\u6240","boring_xml_url":40,"boring_view_url":1,"soilmap_view_url":null,"soiltest_xml_url":0,"soiltest_view_url":0},{"id":165924,"code":"B4KJ201801005-4173","latitude":"35.1245289","longitude":"136.8645453","source_code":"CB52365649011","project_name":"","survey_name":"\u662d\u548c61\u5e74\u5ea6\u662d\u548c\u6a4b\u901a\u5730\u8cea\u8abf\u67fb","client_name":"\u56fd\u571f\u4ea4\u901a\u7701\u4e2d\u90e8\u5730\u65b9\u6574\u5099\u5c40\u540d\u53e4\u5c4b\u56fd\u9053\u4e8b\u52d9\u6240","boring_xml_url":40,"boring_view_url":1,"soilmap_view_url":null,"soiltest_xml_url":0,"soiltest_view_url":0},{"id":165923,"code":"B4KJ201801005-4172","latitude":"35.1240569","longitude":"136.8657953","source_code":"CB52365649010","project_name":"","survey_name":"\u662d\u548c54\u5e74\u5ea6\u662d\u548c\u6a4b\u5730\u8cea\u8abf\u67fb","client_name":"\u56fd\u571f\u4ea4\u901a\u7701\u4e2d\u90e8\u5730\u65b9\u6574\u5099\u5c40\u540d\u53e4\u5c4b\u56fd\u9053\u4e8b\u52d9\u6240","boring_xml_url":40,"boring_view_url":1,"soilmap_view_url":null,"soiltest_xml_url":0,"soiltest_view_url":0},{"id":165922,"code":"B4KJ201801005-4171","latitude":"35.1277231","longitude":"136.868795","source_code":"CB52365649009","project_name":"","survey_name":"","client_name":"\u56fd\u571f\u4ea4\u901a\u7701\u4e2d\u90e8\u5730\u65b9\u6574\u5099\u5c40\u4e2d\u90e8\u6280\u8853\u4e8b\u52d9\u6240","boring_xml_url":40,"boring_view_url":1,"soilmap_view_url":null,"soiltest_xml_url":0,"soiltest_view_url":0},{"id":165921,"code":"B4KJ201801005-4170","latitude":"35.1270567","longitude":"136.8681561","source_code":"CB52365649008","project_name":"","survey_name":"","client_name":"\u56fd\u571f\u4ea4\u901a\u7701\u4e2d\u90e8\u5730\u65b9\u6574\u5099\u5c40\u4e2d\u90e8\u6280\u8853\u4e8b\u52d9\u6240","boring_xml_url":40,"boring_view_url":1,"soilmap_view_url":null,"soiltest_xml_url":0,"soiltest_view_url":0},{"id":165920,"code":"B4KJ201801005-4169","latitude":"35.1254736","longitude":"136.8709614","source_code":"CB52365649007","project_name":"","survey_name":"\u662d\u548c\u6a4b\u4ed6\u5171\u540c\u6e9d\u5730\u8cea\u8abf\u67fb","client_name":"\u56fd\u571f\u4ea4\u901a\u7701\u4e2d\u90e8\u5730\u65b9\u6574\u5099\u5c40\u4e2d\u90e8\u6280\u8853\u4e8b\u52d9\u6240","boring_xml_url":40,"boring_view_url":1,"soilmap_view_url":null,"soiltest_xml_url":0,"soiltest_view_url":0},{"id":165919,"code":"B4KJ201801005-4168","latitude":"35.1254181","longitude":"136.8701561","source_code":"CB52365649006","project_name":"","survey_name":"\u662d\u548c\u6a4b\u4ed6\u5171\u540c\u6e9d\u5730\u8cea\u8abf\u67fb","client_name":"\u56fd\u571f\u4ea4\u901a\u7701\u4e2d\u90e8\u5730\u65b9\u6574\u5099\u5c40\u4e2d\u90e8\u6280\u8853\u4e8b\u52d9\u6240","boring_xml_url":40,"boring_view_url":1,"soilmap_view_url":null,"soiltest_xml_url":0,"soiltest_view_url":0},{"id":165918,"code":"B4KJ201801005-4167","latitude":"35.1250844","longitude":"136.8681283","source_code":"CB52365649005","project_name":"","survey_name":"\u662d\u548c\u6a4b\u4ed6\u5171\u540c\u6e9d\u5730\u8cea\u8abf\u67fb","client_name":"\u56fd\u571f\u4ea4\u901a\u7701\u4e2d\u90e8\u5730\u65b9\u6574\u5099\u5c40\u4e2d\u90e8\u6280\u8853\u4e8b\u52d9\u6240","boring_xml_url":40,"boring_view_url":1,"soilmap_view_url":null,"soiltest_xml_url":0,"soiltest_view_url":0},{"id":165917,"code":"B4KJ201801005-4166","latitude":"35.1244458","longitude":"136.8663508","source_code":"CB52365649004","project_name":"","survey_name":"\u662d\u548c\u6a4b\u4ed6\u5171\u540c\u6e9d\u5730\u8cea\u8abf\u67fb","client_name":"\u56fd\u571f\u4ea4\u901a\u7701\u4e2d\u90e8\u5730\u65b9\u6574\u5099\u5c40\u4e2d\u90e8\u6280\u8853\u4e8b\u52d9\u6240","boring_xml_url":40,"boring_view_url":1,"soilmap_view_url":null,"soiltest_xml_url":0,"soiltest_view_url":0},{"id":165916,"code":"B4KJ201801005-4165","latitude":"35.1242789","longitude":"136.8622122","source_code":"CB52365649003","project_name":"","survey_name":"\u662d\u548c\u6a4b\u4ed6\u5171\u540c\u6e9d\u5730\u8cea\u8abf\u67fb","client_name":"\u56fd\u571f\u4ea4\u901a\u7701\u4e2d\u90e8\u5730\u65b9\u6574\u5099\u5c40\u4e2d\u90e8\u6280\u8853\u4e8b\u52d9\u6240","boring_xml_url":40,"boring_view_url":1,"soilmap_view_url":null,"soiltest_xml_url":0,"soiltest_view_url":0},{"id":165915,"code":"B4KJ201801005-4164","latitude":"35.1240569","longitude":"136.8657953","source_code":"CB52365649002","project_name":"","survey_name":"\u662d\u548c\u6a4b\u4ed6\u5171\u540c\u6e9d\u5730\u8cea\u8abf\u67fb","client_name":"\u56fd\u571f\u4ea4\u901a\u7701\u4e2d\u90e8\u5730\u65b9\u6574\u5099\u5c40\u4e2d\u90e8\u6280\u8853\u4e8b\u52d9\u6240","boring_xml_url":40,"boring_view_url":1,"soilmap_view_url":null,"soiltest_xml_url":0,"soiltest_view_url":0},{"id":165914,"code":"B4KJ201801005-4163","latitude":"35.1248069","longitude":"136.8702394","source_code":"CB52365649001","project_name":"","survey_name":"\u6b69\u9053\u6a4b\u4e88\u5b9a\u5730\u70b9(\u305d\u306e2)\u5730\u8cea\u8abf\u67fb","client_name":"\u56fd\u571f\u4ea4\u901a\u7701\u4e2d\u90e8\u5730\u65b9\u6574\u5099\u5c40\u4e2d\u90e8\u6280\u8853\u4e8b\u52d9\u6240","boring_xml_url":40,"boring_view_url":1,"soilmap_view_url":null,"soiltest_xml_url":0,"soiltest_view_url":0},{"id":165913,"code":"B4KJ201801005-4162","latitude":"35.1241675","longitude":"136.8504356","source_code":"CB52365648008","project_name":"","survey_name":"\u5e73\u62103\u5e74\u5ea6\u662d\u548c\u5171\u540c\u6e9d\u5730\u8cea\u8abf\u67fb","client_name":"\u56fd\u571f\u4ea4\u901a\u7701\u4e2d\u90e8\u5730\u65b9\u6574\u5099\u5c40\u540d\u53e4\u5c4b\u56fd\u9053\u4e8b\u52d9\u6240","boring_xml_url":40,"boring_view_url":1,"soilmap_view_url":null,"soiltest_xml_url":0,"soiltest_view_url":0},{"id":165912,"code":"B4KJ201801005-4161","latitude":"35.1241675","longitude":"136.8518242","source_code":"CB52365648007","project_name":"","survey_name":"\u5e73\u62103\u5e74\u5ea6\u662d\u548c\u5171\u540c\u6e9d\u5730\u8cea\u8abf\u67fb","client_name":"\u56fd\u571f\u4ea4\u901a\u7701\u4e2d\u90e8\u5730\u65b9\u6574\u5099\u5c40\u540d\u53e4\u5c4b\u56fd\u9053\u4e8b\u52d9\u6240","boring_xml_url":40,"boring_view_url":1,"soilmap_view_url":null,"soiltest_xml_url":0,"soiltest_view_url":0},{"id":165911,"code":"B4KJ201801005-4160","latitude":"35.1240289","longitude":"136.8563239","source_code":"CB52365648006","project_name":"","survey_name":"\u7dd1\u5171\u540c\u6e9d\u59161\u4ef6\u5730\u8cea\u8abf\u67fb","client_name":"\u56fd\u571f\u4ea4\u901a\u7701\u4e2d\u90e8\u5730\u65b9\u6574\u5099\u5c40\u540d\u53e4\u5c4b\u56fd\u9053\u4e8b\u52d9\u6240","boring_xml_url":40,"boring_view_url":1,"soilmap_view_url":null,"soiltest_xml_url":0,"soiltest_view_url":0},{"id":165910,"code":"B4KJ201801005-4159","latitude":"35.1246678","longitude":"136.8590181","source_code":"CB52365648005","project_name":"","survey_name":"\u662d\u548c\u6a4b\u4ed6\u5171\u540c\u6e9d\u5730\u8cea\u8abf\u67fb","client_name":"\u56fd\u571f\u4ea4\u901a\u7701\u4e2d\u90e8\u5730\u65b9\u6574\u5099\u5c40\u4e2d\u90e8\u6280\u8853\u4e8b\u52d9\u6240","boring_xml_url":40,"boring_view_url":1,"soilmap_view_url":null,"soiltest_xml_url":0,"soiltest_view_url":0},{"id":165909,"code":"B4KJ201801005-4158","latitude":"35.1237511","longitude":"136.8569072","source_code":"CB52365648004","project_name":"","survey_name":"\u662d\u548c\u6a4b\u4ed6\u5171\u540c\u6e9d\u5730\u8cea\u8abf\u67fb","client_name":"\u56fd\u571f\u4ea4\u901a\u7701\u4e2d\u90e8\u5730\u65b9\u6574\u5099\u5c40\u4e2d\u90e8\u6280\u8853\u4e8b\u52d9\u6240","boring_xml_url":40,"boring_view_url":1,"soilmap_view_url":null,"soiltest_xml_url":0,"soiltest_view_url":0},{"id":165908,"code":"B4KJ201801005-4157","latitude":"35.1246397","longitude":"136.8536297","source_code":"CB52365648003","project_name":"","survey_name":"\u662d\u548c\u6a4b\u4ed6\u5171\u540c\u6e9d\u5730\u8cea\u8abf\u67fb","client_name":"\u56fd\u571f\u4ea4\u901a\u7701\u4e2d\u90e8\u5730\u65b9\u6574\u5099\u5c40\u4e2d\u90e8\u6280\u8853\u4e8b\u52d9\u6240","boring_xml_url":40,"boring_view_url":1,"soilmap_view_url":null,"soiltest_xml_url":0,"soiltest_view_url":0},{"id":165907,"code":"B4KJ201801005-4156","latitude":"35.1235844","longitude":"136.8518519","source_code":"CB52365648002","project_name":"","survey_name":"\u662d\u548c\u6a4b\u4ed6\u5171\u540c\u6e9d\u5730\u8cea\u8abf\u67fb","client_name":"\u56fd\u571f\u4ea4\u901a\u7701\u4e2d\u90e8\u5730\u65b9\u6574\u5099\u5c40\u4e2d\u90e8\u6280\u8853\u4e8b\u52d9\u6240","boring_xml_url":40,"boring_view_url":1,"soilmap_view_url":null,"soiltest_xml_url":0,"soiltest_view_url":0},{"id":165906,"code":"B4KJ201801005-4155","latitude":"35.1245564","longitude":"136.84963","source_code":"CB52365648001","project_name":"","survey_name":"\u662d\u548c\u6a4b\u4ed6\u5171\u540c\u6e9d\u5730\u8cea\u8abf\u67fb","client_name":"\u56fd\u571f\u4ea4\u901a\u7701\u4e2d\u90e8\u5730\u65b9\u6574\u5099\u5c40\u4e2d\u90e8\u6280\u8853\u4e8b\u52d9\u6240","boring_xml_url":40,"boring_view_url":1,"soilmap_view_url":null,"soiltest_xml_url":0,"soiltest_view_url":0},{"id":165905,"code":"B4KJ201801005-4154","latitude":"35.1246117","longitude":"136.8359922","source_code":"CB52365647014","project_name":"","survey_name":"\u5e73\u62107\u5e74\u5ea6\u5e84\u5185\u5ddd\u5824\u9632\u8010\u9707\u70b9\u691c\u696d\u52d9\u59d4\u8a17","client_name":"\u56fd\u571f\u4ea4\u901a\u7701\u4e2d\u90e8\u5730\u65b9\u6574\u5099\u5c40\u5e84\u5185\u5ddd\u6cb3\u5ddd\u4e8b\u52d9\u6240","boring_xml_url":40,"boring_view_url":1,"soilmap_view_url":null,"soiltest_xml_url":0,"soiltest_view_url":0},{"id":165904,"code":"B4KJ201801005-4153","latitude":"35.1228064","longitude":"136.8386033","source_code":"CB52365647013","project_name":"","survey_name":"\u5e73\u62107\u5e74\u5ea6\u5e84\u5185\u5ddd\u5824\u9632\u8010\u9707\u70b9\u691c\u696d\u52d9\u59d4\u8a17","client_name":"\u56fd\u571f\u4ea4\u901a\u7701\u4e2d\u90e8\u5730\u65b9\u6574\u5099\u5c40\u5e84\u5185\u5ddd\u6cb3\u5ddd\u4e8b\u52d9\u6240","boring_xml_url":40,"boring_view_url":1,"soilmap_view_url":null,"soiltest_xml_url":0,"soiltest_view_url":0},{"id":165903,"code":"B4KJ201801005-4152","latitude":"35.1201678","longitude":"136.8381589","source_code":"CB52365647012","project_name":"","survey_name":"\u5e73\u62106\u5e74\u5ea6\u5e84\u5185\u5ddd\u5730\u8cea\u8abf\u67fb","client_name":"\u56fd\u571f\u4ea4\u901a\u7701\u4e2d\u90e8\u5730\u65b9\u6574\u5099\u5c40\u5e84\u5185\u5ddd\u6cb3\u5ddd\u4e8b\u52d9\u6240","boring_xml_url":40,"boring_view_url":1,"soilmap_view_url":null,"soiltest_xml_url":0,"soiltest_view_url":0},{"id":165902,"code":"B4KJ201801005-4151","latitude":"35.1240561","longitude":"136.8392697","source_code":"CB52365647011","project_name":"","survey_name":"\u5e73\u62103\u5e74\u5ea6\u540d\u56fd\u7ba1\u5185\u5730\u8cea\u8abf\u67fb\u696d\u52d9\u59d4\u8a17","client_name":"\u56fd\u571f\u4ea4\u901a\u7701\u4e2d\u90e8\u5730\u65b9\u6574\u5099\u5c40\u540d\u53e4\u5c4b\u56fd\u9053\u4e8b\u52d9\u6240","boring_xml_url":40,"boring_view_url":1,"soilmap_view_url":null,"soiltest_xml_url":0,"soiltest_view_url":0},{"id":165901,"code":"B4KJ201801005-4150","latitude":"35.1238342","longitude":"136.8424083","source_code":"CB52365647007","project_name":"","survey_name":"\u7dd1\u5171\u540c\u6e9d\u59161\u4ef6\u5730\u8cea\u8abf\u67fb","client_name":"\u56fd\u571f\u4ea4\u901a\u7701\u4e2d\u90e8\u5730\u65b9\u6574\u5099\u5c40\u540d\u53e4\u5c4b\u56fd\u9053\u4e8b\u52d9\u6240","boring_xml_url":40,"boring_view_url":1,"soilmap_view_url":null,"soiltest_xml_url":0,"soiltest_view_url":0},{"id":165900,"code":"B4KJ201801005-4149","latitude":"35.1236675","longitude":"136.8456581","source_code":"CB52365647006","project_name":"","survey_name":"\u662d\u548c\u6a4b\u4ed6\u5171\u540c\u6e9d\u5730\u8cea\u8abf\u67fb","client_name":"\u56fd\u571f\u4ea4\u901a\u7701\u4e2d\u90e8\u5730\u65b9\u6574\u5099\u5c40\u4e2d\u90e8\u6280\u8853\u4e8b\u52d9\u6240","boring_xml_url":40,"boring_view_url":1,"soilmap_view_url":null,"soiltest_xml_url":0,"soiltest_view_url":0},{"id":165899,"code":"B4KJ201801005-4148","latitude":"35.1238342","longitude":"136.8441306","source_code":"CB52365647005","project_name":"","survey_name":"\u662d\u548c\u6a4b\u4ed6\u5171\u540c\u6e9d\u5730\u8cea\u8abf\u67fb","client_name":"\u56fd\u571f\u4ea4\u901a\u7701\u4e2d\u90e8\u5730\u65b9\u6574\u5099\u5c40\u4e2d\u90e8\u6280\u8853\u4e8b\u52d9\u6240","boring_xml_url":40,"boring_view_url":1,"soilmap_view_url":null,"soiltest_xml_url":0,"soiltest_view_url":0},{"id":165898,"code":"B4KJ201801005-4147","latitude":"35.1243061","longitude":"136.8406031","source_code":"CB52365647004","project_name":"","survey_name":"\u662d\u548c\u6a4b\u4ed6\u5171\u540c\u6e9d\u5730\u8cea\u8abf\u67fb","client_name":"\u56fd\u571f\u4ea4\u901a\u7701\u4e2d\u90e8\u5730\u65b9\u6574\u5099\u5c40\u4e2d\u90e8\u6280\u8853\u4e8b\u52d9\u6240","boring_xml_url":40,"boring_view_url":1,"soilmap_view_url":null,"soiltest_xml_url":0,"soiltest_view_url":0},{"id":165897,"code":"B4KJ201801005-4146","latitude":"35.1239172","longitude":"136.8381033","source_code":"CB52365647003","project_name":"","survey_name":"1\u53f7\u7dda\u4e00\u8272\u5927\u6a4b\u5730\u8cea\u8abf\u67fb","client_name":"\u56fd\u571f\u4ea4\u901a\u7701\u4e2d\u90e8\u5730\u65b9\u6574\u5099\u5c40\u4e2d\u90e8\u6280\u8853\u4e8b\u52d9\u6240","boring_xml_url":40,"boring_view_url":1,"soilmap_view_url":null,"soiltest_xml_url":0,"soiltest_view_url":0},{"id":165896,"code":"B4KJ201801005-4145","latitude":"35.1238894","longitude":"136.8374089","source_code":"CB52365647002","project_name":"","survey_name":"1\u53f7\u7dda\u4e00\u8272\u5927\u6a4b\u5730\u8cea\u8abf\u67fb","client_name":"\u56fd\u571f\u4ea4\u901a\u7701\u4e2d\u90e8\u5730\u65b9\u6574\u5099\u5c40\u4e2d\u90e8\u6280\u8853\u4e8b\u52d9\u6240","boring_xml_url":40,"boring_view_url":1,"soilmap_view_url":null,"soiltest_xml_url":0,"soiltest_view_url":0}]}}