{"header":{"xyz":{"source":[],"mosaic":false},"page":5158,"raw":{"soiltest_result":"0","bbox":"57.598333,109.544722,1.933333,163.806111","page":"5158"},"conditions":{"soiltest_result":0,"north":57.598333,"west":109.544722,"south":1.933333,"east":163.806111},"success":true,"message":""},"data":{"meta":{"total":212844,"page":5158,"pages":7095,"count":30},"values":[{"id":165835,"code":"B4KJ201801005-4084","latitude":"35.0953644","longitude":"136.8122733","source_code":"CB52365615006","project_name":"","survey_name":"302\u53f7\u65e5\u5149\u5ddd\u5730\u8cea\u8abf\u67fb","client_name":"\u56fd\u571f\u4ea4\u901a\u7701\u4e2d\u90e8\u5730\u65b9\u6574\u5099\u5c40\u611b\u77e5\u56fd\u9053\u4e8b\u52d9\u6240","boring_xml_url":40,"boring_view_url":1,"soilmap_view_url":null,"soiltest_xml_url":0,"soiltest_view_url":0},{"id":165834,"code":"B4KJ201801005-4083","latitude":"35.0960867","longitude":"136.8134675","source_code":"CB52365615005","project_name":"","survey_name":"302\u53f7\u65e5\u5149\u5ddd\u5730\u8cea\u8abf\u67fb","client_name":"\u56fd\u571f\u4ea4\u901a\u7701\u4e2d\u90e8\u5730\u65b9\u6574\u5099\u5c40\u611b\u77e5\u56fd\u9053\u4e8b\u52d9\u6240","boring_xml_url":40,"boring_view_url":1,"soilmap_view_url":null,"soiltest_xml_url":0,"soiltest_view_url":0},{"id":165833,"code":"B4KJ201801005-4082","latitude":"35.0956978","longitude":"136.8138564","source_code":"CB52365615004","project_name":"","survey_name":"302\u53f7\u65e5\u5149\u5ddd\u5730\u8cea\u8abf\u67fb","client_name":"\u56fd\u571f\u4ea4\u901a\u7701\u4e2d\u90e8\u5730\u65b9\u6574\u5099\u5c40\u611b\u77e5\u56fd\u9053\u4e8b\u52d9\u6240","boring_xml_url":40,"boring_view_url":1,"soilmap_view_url":null,"soiltest_xml_url":0,"soiltest_view_url":0},{"id":165832,"code":"B4KJ201801005-4081","latitude":"35.1024469","longitude":"136.8157728","source_code":"CB52365615003","project_name":"","survey_name":"302\u53f7\u6238\u7530\u5ddd\u6a4b\u5730\u8cea\u8abf\u67fb","client_name":"\u56fd\u571f\u4ea4\u901a\u7701\u4e2d\u90e8\u5730\u65b9\u6574\u5099\u5c40\u611b\u77e5\u56fd\u9053\u4e8b\u52d9\u6240","boring_xml_url":40,"boring_view_url":1,"soilmap_view_url":null,"soiltest_xml_url":0,"soiltest_view_url":0},{"id":165831,"code":"B4KJ201801005-4080","latitude":"35.1019747","longitude":"136.8154672","source_code":"CB52365615002","project_name":"","survey_name":"302\u53f7\u6238\u7530\u5ddd\u6a4b\u5730\u8cea\u8abf\u67fb","client_name":"\u56fd\u571f\u4ea4\u901a\u7701\u4e2d\u90e8\u5730\u65b9\u6574\u5099\u5c40\u611b\u77e5\u56fd\u9053\u4e8b\u52d9\u6240","boring_xml_url":40,"boring_view_url":1,"soilmap_view_url":null,"soiltest_xml_url":0,"soiltest_view_url":0},{"id":165830,"code":"B4KJ201801005-4079","latitude":"35.1008361","longitude":"136.8155506","source_code":"CB52365615001","project_name":"","survey_name":"302\u53f7\u6238\u7530\u5ddd\u6a4b\u5730\u8cea\u8abf\u67fb","client_name":"\u56fd\u571f\u4ea4\u901a\u7701\u4e2d\u90e8\u5730\u65b9\u6574\u5099\u5c40\u611b\u77e5\u56fd\u9053\u4e8b\u52d9\u6240","boring_xml_url":40,"boring_view_url":1,"soilmap_view_url":null,"soiltest_xml_url":0,"soiltest_view_url":0},{"id":165829,"code":"B4KJ201801005-4078","latitude":"35.0921986","longitude":"136.8391878","source_code":"CB52365607397","project_name":"","survey_name":"\u540d\u56db\u56fd\u9053\u540d\u53e4\u5c4b\u5730\u533a\u5730\u8cea\u8abf\u67fb","client_name":"\u56fd\u571f\u4ea4\u901a\u7701\u4e2d\u90e8\u5730\u65b9\u6574\u5099\u5c40\u540d\u56db\u56fd\u9053\u4e8b\u52d9\u6240","boring_xml_url":40,"boring_view_url":1,"soilmap_view_url":null,"soiltest_xml_url":0,"soiltest_view_url":0},{"id":165828,"code":"B4KJ201801005-4077","latitude":"35.0917264","longitude":"136.8374656","source_code":"CB52365607396","project_name":"","survey_name":"\u5e84\u5185\u65b0\u5ddd\u53f3\u5cb8\u53d6\u4ed8\u9ad8\u67b6\u6a4b\u5730\u76e4\u5909\u52d5\u6e2c\u5b9a\u4ed6\u4e00\u4ef6\u8abf\u67fb\u5de5\u4e8b","client_name":"\u56fd\u571f\u4ea4\u901a\u7701\u4e2d\u90e8\u5730\u65b9\u6574\u5099\u5c40\u540d\u56db\u56fd\u9053\u4e8b\u52d9\u6240","boring_xml_url":40,"boring_view_url":1,"soilmap_view_url":null,"soiltest_xml_url":0,"soiltest_view_url":0},{"id":165827,"code":"B4KJ201801005-4076","latitude":"35.0918653","longitude":"136.8376044","source_code":"CB52365607395","project_name":"","survey_name":"\u540d\u56db\u56fd\u9053\u540d\u53e4\u5c4b\u5730\u533a\u5730\u8cea\u8abf\u67fb","client_name":"\u56fd\u571f\u4ea4\u901a\u7701\u4e2d\u90e8\u5730\u65b9\u6574\u5099\u5c40\u540d\u56db\u56fd\u9053\u4e8b\u52d9\u6240","boring_xml_url":40,"boring_view_url":1,"soilmap_view_url":null,"soiltest_xml_url":0,"soiltest_view_url":0},{"id":165826,"code":"B4KJ201801005-4075","latitude":"35.0919764","longitude":"136.83741","source_code":"CB52365607394","project_name":"","survey_name":"\u5e84\u5185\u65b0\u5ddd\u53f3\u5cb8\u53d6\u4ed8\u9ad8\u67b6\u6a4b\u5730\u76e4\u5909\u52d5\u6e2c\u5b9a\u4ed6\u4e00\u4ef6\u8abf\u67fb\u5de5\u4e8b","client_name":"\u56fd\u571f\u4ea4\u901a\u7701\u4e2d\u90e8\u5730\u65b9\u6574\u5099\u5c40\u540d\u56db\u56fd\u9053\u4e8b\u52d9\u6240","boring_xml_url":40,"boring_view_url":1,"soilmap_view_url":null,"soiltest_xml_url":0,"soiltest_view_url":0},{"id":165825,"code":"B4KJ201801005-4074","latitude":"35.0918653","longitude":"136.8372156","source_code":"CB52365607393","project_name":"","survey_name":"\u5e84\u5185\u65b0\u5ddd\u53f3\u5cb8\u53d6\u4ed8\u9ad8\u67b6\u6a4b\u5730\u76e4\u5909\u52d5\u6e2c\u5b9a\u4ed6\u4e00\u4ef6\u8abf\u67fb\u5de5\u4e8b","client_name":"\u56fd\u571f\u4ea4\u901a\u7701\u4e2d\u90e8\u5730\u65b9\u6574\u5099\u5c40\u540d\u56db\u56fd\u9053\u4e8b\u52d9\u6240","boring_xml_url":40,"boring_view_url":1,"soilmap_view_url":null,"soiltest_xml_url":0,"soiltest_view_url":0},{"id":165824,"code":"B4KJ201801005-4073","latitude":"35.0926431","longitude":"136.8415208","source_code":"CB52365607383","project_name":"","survey_name":"\u540d\u56db\u56fd\u9053\u540d\u53e4\u5c4b\u5730\u533a\u5730\u8cea\u8abf\u67fb","client_name":"\u56fd\u571f\u4ea4\u901a\u7701\u4e2d\u90e8\u5730\u65b9\u6574\u5099\u5c40\u540d\u56db\u56fd\u9053\u4e8b\u52d9\u6240","boring_xml_url":40,"boring_view_url":1,"soilmap_view_url":null,"soiltest_xml_url":0,"soiltest_view_url":0},{"id":165823,"code":"B4KJ201801005-4072","latitude":"35.0900881","longitude":"136.8449094","source_code":"CB52365607012","project_name":"","survey_name":"\u5e73\u62107\u5e74\u5ea6\u5e84\u5185\u5ddd\u5824\u9632\u8010\u9707\u70b9\u691c\u696d\u52d9\u59d4\u8a17","client_name":"\u56fd\u571f\u4ea4\u901a\u7701\u4e2d\u90e8\u5730\u65b9\u6574\u5099\u5c40\u5e84\u5185\u5ddd\u6cb3\u5ddd\u4e8b\u52d9\u6240","boring_xml_url":40,"boring_view_url":1,"soilmap_view_url":null,"soiltest_xml_url":0,"soiltest_view_url":0},{"id":165822,"code":"B4KJ201801005-4071","latitude":"35.0892547","longitude":"136.8454094","source_code":"CB52365607011","project_name":"","survey_name":"\u5e73\u62107\u5e74\u5ea6\u5e84\u5185\u5ddd\u5824\u9632\u8010\u9707\u70b9\u691c\u696d\u52d9\u59d4\u8a17","client_name":"\u56fd\u571f\u4ea4\u901a\u7701\u4e2d\u90e8\u5730\u65b9\u6574\u5099\u5c40\u5e84\u5185\u5ddd\u6cb3\u5ddd\u4e8b\u52d9\u6240","boring_xml_url":40,"boring_view_url":1,"soilmap_view_url":null,"soiltest_xml_url":0,"soiltest_view_url":0},{"id":165821,"code":"B4KJ201801005-4070","latitude":"35.0934486","longitude":"136.8420761","source_code":"CB52365607007","project_name":"","survey_name":"\u540d\u56db\u56fd\u9053\u540d\u53e4\u5c4b\u5730\u533a\u5730\u8cea\u8abf\u67fb","client_name":"\u56fd\u571f\u4ea4\u901a\u7701\u4e2d\u90e8\u5730\u65b9\u6574\u5099\u5c40\u4e2d\u90e8\u6280\u8853\u4e8b\u52d9\u6240","boring_xml_url":40,"boring_view_url":1,"soilmap_view_url":null,"soiltest_xml_url":0,"soiltest_view_url":0},{"id":165820,"code":"B4KJ201801005-4069","latitude":"35.0929208","longitude":"136.8405208","source_code":"CB52365607006","project_name":"","survey_name":"\u5e84\u5185\u65b0\u5ddd\u53ca\u65e5\u5149\u5ddd\u6a4b\u6881\u4e88\u5b9a\u5730\u70b9\u5730\u8cea\u8abf\u67fb","client_name":"\u56fd\u571f\u4ea4\u901a\u7701\u4e2d\u90e8\u5730\u65b9\u6574\u5099\u5c40\u4e2d\u90e8\u6280\u8853\u4e8b\u52d9\u6240","boring_xml_url":40,"boring_view_url":1,"soilmap_view_url":null,"soiltest_xml_url":0,"soiltest_view_url":0},{"id":165819,"code":"B4KJ201801005-4068","latitude":"35.0923097","longitude":"136.8397153","source_code":"CB52365607005","project_name":"","survey_name":"\u5e84\u5185\u65b0\u5ddd\u53ca\u65e5\u5149\u5ddd\u6a4b\u6881\u4e88\u5b9a\u5730\u70b9\u5730\u8cea\u8abf\u67fb","client_name":"\u56fd\u571f\u4ea4\u901a\u7701\u4e2d\u90e8\u5730\u65b9\u6574\u5099\u5c40\u4e2d\u90e8\u6280\u8853\u4e8b\u52d9\u6240","boring_xml_url":40,"boring_view_url":1,"soilmap_view_url":null,"soiltest_xml_url":0,"soiltest_view_url":0},{"id":165818,"code":"B4KJ201801005-4067","latitude":"35.0923097","longitude":"136.8384656","source_code":"CB52365607004","project_name":"","survey_name":"\u5e84\u5185\u65b0\u5ddd\u53ca\u65e5\u5149\u5ddd\u6a4b\u6881\u4e88\u5b9a\u5730\u70b9\u5730\u8cea\u8abf\u67fb","client_name":"\u56fd\u571f\u4ea4\u901a\u7701\u4e2d\u90e8\u5730\u65b9\u6574\u5099\u5c40\u4e2d\u90e8\u6280\u8853\u4e8b\u52d9\u6240","boring_xml_url":40,"boring_view_url":1,"soilmap_view_url":null,"soiltest_xml_url":0,"soiltest_view_url":0},{"id":165817,"code":"B4KJ201801005-4066","latitude":"35.0918375","longitude":"136.83741","source_code":"CB52365607003","project_name":"","survey_name":"\u5e84\u5185\u65b0\u5ddd\u53ca\u65e5\u5149\u5ddd\u6a4b\u6881\u4e88\u5b9a\u5730\u70b9\u5730\u8cea\u8abf\u67fb","client_name":"\u56fd\u571f\u4ea4\u901a\u7701\u4e2d\u90e8\u5730\u65b9\u6574\u5099\u5c40\u4e2d\u90e8\u6280\u8853\u4e8b\u52d9\u6240","boring_xml_url":40,"boring_view_url":1,"soilmap_view_url":null,"soiltest_xml_url":0,"soiltest_view_url":0},{"id":165816,"code":"B4KJ201801005-4065","latitude":"35.0920597","longitude":"136.8379378","source_code":"CB52365607002","project_name":"","survey_name":"\u5e84\u5185\u65b0\u5ddd\u53ca\u65e5\u5149\u5ddd\u6a4b\u6881\u4e88\u5b9a\u5730\u70b9\u5730\u8cea\u8abf\u67fb","client_name":"\u56fd\u571f\u4ea4\u901a\u7701\u4e2d\u90e8\u5730\u65b9\u6574\u5099\u5c40\u4e2d\u90e8\u6280\u8853\u4e8b\u52d9\u6240","boring_xml_url":40,"boring_view_url":1,"soilmap_view_url":null,"soiltest_xml_url":0,"soiltest_view_url":0},{"id":165815,"code":"B4KJ201801005-4064","latitude":"35.0915875","longitude":"136.8365211","source_code":"CB52365607001","project_name":"","survey_name":"\u540d\u56db\u56fd\u9053\u5730\u8cea\u8abf\u67fb\u5831\u544a\u66f8","client_name":"\u56fd\u571f\u4ea4\u901a\u7701\u4e2d\u90e8\u5730\u65b9\u6574\u5099\u5c40\u4e2d\u90e8\u6280\u8853\u4e8b\u52d9\u6240","boring_xml_url":40,"boring_view_url":1,"soilmap_view_url":null,"soiltest_xml_url":0,"soiltest_view_url":0},{"id":165814,"code":"B4KJ201801005-4063","latitude":"35.0868936","longitude":"136.8308553","source_code":"CB52365606374","project_name":"","survey_name":"\u85e4\u524d\u5730\u533a\u540d\u56db\u56fd\u9053\u7dda\u5730\u8cea\u8abf\u67fb\u59d4\u8a17","client_name":"\u56fd\u571f\u4ea4\u901a\u7701\u4e2d\u90e8\u5730\u65b9\u6574\u5099\u5c40\u540d\u56db\u56fd\u9053\u4e8b\u52d9\u6240","boring_xml_url":40,"boring_view_url":1,"soilmap_view_url":null,"soiltest_xml_url":0,"soiltest_view_url":0},{"id":165813,"code":"B4KJ201801005-4062","latitude":"35.0867269","longitude":"136.8307164","source_code":"CB52365606373","project_name":"","survey_name":"\u85e4\u524d\u5730\u533a\u540d\u56db\u56fd\u9053\u7dda\u5730\u8cea\u8abf\u67fb\u59d4\u8a17","client_name":"\u56fd\u571f\u4ea4\u901a\u7701\u4e2d\u90e8\u5730\u65b9\u6574\u5099\u5c40\u540d\u56db\u56fd\u9053\u4e8b\u52d9\u6240","boring_xml_url":40,"boring_view_url":1,"soilmap_view_url":null,"soiltest_xml_url":0,"soiltest_view_url":0},{"id":165812,"code":"B4KJ201801005-4061","latitude":"35.0868103","longitude":"136.8289108","source_code":"CB52365606369","project_name":"","survey_name":"\u85e4\u524d\u5730\u533a\u540d\u56db\u56fd\u9053\u7dda\u5730\u8cea\u8abf\u67fb\u59d4\u8a17","client_name":"\u56fd\u571f\u4ea4\u901a\u7701\u4e2d\u90e8\u5730\u65b9\u6574\u5099\u5c40\u540d\u56db\u56fd\u9053\u4e8b\u52d9\u6240","boring_xml_url":40,"boring_view_url":1,"soilmap_view_url":null,"soiltest_xml_url":0,"soiltest_view_url":0},{"id":165811,"code":"B4KJ201801005-4060","latitude":"35.09031","longitude":"136.8339103","source_code":"CB52365606002","project_name":"","survey_name":"\u540d\u56db\u56fd\u9053\u5730\u8cea\u8abf\u67fb(\u8a66\u9310)","client_name":"\u56fd\u571f\u4ea4\u901a\u7701\u4e2d\u90e8\u5730\u65b9\u6574\u5099\u5c40\u4e2d\u90e8\u6280\u8853\u4e8b\u52d9\u6240","boring_xml_url":40,"boring_view_url":1,"soilmap_view_url":null,"soiltest_xml_url":0,"soiltest_view_url":0},{"id":165810,"code":"B4KJ201801005-4059","latitude":"35.0895322","longitude":"136.8329661","source_code":"CB52365606001","project_name":"","survey_name":"\u540d\u56db\u56fd\u9053\u540d\u53e4\u5c4b\u5730\u533a\u5730\u8cea\u8abf\u67fb","client_name":"\u56fd\u571f\u4ea4\u901a\u7701\u4e2d\u90e8\u5730\u65b9\u6574\u5099\u5c40\u4e2d\u90e8\u6280\u8853\u4e8b\u52d9\u6240","boring_xml_url":40,"boring_view_url":1,"soilmap_view_url":null,"soiltest_xml_url":0,"soiltest_view_url":0},{"id":165809,"code":"B4KJ201801005-4058","latitude":"35.0899483","longitude":"136.8101069","source_code":"CB52365605007","project_name":"","survey_name":"302\u53f7\u65e5\u5149\u5ddd\u5730\u8cea\u8abf\u67fb","client_name":"\u56fd\u571f\u4ea4\u901a\u7701\u4e2d\u90e8\u5730\u65b9\u6574\u5099\u5c40\u611b\u77e5\u56fd\u9053\u4e8b\u52d9\u6240","boring_xml_url":40,"boring_view_url":1,"soilmap_view_url":null,"soiltest_xml_url":0,"soiltest_view_url":0},{"id":165808,"code":"B4KJ201801005-4057","latitude":"35.0947533","longitude":"136.8126897","source_code":"CB52365605006","project_name":"","survey_name":"302\u53f7\u65e5\u5149\u5ddd\u5730\u8cea\u8abf\u67fb","client_name":"\u56fd\u571f\u4ea4\u901a\u7701\u4e2d\u90e8\u5730\u65b9\u6574\u5099\u5c40\u611b\u77e5\u56fd\u9053\u4e8b\u52d9\u6240","boring_xml_url":40,"boring_view_url":1,"soilmap_view_url":null,"soiltest_xml_url":0,"soiltest_view_url":0},{"id":165807,"code":"B4KJ201801005-4056","latitude":"35.0935867","longitude":"136.8107733","source_code":"CB52365605005","project_name":"","survey_name":"302\u53f7\u65e5\u5149\u5ddd\u6a4b\u5730\u8cea\u8abf\u67fb","client_name":"\u56fd\u571f\u4ea4\u901a\u7701\u4e2d\u90e8\u5730\u65b9\u6574\u5099\u5c40\u611b\u77e5\u56fd\u9053\u4e8b\u52d9\u6240","boring_xml_url":40,"boring_view_url":1,"soilmap_view_url":null,"soiltest_xml_url":0,"soiltest_view_url":0},{"id":165806,"code":"B4KJ201801005-4055","latitude":"35.0928092","longitude":"136.8096069","source_code":"CB52365605004","project_name":"","survey_name":"302\u53f7\u65e5\u5149\u5ddd\u6a4b\u5730\u8cea\u8abf\u67fb","client_name":"\u56fd\u571f\u4ea4\u901a\u7701\u4e2d\u90e8\u5730\u65b9\u6574\u5099\u5c40\u611b\u77e5\u56fd\u9053\u4e8b\u52d9\u6240","boring_xml_url":40,"boring_view_url":1,"soilmap_view_url":null,"soiltest_xml_url":0,"soiltest_view_url":0}]}}