{"header":{"xyz":{"source":[],"mosaic":false},"page":5159,"raw":{"soiltest_result":"0","bbox":"57.598333,109.544722,1.933333,163.806111","page":"5159"},"conditions":{"soiltest_result":0,"north":57.598333,"west":109.544722,"south":1.933333,"east":163.806111},"success":true,"message":""},"data":{"meta":{"total":212844,"page":5159,"pages":7095,"count":30},"values":[{"id":165805,"code":"B4KJ201801005-4054","latitude":"35.0940033","longitude":"136.8113289","source_code":"CB52365605003","project_name":"","survey_name":"302\u53f7\u98db\u5cf6\u5730\u533a\u5730\u8cea\u8abf\u67fb","client_name":"\u56fd\u571f\u4ea4\u901a\u7701\u4e2d\u90e8\u5730\u65b9\u6574\u5099\u5c40\u611b\u77e5\u56fd\u9053\u4e8b\u52d9\u6240","boring_xml_url":40,"boring_view_url":1,"soilmap_view_url":null,"soiltest_xml_url":0,"soiltest_view_url":0},{"id":165804,"code":"B4KJ201801005-4053","latitude":"35.0931978","longitude":"136.8102456","source_code":"CB52365605002","project_name":"","survey_name":"302\u53f7\u98db\u5cf6\u5730\u533a\u5730\u8cea\u8abf\u67fb","client_name":"\u56fd\u571f\u4ea4\u901a\u7701\u4e2d\u90e8\u5730\u65b9\u6574\u5099\u5c40\u611b\u77e5\u56fd\u9053\u4e8b\u52d9\u6240","boring_xml_url":40,"boring_view_url":1,"soilmap_view_url":null,"soiltest_xml_url":0,"soiltest_view_url":0},{"id":165803,"code":"B4KJ201801005-4052","latitude":"35.0893094","longitude":"136.8093292","source_code":"CB52365604003","project_name":"","survey_name":"302\u53f7\u65e5\u5149\u5ddd\u5730\u8cea\u8abf\u67fb","client_name":"\u56fd\u571f\u4ea4\u901a\u7701\u4e2d\u90e8\u5730\u65b9\u6574\u5099\u5c40\u611b\u77e5\u56fd\u9053\u4e8b\u52d9\u6240","boring_xml_url":40,"boring_view_url":1,"soilmap_view_url":null,"soiltest_xml_url":0,"soiltest_view_url":0},{"id":165802,"code":"B4KJ201801005-4051","latitude":"35.0907258","longitude":"136.8092181","source_code":"CB52365604002","project_name":"","survey_name":"302\u53f7\u65e5\u5149\u5ddd\u5730\u8cea\u8abf\u67fb","client_name":"\u56fd\u571f\u4ea4\u901a\u7701\u4e2d\u90e8\u5730\u65b9\u6574\u5099\u5c40\u611b\u77e5\u56fd\u9053\u4e8b\u52d9\u6240","boring_xml_url":40,"boring_view_url":1,"soilmap_view_url":null,"soiltest_xml_url":0,"soiltest_view_url":0},{"id":165801,"code":"B4KJ201801005-4050","latitude":"35.1691583","longitude":"136.6818931","source_code":"CB52365594003","project_name":"","survey_name":"\u5e73\u62104\u5e74\u5ea6\u6728\u66fd\u5ddd\u5de6\u5cb8\u5730\u533a\u5730\u8cea\u8abf\u67fb\u4ed61\u4ef6\u8abf\u67fb\u691c\u8a0e","client_name":"\u56fd\u571f\u4ea4\u901a\u7701\u4e2d\u90e8\u5730\u65b9\u6574\u5099\u5c40\u6728\u66fd\u5ddd\u4e0b\u6d41\u6cb3\u5ddd\u4e8b\u52d9\u6240","boring_xml_url":40,"boring_view_url":1,"soilmap_view_url":null,"soiltest_xml_url":0,"soiltest_view_url":0},{"id":165800,"code":"B4KJ201801005-4049","latitude":"35.1657144","longitude":"136.6830319","source_code":"CB52365594002","project_name":"","survey_name":"\u5e73\u62104\u5e74\u5ea6\u6728\u66fd\u5ddd\u5de6\u5cb8\u5730\u533a\u5730\u8cea\u8abf\u67fb\u4ed61\u4ef6\u8abf\u67fb\u691c\u8a0e","client_name":"\u56fd\u571f\u4ea4\u901a\u7701\u4e2d\u90e8\u5730\u65b9\u6574\u5099\u5c40\u6728\u66fd\u5ddd\u4e0b\u6d41\u6cb3\u5ddd\u4e8b\u52d9\u6240","boring_xml_url":40,"boring_view_url":1,"soilmap_view_url":null,"soiltest_xml_url":0,"soiltest_view_url":0},{"id":165799,"code":"B4KJ201801005-4048","latitude":"35.1647419","longitude":"136.6699219","source_code":"CB52365593008","project_name":"","survey_name":"\u9577\u826f\u5ddd\u5824\u9632\u5730\u8cea\u8abf\u67fb","client_name":"\u56fd\u571f\u4ea4\u901a\u7701\u4e2d\u90e8\u5730\u65b9\u6574\u5099\u5c40\u6728\u66fd\u5ddd\u4e0b\u6d41\u6cb3\u5ddd\u4e8b\u52d9\u6240","boring_xml_url":40,"boring_view_url":1,"soilmap_view_url":null,"soiltest_xml_url":0,"soiltest_view_url":0},{"id":165798,"code":"B4KJ201801005-4047","latitude":"35.1647419","longitude":"136.6701164","source_code":"CB52365593007","project_name":"","survey_name":"\u9577\u826f\u5ddd\u63d0\u9632\u5730\u8cea\u8abf\u67fb","client_name":"\u56fd\u571f\u4ea4\u901a\u7701\u4e2d\u90e8\u5730\u65b9\u6574\u5099\u5c40\u6728\u66fd\u5ddd\u4e0b\u6d41\u6cb3\u5ddd\u4e8b\u52d9\u6240","boring_xml_url":40,"boring_view_url":1,"soilmap_view_url":null,"soiltest_xml_url":0,"soiltest_view_url":0},{"id":165797,"code":"B4KJ201801005-4046","latitude":"35.1647419","longitude":"136.6703386","source_code":"CB52365593006","project_name":"","survey_name":"\u9577\u826f\u5ddd\u5824\u9632\u5730\u8cea\u8abf\u67fb","client_name":"\u56fd\u571f\u4ea4\u901a\u7701\u4e2d\u90e8\u5730\u65b9\u6574\u5099\u5c40\u6728\u66fd\u5ddd\u4e0b\u6d41\u6cb3\u5ddd\u4e8b\u52d9\u6240","boring_xml_url":40,"boring_view_url":1,"soilmap_view_url":null,"soiltest_xml_url":0,"soiltest_view_url":0},{"id":165796,"code":"B4KJ201801005-4045","latitude":"35.1647419","longitude":"136.6709497","source_code":"CB52365593005","project_name":"","survey_name":"\u9577\u826f\u5ddd\u5824\u9632\u5730\u8cea\u8abf\u67fb","client_name":"\u56fd\u571f\u4ea4\u901a\u7701\u4e2d\u90e8\u5730\u65b9\u6574\u5099\u5c40\u6728\u66fd\u5ddd\u4e0b\u6d41\u6cb3\u5ddd\u4e8b\u52d9\u6240","boring_xml_url":40,"boring_view_url":1,"soilmap_view_url":null,"soiltest_xml_url":0,"soiltest_view_url":0},{"id":165795,"code":"B4KJ201801005-4044","latitude":"35.1647419","longitude":"136.6712831","source_code":"CB52365593004","project_name":"","survey_name":"\u9577\u826f\u5ddd\u5824\u9632\u5730\u8cea\u8abf\u67fb","client_name":"\u56fd\u571f\u4ea4\u901a\u7701\u4e2d\u90e8\u5730\u65b9\u6574\u5099\u5c40\u6728\u66fd\u5ddd\u4e0b\u6d41\u6cb3\u5ddd\u4e8b\u52d9\u6240","boring_xml_url":40,"boring_view_url":1,"soilmap_view_url":null,"soiltest_xml_url":0,"soiltest_view_url":0},{"id":165794,"code":"B4KJ201801005-4043","latitude":"35.1646031","longitude":"136.6700608","source_code":"CB52365593003","project_name":"","survey_name":"\u9577\u826f\u5ddd\u5824\u9632\u5730\u8cea\u8abf\u67fb","client_name":"\u56fd\u571f\u4ea4\u901a\u7701\u4e2d\u90e8\u5730\u65b9\u6574\u5099\u5c40\u6728\u66fd\u5ddd\u4e0b\u6d41\u6cb3\u5ddd\u4e8b\u52d9\u6240","boring_xml_url":40,"boring_view_url":1,"soilmap_view_url":null,"soiltest_xml_url":0,"soiltest_view_url":0},{"id":165793,"code":"B4KJ201801005-4042","latitude":"35.1623533","longitude":"136.6700886","source_code":"CB52365593002","project_name":"","survey_name":"\u91d1\u5efb\u6f0f\u6c34\u8abf\u67fb","client_name":"\u56fd\u571f\u4ea4\u901a\u7701\u4e2d\u90e8\u5730\u65b9\u6574\u5099\u5c40\u4e2d\u90e8\u6280\u8853\u4e8b\u52d9\u6240","boring_xml_url":40,"boring_view_url":1,"soilmap_view_url":null,"soiltest_xml_url":0,"soiltest_view_url":0},{"id":165792,"code":"B4KJ201801005-4041","latitude":"35.1697969","longitude":"136.6692553","source_code":"CB52365593001","project_name":"","survey_name":"\u91d1\u5efb\u6f0f\u6c34\u8abf\u67fb","client_name":"\u56fd\u571f\u4ea4\u901a\u7701\u4e2d\u90e8\u5730\u65b9\u6574\u5099\u5c40\u4e2d\u90e8\u6280\u8853\u4e8b\u52d9\u6240","boring_xml_url":40,"boring_view_url":1,"soilmap_view_url":null,"soiltest_xml_url":0,"soiltest_view_url":0},{"id":165791,"code":"B4KJ201801005-4040","latitude":"35.1634917","longitude":"136.6537289","source_code":"CB52365592010","project_name":"","survey_name":"\u5e73\u621010\u5e74\u5ea6\u63d6\u6590\u5ddd\u5c71\u5d0e\u8b77\u5cb8\u707d\u5bb3\u5fa9\u65e7\u5de5\u4e8b\u59162\u4ef6\u5b9f\u65bd\u8a2d\u8a08\u696d\u52d9\u59d4\u8a17","client_name":"\u56fd\u571f\u4ea4\u901a\u7701\u4e2d\u90e8\u5730\u65b9\u6574\u5099\u5c40\u6728\u66fd\u5ddd\u4e0b\u6d41\u6cb3\u5ddd\u4e8b\u52d9\u6240","boring_xml_url":40,"boring_view_url":1,"soilmap_view_url":null,"soiltest_xml_url":0,"soiltest_view_url":0},{"id":165790,"code":"B4KJ201801005-4039","latitude":"35.1637417","longitude":"136.65484","source_code":"CB52365592009","project_name":"","survey_name":"\u63d6\u6590\u5ddd\u4e2d\u6c5f\u5e06\u5f15\u65e2\u8a2d\u69cb\u9020\u7269\u8abf\u67fb","client_name":"\u56fd\u571f\u4ea4\u901a\u7701\u4e2d\u90e8\u5730\u65b9\u6574\u5099\u5c40\u6728\u66fd\u5ddd\u4e0b\u6d41\u6cb3\u5ddd\u4e8b\u52d9\u6240","boring_xml_url":40,"boring_view_url":1,"soilmap_view_url":null,"soiltest_xml_url":0,"soiltest_view_url":0},{"id":165789,"code":"B4KJ201801005-4038","latitude":"35.1636306","longitude":"136.65484","source_code":"CB52365592008","project_name":"","survey_name":"\u63d6\u6590\u5ddd\u4e2d\u6c5f\u5e06\u5f15\u65e2\u8a2d\u69cb\u9020\u7269\u8abf\u67fb","client_name":"\u56fd\u571f\u4ea4\u901a\u7701\u4e2d\u90e8\u5730\u65b9\u6574\u5099\u5c40\u6728\u66fd\u5ddd\u4e0b\u6d41\u6cb3\u5ddd\u4e8b\u52d9\u6240","boring_xml_url":40,"boring_view_url":1,"soilmap_view_url":null,"soiltest_xml_url":0,"soiltest_view_url":0},{"id":165788,"code":"B4KJ201801005-4037","latitude":"35.1635472","longitude":"136.65484","source_code":"CB52365592007","project_name":"","survey_name":"\u63d6\u6590\u5ddd\u4e2d\u6c5f\u5e06\u5f15\u65e2\u8a2d\u69cb\u9020\u7269\u8abf\u67fb","client_name":"\u56fd\u571f\u4ea4\u901a\u7701\u4e2d\u90e8\u5730\u65b9\u6574\u5099\u5c40\u6728\u66fd\u5ddd\u4e0b\u6d41\u6cb3\u5ddd\u4e8b\u52d9\u6240","boring_xml_url":40,"boring_view_url":1,"soilmap_view_url":null,"soiltest_xml_url":0,"soiltest_view_url":0},{"id":165787,"code":"B4KJ201801005-4036","latitude":"35.1632139","longitude":"136.6577564","source_code":"CB52365592006","project_name":"","survey_name":"\u4e07\u5bff\u65b0\u7530\u5730\u8cea\u8abf\u67fb","client_name":"\u56fd\u571f\u4ea4\u901a\u7701\u4e2d\u90e8\u5730\u65b9\u6574\u5099\u5c40\u6728\u66fd\u5ddd\u4e0b\u6d41\u6cb3\u5ddd\u4e8b\u52d9\u6240","boring_xml_url":40,"boring_view_url":1,"soilmap_view_url":null,"soiltest_xml_url":0,"soiltest_view_url":0},{"id":165786,"code":"B4KJ201801005-4035","latitude":"35.1632417","longitude":"136.6571453","source_code":"CB52365592005","project_name":"","survey_name":"\u4e07\u5bff\u65b0\u7530\u5730\u8cea\u8abf\u67fb","client_name":"\u56fd\u571f\u4ea4\u901a\u7701\u4e2d\u90e8\u5730\u65b9\u6574\u5099\u5c40\u6728\u66fd\u5ddd\u4e0b\u6d41\u6cb3\u5ddd\u4e8b\u52d9\u6240","boring_xml_url":40,"boring_view_url":1,"soilmap_view_url":null,"soiltest_xml_url":0,"soiltest_view_url":0},{"id":165785,"code":"B4KJ201801005-4034","latitude":"35.1634083","longitude":"136.6580619","source_code":"CB52365592004","project_name":"","survey_name":"\u662d\u548c47\u5e74\u5ea6\u6d77\u6d25\u753a\u5730\u8cea\u8abf\u67fb","client_name":"\u56fd\u571f\u4ea4\u901a\u7701\u4e2d\u90e8\u5730\u65b9\u6574\u5099\u5c40\u4e2d\u90e8\u6280\u8853\u4e8b\u52d9\u6240","boring_xml_url":40,"boring_view_url":1,"soilmap_view_url":null,"soiltest_xml_url":0,"soiltest_view_url":0},{"id":165784,"code":"B4KJ201801005-4033","latitude":"35.1631028","longitude":"136.6568956","source_code":"CB52365592003","project_name":"","survey_name":"\u662d\u548c47\u5e74\u6d77\u6d25\u753a\u5730\u8cea\u8abf\u67fb","client_name":"\u56fd\u571f\u4ea4\u901a\u7701\u4e2d\u90e8\u5730\u65b9\u6574\u5099\u5c40\u4e2d\u90e8\u6280\u8853\u4e8b\u52d9\u6240","boring_xml_url":40,"boring_view_url":1,"soilmap_view_url":null,"soiltest_xml_url":0,"soiltest_view_url":0},{"id":165783,"code":"B4KJ201801005-4032","latitude":"35.1626864","longitude":"136.6563122","source_code":"CB52365592002","project_name":"","survey_name":"\u662d\u548c41\u5e74\u5ea6\u5e06\u5f15\u3002\u798f\u6c38\u3002\u5927\u9ce5\u5c45\u5730\u8cea\u8abf\u67fb","client_name":"\u56fd\u571f\u4ea4\u901a\u7701\u4e2d\u90e8\u5730\u65b9\u6574\u5099\u5c40\u4e2d\u90e8\u6280\u8853\u4e8b\u52d9\u6240","boring_xml_url":40,"boring_view_url":1,"soilmap_view_url":null,"soiltest_xml_url":0,"soiltest_view_url":0},{"id":165782,"code":"B4KJ201801005-4031","latitude":"35.1638528","longitude":"136.6551733","source_code":"CB52365592001","project_name":"","survey_name":"\u662d\u548c41\u5e74\u5ea6\u5e06\u5f15\u3002\u5927\u9ce5\u5c45\u5730\u8cea\u8abf\u67fb","client_name":"\u56fd\u571f\u4ea4\u901a\u7701\u4e2d\u90e8\u5730\u65b9\u6574\u5099\u5c40\u4e2d\u90e8\u6280\u8853\u4e8b\u52d9\u6240","boring_xml_url":40,"boring_view_url":1,"soilmap_view_url":null,"soiltest_xml_url":0,"soiltest_view_url":0},{"id":165781,"code":"B4KJ201801005-4030","latitude":"35.1631303","longitude":"136.6459797","source_code":"CB52365591006","project_name":"","survey_name":"\u5e73\u621010\u5e74\u5ea6 \u63d6\u6590\u5ddd\u5824\u9632\u8a73\u7d30\u70b9\u691c","client_name":"\u56fd\u571f\u4ea4\u901a\u7701\u4e2d\u90e8\u5730\u65b9\u6574\u5099\u5c40\u6728\u66fd\u5ddd\u4e0b\u6d41\u6cb3\u5ddd\u4e8b\u52d9\u6240","boring_xml_url":40,"boring_view_url":1,"soilmap_view_url":null,"soiltest_xml_url":0,"soiltest_view_url":0},{"id":165780,"code":"B4KJ201801005-4029","latitude":"35.1627694","longitude":"136.6457853","source_code":"CB52365591005","project_name":"","survey_name":"\u5e73\u621010\u5e74\u5ea6 \u63d6\u6590\u5ddd\u5824\u9632\u8a73\u7d30\u70b9\u691c","client_name":"\u56fd\u571f\u4ea4\u901a\u7701\u4e2d\u90e8\u5730\u65b9\u6574\u5099\u5c40\u6728\u66fd\u5ddd\u4e0b\u6d41\u6cb3\u5ddd\u4e8b\u52d9\u6240","boring_xml_url":40,"boring_view_url":1,"soilmap_view_url":null,"soiltest_xml_url":0,"soiltest_view_url":0},{"id":165779,"code":"B4KJ201801005-4028","latitude":"35.1628528","longitude":"136.6458686","source_code":"CB52365591004","project_name":"","survey_name":"\u5e73\u621010\u5e74\u5ea6 \u63d6\u6590\u5ddd\u5824\u9632\u8a73\u7d30\u70b9\u691c","client_name":"\u56fd\u571f\u4ea4\u901a\u7701\u4e2d\u90e8\u5730\u65b9\u6574\u5099\u5c40\u6728\u66fd\u5ddd\u4e0b\u6d41\u6cb3\u5ddd\u4e8b\u52d9\u6240","boring_xml_url":40,"boring_view_url":1,"soilmap_view_url":null,"soiltest_xml_url":0,"soiltest_view_url":0},{"id":165778,"code":"B4KJ201801005-4027","latitude":"35.1684353","longitude":"136.6448408","source_code":"CB52365591003","project_name":"","survey_name":"\u5e73\u62102\u5e74\u5ea6\u63d6\u6590\u5ddd\u5730\u8cea\u8abf\u67fb","client_name":"\u56fd\u571f\u4ea4\u901a\u7701\u4e2d\u90e8\u5730\u65b9\u6574\u5099\u5c40\u6728\u66fd\u5ddd\u4e0b\u6d41\u6cb3\u5ddd\u4e8b\u52d9\u6240","boring_xml_url":40,"boring_view_url":1,"soilmap_view_url":null,"soiltest_xml_url":0,"soiltest_view_url":0},{"id":165777,"code":"B4KJ201801005-4026","latitude":"35.1688242","longitude":"136.6446464","source_code":"CB52365591002","project_name":"","survey_name":"\u63d6\u6590\u5ddd\u5824\u9632\u5730\u8cea\u8abf\u67fb","client_name":"\u56fd\u571f\u4ea4\u901a\u7701\u4e2d\u90e8\u5730\u65b9\u6574\u5099\u5c40\u6728\u66fd\u5ddd\u4e0b\u6d41\u6cb3\u5ddd\u4e8b\u52d9\u6240","boring_xml_url":40,"boring_view_url":1,"soilmap_view_url":null,"soiltest_xml_url":0,"soiltest_view_url":0},{"id":165776,"code":"B4KJ201801005-4025","latitude":"35.1657133","longitude":"136.6408133","source_code":"CB52365591001","project_name":"","survey_name":"\u63d6\u6590\u5ddd\u53f3\u5cb8\u52e2\u6fc3\u6c34\u9580\u5730\u8cea\u8abf\u67fb","client_name":"\u56fd\u571f\u4ea4\u901a\u7701\u4e2d\u90e8\u5730\u65b9\u6574\u5099\u5c40\u6728\u66fd\u5ddd\u4e0b\u6d41\u6cb3\u5ddd\u4e8b\u52d9\u6240","boring_xml_url":40,"boring_view_url":1,"soilmap_view_url":null,"soiltest_xml_url":0,"soiltest_view_url":0}]}}