{"header":{"xyz":{"source":[],"mosaic":false},"page":5160,"raw":{"soiltest_result":"0","bbox":"57.598333,109.544722,1.933333,163.806111","page":"5160"},"conditions":{"soiltest_result":0,"north":57.598333,"west":109.544722,"south":1.933333,"east":163.806111},"success":true,"message":""},"data":{"meta":{"total":212844,"page":5160,"pages":7095,"count":30},"values":[{"id":165775,"code":"B4KJ201801005-4024","latitude":"35.1641856","longitude":"136.6300922","source_code":"CB52365590004","project_name":"","survey_name":"\u662d\u548c40\u5e74\u5ea6\u56fd\u9053258\u53f7\u7dda\u77f3\u6d25\u5730\u533a\u5730\u8cea\u8abf\u67fb","client_name":"\u56fd\u571f\u4ea4\u901a\u7701\u4e2d\u90e8\u5730\u65b9\u6574\u5099\u5c40\u4e2d\u90e8\u6280\u8853\u4e8b\u52d9\u6240","boring_xml_url":40,"boring_view_url":1,"soilmap_view_url":null,"soiltest_xml_url":0,"soiltest_view_url":0},{"id":165774,"code":"B4KJ201801005-4023","latitude":"35.1652686","longitude":"136.6297311","source_code":"CB52365590003","project_name":"","survey_name":"\u662d\u548c40\u5e74\u5ea6\u56fd\u9053258\u53f7\u7dda\u77f3\u6d25\u5730\u533a\u5730\u8cea\u8abf\u67fb","client_name":"\u56fd\u571f\u4ea4\u901a\u7701\u4e2d\u90e8\u5730\u65b9\u6574\u5099\u5c40\u4e2d\u90e8\u6280\u8853\u4e8b\u52d9\u6240","boring_xml_url":40,"boring_view_url":1,"soilmap_view_url":null,"soiltest_xml_url":0,"soiltest_view_url":0},{"id":165773,"code":"B4KJ201801005-4022","latitude":"35.1665464","longitude":"136.6291478","source_code":"CB52365590002","project_name":"","survey_name":"\u662d\u548c40\u5e74\u5ea6\u56fd\u9053258\u53f7\u7dda\u77f3\u6d25\u5730\u533a\u5730\u8cea\u8abf\u67fb","client_name":"\u56fd\u571f\u4ea4\u901a\u7701\u4e2d\u90e8\u5730\u65b9\u6574\u5099\u5c40\u4e2d\u90e8\u6280\u8853\u4e8b\u52d9\u6240","boring_xml_url":40,"boring_view_url":1,"soilmap_view_url":null,"soiltest_xml_url":0,"soiltest_view_url":0},{"id":165772,"code":"B4KJ201801005-4021","latitude":"35.1670461","longitude":"136.6289256","source_code":"CB52365590001","project_name":"","survey_name":"\u662d\u548c40\u5e74\u5ea6\u56fd\u9053258\u53f7\u7dda\u77f3\u6d25\u5730\u533a\u5730\u8cea\u8abf\u67fb","client_name":"\u56fd\u571f\u4ea4\u901a\u7701\u4e2d\u90e8\u5730\u65b9\u6574\u5099\u5c40\u4e2d\u90e8\u6280\u8853\u4e8b\u52d9\u6240","boring_xml_url":40,"boring_view_url":1,"soilmap_view_url":null,"soiltest_xml_url":0,"soiltest_view_url":0},{"id":165771,"code":"B4KJ201801005-4020","latitude":"35.1605761","longitude":"136.6841708","source_code":"CB52365584002","project_name":"","survey_name":"\u5e73\u62104\u5e74\u5ea6\u6728\u66fd\u5ddd\u5de6\u5cb8\u5730\u533a\u5730\u8cea\u8abf\u67fb\u4ed61\u4ef6\u8abf\u67fb\u691c\u8a0e","client_name":"\u56fd\u571f\u4ea4\u901a\u7701\u4e2d\u90e8\u5730\u65b9\u6574\u5099\u5c40\u6728\u66fd\u5ddd\u4e0b\u6d41\u6cb3\u5ddd\u4e8b\u52d9\u6240","boring_xml_url":40,"boring_view_url":1,"soilmap_view_url":null,"soiltest_xml_url":0,"soiltest_view_url":0},{"id":165770,"code":"B4KJ201801005-4019","latitude":"35.1570208","longitude":"136.6843933","source_code":"CB52365584001","project_name":"","survey_name":"\u5e73\u62104\u5e74\u5ea6\u6728\u66fd\u5ddd\u5de6\u5cb8\u5730\u533a\u5730\u8cea\u8abf\u67fb\u4ed61\u4ef6\u8abf\u67fb\u691c\u8a0e","client_name":"\u56fd\u571f\u4ea4\u901a\u7701\u4e2d\u90e8\u5730\u65b9\u6574\u5099\u5c40\u6728\u66fd\u5ddd\u4e0b\u6d41\u6cb3\u5ddd\u4e8b\u52d9\u6240","boring_xml_url":40,"boring_view_url":1,"soilmap_view_url":null,"soiltest_xml_url":0,"soiltest_view_url":0},{"id":165769,"code":"B4KJ201801005-4018","latitude":"35.1590758","longitude":"136.6702556","source_code":"CB52365583004","project_name":"","survey_name":"\u9577\u826f\u5ddd\u5824\u9632\u5730\u8cea\u8abf\u67fb","client_name":"\u56fd\u571f\u4ea4\u901a\u7701\u4e2d\u90e8\u5730\u65b9\u6574\u5099\u5c40\u6728\u66fd\u5ddd\u4e0b\u6d41\u6cb3\u5ddd\u4e8b\u52d9\u6240","boring_xml_url":40,"boring_view_url":1,"soilmap_view_url":null,"soiltest_xml_url":0,"soiltest_view_url":0},{"id":165768,"code":"B4KJ201801005-4017","latitude":"35.1590758","longitude":"136.6704778","source_code":"CB52365583003","project_name":"","survey_name":"\u9577\u826f\u5ddd\u5824\u9632\u5730\u8cea\u8abf\u67fb","client_name":"\u56fd\u571f\u4ea4\u901a\u7701\u4e2d\u90e8\u5730\u65b9\u6574\u5099\u5c40\u6728\u66fd\u5ddd\u4e0b\u6d41\u6cb3\u5ddd\u4e8b\u52d9\u6240","boring_xml_url":40,"boring_view_url":1,"soilmap_view_url":null,"soiltest_xml_url":0,"soiltest_view_url":0},{"id":165767,"code":"B4KJ201801005-4016","latitude":"35.1590758","longitude":"136.6710889","source_code":"CB52365583002","project_name":"","survey_name":"\u9577\u826f\u5ddd\u5824\u9632\u5730\u8cea\u8abf\u67fb","client_name":"\u56fd\u571f\u4ea4\u901a\u7701\u4e2d\u90e8\u5730\u65b9\u6574\u5099\u5c40\u6728\u66fd\u5ddd\u4e0b\u6d41\u6cb3\u5ddd\u4e8b\u52d9\u6240","boring_xml_url":40,"boring_view_url":1,"soilmap_view_url":null,"soiltest_xml_url":0,"soiltest_view_url":0},{"id":165766,"code":"B4KJ201801005-4015","latitude":"35.1535764","longitude":"136.6610342","source_code":"CB52365583001","project_name":"","survey_name":"\u5927\u6c5f\u6c34\u9580\u5730\u8cea\u8abf\u67fb\u5de5\u4e8b","client_name":"\u56fd\u571f\u4ea4\u901a\u7701\u4e2d\u90e8\u5730\u65b9\u6574\u5099\u5c40\u4e2d\u90e8\u6280\u8853\u4e8b\u52d9\u6240","boring_xml_url":40,"boring_view_url":1,"soilmap_view_url":null,"soiltest_xml_url":0,"soiltest_view_url":0},{"id":165765,"code":"B4KJ201801005-4014","latitude":"35.15777","longitude":"136.6529236","source_code":"CB52365582004","project_name":"","survey_name":"\u5e73\u621010\u5e74\u5ea6 \u63d6\u6590\u5ddd\u5824\u9632\u8a73\u7d30\u70b9\u691c","client_name":"\u56fd\u571f\u4ea4\u901a\u7701\u4e2d\u90e8\u5730\u65b9\u6574\u5099\u5c40\u6728\u66fd\u5ddd\u4e0b\u6d41\u6cb3\u5ddd\u4e8b\u52d9\u6240","boring_xml_url":40,"boring_view_url":1,"soilmap_view_url":null,"soiltest_xml_url":0,"soiltest_view_url":0},{"id":165764,"code":"B4KJ201801005-4013","latitude":"35.1576589","longitude":"136.6526739","source_code":"CB52365582003","project_name":"","survey_name":"\u5e73\u621010\u5e74\u5ea6 \u63d6\u6590\u5ddd\u5824\u9632\u8a73\u7d30\u70b9\u691c","client_name":"\u56fd\u571f\u4ea4\u901a\u7701\u4e2d\u90e8\u5730\u65b9\u6574\u5099\u5c40\u6728\u66fd\u5ddd\u4e0b\u6d41\u6cb3\u5ddd\u4e8b\u52d9\u6240","boring_xml_url":40,"boring_view_url":1,"soilmap_view_url":null,"soiltest_xml_url":0,"soiltest_view_url":0},{"id":165763,"code":"B4KJ201801005-4012","latitude":"35.1576867","longitude":"136.6528403","source_code":"CB52365582002","project_name":"","survey_name":"\u5e73\u621010\u5e74\u5ea6 \u63d6\u6590\u5ddd\u5824\u9632\u8a73\u7d30\u70b9\u691c","client_name":"\u56fd\u571f\u4ea4\u901a\u7701\u4e2d\u90e8\u5730\u65b9\u6574\u5099\u5c40\u6728\u66fd\u5ddd\u4e0b\u6d41\u6cb3\u5ddd\u4e8b\u52d9\u6240","boring_xml_url":40,"boring_view_url":1,"soilmap_view_url":null,"soiltest_xml_url":0,"soiltest_view_url":0},{"id":165762,"code":"B4KJ201801005-4011","latitude":"35.1589644","longitude":"136.6581733","source_code":"CB52365582001","project_name":"","survey_name":"\u5e73\u621010\u5e74\u5ea6 \u63d6\u6590\u5ddd\u5824\u9632\u8a73\u7d30\u70b9\u691c","client_name":"\u56fd\u571f\u4ea4\u901a\u7701\u4e2d\u90e8\u5730\u65b9\u6574\u5099\u5c40\u6728\u66fd\u5ddd\u4e0b\u6d41\u6cb3\u5ddd\u4e8b\u52d9\u6240","boring_xml_url":40,"boring_view_url":1,"soilmap_view_url":null,"soiltest_xml_url":0,"soiltest_view_url":0},{"id":165761,"code":"B4KJ201801005-4010","latitude":"35.1558808","longitude":"136.6336756","source_code":"CB52365580002","project_name":"","survey_name":"\u662d\u548c40\u5e74\u5ea6\u56fd\u9053258\u53f7\u7dda\u77f3\u6d25\u5730\u533a\u5730\u8cea\u8abf\u67fb","client_name":"\u56fd\u571f\u4ea4\u901a\u7701\u4e2d\u90e8\u5730\u65b9\u6574\u5099\u5c40\u4e2d\u90e8\u6280\u8853\u4e8b\u52d9\u6240","boring_xml_url":40,"boring_view_url":1,"soilmap_view_url":null,"soiltest_xml_url":0,"soiltest_view_url":0},{"id":165760,"code":"B4KJ201801005-4009","latitude":"35.1589083","longitude":"136.6323978","source_code":"CB52365580001","project_name":"","survey_name":"\u662d\u548c40\u5e74\u5ea6\u56fd\u9053258\u53f7\u7dda\u77f3\u6d25\u5730\u533a\u5730\u8cea\u8abf\u67fb","client_name":"\u56fd\u571f\u4ea4\u901a\u7701\u4e2d\u90e8\u5730\u65b9\u6574\u5099\u5c40\u4e2d\u90e8\u6280\u8853\u4e8b\u52d9\u6240","boring_xml_url":40,"boring_view_url":1,"soilmap_view_url":null,"soiltest_xml_url":0,"soiltest_view_url":0},{"id":165759,"code":"B4KJ201801005-4008","latitude":"35.1454389","longitude":"136.6848381","source_code":"CB52365575002","project_name":"","survey_name":"\u5e73\u62106\u5e74\u5ea6\u6728\u66fd\u5ddd\u5de6\u5cb8\u5730\u8cea\u8abf\u67fb\u59161\u4ef6\u696d\u52d9\u59d4\u8a17","client_name":"\u56fd\u571f\u4ea4\u901a\u7701\u4e2d\u90e8\u5730\u65b9\u6574\u5099\u5c40\u6728\u66fd\u5ddd\u4e0b\u6d41\u6cb3\u5ddd\u4e8b\u52d9\u6240","boring_xml_url":40,"boring_view_url":1,"soilmap_view_url":null,"soiltest_xml_url":0,"soiltest_view_url":0},{"id":165758,"code":"B4KJ201801005-4007","latitude":"35.1482161","longitude":"136.6694506","source_code":"CB52365573017","project_name":"","survey_name":"\u5e73\u621013\u5e74\u5ea6\u9577\u826f\u5ddd\u6cb9\u5cf6\u5730\u8cea\u8abf\u67fb","client_name":"\u56fd\u571f\u4ea4\u901a\u7701\u4e2d\u90e8\u5730\u65b9\u6574\u5099\u5c40\u6728\u66fd\u5ddd\u4e0a\u6d41\u6cb3\u5ddd\u4e8b\u52d9\u6240","boring_xml_url":40,"boring_view_url":1,"soilmap_view_url":null,"soiltest_xml_url":0,"soiltest_view_url":0},{"id":165757,"code":"B4KJ201801005-4006","latitude":"35.148105","longitude":"136.6697003","source_code":"CB52365573016","project_name":"","survey_name":"\u5e73\u621013\u5e74\u5ea6\u9577\u826f\u5ddd\u6cb9\u5cf6\u5730\u8cea\u8abf\u67fb","client_name":"\u56fd\u571f\u4ea4\u901a\u7701\u4e2d\u90e8\u5730\u65b9\u6574\u5099\u5c40\u6728\u66fd\u5ddd\u4e0a\u6d41\u6cb3\u5ddd\u4e8b\u52d9\u6240","boring_xml_url":40,"boring_view_url":1,"soilmap_view_url":null,"soiltest_xml_url":0,"soiltest_view_url":0},{"id":165756,"code":"B4KJ201801005-4005","latitude":"35.1480217","longitude":"136.6699781","source_code":"CB52365573015","project_name":"","survey_name":"\u5e73\u621013\u5e74\u5ea6\u9577\u826f\u5ddd\u6cb9\u5cf6\u5730\u8cea\u8abf\u67fb","client_name":"\u56fd\u571f\u4ea4\u901a\u7701\u4e2d\u90e8\u5730\u65b9\u6574\u5099\u5c40\u6728\u66fd\u5ddd\u4e0a\u6d41\u6cb3\u5ddd\u4e8b\u52d9\u6240","boring_xml_url":40,"boring_view_url":1,"soilmap_view_url":null,"soiltest_xml_url":0,"soiltest_view_url":0},{"id":165755,"code":"B4KJ201801005-4004","latitude":"35.1530764","longitude":"136.6615064","source_code":"CB52365573011","project_name":"","survey_name":"\u5e73\u62106\u5e74\u5ea6\u63d6\u6590\u5ddd\u5927\u6c5f\u3072\u9580\u3072\u7ba1\u6539\u7bc9\u5730\u8cea\u8abf\u67fb\u53ca\u3073\u6e2c\u91cf","client_name":"\u56fd\u571f\u4ea4\u901a\u7701\u4e2d\u90e8\u5730\u65b9\u6574\u5099\u5c40\u6728\u66fd\u5ddd\u4e0b\u6d41\u6cb3\u5ddd\u4e8b\u52d9\u6240","boring_xml_url":40,"boring_view_url":1,"soilmap_view_url":null,"soiltest_xml_url":0,"soiltest_view_url":0},{"id":165754,"code":"B4KJ201801005-4003","latitude":"35.1532153","longitude":"136.6620619","source_code":"CB52365573010","project_name":"","survey_name":"\u5e73\u62106\u5e74\u5ea6\u63d6\u6590\u5ddd\u5927\u6c5f\u3072\u9580\u3072\u7ba1\u6539\u7bc9\u5730\u8cea\u8abf\u67fb\u53ca\u3073\u6e2c\u91cf","client_name":"\u56fd\u571f\u4ea4\u901a\u7701\u4e2d\u90e8\u5730\u65b9\u6574\u5099\u5c40\u6728\u66fd\u5ddd\u4e0b\u6d41\u6cb3\u5ddd\u4e8b\u52d9\u6240","boring_xml_url":40,"boring_view_url":1,"soilmap_view_url":null,"soiltest_xml_url":0,"soiltest_view_url":0},{"id":165753,"code":"B4KJ201801005-4002","latitude":"35.1527986","longitude":"136.6620619","source_code":"CB52365573009","project_name":"","survey_name":"\u5e73\u62106\u5e74\u5ea6\u63d6\u6590\u5ddd\u5927\u6c5f\u3072\u9580\u3072\u7ba1\u6539\u7bc9\u5730\u8cea\u8abf\u67fb\u53ca\u3073\u6e2c\u91cf","client_name":"\u56fd\u571f\u4ea4\u901a\u7701\u4e2d\u90e8\u5730\u65b9\u6574\u5099\u5c40\u6728\u66fd\u5ddd\u4e0b\u6d41\u6cb3\u5ddd\u4e8b\u52d9\u6240","boring_xml_url":40,"boring_view_url":1,"soilmap_view_url":null,"soiltest_xml_url":0,"soiltest_view_url":0},{"id":165752,"code":"B4KJ201801005-4001","latitude":"35.1482717","longitude":"136.6692006","source_code":"CB52365573008","project_name":"","survey_name":"\u4e2d\u592e\u6c34\u90f7\u5730\u533a\u30bb\u30f3\u30bf\u30fc\u5730\u76e4\u5f71\u97ff\u8abf\u67fb","client_name":"\u56fd\u571f\u4ea4\u901a\u7701\u4e2d\u90e8\u5730\u65b9\u6574\u5099\u5c40\u6728\u66fd\u5ddd\u4e0b\u6d41\u6cb3\u5ddd\u4e8b\u52d9\u6240","boring_xml_url":40,"boring_view_url":1,"soilmap_view_url":null,"soiltest_xml_url":0,"soiltest_view_url":0},{"id":165751,"code":"B4KJ201801005-4000","latitude":"35.1459383","longitude":"136.6672839","source_code":"CB52365573007","project_name":"","survey_name":"\u4e2d\u592e\u6c34\u90f7\u5730\u533a\u30bb\u30f3\u30bf\u30fc\u5730\u76e4\u5f71\u97ff\u8abf\u67fb","client_name":"\u56fd\u571f\u4ea4\u901a\u7701\u4e2d\u90e8\u5730\u65b9\u6574\u5099\u5c40\u6728\u66fd\u5ddd\u4e0b\u6d41\u6cb3\u5ddd\u4e8b\u52d9\u6240","boring_xml_url":40,"boring_view_url":1,"soilmap_view_url":null,"soiltest_xml_url":0,"soiltest_view_url":0},{"id":165750,"code":"B4KJ201801005-3999","latitude":"35.1493547","longitude":"136.6699225","source_code":"CB52365573006","project_name":"","survey_name":"\u9577\u826f\u5ddd\u5824\u9632\u5730\u8cea\u8abf\u67fb","client_name":"\u56fd\u571f\u4ea4\u901a\u7701\u4e2d\u90e8\u5730\u65b9\u6574\u5099\u5c40\u6728\u66fd\u5ddd\u4e0b\u6d41\u6cb3\u5ddd\u4e8b\u52d9\u6240","boring_xml_url":40,"boring_view_url":1,"soilmap_view_url":null,"soiltest_xml_url":0,"soiltest_view_url":0},{"id":165749,"code":"B4KJ201801005-3998","latitude":"35.1492714","longitude":"136.6706725","source_code":"CB52365573005","project_name":"","survey_name":"\u9577\u826f\u5ddd\u5824\u9632\u5730\u8cea\u8abf\u67fb","client_name":"\u56fd\u571f\u4ea4\u901a\u7701\u4e2d\u90e8\u5730\u65b9\u6574\u5099\u5c40\u6728\u66fd\u5ddd\u4e0b\u6d41\u6cb3\u5ddd\u4e8b\u52d9\u6240","boring_xml_url":40,"boring_view_url":1,"soilmap_view_url":null,"soiltest_xml_url":0,"soiltest_view_url":0},{"id":165748,"code":"B4KJ201801005-3997","latitude":"35.1460772","longitude":"136.6667842","source_code":"CB52365573004","project_name":"","survey_name":"\u6cb9\u5cf6\u5730\u533a\u5730\u8cea\u8abf\u67fb","client_name":"\u56fd\u571f\u4ea4\u901a\u7701\u4e2d\u90e8\u5730\u65b9\u6574\u5099\u5c40\u6728\u66fd\u5ddd\u4e0b\u6d41\u6cb3\u5ddd\u4e8b\u52d9\u6240","boring_xml_url":40,"boring_view_url":1,"soilmap_view_url":null,"soiltest_xml_url":0,"soiltest_view_url":0},{"id":165747,"code":"B4KJ201801005-3996","latitude":"35.1455775","longitude":"136.6673397","source_code":"CB52365573003","project_name":"","survey_name":"\u6cb9\u5cf6\u5730\u533a\u5730\u8cea\u8abf\u67fb","client_name":"\u56fd\u571f\u4ea4\u901a\u7701\u4e2d\u90e8\u5730\u65b9\u6574\u5099\u5c40\u6728\u66fd\u5ddd\u4e0b\u6d41\u6cb3\u5ddd\u4e8b\u52d9\u6240","boring_xml_url":40,"boring_view_url":1,"soilmap_view_url":null,"soiltest_xml_url":0,"soiltest_view_url":0},{"id":165746,"code":"B4KJ201801005-3995","latitude":"35.1482436","longitude":"136.6645897","source_code":"CB52365573002","project_name":"","survey_name":"\u798f\u6c5f\u6a0b\u9580\u5730\u8cea\u8abf\u67fb","client_name":"\u56fd\u571f\u4ea4\u901a\u7701\u4e2d\u90e8\u5730\u65b9\u6574\u5099\u5c40\u4e2d\u90e8\u6280\u8853\u4e8b\u52d9\u6240","boring_xml_url":40,"boring_view_url":1,"soilmap_view_url":null,"soiltest_xml_url":0,"soiltest_view_url":0}]}}