{"header":{"xyz":{"source":[],"mosaic":false},"page":5166,"raw":{"soiltest_result":"0","bbox":"57.598333,109.544722,1.933333,163.806111","page":"5166"},"conditions":{"soiltest_result":0,"north":57.598333,"west":109.544722,"south":1.933333,"east":163.806111},"success":true,"message":""},"data":{"meta":{"total":212844,"page":5166,"pages":7095,"count":30},"values":[{"id":165595,"code":"B4KJ201801005-3844","latitude":"35.0810908","longitude":"136.9236253","source_code":"CB52364794214","project_name":"","survey_name":"\u540d\u53e4\u5c4b\u5e02\u5357\u533a_\u77e5\u591a\u90e1\u5927\u9ad8\u753a\u5929\u767d\u5ddd\u6a4b\u3001\u5927\u6c5f\u5ddd\u6a4b\u5730\u8cea\u8abf\u67fb","client_name":"\u56fd\u571f\u4ea4\u901a\u7701\u4e2d\u90e8\u5730\u65b9\u6574\u5099\u5c40\u540d\u56db\u56fd\u9053\u4e8b\u52d9\u6240","boring_xml_url":40,"boring_view_url":1,"soilmap_view_url":null,"soiltest_xml_url":0,"soiltest_view_url":0},{"id":165594,"code":"B4KJ201801005-3843","latitude":"35.0833128","longitude":"136.9234583","source_code":"CB52364794204","project_name":"","survey_name":"\u540d\u53e4\u5c4b\u5e02\u5357\u533a_\u77e5\u591a\u90e1\u5927\u9ad8\u753a\u5929\u767d\u5ddd\u6a4b\u3001\u5927\u6c5f\u5ddd\u6a4b\u5730\u8cea\u8abf\u67fb","client_name":"\u56fd\u571f\u4ea4\u901a\u7701\u4e2d\u90e8\u5730\u65b9\u6574\u5099\u5c40\u540d\u56db\u56fd\u9053\u4e8b\u52d9\u6240","boring_xml_url":40,"boring_view_url":1,"soilmap_view_url":null,"soiltest_xml_url":0,"soiltest_view_url":0},{"id":165593,"code":"B4KJ201801005-3842","latitude":"35.0839794","longitude":"136.9235694","source_code":"CB52364794193","project_name":"","survey_name":"\u540d\u56db\u56fd\u9053\u6771\u90e8\u8a08\u753b\u7dda(\u5f25\u6b21\u885b\u753a\uff5e\u5927\u9ad8\u753a\u9593)\u5730\u8cea\u8abf\u67fb","client_name":"\u56fd\u571f\u4ea4\u901a\u7701\u4e2d\u90e8\u5730\u65b9\u6574\u5099\u5c40\u540d\u56db\u56fd\u9053\u4e8b\u52d9\u6240","boring_xml_url":40,"boring_view_url":1,"soilmap_view_url":null,"soiltest_xml_url":0,"soiltest_view_url":0},{"id":165592,"code":"B4KJ201801005-3841","latitude":"35.0854517","longitude":"136.9334297","source_code":"CB52364794006","project_name":"","survey_name":"\u5e73\u62103\u5e74\u5ea6\u6709\u677e\u5171\u540c\u6e9d\u59161\u4ef6\u5730\u8cea\u8abf\u67fb","client_name":"\u56fd\u571f\u4ea4\u901a\u7701\u4e2d\u90e8\u5730\u65b9\u6574\u5099\u5c40\u540d\u53e4\u5c4b\u56fd\u9053\u4e8b\u52d9\u6240","boring_xml_url":40,"boring_view_url":1,"soilmap_view_url":null,"soiltest_xml_url":0,"soiltest_view_url":0},{"id":165591,"code":"B4KJ201801005-3840","latitude":"35.0846186","longitude":"136.9339853","source_code":"CB52364794005","project_name":"","survey_name":"\u5e73\u62103\u5e74\u5ea6\u6709\u677e\u5171\u540c\u6e9d\u59161\u4ef6\u5730\u8cea\u8abf\u67fb","client_name":"\u56fd\u571f\u4ea4\u901a\u7701\u4e2d\u90e8\u5730\u65b9\u6574\u5099\u5c40\u540d\u53e4\u5c4b\u56fd\u9053\u4e8b\u52d9\u6240","boring_xml_url":40,"boring_view_url":1,"soilmap_view_url":null,"soiltest_xml_url":0,"soiltest_view_url":0},{"id":165590,"code":"B4KJ201801005-3839","latitude":"35.0817853","longitude":"136.9236528","source_code":"CB52364794004","project_name":"","survey_name":"\u540d\u56db\u56fd\u9053\u6771\u90fd\u8a08\u753b\u7dda\u5730\u8cea\u8abf\u67fb","client_name":"\u56fd\u571f\u4ea4\u901a\u7701\u4e2d\u90e8\u5730\u65b9\u6574\u5099\u5c40\u4e2d\u90e8\u6280\u8853\u4e8b\u52d9\u6240","boring_xml_url":40,"boring_view_url":1,"soilmap_view_url":null,"soiltest_xml_url":0,"soiltest_view_url":0},{"id":165589,"code":"B4KJ201801005-3838","latitude":"35.0823686","longitude":"136.9234306","source_code":"CB52364794003","project_name":"","survey_name":"\u5929\u767d\u5ddd\u6a4b\u5927\u6c5f\u5ddd\u6a4b\u5730\u8cea\u8abf\u67fb","client_name":"\u56fd\u571f\u4ea4\u901a\u7701\u4e2d\u90e8\u5730\u65b9\u6574\u5099\u5c40\u4e2d\u90e8\u6280\u8853\u4e8b\u52d9\u6240","boring_xml_url":40,"boring_view_url":1,"soilmap_view_url":null,"soiltest_xml_url":0,"soiltest_view_url":0},{"id":165588,"code":"B4KJ201801005-3837","latitude":"35.0828408","longitude":"136.9233194","source_code":"CB52364794002","project_name":"","survey_name":"\u5929\u767d\u5ddd\u6a4b\u5927\u6c5f\u5ddd\u6a4b\u5730\u8cea\u8abf\u67fb","client_name":"\u56fd\u571f\u4ea4\u901a\u7701\u4e2d\u90e8\u5730\u65b9\u6574\u5099\u5c40\u4e2d\u90e8\u6280\u8853\u4e8b\u52d9\u6240","boring_xml_url":40,"boring_view_url":1,"soilmap_view_url":null,"soiltest_xml_url":0,"soiltest_view_url":0},{"id":165587,"code":"B4KJ201801005-3836","latitude":"35.0834517","longitude":"136.9231528","source_code":"CB52364794001","project_name":"","survey_name":"\u540d\u56db\u56fd\u9053\u6771\u90e8\u8a08\u753b\u7dda\u5730\u8cea\u8abf\u67fb","client_name":"\u56fd\u571f\u4ea4\u901a\u7701\u4e2d\u90e8\u5730\u65b9\u6574\u5099\u5c40\u4e2d\u90e8\u6280\u8853\u4e8b\u52d9\u6240","boring_xml_url":40,"boring_view_url":1,"soilmap_view_url":null,"soiltest_xml_url":0,"soiltest_view_url":0},{"id":165586,"code":"B4KJ201801005-3835","latitude":"35.0706486","longitude":"136.966955","source_code":"CB52364787018","project_name":"","survey_name":"\u5e73\u621012\u5e74\u5ea6 \u7ba1\u5185\u5730\u8cea\u8abf\u67fb","client_name":"\u56fd\u571f\u4ea4\u901a\u7701\u4e2d\u90e8\u5730\u65b9\u6574\u5099\u5c40\u611b\u77e5\u56fd\u9053\u4e8b\u52d9\u6240","boring_xml_url":40,"boring_view_url":1,"soilmap_view_url":null,"soiltest_xml_url":0,"soiltest_view_url":0},{"id":165585,"code":"B4KJ201801005-3834","latitude":"35.0705097","longitude":"136.9672883","source_code":"CB52364787017","project_name":"","survey_name":"\u5e73\u621012\u5e74\u5ea6 \u7ba1\u5185\u5730\u8cea\u8abf\u67fb","client_name":"\u56fd\u571f\u4ea4\u901a\u7701\u4e2d\u90e8\u5730\u65b9\u6574\u5099\u5c40\u611b\u77e5\u56fd\u9053\u4e8b\u52d9\u6240","boring_xml_url":40,"boring_view_url":1,"soilmap_view_url":null,"soiltest_xml_url":0,"soiltest_view_url":0},{"id":165584,"code":"B4KJ201801005-3833","latitude":"35.0710375","longitude":"136.9675661","source_code":"CB52364787016","project_name":"","survey_name":"\u5e73\u621012\u5e74\u5ea6 \u7ba1\u5185\u5730\u8cea\u8abf\u67fb","client_name":"\u56fd\u571f\u4ea4\u901a\u7701\u4e2d\u90e8\u5730\u65b9\u6574\u5099\u5c40\u611b\u77e5\u56fd\u9053\u4e8b\u52d9\u6240","boring_xml_url":40,"boring_view_url":1,"soilmap_view_url":null,"soiltest_xml_url":0,"soiltest_view_url":0},{"id":165583,"code":"B4KJ201801005-3832","latitude":"35.0718153","longitude":"136.9671494","source_code":"CB52364787006","project_name":"","survey_name":"\u5e73\u621011\u5e74\u5ea6 302\u53f7\u7dd1\u5730\u533a\u5730\u8cea\u8abf\u67fb","client_name":"\u56fd\u571f\u4ea4\u901a\u7701\u4e2d\u90e8\u5730\u65b9\u6574\u5099\u5c40\u611b\u77e5\u56fd\u9053\u4e8b\u52d9\u6240","boring_xml_url":40,"boring_view_url":1,"soilmap_view_url":null,"soiltest_xml_url":0,"soiltest_view_url":0},{"id":165582,"code":"B4KJ201801005-3831","latitude":"35.0727042","longitude":"136.967455","source_code":"CB52364787005","project_name":"","survey_name":"\u5e73\u62108\u5e74\u5ea6302\u53f7\u6771\u5357\u90e8\u5730\u533a\u5730\u8cea\u8abf\u67fb\u305d\u306e1","client_name":"\u56fd\u571f\u4ea4\u901a\u7701\u4e2d\u90e8\u5730\u65b9\u6574\u5099\u5c40\u611b\u77e5\u56fd\u9053\u4e8b\u52d9\u6240","boring_xml_url":40,"boring_view_url":1,"soilmap_view_url":null,"soiltest_xml_url":0,"soiltest_view_url":0},{"id":165581,"code":"B4KJ201801005-3830","latitude":"35.075315","longitude":"136.9694547","source_code":"CB52364787004","project_name":"","survey_name":"\u5e73\u62108\u5e74\u5ea6302\u53f7\u6771\u5357\u90e8\u5730\u533a\u5730\u8cea\u8abf\u67fb\u305d\u306e1","client_name":"\u56fd\u571f\u4ea4\u901a\u7701\u4e2d\u90e8\u5730\u65b9\u6574\u5099\u5c40\u611b\u77e5\u56fd\u9053\u4e8b\u52d9\u6240","boring_xml_url":40,"boring_view_url":1,"soilmap_view_url":null,"soiltest_xml_url":0,"soiltest_view_url":0},{"id":165580,"code":"B4KJ201801005-3829","latitude":"35.0767314","longitude":"136.9707322","source_code":"CB52364787003","project_name":"","survey_name":"\u5e73\u62108\u5e74\u5ea6302\u53f7\u6771\u5357\u90e8\u5730\u533a\u5730\u8cea\u8abf\u67fb\u305d\u306e1","client_name":"\u56fd\u571f\u4ea4\u901a\u7701\u4e2d\u90e8\u5730\u65b9\u6574\u5099\u5c40\u611b\u77e5\u56fd\u9053\u4e8b\u52d9\u6240","boring_xml_url":40,"boring_view_url":1,"soilmap_view_url":null,"soiltest_xml_url":0,"soiltest_view_url":0},{"id":165579,"code":"B4KJ201801005-3828","latitude":"35.0774536","longitude":"136.9713433","source_code":"CB52364787002","project_name":"","survey_name":"\u5e73\u62108\u5e74\u5ea6302\u53f7\u6771\u5357\u90e8\u5730\u533a\u5730\u8cea\u8abf\u67fb\u305d\u306e1","client_name":"\u56fd\u571f\u4ea4\u901a\u7701\u4e2d\u90e8\u5730\u65b9\u6574\u5099\u5c40\u611b\u77e5\u56fd\u9053\u4e8b\u52d9\u6240","boring_xml_url":40,"boring_view_url":1,"soilmap_view_url":null,"soiltest_xml_url":0,"soiltest_view_url":0},{"id":165578,"code":"B4KJ201801005-3827","latitude":"35.0702042","longitude":"136.9606222","source_code":"CB52364787001","project_name":"","survey_name":"\u662d\u548c54\u5e74\u5ea6 \u5de6\u4eac\u5c71\u6a2a\u65ad\u6b69\u9053\u6a4b\u5b9f\u65bd\u8a2d\u8a08\u59163\u4ef6\u696d\u52d9\u59d4\u8a17","client_name":"\u56fd\u571f\u4ea4\u901a\u7701\u4e2d\u90e8\u5730\u65b9\u6574\u5099\u5c40\u611b\u77e5\u56fd\u9053\u4e8b\u52d9\u6240","boring_xml_url":40,"boring_view_url":1,"soilmap_view_url":null,"soiltest_xml_url":0,"soiltest_view_url":0},{"id":165577,"code":"B4KJ201801005-3826","latitude":"35.0732314","longitude":"136.9532894","source_code":"CB52364786002","project_name":"","survey_name":"\u5e73\u62103\u5e74\u5ea6\u6709\u677e\u5171\u540c\u6e9d\u59161\u4ef6\u5730\u8cea\u8abf\u67fb","client_name":"\u56fd\u571f\u4ea4\u901a\u7701\u4e2d\u90e8\u5730\u65b9\u6574\u5099\u5c40\u540d\u53e4\u5c4b\u56fd\u9053\u4e8b\u52d9\u6240","boring_xml_url":40,"boring_view_url":1,"soilmap_view_url":null,"soiltest_xml_url":0,"soiltest_view_url":0},{"id":165576,"code":"B4KJ201801005-3825","latitude":"35.0708153","longitude":"136.9591781","source_code":"CB52364786001","project_name":"","survey_name":"\u71b1\u7530\u5de6\u4eac\u5c71\u6a2a\u65ad\u6b69\u9053\u6a4b\u67b6\u8a2d\u7f6e\u70b9\u6e2c\u91cf\u53ca\u5730\u8cea\u8abf\u67fb","client_name":"\u56fd\u571f\u4ea4\u901a\u7701\u4e2d\u90e8\u5730\u65b9\u6574\u5099\u5c40\u4e2d\u90e8\u6280\u8853\u4e8b\u52d9\u6240","boring_xml_url":40,"boring_view_url":1,"soilmap_view_url":null,"soiltest_xml_url":0,"soiltest_view_url":0},{"id":165575,"code":"B4KJ201801005-3824","latitude":"35.0780361","longitude":"136.9444567","source_code":"CB52364785003","project_name":"","survey_name":"\u7dd1\u5171\u540c\u6e9d\u59161\u4ef6\u5730\u8cea\u8abf\u67fb","client_name":"\u56fd\u571f\u4ea4\u901a\u7701\u4e2d\u90e8\u5730\u65b9\u6574\u5099\u5c40\u540d\u53e4\u5c4b\u56fd\u9053\u4e8b\u52d9\u6240","boring_xml_url":40,"boring_view_url":1,"soilmap_view_url":null,"soiltest_xml_url":0,"soiltest_view_url":0},{"id":165574,"code":"B4KJ201801005-3823","latitude":"35.0781194","longitude":"136.9447344","source_code":"CB52364785002","project_name":"","survey_name":"1\u53f7\u5171\u540c\u6e9d\u5730\u8cea\u8abf\u67fb","client_name":"\u56fd\u571f\u4ea4\u901a\u7701\u4e2d\u90e8\u5730\u65b9\u6574\u5099\u5c40\u540d\u53e4\u5c4b\u56fd\u9053\u4e8b\u52d9\u6240","boring_xml_url":40,"boring_view_url":1,"soilmap_view_url":null,"soiltest_xml_url":0,"soiltest_view_url":0},{"id":165573,"code":"B4KJ201801005-3822","latitude":"35.0777864","longitude":"136.9455956","source_code":"CB52364785001","project_name":"","survey_name":"\u9cf4\u6d77\u56fd\u9053\u62e1\u5e45\u5de5\u4e8b\u5730\u8cea\u8abf\u67fb","client_name":"\u56fd\u571f\u4ea4\u901a\u7701\u4e2d\u90e8\u5730\u65b9\u6574\u5099\u5c40\u4e2d\u90e8\u6280\u8853\u4e8b\u52d9\u6240","boring_xml_url":40,"boring_view_url":1,"soilmap_view_url":null,"soiltest_xml_url":0,"soiltest_view_url":0},{"id":165572,"code":"B4KJ201801005-3821","latitude":"35.0703144","longitude":"136.9277364","source_code":"CB52364784006","project_name":"","survey_name":"\u662d\u548c61\u5e74\u5ea6\u5929\u767d\u6247\u5ddd\u6a4b\u5730\u8cea\u8abf\u67fb","client_name":"\u56fd\u571f\u4ea4\u901a\u7701\u4e2d\u90e8\u5730\u65b9\u6574\u5099\u5c40\u540d\u53e4\u5c4b\u56fd\u9053\u4e8b\u52d9\u6240","boring_xml_url":40,"boring_view_url":1,"soilmap_view_url":null,"soiltest_xml_url":0,"soiltest_view_url":0},{"id":165571,"code":"B4KJ201801005-3820","latitude":"35.0701756","longitude":"136.9267642","source_code":"CB52364784005","project_name":"","survey_name":"\u662d\u548c61\u5e74\u5ea6\u5929\u767d\u6247\u5ddd\u6a4b\u5730\u8cea\u8abf\u67fb","client_name":"\u56fd\u571f\u4ea4\u901a\u7701\u4e2d\u90e8\u5730\u65b9\u6574\u5099\u5c40\u540d\u53e4\u5c4b\u56fd\u9053\u4e8b\u52d9\u6240","boring_xml_url":40,"boring_view_url":1,"soilmap_view_url":null,"soiltest_xml_url":0,"soiltest_view_url":0},{"id":165570,"code":"B4KJ201801005-3819","latitude":"35.0699811","longitude":"136.9267086","source_code":"CB52364784004","project_name":"","survey_name":"\u5929\u767d\u5ddd\u6a4b\u5927\u6c5f\u5ddd\u6a4b\u5730\u8cea\u8abf\u67fb","client_name":"\u56fd\u571f\u4ea4\u901a\u7701\u4e2d\u90e8\u5730\u65b9\u6574\u5099\u5c40\u4e2d\u90e8\u6280\u8853\u4e8b\u52d9\u6240","boring_xml_url":40,"boring_view_url":1,"soilmap_view_url":null,"soiltest_xml_url":0,"soiltest_view_url":0},{"id":165569,"code":"B4KJ201801005-3818","latitude":"35.0703422","longitude":"136.9265975","source_code":"CB52364784003","project_name":"","survey_name":"\u5929\u767d\u5ddd\u6a4b.\u5927\u6c5f\u5ddd\u6a4b\u5730\u8cea\u8abf\u67fb","client_name":"\u56fd\u571f\u4ea4\u901a\u7701\u4e2d\u90e8\u5730\u65b9\u6574\u5099\u5c40\u4e2d\u90e8\u6280\u8853\u4e8b\u52d9\u6240","boring_xml_url":40,"boring_view_url":1,"soilmap_view_url":null,"soiltest_xml_url":0,"soiltest_view_url":0},{"id":165568,"code":"B4KJ201801005-3817","latitude":"35.0715642","longitude":"136.9262642","source_code":"CB52364784002","project_name":"","survey_name":"\u5929\u767d\u5ddd\u6a4b.\u5927\u6c5f\u5ddd\u6a4b\u5730\u8cea\u8abf\u67fb","client_name":"\u56fd\u571f\u4ea4\u901a\u7701\u4e2d\u90e8\u5730\u65b9\u6574\u5099\u5c40\u4e2d\u90e8\u6280\u8853\u4e8b\u52d9\u6240","boring_xml_url":40,"boring_view_url":1,"soilmap_view_url":null,"soiltest_xml_url":0,"soiltest_view_url":0},{"id":165567,"code":"B4KJ201801005-3816","latitude":"35.0771192","longitude":"136.9249308","source_code":"CB52364784001","project_name":"","survey_name":"\u5929\u767d\u5ddd\u6a4b.\u5927\u6c5f\u5ddd\u6a4b\u5730\u8cea\u8abf\u67fb","client_name":"\u56fd\u571f\u4ea4\u901a\u7701\u4e2d\u90e8\u5730\u65b9\u6574\u5099\u5c40\u4e2d\u90e8\u6280\u8853\u4e8b\u52d9\u6240","boring_xml_url":40,"boring_view_url":1,"soilmap_view_url":null,"soiltest_xml_url":0,"soiltest_view_url":0},{"id":165566,"code":"B4KJ201801005-3815","latitude":"35.0684544","longitude":"136.9655386","source_code":"CB52364777060","project_name":"","survey_name":"\u5e73\u621012\u5e74\u5ea6 \u7ba1\u5185\u5730\u8cea\u8abf\u67fb","client_name":"\u56fd\u571f\u4ea4\u901a\u7701\u4e2d\u90e8\u5730\u65b9\u6574\u5099\u5c40\u611b\u77e5\u56fd\u9053\u4e8b\u52d9\u6240","boring_xml_url":40,"boring_view_url":1,"soilmap_view_url":null,"soiltest_xml_url":0,"soiltest_view_url":0}]}}