{"header":{"xyz":{"source":[],"mosaic":false},"page":5174,"raw":{"soiltest_result":"0","bbox":"57.598333,109.544722,1.933333,163.806111","page":"5174"},"conditions":{"soiltest_result":0,"north":57.598333,"west":109.544722,"south":1.933333,"east":163.806111},"success":true,"message":""},"data":{"meta":{"total":212844,"page":5174,"pages":7095,"count":30},"values":[{"id":165355,"code":"B4KJ201801005-3604","latitude":"35.0545094","longitude":"136.8716306","source_code":"CB52364669005","project_name":"","survey_name":"\u5e73\u6210\u5143\u5e74\u5ea69\u53f7\u5730\u5730\u8cea\u8abf\u67fb\u305d\u306e2","client_name":"\u56fd\u571f\u4ea4\u901a\u7701\u4e2d\u90e8\u5730\u65b9\u6574\u5099\u5c40\u540d\u56db\u56fd\u9053\u4e8b\u52d9\u6240","boring_xml_url":40,"boring_view_url":1,"soilmap_view_url":null,"soiltest_xml_url":0,"soiltest_view_url":0},{"id":165354,"code":"B4KJ201801005-3603","latitude":"35.0544817","longitude":"136.8709361","source_code":"CB52364669004","project_name":"","survey_name":"\u5e73\u6210\u5143\u5e74\u5ea69\u53f7\u5730\u5730\u8cea\u8abf\u67fb\u305d\u306e2","client_name":"\u56fd\u571f\u4ea4\u901a\u7701\u4e2d\u90e8\u5730\u65b9\u6574\u5099\u5c40\u540d\u56db\u56fd\u9053\u4e8b\u52d9\u6240","boring_xml_url":40,"boring_view_url":1,"soilmap_view_url":null,"soiltest_xml_url":0,"soiltest_view_url":0},{"id":165353,"code":"B4KJ201801005-3602","latitude":"35.0538425","longitude":"136.8640203","source_code":"CB52364669003","project_name":"","survey_name":"\u662d\u548c60\u5e74\u5ea6\u540d\u6e2fB\u6c34\u57df\u5730\u8cea\u8abf\u67fb","client_name":"\u56fd\u571f\u4ea4\u901a\u7701\u4e2d\u90e8\u5730\u65b9\u6574\u5099\u5c40\u540d\u56db\u56fd\u9053\u4e8b\u52d9\u6240","boring_xml_url":40,"boring_view_url":1,"soilmap_view_url":null,"soiltest_xml_url":0,"soiltest_view_url":0},{"id":165352,"code":"B4KJ201801005-3601","latitude":"35.0545925","longitude":"136.8659089","source_code":"CB52364669002","project_name":"","survey_name":"\u662d\u548c55\u5e74\u5ea6 \u540d\u6e2fB\u6c34\u57df\u5730\u8cea\u8abf\u67fb","client_name":"\u56fd\u571f\u4ea4\u901a\u7701\u4e2d\u90e8\u5730\u65b9\u6574\u5099\u5c40\u540d\u56db\u56fd\u9053\u4e8b\u52d9\u6240","boring_xml_url":40,"boring_view_url":1,"soilmap_view_url":null,"soiltest_xml_url":0,"soiltest_view_url":0},{"id":165351,"code":"B4KJ201801005-3600","latitude":"35.0542317","longitude":"136.8707697","source_code":"CB52364669001","project_name":"","survey_name":"9\u53f7\u5730\u5730\u8cea\u8abf\u67fb","client_name":"\u56fd\u571f\u4ea4\u901a\u7701\u4e2d\u90e8\u5730\u65b9\u6574\u5099\u5c40\u540d\u56db\u56fd\u9053\u4e8b\u52d9\u6240","boring_xml_url":40,"boring_view_url":1,"soilmap_view_url":null,"soiltest_xml_url":0,"soiltest_view_url":0},{"id":165350,"code":"B4KJ201801005-3599","latitude":"35.0538147","longitude":"136.8576597","source_code":"CB52364668002","project_name":"","survey_name":"\u662d\u548c55\u5e74\u5ea6 \u540d\u6e2fB\u6c34\u57df\u5730\u8cea\u8abf\u67fb","client_name":"\u56fd\u571f\u4ea4\u901a\u7701\u4e2d\u90e8\u5730\u65b9\u6574\u5099\u5c40\u540d\u56db\u56fd\u9053\u4e8b\u52d9\u6240","boring_xml_url":40,"boring_view_url":1,"soilmap_view_url":null,"soiltest_xml_url":0,"soiltest_view_url":0},{"id":165349,"code":"B4KJ201801005-3598","latitude":"35.0549808","longitude":"136.848105","source_code":"CB52364668001","project_name":"","survey_name":"\u91d1\u57ce\u57e0\u982d\u5730\u9707\u8a08\u8a2d\u7f6e\u696d\u52d9","client_name":"\u56fd\u571f\u4ea4\u901a\u7701\u4e2d\u90e8\u5730\u65b9\u6574\u5099\u5c40\u540d\u56db\u56fd\u9053\u4e8b\u52d9\u6240","boring_xml_url":40,"boring_view_url":1,"soilmap_view_url":null,"soiltest_xml_url":0,"soiltest_view_url":0},{"id":165348,"code":"B4KJ201801005-3597","latitude":"35.0560619","longitude":"136.7558072","source_code":"CB52364660006","project_name":"","survey_name":"\u934b\u7530\u5ddd\u5730\u8cea\u8abf\u67fb\u5831\u544a","client_name":"\u56fd\u571f\u4ea4\u901a\u7701\u4e2d\u90e8\u5730\u65b9\u6574\u5099\u5c40\u4e2d\u90e8\u6280\u8853\u4e8b\u52d9\u6240","boring_xml_url":40,"boring_view_url":1,"soilmap_view_url":null,"soiltest_xml_url":0,"soiltest_view_url":0},{"id":165347,"code":"B4KJ201801005-3596","latitude":"35.0560342","longitude":"136.7549186","source_code":"CB52364660005","project_name":"","survey_name":"\u934b\u7530\u5ddd\u5730\u8cea\u8abf\u67fb\u5831\u544a","client_name":"\u56fd\u571f\u4ea4\u901a\u7701\u4e2d\u90e8\u5730\u65b9\u6574\u5099\u5c40\u4e2d\u90e8\u6280\u8853\u4e8b\u52d9\u6240","boring_xml_url":40,"boring_view_url":1,"soilmap_view_url":null,"soiltest_xml_url":0,"soiltest_view_url":0},{"id":165346,"code":"B4KJ201801005-3595","latitude":"35.0560342","longitude":"136.7541131","source_code":"CB52364660004","project_name":"","survey_name":"\u934b\u7530\u5ddd\u5730\u8cea\u8abf\u67fb\u5831\u544a","client_name":"\u56fd\u571f\u4ea4\u901a\u7701\u4e2d\u90e8\u5730\u65b9\u6574\u5099\u5c40\u4e2d\u90e8\u6280\u8853\u4e8b\u52d9\u6240","boring_xml_url":40,"boring_view_url":1,"soilmap_view_url":null,"soiltest_xml_url":0,"soiltest_view_url":0},{"id":165345,"code":"B4KJ201801005-3594","latitude":"35.0559508","longitude":"136.7531408","source_code":"CB52364660003","project_name":"","survey_name":"\u934b\u7530\u5ddd\u5730\u8cea\u8abf\u67fb\u5831\u544a","client_name":"\u56fd\u571f\u4ea4\u901a\u7701\u4e2d\u90e8\u5730\u65b9\u6574\u5099\u5c40\u4e2d\u90e8\u6280\u8853\u4e8b\u52d9\u6240","boring_xml_url":40,"boring_view_url":1,"soilmap_view_url":null,"soiltest_xml_url":0,"soiltest_view_url":0},{"id":165344,"code":"B4KJ201801005-3593","latitude":"35.0558953","longitude":"136.75203","source_code":"CB52364660002","project_name":"","survey_name":"\u934b\u7530\u5ddd\u5730\u8cea\u8abf\u67fb\u5831\u544a","client_name":"\u56fd\u571f\u4ea4\u901a\u7701\u4e2d\u90e8\u5730\u65b9\u6574\u5099\u5c40\u4e2d\u90e8\u6280\u8853\u4e8b\u52d9\u6240","boring_xml_url":40,"boring_view_url":1,"soilmap_view_url":null,"soiltest_xml_url":0,"soiltest_view_url":0},{"id":165343,"code":"B4KJ201801005-3592","latitude":"35.0558119","longitude":"136.75078","source_code":"CB52364660001","project_name":"","survey_name":"\u934b\u7530\u5ddd\u5730\u8cea\u8abf\u67fb\u5831\u544a","client_name":"\u56fd\u571f\u4ea4\u901a\u7701\u4e2d\u90e8\u5730\u65b9\u6574\u5099\u5c40\u4e2d\u90e8\u6280\u8853\u4e8b\u52d9\u6240","boring_xml_url":40,"boring_view_url":1,"soilmap_view_url":null,"soiltest_xml_url":0,"soiltest_view_url":0},{"id":165342,"code":"B4KJ201801005-3591","latitude":"35.0512592","longitude":"136.8537711","source_code":"CB52364658008","project_name":"","survey_name":"\u662d\u548c45\u5e74\u5ea6\u540d\u53e4\u5c4b\u74b0\u72b62\u53f7\u7dda\u6d77\u4e0a\u90e8\u5730\u8cea\u8abf\u67fb","client_name":"\u56fd\u571f\u4ea4\u901a\u7701\u4e2d\u90e8\u5730\u65b9\u6574\u5099\u5c40\u540d\u56db\u56fd\u9053\u4e8b\u52d9\u6240","boring_xml_url":40,"boring_view_url":1,"soilmap_view_url":null,"soiltest_xml_url":0,"soiltest_view_url":0},{"id":165341,"code":"B4KJ201801005-3590","latitude":"35.0521203","longitude":"136.8535767","source_code":"CB52364658007","project_name":"","survey_name":"\u662d\u548c50\u5e74\u5ea6\u4f0a\u52e2\u6e7e\u5cb8\u9053\u8def\u5730\u8cea\u8abf\u67fb","client_name":"\u56fd\u571f\u4ea4\u901a\u7701\u4e2d\u90e8\u5730\u65b9\u6574\u5099\u5c40\u540d\u56db\u56fd\u9053\u4e8b\u52d9\u6240","boring_xml_url":40,"boring_view_url":1,"soilmap_view_url":null,"soiltest_xml_url":0,"soiltest_view_url":0},{"id":165340,"code":"B4KJ201801005-3589","latitude":"35.0518147","longitude":"136.8511881","source_code":"CB52364658005","project_name":"","survey_name":"\u662d\u548c49\u5e74\u5ea6\u4f0a\u52e2\u6e7e\u5cb8\u9053\u8def\u5730\u8cea\u8abf\u67fb","client_name":"\u56fd\u571f\u4ea4\u901a\u7701\u4e2d\u90e8\u5730\u65b9\u6574\u5099\u5c40\u540d\u56db\u56fd\u9053\u4e8b\u52d9\u6240","boring_xml_url":40,"boring_view_url":1,"soilmap_view_url":null,"soiltest_xml_url":0,"soiltest_view_url":0},{"id":165339,"code":"B4KJ201801005-3588","latitude":"35.0518147","longitude":"136.8485494","source_code":"CB52364658004","project_name":"","survey_name":"\u662d\u548c55\u5e74\u5ea6\u91d1\u57ce\u57e0\u982d\u5730\u8cea\u8abf\u67fb","client_name":"\u56fd\u571f\u4ea4\u901a\u7701\u4e2d\u90e8\u5730\u65b9\u6574\u5099\u5c40\u540d\u56db\u56fd\u9053\u4e8b\u52d9\u6240","boring_xml_url":40,"boring_view_url":1,"soilmap_view_url":null,"soiltest_xml_url":0,"soiltest_view_url":0},{"id":165338,"code":"B4KJ201801005-3587","latitude":"35.0518425","longitude":"136.8502158","source_code":"CB52364658003","project_name":"","survey_name":"\u662d\u548c55\u5e74\u5ea6\u91d1\u57ce\u57e0\u982d\u5730\u8cea\u8abf\u67fb","client_name":"\u56fd\u571f\u4ea4\u901a\u7701\u4e2d\u90e8\u5730\u65b9\u6574\u5099\u5c40\u540d\u56db\u56fd\u9053\u4e8b\u52d9\u6240","boring_xml_url":40,"boring_view_url":1,"soilmap_view_url":null,"soiltest_xml_url":0,"soiltest_view_url":0},{"id":165337,"code":"B4KJ201801005-3586","latitude":"35.0527036","longitude":"136.8520492","source_code":"CB52364658002","project_name":"","survey_name":"\u662d\u548c57\u5e74\u5ea6\u91d1\u57ce\u57e0\u982d\u5730\u8cea\u8abf\u67fb","client_name":"\u56fd\u571f\u4ea4\u901a\u7701\u4e2d\u90e8\u5730\u65b9\u6574\u5099\u5c40\u540d\u56db\u56fd\u9053\u4e8b\u52d9\u6240","boring_xml_url":40,"boring_view_url":1,"soilmap_view_url":null,"soiltest_xml_url":0,"soiltest_view_url":0},{"id":165336,"code":"B4KJ201801005-3585","latitude":"35.0525925","longitude":"136.8523269","source_code":"CB52364658001","project_name":"","survey_name":"\u91d1\u57ce\u57e0\u982d\u5730\u8cea\u8abf\u67fb","client_name":"\u56fd\u571f\u4ea4\u901a\u7701\u4e2d\u90e8\u5730\u65b9\u6574\u5099\u5c40\u6728\u66fd\u5ddd\u4e0b\u6d41\u6cb3\u5ddd\u4e8b\u52d9\u6240","boring_xml_url":40,"boring_view_url":1,"soilmap_view_url":null,"soiltest_xml_url":0,"soiltest_view_url":0},{"id":165335,"code":"B4KJ201801005-3584","latitude":"35.0518422","longitude":"136.8383281","source_code":"CB52364657010","project_name":"","survey_name":"\u540d\u53e4\u5c4b\u74b0\u72b62\u53f7\u7dda\u6d77\u4e0a\u90e8\u5730\u8cea\u8abf\u67fb","client_name":"\u56fd\u571f\u4ea4\u901a\u7701\u4e2d\u90e8\u5730\u65b9\u6574\u5099\u5c40\u540d\u56db\u56fd\u9053\u4e8b\u52d9\u6240","boring_xml_url":40,"boring_view_url":1,"soilmap_view_url":null,"soiltest_xml_url":0,"soiltest_view_url":0},{"id":165334,"code":"B4KJ201801005-3583","latitude":"35.0519253","longitude":"136.8349117","source_code":"CB52364657009","project_name":"","survey_name":"\u662d\u548c49\u5e74\u5ea6\u4f0a\u52e2\u6e7e\u5cb8\u9053\u8def\u5730\u8cea\u8abf\u67fb","client_name":"\u56fd\u571f\u4ea4\u901a\u7701\u4e2d\u90e8\u5730\u65b9\u6574\u5099\u5c40\u540d\u56db\u56fd\u9053\u4e8b\u52d9\u6240","boring_xml_url":40,"boring_view_url":1,"soilmap_view_url":null,"soiltest_xml_url":0,"soiltest_view_url":0},{"id":165333,"code":"B4KJ201801005-3582","latitude":"35.0518144","longitude":"136.8435219","source_code":"CB52364657008","project_name":"","survey_name":"\u662d\u548c55\u5e74\u5ea6\u91d1\u57ce\u57e0\u982d\u5730\u8cea\u8abf\u67fb","client_name":"\u56fd\u571f\u4ea4\u901a\u7701\u4e2d\u90e8\u5730\u65b9\u6574\u5099\u5c40\u540d\u56db\u56fd\u9053\u4e8b\u52d9\u6240","boring_xml_url":40,"boring_view_url":1,"soilmap_view_url":null,"soiltest_xml_url":0,"soiltest_view_url":0},{"id":165332,"code":"B4KJ201801005-3581","latitude":"35.0518425","longitude":"136.846855","source_code":"CB52364657007","project_name":"","survey_name":"\u662d\u548c55\u5e74\u5ea6\u91d1\u57ce\u57e0\u982d\u5730\u8cea\u8abf\u67fb","client_name":"\u56fd\u571f\u4ea4\u901a\u7701\u4e2d\u90e8\u5730\u65b9\u6574\u5099\u5c40\u540d\u56db\u56fd\u9053\u4e8b\u52d9\u6240","boring_xml_url":40,"boring_view_url":1,"soilmap_view_url":null,"soiltest_xml_url":0,"soiltest_view_url":0},{"id":165331,"code":"B4KJ201801005-3580","latitude":"35.05187","longitude":"136.8428556","source_code":"CB52364657006","project_name":"","survey_name":"\u662d\u548c54\u5e74\u5ea6\u91d1\u57ce\u57e0\u982d\u5730\u8cea\u8abf\u67fb","client_name":"\u56fd\u571f\u4ea4\u901a\u7701\u4e2d\u90e8\u5730\u65b9\u6574\u5099\u5c40\u540d\u56db\u56fd\u9053\u4e8b\u52d9\u6240","boring_xml_url":40,"boring_view_url":1,"soilmap_view_url":null,"soiltest_xml_url":0,"soiltest_view_url":0},{"id":165330,"code":"B4KJ201801005-3579","latitude":"35.0520089","longitude":"136.8365228","source_code":"CB52364657005","project_name":"","survey_name":"\u662d\u548c53\u5e74\u5ea6\u540d\u6e2fA\u6c34\u57df\u5730\u8cea\u8abf\u67fb","client_name":"\u56fd\u571f\u4ea4\u901a\u7701\u4e2d\u90e8\u5730\u65b9\u6574\u5099\u5c40\u540d\u56db\u56fd\u9053\u4e8b\u52d9\u6240","boring_xml_url":40,"boring_view_url":1,"soilmap_view_url":null,"soiltest_xml_url":0,"soiltest_view_url":0},{"id":165329,"code":"B4KJ201801005-3578","latitude":"35.0517033","longitude":"136.8368283","source_code":"CB52364657004","project_name":"","survey_name":"\u662d\u548c52\u5e74\u5ea6 \u540d\u6e2fAC\u6c34\u57df\u5730\u8cea\u8abf\u67fb","client_name":"\u56fd\u571f\u4ea4\u901a\u7701\u4e2d\u90e8\u5730\u65b9\u6574\u5099\u5c40\u540d\u56db\u56fd\u9053\u4e8b\u52d9\u6240","boring_xml_url":40,"boring_view_url":1,"soilmap_view_url":null,"soiltest_xml_url":0,"soiltest_view_url":0},{"id":165328,"code":"B4KJ201801005-3577","latitude":"35.05212","longitude":"136.8396892","source_code":"CB52364657003","project_name":"","survey_name":"\u4f0a\u52e2\u6e7e\u5cb8\u9053\u8def\u5730\u8cea\u8abf\u67fb","client_name":"\u56fd\u571f\u4ea4\u901a\u7701\u4e2d\u90e8\u5730\u65b9\u6574\u5099\u5c40\u540d\u56db\u56fd\u9053\u4e8b\u52d9\u6240","boring_xml_url":40,"boring_view_url":1,"soilmap_view_url":null,"soiltest_xml_url":0,"soiltest_view_url":0},{"id":165327,"code":"B4KJ201801005-3576","latitude":"35.0523144","longitude":"136.8466328","source_code":"CB52364657002","project_name":"","survey_name":"\u662d\u548c48\u5e74\u5ea6\u4f0a\u52e2\u6e7e\u5cb8\u9053\u8def\u5730\u8cea\u8abf\u67fb","client_name":"\u56fd\u571f\u4ea4\u901a\u7701\u4e2d\u90e8\u5730\u65b9\u6574\u5099\u5c40\u4e2d\u90e8\u6280\u8853\u4e8b\u52d9\u6240","boring_xml_url":40,"boring_view_url":1,"soilmap_view_url":null,"soiltest_xml_url":0,"soiltest_view_url":0},{"id":165326,"code":"B4KJ201801005-3575","latitude":"35.0522589","longitude":"136.8408278","source_code":"CB52364657001","project_name":"","survey_name":"\u662d\u548c48\u5e74\u5ea6\u4f0a\u52e2\u6e7e\u5cb8\u9053\u8def\u5730\u8cea\u8abf\u67fb","client_name":"\u56fd\u571f\u4ea4\u901a\u7701\u4e2d\u90e8\u5730\u65b9\u6574\u5099\u5c40\u4e2d\u90e8\u6280\u8853\u4e8b\u52d9\u6240","boring_xml_url":40,"boring_view_url":1,"soilmap_view_url":null,"soiltest_xml_url":0,"soiltest_view_url":0}]}}