{"header":{"xyz":{"source":[],"mosaic":false},"page":5179,"raw":{"soiltest_result":"0","bbox":"57.598333,109.544722,1.933333,163.806111","page":"5179"},"conditions":{"soiltest_result":0,"north":57.598333,"west":109.544722,"south":1.933333,"east":163.806111},"success":true,"message":""},"data":{"meta":{"total":212844,"page":5179,"pages":7095,"count":30},"values":[{"id":165205,"code":"B4KJ201801005-3454","latitude":"35.0676703","longitude":"136.6984508","source_code":"CB52364576013","project_name":"","survey_name":"\u5e73\u62108\u5e74\u5ea6\u63d6\u6590\u5ddd\u5409\u4e4b\u4e38\u5730\u533a\u5730\u8cea\u8abf\u67fb\u696d\u52d9","client_name":"\u56fd\u571f\u4ea4\u901a\u7701\u4e2d\u90e8\u5730\u65b9\u6574\u5099\u5c40\u6728\u66fd\u5ddd\u4e0b\u6d41\u6cb3\u5ddd\u4e8b\u52d9\u6240","boring_xml_url":40,"boring_view_url":1,"soilmap_view_url":null,"soiltest_xml_url":0,"soiltest_view_url":0},{"id":165204,"code":"B4KJ201801005-3453","latitude":"35.0679481","longitude":"136.6987286","source_code":"CB52364576012","project_name":"","survey_name":"\u5e73\u62108\u5e74\u5ea6\u63d6\u6590\u5ddd\u5409\u4e4b\u4e38\u5730\u533a\u5730\u8cea\u8abf\u67fb\u696d\u52d9","client_name":"\u56fd\u571f\u4ea4\u901a\u7701 \u4e2d\u90e8\u5730\u65b9\u6574\u5099\u5c40 \u6728\u66fd\u5ddd\u4e0b\u6d41\u6cb3\u5ddd\u4e8b\u52d9\u6240","boring_xml_url":40,"boring_view_url":1,"soilmap_view_url":null,"soiltest_xml_url":0,"soiltest_view_url":0},{"id":165203,"code":"B4KJ201801005-3452","latitude":"35.0685036","longitude":"136.6970619","source_code":"CB52364576006","project_name":"","survey_name":"\u5e73\u62108\u5e74\u5ea6\u63d6\u6590\u5ddd\u5409\u4e4b\u4e38\u5730\u533a\u5730\u8cea\u8abf\u67fb\u696d\u52d9","client_name":"\u56fd\u571f\u4ea4\u901a\u7701\u4e2d\u90e8\u5730\u65b9\u6574\u5099\u5c40\u6728\u66fd\u5ddd\u4e0b\u6d41\u6cb3\u5ddd\u4e8b\u52d9\u6240","boring_xml_url":40,"boring_view_url":1,"soilmap_view_url":null,"soiltest_xml_url":0,"soiltest_view_url":0},{"id":165202,"code":"B4KJ201801005-3451","latitude":"35.0682258","longitude":"136.6970619","source_code":"CB52364576005","project_name":"","survey_name":"\u5e73\u62108\u5e74\u5ea6\u63d6\u6590\u5ddd\u5409\u4e4b\u4e38\u5730\u533a\u5730\u8cea\u8abf\u67fb\u696d\u52d9","client_name":"\u56fd\u571f\u4ea4\u901a\u7701\u4e2d\u90e8\u5730\u65b9\u6574\u5099\u5c40\u6728\u66fd\u5ddd\u4e0b\u6d41\u6cb3\u5ddd\u4e8b\u52d9\u6240","boring_xml_url":40,"boring_view_url":1,"soilmap_view_url":null,"soiltest_xml_url":0,"soiltest_view_url":0},{"id":165201,"code":"B4KJ201801005-3450","latitude":"35.0679481","longitude":"136.6987286","source_code":"CB52364576004","project_name":"","survey_name":"\u5e73\u62108\u5e74\u5ea6\u63d6\u6590\u5ddd\u5409\u4e4b\u4e38\u5730\u533a\u5730\u8cea\u8abf\u67fb\u696d\u52d9","client_name":"\u56fd\u571f\u4ea4\u901a\u7701\u4e2d\u90e8\u5730\u65b9\u6574\u5099\u5c40\u6728\u66fd\u5ddd\u4e0b\u6d41\u6cb3\u5ddd\u4e8b\u52d9\u6240","boring_xml_url":40,"boring_view_url":1,"soilmap_view_url":null,"soiltest_xml_url":0,"soiltest_view_url":0},{"id":165200,"code":"B4KJ201801005-3449","latitude":"35.0621708","longitude":"136.6992286","source_code":"CB52364576003","project_name":"","survey_name":"45\u2010\u6851\u540d\u516c\u5171\u8077\u696d\u5b89\u5b9a\u6240\u5e81\u820e\u5730\u76e4\u8abf\u67fb\u307b\u304b2\u4ef6\u8abf\u67fb(\u6cd5\u52d9\u5c40)","client_name":"\u56fd\u571f\u4ea4\u901a\u7701\u4e2d\u90e8\u5730\u65b9\u6574\u5099\u5c40\u4e2d\u90e8\u6280\u8853\u4e8b\u52d9\u6240","boring_xml_url":40,"boring_view_url":1,"soilmap_view_url":null,"soiltest_xml_url":0,"soiltest_view_url":0},{"id":165199,"code":"B4KJ201801005-3448","latitude":"35.0674758","longitude":"136.6976731","source_code":"CB52364576001","project_name":"","survey_name":"\u9577\u826f\u5ddd\u63d6\u6590\u5ddd\u4e0b\u6d41\u57df\u5730\u8cea\u8abf\u67fb\u5de5\u4e8b","client_name":"\u56fd\u571f\u4ea4\u901a\u7701\u4e2d\u90e8\u5730\u65b9\u6574\u5099\u5c40\u4e2d\u90e8\u6280\u8853\u4e8b\u52d9\u6240","boring_xml_url":40,"boring_view_url":1,"soilmap_view_url":null,"soiltest_xml_url":0,"soiltest_view_url":0},{"id":165198,"code":"B4KJ201801005-3447","latitude":"35.0693367","longitude":"136.6951178","source_code":"CB52364575017","project_name":"","survey_name":"\u5e73\u62108\u5e74\u5ea6\u63d6\u6590\u5ddd\u5409\u4e4b\u4e38\u5730\u533a\u5730\u8cea\u8abf\u67fb\u696d\u52d9","client_name":"\u56fd\u571f\u4ea4\u901a\u7701\u4e2d\u90e8\u5730\u65b9\u6574\u5099\u5c40\u6728\u66fd\u5ddd\u4e0b\u6d41\u6cb3\u5ddd\u4e8b\u52d9\u6240","boring_xml_url":40,"boring_view_url":1,"soilmap_view_url":null,"soiltest_xml_url":0,"soiltest_view_url":0},{"id":165197,"code":"B4KJ201801005-3446","latitude":"35.0687811","longitude":"136.6953956","source_code":"CB52364575016","project_name":"","survey_name":"\u5e73\u62108\u5e74\u5ea6\u63d6\u6590\u5ddd\u5409\u4e4b\u4e38\u5730\u533a\u5730\u8cea\u8abf\u67fb\u696d\u52d9","client_name":"\u56fd\u571f\u4ea4\u901a\u7701 \u4e2d\u90e8\u5730\u65b9\u6574\u5099\u5c40 \u6728\u66fd\u5ddd\u4e0b\u6d41\u6cb3\u5ddd\u4e8b\u52d9\u6240","boring_xml_url":40,"boring_view_url":1,"soilmap_view_url":null,"soiltest_xml_url":0,"soiltest_view_url":0},{"id":165196,"code":"B4KJ201801005-3445","latitude":"35.0693367","longitude":"136.6953956","source_code":"CB52364575015","project_name":"","survey_name":"\u5e73\u62108\u5e74\u5ea6\u63d6\u6590\u5ddd\u5409\u4e4b\u4e38\u5730\u533a\u5730\u8cea\u8abf\u67fb\u696d\u52d9","client_name":"\u56fd\u571f\u4ea4\u901a\u7701\u4e2d\u90e8\u5730\u65b9\u6574\u5099\u5c40\u6728\u66fd\u5ddd\u4e0b\u6d41\u6cb3\u5ddd\u4e8b\u52d9\u6240","boring_xml_url":40,"boring_view_url":1,"soilmap_view_url":null,"soiltest_xml_url":0,"soiltest_view_url":0},{"id":165195,"code":"B4KJ201801005-3444","latitude":"35.0693367","longitude":"136.6956731","source_code":"CB52364575014","project_name":"","survey_name":"\u5e73\u62108\u5e74\u5ea6\u63d6\u6590\u5ddd\u5409\u4e4b\u4e38\u5730\u533a\u5730\u8cea\u8abf\u67fb\u696d\u52d9","client_name":"\u56fd\u571f\u4ea4\u901a\u7701 \u4e2d\u90e8\u5730\u65b9\u6574\u5099\u5c40 \u6728\u66fd\u5ddd\u4e0b\u6d41\u6cb3\u5ddd\u4e8b\u52d9\u6240","boring_xml_url":40,"boring_view_url":1,"soilmap_view_url":null,"soiltest_xml_url":0,"soiltest_view_url":0},{"id":165194,"code":"B4KJ201801005-3443","latitude":"35.0696144","longitude":"136.6959508","source_code":"CB52364575013","project_name":"","survey_name":"\u5e73\u62108\u5e74\u5ea6\u63d6\u6590\u5ddd\u5409\u4e4b\u4e38\u5730\u533a\u5730\u8cea\u8abf\u67fb\u696d\u52d9","client_name":"\u56fd\u571f\u4ea4\u901a\u7701 \u4e2d\u90e8\u5730\u65b9\u6574\u5099\u5c40 \u6728\u66fd\u5ddd\u4e0b\u6d41\u6cb3\u5ddd\u4e8b\u52d9\u6240","boring_xml_url":40,"boring_view_url":1,"soilmap_view_url":null,"soiltest_xml_url":0,"soiltest_view_url":0},{"id":165193,"code":"B4KJ201801005-3442","latitude":"35.0685036","longitude":"136.6967842","source_code":"CB52364575012","project_name":"","survey_name":"\u5e73\u62108\u5e74\u5ea6\u63d6\u6590\u5ddd\u5409\u4e4b\u4e38\u5730\u533a\u5730\u8cea\u8abf\u67fb\u696d\u52d9","client_name":"\u56fd\u571f\u4ea4\u901a\u7701 \u4e2d\u90e8\u5730\u65b9\u6574\u5099\u5c40 \u6728\u66fd\u5ddd\u4e0b\u6d41\u6cb3\u5ddd\u4e8b\u52d9\u6240","boring_xml_url":40,"boring_view_url":1,"soilmap_view_url":null,"soiltest_xml_url":0,"soiltest_view_url":0},{"id":165192,"code":"B4KJ201801005-3441","latitude":"35.0696144","longitude":"136.6951178","source_code":"CB52364575006","project_name":"","survey_name":"\u5e73\u62103\u5e74\u5ea6\u63d6\u6590\u5ddd\u5409\u4e4b\u4e38\u9ad8\u6c34\u6577\u9020\u6210\u5de5\u4e8b\u5b9f\u65bd\u8a2d\u8a08","client_name":"\u56fd\u571f\u4ea4\u901a\u7701\u4e2d\u90e8\u5730\u65b9\u6574\u5099\u5c40\u6728\u66fd\u5ddd\u4e0b\u6d41\u6cb3\u5ddd\u4e8b\u52d9\u6240","boring_xml_url":40,"boring_view_url":1,"soilmap_view_url":null,"soiltest_xml_url":0,"soiltest_view_url":0},{"id":165191,"code":"B4KJ201801005-3440","latitude":"35.0687811","longitude":"136.6953956","source_code":"CB52364575005","project_name":"","survey_name":"\u5e73\u62108\u5e74\u5ea6\u63d6\u6590\u5ddd\u5409\u4e4b\u4e38\u5730\u533a\u5730\u8cea\u8abf\u67fb\u696d\u52d9","client_name":"\u56fd\u571f\u4ea4\u901a\u7701\u4e2d\u90e8\u5730\u65b9\u6574\u5099\u5c40\u6728\u66fd\u5ddd\u4e0b\u6d41\u6cb3\u5ddd\u4e8b\u52d9\u6240","boring_xml_url":40,"boring_view_url":1,"soilmap_view_url":null,"soiltest_xml_url":0,"soiltest_view_url":0},{"id":165190,"code":"B4KJ201801005-3439","latitude":"35.0693367","longitude":"136.6956731","source_code":"CB52364575004","project_name":"","survey_name":"\u5e73\u62108\u5e74\u5ea6\u63d6\u6590\u5ddd\u5409\u4e4b\u4e38\u5730\u533a\u5730\u8cea\u8abf\u67fb\u696d\u52d9","client_name":"\u56fd\u571f\u4ea4\u901a\u7701\u4e2d\u90e8\u5730\u65b9\u6574\u5099\u5c40\u6728\u66fd\u5ddd\u4e0b\u6d41\u6cb3\u5ddd\u4e8b\u52d9\u6240","boring_xml_url":40,"boring_view_url":1,"soilmap_view_url":null,"soiltest_xml_url":0,"soiltest_view_url":0},{"id":165189,"code":"B4KJ201801005-3438","latitude":"35.0696144","longitude":"136.6959508","source_code":"CB52364575003","project_name":"","survey_name":"\u5e73\u62108\u5e74\u5ea6\u63d6\u6590\u5ddd\u5409\u4e4b\u4e38\u5730\u533a\u5730\u8cea\u8abf\u67fb\u696d\u52d9","client_name":"\u56fd\u571f\u4ea4\u901a\u7701\u4e2d\u90e8\u5730\u65b9\u6574\u5099\u5c40\u6728\u66fd\u5ddd\u4e0b\u6d41\u6cb3\u5ddd\u4e8b\u52d9\u6240","boring_xml_url":40,"boring_view_url":1,"soilmap_view_url":null,"soiltest_xml_url":0,"soiltest_view_url":0},{"id":165188,"code":"B4KJ201801005-3437","latitude":"35.0685036","longitude":"136.6967842","source_code":"CB52364575002","project_name":"","survey_name":"\u5e73\u62108\u5e74\u5ea6\u63d6\u6590\u5ddd\u5409\u4e4b\u4e38\u5730\u533a\u5730\u8cea\u8abf\u67fb\u696d\u52d9","client_name":"\u56fd\u571f\u4ea4\u901a\u7701\u4e2d\u90e8\u5730\u65b9\u6574\u5099\u5c40\u6728\u66fd\u5ddd\u4e0b\u6d41\u6cb3\u5ddd\u4e8b\u52d9\u6240","boring_xml_url":40,"boring_view_url":1,"soilmap_view_url":null,"soiltest_xml_url":0,"soiltest_view_url":0},{"id":165187,"code":"B4KJ201801005-3436","latitude":"35.0691978","longitude":"136.6948122","source_code":"CB52364575001","project_name":"","survey_name":"\u5ddd\u53e3\u8d64\u9808\u8cc0\u6c34\u9580\u767d\u9d8f\u6a0b\u7ba1\u5730\u8cea\u8abf\u67fb\u5de5\u4e8b","client_name":"\u56fd\u571f\u4ea4\u901a\u7701\u4e2d\u90e8\u5730\u65b9\u6574\u5099\u5c40\u4e2d\u90e8\u6280\u8853\u4e8b\u52d9\u6240","boring_xml_url":40,"boring_view_url":1,"soilmap_view_url":null,"soiltest_xml_url":0,"soiltest_view_url":0},{"id":165186,"code":"B4KJ201801005-3435","latitude":"35.0681694","longitude":"136.6631206","source_code":"CB52364573011","project_name":"","survey_name":"\u5e73\u62107\u5e74\u5ea6258\u53f7\u897f\u5225\u6240\u5730\u8cea\u691c\u8a0e\u59161\u4ef6\u696d\u52d9\u59d4\u8a17","client_name":"\u56fd\u571f\u4ea4\u901a\u7701\u4e2d\u90e8\u5730\u65b9\u6574\u5099\u5c40\u4e09\u91cd\u6cb3\u5ddd\u56fd\u9053\u4e8b\u52d9\u6240","boring_xml_url":40,"boring_view_url":1,"soilmap_view_url":null,"soiltest_xml_url":0,"soiltest_view_url":0},{"id":165185,"code":"B4KJ201801005-3434","latitude":"35.0678917","longitude":"136.6633983","source_code":"CB52364573010","project_name":"","survey_name":"\u5e73\u62107\u5e74\u5ea6258\u53f7\u897f\u5225\u6240\u5730\u8cea\u691c\u8a0e\u59161\u4ef6\u696d\u52d9\u59d4\u8a17","client_name":"\u56fd\u571f\u4ea4\u901a\u7701\u4e2d\u90e8\u5730\u65b9\u6574\u5099\u5c40\u4e09\u91cd\u6cb3\u5ddd\u56fd\u9053\u4e8b\u52d9\u6240","boring_xml_url":40,"boring_view_url":1,"soilmap_view_url":null,"soiltest_xml_url":0,"soiltest_view_url":0},{"id":165184,"code":"B4KJ201801005-3433","latitude":"35.0678917","longitude":"136.6633983","source_code":"CB52364573009","project_name":"","survey_name":"\u5e73\u62107\u5e74\u5ea6258\u53f7\u897f\u5225\u6240\u5730\u8cea\u691c\u8a0e\u59161\u4ef6\u696d\u52d9\u59d4\u8a17","client_name":"\u56fd\u571f\u4ea4\u901a\u7701\u4e2d\u90e8\u5730\u65b9\u6574\u5099\u5c40\u4e09\u91cd\u6cb3\u5ddd\u56fd\u9053\u4e8b\u52d9\u6240","boring_xml_url":40,"boring_view_url":1,"soilmap_view_url":null,"soiltest_xml_url":0,"soiltest_view_url":0},{"id":165183,"code":"B4KJ201801005-3432","latitude":"35.0678917","longitude":"136.6633983","source_code":"CB52364573008","project_name":"","survey_name":"\u5e73\u62107\u5e74\u5ea6258\u53f7\u897f\u5225\u6240\u5730\u8cea\u691c\u8a0e\u59161\u4ef6\u696d\u52d9\u59d4\u8a17","client_name":"\u56fd\u571f\u4ea4\u901a\u7701\u4e2d\u90e8\u5730\u65b9\u6574\u5099\u5c40\u4e09\u91cd\u6cb3\u5ddd\u56fd\u9053\u4e8b\u52d9\u6240","boring_xml_url":40,"boring_view_url":1,"soilmap_view_url":null,"soiltest_xml_url":0,"soiltest_view_url":0},{"id":165182,"code":"B4KJ201801005-3431","latitude":"35.0637811","longitude":"136.6651206","source_code":"CB52364573007","project_name":"","survey_name":"\u662d\u548c40\u5e74\u5ea6\u5927\u6851\u56fd\u9053\u5730\u8cea\u8abf\u67fb\u305d\u306e2","client_name":"\u56fd\u571f\u4ea4\u901a\u7701\u4e2d\u90e8\u5730\u65b9\u6574\u5099\u5c40\u4e2d\u90e8\u6280\u8853\u4e8b\u52d9\u6240","boring_xml_url":40,"boring_view_url":1,"soilmap_view_url":null,"soiltest_xml_url":0,"soiltest_view_url":0},{"id":165181,"code":"B4KJ201801005-3430","latitude":"35.0630311","longitude":"136.664315","source_code":"CB52364573003","project_name":"","survey_name":"\u6c70\u4e0a\u9053\u8def\u5916\u5730\u70b9\u5730\u8cea\u8abf\u67fb","client_name":"\u56fd\u571f\u4ea4\u901a\u7701\u4e2d\u90e8\u5730\u65b9\u6574\u5099\u5c40\u4e09\u91cd\u6cb3\u5ddd\u56fd\u9053\u4e8b\u52d9\u6240","boring_xml_url":40,"boring_view_url":1,"soilmap_view_url":null,"soiltest_xml_url":0,"soiltest_view_url":0},{"id":165180,"code":"B4KJ201801005-3429","latitude":"35.0675583","longitude":"136.6638983","source_code":"CB52364573002","project_name":"","survey_name":"\u662d\u548c40\u5e74\u5ea6\u5927\u6851\u56fd\u9020\u5730\u8cea\u8abf\u67fb\u305d\u306e2","client_name":"\u56fd\u571f\u4ea4\u901a\u7701\u4e2d\u90e8\u5730\u65b9\u6574\u5099\u5c40\u4e2d\u90e8\u6280\u8853\u4e8b\u52d9\u6240","boring_xml_url":40,"boring_view_url":1,"soilmap_view_url":null,"soiltest_xml_url":0,"soiltest_view_url":0},{"id":165179,"code":"B4KJ201801005-3428","latitude":"35.0662808","longitude":"136.6638706","source_code":"CB52364573001","project_name":"","survey_name":"\u662d\u548c40\u5e74\u5ea6\u5927\u6851\u56fd\u9053\u5730\u8cea\u8abf\u67fb\u305d\u306e2","client_name":"\u56fd\u571f\u4ea4\u901a\u7701\u4e2d\u90e8\u5730\u65b9\u6574\u5099\u5c40\u4e2d\u90e8\u6280\u8853\u4e8b\u52d9\u6240","boring_xml_url":40,"boring_view_url":1,"soilmap_view_url":null,"soiltest_xml_url":0,"soiltest_view_url":0},{"id":165178,"code":"B4KJ201801005-3427","latitude":"35.0596719","longitude":"136.7246989","source_code":"CB52364568012","project_name":"","survey_name":"\u5e73\u62105\u5e74\u5ea6\u6728\u66fd\u5ddd\u53f3\u5cb8\u9ad8\u6f6e\u5824\u88dc\u5f37\u5de5\u4e8b\u5b9f\u65bd\u696d\u52d9\u59d4\u8a17","client_name":"\u56fd\u571f\u4ea4\u901a\u7701\u4e2d\u90e8\u5730\u65b9\u6574\u5099\u5c40\u6728\u66fd\u5ddd\u4e0b\u6d41\u6cb3\u5ddd\u4e8b\u52d9\u6240","boring_xml_url":40,"boring_view_url":1,"soilmap_view_url":null,"soiltest_xml_url":0,"soiltest_view_url":0},{"id":165177,"code":"B4KJ201801005-3426","latitude":"35.0583108","longitude":"136.7258097","source_code":"CB52364568011","project_name":"","survey_name":"\u5e73\u62105\u5e74\u5ea6\u6728\u66fd\u5ddd\u53f3\u5cb8\u9ad8\u6f6e\u5824\u88dc\u5f37\u5de5\u4e8b\u5b9f\u65bd\u696d\u52d9\u59d4\u8a17","client_name":"\u56fd\u571f\u4ea4\u901a\u7701\u4e2d\u90e8\u5730\u65b9\u6574\u5099\u5c40\u6728\u66fd\u5ddd\u4e0b\u6d41\u6cb3\u5ddd\u4e8b\u52d9\u6240","boring_xml_url":40,"boring_view_url":1,"soilmap_view_url":null,"soiltest_xml_url":0,"soiltest_view_url":0},{"id":165176,"code":"B4KJ201801005-3425","latitude":"35.0612828","longitude":"136.7240044","source_code":"CB52364568010","project_name":"","survey_name":"\u5e73\u62107\u5e74\u5ea6\u6728\u66fd\u5ddd\u938c\u30f6\u6c60\u9ad8\u6f6e\u5824\u88dc\u5f37\u5de5\u4e8b\u5b9f\u65bd\u8a2d\u8a08\u696d\u52d9\u59d4\u8a17","client_name":"\u56fd\u571f\u4ea4\u901a\u7701\u4e2d\u90e8\u5730\u65b9\u6574\u5099\u5c40\u6728\u66fd\u5ddd\u4e0b\u6d41\u6cb3\u5ddd\u4e8b\u52d9\u6240","boring_xml_url":40,"boring_view_url":1,"soilmap_view_url":null,"soiltest_xml_url":0,"soiltest_view_url":0}]}}