{"header":{"xyz":{"source":[],"mosaic":false},"page":5193,"raw":{"soiltest_result":"0","bbox":"57.598333,109.544722,1.933333,163.806111","page":"5193"},"conditions":{"soiltest_result":0,"north":57.598333,"west":109.544722,"south":1.933333,"east":163.806111},"success":true,"message":""},"data":{"meta":{"total":212844,"page":5193,"pages":7095,"count":30},"values":[{"id":164785,"code":"B4KJ201801005-3034","latitude":"34.8431367","longitude":"136.5484719","source_code":"CB52362404001","project_name":"","survey_name":"\u4e2d\u52e2\u9053\u8def\u9234\u9e7f\u5730\u533a\u5730\u8cea\u8abf\u67fb","client_name":"\u56fd\u571f\u4ea4\u901a\u7701\u4e2d\u90e8\u5730\u65b9\u6574\u5099\u5c40\u4e09\u91cd\u6cb3\u5ddd\u56fd\u9053\u4e8b\u52d9\u6240","boring_xml_url":40,"boring_view_url":1,"soilmap_view_url":null,"soiltest_xml_url":0,"soiltest_view_url":0},{"id":164784,"code":"B4KJ201801005-3033","latitude":"34.8368039","longitude":"136.5443892","source_code":"CB52362403003","project_name":"","survey_name":"\u9577\u5cf6\u5730\u533a\u5730\u8cea\u8abf\u67fb","client_name":"\u56fd\u571f\u4ea4\u901a\u7701\u4e2d\u90e8\u5730\u65b9\u6574\u5099\u5c40\u4e09\u91cd\u6cb3\u5ddd\u56fd\u9053\u4e8b\u52d9\u6240","boring_xml_url":40,"boring_view_url":1,"soilmap_view_url":null,"soiltest_xml_url":0,"soiltest_view_url":0},{"id":164783,"code":"B4KJ201801005-3032","latitude":"34.8370817","longitude":"136.5448611","source_code":"CB52362403002","project_name":"","survey_name":"\u4e2d\u52e2\u9053\u8def\u9234\u9e7f\u5730\u533a\u5730\u8cea\u8abf\u67fb","client_name":"\u56fd\u571f\u4ea4\u901a\u7701\u4e2d\u90e8\u5730\u65b9\u6574\u5099\u5c40\u4e09\u91cd\u6cb3\u5ddd\u56fd\u9053\u4e8b\u52d9\u6240","boring_xml_url":40,"boring_view_url":1,"soilmap_view_url":null,"soiltest_xml_url":0,"soiltest_view_url":0},{"id":164782,"code":"B4KJ201801005-3031","latitude":"34.8375817","longitude":"136.5452778","source_code":"CB52362403001","project_name":"","survey_name":"\u4e2d\u52e2\u9053\u8def\u9234\u9e7f\u5730\u533a\u5730\u8cea\u8abf\u67fb","client_name":"\u56fd\u571f\u4ea4\u901a\u7701\u4e2d\u90e8\u5730\u65b9\u6574\u5099\u5c40\u4e09\u91cd\u6cb3\u5ddd\u56fd\u9053\u4e8b\u52d9\u6240","boring_xml_url":40,"boring_view_url":1,"soilmap_view_url":null,"soiltest_xml_url":0,"soiltest_view_url":0},{"id":164781,"code":"B4KJ201801005-3030","latitude":"34.8747428","longitude":"136.4948919","source_code":"CB52362349004","project_name":"","survey_name":"\u5b89\u697d\u6a4b\u59165\u6a4b\u5730\u8cea\u8abf\u67fb","client_name":"\u56fd\u571f\u4ea4\u901a\u7701\u4e2d\u90e8\u5730\u65b9\u6574\u5099\u5c40\u4e09\u91cd\u6cb3\u5ddd\u56fd\u9053\u4e8b\u52d9\u6240","boring_xml_url":40,"boring_view_url":1,"soilmap_view_url":null,"soiltest_xml_url":0,"soiltest_view_url":0},{"id":164780,"code":"B4KJ201801005-3029","latitude":"34.875215","longitude":"136.4955031","source_code":"CB52362349003","project_name":"","survey_name":"\u5b89\u697d\u6a4b\u59165\u6a4b\u5730\u8cea\u8abf\u67fb","client_name":"\u56fd\u571f\u4ea4\u901a\u7701\u4e2d\u90e8\u5730\u65b9\u6574\u5099\u5c40\u4e09\u91cd\u6cb3\u5ddd\u56fd\u9053\u4e8b\u52d9\u6240","boring_xml_url":40,"boring_view_url":1,"soilmap_view_url":null,"soiltest_xml_url":0,"soiltest_view_url":0},{"id":164779,"code":"B4KJ201801005-3028","latitude":"34.8756872","longitude":"136.4965308","source_code":"CB52362349002","project_name":"","survey_name":"\u5b89\u697d\u6a4b\u59165\u6a4b\u5730\u8cea\u8abf\u67fb","client_name":"\u56fd\u571f\u4ea4\u901a\u7701\u4e2d\u90e8\u5730\u65b9\u6574\u5099\u5c40\u4e09\u91cd\u6cb3\u5ddd\u56fd\u9053\u4e8b\u52d9\u6240","boring_xml_url":40,"boring_view_url":1,"soilmap_view_url":null,"soiltest_xml_url":0,"soiltest_view_url":0},{"id":164778,"code":"B4KJ201801005-3027","latitude":"34.8759372","longitude":"136.4970586","source_code":"CB52362349001","project_name":"","survey_name":"\u5b89\u697d\u6a4b\u59165\u6a4b\u5730\u8cea\u8abf\u67fb","client_name":"\u56fd\u571f\u4ea4\u901a\u7701\u4e2d\u90e8\u5730\u65b9\u6574\u5099\u5c40\u4e09\u91cd\u6cb3\u5ddd\u56fd\u9053\u4e8b\u52d9\u6240","boring_xml_url":40,"boring_view_url":1,"soilmap_view_url":null,"soiltest_xml_url":0,"soiltest_view_url":0},{"id":164777,"code":"B4KJ201801005-3026","latitude":"34.8640772","longitude":"136.4876431","source_code":"CB52362339011","project_name":"","survey_name":"\u662d\u548c55\u5e74\u5ea6\u4e80\u5c71\u30d0\u30a4\u30d1\u30b9\u5730\u8cea\u8abf\u67fb\u305d\u306e1","client_name":"\u56fd\u571f\u4ea4\u901a\u7701\u4e2d\u90e8\u5730\u65b9\u6574\u5099\u5c40\u5317\u52e2\u56fd\u9053\u4e8b\u52d9\u6240","boring_xml_url":40,"boring_view_url":1,"soilmap_view_url":null,"soiltest_xml_url":0,"soiltest_view_url":0},{"id":164776,"code":"B4KJ201801005-3025","latitude":"34.8629661","longitude":"136.4865319","source_code":"CB52362339008","project_name":"","survey_name":"\u662d\u548c55\u5e74\u5ea6\u4e80\u5c71\u30d0\u30a4\u30d1\u30b9\u5730\u8cea\u8abf\u67fb\u305d\u306e1","client_name":"\u56fd\u571f\u4ea4\u901a\u7701\u4e2d\u90e8\u5730\u65b9\u6574\u5099\u5c40\u5317\u52e2\u56fd\u9053\u4e8b\u52d9\u6240","boring_xml_url":40,"boring_view_url":1,"soilmap_view_url":null,"soiltest_xml_url":0,"soiltest_view_url":0},{"id":164775,"code":"B4KJ201801005-3024","latitude":"34.8649661","longitude":"136.4884764","source_code":"CB52362339007","project_name":"","survey_name":"\u4e80\u5c71\u30d0\u30a4\u30d1\u30b9\u5ddd\u5408\u5730\u533a\u59161\u4ef6\u5730\u8cea\u8abf\u67fb","client_name":"\u56fd\u571f\u4ea4\u901a\u7701\u4e2d\u90e8\u5730\u65b9\u6574\u5099\u5c40\u5317\u52e2\u56fd\u9053\u4e8b\u52d9\u6240","boring_xml_url":40,"boring_view_url":1,"soilmap_view_url":null,"soiltest_xml_url":0,"soiltest_view_url":0},{"id":164774,"code":"B4KJ201801005-3023","latitude":"34.862605","longitude":"136.4856433","source_code":"CB52362339006","project_name":"","survey_name":"\u4e80\u5c71\u30d0\u30a4\u30d1\u30b9\u5ddd\u5408\u5730\u533a\u59161\u4ef6\u5730\u8cea\u8abf\u67fb","client_name":"\u56fd\u571f\u4ea4\u901a\u7701\u4e2d\u90e8\u5730\u65b9\u6574\u5099\u5c40\u5317\u52e2\u56fd\u9053\u4e8b\u52d9\u6240","boring_xml_url":40,"boring_view_url":1,"soilmap_view_url":null,"soiltest_xml_url":0,"soiltest_view_url":0},{"id":164773,"code":"B4KJ201801005-3022","latitude":"34.8629383","longitude":"136.4859767","source_code":"CB52362339005","project_name":"","survey_name":"\u4e80\u5c71\u30d0\u30a4\u30d1\u30b9\u5ddd\u5408\u5730\u533a\u59161\u4ef6\u5730\u8cea\u8abf\u67fb","client_name":"\u56fd\u571f\u4ea4\u901a\u7701\u4e2d\u90e8\u5730\u65b9\u6574\u5099\u5c40\u5317\u52e2\u56fd\u9053\u4e8b\u52d9\u6240","boring_xml_url":40,"boring_view_url":1,"soilmap_view_url":null,"soiltest_xml_url":0,"soiltest_view_url":0},{"id":164772,"code":"B4KJ201801005-3021","latitude":"34.8623553","longitude":"136.4859767","source_code":"CB52362339004","project_name":"","survey_name":"\u4e80\u5c71\u30d0\u30a4\u30d1\u30b9\u5ddd\u5408\u5730\u533a\u59161\u4ef6\u5730\u8cea\u8abf\u67fb","client_name":"\u56fd\u571f\u4ea4\u901a\u7701\u4e2d\u90e8\u5730\u65b9\u6574\u5099\u5c40\u5317\u52e2\u56fd\u9053\u4e8b\u52d9\u6240","boring_xml_url":40,"boring_view_url":1,"soilmap_view_url":null,"soiltest_xml_url":0,"soiltest_view_url":0},{"id":164771,"code":"B4KJ201801005-3020","latitude":"34.8633272","longitude":"136.4869486","source_code":"CB52362339003","project_name":"","survey_name":"\u4e80\u5c71\u30d0\u30a4\u30d1\u30b9\u5ddd\u5408\u5730\u533a\u59161\u4ef6\u5730\u8cea\u8abf\u67fb","client_name":"\u56fd\u571f\u4ea4\u901a\u7701\u4e2d\u90e8\u5730\u65b9\u6574\u5099\u5c40\u5317\u52e2\u56fd\u9053\u4e8b\u52d9\u6240","boring_xml_url":40,"boring_view_url":1,"soilmap_view_url":null,"soiltest_xml_url":0,"soiltest_view_url":0},{"id":164770,"code":"B4KJ201801005-3019","latitude":"34.8638828","longitude":"136.4875875","source_code":"CB52362339002","project_name":"","survey_name":"\u4e80\u5c71\u30d0\u30a4\u30d1\u30b9\u5ddd\u5408\u5730\u533a\u59161\u4ef6\u5730\u8cea\u8abf\u67fb","client_name":"\u56fd\u571f\u4ea4\u901a\u7701\u4e2d\u90e8\u5730\u65b9\u6574\u5099\u5c40\u5317\u52e2\u56fd\u9053\u4e8b\u52d9\u6240","boring_xml_url":40,"boring_view_url":1,"soilmap_view_url":null,"soiltest_xml_url":0,"soiltest_view_url":0},{"id":164769,"code":"B4KJ201801005-3018","latitude":"34.8645217","longitude":"136.4880597","source_code":"CB52362339001","project_name":"","survey_name":"\u4e80\u5c71\u30d0\u30a4\u30d1\u30b9\u5ddd\u5408\u5730\u533a\u59161\u4ef6\u5730\u8cea\u8abf\u67fb","client_name":"\u56fd\u571f\u4ea4\u901a\u7701\u4e2d\u90e8\u5730\u65b9\u6574\u5099\u5c40\u5317\u52e2\u56fd\u9053\u4e8b\u52d9\u6240","boring_xml_url":40,"boring_view_url":1,"soilmap_view_url":null,"soiltest_xml_url":0,"soiltest_view_url":0},{"id":164768,"code":"B4KJ201801005-3017","latitude":"34.8627439","longitude":"136.4781161","source_code":"CB52362338004","project_name":"","survey_name":"\u4e80\u5c71\u30d0\u30a4\u30d1\u30b9\u5730\u8cea\u8abf\u67fb(\u4e80\u5c71\u30d0\u30a4\u30d1\u30b9)","client_name":"\u56fd\u571f\u4ea4\u901a\u7701\u4e2d\u90e8\u5730\u65b9\u6574\u5099\u5c40\u5317\u52e2\u56fd\u9053\u4e8b\u52d9\u6240","boring_xml_url":40,"boring_view_url":1,"soilmap_view_url":null,"soiltest_xml_url":0,"soiltest_view_url":0},{"id":164767,"code":"B4KJ201801005-3016","latitude":"34.8626328","longitude":"136.4821436","source_code":"CB52362338003","project_name":"","survey_name":"\u4e80\u5c71\u30d0\u30a4\u30d1\u30b9\u5730\u8cea\u8abf\u67fb(\u4e80\u5c71\u30d0\u30a4\u30d1\u30b9)","client_name":"\u56fd\u571f\u4ea4\u901a\u7701\u4e2d\u90e8\u5730\u65b9\u6574\u5099\u5c40\u5317\u52e2\u56fd\u9053\u4e8b\u52d9\u6240","boring_xml_url":40,"boring_view_url":1,"soilmap_view_url":null,"soiltest_xml_url":0,"soiltest_view_url":0},{"id":164766,"code":"B4KJ201801005-3015","latitude":"34.8626883","longitude":"136.4790328","source_code":"CB52362338002","project_name":"","survey_name":"\u662d\u548c55\u5e74\u5ea6\u4e80\u5c71\u30d0\u30a4\u30d1\u30b9\u5730\u8cea\u8abf\u67fb\u305d\u306e1","client_name":"\u56fd\u571f\u4ea4\u901a\u7701\u4e2d\u90e8\u5730\u65b9\u6574\u5099\u5c40\u5317\u52e2\u56fd\u9053\u4e8b\u52d9\u6240","boring_xml_url":40,"boring_view_url":1,"soilmap_view_url":null,"soiltest_xml_url":0,"soiltest_view_url":0},{"id":164765,"code":"B4KJ201801005-3014","latitude":"34.8621328","longitude":"136.4831992","source_code":"CB52362338001","project_name":"","survey_name":"\u4e80\u5c71\u30d0\u30a4\u30d1\u30b9\u5ddd\u5408\u5730\u533a\u59161\u4ef6\u5730\u8cea\u8abf\u67fb","client_name":"\u56fd\u571f\u4ea4\u901a\u7701\u4e2d\u90e8\u5730\u65b9\u6574\u5099\u5c40\u5317\u52e2\u56fd\u9053\u4e8b\u52d9\u6240","boring_xml_url":40,"boring_view_url":1,"soilmap_view_url":null,"soiltest_xml_url":0,"soiltest_view_url":0},{"id":164764,"code":"B4KJ201801005-3013","latitude":"34.8619936","longitude":"136.4635342","source_code":"CB52362337007","project_name":"","survey_name":"\u662d\u548c61\u5e74\u5ea6\u4e80\u5c71\u30d0\u30a4\u30d1\u30b9\u5730\u8cea\u8abf\u67fb","client_name":"\u56fd\u571f\u4ea4\u901a\u7701\u4e2d\u90e8\u5730\u65b9\u6574\u5099\u5c40\u5317\u52e2\u56fd\u9053\u4e8b\u52d9\u6240","boring_xml_url":40,"boring_view_url":1,"soilmap_view_url":null,"soiltest_xml_url":0,"soiltest_view_url":0},{"id":164763,"code":"B4KJ201801005-3012","latitude":"34.8622436","longitude":"136.4663394","source_code":"CB52362337006","project_name":"","survey_name":"\u662d\u548c61\u5e74\u5ea6\u4e80\u5c71\u30d0\u30a4\u30d1\u30b9\u5730\u8cea\u8abf\u67fb","client_name":"\u56fd\u571f\u4ea4\u901a\u7701\u4e2d\u90e8\u5730\u65b9\u6574\u5099\u5c40\u5317\u52e2\u56fd\u9053\u4e8b\u52d9\u6240","boring_xml_url":40,"boring_view_url":1,"soilmap_view_url":null,"soiltest_xml_url":0,"soiltest_view_url":0},{"id":164762,"code":"B4KJ201801005-3011","latitude":"34.8624103","longitude":"136.4657006","source_code":"CB52362337005","project_name":"","survey_name":"\u662d\u548c55\u5e74\u5ea6\u4e80\u5c71\u30d0\u30a4\u30d1\u30b9\u5730\u8cea\u8abf\u67fb\u305d\u306e1","client_name":"\u56fd\u571f\u4ea4\u901a\u7701\u4e2d\u90e8\u5730\u65b9\u6574\u5099\u5c40\u5317\u52e2\u56fd\u9053\u4e8b\u52d9\u6240","boring_xml_url":40,"boring_view_url":1,"soilmap_view_url":null,"soiltest_xml_url":0,"soiltest_view_url":0},{"id":164761,"code":"B4KJ201801005-3010","latitude":"34.8624103","longitude":"136.4665339","source_code":"CB52362337004","project_name":"","survey_name":"\u662d\u548c55\u5e74\u5ea6\u4e80\u5c71\u30d0\u30a4\u30d1\u30b9\u5730\u8cea\u8abf\u67fb\u305d\u306e1","client_name":"\u56fd\u571f\u4ea4\u901a\u7701\u4e2d\u90e8\u5730\u65b9\u6574\u5099\u5c40\u5317\u52e2\u56fd\u9053\u4e8b\u52d9\u6240","boring_xml_url":40,"boring_view_url":1,"soilmap_view_url":null,"soiltest_xml_url":0,"soiltest_view_url":0},{"id":164760,"code":"B4KJ201801005-3009","latitude":"34.8624103","longitude":"136.4676447","source_code":"CB52362337003","project_name":"","survey_name":"\u662d\u548c55\u5e74\u5ea6\u4e80\u5c71\u30d0\u30a4\u30d1\u30b9\u5730\u8cea\u8abf\u67fb\u305d\u306e1","client_name":"\u56fd\u571f\u4ea4\u901a\u7701\u4e2d\u90e8\u5730\u65b9\u6574\u5099\u5c40\u5317\u52e2\u56fd\u9053\u4e8b\u52d9\u6240","boring_xml_url":40,"boring_view_url":1,"soilmap_view_url":null,"soiltest_xml_url":0,"soiltest_view_url":0},{"id":164759,"code":"B4KJ201801005-3008","latitude":"34.8625492","longitude":"136.4701447","source_code":"CB52362337002","project_name":"","survey_name":"\u662d\u548c55\u5e74\u5ea6\u4e80\u5c71\u30d0\u30a4\u30d1\u30b9\u5730\u8cea\u8abf\u67fb\u305d\u306e1","client_name":"\u56fd\u571f\u4ea4\u901a\u7701\u4e2d\u90e8\u5730\u65b9\u6574\u5099\u5c40\u5317\u52e2\u56fd\u9053\u4e8b\u52d9\u6240","boring_xml_url":40,"boring_view_url":1,"soilmap_view_url":null,"soiltest_xml_url":0,"soiltest_view_url":0},{"id":164758,"code":"B4KJ201801005-3007","latitude":"34.8624103","longitude":"136.4707","source_code":"CB52362337001","project_name":"","survey_name":"\u662d\u548c55\u5e74\u5ea6\u4e80\u5c71\u30d0\u30a4\u30d1\u30b9\u5730\u8cea\u8abf\u67fb\u305d\u306e1","client_name":"\u56fd\u571f\u4ea4\u901a\u7701\u4e2d\u90e8\u5730\u65b9\u6574\u5099\u5c40\u5317\u52e2\u56fd\u9053\u4e8b\u52d9\u6240","boring_xml_url":40,"boring_view_url":1,"soilmap_view_url":null,"soiltest_xml_url":0,"soiltest_view_url":0},{"id":164757,"code":"B4KJ201801005-3006","latitude":"34.8623539","longitude":"136.4356475","source_code":"CB52362335001","project_name":"","survey_name":"\u662d\u548c55\u5e74\u5ea6,\u4e80\u5c71\u30d0\u30a4\u30d1\u30b9\u5730\u8cea\u8abf\u67fb\u305d\u306e3","client_name":"\u56fd\u571f\u4ea4\u901a\u7701\u4e2d\u90e8\u5730\u65b9\u6574\u5099\u5c40\u5317\u52e2\u56fd\u9053\u4e8b\u52d9\u6240","boring_xml_url":40,"boring_view_url":1,"soilmap_view_url":null,"soiltest_xml_url":0,"soiltest_view_url":0},{"id":164756,"code":"B4KJ201801005-3005","latitude":"34.8608264","longitude":"136.4322592","source_code":"CB52362324002","project_name":"","survey_name":"\u662d\u548c55\u5e74\u5ea6.\u4e80\u5c71\u30d0\u30a4\u30d1\u30b9\u5730\u8cea\u8abf\u67fb\u305d\u306e3","client_name":"\u56fd\u571f\u4ea4\u901a\u7701\u4e2d\u90e8\u5730\u65b9\u6574\u5099\u5c40\u5317\u52e2\u56fd\u9053\u4e8b\u52d9\u6240","boring_xml_url":40,"boring_view_url":1,"soilmap_view_url":null,"soiltest_xml_url":0,"soiltest_view_url":0}]}}