{"header":{"xyz":{"source":[],"mosaic":false},"page":5201,"raw":{"soiltest_result":"0","bbox":"57.598333,109.544722,1.933333,163.806111","page":"5201"},"conditions":{"soiltest_result":0,"north":57.598333,"west":109.544722,"south":1.933333,"east":163.806111},"success":true,"message":""},"data":{"meta":{"total":212844,"page":5201,"pages":7095,"count":30},"values":[{"id":164545,"code":"B4KJ201801005-2794","latitude":"34.6238547","longitude":"136.5030111","source_code":"CB51367440004","project_name":"","survey_name":"\u5e73\u621011\u5e74\u5ea623\u53f7\u4e2d\u52e2\u9053\u8def\u5b09\u91ce(\u5357\u90e8\u5730\u533a)\u5730\u8cea\u8abf\u67fb","client_name":"\u56fd\u571f\u4ea4\u901a\u7701\u4e2d\u90e8\u5730\u65b9\u6574\u5099\u5c40\u4e09\u91cd\u6cb3\u5ddd\u56fd\u9053\u4e8b\u52d9\u6240","boring_xml_url":40,"boring_view_url":1,"soilmap_view_url":null,"soiltest_xml_url":0,"soiltest_view_url":0},{"id":164544,"code":"B4KJ201801005-2793","latitude":"34.6241603","longitude":"136.5032889","source_code":"CB51367440003","project_name":"","survey_name":"\u5e73\u621011\u5e74\u5ea623\u53f7\u4e2d\u52e2\u9053\u8def\u5b09\u91ce(\u5357\u90e8\u5730\u533a)\u5730\u8cea\u8abf\u67fb","client_name":"\u56fd\u571f\u4ea4\u901a\u7701\u4e2d\u90e8\u5730\u65b9\u6574\u5099\u5c40\u4e09\u91cd\u6cb3\u5ddd\u56fd\u9053\u4e8b\u52d9\u6240","boring_xml_url":40,"boring_view_url":1,"soilmap_view_url":null,"soiltest_xml_url":0,"soiltest_view_url":0},{"id":164543,"code":"B4KJ201801005-2792","latitude":"34.6256322","longitude":"136.5026778","source_code":"CB51367440002","project_name":"","survey_name":"\u5e73\u621011\u5e74\u5ea623\u53f7\u4e2d\u52e2\u9053\u8def\u5b09\u91ce(\u5357\u90e8\u5730\u533a)\u5730\u8cea\u8abf\u67fb","client_name":"\u56fd\u571f\u4ea4\u901a\u7701\u4e2d\u90e8\u5730\u65b9\u6574\u5099\u5c40\u4e09\u91cd\u6cb3\u5ddd\u56fd\u9053\u4e8b\u52d9\u6240","boring_xml_url":40,"boring_view_url":1,"soilmap_view_url":null,"soiltest_xml_url":0,"soiltest_view_url":0},{"id":164542,"code":"B4KJ201801005-2791","latitude":"34.6260211","longitude":"136.5027333","source_code":"CB51367440001","project_name":"","survey_name":"\u5e73\u621011\u5e74\u5ea623\u53f7\u4e2d\u52e2\u9053\u8def\u5b09\u91ce(\u5357\u90e8\u5730\u533a)\u5730\u8cea\u8abf\u67fb","client_name":"\u56fd\u571f\u4ea4\u901a\u7701\u4e2d\u90e8\u5730\u65b9\u6574\u5099\u5c40\u4e09\u91cd\u6cb3\u5ddd\u56fd\u9053\u4e8b\u52d9\u6240","boring_xml_url":40,"boring_view_url":1,"soilmap_view_url":null,"soiltest_xml_url":0,"soiltest_view_url":0},{"id":164541,"code":"B4KJ201801005-2790","latitude":"34.6165781","longitude":"136.5152606","source_code":"CB51367431025","project_name":"","survey_name":"\u5e73\u621012\u5e74\u5ea623\u53f7\u4e2d\u52e2\u9053\u8def\u6d25\u5b09\u91ce\u4e09\u96f2\u5730\u533a\u5730\u8cea\u8abf\u67fb","client_name":"\u56fd\u571f\u4ea4\u901a\u7701\u4e2d\u90e8\u5730\u65b9\u6574\u5099\u5c40\u4e09\u91cd\u6cb3\u5ddd\u56fd\u9053\u4e8b\u52d9\u6240","boring_xml_url":40,"boring_view_url":1,"soilmap_view_url":null,"soiltest_xml_url":0,"soiltest_view_url":0},{"id":164540,"code":"B4KJ201801005-2789","latitude":"34.6171058","longitude":"136.5148161","source_code":"CB51367431024","project_name":"","survey_name":"\u5e73\u621012\u5e74\u5ea623\u53f7\u4e2d\u52e2\u9053\u8def\u6d25\u5b09\u91ce\u4e09\u96f2\u5730\u533a\u5730\u8cea\u8abf\u67fb","client_name":"\u56fd\u571f\u4ea4\u901a\u7701\u4e2d\u90e8\u5730\u65b9\u6574\u5099\u5c40\u4e09\u91cd\u6cb3\u5ddd\u56fd\u9053\u4e8b\u52d9\u6240","boring_xml_url":40,"boring_view_url":1,"soilmap_view_url":null,"soiltest_xml_url":0,"soiltest_view_url":0},{"id":164539,"code":"B4KJ201801005-2788","latitude":"34.6183833","longitude":"136.5131494","source_code":"CB51367431023","project_name":"","survey_name":"\u5e73\u621012\u5e74\u5ea623\u53f7\u4e2d\u52e2\u9053\u8def\u6d25\u5b09\u91ce\u4e09\u96f2\u5730\u533a\u5730\u8cea\u8abf\u67fb","client_name":"\u56fd\u571f\u4ea4\u901a\u7701\u4e2d\u90e8\u5730\u65b9\u6574\u5099\u5c40\u4e09\u91cd\u6cb3\u5ddd\u56fd\u9053\u4e8b\u52d9\u6240","boring_xml_url":40,"boring_view_url":1,"soilmap_view_url":null,"soiltest_xml_url":0,"soiltest_view_url":0},{"id":164538,"code":"B4KJ201801005-2787","latitude":"34.6185778","longitude":"136.5133717","source_code":"CB51367431022","project_name":"","survey_name":"\u5e73\u621012\u5e74\u5ea623\u53f7\u4e2d\u52e2\u9053\u8def\u6d25\u5b09\u91ce\u4e09\u96f2\u5730\u533a\u5730\u8cea\u8abf\u67fb","client_name":"\u56fd\u571f\u4ea4\u901a\u7701\u4e2d\u90e8\u5730\u65b9\u6574\u5099\u5c40\u4e09\u91cd\u6cb3\u5ddd\u56fd\u9053\u4e8b\u52d9\u6240","boring_xml_url":40,"boring_view_url":1,"soilmap_view_url":null,"soiltest_xml_url":0,"soiltest_view_url":0},{"id":164537,"code":"B4KJ201801005-2786","latitude":"34.6196333","longitude":"136.5113994","source_code":"CB51367431021","project_name":"","survey_name":"\u5e73\u621012\u5e74\u5ea623\u53f7\u4e2d\u52e2\u9053\u8def\u6d25\u5b09\u91ce\u4e09\u96f2\u5730\u533a\u5730\u8cea\u8abf\u67fb","client_name":"\u56fd\u571f\u4ea4\u901a\u7701\u4e2d\u90e8\u5730\u65b9\u6574\u5099\u5c40\u4e09\u91cd\u6cb3\u5ddd\u56fd\u9053\u4e8b\u52d9\u6240","boring_xml_url":40,"boring_view_url":1,"soilmap_view_url":null,"soiltest_xml_url":0,"soiltest_view_url":0},{"id":164536,"code":"B4KJ201801005-2785","latitude":"34.6146894","longitude":"136.5165936","source_code":"CB51367431005","project_name":"","survey_name":"\u5e73\u621011\u5e74\u5ea623\u53f7\u4e2d\u52e2\u9053\u8def\u5b09\u91ce(\u5357\u90e8\u5730\u533a)\u5730\u8cea\u8abf\u67fb","client_name":"\u56fd\u571f\u4ea4\u901a\u7701\u4e2d\u90e8\u5730\u65b9\u6574\u5099\u5c40\u4e09\u91cd\u6cb3\u5ddd\u56fd\u9053\u4e8b\u52d9\u6240","boring_xml_url":40,"boring_view_url":1,"soilmap_view_url":null,"soiltest_xml_url":0,"soiltest_view_url":0},{"id":164535,"code":"B4KJ201801005-2784","latitude":"34.6151894","longitude":"136.5163714","source_code":"CB51367431004","project_name":"","survey_name":"\u5e73\u621011\u5e74\u5ea623\u53f7\u4e2d\u52e2\u9053\u8def\u5b09\u91ce(\u5357\u90e8\u5730\u533a)\u5730\u8cea\u8abf\u67fb","client_name":"\u56fd\u571f\u4ea4\u901a\u7701\u4e2d\u90e8\u5730\u65b9\u6574\u5099\u5c40\u4e09\u91cd\u6cb3\u5ddd\u56fd\u9053\u4e8b\u52d9\u6240","boring_xml_url":40,"boring_view_url":1,"soilmap_view_url":null,"soiltest_xml_url":0,"soiltest_view_url":0},{"id":164534,"code":"B4KJ201801005-2783","latitude":"34.6118286","longitude":"136.5184269","source_code":"CB51367431003","project_name":"","survey_name":"\u5357\u52e2\u30d0\u30a4\u30d1\u30b9\u677e\u5742\u5730\u533a\u5730\u8cea\u8abf\u67fb","client_name":"\u56fd\u571f\u4ea4\u901a\u7701\u4e2d\u90e8\u5730\u65b9\u6574\u5099\u5c40\u7d00\u52e2\u56fd\u9053\u4e8b\u52d9\u6240","boring_xml_url":40,"boring_view_url":1,"soilmap_view_url":null,"soiltest_xml_url":0,"soiltest_view_url":0},{"id":164533,"code":"B4KJ201801005-2782","latitude":"34.6126619","longitude":"136.5181769","source_code":"CB51367431002","project_name":"","survey_name":"\u5357\u52e2\u30d0\u30a4\u30d1\u30b9\u677e\u5742\u5730\u533a\u5730\u8cea\u8abf\u67fb","client_name":"\u56fd\u571f\u4ea4\u901a\u7701\u4e2d\u90e8\u5730\u65b9\u6574\u5099\u5c40\u7d00\u52e2\u56fd\u9053\u4e8b\u52d9\u6240","boring_xml_url":40,"boring_view_url":1,"soilmap_view_url":null,"soiltest_xml_url":0,"soiltest_view_url":0},{"id":164532,"code":"B4KJ201801005-2781","latitude":"34.6138006","longitude":"136.5175658","source_code":"CB51367431001","project_name":"","survey_name":"\u5357\u52e2\u30d0\u30a4\u30d1\u30b9\u677e\u5742\u5730\u533a\u5730\u8cea\u8abf\u67fb","client_name":"\u56fd\u571f\u4ea4\u901a\u7701\u4e2d\u90e8\u5730\u65b9\u6574\u5099\u5c40\u7d00\u52e2\u56fd\u9053\u4e8b\u52d9\u6240","boring_xml_url":40,"boring_view_url":1,"soilmap_view_url":null,"soiltest_xml_url":0,"soiltest_view_url":0},{"id":164531,"code":"B4KJ201801005-2780","latitude":"34.6076347","longitude":"136.5195658","source_code":"CB51367421004","project_name":"","survey_name":"\u5357\u52e2\u30d0\u30a4\u30d1\u30b9\u677e\u5742\u5730\u533a\u5730\u8cea\u8abf\u67fb","client_name":"\u56fd\u571f\u4ea4\u901a\u7701\u4e2d\u90e8\u5730\u65b9\u6574\u5099\u5c40\u7d00\u52e2\u56fd\u9053\u4e8b\u52d9\u6240","boring_xml_url":40,"boring_view_url":1,"soilmap_view_url":null,"soiltest_xml_url":0,"soiltest_view_url":0},{"id":164530,"code":"B4KJ201801005-2779","latitude":"34.6082181","longitude":"136.5193992","source_code":"CB51367421003","project_name":"","survey_name":"\u5357\u52e2\u30d0\u30a4\u30d1\u30b9\u677e\u5742\u5730\u533a\u5730\u8cea\u8abf\u67fb","client_name":"\u56fd\u571f\u4ea4\u901a\u7701\u4e2d\u90e8\u5730\u65b9\u6574\u5099\u5c40\u7d00\u52e2\u56fd\u9053\u4e8b\u52d9\u6240","boring_xml_url":40,"boring_view_url":1,"soilmap_view_url":null,"soiltest_xml_url":0,"soiltest_view_url":0},{"id":164529,"code":"B4KJ201801005-2778","latitude":"34.6090792","longitude":"136.5190936","source_code":"CB51367421002","project_name":"","survey_name":"\u5357\u52e2\u30d0\u30a4\u30d1\u30b9\u677e\u5742\u5730\u533a\u5730\u8cea\u8abf\u67fb","client_name":"\u56fd\u571f\u4ea4\u901a\u7701\u4e2d\u90e8\u5730\u65b9\u6574\u5099\u5c40\u7d00\u52e2\u56fd\u9053\u4e8b\u52d9\u6240","boring_xml_url":40,"boring_view_url":1,"soilmap_view_url":null,"soiltest_xml_url":0,"soiltest_view_url":0},{"id":164528,"code":"B4KJ201801005-2777","latitude":"34.6055239","longitude":"136.5183994","source_code":"CB51367421001","project_name":"","survey_name":"\u677e\u962a\u5730\u8cea\u8abf\u67fb","client_name":"\u56fd\u571f\u4ea4\u901a\u7701\u4e2d\u90e8\u5730\u65b9\u6574\u5099\u5c40\u4e09\u91cd\u6cb3\u5ddd\u56fd\u9053\u4e8b\u52d9\u6240","boring_xml_url":40,"boring_view_url":1,"soilmap_view_url":null,"soiltest_xml_url":0,"soiltest_view_url":0},{"id":164527,"code":"B4KJ201801005-2776","latitude":"34.6023856","longitude":"136.5261211","source_code":"CB51367412003","project_name":"","survey_name":"\u5357\u52e2\u30d0\u30a4\u30d1\u30b9\u677e\u5742\u5730\u533a\u5730\u8cea\u8abf\u67fb","client_name":"\u56fd\u571f\u4ea4\u901a\u7701\u4e2d\u90e8\u5730\u65b9\u6574\u5099\u5c40\u7d00\u52e2\u56fd\u9053\u4e8b\u52d9\u6240","boring_xml_url":40,"boring_view_url":1,"soilmap_view_url":null,"soiltest_xml_url":0,"soiltest_view_url":0},{"id":164526,"code":"B4KJ201801005-2775","latitude":"34.6027189","longitude":"136.5255656","source_code":"CB51367412002","project_name":"","survey_name":"\u5357\u52e2\u30d0\u30a4\u30d1\u30b9\u677e\u5742\u5730\u533a\u5730\u8cea\u8abf\u67fb","client_name":"\u56fd\u571f\u4ea4\u901a\u7701\u4e2d\u90e8\u5730\u65b9\u6574\u5099\u5c40\u7d00\u52e2\u56fd\u9053\u4e8b\u52d9\u6240","boring_xml_url":40,"boring_view_url":1,"soilmap_view_url":null,"soiltest_xml_url":0,"soiltest_view_url":0},{"id":164525,"code":"B4KJ201801005-2774","latitude":"34.6029964","longitude":"136.5249822","source_code":"CB51367412001","project_name":"","survey_name":"\u5357\u52e2\u30d0\u30a4\u30d1\u30b9\u677e\u5742\u5730\u533a\u5730\u8cea\u8abf\u67fb","client_name":"\u56fd\u571f\u4ea4\u901a\u7701\u4e2d\u90e8\u5730\u65b9\u6574\u5099\u5c40\u7d00\u52e2\u56fd\u9053\u4e8b\u52d9\u6240","boring_xml_url":40,"boring_view_url":1,"soilmap_view_url":null,"soiltest_xml_url":0,"soiltest_view_url":0},{"id":164524,"code":"B4KJ201801005-2773","latitude":"34.5978025","longitude":"136.5198994","source_code":"CB51367411001","project_name":"","survey_name":"\u677e\u962a\u5730\u8cea\u8abf\u67fb","client_name":"\u56fd\u571f\u4ea4\u901a\u7701\u4e2d\u90e8\u5730\u65b9\u6574\u5099\u5c40\u4e09\u91cd\u6cb3\u5ddd\u56fd\u9053\u4e8b\u52d9\u6240","boring_xml_url":40,"boring_view_url":1,"soilmap_view_url":null,"soiltest_xml_url":0,"soiltest_view_url":0},{"id":164523,"code":"B4KJ201801005-2772","latitude":"34.5938322","longitude":"136.5779225","source_code":"CB51367406001","project_name":"","survey_name":"\u662d\u548c57\u5e74\u5ea6\u96f2\u51fa\u5ddd\u3001\u6adb\u7530\u5ddd\u5824\u9632\u5730\u8cea\u8abf\u67fb","client_name":"\u56fd\u571f\u4ea4\u901a\u7701\u4e2d\u90e8\u5730\u65b9\u6574\u5099\u5c40\u4e09\u91cd\u6cb3\u5ddd\u56fd\u9053\u4e8b\u52d9\u6240","boring_xml_url":40,"boring_view_url":1,"soilmap_view_url":null,"soiltest_xml_url":0,"soiltest_view_url":0},{"id":164522,"code":"B4KJ201801005-2771","latitude":"34.5933592","longitude":"136.5440364","source_code":"CB51367403003","project_name":"","survey_name":"\u5357\u52e2\u30d0\u30a4\u30d1\u30b9\u677e\u5742\u5730\u533a\u5730\u8cea\u8abf\u67fb","client_name":"\u56fd\u571f\u4ea4\u901a\u7701\u4e2d\u90e8\u5730\u65b9\u6574\u5099\u5c40\u7d00\u52e2\u56fd\u9053\u4e8b\u52d9\u6240","boring_xml_url":40,"boring_view_url":1,"soilmap_view_url":null,"soiltest_xml_url":0,"soiltest_view_url":0},{"id":164521,"code":"B4KJ201801005-2770","latitude":"34.5938869","longitude":"136.5435644","source_code":"CB51367403002","project_name":"","survey_name":"\u5357\u52e2\u30d0\u30a4\u30d1\u30b9\u677e\u5742\u5730\u533a\u5730\u8cea\u8abf\u67fb","client_name":"\u56fd\u571f\u4ea4\u901a\u7701\u4e2d\u90e8\u5730\u65b9\u6574\u5099\u5c40\u7d00\u52e2\u56fd\u9053\u4e8b\u52d9\u6240","boring_xml_url":40,"boring_view_url":1,"soilmap_view_url":null,"soiltest_xml_url":0,"soiltest_view_url":0},{"id":164520,"code":"B4KJ201801005-2769","latitude":"34.5943036","longitude":"136.5432311","source_code":"CB51367403001","project_name":"","survey_name":"\u5357\u52e2\u30d0\u30a4\u30d1\u30b9\u677e\u5742\u5730\u533a\u5730\u8cea\u8abf\u67fb","client_name":"\u56fd\u571f\u4ea4\u901a\u7701\u4e2d\u90e8\u5730\u65b9\u6574\u5099\u5c40\u7d00\u52e2\u56fd\u9053\u4e8b\u52d9\u6240","boring_xml_url":40,"boring_view_url":1,"soilmap_view_url":null,"soiltest_xml_url":0,"soiltest_view_url":0},{"id":164519,"code":"B4KJ201801005-2768","latitude":"34.5933586","longitude":"136.522455","source_code":"CB51367402001","project_name":"","survey_name":"\u677e\u962a\u5730\u8cea\u8abf\u67fb","client_name":"\u56fd\u571f\u4ea4\u901a\u7701\u4e2d\u90e8\u5730\u65b9\u6574\u5099\u5c40\u4e09\u91cd\u6cb3\u5ddd\u56fd\u9053\u4e8b\u52d9\u6240","boring_xml_url":40,"boring_view_url":1,"soilmap_view_url":null,"soiltest_xml_url":0,"soiltest_view_url":0},{"id":164518,"code":"B4KJ201801005-2767","latitude":"34.6633222","longitude":"136.4921775","source_code":"CB51367399001","project_name":"","survey_name":"\u5e73\u6210\u5143\u5e74\u5ea6\u4e2d\u52e2\u9053\u8def\u4e45\u5c45\u5730\u533a\u5730\u8cea\u8abf\u67fb","client_name":"\u56fd\u571f\u4ea4\u901a\u7701\u4e2d\u90e8\u5730\u65b9\u6574\u5099\u5c40\u4e09\u91cd\u6cb3\u5ddd\u56fd\u9053\u4e8b\u52d9\u6240","boring_xml_url":40,"boring_view_url":1,"soilmap_view_url":null,"soiltest_xml_url":0,"soiltest_view_url":0},{"id":164517,"code":"B4KJ201801005-2766","latitude":"34.66521","longitude":"136.4529308","source_code":"CB51367396001","project_name":"","survey_name":"\u662d\u548c62\u5e74\u5ea6\u96f2\u51fa\u5ddd\u5e84\u6751\u6392\u6c34\u3072\u7ba1\u5b9f\u65bd\u8a2d\u8a08\u696d\u52d9\u59d4\u8a17","client_name":"\u56fd\u571f\u4ea4\u901a\u7701\u4e2d\u90e8\u5730\u65b9\u6574\u5099\u5c40\u4e09\u91cd\u6cb3\u5ddd\u56fd\u9053\u4e8b\u52d9\u6240","boring_xml_url":40,"boring_view_url":1,"soilmap_view_url":null,"soiltest_xml_url":0,"soiltest_view_url":0},{"id":164516,"code":"B4KJ201801005-2765","latitude":"34.6549619","longitude":"136.4915389","source_code":"CB51367389001","project_name":"","survey_name":"\u5e73\u6210\u5143\u5e74\u5ea6\u4e2d\u52e2\u9053\u8def\u4e45\u5c45\u5730\u533a\u5730\u8cea\u8abf\u67fb","client_name":"\u56fd\u571f\u4ea4\u901a\u7701\u4e2d\u90e8\u5730\u65b9\u6574\u5099\u5c40\u4e09\u91cd\u6cb3\u5ddd\u56fd\u9053\u4e8b\u52d9\u6240","boring_xml_url":40,"boring_view_url":1,"soilmap_view_url":null,"soiltest_xml_url":0,"soiltest_view_url":0}]}}