{"header":{"xyz":{"source":[],"mosaic":false},"page":5205,"raw":{"soiltest_result":"0","bbox":"57.598333,109.544722,1.933333,163.806111","page":"5205"},"conditions":{"soiltest_result":0,"north":57.598333,"west":109.544722,"south":1.933333,"east":163.806111},"success":true,"message":""},"data":{"meta":{"total":212844,"page":5205,"pages":7095,"count":30},"values":[{"id":164425,"code":"B4KJ201801005-2674","latitude":"34.4850144","longitude":"136.7143589","source_code":"CB51365577003","project_name":"","survey_name":"\u662d\u548c56\u5e74\u5ea6\u52e2\u7530\u5ddd\u59eb\u4e4b\u6a4b\u53ca\u3073\u6edd\u6d6a\u6a4b\u6539\u7bc9\u5b9f\u65bd\u8a2d\u8a08\u696d\u52d9\u59d4\u8a17","client_name":"\u56fd\u571f\u4ea4\u901a\u7701\u4e2d\u90e8\u5730\u65b9\u6574\u5099\u5c40\u4e09\u91cd\u6cb3\u5ddd\u56fd\u9053\u4e8b\u52d9\u6240","boring_xml_url":40,"boring_view_url":1,"soilmap_view_url":null,"soiltest_xml_url":0,"soiltest_view_url":0},{"id":164424,"code":"B4KJ201801005-2673","latitude":"34.48332","longitude":"136.7111369","source_code":"CB51365577001","project_name":"","survey_name":"\u662d\u548c56\u5e74\u5ea6\u52e2\u7530\u5ddd\u59eb\u4e4b\u6a4b\u53ca\u3073\u6edd\u6d6a\u6a4b\u6539\u7bc9\u5b9f\u65bd\u8a2d\u8a08\u696d\u52d9\u59d4\u8a17","client_name":"\u56fd\u571f\u4ea4\u901a\u7701\u4e2d\u90e8\u5730\u65b9\u6574\u5099\u5c40\u4e09\u91cd\u6cb3\u5ddd\u56fd\u9053\u4e8b\u52d9\u6240","boring_xml_url":40,"boring_view_url":1,"soilmap_view_url":null,"soiltest_xml_url":0,"soiltest_view_url":0},{"id":164423,"code":"B4KJ201801005-2672","latitude":"34.4950647","longitude":"136.5495394","source_code":"CB51365494002","project_name":"","survey_name":"\u5e73\u62105\u5e74\u5ea6\u677e\u962a\u591a\u6c17\u30d0\u30a4\u30d1\u30b9\u5730\u8cea\u8abf\u67fb","client_name":"\u56fd\u571f\u4ea4\u901a\u7701\u4e2d\u90e8\u5730\u65b9\u6574\u5099\u5c40\u7d00\u52e2\u56fd\u9053\u4e8b\u52d9\u6240","boring_xml_url":40,"boring_view_url":1,"soilmap_view_url":null,"soiltest_xml_url":0,"soiltest_view_url":0},{"id":164422,"code":"B4KJ201801005-2671","latitude":"34.4951758","longitude":"136.5494561","source_code":"CB51365494001","project_name":"","survey_name":"\u5e73\u62105\u5e74\u5ea6\u677e\u962a\u591a\u6c17\u30d0\u30a4\u30d1\u30b9\u5730\u8cea\u8abf\u67fb","client_name":"\u56fd\u571f\u4ea4\u901a\u7701\u4e2d\u90e8\u5730\u65b9\u6574\u5099\u5c40\u7d00\u52e2\u56fd\u9053\u4e8b\u52d9\u6240","boring_xml_url":40,"boring_view_url":1,"soilmap_view_url":null,"soiltest_xml_url":0,"soiltest_view_url":0},{"id":164421,"code":"B4KJ201801005-2670","latitude":"34.3877403","longitude":"136.411555","source_code":"CB51364363004","project_name":"","survey_name":"\u5e73\u62109\u5e74\u5ea6\u7d00\u52e2\u5730\u533a\u5730\u8cea\u8abf\u67fb","client_name":"\u56fd\u571f\u4ea4\u901a\u7701\u4e2d\u90e8\u5730\u65b9\u6574\u5099\u5c40\u7d00\u52e2\u56fd\u9053\u4e8b\u52d9\u6240","boring_xml_url":40,"boring_view_url":1,"soilmap_view_url":null,"soiltest_xml_url":0,"soiltest_view_url":0},{"id":164420,"code":"B4KJ201801005-2669","latitude":"34.3874625","longitude":"136.4112775","source_code":"CB51364363003","project_name":"","survey_name":"\u5e73\u62109\u5e74\u5ea6\u7d00\u52e2\u5730\u533a\u5730\u8cea\u8abf\u67fb","client_name":"\u56fd\u571f\u4ea4\u901a\u7701\u4e2d\u90e8\u5730\u65b9\u6574\u5099\u5c40\u7d00\u52e2\u56fd\u9053\u4e8b\u52d9\u6240","boring_xml_url":40,"boring_view_url":1,"soilmap_view_url":null,"soiltest_xml_url":0,"soiltest_view_url":0},{"id":164419,"code":"B4KJ201801005-2668","latitude":"34.3871847","longitude":"136.4109997","source_code":"CB51364363002","project_name":"","survey_name":"\u5e73\u62109\u5e74\u5ea6\u7d00\u52e2\u5730\u533a\u5730\u8cea\u8abf\u67fb","client_name":"\u56fd\u571f\u4ea4\u901a\u7701\u4e2d\u90e8\u5730\u65b9\u6574\u5099\u5c40\u7d00\u52e2\u56fd\u9053\u4e8b\u52d9\u6240","boring_xml_url":40,"boring_view_url":1,"soilmap_view_url":null,"soiltest_xml_url":0,"soiltest_view_url":0},{"id":164418,"code":"B4KJ201801005-2667","latitude":"34.3866294","longitude":"136.4104442","source_code":"CB51364363001","project_name":"","survey_name":"\u5e73\u62109\u5e74\u5ea6\u7d00\u52e2\u5730\u533a\u5730\u8cea\u8abf\u67fb","client_name":"\u56fd\u571f\u4ea4\u901a\u7701\u4e2d\u90e8\u5730\u65b9\u6574\u5099\u5c40\u7d00\u52e2\u56fd\u9053\u4e8b\u52d9\u6240","boring_xml_url":40,"boring_view_url":1,"soilmap_view_url":null,"soiltest_xml_url":0,"soiltest_view_url":0},{"id":164417,"code":"B4KJ201801005-2666","latitude":"34.3855183","longitude":"136.4098886","source_code":"CB51364353001","project_name":"","survey_name":"\u5e73\u62109\u5e74\u5ea6\u7d00\u52e2\u5730\u533a\u5730\u8cea\u8abf\u67fb","client_name":"\u56fd\u571f\u4ea4\u901a\u7701\u4e2d\u90e8\u5730\u65b9\u6574\u5099\u5c40\u7d00\u52e2\u56fd\u9053\u4e8b\u52d9\u6240","boring_xml_url":40,"boring_view_url":1,"soilmap_view_url":null,"soiltest_xml_url":0,"soiltest_view_url":0},{"id":164416,"code":"B4KJ201801005-2665","latitude":"34.3849628","longitude":"136.4093331","source_code":"CB51364352002","project_name":"","survey_name":"\u5e73\u62109\u5e74\u5ea6\u7d00\u52e2\u5730\u533a\u5730\u8cea\u8abf\u67fb","client_name":"\u56fd\u571f\u4ea4\u901a\u7701\u4e2d\u90e8\u5730\u65b9\u6574\u5099\u5c40\u7d00\u52e2\u56fd\u9053\u4e8b\u52d9\u6240","boring_xml_url":40,"boring_view_url":1,"soilmap_view_url":null,"soiltest_xml_url":0,"soiltest_view_url":0},{"id":164415,"code":"B4KJ201801005-2664","latitude":"34.384685","longitude":"136.4090556","source_code":"CB51364352001","project_name":"","survey_name":"\u5e73\u62109\u5e74\u5ea6\u7d00\u52e2\u5730\u533a\u5730\u8cea\u8abf\u67fb","client_name":"\u56fd\u571f\u4ea4\u901a\u7701\u4e2d\u90e8\u5730\u65b9\u6574\u5099\u5c40\u7d00\u52e2\u56fd\u9053\u4e8b\u52d9\u6240","boring_xml_url":40,"boring_view_url":1,"soilmap_view_url":null,"soiltest_xml_url":0,"soiltest_view_url":0},{"id":164414,"code":"B4KJ201801005-2663","latitude":"34.4153428","longitude":"136.1789356","source_code":"CB51364194012","project_name":"","survey_name":"\u5e73\u621010\u5e74\u5ea6 \u52a0\u6ce2\u5730\u533a\u5730\u8cea\u8abf\u67fb","client_name":"\u56fd\u571f\u4ea4\u901a\u7701\u4e2d\u90e8\u5730\u65b9\u6574\u5099\u5c40\u7d00\u52e2\u56fd\u9053\u4e8b\u52d9\u6240","boring_xml_url":40,"boring_view_url":1,"soilmap_view_url":null,"soiltest_xml_url":0,"soiltest_view_url":0},{"id":164413,"code":"B4KJ201801005-2662","latitude":"34.4154261","longitude":"136.1784633","source_code":"CB51364194011","project_name":"","survey_name":"\u5e73\u621010\u5e74\u5ea6 \u52a0\u6ce2\u5730\u533a\u5730\u8cea\u8abf\u67fb","client_name":"\u56fd\u571f\u4ea4\u901a\u7701\u4e2d\u90e8\u5730\u65b9\u6574\u5099\u5c40\u7d00\u52e2\u56fd\u9053\u4e8b\u52d9\u6240","boring_xml_url":40,"boring_view_url":1,"soilmap_view_url":null,"soiltest_xml_url":0,"soiltest_view_url":0},{"id":164412,"code":"B4KJ201801005-2661","latitude":"34.4155094","longitude":"136.1788522","source_code":"CB51364194010","project_name":"","survey_name":"\u5e73\u621010\u5e74\u5ea6 \u52a0\u6ce2\u5730\u533a\u5730\u8cea\u8abf\u67fb","client_name":"\u56fd\u571f\u4ea4\u901a\u7701\u4e2d\u90e8\u5730\u65b9\u6574\u5099\u5c40\u7d00\u52e2\u56fd\u9053\u4e8b\u52d9\u6240","boring_xml_url":40,"boring_view_url":1,"soilmap_view_url":null,"soiltest_xml_url":0,"soiltest_view_url":0},{"id":164411,"code":"B4KJ201801005-2660","latitude":"34.4182311","longitude":"136.1706028","source_code":"CB51364193033","project_name":"","survey_name":"\u5e73\u621010\u5e74\u5ea6 \u52a0\u6ce2\u5730\u533a\u5730\u8cea\u8abf\u67fb","client_name":"\u56fd\u571f\u4ea4\u901a\u7701\u4e2d\u90e8\u5730\u65b9\u6574\u5099\u5c40\u7d00\u52e2\u56fd\u9053\u4e8b\u52d9\u6240","boring_xml_url":40,"boring_view_url":1,"soilmap_view_url":null,"soiltest_xml_url":0,"soiltest_view_url":0},{"id":164410,"code":"B4KJ201801005-2659","latitude":"34.4180922","longitude":"136.1702972","source_code":"CB51364193032","project_name":"","survey_name":"\u5e73\u621010\u5e74\u5ea6 \u52a0\u6ce2\u5730\u533a\u5730\u8cea\u8abf\u67fb","client_name":"\u56fd\u571f\u4ea4\u901a\u7701\u4e2d\u90e8\u5730\u65b9\u6574\u5099\u5c40\u7d00\u52e2\u56fd\u9053\u4e8b\u52d9\u6240","boring_xml_url":40,"boring_view_url":1,"soilmap_view_url":null,"soiltest_xml_url":0,"soiltest_view_url":0},{"id":164409,"code":"B4KJ201801005-2658","latitude":"34.41837","longitude":"136.1704083","source_code":"CB51364193031","project_name":"","survey_name":"\u5e73\u621010\u5e74\u5ea6 \u52a0\u6ce2\u5730\u533a\u5730\u8cea\u8abf\u67fb","client_name":"\u56fd\u571f\u4ea4\u901a\u7701\u4e2d\u90e8\u5730\u65b9\u6574\u5099\u5c40\u7d00\u52e2\u56fd\u9053\u4e8b\u52d9\u6240","boring_xml_url":40,"boring_view_url":1,"soilmap_view_url":null,"soiltest_xml_url":0,"soiltest_view_url":0},{"id":164408,"code":"B4KJ201801005-2657","latitude":"34.4185922","longitude":"136.1645478","source_code":"CB51364193030","project_name":"","survey_name":"\u5e73\u621010\u5e74\u5ea6 \u52a0\u6ce2\u5730\u533a\u5730\u8cea\u8abf\u67fb","client_name":"\u56fd\u571f\u4ea4\u901a\u7701\u4e2d\u90e8\u5730\u65b9\u6574\u5099\u5c40\u7d00\u52e2\u56fd\u9053\u4e8b\u52d9\u6240","boring_xml_url":40,"boring_view_url":1,"soilmap_view_url":null,"soiltest_xml_url":0,"soiltest_view_url":0},{"id":164407,"code":"B4KJ201801005-2656","latitude":"34.4182867","longitude":"136.1649367","source_code":"CB51364193029","project_name":"","survey_name":"\u5e73\u621010\u5e74\u5ea6 \u52a0\u6ce2\u5730\u533a\u5730\u8cea\u8abf\u67fb","client_name":"\u56fd\u571f\u4ea4\u901a\u7701\u4e2d\u90e8\u5730\u65b9\u6574\u5099\u5c40\u7d00\u52e2\u56fd\u9053\u4e8b\u52d9\u6240","boring_xml_url":40,"boring_view_url":1,"soilmap_view_url":null,"soiltest_xml_url":0,"soiltest_view_url":0},{"id":164406,"code":"B4KJ201801005-2655","latitude":"34.4184256","longitude":"136.1644922","source_code":"CB51364193028","project_name":"","survey_name":"\u5e73\u621010\u5e74\u5ea6 \u52a0\u6ce2\u5730\u533a\u5730\u8cea\u8abf\u67fb","client_name":"\u56fd\u571f\u4ea4\u901a\u7701\u4e2d\u90e8\u5730\u65b9\u6574\u5099\u5c40\u7d00\u52e2\u56fd\u9053\u4e8b\u52d9\u6240","boring_xml_url":40,"boring_view_url":1,"soilmap_view_url":null,"soiltest_xml_url":0,"soiltest_view_url":0},{"id":164405,"code":"B4KJ201801005-2654","latitude":"34.4186756","longitude":"136.1646589","source_code":"CB51364193027","project_name":"","survey_name":"\u5e73\u621010\u5e74\u5ea6 \u52a0\u6ce2\u5730\u533a\u5730\u8cea\u8abf\u67fb","client_name":"\u56fd\u571f\u4ea4\u901a\u7701\u4e2d\u90e8\u5730\u65b9\u6574\u5099\u5c40\u7d00\u52e2\u56fd\u9053\u4e8b\u52d9\u6240","boring_xml_url":40,"boring_view_url":1,"soilmap_view_url":null,"soiltest_xml_url":0,"soiltest_view_url":0},{"id":164404,"code":"B4KJ201801005-2653","latitude":"34.4186478","longitude":"136.1640756","source_code":"CB51364193026","project_name":"","survey_name":"\u5e73\u621010\u5e74\u5ea6 \u52a0\u6ce2\u5730\u533a\u5730\u8cea\u8abf\u67fb","client_name":"\u56fd\u571f\u4ea4\u901a\u7701\u4e2d\u90e8\u5730\u65b9\u6574\u5099\u5c40\u7d00\u52e2\u56fd\u9053\u4e8b\u52d9\u6240","boring_xml_url":40,"boring_view_url":1,"soilmap_view_url":null,"soiltest_xml_url":0,"soiltest_view_url":0},{"id":164403,"code":"B4KJ201801005-2652","latitude":"34.4185922","longitude":"136.1713806","source_code":"CB51364193001","project_name":"","survey_name":"166\u53f7\u52a0\u6ce2,\u4e59\u6817\u5b50\u5730\u533a\u5730\u8cea\u8abf\u67fb","client_name":"\u56fd\u571f\u4ea4\u901a\u7701\u4e2d\u90e8\u5730\u65b9\u6574\u5099\u5c40\u7d00\u52e2\u56fd\u9053\u4e8b\u52d9\u6240","boring_xml_url":40,"boring_view_url":1,"soilmap_view_url":null,"soiltest_xml_url":0,"soiltest_view_url":0},{"id":164402,"code":"B4KJ201801005-2651","latitude":"34.4035114","longitude":"136.1978231","source_code":"CB51364186002","project_name":"","survey_name":"\u662d\u548c61\u5e74\u5ea6\u96a0\u5730\u30fb\u934b\u5009\u5730\u8cea\u8abf\u67fb","client_name":"\u56fd\u571f\u4ea4\u901a\u7701\u4e2d\u90e8\u5730\u65b9\u6574\u5099\u5c40\u7d00\u52e2\u56fd\u9053\u4e8b\u52d9\u6240","boring_xml_url":40,"boring_view_url":1,"soilmap_view_url":null,"soiltest_xml_url":0,"soiltest_view_url":0},{"id":164401,"code":"B4KJ201801005-2650","latitude":"34.4035392","longitude":"136.1974897","source_code":"CB51364186001","project_name":"","survey_name":"\u662d\u548c61\u5e74\u5ea6\u96a0\u5730\u30fb\u934b\u5009\u5730\u8cea\u8abf\u67fb","client_name":"\u56fd\u571f\u4ea4\u901a\u7701\u4e2d\u90e8\u5730\u65b9\u6574\u5099\u5c40\u7d00\u52e2\u56fd\u9053\u4e8b\u52d9\u6240","boring_xml_url":40,"boring_view_url":1,"soilmap_view_url":null,"soiltest_xml_url":0,"soiltest_view_url":0},{"id":164400,"code":"B4KJ201801005-2649","latitude":"34.4098992","longitude":"136.1883514","source_code":"CB51364185013","project_name":"","survey_name":"\u5e73\u621010\u5e74\u5ea6 \u52a0\u6ce2\u5730\u533a\u5730\u8cea\u8abf\u67fb","client_name":"\u56fd\u571f\u4ea4\u901a\u7701\u4e2d\u90e8\u5730\u65b9\u6574\u5099\u5c40\u7d00\u52e2\u56fd\u9053\u4e8b\u52d9\u6240","boring_xml_url":40,"boring_view_url":1,"soilmap_view_url":null,"soiltest_xml_url":0,"soiltest_view_url":0},{"id":164399,"code":"B4KJ201801005-2648","latitude":"34.4100936","longitude":"136.1882958","source_code":"CB51364185012","project_name":"","survey_name":"\u5e73\u621010\u5e74\u5ea6 \u52a0\u6ce2\u5730\u533a\u5730\u8cea\u8abf\u67fb","client_name":"\u56fd\u571f\u4ea4\u901a\u7701\u4e2d\u90e8\u5730\u65b9\u6574\u5099\u5c40\u7d00\u52e2\u56fd\u9053\u4e8b\u52d9\u6240","boring_xml_url":40,"boring_view_url":1,"soilmap_view_url":null,"soiltest_xml_url":0,"soiltest_view_url":0},{"id":164398,"code":"B4KJ201801005-2647","latitude":"34.4100936","longitude":"136.1881014","source_code":"CB51364185011","project_name":"","survey_name":"\u5e73\u621010\u5e74\u5ea6 \u52a0\u6ce2\u5730\u533a\u5730\u8cea\u8abf\u67fb","client_name":"\u56fd\u571f\u4ea4\u901a\u7701\u4e2d\u90e8\u5730\u65b9\u6574\u5099\u5c40\u7d00\u52e2\u56fd\u9053\u4e8b\u52d9\u6240","boring_xml_url":40,"boring_view_url":1,"soilmap_view_url":null,"soiltest_xml_url":0,"soiltest_view_url":0},{"id":164397,"code":"B4KJ201801005-2646","latitude":"34.4098994","longitude":"136.1913789","source_code":"CB51364185009","project_name":"","survey_name":"\u5e73\u621010\u5e74\u5ea6 166\u53f7\u4e59\u6817\u5b50\u6539\u826f\u5de5\u4e8b","client_name":"\u56fd\u571f\u4ea4\u901a\u7701\u4e2d\u90e8\u5730\u65b9\u6574\u5099\u5c40\u7d00\u52e2\u56fd\u9053\u4e8b\u52d9\u6240","boring_xml_url":40,"boring_view_url":1,"soilmap_view_url":null,"soiltest_xml_url":0,"soiltest_view_url":0},{"id":164396,"code":"B4KJ201801005-2645","latitude":"34.4093161","longitude":"136.1916289","source_code":"CB51364185008","project_name":"","survey_name":"\u5e73\u621010\u5e74\u5ea6 166\u53f7\u4e59\u6817\u5b50\u6539\u826f\u5de5\u4e8b","client_name":"\u56fd\u571f\u4ea4\u901a\u7701\u4e2d\u90e8\u5730\u65b9\u6574\u5099\u5c40\u7d00\u52e2\u56fd\u9053\u4e8b\u52d9\u6240","boring_xml_url":40,"boring_view_url":1,"soilmap_view_url":null,"soiltest_xml_url":0,"soiltest_view_url":0}]}}