{"header":{"xyz":{"source":[],"mosaic":false},"page":5207,"raw":{"soiltest_result":"0","bbox":"57.598333,109.544722,1.933333,163.806111","page":"5207"},"conditions":{"soiltest_result":0,"north":57.598333,"west":109.544722,"south":1.933333,"east":163.806111},"success":true,"message":""},"data":{"meta":{"total":212844,"page":5207,"pages":7095,"count":30},"values":[{"id":164365,"code":"B4KJ201801005-2614","latitude":"34.3824581","longitude":"136.19088","source_code":"CB51364155009","project_name":"","survey_name":"\u662d\u548c51\u5e74\u5ea6.\u4ed8\u66ff\u753a\u9053\u5730\u8cea\u8abf\u67fb","client_name":"\u56fd\u571f\u4ea4\u901a\u7701\u4e2d\u90e8\u5730\u65b9\u6574\u5099\u5c40\u84ee\u30c0\u30e0\u7ba1\u7406\u6240","boring_xml_url":40,"boring_view_url":1,"soilmap_view_url":null,"soiltest_xml_url":0,"soiltest_view_url":0},{"id":164364,"code":"B4KJ201801005-2613","latitude":"34.3788475","longitude":"136.1965742","source_code":"CB51364155008","project_name":"","survey_name":"\u4ed8\u66ff\u770c\u9053\u305d\u306e1\u6a4b\u6881\u30dc\u30fc\u30ea\u30f3\u30b0\u8abf\u67fb","client_name":"\u56fd\u571f\u4ea4\u901a\u7701\u4e2d\u90e8\u5730\u65b9\u6574\u5099\u5c40\u84ee\u30c0\u30e0\u7ba1\u7406\u6240","boring_xml_url":40,"boring_view_url":1,"soilmap_view_url":null,"soiltest_xml_url":0,"soiltest_view_url":0},{"id":164363,"code":"B4KJ201801005-2612","latitude":"34.3788475","longitude":"136.1965742","source_code":"CB51364155007","project_name":"","survey_name":"\u4ed8\u66ff\u770c\u9053\u305d\u306e1\u6a4b\u6881\u30dc\u30fc\u30ea\u30f3\u30b0\u8abf\u67fb","client_name":"\u56fd\u571f\u4ea4\u901a\u7701\u4e2d\u90e8\u5730\u65b9\u6574\u5099\u5c40\u84ee\u30c0\u30e0\u7ba1\u7406\u6240","boring_xml_url":40,"boring_view_url":1,"soilmap_view_url":null,"soiltest_xml_url":0,"soiltest_view_url":0},{"id":164362,"code":"B4KJ201801005-2611","latitude":"34.3785697","longitude":"136.1954631","source_code":"CB51364155006","project_name":"","survey_name":"\u4ed8\u66ff\u770c\u9053\u305d\u306e1\u6a4b\u6881\u30dc\u30fc\u30ea\u30f3\u30b0\u8abf\u67fb","client_name":"\u56fd\u571f\u4ea4\u901a\u7701\u4e2d\u90e8\u5730\u65b9\u6574\u5099\u5c40\u84ee\u30c0\u30e0\u7ba1\u7406\u6240","boring_xml_url":40,"boring_view_url":1,"soilmap_view_url":null,"soiltest_xml_url":0,"soiltest_view_url":0},{"id":164361,"code":"B4KJ201801005-2610","latitude":"34.3820967","longitude":"136.1850472","source_code":"CB51364155005","project_name":"","survey_name":"\u4ed8\u66ff\u753a\u9053\u5730\u8cea\u8abf\u67fb\u305d\u306e2","client_name":"\u56fd\u571f\u4ea4\u901a\u7701\u4e2d\u90e8\u5730\u65b9\u6574\u5099\u5c40\u84ee\u30c0\u30e0\u7ba1\u7406\u6240","boring_xml_url":40,"boring_view_url":1,"soilmap_view_url":null,"soiltest_xml_url":0,"soiltest_view_url":0},{"id":164360,"code":"B4KJ201801005-2609","latitude":"34.3822633","longitude":"136.1856583","source_code":"CB51364155004","project_name":"","survey_name":"\u4ed8\u66ff\u753a\u9053\u5730\u8cea\u8abf\u67fb\u305d\u306e2","client_name":"\u56fd\u571f\u4ea4\u901a\u7701\u4e2d\u90e8\u5730\u65b9\u6574\u5099\u5c40\u84ee\u30c0\u30e0\u7ba1\u7406\u6240","boring_xml_url":40,"boring_view_url":1,"soilmap_view_url":null,"soiltest_xml_url":0,"soiltest_view_url":0},{"id":164359,"code":"B4KJ201801005-2608","latitude":"34.3818467","longitude":"136.1857694","source_code":"CB51364155003","project_name":"","survey_name":"\u4ed8\u66ff\u753a\u9053\u5730\u8cea\u8abf\u67fb\u305d\u306e2","client_name":"\u56fd\u571f\u4ea4\u901a\u7701\u4e2d\u90e8\u5730\u65b9\u6574\u5099\u5c40\u84ee\u30c0\u30e0\u7ba1\u7406\u6240","boring_xml_url":40,"boring_view_url":1,"soilmap_view_url":null,"soiltest_xml_url":0,"soiltest_view_url":0},{"id":164358,"code":"B4KJ201801005-2607","latitude":"34.3820689","longitude":"136.1858806","source_code":"CB51364155002","project_name":"","survey_name":"\u4ed8\u66ff\u753a\u9053\u5730\u8cea\u8abf\u67fb\u305d\u306e2","client_name":"\u56fd\u571f\u4ea4\u901a\u7701\u4e2d\u90e8\u5730\u65b9\u6574\u5099\u5c40\u84ee\u30c0\u30e0\u7ba1\u7406\u6240","boring_xml_url":40,"boring_view_url":1,"soilmap_view_url":null,"soiltest_xml_url":0,"soiltest_view_url":0},{"id":164357,"code":"B4KJ201801005-2606","latitude":"34.3822633","longitude":"136.1859639","source_code":"CB51364155001","project_name":"","survey_name":"\u4ed8\u66ff\u753a\u9053\u5730\u8cea\u8abf\u67fb\u305d\u306e2","client_name":"\u56fd\u571f\u4ea4\u901a\u7701\u4e2d\u90e8\u5730\u65b9\u6574\u5099\u5c40\u84ee\u30c0\u30e0\u7ba1\u7406\u6240","boring_xml_url":40,"boring_view_url":1,"soilmap_view_url":null,"soiltest_xml_url":0,"soiltest_view_url":0},{"id":164356,"code":"B4KJ201801005-2605","latitude":"34.3838742","longitude":"136.1747425","source_code":"CB51364154012","project_name":"","survey_name":"\u5730\u3059\u3079\u308a\u5730\u533a\u53ca\u3073\u4ed8\u66ff\u9053\u8def\u5730\u8cea\u8abf\u67fb","client_name":"\u56fd\u571f\u4ea4\u901a\u7701\u4e2d\u90e8\u5730\u65b9\u6574\u5099\u5c40\u84ee\u30c0\u30e0\u7ba1\u7406\u6240","boring_xml_url":40,"boring_view_url":1,"soilmap_view_url":null,"soiltest_xml_url":0,"soiltest_view_url":0},{"id":164355,"code":"B4KJ201801005-2604","latitude":"34.3826244","longitude":"136.1815475","source_code":"CB51364154011","project_name":"","survey_name":"\u5730\u3059\u3079\u308a\u5730\u533a\u53ca\u3073\u4ed8\u66ff\u9053\u8def\u5730\u8cea\u8abf\u67fb","client_name":"\u56fd\u571f\u4ea4\u901a\u7701\u4e2d\u90e8\u5730\u65b9\u6574\u5099\u5c40\u84ee\u30c0\u30e0\u7ba1\u7406\u6240","boring_xml_url":40,"boring_view_url":1,"soilmap_view_url":null,"soiltest_xml_url":0,"soiltest_view_url":0},{"id":164354,"code":"B4KJ201801005-2603","latitude":"34.3819856","longitude":"136.1834361","source_code":"CB51364154010","project_name":"","survey_name":"\u5730\u3059\u3079\u308a\u5730\u533a\u53ca\u3073\u4ed8\u66ff\u9053\u8def\u5730\u8cea\u8abf\u67fb","client_name":"\u56fd\u571f\u4ea4\u901a\u7701\u4e2d\u90e8\u5730\u65b9\u6574\u5099\u5c40\u84ee\u30c0\u30e0\u7ba1\u7406\u6240","boring_xml_url":40,"boring_view_url":1,"soilmap_view_url":null,"soiltest_xml_url":0,"soiltest_view_url":0},{"id":164353,"code":"B4KJ201801005-2602","latitude":"34.3828186","longitude":"136.17852","source_code":"CB51364154009","project_name":"","survey_name":"\u662d\u548c51\u5e74\u5ea6,\u4ed8\u66ff\u753a\u9053\u5730\u8cea\u8abf\u67fb\u305d\u306e2","client_name":"\u56fd\u571f\u4ea4\u901a\u7701\u4e2d\u90e8\u5730\u65b9\u6574\u5099\u5c40\u84ee\u30c0\u30e0\u7ba1\u7406\u6240","boring_xml_url":40,"boring_view_url":1,"soilmap_view_url":null,"soiltest_xml_url":0,"soiltest_view_url":0},{"id":164352,"code":"B4KJ201801005-2601","latitude":"34.3833744","longitude":"136.1818531","source_code":"CB51364154008","project_name":"","survey_name":"\u662d\u548c51\u5e74\u5ea6,\u4ed8\u66ff\u753a\u9053\u5730\u8cea\u8abf\u67fb\u305d\u306e2","client_name":"\u56fd\u571f\u4ea4\u901a\u7701\u4e2d\u90e8\u5730\u65b9\u6574\u5099\u5c40\u84ee\u30c0\u30e0\u7ba1\u7406\u6240","boring_xml_url":40,"boring_view_url":1,"soilmap_view_url":null,"soiltest_xml_url":0,"soiltest_view_url":0},{"id":164351,"code":"B4KJ201801005-2600","latitude":"34.3819578","longitude":"136.1843528","source_code":"CB51364154007","project_name":"","survey_name":"\u662d\u548c51\u5e74\u5ea6,\u4ed8\u66ff\u753a\u9053\u5730\u8cea\u8abf\u67fb\u305d\u306e2","client_name":"\u56fd\u571f\u4ea4\u901a\u7701\u4e2d\u90e8\u5730\u65b9\u6574\u5099\u5c40\u84ee\u30c0\u30e0\u7ba1\u7406\u6240","boring_xml_url":40,"boring_view_url":1,"soilmap_view_url":null,"soiltest_xml_url":0,"soiltest_view_url":0},{"id":164350,"code":"B4KJ201801005-2599","latitude":"34.3832078","longitude":"136.1842139","source_code":"CB51364154006","project_name":"","survey_name":"\u662d\u548c51\u5e74\u5ea6,\u4ed8\u66ff\u753a\u9053\u5730\u8cea\u8abf\u67fb\u305d\u306e2","client_name":"\u56fd\u571f\u4ea4\u901a\u7701\u4e2d\u90e8\u5730\u65b9\u6574\u5099\u5c40\u84ee\u30c0\u30e0\u7ba1\u7406\u6240","boring_xml_url":40,"boring_view_url":1,"soilmap_view_url":null,"soiltest_xml_url":0,"soiltest_view_url":0},{"id":164349,"code":"B4KJ201801005-2598","latitude":"34.3824578","longitude":"136.1783811","source_code":"CB51364154005","project_name":"","survey_name":"\u662d\u548c51\u5e74\u5ea6\u4ed8\u66ff\u753a\u9053\u5730\u8cea\u8abf\u67fb\u305d\u306e2","client_name":"\u56fd\u571f\u4ea4\u901a\u7701\u4e2d\u90e8\u5730\u65b9\u6574\u5099\u5c40\u84ee\u30c0\u30e0\u7ba1\u7406\u6240","boring_xml_url":40,"boring_view_url":1,"soilmap_view_url":null,"soiltest_xml_url":0,"soiltest_view_url":0},{"id":164348,"code":"B4KJ201801005-2597","latitude":"34.3834575","longitude":"136.1759369","source_code":"CB51364154004","project_name":"","survey_name":"\u4ed8\u66ff\u753a\u9053\u5730\u8cea\u8abf\u67fb","client_name":"\u56fd\u571f\u4ea4\u901a\u7701\u4e2d\u90e8\u5730\u65b9\u6574\u5099\u5c40\u84ee\u30c0\u30e0\u7ba1\u7406\u6240","boring_xml_url":40,"boring_view_url":1,"soilmap_view_url":null,"soiltest_xml_url":0,"soiltest_view_url":0},{"id":164347,"code":"B4KJ201801005-2596","latitude":"34.3827908","longitude":"136.1765756","source_code":"CB51364154003","project_name":"","survey_name":"\u4ed8\u66ff\u753a\u9053\u5730\u8cea\u8abf\u67fb","client_name":"\u56fd\u571f\u4ea4\u901a\u7701\u4e2d\u90e8\u5730\u65b9\u6574\u5099\u5c40\u84ee\u30c0\u30e0\u7ba1\u7406\u6240","boring_xml_url":40,"boring_view_url":1,"soilmap_view_url":null,"soiltest_xml_url":0,"soiltest_view_url":0},{"id":164346,"code":"B4KJ201801005-2595","latitude":"34.3827908","longitude":"136.1776867","source_code":"CB51364154002","project_name":"","survey_name":"\u4ed8\u66ff\u753a\u9053\u5730\u8cea\u8abf\u67fb","client_name":"\u56fd\u571f\u4ea4\u901a\u7701\u4e2d\u90e8\u5730\u65b9\u6574\u5099\u5c40\u84ee\u30c0\u30e0\u7ba1\u7406\u6240","boring_xml_url":40,"boring_view_url":1,"soilmap_view_url":null,"soiltest_xml_url":0,"soiltest_view_url":0},{"id":164345,"code":"B4KJ201801005-2594","latitude":"34.3829853","longitude":"136.1776867","source_code":"CB51364154001","project_name":"","survey_name":"\u4ed8\u66ff\u753a\u9053\u5730\u8cea\u8abf\u67fb","client_name":"\u56fd\u571f\u4ea4\u901a\u7701\u4e2d\u90e8\u5730\u65b9\u6574\u5099\u5c40\u84ee\u30c0\u30e0\u7ba1\u7406\u6240","boring_xml_url":40,"boring_view_url":1,"soilmap_view_url":null,"soiltest_xml_url":0,"soiltest_view_url":0},{"id":164344,"code":"B4KJ201801005-2593","latitude":"34.37757","longitude":"136.2121006","source_code":"CB51364147001","project_name":"","survey_name":"\u5730\u3059\u3079\u308a\u5730\u533a\u53ca\u3073\u4ed8\u66ff\u9053\u8def\u5730\u8cea\u8abf\u67fb","client_name":"\u56fd\u571f\u4ea4\u901a\u7701\u4e2d\u90e8\u5730\u65b9\u6574\u5099\u5c40\u84ee\u30c0\u30e0\u7ba1\u7406\u6240","boring_xml_url":40,"boring_view_url":1,"soilmap_view_url":null,"soiltest_xml_url":0,"soiltest_view_url":0},{"id":164343,"code":"B4KJ201801005-2592","latitude":"34.3771808","longitude":"136.1907414","source_code":"CB51364145012","project_name":"","survey_name":"\u4ed8\u66ff\u770c\u9053\u305d\u306e1\u6a4b\u6881\u30dc\u30fc\u30ea\u30f3\u30b0\u8abf\u67fb","client_name":"\u56fd\u571f\u4ea4\u901a\u7701\u4e2d\u90e8\u5730\u65b9\u6574\u5099\u5c40\u84ee\u30c0\u30e0\u7ba1\u7406\u6240","boring_xml_url":40,"boring_view_url":1,"soilmap_view_url":null,"soiltest_xml_url":0,"soiltest_view_url":0},{"id":164342,"code":"B4KJ201801005-2591","latitude":"34.3752367","longitude":"136.1921303","source_code":"CB51364145010","project_name":"","survey_name":"\u662d\u548c57\u5e74\u5ea6\u5bfe\u5cb8\u9053\u8def\u5730\u8cea\u8abf\u67fb","client_name":"\u56fd\u571f\u4ea4\u901a\u7701\u4e2d\u90e8\u5730\u65b9\u6574\u5099\u5c40\u84ee\u30c0\u30e0\u7ba1\u7406\u6240","boring_xml_url":40,"boring_view_url":1,"soilmap_view_url":null,"soiltest_xml_url":0,"soiltest_view_url":0},{"id":164341,"code":"B4KJ201801005-2590","latitude":"34.3744867","longitude":"136.1962131","source_code":"CB51364145009","project_name":"","survey_name":"\u5bfe\u5cb8\u9053\u8def\u5730\u8cea\u8abf\u67fb\u305d\u306e2","client_name":"\u56fd\u571f\u4ea4\u901a\u7701\u4e2d\u90e8\u5730\u65b9\u6574\u5099\u5c40\u84ee\u30c0\u30e0\u7ba1\u7406\u6240","boring_xml_url":40,"boring_view_url":1,"soilmap_view_url":null,"soiltest_xml_url":0,"soiltest_view_url":0},{"id":164340,"code":"B4KJ201801005-2589","latitude":"34.3715425","longitude":"136.1884639","source_code":"CB51364145008","project_name":"","survey_name":"\u5bfe\u5cb8\u9053\u8def\u5730\u8cea\u8abf\u67fb","client_name":"\u56fd\u571f\u4ea4\u901a\u7701\u4e2d\u90e8\u5730\u65b9\u6574\u5099\u5c40\u84ee\u30c0\u30e0\u7ba1\u7406\u6240","boring_xml_url":40,"boring_view_url":1,"soilmap_view_url":null,"soiltest_xml_url":0,"soiltest_view_url":0},{"id":164339,"code":"B4KJ201801005-2588","latitude":"34.3750978","longitude":"136.1963519","source_code":"CB51364145006","project_name":"","survey_name":"\u5bfe\u5cb8\u9053\u8def\u5730\u8cea\u8abf\u67fb","client_name":"\u56fd\u571f\u4ea4\u901a\u7701\u4e2d\u90e8\u5730\u65b9\u6574\u5099\u5c40\u84ee\u30c0\u30e0\u7ba1\u7406\u6240","boring_xml_url":40,"boring_view_url":1,"soilmap_view_url":null,"soiltest_xml_url":0,"soiltest_view_url":0},{"id":164338,"code":"B4KJ201801005-2587","latitude":"34.3726256","longitude":"136.1876028","source_code":"CB51364145005","project_name":"","survey_name":"\u4ed8\u66ff\u770c\u9053\u5730\u8cea\u8abf\u67fb","client_name":"\u56fd\u571f\u4ea4\u901a\u7701\u4e2d\u90e8\u5730\u65b9\u6574\u5099\u5c40\u84ee\u30c0\u30e0\u7ba1\u7406\u6240","boring_xml_url":40,"boring_view_url":1,"soilmap_view_url":null,"soiltest_xml_url":0,"soiltest_view_url":0},{"id":164337,"code":"B4KJ201801005-2586","latitude":"34.3735144","longitude":"136.1891028","source_code":"CB51364145004","project_name":"","survey_name":"\u6e05\u702c\u5730\u533a\u30dc\u30fc\u30ea\u30f3\u30b0\u8abf\u67fb","client_name":"\u56fd\u571f\u4ea4\u901a\u7701\u4e2d\u90e8\u5730\u65b9\u6574\u5099\u5c40\u84ee\u30c0\u30e0\u7ba1\u7406\u6240","boring_xml_url":40,"boring_view_url":1,"soilmap_view_url":null,"soiltest_xml_url":0,"soiltest_view_url":0},{"id":164336,"code":"B4KJ201801005-2585","latitude":"34.3712092","longitude":"136.188325","source_code":"CB51364145003","project_name":"","survey_name":"\u5bfe\u5cb8\u9053\u8def\u5730\u8cea\u8abf\u67fb","client_name":"\u56fd\u571f\u4ea4\u901a\u7701\u4e2d\u90e8\u5730\u65b9\u6574\u5099\u5c40\u84ee\u30c0\u30e0\u7ba1\u7406\u6240","boring_xml_url":40,"boring_view_url":1,"soilmap_view_url":null,"soiltest_xml_url":0,"soiltest_view_url":0}]}}