{"header":{"xyz":{"source":[],"mosaic":false},"page":5209,"raw":{"soiltest_result":"0","bbox":"57.598333,109.544722,1.933333,163.806111","page":"5209"},"conditions":{"soiltest_result":0,"north":57.598333,"west":109.544722,"south":1.933333,"east":163.806111},"success":true,"message":""},"data":{"meta":{"total":212844,"page":5209,"pages":7095,"count":30},"values":[{"id":164305,"code":"B4KJ201801005-2554","latitude":"34.1408197","longitude":"136.2408839","source_code":"CB51361169003","project_name":"","survey_name":"\u662d\u548c61\u5e74\u5ea6\u4e21\u90f7\u6a4b\u5730\u8cea\u8abf\u67fb","client_name":"\u56fd\u571f\u4ea4\u901a\u7701\u4e2d\u90e8\u5730\u65b9\u6574\u5099\u5c40\u7d00\u52e2\u56fd\u9053\u4e8b\u52d9\u6240","boring_xml_url":40,"boring_view_url":1,"soilmap_view_url":null,"soiltest_xml_url":0,"soiltest_view_url":0},{"id":164304,"code":"B4KJ201801005-2553","latitude":"34.1410139","longitude":"136.2371342","source_code":"CB51361169002","project_name":"","survey_name":"\u662d\u548c61\u5e74\u5ea6\u4e21\u90f7\u6a4b\u5730\u8cea\u8abf\u67fb","client_name":"\u56fd\u571f\u4ea4\u901a\u7701\u4e2d\u90e8\u5730\u65b9\u6574\u5099\u5c40\u7d00\u52e2\u56fd\u9053\u4e8b\u52d9\u6240","boring_xml_url":40,"boring_view_url":1,"soilmap_view_url":null,"soiltest_xml_url":0,"soiltest_view_url":0},{"id":164303,"code":"B4KJ201801005-2552","latitude":"34.1410139","longitude":"136.2371342","source_code":"CB51361169001","project_name":"","survey_name":"\u662d\u548c61\u5e74\u5ea6\u4e21\u90f7\u6a4b\u5730\u8cea\u8abf\u67fb","client_name":"\u56fd\u571f\u4ea4\u901a\u7701\u4e2d\u90e8\u5730\u65b9\u6574\u5099\u5c40\u7d00\u52e2\u56fd\u9053\u4e8b\u52d9\u6240","boring_xml_url":40,"boring_view_url":1,"soilmap_view_url":null,"soiltest_xml_url":0,"soiltest_view_url":0},{"id":164302,"code":"B4KJ201801005-2551","latitude":"34.1082672","longitude":"136.22247","source_code":"CB51361128002","project_name":"","survey_name":"42\u53f7\u795e\u30ce\u5185\u5730\u8cea\u8abf\u67fb","client_name":"\u56fd\u571f\u4ea4\u901a\u7701\u4e2d\u90e8\u5730\u65b9\u6574\u5099\u5c40\u7d00\u52e2\u56fd\u9053\u4e8b\u52d9\u6240","boring_xml_url":40,"boring_view_url":1,"soilmap_view_url":null,"soiltest_xml_url":0,"soiltest_view_url":0},{"id":164301,"code":"B4KJ201801005-2550","latitude":"34.1086006","longitude":"136.2223033","source_code":"CB51361128001","project_name":"","survey_name":"42\u53f7\u795e\u30ce\u5185\u5730\u8cea\u8abf\u67fb","client_name":"\u56fd\u571f\u4ea4\u901a\u7701\u4e2d\u90e8\u5730\u65b9\u6574\u5099\u5c40\u7d00\u52e2\u56fd\u9053\u4e8b\u52d9\u6240","boring_xml_url":40,"boring_view_url":1,"soilmap_view_url":null,"soiltest_xml_url":0,"soiltest_view_url":0},{"id":164300,"code":"B4KJ201801005-2549","latitude":"34.0035561","longitude":"136.1932258","source_code":"CB51360105003","project_name":"","survey_name":"\u5e73\u621011\u5e74\u5ea6 \u718a\u91ce\u5c3e\u9df2\u9053\u8def\u4e09\u6728\u91cc\u5730\u533a\u5730\u8cea\u8abf\u67fb","client_name":"\u56fd\u571f\u4ea4\u901a\u7701\u4e2d\u90e8\u5730\u65b9\u6574\u5099\u5c40\u7d00\u52e2\u56fd\u9053\u4e8b\u52d9\u6240","boring_xml_url":40,"boring_view_url":1,"soilmap_view_url":null,"soiltest_xml_url":0,"soiltest_view_url":0},{"id":164299,"code":"B4KJ201801005-2548","latitude":"34.0042228","longitude":"136.1932258","source_code":"CB51360105002","project_name":"","survey_name":"\u5e73\u621011\u5e74\u5ea6 \u718a\u91ce\u5c3e\u9df2\u9053\u8def\u4e09\u6728\u91cc\u5730\u533a\u5730\u8cea\u8abf\u67fb","client_name":"\u56fd\u571f\u4ea4\u901a\u7701\u4e2d\u90e8\u5730\u65b9\u6574\u5099\u5c40\u7d00\u52e2\u56fd\u9053\u4e8b\u52d9\u6240","boring_xml_url":40,"boring_view_url":1,"soilmap_view_url":null,"soiltest_xml_url":0,"soiltest_view_url":0},{"id":164298,"code":"B4KJ201801005-2547","latitude":"34.0035561","longitude":"136.1932258","source_code":"CB51360105001","project_name":"","survey_name":"\u5e73\u621011\u5e74\u5ea6 \u718a\u91ce\u5c3e\u9df2\u9053\u8def\u4e09\u6728\u91cc\u5730\u533a\u5730\u8cea\u8abf\u67fb","client_name":"\u56fd\u571f\u4ea4\u901a\u7701\u4e2d\u90e8\u5730\u65b9\u6574\u5099\u5c40\u7d00\u52e2\u56fd\u9053\u4e8b\u52d9\u6240","boring_xml_url":40,"boring_view_url":1,"soilmap_view_url":null,"soiltest_xml_url":0,"soiltest_view_url":0},{"id":164297,"code":"B4KJ201801005-2546","latitude":"34.0031117","longitude":"136.1884764","source_code":"CB50367195002","project_name":"","survey_name":"\u5e73\u621011\u5e74\u5ea6 \u718a\u91ce\u5c3e\u9df2\u9053\u8def\u4e09\u6728\u91cc\u5730\u533a\u5730\u8cea\u8abf\u67fb","client_name":"\u56fd\u571f\u4ea4\u901a\u7701\u4e2d\u90e8\u5730\u65b9\u6574\u5099\u5c40\u7d00\u52e2\u56fd\u9053\u4e8b\u52d9\u6240","boring_xml_url":40,"boring_view_url":1,"soilmap_view_url":null,"soiltest_xml_url":0,"soiltest_view_url":0},{"id":164296,"code":"B4KJ201801005-2545","latitude":"34.002445","longitude":"136.1866989","source_code":"CB50367195001","project_name":"","survey_name":"\u5e73\u621011\u5e74\u5ea6 \u718a\u91ce\u5c3e\u9df2\u9053\u8def\u4e09\u6728\u91cc\u5730\u533a\u5730\u8cea\u8abf\u67fb","client_name":"\u56fd\u571f\u4ea4\u901a\u7701\u4e2d\u90e8\u5730\u65b9\u6574\u5099\u5c40\u7d00\u52e2\u56fd\u9053\u4e8b\u52d9\u6240","boring_xml_url":40,"boring_view_url":1,"soilmap_view_url":null,"soiltest_xml_url":0,"soiltest_view_url":0},{"id":164295,"code":"B4KJ201801005-2544","latitude":"34.0006394","longitude":"136.1770886","source_code":"CB50367194001","project_name":"","survey_name":"\u5e73\u621011\u5e74\u5ea6 \u718a\u91ce\u5c3e\u9df2\u9053\u8def\u4e09\u6728\u91cc\u5730\u533a\u5730\u8cea\u8abf\u67fb","client_name":"\u56fd\u571f\u4ea4\u901a\u7701\u4e2d\u90e8\u5730\u65b9\u6574\u5099\u5c40\u7d00\u52e2\u56fd\u9053\u4e8b\u52d9\u6240","boring_xml_url":40,"boring_view_url":1,"soilmap_view_url":null,"soiltest_xml_url":0,"soiltest_view_url":0},{"id":164294,"code":"B4KJ201801005-2543","latitude":"33.9005381","longitude":"136.1151806","source_code":"CB50366079005","project_name":"","survey_name":"\u5e73\u621011\u5e74\u5ea6 \u718a\u91ce\u5730\u533a\u5730\u8cea\u6982\u67fb","client_name":"\u56fd\u571f\u4ea4\u901a\u7701\u4e2d\u90e8\u5730\u65b9\u6574\u5099\u5c40\u7d00\u52e2\u56fd\u9053\u4e8b\u52d9\u6240","boring_xml_url":40,"boring_view_url":1,"soilmap_view_url":null,"soiltest_xml_url":0,"soiltest_view_url":0},{"id":164293,"code":"B4KJ201801005-2542","latitude":"33.9004269","longitude":"136.1151806","source_code":"CB50366079004","project_name":"","survey_name":"\u5e73\u621011\u5e74\u5ea6 \u718a\u91ce\u5730\u533a\u5730\u8cea\u6982\u67fb","client_name":"\u56fd\u571f\u4ea4\u901a\u7701\u4e2d\u90e8\u5730\u65b9\u6574\u5099\u5c40\u7d00\u52e2\u56fd\u9053\u4e8b\u52d9\u6240","boring_xml_url":40,"boring_view_url":1,"soilmap_view_url":null,"soiltest_xml_url":0,"soiltest_view_url":0},{"id":164292,"code":"B4KJ201801005-2541","latitude":"33.9002883","longitude":"136.1152083","source_code":"CB50366079003","project_name":"","survey_name":"\u5e73\u6210\u5143\u5e74\u5ea6\u5927\u6cca\u5730\u533a\u5730\u8cea\u8abf\u67fb","client_name":"\u56fd\u571f\u4ea4\u901a\u7701\u4e2d\u90e8\u5730\u65b9\u6574\u5099\u5c40\u7d00\u52e2\u56fd\u9053\u4e8b\u52d9\u6240","boring_xml_url":40,"boring_view_url":1,"soilmap_view_url":null,"soiltest_xml_url":0,"soiltest_view_url":0},{"id":164291,"code":"B4KJ201801005-2540","latitude":"33.8997328","longitude":"136.1154861","source_code":"CB50366079002","project_name":"","survey_name":"\u5e73\u6210\u5143\u5e74\u5ea6\u5927\u6cca\u5730\u533a\u5730\u8cea\u8abf\u67fb","client_name":"\u56fd\u571f\u4ea4\u901a\u7701\u4e2d\u90e8\u5730\u65b9\u6574\u5099\u5c40\u7d00\u52e2\u56fd\u9053\u4e8b\u52d9\u6240","boring_xml_url":40,"boring_view_url":1,"soilmap_view_url":null,"soiltest_xml_url":0,"soiltest_view_url":0},{"id":164290,"code":"B4KJ201801005-2539","latitude":"33.7735228","longitude":"136.03047","source_code":"CB50365022002","project_name":"","survey_name":"\u5e73\u621011\u5e74\u5ea6 \u718a\u91ce\u5730\u533a\u5730\u8cea\u6982\u67fb","client_name":"\u56fd\u571f\u4ea4\u901a\u7701\u4e2d\u90e8\u5730\u65b9\u6574\u5099\u5c40\u7d00\u52e2\u56fd\u9053\u4e8b\u52d9\u6240","boring_xml_url":40,"boring_view_url":1,"soilmap_view_url":null,"soiltest_xml_url":0,"soiltest_view_url":0},{"id":164289,"code":"B4KJ201801005-2538","latitude":"33.7726061","longitude":"136.0304978","source_code":"CB50365022001","project_name":"","survey_name":"\u5e73\u621011\u5e74\u5ea6 \u718a\u91ce\u5730\u533a\u5730\u8cea\u6982\u67fb","client_name":"\u56fd\u571f\u4ea4\u901a\u7701\u4e2d\u90e8\u5730\u65b9\u6574\u5099\u5c40\u7d00\u52e2\u56fd\u9053\u4e8b\u52d9\u6240","boring_xml_url":40,"boring_view_url":1,"soilmap_view_url":null,"soiltest_xml_url":0,"soiltest_view_url":0},{"id":164288,"code":"B4KJ201801005-2537","latitude":"33.7405811","longitude":"135.9981403","source_code":"CB50364080005","project_name":"","survey_name":"\u662d\u548c63\u5e74\u5ea6\u98ef\u76db\u5730\u533a\u5730\u8cea\u8abf\u67fb","client_name":"\u56fd\u571f\u4ea4\u901a\u7701\u4e2d\u90e8\u5730\u65b9\u6574\u5099\u5c40\u7d00\u52e2\u56fd\u9053\u4e8b\u52d9\u6240","boring_xml_url":40,"boring_view_url":1,"soilmap_view_url":null,"soiltest_xml_url":0,"soiltest_view_url":0},{"id":164287,"code":"B4KJ201801005-2536","latitude":"33.7423033","longitude":"136.0057786","source_code":"CB50364080004","project_name":"","survey_name":"\u795e\u30ce\u5185\u5730\u533a\u5730\u8cea\u8abf\u67fb","client_name":"\u56fd\u571f\u4ea4\u901a\u7701\u4e2d\u90e8\u5730\u65b9\u6574\u5099\u5c40\u7d00\u52e2\u56fd\u9053\u4e8b\u52d9\u6240","boring_xml_url":40,"boring_view_url":1,"soilmap_view_url":null,"soiltest_xml_url":0,"soiltest_view_url":0},{"id":164286,"code":"B4KJ201801005-2535","latitude":"33.7421089","longitude":"136.0051953","source_code":"CB50364080003","project_name":"","survey_name":"\u795e\u30ce\u5185\u5730\u533a\u5730\u8cea\u8abf\u67fb","client_name":"\u56fd\u571f\u4ea4\u901a\u7701\u4e2d\u90e8\u5730\u65b9\u6574\u5099\u5c40\u7d00\u52e2\u56fd\u9053\u4e8b\u52d9\u6240","boring_xml_url":40,"boring_view_url":1,"soilmap_view_url":null,"soiltest_xml_url":0,"soiltest_view_url":0},{"id":164285,"code":"B4KJ201801005-2534","latitude":"33.7419422","longitude":"136.0048619","source_code":"CB50364080002","project_name":"","survey_name":"\u795e\u30ce\u5185\u5730\u533a\u5730\u8cea\u8abf\u67fb","client_name":"\u56fd\u571f\u4ea4\u901a\u7701\u4e2d\u90e8\u5730\u65b9\u6574\u5099\u5c40\u7d00\u52e2\u56fd\u9053\u4e8b\u52d9\u6240","boring_xml_url":40,"boring_view_url":1,"soilmap_view_url":null,"soiltest_xml_url":0,"soiltest_view_url":0},{"id":164284,"code":"B4KJ201801005-2533","latitude":"33.7416644","longitude":"136.0045842","source_code":"CB50364080001","project_name":"","survey_name":"\u795e\u30ce\u5185\u5730\u533a\u5730\u8cea\u8abf\u67fb","client_name":"\u56fd\u571f\u4ea4\u901a\u7701\u4e2d\u90e8\u5730\u65b9\u6574\u5099\u5c40\u7d00\u52e2\u56fd\u9053\u4e8b\u52d9\u6240","boring_xml_url":40,"boring_view_url":1,"soilmap_view_url":null,"soiltest_xml_url":0,"soiltest_view_url":0},{"id":164283,"code":"B4KJ201801005-2532","latitude":"33.7403589","longitude":"135.9967517","source_code":"CB50354789002","project_name":"","survey_name":"\u662d\u548c63\u5e74\u5ea6\u98ef\u76db\u5730\u533a\u5730\u8cea\u8abf\u67fb","client_name":"\u56fd\u571f\u4ea4\u901a\u7701\u4e2d\u90e8\u5730\u65b9\u6574\u5099\u5c40\u7d00\u52e2\u56fd\u9053\u4e8b\u52d9\u6240","boring_xml_url":40,"boring_view_url":1,"soilmap_view_url":null,"soiltest_xml_url":0,"soiltest_view_url":0},{"id":164282,"code":"B4KJ201801005-2531","latitude":"33.7401089","longitude":"135.9959183","source_code":"CB50354789001","project_name":"","survey_name":"\u662d\u548c63\u5e74\u5ea6\u98ef\u76db\u5730\u533a\u5730\u8cea\u8abf\u67fb","client_name":"\u56fd\u571f\u4ea4\u901a\u7701\u4e2d\u90e8\u5730\u65b9\u6574\u5099\u5c40\u7d00\u52e2\u56fd\u9053\u4e8b\u52d9\u6240","boring_xml_url":40,"boring_view_url":1,"soilmap_view_url":null,"soiltest_xml_url":0,"soiltest_view_url":0},{"id":164281,"code":"B4KJ201801005-2530","latitude":"34.9105197","longitude":"136.6267681","source_code":"CB1585604021080002","project_name":"\u5e73\u621015\u5e74\u5ea6 \u9234\u9e7f\u5ddd\u4e94\u5473\u585a\u5ec3\u6db2\u7ba1\u79fb\u8a2d\u8a73\u7d30\u8a2d\u8a08\u696d\u52d9","survey_name":"\u5e73\u621015\u5e74\u5ea6 \u9234\u9e7f\u5ddd\u4e94\u5473\u585a\u5ec3\u6db2\u7ba1\u79fb\u8a2d\u8a73\u7d30\u8a2d\u8a08\u696d\u52d9","client_name":"\u56fd\u571f\u4ea4\u901a\u7701\u4e2d\u90e8\u5730\u65b9\u6574\u5099\u5c40\u4e09\u91cd\u6cb3\u5ddd\u56fd\u9053\u4e8b\u52d9\u6240","boring_xml_url":45,"boring_view_url":1,"soilmap_view_url":null,"soiltest_xml_url":0,"soiltest_view_url":0},{"id":164280,"code":"B4KJ201801005-2529","latitude":"34.9109086","longitude":"136.6274625","source_code":"CB1585604021080001","project_name":"\u5e73\u621015\u5e74\u5ea6 \u9234\u9e7f\u5ddd\u4e94\u5473\u585a\u5ec3\u6db2\u7ba1\u79fb\u8a2d\u8a73\u7d30\u8a2d\u8a08\u696d\u52d9","survey_name":"\u5e73\u621015\u5e74\u5ea6 \u9234\u9e7f\u5ddd\u4e94\u5473\u585a\u5ec3\u6db2\u7ba1\u79fb\u8a2d\u8a73\u7d30\u8a2d\u8a08\u696d\u52d9","client_name":"\u56fd\u571f\u4ea4\u901a\u7701\u4e2d\u90e8\u5730\u65b9\u6574\u5099\u5c40\u4e09\u91cd\u6cb3\u5ddd\u56fd\u9053\u4e8b\u52d9\u6240","boring_xml_url":45,"boring_view_url":1,"soilmap_view_url":null,"soiltest_xml_url":46,"soiltest_view_url":46},{"id":164279,"code":"B4KJ201801005-2528","latitude":"35.3453167","longitude":"137.1619003","source_code":"CB120191290002","project_name":"\u5e73\u621015\u5e74\u5ea6475\u53f7\u795e\u660e\u5730\u533a\u5730\u76e4\u8abf\u67fb\u696d\u52d9\u59d4\u8a17","survey_name":"\u5e73\u621015\u5e74\u5ea6475\u53f7\u795e\u660e\u5730\u533a\u5730\u76e4\u8abf\u67fb\u696d\u52d9\u59d4\u8a17","client_name":"\u56fd\u571f\u4ea4\u901a\u7701\u4e2d\u90e8\u5730\u65b9\u6574\u5099\u5c40\u591a\u6cbb\u898b\u7802\u9632\u56fd\u9053\u4e8b\u52d9\u6240","boring_xml_url":41,"boring_view_url":1,"soilmap_view_url":null,"soiltest_xml_url":0,"soiltest_view_url":0},{"id":164278,"code":"B4KJ201801005-2527","latitude":"35.3453167","longitude":"137.1613447","source_code":"CB120191290001","project_name":"\u5e73\u621015\u5e74\u5ea6475\u53f7\u795e\u660e\u5730\u533a\u5730\u76e4\u8abf\u67fb\u696d\u52d9\u59d4\u8a17","survey_name":"\u5e73\u621015\u5e74\u5ea6475\u53f7\u795e\u660e\u5730\u533a\u5730\u76e4\u8abf\u67fb\u696d\u52d9\u59d4\u8a17","client_name":"\u56fd\u571f\u4ea4\u901a\u7701\u4e2d\u90e8\u5730\u65b9\u6574\u5099\u5c40\u591a\u6cbb\u898b\u7802\u9632\u56fd\u9053\u4e8b\u52d9\u6240","boring_xml_url":41,"boring_view_url":1,"soilmap_view_url":null,"soiltest_xml_url":0,"soiltest_view_url":0},{"id":164277,"code":"B4KJ201801005-2526","latitude":"35.162858","longitude":"138.179039","source_code":"CB0785802020060001","project_name":"","survey_name":"\u5e73\u621019\u5e74\u5ea6 \u9577\u5cf6\u30c0\u30e0\u8caf\u6c34\u6c60\u659c\u9762\u5730\u8cea\u8abf\u67fb","client_name":"\u56fd\u571f\u4ea4\u901a\u7701\u4e2d\u90e8\u5730\u65b9\u6574\u5099\u5c40\u9577\u5cf6\u30c0\u30e0\u7ba1\u7406\u6240","boring_xml_url":45,"boring_view_url":1,"soilmap_view_url":null,"soiltest_xml_url":0,"soiltest_view_url":0},{"id":164276,"code":"B4KJ201801005-2525","latitude":"35.8297","longitude":"138.0664","source_code":"CB0785755020190002","project_name":"\u5e73\u621019\u5e74\u5ea6 \u7f8e\u548c\u30c0\u30e0\u685c\u6c34\u904a\u6b69\u9053\u88dc\u4fee","survey_name":"\u5e73\u621019\u5e74\u5ea6 \u7f8e\u548c\u30c0\u30e0\u685c\u6c34\u904a\u6b69\u9053\u88dc\u4fee\u5730\u8cea\u8abf\u67fb","client_name":"\u56fd\u571f\u4ea4\u901a\u7701\u4e2d\u90e8\u5730\u65b9\u6574\u5099\u5c40\u5929\u7adc\u5ddd\u30c0\u30e0\u7d71\u5408\u7ba1\u7406\u4e8b\u52d9\u6240","boring_xml_url":45,"boring_view_url":1,"soilmap_view_url":null,"soiltest_xml_url":0,"soiltest_view_url":0}]}}