{"header":{"xyz":{"source":[],"mosaic":false},"page":5220,"raw":{"soiltest_result":"0","bbox":"57.598333,109.544722,1.933333,163.806111","page":"5220"},"conditions":{"soiltest_result":0,"north":57.598333,"west":109.544722,"south":1.933333,"east":163.806111},"success":true,"message":""},"data":{"meta":{"total":212844,"page":5220,"pages":7095,"count":30},"values":[{"id":163975,"code":"B4KJ201801005-2224","latitude":"35.3633","longitude":"138.8603","source_code":"CB0785415520480006","project_name":"","survey_name":"\u5e73\u621019\u5e74\u5ea6 \u9759\u56fd\u7ba1\u5185\u5730\u8cea\u8abf\u67fb","client_name":"\u56fd\u571f\u4ea4\u901a\u7701\u4e2d\u90e8\u5730\u65b9\u6574\u5099\u5c40\u9759\u5ca1\u56fd\u9053\u4e8b\u52d9\u6240","boring_xml_url":45,"boring_view_url":1,"soilmap_view_url":null,"soiltest_xml_url":0,"soiltest_view_url":0},{"id":163974,"code":"B4KJ201801005-2223","latitude":"35.3614","longitude":"138.8622","source_code":"CB0785415520480005","project_name":"","survey_name":"\u5e73\u621019\u5e74\u5ea6 \u9759\u56fd\u7ba1\u5185\u5730\u8cea\u8abf\u67fb","client_name":"\u56fd\u571f\u4ea4\u901a\u7701\u4e2d\u90e8\u5730\u65b9\u6574\u5099\u5c40\u9759\u5ca1\u56fd\u9053\u4e8b\u52d9\u6240","boring_xml_url":45,"boring_view_url":1,"soilmap_view_url":null,"soiltest_xml_url":0,"soiltest_view_url":0},{"id":163973,"code":"B4KJ201801005-2222","latitude":"35.3617","longitude":"138.8614","source_code":"CB0785415520480004","project_name":"","survey_name":"\u5e73\u621019\u5e74\u5ea6 \u9759\u56fd\u7ba1\u5185\u5730\u8cea\u8abf\u67fb","client_name":"\u56fd\u571f\u4ea4\u901a\u7701\u4e2d\u90e8\u5730\u65b9\u6574\u5099\u5c40\u9759\u5ca1\u56fd\u9053\u4e8b\u52d9\u6240","boring_xml_url":45,"boring_view_url":1,"soilmap_view_url":null,"soiltest_xml_url":0,"soiltest_view_url":0},{"id":163972,"code":"B4KJ201801005-2221","latitude":"35.3631","longitude":"138.8589","source_code":"CB0785415520480003","project_name":"","survey_name":"\u5e73\u621019\u5e74\u5ea6 \u9759\u56fd\u7ba1\u5185\u5730\u8cea\u8abf\u67fb","client_name":"\u56fd\u571f\u4ea4\u901a\u7701\u4e2d\u90e8\u5730\u65b9\u6574\u5099\u5c40\u9759\u5ca1\u56fd\u9053\u4e8b\u52d9\u6240","boring_xml_url":45,"boring_view_url":1,"soilmap_view_url":null,"soiltest_xml_url":0,"soiltest_view_url":0},{"id":163971,"code":"B4KJ201801005-2220","latitude":"35.3625","longitude":"138.8572","source_code":"CB0785415520480002","project_name":"","survey_name":"\u5e73\u621019\u5e74\u5ea6 \u9759\u56fd\u7ba1\u5185\u5730\u8cea\u8abf\u67fb","client_name":"\u56fd\u571f\u4ea4\u901a\u7701\u4e2d\u90e8\u5730\u65b9\u6574\u5099\u5c40\u9759\u5ca1\u56fd\u9053\u4e8b\u52d9\u6240","boring_xml_url":45,"boring_view_url":1,"soilmap_view_url":null,"soiltest_xml_url":0,"soiltest_view_url":0},{"id":163970,"code":"B4KJ201801005-2219","latitude":"35.3625","longitude":"138.8556","source_code":"CB0785415520480001","project_name":"","survey_name":"\u5e73\u621019\u5e74\u5ea6 \u9759\u56fd\u7ba1\u5185\u5730\u8cea\u8abf\u67fb","client_name":"\u56fd\u571f\u4ea4\u901a\u7701\u4e2d\u90e8\u5730\u65b9\u6574\u5099\u5c40\u9759\u5ca1\u56fd\u9053\u4e8b\u52d9\u6240","boring_xml_url":45,"boring_view_url":1,"soilmap_view_url":null,"soiltest_xml_url":0,"soiltest_view_url":0},{"id":163969,"code":"B4KJ201801005-2218","latitude":"36.17124297","longitude":"137.2636386","source_code":"CB0785346020350011","project_name":"","survey_name":"\u5e73\u621019\u5e74\u5ea6 \u9ad8\u5c71\u6e05\u898b\u9053\u8def\u5730\u8cea\u89e3\u6790\u8abf\u67fb","client_name":"\u56fd\u571f\u4ea4\u901a\u7701\u4e2d\u90e8\u5730\u65b9\u6574\u5099\u5c40\u9ad8\u5c71\u56fd\u9053\u4e8b\u52d9\u6240","boring_xml_url":45,"boring_view_url":1,"soilmap_view_url":null,"soiltest_xml_url":46,"soiltest_view_url":46},{"id":163968,"code":"B4KJ201801005-2217","latitude":"36.17377592","longitude":"137.2608356","source_code":"CB0785346020350010","project_name":"","survey_name":"\u5e73\u621019\u5e74\u5ea6 \u9ad8\u5c71\u6e05\u898b\u9053\u8def\u5730\u8cea\u89e3\u6790\u8abf\u67fb","client_name":"\u56fd\u571f\u4ea4\u901a\u7701\u4e2d\u90e8\u5730\u65b9\u6574\u5099\u5c40\u9ad8\u5c71\u56fd\u9053\u4e8b\u52d9\u6240","boring_xml_url":45,"boring_view_url":1,"soilmap_view_url":null,"soiltest_xml_url":46,"soiltest_view_url":46},{"id":163967,"code":"B4KJ201801005-2216","latitude":"36.17466453","longitude":"137.2802103","source_code":"CB0785346020350009","project_name":"","survey_name":"\u5e73\u621019\u5e74\u5ea6 \u9ad8\u5c71\u6e05\u898b\u9053\u8def\u5730\u8cea\u89e3\u6790\u8abf\u67fb","client_name":"\u56fd\u571f\u4ea4\u901a\u7701\u4e2d\u90e8\u5730\u65b9\u6574\u5099\u5c40\u9ad8\u5c71\u56fd\u9053\u4e8b\u52d9\u6240","boring_xml_url":45,"boring_view_url":1,"soilmap_view_url":null,"soiltest_xml_url":0,"soiltest_view_url":0},{"id":163966,"code":"B4KJ201801005-2215","latitude":"36.19494942","longitude":"137.2383206","source_code":"CB0785346020350008","project_name":"","survey_name":"\u5e73\u621019\u5e74\u5ea6 \u9ad8\u5c71\u6e05\u898b\u9053\u8def\u5730\u8cea\u89e3\u6790\u8abf\u67fb","client_name":"\u56fd\u571f\u4ea4\u901a\u7701\u4e2d\u90e8\u5730\u65b9\u6574\u5099\u5c40\u9ad8\u5c71\u56fd\u9053\u4e8b\u52d9\u6240","boring_xml_url":45,"boring_view_url":1,"soilmap_view_url":null,"soiltest_xml_url":0,"soiltest_view_url":0},{"id":163965,"code":"B4KJ201801005-2214","latitude":"36.19481394","longitude":"137.2385969","source_code":"CB0785346020350007","project_name":"","survey_name":"\u5e73\u621019\u5e74\u5ea6 \u9ad8\u5c71\u6e05\u898b\u9053\u8def\u5730\u8cea\u89e3\u6790\u8abf\u67fb","client_name":"\u56fd\u571f\u4ea4\u901a\u7701\u4e2d\u90e8\u5730\u65b9\u6574\u5099\u5c40\u9ad8\u5c71\u56fd\u9053\u4e8b\u52d9\u6240","boring_xml_url":45,"boring_view_url":1,"soilmap_view_url":null,"soiltest_xml_url":0,"soiltest_view_url":0},{"id":163964,"code":"B4KJ201801005-2213","latitude":"36.1691115","longitude":"137.2395244","source_code":"CB0785346020350006","project_name":"","survey_name":"\u5e73\u621019\u5e74\u5ea6 \u9ad8\u5c71\u6e05\u898b\u9053\u8def\u5730\u8cea\u89e3\u6790\u8abf\u67fb","client_name":"\u56fd\u571f\u4ea4\u901a\u7701\u4e2d\u90e8\u5730\u65b9\u6574\u5099\u5c40\u9ad8\u5c71\u56fd\u9053\u4e8b\u52d9\u6240","boring_xml_url":45,"boring_view_url":1,"soilmap_view_url":null,"soiltest_xml_url":0,"soiltest_view_url":0},{"id":163963,"code":"B4KJ201801005-2212","latitude":"36.1394578","longitude":"137.1750078","source_code":"CB0785346020350005","project_name":"","survey_name":"\u5e73\u621019\u5e74\u5ea6 \u9ad8\u5c71\u6e05\u898b\u9053\u8def\u5730\u8cea\u89e3\u6790\u8abf\u67fb","client_name":"\u56fd\u571f\u4ea4\u901a\u7701\u4e2d\u90e8\u5730\u65b9\u6574\u5099\u5c40\u9ad8\u5c71\u56fd\u9053\u4e8b\u52d9\u6240","boring_xml_url":45,"boring_view_url":1,"soilmap_view_url":null,"soiltest_xml_url":0,"soiltest_view_url":0},{"id":163962,"code":"B4KJ201801005-2211","latitude":"36.13969128","longitude":"137.1748325","source_code":"CB0785346020350004","project_name":"","survey_name":"\u5e73\u621019\u5e74\u5ea6 \u9ad8\u5c71\u6e05\u898b\u9053\u8def\u5730\u8cea\u89e3\u6790\u8abf\u67fb","client_name":"\u56fd\u571f\u4ea4\u901a\u7701\u4e2d\u90e8\u5730\u65b9\u6574\u5099\u5c40\u9ad8\u5c71\u56fd\u9053\u4e8b\u52d9\u6240","boring_xml_url":45,"boring_view_url":1,"soilmap_view_url":null,"soiltest_xml_url":0,"soiltest_view_url":0},{"id":163961,"code":"B4KJ201801005-2210","latitude":"36.13975606","longitude":"137.1712639","source_code":"CB0785346020350003","project_name":"","survey_name":"\u5e73\u621019\u5e74\u5ea6 \u9ad8\u5c71\u6e05\u898b\u9053\u8def\u5730\u8cea\u89e3\u6790\u8abf\u67fb","client_name":"\u56fd\u571f\u4ea4\u901a\u7701\u4e2d\u90e8\u5730\u65b9\u6574\u5099\u5c40\u9ad8\u5c71\u56fd\u9053\u4e8b\u52d9\u6240","boring_xml_url":45,"boring_view_url":1,"soilmap_view_url":null,"soiltest_xml_url":0,"soiltest_view_url":0},{"id":163960,"code":"B4KJ201801005-2209","latitude":"36.13965203","longitude":"137.172975","source_code":"CB0785346020350002","project_name":"","survey_name":"\u5e73\u621019\u5e74\u5ea6 \u9ad8\u5c71\u6e05\u898b\u9053\u8def\u5730\u8cea\u89e3\u6790\u8abf\u67fb","client_name":"\u56fd\u571f\u4ea4\u901a\u7701\u4e2d\u90e8\u5730\u65b9\u6574\u5099\u5c40\u9ad8\u5c71\u56fd\u9053\u4e8b\u52d9\u6240","boring_xml_url":45,"boring_view_url":1,"soilmap_view_url":null,"soiltest_xml_url":0,"soiltest_view_url":0},{"id":163959,"code":"B4KJ201801005-2208","latitude":"36.13908922","longitude":"137.1718364","source_code":"CB0785346020350001","project_name":"","survey_name":"\u5e73\u621019\u5e74\u5ea6 \u9ad8\u5c71\u6e05\u898b\u9053\u8def\u5730\u8cea\u89e3\u6790\u8abf\u67fb","client_name":"\u56fd\u571f\u4ea4\u901a\u7701\u4e2d\u90e8\u5730\u65b9\u6574\u5099\u5c40\u9ad8\u5c71\u56fd\u9053\u4e8b\u52d9\u6240","boring_xml_url":45,"boring_view_url":1,"soilmap_view_url":null,"soiltest_xml_url":0,"soiltest_view_url":0},{"id":163958,"code":"B4KJ201801005-2207","latitude":"35.432881","longitude":"136.972297","source_code":"CB0785336020950010","project_name":"\u56fd\u905321\u53f7\u5742\u795d\u30d0\u30a4\u30d1\u30b9","survey_name":"\u5e73\u621019\u5e74\u5ea621\u53f7\u5742\u795d\u30d0\u30a4\u30d1\u30b9\u5927\u91dd\uff5e\u52dd\u5c71\u5730\u533a\u5730\u8cea\u8abf\u67fb","client_name":"\u56fd\u571f\u4ea4\u901a\u7701\u4e2d\u90e8\u5730\u65b9\u6574\u5099\u5c40\u5c90\u961c\u56fd\u9053\u4e8b\u52d9\u6240","boring_xml_url":45,"boring_view_url":1,"soilmap_view_url":null,"soiltest_xml_url":0,"soiltest_view_url":0},{"id":163957,"code":"B4KJ201801005-2206","latitude":"35.433589","longitude":"136.972222","source_code":"CB0785336020950009","project_name":"\u56fd\u905321\u53f7\u5742\u795d\u30d0\u30a4\u30d1\u30b9","survey_name":"\u5e73\u621019\u5e74\u5ea621\u53f7\u5742\u795d\u30d0\u30a4\u30d1\u30b9\u5927\u91dd\uff5e\u52dd\u5c71\u5730\u533a\u5730\u8cea\u8abf\u67fb","client_name":"\u56fd\u571f\u4ea4\u901a\u7701\u4e2d\u90e8\u5730\u65b9\u6574\u5099\u5c40\u5c90\u961c\u56fd\u9053\u4e8b\u52d9\u6240","boring_xml_url":45,"boring_view_url":1,"soilmap_view_url":null,"soiltest_xml_url":0,"soiltest_view_url":0},{"id":163956,"code":"B4KJ201801005-2205","latitude":"35.434233","longitude":"136.972803","source_code":"CB0785336020950008","project_name":"\u56fd\u905321\u53f7\u5742\u795d\u30d0\u30a4\u30d1\u30b9","survey_name":"\u5e73\u621019\u5e74\u5ea621\u53f7\u5742\u795d\u30d0\u30a4\u30d1\u30b9\u5927\u91dd\uff5e\u52dd\u5c71\u5730\u533a\u5730\u8cea\u8abf\u67fb","client_name":"\u56fd\u571f\u4ea4\u901a\u7701\u4e2d\u90e8\u5730\u65b9\u6574\u5099\u5c40\u5c90\u961c\u56fd\u9053\u4e8b\u52d9\u6240","boring_xml_url":45,"boring_view_url":1,"soilmap_view_url":null,"soiltest_xml_url":0,"soiltest_view_url":0},{"id":163955,"code":"B4KJ201801005-2204","latitude":"35.434411","longitude":"136.973433","source_code":"CB0785336020950007","project_name":"\u56fd\u905321\u53f7\u5742\u795d\u30d0\u30a4\u30d1\u30b9","survey_name":"\u5e73\u621019\u5e74\u5ea621\u53f7\u5742\u795d\u30d0\u30a4\u30d1\u30b9\u5927\u91dd\uff5e\u52dd\u5c71\u5730\u533a\u5730\u8cea\u8abf\u67fb","client_name":"\u56fd\u571f\u4ea4\u901a\u7701\u4e2d\u90e8\u5730\u65b9\u6574\u5099\u5c40\u5c90\u961c\u56fd\u9053\u4e8b\u52d9\u6240","boring_xml_url":45,"boring_view_url":1,"soilmap_view_url":null,"soiltest_xml_url":0,"soiltest_view_url":0},{"id":163954,"code":"B4KJ201801005-2203","latitude":"35.434619","longitude":"136.973525","source_code":"CB0785336020950006","project_name":"\u56fd\u905321\u53f7\u5742\u795d\u30d0\u30a4\u30d1\u30b9","survey_name":"\u5e73\u621019\u5e74\u5ea621\u53f7\u5742\u795d\u30d0\u30a4\u30d1\u30b9\u5927\u91dd\uff5e\u52dd\u5c71\u5730\u533a\u5730\u8cea\u8abf\u67fb","client_name":"\u56fd\u571f\u4ea4\u901a\u7701\u4e2d\u90e8\u5730\u65b9\u6574\u5099\u5c40\u5c90\u961c\u56fd\u9053\u4e8b\u52d9\u6240","boring_xml_url":45,"boring_view_url":1,"soilmap_view_url":null,"soiltest_xml_url":0,"soiltest_view_url":0},{"id":163953,"code":"B4KJ201801005-2202","latitude":"35.436078","longitude":"136.975067","source_code":"CB0785336020950005","project_name":"\u56fd\u905321\u53f7\u5742\u795d\u30d0\u30a4\u30d1\u30b9","survey_name":"\u5e73\u621019\u5e74\u5ea621\u53f7\u5742\u795d\u30d0\u30a4\u30d1\u30b9\u5927\u91dd\uff5e\u52dd\u5c71\u5730\u533a\u5730\u8cea\u8abf\u67fb","client_name":"\u56fd\u571f\u4ea4\u901a\u7701\u4e2d\u90e8\u5730\u65b9\u6574\u5099\u5c40\u5c90\u961c\u56fd\u9053\u4e8b\u52d9\u6240","boring_xml_url":45,"boring_view_url":1,"soilmap_view_url":null,"soiltest_xml_url":0,"soiltest_view_url":0},{"id":163952,"code":"B4KJ201801005-2201","latitude":"35.436558","longitude":"136.975872","source_code":"CB0785336020950004","project_name":"\u56fd\u905321\u53f7\u5742\u795d\u30d0\u30a4\u30d1\u30b9","survey_name":"\u5e73\u621019\u5e74\u5ea621\u53f7\u5742\u795d\u30d0\u30a4\u30d1\u30b9\u5927\u91dd\uff5e\u52dd\u5c71\u5730\u533a\u5730\u8cea\u8abf\u67fb","client_name":"\u56fd\u571f\u4ea4\u901a\u7701\u4e2d\u90e8\u5730\u65b9\u6574\u5099\u5c40\u5c90\u961c\u56fd\u9053\u4e8b\u52d9\u6240","boring_xml_url":45,"boring_view_url":1,"soilmap_view_url":null,"soiltest_xml_url":0,"soiltest_view_url":0},{"id":163951,"code":"B4KJ201801005-2200","latitude":"35.438081","longitude":"136.978469","source_code":"CB0785336020950003","project_name":"\u56fd\u905321\u53f7\u5742\u795d\u30d0\u30a4\u30d1\u30b9","survey_name":"\u5e73\u621019\u5e74\u5ea621\u53f7\u5742\u795d\u30d0\u30a4\u30d1\u30b9\u5927\u91dd\uff5e\u52dd\u5c71\u5730\u533a\u5730\u8cea\u8abf\u67fb","client_name":"\u56fd\u571f\u4ea4\u901a\u7701\u4e2d\u90e8\u5730\u65b9\u6574\u5099\u5c40\u5c90\u961c\u56fd\u9053\u4e8b\u52d9\u6240","boring_xml_url":45,"boring_view_url":1,"soilmap_view_url":null,"soiltest_xml_url":0,"soiltest_view_url":0},{"id":163950,"code":"B4KJ201801005-2199","latitude":"35.437725","longitude":"136.978469","source_code":"CB0785336020950002","project_name":"\u56fd\u905321\u53f7\u5742\u795d\u30d0\u30a4\u30d1\u30b9","survey_name":"\u5e73\u621019\u5e74\u5ea621\u53f7\u5742\u795d\u30d0\u30a4\u30d1\u30b9\u5927\u91dd\uff5e\u52dd\u5c71\u5730\u533a\u5730\u8cea\u8abf\u67fb","client_name":"\u56fd\u571f\u4ea4\u901a\u7701\u4e2d\u90e8\u5730\u65b9\u6574\u5099\u5c40\u5c90\u961c\u56fd\u9053\u4e8b\u52d9\u6240","boring_xml_url":45,"boring_view_url":1,"soilmap_view_url":null,"soiltest_xml_url":0,"soiltest_view_url":0},{"id":163949,"code":"B4KJ201801005-2198","latitude":"35.446306","longitude":"136.984758","source_code":"CB0785336020950001","project_name":"\u56fd\u905321\u53f7\u5742\u795d\u30d0\u30a4\u30d1\u30b9","survey_name":"\u5e73\u621019\u5e74\u5ea621\u53f7\u5742\u795d\u30d0\u30a4\u30d1\u30b9\u5927\u91dd\uff5e\u52dd\u5c71\u5730\u533a\u5730\u8cea\u8abf\u67fb","client_name":"\u56fd\u571f\u4ea4\u901a\u7701\u4e2d\u90e8\u5730\u65b9\u6574\u5099\u5c40\u5c90\u961c\u56fd\u9053\u4e8b\u52d9\u6240","boring_xml_url":45,"boring_view_url":1,"soilmap_view_url":null,"soiltest_xml_url":0,"soiltest_view_url":0},{"id":163948,"code":"B4KJ201801005-2197","latitude":"35.44289544","longitude":"136.8387375","source_code":"CB0785336020690016","project_name":"\u5e73\u621019\u5e74\u5ea6","survey_name":"156\u53f7\u5c90\u961c\u6771BP3\u5de5\u533a\u5730\u8cea\u8abf\u67fb","client_name":"\u56fd\u571f\u4ea4\u901a\u7701\u4e2d\u90e8\u5730\u65b9\u6574\u5099\u5c40\u5c90\u961c\u56fd\u9053\u4e8b\u52d9\u6240","boring_xml_url":45,"boring_view_url":1,"soilmap_view_url":null,"soiltest_xml_url":0,"soiltest_view_url":0},{"id":163947,"code":"B4KJ201801005-2196","latitude":"35.44130436","longitude":"136.8375022","source_code":"CB0785336020690015","project_name":"\u5e73\u621019\u5e74\u5ea6","survey_name":"156\u53f7\u5c90\u961c\u6771BP3\u5de5\u533a\u5730\u8cea\u8abf\u67fb","client_name":"\u56fd\u571f\u4ea4\u901a\u7701\u4e2d\u90e8\u5730\u65b9\u6574\u5099\u5c40\u5c90\u961c\u56fd\u9053\u4e8b\u52d9\u6240","boring_xml_url":45,"boring_view_url":1,"soilmap_view_url":null,"soiltest_xml_url":46,"soiltest_view_url":46},{"id":163946,"code":"B4KJ201801005-2195","latitude":"35.43936089","longitude":"136.8356775","source_code":"CB0785336020690014","project_name":"\u5e73\u621019\u5e74\u5ea6","survey_name":"156\u53f7\u5c90\u961c\u6771BP3\u5de5\u533a\u5730\u8cea\u8abf\u67fb","client_name":"\u56fd\u571f\u4ea4\u901a\u7701\u4e2d\u90e8\u5730\u65b9\u6574\u5099\u5c40\u5c90\u961c\u56fd\u9053\u4e8b\u52d9\u6240","boring_xml_url":45,"boring_view_url":1,"soilmap_view_url":null,"soiltest_xml_url":0,"soiltest_view_url":0}]}}