{"header":{"xyz":{"source":[],"mosaic":false},"page":5222,"raw":{"soiltest_result":"0","bbox":"57.598333,109.544722,1.933333,163.806111","page":"5222"},"conditions":{"soiltest_result":0,"north":57.598333,"west":109.544722,"south":1.933333,"east":163.806111},"success":true,"message":""},"data":{"meta":{"total":212844,"page":5222,"pages":7095,"count":30},"values":[{"id":163915,"code":"B4KJ201801005-2164","latitude":"33.92828","longitude":"136.13806","source_code":"CB0685646021390024","project_name":"\u718a\u91ce\u9df2\u5c3e\u9053\u8def","survey_name":"\u5e73\u621018\u5e74\u5ea6 \u718a\u91ce\u9df2\u5c3e\u9053\u8def\u718a\u91ce\u5730\u533a\u5730\u8cea\u8abf\u67fb","client_name":"\u56fd\u571f\u4ea4\u901a\u7701\u4e2d\u90e8\u5730\u65b9\u6574\u5099\u5c40\u7d00\u52e2\u56fd\u9053\u4e8b\u52d9\u6240","boring_xml_url":45,"boring_view_url":1,"soilmap_view_url":null,"soiltest_xml_url":0,"soiltest_view_url":0},{"id":163914,"code":"B4KJ201801005-2163","latitude":"33.92794","longitude":"136.13803","source_code":"CB0685646021390023","project_name":"\u718a\u91ce\u9df2\u5c3e\u9053\u8def","survey_name":"\u5e73\u621018\u5e74\u5ea6 \u718a\u91ce\u9df2\u5c3e\u9053\u8def\u718a\u91ce\u5730\u533a\u5730\u8cea\u8abf\u67fb","client_name":"\u56fd\u571f\u4ea4\u901a\u7701\u4e2d\u90e8\u5730\u65b9\u6574\u5099\u5c40\u7d00\u52e2\u56fd\u9053\u4e8b\u52d9\u6240","boring_xml_url":45,"boring_view_url":1,"soilmap_view_url":null,"soiltest_xml_url":0,"soiltest_view_url":0},{"id":163913,"code":"B4KJ201801005-2162","latitude":"33.90058","longitude":"136.11467","source_code":"CB0685646021390022","project_name":"\u718a\u91ce\u5c3e\u9df2\u9053\u8def","survey_name":"\u5e73\u621018\u5e74\u5ea6\u718a\u91ce\u5c3e\u9df2\u9053\u8def\u718a\u91ce\u5730\u533a\u5730\u8cea\u8abf\u67fb","client_name":"\u56fd\u571f\u4ea4\u901a\u7701\u4e2d\u90e8\u5730\u65b9\u6574\u5099\u5c40\u7d00\u52e2\u56fd\u9053\u4e8b\u52d9\u6240","boring_xml_url":45,"boring_view_url":1,"soilmap_view_url":null,"soiltest_xml_url":46,"soiltest_view_url":46},{"id":163912,"code":"B4KJ201801005-2161","latitude":"33.90086","longitude":"136.11519","source_code":"CB0685646021390021","project_name":"\u718a\u91ce\u9df2\u5c3e\u9053\u8def","survey_name":"\u5e73\u621018\u5e74\u5ea6 \u718a\u91ce\u9df2\u5c3e\u9053\u8def\u718a\u91ce\u5730\u533a\u5730\u8cea\u8abf\u67fb","client_name":"\u56fd\u571f\u4ea4\u901a\u7701\u4e2d\u90e8\u5730\u65b9\u6574\u5099\u5c40\u7d00\u52e2\u56fd\u9053\u4e8b\u52d9\u6240","boring_xml_url":45,"boring_view_url":1,"soilmap_view_url":null,"soiltest_xml_url":46,"soiltest_view_url":46},{"id":163911,"code":"B4KJ201801005-2160","latitude":"33.90128","longitude":"136.11581","source_code":"CB0685646021390020","project_name":"\u718a\u91ce\u5c3e\u9df2\u9053\u8def","survey_name":"\u5e73\u621018\u5e74\u5ea6\u718a\u91ce\u5c3e\u9df2\u9053\u8def\u718a\u91ce\u5730\u533a\u5730\u8cea\u8abf\u67fb","client_name":"\u56fd\u571f\u4ea4\u901a\u7701\u4e2d\u90e8\u5730\u65b9\u6574\u5099\u5c40\u7d00\u52e2\u56fd\u9053\u4e8b\u52d9\u6240","boring_xml_url":45,"boring_view_url":1,"soilmap_view_url":null,"soiltest_xml_url":46,"soiltest_view_url":46},{"id":163910,"code":"B4KJ201801005-2159","latitude":"33.90183","longitude":"136.11661","source_code":"CB0685646021390019","project_name":"\u718a\u91ce\u9df2\u5c3e\u9053\u8def","survey_name":"\u5e73\u621018\u5e74\u5ea6 \u718a\u91ce\u9df2\u5c3e\u9053\u8def\u718a\u91ce\u5730\u533a\u5730\u8cea\u8abf\u67fb","client_name":"\u56fd\u571f\u4ea4\u901a\u7701\u4e2d\u90e8\u5730\u65b9\u6574\u5099\u5c40\u7d00\u52e2\u56fd\u9053\u4e8b\u52d9\u6240","boring_xml_url":45,"boring_view_url":1,"soilmap_view_url":null,"soiltest_xml_url":46,"soiltest_view_url":46},{"id":163909,"code":"B4KJ201801005-2158","latitude":"33.90294","longitude":"136.11747","source_code":"CB0685646021390018","project_name":"\u718a\u91ce\u9df2\u5c3e\u9053\u8def","survey_name":"\u5e73\u621018\u5e74\u5ea6 \u718a\u91ce\u9df2\u5c3e\u9053\u8def\u718a\u91ce\u5730\u533a\u5730\u8cea\u8abf\u67fb","client_name":"\u56fd\u571f\u4ea4\u901a\u7701\u4e2d\u90e8\u5730\u65b9\u6574\u5099\u5c40\u7d00\u52e2\u56fd\u9053\u4e8b\u52d9\u6240","boring_xml_url":45,"boring_view_url":1,"soilmap_view_url":null,"soiltest_xml_url":46,"soiltest_view_url":46},{"id":163908,"code":"B4KJ201801005-2157","latitude":"33.90253","longitude":"136.118","source_code":"CB0685646021390017","project_name":"\u718a\u91ce\u5c3e\u9df2\u9053\u8def","survey_name":"\u5e73\u621018\u5e74\u5ea6\u718a\u91ce\u5c3e\u9df2\u9053\u8def\u718a\u91ce\u5730\u533a\u5730\u8cea\u8abf\u67fb","client_name":"\u56fd\u571f\u4ea4\u901a\u7701\u4e2d\u90e8\u5730\u65b9\u6574\u5099\u5c40\u7d00\u52e2\u56fd\u9053\u4e8b\u52d9\u6240","boring_xml_url":45,"boring_view_url":1,"soilmap_view_url":null,"soiltest_xml_url":46,"soiltest_view_url":46},{"id":163907,"code":"B4KJ201801005-2156","latitude":"33.90244","longitude":"136.11756","source_code":"CB0685646021390016","project_name":"\u718a\u91ce\u5c3e\u9df2\u9053\u8def","survey_name":"\u5e73\u621018\u5e74\u5ea6\u718a\u91ce\u5c3e\u9df2\u9053\u8def\u718a\u91ce\u5730\u533a\u5730\u8cea\u8abf\u67fb","client_name":"\u56fd\u571f\u4ea4\u901a\u7701\u4e2d\u90e8\u5730\u65b9\u6574\u5099\u5c40\u7d00\u52e2\u56fd\u9053\u4e8b\u52d9\u6240","boring_xml_url":45,"boring_view_url":1,"soilmap_view_url":null,"soiltest_xml_url":46,"soiltest_view_url":46},{"id":163906,"code":"B4KJ201801005-2155","latitude":"33.90225","longitude":"136.11733","source_code":"CB0685646021390015","project_name":"\u718a\u91ce\u5c3e\u9df2\u9053\u8def","survey_name":"\u5e73\u621018\u5e74\u5ea6\u718a\u91ce\u5c3e\u9df2\u9053\u8def\u718a\u91ce\u5730\u533a\u5730\u8cea\u8abf\u67fb","client_name":"\u56fd\u571f\u4ea4\u901a\u7701\u4e2d\u90e8\u5730\u65b9\u6574\u5099\u5c40\u7d00\u52e2\u56fd\u9053\u4e8b\u52d9\u6240","boring_xml_url":45,"boring_view_url":1,"soilmap_view_url":null,"soiltest_xml_url":46,"soiltest_view_url":46},{"id":163905,"code":"B4KJ201801005-2154","latitude":"33.9019","longitude":"136.1169","source_code":"CB0685646021390014","project_name":"\u718a\u91ce\u9df2\u5c3e\u9053\u8def","survey_name":"\u5e73\u621018\u5e74\u5ea6 \u718a\u91ce\u9df2\u5c3e\u9053\u8def\u718a\u91ce\u5730\u533a\u5730\u8cea\u8abf\u67fb","client_name":"\u56fd\u571f\u4ea4\u901a\u7701\u4e2d\u90e8\u5730\u65b9\u6574\u5099\u5c40\u7d00\u52e2\u56fd\u9053\u4e8b\u52d9\u6240","boring_xml_url":45,"boring_view_url":1,"soilmap_view_url":null,"soiltest_xml_url":46,"soiltest_view_url":46},{"id":163904,"code":"B4KJ201801005-2153","latitude":"33.90108","longitude":"136.11536","source_code":"CB0685646021390013","project_name":"\u718a\u91ce\u9df2\u5c3e\u9053\u8def","survey_name":"\u5e73\u621018\u5e74\u5ea6 \u718a\u91ce\u9df2\u5c3e\u9053\u8def\u718a\u91ce\u5730\u533a\u5730\u8cea\u8abf\u67fb","client_name":"\u56fd\u571f\u4ea4\u901a\u7701\u4e2d\u90e8\u5730\u65b9\u6574\u5099\u5c40\u7d00\u52e2\u56fd\u9053\u4e8b\u52d9\u6240","boring_xml_url":45,"boring_view_url":1,"soilmap_view_url":null,"soiltest_xml_url":46,"soiltest_view_url":46},{"id":163903,"code":"B4KJ201801005-2152","latitude":"33.90117","longitude":"136.11489","source_code":"CB0685646021390012","project_name":"\u718a\u91ce\u9df2\u5c3e\u9053\u8def","survey_name":"\u5e73\u621018\u5e74\u5ea6 \u718a\u91ce\u9df2\u5c3e\u9053\u8def\u718a\u91ce\u5730\u533a\u5730\u8cea\u8abf\u67fb","client_name":"\u56fd\u571f\u4ea4\u901a\u7701\u4e2d\u90e8\u5730\u65b9\u6574\u5099\u5c40\u7d00\u52e2\u56fd\u9053\u4e8b\u52d9\u6240","boring_xml_url":45,"boring_view_url":1,"soilmap_view_url":null,"soiltest_xml_url":46,"soiltest_view_url":46},{"id":163902,"code":"B4KJ201801005-2151","latitude":"33.89586","longitude":"136.11581","source_code":"CB0685646021390011","project_name":"\u718a\u91ce\u5c3e\u9df2\u9053\u8def","survey_name":"\u5e73\u621018\u5e74\u5ea6\u718a\u91ce\u5c3e\u9df2\u9053\u8def\u718a\u91ce\u5730\u533a\u5730\u8cea\u8abf\u67fb","client_name":"\u56fd\u571f\u4ea4\u901a\u7701\u4e2d\u90e8\u5730\u65b9\u6574\u5099\u5c40\u7d00\u52e2\u56fd\u9053\u4e8b\u52d9\u6240","boring_xml_url":45,"boring_view_url":1,"soilmap_view_url":null,"soiltest_xml_url":0,"soiltest_view_url":0},{"id":163901,"code":"B4KJ201801005-2150","latitude":"33.89569","longitude":"136.11547","source_code":"CB0685646021390010","project_name":"\u718a\u91ce\u5c3e\u9df2\u9053\u8def","survey_name":"\u5e73\u621018\u5e74\u5ea6\u718a\u91ce\u5c3e\u9df2\u9053\u8def\u718a\u91ce\u5730\u533a\u5730\u8cea\u8abf\u67fb","client_name":"\u56fd\u571f\u4ea4\u901a\u7701\u4e2d\u90e8\u5730\u65b9\u6574\u5099\u5c40\u7d00\u52e2\u56fd\u9053\u4e8b\u52d9\u6240","boring_xml_url":45,"boring_view_url":1,"soilmap_view_url":null,"soiltest_xml_url":0,"soiltest_view_url":0},{"id":163900,"code":"B4KJ201801005-2149","latitude":"33.8956","longitude":"136.1153","source_code":"CB0685646021390009","project_name":"\u718a\u91ce\u5c3e\u9df2\u9053\u8def","survey_name":"\u5e73\u621018\u5e74\u5ea6\u718a\u91ce\u5c3e\u9df2\u9053\u8def\u718a\u91ce\u5730\u533a\u5730\u8cea\u8abf\u67fb","client_name":"\u56fd\u571f\u4ea4\u901a\u7701\u4e2d\u90e8\u5730\u65b9\u6574\u5099\u5c40\u7d00\u52e2\u56fd\u9053\u4e8b\u52d9\u6240","boring_xml_url":45,"boring_view_url":1,"soilmap_view_url":null,"soiltest_xml_url":0,"soiltest_view_url":0},{"id":163899,"code":"B4KJ201801005-2148","latitude":"33.89536","longitude":"136.11508","source_code":"CB0685646021390008","project_name":"\u718a\u91ce\u5c3e\u9df2\u9053\u8def","survey_name":"\u5e73\u621018\u5e74\u5ea6\u718a\u91ce\u5c3e\u9df2\u9053\u8def\u718a\u91ce\u5730\u533a\u5730\u8cea\u8abf\u67fb","client_name":"\u56fd\u571f\u4ea4\u901a\u7701\u4e2d\u90e8\u5730\u65b9\u6574\u5099\u5c40\u7d00\u52e2\u56fd\u9053\u4e8b\u52d9\u6240","boring_xml_url":45,"boring_view_url":1,"soilmap_view_url":null,"soiltest_xml_url":0,"soiltest_view_url":0},{"id":163898,"code":"B4KJ201801005-2147","latitude":"33.89578","longitude":"136.11544","source_code":"CB0685646021390007","project_name":"\u718a\u91ce\u9df2\u5c3e\u9053\u8def","survey_name":"\u5e73\u621018\u5e74\u5ea6 \u718a\u91ce\u9df2\u5c3e\u9053\u8def\u718a\u91ce\u5730\u533a\u5730\u8cea\u8abf\u67fb","client_name":"\u56fd\u571f\u4ea4\u901a\u7701\u4e2d\u90e8\u5730\u65b9\u6574\u5099\u5c40\u7d00\u52e2\u56fd\u9053\u4e8b\u52d9\u6240","boring_xml_url":45,"boring_view_url":1,"soilmap_view_url":null,"soiltest_xml_url":0,"soiltest_view_url":0},{"id":163897,"code":"B4KJ201801005-2146","latitude":"33.89561","longitude":"136.11517","source_code":"CB0685646021390006","project_name":"\u718a\u91ce\u9df2\u5c3e\u9053\u8def","survey_name":"\u5e73\u621018\u5e74\u5ea6 \u718a\u91ce\u9df2\u5c3e\u9053\u8def\u718a\u91ce\u5730\u533a\u5730\u8cea\u8abf\u67fb","client_name":"\u56fd\u571f\u4ea4\u901a\u7701\u4e2d\u90e8\u5730\u65b9\u6574\u5099\u5c40\u7d00\u52e2\u56fd\u9053\u4e8b\u52d9\u6240","boring_xml_url":45,"boring_view_url":1,"soilmap_view_url":null,"soiltest_xml_url":0,"soiltest_view_url":0},{"id":163896,"code":"B4KJ201801005-2145","latitude":"33.90303","longitude":"136.11822","source_code":"CB0685646021390005","project_name":"\u718a\u91ce\u9df2\u5c3e\u9053\u8def","survey_name":"\u5e73\u621018\u5e74\u5ea6 \u718a\u91ce\u9df2\u5c3e\u9053\u8def\u718a\u91ce\u5730\u533a\u5730\u8cea\u8abf\u67fb","client_name":"\u56fd\u571f\u4ea4\u901a\u7701\u4e2d\u90e8\u5730\u65b9\u6574\u5099\u5c40\u7d00\u52e2\u56fd\u9053\u4e8b\u52d9\u6240","boring_xml_url":45,"boring_view_url":1,"soilmap_view_url":null,"soiltest_xml_url":0,"soiltest_view_url":0},{"id":163895,"code":"B4KJ201801005-2144","latitude":"33.92747","longitude":"136.138","source_code":"CB0685646021390004","project_name":"\u718a\u91ce\u9df2\u5c3e\u9053\u8def","survey_name":"\u5e73\u621018\u5e74\u5ea6 \u718a\u91ce\u9df2\u5c3e\u9053\u8def\u718a\u91ce\u5730\u533a\u5730\u8cea\u8abf\u67fb","client_name":"\u56fd\u571f\u4ea4\u901a\u7701\u4e2d\u90e8\u5730\u65b9\u6574\u5099\u5c40\u7d00\u52e2\u56fd\u9053\u4e8b\u52d9\u6240","boring_xml_url":45,"boring_view_url":1,"soilmap_view_url":null,"soiltest_xml_url":0,"soiltest_view_url":0},{"id":163894,"code":"B4KJ201801005-2143","latitude":"33.92711","longitude":"136.13797","source_code":"CB0685646021390003","project_name":"\u718a\u91ce\u5c3e\u9df2\u9053\u8def","survey_name":"\u5e73\u621018\u5e74\u5ea6\u718a\u91ce\u5c3e\u9df2\u9053\u8def\u718a\u91ce\u5730\u533a\u5730\u8cea\u8abf\u67fb","client_name":"\u56fd\u571f\u4ea4\u901a\u7701\u4e2d\u90e8\u5730\u65b9\u6574\u5099\u5c40\u7d00\u52e2\u56fd\u9053\u4e8b\u52d9\u6240","boring_xml_url":45,"boring_view_url":1,"soilmap_view_url":null,"soiltest_xml_url":0,"soiltest_view_url":0},{"id":163893,"code":"B4KJ201801005-2142","latitude":"33.90325","longitude":"136.11828","source_code":"CB0685646021390002","project_name":"\u718a\u91ce\u9df2\u5c3e\u9053\u8def","survey_name":"\u5e73\u621018\u5e74\u5ea6 \u718a\u91ce\u9df2\u5c3e\u9053\u8def\u718a\u91ce\u5730\u533a\u5730\u8cea\u8abf\u67fb","client_name":"\u56fd\u571f\u4ea4\u901a\u7701\u4e2d\u90e8\u5730\u65b9\u6574\u5099\u5c40\u7d00\u52e2\u56fd\u9053\u4e8b\u52d9\u6240","boring_xml_url":45,"boring_view_url":1,"soilmap_view_url":null,"soiltest_xml_url":0,"soiltest_view_url":0},{"id":163892,"code":"B4KJ201801005-2141","latitude":"33.92736","longitude":"136.138","source_code":"CB0685646021390001","project_name":"\u718a\u91ce\u5c3e\u9df2\u9053\u8def","survey_name":"\u5e73\u621018\u5e74\u5ea6\u718a\u91ce\u5c3e\u9df2\u9053\u8def\u718a\u91ce\u5730\u533a\u5730\u8cea\u8abf\u67fb","client_name":"\u56fd\u571f\u4ea4\u901a\u7701\u4e2d\u90e8\u5730\u65b9\u6574\u5099\u5c40\u7d00\u52e2\u56fd\u9053\u4e8b\u52d9\u6240","boring_xml_url":45,"boring_view_url":1,"soilmap_view_url":null,"soiltest_xml_url":0,"soiltest_view_url":0},{"id":163891,"code":"B4KJ201801005-2140","latitude":"34.663133","longitude":"136.492306","source_code":"CB0685606121130017","project_name":"\u6a4b\u6881\u57fa\u790e\u5730\u76e4\u8abf\u67fb","survey_name":"\u5e73\u621018\u5e74\u5ea6 \u4e2d\u52e2\u9053\u8def\u6728\u9020\u5730\u533a\u5730\u4e0b\u6d1e\u63a2\u67fb\u696d\u52d9","client_name":"\u56fd\u571f\u4ea4\u901a\u7701\u4e2d\u90e8\u5730\u65b9\u6574\u5099\u5c40\u4e09\u91cd\u6cb3\u5ddd\u56fd\u9053\u4e8b\u52d9\u6240","boring_xml_url":45,"boring_view_url":1,"soilmap_view_url":null,"soiltest_xml_url":0,"soiltest_view_url":0},{"id":163890,"code":"B4KJ201801005-2139","latitude":"34.6634","longitude":"136.491697","source_code":"CB0685606121130016","project_name":"\u6a4b\u6881\u57fa\u790e\u5730\u76e4\u8abf\u67fb","survey_name":"\u5e73\u621018\u5e74\u5ea6 \u4e2d\u52e2\u9053\u8def\u6728\u9020\u5730\u533a\u5730\u4e0b\u6d1e\u63a2\u67fb\u696d\u52d9","client_name":"\u56fd\u571f\u4ea4\u901a\u7701\u4e2d\u90e8\u5730\u65b9\u6574\u5099\u5c40\u4e09\u91cd\u6cb3\u5ddd\u56fd\u9053\u4e8b\u52d9\u6240","boring_xml_url":45,"boring_view_url":1,"soilmap_view_url":null,"soiltest_xml_url":0,"soiltest_view_url":0},{"id":163889,"code":"B4KJ201801005-2138","latitude":"34.654881","longitude":"136.491939","source_code":"CB0685606121130015","project_name":"\u6a4b\u6881\u57fa\u790e\u5730\u76e4\u8abf\u67fb","survey_name":"\u5e73\u621018\u5e74\u5ea6 \u4e2d\u52e2\u9053\u8def\u6728\u9020\u5730\u533a\u5730\u4e0b\u6d1e\u63a2\u67fb\u696d\u52d9","client_name":"\u56fd\u571f\u4ea4\u901a\u7701\u4e2d\u90e8\u5730\u65b9\u6574\u5099\u5c40\u4e09\u91cd\u6cb3\u5ddd\u56fd\u9053\u4e8b\u52d9\u6240","boring_xml_url":45,"boring_view_url":1,"soilmap_view_url":null,"soiltest_xml_url":46,"soiltest_view_url":46},{"id":163888,"code":"B4KJ201801005-2137","latitude":"34.654947","longitude":"136.491819","source_code":"CB0685606121130014","project_name":"\u6a4b\u6881\u57fa\u790e\u5730\u76e4\u8abf\u67fb","survey_name":"\u5e73\u621018\u5e74\u5ea6 \u4e2d\u52e2\u9053\u8def\u6728\u9020\u5730\u533a\u5730\u4e0b\u6d1e\u63a2\u67fb\u696d\u52d9","client_name":"\u56fd\u571f\u4ea4\u901a\u7701\u4e2d\u90e8\u5730\u65b9\u6574\u5099\u5c40\u4e09\u91cd\u6cb3\u5ddd\u56fd\u9053\u4e8b\u52d9\u6240","boring_xml_url":45,"boring_view_url":1,"soilmap_view_url":null,"soiltest_xml_url":0,"soiltest_view_url":0},{"id":163887,"code":"B4KJ201801005-2136","latitude":"34.655144","longitude":"136.491914","source_code":"CB0685606121130013","project_name":"\u6a4b\u6881\u57fa\u790e\u5730\u76e4\u8abf\u67fb","survey_name":"\u5e73\u621018\u5e74\u5ea6 \u4e2d\u52e2\u9053\u8def\u6728\u9020\u5730\u533a\u5730\u4e0b\u6d1e\u63a2\u67fb\u696d\u52d9","client_name":"\u56fd\u571f\u4ea4\u901a\u7701\u4e2d\u90e8\u5730\u65b9\u6574\u5099\u5c40\u4e09\u91cd\u6cb3\u5ddd\u56fd\u9053\u4e8b\u52d9\u6240","boring_xml_url":45,"boring_view_url":1,"soilmap_view_url":null,"soiltest_xml_url":0,"soiltest_view_url":0},{"id":163886,"code":"B4KJ201801005-2135","latitude":"34.655197","longitude":"136.491803","source_code":"CB0685606121130012","project_name":"\u6a4b\u6881\u57fa\u790e\u5730\u76e4\u8abf\u67fb","survey_name":"\u5e73\u621018\u5e74\u5ea6 \u4e2d\u52e2\u9053\u8def\u6728\u9020\u5730\u533a\u5730\u4e0b\u6d1e\u63a2\u67fb\u696d\u52d9","client_name":"\u56fd\u571f\u4ea4\u901a\u7701\u4e2d\u90e8\u5730\u65b9\u6574\u5099\u5c40\u4e09\u91cd\u6cb3\u5ddd\u56fd\u9053\u4e8b\u52d9\u6240","boring_xml_url":45,"boring_view_url":1,"soilmap_view_url":null,"soiltest_xml_url":46,"soiltest_view_url":46}]}}