{"header":{"xyz":{"source":[],"mosaic":false},"page":5237,"raw":{"soiltest_result":"0","bbox":"57.598333,109.544722,1.933333,163.806111","page":"5237"},"conditions":{"soiltest_result":0,"north":57.598333,"west":109.544722,"south":1.933333,"east":163.806111},"success":true,"message":""},"data":{"meta":{"total":212844,"page":5237,"pages":7095,"count":30},"values":[{"id":163465,"code":"B4KJ201801005-1714","latitude":"35.0821589","longitude":"138.5402358","source_code":"CB0585437920560007","project_name":"","survey_name":"\u5e73\u621017\u5e74\u5ea6 \u7531\u6bd4\u5730\u3059\u3079\u308a\u5927\u4e45\u4fdd\u4e0a\u90e8\u5730\u8cea\u8abf\u67fb","client_name":"\u56fd\u571f\u4ea4\u901a\u7701\u4e2d\u90e8\u5730\u65b9\u6574\u5099\u5c40\u5bcc\u58eb\u7802\u9632\u4e8b\u52d9\u6240","boring_xml_url":45,"boring_view_url":1,"soilmap_view_url":null,"soiltest_xml_url":0,"soiltest_view_url":0},{"id":163464,"code":"B4KJ201801005-1713","latitude":"35.0818811","longitude":"138.5394025","source_code":"CB0585437920560006","project_name":"","survey_name":"\u5e73\u621017\u5e74\u5ea6 \u7531\u6bd4\u5730\u3059\u3079\u308a\u5927\u4e45\u4fdd\u4e0a\u90e8\u5730\u8cea\u8abf\u67fb","client_name":"\u56fd\u571f\u4ea4\u901a\u7701\u4e2d\u90e8\u5730\u65b9\u6574\u5099\u5c40\u5bcc\u58eb\u7802\u9632\u4e8b\u52d9\u6240","boring_xml_url":45,"boring_view_url":1,"soilmap_view_url":null,"soiltest_xml_url":0,"soiltest_view_url":0},{"id":163463,"code":"B4KJ201801005-1712","latitude":"35.0816033","longitude":"138.5399581","source_code":"CB0585437920560005","project_name":"","survey_name":"\u5e73\u621017\u5e74\u5ea6 \u7531\u6bd4\u5730\u3059\u3079\u308a\u5927\u4e45\u4fdd\u4e0a\u90e8\u5730\u8cea\u8abf\u67fb","client_name":"\u56fd\u571f\u4ea4\u901a\u7701\u4e2d\u90e8\u5730\u65b9\u6574\u5099\u5c40\u5bcc\u58eb\u7802\u9632\u4e8b\u52d9\u6240","boring_xml_url":45,"boring_view_url":1,"soilmap_view_url":null,"soiltest_xml_url":0,"soiltest_view_url":0},{"id":163462,"code":"B4KJ201801005-1711","latitude":"35.0827144","longitude":"138.5402358","source_code":"CB0585437920560004","project_name":"","survey_name":"\u5e73\u621017\u5e74\u5ea6 \u7531\u6bd4\u5730\u3059\u3079\u308a\u5927\u4e45\u4fdd\u4e0a\u90e8\u5730\u8cea\u8abf\u67fb","client_name":"\u56fd\u571f\u4ea4\u901a\u7701\u4e2d\u90e8\u5730\u65b9\u6574\u5099\u5c40\u5bcc\u58eb\u7802\u9632\u4e8b\u52d9\u6240","boring_xml_url":45,"boring_view_url":1,"soilmap_view_url":null,"soiltest_xml_url":0,"soiltest_view_url":0},{"id":163461,"code":"B4KJ201801005-1710","latitude":"35.0821589","longitude":"138.5388469","source_code":"CB0585437920560003","project_name":"","survey_name":"\u5e73\u621017\u5e74\u5ea6 \u7531\u6bd4\u5730\u3059\u3079\u308a\u5927\u4e45\u4fdd\u4e0a\u90e8\u5730\u8cea\u8abf\u67fb","client_name":"\u56fd\u571f\u4ea4\u901a\u7701\u4e2d\u90e8\u5730\u65b9\u6574\u5099\u5c40\u5bcc\u58eb\u7802\u9632\u4e8b\u52d9\u6240","boring_xml_url":45,"boring_view_url":1,"soilmap_view_url":null,"soiltest_xml_url":0,"soiltest_view_url":0},{"id":163460,"code":"B4KJ201801005-1709","latitude":"35.0818811","longitude":"138.5394025","source_code":"CB0585437920560002","project_name":"","survey_name":"\u5e73\u621017\u5e74\u5ea6 \u7531\u6bd4\u5730\u3059\u3079\u308a\u5927\u4e45\u4fdd\u4e0a\u90e8\u5730\u8cea\u8abf\u67fb","client_name":"\u56fd\u571f\u4ea4\u901a\u7701\u4e2d\u90e8\u5730\u65b9\u6574\u5099\u5c40\u5bcc\u58eb\u7802\u9632\u4e8b\u52d9\u6240","boring_xml_url":45,"boring_view_url":1,"soilmap_view_url":null,"soiltest_xml_url":0,"soiltest_view_url":0},{"id":163459,"code":"B4KJ201801005-1708","latitude":"35.0821589","longitude":"138.5402358","source_code":"CB0585437920560001","project_name":"","survey_name":"\u5e73\u621017\u5e74\u5ea6 \u7531\u6bd4\u5730\u3059\u3079\u308a\u5927\u4e45\u4fdd\u4e0a\u90e8\u5730\u8cea\u8abf\u67fb","client_name":"\u56fd\u571f\u4ea4\u901a\u7701\u4e2d\u90e8\u5730\u65b9\u6574\u5099\u5c40\u5bcc\u58eb\u7802\u9632\u4e8b\u52d9\u6240","boring_xml_url":45,"boring_view_url":1,"soilmap_view_url":null,"soiltest_xml_url":0,"soiltest_view_url":0},{"id":163458,"code":"B4KJ201801005-1707","latitude":"35.076322","longitude":"138.541353","source_code":"CB0585437920550006","project_name":"","survey_name":"\u5e73\u621017\u5e74\u5ea6 \u7531\u6bd4\u5730\u3059\u3079\u308a\u5c71\u4e2d\u5730\u8cea\u8abf\u67fb","client_name":"\u56fd\u571f\u4ea4\u901a\u7701\u4e2d\u90e8\u5730\u65b9\u6574\u5099\u5c40\u5bcc\u58eb\u7802\u9632\u4e8b\u52d9\u6240","boring_xml_url":45,"boring_view_url":1,"soilmap_view_url":null,"soiltest_xml_url":0,"soiltest_view_url":0},{"id":163457,"code":"B4KJ201801005-1706","latitude":"35.076322","longitude":"138.541353","source_code":"CB0585437920550005","project_name":"","survey_name":"\u5e73\u621017\u5e74\u5ea6 \u7531\u6bd4\u5730\u3059\u3079\u308a\u5c71\u4e2d\u5730\u8cea\u8abf\u67fb","client_name":"\u56fd\u571f\u4ea4\u901a\u7701\u4e2d\u90e8\u5730\u65b9\u6574\u5099\u5c40\u5bcc\u58eb\u7802\u9632\u4e8b\u52d9\u6240","boring_xml_url":45,"boring_view_url":1,"soilmap_view_url":null,"soiltest_xml_url":0,"soiltest_view_url":0},{"id":163456,"code":"B4KJ201801005-1705","latitude":"35.076089","longitude":"138.541883","source_code":"CB0585437920550004","project_name":"","survey_name":"\u5e73\u621017\u5e74\u5ea6 \u7531\u6bd4\u5730\u3059\u3079\u308a\u5c71\u4e2d\u5730\u8cea\u8abf\u67fb","client_name":"\u56fd\u571f\u4ea4\u901a\u7701\u4e2d\u90e8\u5730\u65b9\u6574\u5099\u5c40\u5bcc\u58eb\u7802\u9632\u4e8b\u52d9\u6240","boring_xml_url":45,"boring_view_url":1,"soilmap_view_url":null,"soiltest_xml_url":0,"soiltest_view_url":0},{"id":163455,"code":"B4KJ201801005-1704","latitude":"35.076089","longitude":"138.541883","source_code":"CB0585437920550003","project_name":"","survey_name":"\u5e73\u621017\u5e74\u5ea6 \u7531\u6bd4\u5730\u3059\u3079\u308a\u5c71\u4e2d\u5730\u8cea\u8abf\u67fb","client_name":"\u56fd\u571f\u4ea4\u901a\u7701\u4e2d\u90e8\u5730\u65b9\u6574\u5099\u5c40\u5bcc\u58eb\u7802\u9632\u4e8b\u52d9\u6240","boring_xml_url":45,"boring_view_url":1,"soilmap_view_url":null,"soiltest_xml_url":0,"soiltest_view_url":0},{"id":163454,"code":"B4KJ201801005-1703","latitude":"35.073522","longitude":"138.540322","source_code":"CB0585437920550002","project_name":"","survey_name":"\u5e73\u621017\u5e74\u5ea6 \u7531\u6bd4\u5730\u3059\u3079\u308a\u5c71\u4e2d\u5730\u8cea\u8abf\u67fb","client_name":"\u56fd\u571f\u4ea4\u901a\u7701\u4e2d\u90e8\u5730\u65b9\u6574\u5099\u5c40\u5bcc\u58eb\u7802\u9632\u4e8b\u52d9\u6240","boring_xml_url":45,"boring_view_url":1,"soilmap_view_url":null,"soiltest_xml_url":0,"soiltest_view_url":0},{"id":163453,"code":"B4KJ201801005-1702","latitude":"35.073522","longitude":"138.540322","source_code":"CB0585437920550001","project_name":"","survey_name":"\u5e73\u621017\u5e74\u5ea6 \u7531\u6bd4\u5730\u3059\u3079\u308a\u5c71\u4e2d\u5730\u8cea\u8abf\u67fb","client_name":"\u56fd\u571f\u4ea4\u901a\u7701\u4e2d\u90e8\u5730\u65b9\u6574\u5099\u5c40\u5bcc\u58eb\u7802\u9632\u4e8b\u52d9\u6240","boring_xml_url":45,"boring_view_url":1,"soilmap_view_url":null,"soiltest_xml_url":0,"soiltest_view_url":0},{"id":163452,"code":"B4KJ201801005-1701","latitude":"35.0783","longitude":"138.5436","source_code":"CB0585437920490004","project_name":"\u7531\u6bd4\u5730\u3059\u3079\u308a\u5bfe\u7b56\u4e8b\u696d","survey_name":"\u5e73\u621017\u5e74\u5ea6 \u7531\u6bd4\u5730\u3059\u3079\u308a\u5927\u4e45\u4fdd\u4e0b\u90e8\u5730\u8cea\u8abf\u67fb","client_name":"\u56fd\u571f\u4ea4\u901a\u7701\u4e2d\u90e8\u5730\u65b9\u6574\u5099\u5c40\u5bcc\u58eb\u7802\u9632\u4e8b\u52d9\u6240","boring_xml_url":45,"boring_view_url":1,"soilmap_view_url":null,"soiltest_xml_url":0,"soiltest_view_url":0},{"id":163451,"code":"B4KJ201801005-1700","latitude":"35.0772","longitude":"138.5447","source_code":"CB0585437920490003","project_name":"\u7531\u6bd4\u5730\u3059\u3079\u308a\u5bfe\u7b56\u4e8b\u696d","survey_name":"\u5e73\u621017\u5e74\u5ea6 \u7531\u6bd4\u5730\u3059\u3079\u308a\u5927\u4e45\u4fdd\u4e0b\u90e8\u5730\u8cea\u8abf\u67fb","client_name":"\u56fd\u571f\u4ea4\u901a\u7701\u4e2d\u90e8\u5730\u65b9\u6574\u5099\u5c40\u5bcc\u58eb\u7802\u9632\u4e8b\u52d9\u6240","boring_xml_url":45,"boring_view_url":1,"soilmap_view_url":null,"soiltest_xml_url":0,"soiltest_view_url":0},{"id":163450,"code":"B4KJ201801005-1699","latitude":"35.0794","longitude":"138.5444","source_code":"CB0585437920490002","project_name":"\u7531\u6bd4\u5730\u3059\u3079\u308a\u5bfe\u7b56\u4e8b\u696d","survey_name":"\u5e73\u621017\u5e74\u5ea6 \u7531\u6bd4\u5730\u3059\u3079\u308a\u5927\u4e45\u4fdd\u4e0b\u90e8\u5730\u8cea\u8abf\u67fb","client_name":"\u56fd\u571f\u4ea4\u901a\u7701\u4e2d\u90e8\u5730\u65b9\u6574\u5099\u5c40\u5bcc\u58eb\u7802\u9632\u4e8b\u52d9\u6240","boring_xml_url":45,"boring_view_url":1,"soilmap_view_url":null,"soiltest_xml_url":46,"soiltest_view_url":46},{"id":163449,"code":"B4KJ201801005-1698","latitude":"35.0783","longitude":"138.545","source_code":"CB0585437920490001","project_name":"\u7531\u6bd4\u5730\u3059\u3079\u308a\u5bfe\u7b56\u4e8b\u696d","survey_name":"\u5e73\u621017\u5e74\u5ea6 \u7531\u6bd4\u5730\u3059\u3079\u308a\u5927\u4e45\u4fdd\u4e0b\u90e8\u5730\u8cea\u8abf\u67fb","client_name":"\u56fd\u571f\u4ea4\u901a\u7701\u4e2d\u90e8\u5730\u65b9\u6574\u5099\u5c40\u5bcc\u58eb\u7802\u9632\u4e8b\u52d9\u6240","boring_xml_url":45,"boring_view_url":1,"soilmap_view_url":null,"soiltest_xml_url":46,"soiltest_view_url":46},{"id":163448,"code":"B4KJ201801005-1697","latitude":"35.23928","longitude":"138.69464","source_code":"CB0585434020680003","project_name":"","survey_name":"\u5e73\u621017\u5e74\u5ea6 \u5bcc\u58eb\u5c71\u7802\u6ca2\u6c88\u7802\u5730\u5de5\u8a73\u7d30\u8a2d\u8a08\u696d\u52d9","client_name":"\u56fd\u571f\u4ea4\u901a\u7701\u4e2d\u90e8\u5730\u65b9\u6574\u5099\u5c40\u5bcc\u58eb\u7802\u9632\u4e8b\u52d9\u6240","boring_xml_url":45,"boring_view_url":1,"soilmap_view_url":null,"soiltest_xml_url":0,"soiltest_view_url":0},{"id":163447,"code":"B4KJ201801005-1696","latitude":"35.23972","longitude":"138.69425","source_code":"CB0585434020680002","project_name":"","survey_name":"\u5e73\u621017\u5e74\u5ea6 \u5bcc\u58eb\u5c71\u7802\u6ca2\u6c88\u7802\u5730\u5de5\u8a73\u7d30\u8a2d\u8a08\u696d\u52d9","client_name":"\u56fd\u571f\u4ea4\u901a\u7701\u4e2d\u90e8\u5730\u65b9\u6574\u5099\u5c40\u5bcc\u58eb\u7802\u9632\u4e8b\u52d9\u6240","boring_xml_url":45,"boring_view_url":1,"soilmap_view_url":null,"soiltest_xml_url":0,"soiltest_view_url":0},{"id":163446,"code":"B4KJ201801005-1695","latitude":"35.23886","longitude":"138.69372","source_code":"CB0585434020680001","project_name":"","survey_name":"\u5e73\u621017\u5e74\u5ea6 \u5bcc\u58eb\u5c71\u7802\u6ca2\u6c88\u7802\u5730\u5de5\u8a73\u7d30\u8a2d\u8a08\u696d\u52d9","client_name":"\u56fd\u571f\u4ea4\u901a\u7701\u4e2d\u90e8\u5730\u65b9\u6574\u5099\u5c40\u5bcc\u58eb\u7802\u9632\u4e8b\u52d9\u6240","boring_xml_url":45,"boring_view_url":1,"soilmap_view_url":null,"soiltest_xml_url":0,"soiltest_view_url":0},{"id":163445,"code":"B4KJ201801005-1694","latitude":"34.899208","longitude":"138.287814","source_code":"CB0585416020710015","project_name":"","survey_name":"\u5e73\u621017\u5e74\u5ea6 \u9759\u56fd\u7ba1\u5185\u5730\u8cea\u8abf\u67fb","client_name":"\u56fd\u571f\u4ea4\u901a\u7701\u4e2d\u90e8\u5730\u65b9\u6574\u5099\u5c40\u9759\u5ca1\u56fd\u9053\u4e8b\u52d9\u6240","boring_xml_url":45,"boring_view_url":1,"soilmap_view_url":null,"soiltest_xml_url":48,"soiltest_view_url":48},{"id":163444,"code":"B4KJ201801005-1693","latitude":"35.090339","longitude":"138.554542","source_code":"CB0585416020710006","project_name":"","survey_name":"\u5e73\u621017\u5e74\u5ea6 \u9759\u56fd\u7ba1\u5185\u5730\u8cea\u8abf\u67fb","client_name":"\u56fd\u571f\u4ea4\u901a\u7701\u4e2d\u90e8\u5730\u65b9\u6574\u5099\u5c40\u9759\u5ca1\u56fd\u9053\u4e8b\u52d9\u6240","boring_xml_url":45,"boring_view_url":1,"soilmap_view_url":null,"soiltest_xml_url":48,"soiltest_view_url":48},{"id":163443,"code":"B4KJ201801005-1692","latitude":"35.091225","longitude":"138.554094","source_code":"CB0585416020710004","project_name":"","survey_name":"\u5e73\u621017\u5e74\u5ea6 \u9759\u56fd\u7ba1\u5185\u5730\u8cea\u8abf\u67fb","client_name":"\u56fd\u571f\u4ea4\u901a\u7701\u4e2d\u90e8\u5730\u65b9\u6574\u5099\u5c40\u9759\u5ca1\u56fd\u9053\u4e8b\u52d9\u6240","boring_xml_url":45,"boring_view_url":1,"soilmap_view_url":null,"soiltest_xml_url":48,"soiltest_view_url":48},{"id":163442,"code":"B4KJ201801005-1691","latitude":"35.091203","longitude":"138.554458","source_code":"CB0585416020710003","project_name":"","survey_name":"\u5e73\u621017\u5e74\u5ea6 \u9759\u56fd\u7ba1\u5185\u5730\u8cea\u8abf\u67fb","client_name":"\u56fd\u571f\u4ea4\u901a\u7701\u4e2d\u90e8\u5730\u65b9\u6574\u5099\u5c40\u9759\u5ca1\u56fd\u9053\u4e8b\u52d9\u6240","boring_xml_url":45,"boring_view_url":1,"soilmap_view_url":null,"soiltest_xml_url":48,"soiltest_view_url":48},{"id":163441,"code":"B4KJ201801005-1690","latitude":"35.091042","longitude":"138.555022","source_code":"CB0585416020710002","project_name":"","survey_name":"\u5e73\u621017\u5e74\u5ea6 \u9759\u56fd\u7ba1\u5185\u5730\u8cea\u8abf\u67fb","client_name":"\u56fd\u571f\u4ea4\u901a\u7701\u4e2d\u90e8\u5730\u65b9\u6574\u5099\u5c40\u9759\u5ca1\u56fd\u9053\u4e8b\u52d9\u6240","boring_xml_url":45,"boring_view_url":1,"soilmap_view_url":null,"soiltest_xml_url":48,"soiltest_view_url":48},{"id":163440,"code":"B4KJ201801005-1689","latitude":"35.091731","longitude":"138.555369","source_code":"CB0585416020710001","project_name":"","survey_name":"\u5e73\u621017\u5e74\u5ea6 \u9759\u56fd\u7ba1\u5185\u5730\u8cea\u8abf\u67fb","client_name":"\u56fd\u571f\u4ea4\u901a\u7701\u4e2d\u90e8\u5730\u65b9\u6574\u5099\u5c40\u9759\u5ca1\u56fd\u9053\u4e8b\u52d9\u6240","boring_xml_url":45,"boring_view_url":1,"soilmap_view_url":null,"soiltest_xml_url":48,"soiltest_view_url":48},{"id":163439,"code":"B4KJ201801005-1688","latitude":"35.13581","longitude":"138.52178","source_code":"CB0585415120740010","project_name":"\u9632\u707d\u5bfe\u7b56\u4e8b\u696d","survey_name":"\u5e73\u621017\u5e74\u5ea6 \u7ba1\u5185\u5730\u8cea\u8abf\u67fb\u696d\u52d9\u59d4\u8a17","client_name":"\u56fd\u571f\u4ea4\u901a\u7701\u4e2d\u90e8\u5730\u65b9\u6574\u5099\u5c40\u9759\u5ca1\u56fd\u9053\u4e8b\u52d9\u6240","boring_xml_url":45,"boring_view_url":1,"soilmap_view_url":null,"soiltest_xml_url":0,"soiltest_view_url":0},{"id":163438,"code":"B4KJ201801005-1687","latitude":"35.13653","longitude":"138.52047","source_code":"CB0585415120740009","project_name":"\u9632\u707d\u5bfe\u7b56\u4e8b\u696d","survey_name":"\u5e73\u621017\u5e74\u5ea6 \u7ba1\u5185\u5730\u8cea\u8abf\u67fb\u696d\u52d9\u59d4\u8a17","client_name":"\u56fd\u571f\u4ea4\u901a\u7701\u4e2d\u90e8\u5730\u65b9\u6574\u5099\u5c40\u9759\u5ca1\u56fd\u9053\u4e8b\u52d9\u6240","boring_xml_url":45,"boring_view_url":1,"soilmap_view_url":null,"soiltest_xml_url":0,"soiltest_view_url":0},{"id":163437,"code":"B4KJ201801005-1686","latitude":"35.13669","longitude":"138.52128","source_code":"CB0585415120740008","project_name":"\u9632\u707d\u5bfe\u7b56\u4e8b\u696d","survey_name":"\u5e73\u621017\u5e74\u5ea6 \u7ba1\u5185\u5730\u8cea\u8abf\u67fb\u696d\u52d9\u59d4\u8a17","client_name":"\u56fd\u571f\u4ea4\u901a\u7701\u4e2d\u90e8\u5730\u65b9\u6574\u5099\u5c40\u9759\u5ca1\u56fd\u9053\u4e8b\u52d9\u6240","boring_xml_url":45,"boring_view_url":1,"soilmap_view_url":null,"soiltest_xml_url":0,"soiltest_view_url":0},{"id":163436,"code":"B4KJ201801005-1685","latitude":"35.13614","longitude":"138.52197","source_code":"CB0585415120740007","project_name":"\u9632\u707d\u5bfe\u7b56\u4e8b\u696d","survey_name":"\u5e73\u621017\u5e74\u5ea6 \u7ba1\u5185\u5730\u8cea\u8abf\u67fb\u696d\u52d9\u59d4\u8a17","client_name":"\u56fd\u571f\u4ea4\u901a\u7701\u4e2d\u90e8\u5730\u65b9\u6574\u5099\u5c40\u9759\u5ca1\u56fd\u9053\u4e8b\u52d9\u6240","boring_xml_url":45,"boring_view_url":1,"soilmap_view_url":null,"soiltest_xml_url":0,"soiltest_view_url":0}]}}