{"header":{"xyz":{"source":[],"mosaic":false},"page":524,"raw":{"soiltest_result":"0","bbox":"57.598333,109.544722,1.933333,163.806111","page":"524"},"conditions":{"soiltest_result":0,"north":57.598333,"west":109.544722,"south":1.933333,"east":163.806111},"success":true,"message":""},"data":{"meta":{"total":212844,"page":524,"pages":7095,"count":30},"values":[{"id":529698,"code":"B4KJ202201003-2234","latitude":"33.177302","longitude":"130.35585","source_code":"QS20028930600200440004","project_name":"\u7d05\u7c89\u5c4b\u5730\u533a\u5730\u8cea\u8abf\u67fb\u53ca\u3073\u8010\u9707\u8a73\u7d30\u8a2d\u8a08\u696d\u52d9","survey_name":"\u7d05\u7c89\u5c4b\u5730\u533a\u5730\u8cea\u8abf\u67fb\u53ca\u3073\u8010\u9707\u8a73\u7d30\u8a2d\u8a08\u696d\u52d9","client_name":"\u56fd\u571f\u4ea4\u901a\u7701\u4e5d\u5dde\u5730\u65b9\u6574\u5099\u5c40\u7b51\u5f8c\u5ddd\u6cb3\u5ddd\u4e8b\u52d9\u6240","boring_xml_url":72,"boring_view_url":1,"soilmap_view_url":null,"soiltest_xml_url":0,"soiltest_view_url":0},{"id":529697,"code":"B4KJ202201003-2233","latitude":"33.17733","longitude":"130.355322","source_code":"QS20028930600200440003","project_name":"\u7d05\u7c89\u5c4b\u5730\u533a\u5730\u8cea\u8abf\u67fb\u53ca\u3073\u8010\u9707\u8a73\u7d30\u8a2d\u8a08\u696d\u52d9","survey_name":"\u7d05\u7c89\u5c4b\u5730\u533a\u5730\u8cea\u8abf\u67fb\u53ca\u3073\u8010\u9707\u8a73\u7d30\u8a2d\u8a08\u696d\u52d9","client_name":"\u56fd\u571f\u4ea4\u901a\u7701\u4e5d\u5dde\u5730\u65b9\u6574\u5099\u5c40\u7b51\u5f8c\u5ddd\u6cb3\u5ddd\u4e8b\u52d9\u6240","boring_xml_url":72,"boring_view_url":1,"soilmap_view_url":null,"soiltest_xml_url":0,"soiltest_view_url":0},{"id":529696,"code":"B4KJ202201003-2232","latitude":"33.172831","longitude":"130.355711","source_code":"QS20028930600200440002","project_name":"\u7d05\u7c89\u5c4b\u5730\u533a\u5730\u8cea\u8abf\u67fb\u53ca\u3073\u8010\u9707\u8a73\u7d30\u8a2d\u8a08\u696d\u52d9","survey_name":"\u7d05\u7c89\u5c4b\u5730\u533a\u5730\u8cea\u8abf\u67fb\u53ca\u3073\u8010\u9707\u8a73\u7d30\u8a2d\u8a08\u696d\u52d9","client_name":"\u56fd\u571f\u4ea4\u901a\u7701\u4e5d\u5dde\u5730\u65b9\u6574\u5099\u5c40\u7b51\u5f8c\u5ddd\u6cb3\u5ddd\u4e8b\u52d9\u6240","boring_xml_url":72,"boring_view_url":1,"soilmap_view_url":null,"soiltest_xml_url":0,"soiltest_view_url":0},{"id":529695,"code":"B4KJ202201003-2231","latitude":"33.172831","longitude":"130.355239","source_code":"QS20028930600200440001","project_name":"\u7d05\u7c89\u5c4b\u5730\u533a\u5730\u8cea\u8abf\u67fb\u53ca\u3073\u8010\u9707\u8a73\u7d30\u8a2d\u8a08\u696d\u52d9","survey_name":"\u7d05\u7c89\u5c4b\u5730\u533a\u5730\u8cea\u8abf\u67fb\u53ca\u3073\u8010\u9707\u8a73\u7d30\u8a2d\u8a08\u696d\u52d9","client_name":"\u56fd\u571f\u4ea4\u901a\u7701\u4e5d\u5dde\u5730\u65b9\u6574\u5099\u5c40\u7b51\u5f8c\u5ddd\u6cb3\u5ddd\u4e8b\u52d9\u6240","boring_xml_url":72,"boring_view_url":1,"soilmap_view_url":null,"soiltest_xml_url":0,"soiltest_view_url":0},{"id":529694,"code":"B4KJ202201003-2230","latitude":"31.305833","longitude":"130.906944","source_code":"QS20038971600200170019","project_name":"\u809d\u5c5e\u5ddd\u5824\u9632\u8abf\u67fb\u696d\u52d9\uff08\u59f6\u826f\u5ddd\u53f3\u5cb86k600\uff09","survey_name":"\u809d\u5c5e\u5ddd\u5824\u9632\u8abf\u67fb\u696d\u52d9\uff08\u59f6\u826f\u5ddd\u53f3\u5cb86k600\uff09","client_name":"\"\u5927\u9685\u6cb3\u5ddd\u56fd\u9053\u4e8b\u52d9\u6240 \u8abf\u67fb\u7b2c\u4e00\u8ab2\"","boring_xml_url":72,"boring_view_url":1,"soilmap_view_url":null,"soiltest_xml_url":0,"soiltest_view_url":0},{"id":529693,"code":"B4KJ202201003-2229","latitude":"31.311944","longitude":"130.899722","source_code":"QS20038971600200170018","project_name":"\u809d\u5c5e\u5ddd\u5824\u9632\u8abf\u67fb\u696d\u52d9\uff08\u59f6\u826f\u5ddd\u5de6\u5cb85k450\uff09","survey_name":"\u809d\u5c5e\u5ddd\u5824\u9632\u8abf\u67fb\u696d\u52d9\uff08\u59f6\u826f\u5ddd\u5de6\u5cb85k450\uff09","client_name":"\"\u5927\u9685\u6cb3\u5ddd\u56fd\u9053\u4e8b\u52d9\u6240 \u8abf\u67fb\u7b2c\u4e00\u8ab2\"","boring_xml_url":72,"boring_view_url":1,"soilmap_view_url":null,"soiltest_xml_url":0,"soiltest_view_url":0},{"id":529692,"code":"B4KJ202201003-2228","latitude":"31.312222","longitude":"130.9","source_code":"QS20038971600200170017","project_name":"\u809d\u5c5e\u5ddd\u5824\u9632\u8abf\u67fb\u696d\u52d9\uff08\u59f6\u826f\u5ddd\u5de6\u5cb85k450\uff09","survey_name":"\u809d\u5c5e\u5ddd\u5824\u9632\u8abf\u67fb\u696d\u52d9\uff08\u59f6\u826f\u5ddd\u5de6\u5cb85k450\uff09","client_name":"\"\u5927\u9685\u6cb3\u5ddd\u56fd\u9053\u4e8b\u52d9\u6240 \u8abf\u67fb\u7b2c\u4e00\u8ab2\"","boring_xml_url":72,"boring_view_url":1,"soilmap_view_url":null,"soiltest_xml_url":0,"soiltest_view_url":0},{"id":529691,"code":"B4KJ202201003-2227","latitude":"31.311944","longitude":"130.9","source_code":"QS20038971600200170016","project_name":"\u809d\u5c5e\u5ddd\u5824\u9632\u8abf\u67fb\u696d\u52d9\uff08\u59f6\u826f\u5ddd\u5de6\u5cb85k450\uff09","survey_name":"\u809d\u5c5e\u5ddd\u5824\u9632\u8abf\u67fb\u696d\u52d9\uff08\u59f6\u826f\u5ddd\u5de6\u5cb85k450\uff09","client_name":"\"\u5927\u9685\u6cb3\u5ddd\u56fd\u9053\u4e8b\u52d9\u6240 \u8abf\u67fb\u7b2c\u4e00\u8ab2\"","boring_xml_url":72,"boring_view_url":1,"soilmap_view_url":null,"soiltest_xml_url":0,"soiltest_view_url":0},{"id":529690,"code":"B4KJ202201003-2226","latitude":"31.321944","longitude":"130.898056","source_code":"QS20038971600200170015","project_name":"\u809d\u5c5e\u5ddd\u5824\u9632\u8abf\u67fb\u696d\u52d9\uff08\u59f6\u826f\u5ddd\u5de6\u5cb84k200\uff09","survey_name":"\u809d\u5c5e\u5ddd\u5824\u9632\u8abf\u67fb\u696d\u52d9\uff08\u59f6\u826f\u5ddd\u5de6\u5cb84k200\uff09","client_name":"\"\u5927\u9685\u6cb3\u5ddd\u56fd\u9053\u4e8b\u52d9\u6240 \u8abf\u67fb\u7b2c\u4e00\u8ab2\"","boring_xml_url":72,"boring_view_url":1,"soilmap_view_url":null,"soiltest_xml_url":0,"soiltest_view_url":0},{"id":529689,"code":"B4KJ202201003-2225","latitude":"31.321944","longitude":"130.898611","source_code":"QS20038971600200170014","project_name":"\u809d\u5c5e\u5ddd\u5824\u9632\u8abf\u67fb\u696d\u52d9\uff08\u59f6\u826f\u5ddd\u5de6\u5cb84k200\uff09","survey_name":"\u809d\u5c5e\u5ddd\u5824\u9632\u8abf\u67fb\u696d\u52d9\uff08\u59f6\u826f\u5ddd\u5de6\u5cb84k200\uff09","client_name":"\"\u5927\u9685\u6cb3\u5ddd\u56fd\u9053\u4e8b\u52d9\u6240 \u8abf\u67fb\u7b2c\u4e00\u8ab2\"","boring_xml_url":72,"boring_view_url":1,"soilmap_view_url":null,"soiltest_xml_url":0,"soiltest_view_url":0},{"id":529688,"code":"B4KJ202201003-2224","latitude":"31.321944","longitude":"130.898333","source_code":"QS20038971600200170013","project_name":"\u809d\u5c5e\u5ddd\u5824\u9632\u8abf\u67fb\u696d\u52d9\uff08\u59f6\u826f\u5ddd\u5de6\u5cb84k200\uff09","survey_name":"\u809d\u5c5e\u5ddd\u5824\u9632\u8abf\u67fb\u696d\u52d9\uff08\u59f6\u826f\u5ddd\u5de6\u5cb84k200\uff09","client_name":"\"\u5927\u9685\u6cb3\u5ddd\u56fd\u9053\u4e8b\u52d9\u6240 \u8abf\u67fb\u7b2c\u4e00\u8ab2\"","boring_xml_url":72,"boring_view_url":1,"soilmap_view_url":null,"soiltest_xml_url":0,"soiltest_view_url":0},{"id":529687,"code":"B4KJ202201003-2223","latitude":"31.361111","longitude":"130.916944","source_code":"QS20038971600200170012","project_name":"\u809d\u5c5e\u5ddd\u5824\u9632\u8abf\u67fb\u696d\u52d9\uff08\u809d\u5c5e\u5ddd\u53f3\u5cb810k000\uff09","survey_name":"\u809d\u5c5e\u5ddd\u5824\u9632\u8abf\u67fb\u696d\u52d9\uff08\u809d\u5c5e\u5ddd\u53f3\u5cb810k000\uff09","client_name":"\"\u5927\u9685\u6cb3\u5ddd\u56fd\u9053\u4e8b\u52d9\u6240 \u8abf\u67fb\u7b2c\u4e00\u8ab2\"","boring_xml_url":72,"boring_view_url":1,"soilmap_view_url":null,"soiltest_xml_url":0,"soiltest_view_url":0},{"id":529686,"code":"B4KJ202201003-2222","latitude":"31.361528","longitude":"130.916944","source_code":"QS20038971600200170011","project_name":"\u809d\u5c5e\u5ddd\u5824\u9632\u8abf\u67fb\u696d\u52d9\uff08\u809d\u5c5e\u5ddd\u53f3\u5cb810k000\uff09","survey_name":"\u809d\u5c5e\u5ddd\u5824\u9632\u8abf\u67fb\u696d\u52d9\uff08\u809d\u5c5e\u5ddd\u53f3\u5cb810k000\uff09","client_name":"\"\u5927\u9685\u6cb3\u5ddd\u56fd\u9053\u4e8b\u52d9\u6240 \u8abf\u67fb\u7b2c\u4e00\u8ab2\"","boring_xml_url":72,"boring_view_url":1,"soilmap_view_url":null,"soiltest_xml_url":0,"soiltest_view_url":0},{"id":529685,"code":"B4KJ202201003-2221","latitude":"31.361389","longitude":"130.916944","source_code":"QS20038971600200170010","project_name":"\u809d\u5c5e\u5ddd\u5824\u9632\u8abf\u67fb\u696d\u52d9\uff08\u809d\u5c5e\u5ddd\u53f3\u5cb810k000\uff09","survey_name":"\u809d\u5c5e\u5ddd\u5824\u9632\u8abf\u67fb\u696d\u52d9\uff08\u809d\u5c5e\u5ddd\u53f3\u5cb810k000\uff09","client_name":"\"\u5927\u9685\u6cb3\u5ddd\u56fd\u9053\u4e8b\u52d9\u6240 \u8abf\u67fb\u7b2c\u4e00\u8ab2\"","boring_xml_url":72,"boring_view_url":1,"soilmap_view_url":null,"soiltest_xml_url":0,"soiltest_view_url":0},{"id":529684,"code":"B4KJ202201003-2220","latitude":"31.361667","longitude":"130.950833","source_code":"QS20038971600200170009","project_name":"\u809d\u5c5e\u5ddd\u5824\u9632\u8abf\u67fb\u696d\u52d9\uff08\u809d\u5c5e\u5ddd\u53f3\u5cb86k400\uff09","survey_name":"\u809d\u5c5e\u5ddd\u5824\u9632\u8abf\u67fb\u696d\u52d9\uff08\u809d\u5c5e\u5ddd\u53f3\u5cb86k400\uff09","client_name":"\"\u5927\u9685\u6cb3\u5ddd\u56fd\u9053\u4e8b\u52d9\u6240 \u8abf\u67fb\u7b2c\u4e00\u8ab2\"","boring_xml_url":72,"boring_view_url":1,"soilmap_view_url":null,"soiltest_xml_url":0,"soiltest_view_url":0},{"id":529683,"code":"B4KJ202201003-2219","latitude":"31.362083","longitude":"130.950833","source_code":"QS20038971600200170008","project_name":"\u809d\u5c5e\u5ddd\u5824\u9632\u8abf\u67fb\u696d\u52d9\uff08\u809d\u5c5e\u5ddd\u53f3\u5cb86k400\uff09","survey_name":"\u809d\u5c5e\u5ddd\u5824\u9632\u8abf\u67fb\u696d\u52d9\uff08\u809d\u5c5e\u5ddd\u53f3\u5cb86k400\uff09","client_name":"\"\u5927\u9685\u6cb3\u5ddd\u56fd\u9053\u4e8b\u52d9\u6240 \u8abf\u67fb\u7b2c\u4e00\u8ab2\"","boring_xml_url":72,"boring_view_url":1,"soilmap_view_url":null,"soiltest_xml_url":0,"soiltest_view_url":0},{"id":529682,"code":"B4KJ202201003-2218","latitude":"31.361944","longitude":"130.950833","source_code":"QS20038971600200170007","project_name":"\u809d\u5c5e\u5ddd\u5824\u9632\u8abf\u67fb\u696d\u52d9\uff08\u809d\u5c5e\u5ddd\u53f3\u5cb86k400\uff09","survey_name":"\u809d\u5c5e\u5ddd\u5824\u9632\u8abf\u67fb\u696d\u52d9\uff08\u809d\u5c5e\u5ddd\u53f3\u5cb86k400\uff09","client_name":"\"\u5927\u9685\u6cb3\u5ddd\u56fd\u9053\u4e8b\u52d9\u6240 \u8abf\u67fb\u7b2c\u4e00\u8ab2\"","boring_xml_url":72,"boring_view_url":1,"soilmap_view_url":null,"soiltest_xml_url":0,"soiltest_view_url":0},{"id":529681,"code":"B4KJ202201003-2217","latitude":"31.365","longitude":"130.960556","source_code":"QS20038971600200170006","project_name":"\u809d\u5c5e\u5ddd\u5824\u9632\u8abf\u67fb\u696d\u52d9\uff08\u809d\u5c5e\u5ddd\u53f3\u5cb85k400\uff09","survey_name":"\u809d\u5c5e\u5ddd\u5824\u9632\u8abf\u67fb\u696d\u52d9\uff08\u809d\u5c5e\u5ddd\u53f3\u5cb85k400\uff09","client_name":"\"\u5927\u9685\u6cb3\u5ddd\u56fd\u9053\u4e8b\u52d9\u6240 \u8abf\u67fb\u7b2c\u4e00\u8ab2\"","boring_xml_url":72,"boring_view_url":1,"soilmap_view_url":null,"soiltest_xml_url":0,"soiltest_view_url":0},{"id":529680,"code":"B4KJ202201003-2216","latitude":"31.365278","longitude":"130.960278","source_code":"QS20038971600200170005","project_name":"\u809d\u5c5e\u5ddd\u5824\u9632\u8abf\u67fb\u696d\u52d9\uff08\u809d\u5c5e\u5ddd\u53f3\u5cb85k400\uff09","survey_name":"\u809d\u5c5e\u5ddd\u5824\u9632\u8abf\u67fb\u696d\u52d9\uff08\u809d\u5c5e\u5ddd\u53f3\u5cb85k400\uff09","client_name":"\"\u5927\u9685\u6cb3\u5ddd\u56fd\u9053\u4e8b\u52d9\u6240 \u8abf\u67fb\u7b2c\u4e00\u8ab2\"","boring_xml_url":72,"boring_view_url":1,"soilmap_view_url":null,"soiltest_xml_url":0,"soiltest_view_url":0},{"id":529679,"code":"B4KJ202201003-2215","latitude":"31.365","longitude":"130.960278","source_code":"QS20038971600200170004","project_name":"\u809d\u5c5e\u5ddd\u5824\u9632\u8abf\u67fb\u696d\u52d9\uff08\u809d\u5c5e\u5ddd\u53f3\u5cb85k400\uff09","survey_name":"\u809d\u5c5e\u5ddd\u5824\u9632\u8abf\u67fb\u696d\u52d9\uff08\u809d\u5c5e\u5ddd\u53f3\u5cb85k400\uff09","client_name":"\"\u5927\u9685\u6cb3\u5ddd\u56fd\u9053\u4e8b\u52d9\u6240 \u8abf\u67fb\u7b2c\u4e00\u8ab2\"","boring_xml_url":72,"boring_view_url":1,"soilmap_view_url":null,"soiltest_xml_url":0,"soiltest_view_url":0},{"id":529678,"code":"B4KJ202201003-2214","latitude":"31.365556","longitude":"130.966667","source_code":"QS20038971600200170003","project_name":"\u809d\u5c5e\u5ddd\u5824\u9632\u8abf\u67fb\u696d\u52d9\uff08\u809d\u5c5e\u5ddd\u5de6\u5cb84k800\uff09","survey_name":"\u809d\u5c5e\u5ddd\u5824\u9632\u8abf\u67fb\u696d\u52d9\uff08\u809d\u5c5e\u5ddd\u5de6\u5cb84k800\uff09","client_name":"\"\u5927\u9685\u6cb3\u5ddd\u56fd\u9053\u4e8b\u52d9\u6240 \u8abf\u67fb\u7b2c\u4e00\u8ab2\"","boring_xml_url":72,"boring_view_url":1,"soilmap_view_url":null,"soiltest_xml_url":0,"soiltest_view_url":0},{"id":529677,"code":"B4KJ202201003-2213","latitude":"31.366111","longitude":"130.966944","source_code":"QS20038971600200170002","project_name":"\u809d\u5c5e\u5ddd\u5824\u9632\u8abf\u67fb\u696d\u52d9\uff08\u809d\u5c5e\u5ddd\u5de6\u5cb84k800\uff09","survey_name":"\u809d\u5c5e\u5ddd\u5824\u9632\u8abf\u67fb\u696d\u52d9\uff08\u809d\u5c5e\u5ddd\u5de6\u5cb84k800\uff09","client_name":"\"\u5927\u9685\u6cb3\u5ddd\u56fd\u9053\u4e8b\u52d9\u6240 \u8abf\u67fb\u7b2c\u4e00\u8ab2\"","boring_xml_url":72,"boring_view_url":1,"soilmap_view_url":null,"soiltest_xml_url":0,"soiltest_view_url":0},{"id":529676,"code":"B4KJ202201003-2212","latitude":"31.365833","longitude":"130.966944","source_code":"QS20038971600200170001","project_name":"\u809d\u5c5e\u5ddd\u5824\u9632\u8abf\u67fb\u696d\u52d9\uff08\u809d\u5c5e\u5ddd\u5de6\u5cb84k800\uff09","survey_name":"\u809d\u5c5e\u5ddd\u5824\u9632\u8abf\u67fb\u696d\u52d9\uff08\u809d\u5c5e\u5ddd\u5de6\u5cb84k800\uff09","client_name":"\"\u5927\u9685\u6cb3\u5ddd\u56fd\u9053\u4e8b\u52d9\u6240 \u8abf\u67fb\u7b2c\u4e00\u8ab2\"","boring_xml_url":72,"boring_view_url":1,"soilmap_view_url":null,"soiltest_xml_url":0,"soiltest_view_url":0},{"id":529675,"code":"B4KJ202201003-2211","latitude":"31.381889","longitude":"130.865278","source_code":"QS20038971600200040003","project_name":"\u5bff\u5730\u533a\u5730\u8cea\u8abf\u67fb\u696d\u52d9","survey_name":"\u5bff\u5730\u533a\u5730\u8cea\u8abf\u67fb\u696d\u52d9","client_name":"\u56fd\u571f\u4ea4\u901a\u7701\u3000\u5927\u9685\u6cb3\u5ddd\u56fd\u9053\u4e8b\u52d9\u6240","boring_xml_url":72,"boring_view_url":1,"soilmap_view_url":null,"soiltest_xml_url":0,"soiltest_view_url":0},{"id":529674,"code":"B4KJ202201003-2210","latitude":"31.382","longitude":"130.865083","source_code":"QS20038971600200040002","project_name":"\u5bff\u5730\u533a\u5730\u8cea\u8abf\u67fb\u696d\u52d9","survey_name":"\u5bff\u5730\u533a\u5730\u8cea\u8abf\u67fb\u696d\u52d9","client_name":"\u56fd\u571f\u4ea4\u901a\u7701\u3000\u5927\u9685\u6cb3\u5ddd\u56fd\u9053\u4e8b\u52d9\u6240","boring_xml_url":72,"boring_view_url":1,"soilmap_view_url":null,"soiltest_xml_url":0,"soiltest_view_url":0},{"id":529673,"code":"B4KJ202201003-2209","latitude":"31.382417","longitude":"130.865417","source_code":"QS20038971600200040001","project_name":"\u5bff\u5730\u533a\u5730\u8cea\u8abf\u67fb\u696d\u52d9","survey_name":"\u5bff\u5730\u533a\u5730\u8cea\u8abf\u67fb\u696d\u52d9","client_name":"\u56fd\u571f\u4ea4\u901a\u7701\u3000\u5927\u9685\u6cb3\u5ddd\u56fd\u9053\u4e8b\u52d9\u6240","boring_xml_url":72,"boring_view_url":1,"soilmap_view_url":null,"soiltest_xml_url":0,"soiltest_view_url":0},{"id":529672,"code":"B4KJ202201003-2208","latitude":"31.4275","longitude":"130.954444","source_code":"QS20038971500200090019","project_name":"","survey_name":"\u4e32\u826f\u5ddd\u6a0b\u7ba1\u5468\u8fba\u5824\u9632\u8abf\u67fb\u696d\u52d9","client_name":"\"\u56fd\u4ea4\u7701\u4e5d\u5dde\u5730\u65b9\u6574\u5099\u5c40 \u5927\u9685\u6cb3\u5ddd\u56fd\u9053\u4e8b\u52d9\u6240 \u6cb3\u5ddd\u7ba1\u7406\u8ab2\"","boring_xml_url":72,"boring_view_url":1,"soilmap_view_url":null,"soiltest_xml_url":0,"soiltest_view_url":0},{"id":529671,"code":"B4KJ202201003-2207","latitude":"31.401944","longitude":"130.957778","source_code":"QS20038971500200090018","project_name":"","survey_name":"\u4e32\u826f\u5ddd\u6a0b\u7ba1\u5468\u8fba\u5824\u9632\u8abf\u67fb\u696d\u52d9","client_name":"\"\u56fd\u4ea4\u7701\u4e5d\u5dde\u5730\u65b9\u6574\u5099\u5c40 \u5927\u9685\u6cb3\u5ddd\u56fd\u9053\u4e8b\u52d9\u6240 \u6cb3\u5ddd\u7ba1\u7406\u8ab2\"","boring_xml_url":72,"boring_view_url":1,"soilmap_view_url":null,"soiltest_xml_url":0,"soiltest_view_url":0},{"id":529670,"code":"B4KJ202201003-2206","latitude":"31.393889","longitude":"130.961667","source_code":"QS20038971500200090017","project_name":"","survey_name":"\u4e32\u826f\u5ddd\u6a0b\u7ba1\u5468\u8fba\u5824\u9632\u8abf\u67fb\u696d\u52d9","client_name":"\"\u56fd\u4ea4\u7701\u4e5d\u5dde\u5730\u65b9\u6574\u5099\u5c40 \u5927\u9685\u6cb3\u5ddd\u56fd\u9053\u4e8b\u52d9\u6240 \u6cb3\u5ddd\u7ba1\u7406\u8ab2\"","boring_xml_url":72,"boring_view_url":1,"soilmap_view_url":null,"soiltest_xml_url":0,"soiltest_view_url":0},{"id":529669,"code":"B4KJ202201003-2205","latitude":"31.379722","longitude":"130.963611","source_code":"QS20038971500200090016","project_name":"","survey_name":"\u4e32\u826f\u5ddd\u6a0b\u7ba1\u5468\u8fba\u5824\u9632\u8abf\u67fb\u696d\u52d9","client_name":"\"\u56fd\u4ea4\u7701\u4e5d\u5dde\u5730\u65b9\u6574\u5099\u5c40 \u5927\u9685\u6cb3\u5ddd\u56fd\u9053\u4e8b\u52d9\u6240 \u6cb3\u5ddd\u7ba1\u7406\u8ab2\"","boring_xml_url":72,"boring_view_url":1,"soilmap_view_url":null,"soiltest_xml_url":0,"soiltest_view_url":0}]}}