{"header":{"xyz":{"source":[],"mosaic":false},"page":525,"raw":{"soiltest_result":"0","bbox":"57.598333,109.544722,1.933333,163.806111","page":"525"},"conditions":{"soiltest_result":0,"north":57.598333,"west":109.544722,"south":1.933333,"east":163.806111},"success":true,"message":""},"data":{"meta":{"total":212844,"page":525,"pages":7095,"count":30},"values":[{"id":529668,"code":"B4KJ202201003-2204","latitude":"31.367778","longitude":"130.967778","source_code":"QS20038971500200090015","project_name":"","survey_name":"\u4e32\u826f\u5ddd\u6a0b\u7ba1\u5468\u8fba\u5824\u9632\u8abf\u67fb\u696d\u52d9","client_name":"\"\u56fd\u4ea4\u7701\u4e5d\u5dde\u5730\u65b9\u6574\u5099\u5c40 \u5927\u9685\u6cb3\u5ddd\u56fd\u9053\u4e8b\u52d9\u6240 \u6cb3\u5ddd\u7ba1\u7406\u8ab2\"","boring_xml_url":72,"boring_view_url":1,"soilmap_view_url":null,"soiltest_xml_url":0,"soiltest_view_url":0},{"id":529667,"code":"B4KJ202201003-2203","latitude":"31.425556","longitude":"130.956111","source_code":"QS20038971500200090014","project_name":"","survey_name":"\u4e32\u826f\u5ddd\u6a0b\u7ba1\u5468\u8fba\u5824\u9632\u8abf\u67fb\u696d\u52d9","client_name":"\"\u56fd\u4ea4\u7701\u4e5d\u5dde\u5730\u65b9\u6574\u5099\u5c40 \u5927\u9685\u6cb3\u5ddd\u56fd\u9053\u4e8b\u52d9\u6240 \u6cb3\u5ddd\u7ba1\u7406\u8ab2\"","boring_xml_url":72,"boring_view_url":1,"soilmap_view_url":null,"soiltest_xml_url":0,"soiltest_view_url":0},{"id":529666,"code":"B4KJ202201003-2202","latitude":"31.361667","longitude":"130.918333","source_code":"QS20038971500200090013","project_name":"","survey_name":"\u4e32\u826f\u5ddd\u6a0b\u7ba1\u5468\u8fba\u5824\u9632\u8abf\u67fb\u696d\u52d9","client_name":"\"\u56fd\u4ea4\u7701\u4e5d\u5dde\u5730\u65b9\u6574\u5099\u5c40 \u5927\u9685\u6cb3\u5ddd\u56fd\u9053\u4e8b\u52d9\u6240 \u6cb3\u5ddd\u7ba1\u7406\u8ab2\"","boring_xml_url":72,"boring_view_url":1,"soilmap_view_url":null,"soiltest_xml_url":0,"soiltest_view_url":0},{"id":529665,"code":"B4KJ202201003-2201","latitude":"31.409722","longitude":"130.958889","source_code":"QS20038971500200090012","project_name":"","survey_name":"\u4e32\u826f\u5ddd\u6a0b\u7ba1\u5468\u8fba\u5824\u9632\u8abf\u67fb\u696d\u52d9","client_name":"\"\u56fd\u4ea4\u7701\u4e5d\u5dde\u5730\u65b9\u6574\u5099\u5c40 \u5927\u9685\u6cb3\u5ddd\u56fd\u9053\u4e8b\u52d9\u6240 \u6cb3\u5ddd\u7ba1\u7406\u8ab2\"","boring_xml_url":72,"boring_view_url":1,"soilmap_view_url":null,"soiltest_xml_url":0,"soiltest_view_url":0},{"id":529664,"code":"B4KJ202201003-2200","latitude":"31.409722","longitude":"130.958889","source_code":"QS20038971500200090011","project_name":"","survey_name":"\u4e32\u826f\u5ddd\u6a0b\u7ba1\u5468\u8fba\u5824\u9632\u8abf\u67fb\u696d\u52d9","client_name":"\"\u56fd\u4ea4\u7701\u4e5d\u5dde\u5730\u65b9\u6574\u5099\u5c40 \u5927\u9685\u6cb3\u5ddd\u56fd\u9053\u4e8b\u52d9\u6240 \u6cb3\u5ddd\u7ba1\u7406\u8ab2\"","boring_xml_url":72,"boring_view_url":1,"soilmap_view_url":null,"soiltest_xml_url":0,"soiltest_view_url":0},{"id":529663,"code":"B4KJ202201003-2199","latitude":"31.409722","longitude":"130.958889","source_code":"QS20038971500200090010","project_name":"","survey_name":"\u4e32\u826f\u5ddd\u6a0b\u7ba1\u5468\u8fba\u5824\u9632\u8abf\u67fb\u696d\u52d9","client_name":"\"\u56fd\u4ea4\u7701\u4e5d\u5dde\u5730\u65b9\u6574\u5099\u5c40 \u5927\u9685\u6cb3\u5ddd\u56fd\u9053\u4e8b\u52d9\u6240 \u6cb3\u5ddd\u7ba1\u7406\u8ab2\"","boring_xml_url":72,"boring_view_url":1,"soilmap_view_url":null,"soiltest_xml_url":0,"soiltest_view_url":0},{"id":529662,"code":"B4KJ202201003-2198","latitude":"31.398333","longitude":"130.960556","source_code":"QS20038971500200090009","project_name":"","survey_name":"\u4e32\u826f\u5ddd\u6a0b\u7ba1\u5468\u8fba\u5824\u9632\u8abf\u67fb\u696d\u52d9","client_name":"\"\u56fd\u4ea4\u7701\u4e5d\u5dde\u5730\u65b9\u6574\u5099\u5c40 \u5927\u9685\u6cb3\u5ddd\u56fd\u9053\u4e8b\u52d9\u6240 \u6cb3\u5ddd\u7ba1\u7406\u8ab2\"","boring_xml_url":72,"boring_view_url":1,"soilmap_view_url":null,"soiltest_xml_url":0,"soiltest_view_url":0},{"id":529661,"code":"B4KJ202201003-2197","latitude":"31.398333","longitude":"130.960556","source_code":"QS20038971500200090008","project_name":"","survey_name":"\u4e32\u826f\u5ddd\u6a0b\u7ba1\u5468\u8fba\u5824\u9632\u8abf\u67fb\u696d\u52d9","client_name":"\"\u56fd\u4ea4\u7701\u4e5d\u5dde\u5730\u65b9\u6574\u5099\u5c40 \u5927\u9685\u6cb3\u5ddd\u56fd\u9053\u4e8b\u52d9\u6240 \u6cb3\u5ddd\u7ba1\u7406\u8ab2\"","boring_xml_url":72,"boring_view_url":1,"soilmap_view_url":null,"soiltest_xml_url":0,"soiltest_view_url":0},{"id":529660,"code":"B4KJ202201003-2196","latitude":"31.398333","longitude":"130.960556","source_code":"QS20038971500200090007","project_name":"","survey_name":"\u4e32\u826f\u5ddd\u6a0b\u7ba1\u5468\u8fba\u5824\u9632\u8abf\u67fb\u696d\u52d9","client_name":"\"\u56fd\u4ea4\u7701\u4e5d\u5dde\u5730\u65b9\u6574\u5099\u5c40 \u5927\u9685\u6cb3\u5ddd\u56fd\u9053\u4e8b\u52d9\u6240 \u6cb3\u5ddd\u7ba1\u7406\u8ab2\"","boring_xml_url":72,"boring_view_url":1,"soilmap_view_url":null,"soiltest_xml_url":0,"soiltest_view_url":0},{"id":529659,"code":"B4KJ202201003-2195","latitude":"31.384167","longitude":"130.960556","source_code":"QS20038971500200090006","project_name":"","survey_name":"\u4e32\u826f\u5ddd\u6a0b\u7ba1\u5468\u8fba\u5824\u9632\u8abf\u67fb\u696d\u52d9","client_name":"\"\u56fd\u4ea4\u7701\u4e5d\u5dde\u5730\u65b9\u6574\u5099\u5c40 \u5927\u9685\u6cb3\u5ddd\u56fd\u9053\u4e8b\u52d9\u6240 \u6cb3\u5ddd\u7ba1\u7406\u8ab2\"","boring_xml_url":72,"boring_view_url":1,"soilmap_view_url":null,"soiltest_xml_url":0,"soiltest_view_url":0},{"id":529658,"code":"B4KJ202201003-2194","latitude":"31.384167","longitude":"130.960556","source_code":"QS20038971500200090005","project_name":"","survey_name":"\u4e32\u826f\u5ddd\u6a0b\u7ba1\u5468\u8fba\u5824\u9632\u8abf\u67fb\u696d\u52d9","client_name":"\"\u56fd\u4ea4\u7701\u4e5d\u5dde\u5730\u65b9\u6574\u5099\u5c40 \u5927\u9685\u6cb3\u5ddd\u56fd\u9053\u4e8b\u52d9\u6240 \u6cb3\u5ddd\u7ba1\u7406\u8ab2\"","boring_xml_url":72,"boring_view_url":1,"soilmap_view_url":null,"soiltest_xml_url":0,"soiltest_view_url":0},{"id":529657,"code":"B4KJ202201003-2193","latitude":"31.384167","longitude":"130.960556","source_code":"QS20038971500200090004","project_name":"","survey_name":"\u4e32\u826f\u5ddd\u6a0b\u7ba1\u5468\u8fba\u5824\u9632\u8abf\u67fb\u696d\u52d9","client_name":"\"\u56fd\u4ea4\u7701\u4e5d\u5dde\u5730\u65b9\u6574\u5099\u5c40 \u5927\u9685\u6cb3\u5ddd\u56fd\u9053\u4e8b\u52d9\u6240 \u6cb3\u5ddd\u7ba1\u7406\u8ab2\"","boring_xml_url":72,"boring_view_url":1,"soilmap_view_url":null,"soiltest_xml_url":0,"soiltest_view_url":0},{"id":529656,"code":"B4KJ202201003-2192","latitude":"31.384167","longitude":"130.961667","source_code":"QS20038971500200090003","project_name":"","survey_name":"\u4e32\u826f\u5ddd\u6a0b\u7ba1\u5468\u8fba\u5824\u9632\u8abf\u67fb\u696d\u52d9","client_name":"\"\u56fd\u4ea4\u7701\u4e5d\u5dde\u5730\u65b9\u6574\u5099\u5c40 \u5927\u9685\u6cb3\u5ddd\u56fd\u9053\u4e8b\u52d9\u6240 \u6cb3\u5ddd\u7ba1\u7406\u8ab2\"","boring_xml_url":72,"boring_view_url":1,"soilmap_view_url":null,"soiltest_xml_url":0,"soiltest_view_url":0},{"id":529655,"code":"B4KJ202201003-2191","latitude":"31.384167","longitude":"130.961667","source_code":"QS20038971500200090002","project_name":"","survey_name":"\u4e32\u826f\u5ddd\u6a0b\u7ba1\u5468\u8fba\u5824\u9632\u8abf\u67fb\u696d\u52d9","client_name":"\"\u56fd\u4ea4\u7701\u4e5d\u5dde\u5730\u65b9\u6574\u5099\u5c40 \u5927\u9685\u6cb3\u5ddd\u56fd\u9053\u4e8b\u52d9\u6240 \u6cb3\u5ddd\u7ba1\u7406\u8ab2\"","boring_xml_url":72,"boring_view_url":1,"soilmap_view_url":null,"soiltest_xml_url":0,"soiltest_view_url":0},{"id":529654,"code":"B4KJ202201003-2190","latitude":"31.384167","longitude":"130.961667","source_code":"QS20038971500200090001","project_name":"","survey_name":"\u4e32\u826f\u5ddd\u6a0b\u7ba1\u5468\u8fba\u5824\u9632\u8abf\u67fb\u696d\u52d9","client_name":"\"\u56fd\u4ea4\u7701\u4e5d\u5dde\u5730\u65b9\u6574\u5099\u5c40 \u5927\u9685\u6cb3\u5ddd\u56fd\u9053\u4e8b\u52d9\u6240 \u6cb3\u5ddd\u7ba1\u7406\u8ab2\"","boring_xml_url":72,"boring_view_url":1,"soilmap_view_url":null,"soiltest_xml_url":0,"soiltest_view_url":0},{"id":529653,"code":"B4KJ202201003-2189","latitude":"31.356306","longitude":"130.95075","source_code":"QS20038971500200080018","project_name":"\u9ad8\u5c71\u5ddd\u5916\u6a0b\u7ba1\u5468\u8fba\u5824\u9632\u8abf\u67fb\u696d\u52d9","survey_name":"\u9ad8\u5c71\u5ddd\u5916\u6a0b\u7ba1\u5468\u8fba\u5824\u9632\u8abf\u67fb\u696d\u52d9","client_name":"\u56fd\u571f\u4ea4\u901a\u7701\u4e5d\u5dde\u5730\u65b9\u6574\u5099\u5c40\u5927\u9685\u6cb3\u5ddd\u56fd\u9053\u4e8b\u52d9\u6240","boring_xml_url":72,"boring_view_url":1,"soilmap_view_url":null,"soiltest_xml_url":0,"soiltest_view_url":0},{"id":529652,"code":"B4KJ202201003-2188","latitude":"31.34575","longitude":"130.954639","source_code":"QS20038971500200080017","project_name":"\u9ad8\u5c71\u5ddd\u5916\u6a0b\u7ba1\u5468\u8fba\u5824\u9632\u8abf\u67fb\u696d\u52d9","survey_name":"\u9ad8\u5c71\u5ddd\u5916\u6a0b\u7ba1\u5468\u8fba\u5824\u9632\u8abf\u67fb\u696d\u52d9","client_name":"\u56fd\u571f\u4ea4\u901a\u7701\u4e5d\u5dde\u5730\u65b9\u6574\u5099\u5c40\u5927\u9685\u6cb3\u5ddd\u56fd\u9053\u4e8b\u52d9\u6240","boring_xml_url":72,"boring_view_url":1,"soilmap_view_url":null,"soiltest_xml_url":0,"soiltest_view_url":0},{"id":529651,"code":"B4KJ202201003-2187","latitude":"31.34575","longitude":"130.954639","source_code":"QS20038971500200080016","project_name":"\u9ad8\u5c71\u5ddd\u5916\u6a0b\u7ba1\u5468\u8fba\u5824\u9632\u8abf\u67fb\u696d\u52d9","survey_name":"\u9ad8\u5c71\u5ddd\u5916\u6a0b\u7ba1\u5468\u8fba\u5824\u9632\u8abf\u67fb\u696d\u52d9","client_name":"\u56fd\u571f\u4ea4\u901a\u7701\u4e5d\u5dde\u5730\u65b9\u6574\u5099\u5c40\u5927\u9685\u6cb3\u5ddd\u56fd\u9053\u4e8b\u52d9\u6240","boring_xml_url":72,"boring_view_url":1,"soilmap_view_url":null,"soiltest_xml_url":0,"soiltest_view_url":0},{"id":529650,"code":"B4KJ202201003-2186","latitude":"31.34575","longitude":"130.954639","source_code":"QS20038971500200080015","project_name":"\u9ad8\u5c71\u5ddd\u5916\u6a0b\u7ba1\u5468\u8fba\u5824\u9632\u8abf\u67fb\u696d\u52d9","survey_name":"\u9ad8\u5c71\u5ddd\u5916\u6a0b\u7ba1\u5468\u8fba\u5824\u9632\u8abf\u67fb\u696d\u52d9","client_name":"\u56fd\u571f\u4ea4\u901a\u7701\u4e5d\u5dde\u5730\u65b9\u6574\u5099\u5c40\u5927\u9685\u6cb3\u5ddd\u56fd\u9053\u4e8b\u52d9\u6240","boring_xml_url":72,"boring_view_url":1,"soilmap_view_url":null,"soiltest_xml_url":0,"soiltest_view_url":0},{"id":529649,"code":"B4KJ202201003-2185","latitude":"31.359639","longitude":"130.954639","source_code":"QS20038971500200080014","project_name":"\u9ad8\u5c71\u5ddd\u5916\u6a0b\u7ba1\u5468\u8fba\u5824\u9632\u8abf\u67fb\u696d\u52d9","survey_name":"\u9ad8\u5c71\u5ddd\u5916\u6a0b\u7ba1\u5468\u8fba\u5824\u9632\u8abf\u67fb\u696d\u52d9","client_name":"\u56fd\u571f\u4ea4\u901a\u7701\u4e5d\u5dde\u5730\u65b9\u6574\u5099\u5c40\u5927\u9685\u6cb3\u5ddd\u56fd\u9053\u4e8b\u52d9\u6240","boring_xml_url":72,"boring_view_url":1,"soilmap_view_url":null,"soiltest_xml_url":0,"soiltest_view_url":0},{"id":529648,"code":"B4KJ202201003-2184","latitude":"31.359917","longitude":"130.954361","source_code":"QS20038971500200080013","project_name":"\u9ad8\u5c71\u5ddd\u5916\u6a0b\u7ba1\u5468\u8fba\u5824\u9632\u8abf\u67fb\u696d\u52d9","survey_name":"\u9ad8\u5c71\u5ddd\u5916\u6a0b\u7ba1\u5468\u8fba\u5824\u9632\u8abf\u67fb\u696d\u52d9","client_name":"\u56fd\u571f\u4ea4\u901a\u7701\u4e5d\u5dde\u5730\u65b9\u6574\u5099\u5c40\u5927\u9685\u6cb3\u5ddd\u56fd\u9053\u4e8b\u52d9\u6240","boring_xml_url":72,"boring_view_url":1,"soilmap_view_url":null,"soiltest_xml_url":0,"soiltest_view_url":0},{"id":529647,"code":"B4KJ202201003-2183","latitude":"31.354083","longitude":"130.903806","source_code":"QS20038971500200080012","project_name":"\u9ad8\u5c71\u5ddd\u5916\u6a0b\u7ba1\u5468\u8fba\u5824\u9632\u8abf\u67fb\u696d\u52d9","survey_name":"\u9ad8\u5c71\u5ddd\u5916\u6a0b\u7ba1\u5468\u8fba\u5824\u9632\u8abf\u67fb\u696d\u52d9","client_name":"\u56fd\u571f\u4ea4\u901a\u7701\u4e5d\u5dde\u5730\u65b9\u6574\u5099\u5c40\u5927\u9685\u6cb3\u5ddd\u56fd\u9053\u4e8b\u52d9\u6240","boring_xml_url":72,"boring_view_url":1,"soilmap_view_url":null,"soiltest_xml_url":0,"soiltest_view_url":0},{"id":529646,"code":"B4KJ202201003-2182","latitude":"31.354083","longitude":"130.903806","source_code":"QS20038971500200080011","project_name":"\u9ad8\u5c71\u5ddd\u5916\u6a0b\u7ba1\u5468\u8fba\u5824\u9632\u8abf\u67fb\u696d\u52d9","survey_name":"\u9ad8\u5c71\u5ddd\u5916\u6a0b\u7ba1\u5468\u8fba\u5824\u9632\u8abf\u67fb\u696d\u52d9","client_name":"\u56fd\u571f\u4ea4\u901a\u7701\u4e5d\u5dde\u5730\u65b9\u6574\u5099\u5c40\u5927\u9685\u6cb3\u5ddd\u56fd\u9053\u4e8b\u52d9\u6240","boring_xml_url":72,"boring_view_url":1,"soilmap_view_url":null,"soiltest_xml_url":0,"soiltest_view_url":0},{"id":529645,"code":"B4KJ202201003-2181","latitude":"31.351861","longitude":"130.903806","source_code":"QS20038971500200080010","project_name":"\u9ad8\u5c71\u5ddd\u5916\u6a0b\u7ba1\u5468\u8fba\u5824\u9632\u8abf\u67fb\u696d\u52d9","survey_name":"\u9ad8\u5c71\u5ddd\u5916\u6a0b\u7ba1\u5468\u8fba\u5824\u9632\u8abf\u67fb\u696d\u52d9","client_name":"\u56fd\u571f\u4ea4\u901a\u7701\u4e5d\u5dde\u5730\u65b9\u6574\u5099\u5c40\u5927\u9685\u6cb3\u5ddd\u56fd\u9053\u4e8b\u52d9\u6240","boring_xml_url":72,"boring_view_url":1,"soilmap_view_url":null,"soiltest_xml_url":0,"soiltest_view_url":0},{"id":529644,"code":"B4KJ202201003-2180","latitude":"31.34575","longitude":"130.941583","source_code":"QS20038971500200080009","project_name":"\u9ad8\u5c71\u5ddd\u5916\u6a0b\u7ba1\u5468\u8fba\u5824\u9632\u8abf\u67fb\u696d\u52d9","survey_name":"\u9ad8\u5c71\u5ddd\u5916\u6a0b\u7ba1\u5468\u8fba\u5824\u9632\u8abf\u67fb\u696d\u52d9","client_name":"\u56fd\u571f\u4ea4\u901a\u7701\u4e5d\u5dde\u5730\u65b9\u6574\u5099\u5c40\u5927\u9685\u6cb3\u5ddd\u56fd\u9053\u4e8b\u52d9\u6240","boring_xml_url":72,"boring_view_url":1,"soilmap_view_url":null,"soiltest_xml_url":0,"soiltest_view_url":0},{"id":529643,"code":"B4KJ202201003-2179","latitude":"31.34575","longitude":"130.941583","source_code":"QS20038971500200080008","project_name":"\u9ad8\u5c71\u5ddd\u5916\u6a0b\u7ba1\u5468\u8fba\u5824\u9632\u8abf\u67fb\u696d\u52d9","survey_name":"\u9ad8\u5c71\u5ddd\u5916\u6a0b\u7ba1\u5468\u8fba\u5824\u9632\u8abf\u67fb\u696d\u52d9","client_name":"\u56fd\u571f\u4ea4\u901a\u7701\u4e5d\u5dde\u5730\u65b9\u6574\u5099\u5c40\u5927\u9685\u6cb3\u5ddd\u56fd\u9053\u4e8b\u52d9\u6240","boring_xml_url":72,"boring_view_url":1,"soilmap_view_url":null,"soiltest_xml_url":0,"soiltest_view_url":0},{"id":529642,"code":"B4KJ202201003-2178","latitude":"31.34575","longitude":"130.941583","source_code":"QS20038971500200080007","project_name":"\u9ad8\u5c71\u5ddd\u5916\u6a0b\u7ba1\u5468\u8fba\u5824\u9632\u8abf\u67fb\u696d\u52d9","survey_name":"\u9ad8\u5c71\u5ddd\u5916\u6a0b\u7ba1\u5468\u8fba\u5824\u9632\u8abf\u67fb\u696d\u52d9","client_name":"\u56fd\u571f\u4ea4\u901a\u7701\u4e5d\u5dde\u5730\u65b9\u6574\u5099\u5c40\u5927\u9685\u6cb3\u5ddd\u56fd\u9053\u4e8b\u52d9\u6240","boring_xml_url":72,"boring_view_url":1,"soilmap_view_url":null,"soiltest_xml_url":0,"soiltest_view_url":0},{"id":529641,"code":"B4KJ202201003-2177","latitude":"31.350194","longitude":"130.946583","source_code":"QS20038971500200080006","project_name":"\u9ad8\u5c71\u5ddd\u5916\u6a0b\u7ba1\u5468\u8fba\u5824\u9632\u8abf\u67fb\u696d\u52d9","survey_name":"\u9ad8\u5c71\u5ddd\u5916\u6a0b\u7ba1\u5468\u8fba\u5824\u9632\u8abf\u67fb\u696d\u52d9","client_name":"\u56fd\u571f\u4ea4\u901a\u7701\u4e5d\u5dde\u5730\u65b9\u6574\u5099\u5c40\u5927\u9685\u6cb3\u5ddd\u56fd\u9053\u4e8b\u52d9\u6240","boring_xml_url":72,"boring_view_url":1,"soilmap_view_url":null,"soiltest_xml_url":0,"soiltest_view_url":0},{"id":529640,"code":"B4KJ202201003-2176","latitude":"31.350194","longitude":"130.946583","source_code":"QS20038971500200080005","project_name":"\u9ad8\u5c71\u5ddd\u5916\u6a0b\u7ba1\u5468\u8fba\u5824\u9632\u8abf\u67fb\u696d\u52d9","survey_name":"\u9ad8\u5c71\u5ddd\u5916\u6a0b\u7ba1\u5468\u8fba\u5824\u9632\u8abf\u67fb\u696d\u52d9","client_name":"\u56fd\u571f\u4ea4\u901a\u7701\u4e5d\u5dde\u5730\u65b9\u6574\u5099\u5c40\u5927\u9685\u6cb3\u5ddd\u56fd\u9053\u4e8b\u52d9\u6240","boring_xml_url":72,"boring_view_url":1,"soilmap_view_url":null,"soiltest_xml_url":0,"soiltest_view_url":0},{"id":529639,"code":"B4KJ202201003-2175","latitude":"31.349917","longitude":"130.946583","source_code":"QS20038971500200080004","project_name":"\u9ad8\u5c71\u5ddd\u5916\u6a0b\u7ba1\u5468\u8fba\u5824\u9632\u8abf\u67fb\u696d\u52d9","survey_name":"\u9ad8\u5c71\u5ddd\u5916\u6a0b\u7ba1\u5468\u8fba\u5824\u9632\u8abf\u67fb\u696d\u52d9","client_name":"\u56fd\u571f\u4ea4\u901a\u7701\u4e5d\u5dde\u5730\u65b9\u6574\u5099\u5c40\u5927\u9685\u6cb3\u5ddd\u56fd\u9053\u4e8b\u52d9\u6240","boring_xml_url":72,"boring_view_url":1,"soilmap_view_url":null,"soiltest_xml_url":0,"soiltest_view_url":0}]}}