{"header":{"xyz":{"source":[],"mosaic":false},"page":5262,"raw":{"soiltest_result":"0","bbox":"57.598333,109.544722,1.933333,163.806111","page":"5262"},"conditions":{"soiltest_result":0,"north":57.598333,"west":109.544722,"south":1.933333,"east":163.806111},"success":true,"message":""},"data":{"meta":{"total":212844,"page":5262,"pages":7095,"count":30},"values":[{"id":162715,"code":"B4KJ201801005-0964","latitude":"36.16078742","longitude":"137.2441758","source_code":"CB0285346020630010","project_name":"","survey_name":"\u5e73\u621014\u5e74\u5ea6 \u5bae\u9ad8\u5c71\u30d0\u30a4\u30d1\u30b9\u5730\u8cea\u8abf\u67fb","client_name":"\u56fd\u571f\u4ea4\u901a\u7701\u4e2d\u90e8\u5730\u65b9\u6574\u5099\u5c40\u9ad8\u5c71\u56fd\u9053\u4e8b\u52d9\u6240","boring_xml_url":45,"boring_view_url":1,"soilmap_view_url":null,"soiltest_xml_url":0,"soiltest_view_url":0},{"id":162714,"code":"B4KJ201801005-0963","latitude":"36.11212772","longitude":"137.2603272","source_code":"CB0285346020630009","project_name":"","survey_name":"\u5e73\u621014\u5e74\u5ea6 \u5bae\u9ad8\u5c71\u30d0\u30a4\u30d1\u30b9\u5730\u8cea\u8abf\u67fb","client_name":"\u56fd\u571f\u4ea4\u901a\u7701\u4e2d\u90e8\u5730\u65b9\u6574\u5099\u5c40\u9ad8\u5c71\u56fd\u9053\u4e8b\u52d9\u6240","boring_xml_url":45,"boring_view_url":1,"soilmap_view_url":null,"soiltest_xml_url":0,"soiltest_view_url":0},{"id":162713,"code":"B4KJ201801005-0962","latitude":"36.1119619","longitude":"137.2602042","source_code":"CB0285346020630008","project_name":"","survey_name":"\u5e73\u621014\u5e74\u5ea6 \u5bae\u9ad8\u5c71\u30d0\u30a4\u30d1\u30b9\u5730\u8cea\u8abf\u67fb","client_name":"\u56fd\u571f\u4ea4\u901a\u7701\u4e2d\u90e8\u5730\u65b9\u6574\u5099\u5c40\u9ad8\u5c71\u56fd\u9053\u4e8b\u52d9\u6240","boring_xml_url":45,"boring_view_url":1,"soilmap_view_url":null,"soiltest_xml_url":0,"soiltest_view_url":0},{"id":162712,"code":"B4KJ201801005-0961","latitude":"36.11230792","longitude":"137.2608483","source_code":"CB0285346020630007","project_name":"","survey_name":"\u5e73\u621014\u5e74\u5ea6 \u5bae\u9ad8\u5c71\u30d0\u30a4\u30d1\u30b9\u5730\u8cea\u8abf\u67fb","client_name":"\u56fd\u571f\u4ea4\u901a\u7701\u4e2d\u90e8\u5730\u65b9\u6574\u5099\u5c40\u9ad8\u5c71\u56fd\u9053\u4e8b\u52d9\u6240","boring_xml_url":45,"boring_view_url":1,"soilmap_view_url":null,"soiltest_xml_url":0,"soiltest_view_url":0},{"id":162711,"code":"B4KJ201801005-0960","latitude":"36.11126419","longitude":"137.2612017","source_code":"CB0285346020630006","project_name":"","survey_name":"\u5e73\u621014\u5e74\u5ea6 \u5bae\u9ad8\u5c71\u30d0\u30a4\u30d1\u30b9\u5730\u8cea\u8abf\u67fb","client_name":"\u56fd\u571f\u4ea4\u901a\u7701\u4e2d\u90e8\u5730\u65b9\u6574\u5099\u5c40\u9ad8\u5c71\u56fd\u9053\u4e8b\u52d9\u6240","boring_xml_url":45,"boring_view_url":1,"soilmap_view_url":null,"soiltest_xml_url":0,"soiltest_view_url":0},{"id":162710,"code":"B4KJ201801005-0959","latitude":"36.11093158","longitude":"137.2608367","source_code":"CB0285346020630005","project_name":"","survey_name":"\u5e73\u621014\u5e74\u5ea6 \u5bae\u9ad8\u5c71\u30d0\u30a4\u30d1\u30b9\u5730\u8cea\u8abf\u67fb","client_name":"\u56fd\u571f\u4ea4\u901a\u7701\u4e2d\u90e8\u5730\u65b9\u6574\u5099\u5c40\u9ad8\u5c71\u56fd\u9053\u4e8b\u52d9\u6240","boring_xml_url":45,"boring_view_url":1,"soilmap_view_url":null,"soiltest_xml_url":0,"soiltest_view_url":0},{"id":162709,"code":"B4KJ201801005-0958","latitude":"36.10855925","longitude":"137.2602364","source_code":"CB0285346020630004","project_name":"","survey_name":"\u5e73\u621014\u5e74\u5ea6 \u5bae\u9ad8\u5c71\u30d0\u30a4\u30d1\u30b9\u5730\u8cea\u8abf\u67fb","client_name":"\u56fd\u571f\u4ea4\u901a\u7701\u4e2d\u90e8\u5730\u65b9\u6574\u5099\u5c40\u9ad8\u5c71\u56fd\u9053\u4e8b\u52d9\u6240","boring_xml_url":45,"boring_view_url":1,"soilmap_view_url":null,"soiltest_xml_url":0,"soiltest_view_url":0},{"id":162708,"code":"B4KJ201801005-0957","latitude":"36.10760308","longitude":"137.2595022","source_code":"CB0285346020630003","project_name":"","survey_name":"\u5e73\u621014\u5e74\u5ea6 \u5bae\u9ad8\u5c71\u30d0\u30a4\u30d1\u30b9\u5730\u8cea\u8abf\u67fb","client_name":"\u56fd\u571f\u4ea4\u901a\u7701\u4e2d\u90e8\u5730\u65b9\u6574\u5099\u5c40\u9ad8\u5c71\u56fd\u9053\u4e8b\u52d9\u6240","boring_xml_url":45,"boring_view_url":1,"soilmap_view_url":null,"soiltest_xml_url":0,"soiltest_view_url":0},{"id":162707,"code":"B4KJ201801005-0956","latitude":"36.10731","longitude":"137.2593061","source_code":"CB0285346020630002","project_name":"","survey_name":"\u5e73\u621014\u5e74\u5ea6 \u5bae\u9ad8\u5c71\u30d0\u30a4\u30d1\u30b9\u5730\u8cea\u8abf\u67fb","client_name":"\u56fd\u571f\u4ea4\u901a\u7701\u4e2d\u90e8\u5730\u65b9\u6574\u5099\u5c40\u9ad8\u5c71\u56fd\u9053\u4e8b\u52d9\u6240","boring_xml_url":45,"boring_view_url":1,"soilmap_view_url":null,"soiltest_xml_url":0,"soiltest_view_url":0},{"id":162706,"code":"B4KJ201801005-0955","latitude":"36.0991944","longitude":"137.2586997","source_code":"CB0285346020630001","project_name":"","survey_name":"\u5e73\u621014\u5e74\u5ea6 \u5bae\u9ad8\u5c71\u30d0\u30a4\u30d1\u30b9\u5730\u8cea\u8abf\u67fb","client_name":"\u56fd\u571f\u4ea4\u901a\u7701\u4e2d\u90e8\u5730\u65b9\u6574\u5099\u5c40\u9ad8\u5c71\u56fd\u9053\u4e8b\u52d9\u6240","boring_xml_url":45,"boring_view_url":1,"soilmap_view_url":null,"soiltest_xml_url":0,"soiltest_view_url":0},{"id":162705,"code":"B4KJ201801005-0954","latitude":"35.4072758","longitude":"136.9156694","source_code":"CB0285336021270004","project_name":"\u5742\u795d\u30d0\u30a4\u30d1\u30b9","survey_name":"\u5e73\u621014\u5e74\u5ea6 21\u53f7\u5742\u795dBP\u5404\u52d9\u539f\u5730\u533a\u5730\u8cea\u8abf\u67fb","client_name":"\u56fd\u571f\u4ea4\u901a\u7701\u4e2d\u90e8\u5730\u65b9\u6574\u5099\u5c40\u5c90\u961c\u56fd\u9053\u5de5\u4e8b\u4e8b\u52d9\u6240","boring_xml_url":45,"boring_view_url":1,"soilmap_view_url":null,"soiltest_xml_url":0,"soiltest_view_url":0},{"id":162704,"code":"B4KJ201801005-0953","latitude":"35.4140528","longitude":"136.9155858","source_code":"CB0285336021270003","project_name":"\u5742\u795d\u30d0\u30a4\u30d1\u30b9","survey_name":"\u5e73\u621014\u5e74\u5ea6 21\u53f7\u5742\u795dBP\u5404\u52d9\u539f\u5730\u533a\u5730\u8cea\u8abf\u67fb","client_name":"\u56fd\u571f\u4ea4\u901a\u7701\u4e2d\u90e8\u5730\u65b9\u6574\u5099\u5c40\u5c90\u961c\u56fd\u9053\u5de5\u4e8b\u4e8b\u52d9\u6240","boring_xml_url":45,"boring_view_url":1,"soilmap_view_url":null,"soiltest_xml_url":0,"soiltest_view_url":0},{"id":162703,"code":"B4KJ201801005-0952","latitude":"35.4138861","longitude":"136.9158636","source_code":"CB0285336021270002","project_name":"\u5742\u795d\u30d0\u30a4\u30d1\u30b9","survey_name":"\u5e73\u621014\u5e74\u5ea6 21\u53f7\u5742\u795dBP\u5404\u52d9\u539f\u5730\u533a\u5730\u8cea\u8abf\u67fb","client_name":"\u56fd\u571f\u4ea4\u901a\u7701\u4e2d\u90e8\u5730\u65b9\u6574\u5099\u5c40\u5c90\u961c\u56fd\u9053\u5de5\u4e8b\u4e8b\u52d9\u6240","boring_xml_url":45,"boring_view_url":1,"soilmap_view_url":null,"soiltest_xml_url":0,"soiltest_view_url":0},{"id":162702,"code":"B4KJ201801005-0951","latitude":"35.4194414","longitude":"136.9224464","source_code":"CB0285336021270001","project_name":"\u5742\u795d\u30d0\u30a4\u30d1\u30b9","survey_name":"\u5e73\u621014\u5e74\u5ea6 21\u53f7\u5742\u795dBP\u5404\u52d9\u539f\u5730\u533a\u5730\u8cea\u8abf\u67fb","client_name":"\u56fd\u571f\u4ea4\u901a\u7701\u4e2d\u90e8\u5730\u65b9\u6574\u5099\u5c40\u5c90\u961c\u56fd\u9053\u5de5\u4e8b\u4e8b\u52d9\u6240","boring_xml_url":45,"boring_view_url":1,"soilmap_view_url":null,"soiltest_xml_url":0,"soiltest_view_url":0},{"id":162701,"code":"B4KJ201801005-0950","latitude":"35.5056242","longitude":"136.8512828","source_code":"CB0285336021250006","project_name":"\u5e73\u621014\u5e74\u5ea6 \u6771\u6d77\u74b0\u72b6\u5c90\u961c\u4e09\u8f2a\u5730\u533a\u5730\u8cea\u8abf\u67fb","survey_name":"\u5e73\u621014\u5e74\u5ea6 \u6771\u6d77\u74b0\u72b6\u5c90\u961c\u4e09\u8f2a\u5730\u533a\u5730\u8cea\u8abf\u67fb","client_name":"\u56fd\u571f\u4ea4\u901a\u7701\u4e2d\u90e8\u5730\u65b9\u6574\u5099\u5c40\u5c90\u961c\u56fd\u9053\u5de5\u4e8b\u4e8b\u52d9\u6240","boring_xml_url":45,"boring_view_url":1,"soilmap_view_url":null,"soiltest_xml_url":46,"soiltest_view_url":46},{"id":162700,"code":"B4KJ201801005-0949","latitude":"35.5132061","longitude":"136.8340061","source_code":"CB0285336021250005","project_name":"\u5e73\u621014\u5e74\u5ea6 \u6771\u6d77\u74b0\u72b6\u5c90\u961c\u4e09\u8f2a\u5730\u533a\u5730\u8cea\u8abf\u67fb","survey_name":"\u5e73\u621014\u5e74\u5ea6 \u6771\u6d77\u74b0\u72b6\u5c90\u961c\u4e09\u8f2a\u5730\u533a\u5730\u8cea\u8abf\u67fb","client_name":"\u56fd\u571f\u4ea4\u901a\u7701\u4e2d\u90e8\u5730\u65b9\u6574\u5099\u5c40\u5c90\u961c\u56fd\u9053\u5de5\u4e8b\u4e8b\u52d9\u6240","boring_xml_url":45,"boring_view_url":1,"soilmap_view_url":null,"soiltest_xml_url":0,"soiltest_view_url":0},{"id":162699,"code":"B4KJ201801005-0948","latitude":"35.5129006","longitude":"136.8316453","source_code":"CB0285336021250004","project_name":"\u5e73\u621014\u5e74\u5ea6 \u6771\u6d77\u74b0\u72b6\u5c90\u961c\u4e09\u8f2a\u5730\u533a\u5730\u8cea\u8abf\u67fb","survey_name":"\u5e73\u621014\u5e74\u5ea6 \u6771\u6d77\u74b0\u72b6\u5c90\u961c\u4e09\u8f2a\u5730\u533a\u5730\u8cea\u8abf\u67fb","client_name":"\u56fd\u571f\u4ea4\u901a\u7701\u4e2d\u90e8\u5730\u65b9\u6574\u5099\u5c40\u5c90\u961c\u56fd\u9053\u5de5\u4e8b\u4e8b\u52d9\u6240","boring_xml_url":45,"boring_view_url":1,"soilmap_view_url":null,"soiltest_xml_url":46,"soiltest_view_url":46},{"id":162698,"code":"B4KJ201801005-0947","latitude":"35.5129006","longitude":"136.8288122","source_code":"CB0285336021250003","project_name":"\u5e73\u621014\u5e74\u5ea6 \u6771\u6d77\u74b0\u72b6\u5c90\u961c\u4e09\u8f2a\u5730\u533a\u5730\u8cea\u8abf\u67fb","survey_name":"\u5e73\u621014\u5e74\u5ea6 \u6771\u6d77\u74b0\u72b6\u5c90\u961c\u4e09\u8f2a\u5730\u533a\u5730\u8cea\u8abf\u67fb","client_name":"\u56fd\u571f\u4ea4\u901a\u7701\u4e2d\u90e8\u5730\u65b9\u6574\u5099\u5c40\u5c90\u961c\u56fd\u9053\u5de5\u4e8b\u4e8b\u52d9\u6240","boring_xml_url":45,"boring_view_url":1,"soilmap_view_url":null,"soiltest_xml_url":0,"soiltest_view_url":0},{"id":162697,"code":"B4KJ201801005-0946","latitude":"35.5120672","longitude":"136.8221739","source_code":"CB0285336021250002","project_name":"\u5e73\u621014\u5e74\u5ea6 \u6771\u6d77\u74b0\u72b6\u5c90\u961c\u4e09\u8f2a\u5730\u533a\u5730\u8cea\u8abf\u67fb","survey_name":"\u5e73\u621014\u5e74\u5ea6 \u6771\u6d77\u74b0\u72b6\u5c90\u961c\u4e09\u8f2a\u5730\u533a\u5730\u8cea\u8abf\u67fb","client_name":"\u56fd\u571f\u4ea4\u901a\u7701\u4e2d\u90e8\u5730\u65b9\u6574\u5099\u5c40\u5c90\u961c\u56fd\u9053\u5de5\u4e8b\u4e8b\u52d9\u6240","boring_xml_url":45,"boring_view_url":1,"soilmap_view_url":null,"soiltest_xml_url":0,"soiltest_view_url":0},{"id":162696,"code":"B4KJ201801005-0945","latitude":"35.5112617","longitude":"136.8198686","source_code":"CB0285336021250001","project_name":"\u5e73\u621014\u5e74\u5ea6 \u6771\u6d77\u74b0\u72b6\u5c90\u961c\u4e09\u8f2a\u5730\u533a\u5730\u8cea\u8abf\u67fb","survey_name":"\u5e73\u621014\u5e74\u5ea6 \u6771\u6d77\u74b0\u72b6\u5c90\u961c\u4e09\u8f2a\u5730\u533a\u5730\u8cea\u8abf\u67fb","client_name":"\u56fd\u571f\u4ea4\u901a\u7701\u4e2d\u90e8\u5730\u65b9\u6574\u5099\u5c40\u5c90\u961c\u56fd\u9053\u5de5\u4e8b\u4e8b\u52d9\u6240","boring_xml_url":45,"boring_view_url":1,"soilmap_view_url":null,"soiltest_xml_url":0,"soiltest_view_url":0},{"id":162695,"code":"B4KJ201801005-0944","latitude":"35.3400531","longitude":"136.5779514","source_code":"CB0285336021240004","project_name":"\u5e73\u621014\u5e74\u5ea6\u6771\u6d77\u74b0\u72b6\u990a\u8001\u5730\u533a\u5730\u8cea\u8abf\u67fb","survey_name":"\u5e73\u621014\u5e74\u5ea6\u6771\u6d77\u74b0\u72b6\u990a\u8001\u5730\u533a\u5730\u8cea\u8abf\u67fb","client_name":"\u56fd\u571f\u4ea4\u901a\u7701\u4e2d\u90e8\u5730\u65b9\u6574\u5099\u5c40\u5c90\u961c\u56fd\u9053\u5de5\u4e8b\u4e8b\u52d9\u6240","boring_xml_url":45,"boring_view_url":1,"soilmap_view_url":null,"soiltest_xml_url":46,"soiltest_view_url":46},{"id":162694,"code":"B4KJ201801005-0943","latitude":"35.3388311","longitude":"136.5780628","source_code":"CB0285336021240003","project_name":"\u5e73\u621014\u5e74\u5ea6\u6771\u6d77\u74b0\u72b6\u990a\u8001\u5730\u533a\u5730\u8cea\u8abf\u67fb","survey_name":"\u5e73\u621014\u5e74\u5ea6\u6771\u6d77\u74b0\u72b6\u990a\u8001\u5730\u533a\u5730\u8cea\u8abf\u67fb","client_name":"\u56fd\u571f\u4ea4\u901a\u7701\u4e2d\u90e8\u5730\u65b9\u6574\u5099\u5c40\u5c90\u961c\u56fd\u9053\u5de5\u4e8b\u4e8b\u52d9\u6240","boring_xml_url":45,"boring_view_url":1,"soilmap_view_url":null,"soiltest_xml_url":46,"soiltest_view_url":46},{"id":162693,"code":"B4KJ201801005-0942","latitude":"35.3381367","longitude":"136.5782017","source_code":"CB0285336021240002","project_name":"\u5e73\u621014\u5e74\u5ea6\u6771\u6d77\u74b0\u72b6\u990a\u8001\u5730\u533a\u5730\u8cea\u8abf\u67fb","survey_name":"\u5e73\u621014\u5e74\u5ea6\u6771\u6d77\u74b0\u72b6\u990a\u8001\u5730\u533a\u5730\u8cea\u8abf\u67fb","client_name":"\u56fd\u571f\u4ea4\u901a\u7701\u4e2d\u90e8\u5730\u65b9\u6574\u5099\u5c40\u5c90\u961c\u56fd\u9053\u5de5\u4e8b\u4e8b\u52d9\u6240","boring_xml_url":45,"boring_view_url":1,"soilmap_view_url":null,"soiltest_xml_url":46,"soiltest_view_url":46},{"id":162692,"code":"B4KJ201801005-0941","latitude":"35.3371089","longitude":"136.5785072","source_code":"CB0285336021240001","project_name":"\u5e73\u621014\u5e74\u5ea6\u6771\u6d77\u74b0\u72b6\u990a\u8001\u5730\u533a\u5730\u8cea\u8abf\u67fb","survey_name":"\u5e73\u621014\u5e74\u5ea6\u6771\u6d77\u74b0\u72b6\u990a\u8001\u5730\u533a\u5730\u8cea\u8abf\u67fb","client_name":"\u56fd\u571f\u4ea4\u901a\u7701\u4e2d\u90e8\u5730\u65b9\u6574\u5099\u5c40\u5c90\u961c\u56fd\u9053\u5de5\u4e8b\u4e8b\u52d9\u6240","boring_xml_url":45,"boring_view_url":1,"soilmap_view_url":null,"soiltest_xml_url":46,"soiltest_view_url":46},{"id":162691,"code":"B4KJ201801005-0940","latitude":"35.8422253","longitude":"136.8812675","source_code":"CB0285336020710020","project_name":"\u5e73\u621014\u5e74\u5ea6 156\u53f7\u5927\u548c\u6539\u826f\u5730\u8cea\u8abf\u67fb","survey_name":"\u5e73\u621014\u5e74\u5ea6 156\u53f7\u5927\u548c\u6539\u826f\u5730\u8cea\u8abf\u67fb","client_name":"\u56fd\u571f\u4ea4\u901a\u7701\u4e2d\u90e8\u5730\u65b9\u6574\u5099\u5c40\u5c90\u961c\u56fd\u9053\u5de5\u4e8b\u4e8b\u52d9\u6240","boring_xml_url":45,"boring_view_url":1,"soilmap_view_url":null,"soiltest_xml_url":0,"soiltest_view_url":0},{"id":162690,"code":"B4KJ201801005-0939","latitude":"35.84142","longitude":"136.8815175","source_code":"CB0285336020710019","project_name":"\u5e73\u621014\u5e74\u5ea6 156\u53f7\u5927\u548c\u6539\u826f\u5730\u8cea\u8abf\u67fb","survey_name":"\u5e73\u621014\u5e74\u5ea6 156\u53f7\u5927\u548c\u6539\u826f\u5730\u8cea\u8abf\u67fb","client_name":"\u56fd\u571f\u4ea4\u901a\u7701\u4e2d\u90e8\u5730\u65b9\u6574\u5099\u5c40\u5c90\u961c\u56fd\u9053\u5de5\u4e8b\u4e8b\u52d9\u6240","boring_xml_url":45,"boring_view_url":1,"soilmap_view_url":null,"soiltest_xml_url":0,"soiltest_view_url":0},{"id":162689,"code":"B4KJ201801005-0938","latitude":"35.8411422","longitude":"136.8817675","source_code":"CB0285336020710018","project_name":"\u5e73\u621014\u5e74\u5ea6 156\u53f7\u5927\u548c\u6539\u826f\u5730\u8cea\u8abf\u67fb","survey_name":"\u5e73\u621014\u5e74\u5ea6 156\u53f7\u5927\u548c\u6539\u826f\u5730\u8cea\u8abf\u67fb","client_name":"\u56fd\u571f\u4ea4\u901a\u7701\u4e2d\u90e8\u5730\u65b9\u6574\u5099\u5c40\u5c90\u961c\u56fd\u9053\u5de5\u4e8b\u4e8b\u52d9\u6240","boring_xml_url":45,"boring_view_url":1,"soilmap_view_url":null,"soiltest_xml_url":0,"soiltest_view_url":0},{"id":162688,"code":"B4KJ201801005-0937","latitude":"35.8337819","longitude":"136.8874339","source_code":"CB0285336020710017","project_name":"\u5e73\u621014\u5e74\u5ea6 156\u53f7\u5927\u548c\u6539\u826f\u5730\u8cea\u8abf\u67fb","survey_name":"\u5e73\u621014\u5e74\u5ea6 156\u53f7\u5927\u548c\u6539\u826f\u5730\u8cea\u8abf\u67fb","client_name":"\u56fd\u571f\u4ea4\u901a\u7701\u4e2d\u90e8\u5730\u65b9\u6574\u5099\u5c40\u5c90\u961c\u56fd\u9053\u5de5\u4e8b\u4e8b\u52d9\u6240","boring_xml_url":45,"boring_view_url":1,"soilmap_view_url":null,"soiltest_xml_url":0,"soiltest_view_url":0},{"id":162687,"code":"B4KJ201801005-0936","latitude":"35.8332822","longitude":"136.8873228","source_code":"CB0285336020710016","project_name":"\u5e73\u621014\u5e74\u5ea6 156\u53f7\u5927\u548c\u6539\u826f\u5730\u8cea\u8abf\u67fb","survey_name":"\u5e73\u621014\u5e74\u5ea6 156\u53f7\u5927\u548c\u6539\u826f\u5730\u8cea\u8abf\u67fb","client_name":"\u56fd\u571f\u4ea4\u901a\u7701\u4e2d\u90e8\u5730\u65b9\u6574\u5099\u5c40\u5c90\u961c\u56fd\u9053\u5de5\u4e8b\u4e8b\u52d9\u6240","boring_xml_url":45,"boring_view_url":1,"soilmap_view_url":null,"soiltest_xml_url":0,"soiltest_view_url":0},{"id":162686,"code":"B4KJ201801005-0935","latitude":"35.8278106","longitude":"136.8882953","source_code":"CB0285336020710015","project_name":"\u5e73\u621014\u5e74\u5ea6 156\u53f7\u5927\u548c\u6539\u826f\u5730\u8cea\u8abf\u67fb","survey_name":"\u5e73\u621014\u5e74\u5ea6 156\u53f7\u5927\u548c\u6539\u826f\u5730\u8cea\u8abf\u67fb","client_name":"\u56fd\u571f\u4ea4\u901a\u7701\u4e2d\u90e8\u5730\u65b9\u6574\u5099\u5c40\u5c90\u961c\u56fd\u9053\u5de5\u4e8b\u4e8b\u52d9\u6240","boring_xml_url":45,"boring_view_url":1,"soilmap_view_url":null,"soiltest_xml_url":0,"soiltest_view_url":0}]}}