{"header":{"xyz":{"source":[],"mosaic":false},"page":5271,"raw":{"soiltest_result":"0","bbox":"57.598333,109.544722,1.933333,163.806111","page":"5271"},"conditions":{"soiltest_result":0,"north":57.598333,"west":109.544722,"south":1.933333,"east":163.806111},"success":true,"message":""},"data":{"meta":{"total":212844,"page":5271,"pages":7095,"count":30},"values":[{"id":162445,"code":"B4KJ201801005-0694","latitude":"38.06359684","longitude":"139.6778749","source_code":"HR57390574002","project_name":"","survey_name":"\u91d1\u4e38\u9053\u8def\u5730\u8cea\u8abf\u67fb","client_name":"\u5efa\u8a2d\u7701\u5317\u9678\u5730\u65b9\u5efa\u8a2d\u5c40\u7fbd\u8d8a\u5de5\u4e8b\u4e8b\u52d9\u6240","boring_xml_url":40,"boring_view_url":1,"soilmap_view_url":null,"soiltest_xml_url":0,"soiltest_view_url":0},{"id":162444,"code":"B4KJ201801005-0693","latitude":"38.06551299","longitude":"139.6642928","source_code":"HR57390573013","project_name":"","survey_name":"113\u53f7\u707d\u5bb3\u5bfe\u7b56\u306b\u5bfe\u3059\u308b\u5177\u4f53\u7684\u8abf\u67fb","client_name":"\u5efa\u8a2d\u7701\u5317\u9678\u5730\u65b9\u5efa\u8a2d\u5c40\u7fbd\u8d8a\u5de5\u4e8b\u4e8b\u52d9\u6240","boring_xml_url":40,"boring_view_url":1,"soilmap_view_url":null,"soiltest_xml_url":0,"soiltest_view_url":0},{"id":162443,"code":"B4KJ201801005-0692","latitude":"38.06137469","longitude":"139.6667372","source_code":"HR57390573012","project_name":"","survey_name":"\u91d1\u4e38\u9053\u8def\u5730\u8cea\u8abf\u67fb","client_name":"\u5efa\u8a2d\u7701\u5317\u9678\u5730\u65b9\u5efa\u8a2d\u5c40\u7fbd\u8d8a\u5de5\u4e8b\u4e8b\u52d9\u6240","boring_xml_url":40,"boring_view_url":1,"soilmap_view_url":null,"soiltest_xml_url":0,"soiltest_view_url":0},{"id":162442,"code":"B4KJ201801005-0691","latitude":"38.06206903","longitude":"139.6660151","source_code":"HR57390573011","project_name":"","survey_name":"\u91d1\u4e38\u9053\u8def\u5730\u8cea\u8abf\u67fb","client_name":"\u5efa\u8a2d\u7701\u5317\u9678\u5730\u65b9\u5efa\u8a2d\u5c40\u7fbd\u8d8a\u5de5\u4e8b\u4e8b\u52d9\u6240","boring_xml_url":40,"boring_view_url":1,"soilmap_view_url":null,"soiltest_xml_url":0,"soiltest_view_url":0},{"id":162441,"code":"B4KJ201801005-0690","latitude":"38.06187462","longitude":"139.6664039","source_code":"HR57390573010","project_name":"","survey_name":"\u91d1\u4e38\u9053\u8def\u5730\u8cea\u8abf\u67fb","client_name":"\u5efa\u8a2d\u7701\u5317\u9678\u5730\u65b9\u5efa\u8a2d\u5c40\u7fbd\u8d8a\u5de5\u4e8b\u4e8b\u52d9\u6240","boring_xml_url":40,"boring_view_url":1,"soilmap_view_url":null,"soiltest_xml_url":0,"soiltest_view_url":0},{"id":162440,"code":"B4KJ201801005-0689","latitude":"38.06234677","longitude":"139.6659873","source_code":"HR57390573009","project_name":"","survey_name":"\u91d1\u4e38\u9053\u8def\u5730\u8cea\u8abf\u67fb","client_name":"\u5efa\u8a2d\u7701\u5317\u9678\u5730\u65b9\u5efa\u8a2d\u5c40\u7fbd\u8d8a\u5de5\u4e8b\u4e8b\u52d9\u6240","boring_xml_url":40,"boring_view_url":1,"soilmap_view_url":null,"soiltest_xml_url":0,"soiltest_view_url":0},{"id":162439,"code":"B4KJ201801005-0688","latitude":"38.06348549","longitude":"139.6650151","source_code":"HR57390573008","project_name":"","survey_name":"\u91d1\u4e38\u9053\u8def\u5730\u8cea\u8abf\u67fb","client_name":"\u5efa\u8a2d\u7701\u5317\u9678\u5730\u65b9\u5efa\u8a2d\u5c40\u7fbd\u8d8a\u5de5\u4e8b\u4e8b\u52d9\u6240","boring_xml_url":40,"boring_view_url":1,"soilmap_view_url":null,"soiltest_xml_url":0,"soiltest_view_url":0},{"id":162438,"code":"B4KJ201801005-0687","latitude":"38.06898477","longitude":"139.663876","source_code":"HR57390573001","project_name":"","survey_name":"\u82b1\u7acb\u53ca\u3073\u91d1\u4e38\u30dc\u30fc\u30ea\u30f3\u30b0\u4f5c\u696d","client_name":"\u5efa\u8a2d\u7701\u5317\u9678\u5730\u65b9\u5efa\u8a2d\u5c40\u7fbd\u8d8a\u5de5\u4e8b\u4e8b\u52d9\u6240","boring_xml_url":40,"boring_view_url":1,"soilmap_view_url":null,"soiltest_xml_url":0,"soiltest_view_url":0},{"id":162437,"code":"B4KJ201801005-0686","latitude":"38.06109882","longitude":"139.7422028","source_code":"HR57390569001","project_name":"","survey_name":"\u5c0f\u5742\u753a\u5730\u76e4\u8abf\u67fb\u4f5c\u696d(\u305d\u306e2)","client_name":"\u5efa\u8a2d\u7701\u5317\u9678\u5730\u65b9\u5efa\u8a2d\u5c40\u98ef\u8c4a\u5c71\u7cfb\u7802\u9632\u5de5\u4e8b\u4e8b\u52d9\u6240","boring_xml_url":40,"boring_view_url":1,"soilmap_view_url":null,"soiltest_xml_url":0,"soiltest_view_url":0},{"id":162436,"code":"B4KJ201801005-0685","latitude":"38.0610415","longitude":"139.6708479","source_code":"HR57390563002","project_name":"","survey_name":"\u91d1\u4e38\u9053\u8def\u5730\u8cea\u8abf\u67fb","client_name":"\u5efa\u8a2d\u7701\u5317\u9678\u5730\u65b9\u5efa\u8a2d\u5c40\u7fbd\u8d8a\u5de5\u4e8b\u4e8b\u52d9\u6240","boring_xml_url":40,"boring_view_url":1,"soilmap_view_url":null,"soiltest_xml_url":0,"soiltest_view_url":0},{"id":162435,"code":"B4KJ201801005-0684","latitude":"38.06087481","longitude":"139.668987","source_code":"HR57390563001","project_name":"","survey_name":"\u91d1\u4e38\u9053\u8def\u5730\u8cea\u8abf\u67fb","client_name":"\u5efa\u8a2d\u7701\u5317\u9678\u5730\u65b9\u5efa\u8a2d\u5c40\u7fbd\u8d8a\u5de5\u4e8b\u4e8b\u52d9\u6240","boring_xml_url":40,"boring_view_url":1,"soilmap_view_url":null,"soiltest_xml_url":0,"soiltest_view_url":0},{"id":162434,"code":"B4KJ201801005-0683","latitude":"38.03518455","longitude":"139.7175119","source_code":"HR57390537004","project_name":"","survey_name":"\u5b9a\u30ce\u53e3\u6ca2\u5730\u8cea\u8abf\u67fb\u4f5c\u696d","client_name":"\u5efa\u8a2d\u7701\u5317\u9678\u5730\u65b9\u5efa\u8a2d\u5c40\u98ef\u8c4a\u5c71\u7cfb\u7802\u9632\u5de5\u4e8b\u4e8b\u52d9\u6240","boring_xml_url":40,"boring_view_url":1,"soilmap_view_url":null,"soiltest_xml_url":0,"soiltest_view_url":0},{"id":162433,"code":"B4KJ201801005-0682","latitude":"38.03521234","longitude":"139.7180674","source_code":"HR57390537003","project_name":"","survey_name":"\u5b9a\u30ce\u53e3\u6ca2\u5730\u8cea\u8abf\u67fb\u4f5c\u696d","client_name":"\u5efa\u8a2d\u7701\u5317\u9678\u5730\u65b9\u5efa\u8a2d\u5c40\u98ef\u8c4a\u5c71\u7cfb\u7802\u9632\u5de5\u4e8b\u4e8b\u52d9\u6240","boring_xml_url":40,"boring_view_url":1,"soilmap_view_url":null,"soiltest_xml_url":0,"soiltest_view_url":0},{"id":162432,"code":"B4KJ201801005-0681","latitude":"38.03510123","longitude":"139.7177897","source_code":"HR57390537002","project_name":"","survey_name":"\u5b9a\u30ce\u53e3\u6ca2\u5730\u8cea\u8abf\u67fb\u4f5c\u696d","client_name":"\u5efa\u8a2d\u7701\u5317\u9678\u5730\u65b9\u5efa\u8a2d\u5c40\u98ef\u8c4a\u5c71\u7cfb\u7802\u9632\u5de5\u4e8b\u4e8b\u52d9\u6240","boring_xml_url":40,"boring_view_url":1,"soilmap_view_url":null,"soiltest_xml_url":0,"soiltest_view_url":0},{"id":162431,"code":"B4KJ201801005-0680","latitude":"38.03362919","longitude":"139.717512","source_code":"HR57390537001","project_name":"","survey_name":"\u5b9a\u30ce\u53e3\u6ca2\u5730\u8cea\u8abf\u67fb\u4f5c\u696d","client_name":"\u5efa\u8a2d\u7701\u5317\u9678\u5730\u65b9\u5efa\u8a2d\u5c40\u98ef\u8c4a\u5c71\u7cfb\u7802\u9632\u5de5\u4e8b\u4e8b\u52d9\u6240","boring_xml_url":40,"boring_view_url":1,"soilmap_view_url":null,"soiltest_xml_url":0,"soiltest_view_url":0},{"id":162430,"code":"B4KJ201801005-0679","latitude":"38.0698171","longitude":"139.6096306","source_code":"HR57390489001","project_name":"","survey_name":"\u9df9\u30ce\u5de3\u5730\u533a\u5730\u8cea\u8abf\u67fb\u4f5c\u696d","client_name":"\u5efa\u8a2d\u7701\u5317\u9678\u5730\u65b9\u5efa\u8a2d\u5c40\u7fbd\u8d8a\u5de5\u4e8b\u4e8b\u52d9\u6240","boring_xml_url":40,"boring_view_url":1,"soilmap_view_url":null,"soiltest_xml_url":0,"soiltest_view_url":0},{"id":162429,"code":"B4KJ201801005-0678","latitude":"38.06917831","longitude":"139.6109638","source_code":"HR57390479001","project_name":"","survey_name":"\u9df9\u30ce\u5de3\u5730\u533a\u5730\u8cea\u8abf\u67fb\u4f5c\u696d","client_name":"\u5efa\u8a2d\u7701\u5317\u9678\u5730\u65b9\u5efa\u8a2d\u5c40\u7fbd\u8d8a\u5de5\u4e8b\u4e8b\u52d9\u6240","boring_xml_url":40,"boring_view_url":1,"soilmap_view_url":null,"soiltest_xml_url":0,"soiltest_view_url":0},{"id":162428,"code":"B4KJ201801005-0677","latitude":"38.06737291","longitude":"139.6069365","source_code":"HR57390478001","project_name":"","survey_name":"\u9df9\u30ce\u5de3\u5730\u533a\u5730\u8cea\u8abf\u67fb\u4f5c\u696d","client_name":"\u5efa\u8a2d\u7701\u5317\u9678\u5730\u65b9\u5efa\u8a2d\u5c40\u7fbd\u8d8a\u5de5\u4e8b\u4e8b\u52d9\u6240","boring_xml_url":40,"boring_view_url":1,"soilmap_view_url":null,"soiltest_xml_url":0,"soiltest_view_url":0},{"id":162427,"code":"B4KJ201801005-0676","latitude":"38.02809944","longitude":"139.5696085","source_code":"HR57390435001","project_name":"","survey_name":"\u5927\u77f3\u30c0\u30e0\u8caf\u6c34\u6c60\u5185\u5806\u7a4d\u7269\u8abf\u67fb\u4f5c\u696d","client_name":"\u5efa\u8a2d\u7701\u5317\u9678\u5730\u65b9\u5efa\u8a2d\u5c40\u7fbd\u8d8a\u5de5\u4e8b\u4e8b\u52d9\u6240","boring_xml_url":40,"boring_view_url":1,"soilmap_view_url":null,"soiltest_xml_url":0,"soiltest_view_url":0},{"id":162426,"code":"B4KJ201801005-0675","latitude":"38.03434761","longitude":"139.532195","source_code":"HR57390432016","project_name":"","survey_name":"\u9ed2\u4fe3\u7802\u9632\u8a2d\u5099\u5730\u8cea\u8abf\u67fb\u53ca\u3073\u8a73\u7d30\u8a2d\u8a08\u696d\u52d9","client_name":"\u5efa\u8a2d\u7701\u5317\u9678\u5730\u65b9\u5efa\u8a2d\u5c40\u98ef\u8c4a\u5c71\u7cfb\u7802\u9632\u5de5\u4e8b\u4e8b\u52d9\u6240","boring_xml_url":40,"boring_view_url":1,"soilmap_view_url":null,"soiltest_xml_url":0,"soiltest_view_url":0},{"id":162425,"code":"B4KJ201801005-0674","latitude":"38.03420874","longitude":"139.5322228","source_code":"HR57390432015","project_name":"","survey_name":"\u9ed2\u4fe3\u7802\u9632\u8a2d\u5099\u5730\u8cea\u8abf\u67fb\u53ca\u3073\u8a73\u7d30\u8a2d\u8a08\u696d\u52d9","client_name":"\u5efa\u8a2d\u7701\u5317\u9678\u5730\u65b9\u5efa\u8a2d\u5c40\u98ef\u8c4a\u5c71\u7cfb\u7802\u9632\u5de5\u4e8b\u4e8b\u52d9\u6240","boring_xml_url":40,"boring_view_url":1,"soilmap_view_url":null,"soiltest_xml_url":0,"soiltest_view_url":0},{"id":162424,"code":"B4KJ201801005-0673","latitude":"38.03401431","longitude":"139.5320284","source_code":"HR57390432014","project_name":"","survey_name":"\u9ed2\u4fe3\u7802\u9632\u8a2d\u5099\u5730\u8cea\u8abf\u67fb\u53ca\u3073\u8a73\u7d30\u8a2d\u8a08\u696d\u52d9","client_name":"\u5efa\u8a2d\u7701\u5317\u9678\u5730\u65b9\u5efa\u8a2d\u5c40\u98ef\u8c4a\u5c71\u7cfb\u7802\u9632\u5de5\u4e8b\u4e8b\u52d9\u6240","boring_xml_url":40,"boring_view_url":1,"soilmap_view_url":null,"soiltest_xml_url":0,"soiltest_view_url":0},{"id":162423,"code":"B4KJ201801005-0672","latitude":"38.03401431","longitude":"139.5322228","source_code":"HR57390432013","project_name":"","survey_name":"\u9ed2\u4fe3\u7802\u9632\u8a2d\u5099\u5730\u8cea\u8abf\u67fb\u53ca\u3073\u8a73\u7d30\u8a2d\u8a08\u696d\u52d9","client_name":"\u5efa\u8a2d\u7701\u5317\u9678\u5730\u65b9\u5efa\u8a2d\u5c40\u98ef\u8c4a\u5c71\u7cfb\u7802\u9632\u5de5\u4e8b\u4e8b\u52d9\u6240","boring_xml_url":40,"boring_view_url":1,"soilmap_view_url":null,"soiltest_xml_url":0,"soiltest_view_url":0},{"id":162422,"code":"B4KJ201801005-0671","latitude":"38.00746355","longitude":"139.6043007","source_code":"HR57390408003","project_name":"","survey_name":"\u5927\u77f3\u5ddd\u30dc\u30fc\u30ea\u30f3\u30b0\u8abf\u67fb\u4f5c\u696d","client_name":"\u5efa\u8a2d\u7701\u5317\u9678\u5730\u65b9\u5efa\u8a2d\u5c40\u98ef\u8c4a\u5c71\u7cfb\u7802\u9632\u5de5\u4e8b\u4e8b\u52d9\u6240","boring_xml_url":40,"boring_view_url":1,"soilmap_view_url":null,"soiltest_xml_url":0,"soiltest_view_url":0},{"id":162421,"code":"B4KJ201801005-0670","latitude":"38.08564435","longitude":"139.4382287","source_code":"HR57390395001","project_name":"","survey_name":"\u767d\u9ce5\u5c71\u5730\u8cea\u8abf\u67fb\u59161\u4ef6\u4f5c\u696d","client_name":"\u5efa\u8a2d\u7701\u5317\u9678\u5730\u65b9\u5efa\u8a2d\u5c40\u7fbd\u8d8a\u5de5\u4e8b\u4e8b\u52d9\u6240","boring_xml_url":40,"boring_view_url":1,"soilmap_view_url":null,"soiltest_xml_url":0,"soiltest_view_url":0},{"id":162420,"code":"B4KJ201801005-0669","latitude":"38.06986853","longitude":"139.4415905","source_code":"HR57390385002","project_name":"","survey_name":"\u9ed2\u5dddB\u30fbP\u5730\u8cea\u8abf\u67fb\u4f5c\u696d","client_name":"\u5efa\u8a2d\u7701\u5317\u9678\u5730\u65b9\u5efa\u8a2d\u5c40\u65b0\u6f5f\u56fd\u9053\u5de5\u4e8b\u4e8b\u52d9\u6240","boring_xml_url":40,"boring_view_url":1,"soilmap_view_url":null,"soiltest_xml_url":0,"soiltest_view_url":0},{"id":162419,"code":"B4KJ201801005-0668","latitude":"38.06970188","longitude":"139.4415627","source_code":"HR57390385001","project_name":"","survey_name":"\u9ed2\u5dddB\u30fbP\u5730\u8cea\u8abf\u67fb\u4f5c\u696d","client_name":"\u5efa\u8a2d\u7701\u5317\u9678\u5730\u65b9\u5efa\u8a2d\u5c40\u65b0\u6f5f\u56fd\u9053\u5de5\u4e8b\u4e8b\u52d9\u6240","boring_xml_url":40,"boring_view_url":1,"soilmap_view_url":null,"soiltest_xml_url":0,"soiltest_view_url":0},{"id":162418,"code":"B4KJ201801005-0667","latitude":"38.06323088","longitude":"139.4576725","source_code":"HR57390376003","project_name":"","survey_name":"\u5927\u6ca2\u5ddd\u8abf\u67fb\u4f5c\u696d","client_name":"\u5efa\u8a2d\u7701\u5317\u9678\u5730\u65b9\u5efa\u8a2d\u5c40\u98ef\u8c4a\u5c71\u7cfb\u7802\u9632\u5de5\u4e8b\u4e8b\u52d9\u6240","boring_xml_url":40,"boring_view_url":1,"soilmap_view_url":null,"soiltest_xml_url":0,"soiltest_view_url":0},{"id":162417,"code":"B4KJ201801005-0666","latitude":"38.06323088","longitude":"139.4576725","source_code":"HR57390376002","project_name":"","survey_name":"\u5927\u6ca2\u5ddd\u8abf\u67fb\u4f5c\u696d","client_name":"\u5efa\u8a2d\u7701\u5317\u9678\u5730\u65b9\u5efa\u8a2d\u5c40\u98ef\u8c4a\u5c71\u7cfb\u7802\u9632\u5de5\u4e8b\u4e8b\u52d9\u6240","boring_xml_url":40,"boring_view_url":1,"soilmap_view_url":null,"soiltest_xml_url":0,"soiltest_view_url":0},{"id":162416,"code":"B4KJ201801005-0665","latitude":"38.06323088","longitude":"139.4576725","source_code":"HR57390376001","project_name":"","survey_name":"\u5927\u6ca2\u5ddd\u8abf\u67fb\u4f5c\u696d","client_name":"\u5efa\u8a2d\u7701\u5317\u9678\u5730\u65b9\u5efa\u8a2d\u5c40\u98ef\u8c4a\u5c71\u7cfb\u7802\u9632\u5de5\u4e8b\u4e8b\u52d9\u6240","boring_xml_url":40,"boring_view_url":1,"soilmap_view_url":null,"soiltest_xml_url":0,"soiltest_view_url":0}]}}