{"header":{"xyz":{"source":[],"mosaic":false},"page":5285,"raw":{"soiltest_result":"0","bbox":"57.598333,109.544722,1.933333,163.806111","page":"5285"},"conditions":{"soiltest_result":0,"north":57.598333,"west":109.544722,"south":1.933333,"east":163.806111},"success":true,"message":""},"data":{"meta":{"total":212844,"page":5285,"pages":7095,"count":30},"values":[{"id":162025,"code":"B4KJ201801005-0274","latitude":"37.87085136","longitude":"138.992757","source_code":"HR56386749001","project_name":"","survey_name":"\u9ed2\u5d0e\uff5e\u4e09\u6761\u304a\u3088\u3073\u65b0\u6f5f\u897f\u30d0\u30a4\u30d1\u30b9\u571f\u8cea\u89e3\u6790\u696d\u52d9\u59d4\u8a17","client_name":"\u5efa\u8a2d\u7701\u5317\u9678\u5730\u65b9\u5efa\u8a2d\u5c40\u65b0\u6f5f\u56fd\u9053\u5de5\u4e8b\u4e8b\u52d9\u6240","boring_xml_url":40,"boring_view_url":1,"soilmap_view_url":null,"soiltest_xml_url":0,"soiltest_view_url":0},{"id":162024,"code":"B4KJ201801005-0273","latitude":"37.86740746","longitude":"138.9948683","source_code":"HR56386739012","project_name":"","survey_name":"\u65b0\u6f5f\u897f\u30d0\u30a4\u30d1\u30b9\u76db\u571f\u89b3\u6e2c\u4f5c\u696d","client_name":"\u5efa\u8a2d\u7701\u5317\u9678\u5730\u65b9\u5efa\u8a2d\u5c40\u65b0\u6f5f\u56fd\u9053\u5de5\u4e8b\u4e8b\u52d9\u6240","boring_xml_url":40,"boring_view_url":1,"soilmap_view_url":null,"soiltest_xml_url":0,"soiltest_view_url":0},{"id":162023,"code":"B4KJ201801005-0272","latitude":"37.86599076","longitude":"138.9907021","source_code":"HR56386739011","project_name":"","survey_name":"\u662d\u548c59\u5e74\u5ea6\u65b0\u6f5f\u897f\u30d0\u30a4\u30d1\u30b9(\u4e80\u898b)\u5730\u8cea\u8abf\u67fb\u4f5c\u696d","client_name":"\u5efa\u8a2d\u7701\u5317\u9678\u5730\u65b9\u5efa\u8a2d\u5c40\u65b0\u6f5f\u56fd\u9053\u5de5\u4e8b\u4e8b\u52d9\u6240","boring_xml_url":40,"boring_view_url":1,"soilmap_view_url":null,"soiltest_xml_url":0,"soiltest_view_url":0},{"id":162022,"code":"B4KJ201801005-0271","latitude":"37.86587963","longitude":"138.9900911","source_code":"HR56386739010","project_name":"","survey_name":"\u662d\u548c59\u5e74\u5ea6\u65b0\u6f5f\u897f\u30d0\u30a4\u30d1\u30b9(\u4e80\u898b)\u5730\u8cea\u8abf\u67fb\u4f5c\u696d","client_name":"\u5efa\u8a2d\u7701\u5317\u9678\u5730\u65b9\u5efa\u8a2d\u5c40\u65b0\u6f5f\u56fd\u9053\u5de5\u4e8b\u4e8b\u52d9\u6240","boring_xml_url":40,"boring_view_url":1,"soilmap_view_url":null,"soiltest_xml_url":0,"soiltest_view_url":0},{"id":162021,"code":"B4KJ201801005-0270","latitude":"37.86543517","longitude":"138.9887024","source_code":"HR56386739009","project_name":"","survey_name":"\u662d\u548c59\u5e74\u5ea6\u65b0\u6f5f\u897f\u30d0\u30a4\u30d1\u30b9(\u4e80\u898b)\u5730\u8cea\u8abf\u67fb\u4f5c\u696d","client_name":"\u5efa\u8a2d\u7701\u5317\u9678\u5730\u65b9\u5efa\u8a2d\u5c40\u65b0\u6f5f\u56fd\u9053\u5de5\u4e8b\u4e8b\u52d9\u6240","boring_xml_url":40,"boring_view_url":1,"soilmap_view_url":null,"soiltest_xml_url":0,"soiltest_view_url":0},{"id":162020,"code":"B4KJ201801005-0269","latitude":"37.86510179","longitude":"138.986897","source_code":"HR56386739008","project_name":"","survey_name":"\u662d\u548c59\u5e74\u5ea6\u65b0\u6f5f\u897f\u30d0\u30a4\u30d1\u30b9(\u4e80\u898b)\u5730\u8cea\u8abf\u67fb\u4f5c\u696d","client_name":"\u5efa\u8a2d\u7701\u5317\u9678\u5730\u65b9\u5efa\u8a2d\u5c40\u65b0\u6f5f\u56fd\u9053\u5de5\u4e8b\u4e8b\u52d9\u6240","boring_xml_url":40,"boring_view_url":1,"soilmap_view_url":null,"soiltest_xml_url":0,"soiltest_view_url":0},{"id":162019,"code":"B4KJ201801005-0268","latitude":"37.86485182","longitude":"138.986897","source_code":"HR56386739007","project_name":"","survey_name":"\u662d\u548c59\u5e74\u5ea6\u65b0\u6f5f\u897f\u30d0\u30a4\u30d1\u30b9(\u4e80\u8c9d)\u5730\u8cea\u8abf\u67fb\u4f5c\u696d","client_name":"\u5efa\u8a2d\u7701\u5317\u9678\u5730\u65b9\u5efa\u8a2d\u5c40\u65b0\u6f5f\u56fd\u9053\u5de5\u4e8b\u4e8b\u52d9\u6240","boring_xml_url":40,"boring_view_url":1,"soilmap_view_url":null,"soiltest_xml_url":0,"soiltest_view_url":0},{"id":162018,"code":"B4KJ201801005-0267","latitude":"37.86451847","longitude":"138.9856472","source_code":"HR56386739006","project_name":"","survey_name":"\u662d\u548c59\u5e74\u5ea6\u65b0\u6f5f\u897f\u30d0\u30a4\u30d1\u30b9(\u4e80\u8c9d)\u5730\u8cea\u8abf\u67fb\u4f5c\u696d","client_name":"\u5efa\u8a2d\u7701\u5317\u9678\u5730\u65b9\u5efa\u8a2d\u5c40\u65b0\u6f5f\u56fd\u9053\u5de5\u4e8b\u4e8b\u52d9\u6240","boring_xml_url":40,"boring_view_url":1,"soilmap_view_url":null,"soiltest_xml_url":0,"soiltest_view_url":0},{"id":162017,"code":"B4KJ201801005-0266","latitude":"37.86718535","longitude":"138.9964792","source_code":"HR56386739005","project_name":"","survey_name":"\u65b0\u6f5f\u897f\u30d0\u30a4\u30d1\u30b9(\u5c0f\u65b0)\u5730\u8cea\u8abf\u67fb\u4f5c\u696d","client_name":"\u5efa\u8a2d\u7701\u5317\u9678\u5730\u65b9\u5efa\u8a2d\u5c40\u65b0\u6f5f\u56fd\u9053\u5de5\u4e8b\u4e8b\u52d9\u6240","boring_xml_url":40,"boring_view_url":1,"soilmap_view_url":null,"soiltest_xml_url":0,"soiltest_view_url":0},{"id":162016,"code":"B4KJ201801005-0265","latitude":"37.86715754","longitude":"138.995896","source_code":"HR56386739004","project_name":"","survey_name":"\u65b0\u6f5f\u897f\u30d0\u30a4\u30d1\u30b9(\u5c0f\u65b0)\u5730\u8cea\u8abf\u67fb\u4f5c\u696d","client_name":"\u5efa\u8a2d\u7701\u5317\u9678\u5730\u65b9\u5efa\u8a2d\u5c40\u65b0\u6f5f\u56fd\u9053\u5de5\u4e8b\u4e8b\u52d9\u6240","boring_xml_url":40,"boring_view_url":1,"soilmap_view_url":null,"soiltest_xml_url":0,"soiltest_view_url":0},{"id":162015,"code":"B4KJ201801005-0264","latitude":"37.86699084","longitude":"138.9947016","source_code":"HR56386739003","project_name":"","survey_name":"\u65b0\u6f5f\u897f\u30d0\u30a4\u30d1\u30b9(\u5c0f\u65b0)\u5730\u8cea\u8abf\u67fb\u4f5c\u696d","client_name":"\u5efa\u8a2d\u7701\u5317\u9678\u5730\u65b9\u5efa\u8a2d\u5c40\u65b0\u6f5f\u56fd\u9053\u5de5\u4e8b\u4e8b\u52d9\u6240","boring_xml_url":40,"boring_view_url":1,"soilmap_view_url":null,"soiltest_xml_url":0,"soiltest_view_url":0},{"id":162014,"code":"B4KJ201801005-0263","latitude":"37.86674081","longitude":"138.9935351","source_code":"HR56386739002","project_name":"","survey_name":"\u65b0\u6f5f\u897f\u30d0\u30a4\u30d1\u30b9(\u5c0f\u65b0)\u5730\u8cea\u8abf\u67fb\u4f5c\u696d","client_name":"\u5efa\u8a2d\u7701\u5317\u9678\u5730\u65b9\u5efa\u8a2d\u5c40\u65b0\u6f5f\u56fd\u9053\u5de5\u4e8b\u4e8b\u52d9\u6240","boring_xml_url":40,"boring_view_url":1,"soilmap_view_url":null,"soiltest_xml_url":0,"soiltest_view_url":0},{"id":162013,"code":"B4KJ201801005-0262","latitude":"37.86651856","longitude":"138.9923408","source_code":"HR56386739001","project_name":"","survey_name":"\u65b0\u6f5f\u897f\u30d0\u30a4\u30d1\u30b9(\u5c0f\u65b0)\u5730\u8cea\u8abf\u67fb\u4f5c\u696d","client_name":"\u5efa\u8a2d\u7701\u5317\u9678\u5730\u65b9\u5efa\u8a2d\u5c40\u65b0\u6f5f\u56fd\u9053\u5de5\u4e8b\u4e8b\u52d9\u6240","boring_xml_url":40,"boring_view_url":1,"soilmap_view_url":null,"soiltest_xml_url":0,"soiltest_view_url":0},{"id":162012,"code":"B4KJ201801005-0261","latitude":"37.86385178","longitude":"138.983453","source_code":"HR56386738004","project_name":"","survey_name":"\u662d\u548c59\u5e74\u5ea6\u65b0\u6f5f\u897f\u30d0\u30a4\u30d1\u30b9(\u4e80\u8c9d)\u5730\u8cea\u8abf\u67fb\u4f5c\u696d","client_name":"\u5efa\u8a2d\u7701\u5317\u9678\u5730\u65b9\u5efa\u8a2d\u5c40\u65b0\u6f5f\u56fd\u9053\u5de5\u4e8b\u4e8b\u52d9\u6240","boring_xml_url":40,"boring_view_url":1,"soilmap_view_url":null,"soiltest_xml_url":0,"soiltest_view_url":0},{"id":162011,"code":"B4KJ201801005-0260","latitude":"37.86329619","longitude":"138.98137","source_code":"HR56386738003","project_name":"","survey_name":"\u662d\u548c59\u5e74\u5ea6\u65b0\u6f5f\u897f\u30d0\u30a4\u30d1\u30b9(\u4e80\u8c9d)\u5730\u8cea\u8abf\u67fb\u4f5c\u696d","client_name":"\u5efa\u8a2d\u7701\u5317\u9678\u5730\u65b9\u5efa\u8a2d\u5c40\u65b0\u6f5f\u56fd\u9053\u5de5\u4e8b\u4e8b\u52d9\u6240","boring_xml_url":40,"boring_view_url":1,"soilmap_view_url":null,"soiltest_xml_url":0,"soiltest_view_url":0},{"id":162010,"code":"B4KJ201801005-0259","latitude":"37.86315732","longitude":"138.9813144","source_code":"HR56386738002","project_name":"","survey_name":"\u662d\u548c59\u5e74\u5ea6\u65b0\u6f5f\u897f\u30d0\u30a4\u30d1\u30b9(\u4e80\u8c9d)\u5730\u8cea\u8abf\u67fb\u4f5c\u696d","client_name":"\u5efa\u8a2d\u7701\u5317\u9678\u5730\u65b9\u5efa\u8a2d\u5c40\u65b0\u6f5f\u56fd\u9053\u5de5\u4e8b\u4e8b\u52d9\u6240","boring_xml_url":40,"boring_view_url":1,"soilmap_view_url":null,"soiltest_xml_url":0,"soiltest_view_url":0},{"id":162009,"code":"B4KJ201801005-0258","latitude":"37.86304619","longitude":"138.9806478","source_code":"HR56386738001","project_name":"","survey_name":"\u662d\u548c59\u5e74\u5ea6\u65b0\u6f5f\u897f\u30d0\u30a4\u30d1\u30b9(\u4e80\u8c9d)\u5730\u8cea\u8abf\u67fb\u4f5c\u696d","client_name":"\u5efa\u8a2d\u7701\u5317\u9678\u5730\u65b9\u5efa\u8a2d\u5c40\u65b0\u6f5f\u56fd\u9053\u5de5\u4e8b\u4e8b\u52d9\u6240","boring_xml_url":40,"boring_view_url":1,"soilmap_view_url":null,"soiltest_xml_url":0,"soiltest_view_url":0},{"id":162008,"code":"B4KJ201801005-0257","latitude":"37.84793555","longitude":"138.948792","source_code":"HR56386716002","project_name":"","survey_name":"\u65b0\u6f5f\u897f\u30d0\u30a4\u30d1\u30b9\u5730\u8cea\u8abf\u67fb\u305d\u306e2\u696d\u52d9\u59d4\u8a17","client_name":"\u5efa\u8a2d\u7701\u5317\u9678\u5730\u65b9\u5efa\u8a2d\u5c40\u65b0\u6f5f\u56fd\u9053\u5de5\u4e8b\u4e8b\u52d9\u6240","boring_xml_url":40,"boring_view_url":1,"soilmap_view_url":null,"soiltest_xml_url":0,"soiltest_view_url":0},{"id":162007,"code":"B4KJ201801005-0256","latitude":"37.84768552","longitude":"138.94707","source_code":"HR56386716001","project_name":"","survey_name":"\u65b0\u6f5f\u897f\u30d0\u30a4\u30d1\u30b9\u5730\u8cea\u8abf\u67fb\u305d\u306e2\u696d\u52d9\u59d4\u8a17","client_name":"\u5efa\u8a2d\u7701\u5317\u9678\u5730\u65b9\u5efa\u8a2d\u5c40\u65b0\u6f5f\u56fd\u9053\u5de5\u4e8b\u4e8b\u52d9\u6240","boring_xml_url":40,"boring_view_url":1,"soilmap_view_url":null,"soiltest_xml_url":0,"soiltest_view_url":0},{"id":162006,"code":"B4KJ201801005-0255","latitude":"37.84746329","longitude":"138.9452924","source_code":"HR56386715003","project_name":"","survey_name":"\u65b0\u6f5f\u897f\u30d0\u30a4\u30d1\u30b9\u5730\u8cea\u8abf\u67fb\u305d\u306e2\u696d\u52d9\u59d4\u8a17","client_name":"\u5efa\u8a2d\u7701\u5317\u9678\u5730\u65b9\u5efa\u8a2d\u5c40\u65b0\u6f5f\u56fd\u9053\u5de5\u4e8b\u4e8b\u52d9\u6240","boring_xml_url":40,"boring_view_url":1,"soilmap_view_url":null,"soiltest_xml_url":0,"soiltest_view_url":0},{"id":162005,"code":"B4KJ201801005-0254","latitude":"37.84699103","longitude":"138.941154","source_code":"HR56386715002","project_name":"","survey_name":"\u65b0\u6f5f\u897f\u30d0\u30a4\u30d1\u30b9\u5730\u8cea\u8abf\u67fb\u305d\u306e2\u696d\u52d9\u59d4\u8a17","client_name":"\u5efa\u8a2d\u7701\u5317\u9678\u5730\u65b9\u5efa\u8a2d\u5c40\u65b0\u6f5f\u56fd\u9053\u5de5\u4e8b\u4e8b\u52d9\u6240","boring_xml_url":40,"boring_view_url":1,"soilmap_view_url":null,"soiltest_xml_url":0,"soiltest_view_url":0},{"id":162004,"code":"B4KJ201801005-0253","latitude":"37.84671326","longitude":"138.9395986","source_code":"HR56386715001","project_name":"","survey_name":"\u65b0\u6f5f\u897f\u30d0\u30a4\u30d1\u30b9\u5730\u8cea\u8abf\u67fb\u305d\u306e2\u696d\u52d9\u59d4\u8a17","client_name":"\u5efa\u8a2d\u7701\u5317\u9678\u5730\u65b9\u5efa\u8a2d\u5c40\u65b0\u6f5f\u56fd\u9053\u5de5\u4e8b\u4e8b\u52d9\u6240","boring_xml_url":40,"boring_view_url":1,"soilmap_view_url":null,"soiltest_xml_url":0,"soiltest_view_url":0},{"id":162003,"code":"B4KJ201801005-0252","latitude":"37.84379683","longitude":"138.936266","source_code":"HR56386705003","project_name":"","survey_name":"\u65b0\u6f5f\u897f\u30d0\u30a4\u30d1\u30b9\u5730\u8cea\u8abf\u67fb\u305d\u306e2\u696d\u52d9\u59d4\u8a17","client_name":"\u5efa\u8a2d\u7701\u5317\u9678\u5730\u65b9\u5efa\u8a2d\u5c40\u65b0\u6f5f\u56fd\u9053\u5de5\u4e8b\u4e8b\u52d9\u6240","boring_xml_url":40,"boring_view_url":1,"soilmap_view_url":null,"soiltest_xml_url":0,"soiltest_view_url":0},{"id":162002,"code":"B4KJ201801005-0251","latitude":"37.8424914","longitude":"138.9350718","source_code":"HR56386705002","project_name":"","survey_name":"\u65b0\u6f5f\u897f\u30d0\u30a4\u30d1\u30b9\u5730\u8cea\u8abf\u67fb\u305d\u306e2\u696d\u52d9\u59d4\u8a17","client_name":"\u5efa\u8a2d\u7701\u5317\u9678\u5730\u65b9\u5efa\u8a2d\u5c40\u65b0\u6f5f\u56fd\u9053\u5de5\u4e8b\u4e8b\u52d9\u6240","boring_xml_url":40,"boring_view_url":1,"soilmap_view_url":null,"soiltest_xml_url":0,"soiltest_view_url":0},{"id":162001,"code":"B4KJ201801005-0250","latitude":"37.84154705","longitude":"138.934433","source_code":"HR56386705001","project_name":"","survey_name":"\u65b0\u6f5f\u897f\u30d0\u30a4\u30d1\u30b9\u5730\u8cea\u8abf\u67fb\u305d\u306e2\u696d\u52d9\u59d4\u8a17","client_name":"\u5efa\u8a2d\u7701\u5317\u9678\u5730\u65b9\u5efa\u8a2d\u5c40\u65b0\u6f5f\u56fd\u9053\u5de5\u4e8b\u4e8b\u52d9\u6240","boring_xml_url":40,"boring_view_url":1,"soilmap_view_url":null,"soiltest_xml_url":0,"soiltest_view_url":0},{"id":162000,"code":"B4KJ201801005-0249","latitude":"37.84054715","longitude":"138.933711","source_code":"HR56386704002","project_name":"","survey_name":"\u65b0\u6f5f\u897f\u30d0\u30a4\u30d1\u30b9\u5730\u8cea\u8abf\u67fb\u305d\u306e2\u696d\u52d9\u59d4\u8a17","client_name":"\u5efa\u8a2d\u7701\u5317\u9678\u5730\u65b9\u5efa\u8a2d\u5c40\u65b0\u6f5f\u56fd\u9053\u5de5\u4e8b\u4e8b\u52d9\u6240","boring_xml_url":40,"boring_view_url":1,"soilmap_view_url":null,"soiltest_xml_url":0,"soiltest_view_url":0},{"id":161999,"code":"B4KJ201801005-0248","latitude":"37.76380542","longitude":"138.901496","source_code":"HR56385712029","project_name":"","survey_name":"\u5dfb\u30d0\u30a4\u30d1\u30b920\u5de5\u533a\u5730\u8cea\u8abf\u67fb\u4f5c\u696d","client_name":"\u5efa\u8a2d\u7701\u5317\u9678\u5730\u65b9\u5efa\u8a2d\u5c40\u65b0\u6f5f\u56fd\u9053\u5de5\u4e8b\u4e8b\u52d9\u6240","boring_xml_url":40,"boring_view_url":1,"soilmap_view_url":null,"soiltest_xml_url":0,"soiltest_view_url":0},{"id":161998,"code":"B4KJ201801005-0247","latitude":"37.76308328","longitude":"138.9016071","source_code":"HR56385712001","project_name":"","survey_name":"\u5dfb\u30d0\u30a4\u30d1\u30b920\u5de5\u533a\u5730\u8cea\u8abf\u67fb\u4f5c\u696d","client_name":"\u5efa\u8a2d\u7701\u5317\u9678\u5730\u65b9\u5efa\u8a2d\u5c40\u65b0\u6f5f\u56fd\u9053\u5de5\u4e8b\u4e8b\u52d9\u6240","boring_xml_url":40,"boring_view_url":1,"soilmap_view_url":null,"soiltest_xml_url":0,"soiltest_view_url":0},{"id":161997,"code":"B4KJ201801005-0246","latitude":"37.75936148","longitude":"138.9017739","source_code":"HR56385702039","project_name":"","survey_name":"\u5dfb\u30d0\u30a4\u30d1\u30b920\u5de5\u533a\u5730\u8cea\u8abf\u67fb\u305d\u306e2\u4f5c\u696d","client_name":"\u5efa\u8a2d\u7701\u5317\u9678\u5730\u65b9\u5efa\u8a2d\u5c40\u65b0\u6f5f\u56fd\u9053\u5de5\u4e8b\u4e8b\u52d9\u6240","boring_xml_url":40,"boring_view_url":1,"soilmap_view_url":null,"soiltest_xml_url":0,"soiltest_view_url":0},{"id":161996,"code":"B4KJ201801005-0245","latitude":"37.75908373","longitude":"138.9017739","source_code":"HR56385702038","project_name":"","survey_name":"\u5dfb\u30d0\u30a4\u30d1\u30b920\u5de5\u533a\u5730\u8cea\u8abf\u67fb\u305d\u306e2\u4f5c\u696d","client_name":"\u5efa\u8a2d\u7701\u5317\u9678\u5730\u65b9\u5efa\u8a2d\u5c40\u65b0\u6f5f\u56fd\u9053\u5de5\u4e8b\u4e8b\u52d9\u6240","boring_xml_url":40,"boring_view_url":1,"soilmap_view_url":null,"soiltest_xml_url":0,"soiltest_view_url":0}]}}