{"header":{"xyz":{"source":[],"mosaic":false},"page":529,"raw":{"soiltest_result":"0","bbox":"57.598333,109.544722,1.933333,163.806111","page":"529"},"conditions":{"soiltest_result":0,"north":57.598333,"west":109.544722,"south":1.933333,"east":163.806111},"success":true,"message":""},"data":{"meta":{"total":212844,"page":529,"pages":7095,"count":30},"values":[{"id":529548,"code":"B4KJ202201003-2084","latitude":"33.060833","longitude":"131.620556","source_code":"QS20028961410200300003","project_name":"\u72ac\u98fc\u5927\u91ce\u9053\u8def\u6cd5\u9762\u691c\u8a0e(\u305d\u306e2)\u696d\u52d9","survey_name":"\u72ac\u98fc\u5927\u91ce\u9053\u8def\u6cd5\u9762\u691c\u8a0e(\u305d\u306e2)\u696d\u52d9","client_name":"\"\u56fd\u571f\u4ea4\u901a\u7701 \u4e5d\u5dde\u5730\u65b9\u6574\u5099\u5c40 \u4f50\u4f2f\u6cb3\u5ddd\u56fd\u9053\u5de5\u4e8b\u4e8b\u52d9\u6240\"","boring_xml_url":72,"boring_view_url":1,"soilmap_view_url":null,"soiltest_xml_url":0,"soiltest_view_url":0},{"id":529547,"code":"B4KJ202201003-2083","latitude":"33.066389","longitude":"131.620278","source_code":"QS20028961410200300002","project_name":"\u72ac\u98fc\u5927\u91ce\u9053\u8def\u6cd5\u9762\u691c\u8a0e(\u305d\u306e2)\u696d\u52d9","survey_name":"\u72ac\u98fc\u5927\u91ce\u9053\u8def\u6cd5\u9762\u691c\u8a0e(\u305d\u306e2)\u696d\u52d9","client_name":"\"\u56fd\u571f\u4ea4\u901a\u7701 \u4e5d\u5dde\u5730\u65b9\u6574\u5099\u5c40 \u4f50\u4f2f\u6cb3\u5ddd\u56fd\u9053\u5de5\u4e8b\u4e8b\u52d9\u6240\"","boring_xml_url":72,"boring_view_url":1,"soilmap_view_url":null,"soiltest_xml_url":0,"soiltest_view_url":0},{"id":529546,"code":"B4KJ202201003-2082","latitude":"33.264167","longitude":"131.056944","source_code":"QS8960410200100017","project_name":"\u5927\u5206210\u53f7","survey_name":"\"\u5927\u5206210\u53f7 \u5929\u702c\u5730\u533a\u5916\u5730\u8cea\u8abf\u67fb\u59d4\u8a17\u696d\u52d9\"","client_name":"\u56fd\u4ea4\u7701\u4e5d\u5dde\u5730\u65b9\u6574\u5099\u5c40\u5927\u5206\u6cb3\u5ddd\u56fd\u9053\u4e8b\u52d9\u6240","boring_xml_url":64,"boring_view_url":1,"soilmap_view_url":null,"soiltest_xml_url":0,"soiltest_view_url":0},{"id":529545,"code":"B4KJ202201003-2081","latitude":"33.263889","longitude":"131.056111","source_code":"QS8960410200100016","project_name":"\u5927\u5206210\u53f7","survey_name":"\"\u5927\u5206210\u53f7 \u5929\u702c\u5730\u533a\u5916\u5730\u8cea\u8abf\u67fb\u59d4\u8a17\u696d\u52d9\"","client_name":"\u56fd\u4ea4\u7701\u4e5d\u5dde\u5730\u65b9\u6574\u5099\u5c40\u5927\u5206\u6cb3\u5ddd\u56fd\u9053\u4e8b\u52d9\u6240","boring_xml_url":64,"boring_view_url":1,"soilmap_view_url":null,"soiltest_xml_url":0,"soiltest_view_url":0},{"id":529544,"code":"B4KJ202201003-2080","latitude":"33.263333","longitude":"131.055278","source_code":"QS8960410200100015","project_name":"\u5927\u5206210\u53f7","survey_name":"\"\u5927\u5206210\u53f7 \u5929\u702c\u5730\u533a\u5916\u5730\u8cea\u8abf\u67fb\u59d4\u8a17\u696d\u52d9\"","client_name":"\u56fd\u4ea4\u7701\u4e5d\u5dde\u5730\u65b9\u6574\u5099\u5c40\u5927\u5206\u6cb3\u5ddd\u56fd\u9053\u4e8b\u52d9\u6240","boring_xml_url":64,"boring_view_url":1,"soilmap_view_url":null,"soiltest_xml_url":0,"soiltest_view_url":0},{"id":529543,"code":"B4KJ202201003-2079","latitude":"33.2625","longitude":"131.053611","source_code":"QS8960410200100014","project_name":"\u5927\u5206210\u53f7","survey_name":"\"\u5927\u5206210\u53f7 \u5929\u702c\u5730\u533a\u5916\u5730\u8cea\u8abf\u67fb\u59d4\u8a17\u696d\u52d9\"","client_name":"\u56fd\u4ea4\u7701\u4e5d\u5dde\u5730\u65b9\u6574\u5099\u5c40\u5927\u5206\u6cb3\u5ddd\u56fd\u9053\u4e8b\u52d9\u6240","boring_xml_url":64,"boring_view_url":1,"soilmap_view_url":null,"soiltest_xml_url":0,"soiltest_view_url":0},{"id":529542,"code":"B4KJ202201003-2078","latitude":"33.262222","longitude":"131.053611","source_code":"QS8960410200100013","project_name":"\u5927\u5206210\u53f7","survey_name":"\"\u5927\u5206210\u53f7 \u5929\u702c\u5730\u533a\u5916\u5730\u8cea\u8abf\u67fb\u59d4\u8a17\u696d\u52d9\"","client_name":"\u56fd\u4ea4\u7701\u4e5d\u5dde\u5730\u65b9\u6574\u5099\u5c40\u5927\u5206\u6cb3\u5ddd\u56fd\u9053\u4e8b\u52d9\u6240","boring_xml_url":64,"boring_view_url":1,"soilmap_view_url":null,"soiltest_xml_url":0,"soiltest_view_url":0},{"id":529541,"code":"B4KJ202201003-2077","latitude":"33.261389","longitude":"131.052222","source_code":"QS8960410200100012","project_name":"\u5927\u5206210\u53f7","survey_name":"\"\u5927\u5206210\u53f7 \u5929\u702c\u5730\u533a\u5916\u5730\u8cea\u8abf\u67fb\u59d4\u8a17\u696d\u52d9\"","client_name":"\u56fd\u4ea4\u7701\u4e5d\u5dde\u5730\u65b9\u6574\u5099\u5c40\u5927\u5206\u6cb3\u5ddd\u56fd\u9053\u4e8b\u52d9\u6240","boring_xml_url":64,"boring_view_url":1,"soilmap_view_url":null,"soiltest_xml_url":0,"soiltest_view_url":0},{"id":529540,"code":"B4KJ202201003-2076","latitude":"33.261389","longitude":"131.051944","source_code":"QS8960410200100011","project_name":"\u5927\u5206210\u53f7","survey_name":"\"\u5927\u5206210\u53f7 \u5929\u702c\u5730\u533a\u5916\u5730\u8cea\u8abf\u67fb\u59d4\u8a17\u696d\u52d9\"","client_name":"\u56fd\u4ea4\u7701\u4e5d\u5dde\u5730\u65b9\u6574\u5099\u5c40\u5927\u5206\u6cb3\u5ddd\u56fd\u9053\u4e8b\u52d9\u6240","boring_xml_url":64,"boring_view_url":1,"soilmap_view_url":null,"soiltest_xml_url":0,"soiltest_view_url":0},{"id":529539,"code":"B4KJ202201003-2075","latitude":"33.260833","longitude":"131.051944","source_code":"QS8960410200100010","project_name":"\u5927\u5206210\u53f7","survey_name":"\"\u5927\u5206210\u53f7 \u5929\u702c\u5730\u533a\u5916\u5730\u8cea\u8abf\u67fb\u59d4\u8a17\u696d\u52d9\"","client_name":"\u56fd\u4ea4\u7701\u4e5d\u5dde\u5730\u65b9\u6574\u5099\u5c40\u5927\u5206\u6cb3\u5ddd\u56fd\u9053\u4e8b\u52d9\u6240","boring_xml_url":64,"boring_view_url":1,"soilmap_view_url":null,"soiltest_xml_url":0,"soiltest_view_url":0},{"id":529538,"code":"B4KJ202201003-2074","latitude":"33.260833","longitude":"131.051667","source_code":"QS8960410200100009","project_name":"\u5927\u5206210\u53f7","survey_name":"\"\u5927\u5206210\u53f7 \u5929\u702c\u5730\u533a\u5916\u5730\u8cea\u8abf\u67fb\u59d4\u8a17\u696d\u52d9\"","client_name":"\u56fd\u4ea4\u7701\u4e5d\u5dde\u5730\u65b9\u6574\u5099\u5c40\u5927\u5206\u6cb3\u5ddd\u56fd\u9053\u4e8b\u52d9\u6240","boring_xml_url":64,"boring_view_url":1,"soilmap_view_url":null,"soiltest_xml_url":0,"soiltest_view_url":0},{"id":529537,"code":"B4KJ202201003-2073","latitude":"33.260833","longitude":"131.051667","source_code":"QS8960410200100008","project_name":"\u5927\u5206210\u53f7","survey_name":"\"\u5927\u5206210\u53f7 \u5929\u702c\u5730\u533a\u5916\u5730\u8cea\u8abf\u67fb\u59d4\u8a17\u696d\u52d9\"","client_name":"\u56fd\u4ea4\u7701\u4e5d\u5dde\u5730\u65b9\u6574\u5099\u5c40\u5927\u5206\u6cb3\u5ddd\u56fd\u9053\u4e8b\u52d9\u6240","boring_xml_url":64,"boring_view_url":1,"soilmap_view_url":null,"soiltest_xml_url":0,"soiltest_view_url":0},{"id":529536,"code":"B4KJ202201003-2072","latitude":"33.375056","longitude":"131.542583","source_code":"QS8960410200100007","project_name":"\u5927\u5206210\u53f7","survey_name":"\u5927\u5206210\u53f7\u3000\u5929\u702c\u5730\u533a\u5916\u5730\u8cea\u8abf\u67fb\u59d4\u8a17\u696d\u52d9(\u85e4\u539f\u5730\u533a)","client_name":"\u56fd\u571f\u4ea4\u901a\u7701\u5927\u5206\u6cb3\u5ddd\u56fd\u9053\u4e8b\u52d9\u6240","boring_xml_url":64,"boring_view_url":1,"soilmap_view_url":null,"soiltest_xml_url":0,"soiltest_view_url":0},{"id":529535,"code":"B4KJ202201003-2071","latitude":"33.375278","longitude":"131.542861","source_code":"QS8960410200100006","project_name":"\u5927\u5206210\u53f7","survey_name":"\u5927\u5206210\u53f7\u3000\u5929\u702c\u5730\u533a\u5916\u5730\u8cea\u8abf\u67fb\u59d4\u8a17\u696d\u52d9(\u85e4\u539f\u5730\u533a)","client_name":"\u56fd\u571f\u4ea4\u901a\u7701\u5927\u5206\u6cb3\u5ddd\u56fd\u9053\u4e8b\u52d9\u6240","boring_xml_url":64,"boring_view_url":1,"soilmap_view_url":null,"soiltest_xml_url":0,"soiltest_view_url":0},{"id":529534,"code":"B4KJ202201003-2070","latitude":"33.378194","longitude":"131.543389","source_code":"QS8960410200100005","project_name":"\u5927\u5206210\u53f7","survey_name":"\u5927\u5206210\u53f7\u3000\u5929\u702c\u5730\u533a\u5916\u5730\u8cea\u8abf\u67fb\u59d4\u8a17\u696d\u52d9(\u85e4\u539f\u5730\u533a)","client_name":"\u56fd\u571f\u4ea4\u901a\u7701\u5927\u5206\u6cb3\u5ddd\u56fd\u9053\u4e8b\u52d9\u6240","boring_xml_url":64,"boring_view_url":1,"soilmap_view_url":null,"soiltest_xml_url":0,"soiltest_view_url":0},{"id":529533,"code":"B4KJ202201003-2069","latitude":"33.379444","longitude":"131.543806","source_code":"QS8960410200100004","project_name":"\u5927\u5206210\u53f7","survey_name":"\u5927\u5206210\u53f7\u3000\u5929\u702c\u5730\u533a\u5916\u5730\u8cea\u8abf\u67fb\u59d4\u8a17\u696d\u52d9(\u85e4\u539f\u5730\u533a)","client_name":"\u56fd\u571f\u4ea4\u901a\u7701\u5927\u5206\u6cb3\u5ddd\u56fd\u9053\u4e8b\u52d9\u6240","boring_xml_url":64,"boring_view_url":1,"soilmap_view_url":null,"soiltest_xml_url":0,"soiltest_view_url":0},{"id":529532,"code":"B4KJ202201003-2068","latitude":"33.380556","longitude":"131.544056","source_code":"QS8960410200100003","project_name":"\u5927\u5206210\u53f7","survey_name":"\u5927\u5206210\u53f7\u3000\u5929\u702c\u5730\u533a\u5916\u5730\u8cea\u8abf\u67fb\u59d4\u8a17\u696d\u52d9(\u85e4\u539f\u5730\u533a)","client_name":"\u56fd\u571f\u4ea4\u901a\u7701\u5927\u5206\u6cb3\u5ddd\u56fd\u9053\u4e8b\u52d9\u6240","boring_xml_url":64,"boring_view_url":1,"soilmap_view_url":null,"soiltest_xml_url":0,"soiltest_view_url":0},{"id":529531,"code":"B4KJ202201003-2067","latitude":"33.381694","longitude":"131.544472","source_code":"QS8960410200100002","project_name":"\u5927\u5206210\u53f7","survey_name":"\u5927\u5206210\u53f7\u3000\u5929\u702c\u5730\u533a\u5916\u5730\u8cea\u8abf\u67fb\u59d4\u8a17\u696d\u52d9(\u85e4\u539f\u5730\u533a)","client_name":"\u56fd\u571f\u4ea4\u901a\u7701\u5927\u5206\u6cb3\u5ddd\u56fd\u9053\u4e8b\u52d9\u6240","boring_xml_url":64,"boring_view_url":1,"soilmap_view_url":null,"soiltest_xml_url":0,"soiltest_view_url":0},{"id":529530,"code":"B4KJ202201003-2066","latitude":"33.381806","longitude":"131.545","source_code":"QS8960410200100001","project_name":"\u5927\u5206210\u53f7","survey_name":"\u5927\u5206210\u53f7\u3000\u5929\u702c\u5730\u533a\u5916\u5730\u8cea\u8abf\u67fb\u59d4\u8a17\u696d\u52d9(\u85e4\u539f\u5730\u533a)","client_name":"\u56fd\u571f\u4ea4\u901a\u7701\u5927\u5206\u6cb3\u5ddd\u56fd\u9053\u4e8b\u52d9\u6240","boring_xml_url":64,"boring_view_url":1,"soilmap_view_url":null,"soiltest_xml_url":0,"soiltest_view_url":0},{"id":529529,"code":"B4KJ202201003-2065","latitude":"33.189528","longitude":"131.678194","source_code":"QS20038960650200070005","project_name":"","survey_name":"\u5317\u9f3b\u5ddd\u6392\u6c34\u6a5f\u5834\u5730\u8cea\u8abf\u67fb\u696d\u52d9","client_name":"\u56fd\u571f\u4ea4\u901a\u7701\u4e5d\u5dde\u5730\u65b9\u6574\u5099\u5c40\u5927\u5206\u6cb3\u5ddd\u56fd\u9053\u4e8b\u52d9\u6240","boring_xml_url":72,"boring_view_url":1,"soilmap_view_url":null,"soiltest_xml_url":0,"soiltest_view_url":0},{"id":529528,"code":"B4KJ202201003-2064","latitude":"33.189417","longitude":"131.678389","source_code":"QS20038960650200070004","project_name":"","survey_name":"\u5317\u9f3b\u5ddd\u6392\u6c34\u6a5f\u5834\u5730\u8cea\u8abf\u67fb\u696d\u52d9","client_name":"\u56fd\u571f\u4ea4\u901a\u7701\u4e5d\u5dde\u5730\u65b9\u6574\u5099\u5c40\u5927\u5206\u6cb3\u5ddd\u56fd\u9053\u4e8b\u52d9\u6240","boring_xml_url":72,"boring_view_url":1,"soilmap_view_url":null,"soiltest_xml_url":0,"soiltest_view_url":0},{"id":529527,"code":"B4KJ202201003-2063","latitude":"33.189639","longitude":"131.678361","source_code":"QS20038960650200070003","project_name":"","survey_name":"\u5317\u9f3b\u5ddd\u6392\u6c34\u6a5f\u5834\u5730\u8cea\u8abf\u67fb\u696d\u52d9","client_name":"\u56fd\u571f\u4ea4\u901a\u7701\u4e5d\u5dde\u5730\u65b9\u6574\u5099\u5c40\u5927\u5206\u6cb3\u5ddd\u56fd\u9053\u4e8b\u52d9\u6240","boring_xml_url":72,"boring_view_url":1,"soilmap_view_url":null,"soiltest_xml_url":0,"soiltest_view_url":0},{"id":529526,"code":"B4KJ202201003-2062","latitude":"33.189333","longitude":"131.678528","source_code":"QS20038960650200070002","project_name":"","survey_name":"\u5317\u9f3b\u5ddd\u6392\u6c34\u6a5f\u5834\u5730\u8cea\u8abf\u67fb\u696d\u52d9","client_name":"\u56fd\u571f\u4ea4\u901a\u7701\u4e5d\u5dde\u5730\u65b9\u6574\u5099\u5c40\u5927\u5206\u6cb3\u5ddd\u56fd\u9053\u4e8b\u52d9\u6240","boring_xml_url":72,"boring_view_url":1,"soilmap_view_url":null,"soiltest_xml_url":0,"soiltest_view_url":0},{"id":529525,"code":"B4KJ202201003-2061","latitude":"33.189167","longitude":"131.678056","source_code":"QS20038960650200070001","project_name":"","survey_name":"\u5317\u9f3b\u5ddd\u6392\u6c34\u6a5f\u5834\u5730\u8cea\u8abf\u67fb\u696d\u52d9","client_name":"\u56fd\u571f\u4ea4\u901a\u7701\u4e5d\u5dde\u5730\u65b9\u6574\u5099\u5c40\u5927\u5206\u6cb3\u5ddd\u56fd\u9053\u4e8b\u52d9\u6240","boring_xml_url":72,"boring_view_url":1,"soilmap_view_url":null,"soiltest_xml_url":0,"soiltest_view_url":0},{"id":529524,"code":"B4KJ202201003-2060","latitude":"33.197039","longitude":"131.560556","source_code":"QS20038960600200130011","project_name":"\u5927\u5206\u5ddd\u5824\u9632\u5b89\u5168\u6027\u8abf\u67fb\u691c\u8a0e\u696d\u52d9","survey_name":"\u5927\u5206\u5ddd\u5824\u9632\u5b89\u5168\u6027\u8abf\u67fb\u691c\u8a0e\u696d\u52d9","client_name":"\u56fd\u571f\u4ea4\u901a\u7701\u4e5d\u5dde\u5730\u65b9\u6574\u5099\u5c40\u5927\u5206\u6cb3\u5ddd\u56fd\u9053\u4e8b\u52d9\u6240","boring_xml_url":72,"boring_view_url":1,"soilmap_view_url":null,"soiltest_xml_url":0,"soiltest_view_url":0},{"id":529523,"code":"B4KJ202201003-2059","latitude":"33.200363","longitude":"131.558213","source_code":"QS20038960600200130010","project_name":"\u5927\u5206\u5ddd\u5824\u9632\u5b89\u5168\u6027\u8abf\u67fb\u691c\u8a0e\u696d\u52d9","survey_name":"\u5927\u5206\u5ddd\u5824\u9632\u5b89\u5168\u6027\u8abf\u67fb\u691c\u8a0e\u696d\u52d9","client_name":"\u56fd\u571f\u4ea4\u901a\u7701\u4e5d\u5dde\u5730\u65b9\u6574\u5099\u5c40\u5927\u5206\u6cb3\u5ddd\u56fd\u9053\u4e8b\u52d9\u6240","boring_xml_url":72,"boring_view_url":1,"soilmap_view_url":null,"soiltest_xml_url":0,"soiltest_view_url":0},{"id":529522,"code":"B4KJ202201003-2058","latitude":"33.196998","longitude":"131.560669","source_code":"QS20038960600200130009","project_name":"\u5927\u5206\u5ddd\u5824\u9632\u5b89\u5168\u6027\u8abf\u67fb\u691c\u8a0e\u696d\u52d9","survey_name":"\u5927\u5206\u5ddd\u5824\u9632\u5b89\u5168\u6027\u8abf\u67fb\u691c\u8a0e\u696d\u52d9","client_name":"\u56fd\u571f\u4ea4\u901a\u7701\u4e5d\u5dde\u5730\u65b9\u6574\u5099\u5c40\u5927\u5206\u6cb3\u5ddd\u56fd\u9053\u4e8b\u52d9\u6240","boring_xml_url":72,"boring_view_url":1,"soilmap_view_url":null,"soiltest_xml_url":0,"soiltest_view_url":0},{"id":529521,"code":"B4KJ202201003-2057","latitude":"33.210364","longitude":"131.566792","source_code":"QS20038960600200130008","project_name":"\u5927\u5206\u5ddd\u5824\u9632\u5b89\u5168\u6027\u8abf\u67fb\u691c\u8a0e\u696d\u52d9","survey_name":"\u5927\u5206\u5ddd\u5824\u9632\u5b89\u5168\u6027\u8abf\u67fb\u691c\u8a0e\u696d\u52d9","client_name":"\u56fd\u571f\u4ea4\u901a\u7701\u4e5d\u5dde\u5730\u65b9\u6574\u5099\u5c40\u5927\u5206\u6cb3\u5ddd\u56fd\u9053\u4e8b\u52d9\u6240","boring_xml_url":72,"boring_view_url":1,"soilmap_view_url":null,"soiltest_xml_url":0,"soiltest_view_url":0},{"id":529520,"code":"B4KJ202201003-2056","latitude":"33.210301","longitude":"131.566852","source_code":"QS20038960600200130007","project_name":"\u5927\u5206\u5ddd\u5824\u9632\u5b89\u5168\u6027\u8abf\u67fb\u691c\u8a0e\u696d\u52d9","survey_name":"\u5927\u5206\u5ddd\u5824\u9632\u5b89\u5168\u6027\u8abf\u67fb\u691c\u8a0e\u696d\u52d9","client_name":"\u56fd\u571f\u4ea4\u901a\u7701\u4e5d\u5dde\u5730\u65b9\u6574\u5099\u5c40\u5927\u5206\u6cb3\u5ddd\u56fd\u9053\u4e8b\u52d9\u6240","boring_xml_url":72,"boring_view_url":1,"soilmap_view_url":null,"soiltest_xml_url":0,"soiltest_view_url":0},{"id":529519,"code":"B4KJ202201003-2055","latitude":"33.210273","longitude":"131.566858","source_code":"QS20038960600200130006","project_name":"\u5927\u5206\u5ddd\u5824\u9632\u5b89\u5168\u6027\u8abf\u67fb\u691c\u8a0e\u696d\u52d9","survey_name":"\u5927\u5206\u5ddd\u5824\u9632\u5b89\u5168\u6027\u8abf\u67fb\u691c\u8a0e\u696d\u52d9","client_name":"\u56fd\u571f\u4ea4\u901a\u7701\u4e5d\u5dde\u5730\u65b9\u6574\u5099\u5c40\u5927\u5206\u6cb3\u5ddd\u56fd\u9053\u4e8b\u52d9\u6240","boring_xml_url":72,"boring_view_url":1,"soilmap_view_url":null,"soiltest_xml_url":0,"soiltest_view_url":0}]}}