{"header":{"xyz":{"source":[],"mosaic":false},"page":5293,"raw":{"soiltest_result":"0","bbox":"57.598333,109.544722,1.933333,163.806111","page":"5293"},"conditions":{"soiltest_result":0,"north":57.598333,"west":109.544722,"south":1.933333,"east":163.806111},"success":true,"message":""},"data":{"meta":{"total":212844,"page":5293,"pages":7095,"count":30},"values":[{"id":161785,"code":"B4KJ201801005-0034","latitude":"37.52541568","longitude":"138.8386217","source_code":"HR56382627002","project_name":"","survey_name":"\u8107\u5ddd\u65b0\u7530\u5730\u5148\u5730\u8cea\u8abf\u67fb\u4f5c\u696d","client_name":"\u5efa\u8a2d\u7701\u5317\u9678\u5730\u65b9\u5efa\u8a2d\u5c40\u4fe1\u6fc3\u5ddd\u5de5\u4e8b\u4e8b\u52d9\u6240","boring_xml_url":40,"boring_view_url":1,"soilmap_view_url":null,"soiltest_xml_url":0,"soiltest_view_url":0},{"id":161784,"code":"B4KJ201801005-0033","latitude":"37.50789038","longitude":"138.8498432","source_code":"HR56382608001","project_name":"","survey_name":"\u5e73\u62107\u5e74\u5ea6\u5929\u795e\u5730\u533a\u5730\u8cea\u8abf\u67fb\u696d\u52d9\u59d4\u8a17","client_name":"\u5efa\u8a2d\u7701\u5317\u9678\u5730\u65b9\u5efa\u8a2d\u5c40\u4fe1\u6fc3\u5ddd\u5de5\u4e8b\u4e8b\u52d9\u6240","boring_xml_url":40,"boring_view_url":1,"soilmap_view_url":null,"soiltest_xml_url":0,"soiltest_view_url":0},{"id":161783,"code":"B4KJ201801005-0032","latitude":"37.57124047","longitude":"138.743547","source_code":"HR56382589003","project_name":"","survey_name":"\u6c42\u8349\u5730\u533a\u4ed6\u5730\u8cea\u8abf\u67fb\u4f5c\u696d","client_name":"\u5efa\u8a2d\u7701\u5317\u9678\u5730\u65b9\u5efa\u8a2d\u5c40\u9577\u5ca1\u56fd\u9053\u5de5\u4e8b\u4e8b\u52d9\u6240","boring_xml_url":40,"boring_view_url":1,"soilmap_view_url":null,"soiltest_xml_url":0,"soiltest_view_url":0},{"id":161782,"code":"B4KJ201801005-0031","latitude":"37.57124047","longitude":"138.743547","source_code":"HR56382589002","project_name":"","survey_name":"\u6c42\u8349\u5730\u533a\u4ed6\u5730\u8cea\u8abf\u67fb\u4f5c\u696d","client_name":"\u5efa\u8a2d\u7701\u5317\u9678\u5730\u65b9\u5efa\u8a2d\u5c40\u9577\u5ca1\u56fd\u9053\u5de5\u4e8b\u4e8b\u52d9\u6240","boring_xml_url":40,"boring_view_url":1,"soilmap_view_url":null,"soiltest_xml_url":0,"soiltest_view_url":0},{"id":161781,"code":"B4KJ201801005-0030","latitude":"37.56610211","longitude":"138.7373534","source_code":"HR56382579005","project_name":"","survey_name":"\u51fa\u96f2\u5d0e\u30d0\u30a4\u30d1\u30b9(\u4e59\u8302\uff5e\u4e21\u9ad8)\u5730\u8cea\u8abf\u67fb\u4f5c\u696d","client_name":"\u5efa\u8a2d\u7701\u5317\u9678\u5730\u65b9\u5efa\u8a2d\u5c40\u9577\u5ca1\u56fd\u9053\u5de5\u4e8b\u4e8b\u52d9\u6240","boring_xml_url":40,"boring_view_url":1,"soilmap_view_url":null,"soiltest_xml_url":0,"soiltest_view_url":0},{"id":161780,"code":"B4KJ201801005-0029","latitude":"37.56629652","longitude":"138.7373256","source_code":"HR56382579002","project_name":"","survey_name":"\u51fa\u96f2\u5d0e\u30d0\u30a4\u30d1\u30b9(\u4e59\u8302\uff5e\u4e21\u9ad8)\u5730\u8cea\u8abf\u67fb\u4f5c\u696d","client_name":"\u5efa\u8a2d\u7701\u5317\u9678\u5730\u65b9\u5efa\u8a2d\u5c40\u9577\u5ca1\u56fd\u9053\u5de5\u4e8b\u4e8b\u52d9\u6240","boring_xml_url":40,"boring_view_url":1,"soilmap_view_url":null,"soiltest_xml_url":0,"soiltest_view_url":0},{"id":161779,"code":"B4KJ201801005-0028","latitude":"37.56263028","longitude":"138.7327707","source_code":"HR56382578002","project_name":"","survey_name":"\u51fa\u96f2\u5d0e\u30d0\u30a4\u30d1\u30b9(\u4e59\u8302\uff5e\u4e21\u9ad8)\u5730\u8cea\u8abf\u67fb\u4f5c\u696d","client_name":"\u5efa\u8a2d\u7701\u5317\u9678\u5730\u65b9\u5efa\u8a2d\u5c40\u9577\u5ca1\u56fd\u9053\u5de5\u4e8b\u4e8b\u52d9\u6240","boring_xml_url":40,"boring_view_url":1,"soilmap_view_url":null,"soiltest_xml_url":0,"soiltest_view_url":0},{"id":161778,"code":"B4KJ201801005-0027","latitude":"37.56040834","longitude":"138.7306877","source_code":"HR56382568005","project_name":"","survey_name":"\u51fa\u96f2\u5d0e\u30d0\u30a4\u30d1\u30b9(\u4e59\u8302\uff5e\u4e21\u9ad8)\u5730\u8cea\u8abf\u67fb\u4f5c\u696d","client_name":"\u5efa\u8a2d\u7701\u5317\u9678\u5730\u65b9\u5efa\u8a2d\u5c40\u9577\u5ca1\u56fd\u9053\u5de5\u4e8b\u4e8b\u52d9\u6240","boring_xml_url":40,"boring_view_url":1,"soilmap_view_url":null,"soiltest_xml_url":0,"soiltest_view_url":0},{"id":161777,"code":"B4KJ201801005-0026","latitude":"37.55915849","longitude":"138.7293546","source_code":"HR56382568004","project_name":"","survey_name":"\u51fa\u96f2\u5d0e\u30d0\u30a4\u30d1\u30b9(\u4e59\u8302\uff5e\u4e21\u9ad8)\u5730\u8cea\u8abf\u67fb\u4f5c\u696d","client_name":"\u5efa\u8a2d\u7701\u5317\u9678\u5730\u65b9\u5efa\u8a2d\u5c40\u9577\u5ca1\u56fd\u9053\u5de5\u4e8b\u4e8b\u52d9\u6240","boring_xml_url":40,"boring_view_url":1,"soilmap_view_url":null,"soiltest_xml_url":0,"soiltest_view_url":0},{"id":161776,"code":"B4KJ201801005-0025","latitude":"37.55838082","longitude":"138.7302434","source_code":"HR56382568003","project_name":"","survey_name":"\u51fa\u96f2\u5d0e\u30d0\u30a4\u30d1\u30b9(\u4e59\u8302\uff5e\u4e21\u9ad8)\u5730\u8cea\u8abf\u67fb\u4f5c\u696d","client_name":"\u5efa\u8a2d\u7701\u5317\u9678\u5730\u65b9\u5efa\u8a2d\u5c40\u9577\u5ca1\u56fd\u9053\u5de5\u4e8b\u4e8b\u52d9\u6240","boring_xml_url":40,"boring_view_url":1,"soilmap_view_url":null,"soiltest_xml_url":0,"soiltest_view_url":0},{"id":161775,"code":"B4KJ201801005-0024","latitude":"37.55315923","longitude":"138.7264106","source_code":"HR56382568001","project_name":"","survey_name":"\u51fa\u96f2\u5d0e\u30d0\u30a4\u30d1\u30b9(\u4e59\u8302\uff5e\u4e21\u9ad8)\u5730\u8cea\u8abf\u67fb\u4f5c\u696d","client_name":"\u5efa\u8a2d\u7701\u5317\u9678\u5730\u65b9\u5efa\u8a2d\u5c40\u9577\u5ca1\u56fd\u9053\u5de5\u4e8b\u4e8b\u52d9\u6240","boring_xml_url":40,"boring_view_url":1,"soilmap_view_url":null,"soiltest_xml_url":0,"soiltest_view_url":0},{"id":161774,"code":"B4KJ201801005-0023","latitude":"37.55190939","longitude":"138.7259107","source_code":"HR56382558010","project_name":"","survey_name":"\u6ca2\u7530\u30fb\u4e59\u8302\u5730\u8cea\u8abf\u67fb\u4f5c\u696d","client_name":"\u5efa\u8a2d\u7701\u5317\u9678\u5730\u65b9\u5efa\u8a2d\u5c40\u9577\u5ca1\u56fd\u9053\u5de5\u4e8b\u4e8b\u52d9\u6240","boring_xml_url":40,"boring_view_url":1,"soilmap_view_url":null,"soiltest_xml_url":0,"soiltest_view_url":0},{"id":161773,"code":"B4KJ201801005-0022","latitude":"37.55074287","longitude":"138.7258274","source_code":"HR56382558009","project_name":"","survey_name":"\u6ca2\u7530\u30fb\u4e59\u8302\u5730\u8cea\u8abf\u67fb\u4f5c\u696d","client_name":"\u5efa\u8a2d\u7701\u5317\u9678\u5730\u65b9\u5efa\u8a2d\u5c40\u9577\u5ca1\u56fd\u9053\u5de5\u4e8b\u4e8b\u52d9\u6240","boring_xml_url":40,"boring_view_url":1,"soilmap_view_url":null,"soiltest_xml_url":0,"soiltest_view_url":0},{"id":161772,"code":"B4KJ201801005-0021","latitude":"37.55010407","longitude":"138.7259108","source_code":"HR56382558008","project_name":"","survey_name":"\u6ca2\u7530\u30fb\u4e59\u8302\u5730\u8cea\u8abf\u67fb\u4f5c\u696d","client_name":"\u5efa\u8a2d\u7701\u5317\u9678\u5730\u65b9\u5efa\u8a2d\u5c40\u9577\u5ca1\u56fd\u9053\u5de5\u4e8b\u4e8b\u52d9\u6240","boring_xml_url":40,"boring_view_url":1,"soilmap_view_url":null,"soiltest_xml_url":0,"soiltest_view_url":0},{"id":161771,"code":"B4KJ201801005-0020","latitude":"37.54965968","longitude":"138.7259663","source_code":"HR56382558007","project_name":"","survey_name":"\u6ca2\u7530\u30fb\u4e59\u8302\u5730\u8cea\u8abf\u67fb\u4f5c\u696d","client_name":"\u5efa\u8a2d\u7701\u5317\u9678\u5730\u65b9\u5efa\u8a2d\u5c40\u9577\u5ca1\u56fd\u9053\u5de5\u4e8b\u4e8b\u52d9\u6240","boring_xml_url":40,"boring_view_url":1,"soilmap_view_url":null,"soiltest_xml_url":0,"soiltest_view_url":0},{"id":161770,"code":"B4KJ201801005-0019","latitude":"37.55157611","longitude":"138.726744","source_code":"HR56382558006","project_name":"","survey_name":"\u51fa\u96f2\u5d0e\uff5e\u5bfa\u6cca\u5730\u533a\u5730\u8cea\u8abf\u67fb\u4f5c\u696d","client_name":"\u5efa\u8a2d\u7701\u5317\u9678\u5730\u65b9\u5efa\u8a2d\u5c40\u9577\u5ca1\u56fd\u9053\u5de5\u4e8b\u4e8b\u52d9\u6240","boring_xml_url":40,"boring_view_url":1,"soilmap_view_url":null,"soiltest_xml_url":0,"soiltest_view_url":0},{"id":161769,"code":"B4KJ201801005-0018","latitude":"37.55227046","longitude":"138.7266328","source_code":"HR56382558005","project_name":"","survey_name":"\u51fa\u96f2\u5d0e\uff5e\u5bfa\u6cca\u5730\u533a\u5730\u8cea\u8abf\u67fb\u4f5c\u696d","client_name":"\u5efa\u8a2d\u7701\u5317\u9678\u5730\u65b9\u5efa\u8a2d\u5c40\u9577\u5ca1\u56fd\u9053\u5de5\u4e8b\u4e8b\u52d9\u6240","boring_xml_url":40,"boring_view_url":1,"soilmap_view_url":null,"soiltest_xml_url":0,"soiltest_view_url":0},{"id":161768,"code":"B4KJ201801005-0017","latitude":"37.54882645","longitude":"138.7256886","source_code":"HR56382558004","project_name":"","survey_name":"\u662d\u548c58\u5e74\u5ea6\u51fa\u96f2\u5d0e\u5730\u533a\u5730\u8cea\u8abf\u67fb\u4f5c\u696d","client_name":"\u5efa\u8a2d\u7701\u5317\u9678\u5730\u65b9\u5efa\u8a2d\u5c40\u9577\u5ca1\u56fd\u9053\u5de5\u4e8b\u4e8b\u52d9\u6240","boring_xml_url":40,"boring_view_url":1,"soilmap_view_url":null,"soiltest_xml_url":0,"soiltest_view_url":0},{"id":161767,"code":"B4KJ201801005-0016","latitude":"37.54554912","longitude":"138.7267719","source_code":"HR56382558002","project_name":"","survey_name":"\u51fa\u96f2\u5d0e\u30d0\u30a4\u30d1\u30b9(\u5ddd\u897f\uff5e\u6ca2\u7530)\u5730\u8cea\u8abf\u67fb\u4f5c\u696d","client_name":"\u5efa\u8a2d\u7701\u5317\u9678\u5730\u65b9\u5efa\u8a2d\u5c40\u9577\u5ca1\u56fd\u9053\u5de5\u4e8b\u4e8b\u52d9\u6240","boring_xml_url":40,"boring_view_url":1,"soilmap_view_url":null,"soiltest_xml_url":0,"soiltest_view_url":0},{"id":161766,"code":"B4KJ201801005-0015","latitude":"37.54499361","longitude":"138.7256332","source_code":"HR56382558001","project_name":"","survey_name":"\u51fa\u96f2\u5d0e\u30d0\u30a4\u30d1\u30b9(\u5ddd\u897f\uff5e\u6ca2\u7530)\u5730\u8cea\u8abf\u67fb\u4f5c\u696d","client_name":"\u5efa\u8a2d\u7701\u5317\u9678\u5730\u65b9\u5efa\u8a2d\u5c40\u9577\u5ca1\u56fd\u9053\u5de5\u4e8b\u4e8b\u52d9\u6240","boring_xml_url":40,"boring_view_url":1,"soilmap_view_url":null,"soiltest_xml_url":0,"soiltest_view_url":0},{"id":161765,"code":"B4KJ201801005-0014","latitude":"37.54146631","longitude":"138.7256055","source_code":"HR56382548003","project_name":"","survey_name":"\u6c42\u8349\u5730\u533a\u4ed6\u5730\u8cea\u8abf\u67fb\u4f5c\u696d","client_name":"\u5efa\u8a2d\u7701\u5317\u9678\u5730\u65b9\u5efa\u8a2d\u5c40\u9577\u5ca1\u56fd\u9053\u5de5\u4e8b\u4e8b\u52d9\u6240","boring_xml_url":40,"boring_view_url":1,"soilmap_view_url":null,"soiltest_xml_url":0,"soiltest_view_url":0},{"id":161764,"code":"B4KJ201801005-0013","latitude":"37.54424371","longitude":"138.7253554","source_code":"HR56382548002","project_name":"","survey_name":"\u51fa\u96f2\u5d0e\u30d0\u30a4\u30d1\u30b9(\u5ddd\u897f\uff5e\u6ca2\u7530)\u5730\u8cea\u8abf\u67fb\u4f5c\u696d","client_name":"\u5efa\u8a2d\u7701\u5317\u9678\u5730\u65b9\u5efa\u8a2d\u5c40\u9577\u5ca1\u56fd\u9053\u5de5\u4e8b\u4e8b\u52d9\u6240","boring_xml_url":40,"boring_view_url":1,"soilmap_view_url":null,"soiltest_xml_url":0,"soiltest_view_url":0},{"id":161763,"code":"B4KJ201801005-0012","latitude":"37.5356059","longitude":"138.7211061","source_code":"HR56382537011","project_name":"","survey_name":"\u51fa\u96f2\u5d0e\u30d0\u30a4\u30d1\u30b9(\u4e59\u8302\uff5e\u4e21\u9ad8)\u5730\u8cea\u8abf\u67fb\u4f5c\u696d","client_name":"\u5efa\u8a2d\u7701\u5317\u9678\u5730\u65b9\u5efa\u8a2d\u5c40\u9577\u5ca1\u56fd\u9053\u5de5\u4e8b\u4e8b\u52d9\u6240","boring_xml_url":40,"boring_view_url":1,"soilmap_view_url":null,"soiltest_xml_url":0,"soiltest_view_url":0},{"id":161762,"code":"B4KJ201801005-0011","latitude":"37.53566145","longitude":"138.7209673","source_code":"HR56382537010","project_name":"","survey_name":"\u51fa\u96f2\u5d0e\u30d0\u30a4\u30d1\u30b9(\u4e59\u8302\uff5e\u4e21\u9ad8)\u5730\u8cea\u8abf\u67fb\u4f5c\u696d","client_name":"\u5efa\u8a2d\u7701\u5317\u9678\u5730\u65b9\u5efa\u8a2d\u5c40\u9577\u5ca1\u56fd\u9053\u5de5\u4e8b\u4e8b\u52d9\u6240","boring_xml_url":40,"boring_view_url":1,"soilmap_view_url":null,"soiltest_xml_url":0,"soiltest_view_url":0},{"id":161761,"code":"B4KJ201801005-0010","latitude":"37.53580031","longitude":"138.7206895","source_code":"HR56382537009","project_name":"","survey_name":"\u51fa\u96f2\u5d0e\u30d0\u30a4\u30d1\u30b9(\u4e59\u8302\uff5e\u4e21\u9ad8)\u5730\u8cea\u8abf\u67fb\u4f5c\u696d","client_name":"\u5efa\u8a2d\u7701\u5317\u9678\u5730\u65b9\u5efa\u8a2d\u5c40\u9577\u5ca1\u56fd\u9053\u5de5\u4e8b\u4e8b\u52d9\u6240","boring_xml_url":40,"boring_view_url":1,"soilmap_view_url":null,"soiltest_xml_url":0,"soiltest_view_url":0},{"id":161760,"code":"B4KJ201801005-0009","latitude":"37.53591142","longitude":"138.7211895","source_code":"HR56382537008","project_name":"","survey_name":"\u51fa\u96f2\u5d0e\u30d0\u30a4\u30d1\u30b9(\u4e59\u8302\uff5e\u4e21\u9ad8)\u5730\u8cea\u8abf\u67fb\u4f5c\u696d","client_name":"\u5efa\u8a2d\u7701\u5317\u9678\u5730\u65b9\u5efa\u8a2d\u5c40\u9577\u5ca1\u56fd\u9053\u5de5\u4e8b\u4e8b\u52d9\u6240","boring_xml_url":40,"boring_view_url":1,"soilmap_view_url":null,"soiltest_xml_url":0,"soiltest_view_url":0},{"id":161759,"code":"B4KJ201801005-0008","latitude":"37.53607806","longitude":"138.7209395","source_code":"HR56382537007","project_name":"","survey_name":"\u51fa\u96f2\u5d0e\u30d0\u30a4\u30d1\u30b9(\u4e59\u8302\uff5e\u4e21\u9ad8)\u5730\u8cea\u8abf\u67fb\u4f5c\u696d","client_name":"\u5efa\u8a2d\u7701\u5317\u9678\u5730\u65b9\u5efa\u8a2d\u5c40\u9577\u5ca1\u56fd\u9053\u5de5\u4e8b\u4e8b\u52d9\u6240","boring_xml_url":40,"boring_view_url":1,"soilmap_view_url":null,"soiltest_xml_url":0,"soiltest_view_url":0},{"id":161758,"code":"B4KJ201801005-0007","latitude":"37.53349502","longitude":"138.7178566","source_code":"HR56382537005","project_name":"","survey_name":"\u51fa\u96f2\u5d0e\u30d0\u30a4\u30d1\u30b9(\u5ddd\u897f\uff5e\u6ca2\u7530)\u5730\u8cea\u8abf\u67fb\u4f5c\u696d","client_name":"\u5efa\u8a2d\u7701\u5317\u9678\u5730\u65b9\u5efa\u8a2d\u5c40\u9577\u5ca1\u56fd\u9053\u5de5\u4e8b\u4e8b\u52d9\u6240","boring_xml_url":40,"boring_view_url":1,"soilmap_view_url":null,"soiltest_xml_url":0,"soiltest_view_url":0},{"id":161757,"code":"B4KJ201801005-0006","latitude":"37.53552256","longitude":"138.7199952","source_code":"HR56382537004","project_name":"","survey_name":"\u51fa\u96f2\u5d0e\u30d0\u30a4\u30d1\u30b9(\u5ddd\u897f\uff5e\u6ca2\u7530)\u5730\u8cea\u8abf\u67fb\u4f5c\u696d","client_name":"\u5efa\u8a2d\u7701\u5317\u9678\u5730\u65b9\u5efa\u8a2d\u5c40\u9577\u5ca1\u56fd\u9053\u5de5\u4e8b\u4e8b\u52d9\u6240","boring_xml_url":40,"boring_view_url":1,"soilmap_view_url":null,"soiltest_xml_url":0,"soiltest_view_url":0},{"id":161756,"code":"B4KJ201801005-0005","latitude":"37.53055097","longitude":"138.7172179","source_code":"HR56382537001","project_name":"","survey_name":"\u51fa\u96f2\u5d0e\u30d0\u30a4\u30d1\u30b9(\u5ddd\u897f\uff5e\u6ca2\u7530)\u5730\u8cea\u8abf\u67fb\u4f5c\u696d","client_name":"\u5efa\u8a2d\u7701\u5317\u9678\u5730\u65b9\u5efa\u8a2d\u5c40\u9577\u5ca1\u56fd\u9053\u5de5\u4e8b\u4e8b\u52d9\u6240","boring_xml_url":40,"boring_view_url":1,"soilmap_view_url":null,"soiltest_xml_url":0,"soiltest_view_url":0}]}}