{"header":{"xyz":{"source":[],"mosaic":false},"page":5298,"raw":{"soiltest_result":"0","bbox":"57.598333,109.544722,1.933333,163.806111","page":"5298"},"conditions":{"soiltest_result":0,"north":57.598333,"west":109.544722,"south":1.933333,"east":163.806111},"success":true,"message":""},"data":{"meta":{"total":212844,"page":5298,"pages":7095,"count":30},"values":[{"id":161635,"code":"B4KJ201801004-9884","latitude":"37.37473915","longitude":"138.8343784","source_code":"HR56380647005","project_name":"","survey_name":"\u5357\u9577\u5ca1\u62e1\u5e45\u5916\u5730\u8cea\u8abf\u67fb\u4f5c\u696d","client_name":"\u5efa\u8a2d\u7701\u5317\u9678\u5730\u65b9\u5efa\u8a2d\u5c40\u9577\u5ca1\u56fd\u9053\u5de5\u4e8b\u4e8b\u52d9\u6240","boring_xml_url":40,"boring_view_url":1,"soilmap_view_url":null,"soiltest_xml_url":0,"soiltest_view_url":0},{"id":161634,"code":"B4KJ201801004-9883","latitude":"37.37429476","longitude":"138.8343784","source_code":"HR56380647004","project_name":"","survey_name":"\u5357\u9577\u5ca1\u62e1\u5e45\u5916\u5730\u8cea\u8abf\u67fb\u4f5c\u696d","client_name":"\u5efa\u8a2d\u7701\u5317\u9678\u5730\u65b9\u5efa\u8a2d\u5c40\u9577\u5ca1\u56fd\u9053\u5de5\u4e8b\u4e8b\u52d9\u6240","boring_xml_url":40,"boring_view_url":1,"soilmap_view_url":null,"soiltest_xml_url":0,"soiltest_view_url":0},{"id":161633,"code":"B4KJ201801004-9882","latitude":"37.37329489","longitude":"138.8343785","source_code":"HR56380647003","project_name":"","survey_name":"\u5357\u9577\u5ca1\u62e1\u5e45\u5916\u5730\u8cea\u8abf\u67fb\u4f5c\u696d","client_name":"\u5efa\u8a2d\u7701\u5317\u9678\u5730\u65b9\u5efa\u8a2d\u5c40\u9577\u5ca1\u56fd\u9053\u5de5\u4e8b\u4e8b\u52d9\u6240","boring_xml_url":40,"boring_view_url":1,"soilmap_view_url":null,"soiltest_xml_url":0,"soiltest_view_url":0},{"id":161632,"code":"B4KJ201801004-9881","latitude":"37.37385049","longitude":"138.8405444","source_code":"HR56380647002","project_name":"","survey_name":"\u5357\u9577\u5ca1\u62e1\u5e45\u5916\u5730\u8cea\u8abf\u67fb\u4f5c\u696d","client_name":"\u5efa\u8a2d\u7701\u5317\u9678\u5730\u65b9\u5efa\u8a2d\u5c40\u9577\u5ca1\u56fd\u9053\u5de5\u4e8b\u4e8b\u52d9\u6240","boring_xml_url":40,"boring_view_url":1,"soilmap_view_url":null,"soiltest_xml_url":0,"soiltest_view_url":0},{"id":161631,"code":"B4KJ201801004-9880","latitude":"37.37465583","longitude":"138.8343507","source_code":"HR56380647001","project_name":"","survey_name":"17\u53f7\u69cb\u9020\u7269\u57fa\u790e\u8abf\u67fb\u4f5c\u696d","client_name":"\u5efa\u8a2d\u7701\u5317\u9678\u5730\u65b9\u5efa\u8a2d\u5c40\u9577\u5ca1\u56fd\u9053\u5de5\u4e8b\u4e8b\u52d9\u6240","boring_xml_url":40,"boring_view_url":1,"soilmap_view_url":null,"soiltest_xml_url":0,"soiltest_view_url":0},{"id":161630,"code":"B4KJ201801004-9879","latitude":"37.36918433","longitude":"138.8347951","source_code":"HR56380637001","project_name":"","survey_name":"\u5357\u9577\u5ca1\u62e1\u5e45\u59161\u4ef6\u5730\u8cea\u8abf\u67fb\u4f5c\u696d","client_name":"\u5efa\u8a2d\u7701\u5317\u9678\u5730\u65b9\u5efa\u8a2d\u5c40\u9577\u5ca1\u56fd\u9053\u5de5\u4e8b\u4e8b\u52d9\u6240","boring_xml_url":40,"boring_view_url":1,"soilmap_view_url":null,"soiltest_xml_url":0,"soiltest_view_url":0},{"id":161629,"code":"B4KJ201801004-9878","latitude":"37.36901766","longitude":"138.8337953","source_code":"HR56380636001","project_name":"","survey_name":"\u5357\u9577\u5ca1\u62e1\u5e45\u59161\u4ef6\u5730\u8cea\u8abf\u67fb\u4f5c\u696d","client_name":"\u5efa\u8a2d\u7701\u5317\u9678\u5730\u65b9\u5efa\u8a2d\u5c40\u9577\u5ca1\u56fd\u9053\u5de5\u4e8b\u4e8b\u52d9\u6240","boring_xml_url":40,"boring_view_url":1,"soilmap_view_url":null,"soiltest_xml_url":0,"soiltest_view_url":0},{"id":161628,"code":"B4KJ201801004-9877","latitude":"37.34940913","longitude":"138.8319628","source_code":"HR56380616003","project_name":"","survey_name":"\u9577\u5ca1\u30d0\u30a4\u30d1\u30b9(\u95a2\u539f\u5730\u533a)\u59162\u4ef6\u5730\u8cea\u8abf\u67fb\u4f5c\u696d","client_name":"\u5efa\u8a2d\u7701\u5317\u9678\u5730\u65b9\u5efa\u8a2d\u5c40\u9577\u5ca1\u56fd\u9053\u5de5\u4e8b\u4e8b\u52d9\u6240","boring_xml_url":40,"boring_view_url":1,"soilmap_view_url":null,"soiltest_xml_url":0,"soiltest_view_url":0},{"id":161627,"code":"B4KJ201801004-9876","latitude":"37.34485399","longitude":"138.8229363","source_code":"HR56380616002","project_name":"","survey_name":"\u5c0f\u5343\u8c37\u5730\u533a\u5730\u8cea\u8abf\u67fb\u4f5c\u696d","client_name":"\u5efa\u8a2d\u7701\u5317\u9678\u5730\u65b9\u5efa\u8a2d\u5c40\u65b0\u6f5f\u56fd\u9053\u5de5\u4e8b\u4e8b\u52d9\u6240","boring_xml_url":40,"boring_view_url":1,"soilmap_view_url":null,"soiltest_xml_url":0,"soiltest_view_url":0},{"id":161626,"code":"B4KJ201801004-9875","latitude":"37.40706592","longitude":"138.6593654","source_code":"HR56380583017","project_name":"","survey_name":"\u66fd\u5730\u9053\u8def\u5730\u8cea\u8abf\u67fb\u4f5c\u696d","client_name":"\u5efa\u8a2d\u7701\u5317\u9678\u5730\u65b9\u5efa\u8a2d\u5c40\u9577\u5ca1\u56fd\u9053\u5de5\u4e8b\u4e8b\u52d9\u6240","boring_xml_url":40,"boring_view_url":1,"soilmap_view_url":null,"soiltest_xml_url":0,"soiltest_view_url":0},{"id":161625,"code":"B4KJ201801004-9874","latitude":"37.40728812","longitude":"138.6597265","source_code":"HR56380583016","project_name":"","survey_name":"\u66fd\u5730\u9053\u8def\u5730\u8cea\u8abf\u67fb\u4f5c\u696d","client_name":"\u5efa\u8a2d\u7701\u5317\u9678\u5730\u65b9\u5efa\u8a2d\u5c40\u9577\u5ca1\u56fd\u9053\u5de5\u4e8b\u4e8b\u52d9\u6240","boring_xml_url":40,"boring_view_url":1,"soilmap_view_url":null,"soiltest_xml_url":0,"soiltest_view_url":0},{"id":161624,"code":"B4KJ201801004-9873","latitude":"37.40873239","longitude":"138.6608096","source_code":"HR56380583014","project_name":"","survey_name":"\u66fd\u5730\u9053\u8def\u5730\u8cea\u8abf\u67fb\u4f5c\u696d","client_name":"\u5efa\u8a2d\u7701\u5317\u9678\u5730\u65b9\u5efa\u8a2d\u5c40\u9577\u5ca1\u56fd\u9053\u5de5\u4e8b\u4e8b\u52d9\u6240","boring_xml_url":40,"boring_view_url":1,"soilmap_view_url":null,"soiltest_xml_url":0,"soiltest_view_url":0},{"id":161623,"code":"B4KJ201801004-9872","latitude":"37.40987116","longitude":"138.6630038","source_code":"HR56380583013","project_name":"","survey_name":"\u66fd\u5730\u9053\u8def\u5730\u8cea\u8abf\u67fb\u4f5c\u696d","client_name":"\u5efa\u8a2d\u7701\u5317\u9678\u5730\u65b9\u5efa\u8a2d\u5c40\u9577\u5ca1\u56fd\u9053\u5de5\u4e8b\u4e8b\u52d9\u6240","boring_xml_url":40,"boring_view_url":1,"soilmap_view_url":null,"soiltest_xml_url":0,"soiltest_view_url":0},{"id":161622,"code":"B4KJ201801004-9871","latitude":"37.41006559","longitude":"138.663476","source_code":"HR56380583012","project_name":"","survey_name":"\u66fd\u5730\u9053\u8def\u5730\u8cea\u8abf\u67fb\u4f5c\u696d","client_name":"\u5efa\u8a2d\u7701\u5317\u9678\u5730\u65b9\u5efa\u8a2d\u5c40\u9577\u5ca1\u56fd\u9053\u5de5\u4e8b\u4e8b\u52d9\u6240","boring_xml_url":40,"boring_view_url":1,"soilmap_view_url":null,"soiltest_xml_url":0,"soiltest_view_url":0},{"id":161621,"code":"B4KJ201801004-9870","latitude":"37.40734367","longitude":"138.6602264","source_code":"HR56380583011","project_name":"","survey_name":"\u66fd\u5730\u9053\u8def\u5730\u8cea\u8abf\u67fb\u4f5c\u696d","client_name":"\u5efa\u8a2d\u7701\u5317\u9678\u5730\u65b9\u5efa\u8a2d\u5c40\u9577\u5ca1\u56fd\u9053\u5de5\u4e8b\u4e8b\u52d9\u6240","boring_xml_url":40,"boring_view_url":1,"soilmap_view_url":null,"soiltest_xml_url":0,"soiltest_view_url":0},{"id":161620,"code":"B4KJ201801004-9869","latitude":"37.40770474","longitude":"138.660643","source_code":"HR56380583010","project_name":"","survey_name":"\u66fd\u5730\u9053\u8def\u5730\u8cea\u8abf\u67fb\u4f5c\u696d","client_name":"\u5efa\u8a2d\u7701\u5317\u9678\u5730\u65b9\u5efa\u8a2d\u5c40\u9577\u5ca1\u56fd\u9053\u5de5\u4e8b\u4e8b\u52d9\u6240","boring_xml_url":40,"boring_view_url":1,"soilmap_view_url":null,"soiltest_xml_url":0,"soiltest_view_url":0},{"id":161619,"code":"B4KJ201801004-9868","latitude":"37.40962119","longitude":"138.6619762","source_code":"HR56380583003","project_name":"","survey_name":"\u66fd\u5730\u9053\u8def\u5730\u8cea\u8abf\u67fb\u4f5c\u696d","client_name":"\u5efa\u8a2d\u7701\u5317\u9678\u5730\u65b9\u5efa\u8a2d\u5c40\u9577\u5ca1\u56fd\u9053\u5de5\u4e8b\u4e8b\u52d9\u6240","boring_xml_url":40,"boring_view_url":1,"soilmap_view_url":null,"soiltest_xml_url":0,"soiltest_view_url":0},{"id":161618,"code":"B4KJ201801004-9867","latitude":"37.40614932","longitude":"138.6555603","source_code":"HR56380582029","project_name":"","survey_name":"\u66fd\u5730\u9053\u8def\u5730\u8cea\u8abf\u67fb\u305d\u306e2\u4f5c\u696d","client_name":"\u5efa\u8a2d\u7701\u5317\u9678\u5730\u65b9\u5efa\u8a2d\u5c40\u9577\u5ca1\u56fd\u9053\u5de5\u4e8b\u4e8b\u52d9\u6240","boring_xml_url":40,"boring_view_url":1,"soilmap_view_url":null,"soiltest_xml_url":0,"soiltest_view_url":0},{"id":161617,"code":"B4KJ201801004-9866","latitude":"37.40637146","longitude":"138.6511996","source_code":"HR56380582027","project_name":"","survey_name":"\u66fd\u5730\u9053\u8def\u5730\u8cea\u8abf\u67fb\u4f5c\u696d","client_name":"\u5efa\u8a2d\u7701\u5317\u9678\u5730\u65b9\u5efa\u8a2d\u5c40\u9577\u5ca1\u56fd\u9053\u5de5\u4e8b\u4e8b\u52d9\u6240","boring_xml_url":40,"boring_view_url":1,"soilmap_view_url":null,"soiltest_xml_url":0,"soiltest_view_url":0},{"id":161616,"code":"B4KJ201801004-9865","latitude":"37.40537164","longitude":"138.6556436","source_code":"HR56380582025","project_name":"","survey_name":"\u66fd\u5730\u9053\u8def\u5730\u8cea\u8abf\u67fb\u4f5c\u696d","client_name":"\u5efa\u8a2d\u7701\u5317\u9678\u5730\u65b9\u5efa\u8a2d\u5c40\u9577\u5ca1\u56fd\u9053\u5de5\u4e8b\u4e8b\u52d9\u6240","boring_xml_url":40,"boring_view_url":1,"soilmap_view_url":null,"soiltest_xml_url":0,"soiltest_view_url":0},{"id":161615,"code":"B4KJ201801004-9864","latitude":"37.40551051","longitude":"138.6555325","source_code":"HR56380582024","project_name":"","survey_name":"\u66fd\u5730\u9053\u8def\u5730\u8cea\u8abf\u67fb\u4f5c\u696d","client_name":"\u5efa\u8a2d\u7701\u5317\u9678\u5730\u65b9\u5efa\u8a2d\u5c40\u9577\u5ca1\u56fd\u9053\u5de5\u4e8b\u4e8b\u52d9\u6240","boring_xml_url":40,"boring_view_url":1,"soilmap_view_url":null,"soiltest_xml_url":0,"soiltest_view_url":0},{"id":161614,"code":"B4KJ201801004-9863","latitude":"37.40578824","longitude":"138.6549492","source_code":"HR56380582023","project_name":"","survey_name":"\u66fd\u5730\u9053\u8def\u5730\u8cea\u8abf\u67fb\u4f5c\u696d","client_name":"\u5efa\u8a2d\u7701\u5317\u9678\u5730\u65b9\u5efa\u8a2d\u5c40\u9577\u5ca1\u56fd\u9053\u5de5\u4e8b\u4e8b\u52d9\u6240","boring_xml_url":40,"boring_view_url":1,"soilmap_view_url":null,"soiltest_xml_url":0,"soiltest_view_url":0},{"id":161613,"code":"B4KJ201801004-9862","latitude":"37.40523276","longitude":"138.6547826","source_code":"HR56380582022","project_name":"","survey_name":"\u66fd\u5730\u9053\u8def\u5730\u8cea\u8abf\u67fb\u4f5c\u696d","client_name":"\u5efa\u8a2d\u7701\u5317\u9678\u5730\u65b9\u5efa\u8a2d\u5c40\u9577\u5ca1\u56fd\u9053\u5de5\u4e8b\u4e8b\u52d9\u6240","boring_xml_url":40,"boring_view_url":1,"soilmap_view_url":null,"soiltest_xml_url":0,"soiltest_view_url":0},{"id":161612,"code":"B4KJ201801004-9861","latitude":"37.40573269","longitude":"138.6545882","source_code":"HR56380582021","project_name":"","survey_name":"\u66fd\u5730\u9053\u8def\u5730\u8cea\u8abf\u67fb\u4f5c\u696d","client_name":"\u5efa\u8a2d\u7701\u5317\u9678\u5730\u65b9\u5efa\u8a2d\u5c40\u9577\u5ca1\u56fd\u9053\u5de5\u4e8b\u4e8b\u52d9\u6240","boring_xml_url":40,"boring_view_url":1,"soilmap_view_url":null,"soiltest_xml_url":0,"soiltest_view_url":0},{"id":161611,"code":"B4KJ201801004-9860","latitude":"37.40598265","longitude":"138.6540327","source_code":"HR56380582020","project_name":"","survey_name":"\u66fd\u5730\u9053\u8def\u5730\u8cea\u8abf\u67fb\u4f5c\u696d","client_name":"\u5efa\u8a2d\u7701\u5317\u9678\u5730\u65b9\u5efa\u8a2d\u5c40\u9577\u5ca1\u56fd\u9053\u5de5\u4e8b\u4e8b\u52d9\u6240","boring_xml_url":40,"boring_view_url":1,"soilmap_view_url":null,"soiltest_xml_url":0,"soiltest_view_url":0},{"id":161610,"code":"B4KJ201801004-9859","latitude":"37.40634372","longitude":"138.6537549","source_code":"HR56380582019","project_name":"","survey_name":"\u66fd\u5730\u9053\u8def\u5730\u8cea\u8abf\u67fb\u4f5c\u696d","client_name":"\u5efa\u8a2d\u7701\u5317\u9678\u5730\u65b9\u5efa\u8a2d\u5c40\u9577\u5ca1\u56fd\u9053\u5de5\u4e8b\u4e8b\u52d9\u6240","boring_xml_url":40,"boring_view_url":1,"soilmap_view_url":null,"soiltest_xml_url":0,"soiltest_view_url":0},{"id":161609,"code":"B4KJ201801004-9858","latitude":"37.40609375","longitude":"138.6536994","source_code":"HR56380582018","project_name":"","survey_name":"\u66fd\u5730\u9053\u8def\u5730\u8cea\u8abf\u67fb\u4f5c\u696d","client_name":"\u5efa\u8a2d\u7701\u5317\u9678\u5730\u65b9\u5efa\u8a2d\u5c40\u9577\u5ca1\u56fd\u9053\u5de5\u4e8b\u4e8b\u52d9\u6240","boring_xml_url":40,"boring_view_url":1,"soilmap_view_url":null,"soiltest_xml_url":0,"soiltest_view_url":0},{"id":161608,"code":"B4KJ201801004-9857","latitude":"37.40714909","longitude":"138.6468667","source_code":"HR56380582016","project_name":"","survey_name":"\u66fd\u5730\u9053\u8def\u5730\u8cea\u8abf\u67fb\u4f5c\u696d","client_name":"\u5efa\u8a2d\u7701\u5317\u9678\u5730\u65b9\u5efa\u8a2d\u5c40\u9577\u5ca1\u56fd\u9053\u5de5\u4e8b\u4e8b\u52d9\u6240","boring_xml_url":40,"boring_view_url":1,"soilmap_view_url":null,"soiltest_xml_url":0,"soiltest_view_url":0},{"id":161607,"code":"B4KJ201801004-9856","latitude":"37.40589934","longitude":"138.6545326","source_code":"HR56380582015","project_name":"","survey_name":"\u66fd\u5730\u9262\u5d0e\u5730\u8cea\u8abf\u67fb\u4f5c\u696d","client_name":"\u5efa\u8a2d\u7701\u5317\u9678\u5730\u65b9\u5efa\u8a2d\u5c40\u9577\u5ca1\u56fd\u9053\u5de5\u4e8b\u4e8b\u52d9\u6240","boring_xml_url":40,"boring_view_url":1,"soilmap_view_url":null,"soiltest_xml_url":0,"soiltest_view_url":0},{"id":161606,"code":"B4KJ201801004-9855","latitude":"37.40639924","longitude":"138.6517551","source_code":"HR56380582014","project_name":"","survey_name":"\u66fd\u5730\u9262\u5d0e\u5730\u8cea\u8abf\u67fb\u4f5c\u696d","client_name":"\u5efa\u8a2d\u7701\u5317\u9678\u5730\u65b9\u5efa\u8a2d\u5c40\u9577\u5ca1\u56fd\u9053\u5de5\u4e8b\u4e8b\u52d9\u6240","boring_xml_url":40,"boring_view_url":1,"soilmap_view_url":null,"soiltest_xml_url":0,"soiltest_view_url":0}]}}