{"header":{"xyz":{"source":[],"mosaic":false},"page":5309,"raw":{"soiltest_result":"0","bbox":"57.598333,109.544722,1.933333,163.806111","page":"5309"},"conditions":{"soiltest_result":0,"north":57.598333,"west":109.544722,"south":1.933333,"east":163.806111},"success":true,"message":""},"data":{"meta":{"total":212844,"page":5309,"pages":7095,"count":30},"values":[{"id":161305,"code":"B4KJ201801004-9554","latitude":"37.1676909","longitude":"138.1270088","source_code":"HR55385190002","project_name":"","survey_name":"\u4e0a\u8d8a\u5e02\u8336\u5c4b\u30f6\u539f\u5730\u5148","client_name":"\u5efa\u8a2d\u7701\u5317\u9678\u5730\u65b9\u5efa\u8a2d\u5c40\u9ad8\u7530\u5de5\u4e8b\u4e8b\u52d9\u6240","boring_xml_url":40,"boring_view_url":1,"soilmap_view_url":null,"soiltest_xml_url":0,"soiltest_view_url":0},{"id":161304,"code":"B4KJ201801004-9553","latitude":"37.16746871","longitude":"138.1272032","source_code":"HR55385190001","project_name":"","survey_name":"\u4e0a\u8d8a\u5e02\u8336\u5c4b\u30f6\u539f\u5730\u5148","client_name":"\u5efa\u8a2d\u7701\u5317\u9678\u5730\u65b9\u5efa\u8a2d\u5c40\u9ad8\u7530\u5de5\u4e8b\u4e8b\u52d9\u6240","boring_xml_url":40,"boring_view_url":1,"soilmap_view_url":null,"soiltest_xml_url":0,"soiltest_view_url":0},{"id":161303,"code":"B4KJ201801004-9552","latitude":"37.15458544","longitude":"138.2435817","source_code":"HR55385189014","project_name":"","survey_name":"\u4e09\u4ea4\u5730\u533a\u4ed62\u4ef6\u5730\u8cea\u8abf\u67fb\u4f5c\u696d","client_name":"\u5efa\u8a2d\u7701\u5317\u9678\u5730\u65b9\u5efa\u8a2d\u5c40\u9ad8\u7530\u5de5\u4e8b\u4e8b\u52d9\u6240","boring_xml_url":40,"boring_view_url":1,"soilmap_view_url":null,"soiltest_xml_url":0,"soiltest_view_url":0},{"id":161302,"code":"B4KJ201801004-9551","latitude":"37.15458545","longitude":"138.2437483","source_code":"HR55385189013","project_name":"","survey_name":"\u4e09\u4ea4\u5730\u533a\u4ed62\u4ef6\u5730\u8cea\u8abf\u67fb\u4f5c\u696d","client_name":"\u5efa\u8a2d\u7701\u5317\u9678\u5730\u65b9\u5efa\u8a2d\u5c40\u9ad8\u7530\u5de5\u4e8b\u4e8b\u52d9\u6240","boring_xml_url":40,"boring_view_url":1,"soilmap_view_url":null,"soiltest_xml_url":0,"soiltest_view_url":0},{"id":161301,"code":"B4KJ201801004-9550","latitude":"37.15458545","longitude":"138.2438316","source_code":"HR55385189012","project_name":"","survey_name":"\u4e09\u4ea4\u5730\u533a\u4ed62\u4ef6\u5730\u8cea\u8abf\u67fb\u4f5c\u696d","client_name":"\u5efa\u8a2d\u7701\u5317\u9678\u5730\u65b9\u5efa\u8a2d\u5c40\u9ad8\u7530\u5de5\u4e8b\u4e8b\u52d9\u6240","boring_xml_url":40,"boring_view_url":1,"soilmap_view_url":null,"soiltest_xml_url":0,"soiltest_view_url":0},{"id":161300,"code":"B4KJ201801004-9549","latitude":"37.15655743","longitude":"138.243526","source_code":"HR55385189005","project_name":"","survey_name":"\u5869\u5c4b\u6c34\u9632\u5009\u5eab\u65b0\u7bc9\u5de5\u4e8b\u5730\u8cea\u8abf\u67fb\u4f5c\u696d","client_name":"\u5efa\u8a2d\u7701\u5317\u9678\u5730\u65b9\u5efa\u8a2d\u5c40\u9ad8\u7530\u5de5\u4e8b\u4e8b\u52d9\u6240","boring_xml_url":40,"boring_view_url":1,"soilmap_view_url":null,"soiltest_xml_url":0,"soiltest_view_url":0},{"id":161299,"code":"B4KJ201801004-9548","latitude":"37.15527983","longitude":"138.2441927","source_code":"HR55385189002","project_name":"","survey_name":"\u95a2\u5ddd\u5824\u9632\u57fa\u790e\u5730\u76e4\u8abf\u67fb\u4f5c\u696d","client_name":"\u5efa\u8a2d\u7701\u5317\u9678\u5730\u65b9\u5efa\u8a2d\u5c40\u9ad8\u7530\u5de5\u4e8b\u4e8b\u52d9\u6240","boring_xml_url":40,"boring_view_url":1,"soilmap_view_url":null,"soiltest_xml_url":0,"soiltest_view_url":0},{"id":161298,"code":"B4KJ201801004-9547","latitude":"37.15997289","longitude":"138.2224169","source_code":"HR55385188011","project_name":"","survey_name":"\u4e94\u667a\u56fd\u5e9c\u81ea\u6b69\u9053\u5730\u8cea\u8abf\u67fb\u4f5c\u696d","client_name":"\u5efa\u8a2d\u7701\u5317\u9678\u5730\u65b9\u5efa\u8a2d\u5c40\u9ad8\u7530\u5de5\u4e8b\u4e8b\u52d9\u6240","boring_xml_url":40,"boring_view_url":1,"soilmap_view_url":null,"soiltest_xml_url":0,"soiltest_view_url":0},{"id":161297,"code":"B4KJ201801004-9546","latitude":"37.15941746","longitude":"138.2240834","source_code":"HR55385188010","project_name":"","survey_name":"\u4e94\u667a\u56fd\u5e9c\u81ea\u6b69\u9053\u5730\u8cea\u8abf\u67fb\u4f5c\u696d","client_name":"\u5efa\u8a2d\u7701\u5317\u9678\u5730\u65b9\u5efa\u8a2d\u5c40\u9ad8\u7530\u5de5\u4e8b\u4e8b\u52d9\u6240","boring_xml_url":40,"boring_view_url":1,"soilmap_view_url":null,"soiltest_xml_url":0,"soiltest_view_url":0},{"id":161296,"code":"B4KJ201801004-9545","latitude":"37.1601399","longitude":"138.2321937","source_code":"HR55385188009","project_name":"","survey_name":"\u611b\u5b95\u8de8\u7dda\u6a4b\u5730\u8cea\u8abf\u67fb","client_name":"\u5efa\u8a2d\u7701\u5317\u9678\u5730\u65b9\u5efa\u8a2d\u5c40\u9ad8\u7530\u5de5\u4e8b\u4e8b\u52d9\u6240","boring_xml_url":40,"boring_view_url":1,"soilmap_view_url":null,"soiltest_xml_url":0,"soiltest_view_url":0},{"id":161295,"code":"B4KJ201801004-9544","latitude":"37.16050099","longitude":"138.2328325","source_code":"HR55385188002","project_name":"","survey_name":"\u76f4\u6c5f\u6d25\u30d0\u30a4\u30d1\u30b9\u8a66\u9a13\u76db\u571f\u8abf\u67fb\u696d\u52d9\u59d4\u8a17","client_name":"\u5efa\u8a2d\u7701\u5317\u9678\u5730\u65b9\u5efa\u8a2d\u5c40\u9ad8\u7530\u5de5\u4e8b\u4e8b\u52d9\u6240","boring_xml_url":40,"boring_view_url":1,"soilmap_view_url":null,"soiltest_xml_url":0,"soiltest_view_url":0},{"id":161294,"code":"B4KJ201801004-9543","latitude":"37.16055656","longitude":"138.2333603","source_code":"HR55385188001","project_name":"","survey_name":"\u76f4\u6c5f\u6d25\u30d0\u30a4\u30d1\u30b9\u8a66\u9a13\u76db\u571f\u8abf\u67fb\u696d\u52d9\u59d4\u8a17","client_name":"\u5efa\u8a2d\u7701\u5317\u9678\u5730\u65b9\u5efa\u8a2d\u5c40\u9ad8\u7530\u5de5\u4e8b\u4e8b\u52d9\u6240","boring_xml_url":40,"boring_view_url":1,"soilmap_view_url":null,"soiltest_xml_url":0,"soiltest_view_url":0},{"id":161293,"code":"B4KJ201801004-9542","latitude":"37.15108593","longitude":"138.2451928","source_code":"HR55385179002","project_name":"","survey_name":"\u95a2\u5ddd\u5824\u9632\u57fa\u790e\u5730\u76e4\u8abf\u67fb\u4f5c\u696d","client_name":"\u5efa\u8a2d\u7701\u5317\u9678\u5730\u65b9\u5efa\u8a2d\u5c40\u9ad8\u7530\u5de5\u4e8b\u4e8b\u52d9\u6240","boring_xml_url":40,"boring_view_url":1,"soilmap_view_url":null,"soiltest_xml_url":0,"soiltest_view_url":0},{"id":161292,"code":"B4KJ201801004-9541","latitude":"37.14030944","longitude":"138.2440545","source_code":"HR55385169011","project_name":"","survey_name":"\u6b63\u5584\u5bfa\u5ddd\u7ba1\u7406\u6a4b\u5730\u8cea\u8abf\u67fb\u4f5c\u696d","client_name":"\u5efa\u8a2d\u7701\u5317\u9678\u5730\u65b9\u5efa\u8a2d\u5c40\u9ad8\u7530\u5de5\u4e8b\u4e8b\u52d9\u6240","boring_xml_url":40,"boring_view_url":1,"soilmap_view_url":null,"soiltest_xml_url":0,"soiltest_view_url":0},{"id":161291,"code":"B4KJ201801004-9540","latitude":"37.1400317","longitude":"138.2440545","source_code":"HR55385169010","project_name":"","survey_name":"\u6b63\u5584\u5bfa\u5ddd\u7ba1\u7406\u6a4b\u5730\u8cea\u8abf\u67fb\u4f5c\u696d","client_name":"\u5efa\u8a2d\u7701\u5317\u9678\u5730\u65b9\u5efa\u8a2d\u5c40\u9ad8\u7530\u5de5\u4e8b\u4e8b\u52d9\u6240","boring_xml_url":40,"boring_view_url":1,"soilmap_view_url":null,"soiltest_xml_url":0,"soiltest_view_url":0},{"id":161290,"code":"B4KJ201801004-9539","latitude":"37.14155929","longitude":"138.2442766","source_code":"HR55385169001","project_name":"","survey_name":"\u95a2\u5ddd\u5824\u9632\u57fa\u790e\u5730\u76e4\u8abf\u67fb\u4f5c\u696d","client_name":"\u5efa\u8a2d\u7701\u5317\u9678\u5730\u65b9\u5efa\u8a2d\u5c40\u9ad8\u7530\u5de5\u4e8b\u4e8b\u52d9\u6240","boring_xml_url":40,"boring_view_url":1,"soilmap_view_url":null,"soiltest_xml_url":0,"soiltest_view_url":0},{"id":161289,"code":"B4KJ201801004-9538","latitude":"37.13558789","longitude":"138.2458045","source_code":"HR55385159006","project_name":"","survey_name":"\u5927\u702c\u5ddd\u7ba1\u7406\u6a4b\u5730\u8cea\u8abf\u67fb\u4f5c\u696d","client_name":"\u5efa\u8a2d\u7701\u5317\u9678\u5730\u65b9\u5efa\u8a2d\u5c40\u9ad8\u7530\u5de5\u4e8b\u4e8b\u52d9\u6240","boring_xml_url":40,"boring_view_url":1,"soilmap_view_url":null,"soiltest_xml_url":0,"soiltest_view_url":0},{"id":161288,"code":"B4KJ201801004-9537","latitude":"37.08764925","longitude":"138.2301966","source_code":"HR55385108001","project_name":"","survey_name":"\u9ad8\u7530\u6cd5\u52d9\u7dcf\u5408\u8abf\u67fb","client_name":"\u5efa\u8a2d\u7701\u95a2\u6771\u5730\u65b9\u5efa\u8a2d\u5c40\u55b6\u7e55\u90e8","boring_xml_url":40,"boring_view_url":1,"soilmap_view_url":null,"soiltest_xml_url":0,"soiltest_view_url":0},{"id":161287,"code":"B4KJ201801004-9536","latitude":"37.16313486","longitude":"138.0872353","source_code":"HR55385097009","project_name":"","survey_name":"\u540d\u7acb\u5730\u533a\u5730\u8cea\u8abf\u67fb","client_name":"\u5efa\u8a2d\u7701\u5317\u9678\u5730\u65b9\u5efa\u8a2d\u5c40\u9ad8\u7530\u5de5\u4e8b\u4e8b\u52d9\u6240","boring_xml_url":40,"boring_view_url":1,"soilmap_view_url":null,"soiltest_xml_url":0,"soiltest_view_url":0},{"id":161286,"code":"B4KJ201801004-9535","latitude":"37.16027406","longitude":"138.0852356","source_code":"HR55385087003","project_name":"","survey_name":"\u540d\u7acb\u5730\u533a\u59163\u4ef6\u5730\u8cea\u8abf\u67fb\u696d\u52d9\u59d4\u8a17","client_name":"\u5efa\u8a2d\u7701\u5317\u9678\u5730\u65b9\u5efa\u8a2d\u5c40\u9ad8\u7530\u5de5\u4e8b\u4e8b\u52d9\u6240","boring_xml_url":40,"boring_view_url":1,"soilmap_view_url":null,"soiltest_xml_url":0,"soiltest_view_url":0},{"id":161285,"code":"B4KJ201801004-9534","latitude":"37.16071845","longitude":"138.0853189","source_code":"HR55385087002","project_name":"","survey_name":"\u540d\u7acb\u5730\u533a\u59163\u4ef6\u5730\u8cea\u8abf\u67fb\u696d\u52d9\u59d4\u8a17","client_name":"\u5efa\u8a2d\u7701\u5317\u9678\u5730\u65b9\u5efa\u8a2d\u5c40\u9ad8\u7530\u5de5\u4e8b\u4e8b\u52d9\u6240","boring_xml_url":40,"boring_view_url":1,"soilmap_view_url":null,"soiltest_xml_url":0,"soiltest_view_url":0},{"id":161284,"code":"B4KJ201801004-9533","latitude":"37.0753036","longitude":"138.8755252","source_code":"HR55384780001","project_name":"","survey_name":"\u516d\u65e5\u753a\u30d0\u30a4\u30d1\u30b9\u5730\u8cea\u8abf\u67fb\u696d\u52d9\u59d4\u8a17","client_name":"\u5efa\u8a2d\u7701\u5317\u9678\u5730\u65b9\u5efa\u8a2d\u5c40\u9577\u5ca1\u56fd\u9053\u5de5\u4e8b\u4e8b\u52d9\u6240","boring_xml_url":40,"boring_view_url":1,"soilmap_view_url":null,"soiltest_xml_url":0,"soiltest_view_url":0},{"id":161283,"code":"B4KJ201801004-9532","latitude":"37.05361368","longitude":"138.9937925","source_code":"HR55384769006","project_name":"","survey_name":"\u662d\u548c54\u5e74\u5ea6\u4e09\u56fd\u5ddd\u30c0\u30e0\u30b3\u30a2\u30fc\u5c71\u8abf\u67fb\u30dc\u30fc\u30ea\u30f3\u30b0(\u305d\u306e2)\u4f5c\u696d","client_name":"\u5efa\u8a2d\u7701\u5317\u9678\u5730\u65b9\u5efa\u8a2d\u5c40\u4e09\u56fd\u5ddd\u30c0\u30e0\u7ba1\u7406\u6240(\u5de5\u4e8b\u4e8b\u52d9\u6240)","boring_xml_url":40,"boring_view_url":1,"soilmap_view_url":null,"soiltest_xml_url":0,"soiltest_view_url":0},{"id":161282,"code":"B4KJ201801004-9531","latitude":"37.05336369","longitude":"138.9932648","source_code":"HR55384769005","project_name":"","survey_name":"\u662d\u548c54\u5e74\u5ea6\u4e09\u56fd\u5ddd\u30c0\u30e0\u30b3\u30a2\u30fc\u5c71\u8abf\u67fb\u30dc\u30fc\u30ea\u30f3\u30b0(\u305d\u306e2)\u4f5c\u696d","client_name":"\u5efa\u8a2d\u7701\u5317\u9678\u5730\u65b9\u5efa\u8a2d\u5c40\u4e09\u56fd\u5ddd\u30c0\u30e0\u7ba1\u7406\u6240(\u5de5\u4e8b\u4e8b\u52d9\u6240)","boring_xml_url":40,"boring_view_url":1,"soilmap_view_url":null,"soiltest_xml_url":0,"soiltest_view_url":0},{"id":161281,"code":"B4KJ201801004-9530","latitude":"37.05311373","longitude":"138.9946258","source_code":"HR55384769004","project_name":"","survey_name":"\u662d\u548c54\u5e74\u5ea6\u4e09\u56fd\u5ddd\u30c0\u30e0\u30b3\u30a2\u30fc\u5c71\u8abf\u67fb\u30dc\u30fc\u30ea\u30f3\u30b0(\u305d\u306e2)\u4f5c\u696d","client_name":"\u5efa\u8a2d\u7701\u5317\u9678\u5730\u65b9\u5efa\u8a2d\u5c40\u4e09\u56fd\u5ddd\u30c0\u30e0\u7ba1\u7406\u6240(\u5de5\u4e8b\u4e8b\u52d9\u6240)","boring_xml_url":40,"boring_view_url":1,"soilmap_view_url":null,"soiltest_xml_url":0,"soiltest_view_url":0},{"id":161280,"code":"B4KJ201801004-9529","latitude":"37.05330816","longitude":"138.9943758","source_code":"HR55384769003","project_name":"","survey_name":"\u662d\u548c54\u5e74\u5ea6\u4e09\u56fd\u5ddd\u30c0\u30e0\u30b3\u30a2\u30fc\u5c71\u8abf\u67fb\u30dc\u30fc\u30ea\u30f3\u30b0(\u305d\u306e2)\u4f5c\u696d","client_name":"\u5efa\u8a2d\u7701\u5317\u9678\u5730\u65b9\u5efa\u8a2d\u5c40\u4e09\u56fd\u5ddd\u30c0\u30e0\u7ba1\u7406\u6240(\u5de5\u4e8b\u4e8b\u52d9\u6240)","boring_xml_url":40,"boring_view_url":1,"soilmap_view_url":null,"soiltest_xml_url":0,"soiltest_view_url":0},{"id":161279,"code":"B4KJ201801004-9528","latitude":"37.05355813","longitude":"138.9942647","source_code":"HR55384769002","project_name":"","survey_name":"\u662d\u548c54\u5e74\u5ea6\u4e09\u56fd\u5ddd\u30c0\u30e0\u30b3\u30a2\u30fc\u5c71\u8abf\u67fb\u30dc\u30fc\u30ea\u30f3\u30b0(\u305d\u306e2)\u4f5c\u696d","client_name":"\u5efa\u8a2d\u7701\u5317\u9678\u5730\u65b9\u5efa\u8a2d\u5c40\u4e09\u56fd\u5ddd\u30c0\u30e0\u7ba1\u7406\u6240(\u5de5\u4e8b\u4e8b\u52d9\u6240)","boring_xml_url":40,"boring_view_url":1,"soilmap_view_url":null,"soiltest_xml_url":0,"soiltest_view_url":0},{"id":161278,"code":"B4KJ201801004-9527","latitude":"37.05430805","longitude":"138.9941535","source_code":"HR55384769001","project_name":"","survey_name":"\u662d\u548c54\u5e74\u5ea6\u4e09\u56fd\u5ddd\u30c0\u30e0\u30b3\u30a2\u30fc\u5c71\u8abf\u67fb\u30dc\u30fc\u30ea\u30f3\u30b0(\u305d\u306e2)\u4f5c\u696d","client_name":"\u5efa\u8a2d\u7701\u5317\u9678\u5730\u65b9\u5efa\u8a2d\u5c40\u4e09\u56fd\u5ddd\u30c0\u30e0\u7ba1\u7406\u6240(\u5de5\u4e8b\u4e8b\u52d9\u6240)","boring_xml_url":40,"boring_view_url":1,"soilmap_view_url":null,"soiltest_xml_url":0,"soiltest_view_url":0},{"id":161277,"code":"B4KJ201801004-9526","latitude":"37.05130831","longitude":"138.9905984","source_code":"HR55384759019","project_name":"","survey_name":"\u662d\u548c54\u5e74\u5ea6\u4e09\u56fd\u5ddd\u30c0\u30e0\u30b3\u30a2\u30fc\u5c71\u8abf\u67fb\u30dc\u30fc\u30ea\u30f3\u30b0(\u305d\u306e2)\u4f5c\u696d","client_name":"\u5efa\u8a2d\u7701\u5317\u9678\u5730\u65b9\u5efa\u8a2d\u5c40\u4e09\u56fd\u5ddd\u30c0\u30e0\u7ba1\u7406\u6240(\u5de5\u4e8b\u4e8b\u52d9\u6240)","boring_xml_url":40,"boring_view_url":1,"soilmap_view_url":null,"soiltest_xml_url":0,"soiltest_view_url":0},{"id":161276,"code":"B4KJ201801004-9525","latitude":"37.05144719","longitude":"138.991515","source_code":"HR55384759016","project_name":"","survey_name":"\u662d\u548c54\u5e74\u5ea6\u4e09\u56fd\u5ddd\u30c0\u30e0\u30b3\u30a2\u30fc\u5c71\u8abf\u67fb\u30dc\u30fc\u30ea\u30f3\u30b0(\u305d\u306e2)\u4f5c\u696d","client_name":"\u5efa\u8a2d\u7701\u5317\u9678\u5730\u65b9\u5efa\u8a2d\u5c40\u4e09\u56fd\u5ddd\u30c0\u30e0\u7ba1\u7406\u6240(\u5de5\u4e8b\u4e8b\u52d9\u6240)","boring_xml_url":40,"boring_view_url":1,"soilmap_view_url":null,"soiltest_xml_url":0,"soiltest_view_url":0}]}}