{"header":{"xyz":{"source":[],"mosaic":false},"page":5323,"raw":{"soiltest_result":"0","bbox":"57.598333,109.544722,1.933333,163.806111","page":"5323"},"conditions":{"soiltest_result":0,"north":57.598333,"west":109.544722,"south":1.933333,"east":163.806111},"success":true,"message":""},"data":{"meta":{"total":212844,"page":5323,"pages":7095,"count":30},"values":[{"id":160885,"code":"B4KJ201801004-9134","latitude":"36.76978857","longitude":"137.0016091","source_code":"HR55371020005","project_name":"","survey_name":"160\u53f7\u6c37\u898b\u9ad8\u5ca1\u9053\u8def\u571f\u8cea\u8abf\u67fb\u53ca\u3073\u89e3\u6790\u305d\u306e2\u4f5c\u696d","client_name":"\u5efa\u8a2d\u7701\u5317\u9678\u5730\u65b9\u5efa\u8a2d\u5c40\u5bcc\u5c71\u5de5\u4e8b\u4e8b\u52d9\u6240","boring_xml_url":40,"boring_view_url":1,"soilmap_view_url":null,"soiltest_xml_url":0,"soiltest_view_url":0},{"id":160884,"code":"B4KJ201801004-9133","latitude":"36.77625987","longitude":"136.9997755","source_code":"HR55371020003","project_name":"","survey_name":"160\u53f7\u6c37\u898b\u9ad8\u5ca1\u9053\u8def\u571f\u8cea\u8abf\u67fb\u53ca\u3073\u89e3\u6790\u305d\u306e2\u4f5c\u696d","client_name":"\u5efa\u8a2d\u7701\u5317\u9678\u5730\u65b9\u5efa\u8a2d\u5c40\u5bcc\u5c71\u5de5\u4e8b\u4e8b\u52d9\u6240","boring_xml_url":40,"boring_view_url":1,"soilmap_view_url":null,"soiltest_xml_url":0,"soiltest_view_url":0},{"id":160883,"code":"B4KJ201801004-9132","latitude":"36.7732603","longitude":"137.0007756","source_code":"HR55371020001","project_name":"","survey_name":"160\u53f7\u6c37\u898b\u30d0\u30a4\u30d1\u30b9\u5730\u8cea\u8abf\u67fb\u4f5c\u696d","client_name":"\u5efa\u8a2d\u7701\u5317\u9678\u5730\u65b9\u5efa\u8a2d\u5c40\u5bcc\u5c71\u5de5\u4e8b\u4e8b\u52d9\u6240","boring_xml_url":40,"boring_view_url":1,"soilmap_view_url":null,"soiltest_xml_url":0,"soiltest_view_url":0},{"id":160882,"code":"B4KJ201801004-9131","latitude":"36.76701108","longitude":"137.0044979","source_code":"HR55371010003","project_name":"","survey_name":"\u5782\u59eb\u6a4b\u8a73\u7d30\u8a2d\u8a08\u53ca\u3073\u5730\u8cea\u8abf\u67fb\u696d\u52d9\u59d4\u8a17","client_name":"\u5efa\u8a2d\u7701\u5317\u9678\u5730\u65b9\u5efa\u8a2d\u5c40\u5bcc\u5c71\u5de5\u4e8b\u4e8b\u52d9\u6240","boring_xml_url":40,"boring_view_url":1,"soilmap_view_url":null,"soiltest_xml_url":0,"soiltest_view_url":0},{"id":160881,"code":"B4KJ201801004-9130","latitude":"36.7630393","longitude":"137.0064703","source_code":"HR55371010002","project_name":"","survey_name":"160\u53f7\u6c37\u898b\u9ad8\u5ca1\u9053\u8def\u571f\u8cea\u8abf\u67fb\u53ca\u3073\u89e3\u6790\u305d\u306e2\u4f5c\u696d","client_name":"\u5efa\u8a2d\u7701\u5317\u9678\u5730\u65b9\u5efa\u8a2d\u5c40\u5bcc\u5c71\u5de5\u4e8b\u4e8b\u52d9\u6240","boring_xml_url":40,"boring_view_url":1,"soilmap_view_url":null,"soiltest_xml_url":0,"soiltest_view_url":0},{"id":160880,"code":"B4KJ201801004-9129","latitude":"36.76789988","longitude":"137.0035535","source_code":"HR55371010001","project_name":"","survey_name":"160\u53f7\u6c37\u898b\u9ad8\u5ca1\u9053\u8def\u571f\u8cea\u8abf\u67fb\u53ca\u3073\u89e3\u6790\u305d\u306e2\u4f5c\u696d","client_name":"\u5efa\u8a2d\u7701\u5317\u9678\u5730\u65b9\u5efa\u8a2d\u5c40\u5bcc\u5c71\u5de5\u4e8b\u4e8b\u52d9\u6240","boring_xml_url":40,"boring_view_url":1,"soilmap_view_url":null,"soiltest_xml_url":0,"soiltest_view_url":0},{"id":160879,"code":"B4KJ201801004-9128","latitude":"36.75917841","longitude":"137.0498008","source_code":"HR55371004001","project_name":"","survey_name":"160\u53f7\u6c37\u898b\u30d0\u30a4\u30d1\u30b9\u5730\u8cea\u8abf\u67fb\u4f5c\u696d","client_name":"\u5efa\u8a2d\u7701\u5317\u9678\u5730\u65b9\u5efa\u8a2d\u5c40\u5bcc\u5c71\u5de5\u4e8b\u4e8b\u52d9\u6240","boring_xml_url":40,"boring_view_url":1,"soilmap_view_url":null,"soiltest_xml_url":0,"soiltest_view_url":0},{"id":160878,"code":"B4KJ201801004-9127","latitude":"36.76045607","longitude":"137.0418846","source_code":"HR55371003016","project_name":"","survey_name":"\u4e0b\u7530\u5730\u533a\u5730\u8cea\u8abf\u67fb\u4f5c\u696d","client_name":"\u5efa\u8a2d\u7701\u5317\u9678\u5730\u65b9\u5efa\u8a2d\u5c40\u5bcc\u5c71\u5de5\u4e8b\u4e8b\u52d9\u6240","boring_xml_url":40,"boring_view_url":1,"soilmap_view_url":null,"soiltest_xml_url":0,"soiltest_view_url":0},{"id":160877,"code":"B4KJ201801004-9126","latitude":"36.76034495","longitude":"137.0439123","source_code":"HR55371003015","project_name":"","survey_name":"\u4e0b\u7530\u5730\u533a\u5730\u8cea\u8abf\u67fb\u4f5c\u696d","client_name":"\u5efa\u8a2d\u7701\u5317\u9678\u5730\u65b9\u5efa\u8a2d\u5c40\u5bcc\u5c71\u5de5\u4e8b\u4e8b\u52d9\u6240","boring_xml_url":40,"boring_view_url":1,"soilmap_view_url":null,"soiltest_xml_url":0,"soiltest_view_url":0},{"id":160876,"code":"B4KJ201801004-9125","latitude":"36.76078932","longitude":"137.0456622","source_code":"HR55371003014","project_name":"","survey_name":"\u4e0b\u7530\u5730\u533a\u5730\u8cea\u8abf\u67fb\u4f5c\u696d","client_name":"\u5efa\u8a2d\u7701\u5317\u9678\u5730\u65b9\u5efa\u8a2d\u5c40\u5bcc\u5c71\u5de5\u4e8b\u4e8b\u52d9\u6240","boring_xml_url":40,"boring_view_url":1,"soilmap_view_url":null,"soiltest_xml_url":0,"soiltest_view_url":0},{"id":160875,"code":"B4KJ201801004-9124","latitude":"36.7599283","longitude":"137.0461899","source_code":"HR55371003013","project_name":"","survey_name":"\u4e0b\u7530\u5730\u533a\u5730\u8cea\u8abf\u67fb\u4f5c\u696d","client_name":"\u5efa\u8a2d\u7701\u5317\u9678\u5730\u65b9\u5efa\u8a2d\u5c40\u5bcc\u5c71\u5de5\u4e8b\u4e8b\u52d9\u6240","boring_xml_url":40,"boring_view_url":1,"soilmap_view_url":null,"soiltest_xml_url":0,"soiltest_view_url":0},{"id":160874,"code":"B4KJ201801004-9123","latitude":"36.75370688","longitude":"136.9988884","source_code":"HR55371000003","project_name":"","survey_name":"\u7ba1\u5185\u5730\u8cea\u8abf\u67fb\u4f5c\u696d","client_name":"\u5efa\u8a2d\u7701\u5317\u9678\u5730\u65b9\u5efa\u8a2d\u5c40\u5bcc\u5c71\u5de5\u4e8b\u4e8b\u52d9\u6240","boring_xml_url":40,"boring_view_url":1,"soilmap_view_url":null,"soiltest_xml_url":0,"soiltest_view_url":0},{"id":160873,"code":"B4KJ201801004-9122","latitude":"36.75459568","longitude":"136.9988328","source_code":"HR55371000002","project_name":"","survey_name":"\u6ed1\u5ddd\u5bcc\u5c71\u30d0\u30a4\u30d1\u30b9\u30dc\u30fc\u30ea\u30f3\u30b0\u4f5c\u696d(\u897f\u9ad8\u5ca1\u5730\u533a)","client_name":"\u5efa\u8a2d\u7701\u5317\u9678\u5730\u65b9\u5efa\u8a2d\u5c40\u5bcc\u5c71\u5de5\u4e8b\u4e8b\u52d9\u6240","boring_xml_url":40,"boring_view_url":1,"soilmap_view_url":null,"soiltest_xml_url":0,"soiltest_view_url":0},{"id":160872,"code":"B4KJ201801004-9121","latitude":"36.74939712","longitude":"137.7907232","source_code":"HR55370693011","project_name":"","survey_name":"\u5317\u80a1\u4e0a\u6d41\u7802\u9632\u30c0\u30e0\u30dc\u30fc\u30ea\u30f3\u30b0\u4f5c\u696d","client_name":"\u5efa\u8a2d\u7701\u5317\u9678\u5730\u65b9\u5efa\u8a2d\u5c40\u677e\u672c\u7802\u9632\u5de5\u4e8b\u4e8b\u52d9\u6240","boring_xml_url":40,"boring_view_url":1,"soilmap_view_url":null,"soiltest_xml_url":0,"soiltest_view_url":0},{"id":160871,"code":"B4KJ201801004-9120","latitude":"36.73862134","longitude":"137.8232216","source_code":"HR55370686001","project_name":"","survey_name":"\u5317\u80a1\u5ddd\u4e0b\u6d41\u7b2c2\u53f7\u7802\u9632\u30c0\u30e0\u5730\u8cea\u8abf\u67fb\u4f5c\u696d","client_name":"\u5efa\u8a2d\u7701\u5317\u9678\u5730\u65b9\u5efa\u8a2d\u5c40\u677e\u672c\u7802\u9632\u5de5\u4e8b\u4e8b\u52d9\u6240","boring_xml_url":40,"boring_view_url":1,"soilmap_view_url":null,"soiltest_xml_url":0,"soiltest_view_url":0},{"id":160870,"code":"B4KJ201801004-9119","latitude":"36.73539926","longitude":"137.8294435","source_code":"HR55370676003","project_name":"","survey_name":"\u5317\u80a1\u4e0b\u6d41\u7b2c2\u53f7\u7802\u9632\u30c0\u30e0\u5730\u8cea\u8abf\u67fb(\u305d\u306e2)","client_name":"\u5efa\u8a2d\u7701\u5317\u9678\u5730\u65b9\u5efa\u8a2d\u5c40\u677e\u672c\u7802\u9632\u5de5\u4e8b\u4e8b\u52d9\u6240","boring_xml_url":40,"boring_view_url":1,"soilmap_view_url":null,"soiltest_xml_url":0,"soiltest_view_url":0},{"id":160869,"code":"B4KJ201801004-9118","latitude":"36.7339549","longitude":"137.8272493","source_code":"HR55370676002","project_name":"","survey_name":"\u5317\u80a1\u4e0b\u6d41\u7b2c2\u53f7\u7802\u9632\u30c0\u30e0\u6614\u8cea\u8abf\u67fb(\u305d\u306e2)","client_name":"\u5efa\u8a2d\u7701\u5317\u9678\u5730\u65b9\u5efa\u8a2d\u5c40\u677e\u672c\u7802\u9632\u5de5\u4e8b\u4e8b\u52d9\u6240","boring_xml_url":40,"boring_view_url":1,"soilmap_view_url":null,"soiltest_xml_url":0,"soiltest_view_url":0},{"id":160868,"code":"B4KJ201801004-9117","latitude":"36.72153942","longitude":"137.8266384","source_code":"HR55370666004","project_name":"","survey_name":"\u677e\u5ddd\u5e8a\u7b87\u7fa4\u5730\u8cea\u8abf\u67fb","client_name":"\u5efa\u8a2d\u7701\u5317\u9678\u5730\u65b9\u5efa\u8a2d\u5c40\u677e\u672c\u7802\u9632\u5de5\u4e8b\u4e8b\u52d9\u6240","boring_xml_url":40,"boring_view_url":1,"soilmap_view_url":null,"soiltest_xml_url":0,"soiltest_view_url":0},{"id":160867,"code":"B4KJ201801004-9116","latitude":"36.72140055","longitude":"137.8260829","source_code":"HR55370666001","project_name":"","survey_name":"\u4e8c\u80a1\u5730\u8cea\u8abf\u67fb","client_name":"\u5efa\u8a2d\u7701\u5317\u9678\u5730\u65b9\u5efa\u8a2d\u5c40\u677e\u672c\u7802\u9632\u5de5\u4e8b\u4e8b\u52d9\u6240","boring_xml_url":40,"boring_view_url":1,"soilmap_view_url":null,"soiltest_xml_url":0,"soiltest_view_url":0},{"id":160866,"code":"B4KJ201801004-9115","latitude":"36.71951191","longitude":"137.8270273","source_code":"HR55370656004","project_name":"","survey_name":"\u4e8c\u80a1\u6a4b\u6881\u5730\u8cea\u8abf\u67fb","client_name":"\u5efa\u8a2d\u7701\u5317\u9678\u5730\u65b9\u5efa\u8a2d\u5c40\u677e\u672c\u7802\u9632\u5de5\u4e8b\u4e8b\u52d9\u6240","boring_xml_url":40,"boring_view_url":1,"soilmap_view_url":null,"soiltest_xml_url":0,"soiltest_view_url":0},{"id":160865,"code":"B4KJ201801004-9114","latitude":"36.69903746","longitude":"137.6753158","source_code":"HR55370534013","project_name":"","survey_name":"\u7956\u6bcd\u8c37\u4e0b\u6d41\u7b2c3\u53f7\u7802\u9632\u30c0\u30e0\u5730\u8cea\u8abf\u67fb\u4f5c\u696d","client_name":"\u5efa\u8a2d\u7701\u5317\u9678\u5730\u65b9\u5efa\u8a2d\u5c40\u9ed2\u90e8\u5de5\u4e8b\u4e8b\u52d9\u6240","boring_xml_url":40,"boring_view_url":1,"soilmap_view_url":null,"soiltest_xml_url":0,"soiltest_view_url":0},{"id":160864,"code":"B4KJ201801004-9113","latitude":"36.69495411","longitude":"137.6493739","source_code":"HR55370532010","project_name":"","survey_name":"\u5c0f\u9ed2\u90e8\u8c37\u7b2c1\u53f7\u7802\u9632\u30c0\u30e0\u65bd\u8a2d\u8a2d\u8a08\u696d\u52d9\u59d4\u8a17","client_name":"\u5efa\u8a2d\u7701\u5317\u9678\u5730\u65b9\u5efa\u8a2d\u5c40\u9ed2\u90e8\u5de5\u4e8b\u4e8b\u52d9\u6240","boring_xml_url":40,"boring_view_url":1,"soilmap_view_url":null,"soiltest_xml_url":0,"soiltest_view_url":0},{"id":160863,"code":"B4KJ201801004-9112","latitude":"36.69500967","longitude":"137.6498183","source_code":"HR55370532009","project_name":"","survey_name":"\u5c0f\u9ed2\u90e8\u8c37\u7b2c1\u53f7\u7802\u9632\u30c0\u30e0\u65bd\u8a2d\u8a2d\u8a08\u696d\u52d9\u59d4\u8a17","client_name":"\u5efa\u8a2d\u7701\u5317\u9678\u5730\u65b9\u5efa\u8a2d\u5c40\u9ed2\u90e8\u5de5\u4e8b\u4e8b\u52d9\u6240","boring_xml_url":40,"boring_view_url":1,"soilmap_view_url":null,"soiltest_xml_url":0,"soiltest_view_url":0},{"id":160862,"code":"B4KJ201801004-9111","latitude":"36.69889826","longitude":"137.6531789","source_code":"HR55370532008","project_name":"","survey_name":"\u5c0f\u9ed2\u90e8\u8c37\u7b2c1\u53f7\u7802\u9632\u30c0\u30e0\u65bd\u8a2d\u8a2d\u8a08\u696d\u52d9\u59d4\u8a17","client_name":"\u5efa\u8a2d\u7701\u5317\u9678\u5730\u65b9\u5efa\u8a2d\u5c40\u9ed2\u90e8\u5de5\u4e8b\u4e8b\u52d9\u6240","boring_xml_url":40,"boring_view_url":1,"soilmap_view_url":null,"soiltest_xml_url":0,"soiltest_view_url":0},{"id":160861,"code":"B4KJ201801004-9110","latitude":"36.69475965","longitude":"137.6474852","source_code":"HR55370532007","project_name":"","survey_name":"\u5c0f\u9ed2\u90e8\u8c37\u5730\u8cea\u8abf\u67fb\u4f5c\u696d","client_name":"\u5efa\u8a2d\u7701\u5317\u9678\u5730\u65b9\u5efa\u8a2d\u5c40\u9ed2\u90e8\u5de5\u4e8b\u4e8b\u52d9\u6240","boring_xml_url":40,"boring_view_url":1,"soilmap_view_url":null,"soiltest_xml_url":0,"soiltest_view_url":0},{"id":160860,"code":"B4KJ201801004-9109","latitude":"36.69889826","longitude":"137.6531789","source_code":"HR55370532006","project_name":"","survey_name":"\u5c0f\u9ed2\u90e8\u8c37\u7b2c1\u53f7\u7802\u9632\u30c0\u30e0\u5730\u8cea\u8abf\u67fb\u4f5c\u696d","client_name":"\u5efa\u8a2d\u7701\u5317\u9678\u5730\u65b9\u5efa\u8a2d\u5c40\u9ed2\u90e8\u5de5\u4e8b\u4e8b\u52d9\u6240","boring_xml_url":40,"boring_view_url":1,"soilmap_view_url":null,"soiltest_xml_url":0,"soiltest_view_url":0},{"id":160859,"code":"B4KJ201801004-9108","latitude":"36.69889826","longitude":"137.6531789","source_code":"HR55370532005","project_name":"","survey_name":"\u5c0f\u9ed2\u90e8\u8c37\u7b2c1\u53f7\u7802\u9632\u30c0\u30e0\u5730\u8cea\u8abf\u67fb\u4f5c\u696d","client_name":"\u5efa\u8a2d\u7701\u5317\u9678\u5730\u65b9\u5efa\u8a2d\u5c40\u9ed2\u90e8\u5de5\u4e8b\u4e8b\u52d9\u6240","boring_xml_url":40,"boring_view_url":1,"soilmap_view_url":null,"soiltest_xml_url":0,"soiltest_view_url":0},{"id":160858,"code":"B4KJ201801004-9107","latitude":"36.69889826","longitude":"137.6531789","source_code":"HR55370532004","project_name":"","survey_name":"\u5c0f\u9ed2\u90e8\u8c37\u7b2c1\u53f7\u7802\u9632\u30c0\u30e0\u5730\u8cea\u8abf\u67fb\u4f5c\u696d","client_name":"\u5efa\u8a2d\u7701\u5317\u9678\u5730\u65b9\u5efa\u8a2d\u5c40\u9ed2\u90e8\u5de5\u4e8b\u4e8b\u52d9\u6240","boring_xml_url":40,"boring_view_url":1,"soilmap_view_url":null,"soiltest_xml_url":0,"soiltest_view_url":0},{"id":160857,"code":"B4KJ201801004-9106","latitude":"36.69889826","longitude":"137.6531789","source_code":"HR55370532003","project_name":"","survey_name":"\u5c0f\u9ed2\u90e8\u8c37\u7b2c1\u53f7\u7802\u9632\u30c0\u30e0\u5730\u8cea\u8abf\u67fb\u4f5c\u696d","client_name":"\u5efa\u8a2d\u7701\u5317\u9678\u5730\u65b9\u5efa\u8a2d\u5c40\u9ed2\u90e8\u5de5\u4e8b\u4e8b\u52d9\u6240","boring_xml_url":40,"boring_view_url":1,"soilmap_view_url":null,"soiltest_xml_url":0,"soiltest_view_url":0},{"id":160856,"code":"B4KJ201801004-9105","latitude":"36.69889826","longitude":"137.6531789","source_code":"HR55370532002","project_name":"","survey_name":"\u5c0f\u9ed2\u90e8\u8c37\u7b2c1\u53f7\u7802\u9632\u30c0\u30e0\u5730\u8cea\u8abf\u67fb\u4f5c\u696d","client_name":"\u5efa\u8a2d\u7701\u5317\u9678\u5730\u65b9\u5efa\u8a2d\u5c40\u9ed2\u90e8\u5de5\u4e8b\u4e8b\u52d9\u6240","boring_xml_url":40,"boring_view_url":1,"soilmap_view_url":null,"soiltest_xml_url":0,"soiltest_view_url":0}]}}