{"header":{"xyz":{"source":[],"mosaic":false},"page":5326,"raw":{"soiltest_result":"0","bbox":"57.598333,109.544722,1.933333,163.806111","page":"5326"},"conditions":{"soiltest_result":0,"north":57.598333,"west":109.544722,"south":1.933333,"east":163.806111},"success":true,"message":""},"data":{"meta":{"total":212844,"page":5326,"pages":7095,"count":30},"values":[{"id":160795,"code":"B4KJ201801004-9044","latitude":"36.68921856","longitude":"137.1928155","source_code":"HR55370125001","project_name":"","survey_name":"\u795e\u901a\u5ddd\u30fb\u5c0f\u77e2\u90e8\u5ddd\u5730\u8cea\u8abf\u67fb\u4f5c\u696d","client_name":"\u5efa\u8a2d\u7701\u5317\u9678\u5730\u65b9\u5efa\u8a2d\u5c40\u5bcc\u5c71\u5de5\u4e8b\u4e8b\u52d9\u6240","boring_xml_url":40,"boring_view_url":1,"soilmap_view_url":null,"soiltest_xml_url":0,"soiltest_view_url":0},{"id":160794,"code":"B4KJ201801004-9043","latitude":"36.67888697","longitude":"137.2108692","source_code":"HR55370117001","project_name":"","survey_name":"\u5927\u6ca2\u91ce\u62e1\u5e45\u59161\u4ef6\u5730\u8cea\u8abf\u67fb\u4f5c\u696d","client_name":"\u5efa\u8a2d\u7701\u5317\u9678\u5730\u65b9\u5efa\u8a2d\u5c40\u5bcc\u5c71\u5de5\u4e8b\u4e8b\u52d9\u6240","boring_xml_url":40,"boring_view_url":1,"soilmap_view_url":null,"soiltest_xml_url":0,"soiltest_view_url":0},{"id":160793,"code":"B4KJ201801004-9042","latitude":"36.67605384","longitude":"137.1976765","source_code":"HR55370106003","project_name":"","survey_name":"\u677e\u5ddd.\u5730\u4e45\u5b50\u5ddd\u5730\u8cea\u8abf\u67fb\u4f5c\u696d","client_name":"\u5efa\u8a2d\u7701\u5317\u9678\u5730\u65b9\u5efa\u8a2d\u5c40\u5bcc\u5c71\u5de5\u4e8b\u4e8b\u52d9\u6240","boring_xml_url":40,"boring_view_url":1,"soilmap_view_url":null,"soiltest_xml_url":0,"soiltest_view_url":0},{"id":160792,"code":"B4KJ201801004-9041","latitude":"36.67105455","longitude":"137.1987043","source_code":"HR55370106002","project_name":"","survey_name":"\u677e\u5ddd\u5730\u8cea\u8abf\u67fb\u4f5c\u696d","client_name":"\u5efa\u8a2d\u7701\u5317\u9678\u5730\u65b9\u5efa\u8a2d\u5c40\u5bcc\u5c71\u5de5\u4e8b\u4e8b\u52d9\u6240","boring_xml_url":40,"boring_view_url":1,"soilmap_view_url":null,"soiltest_xml_url":0,"soiltest_view_url":0},{"id":160791,"code":"B4KJ201801004-9040","latitude":"36.67105455","longitude":"137.1987043","source_code":"HR55370106001","project_name":"","survey_name":"\u677e\u5ddd\u5730\u8cea\u8abf\u67fb\u4f5c\u696d","client_name":"\u5efa\u8a2d\u7701\u5317\u9678\u5730\u65b9\u5efa\u8a2d\u5c40\u5bcc\u5c71\u5de5\u4e8b\u4e8b\u52d9\u6240","boring_xml_url":40,"boring_view_url":1,"soilmap_view_url":null,"soiltest_xml_url":0,"soiltest_view_url":0},{"id":160790,"code":"B4KJ201801004-9039","latitude":"36.74548682","longitude":"137.1008517","source_code":"HR55370098001","project_name":"","survey_name":"\u5bcc\u5c71\u9ad8\u5ca1\u30d0\u30a4\u30d1\u30b9\u5c0f\u6749\u5730\u533a\u571f\u8cea\u8abf\u67fb\u53ca\u3073\u89e3\u6790\u696d\u52d9\u59d4\u8a17","client_name":"\u5efa\u8a2d\u7701\u5317\u9678\u5730\u65b9\u5efa\u8a2d\u5c40\u5bcc\u5c71\u5de5\u4e8b\u4e8b\u52d9\u6240","boring_xml_url":40,"boring_view_url":1,"soilmap_view_url":null,"soiltest_xml_url":0,"soiltest_view_url":0},{"id":160789,"code":"B4KJ201801004-9038","latitude":"36.74995811","longitude":"137.0882973","source_code":"HR55370097007","project_name":"","survey_name":"\u93e1\u5bae\u7acb\u4f53\u5730\u8cea\u8abf\u67fb\u4f5c\u696d","client_name":"\u5efa\u8a2d\u7701\u5317\u9678\u5730\u65b9\u5efa\u8a2d\u5c40\u5bcc\u5c71\u5de5\u4e8b\u4e8b\u52d9\u6240","boring_xml_url":40,"boring_view_url":1,"soilmap_view_url":null,"soiltest_xml_url":0,"soiltest_view_url":0},{"id":160788,"code":"B4KJ201801004-9037","latitude":"36.75015252","longitude":"137.0878251","source_code":"HR55370097006","project_name":"","survey_name":"\u93e1\u5bae\u7acb\u4f53\u5730\u8cea\u8abf\u67fb\u4f5c\u696d","client_name":"\u5efa\u8a2d\u7701\u5317\u9678\u5730\u65b9\u5efa\u8a2d\u5c40\u5bcc\u5c71\u5de5\u4e8b\u4e8b\u52d9\u6240","boring_xml_url":40,"boring_view_url":1,"soilmap_view_url":null,"soiltest_xml_url":0,"soiltest_view_url":0},{"id":160787,"code":"B4KJ201801004-9036","latitude":"36.7502636","longitude":"137.0872974","source_code":"HR55370097005","project_name":"","survey_name":"\u93e1\u5bae\u7acb\u4f53\u5730\u8cea\u8abf\u67fb\u4f5c\u696d","client_name":"\u5efa\u8a2d\u7701\u5317\u9678\u5730\u65b9\u5efa\u8a2d\u5c40\u5bcc\u5c71\u5de5\u4e8b\u4e8b\u52d9\u6240","boring_xml_url":40,"boring_view_url":1,"soilmap_view_url":null,"soiltest_xml_url":0,"soiltest_view_url":0},{"id":160786,"code":"B4KJ201801004-9035","latitude":"36.75051355","longitude":"137.0867141","source_code":"HR55370097004","project_name":"","survey_name":"\u93e1\u5bae\u7acb\u4f53\u5730\u8cea\u8abf\u67fb\u4f5c\u696d","client_name":"\u5efa\u8a2d\u7701\u5317\u9678\u5730\u65b9\u5efa\u8a2d\u5c40\u5bcc\u5c71\u5de5\u4e8b\u4e8b\u52d9\u6240","boring_xml_url":40,"boring_view_url":1,"soilmap_view_url":null,"soiltest_xml_url":0,"soiltest_view_url":0},{"id":160785,"code":"B4KJ201801004-9034","latitude":"36.75073572","longitude":"137.0859919","source_code":"HR55370097003","project_name":"","survey_name":"\u93e1\u5bae\u7acb\u4f53\u5730\u8cea\u8abf\u67fb\u4f5c\u696d","client_name":"\u5efa\u8a2d\u7701\u5317\u9678\u5730\u65b9\u5efa\u8a2d\u5c40\u5bcc\u5c71\u5de5\u4e8b\u4e8b\u52d9\u6240","boring_xml_url":40,"boring_view_url":1,"soilmap_view_url":null,"soiltest_xml_url":0,"soiltest_view_url":0},{"id":160784,"code":"B4KJ201801004-9033","latitude":"36.75093011","longitude":"137.0850476","source_code":"HR55370097002","project_name":"","survey_name":"\u93e1\u5bae\u7acb\u4f53\u5730\u8cea\u8abf\u67fb\u4f5c\u696d","client_name":"\u5efa\u8a2d\u7701\u5317\u9678\u5730\u65b9\u5efa\u8a2d\u5c40\u5bcc\u5c71\u5de5\u4e8b\u4e8b\u52d9\u6240","boring_xml_url":40,"boring_view_url":1,"soilmap_view_url":null,"soiltest_xml_url":0,"soiltest_view_url":0},{"id":160783,"code":"B4KJ201801004-9032","latitude":"36.75154113","longitude":"137.0845754","source_code":"HR55370097001","project_name":"","survey_name":"\u93e1\u5bae\u7acb\u4f53\u5730\u8cea\u8abf\u67fb\u4f5c\u696d","client_name":"\u5efa\u8a2d\u7701\u5317\u9678\u5730\u65b9\u5efa\u8a2d\u5c40\u5bcc\u5c71\u5de5\u4e8b\u4e8b\u52d9\u6240","boring_xml_url":40,"boring_view_url":1,"soilmap_view_url":null,"soiltest_xml_url":0,"soiltest_view_url":0},{"id":160782,"code":"B4KJ201801004-9031","latitude":"36.75137444","longitude":"137.0833811","source_code":"HR55370096002","project_name":"","survey_name":"\u7ba1\u5185\u5730\u8cea\u8abf\u67fb\u4f5c\u696d","client_name":"\u5efa\u8a2d\u7701\u5317\u9678\u5730\u65b9\u5efa\u8a2d\u5c40\u5bcc\u5c71\u5de5\u4e8b\u4e8b\u52d9\u6240","boring_xml_url":40,"boring_view_url":1,"soilmap_view_url":null,"soiltest_xml_url":0,"soiltest_view_url":0},{"id":160781,"code":"B4KJ201801004-9030","latitude":"36.75165217","longitude":"137.0828256","source_code":"HR55370096001","project_name":"","survey_name":"\u7ba1\u5185\u5730\u8cea\u8abf\u67fb\u4f5c\u696d","client_name":"\u5efa\u8a2d\u7701\u5317\u9678\u5730\u65b9\u5efa\u8a2d\u5c40\u5bcc\u5c71\u5de5\u4e8b\u4e8b\u52d9\u6240","boring_xml_url":40,"boring_view_url":1,"soilmap_view_url":null,"soiltest_xml_url":0,"soiltest_view_url":0},{"id":160780,"code":"B4KJ201801004-9029","latitude":"36.7467077","longitude":"137.0444129","source_code":"HR55370093005","project_name":"","survey_name":"\u4e2d\u5ddd\u53ca\u5185\u5ddd\u5730\u8cea\u8abf\u67fb\u4f5c\u696d","client_name":"\u5efa\u8a2d\u7701\u5317\u9678\u5730\u65b9\u5efa\u8a2d\u5c40\u5bcc\u5c71\u5de5\u4e8b\u4e8b\u52d9\u6240","boring_xml_url":40,"boring_view_url":1,"soilmap_view_url":null,"soiltest_xml_url":0,"soiltest_view_url":0},{"id":160779,"code":"B4KJ201801004-9028","latitude":"36.74642996","longitude":"137.0439407","source_code":"HR55370093004","project_name":"","survey_name":"\u5185\u5ddd\u30fb\u5730\u4e45\u5b50\u5ddd\u5730\u8cea\u8abf\u67fb\u4f5c\u696d","client_name":"\u5efa\u8a2d\u7701\u5317\u9678\u5730\u65b9\u5efa\u8a2d\u5c40\u5bcc\u5c71\u5de5\u4e8b\u4e8b\u52d9\u6240","boring_xml_url":40,"boring_view_url":1,"soilmap_view_url":null,"soiltest_xml_url":0,"soiltest_view_url":0},{"id":160778,"code":"B4KJ201801004-9027","latitude":"36.74920738","longitude":"137.0456905","source_code":"HR55370093003","project_name":"","survey_name":"\u5730\u4e45\u5b50\u5ddd\u6a0b\u9580\u5730\u8cea\u8abf\u67fb\u4f5c\u696d","client_name":"\u5efa\u8a2d\u7701\u5317\u9678\u5730\u65b9\u5efa\u8a2d\u5c40\u5bcc\u5c71\u5de5\u4e8b\u4e8b\u52d9\u6240","boring_xml_url":40,"boring_view_url":1,"soilmap_view_url":null,"soiltest_xml_url":0,"soiltest_view_url":0},{"id":160777,"code":"B4KJ201801004-9026","latitude":"36.74740206","longitude":"137.0442184","source_code":"HR55370093002","project_name":"","survey_name":"\u677e\u5ddd.\u5730\u4e45\u5b50\u5ddd\u5730\u8cea\u8abf\u67fb\u4f5c\u696d","client_name":"\u5efa\u8a2d\u7701\u5317\u9678\u5730\u65b9\u5efa\u8a2d\u5c40\u5bcc\u5c71\u5de5\u4e8b\u4e8b\u52d9\u6240","boring_xml_url":40,"boring_view_url":1,"soilmap_view_url":null,"soiltest_xml_url":0,"soiltest_view_url":0},{"id":160776,"code":"B4KJ201801004-9025","latitude":"36.74887413","longitude":"137.0407464","source_code":"HR55370093001","project_name":"","survey_name":"\u677e\u5ddd\u5730\u4e45\u5b50\u5ddd\u5730\u8cea\u8abf\u67fb\u4f5c\u696d","client_name":"\u5efa\u8a2d\u7701\u5317\u9678\u5730\u65b9\u5efa\u8a2d\u5c40\u5bcc\u5c71\u5de5\u4e8b\u4e8b\u52d9\u6240","boring_xml_url":40,"boring_view_url":1,"soilmap_view_url":null,"soiltest_xml_url":0,"soiltest_view_url":0},{"id":160775,"code":"B4KJ201801004-9024","latitude":"36.74051551","longitude":"137.110351","source_code":"HR55370089002","project_name":"","survey_name":"\u5bcc\u5c71\u9ad8\u5ca1\u30d0\u30a4\u30d1\u30b9\u5c0f\u6749\u5730\u533a\u571f\u8cea\u8abf\u67fb\u53ca\u3073\u89e3\u6790\u696d\u52d9\u59d4\u8a17","client_name":"\u5efa\u8a2d\u7701\u5317\u9678\u5730\u65b9\u5efa\u8a2d\u5c40\u5bcc\u5c71\u5de5\u4e8b\u4e8b\u52d9\u6240","boring_xml_url":40,"boring_view_url":1,"soilmap_view_url":null,"soiltest_xml_url":0,"soiltest_view_url":0},{"id":160774,"code":"B4KJ201801004-9023","latitude":"36.73790484","longitude":"137.1142952","source_code":"HR55370089001","project_name":"","survey_name":"\u5bcc\u5c71\u9ad8\u5ca1\u30d0\u30a4\u30d1\u30b9\u5c0f\u6749\u5730\u533a\u571f\u8cea\u8abf\u67fb\u53ca\u3073\u89e3\u6790\u696d\u52d9\u59d4\u8a17","client_name":"\u5efa\u8a2d\u7701\u5317\u9678\u5730\u65b9\u5efa\u8a2d\u5c40\u5bcc\u5c71\u5de5\u4e8b\u4e8b\u52d9\u6240","boring_xml_url":40,"boring_view_url":1,"soilmap_view_url":null,"soiltest_xml_url":0,"soiltest_view_url":0},{"id":160773,"code":"B4KJ201801004-9022","latitude":"36.74395789","longitude":"136.9999446","source_code":"HR55370080001","project_name":"","survey_name":"\u9ad8\u5ca1\u7a0e\u52d9\u7f72\u8abf\u67fb","client_name":"\u5efa\u8a2d\u7701\u95a2\u6771\u5730\u65b9\u5efa\u8a2d\u5c40\u55b6\u7e55\u90e8","boring_xml_url":40,"boring_view_url":1,"soilmap_view_url":null,"soiltest_xml_url":0,"soiltest_view_url":0},{"id":160772,"code":"B4KJ201801004-9021","latitude":"36.73626456","longitude":"137.0463023","source_code":"HR55370073002","project_name":"","survey_name":"\u5e84\u5ddd\u67f3\u753a\u5730\u533a\u5730\u8cea\u8abf\u67fb\u4f5c\u696d","client_name":"\u5efa\u8a2d\u7701\u5317\u9678\u5730\u65b9\u5efa\u8a2d\u5c40\u5bcc\u5c71\u5de5\u4e8b\u4e8b\u52d9\u6240","boring_xml_url":40,"boring_view_url":1,"soilmap_view_url":null,"soiltest_xml_url":0,"soiltest_view_url":0},{"id":160771,"code":"B4KJ201801004-9020","latitude":"37.04533449","longitude":"136.9611596","source_code":"HR55364757001","project_name":"","survey_name":"\u4e03\u5c3e\u6cd5\u52d9\u7dcf\u5408\u5730\u76e4\u8abf\u67fb","client_name":"\u5efa\u8a2d\u7701\u95a2\u6771\u5730\u65b9\u5efa\u8a2d\u5c40\u55b6\u7e55\u90e8","boring_xml_url":40,"boring_view_url":1,"soilmap_view_url":null,"soiltest_xml_url":0,"soiltest_view_url":0},{"id":160770,"code":"B4KJ201801004-9019","latitude":"37.01547638","longitude":"136.947801","source_code":"HR55364716002","project_name":"","survey_name":"\u5fa1\u7953\u5ddd\u30dc\u30fc\u30ea\u30f3\u30b0\u8abf\u67fb\u4f5c\u696d","client_name":"\u5efa\u8a2d\u7701\u5317\u9678\u5730\u65b9\u5efa\u8a2d\u5c40\u91d1\u6ca2\u5de5\u4e8b\u4e8b\u52d9\u6240","boring_xml_url":40,"boring_view_url":1,"soilmap_view_url":null,"soiltest_xml_url":0,"soiltest_view_url":0},{"id":160769,"code":"B4KJ201801004-9018","latitude":"37.01328217","longitude":"136.9475511","source_code":"HR55364716001","project_name":"","survey_name":"\u6d25\u5e61\u30fb\u9e7f\u5cf6\u30d0\u30a4\u30d1\u30b9\u5730\u8cea\u8abf\u67fb\u4f5c\u696d","client_name":"\u5efa\u8a2d\u7701\u5317\u9678\u5730\u65b9\u5efa\u8a2d\u5c40\u91d1\u6ca2\u5de5\u4e8b\u4e8b\u52d9\u6240","boring_xml_url":40,"boring_view_url":1,"soilmap_view_url":null,"soiltest_xml_url":0,"soiltest_view_url":0},{"id":160768,"code":"B4KJ201801004-9017","latitude":"36.95192578","longitude":"136.8791163","source_code":"HR55363730009","project_name":"","survey_name":"\u9e7f\u5cf6\u30d0\u30a4\u30d1\u30b9(\u5c0f\u7530\u4e2d)\u5730\u8cea\u8abf\u67fb\u4f5c\u696d","client_name":"\u5efa\u8a2d\u7701\u5317\u9678\u5730\u65b9\u5efa\u8a2d\u5c40\u91d1\u6ca2\u5de5\u4e8b\u4e8b\u52d9\u6240","boring_xml_url":40,"boring_view_url":1,"soilmap_view_url":null,"soiltest_xml_url":0,"soiltest_view_url":0},{"id":160767,"code":"B4KJ201801004-9016","latitude":"36.9514814","longitude":"136.8791441","source_code":"HR55363730008","project_name":"","survey_name":"\u9e7f\u5cf6\u30d0\u30a4\u30d1\u30b9(\u5c0f\u7530\u4e2d)\u5730\u8cea\u8abf\u67fb\u4f5c\u696d","client_name":"\u5efa\u8a2d\u7701\u5317\u9678\u5730\u65b9\u5efa\u8a2d\u5c40\u91d1\u6ca2\u5de5\u4e8b\u4e8b\u52d9\u6240","boring_xml_url":40,"boring_view_url":1,"soilmap_view_url":null,"soiltest_xml_url":0,"soiltest_view_url":0},{"id":160766,"code":"B4KJ201801004-9015","latitude":"36.95187024","longitude":"136.8797829","source_code":"HR55363730007","project_name":"","survey_name":"\u9e7f\u5cf6\u30d0\u30a4\u30d1\u30b9(\u5c0f\u7530\u4e2d)\u5730\u8cea\u8abf\u67fb\u4f5c\u696d","client_name":"\u5efa\u8a2d\u7701\u5317\u9678\u5730\u65b9\u5efa\u8a2d\u5c40\u91d1\u6ca2\u5de5\u4e8b\u4e8b\u52d9\u6240","boring_xml_url":40,"boring_view_url":1,"soilmap_view_url":null,"soiltest_xml_url":0,"soiltest_view_url":0}]}}