{"header":{"xyz":{"source":[],"mosaic":false},"page":5346,"raw":{"soiltest_result":"0","bbox":"57.598333,109.544722,1.933333,163.806111","page":"5346"},"conditions":{"soiltest_result":0,"north":57.598333,"west":109.544722,"south":1.933333,"east":163.806111},"success":true,"message":""},"data":{"meta":{"total":212844,"page":5346,"pages":7095,"count":30},"values":[{"id":160195,"code":"B4KJ201801004-8444","latitude":"36.39254571","longitude":"136.492532","source_code":"HR54364369045","project_name":"","survey_name":"\u5730\u8cea\u8abf\u67fb\u4f5c\u696d\u5358\u4fa1\u5951\u7d04(\u516b\u5e61\u9ad8\u67b6\u6a4b(1)\uff5e(2))","client_name":"\u5efa\u8a2d\u7701\u5317\u9678\u5730\u65b9\u5efa\u8a2d\u5c40\u91d1\u6ca2\u5de5\u4e8b\u4e8b\u52d9\u6240","boring_xml_url":40,"boring_view_url":1,"soilmap_view_url":null,"soiltest_xml_url":0,"soiltest_view_url":0},{"id":160194,"code":"B4KJ201801004-8443","latitude":"36.39154581","longitude":"136.4916154","source_code":"HR54364369044","project_name":"","survey_name":"\u5730\u8cea\u8abf\u67fb\u4f5c\u696d\u5358\u4fa1\u5951\u7d04(\u516b\u5e61\u9ad8\u67b6\u6a4b(1)\uff5e(2))","client_name":"\u5efa\u8a2d\u7701\u5317\u9678\u5730\u65b9\u5efa\u8a2d\u5c40\u91d1\u6ca2\u5de5\u4e8b\u4e8b\u52d9\u6240","boring_xml_url":40,"boring_view_url":1,"soilmap_view_url":null,"soiltest_xml_url":0,"soiltest_view_url":0},{"id":160193,"code":"B4KJ201801004-8442","latitude":"36.39193465","longitude":"136.4918098","source_code":"HR54364369042","project_name":"","survey_name":"\u5730\u8cea\u8abf\u67fb\u4f5c\u696d\u5358\u4fa1\u5951\u7d04(\u516b\u5e61\u9ad8\u67b6\u6a4b(1)\uff5e(2))","client_name":"\u5efa\u8a2d\u7701\u5317\u9678\u5730\u65b9\u5efa\u8a2d\u5c40\u91d1\u6ca2\u5de5\u4e8b\u4e8b\u52d9\u6240","boring_xml_url":40,"boring_view_url":1,"soilmap_view_url":null,"soiltest_xml_url":0,"soiltest_view_url":0},{"id":160192,"code":"B4KJ201801004-8441","latitude":"36.39057369","longitude":"136.49081","source_code":"HR54364369034","project_name":"","survey_name":"\u5730\u8cea\u8abf\u67fb\u4f5c\u696d\u5358\u4fa1\u5951\u7d04(\u516b\u5e61\u5730\u5185)","client_name":"\u5efa\u8a2d\u7701\u5317\u9678\u5730\u65b9\u5efa\u8a2d\u5c40\u91d1\u6ca2\u5de5\u4e8b\u4e8b\u52d9\u6240","boring_xml_url":40,"boring_view_url":1,"soilmap_view_url":null,"soiltest_xml_url":0,"soiltest_view_url":0},{"id":160191,"code":"B4KJ201801004-8440","latitude":"36.3932123","longitude":"136.4930041","source_code":"HR54364369033","project_name":"","survey_name":"\u5730\u8cea\u8abf\u67fb\u4f5c\u696d\u5358\u4fa1\u5951\u7d04(\u516b\u5e61\u8de8\u9053\u6a4b\u305d\u306e2)","client_name":"\u5efa\u8a2d\u7701\u5317\u9678\u5730\u65b9\u5efa\u8a2d\u5c40\u91d1\u6ca2\u5de5\u4e8b\u4e8b\u52d9\u6240","boring_xml_url":40,"boring_view_url":1,"soilmap_view_url":null,"soiltest_xml_url":0,"soiltest_view_url":0},{"id":160190,"code":"B4KJ201801004-8439","latitude":"36.3932123","longitude":"136.4930041","source_code":"HR54364369032","project_name":"","survey_name":"\u5730\u8cea\u8abf\u67fb\u4f5c\u696d\u5358\u4fa1\u5951\u7d04(\u516b\u5e61\u8de8\u9053\u6a4b\u305d\u306e2)","client_name":"\u5efa\u8a2d\u7701\u5317\u9678\u5730\u65b9\u5efa\u8a2d\u5c40\u91d1\u6ca2\u5de5\u4e8b\u4e8b\u52d9\u6240","boring_xml_url":40,"boring_view_url":1,"soilmap_view_url":null,"soiltest_xml_url":0,"soiltest_view_url":0},{"id":160189,"code":"B4KJ201801004-8438","latitude":"36.3932123","longitude":"136.4930041","source_code":"HR54364369031","project_name":"","survey_name":"\u5730\u8cea\u8abf\u67fb\u4f5c\u696d\u5358\u4fa1\u5951\u7d04(\u516b\u5e61\u8de8\u9053\u6a4b\u305d\u306e2)","client_name":"\u5efa\u8a2d\u7701\u5317\u9678\u5730\u65b9\u5efa\u8a2d\u5c40\u91d1\u6ca2\u5de5\u4e8b\u4e8b\u52d9\u6240","boring_xml_url":40,"boring_view_url":1,"soilmap_view_url":null,"soiltest_xml_url":0,"soiltest_view_url":0},{"id":160188,"code":"B4KJ201801004-8437","latitude":"36.3932123","longitude":"136.4930041","source_code":"HR54364369029","project_name":"","survey_name":"\u5730\u8cea\u8abf\u67fb\u4f5c\u696d\u5358\u4fa1\u5951\u7d04(\u516b\u5e61\u8de8\u9053\u6a4b\u305d\u306e2)","client_name":"\u5efa\u8a2d\u7701\u5317\u9678\u5730\u65b9\u5efa\u8a2d\u5c40\u91d1\u6ca2\u5de5\u4e8b\u4e8b\u52d9\u6240","boring_xml_url":40,"boring_view_url":1,"soilmap_view_url":null,"soiltest_xml_url":0,"soiltest_view_url":0},{"id":160187,"code":"B4KJ201801004-8436","latitude":"36.3932123","longitude":"136.4930041","source_code":"HR54364369028","project_name":"","survey_name":"\u5730\u8cea\u8abf\u67fb\u4f5c\u696d\u5358\u4fa1\u5951\u7d04(\u516b\u5e61\u8de8\u9053\u6a4b\u305d\u306e3)","client_name":"\u5efa\u8a2d\u7701\u5317\u9678\u5730\u65b9\u5efa\u8a2d\u5c40\u91d1\u6ca2\u5de5\u4e8b\u4e8b\u52d9\u6240","boring_xml_url":40,"boring_view_url":1,"soilmap_view_url":null,"soiltest_xml_url":0,"soiltest_view_url":0},{"id":160186,"code":"B4KJ201801004-8435","latitude":"36.3932123","longitude":"136.4930041","source_code":"HR54364369026","project_name":"","survey_name":"\u5730\u8cea\u8abf\u67fb\u4f5c\u696d\u5358\u4fa1\u5951\u7d04(\u516b\u5e61\u8de8\u9053\u6a4b\u305d\u306e3)","client_name":"\u5efa\u8a2d\u7701\u5317\u9678\u5730\u65b9\u5efa\u8a2d\u5c40\u91d1\u6ca2\u5de5\u4e8b\u4e8b\u52d9\u6240","boring_xml_url":40,"boring_view_url":1,"soilmap_view_url":null,"soiltest_xml_url":0,"soiltest_view_url":0},{"id":160185,"code":"B4KJ201801004-8434","latitude":"36.3932123","longitude":"136.4930041","source_code":"HR54364369025","project_name":"","survey_name":"\u5358\u4fa1\u5951\u7d04\u8abf\u67fb\u5c0f\u677e\u30d0\u30a4\u30d1\u30b9(\u516b\u5e61\u8de8\u9053\u6a4b)","client_name":"\u5efa\u8a2d\u7701\u5317\u9678\u5730\u65b9\u5efa\u8a2d\u5c40\u91d1\u6ca2\u5de5\u4e8b\u4e8b\u52d9\u6240","boring_xml_url":40,"boring_view_url":1,"soilmap_view_url":null,"soiltest_xml_url":0,"soiltest_view_url":0},{"id":160184,"code":"B4KJ201801004-8433","latitude":"36.3932123","longitude":"136.4930041","source_code":"HR54364369024","project_name":"","survey_name":"\u5358\u4fa1\u5951\u7d04\u8abf\u67fb\u5c0f\u677e\u30d0\u30a4\u30d1\u30b9(\u516b\u5e61\u8de8\u9053\u6a4b)","client_name":"\u5efa\u8a2d\u7701\u5317\u9678\u5730\u65b9\u5efa\u8a2d\u5c40\u91d1\u6ca2\u5de5\u4e8b\u4e8b\u52d9\u6240","boring_xml_url":40,"boring_view_url":1,"soilmap_view_url":null,"soiltest_xml_url":0,"soiltest_view_url":0},{"id":160183,"code":"B4KJ201801004-8432","latitude":"36.3932123","longitude":"136.4930041","source_code":"HR54364369023","project_name":"","survey_name":"\u5358\u4fa1\u5951\u7d04\u8abf\u67fb\u5c0f\u677e\u30d0\u30a4\u30d1\u30b9(\u516b\u5e61\u8de8\u9053\u6a4b)","client_name":"\u5efa\u8a2d\u7701\u5317\u9678\u5730\u65b9\u5efa\u8a2d\u5c40\u91d1\u6ca2\u5de5\u4e8b\u4e8b\u52d9\u6240","boring_xml_url":40,"boring_view_url":1,"soilmap_view_url":null,"soiltest_xml_url":0,"soiltest_view_url":0},{"id":160182,"code":"B4KJ201801004-8431","latitude":"36.39165699","longitude":"136.4931708","source_code":"HR54364369022","project_name":"","survey_name":"\u5c0f\u677e\u30d0\u30a4\u30d1\u30b9(\u516b\u5e61\u5730\u5148)\u5730\u8cea\u8abf\u67fb\u4f5c\u696d","client_name":"\u5efa\u8a2d\u7701\u5317\u9678\u5730\u65b9\u5efa\u8a2d\u5c40\u91d1\u6ca2\u5de5\u4e8b\u4e8b\u52d9\u6240","boring_xml_url":40,"boring_view_url":1,"soilmap_view_url":null,"soiltest_xml_url":0,"soiltest_view_url":0},{"id":160181,"code":"B4KJ201801004-8430","latitude":"36.39046273","longitude":"136.493032","source_code":"HR54364369020","project_name":"","survey_name":"\u5c0f\u677e\u30d0\u30a4\u30d1\u30b9(\u516b\u5e61\u5730\u5148)\u5730\u8cea\u8abf\u67fb\u4f5c\u696d","client_name":"\u5efa\u8a2d\u7701\u5317\u9678\u5730\u65b9\u5efa\u8a2d\u5c40\u91d1\u6ca2\u5de5\u4e8b\u4e8b\u52d9\u6240","boring_xml_url":40,"boring_view_url":1,"soilmap_view_url":null,"soiltest_xml_url":0,"soiltest_view_url":0},{"id":160180,"code":"B4KJ201801004-8429","latitude":"36.39051831","longitude":"136.4937819","source_code":"HR54364369019","project_name":"","survey_name":"\u5c0f\u677e\u30d0\u30a4\u30d1\u30b9(\u516b\u5e61\u5730\u5148)\u5730\u8cea\u8abf\u67fb\u4f5c\u696d","client_name":"\u5efa\u8a2d\u7701\u5317\u9678\u5730\u65b9\u5efa\u8a2d\u5c40\u91d1\u6ca2\u5de5\u4e8b\u4e8b\u52d9\u6240","boring_xml_url":40,"boring_view_url":1,"soilmap_view_url":null,"soiltest_xml_url":0,"soiltest_view_url":0},{"id":160179,"code":"B4KJ201801004-8428","latitude":"36.39068493","longitude":"136.4932264","source_code":"HR54364369018","project_name":"","survey_name":"\u5c0f\u677e\u30d0\u30a4\u30d1\u30b9(\u516b\u5e61\u5730\u5148)\u5730\u8cea\u8abf\u67fb\u4f5c\u696d","client_name":"\u5efa\u8a2d\u7701\u5317\u9678\u5730\u65b9\u5efa\u8a2d\u5c40\u91d1\u6ca2\u5de5\u4e8b\u4e8b\u52d9\u6240","boring_xml_url":40,"boring_view_url":1,"soilmap_view_url":null,"soiltest_xml_url":0,"soiltest_view_url":0},{"id":160178,"code":"B4KJ201801004-8427","latitude":"36.39085159","longitude":"136.4936986","source_code":"HR54364369017","project_name":"","survey_name":"\u5c0f\u677e\u30d0\u30a4\u30d1\u30b9(\u516b\u5e61\u5730\u5148)\u5730\u8cea\u8abf\u67fb\u4f5c\u696d","client_name":"\u5efa\u8a2d\u7701\u5317\u9678\u5730\u65b9\u5efa\u8a2d\u5c40\u91d1\u6ca2\u5de5\u4e8b\u4e8b\u52d9\u6240","boring_xml_url":40,"boring_view_url":1,"soilmap_view_url":null,"soiltest_xml_url":0,"soiltest_view_url":0},{"id":160177,"code":"B4KJ201801004-8426","latitude":"36.39115708","longitude":"136.493282","source_code":"HR54364369016","project_name":"","survey_name":"\u5c0f\u677e\u30d0\u30a4\u30d1\u30b9(\u516b\u5e61\u5730\u5148)\u5730\u8cea\u8abf\u67fb\u4f5c\u696d","client_name":"\u5efa\u8a2d\u7701\u5317\u9678\u5730\u65b9\u5efa\u8a2d\u5c40\u91d1\u6ca2\u5de5\u4e8b\u4e8b\u52d9\u6240","boring_xml_url":40,"boring_view_url":1,"soilmap_view_url":null,"soiltest_xml_url":0,"soiltest_view_url":0},{"id":160176,"code":"B4KJ201801004-8425","latitude":"36.3911571","longitude":"136.493643","source_code":"HR54364369015","project_name":"","survey_name":"\u5c0f\u677e\u30d0\u30a4\u30d1\u30b9(\u516b\u5e61\u5730\u5148)\u5730\u8cea\u8abf\u67fb\u4f5c\u696d","client_name":"\u5efa\u8a2d\u7701\u5317\u9678\u5730\u65b9\u5efa\u8a2d\u5c40\u91d1\u6ca2\u5de5\u4e8b\u4e8b\u52d9\u6240","boring_xml_url":40,"boring_view_url":1,"soilmap_view_url":null,"soiltest_xml_url":0,"soiltest_view_url":0},{"id":160175,"code":"B4KJ201801004-8424","latitude":"36.39157368","longitude":"136.4933375","source_code":"HR54364369014","project_name":"","survey_name":"\u5c0f\u677e\u30d0\u30a4\u30d1\u30b9(\u516b\u5e61\u5730\u5148)\u5730\u8cea\u8abf\u67fb\u4f5c\u696d","client_name":"\u5efa\u8a2d\u7701\u5317\u9678\u5730\u65b9\u5efa\u8a2d\u5c40\u91d1\u6ca2\u5de5\u4e8b\u4e8b\u52d9\u6240","boring_xml_url":40,"boring_view_url":1,"soilmap_view_url":null,"soiltest_xml_url":0,"soiltest_view_url":0},{"id":160174,"code":"B4KJ201801004-8423","latitude":"36.39176811","longitude":"136.4935041","source_code":"HR54364369013","project_name":"","survey_name":"\u5c0f\u677e\u30d0\u30a4\u30d1\u30b9(\u516b\u5e61\u5730\u5148)\u5730\u8cea\u8abf\u67fb\u4f5c\u696d","client_name":"\u5efa\u8a2d\u7701\u5317\u9678\u5730\u65b9\u5efa\u8a2d\u5c40\u91d1\u6ca2\u5de5\u4e8b\u4e8b\u52d9\u6240","boring_xml_url":40,"boring_view_url":1,"soilmap_view_url":null,"soiltest_xml_url":0,"soiltest_view_url":0},{"id":160173,"code":"B4KJ201801004-8422","latitude":"36.39249021","longitude":"136.4932819","source_code":"HR54364369012","project_name":"","survey_name":"\u5c0f\u677e\u30d0\u30a4\u30d1\u30b9(\u516b\u5e61\u5730\u5148)\u5730\u8cea\u8abf\u67fb\u4f5c\u696d","client_name":"\u5efa\u8a2d\u7701\u5317\u9678\u5730\u65b9\u5efa\u8a2d\u5c40\u91d1\u6ca2\u5de5\u4e8b\u4e8b\u52d9\u6240","boring_xml_url":40,"boring_view_url":1,"soilmap_view_url":null,"soiltest_xml_url":0,"soiltest_view_url":0},{"id":160172,"code":"B4KJ201801004-8421","latitude":"36.3930179","longitude":"136.493143","source_code":"HR54364369011","project_name":"","survey_name":"\u5c0f\u677e\u30d0\u30a4\u30d1\u30b9(\u516b\u5e61\u5730\u5148)\u5730\u8cea\u8abf\u67fb\u4f5c\u696d","client_name":"\u5efa\u8a2d\u7701\u5317\u9678\u5730\u65b9\u5efa\u8a2d\u5c40\u91d1\u6ca2\u5de5\u4e8b\u4e8b\u52d9\u6240","boring_xml_url":40,"boring_view_url":1,"soilmap_view_url":null,"soiltest_xml_url":0,"soiltest_view_url":0},{"id":160171,"code":"B4KJ201801004-8420","latitude":"36.39337895","longitude":"136.4930874","source_code":"HR54364369010","project_name":"","survey_name":"\u5c0f\u677e\u30d0\u30a4\u30d1\u30b9(\u516b\u5e61\u5730\u5148)\u5730\u8cea\u8abf\u67fb\u4f5c\u696d","client_name":"\u5efa\u8a2d\u7701\u5317\u9678\u5730\u65b9\u5efa\u8a2d\u5c40\u91d1\u6ca2\u5de5\u4e8b\u4e8b\u52d9\u6240","boring_xml_url":40,"boring_view_url":1,"soilmap_view_url":null,"soiltest_xml_url":0,"soiltest_view_url":0},{"id":160170,"code":"B4KJ201801004-8419","latitude":"36.39260133","longitude":"136.4937263","source_code":"HR54364369009","project_name":"","survey_name":"\u5c0f\u677e\u30d0\u30a4\u30d1\u30b9\u516b\u5e61\u306e\u5824\u6f0f\u6c34\u5bfe\u7b56\u696d\u52d9\u59d4\u8a17","client_name":"\u5efa\u8a2d\u7701\u5317\u9678\u5730\u65b9\u5efa\u8a2d\u5c40\u91d1\u6ca2\u5de5\u4e8b\u4e8b\u52d9\u6240","boring_xml_url":40,"boring_view_url":1,"soilmap_view_url":null,"soiltest_xml_url":0,"soiltest_view_url":0},{"id":160169,"code":"B4KJ201801004-8418","latitude":"36.39249024","longitude":"136.4939207","source_code":"HR54364369008","project_name":"","survey_name":"\u5c0f\u677e\u30d0\u30a4\u30d1\u30b9\u516b\u5e61\u306e\u5824\u6f0f\u6c34\u5bfe\u7b56\u696d\u52d9\u59d4\u8a17","client_name":"\u5efa\u8a2d\u7701\u5317\u9678\u5730\u65b9\u5efa\u8a2d\u5c40\u91d1\u6ca2\u5de5\u4e8b\u4e8b\u52d9\u6240","boring_xml_url":40,"boring_view_url":1,"soilmap_view_url":null,"soiltest_xml_url":0,"soiltest_view_url":0},{"id":160168,"code":"B4KJ201801004-8417","latitude":"36.38643541","longitude":"136.4903379","source_code":"HR54364369007","project_name":"","survey_name":"\u5c0f\u677e\u30d0\u30a4\u30d1\u30b9(\u516b\u5e61\uff5e\u82b1\u5742)\u5730\u8cea\u8abf\u67fb\u4f5c\u696d","client_name":"\u5efa\u8a2d\u7701\u5317\u9678\u5730\u65b9\u5efa\u8a2d\u5c40\u91d1\u6ca2\u5de5\u4e8b\u4e8b\u52d9\u6240","boring_xml_url":40,"boring_view_url":1,"soilmap_view_url":null,"soiltest_xml_url":0,"soiltest_view_url":0},{"id":160167,"code":"B4KJ201801004-8416","latitude":"36.38818523","longitude":"136.4917822","source_code":"HR54364369005","project_name":"","survey_name":"\u5c0f\u677e\u30d0\u30a4\u30d1\u30b9(\u516b\u5e61\uff5e\u82b1\u5742)\u5730\u8cea\u8abf\u67fb\u4f5c\u696d","client_name":"\u5efa\u8a2d\u7701\u5317\u9678\u5730\u65b9\u5efa\u8a2d\u5c40\u91d1\u6ca2\u5de5\u4e8b\u4e8b\u52d9\u6240","boring_xml_url":40,"boring_view_url":1,"soilmap_view_url":null,"soiltest_xml_url":0,"soiltest_view_url":0},{"id":160166,"code":"B4KJ201801004-8415","latitude":"36.3878242","longitude":"136.4923099","source_code":"HR54364369004","project_name":"","survey_name":"\u5c0f\u677e\u30d0\u30a4\u30d1\u30b9(\u516b\u5e61\uff5e\u82b1\u5742)\u5730\u8cea\u8abf\u67fb\u4f5c\u696d","client_name":"\u5efa\u8a2d\u7701\u5317\u9678\u5730\u65b9\u5efa\u8a2d\u5c40\u91d1\u6ca2\u5de5\u4e8b\u4e8b\u52d9\u6240","boring_xml_url":40,"boring_view_url":1,"soilmap_view_url":null,"soiltest_xml_url":0,"soiltest_view_url":0}]}}