{"header":{"xyz":{"source":[],"mosaic":false},"page":5354,"raw":{"soiltest_result":"0","bbox":"57.598333,109.544722,1.933333,163.806111","page":"5354"},"conditions":{"soiltest_result":0,"north":57.598333,"west":109.544722,"south":1.933333,"east":163.806111},"success":true,"message":""},"data":{"meta":{"total":212844,"page":5354,"pages":7095,"count":30},"values":[{"id":159955,"code":"B4KJ201801004-8204","latitude":"36.43528056","longitude":"136.4783864","source_code":"HR1584857820201042","project_name":"","survey_name":"\u5e02\u7acb\u8352\u5c4b\u5c0f\u5b66\u6821\u5730\u5730\u8cea\u8abf\u67fb\u6c34\u8cea\u6c34\u91cf\u8a66\u9a13\u5de5\u4e8b","client_name":"\u5efa\u8a2d\u7701\u5317\u9678\u5730\u65b9\u5efa\u8a2d\u5c40\u91d1\u6ca2\u5de5\u4e8b\u4e8b\u52d9\u6240","boring_xml_url":45,"boring_view_url":1,"soilmap_view_url":null,"soiltest_xml_url":0,"soiltest_view_url":0},{"id":159954,"code":"B4KJ201801004-8203","latitude":"36.4273975","longitude":"136.4597883","source_code":"HR1584857820201041","project_name":"","survey_name":"\u5c0f\u677e\u5e02\u7acb\u72ac\u4e38\u4e2d\u5b66\u6821\u30d7\u30fc\u30eb\u6577\u5730\u5730\u8cea\u8abf\u67fb","client_name":"\u5efa\u8a2d\u7701\u5317\u9678\u5730\u65b9\u5efa\u8a2d\u5c40\u91d1\u6ca2\u5de5\u4e8b\u4e8b\u52d9\u6240","boring_xml_url":45,"boring_view_url":1,"soilmap_view_url":null,"soiltest_xml_url":0,"soiltest_view_url":0},{"id":159953,"code":"B4KJ201801004-8202","latitude":"36.42746694","longitude":"136.4594772","source_code":"HR1584857820201040","project_name":"","survey_name":"\u5c0f\u677e\u5e02\u7acb\u72ac\u4e38\u5c0f\u5b66\u6821\u5185\u5730\u8cea\u8abf\u67fb","client_name":"\u5efa\u8a2d\u7701\u5317\u9678\u5730\u65b9\u5efa\u8a2d\u5c40\u91d1\u6ca2\u5de5\u4e8b\u4e8b\u52d9\u6240","boring_xml_url":45,"boring_view_url":1,"soilmap_view_url":null,"soiltest_xml_url":0,"soiltest_view_url":0},{"id":159952,"code":"B4KJ201801004-8201","latitude":"36.42751139","longitude":"136.4592272","source_code":"HR1584857820201039","project_name":"","survey_name":"\u5c0f\u677e\u5e02\u7acb\u5c0f\u677e\u72ac\u4e38\u5c0f\u5b66\u6821\u5730\u8cea\u6c34\u8cea\u63da\u6c34\u8a66\u9a13","client_name":"\u5efa\u8a2d\u7701\u5317\u9678\u5730\u65b9\u5efa\u8a2d\u5c40\u91d1\u6ca2\u5de5\u4e8b\u4e8b\u52d9\u6240","boring_xml_url":45,"boring_view_url":1,"soilmap_view_url":null,"soiltest_xml_url":0,"soiltest_view_url":0},{"id":159951,"code":"B4KJ201801004-8200","latitude":"36.46282222","longitude":"136.494195","source_code":"HR1584857820201038","project_name":"","survey_name":"\u624b\u53d6\u5ddd\u5927\u6a4b\u571f\u8cea\u8abf\u67fb","client_name":"\u5efa\u8a2d\u7701\u5317\u9678\u5730\u65b9\u5efa\u8a2d\u5c40\u91d1\u6ca2\u5de5\u4e8b\u4e8b\u52d9\u6240","boring_xml_url":45,"boring_view_url":1,"soilmap_view_url":null,"soiltest_xml_url":0,"soiltest_view_url":0},{"id":159950,"code":"B4KJ201801004-8199","latitude":"36.46777722","longitude":"136.4963556","source_code":"HR1584857820201037","project_name":"","survey_name":"\u624b\u53d6\u5ddd\u5927\u6a4b\u571f\u8cea\u8abf\u67fb","client_name":"\u5efa\u8a2d\u7701\u5317\u9678\u5730\u65b9\u5efa\u8a2d\u5c40\u91d1\u6ca2\u5de5\u4e8b\u4e8b\u52d9\u6240","boring_xml_url":45,"boring_view_url":1,"soilmap_view_url":null,"soiltest_xml_url":0,"soiltest_view_url":0},{"id":159949,"code":"B4KJ201801004-8198","latitude":"36.54432722","longitude":"136.6304658","source_code":"HR1584857820201036","project_name":"","survey_name":"\u65b0\u4e8c\u4e07\u5802\u6a4b\u5730\u8cea\u8abf\u67fb\u4f5c\u696d","client_name":"\u5efa\u8a2d\u7701\u5317\u9678\u5730\u65b9\u5efa\u8a2d\u5c40\u91d1\u6ca2\u5de5\u4e8b\u4e8b\u52d9\u6240","boring_xml_url":45,"boring_view_url":1,"soilmap_view_url":null,"soiltest_xml_url":0,"soiltest_view_url":0},{"id":159948,"code":"B4KJ201801004-8197","latitude":"36.54432444","longitude":"136.6303214","source_code":"HR1584857820201035","project_name":"","survey_name":"\u65b0\u4e8c\u4e07\u5802\u6a4b\u5730\u8cea\u8abf\u67fb\u4f5c\u696d","client_name":"\u5efa\u8a2d\u7701\u5317\u9678\u5730\u65b9\u5efa\u8a2d\u5c40\u91d1\u6ca2\u5de5\u4e8b\u4e8b\u52d9\u6240","boring_xml_url":45,"boring_view_url":1,"soilmap_view_url":null,"soiltest_xml_url":0,"soiltest_view_url":0},{"id":159947,"code":"B4KJ201801004-8196","latitude":"36.56448389","longitude":"136.6560989","source_code":"HR1584857820201034","project_name":"","survey_name":"49-\u91d1\u6ca2\u7b2c2\u5730\u65b9\u5408\u540c\u5e81\u820e\u5730\u76e4\u8abf\u67fb","client_name":"\u5efa\u8a2d\u7701\u5317\u9678\u5730\u65b9\u5efa\u8a2d\u5c40\u91d1\u6ca2\u55b6\u7e55\u5de5\u4e8b\u4e8b\u52d9\u6240","boring_xml_url":45,"boring_view_url":1,"soilmap_view_url":null,"soiltest_xml_url":0,"soiltest_view_url":0},{"id":159946,"code":"B4KJ201801004-8195","latitude":"36.56447278","longitude":"136.6557406","source_code":"HR1584857820201031","project_name":"","survey_name":"49-\u91d1\u6ca2\u7b2c2\u5730\u65b9\u5408\u540c\u5e81\u820e\u5730\u76e4\u8abf\u67fb","client_name":"\u5efa\u8a2d\u7701\u5317\u9678\u5730\u65b9\u5efa\u8a2d\u5c40\u91d1\u6ca2\u55b6\u7e55\u5de5\u4e8b\u4e8b\u52d9\u6240","boring_xml_url":45,"boring_view_url":1,"soilmap_view_url":null,"soiltest_xml_url":0,"soiltest_view_url":0},{"id":159945,"code":"B4KJ201801004-8194","latitude":"36.56483389","longitude":"136.655185","source_code":"HR1584857820201030","project_name":"","survey_name":"37-\u91d1\u6ca2\u5730\u65b9\u5408\u540c\u5e81\u820e\u6577\u5730\u5730\u8cea\u8abf\u67fb","client_name":"\u5efa\u8a2d\u7701\u5317\u9678\u5730\u65b9\u5efa\u8a2d\u5c40\u91d1\u6ca2\u55b6\u7e55\u5de5\u4e8b\u4e8b\u52d9\u6240","boring_xml_url":45,"boring_view_url":1,"soilmap_view_url":null,"soiltest_xml_url":48,"soiltest_view_url":48},{"id":159944,"code":"B4KJ201801004-8193","latitude":"36.56469778","longitude":"136.6553906","source_code":"HR1584857820201029","project_name":"","survey_name":"37-\u91d1\u6ca2\u5730\u65b9\u5408\u540c\u5e81\u820e\u6577\u5730\u5730\u8cea\u8abf\u67fb","client_name":"\u5efa\u8a2d\u7701\u5317\u9678\u5730\u65b9\u5efa\u8a2d\u5c40\u91d1\u6ca2\u55b6\u7e55\u5de5\u4e8b\u4e8b\u52d9\u6240","boring_xml_url":45,"boring_view_url":1,"soilmap_view_url":null,"soiltest_xml_url":48,"soiltest_view_url":48},{"id":159943,"code":"B4KJ201801004-8192","latitude":"36.56472","longitude":"136.6552739","source_code":"HR1584857820201028","project_name":"","survey_name":"37-\u91d1\u6ca2\u5730\u65b9\u5408\u540c\u5e81\u820e\u6577\u5730\u5730\u8cea\u8abf\u67fb","client_name":"\u5efa\u8a2d\u7701\u5317\u9678\u5730\u65b9\u5efa\u8a2d\u5c40\u91d1\u6ca2\u55b6\u7e55\u5de5\u4e8b\u4e8b\u52d9\u6240","boring_xml_url":45,"boring_view_url":1,"soilmap_view_url":null,"soiltest_xml_url":48,"soiltest_view_url":48},{"id":159942,"code":"B4KJ201801004-8191","latitude":"36.56485889","longitude":"136.6553739","source_code":"HR1584857820201027","project_name":"","survey_name":"37-\u91d1\u6ca2\u5730\u65b9\u5408\u540c\u5e81\u820e\u6577\u5730\u5730\u8cea\u8abf\u67fb","client_name":"\u5efa\u8a2d\u7701\u5317\u9678\u5730\u65b9\u5efa\u8a2d\u5c40\u91d1\u6ca2\u55b6\u7e55\u5de5\u4e8b\u4e8b\u52d9\u6240","boring_xml_url":45,"boring_view_url":1,"soilmap_view_url":null,"soiltest_xml_url":48,"soiltest_view_url":48},{"id":159941,"code":"B4KJ201801004-8190","latitude":"36.56494778","longitude":"136.6553267","source_code":"HR1584857820201026","project_name":"","survey_name":"37-\u91d1\u6ca2\u5730\u65b9\u5408\u540c\u5e81\u820e\u6577\u5730\u5730\u8cea\u8abf\u67fb","client_name":"\u5efa\u8a2d\u7701\u5317\u9678\u5730\u65b9\u5efa\u8a2d\u5c40\u91d1\u6ca2\u55b6\u7e55\u5de5\u4e8b\u4e8b\u52d9\u6240","boring_xml_url":45,"boring_view_url":1,"soilmap_view_url":null,"soiltest_xml_url":48,"soiltest_view_url":48},{"id":159940,"code":"B4KJ201801004-8189","latitude":"36.56744194","longitude":"136.6632619","source_code":"HR1584857820201025","project_name":"","survey_name":"\u91d1\u6ca2\u6cd5\u52d9\u5408\u540c\u6577\u5730\u8abf\u67fb","client_name":"\u5efa\u8a2d\u7701\u5317\u9678\u5730\u65b9\u5efa\u8a2d\u5c40\u91d1\u6ca2\u55b6\u7e55\u5de5\u4e8b\u4e8b\u52d9\u6240","boring_xml_url":45,"boring_view_url":1,"soilmap_view_url":null,"soiltest_xml_url":48,"soiltest_view_url":48},{"id":159939,"code":"B4KJ201801004-8188","latitude":"36.56750861","longitude":"136.6629008","source_code":"HR1584857820201024","project_name":"","survey_name":"\u91d1\u6ca2\u6cd5\u52d9\u5408\u540c\u6577\u5730\u8abf\u67fb","client_name":"\u5efa\u8a2d\u7701\u5317\u9678\u5730\u65b9\u5efa\u8a2d\u5c40\u91d1\u6ca2\u55b6\u7e55\u5de5\u4e8b\u4e8b\u52d9\u6240","boring_xml_url":45,"boring_view_url":1,"soilmap_view_url":null,"soiltest_xml_url":48,"soiltest_view_url":48},{"id":159938,"code":"B4KJ201801004-8187","latitude":"36.56768639","longitude":"136.6631119","source_code":"HR1584857820201023","project_name":"","survey_name":"\u91d1\u6ca2\u6cd5\u52d9\u5408\u540c\u6577\u5730\u8abf\u67fb","client_name":"\u5efa\u8a2d\u7701\u5317\u9678\u5730\u65b9\u5efa\u8a2d\u5c40\u91d1\u6ca2\u55b6\u7e55\u5de5\u4e8b\u4e8b\u52d9\u6240","boring_xml_url":45,"boring_view_url":1,"soilmap_view_url":null,"soiltest_xml_url":48,"soiltest_view_url":48},{"id":159937,"code":"B4KJ201801004-8186","latitude":"36.56771417","longitude":"136.6629369","source_code":"HR1584857820201022","project_name":"","survey_name":"\u91d1\u6ca2\u6cd5\u52d9\u5408\u540c\u6577\u5730\u8abf\u67fb","client_name":"\u5efa\u8a2d\u7701\u5317\u9678\u5730\u65b9\u5efa\u8a2d\u5c40\u91d1\u6ca2\u55b6\u7e55\u5de5\u4e8b\u4e8b\u52d9\u6240","boring_xml_url":45,"boring_view_url":1,"soilmap_view_url":null,"soiltest_xml_url":48,"soiltest_view_url":48},{"id":159936,"code":"B4KJ201801004-8185","latitude":"36.57615222","longitude":"136.6640617","source_code":"HR1584857820201017","project_name":"","survey_name":"43-\u77f3\u5ddd\u7d71\u8a08\u8abf\u67fb\u4e8b\u52d9\u6240\u91d1\u6ca2\u51fa\u5f35\u6240\u5e81\u820e\u5730\u76e4\u8abf\u67fb","client_name":"\u5efa\u8a2d\u7701\u5317\u9678\u5730\u65b9\u5efa\u8a2d\u5c40\u91d1\u6ca2\u55b6\u7e55\u5de5\u4e8b\u4e8b\u52d9\u6240","boring_xml_url":45,"boring_view_url":1,"soilmap_view_url":null,"soiltest_xml_url":0,"soiltest_view_url":0},{"id":159935,"code":"B4KJ201801004-8184","latitude":"36.57633556","longitude":"136.6640283","source_code":"HR1584857820201016","project_name":"","survey_name":"43-\u77f3\u5ddd\u7d71\u8a08\u8abf\u67fb\u4e8b\u52d9\u6240\u91d1\u6ca2\u51fa\u5f35\u6240\u5e81\u820e\u5730\u76e4\u8abf\u67fb","client_name":"\u5efa\u8a2d\u7701\u5317\u9678\u5730\u65b9\u5efa\u8a2d\u5c40\u91d1\u6ca2\u55b6\u7e55\u5de5\u4e8b\u4e8b\u52d9\u6240","boring_xml_url":45,"boring_view_url":1,"soilmap_view_url":null,"soiltest_xml_url":0,"soiltest_view_url":0},{"id":159934,"code":"B4KJ201801004-8183","latitude":"36.56160306","longitude":"136.6296458","source_code":"HR1584857820201015","project_name":"","survey_name":"51-\u91d1\u6ca2\u7b2c2\u5730\u65b9\u5408\u540c\u6577\u5730\u8abf\u67fb","client_name":"\u5efa\u8a2d\u7701\u5317\u9678\u5730\u65b9\u5efa\u8a2d\u5c40\u91d1\u6ca2\u55b6\u7e55\u5de5\u4e8b\u4e8b\u52d9\u6240","boring_xml_url":45,"boring_view_url":1,"soilmap_view_url":null,"soiltest_xml_url":0,"soiltest_view_url":0},{"id":159933,"code":"B4KJ201801004-8182","latitude":"36.56162806","longitude":"136.6293069","source_code":"HR1584857820201014","project_name":"","survey_name":"51-\u91d1\u6ca2\u7b2c2\u5730\u65b9\u5408\u540c\u6577\u5730\u8abf\u67fb","client_name":"\u5efa\u8a2d\u7701\u5317\u9678\u5730\u65b9\u5efa\u8a2d\u5c40\u91d1\u6ca2\u55b6\u7e55\u5de5\u4e8b\u4e8b\u52d9\u6240","boring_xml_url":45,"boring_view_url":1,"soilmap_view_url":null,"soiltest_xml_url":48,"soiltest_view_url":48},{"id":159932,"code":"B4KJ201801004-8181","latitude":"36.56184194","longitude":"136.6296986","source_code":"HR1584857820201013","project_name":"","survey_name":"51-\u91d1\u6ca2\u7b2c2\u5730\u65b9\u5408\u540c\u6577\u5730\u8abf\u67fb","client_name":"\u5efa\u8a2d\u7701\u5317\u9678\u5730\u65b9\u5efa\u8a2d\u5c40\u91d1\u6ca2\u55b6\u7e55\u5de5\u4e8b\u4e8b\u52d9\u6240","boring_xml_url":45,"boring_view_url":1,"soilmap_view_url":null,"soiltest_xml_url":0,"soiltest_view_url":0},{"id":159931,"code":"B4KJ201801004-8180","latitude":"36.56183889","longitude":"136.6294403","source_code":"HR1584857820201012","project_name":"","survey_name":"51-\u91d1\u6ca2\u7b2c2\u5730\u65b9\u5408\u540c\u6577\u5730\u8abf\u67fb","client_name":"\u5efa\u8a2d\u7701\u5317\u9678\u5730\u65b9\u5efa\u8a2d\u5c40\u91d1\u6ca2\u55b6\u7e55\u5de5\u4e8b\u4e8b\u52d9\u6240","boring_xml_url":45,"boring_view_url":1,"soilmap_view_url":null,"soiltest_xml_url":48,"soiltest_view_url":48},{"id":159930,"code":"B4KJ201801004-8179","latitude":"36.56183611","longitude":"136.6292042","source_code":"HR1584857820201011","project_name":"","survey_name":"51-\u91d1\u6ca2\u7b2c2\u5730\u65b9\u5408\u540c\u6577\u5730\u8abf\u67fb","client_name":"\u5efa\u8a2d\u7701\u5317\u9678\u5730\u65b9\u5efa\u8a2d\u5c40\u91d1\u6ca2\u55b6\u7e55\u5de5\u4e8b\u4e8b\u52d9\u6240","boring_xml_url":45,"boring_view_url":1,"soilmap_view_url":null,"soiltest_xml_url":0,"soiltest_view_url":0},{"id":159929,"code":"B4KJ201801004-8178","latitude":"36.58560833","longitude":"136.62324","source_code":"HR1584857820201010","project_name":"","survey_name":"\u69cb\u9020\u7269\u57fa\u790e\u8abf\u67fb(\u91d1\u77f3\u7dda)","client_name":"\u5efa\u8a2d\u7701\u5317\u9678\u5730\u65b9\u5efa\u8a2d\u5c40\u91d1\u6ca2\u5de5\u4e8b\u4e8b\u52d9\u6240","boring_xml_url":45,"boring_view_url":1,"soilmap_view_url":null,"soiltest_xml_url":0,"soiltest_view_url":0},{"id":159928,"code":"B4KJ201801004-8177","latitude":"36.58573889","longitude":"136.6235147","source_code":"HR1584857820201009","project_name":"","survey_name":"\u69cb\u9020\u7269\u57fa\u790e\u8abf\u67fb(\u91d1\u77f3\u7dda)","client_name":"\u5efa\u8a2d\u7701\u5317\u9678\u5730\u65b9\u5efa\u8a2d\u5c40\u91d1\u6ca2\u5de5\u4e8b\u4e8b\u52d9\u6240","boring_xml_url":45,"boring_view_url":1,"soilmap_view_url":null,"soiltest_xml_url":0,"soiltest_view_url":0},{"id":159927,"code":"B4KJ201801004-8176","latitude":"36.58599167","longitude":"136.6237564","source_code":"HR1584857820201008","project_name":"","survey_name":"\u69cb\u9020\u7269\u57fa\u790e\u8abf\u67fb(\u91d1\u77f3\u7dda)","client_name":"\u5efa\u8a2d\u7701\u5317\u9678\u5730\u65b9\u5efa\u8a2d\u5c40\u91d1\u6ca2\u5de5\u4e8b\u4e8b\u52d9\u6240","boring_xml_url":45,"boring_view_url":1,"soilmap_view_url":null,"soiltest_xml_url":0,"soiltest_view_url":0},{"id":159926,"code":"B4KJ201801004-8175","latitude":"36.58616944","longitude":"136.6239064","source_code":"HR1584857820201007","project_name":"","survey_name":"\u69cb\u9020\u7269\u57fa\u790e\u8abf\u67fb(\u91d1\u77f3\u7dda)","client_name":"\u5efa\u8a2d\u7701\u5317\u9678\u5730\u65b9\u5efa\u8a2d\u5c40\u91d1\u6ca2\u5de5\u4e8b\u4e8b\u52d9\u6240","boring_xml_url":45,"boring_view_url":1,"soilmap_view_url":null,"soiltest_xml_url":0,"soiltest_view_url":0}]}}