{"header":{"xyz":{"source":[],"mosaic":false},"page":5355,"raw":{"soiltest_result":"0","bbox":"57.598333,109.544722,1.933333,163.806111","page":"5355"},"conditions":{"soiltest_result":0,"north":57.598333,"west":109.544722,"south":1.933333,"east":163.806111},"success":true,"message":""},"data":{"meta":{"total":212844,"page":5355,"pages":7095,"count":30},"values":[{"id":159925,"code":"B4KJ201801004-8174","latitude":"36.58605556","longitude":"136.6245286","source_code":"HR1584857820201006","project_name":"","survey_name":"\u69cb\u9020\u7269\u57fa\u790e\u8abf\u67fb(\u91d1\u77f3\u7dda)","client_name":"\u5efa\u8a2d\u7701\u5317\u9678\u5730\u65b9\u5efa\u8a2d\u5c40\u91d1\u6ca2\u5de5\u4e8b\u4e8b\u52d9\u6240","boring_xml_url":45,"boring_view_url":1,"soilmap_view_url":null,"soiltest_xml_url":0,"soiltest_view_url":0},{"id":159924,"code":"B4KJ201801004-8173","latitude":"36.532125","longitude":"136.5952472","source_code":"HR1584857820201005","project_name":"","survey_name":"\u91d1\u6ca2\u30d0\u30a4\u30d1\u30b9\u4e09\u65e5\u5e02\u9ad8\u67b6\u6a4b\u5730\u76e4\u8abf\u67fb\u4f5c\u696d","client_name":"\u5efa\u8a2d\u7701\u5317\u9678\u5730\u65b9\u5efa\u8a2d\u5c40\u91d1\u6ca2\u5de5\u4e8b\u4e8b\u52d9\u6240","boring_xml_url":45,"boring_view_url":1,"soilmap_view_url":null,"soiltest_xml_url":0,"soiltest_view_url":0},{"id":159923,"code":"B4KJ201801004-8172","latitude":"36.53206944","longitude":"136.5951833","source_code":"HR1584857820201004","project_name":"","survey_name":"\u91d1\u6ca2\u30d0\u30a4\u30d1\u30b9\u4e09\u65e5\u5e02\u9ad8\u67b6\u6a4b\u5730\u76e4\u8abf\u67fb\u4f5c\u696d","client_name":"\u5efa\u8a2d\u7701\u5317\u9678\u5730\u65b9\u5efa\u8a2d\u5c40\u91d1\u6ca2\u5de5\u4e8b\u4e8b\u52d9\u6240","boring_xml_url":45,"boring_view_url":1,"soilmap_view_url":null,"soiltest_xml_url":0,"soiltest_view_url":0},{"id":159922,"code":"B4KJ201801004-8171","latitude":"36.53275556","longitude":"136.596025","source_code":"HR1584857820201003","project_name":"","survey_name":"\u91d1\u6ca2\u30d0\u30a4\u30d1\u30b9\u4e09\u65e5\u5e02\u9ad8\u67b6\u6a4b\u5730\u76e4\u8abf\u67fb\u4f5c\u696d","client_name":"\u5efa\u8a2d\u7701\u5317\u9678\u5730\u65b9\u5efa\u8a2d\u5c40\u91d1\u6ca2\u5de5\u4e8b\u4e8b\u52d9\u6240","boring_xml_url":45,"boring_view_url":1,"soilmap_view_url":null,"soiltest_xml_url":0,"soiltest_view_url":0},{"id":159921,"code":"B4KJ201801004-8170","latitude":"36.53271111","longitude":"136.596","source_code":"HR1584857820201002","project_name":"","survey_name":"\u91d1\u6ca2\u30d0\u30a4\u30d1\u30b9\u4e09\u65e5\u5e02\u9ad8\u67b6\u6a4b\u5730\u76e4\u8abf\u67fb\u4f5c\u696d","client_name":"\u5efa\u8a2d\u7701\u5317\u9678\u5730\u65b9\u5efa\u8a2d\u5c40\u91d1\u6ca2\u5de5\u4e8b\u4e8b\u52d9\u6240","boring_xml_url":45,"boring_view_url":1,"soilmap_view_url":null,"soiltest_xml_url":0,"soiltest_view_url":0},{"id":159920,"code":"B4KJ201801004-8169","latitude":"36.53275","longitude":"136.5956639","source_code":"HR1584857820201001","project_name":"","survey_name":"\u91d1\u6ca2\u30d0\u30a4\u30d1\u30b9\u4e09\u65e5\u5e02\u9ad8\u67b6\u6a4b\u5730\u76e4\u8abf\u67fb\u4f5c\u696d","client_name":"\u5efa\u8a2d\u7701\u5317\u9678\u5730\u65b9\u5efa\u8a2d\u5c40\u91d1\u6ca2\u5de5\u4e8b\u4e8b\u52d9\u6240","boring_xml_url":45,"boring_view_url":1,"soilmap_view_url":null,"soiltest_xml_url":0,"soiltest_view_url":0},{"id":159919,"code":"B4KJ201801004-8168","latitude":"36.532725","longitude":"136.5955278","source_code":"HR1584857820201000","project_name":"","survey_name":"\u91d1\u6ca2\u30d0\u30a4\u30d1\u30b9\u4e09\u65e5\u5e02\u9ad8\u67b6\u6a4b\u5730\u76e4\u8abf\u67fb\u4f5c\u696d","client_name":"\u5efa\u8a2d\u7701\u5317\u9678\u5730\u65b9\u5efa\u8a2d\u5c40\u91d1\u6ca2\u5de5\u4e8b\u4e8b\u52d9\u6240","boring_xml_url":45,"boring_view_url":1,"soilmap_view_url":null,"soiltest_xml_url":0,"soiltest_view_url":0},{"id":159918,"code":"B4KJ201801004-8167","latitude":"36.6235","longitude":"136.6925044","source_code":"HR1584857820200999","project_name":"","survey_name":"\u6d25\u5e61\u30fb\u677e\u4efb\uff5e\u5c0f\u677e\u30d0\u30a4\u30d1\u30b9\u5730\u8cea\u6982\u67fb","client_name":"\u5efa\u8a2d\u7701\u5317\u9678\u5730\u65b9\u5efa\u8a2d\u5c40\u91d1\u6ca2\u5de5\u4e8b\u4e8b\u52d9\u6240","boring_xml_url":45,"boring_view_url":1,"soilmap_view_url":null,"soiltest_xml_url":48,"soiltest_view_url":48},{"id":159917,"code":"B4KJ201801004-8166","latitude":"36.62369444","longitude":"136.6928878","source_code":"HR1584857820200998","project_name":"","survey_name":"\u69cb\u9020\u7269\u57fa\u790e\u8abf\u67fb(\u68ee\u672c\u5ddd \u67f3\u6a4b\u5ddd \u5b87\u30ce\u6c17\u5ddd \u65e7\u5b87\u30ce\u6c17\u5ddd)","client_name":"\u5efa\u8a2d\u7701\u5317\u9678\u5730\u65b9\u5efa\u8a2d\u5c40\u91d1\u6ca2\u5de5\u4e8b\u4e8b\u52d9\u6240","boring_xml_url":45,"boring_view_url":1,"soilmap_view_url":null,"soiltest_xml_url":0,"soiltest_view_url":0},{"id":159916,"code":"B4KJ201801004-8165","latitude":"36.62418333","longitude":"136.6936544","source_code":"HR1584857820200997","project_name":"","survey_name":"\u69cb\u9020\u7269\u57fa\u790e\u8abf\u67fb(\u68ee\u672c\u5ddd)","client_name":"\u5efa\u8a2d\u7701\u5317\u9678\u5730\u65b9\u5efa\u8a2d\u5c40\u91d1\u6ca2\u5de5\u4e8b\u4e8b\u52d9\u6240","boring_xml_url":45,"boring_view_url":1,"soilmap_view_url":null,"soiltest_xml_url":0,"soiltest_view_url":0},{"id":159915,"code":"B4KJ201801004-8164","latitude":"36.62427222","longitude":"136.6936544","source_code":"HR1584857820200996","project_name":"","survey_name":"\u69cb\u9020\u7269\u57fa\u790e\u8abf\u67fb(\u68ee\u4e0b\u5ddd)","client_name":"\u5efa\u8a2d\u7701\u5317\u9678\u5730\u65b9\u5efa\u8a2d\u5c40\u91d1\u6ca2\u5de5\u4e8b\u4e8b\u52d9\u6240","boring_xml_url":45,"boring_view_url":1,"soilmap_view_url":null,"soiltest_xml_url":0,"soiltest_view_url":0},{"id":159914,"code":"B4KJ201801004-8163","latitude":"36.62438889","longitude":"136.6939156","source_code":"HR1584857820200995","project_name":"","survey_name":"\u69cb\u9020\u7269\u57fa\u790e\u8abf\u67fb(\u68ee\u672c\u5ddd \u67f3\u6a4b\u5ddd \u5b87\u30ce\u6c17\u5ddd \u65e7\u5b87\u30ce\u6c17\u5ddd)","client_name":"\u5efa\u8a2d\u7701\u5317\u9678\u5730\u65b9\u5efa\u8a2d\u5c40\u91d1\u6ca2\u5de5\u4e8b\u4e8b\u52d9\u6240","boring_xml_url":45,"boring_view_url":1,"soilmap_view_url":null,"soiltest_xml_url":0,"soiltest_view_url":0},{"id":159913,"code":"B4KJ201801004-8162","latitude":"36.6270275","longitude":"136.6973733","source_code":"HR1584857820200994","project_name":"","survey_name":"\u6d25\u5e61\u30d0\u30a4\u30d1\u30b9\u571f\u8cea\u8abf\u67fb","client_name":"\u5efa\u8a2d\u7701\u5317\u9678\u5730\u65b9\u5efa\u8a2d\u5c40\u91d1\u6ca2\u5de5\u4e8b\u4e8b\u52d9\u6240","boring_xml_url":45,"boring_view_url":1,"soilmap_view_url":null,"soiltest_xml_url":0,"soiltest_view_url":0},{"id":159912,"code":"B4KJ201801004-8161","latitude":"36.60821528","longitude":"136.6746456","source_code":"HR1584857820200993","project_name":"","survey_name":"\u69cb\u9020\u7269\u57fa\u790e\u8abf\u67fb(\u68ee\u672c\u5ddd \u67f3\u6a4b\u5ddd \u5b87\u30ce\u6c17\u5ddd \u65e7\u5b87\u30ce\u6c17\u5ddd)","client_name":"\u5efa\u8a2d\u7701\u5317\u9678\u5730\u65b9\u5efa\u8a2d\u5c40\u91d1\u6ca2\u5de5\u4e8b\u4e8b\u52d9\u6240","boring_xml_url":45,"boring_view_url":1,"soilmap_view_url":null,"soiltest_xml_url":0,"soiltest_view_url":0},{"id":159911,"code":"B4KJ201801004-8160","latitude":"36.60636833","longitude":"136.6703433","source_code":"HR1584857820200992","project_name":"","survey_name":"\u91d1\u6ca2B\u30fbP\u91d1\u8150\u5ddd\u5730\u76e4\u8abf\u67fb\u4f5c\u696d","client_name":"\u5efa\u8a2d\u7701\u5317\u9678\u5730\u65b9\u5efa\u8a2d\u5c40\u91d1\u6ca2\u5de5\u4e8b\u4e8b\u52d9\u6240","boring_xml_url":45,"boring_view_url":1,"soilmap_view_url":null,"soiltest_xml_url":0,"soiltest_view_url":0},{"id":159910,"code":"B4KJ201801004-8159","latitude":"36.60622944","longitude":"136.66981","source_code":"HR1584857820200991","project_name":"","survey_name":"\u91d1\u6ca2B.P\u91d1\u8150\u5ddd\u5730\u76e4\u8abf\u67fb\u4f5c\u696d","client_name":"\u5efa\u8a2d\u7701\u5317\u9678\u5730\u65b9\u5efa\u8a2d\u5c40\u91d1\u6ca2\u5de5\u4e8b\u4e8b\u52d9\u6240","boring_xml_url":45,"boring_view_url":1,"soilmap_view_url":null,"soiltest_xml_url":48,"soiltest_view_url":48},{"id":159909,"code":"B4KJ201801004-8158","latitude":"36.60570722","longitude":"136.6696461","source_code":"HR1584857820200990","project_name":"","survey_name":"\u91d1\u6ca2B\u30fbP\u91d1\u8150\u5ddd\u5730\u76e4\u8abf\u67fb\u4f5c\u696d","client_name":"\u5efa\u8a2d\u7701\u5317\u9678\u5730\u65b9\u5efa\u8a2d\u5c40\u91d1\u6ca2\u5de5\u4e8b\u4e8b\u52d9\u6240","boring_xml_url":45,"boring_view_url":1,"soilmap_view_url":null,"soiltest_xml_url":0,"soiltest_view_url":0},{"id":159908,"code":"B4KJ201801004-8157","latitude":"36.60567667","longitude":"136.6694961","source_code":"HR1584857820200989","project_name":"","survey_name":"\u91d1\u6ca2B.P\u91d1\u8150\u5ddd\u5730\u76e4\u8abf\u67fb\u4f5c\u696d","client_name":"\u5efa\u8a2d\u7701\u5317\u9678\u5730\u65b9\u5efa\u8a2d\u5c40\u91d1\u6ca2\u5de5\u4e8b\u4e8b\u52d9\u6240","boring_xml_url":45,"boring_view_url":1,"soilmap_view_url":null,"soiltest_xml_url":0,"soiltest_view_url":0},{"id":159907,"code":"B4KJ201801004-8156","latitude":"36.60572667","longitude":"136.668385","source_code":"HR1584857820200988","project_name":"","survey_name":"\u69cb\u9020\u7269\u57fa\u790e\u8abf\u67fb(\u6d45\u91ce\u5ddd\u3001\u91d1\u8150\u5ddd)\u4f5c\u696d","client_name":"\u5efa\u8a2d\u7701\u5317\u9678\u5730\u65b9\u5efa\u8a2d\u5c40\u91d1\u6ca2\u5de5\u4e8b\u4e8b\u52d9\u6240","boring_xml_url":45,"boring_view_url":1,"soilmap_view_url":null,"soiltest_xml_url":0,"soiltest_view_url":0},{"id":159906,"code":"B4KJ201801004-8155","latitude":"36.60565722","longitude":"136.6682239","source_code":"HR1584857820200987","project_name":"","survey_name":"\u69cb\u9020\u7269\u57fa\u790e\u8abf\u67fb(\u6d45\u91ce\u5ddd\u3001\u91d1\u8150\u5ddd)\u4f5c\u696d","client_name":"\u5efa\u8a2d\u7701\u5317\u9678\u5730\u65b9\u5efa\u8a2d\u5c40\u91d1\u6ca2\u5de5\u4e8b\u4e8b\u52d9\u6240","boring_xml_url":45,"boring_view_url":1,"soilmap_view_url":null,"soiltest_xml_url":0,"soiltest_view_url":0},{"id":159905,"code":"B4KJ201801004-8154","latitude":"36.60557944","longitude":"136.6680156","source_code":"HR1584857820200986","project_name":"","survey_name":"\u91d1\u6ca2B\u30fbP\u91d1\u8150\u5ddd\u5730\u76e4\u8abf\u67fb\u4f5c\u696d","client_name":"\u5efa\u8a2d\u7701\u5317\u9678\u5730\u65b9\u5efa\u8a2d\u5c40\u91d1\u6ca2\u5de5\u4e8b\u4e8b\u52d9\u6240","boring_xml_url":45,"boring_view_url":1,"soilmap_view_url":null,"soiltest_xml_url":0,"soiltest_view_url":0},{"id":159904,"code":"B4KJ201801004-8153","latitude":"36.60538222","longitude":"136.6674714","source_code":"HR1584857820200985","project_name":"","survey_name":"\u91d1\u6ca2B.P\u91d1\u8150\u5ddd\u5730\u76e4\u8abf\u67fb\u4f5c\u696d","client_name":"\u5efa\u8a2d\u7701\u5317\u9678\u5730\u65b9\u5efa\u8a2d\u5c40\u91d1\u6ca2\u5de5\u4e8b\u4e8b\u52d9\u6240","boring_xml_url":45,"boring_view_url":1,"soilmap_view_url":null,"soiltest_xml_url":48,"soiltest_view_url":48},{"id":159903,"code":"B4KJ201801004-8152","latitude":"36.60519611","longitude":"136.6670325","source_code":"HR1584857820200984","project_name":"","survey_name":"\u91d1\u6ca2\u30d0\u30a4\u30d1\u30b9\u91d1\u8150\u5ddd\u57fa\u790e\u5730\u76e4\u8abf\u67fb","client_name":"\u5efa\u8a2d\u7701\u5317\u9678\u5730\u65b9\u5efa\u8a2d\u5c40\u91d1\u6ca2\u5de5\u4e8b\u4e8b\u52d9\u6240","boring_xml_url":45,"boring_view_url":1,"soilmap_view_url":null,"soiltest_xml_url":0,"soiltest_view_url":0},{"id":159902,"code":"B4KJ201801004-8151","latitude":"36.60659583","longitude":"136.6679794","source_code":"HR1584857820200983","project_name":"","survey_name":"\u91d1\u6ca2BP\u91d1\u8150\u5ddd\u5730\u76e4\u8abf\u67fb\u4f5c\u696d","client_name":"\u5efa\u8a2d\u7701\u5317\u9678\u5730\u65b9\u5efa\u8a2d\u5c40\u91d1\u6ca2\u5de5\u4e8b\u4e8b\u52d9\u6240","boring_xml_url":45,"boring_view_url":1,"soilmap_view_url":null,"soiltest_xml_url":0,"soiltest_view_url":0},{"id":159901,"code":"B4KJ201801004-8150","latitude":"36.60659306","longitude":"136.6678156","source_code":"HR1584857820200982","project_name":"","survey_name":"\u91d1\u6ca2BP\u91d1\u8150\u5ddd\u5730\u76e4\u8abf\u67fb\u4f5c\u696d","client_name":"\u5efa\u8a2d\u7701\u5317\u9678\u5730\u65b9\u5efa\u8a2d\u5c40\u91d1\u6ca2\u5de5\u4e8b\u4e8b\u52d9\u6240","boring_xml_url":45,"boring_view_url":1,"soilmap_view_url":null,"soiltest_xml_url":48,"soiltest_view_url":48},{"id":159900,"code":"B4KJ201801004-8149","latitude":"36.60666806","longitude":"136.6678378","source_code":"HR1584857820200981","project_name":"","survey_name":"\u91d1\u6ca2BP\u91d1\u8150\u5ddd\u5730\u76e4\u8abf\u67fb\u4f5c\u696d","client_name":"\u5efa\u8a2d\u7701\u5317\u9678\u5730\u65b9\u5efa\u8a2d\u5c40\u91d1\u6ca2\u5de5\u4e8b\u4e8b\u52d9\u6240","boring_xml_url":45,"boring_view_url":1,"soilmap_view_url":null,"soiltest_xml_url":0,"soiltest_view_url":0},{"id":159899,"code":"B4KJ201801004-8148","latitude":"36.6066875","longitude":"136.6679294","source_code":"HR1584857820200980","project_name":"","survey_name":"\u91d1\u6ca2BP\u91d1\u8150\u5ddd\u5730\u76e4\u8abf\u67fb\u4f5c\u696d","client_name":"\u5efa\u8a2d\u7701\u5317\u9678\u5730\u65b9\u5efa\u8a2d\u5c40\u91d1\u6ca2\u5de5\u4e8b\u4e8b\u52d9\u6240","boring_xml_url":45,"boring_view_url":1,"soilmap_view_url":null,"soiltest_xml_url":0,"soiltest_view_url":0},{"id":159898,"code":"B4KJ201801004-8147","latitude":"36.6059125","longitude":"136.6665131","source_code":"HR1584857820200979","project_name":"","survey_name":"\u91d1\u6ca2BP\u91d1\u8150\u5ddd\u5730\u76e4\u8abf\u67fb\u4f5c\u696d","client_name":"\u5efa\u8a2d\u7701\u5317\u9678\u5730\u65b9\u5efa\u8a2d\u5c40\u91d1\u6ca2\u5de5\u4e8b\u4e8b\u52d9\u6240","boring_xml_url":45,"boring_view_url":1,"soilmap_view_url":null,"soiltest_xml_url":0,"soiltest_view_url":0},{"id":159897,"code":"B4KJ201801004-8146","latitude":"36.60592083","longitude":"136.6663603","source_code":"HR1584857820200978","project_name":"","survey_name":"\u91d1\u6ca2BP\u91d1\u8150\u5ddd\u5730\u76e4\u8abf\u67fb\u4f5c\u696d","client_name":"\u5efa\u8a2d\u7701\u5317\u9678\u5730\u65b9\u5efa\u8a2d\u5c40\u91d1\u6ca2\u5de5\u4e8b\u4e8b\u52d9\u6240","boring_xml_url":45,"boring_view_url":1,"soilmap_view_url":null,"soiltest_xml_url":48,"soiltest_view_url":48},{"id":159896,"code":"B4KJ201801004-8145","latitude":"36.60591806","longitude":"136.6661964","source_code":"HR1584857820200977","project_name":"","survey_name":"\u91d1\u6ca2\u30d0\u30a4\u30d1\u30b9\u91d1\u8150\u5ddd\u57fa\u790e\u5730\u76e4\u8abf\u67fb","client_name":"\u5efa\u8a2d\u7701\u5317\u9678\u5730\u65b9\u5efa\u8a2d\u5c40\u91d1\u6ca2\u5de5\u4e8b\u4e8b\u52d9\u6240","boring_xml_url":45,"boring_view_url":1,"soilmap_view_url":null,"soiltest_xml_url":0,"soiltest_view_url":0}]}}