{"header":{"xyz":{"source":[],"mosaic":false},"page":5363,"raw":{"soiltest_result":"0","bbox":"57.598333,109.544722,1.933333,163.806111","page":"5363"},"conditions":{"soiltest_result":0,"north":57.598333,"west":109.544722,"south":1.933333,"east":163.806111},"success":true,"message":""},"data":{"meta":{"total":212844,"page":5363,"pages":7095,"count":30},"values":[{"id":159685,"code":"B4KJ201801004-7934","latitude":"36.85229194","longitude":"136.9777842","source_code":"HR1584857820200715","project_name":"","survey_name":"\u6c37\u898b\u30d0\u30a4\u30d1\u30b9\u571f\u8cea\u8abf\u67fb\u53ca\u3073\u89e3\u6790\u696d\u52d9\u59d4\u8a17","client_name":"\u5efa\u8a2d\u7701\u5317\u9678\u5730\u65b9\u5efa\u8a2d\u5c40\u5bcc\u5c71\u5de5\u4e8b\u4e8b\u52d9\u6240","boring_xml_url":45,"boring_view_url":1,"soilmap_view_url":null,"soiltest_xml_url":48,"soiltest_view_url":48},{"id":159684,"code":"B4KJ201801004-7933","latitude":"36.85262528","longitude":"136.9789394","source_code":"HR1584857820200714","project_name":"","survey_name":"\u6c37\u898b\u30d0\u30a4\u30d1\u30b9\u5b88\u5c71\u6a4b\u89e3\u6790\u4f5c\u696d","client_name":"\u5efa\u8a2d\u7701\u5317\u9678\u5730\u65b9\u5efa\u8a2d\u5c40\u5bcc\u5c71\u5de5\u4e8b\u4e8b\u52d9\u6240","boring_xml_url":45,"boring_view_url":1,"soilmap_view_url":null,"soiltest_xml_url":0,"soiltest_view_url":0},{"id":159683,"code":"B4KJ201801004-7932","latitude":"36.85509444","longitude":"136.9771061","source_code":"HR1584857820200711","project_name":"","survey_name":"\u6c37\u898b\u30d0\u30a4\u30d1\u30b9\u5b88\u5c71\u6a4b\u571f\u8cea\u8abf\u67fb\u4f5c\u696d","client_name":"\u5efa\u8a2d\u7701\u5317\u9678\u5730\u65b9\u5efa\u8a2d\u5c40\u5bcc\u5c71\u5de5\u4e8b\u4e8b\u52d9\u6240","boring_xml_url":45,"boring_view_url":1,"soilmap_view_url":null,"soiltest_xml_url":0,"soiltest_view_url":0},{"id":159682,"code":"B4KJ201801004-7931","latitude":"36.85625528","longitude":"136.9768783","source_code":"HR1584857820200710","project_name":"","survey_name":"\u6c37\u898b\u30d0\u30a4\u30d1\u30b9\u5b88\u5c71\u6a4b\u571f\u8cea\u8abf\u67fb\u4f5c\u696d","client_name":"\u5efa\u8a2d\u7701\u5317\u9678\u5730\u65b9\u5efa\u8a2d\u5c40\u5bcc\u5c71\u5de5\u4e8b\u4e8b\u52d9\u6240","boring_xml_url":45,"boring_view_url":1,"soilmap_view_url":null,"soiltest_xml_url":0,"soiltest_view_url":0},{"id":159681,"code":"B4KJ201801004-7930","latitude":"36.8562275","longitude":"136.9777533","source_code":"HR1584857820200709","project_name":"","survey_name":"\u6c37\u898b\u30d0\u30a4\u30d1\u30b9\u571f\u8cea\u8abf\u67fb\u53ca\u3073\u89e3\u6790\u696d\u52d9\u59d4\u8a17","client_name":"\u5efa\u8a2d\u7701\u5317\u9678\u5730\u65b9\u5efa\u8a2d\u5c40\u5bcc\u5c71\u5de5\u4e8b\u4e8b\u52d9\u6240","boring_xml_url":45,"boring_view_url":1,"soilmap_view_url":null,"soiltest_xml_url":48,"soiltest_view_url":48},{"id":159680,"code":"B4KJ201801004-7929","latitude":"36.89022889","longitude":"137.5054275","source_code":"HR1584857820200707","project_name":"","survey_name":"\u4e0d\u660e","client_name":"\u5efa\u8a2d\u7701\u5317\u9678\u5730\u65b9\u5efa\u8a2d\u5c40\u9ed2\u90e8\u5de5\u4e8b\u4e8b\u52d9\u6240","boring_xml_url":45,"boring_view_url":1,"soilmap_view_url":null,"soiltest_xml_url":0,"soiltest_view_url":0},{"id":159679,"code":"B4KJ201801004-7928","latitude":"36.90098278","longitude":"137.4835372","source_code":"HR1584857820200705","project_name":"","survey_name":"\u4e0d\u660e","client_name":"\u5efa\u8a2d\u7701\u5317\u9678\u5730\u65b9\u5efa\u8a2d\u5c40\u9ed2\u90e8\u5de5\u4e8b\u4e8b\u52d9\u6240","boring_xml_url":45,"boring_view_url":1,"soilmap_view_url":null,"soiltest_xml_url":0,"soiltest_view_url":0},{"id":159678,"code":"B4KJ201801004-7927","latitude":"36.89825167","longitude":"137.4593756","source_code":"HR1584857820200704","project_name":"","survey_name":"\u4e0d\u660e","client_name":"\u5efa\u8a2d\u7701\u5317\u9678\u5730\u65b9\u5efa\u8a2d\u5c40\u9ed2\u90e8\u5de5\u4e8b\u4e8b\u52d9\u6240","boring_xml_url":45,"boring_view_url":1,"soilmap_view_url":null,"soiltest_xml_url":0,"soiltest_view_url":0},{"id":159677,"code":"B4KJ201801004-7926","latitude":"36.89207639","longitude":"137.4184156","source_code":"HR1584857820200702","project_name":"","survey_name":"\u751f\u5730\u6f01\u6e2f\u4fee\u7bc9\u5de5\u4e8b\u5185\u6e2f\u8abf\u67fb","client_name":"\u5efa\u8a2d\u7701\u5317\u9678\u5730\u65b9\u5efa\u8a2d\u5c40\u9ed2\u90e8\u5de5\u4e8b\u4e8b\u52d9\u6240","boring_xml_url":45,"boring_view_url":1,"soilmap_view_url":null,"soiltest_xml_url":0,"soiltest_view_url":0},{"id":159676,"code":"B4KJ201801004-7925","latitude":"36.89343194","longitude":"137.4181544","source_code":"HR1584857820200701","project_name":"","survey_name":"\u751f\u5730\u6f01\u6e2f\u5cb8\u58c1\u5730\u76e4\u8abf\u67fb","client_name":"\u5efa\u8a2d\u7701\u5317\u9678\u5730\u65b9\u5efa\u8a2d\u5c40\u9ed2\u90e8\u5de5\u4e8b\u4e8b\u52d9\u6240","boring_xml_url":45,"boring_view_url":1,"soilmap_view_url":null,"soiltest_xml_url":0,"soiltest_view_url":0},{"id":159675,"code":"B4KJ201801004-7924","latitude":"36.89225694","longitude":"137.4168908","source_code":"HR1584857820200700","project_name":"","survey_name":"\u751f\u5730\u6f01\u6e2f\u5730\u8cea\u8abf\u67fb","client_name":"\u5efa\u8a2d\u7701\u5317\u9678\u5730\u65b9\u5efa\u8a2d\u5c40\u9ed2\u90e8\u5de5\u4e8b\u4e8b\u52d9\u6240","boring_xml_url":45,"boring_view_url":1,"soilmap_view_url":null,"soiltest_xml_url":0,"soiltest_view_url":0},{"id":159674,"code":"B4KJ201801004-7923","latitude":"36.89192917","longitude":"137.4149658","source_code":"HR1584857820200699","project_name":"","survey_name":"\u9ed2\u90e8\u6f01\u6e2f\u4fee\u7bc9\u4e8b\u696d\u5730\u8cea\u8abf\u67fb\u59d4\u8a17","client_name":"\u5efa\u8a2d\u7701\u5317\u9678\u5730\u65b9\u5efa\u8a2d\u5c40\u9ed2\u90e8\u5de5\u4e8b\u4e8b\u52d9\u6240","boring_xml_url":45,"boring_view_url":1,"soilmap_view_url":null,"soiltest_xml_url":0,"soiltest_view_url":0},{"id":159673,"code":"B4KJ201801004-7922","latitude":"36.95969639","longitude":"137.5295697","source_code":"HR1584857820200698","project_name":"","survey_name":"\u6625\u65e5\u5730\u5148\u5730\u8cea\u8abf\u67fb","client_name":"\u5efa\u8a2d\u7701\u5317\u9678\u5730\u65b9\u5efa\u8a2d\u5c40\u9ed2\u90e8\u5de5\u4e8b\u4e8b\u52d9\u6240","boring_xml_url":45,"boring_view_url":1,"soilmap_view_url":null,"soiltest_xml_url":0,"soiltest_view_url":0},{"id":159672,"code":"B4KJ201801004-7921","latitude":"36.95970194","longitude":"137.5296975","source_code":"HR1584857820200697","project_name":"","survey_name":"\u6625\u65e5\u5730\u5148\u5730\u8cea\u8abf\u67fb","client_name":"\u5efa\u8a2d\u7701\u5317\u9678\u5730\u65b9\u5efa\u8a2d\u5c40\u9ed2\u90e8\u5de5\u4e8b\u4e8b\u52d9\u6240","boring_xml_url":45,"boring_view_url":1,"soilmap_view_url":null,"soiltest_xml_url":0,"soiltest_view_url":0},{"id":159671,"code":"B4KJ201801004-7920","latitude":"36.95972139","longitude":"137.5298114","source_code":"HR1584857820200696","project_name":"","survey_name":"\u6625\u65e5\u5730\u5148\u5730\u8cea\u8abf\u67fb","client_name":"\u5efa\u8a2d\u7701\u5317\u9678\u5730\u65b9\u5efa\u8a2d\u5c40\u9ed2\u90e8\u5de5\u4e8b\u4e8b\u52d9\u6240","boring_xml_url":45,"boring_view_url":1,"soilmap_view_url":null,"soiltest_xml_url":0,"soiltest_view_url":0},{"id":159670,"code":"B4KJ201801004-7919","latitude":"36.95972694","longitude":"137.5299281","source_code":"HR1584857820200695","project_name":"","survey_name":"\u6625\u65e5\u5730\u5148\u5730\u8cea\u8abf\u67fb","client_name":"\u5efa\u8a2d\u7701\u5317\u9678\u5730\u65b9\u5efa\u8a2d\u5c40\u9ed2\u90e8\u5de5\u4e8b\u4e8b\u52d9\u6240","boring_xml_url":45,"boring_view_url":1,"soilmap_view_url":null,"soiltest_xml_url":0,"soiltest_view_url":0},{"id":159669,"code":"B4KJ201801004-7918","latitude":"36.95974083","longitude":"137.5301114","source_code":"HR1584857820200694","project_name":"","survey_name":"\u6625\u65e5\u5730\u5148\u5730\u8cea\u8abf\u67fb","client_name":"\u5efa\u8a2d\u7701\u5317\u9678\u5730\u65b9\u5efa\u8a2d\u5c40\u9ed2\u90e8\u5de5\u4e8b\u4e8b\u52d9\u6240","boring_xml_url":45,"boring_view_url":1,"soilmap_view_url":null,"soiltest_xml_url":0,"soiltest_view_url":0},{"id":159668,"code":"B4KJ201801004-7917","latitude":"36.95973806","longitude":"137.5300336","source_code":"HR1584857820200693","project_name":"","survey_name":"\u6625\u65e5\u5730\u5148\u5730\u8cea\u8abf\u67fb","client_name":"\u5efa\u8a2d\u7701\u5317\u9678\u5730\u65b9\u5efa\u8a2d\u5c40\u9ed2\u90e8\u5de5\u4e8b\u4e8b\u52d9\u6240","boring_xml_url":45,"boring_view_url":1,"soilmap_view_url":null,"soiltest_xml_url":0,"soiltest_view_url":0},{"id":159667,"code":"B4KJ201801004-7916","latitude":"36.9598075","longitude":"137.5295697","source_code":"HR1584857820200692","project_name":"","survey_name":"\u6625\u65e5\u5730\u5148\u5730\u8cea\u8abf\u67fb","client_name":"\u5efa\u8a2d\u7701\u5317\u9678\u5730\u65b9\u5efa\u8a2d\u5c40\u9ed2\u90e8\u5de5\u4e8b\u4e8b\u52d9\u6240","boring_xml_url":45,"boring_view_url":1,"soilmap_view_url":null,"soiltest_xml_url":0,"soiltest_view_url":0},{"id":159666,"code":"B4KJ201801004-7915","latitude":"36.95979083","longitude":"137.5297558","source_code":"HR1584857820200691","project_name":"","survey_name":"\u6625\u65e5\u5730\u5148\u5730\u8cea\u8abf\u67fb","client_name":"\u5efa\u8a2d\u7701\u5317\u9678\u5730\u65b9\u5efa\u8a2d\u5c40\u9ed2\u90e8\u5de5\u4e8b\u4e8b\u52d9\u6240","boring_xml_url":45,"boring_view_url":1,"soilmap_view_url":null,"soiltest_xml_url":0,"soiltest_view_url":0},{"id":159665,"code":"B4KJ201801004-7914","latitude":"36.95981028","longitude":"137.5299447","source_code":"HR1584857820200690","project_name":"","survey_name":"\u6625\u65e5\u5730\u5148\u5730\u8cea\u8abf\u67fb","client_name":"\u5efa\u8a2d\u7701\u5317\u9678\u5730\u65b9\u5efa\u8a2d\u5c40\u9ed2\u90e8\u5de5\u4e8b\u4e8b\u52d9\u6240","boring_xml_url":45,"boring_view_url":1,"soilmap_view_url":null,"soiltest_xml_url":0,"soiltest_view_url":0},{"id":159664,"code":"B4KJ201801004-7913","latitude":"36.95845167","longitude":"137.5132325","source_code":"HR1584857820200689","project_name":"","survey_name":"\u4e0b\u65b0\u5ddd\u6d77\u5cb8\u8a66\u9310\u53ca\u3073\u5730\u8cea\u8abf\u67fb\u4f5c\u696d","client_name":"\u5efa\u8a2d\u7701\u5317\u9678\u5730\u65b9\u5efa\u8a2d\u5c40\u9ed2\u90e8\u5de5\u4e8b\u4e8b\u52d9\u6240","boring_xml_url":45,"boring_view_url":1,"soilmap_view_url":null,"soiltest_xml_url":0,"soiltest_view_url":0},{"id":159663,"code":"B4KJ201801004-7912","latitude":"36.95825444","longitude":"137.5123214","source_code":"HR1584857820200686","project_name":"","survey_name":"\u4e0b\u65b0\u5ddd\u6d77\u5cb8\u8a66\u9310\u53ca\u3073\u5730\u8cea\u8abf\u67fb\u4f5c\u696d","client_name":"\u5efa\u8a2d\u7701\u5317\u9678\u5730\u65b9\u5efa\u8a2d\u5c40\u9ed2\u90e8\u5de5\u4e8b\u4e8b\u52d9\u6240","boring_xml_url":45,"boring_view_url":1,"soilmap_view_url":null,"soiltest_xml_url":0,"soiltest_view_url":0},{"id":159662,"code":"B4KJ201801004-7911","latitude":"36.92757028","longitude":"137.4423844","source_code":"HR1584857820200685","project_name":"","survey_name":"\u5e73\u5c64\u6a4b\u6539\u826f\u571f\u8cea\u8abf\u67fb","client_name":"\u5efa\u8a2d\u7701\u5317\u9678\u5730\u65b9\u5efa\u8a2d\u5c40\u9ed2\u90e8\u5de5\u4e8b\u4e8b\u52d9\u6240","boring_xml_url":45,"boring_view_url":1,"soilmap_view_url":null,"soiltest_xml_url":0,"soiltest_view_url":0},{"id":159661,"code":"B4KJ201801004-7910","latitude":"37.02583278","longitude":"138.2524867","source_code":"HR1584857820200670","project_name":"","survey_name":"\u4e0a\u8d8a\u5730\u533a\u5730\u76e4\u6c88\u4e0b\u73fe\u6cc1\u89e3\u6790\u696d\u52d9\u59d4\u8a17","client_name":"\u5efa\u8a2d\u7701\u5317\u9678\u5730\u65b9\u5efa\u8a2d\u5c40\u9ad8\u7530\u5de5\u4e8b\u4e8b\u52d9\u6240","boring_xml_url":45,"boring_view_url":1,"soilmap_view_url":null,"soiltest_xml_url":0,"soiltest_view_url":0},{"id":159660,"code":"B4KJ201801004-7909","latitude":"37.01650861","longitude":"138.2383272","source_code":"HR1584857820200669","project_name":"","survey_name":"\u571f\u6728\u7814\u7a76\u6240\u65b0\u6f5f\u5730\u3059\u3079\u308a\u7814\u7a76\u6240\u6577\u5730\u5730\u76e4\u8abf\u67fb","client_name":"\u5efa\u8a2d\u7701\u5317\u9678\u5730\u65b9\u5efa\u8a2d\u5c40\u65b0\u6f5f\u55b6\u7e55\u5de5\u4e8b\u4e8b\u52d9\u6240","boring_xml_url":45,"boring_view_url":1,"soilmap_view_url":null,"soiltest_xml_url":0,"soiltest_view_url":0},{"id":159659,"code":"B4KJ201801004-7908","latitude":"37.01671972","longitude":"138.2382217","source_code":"HR1584857820200668","project_name":"","survey_name":"\u571f\u6728\u7814\u7a76\u6240\u65b0\u6f5f\u5730\u3059\u3079\u308a\u7814\u7a76\u6240\u6577\u5730\u5730\u76e4\u8abf\u67fb","client_name":"\u5efa\u8a2d\u7701\u5317\u9678\u5730\u65b9\u5efa\u8a2d\u5c40\u65b0\u6f5f\u55b6\u7e55\u5de5\u4e8b\u4e8b\u52d9\u6240","boring_xml_url":45,"boring_view_url":1,"soilmap_view_url":null,"soiltest_xml_url":0,"soiltest_view_url":0},{"id":159658,"code":"B4KJ201801004-7907","latitude":"37.10014444","longitude":"138.2780981","source_code":"HR1584857820200667","project_name":"","survey_name":"\u95a2\u5ddd\u30fb\u6adb\u6c60\u5730\u8cea\u8abf\u67fb\u4f5c\u696d","client_name":"\u5efa\u8a2d\u7701\u5317\u9678\u5730\u65b9\u5efa\u8a2d\u5c40\u9ad8\u7530\u5de5\u4e8b\u4e8b\u52d9\u6240","boring_xml_url":45,"boring_view_url":1,"soilmap_view_url":null,"soiltest_xml_url":0,"soiltest_view_url":0},{"id":159657,"code":"B4KJ201801004-7906","latitude":"37.10033889","longitude":"138.2782008","source_code":"HR1584857820200666","project_name":"","survey_name":"\u95a2\u5ddd\u30fb\u6adb\u6c60\u5730\u8cea\u8abf\u67fb\u4f5c\u696d","client_name":"\u5efa\u8a2d\u7701\u5317\u9678\u5730\u65b9\u5efa\u8a2d\u5c40\u9ad8\u7530\u5de5\u4e8b\u4e8b\u52d9\u6240","boring_xml_url":45,"boring_view_url":1,"soilmap_view_url":null,"soiltest_xml_url":0,"soiltest_view_url":0},{"id":159656,"code":"B4KJ201801004-7905","latitude":"37.09883861","longitude":"138.2675544","source_code":"HR1584857820200665","project_name":"","survey_name":"\u95a2\u5ddd\u6a4b\u5730\u8cea\u8abf\u67fb\u4f5c\u696d","client_name":"\u5efa\u8a2d\u7701\u5317\u9678\u5730\u65b9\u5efa\u8a2d\u5c40\u9ad8\u7530\u5de5\u4e8b\u4e8b\u52d9\u6240","boring_xml_url":45,"boring_view_url":1,"soilmap_view_url":null,"soiltest_xml_url":0,"soiltest_view_url":0}]}}