{"header":{"xyz":{"source":[],"mosaic":false},"page":5365,"raw":{"soiltest_result":"0","bbox":"57.598333,109.544722,1.933333,163.806111","page":"5365"},"conditions":{"soiltest_result":0,"north":57.598333,"west":109.544722,"south":1.933333,"east":163.806111},"success":true,"message":""},"data":{"meta":{"total":212844,"page":5365,"pages":7095,"count":30},"values":[{"id":159625,"code":"B4KJ201801004-7874","latitude":"37.14053917","longitude":"138.260145","source_code":"HR1584857820200631","project_name":"","survey_name":"\u5e02\u7acb\u5bcc\u5ca1\u5c0f\u5b66\u6821\u6539\u7bc9\u306b\u4f34\u3046\u5730\u8cea\u8abf\u67fb","client_name":"\u5efa\u8a2d\u7701\u5317\u9678\u5730\u65b9\u5efa\u8a2d\u5c40\u9ad8\u7530\u5de5\u4e8b\u4e8b\u52d9\u6240","boring_xml_url":45,"boring_view_url":1,"soilmap_view_url":null,"soiltest_xml_url":0,"soiltest_view_url":0},{"id":159624,"code":"B4KJ201801004-7873","latitude":"37.16665667","longitude":"138.2998433","source_code":"HR1584857820200630","project_name":"","survey_name":"\u4e0a\u8d8a\u5730\u533a\u5730\u76e4\u6c88\u4e0b\u73fe\u6cc1\u89e3\u6790\u696d\u52d9\u59d4\u8a17","client_name":"\u5efa\u8a2d\u7701\u5317\u9678\u5730\u65b9\u5efa\u8a2d\u5c40\u9ad8\u7530\u5de5\u4e8b\u4e8b\u52d9\u6240","boring_xml_url":45,"boring_view_url":1,"soilmap_view_url":null,"soiltest_xml_url":0,"soiltest_view_url":0},{"id":159623,"code":"B4KJ201801004-7872","latitude":"37.16659556","longitude":"138.2996878","source_code":"HR1584857820200629","project_name":"","survey_name":"\u4e0a\u8d8a\u5730\u533a\u5730\u76e4\u6c88\u4e0b\u73fe\u6cc1\u89e3\u6790\u696d\u52d9\u59d4\u8a17","client_name":"\u5efa\u8a2d\u7701\u5317\u9678\u5730\u65b9\u5efa\u8a2d\u5c40\u9ad8\u7530\u5de5\u4e8b\u4e8b\u52d9\u6240","boring_xml_url":45,"boring_view_url":1,"soilmap_view_url":null,"soiltest_xml_url":0,"soiltest_view_url":0},{"id":159622,"code":"B4KJ201801004-7871","latitude":"37.16674556","longitude":"138.2996544","source_code":"HR1584857820200628","project_name":"","survey_name":"\u4e0a\u8d8a\u5730\u533a\u5730\u76e4\u6c88\u4e0b\u73fe\u6cc1\u89e3\u6790\u696d\u52d9\u59d4\u8a17","client_name":"\u5efa\u8a2d\u7701\u5317\u9678\u5730\u65b9\u5efa\u8a2d\u5c40\u9ad8\u7530\u5de5\u4e8b\u4e8b\u52d9\u6240","boring_xml_url":45,"boring_view_url":1,"soilmap_view_url":null,"soiltest_xml_url":0,"soiltest_view_url":0},{"id":159621,"code":"B4KJ201801004-7870","latitude":"37.16801472","longitude":"138.2892303","source_code":"HR1584857820200627","project_name":"","survey_name":"\u76f4\u6c5f\u6d25\u30d0\u30a4\u30d1\u30b9\u571f\u8cea\u8abf\u67fb","client_name":"\u5efa\u8a2d\u7701\u5317\u9678\u5730\u65b9\u5efa\u8a2d\u5c40\u9ad8\u7530\u5de5\u4e8b\u4e8b\u52d9\u6240","boring_xml_url":45,"boring_view_url":1,"soilmap_view_url":null,"soiltest_xml_url":48,"soiltest_view_url":48},{"id":159620,"code":"B4KJ201801004-7869","latitude":"37.16720056","longitude":"138.2833892","source_code":"HR1584857820200626","project_name":"","survey_name":"\u4e0a\u8d8a\u5730\u533a\u5730\u76e4\u6c88\u4e0b\u73fe\u6cc1\u89e3\u6790\u696d\u52d9\u59d4\u8a17","client_name":"\u5efa\u8a2d\u7701\u5317\u9678\u5730\u65b9\u5efa\u8a2d\u5c40\u9ad8\u7530\u5de5\u4e8b\u4e8b\u52d9\u6240","boring_xml_url":45,"boring_view_url":1,"soilmap_view_url":null,"soiltest_xml_url":0,"soiltest_view_url":0},{"id":159619,"code":"B4KJ201801004-7868","latitude":"37.16691417","longitude":"138.2723764","source_code":"HR1584857820200625","project_name":"","survey_name":"\u76f4\u6c5f\u6d25\u30d0\u30a4\u30d1\u30b9\u571f\u8cea\u8abf\u67fb","client_name":"\u5efa\u8a2d\u7701\u5317\u9678\u5730\u65b9\u5efa\u8a2d\u5c40\u9ad8\u7530\u5de5\u4e8b\u4e8b\u52d9\u6240","boring_xml_url":45,"boring_view_url":1,"soilmap_view_url":null,"soiltest_xml_url":48,"soiltest_view_url":48},{"id":159618,"code":"B4KJ201801004-7867","latitude":"37.16711944","longitude":"138.2614494","source_code":"HR1584857820200624","project_name":"","survey_name":"\u76f4\u6c5f\u6d25\u30d0\u30a4\u30d1\u30b9\u571f\u8cea\u8abf\u67fb","client_name":"\u5efa\u8a2d\u7701\u5317\u9678\u5730\u65b9\u5efa\u8a2d\u5c40\u9ad8\u7530\u5de5\u4e8b\u4e8b\u52d9\u6240","boring_xml_url":45,"boring_view_url":1,"soilmap_view_url":null,"soiltest_xml_url":48,"soiltest_view_url":48},{"id":159617,"code":"B4KJ201801004-7866","latitude":"37.16704444","longitude":"138.26128","source_code":"HR1584857820200623","project_name":"","survey_name":"\u4e09\u30c4\u5c4b\u8de8\u7dda\u6a4b\u6238\u91ce\u76ee\u5ddd\u6a4b\u5730\u8cea\u8abf\u67fb","client_name":"\u5efa\u8a2d\u7701\u5317\u9678\u5730\u65b9\u5efa\u8a2d\u5c40\u9ad8\u7530\u5de5\u4e8b\u4e8b\u52d9\u6240","boring_xml_url":45,"boring_view_url":1,"soilmap_view_url":null,"soiltest_xml_url":0,"soiltest_view_url":0},{"id":159616,"code":"B4KJ201801004-7865","latitude":"37.16701111","longitude":"138.261155","source_code":"HR1584857820200622","project_name":"","survey_name":"\u76f4\u6c5f\u6d25\u30d0\u30a4\u30d1\u30b9\u571f\u8cea\u8abf\u67fb","client_name":"\u5efa\u8a2d\u7701\u5317\u9678\u5730\u65b9\u5efa\u8a2d\u5c40\u9ad8\u7530\u5de5\u4e8b\u4e8b\u52d9\u6240","boring_xml_url":45,"boring_view_url":1,"soilmap_view_url":null,"soiltest_xml_url":48,"soiltest_view_url":48},{"id":159615,"code":"B4KJ201801004-7864","latitude":"37.16916917","longitude":"138.2585858","source_code":"HR1584857820200621","project_name":"","survey_name":"\u4e0a\u8d8a\u5e02\u7acb\u6771\u4e2d\u5b66\u6821\u65b0\u7bc9\u306b\u4f34\u3046\u5730\u8cea\u8abf\u67fb","client_name":"\u5efa\u8a2d\u7701\u5317\u9678\u5730\u65b9\u5efa\u8a2d\u5c40\u9ad8\u7530\u5de5\u4e8b\u4e8b\u52d9\u6240","boring_xml_url":45,"boring_view_url":1,"soilmap_view_url":null,"soiltest_xml_url":48,"soiltest_view_url":48},{"id":159614,"code":"B4KJ201801004-7863","latitude":"37.16888583","longitude":"138.2579164","source_code":"HR1584857820200620","project_name":"","survey_name":"\u4e0a\u8d8a\u5e02\u7acb\u6771\u4e2d\u5b66\u6821\u65b0\u7bc9\u306b\u4f34\u3046\u5730\u8cea\u8abf\u67fb","client_name":"\u5efa\u8a2d\u7701\u5317\u9678\u5730\u65b9\u5efa\u8a2d\u5c40\u9ad8\u7530\u5de5\u4e8b\u4e8b\u52d9\u6240","boring_xml_url":45,"boring_view_url":1,"soilmap_view_url":null,"soiltest_xml_url":48,"soiltest_view_url":48},{"id":159613,"code":"B4KJ201801004-7862","latitude":"37.16926639","longitude":"138.2579136","source_code":"HR1584857820200619","project_name":"","survey_name":"\u4e0a\u8d8a\u5e02\u7acb\u6771\u4e2d\u5b66\u6821\u65b0\u7bc9\u306b\u4f34\u3046\u5730\u8cea\u8abf\u67fb","client_name":"\u5efa\u8a2d\u7701\u5317\u9678\u5730\u65b9\u5efa\u8a2d\u5c40\u9ad8\u7530\u5de5\u4e8b\u4e8b\u52d9\u6240","boring_xml_url":45,"boring_view_url":1,"soilmap_view_url":null,"soiltest_xml_url":48,"soiltest_view_url":48},{"id":159612,"code":"B4KJ201801004-7861","latitude":"37.09966028","longitude":"138.2448869","source_code":"HR1584857820200618","project_name":"","survey_name":"\u4e0a\u8d8a\u5730\u533a\u5730\u76e4\u6c88\u4e0b\u73fe\u6cc1\u89e3\u6790\u696d\u52d9\u59d4\u8a17","client_name":"\u5efa\u8a2d\u7701\u5317\u9678\u5730\u65b9\u5efa\u8a2d\u5c40\u9ad8\u7530\u5de5\u4e8b\u4e8b\u52d9\u6240","boring_xml_url":45,"boring_view_url":1,"soilmap_view_url":null,"soiltest_xml_url":0,"soiltest_view_url":0},{"id":159611,"code":"B4KJ201801004-7860","latitude":"37.09936306","longitude":"138.2442011","source_code":"HR1584857820200617","project_name":"","survey_name":"\u8fb2\u6797\u7701\u65b0\u6f5f\u7d71\u8a08\u4e8b\u52d9\u6240\u9ad8\u7530\u51fa\u5f35\u6240","client_name":"\u5efa\u8a2d\u7701\u5317\u9678\u5730\u65b9\u5efa\u8a2d\u5c40\u65b0\u6f5f\u55b6\u7e55\u5de5\u4e8b\u4e8b\u52d9\u6240","boring_xml_url":45,"boring_view_url":1,"soilmap_view_url":null,"soiltest_xml_url":0,"soiltest_view_url":0},{"id":159610,"code":"B4KJ201801004-7859","latitude":"37.09974639","longitude":"138.2444706","source_code":"HR1584857820200616","project_name":"","survey_name":"\u8fb2\u6797\u7701\u65b0\u6f5f\u7d71\u8a08\u4e8b\u52d9\u6240\u9ad8\u7530\u51fa\u5f35\u6240","client_name":"\u5efa\u8a2d\u7701\u5317\u9678\u5730\u65b9\u5efa\u8a2d\u5c40\u65b0\u6f5f\u55b6\u7e55\u5de5\u4e8b\u4e8b\u52d9\u6240","boring_xml_url":45,"boring_view_url":1,"soilmap_view_url":null,"soiltest_xml_url":0,"soiltest_view_url":0},{"id":159609,"code":"B4KJ201801004-7858","latitude":"37.09983528","longitude":"138.2438817","source_code":"HR1584857820200615","project_name":"","survey_name":"\u8fb2\u6797\u7701\u65b0\u6f5f\u7d71\u8a08\u4e8b\u52d9\u6240\u9ad8\u7530\u51fa\u5f35\u6240","client_name":"\u5efa\u8a2d\u7701\u5317\u9678\u5730\u65b9\u5efa\u8a2d\u5c40\u65b0\u6f5f\u55b6\u7e55\u5de5\u4e8b\u4e8b\u52d9\u6240","boring_xml_url":45,"boring_view_url":1,"soilmap_view_url":null,"soiltest_xml_url":0,"soiltest_view_url":0},{"id":159608,"code":"B4KJ201801004-7857","latitude":"37.10037389","longitude":"138.2379183","source_code":"HR1584857820200614","project_name":"","survey_name":"\u4e0a\u8d8a\u5730\u533a\u5730\u76e4\u6c88\u4e0b\u73fe\u6cc1\u89e3\u6790\u696d\u52d9\u59d4\u8a17","client_name":"\u5efa\u8a2d\u7701\u5317\u9678\u5730\u65b9\u5efa\u8a2d\u5c40\u9ad8\u7530\u5de5\u4e8b\u4e8b\u52d9\u6240","boring_xml_url":45,"boring_view_url":1,"soilmap_view_url":null,"soiltest_xml_url":0,"soiltest_view_url":0},{"id":159607,"code":"B4KJ201801004-7856","latitude":"37.10568444","longitude":"138.24642","source_code":"HR1584857820200613","project_name":"","survey_name":"\u4e0a\u8d8a\u5730\u533a\u5730\u76e4\u6c88\u4e0b\u73fe\u6cc1\u89e3\u6790\u696d\u52d9\u59d4\u8a17","client_name":"\u5efa\u8a2d\u7701\u5317\u9678\u5730\u65b9\u5efa\u8a2d\u5c40\u9ad8\u7530\u5de5\u4e8b\u4e8b\u52d9\u6240","boring_xml_url":45,"boring_view_url":1,"soilmap_view_url":null,"soiltest_xml_url":0,"soiltest_view_url":0},{"id":159606,"code":"B4KJ201801004-7855","latitude":"37.10455667","longitude":"138.23944","source_code":"HR1584857820200612","project_name":"","survey_name":"\u4e0a\u8d8a\u5730\u533a\u5730\u76e4\u6c88\u4e0b\u73fe\u6cc1\u89e3\u6790\u696d\u52d9\u59d4\u8a17","client_name":"\u5efa\u8a2d\u7701\u5317\u9678\u5730\u65b9\u5efa\u8a2d\u5c40\u9ad8\u7530\u5de5\u4e8b\u4e8b\u52d9\u6240","boring_xml_url":45,"boring_view_url":1,"soilmap_view_url":null,"soiltest_xml_url":0,"soiltest_view_url":0},{"id":159605,"code":"B4KJ201801004-7854","latitude":"37.11475861","longitude":"138.2463975","source_code":"HR1584857820200611","project_name":"","survey_name":"\u4e0a\u8d8a\u5730\u533a\u5730\u76e4\u6c88\u4e0b\u73fe\u6cc1\u89e3\u6790\u696d\u52d9\u59d4\u8a17","client_name":"\u5efa\u8a2d\u7701\u5317\u9678\u5730\u65b9\u5efa\u8a2d\u5c40\u9ad8\u7530\u5de5\u4e8b\u4e8b\u52d9\u6240","boring_xml_url":45,"boring_view_url":1,"soilmap_view_url":null,"soiltest_xml_url":0,"soiltest_view_url":0},{"id":159604,"code":"B4KJ201801004-7853","latitude":"37.11958278","longitude":"138.2427725","source_code":"HR1584857820200610","project_name":"","survey_name":"\u4e0a\u8d8a\u5730\u533a\u5730\u76e4\u6c88\u4e0b\u73fe\u6cc1\u89e3\u6790\u696d\u52d9\u59d4\u8a17","client_name":"\u5efa\u8a2d\u7701\u5317\u9678\u5730\u65b9\u5efa\u8a2d\u5c40\u9ad8\u7530\u5de5\u4e8b\u4e8b\u52d9\u6240","boring_xml_url":45,"boring_view_url":1,"soilmap_view_url":null,"soiltest_xml_url":0,"soiltest_view_url":0},{"id":159603,"code":"B4KJ201801004-7852","latitude":"37.12378778","longitude":"138.2399197","source_code":"HR1584857820200609","project_name":"","survey_name":"\u4e0a\u8d8a\u5730\u533a\u5730\u76e4\u6c88\u4e0b\u73fe\u6cc1\u89e3\u6790\u696d\u52d9\u59d4\u8a17","client_name":"\u5efa\u8a2d\u7701\u5317\u9678\u5730\u65b9\u5efa\u8a2d\u5c40\u9ad8\u7530\u5de5\u4e8b\u4e8b\u52d9\u6240","boring_xml_url":45,"boring_view_url":1,"soilmap_view_url":null,"soiltest_xml_url":0,"soiltest_view_url":0},{"id":159602,"code":"B4KJ201801004-7851","latitude":"37.12377111","longitude":"138.2397808","source_code":"HR1584857820200608","project_name":"","survey_name":"\u4e0a\u8d8a\u5730\u533a\u5730\u76e4\u6c88\u4e0b\u73fe\u6cc1\u89e3\u6790\u696d\u52d9\u59d4\u8a17","client_name":"\u5efa\u8a2d\u7701\u5317\u9678\u5730\u65b9\u5efa\u8a2d\u5c40\u9ad8\u7530\u5de5\u4e8b\u4e8b\u52d9\u6240","boring_xml_url":45,"boring_view_url":1,"soilmap_view_url":null,"soiltest_xml_url":0,"soiltest_view_url":0},{"id":159601,"code":"B4KJ201801004-7850","latitude":"37.12326806","longitude":"138.2272653","source_code":"HR1584857820200607","project_name":"","survey_name":"\u4e0a\u8d8a\u5730\u533a\u5730\u76e4\u6c88\u4e0b\u73fe\u6cc1\u89e3\u6790\u696d\u52d9\u59d4\u8a17","client_name":"\u5efa\u8a2d\u7701\u5317\u9678\u5730\u65b9\u5efa\u8a2d\u5c40\u9ad8\u7530\u5de5\u4e8b\u4e8b\u52d9\u6240","boring_xml_url":45,"boring_view_url":1,"soilmap_view_url":null,"soiltest_xml_url":0,"soiltest_view_url":0},{"id":159600,"code":"B4KJ201801004-7849","latitude":"37.13661694","longitude":"138.2418247","source_code":"HR1584857820200606","project_name":"","survey_name":"\u4e0a\u8d8a\u5730\u533a\u5730\u76e4\u6c88\u4e0b\u73fe\u6cc1\u89e3\u6790\u696d\u52d9\u59d4\u8a17","client_name":"\u5efa\u8a2d\u7701\u5317\u9678\u5730\u65b9\u5efa\u8a2d\u5c40\u9ad8\u7530\u5de5\u4e8b\u4e8b\u52d9\u6240","boring_xml_url":45,"boring_view_url":1,"soilmap_view_url":null,"soiltest_xml_url":0,"soiltest_view_url":0},{"id":159599,"code":"B4KJ201801004-7848","latitude":"37.13675861","longitude":"138.2419442","source_code":"HR1584857820200605","project_name":"","survey_name":"\u4e0a\u8d8a\u5730\u533a\u5730\u76e4\u6c88\u4e0b\u73fe\u6cc1\u89e3\u6790\u696d\u52d9\u59d4\u8a17","client_name":"\u5efa\u8a2d\u7701\u5317\u9678\u5730\u65b9\u5efa\u8a2d\u5c40\u9ad8\u7530\u5de5\u4e8b\u4e8b\u52d9\u6240","boring_xml_url":45,"boring_view_url":1,"soilmap_view_url":null,"soiltest_xml_url":0,"soiltest_view_url":0},{"id":159598,"code":"B4KJ201801004-7847","latitude":"37.1367225","longitude":"138.2417414","source_code":"HR1584857820200604","project_name":"","survey_name":"\u4e0a\u8d8a\u5730\u533a\u5730\u76e4\u6c88\u4e0b\u73fe\u6cc1\u89e3\u6790\u696d\u52d9\u59d4\u8a17","client_name":"\u5efa\u8a2d\u7701\u5317\u9678\u5730\u65b9\u5efa\u8a2d\u5c40\u9ad8\u7530\u5de5\u4e8b\u4e8b\u52d9\u6240","boring_xml_url":45,"boring_view_url":1,"soilmap_view_url":null,"soiltest_xml_url":0,"soiltest_view_url":0},{"id":159597,"code":"B4KJ201801004-7846","latitude":"37.13938333","longitude":"138.2391331","source_code":"HR1584857820200603","project_name":"","survey_name":"\u4e0a\u8d8a\u79c1\u7acb\u9ad8\u5fd7\u5c0f\u5b66\u6821\u6539\u7bc9\u306b\u4f34\u3046\u5730\u8cea\u8abf\u67fb","client_name":"\u5efa\u8a2d\u7701\u5317\u9678\u5730\u65b9\u5efa\u8a2d\u5c40\u9ad8\u7530\u5de5\u4e8b\u4e8b\u52d9\u6240","boring_xml_url":45,"boring_view_url":1,"soilmap_view_url":null,"soiltest_xml_url":0,"soiltest_view_url":0},{"id":159596,"code":"B4KJ201801004-7845","latitude":"37.13943056","longitude":"138.2387192","source_code":"HR1584857820200602","project_name":"","survey_name":"\u4e0a\u8d8a\u5e02\u7acb\u9ad8\u5fd7\u5c0f\u5b66\u6821\u6539\u7bc9\u306b\u4f34\u3046\u5730\u8cea\u8abf\u67fb","client_name":"\u5efa\u8a2d\u7701\u5317\u9678\u5730\u65b9\u5efa\u8a2d\u5c40\u9ad8\u7530\u5de5\u4e8b\u4e8b\u52d9\u6240","boring_xml_url":45,"boring_view_url":1,"soilmap_view_url":null,"soiltest_xml_url":48,"soiltest_view_url":48}]}}