{"header":{"xyz":{"source":[],"mosaic":false},"page":5368,"raw":{"soiltest_result":"0","bbox":"57.598333,109.544722,1.933333,163.806111","page":"5368"},"conditions":{"soiltest_result":0,"north":57.598333,"west":109.544722,"south":1.933333,"east":163.806111},"success":true,"message":""},"data":{"meta":{"total":212844,"page":5368,"pages":7095,"count":30},"values":[{"id":159535,"code":"B4KJ201801004-7784","latitude":"37.1812175","longitude":"138.2504775","source_code":"HR1584857820200533","project_name":"","survey_name":"\u76f4\u6c5f\u6d25\u6e2f\u6e7e\u5408\u540c\u5e81\u820e\u65b0\u7bc9\u6577\u5730\u571f\u8cea\u8abf\u67fb","client_name":"\u5efa\u8a2d\u7701\u5317\u9678\u5730\u65b9\u5efa\u8a2d\u5c40\u65b0\u6f5f\u55b6\u7e55\u5de5\u4e8b\u4e8b\u52d9\u6240","boring_xml_url":45,"boring_view_url":1,"soilmap_view_url":null,"soiltest_xml_url":48,"soiltest_view_url":48},{"id":159534,"code":"B4KJ201801004-7783","latitude":"37.18270139","longitude":"138.2764781","source_code":"HR1584857820200532","project_name":"","survey_name":"\u4e0a\u8d8a\u5730\u533a\u5730\u76e4\u6c88\u4e0b\u73fe\u6cc1\u89e3\u6790\u696d\u52d9\u59d4\u8a17","client_name":"\u5efa\u8a2d\u7701\u5317\u9678\u5730\u65b9\u5efa\u8a2d\u5c40\u9ad8\u7530\u5de5\u4e8b\u4e8b\u52d9\u6240","boring_xml_url":45,"boring_view_url":1,"soilmap_view_url":null,"soiltest_xml_url":0,"soiltest_view_url":0},{"id":159533,"code":"B4KJ201801004-7782","latitude":"37.18418444","longitude":"138.2715283","source_code":"HR1584857820200531","project_name":"","survey_name":"\u76f4\u6c5f\u6d25\u30d0\u30a4\u30d1\u30b9\u571f\u8cea\u8abf\u67fb","client_name":"\u5efa\u8a2d\u7701\u5317\u9678\u5730\u65b9\u5efa\u8a2d\u5c40\u9ad8\u7530\u5de5\u4e8b\u4e8b\u52d9\u6240","boring_xml_url":45,"boring_view_url":1,"soilmap_view_url":null,"soiltest_xml_url":48,"soiltest_view_url":48},{"id":159532,"code":"B4KJ201801004-7781","latitude":"37.19174528","longitude":"138.2946344","source_code":"HR1584857820200530","project_name":"","survey_name":"\u76f4\u6c5f\u6d25\u30d0\u30a4\u30d1\u30b9\u571f\u8cea\u8abf\u67fb","client_name":"\u5efa\u8a2d\u7701\u5317\u9678\u5730\u65b9\u5efa\u8a2d\u5c40\u9ad8\u7530\u5de5\u4e8b\u4e8b\u52d9\u6240","boring_xml_url":45,"boring_view_url":1,"soilmap_view_url":null,"soiltest_xml_url":48,"soiltest_view_url":48},{"id":159531,"code":"B4KJ201801004-7780","latitude":"37.20717694","longitude":"138.2999917","source_code":"HR1584857820200528","project_name":"","survey_name":"\u76f4\u6c5f\u6d25\u30d0\u30a4\u30d1\u30b9\u571f\u8cea\u8abf\u67fb","client_name":"\u5efa\u8a2d\u7701\u5317\u9678\u5730\u65b9\u5efa\u8a2d\u5c40\u9ad8\u7530\u5de5\u4e8b\u4e8b\u52d9\u6240","boring_xml_url":45,"boring_view_url":1,"soilmap_view_url":null,"soiltest_xml_url":0,"soiltest_view_url":0},{"id":159530,"code":"B4KJ201801004-7779","latitude":"37.16997667","longitude":"138.2287939","source_code":"HR1584857820200527","project_name":"","survey_name":"\u4e0a\u8d8a\u5730\u533a\u5730\u76e4\u6c88\u4e0b\u73fe\u6cc1\u89e3\u6790\u696d\u52d9\u59d4\u8a17\u4e0a\u8d8a\u306e\u6c34\u8cea\u6e90\u7b2c2\u8f2f","client_name":"\u5efa\u8a2d\u7701\u5317\u9678\u5730\u65b9\u5efa\u8a2d\u5c40\u9ad8\u7530\u5de5\u4e8b\u4e8b\u52d9\u6240","boring_xml_url":45,"boring_view_url":1,"soilmap_view_url":null,"soiltest_xml_url":0,"soiltest_view_url":0},{"id":159529,"code":"B4KJ201801004-7778","latitude":"37.17026833","longitude":"138.23401","source_code":"HR1584857820200526","project_name":"","survey_name":"\u4e0a\u8d8a\u5730\u533a\u5730\u76e4\u6c88\u4e0b\u73fe\u6cc1\u89e3\u6790\u696d\u52d9\u59d4\u8a17\u4e0a\u8d8a\u306e\u6c34\u8cea\u6e90\u7b2c2\u8f2f","client_name":"\u5efa\u8a2d\u7701\u5317\u9678\u5730\u65b9\u5efa\u8a2d\u5c40\u9ad8\u7530\u5de5\u4e8b\u4e8b\u52d9\u6240","boring_xml_url":45,"boring_view_url":1,"soilmap_view_url":null,"soiltest_xml_url":0,"soiltest_view_url":0},{"id":159528,"code":"B4KJ201801004-7777","latitude":"37.17036833","longitude":"138.233885","source_code":"HR1584857820200525","project_name":"","survey_name":"\u4e0a\u8d8a\u5730\u533a\u5730\u76e4\u6c88\u4e0b\u73fe\u6cc1\u89e3\u6790\u696d\u52d9\u59d4\u8a17\u4e0a\u8d8a\u306e\u6c34\u8cea\u6e90\u7b2c2\u8f2f","client_name":"\u5efa\u8a2d\u7701\u5317\u9678\u5730\u65b9\u5efa\u8a2d\u5c40\u9ad8\u7530\u5de5\u4e8b\u4e8b\u52d9\u6240","boring_xml_url":45,"boring_view_url":1,"soilmap_view_url":null,"soiltest_xml_url":0,"soiltest_view_url":0},{"id":159527,"code":"B4KJ201801004-7776","latitude":"37.36005222","longitude":"138.5496494","source_code":"HR1584857820200524","project_name":"","survey_name":"\u9d5c\u5ddd\u6a4b\u62e1\u5dfe\u8a2d\u8a08\u696d\u52d9\u59d4\u8a17\u5de5\u4e8b","client_name":"\u5efa\u8a2d\u7701\u5317\u9678\u5730\u65b9\u5efa\u8a2d\u5c40\u4e0a\u8d8a\u56fd\u9053\u5de5\u4e8b\u4e8b\u52d9\u6240","boring_xml_url":45,"boring_view_url":1,"soilmap_view_url":null,"soiltest_xml_url":0,"soiltest_view_url":0},{"id":159526,"code":"B4KJ201801004-7775","latitude":"37.44647806","longitude":"138.6389294","source_code":"HR1584857820200520","project_name":"","survey_name":"\u548c\u7530\u6a4b\u8a2d\u8a08\u696d\u52d9\u59d4\u8a17","client_name":"\u5efa\u8a2d\u7701\u5317\u9678\u5730\u65b9\u5efa\u8a2d\u5c40\u4e0a\u8d8a\u56fd\u9053\u5de5\u4e8b\u4e8b\u52d9\u6240","boring_xml_url":45,"boring_view_url":1,"soilmap_view_url":null,"soiltest_xml_url":0,"soiltest_view_url":0},{"id":159525,"code":"B4KJ201801004-7774","latitude":"37.45175","longitude":"138.6597303","source_code":"HR1584857820200519","project_name":"","survey_name":"\u897f\u5c71\u30fb\u51fa\u96f2\u5d0e\u5730\u533a\u5730\u8cea\u8abf\u67fb\u4f5c\u696d","client_name":"\u5efa\u8a2d\u7701\u5317\u9678\u5730\u65b9\u5efa\u8a2d\u5c40\u4e0a\u8d8a\u56fd\u9053\u5de5\u4e8b\u4e8b\u52d9\u6240","boring_xml_url":45,"boring_view_url":1,"soilmap_view_url":null,"soiltest_xml_url":48,"soiltest_view_url":48},{"id":159524,"code":"B4KJ201801004-7773","latitude":"37.45181389","longitude":"138.6538614","source_code":"HR1584857820200518","project_name":"","survey_name":"\u897f\u5c71\u30fb\u51fa\u96f2\u5d0e\u5730\u533a\u5730\u8cea\u8abf\u67fb\u4f5c\u696d","client_name":"\u5efa\u8a2d\u7701\u5317\u9678\u5730\u65b9\u5efa\u8a2d\u5c40\u4e0a\u8d8a\u56fd\u9053\u5de5\u4e8b\u4e8b\u52d9\u6240","boring_xml_url":45,"boring_view_url":1,"soilmap_view_url":null,"soiltest_xml_url":48,"soiltest_view_url":48},{"id":159523,"code":"B4KJ201801004-7772","latitude":"37.4546","longitude":"138.6670711","source_code":"HR1584857820200515","project_name":"","survey_name":"\u897f\u5c71\u30fb\u51fa\u96f2\u5d0e\u5730\u533a\u5730\u8cea\u8abf\u67fb\u4f5c\u696d","client_name":"\u5efa\u8a2d\u7701\u5317\u9678\u5730\u65b9\u5efa\u8a2d\u5c40\u4e0a\u8d8a\u56fd\u9053\u5de5\u4e8b\u4e8b\u52d9\u6240","boring_xml_url":45,"boring_view_url":1,"soilmap_view_url":null,"soiltest_xml_url":48,"soiltest_view_url":48},{"id":159522,"code":"B4KJ201801004-7771","latitude":"37.45395833","longitude":"138.66168","source_code":"HR1584857820200514","project_name":"","survey_name":"\u897f\u5c71\u9053\u8def(\u9ed2\u90e8\uff5e\u4e8c\u7530)\u5730\u8cea\u8abf\u67fb\u4f5c\u696d","client_name":"\u5efa\u8a2d\u7701\u5317\u9678\u5730\u65b9\u5efa\u8a2d\u5c40\u4e0a\u8d8a\u56fd\u9053\u5de5\u4e8b\u4e8b\u52d9\u6240","boring_xml_url":45,"boring_view_url":1,"soilmap_view_url":null,"soiltest_xml_url":48,"soiltest_view_url":48},{"id":159521,"code":"B4KJ201801004-7770","latitude":"37.45885806","longitude":"138.6741897","source_code":"HR1584857820200512","project_name":"","survey_name":"\u897f\u5c71\u30fb\u51fa\u96f2\u5d0e\u5730\u533a\u5730\u8cea\u8abf\u67fb\u4f5c\u696d","client_name":"\u5efa\u8a2d\u7701\u5317\u9678\u5730\u65b9\u5efa\u8a2d\u5c40\u4e0a\u8d8a\u56fd\u9053\u5de5\u4e8b\u4e8b\u52d9\u6240","boring_xml_url":45,"boring_view_url":1,"soilmap_view_url":null,"soiltest_xml_url":48,"soiltest_view_url":48},{"id":159520,"code":"B4KJ201801004-7769","latitude":"37.49508778","longitude":"138.6991278","source_code":"HR1584857820200511","project_name":"","survey_name":"\u897f\u5c71\u30fb\u51fa\u96f2\u5d0e\u5730\u533a\u5730\u8cea\u8abf\u67fb\u4f5c\u696d","client_name":"\u5efa\u8a2d\u7701\u5317\u9678\u5730\u65b9\u5efa\u8a2d\u5c40\u9577\u5ca1\u56fd\u9053\u5de5\u4e8b\u4e8b\u52d9\u6240","boring_xml_url":45,"boring_view_url":1,"soilmap_view_url":null,"soiltest_xml_url":48,"soiltest_view_url":48},{"id":159519,"code":"B4KJ201801004-7768","latitude":"37.48000611","longitude":"138.6901542","source_code":"HR1584857820200510","project_name":"","survey_name":"\u897f\u5c71\u30fb\u51fa\u96f2\u5d0e\u5730\u533a\u5730\u8cea\u8abf\u67fb\u4f5c\u696d","client_name":"\u5efa\u8a2d\u7701\u5317\u9678\u5730\u65b9\u5efa\u8a2d\u5c40\u9577\u5ca1\u56fd\u9053\u5de5\u4e8b\u4e8b\u52d9\u6240","boring_xml_url":45,"boring_view_url":1,"soilmap_view_url":null,"soiltest_xml_url":48,"soiltest_view_url":48},{"id":159518,"code":"B4KJ201801004-7767","latitude":"37.46217444","longitude":"138.6787808","source_code":"HR1584857820200508","project_name":"","survey_name":"\u897f\u5c71\u30fb\u51fa\u96f2\u5d0e\u5730\u533a\u5730\u8cea\u8abf\u67fb\u4f5c\u696d","client_name":"\u5efa\u8a2d\u7701\u5317\u9678\u5730\u65b9\u5efa\u8a2d\u5c40\u4e0a\u8d8a\u56fd\u9053\u5de5\u4e8b\u4e8b\u52d9\u6240","boring_xml_url":45,"boring_view_url":1,"soilmap_view_url":null,"soiltest_xml_url":48,"soiltest_view_url":48},{"id":159517,"code":"B4KJ201801004-7766","latitude":"37.51809694","longitude":"138.7247494","source_code":"HR1584857820200503","project_name":"","survey_name":"\u897f\u5c71\u30fb\u51fa\u96f2\u5d0e\u5730\u533a\u5730\u8cea\u8abf\u67fb\u4f5c\u696d","client_name":"\u5efa\u8a2d\u7701\u5317\u9678\u5730\u65b9\u5efa\u8a2d\u5c40\u9577\u5ca1\u56fd\u9053\u5de5\u4e8b\u4e8b\u52d9\u6240","boring_xml_url":45,"boring_view_url":1,"soilmap_view_url":null,"soiltest_xml_url":48,"soiltest_view_url":48},{"id":159516,"code":"B4KJ201801004-7765","latitude":"37.52729056","longitude":"138.7298597","source_code":"HR1584857820200502","project_name":"","survey_name":"\u897f\u5c71\u30fb\u51fa\u96f2\u5d0e\u5730\u533a\u5730\u8cea\u8abf\u67fb\u4f5c\u696d","client_name":"\u5efa\u8a2d\u7701\u5317\u9678\u5730\u65b9\u5efa\u8a2d\u5c40\u9577\u5ca1\u56fd\u9053\u5de5\u4e8b\u4e8b\u52d9\u6240","boring_xml_url":45,"boring_view_url":1,"soilmap_view_url":null,"soiltest_xml_url":48,"soiltest_view_url":48},{"id":159515,"code":"B4KJ201801004-7764","latitude":"37.55019889","longitude":"138.7265283","source_code":"HR1584857820200499","project_name":"","survey_name":"\u51fa\u96f2\u5d0e\uff5e\u5bfa\u6cca\u5730\u533a\u5730\u8cea\u8abf\u67fb","client_name":"\u5efa\u8a2d\u7701\u5317\u9678\u5730\u65b9\u5efa\u8a2d\u5c40\u9577\u5ca1\u56fd\u9053\u5de5\u4e8b\u4e8b\u52d9\u6240","boring_xml_url":45,"boring_view_url":1,"soilmap_view_url":null,"soiltest_xml_url":0,"soiltest_view_url":0},{"id":159514,"code":"B4KJ201801004-7763","latitude":"37.55196806","longitude":"138.72687","source_code":"HR1584857820200498","project_name":"","survey_name":"\u51fa\u96f2\u5d0e\uff5e\u5bfa\u6cca\u5730\u533a\u5730\u8cea\u8abf\u67fb\u4f5c\u696d","client_name":"\u5efa\u8a2d\u7701\u5317\u9678\u5730\u65b9\u5efa\u8a2d\u5c40\u9577\u5ca1\u56fd\u9053\u5de5\u4e8b\u4e8b\u52d9\u6240","boring_xml_url":45,"boring_view_url":1,"soilmap_view_url":null,"soiltest_xml_url":48,"soiltest_view_url":48},{"id":159513,"code":"B4KJ201801004-7762","latitude":"36.84337889","longitude":"138.7784706","source_code":"HR1584857820200497","project_name":"","survey_name":"\u4e8c\u5c45\u5927\u6a4b\u4ed61\u4ef6\u5730\u8cea\u8abf\u67fb\u696d\u52d9\u59d4\u8a17","client_name":"\u5efa\u8a2d\u7701\u5317\u9678\u5730\u65b9\u5efa\u8a2d\u5c40\u9577\u5ca1\u56fd\u9053\u5de5\u4e8b\u4e8b\u52d9\u6240","boring_xml_url":45,"boring_view_url":1,"soilmap_view_url":null,"soiltest_xml_url":0,"soiltest_view_url":0},{"id":159512,"code":"B4KJ201801004-7761","latitude":"36.84357056","longitude":"138.7784703","source_code":"HR1584857820200496","project_name":"","survey_name":"\u4e8c\u5c45\u5927\u6a4b\u4ed61\u4ef6\u5730\u8cea\u8abf\u67fb\u696d\u52d9\u59d4\u8a17","client_name":"\u5efa\u8a2d\u7701\u5317\u9678\u5730\u65b9\u5efa\u8a2d\u5c40\u9577\u5ca1\u56fd\u9053\u5de5\u4e8b\u4e8b\u52d9\u6240","boring_xml_url":45,"boring_view_url":1,"soilmap_view_url":null,"soiltest_xml_url":0,"soiltest_view_url":0},{"id":159511,"code":"B4KJ201801004-7760","latitude":"36.84374556","longitude":"138.7785147","source_code":"HR1584857820200495","project_name":"","survey_name":"\u4e8c\u5c45\u5927\u6a4b\u4ed61\u4ef6\u5730\u8cea\u8abf\u67fb\u696d\u52d9\u59d4\u8a17","client_name":"\u5efa\u8a2d\u7701\u5317\u9678\u5730\u65b9\u5efa\u8a2d\u5c40\u9577\u5ca1\u56fd\u9053\u5de5\u4e8b\u4e8b\u52d9\u6240","boring_xml_url":45,"boring_view_url":1,"soilmap_view_url":null,"soiltest_xml_url":0,"soiltest_view_url":0},{"id":159510,"code":"B4KJ201801004-7759","latitude":"36.84391778","longitude":"138.7785675","source_code":"HR1584857820200494","project_name":"","survey_name":"\u4e8c\u5c45\u5927\u6a4b\u4ed61\u4ef6\u5730\u8cea\u8abf\u67fb\u696d\u52d9\u59d4\u8a17","client_name":"\u5efa\u8a2d\u7701\u5317\u9678\u5730\u65b9\u5efa\u8a2d\u5c40\u9577\u5ca1\u56fd\u9053\u5de5\u4e8b\u4e8b\u52d9\u6240","boring_xml_url":45,"boring_view_url":1,"soilmap_view_url":null,"soiltest_xml_url":0,"soiltest_view_url":0},{"id":159509,"code":"B4KJ201801004-7758","latitude":"36.84409833","longitude":"138.7786147","source_code":"HR1584857820200493","project_name":"","survey_name":"\u4e8c\u5c45\u5927\u6a4b\u4ed61\u4ef6\u5730\u8cea\u8abf\u67fb\u696d\u52d9\u59d4\u8a17","client_name":"\u5efa\u8a2d\u7701\u5317\u9678\u5730\u65b9\u5efa\u8a2d\u5c40\u9577\u5ca1\u56fd\u9053\u5de5\u4e8b\u4e8b\u52d9\u6240","boring_xml_url":45,"boring_view_url":1,"soilmap_view_url":null,"soiltest_xml_url":0,"soiltest_view_url":0},{"id":159508,"code":"B4KJ201801004-7757","latitude":"36.84422889","longitude":"138.7786286","source_code":"HR1584857820200492","project_name":"","survey_name":"\u4e8c\u5c45\u5927\u6a4b\u4ed61\u4ef6\u5730\u8cea\u8abf\u67fb\u696d\u52d9\u59d4\u8a17","client_name":"\u5efa\u8a2d\u7701\u5317\u9678\u5730\u65b9\u5efa\u8a2d\u5c40\u9577\u5ca1\u56fd\u9053\u5de5\u4e8b\u4e8b\u52d9\u6240","boring_xml_url":45,"boring_view_url":1,"soilmap_view_url":null,"soiltest_xml_url":0,"soiltest_view_url":0},{"id":159507,"code":"B4KJ201801004-7756","latitude":"37.04045306","longitude":"138.8646131","source_code":"HR1584857820200491","project_name":"","survey_name":"\u95a2\u8d8a\u81ea\u52d5\u8eca\u9053\u516d\u65e5\u753a\u5730\u533a\u5730\u8cea\u8abf\u67fb","client_name":"\u5efa\u8a2d\u7701\u5317\u9678\u5730\u65b9\u5efa\u8a2d\u5c40\u9577\u5ca1\u56fd\u9053\u5de5\u4e8b\u4e8b\u52d9\u6240","boring_xml_url":45,"boring_view_url":1,"soilmap_view_url":null,"soiltest_xml_url":0,"soiltest_view_url":0},{"id":159506,"code":"B4KJ201801004-7755","latitude":"37.09798389","longitude":"138.9104456","source_code":"HR1584857820200484","project_name":"","survey_name":"\u95a2\u8d8a\u81ea\u52d5\u8eca\u9053\u516d\u65e5\u753a\u5730\u533a\u5730\u8cea\u8abf\u67fb","client_name":"\u5efa\u8a2d\u7701\u5317\u9678\u5730\u65b9\u5efa\u8a2d\u5c40\u9577\u5ca1\u56fd\u9053\u5de5\u4e8b\u4e8b\u52d9\u6240","boring_xml_url":45,"boring_view_url":1,"soilmap_view_url":null,"soiltest_xml_url":48,"soiltest_view_url":48}]}}