{"header":{"xyz":{"source":[],"mosaic":false},"page":5382,"raw":{"soiltest_result":"0","bbox":"57.598333,109.544722,1.933333,163.806111","page":"5382"},"conditions":{"soiltest_result":0,"north":57.598333,"west":109.544722,"south":1.933333,"east":163.806111},"success":true,"message":""},"data":{"meta":{"total":212844,"page":5382,"pages":7095,"count":30},"values":[{"id":159115,"code":"B4KJ201801004-7364","latitude":"36.85149972","longitude":"136.9514447","source_code":"HR0384454120130003","project_name":"","survey_name":"\u5e73\u621015\u5e74\u5ea6\u6c37\u898b\u9ad8\u5ca1\u9053\u8def(\u5927\u91ce\uff5e\u60e3\u9818)\u5730\u8cea\u8abf\u67fb\u4f5c\u696d","client_name":"\u56fd\u571f\u4ea4\u901a\u7701\u5317\u9678\u5730\u65b9\u6574\u5099\u5c40\u5bcc\u5c71\u6cb3\u5ddd\u56fd\u9053\u4e8b\u52d9\u6240","boring_xml_url":45,"boring_view_url":1,"soilmap_view_url":null,"soiltest_xml_url":0,"soiltest_view_url":0},{"id":159114,"code":"B4KJ201801004-7363","latitude":"36.8565825","longitude":"136.9560275","source_code":"HR0384454120130002","project_name":"","survey_name":"\u5e73\u621015\u5e74\u5ea6\u6c37\u898b\u9ad8\u5ca1\u9053\u8def(\u5927\u91ce\uff5e\u60e3\u9818)\u5730\u8cea\u8abf\u67fb\u4f5c\u696d","client_name":"\u56fd\u571f\u4ea4\u901a\u7701\u5317\u9678\u5730\u65b9\u6574\u5099\u5c40\u5bcc\u5c71\u6cb3\u5ddd\u56fd\u9053\u4e8b\u52d9\u6240","boring_xml_url":45,"boring_view_url":1,"soilmap_view_url":null,"soiltest_xml_url":0,"soiltest_view_url":0},{"id":159113,"code":"B4KJ201801004-7362","latitude":"36.86022111","longitude":"136.9590828","source_code":"HR0384454120130001","project_name":"","survey_name":"\u5e73\u621015\u5e74\u5ea6\u6c37\u898b\u9ad8\u5ca1\u9053\u8def(\u5927\u91ce\uff5e\u60e3\u9818)\u5730\u8cea\u8abf\u67fb\u4f5c\u696d","client_name":"\u56fd\u571f\u4ea4\u901a\u7701\u5317\u9678\u5730\u65b9\u6574\u5099\u5c40\u5bcc\u5c71\u6cb3\u5ddd\u56fd\u9053\u4e8b\u52d9\u6240","boring_xml_url":45,"boring_view_url":1,"soilmap_view_url":null,"soiltest_xml_url":0,"soiltest_view_url":0},{"id":159112,"code":"B4KJ201801004-7361","latitude":"36.52085","longitude":"137.2339806","source_code":"HR0384454120120022","project_name":"","survey_name":"\u732a\u8c37\u6961\u539f\u9053\u8def(\u5eb5\u8c37\uff5e\u6961\u539f\u5730\u533a)\u5730\u8cea\u8abf\u67fb\u4f5c\u696d","client_name":"\u56fd\u571f\u4ea4\u901a\u7701\u5317\u9678\u5730\u65b9\u6574\u5099\u5c40\u5bcc\u5c71\u6cb3\u5ddd\u56fd\u9053\u4e8b\u52d9\u6240","boring_xml_url":45,"boring_view_url":1,"soilmap_view_url":null,"soiltest_xml_url":0,"soiltest_view_url":0},{"id":159111,"code":"B4KJ201801004-7360","latitude":"36.51856389","longitude":"137.2343583","source_code":"HR0384454120120021","project_name":"","survey_name":"\u732a\u8c37\u6961\u539f\u9053\u8def(\u5eb5\u8c37\uff5e\u6961\u539f)\u5730\u8cea\u8abf\u67fb\u4f5c\u696d","client_name":"\u56fd\u571f\u4ea4\u901a\u7701\u5317\u9678\u5730\u65b9\u6574\u5099\u5c40\u5bcc\u5c71\u6cb3\u5ddd\u56fd\u9053\u4e8b\u52d9\u6240","boring_xml_url":45,"boring_view_url":1,"soilmap_view_url":null,"soiltest_xml_url":0,"soiltest_view_url":0},{"id":159110,"code":"B4KJ201801004-7359","latitude":"36.51847222","longitude":"137.2339083","source_code":"HR0384454120120020","project_name":"","survey_name":"\u732a\u8c37\u6961\u539f\u9053\u8def(\u5eb5\u8c37\uff5e\u6961\u539f\u5730\u533a)\u5730\u8cea\u8abf\u67fb\u4f5c\u696d","client_name":"\u56fd\u571f\u4ea4\u901a\u7701\u5317\u9678\u5730\u65b9\u6574\u5099\u5c40\u5bcc\u5c71\u6cb3\u5ddd\u56fd\u9053\u4e8b\u52d9\u6240","boring_xml_url":45,"boring_view_url":1,"soilmap_view_url":null,"soiltest_xml_url":0,"soiltest_view_url":0},{"id":159109,"code":"B4KJ201801004-7358","latitude":"36.51653611","longitude":"137.2344972","source_code":"HR0384454120120019","project_name":"","survey_name":"\u732a\u8c37\u6961\u539f\u9053\u8def(\u5eb5\u8c37\uff5e\u6961\u539f\u5730\u533a)\u5730\u8cea\u8abf\u67fb\u4f5c\u696d","client_name":"\u56fd\u571f\u4ea4\u901a\u7701\u5317\u9678\u5730\u65b9\u6574\u5099\u5c40\u5bcc\u5c71\u6cb3\u5ddd\u56fd\u9053\u4e8b\u52d9\u6240","boring_xml_url":45,"boring_view_url":1,"soilmap_view_url":null,"soiltest_xml_url":0,"soiltest_view_url":0},{"id":159108,"code":"B4KJ201801004-7357","latitude":"36.51671111","longitude":"137.2338556","source_code":"HR0384454120120018","project_name":"","survey_name":"\u732a\u8c37\u6961\u539f\u9053\u8def(\u5eb5\u8c37\uff5e\u6961\u539f\u5730\u533a)\u5730\u8cea\u8abf\u67fb\u4f5c\u696d","client_name":"\u56fd\u571f\u4ea4\u901a\u7701\u5317\u9678\u5730\u65b9\u6574\u5099\u5c40\u5bcc\u5c71\u6cb3\u5ddd\u56fd\u9053\u4e8b\u52d9\u6240","boring_xml_url":45,"boring_view_url":1,"soilmap_view_url":null,"soiltest_xml_url":0,"soiltest_view_url":0},{"id":159107,"code":"B4KJ201801004-7356","latitude":"36.52456667","longitude":"137.2309167","source_code":"HR0384454120120017","project_name":"","survey_name":"\u732a\u8c37\u6961\u539f\u9053\u8def(\u5eb5\u8c37\uff5e\u6961\u539f\u5730\u533a)\u5730\u8cea\u8abf\u67fb\u4f5c\u696d","client_name":"\u56fd\u571f\u4ea4\u901a\u7701\u5317\u9678\u5730\u65b9\u6574\u5099\u5c40\u5bcc\u5c71\u6cb3\u5ddd\u56fd\u9053\u4e8b\u52d9\u6240","boring_xml_url":45,"boring_view_url":1,"soilmap_view_url":null,"soiltest_xml_url":46,"soiltest_view_url":46},{"id":159106,"code":"B4KJ201801004-7355","latitude":"36.52430278","longitude":"137.2312194","source_code":"HR0384454120120016","project_name":"","survey_name":"\u732a\u8c37\u6961\u539f\u9053\u8def(\u5eb5\u8c37\uff5e\u6961\u539f\u5730\u533a)\u5730\u8cea\u8abf\u67fb\u4f5c\u696d","client_name":"\u56fd\u571f\u4ea4\u901a\u7701\u5317\u9678\u5730\u65b9\u6574\u5099\u5c40\u5bcc\u5c71\u6cb3\u5ddd\u56fd\u9053\u4e8b\u52d9\u6240","boring_xml_url":45,"boring_view_url":1,"soilmap_view_url":null,"soiltest_xml_url":46,"soiltest_view_url":46},{"id":159105,"code":"B4KJ201801004-7354","latitude":"36.52404444","longitude":"137.2314861","source_code":"HR0384454120120015","project_name":"","survey_name":"\u732a\u8c37\u6961\u539f\u9053\u8def(\u5eb5\u8c37\uff5e\u6961\u539f\u5730\u533a)\u5730\u8cea\u8abf\u67fb\u4f5c\u696d","client_name":"\u56fd\u571f\u4ea4\u901a\u7701\u5317\u9678\u5730\u65b9\u6574\u5099\u5c40\u5bcc\u5c71\u6cb3\u5ddd\u56fd\u9053\u4e8b\u52d9\u6240","boring_xml_url":45,"boring_view_url":1,"soilmap_view_url":null,"soiltest_xml_url":0,"soiltest_view_url":0},{"id":159104,"code":"B4KJ201801004-7353","latitude":"36.52384722","longitude":"137.231775","source_code":"HR0384454120120014","project_name":"","survey_name":"\u732a\u8c37\u6961\u539f\u9053\u8def(\u5eb5\u8c37\uff5e\u6961\u539f\u5730\u533a)\u5730\u8cea\u8abf\u67fb\u4f5c\u696d","client_name":"\u56fd\u571f\u4ea4\u901a\u7701\u5317\u9678\u5730\u65b9\u6574\u5099\u5c40\u5bcc\u5c71\u6cb3\u5ddd\u56fd\u9053\u4e8b\u52d9\u6240","boring_xml_url":45,"boring_view_url":1,"soilmap_view_url":null,"soiltest_xml_url":46,"soiltest_view_url":46},{"id":159103,"code":"B4KJ201801004-7352","latitude":"36.52361667","longitude":"137.2320444","source_code":"HR0384454120120013","project_name":"","survey_name":"\u732a\u8c37\u6961\u539f\u9053\u8def(\u5eb5\u8c37\uff5e\u6961\u539f\u5730\u533a)\u5730\u8cea\u8abf\u67fb\u4f5c\u696d","client_name":"\u56fd\u571f\u4ea4\u901a\u7701\u5317\u9678\u5730\u65b9\u6574\u5099\u5c40\u5bcc\u5c71\u6cb3\u5ddd\u56fd\u9053\u4e8b\u52d9\u6240","boring_xml_url":45,"boring_view_url":1,"soilmap_view_url":null,"soiltest_xml_url":0,"soiltest_view_url":0},{"id":159102,"code":"B4KJ201801004-7351","latitude":"36.52341389","longitude":"137.2323667","source_code":"HR0384454120120012","project_name":"","survey_name":"\u732a\u8c37\u6961\u539f\u9053\u8def(\u5eb5\u8c37\uff5e\u6961\u539f\u5730\u533a)\u5730\u8cea\u8abf\u67fb\u4f5c\u696d","client_name":"\u56fd\u571f\u4ea4\u901a\u7701\u5317\u9678\u5730\u65b9\u6574\u5099\u5c40\u5bcc\u5c71\u6cb3\u5ddd\u56fd\u9053\u4e8b\u52d9\u6240","boring_xml_url":45,"boring_view_url":1,"soilmap_view_url":null,"soiltest_xml_url":0,"soiltest_view_url":0},{"id":159101,"code":"B4KJ201801004-7350","latitude":"36.52246389","longitude":"137.2329806","source_code":"HR0384454120120011","project_name":"","survey_name":"\u732a\u8c37\u6961\u539f\u9053\u8def(\u5eb5\u8c37\uff5e\u6961\u539f\u5730\u533a)\u5730\u8cea\u8abf\u67fb\u4f5c\u696d","client_name":"\u56fd\u571f\u4ea4\u901a\u7701\u5317\u9678\u5730\u65b9\u6574\u5099\u5c40\u5bcc\u5c71\u6cb3\u5ddd\u56fd\u9053\u4e8b\u52d9\u6240","boring_xml_url":45,"boring_view_url":1,"soilmap_view_url":null,"soiltest_xml_url":46,"soiltest_view_url":46},{"id":159100,"code":"B4KJ201801004-7349","latitude":"36.522275","longitude":"137.2331083","source_code":"HR0384454120120010","project_name":"","survey_name":"\u732a\u8c37\u6961\u539f\u9053\u8def(\u5eb5\u8c37\uff5e\u6961\u539f\u5730\u533a)\u5730\u8cea\u8abf\u67fb\u4f5c\u696d","client_name":"\u56fd\u571f\u4ea4\u901a\u7701\u5317\u9678\u5730\u65b9\u6574\u5099\u5c40\u5bcc\u5c71\u6cb3\u5ddd\u56fd\u9053\u4e8b\u52d9\u6240","boring_xml_url":45,"boring_view_url":1,"soilmap_view_url":null,"soiltest_xml_url":0,"soiltest_view_url":0},{"id":159099,"code":"B4KJ201801004-7348","latitude":"36.51325278","longitude":"137.2330333","source_code":"HR0384454120120009","project_name":"","survey_name":"\u732a\u8c37\u6961\u539f\u9053\u8def(\u5eb5\u8c37\uff5e\u6961\u539f\u5730\u533a)\u5730\u8cea\u8abf\u67fb\u4f5c\u696d","client_name":"\u56fd\u571f\u4ea4\u901a\u7701\u5317\u9678\u5730\u65b9\u6574\u5099\u5c40\u5bcc\u5c71\u6cb3\u5ddd\u56fd\u9053\u4e8b\u52d9\u6240","boring_xml_url":45,"boring_view_url":1,"soilmap_view_url":null,"soiltest_xml_url":0,"soiltest_view_url":0},{"id":159098,"code":"B4KJ201801004-7347","latitude":"36.51308889","longitude":"137.2330139","source_code":"HR0384454120120008","project_name":"","survey_name":"\u732a\u8c37\u6961\u539f\u9053\u8def(\u5eb5\u8c37\uff5e\u6961\u539f\u5730\u533a)\u5730\u8cea\u8abf\u67fb\u4f5c\u696d","client_name":"\u56fd\u571f\u4ea4\u901a\u7701\u5317\u9678\u5730\u65b9\u6574\u5099\u5c40\u5bcc\u5c71\u6cb3\u5ddd\u56fd\u9053\u4e8b\u52d9\u6240","boring_xml_url":45,"boring_view_url":1,"soilmap_view_url":null,"soiltest_xml_url":46,"soiltest_view_url":46},{"id":159097,"code":"B4KJ201801004-7346","latitude":"36.51305","longitude":"137.2328889","source_code":"HR0384454120120007","project_name":"","survey_name":"\u732a\u8c37\u6961\u539f\u9053\u8def(\u5eb5\u8c37\uff5e\u6961\u539f\u5730\u533a)\u5730\u8cea\u8abf\u67fb\u4f5c\u696d","client_name":"\u56fd\u571f\u4ea4\u901a\u7701\u5317\u9678\u5730\u65b9\u6574\u5099\u5c40\u5bcc\u5c71\u6cb3\u5ddd\u56fd\u9053\u4e8b\u52d9\u6240","boring_xml_url":45,"boring_view_url":1,"soilmap_view_url":null,"soiltest_xml_url":46,"soiltest_view_url":46},{"id":159096,"code":"B4KJ201801004-7345","latitude":"36.5129","longitude":"137.2329056","source_code":"HR0384454120120006","project_name":"","survey_name":"\u732a\u8c37\u6961\u539f\u9053\u8def(\u5eb5\u8c37\uff5e\u6961\u539f\u5730\u533a)\u5730\u8cea\u8abf\u67fb\u4f5c\u696d","client_name":"\u56fd\u571f\u4ea4\u901a\u7701\u5317\u9678\u5730\u65b9\u6574\u5099\u5c40\u5bcc\u5c71\u6cb3\u5ddd\u56fd\u9053\u4e8b\u52d9\u6240","boring_xml_url":45,"boring_view_url":1,"soilmap_view_url":null,"soiltest_xml_url":46,"soiltest_view_url":46},{"id":159095,"code":"B4KJ201801004-7344","latitude":"36.51283056","longitude":"137.2327083","source_code":"HR0384454120120005","project_name":"","survey_name":"\u732a\u8c37\u6961\u539f\u9053\u8def(\u5eb5\u8c37\uff5e\u6961\u539f\u5730\u533a)\u5730\u8cea\u8abf\u67fb\u4f5c\u696d","client_name":"\u56fd\u571f\u4ea4\u901a\u7701\u5317\u9678\u5730\u65b9\u6574\u5099\u5c40\u5bcc\u5c71\u6cb3\u5ddd\u56fd\u9053\u4e8b\u52d9\u6240","boring_xml_url":45,"boring_view_url":1,"soilmap_view_url":null,"soiltest_xml_url":46,"soiltest_view_url":46},{"id":159094,"code":"B4KJ201801004-7343","latitude":"36.51128056","longitude":"137.2317972","source_code":"HR0384454120120004","project_name":"","survey_name":"\u732a\u8c37\u6961\u539f\u9053\u8def(\u5eb5\u8c37\uff5e\u6961\u539f\u5730\u533a)\u5730\u8cea\u8abf\u67fb\u4f5c\u696d","client_name":"\u56fd\u571f\u4ea4\u901a\u7701\u5317\u9678\u5730\u65b9\u6574\u5099\u5c40\u5bcc\u5c71\u6cb3\u5ddd\u56fd\u9053\u4e8b\u52d9\u6240","boring_xml_url":45,"boring_view_url":1,"soilmap_view_url":null,"soiltest_xml_url":0,"soiltest_view_url":0},{"id":159093,"code":"B4KJ201801004-7342","latitude":"36.51118333","longitude":"137.2317444","source_code":"HR0384454120120003","project_name":"","survey_name":"\u732a\u8c37\u6961\u539f\u9053\u8def(\u5eb5\u8c37\uff5e\u6961\u539f\u5730\u533a)\u5730\u8cea\u8abf\u67fb\u4f5c\u696d","client_name":"\u56fd\u571f\u4ea4\u901a\u7701\u5317\u9678\u5730\u65b9\u6574\u5099\u5c40\u5bcc\u5c71\u6cb3\u5ddd\u56fd\u9053\u4e8b\u52d9\u6240","boring_xml_url":45,"boring_view_url":1,"soilmap_view_url":null,"soiltest_xml_url":0,"soiltest_view_url":0},{"id":159092,"code":"B4KJ201801004-7341","latitude":"36.51098333","longitude":"137.2316444","source_code":"HR0384454120120002","project_name":"","survey_name":"\u732a\u8c37\u6961\u539f\u9053\u8def(\u5eb5\u8c37\uff5e\u6961\u539f\u5730\u533a)\u5730\u8cea\u8abf\u67fb\u4f5c\u696d","client_name":"\u56fd\u571f\u4ea4\u901a\u7701\u5317\u9678\u5730\u65b9\u6574\u5099\u5c40\u5bcc\u5c71\u6cb3\u5ddd\u56fd\u9053\u4e8b\u52d9\u6240","boring_xml_url":45,"boring_view_url":1,"soilmap_view_url":null,"soiltest_xml_url":0,"soiltest_view_url":0},{"id":159091,"code":"B4KJ201801004-7340","latitude":"36.51078611","longitude":"137.2315944","source_code":"HR0384454120120001","project_name":"","survey_name":"\u732a\u8c37\u6961\u539f\u9053\u8def(\u5eb5\u8c37\uff5e\u6961\u539f\u5730\u533a)\u5730\u8cea\u8abf\u67fb\u4f5c\u696d","client_name":"\u56fd\u571f\u4ea4\u901a\u7701\u5317\u9678\u5730\u65b9\u6574\u5099\u5c40\u5bcc\u5c71\u6cb3\u5ddd\u56fd\u9053\u4e8b\u52d9\u6240","boring_xml_url":45,"boring_view_url":1,"soilmap_view_url":null,"soiltest_xml_url":46,"soiltest_view_url":46},{"id":159090,"code":"B4KJ201801004-7339","latitude":"36.53025667","longitude":"137.2264528","source_code":"HR0384454120060005","project_name":"\u732a\u8c37\u6961\u539f\u9053\u8def\u6961\u539f\u5730\u533a\u5730\u8cea\u8abf\u67fb\u4f5c\u696d","survey_name":"\u732a\u8c37\u6961\u539f\u9053\u8def\u6961\u539f\u5730\u533a\u5730\u8cea\u8abf\u67fb\u4f5c\u696d","client_name":"\u56fd\u571f\u4ea4\u901a\u7701\u5317\u9678\u5730\u65b9\u6574\u5099\u5c40\u5bcc\u5c71\u6cb3\u5ddd\u56fd\u9053\u4e8b\u52d9\u6240","boring_xml_url":45,"boring_view_url":1,"soilmap_view_url":null,"soiltest_xml_url":0,"soiltest_view_url":0},{"id":159089,"code":"B4KJ201801004-7338","latitude":"36.53110694","longitude":"137.2259406","source_code":"HR0384454120060004","project_name":"\u732a\u8c37\u6961\u539f\u9053\u8def\u6961\u539f\u5730\u533a\u5730\u8cea\u8abf\u67fb\u4f5c\u696d","survey_name":"\u732a\u8c37\u6961\u539f\u9053\u8def\u6961\u539f\u5730\u533a\u5730\u8cea\u8abf\u67fb\u4f5c\u696d","client_name":"\u56fd\u571f\u4ea4\u901a\u7701\u5317\u9678\u5730\u65b9\u6574\u5099\u5c40\u5bcc\u5c71\u6cb3\u5ddd\u56fd\u9053\u4e8b\u52d9\u6240","boring_xml_url":45,"boring_view_url":1,"soilmap_view_url":null,"soiltest_xml_url":0,"soiltest_view_url":0},{"id":159088,"code":"B4KJ201801004-7337","latitude":"36.52943972","longitude":"137.2267672","source_code":"HR0384454120060003","project_name":"\u732a\u8c37\u6961\u539f\u9053\u8def\u6961\u539f\u5730\u533a\u5730\u8cea\u8abf\u67fb\u4f5c\u696d","survey_name":"\u732a\u8c37\u6961\u539f\u9053\u8def\u6961\u539f\u5730\u533a\u5730\u8cea\u8abf\u67fb\u4f5c\u696d","client_name":"\u56fd\u571f\u4ea4\u901a\u7701\u5317\u9678\u5730\u65b9\u6574\u5099\u5c40\u5bcc\u5c71\u6cb3\u5ddd\u56fd\u9053\u4e8b\u52d9\u6240","boring_xml_url":45,"boring_view_url":1,"soilmap_view_url":null,"soiltest_xml_url":0,"soiltest_view_url":0},{"id":159087,"code":"B4KJ201801004-7336","latitude":"36.53545028","longitude":"137.2268636","source_code":"HR0384454120060001","project_name":"\u732a\u8c37\u6961\u539f\u9053\u8def\u6961\u539f\u5730\u533a\u5730\u8cea\u8abf\u67fb\u4f5c\u696d","survey_name":"\u732a\u8c37\u6961\u539f\u9053\u8def\u6961\u539f\u5730\u533a\u5730\u8cea\u8abf\u67fb\u4f5c\u696d","client_name":"\u56fd\u571f\u4ea4\u901a\u7701\u5317\u9678\u5730\u65b9\u6574\u5099\u5c40\u5bcc\u5c71\u6cb3\u5ddd\u56fd\u9053\u4e8b\u52d9\u6240","boring_xml_url":45,"boring_view_url":1,"soilmap_view_url":null,"soiltest_xml_url":0,"soiltest_view_url":0},{"id":159086,"code":"B4KJ201801004-7335","latitude":"37.13414111","longitude":"138.3036194","source_code":"HR0384396120050005","project_name":"\u4e0a\u8d8a\u4e09\u548c\u9053\u8def","survey_name":"\u4e0b\u91ce\u7530\u8de8\u9053\u6a4b\u5730\u8cea\u8abf\u67fb\u4f5c\u696d","client_name":"\u56fd\u571f\u4ea4\u901a\u7701\u5317\u9678\u5730\u65b9\u6574\u5099\u5c40\u9ad8\u7530\u6cb3\u5ddd\u56fd\u9053\u4e8b\u52d9\u6240","boring_xml_url":45,"boring_view_url":1,"soilmap_view_url":null,"soiltest_xml_url":46,"soiltest_view_url":46}]}}