{"header":{"xyz":{"source":[],"mosaic":false},"page":5389,"raw":{"soiltest_result":"0","bbox":"57.598333,109.544722,1.933333,163.806111","page":"5389"},"conditions":{"soiltest_result":0,"north":57.598333,"west":109.544722,"south":1.933333,"east":163.806111},"success":true,"message":""},"data":{"meta":{"total":212844,"page":5389,"pages":7095,"count":30},"values":[{"id":158905,"code":"B4KJ201801004-7154","latitude":"36.93978333","longitude":"139.6554542","source_code":"KT55393522004","project_name":"","survey_name":"\u5e73\u621010\u5e74\u5ea6 \u4ed8\u66ff\u770c\u90536\u53f7\u30c8\u30f3\u30cd\u30eb\u8a73\u7d30\u8a2d\u8a08\u696d\u52d9","client_name":"\u56fd\u571f\u4ea4\u901a\u7701\u95a2\u6771\u5730\u65b9\u6574\u5099\u5c40\u6e6f\u897f\u5ddd\u30c0\u30e0\u5de5\u4e8b\u4e8b\u52d9\u6240","boring_xml_url":40,"boring_view_url":1,"soilmap_view_url":null,"soiltest_xml_url":0,"soiltest_view_url":0},{"id":158904,"code":"B4KJ201801004-7153","latitude":"36.93986667","longitude":"139.6552042","source_code":"KT55393522003","project_name":"","survey_name":"\u5e73\u621010\u5e74\u5ea6 \u4ed8\u66ff\u770c\u90536\u53f7\u30c8\u30f3\u30cd\u30eb\u8a73\u7d30\u8a2d\u8a08\u696d\u52d9","client_name":"\u56fd\u571f\u4ea4\u901a\u7701\u95a2\u6771\u5730\u65b9\u6574\u5099\u5c40\u6e6f\u897f\u5ddd\u30c0\u30e0\u5de5\u4e8b\u4e8b\u52d9\u6240","boring_xml_url":40,"boring_view_url":1,"soilmap_view_url":null,"soiltest_xml_url":0,"soiltest_view_url":0},{"id":158903,"code":"B4KJ201801004-7152","latitude":"36.93453389","longitude":"139.6522881","source_code":"KT55393512022","project_name":"","survey_name":"\u5e73\u62109\u5e74\u5ea6 \u5de5\u4e8b\u7528\u9053\u8def4\u53f7\u30c8\u30f3\u30cd\u30eb\u8a73\u7d30\u8a2d\u8a08\u696d\u52d9","client_name":"\u56fd\u571f\u4ea4\u901a\u7701\u95a2\u6771\u5730\u65b9\u6574\u5099\u5c40\u6e6f\u897f\u5ddd\u30c0\u30e0\u5de5\u4e8b\u4e8b\u52d9\u6240","boring_xml_url":40,"boring_view_url":1,"soilmap_view_url":null,"soiltest_xml_url":0,"soiltest_view_url":0},{"id":158902,"code":"B4KJ201801004-7151","latitude":"36.934395","longitude":"139.6523436","source_code":"KT55393512021","project_name":"","survey_name":"\u5e73\u62109\u5e74\u5ea6 \u5de5\u4e8b\u7528\u9053\u8def4\u53f7\u30c8\u30f3\u30cd\u30eb\u8a73\u7d30\u8a2d\u8a08\u696d\u52d9","client_name":"\u56fd\u571f\u4ea4\u901a\u7701\u95a2\u6771\u5730\u65b9\u6574\u5099\u5c40\u6e6f\u897f\u5ddd\u30c0\u30e0\u5de5\u4e8b\u4e8b\u52d9\u6240","boring_xml_url":40,"boring_view_url":1,"soilmap_view_url":null,"soiltest_xml_url":0,"soiltest_view_url":0},{"id":158901,"code":"B4KJ201801004-7150","latitude":"36.93420056","longitude":"139.6524547","source_code":"KT55393512020","project_name":"","survey_name":"\u5e73\u62109\u5e74\u5ea6 \u5de5\u4e8b\u7528\u9053\u8def4\u53f7\u30c8\u30f3\u30cd\u30eb\u8a73\u7d30\u8a2d\u8a08\u696d\u52d9","client_name":"\u56fd\u571f\u4ea4\u901a\u7701\u95a2\u6771\u5730\u65b9\u6574\u5099\u5c40\u6e6f\u897f\u5ddd\u30c0\u30e0\u5de5\u4e8b\u4e8b\u52d9\u6240","boring_xml_url":40,"boring_view_url":1,"soilmap_view_url":null,"soiltest_xml_url":0,"soiltest_view_url":0},{"id":158900,"code":"B4KJ201801004-7149","latitude":"36.93317306","longitude":"139.6530103","source_code":"KT55393512019","project_name":"","survey_name":"\u5e73\u62109\u5e74\u5ea6 \u5de5\u4e8b\u7528\u9053\u8def4\u53f7\u30c8\u30f3\u30cd\u30eb\u8a73\u7d30\u8a2d\u8a08\u696d\u52d9","client_name":"\u56fd\u571f\u4ea4\u901a\u7701\u95a2\u6771\u5730\u65b9\u6574\u5099\u5c40\u6e6f\u897f\u5ddd\u30c0\u30e0\u5de5\u4e8b\u4e8b\u52d9\u6240","boring_xml_url":40,"boring_view_url":1,"soilmap_view_url":null,"soiltest_xml_url":0,"soiltest_view_url":0},{"id":158899,"code":"B4KJ201801004-7148","latitude":"36.93289528","longitude":"139.6530658","source_code":"KT55393512018","project_name":"","survey_name":"\u5e73\u62109\u5e74\u5ea6 \u5de5\u4e8b\u7528\u9053\u8def4\u53f7\u30c8\u30f3\u30cd\u30eb\u8a73\u7d30\u8a2d\u8a08\u696d\u52d9","client_name":"\u56fd\u571f\u4ea4\u901a\u7701\u95a2\u6771\u5730\u65b9\u6574\u5099\u5c40\u6e6f\u897f\u5ddd\u30c0\u30e0\u5de5\u4e8b\u4e8b\u52d9\u6240","boring_xml_url":40,"boring_view_url":1,"soilmap_view_url":null,"soiltest_xml_url":0,"soiltest_view_url":0},{"id":158898,"code":"B4KJ201801004-7147","latitude":"36.93067333","longitude":"139.6544269","source_code":"KT55393512006","project_name":"","survey_name":"\u5e73\u62108\u5e74\u5ea6\u30aa\u30af\u30bf\u30d6\u30ea\u5730\u533a\u9053\u8def\u8abf\u67fb\u8a2d\u8a08\u696d\u52d9","client_name":"\u56fd\u571f\u4ea4\u901a\u7701\u95a2\u6771\u5730\u65b9\u6574\u5099\u5c40\u6e6f\u897f\u5ddd\u30c0\u30e0\u5de5\u4e8b\u4e8b\u52d9\u6240","boring_xml_url":40,"boring_view_url":1,"soilmap_view_url":null,"soiltest_xml_url":0,"soiltest_view_url":0},{"id":158897,"code":"B4KJ201801004-7146","latitude":"36.93047889","longitude":"139.6547325","source_code":"KT55393512005","project_name":"","survey_name":"\u5e73\u62108\u5e74\u5ea6\u30aa\u30af\u30bf\u30d6\u30ea\u5730\u533a\u9053\u8def\u8abf\u67fb\u8a2d\u8a08\u696d\u52d9","client_name":"\u56fd\u571f\u4ea4\u901a\u7701\u95a2\u6771\u5730\u65b9\u6574\u5099\u5c40\u6e6f\u897f\u5ddd\u30c0\u30e0\u5de5\u4e8b\u4e8b\u52d9\u6240","boring_xml_url":40,"boring_view_url":1,"soilmap_view_url":null,"soiltest_xml_url":0,"soiltest_view_url":0},{"id":158896,"code":"B4KJ201801004-7145","latitude":"36.93031222","longitude":"139.6550381","source_code":"KT55393512004","project_name":"","survey_name":"\u5e73\u62108\u5e74\u5ea6\u30aa\u30af\u30bf\u30d6\u30ea\u5730\u533a\u9053\u8def\u8abf\u67fb\u8a2d\u8a08\u696d\u52d9","client_name":"\u56fd\u571f\u4ea4\u901a\u7701\u95a2\u6771\u5730\u65b9\u6574\u5099\u5c40\u6e6f\u897f\u5ddd\u30c0\u30e0\u5de5\u4e8b\u4e8b\u52d9\u6240","boring_xml_url":40,"boring_view_url":1,"soilmap_view_url":null,"soiltest_xml_url":0,"soiltest_view_url":0},{"id":158895,"code":"B4KJ201801004-7144","latitude":"36.93017333","longitude":"139.6553714","source_code":"KT55393512003","project_name":"","survey_name":"\u5e73\u62108\u5e74\u5ea6\u30aa\u30af\u30bf\u30d6\u30ea\u5730\u533a\u9053\u8def\u8abf\u67fb\u8a2d\u8a08\u696d\u52d9","client_name":"\u56fd\u571f\u4ea4\u901a\u7701\u95a2\u6771\u5730\u65b9\u6574\u5099\u5c40\u6e6f\u897f\u5ddd\u30c0\u30e0\u5de5\u4e8b\u4e8b\u52d9\u6240","boring_xml_url":40,"boring_view_url":1,"soilmap_view_url":null,"soiltest_xml_url":0,"soiltest_view_url":0},{"id":158894,"code":"B4KJ201801004-7143","latitude":"36.93003444","longitude":"139.6557044","source_code":"KT55393512002","project_name":"","survey_name":"\u5e73\u62108\u5e74\u5ea6\u30aa\u30af\u30bf\u30d6\u30ea\u5730\u533a\u9053\u8def\u8abf\u67fb\u8a2d\u8a08\u696d\u52d9","client_name":"\u56fd\u571f\u4ea4\u901a\u7701\u95a2\u6771\u5730\u65b9\u6574\u5099\u5c40\u6e6f\u897f\u5ddd\u30c0\u30e0\u5de5\u4e8b\u4e8b\u52d9\u6240","boring_xml_url":40,"boring_view_url":1,"soilmap_view_url":null,"soiltest_xml_url":0,"soiltest_view_url":0},{"id":158893,"code":"B4KJ201801004-7142","latitude":"36.92992361","longitude":"139.6563156","source_code":"KT55393512001","project_name":"","survey_name":"\u5e73\u62108\u5e74\u5ea6\u30aa\u30af\u30bf\u30d6\u30ea\u5730\u533a\u9053\u8def\u8abf\u67fb\u8a2d\u8a08\u696d\u52d9","client_name":"\u56fd\u571f\u4ea4\u901a\u7701\u95a2\u6771\u5730\u65b9\u6574\u5099\u5c40\u6e6f\u897f\u5ddd\u30c0\u30e0\u5de5\u4e8b\u4e8b\u52d9\u6240","boring_xml_url":40,"boring_view_url":1,"soilmap_view_url":null,"soiltest_xml_url":0,"soiltest_view_url":0},{"id":158892,"code":"B4KJ201801004-7141","latitude":"36.96572389","longitude":"139.6175675","source_code":"KT55393459028","project_name":"","survey_name":"\u6e6f\u897f\u5ddd\u4e0b\u5730\u533a\u8b77\u5cb8\u4e88\u5099\u8a2d\u8a08\u696d\u52d9","client_name":"\u56fd\u571f\u4ea4\u901a\u7701\u95a2\u6771\u5730\u65b9\u6574\u5099\u5c40\u6e6f\u897f\u5ddd\u30c0\u30e0\u5de5\u4e8b\u4e8b\u52d9\u6240","boring_xml_url":40,"boring_view_url":1,"soilmap_view_url":null,"soiltest_xml_url":0,"soiltest_view_url":0},{"id":158891,"code":"B4KJ201801004-7140","latitude":"36.96669583","longitude":"139.6165119","source_code":"KT55393459027","project_name":"","survey_name":"\u6e6f\u897f\u5ddd\u4e0b\u5730\u533a\u8b77\u5cb8\u4e88\u5099\u8a2d\u8a08\u696d\u52d9","client_name":"\u56fd\u571f\u4ea4\u901a\u7701\u95a2\u6771\u5730\u65b9\u6574\u5099\u5c40\u6e6f\u897f\u5ddd\u30c0\u30e0\u5de5\u4e8b\u4e8b\u52d9\u6240","boring_xml_url":40,"boring_view_url":1,"soilmap_view_url":null,"soiltest_xml_url":0,"soiltest_view_url":0},{"id":158890,"code":"B4KJ201801004-7139","latitude":"36.96486278","longitude":"139.6178453","source_code":"KT55393459026","project_name":"","survey_name":"\u6e6f\u897f\u5ddd\u4e0b\u5730\u533a\u8b77\u5cb8\u4e88\u5099\u8a2d\u8a08\u696d\u52d9","client_name":"\u56fd\u571f\u4ea4\u901a\u7701\u95a2\u6771\u5730\u65b9\u6574\u5099\u5c40\u6e6f\u897f\u5ddd\u30c0\u30e0\u5de5\u4e8b\u4e8b\u52d9\u6240","boring_xml_url":40,"boring_view_url":1,"soilmap_view_url":null,"soiltest_xml_url":0,"soiltest_view_url":0},{"id":158889,"code":"B4KJ201801004-7138","latitude":"36.96611278","longitude":"139.6153453","source_code":"KT55393459025","project_name":"","survey_name":"\u6e6f\u897f\u5ddd\u4e0b\u5730\u533a\u8b77\u5cb8\u4e88\u5099\u8a2d\u8a08\u696d\u52d9","client_name":"\u56fd\u571f\u4ea4\u901a\u7701\u95a2\u6771\u5730\u65b9\u6574\u5099\u5c40\u6e6f\u897f\u5ddd\u30c0\u30e0\u5de5\u4e8b\u4e8b\u52d9\u6240","boring_xml_url":40,"boring_view_url":1,"soilmap_view_url":null,"soiltest_xml_url":0,"soiltest_view_url":0},{"id":158888,"code":"B4KJ201801004-7137","latitude":"36.96641806","longitude":"139.6144289","source_code":"KT55393459024","project_name":"","survey_name":"\u6e6f\u897f\u5ddd\u4e0b\u5730\u533a\u8b77\u5cb8\u4e88\u5099\u8a2d\u8a08\u696d\u52d9","client_name":"\u56fd\u571f\u4ea4\u901a\u7701\u95a2\u6771\u5730\u65b9\u6574\u5099\u5c40\u6e6f\u897f\u5ddd\u30c0\u30e0\u5de5\u4e8b\u4e8b\u52d9\u6240","boring_xml_url":40,"boring_view_url":1,"soilmap_view_url":null,"soiltest_xml_url":0,"soiltest_view_url":0},{"id":158887,"code":"B4KJ201801004-7136","latitude":"36.96702917","longitude":"139.6129289","source_code":"KT55393459023","project_name":"","survey_name":"\u6e6f\u897f\u5ddd\u4e0b\u5730\u533a\u8b77\u5cb8\u4e88\u5099\u8a2d\u8a08\u696d\u52d9","client_name":"\u56fd\u571f\u4ea4\u901a\u7701\u95a2\u6771\u5730\u65b9\u6574\u5099\u5c40\u6e6f\u897f\u5ddd\u30c0\u30e0\u5de5\u4e8b\u4e8b\u52d9\u6240","boring_xml_url":40,"boring_view_url":1,"soilmap_view_url":null,"soiltest_xml_url":0,"soiltest_view_url":0},{"id":158886,"code":"B4KJ201801004-7135","latitude":"36.96669583","longitude":"139.6117067","source_code":"KT55393459022","project_name":"","survey_name":"\u6e6f\u897f\u5ddd\u4e0b\u5730\u533a\u8b77\u5cb8\u4e88\u5099\u8a2d\u8a08\u696d\u52d9","client_name":"\u56fd\u571f\u4ea4\u901a\u7701\u95a2\u6771\u5730\u65b9\u6574\u5099\u5c40\u6e6f\u897f\u5ddd\u30c0\u30e0\u5de5\u4e8b\u4e8b\u52d9\u6240","boring_xml_url":40,"boring_view_url":1,"soilmap_view_url":null,"soiltest_xml_url":0,"soiltest_view_url":0},{"id":158885,"code":"B4KJ201801004-7134","latitude":"36.95655833","longitude":"139.6200675","source_code":"KT55393449002","project_name":"","survey_name":"\u5e73\u62108\u5e74\u5ea6\u4ed8\u66ff\u770c\u90536\u53f7\u6a4b\u4e88\u5099\u8a2d\u8a08\u696d\u52d9","client_name":"\u56fd\u571f\u4ea4\u901a\u7701\u95a2\u6771\u5730\u65b9\u6574\u5099\u5c40\u6e6f\u897f\u5ddd\u30c0\u30e0\u5de5\u4e8b\u4e8b\u52d9\u6240","boring_xml_url":40,"boring_view_url":1,"soilmap_view_url":null,"soiltest_xml_url":0,"soiltest_view_url":0},{"id":158884,"code":"B4KJ201801004-7133","latitude":"36.95586389","longitude":"139.6200678","source_code":"KT55393449001","project_name":"","survey_name":"\u5e73\u62108\u5e74\u5ea6\u4ed8\u66ff\u770c\u90536\u53f7\u6a4b\u4e88\u5099\u8a2d\u8a08\u696d\u52d9","client_name":"\u56fd\u571f\u4ea4\u901a\u7701\u95a2\u6771\u5730\u65b9\u6574\u5099\u5c40\u6e6f\u897f\u5ddd\u30c0\u30e0\u5de5\u4e8b\u4e8b\u52d9\u6240","boring_xml_url":40,"boring_view_url":1,"soilmap_view_url":null,"soiltest_xml_url":0,"soiltest_view_url":0},{"id":158883,"code":"B4KJ201801004-7132","latitude":"36.90226139","longitude":"139.7046458","source_code":"KT55392576002","project_name":"","survey_name":"\u4e94+\u91cc\u30c0\u30e0\u5468\u8fba\u5730\u8cea\u8abf\u67fb","client_name":"\u56fd\u571f\u4ea4\u901a\u7701\u95a2\u6771\u5730\u65b9\u6574\u5099\u5c40\u9b3c\u6012\u5ddd\u30c0\u30e0\u7d71\u5408\u7ba1\u7406\u4e8b\u52d9\u6240","boring_xml_url":40,"boring_view_url":1,"soilmap_view_url":null,"soiltest_xml_url":0,"soiltest_view_url":0},{"id":158882,"code":"B4KJ201801004-7131","latitude":"36.90192806","longitude":"139.7048403","source_code":"KT55392576001","project_name":"","survey_name":"\u4e94+\u91cc\u30c0\u30e0\u5468\u8fba\u5730\u8cea\u8abf\u67fb","client_name":"\u56fd\u571f\u4ea4\u901a\u7701\u95a2\u6771\u5730\u65b9\u6574\u5099\u5c40\u9b3c\u6012\u5ddd\u30c0\u30e0\u7d71\u5408\u7ba1\u7406\u4e8b\u52d9\u6240","boring_xml_url":40,"boring_view_url":1,"soilmap_view_url":null,"soiltest_xml_url":0,"soiltest_view_url":0},{"id":158881,"code":"B4KJ201801004-7130","latitude":"36.90914389","longitude":"139.5017189","source_code":"KT55392480009","project_name":"","survey_name":"\u7121\u7802\u8c37\u7802\u9632\u30c0\u30e0\u5730\u8868\u5730\u8cea\u8abf\u67fb","client_name":"\u56fd\u571f\u4ea4\u901a\u7701\u95a2\u6771\u5730\u65b9\u6574\u5099\u5c40\u65e5\u5149\u7802\u9632\u4e8b\u52d9\u6240","boring_xml_url":40,"boring_view_url":1,"soilmap_view_url":null,"soiltest_xml_url":0,"soiltest_view_url":0},{"id":158880,"code":"B4KJ201801004-7129","latitude":"36.90894944","longitude":"139.50158","source_code":"KT55392480008","project_name":"","survey_name":"\u7121\u7802\u8c37\u7802\u9632\u30c0\u30e0\u5730\u8868\u5730\u8cea\u8abf\u67fb","client_name":"\u56fd\u571f\u4ea4\u901a\u7701\u95a2\u6771\u5730\u65b9\u6574\u5099\u5c40\u65e5\u5149\u7802\u9632\u4e8b\u52d9\u6240","boring_xml_url":40,"boring_view_url":1,"soilmap_view_url":null,"soiltest_xml_url":0,"soiltest_view_url":0},{"id":158879,"code":"B4KJ201801004-7128","latitude":"36.90892167","longitude":"139.5014411","source_code":"KT55392480007","project_name":"","survey_name":"\u7121\u7802\u8c37\u7802\u9632\u30c0\u30e0\u5730\u8868\u5730\u8cea\u8abf\u67fb","client_name":"\u56fd\u571f\u4ea4\u901a\u7701\u95a2\u6771\u5730\u65b9\u6574\u5099\u5c40\u65e5\u5149\u7802\u9632\u4e8b\u52d9\u6240","boring_xml_url":40,"boring_view_url":1,"soilmap_view_url":null,"soiltest_xml_url":0,"soiltest_view_url":0},{"id":158878,"code":"B4KJ201801004-7127","latitude":"36.90914389","longitude":"139.5014133","source_code":"KT55392480006","project_name":"","survey_name":"\u7121\u7802\u8c37\u7802\u9632\u30c0\u30e0\u5730\u8868\u5730\u8cea\u8abf\u67fb","client_name":"\u56fd\u571f\u4ea4\u901a\u7701\u95a2\u6771\u5730\u65b9\u6574\u5099\u5c40\u65e5\u5149\u7802\u9632\u4e8b\u52d9\u6240","boring_xml_url":40,"boring_view_url":1,"soilmap_view_url":null,"soiltest_xml_url":0,"soiltest_view_url":0},{"id":158877,"code":"B4KJ201801004-7126","latitude":"36.90942167","longitude":"139.5015244","source_code":"KT55392480005","project_name":"","survey_name":"\u7121\u7802\u8c37\u7802\u9632\u30c0\u30e0\u5730\u8868\u5730\u8cea\u8abf\u67fb","client_name":"\u56fd\u571f\u4ea4\u901a\u7701\u95a2\u6771\u5730\u65b9\u6574\u5099\u5c40\u65e5\u5149\u7802\u9632\u4e8b\u52d9\u6240","boring_xml_url":40,"boring_view_url":1,"soilmap_view_url":null,"soiltest_xml_url":0,"soiltest_view_url":0},{"id":158876,"code":"B4KJ201801004-7125","latitude":"36.90936611","longitude":"139.5013578","source_code":"KT55392480004","project_name":"","survey_name":"\u7121\u7802\u8c37\u7802\u9632\u30c0\u30e0\u5730\u8868\u5730\u8cea\u8abf\u67fb","client_name":"\u56fd\u571f\u4ea4\u901a\u7701\u95a2\u6771\u5730\u65b9\u6574\u5099\u5c40\u65e5\u5149\u7802\u9632\u4e8b\u52d9\u6240","boring_xml_url":40,"boring_view_url":1,"soilmap_view_url":null,"soiltest_xml_url":0,"soiltest_view_url":0}]}}