{"header":{"xyz":{"source":[],"mosaic":false},"page":5409,"raw":{"soiltest_result":"0","bbox":"57.598333,109.544722,1.933333,163.806111","page":"5409"},"conditions":{"soiltest_result":0,"north":57.598333,"west":109.544722,"south":1.933333,"east":163.806111},"success":true,"message":""},"data":{"meta":{"total":212844,"page":5409,"pages":7095,"count":30},"values":[{"id":158305,"code":"B4KJ201801004-6554","latitude":"36.51046556","longitude":"140.4568206","source_code":"KT54406306010","project_name":"","survey_name":"\u5e73\u621011\u5e74\u5ea6\u9053\u672c\u6a4b\u5730\u8cea\u8abf\u67fb\u696d\u52d9","client_name":"\u56fd\u571f\u4ea4\u901a\u7701\u95a2\u6771\u5730\u65b9\u6574\u5099\u5c40\u5e38\u9678\u6cb3\u5ddd\u56fd\u9053\u4e8b\u52d9\u6240","boring_xml_url":40,"boring_view_url":1,"soilmap_view_url":null,"soiltest_xml_url":0,"soiltest_view_url":0},{"id":158304,"code":"B4KJ201801004-6553","latitude":"36.51138194","longitude":"140.4539039","source_code":"KT54406306009","project_name":"","survey_name":"\u5e73\u621011\u5e74\u5ea6\u9053\u672c\u6a4b\u5730\u8cea\u8abf\u67fb\u696d\u52d9","client_name":"\u56fd\u571f\u4ea4\u901a\u7701\u95a2\u6771\u5730\u65b9\u6574\u5099\u5c40\u5e38\u9678\u6cb3\u5ddd\u56fd\u9053\u4e8b\u52d9\u6240","boring_xml_url":40,"boring_view_url":1,"soilmap_view_url":null,"soiltest_xml_url":0,"soiltest_view_url":0},{"id":158303,"code":"B4KJ201801004-6552","latitude":"36.51099333","longitude":"140.4554317","source_code":"KT54406306008","project_name":"","survey_name":"\u5e73\u621011\u5e74\u5ea6\u9053\u672c\u6a4b\u5730\u8cea\u8abf\u67fb\u696d\u52d9","client_name":"\u56fd\u571f\u4ea4\u901a\u7701\u95a2\u6771\u5730\u65b9\u6574\u5099\u5c40\u5e38\u9678\u6cb3\u5ddd\u56fd\u9053\u4e8b\u52d9\u6240","boring_xml_url":40,"boring_view_url":1,"soilmap_view_url":null,"soiltest_xml_url":0,"soiltest_view_url":0},{"id":158302,"code":"B4KJ201801004-6551","latitude":"36.51018778","longitude":"140.4573761","source_code":"KT54406306007","project_name":"","survey_name":"\u5e73\u621011\u5e74\u5ea6\u9053\u672c\u6a4b\u5730\u8cea\u8abf\u67fb\u696d\u52d9","client_name":"\u56fd\u571f\u4ea4\u901a\u7701\u95a2\u6771\u5730\u65b9\u6574\u5099\u5c40\u5e38\u9678\u6cb3\u5ddd\u56fd\u9053\u4e8b\u52d9\u6240","boring_xml_url":40,"boring_view_url":1,"soilmap_view_url":null,"soiltest_xml_url":0,"soiltest_view_url":0},{"id":158301,"code":"B4KJ201801004-6550","latitude":"36.51113222","longitude":"140.4569594","source_code":"KT54406306002","project_name":"","survey_name":"\u738b\u5ddd\u6392\u6c34\u6a0b\u7ba1\u8a2d\u8a08\u696d\u52d9\u59d4\u8a17(\u305d\u306e1)","client_name":"\u56fd\u571f\u4ea4\u901a\u7701\u95a2\u6771\u5730\u65b9\u6574\u5099\u5c40\u5e38\u9678\u6cb3\u5ddd\u56fd\u9053\u4e8b\u52d9\u6240","boring_xml_url":40,"boring_view_url":1,"soilmap_view_url":null,"soiltest_xml_url":0,"soiltest_view_url":0},{"id":158300,"code":"B4KJ201801004-6549","latitude":"36.51113222","longitude":"140.4569594","source_code":"KT54406306001","project_name":"","survey_name":"\u738b\u5ddd\u6392\u6c34\u6a0b\u7ba1\u8a2d\u8a08\u696d\u52d9\u59d4\u8a17(\u305d\u306e1)","client_name":"\u56fd\u571f\u4ea4\u901a\u7701\u95a2\u6771\u5730\u65b9\u6574\u5099\u5c40\u5e38\u9678\u6cb3\u5ddd\u56fd\u9053\u4e8b\u52d9\u6240","boring_xml_url":40,"boring_view_url":1,"soilmap_view_url":null,"soiltest_xml_url":0,"soiltest_view_url":0},{"id":158299,"code":"B4KJ201801004-6548","latitude":"36.51121361","longitude":"140.3874097","source_code":"KT54406301002","project_name":"","survey_name":"\u90a3\u73c2\u5ddd\u6d41\u57df\u5730\u8cea\u8abf\u67fb\u696d\u52d9","client_name":"\u56fd\u571f\u4ea4\u901a\u7701\u95a2\u6771\u5730\u65b9\u6574\u5099\u5c40\u5e38\u9678\u6cb3\u5ddd\u56fd\u9053\u4e8b\u52d9\u6240","boring_xml_url":40,"boring_view_url":1,"soilmap_view_url":null,"soiltest_xml_url":0,"soiltest_view_url":0},{"id":158298,"code":"B4KJ201801004-6547","latitude":"36.55342917","longitude":"140.3217467","source_code":"KT54406266002","project_name":"","survey_name":"\u90a3\u73c2\u5ddd\u5730\u8cea\u8abf\u67fb(\u305d\u306e2)","client_name":"\u56fd\u571f\u4ea4\u901a\u7701\u95a2\u6771\u5730\u65b9\u6574\u5099\u5c40\u5e38\u9678\u6cb3\u5ddd\u56fd\u9053\u4e8b\u52d9\u6240","boring_xml_url":40,"boring_view_url":1,"soilmap_view_url":null,"soiltest_xml_url":0,"soiltest_view_url":0},{"id":158297,"code":"B4KJ201801004-6546","latitude":"36.56015","longitude":"140.2975819","source_code":"KT54406264002","project_name":"","survey_name":"\u4e0b\u4f0a\u52e2\u7551\u6392\u6c34\u6a0b\u7ba1\u8a2d\u8a08\u696d\u52d9\u59d4\u8a17","client_name":"\u56fd\u571f\u4ea4\u901a\u7701\u95a2\u6771\u5730\u65b9\u6574\u5099\u5c40\u5e38\u9678\u6cb3\u5ddd\u56fd\u9053\u4e8b\u52d9\u6240","boring_xml_url":40,"boring_view_url":1,"soilmap_view_url":null,"soiltest_xml_url":0,"soiltest_view_url":0},{"id":158296,"code":"B4KJ201801004-6545","latitude":"36.56059444","longitude":"140.2975264","source_code":"KT54406264001","project_name":"","survey_name":"\u4e0b\u4f0a\u52e2\u7551\u6392\u6c34\u6a0b\u7ba1\u8a2d\u8a08\u696d\u52d9\u59d4\u8a17","client_name":"\u56fd\u571f\u4ea4\u901a\u7701\u95a2\u6771\u5730\u65b9\u6574\u5099\u5c40\u5e38\u9678\u6cb3\u5ddd\u56fd\u9053\u4e8b\u52d9\u6240","boring_xml_url":40,"boring_view_url":1,"soilmap_view_url":null,"soiltest_xml_url":0,"soiltest_view_url":0},{"id":158295,"code":"B4KJ201801004-6544","latitude":"36.54609722","longitude":"140.3415789","source_code":"KT54406257002","project_name":"","survey_name":"\u90a3\u73c2\u5ddd\u5730\u8cea\u8abf\u67fb(\u305d\u306e2)","client_name":"\u56fd\u571f\u4ea4\u901a\u7701\u95a2\u6771\u5730\u65b9\u6574\u5099\u5c40\u5e38\u9678\u6cb3\u5ddd\u56fd\u9053\u4e8b\u52d9\u6240","boring_xml_url":40,"boring_view_url":1,"soilmap_view_url":null,"soiltest_xml_url":0,"soiltest_view_url":0},{"id":158294,"code":"B4KJ201801004-6543","latitude":"36.54837444","longitude":"140.3323017","source_code":"KT54406256004","project_name":"","survey_name":"\u90a3\u73c2\u5ddd\u5730\u8cea\u8abf\u67fb(\u305d\u306e2)","client_name":"\u56fd\u571f\u4ea4\u901a\u7701\u95a2\u6771\u5730\u65b9\u6574\u5099\u5c40\u5e38\u9678\u6cb3\u5ddd\u56fd\u9053\u4e8b\u52d9\u6240","boring_xml_url":40,"boring_view_url":1,"soilmap_view_url":null,"soiltest_xml_url":0,"soiltest_view_url":0},{"id":158293,"code":"B4KJ201801004-6542","latitude":"36.5456525","longitude":"140.332385","source_code":"KT54406256003","project_name":"","survey_name":"\u90a3\u73c2\u5ddd\u5730\u8cea\u8abf\u67fb(\u305d\u306e2)","client_name":"\u56fd\u571f\u4ea4\u901a\u7701\u95a2\u6771\u5730\u65b9\u6574\u5099\u5c40\u5e38\u9678\u6cb3\u5ddd\u56fd\u9053\u4e8b\u52d9\u6240","boring_xml_url":40,"boring_view_url":1,"soilmap_view_url":null,"soiltest_xml_url":0,"soiltest_view_url":0},{"id":158292,"code":"B4KJ201801004-6541","latitude":"36.54406944","longitude":"140.3359961","source_code":"KT54406247002","project_name":"","survey_name":"\u90a3\u73c2\u5ddd\u5730\u8cea\u8abf\u67fb(\u305d\u306e2)","client_name":"\u56fd\u571f\u4ea4\u901a\u7701\u95a2\u6771\u5730\u65b9\u6574\u5099\u5c40\u5e38\u9678\u6cb3\u5ddd\u56fd\u9053\u4e8b\u52d9\u6240","boring_xml_url":40,"boring_view_url":1,"soilmap_view_url":null,"soiltest_xml_url":0,"soiltest_view_url":0},{"id":158291,"code":"B4KJ201801004-6540","latitude":"36.52857194","longitude":"140.3640775","source_code":"KT54406239003","project_name":"","survey_name":"\u5fd7\u6238\u5d0e\u5730\u533a\u57fa\u790e\u5730\u8cea\u8abf\u67fb","client_name":"\u56fd\u571f\u4ea4\u901a\u7701\u95a2\u6771\u5730\u65b9\u6574\u5099\u5c40\u971e\u30f6\u6d66\u6cb3\u5ddd\u4e8b\u52d9\u6240","boring_xml_url":40,"boring_view_url":1,"soilmap_view_url":null,"soiltest_xml_url":0,"soiltest_view_url":0},{"id":158290,"code":"B4KJ201801004-6539","latitude":"36.52932222","longitude":"140.3694939","source_code":"KT54406239002","project_name":"","survey_name":"\u5fd7\u6238\u5d0e\u5730\u533a\u57fa\u790e\u5730\u8cea\u8abf\u67fb","client_name":"\u56fd\u571f\u4ea4\u901a\u7701\u95a2\u6771\u5730\u65b9\u6574\u5099\u5c40\u971e\u30f6\u6d66\u6cb3\u5ddd\u4e8b\u52d9\u6240","boring_xml_url":40,"boring_view_url":1,"soilmap_view_url":null,"soiltest_xml_url":0,"soiltest_view_url":0},{"id":158289,"code":"B4KJ201801004-6538","latitude":"36.52935","longitude":"140.3692717","source_code":"KT54406239001","project_name":"","survey_name":"\u5fd7\u6238\u5d0e\u5730\u533a\u57fa\u790e\u5730\u8cea\u8abf\u67fb","client_name":"\u56fd\u571f\u4ea4\u901a\u7701\u95a2\u6771\u5730\u65b9\u6574\u5099\u5c40\u971e\u30f6\u6d66\u6cb3\u5ddd\u4e8b\u52d9\u6240","boring_xml_url":40,"boring_view_url":1,"soilmap_view_url":null,"soiltest_xml_url":0,"soiltest_view_url":0},{"id":158288,"code":"B4KJ201801004-6537","latitude":"36.53073833","longitude":"140.3553006","source_code":"KT54406238003","project_name":"","survey_name":"\u90a3\u73c2\u5ddd\u4e45\u6148\u5ddd\u5730\u8cea\u8abf\u67fb","client_name":"\u56fd\u571f\u4ea4\u901a\u7701\u95a2\u6771\u5730\u65b9\u6574\u5099\u5c40\u5e38\u9678\u6cb3\u5ddd\u56fd\u9053\u4e8b\u52d9\u6240","boring_xml_url":40,"boring_view_url":1,"soilmap_view_url":null,"soiltest_xml_url":0,"soiltest_view_url":0},{"id":158287,"code":"B4KJ201801004-6536","latitude":"36.53029389","longitude":"140.3555783","source_code":"KT54406238002","project_name":"","survey_name":"\u90a3\u73c2\u5ddd\u4e45\u6148\u5ddd\u5730\u8cea\u8abf\u67fb","client_name":"\u56fd\u571f\u4ea4\u901a\u7701\u95a2\u6771\u5730\u65b9\u6574\u5099\u5c40\u5e38\u9678\u6cb3\u5ddd\u56fd\u9053\u4e8b\u52d9\u6240","boring_xml_url":40,"boring_view_url":1,"soilmap_view_url":null,"soiltest_xml_url":0,"soiltest_view_url":0},{"id":158286,"code":"B4KJ201801004-6535","latitude":"36.52973833","longitude":"140.3561339","source_code":"KT54406238001","project_name":"","survey_name":"\u90a3\u73c2\u5ddd\u4e45\u6148\u5ddd\u5730\u8cea\u8abf\u67fb","client_name":"\u56fd\u571f\u4ea4\u901a\u7701\u95a2\u6771\u5730\u65b9\u6574\u5099\u5c40\u5e38\u9678\u6cb3\u5ddd\u56fd\u9053\u4e8b\u52d9\u6240","boring_xml_url":40,"boring_view_url":1,"soilmap_view_url":null,"soiltest_xml_url":0,"soiltest_view_url":0},{"id":158285,"code":"B4KJ201801004-6534","latitude":"36.52165639","longitude":"140.3665778","source_code":"KT54406229002","project_name":"","survey_name":"\u90a3\u73c2\u5ddd\u5730\u8cea\u8abf\u67fb(\u305d\u306e2)","client_name":"\u56fd\u571f\u4ea4\u901a\u7701\u95a2\u6771\u5730\u65b9\u6574\u5099\u5c40\u5e38\u9678\u6cb3\u5ddd\u56fd\u9053\u4e8b\u52d9\u6240","boring_xml_url":40,"boring_view_url":1,"soilmap_view_url":null,"soiltest_xml_url":0,"soiltest_view_url":0},{"id":158284,"code":"B4KJ201801004-6533","latitude":"36.52779417","longitude":"140.3570506","source_code":"KT54406228002","project_name":"","survey_name":"\u90a3\u73c2\u5ddd\u5730\u8cea\u8abf\u67fb(\u305d\u306e2)","client_name":"\u56fd\u571f\u4ea4\u901a\u7701\u95a2\u6771\u5730\u65b9\u6574\u5099\u5c40\u5e38\u9678\u6cb3\u5ddd\u56fd\u9053\u4e8b\u52d9\u6240","boring_xml_url":40,"boring_view_url":1,"soilmap_view_url":null,"soiltest_xml_url":0,"soiltest_view_url":0},{"id":158283,"code":"B4KJ201801004-6532","latitude":"36.51157389","longitude":"140.3639394","source_code":"KT54406219001","project_name":"","survey_name":"\u5fd7\u6238\u5d0e\u5730\u533a\u57fa\u790e\u5730\u8cea\u8abf\u67fb","client_name":"\u56fd\u571f\u4ea4\u901a\u7701\u95a2\u6771\u5730\u65b9\u6574\u5099\u5c40\u971e\u30f6\u6d66\u6cb3\u5ddd\u4e8b\u52d9\u6240","boring_xml_url":40,"boring_view_url":1,"soilmap_view_url":null,"soiltest_xml_url":0,"soiltest_view_url":0},{"id":158282,"code":"B4KJ201801004-6531","latitude":"36.49816417","longitude":"140.5600067","source_code":"KT54405495006","project_name":"","survey_name":"\u4e45\u6148\u5ddd\u30fb\u90a3\u73c2\u5ddd\u5730\u8cea\u8abf\u67fb(\u305d\u306e2)","client_name":"\u56fd\u571f\u4ea4\u901a\u7701\u95a2\u6771\u5730\u65b9\u6574\u5099\u5c40\u5e38\u9678\u6cb3\u5ddd\u56fd\u9053\u4e8b\u52d9\u6240","boring_xml_url":40,"boring_view_url":1,"soilmap_view_url":null,"soiltest_xml_url":0,"soiltest_view_url":0},{"id":158281,"code":"B4KJ201801004-6530","latitude":"36.49566472","longitude":"140.5691728","source_code":"KT54405495004","project_name":"","survey_name":"\u6771\u6d77\u30fb\u65e5\u7acb\u5730\u8cea\u8abf\u67fb","client_name":"\u56fd\u571f\u4ea4\u901a\u7701\u95a2\u6771\u5730\u65b9\u6574\u5099\u5c40\u5e38\u9678\u6cb3\u5ddd\u56fd\u9053\u4e8b\u52d9\u6240","boring_xml_url":40,"boring_view_url":1,"soilmap_view_url":null,"soiltest_xml_url":0,"soiltest_view_url":0},{"id":158280,"code":"B4KJ201801004-6529","latitude":"36.49899778","longitude":"140.5654228","source_code":"KT54405495003","project_name":"","survey_name":"\u6771\u6d77\u30fb\u65e5\u7acb\u5730\u8cea\u8abf\u67fb","client_name":"\u56fd\u571f\u4ea4\u901a\u7701\u95a2\u6771\u5730\u65b9\u6574\u5099\u5c40\u5e38\u9678\u6cb3\u5ddd\u56fd\u9053\u4e8b\u52d9\u6240","boring_xml_url":40,"boring_view_url":1,"soilmap_view_url":null,"soiltest_xml_url":0,"soiltest_view_url":0},{"id":158279,"code":"B4KJ201801004-6528","latitude":"36.50008056","longitude":"140.5570903","source_code":"KT54405494005","project_name":"","survey_name":"\u4e45\u6148\u5ddd\u5824\u9632\u8abf\u67fb","client_name":"\u56fd\u571f\u4ea4\u901a\u7701\u95a2\u6771\u5730\u65b9\u6574\u5099\u5c40\u5e38\u9678\u6cb3\u5ddd\u56fd\u9053\u4e8b\u52d9\u6240","boring_xml_url":40,"boring_view_url":1,"soilmap_view_url":null,"soiltest_xml_url":0,"soiltest_view_url":0},{"id":158278,"code":"B4KJ201801004-6527","latitude":"36.50005278","longitude":"140.5570625","source_code":"KT54405494004","project_name":"","survey_name":"\u4e45\u6148\u5ddd\u5824\u9632\u8abf\u67fb","client_name":"\u56fd\u571f\u4ea4\u901a\u7701\u95a2\u6771\u5730\u65b9\u6574\u5099\u5c40\u5e38\u9678\u6cb3\u5ddd\u56fd\u9053\u4e8b\u52d9\u6240","boring_xml_url":40,"boring_view_url":1,"soilmap_view_url":null,"soiltest_xml_url":0,"soiltest_view_url":0},{"id":158277,"code":"B4KJ201801004-6526","latitude":"36.50005278","longitude":"140.5570625","source_code":"KT54405494003","project_name":"","survey_name":"\u4e45\u6148\u5ddd\u5824\u9632\u8abf\u67fb","client_name":"\u56fd\u571f\u4ea4\u901a\u7701\u95a2\u6771\u5730\u65b9\u6574\u5099\u5c40\u5e38\u9678\u6cb3\u5ddd\u56fd\u9053\u4e8b\u52d9\u6240","boring_xml_url":40,"boring_view_url":1,"soilmap_view_url":null,"soiltest_xml_url":0,"soiltest_view_url":0},{"id":158276,"code":"B4KJ201801004-6525","latitude":"36.500025","longitude":"140.5570347","source_code":"KT54405494002","project_name":"","survey_name":"\u4e45\u6148\u5ddd\u5824\u9632\u8abf\u67fb","client_name":"\u56fd\u571f\u4ea4\u901a\u7701\u95a2\u6771\u5730\u65b9\u6574\u5099\u5c40\u5e38\u9678\u6cb3\u5ddd\u56fd\u9053\u4e8b\u52d9\u6240","boring_xml_url":40,"boring_view_url":1,"soilmap_view_url":null,"soiltest_xml_url":0,"soiltest_view_url":0}]}}