{"header":{"xyz":{"source":[],"mosaic":false},"page":5412,"raw":{"soiltest_result":"0","bbox":"57.598333,109.544722,1.933333,163.806111","page":"5412"},"conditions":{"soiltest_result":0,"north":57.598333,"west":109.544722,"south":1.933333,"east":163.806111},"success":true,"message":""},"data":{"meta":{"total":212844,"page":5412,"pages":7095,"count":30},"values":[{"id":158215,"code":"B4KJ201801004-6464","latitude":"36.44288861","longitude":"140.4130769","source_code":"KT54405323006","project_name":"","survey_name":"\u897f\u7530\u5ddd\u6c34\u9580\u5de5\u4e8b\u6e2c\u91cf\u53ca\u3073\u5730\u8cea\u8abf\u67fb","client_name":"\u56fd\u571f\u4ea4\u901a\u7701\u95a2\u6771\u5730\u65b9\u6574\u5099\u5c40\u5e38\u9678\u6cb3\u5ddd\u56fd\u9053\u4e8b\u52d9\u6240","boring_xml_url":40,"boring_view_url":1,"soilmap_view_url":null,"soiltest_xml_url":0,"soiltest_view_url":0},{"id":158214,"code":"B4KJ201801004-6463","latitude":"36.44038889","longitude":"140.4139106","source_code":"KT54405323005","project_name":"","survey_name":"\u85e4\u4e95\u5927\u6a4b\u5b9f\u65bd\u8a2d\u8a08\u696d\u52d9\u59d4\u8a17","client_name":"\u56fd\u571f\u4ea4\u901a\u7701\u95a2\u6771\u5730\u65b9\u6574\u5099\u5c40\u5e38\u9678\u6cb3\u5ddd\u56fd\u9053\u4e8b\u52d9\u6240","boring_xml_url":40,"boring_view_url":1,"soilmap_view_url":null,"soiltest_xml_url":0,"soiltest_view_url":0},{"id":158213,"code":"B4KJ201801004-6462","latitude":"36.44038889","longitude":"140.4139106","source_code":"KT54405323004","project_name":"","survey_name":"\u85e4\u4e95\u5927\u6a4b\u5b9f\u65bd\u8a2d\u8a08\u696d\u52d9\u59d4\u8a17","client_name":"\u56fd\u571f\u4ea4\u901a\u7701\u95a2\u6771\u5730\u65b9\u6574\u5099\u5c40\u5e38\u9678\u6cb3\u5ddd\u56fd\u9053\u4e8b\u52d9\u6240","boring_xml_url":40,"boring_view_url":1,"soilmap_view_url":null,"soiltest_xml_url":0,"soiltest_view_url":0},{"id":158212,"code":"B4KJ201801004-6461","latitude":"36.44038889","longitude":"140.4139106","source_code":"KT54405323003","project_name":"","survey_name":"\u85e4\u4e95\u5927\u6a4b\u5b9f\u65bd\u8a2d\u8a08\u696d\u52d9\u59d4\u8a17","client_name":"\u56fd\u571f\u4ea4\u901a\u7701\u95a2\u6771\u5730\u65b9\u6574\u5099\u5c40\u5e38\u9678\u6cb3\u5ddd\u56fd\u9053\u4e8b\u52d9\u6240","boring_xml_url":40,"boring_view_url":1,"soilmap_view_url":null,"soiltest_xml_url":0,"soiltest_view_url":0},{"id":158211,"code":"B4KJ201801004-6460","latitude":"36.44011111","longitude":"140.4135772","source_code":"KT54405323002","project_name":"","survey_name":"\u85e4\u4e95\u5927\u6a4b\u5b9f\u65bd\u8a2d\u8a08\u696d\u52d9\u59d4\u8a17","client_name":"\u56fd\u571f\u4ea4\u901a\u7701\u95a2\u6771\u5730\u65b9\u6574\u5099\u5c40\u5e38\u9678\u6cb3\u5ddd\u56fd\u9053\u4e8b\u52d9\u6240","boring_xml_url":40,"boring_view_url":1,"soilmap_view_url":null,"soiltest_xml_url":0,"soiltest_view_url":0},{"id":158210,"code":"B4KJ201801004-6459","latitude":"36.44038889","longitude":"140.4141881","source_code":"KT54405323001","project_name":"","survey_name":"\u85e4\u4e95\u5927\u6a4b\u5b9f\u65bd\u8a2d\u8a08\u696d\u52d9\u59d4\u8a17","client_name":"\u56fd\u571f\u4ea4\u901a\u7701\u95a2\u6771\u5730\u65b9\u6574\u5099\u5c40\u5e38\u9678\u6cb3\u5ddd\u56fd\u9053\u4e8b\u52d9\u6240","boring_xml_url":40,"boring_view_url":1,"soilmap_view_url":null,"soiltest_xml_url":0,"soiltest_view_url":0},{"id":158209,"code":"B4KJ201801004-6458","latitude":"36.42911278","longitude":"140.4222714","source_code":"KT54405314003","project_name":"","survey_name":"\u90a3\u73c2\u5ddd\u6d41\u57df\u5730\u8cea\u8abf\u67fb\u696d\u52d9","client_name":"\u56fd\u571f\u4ea4\u901a\u7701\u95a2\u6771\u5730\u65b9\u6574\u5099\u5c40\u5e38\u9678\u6cb3\u5ddd\u56fd\u9053\u4e8b\u52d9\u6240","boring_xml_url":40,"boring_view_url":1,"soilmap_view_url":null,"soiltest_xml_url":0,"soiltest_view_url":0},{"id":158208,"code":"B4KJ201801004-6457","latitude":"36.43230694","longitude":"140.4259653","source_code":"KT54405314001","project_name":"","survey_name":"\u4f4e\u6c34\u8b77\u5cb8\u5730\u8cea\u8abf\u67fb\u696d\u52d9","client_name":"\u56fd\u571f\u4ea4\u901a\u7701\u95a2\u6771\u5730\u65b9\u6574\u5099\u5c40\u5e38\u9678\u6cb3\u5ddd\u56fd\u9053\u4e8b\u52d9\u6240","boring_xml_url":40,"boring_view_url":1,"soilmap_view_url":null,"soiltest_xml_url":0,"soiltest_view_url":0},{"id":158207,"code":"B4KJ201801004-6456","latitude":"36.43291778","longitude":"140.4211878","source_code":"KT54405313002","project_name":"","survey_name":"\u90a3\u73c2\u5ddd\u6d41\u57df\u5730\u8cea\u8abf\u67fb\u696d\u52d9","client_name":"\u56fd\u571f\u4ea4\u901a\u7701\u95a2\u6771\u5730\u65b9\u6574\u5099\u5c40\u5e38\u9678\u6cb3\u5ddd\u56fd\u9053\u4e8b\u52d9\u6240","boring_xml_url":40,"boring_view_url":1,"soilmap_view_url":null,"soiltest_xml_url":0,"soiltest_view_url":0},{"id":158206,"code":"B4KJ201801004-6455","latitude":"36.42264139","longitude":"140.42941","source_code":"KT54405304002","project_name":"","survey_name":"\u4f4e\u6c34\u8b77\u5cb8\u5730\u8cea\u8abf\u67fb\u696d\u52d9","client_name":"\u56fd\u571f\u4ea4\u901a\u7701\u95a2\u6771\u5730\u65b9\u6574\u5099\u5c40\u5e38\u9678\u6cb3\u5ddd\u56fd\u9053\u4e8b\u52d9\u6240","boring_xml_url":40,"boring_view_url":1,"soilmap_view_url":null,"soiltest_xml_url":0,"soiltest_view_url":0},{"id":158205,"code":"B4KJ201801004-6454","latitude":"36.42241917","longitude":"140.4258547","source_code":"KT54405304001","project_name":"","survey_name":"\u90a3\u73c2\u5ddd\u4e0b\u6d41\u5824\u9632\u5730\u8cea\u8abf\u67fb\u696d\u52d9","client_name":"\u56fd\u571f\u4ea4\u901a\u7701\u95a2\u6771\u5730\u65b9\u6574\u5099\u5c40\u5e38\u9678\u6cb3\u5ddd\u56fd\u9053\u4e8b\u52d9\u6240","boring_xml_url":40,"boring_view_url":1,"soilmap_view_url":null,"soiltest_xml_url":0,"soiltest_view_url":0},{"id":158204,"code":"B4KJ201801004-6453","latitude":"36.42849167","longitude":"140.0594967","source_code":"KT54405015002","project_name":"","survey_name":"\u68ee\u306e\u6728\u571f\u8cea\u8abf\u67fb","client_name":"\u56fd\u571f\u4ea4\u901a\u7701\u95a2\u6771\u5730\u65b9\u6574\u5099\u5c40\u4e0b\u9928\u6cb3\u5ddd\u4e8b\u52d9\u6240","boring_xml_url":40,"boring_view_url":1,"soilmap_view_url":null,"soiltest_xml_url":0,"soiltest_view_url":0},{"id":158203,"code":"B4KJ201801004-6452","latitude":"36.43232472","longitude":"140.0654683","source_code":"KT54405015001","project_name":"","survey_name":"\u68ee\u306e\u6728\u571f\u8cea\u8abf\u67fb","client_name":"\u56fd\u571f\u4ea4\u901a\u7701\u95a2\u6771\u5730\u65b9\u6574\u5099\u5c40\u4e0b\u9928\u6cb3\u5ddd\u4e8b\u52d9\u6240","boring_xml_url":40,"boring_view_url":1,"soilmap_view_url":null,"soiltest_xml_url":0,"soiltest_view_url":0},{"id":158202,"code":"B4KJ201801004-6451","latitude":"36.395455","longitude":"140.6067847","source_code":"KT54404478005","project_name":"","survey_name":"\u30b5\u30f3\u30c9\u30df\u30e5\u30fc\u30b8\u30a2\u30e0\u5730\u8cea\u8abf\u67fb","client_name":"\u56fd\u571f\u4ea4\u901a\u7701\u95a2\u6771\u5730\u65b9\u6574\u5099\u5c40\u5e38\u9678\u6d77\u6d5c\u516c\u5712\u4e8b\u52d9\u6240","boring_xml_url":40,"boring_view_url":1,"soilmap_view_url":null,"soiltest_xml_url":0,"soiltest_view_url":0},{"id":158201,"code":"B4KJ201801004-6450","latitude":"36.39514944","longitude":"140.6058128","source_code":"KT54404478004","project_name":"","survey_name":"\u30b5\u30f3\u30c9\u30df\u30e5\u30fc\u30b8\u30a2\u30e0\u5730\u8cea\u8abf\u67fb","client_name":"\u56fd\u571f\u4ea4\u901a\u7701\u95a2\u6771\u5730\u65b9\u6574\u5099\u5c40\u5e38\u9678\u6d77\u6d5c\u516c\u5712\u4e8b\u52d9\u6240","boring_xml_url":40,"boring_view_url":1,"soilmap_view_url":null,"soiltest_xml_url":0,"soiltest_view_url":0},{"id":158200,"code":"B4KJ201801004-6449","latitude":"36.39551056","longitude":"140.6057017","source_code":"KT54404478003","project_name":"","survey_name":"\u30b5\u30f3\u30c9\u30df\u30e5\u30fc\u30b8\u30a2\u30e0\u5730\u8cea\u8abf\u67fb","client_name":"\u56fd\u571f\u4ea4\u901a\u7701\u95a2\u6771\u5730\u65b9\u6574\u5099\u5c40\u5e38\u9678\u6d77\u6d5c\u516c\u5712\u4e8b\u52d9\u6240","boring_xml_url":40,"boring_view_url":1,"soilmap_view_url":null,"soiltest_xml_url":0,"soiltest_view_url":0},{"id":158199,"code":"B4KJ201801004-6448","latitude":"36.39528833","longitude":"140.6054517","source_code":"KT54404478002","project_name":"","survey_name":"\u30b5\u30f3\u30c9\u30df\u30e5\u30fc\u30b8\u30a2\u30e0\u5730\u8cea\u8abf\u67fb","client_name":"\u56fd\u571f\u4ea4\u901a\u7701\u95a2\u6771\u5730\u65b9\u6574\u5099\u5c40\u5e38\u9678\u6d77\u6d5c\u516c\u5712\u4e8b\u52d9\u6240","boring_xml_url":40,"boring_view_url":1,"soilmap_view_url":null,"soiltest_xml_url":0,"soiltest_view_url":0},{"id":158198,"code":"B4KJ201801004-6447","latitude":"36.39459389","longitude":"140.6076181","source_code":"KT54404468002","project_name":"","survey_name":"\u30b5\u30f3\u30c9\u30df\u30e5\u30fc\u30b8\u30a2\u30e0\u5730\u8cea\u8abf\u67fb","client_name":"\u56fd\u571f\u4ea4\u901a\u7701\u95a2\u6771\u5730\u65b9\u6574\u5099\u5c40\u5e38\u9678\u6d77\u6d5c\u516c\u5712\u4e8b\u52d9\u6240","boring_xml_url":40,"boring_view_url":1,"soilmap_view_url":null,"soiltest_xml_url":0,"soiltest_view_url":0},{"id":158197,"code":"B4KJ201801004-6446","latitude":"36.394455","longitude":"140.6059517","source_code":"KT54404468001","project_name":"","survey_name":"\u30b5\u30f3\u30c9\u30df\u30e5\u30fc\u30b8\u30a2\u30e0\u5730\u8cea\u8abf\u67fb","client_name":"\u56fd\u571f\u4ea4\u901a\u7701\u95a2\u6771\u5730\u65b9\u6574\u5099\u5c40\u5e38\u9678\u6d77\u6d5c\u516c\u5712\u4e8b\u52d9\u6240","boring_xml_url":40,"boring_view_url":1,"soilmap_view_url":null,"soiltest_xml_url":0,"soiltest_view_url":0},{"id":158196,"code":"B4KJ201801004-6445","latitude":"36.38776083","longitude":"140.5813983","source_code":"KT54404466002","project_name":"","survey_name":"\u6a2a\u65ad\u6a4b\u95a2\u9023\u6e2c\u91cf\u5730\u8cea\u8abf\u67fb","client_name":"\u56fd\u571f\u4ea4\u901a\u7701\u95a2\u6771\u5730\u65b9\u6574\u5099\u5c40\u5e38\u9678\u6d77\u6d5c\u516c\u5712\u4e8b\u52d9\u6240","boring_xml_url":40,"boring_view_url":1,"soilmap_view_url":null,"soiltest_xml_url":0,"soiltest_view_url":0},{"id":158195,"code":"B4KJ201801004-6444","latitude":"36.38773306","longitude":"140.581065","source_code":"KT54404466001","project_name":"","survey_name":"\u6a2a\u65ad\u6a4b\u95a2\u9023\u6e2c\u91cf\u5730\u8cea\u8abf\u67fb","client_name":"\u56fd\u571f\u4ea4\u901a\u7701\u95a2\u6771\u5730\u65b9\u6574\u5099\u5c40\u5e38\u9678\u6d77\u6d5c\u516c\u5712\u4e8b\u52d9\u6240","boring_xml_url":40,"boring_view_url":1,"soilmap_view_url":null,"soiltest_xml_url":0,"soiltest_view_url":0},{"id":158194,"code":"B4KJ201801004-6443","latitude":"36.37840056","longitude":"140.5780103","source_code":"KT54404456001","project_name":"","survey_name":"\u6771\u6c34\u6238\u9053\u8def(5)\u5730\u8cea\u8abf\u67fb","client_name":"\u56fd\u571f\u4ea4\u901a\u7701\u95a2\u6771\u5730\u65b9\u6574\u5099\u5c40\u5e38\u9678\u6cb3\u5ddd\u56fd\u9053\u4e8b\u52d9\u6240","boring_xml_url":40,"boring_view_url":1,"soilmap_view_url":null,"soiltest_xml_url":0,"soiltest_view_url":0},{"id":158193,"code":"B4KJ201801004-6442","latitude":"36.37873167","longitude":"140.5022389","source_code":"KT54404450004","project_name":"","survey_name":"\u4e45\u6148\u5ddd\u30fb\u90a3\u73c2\u5ddd\u5730\u8cea\u8abf\u67fb(\u305d\u306e2)","client_name":"\u56fd\u571f\u4ea4\u901a\u7701\u95a2\u6771\u5730\u65b9\u6574\u5099\u5c40\u5e38\u9678\u6cb3\u5ddd\u56fd\u9053\u4e8b\u52d9\u6240","boring_xml_url":40,"boring_view_url":1,"soilmap_view_url":null,"soiltest_xml_url":0,"soiltest_view_url":0},{"id":158192,"code":"B4KJ201801004-6441","latitude":"36.38131472","longitude":"140.4987669","source_code":"KT54404450002","project_name":"","survey_name":"\u90a3\u73c2\u5ddd\u707d\u5bb3\u95a2\u9023\u5730\u8cea\u8abf\u67fb","client_name":"\u56fd\u571f\u4ea4\u901a\u7701\u95a2\u6771\u5730\u65b9\u6574\u5099\u5c40\u5e38\u9678\u6cb3\u5ddd\u56fd\u9053\u4e8b\u52d9\u6240","boring_xml_url":40,"boring_view_url":1,"soilmap_view_url":null,"soiltest_xml_url":0,"soiltest_view_url":0},{"id":158191,"code":"B4KJ201801004-6440","latitude":"36.3705125","longitude":"140.5724278","source_code":"KT54404446023","project_name":"","survey_name":"\u6771\u6c34\u6238\u9053\u8def?\u5de5\u533a\u5730\u8cea\u8abf\u67fb","client_name":"\u56fd\u571f\u4ea4\u901a\u7701\u95a2\u6771\u5730\u65b9\u6574\u5099\u5c40\u5e38\u9678\u6cb3\u5ddd\u56fd\u9053\u4e8b\u52d9\u6240","boring_xml_url":40,"boring_view_url":1,"soilmap_view_url":null,"soiltest_xml_url":0,"soiltest_view_url":0},{"id":158190,"code":"B4KJ201801004-6439","latitude":"36.37062361","longitude":"140.5722889","source_code":"KT54404446022","project_name":"","survey_name":"\u6771\u6c34\u6238\u9053\u8def?\u5de5\u533a\u5730\u8cea\u8abf\u67fb","client_name":"\u56fd\u571f\u4ea4\u901a\u7701\u95a2\u6771\u5730\u65b9\u6574\u5099\u5c40\u5e38\u9678\u6cb3\u5ddd\u56fd\u9053\u4e8b\u52d9\u6240","boring_xml_url":40,"boring_view_url":1,"soilmap_view_url":null,"soiltest_xml_url":0,"soiltest_view_url":0},{"id":158189,"code":"B4KJ201801004-6438","latitude":"36.37062361","longitude":"140.5720667","source_code":"KT54404446021","project_name":"","survey_name":"\u6771\u6c34\u6238\u9053\u8def?\u5de5\u533a\u5730\u8cea\u8abf\u67fb","client_name":"\u56fd\u571f\u4ea4\u901a\u7701\u95a2\u6771\u5730\u65b9\u6574\u5099\u5c40\u5e38\u9678\u6cb3\u5ddd\u56fd\u9053\u4e8b\u52d9\u6240","boring_xml_url":40,"boring_view_url":1,"soilmap_view_url":null,"soiltest_xml_url":0,"soiltest_view_url":0},{"id":158188,"code":"B4KJ201801004-6437","latitude":"36.37040139","longitude":"140.5721222","source_code":"KT54404446020","project_name":"","survey_name":"\u6771\u6c34\u6238\u9053\u8def?\u5de5\u533a\u5730\u8cea\u8abf\u67fb","client_name":"\u56fd\u571f\u4ea4\u901a\u7701\u95a2\u6771\u5730\u65b9\u6574\u5099\u5c40\u5e38\u9678\u6cb3\u5ddd\u56fd\u9053\u4e8b\u52d9\u6240","boring_xml_url":40,"boring_view_url":1,"soilmap_view_url":null,"soiltest_xml_url":0,"soiltest_view_url":0},{"id":158187,"code":"B4KJ201801004-6436","latitude":"36.3705125","longitude":"140.5719556","source_code":"KT54404446019","project_name":"","survey_name":"\u6771\u6c34\u6238\u9053\u8def?\u5de5\u533a\u5730\u8cea\u8abf\u67fb","client_name":"\u56fd\u571f\u4ea4\u901a\u7701\u95a2\u6771\u5730\u65b9\u6574\u5099\u5c40\u5e38\u9678\u6cb3\u5ddd\u56fd\u9053\u4e8b\u52d9\u6240","boring_xml_url":40,"boring_view_url":1,"soilmap_view_url":null,"soiltest_xml_url":0,"soiltest_view_url":0},{"id":158186,"code":"B4KJ201801004-6435","latitude":"36.37017917","longitude":"140.5719556","source_code":"KT54404446018","project_name":"","survey_name":"\u6771\u6c34\u6238\u9053\u8def?\u5de5\u533a\u5730\u8cea\u8abf\u67fb","client_name":"\u56fd\u571f\u4ea4\u901a\u7701\u95a2\u6771\u5730\u65b9\u6574\u5099\u5c40\u5e38\u9678\u6cb3\u5ddd\u56fd\u9053\u4e8b\u52d9\u6240","boring_xml_url":40,"boring_view_url":1,"soilmap_view_url":null,"soiltest_xml_url":0,"soiltest_view_url":0}]}}