{"header":{"xyz":{"source":[],"mosaic":false},"page":5418,"raw":{"soiltest_result":"0","bbox":"57.598333,109.544722,1.933333,163.806111","page":"5418"},"conditions":{"soiltest_result":0,"north":57.598333,"west":109.544722,"south":1.933333,"east":163.806111},"success":true,"message":""},"data":{"meta":{"total":212844,"page":5418,"pages":7095,"count":30},"values":[{"id":158035,"code":"B4KJ201801004-6284","latitude":"36.39317333","longitude":"140.4598808","source_code":"KT54404367010","project_name":"","survey_name":"\u90a3\u73c2\u5ddd\u4e0b\u6d41\u5824\u9632\u5730\u8cea\u8abf\u67fb\u696d\u52d9","client_name":"\u56fd\u571f\u4ea4\u901a\u7701\u95a2\u6771\u5730\u65b9\u6574\u5099\u5c40\u5e38\u9678\u6cb3\u5ddd\u56fd\u9053\u4e8b\u52d9\u6240","boring_xml_url":40,"boring_view_url":1,"soilmap_view_url":null,"soiltest_xml_url":0,"soiltest_view_url":0},{"id":158034,"code":"B4KJ201801004-6283","latitude":"36.3887575","longitude":"140.4689081","source_code":"KT54404367009","project_name":"","survey_name":"\u90a3\u73c2\u5ddd\u4e0b\u6d41\u5824\u9632\u5730\u8cea\u8abf\u67fb\u696d\u52d9","client_name":"\u56fd\u571f\u4ea4\u901a\u7701\u95a2\u6771\u5730\u65b9\u6574\u5099\u5c40\u5e38\u9678\u6cb3\u5ddd\u56fd\u9053\u4e8b\u52d9\u6240","boring_xml_url":40,"boring_view_url":1,"soilmap_view_url":null,"soiltest_xml_url":0,"soiltest_view_url":0},{"id":158033,"code":"B4KJ201801004-6282","latitude":"36.38764667","longitude":"140.4715744","source_code":"KT54404367008","project_name":"","survey_name":"\u90a3\u73c2\u5ddd(\u4e0b\u6d41\u90e8)\u57fa\u790e\u5730\u8cea\u8abf\u67fb","client_name":"\u56fd\u571f\u4ea4\u901a\u7701\u95a2\u6771\u5730\u65b9\u6574\u5099\u5c40\u971e\u30f6\u6d66\u5c0e\u6c34\u5de5\u4e8b\u4e8b\u52d9\u6240","boring_xml_url":40,"boring_view_url":1,"soilmap_view_url":null,"soiltest_xml_url":0,"soiltest_view_url":0},{"id":158032,"code":"B4KJ201801004-6281","latitude":"36.39361778","longitude":"140.4604361","source_code":"KT54404367007","project_name":"","survey_name":"\u90a3\u73c2\u5ddd\u4e45\u6148\u5ddd\u5730\u8cea\u8abf\u67fb","client_name":"\u56fd\u571f\u4ea4\u901a\u7701\u95a2\u6771\u5730\u65b9\u6574\u5099\u5c40\u5e38\u9678\u6cb3\u5ddd\u56fd\u9053\u4e8b\u52d9\u6240","boring_xml_url":40,"boring_view_url":1,"soilmap_view_url":null,"soiltest_xml_url":0,"soiltest_view_url":0},{"id":158031,"code":"B4KJ201801004-6280","latitude":"36.39259028","longitude":"140.4606586","source_code":"KT54404367006","project_name":"","survey_name":"\u6839\u672c\u7528\u6c34\u65bd\u8a2d\u8a2d\u8a08\u696d\u52d9\u59d4\u8a17","client_name":"\u56fd\u571f\u4ea4\u901a\u7701\u95a2\u6771\u5730\u65b9\u6574\u5099\u5c40\u5e38\u9678\u6cb3\u5ddd\u56fd\u9053\u4e8b\u52d9\u6240","boring_xml_url":40,"boring_view_url":1,"soilmap_view_url":null,"soiltest_xml_url":0,"soiltest_view_url":0},{"id":158030,"code":"B4KJ201801004-6279","latitude":"36.39195139","longitude":"140.4603531","source_code":"KT54404367005","project_name":"","survey_name":"\u6839\u672c\u7528\u6c34\u65bd\u8a2d\u8a2d\u8a08\u696d\u52d9\u59d4\u8a17","client_name":"\u56fd\u571f\u4ea4\u901a\u7701\u95a2\u6771\u5730\u65b9\u6574\u5099\u5c40\u5e38\u9678\u6cb3\u5ddd\u56fd\u9053\u4e8b\u52d9\u6240","boring_xml_url":40,"boring_view_url":1,"soilmap_view_url":null,"soiltest_xml_url":0,"soiltest_view_url":0},{"id":158029,"code":"B4KJ201801004-6278","latitude":"36.38814639","longitude":"140.4655194","source_code":"KT54404367003","project_name":"","survey_name":"\u6839\u672c\u6392\u6c34\u6a0b\u7ba1\u8a2d\u8a08\u696d\u52d9\u59d4\u8a17","client_name":"\u56fd\u571f\u4ea4\u901a\u7701\u95a2\u6771\u5730\u65b9\u6574\u5099\u5c40\u5e38\u9678\u6cb3\u5ddd\u56fd\u9053\u4e8b\u52d9\u6240","boring_xml_url":40,"boring_view_url":1,"soilmap_view_url":null,"soiltest_xml_url":0,"soiltest_view_url":0},{"id":158028,"code":"B4KJ201801004-6277","latitude":"36.3887575","longitude":"140.4664081","source_code":"KT54404367002","project_name":"","survey_name":"\u6839\u672c\u6392\u6c34\u6a0b\u7ba1\u8a2d\u8a08\u696d\u52d9\u59d4\u8a17","client_name":"\u56fd\u571f\u4ea4\u901a\u7701\u95a2\u6771\u5730\u65b9\u6574\u5099\u5c40\u5e38\u9678\u6cb3\u5ddd\u56fd\u9053\u4e8b\u52d9\u6240","boring_xml_url":40,"boring_view_url":1,"soilmap_view_url":null,"soiltest_xml_url":0,"soiltest_view_url":0},{"id":158027,"code":"B4KJ201801004-6276","latitude":"36.38914611","longitude":"140.4656583","source_code":"KT54404367001","project_name":"","survey_name":"\u6839\u672c\u6392\u6c34\u6a0b\u7ba1\u8a2d\u8a08\u696d\u52d9\u59d4\u8a17","client_name":"\u56fd\u571f\u4ea4\u901a\u7701\u95a2\u6771\u5730\u65b9\u6574\u5099\u5c40\u5e38\u9678\u6cb3\u5ddd\u56fd\u9053\u4e8b\u52d9\u6240","boring_xml_url":40,"boring_view_url":1,"soilmap_view_url":null,"soiltest_xml_url":0,"soiltest_view_url":0},{"id":158026,"code":"B4KJ201801004-6275","latitude":"36.39150611","longitude":"140.4289111","source_code":"KT54404364005","project_name":"","survey_name":"\u6c34\u6238\u5730\u533a\u57fa\u790e\u5730\u8cea\u8abf\u67fb\u305d\u306e20","client_name":"\u56fd\u571f\u4ea4\u901a\u7701\u95a2\u6771\u5730\u65b9\u6574\u5099\u5c40\u971e\u30f6\u6d66\u5c0e\u6c34\u5de5\u4e8b\u4e8b\u52d9\u6240","boring_xml_url":40,"boring_view_url":1,"soilmap_view_url":null,"soiltest_xml_url":0,"soiltest_view_url":0},{"id":158025,"code":"B4KJ201801004-6274","latitude":"36.39150611","longitude":"140.4291889","source_code":"KT54404364003","project_name":"","survey_name":"\u6c34\u6238\u5730\u533a\u57fa\u790e\u5730\u8cea\u8abf\u67fb\u305d\u306e12","client_name":"\u56fd\u571f\u4ea4\u901a\u7701\u95a2\u6771\u5730\u65b9\u6574\u5099\u5c40\u971e\u30f6\u6d66\u5c0e\u6c34\u5de5\u4e8b\u4e8b\u52d9\u6240","boring_xml_url":40,"boring_view_url":1,"soilmap_view_url":null,"soiltest_xml_url":0,"soiltest_view_url":0},{"id":158024,"code":"B4KJ201801004-6273","latitude":"36.39056167","longitude":"140.4308556","source_code":"KT54404364002","project_name":"","survey_name":"\u6c34\u6238\u5730\u533a\u57fa\u790e\u5730\u8cea\u8abf\u67fb\u305d\u306e11","client_name":"\u56fd\u571f\u4ea4\u901a\u7701\u95a2\u6771\u5730\u65b9\u6574\u5099\u5c40\u971e\u30f6\u6d66\u5c0e\u6c34\u5de5\u4e8b\u4e8b\u52d9\u6240","boring_xml_url":40,"boring_view_url":1,"soilmap_view_url":null,"soiltest_xml_url":0,"soiltest_view_url":0},{"id":158023,"code":"B4KJ201801004-6272","latitude":"36.3811475","longitude":"140.4776019","source_code":"KT54404358004","project_name":"","survey_name":"\u90a3\u73c2\u5ddd\u4e0b\u6d41\u5824\u9632\u5730\u8cea\u8abf\u67fb\u696d\u52d9","client_name":"\u56fd\u571f\u4ea4\u901a\u7701\u95a2\u6771\u5730\u65b9\u6574\u5099\u5c40\u5e38\u9678\u6cb3\u5ddd\u56fd\u9053\u4e8b\u52d9\u6240","boring_xml_url":40,"boring_view_url":1,"soilmap_view_url":null,"soiltest_xml_url":0,"soiltest_view_url":0},{"id":158022,"code":"B4KJ201801004-6271","latitude":"36.3811475","longitude":"140.4776575","source_code":"KT54404358003","project_name":"","survey_name":"\u90a3\u73c2\u5ddd\u4e0b\u6d41\u5824\u9632\u5730\u8cea\u8abf\u67fb\u696d\u52d9","client_name":"\u56fd\u571f\u4ea4\u901a\u7701\u95a2\u6771\u5730\u65b9\u6574\u5099\u5c40\u5e38\u9678\u6cb3\u5ddd\u56fd\u9053\u4e8b\u52d9\u6240","boring_xml_url":40,"boring_view_url":1,"soilmap_view_url":null,"soiltest_xml_url":0,"soiltest_view_url":0},{"id":158021,"code":"B4KJ201801004-6270","latitude":"36.38000889","longitude":"140.4807128","source_code":"KT54404358002","project_name":"","survey_name":"\u4f4e\u6c34\u8b77\u5cb8\u5730\u8cea\u8abf\u67fb\u696d\u52d9","client_name":"\u56fd\u571f\u4ea4\u901a\u7701\u95a2\u6771\u5730\u65b9\u6574\u5099\u5c40\u5e38\u9678\u6cb3\u5ddd\u56fd\u9053\u4e8b\u52d9\u6240","boring_xml_url":40,"boring_view_url":1,"soilmap_view_url":null,"soiltest_xml_url":0,"soiltest_view_url":0},{"id":158020,"code":"B4KJ201801004-6269","latitude":"36.38464694","longitude":"140.4773797","source_code":"KT54404358001","project_name":"","survey_name":"\u90a3\u73c2\u5ddd\u4e0b\u6d41\u90e8\u5730\u8cea\u8abf\u67fb","client_name":"\u56fd\u571f\u4ea4\u901a\u7701\u95a2\u6771\u5730\u65b9\u6574\u5099\u5c40\u5e38\u9678\u6cb3\u5ddd\u56fd\u9053\u4e8b\u52d9\u6240","boring_xml_url":40,"boring_view_url":1,"soilmap_view_url":null,"soiltest_xml_url":0,"soiltest_view_url":0},{"id":158019,"code":"B4KJ201801004-6268","latitude":"36.37872944","longitude":"140.4222456","source_code":"KT54404354006","project_name":"","survey_name":"\u6c34\u6238\u5730\u533a\u57fa\u790e\u5730\u8cea\u8abf\u67fb\u305d\u306e20","client_name":"\u56fd\u571f\u4ea4\u901a\u7701\u95a2\u6771\u5730\u65b9\u6574\u5099\u5c40\u971e\u30f6\u6d66\u5c0e\u6c34\u5de5\u4e8b\u4e8b\u52d9\u6240","boring_xml_url":40,"boring_view_url":1,"soilmap_view_url":null,"soiltest_xml_url":0,"soiltest_view_url":0},{"id":158018,"code":"B4KJ201801004-6267","latitude":"36.38261806","longitude":"140.4239119","source_code":"KT54404354003","project_name":"","survey_name":"\u6c34\u6238\u5730\u533a\u57fa\u790e\u5730\u8cea\u8abf\u67fb\u305d\u306e20","client_name":"\u56fd\u571f\u4ea4\u901a\u7701\u95a2\u6771\u5730\u65b9\u6574\u5099\u5c40\u971e\u30f6\u6d66\u5c0e\u6c34\u5de5\u4e8b\u4e8b\u52d9\u6240","boring_xml_url":40,"boring_view_url":1,"soilmap_view_url":null,"soiltest_xml_url":0,"soiltest_view_url":0},{"id":158017,"code":"B4KJ201801004-6266","latitude":"36.37992389","longitude":"140.4225233","source_code":"KT54404354001","project_name":"","survey_name":"\u6c34\u6238\u5730\u533a\u57fa\u790e\u5730\u8cea\u8abf\u67fb\u305d\u306e10","client_name":"\u56fd\u571f\u4ea4\u901a\u7701\u95a2\u6771\u5730\u65b9\u6574\u5099\u5c40\u971e\u30f6\u6d66\u5c0e\u6c34\u5de5\u4e8b\u4e8b\u52d9\u6240","boring_xml_url":40,"boring_view_url":1,"soilmap_view_url":null,"soiltest_xml_url":0,"soiltest_view_url":0},{"id":158016,"code":"B4KJ201801004-6265","latitude":"36.38233972","longitude":"140.4029417","source_code":"KT54404352005","project_name":"","survey_name":"50\u53f7\u6c34\u6238\u30d0\u30a4\u30d1\u30b9(\u5927\u585a\u5730\u533a)","client_name":"\u56fd\u571f\u4ea4\u901a\u7701\u95a2\u6771\u5730\u65b9\u6574\u5099\u5c40\u5e38\u9678\u6cb3\u5ddd\u56fd\u9053\u4e8b\u52d9\u6240","boring_xml_url":40,"boring_view_url":1,"soilmap_view_url":null,"soiltest_xml_url":0,"soiltest_view_url":0},{"id":158015,"code":"B4KJ201801004-6264","latitude":"36.38233972","longitude":"140.4029417","source_code":"KT54404352004","project_name":"","survey_name":"50\u53f7\u6c34\u6238\u30d0\u30a4\u30d1\u30b9(\u5927\u585a\u5730\u533a)","client_name":"\u56fd\u571f\u4ea4\u901a\u7701\u95a2\u6771\u5730\u65b9\u6574\u5099\u5c40\u5e38\u9678\u6cb3\u5ddd\u56fd\u9053\u4e8b\u52d9\u6240","boring_xml_url":40,"boring_view_url":1,"soilmap_view_url":null,"soiltest_xml_url":0,"soiltest_view_url":0},{"id":158014,"code":"B4KJ201801004-6263","latitude":"36.38233972","longitude":"140.4029417","source_code":"KT54404352003","project_name":"","survey_name":"50\u53f7\u6c34\u6238\u30d0\u30a4\u30d1\u30b9(\u5927\u585a\u5730\u533a)","client_name":"\u56fd\u571f\u4ea4\u901a\u7701\u95a2\u6771\u5730\u65b9\u6574\u5099\u5c40\u5e38\u9678\u6cb3\u5ddd\u56fd\u9053\u4e8b\u52d9\u6240","boring_xml_url":40,"boring_view_url":1,"soilmap_view_url":null,"soiltest_xml_url":0,"soiltest_view_url":0},{"id":158013,"code":"B4KJ201801004-6262","latitude":"36.38233972","longitude":"140.4029417","source_code":"KT54404352002","project_name":"","survey_name":"50\u53f7\u6c34\u6238\u30d0\u30a4\u30d1\u30b9(\u5927\u585a\u5730\u533a)","client_name":"\u56fd\u571f\u4ea4\u901a\u7701\u95a2\u6771\u5730\u65b9\u6574\u5099\u5c40\u5e38\u9678\u6cb3\u5ddd\u56fd\u9053\u4e8b\u52d9\u6240","boring_xml_url":40,"boring_view_url":1,"soilmap_view_url":null,"soiltest_xml_url":0,"soiltest_view_url":0},{"id":158012,"code":"B4KJ201801004-6261","latitude":"36.37595389","longitude":"140.4877958","source_code":"KT54404349008","project_name":"","survey_name":"\u90a3\u73c2\u5ddd\u6d41\u57df\u5730\u8cea\u8abf\u67fb\u696d\u52d9","client_name":"\u56fd\u571f\u4ea4\u901a\u7701\u95a2\u6771\u5730\u65b9\u6574\u5099\u5c40\u5e38\u9678\u6cb3\u5ddd\u56fd\u9053\u4e8b\u52d9\u6240","boring_xml_url":40,"boring_view_url":1,"soilmap_view_url":null,"soiltest_xml_url":0,"soiltest_view_url":0},{"id":158011,"code":"B4KJ201801004-6260","latitude":"36.37617639","longitude":"140.4959894","source_code":"KT54404349006","project_name":"","survey_name":"\u8d64\u6cbc\u6a0b\u7ba1\u5730\u8cea\u8abf\u67fb","client_name":"\u56fd\u571f\u4ea4\u901a\u7701\u95a2\u6771\u5730\u65b9\u6574\u5099\u5c40\u5e38\u9678\u6cb3\u5ddd\u56fd\u9053\u4e8b\u52d9\u6240","boring_xml_url":40,"boring_view_url":1,"soilmap_view_url":null,"soiltest_xml_url":0,"soiltest_view_url":0},{"id":158010,"code":"B4KJ201801004-6259","latitude":"36.37581528","longitude":"140.4957117","source_code":"KT54404349005","project_name":"","survey_name":"\u8d64\u6cbc\u6a0b\u7ba1\u5730\u8cea\u8abf\u67fb","client_name":"\u56fd\u571f\u4ea4\u901a\u7701\u95a2\u6771\u5730\u65b9\u6574\u5099\u5c40\u5e38\u9678\u6cb3\u5ddd\u56fd\u9053\u4e8b\u52d9\u6240","boring_xml_url":40,"boring_view_url":1,"soilmap_view_url":null,"soiltest_xml_url":0,"soiltest_view_url":0},{"id":158009,"code":"B4KJ201801004-6258","latitude":"36.37548194","longitude":"140.4915456","source_code":"KT54404349002","project_name":"","survey_name":"\u57ce\u6771\u6392\u6c34\u6a0b\u7ba1\u59162\u4ef6\u8a2d\u8a08\u696d\u52d9\u5730\u8cea\u8abf\u67fb","client_name":"\u56fd\u571f\u4ea4\u901a\u7701\u95a2\u6771\u5730\u65b9\u6574\u5099\u5c40\u5e38\u9678\u6cb3\u5ddd\u56fd\u9053\u4e8b\u52d9\u6240","boring_xml_url":40,"boring_view_url":1,"soilmap_view_url":null,"soiltest_xml_url":0,"soiltest_view_url":0},{"id":158008,"code":"B4KJ201801004-6257","latitude":"36.37206361","longitude":"140.4179131","source_code":"KT54404343001","project_name":"","survey_name":"\u685c\u5ddd\u6a5f\u5834\u57fa\u790e\u5730\u8cea\u8abf\u67fb\u305d\u306e1","client_name":"\u56fd\u571f\u4ea4\u901a\u7701\u95a2\u6771\u5730\u65b9\u6574\u5099\u5c40\u971e\u30f6\u6d66\u5c0e\u6c34\u5de5\u4e8b\u4e8b\u52d9\u6240","boring_xml_url":40,"boring_view_url":1,"soilmap_view_url":null,"soiltest_xml_url":0,"soiltest_view_url":0},{"id":158007,"code":"B4KJ201801004-6256","latitude":"36.37073","longitude":"140.4048864","source_code":"KT54404342004","project_name":"","survey_name":"50\u53f7\u6c34\u6238\u30d0\u30a4\u30d1\u30b9\u5730\u8cea\u8abf\u67fb(\u305d\u306e1)","client_name":"\u56fd\u571f\u4ea4\u901a\u7701\u95a2\u6771\u5730\u65b9\u6574\u5099\u5c40\u5e38\u9678\u6cb3\u5ddd\u56fd\u9053\u4e8b\u52d9\u6240","boring_xml_url":40,"boring_view_url":1,"soilmap_view_url":null,"soiltest_xml_url":0,"soiltest_view_url":0},{"id":158006,"code":"B4KJ201801004-6255","latitude":"36.37195194","longitude":"140.4044697","source_code":"KT54404342003","project_name":"","survey_name":"50\u53f7\u6c34\u6238\u30d0\u30a4\u30d1\u30b9\u5730\u8cea\u8abf\u67fb(\u305d\u306e1)","client_name":"\u56fd\u571f\u4ea4\u901a\u7701\u95a2\u6771\u5730\u65b9\u6574\u5099\u5c40\u5e38\u9678\u6cb3\u5ddd\u56fd\u9053\u4e8b\u52d9\u6240","boring_xml_url":40,"boring_view_url":1,"soilmap_view_url":null,"soiltest_xml_url":0,"soiltest_view_url":0}]}}