{"header":{"xyz":{"source":[],"mosaic":false},"page":5420,"raw":{"soiltest_result":"0","bbox":"57.598333,109.544722,1.933333,163.806111","page":"5420"},"conditions":{"soiltest_result":0,"north":57.598333,"west":109.544722,"south":1.933333,"east":163.806111},"success":true,"message":""},"data":{"meta":{"total":212844,"page":5420,"pages":7095,"count":30},"values":[{"id":157975,"code":"B4KJ201801004-6224","latitude":"36.33945528","longitude":"140.3875281","source_code":"KT54404301001","project_name":"","survey_name":"\u971e\u30b1\u6d66\u5c0e\u6c34\u8def\u5730\u4e0b\u6c34\u53ca\u5730\u8cea\u8abf\u67fb","client_name":"\u56fd\u571f\u4ea4\u901a\u7701\u95a2\u6771\u5730\u65b9\u6574\u5099\u5c40\u971e\u30f6\u6d66\u5c0e\u6c34\u5de5\u4e8b\u4e8b\u52d9\u6240","boring_xml_url":40,"boring_view_url":1,"soilmap_view_url":null,"soiltest_xml_url":0,"soiltest_view_url":0},{"id":157974,"code":"B4KJ201801004-6223","latitude":"36.39336222","longitude":"140.2594533","source_code":"KT54404261008","project_name":"","survey_name":"\u5343\u4ee3\u7530\u77f3\u5ca1BP\u5730\u8cea\u8abf\u67fb\u53ca\u3073\u8edf\u5f31\u5730\u76e4\u89e3\u6790\u696d\u52d9\u59d4\u8a17","client_name":"\u56fd\u571f\u4ea4\u901a\u7701\u95a2\u6771\u5730\u65b9\u6574\u5099\u5c40\u5e38\u9678\u6cb3\u5ddd\u56fd\u9053\u4e8b\u52d9\u6240","boring_xml_url":40,"boring_view_url":1,"soilmap_view_url":null,"soiltest_xml_url":0,"soiltest_view_url":0},{"id":157973,"code":"B4KJ201801004-6222","latitude":"36.39366778","longitude":"140.25937","source_code":"KT54404261007","project_name":"","survey_name":"\u5343\u4ee3\u7530\u77f3\u5ca1BP\u5730\u8cea\u8abf\u67fb\u53ca\u3073\u8edf\u5f31\u5730\u76e4\u89e3\u6790\u696d\u52d9\u59d4\u8a17","client_name":"\u56fd\u571f\u4ea4\u901a\u7701\u95a2\u6771\u5730\u65b9\u6574\u5099\u5c40\u5e38\u9678\u6cb3\u5ddd\u56fd\u9053\u4e8b\u52d9\u6240","boring_xml_url":40,"boring_view_url":1,"soilmap_view_url":null,"soiltest_xml_url":0,"soiltest_view_url":0},{"id":157972,"code":"B4KJ201801004-6221","latitude":"36.39411194","longitude":"140.2497319","source_code":"KT54404260008","project_name":"","survey_name":"\u5343\u4ee3\u7530\u77f3\u5ca1BP\u5730\u8cea\u8abf\u67fb\u53ca\u3073\u8edf\u5f31\u5730\u76e4\u89e3\u6790\u696d\u52d9\u59d4\u8a17","client_name":"\u56fd\u571f\u4ea4\u901a\u7701\u95a2\u6771\u5730\u65b9\u6574\u5099\u5c40\u5e38\u9678\u6cb3\u5ddd\u56fd\u9053\u4e8b\u52d9\u6240","boring_xml_url":40,"boring_view_url":1,"soilmap_view_url":null,"soiltest_xml_url":0,"soiltest_view_url":0},{"id":157971,"code":"B4KJ201801004-6220","latitude":"36.39388972","longitude":"140.2497319","source_code":"KT54404260007","project_name":"","survey_name":"\u5343\u4ee3\u7530\u77f3\u5ca1BP\u5730\u8cea\u8abf\u67fb\u53ca\u3073\u8edf\u5f31\u5730\u76e4\u89e3\u6790\u696d\u52d9\u59d4\u8a17","client_name":"\u56fd\u571f\u4ea4\u901a\u7701\u95a2\u6771\u5730\u65b9\u6574\u5099\u5c40\u5e38\u9678\u6cb3\u5ddd\u56fd\u9053\u4e8b\u52d9\u6240","boring_xml_url":40,"boring_view_url":1,"soilmap_view_url":null,"soiltest_xml_url":0,"soiltest_view_url":0},{"id":157970,"code":"B4KJ201801004-6219","latitude":"36.37845028","longitude":"140.3644728","source_code":"KT54404259001","project_name":"","survey_name":"\u5185\u539f\u30d0\u30a4\u30d1\u30b9\u6709\u8cc0\u6b69\u9053\u6a4b\u8a73\u7d30\u8a2d\u8a08\u4ed6\u696d\u52d9\u59d4\u8a17","client_name":"\u56fd\u571f\u4ea4\u901a\u7701\u95a2\u6771\u5730\u65b9\u6574\u5099\u5c40\u5e38\u9678\u6cb3\u5ddd\u56fd\u9053\u4e8b\u52d9\u6240","boring_xml_url":40,"boring_view_url":1,"soilmap_view_url":null,"soiltest_xml_url":0,"soiltest_view_url":0},{"id":157969,"code":"B4KJ201801004-6218","latitude":"36.37678361","longitude":"140.3644728","source_code":"KT54404249001","project_name":"","survey_name":"\u5185\u539f\u30d0\u30a4\u30d1\u30b9\u6709\u8cc0\u6b69\u9053\u6a4b\u8a73\u7d30\u8a2d\u8a08\u4ed6\u696d\u52d9\u59d4\u8a17","client_name":"\u56fd\u571f\u4ea4\u901a\u7701\u95a2\u6771\u5730\u65b9\u6574\u5099\u5c40\u5e38\u9678\u6cb3\u5ddd\u56fd\u9053\u4e8b\u52d9\u6240","boring_xml_url":40,"boring_view_url":1,"soilmap_view_url":null,"soiltest_xml_url":0,"soiltest_view_url":0},{"id":157968,"code":"B4KJ201801004-6217","latitude":"36.39036194","longitude":"140.2390664","source_code":"KT54404169009","project_name":"","survey_name":"\u5343\u4ee3\u7530\u77f3\u5ca1BP\u5730\u8cea\u8abf\u67fb\u53ca\u3073\u8edf\u5f31\u5730\u76e4\u89e3\u6790\u696d\u52d9\u59d4\u8a17","client_name":"\u56fd\u571f\u4ea4\u901a\u7701\u95a2\u6771\u5730\u65b9\u6574\u5099\u5c40\u5e38\u9678\u6cb3\u5ddd\u56fd\u9053\u4e8b\u52d9\u6240","boring_xml_url":40,"boring_view_url":1,"soilmap_view_url":null,"soiltest_xml_url":0,"soiltest_view_url":0},{"id":157967,"code":"B4KJ201801004-6216","latitude":"36.39005639","longitude":"140.2390108","source_code":"KT54404169008","project_name":"","survey_name":"\u5343\u4ee3\u7530\u77f3\u5ca1BP\u5730\u8cea\u8abf\u67fb\u53ca\u3073\u8edf\u5f31\u5730\u76e4\u89e3\u6790\u696d\u52d9\u59d4\u8a17","client_name":"\u56fd\u571f\u4ea4\u901a\u7701\u95a2\u6771\u5730\u65b9\u6574\u5099\u5c40\u5e38\u9678\u6cb3\u5ddd\u56fd\u9053\u4e8b\u52d9\u6240","boring_xml_url":40,"boring_view_url":1,"soilmap_view_url":null,"soiltest_xml_url":0,"soiltest_view_url":0},{"id":157966,"code":"B4KJ201801004-6215","latitude":"36.36039","longitude":"140.1222719","source_code":"KT54404120001","project_name":"","survey_name":"\u30dc\u30fc\u30ea\u30f3\u30b0\u8abf\u67fb(\u5ca9\u702c\u56fd\u9053\u51fa\u5f35\u6240)","client_name":"\u56fd\u571f\u4ea4\u901a\u7701\u95a2\u6771\u5730\u65b9\u6574\u5099\u5c40\u5e38\u9678\u6cb3\u5ddd\u56fd\u9053\u4e8b\u52d9\u6240","boring_xml_url":40,"boring_view_url":1,"soilmap_view_url":null,"soiltest_xml_url":0,"soiltest_view_url":0},{"id":157965,"code":"B4KJ201801004-6214","latitude":"36.41690917","longitude":"140.0404156","source_code":"KT54404093004","project_name":"","survey_name":"\u6771\u5927\u5cf6\u6a0b\u7ba1\u571f\u8cea\u8abf\u67fb","client_name":"\u56fd\u571f\u4ea4\u901a\u7701\u95a2\u6771\u5730\u65b9\u6574\u5099\u5c40\u4e0b\u9928\u6cb3\u5ddd\u4e8b\u52d9\u6240","boring_xml_url":40,"boring_view_url":1,"soilmap_view_url":null,"soiltest_xml_url":0,"soiltest_view_url":0},{"id":157964,"code":"B4KJ201801004-6213","latitude":"36.41735361","longitude":"140.0428319","source_code":"KT54404093003","project_name":"","survey_name":"\u6771\u5927\u5cf6\u6a0b\u7ba1\u571f\u8cea\u8abf\u67fb","client_name":"\u56fd\u571f\u4ea4\u901a\u7701\u95a2\u6771\u5730\u65b9\u6574\u5099\u5c40\u4e0b\u9928\u6cb3\u5ddd\u4e8b\u52d9\u6240","boring_xml_url":40,"boring_view_url":1,"soilmap_view_url":null,"soiltest_xml_url":0,"soiltest_view_url":0},{"id":157963,"code":"B4KJ201801004-6212","latitude":"36.41263194","longitude":"140.0418044","source_code":"KT54404093002","project_name":"","survey_name":"\u9053\u7956\u571f\u6392\u6c34\u6a0b\u7ba1\u571f\u8cea\u8abf\u67fb","client_name":"\u56fd\u571f\u4ea4\u901a\u7701\u95a2\u6771\u5730\u65b9\u6574\u5099\u5c40\u4e0b\u9928\u6cb3\u5ddd\u4e8b\u52d9\u6240","boring_xml_url":40,"boring_view_url":1,"soilmap_view_url":null,"soiltest_xml_url":0,"soiltest_view_url":0},{"id":157962,"code":"B4KJ201801004-6211","latitude":"36.41274306","longitude":"140.0413878","source_code":"KT54404093001","project_name":"","survey_name":"\u9053\u7956\u571f\u6392\u6c34\u6a0b\u7ba1\u571f\u8cea\u8abf\u67fb","client_name":"\u56fd\u571f\u4ea4\u901a\u7701\u95a2\u6771\u5730\u65b9\u6574\u5099\u5c40\u4e0b\u9928\u6cb3\u5ddd\u4e8b\u52d9\u6240","boring_xml_url":40,"boring_view_url":1,"soilmap_view_url":null,"soiltest_xml_url":0,"soiltest_view_url":0},{"id":157961,"code":"B4KJ201801004-6210","latitude":"36.41063194","longitude":"140.0369161","source_code":"KT54404083002","project_name":"","survey_name":"\u5927\u5cf6\u6392\u6c34\u6a0b\u7ba1\u571f\u8cea\u8abf\u67fb","client_name":"\u56fd\u571f\u4ea4\u901a\u7701\u95a2\u6771\u5730\u65b9\u6574\u5099\u5c40\u4e0b\u9928\u6cb3\u5ddd\u4e8b\u52d9\u6240","boring_xml_url":40,"boring_view_url":1,"soilmap_view_url":null,"soiltest_xml_url":0,"soiltest_view_url":0},{"id":157960,"code":"B4KJ201801004-6209","latitude":"36.41077083","longitude":"140.0363328","source_code":"KT54404083001","project_name":"","survey_name":"\u5927\u5cf6\u6392\u6c34\u6a0b\u7ba1\u571f\u8cea\u8abf\u67fb","client_name":"\u56fd\u571f\u4ea4\u901a\u7701\u95a2\u6771\u5730\u65b9\u6574\u5099\u5c40\u4e0b\u9928\u6cb3\u5ddd\u4e8b\u52d9\u6240","boring_xml_url":40,"boring_view_url":1,"soilmap_view_url":null,"soiltest_xml_url":0,"soiltest_view_url":0},{"id":157959,"code":"B4KJ201801004-6208","latitude":"36.40141056","longitude":"140.0334444","source_code":"KT54404072004","project_name":"","survey_name":"\u5e02\u30ce\u585a\u5730\u8cea\u571f\u8cea\u8abf\u67fb","client_name":"\u56fd\u571f\u4ea4\u901a\u7701\u95a2\u6771\u5730\u65b9\u6574\u5099\u5c40\u4e0b\u9928\u6cb3\u5ddd\u4e8b\u52d9\u6240","boring_xml_url":40,"boring_view_url":1,"soilmap_view_url":null,"soiltest_xml_url":0,"soiltest_view_url":0},{"id":157958,"code":"B4KJ201801004-6207","latitude":"36.40141056","longitude":"140.0334444","source_code":"KT54404072003","project_name":"","survey_name":"\u5e02\u30ce\u585a\u5730\u5148\u571f\u8cea\u8abf\u67fb","client_name":"\u56fd\u571f\u4ea4\u901a\u7701\u95a2\u6771\u5730\u65b9\u6574\u5099\u5c40\u4e0b\u9928\u6cb3\u5ddd\u4e8b\u52d9\u6240","boring_xml_url":40,"boring_view_url":1,"soilmap_view_url":null,"soiltest_xml_url":0,"soiltest_view_url":0},{"id":157957,"code":"B4KJ201801004-6206","latitude":"36.39657778","longitude":"140.0322225","source_code":"KT54404072002","project_name":"","survey_name":"\u5e02\u30ce\u585a\u5730\u5148\u571f\u8cea\u8abf\u67fb","client_name":"\u56fd\u571f\u4ea4\u901a\u7701\u95a2\u6771\u5730\u65b9\u6574\u5099\u5c40\u4e0b\u9928\u6cb3\u5ddd\u4e8b\u52d9\u6240","boring_xml_url":40,"boring_view_url":1,"soilmap_view_url":null,"soiltest_xml_url":0,"soiltest_view_url":0},{"id":157956,"code":"B4KJ201801004-6205","latitude":"36.39657778","longitude":"140.0322225","source_code":"KT54404072001","project_name":"","survey_name":"\u5e02\u30ce\u585a\u5730\u5148\u571f\u8cea\u8abf\u67fb","client_name":"\u56fd\u571f\u4ea4\u901a\u7701\u95a2\u6771\u5730\u65b9\u6574\u5099\u5c40\u4e0b\u9928\u6cb3\u5ddd\u4e8b\u52d9\u6240","boring_xml_url":40,"boring_view_url":1,"soilmap_view_url":null,"soiltest_xml_url":0,"soiltest_view_url":0},{"id":157955,"code":"B4KJ201801004-6204","latitude":"36.37510778","longitude":"140.0167247","source_code":"KT54404041001","project_name":"","survey_name":"\u4e2d\u90f7\u5730\u5148\u571f\u8cea\u8abf\u67fb","client_name":"\u56fd\u571f\u4ea4\u901a\u7701\u95a2\u6771\u5730\u65b9\u6574\u5099\u5c40\u4e0b\u9928\u6cb3\u5ddd\u4e8b\u52d9\u6240","boring_xml_url":40,"boring_view_url":1,"soilmap_view_url":null,"soiltest_xml_url":0,"soiltest_view_url":0},{"id":157954,"code":"B4KJ201801004-6203","latitude":"36.36377806","longitude":"140.1014403","source_code":"KT54404038002","project_name":"","survey_name":"\u5ca9\u702c\u30d0\u30a4\u30d1\u30b9\u6a2a\u65ad\u6b69\u9053\u6a4b\u8a2d\u8a08\u696d\u52d9","client_name":"\u56fd\u571f\u4ea4\u901a\u7701\u95a2\u6771\u5730\u65b9\u6574\u5099\u5c40\u5e38\u9678\u6cb3\u5ddd\u56fd\u9053\u4e8b\u52d9\u6240","boring_xml_url":40,"boring_view_url":1,"soilmap_view_url":null,"soiltest_xml_url":0,"soiltest_view_url":0},{"id":157953,"code":"B4KJ201801004-6202","latitude":"36.36469472","longitude":"140.1061619","source_code":"KT54404038001","project_name":"","survey_name":"\u5ca9\u702c\u30d0\u30a4\u30d1\u30b9\u6a2a\u65ad\u6b69\u9053\u6a4b\u8a2d\u8a08\u696d\u52d9","client_name":"\u56fd\u571f\u4ea4\u901a\u7701\u95a2\u6771\u5730\u65b9\u6574\u5099\u5c40\u5e38\u9678\u6cb3\u5ddd\u56fd\u9053\u4e8b\u52d9\u6240","boring_xml_url":40,"boring_view_url":1,"soilmap_view_url":null,"soiltest_xml_url":0,"soiltest_view_url":0},{"id":157952,"code":"B4KJ201801004-6201","latitude":"36.36252806","longitude":"140.0963019","source_code":"KT54404037001","project_name":"","survey_name":"\u5ca9\u702c\u30d0\u30a4\u30d1\u30b9\u6a2a\u65ad\u6b69\u9053\u6a4b\u8a2d\u8a08\u696d\u52d9","client_name":"\u56fd\u571f\u4ea4\u901a\u7701\u95a2\u6771\u5730\u65b9\u6574\u5099\u5c40\u5e38\u9678\u6cb3\u5ddd\u56fd\u9053\u4e8b\u52d9\u6240","boring_xml_url":40,"boring_view_url":1,"soilmap_view_url":null,"soiltest_xml_url":0,"soiltest_view_url":0},{"id":157951,"code":"B4KJ201801004-6200","latitude":"36.36460861","longitude":"140.005615","source_code":"KT54404030002","project_name":"","survey_name":"\u52a0\u8349\u4e2d\u6392\u6c34\u6a0b\u7ba1\u571f\u8cea\u8abf\u67fb","client_name":"\u56fd\u571f\u4ea4\u901a\u7701\u95a2\u6771\u5730\u65b9\u6574\u5099\u5c40\u4e0b\u9928\u6cb3\u5ddd\u4e8b\u52d9\u6240","boring_xml_url":40,"boring_view_url":1,"soilmap_view_url":null,"soiltest_xml_url":0,"soiltest_view_url":0},{"id":157950,"code":"B4KJ201801004-6199","latitude":"36.36444194","longitude":"140.0055594","source_code":"KT54404030001","project_name":"","survey_name":"\u52a0\u8349\u4e2d\u6392\u6c34\u6a0b\u7ba1\u571f\u8cea\u8abf\u67fb","client_name":"\u56fd\u571f\u4ea4\u901a\u7701\u95a2\u6771\u5730\u65b9\u6574\u5099\u5c40\u4e0b\u9928\u6cb3\u5ddd\u4e8b\u52d9\u6240","boring_xml_url":40,"boring_view_url":1,"soilmap_view_url":null,"soiltest_xml_url":0,"soiltest_view_url":0},{"id":157949,"code":"B4KJ201801004-6198","latitude":"36.35880361","longitude":"140.0059486","source_code":"KT54404020002","project_name":"","survey_name":"\u516b\u7530\u8b77\u5cb8\u707d\u5bb3\u5fa9\u65e7\u5de5\u4e8b\u6e2c\u91cf\u53ca\u3073\u8b77\u5cb8\u8a2d\u8a08\u696d\u52d9\u59d4\u8a17","client_name":"\u56fd\u571f\u4ea4\u901a\u7701\u95a2\u6771\u5730\u65b9\u6574\u5099\u5c40\u4e0b\u9928\u6cb3\u5ddd\u4e8b\u52d9\u6240","boring_xml_url":40,"boring_view_url":1,"soilmap_view_url":null,"soiltest_xml_url":0,"soiltest_view_url":0},{"id":157948,"code":"B4KJ201801004-6197","latitude":"36.35538722","longitude":"140.0045044","source_code":"KT54404020001","project_name":"","survey_name":"\u516b\u7530\u8b77\u5cb8\u707d\u5bb3\u5fa9\u65e7\u5de5\u4e8b\u6e2c\u91cf\u53ca\u3073\u8b77\u5cb8\u8a2d\u8a08\u696d\u52d9\u59d4\u8a17","client_name":"\u56fd\u571f\u4ea4\u901a\u7701\u95a2\u6771\u5730\u65b9\u6574\u5099\u5c40\u4e0b\u9928\u6cb3\u5ddd\u4e8b\u52d9\u6240","boring_xml_url":40,"boring_view_url":1,"soilmap_view_url":null,"soiltest_xml_url":0,"soiltest_view_url":0},{"id":157947,"code":"B4KJ201801004-6196","latitude":"36.347555","longitude":"140.0055881","source_code":"KT54404010004","project_name":"","survey_name":"\u4e95\u51fa\u86ef\u6ca2\u5730\u5148\u571f\u8cea\u8abf\u67fb","client_name":"\u56fd\u571f\u4ea4\u901a\u7701\u95a2\u6771\u5730\u65b9\u6574\u5099\u5c40\u4e0b\u9928\u6cb3\u5ddd\u4e8b\u52d9\u6240","boring_xml_url":40,"boring_view_url":1,"soilmap_view_url":null,"soiltest_xml_url":0,"soiltest_view_url":0},{"id":157946,"code":"B4KJ201801004-6195","latitude":"36.34766611","longitude":"140.0053381","source_code":"KT54404010003","project_name":"","survey_name":"\u4e95\u51fa\u86ef\u6ca2\u5730\u5148\u571f\u8cea\u8abf\u67fb","client_name":"\u56fd\u571f\u4ea4\u901a\u7701\u95a2\u6771\u5730\u65b9\u6574\u5099\u5c40\u4e0b\u9928\u6cb3\u5ddd\u4e8b\u52d9\u6240","boring_xml_url":40,"boring_view_url":1,"soilmap_view_url":null,"soiltest_xml_url":0,"soiltest_view_url":0}]}}