{"header":{"xyz":{"source":[],"mosaic":false},"page":5438,"raw":{"soiltest_result":"0","bbox":"57.598333,109.544722,1.933333,163.806111","page":"5438"},"conditions":{"soiltest_result":0,"north":57.598333,"west":109.544722,"south":1.933333,"east":163.806111},"success":true,"message":""},"data":{"meta":{"total":212844,"page":5438,"pages":7095,"count":30},"values":[{"id":157435,"code":"B4KJ201801004-5684","latitude":"36.02102444","longitude":"140.5824694","source_code":"KT54400426003","project_name":"","survey_name":"\u5cf6\u4e26\u30fb\u53e4\u5bbf\u30fb\u5c45\u5408\u5730\u533a\u5730\u8cea\u8abf\u67fb","client_name":"\u56fd\u571f\u4ea4\u901a\u7701\u95a2\u6771\u5730\u65b9\u6574\u5099\u5c40\u971e\u30f6\u6d66\u6cb3\u5ddd\u4e8b\u52d9\u6240","boring_xml_url":40,"boring_view_url":1,"soilmap_view_url":null,"soiltest_xml_url":0,"soiltest_view_url":0},{"id":157434,"code":"B4KJ201801004-5683","latitude":"36.02130222","longitude":"140.5837469","source_code":"KT54400426002","project_name":"","survey_name":"\u5cf6\u4e26\u30fb\u53e4\u5bbf\u30fb\u5c45\u5408\u5730\u533a\u5730\u8cea\u8abf\u67fb","client_name":"\u56fd\u571f\u4ea4\u901a\u7701\u95a2\u6771\u5730\u65b9\u6574\u5099\u5c40\u971e\u30f6\u6d66\u6cb3\u5ddd\u4e8b\u52d9\u6240","boring_xml_url":40,"boring_view_url":1,"soilmap_view_url":null,"soiltest_xml_url":0,"soiltest_view_url":0},{"id":157433,"code":"B4KJ201801004-5682","latitude":"36.02710694","longitude":"140.5784972","source_code":"KT54400426001","project_name":"","survey_name":"\u5317\u6d66\u6e56\u5cb8(\u7121\u63d0\u90e8)\u57fa\u790e\u8abf\u67fb(\u305d\u306e2)","client_name":"\u56fd\u571f\u4ea4\u901a\u7701\u95a2\u6771\u5730\u65b9\u6574\u5099\u5c40\u971e\u30f6\u6d66\u6cb3\u5ddd\u4e8b\u52d9\u6240","boring_xml_url":40,"boring_view_url":1,"soilmap_view_url":null,"soiltest_xml_url":0,"soiltest_view_url":0},{"id":157432,"code":"B4KJ201801004-5681","latitude":"36.0244675","longitude":"140.554805","source_code":"KT54400424002","project_name":"","survey_name":"\u5317\u6d66\u6e56\u5cb8(\u7121\u5824\u90e8)\u57fa\u790e\u8abf\u67fb(\u305d\u306e1)","client_name":"\u56fd\u571f\u4ea4\u901a\u7701\u95a2\u6771\u5730\u65b9\u6574\u5099\u5c40\u971e\u30f6\u6d66\u6cb3\u5ddd\u4e8b\u52d9\u6240","boring_xml_url":40,"boring_view_url":1,"soilmap_view_url":null,"soiltest_xml_url":0,"soiltest_view_url":0},{"id":157431,"code":"B4KJ201801004-5680","latitude":"36.02785611","longitude":"140.5588878","source_code":"KT54400424001","project_name":"","survey_name":"\u971e\u30f6\u6d66\u5e38\u9678\u5229\u6839\u5ddd\u6e2f\u6e7e\u57fa\u790e\u8abf\u67fb","client_name":"\u56fd\u571f\u4ea4\u901a\u7701\u95a2\u6771\u5730\u65b9\u6574\u5099\u5c40\u971e\u30f6\u6d66\u6cb3\u5ddd\u4e8b\u52d9\u6240","boring_xml_url":40,"boring_view_url":1,"soilmap_view_url":null,"soiltest_xml_url":0,"soiltest_view_url":0},{"id":157430,"code":"B4KJ201801004-5679","latitude":"36.0160525","longitude":"140.5806642","source_code":"KT54400416011","project_name":"","survey_name":"\u5317\u6d66\u53ca\u3073\u9c10\u5ddd\u53f3\u5cb8\u5730\u8cea\u8abf\u67fb","client_name":"\u56fd\u571f\u4ea4\u901a\u7701\u95a2\u6771\u5730\u65b9\u6574\u5099\u5c40\u971e\u30f6\u6d66\u6cb3\u5ddd\u4e8b\u52d9\u6240","boring_xml_url":40,"boring_view_url":1,"soilmap_view_url":null,"soiltest_xml_url":0,"soiltest_view_url":0},{"id":157429,"code":"B4KJ201801004-5678","latitude":"36.014025","longitude":"140.5816086","source_code":"KT54400416010","project_name":"","survey_name":"\u5317\u6d66\u53ca\u3073\u9c10\u5ddd\u53f3\u5cb8\u5730\u8cea\u8abf\u67fb","client_name":"\u56fd\u571f\u4ea4\u901a\u7701\u95a2\u6771\u5730\u65b9\u6574\u5099\u5c40\u971e\u30f6\u6d66\u6cb3\u5ddd\u4e8b\u52d9\u6240","boring_xml_url":40,"boring_view_url":1,"soilmap_view_url":null,"soiltest_xml_url":0,"soiltest_view_url":0},{"id":157428,"code":"B4KJ201801004-5677","latitude":"36.01194194","longitude":"140.5809144","source_code":"KT54400416009","project_name":"","survey_name":"\u5317\u6d66\u53ca\u3073\u9c10\u5ddd\u53f3\u5cb8\u5730\u8cea\u8abf\u67fb","client_name":"\u56fd\u571f\u4ea4\u901a\u7701\u95a2\u6771\u5730\u65b9\u6574\u5099\u5c40\u971e\u30f6\u6d66\u6cb3\u5ddd\u4e8b\u52d9\u6240","boring_xml_url":40,"boring_view_url":1,"soilmap_view_url":null,"soiltest_xml_url":0,"soiltest_view_url":0},{"id":157427,"code":"B4KJ201801004-5676","latitude":"36.01891333","longitude":"140.5796919","source_code":"KT54400416008","project_name":"","survey_name":"\u5c45\u5408\u59161\u30f6\u6240\u57fa\u790e\u5730\u8cea\u8abf\u67fb","client_name":"\u56fd\u571f\u4ea4\u901a\u7701\u95a2\u6771\u5730\u65b9\u6574\u5099\u5c40\u971e\u30f6\u6d66\u6cb3\u5ddd\u4e8b\u52d9\u6240","boring_xml_url":40,"boring_view_url":1,"soilmap_view_url":null,"soiltest_xml_url":0,"soiltest_view_url":0},{"id":157426,"code":"B4KJ201801004-5675","latitude":"36.01891333","longitude":"140.5800253","source_code":"KT54400416007","project_name":"","survey_name":"\u5c45\u5408\u59161\u30f6\u6240\u57fa\u790e\u5730\u8cea\u8abf\u67fb","client_name":"\u56fd\u571f\u4ea4\u901a\u7701\u95a2\u6771\u5730\u65b9\u6574\u5099\u5c40\u971e\u30f6\u6d66\u6cb3\u5ddd\u4e8b\u52d9\u6240","boring_xml_url":40,"boring_view_url":1,"soilmap_view_url":null,"soiltest_xml_url":0,"soiltest_view_url":0},{"id":157425,"code":"B4KJ201801004-5674","latitude":"36.01460833","longitude":"140.5821919","source_code":"KT54400416006","project_name":"","survey_name":"\u5948\u826f\u6bdb\u5730\u533a\u57fa\u790e\u5730\u8cea\u8abf\u67fb","client_name":"\u56fd\u571f\u4ea4\u901a\u7701\u95a2\u6771\u5730\u65b9\u6574\u5099\u5c40\u971e\u30f6\u6d66\u6cb3\u5ddd\u4e8b\u52d9\u6240","boring_xml_url":40,"boring_view_url":1,"soilmap_view_url":null,"soiltest_xml_url":0,"soiltest_view_url":0},{"id":157424,"code":"B4KJ201801004-5673","latitude":"36.01510833","longitude":"140.5816086","source_code":"KT54400416005","project_name":"","survey_name":"\u5c45\u5408\u821f\u6e9c\u308a\u57fa\u790e\u5730\u76e4\u8abf\u67fb","client_name":"\u56fd\u571f\u4ea4\u901a\u7701\u95a2\u6771\u5730\u65b9\u6574\u5099\u5c40\u971e\u30f6\u6d66\u6cb3\u5ddd\u4e8b\u52d9\u6240","boring_xml_url":40,"boring_view_url":1,"soilmap_view_url":null,"soiltest_xml_url":0,"soiltest_view_url":0},{"id":157423,"code":"B4KJ201801004-5672","latitude":"36.01524722","longitude":"140.5818031","source_code":"KT54400416004","project_name":"","survey_name":"\u5c45\u5408\u821f\u6e9c\u308a\u57fa\u790e\u5730\u76e4\u8abf\u67fb","client_name":"\u56fd\u571f\u4ea4\u901a\u7701\u95a2\u6771\u5730\u65b9\u6574\u5099\u5c40\u971e\u30f6\u6d66\u6cb3\u5ddd\u4e8b\u52d9\u6240","boring_xml_url":40,"boring_view_url":1,"soilmap_view_url":null,"soiltest_xml_url":0,"soiltest_view_url":0},{"id":157422,"code":"B4KJ201801004-5671","latitude":"36.01946889","longitude":"140.5801642","source_code":"KT54400416003","project_name":"","survey_name":"\u91dc\u8c37\u5730\u533a\u59163\u7b87\u6240\u5730\u8cea\u8abf\u67fb","client_name":"\u56fd\u571f\u4ea4\u901a\u7701\u95a2\u6771\u5730\u65b9\u6574\u5099\u5c40\u971e\u30f6\u6d66\u6cb3\u5ddd\u4e8b\u52d9\u6240","boring_xml_url":40,"boring_view_url":1,"soilmap_view_url":null,"soiltest_xml_url":0,"soiltest_view_url":0},{"id":157421,"code":"B4KJ201801004-5670","latitude":"36.01949667","longitude":"140.5798864","source_code":"KT54400416002","project_name":"","survey_name":"\u91dc\u8c37\u5730\u533a\u59163\u7b87\u6240\u5730\u8cea\u8abf\u67fb","client_name":"\u56fd\u571f\u4ea4\u901a\u7701\u95a2\u6771\u5730\u65b9\u6574\u5099\u5c40\u971e\u30f6\u6d66\u6cb3\u5ddd\u4e8b\u52d9\u6240","boring_xml_url":40,"boring_view_url":1,"soilmap_view_url":null,"soiltest_xml_url":0,"soiltest_view_url":0},{"id":157420,"code":"B4KJ201801004-5669","latitude":"36.01644056","longitude":"140.5523611","source_code":"KT54400414004","project_name":"","survey_name":"\u5317\u6d66\u53ca\u3073\u9c10\u5ddd\u53f3\u5cb8\u5730\u8cea\u8abf\u67fb","client_name":"\u56fd\u571f\u4ea4\u901a\u7701\u95a2\u6771\u5730\u65b9\u6574\u5099\u5c40\u971e\u30f6\u6d66\u6cb3\u5ddd\u4e8b\u52d9\u6240","boring_xml_url":40,"boring_view_url":1,"soilmap_view_url":null,"soiltest_xml_url":0,"soiltest_view_url":0},{"id":157419,"code":"B4KJ201801004-5668","latitude":"36.01491306","longitude":"140.5505556","source_code":"KT54400414003","project_name":"","survey_name":"\u5317\u6d66\u53ca\u3073\u9c10\u5ddd\u53f3\u5cb8\u5730\u8cea\u8abf\u67fb","client_name":"\u56fd\u571f\u4ea4\u901a\u7701\u95a2\u6771\u5730\u65b9\u6574\u5099\u5c40\u971e\u30f6\u6d66\u6cb3\u5ddd\u4e8b\u52d9\u6240","boring_xml_url":40,"boring_view_url":1,"soilmap_view_url":null,"soiltest_xml_url":0,"soiltest_view_url":0},{"id":157418,"code":"B4KJ201801004-5667","latitude":"36.01313528","longitude":"140.5485558","source_code":"KT54400414002","project_name":"","survey_name":"\u5317\u6d66\u53ca\u3073\u9c10\u5ddd\u53f3\u5cb8\u5730\u8cea\u8abf\u67fb","client_name":"\u56fd\u571f\u4ea4\u901a\u7701\u95a2\u6771\u5730\u65b9\u6574\u5099\u5c40\u971e\u30f6\u6d66\u6cb3\u5ddd\u4e8b\u52d9\u6240","boring_xml_url":40,"boring_view_url":1,"soilmap_view_url":null,"soiltest_xml_url":0,"soiltest_view_url":0},{"id":157417,"code":"B4KJ201801004-5666","latitude":"36.01619056","longitude":"140.5485003","source_code":"KT54400414001","project_name":"","survey_name":"\u5317\u6d66\u6e56\u5cb8(\u7121\u5824\u90e8)\u57fa\u790e\u8abf\u67fb(\u305d\u306e1)","client_name":"\u56fd\u571f\u4ea4\u901a\u7701\u95a2\u6771\u5730\u65b9\u6574\u5099\u5c40\u971e\u30f6\u6d66\u6cb3\u5ddd\u4e8b\u52d9\u6240","boring_xml_url":40,"boring_view_url":1,"soilmap_view_url":null,"soiltest_xml_url":0,"soiltest_view_url":0},{"id":157416,"code":"B4KJ201801004-5665","latitude":"36.01510722","longitude":"140.5396956","source_code":"KT54400413001","project_name":"","survey_name":"\u5317\u6d66\u6e56\u5cb8(\u7121\u5824\u90e8)\u57fa\u790e\u8abf\u67fb(\u305d\u306e1)","client_name":"\u56fd\u571f\u4ea4\u901a\u7701\u95a2\u6771\u5730\u65b9\u6574\u5099\u5c40\u971e\u30f6\u6d66\u6cb3\u5ddd\u4e8b\u52d9\u6240","boring_xml_url":40,"boring_view_url":1,"soilmap_view_url":null,"soiltest_xml_url":0,"soiltest_view_url":0},{"id":157415,"code":"B4KJ201801004-5664","latitude":"36.00594306","longitude":"140.5953022","source_code":"KT54400407007","project_name":"","survey_name":"\u5948\u826f\u6bdb\u5730\u533a\u57fa\u790e\u5730\u8cea\u8abf\u67fb","client_name":"\u56fd\u571f\u4ea4\u901a\u7701\u95a2\u6771\u5730\u65b9\u6574\u5099\u5c40\u971e\u30f6\u6d66\u6cb3\u5ddd\u4e8b\u52d9\u6240","boring_xml_url":40,"boring_view_url":1,"soilmap_view_url":null,"soiltest_xml_url":0,"soiltest_view_url":0},{"id":157414,"code":"B4KJ201801004-5663","latitude":"36.00749833","longitude":"140.5915525","source_code":"KT54400407006","project_name":"","survey_name":"\u5948\u826f\u6bdb\u5730\u533a\u57fa\u790e\u5730\u8cea\u8abf\u67fb","client_name":"\u56fd\u571f\u4ea4\u901a\u7701\u95a2\u6771\u5730\u65b9\u6574\u5099\u5c40\u971e\u30f6\u6d66\u6cb3\u5ddd\u4e8b\u52d9\u6240","boring_xml_url":40,"boring_view_url":1,"soilmap_view_url":null,"soiltest_xml_url":0,"soiltest_view_url":0},{"id":157413,"code":"B4KJ201801004-5662","latitude":"36.00883139","longitude":"140.5869694","source_code":"KT54400407005","project_name":"","survey_name":"\u5948\u826f\u6bdb\u5730\u533a\u57fa\u790e\u5730\u8cea\u8abf\u67fb","client_name":"\u56fd\u571f\u4ea4\u901a\u7701\u95a2\u6771\u5730\u65b9\u6574\u5099\u5c40\u971e\u30f6\u6d66\u6cb3\u5ddd\u4e8b\u52d9\u6240","boring_xml_url":40,"boring_view_url":1,"soilmap_view_url":null,"soiltest_xml_url":0,"soiltest_view_url":0},{"id":157412,"code":"B4KJ201801004-5661","latitude":"36.00891472","longitude":"140.5854419","source_code":"KT54400407004","project_name":"","survey_name":"\u91dc\u8c37\u6392\u6c34\u6a0b\u7ba1\u59161\u30f6\u6240\u57fa\u790e\u5730\u8cea\u8abf\u67fb","client_name":"\u56fd\u571f\u4ea4\u901a\u7701\u95a2\u6771\u5730\u65b9\u6574\u5099\u5c40\u971e\u30f6\u6d66\u6cb3\u5ddd\u4e8b\u52d9\u6240","boring_xml_url":40,"boring_view_url":1,"soilmap_view_url":null,"soiltest_xml_url":0,"soiltest_view_url":0},{"id":157411,"code":"B4KJ201801004-5660","latitude":"36.00974778","longitude":"140.5853586","source_code":"KT54400407003","project_name":"","survey_name":"\u91dc\u8c37\u6392\u6c34\u6a0b\u7ba1\u59161\u30f6\u6240\u57fa\u790e\u5730\u8cea\u8abf\u67fb","client_name":"\u56fd\u571f\u4ea4\u901a\u7701\u95a2\u6771\u5730\u65b9\u6574\u5099\u5c40\u971e\u30f6\u6d66\u6cb3\u5ddd\u4e8b\u52d9\u6240","boring_xml_url":40,"boring_view_url":1,"soilmap_view_url":null,"soiltest_xml_url":0,"soiltest_view_url":0},{"id":157410,"code":"B4KJ201801004-5659","latitude":"36.00927583","longitude":"140.5858028","source_code":"KT54400407002","project_name":"","survey_name":"\u91dc\u8c37\u6392\u6c34\u6a0b\u7ba1\u59161\u30f6\u6240\u57fa\u790e\u5730\u8cea\u8abf\u67fb","client_name":"\u56fd\u571f\u4ea4\u901a\u7701\u95a2\u6771\u5730\u65b9\u6574\u5099\u5c40\u971e\u30f6\u6d66\u6cb3\u5ddd\u4e8b\u52d9\u6240","boring_xml_url":40,"boring_view_url":1,"soilmap_view_url":null,"soiltest_xml_url":0,"soiltest_view_url":0},{"id":157409,"code":"B4KJ201801004-5658","latitude":"36.00974778","longitude":"140.5832475","source_code":"KT54400406002","project_name":"","survey_name":"\u5948\u826f\u6bdb\u5730\u533a\u57fa\u790e\u5730\u8cea\u8abf\u67fb","client_name":"\u56fd\u571f\u4ea4\u901a\u7701\u95a2\u6771\u5730\u65b9\u6574\u5099\u5c40\u971e\u30f6\u6d66\u6cb3\u5ddd\u4e8b\u52d9\u6240","boring_xml_url":40,"boring_view_url":1,"soilmap_view_url":null,"soiltest_xml_url":0,"soiltest_view_url":0},{"id":157408,"code":"B4KJ201801004-5657","latitude":"36.01113639","longitude":"140.5813589","source_code":"KT54400406001","project_name":"","survey_name":"\u5948\u826f\u6bdb\u5730\u533a\u57fa\u790e\u5730\u8cea\u8abf\u67fb","client_name":"\u56fd\u571f\u4ea4\u901a\u7701\u95a2\u6771\u5730\u65b9\u6574\u5099\u5c40\u971e\u30f6\u6d66\u6cb3\u5ddd\u4e8b\u52d9\u6240","boring_xml_url":40,"boring_view_url":1,"soilmap_view_url":null,"soiltest_xml_url":0,"soiltest_view_url":0},{"id":157407,"code":"B4KJ201801004-5656","latitude":"36.00469194","longitude":"140.5477508","source_code":"KT54400404001","project_name":"","survey_name":"\u5317\u6d66\u6e56\u5cb8(\u7121\u5824\u90e8)\u57fa\u790e\u8abf\u67fb(\u305d\u306e1)","client_name":"\u56fd\u571f\u4ea4\u901a\u7701\u95a2\u6771\u5730\u65b9\u6574\u5099\u5c40\u971e\u30f6\u6d66\u6cb3\u5ddd\u4e8b\u52d9\u6240","boring_xml_url":40,"boring_view_url":1,"soilmap_view_url":null,"soiltest_xml_url":0,"soiltest_view_url":0},{"id":157406,"code":"B4KJ201801004-5655","latitude":"36.00896889","longitude":"140.5415567","source_code":"KT54400403001","project_name":"","survey_name":"\u5317\u6d66\u6e56\u5cb8(\u7121\u5824\u90e8)\u57fa\u790e\u8abf\u67fb(\u305d\u306e1)","client_name":"\u56fd\u571f\u4ea4\u901a\u7701\u95a2\u6771\u5730\u65b9\u6574\u5099\u5c40\u971e\u30f6\u6d66\u6cb3\u5ddd\u4e8b\u52d9\u6240","boring_xml_url":40,"boring_view_url":1,"soilmap_view_url":null,"soiltest_xml_url":0,"soiltest_view_url":0}]}}