{"header":{"xyz":{"source":[],"mosaic":false},"page":544,"raw":{"soiltest_result":"0","bbox":"57.598333,109.544722,1.933333,163.806111","page":"544"},"conditions":{"soiltest_result":0,"north":57.598333,"west":109.544722,"south":1.933333,"east":163.806111},"success":true,"message":""},"data":{"meta":{"total":212844,"page":544,"pages":7095,"count":30},"values":[{"id":529098,"code":"B4KJ202201003-1634","latitude":"33.11525","longitude":"130.685444","source_code":"QS20028950550200110001","project_name":"","survey_name":"\u718a\u672c\u7ba1\u5185\u5730\u8cea\u8abf\u67fb\uff08\u305d\u306e2\uff09\u696d\u52d9","client_name":"\u56fd\u571f\u4ea4\u901a\u7701\u4e5d\u5dde\u5730\u65b9\u6574\u5099\u5c40\u3000\u718a\u672c\u5de5\u4e8b\u4e8b\u52d9\u6240\u4ea4\u901a\u5bfe\u7b56\u8ab2","boring_xml_url":72,"boring_view_url":1,"soilmap_view_url":null,"soiltest_xml_url":0,"soiltest_view_url":0},{"id":529097,"code":"B4KJ202201003-1633","latitude":"32.704047","longitude":"130.652282","source_code":"QS20028950520200020001","project_name":"\u6392\u6c34\u6a0b\u7ba1\u5468\u8fba\u5824\u9632\u70b9\u691c","survey_name":"\u6e90\u4e09\u90ce\u6392\u6c34\u6a0b\u7ba1\u5468\u8fba\u5824\u9632\u70b9\u691c\u8abf\u67fb\u696d\u52d9\u59d4\u8a17","client_name":"\u56fd\u571f\u4ea4\u901a\u7701\u3000\u4e5d\u5dde\u5730\u65b9\u6574\u5099\u5c40\u3000\u718a\u672c\u5de5\u4e8b\u4e8b\u52d9\u6240","boring_xml_url":72,"boring_view_url":1,"soilmap_view_url":null,"soiltest_xml_url":0,"soiltest_view_url":0},{"id":529096,"code":"B4KJ202201003-1632","latitude":"32.893086","longitude":"130.677803","source_code":"QS20018950410200100007","project_name":"\u718a\u672c3\u53f7\u690d\u6728\u5730\u533a\u8de8\u9053\u6a4b\u5730\u8cea\u8abf\u67fb\u696d\u52d9","survey_name":"\u718a\u672c3\u53f7\u690d\u6728\u5730\u533a\u8de8\u9053\u6a4b\u5730\u8cea\u8abf\u67fb\u696d\u52d9","client_name":"\"\u56fd\u571f\u4ea4\u901a\u7701 \u4e5d\u5dde\u5730\u65b9\u6574\u5099\u5c40\u718a\u672c\u5de5\u4e8b\u4e8b\u52d9\u6240\"","boring_xml_url":72,"boring_view_url":1,"soilmap_view_url":null,"soiltest_xml_url":0,"soiltest_view_url":0},{"id":529095,"code":"B4KJ202201003-1631","latitude":"32.893086","longitude":"130.67822","source_code":"QS20018950410200100006","project_name":"\u718a\u672c3\u53f7\u690d\u6728\u5730\u533a\u8de8\u9053\u6a4b\u5730\u8cea\u8abf\u67fb\u696d\u52d9","survey_name":"\u718a\u672c3\u53f7\u690d\u6728\u5730\u533a\u8de8\u9053\u6a4b\u5730\u8cea\u8abf\u67fb\u696d\u52d9","client_name":"\"\u56fd\u571f\u4ea4\u901a\u7701 \u4e5d\u5dde\u5730\u65b9\u6574\u5099\u5c40\u718a\u672c\u5de5\u4e8b\u4e8b\u52d9\u6240\"","boring_xml_url":72,"boring_view_url":1,"soilmap_view_url":null,"soiltest_xml_url":0,"soiltest_view_url":0},{"id":529094,"code":"B4KJ202201003-1630","latitude":"32.895586","longitude":"130.677942","source_code":"QS20018950410200100005","project_name":"\u718a\u672c3\u53f7\u690d\u6728\u5730\u533a\u8de8\u9053\u6a4b\u5730\u8cea\u8abf\u67fb\u696d\u52d9","survey_name":"\u718a\u672c3\u53f7\u690d\u6728\u5730\u533a\u8de8\u9053\u6a4b\u5730\u8cea\u8abf\u67fb\u696d\u52d9","client_name":"\"\u56fd\u571f\u4ea4\u901a\u7701 \u4e5d\u5dde\u5730\u65b9\u6574\u5099\u5c40\u718a\u672c\u5de5\u4e8b\u4e8b\u52d9\u6240\"","boring_xml_url":72,"boring_view_url":1,"soilmap_view_url":null,"soiltest_xml_url":0,"soiltest_view_url":0},{"id":529093,"code":"B4KJ202201003-1629","latitude":"32.895586","longitude":"130.678498","source_code":"QS20018950410200100004","project_name":"\u718a\u672c3\u53f7\u690d\u6728\u5730\u533a\u8de8\u9053\u6a4b\u5730\u8cea\u8abf\u67fb\u696d\u52d9","survey_name":"\u718a\u672c3\u53f7\u690d\u6728\u5730\u533a\u8de8\u9053\u6a4b\u5730\u8cea\u8abf\u67fb\u696d\u52d9","client_name":"\"\u56fd\u571f\u4ea4\u901a\u7701 \u4e5d\u5dde\u5730\u65b9\u6574\u5099\u5c40\u718a\u672c\u5de5\u4e8b\u4e8b\u52d9\u6240\"","boring_xml_url":72,"boring_view_url":1,"soilmap_view_url":null,"soiltest_xml_url":0,"soiltest_view_url":0},{"id":529092,"code":"B4KJ202201003-1628","latitude":"32.896141","longitude":"130.677942","source_code":"QS20018950410200100003","project_name":"\u718a\u672c3\u53f7\u690d\u6728\u5730\u533a\u8de8\u9053\u6a4b\u5730\u8cea\u8abf\u67fb\u696d\u52d9","survey_name":"\u718a\u672c3\u53f7\u690d\u6728\u5730\u533a\u8de8\u9053\u6a4b\u5730\u8cea\u8abf\u67fb\u696d\u52d9","client_name":"\"\u56fd\u571f\u4ea4\u901a\u7701 \u4e5d\u5dde\u5730\u65b9\u6574\u5099\u5c40\u718a\u672c\u5de5\u4e8b\u4e8b\u52d9\u6240\"","boring_xml_url":72,"boring_view_url":1,"soilmap_view_url":null,"soiltest_xml_url":0,"soiltest_view_url":0},{"id":529091,"code":"B4KJ202201003-1627","latitude":"32.896141","longitude":"130.678498","source_code":"QS20018950410200100002","project_name":"\u718a\u672c3\u53f7\u690d\u6728\u5730\u533a\u8de8\u9053\u6a4b\u5730\u8cea\u8abf\u67fb\u696d\u52d9","survey_name":"\u718a\u672c3\u53f7\u690d\u6728\u5730\u533a\u8de8\u9053\u6a4b\u5730\u8cea\u8abf\u67fb\u696d\u52d9","client_name":"\"\u56fd\u571f\u4ea4\u901a\u7701 \u4e5d\u5dde\u5730\u65b9\u6574\u5099\u5c40\u718a\u672c\u5de5\u4e8b\u4e8b\u52d9\u6240\"","boring_xml_url":72,"boring_view_url":1,"soilmap_view_url":null,"soiltest_xml_url":0,"soiltest_view_url":0},{"id":529090,"code":"B4KJ202201003-1626","latitude":"32.898086","longitude":"130.678387","source_code":"QS20018950410200100001","project_name":"\u718a\u672c3\u53f7\u690d\u6728\u5730\u533a\u8de8\u9053\u6a4b\u5730\u8cea\u8abf\u67fb\u696d\u52d9","survey_name":"\u718a\u672c3\u53f7\u690d\u6728\u5730\u533a\u8de8\u9053\u6a4b\u5730\u8cea\u8abf\u67fb\u696d\u52d9","client_name":"\"\u56fd\u571f\u4ea4\u901a\u7701 \u4e5d\u5dde\u5730\u65b9\u6574\u5099\u5c40\u718a\u672c\u5de5\u4e8b\u4e8b\u52d9\u6240\"","boring_xml_url":72,"boring_view_url":1,"soilmap_view_url":null,"soiltest_xml_url":0,"soiltest_view_url":0},{"id":529089,"code":"B4KJ202201003-1625","latitude":"32.891407","longitude":"129.971807","source_code":"QS2002894540020070016","project_name":"\u9577\u5d0e34\u53f7\u4e45\u539f\u5730\u533a\u59161\u4ef6\u5730\u8cea\u8abf\u67fb\u696d\u52d9","survey_name":"\u9577\u5d0e34\u53f7\u4e45\u539f\u5730\u533a\u59161\u4ef6\u5730\u8cea\u8abf\u67fb\u696d\u52d9","client_name":"\"\u56fd\u571f\u4ea4\u901a\u7701 \u4e5d\u5dde\u5730\u65b9\u6574\u5099\u5c40 \u9577\u5d0e\u5de5\u4e8b\u4e8b\u52d9\u6240 \u5de5\u52d9\u8ab2\"","boring_xml_url":70,"boring_view_url":1,"soilmap_view_url":null,"soiltest_xml_url":0,"soiltest_view_url":0},{"id":529088,"code":"B4KJ202201003-1624","latitude":"32.891268","longitude":"129.974723","source_code":"QS2002894540020070015","project_name":"\u9577\u5d0e34\u53f7\u4e45\u539f\u5730\u533a\u59161\u4ef6\u5730\u8cea\u8abf\u67fb\u696d\u52d9","survey_name":"\u9577\u5d0e34\u53f7\u4e45\u539f\u5730\u533a\u59161\u4ef6\u5730\u8cea\u8abf\u67fb\u696d\u52d9","client_name":"\"\u56fd\u571f\u4ea4\u901a\u7701 \u4e5d\u5dde\u5730\u65b9\u6574\u5099\u5c40 \u9577\u5d0e\u5de5\u4e8b\u4e8b\u52d9\u6240 \u5de5\u52d9\u8ab2\"","boring_xml_url":70,"boring_view_url":1,"soilmap_view_url":null,"soiltest_xml_url":0,"soiltest_view_url":0},{"id":529087,"code":"B4KJ202201003-1623","latitude":"32.891907","longitude":"129.973223","source_code":"QS2002894540020070011","project_name":"\u9577\u5d0e34\u53f7\u4e45\u539f\u5730\u533a\u59161\u4ef6\u5730\u8cea\u8abf\u67fb\u696d\u52d9","survey_name":"\u9577\u5d0e34\u53f7\u4e45\u539f\u5730\u533a\u59161\u4ef6\u5730\u8cea\u8abf\u67fb\u696d\u52d9","client_name":"\"\u56fd\u571f\u4ea4\u901a\u7701 \u4e5d\u5dde\u5730\u65b9\u6574\u5099\u5c40 \u9577\u5d0e\u5de5\u4e8b\u4e8b\u52d9\u6240 \u5de5\u52d9\u8ab2\"","boring_xml_url":70,"boring_view_url":1,"soilmap_view_url":null,"soiltest_xml_url":0,"soiltest_view_url":0},{"id":529086,"code":"B4KJ202201003-1622","latitude":"32.891713","longitude":"129.973418","source_code":"QS2002894540020070010","project_name":"\u9577\u5d0e34\u53f7\u4e45\u539f\u5730\u533a\u59161\u4ef6\u5730\u8cea\u8abf\u67fb\u696d\u52d9","survey_name":"\u9577\u5d0e34\u53f7\u4e45\u539f\u5730\u533a\u59161\u4ef6\u5730\u8cea\u8abf\u67fb\u696d\u52d9","client_name":"\"\u56fd\u571f\u4ea4\u901a\u7701 \u4e5d\u5dde\u5730\u65b9\u6574\u5099\u5c40 \u9577\u5d0e\u5de5\u4e8b\u4e8b\u52d9\u6240 \u5de5\u52d9\u8ab2\"","boring_xml_url":70,"boring_view_url":1,"soilmap_view_url":null,"soiltest_xml_url":0,"soiltest_view_url":0},{"id":529085,"code":"B4KJ202201003-1621","latitude":"32.891907","longitude":"129.974473","source_code":"QS2002894540020070009","project_name":"\u9577\u5d0e34\u53f7\u4e45\u539f\u5730\u533a\u59161\u4ef6\u5730\u8cea\u8abf\u67fb\u696d\u52d9","survey_name":"\u9577\u5d0e34\u53f7\u4e45\u539f\u5730\u533a\u59161\u4ef6\u5730\u8cea\u8abf\u67fb\u696d\u52d9","client_name":"\"\u56fd\u571f\u4ea4\u901a\u7701 \u4e5d\u5dde\u5730\u65b9\u6574\u5099\u5c40 \u9577\u5d0e\u5de5\u4e8b\u4e8b\u52d9\u6240 \u5de5\u52d9\u8ab2\"","boring_xml_url":70,"boring_view_url":1,"soilmap_view_url":null,"soiltest_xml_url":0,"soiltest_view_url":0},{"id":529084,"code":"B4KJ202201003-1620","latitude":"32.891046","longitude":"129.971196","source_code":"QS2002894540020070008","project_name":"\u9577\u5d0e34\u53f7\u4e45\u539f\u5730\u533a\u59161\u4ef6\u5730\u8cea\u8abf\u67fb\u696d\u52d9","survey_name":"\u9577\u5d0e34\u53f7\u4e45\u539f\u5730\u533a\u59161\u4ef6\u5730\u8cea\u8abf\u67fb\u696d\u52d9","client_name":"\"\u56fd\u571f\u4ea4\u901a\u7701 \u4e5d\u5dde\u5730\u65b9\u6574\u5099\u5c40 \u9577\u5d0e\u5de5\u4e8b\u4e8b\u52d9\u6240 \u5de5\u52d9\u8ab2\"","boring_xml_url":70,"boring_view_url":1,"soilmap_view_url":null,"soiltest_xml_url":0,"soiltest_view_url":0},{"id":529083,"code":"B4KJ202201003-1619","latitude":"32.833193","longitude":"130.084717","source_code":"QS2002894540020000006","project_name":"\u9577\u5d0e57\u53f7\u68ee\u5c71\u5730\u533a\u5730\u8cea\u8abf\u67fb\u696d\u52d9","survey_name":"\u9577\u5d0e57\u53f7\u68ee\u5c71\u5730\u533a\u5730\u8cea\u8abf\u67fb\u696d\u52d9","client_name":"\u56fd\u571f\u4ea4\u901a\u7701\u9577\u5d0e\u5de5\u4e8b\u4e8b\u52d9\u6240","boring_xml_url":70,"boring_view_url":1,"soilmap_view_url":null,"soiltest_xml_url":0,"soiltest_view_url":0},{"id":529082,"code":"B4KJ202201003-1618","latitude":"32.833443","longitude":"130.086244","source_code":"QS2002894540020000005","project_name":"\u9577\u5d0e57\u53f7\u68ee\u5c71\u5730\u533a\u5730\u8cea\u8abf\u67fb\u696d\u52d9","survey_name":"\u9577\u5d0e57\u53f7\u68ee\u5c71\u5730\u533a\u5730\u8cea\u8abf\u67fb\u696d\u52d9","client_name":"\u56fd\u571f\u4ea4\u901a\u7701\u9577\u5d0e\u5de5\u4e8b\u4e8b\u52d9\u6240","boring_xml_url":70,"boring_view_url":1,"soilmap_view_url":null,"soiltest_xml_url":0,"soiltest_view_url":0},{"id":529081,"code":"B4KJ202201003-1617","latitude":"32.833304","longitude":"130.087355","source_code":"QS2002894540020000004","project_name":"\u9577\u5d0e57\u53f7\u68ee\u5c71\u5730\u533a\u5730\u8cea\u8abf\u67fb\u696d\u52d9","survey_name":"\u9577\u5d0e57\u53f7\u68ee\u5c71\u5730\u533a\u5730\u8cea\u8abf\u67fb\u696d\u52d9","client_name":"\u56fd\u571f\u4ea4\u901a\u7701\u9577\u5d0e\u5de5\u4e8b\u4e8b\u52d9\u6240","boring_xml_url":70,"boring_view_url":1,"soilmap_view_url":null,"soiltest_xml_url":0,"soiltest_view_url":0},{"id":529080,"code":"B4KJ202201003-1616","latitude":"32.83386","longitude":"130.088133","source_code":"QS2002894540020000003","project_name":"\u9577\u5d0e57\u53f7\u68ee\u5c71\u5730\u533a\u5730\u8cea\u8abf\u67fb\u696d\u52d9","survey_name":"\u9577\u5d0e57\u53f7\u68ee\u5c71\u5730\u533a\u5730\u8cea\u8abf\u67fb\u696d\u52d9","client_name":"\u56fd\u571f\u4ea4\u901a\u7701\u9577\u5d0e\u5de5\u4e8b\u4e8b\u52d9\u6240","boring_xml_url":70,"boring_view_url":1,"soilmap_view_url":null,"soiltest_xml_url":0,"soiltest_view_url":0},{"id":529079,"code":"B4KJ202201003-1615","latitude":"32.834693","longitude":"130.089966","source_code":"QS2002894540020000002","project_name":"\u9577\u5d0e57\u53f7\u68ee\u5c71\u5730\u533a\u5730\u8cea\u8abf\u67fb\u696d\u52d9","survey_name":"\u9577\u5d0e57\u53f7\u68ee\u5c71\u5730\u533a\u5730\u8cea\u8abf\u67fb\u696d\u52d9","client_name":"\u56fd\u571f\u4ea4\u901a\u7701\u9577\u5d0e\u5de5\u4e8b\u4e8b\u52d9\u6240","boring_xml_url":70,"boring_view_url":1,"soilmap_view_url":null,"soiltest_xml_url":0,"soiltest_view_url":0},{"id":529078,"code":"B4KJ202201003-1614","latitude":"32.835082","longitude":"130.091549","source_code":"QS2002894540020000001","project_name":"\u9577\u5d0e57\u53f7\u68ee\u5c71\u5730\u533a\u5730\u8cea\u8abf\u67fb\u696d\u52d9","survey_name":"\u9577\u5d0e57\u53f7\u68ee\u5c71\u5730\u533a\u5730\u8cea\u8abf\u67fb\u696d\u52d9","client_name":"\u56fd\u571f\u4ea4\u901a\u7701\u9577\u5d0e\u5de5\u4e8b\u4e8b\u52d9\u6240","boring_xml_url":70,"boring_view_url":1,"soilmap_view_url":null,"soiltest_xml_url":0,"soiltest_view_url":0},{"id":529077,"code":"B4KJ202201003-1613","latitude":"32.639358","longitude":"131.689477","source_code":"QS20018966630200190004","project_name":"\u5ef6\u5ca1\u9053\u8def(\u9808\u4f50\u5730\u533a)\u5730\u8cea\u8abf\u67fb\u696d\u52d9","survey_name":"\u5ef6\u5ca1\u9053\u8def\u5efa\u8a2d\u4e8b\u696d","client_name":"\u56fd\u571f\u4ea4\u901a\u7701\u4e5d\u5dde\u5730\u65b9\u6574\u5099\u5c40\u5ef6\u5ca1\u5de5\u4e8b\u4e8b\u52d9\u6240\u8abf\u67fb\u7b2c\u4e8c\u8ab2","boring_xml_url":72,"boring_view_url":1,"soilmap_view_url":null,"soiltest_xml_url":0,"soiltest_view_url":0},{"id":529076,"code":"B4KJ202201003-1612","latitude":"32.640191","longitude":"131.706948","source_code":"QS20018966630200190003","project_name":"\u5ef6\u5ca1\u9053\u8def(\u9808\u4f50\u5730\u533a)\u5730\u8cea\u8abf\u67fb\u696d\u52d9","survey_name":"\u5ef6\u5ca1\u9053\u8def\u5efa\u8a2d\u4e8b\u696d","client_name":"\u56fd\u571f\u4ea4\u901a\u7701\u4e5d\u5dde\u5730\u65b9\u6574\u5099\u5c40\u5ef6\u5ca1\u5de5\u4e8b\u4e8b\u52d9\u6240\u8abf\u67fb\u7b2c\u4e8c\u8ab2","boring_xml_url":72,"boring_view_url":1,"soilmap_view_url":null,"soiltest_xml_url":0,"soiltest_view_url":0},{"id":529075,"code":"B4KJ202201003-1611","latitude":"32.641135","longitude":"131.691115","source_code":"QS20018966630200190002","project_name":"\u5ef6\u5ca1\u9053\u8def(\u9808\u4f50\u5730\u533a)\u5730\u8cea\u8abf\u67fb\u696d\u52d9","survey_name":"\u5ef6\u5ca1\u9053\u8def\u5efa\u8a2d\u4e8b\u696d","client_name":"\u56fd\u571f\u4ea4\u901a\u7701\u4e5d\u5dde\u5730\u65b9\u6574\u5099\u5c40\u5ef6\u5ca1\u5de5\u4e8b\u4e8b\u52d9\u6240\u8abf\u67fb\u7b2c\u4e8c\u8ab2","boring_xml_url":72,"boring_view_url":1,"soilmap_view_url":null,"soiltest_xml_url":0,"soiltest_view_url":0},{"id":529074,"code":"B4KJ202201003-1610","latitude":"32.64208","longitude":"131.691976","source_code":"QS20018966630200190001","project_name":"\u5ef6\u5ca1\u9053\u8def(\u9808\u4f50\u5730\u533a)\u5730\u8cea\u8abf\u67fb\u696d\u52d9","survey_name":"\u5ef6\u5ca1\u9053\u8def\u5efa\u8a2d\u4e8b\u696d","client_name":"\u56fd\u571f\u4ea4\u901a\u7701\u4e5d\u5dde\u5730\u65b9\u6574\u5099\u5c40\u5ef6\u5ca1\u5de5\u4e8b\u4e8b\u52d9\u6240\u8abf\u67fb\u7b2c\u4e8c\u8ab2","boring_xml_url":72,"boring_view_url":1,"soilmap_view_url":null,"soiltest_xml_url":0,"soiltest_view_url":0},{"id":529073,"code":"B4KJ202201003-1609","latitude":"32.638247","longitude":"131.688032","source_code":"QS20018966630200170007","project_name":"","survey_name":"\u5ef6\u5ca1\u9053\u8def\uff08\u4e09\u8db3\u5730\u533a\uff09\u5730\u8cea\u8abf\u67fb\u696d\u52d9","client_name":"\u56fd\u571f\u4ea4\u901a\u7701\u5ef6\u5ca1\u5de5\u4e8b\u4e8b\u52d9\u6240","boring_xml_url":72,"boring_view_url":1,"soilmap_view_url":null,"soiltest_xml_url":0,"soiltest_view_url":0},{"id":529072,"code":"B4KJ202201003-1608","latitude":"32.638469","longitude":"131.688449","source_code":"QS20018966630200170006","project_name":"","survey_name":"\u5ef6\u5ca1\u9053\u8def\uff08\u4e09\u8db3\u5730\u533a\uff09\u5730\u8cea\u8abf\u67fb\u696d\u52d9","client_name":"\u56fd\u571f\u4ea4\u901a\u7701\u5ef6\u5ca1\u5de5\u4e8b\u4e8b\u52d9\u6240","boring_xml_url":72,"boring_view_url":1,"soilmap_view_url":null,"soiltest_xml_url":0,"soiltest_view_url":0},{"id":529071,"code":"B4KJ202201003-1607","latitude":"32.634386","longitude":"131.684033","source_code":"QS20018966630200170005","project_name":"","survey_name":"\u5ef6\u5ca1\u9053\u8def\uff08\u4e09\u8db3\u5730\u533a\uff09\u5730\u8cea\u8abf\u67fb\u696d\u52d9","client_name":"\u56fd\u571f\u4ea4\u901a\u7701\u5ef6\u5ca1\u5de5\u4e8b\u4e8b\u52d9\u6240","boring_xml_url":72,"boring_view_url":1,"soilmap_view_url":null,"soiltest_xml_url":0,"soiltest_view_url":0},{"id":529070,"code":"B4KJ202201003-1606","latitude":"32.638469","longitude":"131.689116","source_code":"QS20018966630200170004","project_name":"","survey_name":"\u5ef6\u5ca1\u9053\u8def\uff08\u4e09\u8db3\u5730\u533a\uff09\u5730\u8cea\u8abf\u67fb\u696d\u52d9","client_name":"\u56fd\u571f\u4ea4\u901a\u7701\u5ef6\u5ca1\u5de5\u4e8b\u4e8b\u52d9\u6240","boring_xml_url":72,"boring_view_url":1,"soilmap_view_url":null,"soiltest_xml_url":0,"soiltest_view_url":0},{"id":529069,"code":"B4KJ202201003-1605","latitude":"32.638469","longitude":"131.688699","source_code":"QS20018966630200170003","project_name":"","survey_name":"\u5ef6\u5ca1\u9053\u8def\uff08\u4e09\u8db3\u5730\u533a\uff09\u5730\u8cea\u8abf\u67fb\u696d\u52d9","client_name":"\u56fd\u571f\u4ea4\u901a\u7701\u5ef6\u5ca1\u5de5\u4e8b\u4e8b\u52d9\u6240","boring_xml_url":72,"boring_view_url":1,"soilmap_view_url":null,"soiltest_xml_url":0,"soiltest_view_url":0}]}}