{"header":{"xyz":{"source":[],"mosaic":false},"page":545,"raw":{"soiltest_result":"0","bbox":"57.598333,109.544722,1.933333,163.806111","page":"545"},"conditions":{"soiltest_result":0,"north":57.598333,"west":109.544722,"south":1.933333,"east":163.806111},"success":true,"message":""},"data":{"meta":{"total":212844,"page":545,"pages":7095,"count":30},"values":[{"id":529068,"code":"B4KJ202201003-1604","latitude":"32.63858","longitude":"131.688838","source_code":"QS20018966630200170002","project_name":"","survey_name":"\u5ef6\u5ca1\u9053\u8def\uff08\u4e09\u8db3\u5730\u533a\uff09\u5730\u8cea\u8abf\u67fb\u696d\u52d9","client_name":"\u56fd\u571f\u4ea4\u901a\u7701\u5ef6\u5ca1\u5de5\u4e8b\u4e8b\u52d9\u6240","boring_xml_url":72,"boring_view_url":1,"soilmap_view_url":null,"soiltest_xml_url":0,"soiltest_view_url":0},{"id":529067,"code":"B4KJ202201003-1603","latitude":"32.63858","longitude":"131.688838","source_code":"QS20018966630200170001","project_name":"","survey_name":"\u5ef6\u5ca1\u9053\u8def\uff08\u4e09\u8db3\u5730\u533a\uff09\u5730\u8cea\u8abf\u67fb\u696d\u52d9","client_name":"\u56fd\u571f\u4ea4\u901a\u7701\u5ef6\u5ca1\u5de5\u4e8b\u4e8b\u52d9\u6240","boring_xml_url":72,"boring_view_url":1,"soilmap_view_url":null,"soiltest_xml_url":0,"soiltest_view_url":0},{"id":529066,"code":"B4KJ202201003-1602","latitude":"32.053936","longitude":"131.475102","source_code":"QS20018965610200140002","project_name":"","survey_name":"\u65b0\u5bcc\u30d0\u30a4\u30d1\u30b9\u5730\u8cea\u8abf\u67fb\u696d\u52d9","client_name":"\u56fd\u571f\u4ea4\u901a\u7701\u4e5d\u5dde\u5730\u65b9\u6574\u5099\u5c40\u5bae\u5d0e\u5de5\u4e8b\u4e8b\u52d9\u6240","boring_xml_url":72,"boring_view_url":1,"soilmap_view_url":null,"soiltest_xml_url":0,"soiltest_view_url":0},{"id":529065,"code":"B4KJ202201003-1601","latitude":"32.053936","longitude":"131.475102","source_code":"QS20018965610200140001","project_name":"","survey_name":"\u65b0\u5bcc\u30d0\u30a4\u30d1\u30b9\u5730\u8cea\u8abf\u67fb\u696d\u52d9","client_name":"\u56fd\u571f\u4ea4\u901a\u7701\u4e5d\u5dde\u5730\u65b9\u6574\u5099\u5c40\u5bae\u5d0e\u5de5\u4e8b\u4e8b\u52d9\u6240","boring_xml_url":72,"boring_view_url":1,"soilmap_view_url":null,"soiltest_xml_url":0,"soiltest_view_url":0},{"id":529064,"code":"B4KJ202201003-1600","latitude":"33.123611","longitude":"131.502222","source_code":"QS2001896062020050002","project_name":"","survey_name":"\u5e73\u621013\u5e74\u5ea6\u5927\u5206\u5ddd\u30c0\u30e0\u30b5\u30a4\u30c8\u5730\u8cea\u8abf\u67fb\uff08\u305d\u306e4\uff09\u696d\u52d9","client_name":"\u56fd\u571f\u4ea4\u901a\u7701\u4e5d\u5dde\u5730\u65b9\u6574\u5099\u5c40\u5927\u5206\u5de5\u4e8b\u4e8b\u52d9\u6240","boring_xml_url":70,"boring_view_url":1,"soilmap_view_url":null,"soiltest_xml_url":0,"soiltest_view_url":0},{"id":529063,"code":"B4KJ202201003-1599","latitude":"33.123611","longitude":"131.501944","source_code":"QS2001896062020050001","project_name":"","survey_name":"\u5e73\u621013\u5e74\u5ea6\u5927\u5206\u5ddd\u30c0\u30e0\u30b5\u30a4\u30c8\u5730\u8cea\u8abf\u67fb\uff08\u305d\u306e4\uff09\u696d\u52d9","client_name":"\u56fd\u571f\u4ea4\u901a\u7701\u3000\u5927\u5206\u5de5\u4e8b\u4e8b\u52d9\u6240","boring_xml_url":70,"boring_view_url":1,"soilmap_view_url":null,"soiltest_xml_url":0,"soiltest_view_url":0},{"id":529062,"code":"B4KJ202201003-1598","latitude":"33.133651","longitude":"130.877669","source_code":"QS20018960610200310015","project_name":"\u5927\u5206387\u53f7\u9662\u5185\u5730\u533a\u5730\u8cea\u8abf\u67fb\u696d\u52d9","survey_name":"\u5927\u5206387\u53f7\u9662\u5185\u5730\u533a\u5730\u8cea\u8abf\u67fb\u696d\u52d9","client_name":"\"\u4e5d\u5dde\u5730\u65b9\u6574\u5099\u5c40  \u5927\u5206\u5de5\u4e8b\u4e8b\u52d9\u6240\"","boring_xml_url":72,"boring_view_url":1,"soilmap_view_url":null,"soiltest_xml_url":0,"soiltest_view_url":0},{"id":529061,"code":"B4KJ202201003-1597","latitude":"33.134317","longitude":"130.876947","source_code":"QS20018960610200310014","project_name":"\u5927\u5206387\u53f7\u9662\u5185\u5730\u533a\u5730\u8cea\u8abf\u67fb\u696d\u52d9","survey_name":"\u5927\u5206387\u53f7\u9662\u5185\u5730\u533a\u5730\u8cea\u8abf\u67fb\u696d\u52d9","client_name":"\"\u4e5d\u5dde\u5730\u65b9\u6574\u5099\u5c40  \u5927\u5206\u5de5\u4e8b\u4e8b\u52d9\u6240\"","boring_xml_url":72,"boring_view_url":1,"soilmap_view_url":null,"soiltest_xml_url":0,"soiltest_view_url":0},{"id":529060,"code":"B4KJ202201003-1596","latitude":"33.134095","longitude":"130.877086","source_code":"QS20018960610200310013","project_name":"\u5927\u5206387\u53f7\u9662\u5185\u5730\u533a\u5730\u8cea\u8abf\u67fb\u696d\u52d9","survey_name":"\u5927\u5206387\u53f7\u9662\u5185\u5730\u533a\u5730\u8cea\u8abf\u67fb\u696d\u52d9","client_name":"\"\u4e5d\u5dde\u5730\u65b9\u6574\u5099\u5c40  \u5927\u5206\u5de5\u4e8b\u4e8b\u52d9\u6240\"","boring_xml_url":72,"boring_view_url":1,"soilmap_view_url":null,"soiltest_xml_url":0,"soiltest_view_url":0},{"id":529059,"code":"B4KJ202201003-1595","latitude":"33.134095","longitude":"130.877614","source_code":"QS20018960610200310012","project_name":"\u5927\u5206387\u53f7\u9662\u5185\u5730\u533a\u5730\u8cea\u8abf\u67fb\u696d\u52d9","survey_name":"\u5927\u5206387\u53f7\u9662\u5185\u5730\u533a\u5730\u8cea\u8abf\u67fb\u696d\u52d9","client_name":"\"\u4e5d\u5dde\u5730\u65b9\u6574\u5099\u5c40  \u5927\u5206\u5de5\u4e8b\u4e8b\u52d9\u6240\"","boring_xml_url":72,"boring_view_url":1,"soilmap_view_url":null,"soiltest_xml_url":0,"soiltest_view_url":0},{"id":529058,"code":"B4KJ202201003-1594","latitude":"33.374275","longitude":"131.268049","source_code":"QS20018960610200310011","project_name":"\u5927\u5206387\u53f7\u9662\u5185\u5730\u533a\u5730\u8cea\u8abf\u67fb\u696d\u52d9","survey_name":"\u5927\u5206387\u53f7\u9662\u5185\u5730\u533a\u5730\u8cea\u8abf\u67fb\u696d\u52d9","client_name":"\"\u4e5d\u5dde\u5730\u65b9\u6574\u5099\u5c40  \u5927\u5206\u5de5\u4e8b\u4e8b\u52d9\u6240\"","boring_xml_url":72,"boring_view_url":1,"soilmap_view_url":null,"soiltest_xml_url":0,"soiltest_view_url":0},{"id":529057,"code":"B4KJ202201003-1593","latitude":"33.375053","longitude":"131.268632","source_code":"QS20018960610200310010","project_name":"\u5927\u5206387\u53f7\u9662\u5185\u5730\u533a\u5730\u8cea\u8abf\u67fb\u696d\u52d9","survey_name":"\u5927\u5206387\u53f7\u9662\u5185\u5730\u533a\u5730\u8cea\u8abf\u67fb\u696d\u52d9","client_name":"\"\u4e5d\u5dde\u5730\u65b9\u6574\u5099\u5c40  \u5927\u5206\u5de5\u4e8b\u4e8b\u52d9\u6240\"","boring_xml_url":72,"boring_view_url":1,"soilmap_view_url":null,"soiltest_xml_url":0,"soiltest_view_url":0},{"id":529056,"code":"B4KJ202201003-1592","latitude":"33.375386","longitude":"131.268354","source_code":"QS20018960610200310009","project_name":"\u5927\u5206387\u53f7\u9662\u5185\u5730\u533a\u5730\u8cea\u8abf\u67fb\u696d\u52d9","survey_name":"\u5927\u5206387\u53f7\u9662\u5185\u5730\u533a\u5730\u8cea\u8abf\u67fb\u696d\u52d9","client_name":"\"\u4e5d\u5dde\u5730\u65b9\u6574\u5099\u5c40  \u5927\u5206\u5de5\u4e8b\u4e8b\u52d9\u6240\"","boring_xml_url":72,"boring_view_url":1,"soilmap_view_url":null,"soiltest_xml_url":0,"soiltest_view_url":0},{"id":529055,"code":"B4KJ202201003-1591","latitude":"33.375608","longitude":"131.268076","source_code":"QS20018960610200310008","project_name":"\u5927\u5206387\u53f7\u9662\u5185\u5730\u533a\u5730\u8cea\u8abf\u67fb\u696d\u52d9","survey_name":"\u5927\u5206387\u53f7\u9662\u5185\u5730\u533a\u5730\u8cea\u8abf\u67fb\u696d\u52d9","client_name":"\"\u4e5d\u5dde\u5730\u65b9\u6574\u5099\u5c40  \u5927\u5206\u5de5\u4e8b\u4e8b\u52d9\u6240\"","boring_xml_url":72,"boring_view_url":1,"soilmap_view_url":null,"soiltest_xml_url":0,"soiltest_view_url":0},{"id":529054,"code":"B4KJ202201003-1590","latitude":"33.375858","longitude":"131.267688","source_code":"QS20018960610200310007","project_name":"\u5927\u5206387\u53f7\u9662\u5185\u5730\u533a\u5730\u8cea\u8abf\u67fb\u696d\u52d9","survey_name":"\u5927\u5206387\u53f7\u9662\u5185\u5730\u533a\u5730\u8cea\u8abf\u67fb\u696d\u52d9","client_name":"\"\u4e5d\u5dde\u5730\u65b9\u6574\u5099\u5c40  \u5927\u5206\u5de5\u4e8b\u4e8b\u52d9\u6240\"","boring_xml_url":72,"boring_view_url":1,"soilmap_view_url":null,"soiltest_xml_url":0,"soiltest_view_url":0},{"id":529053,"code":"B4KJ202201003-1589","latitude":"33.37608","longitude":"131.267271","source_code":"QS20018960610200310006","project_name":"\u5927\u5206387\u53f7\u9662\u5185\u5730\u533a\u5730\u8cea\u8abf\u67fb\u696d\u52d9","survey_name":"\u5927\u5206387\u53f7\u9662\u5185\u5730\u533a\u5730\u8cea\u8abf\u67fb\u696d\u52d9","client_name":"\"\u4e5d\u5dde\u5730\u65b9\u6574\u5099\u5c40  \u5927\u5206\u5de5\u4e8b\u4e8b\u52d9\u6240\"","boring_xml_url":72,"boring_view_url":1,"soilmap_view_url":null,"soiltest_xml_url":0,"soiltest_view_url":0},{"id":529052,"code":"B4KJ202201003-1588","latitude":"33.378552","longitude":"131.263132","source_code":"QS20018960610200310005","project_name":"\u5927\u5206387\u53f7\u9662\u5185\u5730\u533a\u5730\u8cea\u8abf\u67fb\u696d\u52d9","survey_name":"\u5927\u5206\u770c\u5b87\u4f50\u90e1\u9662\u5185\u753a","client_name":"\"\u4e5d\u5dde\u5730\u65b9\u6574\u5099\u5c40  \u5927\u5206\u5de5\u4e8b\u4e8b\u52d9\u6240\"","boring_xml_url":72,"boring_view_url":1,"soilmap_view_url":null,"soiltest_xml_url":0,"soiltest_view_url":0},{"id":529051,"code":"B4KJ202201003-1587","latitude":"33.379135","longitude":"131.262966","source_code":"QS20018960610200310004","project_name":"\u5927\u5206387\u53f7\u9662\u5185\u5730\u533a\u5730\u8cea\u8abf\u67fb\u696d\u52d9","survey_name":"\u5927\u5206\u770c\u5b87\u4f50\u90e1\u9662\u5185\u753a","client_name":"\"\u4e5d\u5dde\u5730\u65b9\u6574\u5099\u5c40  \u5927\u5206\u5de5\u4e8b\u4e8b\u52d9\u6240\"","boring_xml_url":72,"boring_view_url":1,"soilmap_view_url":null,"soiltest_xml_url":0,"soiltest_view_url":0},{"id":529050,"code":"B4KJ202201003-1586","latitude":"33.379691","longitude":"131.263355","source_code":"QS20018960610200310003","project_name":"\u5927\u5206387\u53f7\u9662\u5185\u5730\u533a\u5730\u8cea\u8abf\u67fb\u696d\u52d9","survey_name":"\u5927\u5206387\u53f7\u9662\u5185\u5730\u533a\u5730\u8cea\u8abf\u67fb\u696d\u52d9","client_name":"\"\u4e5d\u5dde\u5730\u65b9\u6574\u5099\u5c40  \u5927\u5206\u5de5\u4e8b\u4e8b\u52d9\u6240\"","boring_xml_url":72,"boring_view_url":1,"soilmap_view_url":null,"soiltest_xml_url":0,"soiltest_view_url":0},{"id":529049,"code":"B4KJ202201003-1585","latitude":"33.380246","longitude":"131.264049","source_code":"QS20018960610200310002","project_name":"\u5927\u5206387\u53f7\u9662\u5185\u5730\u533a\u5730\u8cea\u8abf\u67fb\u696d\u52d9","survey_name":"\u5927\u5206387\u53f7\u9662\u5185\u5730\u533a\u5730\u8cea\u8abf\u67fb\u696d\u52d9","client_name":"\"\u4e5d\u5dde\u5730\u65b9\u6574\u5099\u5c40  \u5927\u5206\u5de5\u4e8b\u4e8b\u52d9\u6240\"","boring_xml_url":72,"boring_view_url":1,"soilmap_view_url":null,"soiltest_xml_url":0,"soiltest_view_url":0},{"id":529048,"code":"B4KJ202201003-1584","latitude":"33.380024","longitude":"131.264577","source_code":"QS20018960610200310001","project_name":"\u5927\u5206387\u53f7\u9662\u5185\u5730\u533a\u5730\u8cea\u8abf\u67fb\u696d\u52d9","survey_name":"\u5927\u5206387\u53f7\u9662\u5185\u5730\u533a\u5730\u8cea\u8abf\u67fb\u696d\u52d9","client_name":"\"\u4e5d\u5dde\u5730\u65b9\u6574\u5099\u5c40  \u5927\u5206\u5de5\u4e8b\u4e8b\u52d9\u6240\"","boring_xml_url":72,"boring_view_url":1,"soilmap_view_url":null,"soiltest_xml_url":0,"soiltest_view_url":0},{"id":529047,"code":"B4KJ202201003-1583","latitude":"32.355472","longitude":"130.841417","source_code":"QS20028952450200030008","project_name":"","survey_name":"\u4ed8\u66ff\u6751\u9053\u6e05\u697d\u5730\u533a\u5730\u8cea\u8abf\u67fb\u696d\u52d9","client_name":"\u56fd\u571f\u4ea4\u901a\u7701\u3000\u4e5d\u5dde\u5730\u65b9\u6574\u5099\u5c40\u3000\u5ddd\u8fba\u5ddd\u5de5\u4e8b\u4e8b\u52d9\u6240","boring_xml_url":72,"boring_view_url":1,"soilmap_view_url":null,"soiltest_xml_url":0,"soiltest_view_url":0},{"id":529046,"code":"B4KJ202201003-1582","latitude":"32.355361","longitude":"130.841361","source_code":"QS20028952450200030007","project_name":"","survey_name":"\u4ed8\u66ff\u6751\u9053\u6e05\u697d\u5730\u533a\u5730\u8cea\u8abf\u67fb\u696d\u52d9","client_name":"\u56fd\u571f\u4ea4\u901a\u7701\u3000\u4e5d\u5dde\u5730\u65b9\u6574\u5099\u5c40\u3000\u5ddd\u8fba\u5ddd\u5de5\u4e8b\u4e8b\u52d9\u6240","boring_xml_url":72,"boring_view_url":1,"soilmap_view_url":null,"soiltest_xml_url":0,"soiltest_view_url":0},{"id":529045,"code":"B4KJ202201003-1581","latitude":"32.355389","longitude":"130.841944","source_code":"QS20028952450200030005","project_name":"","survey_name":"\u4ed8\u66ff\u6751\u9053\u6e05\u697d\u5730\u533a\u5730\u8cea\u8abf\u67fb\u696d\u52d9","client_name":"\u56fd\u571f\u4ea4\u901a\u7701\u3000\u4e5d\u5dde\u5730\u65b9\u6574\u5099\u5c40\u3000\u5ddd\u8fba\u5ddd\u5de5\u4e8b\u4e8b\u52d9\u6240","boring_xml_url":72,"boring_view_url":1,"soilmap_view_url":null,"soiltest_xml_url":0,"soiltest_view_url":0},{"id":529044,"code":"B4KJ202201003-1580","latitude":"32.355444","longitude":"130.842056","source_code":"QS20028952450200030004","project_name":"","survey_name":"\u4ed8\u66ff\u6751\u9053\u6e05\u697d\u5730\u533a\u5730\u8cea\u8abf\u67fb\u696d\u52d9","client_name":"\u56fd\u571f\u4ea4\u901a\u7701\u3000\u4e5d\u5dde\u5730\u65b9\u6574\u5099\u5c40\u3000\u5ddd\u8fba\u5ddd\u5de5\u4e8b\u4e8b\u52d9\u6240","boring_xml_url":72,"boring_view_url":1,"soilmap_view_url":null,"soiltest_xml_url":0,"soiltest_view_url":0},{"id":529043,"code":"B4KJ202201003-1579","latitude":"32.355472","longitude":"130.842139","source_code":"QS20028952450200030003","project_name":"","survey_name":"\u4ed8\u66ff\u6751\u9053\u6e05\u697d\u5730\u533a\u5730\u8cea\u8abf\u67fb\u696d\u52d9","client_name":"\u56fd\u571f\u4ea4\u901a\u7701\u3000\u4e5d\u5dde\u5730\u65b9\u6574\u5099\u5c40\u3000\u5ddd\u8fba\u5ddd\u5de5\u4e8b\u4e8b\u52d9\u6240","boring_xml_url":72,"boring_view_url":1,"soilmap_view_url":null,"soiltest_xml_url":0,"soiltest_view_url":0},{"id":529042,"code":"B4KJ202201003-1578","latitude":"32.355583","longitude":"130.842861","source_code":"QS20028952450200030002","project_name":"","survey_name":"\u4ed8\u66ff\u6751\u9053\u6e05\u697d\u5730\u533a\u5730\u8cea\u8abf\u67fb\u696d\u52d9","client_name":"\u56fd\u571f\u4ea4\u901a\u7701\u3000\u4e5d\u5dde\u5730\u65b9\u6574\u5099\u5c40\u3000\u5ddd\u8fba\u5ddd\u5de5\u4e8b\u4e8b\u52d9\u6240","boring_xml_url":72,"boring_view_url":1,"soilmap_view_url":null,"soiltest_xml_url":0,"soiltest_view_url":0},{"id":529041,"code":"B4KJ202201003-1577","latitude":"32.35575","longitude":"130.843333","source_code":"QS20028952450200030001","project_name":"","survey_name":"\u4ed8\u66ff\u6751\u9053\u6e05\u697d\u5730\u533a\u5730\u8cea\u8abf\u67fb\u696d\u52d9","client_name":"\u56fd\u571f\u4ea4\u901a\u7701\u3000\u4e5d\u5dde\u5730\u65b9\u6574\u5099\u5c40\u3000\u5ddd\u8fba\u5ddd\u5de5\u4e8b\u4e8b\u52d9\u6240","boring_xml_url":72,"boring_view_url":1,"soilmap_view_url":null,"soiltest_xml_url":0,"soiltest_view_url":0},{"id":529040,"code":"B4KJ202201003-1576","latitude":"33.828333","longitude":"130.608333","source_code":"QS20028933400200130020","project_name":"","survey_name":"\u9ed2\u5d0e\u5730\u533a\u59162\u4ef6\u5730\u8cea\u8abf\u67fb\u696d\u52d9","client_name":"\u56fd\u571f\u4ea4\u901a\u7701\u3000\u4e5d\u5dde\u5730\u65b9\u6574\u5099\u5c40\u3000\u5317\u4e5d\u5dde\u56fd\u9053\u5de5\u4e8b\u4e8b\u52d9\u6240","boring_xml_url":72,"boring_view_url":1,"soilmap_view_url":null,"soiltest_xml_url":0,"soiltest_view_url":0},{"id":529039,"code":"B4KJ202201003-1575","latitude":"33.832667","longitude":"130.611333","source_code":"QS20028933400200130019","project_name":"","survey_name":"\u9ed2\u5d0e\u5730\u533a\u59162\u4ef6\u5730\u8cea\u8abf\u67fb\u696d\u52d9","client_name":"\u56fd\u571f\u4ea4\u901a\u7701\u3000\u4e5d\u5dde\u5730\u65b9\u6574\u5099\u5c40\u3000\u5317\u4e5d\u5dde\u56fd\u9053\u5de5\u4e8b\u4e8b\u52d9\u6240","boring_xml_url":72,"boring_view_url":1,"soilmap_view_url":null,"soiltest_xml_url":0,"soiltest_view_url":0}]}}