{"header":{"xyz":{"source":[],"mosaic":false},"page":5451,"raw":{"soiltest_result":"0","bbox":"57.598333,109.544722,1.933333,163.806111","page":"5451"},"conditions":{"soiltest_result":0,"north":57.598333,"west":109.544722,"south":1.933333,"east":163.806111},"success":true,"message":""},"data":{"meta":{"total":212844,"page":5451,"pages":7095,"count":30},"values":[{"id":157045,"code":"B4KJ201801004-5294","latitude":"36.01834222","longitude":"140.0051017","source_code":"KT54400010002","project_name":"","survey_name":"\u5c0f\u8c9d\u5ddd\u4e2d\u6d41\u90e8(\u305d\u306e2)\u571f\u8cea\u8abf\u67fb","client_name":"\u56fd\u571f\u4ea4\u901a\u7701\u95a2\u6771\u5730\u65b9\u6574\u5099\u5c40\u4e0b\u9928\u6cb3\u5ddd\u4e8b\u52d9\u6240","boring_xml_url":40,"boring_view_url":1,"soilmap_view_url":null,"soiltest_xml_url":0,"soiltest_view_url":0},{"id":157044,"code":"B4KJ201801004-5293","latitude":"36.01673111","longitude":"140.0005189","source_code":"KT54400010001","project_name":"","survey_name":"\u5c0f\u8c9d\u5ddd\u4e2d\u6d41\u90e8(\u305d\u306e2)\u571f\u8cea\u8abf\u67fb","client_name":"\u56fd\u571f\u4ea4\u901a\u7701\u95a2\u6771\u5730\u65b9\u6574\u5099\u5c40\u4e0b\u9928\u6cb3\u5ddd\u4e8b\u52d9\u6240","boring_xml_url":40,"boring_view_url":1,"soilmap_view_url":null,"soiltest_xml_url":0,"soiltest_view_url":0},{"id":157043,"code":"B4KJ201801004-5292","latitude":"36.65618556","longitude":"139.966995","source_code":"KT54397787001","project_name":"","survey_name":"\u4e0a\u963f\u4e45\u6d25\u6a2a\u65ad\u6b69\u9053\u6a4b\u4ed61\u6a4b\u8a73\u7d30\u8a2d\u8a08","client_name":"\u56fd\u571f\u4ea4\u901a\u7701\u95a2\u6771\u5730\u65b9\u6574\u5099\u5c40\u5b87\u90fd\u5bae\u56fd\u9053\u4e8b\u52d9\u6240","boring_xml_url":40,"boring_view_url":1,"soilmap_view_url":null,"soiltest_xml_url":0,"soiltest_view_url":0},{"id":157042,"code":"B4KJ201801004-5291","latitude":"36.62693889","longitude":"139.9725792","source_code":"KT54397748006","project_name":"","survey_name":"\u9ad8\u6839\u6ca2\u5730\u533a\u5730\u8cea\u8abf\u67fb","client_name":"\u56fd\u571f\u4ea4\u901a\u7701\u95a2\u6771\u5730\u65b9\u6574\u5099\u5c40\u5b87\u90fd\u5bae\u56fd\u9053\u4e8b\u52d9\u6240","boring_xml_url":40,"boring_view_url":1,"soilmap_view_url":null,"soiltest_xml_url":0,"soiltest_view_url":0},{"id":157041,"code":"B4KJ201801004-5290","latitude":"36.62721667","longitude":"139.9725792","source_code":"KT54397748005","project_name":"","survey_name":"\u9ad8\u6839\u6ca2\u5730\u533a\u5730\u8cea\u8abf\u67fb","client_name":"\u56fd\u571f\u4ea4\u901a\u7701\u95a2\u6771\u5730\u65b9\u6574\u5099\u5c40\u5b87\u90fd\u5bae\u56fd\u9053\u4e8b\u52d9\u6240","boring_xml_url":40,"boring_view_url":1,"soilmap_view_url":null,"soiltest_xml_url":0,"soiltest_view_url":0},{"id":157040,"code":"B4KJ201801004-5289","latitude":"36.62685556","longitude":"139.9722736","source_code":"KT54397748004","project_name":"","survey_name":"\u9ad8\u6839\u6ca2\u5730\u533a\u5730\u8cea\u8abf\u67fb","client_name":"\u56fd\u571f\u4ea4\u901a\u7701\u95a2\u6771\u5730\u65b9\u6574\u5099\u5c40\u5b87\u90fd\u5bae\u56fd\u9053\u4e8b\u52d9\u6240","boring_xml_url":40,"boring_view_url":1,"soilmap_view_url":null,"soiltest_xml_url":0,"soiltest_view_url":0},{"id":157039,"code":"B4KJ201801004-5288","latitude":"36.61974528","longitude":"139.9729128","source_code":"KT54397738006","project_name":"","survey_name":"\u5b9d\u7a4d\u5bfa\u571f\u8cea\u8abf\u67fb","client_name":"\u56fd\u571f\u4ea4\u901a\u7701\u95a2\u6771\u5730\u65b9\u6574\u5099\u5c40\u4e0b\u9928\u6cb3\u5ddd\u4e8b\u52d9\u6240","boring_xml_url":40,"boring_view_url":1,"soilmap_view_url":null,"soiltest_xml_url":0,"soiltest_view_url":0},{"id":157038,"code":"B4KJ201801004-5287","latitude":"36.61974528","longitude":"139.9729128","source_code":"KT54397738005","project_name":"","survey_name":"\u5b9d\u7a4d\u5bfa\u571f\u8cea\u8abf\u67fb","client_name":"\u56fd\u571f\u4ea4\u901a\u7701\u95a2\u6771\u5730\u65b9\u6574\u5099\u5c40\u4e0b\u9928\u6cb3\u5ddd\u4e8b\u52d9\u6240","boring_xml_url":40,"boring_view_url":1,"soilmap_view_url":null,"soiltest_xml_url":0,"soiltest_view_url":0},{"id":157037,"code":"B4KJ201801004-5286","latitude":"36.61371833","longitude":"139.9747739","source_code":"KT54397738004","project_name":"","survey_name":"\u4e00\u822c\u56fd\u90534\u53f7\u5ca1\u672c\uff5e\u9ad8\u6839\u6ca2\u5730\u8cea\u571f\u8cea\u8abf\u67fb\u696d\u52d9\u59d4\u8a17","client_name":"\u56fd\u571f\u4ea4\u901a\u7701\u95a2\u6771\u5730\u65b9\u6574\u5099\u5c40\u5b87\u90fd\u5bae\u56fd\u9053\u4e8b\u52d9\u6240","boring_xml_url":40,"boring_view_url":1,"soilmap_view_url":null,"soiltest_xml_url":0,"soiltest_view_url":0},{"id":157036,"code":"B4KJ201801004-5285","latitude":"36.61305167","longitude":"139.9747739","source_code":"KT54397738003","project_name":"","survey_name":"\u4e00\u822c\u56fd\u90534\u53f7\u5ca1\u672c\uff5e\u9ad8\u6839\u6ca2\u5730\u8cea\u571f\u8cea\u8abf\u67fb\u696d\u52d9\u59d4\u8a17","client_name":"\u56fd\u571f\u4ea4\u901a\u7701\u95a2\u6771\u5730\u65b9\u6574\u5099\u5c40\u5b87\u90fd\u5bae\u56fd\u9053\u4e8b\u52d9\u6240","boring_xml_url":40,"boring_view_url":1,"soilmap_view_url":null,"soiltest_xml_url":0,"soiltest_view_url":0},{"id":157035,"code":"B4KJ201801004-5284","latitude":"36.61213528","longitude":"139.9753294","source_code":"KT54397738002","project_name":"","survey_name":"\u4e00\u822c\u56fd\u90534\u53f7\u5ca1\u672c\uff5e\u9ad8\u6839\u6ca2\u5730\u8cea\u571f\u8cea\u8abf\u67fb\u696d\u52d9\u59d4\u8a17","client_name":"\u56fd\u571f\u4ea4\u901a\u7701\u95a2\u6771\u5730\u65b9\u6574\u5099\u5c40\u5b87\u90fd\u5bae\u56fd\u9053\u4e8b\u52d9\u6240","boring_xml_url":40,"boring_view_url":1,"soilmap_view_url":null,"soiltest_xml_url":0,"soiltest_view_url":0},{"id":157034,"code":"B4KJ201801004-5283","latitude":"36.612385","longitude":"139.9744961","source_code":"KT54397738001","project_name":"","survey_name":"\u4e00\u822c\u56fd\u90534\u53f7\u5ca1\u672c\uff5e\u9ad8\u6839\u6ca2\u5730\u8cea\u571f\u8cea\u8abf\u67fb\u696d\u52d9\u59d4\u8a17","client_name":"\u56fd\u571f\u4ea4\u901a\u7701\u95a2\u6771\u5730\u65b9\u6574\u5099\u5c40\u5b87\u90fd\u5bae\u56fd\u9053\u4e8b\u52d9\u6240","boring_xml_url":40,"boring_view_url":1,"soilmap_view_url":null,"soiltest_xml_url":0,"soiltest_view_url":0},{"id":157033,"code":"B4KJ201801004-5282","latitude":"36.61057972","longitude":"139.9744964","source_code":"KT54397728001","project_name":"","survey_name":"\u4e00\u822c\u56fd\u90534\u53f7\u5ca1\u672c\uff5e\u9ad8\u6839\u6ca2\u5730\u8cea\u571f\u8cea\u8abf\u67fb\u696d\u52d9\u59d4\u8a17","client_name":"\u56fd\u571f\u4ea4\u901a\u7701\u95a2\u6771\u5730\u65b9\u6574\u5099\u5c40\u5b87\u90fd\u5bae\u56fd\u9053\u4e8b\u52d9\u6240","boring_xml_url":40,"boring_view_url":1,"soilmap_view_url":null,"soiltest_xml_url":0,"soiltest_view_url":0},{"id":157032,"code":"B4KJ201801004-5281","latitude":"36.60788528","longitude":"139.9668303","source_code":"KT54397727001","project_name":"","survey_name":"\u4e00\u822c\u56fd\u905350\u53f7\u4f50\u91ceB.P\u9ad8\u6a4b\u753a\u5730\u533a\u5730\u8cea\u571f\u8cea\u8abf\u67fb","client_name":"\u56fd\u571f\u4ea4\u901a\u7701\u95a2\u6771\u5730\u65b9\u6574\u5099\u5c40\u5b87\u90fd\u5bae\u56fd\u9053\u4e8b\u52d9\u6240","boring_xml_url":40,"boring_view_url":1,"soilmap_view_url":null,"soiltest_xml_url":0,"soiltest_view_url":0},{"id":157031,"code":"B4KJ201801004-5280","latitude":"36.60044139","longitude":"139.9544983","source_code":"KT54397716003","project_name":"","survey_name":"\u4e00\u822c\u56fd\u90534\u53f7\u5ca1\u672c\uff5e\u9ad8\u6839\u6ca2\u5730\u8cea\u571f\u8cea\u8abf\u67fb\u696d\u52d9\u59d4\u8a17","client_name":"\u56fd\u571f\u4ea4\u901a\u7701\u95a2\u6771\u5730\u65b9\u6574\u5099\u5c40\u5b87\u90fd\u5bae\u56fd\u9053\u4e8b\u52d9\u6240","boring_xml_url":40,"boring_view_url":1,"soilmap_view_url":null,"soiltest_xml_url":0,"soiltest_view_url":0},{"id":157030,"code":"B4KJ201801004-5279","latitude":"36.59908056","longitude":"139.9522764","source_code":"KT54397716002","project_name":"","survey_name":"\u4e00\u822c\u56fd\u90534\u53f7\u5ca1\u672c\uff5e\u9ad8\u6839\u6ca2\u5730\u8cea\u571f\u8cea\u8abf\u67fb\u696d\u52d9\u59d4\u8a17","client_name":"\u56fd\u571f\u4ea4\u901a\u7701\u95a2\u6771\u5730\u65b9\u6574\u5099\u5c40\u5b87\u90fd\u5bae\u56fd\u9053\u4e8b\u52d9\u6240","boring_xml_url":40,"boring_view_url":1,"soilmap_view_url":null,"soiltest_xml_url":0,"soiltest_view_url":0},{"id":157029,"code":"B4KJ201801004-5278","latitude":"36.597275","longitude":"139.9494989","source_code":"KT54397716001","project_name":"","survey_name":"\u4e00\u822c\u56fd\u90534\u53f7\u5ca1\u672c\uff5e\u9ad8\u6839\u6ca2\u5730\u8cea\u571f\u8cea\u8abf\u67fb\u696d\u52d9\u59d4\u8a17","client_name":"\u56fd\u571f\u4ea4\u901a\u7701\u95a2\u6771\u5730\u65b9\u6574\u5099\u5c40\u5b87\u90fd\u5bae\u56fd\u9053\u4e8b\u52d9\u6240","boring_xml_url":40,"boring_view_url":1,"soilmap_view_url":null,"soiltest_xml_url":0,"soiltest_view_url":0},{"id":157028,"code":"B4KJ201801004-5277","latitude":"36.58988667","longitude":"139.9330564","source_code":"KT54397704002","project_name":"","survey_name":"\u65b04\u53f7\u56fd\u9053\u7d50\u57ce\u5730\u533a\u305d\u306e\u4ed6\u5730\u8cea\u571f\u8cea\u8abf\u67fb","client_name":"\u56fd\u571f\u4ea4\u901a\u7701\u95a2\u6771\u5730\u65b9\u6574\u5099\u5c40\u5b87\u90fd\u5bae\u56fd\u9053\u4e8b\u52d9\u6240","boring_xml_url":40,"boring_view_url":1,"soilmap_view_url":null,"soiltest_xml_url":0,"soiltest_view_url":0},{"id":157027,"code":"B4KJ201801004-5276","latitude":"36.58966444","longitude":"139.9332786","source_code":"KT54397704001","project_name":"","survey_name":"\u65b04\u53f7\u56fd\u9053\u7d50\u57ce\u5730\u533a\u305d\u306e\u4ed6\u5730\u8cea\u571f\u8cea\u8abf\u67fb","client_name":"\u56fd\u571f\u4ea4\u901a\u7701\u95a2\u6771\u5730\u65b9\u6574\u5099\u5c40\u5b87\u90fd\u5bae\u56fd\u9053\u4e8b\u52d9\u6240","boring_xml_url":40,"boring_view_url":1,"soilmap_view_url":null,"soiltest_xml_url":0,"soiltest_view_url":0},{"id":157026,"code":"B4KJ201801004-5275","latitude":"36.66955889","longitude":"139.4573161","source_code":"KT54397396003","project_name":"","survey_name":"\u6df1\u6ca25\u53f7\u30c0\u30e0\u5730\u8cea\u8abf\u67fb","client_name":"\u56fd\u571f\u4ea4\u901a\u7701\u95a2\u6771\u5730\u65b9\u6574\u5099\u5c40\u6e21\u826f\u702c\u5ddd\u6cb3\u5ddd\u4e8b\u52d9\u6240","boring_xml_url":40,"boring_view_url":1,"soilmap_view_url":null,"soiltest_xml_url":0,"soiltest_view_url":0},{"id":157025,"code":"B4KJ201801004-5274","latitude":"36.66950333","longitude":"139.4573994","source_code":"KT54397396002","project_name":"","survey_name":"\u6df1\u6ca25\u53f7\u30c0\u30e0\u5730\u8cea\u8abf\u67fb","client_name":"\u56fd\u571f\u4ea4\u901a\u7701\u95a2\u6771\u5730\u65b9\u6574\u5099\u5c40\u6e21\u826f\u702c\u5ddd\u6cb3\u5ddd\u4e8b\u52d9\u6240","boring_xml_url":40,"boring_view_url":1,"soilmap_view_url":null,"soiltest_xml_url":0,"soiltest_view_url":0},{"id":157024,"code":"B4KJ201801004-5273","latitude":"36.66944778","longitude":"139.457455","source_code":"KT54397396001","project_name":"","survey_name":"\u6df1\u6ca25\u53f7\u30c0\u30e0\u5730\u8cea\u8abf\u67fb","client_name":"\u56fd\u571f\u4ea4\u901a\u7701\u95a2\u6771\u5730\u65b9\u6574\u5099\u5c40\u6e21\u826f\u702c\u5ddd\u6cb3\u5ddd\u4e8b\u52d9\u6240","boring_xml_url":40,"boring_view_url":1,"soilmap_view_url":null,"soiltest_xml_url":0,"soiltest_view_url":0},{"id":157023,"code":"B4KJ201801004-5272","latitude":"36.66458639","longitude":"139.4281522","source_code":"KT54397394004","project_name":"","survey_name":"\u51fa\u5ddd\u4e00\u53f7\u30c0\u30e0\u5916\u4e8c\u4ef6\u5730\u8cea\u8abf\u67fb","client_name":"\u56fd\u571f\u4ea4\u901a\u7701\u95a2\u6771\u5730\u65b9\u6574\u5099\u5c40\u6e21\u826f\u702c\u5ddd\u6cb3\u5ddd\u4e8b\u52d9\u6240","boring_xml_url":40,"boring_view_url":1,"soilmap_view_url":null,"soiltest_xml_url":0,"soiltest_view_url":0},{"id":157022,"code":"B4KJ201801004-5271","latitude":"36.6646975","longitude":"139.4278744","source_code":"KT54397394003","project_name":"","survey_name":"\u51fa\u5ddd\u4e00\u53f7\u30c0\u30e0\u5916\u4e8c\u4ef6\u5730\u8cea\u8abf\u67fb","client_name":"\u56fd\u571f\u4ea4\u901a\u7701\u95a2\u6771\u5730\u65b9\u6574\u5099\u5c40\u6e21\u826f\u702c\u5ddd\u6cb3\u5ddd\u4e8b\u52d9\u6240","boring_xml_url":40,"boring_view_url":1,"soilmap_view_url":null,"soiltest_xml_url":0,"soiltest_view_url":0},{"id":157021,"code":"B4KJ201801004-5270","latitude":"36.66458639","longitude":"139.4278744","source_code":"KT54397394002","project_name":"","survey_name":"\u51fa\u5ddd\u4e00\u53f7\u30c0\u30e0\u5916\u4e8c\u4ef6\u5730\u8cea\u8abf\u67fb","client_name":"\u56fd\u571f\u4ea4\u901a\u7701\u95a2\u6771\u5730\u65b9\u6574\u5099\u5c40\u6e21\u826f\u702c\u5ddd\u6cb3\u5ddd\u4e8b\u52d9\u6240","boring_xml_url":40,"boring_view_url":1,"soilmap_view_url":null,"soiltest_xml_url":0,"soiltest_view_url":0},{"id":157020,"code":"B4KJ201801004-5269","latitude":"36.66447528","longitude":"139.42793","source_code":"KT54397394001","project_name":"","survey_name":"\u51fa\u5ddd\u4e00\u53f7\u30c0\u30e0\u5916\u4e8c\u4ef6\u5730\u8cea\u8abf\u67fb","client_name":"\u56fd\u571f\u4ea4\u901a\u7701\u95a2\u6771\u5730\u65b9\u6574\u5099\u5c40\u6e21\u826f\u702c\u5ddd\u6cb3\u5ddd\u4e8b\u52d9\u6240","boring_xml_url":40,"boring_view_url":1,"soilmap_view_url":null,"soiltest_xml_url":0,"soiltest_view_url":0},{"id":157019,"code":"B4KJ201801004-5268","latitude":"36.65292056","longitude":"139.4114872","source_code":"KT54397373005","project_name":"","survey_name":"\u5c0f\u6edd\u5ddd\u56db\u53f7\u30c0\u30e0\u5730\u8cea\u8abf\u67fb","client_name":"\u56fd\u571f\u4ea4\u901a\u7701\u95a2\u6771\u5730\u65b9\u6574\u5099\u5c40\u6e21\u826f\u702c\u5ddd\u6cb3\u5ddd\u4e8b\u52d9\u6240","boring_xml_url":40,"boring_view_url":1,"soilmap_view_url":null,"soiltest_xml_url":0,"soiltest_view_url":0},{"id":157018,"code":"B4KJ201801004-5267","latitude":"36.65269833","longitude":"139.4113486","source_code":"KT54397373004","project_name":"","survey_name":"\u5c0f\u6edd\u5ddd\u56db\u53f7\u30c0\u30e0\u5730\u8cea\u8abf\u67fb","client_name":"\u56fd\u571f\u4ea4\u901a\u7701\u95a2\u6771\u5730\u65b9\u6574\u5099\u5c40\u6e21\u826f\u702c\u5ddd\u6cb3\u5ddd\u4e8b\u52d9\u6240","boring_xml_url":40,"boring_view_url":1,"soilmap_view_url":null,"soiltest_xml_url":0,"soiltest_view_url":0},{"id":157017,"code":"B4KJ201801004-5266","latitude":"36.65244861","longitude":"139.4112097","source_code":"KT54397373003","project_name":"","survey_name":"\u5c0f\u6edd\u5ddd\u56db\u53f7\u30c0\u30e0\u5730\u8cea\u8abf\u67fb","client_name":"\u56fd\u571f\u4ea4\u901a\u7701\u95a2\u6771\u5730\u65b9\u6574\u5099\u5c40\u6e21\u826f\u702c\u5ddd\u6cb3\u5ddd\u4e8b\u52d9\u6240","boring_xml_url":40,"boring_view_url":1,"soilmap_view_url":null,"soiltest_xml_url":0,"soiltest_view_url":0},{"id":157016,"code":"B4KJ201801004-5265","latitude":"36.65280944","longitude":"139.4110708","source_code":"KT54397373002","project_name":"","survey_name":"\u5c0f\u6edd\u5ddd\u56db\u53f7\u30c0\u30e0\u5730\u8cea\u8abf\u67fb","client_name":"\u56fd\u571f\u4ea4\u901a\u7701\u95a2\u6771\u5730\u65b9\u6574\u5099\u5c40\u6e21\u826f\u702c\u5ddd\u6cb3\u5ddd\u4e8b\u52d9\u6240","boring_xml_url":40,"boring_view_url":1,"soilmap_view_url":null,"soiltest_xml_url":0,"soiltest_view_url":0}]}}