{"header":{"xyz":{"source":[],"mosaic":false},"page":5452,"raw":{"soiltest_result":"0","bbox":"57.598333,109.544722,1.933333,163.806111","page":"5452"},"conditions":{"soiltest_result":0,"north":57.598333,"west":109.544722,"south":1.933333,"east":163.806111},"success":true,"message":""},"data":{"meta":{"total":212844,"page":5452,"pages":7095,"count":30},"values":[{"id":157015,"code":"B4KJ201801004-5264","latitude":"36.65255944","longitude":"139.4109319","source_code":"KT54397373001","project_name":"","survey_name":"\u5c0f\u6edd\u5ddd\u56db\u53f7\u30c0\u30e0\u5730\u8cea\u8abf\u67fb","client_name":"\u56fd\u571f\u4ea4\u901a\u7701\u95a2\u6771\u5730\u65b9\u6574\u5099\u5c40\u6e21\u826f\u702c\u5ddd\u6cb3\u5ddd\u4e8b\u52d9\u6240","boring_xml_url":40,"boring_view_url":1,"soilmap_view_url":null,"soiltest_xml_url":0,"soiltest_view_url":0},{"id":157014,"code":"B4KJ201801004-5263","latitude":"36.64333944","longitude":"139.4502344","source_code":"KT54397366001","project_name":"","survey_name":"\u677e\u6728\u5ddd\u4e0b\u6d41\u5730\u8cea\u8abf\u67fb","client_name":"\u56fd\u571f\u4ea4\u901a\u7701\u95a2\u6771\u5730\u65b9\u6574\u5099\u5c40\u6e21\u826f\u702c\u5ddd\u6cb3\u5ddd\u4e8b\u52d9\u6240","boring_xml_url":40,"boring_view_url":1,"soilmap_view_url":null,"soiltest_xml_url":0,"soiltest_view_url":0},{"id":157013,"code":"B4KJ201801004-5262","latitude":"36.63184111","longitude":"139.461345","source_code":"KT54397357007","project_name":"","survey_name":"\u90fd\u6ca2\u4e00\u53f7\u30c0\u30e0\u5730\u8cea\u8abf\u67fb","client_name":"\u56fd\u571f\u4ea4\u901a\u7701\u95a2\u6771\u5730\u65b9\u6574\u5099\u5c40\u6e21\u826f\u702c\u5ddd\u6cb3\u5ddd\u4e8b\u52d9\u6240","boring_xml_url":40,"boring_view_url":1,"soilmap_view_url":null,"soiltest_xml_url":0,"soiltest_view_url":0},{"id":157012,"code":"B4KJ201801004-5261","latitude":"36.63173","longitude":"139.461345","source_code":"KT54397357006","project_name":"","survey_name":"\u90fd\u6ca2\u4e00\u53f7\u30c0\u30e0\u5730\u8cea\u8abf\u67fb","client_name":"\u56fd\u571f\u4ea4\u901a\u7701\u95a2\u6771\u5730\u65b9\u6574\u5099\u5c40\u6e21\u826f\u702c\u5ddd\u6cb3\u5ddd\u4e8b\u52d9\u6240","boring_xml_url":40,"boring_view_url":1,"soilmap_view_url":null,"soiltest_xml_url":0,"soiltest_view_url":0},{"id":157011,"code":"B4KJ201801004-5260","latitude":"36.63161889","longitude":"139.4610672","source_code":"KT54397357005","project_name":"","survey_name":"\u90fd\u6ca2\u4e00\u53f7\u30c0\u30e0\u5730\u8cea\u8abf\u67fb","client_name":"\u56fd\u571f\u4ea4\u901a\u7701\u95a2\u6771\u5730\u65b9\u6574\u5099\u5c40\u6e21\u826f\u702c\u5ddd\u6cb3\u5ddd\u4e8b\u52d9\u6240","boring_xml_url":40,"boring_view_url":1,"soilmap_view_url":null,"soiltest_xml_url":0,"soiltest_view_url":0},{"id":157010,"code":"B4KJ201801004-5259","latitude":"36.63139667","longitude":"139.4609283","source_code":"KT54397357004","project_name":"","survey_name":"\u90fd\u6ca2\u4e00\u53f7\u30c0\u30e0\u5730\u8cea\u8abf\u67fb","client_name":"\u56fd\u571f\u4ea4\u901a\u7701\u95a2\u6771\u5730\u65b9\u6574\u5099\u5c40\u6e21\u826f\u702c\u5ddd\u6cb3\u5ddd\u4e8b\u52d9\u6240","boring_xml_url":40,"boring_view_url":1,"soilmap_view_url":null,"soiltest_xml_url":0,"soiltest_view_url":0},{"id":157009,"code":"B4KJ201801004-5258","latitude":"36.63161889","longitude":"139.4616228","source_code":"KT54397357003","project_name":"","survey_name":"\u90fd\u6ca2\u4e00\u53f7\u30c0\u30e0\u5730\u8cea\u8abf\u67fb","client_name":"\u56fd\u571f\u4ea4\u901a\u7701\u95a2\u6771\u5730\u65b9\u6574\u5099\u5c40\u6e21\u826f\u702c\u5ddd\u6cb3\u5ddd\u4e8b\u52d9\u6240","boring_xml_url":40,"boring_view_url":1,"soilmap_view_url":null,"soiltest_xml_url":0,"soiltest_view_url":0},{"id":157008,"code":"B4KJ201801004-5257","latitude":"36.63150778","longitude":"139.461345","source_code":"KT54397357002","project_name":"","survey_name":"\u90fd\u6ca2\u4e00\u53f7\u30c0\u30e0\u5730\u8cea\u8abf\u67fb","client_name":"\u56fd\u571f\u4ea4\u901a\u7701\u95a2\u6771\u5730\u65b9\u6574\u5099\u5c40\u6e21\u826f\u702c\u5ddd\u6cb3\u5ddd\u4e8b\u52d9\u6240","boring_xml_url":40,"boring_view_url":1,"soilmap_view_url":null,"soiltest_xml_url":0,"soiltest_view_url":0},{"id":157007,"code":"B4KJ201801004-5256","latitude":"36.63128556","longitude":"139.4612061","source_code":"KT54397357001","project_name":"","survey_name":"\u90fd\u6ca2\u4e00\u53f7\u30c0\u30e0\u5730\u8cea\u8abf\u67fb","client_name":"\u56fd\u571f\u4ea4\u901a\u7701\u95a2\u6771\u5730\u65b9\u6574\u5099\u5c40\u6e21\u826f\u702c\u5ddd\u6cb3\u5ddd\u4e8b\u52d9\u6240","boring_xml_url":40,"boring_view_url":1,"soilmap_view_url":null,"soiltest_xml_url":0,"soiltest_view_url":0},{"id":157006,"code":"B4KJ201801004-5255","latitude":"36.62575611","longitude":"139.3787136","source_code":"KT54397340005","project_name":"","survey_name":"\u51fa\u5ddd\u4e00\u53f7\u30c0\u30e0\u5916\u4e8c\u4ef6\u5730\u8cea\u8abf\u67fb","client_name":"\u56fd\u571f\u4ea4\u901a\u7701\u95a2\u6771\u5730\u65b9\u6574\u5099\u5c40\u6e21\u826f\u702c\u5ddd\u6cb3\u5ddd\u4e8b\u52d9\u6240","boring_xml_url":40,"boring_view_url":1,"soilmap_view_url":null,"soiltest_xml_url":0,"soiltest_view_url":0},{"id":157005,"code":"B4KJ201801004-5254","latitude":"36.62611722","longitude":"139.3786025","source_code":"KT54397340004","project_name":"","survey_name":"\u51fa\u5ddd\u4e00\u53f7\u30c0\u30e0\u5916\u4e8c\u4ef6\u5730\u8cea\u8abf\u67fb","client_name":"\u56fd\u571f\u4ea4\u901a\u7701\u95a2\u6771\u5730\u65b9\u6574\u5099\u5c40\u6e21\u826f\u702c\u5ddd\u6cb3\u5ddd\u4e8b\u52d9\u6240","boring_xml_url":40,"boring_view_url":1,"soilmap_view_url":null,"soiltest_xml_url":0,"soiltest_view_url":0},{"id":157004,"code":"B4KJ201801004-5253","latitude":"36.625895","longitude":"139.3784358","source_code":"KT54397340003","project_name":"","survey_name":"\u51fa\u5ddd\u4e00\u53f7\u30c0\u30e0\u5916\u4e8c\u4ef6\u5730\u8cea\u8abf\u67fb","client_name":"\u56fd\u571f\u4ea4\u901a\u7701\u95a2\u6771\u5730\u65b9\u6574\u5099\u5c40\u6e21\u826f\u702c\u5ddd\u6cb3\u5ddd\u4e8b\u52d9\u6240","boring_xml_url":40,"boring_view_url":1,"soilmap_view_url":null,"soiltest_xml_url":0,"soiltest_view_url":0},{"id":157003,"code":"B4KJ201801004-5252","latitude":"36.62575611","longitude":"139.3784358","source_code":"KT54397340002","project_name":"","survey_name":"\u51fa\u5ddd\u4e00\u53f7\u30c0\u30e0\u5916\u4e8c\u4ef6\u5730\u8cea\u8abf\u67fb","client_name":"\u56fd\u571f\u4ea4\u901a\u7701\u95a2\u6771\u5730\u65b9\u6574\u5099\u5c40\u6e21\u826f\u702c\u5ddd\u6cb3\u5ddd\u4e8b\u52d9\u6240","boring_xml_url":40,"boring_view_url":1,"soilmap_view_url":null,"soiltest_xml_url":0,"soiltest_view_url":0},{"id":157002,"code":"B4KJ201801004-5251","latitude":"36.625645","longitude":"139.3781581","source_code":"KT54397340001","project_name":"","survey_name":"\u51fa\u5ddd\u4e00\u53f7\u30c0\u30e0\u5916\u4e8c\u4ef6\u5730\u8cea\u8abf\u67fb","client_name":"\u56fd\u571f\u4ea4\u901a\u7701\u95a2\u6771\u5730\u65b9\u6574\u5099\u5c40\u6e21\u826f\u702c\u5ddd\u6cb3\u5ddd\u4e8b\u52d9\u6240","boring_xml_url":40,"boring_view_url":1,"soilmap_view_url":null,"soiltest_xml_url":0,"soiltest_view_url":0},{"id":157001,"code":"B4KJ201801004-5250","latitude":"36.65533139","longitude":"139.1990056","source_code":"KT54397186001","project_name":"","survey_name":"\u30c0\u30e0\u8caf\u6c34\u6c60\u5806\u7a4d\u571f\u7802\u8abf\u67fb","client_name":"\u56fd\u571f\u4ea4\u901a\u7701\u95a2\u6771\u5730\u65b9\u6574\u5099\u5c40\u5229\u6839\u5ddd\u30c0\u30e0\u7d71\u5408\u7ba1\u7406\u4e8b\u52d9\u6240","boring_xml_url":40,"boring_view_url":1,"soilmap_view_url":null,"soiltest_xml_url":0,"soiltest_view_url":0},{"id":157000,"code":"B4KJ201801004-5249","latitude":"36.65310889","longitude":"139.1853958","source_code":"KT54397185001","project_name":"","survey_name":"\u30c0\u30e0\u8caf\u6c34\u6c60\u5806\u7a4d\u571f\u7802\u8abf\u67fb","client_name":"\u56fd\u571f\u4ea4\u901a\u7701\u95a2\u6771\u5730\u65b9\u6574\u5099\u5c40\u5229\u6839\u5ddd\u30c0\u30e0\u7d71\u5408\u7ba1\u7406\u4e8b\u52d9\u6240","boring_xml_url":40,"boring_view_url":1,"soilmap_view_url":null,"soiltest_xml_url":0,"soiltest_view_url":0},{"id":156999,"code":"B4KJ201801004-5248","latitude":"36.64699833","longitude":"139.17873","source_code":"KT54397174001","project_name":"","survey_name":"\u30c0\u30e0\u8caf\u6c34\u6c60\u5806\u7a4d\u571f\u7802\u8abf\u67fb","client_name":"\u56fd\u571f\u4ea4\u901a\u7701\u95a2\u6771\u5730\u65b9\u6574\u5099\u5c40\u5229\u6839\u5ddd\u30c0\u30e0\u7d71\u5408\u7ba1\u7406\u4e8b\u52d9\u6240","boring_xml_url":40,"boring_view_url":1,"soilmap_view_url":null,"soiltest_xml_url":0,"soiltest_view_url":0},{"id":156998,"code":"B4KJ201801004-5247","latitude":"36.63936028","longitude":"139.1760361","source_code":"KT54397164021","project_name":"","survey_name":"H12\u8597\u539f\u30c0\u30e0\u5730\u8cea\u73fe\u6cc1\u8abf\u67fb","client_name":"\u56fd\u571f\u4ea4\u901a\u7701\u95a2\u6771\u5730\u65b9\u6574\u5099\u5c40\u5229\u6839\u5ddd\u30c0\u30e0\u7d71\u5408\u7ba1\u7406\u4e8b\u52d9\u6240","boring_xml_url":40,"boring_view_url":1,"soilmap_view_url":null,"soiltest_xml_url":0,"soiltest_view_url":0},{"id":156997,"code":"B4KJ201801004-5246","latitude":"36.63866583","longitude":"139.1765083","source_code":"KT54397164020","project_name":"","survey_name":"H11\u8597\u539f\u30c0\u30e0\u5730\u8cea\u73fe\u6cc1\u8abf\u67fb","client_name":"\u56fd\u571f\u4ea4\u901a\u7701\u95a2\u6771\u5730\u65b9\u6574\u5099\u5c40\u5229\u6839\u5ddd\u30c0\u30e0\u7d71\u5408\u7ba1\u7406\u4e8b\u52d9\u6240","boring_xml_url":40,"boring_view_url":1,"soilmap_view_url":null,"soiltest_xml_url":0,"soiltest_view_url":0},{"id":156996,"code":"B4KJ201801004-5245","latitude":"36.63961028","longitude":"139.1757861","source_code":"KT54397164019","project_name":"","survey_name":"H12\u8597\u539f\u30c0\u30e0\u5730\u8cea\u73fe\u6cc1\u8abf\u67fb","client_name":"\u56fd\u571f\u4ea4\u901a\u7701\u95a2\u6771\u5730\u65b9\u6574\u5099\u5c40\u5229\u6839\u5ddd\u30c0\u30e0\u7d71\u5408\u7ba1\u7406\u4e8b\u52d9\u6240","boring_xml_url":40,"boring_view_url":1,"soilmap_view_url":null,"soiltest_xml_url":0,"soiltest_view_url":0},{"id":156995,"code":"B4KJ201801004-5244","latitude":"36.63838806","longitude":"139.1753972","source_code":"KT54397164018","project_name":"","survey_name":"H11\u8597\u539f\u30c0\u30e0\u5730\u8cea\u73fe\u6cc1\u8abf\u67fb","client_name":"\u56fd\u571f\u4ea4\u901a\u7701\u95a2\u6771\u5730\u65b9\u6574\u5099\u5c40\u5229\u6839\u5ddd\u30c0\u30e0\u7d71\u5408\u7ba1\u7406\u4e8b\u52d9\u6240","boring_xml_url":40,"boring_view_url":1,"soilmap_view_url":null,"soiltest_xml_url":0,"soiltest_view_url":0},{"id":156994,"code":"B4KJ201801004-5243","latitude":"36.63894361","longitude":"139.1767861","source_code":"KT54397164005","project_name":"","survey_name":"H11\u8597\u539f\u30c0\u30e0\u5730\u8cea\u73fe\u6cc1\u8abf\u67fb","client_name":"\u56fd\u571f\u4ea4\u901a\u7701\u95a2\u6771\u5730\u65b9\u6574\u5099\u5c40\u5229\u6839\u5ddd\u30c0\u30e0\u7d71\u5408\u7ba1\u7406\u4e8b\u52d9\u6240","boring_xml_url":40,"boring_view_url":1,"soilmap_view_url":null,"soiltest_xml_url":0,"soiltest_view_url":0},{"id":156993,"code":"B4KJ201801004-5242","latitude":"36.63894361","longitude":"139.1767861","source_code":"KT54397164004","project_name":"","survey_name":"H11\u8597\u539f\u30c0\u30e0\u5730\u8cea\u73fe\u6cc1\u8abf\u67fb","client_name":"\u56fd\u571f\u4ea4\u901a\u7701\u95a2\u6771\u5730\u65b9\u6574\u5099\u5c40\u5229\u6839\u5ddd\u30c0\u30e0\u7d71\u5408\u7ba1\u7406\u4e8b\u52d9\u6240","boring_xml_url":40,"boring_view_url":1,"soilmap_view_url":null,"soiltest_xml_url":0,"soiltest_view_url":0},{"id":156992,"code":"B4KJ201801004-5241","latitude":"36.64116556","longitude":"139.1753972","source_code":"KT54397164001","project_name":"","survey_name":"\u30c0\u30e0\u8caf\u6c34\u6c60\u5806\u7a4d\u571f\u7802\u8abf\u67fb","client_name":"\u56fd\u571f\u4ea4\u901a\u7701\u95a2\u6771\u5730\u65b9\u6574\u5099\u5c40\u5229\u6839\u5ddd\u30c0\u30e0\u7d71\u5408\u7ba1\u7406\u4e8b\u52d9\u6240","boring_xml_url":40,"boring_view_url":1,"soilmap_view_url":null,"soiltest_xml_url":0,"soiltest_view_url":0},{"id":156991,"code":"B4KJ201801004-5240","latitude":"36.62988944","longitude":"139.1852578","source_code":"KT54397155001","project_name":"","survey_name":"\u5357\u90f7\u6d41\u8def\u5de5\u5730\u8cea\u8abf\u67fb\u696d\u52d9","client_name":"\u56fd\u571f\u4ea4\u901a\u7701\u95a2\u6771\u5730\u65b9\u6574\u5099\u5c40\u5229\u6839\u5ddd\u6c34\u7cfb\u7802\u9632\u4e8b\u52d9\u6240","boring_xml_url":40,"boring_view_url":1,"soilmap_view_url":null,"soiltest_xml_url":0,"soiltest_view_url":0},{"id":156990,"code":"B4KJ201801004-5239","latitude":"36.63563861","longitude":"139.1815914","source_code":"KT54397154009","project_name":"","survey_name":"\u5e73\u621011\u5e74\u5ea6\u65e5\u5411\u5357\u90f7\u6e67\u6c34\u5bfe\u7b56\u5de5\u8a73\u7d30\u8a2d\u8a08\u305d\u306e\u4ed6\u696d\u52d9","client_name":"\u56fd\u571f\u4ea4\u901a\u7701\u95a2\u6771\u5730\u65b9\u6574\u5099\u5c40\u5229\u6839\u5ddd\u30c0\u30e0\u7d71\u5408\u7ba1\u7406\u4e8b\u52d9\u6240","boring_xml_url":40,"boring_view_url":1,"soilmap_view_url":null,"soiltest_xml_url":0,"soiltest_view_url":0},{"id":156989,"code":"B4KJ201801004-5238","latitude":"36.63530528","longitude":"139.1819803","source_code":"KT54397154008","project_name":"","survey_name":"\u5e73\u621011\u5e74\u5ea6\u65e5\u5411\u5357\u90f7\u6e67\u6c34\u5bfe\u7b56\u5de5\u8a73\u7d30\u8a2d\u8a08\u305d\u306e\u4ed6\u696d\u52d9","client_name":"\u56fd\u571f\u4ea4\u901a\u7701\u95a2\u6771\u5730\u65b9\u6574\u5099\u5c40\u5229\u6839\u5ddd\u30c0\u30e0\u7d71\u5408\u7ba1\u7406\u4e8b\u52d9\u6240","boring_xml_url":40,"boring_view_url":1,"soilmap_view_url":null,"soiltest_xml_url":0,"soiltest_view_url":0},{"id":156988,"code":"B4KJ201801004-5237","latitude":"36.63549972","longitude":"139.1832856","source_code":"KT54397154007","project_name":"","survey_name":"\u5e73\u621011\u5e74\u5ea6\u65e5\u5411\u5357\u90f7\u6e67\u6c34\u5bfe\u7b56\u5de5\u8a73\u7d30\u8a2d\u8a08\u305d\u306e\u4ed6\u696d\u52d9","client_name":"\u56fd\u571f\u4ea4\u901a\u7701\u95a2\u6771\u5730\u65b9\u6574\u5099\u5c40\u5229\u6839\u5ddd\u30c0\u30e0\u7d71\u5408\u7ba1\u7406\u4e8b\u52d9\u6240","boring_xml_url":40,"boring_view_url":1,"soilmap_view_url":null,"soiltest_xml_url":0,"soiltest_view_url":0},{"id":156987,"code":"B4KJ201801004-5236","latitude":"36.6355275","longitude":"139.1836744","source_code":"KT54397154006","project_name":"","survey_name":"\u5e73\u621011\u5e74\u5ea6\u65e5\u5411\u5357\u90f7\u6e67\u6c34\u5bfe\u7b56\u5de5\u8a73\u7d30\u8a2d\u8a08\u305d\u306e\u4ed6\u696d\u52d9","client_name":"\u56fd\u571f\u4ea4\u901a\u7701\u95a2\u6771\u5730\u65b9\u6574\u5099\u5c40\u5229\u6839\u5ddd\u30c0\u30e0\u7d71\u5408\u7ba1\u7406\u4e8b\u52d9\u6240","boring_xml_url":40,"boring_view_url":1,"soilmap_view_url":null,"soiltest_xml_url":0,"soiltest_view_url":0},{"id":156986,"code":"B4KJ201801004-5235","latitude":"36.63427778","longitude":"139.1810358","source_code":"KT54397154001","project_name":"","survey_name":"\u5357\u90f7\u6d41\u8def\u5de5\u5730\u8cea\u8abf\u67fb\u696d\u52d9","client_name":"\u56fd\u571f\u4ea4\u901a\u7701\u95a2\u6771\u5730\u65b9\u6574\u5099\u5c40\u5229\u6839\u5ddd\u6c34\u7cfb\u7802\u9632\u4e8b\u52d9\u6240","boring_xml_url":40,"boring_view_url":1,"soilmap_view_url":null,"soiltest_xml_url":0,"soiltest_view_url":0}]}}