{"header":{"xyz":{"source":[],"mosaic":false},"page":5458,"raw":{"soiltest_result":"0","bbox":"57.598333,109.544722,1.933333,163.806111","page":"5458"},"conditions":{"soiltest_result":0,"north":57.598333,"west":109.544722,"south":1.933333,"east":163.806111},"success":true,"message":""},"data":{"meta":{"total":212844,"page":5458,"pages":7095,"count":30},"values":[{"id":156835,"code":"B4KJ201801004-5084","latitude":"36.38689417","longitude":"139.3612806","source_code":"KT54394269004","project_name":"","survey_name":"\u767d\u9aed\u5830\u59162\u4ef6\u5730\u8cea\u8abf\u67fb","client_name":"\u56fd\u571f\u4ea4\u901a\u7701\u95a2\u6771\u5730\u65b9\u6574\u5099\u5c40\u6e21\u826f\u702c\u5ddd\u6cb3\u5ddd\u4e8b\u52d9\u6240","boring_xml_url":40,"boring_view_url":1,"soilmap_view_url":null,"soiltest_xml_url":0,"soiltest_view_url":0},{"id":156834,"code":"B4KJ201801004-5083","latitude":"36.38706083","longitude":"139.3614472","source_code":"KT54394269003","project_name":"","survey_name":"\u767d\u9aed\u5830\u59162\u4ef6\u5730\u8cea\u8abf\u67fb","client_name":"\u56fd\u571f\u4ea4\u901a\u7701\u95a2\u6771\u5730\u65b9\u6574\u5099\u5c40\u6e21\u826f\u702c\u5ddd\u6cb3\u5ddd\u4e8b\u52d9\u6240","boring_xml_url":40,"boring_view_url":1,"soilmap_view_url":null,"soiltest_xml_url":0,"soiltest_view_url":0},{"id":156833,"code":"B4KJ201801004-5082","latitude":"36.387255","longitude":"139.3614472","source_code":"KT54394269002","project_name":"","survey_name":"\u767d\u9aed\u5830\u59162\u4ef6\u5730\u8cea\u8abf\u67fb","client_name":"\u56fd\u571f\u4ea4\u901a\u7701\u95a2\u6771\u5730\u65b9\u6574\u5099\u5c40\u6e21\u826f\u702c\u5ddd\u6cb3\u5ddd\u4e8b\u52d9\u6240","boring_xml_url":40,"boring_view_url":1,"soilmap_view_url":null,"soiltest_xml_url":0,"soiltest_view_url":0},{"id":156832,"code":"B4KJ201801004-5081","latitude":"36.387505","longitude":"139.3615583","source_code":"KT54394269001","project_name":"","survey_name":"\u767d\u9aed\u5830\u59162\u4ef6\u5730\u8cea\u8abf\u67fb","client_name":"\u56fd\u571f\u4ea4\u901a\u7701\u95a2\u6771\u5730\u65b9\u6574\u5099\u5c40\u6e21\u826f\u702c\u5ddd\u6cb3\u5ddd\u4e8b\u52d9\u6240","boring_xml_url":40,"boring_view_url":1,"soilmap_view_url":null,"soiltest_xml_url":0,"soiltest_view_url":0},{"id":156831,"code":"B4KJ201801004-5080","latitude":"36.39425417","longitude":"139.3563639","source_code":"KT54394268002","project_name":"","survey_name":"\u8acf\u8a2a\u6a0b\u7ba1\u5730\u8cea\u8abf\u67fb","client_name":"\u56fd\u571f\u4ea4\u901a\u7701\u95a2\u6771\u5730\u65b9\u6574\u5099\u5c40\u6e21\u826f\u702c\u5ddd\u6cb3\u5ddd\u4e8b\u52d9\u6240","boring_xml_url":40,"boring_view_url":1,"soilmap_view_url":null,"soiltest_xml_url":0,"soiltest_view_url":0},{"id":156830,"code":"B4KJ201801004-5079","latitude":"36.39425417","longitude":"139.3563639","source_code":"KT54394268001","project_name":"","survey_name":"\u8acf\u8a2a\u6a0b\u7ba1\u5730\u8cea\u8abf\u67fb","client_name":"\u56fd\u571f\u4ea4\u901a\u7701\u95a2\u6771\u5730\u65b9\u6574\u5099\u5c40\u6e21\u826f\u702c\u5ddd\u6cb3\u5ddd\u4e8b\u52d9\u6240","boring_xml_url":40,"boring_view_url":1,"soilmap_view_url":null,"soiltest_xml_url":0,"soiltest_view_url":0},{"id":156829,"code":"B4KJ201801004-5078","latitude":"36.3812","longitude":"139.3479764","source_code":"KT54394258003","project_name":"","survey_name":"\u5f85\u6c34\u9580\u5730\u8cea\u8abf\u67fb","client_name":"\u56fd\u571f\u4ea4\u901a\u7701\u95a2\u6771\u5730\u65b9\u6574\u5099\u5c40\u6e21\u826f\u702c\u5ddd\u6cb3\u5ddd\u4e8b\u52d9\u6240","boring_xml_url":40,"boring_view_url":1,"soilmap_view_url":null,"soiltest_xml_url":0,"soiltest_view_url":0},{"id":156828,"code":"B4KJ201801004-5077","latitude":"36.38136667","longitude":"139.3487264","source_code":"KT54394258002","project_name":"","survey_name":"\u5f85\u6c34\u9580\u5730\u8cea\u8abf\u67fb","client_name":"\u56fd\u571f\u4ea4\u901a\u7701\u95a2\u6771\u5730\u65b9\u6574\u5099\u5c40\u6e21\u826f\u702c\u5ddd\u6cb3\u5ddd\u4e8b\u52d9\u6240","boring_xml_url":40,"boring_view_url":1,"soilmap_view_url":null,"soiltest_xml_url":0,"soiltest_view_url":0},{"id":156827,"code":"B4KJ201801004-5076","latitude":"36.38106111","longitude":"139.3479764","source_code":"KT54394258001","project_name":"","survey_name":"\u5f85\u6c34\u9580\u5730\u8cea\u8abf\u67fb","client_name":"\u56fd\u571f\u4ea4\u901a\u7701\u95a2\u6771\u5730\u65b9\u6574\u5099\u5c40\u6e21\u826f\u702c\u5ddd\u6cb3\u5ddd\u4e8b\u52d9\u6240","boring_xml_url":40,"boring_view_url":1,"soilmap_view_url":null,"soiltest_xml_url":0,"soiltest_view_url":0},{"id":156826,"code":"B4KJ201801004-5075","latitude":"36.37120139","longitude":"139.36067","source_code":"KT54394249004","project_name":"","survey_name":"\u6e21\u826f\u702c\u5ddd\u672c\u5ddd\u5824\u9632\u5730\u8cea\u8abf\u67fb\u696d\u52d9","client_name":"\u56fd\u571f\u4ea4\u901a\u7701\u95a2\u6771\u5730\u65b9\u6574\u5099\u5c40\u6e21\u826f\u702c\u5ddd\u6cb3\u5ddd\u4e8b\u52d9\u6240","boring_xml_url":40,"boring_view_url":1,"soilmap_view_url":null,"soiltest_xml_url":0,"soiltest_view_url":0},{"id":156825,"code":"B4KJ201801004-5074","latitude":"36.37731167","longitude":"139.3590033","source_code":"KT54394248004","project_name":"","survey_name":"\u6e21\u826f\u702c\u5ddd\u672c\u5ddd\u5824\u9632\u5730\u8cea\u8abf\u67fb\u696d\u52d9","client_name":"\u56fd\u571f\u4ea4\u901a\u7701\u95a2\u6771\u5730\u65b9\u6574\u5099\u5c40\u6e21\u826f\u702c\u5ddd\u6cb3\u5ddd\u4e8b\u52d9\u6240","boring_xml_url":40,"boring_view_url":1,"soilmap_view_url":null,"soiltest_xml_url":0,"soiltest_view_url":0},{"id":156824,"code":"B4KJ201801004-5073","latitude":"36.36795167","longitude":"139.3577539","source_code":"KT54394238002","project_name":"","survey_name":"\u6850\u751f\u30d0\u30a4\u30d1\u30b9\u592a\u7530\u5730\u533a\u5730\u8cea\u8abf\u67fb","client_name":"\u56fd\u571f\u4ea4\u901a\u7701\u95a2\u6771\u5730\u65b9\u6574\u5099\u5c40\u9ad8\u5d0e\u6cb3\u5ddd\u56fd\u9053\u4e8b\u52d9\u6240","boring_xml_url":40,"boring_view_url":1,"soilmap_view_url":null,"soiltest_xml_url":0,"soiltest_view_url":0},{"id":156823,"code":"B4KJ201801004-5072","latitude":"36.36811833","longitude":"139.3574761","source_code":"KT54394238001","project_name":"","survey_name":"\u6850\u751f\u30d0\u30a4\u30d1\u30b9\u592a\u7530\u5730\u533a\u5730\u8cea\u8abf\u67fb","client_name":"\u56fd\u571f\u4ea4\u901a\u7701\u95a2\u6771\u5730\u65b9\u6574\u5099\u5c40\u9ad8\u5d0e\u6cb3\u5ddd\u56fd\u9053\u4e8b\u52d9\u6240","boring_xml_url":40,"boring_view_url":1,"soilmap_view_url":null,"soiltest_xml_url":0,"soiltest_view_url":0},{"id":156822,"code":"B4KJ201801004-5071","latitude":"36.39210972","longitude":"139.1415769","source_code":"KT54394161006","project_name":"","survey_name":"\u4e0a\u6b66\u9053\u8def7\u5de5\u533a\u4ed61\u7b87\u6240\u5730\u8cea\u8abf\u67fb","client_name":"\u56fd\u571f\u4ea4\u901a\u7701\u95a2\u6771\u5730\u65b9\u6574\u5099\u5c40\u9ad8\u5d0e\u6cb3\u5ddd\u56fd\u9053\u4e8b\u52d9\u6240","boring_xml_url":40,"boring_view_url":1,"soilmap_view_url":null,"soiltest_xml_url":0,"soiltest_view_url":0},{"id":156821,"code":"B4KJ201801004-5070","latitude":"36.38766583","longitude":"139.1432992","source_code":"KT54394161005","project_name":"","survey_name":"\u4e0a\u6b66\u9053\u8def7\u5de5\u533a\u4ed61\u7b87\u6240\u5730\u8cea\u8abf\u67fb","client_name":"\u56fd\u571f\u4ea4\u901a\u7701\u95a2\u6771\u5730\u65b9\u6574\u5099\u5c40\u9ad8\u5d0e\u6cb3\u5ddd\u56fd\u9053\u4e8b\u52d9\u6240","boring_xml_url":40,"boring_view_url":1,"soilmap_view_url":null,"soiltest_xml_url":0,"soiltest_view_url":0},{"id":156820,"code":"B4KJ201801004-5069","latitude":"36.38747139","longitude":"139.1442436","source_code":"KT54394161004","project_name":"","survey_name":"\u4e0a\u6b66\u9053\u8def7\u5de5\u533a\u4ed61\u7b87\u6240\u5730\u8cea\u8abf\u67fb","client_name":"\u56fd\u571f\u4ea4\u901a\u7701\u95a2\u6771\u5730\u65b9\u6574\u5099\u5c40\u9ad8\u5d0e\u6cb3\u5ddd\u56fd\u9053\u4e8b\u52d9\u6240","boring_xml_url":40,"boring_view_url":1,"soilmap_view_url":null,"soiltest_xml_url":0,"soiltest_view_url":0},{"id":156819,"code":"B4KJ201801004-5068","latitude":"36.38583278","longitude":"139.1449103","source_code":"KT54394151006","project_name":"","survey_name":"\u4e0a\u6b66\u9053\u8def7\u5de5\u533a\u4ed61\u7b87\u6240\u5730\u8cea\u8abf\u67fb","client_name":"\u56fd\u571f\u4ea4\u901a\u7701\u95a2\u6771\u5730\u65b9\u6574\u5099\u5c40\u9ad8\u5d0e\u6cb3\u5ddd\u56fd\u9053\u4e8b\u52d9\u6240","boring_xml_url":40,"boring_view_url":1,"soilmap_view_url":null,"soiltest_xml_url":0,"soiltest_view_url":0},{"id":156818,"code":"B4KJ201801004-5067","latitude":"36.38419417","longitude":"139.1456325","source_code":"KT54394151005","project_name":"","survey_name":"\u4e0a\u6b66\u9053\u8def7\u5de5\u533a\u4ed61\u7b87\u6240\u5730\u8cea\u8abf\u67fb","client_name":"\u56fd\u571f\u4ea4\u901a\u7701\u95a2\u6771\u5730\u65b9\u6574\u5099\u5c40\u9ad8\u5d0e\u6cb3\u5ddd\u56fd\u9053\u4e8b\u52d9\u6240","boring_xml_url":40,"boring_view_url":1,"soilmap_view_url":null,"soiltest_xml_url":0,"soiltest_view_url":0},{"id":156817,"code":"B4KJ201801004-5066","latitude":"36.38297194","longitude":"139.1463547","source_code":"KT54394151004","project_name":"","survey_name":"\u4e0a\u6b66\u9053\u8def7\u5de5\u533a\u4ed61\u7b87\u6240\u5730\u8cea\u8abf\u67fb","client_name":"\u56fd\u571f\u4ea4\u901a\u7701\u95a2\u6771\u5730\u65b9\u6574\u5099\u5c40\u9ad8\u5d0e\u6cb3\u5ddd\u56fd\u9053\u4e8b\u52d9\u6240","boring_xml_url":40,"boring_view_url":1,"soilmap_view_url":null,"soiltest_xml_url":0,"soiltest_view_url":0},{"id":156816,"code":"B4KJ201801004-5065","latitude":"36.37738944","longitude":"139.1491325","source_code":"KT54394142011","project_name":"","survey_name":"\u4e0a\u6b66\u9053\u8def7\u5de5\u533a\u4ed61\u7b87\u6240\u5730\u8cea\u8abf\u67fb","client_name":"\u56fd\u571f\u4ea4\u901a\u7701\u95a2\u6771\u5730\u65b9\u6574\u5099\u5c40\u9ad8\u5d0e\u6cb3\u5ddd\u56fd\u9053\u4e8b\u52d9\u6240","boring_xml_url":40,"boring_view_url":1,"soilmap_view_url":null,"soiltest_xml_url":0,"soiltest_view_url":0},{"id":156815,"code":"B4KJ201801004-5064","latitude":"36.37716722","longitude":"139.1494658","source_code":"KT54394142010","project_name":"","survey_name":"\u4e0a\u6b66\u9053\u8def7\u5de5\u533a\u4ed61\u7b87\u6240\u5730\u8cea\u8abf\u67fb","client_name":"\u56fd\u571f\u4ea4\u901a\u7701\u95a2\u6771\u5730\u65b9\u6574\u5099\u5c40\u9ad8\u5d0e\u6cb3\u5ddd\u56fd\u9053\u4e8b\u52d9\u6240","boring_xml_url":40,"boring_view_url":1,"soilmap_view_url":null,"soiltest_xml_url":0,"soiltest_view_url":0},{"id":156814,"code":"B4KJ201801004-5063","latitude":"36.37522306","longitude":"139.1499103","source_code":"KT54394142009","project_name":"","survey_name":"\u4e0a\u6b66\u9053\u8def7\u5de5\u533a\u4ed61\u7b87\u6240\u5730\u8cea\u8abf\u67fb","client_name":"\u56fd\u571f\u4ea4\u901a\u7701\u95a2\u6771\u5730\u65b9\u6574\u5099\u5c40\u9ad8\u5d0e\u6cb3\u5ddd\u56fd\u9053\u4e8b\u52d9\u6240","boring_xml_url":40,"boring_view_url":1,"soilmap_view_url":null,"soiltest_xml_url":0,"soiltest_view_url":0},{"id":156813,"code":"B4KJ201801004-5062","latitude":"36.37300111","longitude":"139.1512436","source_code":"KT54394142008","project_name":"","survey_name":"\u4e0a\u6b66\u9053\u8def7\u5de5\u533a\u4ed61\u7b87\u6240\u5730\u8cea\u8abf\u67fb","client_name":"\u56fd\u571f\u4ea4\u901a\u7701\u95a2\u6771\u5730\u65b9\u6574\u5099\u5c40\u9ad8\u5d0e\u6cb3\u5ddd\u56fd\u9053\u4e8b\u52d9\u6240","boring_xml_url":40,"boring_view_url":1,"soilmap_view_url":null,"soiltest_xml_url":0,"soiltest_view_url":0},{"id":156812,"code":"B4KJ201801004-5061","latitude":"36.37119583","longitude":"139.1519103","source_code":"KT54394142007","project_name":"","survey_name":"\u4e0a\u6b66\u9053\u8def7\u5de5\u533a\u4ed61\u7b87\u6240\u5730\u8cea\u8abf\u67fb","client_name":"\u56fd\u571f\u4ea4\u901a\u7701\u95a2\u6771\u5730\u65b9\u6574\u5099\u5c40\u9ad8\u5d0e\u6cb3\u5ddd\u56fd\u9053\u4e8b\u52d9\u6240","boring_xml_url":40,"boring_view_url":1,"soilmap_view_url":null,"soiltest_xml_url":0,"soiltest_view_url":0},{"id":156811,"code":"B4KJ201801004-5060","latitude":"36.37397333","longitude":"139.1530489","source_code":"KT54394142001","project_name":"","survey_name":"\u6771\u524d\u6a4b\u62e1\u5dfe\u88dc\u8db3\u5730\u8cea\u8abf\u67fb","client_name":"\u56fd\u571f\u4ea4\u901a\u7701\u95a2\u6771\u5730\u65b9\u6574\u5099\u5c40\u9ad8\u5d0e\u6cb3\u5ddd\u56fd\u9053\u4e8b\u52d9\u6240","boring_xml_url":40,"boring_view_url":1,"soilmap_view_url":null,"soiltest_xml_url":0,"soiltest_view_url":0},{"id":156810,"code":"B4KJ201801004-5059","latitude":"36.37072333","longitude":"139.1413278","source_code":"KT54394141003","project_name":"","survey_name":"\u6771\u524d\u6a4b\u62e1\u5e45\u5730\u8cea\u8abf\u67fb","client_name":"\u56fd\u571f\u4ea4\u901a\u7701\u95a2\u6771\u5730\u65b9\u6574\u5099\u5c40\u9ad8\u5d0e\u6cb3\u5ddd\u56fd\u9053\u4e8b\u52d9\u6240","boring_xml_url":40,"boring_view_url":1,"soilmap_view_url":null,"soiltest_xml_url":0,"soiltest_view_url":0},{"id":156809,"code":"B4KJ201801004-5058","latitude":"36.37091778","longitude":"139.1382447","source_code":"KT54394141002","project_name":"","survey_name":"\u6771\u524d\u6a4b\u62e1\u5e45\u5730\u8cea\u8abf\u67fb","client_name":"\u56fd\u571f\u4ea4\u901a\u7701\u95a2\u6771\u5730\u65b9\u6574\u5099\u5c40\u9ad8\u5d0e\u6cb3\u5ddd\u56fd\u9053\u4e8b\u52d9\u6240","boring_xml_url":40,"boring_view_url":1,"soilmap_view_url":null,"soiltest_xml_url":0,"soiltest_view_url":0},{"id":156808,"code":"B4KJ201801004-5057","latitude":"36.37177861","longitude":"139.1347172","source_code":"KT54394141001","project_name":"","survey_name":"\u6771\u524d\u6a4b\u62e1\u5e45\u5730\u8cea\u8abf\u67fb","client_name":"\u56fd\u571f\u4ea4\u901a\u7701\u95a2\u6771\u5730\u65b9\u6574\u5099\u5c40\u9ad8\u5d0e\u6cb3\u5ddd\u56fd\u9053\u4e8b\u52d9\u6240","boring_xml_url":40,"boring_view_url":1,"soilmap_view_url":null,"soiltest_xml_url":0,"soiltest_view_url":0},{"id":156807,"code":"B4KJ201801004-5056","latitude":"36.37247278","longitude":"139.1317453","source_code":"KT54394140007","project_name":"","survey_name":"\u6771\u524d\u6a4b\u62e1\u5dfe\u88dc\u8db3\u5730\u8cea\u8abf\u67fb","client_name":"\u56fd\u571f\u4ea4\u901a\u7701\u95a2\u6771\u5730\u65b9\u6574\u5099\u5c40\u9ad8\u5d0e\u6cb3\u5ddd\u56fd\u9053\u4e8b\u52d9\u6240","boring_xml_url":40,"boring_view_url":1,"soilmap_view_url":null,"soiltest_xml_url":0,"soiltest_view_url":0},{"id":156806,"code":"B4KJ201801004-5055","latitude":"36.37280611","longitude":"139.1309675","source_code":"KT54394140006","project_name":"","survey_name":"\u6771\u524d\u6a4b\u62e1\u5dfe\u88dc\u8db3\u5730\u8cea\u8abf\u67fb","client_name":"\u56fd\u571f\u4ea4\u901a\u7701\u95a2\u6771\u5730\u65b9\u6574\u5099\u5c40\u9ad8\u5d0e\u6cb3\u5ddd\u56fd\u9053\u4e8b\u52d9\u6240","boring_xml_url":40,"boring_view_url":1,"soilmap_view_url":null,"soiltest_xml_url":0,"soiltest_view_url":0}]}}