{"header":{"xyz":{"source":[],"mosaic":false},"page":5462,"raw":{"soiltest_result":"0","bbox":"57.598333,109.544722,1.933333,163.806111","page":"5462"},"conditions":{"soiltest_result":0,"north":57.598333,"west":109.544722,"south":1.933333,"east":163.806111},"success":true,"message":""},"data":{"meta":{"total":212844,"page":5462,"pages":7095,"count":30},"values":[{"id":156715,"code":"B4KJ201801004-4964","latitude":"36.31177222","longitude":"139.6798119","source_code":"KT54393574007","project_name":"","survey_name":"\u5ca9\u821f\uff5e\u5c0f\u5c71\u30d0\u30a4\u30d1\u30b9\u5ca9\u821f\u5730\u533a\u5730\u8cea\u571f\u8cea\u8abf\u67fb","client_name":"\u56fd\u571f\u4ea4\u901a\u7701\u95a2\u6771\u5730\u65b9\u6574\u5099\u5c40\u5b87\u90fd\u5bae\u56fd\u9053\u4e8b\u52d9\u6240","boring_xml_url":40,"boring_view_url":1,"soilmap_view_url":null,"soiltest_xml_url":0,"soiltest_view_url":0},{"id":156714,"code":"B4KJ201801004-4963","latitude":"36.31193889","longitude":"139.6795342","source_code":"KT54393574006","project_name":"","survey_name":"\u5ca9\u821f\uff5e\u5c0f\u5c71\u30d0\u30a4\u30d1\u30b9\u5ca9\u821f\u5730\u533a\u5730\u8cea\u571f\u8cea\u8abf\u67fb","client_name":"\u56fd\u571f\u4ea4\u901a\u7701\u95a2\u6771\u5730\u65b9\u6574\u5099\u5c40\u5b87\u90fd\u5bae\u56fd\u9053\u4e8b\u52d9\u6240","boring_xml_url":40,"boring_view_url":1,"soilmap_view_url":null,"soiltest_xml_url":0,"soiltest_view_url":0},{"id":156713,"code":"B4KJ201801004-4962","latitude":"36.31216111","longitude":"139.6792564","source_code":"KT54393574005","project_name":"","survey_name":"\u5ca9\u821f\uff5e\u5c0f\u5c71\u30d0\u30a4\u30d1\u30b9\u5ca9\u821f\u5730\u533a\u5730\u8cea\u571f\u8cea\u8abf\u67fb","client_name":"\u56fd\u571f\u4ea4\u901a\u7701\u95a2\u6771\u5730\u65b9\u6574\u5099\u5c40\u5b87\u90fd\u5bae\u56fd\u9053\u4e8b\u52d9\u6240","boring_xml_url":40,"boring_view_url":1,"soilmap_view_url":null,"soiltest_xml_url":0,"soiltest_view_url":0},{"id":156712,"code":"B4KJ201801004-4961","latitude":"36.31241111","longitude":"139.6789786","source_code":"KT54393574004","project_name":"","survey_name":"\u5ca9\u821f\uff5e\u5c0f\u5c71\u30d0\u30a4\u30d1\u30b9\u5ca9\u821f\u5730\u533a\u5730\u8cea\u571f\u8cea\u8abf\u67fb","client_name":"\u56fd\u571f\u4ea4\u901a\u7701\u95a2\u6771\u5730\u65b9\u6574\u5099\u5c40\u5b87\u90fd\u5bae\u56fd\u9053\u4e8b\u52d9\u6240","boring_xml_url":40,"boring_view_url":1,"soilmap_view_url":null,"soiltest_xml_url":0,"soiltest_view_url":0},{"id":156711,"code":"B4KJ201801004-4960","latitude":"36.31218889","longitude":"139.6795342","source_code":"KT54393574003","project_name":"","survey_name":"\u5ca9\u821f\uff5e\u5c0f\u5c71\u30d0\u30a4\u30d1\u30b9\u8d64\u585a\u5730\u533a\u5730\u8cea\u30fb\u571f\u8cea\u8abf\u67fb","client_name":"\u56fd\u571f\u4ea4\u901a\u7701\u95a2\u6771\u5730\u65b9\u6574\u5099\u5c40\u5b87\u90fd\u5bae\u56fd\u9053\u4e8b\u52d9\u6240","boring_xml_url":40,"boring_view_url":1,"soilmap_view_url":null,"soiltest_xml_url":0,"soiltest_view_url":0},{"id":156710,"code":"B4KJ201801004-4959","latitude":"36.31210556","longitude":"139.6789786","source_code":"KT54393574002","project_name":"","survey_name":"\u5ca9\u821f\uff5e\u5c0f\u5c71\u30d0\u30a4\u30d1\u30b9\u5730\u8cea\u8abf\u67fb","client_name":"\u56fd\u571f\u4ea4\u901a\u7701\u95a2\u6771\u5730\u65b9\u6574\u5099\u5c40\u5b87\u90fd\u5bae\u56fd\u9053\u4e8b\u52d9\u6240","boring_xml_url":40,"boring_view_url":1,"soilmap_view_url":null,"soiltest_xml_url":0,"soiltest_view_url":0},{"id":156709,"code":"B4KJ201801004-4958","latitude":"36.30927417","longitude":"139.7384181","source_code":"KT54393569004","project_name":"","survey_name":"\u5ca9\u821f\uff5e\u5c0f\u5c71\u30d0\u30a4\u30d1\u30b9\u5730\u8cea\u8abf\u67fb","client_name":"\u56fd\u571f\u4ea4\u901a\u7701\u95a2\u6771\u5730\u65b9\u6574\u5099\u5c40\u5b87\u90fd\u5bae\u56fd\u9053\u4e8b\u52d9\u6240","boring_xml_url":40,"boring_view_url":1,"soilmap_view_url":null,"soiltest_xml_url":0,"soiltest_view_url":0},{"id":156708,"code":"B4KJ201801004-4957","latitude":"36.30833","longitude":"139.7386958","source_code":"KT54393569003","project_name":"","survey_name":"\u5ca9\u821f\uff5e\u5c0f\u5c71\u30d0\u30a4\u30d1\u30b9\u5730\u8cea\u571f\u8cea\u8abf\u67fb","client_name":"\u56fd\u571f\u4ea4\u901a\u7701\u95a2\u6771\u5730\u65b9\u6574\u5099\u5c40\u5b87\u90fd\u5bae\u56fd\u9053\u4e8b\u52d9\u6240","boring_xml_url":40,"boring_view_url":1,"soilmap_view_url":null,"soiltest_xml_url":0,"soiltest_view_url":0},{"id":156707,"code":"B4KJ201801004-4956","latitude":"36.30858","longitude":"139.7414733","source_code":"KT54393569002","project_name":"","survey_name":"\u5ca9\u821f\uff5e\u5c0f\u5c71\u30d0\u30a4\u30d1\u30b9\u5730\u8cea\u571f\u8cea\u8abf\u67fb","client_name":"\u56fd\u571f\u4ea4\u901a\u7701\u95a2\u6771\u5730\u65b9\u6574\u5099\u5c40\u5b87\u90fd\u5bae\u56fd\u9053\u4e8b\u52d9\u6240","boring_xml_url":40,"boring_view_url":1,"soilmap_view_url":null,"soiltest_xml_url":0,"soiltest_view_url":0},{"id":156706,"code":"B4KJ201801004-4955","latitude":"36.30632972","longitude":"139.7248081","source_code":"KT54393568003","project_name":"","survey_name":"\u5ca9\u821f\uff5e\u5c0f\u5c71\u30d0\u30a4\u30d1\u30b9\u5730\u8cea\u8abf\u67fb","client_name":"\u56fd\u571f\u4ea4\u901a\u7701\u95a2\u6771\u5730\u65b9\u6574\u5099\u5c40\u5b87\u90fd\u5bae\u56fd\u9053\u4e8b\u52d9\u6240","boring_xml_url":40,"boring_view_url":1,"soilmap_view_url":null,"soiltest_xml_url":0,"soiltest_view_url":0},{"id":156705,"code":"B4KJ201801004-4954","latitude":"36.30599639","longitude":"139.7236972","source_code":"KT54393568002","project_name":"","survey_name":"\u5ca9\u821f\uff5e\u5c0f\u5c71\u30d0\u30a4\u30d1\u30b9\u5730\u8cea\u8abf\u67fb","client_name":"\u56fd\u571f\u4ea4\u901a\u7701\u95a2\u6771\u5730\u65b9\u6574\u5099\u5c40\u5b87\u90fd\u5bae\u56fd\u9053\u4e8b\u52d9\u6240","boring_xml_url":40,"boring_view_url":1,"soilmap_view_url":null,"soiltest_xml_url":0,"soiltest_view_url":0},{"id":156704,"code":"B4KJ201801004-4953","latitude":"36.30599639","longitude":"139.7243917","source_code":"KT54393568001","project_name":"","survey_name":"\u5ca9\u821f\uff5e\u5c0f\u5c71\u30d0\u30a4\u30d1\u30b9\u5730\u8cea\u571f\u8cea\u8abf\u67fb","client_name":"\u56fd\u571f\u4ea4\u901a\u7701\u95a2\u6771\u5730\u65b9\u6574\u5099\u5c40\u5b87\u90fd\u5bae\u56fd\u9053\u4e8b\u52d9\u6240","boring_xml_url":40,"boring_view_url":1,"soilmap_view_url":null,"soiltest_xml_url":0,"soiltest_view_url":0},{"id":156703,"code":"B4KJ201801004-4952","latitude":"36.30338528","longitude":"139.712865","source_code":"KT54393567001","project_name":"","survey_name":"\u5927\u5e73\u5730\u533a\u5730\u8cea\u8abf\u67fb","client_name":"\u56fd\u571f\u4ea4\u901a\u7701\u95a2\u6771\u5730\u65b9\u6574\u5099\u5c40\u5b87\u90fd\u5bae\u56fd\u9053\u4e8b\u52d9\u6240","boring_xml_url":40,"boring_view_url":1,"soilmap_view_url":null,"soiltest_xml_url":0,"soiltest_view_url":0},{"id":156702,"code":"B4KJ201801004-4951","latitude":"36.303385","longitude":"139.70481","source_code":"KT54393566001","project_name":"","survey_name":"\u5927\u5e73\u5730\u533a\u5730\u8cea\u8abf\u67fb","client_name":"\u56fd\u571f\u4ea4\u901a\u7701\u95a2\u6771\u5730\u65b9\u6574\u5099\u5c40\u5b87\u90fd\u5bae\u56fd\u9053\u4e8b\u52d9\u6240","boring_xml_url":40,"boring_view_url":1,"soilmap_view_url":null,"soiltest_xml_url":0,"soiltest_view_url":0},{"id":156701,"code":"B4KJ201801004-4950","latitude":"36.31107806","longitude":"139.680645","source_code":"KT54393564003","project_name":"","survey_name":"\u5ca9\u821f\uff5e\u5c0f\u5c71\u30d0\u30a4\u30d1\u30b9\u5ca9\u821f\u5730\u533a\u5730\u8cea\u571f\u8cea\u8abf\u67fb","client_name":"\u56fd\u571f\u4ea4\u901a\u7701\u95a2\u6771\u5730\u65b9\u6574\u5099\u5c40\u5b87\u90fd\u5bae\u56fd\u9053\u4e8b\u52d9\u6240","boring_xml_url":40,"boring_view_url":1,"soilmap_view_url":null,"soiltest_xml_url":0,"soiltest_view_url":0},{"id":156700,"code":"B4KJ201801004-4949","latitude":"36.31130028","longitude":"139.6803672","source_code":"KT54393564002","project_name":"","survey_name":"\u5ca9\u821f\uff5e\u5c0f\u5c71\u30d0\u30a4\u30d1\u30b9\u5ca9\u821f\u5730\u533a\u5730\u8cea\u571f\u8cea\u8abf\u67fb","client_name":"\u56fd\u571f\u4ea4\u901a\u7701\u95a2\u6771\u5730\u65b9\u6574\u5099\u5c40\u5b87\u90fd\u5bae\u56fd\u9053\u4e8b\u52d9\u6240","boring_xml_url":40,"boring_view_url":1,"soilmap_view_url":null,"soiltest_xml_url":0,"soiltest_view_url":0},{"id":156699,"code":"B4KJ201801004-4948","latitude":"36.31096694","longitude":"139.6803675","source_code":"KT54393564001","project_name":"","survey_name":"\u5ca9\u821f\uff5e\u5c0f\u5c71\u30d0\u30a4\u30d1\u30b9\u5730\u8cea\u8abf\u67fb","client_name":"\u56fd\u571f\u4ea4\u901a\u7701\u95a2\u6771\u5730\u65b9\u6574\u5099\u5c40\u5b87\u90fd\u5bae\u56fd\u9053\u4e8b\u52d9\u6240","boring_xml_url":40,"boring_view_url":1,"soilmap_view_url":null,"soiltest_xml_url":0,"soiltest_view_url":0},{"id":156698,"code":"B4KJ201801004-4947","latitude":"36.30999389","longitude":"139.6453703","source_code":"KT54393561001","project_name":"","survey_name":"\u5e73\u677e\u4ea4\u5dee\u70b9\u8a08\u753b\u8abf\u67fb\u305d\u306e\u4ed6\u696d\u52d9\u59d4\u8a17\u696d\u52d9","client_name":"\u56fd\u571f\u4ea4\u901a\u7701\u95a2\u6771\u5730\u65b9\u6574\u5099\u5c40\u5b87\u90fd\u5bae\u56fd\u9053\u4e8b\u52d9\u6240","boring_xml_url":40,"boring_view_url":1,"soilmap_view_url":null,"soiltest_xml_url":0,"soiltest_view_url":0},{"id":156697,"code":"B4KJ201801004-4946","latitude":"36.30246861","longitude":"139.7134206","source_code":"KT54393557004","project_name":"","survey_name":"\u5e73\u677e\u4ea4\u5dee\u70b9\u8a08\u753b\u8abf\u67fb\u305d\u306e\u4ed6\u696d\u52d9\u59d4\u8a17\u696d\u52d9","client_name":"\u56fd\u571f\u4ea4\u901a\u7701\u95a2\u6771\u5730\u65b9\u6574\u5099\u5c40\u5b87\u90fd\u5bae\u56fd\u9053\u4e8b\u52d9\u6240","boring_xml_url":40,"boring_view_url":1,"soilmap_view_url":null,"soiltest_xml_url":0,"soiltest_view_url":0},{"id":156696,"code":"B4KJ201801004-4945","latitude":"36.29983","longitude":"139.7109208","source_code":"KT54393557003","project_name":"","survey_name":"\u5927\u5e73\u5730\u533a\u5730\u8cea\u8abf\u67fb","client_name":"\u56fd\u571f\u4ea4\u901a\u7701\u95a2\u6771\u5730\u65b9\u6574\u5099\u5c40\u5b87\u90fd\u5bae\u56fd\u9053\u4e8b\u52d9\u6240","boring_xml_url":40,"boring_view_url":1,"soilmap_view_url":null,"soiltest_xml_url":0,"soiltest_view_url":0},{"id":156695,"code":"B4KJ201801004-4944","latitude":"36.30296861","longitude":"139.7098097","source_code":"KT54393557002","project_name":"","survey_name":"\u5927\u5e73\u5730\u533a\u5730\u8cea\u8abf\u67fb","client_name":"\u56fd\u571f\u4ea4\u901a\u7701\u95a2\u6771\u5730\u65b9\u6574\u5099\u5c40\u5b87\u90fd\u5bae\u56fd\u9053\u4e8b\u52d9\u6240","boring_xml_url":40,"boring_view_url":1,"soilmap_view_url":null,"soiltest_xml_url":0,"soiltest_view_url":0},{"id":156694,"code":"B4KJ201801004-4943","latitude":"36.30205194","longitude":"139.7114761","source_code":"KT54393557001","project_name":"","survey_name":"\u5ca9\u821f\uff5e\u5c0f\u5c71\u30d0\u30a4\u30d1\u30b9(\u305d\u306e2)\u5730\u8cea\u30fb\u571f\u8cea\u8abf\u67fb","client_name":"\u56fd\u571f\u4ea4\u901a\u7701\u95a2\u6771\u5730\u65b9\u6574\u5099\u5c40\u5b87\u90fd\u5bae\u56fd\u9053\u4e8b\u52d9\u6240","boring_xml_url":40,"boring_view_url":1,"soilmap_view_url":null,"soiltest_xml_url":0,"soiltest_view_url":0},{"id":156693,"code":"B4KJ201801004-4942","latitude":"36.30205194","longitude":"139.7084208","source_code":"KT54393556002","project_name":"","survey_name":"\u5ca9\u821f\uff5e\u5c0f\u5c71\u30d0\u30a4\u30d1\u30b9(\u305d\u306e2)\u5730\u8cea\u30fb\u571f\u8cea\u8abf\u67fb","client_name":"\u56fd\u571f\u4ea4\u901a\u7701\u95a2\u6771\u5730\u65b9\u6574\u5099\u5c40\u5b87\u90fd\u5bae\u56fd\u9053\u4e8b\u52d9\u6240","boring_xml_url":40,"boring_view_url":1,"soilmap_view_url":null,"soiltest_xml_url":0,"soiltest_view_url":0},{"id":156692,"code":"B4KJ201801004-4941","latitude":"36.29130389","longitude":"139.7327525","source_code":"KT54393548004","project_name":"","survey_name":"\u53e4\u6cb3\u85e4\u5ca1\u5730\u8cea\u8abf\u67fb\u696d\u52d9","client_name":"\u56fd\u571f\u4ea4\u901a\u7701\u95a2\u6771\u5730\u65b9\u6574\u5099\u5c40\u5229\u6839\u5ddd\u4e0a\u6d41\u6cb3\u5ddd\u4e8b\u52d9\u6240","boring_xml_url":40,"boring_view_url":1,"soilmap_view_url":null,"soiltest_xml_url":0,"soiltest_view_url":0},{"id":156691,"code":"B4KJ201801004-4940","latitude":"36.28805417","longitude":"139.7299197","source_code":"KT54393548003","project_name":"","survey_name":"\u53e4\u6cb3\u85e4\u5ca1\u5730\u8cea\u8abf\u67fb\u696d\u52d9","client_name":"\u56fd\u571f\u4ea4\u901a\u7701\u95a2\u6771\u5730\u65b9\u6574\u5099\u5c40\u5229\u6839\u5ddd\u4e0a\u6d41\u6cb3\u5ddd\u4e8b\u52d9\u6240","boring_xml_url":40,"boring_view_url":1,"soilmap_view_url":null,"soiltest_xml_url":0,"soiltest_view_url":0},{"id":156690,"code":"B4KJ201801004-4939","latitude":"36.2883875","longitude":"139.7291419","source_code":"KT54393548002","project_name":"","survey_name":"\u7dd1\u5ddd\u5730\u5148\u5730\u8cea\u8abf\u67fb","client_name":"\u56fd\u571f\u4ea4\u901a\u7701\u95a2\u6771\u5730\u65b9\u6574\u5099\u5c40\u5229\u6839\u5ddd\u4e0a\u6d41\u6cb3\u5ddd\u4e8b\u52d9\u6240","boring_xml_url":40,"boring_view_url":1,"soilmap_view_url":null,"soiltest_xml_url":0,"soiltest_view_url":0},{"id":156689,"code":"B4KJ201801004-4938","latitude":"36.28660972","longitude":"139.7279475","source_code":"KT54393548001","project_name":"","survey_name":"\u7dd1\u5ddd\u5730\u5148\u5730\u8cea\u8abf\u67fb","client_name":"\u56fd\u571f\u4ea4\u901a\u7701\u95a2\u6771\u5730\u65b9\u6574\u5099\u5c40\u5229\u6839\u5ddd\u4e0a\u6d41\u6cb3\u5ddd\u4e8b\u52d9\u6240","boring_xml_url":40,"boring_view_url":1,"soilmap_view_url":null,"soiltest_xml_url":0,"soiltest_view_url":0},{"id":156688,"code":"B4KJ201801004-4937","latitude":"36.27838833","longitude":"139.7245317","source_code":"KT54393538005","project_name":"","survey_name":"\u5bd2\u5ddd\u5730\u5148\u5730\u8cea\u8abf\u67fb","client_name":"\u56fd\u571f\u4ea4\u901a\u7701\u95a2\u6771\u5730\u65b9\u6574\u5099\u5c40\u5229\u6839\u5ddd\u4e0a\u6d41\u6cb3\u5ddd\u4e8b\u52d9\u6240","boring_xml_url":40,"boring_view_url":1,"soilmap_view_url":null,"soiltest_xml_url":0,"soiltest_view_url":0},{"id":156687,"code":"B4KJ201801004-4936","latitude":"36.28455444","longitude":"139.7270589","source_code":"KT54393538004","project_name":"","survey_name":"\u7dd1\u5ddd\u5730\u5148\u5730\u8cea\u8abf\u67fb","client_name":"\u56fd\u571f\u4ea4\u901a\u7701\u95a2\u6771\u5730\u65b9\u6574\u5099\u5c40\u5229\u6839\u5ddd\u4e0a\u6d41\u6cb3\u5ddd\u4e8b\u52d9\u6240","boring_xml_url":40,"boring_view_url":1,"soilmap_view_url":null,"soiltest_xml_url":0,"soiltest_view_url":0},{"id":156686,"code":"B4KJ201801004-4935","latitude":"36.28361","longitude":"139.7263644","source_code":"KT54393538003","project_name":"","survey_name":"\u7dd1\u5ddd\u5730\u5148\u5730\u8cea\u8abf\u67fb","client_name":"\u56fd\u571f\u4ea4\u901a\u7701\u95a2\u6771\u5730\u65b9\u6574\u5099\u5c40\u5229\u6839\u5ddd\u4e0a\u6d41\u6cb3\u5ddd\u4e8b\u52d9\u6240","boring_xml_url":40,"boring_view_url":1,"soilmap_view_url":null,"soiltest_xml_url":0,"soiltest_view_url":0}]}}