{"header":{"xyz":{"source":[],"mosaic":false},"page":5467,"raw":{"soiltest_result":"0","bbox":"57.598333,109.544722,1.933333,163.806111","page":"5467"},"conditions":{"soiltest_result":0,"north":57.598333,"west":109.544722,"south":1.933333,"east":163.806111},"success":true,"message":""},"data":{"meta":{"total":212844,"page":5467,"pages":7095,"count":30},"values":[{"id":156565,"code":"B4KJ201801004-4814","latitude":"36.27094111","longitude":"139.5906544","source_code":"KT54393427004","project_name":"","survey_name":"\u6e21\u826f\u702c\u5ddd\u672c\u5ddd\u5824\u9632\u5730\u8cea\u8abf\u67fb\u696d\u52d9","client_name":"\u56fd\u571f\u4ea4\u901a\u7701\u95a2\u6771\u5730\u65b9\u6574\u5099\u5c40\u6e21\u826f\u702c\u5ddd\u6cb3\u5ddd\u4e8b\u52d9\u6240","boring_xml_url":40,"boring_view_url":1,"soilmap_view_url":null,"soiltest_xml_url":0,"soiltest_view_url":0},{"id":156564,"code":"B4KJ201801004-4813","latitude":"36.27452389","longitude":"139.5823217","source_code":"KT54393426004","project_name":"","survey_name":"\u79cb\u5c71\u5ddd\u6f0f\u6c34\u5730\u8cea\u8abf\u67fb","client_name":"\u56fd\u571f\u4ea4\u901a\u7701\u95a2\u6771\u5730\u65b9\u6574\u5099\u5c40\u6e21\u826f\u702c\u5ddd\u6cb3\u5ddd\u4e8b\u52d9\u6240","boring_xml_url":40,"boring_view_url":1,"soilmap_view_url":null,"soiltest_xml_url":0,"soiltest_view_url":0},{"id":156563,"code":"B4KJ201801004-4812","latitude":"36.27058","longitude":"139.5834883","source_code":"KT54393426003","project_name":"","survey_name":"\u83ca\u6ca2\u5ddd\u6392\u6c34\u6a5f\u5834\u5730\u8cea\u8abf\u67fb","client_name":"\u56fd\u571f\u4ea4\u901a\u7701\u95a2\u6771\u5730\u65b9\u6574\u5099\u5c40\u6e21\u826f\u702c\u5ddd\u6cb3\u5ddd\u4e8b\u52d9\u6240","boring_xml_url":40,"boring_view_url":1,"soilmap_view_url":null,"soiltest_xml_url":0,"soiltest_view_url":0},{"id":156562,"code":"B4KJ201801004-4811","latitude":"36.27085778","longitude":"139.5833494","source_code":"KT54393426002","project_name":"","survey_name":"\u83ca\u6ca2\u5ddd\u6392\u6c34\u6a5f\u5834\u5730\u8cea\u8abf\u67fb","client_name":"\u56fd\u571f\u4ea4\u901a\u7701\u95a2\u6771\u5730\u65b9\u6574\u5099\u5c40\u6e21\u826f\u702c\u5ddd\u6cb3\u5ddd\u4e8b\u52d9\u6240","boring_xml_url":40,"boring_view_url":1,"soilmap_view_url":null,"soiltest_xml_url":0,"soiltest_view_url":0},{"id":156561,"code":"B4KJ201801004-4810","latitude":"36.27108","longitude":"139.5830994","source_code":"KT54393426001","project_name":"","survey_name":"\u83ca\u6ca2\u5ddd\u6392\u6c34\u6a5f\u5834\u5730\u8cea\u8abf\u67fb","client_name":"\u56fd\u571f\u4ea4\u901a\u7701\u95a2\u6771\u5730\u65b9\u6574\u5099\u5c40\u6e21\u826f\u702c\u5ddd\u6cb3\u5ddd\u4e8b\u52d9\u6240","boring_xml_url":40,"boring_view_url":1,"soilmap_view_url":null,"soiltest_xml_url":0,"soiltest_view_url":0},{"id":156560,"code":"B4KJ201801004-4809","latitude":"36.27149583","longitude":"139.5581572","source_code":"KT54393424007","project_name":"","survey_name":"\u6e21\u826f\u702c\u5ddd\u672c\u5ddd\u5824\u9632\u5730\u8cea\u8abf\u67fb\u696d\u52d9","client_name":"\u56fd\u571f\u4ea4\u901a\u7701\u95a2\u6771\u5730\u65b9\u6574\u5099\u5c40\u6e21\u826f\u702c\u5ddd\u6cb3\u5ddd\u4e8b\u52d9\u6240","boring_xml_url":40,"boring_view_url":1,"soilmap_view_url":null,"soiltest_xml_url":0,"soiltest_view_url":0},{"id":156559,"code":"B4KJ201801004-4808","latitude":"36.27166222","longitude":"139.5534908","source_code":"KT54393424003","project_name":"","survey_name":"\u5965\u6238\u5730\u533a\u5730\u8cea\u8abf\u67fb","client_name":"\u56fd\u571f\u4ea4\u901a\u7701\u95a2\u6771\u5730\u65b9\u6574\u5099\u5c40\u6e21\u826f\u702c\u5ddd\u6cb3\u5ddd\u4e8b\u52d9\u6240","boring_xml_url":40,"boring_view_url":1,"soilmap_view_url":null,"soiltest_xml_url":0,"soiltest_view_url":0},{"id":156558,"code":"B4KJ201801004-4807","latitude":"36.27191222","longitude":"139.5489636","source_code":"KT54393424002","project_name":"","survey_name":"\u6e21\u826f\u702c\u5ddd\u5824\u9632\u8abf\u67fb\u696d\u52d9\u59d4\u8a17","client_name":"\u56fd\u571f\u4ea4\u901a\u7701\u95a2\u6771\u5730\u65b9\u6574\u5099\u5c40\u6e21\u826f\u702c\u5ddd\u6cb3\u5ddd\u4e8b\u52d9\u6240","boring_xml_url":40,"boring_view_url":1,"soilmap_view_url":null,"soiltest_xml_url":0,"soiltest_view_url":0},{"id":156557,"code":"B4KJ201801004-4806","latitude":"36.26985694","longitude":"139.5527411","source_code":"KT54393424001","project_name":"","survey_name":"\u6e21\u826f\u702c\u5ddd\u5824\u9632\u8abf\u67fb\u696d\u52d9","client_name":"\u56fd\u571f\u4ea4\u901a\u7701\u95a2\u6771\u5730\u65b9\u6574\u5099\u5c40\u6e21\u826f\u702c\u5ddd\u6cb3\u5ddd\u4e8b\u52d9\u6240","boring_xml_url":40,"boring_view_url":1,"soilmap_view_url":null,"soiltest_xml_url":0,"soiltest_view_url":0},{"id":156556,"code":"B4KJ201801004-4805","latitude":"36.27521722","longitude":"139.5417697","source_code":"KT54393423005","project_name":"","survey_name":"\u6e21\u826f\u702c\u5ddd\u5824\u9632\u8abf\u67fb\u696d\u52d9\u59d4\u8a17","client_name":"\u56fd\u571f\u4ea4\u901a\u7701\u95a2\u6771\u5730\u65b9\u6574\u5099\u5c40\u6e21\u826f\u702c\u5ddd\u6cb3\u5ddd\u4e8b\u52d9\u6240","boring_xml_url":40,"boring_view_url":1,"soilmap_view_url":null,"soiltest_xml_url":0,"soiltest_view_url":0},{"id":156555,"code":"B4KJ201801004-4804","latitude":"36.27668917","longitude":"139.5382142","source_code":"KT54393423004","project_name":"","survey_name":"\u4e0a\u65e9\u5ddd\u7530\u7bc9\u5824\u5f71\u97ff\u8abf\u67fb","client_name":"\u56fd\u571f\u4ea4\u901a\u7701\u95a2\u6771\u5730\u65b9\u6574\u5099\u5c40\u6e21\u826f\u702c\u5ddd\u6cb3\u5ddd\u4e8b\u52d9\u6240","boring_xml_url":40,"boring_view_url":1,"soilmap_view_url":null,"soiltest_xml_url":0,"soiltest_view_url":0},{"id":156554,"code":"B4KJ201801004-4803","latitude":"36.27646694","longitude":"139.5381589","source_code":"KT54393423003","project_name":"","survey_name":"\u4e0a\u65e9\u5ddd\u7530\u7bc9\u5824\u5f71\u97ff\u8abf\u67fb","client_name":"\u56fd\u571f\u4ea4\u901a\u7701\u95a2\u6771\u5730\u65b9\u6574\u5099\u5c40\u6e21\u826f\u702c\u5ddd\u6cb3\u5ddd\u4e8b\u52d9\u6240","boring_xml_url":40,"boring_view_url":1,"soilmap_view_url":null,"soiltest_xml_url":0,"soiltest_view_url":0},{"id":156553,"code":"B4KJ201801004-4802","latitude":"36.27732778","longitude":"139.53677","source_code":"KT54393423002","project_name":"","survey_name":"\u4e0a\u65e9\u5ddd\u7530\u7bc9\u5824\u5f71\u97ff\u8abf\u67fb","client_name":"\u56fd\u571f\u4ea4\u901a\u7701\u95a2\u6771\u5730\u65b9\u6574\u5099\u5c40\u6e21\u826f\u702c\u5ddd\u6cb3\u5ddd\u4e8b\u52d9\u6240","boring_xml_url":40,"boring_view_url":1,"soilmap_view_url":null,"soiltest_xml_url":0,"soiltest_view_url":0},{"id":156552,"code":"B4KJ201801004-4801","latitude":"36.27710583","longitude":"139.5367144","source_code":"KT54393423001","project_name":"","survey_name":"\u4e0a\u65e9\u5ddd\u7530\u7bc9\u5824\u5f71\u97ff\u8abf\u67fb","client_name":"\u56fd\u571f\u4ea4\u901a\u7701\u95a2\u6771\u5730\u65b9\u6574\u5099\u5c40\u6e21\u826f\u702c\u5ddd\u6cb3\u5ddd\u4e8b\u52d9\u6240","boring_xml_url":40,"boring_view_url":1,"soilmap_view_url":null,"soiltest_xml_url":0,"soiltest_view_url":0},{"id":156551,"code":"B4KJ201801004-4800","latitude":"36.27574361","longitude":"139.4988567","source_code":"KT54393420007","project_name":"","survey_name":"\u516b\u5e61\u6a4b\u5730\u8cea\u8abf\u67fb\u696d\u52d9\u59d4\u8a17","client_name":"\u56fd\u571f\u4ea4\u901a\u7701\u95a2\u6771\u5730\u65b9\u6574\u5099\u5c40\u6e21\u826f\u702c\u5ddd\u6cb3\u5ddd\u4e8b\u52d9\u6240","boring_xml_url":40,"boring_view_url":1,"soilmap_view_url":null,"soiltest_xml_url":0,"soiltest_view_url":0},{"id":156550,"code":"B4KJ201801004-4799","latitude":"36.27596583","longitude":"139.4991344","source_code":"KT54393420006","project_name":"","survey_name":"\u516b\u5e61\u6a4b\u5730\u8cea\u8abf\u67fb\u696d\u52d9\u59d4\u8a17","client_name":"\u56fd\u571f\u4ea4\u901a\u7701\u95a2\u6771\u5730\u65b9\u6574\u5099\u5c40\u6e21\u826f\u702c\u5ddd\u6cb3\u5ddd\u4e8b\u52d9\u6240","boring_xml_url":40,"boring_view_url":1,"soilmap_view_url":null,"soiltest_xml_url":0,"soiltest_view_url":0},{"id":156549,"code":"B4KJ201801004-4798","latitude":"36.2761325","longitude":"139.4994122","source_code":"KT54393420005","project_name":"","survey_name":"\u516b\u5e61\u6a4b\u5730\u8cea\u8abf\u67fb\u696d\u52d9\u59d4\u8a17","client_name":"\u56fd\u571f\u4ea4\u901a\u7701\u95a2\u6771\u5730\u65b9\u6574\u5099\u5c40\u6e21\u826f\u702c\u5ddd\u6cb3\u5ddd\u4e8b\u52d9\u6240","boring_xml_url":40,"boring_view_url":1,"soilmap_view_url":null,"soiltest_xml_url":0,"soiltest_view_url":0},{"id":156548,"code":"B4KJ201801004-4797","latitude":"36.27629917","longitude":"139.4973844","source_code":"KT54393420004","project_name":"","survey_name":"\u4e2d\u9ad8\u677e\u6a0b\u7ba1\u5730\u8cea\u8abf\u67fb","client_name":"\u56fd\u571f\u4ea4\u901a\u7701\u95a2\u6771\u5730\u65b9\u6574\u5099\u5c40\u6e21\u826f\u702c\u5ddd\u6cb3\u5ddd\u4e8b\u52d9\u6240","boring_xml_url":40,"boring_view_url":1,"soilmap_view_url":null,"soiltest_xml_url":0,"soiltest_view_url":0},{"id":156547,"code":"B4KJ201801004-4796","latitude":"36.27599361","longitude":"139.4973289","source_code":"KT54393420003","project_name":"","survey_name":"\u4e2d\u9ad8\u677e\u6a0b\u7ba1\u5730\u8cea\u8abf\u67fb","client_name":"\u56fd\u571f\u4ea4\u901a\u7701\u95a2\u6771\u5730\u65b9\u6574\u5099\u5c40\u6e21\u826f\u702c\u5ddd\u6cb3\u5ddd\u4e8b\u52d9\u6240","boring_xml_url":40,"boring_view_url":1,"soilmap_view_url":null,"soiltest_xml_url":0,"soiltest_view_url":0},{"id":156546,"code":"B4KJ201801004-4795","latitude":"36.27546583","longitude":"139.4981622","source_code":"KT54393420002","project_name":"","survey_name":"\u4e0a\u516b\u5e61\u6a0b\u7ba1\u5730\u8cea\u8abf\u67fb","client_name":"\u56fd\u571f\u4ea4\u901a\u7701\u95a2\u6771\u5730\u65b9\u6574\u5099\u5c40\u6e21\u826f\u702c\u5ddd\u6cb3\u5ddd\u4e8b\u52d9\u6240","boring_xml_url":40,"boring_view_url":1,"soilmap_view_url":null,"soiltest_xml_url":0,"soiltest_view_url":0},{"id":156545,"code":"B4KJ201801004-4794","latitude":"36.27524389","longitude":"139.4978844","source_code":"KT54393420001","project_name":"","survey_name":"\u4e0a\u516b\u5e61\u6a0b\u7ba1\u5730\u8cea\u8abf\u67fb","client_name":"\u56fd\u571f\u4ea4\u901a\u7701\u95a2\u6771\u5730\u65b9\u6574\u5099\u5c40\u6e21\u826f\u702c\u5ddd\u6cb3\u5ddd\u4e8b\u52d9\u6240","boring_xml_url":40,"boring_view_url":1,"soilmap_view_url":null,"soiltest_xml_url":0,"soiltest_view_url":0},{"id":156544,"code":"B4KJ201801004-4793","latitude":"36.26608083","longitude":"139.6020425","source_code":"KT54393418006","project_name":"","survey_name":"\u5e73\u621011\u5e74\u5ea6\u897f\u5ca1\u5730\u533a\u5824\u4f53\u57fa\u790e\u8abf\u67fb","client_name":"\u56fd\u571f\u4ea4\u901a\u7701\u95a2\u6771\u5730\u65b9\u6574\u5099\u5c40\u6e21\u826f\u702c\u5ddd\u6cb3\u5ddd\u4e8b\u52d9\u6240","boring_xml_url":40,"boring_view_url":1,"soilmap_view_url":null,"soiltest_xml_url":0,"soiltest_view_url":0},{"id":156543,"code":"B4KJ201801004-4792","latitude":"36.26608083","longitude":"139.6020425","source_code":"KT54393418005","project_name":"","survey_name":"\u5e73\u621011\u5e74\u5ea6\u897f\u5ca1\u5730\u533a\u5824\u4f53\u57fa\u790e\u8abf\u67fb","client_name":"\u56fd\u571f\u4ea4\u901a\u7701\u95a2\u6771\u5730\u65b9\u6574\u5099\u5c40\u6e21\u826f\u702c\u5ddd\u6cb3\u5ddd\u4e8b\u52d9\u6240","boring_xml_url":40,"boring_view_url":1,"soilmap_view_url":null,"soiltest_xml_url":0,"soiltest_view_url":0},{"id":156542,"code":"B4KJ201801004-4791","latitude":"36.26608083","longitude":"139.6020425","source_code":"KT54393418004","project_name":"","survey_name":"\u5e73\u621011\u5e74\u5ea6\u897f\u5ca1\u5730\u533a\u5824\u4f53\u57fa\u790e\u8abf\u67fb","client_name":"\u56fd\u571f\u4ea4\u901a\u7701\u95a2\u6771\u5730\u65b9\u6574\u5099\u5c40\u6e21\u826f\u702c\u5ddd\u6cb3\u5ddd\u4e8b\u52d9\u6240","boring_xml_url":40,"boring_view_url":1,"soilmap_view_url":null,"soiltest_xml_url":0,"soiltest_view_url":0},{"id":156541,"code":"B4KJ201801004-4790","latitude":"36.26566444","longitude":"139.6022647","source_code":"KT54393418001","project_name":"","survey_name":"\u6e21\u826f\u702c\u5ddd\u5824\u9632\u8abf\u67fb\u696d\u52d9\u59d4\u8a17","client_name":"\u56fd\u571f\u4ea4\u901a\u7701\u95a2\u6771\u5730\u65b9\u6574\u5099\u5c40\u6e21\u826f\u702c\u5ddd\u6cb3\u5ddd\u4e8b\u52d9\u6240","boring_xml_url":40,"boring_view_url":1,"soilmap_view_url":null,"soiltest_xml_url":0,"soiltest_view_url":0},{"id":156540,"code":"B4KJ201801004-4789","latitude":"36.26616389","longitude":"139.5907103","source_code":"KT54393417001","project_name":"","survey_name":"\u6e21\u826f\u702c\u5ddd\u5824\u9632\u8abf\u67fb\u696d\u52d9\u59d4\u8a17","client_name":"\u56fd\u571f\u4ea4\u901a\u7701\u95a2\u6771\u5730\u65b9\u6574\u5099\u5c40\u6e21\u826f\u702c\u5ddd\u6cb3\u5ddd\u4e8b\u52d9\u6240","boring_xml_url":40,"boring_view_url":1,"soilmap_view_url":null,"soiltest_xml_url":0,"soiltest_view_url":0},{"id":156539,"code":"B4KJ201801004-4788","latitude":"36.26927417","longitude":"139.572045","source_code":"KT54393416010","project_name":"","survey_name":"\u6e21\u826f\u702c\u5ddd\u672c\u5ddd\u5824\u9632\u5730\u8cea\u8abf\u67fb\u696d\u52d9","client_name":"\u56fd\u571f\u4ea4\u901a\u7701\u95a2\u6771\u5730\u65b9\u6574\u5099\u5c40\u6e21\u826f\u702c\u5ddd\u6cb3\u5ddd\u4e8b\u52d9\u6240","boring_xml_url":40,"boring_view_url":1,"soilmap_view_url":null,"soiltest_xml_url":0,"soiltest_view_url":0},{"id":156538,"code":"B4KJ201801004-4787","latitude":"36.26660806","longitude":"139.5792667","source_code":"KT54393416006","project_name":"","survey_name":"\u5e73\u621011\u5e74\u5ea6\u897f\u5ca1\u5730\u533a\u5824\u4f53\u57fa\u790e\u8abf\u67fb","client_name":"\u56fd\u571f\u4ea4\u901a\u7701\u95a2\u6771\u5730\u65b9\u6574\u5099\u5c40\u6e21\u826f\u702c\u5ddd\u6cb3\u5ddd\u4e8b\u52d9\u6240","boring_xml_url":40,"boring_view_url":1,"soilmap_view_url":null,"soiltest_xml_url":0,"soiltest_view_url":0},{"id":156537,"code":"B4KJ201801004-4786","latitude":"36.26660806","longitude":"139.5792667","source_code":"KT54393416005","project_name":"","survey_name":"\u5e73\u621011\u5e74\u5ea6\u897f\u5ca1\u5730\u533a\u5824\u4f53\u57fa\u790e\u8abf\u67fb","client_name":"\u56fd\u571f\u4ea4\u901a\u7701\u95a2\u6771\u5730\u65b9\u6574\u5099\u5c40\u6e21\u826f\u702c\u5ddd\u6cb3\u5ddd\u4e8b\u52d9\u6240","boring_xml_url":40,"boring_view_url":1,"soilmap_view_url":null,"soiltest_xml_url":0,"soiltest_view_url":0},{"id":156536,"code":"B4KJ201801004-4785","latitude":"36.26660806","longitude":"139.5792667","source_code":"KT54393416004","project_name":"","survey_name":"\u5e73\u621011\u5e74\u5ea6\u897f\u5ca1\u5730\u533a\u5824\u4f53\u57fa\u790e\u8abf\u67fb","client_name":"\u56fd\u571f\u4ea4\u901a\u7701\u95a2\u6771\u5730\u65b9\u6574\u5099\u5c40\u6e21\u826f\u702c\u5ddd\u6cb3\u5ddd\u4e8b\u52d9\u6240","boring_xml_url":40,"boring_view_url":1,"soilmap_view_url":null,"soiltest_xml_url":0,"soiltest_view_url":0}]}}