{"header":{"xyz":{"source":[],"mosaic":false},"page":5469,"raw":{"soiltest_result":"0","bbox":"57.598333,109.544722,1.933333,163.806111","page":"5469"},"conditions":{"soiltest_result":0,"north":57.598333,"west":109.544722,"south":1.933333,"east":163.806111},"success":true,"message":""},"data":{"meta":{"total":212844,"page":5469,"pages":7095,"count":30},"values":[{"id":156505,"code":"B4KJ201801004-4754","latitude":"36.32095972","longitude":"139.4610247","source_code":"KT54393387002","project_name":"","survey_name":"\u5ca9\u4e95\u753a\u5730\u5148\u5730\u8cea\u8abf\u67fb","client_name":"\u56fd\u571f\u4ea4\u901a\u7701\u95a2\u6771\u5730\u65b9\u6574\u5099\u5c40\u6e21\u826f\u702c\u5ddd\u6cb3\u5ddd\u4e8b\u52d9\u6240","boring_xml_url":40,"boring_view_url":1,"soilmap_view_url":null,"soiltest_xml_url":0,"soiltest_view_url":0},{"id":156504,"code":"B4KJ201801004-4753","latitude":"36.3209875","longitude":"139.4626078","source_code":"KT54393387001","project_name":"","survey_name":"\u5ca9\u4e95\u753a\u5730\u5148\u5730\u8cea\u8abf\u67fb","client_name":"\u56fd\u571f\u4ea4\u901a\u7701\u95a2\u6771\u5730\u65b9\u6574\u5099\u5c40\u6e21\u826f\u702c\u5ddd\u6cb3\u5ddd\u4e8b\u52d9\u6240","boring_xml_url":40,"boring_view_url":1,"soilmap_view_url":null,"soiltest_xml_url":0,"soiltest_view_url":0},{"id":156503,"code":"B4KJ201801004-4752","latitude":"36.32704222","longitude":"139.4533028","source_code":"KT54393386010","project_name":"","survey_name":"\u7530\u4e2d\u753a\u5730\u8cea\u8abf\u67fb\u696d\u52d9\u59d4\u8a17(\u305d\u306e2)","client_name":"\u56fd\u571f\u4ea4\u901a\u7701\u95a2\u6771\u5730\u65b9\u6574\u5099\u5c40\u6e21\u826f\u702c\u5ddd\u6cb3\u5ddd\u4e8b\u52d9\u6240","boring_xml_url":40,"boring_view_url":1,"soilmap_view_url":null,"soiltest_xml_url":0,"soiltest_view_url":0},{"id":156502,"code":"B4KJ201801004-4751","latitude":"36.32648667","longitude":"139.4528861","source_code":"KT54393386009","project_name":"","survey_name":"\u7530\u4e2d\u753a\u5730\u8cea\u8abf\u67fb","client_name":"\u56fd\u571f\u4ea4\u901a\u7701\u95a2\u6771\u5730\u65b9\u6574\u5099\u5c40\u6e21\u826f\u702c\u5ddd\u6cb3\u5ddd\u4e8b\u52d9\u6240","boring_xml_url":40,"boring_view_url":1,"soilmap_view_url":null,"soiltest_xml_url":0,"soiltest_view_url":0},{"id":156501,"code":"B4KJ201801004-4750","latitude":"36.32676444","longitude":"139.4531639","source_code":"KT54393386008","project_name":"","survey_name":"\u7530\u4e2d\u753a\u5730\u8cea\u8abf\u67fb","client_name":"\u56fd\u571f\u4ea4\u901a\u7701\u95a2\u6771\u5730\u65b9\u6574\u5099\u5c40\u6e21\u826f\u702c\u5ddd\u6cb3\u5ddd\u4e8b\u52d9\u6240","boring_xml_url":40,"boring_view_url":1,"soilmap_view_url":null,"soiltest_xml_url":0,"soiltest_view_url":0},{"id":156500,"code":"B4KJ201801004-4749","latitude":"36.32254278","longitude":"139.457275","source_code":"KT54393386007","project_name":"","survey_name":"\u5ca9\u4e95\u753a\u5730\u5148\u5730\u8cea\u8abf\u67fb","client_name":"\u56fd\u571f\u4ea4\u901a\u7701\u95a2\u6771\u5730\u65b9\u6574\u5099\u5c40\u6e21\u826f\u702c\u5ddd\u6cb3\u5ddd\u4e8b\u52d9\u6240","boring_xml_url":40,"boring_view_url":1,"soilmap_view_url":null,"soiltest_xml_url":0,"soiltest_view_url":0},{"id":156499,"code":"B4KJ201801004-4748","latitude":"36.32070972","longitude":"139.4584417","source_code":"KT54393386006","project_name":"","survey_name":"\u5ca9\u4e95\u753a\u5730\u5148\u5730\u8cea\u8abf\u67fb","client_name":"\u56fd\u571f\u4ea4\u901a\u7701\u95a2\u6771\u5730\u65b9\u6574\u5099\u5c40\u6e21\u826f\u702c\u5ddd\u6cb3\u5ddd\u4e8b\u52d9\u6240","boring_xml_url":40,"boring_view_url":1,"soilmap_view_url":null,"soiltest_xml_url":0,"soiltest_view_url":0},{"id":156498,"code":"B4KJ201801004-4747","latitude":"36.32298722","longitude":"139.4573306","source_code":"KT54393386005","project_name":"","survey_name":"\u5ca9\u4e95\u753a\u5730\u5148\u5730\u8cea\u8abf\u67fb","client_name":"\u56fd\u571f\u4ea4\u901a\u7701\u95a2\u6771\u5730\u65b9\u6574\u5099\u5c40\u6e21\u826f\u702c\u5ddd\u6cb3\u5ddd\u4e8b\u52d9\u6240","boring_xml_url":40,"boring_view_url":1,"soilmap_view_url":null,"soiltest_xml_url":0,"soiltest_view_url":0},{"id":156497,"code":"B4KJ201801004-4746","latitude":"36.32398694","longitude":"139.4530253","source_code":"KT54393386004","project_name":"","survey_name":"\u5ca9\u4e95\u753a\u5730\u5148\u5730\u8cea\u8abf\u67fb","client_name":"\u56fd\u571f\u4ea4\u901a\u7701\u95a2\u6771\u5730\u65b9\u6574\u5099\u5c40\u6e21\u826f\u702c\u5ddd\u6cb3\u5ddd\u4e8b\u52d9\u6240","boring_xml_url":40,"boring_view_url":1,"soilmap_view_url":null,"soiltest_xml_url":0,"soiltest_view_url":0},{"id":156496,"code":"B4KJ201801004-4745","latitude":"36.3204875","longitude":"139.4570528","source_code":"KT54393386003","project_name":"","survey_name":"\u5ca9\u4e95\u753a\u5730\u5148\u5730\u8cea\u8abf\u67fb","client_name":"\u56fd\u571f\u4ea4\u901a\u7701\u95a2\u6771\u5730\u65b9\u6574\u5099\u5c40\u6e21\u826f\u702c\u5ddd\u6cb3\u5ddd\u4e8b\u52d9\u6240","boring_xml_url":40,"boring_view_url":1,"soilmap_view_url":null,"soiltest_xml_url":0,"soiltest_view_url":0},{"id":156495,"code":"B4KJ201801004-4744","latitude":"36.32118194","longitude":"139.4570528","source_code":"KT54393386002","project_name":"","survey_name":"\u5ca9\u672c\u753a\u5730\u5148\u5730\u8cea\u8abf\u67fb","client_name":"\u56fd\u571f\u4ea4\u901a\u7701\u95a2\u6771\u5730\u65b9\u6574\u5099\u5c40\u6e21\u826f\u702c\u5ddd\u6cb3\u5ddd\u4e8b\u52d9\u6240","boring_xml_url":40,"boring_view_url":1,"soilmap_view_url":null,"soiltest_xml_url":0,"soiltest_view_url":0},{"id":156494,"code":"B4KJ201801004-4743","latitude":"36.32184861","longitude":"139.4581636","source_code":"KT54393386001","project_name":"","survey_name":"\u5ca9\u4e95\u753a\u5730\u5148\u5730\u8cea\u8abf\u67fb","client_name":"\u56fd\u571f\u4ea4\u901a\u7701\u95a2\u6771\u5730\u65b9\u6574\u5099\u5c40\u6e21\u826f\u702c\u5ddd\u6cb3\u5ddd\u4e8b\u52d9\u6240","boring_xml_url":40,"boring_view_url":1,"soilmap_view_url":null,"soiltest_xml_url":0,"soiltest_view_url":0},{"id":156493,"code":"B4KJ201801004-4742","latitude":"36.31754389","longitude":"139.472885","source_code":"KT54393378001","project_name":"","survey_name":"\u5ca9\u4e95\u753a\u5730\u5148\u5730\u8cea\u8abf\u67fb","client_name":"\u56fd\u571f\u4ea4\u901a\u7701\u95a2\u6771\u5730\u65b9\u6574\u5099\u5c40\u6e21\u826f\u702c\u5ddd\u6cb3\u5ddd\u4e8b\u52d9\u6240","boring_xml_url":40,"boring_view_url":1,"soilmap_view_url":null,"soiltest_xml_url":0,"soiltest_view_url":0},{"id":156492,"code":"B4KJ201801004-4741","latitude":"36.31809889","longitude":"139.4599417","source_code":"KT54393377013","project_name":"","survey_name":"\u5ca9\u4e95\u753a\u5730\u5148\u5730\u8cea\u8abf\u67fb","client_name":"\u56fd\u571f\u4ea4\u901a\u7701\u95a2\u6771\u5730\u65b9\u6574\u5099\u5c40\u6e21\u826f\u702c\u5ddd\u6cb3\u5ddd\u4e8b\u52d9\u6240","boring_xml_url":40,"boring_view_url":1,"soilmap_view_url":null,"soiltest_xml_url":0,"soiltest_view_url":0},{"id":156491,"code":"B4KJ201801004-4740","latitude":"36.31893222","longitude":"139.4602192","source_code":"KT54393377012","project_name":"","survey_name":"\u5ca9\u4e95\u753a\u5730\u5148\u5730\u8cea\u8abf\u67fb","client_name":"\u56fd\u571f\u4ea4\u901a\u7701\u95a2\u6771\u5730\u65b9\u6574\u5099\u5c40\u6e21\u826f\u702c\u5ddd\u6cb3\u5ddd\u4e8b\u52d9\u6240","boring_xml_url":40,"boring_view_url":1,"soilmap_view_url":null,"soiltest_xml_url":0,"soiltest_view_url":0},{"id":156490,"code":"B4KJ201801004-4739","latitude":"36.31962667","longitude":"139.4627744","source_code":"KT54393377011","project_name":"","survey_name":"\u5ca9\u4e95\u753a\u5730\u5148\u5730\u8cea\u8abf\u67fb","client_name":"\u56fd\u571f\u4ea4\u901a\u7701\u95a2\u6771\u5730\u65b9\u6574\u5099\u5c40\u6e21\u826f\u702c\u5ddd\u6cb3\u5ddd\u4e8b\u52d9\u6240","boring_xml_url":40,"boring_view_url":1,"soilmap_view_url":null,"soiltest_xml_url":0,"soiltest_view_url":0},{"id":156489,"code":"B4KJ201801004-4738","latitude":"36.3179325","longitude":"139.4663022","source_code":"KT54393377010","project_name":"","survey_name":"\u5ca9\u4e95\u753a\u5730\u5148\u5730\u8cea\u8abf\u67fb","client_name":"\u56fd\u571f\u4ea4\u901a\u7701\u95a2\u6771\u5730\u65b9\u6574\u5099\u5c40\u6e21\u826f\u702c\u5ddd\u6cb3\u5ddd\u4e8b\u52d9\u6240","boring_xml_url":40,"boring_view_url":1,"soilmap_view_url":null,"soiltest_xml_url":0,"soiltest_view_url":0},{"id":156488,"code":"B4KJ201801004-4737","latitude":"36.31554389","longitude":"139.4709406","source_code":"KT54393377009","project_name":"","survey_name":"\u5ca9\u4e95\u753a\u5730\u5148\u5730\u8cea\u8abf\u67fb","client_name":"\u56fd\u571f\u4ea4\u901a\u7701\u95a2\u6771\u5730\u65b9\u6574\u5099\u5c40\u6e21\u826f\u702c\u5ddd\u6cb3\u5ddd\u4e8b\u52d9\u6240","boring_xml_url":40,"boring_view_url":1,"soilmap_view_url":null,"soiltest_xml_url":0,"soiltest_view_url":0},{"id":156487,"code":"B4KJ201801004-4736","latitude":"36.31829333","longitude":"139.4609414","source_code":"KT54393377008","project_name":"","survey_name":"\u798f\u5bcc\u753a\u5730\u5148\u5730\u8cea\u8abf\u67fb","client_name":"\u56fd\u571f\u4ea4\u901a\u7701\u95a2\u6771\u5730\u65b9\u6574\u5099\u5c40\u6e21\u826f\u702c\u5ddd\u6cb3\u5ddd\u4e8b\u52d9\u6240","boring_xml_url":40,"boring_view_url":1,"soilmap_view_url":null,"soiltest_xml_url":0,"soiltest_view_url":0},{"id":156486,"code":"B4KJ201801004-4735","latitude":"36.31882111","longitude":"139.4633022","source_code":"KT54393377007","project_name":"","survey_name":"\u798f\u5bcc\u753a\u5730\u5148\u5730\u8cea\u8abf\u67fb","client_name":"\u56fd\u571f\u4ea4\u901a\u7701\u95a2\u6771\u5730\u65b9\u6574\u5099\u5c40\u6e21\u826f\u702c\u5ddd\u6cb3\u5ddd\u4e8b\u52d9\u6240","boring_xml_url":40,"boring_view_url":1,"soilmap_view_url":null,"soiltest_xml_url":0,"soiltest_view_url":0},{"id":156485,"code":"B4KJ201801004-4734","latitude":"36.31973778","longitude":"139.4605247","source_code":"KT54393377006","project_name":"","survey_name":"\u5ca9\u4e95\u53ca\u3073\u795e\u660e\u5730\u533a\u5730\u8cea\u8abf\u67fb","client_name":"\u56fd\u571f\u4ea4\u901a\u7701\u95a2\u6771\u5730\u65b9\u6574\u5099\u5c40\u6e21\u826f\u702c\u5ddd\u6cb3\u5ddd\u4e8b\u52d9\u6240","boring_xml_url":40,"boring_view_url":1,"soilmap_view_url":null,"soiltest_xml_url":0,"soiltest_view_url":0},{"id":156484,"code":"B4KJ201801004-4733","latitude":"36.31879333","longitude":"139.4601081","source_code":"KT54393377005","project_name":"","survey_name":"\u5ca9\u4e95\u53ca\u3073\u795e\u660e\u5730\u533a\u5730\u8cea\u8abf\u67fb","client_name":"\u56fd\u571f\u4ea4\u901a\u7701\u95a2\u6771\u5730\u65b9\u6574\u5099\u5c40\u6e21\u826f\u702c\u5ddd\u6cb3\u5ddd\u4e8b\u52d9\u6240","boring_xml_url":40,"boring_view_url":1,"soilmap_view_url":null,"soiltest_xml_url":0,"soiltest_view_url":0},{"id":156483,"code":"B4KJ201801004-4732","latitude":"36.31921","longitude":"139.4608025","source_code":"KT54393377004","project_name":"","survey_name":"\u5ca9\u4e95\u53ca\u3073\u795e\u660e\u5730\u533a\u5730\u8cea\u8abf\u67fb","client_name":"\u56fd\u571f\u4ea4\u901a\u7701\u95a2\u6771\u5730\u65b9\u6574\u5099\u5c40\u6e21\u826f\u702c\u5ddd\u6cb3\u5ddd\u4e8b\u52d9\u6240","boring_xml_url":40,"boring_view_url":1,"soilmap_view_url":null,"soiltest_xml_url":0,"soiltest_view_url":0},{"id":156482,"code":"B4KJ201801004-4731","latitude":"36.31876556","longitude":"139.4609414","source_code":"KT54393377003","project_name":"","survey_name":"\u5ca9\u4e95\u53ca\u3073\u795e\u660e\u5730\u533a\u5730\u8cea\u8abf\u67fb","client_name":"\u56fd\u571f\u4ea4\u901a\u7701\u95a2\u6771\u5730\u65b9\u6574\u5099\u5c40\u6e21\u826f\u702c\u5ddd\u6cb3\u5ddd\u4e8b\u52d9\u6240","boring_xml_url":40,"boring_view_url":1,"soilmap_view_url":null,"soiltest_xml_url":0,"soiltest_view_url":0},{"id":156481,"code":"B4KJ201801004-4730","latitude":"36.31834889","longitude":"139.4610803","source_code":"KT54393377002","project_name":"","survey_name":"\u5ca9\u4e95\u53ca\u3073\u795e\u660e\u5730\u533a\u5730\u8cea\u8abf\u67fb","client_name":"\u56fd\u571f\u4ea4\u901a\u7701\u95a2\u6771\u5730\u65b9\u6574\u5099\u5c40\u6e21\u826f\u702c\u5ddd\u6cb3\u5ddd\u4e8b\u52d9\u6240","boring_xml_url":40,"boring_view_url":1,"soilmap_view_url":null,"soiltest_xml_url":0,"soiltest_view_url":0},{"id":156480,"code":"B4KJ201801004-4729","latitude":"36.31932111","longitude":"139.4612192","source_code":"KT54393377001","project_name":"","survey_name":"\u5ca9\u4e95\u53ca\u3073\u795e\u660e\u5730\u533a\u5730\u8cea\u8abf\u67fb","client_name":"\u56fd\u571f\u4ea4\u901a\u7701\u95a2\u6771\u5730\u65b9\u6574\u5099\u5c40\u6e21\u826f\u702c\u5ddd\u6cb3\u5ddd\u4e8b\u52d9\u6240","boring_xml_url":40,"boring_view_url":1,"soilmap_view_url":null,"soiltest_xml_url":0,"soiltest_view_url":0},{"id":156479,"code":"B4KJ201801004-4728","latitude":"36.31209889","longitude":"139.4353883","source_code":"KT54393375004","project_name":"","survey_name":"\u8352\u8429\u5730\u533a\u5730\u8cea\u571f\u8cea\u8abf\u67fb","client_name":"\u56fd\u571f\u4ea4\u901a\u7701\u95a2\u6771\u5730\u65b9\u6574\u5099\u5c40\u5b87\u90fd\u5bae\u56fd\u9053\u4e8b\u52d9\u6240","boring_xml_url":40,"boring_view_url":1,"soilmap_view_url":null,"soiltest_xml_url":0,"soiltest_view_url":0},{"id":156478,"code":"B4KJ201801004-4727","latitude":"36.31209889","longitude":"139.4353883","source_code":"KT54393375003","project_name":"","survey_name":"\u8352\u8429\u5730\u533a\u5730\u8cea\u571f\u8cea\u8abf\u67fb","client_name":"\u56fd\u571f\u4ea4\u901a\u7701\u95a2\u6771\u5730\u65b9\u6574\u5099\u5c40\u5b87\u90fd\u5bae\u56fd\u9053\u4e8b\u52d9\u6240","boring_xml_url":40,"boring_view_url":1,"soilmap_view_url":null,"soiltest_xml_url":0,"soiltest_view_url":0},{"id":156477,"code":"B4KJ201801004-4726","latitude":"36.31209889","longitude":"139.4353883","source_code":"KT54393375002","project_name":"","survey_name":"\u8352\u8429\u5730\u533a\u5730\u8cea\u571f\u8cea\u8abf\u67fb","client_name":"\u56fd\u571f\u4ea4\u901a\u7701\u95a2\u6771\u5730\u65b9\u6574\u5099\u5c40\u5b87\u90fd\u5bae\u56fd\u9053\u4e8b\u52d9\u6240","boring_xml_url":40,"boring_view_url":1,"soilmap_view_url":null,"soiltest_xml_url":0,"soiltest_view_url":0},{"id":156476,"code":"B4KJ201801004-4725","latitude":"36.31165444","longitude":"139.4344161","source_code":"KT54393375001","project_name":"","survey_name":"\u8db3\u5229\u30d0\u30a4\u30d1\u30b9\u5800\u8fbc\u5730\u533a\u5730\u8cea\u571f\u8cea\u8abf\u67fb","client_name":"\u56fd\u571f\u4ea4\u901a\u7701\u95a2\u6771\u5730\u65b9\u6574\u5099\u5c40\u5b87\u90fd\u5bae\u56fd\u9053\u4e8b\u52d9\u6240","boring_xml_url":40,"boring_view_url":1,"soilmap_view_url":null,"soiltest_xml_url":0,"soiltest_view_url":0}]}}