{"header":{"xyz":{"source":[],"mosaic":false},"page":5510,"raw":{"soiltest_result":"0","bbox":"57.598333,109.544722,1.933333,163.806111","page":"5510"},"conditions":{"soiltest_result":0,"north":57.598333,"west":109.544722,"south":1.933333,"east":163.806111},"success":true,"message":""},"data":{"meta":{"total":212844,"page":5510,"pages":7095,"count":30},"values":[{"id":155275,"code":"B4KJ201801004-3524","latitude":"36.07366806","longitude":"139.9604367","source_code":"KT54390787001","project_name":"","survey_name":"\u570f\u592e\u9053\u5730\u8cea\u8abf\u67fb10K10","client_name":"\u56fd\u571f\u4ea4\u901a\u7701\u95a2\u6771\u5730\u65b9\u6574\u5099\u5c40\u5e38\u7dcf\u56fd\u9053\u4e8b\u52d9\u6240","boring_xml_url":40,"boring_view_url":1,"soilmap_view_url":null,"soiltest_xml_url":0,"soiltest_view_url":0},{"id":155274,"code":"B4KJ201801004-3523","latitude":"36.07186222","longitude":"139.9479933","source_code":"KT54390786005","project_name":"","survey_name":"\u570f\u592e\u9053\u5730\u8cea\u8abf\u67fb10K10","client_name":"\u56fd\u571f\u4ea4\u901a\u7701\u95a2\u6771\u5730\u65b9\u6574\u5099\u5c40\u5e38\u7dcf\u56fd\u9053\u4e8b\u52d9\u6240","boring_xml_url":40,"boring_view_url":1,"soilmap_view_url":null,"soiltest_xml_url":0,"soiltest_view_url":0},{"id":155273,"code":"B4KJ201801004-3522","latitude":"36.07355694","longitude":"139.9591311","source_code":"KT54390786004","project_name":"","survey_name":"\u570f\u592e\u9053\u5730\u8cea\u8abf\u67fb10K10","client_name":"\u56fd\u571f\u4ea4\u901a\u7701\u95a2\u6771\u5730\u65b9\u6574\u5099\u5c40\u5e38\u7dcf\u56fd\u9053\u4e8b\u52d9\u6240","boring_xml_url":40,"boring_view_url":1,"soilmap_view_url":null,"soiltest_xml_url":0,"soiltest_view_url":0},{"id":155272,"code":"B4KJ201801004-3521","latitude":"36.0733625","longitude":"139.9561314","source_code":"KT54390786003","project_name":"","survey_name":"\u570f\u592e\u9053\u5730\u8cea\u8abf\u67fb10K10","client_name":"\u56fd\u571f\u4ea4\u901a\u7701\u95a2\u6771\u5730\u65b9\u6574\u5099\u5c40\u5e38\u7dcf\u56fd\u9053\u4e8b\u52d9\u6240","boring_xml_url":40,"boring_view_url":1,"soilmap_view_url":null,"soiltest_xml_url":0,"soiltest_view_url":0},{"id":155271,"code":"B4KJ201801004-3520","latitude":"36.07300111","longitude":"139.9537983","source_code":"KT54390786002","project_name":"","survey_name":"\u570f\u592e\u9053\u5730\u8cea\u8abf\u67fb10K10","client_name":"\u56fd\u571f\u4ea4\u901a\u7701\u95a2\u6771\u5730\u65b9\u6574\u5099\u5c40\u5e38\u7dcf\u56fd\u9053\u4e8b\u52d9\u6240","boring_xml_url":40,"boring_view_url":1,"soilmap_view_url":null,"soiltest_xml_url":0,"soiltest_view_url":0},{"id":155270,"code":"B4KJ201801004-3519","latitude":"36.07255667","longitude":"139.9513819","source_code":"KT54390786001","project_name":"","survey_name":"\u570f\u592e\u9053\u5730\u8cea\u8abf\u67fb10K10","client_name":"\u56fd\u571f\u4ea4\u901a\u7701\u95a2\u6771\u5730\u65b9\u6574\u5099\u5c40\u5e38\u7dcf\u56fd\u9053\u4e8b\u52d9\u6240","boring_xml_url":40,"boring_view_url":1,"soilmap_view_url":null,"soiltest_xml_url":0,"soiltest_view_url":0},{"id":155269,"code":"B4KJ201801004-3518","latitude":"36.07139","longitude":"139.9454936","source_code":"KT54390785004","project_name":"","survey_name":"\u570f\u592e\u9053\u5730\u8cea\u8abf\u67fb10K9","client_name":"\u56fd\u571f\u4ea4\u901a\u7701\u95a2\u6771\u5730\u65b9\u6574\u5099\u5c40\u5e38\u7dcf\u56fd\u9053\u4e8b\u52d9\u6240","boring_xml_url":40,"boring_view_url":1,"soilmap_view_url":null,"soiltest_xml_url":0,"soiltest_view_url":0},{"id":155268,"code":"B4KJ201801004-3517","latitude":"36.07152889","longitude":"139.9443547","source_code":"KT54390785003","project_name":"","survey_name":"\u570f\u592e\u9053\u5730\u8cea\u8abf\u67fb10K9","client_name":"\u56fd\u571f\u4ea4\u901a\u7701\u95a2\u6771\u5730\u65b9\u6574\u5099\u5c40\u5e38\u7dcf\u56fd\u9053\u4e8b\u52d9\u6240","boring_xml_url":40,"boring_view_url":1,"soilmap_view_url":null,"soiltest_xml_url":0,"soiltest_view_url":0},{"id":155267,"code":"B4KJ201801004-3516","latitude":"36.07097333","longitude":"139.9407161","source_code":"KT54390785002","project_name":"","survey_name":"\u570f\u592e\u9053\u5730\u8cea\u8abf\u67fb10K9","client_name":"\u56fd\u571f\u4ea4\u901a\u7701\u95a2\u6771\u5730\u65b9\u6574\u5099\u5c40\u5e38\u7dcf\u56fd\u9053\u4e8b\u52d9\u6240","boring_xml_url":40,"boring_view_url":1,"soilmap_view_url":null,"soiltest_xml_url":0,"soiltest_view_url":0},{"id":155266,"code":"B4KJ201801004-3515","latitude":"36.07014","longitude":"139.9387719","source_code":"KT54390785001","project_name":"","survey_name":"\u570f\u592e\u9053\u5730\u8cea\u8abf\u67fb10K9","client_name":"\u56fd\u571f\u4ea4\u901a\u7701\u95a2\u6771\u5730\u65b9\u6574\u5099\u5c40\u5e38\u7dcf\u56fd\u9053\u4e8b\u52d9\u6240","boring_xml_url":40,"boring_view_url":1,"soilmap_view_url":null,"soiltest_xml_url":0,"soiltest_view_url":0},{"id":155265,"code":"B4KJ201801004-3514","latitude":"36.06986222","longitude":"139.9317725","source_code":"KT54390784006","project_name":"","survey_name":"\u570f\u592e\u9053\u5730\u8cea\u8abf\u67fb10K9","client_name":"\u56fd\u571f\u4ea4\u901a\u7701\u95a2\u6771\u5730\u65b9\u6574\u5099\u5c40\u5e38\u7dcf\u56fd\u9053\u4e8b\u52d9\u6240","boring_xml_url":40,"boring_view_url":1,"soilmap_view_url":null,"soiltest_xml_url":0,"soiltest_view_url":0},{"id":155264,"code":"B4KJ201801004-3513","latitude":"36.06986194","longitude":"139.9303561","source_code":"KT54390784005","project_name":"","survey_name":"\u570f\u592e\u9053\u5730\u8cea\u8abf\u67fb10K9","client_name":"\u56fd\u571f\u4ea4\u901a\u7701\u95a2\u6771\u5730\u65b9\u6574\u5099\u5c40\u5e38\u7dcf\u56fd\u9053\u4e8b\u52d9\u6240","boring_xml_url":40,"boring_view_url":1,"soilmap_view_url":null,"soiltest_xml_url":0,"soiltest_view_url":0},{"id":155263,"code":"B4KJ201801004-3512","latitude":"36.07119528","longitude":"139.9276894","source_code":"KT54390784004","project_name":"","survey_name":"\u570f\u592e\u9053\u5730\u8cea\u8abf\u67fb10K9","client_name":"\u56fd\u571f\u4ea4\u901a\u7701\u95a2\u6771\u5730\u65b9\u6574\u5099\u5c40\u5e38\u7dcf\u56fd\u9053\u4e8b\u52d9\u6240","boring_xml_url":40,"boring_view_url":1,"soilmap_view_url":null,"soiltest_xml_url":0,"soiltest_view_url":0},{"id":155262,"code":"B4KJ201801004-3511","latitude":"36.07158389","longitude":"139.9251897","source_code":"KT54390784003","project_name":"","survey_name":"\u570f\u592e\u9053\u5730\u8cea\u8abf\u67fb10K9","client_name":"\u56fd\u571f\u4ea4\u901a\u7701\u95a2\u6771\u5730\u65b9\u6574\u5099\u5c40\u5e38\u7dcf\u56fd\u9053\u4e8b\u52d9\u6240","boring_xml_url":40,"boring_view_url":1,"soilmap_view_url":null,"soiltest_xml_url":0,"soiltest_view_url":0},{"id":155261,"code":"B4KJ201801004-3510","latitude":"36.07213944","longitude":"139.9237731","source_code":"KT54390784002","project_name":"","survey_name":"\u570f\u592e\u9053\u5730\u8cea\u8abf\u67fb10K9","client_name":"\u56fd\u571f\u4ea4\u901a\u7701\u95a2\u6771\u5730\u65b9\u6574\u5099\u5c40\u5e38\u7dcf\u56fd\u9053\u4e8b\u52d9\u6240","boring_xml_url":40,"boring_view_url":1,"soilmap_view_url":null,"soiltest_xml_url":0,"soiltest_view_url":0},{"id":155260,"code":"B4KJ201801004-3509","latitude":"36.07263944","longitude":"139.9226619","source_code":"KT54390784001","project_name":"","survey_name":"\u570f\u592e\u9053\u5730\u8cea\u8abf\u67fb10K9","client_name":"\u56fd\u571f\u4ea4\u901a\u7701\u95a2\u6771\u5730\u65b9\u6574\u5099\u5c40\u5e38\u7dcf\u56fd\u9053\u4e8b\u52d9\u6240","boring_xml_url":40,"boring_view_url":1,"soilmap_view_url":null,"soiltest_xml_url":0,"soiltest_view_url":0},{"id":155259,"code":"B4KJ201801004-3508","latitude":"36.07455583","longitude":"139.9206067","source_code":"KT54390783003","project_name":"","survey_name":"\u570f\u592e\u9053\u5730\u8cea\u8abf\u67fb10K8","client_name":"\u56fd\u571f\u4ea4\u901a\u7701\u95a2\u6771\u5730\u65b9\u6574\u5099\u5c40\u5e38\u7dcf\u56fd\u9053\u4e8b\u52d9\u6240","boring_xml_url":40,"boring_view_url":1,"soilmap_view_url":null,"soiltest_xml_url":0,"soiltest_view_url":0},{"id":155258,"code":"B4KJ201801004-3507","latitude":"36.07619444","longitude":"139.9187456","source_code":"KT54390783002","project_name":"","survey_name":"\u570f\u592e\u9053\u5730\u8cea\u8abf\u67fb10K8","client_name":"\u56fd\u571f\u4ea4\u901a\u7701\u95a2\u6771\u5730\u65b9\u6574\u5099\u5c40\u5e38\u7dcf\u56fd\u9053\u4e8b\u52d9\u6240","boring_xml_url":40,"boring_view_url":1,"soilmap_view_url":null,"soiltest_xml_url":0,"soiltest_view_url":0},{"id":155257,"code":"B4KJ201801004-3506","latitude":"36.07741639","longitude":"139.9174956","source_code":"KT54390783001","project_name":"","survey_name":"\u570f\u592e\u9053\u5730\u8cea\u8abf\u67fb10K8","client_name":"\u56fd\u571f\u4ea4\u901a\u7701\u95a2\u6771\u5730\u65b9\u6574\u5099\u5c40\u5e38\u7dcf\u56fd\u9053\u4e8b\u52d9\u6240","boring_xml_url":40,"boring_view_url":1,"soilmap_view_url":null,"soiltest_xml_url":0,"soiltest_view_url":0},{"id":155256,"code":"B4KJ201801004-3505","latitude":"36.06952889","longitude":"139.9356889","source_code":"KT54390775001","project_name":"","survey_name":"\u570f\u592e\u9053\u5730\u8cea\u8abf\u67fb10K9","client_name":"\u56fd\u571f\u4ea4\u901a\u7701\u95a2\u6771\u5730\u65b9\u6574\u5099\u5c40\u5e38\u7dcf\u56fd\u9053\u4e8b\u52d9\u6240","boring_xml_url":40,"boring_view_url":1,"soilmap_view_url":null,"soiltest_xml_url":0,"soiltest_view_url":0},{"id":155255,"code":"B4KJ201801004-3504","latitude":"36.05905889","longitude":"139.9771858","source_code":"KT54390768002","project_name":"","survey_name":"\u4e09\u59bb\u5e8a\u6b62\u5de5\u571f\u8cea\u8abf\u67fb","client_name":"\u56fd\u571f\u4ea4\u901a\u7701\u95a2\u6771\u5730\u65b9\u6574\u5099\u5c40\u4e0b\u9928\u6cb3\u5ddd\u4e8b\u52d9\u6240","boring_xml_url":40,"boring_view_url":1,"soilmap_view_url":null,"soiltest_xml_url":0,"soiltest_view_url":0},{"id":155254,"code":"B4KJ201801004-3503","latitude":"36.0593925","longitude":"139.9800189","source_code":"KT54390768001","project_name":"","survey_name":"\u4e09\u59bb\u5e8a\u6b62\u5de5\u571f\u8cea\u8abf\u67fb","client_name":"\u56fd\u571f\u4ea4\u901a\u7701\u95a2\u6771\u5730\u65b9\u6574\u5099\u5c40\u4e0b\u9928\u6cb3\u5ddd\u4e8b\u52d9\u6240","boring_xml_url":40,"boring_view_url":1,"soilmap_view_url":null,"soiltest_xml_url":0,"soiltest_view_url":0},{"id":155253,"code":"B4KJ201801004-3502","latitude":"36.04983806","longitude":"139.9834078","source_code":"KT54390758001","project_name":"","survey_name":"\u6c60\u6210\u6a0b\u7ba1\u8a2d\u8a08\u696d\u52d9\u59d4\u8a17","client_name":"\u56fd\u571f\u4ea4\u901a\u7701\u95a2\u6771\u5730\u65b9\u6574\u5099\u5c40\u4e0b\u9928\u6cb3\u5ddd\u4e8b\u52d9\u6240","boring_xml_url":40,"boring_view_url":1,"soilmap_view_url":null,"soiltest_xml_url":0,"soiltest_view_url":0},{"id":155252,"code":"B4KJ201801004-3501","latitude":"36.03833944","longitude":"139.9853525","source_code":"KT54390749002","project_name":"","survey_name":"\u5343\u4ee3\u7530\u5800\u6392\u6c34\u6a0b\u7ba1\u5de5\u4e8b\u6e2c\u91cf\u53ca\u3073\u571f\u8cea\u8abf\u67fb","client_name":"\u56fd\u571f\u4ea4\u901a\u7701\u95a2\u6771\u5730\u65b9\u6574\u5099\u5c40\u4e0b\u9928\u6cb3\u5ddd\u4e8b\u52d9\u6240","boring_xml_url":40,"boring_view_url":1,"soilmap_view_url":null,"soiltest_xml_url":0,"soiltest_view_url":0},{"id":155251,"code":"B4KJ201801004-3500","latitude":"36.03811722","longitude":"139.9850747","source_code":"KT54390749001","project_name":"","survey_name":"\u5343\u4ee3\u7530\u5800\u6392\u6c34\u6a0b\u7ba1\u5de5\u4e8b\u6e2c\u91cf\u53ca\u3073\u571f\u8cea\u8abf\u67fb","client_name":"\u56fd\u571f\u4ea4\u901a\u7701\u95a2\u6771\u5730\u65b9\u6574\u5099\u5c40\u4e0b\u9928\u6cb3\u5ddd\u4e8b\u52d9\u6240","boring_xml_url":40,"boring_view_url":1,"soilmap_view_url":null,"soiltest_xml_url":0,"soiltest_view_url":0},{"id":155250,"code":"B4KJ201801004-3499","latitude":"36.03295111","longitude":"139.9822975","source_code":"KT54390738001","project_name":"","survey_name":"\u9d3b\u5de3\u6a0b\u7ba1\u8a2d\u8a08\u696d\u52d9\u59d4\u8a17","client_name":"\u56fd\u571f\u4ea4\u901a\u7701\u95a2\u6771\u5730\u65b9\u6574\u5099\u5c40\u4e0b\u9928\u6cb3\u5ddd\u4e8b\u52d9\u6240","boring_xml_url":40,"boring_view_url":1,"soilmap_view_url":null,"soiltest_xml_url":0,"soiltest_view_url":0},{"id":155249,"code":"B4KJ201801004-3498","latitude":"36.02542417","longitude":"139.9890472","source_code":"KT54390729004","project_name":"","survey_name":"\u516b\u9593\u5800\u5ddd\u571f\u8cea\u8abf\u67fb","client_name":"\u56fd\u571f\u4ea4\u901a\u7701\u95a2\u6771\u5730\u65b9\u6574\u5099\u5c40\u4e0b\u9928\u6cb3\u5ddd\u4e8b\u52d9\u6240","boring_xml_url":40,"boring_view_url":1,"soilmap_view_url":null,"soiltest_xml_url":0,"soiltest_view_url":0},{"id":155248,"code":"B4KJ201801004-3497","latitude":"36.02503528","longitude":"139.9889361","source_code":"KT54390729003","project_name":"","survey_name":"\u516b\u9593\u5800\u5ddd\u571f\u8cea\u8abf\u67fb","client_name":"\u56fd\u571f\u4ea4\u901a\u7701\u95a2\u6771\u5730\u65b9\u6574\u5099\u5c40\u4e0b\u9928\u6cb3\u5ddd\u4e8b\u52d9\u6240","boring_xml_url":40,"boring_view_url":1,"soilmap_view_url":null,"soiltest_xml_url":0,"soiltest_view_url":0},{"id":155247,"code":"B4KJ201801004-3496","latitude":"36.0252575","longitude":"139.9881306","source_code":"KT54390729002","project_name":"","survey_name":"\u516b\u9593\u5800\u5ddd\u571f\u8cea\u8abf\u67fb","client_name":"\u56fd\u571f\u4ea4\u901a\u7701\u95a2\u6771\u5730\u65b9\u6574\u5099\u5c40\u4e0b\u9928\u6cb3\u5ddd\u4e8b\u52d9\u6240","boring_xml_url":40,"boring_view_url":1,"soilmap_view_url":null,"soiltest_xml_url":0,"soiltest_view_url":0},{"id":155246,"code":"B4KJ201801004-3495","latitude":"36.02561861","longitude":"139.9881306","source_code":"KT54390729001","project_name":"","survey_name":"\u516b\u9593\u5800\u5ddd\u571f\u8cea\u8abf\u67fb","client_name":"\u56fd\u571f\u4ea4\u901a\u7701\u95a2\u6771\u5730\u65b9\u6574\u5099\u5c40\u4e0b\u9928\u6cb3\u5ddd\u4e8b\u52d9\u6240","boring_xml_url":40,"boring_view_url":1,"soilmap_view_url":null,"soiltest_xml_url":0,"soiltest_view_url":0}]}}