{"header":{"xyz":{"source":[],"mosaic":false},"page":5511,"raw":{"soiltest_result":"0","bbox":"57.598333,109.544722,1.933333,163.806111","page":"5511"},"conditions":{"soiltest_result":0,"north":57.598333,"west":109.544722,"south":1.933333,"east":163.806111},"success":true,"message":""},"data":{"meta":{"total":212844,"page":5511,"pages":7095,"count":30},"values":[{"id":155245,"code":"B4KJ201801004-3494","latitude":"36.02164667","longitude":"139.9805758","source_code":"KT54390728007","project_name":"","survey_name":"\u8c4a\u5ca1\u753a\u5730\u5148\u571f\u8cea\u8abf\u67fb","client_name":"\u56fd\u571f\u4ea4\u901a\u7701\u95a2\u6771\u5730\u65b9\u6574\u5099\u5c40\u4e0b\u9928\u6cb3\u5ddd\u4e8b\u52d9\u6240","boring_xml_url":40,"boring_view_url":1,"soilmap_view_url":null,"soiltest_xml_url":0,"soiltest_view_url":0},{"id":155244,"code":"B4KJ201801004-3493","latitude":"36.02164667","longitude":"139.9806869","source_code":"KT54390728006","project_name":"","survey_name":"\u8c4a\u5ca1\u753a\u5730\u5148\u571f\u8cea\u8abf\u67fb","client_name":"\u56fd\u571f\u4ea4\u901a\u7701\u95a2\u6771\u5730\u65b9\u6574\u5099\u5c40\u4e0b\u9928\u6cb3\u5ddd\u4e8b\u52d9\u6240","boring_xml_url":40,"boring_view_url":1,"soilmap_view_url":null,"soiltest_xml_url":0,"soiltest_view_url":0},{"id":155243,"code":"B4KJ201801004-3492","latitude":"36.01581444","longitude":"139.9947972","source_code":"KT54390719002","project_name":"","survey_name":"\u5c0f\u8c9d\u5ddd\u4e2d\u6d41\u90e8(\u305d\u306e2)\u571f\u8cea\u8abf\u67fb","client_name":"\u56fd\u571f\u4ea4\u901a\u7701\u95a2\u6771\u5730\u65b9\u6574\u5099\u5c40\u4e0b\u9928\u6cb3\u5ddd\u4e8b\u52d9\u6240","boring_xml_url":40,"boring_view_url":1,"soilmap_view_url":null,"soiltest_xml_url":0,"soiltest_view_url":0},{"id":155242,"code":"B4KJ201801004-3491","latitude":"36.01317583","longitude":"139.9966028","source_code":"KT54390719001","project_name":"","survey_name":"\u5c0f\u8c9d\u5ddd\u4e2d\u6d41\u90e8(\u305d\u306e2)\u571f\u8cea\u8abf\u67fb","client_name":"\u56fd\u571f\u4ea4\u901a\u7701\u95a2\u6771\u5730\u65b9\u6574\u5099\u5c40\u4e0b\u9928\u6cb3\u5ddd\u4e8b\u52d9\u6240","boring_xml_url":40,"boring_view_url":1,"soilmap_view_url":null,"soiltest_xml_url":0,"soiltest_view_url":0},{"id":155241,"code":"B4KJ201801004-3490","latitude":"36.0178675","longitude":"139.9164703","source_code":"KT54390713002","project_name":"","survey_name":"\u4e03\u90f7\u8b77\u5cb8\u5730\u8cea\u8abf\u67fb","client_name":"\u56fd\u571f\u4ea4\u901a\u7701\u95a2\u6771\u5730\u65b9\u6574\u5099\u5c40\u5229\u6839\u5ddd\u4e0a\u6d41\u6cb3\u5ddd\u4e8b\u52d9\u6240","boring_xml_url":40,"boring_view_url":1,"soilmap_view_url":null,"soiltest_xml_url":0,"soiltest_view_url":0},{"id":155240,"code":"B4KJ201801004-3489","latitude":"36.01922861","longitude":"139.9161925","source_code":"KT54390713001","project_name":"","survey_name":"\u4e03\u90f7\u8b77\u5cb8\u5730\u8cea\u8abf\u67fb","client_name":"\u56fd\u571f\u4ea4\u901a\u7701\u95a2\u6771\u5730\u65b9\u6574\u5099\u5c40\u5229\u6839\u5ddd\u4e0a\u6d41\u6cb3\u5ddd\u4e8b\u52d9\u6240","boring_xml_url":40,"boring_view_url":1,"soilmap_view_url":null,"soiltest_xml_url":0,"soiltest_view_url":0},{"id":155239,"code":"B4KJ201801004-3488","latitude":"36.00403806","longitude":"139.9950753","source_code":"KT54390709007","project_name":"","survey_name":"\u5ddd\u53c8\u5730\u5148\u571f\u8cea\u8abf\u67fb","client_name":"\u56fd\u571f\u4ea4\u901a\u7701\u95a2\u6771\u5730\u65b9\u6574\u5099\u5c40\u4e0b\u9928\u6cb3\u5ddd\u4e8b\u52d9\u6240","boring_xml_url":40,"boring_view_url":1,"soilmap_view_url":null,"soiltest_xml_url":0,"soiltest_view_url":0},{"id":155238,"code":"B4KJ201801004-3487","latitude":"36.0113425","longitude":"139.9928531","source_code":"KT54390709006","project_name":"","survey_name":"\u5c0f\u8c9d\u5ddd\u4e2d\u6d41\u90e8(\u305d\u306e2)\u571f\u8cea\u8abf\u67fb","client_name":"\u56fd\u571f\u4ea4\u901a\u7701\u95a2\u6771\u5730\u65b9\u6574\u5099\u5c40\u4e0b\u9928\u6cb3\u5ddd\u4e8b\u52d9\u6240","boring_xml_url":40,"boring_view_url":1,"soilmap_view_url":null,"soiltest_xml_url":0,"soiltest_view_url":0},{"id":155237,"code":"B4KJ201801004-3486","latitude":"36.00567667","longitude":"139.9964642","source_code":"KT54390709005","project_name":"","survey_name":"\u5c0f\u8c9d\u5ddd\u4e2d\u6d41\u90e8(\u305d\u306e2)\u571f\u8cea\u8abf\u67fb","client_name":"\u56fd\u571f\u4ea4\u901a\u7701\u95a2\u6771\u5730\u65b9\u6574\u5099\u5c40\u4e0b\u9928\u6cb3\u5ddd\u4e8b\u52d9\u6240","boring_xml_url":40,"boring_view_url":1,"soilmap_view_url":null,"soiltest_xml_url":0,"soiltest_view_url":0},{"id":155236,"code":"B4KJ201801004-3485","latitude":"36.00578778","longitude":"139.9966031","source_code":"KT54390709004","project_name":"","survey_name":"\u5c0f\u8c9d\u5ddd\u4e2d\u6d41\u90e8(\u305d\u306e2)\u571f\u8cea\u8abf\u67fb","client_name":"\u56fd\u571f\u4ea4\u901a\u7701\u95a2\u6771\u5730\u65b9\u6574\u5099\u5c40\u4e0b\u9928\u6cb3\u5ddd\u4e8b\u52d9\u6240","boring_xml_url":40,"boring_view_url":1,"soilmap_view_url":null,"soiltest_xml_url":0,"soiltest_view_url":0},{"id":155235,"code":"B4KJ201801004-3484","latitude":"36.00548222","longitude":"139.9943253","source_code":"KT54390709003","project_name":"","survey_name":"\u5ddd\u53c8\u5730\u5148\u5730\u8cea\u8abf\u67fb","client_name":"\u56fd\u571f\u4ea4\u901a\u7701\u95a2\u6771\u5730\u65b9\u6574\u5099\u5c40\u4e0b\u9928\u6cb3\u5ddd\u4e8b\u52d9\u6240","boring_xml_url":40,"boring_view_url":1,"soilmap_view_url":null,"soiltest_xml_url":0,"soiltest_view_url":0},{"id":155234,"code":"B4KJ201801004-3483","latitude":"36.00592667","longitude":"139.9946586","source_code":"KT54390709002","project_name":"","survey_name":"\u5ddd\u53c8\u5730\u5148\u5730\u8cea\u8abf\u67fb","client_name":"\u56fd\u571f\u4ea4\u901a\u7701\u95a2\u6771\u5730\u65b9\u6574\u5099\u5c40\u4e0b\u9928\u6cb3\u5ddd\u4e8b\u52d9\u6240","boring_xml_url":40,"boring_view_url":1,"soilmap_view_url":null,"soiltest_xml_url":0,"soiltest_view_url":0},{"id":155233,"code":"B4KJ201801004-3482","latitude":"36.00614889","longitude":"139.9947975","source_code":"KT54390709001","project_name":"","survey_name":"\u68ee\u6238\u88cf\u5730\u533a\u571f\u8cea\u8abf\u67fb","client_name":"\u56fd\u571f\u4ea4\u901a\u7701\u95a2\u6771\u5730\u65b9\u6574\u5099\u5c40\u4e0b\u9928\u6cb3\u5ddd\u4e8b\u52d9\u6240","boring_xml_url":40,"boring_view_url":1,"soilmap_view_url":null,"soiltest_xml_url":0,"soiltest_view_url":0},{"id":155232,"code":"B4KJ201801004-3481","latitude":"36.00320417","longitude":"139.9739661","source_code":"KT54390708003","project_name":"","survey_name":"\u9ad8\u91ce\u5730\u5148\u571f\u8cea\u8abf\u67fb","client_name":"\u56fd\u571f\u4ea4\u901a\u7701\u95a2\u6771\u5730\u65b9\u6574\u5099\u5c40\u4e0b\u9928\u6cb3\u5ddd\u4e8b\u52d9\u6240","boring_xml_url":40,"boring_view_url":1,"soilmap_view_url":null,"soiltest_xml_url":0,"soiltest_view_url":0},{"id":155231,"code":"B4KJ201801004-3480","latitude":"36.00320417","longitude":"139.9745217","source_code":"KT54390708002","project_name":"","survey_name":"\u9ad8\u91ce\u5730\u5148\u571f\u8cea\u8abf\u67fb","client_name":"\u56fd\u571f\u4ea4\u901a\u7701\u95a2\u6771\u5730\u65b9\u6574\u5099\u5c40\u4e0b\u9928\u6cb3\u5ddd\u4e8b\u52d9\u6240","boring_xml_url":40,"boring_view_url":1,"soilmap_view_url":null,"soiltest_xml_url":0,"soiltest_view_url":0},{"id":155230,"code":"B4KJ201801004-3479","latitude":"36.00364861","longitude":"139.9746606","source_code":"KT54390708001","project_name":"","survey_name":"\u9ad8\u91ce\u5730\u5148\u571f\u8cea\u8abf\u67fb","client_name":"\u56fd\u571f\u4ea4\u901a\u7701\u95a2\u6771\u5730\u65b9\u6574\u5099\u5c40\u4e0b\u9928\u6cb3\u5ddd\u4e8b\u52d9\u6240","boring_xml_url":40,"boring_view_url":1,"soilmap_view_url":null,"soiltest_xml_url":0,"soiltest_view_url":0},{"id":155229,"code":"B4KJ201801004-3478","latitude":"36.00953528","longitude":"139.9161931","source_code":"KT54390703001","project_name":"","survey_name":"\u7ba1\u751f\u6cbc\u5730\u8cea\u8abf\u67fb","client_name":"\u56fd\u571f\u4ea4\u901a\u7701\u95a2\u6771\u5730\u65b9\u6574\u5099\u5c40\u5229\u6839\u5ddd\u4e0a\u6d41\u6cb3\u5ddd\u4e8b\u52d9\u6240","boring_xml_url":40,"boring_view_url":1,"soilmap_view_url":null,"soiltest_xml_url":0,"soiltest_view_url":0},{"id":155228,"code":"B4KJ201801004-3477","latitude":"36.07844028","longitude":"139.7798683","source_code":"KT54390692007","project_name":"","survey_name":"\u5e02\u5ddd\u5357\u5730\u533a\u4ed64\u7b87\u6240\u571f\u8cea\u8abf\u67fb(\u4e2d\u5cf6)","client_name":"\u56fd\u571f\u4ea4\u901a\u7701\u95a2\u6771\u5730\u65b9\u6574\u5099\u5c40\u6c5f\u6238\u5ddd\u6cb3\u5ddd\u4e8b\u52d9\u6240","boring_xml_url":40,"boring_view_url":1,"soilmap_view_url":null,"soiltest_xml_url":0,"soiltest_view_url":0},{"id":155227,"code":"B4KJ201801004-3476","latitude":"36.08105111","longitude":"139.7828403","source_code":"KT54390692003","project_name":"","survey_name":"\u56fd\u5e9c\u53f0\u5730\u5148\u4ed6\u5730\u8cea\u8abf\u67fb","client_name":"\u56fd\u571f\u4ea4\u901a\u7701\u95a2\u6771\u5730\u65b9\u6574\u5099\u5c40\u6c5f\u6238\u5ddd\u6cb3\u5ddd\u4e8b\u52d9\u6240","boring_xml_url":40,"boring_view_url":1,"soilmap_view_url":null,"soiltest_xml_url":0,"soiltest_view_url":0},{"id":155226,"code":"B4KJ201801004-3475","latitude":"36.08094","longitude":"139.7820903","source_code":"KT54390692002","project_name":"","survey_name":"\u56fd\u5e9c\u53f0\u5730\u5148\u4ed6\u5730\u8cea\u8abf\u67fb","client_name":"\u56fd\u571f\u4ea4\u901a\u7701\u95a2\u6771\u5730\u65b9\u6574\u5099\u5c40\u6c5f\u6238\u5ddd\u6cb3\u5ddd\u4e8b\u52d9\u6240","boring_xml_url":40,"boring_view_url":1,"soilmap_view_url":null,"soiltest_xml_url":0,"soiltest_view_url":0},{"id":155225,"code":"B4KJ201801004-3474","latitude":"36.08610611","longitude":"139.7775906","source_code":"KT54390692001","project_name":"","survey_name":"\u77e2\u5207\u5730\u5148\u4ed65\u5730\u5148\u571f\u8cea\u8abf\u67fb","client_name":"\u56fd\u571f\u4ea4\u901a\u7701\u95a2\u6771\u5730\u65b9\u6574\u5099\u5c40\u6c5f\u6238\u5ddd\u6cb3\u5ddd\u4e8b\u52d9\u6240","boring_xml_url":40,"boring_view_url":1,"soilmap_view_url":null,"soiltest_xml_url":0,"soiltest_view_url":0},{"id":155224,"code":"B4KJ201801004-3473","latitude":"36.08382833","longitude":"139.7675914","source_code":"KT54390691004","project_name":"","survey_name":"\u65b04\u53f7\u56fd\u9053\u5e78\u4e3b\uff5e\u5c0f\u798f\u7530\u5730\u8cea\u8abf\u67fb","client_name":"\u56fd\u571f\u4ea4\u901a\u7701\u95a2\u6771\u5730\u65b9\u6574\u5099\u5c40\u5b87\u90fd\u5bae\u56fd\u9053\u4e8b\u52d9\u6240","boring_xml_url":40,"boring_view_url":1,"soilmap_view_url":null,"soiltest_xml_url":0,"soiltest_view_url":0},{"id":155223,"code":"B4KJ201801004-3472","latitude":"36.08610583","longitude":"139.7663414","source_code":"KT54390691003","project_name":"","survey_name":"\u65b04\u53f7\u56fd\u9053\u5e78\u4e3b\uff5e\u5c0f\u798f\u7530\u5730\u8cea\u8abf\u67fb","client_name":"\u56fd\u571f\u4ea4\u901a\u7701\u95a2\u6771\u5730\u65b9\u6574\u5099\u5c40\u5b87\u90fd\u5bae\u56fd\u9053\u4e8b\u52d9\u6240","boring_xml_url":40,"boring_view_url":1,"soilmap_view_url":null,"soiltest_xml_url":0,"soiltest_view_url":0},{"id":155222,"code":"B4KJ201801004-3471","latitude":"36.08224528","longitude":"139.7684247","source_code":"KT54390691002","project_name":"","survey_name":"\u65b04\u53f7\u56fd\u9053\u5e78\u4e3b\uff5e\u5c0f\u798f\u7530\u5730\u8cea\u8abf\u67fb","client_name":"\u56fd\u571f\u4ea4\u901a\u7701\u95a2\u6771\u5730\u65b9\u6574\u5099\u5c40\u5b87\u90fd\u5bae\u56fd\u9053\u4e8b\u52d9\u6240","boring_xml_url":40,"boring_view_url":1,"soilmap_view_url":null,"soiltest_xml_url":0,"soiltest_view_url":0},{"id":155221,"code":"B4KJ201801004-3470","latitude":"36.08107861","longitude":"139.7689803","source_code":"KT54390691001","project_name":"","survey_name":"\u65b04\u53f7\u56fd\u9053\u5e78\u4e3b\uff5e\u5c0f\u798f\u7530\u5730\u8cea\u8abf\u67fb","client_name":"\u56fd\u571f\u4ea4\u901a\u7701\u95a2\u6771\u5730\u65b9\u6574\u5099\u5c40\u5b87\u90fd\u5bae\u56fd\u9053\u4e8b\u52d9\u6240","boring_xml_url":40,"boring_view_url":1,"soilmap_view_url":null,"soiltest_xml_url":0,"soiltest_view_url":0},{"id":155220,"code":"B4KJ201801004-3469","latitude":"36.07916194","longitude":"139.756065","source_code":"KT54390690028","project_name":"","survey_name":"\u570f\u592e\u9053\u5730\u8cea\u8abf\u67fb4\u5de5\u533a(\u305d\u306e8)","client_name":"\u56fd\u571f\u4ea4\u901a\u7701\u95a2\u6771\u5730\u65b9\u6574\u5099\u5c40\u5317\u9996\u90fd\u56fd\u9053\u4e8b\u52d9\u6240","boring_xml_url":40,"boring_view_url":1,"soilmap_view_url":null,"soiltest_xml_url":0,"soiltest_view_url":0},{"id":155219,"code":"B4KJ201801004-3468","latitude":"36.08135611","longitude":"139.7557869","source_code":"KT54390690027","project_name":"","survey_name":"\u570f\u592e\u9053\u5730\u8cea\u8abf\u67fb4\u5de5\u533a(\u305d\u306e8)","client_name":"\u56fd\u571f\u4ea4\u901a\u7701\u95a2\u6771\u5730\u65b9\u6574\u5099\u5c40\u5317\u9996\u90fd\u56fd\u9053\u4e8b\u52d9\u6240","boring_xml_url":40,"boring_view_url":1,"soilmap_view_url":null,"soiltest_xml_url":0,"soiltest_view_url":0},{"id":155218,"code":"B4KJ201801004-3467","latitude":"36.08066167","longitude":"139.7554817","source_code":"KT54390690026","project_name":"","survey_name":"\u570f\u592e\u9053\u5730\u8cea\u8abf\u67fb4\u5de5\u533a(\u305d\u306e8)","client_name":"\u56fd\u571f\u4ea4\u901a\u7701\u95a2\u6771\u5730\u65b9\u6574\u5099\u5c40\u5317\u9996\u90fd\u56fd\u9053\u4e8b\u52d9\u6240","boring_xml_url":40,"boring_view_url":1,"soilmap_view_url":null,"soiltest_xml_url":0,"soiltest_view_url":0},{"id":155217,"code":"B4KJ201801004-3466","latitude":"36.08002278","longitude":"139.7552039","source_code":"KT54390690025","project_name":"","survey_name":"\u570f\u592e\u9053\u5730\u8cea\u8abf\u67fb4\u5de5\u533a(\u305d\u306e8)","client_name":"\u56fd\u571f\u4ea4\u901a\u7701\u95a2\u6771\u5730\u65b9\u6574\u5099\u5c40\u5317\u9996\u90fd\u56fd\u9053\u4e8b\u52d9\u6240","boring_xml_url":40,"boring_view_url":1,"soilmap_view_url":null,"soiltest_xml_url":0,"soiltest_view_url":0},{"id":155216,"code":"B4KJ201801004-3465","latitude":"36.07918972","longitude":"139.754815","source_code":"KT54390690024","project_name":"","survey_name":"\u570f\u592e\u9053\u5730\u8cea\u8abf\u67fb4\u5de5\u533a(\u305d\u306e8)","client_name":"\u56fd\u571f\u4ea4\u901a\u7701\u95a2\u6771\u5730\u65b9\u6574\u5099\u5c40\u5317\u9996\u90fd\u56fd\u9053\u4e8b\u52d9\u6240","boring_xml_url":40,"boring_view_url":1,"soilmap_view_url":null,"soiltest_xml_url":0,"soiltest_view_url":0}]}}