{"header":{"xyz":{"source":[],"mosaic":false},"page":5514,"raw":{"soiltest_result":"0","bbox":"57.598333,109.544722,1.933333,163.806111","page":"5514"},"conditions":{"soiltest_result":0,"north":57.598333,"west":109.544722,"south":1.933333,"east":163.806111},"success":true,"message":""},"data":{"meta":{"total":212844,"page":5514,"pages":7095,"count":30},"values":[{"id":155155,"code":"B4KJ201801004-3404","latitude":"36.02605972","longitude":"139.8663078","source_code":"KT54390629017","project_name":"","survey_name":"\u9d60\u6238\u6a0b\u7ba1\u5730\u8cea\u8abf\u67fb","client_name":"\u56fd\u571f\u4ea4\u901a\u7701\u95a2\u6771\u5730\u65b9\u6574\u5099\u5c40\u5229\u6839\u5ddd\u4e0a\u6d41\u6cb3\u5ddd\u4e8b\u52d9\u6240","boring_xml_url":40,"boring_view_url":1,"soilmap_view_url":null,"soiltest_xml_url":0,"soiltest_view_url":0},{"id":155154,"code":"B4KJ201801004-3403","latitude":"36.02561528","longitude":"139.8675019","source_code":"KT54390629016","project_name":"","survey_name":"\u9d60\u6238\u6a0b\u7ba1\u5730\u8cea\u8abf\u67fb","client_name":"\u56fd\u571f\u4ea4\u901a\u7701\u95a2\u6771\u5730\u65b9\u6574\u5099\u5c40\u5229\u6839\u5ddd\u4e0a\u6d41\u6cb3\u5ddd\u4e8b\u52d9\u6240","boring_xml_url":40,"boring_view_url":1,"soilmap_view_url":null,"soiltest_xml_url":0,"soiltest_view_url":0},{"id":155153,"code":"B4KJ201801004-3402","latitude":"36.02547639","longitude":"139.8673631","source_code":"KT54390629015","project_name":"","survey_name":"\u9d60\u6238\u6a0b\u7ba1\u5730\u8cea\u8abf\u67fb","client_name":"\u56fd\u571f\u4ea4\u901a\u7701\u95a2\u6771\u5730\u65b9\u6574\u5099\u5c40\u5229\u6839\u5ddd\u4e0a\u6d41\u6cb3\u5ddd\u4e8b\u52d9\u6240","boring_xml_url":40,"boring_view_url":1,"soilmap_view_url":null,"soiltest_xml_url":0,"soiltest_view_url":0},{"id":155152,"code":"B4KJ201801004-3401","latitude":"36.02511528","longitude":"139.8673631","source_code":"KT54390629014","project_name":"","survey_name":"\u9d60\u6238\u6a0b\u7ba1\u5730\u8cea\u8abf\u67fb","client_name":"\u56fd\u571f\u4ea4\u901a\u7701\u95a2\u6771\u5730\u65b9\u6574\u5099\u5c40\u5229\u6839\u5ddd\u4e0a\u6d41\u6cb3\u5ddd\u4e8b\u52d9\u6240","boring_xml_url":40,"boring_view_url":1,"soilmap_view_url":null,"soiltest_xml_url":0,"soiltest_view_url":0},{"id":155151,"code":"B4KJ201801004-3400","latitude":"36.02561528","longitude":"139.8663633","source_code":"KT54390629013","project_name":"","survey_name":"\u9d60\u6238\u6a0b\u7ba1\u5730\u8cea\u8abf\u67fb","client_name":"\u56fd\u571f\u4ea4\u901a\u7701\u95a2\u6771\u5730\u65b9\u6574\u5099\u5c40\u5229\u6839\u5ddd\u4e0a\u6d41\u6cb3\u5ddd\u4e8b\u52d9\u6240","boring_xml_url":40,"boring_view_url":1,"soilmap_view_url":null,"soiltest_xml_url":0,"soiltest_view_url":0},{"id":155150,"code":"B4KJ201801004-3399","latitude":"36.02605972","longitude":"139.8659189","source_code":"KT54390629012","project_name":"","survey_name":"\u9d60\u6238\u6a0b\u7ba1\u5730\u8cea\u8abf\u67fb","client_name":"\u56fd\u571f\u4ea4\u901a\u7701\u95a2\u6771\u5730\u65b9\u6574\u5099\u5c40\u5229\u6839\u5ddd\u4e0a\u6d41\u6cb3\u5ddd\u4e8b\u52d9\u6240","boring_xml_url":40,"boring_view_url":1,"soilmap_view_url":null,"soiltest_xml_url":0,"soiltest_view_url":0},{"id":155149,"code":"B4KJ201801004-3398","latitude":"36.02381","longitude":"139.8651411","source_code":"KT54390629011","project_name":"","survey_name":"\u9d60\u6238\u6a0b\u7ba1\u5730\u8cea\u8abf\u67fb","client_name":"\u56fd\u571f\u4ea4\u901a\u7701\u95a2\u6771\u5730\u65b9\u6574\u5099\u5c40\u5229\u6839\u5ddd\u4e0a\u6d41\u6cb3\u5ddd\u4e8b\u52d9\u6240","boring_xml_url":40,"boring_view_url":1,"soilmap_view_url":null,"soiltest_xml_url":0,"soiltest_view_url":0},{"id":155148,"code":"B4KJ201801004-3397","latitude":"36.02414333","longitude":"139.8647244","source_code":"KT54390629010","project_name":"","survey_name":"\u9d60\u6238\u6a0b\u7ba1\u5730\u8cea\u8abf\u67fb","client_name":"\u56fd\u571f\u4ea4\u901a\u7701\u95a2\u6771\u5730\u65b9\u6574\u5099\u5c40\u5229\u6839\u5ddd\u4e0a\u6d41\u6cb3\u5ddd\u4e8b\u52d9\u6240","boring_xml_url":40,"boring_view_url":1,"soilmap_view_url":null,"soiltest_xml_url":0,"soiltest_view_url":0},{"id":155147,"code":"B4KJ201801004-3396","latitude":"36.0215325","longitude":"139.8684467","source_code":"KT54390629009","project_name":"","survey_name":"\u9577\u8c37\u5730\u5148\u5730\u8cea\u8abf\u67fb","client_name":"\u56fd\u571f\u4ea4\u901a\u7701\u95a2\u6771\u5730\u65b9\u6574\u5099\u5c40\u5229\u6839\u5ddd\u4e0a\u6d41\u6cb3\u5ddd\u4e8b\u52d9\u6240","boring_xml_url":40,"boring_view_url":1,"soilmap_view_url":null,"soiltest_xml_url":0,"soiltest_view_url":0},{"id":155146,"code":"B4KJ201801004-3395","latitude":"36.02144917","longitude":"139.8687522","source_code":"KT54390629008","project_name":"","survey_name":"\u9577\u8c37\u5730\u5148\u5730\u8cea\u8abf\u67fb","client_name":"\u56fd\u571f\u4ea4\u901a\u7701\u95a2\u6771\u5730\u65b9\u6574\u5099\u5c40\u5229\u6839\u5ddd\u4e0a\u6d41\u6cb3\u5ddd\u4e8b\u52d9\u6240","boring_xml_url":40,"boring_view_url":1,"soilmap_view_url":null,"soiltest_xml_url":0,"soiltest_view_url":0},{"id":155145,"code":"B4KJ201801004-3394","latitude":"36.02136583","longitude":"139.8691408","source_code":"KT54390629007","project_name":"","survey_name":"\u9577\u8c37\u5730\u5148\u5730\u8cea\u8abf\u67fb","client_name":"\u56fd\u571f\u4ea4\u901a\u7701\u95a2\u6771\u5730\u65b9\u6574\u5099\u5c40\u5229\u6839\u5ddd\u4e0a\u6d41\u6cb3\u5ddd\u4e8b\u52d9\u6240","boring_xml_url":40,"boring_view_url":1,"soilmap_view_url":null,"soiltest_xml_url":0,"soiltest_view_url":0},{"id":155144,"code":"B4KJ201801004-3393","latitude":"36.02158806","longitude":"139.8691964","source_code":"KT54390629006","project_name":"","survey_name":"\u6d45\u9593\u6a0b\u7ba1\u5730\u8cea\u8abf\u67fb","client_name":"\u56fd\u571f\u4ea4\u901a\u7701\u95a2\u6771\u5730\u65b9\u6574\u5099\u5c40\u5229\u6839\u5ddd\u4e0a\u6d41\u6cb3\u5ddd\u4e8b\u52d9\u6240","boring_xml_url":40,"boring_view_url":1,"soilmap_view_url":null,"soiltest_xml_url":0,"soiltest_view_url":0},{"id":155143,"code":"B4KJ201801004-3392","latitude":"36.02144917","longitude":"139.8689742","source_code":"KT54390629005","project_name":"","survey_name":"\u6d45\u9593\u6a0b\u7ba1\u5730\u8cea\u8abf\u67fb","client_name":"\u56fd\u571f\u4ea4\u901a\u7701\u95a2\u6771\u5730\u65b9\u6574\u5099\u5c40\u5229\u6839\u5ddd\u4e0a\u6d41\u6cb3\u5ddd\u4e8b\u52d9\u6240","boring_xml_url":40,"boring_view_url":1,"soilmap_view_url":null,"soiltest_xml_url":0,"soiltest_view_url":0},{"id":155142,"code":"B4KJ201801004-3391","latitude":"36.02139361","longitude":"139.86878","source_code":"KT54390629004","project_name":"","survey_name":"\u6d45\u9593\u6a0b\u7ba1\u5730\u8cea\u8abf\u67fb","client_name":"\u56fd\u571f\u4ea4\u901a\u7701\u95a2\u6771\u5730\u65b9\u6574\u5099\u5c40\u5229\u6839\u5ddd\u4e0a\u6d41\u6cb3\u5ddd\u4e8b\u52d9\u6240","boring_xml_url":40,"boring_view_url":1,"soilmap_view_url":null,"soiltest_xml_url":0,"soiltest_view_url":0},{"id":155141,"code":"B4KJ201801004-3390","latitude":"36.02264333","longitude":"139.861475","source_code":"KT54390629003","project_name":"","survey_name":"\u6728\u9593\u30f6\u702c\u5730\u5148\u5730\u8cea\u8abf\u67fb","client_name":"\u56fd\u571f\u4ea4\u901a\u7701\u95a2\u6771\u5730\u65b9\u6574\u5099\u5c40\u5229\u6839\u5ddd\u4e0a\u6d41\u6cb3\u5ddd\u4e8b\u52d9\u6240","boring_xml_url":40,"boring_view_url":1,"soilmap_view_url":null,"soiltest_xml_url":0,"soiltest_view_url":0},{"id":155140,"code":"B4KJ201801004-3389","latitude":"36.02139361","longitude":"139.8628636","source_code":"KT54390629002","project_name":"","survey_name":"\u6728\u9593\u30f6\u702c\u5730\u5148\u5730\u8cea\u8abf\u67fb","client_name":"\u56fd\u571f\u4ea4\u901a\u7701\u95a2\u6771\u5730\u65b9\u6574\u5099\u5c40\u5229\u6839\u5ddd\u4e0a\u6d41\u6cb3\u5ddd\u4e8b\u52d9\u6240","boring_xml_url":40,"boring_view_url":1,"soilmap_view_url":null,"soiltest_xml_url":0,"soiltest_view_url":0},{"id":155139,"code":"B4KJ201801004-3388","latitude":"36.02019917","longitude":"139.8639192","source_code":"KT54390629001","project_name":"","survey_name":"\u6728\u9593\u30f6\u702c\u5730\u5148\u5730\u8cea\u8abf\u67fb","client_name":"\u56fd\u571f\u4ea4\u901a\u7701\u95a2\u6771\u5730\u65b9\u6574\u5099\u5c40\u5229\u6839\u5ddd\u4e0a\u6d41\u6cb3\u5ddd\u4e8b\u52d9\u6240","boring_xml_url":40,"boring_view_url":1,"soilmap_view_url":null,"soiltest_xml_url":0,"soiltest_view_url":0},{"id":155138,"code":"B4KJ201801004-3387","latitude":"36.02461528","longitude":"139.8578639","source_code":"KT54390628001","project_name":"","survey_name":"\u6728\u9593\u30b1\u702c\u8b77\u5cb8\u5730\u8cea\u30fb\u571f\u5730\u8abf\u67fb\u53ca\u3073\u8a2d\u8a08\u696d\u52d9\u59d4\u8a17","client_name":"\u56fd\u571f\u4ea4\u901a\u7701\u95a2\u6771\u5730\u65b9\u6574\u5099\u5c40\u5229\u6839\u5ddd\u4e0a\u6d41\u6cb3\u5ddd\u4e8b\u52d9\u6240","boring_xml_url":40,"boring_view_url":1,"soilmap_view_url":null,"soiltest_xml_url":0,"soiltest_view_url":0},{"id":155137,"code":"B4KJ201801004-3386","latitude":"36.02225306","longitude":"139.8117569","source_code":"KT54390625008","project_name":"","survey_name":"\u4e2d\u5ddd\u6d41\u57df\u5730\u8cea(\u305d\u306e26)\u8abf\u67fb","client_name":"\u56fd\u571f\u4ea4\u901a\u7701\u95a2\u6771\u5730\u65b9\u6574\u5099\u5c40\u6c5f\u6238\u5ddd\u6cb3\u5ddd\u4e8b\u52d9\u6240","boring_xml_url":40,"boring_view_url":1,"soilmap_view_url":null,"soiltest_xml_url":0,"soiltest_view_url":0},{"id":155136,"code":"B4KJ201801004-3385","latitude":"36.02230861","longitude":"139.8121736","source_code":"KT54390625007","project_name":"","survey_name":"\u4e2d\u5ddd\u6d41\u57df\u5730\u8cea(\u305d\u306e26)\u8abf\u67fb","client_name":"\u56fd\u571f\u4ea4\u901a\u7701\u95a2\u6771\u5730\u65b9\u6574\u5099\u5c40\u6c5f\u6238\u5ddd\u6cb3\u5ddd\u4e8b\u52d9\u6240","boring_xml_url":40,"boring_view_url":1,"soilmap_view_url":null,"soiltest_xml_url":0,"soiltest_view_url":0},{"id":155135,"code":"B4KJ201801004-3384","latitude":"36.02708583","longitude":"139.8123122","source_code":"KT54390625006","project_name":"","survey_name":"\u4e0a\u5409\u59bb\u5730\u5148\u571f\u8cea\u8abf\u67fb","client_name":"\u56fd\u571f\u4ea4\u901a\u7701\u95a2\u6771\u5730\u65b9\u6574\u5099\u5c40\u6c5f\u6238\u5ddd\u6cb3\u5ddd\u4e8b\u52d9\u6240","boring_xml_url":40,"boring_view_url":1,"soilmap_view_url":null,"soiltest_xml_url":0,"soiltest_view_url":0},{"id":155134,"code":"B4KJ201801004-3383","latitude":"36.02375306","longitude":"139.8120347","source_code":"KT54390625005","project_name":"","survey_name":"\u4e0a\u5409\u59bb\u5730\u5148\u571f\u8cea\u8abf\u67fb","client_name":"\u56fd\u571f\u4ea4\u901a\u7701\u95a2\u6771\u5730\u65b9\u6574\u5099\u5c40\u6c5f\u6238\u5ddd\u6cb3\u5ddd\u4e8b\u52d9\u6240","boring_xml_url":40,"boring_view_url":1,"soilmap_view_url":null,"soiltest_xml_url":0,"soiltest_view_url":0},{"id":155133,"code":"B4KJ201801004-3382","latitude":"36.02730806","longitude":"139.8149231","source_code":"KT54390625004","project_name":"","survey_name":"\u5409\u59bb.\u6771\u91d1\u91ce\u4e95.\u4eca\u4e0a\u571f\u8cea\u8abf\u67fb","client_name":"\u56fd\u571f\u4ea4\u901a\u7701\u95a2\u6771\u5730\u65b9\u6574\u5099\u5c40\u6c5f\u6238\u5ddd\u6cb3\u5ddd\u4e8b\u52d9\u6240","boring_xml_url":40,"boring_view_url":1,"soilmap_view_url":null,"soiltest_xml_url":0,"soiltest_view_url":0},{"id":155132,"code":"B4KJ201801004-3381","latitude":"36.02636389","longitude":"139.8143122","source_code":"KT54390625003","project_name":"","survey_name":"\u5409\u59bb.\u6771\u91d1\u91ce\u4e95.\u4eca\u4e0a\u571f\u8cea\u8abf\u67fb","client_name":"\u56fd\u571f\u4ea4\u901a\u7701\u95a2\u6771\u5730\u65b9\u6574\u5099\u5c40\u6c5f\u6238\u5ddd\u6cb3\u5ddd\u4e8b\u52d9\u6240","boring_xml_url":40,"boring_view_url":1,"soilmap_view_url":null,"soiltest_xml_url":0,"soiltest_view_url":0},{"id":155131,"code":"B4KJ201801004-3380","latitude":"36.02491944","longitude":"139.8132289","source_code":"KT54390625002","project_name":"","survey_name":"\u5409\u59bb.\u6771\u91d1\u91ce\u4e95.\u4eca\u4e0a\u571f\u8cea\u8abf\u67fb","client_name":"\u56fd\u571f\u4ea4\u901a\u7701\u95a2\u6771\u5730\u65b9\u6574\u5099\u5c40\u6c5f\u6238\u5ddd\u6cb3\u5ddd\u4e8b\u52d9\u6240","boring_xml_url":40,"boring_view_url":1,"soilmap_view_url":null,"soiltest_xml_url":0,"soiltest_view_url":0},{"id":155130,"code":"B4KJ201801004-3379","latitude":"36.02300306","longitude":"139.8128678","source_code":"KT54390625001","project_name":"","survey_name":"\u5409\u59bb.\u6771\u91d1\u91ce\u4e95.\u4eca\u4e0a\u571f\u8cea\u8abf\u67fb","client_name":"\u56fd\u571f\u4ea4\u901a\u7701\u95a2\u6771\u5730\u65b9\u6574\u5099\u5c40\u6c5f\u6238\u5ddd\u6cb3\u5ddd\u4e8b\u52d9\u6240","boring_xml_url":40,"boring_view_url":1,"soilmap_view_url":null,"soiltest_xml_url":0,"soiltest_view_url":0},{"id":155129,"code":"B4KJ201801004-3378","latitude":"36.02675194","longitude":"139.7863422","source_code":"KT54390623001","project_name":"","survey_name":"\u7b2c\u4e8c4\u53f7\u305d\u306e2\u5730\u8cea\u8abf\u67fb","client_name":"\u56fd\u571f\u4ea4\u901a\u7701\u95a2\u6771\u5730\u65b9\u6574\u5099\u5c40\u5317\u9996\u90fd\u56fd\u9053\u4e8b\u52d9\u6240","boring_xml_url":40,"boring_view_url":1,"soilmap_view_url":null,"soiltest_xml_url":0,"soiltest_view_url":0},{"id":155128,"code":"B4KJ201801004-3377","latitude":"36.01883833","longitude":"139.8653636","source_code":"KT54390619001","project_name":"","survey_name":"\u6728\u9593\u30f6\u702c\u5730\u5148\u5730\u8cea\u8abf\u67fb","client_name":"\u56fd\u571f\u4ea4\u901a\u7701\u95a2\u6771\u5730\u65b9\u6574\u5099\u5c40\u5229\u6839\u5ddd\u4e0a\u6d41\u6cb3\u5ddd\u4e8b\u52d9\u6240","boring_xml_url":40,"boring_view_url":1,"soilmap_view_url":null,"soiltest_xml_url":0,"soiltest_view_url":0},{"id":155127,"code":"B4KJ201801004-3376","latitude":"36.0176425","longitude":"139.8132847","source_code":"KT54390615006","project_name":"","survey_name":"\u4e2d\u5ddd\u6d41\u57df\u5730\u8cea(\u305d\u306e26)\u8abf\u67fb","client_name":"\u56fd\u571f\u4ea4\u901a\u7701\u95a2\u6771\u5730\u65b9\u6574\u5099\u5c40\u6c5f\u6238\u5ddd\u6cb3\u5ddd\u4e8b\u52d9\u6240","boring_xml_url":40,"boring_view_url":1,"soilmap_view_url":null,"soiltest_xml_url":0,"soiltest_view_url":0},{"id":155126,"code":"B4KJ201801004-3375","latitude":"36.01255972","longitude":"139.8141739","source_code":"KT54390615005","project_name":"","survey_name":"\u4e2d\u5ddd\u6d41\u57df\u5730\u8cea(\u305d\u306e26)\u8abf\u67fb","client_name":"\u56fd\u571f\u4ea4\u901a\u7701\u95a2\u6771\u5730\u65b9\u6574\u5099\u5c40\u6c5f\u6238\u5ddd\u6cb3\u5ddd\u4e8b\u52d9\u6240","boring_xml_url":40,"boring_view_url":1,"soilmap_view_url":null,"soiltest_xml_url":0,"soiltest_view_url":0}]}}