{"header":{"xyz":{"source":[],"mosaic":false},"page":5537,"raw":{"soiltest_result":"0","bbox":"57.598333,109.544722,1.933333,163.806111","page":"5537"},"conditions":{"soiltest_result":0,"north":57.598333,"west":109.544722,"south":1.933333,"east":163.806111},"success":true,"message":""},"data":{"meta":{"total":212844,"page":5537,"pages":7095,"count":30},"values":[{"id":154465,"code":"B4KJ201801004-2714","latitude":"36.54977444","longitude":"138.6964147","source_code":"KT54386555006","project_name":"","survey_name":"H10\u5ddd\u539f\u7551\u5730\u533a\u5730\u8cea\u8abf\u67fb(\u305d\u306e1)","client_name":"\u56fd\u571f\u4ea4\u901a\u7701\u95a2\u6771\u5730\u65b9\u6574\u5099\u5c40\u516b\u30c3\u5834\u30c0\u30e0\u5de5\u4e8b\u4e8b\u52d9\u6240","boring_xml_url":40,"boring_view_url":1,"soilmap_view_url":null,"soiltest_xml_url":0,"soiltest_view_url":0},{"id":154464,"code":"B4KJ201801004-2713","latitude":"36.55224639","longitude":"138.69622","source_code":"KT54386555003","project_name":"","survey_name":"H8\u5ddd\u539f\u7551\u5730\u533a\u5730\u8cea\u8abf\u67fb(\u305d\u306e2)","client_name":"\u56fd\u571f\u4ea4\u901a\u7701\u95a2\u6771\u5730\u65b9\u6574\u5099\u5c40\u516b\u30c3\u5834\u30c0\u30e0\u5de5\u4e8b\u4e8b\u52d9\u6240","boring_xml_url":40,"boring_view_url":1,"soilmap_view_url":null,"soiltest_xml_url":0,"soiltest_view_url":0},{"id":154463,"code":"B4KJ201801004-2712","latitude":"36.55246833","longitude":"138.6956647","source_code":"KT54386555002","project_name":"","survey_name":"H8\u5ddd\u539f\u7551\u5730\u533a\u5730\u8cea\u8abf\u67fb(\u305d\u306e2)","client_name":"\u56fd\u571f\u4ea4\u901a\u7701\u95a2\u6771\u5730\u65b9\u6574\u5099\u5c40\u516b\u30c3\u5834\u30c0\u30e0\u5de5\u4e8b\u4e8b\u52d9\u6240","boring_xml_url":40,"boring_view_url":1,"soilmap_view_url":null,"soiltest_xml_url":0,"soiltest_view_url":0},{"id":154462,"code":"B4KJ201801004-2711","latitude":"36.54977417","longitude":"138.6893319","source_code":"KT54386555001","project_name":"","survey_name":"H8\u6797\u5730\u533a\u5730\u8cea\u8abf\u67fb(\u305d\u306e1)","client_name":"\u56fd\u571f\u4ea4\u901a\u7701\u95a2\u6771\u5730\u65b9\u6574\u5099\u5c40\u516b\u30c3\u5834\u30c0\u30e0\u5de5\u4e8b\u4e8b\u52d9\u6240","boring_xml_url":40,"boring_view_url":1,"soilmap_view_url":null,"soiltest_xml_url":0,"soiltest_view_url":0},{"id":154461,"code":"B4KJ201801004-2710","latitude":"36.54519111","longitude":"138.6833603","source_code":"KT54386554005","project_name":"","survey_name":"H11\u6797\u5730\u533a\u5730\u8cea\u8abf\u67fb(\u305d\u306e2)","client_name":"\u56fd\u571f\u4ea4\u901a\u7701\u95a2\u6771\u5730\u65b9\u6574\u5099\u5c40\u516b\u30c3\u5834\u30c0\u30e0\u5de5\u4e8b\u4e8b\u52d9\u6240","boring_xml_url":40,"boring_view_url":1,"soilmap_view_url":null,"soiltest_xml_url":0,"soiltest_view_url":0},{"id":154460,"code":"B4KJ201801004-2709","latitude":"36.5456075","longitude":"138.6740556","source_code":"KT54386554001","project_name":"","survey_name":"H8\u6797\u5730\u533a\u5730\u8cea\u8abf\u67fb(\u305d\u306e1)","client_name":"\u56fd\u571f\u4ea4\u901a\u7701\u95a2\u6771\u5730\u65b9\u6574\u5099\u5c40\u516b\u30c3\u5834\u30c0\u30e0\u5de5\u4e8b\u4e8b\u52d9\u6240","boring_xml_url":40,"boring_view_url":1,"soilmap_view_url":null,"soiltest_xml_url":0,"soiltest_view_url":0},{"id":154459,"code":"B4KJ201801004-2708","latitude":"36.54799611","longitude":"138.667445","source_code":"KT54386553018","project_name":"","survey_name":"H10\u6797\u5730\u533a\u5730\u8cea\u8abf\u67fb(\u305d\u306e3)","client_name":"\u56fd\u571f\u4ea4\u901a\u7701\u95a2\u6771\u5730\u65b9\u6574\u5099\u5c40\u516b\u30c3\u5834\u30c0\u30e0\u5de5\u4e8b\u4e8b\u52d9\u6240","boring_xml_url":40,"boring_view_url":1,"soilmap_view_url":null,"soiltest_xml_url":0,"soiltest_view_url":0},{"id":154458,"code":"B4KJ201801004-2707","latitude":"36.54746833","longitude":"138.6680561","source_code":"KT54386553017","project_name":"","survey_name":"H10\u6797\u5730\u533a\u5730\u8cea\u8abf\u67fb(\u305d\u306e3)","client_name":"\u56fd\u571f\u4ea4\u901a\u7701\u95a2\u6771\u5730\u65b9\u6574\u5099\u5c40\u516b\u30c3\u5834\u30c0\u30e0\u5de5\u4e8b\u4e8b\u52d9\u6240","boring_xml_url":40,"boring_view_url":1,"soilmap_view_url":null,"soiltest_xml_url":0,"soiltest_view_url":0},{"id":154457,"code":"B4KJ201801004-2706","latitude":"36.54874583","longitude":"138.6671672","source_code":"KT54386553016","project_name":"","survey_name":"H10\u6797\u5730\u533a\u5730\u8cea\u8abf\u67fb(\u305d\u306e3)","client_name":"\u56fd\u571f\u4ea4\u901a\u7701\u95a2\u6771\u5730\u65b9\u6574\u5099\u5c40\u516b\u30c3\u5834\u30c0\u30e0\u5de5\u4e8b\u4e8b\u52d9\u6240","boring_xml_url":40,"boring_view_url":1,"soilmap_view_url":null,"soiltest_xml_url":0,"soiltest_view_url":0},{"id":154456,"code":"B4KJ201801004-2705","latitude":"36.546635","longitude":"138.6688617","source_code":"KT54386553015","project_name":"","survey_name":"H10\u6797\u5730\u533a\u5730\u8cea\u8abf\u67fb(\u305d\u306e3)","client_name":"\u56fd\u571f\u4ea4\u901a\u7701\u95a2\u6771\u5730\u65b9\u6574\u5099\u5c40\u516b\u30c3\u5834\u30c0\u30e0\u5de5\u4e8b\u4e8b\u52d9\u6240","boring_xml_url":40,"boring_view_url":1,"soilmap_view_url":null,"soiltest_xml_url":0,"soiltest_view_url":0},{"id":154455,"code":"B4KJ201801004-2704","latitude":"36.54774611","longitude":"138.6695558","source_code":"KT54386553014","project_name":"","survey_name":"H10\u6797\u5730\u533a\u5730\u8cea\u8abf\u67fb(\u305d\u306e3)","client_name":"\u56fd\u571f\u4ea4\u901a\u7701\u95a2\u6771\u5730\u65b9\u6574\u5099\u5c40\u516b\u30c3\u5834\u30c0\u30e0\u5de5\u4e8b\u4e8b\u52d9\u6240","boring_xml_url":40,"boring_view_url":1,"soilmap_view_url":null,"soiltest_xml_url":0,"soiltest_view_url":0},{"id":154454,"code":"B4KJ201801004-2703","latitude":"36.55080111","longitude":"138.6593344","source_code":"KT54386553013","project_name":"","survey_name":"H10\u9577\u91ce\u539f\u5730\u533a\u5730\u8cea\u8abf\u67fb","client_name":"\u56fd\u571f\u4ea4\u901a\u7701\u95a2\u6771\u5730\u65b9\u6574\u5099\u5c40\u516b\u30c3\u5834\u30c0\u30e0\u5de5\u4e8b\u4e8b\u52d9\u6240","boring_xml_url":40,"boring_view_url":1,"soilmap_view_url":null,"soiltest_xml_url":0,"soiltest_view_url":0},{"id":154453,"code":"B4KJ201801004-2702","latitude":"36.54821833","longitude":"138.6698336","source_code":"KT54386553012","project_name":"","survey_name":"H10\u6797\u5730\u533a\u5730\u8cea\u8abf\u67fb(\u305d\u306e3)","client_name":"\u56fd\u571f\u4ea4\u901a\u7701\u95a2\u6771\u5730\u65b9\u6574\u5099\u5c40\u516b\u30c3\u5834\u30c0\u30e0\u5de5\u4e8b\u4e8b\u52d9\u6240","boring_xml_url":40,"boring_view_url":1,"soilmap_view_url":null,"soiltest_xml_url":0,"soiltest_view_url":0},{"id":154452,"code":"B4KJ201801004-2701","latitude":"36.55002333","longitude":"138.6599178","source_code":"KT54386553011","project_name":"","survey_name":"H10\u9577\u91ce\u539f\u5730\u533a\u5730\u8cea\u8abf\u67fb","client_name":"\u56fd\u571f\u4ea4\u901a\u7701\u95a2\u6771\u5730\u65b9\u6574\u5099\u5c40\u516b\u30c3\u5834\u30c0\u30e0\u5de5\u4e8b\u4e8b\u52d9\u6240","boring_xml_url":40,"boring_view_url":1,"soilmap_view_url":null,"soiltest_xml_url":0,"soiltest_view_url":0},{"id":154451,"code":"B4KJ201801004-2700","latitude":"36.54532972","longitude":"138.6710003","source_code":"KT54386553002","project_name":"","survey_name":"H8\u6797\u5730\u533a\u5730\u8cea\u8abf\u67fb(\u305d\u306e1)","client_name":"\u56fd\u571f\u4ea4\u901a\u7701\u95a2\u6771\u5730\u65b9\u6574\u5099\u5c40\u516b\u30c3\u5834\u30c0\u30e0\u5de5\u4e8b\u4e8b\u52d9\u6240","boring_xml_url":40,"boring_view_url":1,"soilmap_view_url":null,"soiltest_xml_url":0,"soiltest_view_url":0},{"id":154450,"code":"B4KJ201801004-2699","latitude":"36.54532972","longitude":"138.6710003","source_code":"KT54386553001","project_name":"","survey_name":"H8\u6797\u5730\u533a\u5730\u8cea\u8abf\u67fb(\u305d\u306e1)","client_name":"\u56fd\u571f\u4ea4\u901a\u7701\u95a2\u6771\u5730\u65b9\u6574\u5099\u5c40\u516b\u30c3\u5834\u30c0\u30e0\u5de5\u4e8b\u4e8b\u52d9\u6240","boring_xml_url":40,"boring_view_url":1,"soilmap_view_url":null,"soiltest_xml_url":0,"soiltest_view_url":0},{"id":154449,"code":"B4KJ201801004-2698","latitude":"36.54610722","longitude":"138.6587514","source_code":"KT54386552050","project_name":"","survey_name":"H13 \u6a2a\u58c1\u30fb\u6797\u5730\u533a\u5730\u8cea\u8abf\u67fb","client_name":"\u56fd\u571f\u4ea4\u901a\u7701\u95a2\u6771\u5730\u65b9\u6574\u5099\u5c40\u516b\u30c3\u5834\u30c0\u30e0\u5de5\u4e8b\u4e8b\u52d9\u6240","boring_xml_url":40,"boring_view_url":1,"soilmap_view_url":null,"soiltest_xml_url":0,"soiltest_view_url":0},{"id":154448,"code":"B4KJ201801004-2697","latitude":"36.54607944","longitude":"138.6588625","source_code":"KT54386552049","project_name":"","survey_name":"H13 \u6a2a\u58c1\u30fb\u6797\u5730\u533a\u5730\u8cea\u8abf\u67fb","client_name":"\u56fd\u571f\u4ea4\u901a\u7701\u95a2\u6771\u5730\u65b9\u6574\u5099\u5c40\u516b\u30c3\u5834\u30c0\u30e0\u5de5\u4e8b\u4e8b\u52d9\u6240","boring_xml_url":40,"boring_view_url":1,"soilmap_view_url":null,"soiltest_xml_url":0,"soiltest_view_url":0},{"id":154447,"code":"B4KJ201801004-2696","latitude":"36.54505167","longitude":"138.655585","source_code":"KT54386552048","project_name":"","survey_name":"H11\u9577\u91ce\u539f\u5730\u533a\u5730\u8cea\u8abf\u67fb(\u305d\u306e2)","client_name":"\u56fd\u571f\u4ea4\u901a\u7701\u95a2\u6771\u5730\u65b9\u6574\u5099\u5c40\u516b\u30c3\u5834\u30c0\u30e0\u5de5\u4e8b\u4e8b\u52d9\u6240","boring_xml_url":40,"boring_view_url":1,"soilmap_view_url":null,"soiltest_xml_url":0,"soiltest_view_url":0},{"id":154446,"code":"B4KJ201801004-2695","latitude":"36.54532944","longitude":"138.6557239","source_code":"KT54386552047","project_name":"","survey_name":"H11\u9577\u91ce\u539f\u5730\u533a\u5730\u8cea\u8abf\u67fb(\u305d\u306e2)","client_name":"\u56fd\u571f\u4ea4\u901a\u7701\u95a2\u6771\u5730\u65b9\u6574\u5099\u5c40\u516b\u30c3\u5834\u30c0\u30e0\u5de5\u4e8b\u4e8b\u52d9\u6240","boring_xml_url":40,"boring_view_url":1,"soilmap_view_url":null,"soiltest_xml_url":0,"soiltest_view_url":0},{"id":154445,"code":"B4KJ201801004-2694","latitude":"36.54574583","longitude":"138.6558628","source_code":"KT54386552046","project_name":"","survey_name":"H11\u9577\u91ce\u539f\u5730\u533a\u5730\u8cea\u8abf\u67fb(\u305d\u306e2)","client_name":"\u56fd\u571f\u4ea4\u901a\u7701\u95a2\u6771\u5730\u65b9\u6574\u5099\u5c40\u516b\u30c3\u5834\u30c0\u30e0\u5de5\u4e8b\u4e8b\u52d9\u6240","boring_xml_url":40,"boring_view_url":1,"soilmap_view_url":null,"soiltest_xml_url":0,"soiltest_view_url":0},{"id":154444,"code":"B4KJ201801004-2693","latitude":"36.54560694","longitude":"138.6471136","source_code":"KT54386552036","project_name":"","survey_name":"H10\u9577\u91ce\u539f\u5730\u533a\u8b77\u5cb8\u5730\u8cea\u8abf\u67fb","client_name":"\u56fd\u571f\u4ea4\u901a\u7701\u95a2\u6771\u5730\u65b9\u6574\u5099\u5c40\u516b\u30c3\u5834\u30c0\u30e0\u5de5\u4e8b\u4e8b\u52d9\u6240","boring_xml_url":40,"boring_view_url":1,"soilmap_view_url":null,"soiltest_xml_url":0,"soiltest_view_url":0},{"id":154443,"code":"B4KJ201801004-2692","latitude":"36.54560694","longitude":"138.6473914","source_code":"KT54386552035","project_name":"","survey_name":"H10\u9577\u91ce\u539f\u5730\u533a\u8b77\u5cb8\u5730\u8cea\u8abf\u67fb","client_name":"\u56fd\u571f\u4ea4\u901a\u7701\u95a2\u6771\u5730\u65b9\u6574\u5099\u5c40\u516b\u30c3\u5834\u30c0\u30e0\u5de5\u4e8b\u4e8b\u52d9\u6240","boring_xml_url":40,"boring_view_url":1,"soilmap_view_url":null,"soiltest_xml_url":0,"soiltest_view_url":0},{"id":154442,"code":"B4KJ201801004-2691","latitude":"36.54560694","longitude":"138.6479469","source_code":"KT54386552034","project_name":"","survey_name":"H10\u9577\u91ce\u539f\u5730\u533a\u8b77\u5cb8\u5730\u8cea\u8abf\u67fb","client_name":"\u56fd\u571f\u4ea4\u901a\u7701\u95a2\u6771\u5730\u65b9\u6574\u5099\u5c40\u516b\u30c3\u5834\u30c0\u30e0\u5de5\u4e8b\u4e8b\u52d9\u6240","boring_xml_url":40,"boring_view_url":1,"soilmap_view_url":null,"soiltest_xml_url":0,"soiltest_view_url":0},{"id":154441,"code":"B4KJ201801004-2690","latitude":"36.55107889","longitude":"138.6591956","source_code":"KT54386552033","project_name":"","survey_name":"H10\u9577\u91ce\u539f\u5730\u533a\u5730\u8cea\u8abf\u67fb","client_name":"\u56fd\u571f\u4ea4\u901a\u7701\u95a2\u6771\u5730\u65b9\u6574\u5099\u5c40\u516b\u30c3\u5834\u30c0\u30e0\u5de5\u4e8b\u4e8b\u52d9\u6240","boring_xml_url":40,"boring_view_url":1,"soilmap_view_url":null,"soiltest_xml_url":0,"soiltest_view_url":0},{"id":154440,"code":"B4KJ201801004-2689","latitude":"36.54560694","longitude":"138.6485022","source_code":"KT54386552032","project_name":"","survey_name":"H10\u9577\u91ce\u539f\u5730\u533a\u8b77\u5cb8\u5730\u8cea\u8abf\u67fb","client_name":"\u56fd\u571f\u4ea4\u901a\u7701\u95a2\u6771\u5730\u65b9\u6574\u5099\u5c40\u516b\u30c3\u5834\u30c0\u30e0\u5de5\u4e8b\u4e8b\u52d9\u6240","boring_xml_url":40,"boring_view_url":1,"soilmap_view_url":null,"soiltest_xml_url":0,"soiltest_view_url":0},{"id":154439,"code":"B4KJ201801004-2688","latitude":"36.54560694","longitude":"138.6490578","source_code":"KT54386552031","project_name":"","survey_name":"H10\u9577\u91ce\u539f\u5730\u533a\u8b77\u5cb8\u5730\u8cea\u8abf\u67fb","client_name":"\u56fd\u571f\u4ea4\u901a\u7701\u95a2\u6771\u5730\u65b9\u6574\u5099\u5c40\u516b\u30c3\u5834\u30c0\u30e0\u5de5\u4e8b\u4e8b\u52d9\u6240","boring_xml_url":40,"boring_view_url":1,"soilmap_view_url":null,"soiltest_xml_url":0,"soiltest_view_url":0},{"id":154438,"code":"B4KJ201801004-2687","latitude":"36.54955111","longitude":"138.6548628","source_code":"KT54386552030","project_name":"","survey_name":"H10\u9577\u91ce\u539f\u5730\u533a\u5730\u8cea\u8abf\u67fb","client_name":"\u56fd\u571f\u4ea4\u901a\u7701\u95a2\u6771\u5730\u65b9\u6574\u5099\u5c40\u516b\u30c3\u5834\u30c0\u30e0\u5de5\u4e8b\u4e8b\u52d9\u6240","boring_xml_url":40,"boring_view_url":1,"soilmap_view_url":null,"soiltest_xml_url":0,"soiltest_view_url":0},{"id":154437,"code":"B4KJ201801004-2686","latitude":"36.54560694","longitude":"138.6501689","source_code":"KT54386552029","project_name":"","survey_name":"H10\u9577\u91ce\u539f\u5730\u533a\u8b77\u5cb8\u5730\u8cea\u8abf\u67fb","client_name":"\u56fd\u571f\u4ea4\u901a\u7701\u95a2\u6771\u5730\u65b9\u6574\u5099\u5c40\u516b\u30c3\u5834\u30c0\u30e0\u5de5\u4e8b\u4e8b\u52d9\u6240","boring_xml_url":40,"boring_view_url":1,"soilmap_view_url":null,"soiltest_xml_url":0,"soiltest_view_url":0},{"id":154436,"code":"B4KJ201801004-2685","latitude":"36.55030111","longitude":"138.6581681","source_code":"KT54386552028","project_name":"","survey_name":"H10\u9577\u91ce\u539f\u5730\u533a\u5730\u8cea\u8abf\u67fb","client_name":"\u56fd\u571f\u4ea4\u901a\u7701\u95a2\u6771\u5730\u65b9\u6574\u5099\u5c40\u516b\u30c3\u5834\u30c0\u30e0\u5de5\u4e8b\u4e8b\u52d9\u6240","boring_xml_url":40,"boring_view_url":1,"soilmap_view_url":null,"soiltest_xml_url":0,"soiltest_view_url":0}]}}