{"header":{"xyz":{"source":[],"mosaic":false},"page":5546,"raw":{"soiltest_result":"0","bbox":"57.598333,109.544722,1.933333,163.806111","page":"5546"},"conditions":{"soiltest_result":0,"north":57.598333,"west":109.544722,"south":1.933333,"east":163.806111},"success":true,"message":""},"data":{"meta":{"total":212844,"page":5546,"pages":7095,"count":30},"values":[{"id":154195,"code":"B4KJ201801004-2444","latitude":"36.32510722","longitude":"138.760585","source_code":"KT54383681004","project_name":"","survey_name":"\u9632\u707d\u8a2d\u8a08\u696d\u52d9\u59d4\u8a17","client_name":"\u56fd\u571f\u4ea4\u901a\u7701\u95a2\u6771\u5730\u65b9\u6574\u5099\u5c40\u9ad8\u5d0e\u6cb3\u5ddd\u56fd\u9053\u4e8b\u52d9\u6240","boring_xml_url":40,"boring_view_url":1,"soilmap_view_url":null,"soiltest_xml_url":0,"soiltest_view_url":0},{"id":154194,"code":"B4KJ201801004-2443","latitude":"36.32541278","longitude":"138.7616681","source_code":"KT54383681003","project_name":"","survey_name":"\u9632\u707d\u8a2d\u8a08\u696d\u52d9\u59d4\u8a17","client_name":"\u56fd\u571f\u4ea4\u901a\u7701\u95a2\u6771\u5730\u65b9\u6574\u5099\u5c40\u9ad8\u5d0e\u6cb3\u5ddd\u56fd\u9053\u4e8b\u52d9\u6240","boring_xml_url":40,"boring_view_url":1,"soilmap_view_url":null,"soiltest_xml_url":0,"soiltest_view_url":0},{"id":154193,"code":"B4KJ201801004-2442","latitude":"36.32532944","longitude":"138.7611125","source_code":"KT54383681002","project_name":"","survey_name":"\u9632\u707d\u8a2d\u8a08\u696d\u52d9\u59d4\u8a17","client_name":"\u56fd\u571f\u4ea4\u901a\u7701\u95a2\u6771\u5730\u65b9\u6574\u5099\u5c40\u9ad8\u5d0e\u6cb3\u5ddd\u56fd\u9053\u4e8b\u52d9\u6240","boring_xml_url":40,"boring_view_url":1,"soilmap_view_url":null,"soiltest_xml_url":0,"soiltest_view_url":0},{"id":154192,"code":"B4KJ201801004-2441","latitude":"36.32532944","longitude":"138.7605017","source_code":"KT54383681001","project_name":"","survey_name":"\u9632\u707d\u8a2d\u8a08\u696d\u52d9\u59d4\u8a17","client_name":"\u56fd\u571f\u4ea4\u901a\u7701\u95a2\u6771\u5730\u65b9\u6574\u5099\u5c40\u9ad8\u5d0e\u6cb3\u5ddd\u56fd\u9053\u4e8b\u52d9\u6240","boring_xml_url":40,"boring_view_url":1,"soilmap_view_url":null,"soiltest_xml_url":0,"soiltest_view_url":0},{"id":154191,"code":"B4KJ201801004-2440","latitude":"36.31785917","longitude":"138.7979431","source_code":"KT54383674032","project_name":"","survey_name":"18\u53f7\u9632\u707d\u8a2d\u8a08","client_name":"\u56fd\u571f\u4ea4\u901a\u7701\u95a2\u6771\u5730\u65b9\u6574\u5099\u5c40\u9ad8\u5d0e\u6cb3\u5ddd\u56fd\u9053\u4e8b\u52d9\u6240","boring_xml_url":40,"boring_view_url":1,"soilmap_view_url":null,"soiltest_xml_url":0,"soiltest_view_url":0},{"id":154190,"code":"B4KJ201801004-2439","latitude":"36.31785917","longitude":"138.7979431","source_code":"KT54383674031","project_name":"","survey_name":"18\u53f7\u9632\u707d\u8a2d\u8a08","client_name":"\u56fd\u571f\u4ea4\u901a\u7701\u95a2\u6771\u5730\u65b9\u6574\u5099\u5c40\u9ad8\u5d0e\u6cb3\u5ddd\u56fd\u9053\u4e8b\u52d9\u6240","boring_xml_url":40,"boring_view_url":1,"soilmap_view_url":null,"soiltest_xml_url":0,"soiltest_view_url":0},{"id":154189,"code":"B4KJ201801004-2438","latitude":"36.31758139","longitude":"138.7990542","source_code":"KT54383674030","project_name":"","survey_name":"18\u53f7\u9632\u707d\u8a2d\u8a08","client_name":"\u56fd\u571f\u4ea4\u901a\u7701\u95a2\u6771\u5730\u65b9\u6574\u5099\u5c40\u9ad8\u5d0e\u6cb3\u5ddd\u56fd\u9053\u4e8b\u52d9\u6240","boring_xml_url":40,"boring_view_url":1,"soilmap_view_url":null,"soiltest_xml_url":0,"soiltest_view_url":0},{"id":154188,"code":"B4KJ201801004-2437","latitude":"36.31730361","longitude":"138.8004428","source_code":"KT54383674029","project_name":"","survey_name":"18\u53f7\u9632\u707d\u8a2d\u8a08","client_name":"\u56fd\u571f\u4ea4\u901a\u7701\u95a2\u6771\u5730\u65b9\u6574\u5099\u5c40\u9ad8\u5d0e\u6cb3\u5ddd\u56fd\u9053\u4e8b\u52d9\u6240","boring_xml_url":40,"boring_view_url":1,"soilmap_view_url":null,"soiltest_xml_url":0,"soiltest_view_url":0},{"id":154187,"code":"B4KJ201801004-2436","latitude":"36.31730361","longitude":"138.8004428","source_code":"KT54383674028","project_name":"","survey_name":"18\u53f7\u9632\u707d\u8a2d\u8a08","client_name":"\u56fd\u571f\u4ea4\u901a\u7701\u95a2\u6771\u5730\u65b9\u6574\u5099\u5c40\u9ad8\u5d0e\u6cb3\u5ddd\u56fd\u9053\u4e8b\u52d9\u6240","boring_xml_url":40,"boring_view_url":1,"soilmap_view_url":null,"soiltest_xml_url":0,"soiltest_view_url":0},{"id":154186,"code":"B4KJ201801004-2435","latitude":"36.31674833","longitude":"138.802665","source_code":"KT54383674027","project_name":"","survey_name":"18\u53f7\u9632\u707d\u8a2d\u8a08","client_name":"\u56fd\u571f\u4ea4\u901a\u7701\u95a2\u6771\u5730\u65b9\u6574\u5099\u5c40\u9ad8\u5d0e\u6cb3\u5ddd\u56fd\u9053\u4e8b\u52d9\u6240","boring_xml_url":40,"boring_view_url":1,"soilmap_view_url":null,"soiltest_xml_url":0,"soiltest_view_url":0},{"id":154185,"code":"B4KJ201801004-2434","latitude":"36.31535944","longitude":"138.8043314","source_code":"KT54383674026","project_name":"","survey_name":"18\u53f7\u9632\u707d\u8a2d\u8a08","client_name":"\u56fd\u571f\u4ea4\u901a\u7701\u95a2\u6771\u5730\u65b9\u6574\u5099\u5c40\u9ad8\u5d0e\u6cb3\u5ddd\u56fd\u9053\u4e8b\u52d9\u6240","boring_xml_url":40,"boring_view_url":1,"soilmap_view_url":null,"soiltest_xml_url":0,"soiltest_view_url":0},{"id":154184,"code":"B4KJ201801004-2433","latitude":"36.31535944","longitude":"138.8043314","source_code":"KT54383674025","project_name":"","survey_name":"18\u53f7\u9632\u707d\u8a2d\u8a08","client_name":"\u56fd\u571f\u4ea4\u901a\u7701\u95a2\u6771\u5730\u65b9\u6574\u5099\u5c40\u9ad8\u5d0e\u6cb3\u5ddd\u56fd\u9053\u4e8b\u52d9\u6240","boring_xml_url":40,"boring_view_url":1,"soilmap_view_url":null,"soiltest_xml_url":0,"soiltest_view_url":0},{"id":154183,"code":"B4KJ201801004-2432","latitude":"36.30830528","longitude":"138.8197472","source_code":"KT54383665010","project_name":"","survey_name":"18\u53f7\u5b89\u4e2d\u5730\u5148\u5730\u3059\u3079\u308a\u8abf\u67fb","client_name":"\u56fd\u571f\u4ea4\u901a\u7701\u95a2\u6771\u5730\u65b9\u6574\u5099\u5c40\u9ad8\u5d0e\u6cb3\u5ddd\u56fd\u9053\u4e8b\u52d9\u6240","boring_xml_url":40,"boring_view_url":1,"soilmap_view_url":null,"soiltest_xml_url":0,"soiltest_view_url":0},{"id":154182,"code":"B4KJ201801004-2431","latitude":"36.3085275","longitude":"138.8198028","source_code":"KT54383665009","project_name":"","survey_name":"18\u53f7\u5b89\u4e2d\u5730\u5148\u5730\u3059\u3079\u308a\u8abf\u67fb","client_name":"\u56fd\u571f\u4ea4\u901a\u7701\u95a2\u6771\u5730\u65b9\u6574\u5099\u5c40\u9ad8\u5d0e\u6cb3\u5ddd\u56fd\u9053\u4e8b\u52d9\u6240","boring_xml_url":40,"boring_view_url":1,"soilmap_view_url":null,"soiltest_xml_url":0,"soiltest_view_url":0},{"id":154181,"code":"B4KJ201801004-2430","latitude":"36.30844417","longitude":"138.819775","source_code":"KT54383665008","project_name":"","survey_name":"18\u53f7\u5b89\u4e2d\u5730\u5148\u5730\u3059\u3079\u308a\u8abf\u67fb","client_name":"\u56fd\u571f\u4ea4\u901a\u7701\u95a2\u6771\u5730\u65b9\u6574\u5099\u5c40\u9ad8\u5d0e\u6cb3\u5ddd\u56fd\u9053\u4e8b\u52d9\u6240","boring_xml_url":40,"boring_view_url":1,"soilmap_view_url":null,"soiltest_xml_url":0,"soiltest_view_url":0},{"id":154180,"code":"B4KJ201801004-2429","latitude":"36.30844417","longitude":"138.8192194","source_code":"KT54383665007","project_name":"","survey_name":"18\u53f7\u5b89\u4e2d\u5730\u5148\u5730\u3059\u3079\u308a\u8abf\u67fb","client_name":"\u56fd\u571f\u4ea4\u901a\u7701\u95a2\u6771\u5730\u65b9\u6574\u5099\u5c40\u9ad8\u5d0e\u6cb3\u5ddd\u56fd\u9053\u4e8b\u52d9\u6240","boring_xml_url":40,"boring_view_url":1,"soilmap_view_url":null,"soiltest_xml_url":0,"soiltest_view_url":0},{"id":154179,"code":"B4KJ201801004-2428","latitude":"36.30830528","longitude":"138.8199694","source_code":"KT54383665006","project_name":"","survey_name":"18\u53f7\u5b89\u4e2d\u5730\u5148\u5730\u3059\u3079\u308a\u8abf\u67fb","client_name":"\u56fd\u571f\u4ea4\u901a\u7701\u95a2\u6771\u5730\u65b9\u6574\u5099\u5c40\u9ad8\u5d0e\u6cb3\u5ddd\u56fd\u9053\u4e8b\u52d9\u6240","boring_xml_url":40,"boring_view_url":1,"soilmap_view_url":null,"soiltest_xml_url":0,"soiltest_view_url":0},{"id":154178,"code":"B4KJ201801004-2427","latitude":"36.30841639","longitude":"138.8196083","source_code":"KT54383665005","project_name":"","survey_name":"18\u53f7\u5b89\u4e2d\u5730\u5148\u5730\u3059\u3079\u308a\u8abf\u67fb","client_name":"\u56fd\u571f\u4ea4\u901a\u7701\u95a2\u6771\u5730\u65b9\u6574\u5099\u5c40\u9ad8\u5d0e\u6cb3\u5ddd\u56fd\u9053\u4e8b\u52d9\u6240","boring_xml_url":40,"boring_view_url":1,"soilmap_view_url":null,"soiltest_xml_url":0,"soiltest_view_url":0},{"id":154177,"code":"B4KJ201801004-2426","latitude":"36.30855528","longitude":"138.8196361","source_code":"KT54383665004","project_name":"","survey_name":"18\u53f7\u5b89\u4e2d\u5730\u5148\u5730\u3059\u3079\u308a\u8abf\u67fb","client_name":"\u56fd\u571f\u4ea4\u901a\u7701\u95a2\u6771\u5730\u65b9\u6574\u5099\u5c40\u9ad8\u5d0e\u6cb3\u5ddd\u56fd\u9053\u4e8b\u52d9\u6240","boring_xml_url":40,"boring_view_url":1,"soilmap_view_url":null,"soiltest_xml_url":0,"soiltest_view_url":0},{"id":154176,"code":"B4KJ201801004-2425","latitude":"36.3082775","longitude":"138.8193028","source_code":"KT54383665003","project_name":"","survey_name":"18\u53f7\u5b89\u4e2d\u5730\u5148\u5730\u3059\u3079\u308a\u8abf\u67fb","client_name":"\u56fd\u571f\u4ea4\u901a\u7701\u95a2\u6771\u5730\u65b9\u6574\u5099\u5c40\u9ad8\u5d0e\u6cb3\u5ddd\u56fd\u9053\u4e8b\u52d9\u6240","boring_xml_url":40,"boring_view_url":1,"soilmap_view_url":null,"soiltest_xml_url":0,"soiltest_view_url":0},{"id":154175,"code":"B4KJ201801004-2424","latitude":"36.30816639","longitude":"138.8195528","source_code":"KT54383665002","project_name":"","survey_name":"18\u53f7\u5b89\u4e2d\u5730\u5148\u5730\u3059\u3079\u308a\u8abf\u67fb","client_name":"\u56fd\u571f\u4ea4\u901a\u7701\u95a2\u6771\u5730\u65b9\u6574\u5099\u5c40\u9ad8\u5d0e\u6cb3\u5ddd\u56fd\u9053\u4e8b\u52d9\u6240","boring_xml_url":40,"boring_view_url":1,"soilmap_view_url":null,"soiltest_xml_url":0,"soiltest_view_url":0},{"id":154174,"code":"B4KJ201801004-2423","latitude":"36.30813861","longitude":"138.8194417","source_code":"KT54383665001","project_name":"","survey_name":"18\u53f7\u5b89\u4e2d\u5730\u5148\u5730\u3059\u3079\u308a\u8abf\u67fb","client_name":"\u56fd\u571f\u4ea4\u901a\u7701\u95a2\u6771\u5730\u65b9\u6574\u5099\u5c40\u9ad8\u5d0e\u6cb3\u5ddd\u56fd\u9053\u4e8b\u52d9\u6240","boring_xml_url":40,"boring_view_url":1,"soilmap_view_url":null,"soiltest_xml_url":0,"soiltest_view_url":0},{"id":154173,"code":"B4KJ201801004-2422","latitude":"36.3325775","longitude":"138.7135053","source_code":"KT54383597012","project_name":"","survey_name":"18\u53f7\u9632\u707d\u8a2d\u8a08","client_name":"\u56fd\u571f\u4ea4\u901a\u7701\u95a2\u6771\u5730\u65b9\u6574\u5099\u5c40\u9ad8\u5d0e\u6cb3\u5ddd\u56fd\u9053\u4e8b\u52d9\u6240","boring_xml_url":40,"boring_view_url":1,"soilmap_view_url":null,"soiltest_xml_url":0,"soiltest_view_url":0},{"id":154172,"code":"B4KJ201801004-2421","latitude":"36.3325775","longitude":"138.7135053","source_code":"KT54383597011","project_name":"","survey_name":"18\u53f7\u9632\u707d\u8a2d\u8a08","client_name":"\u56fd\u571f\u4ea4\u901a\u7701\u95a2\u6771\u5730\u65b9\u6574\u5099\u5c40\u9ad8\u5d0e\u6cb3\u5ddd\u56fd\u9053\u4e8b\u52d9\u6240","boring_xml_url":40,"boring_view_url":1,"soilmap_view_url":null,"soiltest_xml_url":0,"soiltest_view_url":0},{"id":154171,"code":"B4KJ201801004-2420","latitude":"36.3325775","longitude":"138.7140608","source_code":"KT54383597010","project_name":"","survey_name":"18\u53f7\u9632\u707d\u8a2d\u8a08","client_name":"\u56fd\u571f\u4ea4\u901a\u7701\u95a2\u6771\u5730\u65b9\u6574\u5099\u5c40\u9ad8\u5d0e\u6cb3\u5ddd\u56fd\u9053\u4e8b\u52d9\u6240","boring_xml_url":40,"boring_view_url":1,"soilmap_view_url":null,"soiltest_xml_url":0,"soiltest_view_url":0},{"id":154170,"code":"B4KJ201801004-2419","latitude":"36.33313278","longitude":"138.7140608","source_code":"KT54383597009","project_name":"","survey_name":"18\u53f7\u9632\u707d\u8a2d\u8a08","client_name":"\u56fd\u571f\u4ea4\u901a\u7701\u95a2\u6771\u5730\u65b9\u6574\u5099\u5c40\u9ad8\u5d0e\u6cb3\u5ddd\u56fd\u9053\u4e8b\u52d9\u6240","boring_xml_url":40,"boring_view_url":1,"soilmap_view_url":null,"soiltest_xml_url":0,"soiltest_view_url":0},{"id":154169,"code":"B4KJ201801004-2418","latitude":"36.33341056","longitude":"138.7146164","source_code":"KT54383597008","project_name":"","survey_name":"18\u53f7\u9632\u707d\u8a2d\u8a08","client_name":"\u56fd\u571f\u4ea4\u901a\u7701\u95a2\u6771\u5730\u65b9\u6574\u5099\u5c40\u9ad8\u5d0e\u6cb3\u5ddd\u56fd\u9053\u4e8b\u52d9\u6240","boring_xml_url":40,"boring_view_url":1,"soilmap_view_url":null,"soiltest_xml_url":0,"soiltest_view_url":0},{"id":154168,"code":"B4KJ201801004-2417","latitude":"36.33368833","longitude":"138.7143386","source_code":"KT54383597007","project_name":"","survey_name":"18\u53f7\u9632\u707d\u8a2d\u8a08","client_name":"\u56fd\u571f\u4ea4\u901a\u7701\u95a2\u6771\u5730\u65b9\u6574\u5099\u5c40\u9ad8\u5d0e\u6cb3\u5ddd\u56fd\u9053\u4e8b\u52d9\u6240","boring_xml_url":40,"boring_view_url":1,"soilmap_view_url":null,"soiltest_xml_url":0,"soiltest_view_url":0},{"id":154167,"code":"B4KJ201801004-2416","latitude":"36.33424389","longitude":"138.7151717","source_code":"KT54383597006","project_name":"","survey_name":"18\u53f7\u9632\u707d\u8a2d\u8a08","client_name":"\u56fd\u571f\u4ea4\u901a\u7701\u95a2\u6771\u5730\u65b9\u6574\u5099\u5c40\u9ad8\u5d0e\u6cb3\u5ddd\u56fd\u9053\u4e8b\u52d9\u6240","boring_xml_url":40,"boring_view_url":1,"soilmap_view_url":null,"soiltest_xml_url":0,"soiltest_view_url":0},{"id":154166,"code":"B4KJ201801004-2415","latitude":"36.33341056","longitude":"138.7154494","source_code":"KT54383597005","project_name":"","survey_name":"18\u53f7\u9632\u707d\u8a2d\u8a08","client_name":"\u56fd\u571f\u4ea4\u901a\u7701\u95a2\u6771\u5730\u65b9\u6574\u5099\u5c40\u9ad8\u5d0e\u6cb3\u5ddd\u56fd\u9053\u4e8b\u52d9\u6240","boring_xml_url":40,"boring_view_url":1,"soilmap_view_url":null,"soiltest_xml_url":0,"soiltest_view_url":0}]}}