{"header":{"xyz":{"source":[],"mosaic":false},"page":5548,"raw":{"soiltest_result":"0","bbox":"57.598333,109.544722,1.933333,163.806111","page":"5548"},"conditions":{"soiltest_result":0,"north":57.598333,"west":109.544722,"south":1.933333,"east":163.806111},"success":true,"message":""},"data":{"meta":{"total":212844,"page":5548,"pages":7095,"count":30},"values":[{"id":154135,"code":"B4KJ201801004-2384","latitude":"36.0936975","longitude":"138.0161308","source_code":"KT54381001008","project_name":"","survey_name":"\u4e00\u822c\u56fd\u905320\u53f7\u5ca1\u8c37\u30fb\u5869\u5c3b\u5c40\u6539(3I\u533a)\u5730\u8cea\u8abf\u67fb","client_name":"\u56fd\u571f\u4ea4\u901a\u7701\u95a2\u6771\u5730\u65b9\u6574\u5099\u5c40\u9577\u91ce\u56fd\u9053\u4e8b\u52d9\u6240","boring_xml_url":40,"boring_view_url":1,"soilmap_view_url":null,"soiltest_xml_url":0,"soiltest_view_url":0},{"id":154134,"code":"B4KJ201801004-2383","latitude":"36.0936975","longitude":"138.0161308","source_code":"KT54381001007","project_name":"","survey_name":"\u4e00\u822c\u56fd\u905320\u53f7\u5ca1\u8c37\u30fb\u5869\u5c3b\u5c40\u6539(3I\u533a)\u5730\u8cea\u8abf\u67fb","client_name":"\u56fd\u571f\u4ea4\u901a\u7701\u95a2\u6771\u5730\u65b9\u6574\u5099\u5c40\u9577\u91ce\u56fd\u9053\u4e8b\u52d9\u6240","boring_xml_url":40,"boring_view_url":1,"soilmap_view_url":null,"soiltest_xml_url":0,"soiltest_view_url":0},{"id":154133,"code":"B4KJ201801004-2382","latitude":"36.0936975","longitude":"138.0161308","source_code":"KT54381001006","project_name":"","survey_name":"\u4e00\u822c\u56fd\u905320\u53f7\u5ca1\u8c37\u30fb\u5869\u5c3b\u5c40\u6539(3I\u533a)\u5730\u8cea\u8abf\u67fb","client_name":"\u56fd\u571f\u4ea4\u901a\u7701\u95a2\u6771\u5730\u65b9\u6574\u5099\u5c40\u9577\u91ce\u56fd\u9053\u4e8b\u52d9\u6240","boring_xml_url":40,"boring_view_url":1,"soilmap_view_url":null,"soiltest_xml_url":0,"soiltest_view_url":0},{"id":154132,"code":"B4KJ201801004-2381","latitude":"36.0936975","longitude":"138.0161308","source_code":"KT54381001005","project_name":"","survey_name":"\u4e00\u822c\u56fd\u905320\u53f7\u5ca1\u8c37\u30fb\u5869\u5c3b\u5c40\u6539(3I\u533a)\u5730\u8cea\u8abf\u67fb","client_name":"\u56fd\u571f\u4ea4\u901a\u7701\u95a2\u6771\u5730\u65b9\u6574\u5099\u5c40\u9577\u91ce\u56fd\u9053\u4e8b\u52d9\u6240","boring_xml_url":40,"boring_view_url":1,"soilmap_view_url":null,"soiltest_xml_url":0,"soiltest_view_url":0},{"id":154131,"code":"B4KJ201801004-2380","latitude":"36.09358639","longitude":"138.0176031","source_code":"KT54381001004","project_name":"","survey_name":"\u4e00\u822c\u56fd\u905320\u53f7\u5869\u5c3b\u5730\u8cea\u8abf\u67fb","client_name":"\u56fd\u571f\u4ea4\u901a\u7701\u95a2\u6771\u5730\u65b9\u6574\u5099\u5c40\u9577\u91ce\u56fd\u9053\u4e8b\u52d9\u6240","boring_xml_url":40,"boring_view_url":1,"soilmap_view_url":null,"soiltest_xml_url":0,"soiltest_view_url":0},{"id":154130,"code":"B4KJ201801004-2379","latitude":"36.09322556","longitude":"138.0205194","source_code":"KT54381001003","project_name":"","survey_name":"\u4e00\u822c\u56fd\u905320\u53f7\u5869\u5c3b\u5730\u8cea\u8abf\u67fb","client_name":"\u56fd\u571f\u4ea4\u901a\u7701\u95a2\u6771\u5730\u65b9\u6574\u5099\u5c40\u9577\u91ce\u56fd\u9053\u4e8b\u52d9\u6240","boring_xml_url":40,"boring_view_url":1,"soilmap_view_url":null,"soiltest_xml_url":0,"soiltest_view_url":0},{"id":154129,"code":"B4KJ201801004-2378","latitude":"36.09347556","longitude":"138.0191306","source_code":"KT54381001002","project_name":"","survey_name":"\u4e00\u822c\u56fd\u905320\u53f7\u5869\u5c3b\u5730\u8cea\u8abf\u67fb","client_name":"\u56fd\u571f\u4ea4\u901a\u7701\u95a2\u6771\u5730\u65b9\u6574\u5099\u5c40\u9577\u91ce\u56fd\u9053\u4e8b\u52d9\u6240","boring_xml_url":40,"boring_view_url":1,"soilmap_view_url":null,"soiltest_xml_url":0,"soiltest_view_url":0},{"id":154128,"code":"B4KJ201801004-2377","latitude":"36.09391972","longitude":"138.0177419","source_code":"KT54381001001","project_name":"","survey_name":"\u4e00\u822c\u56fd\u905320\u53f7\u5869\u5c3b\u5730\u8cea\u8abf\u67fb","client_name":"\u56fd\u571f\u4ea4\u901a\u7701\u95a2\u6771\u5730\u65b9\u6574\u5099\u5c40\u9577\u91ce\u56fd\u9053\u4e8b\u52d9\u6240","boring_xml_url":40,"boring_view_url":1,"soilmap_view_url":null,"soiltest_xml_url":0,"soiltest_view_url":0},{"id":154127,"code":"B4KJ201801004-2376","latitude":"36.05291722","longitude":"138.8100361","source_code":"KT54380655003","project_name":"","survey_name":"\u9577\u7b39\u6ca2\u5ddd\u7b2c\u4e8c\u30c0\u30e0\u53ca\u3073\u5c0f\u4e38\u6ca2\u7b2c\u4e00\u30c0\u30e0\u5730\u8cea\u8abf\u67fb\u696d\u52d9","client_name":"\u56fd\u571f\u4ea4\u901a\u7701\u95a2\u6771\u5730\u65b9\u6574\u5099\u5c40\u5229\u6839\u5ddd\u6c34\u7cfb\u7802\u9632\u4e8b\u52d9\u6240","boring_xml_url":40,"boring_view_url":1,"soilmap_view_url":null,"soiltest_xml_url":0,"soiltest_view_url":0},{"id":154126,"code":"B4KJ201801004-2375","latitude":"36.05291722","longitude":"138.8106747","source_code":"KT54380655002","project_name":"","survey_name":"\u9577\u7b39\u6ca2\u5ddd\u7b2c\u4e8c\u30c0\u30e0\u53ca\u3073\u5c0f\u4e38\u6ca2\u7b2c\u4e00\u30c0\u30e0\u5730\u8cea\u8abf\u67fb\u696d\u52d9","client_name":"\u56fd\u571f\u4ea4\u901a\u7701\u95a2\u6771\u5730\u65b9\u6574\u5099\u5c40\u5229\u6839\u5ddd\u6c34\u7cfb\u7802\u9632\u4e8b\u52d9\u6240","boring_xml_url":40,"boring_view_url":1,"soilmap_view_url":null,"soiltest_xml_url":0,"soiltest_view_url":0},{"id":154125,"code":"B4KJ201801004-2374","latitude":"36.05308389","longitude":"138.8106747","source_code":"KT54380655001","project_name":"","survey_name":"\u9577\u7b39\u6ca2\u5ddd\u7b2c\u4e8c\u30c0\u30e0\u53ca\u3073\u5c0f\u4e38\u6ca2\u7b2c\u4e00\u30c0\u30e0\u5730\u8cea\u8abf\u67fb\u696d\u52d9","client_name":"\u56fd\u571f\u4ea4\u901a\u7701\u95a2\u6771\u5730\u65b9\u6574\u5099\u5c40\u5229\u6839\u5ddd\u6c34\u7cfb\u7802\u9632\u4e8b\u52d9\u6240","boring_xml_url":40,"boring_view_url":1,"soilmap_view_url":null,"soiltest_xml_url":0,"soiltest_view_url":0},{"id":154124,"code":"B4KJ201801004-2373","latitude":"36.02343083","longitude":"138.1310403","source_code":"KT54380120003","project_name":"","survey_name":"\u56fd\u905319\u53f7\u53ca\u307320\u53f7\u5730\u8cea\u8abf\u67fb","client_name":"\u56fd\u571f\u4ea4\u901a\u7701\u95a2\u6771\u5730\u65b9\u6574\u5099\u5c40\u9577\u91ce\u56fd\u9053\u4e8b\u52d9\u6240","boring_xml_url":40,"boring_view_url":1,"soilmap_view_url":null,"soiltest_xml_url":0,"soiltest_view_url":0},{"id":154123,"code":"B4KJ201801004-2372","latitude":"36.02343083","longitude":"138.1310403","source_code":"KT54380120002","project_name":"","survey_name":"\u56fd\u905319\u53f7\u53ca\u307320\u53f7\u5730\u8cea\u8abf\u67fb","client_name":"\u56fd\u571f\u4ea4\u901a\u7701\u95a2\u6771\u5730\u65b9\u6574\u5099\u5c40\u9577\u91ce\u56fd\u9053\u4e8b\u52d9\u6240","boring_xml_url":40,"boring_view_url":1,"soilmap_view_url":null,"soiltest_xml_url":0,"soiltest_view_url":0},{"id":154122,"code":"B4KJ201801004-2371","latitude":"36.02343083","longitude":"138.1310403","source_code":"KT54380120001","project_name":"","survey_name":"\u56fd\u905319\u53f7\u53ca\u307320\u53f7\u5730\u8cea\u8abf\u67fb","client_name":"\u56fd\u571f\u4ea4\u901a\u7701\u95a2\u6771\u5730\u65b9\u6574\u5099\u5c40\u9577\u91ce\u56fd\u9053\u4e8b\u52d9\u6240","boring_xml_url":40,"boring_view_url":1,"soilmap_view_url":null,"soiltest_xml_url":0,"soiltest_view_url":0},{"id":154121,"code":"B4KJ201801004-2370","latitude":"36.07928306","longitude":"138.0374075","source_code":"KT54380093001","project_name":"","survey_name":"\u56fd\u905319\u53f7\u53ca\u307320\u53f7\u5730\u8cea\u8abf\u67fb","client_name":"\u56fd\u571f\u4ea4\u901a\u7701\u95a2\u6771\u5730\u65b9\u6574\u5099\u5c40\u9577\u91ce\u56fd\u9053\u4e8b\u52d9\u6240","boring_xml_url":40,"boring_view_url":1,"soilmap_view_url":null,"soiltest_xml_url":0,"soiltest_view_url":0},{"id":154120,"code":"B4KJ201801004-2369","latitude":"36.08222694","longitude":"138.0327689","source_code":"KT54380092009","project_name":"","survey_name":"\u5ca1\u8c37\u5730\u533a\u305d\u306e\u4ed6\u5730\u8cea\u8abf\u67fb","client_name":"\u56fd\u571f\u4ea4\u901a\u7701\u95a2\u6771\u5730\u65b9\u6574\u5099\u5c40\u9577\u91ce\u56fd\u9053\u4e8b\u52d9\u6240","boring_xml_url":40,"boring_view_url":1,"soilmap_view_url":null,"soiltest_xml_url":0,"soiltest_view_url":0},{"id":154119,"code":"B4KJ201801004-2368","latitude":"36.08236583","longitude":"138.0327689","source_code":"KT54380092008","project_name":"","survey_name":"\u5ca1\u8c37\u5730\u533a\u305d\u306e\u4ed6\u5730\u8cea\u8abf\u67fb","client_name":"\u56fd\u571f\u4ea4\u901a\u7701\u95a2\u6771\u5730\u65b9\u6574\u5099\u5c40\u9577\u91ce\u56fd\u9053\u4e8b\u52d9\u6240","boring_xml_url":40,"boring_view_url":1,"soilmap_view_url":null,"soiltest_xml_url":0,"soiltest_view_url":0},{"id":154118,"code":"B4KJ201801004-2367","latitude":"36.08586556","longitude":"138.0292689","source_code":"KT54380092007","project_name":"","survey_name":"\u5ca1\u8c37\u5730\u533a\u305d\u306e\u4ed6\u5730\u8cea\u8abf\u67fb","client_name":"\u56fd\u571f\u4ea4\u901a\u7701\u95a2\u6771\u5730\u65b9\u6574\u5099\u5c40\u9577\u91ce\u56fd\u9053\u4e8b\u52d9\u6240","boring_xml_url":40,"boring_view_url":1,"soilmap_view_url":null,"soiltest_xml_url":0,"soiltest_view_url":0},{"id":154117,"code":"B4KJ201801004-2366","latitude":"36.08583778","longitude":"138.0289356","source_code":"KT54380092006","project_name":"","survey_name":"\u5ca1\u8c37\u5730\u533a\u305d\u306e\u4ed6\u5730\u8cea\u8abf\u67fb","client_name":"\u56fd\u571f\u4ea4\u901a\u7701\u95a2\u6771\u5730\u65b9\u6574\u5099\u5c40\u9577\u91ce\u56fd\u9053\u4e8b\u52d9\u6240","boring_xml_url":40,"boring_view_url":1,"soilmap_view_url":null,"soiltest_xml_url":0,"soiltest_view_url":0},{"id":154116,"code":"B4KJ201801004-2365","latitude":"36.08319917","longitude":"138.0301022","source_code":"KT54380092005","project_name":"","survey_name":"\u5ca1\u8c37\u5c40\u6539\u5730\u8cea\u8abf\u67fb","client_name":"\u56fd\u571f\u4ea4\u901a\u7701\u95a2\u6771\u5730\u65b9\u6574\u5099\u5c40\u9577\u91ce\u56fd\u9053\u4e8b\u52d9\u6240","boring_xml_url":40,"boring_view_url":1,"soilmap_view_url":null,"soiltest_xml_url":0,"soiltest_view_url":0},{"id":154115,"code":"B4KJ201801004-2364","latitude":"36.08186611","longitude":"138.0317689","source_code":"KT54380092004","project_name":"","survey_name":"\u5ca1\u8c37\u5c40\u6539\u5730\u8cea\u8abf\u67fb","client_name":"\u56fd\u571f\u4ea4\u901a\u7701\u95a2\u6771\u5730\u65b9\u6574\u5099\u5c40\u9577\u91ce\u56fd\u9053\u4e8b\u52d9\u6240","boring_xml_url":40,"boring_view_url":1,"soilmap_view_url":null,"soiltest_xml_url":0,"soiltest_view_url":0},{"id":154114,"code":"B4KJ201801004-2363","latitude":"36.08219917","longitude":"138.0324633","source_code":"KT54380092003","project_name":"","survey_name":"\u5ca1\u8c37\u5c40\u6539\u5730\u8cea\u8abf\u67fb","client_name":"\u56fd\u571f\u4ea4\u901a\u7701\u95a2\u6771\u5730\u65b9\u6574\u5099\u5c40\u9577\u91ce\u56fd\u9053\u4e8b\u52d9\u6240","boring_xml_url":40,"boring_view_url":1,"soilmap_view_url":null,"soiltest_xml_url":0,"soiltest_view_url":0},{"id":154113,"code":"B4KJ201801004-2362","latitude":"36.08083833","longitude":"138.0326022","source_code":"KT54380092002","project_name":"","survey_name":"\u5ca1\u8c37\u5c40\u6539\u5730\u8cea\u8abf\u67fb","client_name":"\u56fd\u571f\u4ea4\u901a\u7701\u95a2\u6771\u5730\u65b9\u6574\u5099\u5c40\u9577\u91ce\u56fd\u9053\u4e8b\u52d9\u6240","boring_xml_url":40,"boring_view_url":1,"soilmap_view_url":null,"soiltest_xml_url":0,"soiltest_view_url":0},{"id":154112,"code":"B4KJ201801004-2361","latitude":"36.08247694","longitude":"138.0299636","source_code":"KT54380092001","project_name":"","survey_name":"\u4e00\u822c\u56fd\u905320\u53f7\u5ca1\u8c37\u5869\u5c3b\u5c40\u6539(4I\u533a)\u5730\u8cea\u8abf\u67fb","client_name":"\u56fd\u571f\u4ea4\u901a\u7701\u95a2\u6771\u5730\u65b9\u6574\u5099\u5c40\u9577\u91ce\u56fd\u9053\u4e8b\u52d9\u6240","boring_xml_url":40,"boring_view_url":1,"soilmap_view_url":null,"soiltest_xml_url":0,"soiltest_view_url":0},{"id":154111,"code":"B4KJ201801004-2360","latitude":"36.07161861","longitude":"138.0888756","source_code":"KT54380087002","project_name":"","survey_name":"\u56fd\u905319\u53f7\u53ca\u307320\u53f7\u7dda\u5730\u8cea\u8abf\u67fb","client_name":"\u56fd\u571f\u4ea4\u901a\u7701\u95a2\u6771\u5730\u65b9\u6574\u5099\u5c40\u9577\u91ce\u56fd\u9053\u4e8b\u52d9\u6240","boring_xml_url":40,"boring_view_url":1,"soilmap_view_url":null,"soiltest_xml_url":0,"soiltest_view_url":0},{"id":154110,"code":"B4KJ201801004-2359","latitude":"36.07161861","longitude":"138.0888756","source_code":"KT54380087001","project_name":"","survey_name":"\u56fd\u905319\u53f7\u53ca\u307320\u53f7\u5730\u8cea\u8abf\u67fb","client_name":"\u56fd\u571f\u4ea4\u901a\u7701\u95a2\u6771\u5730\u65b9\u6574\u5099\u5c40\u9577\u91ce\u56fd\u9053\u4e8b\u52d9\u6240","boring_xml_url":40,"boring_view_url":1,"soilmap_view_url":null,"soiltest_xml_url":0,"soiltest_view_url":0},{"id":154109,"code":"B4KJ201801004-2358","latitude":"36.07578333","longitude":"138.0357967","source_code":"KT54380083006","project_name":"","survey_name":"\u5869\u5dba\u6a4b\u5730\u8cea\u8abf\u67fb","client_name":"\u56fd\u571f\u4ea4\u901a\u7701\u95a2\u6771\u5730\u65b9\u6574\u5099\u5c40\u9577\u91ce\u56fd\u9053\u4e8b\u52d9\u6240","boring_xml_url":40,"boring_view_url":1,"soilmap_view_url":null,"soiltest_xml_url":0,"soiltest_view_url":0},{"id":154108,"code":"B4KJ201801004-2357","latitude":"36.07614444","longitude":"138.0360744","source_code":"KT54380083005","project_name":"","survey_name":"\u5869\u5dba\u6a4b\u5730\u8cea\u8abf\u67fb","client_name":"\u56fd\u571f\u4ea4\u901a\u7701\u95a2\u6771\u5730\u65b9\u6574\u5099\u5c40\u9577\u91ce\u56fd\u9053\u4e8b\u52d9\u6240","boring_xml_url":40,"boring_view_url":1,"soilmap_view_url":null,"soiltest_xml_url":0,"soiltest_view_url":0},{"id":154107,"code":"B4KJ201801004-2356","latitude":"36.07636667","longitude":"138.0363519","source_code":"KT54380083004","project_name":"","survey_name":"\u5869\u5dba\u6a4b\u5730\u8cea\u8abf\u67fb","client_name":"\u56fd\u571f\u4ea4\u901a\u7701\u95a2\u6771\u5730\u65b9\u6574\u5099\u5c40\u9577\u91ce\u56fd\u9053\u4e8b\u52d9\u6240","boring_xml_url":40,"boring_view_url":1,"soilmap_view_url":null,"soiltest_xml_url":0,"soiltest_view_url":0},{"id":154106,"code":"B4KJ201801004-2355","latitude":"36.0767","longitude":"138.0366297","source_code":"KT54380083003","project_name":"","survey_name":"\u5869\u5dba\u6a4b\u5730\u8cea\u8abf\u67fb","client_name":"\u56fd\u571f\u4ea4\u901a\u7701\u95a2\u6771\u5730\u65b9\u6574\u5099\u5c40\u9577\u91ce\u56fd\u9053\u4e8b\u52d9\u6240","boring_xml_url":40,"boring_view_url":1,"soilmap_view_url":null,"soiltest_xml_url":0,"soiltest_view_url":0}]}}