{"header":{"xyz":{"source":[],"mosaic":false},"page":5552,"raw":{"soiltest_result":"0","bbox":"57.598333,109.544722,1.933333,163.806111","page":"5552"},"conditions":{"soiltest_result":0,"north":57.598333,"west":109.544722,"south":1.933333,"east":163.806111},"success":true,"message":""},"data":{"meta":{"total":212844,"page":5552,"pages":7095,"count":30},"values":[{"id":154015,"code":"B4KJ201801004-2264","latitude":"36.2301525","longitude":"137.9566586","source_code":"KT54372776022","project_name":"","survey_name":"\u677e\u672c\u62e1\u5e45\u5730\u8cea\u8abf\u67fb","client_name":"\u56fd\u571f\u4ea4\u901a\u7701\u95a2\u6771\u5730\u65b9\u6574\u5099\u5c40\u9577\u91ce\u56fd\u9053\u4e8b\u52d9\u6240","boring_xml_url":40,"boring_view_url":1,"soilmap_view_url":null,"soiltest_xml_url":0,"soiltest_view_url":0},{"id":154014,"code":"B4KJ201801004-2263","latitude":"36.21318083","longitude":"137.8984697","source_code":"KT54372752002","project_name":"","survey_name":"\u677e\u672c\u6ce2\u7530\u9053\u8def\u5730\u8cea\u8abf\u67fb","client_name":"\u56fd\u571f\u4ea4\u901a\u7701\u95a2\u6771\u5730\u65b9\u6574\u5099\u5c40\u9577\u91ce\u56fd\u9053\u4e8b\u52d9\u6240","boring_xml_url":40,"boring_view_url":1,"soilmap_view_url":null,"soiltest_xml_url":0,"soiltest_view_url":0},{"id":154013,"code":"B4KJ201801004-2262","latitude":"36.21381944","longitude":"137.8946922","source_code":"KT54372751002","project_name":"","survey_name":"\u677e\u672c\u6ce2\u7530\u9053\u8def\u5730\u8cea\u8abf\u67fb","client_name":"\u56fd\u571f\u4ea4\u901a\u7701\u95a2\u6771\u5730\u65b9\u6574\u5099\u5c40\u9577\u91ce\u56fd\u9053\u4e8b\u52d9\u6240","boring_xml_url":40,"boring_view_url":1,"soilmap_view_url":null,"soiltest_xml_url":0,"soiltest_view_url":0},{"id":154012,"code":"B4KJ201801004-2261","latitude":"36.20740444","longitude":"137.9224403","source_code":"KT54372744006","project_name":"","survey_name":"\u677e\u672c\u6ce2\u7530\u9053\u8def\u5730\u8cea\u8abf\u67fb","client_name":"\u56fd\u571f\u4ea4\u901a\u7701\u95a2\u6771\u5730\u65b9\u6574\u5099\u5c40\u9577\u91ce\u56fd\u9053\u4e8b\u52d9\u6240","boring_xml_url":40,"boring_view_url":1,"soilmap_view_url":null,"soiltest_xml_url":0,"soiltest_view_url":0},{"id":154011,"code":"B4KJ201801004-2260","latitude":"36.20790444","longitude":"137.9282175","source_code":"KT54372744005","project_name":"","survey_name":"\u677e\u672c\u6ce2\u7530\u9053\u8def\u5730\u8cea\u8abf\u67fb","client_name":"\u56fd\u571f\u4ea4\u901a\u7701\u95a2\u6771\u5730\u65b9\u6574\u5099\u5c40\u9577\u91ce\u56fd\u9053\u4e8b\u52d9\u6240","boring_xml_url":40,"boring_view_url":1,"soilmap_view_url":null,"soiltest_xml_url":0,"soiltest_view_url":0},{"id":154010,"code":"B4KJ201801004-2259","latitude":"36.20796","longitude":"137.9301894","source_code":"KT54372744004","project_name":"","survey_name":"\u677e\u672c\u6ce2\u7530\u9053\u8def\u5730\u8cea\u8abf\u67fb","client_name":"\u56fd\u571f\u4ea4\u901a\u7701\u95a2\u6771\u5730\u65b9\u6574\u5099\u5c40\u9577\u91ce\u56fd\u9053\u4e8b\u52d9\u6240","boring_xml_url":40,"boring_view_url":1,"soilmap_view_url":null,"soiltest_xml_url":0,"soiltest_view_url":0},{"id":154009,"code":"B4KJ201801004-2258","latitude":"36.19749","longitude":"137.9674644","source_code":"KT54372737002","project_name":"","survey_name":"\u56fd\u905319\u53f7\u53ca\u307320\u53f7\u7dda\u5730\u8cea\u8abf\u67fb","client_name":"\u56fd\u571f\u4ea4\u901a\u7701\u95a2\u6771\u5730\u65b9\u6574\u5099\u5c40\u9577\u91ce\u56fd\u9053\u4e8b\u52d9\u6240","boring_xml_url":40,"boring_view_url":1,"soilmap_view_url":null,"soiltest_xml_url":0,"soiltest_view_url":0},{"id":154008,"code":"B4KJ201801004-2257","latitude":"36.19896194","longitude":"137.9656589","source_code":"KT54372737001","project_name":"","survey_name":"\u56fd\u905319\u53f7\u53ca\u307320\u53f7\u7dda\u5730\u8cea\u8abf\u67fb","client_name":"\u56fd\u571f\u4ea4\u901a\u7701\u95a2\u6771\u5730\u65b9\u6574\u5099\u5c40\u9577\u91ce\u56fd\u9053\u4e8b\u52d9\u6240","boring_xml_url":40,"boring_view_url":1,"soilmap_view_url":null,"soiltest_xml_url":0,"soiltest_view_url":0},{"id":154007,"code":"B4KJ201801004-2256","latitude":"36.19700889","longitude":"137.6194392","source_code":"KT54372439005","project_name":"","survey_name":"\u4e2d\u90e8\u7e26\u8cab\u81ea\u52d5\u8eca\u9053(\u4e0a\u5272\u6ca2\u5730\u533a)\u5730\u8cea\u8abf\u67fb(\u305d\u306e2)","client_name":"\u56fd\u571f\u4ea4\u901a\u7701\u95a2\u6771\u5730\u65b9\u6574\u5099\u5c40\u9577\u91ce\u56fd\u9053\u4e8b\u52d9\u6240","boring_xml_url":40,"boring_view_url":1,"soilmap_view_url":null,"soiltest_xml_url":0,"soiltest_view_url":0},{"id":154006,"code":"B4KJ201801004-2255","latitude":"36.19700889","longitude":"137.6194392","source_code":"KT54372439001","project_name":"","survey_name":"\u4e2d\u90e8\u7e26\u8cab\u81ea\u52d5\u8eca\u9053(\u4e0a\u5272\u6ca2\u5730\u533a)\u5730\u8cea\u8abf\u67fb","client_name":"\u56fd\u571f\u4ea4\u901a\u7701\u95a2\u6771\u5730\u65b9\u6574\u5099\u5c40\u9577\u91ce\u56fd\u9053\u4e8b\u52d9\u6240","boring_xml_url":40,"boring_view_url":1,"soilmap_view_url":null,"soiltest_xml_url":0,"soiltest_view_url":0},{"id":154005,"code":"B4KJ201801004-2254","latitude":"36.11522194","longitude":"137.9800778","source_code":"KT54371738040","project_name":"","survey_name":"\u5869\u5c3b\u5317\u62e1\u5e45\u9053\u8def\u8a73\u7d30\u8a2d\u8a08\u4ed6\u696d\u52d9\u59d4\u8a17","client_name":"\u56fd\u571f\u4ea4\u901a\u7701\u95a2\u6771\u5730\u65b9\u6574\u5099\u5c40\u9577\u91ce\u56fd\u9053\u4e8b\u52d9\u6240","boring_xml_url":40,"boring_view_url":1,"soilmap_view_url":null,"soiltest_xml_url":0,"soiltest_view_url":0},{"id":154004,"code":"B4KJ201801004-2253","latitude":"36.11466639","longitude":"137.9811886","source_code":"KT54371738039","project_name":"","survey_name":"\u5869\u5c3b\u5317\u62e1\u5e45\u9053\u8def\u8a73\u7d30\u8a2d\u8a08\u4ed6\u696d\u52d9\u59d4\u8a17","client_name":"\u56fd\u571f\u4ea4\u901a\u7701\u95a2\u6771\u5730\u65b9\u6574\u5099\u5c40\u9577\u91ce\u56fd\u9053\u4e8b\u52d9\u6240","boring_xml_url":40,"boring_view_url":1,"soilmap_view_url":null,"soiltest_xml_url":0,"soiltest_view_url":0},{"id":154003,"code":"B4KJ201801004-2252","latitude":"36.11538861","longitude":"137.9808553","source_code":"KT54371738032","project_name":"","survey_name":"\u5869\u5c3bBP\u5730\u8cea\u8abf\u67fb(\u305d\u306e2)","client_name":"\u56fd\u571f\u4ea4\u901a\u7701\u95a2\u6771\u5730\u65b9\u6574\u5099\u5c40\u9577\u91ce\u56fd\u9053\u4e8b\u52d9\u6240","boring_xml_url":40,"boring_view_url":1,"soilmap_view_url":null,"soiltest_xml_url":0,"soiltest_view_url":0},{"id":154002,"code":"B4KJ201801004-2251","latitude":"36.11358333","longitude":"137.9823275","source_code":"KT54371738031","project_name":"","survey_name":"\u5869\u5c3bBP\u5730\u8cea\u8abf\u67fb","client_name":"\u56fd\u571f\u4ea4\u901a\u7701\u95a2\u6771\u5730\u65b9\u6574\u5099\u5c40\u9577\u91ce\u56fd\u9053\u4e8b\u52d9\u6240","boring_xml_url":40,"boring_view_url":1,"soilmap_view_url":null,"soiltest_xml_url":0,"soiltest_view_url":0},{"id":154001,"code":"B4KJ201801004-2250","latitude":"36.11358333","longitude":"137.9823275","source_code":"KT54371738030","project_name":"","survey_name":"\u5869\u5c3bBP\u5730\u8cea\u8abf\u67fb","client_name":"\u56fd\u571f\u4ea4\u901a\u7701\u95a2\u6771\u5730\u65b9\u6574\u5099\u5c40\u9577\u91ce\u56fd\u9053\u4e8b\u52d9\u6240","boring_xml_url":40,"boring_view_url":1,"soilmap_view_url":null,"soiltest_xml_url":0,"soiltest_view_url":0},{"id":154000,"code":"B4KJ201801004-2249","latitude":"36.11308333","longitude":"137.9824386","source_code":"KT54371738029","project_name":"","survey_name":"\u5869\u5c3bBP\u5730\u8cea\u8abf\u67fb","client_name":"\u56fd\u571f\u4ea4\u901a\u7701\u95a2\u6771\u5730\u65b9\u6574\u5099\u5c40\u9577\u91ce\u56fd\u9053\u4e8b\u52d9\u6240","boring_xml_url":40,"boring_view_url":1,"soilmap_view_url":null,"soiltest_xml_url":0,"soiltest_view_url":0},{"id":153999,"code":"B4KJ201801004-2248","latitude":"36.11363889","longitude":"137.9824664","source_code":"KT54371738028","project_name":"","survey_name":"\u5869\u5c3bBP\u5730\u8cea\u8abf\u67fb","client_name":"\u56fd\u571f\u4ea4\u901a\u7701\u95a2\u6771\u5730\u65b9\u6574\u5099\u5c40\u9577\u91ce\u56fd\u9053\u4e8b\u52d9\u6240","boring_xml_url":40,"boring_view_url":1,"soilmap_view_url":null,"soiltest_xml_url":0,"soiltest_view_url":0},{"id":153998,"code":"B4KJ201801004-2247","latitude":"36.11363889","longitude":"137.9824664","source_code":"KT54371738027","project_name":"","survey_name":"\u5869\u5c3bBP\u5730\u8cea\u8abf\u67fb","client_name":"\u56fd\u571f\u4ea4\u901a\u7701\u95a2\u6771\u5730\u65b9\u6574\u5099\u5c40\u9577\u91ce\u56fd\u9053\u4e8b\u52d9\u6240","boring_xml_url":40,"boring_view_url":1,"soilmap_view_url":null,"soiltest_xml_url":0,"soiltest_view_url":0},{"id":153997,"code":"B4KJ201801004-2246","latitude":"36.11319444","longitude":"137.9832997","source_code":"KT54371738026","project_name":"","survey_name":"\u5869\u5c3bBP\u5730\u8cea\u8abf\u67fb","client_name":"\u56fd\u571f\u4ea4\u901a\u7701\u95a2\u6771\u5730\u65b9\u6574\u5099\u5c40\u9577\u91ce\u56fd\u9053\u4e8b\u52d9\u6240","boring_xml_url":40,"boring_view_url":1,"soilmap_view_url":null,"soiltest_xml_url":0,"soiltest_view_url":0},{"id":153996,"code":"B4KJ201801004-2245","latitude":"36.11644389","longitude":"137.9764947","source_code":"KT54371738024","project_name":"","survey_name":"\u5869\u5c3bBP\u5869\u6ca2\u6a4b\u7b49\u5730\u8cea\u8abf\u67fb","client_name":"\u56fd\u571f\u4ea4\u901a\u7701\u95a2\u6771\u5730\u65b9\u6574\u5099\u5c40\u9577\u91ce\u56fd\u9053\u4e8b\u52d9\u6240","boring_xml_url":40,"boring_view_url":1,"soilmap_view_url":null,"soiltest_xml_url":0,"soiltest_view_url":0},{"id":153995,"code":"B4KJ201801004-2244","latitude":"36.11644389","longitude":"137.97755","source_code":"KT54371738023","project_name":"","survey_name":"\u5869\u5c3bBP\u5869\u6ca2\u6a4b\u7b49\u5730\u8cea\u8abf\u67fb","client_name":"\u56fd\u571f\u4ea4\u901a\u7701\u95a2\u6771\u5730\u65b9\u6574\u5099\u5c40\u9577\u91ce\u56fd\u9053\u4e8b\u52d9\u6240","boring_xml_url":40,"boring_view_url":1,"soilmap_view_url":null,"soiltest_xml_url":0,"soiltest_view_url":0},{"id":153994,"code":"B4KJ201801004-2243","latitude":"36.1155275","longitude":"137.9802442","source_code":"KT54371738022","project_name":"","survey_name":"\u5869\u5c3bBP\u5869\u6ca2\u6a4b\u7b49\u5730\u8cea\u8abf\u67fb","client_name":"\u56fd\u571f\u4ea4\u901a\u7701\u95a2\u6771\u5730\u65b9\u6574\u5099\u5c40\u9577\u91ce\u56fd\u9053\u4e8b\u52d9\u6240","boring_xml_url":40,"boring_view_url":1,"soilmap_view_url":null,"soiltest_xml_url":0,"soiltest_view_url":0},{"id":153993,"code":"B4KJ201801004-2242","latitude":"36.11530528","longitude":"137.9799667","source_code":"KT54371738021","project_name":"","survey_name":"\u5869\u5c3bBP\u5869\u6ca2\u6a4b\u7b49\u5730\u8cea\u8abf\u67fb","client_name":"\u56fd\u571f\u4ea4\u901a\u7701\u95a2\u6771\u5730\u65b9\u6574\u5099\u5c40\u9577\u91ce\u56fd\u9053\u4e8b\u52d9\u6240","boring_xml_url":40,"boring_view_url":1,"soilmap_view_url":null,"soiltest_xml_url":0,"soiltest_view_url":0},{"id":153992,"code":"B4KJ201801004-2241","latitude":"36.11530528","longitude":"137.9805219","source_code":"KT54371738020","project_name":"","survey_name":"\u5869\u5c3bBP\u5869\u6ca2\u6a4b\u7b49\u5730\u8cea\u8abf\u67fb","client_name":"\u56fd\u571f\u4ea4\u901a\u7701\u95a2\u6771\u5730\u65b9\u6574\u5099\u5c40\u9577\u91ce\u56fd\u9053\u4e8b\u52d9\u6240","boring_xml_url":40,"boring_view_url":1,"soilmap_view_url":null,"soiltest_xml_url":0,"soiltest_view_url":0},{"id":153991,"code":"B4KJ201801004-2240","latitude":"36.11508306","longitude":"137.9802444","source_code":"KT54371738019","project_name":"","survey_name":"\u5869\u5c3bBP\u5869\u6ca2\u6a4b\u7b49\u5730\u8cea\u8abf\u67fb","client_name":"\u56fd\u571f\u4ea4\u901a\u7701\u95a2\u6771\u5730\u65b9\u6574\u5099\u5c40\u9577\u91ce\u56fd\u9053\u4e8b\u52d9\u6240","boring_xml_url":40,"boring_view_url":1,"soilmap_view_url":null,"soiltest_xml_url":0,"soiltest_view_url":0},{"id":153990,"code":"B4KJ201801004-2239","latitude":"36.11519417","longitude":"137.9803833","source_code":"KT54371738018","project_name":"","survey_name":"\u5869\u5c3bBP\u5869\u6ca2\u6a4b\u7b49\u5730\u8cea\u8abf\u67fb","client_name":"\u56fd\u571f\u4ea4\u901a\u7701\u95a2\u6771\u5730\u65b9\u6574\u5099\u5c40\u9577\u91ce\u56fd\u9053\u4e8b\u52d9\u6240","boring_xml_url":40,"boring_view_url":1,"soilmap_view_url":null,"soiltest_xml_url":0,"soiltest_view_url":0},{"id":153989,"code":"B4KJ201801004-2238","latitude":"36.11486083","longitude":"137.9807997","source_code":"KT54371738017","project_name":"","survey_name":"\u5869\u5c3bBP\u5869\u6ca2\u6a4b\u7b49\u5730\u8cea\u8abf\u67fb","client_name":"\u56fd\u571f\u4ea4\u901a\u7701\u95a2\u6771\u5730\u65b9\u6574\u5099\u5c40\u9577\u91ce\u56fd\u9053\u4e8b\u52d9\u6240","boring_xml_url":40,"boring_view_url":1,"soilmap_view_url":null,"soiltest_xml_url":0,"soiltest_view_url":0},{"id":153988,"code":"B4KJ201801004-2237","latitude":"36.11486083","longitude":"137.9813553","source_code":"KT54371738016","project_name":"","survey_name":"\u5869\u5c3bBP\u5869\u6ca2\u6a4b\u7b49\u5730\u8cea\u8abf\u67fb","client_name":"\u56fd\u571f\u4ea4\u901a\u7701\u95a2\u6771\u5730\u65b9\u6574\u5099\u5c40\u9577\u91ce\u56fd\u9053\u4e8b\u52d9\u6240","boring_xml_url":40,"boring_view_url":1,"soilmap_view_url":null,"soiltest_xml_url":0,"soiltest_view_url":0},{"id":153987,"code":"B4KJ201801004-2236","latitude":"36.11463861","longitude":"137.9796889","source_code":"KT54371738015","project_name":"","survey_name":"\u5869\u5c3bBP\u5869\u6ca2\u6a4b\u7b49\u5730\u8cea\u8abf\u67fb","client_name":"\u56fd\u571f\u4ea4\u901a\u7701\u95a2\u6771\u5730\u65b9\u6574\u5099\u5c40\u9577\u91ce\u56fd\u9053\u4e8b\u52d9\u6240","boring_xml_url":40,"boring_view_url":1,"soilmap_view_url":null,"soiltest_xml_url":0,"soiltest_view_url":0},{"id":153986,"code":"B4KJ201801004-2235","latitude":"36.11408333","longitude":"137.9823275","source_code":"KT54371738014","project_name":"","survey_name":"\u4e00\u822c\u56fd\u905320\u53f7\u5869\u5c3b\u30d0\u30a4\u30d1\u30b9\u5730\u8cea\u8abf\u67fb","client_name":"\u56fd\u571f\u4ea4\u901a\u7701\u95a2\u6771\u5730\u65b9\u6574\u5099\u5c40\u9577\u91ce\u56fd\u9053\u4e8b\u52d9\u6240","boring_xml_url":40,"boring_view_url":1,"soilmap_view_url":null,"soiltest_xml_url":0,"soiltest_view_url":0}]}}