{"header":{"xyz":{"source":[],"mosaic":false},"page":5554,"raw":{"soiltest_result":"0","bbox":"57.598333,109.544722,1.933333,163.806111","page":"5554"},"conditions":{"soiltest_result":0,"north":57.598333,"west":109.544722,"south":1.933333,"east":163.806111},"success":true,"message":""},"data":{"meta":{"total":212844,"page":5554,"pages":7095,"count":30},"values":[{"id":153955,"code":"B4KJ201801004-2204","latitude":"36.10997278","longitude":"137.9852442","source_code":"KT54371729019","project_name":"","survey_name":"\u5869\u5c3bBP\u5730\u8cea\u8abf\u67fb","client_name":"\u56fd\u571f\u4ea4\u901a\u7701\u95a2\u6771\u5730\u65b9\u6574\u5099\u5c40\u9577\u91ce\u56fd\u9053\u4e8b\u52d9\u6240","boring_xml_url":40,"boring_view_url":1,"soilmap_view_url":null,"soiltest_xml_url":0,"soiltest_view_url":0},{"id":153954,"code":"B4KJ201801004-2203","latitude":"36.10883389","longitude":"137.9855219","source_code":"KT54371729018","project_name":"","survey_name":"\u5869\u5c3bBP\u5730\u8cea\u8abf\u67fb","client_name":"\u56fd\u571f\u4ea4\u901a\u7701\u95a2\u6771\u5730\u65b9\u6574\u5099\u5c40\u9577\u91ce\u56fd\u9053\u4e8b\u52d9\u6240","boring_xml_url":40,"boring_view_url":1,"soilmap_view_url":null,"soiltest_xml_url":0,"soiltest_view_url":0},{"id":153953,"code":"B4KJ201801004-2202","latitude":"36.10383444","longitude":"137.9871886","source_code":"KT54371729017","project_name":"","survey_name":"\u5869\u5c3bBP\u5730\u8cea\u8abf\u67fb","client_name":"\u56fd\u571f\u4ea4\u901a\u7701\u95a2\u6771\u5730\u65b9\u6574\u5099\u5c40\u9577\u91ce\u56fd\u9053\u4e8b\u52d9\u6240","boring_xml_url":40,"boring_view_url":1,"soilmap_view_url":null,"soiltest_xml_url":0,"soiltest_view_url":0},{"id":153952,"code":"B4KJ201801004-2201","latitude":"36.10958389","longitude":"137.9860219","source_code":"KT54371729016","project_name":"","survey_name":"\u5869\u5c3bBP\u6817\u6728\u6ca2\u6a4b\u7b49\u5730\u8cea\u8abf\u67fb","client_name":"\u56fd\u571f\u4ea4\u901a\u7701\u95a2\u6771\u5730\u65b9\u6574\u5099\u5c40\u9577\u91ce\u56fd\u9053\u4e8b\u52d9\u6240","boring_xml_url":40,"boring_view_url":1,"soilmap_view_url":null,"soiltest_xml_url":0,"soiltest_view_url":0},{"id":153951,"code":"B4KJ201801004-2200","latitude":"36.10947278","longitude":"137.9855219","source_code":"KT54371729015","project_name":"","survey_name":"\u5869\u5c3bBP\u6817\u6728\u6ca2\u6a4b\u7b49\u5730\u8cea\u8abf\u67fb","client_name":"\u56fd\u571f\u4ea4\u901a\u7701\u95a2\u6771\u5730\u65b9\u6574\u5099\u5c40\u9577\u91ce\u56fd\u9053\u4e8b\u52d9\u6240","boring_xml_url":40,"boring_view_url":1,"soilmap_view_url":null,"soiltest_xml_url":0,"soiltest_view_url":0},{"id":153950,"code":"B4KJ201801004-2199","latitude":"36.10925056","longitude":"137.9860775","source_code":"KT54371729014","project_name":"","survey_name":"\u5869\u5c3bBP\u6817\u6728\u6ca2\u6a4b\u7b49\u5730\u8cea\u8abf\u67fb","client_name":"\u56fd\u571f\u4ea4\u901a\u7701\u95a2\u6771\u5730\u65b9\u6574\u5099\u5c40\u9577\u91ce\u56fd\u9053\u4e8b\u52d9\u6240","boring_xml_url":40,"boring_view_url":1,"soilmap_view_url":null,"soiltest_xml_url":0,"soiltest_view_url":0},{"id":153949,"code":"B4KJ201801004-2198","latitude":"36.10888944","longitude":"137.9857442","source_code":"KT54371729013","project_name":"","survey_name":"\u5869\u5c3bBP\u6817\u6728\u6ca2\u6a4b\u7b49\u5730\u8cea\u8abf\u67fb","client_name":"\u56fd\u571f\u4ea4\u901a\u7701\u95a2\u6771\u5730\u65b9\u6574\u5099\u5c40\u9577\u91ce\u56fd\u9053\u4e8b\u52d9\u6240","boring_xml_url":40,"boring_view_url":1,"soilmap_view_url":null,"soiltest_xml_url":0,"soiltest_view_url":0},{"id":153948,"code":"B4KJ201801004-2197","latitude":"36.108445","longitude":"137.9857997","source_code":"KT54371729012","project_name":"","survey_name":"\u5869\u5c3bBP\u6817\u6728\u6ca2\u6a4b\u7b49\u5730\u8cea\u8abf\u67fb","client_name":"\u56fd\u571f\u4ea4\u901a\u7701\u95a2\u6771\u5730\u65b9\u6574\u5099\u5c40\u9577\u91ce\u56fd\u9053\u4e8b\u52d9\u6240","boring_xml_url":40,"boring_view_url":1,"soilmap_view_url":null,"soiltest_xml_url":0,"soiltest_view_url":0},{"id":153947,"code":"B4KJ201801004-2196","latitude":"36.10855611","longitude":"137.9863553","source_code":"KT54371729011","project_name":"","survey_name":"\u5869\u5c3bBP\u6817\u6728\u6ca2\u6a4b\u7b49\u5730\u8cea\u8abf\u67fb","client_name":"\u56fd\u571f\u4ea4\u901a\u7701\u95a2\u6771\u5730\u65b9\u6574\u5099\u5c40\u9577\u91ce\u56fd\u9053\u4e8b\u52d9\u6240","boring_xml_url":40,"boring_view_url":1,"soilmap_view_url":null,"soiltest_xml_url":0,"soiltest_view_url":0},{"id":153946,"code":"B4KJ201801004-2195","latitude":"36.10997278","longitude":"137.9849108","source_code":"KT54371729010","project_name":"","survey_name":"\u4e00\u822c\u56fd\u905320\u53f7\u5869\u5c3b\u30d0\u30a4\u30d1\u30b9\u5730\u8cea\u8abf\u67fb","client_name":"\u56fd\u571f\u4ea4\u901a\u7701\u95a2\u6771\u5730\u65b9\u6574\u5099\u5c40\u9577\u91ce\u56fd\u9053\u4e8b\u52d9\u6240","boring_xml_url":40,"boring_view_url":1,"soilmap_view_url":null,"soiltest_xml_url":0,"soiltest_view_url":0},{"id":153945,"code":"B4KJ201801004-2194","latitude":"36.11005611","longitude":"137.9853553","source_code":"KT54371729009","project_name":"","survey_name":"\u4e00\u822c\u56fd\u905320\u53f7\u5869\u5c3b\u30d0\u30a4\u30d1\u30b9\u5730\u8cea\u8abf\u67fb","client_name":"\u56fd\u571f\u4ea4\u901a\u7701\u95a2\u6771\u5730\u65b9\u6574\u5099\u5c40\u9577\u91ce\u56fd\u9053\u4e8b\u52d9\u6240","boring_xml_url":40,"boring_view_url":1,"soilmap_view_url":null,"soiltest_xml_url":0,"soiltest_view_url":0},{"id":153944,"code":"B4KJ201801004-2193","latitude":"36.10897278","longitude":"137.9851886","source_code":"KT54371729008","project_name":"","survey_name":"\u4e00\u822c\u56fd\u905320\u53f7\u5869\u5c3b\u30d0\u30a4\u30d1\u30b9\u5730\u8cea\u8abf\u67fb","client_name":"\u56fd\u571f\u4ea4\u901a\u7701\u95a2\u6771\u5730\u65b9\u6574\u5099\u5c40\u9577\u91ce\u56fd\u9053\u4e8b\u52d9\u6240","boring_xml_url":40,"boring_view_url":1,"soilmap_view_url":null,"soiltest_xml_url":0,"soiltest_view_url":0},{"id":153943,"code":"B4KJ201801004-2192","latitude":"36.10911167","longitude":"137.9860219","source_code":"KT54371729007","project_name":"","survey_name":"\u4e00\u822c\u56fd\u905320\u53f7\u5869\u5c3b\u30d0\u30a4\u30d1\u30b9\u5730\u8cea\u8abf\u67fb","client_name":"\u56fd\u571f\u4ea4\u901a\u7701\u95a2\u6771\u5730\u65b9\u6574\u5099\u5c40\u9577\u91ce\u56fd\u9053\u4e8b\u52d9\u6240","boring_xml_url":40,"boring_view_url":1,"soilmap_view_url":null,"soiltest_xml_url":0,"soiltest_view_url":0},{"id":153942,"code":"B4KJ201801004-2191","latitude":"36.10825056","longitude":"137.9855775","source_code":"KT54371729006","project_name":"","survey_name":"\u4e00\u822c\u56fd\u905320\u53f7\u5869\u5c3b\u30d0\u30a4\u30d1\u30b9\u5730\u8cea\u8abf\u67fb","client_name":"\u56fd\u571f\u4ea4\u901a\u7701\u95a2\u6771\u5730\u65b9\u6574\u5099\u5c40\u9577\u91ce\u56fd\u9053\u4e8b\u52d9\u6240","boring_xml_url":40,"boring_view_url":1,"soilmap_view_url":null,"soiltest_xml_url":0,"soiltest_view_url":0},{"id":153941,"code":"B4KJ201801004-2190","latitude":"36.10719528","longitude":"137.9862442","source_code":"KT54371729005","project_name":"","survey_name":"\u4e00\u822c\u56fd\u905320\u53f7\u5869\u5c3b\u30d0\u30a4\u30d1\u30b9\u5730\u8cea\u8abf\u67fb","client_name":"\u56fd\u571f\u4ea4\u901a\u7701\u95a2\u6771\u5730\u65b9\u6574\u5099\u5c40\u9577\u91ce\u56fd\u9053\u4e8b\u52d9\u6240","boring_xml_url":40,"boring_view_url":1,"soilmap_view_url":null,"soiltest_xml_url":0,"soiltest_view_url":0},{"id":153940,"code":"B4KJ201801004-2189","latitude":"36.10713972","longitude":"137.9855497","source_code":"KT54371729004","project_name":"","survey_name":"\u4e00\u822c\u56fd\u905320\u53f7\u5869\u5c3b\u30d0\u30a4\u30d1\u30b9\u5730\u8cea\u8abf\u67fb","client_name":"\u56fd\u571f\u4ea4\u901a\u7701\u95a2\u6771\u5730\u65b9\u6574\u5099\u5c40\u9577\u91ce\u56fd\u9053\u4e8b\u52d9\u6240","boring_xml_url":40,"boring_view_url":1,"soilmap_view_url":null,"soiltest_xml_url":0,"soiltest_view_url":0},{"id":153939,"code":"B4KJ201801004-2188","latitude":"36.10422333","longitude":"137.9875219","source_code":"KT54371729003","project_name":"","survey_name":"\u4e00\u822c\u56fd\u905320\u53f7\u5869\u5c3b\u30d0\u30a4\u30d1\u30b9\u5730\u8cea\u8abf\u67fb","client_name":"\u56fd\u571f\u4ea4\u901a\u7701\u95a2\u6771\u5730\u65b9\u6574\u5099\u5c40\u9577\u91ce\u56fd\u9053\u4e8b\u52d9\u6240","boring_xml_url":40,"boring_view_url":1,"soilmap_view_url":null,"soiltest_xml_url":0,"soiltest_view_url":0},{"id":153938,"code":"B4KJ201801004-2187","latitude":"36.10327917","longitude":"137.9874108","source_code":"KT54371729002","project_name":"","survey_name":"\u4e00\u822c\u56fd\u905320\u53f7\u5869\u5c3b\u30d0\u30a4\u30d1\u30b9\u5730\u8cea\u8abf\u67fb","client_name":"\u56fd\u571f\u4ea4\u901a\u7701\u95a2\u6771\u5730\u65b9\u6574\u5099\u5c40\u9577\u91ce\u56fd\u9053\u4e8b\u52d9\u6240","boring_xml_url":40,"boring_view_url":1,"soilmap_view_url":null,"soiltest_xml_url":0,"soiltest_view_url":0},{"id":153937,"code":"B4KJ201801004-2186","latitude":"36.10358444","longitude":"137.9878831","source_code":"KT54371729001","project_name":"","survey_name":"\u4e00\u822c\u56fd\u905320\u53f7\u5869\u5c3b\u30d0\u30a4\u30d1\u30b9\u5730\u8cea\u8abf\u67fb","client_name":"\u56fd\u571f\u4ea4\u901a\u7701\u95a2\u6771\u5730\u65b9\u6574\u5099\u5c40\u9577\u91ce\u56fd\u9053\u4e8b\u52d9\u6240","boring_xml_url":40,"boring_view_url":1,"soilmap_view_url":null,"soiltest_xml_url":0,"soiltest_view_url":0},{"id":153936,"code":"B4KJ201801004-2185","latitude":"36.11108361","longitude":"137.9841053","source_code":"KT54371728002","project_name":"","survey_name":"\u5869\u5c3bBP\u5730\u8cea\u8abf\u67fb","client_name":"\u56fd\u571f\u4ea4\u901a\u7701\u95a2\u6771\u5730\u65b9\u6574\u5099\u5c40\u9577\u91ce\u56fd\u9053\u4e8b\u52d9\u6240","boring_xml_url":40,"boring_view_url":1,"soilmap_view_url":null,"soiltest_xml_url":0,"soiltest_view_url":0},{"id":153935,"code":"B4KJ201801004-2184","latitude":"36.11108361","longitude":"137.9841053","source_code":"KT54371728001","project_name":"","survey_name":"\u5869\u5c3bBP\u5730\u8cea\u8abf\u67fb","client_name":"\u56fd\u571f\u4ea4\u901a\u7701\u95a2\u6771\u5730\u65b9\u6574\u5099\u5c40\u9577\u91ce\u56fd\u9053\u4e8b\u52d9\u6240","boring_xml_url":40,"boring_view_url":1,"soilmap_view_url":null,"soiltest_xml_url":0,"soiltest_view_url":0},{"id":153934,"code":"B4KJ201801004-2183","latitude":"36.14090722","longitude":"137.7419308","source_code":"KT54371569004","project_name":"","survey_name":"\u4e2d\u90e8\u7e26\u8cab\u81ea\u52d5\u8eca\u9053\u4e94\u9818\u6ca2\u5730\u533a\u5730\u8cea\u8abf\u67fb","client_name":"\u56fd\u571f\u4ea4\u901a\u7701\u95a2\u6771\u5730\u65b9\u6574\u5099\u5c40\u9577\u91ce\u56fd\u9053\u4e8b\u52d9\u6240","boring_xml_url":40,"boring_view_url":1,"soilmap_view_url":null,"soiltest_xml_url":0,"soiltest_view_url":0},{"id":153933,"code":"B4KJ201801004-2182","latitude":"36.00058389","longitude":"140.6439372","source_code":"KT53407591010","project_name":"","survey_name":"\u5e73\u621012\u5e74\u5ea6 \u9e7f\u5d8bBP\u69cb\u9020\u7269\u8a2d\u8a08\u696d\u52d9\u59d4\u8a17","client_name":"\u56fd\u571f\u4ea4\u901a\u7701\u95a2\u6771\u5730\u65b9\u6574\u5099\u5c40\u5e38\u9678\u6cb3\u5ddd\u56fd\u9053\u4e8b\u52d9\u6240","boring_xml_url":40,"boring_view_url":1,"soilmap_view_url":null,"soiltest_xml_url":0,"soiltest_view_url":0},{"id":153932,"code":"B4KJ201801004-2181","latitude":"36.00075056","longitude":"140.6436317","source_code":"KT53407591009","project_name":"","survey_name":"\u5e73\u621012\u5e74\u5ea6 \u9e7f\u5d8bBP\u69cb\u9020\u7269\u8a2d\u8a08\u696d\u52d9\u59d4\u8a17","client_name":"\u56fd\u571f\u4ea4\u901a\u7701\u95a2\u6771\u5730\u65b9\u6574\u5099\u5c40\u5e38\u9678\u6cb3\u5ddd\u56fd\u9053\u4e8b\u52d9\u6240","boring_xml_url":40,"boring_view_url":1,"soilmap_view_url":null,"soiltest_xml_url":0,"soiltest_view_url":0},{"id":153931,"code":"B4KJ201801004-2180","latitude":"35.94433972","longitude":"140.6247467","source_code":"KT53407520009","project_name":"","survey_name":"\u6839\u4e09\u7530\u5730\u533a\u57fa\u790e\u5730\u8cea\u8abf\u67fb","client_name":"\u56fd\u571f\u4ea4\u901a\u7701\u95a2\u6771\u5730\u65b9\u6574\u5099\u5c40\u971e\u30f6\u6d66\u6cb3\u5ddd\u4e8b\u52d9\u6240","boring_xml_url":40,"boring_view_url":1,"soilmap_view_url":null,"soiltest_xml_url":0,"soiltest_view_url":0},{"id":153930,"code":"B4KJ201801004-2179","latitude":"35.94433972","longitude":"140.6247467","source_code":"KT53407520008","project_name":"","survey_name":"\u6839\u4e09\u7530\u5730\u533a\u57fa\u790e\u5730\u8cea\u8abf\u67fb","client_name":"\u56fd\u571f\u4ea4\u901a\u7701\u95a2\u6771\u5730\u65b9\u6574\u5099\u5c40\u971e\u30f6\u6d66\u6cb3\u5ddd\u4e8b\u52d9\u6240","boring_xml_url":40,"boring_view_url":1,"soilmap_view_url":null,"soiltest_xml_url":0,"soiltest_view_url":0},{"id":153929,"code":"B4KJ201801004-2178","latitude":"35.94400639","longitude":"140.6243858","source_code":"KT53407520007","project_name":"","survey_name":"\u9c10\u5ddd\u5730\u533a\u57fa\u790e\u5730\u8cea\u8abf\u67fb","client_name":"\u56fd\u571f\u4ea4\u901a\u7701\u95a2\u6771\u5730\u65b9\u6574\u5099\u5c40\u971e\u30f6\u6d66\u6cb3\u5ddd\u4e8b\u52d9\u6240","boring_xml_url":40,"boring_view_url":1,"soilmap_view_url":null,"soiltest_xml_url":0,"soiltest_view_url":0},{"id":153928,"code":"B4KJ201801004-2177","latitude":"35.94442306","longitude":"140.6241914","source_code":"KT53407520006","project_name":"","survey_name":"\u9c10\u5ddd\u5730\u533a\u57fa\u790e\u5730\u8cea\u8abf\u67fb","client_name":"\u56fd\u571f\u4ea4\u901a\u7701\u95a2\u6771\u5730\u65b9\u6574\u5099\u5c40\u971e\u30f6\u6d66\u6cb3\u5ddd\u4e8b\u52d9\u6240","boring_xml_url":40,"boring_view_url":1,"soilmap_view_url":null,"soiltest_xml_url":0,"soiltest_view_url":0},{"id":153927,"code":"B4KJ201801004-2176","latitude":"35.94345083","longitude":"140.6259689","source_code":"KT53407520005","project_name":"","survey_name":"\u6839\u4e09\u7530\u821f\u6e9c\u308a\u59161\u30f6\u6240\u57fa\u790e\u5730\u8cea\u8abf\u67fb(\u305d\u306e1)","client_name":"\u56fd\u571f\u4ea4\u901a\u7701\u95a2\u6771\u5730\u65b9\u6574\u5099\u5c40\u971e\u30f6\u6d66\u6cb3\u5ddd\u4e8b\u52d9\u6240","boring_xml_url":40,"boring_view_url":1,"soilmap_view_url":null,"soiltest_xml_url":0,"soiltest_view_url":0},{"id":153926,"code":"B4KJ201801004-2175","latitude":"35.94322861","longitude":"140.62558","source_code":"KT53407520004","project_name":"","survey_name":"\u6839\u4e09\u7530\u821f\u6e9c\u308a\u59161\u30f6\u6240\u57fa\u790e\u5730\u8cea\u8abf\u67fb(\u305d\u306e1)","client_name":"\u56fd\u571f\u4ea4\u901a\u7701\u95a2\u6771\u5730\u65b9\u6574\u5099\u5c40\u971e\u30f6\u6d66\u6cb3\u5ddd\u4e8b\u52d9\u6240","boring_xml_url":40,"boring_view_url":1,"soilmap_view_url":null,"soiltest_xml_url":0,"soiltest_view_url":0}]}}