{"header":{"xyz":{"source":[],"mosaic":false},"page":556,"raw":{"soiltest_result":"0","bbox":"57.598333,109.544722,1.933333,163.806111","page":"556"},"conditions":{"soiltest_result":0,"north":57.598333,"west":109.544722,"south":1.933333,"east":163.806111},"success":true,"message":""},"data":{"meta":{"total":212844,"page":556,"pages":7095,"count":30},"values":[{"id":528738,"code":"B4KJ202201003-1274","latitude":"32.97383","longitude":"132.895473","source_code":"178861402000090001","project_name":"","survey_name":"\u5e73\u621029\uff0d30\u5e74\u5ea6\u3000\u6960\u5cf6\u5ddd\u653e\u6c34\u8def\u6a0b\u9580\u8a73\u7d30\u8a2d\u8a08\u696d\u52d9","client_name":"\u56fd\u571f\u4ea4\u901a\u7701\u3000\u56db\u56fd\u5730\u65b9\u6574\u5099\u5c40\u3000\u4e2d\u6751\u6cb3\u5ddd\u56fd\u9053\u4e8b\u52d9\u6240","boring_xml_url":64,"boring_view_url":1,"soilmap_view_url":null,"soiltest_xml_url":0,"soiltest_view_url":0},{"id":528737,"code":"B4KJ202201003-1273","latitude":"32.973898","longitude":"132.895671","source_code":"188855602000100007","project_name":"","survey_name":"\u5e73\u621029\uff0d30\u5e74\u5ea6\u3000\u6960\u5cf6\u5ddd\u653e\u6c34\u8def\u6a0b\u9580\u8a73\u7d30\u8a2d\u8a08\u696d\u52d9","client_name":"\u56fd\u571f\u4ea4\u901a\u7701\u3000\u56db\u56fd\u5730\u65b9\u6574\u5099\u5c40\u3000\u4e2d\u6751\u6cb3\u5ddd\u56fd\u9053\u4e8b\u52d9\u6240","boring_xml_url":64,"boring_view_url":1,"soilmap_view_url":null,"soiltest_xml_url":0,"soiltest_view_url":0},{"id":528736,"code":"B4KJ202201003-1272","latitude":"32.973662","longitude":"132.894977","source_code":"188855602000100006","project_name":"","survey_name":"\u5e73\u621029\uff0d30\u5e74\u5ea6\u3000\u6960\u5cf6\u5ddd\u653e\u6c34\u8def\u6a0b\u9580\u8a73\u7d30\u8a2d\u8a08\u696d\u52d9","client_name":"\u56fd\u571f\u4ea4\u901a\u7701\u3000\u56db\u56fd\u5730\u65b9\u6574\u5099\u5c40\u3000\u4e2d\u6751\u6cb3\u5ddd\u56fd\u9053\u4e8b\u52d9\u6240","boring_xml_url":64,"boring_view_url":1,"soilmap_view_url":null,"soiltest_xml_url":0,"soiltest_view_url":0},{"id":528735,"code":"B4KJ202201003-1271","latitude":"32.973999","longitude":"132.895969","source_code":"188855602000100005","project_name":"","survey_name":"\u5e73\u621029\uff0d30\u5e74\u5ea6\u3000\u6960\u5cf6\u5ddd\u653e\u6c34\u8def\u6a0b\u9580\u8a73\u7d30\u8a2d\u8a08\u696d\u52d9","client_name":"\u56fd\u571f\u4ea4\u901a\u7701\u3000\u56db\u56fd\u5730\u65b9\u6574\u5099\u5c40\u3000\u4e2d\u6751\u6cb3\u5ddd\u56fd\u9053\u4e8b\u52d9\u6240","boring_xml_url":64,"boring_view_url":1,"soilmap_view_url":null,"soiltest_xml_url":0,"soiltest_view_url":0},{"id":528734,"code":"B4KJ202201003-1270","latitude":"32.973696","longitude":"132.895654","source_code":"188855602000100004","project_name":"","survey_name":"\u5e73\u621029\uff0d30\u5e74\u5ea6\u3000\u6960\u5cf6\u5ddd\u653e\u6c34\u8def\u6a0b\u9580\u8a73\u7d30\u8a2d\u8a08\u696d\u52d9","client_name":"\u56fd\u571f\u4ea4\u901a\u7701\u3000\u56db\u56fd\u5730\u65b9\u6574\u5099\u5c40\u3000\u4e2d\u6751\u6cb3\u5ddd\u56fd\u9053\u4e8b\u52d9\u6240","boring_xml_url":64,"boring_view_url":1,"soilmap_view_url":null,"soiltest_xml_url":0,"soiltest_view_url":0},{"id":528733,"code":"B4KJ202201003-1269","latitude":"33.458752","longitude":"132.709206","source_code":"188855602000100003","project_name":"","survey_name":"\u5e73\u621030\u5e74\u5ea6\u3000\u5965\u306e\u5c71\u5730\u533a\u5730\u8cea\u8abf\u67fb\u696d\u52d9","client_name":"\"\u56fd\u571f\u4ea4\u901a\u7701 \u56db\u56fd\u5730\u65b9\u6574\u5099\u5c40 \u5c71\u9ce5\u5742\u30c0\u30e0\u5de5\u4e8b\u4e8b\u52d9\u6240\"","boring_xml_url":64,"boring_view_url":1,"soilmap_view_url":null,"soiltest_xml_url":0,"soiltest_view_url":0},{"id":528732,"code":"B4KJ202201003-1268","latitude":"33.458266","longitude":"132.708632","source_code":"188855602000100002","project_name":"","survey_name":"\u5e73\u621030\u5e74\u5ea6\u3000\u5965\u306e\u5c71\u5730\u533a\u5730\u8cea\u8abf\u67fb\u696d\u52d9","client_name":"\"\u56fd\u571f\u4ea4\u901a\u7701 \u56db\u56fd\u5730\u65b9\u6574\u5099\u5c40 \u5c71\u9ce5\u5742\u30c0\u30e0\u5de5\u4e8b\u4e8b\u52d9\u6240\"","boring_xml_url":64,"boring_view_url":1,"soilmap_view_url":null,"soiltest_xml_url":0,"soiltest_view_url":0},{"id":528731,"code":"B4KJ202201003-1267","latitude":"33.459561","longitude":"132.708422","source_code":"188855602000100001","project_name":"","survey_name":"\u5e73\u621030\u5e74\u5ea6\u3000\u5965\u306e\u5c71\u5730\u533a\u5730\u8cea\u8abf\u67fb\u696d\u52d9","client_name":"\"\u56fd\u571f\u4ea4\u901a\u7701 \u56db\u56fd\u5730\u65b9\u6574\u5099\u5c40 \u5c71\u9ce5\u5742\u30c0\u30e0\u5de5\u4e8b\u4e8b\u52d9\u6240\"","boring_xml_url":64,"boring_view_url":1,"soilmap_view_url":null,"soiltest_xml_url":0,"soiltest_view_url":0},{"id":528730,"code":"B4KJ202201003-1266","latitude":"33.459165","longitude":"132.709889","source_code":"188855602000090008","project_name":"","survey_name":"\u5e73\u621030\u5e74\u5ea6\u3000\u5965\u306e\u5c71\u5730\u533a\u5730\u8cea\u8abf\u67fb\u696d\u52d9","client_name":"\"\u56fd\u571f\u4ea4\u901a\u7701 \u56db\u56fd\u5730\u65b9\u6574\u5099\u5c40 \u5c71\u9ce5\u5742\u30c0\u30e0\u5de5\u4e8b\u4e8b\u52d9\u6240\"","boring_xml_url":64,"boring_view_url":1,"soilmap_view_url":null,"soiltest_xml_url":0,"soiltest_view_url":0},{"id":528729,"code":"B4KJ202201003-1265","latitude":"33.458256","longitude":"132.71019","source_code":"188855602000090007","project_name":"","survey_name":"\u5e73\u621030\u5e74\u5ea6\u3000\u5965\u306e\u5c71\u5730\u533a\u5730\u8cea\u8abf\u67fb\u696d\u52d9","client_name":"\"\u56fd\u571f\u4ea4\u901a\u7701 \u56db\u56fd\u5730\u65b9\u6574\u5099\u5c40 \u5c71\u9ce5\u5742\u30c0\u30e0\u5de5\u4e8b\u4e8b\u52d9\u6240\"","boring_xml_url":64,"boring_view_url":1,"soilmap_view_url":null,"soiltest_xml_url":0,"soiltest_view_url":0},{"id":528728,"code":"B4KJ202201003-1264","latitude":"33.458853","longitude":"132.709995","source_code":"188855602000090006","project_name":"","survey_name":"\u5e73\u621030\u5e74\u5ea6\u3000\u5965\u306e\u5c71\u5730\u533a\u5730\u8cea\u8abf\u67fb\u696d\u52d9","client_name":"\"\u56fd\u571f\u4ea4\u901a\u7701 \u56db\u56fd\u5730\u65b9\u6574\u5099\u5c40 \u5c71\u9ce5\u5742\u30c0\u30e0\u5de5\u4e8b\u4e8b\u52d9\u6240\"","boring_xml_url":64,"boring_view_url":1,"soilmap_view_url":null,"soiltest_xml_url":0,"soiltest_view_url":0},{"id":528727,"code":"B4KJ202201003-1263","latitude":"33.459612","longitude":"132.709742","source_code":"188855602000090005","project_name":"","survey_name":"\u5e73\u621030\u5e74\u5ea6\u3000\u5965\u306e\u5c71\u5730\u533a\u5730\u8cea\u8abf\u67fb\u696d\u52d9","client_name":"\"\u56fd\u571f\u4ea4\u901a\u7701 \u56db\u56fd\u5730\u65b9\u6574\u5099\u5c40 \u5c71\u9ce5\u5742\u30c0\u30e0\u5de5\u4e8b\u4e8b\u52d9\u6240\"","boring_xml_url":64,"boring_view_url":1,"soilmap_view_url":null,"soiltest_xml_url":0,"soiltest_view_url":0},{"id":528726,"code":"B4KJ202201003-1262","latitude":"33.474247","longitude":"132.715555","source_code":"188855602000090004","project_name":"","survey_name":"\u5e73\u621030\u5e74\u5ea6\u3000\u5965\u306e\u5c71\u5730\u533a\u5916\u5730\u8cea\u8abf\u67fb\u696d\u52d9","client_name":"\u56fd\u571f\u4ea4\u901a\u7701\u3000\u56db\u56fd\u5730\u65b9\u6574\u5099\u5c40\u3000\u5c71\u9ce5\u5742\u30c0\u30e0\u5de5\u4e8b\u4e8b\u52d9\u6240","boring_xml_url":64,"boring_view_url":1,"soilmap_view_url":null,"soiltest_xml_url":0,"soiltest_view_url":0},{"id":528725,"code":"B4KJ202201003-1261","latitude":"33.474252","longitude":"132.714714","source_code":"188855602000090003","project_name":"","survey_name":"\u5e73\u621030\u5e74\u5ea6\u3000\u5965\u306e\u5c71\u5730\u533a\u5916\u5730\u8cea\u8abf\u67fb\u696d\u52d9","client_name":"\u56fd\u571f\u4ea4\u901a\u7701\u3000\u56db\u56fd\u5730\u65b9\u6574\u5099\u5c40\u3000\u5c71\u9ce5\u5742\u30c0\u30e0\u5de5\u4e8b\u4e8b\u52d9\u6240","boring_xml_url":64,"boring_view_url":1,"soilmap_view_url":null,"soiltest_xml_url":0,"soiltest_view_url":0},{"id":528724,"code":"B4KJ202201003-1260","latitude":"33.473976","longitude":"132.715064","source_code":"188855602000090002","project_name":"","survey_name":"\u5e73\u621030\u5e74\u5ea6\u3000\u5965\u306e\u5c71\u5730\u533a\u5916\u5730\u8cea\u8abf\u67fb\u696d\u52d9","client_name":"\u56fd\u571f\u4ea4\u901a\u7701\u3000\u56db\u56fd\u5730\u65b9\u6574\u5099\u5c40\u3000\u5c71\u9ce5\u5742\u30c0\u30e0\u5de5\u4e8b\u4e8b\u52d9\u6240","boring_xml_url":64,"boring_view_url":1,"soilmap_view_url":null,"soiltest_xml_url":0,"soiltest_view_url":0},{"id":528723,"code":"B4KJ202201003-1259","latitude":"33.473726","longitude":"132.714618","source_code":"188855602000090001","project_name":"","survey_name":"\u5e73\u621030\u5e74\u5ea6\u3000\u5965\u306e\u5c71\u5730\u533a\u5916\u5730\u8cea\u8abf\u67fb\u696d\u52d9","client_name":"\u56fd\u571f\u4ea4\u901a\u7701\u3000\u56db\u56fd\u5730\u65b9\u6574\u5099\u5c40\u3000\u5c71\u9ce5\u5742\u30c0\u30e0\u5de5\u4e8b\u4e8b\u52d9\u6240","boring_xml_url":64,"boring_view_url":1,"soilmap_view_url":null,"soiltest_xml_url":0,"soiltest_view_url":0},{"id":528722,"code":"B4KJ202201003-1258","latitude":"33.459446","longitude":"132.707185","source_code":"188855602000080002","project_name":"","survey_name":"\u5e73\u621030\u5e74\u5ea6\u3000\u5965\u306e\u5c71\u5730\u533a\u5916\u5730\u8cea\u8abf\u67fb\u696d\u52d9","client_name":"\u56fd\u571f\u4ea4\u901a\u7701\u3000\u56db\u56fd\u5730\u65b9\u6574\u5099\u5c40\u3000\u5c71\u9ce5\u5742\u30c0\u30e0\u5de5\u4e8b\u4e8b\u52d9\u6240","boring_xml_url":64,"boring_view_url":1,"soilmap_view_url":null,"soiltest_xml_url":0,"soiltest_view_url":0},{"id":528721,"code":"B4KJ202201003-1257","latitude":"33.458607","longitude":"132.707081","source_code":"188855602000080001","project_name":"","survey_name":"\u5e73\u621030\u5e74\u5ea6\u3000\u5965\u306e\u5c71\u5730\u533a\u5916\u5730\u8cea\u8abf\u67fb\u696d\u52d9","client_name":"\u56fd\u571f\u4ea4\u901a\u7701\u3000\u56db\u56fd\u5730\u65b9\u6574\u5099\u5c40\u3000\u5c71\u9ce5\u5742\u30c0\u30e0\u5de5\u4e8b\u4e8b\u52d9\u6240","boring_xml_url":64,"boring_view_url":1,"soilmap_view_url":null,"soiltest_xml_url":0,"soiltest_view_url":0},{"id":528720,"code":"B4KJ202201003-1256","latitude":"33.458582","longitude":"132.707576","source_code":"188855602000070005","project_name":"","survey_name":"\u5e73\u621030\u5e74\u5ea6\u3000\u5965\u306e\u5c71\u5730\u533a\u5916\u5730\u8cea\u8abf\u67fb\u696d\u52d9","client_name":"\u56fd\u571f\u4ea4\u901a\u7701\u3000\u56db\u56fd\u5730\u65b9\u6574\u5099\u5c40\u3000\u5c71\u9ce5\u5742\u30c0\u30e0\u5de5\u4e8b\u4e8b\u52d9\u6240","boring_xml_url":64,"boring_view_url":1,"soilmap_view_url":null,"soiltest_xml_url":0,"soiltest_view_url":0},{"id":528719,"code":"B4KJ202201003-1255","latitude":"33.457775","longitude":"132.708714","source_code":"188855602000070004","project_name":"","survey_name":"\u5e73\u621030\u5e74\u5ea6\u3000\u5965\u306e\u5c71\u5730\u533a\u5916\u5730\u8cea\u8abf\u67fb\u696d\u52d9","client_name":"\u56fd\u571f\u4ea4\u901a\u7701\u3000\u56db\u56fd\u5730\u65b9\u6574\u5099\u5c40\u3000\u5c71\u9ce5\u5742\u30c0\u30e0\u5de5\u4e8b\u4e8b\u52d9\u6240","boring_xml_url":64,"boring_view_url":1,"soilmap_view_url":null,"soiltest_xml_url":0,"soiltest_view_url":0},{"id":528718,"code":"B4KJ202201003-1254","latitude":"33.462136","longitude":"132.704272","source_code":"188855602000070003","project_name":"","survey_name":"\u5e73\u621030\u5e74\u5ea6\u3000\u5c71\u9ce5\u5742\u30c0\u30e0\u30b5\u30a4\u30c8\u5468\u8fba\u5730\u8cea\u8abf\u67fb\u696d\u52d9","client_name":"\"\u56fd\u571f\u4ea4\u901a\u7701\u3000\u56db\u56fd\u5730\u65b9\u6574\u5099\u5c40 \u5c71\u9ce5\u5742\u30c0\u30e0\u5de5\u4e8b\u4e8b\u52d9\u6240\"","boring_xml_url":64,"boring_view_url":1,"soilmap_view_url":null,"soiltest_xml_url":0,"soiltest_view_url":0},{"id":528717,"code":"B4KJ202201003-1253","latitude":"33.461182","longitude":"132.704115","source_code":"188855602000070002","project_name":"","survey_name":"\u5e73\u621030\u5e74\u5ea6\u3000\u5c71\u9ce5\u5742\u30c0\u30e0\u30b5\u30a4\u30c8\u5468\u8fba\u5730\u8cea\u8abf\u67fb\u696d\u52d9","client_name":"\"\u56fd\u571f\u4ea4\u901a\u7701\u3000\u56db\u56fd\u5730\u65b9\u6574\u5099\u5c40 \u5c71\u9ce5\u5742\u30c0\u30e0\u5de5\u4e8b\u4e8b\u52d9\u6240\"","boring_xml_url":64,"boring_view_url":1,"soilmap_view_url":null,"soiltest_xml_url":0,"soiltest_view_url":0},{"id":528716,"code":"B4KJ202201003-1252","latitude":"33.439942","longitude":"132.690111","source_code":"188855602000070001","project_name":"","survey_name":"\u5e73\u621030\u5e74\u5ea6\u3000\u9e7f\u91ce\u5ddd\u30c0\u30e0\u6e56\u659c\u9762\u5730\u8cea\u8abf\u67fb\u696d\u52d9","client_name":"\"\u56fd\u571f\u4ea4\u901a\u7701 \u56db\u56fd\u5730\u65b9\u6574\u5099\u5c40 \u5c71\u9ce5\u5742\u30c0\u30e0\u5de5\u4e8b\u4e8b\u52d9\u6240\"","boring_xml_url":64,"boring_view_url":1,"soilmap_view_url":null,"soiltest_xml_url":0,"soiltest_view_url":0},{"id":528715,"code":"B4KJ202201003-1251","latitude":"33.440098","longitude":"132.690904","source_code":"188855402000070007","project_name":"","survey_name":"\u5e73\u621030\u5e74\u5ea6\u3000\u9e7f\u91ce\u5ddd\u30c0\u30e0\u6e56\u659c\u9762\u5730\u8cea\u8abf\u67fb\u696d\u52d9","client_name":"\"\u56fd\u571f\u4ea4\u901a\u7701 \u56db\u56fd\u5730\u65b9\u6574\u5099\u5c40 \u5c71\u9ce5\u5742\u30c0\u30e0\u5de5\u4e8b\u4e8b\u52d9\u6240\"","boring_xml_url":64,"boring_view_url":1,"soilmap_view_url":null,"soiltest_xml_url":0,"soiltest_view_url":0},{"id":528714,"code":"B4KJ202201003-1250","latitude":"33.44002","longitude":"132.691343","source_code":"188855402000070006","project_name":"","survey_name":"\u5e73\u621030\u5e74\u5ea6\u3000\u9e7f\u91ce\u5ddd\u30c0\u30e0\u6e56\u659c\u9762\u5730\u8cea\u8abf\u67fb\u696d\u52d9","client_name":"\"\u56fd\u571f\u4ea4\u901a\u7701 \u56db\u56fd\u5730\u65b9\u6574\u5099\u5c40 \u5c71\u9ce5\u5742\u30c0\u30e0\u5de5\u4e8b\u4e8b\u52d9\u6240\"","boring_xml_url":64,"boring_view_url":1,"soilmap_view_url":null,"soiltest_xml_url":0,"soiltest_view_url":0},{"id":528713,"code":"B4KJ202201003-1249","latitude":"33.444292","longitude":"132.68852","source_code":"188855402000070005","project_name":"","survey_name":"\u5e73\u621030\u5e74\u5ea6\u3000\u9e7f\u91ce\u5ddd\u30c0\u30e0\u6e56\u659c\u9762\u5730\u8cea\u8abf\u67fb\u696d\u52d9","client_name":"\"\u56fd\u571f\u4ea4\u901a\u7701 \u56db\u56fd\u5730\u65b9\u6574\u5099\u5c40 \u5c71\u9ce5\u5742\u30c0\u30e0\u5de5\u4e8b\u4e8b\u52d9\u6240\"","boring_xml_url":64,"boring_view_url":1,"soilmap_view_url":null,"soiltest_xml_url":0,"soiltest_view_url":0},{"id":528712,"code":"B4KJ202201003-1248","latitude":"33.445182","longitude":"132.687513","source_code":"188855402000070004","project_name":"","survey_name":"\u5e73\u621030\u5e74\u5ea6\u3000\u9e7f\u91ce\u5ddd\u30c0\u30e0\u6e56\u659c\u9762\u5730\u8cea\u8abf\u67fb\u696d\u52d9","client_name":"\"\u56fd\u571f\u4ea4\u901a\u7701 \u56db\u56fd\u5730\u65b9\u6574\u5099\u5c40 \u5c71\u9ce5\u5742\u30c0\u30e0\u5de5\u4e8b\u4e8b\u52d9\u6240\"","boring_xml_url":64,"boring_view_url":1,"soilmap_view_url":null,"soiltest_xml_url":0,"soiltest_view_url":0},{"id":528711,"code":"B4KJ202201003-1247","latitude":"33.483212","longitude":"132.729715","source_code":"188855402000070003","project_name":"","survey_name":"\u5e73\u621030\u5e74\u5ea6\u3000\u5c71\u9ce5\u5742\u30c0\u30e0\u4ed8\u66ff\u9053\u8def\u5730\u8cea\u8abf\u67fb\u696d\u52d9","client_name":"\u56fd\u571f\u4ea4\u901a\u7701\u56db\u56fd\u5730\u65b9\u6574\u5099\u5c40\u5c71\u9ce5\u5742\u30c0\u30e0\u5de5\u4e8b\u4e8b\u52d9\u6240","boring_xml_url":64,"boring_view_url":1,"soilmap_view_url":null,"soiltest_xml_url":0,"soiltest_view_url":0},{"id":528710,"code":"B4KJ202201003-1246","latitude":"33.483997","longitude":"132.728099","source_code":"188855402000070002","project_name":"","survey_name":"\u5e73\u621030\u5e74\u5ea6\u3000\u5c71\u9ce5\u5742\u30c0\u30e0\u4ed8\u66ff\u9053\u8def\u5730\u8cea\u8abf\u67fb\u696d\u52d9","client_name":"\u56fd\u571f\u4ea4\u901a\u7701\u56db\u56fd\u5730\u65b9\u6574\u5099\u5c40\u5c71\u9ce5\u5742\u30c0\u30e0\u5de5\u4e8b\u4e8b\u52d9\u6240","boring_xml_url":64,"boring_view_url":1,"soilmap_view_url":null,"soiltest_xml_url":0,"soiltest_view_url":0},{"id":528709,"code":"B4KJ202201003-1245","latitude":"33.483516","longitude":"132.729896","source_code":"188855402000070001","project_name":"","survey_name":"\u5e73\u621030\u5e74\u5ea6\u3000\u5c71\u9ce5\u5742\u30c0\u30e0\u4ed8\u66ff\u9053\u8def\u5730\u8cea\u8abf\u67fb\u696d\u52d9","client_name":"\u56fd\u571f\u4ea4\u901a\u7701\u56db\u56fd\u5730\u65b9\u6574\u5099\u5c40\u5c71\u9ce5\u5742\u30c0\u30e0\u5de5\u4e8b\u4e8b\u52d9\u6240","boring_xml_url":64,"boring_view_url":1,"soilmap_view_url":null,"soiltest_xml_url":0,"soiltest_view_url":0}]}}