{"header":{"xyz":{"source":[],"mosaic":false},"page":5570,"raw":{"soiltest_result":"0","bbox":"57.598333,109.544722,1.933333,163.806111","page":"5570"},"conditions":{"soiltest_result":0,"north":57.598333,"west":109.544722,"south":1.933333,"east":163.806111},"success":true,"message":""},"data":{"meta":{"total":212844,"page":5570,"pages":7095,"count":30},"values":[{"id":153475,"code":"B4KJ201801004-1724","latitude":"35.99321083","longitude":"140.1770047","source_code":"KT53407184034","project_name":"","survey_name":"\u5e73\u621012\u5e74\u5ea6 \u570f\u592e\u9053(\u725b\u4e45\u30fb\u963f\u898b\u5730\u533a)\u5730\u8cea\u8abf\u67fb12K10","client_name":"\u56fd\u571f\u4ea4\u901a\u7701\u95a2\u6771\u5730\u65b9\u6574\u5099\u5c40\u5e38\u7dcf\u56fd\u9053\u4e8b\u52d9\u6240","boring_xml_url":40,"boring_view_url":1,"soilmap_view_url":null,"soiltest_xml_url":0,"soiltest_view_url":0},{"id":153474,"code":"B4KJ201801004-1723","latitude":"35.99348861","longitude":"140.1770047","source_code":"KT53407184033","project_name":"","survey_name":"\u5e73\u621012\u5e74\u5ea6 \u570f\u592e\u9053(\u725b\u4e45\u30fb\u963f\u898b\u5730\u533a)\u5730\u8cea\u8abf\u67fb12K10","client_name":"\u56fd\u571f\u4ea4\u901a\u7701\u95a2\u6771\u5730\u65b9\u6574\u5099\u5c40\u5e38\u7dcf\u56fd\u9053\u4e8b\u52d9\u6240","boring_xml_url":40,"boring_view_url":1,"soilmap_view_url":null,"soiltest_xml_url":0,"soiltest_view_url":0},{"id":153473,"code":"B4KJ201801004-1722","latitude":"35.99321083","longitude":"140.1756161","source_code":"KT53407184032","project_name":"","survey_name":"\u5e73\u621012\u5e74\u5ea6 \u570f\u592e\u9053(\u725b\u4e45\u30fb\u963f\u898b\u5730\u533a)\u5730\u8cea\u8abf\u67fb12K10","client_name":"\u56fd\u571f\u4ea4\u901a\u7701\u95a2\u6771\u5730\u65b9\u6574\u5099\u5c40\u5e38\u7dcf\u56fd\u9053\u4e8b\u52d9\u6240","boring_xml_url":40,"boring_view_url":1,"soilmap_view_url":null,"soiltest_xml_url":0,"soiltest_view_url":0},{"id":153472,"code":"B4KJ201801004-1721","latitude":"35.99348833","longitude":"140.1756161","source_code":"KT53407184031","project_name":"","survey_name":"\u5e73\u621012\u5e74\u5ea6 \u570f\u592e\u9053(\u725b\u4e45\u30fb\u963f\u898b\u5730\u533a)\u5730\u8cea\u8abf\u67fb12K10","client_name":"\u56fd\u571f\u4ea4\u901a\u7701\u95a2\u6771\u5730\u65b9\u6574\u5099\u5c40\u5e38\u7dcf\u56fd\u9053\u4e8b\u52d9\u6240","boring_xml_url":40,"boring_view_url":1,"soilmap_view_url":null,"soiltest_xml_url":0,"soiltest_view_url":0},{"id":153471,"code":"B4KJ201801004-1720","latitude":"35.99293278","longitude":"140.1720053","source_code":"KT53407184030","project_name":"","survey_name":"\u5e73\u621012\u5e74\u5ea6 \u570f\u592e\u9053(\u725b\u4e45\u30fb\u963f\u898b\u5730\u533a)\u5730\u8cea\u8abf\u67fb12K10","client_name":"\u56fd\u571f\u4ea4\u901a\u7701\u95a2\u6771\u5730\u65b9\u6574\u5099\u5c40\u5e38\u7dcf\u56fd\u9053\u4e8b\u52d9\u6240","boring_xml_url":40,"boring_view_url":1,"soilmap_view_url":null,"soiltest_xml_url":0,"soiltest_view_url":0},{"id":153470,"code":"B4KJ201801004-1719","latitude":"35.99321056","longitude":"140.1720053","source_code":"KT53407184029","project_name":"","survey_name":"\u5e73\u621012\u5e74\u5ea6 \u570f\u592e\u9053(\u725b\u4e45\u30fb\u963f\u898b\u5730\u533a)\u5730\u8cea\u8abf\u67fb12K10","client_name":"\u56fd\u571f\u4ea4\u901a\u7701\u95a2\u6771\u5730\u65b9\u6574\u5099\u5c40\u5e38\u7dcf\u56fd\u9053\u4e8b\u52d9\u6240","boring_xml_url":40,"boring_view_url":1,"soilmap_view_url":null,"soiltest_xml_url":0,"soiltest_view_url":0},{"id":153469,"code":"B4KJ201801004-1718","latitude":"35.99209972","longitude":"140.1793658","source_code":"KT53407184001","project_name":"","survey_name":"\u5730\u8cea\u8abf\u67fb8K2","client_name":"\u56fd\u571f\u4ea4\u901a\u7701\u95a2\u6771\u5730\u65b9\u6574\u5099\u5c40\u5e38\u7dcf\u56fd\u9053\u4e8b\u52d9\u6240","boring_xml_url":40,"boring_view_url":1,"soilmap_view_url":null,"soiltest_xml_url":0,"soiltest_view_url":0},{"id":153468,"code":"B4KJ201801004-1717","latitude":"35.99209944","longitude":"140.16895","source_code":"KT53407183012","project_name":"","survey_name":"\u5e73\u621012\u5e74\u5ea6 \u570f\u592e\u9053(\u725b\u4e45\u30fb\u963f\u898b\u5730\u533a)\u5730\u8cea\u8abf\u67fb12K10","client_name":"\u56fd\u571f\u4ea4\u901a\u7701\u95a2\u6771\u5730\u65b9\u6574\u5099\u5c40\u5e38\u7dcf\u56fd\u9053\u4e8b\u52d9\u6240","boring_xml_url":40,"boring_view_url":1,"soilmap_view_url":null,"soiltest_xml_url":0,"soiltest_view_url":0},{"id":153467,"code":"B4KJ201801004-1716","latitude":"35.99182194","longitude":"140.16895","source_code":"KT53407183011","project_name":"","survey_name":"\u5e73\u621012\u5e74\u5ea6 \u570f\u592e\u9053(\u725b\u4e45\u30fb\u963f\u898b\u5730\u533a)\u5730\u8cea\u8abf\u67fb12K10","client_name":"\u56fd\u571f\u4ea4\u901a\u7701\u95a2\u6771\u5730\u65b9\u6574\u5099\u5c40\u5e38\u7dcf\u56fd\u9053\u4e8b\u52d9\u6240","boring_xml_url":40,"boring_view_url":1,"soilmap_view_url":null,"soiltest_xml_url":0,"soiltest_view_url":0},{"id":153466,"code":"B4KJ201801004-1715","latitude":"35.99279389","longitude":"140.1703944","source_code":"KT53407183004","project_name":"","survey_name":"\u5730\u8cea\u8abf\u67fb8K2","client_name":"\u56fd\u571f\u4ea4\u901a\u7701\u95a2\u6771\u5730\u65b9\u6574\u5099\u5c40\u5e38\u7dcf\u56fd\u9053\u4e8b\u52d9\u6240","boring_xml_url":40,"boring_view_url":1,"soilmap_view_url":null,"soiltest_xml_url":0,"soiltest_view_url":0},{"id":153465,"code":"B4KJ201801004-1714","latitude":"35.99273833","longitude":"140.1670614","source_code":"KT53407183003","project_name":"","survey_name":"\u5730\u8cea\u8abf\u67fb8K2","client_name":"\u56fd\u571f\u4ea4\u901a\u7701\u95a2\u6771\u5730\u65b9\u6574\u5099\u5c40\u5e38\u7dcf\u56fd\u9053\u4e8b\u52d9\u6240","boring_xml_url":40,"boring_view_url":1,"soilmap_view_url":null,"soiltest_xml_url":0,"soiltest_view_url":0},{"id":153464,"code":"B4KJ201801004-1713","latitude":"35.99268278","longitude":"140.1646447","source_code":"KT53407183002","project_name":"","survey_name":"\u5730\u8cea\u8abf\u67fb8K2","client_name":"\u56fd\u571f\u4ea4\u901a\u7701\u95a2\u6771\u5730\u65b9\u6574\u5099\u5c40\u5e38\u7dcf\u56fd\u9053\u4e8b\u52d9\u6240","boring_xml_url":40,"boring_view_url":1,"soilmap_view_url":null,"soiltest_xml_url":0,"soiltest_view_url":0},{"id":153463,"code":"B4KJ201801004-1712","latitude":"35.99298806","longitude":"140.1629783","source_code":"KT53407183001","project_name":"","survey_name":"\u5730\u8cea\u8abf\u67fb8K2","client_name":"\u56fd\u571f\u4ea4\u901a\u7701\u95a2\u6771\u5730\u65b9\u6574\u5099\u5c40\u5e38\u7dcf\u56fd\u9053\u4e8b\u52d9\u6240","boring_xml_url":40,"boring_view_url":1,"soilmap_view_url":null,"soiltest_xml_url":0,"soiltest_view_url":0},{"id":153462,"code":"B4KJ201801004-1711","latitude":"35.99409917","longitude":"140.1585342","source_code":"KT53407182001","project_name":"","survey_name":"\u5730\u8cea\u8abf\u67fb8K2","client_name":"\u56fd\u571f\u4ea4\u901a\u7701\u95a2\u6771\u5730\u65b9\u6574\u5099\u5c40\u5e38\u7dcf\u56fd\u9053\u4e8b\u52d9\u6240","boring_xml_url":40,"boring_view_url":1,"soilmap_view_url":null,"soiltest_xml_url":0,"soiltest_view_url":0},{"id":153461,"code":"B4KJ201801004-1710","latitude":"35.98165806","longitude":"140.2366947","source_code":"KT53407179031","project_name":"","survey_name":"\u5e73\u621012\u5e74\u5ea6 \u570f\u592e\u9053(\u963f\u898b\u5730\u533a)\u5730\u8cea\u8abf\u67fb12K27","client_name":"\u56fd\u571f\u4ea4\u901a\u7701\u95a2\u6771\u5730\u65b9\u6574\u5099\u5c40\u5e38\u7dcf\u56fd\u9053\u4e8b\u52d9\u6240","boring_xml_url":40,"boring_view_url":1,"soilmap_view_url":null,"soiltest_xml_url":0,"soiltest_view_url":0},{"id":153460,"code":"B4KJ201801004-1709","latitude":"35.98054722","longitude":"140.2395","source_code":"KT53407179030","project_name":"","survey_name":"\u5e73\u621012\u5e74\u5ea6 \u570f\u592e\u9053(\u963f\u898b\u5730\u533a)\u5730\u8cea\u8abf\u67fb12K27","client_name":"\u56fd\u571f\u4ea4\u901a\u7701\u95a2\u6771\u5730\u65b9\u6574\u5099\u5c40\u5e38\u7dcf\u56fd\u9053\u4e8b\u52d9\u6240","boring_xml_url":40,"boring_view_url":1,"soilmap_view_url":null,"soiltest_xml_url":0,"soiltest_view_url":0},{"id":153459,"code":"B4KJ201801004-1708","latitude":"35.9818525","longitude":"140.2367225","source_code":"KT53407179029","project_name":"","survey_name":"\u5e73\u621012\u5e74\u5ea6 \u570f\u592e\u9053(\u963f\u898b\u5730\u533a)\u5730\u8cea\u8abf\u67fb12K27","client_name":"\u56fd\u571f\u4ea4\u901a\u7701\u95a2\u6771\u5730\u65b9\u6574\u5099\u5c40\u5e38\u7dcf\u56fd\u9053\u4e8b\u52d9\u6240","boring_xml_url":40,"boring_view_url":1,"soilmap_view_url":null,"soiltest_xml_url":0,"soiltest_view_url":0},{"id":153458,"code":"B4KJ201801004-1707","latitude":"35.98204694","longitude":"140.2355558","source_code":"KT53407179028","project_name":"","survey_name":"\u5e73\u621012\u5e74\u5ea6 \u570f\u592e\u9053(\u963f\u898b\u5730\u533a)\u5730\u8cea\u8abf\u67fb12K27","client_name":"\u56fd\u571f\u4ea4\u901a\u7701\u95a2\u6771\u5730\u65b9\u6574\u5099\u5c40\u5e38\u7dcf\u56fd\u9053\u4e8b\u52d9\u6240","boring_xml_url":40,"boring_view_url":1,"soilmap_view_url":null,"soiltest_xml_url":0,"soiltest_view_url":0},{"id":153457,"code":"B4KJ201801004-1706","latitude":"35.98254694","longitude":"140.2347503","source_code":"KT53407179027","project_name":"","survey_name":"\u5e73\u621012\u5e74\u5ea6 \u570f\u592e\u9053(\u963f\u898b\u5730\u533a)\u5730\u8cea\u8abf\u67fb12K27","client_name":"\u56fd\u571f\u4ea4\u901a\u7701\u95a2\u6771\u5730\u65b9\u6574\u5099\u5c40\u5e38\u7dcf\u56fd\u9053\u4e8b\u52d9\u6240","boring_xml_url":40,"boring_view_url":1,"soilmap_view_url":null,"soiltest_xml_url":0,"soiltest_view_url":0},{"id":153456,"code":"B4KJ201801004-1705","latitude":"35.98015833","longitude":"140.242","source_code":"KT53407179026","project_name":"","survey_name":"\u570f\u592e\u9053(\u725b\u4e45\u30fb\u6c5f\u6238\u5d0e\u5730\u533a)\u5730\u8cea\u8abf\u67fb12K13","client_name":"\u56fd\u571f\u4ea4\u901a\u7701\u95a2\u6771\u5730\u65b9\u6574\u5099\u5c40\u5e38\u7dcf\u56fd\u9053\u4e8b\u52d9\u6240","boring_xml_url":40,"boring_view_url":1,"soilmap_view_url":null,"soiltest_xml_url":0,"soiltest_view_url":0},{"id":153455,"code":"B4KJ201801004-1704","latitude":"35.98138056","longitude":"140.2385556","source_code":"KT53407179007","project_name":"","survey_name":"\u5730\u8cea\u8abf\u67fb8K4","client_name":"\u56fd\u571f\u4ea4\u901a\u7701\u95a2\u6771\u5730\u65b9\u6574\u5099\u5c40\u5e38\u7dcf\u56fd\u9053\u4e8b\u52d9\u6240","boring_xml_url":40,"boring_view_url":1,"soilmap_view_url":null,"soiltest_xml_url":0,"soiltest_view_url":0},{"id":153454,"code":"B4KJ201801004-1703","latitude":"35.98088056","longitude":"140.2457217","source_code":"KT53407179006","project_name":"","survey_name":"\u5730\u8cea\u8abf\u67fb8K4","client_name":"\u56fd\u571f\u4ea4\u901a\u7701\u95a2\u6771\u5730\u65b9\u6574\u5099\u5c40\u5e38\u7dcf\u56fd\u9053\u4e8b\u52d9\u6240","boring_xml_url":40,"boring_view_url":1,"soilmap_view_url":null,"soiltest_xml_url":0,"soiltest_view_url":0},{"id":153453,"code":"B4KJ201801004-1702","latitude":"35.98071389","longitude":"140.2437219","source_code":"KT53407179005","project_name":"","survey_name":"\u5730\u8cea\u8abf\u67fb8K4","client_name":"\u56fd\u571f\u4ea4\u901a\u7701\u95a2\u6771\u5730\u65b9\u6574\u5099\u5c40\u5e38\u7dcf\u56fd\u9053\u4e8b\u52d9\u6240","boring_xml_url":40,"boring_view_url":1,"soilmap_view_url":null,"soiltest_xml_url":0,"soiltest_view_url":0},{"id":153452,"code":"B4KJ201801004-1701","latitude":"35.98063056","longitude":"140.2422497","source_code":"KT53407179004","project_name":"","survey_name":"\u5730\u8cea\u8abf\u67fb8K4","client_name":"\u56fd\u571f\u4ea4\u901a\u7701\u95a2\u6771\u5730\u65b9\u6574\u5099\u5c40\u5e38\u7dcf\u56fd\u9053\u4e8b\u52d9\u6240","boring_xml_url":40,"boring_view_url":1,"soilmap_view_url":null,"soiltest_xml_url":0,"soiltest_view_url":0},{"id":153451,"code":"B4KJ201801004-1700","latitude":"35.98163056","longitude":"140.2392222","source_code":"KT53407179003","project_name":"","survey_name":"\u5730\u8cea\u8abf\u67fb8K4","client_name":"\u56fd\u571f\u4ea4\u901a\u7701\u95a2\u6771\u5730\u65b9\u6574\u5099\u5c40\u5e38\u7dcf\u56fd\u9053\u4e8b\u52d9\u6240","boring_xml_url":40,"boring_view_url":1,"soilmap_view_url":null,"soiltest_xml_url":0,"soiltest_view_url":0},{"id":153450,"code":"B4KJ201801004-1699","latitude":"35.98176917","longitude":"140.2381667","source_code":"KT53407179002","project_name":"","survey_name":"\u5730\u8cea\u8abf\u67fb8K4","client_name":"\u56fd\u571f\u4ea4\u901a\u7701\u95a2\u6771\u5730\u65b9\u6574\u5099\u5c40\u5e38\u7dcf\u56fd\u9053\u4e8b\u52d9\u6240","boring_xml_url":40,"boring_view_url":1,"soilmap_view_url":null,"soiltest_xml_url":0,"soiltest_view_url":0},{"id":153449,"code":"B4KJ201801004-1698","latitude":"35.98224139","longitude":"140.238","source_code":"KT53407179001","project_name":"","survey_name":"\u5730\u8cea\u8abf\u67fb8K4","client_name":"\u56fd\u571f\u4ea4\u901a\u7701\u95a2\u6771\u5730\u65b9\u6574\u5099\u5c40\u5e38\u7dcf\u56fd\u9053\u4e8b\u52d9\u6240","boring_xml_url":40,"boring_view_url":1,"soilmap_view_url":null,"soiltest_xml_url":0,"soiltest_view_url":0},{"id":153448,"code":"B4KJ201801004-1697","latitude":"35.98274139","longitude":"140.2336672","source_code":"KT53407178042","project_name":"","survey_name":"\u5e73\u621012\u5e74\u5ea6 \u570f\u592e\u9053(\u963f\u898b\u5730\u533a)\u5730\u8cea\u8abf\u67fb12K27","client_name":"\u56fd\u571f\u4ea4\u901a\u7701\u95a2\u6771\u5730\u65b9\u6574\u5099\u5c40\u5e38\u7dcf\u56fd\u9053\u4e8b\u52d9\u6240","boring_xml_url":40,"boring_view_url":1,"soilmap_view_url":null,"soiltest_xml_url":0,"soiltest_view_url":0},{"id":153447,"code":"B4KJ201801004-1696","latitude":"35.98299111","longitude":"140.2333894","source_code":"KT53407178041","project_name":"","survey_name":"\u5e73\u621012\u5e74\u5ea6 \u570f\u592e\u9053(\u963f\u898b\u5730\u533a)\u5730\u8cea\u8abf\u67fb12K27","client_name":"\u56fd\u571f\u4ea4\u901a\u7701\u95a2\u6771\u5730\u65b9\u6574\u5099\u5c40\u5e38\u7dcf\u56fd\u9053\u4e8b\u52d9\u6240","boring_xml_url":40,"boring_view_url":1,"soilmap_view_url":null,"soiltest_xml_url":0,"soiltest_view_url":0},{"id":153446,"code":"B4KJ201801004-1695","latitude":"35.98329667","longitude":"140.2327783","source_code":"KT53407178040","project_name":"","survey_name":"\u5e73\u621012\u5e74\u5ea6 \u570f\u592e\u9053(\u963f\u898b\u5730\u533a)\u5730\u8cea\u8abf\u67fb12K27","client_name":"\u56fd\u571f\u4ea4\u901a\u7701\u95a2\u6771\u5730\u65b9\u6574\u5099\u5c40\u5e38\u7dcf\u56fd\u9053\u4e8b\u52d9\u6240","boring_xml_url":40,"boring_view_url":1,"soilmap_view_url":null,"soiltest_xml_url":0,"soiltest_view_url":0}]}}