{"header":{"xyz":{"source":[],"mosaic":false},"page":5583,"raw":{"soiltest_result":"0","bbox":"57.598333,109.544722,1.933333,163.806111","page":"5583"},"conditions":{"soiltest_result":0,"north":57.598333,"west":109.544722,"south":1.933333,"east":163.806111},"success":true,"message":""},"data":{"meta":{"total":212844,"page":5583,"pages":7095,"count":30},"values":[{"id":153085,"code":"B4KJ201801004-1334","latitude":"35.90295278","longitude":"140.5328119","source_code":"KT53406472001","project_name":"","survey_name":"\u5229\u6839\u5ddd\u4e0b\u6d41\u5730\u8cea\u8abf\u67fb(\u305d\u306e3)","client_name":"\u56fd\u571f\u4ea4\u901a\u7701\u95a2\u6771\u5730\u65b9\u6574\u5099\u5c40\u5229\u6839\u5ddd\u4e0b\u6d41\u6cb3\u5ddd\u4e8b\u52d9\u6240","boring_xml_url":40,"boring_view_url":1,"soilmap_view_url":null,"soiltest_xml_url":0,"soiltest_view_url":0},{"id":153084,"code":"B4KJ201801004-1333","latitude":"35.89581417","longitude":"140.5097586","source_code":"KT53406471005","project_name":"","survey_name":"\u4f50\u539f\u5730\u533a\u5730\u8cea\u8abf\u67fb","client_name":"\u56fd\u571f\u4ea4\u901a\u7701\u95a2\u6771\u5730\u65b9\u6574\u5099\u5c40\u5229\u6839\u5ddd\u4e0b\u6d41\u6cb3\u5ddd\u4e8b\u52d9\u6240","boring_xml_url":40,"boring_view_url":1,"soilmap_view_url":null,"soiltest_xml_url":0,"soiltest_view_url":0},{"id":153083,"code":"B4KJ201801004-1332","latitude":"35.89673083","longitude":"140.510175","source_code":"KT53406471004","project_name":"","survey_name":"\u4f50\u539f\u5730\u533a\u5730\u8cea\u8abf\u67fb","client_name":"\u56fd\u571f\u4ea4\u901a\u7701\u95a2\u6771\u5730\u65b9\u6574\u5099\u5c40\u5229\u6839\u5ddd\u4e0b\u6d41\u6cb3\u5ddd\u4e8b\u52d9\u6240","boring_xml_url":40,"boring_view_url":1,"soilmap_view_url":null,"soiltest_xml_url":0,"soiltest_view_url":0},{"id":153082,"code":"B4KJ201801004-1331","latitude":"35.89750833","longitude":"140.5105917","source_code":"KT53406471003","project_name":"","survey_name":"\u4f50\u539f\u5730\u533a\u5730\u8cea\u8abf\u67fb","client_name":"\u56fd\u571f\u4ea4\u901a\u7701\u95a2\u6771\u5730\u65b9\u6574\u5099\u5c40\u5229\u6839\u5ddd\u4e0b\u6d41\u6cb3\u5ddd\u4e8b\u52d9\u6240","boring_xml_url":40,"boring_view_url":1,"soilmap_view_url":null,"soiltest_xml_url":0,"soiltest_view_url":0},{"id":153081,"code":"B4KJ201801004-1330","latitude":"35.89828611","longitude":"140.5108694","source_code":"KT53406471002","project_name":"","survey_name":"\u4f50\u539f\u5730\u533a\u5730\u8cea\u8abf\u67fb","client_name":"\u56fd\u571f\u4ea4\u901a\u7701\u95a2\u6771\u5730\u65b9\u6574\u5099\u5c40\u5229\u6839\u5ddd\u4e0b\u6d41\u6cb3\u5ddd\u4e8b\u52d9\u6240","boring_xml_url":40,"boring_view_url":1,"soilmap_view_url":null,"soiltest_xml_url":0,"soiltest_view_url":0},{"id":153080,"code":"B4KJ201801004-1329","latitude":"35.89817528","longitude":"140.5180356","source_code":"KT53406471001","project_name":"","survey_name":"\u5229\u6839\u5ddd\u4e0b\u6d41\u5730\u8cea\u8abf\u67fb(\u305d\u306e3)","client_name":"\u56fd\u571f\u4ea4\u901a\u7701\u95a2\u6771\u5730\u65b9\u6574\u5099\u5c40\u5229\u6839\u5ddd\u4e0b\u6d41\u6cb3\u5ddd\u4e8b\u52d9\u6240","boring_xml_url":40,"boring_view_url":1,"soilmap_view_url":null,"soiltest_xml_url":0,"soiltest_view_url":0},{"id":153079,"code":"B4KJ201801004-1328","latitude":"35.90100778","longitude":"140.5004536","source_code":"KT53406470018","project_name":"","survey_name":"\u7c89\u540d\u53e3\u5730\u533a\u5730\u8cea\u8abf\u67fb\u696d\u52d9","client_name":"\u56fd\u571f\u4ea4\u901a\u7701\u95a2\u6771\u5730\u65b9\u6574\u5099\u5c40\u5229\u6839\u5ddd\u4e0b\u6d41\u6cb3\u5ddd\u4e8b\u52d9\u6240","boring_xml_url":40,"boring_view_url":1,"soilmap_view_url":null,"soiltest_xml_url":0,"soiltest_view_url":0},{"id":153078,"code":"B4KJ201801004-1327","latitude":"35.89989694","longitude":"140.5058697","source_code":"KT53406470014","project_name":"","survey_name":"\u5e73\u621010\u5e74\u5ea6\u672c\u5bbf\u8015\u5730\u5730\u533a\u5730\u8cea\u8abf\u67fb(\u305d\u306e3)","client_name":"\u56fd\u571f\u4ea4\u901a\u7701\u95a2\u6771\u5730\u65b9\u6574\u5099\u5c40\u5229\u6839\u5ddd\u4e0b\u6d41\u6cb3\u5ddd\u4e8b\u52d9\u6240","boring_xml_url":40,"boring_view_url":1,"soilmap_view_url":null,"soiltest_xml_url":0,"soiltest_view_url":0},{"id":153077,"code":"B4KJ201801004-1326","latitude":"35.89850806","longitude":"140.5058697","source_code":"KT53406470013","project_name":"","survey_name":"\u5e73\u621010\u5e74\u5ea6\u672c\u5bbf\u8015\u5730\u5730\u533a\u5730\u8cea\u8abf\u67fb(\u305d\u306e3)","client_name":"\u56fd\u571f\u4ea4\u901a\u7701\u95a2\u6771\u5730\u65b9\u6574\u5099\u5c40\u5229\u6839\u5ddd\u4e0b\u6d41\u6cb3\u5ddd\u4e8b\u52d9\u6240","boring_xml_url":40,"boring_view_url":1,"soilmap_view_url":null,"soiltest_xml_url":0,"soiltest_view_url":0},{"id":153076,"code":"B4KJ201801004-1325","latitude":"35.89739722","longitude":"140.50587","source_code":"KT53406470012","project_name":"","survey_name":"\u5e73\u621010\u5e74\u5ea6\u672c\u5bbf\u8015\u5730\u5730\u533a\u5730\u8cea\u8abf\u67fb(\u305d\u306e3)","client_name":"\u56fd\u571f\u4ea4\u901a\u7701\u95a2\u6771\u5730\u65b9\u6574\u5099\u5c40\u5229\u6839\u5ddd\u4e0b\u6d41\u6cb3\u5ddd\u4e8b\u52d9\u6240","boring_xml_url":40,"boring_view_url":1,"soilmap_view_url":null,"soiltest_xml_url":0,"soiltest_view_url":0},{"id":153075,"code":"B4KJ201801004-1324","latitude":"35.89961917","longitude":"140.5044811","source_code":"KT53406470011","project_name":"","survey_name":"\u5e73\u621010\u5e74\u5ea6\u672c\u5bbf\u8015\u5730\u5730\u533a\u5730\u8cea\u8abf\u67fb(\u305d\u306e3)","client_name":"\u56fd\u571f\u4ea4\u901a\u7701\u95a2\u6771\u5730\u65b9\u6574\u5099\u5c40\u5229\u6839\u5ddd\u4e0b\u6d41\u6cb3\u5ddd\u4e8b\u52d9\u6240","boring_xml_url":40,"boring_view_url":1,"soilmap_view_url":null,"soiltest_xml_url":0,"soiltest_view_url":0},{"id":153074,"code":"B4KJ201801004-1323","latitude":"35.89823028","longitude":"140.5044811","source_code":"KT53406470010","project_name":"","survey_name":"\u5e73\u621010\u5e74\u5ea6\u672c\u5bbf\u8015\u5730\u5730\u533a\u5730\u8cea\u8abf\u67fb(\u305d\u306e3)","client_name":"\u56fd\u571f\u4ea4\u901a\u7701\u95a2\u6771\u5730\u65b9\u6574\u5099\u5c40\u5229\u6839\u5ddd\u4e0b\u6d41\u6cb3\u5ddd\u4e8b\u52d9\u6240","boring_xml_url":40,"boring_view_url":1,"soilmap_view_url":null,"soiltest_xml_url":0,"soiltest_view_url":0},{"id":153073,"code":"B4KJ201801004-1322","latitude":"35.89934139","longitude":"140.5036478","source_code":"KT53406470009","project_name":"","survey_name":"\u5e73\u621010\u5e74\u5ea6\u672c\u5bbf\u8015\u5730\u5730\u533a\u5730\u8cea\u8abf\u67fb(\u305d\u306e3)","client_name":"\u56fd\u571f\u4ea4\u901a\u7701\u95a2\u6771\u5730\u65b9\u6574\u5099\u5c40\u5229\u6839\u5ddd\u4e0b\u6d41\u6cb3\u5ddd\u4e8b\u52d9\u6240","boring_xml_url":40,"boring_view_url":1,"soilmap_view_url":null,"soiltest_xml_url":0,"soiltest_view_url":0},{"id":153072,"code":"B4KJ201801004-1321","latitude":"35.89739722","longitude":"140.5036478","source_code":"KT53406470008","project_name":"","survey_name":"\u5e73\u621010\u5e74\u5ea6\u672c\u5bbf\u8015\u5730\u5730\u533a\u5730\u8cea\u8abf\u67fb(\u305d\u306e3)","client_name":"\u56fd\u571f\u4ea4\u901a\u7701\u95a2\u6771\u5730\u65b9\u6574\u5099\u5c40\u5229\u6839\u5ddd\u4e0b\u6d41\u6cb3\u5ddd\u4e8b\u52d9\u6240","boring_xml_url":40,"boring_view_url":1,"soilmap_view_url":null,"soiltest_xml_url":0,"soiltest_view_url":0},{"id":153071,"code":"B4KJ201801004-1320","latitude":"35.89961917","longitude":"140.5028144","source_code":"KT53406470007","project_name":"","survey_name":"\u69cb\u5185\u5730\u8cea\u8abf\u67fb","client_name":"\u56fd\u571f\u4ea4\u901a\u7701\u95a2\u6771\u5730\u65b9\u6574\u5099\u5c40\u971e\u30f6\u6d66\u6cb3\u5ddd\u4e8b\u52d9\u6240","boring_xml_url":40,"boring_view_url":1,"soilmap_view_url":null,"soiltest_xml_url":0,"soiltest_view_url":0},{"id":153070,"code":"B4KJ201801004-1319","latitude":"35.89961917","longitude":"140.5028144","source_code":"KT53406470006","project_name":"","survey_name":"\u69cb\u5185\u5730\u8cea\u8abf\u67fb","client_name":"\u56fd\u571f\u4ea4\u901a\u7701\u95a2\u6771\u5730\u65b9\u6574\u5099\u5c40\u971e\u30f6\u6d66\u6cb3\u5ddd\u4e8b\u52d9\u6240","boring_xml_url":40,"boring_view_url":1,"soilmap_view_url":null,"soiltest_xml_url":0,"soiltest_view_url":0},{"id":153069,"code":"B4KJ201801004-1318","latitude":"35.89961917","longitude":"140.5028144","source_code":"KT53406470005","project_name":"","survey_name":"\u69cb\u5185\u5730\u8cea\u8abf\u67fb","client_name":"\u56fd\u571f\u4ea4\u901a\u7701\u95a2\u6771\u5730\u65b9\u6574\u5099\u5c40\u971e\u30f6\u6d66\u6cb3\u5ddd\u4e8b\u52d9\u6240","boring_xml_url":40,"boring_view_url":1,"soilmap_view_url":null,"soiltest_xml_url":0,"soiltest_view_url":0},{"id":153068,"code":"B4KJ201801004-1317","latitude":"35.88984556","longitude":"140.6133611","source_code":"KT53406469003","project_name":"","survey_name":"\u5e38\u9678\u5ddd\u53ca\u3073\u5916\u6d6a\u9006\u6d66\u5730\u8cea\u8abf\u67fb","client_name":"\u56fd\u571f\u4ea4\u901a\u7701\u95a2\u6771\u5730\u65b9\u6574\u5099\u5c40\u971e\u30f6\u6d66\u6cb3\u5ddd\u4e8b\u52d9\u6240","boring_xml_url":40,"boring_view_url":1,"soilmap_view_url":null,"soiltest_xml_url":0,"soiltest_view_url":0},{"id":153067,"code":"B4KJ201801004-1316","latitude":"35.88770694","longitude":"140.6145278","source_code":"KT53406469002","project_name":"","survey_name":"\u5e38\u9678\u5ddd\u53ca\u3073\u5916\u6d6a\u9006\u6d66\u5730\u8cea\u8abf\u67fb","client_name":"\u56fd\u571f\u4ea4\u901a\u7701\u95a2\u6771\u5730\u65b9\u6574\u5099\u5c40\u971e\u30f6\u6d66\u6cb3\u5ddd\u4e8b\u52d9\u6240","boring_xml_url":40,"boring_view_url":1,"soilmap_view_url":null,"soiltest_xml_url":0,"soiltest_view_url":0},{"id":153066,"code":"B4KJ201801004-1315","latitude":"35.88881778","longitude":"140.614","source_code":"KT53406469001","project_name":"","survey_name":"\u606f\u6816\u53f3\u5cb8(\u4e0a)\u57fa\u790e\u5730\u8cea\u8abf\u67fb","client_name":"\u56fd\u571f\u4ea4\u901a\u7701\u95a2\u6771\u5730\u65b9\u6574\u5099\u5c40\u971e\u30f6\u6d66\u6cb3\u5ddd\u4e8b\u52d9\u6240","boring_xml_url":40,"boring_view_url":1,"soilmap_view_url":null,"soiltest_xml_url":0,"soiltest_view_url":0},{"id":153065,"code":"B4KJ201801004-1314","latitude":"35.88176306","longitude":"140.6178056","source_code":"KT53406459007","project_name":"","survey_name":"\u5e38\u9678\u5ddd\u53ca\u3073\u5916\u6d6a\u9006\u6d66\u5730\u8cea\u8abf\u67fb","client_name":"\u56fd\u571f\u4ea4\u901a\u7701\u95a2\u6771\u5730\u65b9\u6574\u5099\u5c40\u971e\u30f6\u6d66\u6cb3\u5ddd\u4e8b\u52d9\u6240","boring_xml_url":40,"boring_view_url":1,"soilmap_view_url":null,"soiltest_xml_url":0,"soiltest_view_url":0},{"id":153064,"code":"B4KJ201801004-1313","latitude":"35.88240194","longitude":"140.6154447","source_code":"KT53406459006","project_name":"","survey_name":"\u606f\u6816\u5730\u533a\u59161\u30f6\u6240\u57fa\u790e\u5730\u8cea\u8abf\u67fb","client_name":"\u56fd\u571f\u4ea4\u901a\u7701\u95a2\u6771\u5730\u65b9\u6574\u5099\u5c40\u971e\u30f6\u6d66\u6cb3\u5ddd\u4e8b\u52d9\u6240","boring_xml_url":40,"boring_view_url":1,"soilmap_view_url":null,"soiltest_xml_url":0,"soiltest_view_url":0},{"id":153063,"code":"B4KJ201801004-1312","latitude":"35.88240194","longitude":"140.6154447","source_code":"KT53406459005","project_name":"","survey_name":"\u606f\u6816\u5730\u533a\u59161\u30f6\u6240\u57fa\u790e\u5730\u8cea\u8abf\u67fb","client_name":"\u56fd\u571f\u4ea4\u901a\u7701\u95a2\u6771\u5730\u65b9\u6574\u5099\u5c40\u971e\u30f6\u6d66\u6cb3\u5ddd\u4e8b\u52d9\u6240","boring_xml_url":40,"boring_view_url":1,"soilmap_view_url":null,"soiltest_xml_url":0,"soiltest_view_url":0},{"id":153062,"code":"B4KJ201801004-1311","latitude":"35.88576278","longitude":"140.61575","source_code":"KT53406459003","project_name":"","survey_name":"\u606f\u6816\u53f3\u5cb8(\u4e0a)\u57fa\u790e\u5730\u8cea\u8abf\u67fb","client_name":"\u56fd\u571f\u4ea4\u901a\u7701\u95a2\u6771\u5730\u65b9\u6574\u5099\u5c40\u971e\u30f6\u6d66\u6cb3\u5ddd\u4e8b\u52d9\u6240","boring_xml_url":40,"boring_view_url":1,"soilmap_view_url":null,"soiltest_xml_url":0,"soiltest_view_url":0},{"id":153061,"code":"B4KJ201801004-1310","latitude":"35.88287417","longitude":"140.6173611","source_code":"KT53406459002","project_name":"","survey_name":"\u606f\u6816\u53f3\u5cb8(\u4e0a)\u57fa\u790e\u5730\u8cea\u8abf\u67fb","client_name":"\u56fd\u571f\u4ea4\u901a\u7701\u95a2\u6771\u5730\u65b9\u6574\u5099\u5c40\u971e\u30f6\u6d66\u6cb3\u5ddd\u4e8b\u52d9\u6240","boring_xml_url":40,"boring_view_url":1,"soilmap_view_url":null,"soiltest_xml_url":0,"soiltest_view_url":0},{"id":153060,"code":"B4KJ201801004-1309","latitude":"35.87926333","longitude":"140.619","source_code":"KT53406459001","project_name":"","survey_name":"\u606f\u6816\u53f3\u5cb8(\u4e0a)\u57fa\u790e\u5730\u8cea\u8abf\u67fb","client_name":"\u56fd\u571f\u4ea4\u901a\u7701\u95a2\u6771\u5730\u65b9\u6574\u5099\u5c40\u971e\u30f6\u6d66\u6cb3\u5ddd\u4e8b\u52d9\u6240","boring_xml_url":40,"boring_view_url":1,"soilmap_view_url":null,"soiltest_xml_url":0,"soiltest_view_url":0},{"id":153059,"code":"B4KJ201801004-1308","latitude":"35.87754139","longitude":"140.6196944","source_code":"KT53406449004","project_name":"","survey_name":"\u5e38\u9678\u5ddd\u53ca\u3073\u5916\u6d6a\u9006\u6d66\u5730\u8cea\u8abf\u67fb","client_name":"\u56fd\u571f\u4ea4\u901a\u7701\u95a2\u6771\u5730\u65b9\u6574\u5099\u5c40\u971e\u30f6\u6d66\u6cb3\u5ddd\u4e8b\u52d9\u6240","boring_xml_url":40,"boring_view_url":1,"soilmap_view_url":null,"soiltest_xml_url":0,"soiltest_view_url":0},{"id":153058,"code":"B4KJ201801004-1307","latitude":"35.8723475","longitude":"140.6199725","source_code":"KT53406449003","project_name":"","survey_name":"\u4e0b\u5c0f\u5800\u6392\u6c34\u6a5f\u5834\u5b9f\u65bd\u8a2d\u8a08\u696d\u52d9\u59d4\u8a17","client_name":"\u56fd\u571f\u4ea4\u901a\u7701\u95a2\u6771\u5730\u65b9\u6574\u5099\u5c40\u971e\u30f6\u6d66\u6cb3\u5ddd\u4e8b\u52d9\u6240","boring_xml_url":40,"boring_view_url":1,"soilmap_view_url":null,"soiltest_xml_url":0,"soiltest_view_url":0},{"id":153057,"code":"B4KJ201801004-1306","latitude":"35.8723475","longitude":"140.6199725","source_code":"KT53406449002","project_name":"","survey_name":"\u4e0b\u5c0f\u5800\u6392\u6c34\u6a5f\u5834\u5b9f\u65bd\u8a2d\u8a08\u696d\u52d9\u59d4\u8a17","client_name":"\u56fd\u571f\u4ea4\u901a\u7701\u95a2\u6771\u5730\u65b9\u6574\u5099\u5c40\u971e\u30f6\u6d66\u6cb3\u5ddd\u4e8b\u52d9\u6240","boring_xml_url":40,"boring_view_url":1,"soilmap_view_url":null,"soiltest_xml_url":0,"soiltest_view_url":0},{"id":153056,"code":"B4KJ201801004-1305","latitude":"35.875875","longitude":"140.6205833","source_code":"KT53406449001","project_name":"","survey_name":"\u606f\u6816\u53f3\u5cb8(\u4e0a)\u57fa\u790e\u5730\u8cea\u8abf\u67fb","client_name":"\u56fd\u571f\u4ea4\u901a\u7701\u95a2\u6771\u5730\u65b9\u6574\u5099\u5c40\u971e\u30f6\u6d66\u6cb3\u5ddd\u4e8b\u52d9\u6240","boring_xml_url":40,"boring_view_url":1,"soilmap_view_url":null,"soiltest_xml_url":0,"soiltest_view_url":0}]}}