{"header":{"xyz":{"source":[],"mosaic":false},"page":5593,"raw":{"soiltest_result":"0","bbox":"57.598333,109.544722,1.933333,163.806111","page":"5593"},"conditions":{"soiltest_result":0,"north":57.598333,"west":109.544722,"south":1.933333,"east":163.806111},"success":true,"message":""},"data":{"meta":{"total":212844,"page":5593,"pages":7095,"count":30},"values":[{"id":152785,"code":"B4KJ201801004-1034","latitude":"35.85822667","longitude":"140.2070078","source_code":"KT53406126003","project_name":"","survey_name":"\u5317\u5730\u5148\u5916\u5730\u8cea\u8abf\u67fb","client_name":"\u56fd\u571f\u4ea4\u901a\u7701\u95a2\u6771\u5730\u65b9\u6574\u5099\u5c40\u5229\u6839\u5ddd\u4e0b\u6d41\u6cb3\u5ddd\u4e8b\u52d9\u6240","boring_xml_url":40,"boring_view_url":1,"soilmap_view_url":null,"soiltest_xml_url":0,"soiltest_view_url":0},{"id":152784,"code":"B4KJ201801004-1033","latitude":"35.85822667","longitude":"140.2078411","source_code":"KT53406126002","project_name":"","survey_name":"\u5317\u5730\u5148\u5916\u5730\u8cea\u8abf\u67fb","client_name":"\u56fd\u571f\u4ea4\u901a\u7701\u95a2\u6771\u5730\u65b9\u6574\u5099\u5c40\u5229\u6839\u5ddd\u4e0b\u6d41\u6cb3\u5ddd\u4e8b\u52d9\u6240","boring_xml_url":40,"boring_view_url":1,"soilmap_view_url":null,"soiltest_xml_url":0,"soiltest_view_url":0},{"id":152783,"code":"B4KJ201801004-1032","latitude":"35.85850444","longitude":"140.2083967","source_code":"KT53406126001","project_name":"","survey_name":"\u5317\u5730\u5148\u5916\u5730\u8cea\u8abf\u67fb","client_name":"\u56fd\u571f\u4ea4\u901a\u7701\u95a2\u6771\u5730\u65b9\u6574\u5099\u5c40\u5229\u6839\u5ddd\u4e0b\u6d41\u6cb3\u5ddd\u4e8b\u52d9\u6240","boring_xml_url":40,"boring_view_url":1,"soilmap_view_url":null,"soiltest_xml_url":0,"soiltest_view_url":0},{"id":152782,"code":"B4KJ201801004-1031","latitude":"35.85350444","longitude":"140.1858986","source_code":"KT53406125027","project_name":"","survey_name":"\u7acb\u5d0e\u5730\u533a\u4ed6\u5730\u8cea\u8abf\u67fb","client_name":"\u56fd\u571f\u4ea4\u901a\u7701\u95a2\u6771\u5730\u65b9\u6574\u5099\u5c40\u5229\u6839\u5ddd\u4e0b\u6d41\u6cb3\u5ddd\u4e8b\u52d9\u6240","boring_xml_url":40,"boring_view_url":1,"soilmap_view_url":null,"soiltest_xml_url":0,"soiltest_view_url":0},{"id":152781,"code":"B4KJ201801004-1030","latitude":"35.85517111","longitude":"140.1881208","source_code":"KT53406125026","project_name":"","survey_name":"\u7acb\u5d0e\u5730\u533a\u4ed6\u5730\u8cea\u8abf\u67fb","client_name":"\u56fd\u571f\u4ea4\u901a\u7701\u95a2\u6771\u5730\u65b9\u6574\u5099\u5c40\u5229\u6839\u5ddd\u4e0b\u6d41\u6cb3\u5ddd\u4e8b\u52d9\u6240","boring_xml_url":40,"boring_view_url":1,"soilmap_view_url":null,"soiltest_xml_url":0,"soiltest_view_url":0},{"id":152780,"code":"B4KJ201801004-1029","latitude":"35.85572667","longitude":"140.1892317","source_code":"KT53406125025","project_name":"","survey_name":"\u7acb\u5d0e\u5730\u533a\u4ed6\u5730\u8cea\u8abf\u67fb","client_name":"\u56fd\u571f\u4ea4\u901a\u7701\u95a2\u6771\u5730\u65b9\u6574\u5099\u5c40\u5229\u6839\u5ddd\u4e0b\u6d41\u6cb3\u5ddd\u4e8b\u52d9\u6240","boring_xml_url":40,"boring_view_url":1,"soilmap_view_url":null,"soiltest_xml_url":0,"soiltest_view_url":0},{"id":152779,"code":"B4KJ201801004-1028","latitude":"35.85767083","longitude":"140.1917314","source_code":"KT53406125024","project_name":"","survey_name":"\u7acb\u5d0e\u5730\u533a\u4ed6\u5730\u8cea\u8abf\u67fb","client_name":"\u56fd\u571f\u4ea4\u901a\u7701\u95a2\u6771\u5730\u65b9\u6574\u5099\u5c40\u5229\u6839\u5ddd\u4e0b\u6d41\u6cb3\u5ddd\u4e8b\u52d9\u6240","boring_xml_url":40,"boring_view_url":1,"soilmap_view_url":null,"soiltest_xml_url":0,"soiltest_view_url":0},{"id":152778,"code":"B4KJ201801004-1027","latitude":"35.85905972","longitude":"140.1942311","source_code":"KT53406125023","project_name":"","survey_name":"\u7acb\u5d0e\u5730\u533a\u4ed6\u5730\u8cea\u8abf\u67fb","client_name":"\u56fd\u571f\u4ea4\u901a\u7701\u95a2\u6771\u5730\u65b9\u6574\u5099\u5c40\u5229\u6839\u5ddd\u4e0b\u6d41\u6cb3\u5ddd\u4e8b\u52d9\u6240","boring_xml_url":40,"boring_view_url":1,"soilmap_view_url":null,"soiltest_xml_url":0,"soiltest_view_url":0},{"id":152777,"code":"B4KJ201801004-1026","latitude":"35.85989306","longitude":"140.1961753","source_code":"KT53406125022","project_name":"","survey_name":"\u7acb\u5d0e\u5730\u533a\u4ed6\u5730\u8cea\u8abf\u67fb","client_name":"\u56fd\u571f\u4ea4\u901a\u7701\u95a2\u6771\u5730\u65b9\u6574\u5099\u5c40\u5229\u6839\u5ddd\u4e0b\u6d41\u6cb3\u5ddd\u4e8b\u52d9\u6240","boring_xml_url":40,"boring_view_url":1,"soilmap_view_url":null,"soiltest_xml_url":0,"soiltest_view_url":0},{"id":152776,"code":"B4KJ201801004-1025","latitude":"35.85344889","longitude":"140.1857597","source_code":"KT53406125015","project_name":"","survey_name":"\u5185\u57dc\u5730\u5148\u5730\u8cea\u8abf\u67fb","client_name":"\u56fd\u571f\u4ea4\u901a\u7701\u95a2\u6771\u5730\u65b9\u6574\u5099\u5c40\u5229\u6839\u5ddd\u4e0b\u6d41\u6cb3\u5ddd\u4e8b\u52d9\u6240","boring_xml_url":40,"boring_view_url":1,"soilmap_view_url":null,"soiltest_xml_url":0,"soiltest_view_url":0},{"id":152775,"code":"B4KJ201801004-1024","latitude":"35.85389333","longitude":"140.1865931","source_code":"KT53406125014","project_name":"","survey_name":"\u5185\u57dc\u5730\u5148\u5730\u8cea\u8abf\u67fb","client_name":"\u56fd\u571f\u4ea4\u901a\u7701\u95a2\u6771\u5730\u65b9\u6574\u5099\u5c40\u5229\u6839\u5ddd\u4e0b\u6d41\u6cb3\u5ddd\u4e8b\u52d9\u6240","boring_xml_url":40,"boring_view_url":1,"soilmap_view_url":null,"soiltest_xml_url":0,"soiltest_view_url":0},{"id":152774,"code":"B4KJ201801004-1023","latitude":"35.85442111","longitude":"140.1875097","source_code":"KT53406125013","project_name":"","survey_name":"\u5185\u57dc\u5730\u5148\u5730\u8cea\u8abf\u67fb","client_name":"\u56fd\u571f\u4ea4\u901a\u7701\u95a2\u6771\u5730\u65b9\u6574\u5099\u5c40\u5229\u6839\u5ddd\u4e0b\u6d41\u6cb3\u5ddd\u4e8b\u52d9\u6240","boring_xml_url":40,"boring_view_url":1,"soilmap_view_url":null,"soiltest_xml_url":0,"soiltest_view_url":0},{"id":152773,"code":"B4KJ201801004-1022","latitude":"35.85494889","longitude":"140.1883428","source_code":"KT53406125012","project_name":"","survey_name":"\u5185\u57dc\u5730\u5148\u5730\u8cea\u8abf\u67fb","client_name":"\u56fd\u571f\u4ea4\u901a\u7701\u95a2\u6771\u5730\u65b9\u6574\u5099\u5c40\u5229\u6839\u5ddd\u4e0b\u6d41\u6cb3\u5ddd\u4e8b\u52d9\u6240","boring_xml_url":40,"boring_view_url":1,"soilmap_view_url":null,"soiltest_xml_url":0,"soiltest_view_url":0},{"id":152772,"code":"B4KJ201801004-1021","latitude":"35.85564333","longitude":"140.1892317","source_code":"KT53406125011","project_name":"","survey_name":"\u5185\u57dc\u5730\u5148\u5730\u8cea\u8abf\u67fb","client_name":"\u56fd\u571f\u4ea4\u901a\u7701\u95a2\u6771\u5730\u65b9\u6574\u5099\u5c40\u5229\u6839\u5ddd\u4e0b\u6d41\u6cb3\u5ddd\u4e8b\u52d9\u6240","boring_xml_url":40,"boring_view_url":1,"soilmap_view_url":null,"soiltest_xml_url":0,"soiltest_view_url":0},{"id":152771,"code":"B4KJ201801004-1020","latitude":"35.85617111","longitude":"140.1900372","source_code":"KT53406125010","project_name":"","survey_name":"\u5185\u57dc\u5730\u5148\u5730\u8cea\u8abf\u67fb","client_name":"\u56fd\u571f\u4ea4\u901a\u7701\u95a2\u6771\u5730\u65b9\u6574\u5099\u5c40\u5229\u6839\u5ddd\u4e0b\u6d41\u6cb3\u5ddd\u4e8b\u52d9\u6240","boring_xml_url":40,"boring_view_url":1,"soilmap_view_url":null,"soiltest_xml_url":0,"soiltest_view_url":0},{"id":152770,"code":"B4KJ201801004-1019","latitude":"35.85669861","longitude":"140.1907314","source_code":"KT53406125009","project_name":"","survey_name":"\u5185\u57dc\u5730\u5148\u5730\u8cea\u8abf\u67fb","client_name":"\u56fd\u571f\u4ea4\u901a\u7701\u95a2\u6771\u5730\u65b9\u6574\u5099\u5c40\u5229\u6839\u5ddd\u4e0b\u6d41\u6cb3\u5ddd\u4e8b\u52d9\u6240","boring_xml_url":40,"boring_view_url":1,"soilmap_view_url":null,"soiltest_xml_url":0,"soiltest_view_url":0},{"id":152769,"code":"B4KJ201801004-1018","latitude":"35.85728194","longitude":"140.1915369","source_code":"KT53406125008","project_name":"","survey_name":"\u5185\u57dc\u5730\u5148\u5730\u8cea\u8abf\u67fb","client_name":"\u56fd\u571f\u4ea4\u901a\u7701\u95a2\u6771\u5730\u65b9\u6574\u5099\u5c40\u5229\u6839\u5ddd\u4e0b\u6d41\u6cb3\u5ddd\u4e8b\u52d9\u6240","boring_xml_url":40,"boring_view_url":1,"soilmap_view_url":null,"soiltest_xml_url":0,"soiltest_view_url":0},{"id":152768,"code":"B4KJ201801004-1017","latitude":"35.8578375","longitude":"140.1923425","source_code":"KT53406125007","project_name":"","survey_name":"\u5185\u57dc\u5730\u5148\u5730\u8cea\u8abf\u67fb","client_name":"\u56fd\u571f\u4ea4\u901a\u7701\u95a2\u6771\u5730\u65b9\u6574\u5099\u5c40\u5229\u6839\u5ddd\u4e0b\u6d41\u6cb3\u5ddd\u4e8b\u52d9\u6240","boring_xml_url":40,"boring_view_url":1,"soilmap_view_url":null,"soiltest_xml_url":0,"soiltest_view_url":0},{"id":152767,"code":"B4KJ201801004-1016","latitude":"35.85830972","longitude":"140.1932033","source_code":"KT53406125006","project_name":"","survey_name":"\u5185\u57dc\u5730\u5148\u5730\u8cea\u8abf\u67fb","client_name":"\u56fd\u571f\u4ea4\u901a\u7701\u95a2\u6771\u5730\u65b9\u6574\u5099\u5c40\u5229\u6839\u5ddd\u4e0b\u6d41\u6cb3\u5ddd\u4e8b\u52d9\u6240","boring_xml_url":40,"boring_view_url":1,"soilmap_view_url":null,"soiltest_xml_url":0,"soiltest_view_url":0},{"id":152766,"code":"B4KJ201801004-1015","latitude":"35.85886528","longitude":"140.1940922","source_code":"KT53406125005","project_name":"","survey_name":"\u5185\u57dc\u5730\u5148\u5730\u8cea\u8abf\u67fb","client_name":"\u56fd\u571f\u4ea4\u901a\u7701\u95a2\u6771\u5730\u65b9\u6574\u5099\u5c40\u5229\u6839\u5ddd\u4e0b\u6d41\u6cb3\u5ddd\u4e8b\u52d9\u6240","boring_xml_url":40,"boring_view_url":1,"soilmap_view_url":null,"soiltest_xml_url":0,"soiltest_view_url":0},{"id":152765,"code":"B4KJ201801004-1014","latitude":"35.8593375","longitude":"140.1952033","source_code":"KT53406125004","project_name":"","survey_name":"\u5185\u57dc\u5730\u5148\u5730\u8cea\u8abf\u67fb","client_name":"\u56fd\u571f\u4ea4\u901a\u7701\u95a2\u6771\u5730\u65b9\u6574\u5099\u5c40\u5229\u6839\u5ddd\u4e0b\u6d41\u6cb3\u5ddd\u4e8b\u52d9\u6240","boring_xml_url":40,"boring_view_url":1,"soilmap_view_url":null,"soiltest_xml_url":0,"soiltest_view_url":0},{"id":152764,"code":"B4KJ201801004-1013","latitude":"35.85978194","longitude":"140.1960364","source_code":"KT53406125003","project_name":"","survey_name":"\u5185\u57dc\u5730\u5148\u5730\u8cea\u8abf\u67fb","client_name":"\u56fd\u571f\u4ea4\u901a\u7701\u95a2\u6771\u5730\u65b9\u6574\u5099\u5c40\u5229\u6839\u5ddd\u4e0b\u6d41\u6cb3\u5ddd\u4e8b\u52d9\u6240","boring_xml_url":40,"boring_view_url":1,"soilmap_view_url":null,"soiltest_xml_url":0,"soiltest_view_url":0},{"id":152763,"code":"B4KJ201801004-1012","latitude":"35.85344917","longitude":"140.1945092","source_code":"KT53406125002","project_name":"","survey_name":"\u5b89\u98df\u51fa\u5f35\u6240\u7ba1\u5185\u5730\u8cea\u8abf\u67fb","client_name":"\u56fd\u571f\u4ea4\u901a\u7701\u95a2\u6771\u5730\u65b9\u6574\u5099\u5c40\u5229\u6839\u5ddd\u4e0b\u6d41\u6cb3\u5ddd\u4e8b\u52d9\u6240","boring_xml_url":40,"boring_view_url":1,"soilmap_view_url":null,"soiltest_xml_url":0,"soiltest_view_url":0},{"id":152762,"code":"B4KJ201801004-1011","latitude":"35.85392139","longitude":"140.1954256","source_code":"KT53406125001","project_name":"","survey_name":"\u5b89\u98df\u51fa\u5f35\u6240\u7ba1\u5185\u5730\u8cea\u8abf\u67fb","client_name":"\u56fd\u571f\u4ea4\u901a\u7701\u95a2\u6771\u5730\u65b9\u6574\u5099\u5c40\u5229\u6839\u5ddd\u4e0b\u6d41\u6cb3\u5ddd\u4e8b\u52d9\u6240","boring_xml_url":40,"boring_view_url":1,"soilmap_view_url":null,"soiltest_xml_url":0,"soiltest_view_url":0},{"id":152761,"code":"B4KJ201801004-1010","latitude":"35.85978","longitude":"140.1307919","source_code":"KT53406120001","project_name":"","survey_name":"\u5229\u6839\u5ddd\u4e0b\u6d41\u5730\u8cea\u8abf\u67fb(\u305d\u306e3)","client_name":"\u56fd\u571f\u4ea4\u901a\u7701\u95a2\u6771\u5730\u65b9\u6574\u5099\u5c40\u5229\u6839\u5ddd\u4e0b\u6d41\u6cb3\u5ddd\u4e8b\u52d9\u6240","boring_xml_url":40,"boring_view_url":1,"soilmap_view_url":null,"soiltest_xml_url":0,"soiltest_view_url":0},{"id":152760,"code":"B4KJ201801004-1009","latitude":"35.8526725","longitude":"140.2311728","source_code":"KT53406118004","project_name":"","survey_name":"\u51fa\u6d25\u5730\u533a\u6cb3\u5ddd\u9632\u707d\u30b9\u30c6\u30fc\u30b7\u30e7\u30f3\u8a73\u7d30\u8a2d\u8a08\u696d\u52d9\u59d4\u8a17","client_name":"\u56fd\u571f\u4ea4\u901a\u7701\u95a2\u6771\u5730\u65b9\u6574\u5099\u5c40\u5229\u6839\u5ddd\u4e0b\u6d41\u6cb3\u5ddd\u4e8b\u52d9\u6240","boring_xml_url":40,"boring_view_url":1,"soilmap_view_url":null,"soiltest_xml_url":0,"soiltest_view_url":0},{"id":152759,"code":"B4KJ201801004-1008","latitude":"35.8526725","longitude":"140.2317283","source_code":"KT53406118003","project_name":"","survey_name":"\u51fa\u6d25\u5730\u533a\u6cb3\u5ddd\u9632\u707d\u30b9\u30c6\u30fc\u30b7\u30e7\u30f3\u8a73\u7d30\u8a2d\u8a08\u696d\u52d9\u59d4\u8a17","client_name":"\u56fd\u571f\u4ea4\u901a\u7701\u95a2\u6771\u5730\u65b9\u6574\u5099\u5c40\u5229\u6839\u5ddd\u4e0b\u6d41\u6cb3\u5ddd\u4e8b\u52d9\u6240","boring_xml_url":40,"boring_view_url":1,"soilmap_view_url":null,"soiltest_xml_url":0,"soiltest_view_url":0},{"id":152758,"code":"B4KJ201801004-1007","latitude":"35.8526725","longitude":"140.2325614","source_code":"KT53406118002","project_name":"","survey_name":"\u51fa\u6d25\u5730\u533a\u6cb3\u5ddd\u9632\u707d\u30b9\u30c6\u30fc\u30b7\u30e7\u30f3\u8a73\u7d30\u8a2d\u8a08\u696d\u52d9\u59d4\u8a17","client_name":"\u56fd\u571f\u4ea4\u901a\u7701\u95a2\u6771\u5730\u65b9\u6574\u5099\u5c40\u5229\u6839\u5ddd\u4e0b\u6d41\u6cb3\u5ddd\u4e8b\u52d9\u6240","boring_xml_url":40,"boring_view_url":1,"soilmap_view_url":null,"soiltest_xml_url":0,"soiltest_view_url":0},{"id":152757,"code":"B4KJ201801004-1006","latitude":"35.8526725","longitude":"140.2333947","source_code":"KT53406118001","project_name":"","survey_name":"\u51fa\u6d25\u5730\u533a\u6cb3\u5ddd\u9632\u707d\u30b9\u30c6\u30fc\u30b7\u30e7\u30f3\u8a73\u7d30\u8a2d\u8a08\u696d\u52d9\u59d4\u8a17","client_name":"\u56fd\u571f\u4ea4\u901a\u7701\u95a2\u6771\u5730\u65b9\u6574\u5099\u5c40\u5229\u6839\u5ddd\u4e0b\u6d41\u6cb3\u5ddd\u4e8b\u52d9\u6240","boring_xml_url":40,"boring_view_url":1,"soilmap_view_url":null,"soiltest_xml_url":0,"soiltest_view_url":0},{"id":152756,"code":"B4KJ201801004-1005","latitude":"35.84906139","longitude":"140.2154797","source_code":"KT53406117001","project_name":"","survey_name":"\u5317\u5343\u8449\u5c0e\u6c34\u8def\u5730\u8cea\u8abf\u67fb(\u305d\u306e3)","client_name":"\u56fd\u571f\u4ea4\u901a\u7701\u95a2\u6771\u5730\u65b9\u6574\u5099\u5c40\u5229\u6839\u5ddd\u4e0b\u6d41\u6cb3\u5ddd\u4e8b\u52d9\u6240","boring_xml_url":40,"boring_view_url":1,"soilmap_view_url":null,"soiltest_xml_url":0,"soiltest_view_url":0}]}}