{"header":{"xyz":{"source":[],"mosaic":false},"page":5596,"raw":{"soiltest_result":"0","bbox":"57.598333,109.544722,1.933333,163.806111","page":"5596"},"conditions":{"soiltest_result":0,"north":57.598333,"west":109.544722,"south":1.933333,"east":163.806111},"success":true,"message":""},"data":{"meta":{"total":212844,"page":5596,"pages":7095,"count":30},"values":[{"id":152695,"code":"B4KJ201801004-0944","latitude":"35.84219861","longitude":"140.1242378","source_code":"KT53406100025","project_name":"","survey_name":"\u767a\u4f5c\u5de6\u5cb8\u5730\u8cea\u8abf\u67fb\u53ca\u8a2d\u8a08\u696d\u52d9\u59d4\u8a17","client_name":"\u56fd\u571f\u4ea4\u901a\u7701\u95a2\u6771\u5730\u65b9\u6574\u5099\u5c40\u5229\u6839\u5ddd\u4e0b\u6d41\u6cb3\u5ddd\u4e8b\u52d9\u6240","boring_xml_url":40,"boring_view_url":1,"soilmap_view_url":null,"soiltest_xml_url":0,"soiltest_view_url":0},{"id":152694,"code":"B4KJ201801004-0943","latitude":"35.84219861","longitude":"140.1242378","source_code":"KT53406100024","project_name":"","survey_name":"\u767a\u4f5c\u5de6\u5cb8\u5730\u8cea\u8abf\u67fb\u53ca\u8a2d\u8a08\u696d\u52d9\u59d4\u8a17","client_name":"\u56fd\u571f\u4ea4\u901a\u7701\u95a2\u6771\u5730\u65b9\u6574\u5099\u5c40\u5229\u6839\u5ddd\u4e0b\u6d41\u6cb3\u5ddd\u4e8b\u52d9\u6240","boring_xml_url":40,"boring_view_url":1,"soilmap_view_url":null,"soiltest_xml_url":0,"soiltest_view_url":0},{"id":152693,"code":"B4KJ201801004-0942","latitude":"35.84072667","longitude":"140.1279875","source_code":"KT53406100023","project_name":"","survey_name":"\u624b\u8cc0\u5ddd\u5824\u9632\u5730\u8cea\u8abf\u67fb(\u305d\u306e3)","client_name":"\u56fd\u571f\u4ea4\u901a\u7701\u95a2\u6771\u5730\u65b9\u6574\u5099\u5c40\u5229\u6839\u5ddd\u4e0b\u6d41\u6cb3\u5ddd\u4e8b\u52d9\u6240","boring_xml_url":40,"boring_view_url":1,"soilmap_view_url":null,"soiltest_xml_url":0,"soiltest_view_url":0},{"id":152692,"code":"B4KJ201801004-0941","latitude":"35.84072667","longitude":"140.1279875","source_code":"KT53406100022","project_name":"","survey_name":"\u624b\u8cc0\u5ddd\u5824\u9632\u5730\u8cea\u8abf\u67fb(\u305d\u306e3)","client_name":"\u56fd\u571f\u4ea4\u901a\u7701\u95a2\u6771\u5730\u65b9\u6574\u5099\u5c40\u5229\u6839\u5ddd\u4e0b\u6d41\u6cb3\u5ddd\u4e8b\u52d9\u6240","boring_xml_url":40,"boring_view_url":1,"soilmap_view_url":null,"soiltest_xml_url":0,"soiltest_view_url":0},{"id":152691,"code":"B4KJ201801004-0940","latitude":"35.84164306","longitude":"140.1258486","source_code":"KT53406100021","project_name":"","survey_name":"\u5e03\u4f50\u30eb\u30fc\u30c8\u5730\u8cea\u8abf\u67fb","client_name":"\u56fd\u571f\u4ea4\u901a\u7701\u95a2\u6771\u5730\u65b9\u6574\u5099\u5c40\u5229\u6839\u5ddd\u4e0b\u6d41\u6cb3\u5ddd\u4e8b\u52d9\u6240","boring_xml_url":40,"boring_view_url":1,"soilmap_view_url":null,"soiltest_xml_url":0,"soiltest_view_url":0},{"id":152690,"code":"B4KJ201801004-0939","latitude":"35.84278194","longitude":"140.129515","source_code":"KT53406100020","project_name":"","survey_name":"\u5e03\u4f50\u30eb\u30fc\u30c8\u5730\u8cea\u8abf\u67fb","client_name":"\u56fd\u571f\u4ea4\u901a\u7701\u95a2\u6771\u5730\u65b9\u6574\u5099\u5c40\u5229\u6839\u5ddd\u4e0b\u6d41\u6cb3\u5ddd\u4e8b\u52d9\u6240","boring_xml_url":40,"boring_view_url":1,"soilmap_view_url":null,"soiltest_xml_url":0,"soiltest_view_url":0},{"id":152689,"code":"B4KJ201801004-0938","latitude":"35.84267083","longitude":"140.1307094","source_code":"KT53406100019","project_name":"","survey_name":"\u5e03\u4f50\u30eb\u30fc\u30c8\u5730\u8cea\u8abf\u67fb","client_name":"\u56fd\u571f\u4ea4\u901a\u7701\u95a2\u6771\u5730\u65b9\u6574\u5099\u5c40\u5229\u6839\u5ddd\u4e0b\u6d41\u6cb3\u5ddd\u4e8b\u52d9\u6240","boring_xml_url":40,"boring_view_url":1,"soilmap_view_url":null,"soiltest_xml_url":0,"soiltest_view_url":0},{"id":152688,"code":"B4KJ201801004-0937","latitude":"35.84219889","longitude":"140.1339592","source_code":"KT53406100018","project_name":"","survey_name":"\u5e03\u4f50\u30eb\u30fc\u30c8\u5730\u8cea\u8abf\u67fb","client_name":"\u56fd\u571f\u4ea4\u901a\u7701\u95a2\u6771\u5730\u65b9\u6574\u5099\u5c40\u5229\u6839\u5ddd\u4e0b\u6d41\u6cb3\u5ddd\u4e8b\u52d9\u6240","boring_xml_url":40,"boring_view_url":1,"soilmap_view_url":null,"soiltest_xml_url":0,"soiltest_view_url":0},{"id":152687,"code":"B4KJ201801004-0936","latitude":"35.84175417","longitude":"140.1231267","source_code":"KT53406100017","project_name":"","survey_name":"\u767a\u4f5c\u5824\u9632\u5730\u8cea\u8abf\u67fb","client_name":"\u56fd\u571f\u4ea4\u901a\u7701\u95a2\u6771\u5730\u65b9\u6574\u5099\u5c40\u5229\u6839\u5ddd\u4e0b\u6d41\u6cb3\u5ddd\u4e8b\u52d9\u6240","boring_xml_url":40,"boring_view_url":1,"soilmap_view_url":null,"soiltest_xml_url":0,"soiltest_view_url":0},{"id":152686,"code":"B4KJ201801004-0935","latitude":"35.84197639","longitude":"140.1242378","source_code":"KT53406100014","project_name":"","survey_name":"\u767a\u4f5c\u5824\u9632\u5730\u8cea\u8abf\u67fb","client_name":"\u56fd\u571f\u4ea4\u901a\u7701\u95a2\u6771\u5730\u65b9\u6574\u5099\u5c40\u5229\u6839\u5ddd\u4e0b\u6d41\u6cb3\u5ddd\u4e8b\u52d9\u6240","boring_xml_url":40,"boring_view_url":1,"soilmap_view_url":null,"soiltest_xml_url":0,"soiltest_view_url":0},{"id":152685,"code":"B4KJ201801004-0934","latitude":"35.84175417","longitude":"140.1242378","source_code":"KT53406100013","project_name":"","survey_name":"\u767a\u4f5c\u5824\u9632\u5730\u8cea\u8abf\u67fb","client_name":"\u56fd\u571f\u4ea4\u901a\u7701\u95a2\u6771\u5730\u65b9\u6574\u5099\u5c40\u5229\u6839\u5ddd\u4e0b\u6d41\u6cb3\u5ddd\u4e8b\u52d9\u6240","boring_xml_url":40,"boring_view_url":1,"soilmap_view_url":null,"soiltest_xml_url":0,"soiltest_view_url":0},{"id":152684,"code":"B4KJ201801004-0933","latitude":"35.84153194","longitude":"140.1242378","source_code":"KT53406100012","project_name":"","survey_name":"\u767a\u4f5c\u5824\u9632\u5730\u8cea\u8abf\u67fb","client_name":"\u56fd\u571f\u4ea4\u901a\u7701\u95a2\u6771\u5730\u65b9\u6574\u5099\u5c40\u5229\u6839\u5ddd\u4e0b\u6d41\u6cb3\u5ddd\u4e8b\u52d9\u6240","boring_xml_url":40,"boring_view_url":1,"soilmap_view_url":null,"soiltest_xml_url":0,"soiltest_view_url":0},{"id":152683,"code":"B4KJ201801004-0932","latitude":"35.84175417","longitude":"140.1259042","source_code":"KT53406100011","project_name":"","survey_name":"\u767a\u4f5c\u5824\u9632\u5730\u8cea\u8abf\u67fb","client_name":"\u56fd\u571f\u4ea4\u901a\u7701\u95a2\u6771\u5730\u65b9\u6574\u5099\u5c40\u5229\u6839\u5ddd\u4e0b\u6d41\u6cb3\u5ddd\u4e8b\u52d9\u6240","boring_xml_url":40,"boring_view_url":1,"soilmap_view_url":null,"soiltest_xml_url":0,"soiltest_view_url":0},{"id":152682,"code":"B4KJ201801004-0931","latitude":"35.8410875","longitude":"140.1231267","source_code":"KT53406100010","project_name":"","survey_name":"S57\u5e74\u624b\u8cc0\u5ddd\u5824\u9632\u5730\u8cea\u8abf\u67fb","client_name":"\u56fd\u571f\u4ea4\u901a\u7701\u95a2\u6771\u5730\u65b9\u6574\u5099\u5c40\u5229\u6839\u5ddd\u4e0b\u6d41\u6cb3\u5ddd\u4e8b\u52d9\u6240","boring_xml_url":40,"boring_view_url":1,"soilmap_view_url":null,"soiltest_xml_url":0,"soiltest_view_url":0},{"id":152681,"code":"B4KJ201801004-0930","latitude":"35.84061556","longitude":"140.1270153","source_code":"KT53406100009","project_name":"","survey_name":"S57\u5e74\u624b\u8cc0\u5ddd\u5824\u9632\u5730\u8cea\u8abf\u67fb","client_name":"\u56fd\u571f\u4ea4\u901a\u7701\u95a2\u6771\u5730\u65b9\u6574\u5099\u5c40\u5229\u6839\u5ddd\u4e0b\u6d41\u6cb3\u5ddd\u4e8b\u52d9\u6240","boring_xml_url":40,"boring_view_url":1,"soilmap_view_url":null,"soiltest_xml_url":0,"soiltest_view_url":0},{"id":152680,"code":"B4KJ201801004-0929","latitude":"35.84039333","longitude":"140.1281264","source_code":"KT53406100008","project_name":"","survey_name":"S57\u5e74\u624b\u8cc0\u5ddd\u5824\u9632\u5730\u8cea\u8abf\u67fb","client_name":"\u56fd\u571f\u4ea4\u901a\u7701\u95a2\u6771\u5730\u65b9\u6574\u5099\u5c40\u5229\u6839\u5ddd\u4e0b\u6d41\u6cb3\u5ddd\u4e8b\u52d9\u6240","boring_xml_url":40,"boring_view_url":1,"soilmap_view_url":null,"soiltest_xml_url":0,"soiltest_view_url":0},{"id":152679,"code":"B4KJ201801004-0928","latitude":"35.83972694","longitude":"140.1331261","source_code":"KT53406100007","project_name":"","survey_name":"S57\u5e74\u624b\u8cc0\u5ddd\u5824\u9632\u5730\u8cea\u8abf\u67fb","client_name":"\u56fd\u571f\u4ea4\u901a\u7701\u95a2\u6771\u5730\u65b9\u6574\u5099\u5c40\u5229\u6839\u5ddd\u4e0b\u6d41\u6cb3\u5ddd\u4e8b\u52d9\u6240","boring_xml_url":40,"boring_view_url":1,"soilmap_view_url":null,"soiltest_xml_url":0,"soiltest_view_url":0},{"id":152678,"code":"B4KJ201801004-0927","latitude":"35.83994917","longitude":"140.1336814","source_code":"KT53406100006","project_name":"","survey_name":"S57\u5e74\u624b\u8cc0\u5ddd\u5824\u9632\u5730\u8cea\u8abf\u67fb","client_name":"\u56fd\u571f\u4ea4\u901a\u7701\u95a2\u6771\u5730\u65b9\u6574\u5099\u5c40\u5229\u6839\u5ddd\u4e0b\u6d41\u6cb3\u5ddd\u4e8b\u52d9\u6240","boring_xml_url":40,"boring_view_url":1,"soilmap_view_url":null,"soiltest_xml_url":0,"soiltest_view_url":0},{"id":152677,"code":"B4KJ201801004-0926","latitude":"35.84219861","longitude":"140.1284042","source_code":"KT53406100005","project_name":"","survey_name":"\u5317\u5343\u8449\u7b2c\u4e00\u5c0e\u6c34\u8def\u5e03\u4f50(\u305d\u306e2)\u5730\u8cea\u8abf\u67fb","client_name":"\u56fd\u571f\u4ea4\u901a\u7701\u95a2\u6771\u5730\u65b9\u6574\u5099\u5c40\u5229\u6839\u5ddd\u4e0b\u6d41\u6cb3\u5ddd\u4e8b\u52d9\u6240","boring_xml_url":40,"boring_view_url":1,"soilmap_view_url":null,"soiltest_xml_url":0,"soiltest_view_url":0},{"id":152676,"code":"B4KJ201801004-0925","latitude":"35.84253194","longitude":"140.1288206","source_code":"KT53406100004","project_name":"","survey_name":"\u5317\u5343\u8449\u7b2c\u4e00\u5c0e\u6c34\u8def\u5e03\u4f50(\u305d\u306e2)\u5730\u8cea\u8abf\u67fb","client_name":"\u56fd\u571f\u4ea4\u901a\u7701\u95a2\u6771\u5730\u65b9\u6574\u5099\u5c40\u5229\u6839\u5ddd\u4e0b\u6d41\u6cb3\u5ddd\u4e8b\u52d9\u6240","boring_xml_url":40,"boring_view_url":1,"soilmap_view_url":null,"soiltest_xml_url":0,"soiltest_view_url":0},{"id":152675,"code":"B4KJ201801004-0924","latitude":"35.8433375","longitude":"140.1306261","source_code":"KT53406100003","project_name":"","survey_name":"\u5317\u5343\u8449\u7b2c\u4e00\u5c0e\u6c34\u8def\u5e03\u4f50\u5730\u8cea\u8abf\u67fb","client_name":"\u56fd\u571f\u4ea4\u901a\u7701\u95a2\u6771\u5730\u65b9\u6574\u5099\u5c40\u5229\u6839\u5ddd\u4e0b\u6d41\u6cb3\u5ddd\u4e8b\u52d9\u6240","boring_xml_url":40,"boring_view_url":1,"soilmap_view_url":null,"soiltest_xml_url":0,"soiltest_view_url":0},{"id":152674,"code":"B4KJ201801004-0923","latitude":"35.84289306","longitude":"140.1292372","source_code":"KT53406100002","project_name":"","survey_name":"\u5317\u5343\u8449\u7b2c\u4e00\u5c0e\u6c34\u8def\u5e03\u4f50\u5730\u8cea\u8abf\u67fb","client_name":"\u56fd\u571f\u4ea4\u901a\u7701\u95a2\u6771\u5730\u65b9\u6574\u5099\u5c40\u5229\u6839\u5ddd\u4e0b\u6d41\u6cb3\u5ddd\u4e8b\u52d9\u6240","boring_xml_url":40,"boring_view_url":1,"soilmap_view_url":null,"soiltest_xml_url":0,"soiltest_view_url":0},{"id":152673,"code":"B4KJ201801004-0922","latitude":"35.84311528","longitude":"140.1298483","source_code":"KT53406100001","project_name":"","survey_name":"\u5317\u5343\u8449\u7b2c\u4e00\u5c0e\u6c34\u8def\u5e03\u4f50\u5730\u8cea\u8abf\u67fb","client_name":"\u56fd\u571f\u4ea4\u901a\u7701\u95a2\u6771\u5730\u65b9\u6574\u5099\u5c40\u5229\u6839\u5ddd\u4e0b\u6d41\u6cb3\u5ddd\u4e8b\u52d9\u6240","boring_xml_url":40,"boring_view_url":1,"soilmap_view_url":null,"soiltest_xml_url":0,"soiltest_view_url":0},{"id":152672,"code":"B4KJ201801004-0921","latitude":"35.91899472","longitude":"140.0989589","source_code":"KT53406098001","project_name":"","survey_name":"\u5c0f\u6d6e\u6c17\u5730\u533a\u52d5\u614b\u89b3\u6e2c(\u305d\u306e2)\u696d\u52d9\u59d4\u8a17","client_name":"\u56fd\u571f\u4ea4\u901a\u7701\u95a2\u6771\u5730\u65b9\u6574\u5099\u5c40\u9996\u90fd\u56fd\u9053\u4e8b\u52d9\u6240","boring_xml_url":40,"boring_view_url":1,"soilmap_view_url":null,"soiltest_xml_url":0,"soiltest_view_url":0},{"id":152671,"code":"B4KJ201801004-0920","latitude":"35.91638389","longitude":"140.0927375","source_code":"KT53406097005","project_name":"","survey_name":"\u73fe6\u53f7\u5468\u8fba\u5730\u76e4\u5f71\u97ff\u8abf\u67fb","client_name":"\u56fd\u571f\u4ea4\u901a\u7701\u95a2\u6771\u5730\u65b9\u6574\u5099\u5c40\u9996\u90fd\u56fd\u9053\u4e8b\u52d9\u6240","boring_xml_url":40,"boring_view_url":1,"soilmap_view_url":null,"soiltest_xml_url":0,"soiltest_view_url":0},{"id":152670,"code":"B4KJ201801004-0919","latitude":"35.91602278","longitude":"140.0913208","source_code":"KT53406097004","project_name":"","survey_name":"\u53d6\u624b\uff5e\u85e4\u4ee3\u62e1\u5e45\u6e2c\u91cf\u53ca\u3073\u5730\u8cea\u8abf\u67fb","client_name":"\u56fd\u571f\u4ea4\u901a\u7701\u95a2\u6771\u5730\u65b9\u6574\u5099\u5c40\u5e38\u9678\u6cb3\u5ddd\u56fd\u9053\u4e8b\u52d9\u6240","boring_xml_url":40,"boring_view_url":1,"soilmap_view_url":null,"soiltest_xml_url":0,"soiltest_view_url":0},{"id":152669,"code":"B4KJ201801004-0918","latitude":"35.91535611","longitude":"140.08896","source_code":"KT53406097003","project_name":"","survey_name":"\u53d6\u624b\uff5e\u85e4\u4ee3\u62e1\u5e45\u6e2c\u91cf\u53ca\u3073\u5730\u8cea\u8abf\u67fb","client_name":"\u56fd\u571f\u4ea4\u901a\u7701\u95a2\u6771\u5730\u65b9\u6574\u5099\u5c40\u5e38\u9678\u6cb3\u5ddd\u56fd\u9053\u4e8b\u52d9\u6240","boring_xml_url":40,"boring_view_url":1,"soilmap_view_url":null,"soiltest_xml_url":0,"soiltest_view_url":0},{"id":152668,"code":"B4KJ201801004-0917","latitude":"35.91432833","longitude":"140.0863214","source_code":"KT53406097002","project_name":"","survey_name":"\u53d6\u624b\uff5e\u85e4\u4ee3\u62e1\u5e45\u6e2c\u91cf\u53ca\u3073\u5730\u8cea\u8abf\u67fb","client_name":"\u56fd\u571f\u4ea4\u901a\u7701\u95a2\u6771\u5730\u65b9\u6574\u5099\u5c40\u5e38\u9678\u6cb3\u5ddd\u56fd\u9053\u4e8b\u52d9\u6240","boring_xml_url":40,"boring_view_url":1,"soilmap_view_url":null,"soiltest_xml_url":0,"soiltest_view_url":0},{"id":152667,"code":"B4KJ201801004-0916","latitude":"35.91829944","longitude":"140.0634064","source_code":"KT53406095001","project_name":"","survey_name":"\u5c0f\u6d6e\u6c17\u5730\u533a\u52d5\u614b\u89b3\u6e2c(\u305d\u306e2)\u696d\u52d9\u59d4\u8a17","client_name":"\u56fd\u571f\u4ea4\u901a\u7701\u95a2\u6771\u5730\u65b9\u6574\u5099\u5c40\u9996\u90fd\u56fd\u9053\u4e8b\u52d9\u6240","boring_xml_url":40,"boring_view_url":1,"soilmap_view_url":null,"soiltest_xml_url":0,"soiltest_view_url":0},{"id":152666,"code":"B4KJ201801004-0915","latitude":"35.91232694","longitude":"140.0311594","source_code":"KT53406092005","project_name":"","survey_name":"\u4e94\u53cd\u7530\u6a0b\u7ba1\u5730\u8cea\u8abf\u67fb","client_name":"\u56fd\u571f\u4ea4\u901a\u7701\u95a2\u6771\u5730\u65b9\u6574\u5099\u5c40\u5229\u6839\u5ddd\u4e0a\u6d41\u6cb3\u5ddd\u4e8b\u52d9\u6240","boring_xml_url":40,"boring_view_url":1,"soilmap_view_url":null,"soiltest_xml_url":0,"soiltest_view_url":0}]}}