{"header":{"xyz":{"source":[],"mosaic":false},"page":56,"raw":{"soiltest_result":"0","bbox":"57.598333,109.544722,1.933333,163.806111","page":"56"},"conditions":{"soiltest_result":0,"north":57.598333,"west":109.544722,"south":1.933333,"east":163.806111},"success":true,"message":""},"data":{"meta":{"total":212844,"page":56,"pages":7095,"count":30},"values":[{"id":698288,"code":"NGIC202304953-0017","latitude":"35.937348611111","longitude":"139.85313888889","source_code":"","project_name":"","survey_name":"R5\u6c5f\u6238\u5ddd\u7ba1\u5185\u5730\u8cea\u8abf\u67fb\u696d\u52d9","client_name":"\u56fd\u571f\u4ea4\u901a\u7701\u95a2\u6771\u5730\u65b9\u6574\u5099\u5c40\u6c5f\u6238\u5ddd\u6cb3\u5ddd\u4e8b\u52d9\u6240","boring_xml_url":47,"boring_view_url":1,"soilmap_view_url":null,"soiltest_xml_url":0,"soiltest_view_url":0},{"id":698287,"code":"NGIC202304953-0016","latitude":"35.9373575","longitude":"139.85315361111","source_code":"","project_name":"","survey_name":"R5\u6c5f\u6238\u5ddd\u7ba1\u5185\u5730\u8cea\u8abf\u67fb\u696d\u52d9","client_name":"\u56fd\u571f\u4ea4\u901a\u7701\u95a2\u6771\u5730\u65b9\u6574\u5099\u5c40\u6c5f\u6238\u5ddd\u6cb3\u5ddd\u4e8b\u52d9\u6240","boring_xml_url":47,"boring_view_url":1,"soilmap_view_url":null,"soiltest_xml_url":0,"soiltest_view_url":0},{"id":698286,"code":"NGIC202304953-0015","latitude":"35.937342777778","longitude":"139.85315472222","source_code":"","project_name":"","survey_name":"R5\u6c5f\u6238\u5ddd\u7ba1\u5185\u5730\u8cea\u8abf\u67fb\u696d\u52d9","client_name":"\u56fd\u571f\u4ea4\u901a\u7701\u95a2\u6771\u5730\u65b9\u6574\u5099\u5c40\u6c5f\u6238\u5ddd\u6cb3\u5ddd\u4e8b\u52d9\u6240","boring_xml_url":47,"boring_view_url":1,"soilmap_view_url":null,"soiltest_xml_url":0,"soiltest_view_url":0},{"id":698285,"code":"NGIC202304953-0014","latitude":"35.937350833333","longitude":"139.85316805556","source_code":"","project_name":"","survey_name":"R5\u6c5f\u6238\u5ddd\u7ba1\u5185\u5730\u8cea\u8abf\u67fb\u696d\u52d9","client_name":"\u56fd\u571f\u4ea4\u901a\u7701\u95a2\u6771\u5730\u65b9\u6574\u5099\u5c40\u6c5f\u6238\u5ddd\u6cb3\u5ddd\u4e8b\u52d9\u6240","boring_xml_url":47,"boring_view_url":1,"soilmap_view_url":null,"soiltest_xml_url":0,"soiltest_view_url":0},{"id":698284,"code":"NGIC202304953-0013","latitude":"35.937333055556","longitude":"139.85320666667","source_code":"","project_name":"","survey_name":"R5\u6c5f\u6238\u5ddd\u7ba1\u5185\u5730\u8cea\u8abf\u67fb\u696d\u52d9","client_name":"\u56fd\u571f\u4ea4\u901a\u7701\u95a2\u6771\u5730\u65b9\u6574\u5099\u5c40\u6c5f\u6238\u5ddd\u6cb3\u5ddd\u4e8b\u52d9\u6240","boring_xml_url":47,"boring_view_url":1,"soilmap_view_url":null,"soiltest_xml_url":0,"soiltest_view_url":0},{"id":698283,"code":"NGIC202304953-0012","latitude":"35.937318055556","longitude":"139.85320472222","source_code":"","project_name":"","survey_name":"R5\u6c5f\u6238\u5ddd\u7ba1\u5185\u5730\u8cea\u8abf\u67fb\u696d\u52d9","client_name":"\u56fd\u571f\u4ea4\u901a\u7701\u95a2\u6771\u5730\u65b9\u6574\u5099\u5c40\u6c5f\u6238\u5ddd\u6cb3\u5ddd\u4e8b\u52d9\u6240","boring_xml_url":47,"boring_view_url":1,"soilmap_view_url":null,"soiltest_xml_url":0,"soiltest_view_url":0},{"id":698282,"code":"NGIC202304953-0011","latitude":"35.937326388889","longitude":"139.85322111111","source_code":"","project_name":"","survey_name":"R5\u6c5f\u6238\u5ddd\u7ba1\u5185\u5730\u8cea\u8abf\u67fb\u696d\u52d9","client_name":"\u56fd\u571f\u4ea4\u901a\u7701\u95a2\u6771\u5730\u65b9\u6574\u5099\u5c40\u6c5f\u6238\u5ddd\u6cb3\u5ddd\u4e8b\u52d9\u6240","boring_xml_url":47,"boring_view_url":1,"soilmap_view_url":null,"soiltest_xml_url":0,"soiltest_view_url":0},{"id":698281,"code":"NGIC202304953-0010","latitude":"35.937311388889","longitude":"139.85321944444","source_code":"","project_name":"","survey_name":"R5\u6c5f\u6238\u5ddd\u7ba1\u5185\u5730\u8cea\u8abf\u67fb\u696d\u52d9","client_name":"\u56fd\u571f\u4ea4\u901a\u7701\u95a2\u6771\u5730\u65b9\u6574\u5099\u5c40\u6c5f\u6238\u5ddd\u6cb3\u5ddd\u4e8b\u52d9\u6240","boring_xml_url":47,"boring_view_url":1,"soilmap_view_url":null,"soiltest_xml_url":0,"soiltest_view_url":0},{"id":698280,"code":"NGIC202304953-0009","latitude":"35.937319722222","longitude":"139.85323555556","source_code":"","project_name":"","survey_name":"R5\u6c5f\u6238\u5ddd\u7ba1\u5185\u5730\u8cea\u8abf\u67fb\u696d\u52d9","client_name":"\u56fd\u571f\u4ea4\u901a\u7701\u95a2\u6771\u5730\u65b9\u6574\u5099\u5c40\u6c5f\u6238\u5ddd\u6cb3\u5ddd\u4e8b\u52d9\u6240","boring_xml_url":47,"boring_view_url":1,"soilmap_view_url":null,"soiltest_xml_url":0,"soiltest_view_url":0},{"id":698279,"code":"NGIC202304953-0008","latitude":"35.936719722222","longitude":"139.85280638889","source_code":"","project_name":"","survey_name":"R5\u6c5f\u6238\u5ddd\u7ba1\u5185\u5730\u8cea\u8abf\u67fb\u696d\u52d9","client_name":"\u56fd\u571f\u4ea4\u901a\u7701\u95a2\u6771\u5730\u65b9\u6574\u5099\u5c40\u6c5f\u6238\u5ddd\u6cb3\u5ddd\u4e8b\u52d9\u6240","boring_xml_url":47,"boring_view_url":1,"soilmap_view_url":null,"soiltest_xml_url":0,"soiltest_view_url":0},{"id":698278,"code":"NGIC202304953-0007","latitude":"35.936713055556","longitude":"139.85282083333","source_code":"","project_name":"","survey_name":"R5\u6c5f\u6238\u5ddd\u7ba1\u5185\u5730\u8cea\u8abf\u67fb\u696d\u52d9","client_name":"\u56fd\u571f\u4ea4\u901a\u7701\u95a2\u6771\u5730\u65b9\u6574\u5099\u5c40\u6c5f\u6238\u5ddd\u6cb3\u5ddd\u4e8b\u52d9\u6240","boring_xml_url":47,"boring_view_url":1,"soilmap_view_url":null,"soiltest_xml_url":0,"soiltest_view_url":0},{"id":698277,"code":"NGIC202304953-0006","latitude":"35.936706388889","longitude":"139.85283527778","source_code":"","project_name":"","survey_name":"R5\u6c5f\u6238\u5ddd\u7ba1\u5185\u5730\u8cea\u8abf\u67fb\u696d\u52d9","client_name":"\u56fd\u571f\u4ea4\u901a\u7701\u95a2\u6771\u5730\u65b9\u6574\u5099\u5c40\u6c5f\u6238\u5ddd\u6cb3\u5ddd\u4e8b\u52d9\u6240","boring_xml_url":47,"boring_view_url":1,"soilmap_view_url":null,"soiltest_xml_url":0,"soiltest_view_url":0},{"id":698276,"code":"NGIC202304953-0005","latitude":"35.936699722222","longitude":"139.85284972222","source_code":"","project_name":"","survey_name":"R5\u6c5f\u6238\u5ddd\u7ba1\u5185\u5730\u8cea\u8abf\u67fb\u696d\u52d9","client_name":"\u56fd\u571f\u4ea4\u901a\u7701\u95a2\u6771\u5730\u65b9\u6574\u5099\u5c40\u6c5f\u6238\u5ddd\u6cb3\u5ddd\u4e8b\u52d9\u6240","boring_xml_url":47,"boring_view_url":1,"soilmap_view_url":null,"soiltest_xml_url":0,"soiltest_view_url":0},{"id":698275,"code":"NGIC202304953-0004","latitude":"35.937341944444","longitude":"139.85318722222","source_code":"","project_name":"","survey_name":"R5\u6c5f\u6238\u5ddd\u7ba1\u5185\u5730\u8cea\u8abf\u67fb\u696d\u52d9","client_name":"\u56fd\u571f\u4ea4\u901a\u7701\u95a2\u6771\u5730\u65b9\u6574\u5099\u5c40\u6c5f\u6238\u5ddd\u6cb3\u5ddd\u4e8b\u52d9\u6240","boring_xml_url":47,"boring_view_url":1,"soilmap_view_url":null,"soiltest_xml_url":47,"soiltest_view_url":47},{"id":698274,"code":"NGIC202304953-0003","latitude":"35.936758055556","longitude":"139.853335","source_code":"","project_name":"","survey_name":"R5\u6c5f\u6238\u5ddd\u7ba1\u5185\u5730\u8cea\u8abf\u67fb\u696d\u52d9","client_name":"\u56fd\u571f\u4ea4\u901a\u7701\u95a2\u6771\u5730\u65b9\u6574\u5099\u5c40\u6c5f\u6238\u5ddd\u6cb3\u5ddd\u4e8b\u52d9\u6240","boring_xml_url":47,"boring_view_url":1,"soilmap_view_url":null,"soiltest_xml_url":47,"soiltest_view_url":47},{"id":698273,"code":"NGIC202304953-0002","latitude":"35.936688611111","longitude":"139.85287388889","source_code":"","project_name":"","survey_name":"R5\u6c5f\u6238\u5ddd\u7ba1\u5185\u5730\u8cea\u8abf\u67fb\u696d\u52d9","client_name":"\u56fd\u571f\u4ea4\u901a\u7701\u95a2\u6771\u5730\u65b9\u6574\u5099\u5c40\u6c5f\u6238\u5ddd\u6cb3\u5ddd\u4e8b\u52d9\u6240","boring_xml_url":47,"boring_view_url":1,"soilmap_view_url":null,"soiltest_xml_url":47,"soiltest_view_url":47},{"id":698272,"code":"NGIC202304953-0001","latitude":"35.937035277778","longitude":"139.85267472222","source_code":"","project_name":"","survey_name":"R5\u6c5f\u6238\u5ddd\u7ba1\u5185\u5730\u8cea\u8abf\u67fb\u696d\u52d9","client_name":"\u56fd\u571f\u4ea4\u901a\u7701\u95a2\u6771\u5730\u65b9\u6574\u5099\u5c40\u6c5f\u6238\u5ddd\u6cb3\u5ddd\u4e8b\u52d9\u6240","boring_xml_url":47,"boring_view_url":1,"soilmap_view_url":null,"soiltest_xml_url":47,"soiltest_view_url":47},{"id":698271,"code":"NGIC202304930-0003","latitude":"34.025183333333","longitude":"134.57735555556","source_code":"","project_name":"","survey_name":"\u4ee4\u548c4-5\u5e74\u5ea6\u56db\u56fd\u6a2a\u65ad\u9053\u5730\u8cea\u89e3\u6790\u696d\u52d9","client_name":"\u56fd\u571f\u4ea4\u901a\u7701\u56db\u56fd\u5730\u65b9\u6574\u5099\u5c40\u5fb3\u5cf6\u6cb3\u5ddd\u56fd\u9053\u4e8b\u52d9\u6240","boring_xml_url":47,"boring_view_url":1,"soilmap_view_url":null,"soiltest_xml_url":47,"soiltest_view_url":47},{"id":698270,"code":"NGIC202304930-0002","latitude":"34.027116666667","longitude":"134.57993055556","source_code":"","project_name":"","survey_name":"\u4ee4\u548c4-5\u5e74\u5ea6\u56db\u56fd\u6a2a\u65ad\u9053\u5730\u8cea\u89e3\u6790\u696d\u52d9","client_name":"\u56fd\u571f\u4ea4\u901a\u7701\u56db\u56fd\u5730\u65b9\u6574\u5099\u5c40\u5fb3\u5cf6\u6cb3\u5ddd\u56fd\u9053\u4e8b\u52d9\u6240","boring_xml_url":47,"boring_view_url":1,"soilmap_view_url":null,"soiltest_xml_url":47,"soiltest_view_url":47},{"id":698269,"code":"NGIC202304930-0001","latitude":"34.027725","longitude":"134.58012222222","source_code":"","project_name":"","survey_name":"\u4ee4\u548c4-5\u5e74\u5ea6\u56db\u56fd\u6a2a\u65ad\u9053\u5730\u8cea\u89e3\u6790\u696d\u52d9","client_name":"\u56fd\u571f\u4ea4\u901a\u7701\u56db\u56fd\u5730\u65b9\u6574\u5099\u5c40\u5fb3\u5cf6\u6cb3\u5ddd\u56fd\u9053\u4e8b\u52d9\u6240","boring_xml_url":47,"boring_view_url":1,"soilmap_view_url":null,"soiltest_xml_url":47,"soiltest_view_url":47},{"id":698235,"code":"NGIC202304987-0001","latitude":"32.585438361111","longitude":"131.69240402778","source_code":"","project_name":"","survey_name":"\u4ee4\u548c5\u5e74\u5ea6 \u65b9\u8ca1\u5730\u533a\u5916\u6e2c\u91cf\u8a2d\u8a08\u696d\u52d9","client_name":"\u56fd\u571f\u4ea4\u901a\u7701\u4e5d\u5dde\u5730\u65b9\u6574\u5099\u5c40\u5ef6\u5ca1\u6cb3\u5ddd\u56fd\u9053\u4e8b\u52d9\u6240","boring_xml_url":47,"boring_view_url":1,"soilmap_view_url":null,"soiltest_xml_url":0,"soiltest_view_url":0},{"id":698227,"code":"NGIC202305240-0003","latitude":"37.6766","longitude":"140.325525","source_code":"","project_name":"","survey_name":"\u4ee4\u548c5\u5e74\u5ea6\u963f\u6b66\u9688\u5ddd\u6c34\u7cfb\u8352\u5ddd\u7b2c6\u7802\u9632\u5830\u5824\u5916\u8a2d\u8a08\u696d\u52d9","client_name":"\u56fd\u571f\u4ea4\u901a\u7701\u6771\u5317\u5730\u65b9\u6574\u5099\u5c40\u798f\u5cf6\u6cb3\u5ddd\u56fd\u9053\u4e8b\u52d9\u6240","boring_xml_url":47,"boring_view_url":1,"soilmap_view_url":null,"soiltest_xml_url":0,"soiltest_view_url":0},{"id":698226,"code":"NGIC202305240-0002","latitude":"37.676636111111","longitude":"140.325175","source_code":"","project_name":"","survey_name":"\u4ee4\u548c5\u5e74\u5ea6\u963f\u6b66\u9688\u5ddd\u6c34\u7cfb\u8352\u5ddd\u7b2c6\u7802\u9632\u5830\u5824\u5916\u8a2d\u8a08\u696d\u52d9","client_name":"\u56fd\u571f\u4ea4\u901a\u7701\u6771\u5317\u5730\u65b9\u6574\u5099\u5c40\u798f\u5cf6\u6cb3\u5ddd\u56fd\u9053\u4e8b\u52d9\u6240","boring_xml_url":47,"boring_view_url":1,"soilmap_view_url":null,"soiltest_xml_url":0,"soiltest_view_url":0},{"id":698225,"code":"NGIC202305240-0001","latitude":"37.676647222222","longitude":"140.32482222222","source_code":"","project_name":"","survey_name":"\u4ee4\u548c5\u5e74\u5ea6\u963f\u6b66\u9688\u5ddd\u6c34\u7cfb\u8352\u5ddd\u7b2c6\u7802\u9632\u5830\u5824\u5916\u8a2d\u8a08\u696d\u52d9","client_name":"\u56fd\u571f\u4ea4\u901a\u7701\u6771\u5317\u5730\u65b9\u6574\u5099\u5c40\u798f\u5cf6\u6cb3\u5ddd\u56fd\u9053\u4e8b\u52d9\u6240","boring_xml_url":47,"boring_view_url":1,"soilmap_view_url":null,"soiltest_xml_url":0,"soiltest_view_url":0},{"id":698217,"code":"NGIC202305188-0006","latitude":"43.166438111111","longitude":"140.806494","source_code":"","project_name":"","survey_name":"\u4e00\u822c\u56fd\u90535\u53f7 \u4ec1\u6728\u753a\u5916 \u4ec1\u6728\u6c34\u6587\u72b6\u6cc1\u8abf\u67fb\u696d\u52d9","client_name":"\u56fd\u571f\u4ea4\u901a\u7701\u5317\u6d77\u9053\u958b\u767a\u5c40\u5c0f\u6a3d\u958b\u767a\u5efa\u8a2d\u90e8","boring_xml_url":47,"boring_view_url":1,"soilmap_view_url":null,"soiltest_xml_url":0,"soiltest_view_url":0},{"id":698216,"code":"NGIC202305188-0005","latitude":"43.166508333333","longitude":"140.80639536111","source_code":"","project_name":"","survey_name":"\u4e00\u822c\u56fd\u90535\u53f7 \u4ec1\u6728\u753a\u5916 \u4ec1\u6728\u6c34\u6587\u72b6\u6cc1\u8abf\u67fb\u696d\u52d9","client_name":"\u56fd\u571f\u4ea4\u901a\u7701\u5317\u6d77\u9053\u958b\u767a\u5c40\u5c0f\u6a3d\u958b\u767a\u5efa\u8a2d\u90e8","boring_xml_url":47,"boring_view_url":1,"soilmap_view_url":null,"soiltest_xml_url":0,"soiltest_view_url":0},{"id":698215,"code":"NGIC202305188-0004","latitude":"43.157453638889","longitude":"140.78993044444","source_code":"","project_name":"","survey_name":"\u4e00\u822c\u56fd\u90535\u53f7 \u4ec1\u6728\u753a\u5916 \u4ec1\u6728\u6c34\u6587\u72b6\u6cc1\u8abf\u67fb\u696d\u52d9","client_name":"\u56fd\u571f\u4ea4\u901a\u7701\u5317\u6d77\u9053\u958b\u767a\u5c40\u5c0f\u6a3d\u958b\u767a\u5efa\u8a2d\u90e8","boring_xml_url":47,"boring_view_url":1,"soilmap_view_url":null,"soiltest_xml_url":47,"soiltest_view_url":47},{"id":698214,"code":"NGIC202305188-0003","latitude":"43.156971166667","longitude":"140.78953308333","source_code":"","project_name":"","survey_name":"\u4e00\u822c\u56fd\u90535\u53f7 \u4ec1\u6728\u753a\u5916 \u4ec1\u6728\u6c34\u6587\u72b6\u6cc1\u8abf\u67fb\u696d\u52d9","client_name":"\u56fd\u571f\u4ea4\u901a\u7701\u5317\u6d77\u9053\u958b\u767a\u5c40\u5c0f\u6a3d\u958b\u767a\u5efa\u8a2d\u90e8","boring_xml_url":47,"boring_view_url":1,"soilmap_view_url":null,"soiltest_xml_url":47,"soiltest_view_url":47},{"id":698213,"code":"NGIC202305188-0002","latitude":"43.157055777778","longitude":"140.78941236111","source_code":"","project_name":"","survey_name":"\u4e00\u822c\u56fd\u90535\u53f7 \u4ec1\u6728\u753a\u5916 \u4ec1\u6728\u6c34\u6587\u72b6\u6cc1\u8abf\u67fb\u696d\u52d9","client_name":"\u56fd\u571f\u4ea4\u901a\u7701\u5317\u6d77\u9053\u958b\u767a\u5c40\u5c0f\u6a3d\u958b\u767a\u5efa\u8a2d\u90e8","boring_xml_url":47,"boring_view_url":1,"soilmap_view_url":null,"soiltest_xml_url":47,"soiltest_view_url":47},{"id":698212,"code":"NGIC202305188-0001","latitude":"43.157300361111","longitude":"140.78881230556","source_code":"","project_name":"","survey_name":"\u4e00\u822c\u56fd\u90535\u53f7 \u4ec1\u6728\u753a\u5916 \u4ec1\u6728\u6c34\u6587\u72b6\u6cc1\u8abf\u67fb\u696d\u52d9","client_name":"\u56fd\u571f\u4ea4\u901a\u7701\u5317\u6d77\u9053\u958b\u767a\u5c40\u5c0f\u6a3d\u958b\u767a\u5efa\u8a2d\u90e8","boring_xml_url":47,"boring_view_url":1,"soilmap_view_url":null,"soiltest_xml_url":47,"soiltest_view_url":47}]}}