{"header":{"xyz":{"source":[],"mosaic":false},"page":5601,"raw":{"soiltest_result":"0","bbox":"57.598333,109.544722,1.933333,163.806111","page":"5601"},"conditions":{"soiltest_result":0,"north":57.598333,"west":109.544722,"south":1.933333,"east":163.806111},"success":true,"message":""},"data":{"meta":{"total":212844,"page":5601,"pages":7095,"count":30},"values":[{"id":152545,"code":"B4KJ201801004-0794","latitude":"35.88730306","longitude":"140.0648242","source_code":"KT53406065001","project_name":"","survey_name":"\u53d6\u624b\u5730\u65b9\u4e0b\u6c34\u9053\u95a2\u9023\u5730\u8cea\u8abf\u67fb","client_name":"\u56fd\u571f\u4ea4\u901a\u7701\u95a2\u6771\u5730\u65b9\u6574\u5099\u5c40\u5229\u6839\u5ddd\u4e0b\u6d41\u6cb3\u5ddd\u4e8b\u52d9\u6240","boring_xml_url":40,"boring_view_url":1,"soilmap_view_url":null,"soiltest_xml_url":0,"soiltest_view_url":0},{"id":152544,"code":"B4KJ201801004-0793","latitude":"35.89388528","longitude":"140.0586856","source_code":"KT53406064011","project_name":"","survey_name":"\u65b0\u5927\u5229\u6839\u6a4b\u5730\u8cea\u8abf\u67fb","client_name":"\u56fd\u571f\u4ea4\u901a\u7701\u95a2\u6771\u5730\u65b9\u6574\u5099\u5c40\u9996\u90fd\u56fd\u9053\u4e8b\u52d9\u6240","boring_xml_url":40,"boring_view_url":1,"soilmap_view_url":null,"soiltest_xml_url":0,"soiltest_view_url":0},{"id":152543,"code":"B4KJ201801004-0792","latitude":"35.89185778","longitude":"140.0566858","source_code":"KT53406064002","project_name":"","survey_name":"\u65b0\u5927\u5229\u6839\u6a4b\u53ca\u3073\u6839\u6238\u5730\u5148\u5730\u8cea\u8abf\u67fb","client_name":"\u56fd\u571f\u4ea4\u901a\u7701\u95a2\u6771\u5730\u65b9\u6574\u5099\u5c40\u9996\u90fd\u56fd\u9053\u4e8b\u52d9\u6240","boring_xml_url":40,"boring_view_url":1,"soilmap_view_url":null,"soiltest_xml_url":0,"soiltest_view_url":0},{"id":152542,"code":"B4KJ201801004-0791","latitude":"35.88685833","longitude":"140.0557694","source_code":"KT53406064001","project_name":"","survey_name":"\u51fa\u6d25\u5730\u5148\u5916\u5730\u8cea\u8abf\u67fb","client_name":"\u56fd\u571f\u4ea4\u901a\u7701\u95a2\u6771\u5730\u65b9\u6574\u5099\u5c40\u5229\u6839\u5ddd\u4e0b\u6d41\u6cb3\u5ddd\u4e8b\u52d9\u6240","boring_xml_url":40,"boring_view_url":1,"soilmap_view_url":null,"soiltest_xml_url":0,"soiltest_view_url":0},{"id":152541,"code":"B4KJ201801004-0790","latitude":"35.87961028","longitude":"140.1003772","source_code":"KT53406058007","project_name":"","survey_name":"\u6211\u5b6b\u5b50\u5730\u533a\u5730\u8cea\u8abf\u67fb","client_name":"\u56fd\u571f\u4ea4\u901a\u7701\u95a2\u6771\u5730\u65b9\u6574\u5099\u5c40\u5229\u6839\u5ddd\u4e0b\u6d41\u6cb3\u5ddd\u4e8b\u52d9\u6240","boring_xml_url":40,"boring_view_url":1,"soilmap_view_url":null,"soiltest_xml_url":0,"soiltest_view_url":0},{"id":152540,"code":"B4KJ201801004-0789","latitude":"35.87866611","longitude":"140.0999328","source_code":"KT53406058006","project_name":"","survey_name":"\u6211\u5b6b\u5b50\u5730\u533a\u5730\u8cea\u8abf\u67fb","client_name":"\u56fd\u571f\u4ea4\u901a\u7701\u95a2\u6771\u5730\u65b9\u6574\u5099\u5c40\u5229\u6839\u5ddd\u4e0b\u6d41\u6cb3\u5ddd\u4e8b\u52d9\u6240","boring_xml_url":40,"boring_view_url":1,"soilmap_view_url":null,"soiltest_xml_url":0,"soiltest_view_url":0},{"id":152539,"code":"B4KJ201801004-0788","latitude":"35.88383222","longitude":"140.1008214","source_code":"KT53406058005","project_name":"","survey_name":"\u53d6\u624b\u5730\u65b9\u4e0b\u6c34\u9053\u95a2\u9023\u5730\u8cea\u8abf\u67fb","client_name":"\u56fd\u571f\u4ea4\u901a\u7701\u95a2\u6771\u5730\u65b9\u6574\u5099\u5c40\u5229\u6839\u5ddd\u4e0b\u6d41\u6cb3\u5ddd\u4e8b\u52d9\u6240","boring_xml_url":40,"boring_view_url":1,"soilmap_view_url":null,"soiltest_xml_url":0,"soiltest_view_url":0},{"id":152538,"code":"B4KJ201801004-0787","latitude":"35.88480417","longitude":"140.1012936","source_code":"KT53406058004","project_name":"","survey_name":"\u53d6\u624b\u5730\u65b9\u4e0b\u6c34\u9053\u95a2\u9023\u5730\u8cea\u8abf\u67fb","client_name":"\u56fd\u571f\u4ea4\u901a\u7701\u95a2\u6771\u5730\u65b9\u6574\u5099\u5c40\u5229\u6839\u5ddd\u4e0b\u6d41\u6cb3\u5ddd\u4e8b\u52d9\u6240","boring_xml_url":40,"boring_view_url":1,"soilmap_view_url":null,"soiltest_xml_url":0,"soiltest_view_url":0},{"id":152537,"code":"B4KJ201801004-0786","latitude":"35.88533194","longitude":"140.1016544","source_code":"KT53406058003","project_name":"","survey_name":"\u53d6\u624b\u5730\u65b9\u4e0b\u6c34\u9053\u95a2\u9023\u5730\u8cea\u8abf\u67fb","client_name":"\u56fd\u571f\u4ea4\u901a\u7701\u95a2\u6771\u5730\u65b9\u6574\u5099\u5c40\u5229\u6839\u5ddd\u4e0b\u6d41\u6cb3\u5ddd\u4e8b\u52d9\u6240","boring_xml_url":40,"boring_view_url":1,"soilmap_view_url":null,"soiltest_xml_url":0,"soiltest_view_url":0},{"id":152536,"code":"B4KJ201801004-0785","latitude":"35.8856375","longitude":"140.1017378","source_code":"KT53406058002","project_name":"","survey_name":"\u53d6\u624b\u5730\u65b9\u4e0b\u6c34\u9053\u95a2\u9023\u5730\u8cea\u8abf\u67fb","client_name":"\u56fd\u571f\u4ea4\u901a\u7701\u95a2\u6771\u5730\u65b9\u6574\u5099\u5c40\u5229\u6839\u5ddd\u4e0b\u6d41\u6cb3\u5ddd\u4e8b\u52d9\u6240","boring_xml_url":40,"boring_view_url":1,"soilmap_view_url":null,"soiltest_xml_url":0,"soiltest_view_url":0},{"id":152535,"code":"B4KJ201801004-0784","latitude":"35.88591528","longitude":"140.10196","source_code":"KT53406058001","project_name":"","survey_name":"\u53d6\u624b\u5730\u65b9\u4e0b\u6c34\u9053\u95a2\u9023\u5730\u8cea\u8abf\u67fb","client_name":"\u56fd\u571f\u4ea4\u901a\u7701\u95a2\u6771\u5730\u65b9\u6574\u5099\u5c40\u5229\u6839\u5ddd\u4e0b\u6d41\u6cb3\u5ddd\u4e8b\u52d9\u6240","boring_xml_url":40,"boring_view_url":1,"soilmap_view_url":null,"soiltest_xml_url":0,"soiltest_view_url":0},{"id":152534,"code":"B4KJ201801004-0783","latitude":"35.88044333","longitude":"140.0911833","source_code":"KT53406057006","project_name":"","survey_name":"\u5229\u6839\u5ddd\u4e0b\u6d41\u5730\u8cea\u8abf\u67fb(\u305d\u306e3)","client_name":"\u56fd\u571f\u4ea4\u901a\u7701\u95a2\u6771\u5730\u65b9\u6574\u5099\u5c40\u5229\u6839\u5ddd\u4e0b\u6d41\u6cb3\u5ddd\u4e8b\u52d9\u6240","boring_xml_url":40,"boring_view_url":1,"soilmap_view_url":null,"soiltest_xml_url":0,"soiltest_view_url":0},{"id":152533,"code":"B4KJ201801004-0782","latitude":"35.88183194","longitude":"140.0880725","source_code":"KT53406057005","project_name":"","survey_name":"\u6211\u5b6b\u5b50\u5730\u533a\u5730\u8cea\u8abf\u67fb","client_name":"\u56fd\u571f\u4ea4\u901a\u7701\u95a2\u6771\u5730\u65b9\u6574\u5099\u5c40\u5229\u6839\u5ddd\u4e0b\u6d41\u6cb3\u5ddd\u4e8b\u52d9\u6240","boring_xml_url":40,"boring_view_url":1,"soilmap_view_url":null,"soiltest_xml_url":0,"soiltest_view_url":0},{"id":152532,"code":"B4KJ201801004-0781","latitude":"35.88105444","longitude":"140.0919611","source_code":"KT53406057004","project_name":"","survey_name":"\u6211\u5b6b\u5b50\u5730\u533a\u5730\u8cea\u8abf\u67fb","client_name":"\u56fd\u571f\u4ea4\u901a\u7701\u95a2\u6771\u5730\u65b9\u6574\u5099\u5c40\u5229\u6839\u5ddd\u4e0b\u6d41\u6cb3\u5ddd\u4e8b\u52d9\u6240","boring_xml_url":40,"boring_view_url":1,"soilmap_view_url":null,"soiltest_xml_url":0,"soiltest_view_url":0},{"id":152531,"code":"B4KJ201801004-0780","latitude":"35.88069333","longitude":"140.0956275","source_code":"KT53406057003","project_name":"","survey_name":"\u6211\u5b6b\u5b50\u5730\u533a\u5730\u8cea\u8abf\u67fb","client_name":"\u56fd\u571f\u4ea4\u901a\u7701\u95a2\u6771\u5730\u65b9\u6574\u5099\u5c40\u5229\u6839\u5ddd\u4e0b\u6d41\u6cb3\u5ddd\u4e8b\u52d9\u6240","boring_xml_url":40,"boring_view_url":1,"soilmap_view_url":null,"soiltest_xml_url":0,"soiltest_view_url":0},{"id":152530,"code":"B4KJ201801004-0779","latitude":"35.88011028","longitude":"140.0954053","source_code":"KT53406057002","project_name":"","survey_name":"\u6211\u5b6b\u5b50\u5730\u533a\u5730\u8cea\u8abf\u67fb","client_name":"\u56fd\u571f\u4ea4\u901a\u7701\u95a2\u6771\u5730\u65b9\u6574\u5099\u5c40\u5229\u6839\u5ddd\u4e0b\u6d41\u6cb3\u5ddd\u4e8b\u52d9\u6240","boring_xml_url":40,"boring_view_url":1,"soilmap_view_url":null,"soiltest_xml_url":0,"soiltest_view_url":0},{"id":152529,"code":"B4KJ201801004-0778","latitude":"35.88522056","longitude":"140.0862392","source_code":"KT53406057001","project_name":"","survey_name":"\u5e03\u592a\u5730\u5148\u5916\u5730\u8cea\u8abf\u67fb","client_name":"\u56fd\u571f\u4ea4\u901a\u7701\u95a2\u6771\u5730\u65b9\u6574\u5099\u5c40\u5229\u6839\u5ddd\u4e0b\u6d41\u6cb3\u5ddd\u4e8b\u52d9\u6240","boring_xml_url":40,"boring_view_url":1,"soilmap_view_url":null,"soiltest_xml_url":0,"soiltest_view_url":0},{"id":152528,"code":"B4KJ201801004-0777","latitude":"35.88530333","longitude":"140.0737125","source_code":"KT53406056002","project_name":"","survey_name":"\u53d6\u624b\u5730\u65b9\u4e0b\u6c34\u9053\u95a2\u9023\u5730\u8cea\u8abf\u67fb","client_name":"\u56fd\u571f\u4ea4\u901a\u7701\u95a2\u6771\u5730\u65b9\u6574\u5099\u5c40\u5229\u6839\u5ddd\u4e0b\u6d41\u6cb3\u5ddd\u4e8b\u52d9\u6240","boring_xml_url":40,"boring_view_url":1,"soilmap_view_url":null,"soiltest_xml_url":0,"soiltest_view_url":0},{"id":152527,"code":"B4KJ201801004-0776","latitude":"35.88535917","longitude":"140.0784619","source_code":"KT53406056001","project_name":"","survey_name":"\u53d6\u624b\u5730\u65b9\u4e0b\u6c34\u9053\u95a2\u9023\u5730\u8cea\u8abf\u67fb","client_name":"\u56fd\u571f\u4ea4\u901a\u7701\u95a2\u6771\u5730\u65b9\u6574\u5099\u5c40\u5229\u6839\u5ddd\u4e0b\u6d41\u6cb3\u5ddd\u4e8b\u52d9\u6240","boring_xml_url":40,"boring_view_url":1,"soilmap_view_url":null,"soiltest_xml_url":0,"soiltest_view_url":0},{"id":152526,"code":"B4KJ201801004-0775","latitude":"35.88433083","longitude":"140.0603525","source_code":"KT53406055012","project_name":"","survey_name":"\u7acb\u5d0e\u5730\u533a\u4ed6\u5730\u8cea\u8abf\u67fb","client_name":"\u56fd\u571f\u4ea4\u901a\u7701\u95a2\u6771\u5730\u65b9\u6574\u5099\u5c40\u5229\u6839\u5ddd\u4e0b\u6d41\u6cb3\u5ddd\u4e8b\u52d9\u6240","boring_xml_url":40,"boring_view_url":1,"soilmap_view_url":null,"soiltest_xml_url":0,"soiltest_view_url":0},{"id":152525,"code":"B4KJ201801004-0774","latitude":"35.88405333","longitude":"140.0614636","source_code":"KT53406055011","project_name":"","survey_name":"\u7acb\u5d0e\u5730\u533a\u4ed6\u5730\u8cea\u8abf\u67fb","client_name":"\u56fd\u571f\u4ea4\u901a\u7701\u95a2\u6771\u5730\u65b9\u6574\u5099\u5c40\u5229\u6839\u5ddd\u4e0b\u6d41\u6cb3\u5ddd\u4e8b\u52d9\u6240","boring_xml_url":40,"boring_view_url":1,"soilmap_view_url":null,"soiltest_xml_url":0,"soiltest_view_url":0},{"id":152524,"code":"B4KJ201801004-0773","latitude":"35.88155389","longitude":"140.071185","source_code":"KT53406055010","project_name":"","survey_name":"\u7acb\u5d0e\u5730\u533a\u4ed6\u5730\u8cea\u8abf\u67fb","client_name":"\u56fd\u571f\u4ea4\u901a\u7701\u95a2\u6771\u5730\u65b9\u6574\u5099\u5c40\u5229\u6839\u5ddd\u4e0b\u6d41\u6cb3\u5ddd\u4e8b\u52d9\u6240","boring_xml_url":40,"boring_view_url":1,"soilmap_view_url":null,"soiltest_xml_url":0,"soiltest_view_url":0},{"id":152523,"code":"B4KJ201801004-0772","latitude":"35.88597","longitude":"140.0689906","source_code":"KT53406055006","project_name":"","survey_name":"\u53d6\u624b\u5730\u65b9\u4e0b\u6c34\u9053\u95a2\u9023\u5730\u8cea\u8abf\u67fb","client_name":"\u56fd\u571f\u4ea4\u901a\u7701\u95a2\u6771\u5730\u65b9\u6574\u5099\u5c40\u5229\u6839\u5ddd\u4e0b\u6d41\u6cb3\u5ddd\u4e8b\u52d9\u6240","boring_xml_url":40,"boring_view_url":1,"soilmap_view_url":null,"soiltest_xml_url":0,"soiltest_view_url":0},{"id":152522,"code":"B4KJ201801004-0771","latitude":"35.88369222","longitude":"140.0619081","source_code":"KT53406055005","project_name":"","survey_name":"\u53d6\u624b\u51fa\u5f35\u6240\u7ba1\u5185\u5730\u8cea\u8abf\u67fb(\u305d\u306e2)","client_name":"\u56fd\u571f\u4ea4\u901a\u7701\u95a2\u6771\u5730\u65b9\u6574\u5099\u5c40\u5229\u6839\u5ddd\u4e0b\u6d41\u6cb3\u5ddd\u4e8b\u52d9\u6240","boring_xml_url":40,"boring_view_url":1,"soilmap_view_url":null,"soiltest_xml_url":0,"soiltest_view_url":0},{"id":152521,"code":"B4KJ201801004-0770","latitude":"35.88355333","longitude":"140.0624636","source_code":"KT53406055004","project_name":"","survey_name":"\u53d6\u624b\u51fa\u5f35\u6240\u7ba1\u5185\u5730\u8cea\u8abf\u67fb(\u305d\u306e2)","client_name":"\u56fd\u571f\u4ea4\u901a\u7701\u95a2\u6771\u5730\u65b9\u6574\u5099\u5c40\u5229\u6839\u5ddd\u4e0b\u6d41\u6cb3\u5ddd\u4e8b\u52d9\u6240","boring_xml_url":40,"boring_view_url":1,"soilmap_view_url":null,"soiltest_xml_url":0,"soiltest_view_url":0},{"id":152520,"code":"B4KJ201801004-0769","latitude":"35.88344222","longitude":"140.0629636","source_code":"KT53406055003","project_name":"","survey_name":"\u53d6\u624b\u51fa\u5f35\u6240\u7ba1\u5185\u5730\u8cea\u8abf\u67fb(\u305d\u306e2)","client_name":"\u56fd\u571f\u4ea4\u901a\u7701\u95a2\u6771\u5730\u65b9\u6574\u5099\u5c40\u5229\u6839\u5ddd\u4e0b\u6d41\u6cb3\u5ddd\u4e8b\u52d9\u6240","boring_xml_url":40,"boring_view_url":1,"soilmap_view_url":null,"soiltest_xml_url":0,"soiltest_view_url":0},{"id":152519,"code":"B4KJ201801004-0768","latitude":"35.88324778","longitude":"140.0634633","source_code":"KT53406055002","project_name":"","survey_name":"\u53d6\u624b\u51fa\u5f35\u6240\u7ba1\u5185\u5730\u8cea\u8abf\u67fb(\u305d\u306e2)","client_name":"\u56fd\u571f\u4ea4\u901a\u7701\u95a2\u6771\u5730\u65b9\u6574\u5099\u5c40\u5229\u6839\u5ddd\u4e0b\u6d41\u6cb3\u5ddd\u4e8b\u52d9\u6240","boring_xml_url":40,"boring_view_url":1,"soilmap_view_url":null,"soiltest_xml_url":0,"soiltest_view_url":0},{"id":152518,"code":"B4KJ201801004-0767","latitude":"35.88310889","longitude":"140.06388","source_code":"KT53406055001","project_name":"","survey_name":"\u53d6\u624b\u51fa\u5f35\u6240\u7ba1\u5185\u5730\u8cea\u8abf\u67fb(\u305d\u306e2)","client_name":"\u56fd\u571f\u4ea4\u901a\u7701\u95a2\u6771\u5730\u65b9\u6574\u5099\u5c40\u5229\u6839\u5ddd\u4e0b\u6d41\u6cb3\u5ddd\u4e8b\u52d9\u6240","boring_xml_url":40,"boring_view_url":1,"soilmap_view_url":null,"soiltest_xml_url":0,"soiltest_view_url":0},{"id":152517,"code":"B4KJ201801004-0766","latitude":"35.88599722","longitude":"140.0525753","source_code":"KT53406054010","project_name":"","survey_name":"\u65b0\u5927\u5229\u6839\u6a4b\u5730\u8cea\u8abf\u67fb","client_name":"\u56fd\u571f\u4ea4\u901a\u7701\u95a2\u6771\u5730\u65b9\u6574\u5099\u5c40\u9996\u90fd\u56fd\u9053\u4e8b\u52d9\u6240","boring_xml_url":40,"boring_view_url":1,"soilmap_view_url":null,"soiltest_xml_url":0,"soiltest_view_url":0},{"id":152516,"code":"B4KJ201801004-0765","latitude":"35.88588611","longitude":"140.05177","source_code":"KT53406054009","project_name":"","survey_name":"\u65b0\u5927\u5229\u6839\u6a4b\u53ca\u3073\u6839\u6238\u5730\u5148\u5730\u8cea\u8abf\u67fb","client_name":"\u56fd\u571f\u4ea4\u901a\u7701\u95a2\u6771\u5730\u65b9\u6574\u5099\u5c40\u9996\u90fd\u56fd\u9053\u4e8b\u52d9\u6240","boring_xml_url":40,"boring_view_url":1,"soilmap_view_url":null,"soiltest_xml_url":0,"soiltest_view_url":0}]}}