{"header":{"xyz":{"source":[],"mosaic":false},"page":561,"raw":{"soiltest_result":"0","bbox":"57.598333,109.544722,1.933333,163.806111","page":"561"},"conditions":{"soiltest_result":0,"north":57.598333,"west":109.544722,"south":1.933333,"east":163.806111},"success":true,"message":""},"data":{"meta":{"total":212844,"page":561,"pages":7095,"count":30},"values":[{"id":528588,"code":"B4KJ202201003-1124","latitude":"34.014915","longitude":"134.563027","source_code":"188830492000070001","project_name":"\u5e73\u621030\u5e74\u5ea6\u3000\u6c5f\u7530\u5730\u533a\u5730\u8cea\u8abf\u67fb(\u305d\u306e2)\u696d\u52d9","survey_name":"\u5e73\u621030\u5e74\u5ea6\u3000\u6c5f\u7530\u5730\u533a\u5730\u8cea\u8abf\u67fb(\u305d\u306e2)\u696d\u52d9","client_name":"\"\u56fd\u571f\u4ea4\u901a\u7701 \u56db\u56fd\u5730\u65b9\u6574\u5099\u5c40 \u5fb3\u5cf6\u6cb3\u5ddd\u56fd\u9053\u4e8b\u52d9\u6240\"","boring_xml_url":64,"boring_view_url":1,"soilmap_view_url":null,"soiltest_xml_url":0,"soiltest_view_url":0},{"id":528587,"code":"B4KJ202201003-1123","latitude":"34.015183","longitude":"134.563236","source_code":"188830492000060008","project_name":"\u5e73\u621030\u5e74\u5ea6\u3000\u6c5f\u7530\u5730\u533a\u5730\u8cea\u8abf\u67fb(\u305d\u306e2)\u696d\u52d9","survey_name":"\u5e73\u621030\u5e74\u5ea6\u3000\u6c5f\u7530\u5730\u533a\u5730\u8cea\u8abf\u67fb(\u305d\u306e2)\u696d\u52d9","client_name":"\"\u56fd\u571f\u4ea4\u901a\u7701 \u56db\u56fd\u5730\u65b9\u6574\u5099\u5c40 \u5fb3\u5cf6\u6cb3\u5ddd\u56fd\u9053\u4e8b\u52d9\u6240\"","boring_xml_url":64,"boring_view_url":1,"soilmap_view_url":null,"soiltest_xml_url":0,"soiltest_view_url":0},{"id":528586,"code":"B4KJ202201003-1122","latitude":"34.015452","longitude":"134.56344","source_code":"188830492000060007","project_name":"\u5e73\u621030\u5e74\u5ea6\u3000\u6c5f\u7530\u5730\u533a\u5730\u8cea\u8abf\u67fb(\u305d\u306e2)\u696d\u52d9","survey_name":"\u5e73\u621030\u5e74\u5ea6\u3000\u6c5f\u7530\u5730\u533a\u5730\u8cea\u8abf\u67fb(\u305d\u306e2)\u696d\u52d9","client_name":"\"\u56fd\u571f\u4ea4\u901a\u7701 \u56db\u56fd\u5730\u65b9\u6574\u5099\u5c40 \u5fb3\u5cf6\u6cb3\u5ddd\u56fd\u9053\u4e8b\u52d9\u6240\"","boring_xml_url":64,"boring_view_url":1,"soilmap_view_url":null,"soiltest_xml_url":0,"soiltest_view_url":0},{"id":528585,"code":"B4KJ202201003-1121","latitude":"34.015718","longitude":"134.563651","source_code":"188830492000060006","project_name":"\u5e73\u621030\u5e74\u5ea6\u3000\u6c5f\u7530\u5730\u533a\u5730\u8cea\u8abf\u67fb(\u305d\u306e2)\u696d\u52d9","survey_name":"\u5e73\u621030\u5e74\u5ea6\u3000\u6c5f\u7530\u5730\u533a\u5730\u8cea\u8abf\u67fb(\u305d\u306e2)\u696d\u52d9","client_name":"\"\u56fd\u571f\u4ea4\u901a\u7701 \u56db\u56fd\u5730\u65b9\u6574\u5099\u5c40 \u5fb3\u5cf6\u6cb3\u5ddd\u56fd\u9053\u4e8b\u52d9\u6240\"","boring_xml_url":64,"boring_view_url":1,"soilmap_view_url":null,"soiltest_xml_url":0,"soiltest_view_url":0},{"id":528584,"code":"B4KJ202201003-1120","latitude":"34.01598","longitude":"134.563869","source_code":"188830492000060005","project_name":"\u5e73\u621030\u5e74\u5ea6\u3000\u6c5f\u7530\u5730\u533a\u5730\u8cea\u8abf\u67fb(\u305d\u306e2)\u696d\u52d9","survey_name":"\u5e73\u621030\u5e74\u5ea6\u3000\u6c5f\u7530\u5730\u533a\u5730\u8cea\u8abf\u67fb(\u305d\u306e2)\u696d\u52d9","client_name":"\"\u56fd\u571f\u4ea4\u901a\u7701 \u56db\u56fd\u5730\u65b9\u6574\u5099\u5c40 \u5fb3\u5cf6\u6cb3\u5ddd\u56fd\u9053\u4e8b\u52d9\u6240\"","boring_xml_url":64,"boring_view_url":1,"soilmap_view_url":null,"soiltest_xml_url":0,"soiltest_view_url":0},{"id":528583,"code":"B4KJ202201003-1119","latitude":"34.012492","longitude":"134.564794","source_code":"188830492000060004","project_name":"","survey_name":"\u5e73\u621030\u5e74\u5ea6\u3000\u6c5f\u7530\u5730\u533a\u5730\u8cea\u8abf\u67fb\uff08\u305d\u306e1\uff09\u696d\u52d9","client_name":"\"\u56fd\u571f\u4ea4\u901a\u7701 \u56db\u56fd\u5730\u65b9\u6574\u5099\u5c40\u3000\u5fb3\u5cf6\u6cb3\u5ddd\u56fd\u9053\u4e8b\u52d9\u6240\"","boring_xml_url":64,"boring_view_url":1,"soilmap_view_url":null,"soiltest_xml_url":0,"soiltest_view_url":0},{"id":528582,"code":"B4KJ202201003-1118","latitude":"34.012078","longitude":"134.563903","source_code":"188830492000060003","project_name":"","survey_name":"\u5e73\u621030\u5e74\u5ea6\u3000\u6c5f\u7530\u5730\u533a\u5730\u8cea\u8abf\u67fb\uff08\u305d\u306e1\uff09\u696d\u52d9","client_name":"\"\u56fd\u571f\u4ea4\u901a\u7701 \u56db\u56fd\u5730\u65b9\u6574\u5099\u5c40\u3000\u5fb3\u5cf6\u6cb3\u5ddd\u56fd\u9053\u4e8b\u52d9\u6240\"","boring_xml_url":64,"boring_view_url":1,"soilmap_view_url":null,"soiltest_xml_url":0,"soiltest_view_url":0},{"id":528581,"code":"B4KJ202201003-1117","latitude":"34.012875","longitude":"134.564247","source_code":"188830492000060002","project_name":"","survey_name":"\u5e73\u621030\u5e74\u5ea6\u3000\u6c5f\u7530\u5730\u533a\u5730\u8cea\u8abf\u67fb\uff08\u305d\u306e1\uff09\u696d\u52d9","client_name":"\"\u56fd\u571f\u4ea4\u901a\u7701 \u56db\u56fd\u5730\u65b9\u6574\u5099\u5c40\u3000\u5fb3\u5cf6\u6cb3\u5ddd\u56fd\u9053\u4e8b\u52d9\u6240\"","boring_xml_url":64,"boring_view_url":1,"soilmap_view_url":null,"soiltest_xml_url":0,"soiltest_view_url":0},{"id":528580,"code":"B4KJ202201003-1116","latitude":"34.013178","longitude":"134.563953","source_code":"188830492000060001","project_name":"","survey_name":"\u5e73\u621030\u5e74\u5ea6\u3000\u6c5f\u7530\u5730\u533a\u5730\u8cea\u8abf\u67fb\uff08\u305d\u306e1\uff09\u696d\u52d9","client_name":"\"\u56fd\u571f\u4ea4\u901a\u7701 \u56db\u56fd\u5730\u65b9\u6574\u5099\u5c40\u3000\u5fb3\u5cf6\u6cb3\u5ddd\u56fd\u9053\u4e8b\u52d9\u6240\"","boring_xml_url":64,"boring_view_url":1,"soilmap_view_url":null,"soiltest_xml_url":0,"soiltest_view_url":0},{"id":528579,"code":"B4KJ202201003-1115","latitude":"34.013433","longitude":"134.563692","source_code":"188830492000020005","project_name":"","survey_name":"\u5e73\u621030\u5e74\u5ea6\u3000\u6c5f\u7530\u5730\u533a\u5730\u8cea\u8abf\u67fb\uff08\u305d\u306e1\uff09\u696d\u52d9","client_name":"\"\u56fd\u571f\u4ea4\u901a\u7701 \u56db\u56fd\u5730\u65b9\u6574\u5099\u5c40\u3000\u5fb3\u5cf6\u6cb3\u5ddd\u56fd\u9053\u4e8b\u52d9\u6240\"","boring_xml_url":64,"boring_view_url":1,"soilmap_view_url":null,"soiltest_xml_url":0,"soiltest_view_url":0},{"id":528578,"code":"B4KJ202201003-1114","latitude":"34.016189","longitude":"134.56405","source_code":"188830492000020004","project_name":"","survey_name":"\u5e73\u621030\u5e74\u5ea6\u3000\u6c5f\u7530\u5730\u533a\u5730\u8cea\u8abf\u67fb\uff08\u305d\u306e1\uff09\u696d\u52d9","client_name":"\"\u56fd\u571f\u4ea4\u901a\u7701 \u56db\u56fd\u5730\u65b9\u6574\u5099\u5c40 \u5fb3\u5cf6\u6cb3\u5ddd\u56fd\u9053\u4e8b\u52d9\u6240\"","boring_xml_url":64,"boring_view_url":1,"soilmap_view_url":null,"soiltest_xml_url":0,"soiltest_view_url":0},{"id":528577,"code":"B4KJ202201003-1113","latitude":"34.016397","longitude":"134.564236","source_code":"188830492000020003","project_name":"","survey_name":"\u5e73\u621030\u5e74\u5ea6\u3000\u6c5f\u7530\u5730\u533a\u5730\u8cea\u8abf\u67fb\uff08\u305d\u306e1\uff09\u696d\u52d9","client_name":"\"\u56fd\u571f\u4ea4\u901a\u7701 \u56db\u56fd\u5730\u65b9\u6574\u5099\u5c40\u3000\u5fb3\u5cf6\u6cb3\u5ddd\u56fd\u9053\u4e8b\u52d9\u6240\"","boring_xml_url":64,"boring_view_url":1,"soilmap_view_url":null,"soiltest_xml_url":0,"soiltest_view_url":0},{"id":528576,"code":"B4KJ202201003-1112","latitude":"34.0166","longitude":"134.564433","source_code":"188830492000020002","project_name":"","survey_name":"\u5e73\u621030\u5e74\u5ea6\u3000\u6c5f\u7530\u5730\u533a\u5730\u8cea\u8abf\u67fb\uff08\u305d\u306e1\uff09\u696d\u52d9","client_name":"\"\u56fd\u571f\u4ea4\u901a\u7701 \u56db\u56fd\u5730\u65b9\u6574\u5099\u5c40\u3000\u5fb3\u5cf6\u6cb3\u5ddd\u56fd\u9053\u4e8b\u52d9\u6240\"","boring_xml_url":64,"boring_view_url":1,"soilmap_view_url":null,"soiltest_xml_url":0,"soiltest_view_url":0},{"id":528575,"code":"B4KJ202201003-1111","latitude":"33.859138","longitude":"134.620697","source_code":"188830492000020001","project_name":"\u5e73\u621030\u5e74\u5ea6\u3000\u6851\u91ce\u9053\u8def\u30fb\u798f\u4e95\u9053\u8def\u5730\u8cea\u8abf\u67fb\u696d\u52d9","survey_name":"\u5e73\u621030\u5e74\u5ea6\u3000\u6851\u91ce\u9053\u8def\u30fb\u798f\u4e95\u9053\u8def\u5730\u8cea\u8abf\u67fb\u696d\u52d9","client_name":"\u56fd\u571f\u4ea4\u901a\u7701\u56db\u56fd\u5730\u65b9\u6574\u5099\u5c40\u5fb3\u5cf6\u6cb3\u5ddd\u56fd\u9053\u4e8b\u52d9\u6240","boring_xml_url":64,"boring_view_url":1,"soilmap_view_url":null,"soiltest_xml_url":0,"soiltest_view_url":0},{"id":528574,"code":"B4KJ202201003-1110","latitude":"33.860142","longitude":"134.621664","source_code":"178830482000070018","project_name":"\u5e73\u621030\u5e74\u5ea6\u3000\u6851\u91ce\u9053\u8def\u30fb\u798f\u4e95\u9053\u8def\u5730\u8cea\u8abf\u67fb\u696d\u52d9","survey_name":"\u5e73\u621030\u5e74\u5ea6\u3000\u6851\u91ce\u9053\u8def\u30fb\u798f\u4e95\u9053\u8def\u5730\u8cea\u8abf\u67fb\u696d\u52d9","client_name":"\u56fd\u571f\u4ea4\u901a\u7701\u56db\u56fd\u5730\u65b9\u6574\u5099\u5c40\u5fb3\u5cf6\u6cb3\u5ddd\u56fd\u9053\u4e8b\u52d9\u6240","boring_xml_url":64,"boring_view_url":1,"soilmap_view_url":null,"soiltest_xml_url":0,"soiltest_view_url":0},{"id":528573,"code":"B4KJ202201003-1109","latitude":"33.860403","longitude":"134.621427","source_code":"178830482000070017","project_name":"\u5e73\u621030\u5e74\u5ea6\u3000\u6851\u91ce\u9053\u8def\u30fb\u798f\u4e95\u9053\u8def\u5730\u8cea\u8abf\u67fb\u696d\u52d9","survey_name":"\u5e73\u621030\u5e74\u5ea6\u3000\u6851\u91ce\u9053\u8def\u30fb\u798f\u4e95\u9053\u8def\u5730\u8cea\u8abf\u67fb\u696d\u52d9","client_name":"\u56fd\u571f\u4ea4\u901a\u7701\u3000\u56db\u56fd\u5730\u65b9\u6574\u5099\u5c40\u3000\u5fb3\u5cf6\u6cb3\u5ddd\u56fd\u9053\u4e8b\u52d9\u6240","boring_xml_url":64,"boring_view_url":1,"soilmap_view_url":null,"soiltest_xml_url":0,"soiltest_view_url":0},{"id":528572,"code":"B4KJ202201003-1108","latitude":"33.861168","longitude":"134.622399","source_code":"178830482000070016","project_name":"\u5e73\u621030\u5e74\u5ea6\u3000\u6851\u91ce\u9053\u8def\u30fb\u798f\u4e95\u9053\u8def\u5730\u8cea\u8abf\u67fb\u696d\u52d9","survey_name":"\u5e73\u621030\u5e74\u5ea6\u3000\u6851\u91ce\u9053\u8def\u30fb\u798f\u4e95\u9053\u8def\u5730\u8cea\u8abf\u67fb\u696d\u52d9","client_name":"\u56fd\u571f\u4ea4\u901a\u7701\u56db\u56fd\u5730\u65b9\u6574\u5099\u5c40\u5fb3\u5cf6\u6cb3\u5ddd\u56fd\u9053\u4e8b\u52d9\u6240","boring_xml_url":64,"boring_view_url":1,"soilmap_view_url":null,"soiltest_xml_url":0,"soiltest_view_url":0},{"id":528571,"code":"B4KJ202201003-1107","latitude":"33.877559","longitude":"134.624175","source_code":"178830482000070015","project_name":"\u5e73\u621030\u5e74\u5ea6\u3000\u6851\u91ce\u9053\u8def\u30fb\u798f\u4e95\u9053\u8def\u5730\u8cea\u8abf\u67fb\u696d\u52d9","survey_name":"\u5e73\u621030\u5e74\u5ea6\u3000\u6851\u91ce\u9053\u8def\u30fb\u798f\u4e95\u9053\u8def\u5730\u8cea\u8abf\u67fb\u696d\u52d9","client_name":"\u56fd\u571f\u4ea4\u901a\u7701\u56db\u56fd\u5730\u65b9\u6574\u5099\u5c40\u5fb3\u5cf6\u6cb3\u5ddd\u56fd\u9053\u4e8b\u52d9\u6240","boring_xml_url":64,"boring_view_url":1,"soilmap_view_url":null,"soiltest_xml_url":0,"soiltest_view_url":0},{"id":528570,"code":"B4KJ202201003-1106","latitude":"34.017005","longitude":"134.564831","source_code":"178830482000070014","project_name":"","survey_name":"\u5e73\u621029\u30fc30\u5e74\u5ea6\u3000\u6c5f\u7530\u5730\u533a\u5916\u5730\u8cea\u8abf\u67fb\u696d\u52d9","client_name":"\u56fd\u571f\u4ea4\u901a\u7701\u3000\u56db\u56fd\u5730\u65b9\u6574\u5099\u5c40\u3000\u5fb3\u5cf6\u6cb3\u5ddd\u56fd\u9053\u4e8b\u52d9\u6240","boring_xml_url":64,"boring_view_url":1,"soilmap_view_url":null,"soiltest_xml_url":0,"soiltest_view_url":0},{"id":528569,"code":"B4KJ202201003-1105","latitude":"34.017205","longitude":"134.565039","source_code":"178830482000070013","project_name":"","survey_name":"\u5e73\u621029\u30fc30\u5e74\u5ea6\u3000\u6c5f\u7530\u5730\u533a\u5916\u5730\u8cea\u8abf\u67fb\u696d\u52d9","client_name":"\u56fd\u571f\u4ea4\u901a\u7701\u3000\u56db\u56fd\u5730\u65b9\u6574\u5099\u5c40\u3000\u5fb3\u5cf6\u6cb3\u5ddd\u56fd\u9053\u4e8b\u52d9\u6240","boring_xml_url":64,"boring_view_url":1,"soilmap_view_url":null,"soiltest_xml_url":0,"soiltest_view_url":0},{"id":528568,"code":"B4KJ202201003-1104","latitude":"34.017402","longitude":"134.565253","source_code":"178830482000070012","project_name":"","survey_name":"\u5e73\u621029\u30fc30\u5e74\u5ea6\u3000\u6c5f\u7530\u5730\u533a\u5916\u5730\u8cea\u8abf\u67fb\u696d\u52d9","client_name":"\u56fd\u571f\u4ea4\u901a\u7701\u3000\u56db\u56fd\u5730\u65b9\u6574\u5099\u5c40\u3000\u5fb3\u5cf6\u6cb3\u5ddd\u56fd\u9053\u4e8b\u52d9\u6240","boring_xml_url":64,"boring_view_url":1,"soilmap_view_url":null,"soiltest_xml_url":0,"soiltest_view_url":0},{"id":528567,"code":"B4KJ202201003-1103","latitude":"34.017601","longitude":"134.565463","source_code":"178830482000070011","project_name":"","survey_name":"\u5e73\u621029\u30fc30\u5e74\u5ea6\u3000\u6c5f\u7530\u5730\u533a\u5916\u5730\u8cea\u8abf\u67fb\u696d\u52d9","client_name":"\u56fd\u571f\u4ea4\u901a\u7701\u3000\u56db\u56fd\u5730\u65b9\u6574\u5099\u5c40\u3000\u5fb3\u5cf6\u6cb3\u5ddd\u56fd\u9053\u4e8b\u52d9\u6240","boring_xml_url":64,"boring_view_url":1,"soilmap_view_url":null,"soiltest_xml_url":0,"soiltest_view_url":0},{"id":528566,"code":"B4KJ202201003-1102","latitude":"34.017787","longitude":"134.565696","source_code":"178830482000070010","project_name":"","survey_name":"\u5e73\u621029\u30fc30\u5e74\u5ea6\u3000\u6c5f\u7530\u5730\u533a\u5916\u5730\u8cea\u8abf\u67fb\u696d\u52d9","client_name":"\u56fd\u571f\u4ea4\u901a\u7701\u3000\u56db\u56fd\u5730\u65b9\u6574\u5099\u5c40\u3000\u5fb3\u5cf6\u6cb3\u5ddd\u56fd\u9053\u4e8b\u52d9\u6240","boring_xml_url":64,"boring_view_url":1,"soilmap_view_url":null,"soiltest_xml_url":0,"soiltest_view_url":0},{"id":528565,"code":"B4KJ202201003-1101","latitude":"34.017972","longitude":"134.565919","source_code":"178830482000070009","project_name":"","survey_name":"\u5e73\u621029\u30fc30\u5e74\u5ea6\u3000\u6c5f\u7530\u5730\u533a\u5916\u5730\u8cea\u8abf\u67fb\u696d\u52d9","client_name":"\u56fd\u571f\u4ea4\u901a\u7701\u3000\u56db\u56fd\u5730\u65b9\u6574\u5099\u5c40\u3000\u5fb3\u5cf6\u6cb3\u5ddd\u56fd\u9053\u4e8b\u52d9\u6240","boring_xml_url":64,"boring_view_url":1,"soilmap_view_url":null,"soiltest_xml_url":0,"soiltest_view_url":0},{"id":528564,"code":"B4KJ202201003-1100","latitude":"34.018143","longitude":"134.56616","source_code":"178830482000070008","project_name":"","survey_name":"\u5e73\u621029\u30fc30\u5e74\u5ea6\u3000\u6c5f\u7530\u5730\u533a\u5916\u5730\u8cea\u8abf\u67fb\u696d\u52d9","client_name":"\u56fd\u571f\u4ea4\u901a\u7701\u3000\u56db\u56fd\u5730\u65b9\u6574\u5099\u5c40\u3000\u5fb3\u5cf6\u6cb3\u5ddd\u56fd\u9053\u4e8b\u52d9\u6240","boring_xml_url":64,"boring_view_url":1,"soilmap_view_url":null,"soiltest_xml_url":0,"soiltest_view_url":0},{"id":528563,"code":"B4KJ202201003-1099","latitude":"34.018331","longitude":"134.566381","source_code":"178830482000070007","project_name":"","survey_name":"\u5e73\u621029\u30fc30\u5e74\u5ea6\u3000\u6c5f\u7530\u5730\u533a\u5916\u5730\u8cea\u8abf\u67fb\u696d\u52d9","client_name":"\u56fd\u571f\u4ea4\u901a\u7701\u3000\u56db\u56fd\u5730\u65b9\u6574\u5099\u5c40\u3000\u5fb3\u5cf6\u6cb3\u5ddd\u56fd\u9053\u4e8b\u52d9\u6240","boring_xml_url":64,"boring_view_url":1,"soilmap_view_url":null,"soiltest_xml_url":0,"soiltest_view_url":0},{"id":528562,"code":"B4KJ202201003-1098","latitude":"34.018506","longitude":"134.566617","source_code":"178830482000070006","project_name":"","survey_name":"\u5e73\u621029\u30fc30\u5e74\u5ea6\u3000\u6c5f\u7530\u5730\u533a\u5916\u5730\u8cea\u8abf\u67fb\u696d\u52d9","client_name":"\u56fd\u571f\u4ea4\u901a\u7701\u3000\u56db\u56fd\u5730\u65b9\u6574\u5099\u5c40\u3000\u5fb3\u5cf6\u6cb3\u5ddd\u56fd\u9053\u4e8b\u52d9\u6240","boring_xml_url":64,"boring_view_url":1,"soilmap_view_url":null,"soiltest_xml_url":0,"soiltest_view_url":0},{"id":528561,"code":"B4KJ202201003-1097","latitude":"34.018675","longitude":"134.566858","source_code":"178830482000070005","project_name":"","survey_name":"\u5e73\u621029\u30fc30\u5e74\u5ea6\u3000\u6c5f\u7530\u5730\u533a\u5916\u5730\u8cea\u8abf\u67fb\u696d\u52d9","client_name":"\u56fd\u571f\u4ea4\u901a\u7701\u3000\u56db\u56fd\u5730\u65b9\u6574\u5099\u5c40\u3000\u5fb3\u5cf6\u6cb3\u5ddd\u56fd\u9053\u4e8b\u52d9\u6240","boring_xml_url":64,"boring_view_url":1,"soilmap_view_url":null,"soiltest_xml_url":0,"soiltest_view_url":0},{"id":528560,"code":"B4KJ202201003-1096","latitude":"34.018814","longitude":"134.567089","source_code":"178830482000070004","project_name":"","survey_name":"\u5e73\u621029\u30fc30\u5e74\u5ea6\u3000\u6c5f\u7530\u5730\u533a\u5916\u5730\u8cea\u8abf\u67fb\u696d\u52d9","client_name":"\u56fd\u571f\u4ea4\u901a\u7701\u3000\u56db\u56fd\u5730\u65b9\u6574\u5099\u5c40\u3000\u5fb3\u5cf6\u6cb3\u5ddd\u56fd\u9053\u4e8b\u52d9\u6240","boring_xml_url":64,"boring_view_url":1,"soilmap_view_url":null,"soiltest_xml_url":0,"soiltest_view_url":0},{"id":528559,"code":"B4KJ202201003-1095","latitude":"34.018994","longitude":"134.567333","source_code":"178830482000070003","project_name":"","survey_name":"\u5e73\u621029\u30fc30\u5e74\u5ea6\u3000\u6c5f\u7530\u5730\u533a\u5916\u5730\u8cea\u8abf\u67fb\u696d\u52d9","client_name":"\u56fd\u571f\u4ea4\u901a\u7701\u3000\u56db\u56fd\u5730\u65b9\u6574\u5099\u5c40\u3000\u5fb3\u5cf6\u6cb3\u5ddd\u56fd\u9053\u4e8b\u52d9\u6240","boring_xml_url":64,"boring_view_url":1,"soilmap_view_url":null,"soiltest_xml_url":0,"soiltest_view_url":0}]}}