{"header":{"xyz":{"source":[],"mosaic":false},"page":5614,"raw":{"soiltest_result":"0","bbox":"57.598333,109.544722,1.933333,163.806111","page":"5614"},"conditions":{"soiltest_result":0,"north":57.598333,"west":109.544722,"south":1.933333,"east":163.806111},"success":true,"message":""},"data":{"meta":{"total":212844,"page":5614,"pages":7095,"count":30},"values":[{"id":152155,"code":"B4KJ201801004-0404","latitude":"35.36275194","longitude":"140.1099806","source_code":"KT53400039014","project_name":"","survey_name":"\u9053\u8def\u5730\u8cea\u8abf\u67fb12G\u30fbX\u30fb13","client_name":"\u56fd\u571f\u4ea4\u901a\u7701\u95a2\u6771\u5730\u65b9\u6574\u5099\u5c40\u5343\u8449\u56fd\u9053\u4e8b\u52d9\u6240","boring_xml_url":40,"boring_view_url":1,"soilmap_view_url":null,"soiltest_xml_url":0,"soiltest_view_url":0},{"id":152154,"code":"B4KJ201801004-0403","latitude":"35.36227972","longitude":"140.1098417","source_code":"KT53400039013","project_name":"","survey_name":"\u9053\u8def\u5730\u8cea\u8abf\u67fb12G\u30fbX\u30fb13","client_name":"\u56fd\u571f\u4ea4\u901a\u7701\u95a2\u6771\u5730\u65b9\u6574\u5099\u5c40\u5343\u8449\u56fd\u9053\u4e8b\u52d9\u6240","boring_xml_url":40,"boring_view_url":1,"soilmap_view_url":null,"soiltest_xml_url":0,"soiltest_view_url":0},{"id":152153,"code":"B4KJ201801004-0402","latitude":"35.36275167","longitude":"140.1019811","source_code":"KT53400038042","project_name":"","survey_name":"\u9053\u8def\u5730\u8cea\u8abf\u67fb12G\u30fbX\u30fb13","client_name":"\u56fd\u571f\u4ea4\u901a\u7701\u95a2\u6771\u5730\u65b9\u6574\u5099\u5c40\u5343\u8449\u56fd\u9053\u4e8b\u52d9\u6240","boring_xml_url":40,"boring_view_url":1,"soilmap_view_url":null,"soiltest_xml_url":0,"soiltest_view_url":0},{"id":152152,"code":"B4KJ201801004-0401","latitude":"35.36319611","longitude":"140.1019811","source_code":"KT53400038041","project_name":"","survey_name":"\u9053\u8def\u5730\u8cea\u8abf\u67fb12G\u30fbX\u30fb13","client_name":"\u56fd\u571f\u4ea4\u901a\u7701\u95a2\u6771\u5730\u65b9\u6574\u5099\u5c40\u5343\u8449\u56fd\u9053\u4e8b\u52d9\u6240","boring_xml_url":40,"boring_view_url":1,"soilmap_view_url":null,"soiltest_xml_url":0,"soiltest_view_url":0},{"id":152151,"code":"B4KJ201801004-0400","latitude":"35.36227972","longitude":"140.1069531","source_code":"KT53400038040","project_name":"","survey_name":"\u9053\u8def\u5730\u8cea\u8abf\u67fb12G\u30fbX\u30fb13","client_name":"\u56fd\u571f\u4ea4\u901a\u7701\u95a2\u6771\u5730\u65b9\u6574\u5099\u5c40\u5343\u8449\u56fd\u9053\u4e8b\u52d9\u6240","boring_xml_url":40,"boring_view_url":1,"soilmap_view_url":null,"soiltest_xml_url":0,"soiltest_view_url":0},{"id":152150,"code":"B4KJ201801004-0399","latitude":"35.36275194","longitude":"140.1069531","source_code":"KT53400038039","project_name":"","survey_name":"\u9053\u8def\u5730\u8cea\u8abf\u67fb12G\u30fbX\u30fb13","client_name":"\u56fd\u571f\u4ea4\u901a\u7701\u95a2\u6771\u5730\u65b9\u6574\u5099\u5c40\u5343\u8449\u56fd\u9053\u4e8b\u52d9\u6240","boring_xml_url":40,"boring_view_url":1,"soilmap_view_url":null,"soiltest_xml_url":0,"soiltest_view_url":0},{"id":152149,"code":"B4KJ201801004-0398","latitude":"35.36227972","longitude":"140.1076475","source_code":"KT53400038038","project_name":"","survey_name":"\u9053\u8def\u5730\u8cea\u8abf\u67fb12G\u30fbX\u30fb13","client_name":"\u56fd\u571f\u4ea4\u901a\u7701\u95a2\u6771\u5730\u65b9\u6574\u5099\u5c40\u5343\u8449\u56fd\u9053\u4e8b\u52d9\u6240","boring_xml_url":40,"boring_view_url":1,"soilmap_view_url":null,"soiltest_xml_url":0,"soiltest_view_url":0},{"id":152148,"code":"B4KJ201801004-0397","latitude":"35.36275194","longitude":"140.1082031","source_code":"KT53400038037","project_name":"","survey_name":"\u9053\u8def\u5730\u8cea\u8abf\u67fb12G\u30fbX\u30fb13","client_name":"\u56fd\u571f\u4ea4\u901a\u7701\u95a2\u6771\u5730\u65b9\u6574\u5099\u5c40\u5343\u8449\u56fd\u9053\u4e8b\u52d9\u6240","boring_xml_url":40,"boring_view_url":1,"soilmap_view_url":null,"soiltest_xml_url":0,"soiltest_view_url":0},{"id":152147,"code":"B4KJ201801004-0396","latitude":"35.36227972","longitude":"140.1085919","source_code":"KT53400038036","project_name":"","survey_name":"\u9053\u8def\u5730\u8cea\u8abf\u67fb12G\u30fbX\u30fb13","client_name":"\u56fd\u571f\u4ea4\u901a\u7701\u95a2\u6771\u5730\u65b9\u6574\u5099\u5c40\u5343\u8449\u56fd\u9053\u4e8b\u52d9\u6240","boring_xml_url":40,"boring_view_url":1,"soilmap_view_url":null,"soiltest_xml_url":0,"soiltest_view_url":0},{"id":152146,"code":"B4KJ201801004-0395","latitude":"35.36227972","longitude":"140.1088694","source_code":"KT53400038035","project_name":"","survey_name":"\u9053\u8def\u5730\u8cea\u8abf\u67fb12G\u30fbX\u30fb13","client_name":"\u56fd\u571f\u4ea4\u901a\u7701\u95a2\u6771\u5730\u65b9\u6574\u5099\u5c40\u5343\u8449\u56fd\u9053\u4e8b\u52d9\u6240","boring_xml_url":40,"boring_view_url":1,"soilmap_view_url":null,"soiltest_xml_url":0,"soiltest_view_url":0},{"id":152145,"code":"B4KJ201801004-0394","latitude":"35.36230472","longitude":"140.0019064","source_code":"KT53400030001","project_name":"","survey_name":"\u570f\u592e\u9053\u5bae\u7530\u5730\u533a\u5730\u8cea\u8abf\u67fb\u696d\u52d9\u59d4\u8a17","client_name":"\u56fd\u571f\u4ea4\u901a\u7701\u95a2\u6771\u5730\u65b9\u6574\u5099\u5c40\u6771\u4eac\u6e7e\u5cb8\u9053\u8def\u8abf\u67fb\u4e8b\u52d9\u6240","boring_xml_url":40,"boring_view_url":1,"soilmap_view_url":null,"soiltest_xml_url":0,"soiltest_view_url":0},{"id":152144,"code":"B4KJ201801004-0393","latitude":"35.35725028","longitude":"140.0205717","source_code":"KT53400021007","project_name":"","survey_name":"\u570f\u592e\u9053\u5bae\u7530\u5730\u533a\u5730\u8cea\u8abf\u67fb\u696d\u52d9\u59d4\u8a17","client_name":"\u56fd\u571f\u4ea4\u901a\u7701\u95a2\u6771\u5730\u65b9\u6574\u5099\u5c40\u6771\u4eac\u6e7e\u5cb8\u9053\u8def\u8abf\u67fb\u4e8b\u52d9\u6240","boring_xml_url":40,"boring_view_url":1,"soilmap_view_url":null,"soiltest_xml_url":0,"soiltest_view_url":0},{"id":152143,"code":"B4KJ201801004-0392","latitude":"35.35652778","longitude":"140.01335","source_code":"KT53400021006","project_name":"","survey_name":"\u570f\u592e\u9053\u5bae\u7530\u5730\u533a\u5730\u8cea\u8abf\u67fb\u696d\u52d9\u59d4\u8a17","client_name":"\u56fd\u571f\u4ea4\u901a\u7701\u95a2\u6771\u5730\u65b9\u6574\u5099\u5c40\u6771\u4eac\u6e7e\u5cb8\u9053\u8def\u8abf\u67fb\u4e8b\u52d9\u6240","boring_xml_url":40,"boring_view_url":1,"soilmap_view_url":null,"soiltest_xml_url":0,"soiltest_view_url":0},{"id":152142,"code":"B4KJ201801004-0391","latitude":"35.3567225","longitude":"140.0188775","source_code":"KT53400021005","project_name":"","survey_name":"\u570f\u592e\u9053\u5bae\u7530\u5730\u533a\u5730\u8cea\u8abf\u67fb\u696d\u52d9\u59d4\u8a17","client_name":"\u56fd\u571f\u4ea4\u901a\u7701\u95a2\u6771\u5730\u65b9\u6574\u5099\u5c40\u6771\u4eac\u6e7e\u5cb8\u9053\u8def\u8abf\u67fb\u4e8b\u52d9\u6240","boring_xml_url":40,"boring_view_url":1,"soilmap_view_url":null,"soiltest_xml_url":0,"soiltest_view_url":0},{"id":152141,"code":"B4KJ201801004-0390","latitude":"35.35647222","longitude":"140.0129889","source_code":"KT53400021004","project_name":"","survey_name":"\u570f\u592e\u9053\u5bae\u7530\u5730\u533a\u5730\u8cea\u8abf\u67fb\u696d\u52d9\u59d4\u8a17","client_name":"\u56fd\u571f\u4ea4\u901a\u7701\u95a2\u6771\u5730\u65b9\u6574\u5099\u5c40\u6771\u4eac\u6e7e\u5cb8\u9053\u8def\u8abf\u67fb\u4e8b\u52d9\u6240","boring_xml_url":40,"boring_view_url":1,"soilmap_view_url":null,"soiltest_xml_url":0,"soiltest_view_url":0},{"id":152140,"code":"B4KJ201801004-0389","latitude":"35.35702778","longitude":"140.0102947","source_code":"KT53400021003","project_name":"","survey_name":"\u570f\u592e\u9053\u5bae\u7530\u5730\u533a\u5730\u8cea\u8abf\u67fb\u696d\u52d9\u59d4\u8a17","client_name":"\u56fd\u571f\u4ea4\u901a\u7701\u95a2\u6771\u5730\u65b9\u6574\u5099\u5c40\u6771\u4eac\u6e7e\u5cb8\u9053\u8def\u8abf\u67fb\u4e8b\u52d9\u6240","boring_xml_url":40,"boring_view_url":1,"soilmap_view_url":null,"soiltest_xml_url":0,"soiltest_view_url":0},{"id":152139,"code":"B4KJ201801004-0388","latitude":"35.35650028","longitude":"140.0175997","source_code":"KT53400021002","project_name":"","survey_name":"\u570f\u592e\u9053\u5bae\u7530\u5730\u533a\u5730\u8cea\u8abf\u67fb\u696d\u52d9\u59d4\u8a17","client_name":"\u56fd\u571f\u4ea4\u901a\u7701\u95a2\u6771\u5730\u65b9\u6574\u5099\u5c40\u6771\u4eac\u6e7e\u5cb8\u9053\u8def\u8abf\u67fb\u4e8b\u52d9\u6240","boring_xml_url":40,"boring_view_url":1,"soilmap_view_url":null,"soiltest_xml_url":0,"soiltest_view_url":0},{"id":152138,"code":"B4KJ201801004-0387","latitude":"35.35688917","longitude":"140.0186553","source_code":"KT53400021001","project_name":"","survey_name":"\u570f\u592e\u9053\u5bae\u7530\u5730\u533a\u5730\u8cea\u8abf\u67fb\u696d\u52d9\u59d4\u8a17","client_name":"\u56fd\u571f\u4ea4\u901a\u7701\u95a2\u6771\u5730\u65b9\u6574\u5099\u5c40\u6771\u4eac\u6e7e\u5cb8\u9053\u8def\u8abf\u67fb\u4e8b\u52d9\u6240","boring_xml_url":40,"boring_view_url":1,"soilmap_view_url":null,"soiltest_xml_url":0,"soiltest_view_url":0},{"id":152137,"code":"B4KJ201801004-0386","latitude":"35.35986056","longitude":"140.0045728","source_code":"KT53400020008","project_name":"","survey_name":"\u570f\u592e\u9053\u5bae\u7530\u5730\u533a\u5730\u8cea\u8abf\u67fb\u696d\u52d9\u59d4\u8a17","client_name":"\u56fd\u571f\u4ea4\u901a\u7701\u95a2\u6771\u5730\u65b9\u6574\u5099\u5c40\u6771\u4eac\u6e7e\u5cb8\u9053\u8def\u8abf\u67fb\u4e8b\u52d9\u6240","boring_xml_url":40,"boring_view_url":1,"soilmap_view_url":null,"soiltest_xml_url":0,"soiltest_view_url":0},{"id":152136,"code":"B4KJ201801004-0385","latitude":"35.35861083","longitude":"140.0071839","source_code":"KT53400020007","project_name":"","survey_name":"\u570f\u592e\u9053\u5bae\u7530\u5730\u533a\u5730\u8cea\u8abf\u67fb\u696d\u52d9\u59d4\u8a17","client_name":"\u56fd\u571f\u4ea4\u901a\u7701\u95a2\u6771\u5730\u65b9\u6574\u5099\u5c40\u6771\u4eac\u6e7e\u5cb8\u9053\u8def\u8abf\u67fb\u4e8b\u52d9\u6240","boring_xml_url":40,"boring_view_url":1,"soilmap_view_url":null,"soiltest_xml_url":0,"soiltest_view_url":0},{"id":152135,"code":"B4KJ201801004-0384","latitude":"35.36127694","longitude":"140.0028231","source_code":"KT53400020006","project_name":"","survey_name":"\u570f\u592e\u9053\u5bae\u7530\u5730\u533a\u5730\u8cea\u8abf\u67fb\u696d\u52d9\u59d4\u8a17","client_name":"\u56fd\u571f\u4ea4\u901a\u7701\u95a2\u6771\u5730\u65b9\u6574\u5099\u5c40\u6771\u4eac\u6e7e\u5cb8\u9053\u8def\u8abf\u67fb\u4e8b\u52d9\u6240","boring_xml_url":40,"boring_view_url":1,"soilmap_view_url":null,"soiltest_xml_url":0,"soiltest_view_url":0},{"id":152134,"code":"B4KJ201801004-0383","latitude":"35.35991611","longitude":"140.0050172","source_code":"KT53400020005","project_name":"","survey_name":"\u570f\u592e\u9053\u5bae\u7530\u5730\u533a\u5730\u8cea\u8abf\u67fb\u696d\u52d9\u59d4\u8a17","client_name":"\u56fd\u571f\u4ea4\u901a\u7701\u95a2\u6771\u5730\u65b9\u6574\u5099\u5c40\u6771\u4eac\u6e7e\u5cb8\u9053\u8def\u8abf\u67fb\u4e8b\u52d9\u6240","boring_xml_url":40,"boring_view_url":1,"soilmap_view_url":null,"soiltest_xml_url":0,"soiltest_view_url":0},{"id":152133,"code":"B4KJ201801004-0382","latitude":"35.35894389","longitude":"140.0057394","source_code":"KT53400020004","project_name":"","survey_name":"\u570f\u592e\u9053\u5bae\u7530\u5730\u533a\u5730\u8cea\u8abf\u67fb\u696d\u52d9\u59d4\u8a17","client_name":"\u56fd\u571f\u4ea4\u901a\u7701\u95a2\u6771\u5730\u65b9\u6574\u5099\u5c40\u6771\u4eac\u6e7e\u5cb8\u9053\u8def\u8abf\u67fb\u4e8b\u52d9\u6240","boring_xml_url":40,"boring_view_url":1,"soilmap_view_url":null,"soiltest_xml_url":0,"soiltest_view_url":0},{"id":152132,"code":"B4KJ201801004-0381","latitude":"35.35902722","longitude":"140.0066561","source_code":"KT53400020003","project_name":"","survey_name":"\u570f\u592e\u9053\u5bae\u7530\u5730\u533a\u5730\u8cea\u8abf\u67fb\u696d\u52d9\u59d4\u8a17","client_name":"\u56fd\u571f\u4ea4\u901a\u7701\u95a2\u6771\u5730\u65b9\u6574\u5099\u5c40\u6771\u4eac\u6e7e\u5cb8\u9053\u8def\u8abf\u67fb\u4e8b\u52d9\u6240","boring_xml_url":40,"boring_view_url":1,"soilmap_view_url":null,"soiltest_xml_url":0,"soiltest_view_url":0},{"id":152131,"code":"B4KJ201801004-0380","latitude":"35.35836083","longitude":"140.0075728","source_code":"KT53400020002","project_name":"","survey_name":"\u570f\u592e\u9053\u5bae\u7530\u5730\u533a\u5730\u8cea\u8abf\u67fb\u696d\u52d9\u59d4\u8a17","client_name":"\u56fd\u571f\u4ea4\u901a\u7701\u95a2\u6771\u5730\u65b9\u6574\u5099\u5c40\u6771\u4eac\u6e7e\u5cb8\u9053\u8def\u8abf\u67fb\u4e8b\u52d9\u6240","boring_xml_url":40,"boring_view_url":1,"soilmap_view_url":null,"soiltest_xml_url":0,"soiltest_view_url":0},{"id":152130,"code":"B4KJ201801004-0379","latitude":"35.35736083","longitude":"140.006045","source_code":"KT53400020001","project_name":"","survey_name":"\u570f\u592e\u9053\u5bae\u7530\u5730\u533a\u5730\u8cea\u8abf\u67fb\u696d\u52d9\u59d4\u8a17","client_name":"\u56fd\u571f\u4ea4\u901a\u7701\u95a2\u6771\u5730\u65b9\u6574\u5099\u5c40\u6771\u4eac\u6e7e\u5cb8\u9053\u8def\u8abf\u67fb\u4e8b\u52d9\u6240","boring_xml_url":40,"boring_view_url":1,"soilmap_view_url":null,"soiltest_xml_url":0,"soiltest_view_url":0},{"id":152129,"code":"B4KJ201801004-0378","latitude":"35.99698306","longitude":"139.9929925","source_code":"KT53397799013","project_name":"","survey_name":"\u69d0\u6238\u6a0b\u7ba1\u571f\u8cea\u8abf\u67fb","client_name":"\u56fd\u571f\u4ea4\u901a\u7701\u95a2\u6771\u5730\u65b9\u6574\u5099\u5c40\u4e0b\u9928\u6cb3\u5ddd\u4e8b\u52d9\u6240","boring_xml_url":40,"boring_view_url":1,"soilmap_view_url":null,"soiltest_xml_url":0,"soiltest_view_url":0},{"id":152128,"code":"B4KJ201801004-0377","latitude":"35.99712194","longitude":"139.9930758","source_code":"KT53397799012","project_name":"","survey_name":"\u69d0\u6238\u6a0b\u7ba1\u571f\u8cea\u8abf\u67fb","client_name":"\u56fd\u571f\u4ea4\u901a\u7701\u95a2\u6771\u5730\u65b9\u6574\u5099\u5c40\u4e0b\u9928\u6cb3\u5ddd\u4e8b\u52d9\u6240","boring_xml_url":40,"boring_view_url":1,"soilmap_view_url":null,"soiltest_xml_url":0,"soiltest_view_url":0},{"id":152127,"code":"B4KJ201801004-0376","latitude":"36.00237139","longitude":"139.99452","source_code":"KT53397799011","project_name":"","survey_name":"\u5ddd\u53c8\u5730\u5148\u571f\u8cea\u8abf\u67fb","client_name":"\u56fd\u571f\u4ea4\u901a\u7701\u95a2\u6771\u5730\u65b9\u6574\u5099\u5c40\u4e0b\u9928\u6cb3\u5ddd\u4e8b\u52d9\u6240","boring_xml_url":40,"boring_view_url":1,"soilmap_view_url":null,"soiltest_xml_url":0,"soiltest_view_url":0},{"id":152126,"code":"B4KJ201801004-0375","latitude":"36.00209361","longitude":"139.9942422","source_code":"KT53397799010","project_name":"","survey_name":"\u5c0f\u8c9d\u5ddd\u4e2d\u6d41\u90e8(\u305d\u306e2)\u571f\u8cea\u8abf\u67fb","client_name":"\u56fd\u571f\u4ea4\u901a\u7701\u95a2\u6771\u5730\u65b9\u6574\u5099\u5c40\u4e0b\u9928\u6cb3\u5ddd\u4e8b\u52d9\u6240","boring_xml_url":40,"boring_view_url":1,"soilmap_view_url":null,"soiltest_xml_url":0,"soiltest_view_url":0}]}}