{"header":{"xyz":{"source":[],"mosaic":false},"page":5620,"raw":{"soiltest_result":"0","bbox":"57.598333,109.544722,1.933333,163.806111","page":"5620"},"conditions":{"soiltest_result":0,"north":57.598333,"west":109.544722,"south":1.933333,"east":163.806111},"success":true,"message":""},"data":{"meta":{"total":212844,"page":5620,"pages":7095,"count":30},"values":[{"id":151975,"code":"B4KJ201801004-0224","latitude":"35.99778361","longitude":"139.8125911","source_code":"KT53397695028","project_name":"","survey_name":"\u4e2d\u5ddd\u6d41\u57df\u5730\u8cea(\u305d\u306e26)\u8abf\u67fb","client_name":"\u56fd\u571f\u4ea4\u901a\u7701\u95a2\u6771\u5730\u65b9\u6574\u5099\u5c40\u6c5f\u6238\u5ddd\u6cb3\u5ddd\u4e8b\u52d9\u6240","boring_xml_url":40,"boring_view_url":1,"soilmap_view_url":null,"soiltest_xml_url":0,"soiltest_view_url":0},{"id":151974,"code":"B4KJ201801004-0223","latitude":"35.99783917","longitude":"139.8122856","source_code":"KT53397695027","project_name":"","survey_name":"\u4e2d\u5ddd\u6d41\u57df\u5730\u8cea(\u305d\u306e26)\u8abf\u67fb","client_name":"\u56fd\u571f\u4ea4\u901a\u7701\u95a2\u6771\u5730\u65b9\u6574\u5099\u5c40\u6c5f\u6238\u5ddd\u6cb3\u5ddd\u4e8b\u52d9\u6240","boring_xml_url":40,"boring_view_url":1,"soilmap_view_url":null,"soiltest_xml_url":0,"soiltest_view_url":0},{"id":151973,"code":"B4KJ201801004-0222","latitude":"35.99561722","longitude":"139.8107303","source_code":"KT53397695026","project_name":"","survey_name":"\u4e2d\u5ddd\u6d41\u57df\u5730\u8cea(\u305d\u306e26)\u8abf\u67fb","client_name":"\u56fd\u571f\u4ea4\u901a\u7701\u95a2\u6771\u5730\u65b9\u6574\u5099\u5c40\u6c5f\u6238\u5ddd\u6cb3\u5ddd\u4e8b\u52d9\u6240","boring_xml_url":40,"boring_view_url":1,"soilmap_view_url":null,"soiltest_xml_url":0,"soiltest_view_url":0},{"id":151972,"code":"B4KJ201801004-0221","latitude":"35.99708917","longitude":"139.8103692","source_code":"KT53397695025","project_name":"","survey_name":"\u4e2d\u5ddd\u6d41\u57df\u5730\u8cea(\u305d\u306e26)\u8abf\u67fb","client_name":"\u56fd\u571f\u4ea4\u901a\u7701\u95a2\u6771\u5730\u65b9\u6574\u5099\u5c40\u6c5f\u6238\u5ddd\u6cb3\u5ddd\u4e8b\u52d9\u6240","boring_xml_url":40,"boring_view_url":1,"soilmap_view_url":null,"soiltest_xml_url":0,"soiltest_view_url":0},{"id":151971,"code":"B4KJ201801004-0220","latitude":"35.996145","longitude":"139.8100914","source_code":"KT53397695024","project_name":"","survey_name":"\u4e2d\u5ddd\u6d41\u57df\u5730\u8cea(\u305d\u306e26)\u8abf\u67fb","client_name":"\u56fd\u571f\u4ea4\u901a\u7701\u95a2\u6771\u5730\u65b9\u6574\u5099\u5c40\u6c5f\u6238\u5ddd\u6cb3\u5ddd\u4e8b\u52d9\u6240","boring_xml_url":40,"boring_view_url":1,"soilmap_view_url":null,"soiltest_xml_url":0,"soiltest_view_url":0},{"id":151970,"code":"B4KJ201801004-0219","latitude":"35.9969225","longitude":"139.8106192","source_code":"KT53397695023","project_name":"","survey_name":"\u4e2d\u5ddd\u6d41\u57df\u5730\u8cea(\u305d\u306e26)\u8abf\u67fb","client_name":"\u56fd\u571f\u4ea4\u901a\u7701\u95a2\u6771\u5730\u65b9\u6574\u5099\u5c40\u6c5f\u6238\u5ddd\u6cb3\u5ddd\u4e8b\u52d9\u6240","boring_xml_url":40,"boring_view_url":1,"soilmap_view_url":null,"soiltest_xml_url":0,"soiltest_view_url":0},{"id":151969,"code":"B4KJ201801004-0218","latitude":"35.99583944","longitude":"139.8103414","source_code":"KT53397695022","project_name":"","survey_name":"\u4e2d\u5ddd\u6d41\u57df\u5730\u8cea(\u305d\u306e26)\u8abf\u67fb","client_name":"\u56fd\u571f\u4ea4\u901a\u7701\u95a2\u6771\u5730\u65b9\u6574\u5099\u5c40\u6c5f\u6238\u5ddd\u6cb3\u5ddd\u4e8b\u52d9\u6240","boring_xml_url":40,"boring_view_url":1,"soilmap_view_url":null,"soiltest_xml_url":0,"soiltest_view_url":0},{"id":151968,"code":"B4KJ201801004-0217","latitude":"35.99714472","longitude":"139.8112303","source_code":"KT53397695021","project_name":"","survey_name":"\u4e2d\u5ddd\u6d41\u57df\u5730\u8cea(\u305d\u306e26)\u8abf\u67fb","client_name":"\u56fd\u571f\u4ea4\u901a\u7701\u95a2\u6771\u5730\u65b9\u6574\u5099\u5c40\u6c5f\u6238\u5ddd\u6cb3\u5ddd\u4e8b\u52d9\u6240","boring_xml_url":40,"boring_view_url":1,"soilmap_view_url":null,"soiltest_xml_url":0,"soiltest_view_url":0},{"id":151967,"code":"B4KJ201801004-0216","latitude":"35.99597833","longitude":"139.8106469","source_code":"KT53397695020","project_name":"","survey_name":"\u4e2d\u5ddd\u6d41\u57df\u5730\u8cea(\u305d\u306e24)\u8abf\u67fb","client_name":"\u56fd\u571f\u4ea4\u901a\u7701\u95a2\u6771\u5730\u65b9\u6574\u5099\u5c40\u6c5f\u6238\u5ddd\u6cb3\u5ddd\u4e8b\u52d9\u6240","boring_xml_url":40,"boring_view_url":1,"soilmap_view_url":null,"soiltest_xml_url":0,"soiltest_view_url":0},{"id":151966,"code":"B4KJ201801004-0215","latitude":"35.99958917","longitude":"139.8167575","source_code":"KT53397695019","project_name":"","survey_name":"\u4e2d\u5ddd\u6d41\u57df\u5730\u8cea(\u305d\u306e24)\u8abf\u67fb","client_name":"\u56fd\u571f\u4ea4\u901a\u7701\u95a2\u6771\u5730\u65b9\u6574\u5099\u5c40\u6c5f\u6238\u5ddd\u6cb3\u5ddd\u4e8b\u52d9\u6240","boring_xml_url":40,"boring_view_url":1,"soilmap_view_url":null,"soiltest_xml_url":0,"soiltest_view_url":0},{"id":151965,"code":"B4KJ201801004-0214","latitude":"35.997645","longitude":"139.8153686","source_code":"KT53397695018","project_name":"","survey_name":"\u4e2d\u5ddd\u6d41\u57df\u5730\u8cea(\u305d\u306e24)\u8abf\u67fb","client_name":"\u56fd\u571f\u4ea4\u901a\u7701\u95a2\u6771\u5730\u65b9\u6574\u5099\u5c40\u6c5f\u6238\u5ddd\u6cb3\u5ddd\u4e8b\u52d9\u6240","boring_xml_url":40,"boring_view_url":1,"soilmap_view_url":null,"soiltest_xml_url":0,"soiltest_view_url":0},{"id":151964,"code":"B4KJ201801004-0213","latitude":"35.9948675","longitude":"139.8173131","source_code":"KT53397695017","project_name":"","survey_name":"\u4e2d\u5ddd\u6d41\u57df\u5730\u8cea(\u305d\u306e24)\u8abf\u67fb","client_name":"\u56fd\u571f\u4ea4\u901a\u7701\u95a2\u6771\u5730\u65b9\u6574\u5099\u5c40\u6c5f\u6238\u5ddd\u6cb3\u5ddd\u4e8b\u52d9\u6240","boring_xml_url":40,"boring_view_url":1,"soilmap_view_url":null,"soiltest_xml_url":0,"soiltest_view_url":0},{"id":151963,"code":"B4KJ201801004-0212","latitude":"35.99820028","longitude":"139.81398","source_code":"KT53397695016","project_name":"","survey_name":"\u4e2d\u5ddd\u6d41\u57df\u5730\u8cea(\u305d\u306e24)\u8abf\u67fb","client_name":"\u56fd\u571f\u4ea4\u901a\u7701\u95a2\u6771\u5730\u65b9\u6574\u5099\u5c40\u6c5f\u6238\u5ddd\u6cb3\u5ddd\u4e8b\u52d9\u6240","boring_xml_url":40,"boring_view_url":1,"soilmap_view_url":null,"soiltest_xml_url":0,"soiltest_view_url":0},{"id":151962,"code":"B4KJ201801004-0211","latitude":"35.99708944","longitude":"139.8137022","source_code":"KT53397695015","project_name":"","survey_name":"\u4e2d\u5ddd\u6d41\u57df\u5730\u8cea(\u305d\u306e24)\u8abf\u67fb","client_name":"\u56fd\u571f\u4ea4\u901a\u7701\u95a2\u6771\u5730\u65b9\u6574\u5099\u5c40\u6c5f\u6238\u5ddd\u6cb3\u5ddd\u4e8b\u52d9\u6240","boring_xml_url":40,"boring_view_url":1,"soilmap_view_url":null,"soiltest_xml_url":0,"soiltest_view_url":0},{"id":151961,"code":"B4KJ201801004-0210","latitude":"35.99597833","longitude":"139.8142578","source_code":"KT53397695014","project_name":"","survey_name":"\u4e2d\u5ddd\u6d41\u57df\u5730\u8cea(\u305d\u306e24)\u8abf\u67fb","client_name":"\u56fd\u571f\u4ea4\u901a\u7701\u95a2\u6771\u5730\u65b9\u6574\u5099\u5c40\u6c5f\u6238\u5ddd\u6cb3\u5ddd\u4e8b\u52d9\u6240","boring_xml_url":40,"boring_view_url":1,"soilmap_view_url":null,"soiltest_xml_url":0,"soiltest_view_url":0},{"id":151960,"code":"B4KJ201801004-0209","latitude":"35.99764472","longitude":"139.8142578","source_code":"KT53397695013","project_name":"","survey_name":"\u4e2d\u5ddd\u6d41\u57df\u5730\u8cea(\u305d\u306e24)\u8abf\u67fb","client_name":"\u56fd\u571f\u4ea4\u901a\u7701\u95a2\u6771\u5730\u65b9\u6574\u5099\u5c40\u6c5f\u6238\u5ddd\u6cb3\u5ddd\u4e8b\u52d9\u6240","boring_xml_url":40,"boring_view_url":1,"soilmap_view_url":null,"soiltest_xml_url":0,"soiltest_view_url":0},{"id":151959,"code":"B4KJ201801004-0208","latitude":"35.99764472","longitude":"139.8137022","source_code":"KT53397695012","project_name":"","survey_name":"\u4e2d\u5ddd\u6d41\u57df\u5730\u8cea(\u305d\u306e24)\u8abf\u67fb","client_name":"\u56fd\u571f\u4ea4\u901a\u7701\u95a2\u6771\u5730\u65b9\u6574\u5099\u5c40\u6c5f\u6238\u5ddd\u6cb3\u5ddd\u4e8b\u52d9\u6240","boring_xml_url":40,"boring_view_url":1,"soilmap_view_url":null,"soiltest_xml_url":0,"soiltest_view_url":0},{"id":151958,"code":"B4KJ201801004-0207","latitude":"35.99764472","longitude":"139.8131467","source_code":"KT53397695011","project_name":"","survey_name":"\u4e2d\u5ddd\u6d41\u57df\u5730\u8cea(\u305d\u306e24)\u8abf\u67fb","client_name":"\u56fd\u571f\u4ea4\u901a\u7701\u95a2\u6771\u5730\u65b9\u6574\u5099\u5c40\u6c5f\u6238\u5ddd\u6cb3\u5ddd\u4e8b\u52d9\u6240","boring_xml_url":40,"boring_view_url":1,"soilmap_view_url":null,"soiltest_xml_url":0,"soiltest_view_url":0},{"id":151957,"code":"B4KJ201801004-0206","latitude":"35.9979225","longitude":"139.8123133","source_code":"KT53397695010","project_name":"","survey_name":"\u4e2d\u5ddd\u6d41\u57df\u5730\u8cea(\u305d\u306e24)\u8abf\u67fb","client_name":"\u56fd\u571f\u4ea4\u901a\u7701\u95a2\u6771\u5730\u65b9\u6574\u5099\u5c40\u6c5f\u6238\u5ddd\u6cb3\u5ddd\u4e8b\u52d9\u6240","boring_xml_url":40,"boring_view_url":1,"soilmap_view_url":null,"soiltest_xml_url":0,"soiltest_view_url":0},{"id":151956,"code":"B4KJ201801004-0205","latitude":"35.99764472","longitude":"139.8117581","source_code":"KT53397695009","project_name":"","survey_name":"\u4e2d\u5ddd\u6d41\u57df\u5730\u8cea(\u305d\u306e24)\u8abf\u67fb","client_name":"\u56fd\u571f\u4ea4\u901a\u7701\u95a2\u6771\u5730\u65b9\u6574\u5099\u5c40\u6c5f\u6238\u5ddd\u6cb3\u5ddd\u4e8b\u52d9\u6240","boring_xml_url":40,"boring_view_url":1,"soilmap_view_url":null,"soiltest_xml_url":0,"soiltest_view_url":0},{"id":151955,"code":"B4KJ201801004-0204","latitude":"35.99736694","longitude":"139.8123133","source_code":"KT53397695008","project_name":"","survey_name":"\u4e2d\u5ddd\u6d41\u57df\u5730\u8cea(\u305d\u306e24)\u8abf\u67fb","client_name":"\u56fd\u571f\u4ea4\u901a\u7701\u95a2\u6771\u5730\u65b9\u6574\u5099\u5c40\u6c5f\u6238\u5ddd\u6cb3\u5ddd\u4e8b\u52d9\u6240","boring_xml_url":40,"boring_view_url":1,"soilmap_view_url":null,"soiltest_xml_url":0,"soiltest_view_url":0},{"id":151954,"code":"B4KJ201801004-0203","latitude":"35.99681167","longitude":"139.8120358","source_code":"KT53397695007","project_name":"","survey_name":"\u4e2d\u5ddd\u6d41\u57df\u5730\u8cea(\u305d\u306e24)\u8abf\u67fb","client_name":"\u56fd\u571f\u4ea4\u901a\u7701\u95a2\u6771\u5730\u65b9\u6574\u5099\u5c40\u6c5f\u6238\u5ddd\u6cb3\u5ddd\u4e8b\u52d9\u6240","boring_xml_url":40,"boring_view_url":1,"soilmap_view_url":null,"soiltest_xml_url":0,"soiltest_view_url":0},{"id":151953,"code":"B4KJ201801004-0202","latitude":"35.99708917","longitude":"139.8112025","source_code":"KT53397695006","project_name":"","survey_name":"\u4e2d\u5ddd\u6d41\u57df\u5730\u8cea(\u305d\u306e24)\u8abf\u67fb","client_name":"\u56fd\u571f\u4ea4\u901a\u7701\u95a2\u6771\u5730\u65b9\u6574\u5099\u5c40\u6c5f\u6238\u5ddd\u6cb3\u5ddd\u4e8b\u52d9\u6240","boring_xml_url":40,"boring_view_url":1,"soilmap_view_url":null,"soiltest_xml_url":0,"soiltest_view_url":0},{"id":151952,"code":"B4KJ201801004-0201","latitude":"35.99708917","longitude":"139.8120358","source_code":"KT53397695005","project_name":"","survey_name":"\u4e2d\u5ddd\u6d41\u57df\u5730\u8cea(\u305d\u306e24)\u8abf\u67fb","client_name":"\u56fd\u571f\u4ea4\u901a\u7701\u95a2\u6771\u5730\u65b9\u6574\u5099\u5c40\u6c5f\u6238\u5ddd\u6cb3\u5ddd\u4e8b\u52d9\u6240","boring_xml_url":40,"boring_view_url":1,"soilmap_view_url":null,"soiltest_xml_url":0,"soiltest_view_url":0},{"id":151951,"code":"B4KJ201801004-0200","latitude":"35.99653389","longitude":"139.8112025","source_code":"KT53397695004","project_name":"","survey_name":"\u4e2d\u5ddd\u6d41\u57df\u5730\u8cea(\u305d\u306e24)\u8abf\u67fb","client_name":"\u56fd\u571f\u4ea4\u901a\u7701\u95a2\u6771\u5730\u65b9\u6574\u5099\u5c40\u6c5f\u6238\u5ddd\u6cb3\u5ddd\u4e8b\u52d9\u6240","boring_xml_url":40,"boring_view_url":1,"soilmap_view_url":null,"soiltest_xml_url":0,"soiltest_view_url":0},{"id":151950,"code":"B4KJ201801004-0199","latitude":"35.99789472","longitude":"139.8104525","source_code":"KT53397695003","project_name":"","survey_name":"\u4e2d\u5ddd\u6d41\u57df\u5730\u8cea(\u305d\u306e9)\u8abf\u67fb","client_name":"\u56fd\u571f\u4ea4\u901a\u7701\u95a2\u6771\u5730\u65b9\u6574\u5099\u5c40\u6c5f\u6238\u5ddd\u6cb3\u5ddd\u4e8b\u52d9\u6240","boring_xml_url":40,"boring_view_url":1,"soilmap_view_url":null,"soiltest_xml_url":0,"soiltest_view_url":0},{"id":151949,"code":"B4KJ201801004-0198","latitude":"35.9991725","longitude":"139.81398","source_code":"KT53397695002","project_name":"","survey_name":"\u77e2\u5207\u5730\u5148\u4ed65\u5730\u5148\u571f\u8cea\u8abf\u67fb","client_name":"\u56fd\u571f\u4ea4\u901a\u7701\u95a2\u6771\u5730\u65b9\u6574\u5099\u5c40\u6c5f\u6238\u5ddd\u6cb3\u5ddd\u4e8b\u52d9\u6240","boring_xml_url":40,"boring_view_url":1,"soilmap_view_url":null,"soiltest_xml_url":0,"soiltest_view_url":0},{"id":151948,"code":"B4KJ201801004-0197","latitude":"36.00031111","longitude":"139.8134244","source_code":"KT53397695001","project_name":"","survey_name":"\u897f\u91d1\u91ce\u4e95\u53ca\u3073\u6c5f\u5ddd\u5730\u5148\u571f\u8cea\u8abf\u67fb","client_name":"\u56fd\u571f\u4ea4\u901a\u7701\u95a2\u6771\u5730\u65b9\u6574\u5099\u5c40\u6c5f\u6238\u5ddd\u6cb3\u5ddd\u4e8b\u52d9\u6240","boring_xml_url":40,"boring_view_url":1,"soilmap_view_url":null,"soiltest_xml_url":0,"soiltest_view_url":0},{"id":151947,"code":"B4KJ201801004-0196","latitude":"35.99578389","longitude":"139.8088972","source_code":"KT53397694001","project_name":"","survey_name":"\u4e2d\u5ddd\u6d41\u57df\u5730\u8cea(\u305d\u306e26)\u8abf\u67fb","client_name":"\u56fd\u571f\u4ea4\u901a\u7701\u95a2\u6771\u5730\u65b9\u6574\u5099\u5c40\u6c5f\u6238\u5ddd\u6cb3\u5ddd\u4e8b\u52d9\u6240","boring_xml_url":40,"boring_view_url":1,"soilmap_view_url":null,"soiltest_xml_url":0,"soiltest_view_url":0},{"id":151946,"code":"B4KJ201801004-0195","latitude":"35.99803306","longitude":"139.7932872","source_code":"KT53397693003","project_name":"","survey_name":"\u7b2c\u4e8c4\u53f7\u305d\u306e2\u5730\u8cea\u8abf\u67fb","client_name":"\u56fd\u571f\u4ea4\u901a\u7701\u95a2\u6771\u5730\u65b9\u6574\u5099\u5c40\u5317\u9996\u90fd\u56fd\u9053\u4e8b\u52d9\u6240","boring_xml_url":40,"boring_view_url":1,"soilmap_view_url":null,"soiltest_xml_url":0,"soiltest_view_url":0}]}}