{"header":{"xyz":{"source":[],"mosaic":false},"page":5624,"raw":{"soiltest_result":"0","bbox":"57.598333,109.544722,1.933333,163.806111","page":"5624"},"conditions":{"soiltest_result":0,"north":57.598333,"west":109.544722,"south":1.933333,"east":163.806111},"success":true,"message":""},"data":{"meta":{"total":212844,"page":5624,"pages":7095,"count":30},"values":[{"id":151855,"code":"B4KJ201801004-0104","latitude":"35.92457111","longitude":"139.8687839","source_code":"KT53397609001","project_name":"","survey_name":"\u5409\u59bb\u6771\u91d1\u91ce\u4e95\u4eca\u4e0a\u571f\u8cea\u8abf\u67fb","client_name":"\u56fd\u571f\u4ea4\u901a\u7701\u95a2\u6771\u5730\u65b9\u6574\u5099\u5c40\u6c5f\u6238\u5ddd\u6cb3\u5ddd\u4e8b\u52d9\u6240","boring_xml_url":40,"boring_view_url":1,"soilmap_view_url":null,"soiltest_xml_url":0,"soiltest_view_url":0},{"id":151854,"code":"B4KJ201801004-0103","latitude":"35.92731861","longitude":"139.7860408","source_code":"KT53397603001","project_name":"","survey_name":"\u4e00\u822c\u56fd\u90534\u53f7\u4e0b\u9593\u4e45\u91cc\u5730\u533a\u5730\u8cea\u8abf\u67fb","client_name":"\u56fd\u571f\u4ea4\u901a\u7701\u95a2\u6771\u5730\u65b9\u6574\u5099\u5c40\u5317\u9996\u90fd\u56fd\u9053\u4e8b\u52d9\u6240","boring_xml_url":40,"boring_view_url":1,"soilmap_view_url":null,"soiltest_xml_url":0,"soiltest_view_url":0},{"id":151853,"code":"B4KJ201801004-0102","latitude":"35.92129139","longitude":"139.779625","source_code":"KT53397602008","project_name":"","survey_name":"\u8d8a\u8c374\u53f7\u5730\u4e0b\u9053\u4fee\u7e55\u5de5\u4e8b\u5730\u8cea\u30fb\u571f\u8cea\u8abf\u67fb","client_name":"\u56fd\u571f\u4ea4\u901a\u7701\u95a2\u6771\u5730\u65b9\u6574\u5099\u5c40\u5927\u5bae\u56fd\u9053\u4e8b\u52d9\u6240","boring_xml_url":40,"boring_view_url":1,"soilmap_view_url":null,"soiltest_xml_url":0,"soiltest_view_url":0},{"id":151852,"code":"B4KJ201801004-0101","latitude":"35.92129139","longitude":"139.779625","source_code":"KT53397602007","project_name":"","survey_name":"\u8d8a\u8c374\u53f7\u5730\u4e0b\u9053\u4fee\u7e55\u5de5\u4e8b\u5730\u8cea\u30fb\u571f\u8cea\u8abf\u67fb","client_name":"\u56fd\u571f\u4ea4\u901a\u7701\u95a2\u6771\u5730\u65b9\u6574\u5099\u5c40\u5927\u5bae\u56fd\u9053\u4e8b\u52d9\u6240","boring_xml_url":40,"boring_view_url":1,"soilmap_view_url":null,"soiltest_xml_url":0,"soiltest_view_url":0},{"id":151851,"code":"B4KJ201801004-0100","latitude":"35.92101361","longitude":"139.7795417","source_code":"KT53397602006","project_name":"","survey_name":"\u7dbe\u702c\u5ddd\u6a4b\u305d\u306e\u4ed6\u5730\u8cea\u571f\u8cea\u8abf\u67fb","client_name":"\u56fd\u571f\u4ea4\u901a\u7701\u95a2\u6771\u5730\u65b9\u6574\u5099\u5c40\u5927\u5bae\u56fd\u9053\u4e8b\u52d9\u6240","boring_xml_url":40,"boring_view_url":1,"soilmap_view_url":null,"soiltest_xml_url":0,"soiltest_view_url":0},{"id":151850,"code":"B4KJ201801004-0099","latitude":"35.92234694","longitude":"139.7814858","source_code":"KT53397602004","project_name":"","survey_name":"\u8d8a\u8c37\u5e02\u5927\u91cc\u9644\u8fd1\u5730\u8cea\u8abf\u67fb","client_name":"\u56fd\u571f\u4ea4\u901a\u7701\u95a2\u6771\u5730\u65b9\u6574\u5099\u5c40\u5317\u9996\u90fd\u56fd\u9053\u4e8b\u52d9\u6240","boring_xml_url":40,"boring_view_url":1,"soilmap_view_url":null,"soiltest_xml_url":0,"soiltest_view_url":0},{"id":151849,"code":"B4KJ201801004-0098","latitude":"35.92223583","longitude":"139.7813469","source_code":"KT53397602003","project_name":"","survey_name":"\u8d8a\u8c37\u5e02\u5927\u91cc\u9644\u8fd1\u5730\u8cea\u8abf\u67fb","client_name":"\u56fd\u571f\u4ea4\u901a\u7701\u95a2\u6771\u5730\u65b9\u6574\u5099\u5c40\u5317\u9996\u90fd\u56fd\u9053\u4e8b\u52d9\u6240","boring_xml_url":40,"boring_view_url":1,"soilmap_view_url":null,"soiltest_xml_url":0,"soiltest_view_url":0},{"id":151848,"code":"B4KJ201801004-0097","latitude":"35.92362444","longitude":"139.78268","source_code":"KT53397602001","project_name":"","survey_name":"\u4e00\u822c\u56fd\u90534\u53f7\u4e0b\u9593\u4e45\u91cc\u5730\u533a\u5730\u8cea\u8abf\u67fb","client_name":"\u56fd\u571f\u4ea4\u901a\u7701\u95a2\u6771\u5730\u65b9\u6574\u5099\u5c40\u5317\u9996\u90fd\u56fd\u9053\u4e8b\u52d9\u6240","boring_xml_url":40,"boring_view_url":1,"soilmap_view_url":null,"soiltest_xml_url":0,"soiltest_view_url":0},{"id":151847,"code":"B4KJ201801004-0096","latitude":"35.99597","longitude":"139.5011178","source_code":"KT53397490001","project_name":"","survey_name":"\u6771\u5927\u585a\u59161\u7b87\u6240\u707d\u5bb3\u5de5\u4e8b\u8b77\u5cb8\u8a2d\u8a08\u696d\u52d9\u59d4\u8a17","client_name":"\u56fd\u571f\u4ea4\u901a\u7701\u95a2\u6771\u5730\u65b9\u6574\u5099\u5c40\u5927\u5bae\u56fd\u9053\u4e8b\u52d9\u6240","boring_xml_url":40,"boring_view_url":1,"soilmap_view_url":null,"soiltest_xml_url":0,"soiltest_view_url":0},{"id":151846,"code":"B4KJ201801004-0095","latitude":"35.99172111","longitude":"139.5267825","source_code":"KT53397482003","project_name":"","survey_name":"\u4e0a\u5c3e\u9053\u8def\u5730\u8cea\u30fb\u571f\u8cea\u8abf\u67fb(3)","client_name":"\u56fd\u571f\u4ea4\u901a\u7701\u95a2\u6771\u5730\u65b9\u6574\u5099\u5c40\u5927\u5bae\u56fd\u9053\u4e8b\u52d9\u6240","boring_xml_url":40,"boring_view_url":1,"soilmap_view_url":null,"soiltest_xml_url":0,"soiltest_view_url":0},{"id":151845,"code":"B4KJ201801004-0094","latitude":"35.9905825","longitude":"139.5276992","source_code":"KT53397482002","project_name":"","survey_name":"\u4e0a\u5c3e\u9053\u8def\u5730\u8cea\u30fb\u571f\u8cea\u8abf\u67fb(3)","client_name":"\u56fd\u571f\u4ea4\u901a\u7701\u95a2\u6771\u5730\u65b9\u6574\u5099\u5c40\u5927\u5bae\u56fd\u9053\u4e8b\u52d9\u6240","boring_xml_url":40,"boring_view_url":1,"soilmap_view_url":null,"soiltest_xml_url":0,"soiltest_view_url":0},{"id":151844,"code":"B4KJ201801004-0093","latitude":"35.98716611","longitude":"139.5312267","source_code":"KT53397482001","project_name":"","survey_name":"\u4e0a\u5c3e\u9053\u8def\u5730\u8cea\u30fb\u571f\u8cea\u8abf\u67fb(3)","client_name":"\u56fd\u571f\u4ea4\u901a\u7701\u95a2\u6771\u5730\u65b9\u6574\u5099\u5c40\u5927\u5bae\u56fd\u9053\u4e8b\u52d9\u6240","boring_xml_url":40,"boring_view_url":1,"soilmap_view_url":null,"soiltest_xml_url":0,"soiltest_view_url":0},{"id":151843,"code":"B4KJ201801004-0092","latitude":"35.99369278","longitude":"139.5110061","source_code":"KT53397481006","project_name":"","survey_name":"\u570f\u592e\u9053\u8352\u5ddd\u6e21\u6cb3\u6a4b\u8a73\u7d30\u8a2d\u8a08\u696d\u52d9\u59d4\u8a17(\u8ffd\u52a0\u5730\u8cea\u8abf\u67fb)","client_name":"\u56fd\u571f\u4ea4\u901a\u7701\u95a2\u6771\u5730\u65b9\u6574\u5099\u5c40\u5927\u5bae\u56fd\u9053\u4e8b\u52d9\u6240","boring_xml_url":40,"boring_view_url":1,"soilmap_view_url":null,"soiltest_xml_url":0,"soiltest_view_url":0},{"id":151842,"code":"B4KJ201801004-0091","latitude":"35.99288722","longitude":"139.5093394","source_code":"KT53397481002","project_name":"","survey_name":"\u570f\u592e\u9053(\u5ddd\u5cf6\u5730\u533a)\u5730\u8cea\u8abf\u67fb(\u305d\u306e2)\u696d\u52d9\u59d4\u8a17","client_name":"\u56fd\u571f\u4ea4\u901a\u7701\u95a2\u6771\u5730\u65b9\u6574\u5099\u5c40\u5927\u5bae\u56fd\u9053\u4e8b\u52d9\u6240","boring_xml_url":40,"boring_view_url":1,"soilmap_view_url":null,"soiltest_xml_url":0,"soiltest_view_url":0},{"id":151841,"code":"B4KJ201801004-0090","latitude":"35.98766556","longitude":"139.5145614","source_code":"KT53397481001","project_name":"","survey_name":"\u897f\u91ce\u591610\u7b87\u6240\u707d\u5bb3\u5de5\u4e8b\u8b77\u5cb8\u8a2d\u8a08\u696d\u52d9\u59d4\u8a17","client_name":"\u56fd\u571f\u4ea4\u901a\u7701\u95a2\u6771\u5730\u65b9\u6574\u5099\u5c40\u8352\u5ddd\u4e0a\u6d41\u6cb3\u5ddd\u4e8b\u52d9\u6240","boring_xml_url":40,"boring_view_url":1,"soilmap_view_url":null,"soiltest_xml_url":0,"soiltest_view_url":0},{"id":151840,"code":"B4KJ201801004-0089","latitude":"35.99402583","longitude":"139.5026178","source_code":"KT53397480013","project_name":"","survey_name":"\u570f\u592e\u9053\u8352\u5ddd\u6e21\u6cb3\u6a4b\u8a73\u7d30\u8a2d\u8a08\u696d\u52d9\u59d4\u8a17(\u8ffd\u52a0\u5730\u8cea\u8abf\u67fb)","client_name":"\u56fd\u571f\u4ea4\u901a\u7701\u95a2\u6771\u5730\u65b9\u6574\u5099\u5c40\u5927\u5bae\u56fd\u9053\u4e8b\u52d9\u6240","boring_xml_url":40,"boring_view_url":1,"soilmap_view_url":null,"soiltest_xml_url":0,"soiltest_view_url":0},{"id":151839,"code":"B4KJ201801004-0088","latitude":"35.99408139","longitude":"139.5016456","source_code":"KT53397480012","project_name":"","survey_name":"\u570f\u592e\u9053\u8352\u5ddd\u6e21\u6cb3\u6a4b\u8a73\u7d30\u8a2d\u8a08\u696d\u52d9\u59d4\u8a17(\u8ffd\u52a0\u5730\u8cea\u8abf\u67fb)","client_name":"\u56fd\u571f\u4ea4\u901a\u7701\u95a2\u6771\u5730\u65b9\u6574\u5099\u5c40\u5927\u5bae\u56fd\u9053\u4e8b\u52d9\u6240","boring_xml_url":40,"boring_view_url":1,"soilmap_view_url":null,"soiltest_xml_url":0,"soiltest_view_url":0},{"id":151838,"code":"B4KJ201801004-0087","latitude":"35.99172056","longitude":"139.5074231","source_code":"KT53397480005","project_name":"","survey_name":"\u570f\u592e\u9053(\u5ddd\u5cf6\u5730\u533a)\u5730\u8cea\u8abf\u67fb(\u305d\u306e2)\u696d\u52d9\u59d4\u8a17","client_name":"\u56fd\u571f\u4ea4\u901a\u7701\u95a2\u6771\u5730\u65b9\u6574\u5099\u5c40\u5927\u5bae\u56fd\u9053\u4e8b\u52d9\u6240","boring_xml_url":40,"boring_view_url":1,"soilmap_view_url":null,"soiltest_xml_url":0,"soiltest_view_url":0},{"id":151837,"code":"B4KJ201801004-0086","latitude":"35.99080389","longitude":"139.5057289","source_code":"KT53397480004","project_name":"","survey_name":"\u570f\u592e\u9053(\u5ddd\u5cf6\u5730\u533a)\u5730\u8cea\u8abf\u67fb(\u305d\u306e2)\u696d\u52d9\u59d4\u8a17","client_name":"\u56fd\u571f\u4ea4\u901a\u7701\u95a2\u6771\u5730\u65b9\u6574\u5099\u5c40\u5927\u5bae\u56fd\u9053\u4e8b\u52d9\u6240","boring_xml_url":40,"boring_view_url":1,"soilmap_view_url":null,"soiltest_xml_url":0,"soiltest_view_url":0},{"id":151836,"code":"B4KJ201801004-0085","latitude":"35.98866528","longitude":"139.5021458","source_code":"KT53397480003","project_name":"","survey_name":"\u570f\u592e\u9053(\u5ddd\u5cf6\u5730\u533a)\u5730\u8cea\u8abf\u67fb(\u305d\u306e2)\u696d\u52d9\u59d4\u8a17","client_name":"\u56fd\u571f\u4ea4\u901a\u7701\u95a2\u6771\u5730\u65b9\u6574\u5099\u5c40\u5927\u5bae\u56fd\u9053\u4e8b\u52d9\u6240","boring_xml_url":40,"boring_view_url":1,"soilmap_view_url":null,"soiltest_xml_url":0,"soiltest_view_url":0},{"id":151835,"code":"B4KJ201801004-0084","latitude":"35.98719306","longitude":"139.4998683","source_code":"KT53397480002","project_name":"","survey_name":"\u570f\u592e\u9053(\u5ddd\u5cf6\u5730\u533a)\u5730\u8cea\u8abf\u67fb(\u305d\u306e2)\u696d\u52d9\u59d4\u8a17","client_name":"\u56fd\u571f\u4ea4\u901a\u7701\u95a2\u6771\u5730\u65b9\u6574\u5099\u5c40\u5927\u5bae\u56fd\u9053\u4e8b\u52d9\u6240","boring_xml_url":40,"boring_view_url":1,"soilmap_view_url":null,"soiltest_xml_url":0,"soiltest_view_url":0},{"id":151834,"code":"B4KJ201801004-0083","latitude":"35.99063722","longitude":"139.5035067","source_code":"KT53397480001","project_name":"","survey_name":"\u8352\u5ddd\u4e0a\u6d41\u90e8\u5730\u8cea(\u305d\u306e2)\u8abf\u67fb","client_name":"\u56fd\u571f\u4ea4\u901a\u7701\u95a2\u6771\u5730\u65b9\u6574\u5099\u5c40\u8352\u5ddd\u4e0a\u6d41\u6cb3\u5ddd\u4e8b\u52d9\u6240","boring_xml_url":40,"boring_view_url":1,"soilmap_view_url":null,"soiltest_xml_url":0,"soiltest_view_url":0},{"id":151833,"code":"B4KJ201801004-0082","latitude":"35.97886139","longitude":"139.5284494","source_code":"KT53397472003","project_name":"","survey_name":"\u8352\u5ddd\u4e0a\u6d41\u90e8\u5730\u8cea\u8abf\u67fb\u696d\u52d9","client_name":"\u56fd\u571f\u4ea4\u901a\u7701\u95a2\u6771\u5730\u65b9\u6574\u5099\u5c40\u8352\u5ddd\u4e0a\u6d41\u6cb3\u5ddd\u4e8b\u52d9\u6240","boring_xml_url":40,"boring_view_url":1,"soilmap_view_url":null,"soiltest_xml_url":0,"soiltest_view_url":0},{"id":151832,"code":"B4KJ201801004-0081","latitude":"35.97883361","longitude":"139.5278939","source_code":"KT53397472002","project_name":"","survey_name":"\u5b9d\u6765\u6a0b\u7ba1\u59165\u30f6\u6240\u8abf\u67fb\u8a2d\u8a08\u696d\u52d9","client_name":"\u56fd\u571f\u4ea4\u901a\u7701\u95a2\u6771\u5730\u65b9\u6574\u5099\u5c40\u8352\u5ddd\u4e0a\u6d41\u6cb3\u5ddd\u4e8b\u52d9\u6240","boring_xml_url":40,"boring_view_url":1,"soilmap_view_url":null,"soiltest_xml_url":0,"soiltest_view_url":0},{"id":151831,"code":"B4KJ201801004-0080","latitude":"35.97983361","longitude":"139.5262275","source_code":"KT53397472001","project_name":"","survey_name":"\u77f3\u5ddd\u6a0b\u7ba1\u4ed62\u30f6\u6240\u571f\u8cea\u8abf\u67fb","client_name":"\u56fd\u571f\u4ea4\u901a\u7701\u95a2\u6771\u5730\u65b9\u6574\u5099\u5c40\u8352\u5ddd\u4e0a\u6d41\u6cb3\u5ddd\u4e8b\u52d9\u6240","boring_xml_url":40,"boring_view_url":1,"soilmap_view_url":null,"soiltest_xml_url":0,"soiltest_view_url":0},{"id":151830,"code":"B4KJ201801004-0079","latitude":"35.98522167","longitude":"139.5205333","source_code":"KT53397471001","project_name":"","survey_name":"\u5b9d\u6765\u6a0b\u7ba1\u59165\u30f6\u6240\u8abf\u67fb\u8a2d\u8a08\u696d\u52d9","client_name":"\u56fd\u571f\u4ea4\u901a\u7701\u95a2\u6771\u5730\u65b9\u6574\u5099\u5c40\u8352\u5ddd\u4e0a\u6d41\u6cb3\u5ddd\u4e8b\u52d9\u6240","boring_xml_url":40,"boring_view_url":1,"soilmap_view_url":null,"soiltest_xml_url":0,"soiltest_view_url":0},{"id":151829,"code":"B4KJ201801004-0078","latitude":"35.98630417","longitude":"139.4976186","source_code":"KT53397470001","project_name":"","survey_name":"\u570f\u592e\u9053(\u5ddd\u5cf6\u5730\u533a)\u5730\u8cea\u8abf\u67fb(\u305d\u306e2)\u696d\u52d9\u59d4\u8a17","client_name":"\u56fd\u571f\u4ea4\u901a\u7701\u95a2\u6771\u5730\u65b9\u6574\u5099\u5c40\u5927\u5bae\u56fd\u9053\u4e8b\u52d9\u6240","boring_xml_url":40,"boring_view_url":1,"soilmap_view_url":null,"soiltest_xml_url":0,"soiltest_view_url":0},{"id":151828,"code":"B4KJ201801004-0077","latitude":"35.9779725","longitude":"139.5156728","source_code":"KT53397461002","project_name":"","survey_name":"\u8352\u5ddd\u4e0a\u6d41\u90e8\u5730\u8cea\u8abf\u67fb\u696d\u52d9","client_name":"\u56fd\u571f\u4ea4\u901a\u7701\u95a2\u6771\u5730\u65b9\u6574\u5099\u5c40\u8352\u5ddd\u4e0a\u6d41\u6cb3\u5ddd\u4e8b\u52d9\u6240","boring_xml_url":40,"boring_view_url":1,"soilmap_view_url":null,"soiltest_xml_url":0,"soiltest_view_url":0},{"id":151827,"code":"B4KJ201801004-0076","latitude":"35.97055667","longitude":"139.519145","source_code":"KT53397461001","project_name":"","survey_name":"\u5b9d\u6765\u6a0b\u7ba1\u59165\u30f6\u6240\u8abf\u67fb\u8a2d\u8a08\u696d\u52d9","client_name":"\u56fd\u571f\u4ea4\u901a\u7701\u95a2\u6771\u5730\u65b9\u6574\u5099\u5c40\u8352\u5ddd\u4e0a\u6d41\u6cb3\u5ddd\u4e8b\u52d9\u6240","boring_xml_url":40,"boring_view_url":1,"soilmap_view_url":null,"soiltest_xml_url":0,"soiltest_view_url":0},{"id":151826,"code":"B4KJ201801004-0075","latitude":"35.96333583","longitude":"139.5415047","source_code":"KT53397453004","project_name":"","survey_name":"\u8352\u5ddd\u4e0a\u6d41\u90e8\u5730\u8cea\u8abf\u67fb\u696d\u52d9","client_name":"\u56fd\u571f\u4ea4\u901a\u7701\u95a2\u6771\u5730\u65b9\u6574\u5099\u5c40\u8352\u5ddd\u4e0a\u6d41\u6cb3\u5ddd\u4e8b\u52d9\u6240","boring_xml_url":40,"boring_view_url":1,"soilmap_view_url":null,"soiltest_xml_url":0,"soiltest_view_url":0}]}}