{"header":{"xyz":{"source":[],"mosaic":false},"page":5626,"raw":{"soiltest_result":"0","bbox":"57.598333,109.544722,1.933333,163.806111","page":"5626"},"conditions":{"soiltest_result":0,"north":57.598333,"west":109.544722,"south":1.933333,"east":163.806111},"success":true,"message":""},"data":{"meta":{"total":212844,"page":5626,"pages":7095,"count":30},"values":[{"id":151795,"code":"B4KJ201801004-0044","latitude":"35.93800556","longitude":"139.5516436","source_code":"KT53397424001","project_name":"","survey_name":"\u5927\u58eb\u5165\u6a0b\u7ba1\u59165\u30f6\u6240\u57fa\u790e\u571f\u8cea\u8abf\u67fb","client_name":"\u56fd\u571f\u4ea4\u901a\u7701\u95a2\u6771\u5730\u65b9\u6574\u5099\u5c40\u8352\u5ddd\u4e0a\u6d41\u6cb3\u5ddd\u4e8b\u52d9\u6240","boring_xml_url":40,"boring_view_url":1,"soilmap_view_url":null,"soiltest_xml_url":0,"soiltest_view_url":0},{"id":151794,"code":"B4KJ201801004-0043","latitude":"35.93675528","longitude":"139.5345619","source_code":"KT53397423003","project_name":"","survey_name":"\u8352\u5ddd\u4e0a\u6d41\u90e8\u5730\u8cea\u8abf\u67fb\u696d\u52d9","client_name":"\u56fd\u571f\u4ea4\u901a\u7701\u95a2\u6771\u5730\u65b9\u6574\u5099\u5c40\u8352\u5ddd\u4e0a\u6d41\u6cb3\u5ddd\u4e8b\u52d9\u6240","boring_xml_url":40,"boring_view_url":1,"soilmap_view_url":null,"soiltest_xml_url":0,"soiltest_view_url":0},{"id":151793,"code":"B4KJ201801004-0042","latitude":"35.94469917","longitude":"139.5456161","source_code":"KT53397423002","project_name":"","survey_name":"\u5b97\u5ca1\u59162\u30f6\u6240\u707d\u5bb3\u571f\u8cea\u8abf\u67fb","client_name":"\u56fd\u571f\u4ea4\u901a\u7701\u95a2\u6771\u5730\u65b9\u6574\u5099\u5c40\u8352\u5ddd\u4e0a\u6d41\u6cb3\u5ddd\u4e8b\u52d9\u6240","boring_xml_url":40,"boring_view_url":1,"soilmap_view_url":null,"soiltest_xml_url":0,"soiltest_view_url":0},{"id":151792,"code":"B4KJ201801004-0041","latitude":"35.94039417","longitude":"139.5462272","source_code":"KT53397423001","project_name":"","survey_name":"\u897f\u91ce\u591610\u7b87\u6240\u707d\u5bb3\u5de5\u4e8b\u8b77\u5cb8\u8a2d\u8a08\u696d\u52d9\u59d4\u8a17","client_name":"\u56fd\u571f\u4ea4\u901a\u7701\u95a2\u6771\u5730\u65b9\u6574\u5099\u5c40\u8352\u5ddd\u4e0a\u6d41\u6cb3\u5ddd\u4e8b\u52d9\u6240","boring_xml_url":40,"boring_view_url":1,"soilmap_view_url":null,"soiltest_xml_url":0,"soiltest_view_url":0},{"id":151791,"code":"B4KJ201801004-0040","latitude":"35.92956333","longitude":"139.5940014","source_code":"KT53397417006","project_name":"","survey_name":"\u5bae\u524dIC\u305d\u306e\u4ed6\u5730\u8cea\u8abf\u67fb","client_name":"\u56fd\u571f\u4ea4\u901a\u7701\u95a2\u6771\u5730\u65b9\u6574\u5099\u5c40\u5927\u5bae\u56fd\u9053\u4e8b\u52d9\u6240","boring_xml_url":40,"boring_view_url":1,"soilmap_view_url":null,"soiltest_xml_url":0,"soiltest_view_url":0},{"id":151790,"code":"B4KJ201801004-0039","latitude":"35.93222944","longitude":"139.5898906","source_code":"KT53397417005","project_name":"","survey_name":"\u5bae\u524dIC\u305d\u306e\u4ed6\u5730\u8cea\u8abf\u67fb","client_name":"\u56fd\u571f\u4ea4\u901a\u7701\u95a2\u6771\u5730\u65b9\u6574\u5099\u5c40\u5927\u5bae\u56fd\u9053\u4e8b\u52d9\u6240","boring_xml_url":40,"boring_view_url":1,"soilmap_view_url":null,"soiltest_xml_url":0,"soiltest_view_url":0},{"id":151789,"code":"B4KJ201801004-0038","latitude":"35.93236833","longitude":"139.5905294","source_code":"KT53397417004","project_name":"","survey_name":"\u5bae\u524dIC\u305d\u306e\u4ed6\u5730\u8cea\u8abf\u67fb","client_name":"\u56fd\u571f\u4ea4\u901a\u7701\u95a2\u6771\u5730\u65b9\u6574\u5099\u5c40\u5927\u5bae\u56fd\u9053\u4e8b\u52d9\u6240","boring_xml_url":40,"boring_view_url":1,"soilmap_view_url":null,"soiltest_xml_url":0,"soiltest_view_url":0},{"id":151788,"code":"B4KJ201801004-0037","latitude":"35.92953556","longitude":"139.5926128","source_code":"KT53397417003","project_name":"","survey_name":"\u5bae\u524d\u30a4\u30f3\u30bf-\u30c1\u30a7\u30f3\u30b8\u5730\u8cea\u571f\u8cea\u8abf\u67fb(\u305d\u306e1)","client_name":"\u56fd\u571f\u4ea4\u901a\u7701\u95a2\u6771\u5730\u65b9\u6574\u5099\u5c40\u5927\u5bae\u56fd\u9053\u4e8b\u52d9\u6240","boring_xml_url":40,"boring_view_url":1,"soilmap_view_url":null,"soiltest_xml_url":0,"soiltest_view_url":0},{"id":151787,"code":"B4KJ201801004-0036","latitude":"35.92839667","longitude":"139.5918628","source_code":"KT53397417002","project_name":"","survey_name":"\u5bae\u524d\u30a4\u30f3\u30bf-\u30c1\u30a7\u30f3\u30b8\u5730\u8cea\u571f\u8cea\u8abf\u67fb(\u305d\u306e1)","client_name":"\u56fd\u571f\u4ea4\u901a\u7701\u95a2\u6771\u5730\u65b9\u6574\u5099\u5c40\u5927\u5bae\u56fd\u9053\u4e8b\u52d9\u6240","boring_xml_url":40,"boring_view_url":1,"soilmap_view_url":null,"soiltest_xml_url":0,"soiltest_view_url":0},{"id":151786,"code":"B4KJ201801004-0035","latitude":"35.92875778","longitude":"139.5922239","source_code":"KT53397417001","project_name":"","survey_name":"\u5bae\u524d\u30a4\u30f3\u30bf-\u30c1\u30a7\u30f3\u30b8\u5730\u8cea\u571f\u8cea\u8abf\u67fb(\u305d\u306e2)","client_name":"\u56fd\u571f\u4ea4\u901a\u7701\u95a2\u6771\u5730\u65b9\u6574\u5099\u5c40\u5927\u5bae\u56fd\u9053\u4e8b\u52d9\u6240","boring_xml_url":40,"boring_view_url":1,"soilmap_view_url":null,"soiltest_xml_url":0,"soiltest_view_url":0},{"id":151785,"code":"B4KJ201801004-0034","latitude":"35.93575583","longitude":"139.5531714","source_code":"KT53397414002","project_name":"","survey_name":"\u9ad8\u898f\u683c\u5824\u9632\u7b49\u6574\u5099\u8a08\u753b\u691c\u8a0e\u696d\u52d9(\u5730\u8cea\u8abf\u67fb)","client_name":"\u56fd\u571f\u4ea4\u901a\u7701\u95a2\u6771\u5730\u65b9\u6574\u5099\u5c40\u8352\u5ddd\u4e0a\u6d41\u6cb3\u5ddd\u4e8b\u52d9\u6240","boring_xml_url":40,"boring_view_url":1,"soilmap_view_url":null,"soiltest_xml_url":0,"soiltest_view_url":0},{"id":151784,"code":"B4KJ201801004-0033","latitude":"35.93533944","longitude":"139.5534492","source_code":"KT53397414001","project_name":"","survey_name":"\u9ad8\u898f\u683c\u5824\u9632\u7b49\u6574\u5099\u8a08\u753b\u691c\u8a0e\u696d\u52d9(\u5730\u8cea\u8abf\u67fb)","client_name":"\u56fd\u571f\u4ea4\u901a\u7701\u95a2\u6771\u5730\u65b9\u6574\u5099\u5c40\u8352\u5ddd\u4e0a\u6d41\u6cb3\u5ddd\u4e8b\u52d9\u6240","boring_xml_url":40,"boring_view_url":1,"soilmap_view_url":null,"soiltest_xml_url":0,"soiltest_view_url":0},{"id":151783,"code":"B4KJ201801004-0032","latitude":"35.92931167","longitude":"139.5353953","source_code":"KT53397413001","project_name":"","survey_name":"\u8352\u5ddd\u4e0a\u6d41\u90e8\u5730\u8cea\u8abf\u67fb\u696d\u52d9","client_name":"\u56fd\u571f\u4ea4\u901a\u7701\u95a2\u6771\u5730\u65b9\u6574\u5099\u5c40\u8352\u5ddd\u4e0a\u6d41\u6cb3\u5ddd\u4e8b\u52d9\u6240","boring_xml_url":40,"boring_view_url":1,"soilmap_view_url":null,"soiltest_xml_url":0,"soiltest_view_url":0},{"id":151782,"code":"B4KJ201801004-0031","latitude":"35.92673028","longitude":"139.5916408","source_code":"KT53397407014","project_name":"","survey_name":"\u5bae\u524dIC\u305d\u306e\u4ed6\u5730\u8cea\u8abf\u67fb","client_name":"\u56fd\u571f\u4ea4\u901a\u7701\u95a2\u6771\u5730\u65b9\u6574\u5099\u5c40\u5927\u5bae\u56fd\u9053\u4e8b\u52d9\u6240","boring_xml_url":40,"boring_view_url":1,"soilmap_view_url":null,"soiltest_xml_url":0,"soiltest_view_url":0},{"id":151781,"code":"B4KJ201801004-0030","latitude":"35.92817444","longitude":"139.5926128","source_code":"KT53397407013","project_name":"","survey_name":"\u5bae\u524dIC\u5730\u8cea\u571f\u8cea\u8abf\u67fb","client_name":"\u56fd\u571f\u4ea4\u901a\u7701\u95a2\u6771\u5730\u65b9\u6574\u5099\u5c40\u5927\u5bae\u56fd\u9053\u4e8b\u52d9\u6240","boring_xml_url":40,"boring_view_url":1,"soilmap_view_url":null,"soiltest_xml_url":0,"soiltest_view_url":0},{"id":151780,"code":"B4KJ201801004-0029","latitude":"35.92792444","longitude":"139.5915017","source_code":"KT53397407012","project_name":"","survey_name":"\u5bae\u524dIC\u5730\u8cea\u571f\u8cea\u8abf\u67fb","client_name":"\u56fd\u571f\u4ea4\u901a\u7701\u95a2\u6771\u5730\u65b9\u6574\u5099\u5c40\u5927\u5bae\u56fd\u9053\u4e8b\u52d9\u6240","boring_xml_url":40,"boring_view_url":1,"soilmap_view_url":null,"soiltest_xml_url":0,"soiltest_view_url":0},{"id":151779,"code":"B4KJ201801004-0028","latitude":"35.92706333","longitude":"139.5903075","source_code":"KT53397407011","project_name":"","survey_name":"\u5bae\u524d\u30a4\u30f3\u30bf-\u30c1\u30a7\u30f3\u30b8\u5730\u8cea\u571f\u8cea\u8abf\u67fb(\u305d\u306e1)","client_name":"\u56fd\u571f\u4ea4\u901a\u7701\u95a2\u6771\u5730\u65b9\u6574\u5099\u5c40\u5927\u5bae\u56fd\u9053\u4e8b\u52d9\u6240","boring_xml_url":40,"boring_view_url":1,"soilmap_view_url":null,"soiltest_xml_url":0,"soiltest_view_url":0},{"id":151778,"code":"B4KJ201801004-0027","latitude":"35.92764667","longitude":"139.5918628","source_code":"KT53397407010","project_name":"","survey_name":"\u5bae\u524d\u30a4\u30f3\u30bf-\u30c1\u30a7\u30f3\u30b8\u5730\u8cea\u571f\u8cea\u8abf\u67fb(\u305d\u306e2)","client_name":"\u56fd\u571f\u4ea4\u901a\u7701\u95a2\u6771\u5730\u65b9\u6574\u5099\u5c40\u5927\u5bae\u56fd\u9053\u4e8b\u52d9\u6240","boring_xml_url":40,"boring_view_url":1,"soilmap_view_url":null,"soiltest_xml_url":0,"soiltest_view_url":0},{"id":151777,"code":"B4KJ201801004-0026","latitude":"35.9264525","longitude":"139.5902797","source_code":"KT53397407009","project_name":"","survey_name":"\u5bae\u524d\u30a4\u30f3\u30bf-\u30c1\u30a7\u30f3\u30b8\u5730\u8cea\u571f\u8cea\u8abf\u67fb(\u305d\u306e2)","client_name":"\u56fd\u571f\u4ea4\u901a\u7701\u95a2\u6771\u5730\u65b9\u6574\u5099\u5c40\u5927\u5bae\u56fd\u9053\u4e8b\u52d9\u6240","boring_xml_url":40,"boring_view_url":1,"soilmap_view_url":null,"soiltest_xml_url":0,"soiltest_view_url":0},{"id":151776,"code":"B4KJ201801004-0025","latitude":"35.92617472","longitude":"139.592085","source_code":"KT53397407008","project_name":"","survey_name":"\u5bae\u524d\u5730\u8cea\u571f\u8cea\u8abf\u67fb","client_name":"\u56fd\u571f\u4ea4\u901a\u7701\u95a2\u6771\u5730\u65b9\u6574\u5099\u5c40\u5927\u5bae\u56fd\u9053\u4e8b\u52d9\u6240","boring_xml_url":40,"boring_view_url":1,"soilmap_view_url":null,"soiltest_xml_url":0,"soiltest_view_url":0},{"id":151775,"code":"B4KJ201801004-0024","latitude":"35.92675806","longitude":"139.5923072","source_code":"KT53397407007","project_name":"","survey_name":"\u5bae\u524d\u5730\u8cea\u571f\u8cea\u8abf\u67fb","client_name":"\u56fd\u571f\u4ea4\u901a\u7701\u95a2\u6771\u5730\u65b9\u6574\u5099\u5c40\u5927\u5bae\u56fd\u9053\u4e8b\u52d9\u6240","boring_xml_url":40,"boring_view_url":1,"soilmap_view_url":null,"soiltest_xml_url":0,"soiltest_view_url":0},{"id":151774,"code":"B4KJ201801004-0023","latitude":"35.92650806","longitude":"139.5910853","source_code":"KT53397407006","project_name":"","survey_name":"\u5bae\u524d\u5730\u8cea\u571f\u8cea\u8abf\u67fb","client_name":"\u56fd\u571f\u4ea4\u901a\u7701\u95a2\u6771\u5730\u65b9\u6574\u5099\u5c40\u5927\u5bae\u56fd\u9053\u4e8b\u52d9\u6240","boring_xml_url":40,"boring_view_url":1,"soilmap_view_url":null,"soiltest_xml_url":0,"soiltest_view_url":0},{"id":151773,"code":"B4KJ201801004-0022","latitude":"35.92573028","longitude":"139.5901131","source_code":"KT53397407005","project_name":"","survey_name":"\u5bae\u524d\u5730\u8cea\u8abf\u67fb","client_name":"\u56fd\u571f\u4ea4\u901a\u7701\u95a2\u6771\u5730\u65b9\u6574\u5099\u5c40\u5927\u5bae\u56fd\u9053\u4e8b\u52d9\u6240","boring_xml_url":40,"boring_view_url":1,"soilmap_view_url":null,"soiltest_xml_url":0,"soiltest_view_url":0},{"id":151772,"code":"B4KJ201801004-0021","latitude":"35.92628583","longitude":"139.5892797","source_code":"KT53397407003","project_name":"","survey_name":"\u5bae\u524d\u5730\u8cea\u8abf\u67fb","client_name":"\u56fd\u571f\u4ea4\u901a\u7701\u95a2\u6771\u5730\u65b9\u6574\u5099\u5c40\u5927\u5bae\u56fd\u9053\u4e8b\u52d9\u6240","boring_xml_url":40,"boring_view_url":1,"soilmap_view_url":null,"soiltest_xml_url":0,"soiltest_view_url":0},{"id":151771,"code":"B4KJ201801004-0020","latitude":"35.92550806","longitude":"139.5895575","source_code":"KT53397407002","project_name":"","survey_name":"\u5bae\u524d\u5730\u8cea\u8abf\u67fb","client_name":"\u56fd\u571f\u4ea4\u901a\u7701\u95a2\u6771\u5730\u65b9\u6574\u5099\u5c40\u5927\u5bae\u56fd\u9053\u4e8b\u52d9\u6240","boring_xml_url":40,"boring_view_url":1,"soilmap_view_url":null,"soiltest_xml_url":0,"soiltest_view_url":0},{"id":151770,"code":"B4KJ201801004-0019","latitude":"35.92598028","longitude":"139.5908075","source_code":"KT53397407001","project_name":"","survey_name":"\u5bae\u524d\u5730\u8cea\u8abf\u67fb","client_name":"\u56fd\u571f\u4ea4\u901a\u7701\u95a2\u6771\u5730\u65b9\u6574\u5099\u5c40\u5927\u5bae\u56fd\u9053\u4e8b\u52d9\u6240","boring_xml_url":40,"boring_view_url":1,"soilmap_view_url":null,"soiltest_xml_url":0,"soiltest_view_url":0},{"id":151769,"code":"B4KJ201801004-0018","latitude":"35.92417444","longitude":"139.5731981","source_code":"KT53397406005","project_name":"","survey_name":"\u897f\u5927\u5bae\u30d0\u30a4\u30d1\u30b9\u5730\u8cea\u571f\u8cea\u8abf\u67fb\u305d\u306e2","client_name":"\u56fd\u571f\u4ea4\u901a\u7701\u95a2\u6771\u5730\u65b9\u6574\u5099\u5c40\u5927\u5bae\u56fd\u9053\u4e8b\u52d9\u6240","boring_xml_url":40,"boring_view_url":1,"soilmap_view_url":null,"soiltest_xml_url":0,"soiltest_view_url":0},{"id":151768,"code":"B4KJ201801004-0017","latitude":"35.92417444","longitude":"139.5731981","source_code":"KT53397406004","project_name":"","survey_name":"\u897f\u5927\u5bae\u30d0\u30a4\u30d1\u30b9\u5730\u8cea\u571f\u8cea\u8abf\u67fb\u305d\u306e2","client_name":"\u56fd\u571f\u4ea4\u901a\u7701\u95a2\u6771\u5730\u65b9\u6574\u5099\u5c40\u5927\u5bae\u56fd\u9053\u4e8b\u52d9\u6240","boring_xml_url":40,"boring_view_url":1,"soilmap_view_url":null,"soiltest_xml_url":0,"soiltest_view_url":0},{"id":151767,"code":"B4KJ201801004-0016","latitude":"35.92417444","longitude":"139.5728647","source_code":"KT53397406003","project_name":"","survey_name":"\u897f\u5927\u5bae\u30d0\u30a4\u30d1\u30b9\u5730\u8cea\u571f\u8cea\u8abf\u67fb\u305d\u306e2","client_name":"\u56fd\u571f\u4ea4\u901a\u7701\u95a2\u6771\u5730\u65b9\u6574\u5099\u5c40\u5927\u5bae\u56fd\u9053\u4e8b\u52d9\u6240","boring_xml_url":40,"boring_view_url":1,"soilmap_view_url":null,"soiltest_xml_url":0,"soiltest_view_url":0},{"id":151766,"code":"B4KJ201801004-0015","latitude":"35.92417444","longitude":"139.5721981","source_code":"KT53397406002","project_name":"","survey_name":"\u897f\u5927\u5bae\u30d0\u30a4\u30d1\u30b9\u5730\u8cea\u571f\u8cea\u8abf\u67fb\u305d\u306e2","client_name":"\u56fd\u571f\u4ea4\u901a\u7701\u95a2\u6771\u5730\u65b9\u6574\u5099\u5c40\u5927\u5bae\u56fd\u9053\u4e8b\u52d9\u6240","boring_xml_url":40,"boring_view_url":1,"soilmap_view_url":null,"soiltest_xml_url":0,"soiltest_view_url":0}]}}