{"header":{"xyz":{"source":[],"mosaic":false},"page":5628,"raw":{"soiltest_result":"0","bbox":"57.598333,109.544722,1.933333,163.806111","page":"5628"},"conditions":{"soiltest_result":0,"north":57.598333,"west":109.544722,"south":1.933333,"east":163.806111},"success":true,"message":""},"data":{"meta":{"total":212844,"page":5628,"pages":7095,"count":30},"values":[{"id":151735,"code":"B4KJ201801003-9984","latitude":"35.98513694","longitude":"139.4726208","source_code":"KT53397378002","project_name":"","survey_name":"\u570f\u592e\u9053(\u5ddd\u5cf6\u5730\u533a)\u5730\u8cea\u8abf\u67fb(\u305d\u306e1)\u696d\u52d9\u59d4\u8a17","client_name":"\u56fd\u571f\u4ea4\u901a\u7701\u95a2\u6771\u5730\u65b9\u6574\u5099\u5c40\u5927\u5bae\u56fd\u9053\u4e8b\u52d9\u6240","boring_xml_url":40,"boring_view_url":1,"soilmap_view_url":null,"soiltest_xml_url":0,"soiltest_view_url":0},{"id":151734,"code":"B4KJ201801003-9983","latitude":"35.98458167","longitude":"139.4717875","source_code":"KT53397378001","project_name":"","survey_name":"\u570f\u592e\u9053(\u5ddd\u5cf6\u5730\u533a)\u5730\u8cea\u8abf\u67fb(\u305d\u306e1)\u696d\u52d9\u59d4\u8a17","client_name":"\u56fd\u571f\u4ea4\u901a\u7701\u95a2\u6771\u5730\u65b9\u6574\u5099\u5c40\u5927\u5bae\u56fd\u9053\u4e8b\u52d9\u6240","boring_xml_url":40,"boring_view_url":1,"soilmap_view_url":null,"soiltest_xml_url":0,"soiltest_view_url":0},{"id":151733,"code":"B4KJ201801003-9982","latitude":"35.98427611","longitude":"139.4716764","source_code":"KT53397377011","project_name":"","survey_name":"\u5e73\u621012\u5e74\u5ea6\u570f\u592e\u9053\u5ddd\u5cf6\u9ad8\u67b6\u6a4b\u8a73\u7d30\u8a2d\u8a08(\u305d\u306e2)\u696d\u52d9\u59d4\u8a17","client_name":"\u56fd\u571f\u4ea4\u901a\u7701\u95a2\u6771\u5730\u65b9\u6574\u5099\u5c40\u5927\u5bae\u56fd\u9053\u4e8b\u52d9\u6240","boring_xml_url":40,"boring_view_url":1,"soilmap_view_url":null,"soiltest_xml_url":0,"soiltest_view_url":0},{"id":151732,"code":"B4KJ201801003-9981","latitude":"35.98410944","longitude":"139.4711764","source_code":"KT53397377010","project_name":"","survey_name":"\u5e73\u621012\u5e74\u5ea6\u570f\u592e\u9053\u5ddd\u5cf6\u9ad8\u67b6\u6a4b\u8a73\u7d30\u8a2d\u8a08(\u305d\u306e2)\u696d\u52d9\u59d4\u8a17","client_name":"\u56fd\u571f\u4ea4\u901a\u7701\u95a2\u6771\u5730\u65b9\u6574\u5099\u5c40\u5927\u5bae\u56fd\u9053\u4e8b\u52d9\u6240","boring_xml_url":40,"boring_view_url":1,"soilmap_view_url":null,"soiltest_xml_url":0,"soiltest_view_url":0},{"id":151731,"code":"B4KJ201801003-9980","latitude":"35.98347056","longitude":"139.4703989","source_code":"KT53397377003","project_name":"","survey_name":"\u570f\u592e\u9053(\u5ddd\u5cf6\u5730\u533a)\u5730\u8cea\u8abf\u67fb(\u305d\u306e1)\u696d\u52d9\u59d4\u8a17","client_name":"\u56fd\u571f\u4ea4\u901a\u7701\u95a2\u6771\u5730\u65b9\u6574\u5099\u5c40\u5927\u5bae\u56fd\u9053\u4e8b\u52d9\u6240","boring_xml_url":40,"boring_view_url":1,"soilmap_view_url":null,"soiltest_xml_url":0,"soiltest_view_url":0},{"id":151730,"code":"B4KJ201801003-9979","latitude":"35.98110944","longitude":"139.4652603","source_code":"KT53397377002","project_name":"","survey_name":"\u570f\u592e\u90532\u5de5\u533a\u5730\u8cea\u571f\u8cea\u8abf\u67fb\u305d\u306e5","client_name":"\u56fd\u571f\u4ea4\u901a\u7701\u95a2\u6771\u5730\u65b9\u6574\u5099\u5c40\u5927\u5bae\u56fd\u9053\u4e8b\u52d9\u6240","boring_xml_url":40,"boring_view_url":1,"soilmap_view_url":null,"soiltest_xml_url":0,"soiltest_view_url":0},{"id":151729,"code":"B4KJ201801003-9978","latitude":"35.97902639","longitude":"139.4616497","source_code":"KT53397377001","project_name":"","survey_name":"\u570f\u592e\u90532\u5de5\u533a\u5730\u8cea\u571f\u8cea\u8abf\u67fb\u305d\u306e5","client_name":"\u56fd\u571f\u4ea4\u901a\u7701\u95a2\u6771\u5730\u65b9\u6574\u5099\u5c40\u5927\u5bae\u56fd\u9053\u4e8b\u52d9\u6240","boring_xml_url":40,"boring_view_url":1,"soilmap_view_url":null,"soiltest_xml_url":0,"soiltest_view_url":0},{"id":151728,"code":"B4KJ201801003-9977","latitude":"35.97955389","longitude":"139.4520672","source_code":"KT53397376001","project_name":"","survey_name":"\u8352\u5ddd\u4e0a\u6d41\u90e8\u5730\u8cea(\u305d\u306e2)\u8abf\u67fb","client_name":"\u56fd\u571f\u4ea4\u901a\u7701\u95a2\u6771\u5730\u65b9\u6574\u5099\u5c40\u8352\u5ddd\u4e0a\u6d41\u6cb3\u5ddd\u4e8b\u52d9\u6240","boring_xml_url":40,"boring_view_url":1,"soilmap_view_url":null,"soiltest_xml_url":0,"soiltest_view_url":0},{"id":151727,"code":"B4KJ201801003-9976","latitude":"35.98124778","longitude":"139.4457342","source_code":"KT53397375001","project_name":"","survey_name":"\u8352\u5ddd\u4e0a\u6d41\u90e8\u5730\u8cea(\u305d\u306e2)\u8abf\u67fb","client_name":"\u56fd\u571f\u4ea4\u901a\u7701\u95a2\u6771\u5730\u65b9\u6574\u5099\u5c40\u8352\u5ddd\u4e0a\u6d41\u6cb3\u5ddd\u4e8b\u52d9\u6240","boring_xml_url":40,"boring_view_url":1,"soilmap_view_url":null,"soiltest_xml_url":0,"soiltest_view_url":0},{"id":151726,"code":"B4KJ201801003-9975","latitude":"35.98371861","longitude":"139.3970717","source_code":"KT53397372001","project_name":"","survey_name":"\u8352\u5ddd\u4e0a\u6d41\u90e8\u5730\u8cea(\u305d\u306e2)\u8abf\u67fb","client_name":"\u56fd\u571f\u4ea4\u901a\u7701\u95a2\u6771\u5730\u65b9\u6574\u5099\u5c40\u8352\u5ddd\u4e0a\u6d41\u6cb3\u5ddd\u4e8b\u52d9\u6240","boring_xml_url":40,"boring_view_url":1,"soilmap_view_url":null,"soiltest_xml_url":0,"soiltest_view_url":0},{"id":151725,"code":"B4KJ201801003-9974","latitude":"35.98121861","longitude":"139.3917389","source_code":"KT53397371011","project_name":"","survey_name":"\u8352\u5ddd\u4e0a\u6d41\u90e8\u5730\u8cea(\u305d\u306e2)\u8abf\u67fb","client_name":"\u56fd\u571f\u4ea4\u901a\u7701\u95a2\u6771\u5730\u65b9\u6574\u5099\u5c40\u8352\u5ddd\u4e0a\u6d41\u6cb3\u5ddd\u4e8b\u52d9\u6240","boring_xml_url":40,"boring_view_url":1,"soilmap_view_url":null,"soiltest_xml_url":0,"soiltest_view_url":0},{"id":151724,"code":"B4KJ201801003-9973","latitude":"35.98091306","longitude":"139.3886836","source_code":"KT53397371010","project_name":"","survey_name":"\u6a0b\u306e\u53e3\u6a4b\u57fa\u790e\u571f\u8cea\u8abf\u67fb","client_name":"\u56fd\u571f\u4ea4\u901a\u7701\u95a2\u6771\u5730\u65b9\u6574\u5099\u5c40\u8352\u5ddd\u4e0a\u6d41\u6cb3\u5ddd\u4e8b\u52d9\u6240","boring_xml_url":40,"boring_view_url":1,"soilmap_view_url":null,"soiltest_xml_url":0,"soiltest_view_url":0},{"id":151723,"code":"B4KJ201801003-9972","latitude":"35.98091306","longitude":"139.3878503","source_code":"KT53397371009","project_name":"","survey_name":"\u6a0b\u306e\u53e3\u6a4b\u57fa\u790e\u571f\u8cea\u8abf\u67fb","client_name":"\u56fd\u571f\u4ea4\u901a\u7701\u95a2\u6771\u5730\u65b9\u6574\u5099\u5c40\u8352\u5ddd\u4e0a\u6d41\u6cb3\u5ddd\u4e8b\u52d9\u6240","boring_xml_url":40,"boring_view_url":1,"soilmap_view_url":null,"soiltest_xml_url":0,"soiltest_view_url":0},{"id":151722,"code":"B4KJ201801003-9971","latitude":"35.98113528","longitude":"139.3868783","source_code":"KT53397371008","project_name":"","survey_name":"\u6a0b\u306e\u53e3\u6a4b\u57fa\u790e\u571f\u8cea\u8abf\u67fb","client_name":"\u56fd\u571f\u4ea4\u901a\u7701\u95a2\u6771\u5730\u65b9\u6574\u5099\u5c40\u8352\u5ddd\u4e0a\u6d41\u6cb3\u5ddd\u4e8b\u52d9\u6240","boring_xml_url":40,"boring_view_url":1,"soilmap_view_url":null,"soiltest_xml_url":0,"soiltest_view_url":0},{"id":151721,"code":"B4KJ201801003-9970","latitude":"35.98407944","longitude":"139.3859614","source_code":"KT53397371007","project_name":"","survey_name":"\u8d64\u57ce\u5830\u57fa\u790e\u571f\u8cea\u8abf\u67fb","client_name":"\u56fd\u571f\u4ea4\u901a\u7701\u95a2\u6771\u5730\u65b9\u6574\u5099\u5c40\u8352\u5ddd\u4e0a\u6d41\u6cb3\u5ddd\u4e8b\u52d9\u6240","boring_xml_url":40,"boring_view_url":1,"soilmap_view_url":null,"soiltest_xml_url":0,"soiltest_view_url":0},{"id":151720,"code":"B4KJ201801003-9969","latitude":"35.98407944","longitude":"139.3859614","source_code":"KT53397371006","project_name":"","survey_name":"\u8d64\u57ce\u5830\u57fa\u790e\u571f\u8cea\u8abf\u67fb","client_name":"\u56fd\u571f\u4ea4\u901a\u7701\u95a2\u6771\u5730\u65b9\u6574\u5099\u5c40\u8352\u5ddd\u4e0a\u6d41\u6cb3\u5ddd\u4e8b\u52d9\u6240","boring_xml_url":40,"boring_view_url":1,"soilmap_view_url":null,"soiltest_xml_url":0,"soiltest_view_url":0},{"id":151719,"code":"B4KJ201801003-9968","latitude":"35.984635","longitude":"139.3886281","source_code":"KT53397371005","project_name":"","survey_name":"\u8d8a\u8fba\u5ddd(\u7acb\u91ce\u5730\u5148)\u571f\u8cea\u8abf\u67fb","client_name":"\u56fd\u571f\u4ea4\u901a\u7701\u95a2\u6771\u5730\u65b9\u6574\u5099\u5c40\u8352\u5ddd\u4e0a\u6d41\u6cb3\u5ddd\u4e8b\u52d9\u6240","boring_xml_url":40,"boring_view_url":1,"soilmap_view_url":null,"soiltest_xml_url":0,"soiltest_view_url":0},{"id":151718,"code":"B4KJ201801003-9967","latitude":"35.984635","longitude":"139.3886281","source_code":"KT53397371004","project_name":"","survey_name":"\u8d8a\u8fba\u5ddd(\u7acb\u91ce\u5730\u5148)\u571f\u8cea\u8abf\u67fb","client_name":"\u56fd\u571f\u4ea4\u901a\u7701\u95a2\u6771\u5730\u65b9\u6574\u5099\u5c40\u8352\u5ddd\u4e0a\u6d41\u6cb3\u5ddd\u4e8b\u52d9\u6240","boring_xml_url":40,"boring_view_url":1,"soilmap_view_url":null,"soiltest_xml_url":0,"soiltest_view_url":0},{"id":151717,"code":"B4KJ201801003-9966","latitude":"35.984635","longitude":"139.3886281","source_code":"KT53397371003","project_name":"","survey_name":"\u8d8a\u8fba\u5ddd(\u7acb\u91ce\u5730\u5148)\u571f\u8cea\u8abf\u67fb","client_name":"\u56fd\u571f\u4ea4\u901a\u7701\u95a2\u6771\u5730\u65b9\u6574\u5099\u5c40\u8352\u5ddd\u4e0a\u6d41\u6cb3\u5ddd\u4e8b\u52d9\u6240","boring_xml_url":40,"boring_view_url":1,"soilmap_view_url":null,"soiltest_xml_url":0,"soiltest_view_url":0},{"id":151716,"code":"B4KJ201801003-9965","latitude":"35.98494028","longitude":"139.3861003","source_code":"KT53397371002","project_name":"","survey_name":"\u7acb\u91ce\u6a0b\u7ba1\u57fa\u790e\u571f\u8cea\u8abf\u67fb","client_name":"\u56fd\u571f\u4ea4\u901a\u7701\u95a2\u6771\u5730\u65b9\u6574\u5099\u5c40\u8352\u5ddd\u4e0a\u6d41\u6cb3\u5ddd\u4e8b\u52d9\u6240","boring_xml_url":40,"boring_view_url":1,"soilmap_view_url":null,"soiltest_xml_url":0,"soiltest_view_url":0},{"id":151715,"code":"B4KJ201801003-9964","latitude":"35.984635","longitude":"139.3886281","source_code":"KT53397371001","project_name":"","survey_name":"\u8d8a\u8fba\u5ddd(\u7acb\u91ce\u5730\u5148)\u571f\u8cea\u8abf\u67fb","client_name":"\u56fd\u571f\u4ea4\u901a\u7701\u95a2\u6771\u5730\u65b9\u6574\u5099\u5c40\u8352\u5ddd\u4e0a\u6d41\u6cb3\u5ddd\u4e8b\u52d9\u6240","boring_xml_url":40,"boring_view_url":1,"soilmap_view_url":null,"soiltest_xml_url":0,"soiltest_view_url":0},{"id":151714,"code":"B4KJ201801003-9963","latitude":"35.98224611","longitude":"139.3827675","source_code":"KT53397370012","project_name":"","survey_name":"\u6a0b\u306e\u53e3\u6a4b\u57fa\u790e\u571f\u8cea\u8abf\u67fb(\u305d\u306e2)","client_name":"\u56fd\u571f\u4ea4\u901a\u7701\u95a2\u6771\u5730\u65b9\u6574\u5099\u5c40\u8352\u5ddd\u4e0a\u6d41\u6cb3\u5ddd\u4e8b\u52d9\u6240","boring_xml_url":40,"boring_view_url":1,"soilmap_view_url":null,"soiltest_xml_url":0,"soiltest_view_url":0},{"id":151713,"code":"B4KJ201801003-9962","latitude":"35.98202389","longitude":"139.3823786","source_code":"KT53397370011","project_name":"","survey_name":"\u6a0b\u306e\u53e3\u6a4b\u57fa\u790e\u571f\u8cea\u8abf\u67fb(\u305d\u306e2)","client_name":"\u56fd\u571f\u4ea4\u901a\u7701\u95a2\u6771\u5730\u65b9\u6574\u5099\u5c40\u8352\u5ddd\u4e0a\u6d41\u6cb3\u5ddd\u4e8b\u52d9\u6240","boring_xml_url":40,"boring_view_url":1,"soilmap_view_url":null,"soiltest_xml_url":0,"soiltest_view_url":0},{"id":151712,"code":"B4KJ201801003-9961","latitude":"35.98185722","longitude":"139.3819064","source_code":"KT53397370010","project_name":"","survey_name":"\u6a0b\u306e\u53e3\u6a4b\u57fa\u790e\u571f\u8cea\u8abf\u67fb(\u305d\u306e2)","client_name":"\u56fd\u571f\u4ea4\u901a\u7701\u95a2\u6771\u5730\u65b9\u6574\u5099\u5c40\u8352\u5ddd\u4e0a\u6d41\u6cb3\u5ddd\u4e8b\u52d9\u6240","boring_xml_url":40,"boring_view_url":1,"soilmap_view_url":null,"soiltest_xml_url":0,"soiltest_view_url":0},{"id":151711,"code":"B4KJ201801003-9960","latitude":"35.98221833","longitude":"139.3822953","source_code":"KT53397370009","project_name":"","survey_name":"\u6a0b\u306e\u53e3\u6a4b\u57fa\u790e\u571f\u8cea\u8abf\u67fb(\u305d\u306e2)","client_name":"\u56fd\u571f\u4ea4\u901a\u7701\u95a2\u6771\u5730\u65b9\u6574\u5099\u5c40\u8352\u5ddd\u4e0a\u6d41\u6cb3\u5ddd\u4e8b\u52d9\u6240","boring_xml_url":40,"boring_view_url":1,"soilmap_view_url":null,"soiltest_xml_url":0,"soiltest_view_url":0},{"id":151710,"code":"B4KJ201801003-9959","latitude":"35.98224611","longitude":"139.3841561","source_code":"KT53397370008","project_name":"","survey_name":"\u6a0b\u306e\u53e3\u6a4b\u57fa\u790e\u571f\u8cea\u8abf\u67fb","client_name":"\u56fd\u571f\u4ea4\u901a\u7701\u95a2\u6771\u5730\u65b9\u6574\u5099\u5c40\u8352\u5ddd\u4e0a\u6d41\u6cb3\u5ddd\u4e8b\u52d9\u6240","boring_xml_url":40,"boring_view_url":1,"soilmap_view_url":null,"soiltest_xml_url":0,"soiltest_view_url":0},{"id":151709,"code":"B4KJ201801003-9958","latitude":"35.98266278","longitude":"139.3826286","source_code":"KT53397370007","project_name":"","survey_name":"\u6a0b\u306e\u53e3\u6a4b\u57fa\u790e\u571f\u8cea\u8abf\u67fb","client_name":"\u56fd\u571f\u4ea4\u901a\u7701\u95a2\u6771\u5730\u65b9\u6574\u5099\u5c40\u8352\u5ddd\u4e0a\u6d41\u6cb3\u5ddd\u4e8b\u52d9\u6240","boring_xml_url":40,"boring_view_url":1,"soilmap_view_url":null,"soiltest_xml_url":0,"soiltest_view_url":0},{"id":151708,"code":"B4KJ201801003-9957","latitude":"35.98069056","longitude":"139.3760181","source_code":"KT53397370006","project_name":"","survey_name":"\u77f3\u5742\u6a0b\u7ba1\u57fa\u790e\u571f\u8cea\u8abf\u67fb","client_name":"\u56fd\u571f\u4ea4\u901a\u7701\u95a2\u6771\u5730\u65b9\u6574\u5099\u5c40\u8352\u5ddd\u4e0a\u6d41\u6cb3\u5ddd\u4e8b\u52d9\u6240","boring_xml_url":40,"boring_view_url":1,"soilmap_view_url":null,"soiltest_xml_url":0,"soiltest_view_url":0},{"id":151707,"code":"B4KJ201801003-9956","latitude":"35.98057944","longitude":"139.3760181","source_code":"KT53397370005","project_name":"","survey_name":"\u77f3\u5742\u6a0b\u7ba1\u57fa\u790e\u571f\u8cea\u8abf\u67fb","client_name":"\u56fd\u571f\u4ea4\u901a\u7701\u95a2\u6771\u5730\u65b9\u6574\u5099\u5c40\u8352\u5ddd\u4e0a\u6d41\u6cb3\u5ddd\u4e8b\u52d9\u6240","boring_xml_url":40,"boring_view_url":1,"soilmap_view_url":null,"soiltest_xml_url":0,"soiltest_view_url":0},{"id":151706,"code":"B4KJ201801003-9955","latitude":"35.98032944","longitude":"139.3760181","source_code":"KT53397370004","project_name":"","survey_name":"\u77f3\u5742\u6a0b\u7ba1\u57fa\u790e\u571f\u8cea\u8abf\u67fb","client_name":"\u56fd\u571f\u4ea4\u901a\u7701\u95a2\u6771\u5730\u65b9\u6574\u5099\u5c40\u8352\u5ddd\u4e0a\u6d41\u6cb3\u5ddd\u4e8b\u52d9\u6240","boring_xml_url":40,"boring_view_url":1,"soilmap_view_url":null,"soiltest_xml_url":0,"soiltest_view_url":0}]}}