{"header":{"xyz":{"source":[],"mosaic":false},"page":5636,"raw":{"soiltest_result":"0","bbox":"57.598333,109.544722,1.933333,163.806111","page":"5636"},"conditions":{"soiltest_result":0,"north":57.598333,"west":109.544722,"south":1.933333,"east":163.806111},"success":true,"message":""},"data":{"meta":{"total":212844,"page":5636,"pages":7095,"count":30},"values":[{"id":151495,"code":"B4KJ201801003-9744","latitude":"35.86785861","longitude":"139.9894703","source_code":"KT53396739011","project_name":"","survey_name":"\u67cf\u4e0b\u6392\u6c34\u6a0b\u7ba1\u571f\u8cea\u8abf\u67fb","client_name":"\u56fd\u571f\u4ea4\u901a\u7701\u95a2\u6771\u5730\u65b9\u6574\u5099\u5c40\u6c5f\u6238\u5ddd\u6cb3\u5ddd\u4e8b\u52d9\u6240","boring_xml_url":40,"boring_view_url":1,"soilmap_view_url":null,"soiltest_xml_url":0,"soiltest_view_url":0},{"id":151494,"code":"B4KJ201801003-9743","latitude":"35.86560889","longitude":"139.989665","source_code":"KT53396739010","project_name":"","survey_name":"\u5317\u5343\u8449\u5c0e\u6c34\u8def\u571f\u8cea\u8abf\u67fb","client_name":"\u56fd\u571f\u4ea4\u901a\u7701\u95a2\u6771\u5730\u65b9\u6574\u5099\u5c40\u6c5f\u6238\u5ddd\u6cb3\u5ddd\u4e8b\u52d9\u6240","boring_xml_url":40,"boring_view_url":1,"soilmap_view_url":null,"soiltest_xml_url":0,"soiltest_view_url":0},{"id":151493,"code":"B4KJ201801003-9742","latitude":"35.86946944","longitude":"139.9884147","source_code":"KT53396739008","project_name":"","survey_name":"\u67cf\u4e0b\u5730\u5148\u571f\u8cea\u8abf\u67fb","client_name":"\u56fd\u571f\u4ea4\u901a\u7701\u95a2\u6771\u5730\u65b9\u6574\u5099\u5c40\u6c5f\u6238\u5ddd\u6cb3\u5ddd\u4e8b\u52d9\u6240","boring_xml_url":40,"boring_view_url":1,"soilmap_view_url":null,"soiltest_xml_url":0,"soiltest_view_url":0},{"id":151492,"code":"B4KJ201801003-9741","latitude":"35.86946944","longitude":"139.9884147","source_code":"KT53396739007","project_name":"","survey_name":"\u67cf\u4e0b\u5730\u5148\u571f\u8cea\u8abf\u67fb","client_name":"\u56fd\u571f\u4ea4\u901a\u7701\u95a2\u6771\u5730\u65b9\u6574\u5099\u5c40\u6c5f\u6238\u5ddd\u6cb3\u5ddd\u4e8b\u52d9\u6240","boring_xml_url":40,"boring_view_url":1,"soilmap_view_url":null,"soiltest_xml_url":0,"soiltest_view_url":0},{"id":151491,"code":"B4KJ201801003-9740","latitude":"35.86946944","longitude":"139.9884147","source_code":"KT53396739006","project_name":"","survey_name":"\u67cf\u4e0b\u5730\u5148\u571f\u8cea\u8abf\u67fb","client_name":"\u56fd\u571f\u4ea4\u901a\u7701\u95a2\u6771\u5730\u65b9\u6574\u5099\u5c40\u6c5f\u6238\u5ddd\u6cb3\u5ddd\u4e8b\u52d9\u6240","boring_xml_url":40,"boring_view_url":1,"soilmap_view_url":null,"soiltest_xml_url":0,"soiltest_view_url":0},{"id":151490,"code":"B4KJ201801003-9739","latitude":"35.86946944","longitude":"139.9884147","source_code":"KT53396739005","project_name":"","survey_name":"\u67cf\u4e0b\u5730\u5148\u571f\u8cea\u8abf\u67fb","client_name":"\u56fd\u571f\u4ea4\u901a\u7701\u95a2\u6771\u5730\u65b9\u6574\u5099\u5c40\u6c5f\u6238\u5ddd\u6cb3\u5ddd\u4e8b\u52d9\u6240","boring_xml_url":40,"boring_view_url":1,"soilmap_view_url":null,"soiltest_xml_url":0,"soiltest_view_url":0},{"id":151489,"code":"B4KJ201801003-9738","latitude":"35.86946944","longitude":"139.9884147","source_code":"KT53396739004","project_name":"","survey_name":"\u67cf\u4e0b\u5730\u5148\u571f\u8cea\u8abf\u67fb","client_name":"\u56fd\u571f\u4ea4\u901a\u7701\u95a2\u6771\u5730\u65b9\u6574\u5099\u5c40\u6c5f\u6238\u5ddd\u6cb3\u5ddd\u4e8b\u52d9\u6240","boring_xml_url":40,"boring_view_url":1,"soilmap_view_url":null,"soiltest_xml_url":0,"soiltest_view_url":0},{"id":151488,"code":"B4KJ201801003-9737","latitude":"35.86946944","longitude":"139.9884147","source_code":"KT53396739003","project_name":"","survey_name":"\u67cf\u4e0b\u5730\u5148\u571f\u8cea\u8abf\u67fb","client_name":"\u56fd\u571f\u4ea4\u901a\u7701\u95a2\u6771\u5730\u65b9\u6574\u5099\u5c40\u6c5f\u6238\u5ddd\u6cb3\u5ddd\u4e8b\u52d9\u6240","boring_xml_url":40,"boring_view_url":1,"soilmap_view_url":null,"soiltest_xml_url":0,"soiltest_view_url":0},{"id":151487,"code":"B4KJ201801003-9736","latitude":"35.86946944","longitude":"139.9884147","source_code":"KT53396739002","project_name":"","survey_name":"\u67cf\u4e0b\u5730\u5148\u571f\u8cea\u8abf\u67fb","client_name":"\u56fd\u571f\u4ea4\u901a\u7701\u95a2\u6771\u5730\u65b9\u6574\u5099\u5c40\u6c5f\u6238\u5ddd\u6cb3\u5ddd\u4e8b\u52d9\u6240","boring_xml_url":40,"boring_view_url":1,"soilmap_view_url":null,"soiltest_xml_url":0,"soiltest_view_url":0},{"id":151486,"code":"B4KJ201801003-9735","latitude":"35.86946944","longitude":"139.9884147","source_code":"KT53396739001","project_name":"","survey_name":"\u67cf\u4e0b\u5730\u5148\u571f\u8cea\u8abf\u67fb","client_name":"\u56fd\u571f\u4ea4\u901a\u7701\u95a2\u6771\u5730\u65b9\u6574\u5099\u5c40\u6c5f\u6238\u5ddd\u6cb3\u5ddd\u4e8b\u52d9\u6240","boring_xml_url":40,"boring_view_url":1,"soilmap_view_url":null,"soiltest_xml_url":0,"soiltest_view_url":0},{"id":151485,"code":"B4KJ201801003-9734","latitude":"35.86596944","longitude":"139.9709164","source_code":"KT53396737004","project_name":"","survey_name":"\u67cf\u5e02\u8857\u62e1\u5dfe\u9053\u8def\u8a2d\u8a08\u305d\u306e\u4ed6\u696d\u52d9\u59d4\u8a17","client_name":"\u56fd\u571f\u4ea4\u901a\u7701\u95a2\u6771\u5730\u65b9\u6574\u5099\u5c40\u9996\u90fd\u56fd\u9053\u4e8b\u52d9\u6240","boring_xml_url":40,"boring_view_url":1,"soilmap_view_url":null,"soiltest_xml_url":0,"soiltest_view_url":0},{"id":151484,"code":"B4KJ201801003-9733","latitude":"35.86549722","longitude":"139.96975","source_code":"KT53396737003","project_name":"","survey_name":"\u67cf\u5e02\u8857\u62e1\u5dfe\u9053\u8def\u8a2d\u8a08\u305d\u306e\u4ed6\u696d\u52d9\u59d4\u8a17","client_name":"\u56fd\u571f\u4ea4\u901a\u7701\u95a2\u6771\u5730\u65b9\u6574\u5099\u5c40\u9996\u90fd\u56fd\u9053\u4e8b\u52d9\u6240","boring_xml_url":40,"boring_view_url":1,"soilmap_view_url":null,"soiltest_xml_url":0,"soiltest_view_url":0},{"id":151483,"code":"B4KJ201801003-9732","latitude":"35.86341417","longitude":"139.9681944","source_code":"KT53396737002","project_name":"","survey_name":"\u67cf\u5e02\u8857\u62e1\u5dfe\u9053\u8def\u8a2d\u8a08\u305d\u306e\u4ed6\u696d\u52d9\u59d4\u8a17","client_name":"\u56fd\u571f\u4ea4\u901a\u7701\u95a2\u6771\u5730\u65b9\u6574\u5099\u5c40\u9996\u90fd\u56fd\u9053\u4e8b\u52d9\u6240","boring_xml_url":40,"boring_view_url":1,"soilmap_view_url":null,"soiltest_xml_url":0,"soiltest_view_url":0},{"id":151482,"code":"B4KJ201801003-9731","latitude":"35.86233083","longitude":"139.9681392","source_code":"KT53396737001","project_name":"","survey_name":"\u67cf\u5e02\u8857\u62e1\u5dfe\u9053\u8def\u8a2d\u8a08\u305d\u306e\u4ed6\u696d\u52d9\u59d4\u8a17","client_name":"\u56fd\u571f\u4ea4\u901a\u7701\u95a2\u6771\u5730\u65b9\u6574\u5099\u5c40\u9996\u90fd\u56fd\u9053\u4e8b\u52d9\u6240","boring_xml_url":40,"boring_view_url":1,"soilmap_view_url":null,"soiltest_xml_url":0,"soiltest_view_url":0},{"id":151481,"code":"B4KJ201801003-9730","latitude":"35.86907944","longitude":"139.9406689","source_code":"KT53396735012","project_name":"","survey_name":"\u8c4a\u56db\u5b63\u30b7\u30fc\u30eb\u30c9\u571f\u8cea\u8abf\u67fb(\u305d\u306e2)","client_name":"\u56fd\u571f\u4ea4\u901a\u7701\u95a2\u6771\u5730\u65b9\u6574\u5099\u5c40\u6c5f\u6238\u5ddd\u6cb3\u5ddd\u4e8b\u52d9\u6240","boring_xml_url":40,"boring_view_url":1,"soilmap_view_url":null,"soiltest_xml_url":0,"soiltest_view_url":0},{"id":151480,"code":"B4KJ201801003-9729","latitude":"35.86782944","longitude":"139.9406133","source_code":"KT53396735011","project_name":"","survey_name":"\u8c4a\u56db\u5b63\u30b7\u30fc\u30eb\u30c9\u571f\u8cea\u8abf\u67fb(\u305d\u306e2)","client_name":"\u56fd\u571f\u4ea4\u901a\u7701\u95a2\u6771\u5730\u65b9\u6574\u5099\u5c40\u6c5f\u6238\u5ddd\u6cb3\u5ddd\u4e8b\u52d9\u6240","boring_xml_url":40,"boring_view_url":1,"soilmap_view_url":null,"soiltest_xml_url":0,"soiltest_view_url":0},{"id":151479,"code":"B4KJ201801003-9728","latitude":"35.86313556","longitude":"139.9388914","source_code":"KT53396735010","project_name":"","survey_name":"\u5317\u5343\u8449\u5c0e\u6c34\u8def\u571f\u8cea\u8abf\u67fb(\u305d\u306e2)","client_name":"\u56fd\u571f\u4ea4\u901a\u7701\u95a2\u6771\u5730\u65b9\u6574\u5099\u5c40\u6c5f\u6238\u5ddd\u6cb3\u5ddd\u4e8b\u52d9\u6240","boring_xml_url":40,"boring_view_url":1,"soilmap_view_url":null,"soiltest_xml_url":0,"soiltest_view_url":0},{"id":151478,"code":"B4KJ201801003-9727","latitude":"35.86538528","longitude":"139.9402803","source_code":"KT53396735009","project_name":"","survey_name":"\u5317\u5343\u8449\u5c0e\u6c34\u8def\u571f\u8cea\u8abf\u67fb(\u305d\u306e2)","client_name":"\u56fd\u571f\u4ea4\u901a\u7701\u95a2\u6771\u5730\u65b9\u6574\u5099\u5c40\u6c5f\u6238\u5ddd\u6cb3\u5ddd\u4e8b\u52d9\u6240","boring_xml_url":40,"boring_view_url":1,"soilmap_view_url":null,"soiltest_xml_url":0,"soiltest_view_url":0},{"id":151477,"code":"B4KJ201801003-9726","latitude":"35.86741306","longitude":"139.9416689","source_code":"KT53396735008","project_name":"","survey_name":"\u5317\u5343\u8449\u5c0e\u6c34\u8def\u571f\u8cea\u8abf\u67fb(\u305d\u306e2)","client_name":"\u56fd\u571f\u4ea4\u901a\u7701\u95a2\u6771\u5730\u65b9\u6574\u5099\u5c40\u6c5f\u6238\u5ddd\u6cb3\u5ddd\u4e8b\u52d9\u6240","boring_xml_url":40,"boring_view_url":1,"soilmap_view_url":null,"soiltest_xml_url":0,"soiltest_view_url":0},{"id":151476,"code":"B4KJ201801003-9725","latitude":"35.86924611","longitude":"139.9416689","source_code":"KT53396735007","project_name":"","survey_name":"\u5317\u5343\u8449\u5c0e\u6c34\u8def\u571f\u8cea\u8abf\u67fb(\u305d\u306e2)","client_name":"\u56fd\u571f\u4ea4\u901a\u7701\u95a2\u6771\u5730\u65b9\u6574\u5099\u5c40\u6c5f\u6238\u5ddd\u6cb3\u5ddd\u4e8b\u52d9\u6240","boring_xml_url":40,"boring_view_url":1,"soilmap_view_url":null,"soiltest_xml_url":0,"soiltest_view_url":0},{"id":151475,"code":"B4KJ201801003-9724","latitude":"35.86269111","longitude":"139.9380583","source_code":"KT53396735006","project_name":"","survey_name":"\u5317\u5343\u8449\u5c0e\u6c34\u8def\u571f\u8cea\u8abf\u67fb(\u305d\u306e3)","client_name":"\u56fd\u571f\u4ea4\u901a\u7701\u95a2\u6771\u5730\u65b9\u6574\u5099\u5c40\u6c5f\u6238\u5ddd\u6cb3\u5ddd\u4e8b\u52d9\u6240","boring_xml_url":40,"boring_view_url":1,"soilmap_view_url":null,"soiltest_xml_url":0,"soiltest_view_url":0},{"id":151474,"code":"B4KJ201801003-9723","latitude":"35.86607972","longitude":"139.9395303","source_code":"KT53396735005","project_name":"","survey_name":"\u8c4a\u56db\u5b63\u30b7\u30fc\u30eb\u30c9\u571f\u8cea\u8abf\u67fb","client_name":"\u56fd\u571f\u4ea4\u901a\u7701\u95a2\u6771\u5730\u65b9\u6574\u5099\u5c40\u6c5f\u6238\u5ddd\u6cb3\u5ddd\u4e8b\u52d9\u6240","boring_xml_url":40,"boring_view_url":1,"soilmap_view_url":null,"soiltest_xml_url":0,"soiltest_view_url":0},{"id":151473,"code":"B4KJ201801003-9722","latitude":"35.86338556","longitude":"139.9395303","source_code":"KT53396735004","project_name":"","survey_name":"\u8c4a\u56db\u5b63\u30b7\u30fc\u30eb\u30c9\u571f\u8cea\u8abf\u67fb","client_name":"\u56fd\u571f\u4ea4\u901a\u7701\u95a2\u6771\u5730\u65b9\u6574\u5099\u5c40\u6c5f\u6238\u5ddd\u6cb3\u5ddd\u4e8b\u52d9\u6240","boring_xml_url":40,"boring_view_url":1,"soilmap_view_url":null,"soiltest_xml_url":0,"soiltest_view_url":0},{"id":151472,"code":"B4KJ201801003-9721","latitude":"35.86269111","longitude":"139.9380583","source_code":"KT53396735003","project_name":"","survey_name":"\u5317\u5343\u8449\u5c0e\u6c34\u8def\u571f\u8cea\u8abf\u67fb(\u305d\u306e7)","client_name":"\u56fd\u571f\u4ea4\u901a\u7701\u95a2\u6771\u5730\u65b9\u6574\u5099\u5c40\u6c5f\u6238\u5ddd\u6cb3\u5ddd\u4e8b\u52d9\u6240","boring_xml_url":40,"boring_view_url":1,"soilmap_view_url":null,"soiltest_xml_url":0,"soiltest_view_url":0},{"id":151471,"code":"B4KJ201801003-9720","latitude":"35.86471889","longitude":"139.9391692","source_code":"KT53396735002","project_name":"","survey_name":"\u5317\u5343\u8449\u5c0e\u6c34\u8def\u571f\u8cea\u8abf\u67fb(\u305d\u306e7)","client_name":"\u56fd\u571f\u4ea4\u901a\u7701\u95a2\u6771\u5730\u65b9\u6574\u5099\u5c40\u6c5f\u6238\u5ddd\u6cb3\u5ddd\u4e8b\u52d9\u6240","boring_xml_url":40,"boring_view_url":1,"soilmap_view_url":null,"soiltest_xml_url":0,"soiltest_view_url":0},{"id":151470,"code":"B4KJ201801003-9719","latitude":"35.8656075","longitude":"139.9405581","source_code":"KT53396735001","project_name":"","survey_name":"\u5317\u5343\u8449\u5c0e\u6c34\u8def\u571f\u8cea\u8abf\u67fb(\u305d\u306e7)","client_name":"\u56fd\u571f\u4ea4\u901a\u7701\u95a2\u6771\u5730\u65b9\u6574\u5099\u5c40\u6c5f\u6238\u5ddd\u6cb3\u5ddd\u4e8b\u52d9\u6240","boring_xml_url":40,"boring_view_url":1,"soilmap_view_url":null,"soiltest_xml_url":0,"soiltest_view_url":0},{"id":151469,"code":"B4KJ201801003-9718","latitude":"35.86191278","longitude":"139.9119494","source_code":"KT53396733002","project_name":"","survey_name":"\u5742\u5ddd\u6d41\u57df\u6c34\u7ba1\u7406\u8a08\u753b\u691c\u8a0e\u696d\u52d9","client_name":"\u56fd\u571f\u4ea4\u901a\u7701\u95a2\u6771\u5730\u65b9\u6574\u5099\u5c40\u6c5f\u6238\u5ddd\u6cb3\u5ddd\u4e8b\u52d9\u6240","boring_xml_url":40,"boring_view_url":1,"soilmap_view_url":null,"soiltest_xml_url":0,"soiltest_view_url":0},{"id":151468,"code":"B4KJ201801003-9717","latitude":"35.86191278","longitude":"139.9119494","source_code":"KT53396733001","project_name":"","survey_name":"\u5742\u5ddd\u6d41\u57df\u6c34\u7ba1\u7406\u8a08\u753b\u691c\u8a0e\u696d\u52d9","client_name":"\u56fd\u571f\u4ea4\u901a\u7701\u95a2\u6771\u5730\u65b9\u6574\u5099\u5c40\u6c5f\u6238\u5ddd\u6cb3\u5ddd\u4e8b\u52d9\u6240","boring_xml_url":40,"boring_view_url":1,"soilmap_view_url":null,"soiltest_xml_url":0,"soiltest_view_url":0},{"id":151467,"code":"B4KJ201801003-9716","latitude":"35.86735611","longitude":"139.8955339","source_code":"KT53396731004","project_name":"","survey_name":"\u4e09\u8f2a\u91ce\u6c5f\u5730\u5148\u4ed6\u571f\u8cea\u8abf\u67fb","client_name":"\u56fd\u571f\u4ea4\u901a\u7701\u95a2\u6771\u5730\u65b9\u6574\u5099\u5c40\u65e5\u5149\u7802\u9632\u4e8b\u52d9\u6240","boring_xml_url":40,"boring_view_url":1,"soilmap_view_url":null,"soiltest_xml_url":0,"soiltest_view_url":0},{"id":151466,"code":"B4KJ201801003-9715","latitude":"35.86741167","longitude":"139.8950894","source_code":"KT53396731003","project_name":"","survey_name":"\u4e09\u8f2a\u91ce\u6c5f\u5730\u5148\u4ed6\u571f\u8cea\u8abf\u67fb","client_name":"\u56fd\u571f\u4ea4\u901a\u7701\u95a2\u6771\u5730\u65b9\u6574\u5099\u5c40\u65e5\u5149\u7802\u9632\u4e8b\u52d9\u6240","boring_xml_url":40,"boring_view_url":1,"soilmap_view_url":null,"soiltest_xml_url":0,"soiltest_view_url":0}]}}