{"header":{"xyz":{"source":[],"mosaic":false},"page":564,"raw":{"soiltest_result":"0","bbox":"57.598333,109.544722,1.933333,163.806111","page":"564"},"conditions":{"soiltest_result":0,"north":57.598333,"west":109.544722,"south":1.933333,"east":163.806111},"success":true,"message":""},"data":{"meta":{"total":212844,"page":564,"pages":7095,"count":30},"values":[{"id":528498,"code":"B4KJ202201003-1034","latitude":"34.038172","longitude":"132.974686","source_code":"178850622000100001","project_name":"","survey_name":"\u5e73\u621029\u5e74\u5ea6\u3000\u4eca\u6cbb\u9053\u8def\u5730\u8cea\u8abf\u67fb\uff08\u305d\u306e1\uff09\u696d\u52d9","client_name":"\u56fd\u571f\u4ea4\u901a\u7701\u3000\u56db\u56fd\u5730\u65b9\u6574\u5099\u5c40\u3000\u677e\u5c71\u6cb3\u5ddd\u56fd\u9053\u4e8b\u52d9\u6240","boring_xml_url":64,"boring_view_url":1,"soilmap_view_url":null,"soiltest_xml_url":0,"soiltest_view_url":0},{"id":528497,"code":"B4KJ202201003-1033","latitude":"34.038758","longitude":"132.974367","source_code":"178840552000080001","project_name":"","survey_name":"\u5e73\u621029\u5e74\u5ea6\u3000\u4eca\u6cbb\u9053\u8def\u5730\u8cea\u8abf\u67fb\uff08\u305d\u306e1\uff09\u696d\u52d9","client_name":"\u56fd\u571f\u4ea4\u901a\u7701\u3000\u56db\u56fd\u5730\u65b9\u6574\u5099\u5c40\u3000\u677e\u5c71\u6cb3\u5ddd\u56fd\u9053\u4e8b\u52d9\u6240","boring_xml_url":64,"boring_view_url":1,"soilmap_view_url":null,"soiltest_xml_url":0,"soiltest_view_url":0},{"id":528496,"code":"B4KJ202201003-1032","latitude":"34.039605","longitude":"132.973942","source_code":"178862401500080003","project_name":"","survey_name":"\u5e73\u621029\u5e74\u5ea6\u3000\u4eca\u6cbb\u9053\u8def\u5730\u8cea\u8abf\u67fb\uff08\u305d\u306e1\uff09\u696d\u52d9","client_name":"\u56fd\u571f\u4ea4\u901a\u7701\u3000\u56db\u56fd\u5730\u65b9\u6574\u5099\u5c40\u3000\u677e\u5c71\u6cb3\u5ddd\u56fd\u9053\u4e8b\u52d9\u6240","boring_xml_url":64,"boring_view_url":1,"soilmap_view_url":null,"soiltest_xml_url":0,"soiltest_view_url":0},{"id":528495,"code":"B4KJ202201003-1031","latitude":"34.039902","longitude":"132.973802","source_code":"178862401500080002","project_name":"","survey_name":"\u5e73\u621029\u5e74\u5ea6\u3000\u4eca\u6cbb\u9053\u8def\u5730\u8cea\u8abf\u67fb\uff08\u305d\u306e1\uff09\u696d\u52d9","client_name":"\u56fd\u571f\u4ea4\u901a\u7701\u3000\u56db\u56fd\u5730\u65b9\u6574\u5099\u5c40\u3000\u677e\u5c71\u6cb3\u5ddd\u56fd\u9053\u4e8b\u52d9\u6240","boring_xml_url":64,"boring_view_url":1,"soilmap_view_url":null,"soiltest_xml_url":0,"soiltest_view_url":0},{"id":528494,"code":"B4KJ202201003-1030","latitude":"34.040337","longitude":"132.973606","source_code":"178862401500080001","project_name":"","survey_name":"\u5e73\u621029\u5e74\u5ea6\u3000\u4eca\u6cbb\u9053\u8def\u5730\u8cea\u8abf\u67fb\uff08\u305d\u306e1\uff09\u696d\u52d9","client_name":"\u56fd\u571f\u4ea4\u901a\u7701\u56db\u56fd\u5730\u65b9\u6574\u5099\u5c40\u677e\u5c71\u6cb3\u5ddd\u56fd\u9053\u4e8b\u52d9\u6240","boring_xml_url":64,"boring_view_url":1,"soilmap_view_url":null,"soiltest_xml_url":0,"soiltest_view_url":0},{"id":528493,"code":"B4KJ202201003-1029","latitude":"34.108707","longitude":"133.799508","source_code":"168834451000020002","project_name":"\u6e9d\u53e3\u5ddd\u6a4b\u5916\u8a73\u7d30\u8a2d\u8a08\u696d\u52d9","survey_name":"\u5e73\u621029\u5e74\u5ea6\u3000\u6e9d\u53e3\u5ddd\u6a4b\u5916\u8a73\u7d30\u8a2d\u8a08\u696d\u52d9","client_name":"\u56fd\u571f\u4ea4\u901a\u7701\u56db\u56fd\u5730\u65b9\u6574\u5099\u5c40\u3000\u9999\u5ddd\u6cb3\u5ddd\u56fd\u9053\u4e8b\u52d9\u6240","boring_xml_url":64,"boring_view_url":1,"soilmap_view_url":null,"soiltest_xml_url":0,"soiltest_view_url":0},{"id":528492,"code":"B4KJ202201003-1028","latitude":"33.543528","longitude":"133.412056","source_code":"168834451000020001","project_name":"","survey_name":"\u5e73\u621029-30\u5e74\u5ea6\u6ce2\u5ddd\u9ad8\u67b6\u6a4b\u4e0b\u90e8\u7b2c2\u5de5\u4e8b","client_name":"\u56fd\u571f\u4ea4\u901a\u7701\u56db\u56fd\u5730\u65b9\u6574\u5099\u5c40\u571f\u4f50\u56fd\u9053\u4e8b\u52d9\u6240","boring_xml_url":64,"boring_view_url":1,"soilmap_view_url":null,"soiltest_xml_url":0,"soiltest_view_url":0},{"id":528491,"code":"B4KJ202201003-1027","latitude":"33.543639","longitude":"133.412056","source_code":"168860431000380001","project_name":"","survey_name":"\u5e73\u621029-30\u5e74\u5ea6\u6ce2\u5ddd\u9ad8\u67b6\u6a4b\u4e0b\u90e8\u7b2c2\u5de5\u4e8b","client_name":"\u56fd\u571f\u4ea4\u901a\u7701\u56db\u56fd\u5730\u65b9\u6574\u5099\u5c40\u571f\u4f50\u56fd\u9053\u4e8b\u52d9\u6240","boring_xml_url":64,"boring_view_url":1,"soilmap_view_url":null,"soiltest_xml_url":0,"soiltest_view_url":0},{"id":528490,"code":"B4KJ202201003-1026","latitude":"33.542092","longitude":"133.414872","source_code":"168830561000110004","project_name":"","survey_name":"\"\u5e73\u621028\u5e74\u5ea6\u3000\u6ce2\u5ddd\u6539\u826f\u7b2c1\u5de5\u4e8b\u5730 \u8cea \u8abf \u67fb \u696d \u52d9\"","client_name":"\"\u682a\u5f0f\u4f1a\u793e \u8f5f\u7d44\"","boring_xml_url":63,"boring_view_url":1,"soilmap_view_url":null,"soiltest_xml_url":0,"soiltest_view_url":0},{"id":528489,"code":"B4KJ202201003-1025","latitude":"33.542975","longitude":"133.413036","source_code":"168830561000110003","project_name":"","survey_name":"\"\u5e73\u621028\u5e74\u5ea6\u3000\u6ce2\u5ddd\u6539\u826f\u7b2c1\u5de5\u4e8b\u5730 \u8cea \u8abf \u67fb \u696d \u52d9\"","client_name":"\"\u682a\u5f0f\u4f1a\u793e \u8f5f\u7d44\"","boring_xml_url":63,"boring_view_url":1,"soilmap_view_url":null,"soiltest_xml_url":0,"soiltest_view_url":0},{"id":528488,"code":"B4KJ202201003-1024","latitude":"33.5433","longitude":"133.412708","source_code":"168830561000110002","project_name":"","survey_name":"\"\u5e73\u621028\u5e74\u5ea6\u3000\u6ce2\u5ddd\u6539\u826f\u7b2c1\u5de5\u4e8b\u5730 \u8cea \u8abf \u67fb \u696d \u52d9\"","client_name":"\"\u682a\u5f0f\u4f1a\u793e \u8f5f\u7d44\"","boring_xml_url":63,"boring_view_url":1,"soilmap_view_url":null,"soiltest_xml_url":0,"soiltest_view_url":0},{"id":528487,"code":"B4KJ202201003-1023","latitude":"33.550589","longitude":"133.414386","source_code":"168830561000110001","project_name":"","survey_name":"\"\u5e73\u621028\u5e74\u5ea6\u3000\u6ce2\u5ddd\u6539\u826f\u7b2c1\u5de5\u4e8b\u5730 \u8cea \u8abf \u67fb \u696d \u52d9\"","client_name":"\"\u682a\u5f0f\u4f1a\u793e \u8f5f\u7d44\"","boring_xml_url":63,"boring_view_url":1,"soilmap_view_url":null,"soiltest_xml_url":0,"soiltest_view_url":0},{"id":528486,"code":"B4KJ202201003-1022","latitude":"34.061855","longitude":"134.256161","source_code":"158862401000340003","project_name":"","survey_name":"\"\u5e73\u621028\u5e74\u5ea6 \u5c71\u5ddd\u5824\u5916\u5730\u533a\u6b69\u9053\u6574\u5099\u5de5\u4e8b\"","client_name":"\u56fd\u571f\u4ea4\u901a\u7701\u3000\u56db\u56fd\u5730\u65b9\u6574\u5099\u5c40\u3000\u5fb3\u5cf6\u6cb3\u5ddd\u56fd\u9053\u4e8b\u52d9\u6240","boring_xml_url":64,"boring_view_url":1,"soilmap_view_url":null,"soiltest_xml_url":0,"soiltest_view_url":0},{"id":528485,"code":"B4KJ202201003-1021","latitude":"34.061943","longitude":"134.256106","source_code":"158862401000340002","project_name":"","survey_name":"\"\u5e73\u621028\u5e74\u5ea6 \u5c71\u5ddd\u5824\u5916\u5730\u533a\u6b69\u9053\u6574\u5099\u5de5\u4e8b\"","client_name":"\u56fd\u571f\u4ea4\u901a\u7701\u3000\u56db\u56fd\u5730\u65b9\u6574\u5099\u5c40\u3000\u5fb3\u5cf6\u6cb3\u5ddd\u56fd\u9053\u4e8b\u52d9\u6240","boring_xml_url":64,"boring_view_url":1,"soilmap_view_url":null,"soiltest_xml_url":0,"soiltest_view_url":0},{"id":528484,"code":"B4KJ202201003-1020","latitude":"34.061788","longitude":"134.255715","source_code":"158862401000340001","project_name":"","survey_name":"\"\u5e73\u621028\u5e74\u5ea6 \u5c71\u5ddd\u5824\u5916\u5730\u533a\u6b69\u9053\u6574\u5099\u5de5\u4e8b\"","client_name":"\u56fd\u571f\u4ea4\u901a\u7701\u3000\u56db\u56fd\u5730\u65b9\u6574\u5099\u5c40\u3000\u5fb3\u5cf6\u6cb3\u5ddd\u56fd\u9053\u4e8b\u52d9\u6240","boring_xml_url":64,"boring_view_url":1,"soilmap_view_url":null,"soiltest_xml_url":0,"soiltest_view_url":0},{"id":528483,"code":"B4KJ202201003-1019","latitude":"34.061588","longitude":"134.255241","source_code":"158850411000030002","project_name":"","survey_name":"\"\u5e73\u621028\u5e74\u5ea6 \u5c71\u5ddd\u5824\u5916\u5730\u533a\u6b69\u9053\u6574\u5099\u5de5\u4e8b\"","client_name":"\u56fd\u571f\u4ea4\u901a\u7701\u3000\u56db\u56fd\u5730\u65b9\u6574\u5099\u5c40\u3000\u5fb3\u5cf6\u6cb3\u5ddd\u56fd\u9053\u4e8b\u52d9\u6240","boring_xml_url":64,"boring_view_url":1,"soilmap_view_url":null,"soiltest_xml_url":0,"soiltest_view_url":0},{"id":528482,"code":"B4KJ202201003-1018","latitude":"33.540528","longitude":"133.419","source_code":"158850411000030001","project_name":"","survey_name":"\u5e73\u621027-28\u5e74\u5ea6\u3000\u938c\u7530\u6539\u826f\u7b2c2\u5de5\u4e8b","client_name":"\u571f\u4f50\u56fd\u9053\u4e8b\u52d9\u6240","boring_xml_url":64,"boring_view_url":1,"soilmap_view_url":null,"soiltest_xml_url":0,"soiltest_view_url":0},{"id":528481,"code":"B4KJ202201003-1017","latitude":"33.540417","longitude":"133.419194","source_code":"158830411000030001","project_name":"","survey_name":"\u5e73\u621027-28\u5e74\u5ea6\u3000\u938c\u7530\u6539\u826f\u7b2c2\u5de5\u4e8b","client_name":"\u571f\u4f50\u56fd\u9053\u4e8b\u52d9\u6240","boring_xml_url":64,"boring_view_url":1,"soilmap_view_url":null,"soiltest_xml_url":0,"soiltest_view_url":0},{"id":528480,"code":"B4KJ202201003-1016","latitude":"33.540389","longitude":"133.419083","source_code":"158830411000020001","project_name":"","survey_name":"\u5e73\u621027-28\u5e74\u5ea6\u3000\u938c\u7530\u6539\u826f\u7b2c2\u5de5\u4e8b","client_name":"\u571f\u4f50\u56fd\u9053\u4e8b\u52d9\u6240","boring_xml_url":64,"boring_view_url":1,"soilmap_view_url":null,"soiltest_xml_url":0,"soiltest_view_url":0},{"id":528479,"code":"B4KJ202201003-1015","latitude":"33.811097","longitude":"132.728953","source_code":"148837401000180003","project_name":"","survey_name":"\u5e73\u621027\u5e74\u5ea6\u3000\u4f59\u6238\u5357\u5074\u9053\u8de8\u7dda\u6a4b\uff08\u4e0b\u308a\uff09\u5916\u4e0b\u90e8\u5de5\u4e8b\u306b\u4f34\u3046\u5730\u8cea\u8abf\u67fb","client_name":"\u682a\u5f0f\u4f1a\u793e\u4e8c\u795e\u7d44","boring_xml_url":64,"boring_view_url":1,"soilmap_view_url":null,"soiltest_xml_url":0,"soiltest_view_url":0},{"id":528478,"code":"B4KJ202201003-1014","latitude":"33.811094","longitude":"132.728758","source_code":"148837401000180002","project_name":"","survey_name":"\u5e73\u621027\u5e74\u5ea6\u3000\u4f59\u6238\u5357\u5074\u9053\u8de8\u7dda\u6a4b\uff08\u4e0b\u308a\uff09\u5916\u4e0b\u90e8\u5de5\u4e8b\u306b\u4f34\u3046\u5730\u8cea\u8abf\u67fb","client_name":"\u682a\u5f0f\u4f1a\u793e\u4e8c\u795e\u7d44","boring_xml_url":64,"boring_view_url":1,"soilmap_view_url":null,"soiltest_xml_url":0,"soiltest_view_url":0},{"id":528477,"code":"B4KJ202201003-1013","latitude":"34.061389","longitude":"134.591944","source_code":"148837401000180001","project_name":"\"\u5e73\u621027\u5e74\u5ea6 \u6c96\u6d32\u9ad8\u67b6\u6a4b\u4e0b\u90e8\uff08\u305d\u306e2\uff09\u5de5\u4e8b\"","survey_name":"\"\u5e73\u621027\u5e74\u5ea6 \u6c96\u6d32\u9ad8\u67b6\u6a4b\u4e0b\u90e8\uff08\u305d\u306e2\uff09\u5de5\u4e8b\"","client_name":"\u56fd\u571f\u4ea4\u901a\u7701\u56db\u56fd\u5730\u65b9\u6574\u5099\u5c40\u5fb3\u5cf6\u6cb3\u5ddd\u56fd\u9053\u4e8b\u52d9\u6240","boring_xml_url":64,"boring_view_url":1,"soilmap_view_url":null,"soiltest_xml_url":0,"soiltest_view_url":0},{"id":528476,"code":"B4KJ202201003-1012","latitude":"34.061667","longitude":"134.592222","source_code":"148860401000320005","project_name":"\"\u5e73\u621027\u5e74\u5ea6 \u6c96\u6d32\u9ad8\u67b6\u6a4b\u4e0b\u90e8\uff08\u305d\u306e1\uff09\u5de5\u4e8b\"","survey_name":"\"\u5e73\u621027\u5e74\u5ea6 \u6c96\u6d32\u9ad8\u67b6\u6a4b\u4e0b\u90e8\uff08\u305d\u306e1\uff09\u5de5\u4e8b\"","client_name":"\u56fd\u571f\u4ea4\u901a\u7701\u56db\u56fd\u5730\u65b9\u6574\u5099\u5c40\u5fb3\u5cf6\u6cb3\u5ddd\u56fd\u9053\u4e8b\u52d9\u6240","boring_xml_url":64,"boring_view_url":1,"soilmap_view_url":null,"soiltest_xml_url":0,"soiltest_view_url":0},{"id":528475,"code":"B4KJ202201003-1011","latitude":"33.791611","longitude":"133.77975","source_code":"148860401000320004","project_name":"","survey_name":"\"\u5357 \u5c0f \u5ddd \u8b77 \u5cb8 \u5de5 \u4e8b\"","client_name":"\"\u56fd\u571f\u4ea4\u901a\u7701 \u56db\u56fd\u5730\u65b9\u6574\u5099\u5c40 \u56db\u56fd\u5c71\u5730\u7802\u9632\u4e8b\u52d9\u6240\"","boring_xml_url":64,"boring_view_url":1,"soilmap_view_url":null,"soiltest_xml_url":0,"soiltest_view_url":0},{"id":528474,"code":"B4KJ202201003-1010","latitude":"33.791639","longitude":"133.77975","source_code":"148860401000320003","project_name":"","survey_name":"\"\u5357 \u5c0f \u5ddd \u8b77 \u5cb8 \u5de5 \u4e8b\"","client_name":"\"\u56fd\u571f\u4ea4\u901a\u7701 \u56db\u56fd\u5730\u65b9\u6574\u5099\u5c40 \u56db\u56fd\u5c71\u5730\u7802\u9632\u4e8b\u52d9\u6240\"","boring_xml_url":64,"boring_view_url":1,"soilmap_view_url":null,"soiltest_xml_url":0,"soiltest_view_url":0},{"id":528473,"code":"B4KJ202201003-1009","latitude":"33.791667","longitude":"133.779722","source_code":"148860401000320002","project_name":"","survey_name":"\"\u5357 \u5c0f \u5ddd \u8b77 \u5cb8 \u5de5 \u4e8b\"","client_name":"\"\u56fd\u571f\u4ea4\u901a\u7701 \u56db\u56fd\u5730\u65b9\u6574\u5099\u5c40 \u56db\u56fd\u5c71\u5730\u7802\u9632\u4e8b\u52d9\u6240\"","boring_xml_url":64,"boring_view_url":1,"soilmap_view_url":null,"soiltest_xml_url":0,"soiltest_view_url":0},{"id":528472,"code":"B4KJ202201003-1008","latitude":"33.485694","longitude":"133.539861","source_code":"148860401000320001","project_name":"","survey_name":"\u5e73\u621026-27\u5e74\u5ea6\u9577\u6d5c\u6d77\u5cb8\u5824\u9632\u6539\u826f\u5de5\u4e8b","client_name":"\u56fd\u571f\u4ea4\u901a\u7701\u56db\u56fd\u5730\u65b9\u6574\u5099\u5c40\u9ad8\u77e5\u6cb3\u5ddd\u56fd\u9053\u4e8b\u52d9\u6240","boring_xml_url":64,"boring_view_url":1,"soilmap_view_url":null,"soiltest_xml_url":0,"soiltest_view_url":0},{"id":528471,"code":"B4KJ202201003-1007","latitude":"33.485306","longitude":"133.538778","source_code":"148860401000300003","project_name":"","survey_name":"\u5e73\u621026-27\u5e74\u5ea6\u9577\u6d5c\u6d77\u5cb8\u5824\u9632\u6539\u826f\u5de5\u4e8b","client_name":"\u56fd\u571f\u4ea4\u901a\u7701\u56db\u56fd\u5730\u65b9\u6574\u5099\u5c40\u9ad8\u77e5\u6cb3\u5ddd\u56fd\u9053\u4e8b\u52d9\u6240","boring_xml_url":64,"boring_view_url":1,"soilmap_view_url":null,"soiltest_xml_url":0,"soiltest_view_url":0},{"id":528470,"code":"B4KJ202201003-1006","latitude":"33.484528","longitude":"133.5365","source_code":"148860401000300002","project_name":"","survey_name":"\u5e73\u621026-27\u5e74\u5ea6\u9577\u6d5c\u6d77\u5cb8\u5824\u9632\u6539\u826f\u5de5\u4e8b","client_name":"\u56fd\u571f\u4ea4\u901a\u7701\u56db\u56fd\u5730\u65b9\u6574\u5099\u5c40\u9ad8\u77e5\u6cb3\u5ddd\u56fd\u9053\u4e8b\u52d9\u6240","boring_xml_url":64,"boring_view_url":1,"soilmap_view_url":null,"soiltest_xml_url":0,"soiltest_view_url":0},{"id":528469,"code":"B4KJ202201003-1005","latitude":"33.484333","longitude":"133.536167","source_code":"148860401000300001","project_name":"","survey_name":"\u5e73\u621026-27\u5e74\u5ea6\u9577\u6d5c\u6d77\u5cb8\u5824\u9632\u6539\u826f\u5de5\u4e8b","client_name":"\u56fd\u4ea4\u7701\u56db\u56fd\u5730\u65b9\u6574\u5099\u5c40\u9ad8\u77e5\u6cb3\u5ddd\u56fd\u9053\u4e8b\u52d9\u6240","boring_xml_url":64,"boring_view_url":1,"soilmap_view_url":null,"soiltest_xml_url":0,"soiltest_view_url":0}]}}