{"header":{"xyz":{"source":[],"mosaic":false},"page":5646,"raw":{"soiltest_result":"0","bbox":"57.598333,109.544722,1.933333,163.806111","page":"5646"},"conditions":{"soiltest_result":0,"north":57.598333,"west":109.544722,"south":1.933333,"east":163.806111},"success":true,"message":""},"data":{"meta":{"total":212844,"page":5646,"pages":7095,"count":30},"values":[{"id":151195,"code":"B4KJ201801003-9444","latitude":"35.85232611","longitude":"139.7441308","source_code":"KT53396519001","project_name":"","survey_name":"\u4e00\u822c\u56fd\u9053298\u53f7\u8349\u52a0\u5730\u533a\u5730\u8cea\u8abf\u67fb","client_name":"\u56fd\u571f\u4ea4\u901a\u7701\u95a2\u6771\u5730\u65b9\u6574\u5099\u5c40\u5317\u9996\u90fd\u56fd\u9053\u4e8b\u52d9\u6240","boring_xml_url":40,"boring_view_url":1,"soilmap_view_url":null,"soiltest_xml_url":0,"soiltest_view_url":0},{"id":151194,"code":"B4KJ201801003-9443","latitude":"35.85193667","longitude":"139.7270767","source_code":"KT53396518007","project_name":"","survey_name":"\u795e\u6238\u5730\u533a\u6b69\u9053\u6a4b\u5730\u8cea\u8abf\u67fb","client_name":"\u56fd\u571f\u4ea4\u901a\u7701\u95a2\u6771\u5730\u65b9\u6574\u5099\u5c40\u5317\u9996\u90fd\u56fd\u9053\u4e8b\u52d9\u6240","boring_xml_url":40,"boring_view_url":1,"soilmap_view_url":null,"soiltest_xml_url":0,"soiltest_view_url":0},{"id":151193,"code":"B4KJ201801003-9442","latitude":"35.85238111","longitude":"139.7269933","source_code":"KT53396518006","project_name":"","survey_name":"\u795e\u6238\u5730\u533a\u6b69\u9053\u6a4b\u5730\u8cea\u8abf\u67fb","client_name":"\u56fd\u571f\u4ea4\u901a\u7701\u95a2\u6771\u5730\u65b9\u6574\u5099\u5c40\u5317\u9996\u90fd\u56fd\u9053\u4e8b\u52d9\u6240","boring_xml_url":40,"boring_view_url":1,"soilmap_view_url":null,"soiltest_xml_url":0,"soiltest_view_url":0},{"id":151192,"code":"B4KJ201801003-9441","latitude":"35.85210361","longitude":"139.7341317","source_code":"KT53396518005","project_name":"","survey_name":"\u5ddd\u53e3\u30b8\u30e3\u30f3\u30af\u30b7\u30e7\u30f3\u8edf\u5f31\u5730\u76e4\u8abf\u67fb","client_name":"\u56fd\u571f\u4ea4\u901a\u7701\u95a2\u6771\u5730\u65b9\u6574\u5099\u5c40\u5317\u9996\u90fd\u56fd\u9053\u4e8b\u52d9\u6240","boring_xml_url":40,"boring_view_url":1,"soilmap_view_url":null,"soiltest_xml_url":0,"soiltest_view_url":0},{"id":151191,"code":"B4KJ201801003-9440","latitude":"35.85179778","longitude":"139.7280767","source_code":"KT53396518004","project_name":"","survey_name":"\u9053\u5408\u3001\u8d64\u829d\u5730\u533a\u5730\u8cea\u8abf\u67fb","client_name":"\u56fd\u571f\u4ea4\u901a\u7701\u95a2\u6771\u5730\u65b9\u6574\u5099\u5c40\u5317\u9996\u90fd\u56fd\u9053\u4e8b\u52d9\u6240","boring_xml_url":40,"boring_view_url":1,"soilmap_view_url":null,"soiltest_xml_url":0,"soiltest_view_url":0},{"id":151190,"code":"B4KJ201801003-9439","latitude":"35.85179778","longitude":"139.7267711","source_code":"KT53396518003","project_name":"","survey_name":"\u9053\u5408\u3001\u8d64\u829d\u5730\u533a\u5730\u8cea\u8abf\u67fb","client_name":"\u56fd\u571f\u4ea4\u901a\u7701\u95a2\u6771\u5730\u65b9\u6574\u5099\u5c40\u5317\u9996\u90fd\u56fd\u9053\u4e8b\u52d9\u6240","boring_xml_url":40,"boring_view_url":1,"soilmap_view_url":null,"soiltest_xml_url":0,"soiltest_view_url":0},{"id":151189,"code":"B4KJ201801003-9438","latitude":"35.85152","longitude":"139.7250214","source_code":"KT53396518002","project_name":"","survey_name":"\u9053\u5408.\u8d64\u829d\u5730\u533a\u5730\u8cea\u8abf\u67fb","client_name":"\u56fd\u571f\u4ea4\u901a\u7701\u95a2\u6771\u5730\u65b9\u6574\u5099\u5c40\u5317\u9996\u90fd\u56fd\u9053\u4e8b\u52d9\u6240","boring_xml_url":40,"boring_view_url":1,"soilmap_view_url":null,"soiltest_xml_url":0,"soiltest_view_url":0},{"id":151188,"code":"B4KJ201801003-9437","latitude":"35.85010333","longitude":"139.7203828","source_code":"KT53396517011","project_name":"","survey_name":"\u8349\u52a0(\u65ed\u753a,\u516b\u5e61\u753a)\u5730\u533a\u6b69\u9053\u6a4b\u5730\u8cea\u8abf\u67fb","client_name":"\u56fd\u571f\u4ea4\u901a\u7701\u95a2\u6771\u5730\u65b9\u6574\u5099\u5c40\u5317\u9996\u90fd\u56fd\u9053\u4e8b\u52d9\u6240","boring_xml_url":40,"boring_view_url":1,"soilmap_view_url":null,"soiltest_xml_url":0,"soiltest_view_url":0},{"id":151187,"code":"B4KJ201801003-9436","latitude":"35.85054778","longitude":"139.720105","source_code":"KT53396517010","project_name":"","survey_name":"\u8349\u52a0(\u65ed\u753a,\u516b\u5e61\u753a)\u5730\u533a\u6b69\u9053\u6a4b\u5730\u8cea\u8abf\u67fb","client_name":"\u56fd\u571f\u4ea4\u901a\u7701\u95a2\u6771\u5730\u65b9\u6574\u5099\u5c40\u5317\u9996\u90fd\u56fd\u9053\u4e8b\u52d9\u6240","boring_xml_url":40,"boring_view_url":1,"soilmap_view_url":null,"soiltest_xml_url":0,"soiltest_view_url":0},{"id":151186,"code":"B4KJ201801003-9435","latitude":"35.8479925","longitude":"139.7159944","source_code":"KT53396517009","project_name":"","survey_name":"\u5ddd\u53e3(\u4f0a\u5208\u30fb\u9053\u5408)\u5730\u533a\u6b69\u9053\u6a4b\u5730\u8cea\u8abf\u67fb","client_name":"\u56fd\u571f\u4ea4\u901a\u7701\u95a2\u6771\u5730\u65b9\u6574\u5099\u5c40\u5317\u9996\u90fd\u56fd\u9053\u4e8b\u52d9\u6240","boring_xml_url":40,"boring_view_url":1,"soilmap_view_url":null,"soiltest_xml_url":0,"soiltest_view_url":0},{"id":151185,"code":"B4KJ201801003-9434","latitude":"35.84849222","longitude":"139.7157167","source_code":"KT53396517008","project_name":"","survey_name":"\u5ddd\u53e3(\u4f0a\u5208\u30fb\u9053\u5408)\u5730\u533a\u6b69\u9053\u6a4b\u5730\u8cea\u8abf\u67fb","client_name":"\u56fd\u571f\u4ea4\u901a\u7701\u95a2\u6771\u5730\u65b9\u6574\u5099\u5c40\u5317\u9996\u90fd\u56fd\u9053\u4e8b\u52d9\u6240","boring_xml_url":40,"boring_view_url":1,"soilmap_view_url":null,"soiltest_xml_url":0,"soiltest_view_url":0},{"id":151184,"code":"B4KJ201801003-9433","latitude":"35.85099222","longitude":"139.7213272","source_code":"KT53396517003","project_name":"","survey_name":"\u9053\u5408.\u8d64\u829d\u5730\u533a\u5730\u8cea\u8abf\u67fb","client_name":"\u56fd\u571f\u4ea4\u901a\u7701\u95a2\u6771\u5730\u65b9\u6574\u5099\u5c40\u5317\u9996\u90fd\u56fd\u9053\u4e8b\u52d9\u6240","boring_xml_url":40,"boring_view_url":1,"soilmap_view_url":null,"soiltest_xml_url":0,"soiltest_view_url":0},{"id":151183,"code":"B4KJ201801003-9432","latitude":"35.84618667","longitude":"139.6996903","source_code":"KT53396516006","project_name":"","survey_name":"\u4f0a\u5208\u5730\u533a\u6b69\u9053\u6a4b\u5730\u8cea\u8abf\u67fb","client_name":"\u56fd\u571f\u4ea4\u901a\u7701\u95a2\u6771\u5730\u65b9\u6574\u5099\u5c40\u5317\u9996\u90fd\u56fd\u9053\u4e8b\u52d9\u6240","boring_xml_url":40,"boring_view_url":1,"soilmap_view_url":null,"soiltest_xml_url":0,"soiltest_view_url":0},{"id":151182,"code":"B4KJ201801003-9431","latitude":"35.84674222","longitude":"139.6996903","source_code":"KT53396516005","project_name":"","survey_name":"\u4f0a\u5208\u5730\u533a\u6b69\u9053\u6a4b\u5730\u8cea\u8abf\u67fb","client_name":"\u56fd\u571f\u4ea4\u901a\u7701\u95a2\u6771\u5730\u65b9\u6574\u5099\u5c40\u5317\u9996\u90fd\u56fd\u9053\u4e8b\u52d9\u6240","boring_xml_url":40,"boring_view_url":1,"soilmap_view_url":null,"soiltest_xml_url":0,"soiltest_view_url":0},{"id":151181,"code":"B4KJ201801003-9430","latitude":"35.84682556","longitude":"139.7037178","source_code":"KT53396516004","project_name":"","survey_name":"\u4f0a\u5208\u5730\u533a\u6b69\u9053\u6a4b\u5730\u8cea\u8abf\u67fb\u305d\u306e2","client_name":"\u56fd\u571f\u4ea4\u901a\u7701\u95a2\u6771\u5730\u65b9\u6574\u5099\u5c40\u5317\u9996\u90fd\u56fd\u9053\u4e8b\u52d9\u6240","boring_xml_url":40,"boring_view_url":1,"soilmap_view_url":null,"soiltest_xml_url":0,"soiltest_view_url":0},{"id":151180,"code":"B4KJ201801003-9429","latitude":"35.84682556","longitude":"139.7037178","source_code":"KT53396516003","project_name":"","survey_name":"\u4f0a\u5208\u5730\u533a\u6b69\u9053\u6a4b\u5730\u8cea\u8abf\u67fb\u305d\u306e2","client_name":"\u56fd\u571f\u4ea4\u901a\u7701\u95a2\u6771\u5730\u65b9\u6574\u5099\u5c40\u5317\u9996\u90fd\u56fd\u9053\u4e8b\u52d9\u6240","boring_xml_url":40,"boring_view_url":1,"soilmap_view_url":null,"soiltest_xml_url":0,"soiltest_view_url":0},{"id":151179,"code":"B4KJ201801003-9428","latitude":"35.84690889","longitude":"139.7053842","source_code":"KT53396516002","project_name":"","survey_name":"\u5ddd\u53e3(\u4f0a\u5208\u30fb\u9053\u5408)\u5730\u533a\u6b69\u9053\u6a4b\u5730\u8cea\u8abf\u67fb","client_name":"\u56fd\u571f\u4ea4\u901a\u7701\u95a2\u6771\u5730\u65b9\u6574\u5099\u5c40\u5317\u9996\u90fd\u56fd\u9053\u4e8b\u52d9\u6240","boring_xml_url":40,"boring_view_url":1,"soilmap_view_url":null,"soiltest_xml_url":0,"soiltest_view_url":0},{"id":151178,"code":"B4KJ201801003-9427","latitude":"35.84743667","longitude":"139.7051064","source_code":"KT53396516001","project_name":"","survey_name":"\u5ddd\u53e3(\u4f0a\u5208\u30fb\u9053\u5408)\u5730\u533a\u6b69\u9053\u6a4b\u5730\u8cea\u8abf\u67fb","client_name":"\u56fd\u571f\u4ea4\u901a\u7701\u95a2\u6771\u5730\u65b9\u6574\u5099\u5c40\u5317\u9996\u90fd\u56fd\u9053\u4e8b\u52d9\u6240","boring_xml_url":40,"boring_view_url":1,"soilmap_view_url":null,"soiltest_xml_url":0,"soiltest_view_url":0},{"id":151177,"code":"B4KJ201801003-9426","latitude":"35.84904722","longitude":"139.6905242","source_code":"KT53396515003","project_name":"","survey_name":"\u5ddd\u53e3\u5e02\u4f0a\u5208\u5730\u533a\u6b69\u9053\u6a4b\u5730\u8cea\u8abf\u67fb","client_name":"\u56fd\u571f\u4ea4\u901a\u7701\u95a2\u6771\u5730\u65b9\u6574\u5099\u5c40\u5317\u9996\u90fd\u56fd\u9053\u4e8b\u52d9\u6240","boring_xml_url":40,"boring_view_url":1,"soilmap_view_url":null,"soiltest_xml_url":0,"soiltest_view_url":0},{"id":151176,"code":"B4KJ201801003-9425","latitude":"35.84515861","longitude":"139.6909411","source_code":"KT53396515002","project_name":"","survey_name":"\u5ddd\u53e3\u5e02\u4f0a\u5208\u5730\u533a\u6b69\u9053\u6a4b\u5730\u8cea\u8abf\u67fb","client_name":"\u56fd\u571f\u4ea4\u901a\u7701\u95a2\u6771\u5730\u65b9\u6574\u5099\u5c40\u5317\u9996\u90fd\u56fd\u9053\u4e8b\u52d9\u6240","boring_xml_url":40,"boring_view_url":1,"soilmap_view_url":null,"soiltest_xml_url":0,"soiltest_view_url":0},{"id":151175,"code":"B4KJ201801003-9424","latitude":"35.84499222","longitude":"139.6920522","source_code":"KT53396515001","project_name":"","survey_name":"\u829d\u7acb\u4f53\u5730\u8cea\u8abf\u67fb","client_name":"\u56fd\u571f\u4ea4\u901a\u7701\u95a2\u6771\u5730\u65b9\u6574\u5099\u5c40\u5317\u9996\u90fd\u56fd\u9053\u4e8b\u52d9\u6240","boring_xml_url":40,"boring_view_url":1,"soilmap_view_url":null,"soiltest_xml_url":0,"soiltest_view_url":0},{"id":151174,"code":"B4KJ201801003-9423","latitude":"35.8457125","longitude":"139.6262244","source_code":"KT53396510004","project_name":"","survey_name":"\u65b0\u5927\u5bae\u30d0\u30a4\u30d1\u30b9\u7530\u5cf6\u4ea4\u5dee\u70b9\u305d\u306e\u4ed6\u5730\u8cea\u8abf\u67fb","client_name":"\u56fd\u571f\u4ea4\u901a\u7701\u95a2\u6771\u5730\u65b9\u6574\u5099\u5c40\u5927\u5bae\u56fd\u9053\u4e8b\u52d9\u6240","boring_xml_url":40,"boring_view_url":1,"soilmap_view_url":null,"soiltest_xml_url":0,"soiltest_view_url":0},{"id":151173,"code":"B4KJ201801003-9422","latitude":"35.84599028","longitude":"139.6262244","source_code":"KT53396510003","project_name":"","survey_name":"\u65b0\u5927\u5bae\u30d0\u30a4\u30d1\u30b9\u7530\u5cf6\u4ea4\u5dee\u70b9\u305d\u306e\u4ed6\u5730\u8cea\u8abf\u67fb","client_name":"\u56fd\u571f\u4ea4\u901a\u7701\u95a2\u6771\u5730\u65b9\u6574\u5099\u5c40\u5927\u5bae\u56fd\u9053\u4e8b\u52d9\u6240","boring_xml_url":40,"boring_view_url":1,"soilmap_view_url":null,"soiltest_xml_url":0,"soiltest_view_url":0},{"id":151172,"code":"B4KJ201801003-9421","latitude":"35.84654583","longitude":"139.6259467","source_code":"KT53396510002","project_name":"","survey_name":"\u65b0\u5927\u5bae\u30d0\u30a4\u30d1\u30b9\u7530\u5cf6\u4ea4\u5dee\u70b9\u305d\u306e\u4ed6\u5730\u8cea\u8abf\u67fb","client_name":"\u56fd\u571f\u4ea4\u901a\u7701\u95a2\u6771\u5730\u65b9\u6574\u5099\u5c40\u5927\u5bae\u56fd\u9053\u4e8b\u52d9\u6240","boring_xml_url":40,"boring_view_url":1,"soilmap_view_url":null,"soiltest_xml_url":0,"soiltest_view_url":0},{"id":151171,"code":"B4KJ201801003-9420","latitude":"35.84682333","longitude":"139.6256689","source_code":"KT53396510001","project_name":"","survey_name":"\u65b0\u5927\u5bae\u30d0\u30a4\u30d1\u30b9\u7530\u5cf6\u4ea4\u5dee\u70b9\u305d\u306e\u4ed6\u5730\u8cea\u8abf\u67fb","client_name":"\u56fd\u571f\u4ea4\u901a\u7701\u95a2\u6771\u5730\u65b9\u6574\u5099\u5c40\u5927\u5bae\u56fd\u9053\u4e8b\u52d9\u6240","boring_xml_url":40,"boring_view_url":1,"soilmap_view_url":null,"soiltest_xml_url":0,"soiltest_view_url":0},{"id":151170,"code":"B4KJ201801003-9419","latitude":"35.84460333","longitude":"139.68983","source_code":"KT53396505003","project_name":"","survey_name":"\u5ddd\u53e3\u5e02\u4f0a\u5208\u5730\u533a\u6b69\u9053\u6a4b\u5730\u8cea\u8abf\u67fb","client_name":"\u56fd\u571f\u4ea4\u901a\u7701\u95a2\u6771\u5730\u65b9\u6574\u5099\u5c40\u5317\u9996\u90fd\u56fd\u9053\u4e8b\u52d9\u6240","boring_xml_url":40,"boring_view_url":1,"soilmap_view_url":null,"soiltest_xml_url":0,"soiltest_view_url":0},{"id":151169,"code":"B4KJ201801003-9418","latitude":"35.84404778","longitude":"139.6895525","source_code":"KT53396505002","project_name":"","survey_name":"\u5ddd\u53e3\u5e02\u4f0a\u5208\u5730\u533a\u6b69\u9053\u6a4b\u5730\u8cea\u8abf\u67fb","client_name":"\u56fd\u571f\u4ea4\u901a\u7701\u95a2\u6771\u5730\u65b9\u6574\u5099\u5c40\u5317\u9996\u90fd\u56fd\u9053\u4e8b\u52d9\u6240","boring_xml_url":40,"boring_view_url":1,"soilmap_view_url":null,"soiltest_xml_url":0,"soiltest_view_url":0},{"id":151168,"code":"B4KJ201801003-9417","latitude":"35.84352","longitude":"139.6877469","source_code":"KT53396505001","project_name":"","survey_name":"\u829d\u7acb\u4f53\u5730\u8cea\u8abf\u67fb","client_name":"\u56fd\u571f\u4ea4\u901a\u7701\u95a2\u6771\u5730\u65b9\u6574\u5099\u5c40\u5317\u9996\u90fd\u56fd\u9053\u4e8b\u52d9\u6240","boring_xml_url":40,"boring_view_url":1,"soilmap_view_url":null,"soiltest_xml_url":0,"soiltest_view_url":0},{"id":151167,"code":"B4KJ201801003-9416","latitude":"35.84015889","longitude":"139.6801089","source_code":"KT53396504009","project_name":"","survey_name":"\u5357\u6d66\u548c\u8de8\u7dda\u6a4b\u5730\u8cea\u8abf\u67fb","client_name":"\u56fd\u571f\u4ea4\u901a\u7701\u95a2\u6771\u5730\u65b9\u6574\u5099\u5c40\u5317\u9996\u90fd\u56fd\u9053\u4e8b\u52d9\u6240","boring_xml_url":40,"boring_view_url":1,"soilmap_view_url":null,"soiltest_xml_url":0,"soiltest_view_url":0},{"id":151166,"code":"B4KJ201801003-9415","latitude":"35.83949222","longitude":"139.6736094","source_code":"KT53396504008","project_name":"","survey_name":"\u5357\u6d66\u548c\u8de8\u7dda\u6a4b\u5730\u8cea\u8abf\u67fb","client_name":"\u56fd\u571f\u4ea4\u901a\u7701\u95a2\u6771\u5730\u65b9\u6574\u5099\u5c40\u5317\u9996\u90fd\u56fd\u9053\u4e8b\u52d9\u6240","boring_xml_url":40,"boring_view_url":1,"soilmap_view_url":null,"soiltest_xml_url":0,"soiltest_view_url":0}]}}