{"header":{"xyz":{"source":[],"mosaic":false},"page":5648,"raw":{"soiltest_result":"0","bbox":"57.598333,109.544722,1.933333,163.806111","page":"5648"},"conditions":{"soiltest_result":0,"north":57.598333,"west":109.544722,"south":1.933333,"east":163.806111},"success":true,"message":""},"data":{"meta":{"total":212844,"page":5648,"pages":7095,"count":30},"values":[{"id":151135,"code":"B4KJ201801003-9384","latitude":"35.898705","longitude":"139.5735878","source_code":"KT53396476002","project_name":"","survey_name":"\u8352\u5ddd\u4e0a\u6d41\u90e8\u5730\u8cea\u8abf\u67fb\u696d\u52d9","client_name":"\u56fd\u571f\u4ea4\u901a\u7701\u95a2\u6771\u5730\u65b9\u6574\u5099\u5c40\u8352\u5ddd\u4e0a\u6d41\u6cb3\u5ddd\u4e8b\u52d9\u6240","boring_xml_url":40,"boring_view_url":1,"soilmap_view_url":null,"soiltest_xml_url":0,"soiltest_view_url":0},{"id":151134,"code":"B4KJ201801003-9383","latitude":"35.90159361","longitude":"139.5720044","source_code":"KT53396476001","project_name":"","survey_name":"\u8352\u5ddd\u7b2c\u4e8c\u8abf\u7bc0\u6c60\u571f\u8cea\u8abf\u67fb","client_name":"\u56fd\u571f\u4ea4\u901a\u7701\u95a2\u6771\u5730\u65b9\u6574\u5099\u5c40\u8352\u5ddd\u4e0a\u6d41\u6cb3\u5ddd\u4e8b\u52d9\u6240","boring_xml_url":40,"boring_view_url":1,"soilmap_view_url":null,"soiltest_xml_url":0,"soiltest_view_url":0},{"id":151133,"code":"B4KJ201801003-9382","latitude":"35.90303778","longitude":"139.57056","source_code":"KT53396475002","project_name":"","survey_name":"\u8352\u5ddd\u7b2c\u4e8c\u8abf\u7bc0\u6c60\u571f\u8cea\u8abf\u67fb","client_name":"\u56fd\u571f\u4ea4\u901a\u7701\u95a2\u6771\u5730\u65b9\u6574\u5099\u5c40\u8352\u5ddd\u4e0a\u6d41\u6cb3\u5ddd\u4e8b\u52d9\u6240","boring_xml_url":40,"boring_view_url":1,"soilmap_view_url":null,"soiltest_xml_url":0,"soiltest_view_url":0},{"id":151132,"code":"B4KJ201801003-9381","latitude":"35.90214889","longitude":"139.5608667","source_code":"KT53396475001","project_name":"","survey_name":"\u8352\u5ddd\u7b2c2\u8abf\u7bc0\u6c60\u5730\u8cea\u8abf\u67fb(\u305d\u306e4)","client_name":"\u56fd\u571f\u4ea4\u901a\u7701\u95a2\u6771\u5730\u65b9\u6574\u5099\u5c40\u8352\u5ddd\u4e0a\u6d41\u6cb3\u5ddd\u4e8b\u52d9\u6240","boring_xml_url":40,"boring_view_url":1,"soilmap_view_url":null,"soiltest_xml_url":0,"soiltest_view_url":0},{"id":151131,"code":"B4KJ201801003-9380","latitude":"35.89712139","longitude":"139.5570614","source_code":"KT53396474004","project_name":"","survey_name":"\u8352\u5ddd\u4e0a\u6d41\u90e8\u5730\u8cea\u8abf\u67fb\u696d\u52d9","client_name":"\u56fd\u571f\u4ea4\u901a\u7701\u95a2\u6771\u5730\u65b9\u6574\u5099\u5c40\u8352\u5ddd\u4e0a\u6d41\u6cb3\u5ddd\u4e8b\u52d9\u6240","boring_xml_url":40,"boring_view_url":1,"soilmap_view_url":null,"soiltest_xml_url":0,"soiltest_view_url":0},{"id":151130,"code":"B4KJ201801003-9379","latitude":"35.90148194","longitude":"139.5540617","source_code":"KT53396474003","project_name":"","survey_name":"\u8352\u5ddd\u65e7\u5ddd\u5bfe\u7b56\u571f\u8cea\u8abf\u67fb","client_name":"\u56fd\u571f\u4ea4\u901a\u7701\u95a2\u6771\u5730\u65b9\u6574\u5099\u5c40\u4eac\u6d5c\u6cb3\u5ddd\u4e8b\u52d9\u6240","boring_xml_url":40,"boring_view_url":1,"soilmap_view_url":null,"soiltest_xml_url":0,"soiltest_view_url":0},{"id":151129,"code":"B4KJ201801003-9378","latitude":"35.90012111","longitude":"139.5554503","source_code":"KT53396474002","project_name":"","survey_name":"\u8352\u5ddd\u65e7\u5ddd\u5bfe\u7b56\u571f\u8cea\u8abf\u67fb","client_name":"\u56fd\u571f\u4ea4\u901a\u7701\u95a2\u6771\u5730\u65b9\u6574\u5099\u5c40\u4eac\u6d5c\u6cb3\u5ddd\u4e8b\u52d9\u6240","boring_xml_url":40,"boring_view_url":1,"soilmap_view_url":null,"soiltest_xml_url":0,"soiltest_view_url":0},{"id":151128,"code":"B4KJ201801003-9377","latitude":"35.9022875","longitude":"139.5533117","source_code":"KT53396474001","project_name":"","survey_name":"\u8352\u5ddd\u65e7\u5ddd\u5bfe\u7b56\u571f\u8cea\u8abf\u67fb","client_name":"\u56fd\u571f\u4ea4\u901a\u7701\u95a2\u6771\u5730\u65b9\u6574\u5099\u5c40\u4eac\u6d5c\u6cb3\u5ddd\u4e8b\u52d9\u6240","boring_xml_url":40,"boring_view_url":1,"soilmap_view_url":null,"soiltest_xml_url":0,"soiltest_view_url":0},{"id":151127,"code":"B4KJ201801003-9376","latitude":"35.88901194","longitude":"139.5785878","source_code":"KT53396466001","project_name":"","survey_name":"\u8352\u5ddd\u4e0a\u6d41\u90e8\u5730\u8cea\u8abf\u67fb\u696d\u52d9","client_name":"\u56fd\u571f\u4ea4\u901a\u7701\u95a2\u6771\u5730\u65b9\u6574\u5099\u5c40\u8352\u5ddd\u4e0a\u6d41\u6cb3\u5ddd\u4e8b\u52d9\u6240","boring_xml_url":40,"boring_view_url":1,"soilmap_view_url":null,"soiltest_xml_url":0,"soiltest_view_url":0},{"id":151126,"code":"B4KJ201801003-9375","latitude":"35.88742833","longitude":"139.5608117","source_code":"KT53396465010","project_name":"","survey_name":"\u8352\u5ddd\u4e0a\u6d41\u90e8\u5730\u8cea\u8abf\u67fb\u696d\u52d9","client_name":"\u56fd\u571f\u4ea4\u901a\u7701\u95a2\u6771\u5730\u65b9\u6574\u5099\u5c40\u8352\u5ddd\u4e0a\u6d41\u6cb3\u5ddd\u4e8b\u52d9\u6240","boring_xml_url":40,"boring_view_url":1,"soilmap_view_url":null,"soiltest_xml_url":0,"soiltest_view_url":0},{"id":151125,"code":"B4KJ201801003-9374","latitude":"35.89195556","longitude":"139.5630056","source_code":"KT53396465009","project_name":"","survey_name":"\u8352\u5ddd\u7b2c\u4e8c\u8abf\u7bc0\u6c60\u571f\u8cea\u8abf\u67fb","client_name":"\u56fd\u571f\u4ea4\u901a\u7701\u95a2\u6771\u5730\u65b9\u6574\u5099\u5c40\u8352\u5ddd\u4e0a\u6d41\u6cb3\u5ddd\u4e8b\u52d9\u6240","boring_xml_url":40,"boring_view_url":1,"soilmap_view_url":null,"soiltest_xml_url":0,"soiltest_view_url":0},{"id":151124,"code":"B4KJ201801003-9373","latitude":"35.89117778","longitude":"139.5594228","source_code":"KT53396465008","project_name":"","survey_name":"\u5357\u7551\u5730\u533a\u57fa\u790e\u571f\u8cea\u8abf\u67fb(\u305d\u306e4)","client_name":"\u56fd\u571f\u4ea4\u901a\u7701\u95a2\u6771\u5730\u65b9\u6574\u5099\u5c40\u8352\u5ddd\u4e0a\u6d41\u6cb3\u5ddd\u4e8b\u52d9\u6240","boring_xml_url":40,"boring_view_url":1,"soilmap_view_url":null,"soiltest_xml_url":0,"soiltest_view_url":0},{"id":151123,"code":"B4KJ201801003-9372","latitude":"35.88856694","longitude":"139.5605061","source_code":"KT53396465007","project_name":"","survey_name":"\u8352\u5ddd\u65e7\u5ddd\u5bfe\u7b56\u571f\u8cea\u8abf\u67fb","client_name":"\u56fd\u571f\u4ea4\u901a\u7701\u95a2\u6771\u5730\u65b9\u6574\u5099\u5c40\u4eac\u6d5c\u6cb3\u5ddd\u4e8b\u52d9\u6240","boring_xml_url":40,"boring_view_url":1,"soilmap_view_url":null,"soiltest_xml_url":0,"soiltest_view_url":0},{"id":151122,"code":"B4KJ201801003-9371","latitude":"35.89167778","longitude":"139.5595058","source_code":"KT53396465006","project_name":"","survey_name":"\u8352\u5ddd\u65e7\u5ddd\u5bfe\u7b56\u571f\u8cea\u8abf\u67fb","client_name":"\u56fd\u571f\u4ea4\u901a\u7701\u95a2\u6771\u5730\u65b9\u6574\u5099\u5c40\u4eac\u6d5c\u6cb3\u5ddd\u4e8b\u52d9\u6240","boring_xml_url":40,"boring_view_url":1,"soilmap_view_url":null,"soiltest_xml_url":0,"soiltest_view_url":0},{"id":151121,"code":"B4KJ201801003-9370","latitude":"35.88998361","longitude":"139.5602283","source_code":"KT53396465005","project_name":"","survey_name":"\u8352\u5ddd\u65e7\u5ddd\u5bfe\u7b56\u571f\u8cea\u8abf\u67fb","client_name":"\u56fd\u571f\u4ea4\u901a\u7701\u95a2\u6771\u5730\u65b9\u6574\u5099\u5c40\u4eac\u6d5c\u6cb3\u5ddd\u4e8b\u52d9\u6240","boring_xml_url":40,"boring_view_url":1,"soilmap_view_url":null,"soiltest_xml_url":0,"soiltest_view_url":0},{"id":151120,"code":"B4KJ201801003-9369","latitude":"35.89264972","longitude":"139.5592836","source_code":"KT53396465004","project_name":"","survey_name":"\u8352\u5ddd\u65e7\u5ddd\u5bfe\u7b56\u571f\u8cea\u8abf\u67fb","client_name":"\u56fd\u571f\u4ea4\u901a\u7701\u95a2\u6771\u5730\u65b9\u6574\u5099\u5c40\u4eac\u6d5c\u6cb3\u5ddd\u4e8b\u52d9\u6240","boring_xml_url":40,"boring_view_url":1,"soilmap_view_url":null,"soiltest_xml_url":0,"soiltest_view_url":0},{"id":151119,"code":"B4KJ201801003-9368","latitude":"35.89078889","longitude":"139.5599503","source_code":"KT53396465003","project_name":"","survey_name":"\u8352\u5ddd\u65e7\u5ddd\u5bfe\u7b56\u571f\u8cea\u8abf\u67fb","client_name":"\u56fd\u571f\u4ea4\u901a\u7701\u95a2\u6771\u5730\u65b9\u6574\u5099\u5c40\u4eac\u6d5c\u6cb3\u5ddd\u4e8b\u52d9\u6240","boring_xml_url":40,"boring_view_url":1,"soilmap_view_url":null,"soiltest_xml_url":0,"soiltest_view_url":0},{"id":151118,"code":"B4KJ201801003-9367","latitude":"35.88923361","longitude":"139.5620614","source_code":"KT53396465002","project_name":"","survey_name":"\u5b97\u5ca1\u59164\u30f6\u6240\u707d\u5bb3\u5de5\u4e8b\u8b77\u5cb8\u8a2d\u8a08\u696d\u52d9","client_name":"\u56fd\u571f\u4ea4\u901a\u7701\u95a2\u6771\u5730\u65b9\u6574\u5099\u5c40\u8352\u5ddd\u4e0a\u6d41\u6cb3\u5ddd\u4e8b\u52d9\u6240","boring_xml_url":40,"boring_view_url":1,"soilmap_view_url":null,"soiltest_xml_url":0,"soiltest_view_url":0},{"id":151117,"code":"B4KJ201801003-9366","latitude":"35.89059472","longitude":"139.56345","source_code":"KT53396465001","project_name":"","survey_name":"\u98ef\u7530\u59164\u7b87\u6240\u707d\u5bb3\u5de5\u4e8b\u8b77\u5cb8\u8a2d\u8a08\u696d\u52d9\u59d4\u8a17","client_name":"\u56fd\u571f\u4ea4\u901a\u7701\u95a2\u6771\u5730\u65b9\u6574\u5099\u5c40\u8352\u5ddd\u4e0a\u6d41\u6cb3\u5ddd\u4e8b\u52d9\u6240","boring_xml_url":40,"boring_view_url":1,"soilmap_view_url":null,"soiltest_xml_url":0,"soiltest_view_url":0},{"id":151116,"code":"B4KJ201801003-9365","latitude":"35.8911775","longitude":"139.55284","source_code":"KT53396464001","project_name":"","survey_name":"\u7530\u5cf6\u59162\u30f6\u6240\u707d\u5bb3\u571f\u8cea\u8abf\u67fb","client_name":"\u56fd\u571f\u4ea4\u901a\u7701\u95a2\u6771\u5730\u65b9\u6574\u5099\u5c40\u8352\u5ddd\u4e0a\u6d41\u6cb3\u5ddd\u4e8b\u52d9\u6240","boring_xml_url":40,"boring_view_url":1,"soilmap_view_url":null,"soiltest_xml_url":0,"soiltest_view_url":0},{"id":151115,"code":"B4KJ201801003-9364","latitude":"35.89451","longitude":"139.53623","source_code":"KT53396463002","project_name":"","survey_name":"\u5357\u7551\u5730\u533a\u57fa\u790e\u571f\u8cea\u8abf\u67fb(\u305d\u306e4)","client_name":"\u56fd\u571f\u4ea4\u901a\u7701\u95a2\u6771\u5730\u65b9\u6574\u5099\u5c40\u8352\u5ddd\u4e0a\u6d41\u6cb3\u5ddd\u4e8b\u52d9\u6240","boring_xml_url":40,"boring_view_url":1,"soilmap_view_url":null,"soiltest_xml_url":0,"soiltest_view_url":0},{"id":151114,"code":"B4KJ201801003-9363","latitude":"35.88859417","longitude":"139.5426186","source_code":"KT53396463001","project_name":"","survey_name":"\u5357\u7551\u5730\u533a\u57fa\u790e\u571f\u8cea\u8abf\u67fb(\u305d\u306e4)","client_name":"\u56fd\u571f\u4ea4\u901a\u7701\u95a2\u6771\u5730\u65b9\u6574\u5099\u5c40\u8352\u5ddd\u4e0a\u6d41\u6cb3\u5ddd\u4e8b\u52d9\u6240","boring_xml_url":40,"boring_view_url":1,"soilmap_view_url":null,"soiltest_xml_url":0,"soiltest_view_url":0},{"id":151113,"code":"B4KJ201801003-9362","latitude":"35.88292944","longitude":"139.5816433","source_code":"KT53396456001","project_name":"","survey_name":"\u8352\u5ddd\u4e0a\u6d41\u90e8\u5730\u8cea\u8abf\u67fb\u696d\u52d9","client_name":"\u56fd\u571f\u4ea4\u901a\u7701\u95a2\u6771\u5730\u65b9\u6574\u5099\u5c40\u8352\u5ddd\u4e0a\u6d41\u6cb3\u5ddd\u4e8b\u52d9\u6240","boring_xml_url":40,"boring_view_url":1,"soilmap_view_url":null,"soiltest_xml_url":0,"soiltest_view_url":0},{"id":151112,"code":"B4KJ201801003-9361","latitude":"35.88384528","longitude":"139.5626172","source_code":"KT53396455005","project_name":"","survey_name":"\u8352\u5ddd\u4e0a\u6d41\u90e8\u5730\u8cea\u8abf\u67fb\u696d\u52d9","client_name":"\u56fd\u571f\u4ea4\u901a\u7701\u95a2\u6771\u5730\u65b9\u6574\u5099\u5c40\u8352\u5ddd\u4e0a\u6d41\u6cb3\u5ddd\u4e8b\u52d9\u6240","boring_xml_url":40,"boring_view_url":1,"soilmap_view_url":null,"soiltest_xml_url":0,"soiltest_view_url":0},{"id":151111,"code":"B4KJ201801003-9360","latitude":"35.88015139","longitude":"139.5655614","source_code":"KT53396455003","project_name":"","survey_name":"\u5357\u7551\u5730\u533a\u57fa\u790e\u571f\u8cea\u8abf\u67fb(\u305d\u306e4)","client_name":"\u56fd\u571f\u4ea4\u901a\u7701\u95a2\u6771\u5730\u65b9\u6574\u5099\u5c40\u8352\u5ddd\u4e0a\u6d41\u6cb3\u5ddd\u4e8b\u52d9\u6240","boring_xml_url":40,"boring_view_url":1,"soilmap_view_url":null,"soiltest_xml_url":0,"soiltest_view_url":0},{"id":151110,"code":"B4KJ201801003-9359","latitude":"35.879235","longitude":"139.5665058","source_code":"KT53396455002","project_name":"","survey_name":"\u8352\u5ddd\u65e7\u5ddd\u5bfe\u7b56\u571f\u8cea\u8abf\u67fb","client_name":"\u56fd\u571f\u4ea4\u901a\u7701\u95a2\u6771\u5730\u65b9\u6574\u5099\u5c40\u4eac\u6d5c\u6cb3\u5ddd\u4e8b\u52d9\u6240","boring_xml_url":40,"boring_view_url":1,"soilmap_view_url":null,"soiltest_xml_url":0,"soiltest_view_url":0},{"id":151109,"code":"B4KJ201801003-9358","latitude":"35.88623389","longitude":"139.5614506","source_code":"KT53396455001","project_name":"","survey_name":"\u8352\u5ddd\u65e7\u5ddd\u5bfe\u7b56\u571f\u8cea\u8abf\u67fb","client_name":"\u56fd\u571f\u4ea4\u901a\u7701\u95a2\u6771\u5730\u65b9\u6574\u5099\u5c40\u4eac\u6d5c\u6cb3\u5ddd\u4e8b\u52d9\u6240","boring_xml_url":40,"boring_view_url":1,"soilmap_view_url":null,"soiltest_xml_url":0,"soiltest_view_url":0},{"id":151108,"code":"B4KJ201801003-9357","latitude":"35.87976222","longitude":"139.5473408","source_code":"KT53396454001","project_name":"","survey_name":"\u5357\u7551\u5730\u533a\u57fa\u790e\u571f\u8cea\u8abf\u67fb(\u305d\u306e4)","client_name":"\u56fd\u571f\u4ea4\u901a\u7701\u95a2\u6771\u5730\u65b9\u6574\u5099\u5c40\u8352\u5ddd\u4e0a\u6d41\u6cb3\u5ddd\u4e8b\u52d9\u6240","boring_xml_url":40,"boring_view_url":1,"soilmap_view_url":null,"soiltest_xml_url":0,"soiltest_view_url":0},{"id":151107,"code":"B4KJ201801003-9356","latitude":"35.87095833","longitude":"139.5737833","source_code":"KT53396446032","project_name":"","survey_name":"\u5357\u7551\u5730\u533a\u57fa\u790e\u571f\u8cea\u8abf\u67fb","client_name":"\u56fd\u571f\u4ea4\u901a\u7701\u95a2\u6771\u5730\u65b9\u6574\u5099\u5c40\u8352\u5ddd\u4e0a\u6d41\u6cb3\u5ddd\u4e8b\u52d9\u6240","boring_xml_url":40,"boring_view_url":1,"soilmap_view_url":null,"soiltest_xml_url":0,"soiltest_view_url":0},{"id":151106,"code":"B4KJ201801003-9355","latitude":"35.87193028","longitude":"139.5731722","source_code":"KT53396446031","project_name":"","survey_name":"\u5357\u7551\u5730\u533a\u57fa\u790e\u571f\u8cea\u8abf\u67fb","client_name":"\u56fd\u571f\u4ea4\u901a\u7701\u95a2\u6771\u5730\u65b9\u6574\u5099\u5c40\u8352\u5ddd\u4e0a\u6d41\u6cb3\u5ddd\u4e8b\u52d9\u6240","boring_xml_url":40,"boring_view_url":1,"soilmap_view_url":null,"soiltest_xml_url":0,"soiltest_view_url":0}]}}