{"header":{"xyz":{"source":[],"mosaic":false},"page":5650,"raw":{"soiltest_result":"0","bbox":"57.598333,109.544722,1.933333,163.806111","page":"5650"},"conditions":{"soiltest_result":0,"north":57.598333,"west":109.544722,"south":1.933333,"east":163.806111},"success":true,"message":""},"data":{"meta":{"total":212844,"page":5650,"pages":7095,"count":30},"values":[{"id":151075,"code":"B4KJ201801003-9324","latitude":"35.87731861","longitude":"139.5681725","source_code":"KT53396445023","project_name":"","survey_name":"\u8352\u5ddd\u4e0a\u6d41\u90e8\u5730\u8cea\u8abf\u67fb\u696d\u52d9","client_name":"\u56fd\u571f\u4ea4\u901a\u7701\u95a2\u6771\u5730\u65b9\u6574\u5099\u5c40\u8352\u5ddd\u4e0a\u6d41\u6cb3\u5ddd\u4e8b\u52d9\u6240","boring_xml_url":40,"boring_view_url":1,"soilmap_view_url":null,"soiltest_xml_url":0,"soiltest_view_url":0},{"id":151074,"code":"B4KJ201801003-9323","latitude":"35.87393","longitude":"139.5713667","source_code":"KT53396445022","project_name":"","survey_name":"\u8352\u5ddd\u4e0a\u6d41\u90e8\u5730\u8cea\u8abf\u67fb\u696d\u52d9","client_name":"\u56fd\u571f\u4ea4\u901a\u7701\u95a2\u6771\u5730\u65b9\u6574\u5099\u5c40\u8352\u5ddd\u4e0a\u6d41\u6cb3\u5ddd\u4e8b\u52d9\u6240","boring_xml_url":40,"boring_view_url":1,"soilmap_view_url":null,"soiltest_xml_url":0,"soiltest_view_url":0},{"id":151073,"code":"B4KJ201801003-9322","latitude":"35.87079139","longitude":"139.5711725","source_code":"KT53396445021","project_name":"","survey_name":"\u5357\u7551\u5730\u533a\u57fa\u790e\u571f\u8cea\u8abf\u67fb","client_name":"\u56fd\u571f\u4ea4\u901a\u7701\u95a2\u6771\u5730\u65b9\u6574\u5099\u5c40\u8352\u5ddd\u4e0a\u6d41\u6cb3\u5ddd\u4e8b\u52d9\u6240","boring_xml_url":40,"boring_view_url":1,"soilmap_view_url":null,"soiltest_xml_url":0,"soiltest_view_url":0},{"id":151072,"code":"B4KJ201801003-9321","latitude":"35.87159694","longitude":"139.5714225","source_code":"KT53396445020","project_name":"","survey_name":"\u5357\u7551\u5730\u533a\u57fa\u790e\u571f\u8cea\u8abf\u67fb","client_name":"\u56fd\u571f\u4ea4\u901a\u7701\u95a2\u6771\u5730\u65b9\u6574\u5099\u5c40\u8352\u5ddd\u4e0a\u6d41\u6cb3\u5ddd\u4e8b\u52d9\u6240","boring_xml_url":40,"boring_view_url":1,"soilmap_view_url":null,"soiltest_xml_url":0,"soiltest_view_url":0},{"id":151071,"code":"B4KJ201801003-9320","latitude":"35.8714025","longitude":"139.5709225","source_code":"KT53396445019","project_name":"","survey_name":"\u5357\u7551\u5730\u533a\u57fa\u790e\u571f\u8cea\u8abf\u67fb","client_name":"\u56fd\u571f\u4ea4\u901a\u7701\u95a2\u6771\u5730\u65b9\u6574\u5099\u5c40\u8352\u5ddd\u4e0a\u6d41\u6cb3\u5ddd\u4e8b\u52d9\u6240","boring_xml_url":40,"boring_view_url":1,"soilmap_view_url":null,"soiltest_xml_url":0,"soiltest_view_url":0},{"id":151070,"code":"B4KJ201801003-9319","latitude":"35.87198583","longitude":"139.5713947","source_code":"KT53396445018","project_name":"","survey_name":"\u5357\u7551\u5730\u533a\u57fa\u790e\u571f\u8cea\u8abf\u67fb","client_name":"\u56fd\u571f\u4ea4\u901a\u7701\u95a2\u6771\u5730\u65b9\u6574\u5099\u5c40\u8352\u5ddd\u4e0a\u6d41\u6cb3\u5ddd\u4e8b\u52d9\u6240","boring_xml_url":40,"boring_view_url":1,"soilmap_view_url":null,"soiltest_xml_url":0,"soiltest_view_url":0},{"id":151069,"code":"B4KJ201801003-9318","latitude":"35.87187472","longitude":"139.5706725","source_code":"KT53396445017","project_name":"","survey_name":"\u5357\u7551\u5730\u533a\u57fa\u790e\u571f\u8cea\u8abf\u67fb","client_name":"\u56fd\u571f\u4ea4\u901a\u7701\u95a2\u6771\u5730\u65b9\u6574\u5099\u5c40\u8352\u5ddd\u4e0a\u6d41\u6cb3\u5ddd\u4e8b\u52d9\u6240","boring_xml_url":40,"boring_view_url":1,"soilmap_view_url":null,"soiltest_xml_url":0,"soiltest_view_url":0},{"id":151068,"code":"B4KJ201801003-9317","latitude":"35.87259694","longitude":"139.5712558","source_code":"KT53396445016","project_name":"","survey_name":"\u5357\u7551\u5730\u533a\u57fa\u790e\u571f\u8cea\u8abf\u67fb","client_name":"\u56fd\u571f\u4ea4\u901a\u7701\u95a2\u6771\u5730\u65b9\u6574\u5099\u5c40\u8352\u5ddd\u4e0a\u6d41\u6cb3\u5ddd\u4e8b\u52d9\u6240","boring_xml_url":40,"boring_view_url":1,"soilmap_view_url":null,"soiltest_xml_url":0,"soiltest_view_url":0},{"id":151067,"code":"B4KJ201801003-9316","latitude":"35.87245806","longitude":"139.5704225","source_code":"KT53396445015","project_name":"","survey_name":"\u5357\u7551\u5730\u533a\u57fa\u790e\u571f\u8cea\u8abf\u67fb","client_name":"\u56fd\u571f\u4ea4\u901a\u7701\u95a2\u6771\u5730\u65b9\u6574\u5099\u5c40\u8352\u5ddd\u4e0a\u6d41\u6cb3\u5ddd\u4e8b\u52d9\u6240","boring_xml_url":40,"boring_view_url":1,"soilmap_view_url":null,"soiltest_xml_url":0,"soiltest_view_url":0},{"id":151066,"code":"B4KJ201801003-9315","latitude":"35.87145778","longitude":"139.5626175","source_code":"KT53396445014","project_name":"","survey_name":"\u5357\u7551\u5730\u533a\u57fa\u790e\u571f\u8cea\u8abf\u67fb(\u305d\u306e4)","client_name":"\u56fd\u571f\u4ea4\u901a\u7701\u95a2\u6771\u5730\u65b9\u6574\u5099\u5c40\u8352\u5ddd\u4e0a\u6d41\u6cb3\u5ddd\u4e8b\u52d9\u6240","boring_xml_url":40,"boring_view_url":1,"soilmap_view_url":null,"soiltest_xml_url":0,"soiltest_view_url":0},{"id":151065,"code":"B4KJ201801003-9314","latitude":"35.87656833","longitude":"139.5610342","source_code":"KT53396445013","project_name":"","survey_name":"\u5357\u7551\u5730\u533a\u57fa\u790e\u571f\u8cea\u8abf\u67fb(\u305d\u306e4)","client_name":"\u56fd\u571f\u4ea4\u901a\u7701\u95a2\u6771\u5730\u65b9\u6574\u5099\u5c40\u8352\u5ddd\u4e0a\u6d41\u6cb3\u5ddd\u4e8b\u52d9\u6240","boring_xml_url":40,"boring_view_url":1,"soilmap_view_url":null,"soiltest_xml_url":0,"soiltest_view_url":0},{"id":151064,"code":"B4KJ201801003-9313","latitude":"35.87231917","longitude":"139.5706447","source_code":"KT53396445012","project_name":"","survey_name":"\u5357\u7551\u5730\u533a\u57fa\u790e\u571f\u8cea\u8abf\u67fb(\u305d\u306e3)","client_name":"\u56fd\u571f\u4ea4\u901a\u7701\u95a2\u6771\u5730\u65b9\u6574\u5099\u5c40\u8352\u5ddd\u4e0a\u6d41\u6cb3\u5ddd\u4e8b\u52d9\u6240","boring_xml_url":40,"boring_view_url":1,"soilmap_view_url":null,"soiltest_xml_url":0,"soiltest_view_url":0},{"id":151063,"code":"B4KJ201801003-9312","latitude":"35.87054167","longitude":"139.5706447","source_code":"KT53396445011","project_name":"","survey_name":"\u5357\u7551\u5730\u533a\u57fa\u790e\u571f\u8cea\u8abf\u67fb(\u305d\u306e3)","client_name":"\u56fd\u571f\u4ea4\u901a\u7701\u95a2\u6771\u5730\u65b9\u6574\u5099\u5c40\u8352\u5ddd\u4e0a\u6d41\u6cb3\u5ddd\u4e8b\u52d9\u6240","boring_xml_url":40,"boring_view_url":1,"soilmap_view_url":null,"soiltest_xml_url":0,"soiltest_view_url":0},{"id":151062,"code":"B4KJ201801003-9311","latitude":"35.87143028","longitude":"139.5700892","source_code":"KT53396445010","project_name":"","survey_name":"\u5357\u7551\u5730\u533a\u57fa\u790e\u571f\u8cea\u8abf\u67fb(\u305d\u306e3)","client_name":"\u56fd\u571f\u4ea4\u901a\u7701\u95a2\u6771\u5730\u65b9\u6574\u5099\u5c40\u8352\u5ddd\u4e0a\u6d41\u6cb3\u5ddd\u4e8b\u52d9\u6240","boring_xml_url":40,"boring_view_url":1,"soilmap_view_url":null,"soiltest_xml_url":0,"soiltest_view_url":0},{"id":151061,"code":"B4KJ201801003-9310","latitude":"35.87237472","longitude":"139.5692281","source_code":"KT53396445009","project_name":"","survey_name":"\u5357\u7551\u5730\u533a\u57fa\u790e\u571f\u8cea\u8abf\u67fb(\u305d\u306e3)","client_name":"\u56fd\u571f\u4ea4\u901a\u7701\u95a2\u6771\u5730\u65b9\u6574\u5099\u5c40\u8352\u5ddd\u4e0a\u6d41\u6cb3\u5ddd\u4e8b\u52d9\u6240","boring_xml_url":40,"boring_view_url":1,"soilmap_view_url":null,"soiltest_xml_url":0,"soiltest_view_url":0},{"id":151060,"code":"B4KJ201801003-9309","latitude":"35.87093028","longitude":"139.5692283","source_code":"KT53396445008","project_name":"","survey_name":"\u5357\u7551\u5730\u533a\u57fa\u790e\u571f\u8cea\u8abf\u67fb(\u305d\u306e3)","client_name":"\u56fd\u571f\u4ea4\u901a\u7701\u95a2\u6771\u5730\u65b9\u6574\u5099\u5c40\u8352\u5ddd\u4e0a\u6d41\u6cb3\u5ddd\u4e8b\u52d9\u6240","boring_xml_url":40,"boring_view_url":1,"soilmap_view_url":null,"soiltest_xml_url":0,"soiltest_view_url":0},{"id":151059,"code":"B4KJ201801003-9308","latitude":"35.87168028","longitude":"139.5687006","source_code":"KT53396445007","project_name":"","survey_name":"\u5357\u7551\u5730\u533a\u57fa\u790e\u571f\u8cea\u8abf\u67fb(\u305d\u306e3)","client_name":"\u56fd\u571f\u4ea4\u901a\u7701\u95a2\u6771\u5730\u65b9\u6574\u5099\u5c40\u8352\u5ddd\u4e0a\u6d41\u6cb3\u5ddd\u4e8b\u52d9\u6240","boring_xml_url":40,"boring_view_url":1,"soilmap_view_url":null,"soiltest_xml_url":0,"soiltest_view_url":0},{"id":151058,"code":"B4KJ201801003-9307","latitude":"35.87123583","longitude":"139.5679783","source_code":"KT53396445006","project_name":"","survey_name":"\u5357\u7551\u5730\u533a\u57fa\u790e\u571f\u8cea\u8abf\u67fb(\u305d\u306e3)","client_name":"\u56fd\u571f\u4ea4\u901a\u7701\u95a2\u6771\u5730\u65b9\u6574\u5099\u5c40\u8352\u5ddd\u4e0a\u6d41\u6cb3\u5ddd\u4e8b\u52d9\u6240","boring_xml_url":40,"boring_view_url":1,"soilmap_view_url":null,"soiltest_xml_url":0,"soiltest_view_url":0},{"id":151057,"code":"B4KJ201801003-9306","latitude":"35.87231917","longitude":"139.5678672","source_code":"KT53396445005","project_name":"","survey_name":"\u5357\u7551\u5730\u533a\u57fa\u790e\u571f\u8cea\u8abf\u67fb(\u305d\u306e3)","client_name":"\u56fd\u571f\u4ea4\u901a\u7701\u95a2\u6771\u5730\u65b9\u6574\u5099\u5c40\u8352\u5ddd\u4e0a\u6d41\u6cb3\u5ddd\u4e8b\u52d9\u6240","boring_xml_url":40,"boring_view_url":1,"soilmap_view_url":null,"soiltest_xml_url":0,"soiltest_view_url":0},{"id":151056,"code":"B4KJ201801003-9305","latitude":"35.87143028","longitude":"139.5668117","source_code":"KT53396445004","project_name":"","survey_name":"\u5357\u7551\u5730\u533a\u57fa\u790e\u571f\u8cea\u8abf\u67fb(\u305d\u306e3)","client_name":"\u56fd\u571f\u4ea4\u901a\u7701\u95a2\u6771\u5730\u65b9\u6574\u5099\u5c40\u8352\u5ddd\u4e0a\u6d41\u6cb3\u5ddd\u4e8b\u52d9\u6240","boring_xml_url":40,"boring_view_url":1,"soilmap_view_url":null,"soiltest_xml_url":0,"soiltest_view_url":0},{"id":151055,"code":"B4KJ201801003-9304","latitude":"35.87212472","longitude":"139.5665894","source_code":"KT53396445003","project_name":"","survey_name":"\u5357\u7551\u5730\u533a\u57fa\u790e\u571f\u8cea\u8abf\u67fb(\u305d\u306e3)","client_name":"\u56fd\u571f\u4ea4\u901a\u7701\u95a2\u6771\u5730\u65b9\u6574\u5099\u5c40\u8352\u5ddd\u4e0a\u6d41\u6cb3\u5ddd\u4e8b\u52d9\u6240","boring_xml_url":40,"boring_view_url":1,"soilmap_view_url":null,"soiltest_xml_url":0,"soiltest_view_url":0},{"id":151054,"code":"B4KJ201801003-9303","latitude":"35.87776278","longitude":"139.5679503","source_code":"KT53396445002","project_name":"","survey_name":"\u8352\u5ddd\u65e7\u5ddd\u5bfe\u7b56\u571f\u8cea\u8abf\u67fb","client_name":"\u56fd\u571f\u4ea4\u901a\u7701\u95a2\u6771\u5730\u65b9\u6574\u5099\u5c40\u4eac\u6d5c\u6cb3\u5ddd\u4e8b\u52d9\u6240","boring_xml_url":40,"boring_view_url":1,"soilmap_view_url":null,"soiltest_xml_url":0,"soiltest_view_url":0},{"id":151053,"code":"B4KJ201801003-9302","latitude":"35.87465222","longitude":"139.5710889","source_code":"KT53396445001","project_name":"","survey_name":"\u8352\u5ddd\u65e7\u5ddd\u5bfe\u7b56\u571f\u8cea\u8abf\u67fb","client_name":"\u56fd\u571f\u4ea4\u901a\u7701\u95a2\u6771\u5730\u65b9\u6574\u5099\u5c40\u4eac\u6d5c\u6cb3\u5ddd\u4e8b\u52d9\u6240","boring_xml_url":40,"boring_view_url":1,"soilmap_view_url":null,"soiltest_xml_url":0,"soiltest_view_url":0},{"id":151052,"code":"B4KJ201801003-9301","latitude":"35.87065222","longitude":"139.5530631","source_code":"KT53396444001","project_name":"","survey_name":"\u5357\u7551\u5730\u533a\u57fa\u790e\u571f\u8cea\u8abf\u67fb(\u305d\u306e4)","client_name":"\u56fd\u571f\u4ea4\u901a\u7701\u95a2\u6771\u5730\u65b9\u6574\u5099\u5c40\u8352\u5ddd\u4e0a\u6d41\u6cb3\u5ddd\u4e8b\u52d9\u6240","boring_xml_url":40,"boring_view_url":1,"soilmap_view_url":null,"soiltest_xml_url":0,"soiltest_view_url":0},{"id":151051,"code":"B4KJ201801003-9300","latitude":"35.86376583","longitude":"139.6201131","source_code":"KT53396439003","project_name":"","survey_name":"\u57fc\u5927\u901a\u308a\u5730\u8cea\u8abf\u67fb","client_name":"\u56fd\u571f\u4ea4\u901a\u7701\u95a2\u6771\u5730\u65b9\u6574\u5099\u5c40\u5927\u5bae\u56fd\u9053\u4e8b\u52d9\u6240","boring_xml_url":40,"boring_view_url":1,"soilmap_view_url":null,"soiltest_xml_url":0,"soiltest_view_url":0},{"id":151050,"code":"B4KJ201801003-9299","latitude":"35.86376583","longitude":"139.6206686","source_code":"KT53396439002","project_name":"","survey_name":"\u57fc\u5927\u901a\u308a\u5730\u8cea\u8abf\u67fb","client_name":"\u56fd\u571f\u4ea4\u901a\u7701\u95a2\u6771\u5730\u65b9\u6574\u5099\u5c40\u5927\u5bae\u56fd\u9053\u4e8b\u52d9\u6240","boring_xml_url":40,"boring_view_url":1,"soilmap_view_url":null,"soiltest_xml_url":0,"soiltest_view_url":0},{"id":151049,"code":"B4KJ201801003-9298","latitude":"35.86934861","longitude":"139.6195572","source_code":"KT53396439001","project_name":"","survey_name":"\u57fc\u5927\u901a\u308a\u5730\u8cea\u8abf\u67fb","client_name":"\u56fd\u571f\u4ea4\u901a\u7701\u95a2\u6771\u5730\u65b9\u6574\u5099\u5c40\u5927\u5bae\u56fd\u9053\u4e8b\u52d9\u6240","boring_xml_url":40,"boring_view_url":1,"soilmap_view_url":null,"soiltest_xml_url":0,"soiltest_view_url":0},{"id":151048,"code":"B4KJ201801003-9297","latitude":"35.86470944","longitude":"139.5927542","source_code":"KT53396437003","project_name":"","survey_name":"\u8352\u5ddd\u4e0a\u6d41\u90e8\u5730\u8cea\u8abf\u67fb\u696d\u52d9","client_name":"\u56fd\u571f\u4ea4\u901a\u7701\u95a2\u6771\u5730\u65b9\u6574\u5099\u5c40\u8352\u5ddd\u4e0a\u6d41\u6cb3\u5ddd\u4e8b\u52d9\u6240","boring_xml_url":40,"boring_view_url":1,"soilmap_view_url":null,"soiltest_xml_url":0,"soiltest_view_url":0},{"id":151047,"code":"B4KJ201801003-9296","latitude":"35.8619875","longitude":"139.5946986","source_code":"KT53396437002","project_name":"","survey_name":"\u8352\u5ddd\u4e0a\u6d41\u90e8\u5730\u8cea\u8abf\u67fb\u696d\u52d9","client_name":"\u56fd\u571f\u4ea4\u901a\u7701\u95a2\u6771\u5730\u65b9\u6574\u5099\u5c40\u8352\u5ddd\u4e0a\u6d41\u6cb3\u5ddd\u4e8b\u52d9\u6240","boring_xml_url":40,"boring_view_url":1,"soilmap_view_url":null,"soiltest_xml_url":0,"soiltest_view_url":0},{"id":151046,"code":"B4KJ201801003-9295","latitude":"35.86365417","longitude":"139.5933375","source_code":"KT53396437001","project_name":"","survey_name":"\u8352\u5ddd\u7b2c2\u8abf\u7bc0\u6c60\u5730\u8cea\u8abf\u67fb(\u305d\u306e4)","client_name":"\u56fd\u571f\u4ea4\u901a\u7701\u95a2\u6771\u5730\u65b9\u6574\u5099\u5c40\u8352\u5ddd\u4e0a\u6d41\u6cb3\u5ddd\u4e8b\u52d9\u6240","boring_xml_url":40,"boring_view_url":1,"soilmap_view_url":null,"soiltest_xml_url":0,"soiltest_view_url":0}]}}