{"header":{"xyz":{"source":[],"mosaic":false},"page":5669,"raw":{"soiltest_result":"0","bbox":"57.598333,109.544722,1.933333,163.806111","page":"5669"},"conditions":{"soiltest_result":0,"north":57.598333,"west":109.544722,"south":1.933333,"east":163.806111},"success":true,"message":""},"data":{"meta":{"total":212844,"page":5669,"pages":7095,"count":30},"values":[{"id":150505,"code":"B4KJ201801003-8754","latitude":"35.80399556","longitude":"139.6490019","source_code":"KT53395562002","project_name":"","survey_name":"\u7b39\u76ee\u6a4b\u7b2c3\u6a4b\u53d6\u4ed8\u9053\u8def\u5730\u8cea\u571f\u8cea\u8abf\u67fb","client_name":"\u56fd\u571f\u4ea4\u901a\u7701\u95a2\u6771\u5730\u65b9\u6574\u5099\u5c40\u5927\u5bae\u56fd\u9053\u4e8b\u52d9\u6240","boring_xml_url":40,"boring_view_url":1,"soilmap_view_url":null,"soiltest_xml_url":0,"soiltest_view_url":0},{"id":150504,"code":"B4KJ201801003-8753","latitude":"35.80352333","longitude":"139.6488631","source_code":"KT53395562001","project_name":"","survey_name":"\u7b39\u76ee\u6a4b\u7b2c3\u6a4b\u53d6\u4ed8\u9053\u8def\u5730\u8cea\u571f\u8cea\u8abf\u67fb","client_name":"\u56fd\u571f\u4ea4\u901a\u7701\u95a2\u6771\u5730\u65b9\u6574\u5099\u5c40\u5927\u5bae\u56fd\u9053\u4e8b\u52d9\u6240","boring_xml_url":40,"boring_view_url":1,"soilmap_view_url":null,"soiltest_xml_url":0,"soiltest_view_url":0},{"id":150503,"code":"B4KJ201801003-8752","latitude":"35.80524528","longitude":"139.6412247","source_code":"KT53395561013","project_name":"","survey_name":"\u7b2c\u4e00\u8abf\u7bc0\u6c60\u6392\u6c34\u9580\u57fa\u790e\u571f\u8cea\u8abf\u67fb","client_name":"\u56fd\u571f\u4ea4\u901a\u7701\u95a2\u6771\u5730\u65b9\u6574\u5099\u5c40\u8352\u5ddd\u4e0a\u6d41\u6cb3\u5ddd\u4e8b\u52d9\u6240","boring_xml_url":40,"boring_view_url":1,"soilmap_view_url":null,"soiltest_xml_url":0,"soiltest_view_url":0},{"id":150502,"code":"B4KJ201801003-8751","latitude":"35.8049675","longitude":"139.6417803","source_code":"KT53395561012","project_name":"","survey_name":"\u7b2c\u4e00\u8abf\u7bc0\u6c60\u6392\u6c34\u9580\u57fa\u790e\u571f\u8cea\u8abf\u67fb","client_name":"\u56fd\u571f\u4ea4\u901a\u7701\u95a2\u6771\u5730\u65b9\u6574\u5099\u5c40\u8352\u5ddd\u4e0a\u6d41\u6cb3\u5ddd\u4e8b\u52d9\u6240","boring_xml_url":40,"boring_view_url":1,"soilmap_view_url":null,"soiltest_xml_url":0,"soiltest_view_url":0},{"id":150501,"code":"B4KJ201801003-8750","latitude":"35.80466194","longitude":"139.6409469","source_code":"KT53395561011","project_name":"","survey_name":"\u7b2c\u4e00\u8abf\u7bc0\u6c60\u6392\u6c34\u9580\u57fa\u790e\u571f\u8cea\u8abf\u67fb","client_name":"\u56fd\u571f\u4ea4\u901a\u7701\u95a2\u6771\u5730\u65b9\u6574\u5099\u5c40\u8352\u5ddd\u4e0a\u6d41\u6cb3\u5ddd\u4e8b\u52d9\u6240","boring_xml_url":40,"boring_view_url":1,"soilmap_view_url":null,"soiltest_xml_url":0,"soiltest_view_url":0},{"id":150500,"code":"B4KJ201801003-8749","latitude":"35.80443972","longitude":"139.6415025","source_code":"KT53395561010","project_name":"","survey_name":"\u7b2c\u4e00\u8abf\u7bc0\u6c60\u6392\u6c34\u9580\u57fa\u790e\u571f\u8cea\u8abf\u67fb","client_name":"\u56fd\u571f\u4ea4\u901a\u7701\u95a2\u6771\u5730\u65b9\u6574\u5099\u5c40\u8352\u5ddd\u4e0a\u6d41\u6cb3\u5ddd\u4e8b\u52d9\u6240","boring_xml_url":40,"boring_view_url":1,"soilmap_view_url":null,"soiltest_xml_url":0,"soiltest_view_url":0},{"id":150499,"code":"B4KJ201801003-8748","latitude":"35.80377333","longitude":"139.6417803","source_code":"KT53395561009","project_name":"","survey_name":"\u7b2c\u4e00\u8abf\u7bc0\u6c60\u6392\u6c34\u9580\u57fa\u790e\u571f\u8cea\u8abf\u67fb","client_name":"\u56fd\u571f\u4ea4\u901a\u7701\u95a2\u6771\u5730\u65b9\u6574\u5099\u5c40\u8352\u5ddd\u4e0a\u6d41\u6cb3\u5ddd\u4e8b\u52d9\u6240","boring_xml_url":40,"boring_view_url":1,"soilmap_view_url":null,"soiltest_xml_url":0,"soiltest_view_url":0},{"id":150498,"code":"B4KJ201801003-8747","latitude":"35.80507861","longitude":"139.6431689","source_code":"KT53395561008","project_name":"","survey_name":"\u7b39\u76ee\u6a4b\u5de6\u5cb8\u53d6\u4ed8\u9053\u8def\u5de5\u4e8b\u5730\u8cea\u8abf\u67fb","client_name":"\u56fd\u571f\u4ea4\u901a\u7701\u95a2\u6771\u5730\u65b9\u6574\u5099\u5c40\u5927\u5bae\u56fd\u9053\u4e8b\u52d9\u6240","boring_xml_url":40,"boring_view_url":1,"soilmap_view_url":null,"soiltest_xml_url":0,"soiltest_view_url":0},{"id":150497,"code":"B4KJ201801003-8746","latitude":"35.80457861","longitude":"139.6435022","source_code":"KT53395561007","project_name":"","survey_name":"\u7b39\u76ee\u6a4b\u5de6\u5cb8\u53d6\u4ed8\u9053\u8def\u5de5\u4e8b\u306b\u4f34\u3046\u5730\u8cea\u8abf\u67fb","client_name":"\u56fd\u571f\u4ea4\u901a\u7701\u95a2\u6771\u5730\u65b9\u6574\u5099\u5c40\u5927\u5bae\u56fd\u9053\u4e8b\u52d9\u6240","boring_xml_url":40,"boring_view_url":1,"soilmap_view_url":null,"soiltest_xml_url":0,"soiltest_view_url":0},{"id":150496,"code":"B4KJ201801003-8745","latitude":"35.80391222","longitude":"139.6442522","source_code":"KT53395561006","project_name":"","survey_name":"\u7b39\u76ee\u6a4b\u5de6\u5cb8\u53d6\u4ed8\u9053\u8def\u5de5\u4e8b\u306b\u4f34\u3046\u5730\u8cea\u8abf\u67fb","client_name":"\u56fd\u571f\u4ea4\u901a\u7701\u95a2\u6771\u5730\u65b9\u6574\u5099\u5c40\u5927\u5bae\u56fd\u9053\u4e8b\u52d9\u6240","boring_xml_url":40,"boring_view_url":1,"soilmap_view_url":null,"soiltest_xml_url":0,"soiltest_view_url":0},{"id":150495,"code":"B4KJ201801003-8744","latitude":"35.80332889","longitude":"139.64478","source_code":"KT53395561005","project_name":"","survey_name":"\u7b39\u76ee\u6a4b\u5de6\u5cb8\u53d6\u4ed8\u9053\u8def\u5de5\u4e8b\u306b\u4f34\u3046\u5730\u8cea\u8abf\u67fb","client_name":"\u56fd\u571f\u4ea4\u901a\u7701\u95a2\u6771\u5730\u65b9\u6574\u5099\u5c40\u5927\u5bae\u56fd\u9053\u4e8b\u52d9\u6240","boring_xml_url":40,"boring_view_url":1,"soilmap_view_url":null,"soiltest_xml_url":0,"soiltest_view_url":0},{"id":150494,"code":"B4KJ201801003-8743","latitude":"35.80560611","longitude":"139.6384472","source_code":"KT53395561004","project_name":"","survey_name":"\u4e0b\u7b39\u76ee\u59163\u7b87\u6240\u707d\u5bb3\u5de5\u4e8b\u8b77\u5cb8\u571f\u8cea\u8abf\u67fb","client_name":"\u56fd\u571f\u4ea4\u901a\u7701\u95a2\u6771\u5730\u65b9\u6574\u5099\u5c40\u8352\u5ddd\u4e0a\u6d41\u6cb3\u5ddd\u4e8b\u52d9\u6240","boring_xml_url":40,"boring_view_url":1,"soilmap_view_url":null,"soiltest_xml_url":0,"soiltest_view_url":0},{"id":150493,"code":"B4KJ201801003-8742","latitude":"35.80516194","longitude":"139.6398358","source_code":"KT53395561003","project_name":"","survey_name":"\u4e0b\u7b39\u76ee\u59163\u7b87\u6240\u707d\u5bb3\u5de5\u4e8b\u8b77\u5cb8\u571f\u8cea\u8abf\u67fb","client_name":"\u56fd\u571f\u4ea4\u901a\u7701\u95a2\u6771\u5730\u65b9\u6574\u5099\u5c40\u8352\u5ddd\u4e0a\u6d41\u6cb3\u5ddd\u4e8b\u52d9\u6240","boring_xml_url":40,"boring_view_url":1,"soilmap_view_url":null,"soiltest_xml_url":0,"soiltest_view_url":0},{"id":150492,"code":"B4KJ201801003-8741","latitude":"35.80321778","longitude":"139.6406692","source_code":"KT53395561002","project_name":"","survey_name":"\u4e0b\u7b39\u76ee\u59166\u7b87\u6240\u707d\u5bb3\u5de5\u4e8b\u8b77\u5cb8\u8a2d\u8a08\u696d\u52d9\u59d4\u8a17","client_name":"\u56fd\u571f\u4ea4\u901a\u7701\u95a2\u6771\u5730\u65b9\u6574\u5099\u5c40\u8352\u5ddd\u4e0a\u6d41\u6cb3\u5ddd\u4e8b\u52d9\u6240","boring_xml_url":40,"boring_view_url":1,"soilmap_view_url":null,"soiltest_xml_url":0,"soiltest_view_url":0},{"id":150491,"code":"B4KJ201801003-8740","latitude":"35.80507861","longitude":"139.6368917","source_code":"KT53395561001","project_name":"","survey_name":"\u65b0\u5009\u59167\u7b87\u6240\u707d\u5bb3\u5de5\u4e8b\u8b77\u5cb8\u8a2d\u8a08","client_name":"\u56fd\u571f\u4ea4\u901a\u7701\u95a2\u6771\u5730\u65b9\u6574\u5099\u5c40\u8352\u5ddd\u4e0a\u6d41\u6cb3\u5ddd\u4e8b\u52d9\u6240","boring_xml_url":40,"boring_view_url":1,"soilmap_view_url":null,"soiltest_xml_url":0,"soiltest_view_url":0},{"id":150490,"code":"B4KJ201801003-8739","latitude":"35.8060225","longitude":"139.6262814","source_code":"KT53395560024","project_name":"","survey_name":"\u8abf\u7bc0\u6c60\u5824\u9632\u52d5\u614b\u89b3\u6e2c\u8abf\u67fb","client_name":"\u56fd\u571f\u4ea4\u901a\u7701\u95a2\u6771\u5730\u65b9\u6574\u5099\u5c40\u8352\u5ddd\u4e0a\u6d41\u6cb3\u5ddd\u4e8b\u52d9\u6240","boring_xml_url":40,"boring_view_url":1,"soilmap_view_url":null,"soiltest_xml_url":0,"soiltest_view_url":0},{"id":150489,"code":"B4KJ201801003-8738","latitude":"35.80621694","longitude":"139.6262258","source_code":"KT53395560023","project_name":"","survey_name":"\u8abf\u7bc0\u6c60\u5824\u9632\u52d5\u614b\u89b3\u6e2c\u8abf\u67fb","client_name":"\u56fd\u571f\u4ea4\u901a\u7701\u95a2\u6771\u5730\u65b9\u6574\u5099\u5c40\u8352\u5ddd\u4e0a\u6d41\u6cb3\u5ddd\u4e8b\u52d9\u6240","boring_xml_url":40,"boring_view_url":1,"soilmap_view_url":null,"soiltest_xml_url":0,"soiltest_view_url":0},{"id":150488,"code":"B4KJ201801003-8737","latitude":"35.80852222","longitude":"139.6239483","source_code":"KT53395560022","project_name":"","survey_name":"\u671d\u971e\u5730\u533a\u57fa\u790e\u571f\u8cea\u8abf\u67fb(\u305d\u306e2)","client_name":"\u56fd\u571f\u4ea4\u901a\u7701\u95a2\u6771\u5730\u65b9\u6574\u5099\u5c40\u5229\u6839\u5ddd\u4e0a\u6d41\u6cb3\u5ddd\u4e8b\u52d9\u6240","boring_xml_url":40,"boring_view_url":1,"soilmap_view_url":null,"soiltest_xml_url":0,"soiltest_view_url":0},{"id":150487,"code":"B4KJ201801003-8736","latitude":"35.80899444","longitude":"139.6239483","source_code":"KT53395560021","project_name":"","survey_name":"\u671d\u971e\u5730\u533a\u57fa\u790e\u571f\u8cea\u8abf\u67fb(\u305d\u306e2)","client_name":"\u56fd\u571f\u4ea4\u901a\u7701\u95a2\u6771\u5730\u65b9\u6574\u5099\u5c40\u5229\u6839\u5ddd\u4e0a\u6d41\u6cb3\u5ddd\u4e8b\u52d9\u6240","boring_xml_url":40,"boring_view_url":1,"soilmap_view_url":null,"soiltest_xml_url":0,"soiltest_view_url":0},{"id":150486,"code":"B4KJ201801003-8735","latitude":"35.80946639","longitude":"139.6239483","source_code":"KT53395560020","project_name":"","survey_name":"\u671d\u971e\u5730\u533a\u57fa\u790e\u571f\u8cea\u8abf\u67fb(\u305d\u306e2)","client_name":"\u56fd\u571f\u4ea4\u901a\u7701\u95a2\u6771\u5730\u65b9\u6574\u5099\u5c40\u5229\u6839\u5ddd\u4e0a\u6d41\u6cb3\u5ddd\u4e8b\u52d9\u6240","boring_xml_url":40,"boring_view_url":1,"soilmap_view_url":null,"soiltest_xml_url":0,"soiltest_view_url":0},{"id":150485,"code":"B4KJ201801003-8734","latitude":"35.80993861","longitude":"139.6239483","source_code":"KT53395560019","project_name":"","survey_name":"\u671d\u971e\u5730\u533a\u57fa\u790e\u571f\u8cea\u8abf\u67fb(\u305d\u306e2)","client_name":"\u56fd\u571f\u4ea4\u901a\u7701\u95a2\u6771\u5730\u65b9\u6574\u5099\u5c40\u5229\u6839\u5ddd\u4e0a\u6d41\u6cb3\u5ddd\u4e8b\u52d9\u6240","boring_xml_url":40,"boring_view_url":1,"soilmap_view_url":null,"soiltest_xml_url":0,"soiltest_view_url":0},{"id":150484,"code":"B4KJ201801003-8733","latitude":"35.81041083","longitude":"139.6239483","source_code":"KT53395560018","project_name":"","survey_name":"\u671d\u971e\u5730\u533a\u57fa\u790e\u571f\u8cea\u8abf\u67fb(\u305d\u306e2)","client_name":"\u56fd\u571f\u4ea4\u901a\u7701\u95a2\u6771\u5730\u65b9\u6574\u5099\u5c40\u5229\u6839\u5ddd\u4e0a\u6d41\u6cb3\u5ddd\u4e8b\u52d9\u6240","boring_xml_url":40,"boring_view_url":1,"soilmap_view_url":null,"soiltest_xml_url":0,"soiltest_view_url":0},{"id":150483,"code":"B4KJ201801003-8732","latitude":"35.80618917","longitude":"139.6240039","source_code":"KT53395560015","project_name":"","survey_name":"\u5e78\u9b42\u6a4b\u305d\u306e1\u5730\u8cea\u8abf\u67fb","client_name":"\u56fd\u571f\u4ea4\u901a\u7701\u95a2\u6771\u5730\u65b9\u6574\u5099\u5c40\u5317\u9996\u90fd\u56fd\u9053\u4e8b\u52d9\u6240","boring_xml_url":40,"boring_view_url":1,"soilmap_view_url":null,"soiltest_xml_url":0,"soiltest_view_url":0},{"id":150482,"code":"B4KJ201801003-8731","latitude":"35.80566139","longitude":"139.6234761","source_code":"KT53395560014","project_name":"","survey_name":"\u5e78\u9b42\u6a4b\u305d\u306e1\u5730\u8cea\u8abf\u67fb","client_name":"\u56fd\u571f\u4ea4\u901a\u7701\u95a2\u6771\u5730\u65b9\u6574\u5099\u5c40\u5317\u9996\u90fd\u56fd\u9053\u4e8b\u52d9\u6240","boring_xml_url":40,"boring_view_url":1,"soilmap_view_url":null,"soiltest_xml_url":0,"soiltest_view_url":0},{"id":150481,"code":"B4KJ201801003-8730","latitude":"35.80471694","longitude":"139.6226153","source_code":"KT53395560013","project_name":"","survey_name":"\u5e78\u9b42\u6a4b\u305d\u306e1\u5730\u8cea\u8abf\u67fb","client_name":"\u56fd\u571f\u4ea4\u901a\u7701\u95a2\u6771\u5730\u65b9\u6574\u5099\u5c40\u5317\u9996\u90fd\u56fd\u9053\u4e8b\u52d9\u6240","boring_xml_url":40,"boring_view_url":1,"soilmap_view_url":null,"soiltest_xml_url":0,"soiltest_view_url":0},{"id":150480,"code":"B4KJ201801003-8729","latitude":"35.80446694","longitude":"139.6220875","source_code":"KT53395560012","project_name":"","survey_name":"\u5e78\u9b42\u6a4b\u305d\u306e1\u5730\u8cea\u8abf\u67fb","client_name":"\u56fd\u571f\u4ea4\u901a\u7701\u95a2\u6771\u5730\u65b9\u6574\u5099\u5c40\u5317\u9996\u90fd\u56fd\u9053\u4e8b\u52d9\u6240","boring_xml_url":40,"boring_view_url":1,"soilmap_view_url":null,"soiltest_xml_url":0,"soiltest_view_url":0},{"id":150479,"code":"B4KJ201801003-8728","latitude":"35.80396722","longitude":"139.6220319","source_code":"KT53395560011","project_name":"","survey_name":"\u5e78\u9b42\u6a4b\u305d\u306e1\u5730\u8cea\u8abf\u67fb","client_name":"\u56fd\u571f\u4ea4\u901a\u7701\u95a2\u6771\u5730\u65b9\u6574\u5099\u5c40\u5317\u9996\u90fd\u56fd\u9053\u4e8b\u52d9\u6240","boring_xml_url":40,"boring_view_url":1,"soilmap_view_url":null,"soiltest_xml_url":0,"soiltest_view_url":0},{"id":150478,"code":"B4KJ201801003-8727","latitude":"35.81124417","longitude":"139.6278922","source_code":"KT53395560010","project_name":"","survey_name":"\u5e78\u9b42\u6a4b\u305d\u306e2\u5730\u8cea\u8abf\u67fb","client_name":"\u56fd\u571f\u4ea4\u901a\u7701\u95a2\u6771\u5730\u65b9\u6574\u5099\u5c40\u4eac\u6d5c\u6cb3\u5ddd\u4e8b\u52d9\u6240","boring_xml_url":40,"boring_view_url":1,"soilmap_view_url":null,"soiltest_xml_url":0,"soiltest_view_url":0},{"id":150477,"code":"B4KJ201801003-8726","latitude":"35.81077194","longitude":"139.6272811","source_code":"KT53395560009","project_name":"","survey_name":"\u5e78\u9b42\u6a4b\u305d\u306e2\u5730\u8cea\u8abf\u67fb","client_name":"\u56fd\u571f\u4ea4\u901a\u7701\u95a2\u6771\u5730\u65b9\u6574\u5099\u5c40\u4eac\u6d5c\u6cb3\u5ddd\u4e8b\u52d9\u6240","boring_xml_url":40,"boring_view_url":1,"soilmap_view_url":null,"soiltest_xml_url":0,"soiltest_view_url":0},{"id":150476,"code":"B4KJ201801003-8725","latitude":"35.81024417","longitude":"139.6267258","source_code":"KT53395560008","project_name":"","survey_name":"\u5e78\u9b42\u6a4b\u305d\u306e2\u5730\u8cea\u8abf\u67fb","client_name":"\u56fd\u571f\u4ea4\u901a\u7701\u95a2\u6771\u5730\u65b9\u6574\u5099\u5c40\u4eac\u6d5c\u6cb3\u5ddd\u4e8b\u52d9\u6240","boring_xml_url":40,"boring_view_url":1,"soilmap_view_url":null,"soiltest_xml_url":0,"soiltest_view_url":0}]}}