{"header":{"xyz":{"source":[],"mosaic":false},"page":5670,"raw":{"soiltest_result":"0","bbox":"57.598333,109.544722,1.933333,163.806111","page":"5670"},"conditions":{"soiltest_result":0,"north":57.598333,"west":109.544722,"south":1.933333,"east":163.806111},"success":true,"message":""},"data":{"meta":{"total":212844,"page":5670,"pages":7095,"count":30},"values":[{"id":150475,"code":"B4KJ201801003-8724","latitude":"35.8098","longitude":"139.6262814","source_code":"KT53395560007","project_name":"","survey_name":"\u5e78\u9b42\u6a4b\u305d\u306e2\u5730\u8cea\u8abf\u67fb","client_name":"\u56fd\u571f\u4ea4\u901a\u7701\u95a2\u6771\u5730\u65b9\u6574\u5099\u5c40\u4eac\u6d5c\u6cb3\u5ddd\u4e8b\u52d9\u6240","boring_xml_url":40,"boring_view_url":1,"soilmap_view_url":null,"soiltest_xml_url":0,"soiltest_view_url":0},{"id":150474,"code":"B4KJ201801003-8723","latitude":"35.80907778","longitude":"139.6254481","source_code":"KT53395560006","project_name":"","survey_name":"\u5e78\u9b42\u6a4b\u305d\u306e2\u5730\u8cea\u8abf\u67fb","client_name":"\u56fd\u571f\u4ea4\u901a\u7701\u95a2\u6771\u5730\u65b9\u6574\u5099\u5c40\u4eac\u6d5c\u6cb3\u5ddd\u4e8b\u52d9\u6240","boring_xml_url":40,"boring_view_url":1,"soilmap_view_url":null,"soiltest_xml_url":0,"soiltest_view_url":0},{"id":150473,"code":"B4KJ201801003-8722","latitude":"35.80832778","longitude":"139.6246983","source_code":"KT53395560005","project_name":"","survey_name":"\u5e78\u9b42\u6a4b\u305d\u306e2\u5730\u8cea\u8abf\u67fb","client_name":"\u56fd\u571f\u4ea4\u901a\u7701\u95a2\u6771\u5730\u65b9\u6574\u5099\u5c40\u4eac\u6d5c\u6cb3\u5ddd\u4e8b\u52d9\u6240","boring_xml_url":40,"boring_view_url":1,"soilmap_view_url":null,"soiltest_xml_url":0,"soiltest_view_url":0},{"id":150472,"code":"B4KJ201801003-8721","latitude":"35.80766111","longitude":"139.6268369","source_code":"KT53395560004","project_name":"","survey_name":"\u4e0b\u7b39\u76ee\u59166\u7b87\u6240\u707d\u5bb3\u5de5\u4e8b\u8b77\u5cb8\u8a2d\u8a08\u696d\u52d9\u59d4\u8a17","client_name":"\u56fd\u571f\u4ea4\u901a\u7701\u95a2\u6771\u5730\u65b9\u6574\u5099\u5c40\u8352\u5ddd\u4e0a\u6d41\u6cb3\u5ddd\u4e8b\u52d9\u6240","boring_xml_url":40,"boring_view_url":1,"soilmap_view_url":null,"soiltest_xml_url":0,"soiltest_view_url":0},{"id":150471,"code":"B4KJ201801003-8720","latitude":"35.80588361","longitude":"139.6292814","source_code":"KT53395560003","project_name":"","survey_name":"\u4e0b\u7b39\u76ee\u59166\u7b87\u6240\u707d\u5bb3\u5de5\u4e8b\u8b77\u5cb8\u8a2d\u8a08\u696d\u52d9\u59d4\u8a17","client_name":"\u56fd\u571f\u4ea4\u901a\u7701\u95a2\u6771\u5730\u65b9\u6574\u5099\u5c40\u8352\u5ddd\u4e0a\u6d41\u6cb3\u5ddd\u4e8b\u52d9\u6240","boring_xml_url":40,"boring_view_url":1,"soilmap_view_url":null,"soiltest_xml_url":0,"soiltest_view_url":0},{"id":150470,"code":"B4KJ201801003-8719","latitude":"35.80410639","longitude":"139.6340586","source_code":"KT53395560002","project_name":"","survey_name":"\u4e0b\u7b39\u76ee\u59166\u7b87\u6240\u707d\u5bb3\u5de5\u4e8b\u8b77\u5cb8\u8a2d\u8a08\u696d\u52d9\u59d4\u8a17","client_name":"\u56fd\u571f\u4ea4\u901a\u7701\u95a2\u6771\u5730\u65b9\u6574\u5099\u5c40\u8352\u5ddd\u4e0a\u6d41\u6cb3\u5ddd\u4e8b\u52d9\u6240","boring_xml_url":40,"boring_view_url":1,"soilmap_view_url":null,"soiltest_xml_url":0,"soiltest_view_url":0},{"id":150469,"code":"B4KJ201801003-8718","latitude":"35.80355056","longitude":"139.6228653","source_code":"KT53395560001","project_name":"","survey_name":"\u8352\u5ddd\u65e7\u5ddd\u5bfe\u7b56\u571f\u8cea\u8abf\u67fb","client_name":"\u56fd\u571f\u4ea4\u901a\u7701\u95a2\u6771\u5730\u65b9\u6574\u5099\u5c40\u4eac\u6d5c\u6cb3\u5ddd\u4e8b\u52d9\u6240","boring_xml_url":40,"boring_view_url":1,"soilmap_view_url":null,"soiltest_xml_url":0,"soiltest_view_url":0},{"id":150468,"code":"B4KJ201801003-8717","latitude":"35.79524778","longitude":"139.6972203","source_code":"KT53395556012","project_name":"","survey_name":"\u6d6e\u9593\u5730\u533a\u5730\u8cea\u8abf\u67fb\u53ca\u3073\u5de5\u4e8b\u7528\u6e2c\u91cf","client_name":"\u56fd\u571f\u4ea4\u901a\u7701\u95a2\u6771\u5730\u65b9\u6574\u5099\u5c40\u8352\u5ddd\u4e0b\u6d41\u6cb3\u5ddd\u4e8b\u52d9\u6240","boring_xml_url":40,"boring_view_url":1,"soilmap_view_url":null,"soiltest_xml_url":0,"soiltest_view_url":0},{"id":150467,"code":"B4KJ201801003-8716","latitude":"35.79655361","longitude":"139.7070528","source_code":"KT53395556009","project_name":"","survey_name":"\u8352\u5ddd\u4e0b\u6d41\u90e8\u6cb3\u5e8a\u571f\u8cea\u8abf\u67fb","client_name":"\u56fd\u571f\u4ea4\u901a\u7701\u95a2\u6771\u5730\u65b9\u6574\u5099\u5c40\u8352\u5ddd\u4e0b\u6d41\u6cb3\u5ddd\u4e8b\u52d9\u6240","boring_xml_url":40,"boring_view_url":1,"soilmap_view_url":null,"soiltest_xml_url":0,"soiltest_view_url":0},{"id":150466,"code":"B4KJ201801003-8715","latitude":"35.80052528","longitude":"139.7021919","source_code":"KT53395556008","project_name":"","survey_name":"\u4e09\u9818\u6c34\u9580\u5730\u8cea\u8abf\u67fb","client_name":"\u56fd\u571f\u4ea4\u901a\u7701\u95a2\u6771\u5730\u65b9\u6574\u5099\u5c40\u8352\u5ddd\u4e0b\u6d41\u6cb3\u5ddd\u4e8b\u52d9\u6240","boring_xml_url":40,"boring_view_url":1,"soilmap_view_url":null,"soiltest_xml_url":0,"soiltest_view_url":0},{"id":150465,"code":"B4KJ201801003-8714","latitude":"35.80052528","longitude":"139.7021919","source_code":"KT53395556007","project_name":"","survey_name":"\u4e09\u9818\u6c34\u9580\u5730\u8cea\u8abf\u67fb","client_name":"\u56fd\u571f\u4ea4\u901a\u7701\u95a2\u6771\u5730\u65b9\u6574\u5099\u5c40\u8352\u5ddd\u4e0b\u6d41\u6cb3\u5ddd\u4e8b\u52d9\u6240","boring_xml_url":40,"boring_view_url":1,"soilmap_view_url":null,"soiltest_xml_url":0,"soiltest_view_url":0},{"id":150464,"code":"B4KJ201801003-8713","latitude":"35.7984975","longitude":"139.6973314","source_code":"KT53395556004","project_name":"","survey_name":"\u6238\u7530\u5730\u533a\u571f\u8cea\u8abf\u67fb","client_name":"\u56fd\u571f\u4ea4\u901a\u7701\u95a2\u6771\u5730\u65b9\u6574\u5099\u5c40\u8352\u5ddd\u4e0b\u6d41\u6cb3\u5ddd\u4e8b\u52d9\u6240","boring_xml_url":40,"boring_view_url":1,"soilmap_view_url":null,"soiltest_xml_url":0,"soiltest_view_url":0},{"id":150463,"code":"B4KJ201801003-8712","latitude":"35.79777528","longitude":"139.6976369","source_code":"KT53395556003","project_name":"","survey_name":"\u6238\u7530\u5730\u533a\u571f\u8cea\u8abf\u67fb","client_name":"\u56fd\u571f\u4ea4\u901a\u7701\u95a2\u6771\u5730\u65b9\u6574\u5099\u5c40\u8352\u5ddd\u4e0b\u6d41\u6cb3\u5ddd\u4e8b\u52d9\u6240","boring_xml_url":40,"boring_view_url":1,"soilmap_view_url":null,"soiltest_xml_url":0,"soiltest_view_url":0},{"id":150462,"code":"B4KJ201801003-8711","latitude":"35.79674778","longitude":"139.69947","source_code":"KT53395556002","project_name":"","survey_name":"\u6238\u7530\u5730\u533a\u571f\u8cea\u8abf\u67fb","client_name":"\u56fd\u571f\u4ea4\u901a\u7701\u95a2\u6771\u5730\u65b9\u6574\u5099\u5c40\u8352\u5ddd\u4e0b\u6d41\u6cb3\u5ddd\u4e8b\u52d9\u6240","boring_xml_url":40,"boring_view_url":1,"soilmap_view_url":null,"soiltest_xml_url":0,"soiltest_view_url":0},{"id":150461,"code":"B4KJ201801003-8710","latitude":"35.79780333","longitude":"139.69997","source_code":"KT53395556001","project_name":"","survey_name":"\u6238\u7530\u5730\u533a\u571f\u8cea\u8abf\u67fb","client_name":"\u56fd\u571f\u4ea4\u901a\u7701\u95a2\u6771\u5730\u65b9\u6574\u5099\u5c40\u8352\u5ddd\u4e0b\u6d41\u6cb3\u5ddd\u4e8b\u52d9\u6240","boring_xml_url":40,"boring_view_url":1,"soilmap_view_url":null,"soiltest_xml_url":0,"soiltest_view_url":0},{"id":150460,"code":"B4KJ201801003-8709","latitude":"35.79677528","longitude":"139.6916653","source_code":"KT53395555014","project_name":"","survey_name":"\u6d6e\u9593\u5730\u533a\u5730\u8cea\u8abf\u67fb\u53ca\u3073\u5de5\u4e8b\u7528\u6e2c\u91cf","client_name":"\u56fd\u571f\u4ea4\u901a\u7701\u95a2\u6771\u5730\u65b9\u6574\u5099\u5c40\u8352\u5ddd\u4e0b\u6d41\u6cb3\u5ddd\u4e8b\u52d9\u6240","boring_xml_url":40,"boring_view_url":1,"soilmap_view_url":null,"soiltest_xml_url":0,"soiltest_view_url":0},{"id":150459,"code":"B4KJ201801003-8708","latitude":"35.79610889","longitude":"139.6934428","source_code":"KT53395555013","project_name":"","survey_name":"\u6d6e\u9593\u5730\u533a\u5730\u8cea\u8abf\u67fb\u53ca\u3073\u5de5\u4e8b\u7528\u6e2c\u91cf","client_name":"\u56fd\u571f\u4ea4\u901a\u7701\u95a2\u6771\u5730\u65b9\u6574\u5099\u5c40\u8352\u5ddd\u4e0b\u6d41\u6cb3\u5ddd\u4e8b\u52d9\u6240","boring_xml_url":40,"boring_view_url":1,"soilmap_view_url":null,"soiltest_xml_url":0,"soiltest_view_url":0},{"id":150458,"code":"B4KJ201801003-8707","latitude":"35.79552556","longitude":"139.6953039","source_code":"KT53395555012","project_name":"","survey_name":"\u6d6e\u9593\u5730\u533a\u5730\u8cea\u8abf\u67fb\u53ca\u3073\u5de5\u4e8b\u7528\u6e2c\u91cf","client_name":"\u56fd\u571f\u4ea4\u901a\u7701\u95a2\u6771\u5730\u65b9\u6574\u5099\u5c40\u8352\u5ddd\u4e0b\u6d41\u6cb3\u5ddd\u4e8b\u52d9\u6240","boring_xml_url":40,"boring_view_url":1,"soilmap_view_url":null,"soiltest_xml_url":0,"soiltest_view_url":0},{"id":150457,"code":"B4KJ201801003-8706","latitude":"35.79705306","longitude":"139.6917208","source_code":"KT53395555011","project_name":"","survey_name":"\u6d6e\u9593\u5730\u533a\u5730\u8cea\u8abf\u67fb\u53ca\u3073\u5de5\u4e8b\u7528\u6e2c\u91cf","client_name":"\u56fd\u571f\u4ea4\u901a\u7701\u95a2\u6771\u5730\u65b9\u6574\u5099\u5c40\u8352\u5ddd\u4e0b\u6d41\u6cb3\u5ddd\u4e8b\u52d9\u6240","boring_xml_url":40,"boring_view_url":1,"soilmap_view_url":null,"soiltest_xml_url":0,"soiltest_view_url":0},{"id":150456,"code":"B4KJ201801003-8705","latitude":"35.7964975","longitude":"139.6937206","source_code":"KT53395555010","project_name":"","survey_name":"\u6d6e\u9593\u5730\u533a\u5730\u8cea\u8abf\u67fb\u53ca\u3073\u5de5\u4e8b\u7528\u6e2c\u91cf","client_name":"\u56fd\u571f\u4ea4\u901a\u7701\u95a2\u6771\u5730\u65b9\u6574\u5099\u5c40\u8352\u5ddd\u4e0b\u6d41\u6cb3\u5ddd\u4e8b\u52d9\u6240","boring_xml_url":40,"boring_view_url":1,"soilmap_view_url":null,"soiltest_xml_url":0,"soiltest_view_url":0},{"id":150455,"code":"B4KJ201801003-8704","latitude":"35.79599778","longitude":"139.6954428","source_code":"KT53395555009","project_name":"","survey_name":"\u6d6e\u9593\u5730\u533a\u5730\u8cea\u8abf\u67fb\u53ca\u3073\u5de5\u4e8b\u7528\u6e2c\u91cf","client_name":"\u56fd\u571f\u4ea4\u901a\u7701\u95a2\u6771\u5730\u65b9\u6574\u5099\u5c40\u8352\u5ddd\u4e0b\u6d41\u6cb3\u5ddd\u4e8b\u52d9\u6240","boring_xml_url":40,"boring_view_url":1,"soilmap_view_url":null,"soiltest_xml_url":0,"soiltest_view_url":0},{"id":150454,"code":"B4KJ201801003-8703","latitude":"35.79622","longitude":"139.6955817","source_code":"KT53395555008","project_name":"","survey_name":"\u6d6e\u9593\u5730\u533a\u5730\u8cea\u8abf\u67fb\u53ca\u3073\u5de5\u4e8b\u7528\u6e2c\u91cf","client_name":"\u56fd\u571f\u4ea4\u901a\u7701\u95a2\u6771\u5730\u65b9\u6574\u5099\u5c40\u8352\u5ddd\u4e0b\u6d41\u6cb3\u5ddd\u4e8b\u52d9\u6240","boring_xml_url":40,"boring_view_url":1,"soilmap_view_url":null,"soiltest_xml_url":0,"soiltest_view_url":0},{"id":150453,"code":"B4KJ201801003-8702","latitude":"35.801025","longitude":"139.6957203","source_code":"KT53395555007","project_name":"","survey_name":"\u6238\u7530\u8b77\u5cb8\u5730\u8cea\u8abf\u67fb","client_name":"\u56fd\u571f\u4ea4\u901a\u7701\u95a2\u6771\u5730\u65b9\u6574\u5099\u5c40\u8352\u5ddd\u4e0b\u6d41\u6cb3\u5ddd\u4e8b\u52d9\u6240","boring_xml_url":40,"boring_view_url":1,"soilmap_view_url":null,"soiltest_xml_url":0,"soiltest_view_url":0},{"id":150452,"code":"B4KJ201801003-8701","latitude":"35.79599778","longitude":"139.6928872","source_code":"KT53395555006","project_name":"","survey_name":"\u8352\u5ddd\u4e0b\u6d41\u90e8\u6cb3\u5e8a\u571f\u8cea\u8abf\u67fb","client_name":"\u56fd\u571f\u4ea4\u901a\u7701\u95a2\u6771\u5730\u65b9\u6574\u5099\u5c40\u8352\u5ddd\u4e0b\u6d41\u6cb3\u5ddd\u4e8b\u52d9\u6240","boring_xml_url":40,"boring_view_url":1,"soilmap_view_url":null,"soiltest_xml_url":0,"soiltest_view_url":0},{"id":150451,"code":"B4KJ201801003-8700","latitude":"35.80138583","longitude":"139.6895819","source_code":"KT53395555005","project_name":"","survey_name":"\u6238\u7530\u5730\u533a\u4f4e\u6c34\u8b77\u5cb8\u90e8\u5730\u8cea\u8abf\u67fb","client_name":"\u56fd\u571f\u4ea4\u901a\u7701\u95a2\u6771\u5730\u65b9\u6574\u5099\u5c40\u8352\u5ddd\u4e0b\u6d41\u6cb3\u5ddd\u4e8b\u52d9\u6240","boring_xml_url":40,"boring_view_url":1,"soilmap_view_url":null,"soiltest_xml_url":0,"soiltest_view_url":0},{"id":150450,"code":"B4KJ201801003-8699","latitude":"35.8013025","longitude":"139.6912761","source_code":"KT53395555004","project_name":"","survey_name":"\u6238\u7530\u5730\u533a\u4f4e\u6c34\u8b77\u5cb8\u90e8\u5730\u8cea\u8abf\u67fb","client_name":"\u56fd\u571f\u4ea4\u901a\u7701\u95a2\u6771\u5730\u65b9\u6574\u5099\u5c40\u8352\u5ddd\u4e0b\u6d41\u6cb3\u5ddd\u4e8b\u52d9\u6240","boring_xml_url":40,"boring_view_url":1,"soilmap_view_url":null,"soiltest_xml_url":0,"soiltest_view_url":0},{"id":150449,"code":"B4KJ201801003-8698","latitude":"35.80099722","longitude":"139.692915","source_code":"KT53395555003","project_name":"","survey_name":"\u6238\u7530\u5730\u533a\u4f4e\u6c34\u8b77\u5cb8\u90e8\u5730\u8cea\u8abf\u67fb","client_name":"\u56fd\u571f\u4ea4\u901a\u7701\u95a2\u6771\u5730\u65b9\u6574\u5099\u5c40\u8352\u5ddd\u4e0b\u6d41\u6cb3\u5ddd\u4e8b\u52d9\u6240","boring_xml_url":40,"boring_view_url":1,"soilmap_view_url":null,"soiltest_xml_url":0,"soiltest_view_url":0},{"id":150448,"code":"B4KJ201801003-8697","latitude":"35.79971944","longitude":"139.6943869","source_code":"KT53395555002","project_name":"","survey_name":"\u6238\u7530\u5730\u533a\u571f\u8cea\u8abf\u67fb","client_name":"\u56fd\u571f\u4ea4\u901a\u7701\u95a2\u6771\u5730\u65b9\u6574\u5099\u5c40\u8352\u5ddd\u4e0b\u6d41\u6cb3\u5ddd\u4e8b\u52d9\u6240","boring_xml_url":40,"boring_view_url":1,"soilmap_view_url":null,"soiltest_xml_url":0,"soiltest_view_url":0},{"id":150447,"code":"B4KJ201801003-8696","latitude":"35.799525","longitude":"139.6878878","source_code":"KT53395555001","project_name":"","survey_name":"\u4f4e\u6c34\u8b77\u5cb8\u90e8\u5730\u8cea\u8abf\u67fb(\u305d\u306e3)","client_name":"\u56fd\u571f\u4ea4\u901a\u7701\u95a2\u6771\u5730\u65b9\u6574\u5099\u5c40\u8352\u5ddd\u4e0b\u6d41\u6cb3\u5ddd\u4e8b\u52d9\u6240","boring_xml_url":40,"boring_view_url":1,"soilmap_view_url":null,"soiltest_xml_url":0,"soiltest_view_url":0},{"id":150446,"code":"B4KJ201801003-8695","latitude":"35.79941361","longitude":"139.6778886","source_code":"KT53395554016","project_name":"","survey_name":"\u5357\u753a\u5730\u5148\u4f4e\u6c34\u8b77\u5cb8\u8a73\u7d30\u8a2d\u8a08\u696d\u52d9","client_name":"\u56fd\u571f\u4ea4\u901a\u7701\u95a2\u6771\u5730\u65b9\u6574\u5099\u5c40\u8352\u5ddd\u4e0b\u6d41\u6cb3\u5ddd\u4e8b\u52d9\u6240","boring_xml_url":40,"boring_view_url":1,"soilmap_view_url":null,"soiltest_xml_url":0,"soiltest_view_url":0}]}}