{"header":{"xyz":{"source":[],"mosaic":false},"page":5685,"raw":{"soiltest_result":"0","bbox":"57.598333,109.544722,1.933333,163.806111","page":"5685"},"conditions":{"soiltest_result":0,"north":57.598333,"west":109.544722,"south":1.933333,"east":163.806111},"success":true,"message":""},"data":{"meta":{"total":212844,"page":5685,"pages":7095,"count":30},"values":[{"id":150025,"code":"B4KJ201801003-8274","latitude":"35.67126806","longitude":"139.9258725","source_code":"KT53394704018","project_name":"","survey_name":"\u5e73\u621011\u5e74\u5ea6\u5343\u9ce5\u753a\u7acb\u4f53\u5730\u8cea\u8abf\u67fb\u696d\u52d9","client_name":"\u56fd\u571f\u4ea4\u901a\u7701\u95a2\u6771\u5730\u65b9\u6574\u5099\u5c40\u9996\u90fd\u56fd\u9053\u4e8b\u52d9\u6240","boring_xml_url":40,"boring_view_url":1,"soilmap_view_url":null,"soiltest_xml_url":0,"soiltest_view_url":0},{"id":150024,"code":"B4KJ201801003-8273","latitude":"35.67076806","longitude":"139.9259003","source_code":"KT53394704017","project_name":"","survey_name":"\u5e73\u621011\u5e74\u5ea6\u5343\u9ce5\u753a\u7acb\u4f53\u5730\u8cea\u8abf\u67fb\u696d\u52d9","client_name":"\u56fd\u571f\u4ea4\u901a\u7701\u95a2\u6771\u5730\u65b9\u6574\u5099\u5c40\u9996\u90fd\u56fd\u9053\u4e8b\u52d9\u6240","boring_xml_url":40,"boring_view_url":1,"soilmap_view_url":null,"soiltest_xml_url":0,"soiltest_view_url":0},{"id":150023,"code":"B4KJ201801003-8272","latitude":"35.67115694","longitude":"139.9256228","source_code":"KT53394704016","project_name":"","survey_name":"\u5e73\u621011\u5e74\u5ea6\u5343\u9ce5\u753a\u7acb\u4f53\u5730\u8cea\u8abf\u67fb\u696d\u52d9","client_name":"\u56fd\u571f\u4ea4\u901a\u7701\u95a2\u6771\u5730\u65b9\u6574\u5099\u5c40\u9996\u90fd\u56fd\u9053\u4e8b\u52d9\u6240","boring_xml_url":40,"boring_view_url":1,"soilmap_view_url":null,"soiltest_xml_url":0,"soiltest_view_url":0},{"id":150022,"code":"B4KJ201801003-8271","latitude":"35.67796194","longitude":"139.9339828","source_code":"KT53394704015","project_name":"","survey_name":"\u5e73\u62108\u5e74\u5ea6 \u4e00\u822c\u56fd\u9053357\u53f7\u9ad8\u6d5c\u7acb\u4f53\u5730\u8cea\u8abf\u67fb\u59d4\u8a17","client_name":"\u56fd\u571f\u4ea4\u901a\u7701\u95a2\u6771\u5730\u65b9\u6574\u5099\u5c40\u9996\u90fd\u56fd\u9053\u4e8b\u52d9\u6240","boring_xml_url":40,"boring_view_url":1,"soilmap_view_url":null,"soiltest_xml_url":0,"soiltest_view_url":0},{"id":150021,"code":"B4KJ201801003-8270","latitude":"35.67768417","longitude":"139.9334272","source_code":"KT53394704014","project_name":"","survey_name":"\u5e73\u62108\u5e74\u5ea6 \u4e00\u822c\u56fd\u9053357\u53f7\u9ad8\u6d5c\u7acb\u4f53\u5730\u8cea\u8abf\u67fb\u59d4\u8a17","client_name":"\u56fd\u571f\u4ea4\u901a\u7701\u95a2\u6771\u5730\u65b9\u6574\u5099\u5c40\u9996\u90fd\u56fd\u9053\u4e8b\u52d9\u6240","boring_xml_url":40,"boring_view_url":1,"soilmap_view_url":null,"soiltest_xml_url":0,"soiltest_view_url":0},{"id":150020,"code":"B4KJ201801003-8269","latitude":"35.67768417","longitude":"139.9331494","source_code":"KT53394704013","project_name":"","survey_name":"\u5e73\u62108\u5e74\u5ea6 \u4e00\u822c\u56fd\u9053357\u53f7\u9ad8\u6d5c\u7acb\u4f53\u5730\u8cea\u8abf\u67fb\u59d4\u8a17","client_name":"\u56fd\u571f\u4ea4\u901a\u7701\u95a2\u6771\u5730\u65b9\u6574\u5099\u5c40\u9996\u90fd\u56fd\u9053\u4e8b\u52d9\u6240","boring_xml_url":40,"boring_view_url":1,"soilmap_view_url":null,"soiltest_xml_url":0,"soiltest_view_url":0},{"id":150019,"code":"B4KJ201801003-8268","latitude":"35.67712861","longitude":"139.9328717","source_code":"KT53394704012","project_name":"","survey_name":"\u5e73\u62108\u5e74\u5ea6 \u4e00\u822c\u56fd\u9053357\u53f7\u9ad8\u6d5c\u7acb\u4f53\u5730\u8cea\u8abf\u67fb\u59d4\u8a17","client_name":"\u56fd\u571f\u4ea4\u901a\u7701\u95a2\u6771\u5730\u65b9\u6574\u5099\u5c40\u9996\u90fd\u56fd\u9053\u4e8b\u52d9\u6240","boring_xml_url":40,"boring_view_url":1,"soilmap_view_url":null,"soiltest_xml_url":0,"soiltest_view_url":0},{"id":150018,"code":"B4KJ201801003-8267","latitude":"35.67740639","longitude":"139.9325939","source_code":"KT53394704011","project_name":"","survey_name":"\u5e73\u62108\u5e74\u5ea6 \u4e00\u822c\u56fd\u9053357\u53f7 \u9ad8\u6d5c\u7acb\u4f53\u5730\u8cea\u8abf\u67fb\u59d4\u8a17","client_name":"\u56fd\u571f\u4ea4\u901a\u7701\u95a2\u6771\u5730\u65b9\u6574\u5099\u5c40\u9996\u90fd\u56fd\u9053\u4e8b\u52d9\u6240","boring_xml_url":40,"boring_view_url":1,"soilmap_view_url":null,"soiltest_xml_url":0,"soiltest_view_url":0},{"id":150017,"code":"B4KJ201801003-8266","latitude":"35.67226806","longitude":"139.9284278","source_code":"KT53394704010","project_name":"","survey_name":"\u4e00\u822c\u56fd\u905314\u53f7(\u6e7e\u5cb8)\u884c\u5fb3\u5730\u8cea\u8abf\u67fb","client_name":"\u56fd\u571f\u4ea4\u901a\u7701\u95a2\u6771\u5730\u65b9\u6574\u5099\u5c40\u9996\u90fd\u56fd\u9053\u4e8b\u52d9\u6240","boring_xml_url":40,"boring_view_url":1,"soilmap_view_url":null,"soiltest_xml_url":0,"soiltest_view_url":0},{"id":150016,"code":"B4KJ201801003-8265","latitude":"35.67237889","longitude":"139.9282892","source_code":"KT53394704009","project_name":"","survey_name":"\u4e00\u822c\u56fd\u905314\u53f7(\u6e7e\u5cb8)\u884c\u5fb3\u5730\u8cea\u8abf\u67fb","client_name":"\u56fd\u571f\u4ea4\u901a\u7701\u95a2\u6771\u5730\u65b9\u6574\u5099\u5c40\u9996\u90fd\u56fd\u9053\u4e8b\u52d9\u6240","boring_xml_url":40,"boring_view_url":1,"soilmap_view_url":null,"soiltest_xml_url":0,"soiltest_view_url":0},{"id":150015,"code":"B4KJ201801003-8264","latitude":"35.67340667","longitude":"139.9298444","source_code":"KT53394704008","project_name":"","survey_name":"\u4e00\u822c\u56fd\u905314\u53f7(\u6e7e\u5cb8)\u884c\u5fb3\u5730\u8cea\u8abf\u67fb","client_name":"\u56fd\u571f\u4ea4\u901a\u7701\u95a2\u6771\u5730\u65b9\u6574\u5099\u5c40\u9996\u90fd\u56fd\u9053\u4e8b\u52d9\u6240","boring_xml_url":40,"boring_view_url":1,"soilmap_view_url":null,"soiltest_xml_url":0,"soiltest_view_url":0},{"id":150014,"code":"B4KJ201801003-8263","latitude":"35.67362889","longitude":"139.92965","source_code":"KT53394704007","project_name":"","survey_name":"\u4e00\u822c\u56fd\u905314\u53f7(\u6e7e\u5cb8)\u884c\u5fb3\u5730\u8cea\u8abf\u67fb","client_name":"\u56fd\u571f\u4ea4\u901a\u7701\u95a2\u6771\u5730\u65b9\u6574\u5099\u5c40\u9996\u90fd\u56fd\u9053\u4e8b\u52d9\u6240","boring_xml_url":40,"boring_view_url":1,"soilmap_view_url":null,"soiltest_xml_url":0,"soiltest_view_url":0},{"id":150013,"code":"B4KJ201801003-8262","latitude":"35.67443444","longitude":"139.9309831","source_code":"KT53394704006","project_name":"","survey_name":"\u4e00\u822c\u56fd\u905314\u53f7(\u6e7e\u5cb8)\u884c\u5fb3\u5730\u8cea\u8abf\u67fb","client_name":"\u56fd\u571f\u4ea4\u901a\u7701\u95a2\u6771\u5730\u65b9\u6574\u5099\u5c40\u9996\u90fd\u56fd\u9053\u4e8b\u52d9\u6240","boring_xml_url":40,"boring_view_url":1,"soilmap_view_url":null,"soiltest_xml_url":0,"soiltest_view_url":0},{"id":150012,"code":"B4KJ201801003-8261","latitude":"35.67465667","longitude":"139.9307886","source_code":"KT53394704005","project_name":"","survey_name":"\u4e00\u822c\u56fd\u905314\u53f7(\u6e7e\u5cb8)\u884c\u5fb3\u5730\u8cea\u8abf\u67fb","client_name":"\u56fd\u571f\u4ea4\u901a\u7701\u95a2\u6771\u5730\u65b9\u6574\u5099\u5c40\u9996\u90fd\u56fd\u9053\u4e8b\u52d9\u6240","boring_xml_url":40,"boring_view_url":1,"soilmap_view_url":null,"soiltest_xml_url":0,"soiltest_view_url":0},{"id":150011,"code":"B4KJ201801003-8260","latitude":"35.67543444","longitude":"139.9321219","source_code":"KT53394704004","project_name":"","survey_name":"\u4e00\u822c\u56fd\u905314\u53f7(\u6e7e\u5cb8)\u884c\u5fb3\u5730\u8cea\u8abf\u67fb","client_name":"\u56fd\u571f\u4ea4\u901a\u7701\u95a2\u6771\u5730\u65b9\u6574\u5099\u5c40\u9996\u90fd\u56fd\u9053\u4e8b\u52d9\u6240","boring_xml_url":40,"boring_view_url":1,"soilmap_view_url":null,"soiltest_xml_url":0,"soiltest_view_url":0},{"id":150010,"code":"B4KJ201801003-8259","latitude":"35.67565639","longitude":"139.9319275","source_code":"KT53394704003","project_name":"","survey_name":"\u4e00\u822c\u56fd\u905314\u53f7(\u6e7e\u5cb8)\u884c\u5fb3\u5730\u8cea\u8abf\u67fb","client_name":"\u56fd\u571f\u4ea4\u901a\u7701\u95a2\u6771\u5730\u65b9\u6574\u5099\u5c40\u9996\u90fd\u56fd\u9053\u4e8b\u52d9\u6240","boring_xml_url":40,"boring_view_url":1,"soilmap_view_url":null,"soiltest_xml_url":0,"soiltest_view_url":0},{"id":150009,"code":"B4KJ201801003-8258","latitude":"35.67646194","longitude":"139.9334272","source_code":"KT53394704002","project_name":"","survey_name":"\u4e00\u822c\u56fd\u905314\u53f7(\u6e7e\u5cb8)\u884c\u5fb3\u5730\u8cea\u8abf\u67fb","client_name":"\u56fd\u571f\u4ea4\u901a\u7701\u95a2\u6771\u5730\u65b9\u6574\u5099\u5c40\u9996\u90fd\u56fd\u9053\u4e8b\u52d9\u6240","boring_xml_url":40,"boring_view_url":1,"soilmap_view_url":null,"soiltest_xml_url":0,"soiltest_view_url":0},{"id":150008,"code":"B4KJ201801003-8257","latitude":"35.67668417","longitude":"139.9331494","source_code":"KT53394704001","project_name":"","survey_name":"\u4e00\u822c\u56fd\u905314\u53f7(\u6e7e\u5cb8)\u884c\u5fb3\u5730\u8cea\u8abf\u67fb","client_name":"\u56fd\u571f\u4ea4\u901a\u7701\u95a2\u6771\u5730\u65b9\u6574\u5099\u5c40\u9996\u90fd\u56fd\u9053\u4e8b\u52d9\u6240","boring_xml_url":40,"boring_view_url":1,"soilmap_view_url":null,"soiltest_xml_url":0,"soiltest_view_url":0},{"id":150007,"code":"B4KJ201801003-8256","latitude":"35.75156278","longitude":"139.8612081","source_code":"KT53394699002","project_name":"","survey_name":"\u4e2d\u5ddd\u4e0b\u6d41\u90e8\u5824\u9632\u571f\u8cea\u8abf\u67fb\u305d\u306e2","client_name":"\u56fd\u571f\u4ea4\u901a\u7701\u95a2\u6771\u5730\u65b9\u6574\u5099\u5c40\u6c5f\u6238\u5ddd\u6cb3\u5ddd\u4e8b\u52d9\u6240","boring_xml_url":40,"boring_view_url":1,"soilmap_view_url":null,"soiltest_xml_url":0,"soiltest_view_url":0},{"id":150006,"code":"B4KJ201801003-8255","latitude":"35.74656306","longitude":"139.8467653","source_code":"KT53394698001","project_name":"","survey_name":"\u845b\u98fe\u5730\u533a\u30dc\u30fc\u30ea\u30f3\u30b0\u5de5\u4e8b","client_name":"\u56fd\u571f\u4ea4\u901a\u7701\u95a2\u6771\u5730\u65b9\u6574\u5099\u5c40\u9996\u90fd\u56fd\u9053\u4e8b\u52d9\u6240","boring_xml_url":40,"boring_view_url":1,"soilmap_view_url":null,"soiltest_xml_url":0,"soiltest_view_url":0},{"id":150005,"code":"B4KJ201801003-8254","latitude":"35.74667389","longitude":"139.8458208","source_code":"KT53394697002","project_name":"","survey_name":"\u845b\u98fe\u5730\u533a\u30dc\u30fc\u30ea\u30f3\u30b0\u5de5\u4e8b","client_name":"\u56fd\u571f\u4ea4\u901a\u7701\u95a2\u6771\u5730\u65b9\u6574\u5099\u5c40\u9996\u90fd\u56fd\u9053\u4e8b\u52d9\u6240","boring_xml_url":40,"boring_view_url":1,"soilmap_view_url":null,"soiltest_xml_url":0,"soiltest_view_url":0},{"id":150004,"code":"B4KJ201801003-8253","latitude":"35.74681278","longitude":"139.8448208","source_code":"KT53394697001","project_name":"","survey_name":"\u845b\u98fe\u5730\u533a\u30dc\u30fc\u30ea\u30f3\u30b0\u5de5\u4e8b","client_name":"\u56fd\u571f\u4ea4\u901a\u7701\u95a2\u6771\u5730\u65b9\u6574\u5099\u5c40\u9996\u90fd\u56fd\u9053\u4e8b\u52d9\u6240","boring_xml_url":40,"boring_view_url":1,"soilmap_view_url":null,"soiltest_xml_url":0,"soiltest_view_url":0},{"id":150003,"code":"B4KJ201801003-8252","latitude":"35.75278361","longitude":"139.8164897","source_code":"KT53394695035","project_name":"","survey_name":"\u8352\u5ddd\u4e0b\u6d41\u8b77\u5cb8\u8a2d\u8a08\u7b49\u696d\u52d9","client_name":"\u56fd\u571f\u4ea4\u901a\u7701\u95a2\u6771\u5730\u65b9\u6574\u5099\u5c40\u8352\u5ddd\u4e0b\u6d41\u6cb3\u5ddd\u4e8b\u52d9\u6240","boring_xml_url":40,"boring_view_url":1,"soilmap_view_url":null,"soiltest_xml_url":0,"soiltest_view_url":0},{"id":150002,"code":"B4KJ201801003-8251","latitude":"35.749895","longitude":"139.8191286","source_code":"KT53394695034","project_name":"","survey_name":"\u7dca\u6025\u7528\u6cb3\u5ddd\u6577\u9053\u8def\u6a4b\u6881\u30fb\u5742\u8def\u8a2d\u8a08\u696d\u52d9","client_name":"\u56fd\u571f\u4ea4\u901a\u7701\u95a2\u6771\u5730\u65b9\u6574\u5099\u5c40\u8352\u5ddd\u4e0b\u6d41\u6cb3\u5ddd\u4e8b\u52d9\u6240","boring_xml_url":40,"boring_view_url":1,"soilmap_view_url":null,"soiltest_xml_url":0,"soiltest_view_url":0},{"id":150001,"code":"B4KJ201801003-8250","latitude":"35.74933972","longitude":"139.8192675","source_code":"KT53394695033","project_name":"","survey_name":"\u7dca\u6025\u7528\u6cb3\u5ddd\u6577\u9053\u8def\u6a4b\u6881\u30fb\u5742\u8def\u8a2d\u8a08\u696d\u52d9","client_name":"\u56fd\u571f\u4ea4\u901a\u7701\u95a2\u6771\u5730\u65b9\u6574\u5099\u5c40\u8352\u5ddd\u4e0b\u6d41\u6cb3\u5ddd\u4e8b\u52d9\u6240","boring_xml_url":40,"boring_view_url":1,"soilmap_view_url":null,"soiltest_xml_url":0,"soiltest_view_url":0},{"id":150000,"code":"B4KJ201801003-8249","latitude":"35.75195028","longitude":"139.8115458","source_code":"KT53394695029","project_name":"","survey_name":"\u8db3\u7acb\u5730\u533a\u5730\u8cea\u8abf\u67fb","client_name":"\u56fd\u571f\u4ea4\u901a\u7701\u95a2\u6771\u5730\u65b9\u6574\u5099\u5c40\u8352\u5ddd\u4e0b\u6d41\u6cb3\u5ddd\u4e8b\u52d9\u6240","boring_xml_url":40,"boring_view_url":1,"soilmap_view_url":null,"soiltest_xml_url":0,"soiltest_view_url":0},{"id":149999,"code":"B4KJ201801003-8248","latitude":"35.75058944","longitude":"139.8127678","source_code":"KT53394695028","project_name":"","survey_name":"\u8db3\u7acb\u5730\u533a\u5730\u8cea\u8abf\u67fb","client_name":"\u56fd\u571f\u4ea4\u901a\u7701\u95a2\u6771\u5730\u65b9\u6574\u5099\u5c40\u8352\u5ddd\u4e0b\u6d41\u6cb3\u5ddd\u4e8b\u52d9\u6240","boring_xml_url":40,"boring_view_url":1,"soilmap_view_url":null,"soiltest_xml_url":0,"soiltest_view_url":0},{"id":149998,"code":"B4KJ201801003-8247","latitude":"35.74825639","longitude":"139.8146011","source_code":"KT53394695027","project_name":"","survey_name":"\u8db3\u7acb\u5730\u533a\u5730\u8cea\u8abf\u67fb","client_name":"\u56fd\u571f\u4ea4\u901a\u7701\u95a2\u6771\u5730\u65b9\u6574\u5099\u5c40\u8352\u5ddd\u4e0b\u6d41\u6cb3\u5ddd\u4e8b\u52d9\u6240","boring_xml_url":40,"boring_view_url":1,"soilmap_view_url":null,"soiltest_xml_url":0,"soiltest_view_url":0},{"id":149997,"code":"B4KJ201801003-8246","latitude":"35.74539556","longitude":"139.8162122","source_code":"KT53394695026","project_name":"","survey_name":"\u8db3\u7acb\u5730\u533a\u5730\u8cea\u8abf\u67fb","client_name":"\u56fd\u571f\u4ea4\u901a\u7701\u95a2\u6771\u5730\u65b9\u6574\u5099\u5c40\u8352\u5ddd\u4e0b\u6d41\u6cb3\u5ddd\u4e8b\u52d9\u6240","boring_xml_url":40,"boring_view_url":1,"soilmap_view_url":null,"soiltest_xml_url":0,"soiltest_view_url":0},{"id":149996,"code":"B4KJ201801003-8245","latitude":"35.75067278","longitude":"139.8129344","source_code":"KT53394695025","project_name":"","survey_name":"\u8db3\u7acb\u5730\u533a\u5730\u8cea\u8abf\u67fb","client_name":"\u56fd\u571f\u4ea4\u901a\u7701\u95a2\u6771\u5730\u65b9\u6574\u5099\u5c40\u8352\u5ddd\u4e0b\u6d41\u6cb3\u5ddd\u4e8b\u52d9\u6240","boring_xml_url":40,"boring_view_url":1,"soilmap_view_url":null,"soiltest_xml_url":0,"soiltest_view_url":0}]}}