{"header":{"xyz":{"source":[],"mosaic":false},"page":5686,"raw":{"soiltest_result":"0","bbox":"57.598333,109.544722,1.933333,163.806111","page":"5686"},"conditions":{"soiltest_result":0,"north":57.598333,"west":109.544722,"south":1.933333,"east":163.806111},"success":true,"message":""},"data":{"meta":{"total":212844,"page":5686,"pages":7095,"count":30},"values":[{"id":149995,"code":"B4KJ201801003-8244","latitude":"35.74950611","longitude":"139.8139344","source_code":"KT53394695024","project_name":"","survey_name":"\u8db3\u7acb\u5730\u533a\u5730\u8cea\u8abf\u67fb","client_name":"\u56fd\u571f\u4ea4\u901a\u7701\u95a2\u6771\u5730\u65b9\u6574\u5099\u5c40\u8352\u5ddd\u4e0b\u6d41\u6cb3\u5ddd\u4e8b\u52d9\u6240","boring_xml_url":40,"boring_view_url":1,"soilmap_view_url":null,"soiltest_xml_url":0,"soiltest_view_url":0},{"id":149994,"code":"B4KJ201801003-8243","latitude":"35.74833972","longitude":"139.8148233","source_code":"KT53394695023","project_name":"","survey_name":"\u8db3\u7acb\u5730\u533a\u5730\u8cea\u8abf\u67fb","client_name":"\u56fd\u571f\u4ea4\u901a\u7701\u95a2\u6771\u5730\u65b9\u6574\u5099\u5c40\u8352\u5ddd\u4e0b\u6d41\u6cb3\u5ddd\u4e8b\u52d9\u6240","boring_xml_url":40,"boring_view_url":1,"soilmap_view_url":null,"soiltest_xml_url":0,"soiltest_view_url":0},{"id":149993,"code":"B4KJ201801003-8242","latitude":"35.75208917","longitude":"139.8118233","source_code":"KT53394695022","project_name":"","survey_name":"\u8db3\u7acb\u5730\u533a\u5730\u8cea\u8abf\u67fb","client_name":"\u56fd\u571f\u4ea4\u901a\u7701\u95a2\u6771\u5730\u65b9\u6574\u5099\u5c40\u8352\u5ddd\u4e0b\u6d41\u6cb3\u5ddd\u4e8b\u52d9\u6240","boring_xml_url":40,"boring_view_url":1,"soilmap_view_url":null,"soiltest_xml_url":0,"soiltest_view_url":0},{"id":149992,"code":"B4KJ201801003-8241","latitude":"35.74958944","longitude":"139.8140456","source_code":"KT53394695021","project_name":"","survey_name":"\u8db3\u7acb\u5730\u533a\u5730\u8cea\u8abf\u67fb","client_name":"\u56fd\u571f\u4ea4\u901a\u7701\u95a2\u6771\u5730\u65b9\u6574\u5099\u5c40\u8352\u5ddd\u4e0b\u6d41\u6cb3\u5ddd\u4e8b\u52d9\u6240","boring_xml_url":40,"boring_view_url":1,"soilmap_view_url":null,"soiltest_xml_url":0,"soiltest_view_url":0},{"id":149991,"code":"B4KJ201801003-8240","latitude":"35.74714528","longitude":"139.8158233","source_code":"KT53394695020","project_name":"","survey_name":"\u8db3\u7acb\u5730\u533a\u5730\u8cea\u8abf\u67fb","client_name":"\u56fd\u571f\u4ea4\u901a\u7701\u95a2\u6771\u5730\u65b9\u6574\u5099\u5c40\u8352\u5ddd\u4e0b\u6d41\u6cb3\u5ddd\u4e8b\u52d9\u6240","boring_xml_url":40,"boring_view_url":1,"soilmap_view_url":null,"soiltest_xml_url":0,"soiltest_view_url":0},{"id":149990,"code":"B4KJ201801003-8239","latitude":"35.74595111","longitude":"139.8165456","source_code":"KT53394695019","project_name":"","survey_name":"\u8db3\u7acb\u5730\u533a\u5730\u8cea\u8abf\u67fb","client_name":"\u56fd\u571f\u4ea4\u901a\u7701\u95a2\u6771\u5730\u65b9\u6574\u5099\u5c40\u8352\u5ddd\u4e0b\u6d41\u6cb3\u5ddd\u4e8b\u52d9\u6240","boring_xml_url":40,"boring_view_url":1,"soilmap_view_url":null,"soiltest_xml_url":0,"soiltest_view_url":0},{"id":149989,"code":"B4KJ201801003-8238","latitude":"35.75083944","longitude":"139.8191006","source_code":"KT53394695018","project_name":"","survey_name":"\u7dbe\u702c\u7b2c\u4e8c\u6392\u6c34\u6a5f\u5834\u5730\u8cea\u8abf\u67fb(\u305d\u306e2)","client_name":"\u56fd\u571f\u4ea4\u901a\u7701\u95a2\u6771\u5730\u65b9\u6574\u5099\u5c40\u8352\u5ddd\u4e0b\u6d41\u6cb3\u5ddd\u4e8b\u52d9\u6240","boring_xml_url":40,"boring_view_url":1,"soilmap_view_url":null,"soiltest_xml_url":0,"soiltest_view_url":0},{"id":149988,"code":"B4KJ201801003-8237","latitude":"35.75075611","longitude":"139.8189342","source_code":"KT53394695017","project_name":"","survey_name":"\u7dbe\u702c\u7b2c\u4e8c\u6392\u6c34\u6a5f\u5834\u5730\u8cea\u8abf\u67fb(\u305d\u306e2)","client_name":"\u56fd\u571f\u4ea4\u901a\u7701\u95a2\u6771\u5730\u65b9\u6574\u5099\u5c40\u8352\u5ddd\u4e0b\u6d41\u6cb3\u5ddd\u4e8b\u52d9\u6240","boring_xml_url":40,"boring_view_url":1,"soilmap_view_url":null,"soiltest_xml_url":0,"soiltest_view_url":0},{"id":149987,"code":"B4KJ201801003-8236","latitude":"35.750645","longitude":"139.8186842","source_code":"KT53394695016","project_name":"","survey_name":"\u7dbe\u702c\u7b2c\u4e8c\u6392\u6c34\u6a5f\u5834\u5730\u8cea\u8abf\u67fb(\u305d\u306e2)","client_name":"\u56fd\u571f\u4ea4\u901a\u7701\u95a2\u6771\u5730\u65b9\u6574\u5099\u5c40\u8352\u5ddd\u4e0b\u6d41\u6cb3\u5ddd\u4e8b\u52d9\u6240","boring_xml_url":40,"boring_view_url":1,"soilmap_view_url":null,"soiltest_xml_url":0,"soiltest_view_url":0},{"id":149986,"code":"B4KJ201801003-8235","latitude":"35.75042278","longitude":"139.8180731","source_code":"KT53394695015","project_name":"","survey_name":"\u7dbe\u702c\u7b2c\u4e8c\u6392\u6c34\u6a5f\u5834\u5730\u8cea\u8abf\u67fb(\u305d\u306e2)","client_name":"\u56fd\u571f\u4ea4\u901a\u7701\u95a2\u6771\u5730\u65b9\u6574\u5099\u5c40\u8352\u5ddd\u4e0b\u6d41\u6cb3\u5ddd\u4e8b\u52d9\u6240","boring_xml_url":40,"boring_view_url":1,"soilmap_view_url":null,"soiltest_xml_url":0,"soiltest_view_url":0},{"id":149985,"code":"B4KJ201801003-8234","latitude":"35.75028389","longitude":"139.8179342","source_code":"KT53394695014","project_name":"","survey_name":"\u7dbe\u702c\u7b2c\u4e8c\u6392\u6c34\u6a5f\u5834\u5730\u8cea\u8abf\u67fb(\u305d\u306e2)","client_name":"\u56fd\u571f\u4ea4\u901a\u7701\u95a2\u6771\u5730\u65b9\u6574\u5099\u5c40\u8352\u5ddd\u4e0b\u6d41\u6cb3\u5ddd\u4e8b\u52d9\u6240","boring_xml_url":40,"boring_view_url":1,"soilmap_view_url":null,"soiltest_xml_url":0,"soiltest_view_url":0},{"id":149984,"code":"B4KJ201801003-8233","latitude":"35.75097833","longitude":"139.8173231","source_code":"KT53394695013","project_name":"","survey_name":"\u7dbe\u702c\u7b2c\u4e8c\u6392\u6c34\u6a5f\u5834\u5730\u8cea\u8abf\u67fb(\u305d\u306e2)","client_name":"\u56fd\u571f\u4ea4\u901a\u7701\u95a2\u6771\u5730\u65b9\u6574\u5099\u5c40\u8352\u5ddd\u4e0b\u6d41\u6cb3\u5ddd\u4e8b\u52d9\u6240","boring_xml_url":40,"boring_view_url":1,"soilmap_view_url":null,"soiltest_xml_url":0,"soiltest_view_url":0},{"id":149983,"code":"B4KJ201801003-8232","latitude":"35.74958972","longitude":"139.8184064","source_code":"KT53394695012","project_name":"","survey_name":"\u7dbe\u702c\u7b2c\u4e8c\u6392\u6c34\u6a5f\u5834\u5730\u8cea\u8abf\u67fb(\u305d\u306e2)","client_name":"\u56fd\u571f\u4ea4\u901a\u7701\u95a2\u6771\u5730\u65b9\u6574\u5099\u5c40\u8352\u5ddd\u4e0b\u6d41\u6cb3\u5ddd\u4e8b\u52d9\u6240","boring_xml_url":40,"boring_view_url":1,"soilmap_view_url":null,"soiltest_xml_url":0,"soiltest_view_url":0},{"id":149982,"code":"B4KJ201801003-8231","latitude":"35.75156167","longitude":"139.8178786","source_code":"KT53394695011","project_name":"","survey_name":"\u8352\u5ddd\u4e0b\u6d41\u90e8\u6cb3\u5e8a\u571f\u8cea\u8abf\u67fb","client_name":"\u56fd\u571f\u4ea4\u901a\u7701\u95a2\u6771\u5730\u65b9\u6574\u5099\u5c40\u8352\u5ddd\u4e0b\u6d41\u6cb3\u5ddd\u4e8b\u52d9\u6240","boring_xml_url":40,"boring_view_url":1,"soilmap_view_url":null,"soiltest_xml_url":0,"soiltest_view_url":0},{"id":149981,"code":"B4KJ201801003-8230","latitude":"35.74933944","longitude":"139.81399","source_code":"KT53394695010","project_name":"","survey_name":"\u8352\u5ddd\u4e0b\u6d41\u90e8\u6cb3\u5e8a\u571f\u8cea\u8abf\u67fb","client_name":"\u56fd\u571f\u4ea4\u901a\u7701\u95a2\u6771\u5730\u65b9\u6574\u5099\u5c40\u8352\u5ddd\u4e0b\u6d41\u6cb3\u5ddd\u4e8b\u52d9\u6240","boring_xml_url":40,"boring_view_url":1,"soilmap_view_url":null,"soiltest_xml_url":0,"soiltest_view_url":0},{"id":149980,"code":"B4KJ201801003-8229","latitude":"35.75017306","longitude":"139.8203783","source_code":"KT53394695009","project_name":"","survey_name":"\u7dbe\u702c\u7b2c\u4e8c\u6392\u6c34\u6a5f\u5834\u5730\u8cea\u8abf\u67fb(\u305d\u306e1)","client_name":"\u56fd\u571f\u4ea4\u901a\u7701\u95a2\u6771\u5730\u65b9\u6574\u5099\u5c40\u8352\u5ddd\u4e0b\u6d41\u6cb3\u5ddd\u4e8b\u52d9\u6240","boring_xml_url":40,"boring_view_url":1,"soilmap_view_url":null,"soiltest_xml_url":0,"soiltest_view_url":0},{"id":149979,"code":"B4KJ201801003-8228","latitude":"35.75017306","longitude":"139.8203783","source_code":"KT53394695008","project_name":"","survey_name":"\u7dbe\u702c\u7b2c\u4e8c\u6392\u6c34\u6a5f\u5834\u5730\u8cea\u8abf\u67fb(\u305d\u306e1)","client_name":"\u56fd\u571f\u4ea4\u901a\u7701\u95a2\u6771\u5730\u65b9\u6574\u5099\u5c40\u8352\u5ddd\u4e0b\u6d41\u6cb3\u5ddd\u4e8b\u52d9\u6240","boring_xml_url":40,"boring_view_url":1,"soilmap_view_url":null,"soiltest_xml_url":0,"soiltest_view_url":0},{"id":149978,"code":"B4KJ201801003-8227","latitude":"35.75017306","longitude":"139.8203783","source_code":"KT53394695007","project_name":"","survey_name":"\u7dbe\u702c\u7b2c\u4e8c\u6392\u6c34\u6a5f\u5834\u5730\u8cea\u8abf\u67fb(\u305d\u306e1)","client_name":"\u56fd\u571f\u4ea4\u901a\u7701\u95a2\u6771\u5730\u65b9\u6574\u5099\u5c40\u8352\u5ddd\u4e0b\u6d41\u6cb3\u5ddd\u4e8b\u52d9\u6240","boring_xml_url":40,"boring_view_url":1,"soilmap_view_url":null,"soiltest_xml_url":0,"soiltest_view_url":0},{"id":149977,"code":"B4KJ201801003-8226","latitude":"35.75017306","longitude":"139.8203783","source_code":"KT53394695006","project_name":"","survey_name":"\u7dbe\u702c\u7b2c\u4e8c\u6392\u6c34\u6a5f\u5834\u5730\u8cea\u8abf\u67fb(\u305d\u306e1)","client_name":"\u56fd\u571f\u4ea4\u901a\u7701\u95a2\u6771\u5730\u65b9\u6574\u5099\u5c40\u8352\u5ddd\u4e0b\u6d41\u6cb3\u5ddd\u4e8b\u52d9\u6240","boring_xml_url":40,"boring_view_url":1,"soilmap_view_url":null,"soiltest_xml_url":0,"soiltest_view_url":0},{"id":149976,"code":"B4KJ201801003-8225","latitude":"35.75017306","longitude":"139.8203783","source_code":"KT53394695005","project_name":"","survey_name":"\u7dbe\u702c\u7b2c\u4e8c\u6392\u6c34\u6a5f\u5834\u5730\u8cea\u8abf\u67fb(\u305d\u306e1)","client_name":"\u56fd\u571f\u4ea4\u901a\u7701\u95a2\u6771\u5730\u65b9\u6574\u5099\u5c40\u8352\u5ddd\u4e0b\u6d41\u6cb3\u5ddd\u4e8b\u52d9\u6240","boring_xml_url":40,"boring_view_url":1,"soilmap_view_url":null,"soiltest_xml_url":0,"soiltest_view_url":0},{"id":149975,"code":"B4KJ201801003-8224","latitude":"35.75017306","longitude":"139.8203783","source_code":"KT53394695004","project_name":"","survey_name":"\u7dbe\u702c\u7b2c\u4e8c\u6392\u6c34\u6a5f\u5834\u5730\u8cea\u8abf\u67fb(\u305d\u306e1)","client_name":"\u56fd\u571f\u4ea4\u901a\u7701\u95a2\u6771\u5730\u65b9\u6574\u5099\u5c40\u8352\u5ddd\u4e0b\u6d41\u6cb3\u5ddd\u4e8b\u52d9\u6240","boring_xml_url":40,"boring_view_url":1,"soilmap_view_url":null,"soiltest_xml_url":0,"soiltest_view_url":0},{"id":149974,"code":"B4KJ201801003-8223","latitude":"35.75017306","longitude":"139.8203783","source_code":"KT53394695003","project_name":"","survey_name":"\u7dbe\u702c\u7b2c\u4e8c\u6392\u6c34\u6a5f\u5834\u5730\u8cea\u8abf\u67fb(\u305d\u306e1)","client_name":"\u56fd\u571f\u4ea4\u901a\u7701\u95a2\u6771\u5730\u65b9\u6574\u5099\u5c40\u8352\u5ddd\u4e0b\u6d41\u6cb3\u5ddd\u4e8b\u52d9\u6240","boring_xml_url":40,"boring_view_url":1,"soilmap_view_url":null,"soiltest_xml_url":0,"soiltest_view_url":0},{"id":149973,"code":"B4KJ201801003-8222","latitude":"35.75017306","longitude":"139.8203783","source_code":"KT53394695002","project_name":"","survey_name":"\u7dbe\u702c\u7b2c\u4e8c\u6392\u6c34\u6a5f\u5834\u5730\u8cea\u8abf\u67fb(\u305d\u306e1)","client_name":"\u56fd\u571f\u4ea4\u901a\u7701\u95a2\u6771\u5730\u65b9\u6574\u5099\u5c40\u8352\u5ddd\u4e0b\u6d41\u6cb3\u5ddd\u4e8b\u52d9\u6240","boring_xml_url":40,"boring_view_url":1,"soilmap_view_url":null,"soiltest_xml_url":0,"soiltest_view_url":0},{"id":149972,"code":"B4KJ201801003-8221","latitude":"35.75017306","longitude":"139.8203783","source_code":"KT53394695001","project_name":"","survey_name":"\u7dbe\u702c\u7b2c\u4e8c\u6392\u6c34\u6a5f\u5834\u5730\u8cea\u8abf\u67fb(\u305d\u306e1)","client_name":"\u56fd\u571f\u4ea4\u901a\u7701\u95a2\u6771\u5730\u65b9\u6574\u5099\u5c40\u8352\u5ddd\u4e0b\u6d41\u6cb3\u5ddd\u4e8b\u52d9\u6240","boring_xml_url":40,"boring_view_url":1,"soilmap_view_url":null,"soiltest_xml_url":0,"soiltest_view_url":0},{"id":149971,"code":"B4KJ201801003-8220","latitude":"35.74267389","longitude":"139.8239894","source_code":"KT53394686002","project_name":"","survey_name":"\u5800\u5207\u4ed62\u30ab\u6240\u8239\u7740\u5834\u5de5\u4e8b\u7528\u6e2c\u91cf\u30fb\u5730\u8cea\u8abf\u67fb","client_name":"\u56fd\u571f\u4ea4\u901a\u7701\u95a2\u6771\u5730\u65b9\u6574\u5099\u5c40\u8352\u5ddd\u4e0b\u6d41\u6cb3\u5ddd\u4e8b\u52d9\u6240","boring_xml_url":40,"boring_view_url":1,"soilmap_view_url":null,"soiltest_xml_url":0,"soiltest_view_url":0},{"id":149970,"code":"B4KJ201801003-8219","latitude":"35.74322944","longitude":"139.8234339","source_code":"KT53394686001","project_name":"","survey_name":"\u5800\u5207\u4ed62\u30ab\u6240\u8239\u7740\u5834\u5de5\u4e8b\u7528\u6e2c\u91cf\u30fb\u5730\u8cea\u8abf\u67fb","client_name":"\u56fd\u571f\u4ea4\u901a\u7701\u95a2\u6771\u5730\u65b9\u6574\u5099\u5c40\u8352\u5ddd\u4e0b\u6d41\u6cb3\u5ddd\u4e8b\u52d9\u6240","boring_xml_url":40,"boring_view_url":1,"soilmap_view_url":null,"soiltest_xml_url":0,"soiltest_view_url":0},{"id":149969,"code":"B4KJ201801003-8218","latitude":"35.74156278","longitude":"139.8184344","source_code":"KT53394685020","project_name":"","survey_name":"\u8352\u5ddd\u4e0b\u6d41\u8b77\u5cb8\u8a2d\u8a08\u7b49\u696d\u52d9","client_name":"\u56fd\u571f\u4ea4\u901a\u7701\u95a2\u6771\u5730\u65b9\u6574\u5099\u5c40\u8352\u5ddd\u4e0b\u6d41\u6cb3\u5ddd\u4e8b\u52d9\u6240","boring_xml_url":40,"boring_view_url":1,"soilmap_view_url":null,"soiltest_xml_url":0,"soiltest_view_url":0},{"id":149968,"code":"B4KJ201801003-8217","latitude":"35.74378472","longitude":"139.8184344","source_code":"KT53394685019","project_name":"","survey_name":"\u8352\u5ddd\u4e0b\u6d41\u8b77\u5cb8\u8a2d\u8a08\u7b49\u696d\u52d9","client_name":"\u56fd\u571f\u4ea4\u901a\u7701\u95a2\u6771\u5730\u65b9\u6574\u5099\u5c40\u8352\u5ddd\u4e0b\u6d41\u6cb3\u5ddd\u4e8b\u52d9\u6240","boring_xml_url":40,"boring_view_url":1,"soilmap_view_url":null,"soiltest_xml_url":0,"soiltest_view_url":0},{"id":149967,"code":"B4KJ201801003-8216","latitude":"35.74072944","longitude":"139.8187678","source_code":"KT53394685016","project_name":"","survey_name":"\u58a8\u7530\u5730\u533a\u5730\u8cea\u8abf\u67fb","client_name":"\u56fd\u571f\u4ea4\u901a\u7701\u95a2\u6771\u5730\u65b9\u6574\u5099\u5c40\u8352\u5ddd\u4e0b\u6d41\u6cb3\u5ddd\u4e8b\u52d9\u6240","boring_xml_url":40,"boring_view_url":1,"soilmap_view_url":null,"soiltest_xml_url":0,"soiltest_view_url":0},{"id":149966,"code":"B4KJ201801003-8215","latitude":"35.73961861","longitude":"139.8193511","source_code":"KT53394685015","project_name":"","survey_name":"\u58a8\u7530\u5730\u533a\u5730\u8cea\u8abf\u67fb","client_name":"\u56fd\u571f\u4ea4\u901a\u7701\u95a2\u6771\u5730\u65b9\u6574\u5099\u5c40\u8352\u5ddd\u4e0b\u6d41\u6cb3\u5ddd\u4e8b\u52d9\u6240","boring_xml_url":40,"boring_view_url":1,"soilmap_view_url":null,"soiltest_xml_url":0,"soiltest_view_url":0}]}}