{"header":{"xyz":{"source":[],"mosaic":false},"page":5701,"raw":{"soiltest_result":"0","bbox":"57.598333,109.544722,1.933333,163.806111","page":"5701"},"conditions":{"soiltest_result":0,"north":57.598333,"west":109.544722,"south":1.933333,"east":163.806111},"success":true,"message":""},"data":{"meta":{"total":212844,"page":5701,"pages":7095,"count":30},"values":[{"id":149545,"code":"B4KJ201801003-7794","latitude":"35.66090583","longitude":"139.8424078","source_code":"KT53393687015","project_name":"","survey_name":"\u9ad8\u6f6e\u5824\u9632\u7de0\u56fa\u5ea6\u8abf\u67fb","client_name":"\u56fd\u571f\u4ea4\u901a\u7701\u95a2\u6771\u5730\u65b9\u6574\u5099\u5c40\u8352\u5ddd\u4e0b\u6d41\u6cb3\u5ddd\u4e8b\u52d9\u6240","boring_xml_url":40,"boring_view_url":1,"soilmap_view_url":null,"soiltest_xml_url":0,"soiltest_view_url":0},{"id":149544,"code":"B4KJ201801003-7793","latitude":"35.66126694","longitude":"139.84413","source_code":"KT53393687014","project_name":"","survey_name":"\u6cb3\u53e3\u90e8\u571f\u8cea\u8abf\u67fb","client_name":"\u56fd\u571f\u4ea4\u901a\u7701\u95a2\u6771\u5730\u65b9\u6574\u5099\u5c40\u8352\u5ddd\u4e0b\u6d41\u6cb3\u5ddd\u4e8b\u52d9\u6240","boring_xml_url":40,"boring_view_url":1,"soilmap_view_url":null,"soiltest_xml_url":0,"soiltest_view_url":0},{"id":149543,"code":"B4KJ201801003-7792","latitude":"35.66065583","longitude":"139.8437133","source_code":"KT53393687013","project_name":"","survey_name":"\u6cb3\u53e3\u90e8\u571f\u8cea\u8abf\u67fb","client_name":"\u56fd\u571f\u4ea4\u901a\u7701\u95a2\u6771\u5730\u65b9\u6574\u5099\u5c40\u8352\u5ddd\u4e0b\u6d41\u6cb3\u5ddd\u4e8b\u52d9\u6240","boring_xml_url":40,"boring_view_url":1,"soilmap_view_url":null,"soiltest_xml_url":0,"soiltest_view_url":0},{"id":149542,"code":"B4KJ201801003-7791","latitude":"35.66051694","longitude":"139.8445467","source_code":"KT53393687012","project_name":"","survey_name":"\u6cb3\u53e3\u90e8\u571f\u8cea\u8abf\u67fb","client_name":"\u56fd\u571f\u4ea4\u901a\u7701\u95a2\u6771\u5730\u65b9\u6574\u5099\u5c40\u8352\u5ddd\u4e0b\u6d41\u6cb3\u5ddd\u4e8b\u52d9\u6240","boring_xml_url":40,"boring_view_url":1,"soilmap_view_url":null,"soiltest_xml_url":0,"soiltest_view_url":0},{"id":149541,"code":"B4KJ201801003-7790","latitude":"35.66051694","longitude":"139.8452411","source_code":"KT53393687011","project_name":"","survey_name":"\u6cb3\u53e3\u90e8\u571f\u8cea\u8abf\u67fb","client_name":"\u56fd\u571f\u4ea4\u901a\u7701\u95a2\u6771\u5730\u65b9\u6574\u5099\u5c40\u8352\u5ddd\u4e0b\u6d41\u6cb3\u5ddd\u4e8b\u52d9\u6240","boring_xml_url":40,"boring_view_url":1,"soilmap_view_url":null,"soiltest_xml_url":0,"soiltest_view_url":0},{"id":149540,"code":"B4KJ201801003-7789","latitude":"35.65976694","longitude":"139.8439911","source_code":"KT53393687010","project_name":"","survey_name":"\u6cb3\u53e3\u90e8\u571f\u8cea\u8abf\u67fb","client_name":"\u56fd\u571f\u4ea4\u901a\u7701\u95a2\u6771\u5730\u65b9\u6574\u5099\u5c40\u8352\u5ddd\u4e0b\u6d41\u6cb3\u5ddd\u4e8b\u52d9\u6240","boring_xml_url":40,"boring_view_url":1,"soilmap_view_url":null,"soiltest_xml_url":0,"soiltest_view_url":0},{"id":149539,"code":"B4KJ201801003-7788","latitude":"35.65968389","longitude":"139.8449633","source_code":"KT53393687009","project_name":"","survey_name":"\u6cb3\u53e3\u90e8\u571f\u8cea\u8abf\u67fb","client_name":"\u56fd\u571f\u4ea4\u901a\u7701\u95a2\u6771\u5730\u65b9\u6574\u5099\u5c40\u8352\u5ddd\u4e0b\u6d41\u6cb3\u5ddd\u4e8b\u52d9\u6240","boring_xml_url":40,"boring_view_url":1,"soilmap_view_url":null,"soiltest_xml_url":0,"soiltest_view_url":0},{"id":149538,"code":"B4KJ201801003-7787","latitude":"35.65890611","longitude":"139.8435744","source_code":"KT53393687008","project_name":"","survey_name":"\u6cb3\u53e3\u90e8\u571f\u8cea\u8abf\u67fb","client_name":"\u56fd\u571f\u4ea4\u901a\u7701\u95a2\u6771\u5730\u65b9\u6574\u5099\u5c40\u8352\u5ddd\u4e0b\u6d41\u6cb3\u5ddd\u4e8b\u52d9\u6240","boring_xml_url":40,"boring_view_url":1,"soilmap_view_url":null,"soiltest_xml_url":0,"soiltest_view_url":0},{"id":149537,"code":"B4KJ201801003-7786","latitude":"35.65882278","longitude":"139.8444078","source_code":"KT53393687007","project_name":"","survey_name":"\u6cb3\u53e3\u90e8\u571f\u8cea\u8abf\u67fb","client_name":"\u56fd\u571f\u4ea4\u901a\u7701\u95a2\u6771\u5730\u65b9\u6574\u5099\u5c40\u8352\u5ddd\u4e0b\u6d41\u6cb3\u5ddd\u4e8b\u52d9\u6240","boring_xml_url":40,"boring_view_url":1,"soilmap_view_url":null,"soiltest_xml_url":0,"soiltest_view_url":0},{"id":149536,"code":"B4KJ201801003-7785","latitude":"35.658795","longitude":"139.8451022","source_code":"KT53393687006","project_name":"","survey_name":"\u6cb3\u53e3\u90e8\u571f\u8cea\u8abf\u67fb","client_name":"\u56fd\u571f\u4ea4\u901a\u7701\u95a2\u6771\u5730\u65b9\u6574\u5099\u5c40\u8352\u5ddd\u4e0b\u6d41\u6cb3\u5ddd\u4e8b\u52d9\u6240","boring_xml_url":40,"boring_view_url":1,"soilmap_view_url":null,"soiltest_xml_url":0,"soiltest_view_url":0},{"id":149535,"code":"B4KJ201801003-7784","latitude":"35.65798944","longitude":"139.8437967","source_code":"KT53393687005","project_name":"","survey_name":"\u6cb3\u53e3\u90e8\u571f\u8cea\u8abf\u67fb","client_name":"\u56fd\u571f\u4ea4\u901a\u7701\u95a2\u6771\u5730\u65b9\u6574\u5099\u5c40\u8352\u5ddd\u4e0b\u6d41\u6cb3\u5ddd\u4e8b\u52d9\u6240","boring_xml_url":40,"boring_view_url":1,"soilmap_view_url":null,"soiltest_xml_url":0,"soiltest_view_url":0},{"id":149534,"code":"B4KJ201801003-7783","latitude":"35.65790611","longitude":"139.8448244","source_code":"KT53393687004","project_name":"","survey_name":"\u6cb3\u53e3\u90e8\u571f\u8cea\u8abf\u67fb","client_name":"\u56fd\u571f\u4ea4\u901a\u7701\u95a2\u6771\u5730\u65b9\u6574\u5099\u5c40\u8352\u5ddd\u4e0b\u6d41\u6cb3\u5ddd\u4e8b\u52d9\u6240","boring_xml_url":40,"boring_view_url":1,"soilmap_view_url":null,"soiltest_xml_url":0,"soiltest_view_url":0},{"id":149533,"code":"B4KJ201801003-7782","latitude":"35.65701722","longitude":"139.8432969","source_code":"KT53393687003","project_name":"","survey_name":"\u6cb3\u53e3\u90e8\u571f\u8cea\u8abf\u67fb","client_name":"\u56fd\u571f\u4ea4\u901a\u7701\u95a2\u6771\u5730\u65b9\u6574\u5099\u5c40\u8352\u5ddd\u4e0b\u6d41\u6cb3\u5ddd\u4e8b\u52d9\u6240","boring_xml_url":40,"boring_view_url":1,"soilmap_view_url":null,"soiltest_xml_url":0,"soiltest_view_url":0},{"id":149532,"code":"B4KJ201801003-7781","latitude":"35.65690639","longitude":"139.8441856","source_code":"KT53393687002","project_name":"","survey_name":"\u6cb3\u53e3\u90e8\u571f\u8cea\u8abf\u67fb","client_name":"\u56fd\u571f\u4ea4\u901a\u7701\u95a2\u6771\u5730\u65b9\u6574\u5099\u5c40\u8352\u5ddd\u4e0b\u6d41\u6cb3\u5ddd\u4e8b\u52d9\u6240","boring_xml_url":40,"boring_view_url":1,"soilmap_view_url":null,"soiltest_xml_url":0,"soiltest_view_url":0},{"id":149531,"code":"B4KJ201801003-7780","latitude":"35.65685083","longitude":"139.8449911","source_code":"KT53393687001","project_name":"","survey_name":"\u6cb3\u53e3\u90e8\u571f\u8cea\u8abf\u67fb","client_name":"\u56fd\u571f\u4ea4\u901a\u7701\u95a2\u6771\u5730\u65b9\u6574\u5099\u5c40\u8352\u5ddd\u4e0b\u6d41\u6cb3\u5ddd\u4e8b\u52d9\u6240","boring_xml_url":40,"boring_view_url":1,"soilmap_view_url":null,"soiltest_xml_url":0,"soiltest_view_url":0},{"id":149530,"code":"B4KJ201801003-7779","latitude":"35.64618556","longitude":"139.8596569","source_code":"KT53393679002","project_name":"","survey_name":"\u845b\u897f\u30fb\u5927\u4e95\u5357\u30fb\u4eac\u6d5c\u5cf6\u5730\u533a\u5730\u8cea\u8abf\u67fb","client_name":"\u56fd\u571f\u4ea4\u901a\u7701\u95a2\u6771\u5730\u65b9\u6574\u5099\u5c40\u6771\u4eac\u56fd\u9053\u4e8b\u52d9\u6240","boring_xml_url":40,"boring_view_url":1,"soilmap_view_url":null,"soiltest_xml_url":0,"soiltest_view_url":0},{"id":149529,"code":"B4KJ201801003-7778","latitude":"35.64507472","longitude":"139.8626844","source_code":"KT53393679001","project_name":"","survey_name":"\u845b\u897f\u30fb\u5927\u4e95\u5357\u30fb\u4eac\u6d5c\u5cf6\u5730\u533a\u5730\u8cea\u8abf\u67fb","client_name":"\u56fd\u571f\u4ea4\u901a\u7701\u95a2\u6771\u5730\u65b9\u6574\u5099\u5c40\u6771\u4eac\u56fd\u9053\u4e8b\u52d9\u6240","boring_xml_url":40,"boring_view_url":1,"soilmap_view_url":null,"soiltest_xml_url":0,"soiltest_view_url":0},{"id":149528,"code":"B4KJ201801003-7777","latitude":"35.64665778","longitude":"139.8581572","source_code":"KT53393678008","project_name":"","survey_name":"\u845b\u897f\u30fb\u5927\u4e95\u5357\u30fb\u4eac\u6d5c\u5cf6\u5730\u533a\u5730\u8cea\u8abf\u67fb","client_name":"\u56fd\u571f\u4ea4\u901a\u7701\u95a2\u6771\u5730\u65b9\u6574\u5099\u5c40\u6771\u4eac\u56fd\u9053\u4e8b\u52d9\u6240","boring_xml_url":40,"boring_view_url":1,"soilmap_view_url":null,"soiltest_xml_url":0,"soiltest_view_url":0},{"id":149527,"code":"B4KJ201801003-7776","latitude":"35.64693528","longitude":"139.8530186","source_code":"KT53393678007","project_name":"","survey_name":"\u8352\u5ddd\u6cb3\u53e3\u6a4b\u5730\u8cea\u8abf\u67fb\u696d\u52d9\u59d4\u8a17","client_name":"\u56fd\u571f\u4ea4\u901a\u7701\u95a2\u6771\u5730\u65b9\u6574\u5099\u5c40\u9996\u90fd\u56fd\u9053\u4e8b\u52d9\u6240","boring_xml_url":40,"boring_view_url":1,"soilmap_view_url":null,"soiltest_xml_url":0,"soiltest_view_url":0},{"id":149526,"code":"B4KJ201801003-7775","latitude":"35.64704639","longitude":"139.8514911","source_code":"KT53393678006","project_name":"","survey_name":"\u8352\u5ddd\u6cb3\u53e3\u6a4b\u5730\u8cea\u8abf\u67fb\u696d\u52d9\u59d4\u8a17","client_name":"\u56fd\u571f\u4ea4\u901a\u7701\u95a2\u6771\u5730\u65b9\u6574\u5099\u5c40\u9996\u90fd\u56fd\u9053\u4e8b\u52d9\u6240","boring_xml_url":40,"boring_view_url":1,"soilmap_view_url":null,"soiltest_xml_url":0,"soiltest_view_url":0},{"id":149525,"code":"B4KJ201801003-7774","latitude":"35.64649083","longitude":"139.8502411","source_code":"KT53393678005","project_name":"","survey_name":"\u8352\u5ddd\u6cb3\u53e3\u6a4b\u5730\u8cea\u8abf\u67fb\u696d\u52d9\u59d4\u8a17","client_name":"\u56fd\u571f\u4ea4\u901a\u7701\u95a2\u6771\u5730\u65b9\u6574\u5099\u5c40\u9996\u90fd\u56fd\u9053\u4e8b\u52d9\u6240","boring_xml_url":40,"boring_view_url":1,"soilmap_view_url":null,"soiltest_xml_url":0,"soiltest_view_url":0},{"id":149524,"code":"B4KJ201801003-7773","latitude":"35.6471575","longitude":"139.8492689","source_code":"KT53393678004","project_name":"","survey_name":"\u8352\u5ddd\u6cb3\u53e3\u6a4b\u5730\u8cea\u8abf\u67fb\u696d\u52d9\u59d4\u8a17","client_name":"\u56fd\u571f\u4ea4\u901a\u7701\u95a2\u6771\u5730\u65b9\u6574\u5099\u5c40\u9996\u90fd\u56fd\u9053\u4e8b\u52d9\u6240","boring_xml_url":40,"boring_view_url":1,"soilmap_view_url":null,"soiltest_xml_url":0,"soiltest_view_url":0},{"id":149523,"code":"B4KJ201801003-7772","latitude":"35.64726861","longitude":"139.8467692","source_code":"KT53393678003","project_name":"","survey_name":"\u8352\u5ddd\u6cb3\u53e3\u6a4b\u5730\u8cea\u8abf\u67fb\u696d\u52d9\u59d4\u8a17","client_name":"\u56fd\u571f\u4ea4\u901a\u7701\u95a2\u6771\u5730\u65b9\u6574\u5099\u5c40\u9996\u90fd\u56fd\u9053\u4e8b\u52d9\u6240","boring_xml_url":40,"boring_view_url":1,"soilmap_view_url":null,"soiltest_xml_url":0,"soiltest_view_url":0},{"id":149522,"code":"B4KJ201801003-7771","latitude":"35.64682417","longitude":"139.8507967","source_code":"KT53393678002","project_name":"","survey_name":"\u8352\u5ddd\u6cb3\u53e3\u9644\u8fd1\u5730\u8cea\u8abf\u67fb\u5de5\u4e8b","client_name":"\u56fd\u571f\u4ea4\u901a\u7701\u95a2\u6771\u5730\u65b9\u6574\u5099\u5c40\u6771\u4eac\u6e7e\u5cb8\u9053\u8def\u8abf\u67fb\u4e8b\u52d9\u6240","boring_xml_url":40,"boring_view_url":1,"soilmap_view_url":null,"soiltest_xml_url":0,"soiltest_view_url":0},{"id":149521,"code":"B4KJ201801003-7770","latitude":"35.64593528","longitude":"139.8485192","source_code":"KT53393678001","project_name":"","survey_name":"\u6771\u4eac\u6e7e\u5730\u8cea\u8abf\u67fb","client_name":"\u56fd\u571f\u4ea4\u901a\u7701\u95a2\u6771\u5730\u65b9\u6574\u5099\u5c40\u6771\u4eac\u6e7e\u5cb8\u9053\u8def\u8abf\u67fb\u4e8b\u52d9\u6240","boring_xml_url":40,"boring_view_url":1,"soilmap_view_url":null,"soiltest_xml_url":0,"soiltest_view_url":0},{"id":149520,"code":"B4KJ201801003-7769","latitude":"35.64682417","longitude":"139.8449639","source_code":"KT53393677009","project_name":"","survey_name":"\u8352\u5ddd\u6cb3\u53e3\u6a4b\u5730\u8cea\u8abf\u67fb\u696d\u52d9\u59d4\u8a17","client_name":"\u56fd\u571f\u4ea4\u901a\u7701\u95a2\u6771\u5730\u65b9\u6574\u5099\u5c40\u9996\u90fd\u56fd\u9053\u4e8b\u52d9\u6240","boring_xml_url":40,"boring_view_url":1,"soilmap_view_url":null,"soiltest_xml_url":0,"soiltest_view_url":0},{"id":149519,"code":"B4KJ201801003-7768","latitude":"35.64949028","longitude":"139.8394086","source_code":"KT53393677008","project_name":"","survey_name":"\u8352\u5ddd\u6cb3\u53e3\u6a4b\u5730\u8cea\u8abf\u67fb\u696d\u52d9\u59d4\u8a17","client_name":"\u56fd\u571f\u4ea4\u901a\u7701\u95a2\u6771\u5730\u65b9\u6574\u5099\u5c40\u9996\u90fd\u56fd\u9053\u4e8b\u52d9\u6240","boring_xml_url":40,"boring_view_url":1,"soilmap_view_url":null,"soiltest_xml_url":0,"soiltest_view_url":0},{"id":149518,"code":"B4KJ201801003-7767","latitude":"35.64760167","longitude":"139.842325","source_code":"KT53393677007","project_name":"","survey_name":"\u8352\u5ddd\u6cb3\u53e3\u6a4b\u5730\u8cea\u8abf\u67fb\u696d\u52d9\u59d4\u8a17","client_name":"\u56fd\u571f\u4ea4\u901a\u7701\u95a2\u6771\u5730\u65b9\u6574\u5099\u5c40\u9996\u90fd\u56fd\u9053\u4e8b\u52d9\u6240","boring_xml_url":40,"boring_view_url":1,"soilmap_view_url":null,"soiltest_xml_url":0,"soiltest_view_url":0},{"id":149517,"code":"B4KJ201801003-7766","latitude":"35.64760167","longitude":"139.8406586","source_code":"KT53393677006","project_name":"","survey_name":"\u8352\u5ddd\u6cb3\u53e3\u6a4b\u5730\u8cea\u8abf\u67fb\u696d\u52d9\u59d4\u8a17","client_name":"\u56fd\u571f\u4ea4\u901a\u7701\u95a2\u6771\u5730\u65b9\u6574\u5099\u5c40\u9996\u90fd\u56fd\u9053\u4e8b\u52d9\u6240","boring_xml_url":40,"boring_view_url":1,"soilmap_view_url":null,"soiltest_xml_url":0,"soiltest_view_url":0},{"id":149516,"code":"B4KJ201801003-7765","latitude":"35.64715722","longitude":"139.8393808","source_code":"KT53393677005","project_name":"","survey_name":"\u8352\u5ddd\u6cb3\u53e3\u6a4b\u5730\u8cea\u8abf\u67fb\u696d\u52d9\u59d4\u8a17","client_name":"\u56fd\u571f\u4ea4\u901a\u7701\u95a2\u6771\u5730\u65b9\u6574\u5099\u5c40\u9996\u90fd\u56fd\u9053\u4e8b\u52d9\u6240","boring_xml_url":40,"boring_view_url":1,"soilmap_view_url":null,"soiltest_xml_url":0,"soiltest_view_url":0}]}}