{"header":{"xyz":{"source":[],"mosaic":false},"page":5711,"raw":{"soiltest_result":"0","bbox":"57.598333,109.544722,1.933333,163.806111","page":"5711"},"conditions":{"soiltest_result":0,"north":57.598333,"west":109.544722,"south":1.933333,"east":163.806111},"success":true,"message":""},"data":{"meta":{"total":212844,"page":5711,"pages":7095,"count":30},"values":[{"id":149245,"code":"B4KJ201801003-7494","latitude":"35.61833861","longitude":"139.2223789","source_code":"KT53393138003","project_name":"","survey_name":"\u65ed\u5c71\u5730\u533a\u5730\u8cea\u8abf\u67fb","client_name":"\u56fd\u571f\u4ea4\u901a\u7701\u95a2\u6771\u5730\u65b9\u6574\u5099\u5c40\u76f8\u6b66\u56fd\u9053\u4e8b\u52d9\u6240","boring_xml_url":40,"boring_view_url":1,"soilmap_view_url":null,"soiltest_xml_url":0,"soiltest_view_url":0},{"id":149244,"code":"B4KJ201801003-7493","latitude":"35.6162","longitude":"139.2240456","source_code":"KT53393138002","project_name":"","survey_name":"16\u53f7\u6a4b\u672c\u30fb\u745e\u7a42\u5730\u533a\u5730\u8cea\u8abf\u67fb","client_name":"\u56fd\u571f\u4ea4\u901a\u7701\u95a2\u6771\u5730\u65b9\u6574\u5099\u5c40\u76f8\u6b66\u56fd\u9053\u4e8b\u52d9\u6240","boring_xml_url":40,"boring_view_url":1,"soilmap_view_url":null,"soiltest_xml_url":0,"soiltest_view_url":0},{"id":149243,"code":"B4KJ201801003-7492","latitude":"35.6162","longitude":"139.2240456","source_code":"KT53393138001","project_name":"","survey_name":"16\u53f7\u6a4b\u672c\u30fb\u745e\u7a42\u5730\u533a\u5730\u8cea\u8abf\u67fb","client_name":"\u56fd\u571f\u4ea4\u901a\u7701\u95a2\u6771\u5730\u65b9\u6574\u5099\u5c40\u76f8\u6b66\u56fd\u9053\u4e8b\u52d9\u6240","boring_xml_url":40,"boring_view_url":1,"soilmap_view_url":null,"soiltest_xml_url":0,"soiltest_view_url":0},{"id":149242,"code":"B4KJ201801003-7491","latitude":"35.61836611","longitude":"139.2206292","source_code":"KT53393137003","project_name":"","survey_name":"\u65ed\u5c71\u5730\u533a\u5730\u8cea\u8abf\u67fb","client_name":"\u56fd\u571f\u4ea4\u901a\u7701\u95a2\u6771\u5730\u65b9\u6574\u5099\u5c40\u76f8\u6b66\u56fd\u9053\u4e8b\u52d9\u6240","boring_xml_url":40,"boring_view_url":1,"soilmap_view_url":null,"soiltest_xml_url":0,"soiltest_view_url":0},{"id":149241,"code":"B4KJ201801003-7490","latitude":"35.61464444","longitude":"139.219185","source_code":"KT53393137002","project_name":"","survey_name":"\u5927\u548c\u7530\u5730\u533a\u305d\u306e\u4ed6\u571f\u8cea\u8abf\u67fb","client_name":"\u56fd\u571f\u4ea4\u901a\u7701\u95a2\u6771\u5730\u65b9\u6574\u5099\u5c40\u9996\u90fd\u56fd\u9053\u4e8b\u52d9\u6240","boring_xml_url":40,"boring_view_url":1,"soilmap_view_url":null,"soiltest_xml_url":0,"soiltest_view_url":0},{"id":149240,"code":"B4KJ201801003-7489","latitude":"35.61475556","longitude":"139.2207125","source_code":"KT53393137001","project_name":"","survey_name":"\u5927\u548c\u7530\u5730\u533a\u305d\u306e\u4ed6\u571f\u8cea\u8abf\u67fb","client_name":"\u56fd\u571f\u4ea4\u901a\u7701\u95a2\u6771\u5730\u65b9\u6574\u5099\u5c40\u9996\u90fd\u56fd\u9053\u4e8b\u52d9\u6240","boring_xml_url":40,"boring_view_url":1,"soilmap_view_url":null,"soiltest_xml_url":0,"soiltest_view_url":0},{"id":149239,"code":"B4KJ201801003-7488","latitude":"35.61969833","longitude":"139.1776606","source_code":"KT53393134001","project_name":"","survey_name":"20\u53f7\u9632\u707d\u5de5\u4e8b\u69cb\u9020\u7269\u691c\u8a0e\u696d\u52d9","client_name":"\u56fd\u571f\u4ea4\u901a\u7701\u95a2\u6771\u5730\u65b9\u6574\u5099\u5c40\u76f8\u6b66\u56fd\u9053\u4e8b\u52d9\u6240","boring_xml_url":40,"boring_view_url":1,"soilmap_view_url":null,"soiltest_xml_url":0,"soiltest_view_url":0},{"id":149238,"code":"B4KJ201801003-7487","latitude":"35.61297639","longitude":"139.15969","source_code":"KT53393133006","project_name":"","survey_name":"20\u53f7\u9632\u707d\u5de5\u4e8b\u69cb\u9020\u7269\u691c\u8a0e\u696d\u52d9","client_name":"\u56fd\u571f\u4ea4\u901a\u7701\u95a2\u6771\u5730\u65b9\u6574\u5099\u5c40\u76f8\u6b66\u56fd\u9053\u4e8b\u52d9\u6240","boring_xml_url":40,"boring_view_url":1,"soilmap_view_url":null,"soiltest_xml_url":0,"soiltest_view_url":0},{"id":149237,"code":"B4KJ201801003-7486","latitude":"35.61275417","longitude":"139.1614678","source_code":"KT53393133005","project_name":"","survey_name":"20\u53f7\u9632\u707d\u5de5\u4e8b\u69cb\u9020\u7269\u691c\u8a0e\u696d\u52d9","client_name":"\u56fd\u571f\u4ea4\u901a\u7701\u95a2\u6771\u5730\u65b9\u6574\u5099\u5c40\u76f8\u6b66\u56fd\u9053\u4e8b\u52d9\u6240","boring_xml_url":40,"boring_view_url":1,"soilmap_view_url":null,"soiltest_xml_url":0,"soiltest_view_url":0},{"id":149236,"code":"B4KJ201801003-7485","latitude":"35.61297639","longitude":"139.1614122","source_code":"KT53393133004","project_name":"","survey_name":"20\u53f7\u9632\u707d\u5de5\u4e8b\u69cb\u9020\u7269\u691c\u8a0e\u696d\u52d9","client_name":"\u56fd\u571f\u4ea4\u901a\u7701\u95a2\u6771\u5730\u65b9\u6574\u5099\u5c40\u76f8\u6b66\u56fd\u9053\u4e8b\u52d9\u6240","boring_xml_url":40,"boring_view_url":1,"soilmap_view_url":null,"soiltest_xml_url":0,"soiltest_view_url":0},{"id":149235,"code":"B4KJ201801003-7484","latitude":"35.61311528","longitude":"139.1602178","source_code":"KT53393133003","project_name":"","survey_name":"\u85e4\u91ce\u30fb\u4e0e\u702c\u5730\u533a\u5730\u8cea\u8abf\u67fb","client_name":"\u56fd\u571f\u4ea4\u901a\u7701\u95a2\u6771\u5730\u65b9\u6574\u5099\u5c40\u76f8\u6b66\u56fd\u9053\u4e8b\u52d9\u6240","boring_xml_url":40,"boring_view_url":1,"soilmap_view_url":null,"soiltest_xml_url":0,"soiltest_view_url":0},{"id":149234,"code":"B4KJ201801003-7483","latitude":"35.61322639","longitude":"139.1605789","source_code":"KT53393133002","project_name":"","survey_name":"\u85e4\u91ce\u30fb\u4e0e\u702c\u5730\u533a\u5730\u8cea\u8abf\u67fb","client_name":"\u56fd\u571f\u4ea4\u901a\u7701\u95a2\u6771\u5730\u65b9\u6574\u5099\u5c40\u76f8\u6b66\u56fd\u9053\u4e8b\u52d9\u6240","boring_xml_url":40,"boring_view_url":1,"soilmap_view_url":null,"soiltest_xml_url":0,"soiltest_view_url":0},{"id":149233,"code":"B4KJ201801003-7482","latitude":"35.61305972","longitude":"139.1605511","source_code":"KT53393133001","project_name":"","survey_name":"\u85e4\u91ce\u30fb\u4e0e\u702c\u5730\u533a\u5730\u8cea\u8abf\u67fb","client_name":"\u56fd\u571f\u4ea4\u901a\u7701\u95a2\u6771\u5730\u65b9\u6574\u5099\u5c40\u76f8\u6b66\u56fd\u9053\u4e8b\u52d9\u6240","boring_xml_url":40,"boring_view_url":1,"soilmap_view_url":null,"soiltest_xml_url":0,"soiltest_view_url":0},{"id":149232,"code":"B4KJ201801003-7481","latitude":"35.6135875","longitude":"139.1588847","source_code":"KT53393132002","project_name":"","survey_name":"20\u53f7\u9632\u707d\u5de5\u4e8b\u69cb\u9020\u7269\u691c\u8a0e\u696d\u52d9","client_name":"\u56fd\u571f\u4ea4\u901a\u7701\u95a2\u6771\u5730\u65b9\u6574\u5099\u5c40\u76f8\u6b66\u56fd\u9053\u4e8b\u52d9\u6240","boring_xml_url":40,"boring_view_url":1,"soilmap_view_url":null,"soiltest_xml_url":0,"soiltest_view_url":0},{"id":149231,"code":"B4KJ201801003-7480","latitude":"35.61561472","longitude":"139.1505797","source_code":"KT53393132001","project_name":"","survey_name":"20\u53f7\u9632\u707d\u5de5\u4e8b\u69cb\u9020\u7269\u691c\u8a0e\u696d\u52d9","client_name":"\u56fd\u571f\u4ea4\u901a\u7701\u95a2\u6771\u5730\u65b9\u6574\u5099\u5c40\u76f8\u6b66\u56fd\u9053\u4e8b\u52d9\u6240","boring_xml_url":40,"boring_view_url":1,"soilmap_view_url":null,"soiltest_xml_url":0,"soiltest_view_url":0},{"id":149230,"code":"B4KJ201801003-7479","latitude":"35.61850278","longitude":"139.1318311","source_code":"KT53393130006","project_name":"","survey_name":"20\u53f7\u85e4\u91ce\u707d\u5bb3\u5fa9\u65e7\u5730\u8cea\u8abf\u67fb","client_name":"\u56fd\u571f\u4ea4\u901a\u7701\u95a2\u6771\u5730\u65b9\u6574\u5099\u5c40\u76f8\u6b66\u56fd\u9053\u4e8b\u52d9\u6240","boring_xml_url":40,"boring_view_url":1,"soilmap_view_url":null,"soiltest_xml_url":0,"soiltest_view_url":0},{"id":149229,"code":"B4KJ201801003-7478","latitude":"35.61850278","longitude":"139.1318311","source_code":"KT53393130005","project_name":"","survey_name":"20\u53f7\u85e4\u91ce\u707d\u5bb3\u5fa9\u65e7\u5730\u8cea\u8abf\u67fb","client_name":"\u56fd\u571f\u4ea4\u901a\u7701\u95a2\u6771\u5730\u65b9\u6574\u5099\u5c40\u76f8\u6b66\u56fd\u9053\u4e8b\u52d9\u6240","boring_xml_url":40,"boring_view_url":1,"soilmap_view_url":null,"soiltest_xml_url":0,"soiltest_view_url":0},{"id":149228,"code":"B4KJ201801003-7477","latitude":"35.61850278","longitude":"139.1318311","source_code":"KT53393130004","project_name":"","survey_name":"20\u53f7\u85e4\u91ce\u707d\u5bb3\u5fa9\u65e7\u5730\u8cea\u8abf\u67fb","client_name":"\u56fd\u571f\u4ea4\u901a\u7701\u95a2\u6771\u5730\u65b9\u6574\u5099\u5c40\u76f8\u6b66\u56fd\u9053\u4e8b\u52d9\u6240","boring_xml_url":40,"boring_view_url":1,"soilmap_view_url":null,"soiltest_xml_url":0,"soiltest_view_url":0},{"id":149227,"code":"B4KJ201801003-7476","latitude":"35.61850278","longitude":"139.1318311","source_code":"KT53393130003","project_name":"","survey_name":"20\u53f7\u85e4\u91ce\u707d\u5bb3\u5fa9\u65e7\u5730\u8cea\u8abf\u67fb","client_name":"\u56fd\u571f\u4ea4\u901a\u7701\u95a2\u6771\u5730\u65b9\u6574\u5099\u5c40\u76f8\u6b66\u56fd\u9053\u4e8b\u52d9\u6240","boring_xml_url":40,"boring_view_url":1,"soilmap_view_url":null,"soiltest_xml_url":0,"soiltest_view_url":0},{"id":149226,"code":"B4KJ201801003-7475","latitude":"35.61850278","longitude":"139.1318311","source_code":"KT53393130002","project_name":"","survey_name":"20\u53f7\u85e4\u91ce\u707d\u5bb3\u5fa9\u65e7\u5730\u8cea\u8abf\u67fb","client_name":"\u56fd\u571f\u4ea4\u901a\u7701\u95a2\u6771\u5730\u65b9\u6574\u5099\u5c40\u76f8\u6b66\u56fd\u9053\u4e8b\u52d9\u6240","boring_xml_url":40,"boring_view_url":1,"soilmap_view_url":null,"soiltest_xml_url":0,"soiltest_view_url":0},{"id":149225,"code":"B4KJ201801003-7474","latitude":"35.61850278","longitude":"139.1318311","source_code":"KT53393130001","project_name":"","survey_name":"20\u53f7\u85e4\u91ce\u707d\u5bb3\u5fa9\u65e7\u5730\u8cea\u8abf\u67fb","client_name":"\u56fd\u571f\u4ea4\u901a\u7701\u95a2\u6771\u5730\u65b9\u6574\u5099\u5c40\u76f8\u6b66\u56fd\u9053\u4e8b\u52d9\u6240","boring_xml_url":40,"boring_view_url":1,"soilmap_view_url":null,"soiltest_xml_url":0,"soiltest_view_url":0},{"id":149224,"code":"B4KJ201801003-7473","latitude":"35.60914389","longitude":"139.1768556","source_code":"KT53393124003","project_name":"","survey_name":"20\u53f7\u9632\u707d\u8a2d\u8a08\u305d\u306e2\u696d\u52d9\u59d4\u8a17(\u5730\u8cea\u8abf\u67fb)","client_name":"\u56fd\u571f\u4ea4\u901a\u7701\u95a2\u6771\u5730\u65b9\u6574\u5099\u5c40\u76f8\u6b66\u56fd\u9053\u4e8b\u52d9\u6240","boring_xml_url":40,"boring_view_url":1,"soilmap_view_url":null,"soiltest_xml_url":0,"soiltest_view_url":0},{"id":149223,"code":"B4KJ201801003-7472","latitude":"35.60914389","longitude":"139.1768556","source_code":"KT53393124002","project_name":"","survey_name":"20\u53f7\u9632\u707d\u8a2d\u8a08\u305d\u306e2\u696d\u52d9\u59d4\u8a17(\u5730\u8cea\u8abf\u67fb)","client_name":"\u56fd\u571f\u4ea4\u901a\u7701\u95a2\u6771\u5730\u65b9\u6574\u5099\u5c40\u76f8\u6b66\u56fd\u9053\u4e8b\u52d9\u6240","boring_xml_url":40,"boring_view_url":1,"soilmap_view_url":null,"soiltest_xml_url":0,"soiltest_view_url":0},{"id":149222,"code":"B4KJ201801003-7471","latitude":"35.60914389","longitude":"139.1768556","source_code":"KT53393124001","project_name":"","survey_name":"20\u53f7\u9632\u707d\u8a2d\u8a08\u305d\u306e2\u696d\u52d9\u59d4\u8a17(\u5730\u8cea\u8abf\u67fb)","client_name":"\u56fd\u571f\u4ea4\u901a\u7701\u95a2\u6771\u5730\u65b9\u6574\u5099\u5c40\u76f8\u6b66\u56fd\u9053\u4e8b\u52d9\u6240","boring_xml_url":40,"boring_view_url":1,"soilmap_view_url":null,"soiltest_xml_url":0,"soiltest_view_url":0},{"id":149221,"code":"B4KJ201801003-7470","latitude":"35.60378","longitude":"139.0472556","source_code":"KT53393024002","project_name":"","survey_name":"\u521d\u9e7f\u91ce\u7db1\u4e4b\u4e0a\u5730\u8cea\u8abf\u67fb\u53ca\u3073\u6e2c\u91cf","client_name":"\u56fd\u571f\u4ea4\u901a\u7701\u95a2\u6771\u5730\u65b9\u6574\u5099\u5c40\u7532\u5e9c\u6cb3\u5ddd\u56fd\u9053\u4e8b\u52d9\u6240","boring_xml_url":40,"boring_view_url":1,"soilmap_view_url":null,"soiltest_xml_url":0,"soiltest_view_url":0},{"id":149220,"code":"B4KJ201801003-7469","latitude":"35.60383556","longitude":"139.0478111","source_code":"KT53393024001","project_name":"","survey_name":"\u521d\u9e7f\u91ce\u7db1\u4e4b\u4e0a\u5730\u8cea\u8abf\u67fb\u53ca\u3073\u6e2c\u91cf","client_name":"\u56fd\u571f\u4ea4\u901a\u7701\u95a2\u6771\u5730\u65b9\u6574\u5099\u5c40\u7532\u5e9c\u6cb3\u5ddd\u56fd\u9053\u4e8b\u52d9\u6240","boring_xml_url":40,"boring_view_url":1,"soilmap_view_url":null,"soiltest_xml_url":0,"soiltest_view_url":0},{"id":149219,"code":"B4KJ201801003-7468","latitude":"35.58207889","longitude":"139.7554461","source_code":"KT53392690027","project_name":"","survey_name":"\u845b\u897f\u30fb\u5927\u4e95\u5357\u30fb\u4eac\u6d5c\u5cf6\u5730\u533a\u5730\u8cea\u8abf\u67fb","client_name":"\u56fd\u571f\u4ea4\u901a\u7701\u95a2\u6771\u5730\u65b9\u6574\u5099\u5c40\u6771\u4eac\u56fd\u9053\u4e8b\u52d9\u6240","boring_xml_url":40,"boring_view_url":1,"soilmap_view_url":null,"soiltest_xml_url":0,"soiltest_view_url":0},{"id":149218,"code":"B4KJ201801003-7467","latitude":"35.58399528","longitude":"139.754585","source_code":"KT53392690026","project_name":"","survey_name":"\u845b\u897f\u30fb\u5927\u4e95\u5357\u30fb\u4eac\u6d5c\u5cf6\u5730\u533a\u5730\u8cea\u8abf\u67fb","client_name":"\u56fd\u571f\u4ea4\u901a\u7701\u95a2\u6771\u5730\u65b9\u6574\u5099\u5c40\u6771\u4eac\u56fd\u9053\u4e8b\u52d9\u6240","boring_xml_url":40,"boring_view_url":1,"soilmap_view_url":null,"soiltest_xml_url":0,"soiltest_view_url":0},{"id":149217,"code":"B4KJ201801003-7466","latitude":"35.58468972","longitude":"139.7549739","source_code":"KT53392690025","project_name":"","survey_name":"\u5927\u4e95\u57e0\u982d\u305d\u306e2\u5730\u8cea\u8abf\u67fb","client_name":"\u56fd\u571f\u4ea4\u901a\u7701\u95a2\u6771\u5730\u65b9\u6574\u5099\u5c40","boring_xml_url":40,"boring_view_url":1,"soilmap_view_url":null,"soiltest_xml_url":0,"soiltest_view_url":0},{"id":149216,"code":"B4KJ201801003-7465","latitude":"35.5844675","longitude":"139.7551128","source_code":"KT53392690024","project_name":"","survey_name":"\u5927\u4e95\u57e0\u982d\u305d\u306e2\u5730\u8cea\u8abf\u67fb","client_name":"\u56fd\u571f\u4ea4\u901a\u7701\u95a2\u6771\u5730\u65b9\u6574\u5099\u5c40","boring_xml_url":40,"boring_view_url":1,"soilmap_view_url":null,"soiltest_xml_url":0,"soiltest_view_url":0}]}}