{"header":{"xyz":{"source":[],"mosaic":false},"page":5719,"raw":{"soiltest_result":"0","bbox":"57.598333,109.544722,1.933333,163.806111","page":"5719"},"conditions":{"soiltest_result":0,"north":57.598333,"west":109.544722,"south":1.933333,"east":163.806111},"success":true,"message":""},"data":{"meta":{"total":212844,"page":5719,"pages":7095,"count":30},"values":[{"id":149005,"code":"B4KJ201801003-7254","latitude":"35.54091639","longitude":"139.7372272","source_code":"KT53392549032","project_name":"","survey_name":"\u5927\u5e2b\u6cb3\u539f\u5730\u5148\u5730\u8cea\u8abf\u67fb(\u305d\u306e1)\u696d\u52d9","client_name":"\u56fd\u571f\u4ea4\u901a\u7701\u95a2\u6771\u5730\u65b9\u6574\u5099\u5c40\u4eac\u6d5c\u6cb3\u5ddd\u4e8b\u52d9\u6240","boring_xml_url":40,"boring_view_url":1,"soilmap_view_url":null,"soiltest_xml_url":0,"soiltest_view_url":0},{"id":149004,"code":"B4KJ201801003-7253","latitude":"35.54422194","longitude":"139.7466428","source_code":"KT53392549022","project_name":"","survey_name":"\u6238\u624b\u5730\u533a\u5730\u8cea\u8abf\u67fb\u696d\u52d9","client_name":"\u56fd\u571f\u4ea4\u901a\u7701\u95a2\u6771\u5730\u65b9\u6574\u5099\u5c40\u4eac\u6d5c\u6cb3\u5ddd\u4e8b\u52d9\u6240","boring_xml_url":40,"boring_view_url":1,"soilmap_view_url":null,"soiltest_xml_url":0,"soiltest_view_url":0},{"id":149003,"code":"B4KJ201801003-7252","latitude":"35.54483278","longitude":"139.7421989","source_code":"KT53392549021","project_name":"","survey_name":"\u6238\u624b\u5730\u533a\u5730\u8cea\u8abf\u67fb\u696d\u52d9","client_name":"\u56fd\u571f\u4ea4\u901a\u7701\u95a2\u6771\u5730\u65b9\u6574\u5099\u5c40\u4eac\u6d5c\u6cb3\u5ddd\u4e8b\u52d9\u6240","boring_xml_url":40,"boring_view_url":1,"soilmap_view_url":null,"soiltest_xml_url":0,"soiltest_view_url":0},{"id":149002,"code":"B4KJ201801003-7251","latitude":"35.5369725","longitude":"139.739005","source_code":"KT53392549012","project_name":"","survey_name":"\u5ddd\u5d0e\u7e26\u8cab\u9053\u8def(15\u53f7\uff5e\u6e7e\u5cb8\u9593)\u5730\u8cea\u8abf\u67fb(\u305d\u306e2)","client_name":"\u56fd\u571f\u4ea4\u901a\u7701\u95a2\u6771\u5730\u65b9\u6574\u5099\u5c40\u5ddd?\u56fd\u9053\u4e8b\u52d9\u6240","boring_xml_url":40,"boring_view_url":1,"soilmap_view_url":null,"soiltest_xml_url":0,"soiltest_view_url":0},{"id":149001,"code":"B4KJ201801003-7250","latitude":"35.53700028","longitude":"139.7430325","source_code":"KT53392549011","project_name":"","survey_name":"\u5ddd\u5d0e\u7e26\u8cab\u9053\u8def(15\u53f7\uff5e\u6e7e\u5cb8\u9593)\u5730\u8cea\u8abf\u67fb(\u305d\u306e2)","client_name":"\u56fd\u571f\u4ea4\u901a\u7701\u95a2\u6771\u5730\u65b9\u6574\u5099\u5c40\u5ddd?\u56fd\u9053\u4e8b\u52d9\u6240","boring_xml_url":40,"boring_view_url":1,"soilmap_view_url":null,"soiltest_xml_url":0,"soiltest_view_url":0},{"id":149000,"code":"B4KJ201801003-7249","latitude":"35.53711139","longitude":"139.739005","source_code":"KT53392549010","project_name":"","survey_name":"\u5ddd\u5d0e\u7e26\u8cab\u9053\u8def(15\u53f7\uff5e\u6e7e\u5cb8\u9593)\u5730\u8cea\u8abf\u67fb(\u305d\u306e2)","client_name":"\u56fd\u571f\u4ea4\u901a\u7701\u95a2\u6771\u5730\u65b9\u6574\u5099\u5c40\u5ddd?\u56fd\u9053\u4e8b\u52d9\u6240","boring_xml_url":40,"boring_view_url":1,"soilmap_view_url":null,"soiltest_xml_url":0,"soiltest_view_url":0},{"id":148999,"code":"B4KJ201801003-7248","latitude":"35.53975","longitude":"139.7388658","source_code":"KT53392549009","project_name":"","survey_name":"\u5ddd\u5d0e\u7e26\u8cab\u9053\u8def(15\u53f7\uff5e\u6e7e\u5cb8\u9593)\u5730\u8cea\u8abf\u67fb(\u305d\u306e2)","client_name":"\u56fd\u571f\u4ea4\u901a\u7701\u95a2\u6771\u5730\u65b9\u6574\u5099\u5c40\u5ddd?\u56fd\u9053\u4e8b\u52d9\u6240","boring_xml_url":40,"boring_view_url":1,"soilmap_view_url":null,"soiltest_xml_url":0,"soiltest_view_url":0},{"id":148998,"code":"B4KJ201801003-7247","latitude":"35.53816667","longitude":"139.7378383","source_code":"KT53392549008","project_name":"","survey_name":"\u5ddd\u5d0e\u7e26\u8cab\u9053\u8def(15\u53f7\uff5e\u6e7e\u5cb8\u9593)\u5730\u8cea\u8abf\u67fb(\u305d\u306e2)","client_name":"\u56fd\u571f\u4ea4\u901a\u7701\u95a2\u6771\u5730\u65b9\u6574\u5099\u5c40\u5ddd?\u56fd\u9053\u4e8b\u52d9\u6240","boring_xml_url":40,"boring_view_url":1,"soilmap_view_url":null,"soiltest_xml_url":0,"soiltest_view_url":0},{"id":148997,"code":"B4KJ201801003-7246","latitude":"35.53708361","longitude":"139.7379217","source_code":"KT53392549007","project_name":"","survey_name":"\u5ddd\u5d0e\u7e26\u8cab\u9053\u8def(15\u53f7\uff5e\u6e7e\u5cb8\u9593)\u5730\u8cea\u8abf\u67fb(\u305d\u306e2)","client_name":"\u56fd\u571f\u4ea4\u901a\u7701\u95a2\u6771\u5730\u65b9\u6574\u5099\u5c40\u5ddd?\u56fd\u9053\u4e8b\u52d9\u6240","boring_xml_url":40,"boring_view_url":1,"soilmap_view_url":null,"soiltest_xml_url":0,"soiltest_view_url":0},{"id":148996,"code":"B4KJ201801003-7245","latitude":"35.54074972","longitude":"139.7356994","source_code":"KT53392549006","project_name":"","survey_name":"\u5ddd\u5d0e\u7e26\u8cab\u9053\u8def(15\u53f7\uff5e\u6e7e\u5cb8\u9593)\u5730\u8cea\u8abf\u67fb(\u305d\u306e2)","client_name":"\u56fd\u571f\u4ea4\u901a\u7701\u95a2\u6771\u5730\u65b9\u6574\u5099\u5c40\u5ddd?\u56fd\u9053\u4e8b\u52d9\u6240","boring_xml_url":40,"boring_view_url":1,"soilmap_view_url":null,"soiltest_xml_url":0,"soiltest_view_url":0},{"id":148995,"code":"B4KJ201801003-7244","latitude":"35.54075","longitude":"139.7405325","source_code":"KT53392549005","project_name":"","survey_name":"\u591a\u6469\u5ddd\u6cb3\u5e8a\u571f\u58cc\u53ca\u3073\u5730\u8cea\u8abf\u67fb(\u571f\u58cc)","client_name":"\u56fd\u571f\u4ea4\u901a\u7701\u95a2\u6771\u5730\u65b9\u6574\u5099\u5c40\u4eac\u6d5c\u6cb3\u5ddd\u4e8b\u52d9\u6240","boring_xml_url":40,"boring_view_url":1,"soilmap_view_url":null,"soiltest_xml_url":0,"soiltest_view_url":0},{"id":148994,"code":"B4KJ201801003-7243","latitude":"35.54075","longitude":"139.7405325","source_code":"KT53392549004","project_name":"","survey_name":"\u591a\u6469\u5ddd\u6cb3\u5e8a\u571f\u58cc\u53ca\u3073\u5730\u8cea\u8abf\u67fb(\u571f\u58cc)","client_name":"\u56fd\u571f\u4ea4\u901a\u7701\u95a2\u6771\u5730\u65b9\u6574\u5099\u5c40\u4eac\u6d5c\u6cb3\u5ddd\u4e8b\u52d9\u6240","boring_xml_url":40,"boring_view_url":1,"soilmap_view_url":null,"soiltest_xml_url":0,"soiltest_view_url":0},{"id":148993,"code":"B4KJ201801003-7242","latitude":"35.54075","longitude":"139.7405325","source_code":"KT53392549003","project_name":"","survey_name":"\u591a\u6469\u5ddd\u6cb3\u5e8a\u571f\u58cc\u53ca\u3073\u5730\u8cea\u8abf\u67fb(\u571f\u58cc)","client_name":"\u56fd\u571f\u4ea4\u901a\u7701\u95a2\u6771\u5730\u65b9\u6574\u5099\u5c40\u4eac\u6d5c\u6cb3\u5ddd\u4e8b\u52d9\u6240","boring_xml_url":40,"boring_view_url":1,"soilmap_view_url":null,"soiltest_xml_url":0,"soiltest_view_url":0},{"id":148992,"code":"B4KJ201801003-7241","latitude":"35.54075","longitude":"139.7405325","source_code":"KT53392549002","project_name":"","survey_name":"\u591a\u6469\u5ddd\u6cb3\u5e8a\u571f\u58cc\u53ca\u3073\u5730\u8cea\u8abf\u67fb(\u571f\u58cc)","client_name":"\u56fd\u571f\u4ea4\u901a\u7701\u95a2\u6771\u5730\u65b9\u6574\u5099\u5c40\u4eac\u6d5c\u6cb3\u5ddd\u4e8b\u52d9\u6240","boring_xml_url":40,"boring_view_url":1,"soilmap_view_url":null,"soiltest_xml_url":0,"soiltest_view_url":0},{"id":148991,"code":"B4KJ201801003-7240","latitude":"35.54133306","longitude":"139.7405325","source_code":"KT53392549001","project_name":"","survey_name":"\u591a\u6469\u5ddd\u4e0b\u6d41\u5730\u533a\u5730\u8cea\u8abf\u67fb","client_name":"\u56fd\u571f\u4ea4\u901a\u7701\u95a2\u6771\u5730\u65b9\u6574\u5099\u5c40\u4eac\u6d5c\u6cb3\u5ddd\u4e8b\u52d9\u6240","boring_xml_url":40,"boring_view_url":1,"soilmap_view_url":null,"soiltest_xml_url":0,"soiltest_view_url":0},{"id":148990,"code":"B4KJ201801003-7239","latitude":"35.5443325","longitude":"139.7253114","source_code":"KT53392548015","project_name":"","survey_name":"\u5357\u516d\u90f7\u4ed67\u7b87\u6240\u5730\u8cea\u8abf\u67fb\u696d\u52d9","client_name":"\u56fd\u571f\u4ea4\u901a\u7701\u95a2\u6771\u5730\u65b9\u6574\u5099\u5c40\u4eac\u6d5c\u6cb3\u5ddd\u4e8b\u52d9\u6240","boring_xml_url":40,"boring_view_url":1,"soilmap_view_url":null,"soiltest_xml_url":0,"soiltest_view_url":0},{"id":148989,"code":"B4KJ201801003-7238","latitude":"35.53680556","longitude":"139.7324778","source_code":"KT53392548012","project_name":"","survey_name":"\u5ddd\u5d0e\u7e26\u8cab\u9053\u8def(15\u53f7\uff5e\u6e7e\u5cb8\u9593)\u5730\u8cea\u8abf\u67fb(\u305d\u306e2)","client_name":"\u56fd\u571f\u4ea4\u901a\u7701\u95a2\u6771\u5730\u65b9\u6574\u5099\u5c40\u5ddd?\u56fd\u9053\u4e8b\u52d9\u6240","boring_xml_url":40,"boring_view_url":1,"soilmap_view_url":null,"soiltest_xml_url":0,"soiltest_view_url":0},{"id":148988,"code":"B4KJ201801003-7237","latitude":"35.53694444","longitude":"139.7297836","source_code":"KT53392548011","project_name":"","survey_name":"\u5ddd\u5d0e\u7e26\u8cab\u9053\u8def(15\u53f7\uff5e\u6e7e\u5cb8\u9593)\u5730\u8cea\u8abf\u67fb(\u305d\u306e2)","client_name":"\u56fd\u571f\u4ea4\u901a\u7701\u95a2\u6771\u5730\u65b9\u6574\u5099\u5c40\u5ddd?\u56fd\u9053\u4e8b\u52d9\u6240","boring_xml_url":40,"boring_view_url":1,"soilmap_view_url":null,"soiltest_xml_url":0,"soiltest_view_url":0},{"id":148987,"code":"B4KJ201801003-7236","latitude":"35.53691667","longitude":"139.7283947","source_code":"KT53392548010","project_name":"","survey_name":"\u5ddd\u5d0e\u7e26\u8cab\u9053\u8def(15\u53f7\uff5e\u6e7e\u5cb8\u9593)\u5730\u8cea\u8abf\u67fb(\u305d\u306e2)","client_name":"\u56fd\u571f\u4ea4\u901a\u7701\u95a2\u6771\u5730\u65b9\u6574\u5099\u5c40\u5ddd?\u56fd\u9053\u4e8b\u52d9\u6240","boring_xml_url":40,"boring_view_url":1,"soilmap_view_url":null,"soiltest_xml_url":0,"soiltest_view_url":0},{"id":148986,"code":"B4KJ201801003-7235","latitude":"35.54133278","longitude":"139.7257281","source_code":"KT53392548009","project_name":"","survey_name":"\u591a\u6469\u5ddd\u6cb3\u5e8a\u571f\u58cc\u53ca\u3073\u5730\u8cea\u8abf\u67fb(\u571f\u58cc)","client_name":"\u56fd\u571f\u4ea4\u901a\u7701\u95a2\u6771\u5730\u65b9\u6574\u5099\u5c40\u4eac\u6d5c\u6cb3\u5ddd\u4e8b\u52d9\u6240","boring_xml_url":40,"boring_view_url":1,"soilmap_view_url":null,"soiltest_xml_url":0,"soiltest_view_url":0},{"id":148985,"code":"B4KJ201801003-7234","latitude":"35.54074944","longitude":"139.7280336","source_code":"KT53392548008","project_name":"","survey_name":"\u591a\u6469\u5ddd\u6cb3\u5e8a\u571f\u58cc\u53ca\u3073\u5730\u8cea\u8abf\u67fb(\u571f\u58cc)","client_name":"\u56fd\u571f\u4ea4\u901a\u7701\u95a2\u6771\u5730\u65b9\u6574\u5099\u5c40\u4eac\u6d5c\u6cb3\u5ddd\u4e8b\u52d9\u6240","boring_xml_url":40,"boring_view_url":1,"soilmap_view_url":null,"soiltest_xml_url":0,"soiltest_view_url":0},{"id":148984,"code":"B4KJ201801003-7233","latitude":"35.54380472","longitude":"139.7277556","source_code":"KT53392548007","project_name":"","survey_name":"\u591a\u6469\u5ddd\u6cb3\u5e8a\u571f\u58cc\u53ca\u3073\u5730\u8cea\u8abf\u67fb(\u571f\u58cc)","client_name":"\u56fd\u571f\u4ea4\u901a\u7701\u95a2\u6771\u5730\u65b9\u6574\u5099\u5c40\u4eac\u6d5c\u6cb3\u5ddd\u4e8b\u52d9\u6240","boring_xml_url":40,"boring_view_url":1,"soilmap_view_url":null,"soiltest_xml_url":0,"soiltest_view_url":0},{"id":148983,"code":"B4KJ201801003-7232","latitude":"35.54074944","longitude":"139.7280336","source_code":"KT53392548006","project_name":"","survey_name":"\u591a\u6469\u5ddd\u6cb3\u5e8a\u571f\u58cc\u53ca\u3073\u5730\u8cea\u8abf\u67fb(\u571f\u58cc)","client_name":"\u56fd\u571f\u4ea4\u901a\u7701\u95a2\u6771\u5730\u65b9\u6574\u5099\u5c40\u4eac\u6d5c\u6cb3\u5ddd\u4e8b\u52d9\u6240","boring_xml_url":40,"boring_view_url":1,"soilmap_view_url":null,"soiltest_xml_url":0,"soiltest_view_url":0},{"id":148982,"code":"B4KJ201801003-7231","latitude":"35.54147167","longitude":"139.7281725","source_code":"KT53392548005","project_name":"","survey_name":"\u591a\u6469\u5ddd\u6cb3\u5e8a\u571f\u58cc\u53ca\u3073\u5730\u8cea\u8abf\u67fb(\u571f\u58cc)","client_name":"\u56fd\u571f\u4ea4\u901a\u7701\u95a2\u6771\u5730\u65b9\u6574\u5099\u5c40\u4eac\u6d5c\u6cb3\u5ddd\u4e8b\u52d9\u6240","boring_xml_url":40,"boring_view_url":1,"soilmap_view_url":null,"soiltest_xml_url":0,"soiltest_view_url":0},{"id":148981,"code":"B4KJ201801003-7230","latitude":"35.54177722","longitude":"139.7303944","source_code":"KT53392548004","project_name":"","survey_name":"\u591a\u6469\u5ddd\u6cb3\u5e8a\u571f\u58cc\u53ca\u3073\u5730\u8cea\u8abf\u67fb(\u571f\u58cc)","client_name":"\u56fd\u571f\u4ea4\u901a\u7701\u95a2\u6771\u5730\u65b9\u6574\u5099\u5c40\u4eac\u6d5c\u6cb3\u5ddd\u4e8b\u52d9\u6240","boring_xml_url":40,"boring_view_url":1,"soilmap_view_url":null,"soiltest_xml_url":0,"soiltest_view_url":0},{"id":148980,"code":"B4KJ201801003-7229","latitude":"35.54341611","longitude":"139.7302833","source_code":"KT53392548003","project_name":"","survey_name":"\u591a\u6469\u5ddd\u6cb3\u5e8a\u571f\u58cc\u53ca\u3073\u5730\u8cea\u8abf\u67fb(\u571f\u58cc)","client_name":"\u56fd\u571f\u4ea4\u901a\u7701\u95a2\u6771\u5730\u65b9\u6574\u5099\u5c40\u4eac\u6d5c\u6cb3\u5ddd\u4e8b\u52d9\u6240","boring_xml_url":40,"boring_view_url":1,"soilmap_view_url":null,"soiltest_xml_url":0,"soiltest_view_url":0},{"id":148979,"code":"B4KJ201801003-7228","latitude":"35.541555","longitude":"139.7229228","source_code":"KT53392548002","project_name":"","survey_name":"\u591a\u6469\u5ddd\u6cb3\u5e8a\u571f\u58cc\u53ca\u3073\u5730\u8cea\u8abf\u67fb(\u571f\u58cc)","client_name":"\u56fd\u571f\u4ea4\u901a\u7701\u95a2\u6771\u5730\u65b9\u6574\u5099\u5c40\u4eac\u6d5c\u6cb3\u5ddd\u4e8b\u52d9\u6240","boring_xml_url":40,"boring_view_url":1,"soilmap_view_url":null,"soiltest_xml_url":0,"soiltest_view_url":0},{"id":148978,"code":"B4KJ201801003-7227","latitude":"35.54074944","longitude":"139.7280336","source_code":"KT53392548001","project_name":"","survey_name":"\u591a\u6469\u5ddd\u6cb3\u5e8a\u571f\u58cc\u53ca\u3073\u5730\u8cea\u8abf\u67fb(\u571f\u58cc)","client_name":"\u56fd\u571f\u4ea4\u901a\u7701\u95a2\u6771\u5730\u65b9\u6574\u5099\u5c40\u4eac\u6d5c\u6cb3\u5ddd\u4e8b\u52d9\u6240","boring_xml_url":40,"boring_view_url":1,"soilmap_view_url":null,"soiltest_xml_url":0,"soiltest_view_url":0},{"id":148977,"code":"B4KJ201801003-7226","latitude":"35.53691639","longitude":"139.7181733","source_code":"KT53392547003","project_name":"","survey_name":"\u591a\u6469\u5ddd\u4e0b\u6d41\u5730\u533a\u5730\u8cea\u8abf\u67fb","client_name":"\u56fd\u571f\u4ea4\u901a\u7701\u95a2\u6771\u5730\u65b9\u6574\u5099\u5c40\u4eac\u6d5c\u6cb3\u5ddd\u4e8b\u52d9\u6240","boring_xml_url":40,"boring_view_url":1,"soilmap_view_url":null,"soiltest_xml_url":0,"soiltest_view_url":0},{"id":148976,"code":"B4KJ201801003-7225","latitude":"35.53794389","longitude":"139.713285","source_code":"KT53392547002","project_name":"","survey_name":"\u591a\u6469\u5ddd\u6cb3\u5e8a\u571f\u58cc\u53ca\u3073\u5730\u8cea\u8abf\u67fb(\u571f\u58cc)","client_name":"\u56fd\u571f\u4ea4\u901a\u7701\u95a2\u6771\u5730\u65b9\u6574\u5099\u5c40\u4eac\u6d5c\u6cb3\u5ddd\u4e8b\u52d9\u6240","boring_xml_url":40,"boring_view_url":1,"soilmap_view_url":null,"soiltest_xml_url":0,"soiltest_view_url":0}]}}