{"header":{"xyz":{"source":[],"mosaic":false},"page":573,"raw":{"soiltest_result":"0","bbox":"57.598333,109.544722,1.933333,163.806111","page":"573"},"conditions":{"soiltest_result":0,"north":57.598333,"west":109.544722,"south":1.933333,"east":163.806111},"success":true,"message":""},"data":{"meta":{"total":212844,"page":573,"pages":7095,"count":30},"values":[{"id":528228,"code":"B4KJ202201003-0764","latitude":"33.2076","longitude":"133.155783","source_code":"168860432000190001","project_name":"\u5e73\u621028\u5e74\u5ea6\u3000\u7aaa\u5ddd\u4f50\u8cc0\u9053\u8def\uff08\u7aaa\u5ddd\u5de5\u533a\uff09\u6c34\u6587\u8abf\u67fb\u696d\u52d9","survey_name":"\u5e73\u621028\u5e74\u5ea6\u3000\u7aaa\u5ddd\u4f50\u8cc0\u9053\u8def\uff08\u7aaa\u5ddd\u5de5\u533a\uff09\u6c34\u6587\u8abf\u67fb\u696d\u52d9","client_name":"\u56fd\u571f\u4ea4\u901a\u7701\u3000\u56db\u56fd\u5730\u65b9\u6574\u5099\u5c40\u3000\u4e2d\u6751\u6cb3\u5ddd\u56fd\u9053\u4e8b\u52d9\u6240","boring_xml_url":64,"boring_view_url":1,"soilmap_view_url":null,"soiltest_xml_url":0,"soiltest_view_url":0},{"id":528227,"code":"B4KJ202201003-0763","latitude":"33.206869","longitude":"133.156828","source_code":"168860432000090002","project_name":"\u5e73\u621028\u5e74\u5ea6\u3000\u7aaa\u5ddd\u4f50\u8cc0\u9053\u8def\uff08\u7aaa\u5ddd\u5de5\u533a\uff09\u6c34\u6587\u8abf\u67fb\u696d\u52d9","survey_name":"\u5e73\u621028\u5e74\u5ea6\u3000\u7aaa\u5ddd\u4f50\u8cc0\u9053\u8def\uff08\u7aaa\u5ddd\u5de5\u533a\uff09\u6c34\u6587\u8abf\u67fb\u696d\u52d9","client_name":"\u56fd\u571f\u4ea4\u901a\u7701\u3000\u56db\u56fd\u5730\u65b9\u6574\u5099\u5c40\u3000\u4e2d\u6751\u6cb3\u5ddd\u56fd\u9053\u4e8b\u52d9\u6240","boring_xml_url":64,"boring_view_url":1,"soilmap_view_url":null,"soiltest_xml_url":0,"soiltest_view_url":0},{"id":528226,"code":"B4KJ202201003-0762","latitude":"33.208258","longitude":"133.158797","source_code":"168860432000090001","project_name":"\u5e73\u621028\u5e74\u5ea6\u3000\u7aaa\u5ddd\u4f50\u8cc0\u9053\u8def\uff08\u7aaa\u5ddd\u5de5\u533a\uff09\u6c34\u6587\u8abf\u67fb\u696d\u52d9","survey_name":"\u5e73\u621028\u5e74\u5ea6\u3000\u7aaa\u5ddd\u4f50\u8cc0\u9053\u8def\uff08\u7aaa\u5ddd\u5de5\u533a\uff09\u6c34\u6587\u8abf\u67fb\u696d\u52d9","client_name":"\u56fd\u571f\u4ea4\u901a\u7701\u3000\u56db\u56fd\u5730\u65b9\u6574\u5099\u5c40\u3000\u4e2d\u6751\u6cb3\u5ddd\u56fd\u9053\u4e8b\u52d9\u6240","boring_xml_url":64,"boring_view_url":1,"soilmap_view_url":null,"soiltest_xml_url":0,"soiltest_view_url":0},{"id":528225,"code":"B4KJ202201003-0761","latitude":"33.597833","longitude":"133.699472","source_code":"168855602000150006","project_name":"","survey_name":"\u5e73\u621028\u5e74\u5ea6\u3000\u7269\u90e8\u5ddd\u5824\u9632\u5730\u8cea\u8abf\u67fb\u696d\u52d9","client_name":"\u56fd\u571f\u4ea4\u901a\u7701\u3000\u56db\u56fd\u5730\u65b9\u6574\u5099\u5c40\u3000\u9ad8\u77e5\u6cb3\u5ddd\u56fd\u9053\u4e8b\u52d9\u6240","boring_xml_url":64,"boring_view_url":1,"soilmap_view_url":null,"soiltest_xml_url":0,"soiltest_view_url":0},{"id":528224,"code":"B4KJ202201003-0760","latitude":"33.597972","longitude":"133.699389","source_code":"168855602000150005","project_name":"","survey_name":"\u5e73\u621028\u5e74\u5ea6\u3000\u7269\u90e8\u5ddd\u5824\u9632\u5730\u8cea\u8abf\u67fb\u696d\u52d9","client_name":"\u56fd\u571f\u4ea4\u901a\u7701\u3000\u56db\u56fd\u5730\u65b9\u6574\u5099\u5c40\u3000\u9ad8\u77e5\u6cb3\u5ddd\u56fd\u9053\u4e8b\u52d9\u6240","boring_xml_url":64,"boring_view_url":1,"soilmap_view_url":null,"soiltest_xml_url":0,"soiltest_view_url":0},{"id":528223,"code":"B4KJ202201003-0759","latitude":"33.496605","longitude":"133.453177","source_code":"168855602000150004","project_name":"","survey_name":"\"\u5e73\u621028\u5e74\u5ea6 \u68ee\u5c71\u5824\u9632\u6f0f\u6c34\u5bfe\u7b56\u8a73\u7d30\u8a2d\u8a08\u5916\u696d\u52d9\"","client_name":"\"\u56fd\u571f\u4ea4\u901a\u7701 \u56db\u56fd\u5730\u65b9\u6574\u5099\u5c40 \u9ad8\u77e5\u6cb3\u5ddd\u56fd\u9053\u4e8b\u52d9\u6240\"","boring_xml_url":64,"boring_view_url":1,"soilmap_view_url":null,"soiltest_xml_url":0,"soiltest_view_url":0},{"id":528222,"code":"B4KJ202201003-0758","latitude":"33.492607","longitude":"133.459211","source_code":"168855602000150003","project_name":"","survey_name":"\"\u5e73\u621028\u5e74\u5ea6 \u68ee\u5c71\u5824\u9632\u6f0f\u6c34\u5bfe\u7b56\u8a73\u7d30\u8a2d\u8a08\u5916\u696d\u52d9\"","client_name":"\"\u56fd\u571f\u4ea4\u901a\u7701 \u56db\u56fd\u5730\u65b9\u6574\u5099\u5c40 \u9ad8\u77e5\u6cb3\u5ddd\u56fd\u9053\u4e8b\u52d9\u6240\"","boring_xml_url":64,"boring_view_url":1,"soilmap_view_url":null,"soiltest_xml_url":0,"soiltest_view_url":0},{"id":528221,"code":"B4KJ202201003-0757","latitude":"33.434739","longitude":"132.689622","source_code":"168855602000150002","project_name":"","survey_name":"\u5e73\u621028\u5e74\u5ea6\u9e7f\u91ce\u5ddd\u30c0\u30e0\u6e56\u659c\u9762\u5730\u8cea\u8abf\u67fb\u696d\u52d9","client_name":"\u56fd\u571f\u4ea4\u901a\u7701\u56db\u56fd\u5730\u65b9\u6574\u5099\u5c40\u5c71\u9ce5\u5742\u30c0\u30e0\u5de5\u4e8b\u4e8b\u52d9\u6240","boring_xml_url":64,"boring_view_url":1,"soilmap_view_url":null,"soiltest_xml_url":0,"soiltest_view_url":0},{"id":528220,"code":"B4KJ202201003-0756","latitude":"33.433547","longitude":"132.693539","source_code":"168855602000150001","project_name":"","survey_name":"\u5e73\u621028\u5e74\u5ea6\u9e7f\u91ce\u5ddd\u30c0\u30e0\u6e56\u659c\u9762\u5730\u8cea\u8abf\u67fb\u696d\u52d9","client_name":"\u56fd\u571f\u4ea4\u901a\u7701\u56db\u56fd\u5730\u65b9\u6574\u5099\u5c40\u5c71\u9ce5\u5742\u30c0\u30e0\u5de5\u4e8b\u4e8b\u52d9\u6240","boring_xml_url":64,"boring_view_url":1,"soilmap_view_url":null,"soiltest_xml_url":0,"soiltest_view_url":0},{"id":528219,"code":"B4KJ202201003-0755","latitude":"33.4345","longitude":"132.69062","source_code":"168855602000100008","project_name":"","survey_name":"\u5e73\u621028\u5e74\u5ea6\u9e7f\u91ce\u5ddd\u30c0\u30e0\u6e56\u659c\u9762\u5730\u8cea\u8abf\u67fb\u696d\u52d9","client_name":"\u56fd\u571f\u4ea4\u901a\u7701\u56db\u56fd\u5730\u65b9\u6574\u5099\u5c40\u5c71\u9ce5\u5742\u30c0\u30e0\u5de5\u4e8b\u4e8b\u52d9\u6240","boring_xml_url":64,"boring_view_url":1,"soilmap_view_url":null,"soiltest_xml_url":0,"soiltest_view_url":0},{"id":528218,"code":"B4KJ202201003-0754","latitude":"33.434894","longitude":"132.690777","source_code":"168855602000100007","project_name":"","survey_name":"\u5e73\u621028\u5e74\u5ea6\u9e7f\u91ce\u5ddd\u30c0\u30e0\u6e56\u659c\u9762\u5730\u8cea\u8abf\u67fb\u696d\u52d9","client_name":"\u56fd\u571f\u4ea4\u901a\u7701\u56db\u56fd\u5730\u65b9\u6574\u5099\u5c40\u5c71\u9ce5\u5742\u30c0\u30e0\u5de5\u4e8b\u4e8b\u52d9\u6240","boring_xml_url":64,"boring_view_url":1,"soilmap_view_url":null,"soiltest_xml_url":0,"soiltest_view_url":0},{"id":528217,"code":"B4KJ202201003-0753","latitude":"33.433406","longitude":"132.693312","source_code":"168855602000100006","project_name":"","survey_name":"\u5e73\u621028\u5e74\u5ea6\u9e7f\u91ce\u5ddd\u30c0\u30e0\u6e56\u659c\u9762\u5730\u8cea\u8abf\u67fb\u696d\u52d9","client_name":"\u56fd\u571f\u4ea4\u901a\u7701\u56db\u56fd\u5730\u65b9\u6574\u5099\u5c40\u5c71\u9ce5\u5742\u30c0\u30e0\u5de5\u4e8b\u4e8b\u52d9\u6240","boring_xml_url":64,"boring_view_url":1,"soilmap_view_url":null,"soiltest_xml_url":0,"soiltest_view_url":0},{"id":528216,"code":"B4KJ202201003-0752","latitude":"33.444453","longitude":"132.688864","source_code":"168855602000100005","project_name":"","survey_name":"\u5e73\u621028\u5e74\u5ea6\u9e7f\u91ce\u5ddd\u30c0\u30e0\u6e56\u659c\u9762\u5730\u8cea\u8abf\u67fb\u696d\u52d9","client_name":"\u56fd\u571f\u4ea4\u901a\u7701\u56db\u56fd\u5730\u65b9\u6574\u5099\u5c40\u5c71\u9ce5\u5742\u30c0\u30e0\u5de5\u4e8b\u4e8b\u52d9\u6240","boring_xml_url":64,"boring_view_url":1,"soilmap_view_url":null,"soiltest_xml_url":0,"soiltest_view_url":0},{"id":528215,"code":"B4KJ202201003-0751","latitude":"33.45801","longitude":"132.701503","source_code":"168855602000100004","project_name":"","survey_name":"\u5e73\u621028\u5e74\u5ea6\u5c71\u9ce5\u5742\u30c0\u30e0\u30b5\u30a4\u30c8\u5730\u8cea\u8abf\u67fb\uff08\u305d\u306e2\uff09\u696d\u52d9","client_name":"\u56fd\u571f\u4ea4\u901a\u7701\u56db\u56fd\u5730\u65b9\u6574\u5099\u5c40\u5c71\u9ce5\u5742\u30c0\u30e0\u5de5\u4e8b\u4e8b\u52d9\u6240","boring_xml_url":64,"boring_view_url":1,"soilmap_view_url":null,"soiltest_xml_url":0,"soiltest_view_url":0},{"id":528214,"code":"B4KJ202201003-0750","latitude":"33.457465","longitude":"132.70088","source_code":"168855602000100003","project_name":"","survey_name":"\u5e73\u621028\u5e74\u5ea6\u5c71\u9ce5\u5742\u30c0\u30e0\u30b5\u30a4\u30c8\u5730\u8cea\u8abf\u67fb\uff08\u305d\u306e2\uff09\u696d\u52d9","client_name":"\u56fd\u571f\u4ea4\u901a\u7701\u56db\u56fd\u5730\u65b9\u6574\u5099\u5c40\u5c71\u9ce5\u5742\u30c0\u30e0\u5de5\u4e8b\u4e8b\u52d9\u6240","boring_xml_url":64,"boring_view_url":1,"soilmap_view_url":null,"soiltest_xml_url":0,"soiltest_view_url":0},{"id":528213,"code":"B4KJ202201003-0749","latitude":"33.457827","longitude":"132.701182","source_code":"168855602000100002","project_name":"","survey_name":"\u5e73\u621028\u5e74\u5ea6\u5c71\u9ce5\u5742\u30c0\u30e0\u30b5\u30a4\u30c8\u5730\u8cea\u8abf\u67fb\uff08\u305d\u306e2\uff09\u696d\u52d9","client_name":"\u56fd\u571f\u4ea4\u901a\u7701\u56db\u56fd\u5730\u65b9\u6574\u5099\u5c40\u5c71\u9ce5\u5742\u30c0\u30e0\u5de5\u4e8b\u4e8b\u52d9\u6240","boring_xml_url":64,"boring_view_url":1,"soilmap_view_url":null,"soiltest_xml_url":0,"soiltest_view_url":0},{"id":528212,"code":"B4KJ202201003-0748","latitude":"33.458712","longitude":"132.701262","source_code":"168855602000100001","project_name":"","survey_name":"\u5e73\u621028\u5e74\u5ea6\u5c71\u9ce5\u5742\u30c0\u30e0\u30b5\u30a4\u30c8\u5730\u8cea\u8abf\u67fb\uff08\u305d\u306e2\uff09\u696d\u52d9","client_name":"\u56fd\u571f\u4ea4\u901a\u7701\u56db\u56fd\u5730\u65b9\u6574\u5099\u5c40\u5c71\u9ce5\u5742\u30c0\u30e0\u5de5\u4e8b\u4e8b\u52d9\u6240","boring_xml_url":64,"boring_view_url":1,"soilmap_view_url":null,"soiltest_xml_url":0,"soiltest_view_url":0},{"id":528211,"code":"B4KJ202201003-0747","latitude":"33.45853","longitude":"132.700353","source_code":"168855602000090002","project_name":"","survey_name":"\u5e73\u621028\u5e74\u5ea6\u5c71\u9ce5\u5742\u30c0\u30e0\u30b5\u30a4\u30c8\u5730\u8cea\u8abf\u67fb\uff08\u305d\u306e2\uff09\u696d\u52d9","client_name":"\u56fd\u571f\u4ea4\u901a\u7701\u56db\u56fd\u5730\u65b9\u6574\u5099\u5c40\u5c71\u9ce5\u5742\u30c0\u30e0\u5de5\u4e8b\u4e8b\u52d9\u6240","boring_xml_url":64,"boring_view_url":1,"soilmap_view_url":null,"soiltest_xml_url":0,"soiltest_view_url":0},{"id":528210,"code":"B4KJ202201003-0746","latitude":"33.457826","longitude":"132.700967","source_code":"168855602000090001","project_name":"","survey_name":"\u5e73\u621028\u5e74\u5ea6\u5c71\u9ce5\u5742\u30c0\u30e0\u30b5\u30a4\u30c8\u5730\u8cea\u8abf\u67fb\uff08\u305d\u306e2\uff09\u696d\u52d9","client_name":"\u56fd\u571f\u4ea4\u901a\u7701\u56db\u56fd\u5730\u65b9\u6574\u5099\u5c40\u5c71\u9ce5\u5742\u30c0\u30e0\u5de5\u4e8b\u4e8b\u52d9\u6240","boring_xml_url":64,"boring_view_url":1,"soilmap_view_url":null,"soiltest_xml_url":0,"soiltest_view_url":0},{"id":528209,"code":"B4KJ202201003-0745","latitude":"33.457462","longitude":"132.70054","source_code":"168851622000070006","project_name":"","survey_name":"\u5e73\u621028\u5e74\u5ea6\u5c71\u9ce5\u5742\u30c0\u30e0\u30b5\u30a4\u30c8\u5730\u8cea\u8abf\u67fb\uff08\u305d\u306e2\uff09\u696d\u52d9","client_name":"\u56fd\u571f\u4ea4\u901a\u7701\u56db\u56fd\u5730\u65b9\u6574\u5099\u5c40\u5c71\u9ce5\u5742\u30c0\u30e0\u5de5\u4e8b\u4e8b\u52d9\u6240","boring_xml_url":64,"boring_view_url":1,"soilmap_view_url":null,"soiltest_xml_url":0,"soiltest_view_url":0},{"id":528208,"code":"B4KJ202201003-0744","latitude":"33.458006","longitude":"132.700966","source_code":"168851622000070005","project_name":"","survey_name":"\u5e73\u621028\u5e74\u5ea6\u5c71\u9ce5\u5742\u30c0\u30e0\u30b5\u30a4\u30c8\u5730\u8cea\u8abf\u67fb\uff08\u305d\u306e2\uff09\u696d\u52d9","client_name":"\u56fd\u571f\u4ea4\u901a\u7701\u56db\u56fd\u5730\u65b9\u6574\u5099\u5c40\u5c71\u9ce5\u5742\u30c0\u30e0\u5de5\u4e8b\u4e8b\u52d9\u6240","boring_xml_url":64,"boring_view_url":1,"soilmap_view_url":null,"soiltest_xml_url":0,"soiltest_view_url":0},{"id":528207,"code":"B4KJ202201003-0743","latitude":"33.458361","longitude":"132.700102","source_code":"168851622000070004","project_name":"","survey_name":"\u5e73\u621028\u5e74\u5ea6\u5c71\u9ce5\u5742\u30c0\u30e0\u30b5\u30a4\u30c8\u5730\u8cea\u8abf\u67fb\uff08\u305d\u306e1\uff09\u696d\u52d9","client_name":"\u56fd\u571f\u4ea4\u901a\u7701\u56db\u56fd\u5730\u65b9\u6574\u5099\u5c40\u5c71\u9ce5\u5742\u30c0\u30e0\u5de5\u4e8b\u4e8b\u52d9\u6240","boring_xml_url":64,"boring_view_url":1,"soilmap_view_url":null,"soiltest_xml_url":0,"soiltest_view_url":0},{"id":528206,"code":"B4KJ202201003-0742","latitude":"33.458712","longitude":"132.699248","source_code":"168851622000070003","project_name":"","survey_name":"\u5e73\u621028\u5e74\u5ea6\u5c71\u9ce5\u5742\u30c0\u30e0\u30b5\u30a4\u30c8\u5730\u8cea\u8abf\u67fb\uff08\u305d\u306e1\uff09\u696d\u52d9","client_name":"\u56fd\u571f\u4ea4\u901a\u7701\u56db\u56fd\u5730\u65b9\u6574\u5099\u5c40\u5c71\u9ce5\u5742\u30c0\u30e0\u5de5\u4e8b\u4e8b\u52d9\u6240","boring_xml_url":64,"boring_view_url":1,"soilmap_view_url":null,"soiltest_xml_url":0,"soiltest_view_url":0},{"id":528205,"code":"B4KJ202201003-0741","latitude":"33.512058","longitude":"132.543078","source_code":"168851622000070002","project_name":"","survey_name":"\u5e73\u621028\u5e74\u5ea6\u80b1\u5ddd\u7ba1\u5185\u5730\u8cea\u8abf\u67fb\u696d\u52d9","client_name":"\"\u56fd\u571f\u4ea4\u901a\u7701\u3000\u56db\u56fd\u5730\u65b9\u6574\u5099\u5c40 \u5927\u6d32\u6cb3\u5ddd\u56fd\u9053\u4e8b\u52d9\u6240\"","boring_xml_url":64,"boring_view_url":1,"soilmap_view_url":null,"soiltest_xml_url":0,"soiltest_view_url":0},{"id":528204,"code":"B4KJ202201003-0740","latitude":"33.512128","longitude":"132.543111","source_code":"168851622000070001","project_name":"","survey_name":"\u5e73\u621028\u5e74\u5ea6\u80b1\u5ddd\u7ba1\u5185\u5730\u8cea\u8abf\u67fb\u696d\u52d9","client_name":"\"\u56fd\u571f\u4ea4\u901a\u7701\u3000\u56db\u56fd\u5730\u65b9\u6574\u5099\u5c40 \u5927\u6d32\u6cb3\u5ddd\u56fd\u9053\u4e8b\u52d9\u6240\"","boring_xml_url":64,"boring_view_url":1,"soilmap_view_url":null,"soiltest_xml_url":0,"soiltest_view_url":0},{"id":528203,"code":"B4KJ202201003-0739","latitude":"33.515519","longitude":"132.542081","source_code":"168851532000090001","project_name":"","survey_name":"\u5e73\u621028\u5e74\u5ea6\u80b1\u5ddd\u7ba1\u5185\u5730\u8cea\u8abf\u67fb\u696d\u52d9","client_name":"\"\u56fd\u571f\u4ea4\u901a\u7701\u3000\u56db\u56fd\u5730\u65b9\u6574\u5099\u5c40 \u5927\u6d32\u6cb3\u5ddd\u56fd\u9053\u4e8b\u52d9\u6240\"","boring_xml_url":64,"boring_view_url":1,"soilmap_view_url":null,"soiltest_xml_url":0,"soiltest_view_url":0},{"id":528202,"code":"B4KJ202201003-0738","latitude":"33.523819","longitude":"132.552319","source_code":"168851452000080004","project_name":"","survey_name":"\u5e73\u621028\u5e74\u5ea6\u80b1\u5ddd\u7ba1\u5185\u5730\u8cea\u8abf\u67fb\u696d\u52d9","client_name":"\"\u56fd\u571f\u4ea4\u901a\u7701\u3000\u56db\u56fd\u5730\u65b9\u6574\u5099\u5c40 \u5927\u6d32\u6cb3\u5ddd\u56fd\u9053\u4e8b\u52d9\u6240\"","boring_xml_url":64,"boring_view_url":1,"soilmap_view_url":null,"soiltest_xml_url":0,"soiltest_view_url":0},{"id":528201,"code":"B4KJ202201003-0737","latitude":"33.523344","longitude":"132.552319","source_code":"168851452000080003","project_name":"","survey_name":"\u5e73\u621028\u5e74\u5ea6\u80b1\u5ddd\u7ba1\u5185\u5730\u8cea\u8abf\u67fb\u696d\u52d9","client_name":"\"\u56fd\u571f\u4ea4\u901a\u7701\u3000\u56db\u56fd\u5730\u65b9\u6574\u5099\u5c40 \u5927\u6d32\u6cb3\u5ddd\u56fd\u9053\u4e8b\u52d9\u6240\"","boring_xml_url":64,"boring_view_url":1,"soilmap_view_url":null,"soiltest_xml_url":0,"soiltest_view_url":0},{"id":528200,"code":"B4KJ202201003-0736","latitude":"33.588894","longitude":"132.511097","source_code":"168851452000080002","project_name":"","survey_name":"\u5e73\u621028\u5e74\u5ea6\u80b1\u5ddd\u7ba1\u5185\u5730\u8cea\u8abf\u67fb\u696d\u52d9","client_name":"\"\u56fd\u571f\u4ea4\u901a\u7701\u3000\u56db\u56fd\u5730\u65b9\u6574\u5099\u5c40 \u5927\u6d32\u6cb3\u5ddd\u56fd\u9053\u4e8b\u52d9\u6240\"","boring_xml_url":64,"boring_view_url":1,"soilmap_view_url":null,"soiltest_xml_url":0,"soiltest_view_url":0},{"id":528199,"code":"B4KJ202201003-0735","latitude":"33.57785","longitude":"132.662786","source_code":"168851452000080001","project_name":"\u5e73\u621028\u5e74\u5ea6\u3000\u57ce\u5efb\u5730\u533a\u6a4b\u6881\u8a73\u7d30\u8a2d\u8a08\uff08\u305d\u306e2\uff09\u696d\u52d9","survey_name":"\u5e73\u621028\u5e74\u5ea6\u3000\u57ce\u5efb\u5730\u533a\u6a4b\u6881\u8a73\u7d30\u8a2d\u8a08\uff08\u305d\u306e2\uff09\u696d\u52d9","client_name":"\"\u56db\u56fd\u5730\u65b9\u6574\u5099\u5c40 \u5927\u6d32\u6cb3\u5ddd\u56fd\u9053\u4e8b\u52d9\u6240\"","boring_xml_url":64,"boring_view_url":1,"soilmap_view_url":null,"soiltest_xml_url":0,"soiltest_view_url":0}]}}