{"header":{"xyz":{"source":[],"mosaic":false},"page":5738,"raw":{"soiltest_result":"0","bbox":"57.598333,109.544722,1.933333,163.806111","page":"5738"},"conditions":{"soiltest_result":0,"north":57.598333,"west":109.544722,"south":1.933333,"east":163.806111},"success":true,"message":""},"data":{"meta":{"total":212844,"page":5738,"pages":7095,"count":30},"values":[{"id":148435,"code":"B4KJ201801003-6684","latitude":"35.37879306","longitude":"139.6388253","source_code":"KT53390551011","project_name":"","survey_name":"\u56fd\u9053357\u53f7\u5730\u8cea\u8abf\u67fb(\u305d\u306e4)","client_name":"\u56fd\u571f\u4ea4\u901a\u7701\u95a2\u6771\u5730\u65b9\u6574\u5099\u5c40\u6a2a\u6d5c\u56fd\u9053\u4e8b\u52d9\u6240","boring_xml_url":40,"boring_view_url":1,"soilmap_view_url":null,"soiltest_xml_url":0,"soiltest_view_url":0},{"id":148434,"code":"B4KJ201801003-6683","latitude":"35.37884861","longitude":"139.6385475","source_code":"KT53390551010","project_name":"","survey_name":"\u56fd\u9053357\u53f7\u5730\u8cea\u8abf\u67fb(\u305d\u306e4)","client_name":"\u56fd\u571f\u4ea4\u901a\u7701\u95a2\u6771\u5730\u65b9\u6574\u5099\u5c40\u6a2a\u6d5c\u56fd\u9053\u4e8b\u52d9\u6240","boring_xml_url":40,"boring_view_url":1,"soilmap_view_url":null,"soiltest_xml_url":0,"soiltest_view_url":0},{"id":148433,"code":"B4KJ201801003-6682","latitude":"35.37890417","longitude":"139.6382975","source_code":"KT53390551009","project_name":"","survey_name":"\u56fd\u9053357\u53f7\u5730\u8cea\u8abf\u67fb(\u305d\u306e4)","client_name":"\u56fd\u571f\u4ea4\u901a\u7701\u95a2\u6771\u5730\u65b9\u6574\u5099\u5c40\u6a2a\u6d5c\u56fd\u9053\u4e8b\u52d9\u6240","boring_xml_url":40,"boring_view_url":1,"soilmap_view_url":null,"soiltest_xml_url":0,"soiltest_view_url":0},{"id":148432,"code":"B4KJ201801003-6681","latitude":"35.3789875","longitude":"139.6380475","source_code":"KT53390551008","project_name":"","survey_name":"\u56fd\u9053357\u53f7\u5730\u8cea\u8abf\u67fb(\u305d\u306e4)","client_name":"\u56fd\u571f\u4ea4\u901a\u7701\u95a2\u6771\u5730\u65b9\u6574\u5099\u5c40\u6a2a\u6d5c\u56fd\u9053\u4e8b\u52d9\u6240","boring_xml_url":40,"boring_view_url":1,"soilmap_view_url":null,"soiltest_xml_url":0,"soiltest_view_url":0},{"id":148431,"code":"B4KJ201801003-6680","latitude":"35.37901528","longitude":"139.6374642","source_code":"KT53390551007","project_name":"","survey_name":"\u56fd\u9053357\u53f7\u5730\u8cea\u8abf\u67fb(\u305d\u306e4)","client_name":"\u56fd\u571f\u4ea4\u901a\u7701\u95a2\u6771\u5730\u65b9\u6574\u5099\u5c40\u6a2a\u6d5c\u56fd\u9053\u4e8b\u52d9\u6240","boring_xml_url":40,"boring_view_url":1,"soilmap_view_url":null,"soiltest_xml_url":0,"soiltest_view_url":0},{"id":148430,"code":"B4KJ201801003-6679","latitude":"35.37909861","longitude":"139.6371308","source_code":"KT53390551006","project_name":"","survey_name":"\u56fd\u9053357\u53f7\u5730\u8cea\u8abf\u67fb(\u305d\u306e4)","client_name":"\u56fd\u571f\u4ea4\u901a\u7701\u95a2\u6771\u5730\u65b9\u6574\u5099\u5c40\u6a2a\u6d5c\u56fd\u9053\u4e8b\u52d9\u6240","boring_xml_url":40,"boring_view_url":1,"soilmap_view_url":null,"soiltest_xml_url":0,"soiltest_view_url":0},{"id":148429,"code":"B4KJ201801003-6678","latitude":"35.3792375","longitude":"139.6365756","source_code":"KT53390551005","project_name":"","survey_name":"\u56fd\u9053357\u53f7\u5730\u8cea\u8abf\u67fb(\u305d\u306e4)","client_name":"\u56fd\u571f\u4ea4\u901a\u7701\u95a2\u6771\u5730\u65b9\u6574\u5099\u5c40\u6a2a\u6d5c\u56fd\u9053\u4e8b\u52d9\u6240","boring_xml_url":40,"boring_view_url":1,"soilmap_view_url":null,"soiltest_xml_url":0,"soiltest_view_url":0},{"id":148428,"code":"B4KJ201801003-6677","latitude":"35.37929306","longitude":"139.6363256","source_code":"KT53390551004","project_name":"","survey_name":"\u56fd\u9053357\u53f7\u5730\u8cea\u8abf\u67fb(\u305d\u306e4)","client_name":"\u56fd\u571f\u4ea4\u901a\u7701\u95a2\u6771\u5730\u65b9\u6574\u5099\u5c40\u6a2a\u6d5c\u56fd\u9053\u4e8b\u52d9\u6240","boring_xml_url":40,"boring_view_url":1,"soilmap_view_url":null,"soiltest_xml_url":0,"soiltest_view_url":0},{"id":148427,"code":"B4KJ201801003-6676","latitude":"35.37940417","longitude":"139.6357422","source_code":"KT53390551003","project_name":"","survey_name":"\u56fd\u9053357\u53f7\u5730\u8cea\u8abf\u67fb(\u305d\u306e4)","client_name":"\u56fd\u571f\u4ea4\u901a\u7701\u95a2\u6771\u5730\u65b9\u6574\u5099\u5c40\u6a2a\u6d5c\u56fd\u9053\u4e8b\u52d9\u6240","boring_xml_url":40,"boring_view_url":1,"soilmap_view_url":null,"soiltest_xml_url":0,"soiltest_view_url":0},{"id":148426,"code":"B4KJ201801003-6675","latitude":"35.37829333","longitude":"139.6406864","source_code":"KT53390551002","project_name":"","survey_name":"\u56fd\u9053357\u53f7\u5730\u8cea\u8abf\u67fb(\u305d\u306e5)","client_name":"\u56fd\u571f\u4ea4\u901a\u7701\u95a2\u6771\u5730\u65b9\u6574\u5099\u5c40\u6a2a\u6d5c\u56fd\u9053\u4e8b\u52d9\u6240","boring_xml_url":40,"boring_view_url":1,"soilmap_view_url":null,"soiltest_xml_url":0,"soiltest_view_url":0},{"id":148425,"code":"B4KJ201801003-6674","latitude":"35.37918194","longitude":"139.6390197","source_code":"KT53390551001","project_name":"","survey_name":"\u56fd\u9053357\u53f7\u5730\u8cea\u8abf\u67fb(\u305d\u306e5)","client_name":"\u56fd\u571f\u4ea4\u901a\u7701\u95a2\u6771\u5730\u65b9\u6574\u5099\u5c40\u6a2a\u6d5c\u56fd\u9053\u4e8b\u52d9\u6240","boring_xml_url":40,"boring_view_url":1,"soilmap_view_url":null,"soiltest_xml_url":0,"soiltest_view_url":0},{"id":148424,"code":"B4KJ201801003-6673","latitude":"35.38468083","longitude":"139.6233264","source_code":"KT53390550042","project_name":"","survey_name":"\u91d1\u6ca2\u5171\u540c\u6e9d\u305d\u306e\u4ed6\u8a2d\u8a08\u696d\u52d9\u59d4\u8a17","client_name":"\u56fd\u571f\u4ea4\u901a\u7701\u95a2\u6771\u5730\u65b9\u6574\u5099\u5c40\u6a2a\u6d5c\u56fd\u9053\u4e8b\u52d9\u6240","boring_xml_url":40,"boring_view_url":1,"soilmap_view_url":null,"soiltest_xml_url":0,"soiltest_view_url":0},{"id":148423,"code":"B4KJ201801003-6672","latitude":"35.38168139","longitude":"139.6301314","source_code":"KT53390550040","project_name":"","survey_name":"\u56fd\u9053357\u53f7 \u662d\u548c\u753a\u5730\u8cea\u8abf\u67fb","client_name":"\u56fd\u571f\u4ea4\u901a\u7701\u95a2\u6771\u5730\u65b9\u6574\u5099\u5c40\u6a2a\u6d5c\u56fd\u9053\u4e8b\u52d9\u6240","boring_xml_url":40,"boring_view_url":1,"soilmap_view_url":null,"soiltest_xml_url":0,"soiltest_view_url":0},{"id":148422,"code":"B4KJ201801003-6671","latitude":"35.3812925","longitude":"139.6298536","source_code":"KT53390550039","project_name":"","survey_name":"\u56fd\u9053357\u53f7 \u662d\u548c\u753a\u5730\u8cea\u8abf\u67fb","client_name":"\u56fd\u571f\u4ea4\u901a\u7701\u95a2\u6771\u5730\u65b9\u6574\u5099\u5c40\u6a2a\u6d5c\u56fd\u9053\u4e8b\u52d9\u6240","boring_xml_url":40,"boring_view_url":1,"soilmap_view_url":null,"soiltest_xml_url":0,"soiltest_view_url":0},{"id":148421,"code":"B4KJ201801003-6670","latitude":"35.38168139","longitude":"139.6301314","source_code":"KT53390550038","project_name":"","survey_name":"\u56fd\u9053357\u53f7 \u662d\u548c\u753a\u5730\u8cea\u8abf\u67fb","client_name":"\u56fd\u571f\u4ea4\u901a\u7701\u95a2\u6771\u5730\u65b9\u6574\u5099\u5c40\u6a2a\u6d5c\u56fd\u9053\u4e8b\u52d9\u6240","boring_xml_url":40,"boring_view_url":1,"soilmap_view_url":null,"soiltest_xml_url":0,"soiltest_view_url":0},{"id":148420,"code":"B4KJ201801003-6669","latitude":"35.38168139","longitude":"139.6301314","source_code":"KT53390550037","project_name":"","survey_name":"\u56fd\u9053357\u53f7 \u662d\u548c\u753a\u5730\u8cea\u8abf\u67fb","client_name":"\u56fd\u571f\u4ea4\u901a\u7701\u95a2\u6771\u5730\u65b9\u6574\u5099\u5c40\u6a2a\u6d5c\u56fd\u9053\u4e8b\u52d9\u6240","boring_xml_url":40,"boring_view_url":1,"soilmap_view_url":null,"soiltest_xml_url":0,"soiltest_view_url":0},{"id":148419,"code":"B4KJ201801003-6668","latitude":"35.38215361","longitude":"139.6290483","source_code":"KT53390550036","project_name":"","survey_name":"\u56fd\u9053357\u53f7\u6749\u7530\u5ddd\u5730\u8cea\u8abf\u67fb","client_name":"\u56fd\u571f\u4ea4\u901a\u7701\u95a2\u6771\u5730\u65b9\u6574\u5099\u5c40\u6a2a\u6d5c\u56fd\u9053\u4e8b\u52d9\u6240","boring_xml_url":40,"boring_view_url":1,"soilmap_view_url":null,"soiltest_xml_url":0,"soiltest_view_url":0},{"id":148418,"code":"B4KJ201801003-6667","latitude":"35.38215361","longitude":"139.6290483","source_code":"KT53390550035","project_name":"","survey_name":"\u56fd\u9053357\u53f7\u6749\u7530\u5ddd\u5730\u8cea\u8abf\u67fb","client_name":"\u56fd\u571f\u4ea4\u901a\u7701\u95a2\u6771\u5730\u65b9\u6574\u5099\u5c40\u6a2a\u6d5c\u56fd\u9053\u4e8b\u52d9\u6240","boring_xml_url":40,"boring_view_url":1,"soilmap_view_url":null,"soiltest_xml_url":0,"soiltest_view_url":0},{"id":148417,"code":"B4KJ201801003-6666","latitude":"35.38215361","longitude":"139.6290483","source_code":"KT53390550034","project_name":"","survey_name":"\u56fd\u9053357\u53f7\u6749\u7530\u5ddd\u5730\u8cea\u8abf\u67fb","client_name":"\u56fd\u571f\u4ea4\u901a\u7701\u95a2\u6771\u5730\u65b9\u6574\u5099\u5c40\u6a2a\u6d5c\u56fd\u9053\u4e8b\u52d9\u6240","boring_xml_url":40,"boring_view_url":1,"soilmap_view_url":null,"soiltest_xml_url":0,"soiltest_view_url":0},{"id":148416,"code":"B4KJ201801003-6665","latitude":"35.38243139","longitude":"139.6280483","source_code":"KT53390550033","project_name":"","survey_name":"\u56fd\u9053357\u53f7\u5730\u8cea\u8abf\u67fb(\u305d\u306e4)","client_name":"\u56fd\u571f\u4ea4\u901a\u7701\u95a2\u6771\u5730\u65b9\u6574\u5099\u5c40\u6a2a\u6d5c\u56fd\u9053\u4e8b\u52d9\u6240","boring_xml_url":40,"boring_view_url":1,"soilmap_view_url":null,"soiltest_xml_url":0,"soiltest_view_url":0},{"id":148415,"code":"B4KJ201801003-6664","latitude":"35.38243139","longitude":"139.6280483","source_code":"KT53390550032","project_name":"","survey_name":"\u56fd\u9053357\u53f7\u5730\u8cea\u8abf\u67fb(\u305d\u306e4)","client_name":"\u56fd\u571f\u4ea4\u901a\u7701\u95a2\u6771\u5730\u65b9\u6574\u5099\u5c40\u6a2a\u6d5c\u56fd\u9053\u4e8b\u52d9\u6240","boring_xml_url":40,"boring_view_url":1,"soilmap_view_url":null,"soiltest_xml_url":0,"soiltest_view_url":0},{"id":148414,"code":"B4KJ201801003-6663","latitude":"35.38243139","longitude":"139.6280483","source_code":"KT53390550031","project_name":"","survey_name":"\u56fd\u9053357\u53f7\u5730\u8cea\u8abf\u67fb(\u305d\u306e4)","client_name":"\u56fd\u571f\u4ea4\u901a\u7701\u95a2\u6771\u5730\u65b9\u6574\u5099\u5c40\u6a2a\u6d5c\u56fd\u9053\u4e8b\u52d9\u6240","boring_xml_url":40,"boring_view_url":1,"soilmap_view_url":null,"soiltest_xml_url":0,"soiltest_view_url":0},{"id":148413,"code":"B4KJ201801003-6662","latitude":"35.379765","longitude":"139.6341589","source_code":"KT53390550030","project_name":"","survey_name":"\u56fd\u9053357\u53f7\u5730\u8cea\u8abf\u67fb(\u305d\u306e4)","client_name":"\u56fd\u571f\u4ea4\u901a\u7701\u95a2\u6771\u5730\u65b9\u6574\u5099\u5c40\u6a2a\u6d5c\u56fd\u9053\u4e8b\u52d9\u6240","boring_xml_url":40,"boring_view_url":1,"soilmap_view_url":null,"soiltest_xml_url":0,"soiltest_view_url":0},{"id":148412,"code":"B4KJ201801003-6661","latitude":"35.37982056","longitude":"139.6339644","source_code":"KT53390550029","project_name":"","survey_name":"\u56fd\u9053357\u53f7\u5730\u8cea\u8abf\u67fb(\u305d\u306e4)","client_name":"\u56fd\u571f\u4ea4\u901a\u7701\u95a2\u6771\u5730\u65b9\u6574\u5099\u5c40\u6a2a\u6d5c\u56fd\u9053\u4e8b\u52d9\u6240","boring_xml_url":40,"boring_view_url":1,"soilmap_view_url":null,"soiltest_xml_url":0,"soiltest_view_url":0},{"id":148411,"code":"B4KJ201801003-6660","latitude":"35.37968167","longitude":"139.6339644","source_code":"KT53390550028","project_name":"","survey_name":"\u56fd\u9053357\u53f7\u5730\u8cea\u8abf\u67fb(\u305d\u306e4)","client_name":"\u56fd\u571f\u4ea4\u901a\u7701\u95a2\u6771\u5730\u65b9\u6574\u5099\u5c40\u6a2a\u6d5c\u56fd\u9053\u4e8b\u52d9\u6240","boring_xml_url":40,"boring_view_url":1,"soilmap_view_url":null,"soiltest_xml_url":0,"soiltest_view_url":0},{"id":148410,"code":"B4KJ201801003-6659","latitude":"35.38243139","longitude":"139.6280483","source_code":"KT53390550027","project_name":"","survey_name":"\u56fd\u9053357\u53f7\u5730\u8cea\u8abf\u67fb(\u305d\u306e3)","client_name":"\u56fd\u571f\u4ea4\u901a\u7701\u95a2\u6771\u5730\u65b9\u6574\u5099\u5c40\u6a2a\u6d5c\u56fd\u9053\u4e8b\u52d9\u6240","boring_xml_url":40,"boring_view_url":1,"soilmap_view_url":null,"soiltest_xml_url":0,"soiltest_view_url":0},{"id":148409,"code":"B4KJ201801003-6658","latitude":"35.38232028","longitude":"139.6249097","source_code":"KT53390550026","project_name":"","survey_name":"\u56fd\u9053357\u53f7\u5730\u8cea\u8abf\u67fb(\u305d\u306e3)","client_name":"\u56fd\u571f\u4ea4\u901a\u7701\u95a2\u6771\u5730\u65b9\u6574\u5099\u5c40\u6a2a\u6d5c\u56fd\u9053\u4e8b\u52d9\u6240","boring_xml_url":40,"boring_view_url":1,"soilmap_view_url":null,"soiltest_xml_url":0,"soiltest_view_url":0},{"id":148408,"code":"B4KJ201801003-6657","latitude":"35.38279222","longitude":"139.6242986","source_code":"KT53390550025","project_name":"","survey_name":"\u56fd\u9053357\u53f7\u5730\u8cea\u8abf\u67fb(\u305d\u306e3)","client_name":"\u56fd\u571f\u4ea4\u901a\u7701\u95a2\u6771\u5730\u65b9\u6574\u5099\u5c40\u6a2a\u6d5c\u56fd\u9053\u4e8b\u52d9\u6240","boring_xml_url":40,"boring_view_url":1,"soilmap_view_url":null,"soiltest_xml_url":0,"soiltest_view_url":0},{"id":148407,"code":"B4KJ201801003-6656","latitude":"35.38301444","longitude":"139.6238819","source_code":"KT53390550024","project_name":"","survey_name":"\u56fd\u9053357\u53f7\u5730\u8cea\u8abf\u67fb(\u305d\u306e3)","client_name":"\u56fd\u571f\u4ea4\u901a\u7701\u95a2\u6771\u5730\u65b9\u6574\u5099\u5c40\u6a2a\u6d5c\u56fd\u9053\u4e8b\u52d9\u6240","boring_xml_url":40,"boring_view_url":1,"soilmap_view_url":null,"soiltest_xml_url":0,"soiltest_view_url":0},{"id":148406,"code":"B4KJ201801003-6655","latitude":"35.38323667","longitude":"139.6234653","source_code":"KT53390550023","project_name":"","survey_name":"\u56fd\u9053357\u53f7\u5730\u8cea\u8abf\u67fb(\u305d\u306e3)","client_name":"\u56fd\u571f\u4ea4\u901a\u7701\u95a2\u6771\u5730\u65b9\u6574\u5099\u5c40\u6a2a\u6d5c\u56fd\u9053\u4e8b\u52d9\u6240","boring_xml_url":40,"boring_view_url":1,"soilmap_view_url":null,"soiltest_xml_url":0,"soiltest_view_url":0}]}}