{"header":{"xyz":{"source":[],"mosaic":false},"page":574,"raw":{"soiltest_result":"0","bbox":"57.598333,109.544722,1.933333,163.806111","page":"574"},"conditions":{"soiltest_result":0,"north":57.598333,"west":109.544722,"south":1.933333,"east":163.806111},"success":true,"message":""},"data":{"meta":{"total":212844,"page":574,"pages":7095,"count":30},"values":[{"id":528198,"code":"B4KJ202201003-0734","latitude":"33.054861","longitude":"132.511389","source_code":"158851532000210002","project_name":"\u5e73\u621028\u5e74\u5ea6\u6d25\u5cf6\u9053\u8def\u5730\u8cea\u8abf\u67fb\u696d\u52d9","survey_name":"\u5e73\u621028\u5e74\u5ea6\u6d25\u5cf6\u9053\u8def\u5730\u8cea\u8abf\u67fb\u696d\u52d9","client_name":"\u56fd\u571f\u4ea4\u901a\u7701\u56db\u56fd\u5730\u65b9\u6574\u5099\u5c40\u5927\u6d32\u6cb3\u5ddd\u56fd\u9053\u4e8b\u52d9\u6240","boring_xml_url":64,"boring_view_url":1,"soilmap_view_url":null,"soiltest_xml_url":0,"soiltest_view_url":0},{"id":528197,"code":"B4KJ202201003-0733","latitude":"33.054806","longitude":"132.511361","source_code":"158851532000210001","project_name":"\u5e73\u621028\u5e74\u5ea6\u6d25\u5cf6\u9053\u8def\u5730\u8cea\u8abf\u67fb\u696d\u52d9","survey_name":"\u5e73\u621028\u5e74\u5ea6\u6d25\u5cf6\u9053\u8def\u5730\u8cea\u8abf\u67fb\u696d\u52d9","client_name":"\u56fd\u571f\u4ea4\u901a\u7701\u56db\u56fd\u5730\u65b9\u6574\u5099\u5c40\u5927\u6d32\u6cb3\u5ddd\u56fd\u9053\u4e8b\u52d9\u6240","boring_xml_url":64,"boring_view_url":1,"soilmap_view_url":null,"soiltest_xml_url":0,"soiltest_view_url":0},{"id":528196,"code":"B4KJ202201003-0732","latitude":"33.054528","longitude":"132.511306","source_code":"168850622000160006","project_name":"\u5e73\u621028\u5e74\u5ea6\u6d25\u5cf6\u9053\u8def\u5730\u8cea\u8abf\u67fb\u696d\u52d9","survey_name":"\u5e73\u621028\u5e74\u5ea6\u6d25\u5cf6\u9053\u8def\u5730\u8cea\u8abf\u67fb\u696d\u52d9","client_name":"\u56fd\u571f\u4ea4\u901a\u7701\u56db\u56fd\u5730\u65b9\u6574\u5099\u5c40\u5927\u6d32\u6cb3\u5ddd\u56fd\u9053\u4e8b\u52d9\u6240","boring_xml_url":64,"boring_view_url":1,"soilmap_view_url":null,"soiltest_xml_url":0,"soiltest_view_url":0},{"id":528195,"code":"B4KJ202201003-0731","latitude":"33.054306","longitude":"132.511111","source_code":"168850622000160005","project_name":"\u5e73\u621028\u5e74\u5ea6\u6d25\u5cf6\u9053\u8def\u5730\u8cea\u8abf\u67fb\u696d\u52d9","survey_name":"\u5e73\u621028\u5e74\u5ea6\u6d25\u5cf6\u9053\u8def\u5730\u8cea\u8abf\u67fb\u696d\u52d9","client_name":"\u56fd\u571f\u4ea4\u901a\u7701\u56db\u56fd\u5730\u65b9\u6574\u5099\u5c40\u5927\u6d32\u6cb3\u5ddd\u56fd\u9053\u4e8b\u52d9\u6240","boring_xml_url":64,"boring_view_url":1,"soilmap_view_url":null,"soiltest_xml_url":0,"soiltest_view_url":0},{"id":528194,"code":"B4KJ202201003-0730","latitude":"33.578469","longitude":"132.663842","source_code":"168850622000160004","project_name":"","survey_name":"\"\u5e73\u621027\uff0d28\u5e74\u5ea6 \u57ce\u5efb\u5730\u533a\u6a4b\u6881\u8a73\u7d30\u8a2d\u8a08\uff08\u305d\u306e2\uff09\u696d\u52d9\"","client_name":"\u56fd\u571f\u4ea4\u901a\u7701\u56db\u56fd\u5730\u65b9\u6574\u5099\u5c40\u5927\u6d32\u6cb3\u5ddd\u56fd\u9053\u4e8b\u52d9\u6240","boring_xml_url":64,"boring_view_url":1,"soilmap_view_url":null,"soiltest_xml_url":0,"soiltest_view_url":0},{"id":528193,"code":"B4KJ202201003-0729","latitude":"33.577978","longitude":"132.663175","source_code":"168850622000160003","project_name":"","survey_name":"\"\u5e73\u621027\uff0d28\u5e74\u5ea6 \u57ce\u5efb\u5730\u533a\u6a4b\u6881\u8a73\u7d30\u8a2d\u8a08\uff08\u305d\u306e2\uff09\u696d\u52d9\"","client_name":"\u56fd\u571f\u4ea4\u901a\u7701\u56db\u56fd\u5730\u65b9\u6574\u5099\u5c40\u5927\u6d32\u6cb3\u5ddd\u56fd\u9053\u4e8b\u52d9\u6240","boring_xml_url":64,"boring_view_url":1,"soilmap_view_url":null,"soiltest_xml_url":0,"soiltest_view_url":0},{"id":528192,"code":"B4KJ202201003-0728","latitude":"34.038594","longitude":"132.974739","source_code":"168850622000160002","project_name":"","survey_name":"\u5e73\u621028\u5e74\u5ea6\u3000\u4eca\u6cbb\u9053\u8def\u5730\u8cea\u8abf\u67fb\u696d\u52d9","client_name":"\u56fd\u571f\u4ea4\u901a\u7701\u3000\u56db\u56fd\u5730\u65b9\u6574\u5099\u5c40\u3000\u677e\u5c71\u6cb3\u5ddd\u56fd\u9053\u4e8b\u52d9\u6240","boring_xml_url":64,"boring_view_url":1,"soilmap_view_url":null,"soiltest_xml_url":0,"soiltest_view_url":0},{"id":528191,"code":"B4KJ202201003-0727","latitude":"34.0405","longitude":"132.973933","source_code":"168850622000160001","project_name":"","survey_name":"\u5e73\u621028\u5e74\u5ea6\u3000\u4eca\u6cbb\u9053\u8def\u5730\u8cea\u8abf\u67fb\u696d\u52d9","client_name":"\u56fd\u571f\u4ea4\u901a\u7701\u3000\u56db\u56fd\u5730\u65b9\u6574\u5099\u5c40\u3000\u677e\u5c71\u6cb3\u5ddd\u56fd\u9053\u4e8b\u52d9\u6240","boring_xml_url":64,"boring_view_url":1,"soilmap_view_url":null,"soiltest_xml_url":0,"soiltest_view_url":0},{"id":528190,"code":"B4KJ202201003-0726","latitude":"34.043281","longitude":"132.973161","source_code":"168850542000160004","project_name":"","survey_name":"\u5e73\u621028\u5e74\u5ea6\u3000\u4eca\u6cbb\u9053\u8def\u5730\u8cea\u8abf\u67fb\u696d\u52d9","client_name":"\u56fd\u571f\u4ea4\u901a\u7701\u3000\u56db\u56fd\u5730\u65b9\u6574\u5099\u5c40\u3000\u677e\u5c71\u6cb3\u5ddd\u56fd\u9053\u4e8b\u52d9\u6240","boring_xml_url":64,"boring_view_url":1,"soilmap_view_url":null,"soiltest_xml_url":0,"soiltest_view_url":0},{"id":528189,"code":"B4KJ202201003-0725","latitude":"34.046875","longitude":"132.972067","source_code":"168850542000160003","project_name":"","survey_name":"\u5e73\u621028\u5e74\u5ea6\u3000\u4eca\u6cbb\u9053\u8def\u5730\u8cea\u8abf\u67fb\u696d\u52d9","client_name":"\"\u56fd\u571f\u4ea4\u901a\u7701 \u56db\u56fd\u5730\u65b9\u6574\u5099\u5c40 \u677e\u5c71\u6cb3\u5ddd\u56fd\u9053\u4e8b\u52d9\u6240\"","boring_xml_url":64,"boring_view_url":1,"soilmap_view_url":null,"soiltest_xml_url":0,"soiltest_view_url":0},{"id":528188,"code":"B4KJ202201003-0724","latitude":"34.048381","longitude":"132.971181","source_code":"168850542000160002","project_name":"","survey_name":"\u5e73\u621028\u5e74\u5ea6\u3000\u4eca\u6cbb\u9053\u8def\u5730\u8cea\u8abf\u67fb\u696d\u52d9","client_name":"\"\u56fd\u571f\u4ea4\u901a\u7701 \u56db\u56fd\u5730\u65b9\u6574\u5099\u5c40 \u677e\u5c71\u6cb3\u5ddd\u56fd\u9053\u4e8b\u52d9\u6240\"","boring_xml_url":64,"boring_view_url":1,"soilmap_view_url":null,"soiltest_xml_url":0,"soiltest_view_url":0},{"id":528187,"code":"B4KJ202201003-0723","latitude":"34.048139","longitude":"132.971453","source_code":"168850542000160001","project_name":"","survey_name":"\u5e73\u621028\u5e74\u5ea6\u3000\u4eca\u6cbb\u9053\u8def\u5730\u8cea\u8abf\u67fb\u696d\u52d9","client_name":"\"\u56fd\u571f\u4ea4\u901a\u7701 \u56db\u56fd\u5730\u65b9\u6574\u5099\u5c40 \u677e\u5c71\u6cb3\u5ddd\u56fd\u9053\u4e8b\u52d9\u6240\"","boring_xml_url":64,"boring_view_url":1,"soilmap_view_url":null,"soiltest_xml_url":0,"soiltest_view_url":0},{"id":528186,"code":"B4KJ202201003-0722","latitude":"33.794639","longitude":"132.920944","source_code":"168850402000040015","project_name":"","survey_name":"\u5e73\u621028\u5e74\u5ea6\u677e\u5c71\u7ba1\u5185\u5730\u8cea\u8abf\u67fb\u696d\u52d9","client_name":"\u56fd\u571f\u4ea4\u901a\u7701\u677e\u5c71\u6cb3\u5ddd\u56fd\u9053\u4e8b\u52d9\u6240\u9053\u8def\u7ba1\u7406\u7b2c\u4e8c\u8ab2","boring_xml_url":64,"boring_view_url":1,"soilmap_view_url":null,"soiltest_xml_url":0,"soiltest_view_url":0},{"id":528185,"code":"B4KJ202201003-0721","latitude":"33.671111","longitude":"132.893889","source_code":"168850402000040014","project_name":"","survey_name":"\u5e73\u621028\u5e74\u5ea6\u677e\u5c71\u7ba1\u5185\u5730\u8cea\u8abf\u67fb\u696d\u52d9","client_name":"\u56fd\u571f\u4ea4\u901a\u7701\u677e\u5c71\u6cb3\u5ddd\u56fd\u9053\u4e8b\u52d9\u6240\u9053\u8def\u7ba1\u7406\u7b2c\u4e8c\u8ab2","boring_xml_url":64,"boring_view_url":1,"soilmap_view_url":null,"soiltest_xml_url":0,"soiltest_view_url":0},{"id":528184,"code":"B4KJ202201003-0720","latitude":"33.896181","longitude":"133.168492","source_code":"168850402000040013","project_name":"","survey_name":"\u5e73\u621028\u5e74\u5ea6\u677e\u5c71\u7ba1\u5185\u5730\u8cea\u8abf\u67fb\u696d\u52d9","client_name":"\u56fd\u571f\u4ea4\u901a\u7701\u677e\u5c71\u6cb3\u5ddd\u56fd\u9053\u4e8b\u52d9\u6240\u9053\u8def\u7ba1\u7406\u7b2c\u4e8c\u8ab2","boring_xml_url":64,"boring_view_url":1,"soilmap_view_url":null,"soiltest_xml_url":0,"soiltest_view_url":0},{"id":528183,"code":"B4KJ202201003-0719","latitude":"33.954522","longitude":"133.419636","source_code":"168850402000040012","project_name":"","survey_name":"\u5e73\u621028\u5e74\u5ea6\u677e\u5c71\u7ba1\u5185\u5730\u8cea\u8abf\u67fb\u696d\u52d9","client_name":"\u56fd\u571f\u4ea4\u901a\u7701\u677e\u5c71\u6cb3\u5ddd\u56fd\u9053\u4e8b\u52d9\u6240\u9053\u8def\u7ba1\u7406\u7b2c\u4e8c\u8ab2","boring_xml_url":64,"boring_view_url":1,"soilmap_view_url":null,"soiltest_xml_url":0,"soiltest_view_url":0},{"id":528182,"code":"B4KJ202201003-0718","latitude":"33.787303","longitude":"132.803506","source_code":"168850402000040011","project_name":"\u5e73\u621028\u5e74\u5ea6\u3000\u91cd\u4fe1\u5ddd\u7ba1\u5185\u6d78\u900f\u5bfe\u7b56\u8a2d\u8a08\uff08\u305d\u306e2\uff09\u696d\u52d9","survey_name":"\u5e73\u621028\u5e74\u5ea6\u3000\u91cd\u4fe1\u5ddd\u7ba1\u5185\u6d78\u900f\u5bfe\u7b56\u8a2d\u8a08\uff08\u305d\u306e2\uff09\u696d\u52d9","client_name":"\u56fd\u571f\u4ea4\u901a\u7701\u3000\u56db\u56fd\u5730\u65b9\u6574\u5099\u5c40\u3000\u677e\u5c71\u6cb3\u5ddd\u56fd\u9053\u4e8b\u52d9\u6240","boring_xml_url":64,"boring_view_url":1,"soilmap_view_url":null,"soiltest_xml_url":0,"soiltest_view_url":0},{"id":528181,"code":"B4KJ202201003-0717","latitude":"33.787142","longitude":"132.803492","source_code":"168850402000040010","project_name":"\u5e73\u621028\u5e74\u5ea6\u3000\u91cd\u4fe1\u5ddd\u7ba1\u5185\u6d78\u900f\u5bfe\u7b56\u8a2d\u8a08\uff08\u305d\u306e2\uff09\u696d\u52d9","survey_name":"\u5e73\u621028\u5e74\u5ea6\u3000\u91cd\u4fe1\u5ddd\u7ba1\u5185\u6d78\u900f\u5bfe\u7b56\u8a2d\u8a08\uff08\u305d\u306e2\uff09\u696d\u52d9","client_name":"\u56fd\u571f\u4ea4\u901a\u7701\u3000\u56db\u56fd\u5730\u65b9\u6574\u5099\u5c40\u3000\u677e\u5c71\u6cb3\u5ddd\u56fd\u9053\u4e8b\u52d9\u6240","boring_xml_url":64,"boring_view_url":1,"soilmap_view_url":null,"soiltest_xml_url":0,"soiltest_view_url":0},{"id":528180,"code":"B4KJ202201003-0716","latitude":"33.787206","longitude":"132.803497","source_code":"168850402000040009","project_name":"\u5e73\u621028\u5e74\u5ea6\u3000\u91cd\u4fe1\u5ddd\u7ba1\u5185\u6d78\u900f\u5bfe\u7b56\u8a2d\u8a08\uff08\u305d\u306e2\uff09\u696d\u52d9","survey_name":"\u5e73\u621028\u5e74\u5ea6\u3000\u91cd\u4fe1\u5ddd\u7ba1\u5185\u6d78\u900f\u5bfe\u7b56\u8a2d\u8a08\uff08\u305d\u306e2\uff09\u696d\u52d9","client_name":"\u56fd\u571f\u4ea4\u901a\u7701\u3000\u56db\u56fd\u5730\u65b9\u6574\u5099\u5c40\u3000\u677e\u5c71\u6cb3\u5ddd\u56fd\u9053\u4e8b\u52d9\u6240","boring_xml_url":64,"boring_view_url":1,"soilmap_view_url":null,"soiltest_xml_url":0,"soiltest_view_url":0},{"id":528179,"code":"B4KJ202201003-0715","latitude":"33.817578","longitude":"132.755106","source_code":"168850402000040008","project_name":"\u5e73\u621028\u5e74\u5ea6\u3000\u91cd\u4fe1\u5ddd\u7ba1\u5185\u6d78\u900f\u5bfe\u7b56\u8a2d\u8a08\uff08\u305d\u306e2\uff09\u696d\u52d9","survey_name":"\u5e73\u621028\u5e74\u5ea6\u3000\u91cd\u4fe1\u5ddd\u7ba1\u5185\u6d78\u900f\u5bfe\u7b56\u8a2d\u8a08\uff08\u305d\u306e2\uff09\u696d\u52d9","client_name":"\u56fd\u571f\u4ea4\u901a\u7701\u3000\u56db\u56fd\u5730\u65b9\u6574\u5099\u5c40\u3000\u677e\u5c71\u6cb3\u5ddd\u56fd\u9053\u4e8b\u52d9\u6240","boring_xml_url":64,"boring_view_url":1,"soilmap_view_url":null,"soiltest_xml_url":0,"soiltest_view_url":0},{"id":528178,"code":"B4KJ202201003-0714","latitude":"33.817336","longitude":"132.755456","source_code":"168850402000040007","project_name":"\u5e73\u621028\u5e74\u5ea6\u3000\u91cd\u4fe1\u5ddd\u7ba1\u5185\u6d78\u900f\u5bfe\u7b56\u8a2d\u8a08\uff08\u305d\u306e2\uff09\u696d\u52d9","survey_name":"\u5e73\u621028\u5e74\u5ea6\u3000\u91cd\u4fe1\u5ddd\u7ba1\u5185\u6d78\u900f\u5bfe\u7b56\u8a2d\u8a08\uff08\u305d\u306e2\uff09\u696d\u52d9","client_name":"\u56fd\u571f\u4ea4\u901a\u7701\u3000\u56db\u56fd\u5730\u65b9\u6574\u5099\u5c40\u3000\u677e\u5c71\u6cb3\u5ddd\u56fd\u9053\u4e8b\u52d9\u6240","boring_xml_url":64,"boring_view_url":1,"soilmap_view_url":null,"soiltest_xml_url":0,"soiltest_view_url":0},{"id":528177,"code":"B4KJ202201003-0713","latitude":"33.817569","longitude":"132.755233","source_code":"168850402000040006","project_name":"\u5e73\u621028\u5e74\u5ea6\u3000\u91cd\u4fe1\u5ddd\u7ba1\u5185\u6d78\u900f\u5bfe\u7b56\u8a2d\u8a08\uff08\u305d\u306e2\uff09\u696d\u52d9","survey_name":"\u5e73\u621028\u5e74\u5ea6\u3000\u91cd\u4fe1\u5ddd\u7ba1\u5185\u6d78\u900f\u5bfe\u7b56\u8a2d\u8a08\uff08\u305d\u306e2\uff09\u696d\u52d9","client_name":"\u56fd\u571f\u4ea4\u901a\u7701\u3000\u56db\u56fd\u5730\u65b9\u6574\u5099\u5c40\u3000\u677e\u5c71\u6cb3\u5ddd\u56fd\u9053\u4e8b\u52d9\u6240","boring_xml_url":64,"boring_view_url":1,"soilmap_view_url":null,"soiltest_xml_url":0,"soiltest_view_url":0},{"id":528176,"code":"B4KJ202201003-0712","latitude":"33.814744","longitude":"132.749842","source_code":"168850402000040005","project_name":"\u5e73\u621028\u5e74\u5ea6\u3000\u91cd\u4fe1\u5ddd\u7ba1\u5185\u6d78\u900f\u5bfe\u7b56\u8a2d\u8a08\uff08\u305d\u306e2\uff09\u696d\u52d9","survey_name":"\u5e73\u621028\u5e74\u5ea6\u3000\u91cd\u4fe1\u5ddd\u7ba1\u5185\u6d78\u900f\u5bfe\u7b56\u8a2d\u8a08\uff08\u305d\u306e2\uff09\u696d\u52d9","client_name":"\u56fd\u571f\u4ea4\u901a\u7701\u3000\u56db\u56fd\u5730\u65b9\u6574\u5099\u5c40\u3000\u677e\u5c71\u6cb3\u5ddd\u56fd\u9053\u4e8b\u52d9\u6240","boring_xml_url":64,"boring_view_url":1,"soilmap_view_url":null,"soiltest_xml_url":0,"soiltest_view_url":0},{"id":528175,"code":"B4KJ202201003-0711","latitude":"33.814503","longitude":"132.749897","source_code":"168850402000040004","project_name":"\u5e73\u621028\u5e74\u5ea6\u3000\u91cd\u4fe1\u5ddd\u7ba1\u5185\u6d78\u900f\u5bfe\u7b56\u8a2d\u8a08\uff08\u305d\u306e2\uff09\u696d\u52d9","survey_name":"\u5e73\u621028\u5e74\u5ea6\u3000\u91cd\u4fe1\u5ddd\u7ba1\u5185\u6d78\u900f\u5bfe\u7b56\u8a2d\u8a08\uff08\u305d\u306e2\uff09\u696d\u52d9","client_name":"\u56fd\u571f\u4ea4\u901a\u7701\u3000\u56db\u56fd\u5730\u65b9\u6574\u5099\u5c40\u3000\u677e\u5c71\u6cb3\u5ddd\u56fd\u9053\u4e8b\u52d9\u6240","boring_xml_url":64,"boring_view_url":1,"soilmap_view_url":null,"soiltest_xml_url":0,"soiltest_view_url":0},{"id":528174,"code":"B4KJ202201003-0710","latitude":"33.814664","longitude":"132.749903","source_code":"168850402000040003","project_name":"\u5e73\u621028\u5e74\u5ea6\u3000\u91cd\u4fe1\u5ddd\u7ba1\u5185\u6d78\u900f\u5bfe\u7b56\u8a2d\u8a08\uff08\u305d\u306e2\uff09\u696d\u52d9","survey_name":"\u5e73\u621028\u5e74\u5ea6\u3000\u91cd\u4fe1\u5ddd\u7ba1\u5185\u6d78\u900f\u5bfe\u7b56\u8a2d\u8a08\uff08\u305d\u306e2\uff09\u696d\u52d9","client_name":"\u56fd\u571f\u4ea4\u901a\u7701\u3000\u56db\u56fd\u5730\u65b9\u6574\u5099\u5c40\u3000\u677e\u5c71\u6cb3\u5ddd\u56fd\u9053\u4e8b\u52d9\u6240","boring_xml_url":64,"boring_view_url":1,"soilmap_view_url":null,"soiltest_xml_url":0,"soiltest_view_url":0},{"id":528173,"code":"B4KJ202201003-0709","latitude":"33.811683","longitude":"132.742872","source_code":"168850402000040002","project_name":"\u5e73\u621028\u5e74\u5ea6\u3000\u91cd\u4fe1\u5ddd\u7ba1\u5185\u6d78\u900f\u5bfe\u7b56\u8a2d\u8a08\uff08\u305d\u306e2\uff09\u696d\u52d9","survey_name":"\u5e73\u621028\u5e74\u5ea6\u3000\u91cd\u4fe1\u5ddd\u7ba1\u5185\u6d78\u900f\u5bfe\u7b56\u8a2d\u8a08\uff08\u305d\u306e2\uff09\u696d\u52d9","client_name":"\u56fd\u571f\u4ea4\u901a\u7701\u3000\u56db\u56fd\u5730\u65b9\u6574\u5099\u5c40\u3000\u677e\u5c71\u6cb3\u5ddd\u56fd\u9053\u4e8b\u52d9\u6240","boring_xml_url":64,"boring_view_url":1,"soilmap_view_url":null,"soiltest_xml_url":0,"soiltest_view_url":0},{"id":528172,"code":"B4KJ202201003-0708","latitude":"33.811392","longitude":"132.743064","source_code":"168850402000040001","project_name":"\u5e73\u621028\u5e74\u5ea6\u3000\u91cd\u4fe1\u5ddd\u7ba1\u5185\u6d78\u900f\u5bfe\u7b56\u8a2d\u8a08\uff08\u305d\u306e2\uff09\u696d\u52d9","survey_name":"\u5e73\u621028\u5e74\u5ea6\u3000\u91cd\u4fe1\u5ddd\u7ba1\u5185\u6d78\u900f\u5bfe\u7b56\u8a2d\u8a08\uff08\u305d\u306e2\uff09\u696d\u52d9","client_name":"\u56fd\u571f\u4ea4\u901a\u7701\u3000\u56db\u56fd\u5730\u65b9\u6574\u5099\u5c40\u3000\u677e\u5c71\u6cb3\u5ddd\u56fd\u9053\u4e8b\u52d9\u6240","boring_xml_url":64,"boring_view_url":1,"soilmap_view_url":null,"soiltest_xml_url":0,"soiltest_view_url":0},{"id":528171,"code":"B4KJ202201003-0707","latitude":"33.811503","longitude":"132.742992","source_code":"168840612000090001","project_name":"\u5e73\u621028\u5e74\u5ea6\u3000\u91cd\u4fe1\u5ddd\u7ba1\u5185\u6d78\u900f\u5bfe\u7b56\u8a2d\u8a08\uff08\u305d\u306e2\uff09\u696d\u52d9","survey_name":"\u5e73\u621028\u5e74\u5ea6\u3000\u91cd\u4fe1\u5ddd\u7ba1\u5185\u6d78\u900f\u5bfe\u7b56\u8a2d\u8a08\uff08\u305d\u306e2\uff09\u696d\u52d9","client_name":"\u56fd\u571f\u4ea4\u901a\u7701\u3000\u56db\u56fd\u5730\u65b9\u6574\u5099\u5c40\u3000\u677e\u5c71\u6cb3\u5ddd\u56fd\u9053\u4e8b\u52d9\u6240","boring_xml_url":64,"boring_view_url":1,"soilmap_view_url":null,"soiltest_xml_url":0,"soiltest_view_url":0},{"id":528170,"code":"B4KJ202201003-0706","latitude":"33.809853","longitude":"132.739022","source_code":"168840552000080010","project_name":"\u5e73\u621028\u5e74\u5ea6\u3000\u91cd\u4fe1\u5ddd\u7ba1\u5185\u6d78\u900f\u5bfe\u7b56\u8a2d\u8a08\uff08\u305d\u306e2\uff09\u696d\u52d9","survey_name":"\u5e73\u621028\u5e74\u5ea6\u3000\u91cd\u4fe1\u5ddd\u7ba1\u5185\u6d78\u900f\u5bfe\u7b56\u8a2d\u8a08\uff08\u305d\u306e2\uff09\u696d\u52d9","client_name":"\u56fd\u571f\u4ea4\u901a\u7701\u3000\u56db\u56fd\u5730\u65b9\u6574\u5099\u5c40\u3000\u677e\u5c71\u6cb3\u5ddd\u56fd\u9053\u4e8b\u52d9\u6240","boring_xml_url":64,"boring_view_url":1,"soilmap_view_url":null,"soiltest_xml_url":0,"soiltest_view_url":0},{"id":528169,"code":"B4KJ202201003-0705","latitude":"33.809628","longitude":"132.739219","source_code":"168840552000080009","project_name":"\u5e73\u621028\u5e74\u5ea6\u3000\u91cd\u4fe1\u5ddd\u7ba1\u5185\u6d78\u900f\u5bfe\u7b56\u8a2d\u8a08\uff08\u305d\u306e2\uff09\u696d\u52d9","survey_name":"\u5e73\u621028\u5e74\u5ea6\u3000\u91cd\u4fe1\u5ddd\u7ba1\u5185\u6d78\u900f\u5bfe\u7b56\u8a2d\u8a08\uff08\u305d\u306e2\uff09\u696d\u52d9","client_name":"\u56fd\u571f\u4ea4\u901a\u7701\u3000\u56db\u56fd\u5730\u65b9\u6574\u5099\u5c40\u3000\u677e\u5c71\u6cb3\u5ddd\u56fd\u9053\u4e8b\u52d9\u6240","boring_xml_url":64,"boring_view_url":1,"soilmap_view_url":null,"soiltest_xml_url":0,"soiltest_view_url":0}]}}