{"header":{"xyz":{"source":[],"mosaic":false},"page":5745,"raw":{"soiltest_result":"0","bbox":"57.598333,109.544722,1.933333,163.806111","page":"5745"},"conditions":{"soiltest_result":0,"north":57.598333,"west":109.544722,"south":1.933333,"east":163.806111},"success":true,"message":""},"data":{"meta":{"total":212844,"page":5745,"pages":7095,"count":30},"values":[{"id":148225,"code":"B4KJ201801003-6474","latitude":"35.35104194","longitude":"139.4800342","source_code":"KT53390318019","project_name":"","survey_name":"\u6e58\u5357\u56fd\u9053\u85e4\u6ca2\u5730\u533a\u571f\u8cea\u8abf\u67fb","client_name":"\u56fd\u571f\u4ea4\u901a\u7701\u95a2\u6771\u5730\u65b9\u6574\u5099\u5c40\u6a2a\u6d5c\u56fd\u9053\u4e8b\u52d9\u6240","boring_xml_url":40,"boring_view_url":1,"soilmap_view_url":null,"soiltest_xml_url":0,"soiltest_view_url":0},{"id":148224,"code":"B4KJ201801003-6473","latitude":"35.35007","longitude":"139.4820619","source_code":"KT53390318018","project_name":"","survey_name":"\u6e58\u5357\u56fd\u9053\u85e4\u6ca2\u5730\u533a\u571f\u8cea\u8abf\u67fb","client_name":"\u56fd\u571f\u4ea4\u901a\u7701\u95a2\u6771\u5730\u65b9\u6574\u5099\u5c40\u6a2a\u6d5c\u56fd\u9053\u4e8b\u52d9\u6240","boring_xml_url":40,"boring_view_url":1,"soilmap_view_url":null,"soiltest_xml_url":0,"soiltest_view_url":0},{"id":148223,"code":"B4KJ201801003-6472","latitude":"35.35007","longitude":"139.4820619","source_code":"KT53390318017","project_name":"","survey_name":"\u6e58\u5357\u56fd\u9053\u85e4\u6ca2\u5730\u533a\u571f\u8cea\u8abf\u67fb","client_name":"\u56fd\u571f\u4ea4\u901a\u7701\u95a2\u6771\u5730\u65b9\u6574\u5099\u5c40\u6a2a\u6d5c\u56fd\u9053\u4e8b\u52d9\u6240","boring_xml_url":40,"boring_view_url":1,"soilmap_view_url":null,"soiltest_xml_url":0,"soiltest_view_url":0},{"id":148222,"code":"B4KJ201801003-6471","latitude":"35.34993111","longitude":"139.4810064","source_code":"KT53390318016","project_name":"","survey_name":"\u6e58\u5357\u56fd\u9053\u85e4\u6ca2\u5730\u533a\u571f\u8cea\u8abf\u67fb","client_name":"\u56fd\u571f\u4ea4\u901a\u7701\u95a2\u6771\u5730\u65b9\u6574\u5099\u5c40\u6a2a\u6d5c\u56fd\u9053\u4e8b\u52d9\u6240","boring_xml_url":40,"boring_view_url":1,"soilmap_view_url":null,"soiltest_xml_url":0,"soiltest_view_url":0},{"id":148221,"code":"B4KJ201801003-6470","latitude":"35.34873667","longitude":"139.4769514","source_code":"KT53390318015","project_name":"","survey_name":"\u6e58\u5357\u56fd\u9053\u85e4\u6ca2\u5730\u533a\u571f\u8cea\u8abf\u67fb","client_name":"\u56fd\u571f\u4ea4\u901a\u7701\u95a2\u6771\u5730\u65b9\u6574\u5099\u5c40\u6a2a\u6d5c\u56fd\u9053\u4e8b\u52d9\u6240","boring_xml_url":40,"boring_view_url":1,"soilmap_view_url":null,"soiltest_xml_url":0,"soiltest_view_url":0},{"id":148220,"code":"B4KJ201801003-6469","latitude":"35.34895889","longitude":"139.4768958","source_code":"KT53390318014","project_name":"","survey_name":"\u6e58\u5357\u56fd\u9053\u85e4\u6ca2\u5730\u533a\u571f\u8cea\u8abf\u67fb","client_name":"\u56fd\u571f\u4ea4\u901a\u7701\u95a2\u6771\u5730\u65b9\u6574\u5099\u5c40\u6a2a\u6d5c\u56fd\u9053\u4e8b\u52d9\u6240","boring_xml_url":40,"boring_view_url":1,"soilmap_view_url":null,"soiltest_xml_url":0,"soiltest_view_url":0},{"id":148219,"code":"B4KJ201801003-6468","latitude":"35.34887556","longitude":"139.4763681","source_code":"KT53390318013","project_name":"","survey_name":"\u6e58\u5357\u56fd\u9053\u85e4\u6ca2\u5730\u533a\u571f\u8cea\u8abf\u67fb","client_name":"\u56fd\u571f\u4ea4\u901a\u7701\u95a2\u6771\u5730\u65b9\u6574\u5099\u5c40\u6a2a\u6d5c\u56fd\u9053\u4e8b\u52d9\u6240","boring_xml_url":40,"boring_view_url":1,"soilmap_view_url":null,"soiltest_xml_url":0,"soiltest_view_url":0},{"id":148218,"code":"B4KJ201801003-6467","latitude":"35.34887556","longitude":"139.4763681","source_code":"KT53390318012","project_name":"","survey_name":"\u6e58\u5357\u56fd\u9053\u85e4\u6ca2\u5730\u533a\u571f\u8cea\u8abf\u67fb","client_name":"\u56fd\u571f\u4ea4\u901a\u7701\u95a2\u6771\u5730\u65b9\u6574\u5099\u5c40\u6a2a\u6d5c\u56fd\u9053\u4e8b\u52d9\u6240","boring_xml_url":40,"boring_view_url":1,"soilmap_view_url":null,"soiltest_xml_url":0,"soiltest_view_url":0},{"id":148217,"code":"B4KJ201801003-6466","latitude":"35.35079222","longitude":"139.4812564","source_code":"KT53390318011","project_name":"","survey_name":"\u6e58\u5357\u56fd\u9053\u85e4\u6ca2\u5730\u533a\u571f\u8cea\u8abf\u67fb","client_name":"\u56fd\u571f\u4ea4\u901a\u7701\u95a2\u6771\u5730\u65b9\u6574\u5099\u5c40\u6a2a\u6d5c\u56fd\u9053\u4e8b\u52d9\u6240","boring_xml_url":40,"boring_view_url":1,"soilmap_view_url":null,"soiltest_xml_url":0,"soiltest_view_url":0},{"id":148216,"code":"B4KJ201801003-6465","latitude":"35.35068111","longitude":"139.4805342","source_code":"KT53390318010","project_name":"","survey_name":"\u6e58\u5357\u56fd\u9053\u85e4\u6ca2\u5730\u533a\u571f\u8cea\u8abf\u67fb","client_name":"\u56fd\u571f\u4ea4\u901a\u7701\u95a2\u6771\u5730\u65b9\u6574\u5099\u5c40\u6a2a\u6d5c\u56fd\u9053\u4e8b\u52d9\u6240","boring_xml_url":40,"boring_view_url":1,"soilmap_view_url":null,"soiltest_xml_url":0,"soiltest_view_url":0},{"id":148215,"code":"B4KJ201801003-6464","latitude":"35.34973667","longitude":"139.4830342","source_code":"KT53390318009","project_name":"","survey_name":"\u6e58\u5357\u56fd\u9053\u85e4\u6ca2\u5730\u533a\u571f\u8cea\u8abf\u67fb","client_name":"\u56fd\u571f\u4ea4\u901a\u7701\u95a2\u6771\u5730\u65b9\u6574\u5099\u5c40\u6a2a\u6d5c\u56fd\u9053\u4e8b\u52d9\u6240","boring_xml_url":40,"boring_view_url":1,"soilmap_view_url":null,"soiltest_xml_url":0,"soiltest_view_url":0},{"id":148214,"code":"B4KJ201801003-6463","latitude":"35.34876472","longitude":"139.4827286","source_code":"KT53390318008","project_name":"","survey_name":"\u6e58\u5357\u56fd\u9053\u85e4\u6ca2\u5730\u533a\u571f\u8cea\u8abf\u67fb","client_name":"\u56fd\u571f\u4ea4\u901a\u7701\u95a2\u6771\u5730\u65b9\u6574\u5099\u5c40\u6a2a\u6d5c\u56fd\u9053\u4e8b\u52d9\u6240","boring_xml_url":40,"boring_view_url":1,"soilmap_view_url":null,"soiltest_xml_url":0,"soiltest_view_url":0},{"id":148213,"code":"B4KJ201801003-6462","latitude":"35.34898667","longitude":"139.4794233","source_code":"KT53390318007","project_name":"","survey_name":"\u6e58\u5357\u56fd\u9053\u85e4\u6ca2\u5730\u533a\u571f\u8cea\u8abf\u67fb","client_name":"\u56fd\u571f\u4ea4\u901a\u7701\u95a2\u6771\u5730\u65b9\u6574\u5099\u5c40\u6a2a\u6d5c\u56fd\u9053\u4e8b\u52d9\u6240","boring_xml_url":40,"boring_view_url":1,"soilmap_view_url":null,"soiltest_xml_url":0,"soiltest_view_url":0},{"id":148212,"code":"B4KJ201801003-6461","latitude":"35.35151417","longitude":"139.4819508","source_code":"KT53390318006","project_name":"","survey_name":"\u6e58\u5357\u56fd\u9053\u85e4\u6ca2\u5730\u533a\u571f\u8cea\u8abf\u67fb","client_name":"\u56fd\u571f\u4ea4\u901a\u7701\u95a2\u6771\u5730\u65b9\u6574\u5099\u5c40\u6a2a\u6d5c\u56fd\u9053\u4e8b\u52d9\u6240","boring_xml_url":40,"boring_view_url":1,"soilmap_view_url":null,"soiltest_xml_url":0,"soiltest_view_url":0},{"id":148211,"code":"B4KJ201801003-6460","latitude":"35.35298639","longitude":"139.4835339","source_code":"KT53390318005","project_name":"","survey_name":"\u6e58\u5357\u56fd\u9053\u85e4\u6ca2\u5730\u533a\u571f\u8cea\u8abf\u67fb","client_name":"\u56fd\u571f\u4ea4\u901a\u7701\u95a2\u6771\u5730\u65b9\u6574\u5099\u5c40\u6a2a\u6d5c\u56fd\u9053\u4e8b\u52d9\u6240","boring_xml_url":40,"boring_view_url":1,"soilmap_view_url":null,"soiltest_xml_url":0,"soiltest_view_url":0},{"id":148210,"code":"B4KJ201801003-6459","latitude":"35.35029222","longitude":"139.47859","source_code":"KT53390318004","project_name":"","survey_name":"\u6e58\u5357\u56fd\u9053\u85e4\u6ca2\u5730\u533a\u571f\u8cea\u8abf\u67fb","client_name":"\u56fd\u571f\u4ea4\u901a\u7701\u95a2\u6771\u5730\u65b9\u6574\u5099\u5c40\u6a2a\u6d5c\u56fd\u9053\u4e8b\u52d9\u6240","boring_xml_url":40,"boring_view_url":1,"soilmap_view_url":null,"soiltest_xml_url":0,"soiltest_view_url":0},{"id":148209,"code":"B4KJ201801003-6458","latitude":"35.35073639","longitude":"139.4779233","source_code":"KT53390318003","project_name":"","survey_name":"\u6e58\u5357\u56fd\u9053\u85e4\u6ca2\u5730\u533a\u571f\u8cea\u8abf\u67fb","client_name":"\u56fd\u571f\u4ea4\u901a\u7701\u95a2\u6771\u5730\u65b9\u6574\u5099\u5c40\u6a2a\u6d5c\u56fd\u9053\u4e8b\u52d9\u6240","boring_xml_url":40,"boring_view_url":1,"soilmap_view_url":null,"soiltest_xml_url":0,"soiltest_view_url":0},{"id":148208,"code":"B4KJ201801003-6457","latitude":"35.35012528","longitude":"139.4774511","source_code":"KT53390318002","project_name":"","survey_name":"\u6e58\u5357\u56fd\u9053\u85e4\u6ca2\u5730\u533a\u571f\u8cea\u8abf\u67fb","client_name":"\u56fd\u571f\u4ea4\u901a\u7701\u95a2\u6771\u5730\u65b9\u6574\u5099\u5c40\u6a2a\u6d5c\u56fd\u9053\u4e8b\u52d9\u6240","boring_xml_url":40,"boring_view_url":1,"soilmap_view_url":null,"soiltest_xml_url":0,"soiltest_view_url":0},{"id":148207,"code":"B4KJ201801003-6456","latitude":"35.35062528","longitude":"139.4769789","source_code":"KT53390318001","project_name":"","survey_name":"\u6e58\u5357\u56fd\u9053\u85e4\u6ca2\u5730\u533a\u571f\u8cea\u8abf\u67fb","client_name":"\u56fd\u571f\u4ea4\u901a\u7701\u95a2\u6771\u5730\u65b9\u6574\u5099\u5c40\u6a2a\u6d5c\u56fd\u9053\u4e8b\u52d9\u6240","boring_xml_url":40,"boring_view_url":1,"soilmap_view_url":null,"soiltest_xml_url":0,"soiltest_view_url":0},{"id":148206,"code":"B4KJ201801003-6455","latitude":"35.34865278","longitude":"139.4605083","source_code":"KT53390317031","project_name":"","survey_name":"H12\u6a2a\u6e58\u3068\u308a\u307e\u3068\u3081(\u305d\u306e4-3)\u696d\u52d9","client_name":"\u56fd\u571f\u4ea4\u901a\u7701\u95a2\u6771\u5730\u65b9\u6574\u5099\u5c40\u6a2a\u6d5c\u56fd\u9053\u4e8b\u52d9\u6240","boring_xml_url":40,"boring_view_url":1,"soilmap_view_url":null,"soiltest_xml_url":0,"soiltest_view_url":0},{"id":148205,"code":"B4KJ201801003-6454","latitude":"35.34876417","longitude":"139.4638136","source_code":"KT53390317030","project_name":"","survey_name":"H12\u6a2a\u6e58\u3068\u308a\u307e\u3068\u3081(\u305d\u306e4-3)\u696d\u52d9","client_name":"\u56fd\u571f\u4ea4\u901a\u7701\u95a2\u6771\u5730\u65b9\u6574\u5099\u5c40\u6a2a\u6d5c\u56fd\u9053\u4e8b\u52d9\u6240","boring_xml_url":40,"boring_view_url":1,"soilmap_view_url":null,"soiltest_xml_url":0,"soiltest_view_url":0},{"id":148204,"code":"B4KJ201801003-6453","latitude":"35.34898639","longitude":"139.4677853","source_code":"KT53390317029","project_name":"","survey_name":"H12\u6a2a\u6e58\u3068\u308a\u307e\u3068\u3081(\u305d\u306e4-3)\u696d\u52d9","client_name":"\u56fd\u571f\u4ea4\u901a\u7701\u95a2\u6771\u5730\u65b9\u6574\u5099\u5c40\u6a2a\u6d5c\u56fd\u9053\u4e8b\u52d9\u6240","boring_xml_url":40,"boring_view_url":1,"soilmap_view_url":null,"soiltest_xml_url":0,"soiltest_view_url":0},{"id":148203,"code":"B4KJ201801003-6452","latitude":"35.34968083","longitude":"139.4705353","source_code":"KT53390317028","project_name":"","survey_name":"H12\u6a2a\u6e58\u3068\u308a\u307e\u3068\u3081(\u305d\u306e4-3)\u696d\u52d9","client_name":"\u56fd\u571f\u4ea4\u901a\u7701\u95a2\u6771\u5730\u65b9\u6574\u5099\u5c40\u6a2a\u6d5c\u56fd\u9053\u4e8b\u52d9\u6240","boring_xml_url":40,"boring_view_url":1,"soilmap_view_url":null,"soiltest_xml_url":0,"soiltest_view_url":0},{"id":148202,"code":"B4KJ201801003-6451","latitude":"35.34926417","longitude":"139.4715628","source_code":"KT53390317015","project_name":"","survey_name":"\u6e58\u5357\u56fd\u9053\u85e4\u6ca2\u5730\u533a\u571f\u8cea\u8abf\u67fb","client_name":"\u56fd\u571f\u4ea4\u901a\u7701\u95a2\u6771\u5730\u65b9\u6574\u5099\u5c40\u6a2a\u6d5c\u56fd\u9053\u4e8b\u52d9\u6240","boring_xml_url":40,"boring_view_url":1,"soilmap_view_url":null,"soiltest_xml_url":0,"soiltest_view_url":0},{"id":148201,"code":"B4KJ201801003-6450","latitude":"35.34915306","longitude":"139.4703686","source_code":"KT53390317014","project_name":"","survey_name":"\u6e58\u5357\u56fd\u9053\u85e4\u6ca2\u5730\u533a\u571f\u8cea\u8abf\u67fb","client_name":"\u56fd\u571f\u4ea4\u901a\u7701\u95a2\u6771\u5730\u65b9\u6574\u5099\u5c40\u6a2a\u6d5c\u56fd\u9053\u4e8b\u52d9\u6240","boring_xml_url":40,"boring_view_url":1,"soilmap_view_url":null,"soiltest_xml_url":0,"soiltest_view_url":0},{"id":148200,"code":"B4KJ201801003-6449","latitude":"35.34898639","longitude":"139.4693686","source_code":"KT53390317013","project_name":"","survey_name":"\u6e58\u5357\u56fd\u9053\u85e4\u6ca2\u5730\u533a\u571f\u8cea\u8abf\u67fb","client_name":"\u56fd\u571f\u4ea4\u901a\u7701\u95a2\u6771\u5730\u65b9\u6574\u5099\u5c40\u6a2a\u6d5c\u56fd\u9053\u4e8b\u52d9\u6240","boring_xml_url":40,"boring_view_url":1,"soilmap_view_url":null,"soiltest_xml_url":0,"soiltest_view_url":0},{"id":148199,"code":"B4KJ201801003-6448","latitude":"35.34898639","longitude":"139.4685353","source_code":"KT53390317012","project_name":"","survey_name":"\u6e58\u5357\u56fd\u9053\u85e4\u6ca2\u5730\u533a\u571f\u8cea\u8abf\u67fb","client_name":"\u56fd\u571f\u4ea4\u901a\u7701\u95a2\u6771\u5730\u65b9\u6574\u5099\u5c40\u6a2a\u6d5c\u56fd\u9053\u4e8b\u52d9\u6240","boring_xml_url":40,"boring_view_url":1,"soilmap_view_url":null,"soiltest_xml_url":0,"soiltest_view_url":0},{"id":148198,"code":"B4KJ201801003-6447","latitude":"35.34887528","longitude":"139.46723","source_code":"KT53390317011","project_name":"","survey_name":"\u6e58\u5357\u56fd\u9053\u85e4\u6ca2\u5730\u533a\u571f\u8cea\u8abf\u67fb","client_name":"\u56fd\u571f\u4ea4\u901a\u7701\u95a2\u6771\u5730\u65b9\u6574\u5099\u5c40\u6a2a\u6d5c\u56fd\u9053\u4e8b\u52d9\u6240","boring_xml_url":40,"boring_view_url":1,"soilmap_view_url":null,"soiltest_xml_url":0,"soiltest_view_url":0},{"id":148197,"code":"B4KJ201801003-6446","latitude":"35.34968056","longitude":"139.4651744","source_code":"KT53390317010","project_name":"","survey_name":"\u6e58\u5357\u56fd\u9053\u85e4\u6ca2\u5730\u533a\u571f\u8cea\u8abf\u67fb","client_name":"\u56fd\u571f\u4ea4\u901a\u7701\u95a2\u6771\u5730\u65b9\u6574\u5099\u5c40\u6a2a\u6d5c\u56fd\u9053\u4e8b\u52d9\u6240","boring_xml_url":40,"boring_view_url":1,"soilmap_view_url":null,"soiltest_xml_url":0,"soiltest_view_url":0},{"id":148196,"code":"B4KJ201801003-6445","latitude":"35.34959722","longitude":"139.4647578","source_code":"KT53390317009","project_name":"","survey_name":"\u6e58\u5357\u56fd\u9053\u85e4\u6ca2\u5730\u533a\u571f\u8cea\u8abf\u67fb","client_name":"\u56fd\u571f\u4ea4\u901a\u7701\u95a2\u6771\u5730\u65b9\u6574\u5099\u5c40\u6a2a\u6d5c\u56fd\u9053\u4e8b\u52d9\u6240","boring_xml_url":40,"boring_view_url":1,"soilmap_view_url":null,"soiltest_xml_url":0,"soiltest_view_url":0}]}}