{"header":{"xyz":{"source":[],"mosaic":false},"page":5748,"raw":{"soiltest_result":"0","bbox":"57.598333,109.544722,1.933333,163.806111","page":"5748"},"conditions":{"soiltest_result":0,"north":57.598333,"west":109.544722,"south":1.933333,"east":163.806111},"success":true,"message":""},"data":{"meta":{"total":212844,"page":5748,"pages":7095,"count":30},"values":[{"id":148135,"code":"B4KJ201801003-6384","latitude":"35.351595","longitude":"139.3854311","source_code":"KT53390311050","project_name":"","survey_name":"H7\u3055\u304c\u307f\u8305\u30f6\u5d0e\u5bd2\u5ddd\u5730\u8cea\u8abf\u67fb\u696d\u52d9","client_name":"\u56fd\u571f\u4ea4\u901a\u7701\u95a2\u6771\u5730\u65b9\u6574\u5099\u5c40\u6a2a\u6d5c\u56fd\u9053\u4e8b\u52d9\u6240","boring_xml_url":40,"boring_view_url":1,"soilmap_view_url":null,"soiltest_xml_url":0,"soiltest_view_url":0},{"id":148134,"code":"B4KJ201801003-6383","latitude":"35.35131722","longitude":"139.3858478","source_code":"KT53390311049","project_name":"","survey_name":"H7\u3055\u304c\u307f\u8305\u30f6\u5d0e\u5bd2\u5ddd\u5730\u8cea\u8abf\u67fb\u696d\u52d9","client_name":"\u56fd\u571f\u4ea4\u901a\u7701\u95a2\u6771\u5730\u65b9\u6574\u5099\u5c40\u6a2a\u6d5c\u56fd\u9053\u4e8b\u52d9\u6240","boring_xml_url":40,"boring_view_url":1,"soilmap_view_url":null,"soiltest_xml_url":0,"soiltest_view_url":0},{"id":148133,"code":"B4KJ201801003-6382","latitude":"35.35103972","longitude":"139.3873756","source_code":"KT53390311048","project_name":"","survey_name":"H7\u3055\u304c\u307f\u8305\u30f6\u5d0e\u5bd2\u5ddd\u5730\u8cea\u8abf\u67fb\u696d\u52d9","client_name":"\u56fd\u571f\u4ea4\u901a\u7701\u95a2\u6771\u5730\u65b9\u6574\u5099\u5c40\u6a2a\u6d5c\u56fd\u9053\u4e8b\u52d9\u6240","boring_xml_url":40,"boring_view_url":1,"soilmap_view_url":null,"soiltest_xml_url":0,"soiltest_view_url":0},{"id":148132,"code":"B4KJ201801003-6381","latitude":"35.35090083","longitude":"139.3894586","source_code":"KT53390311047","project_name":"","survey_name":"H7\u3055\u304c\u307f\u8305\u30f6\u5d0e\u5bd2\u5ddd\u5730\u8cea\u8abf\u67fb\u696d\u52d9","client_name":"\u56fd\u571f\u4ea4\u901a\u7701\u95a2\u6771\u5730\u65b9\u6574\u5099\u5c40\u6a2a\u6d5c\u56fd\u9053\u4e8b\u52d9\u6240","boring_xml_url":40,"boring_view_url":1,"soilmap_view_url":null,"soiltest_xml_url":0,"soiltest_view_url":0},{"id":148131,"code":"B4KJ201801003-6380","latitude":"35.35062306","longitude":"139.3941806","source_code":"KT53390311046","project_name":"","survey_name":"H7\u3055\u304c\u307f\u8305\u30f6\u5d0e\u5bd2\u5ddd\u5730\u8cea\u8abf\u67fb\u696d\u52d9","client_name":"\u56fd\u571f\u4ea4\u901a\u7701\u95a2\u6771\u5730\u65b9\u6574\u5099\u5c40\u6a2a\u6d5c\u56fd\u9053\u4e8b\u52d9\u6240","boring_xml_url":40,"boring_view_url":1,"soilmap_view_url":null,"soiltest_xml_url":0,"soiltest_view_url":0},{"id":148130,"code":"B4KJ201801003-6379","latitude":"35.35048444","longitude":"139.3957081","source_code":"KT53390311045","project_name":"","survey_name":"H7\u3055\u304c\u307f\u8305\u30f6\u5d0e\u5bd2\u5ddd\u5730\u8cea\u8abf\u67fb\u696d\u52d9","client_name":"\u56fd\u571f\u4ea4\u901a\u7701\u95a2\u6771\u5730\u65b9\u6574\u5099\u5c40\u6a2a\u6d5c\u56fd\u9053\u4e8b\u52d9\u6240","boring_xml_url":40,"boring_view_url":1,"soilmap_view_url":null,"soiltest_xml_url":0,"soiltest_view_url":0},{"id":148129,"code":"B4KJ201801003-6378","latitude":"35.35062306","longitude":"139.3944583","source_code":"KT53390311044","project_name":"","survey_name":"H7\u3055\u304c\u307f\u8305\u30f6\u5d0e\u5bd2\u5ddd\u5730\u8cea\u8abf\u67fb\u696d\u52d9","client_name":"\u56fd\u571f\u4ea4\u901a\u7701\u95a2\u6771\u5730\u65b9\u6574\u5099\u5c40\u6a2a\u6d5c\u56fd\u9053\u4e8b\u52d9\u6240","boring_xml_url":40,"boring_view_url":1,"soilmap_view_url":null,"soiltest_xml_url":0,"soiltest_view_url":0},{"id":148128,"code":"B4KJ201801003-6377","latitude":"35.35048417","longitude":"139.3941806","source_code":"KT53390311043","project_name":"","survey_name":"H7\u3055\u304c\u307f\u8305\u30f6\u5d0e\u5bd2\u5ddd\u5730\u8cea\u8abf\u67fb\u696d\u52d9","client_name":"\u56fd\u571f\u4ea4\u901a\u7701\u95a2\u6771\u5730\u65b9\u6574\u5099\u5c40\u6a2a\u6d5c\u56fd\u9053\u4e8b\u52d9\u6240","boring_xml_url":40,"boring_view_url":1,"soilmap_view_url":null,"soiltest_xml_url":0,"soiltest_view_url":0},{"id":148127,"code":"B4KJ201801003-6376","latitude":"35.35076194","longitude":"139.3937639","source_code":"KT53390311042","project_name":"","survey_name":"H7\u3055\u304c\u307f\u8305\u30f6\u5d0e\u5bd2\u5ddd\u5730\u8cea\u8abf\u67fb\u696d\u52d9","client_name":"\u56fd\u571f\u4ea4\u901a\u7701\u95a2\u6771\u5730\u65b9\u6574\u5099\u5c40\u6a2a\u6d5c\u56fd\u9053\u4e8b\u52d9\u6240","boring_xml_url":40,"boring_view_url":1,"soilmap_view_url":null,"soiltest_xml_url":0,"soiltest_view_url":0},{"id":148126,"code":"B4KJ201801003-6375","latitude":"35.35076194","longitude":"139.3922361","source_code":"KT53390311041","project_name":"","survey_name":"H7\u3055\u304c\u307f\u8305\u30f6\u5d0e\u5bd2\u5ddd\u5730\u8cea\u8abf\u67fb\u696d\u52d9","client_name":"\u56fd\u571f\u4ea4\u901a\u7701\u95a2\u6771\u5730\u65b9\u6574\u5099\u5c40\u6a2a\u6d5c\u56fd\u9053\u4e8b\u52d9\u6240","boring_xml_url":40,"boring_view_url":1,"soilmap_view_url":null,"soiltest_xml_url":0,"soiltest_view_url":0},{"id":148125,"code":"B4KJ201801003-6374","latitude":"35.34820667","longitude":"139.3904308","source_code":"KT53390311040","project_name":"","survey_name":"\u65b0\u6e58\u5357\u56fd\u9053\u897f\u4e45\u4fdd\u5730\u533a\u4ed61\u30f6\u6240\u5730\u8cea\u8abf\u67fb","client_name":"\u56fd\u571f\u4ea4\u901a\u7701\u95a2\u6771\u5730\u65b9\u6574\u5099\u5c40\u6a2a\u6d5c\u56fd\u9053\u4e8b\u52d9\u6240","boring_xml_url":40,"boring_view_url":1,"soilmap_view_url":null,"soiltest_xml_url":0,"soiltest_view_url":0},{"id":148124,"code":"B4KJ201801003-6373","latitude":"35.35012306","longitude":"139.3928472","source_code":"KT53390311039","project_name":"","survey_name":"\u65b0\u6e58\u5357\u56fd\u9053\u897f\u4e45\u4fdd\u5730\u533a\u4ed61\u30f6\u6240\u5730\u8cea\u8abf\u67fb","client_name":"\u56fd\u571f\u4ea4\u901a\u7701\u95a2\u6771\u5730\u65b9\u6574\u5099\u5c40\u6a2a\u6d5c\u56fd\u9053\u4e8b\u52d9\u6240","boring_xml_url":40,"boring_view_url":1,"soilmap_view_url":null,"soiltest_xml_url":0,"soiltest_view_url":0},{"id":148123,"code":"B4KJ201801003-6372","latitude":"35.35078972","longitude":"139.3956525","source_code":"KT53390311038","project_name":"","survey_name":"\u65b0\u6e58\u5357\u56fd\u9053\u897f\u4e45\u4fdd\u5730\u533a\u4ed61\u30f6\u6240\u5730\u8cea\u8abf\u67fb","client_name":"\u56fd\u571f\u4ea4\u901a\u7701\u95a2\u6771\u5730\u65b9\u6574\u5099\u5c40\u6a2a\u6d5c\u56fd\u9053\u4e8b\u52d9\u6240","boring_xml_url":40,"boring_view_url":1,"soilmap_view_url":null,"soiltest_xml_url":0,"soiltest_view_url":0},{"id":148122,"code":"B4KJ201801003-6371","latitude":"35.34495694","longitude":"139.3887644","source_code":"KT53390311037","project_name":"","survey_name":"\u65b0\u6e58\u5357\u56fd\u9053\u5730\u8cea\u8abf\u67fb(\u305d\u306e5)","client_name":"\u56fd\u571f\u4ea4\u901a\u7701\u95a2\u6771\u5730\u65b9\u6574\u5099\u5c40\u6a2a\u6d5c\u56fd\u9053\u4e8b\u52d9\u6240","boring_xml_url":40,"boring_view_url":1,"soilmap_view_url":null,"soiltest_xml_url":0,"soiltest_view_url":0},{"id":148121,"code":"B4KJ201801003-6370","latitude":"35.34717889","longitude":"139.3899586","source_code":"KT53390311036","project_name":"","survey_name":"\u65b0\u6e58\u5357\u56fd\u9053\u5730\u8cea\u8abf\u67fb(\u305d\u306e5)","client_name":"\u56fd\u571f\u4ea4\u901a\u7701\u95a2\u6771\u5730\u65b9\u6574\u5099\u5c40\u6a2a\u6d5c\u56fd\u9053\u4e8b\u52d9\u6240","boring_xml_url":40,"boring_view_url":1,"soilmap_view_url":null,"soiltest_xml_url":0,"soiltest_view_url":0},{"id":148120,"code":"B4KJ201801003-6369","latitude":"35.3465125","longitude":"139.3912642","source_code":"KT53390311035","project_name":"","survey_name":"\u65b0\u6e58\u5357\u56fd\u9053\u5730\u8cea\u8abf\u67fb(\u305d\u306e5)","client_name":"\u56fd\u571f\u4ea4\u901a\u7701\u95a2\u6771\u5730\u65b9\u6574\u5099\u5c40\u6a2a\u6d5c\u56fd\u9053\u4e8b\u52d9\u6240","boring_xml_url":40,"boring_view_url":1,"soilmap_view_url":null,"soiltest_xml_url":0,"soiltest_view_url":0},{"id":148119,"code":"B4KJ201801003-6368","latitude":"35.34901222","longitude":"139.3918197","source_code":"KT53390311034","project_name":"","survey_name":"\u65b0\u6e58\u5357\u56fd\u9053\u5730\u8cea\u8abf\u67fb(\u305d\u306e5)","client_name":"\u56fd\u571f\u4ea4\u901a\u7701\u95a2\u6771\u5730\u65b9\u6574\u5099\u5c40\u6a2a\u6d5c\u56fd\u9053\u4e8b\u52d9\u6240","boring_xml_url":40,"boring_view_url":1,"soilmap_view_url":null,"soiltest_xml_url":0,"soiltest_view_url":0},{"id":148118,"code":"B4KJ201801003-6367","latitude":"35.34970667","longitude":"139.3939028","source_code":"KT53390311033","project_name":"","survey_name":"\u65b0\u6e58\u5357\u56fd\u9053\u5730\u8cea\u8abf\u67fb(\u305d\u306e5)","client_name":"\u56fd\u571f\u4ea4\u901a\u7701\u95a2\u6771\u5730\u65b9\u6574\u5099\u5c40\u6a2a\u6d5c\u56fd\u9053\u4e8b\u52d9\u6240","boring_xml_url":40,"boring_view_url":1,"soilmap_view_url":null,"soiltest_xml_url":0,"soiltest_view_url":0},{"id":148117,"code":"B4KJ201801003-6366","latitude":"35.35053972","longitude":"139.394125","source_code":"KT53390311032","project_name":"","survey_name":"\u65b0\u6e58\u5357\u56fd\u9053\u5730\u8cea\u8abf\u67fb(\u305d\u306e5)","client_name":"\u56fd\u571f\u4ea4\u901a\u7701\u95a2\u6771\u5730\u65b9\u6574\u5099\u5c40\u6a2a\u6d5c\u56fd\u9053\u4e8b\u52d9\u6240","boring_xml_url":40,"boring_view_url":1,"soilmap_view_url":null,"soiltest_xml_url":0,"soiltest_view_url":0},{"id":148116,"code":"B4KJ201801003-6365","latitude":"35.35067861","longitude":"139.3950969","source_code":"KT53390311031","project_name":"","survey_name":"\u65b0\u6e58\u5357\u56fd\u9053\u5730\u8cea\u8abf\u67fb(\u305d\u306e5)","client_name":"\u56fd\u571f\u4ea4\u901a\u7701\u95a2\u6771\u5730\u65b9\u6574\u5099\u5c40\u6a2a\u6d5c\u56fd\u9053\u4e8b\u52d9\u6240","boring_xml_url":40,"boring_view_url":1,"soilmap_view_url":null,"soiltest_xml_url":0,"soiltest_view_url":0},{"id":148115,"code":"B4KJ201801003-6364","latitude":"35.34615139","longitude":"139.3893756","source_code":"KT53390311030","project_name":"","survey_name":"\u65b0\u6e58\u5357\u56fd\u9053\u897f\u4e45\u4fdd\u5730\u533a(\u305d\u306e2)\u5730\u8cea\u8abf\u67fb","client_name":"\u56fd\u571f\u4ea4\u901a\u7701\u95a2\u6771\u5730\u65b9\u6574\u5099\u5c40\u6a2a\u6d5c\u56fd\u9053\u4e8b\u52d9\u6240","boring_xml_url":40,"boring_view_url":1,"soilmap_view_url":null,"soiltest_xml_url":0,"soiltest_view_url":0},{"id":148114,"code":"B4KJ201801003-6363","latitude":"35.34648472","longitude":"139.3894867","source_code":"KT53390311029","project_name":"","survey_name":"\u65b0\u6e58\u5357\u56fd\u9053\u897f\u4e45\u4fdd\u5730\u533a(\u305d\u306e2)\u5730\u8cea\u8abf\u67fb","client_name":"\u56fd\u571f\u4ea4\u901a\u7701\u95a2\u6771\u5730\u65b9\u6574\u5099\u5c40\u6a2a\u6d5c\u56fd\u9053\u4e8b\u52d9\u6240","boring_xml_url":40,"boring_view_url":1,"soilmap_view_url":null,"soiltest_xml_url":0,"soiltest_view_url":0},{"id":148113,"code":"B4KJ201801003-6362","latitude":"35.3467625","longitude":"139.3896811","source_code":"KT53390311028","project_name":"","survey_name":"\u65b0\u6e58\u5357\u56fd\u9053\u897f\u4e45\u4fdd\u5730\u533a(\u305d\u306e2)\u5730\u8cea\u8abf\u67fb","client_name":"\u56fd\u571f\u4ea4\u901a\u7701\u95a2\u6771\u5730\u65b9\u6574\u5099\u5c40\u6a2a\u6d5c\u56fd\u9053\u4e8b\u52d9\u6240","boring_xml_url":40,"boring_view_url":1,"soilmap_view_url":null,"soiltest_xml_url":0,"soiltest_view_url":0},{"id":148112,"code":"B4KJ201801003-6361","latitude":"35.34740111","longitude":"139.3900975","source_code":"KT53390311027","project_name":"","survey_name":"\u65b0\u6e58\u5357\u56fd\u9053\u897f\u4e45\u4fdd\u5730\u533a(\u305d\u306e2)\u5730\u8cea\u8abf\u67fb","client_name":"\u56fd\u571f\u4ea4\u901a\u7701\u95a2\u6771\u5730\u65b9\u6574\u5099\u5c40\u6a2a\u6d5c\u56fd\u9053\u4e8b\u52d9\u6240","boring_xml_url":40,"boring_view_url":1,"soilmap_view_url":null,"soiltest_xml_url":0,"soiltest_view_url":0},{"id":148111,"code":"B4KJ201801003-6360","latitude":"35.34754","longitude":"139.3902086","source_code":"KT53390311026","project_name":"","survey_name":"\u65b0\u6e58\u5357\u56fd\u9053\u897f\u4e45\u4fdd\u5730\u533a(\u305d\u306e2)\u5730\u8cea\u8abf\u67fb","client_name":"\u56fd\u571f\u4ea4\u901a\u7701\u95a2\u6771\u5730\u65b9\u6574\u5099\u5c40\u6a2a\u6d5c\u56fd\u9053\u4e8b\u52d9\u6240","boring_xml_url":40,"boring_view_url":1,"soilmap_view_url":null,"soiltest_xml_url":0,"soiltest_view_url":0},{"id":148110,"code":"B4KJ201801003-6359","latitude":"35.34801222","longitude":"139.3903753","source_code":"KT53390311025","project_name":"","survey_name":"\u65b0\u6e58\u5357\u56fd\u9053\u897f\u4e45\u4fdd\u5730\u533a(\u305d\u306e2)\u5730\u8cea\u8abf\u67fb","client_name":"\u56fd\u571f\u4ea4\u901a\u7701\u95a2\u6771\u5730\u65b9\u6574\u5099\u5c40\u6a2a\u6d5c\u56fd\u9053\u4e8b\u52d9\u6240","boring_xml_url":40,"boring_view_url":1,"soilmap_view_url":null,"soiltest_xml_url":0,"soiltest_view_url":0},{"id":148109,"code":"B4KJ201801003-6358","latitude":"35.34856778","longitude":"139.3911531","source_code":"KT53390311024","project_name":"","survey_name":"\u65b0\u6e58\u5357\u56fd\u9053\u897f\u4e45\u4fdd\u5730\u533a(\u305d\u306e2)\u5730\u8cea\u8abf\u67fb","client_name":"\u56fd\u571f\u4ea4\u901a\u7701\u95a2\u6771\u5730\u65b9\u6574\u5099\u5c40\u6a2a\u6d5c\u56fd\u9053\u4e8b\u52d9\u6240","boring_xml_url":40,"boring_view_url":1,"soilmap_view_url":null,"soiltest_xml_url":0,"soiltest_view_url":0},{"id":148108,"code":"B4KJ201801003-6357","latitude":"35.34873444","longitude":"139.3914031","source_code":"KT53390311023","project_name":"","survey_name":"\u65b0\u6e58\u5357\u56fd\u9053\u897f\u4e45\u4fdd\u5730\u533a(\u305d\u306e2)\u5730\u8cea\u8abf\u67fb","client_name":"\u56fd\u571f\u4ea4\u901a\u7701\u95a2\u6771\u5730\u65b9\u6574\u5099\u5c40\u6a2a\u6d5c\u56fd\u9053\u4e8b\u52d9\u6240","boring_xml_url":40,"boring_view_url":1,"soilmap_view_url":null,"soiltest_xml_url":0,"soiltest_view_url":0},{"id":148107,"code":"B4KJ201801003-6356","latitude":"35.34898444","longitude":"139.3914864","source_code":"KT53390311022","project_name":"","survey_name":"\u65b0\u6e58\u5357\u56fd\u9053\u897f\u4e45\u4fdd\u5730\u533a(\u305d\u306e2)\u5730\u8cea\u8abf\u67fb","client_name":"\u56fd\u571f\u4ea4\u901a\u7701\u95a2\u6771\u5730\u65b9\u6574\u5099\u5c40\u6a2a\u6d5c\u56fd\u9053\u4e8b\u52d9\u6240","boring_xml_url":40,"boring_view_url":1,"soilmap_view_url":null,"soiltest_xml_url":0,"soiltest_view_url":0},{"id":148106,"code":"B4KJ201801003-6355","latitude":"35.34931778","longitude":"139.3919586","source_code":"KT53390311021","project_name":"","survey_name":"\u65b0\u6e58\u5357\u56fd\u9053\u897f\u4e45\u4fdd\u5730\u533a(\u305d\u306e2)\u5730\u8cea\u8abf\u67fb","client_name":"\u56fd\u571f\u4ea4\u901a\u7701\u95a2\u6771\u5730\u65b9\u6574\u5099\u5c40\u6a2a\u6d5c\u56fd\u9053\u4e8b\u52d9\u6240","boring_xml_url":40,"boring_view_url":1,"soilmap_view_url":null,"soiltest_xml_url":0,"soiltest_view_url":0}]}}