{"header":{"xyz":{"source":[],"mosaic":false},"page":5757,"raw":{"soiltest_result":"0","bbox":"57.598333,109.544722,1.933333,163.806111","page":"5757"},"conditions":{"soiltest_result":0,"north":57.598333,"west":109.544722,"south":1.933333,"east":163.806111},"success":true,"message":""},"data":{"meta":{"total":212844,"page":5757,"pages":7095,"count":30},"values":[{"id":147865,"code":"B4KJ201801003-6114","latitude":"35.76074556","longitude":"138.4054436","source_code":"KT53385302004","project_name":"","survey_name":"\u7a74\u5c71\u5730\u533a\u5730\u8cea\u8abf\u67fb","client_name":"\u56fd\u571f\u4ea4\u901a\u7701\u95a2\u6771\u5730\u65b9\u6574\u5099\u5c40\u7532\u5e9c\u6cb3\u5ddd\u56fd\u9053\u4e8b\u52d9\u6240","boring_xml_url":40,"boring_view_url":1,"soilmap_view_url":null,"soiltest_xml_url":0,"soiltest_view_url":0},{"id":147864,"code":"B4KJ201801003-6113","latitude":"35.76099556","longitude":"138.4047214","source_code":"KT53385302003","project_name":"","survey_name":"\u7a74\u5c71\u5730\u533a\u5730\u8cea\u8abf\u67fb","client_name":"\u56fd\u571f\u4ea4\u901a\u7701\u95a2\u6771\u5730\u65b9\u6574\u5099\u5c40\u7532\u5e9c\u6cb3\u5ddd\u56fd\u9053\u4e8b\u52d9\u6240","boring_xml_url":40,"boring_view_url":1,"soilmap_view_url":null,"soiltest_xml_url":0,"soiltest_view_url":0},{"id":147863,"code":"B4KJ201801003-6112","latitude":"35.76105111","longitude":"138.4037492","source_code":"KT53385302002","project_name":"","survey_name":"\u7a74\u5c71\u5730\u533a\u5730\u8cea\u8abf\u67fb","client_name":"\u56fd\u571f\u4ea4\u901a\u7701\u95a2\u6771\u5730\u65b9\u6574\u5099\u5c40\u7532\u5e9c\u6cb3\u5ddd\u56fd\u9053\u4e8b\u52d9\u6240","boring_xml_url":40,"boring_view_url":1,"soilmap_view_url":null,"soiltest_xml_url":0,"soiltest_view_url":0},{"id":147862,"code":"B4KJ201801003-6111","latitude":"35.76332583","longitude":"138.3041744","source_code":"KT53385214002","project_name":"","survey_name":"\u91dc\u7121\u5ddd\u6d41\u57df\u30c0\u30e0\u57fa\u790e\u8abf\u67fb\u696d\u52d9\u59d4\u8a17","client_name":"\u56fd\u571f\u4ea4\u901a\u7701\u95a2\u6771\u5730\u65b9\u6574\u5099\u5c40\u5bcc\u58eb\u5ddd\u7802\u9632\u4e8b\u52d9\u6240","boring_xml_url":40,"boring_view_url":1,"soilmap_view_url":null,"soiltest_xml_url":0,"soiltest_view_url":0},{"id":147861,"code":"B4KJ201801003-6110","latitude":"35.76382583","longitude":"138.3037022","source_code":"KT53385214001","project_name":"","survey_name":"\u91dc\u7121\u5ddd\u6d41\u57df\u30c0\u30e0\u57fa\u790e\u8abf\u67fb\u696d\u52d9\u59d4\u8a17","client_name":"\u56fd\u571f\u4ea4\u901a\u7701\u95a2\u6771\u5730\u65b9\u6574\u5099\u5c40\u5bcc\u58eb\u5ddd\u7802\u9632\u4e8b\u52d9\u6240","boring_xml_url":40,"boring_view_url":1,"soilmap_view_url":null,"soiltest_xml_url":0,"soiltest_view_url":0},{"id":147860,"code":"B4KJ201801003-6109","latitude":"35.75374361","longitude":"138.2971753","source_code":"KT53385204010","project_name":"","survey_name":"\u5e73\u621011\u5e74\u5ea6 \u5927\u6b66\u5ddd\u770c4\u53f7\u30c0\u30e0\u5d69\u4e0a\u5b9f\u65bd\u6e2c\u91cf\u53ca\u3073\u8a2d\u8a08\u696d\u52d9","client_name":"\u56fd\u571f\u4ea4\u901a\u7701\u95a2\u6771\u5730\u65b9\u6574\u5099\u5c40\u5bcc\u58eb\u5ddd\u7802\u9632\u4e8b\u52d9\u6240","boring_xml_url":40,"boring_view_url":1,"soilmap_view_url":null,"soiltest_xml_url":0,"soiltest_view_url":0},{"id":147859,"code":"B4KJ201801003-6108","latitude":"35.75429889","longitude":"138.2971753","source_code":"KT53385204009","project_name":"","survey_name":"\u5e73\u621011\u5e74\u5ea6 \u5927\u6b66\u5ddd\u770c4\u53f7\u30c0\u30e0\u5d69\u4e0a\u5b9f\u65bd\u6e2c\u91cf\u53ca\u3073\u8a2d\u8a08\u696d\u52d9","client_name":"\u56fd\u571f\u4ea4\u901a\u7701\u95a2\u6771\u5730\u65b9\u6574\u5099\u5c40\u5bcc\u58eb\u5ddd\u7802\u9632\u4e8b\u52d9\u6240","boring_xml_url":40,"boring_view_url":1,"soilmap_view_url":null,"soiltest_xml_url":0,"soiltest_view_url":0},{"id":147858,"code":"B4KJ201801003-6107","latitude":"35.75429917","longitude":"138.2982864","source_code":"KT53385204008","project_name":"","survey_name":"\u5e73\u621011\u5e74\u5ea6 \u5927\u6b66\u5ddd\u770c4\u53f7\u30c0\u30e0\u5d69\u4e0a\u5b9f\u65bd\u6e2c\u91cf\u53ca\u3073\u8a2d\u8a08\u696d\u52d9","client_name":"\u56fd\u571f\u4ea4\u901a\u7701\u95a2\u6771\u5730\u65b9\u6574\u5099\u5c40\u5bcc\u58eb\u5ddd\u7802\u9632\u4e8b\u52d9\u6240","boring_xml_url":40,"boring_view_url":1,"soilmap_view_url":null,"soiltest_xml_url":0,"soiltest_view_url":0},{"id":147857,"code":"B4KJ201801003-6106","latitude":"35.75374361","longitude":"138.2977308","source_code":"KT53385204007","project_name":"","survey_name":"\u5e73\u621011\u5e74\u5ea6 \u5927\u6b66\u5ddd\u770c4\u53f7\u30c0\u30e0\u5d69\u4e0a\u5b9f\u65bd\u6e2c\u91cf\u53ca\u3073\u8a2d\u8a08\u696d\u52d9","client_name":"\u56fd\u571f\u4ea4\u901a\u7701\u95a2\u6771\u5730\u65b9\u6574\u5099\u5c40\u5bcc\u58eb\u5ddd\u7802\u9632\u4e8b\u52d9\u6240","boring_xml_url":40,"boring_view_url":1,"soilmap_view_url":null,"soiltest_xml_url":0,"soiltest_view_url":0},{"id":147856,"code":"B4KJ201801003-6105","latitude":"35.75374361","longitude":"138.2991197","source_code":"KT53385204006","project_name":"","survey_name":"\u5e73\u621011\u5e74\u5ea6 \u5927\u6b66\u5ddd\u770c4\u53f7\u30c0\u30e0\u5d69\u4e0a\u5b9f\u65bd\u6e2c\u91cf\u53ca\u3073\u8a2d\u8a08\u696d\u52d9","client_name":"\u56fd\u571f\u4ea4\u901a\u7701\u95a2\u6771\u5730\u65b9\u6574\u5099\u5c40\u5bcc\u58eb\u5ddd\u7802\u9632\u4e8b\u52d9\u6240","boring_xml_url":40,"boring_view_url":1,"soilmap_view_url":null,"soiltest_xml_url":0,"soiltest_view_url":0},{"id":147855,"code":"B4KJ201801003-6104","latitude":"35.75457667","longitude":"138.2943978","source_code":"KT53385203004","project_name":"","survey_name":"\u5e73\u621011\u5e74\u5ea6 \u5927\u6b66\u5ddd\u770c4\u53f7\u30c0\u30e0\u5d69\u4e0a\u5b9f\u65bd\u6e2c\u91cf\u53ca\u3073\u8a2d\u8a08\u696d\u52d9","client_name":"\u56fd\u571f\u4ea4\u901a\u7701\u95a2\u6771\u5730\u65b9\u6574\u5099\u5c40\u5bcc\u58eb\u5ddd\u7802\u9632\u4e8b\u52d9\u6240","boring_xml_url":40,"boring_view_url":1,"soilmap_view_url":null,"soiltest_xml_url":0,"soiltest_view_url":0},{"id":147854,"code":"B4KJ201801003-6103","latitude":"35.75790944","longitude":"138.2896758","source_code":"KT53385203003","project_name":"","survey_name":"\u5e73\u621011\u5e74\u5ea6 \u5927\u6b66\u5ddd\u770c4\u53f7\u30c0\u30e0\u5d69\u4e0a\u5b9f\u65bd\u6e2c\u91cf\u53ca\u3073\u8a2d\u8a08\u696d\u52d9","client_name":"\u56fd\u571f\u4ea4\u901a\u7701\u95a2\u6771\u5730\u65b9\u6574\u5099\u5c40\u5bcc\u58eb\u5ddd\u7802\u9632\u4e8b\u52d9\u6240","boring_xml_url":40,"boring_view_url":1,"soilmap_view_url":null,"soiltest_xml_url":0,"soiltest_view_url":0},{"id":147853,"code":"B4KJ201801003-6102","latitude":"35.81556778","longitude":"138.2184575","source_code":"KT53385177013","project_name":"","survey_name":"\u5e73\u621011\u5e74\u5ea6\u9ed2\u5ddd\u5de5\u4e8b\u7528\u9053\u8def\u5b9f\u65bd\u6e2c\u91cf\u53ca\u3073\u6a4b\u6881\u8a2d\u8a08\u696d\u52d9","client_name":"\u56fd\u571f\u4ea4\u901a\u7701\u95a2\u6771\u5730\u65b9\u6574\u5099\u5c40\u5bcc\u58eb\u5ddd\u7802\u9632\u4e8b\u52d9\u6240","boring_xml_url":40,"boring_view_url":1,"soilmap_view_url":null,"soiltest_xml_url":0,"soiltest_view_url":0},{"id":147852,"code":"B4KJ201801003-6101","latitude":"35.81545667","longitude":"138.2182075","source_code":"KT53385177012","project_name":"","survey_name":"\u5e73\u621011\u5e74\u5ea6\u9ed2\u5ddd\u5de5\u4e8b\u7528\u9053\u8def\u5b9f\u65bd\u6e2c\u91cf\u53ca\u3073\u6a4b\u6881\u8a2d\u8a08\u696d\u52d9","client_name":"\u56fd\u571f\u4ea4\u901a\u7701\u95a2\u6771\u5730\u65b9\u6574\u5099\u5c40\u5bcc\u58eb\u5ddd\u7802\u9632\u4e8b\u52d9\u6240","boring_xml_url":40,"boring_view_url":1,"soilmap_view_url":null,"soiltest_xml_url":0,"soiltest_view_url":0},{"id":147851,"code":"B4KJ201801003-6100","latitude":"35.80431861","longitude":"138.2059314","source_code":"KT53385166004","project_name":"","survey_name":"\u91dc\u7121\u5ddd\u6d41\u57df\u30c0\u30e0\u57fa\u790e\u8abf\u67fb\u696d\u52d9\u59d4\u8a17","client_name":"\u56fd\u571f\u4ea4\u901a\u7701\u95a2\u6771\u5730\u65b9\u6574\u5099\u5c40\u5bcc\u58eb\u5ddd\u7802\u9632\u4e8b\u52d9\u6240","boring_xml_url":40,"boring_view_url":1,"soilmap_view_url":null,"soiltest_xml_url":0,"soiltest_view_url":0},{"id":147850,"code":"B4KJ201801003-6099","latitude":"35.80376333","longitude":"138.2065703","source_code":"KT53385166003","project_name":"","survey_name":"\u91dc\u7121\u5ddd\u6d41\u57df\u30c0\u30e0\u57fa\u790e\u8abf\u67fb\u696d\u52d9\u59d4\u8a17","client_name":"\u56fd\u571f\u4ea4\u901a\u7701\u95a2\u6771\u5730\u65b9\u6574\u5099\u5c40\u5bcc\u58eb\u5ddd\u7802\u9632\u4e8b\u52d9\u6240","boring_xml_url":40,"boring_view_url":1,"soilmap_view_url":null,"soiltest_xml_url":0,"soiltest_view_url":0},{"id":147849,"code":"B4KJ201801003-6098","latitude":"35.80395778","longitude":"138.2066256","source_code":"KT53385166002","project_name":"","survey_name":"\u91dc\u7121\u5ddd\u6d41\u57df\u30c0\u30e0\u57fa\u790e\u8abf\u67fb\u696d\u52d9\u59d4\u8a17","client_name":"\u56fd\u571f\u4ea4\u901a\u7701\u95a2\u6771\u5730\u65b9\u6574\u5099\u5c40\u5bcc\u58eb\u5ddd\u7802\u9632\u4e8b\u52d9\u6240","boring_xml_url":40,"boring_view_url":1,"soilmap_view_url":null,"soiltest_xml_url":0,"soiltest_view_url":0},{"id":147848,"code":"B4KJ201801003-6097","latitude":"35.80426333","longitude":"138.2068478","source_code":"KT53385166001","project_name":"","survey_name":"\u91dc\u7121\u5ddd\u6d41\u57df\u30c0\u30e0\u57fa\u790e\u8abf\u67fb\u696d\u52d9\u59d4\u8a17","client_name":"\u56fd\u571f\u4ea4\u901a\u7701\u95a2\u6771\u5730\u65b9\u6574\u5099\u5c40\u5bcc\u58eb\u5ddd\u7802\u9632\u4e8b\u52d9\u6240","boring_xml_url":40,"boring_view_url":1,"soilmap_view_url":null,"soiltest_xml_url":0,"soiltest_view_url":0},{"id":147847,"code":"B4KJ201801003-6096","latitude":"35.67753639","longitude":"138.5456292","source_code":"KT53384403003","project_name":"","survey_name":"\u4e8b\u52d9\u6240\u5e81\u820e\u5730\u8cea\u8abf\u67fb","client_name":"\u56fd\u571f\u4ea4\u901a\u7701\u95a2\u6771\u5730\u65b9\u6574\u5099\u5c40\u5bcc\u58eb\u5ddd\u7802\u9632\u4e8b\u52d9\u6240","boring_xml_url":40,"boring_view_url":1,"soilmap_view_url":null,"soiltest_xml_url":0,"soiltest_view_url":0},{"id":147846,"code":"B4KJ201801003-6095","latitude":"35.67742528","longitude":"138.5452125","source_code":"KT53384403002","project_name":"","survey_name":"\u4e8b\u52d9\u6240\u5e81\u820e\u5730\u8cea\u8abf\u67fb","client_name":"\u56fd\u571f\u4ea4\u901a\u7701\u95a2\u6771\u5730\u65b9\u6574\u5099\u5c40\u5bcc\u58eb\u5ddd\u7802\u9632\u4e8b\u52d9\u6240","boring_xml_url":40,"boring_view_url":1,"soilmap_view_url":null,"soiltest_xml_url":0,"soiltest_view_url":0},{"id":147845,"code":"B4KJ201801003-6094","latitude":"35.6776475","longitude":"138.5454903","source_code":"KT53384403001","project_name":"","survey_name":"\u4e8b\u52d9\u6240\u5e81\u820e\u5730\u8cea\u8abf\u67fb","client_name":"\u56fd\u571f\u4ea4\u901a\u7701\u95a2\u6771\u5730\u65b9\u6574\u5099\u5c40\u5bcc\u58eb\u5ddd\u7802\u9632\u4e8b\u52d9\u6240","boring_xml_url":40,"boring_view_url":1,"soilmap_view_url":null,"soiltest_xml_url":0,"soiltest_view_url":0},{"id":147844,"code":"B4KJ201801003-6093","latitude":"35.70714139","longitude":"138.4425814","source_code":"KT53384345001","project_name":"","survey_name":"\u7518\u5229\u6ca2\u5730\u533a\u5730\u8cea\u8abf\u67fb","client_name":"\u56fd\u571f\u4ea4\u901a\u7701\u95a2\u6771\u5730\u65b9\u6574\u5099\u5c40\u7532\u5e9c\u6cb3\u5ddd\u56fd\u9053\u4e8b\u52d9\u6240","boring_xml_url":40,"boring_view_url":1,"soilmap_view_url":null,"soiltest_xml_url":0,"soiltest_view_url":0},{"id":147843,"code":"B4KJ201801003-6092","latitude":"35.74791083","longitude":"138.2977311","source_code":"KT53384294004","project_name":"","survey_name":"\u5e73\u621011\u5e74\u5ea6 \u5927\u6b66\u5ddd\u770c4\u53f7\u30c0\u30e0\u5d69\u4e0a\u5b9f\u65bd\u6e2c\u91cf\u53ca\u3073\u8a2d\u8a08\u696d\u52d9","client_name":"\u56fd\u571f\u4ea4\u901a\u7701\u95a2\u6771\u5730\u65b9\u6574\u5099\u5c40\u5bcc\u58eb\u5ddd\u7802\u9632\u4e8b\u52d9\u6240","boring_xml_url":40,"boring_view_url":1,"soilmap_view_url":null,"soiltest_xml_url":0,"soiltest_view_url":0},{"id":147842,"code":"B4KJ201801003-6091","latitude":"35.75068833","longitude":"138.2980086","source_code":"KT53384294003","project_name":"","survey_name":"\u5e73\u621011\u5e74\u5ea6 \u5927\u6b66\u5ddd\u770c4\u53f7\u30c0\u30e0\u5d69\u4e0a\u5b9f\u65bd\u6e2c\u91cf\u53ca\u3073\u8a2d\u8a08\u696d\u52d9","client_name":"\u56fd\u571f\u4ea4\u901a\u7701\u95a2\u6771\u5730\u65b9\u6574\u5099\u5c40\u5bcc\u58eb\u5ddd\u7802\u9632\u4e8b\u52d9\u6240","boring_xml_url":40,"boring_view_url":1,"soilmap_view_url":null,"soiltest_xml_url":0,"soiltest_view_url":0},{"id":147841,"code":"B4KJ201801003-6090","latitude":"35.75160472","longitude":"138.2953422","source_code":"KT53384293020","project_name":"","survey_name":"\u5e73\u621012\u5e74\u5ea6\u5927\u6b66\u5ddd\u4e0a\u6d41\u30c0\u30e0\u7fa4\u53ca\u3073\u5e83\u6cb3\u5185\u5de5\u4e8b\u7528\u9053\u8def\u6a4b\u6881\u8a2d\u8a08\u696d","client_name":"\u56fd\u571f\u4ea4\u901a\u7701\u95a2\u6771\u5730\u65b9\u6574\u5099\u5c40\u5bcc\u58eb\u5ddd\u7802\u9632\u4e8b\u52d9\u6240","boring_xml_url":40,"boring_view_url":1,"soilmap_view_url":null,"soiltest_xml_url":0,"soiltest_view_url":0},{"id":147840,"code":"B4KJ201801003-6089","latitude":"35.75160472","longitude":"138.2950644","source_code":"KT53384293019","project_name":"","survey_name":"\u5e73\u621012\u5e74\u5ea6\u5927\u6b66\u5ddd\u4e0a\u6d41\u30c0\u30e0\u7fa4\u53ca\u3073\u5e83\u6cb3\u5185\u5de5\u4e8b\u7528\u9053\u8def\u6a4b\u6881\u8a2d\u8a08\u696d","client_name":"\u56fd\u571f\u4ea4\u901a\u7701\u95a2\u6771\u5730\u65b9\u6574\u5099\u5c40\u5bcc\u58eb\u5ddd\u7802\u9632\u4e8b\u52d9\u6240","boring_xml_url":40,"boring_view_url":1,"soilmap_view_url":null,"soiltest_xml_url":0,"soiltest_view_url":0},{"id":147839,"code":"B4KJ201801003-6088","latitude":"35.75182694","longitude":"138.2950644","source_code":"KT53384293018","project_name":"","survey_name":"\u5e73\u621012\u5e74\u5ea6\u5927\u6b66\u5ddd\u4e0a\u6d41\u30c0\u30e0\u7fa4\u53ca\u3073\u5e83\u6cb3\u5185\u5de5\u4e8b\u7528\u9053\u8def\u6a4b\u6881\u8a2d\u8a08\u696d","client_name":"\u56fd\u571f\u4ea4\u901a\u7701\u95a2\u6771\u5730\u65b9\u6574\u5099\u5c40\u5bcc\u58eb\u5ddd\u7802\u9632\u4e8b\u52d9\u6240","boring_xml_url":40,"boring_view_url":1,"soilmap_view_url":null,"soiltest_xml_url":0,"soiltest_view_url":0},{"id":147838,"code":"B4KJ201801003-6087","latitude":"35.75182694","longitude":"138.2947867","source_code":"KT53384293017","project_name":"","survey_name":"\u5e73\u621012\u5e74\u5ea6\u5927\u6b66\u5ddd\u4e0a\u6d41\u30c0\u30e0\u7fa4\u53ca\u3073\u5e83\u6cb3\u5185\u5de5\u4e8b\u7528\u9053\u8def\u6a4b\u6881\u8a2d\u8a08\u696d","client_name":"\u56fd\u571f\u4ea4\u901a\u7701\u95a2\u6771\u5730\u65b9\u6574\u5099\u5c40\u5bcc\u58eb\u5ddd\u7802\u9632\u4e8b\u52d9\u6240","boring_xml_url":40,"boring_view_url":1,"soilmap_view_url":null,"soiltest_xml_url":0,"soiltest_view_url":0},{"id":147837,"code":"B4KJ201801003-6086","latitude":"35.75204917","longitude":"138.2947867","source_code":"KT53384293016","project_name":"","survey_name":"\u5e73\u621012\u5e74\u5ea6\u5927\u6b66\u5ddd\u4e0a\u6d41\u30c0\u30e0\u7fa4\u53ca\u3073\u5e83\u6cb3\u5185\u5de5\u4e8b\u7528\u9053\u8def\u6a4b\u6881\u8a2d\u8a08\u696d","client_name":"\u56fd\u571f\u4ea4\u901a\u7701\u95a2\u6771\u5730\u65b9\u6574\u5099\u5c40\u5bcc\u58eb\u5ddd\u7802\u9632\u4e8b\u52d9\u6240","boring_xml_url":40,"boring_view_url":1,"soilmap_view_url":null,"soiltest_xml_url":0,"soiltest_view_url":0},{"id":147836,"code":"B4KJ201801003-6085","latitude":"35.69391806","longitude":"138.3409794","source_code":"KT53384227013","project_name":"","survey_name":"\u4e38\u6ca2\u30fb\u5927\u68da\u6ca2\u8a08\u753b\u30c0\u30e0\u57fa\u790e\u8abf\u67fb\u696d\u52d9\u59d4\u8a17","client_name":"\u56fd\u571f\u4ea4\u901a\u7701\u95a2\u6771\u5730\u65b9\u6574\u5099\u5c40\u5bcc\u58eb\u5ddd\u7802\u9632\u4e8b\u52d9\u6240","boring_xml_url":40,"boring_view_url":1,"soilmap_view_url":null,"soiltest_xml_url":0,"soiltest_view_url":0}]}}