{"header":{"xyz":{"source":[],"mosaic":false},"page":5763,"raw":{"soiltest_result":"0","bbox":"57.598333,109.544722,1.933333,163.806111","page":"5763"},"conditions":{"soiltest_result":0,"north":57.598333,"west":109.544722,"south":1.933333,"east":163.806111},"success":true,"message":""},"data":{"meta":{"total":212844,"page":5763,"pages":7095,"count":30},"values":[{"id":147685,"code":"B4KJ201801003-5934","latitude":"35.56818583","longitude":"138.4783892","source_code":"KT53382378005","project_name":"","survey_name":"\u6771\u5357\u6e56(\u6a2a\u5ddd\u6392\u6c34\u6a5f\u5834)\u5730\u8cea\u8abf\u67fb","client_name":"\u56fd\u571f\u4ea4\u901a\u7701\u95a2\u6771\u5730\u65b9\u6574\u5099\u5c40\u7532\u5e9c\u6cb3\u5ddd\u56fd\u9053\u4e8b\u52d9\u6240","boring_xml_url":40,"boring_view_url":1,"soilmap_view_url":null,"soiltest_xml_url":0,"soiltest_view_url":0},{"id":147684,"code":"B4KJ201801003-5933","latitude":"35.56824139","longitude":"138.4782503","source_code":"KT53382378004","project_name":"","survey_name":"\u6771\u5357\u6e56(\u6a2a\u5ddd\u6392\u6c34\u6a5f\u5834)\u5730\u8cea\u8abf\u67fb","client_name":"\u56fd\u571f\u4ea4\u901a\u7701\u95a2\u6771\u5730\u65b9\u6574\u5099\u5c40\u7532\u5e9c\u6cb3\u5ddd\u56fd\u9053\u4e8b\u52d9\u6240","boring_xml_url":40,"boring_view_url":1,"soilmap_view_url":null,"soiltest_xml_url":0,"soiltest_view_url":0},{"id":147683,"code":"B4KJ201801003-5932","latitude":"35.56815806","longitude":"138.4785836","source_code":"KT53382378003","project_name":"","survey_name":"\u6771\u5357\u6e56(\u6a2a\u5ddd\u6392\u6c34\u6a5f\u5834)\u5730\u8cea\u8abf\u67fb","client_name":"\u56fd\u571f\u4ea4\u901a\u7701\u95a2\u6771\u5730\u65b9\u6574\u5099\u5c40\u7532\u5e9c\u6cb3\u5ddd\u56fd\u9053\u4e8b\u52d9\u6240","boring_xml_url":40,"boring_view_url":1,"soilmap_view_url":null,"soiltest_xml_url":0,"soiltest_view_url":0},{"id":147682,"code":"B4KJ201801003-5931","latitude":"35.56813028","longitude":"138.4787781","source_code":"KT53382378002","project_name":"","survey_name":"\u6771\u5357\u6e56(\u6a2a\u5ddd\u6392\u6c34\u6a5f\u5834)\u5730\u8cea\u8abf\u67fb","client_name":"\u56fd\u571f\u4ea4\u901a\u7701\u95a2\u6771\u5730\u65b9\u6574\u5099\u5c40\u7532\u5e9c\u6cb3\u5ddd\u56fd\u9053\u4e8b\u52d9\u6240","boring_xml_url":40,"boring_view_url":1,"soilmap_view_url":null,"soiltest_xml_url":0,"soiltest_view_url":0},{"id":147681,"code":"B4KJ201801003-5930","latitude":"35.56813028","longitude":"138.4789725","source_code":"KT53382378001","project_name":"","survey_name":"\u6771\u5357\u6e56(\u6a2a\u5ddd\u6392\u6c34\u6a5f\u5834)\u5730\u8cea\u8abf\u67fb","client_name":"\u56fd\u571f\u4ea4\u901a\u7701\u95a2\u6771\u5730\u65b9\u6574\u5099\u5c40\u7532\u5e9c\u6cb3\u5ddd\u56fd\u9053\u4e8b\u52d9\u6240","boring_xml_url":40,"boring_view_url":1,"soilmap_view_url":null,"soiltest_xml_url":0,"soiltest_view_url":0},{"id":147680,"code":"B4KJ201801003-5929","latitude":"35.55863139","longitude":"138.4737233","source_code":"KT53382368012","project_name":"","survey_name":"\u5897\u7a42\u5730\u533a\u305d\u306e2\u5730\u8cea\u8abf\u67fb","client_name":"\u56fd\u571f\u4ea4\u901a\u7701\u95a2\u6771\u5730\u65b9\u6574\u5099\u5c40\u7532\u5e9c\u6cb3\u5ddd\u56fd\u9053\u4e8b\u52d9\u6240","boring_xml_url":40,"boring_view_url":1,"soilmap_view_url":null,"soiltest_xml_url":0,"soiltest_view_url":0},{"id":147679,"code":"B4KJ201801003-5928","latitude":"35.55952","longitude":"138.4740011","source_code":"KT53382368011","project_name":"","survey_name":"\u5897\u7a42\u5730\u533a\u305d\u306e2\u5730\u8cea\u8abf\u67fb","client_name":"\u56fd\u571f\u4ea4\u901a\u7701\u95a2\u6771\u5730\u65b9\u6574\u5099\u5c40\u7532\u5e9c\u6cb3\u5ddd\u56fd\u9053\u4e8b\u52d9\u6240","boring_xml_url":40,"boring_view_url":1,"soilmap_view_url":null,"soiltest_xml_url":0,"soiltest_view_url":0},{"id":147678,"code":"B4KJ201801003-5927","latitude":"35.56121444","longitude":"138.4738897","source_code":"KT53382368010","project_name":"","survey_name":"\u5897\u7a42\u5730\u533a\u305d\u306e2\u5730\u8cea\u8abf\u67fb","client_name":"\u56fd\u571f\u4ea4\u901a\u7701\u95a2\u6771\u5730\u65b9\u6574\u5099\u5c40\u7532\u5e9c\u6cb3\u5ddd\u56fd\u9053\u4e8b\u52d9\u6240","boring_xml_url":40,"boring_view_url":1,"soilmap_view_url":null,"soiltest_xml_url":0,"soiltest_view_url":0},{"id":147677,"code":"B4KJ201801003-5926","latitude":"35.55785361","longitude":"138.4735567","source_code":"KT53382368009","project_name":"","survey_name":"\u5897\u7a42\u5730\u533a\u59161\u7b87\u6240\u5730\u8cea\u8abf\u67fb","client_name":"\u56fd\u571f\u4ea4\u901a\u7701\u95a2\u6771\u5730\u65b9\u6574\u5099\u5c40\u7532\u5e9c\u6cb3\u5ddd\u56fd\u9053\u4e8b\u52d9\u6240","boring_xml_url":40,"boring_view_url":1,"soilmap_view_url":null,"soiltest_xml_url":0,"soiltest_view_url":0},{"id":147676,"code":"B4KJ201801003-5925","latitude":"35.55907556","longitude":"138.4738344","source_code":"KT53382368008","project_name":"","survey_name":"\u5897\u7a42\u5730\u533a\u59161\u7b87\u6240\u5730\u8cea\u8abf\u67fb","client_name":"\u56fd\u571f\u4ea4\u901a\u7701\u95a2\u6771\u5730\u65b9\u6574\u5099\u5c40\u7532\u5e9c\u6cb3\u5ddd\u56fd\u9053\u4e8b\u52d9\u6240","boring_xml_url":40,"boring_view_url":1,"soilmap_view_url":null,"soiltest_xml_url":0,"soiltest_view_url":0},{"id":147675,"code":"B4KJ201801003-5924","latitude":"35.56054778","longitude":"138.4736953","source_code":"KT53382368007","project_name":"","survey_name":"\u5897\u7a42\u5730\u533a\u59161\u7b87\u6240\u5730\u8cea\u8abf\u67fb","client_name":"\u56fd\u571f\u4ea4\u901a\u7701\u95a2\u6771\u5730\u65b9\u6574\u5099\u5c40\u7532\u5e9c\u6cb3\u5ddd\u56fd\u9053\u4e8b\u52d9\u6240","boring_xml_url":40,"boring_view_url":1,"soilmap_view_url":null,"soiltest_xml_url":0,"soiltest_view_url":0},{"id":147674,"code":"B4KJ201801003-5923","latitude":"35.56054778","longitude":"138.4736953","source_code":"KT53382368006","project_name":"","survey_name":"\u5897\u7a42\u5730\u533a\u59161\u7b87\u6240\u5730\u8cea\u8abf\u67fb","client_name":"\u56fd\u571f\u4ea4\u901a\u7701\u95a2\u6771\u5730\u65b9\u6574\u5099\u5c40\u7532\u5e9c\u6cb3\u5ddd\u56fd\u9053\u4e8b\u52d9\u6240","boring_xml_url":40,"boring_view_url":1,"soilmap_view_url":null,"soiltest_xml_url":0,"soiltest_view_url":0},{"id":147673,"code":"B4KJ201801003-5922","latitude":"35.54557694","longitude":"138.4635581","source_code":"KT53382357014","project_name":"","survey_name":"\u6238\u5ddd\u6a4b\u5730\u8cea\u8abf\u67fb","client_name":"\u56fd\u571f\u4ea4\u901a\u7701\u95a2\u6771\u5730\u65b9\u6574\u5099\u5c40\u7532\u5e9c\u6cb3\u5ddd\u56fd\u9053\u4e8b\u52d9\u6240","boring_xml_url":40,"boring_view_url":1,"soilmap_view_url":null,"soiltest_xml_url":0,"soiltest_view_url":0},{"id":147672,"code":"B4KJ201801003-5921","latitude":"35.54735472","longitude":"138.4663911","source_code":"KT53382357013","project_name":"","survey_name":"\u9c0d\u6ca2\u5730\u533a\u5730\u8cea\u8abf\u67fb","client_name":"\u56fd\u571f\u4ea4\u901a\u7701\u95a2\u6771\u5730\u65b9\u6574\u5099\u5c40\u7532\u5e9c\u6cb3\u5ddd\u56fd\u9053\u4e8b\u52d9\u6240","boring_xml_url":40,"boring_view_url":1,"soilmap_view_url":null,"soiltest_xml_url":0,"soiltest_view_url":0},{"id":147671,"code":"B4KJ201801003-5920","latitude":"35.54668806","longitude":"138.46578","source_code":"KT53382357012","project_name":"","survey_name":"\u9c0d\u6ca2\u5730\u533a\u5730\u8cea\u8abf\u67fb","client_name":"\u56fd\u571f\u4ea4\u901a\u7701\u95a2\u6771\u5730\u65b9\u6574\u5099\u5c40\u7532\u5e9c\u6cb3\u5ddd\u56fd\u9053\u4e8b\u52d9\u6240","boring_xml_url":40,"boring_view_url":1,"soilmap_view_url":null,"soiltest_xml_url":0,"soiltest_view_url":0},{"id":147670,"code":"B4KJ201801003-5919","latitude":"35.54599361","longitude":"138.4644467","source_code":"KT53382357011","project_name":"","survey_name":"\u9c0d\u6ca2\u5730\u533a\u5730\u8cea\u8abf\u67fb","client_name":"\u56fd\u571f\u4ea4\u901a\u7701\u95a2\u6771\u5730\u65b9\u6574\u5099\u5c40\u7532\u5e9c\u6cb3\u5ddd\u56fd\u9053\u4e8b\u52d9\u6240","boring_xml_url":40,"boring_view_url":1,"soilmap_view_url":null,"soiltest_xml_url":0,"soiltest_view_url":0},{"id":147669,"code":"B4KJ201801003-5918","latitude":"35.54554917","longitude":"138.4639469","source_code":"KT53382357010","project_name":"","survey_name":"\u9c0d\u6ca2\u5730\u533a\u5730\u8cea\u8abf\u67fb","client_name":"\u56fd\u571f\u4ea4\u901a\u7701\u95a2\u6771\u5730\u65b9\u6574\u5099\u5c40\u7532\u5e9c\u6cb3\u5ddd\u56fd\u9053\u4e8b\u52d9\u6240","boring_xml_url":40,"boring_view_url":1,"soilmap_view_url":null,"soiltest_xml_url":0,"soiltest_view_url":0},{"id":147668,"code":"B4KJ201801003-5917","latitude":"35.54938222","longitude":"138.4674186","source_code":"KT53382357009","project_name":"","survey_name":"\u6238\u5ddd\u6a4b\u5730\u8cea\u8abf\u67fb","client_name":"\u56fd\u571f\u4ea4\u901a\u7701\u95a2\u6771\u5730\u65b9\u6574\u5099\u5c40\u7532\u5e9c\u6cb3\u5ddd\u56fd\u9053\u4e8b\u52d9\u6240","boring_xml_url":40,"boring_view_url":1,"soilmap_view_url":null,"soiltest_xml_url":0,"soiltest_view_url":0},{"id":147667,"code":"B4KJ201801003-5916","latitude":"35.54841","longitude":"138.4665853","source_code":"KT53382357008","project_name":"","survey_name":"\u6238\u5ddd\u6a4b\u5730\u8cea\u8abf\u67fb","client_name":"\u56fd\u571f\u4ea4\u901a\u7701\u95a2\u6771\u5730\u65b9\u6574\u5099\u5c40\u7532\u5e9c\u6cb3\u5ddd\u56fd\u9053\u4e8b\u52d9\u6240","boring_xml_url":40,"boring_view_url":1,"soilmap_view_url":null,"soiltest_xml_url":0,"soiltest_view_url":0},{"id":147666,"code":"B4KJ201801003-5915","latitude":"35.54768778","longitude":"138.4659189","source_code":"KT53382357007","project_name":"","survey_name":"\u6238\u5ddd\u6a4b\u5730\u8cea\u8abf\u67fb","client_name":"\u56fd\u571f\u4ea4\u901a\u7701\u95a2\u6771\u5730\u65b9\u6574\u5099\u5c40\u7532\u5e9c\u6cb3\u5ddd\u56fd\u9053\u4e8b\u52d9\u6240","boring_xml_url":40,"boring_view_url":1,"soilmap_view_url":null,"soiltest_xml_url":0,"soiltest_view_url":0},{"id":147665,"code":"B4KJ201801003-5914","latitude":"35.54757667","longitude":"138.4658356","source_code":"KT53382357006","project_name":"","survey_name":"\u6238\u5ddd\u6a4b\u5730\u8cea\u8abf\u67fb","client_name":"\u56fd\u571f\u4ea4\u901a\u7701\u95a2\u6771\u5730\u65b9\u6574\u5099\u5c40\u7532\u5e9c\u6cb3\u5ddd\u56fd\u9053\u4e8b\u52d9\u6240","boring_xml_url":40,"boring_view_url":1,"soilmap_view_url":null,"soiltest_xml_url":0,"soiltest_view_url":0},{"id":147664,"code":"B4KJ201801003-5913","latitude":"35.5471325","longitude":"138.4655022","source_code":"KT53382357005","project_name":"","survey_name":"\u6238\u5ddd\u6a4b\u5730\u8cea\u8abf\u67fb","client_name":"\u56fd\u571f\u4ea4\u901a\u7701\u95a2\u6771\u5730\u65b9\u6574\u5099\u5c40\u7532\u5e9c\u6cb3\u5ddd\u56fd\u9053\u4e8b\u52d9\u6240","boring_xml_url":40,"boring_view_url":1,"soilmap_view_url":null,"soiltest_xml_url":0,"soiltest_view_url":0},{"id":147663,"code":"B4KJ201801003-5912","latitude":"35.54724333","longitude":"138.46528","source_code":"KT53382357004","project_name":"","survey_name":"\u6238\u5ddd\u6a4b\u5730\u8cea\u8abf\u67fb","client_name":"\u56fd\u571f\u4ea4\u901a\u7701\u95a2\u6771\u5730\u65b9\u6574\u5099\u5c40\u7532\u5e9c\u6cb3\u5ddd\u56fd\u9053\u4e8b\u52d9\u6240","boring_xml_url":40,"boring_view_url":1,"soilmap_view_url":null,"soiltest_xml_url":0,"soiltest_view_url":0},{"id":147662,"code":"B4KJ201801003-5911","latitude":"35.54610472","longitude":"138.4639469","source_code":"KT53382357003","project_name":"","survey_name":"\u6238\u5ddd\u6a4b\u5730\u8cea\u8abf\u67fb","client_name":"\u56fd\u571f\u4ea4\u901a\u7701\u95a2\u6771\u5730\u65b9\u6574\u5099\u5c40\u7532\u5e9c\u6cb3\u5ddd\u56fd\u9053\u4e8b\u52d9\u6240","boring_xml_url":40,"boring_view_url":1,"soilmap_view_url":null,"soiltest_xml_url":0,"soiltest_view_url":0},{"id":147661,"code":"B4KJ201801003-5910","latitude":"35.54610472","longitude":"138.4637803","source_code":"KT53382357002","project_name":"","survey_name":"\u6238\u5ddd\u6a4b\u5730\u8cea\u8abf\u67fb","client_name":"\u56fd\u571f\u4ea4\u901a\u7701\u95a2\u6771\u5730\u65b9\u6574\u5099\u5c40\u7532\u5e9c\u6cb3\u5ddd\u56fd\u9053\u4e8b\u52d9\u6240","boring_xml_url":40,"boring_view_url":1,"soilmap_view_url":null,"soiltest_xml_url":0,"soiltest_view_url":0},{"id":147660,"code":"B4KJ201801003-5909","latitude":"35.54554917","longitude":"138.4630025","source_code":"KT53382357001","project_name":"","survey_name":"\u6238\u5ddd\u6a4b\u5730\u8cea\u8abf\u67fb","client_name":"\u56fd\u571f\u4ea4\u901a\u7701\u95a2\u6771\u5730\u65b9\u6574\u5099\u5c40\u7532\u5e9c\u6cb3\u5ddd\u56fd\u9053\u4e8b\u52d9\u6240","boring_xml_url":40,"boring_view_url":1,"soilmap_view_url":null,"soiltest_xml_url":0,"soiltest_view_url":0},{"id":147659,"code":"B4KJ201801003-5908","latitude":"35.54318833","longitude":"138.4611972","source_code":"KT53382347006","project_name":"","survey_name":"\u9c0d\u6ca2\u5730\u533a\u5730\u8cea\u8abf\u67fb","client_name":"\u56fd\u571f\u4ea4\u901a\u7701\u95a2\u6771\u5730\u65b9\u6574\u5099\u5c40\u7532\u5e9c\u6cb3\u5ddd\u56fd\u9053\u4e8b\u52d9\u6240","boring_xml_url":40,"boring_view_url":1,"soilmap_view_url":null,"soiltest_xml_url":0,"soiltest_view_url":0},{"id":147658,"code":"B4KJ201801003-5907","latitude":"35.54252167","longitude":"138.4600861","source_code":"KT53382347005","project_name":"","survey_name":"\u9c0d\u6ca2\u5730\u533a\u5730\u8cea\u8abf\u67fb","client_name":"\u56fd\u571f\u4ea4\u901a\u7701\u95a2\u6771\u5730\u65b9\u6574\u5099\u5c40\u7532\u5e9c\u6cb3\u5ddd\u56fd\u9053\u4e8b\u52d9\u6240","boring_xml_url":40,"boring_view_url":1,"soilmap_view_url":null,"soiltest_xml_url":0,"soiltest_view_url":0},{"id":147657,"code":"B4KJ201801003-5906","latitude":"35.54152194","longitude":"138.4649469","source_code":"KT53382347004","project_name":"","survey_name":"\u8239\u5834\u5730\u533a\u5730\u8cea\u8abf\u67fb","client_name":"\u56fd\u571f\u4ea4\u901a\u7701\u95a2\u6771\u5730\u65b9\u6574\u5099\u5c40\u7532\u5e9c\u6cb3\u5ddd\u56fd\u9053\u4e8b\u52d9\u6240","boring_xml_url":40,"boring_view_url":1,"soilmap_view_url":null,"soiltest_xml_url":0,"soiltest_view_url":0},{"id":147656,"code":"B4KJ201801003-5905","latitude":"35.54049417","longitude":"138.4632803","source_code":"KT53382347003","project_name":"","survey_name":"\u8239\u5834\u5730\u533a\u5730\u8cea\u8abf\u67fb","client_name":"\u56fd\u571f\u4ea4\u901a\u7701\u95a2\u6771\u5730\u65b9\u6574\u5099\u5c40\u7532\u5e9c\u6cb3\u5ddd\u56fd\u9053\u4e8b\u52d9\u6240","boring_xml_url":40,"boring_view_url":1,"soilmap_view_url":null,"soiltest_xml_url":0,"soiltest_view_url":0}]}}