{"header":{"xyz":{"source":[],"mosaic":false},"page":5765,"raw":{"soiltest_result":"0","bbox":"57.598333,109.544722,1.933333,163.806111","page":"5765"},"conditions":{"soiltest_result":0,"north":57.598333,"west":109.544722,"south":1.933333,"east":163.806111},"success":true,"message":""},"data":{"meta":{"total":212844,"page":5765,"pages":7095,"count":30},"values":[{"id":147625,"code":"B4KJ201801003-5874","latitude":"35.48814333","longitude":"138.6271294","source_code":"KT53381580023","project_name":"","survey_name":"\u8d64\u6c60\u5c40\u6539\u5730\u8cea\u8abf\u67fb","client_name":"\u56fd\u571f\u4ea4\u901a\u7701\u95a2\u6771\u5730\u65b9\u6574\u5099\u5c40\u7532\u5e9c\u6cb3\u5ddd\u56fd\u9053\u4e8b\u52d9\u6240","boring_xml_url":40,"boring_view_url":1,"soilmap_view_url":null,"soiltest_xml_url":0,"soiltest_view_url":0},{"id":147624,"code":"B4KJ201801003-5873","latitude":"35.48792111","longitude":"138.6268794","source_code":"KT53381580022","project_name":"","survey_name":"\u8d64\u6c60\u5c40\u6539\u5730\u8cea\u8abf\u67fb","client_name":"\u56fd\u571f\u4ea4\u901a\u7701\u95a2\u6771\u5730\u65b9\u6574\u5099\u5c40\u7532\u5e9c\u6cb3\u5ddd\u56fd\u9053\u4e8b\u52d9\u6240","boring_xml_url":40,"boring_view_url":1,"soilmap_view_url":null,"soiltest_xml_url":0,"soiltest_view_url":0},{"id":147623,"code":"B4KJ201801003-5872","latitude":"35.48836528","longitude":"138.6267406","source_code":"KT53381580021","project_name":"","survey_name":"\u8d64\u6c60\u5c40\u6539\u5730\u8cea\u8abf\u67fb","client_name":"\u56fd\u571f\u4ea4\u901a\u7701\u95a2\u6771\u5730\u65b9\u6574\u5099\u5c40\u7532\u5e9c\u6cb3\u5ddd\u56fd\u9053\u4e8b\u52d9\u6240","boring_xml_url":40,"boring_view_url":1,"soilmap_view_url":null,"soiltest_xml_url":0,"soiltest_view_url":0},{"id":147622,"code":"B4KJ201801003-5871","latitude":"35.48814333","longitude":"138.6264628","source_code":"KT53381580020","project_name":"","survey_name":"\u8d64\u6c60\u5c40\u6539\u5730\u8cea\u8abf\u67fb","client_name":"\u56fd\u571f\u4ea4\u901a\u7701\u95a2\u6771\u5730\u65b9\u6574\u5099\u5c40\u7532\u5e9c\u6cb3\u5ddd\u56fd\u9053\u4e8b\u52d9\u6240","boring_xml_url":40,"boring_view_url":1,"soilmap_view_url":null,"soiltest_xml_url":0,"soiltest_view_url":0},{"id":147621,"code":"B4KJ201801003-5870","latitude":"35.48903194","longitude":"138.6260461","source_code":"KT53381580019","project_name":"","survey_name":"\u8d64\u6c60\u5c40\u6539\u5730\u8cea\u8abf\u67fb","client_name":"\u56fd\u571f\u4ea4\u901a\u7701\u95a2\u6771\u5730\u65b9\u6574\u5099\u5c40\u7532\u5e9c\u6cb3\u5ddd\u56fd\u9053\u4e8b\u52d9\u6240","boring_xml_url":40,"boring_view_url":1,"soilmap_view_url":null,"soiltest_xml_url":0,"soiltest_view_url":0},{"id":147620,"code":"B4KJ201801003-5869","latitude":"35.48880972","longitude":"138.6259072","source_code":"KT53381580018","project_name":"","survey_name":"\u8d64\u6c60\u5c40\u6539\u5730\u8cea\u8abf\u67fb","client_name":"\u56fd\u571f\u4ea4\u901a\u7701\u95a2\u6771\u5730\u65b9\u6574\u5099\u5c40\u7532\u5e9c\u6cb3\u5ddd\u56fd\u9053\u4e8b\u52d9\u6240","boring_xml_url":40,"boring_view_url":1,"soilmap_view_url":null,"soiltest_xml_url":0,"soiltest_view_url":0},{"id":147619,"code":"B4KJ201801003-5868","latitude":"35.48939306","longitude":"138.6252131","source_code":"KT53381580017","project_name":"","survey_name":"\u8d64\u6c60\u5c40\u6539\u5730\u8cea\u8abf\u67fb","client_name":"\u56fd\u571f\u4ea4\u901a\u7701\u95a2\u6771\u5730\u65b9\u6574\u5099\u5c40\u7532\u5e9c\u6cb3\u5ddd\u56fd\u9053\u4e8b\u52d9\u6240","boring_xml_url":40,"boring_view_url":1,"soilmap_view_url":null,"soiltest_xml_url":0,"soiltest_view_url":0},{"id":147618,"code":"B4KJ201801003-5867","latitude":"35.48903194","longitude":"138.6252131","source_code":"KT53381580016","project_name":"","survey_name":"\u8d64\u6c60\u5c40\u6539\u5730\u8cea\u8abf\u67fb","client_name":"\u56fd\u571f\u4ea4\u901a\u7701\u95a2\u6771\u5730\u65b9\u6574\u5099\u5c40\u7532\u5e9c\u6cb3\u5ddd\u56fd\u9053\u4e8b\u52d9\u6240","boring_xml_url":40,"boring_view_url":1,"soilmap_view_url":null,"soiltest_xml_url":0,"soiltest_view_url":0},{"id":147617,"code":"B4KJ201801003-5866","latitude":"35.48950417","longitude":"138.6249353","source_code":"KT53381580015","project_name":"","survey_name":"\u8d64\u6c60\u5c40\u6539\u5730\u8cea\u8abf\u67fb","client_name":"\u56fd\u571f\u4ea4\u901a\u7701\u95a2\u6771\u5730\u65b9\u6574\u5099\u5c40\u7532\u5e9c\u6cb3\u5ddd\u56fd\u9053\u4e8b\u52d9\u6240","boring_xml_url":40,"boring_view_url":1,"soilmap_view_url":null,"soiltest_xml_url":0,"soiltest_view_url":0},{"id":147616,"code":"B4KJ201801003-5865","latitude":"35.48914306","longitude":"138.6248797","source_code":"KT53381580014","project_name":"","survey_name":"\u8d64\u6c60\u5c40\u6539\u5730\u8cea\u8abf\u67fb","client_name":"\u56fd\u571f\u4ea4\u901a\u7701\u95a2\u6771\u5730\u65b9\u6574\u5099\u5c40\u7532\u5e9c\u6cb3\u5ddd\u56fd\u9053\u4e8b\u52d9\u6240","boring_xml_url":40,"boring_view_url":1,"soilmap_view_url":null,"soiltest_xml_url":0,"soiltest_view_url":0},{"id":147615,"code":"B4KJ201801003-5864","latitude":"35.48961528","longitude":"138.6246575","source_code":"KT53381580013","project_name":"","survey_name":"\u8d64\u6c60\u5c40\u6539\u5730\u8cea\u8abf\u67fb","client_name":"\u56fd\u571f\u4ea4\u901a\u7701\u95a2\u6771\u5730\u65b9\u6574\u5099\u5c40\u7532\u5e9c\u6cb3\u5ddd\u56fd\u9053\u4e8b\u52d9\u6240","boring_xml_url":40,"boring_view_url":1,"soilmap_view_url":null,"soiltest_xml_url":0,"soiltest_view_url":0},{"id":147614,"code":"B4KJ201801003-5863","latitude":"35.48928194","longitude":"138.6243797","source_code":"KT53381580012","project_name":"","survey_name":"\u8d64\u6c60\u5c40\u6539\u5730\u8cea\u8abf\u67fb","client_name":"\u56fd\u571f\u4ea4\u901a\u7701\u95a2\u6771\u5730\u65b9\u6574\u5099\u5c40\u7532\u5e9c\u6cb3\u5ddd\u56fd\u9053\u4e8b\u52d9\u6240","boring_xml_url":40,"boring_view_url":1,"soilmap_view_url":null,"soiltest_xml_url":0,"soiltest_view_url":0},{"id":147613,"code":"B4KJ201801003-5862","latitude":"35.48972639","longitude":"138.6242408","source_code":"KT53381580011","project_name":"","survey_name":"\u8d64\u6c60\u5c40\u6539\u5730\u8cea\u8abf\u67fb","client_name":"\u56fd\u571f\u4ea4\u901a\u7701\u95a2\u6771\u5730\u65b9\u6574\u5099\u5c40\u7532\u5e9c\u6cb3\u5ddd\u56fd\u9053\u4e8b\u52d9\u6240","boring_xml_url":40,"boring_view_url":1,"soilmap_view_url":null,"soiltest_xml_url":0,"soiltest_view_url":0},{"id":147612,"code":"B4KJ201801003-5861","latitude":"35.48939306","longitude":"138.6237686","source_code":"KT53381580010","project_name":"","survey_name":"\u8d64\u6c60\u5c40\u6539\u5730\u8cea\u8abf\u67fb","client_name":"\u56fd\u571f\u4ea4\u901a\u7701\u95a2\u6771\u5730\u65b9\u6574\u5099\u5c40\u7532\u5e9c\u6cb3\u5ddd\u56fd\u9053\u4e8b\u52d9\u6240","boring_xml_url":40,"boring_view_url":1,"soilmap_view_url":null,"soiltest_xml_url":0,"soiltest_view_url":0},{"id":147611,"code":"B4KJ201801003-5860","latitude":"35.48972639","longitude":"138.6231297","source_code":"KT53381580009","project_name":"","survey_name":"\u8d64\u6c60\u5c40\u6539\u5730\u8cea\u8abf\u67fb","client_name":"\u56fd\u571f\u4ea4\u901a\u7701\u95a2\u6771\u5730\u65b9\u6574\u5099\u5c40\u7532\u5e9c\u6cb3\u5ddd\u56fd\u9053\u4e8b\u52d9\u6240","boring_xml_url":40,"boring_view_url":1,"soilmap_view_url":null,"soiltest_xml_url":0,"soiltest_view_url":0},{"id":147610,"code":"B4KJ201801003-5859","latitude":"35.48928194","longitude":"138.6223797","source_code":"KT53381580008","project_name":"","survey_name":"\u8d64\u6c60\u5c40\u6539\u5730\u8cea\u8abf\u67fb","client_name":"\u56fd\u571f\u4ea4\u901a\u7701\u95a2\u6771\u5730\u65b9\u6574\u5099\u5c40\u7532\u5e9c\u6cb3\u5ddd\u56fd\u9053\u4e8b\u52d9\u6240","boring_xml_url":40,"boring_view_url":1,"soilmap_view_url":null,"soiltest_xml_url":0,"soiltest_view_url":0},{"id":147609,"code":"B4KJ201801003-5858","latitude":"35.48892083","longitude":"138.6224353","source_code":"KT53381580007","project_name":"","survey_name":"\u8d64\u6c60\u5c40\u6539\u5730\u8cea\u8abf\u67fb","client_name":"\u56fd\u571f\u4ea4\u901a\u7701\u95a2\u6771\u5730\u65b9\u6574\u5099\u5c40\u7532\u5e9c\u6cb3\u5ddd\u56fd\u9053\u4e8b\u52d9\u6240","boring_xml_url":40,"boring_view_url":1,"soilmap_view_url":null,"soiltest_xml_url":0,"soiltest_view_url":0},{"id":147608,"code":"B4KJ201801003-5857","latitude":"35.48803222","longitude":"138.627435","source_code":"KT53381580006","project_name":"","survey_name":"\u8d64\u6c60\u5730\u533a\u5730\u8cea\u8abf\u67fb","client_name":"\u56fd\u571f\u4ea4\u901a\u7701\u95a2\u6771\u5730\u65b9\u6574\u5099\u5c40\u7532\u5e9c\u6cb3\u5ddd\u56fd\u9053\u4e8b\u52d9\u6240","boring_xml_url":40,"boring_view_url":1,"soilmap_view_url":null,"soiltest_xml_url":0,"soiltest_view_url":0},{"id":147607,"code":"B4KJ201801003-5856","latitude":"35.48847639","longitude":"138.626185","source_code":"KT53381580005","project_name":"","survey_name":"\u8d64\u6c60\u5730\u533a\u5730\u8cea\u8abf\u67fb","client_name":"\u56fd\u571f\u4ea4\u901a\u7701\u95a2\u6771\u5730\u65b9\u6574\u5099\u5c40\u7532\u5e9c\u6cb3\u5ddd\u56fd\u9053\u4e8b\u52d9\u6240","boring_xml_url":40,"boring_view_url":1,"soilmap_view_url":null,"soiltest_xml_url":0,"soiltest_view_url":0},{"id":147606,"code":"B4KJ201801003-5855","latitude":"35.48903194","longitude":"138.6260461","source_code":"KT53381580004","project_name":"","survey_name":"\u8d64\u6c60\u5730\u533a\u5730\u8cea\u8abf\u67fb","client_name":"\u56fd\u571f\u4ea4\u901a\u7701\u95a2\u6771\u5730\u65b9\u6574\u5099\u5c40\u7532\u5e9c\u6cb3\u5ddd\u56fd\u9053\u4e8b\u52d9\u6240","boring_xml_url":40,"boring_view_url":1,"soilmap_view_url":null,"soiltest_xml_url":0,"soiltest_view_url":0},{"id":147605,"code":"B4KJ201801003-5854","latitude":"35.48903194","longitude":"138.6227131","source_code":"KT53381580003","project_name":"","survey_name":"\u8d64\u6c60\u5730\u533a\u5730\u8cea\u8abf\u67fb","client_name":"\u56fd\u571f\u4ea4\u901a\u7701\u95a2\u6771\u5730\u65b9\u6574\u5099\u5c40\u7532\u5e9c\u6cb3\u5ddd\u56fd\u9053\u4e8b\u52d9\u6240","boring_xml_url":40,"boring_view_url":1,"soilmap_view_url":null,"soiltest_xml_url":0,"soiltest_view_url":0},{"id":147604,"code":"B4KJ201801003-5853","latitude":"35.4898375","longitude":"138.6236853","source_code":"KT53381580002","project_name":"","survey_name":"\u8d64\u6c60\u5730\u533a\u5730\u8cea\u8abf\u67fb","client_name":"\u56fd\u571f\u4ea4\u901a\u7701\u95a2\u6771\u5730\u65b9\u6574\u5099\u5c40\u7532\u5e9c\u6cb3\u5ddd\u56fd\u9053\u4e8b\u52d9\u6240","boring_xml_url":40,"boring_view_url":1,"soilmap_view_url":null,"soiltest_xml_url":0,"soiltest_view_url":0},{"id":147603,"code":"B4KJ201801003-5852","latitude":"35.48939306","longitude":"138.6224353","source_code":"KT53381580001","project_name":"","survey_name":"\u8d64\u6c60\u5730\u533a\u5730\u8cea\u8abf\u67fb","client_name":"\u56fd\u571f\u4ea4\u901a\u7701\u95a2\u6771\u5730\u65b9\u6574\u5099\u5c40\u7532\u5e9c\u6cb3\u5ddd\u56fd\u9053\u4e8b\u52d9\u6240","boring_xml_url":40,"boring_view_url":1,"soilmap_view_url":null,"soiltest_xml_url":0,"soiltest_view_url":0},{"id":147602,"code":"B4KJ201801003-5851","latitude":"35.48892083","longitude":"138.6218522","source_code":"KT53381489011","project_name":"","survey_name":"\u8d64\u6c60\u5730\u533a\u5730\u8cea\u8abf\u67fb","client_name":"\u56fd\u571f\u4ea4\u901a\u7701\u95a2\u6771\u5730\u65b9\u6574\u5099\u5c40\u7532\u5e9c\u6cb3\u5ddd\u56fd\u9053\u4e8b\u52d9\u6240","boring_xml_url":40,"boring_view_url":1,"soilmap_view_url":null,"soiltest_xml_url":0,"soiltest_view_url":0},{"id":147601,"code":"B4KJ201801003-5850","latitude":"35.48880972","longitude":"138.6213244","source_code":"KT53381489010","project_name":"","survey_name":"\u8d64\u6c60\u5c40\u6539\u5730\u8cea\u8abf\u67fb","client_name":"\u56fd\u571f\u4ea4\u901a\u7701\u95a2\u6771\u5730\u65b9\u6574\u5099\u5c40\u7532\u5e9c\u6cb3\u5ddd\u56fd\u9053\u4e8b\u52d9\u6240","boring_xml_url":40,"boring_view_url":1,"soilmap_view_url":null,"soiltest_xml_url":0,"soiltest_view_url":0},{"id":147600,"code":"B4KJ201801003-5849","latitude":"35.48836528","longitude":"138.6213244","source_code":"KT53381489009","project_name":"","survey_name":"\u8d64\u6c60\u5c40\u6539\u5730\u8cea\u8abf\u67fb","client_name":"\u56fd\u571f\u4ea4\u901a\u7701\u95a2\u6771\u5730\u65b9\u6574\u5099\u5c40\u7532\u5e9c\u6cb3\u5ddd\u56fd\u9053\u4e8b\u52d9\u6240","boring_xml_url":40,"boring_view_url":1,"soilmap_view_url":null,"soiltest_xml_url":0,"soiltest_view_url":0},{"id":147599,"code":"B4KJ201801003-5848","latitude":"35.4885875","longitude":"138.6204911","source_code":"KT53381489008","project_name":"","survey_name":"\u8d64\u6c60\u5c40\u6539\u5730\u8cea\u8abf\u67fb","client_name":"\u56fd\u571f\u4ea4\u901a\u7701\u95a2\u6771\u5730\u65b9\u6574\u5099\u5c40\u7532\u5e9c\u6cb3\u5ddd\u56fd\u9053\u4e8b\u52d9\u6240","boring_xml_url":40,"boring_view_url":1,"soilmap_view_url":null,"soiltest_xml_url":0,"soiltest_view_url":0},{"id":147598,"code":"B4KJ201801003-5847","latitude":"35.4885875","longitude":"138.6199911","source_code":"KT53381489007","project_name":"","survey_name":"\u8d64\u6c60\u5c40\u6539\u5730\u8cea\u8abf\u67fb","client_name":"\u56fd\u571f\u4ea4\u901a\u7701\u95a2\u6771\u5730\u65b9\u6574\u5099\u5c40\u7532\u5e9c\u6cb3\u5ddd\u56fd\u9053\u4e8b\u52d9\u6240","boring_xml_url":40,"boring_view_url":1,"soilmap_view_url":null,"soiltest_xml_url":0,"soiltest_view_url":0},{"id":147597,"code":"B4KJ201801003-5846","latitude":"35.48836528","longitude":"138.6187969","source_code":"KT53381489006","project_name":"","survey_name":"\u8d64\u6c60\u5c40\u6539\u5730\u8cea\u8abf\u67fb","client_name":"\u56fd\u571f\u4ea4\u901a\u7701\u95a2\u6771\u5730\u65b9\u6574\u5099\u5c40\u7532\u5e9c\u6cb3\u5ddd\u56fd\u9053\u4e8b\u52d9\u6240","boring_xml_url":40,"boring_view_url":1,"soilmap_view_url":null,"soiltest_xml_url":0,"soiltest_view_url":0},{"id":147596,"code":"B4KJ201801003-5845","latitude":"35.48792083","longitude":"138.6183247","source_code":"KT53381489005","project_name":"","survey_name":"\u8d64\u6c60\u5c40\u6539\u5730\u8cea\u8abf\u67fb","client_name":"\u56fd\u571f\u4ea4\u901a\u7701\u95a2\u6771\u5730\u65b9\u6574\u5099\u5c40\u7532\u5e9c\u6cb3\u5ddd\u56fd\u9053\u4e8b\u52d9\u6240","boring_xml_url":40,"boring_view_url":1,"soilmap_view_url":null,"soiltest_xml_url":0,"soiltest_view_url":0}]}}