{"header":{"xyz":{"source":[],"mosaic":false},"page":5775,"raw":{"soiltest_result":"0","bbox":"57.598333,109.544722,1.933333,163.806111","page":"5775"},"conditions":{"soiltest_result":0,"north":57.598333,"west":109.544722,"south":1.933333,"east":163.806111},"success":true,"message":""},"data":{"meta":{"total":212844,"page":5775,"pages":7095,"count":30},"values":[{"id":147325,"code":"B4KJ201801003-5574","latitude":"35.17012722","longitude":"139.830345","source_code":"KT52396606002","project_name":"","survey_name":"127\u53f7\u91d1\u8c37\u9053\u8def(\u91d1\u8c37\u7b2c\u4e8c\u9ad8\u67b6\u6a4b)\u5730\u8cea\u8abf\u67fb\u696d\u52d9\u59d4\u8a17","client_name":"\u56fd\u571f\u4ea4\u901a\u7701\u95a2\u6771\u5730\u65b9\u6574\u5099\u5c40\u5343\u8449\u56fd\u9053\u4e8b\u52d9\u6240","boring_xml_url":40,"boring_view_url":1,"soilmap_view_url":null,"soiltest_xml_url":0,"soiltest_view_url":0},{"id":147324,"code":"B4KJ201801003-5573","latitude":"35.17009944","longitude":"139.8301783","source_code":"KT52396606001","project_name":"","survey_name":"127\u53f7\u91d1\u8c37\u9053\u8def(\u91d1\u8c37\u7b2c\u4e8c\u9ad8\u67b6\u6a4b)\u5730\u8cea\u8abf\u67fb\u696d\u52d9\u59d4\u8a17","client_name":"\u56fd\u571f\u4ea4\u901a\u7701\u95a2\u6771\u5730\u65b9\u6574\u5099\u5c40\u5343\u8449\u56fd\u9053\u4e8b\u52d9\u6240","boring_xml_url":40,"boring_view_url":1,"soilmap_view_url":null,"soiltest_xml_url":0,"soiltest_view_url":0},{"id":147323,"code":"B4KJ201801003-5572","latitude":"35.17148778","longitude":"139.8178739","source_code":"KT52396605001","project_name":"","survey_name":"127\u53f7\u6e2c\u91cf\u5730\u8cea\u8abf\u67fb\u304a\u3088\u3073\u69cb\u9020\u7269\u8a2d\u8a08\u696d\u52d9\u59d4\u8a17","client_name":"\u56fd\u571f\u4ea4\u901a\u7701\u95a2\u6771\u5730\u65b9\u6574\u5099\u5c40\u5343\u8449\u56fd\u9053\u4e8b\u52d9\u6240","boring_xml_url":40,"boring_view_url":1,"soilmap_view_url":null,"soiltest_xml_url":0,"soiltest_view_url":0},{"id":147322,"code":"B4KJ201801003-5571","latitude":"35.24994611","longitude":"139.6279147","source_code":"KT52396590002","project_name":"","survey_name":"\u5927\u6960\u5c71\u30ec\u30fc\u30c0\u30fc\u57fa\u5730\u5730\u8cea\u8abf\u67fb","client_name":"\u56fd\u571f\u4ea4\u901a\u7701\u95a2\u6771\u5730\u65b9\u6574\u5099\u5c40\u4eac\u6d5c\u6cb3\u5ddd\u4e8b\u52d9\u6240","boring_xml_url":40,"boring_view_url":1,"soilmap_view_url":null,"soiltest_xml_url":0,"soiltest_view_url":0},{"id":147321,"code":"B4KJ201801003-5570","latitude":"35.24994611","longitude":"139.6279147","source_code":"KT52396590001","project_name":"","survey_name":"\u5927\u6960\u5c71\u30ec\u30fc\u30c0\u30fc\u57fa\u5730\u5730\u8cea\u8abf\u67fb","client_name":"\u56fd\u571f\u4ea4\u901a\u7701\u95a2\u6771\u5730\u65b9\u6574\u5099\u5c40\u4eac\u6d5c\u6cb3\u5ddd\u4e8b\u52d9\u6240","boring_xml_url":40,"boring_view_url":1,"soilmap_view_url":null,"soiltest_xml_url":0,"soiltest_view_url":0},{"id":147320,"code":"B4KJ201801003-5569","latitude":"35.24418361","longitude":"139.1241242","source_code":"KT52396180002","project_name":"","survey_name":"\u5c0f\u7530\u539f\u7bb1\u6839\u9053\u8def\u5730\u8cea\u8abf\u67fb\u696d\u52d9","client_name":"\u56fd\u571f\u4ea4\u901a\u7701\u95a2\u6771\u5730\u65b9\u6574\u5099\u5c40\u6a2a\u6d5c\u56fd\u9053\u4e8b\u52d9\u6240","boring_xml_url":40,"boring_view_url":1,"soilmap_view_url":null,"soiltest_xml_url":0,"soiltest_view_url":0},{"id":147319,"code":"B4KJ201801003-5568","latitude":"35.24123972","longitude":"139.1287906","source_code":"KT52396180001","project_name":"","survey_name":"\u5c0f\u7530\u539f\u7bb1\u6839\u9053\u8def\u5730\u8cea\u8abf\u67fb\u696d\u52d9","client_name":"\u56fd\u571f\u4ea4\u901a\u7701\u95a2\u6771\u5730\u65b9\u6574\u5099\u5c40\u6a2a\u6d5c\u56fd\u9053\u4e8b\u52d9\u6240","boring_xml_url":40,"boring_view_url":1,"soilmap_view_url":null,"soiltest_xml_url":0,"soiltest_view_url":0},{"id":147318,"code":"B4KJ201801003-5567","latitude":"35.23665639","longitude":"139.1181528","source_code":"KT52396089002","project_name":"","survey_name":"\u5c0f\u7530\u539f\u7bb1\u6839\u9053\u8def\u5730\u8cea\u8abf\u67fb\u696d\u52d9","client_name":"\u56fd\u571f\u4ea4\u901a\u7701\u95a2\u6771\u5730\u65b9\u6574\u5099\u5c40\u6a2a\u6d5c\u56fd\u9053\u4e8b\u52d9\u6240","boring_xml_url":40,"boring_view_url":1,"soilmap_view_url":null,"soiltest_xml_url":0,"soiltest_view_url":0},{"id":147317,"code":"B4KJ201801003-5566","latitude":"35.23723972","longitude":"139.1199303","source_code":"KT52396089001","project_name":"","survey_name":"\u5c0f\u7530\u539f\u7bb1\u6839\u9053\u8def\u5730\u8cea\u8abf\u67fb\u696d\u52d9","client_name":"\u56fd\u571f\u4ea4\u901a\u7701\u95a2\u6771\u5730\u65b9\u6574\u5099\u5c40\u6a2a\u6d5c\u56fd\u9053\u4e8b\u52d9\u6240","boring_xml_url":40,"boring_view_url":1,"soilmap_view_url":null,"soiltest_xml_url":0,"soiltest_view_url":0},{"id":147316,"code":"B4KJ201801003-5565","latitude":"35.23496222","longitude":"139.1135144","source_code":"KT52396079003","project_name":"","survey_name":"\u5c0f\u7530\u539f\u7bb1\u6839\u9053\u8def\u5730\u8cea\u8abf\u67fb\u696d\u52d9","client_name":"\u56fd\u571f\u4ea4\u901a\u7701\u95a2\u6771\u5730\u65b9\u6574\u5099\u5c40\u6a2a\u6d5c\u56fd\u9053\u4e8b\u52d9\u6240","boring_xml_url":40,"boring_view_url":1,"soilmap_view_url":null,"soiltest_xml_url":0,"soiltest_view_url":0},{"id":147315,"code":"B4KJ201801003-5564","latitude":"35.23582306","longitude":"139.1145419","source_code":"KT52396079002","project_name":"","survey_name":"\u5c0f\u7530\u539f\u7bb1\u6839\u9053\u8def\u5730\u8cea\u8abf\u67fb\u696d\u52d9","client_name":"\u56fd\u571f\u4ea4\u901a\u7701\u95a2\u6771\u5730\u65b9\u6574\u5099\u5c40\u6a2a\u6d5c\u56fd\u9053\u4e8b\u52d9\u6240","boring_xml_url":40,"boring_view_url":1,"soilmap_view_url":null,"soiltest_xml_url":0,"soiltest_view_url":0},{"id":147314,"code":"B4KJ201801003-5563","latitude":"35.23562889","longitude":"139.1146531","source_code":"KT52396079001","project_name":"","survey_name":"\u5c0f\u7530\u539f\u7bb1\u6839\u9053\u8def\u5730\u8cea\u8abf\u67fb\u696d\u52d9","client_name":"\u56fd\u571f\u4ea4\u901a\u7701\u95a2\u6771\u5730\u65b9\u6574\u5099\u5c40\u6a2a\u6d5c\u56fd\u9053\u4e8b\u52d9\u6240","boring_xml_url":40,"boring_view_url":1,"soilmap_view_url":null,"soiltest_xml_url":0,"soiltest_view_url":0},{"id":147313,"code":"B4KJ201801003-5562","latitude":"35.16468361","longitude":"139.8451219","source_code":"KT52395697003","project_name":"","survey_name":"127\u53f7\u91d1\u8c37\u9053\u8def\u5143\u540d\u5730\u533a\u5730\u8cea\u8abf\u67fb(\u305d\u306e2)\u696d\u52d9\u59d4\u8a17","client_name":"\u56fd\u571f\u4ea4\u901a\u7701\u95a2\u6771\u5730\u65b9\u6574\u5099\u5c40\u5343\u8449\u56fd\u9053\u4e8b\u52d9\u6240","boring_xml_url":40,"boring_view_url":1,"soilmap_view_url":null,"soiltest_xml_url":0,"soiltest_view_url":0},{"id":147312,"code":"B4KJ201801003-5561","latitude":"35.16523917","longitude":"139.8456772","source_code":"KT52395697002","project_name":"","survey_name":"127\u53f7\u91d1\u8c37\u9053\u8def\u5143\u540d\u5730\u533a\u5730\u8cea\u8abf\u67fb(\u305d\u306e2)\u696d\u52d9\u59d4\u8a17","client_name":"\u56fd\u571f\u4ea4\u901a\u7701\u95a2\u6771\u5730\u65b9\u6574\u5099\u5c40\u5343\u8449\u56fd\u9053\u4e8b\u52d9\u6240","boring_xml_url":40,"boring_view_url":1,"soilmap_view_url":null,"soiltest_xml_url":0,"soiltest_view_url":0},{"id":147311,"code":"B4KJ201801003-5560","latitude":"35.16468361","longitude":"139.8451219","source_code":"KT52395697001","project_name":"","survey_name":"127\u53f7\u91d1\u8c37\u9053\u8def\u5143\u540d\u5730\u533a\u5730\u8cea\u8abf\u67fb(\u305d\u306e2)\u696d\u52d9\u59d4\u8a17","client_name":"\u56fd\u571f\u4ea4\u901a\u7701\u95a2\u6771\u5730\u65b9\u6574\u5099\u5c40\u5343\u8449\u56fd\u9053\u4e8b\u52d9\u6240","boring_xml_url":40,"boring_view_url":1,"soilmap_view_url":null,"soiltest_xml_url":0,"soiltest_view_url":0},{"id":147310,"code":"B4KJ201801003-5559","latitude":"35.16668306","longitude":"139.8310397","source_code":"KT52395696031","project_name":"","survey_name":"127\u53f7\u91d1\u8c37\u9053\u8def(\u91d1\u8c37\u7b2c\u4e00\u9ad8\u67b6\u6a4b)\u5730\u8cea\u8abf\u67fb\u696d\u52d9\u59d4\u8a17","client_name":"\u56fd\u571f\u4ea4\u901a\u7701\u95a2\u6771\u5730\u65b9\u6574\u5099\u5c40\u5343\u8449\u56fd\u9053\u4e8b\u52d9\u6240","boring_xml_url":40,"boring_view_url":1,"soilmap_view_url":null,"soiltest_xml_url":0,"soiltest_view_url":0},{"id":147309,"code":"B4KJ201801003-5558","latitude":"35.16668306","longitude":"139.8309008","source_code":"KT52395696030","project_name":"","survey_name":"127\u53f7\u91d1\u8c37\u9053\u8def(\u91d1\u8c37\u7b2c\u4e00\u9ad8\u67b6\u6a4b)\u5730\u8cea\u8abf\u67fb\u696d\u52d9\u59d4\u8a17","client_name":"\u56fd\u571f\u4ea4\u901a\u7701\u95a2\u6771\u5730\u65b9\u6574\u5099\u5c40\u5343\u8449\u56fd\u9053\u4e8b\u52d9\u6240","boring_xml_url":40,"boring_view_url":1,"soilmap_view_url":null,"soiltest_xml_url":0,"soiltest_view_url":0},{"id":147308,"code":"B4KJ201801003-5557","latitude":"35.16621083","longitude":"139.8310397","source_code":"KT52395696029","project_name":"","survey_name":"127\u53f7\u91d1\u8c37\u9053\u8def(\u91d1\u8c37\u7b2c\u4e00\u9ad8\u67b6\u6a4b)\u5730\u8cea\u8abf\u67fb\u696d\u52d9\u59d4\u8a17","client_name":"\u56fd\u571f\u4ea4\u901a\u7701\u95a2\u6771\u5730\u65b9\u6574\u5099\u5c40\u5343\u8449\u56fd\u9053\u4e8b\u52d9\u6240","boring_xml_url":40,"boring_view_url":1,"soilmap_view_url":null,"soiltest_xml_url":0,"soiltest_view_url":0},{"id":147307,"code":"B4KJ201801003-5556","latitude":"35.16621083","longitude":"139.8309008","source_code":"KT52395696028","project_name":"","survey_name":"127\u53f7\u91d1\u8c37\u9053\u8def(\u91d1\u8c37\u7b2c\u4e00\u9ad8\u67b6\u6a4b)\u5730\u8cea\u8abf\u67fb\u696d\u52d9\u59d4\u8a17","client_name":"\u56fd\u571f\u4ea4\u901a\u7701\u95a2\u6771\u5730\u65b9\u6574\u5099\u5c40\u5343\u8449\u56fd\u9053\u4e8b\u52d9\u6240","boring_xml_url":40,"boring_view_url":1,"soilmap_view_url":null,"soiltest_xml_url":0,"soiltest_view_url":0},{"id":147306,"code":"B4KJ201801003-5555","latitude":"35.16598861","longitude":"139.8310675","source_code":"KT52395696027","project_name":"","survey_name":"127\u53f7\u91d1\u8c37\u9053\u8def(\u91d1\u8c37\u7b2c\u4e00\u9ad8\u67b6\u6a4b)\u5730\u8cea\u8abf\u67fb\u696d\u52d9\u59d4\u8a17","client_name":"\u56fd\u571f\u4ea4\u901a\u7701\u95a2\u6771\u5730\u65b9\u6574\u5099\u5c40\u5343\u8449\u56fd\u9053\u4e8b\u52d9\u6240","boring_xml_url":40,"boring_view_url":1,"soilmap_view_url":null,"soiltest_xml_url":0,"soiltest_view_url":0},{"id":147305,"code":"B4KJ201801003-5554","latitude":"35.16598861","longitude":"139.8309286","source_code":"KT52395696026","project_name":"","survey_name":"127\u53f7\u91d1\u8c37\u9053\u8def(\u91d1\u8c37\u7b2c\u4e00\u9ad8\u67b6\u6a4b)\u5730\u8cea\u8abf\u67fb\u696d\u52d9\u59d4\u8a17","client_name":"\u56fd\u571f\u4ea4\u901a\u7701\u95a2\u6771\u5730\u65b9\u6574\u5099\u5c40\u5343\u8449\u56fd\u9053\u4e8b\u52d9\u6240","boring_xml_url":40,"boring_view_url":1,"soilmap_view_url":null,"soiltest_xml_url":0,"soiltest_view_url":0},{"id":147304,"code":"B4KJ201801003-5553","latitude":"35.16576639","longitude":"139.8310675","source_code":"KT52395696025","project_name":"","survey_name":"127\u53f7\u91d1\u8c37\u9053\u8def(\u91d1\u8c37\u7b2c\u4e00\u9ad8\u67b6\u6a4b)\u5730\u8cea\u8abf\u67fb\u696d\u52d9\u59d4\u8a17","client_name":"\u56fd\u571f\u4ea4\u901a\u7701\u95a2\u6771\u5730\u65b9\u6574\u5099\u5c40\u5343\u8449\u56fd\u9053\u4e8b\u52d9\u6240","boring_xml_url":40,"boring_view_url":1,"soilmap_view_url":null,"soiltest_xml_url":0,"soiltest_view_url":0},{"id":147303,"code":"B4KJ201801003-5552","latitude":"35.16576639","longitude":"139.8309286","source_code":"KT52395696024","project_name":"","survey_name":"127\u53f7\u91d1\u8c37\u9053\u8def(\u91d1\u8c37\u7b2c\u4e00\u9ad8\u67b6\u6a4b)\u5730\u8cea\u8abf\u67fb\u696d\u52d9\u59d4\u8a17","client_name":"\u56fd\u571f\u4ea4\u901a\u7701\u95a2\u6771\u5730\u65b9\u6574\u5099\u5c40\u5343\u8449\u56fd\u9053\u4e8b\u52d9\u6240","boring_xml_url":40,"boring_view_url":1,"soilmap_view_url":null,"soiltest_xml_url":0,"soiltest_view_url":0},{"id":147302,"code":"B4KJ201801003-5551","latitude":"35.16568306","longitude":"139.8310675","source_code":"KT52395696023","project_name":"","survey_name":"127\u53f7\u91d1\u8c37\u9053\u8def(\u91d1\u8c37\u7b2c\u4e00\u9ad8\u67b6\u6a4b)\u5730\u8cea\u8abf\u67fb\u696d\u52d9\u59d4\u8a17","client_name":"\u56fd\u571f\u4ea4\u901a\u7701\u95a2\u6771\u5730\u65b9\u6574\u5099\u5c40\u5343\u8449\u56fd\u9053\u4e8b\u52d9\u6240","boring_xml_url":40,"boring_view_url":1,"soilmap_view_url":null,"soiltest_xml_url":0,"soiltest_view_url":0},{"id":147301,"code":"B4KJ201801003-5550","latitude":"35.16568306","longitude":"139.8309564","source_code":"KT52395696022","project_name":"","survey_name":"127\u53f7\u91d1\u8c37\u9053\u8def(\u91d1\u8c37\u7b2c\u4e00\u9ad8\u67b6\u6a4b)\u5730\u8cea\u8abf\u67fb\u696d\u52d9\u59d4\u8a17","client_name":"\u56fd\u571f\u4ea4\u901a\u7701\u95a2\u6771\u5730\u65b9\u6574\u5099\u5c40\u5343\u8449\u56fd\u9053\u4e8b\u52d9\u6240","boring_xml_url":40,"boring_view_url":1,"soilmap_view_url":null,"soiltest_xml_url":0,"soiltest_view_url":0},{"id":147300,"code":"B4KJ201801003-5549","latitude":"35.16554444","longitude":"139.8310953","source_code":"KT52395696021","project_name":"","survey_name":"127\u53f7\u91d1\u8c37\u9053\u8def(\u91d1\u8c37\u7b2c\u4e00\u9ad8\u67b6\u6a4b)\u5730\u8cea\u8abf\u67fb\u696d\u52d9\u59d4\u8a17","client_name":"\u56fd\u571f\u4ea4\u901a\u7701\u95a2\u6771\u5730\u65b9\u6574\u5099\u5c40\u5343\u8449\u56fd\u9053\u4e8b\u52d9\u6240","boring_xml_url":40,"boring_view_url":1,"soilmap_view_url":null,"soiltest_xml_url":0,"soiltest_view_url":0},{"id":147299,"code":"B4KJ201801003-5548","latitude":"35.16554444","longitude":"139.8309564","source_code":"KT52395696020","project_name":"","survey_name":"127\u53f7\u91d1\u8c37\u9053\u8def(\u91d1\u8c37\u7b2c\u4e00\u9ad8\u67b6\u6a4b)\u5730\u8cea\u8abf\u67fb\u696d\u52d9\u59d4\u8a17","client_name":"\u56fd\u571f\u4ea4\u901a\u7701\u95a2\u6771\u5730\u65b9\u6574\u5099\u5c40\u5343\u8449\u56fd\u9053\u4e8b\u52d9\u6240","boring_xml_url":40,"boring_view_url":1,"soilmap_view_url":null,"soiltest_xml_url":0,"soiltest_view_url":0},{"id":147298,"code":"B4KJ201801003-5547","latitude":"35.16532222","longitude":"139.8310953","source_code":"KT52395696019","project_name":"","survey_name":"127\u53f7\u91d1\u8c37\u9053\u8def(\u91d1\u8c37\u7b2c\u4e00\u9ad8\u67b6\u6a4b)\u5730\u8cea\u8abf\u67fb\u696d\u52d9\u59d4\u8a17","client_name":"\u56fd\u571f\u4ea4\u901a\u7701\u95a2\u6771\u5730\u65b9\u6574\u5099\u5c40\u5343\u8449\u56fd\u9053\u4e8b\u52d9\u6240","boring_xml_url":40,"boring_view_url":1,"soilmap_view_url":null,"soiltest_xml_url":0,"soiltest_view_url":0},{"id":147297,"code":"B4KJ201801003-5546","latitude":"35.16523889","longitude":"139.8309564","source_code":"KT52395696018","project_name":"","survey_name":"127\u53f7\u91d1\u8c37\u9053\u8def(\u91d1\u8c37\u7b2c\u4e00\u9ad8\u67b6\u6a4b)\u5730\u8cea\u8abf\u67fb\u696d\u52d9\u59d4\u8a17","client_name":"\u56fd\u571f\u4ea4\u901a\u7701\u95a2\u6771\u5730\u65b9\u6574\u5099\u5c40\u5343\u8449\u56fd\u9053\u4e8b\u52d9\u6240","boring_xml_url":40,"boring_view_url":1,"soilmap_view_url":null,"soiltest_xml_url":0,"soiltest_view_url":0},{"id":147296,"code":"B4KJ201801003-5545","latitude":"35.16979389","longitude":"139.8305394","source_code":"KT52395696017","project_name":"","survey_name":"127\u53f7\u91d1\u8c37\u9053\u8def(\u91d1\u8c37\u7b2c\u4e8c\u9ad8\u67b6\u6a4b)\u5730\u8cea\u8abf\u67fb\u696d\u52d9\u59d4\u8a17","client_name":"\u56fd\u571f\u4ea4\u901a\u7701\u95a2\u6771\u5730\u65b9\u6574\u5099\u5c40\u5343\u8449\u56fd\u9053\u4e8b\u52d9\u6240","boring_xml_url":40,"boring_view_url":1,"soilmap_view_url":null,"soiltest_xml_url":0,"soiltest_view_url":0}]}}