{"header":{"xyz":{"source":[],"mosaic":false},"page":5776,"raw":{"soiltest_result":"0","bbox":"57.598333,109.544722,1.933333,163.806111","page":"5776"},"conditions":{"soiltest_result":0,"north":57.598333,"west":109.544722,"south":1.933333,"east":163.806111},"success":true,"message":""},"data":{"meta":{"total":212844,"page":5776,"pages":7095,"count":30},"values":[{"id":147295,"code":"B4KJ201801003-5544","latitude":"35.16987722","longitude":"139.8301783","source_code":"KT52395696016","project_name":"","survey_name":"127\u53f7\u91d1\u8c37\u9053\u8def(\u91d1\u8c37\u7b2c\u4e8c\u9ad8\u67b6\u6a4b)\u5730\u8cea\u8abf\u67fb\u696d\u52d9\u59d4\u8a17","client_name":"\u56fd\u571f\u4ea4\u901a\u7701\u95a2\u6771\u5730\u65b9\u6574\u5099\u5c40\u5343\u8449\u56fd\u9053\u4e8b\u52d9\u6240","boring_xml_url":40,"boring_view_url":1,"soilmap_view_url":null,"soiltest_xml_url":0,"soiltest_view_url":0},{"id":147294,"code":"B4KJ201801003-5543","latitude":"35.16948833","longitude":"139.8305394","source_code":"KT52395696015","project_name":"","survey_name":"127\u53f7\u91d1\u8c37\u9053\u8def(\u91d1\u8c37\u7b2c\u4e8c\u9ad8\u67b6\u6a4b)\u5730\u8cea\u8abf\u67fb\u696d\u52d9\u59d4\u8a17","client_name":"\u56fd\u571f\u4ea4\u901a\u7701\u95a2\u6771\u5730\u65b9\u6574\u5099\u5c40\u5343\u8449\u56fd\u9053\u4e8b\u52d9\u6240","boring_xml_url":40,"boring_view_url":1,"soilmap_view_url":null,"soiltest_xml_url":0,"soiltest_view_url":0},{"id":147293,"code":"B4KJ201801003-5542","latitude":"35.16951611","longitude":"139.830345","source_code":"KT52395696014","project_name":"","survey_name":"127\u53f7\u91d1\u8c37\u9053\u8def(\u91d1\u8c37\u7b2c\u4e8c\u9ad8\u67b6\u6a4b)\u5730\u8cea\u8abf\u67fb\u696d\u52d9\u59d4\u8a17","client_name":"\u56fd\u571f\u4ea4\u901a\u7701\u95a2\u6771\u5730\u65b9\u6574\u5099\u5c40\u5343\u8449\u56fd\u9053\u4e8b\u52d9\u6240","boring_xml_url":40,"boring_view_url":1,"soilmap_view_url":null,"soiltest_xml_url":0,"soiltest_view_url":0},{"id":147292,"code":"B4KJ201801003-5541","latitude":"35.16951611","longitude":"139.8302061","source_code":"KT52395696013","project_name":"","survey_name":"127\u53f7\u91d1\u8c37\u9053\u8def(\u91d1\u8c37\u7b2c\u4e8c\u9ad8\u67b6\u6a4b)\u5730\u8cea\u8abf\u67fb\u696d\u52d9\u59d4\u8a17","client_name":"\u56fd\u571f\u4ea4\u901a\u7701\u95a2\u6771\u5730\u65b9\u6574\u5099\u5c40\u5343\u8449\u56fd\u9053\u4e8b\u52d9\u6240","boring_xml_url":40,"boring_view_url":1,"soilmap_view_url":null,"soiltest_xml_url":0,"soiltest_view_url":0},{"id":147291,"code":"B4KJ201801003-5540","latitude":"35.16929389","longitude":"139.8303172","source_code":"KT52395696012","project_name":"","survey_name":"127\u53f7\u91d1\u8c37\u9053\u8def(\u91d1\u8c37\u7b2c\u4e8c\u9ad8\u67b6\u6a4b)\u5730\u8cea\u8abf\u67fb\u696d\u52d9\u59d4\u8a17","client_name":"\u56fd\u571f\u4ea4\u901a\u7701\u95a2\u6771\u5730\u65b9\u6574\u5099\u5c40\u5343\u8449\u56fd\u9053\u4e8b\u52d9\u6240","boring_xml_url":40,"boring_view_url":1,"soilmap_view_url":null,"soiltest_xml_url":0,"soiltest_view_url":0},{"id":147290,"code":"B4KJ201801003-5539","latitude":"35.16923833","longitude":"139.8303175","source_code":"KT52395696011","project_name":"","survey_name":"127\u53f7\u91d1\u8c37\u9053\u8def(\u91d1\u8c37\u7b2c\u4e8c\u9ad8\u67b6\u6a4b)\u5730\u8cea\u8abf\u67fb\u696d\u52d9\u59d4\u8a17","client_name":"\u56fd\u571f\u4ea4\u901a\u7701\u95a2\u6771\u5730\u65b9\u6574\u5099\u5c40\u5343\u8449\u56fd\u9053\u4e8b\u52d9\u6240","boring_xml_url":40,"boring_view_url":1,"soilmap_view_url":null,"soiltest_xml_url":0,"soiltest_view_url":0},{"id":147289,"code":"B4KJ201801003-5538","latitude":"35.16887722","longitude":"139.830595","source_code":"KT52395696010","project_name":"","survey_name":"127\u53f7\u91d1\u8c37\u9053\u8def(\u91d1\u8c37\u7b2c\u4e8c\u9ad8\u67b6\u6a4b)\u5730\u8cea\u8abf\u67fb\u696d\u52d9\u59d4\u8a17","client_name":"\u56fd\u571f\u4ea4\u901a\u7701\u95a2\u6771\u5730\u65b9\u6574\u5099\u5c40\u5343\u8449\u56fd\u9053\u4e8b\u52d9\u6240","boring_xml_url":40,"boring_view_url":1,"soilmap_view_url":null,"soiltest_xml_url":0,"soiltest_view_url":0},{"id":147288,"code":"B4KJ201801003-5537","latitude":"35.168905","longitude":"139.8302342","source_code":"KT52395696009","project_name":"","survey_name":"127\u53f7\u91d1\u8c37\u9053\u8def(\u91d1\u8c37\u7b2c\u4e8c\u9ad8\u67b6\u6a4b)\u5730\u8cea\u8abf\u67fb\u696d\u52d9\u59d4\u8a17","client_name":"\u56fd\u571f\u4ea4\u901a\u7701\u95a2\u6771\u5730\u65b9\u6574\u5099\u5c40\u5343\u8449\u56fd\u9053\u4e8b\u52d9\u6240","boring_xml_url":40,"boring_view_url":1,"soilmap_view_url":null,"soiltest_xml_url":0,"soiltest_view_url":0},{"id":147287,"code":"B4KJ201801003-5536","latitude":"35.16871056","longitude":"139.8306506","source_code":"KT52395696008","project_name":"","survey_name":"127\u53f7\u91d1\u8c37\u9053\u8def(\u91d1\u8c37\u7b2c\u4e8c\u9ad8\u67b6\u6a4b)\u5730\u8cea\u8abf\u67fb\u696d\u52d9\u59d4\u8a17","client_name":"\u56fd\u571f\u4ea4\u901a\u7701\u95a2\u6771\u5730\u65b9\u6574\u5099\u5c40\u5343\u8449\u56fd\u9053\u4e8b\u52d9\u6240","boring_xml_url":40,"boring_view_url":1,"soilmap_view_url":null,"soiltest_xml_url":0,"soiltest_view_url":0},{"id":147286,"code":"B4KJ201801003-5535","latitude":"35.16884944","longitude":"139.8303453","source_code":"KT52395696007","project_name":"","survey_name":"127\u53f7\u91d1\u8c37\u9053\u8def(\u91d1\u8c37\u7b2c\u4e8c\u9ad8\u67b6\u6a4b)\u5730\u8cea\u8abf\u67fb\u696d\u52d9\u59d4\u8a17","client_name":"\u56fd\u571f\u4ea4\u901a\u7701\u95a2\u6771\u5730\u65b9\u6574\u5099\u5c40\u5343\u8449\u56fd\u9053\u4e8b\u52d9\u6240","boring_xml_url":40,"boring_view_url":1,"soilmap_view_url":null,"soiltest_xml_url":0,"soiltest_view_url":0},{"id":147285,"code":"B4KJ201801003-5534","latitude":"35.16871056","longitude":"139.8302619","source_code":"KT52395696006","project_name":"","survey_name":"127\u53f7\u91d1\u8c37\u9053\u8def(\u91d1\u8c37\u7b2c\u4e8c\u9ad8\u67b6\u6a4b)\u5730\u8cea\u8abf\u67fb\u696d\u52d9\u59d4\u8a17","client_name":"\u56fd\u571f\u4ea4\u901a\u7701\u95a2\u6771\u5730\u65b9\u6574\u5099\u5c40\u5343\u8449\u56fd\u9053\u4e8b\u52d9\u6240","boring_xml_url":40,"boring_view_url":1,"soilmap_view_url":null,"soiltest_xml_url":0,"soiltest_view_url":0},{"id":147284,"code":"B4KJ201801003-5533","latitude":"35.168405","longitude":"139.8306508","source_code":"KT52395696005","project_name":"","survey_name":"127\u53f7\u91d1\u8c37\u9053\u8def(\u91d1\u8c37\u7b2c\u4e8c\u9ad8\u67b6\u6a4b)\u5730\u8cea\u8abf\u67fb\u696d\u52d9\u59d4\u8a17","client_name":"\u56fd\u571f\u4ea4\u901a\u7701\u95a2\u6771\u5730\u65b9\u6574\u5099\u5c40\u5343\u8449\u56fd\u9053\u4e8b\u52d9\u6240","boring_xml_url":40,"boring_view_url":1,"soilmap_view_url":null,"soiltest_xml_url":0,"soiltest_view_url":0},{"id":147283,"code":"B4KJ201801003-5532","latitude":"35.16837722","longitude":"139.8304286","source_code":"KT52395696004","project_name":"","survey_name":"127\u53f7\u91d1\u8c37\u9053\u8def(\u91d1\u8c37\u7b2c\u4e8c\u9ad8\u67b6\u6a4b)\u5730\u8cea\u8abf\u67fb\u696d\u52d9\u59d4\u8a17","client_name":"\u56fd\u571f\u4ea4\u901a\u7701\u95a2\u6771\u5730\u65b9\u6574\u5099\u5c40\u5343\u8449\u56fd\u9053\u4e8b\u52d9\u6240","boring_xml_url":40,"boring_view_url":1,"soilmap_view_url":null,"soiltest_xml_url":0,"soiltest_view_url":0},{"id":147282,"code":"B4KJ201801003-5531","latitude":"35.16837722","longitude":"139.8302897","source_code":"KT52395696003","project_name":"","survey_name":"127\u53f7\u91d1\u8c37\u9053\u8def(\u91d1\u8c37\u7b2c\u4e8c\u9ad8\u67b6\u6a4b)\u5730\u8cea\u8abf\u67fb\u696d\u52d9\u59d4\u8a17","client_name":"\u56fd\u571f\u4ea4\u901a\u7701\u95a2\u6771\u5730\u65b9\u6574\u5099\u5c40\u5343\u8449\u56fd\u9053\u4e8b\u52d9\u6240","boring_xml_url":40,"boring_view_url":1,"soilmap_view_url":null,"soiltest_xml_url":0,"soiltest_view_url":0},{"id":147281,"code":"B4KJ201801003-5530","latitude":"35.16373889","longitude":"139.8325675","source_code":"KT52395696002","project_name":"","survey_name":"127\u53f7\u91d1\u8c37\u9053\u8def\u92f8\u5c71\u30c8\u30f3\u30cd\u30eb\u5730\u8cea\u8abf\u67fb(\u305d\u306e1)\u696d\u52d9\u59d4\u8a17","client_name":"\u56fd\u571f\u4ea4\u901a\u7701\u95a2\u6771\u5730\u65b9\u6574\u5099\u5c40\u5343\u8449\u56fd\u9053\u4e8b\u52d9\u6240","boring_xml_url":40,"boring_view_url":1,"soilmap_view_url":null,"soiltest_xml_url":0,"soiltest_view_url":0},{"id":147280,"code":"B4KJ201801003-5529","latitude":"35.16296139","longitude":"139.8330397","source_code":"KT52395696001","project_name":"","survey_name":"127\u53f7\u91d1\u8c37\u9053\u8def\u92f8\u5c71\u30c8\u30f3\u30cd\u30eb\u5730\u8cea\u8abf\u67fb(\u305d\u306e1)\u696d\u52d9\u59d4\u8a17","client_name":"\u56fd\u571f\u4ea4\u901a\u7701\u95a2\u6771\u5730\u65b9\u6574\u5099\u5c40\u5343\u8449\u56fd\u9053\u4e8b\u52d9\u6240","boring_xml_url":40,"boring_view_url":1,"soilmap_view_url":null,"soiltest_xml_url":0,"soiltest_view_url":0},{"id":147279,"code":"B4KJ201801003-5528","latitude":"35.15790639","longitude":"139.8374561","source_code":"KT52395687003","project_name":"","survey_name":"127\u53f7\u91d1\u8c37\u9053\u8def\u92f8\u5c71\u30c8\u30f3\u30cd\u30eb\u5730\u8cea\u8abf\u67fb(\u305d\u306e1)\u696d\u52d9\u59d4\u8a17","client_name":"\u56fd\u571f\u4ea4\u901a\u7701\u95a2\u6771\u5730\u65b9\u6574\u5099\u5c40\u5343\u8449\u56fd\u9053\u4e8b\u52d9\u6240","boring_xml_url":40,"boring_view_url":1,"soilmap_view_url":null,"soiltest_xml_url":0,"soiltest_view_url":0},{"id":147278,"code":"B4KJ201801003-5527","latitude":"35.15432361","longitude":"139.8406225","source_code":"KT52395687002","project_name":"","survey_name":"127\u53f7\u91d1\u8c37\u9053\u8def\u92f8\u5c71\u30c8\u30f3\u30cd\u30eb\u5730\u8cea\u8abf\u67fb(\u305d\u306e1)\u696d\u52d9\u59d4\u8a17","client_name":"\u56fd\u571f\u4ea4\u901a\u7701\u95a2\u6771\u5730\u65b9\u6574\u5099\u5c40\u5343\u8449\u56fd\u9053\u4e8b\u52d9\u6240","boring_xml_url":40,"boring_view_url":1,"soilmap_view_url":null,"soiltest_xml_url":0,"soiltest_view_url":0},{"id":147277,"code":"B4KJ201801003-5526","latitude":"35.15357361","longitude":"139.8395672","source_code":"KT52395687001","project_name":"","survey_name":"127\u53f7\u91d1\u8c37\u9053\u8def(\u5143\u540d\u9ad8\u67b6\u6a4b)\u5730\u8cea\u571f\u8cea\u8abf\u67fb\u696d\u52d9\u59d4\u8a17","client_name":"\u56fd\u571f\u4ea4\u901a\u7701\u95a2\u6771\u5730\u65b9\u6574\u5099\u5c40\u5343\u8449\u56fd\u9053\u4e8b\u52d9\u6240","boring_xml_url":40,"boring_view_url":1,"soilmap_view_url":null,"soiltest_xml_url":0,"soiltest_view_url":0},{"id":147276,"code":"B4KJ201801003-5525","latitude":"35.15876722","longitude":"139.8240683","source_code":"KT52395686002","project_name":"","survey_name":"\u92f8\u5c71\u5730\u533a\u5730\u8cea\u8abf\u67fb\u696d\u52d9\u59d4\u8a17","client_name":"\u56fd\u571f\u4ea4\u901a\u7701\u95a2\u6771\u5730\u65b9\u6574\u5099\u5c40\u5343\u8449\u56fd\u9053\u4e8b\u52d9\u6240","boring_xml_url":40,"boring_view_url":1,"soilmap_view_url":null,"soiltest_xml_url":0,"soiltest_view_url":0},{"id":147275,"code":"B4KJ201801003-5524","latitude":"35.15865611","longitude":"139.824235","source_code":"KT52395686001","project_name":"","survey_name":"\u92f8\u5c71\u5730\u533a\u5730\u8cea\u8abf\u67fb\u696d\u52d9\u59d4\u8a17","client_name":"\u56fd\u571f\u4ea4\u901a\u7701\u95a2\u6771\u5730\u65b9\u6574\u5099\u5c40\u5343\u8449\u56fd\u9053\u4e8b\u52d9\u6240","boring_xml_url":40,"boring_view_url":1,"soilmap_view_url":null,"soiltest_xml_url":0,"soiltest_view_url":0},{"id":147274,"code":"B4KJ201801003-5523","latitude":"35.15551722","longitude":"139.8190133","source_code":"KT52395685002","project_name":"","survey_name":"127\u53f7\u6e2c\u91cf\u5730\u8cea\u8abf\u67fb\u304a\u3088\u3073\u69cb\u9020\u7269\u8a2d\u8a08\u696d\u52d9\u59d4\u8a17","client_name":"\u56fd\u571f\u4ea4\u901a\u7701\u95a2\u6771\u5730\u65b9\u6574\u5099\u5c40\u5343\u8449\u56fd\u9053\u4e8b\u52d9\u6240","boring_xml_url":40,"boring_view_url":1,"soilmap_view_url":null,"soiltest_xml_url":0,"soiltest_view_url":0},{"id":147273,"code":"B4KJ201801003-5522","latitude":"35.15418417","longitude":"139.8197356","source_code":"KT52395685001","project_name":"","survey_name":"127\u53f7\u6e2c\u91cf\u5730\u8cea\u8abf\u67fb\u304a\u3088\u3073\u69cb\u9020\u7269\u8a2d\u8a08\u696d\u52d9\u59d4\u8a17","client_name":"\u56fd\u571f\u4ea4\u901a\u7701\u95a2\u6771\u5730\u65b9\u6574\u5099\u5c40\u5343\u8449\u56fd\u9053\u4e8b\u52d9\u6240","boring_xml_url":40,"boring_view_url":1,"soilmap_view_url":null,"soiltest_xml_url":0,"soiltest_view_url":0},{"id":147272,"code":"B4KJ201801003-5521","latitude":"35.14996306","longitude":"139.8451225","source_code":"KT52395677028","project_name":"","survey_name":"127\u53f7\u91d1\u8c37\u9053\u8def\u5143\u540d\u5730\u533a\u5730\u8cea\u8abf\u67fb(\u305d\u306e2)\u696d\u52d9\u59d4\u8a17","client_name":"\u56fd\u571f\u4ea4\u901a\u7701 \u95a2\u6771\u5730\u65b9\u6574\u5099\u5c40 \u5343\u8449\u56fd\u9053\u4e8b\u52d9\u6240","boring_xml_url":40,"boring_view_url":1,"soilmap_view_url":null,"soiltest_xml_url":0,"soiltest_view_url":0},{"id":147271,"code":"B4KJ201801003-5520","latitude":"35.14885222","longitude":"139.8451225","source_code":"KT52395677027","project_name":"","survey_name":"127\u53f7\u91d1\u8c37\u9053\u8def\u5143\u540d\u5730\u533a\u5730\u8cea\u8abf\u67fb(\u305d\u306e2)\u696d\u52d9\u59d4\u8a17","client_name":"\u56fd\u571f\u4ea4\u901a\u7701 \u95a2\u6771\u5730\u65b9\u6574\u5099\u5c40 \u5343\u8449\u56fd\u9053\u4e8b\u52d9\u6240","boring_xml_url":40,"boring_view_url":1,"soilmap_view_url":null,"soiltest_xml_url":0,"soiltest_view_url":0},{"id":147270,"code":"B4KJ201801003-5519","latitude":"35.14968528","longitude":"139.8456781","source_code":"KT52395677026","project_name":"","survey_name":"127\u53f7\u91d1\u8c37\u9053\u8def\u5143\u540d\u5730\u533a\u5730\u8cea\u8abf\u67fb(\u305d\u306e2)\u696d\u52d9\u59d4\u8a17","client_name":"\u56fd\u571f\u4ea4\u901a\u7701 \u95a2\u6771\u5730\u65b9\u6574\u5099\u5c40 \u5343\u8449\u56fd\u9053\u4e8b\u52d9\u6240","boring_xml_url":40,"boring_view_url":1,"soilmap_view_url":null,"soiltest_xml_url":0,"soiltest_view_url":0},{"id":147269,"code":"B4KJ201801003-5518","latitude":"35.14996306","longitude":"139.8451225","source_code":"KT52395677025","project_name":"","survey_name":"127\u53f7\u91d1\u8c37\u9053\u8def\u5143\u540d\u5730\u533a\u5730\u8cea\u8abf\u67fb(\u305d\u306e2)\u696d\u52d9\u59d4\u8a17","client_name":"\u56fd\u571f\u4ea4\u901a\u7701 \u95a2\u6771\u5730\u65b9\u6574\u5099\u5c40 \u5343\u8449\u56fd\u9053\u4e8b\u52d9\u6240","boring_xml_url":40,"boring_view_url":1,"soilmap_view_url":null,"soiltest_xml_url":0,"soiltest_view_url":0},{"id":147268,"code":"B4KJ201801003-5517","latitude":"35.14996306","longitude":"139.8451225","source_code":"KT52395677024","project_name":"","survey_name":"127\u53f7\u91d1\u8c37\u9053\u8def\u5143\u540d\u5730\u533a\u5730\u8cea\u8abf\u67fb(\u305d\u306e2)\u696d\u52d9\u59d4\u8a17","client_name":"\u56fd\u571f\u4ea4\u901a\u7701\u95a2\u6771\u5730\u65b9\u6574\u5099\u5c40\u5343\u8449\u56fd\u9053\u4e8b\u52d9\u6240","boring_xml_url":40,"boring_view_url":1,"soilmap_view_url":null,"soiltest_xml_url":0,"soiltest_view_url":0},{"id":147267,"code":"B4KJ201801003-5516","latitude":"35.14885222","longitude":"139.8451225","source_code":"KT52395677023","project_name":"","survey_name":"127\u53f7\u91d1\u8c37\u9053\u8def\u5143\u540d\u5730\u533a\u5730\u8cea\u8abf\u67fb(\u305d\u306e2)\u696d\u52d9\u59d4\u8a17","client_name":"\u56fd\u571f\u4ea4\u901a\u7701\u95a2\u6771\u5730\u65b9\u6574\u5099\u5c40\u5343\u8449\u56fd\u9053\u4e8b\u52d9\u6240","boring_xml_url":40,"boring_view_url":1,"soilmap_view_url":null,"soiltest_xml_url":0,"soiltest_view_url":0},{"id":147266,"code":"B4KJ201801003-5515","latitude":"35.14968528","longitude":"139.8456781","source_code":"KT52395677022","project_name":"","survey_name":"127\u53f7\u91d1\u8c37\u9053\u8def\u5143\u540d\u5730\u533a\u5730\u8cea\u8abf\u67fb(\u305d\u306e2)\u696d\u52d9\u59d4\u8a17","client_name":"\u56fd\u571f\u4ea4\u901a\u7701\u95a2\u6771\u5730\u65b9\u6574\u5099\u5c40\u5343\u8449\u56fd\u9053\u4e8b\u52d9\u6240","boring_xml_url":40,"boring_view_url":1,"soilmap_view_url":null,"soiltest_xml_url":0,"soiltest_view_url":0}]}}