{"header":{"xyz":{"source":[],"mosaic":false},"page":5784,"raw":{"soiltest_result":"0","bbox":"57.598333,109.544722,1.933333,163.806111","page":"5784"},"conditions":{"soiltest_result":0,"north":57.598333,"west":109.544722,"south":1.933333,"east":163.806111},"success":true,"message":""},"data":{"meta":{"total":212844,"page":5784,"pages":7095,"count":30},"values":[{"id":147055,"code":"B4KJ201801003-5304","latitude":"35.0128125","longitude":"139.8694869","source_code":"KT52394619002","project_name":"","survey_name":"127\u53f7\u9928\u5c71\u30d0\u30a4\u30d1\u30b9\u5730\u8cea\u8abf\u67fb","client_name":"\u56fd\u571f\u4ea4\u901a\u7701\u95a2\u6771\u5730\u65b9\u6574\u5099\u5c40\u5343\u8449\u56fd\u9053\u4e8b\u52d9\u6240","boring_xml_url":40,"boring_view_url":1,"soilmap_view_url":null,"soiltest_xml_url":0,"soiltest_view_url":0},{"id":147054,"code":"B4KJ201801003-5303","latitude":"35.01250694","longitude":"139.8695425","source_code":"KT52394619001","project_name":"","survey_name":"127\u53f7\u9928\u5c71\u30d0\u30a4\u30d1\u30b9\u5730\u8cea\u8abf\u67fb","client_name":"\u56fd\u571f\u4ea4\u901a\u7701\u95a2\u6771\u5730\u65b9\u6574\u5099\u5c40\u5343\u8449\u56fd\u9053\u4e8b\u52d9\u6240","boring_xml_url":40,"boring_view_url":1,"soilmap_view_url":null,"soiltest_xml_url":0,"soiltest_view_url":0},{"id":147053,"code":"B4KJ201801003-5302","latitude":"35.00964611","longitude":"139.8694314","source_code":"KT52394609003","project_name":"","survey_name":"127\u53f7\u9928\u5c71\u30d0\u30a4\u30d1\u30b9\u5730\u8cea\u8abf\u67fb","client_name":"\u56fd\u571f\u4ea4\u901a\u7701\u95a2\u6771\u5730\u65b9\u6574\u5099\u5c40\u5343\u8449\u56fd\u9053\u4e8b\u52d9\u6240","boring_xml_url":40,"boring_view_url":1,"soilmap_view_url":null,"soiltest_xml_url":0,"soiltest_view_url":0},{"id":147052,"code":"B4KJ201801003-5301","latitude":"35.00711861","longitude":"139.8692928","source_code":"KT52394609002","project_name":"","survey_name":"127\u53f7\u9928\u5c71\u30d0\u30a4\u30d1\u30b9\u5730\u8cea\u8abf\u67fb","client_name":"\u56fd\u571f\u4ea4\u901a\u7701\u95a2\u6771\u5730\u65b9\u6574\u5099\u5c40\u5343\u8449\u56fd\u9053\u4e8b\u52d9\u6240","boring_xml_url":40,"boring_view_url":1,"soilmap_view_url":null,"soiltest_xml_url":0,"soiltest_view_url":0},{"id":147051,"code":"B4KJ201801003-5300","latitude":"35.00464667","longitude":"139.8692372","source_code":"KT52394609001","project_name":"","survey_name":"127\u53f7\u9928\u5c71\u30d0\u30a4\u30d1\u30b9\u5730\u8cea\u8abf\u67fb","client_name":"\u56fd\u571f\u4ea4\u901a\u7701\u95a2\u6771\u5730\u65b9\u6574\u5099\u5c40\u5343\u8449\u56fd\u9053\u4e8b\u52d9\u6240","boring_xml_url":40,"boring_view_url":1,"soilmap_view_url":null,"soiltest_xml_url":0,"soiltest_view_url":0},{"id":147050,"code":"B4KJ201801003-5299","latitude":"34.99634222","longitude":"139.8743206","source_code":"KT52393790004","project_name":"","survey_name":"127\u53f7\u9928\u5c71\u30d0\u30a4\u30d1\u30b9\u5730\u8cea\u8abf\u67fb","client_name":"\u56fd\u571f\u4ea4\u901a\u7701\u95a2\u6771\u5730\u65b9\u6574\u5099\u5c40\u5343\u8449\u56fd\u9053\u4e8b\u52d9\u6240","boring_xml_url":40,"boring_view_url":1,"soilmap_view_url":null,"soiltest_xml_url":0,"soiltest_view_url":0},{"id":147049,"code":"B4KJ201801003-5298","latitude":"34.99961944","longitude":"139.8721539","source_code":"KT52393790003","project_name":"","survey_name":"127\u53f7\u9928\u5c71\u30d0\u30a4\u30d1\u30b9\u5730\u8cea\u8abf\u67fb","client_name":"\u56fd\u571f\u4ea4\u901a\u7701\u95a2\u6771\u5730\u65b9\u6574\u5099\u5c40\u5343\u8449\u56fd\u9053\u4e8b\u52d9\u6240","boring_xml_url":40,"boring_view_url":1,"soilmap_view_url":null,"soiltest_xml_url":0,"soiltest_view_url":0},{"id":147048,"code":"B4KJ201801003-5297","latitude":"34.99709194","longitude":"139.8741258","source_code":"KT52393790002","project_name":"","survey_name":"127\u53f7\u9928\u5c71\u30d0\u30a4\u30d1\u30b9\u5730\u8cea\u8abf\u67fb","client_name":"\u56fd\u571f\u4ea4\u901a\u7701\u95a2\u6771\u5730\u65b9\u6574\u5099\u5c40\u5343\u8449\u56fd\u9053\u4e8b\u52d9\u6240","boring_xml_url":40,"boring_view_url":1,"soilmap_view_url":null,"soiltest_xml_url":0,"soiltest_view_url":0},{"id":147047,"code":"B4KJ201801003-5296","latitude":"34.99539778","longitude":"139.8744039","source_code":"KT52393790001","project_name":"","survey_name":"127\u53f7\u9928\u5c71\u30d0\u30a4\u30d1\u30b9\u5730\u8cea\u8abf\u67fb","client_name":"\u56fd\u571f\u4ea4\u901a\u7701\u95a2\u6771\u5730\u65b9\u6574\u5099\u5c40\u5343\u8449\u56fd\u9053\u4e8b\u52d9\u6240","boring_xml_url":40,"boring_view_url":1,"soilmap_view_url":null,"soiltest_xml_url":0,"soiltest_view_url":0},{"id":147046,"code":"B4KJ201801003-5295","latitude":"34.99231472","longitude":"139.8739872","source_code":"KT52393780001","project_name":"","survey_name":"127\u53f7\u9928\u5c71\u30d0\u30a4\u30d1\u30b9\u5730\u8cea\u8abf\u67fb","client_name":"\u56fd\u571f\u4ea4\u901a\u7701\u95a2\u6771\u5730\u65b9\u6574\u5099\u5c40\u5343\u8449\u56fd\u9053\u4e8b\u52d9\u6240","boring_xml_url":40,"boring_view_url":1,"soilmap_view_url":null,"soiltest_xml_url":0,"soiltest_view_url":0},{"id":147045,"code":"B4KJ201801003-5294","latitude":"35.00261917","longitude":"139.8696539","source_code":"KT52393699001","project_name":"","survey_name":"127\u53f7\u9928\u5c71\u30d0\u30a4\u30d1\u30b9\u5730\u8cea\u8abf\u67fb","client_name":"\u56fd\u571f\u4ea4\u901a\u7701\u95a2\u6771\u5730\u65b9\u6574\u5099\u5c40\u5343\u8449\u56fd\u9053\u4e8b\u52d9\u6240","boring_xml_url":40,"boring_view_url":1,"soilmap_view_url":null,"soiltest_xml_url":0,"soiltest_view_url":0},{"id":147044,"code":"B4KJ201801003-5293","latitude":"35.31082528","longitude":"138.4452353","source_code":"KT52387365002","project_name":"","survey_name":"\u5357\u90e8\u30d0\u30a4\u30d1\u30b9\u5730\u8cea\u8abf\u67fb\u305d\u306e2","client_name":"\u56fd\u571f\u4ea4\u901a\u7701\u95a2\u6771\u5730\u65b9\u6574\u5099\u5c40\u7532\u5e9c\u6cb3\u5ddd\u56fd\u9053\u4e8b\u52d9\u6240","boring_xml_url":40,"boring_view_url":1,"soilmap_view_url":null,"soiltest_xml_url":0,"soiltest_view_url":0},{"id":147043,"code":"B4KJ201801003-5292","latitude":"35.31035306","longitude":"138.4460686","source_code":"KT52387365001","project_name":"","survey_name":"\u5357\u90e8\u30d0\u30a4\u30d1\u30b9\u5730\u8cea\u8abf\u67fb\u305d\u306e2","client_name":"\u56fd\u571f\u4ea4\u901a\u7701\u95a2\u6771\u5730\u65b9\u6574\u5099\u5c40\u7532\u5e9c\u6cb3\u5ddd\u56fd\u9053\u4e8b\u52d9\u6240","boring_xml_url":40,"boring_view_url":1,"soilmap_view_url":null,"soiltest_xml_url":0,"soiltest_view_url":0},{"id":147042,"code":"B4KJ201801003-5291","latitude":"35.29524417","longitude":"138.4627344","source_code":"KT52387357001","project_name":"","survey_name":"\u5357\u90e8\u30d0\u30a4\u30d1\u30b9\u5730\u8cea\u8abf\u67fb","client_name":"\u56fd\u571f\u4ea4\u901a\u7701\u95a2\u6771\u5730\u65b9\u6574\u5099\u5c40\u7532\u5e9c\u6cb3\u5ddd\u56fd\u9053\u4e8b\u52d9\u6240","boring_xml_url":40,"boring_view_url":1,"soilmap_view_url":null,"soiltest_xml_url":0,"soiltest_view_url":0},{"id":147041,"code":"B4KJ201801003-5290","latitude":"35.30007639","longitude":"138.4474578","source_code":"KT52387356001","project_name":"","survey_name":"\u5357\u90e8\u30d0\u30a4\u30d1\u30b9\u5730\u8cea\u8abf\u67fb\u305d\u306e2","client_name":"\u56fd\u571f\u4ea4\u901a\u7701\u95a2\u6771\u5730\u65b9\u6574\u5099\u5c40\u7532\u5e9c\u6cb3\u5ddd\u56fd\u9053\u4e8b\u52d9\u6240","boring_xml_url":40,"boring_view_url":1,"soilmap_view_url":null,"soiltest_xml_url":0,"soiltest_view_url":0},{"id":147040,"code":"B4KJ201801003-5289","latitude":"35.30174306","longitude":"138.44668","source_code":"KT52387355006","project_name":"","survey_name":"\u5357\u90e8\u30d0\u30a4\u30d1\u30b9\u5730\u8cea\u8abf\u67fb\u305d\u306e2","client_name":"\u56fd\u571f\u4ea4\u901a\u7701\u95a2\u6771\u5730\u65b9\u6574\u5099\u5c40\u7532\u5e9c\u6cb3\u5ddd\u56fd\u9053\u4e8b\u52d9\u6240","boring_xml_url":40,"boring_view_url":1,"soilmap_view_url":null,"soiltest_xml_url":0,"soiltest_view_url":0},{"id":147039,"code":"B4KJ201801003-5288","latitude":"35.30007639","longitude":"138.4466244","source_code":"KT52387355005","project_name":"","survey_name":"\u5357\u90e8\u30d0\u30a4\u30d1\u30b9\u5730\u8cea\u8abf\u67fb\u305d\u306e2","client_name":"\u56fd\u571f\u4ea4\u901a\u7701\u95a2\u6771\u5730\u65b9\u6574\u5099\u5c40\u7532\u5e9c\u6cb3\u5ddd\u56fd\u9053\u4e8b\u52d9\u6240","boring_xml_url":40,"boring_view_url":1,"soilmap_view_url":null,"soiltest_xml_url":0,"soiltest_view_url":0},{"id":147038,"code":"B4KJ201801003-5287","latitude":"35.29952111","longitude":"138.44668","source_code":"KT52387355004","project_name":"","survey_name":"\u5357\u90e8\u30d0\u30a4\u30d1\u30b9\u5730\u8cea\u8abf\u67fb\u305d\u306e2","client_name":"\u56fd\u571f\u4ea4\u901a\u7701\u95a2\u6771\u5730\u65b9\u6574\u5099\u5c40\u7532\u5e9c\u6cb3\u5ddd\u56fd\u9053\u4e8b\u52d9\u6240","boring_xml_url":40,"boring_view_url":1,"soilmap_view_url":null,"soiltest_xml_url":0,"soiltest_view_url":0},{"id":147037,"code":"B4KJ201801003-5286","latitude":"35.29841","longitude":"138.44668","source_code":"KT52387355003","project_name":"","survey_name":"\u5357\u90e8\u30d0\u30a4\u30d1\u30b9\u5730\u8cea\u8abf\u67fb\u305d\u306e2","client_name":"\u56fd\u571f\u4ea4\u901a\u7701\u95a2\u6771\u5730\u65b9\u6574\u5099\u5c40\u7532\u5e9c\u6cb3\u5ddd\u56fd\u9053\u4e8b\u52d9\u6240","boring_xml_url":40,"boring_view_url":1,"soilmap_view_url":null,"soiltest_xml_url":0,"soiltest_view_url":0},{"id":147036,"code":"B4KJ201801003-5285","latitude":"35.29907639","longitude":"138.4406528","source_code":"KT52387355002","project_name":"","survey_name":"\u5357\u90e8\u30d0\u30a4\u30d1\u30b9\u5730\u8cea\u8abf\u67fb\u305d\u306e2","client_name":"\u56fd\u571f\u4ea4\u901a\u7701\u95a2\u6771\u5730\u65b9\u6574\u5099\u5c40\u7532\u5e9c\u6cb3\u5ddd\u56fd\u9053\u4e8b\u52d9\u6240","boring_xml_url":40,"boring_view_url":1,"soilmap_view_url":null,"soiltest_xml_url":0,"soiltest_view_url":0},{"id":147035,"code":"B4KJ201801003-5284","latitude":"35.29702111","longitude":"138.4387364","source_code":"KT52387355001","project_name":"","survey_name":"\u5357\u90e8\u30d0\u30a4\u30d1\u30b9\u5730\u8cea\u8abf\u67fb\u305d\u306e2","client_name":"\u56fd\u571f\u4ea4\u901a\u7701\u95a2\u6771\u5730\u65b9\u6574\u5099\u5c40\u7532\u5e9c\u6cb3\u5ddd\u56fd\u9053\u4e8b\u52d9\u6240","boring_xml_url":40,"boring_view_url":1,"soilmap_view_url":null,"soiltest_xml_url":0,"soiltest_view_url":0},{"id":147034,"code":"B4KJ201801003-5283","latitude":"35.29590917","longitude":"138.4060725","source_code":"KT52387352001","project_name":"","survey_name":"\u5357\u90e8\u30d0\u30a4\u30d1\u30b9\u5730\u8cea\u8abf\u67fb\u305d\u306e2","client_name":"\u56fd\u571f\u4ea4\u901a\u7701\u95a2\u6771\u5730\u65b9\u6574\u5099\u5c40\u7532\u5e9c\u6cb3\u5ddd\u56fd\u9053\u4e8b\u52d9\u6240","boring_xml_url":40,"boring_view_url":1,"soilmap_view_url":null,"soiltest_xml_url":0,"soiltest_view_url":0},{"id":147033,"code":"B4KJ201801003-5282","latitude":"35.29454972","longitude":"138.4627344","source_code":"KT52387347001","project_name":"","survey_name":"\u5357\u90e8\u30d0\u30a4\u30d1\u30b9\u5730\u8cea\u8abf\u67fb","client_name":"\u56fd\u571f\u4ea4\u901a\u7701\u95a2\u6771\u5730\u65b9\u6574\u5099\u5c40\u7532\u5e9c\u6cb3\u5ddd\u56fd\u9053\u4e8b\u52d9\u6240","boring_xml_url":40,"boring_view_url":1,"soilmap_view_url":null,"soiltest_xml_url":0,"soiltest_view_url":0},{"id":147032,"code":"B4KJ201801003-5281","latitude":"35.28777222","longitude":"138.4415975","source_code":"KT52387345001","project_name":"","survey_name":"\u5357\u90e8\u30d0\u30a4\u30d1\u30b9\u5730\u8cea\u8abf\u67fb\u305d\u306e2","client_name":"\u56fd\u571f\u4ea4\u901a\u7701\u95a2\u6771\u5730\u65b9\u6574\u5099\u5c40\u7532\u5e9c\u6cb3\u5ddd\u56fd\u9053\u4e8b\u52d9\u6240","boring_xml_url":40,"boring_view_url":1,"soilmap_view_url":null,"soiltest_xml_url":0,"soiltest_view_url":0},{"id":147031,"code":"B4KJ201801003-5280","latitude":"35.27935694","longitude":"138.4641236","source_code":"KT52387337002","project_name":"","survey_name":"\u5185\u8239\u5730\u8cea\u8abf\u67fb","client_name":"\u56fd\u571f\u4ea4\u901a\u7701\u95a2\u6771\u5730\u65b9\u6574\u5099\u5c40\u7532\u5e9c\u6cb3\u5ddd\u56fd\u9053\u4e8b\u52d9\u6240","boring_xml_url":40,"boring_view_url":1,"soilmap_view_url":null,"soiltest_xml_url":0,"soiltest_view_url":0},{"id":147030,"code":"B4KJ201801003-5279","latitude":"35.27935694","longitude":"138.4641236","source_code":"KT52387337001","project_name":"","survey_name":"\u5185\u8239\u5730\u8cea\u8abf\u67fb","client_name":"\u56fd\u571f\u4ea4\u901a\u7701\u95a2\u6771\u5730\u65b9\u6574\u5099\u5c40\u7532\u5e9c\u6cb3\u5ddd\u56fd\u9053\u4e8b\u52d9\u6240","boring_xml_url":40,"boring_view_url":1,"soilmap_view_url":null,"soiltest_xml_url":0,"soiltest_view_url":0},{"id":147029,"code":"B4KJ201801003-5278","latitude":"35.27966222","longitude":"138.4502361","source_code":"KT52387336008","project_name":"","survey_name":"\u5357\u90e8\u30d0\u30a4\u30d1\u30b9\u5730\u8cea\u8abf\u67fb\u305d\u306e2","client_name":"\u56fd\u571f\u4ea4\u901a\u7701\u95a2\u6771\u5730\u65b9\u6574\u5099\u5c40\u7532\u5e9c\u6cb3\u5ddd\u56fd\u9053\u4e8b\u52d9\u6240","boring_xml_url":40,"boring_view_url":1,"soilmap_view_url":null,"soiltest_xml_url":0,"soiltest_view_url":0},{"id":147028,"code":"B4KJ201801003-5277","latitude":"35.27905111","longitude":"138.4502361","source_code":"KT52387336007","project_name":"","survey_name":"\u5357\u90e8\u30d0\u30a4\u30d1\u30b9\u5730\u8cea\u8abf\u67fb\u305d\u306e2","client_name":"\u56fd\u571f\u4ea4\u901a\u7701\u95a2\u6771\u5730\u65b9\u6574\u5099\u5c40\u7532\u5e9c\u6cb3\u5ddd\u56fd\u9053\u4e8b\u52d9\u6240","boring_xml_url":40,"boring_view_url":1,"soilmap_view_url":null,"soiltest_xml_url":0,"soiltest_view_url":0},{"id":147027,"code":"B4KJ201801003-5276","latitude":"35.27871778","longitude":"138.4502361","source_code":"KT52387336006","project_name":"","survey_name":"\u5357\u90e8\u30d0\u30a4\u30d1\u30b9\u5730\u8cea\u8abf\u67fb\u305d\u306e2","client_name":"\u56fd\u571f\u4ea4\u901a\u7701\u95a2\u6771\u5730\u65b9\u6574\u5099\u5c40\u7532\u5e9c\u6cb3\u5ddd\u56fd\u9053\u4e8b\u52d9\u6240","boring_xml_url":40,"boring_view_url":1,"soilmap_view_url":null,"soiltest_xml_url":0,"soiltest_view_url":0},{"id":147026,"code":"B4KJ201801003-5275","latitude":"35.2855225","longitude":"138.4477358","source_code":"KT52387336005","project_name":"","survey_name":"\u5357\u90e8\u30d0\u30a4\u30d1\u30b9\u5730\u8cea\u8abf\u67fb","client_name":"\u56fd\u571f\u4ea4\u901a\u7701\u95a2\u6771\u5730\u65b9\u6574\u5099\u5c40\u7532\u5e9c\u6cb3\u5ddd\u56fd\u9053\u4e8b\u52d9\u6240","boring_xml_url":40,"boring_view_url":1,"soilmap_view_url":null,"soiltest_xml_url":0,"soiltest_view_url":0}]}}