{"header":{"xyz":{"source":[],"mosaic":false},"page":5794,"raw":{"soiltest_result":"0","bbox":"57.598333,109.544722,1.933333,163.806111","page":"5794"},"conditions":{"soiltest_result":0,"north":57.598333,"west":109.544722,"south":1.933333,"east":163.806111},"success":true,"message":""},"data":{"meta":{"total":212844,"page":5794,"pages":7095,"count":30},"values":[{"id":146755,"code":"B4KJ201801003-5004","latitude":"36.07111111","longitude":"139.9380278","source_code":"KT200683346020420002","project_name":"","survey_name":"\u570f\u592e\u9053(\u5e38\u7dcf\u5e02\u83c5\u539f\u5730\u533a)\u5730\u8cea\u8abf\u67fb18K42","client_name":"\u56fd\u571f\u4ea4\u901a\u7701\u95a2\u6771\u5730\u65b9\u6574\u5099\u5c40\u5e38\u7dcf\u56fd\u9053\u4e8b\u52d9\u6240","boring_xml_url":47,"boring_view_url":1,"soilmap_view_url":null,"soiltest_xml_url":50,"soiltest_view_url":50},{"id":146754,"code":"B4KJ201801003-5003","latitude":"36.07108333","longitude":"139.9376389","source_code":"KT200683346020420001","project_name":"","survey_name":"\u570f\u592e\u9053(\u5e38\u7dcf\u5e02\u83c5\u539f\u5730\u533a)\u5730\u8cea\u8abf\u67fb18K42","client_name":"\u56fd\u571f\u4ea4\u901a\u7701\u95a2\u6771\u5730\u65b9\u6574\u5099\u5c40\u5e38\u7dcf\u56fd\u9053\u4e8b\u52d9\u6240","boring_xml_url":47,"boring_view_url":1,"soilmap_view_url":null,"soiltest_xml_url":50,"soiltest_view_url":50},{"id":146753,"code":"B4KJ201801003-5002","latitude":"36.06775","longitude":"139.9385","source_code":"KT200683346020410016","project_name":"","survey_name":"\u5e73\u621018\u5e74\u5ea6 \u570f\u592e\u9053(\u5742\u6771\u5e02\u52d8\u52a9\u65b0\u7530\u5730\u533a)\u5730\u8cea\u8abf\u67fb18K41","client_name":"\u56fd\u571f\u4ea4\u901a\u7701\u95a2\u6771\u5730\u65b9\u6574\u5099\u5c40\u5e38\u7dcf\u56fd\u9053\u4e8b\u52d9\u6240","boring_xml_url":47,"boring_view_url":1,"soilmap_view_url":null,"soiltest_xml_url":0,"soiltest_view_url":0},{"id":146752,"code":"B4KJ201801003-5001","latitude":"36.06788889","longitude":"139.9404722","source_code":"KT200683346020410015","project_name":"","survey_name":"\u5e73\u621018\u5e74\u5ea6 \u570f\u592e\u9053(\u5742\u6771\u5e02\u52d8\u52a9\u65b0\u7530\u5730\u533a)\u5730\u8cea\u8abf\u67fb18K41","client_name":"\u56fd\u571f\u4ea4\u901a\u7701\u95a2\u6771\u5730\u65b9\u6574\u5099\u5c40\u5e38\u7dcf\u56fd\u9053\u4e8b\u52d9\u6240","boring_xml_url":47,"boring_view_url":1,"soilmap_view_url":null,"soiltest_xml_url":0,"soiltest_view_url":0},{"id":146751,"code":"B4KJ201801003-5000","latitude":"36.06786111","longitude":"139.9400833","source_code":"KT200683346020410014","project_name":"","survey_name":"\u5e73\u621018\u5e74\u5ea6 \u570f\u592e\u9053(\u5742\u6771\u5e02\u52d8\u52a9\u65b0\u7530\u5730\u533a)\u5730\u8cea\u8abf\u67fb18K41","client_name":"\u56fd\u571f\u4ea4\u901a\u7701\u95a2\u6771\u5730\u65b9\u6574\u5099\u5c40\u5e38\u7dcf\u56fd\u9053\u4e8b\u52d9\u6240","boring_xml_url":47,"boring_view_url":1,"soilmap_view_url":null,"soiltest_xml_url":50,"soiltest_view_url":50},{"id":146750,"code":"B4KJ201801003-4999","latitude":"36.06783333","longitude":"139.9396944","source_code":"KT200683346020410013","project_name":"","survey_name":"\u5e73\u621018\u5e74\u5ea6 \u570f\u592e\u9053(\u5742\u6771\u5e02\u52d8\u52a9\u65b0\u7530\u5730\u533a)\u5730\u8cea\u8abf\u67fb18K41","client_name":"\u56fd\u571f\u4ea4\u901a\u7701\u95a2\u6771\u5730\u65b9\u6574\u5099\u5c40\u5e38\u7dcf\u56fd\u9053\u4e8b\u52d9\u6240","boring_xml_url":47,"boring_view_url":1,"soilmap_view_url":null,"soiltest_xml_url":0,"soiltest_view_url":0},{"id":146749,"code":"B4KJ201801003-4998","latitude":"36.06780556","longitude":"139.9392778","source_code":"KT200683346020410012","project_name":"","survey_name":"\u5e73\u621018\u5e74\u5ea6 \u570f\u592e\u9053(\u5742\u6771\u5e02\u52d8\u52a9\u65b0\u7530\u5730\u533a)\u5730\u8cea\u8abf\u67fb18K41","client_name":"\u56fd\u571f\u4ea4\u901a\u7701\u95a2\u6771\u5730\u65b9\u6574\u5099\u5c40\u5e38\u7dcf\u56fd\u9053\u4e8b\u52d9\u6240","boring_xml_url":47,"boring_view_url":1,"soilmap_view_url":null,"soiltest_xml_url":50,"soiltest_view_url":50},{"id":146748,"code":"B4KJ201801003-4997","latitude":"36.06777778","longitude":"139.9388889","source_code":"KT200683346020410011","project_name":"","survey_name":"\u5e73\u621018\u5e74\u5ea6 \u570f\u592e\u9053(\u5742\u6771\u5e02\u52d8\u52a9\u65b0\u7530\u5730\u533a)\u5730\u8cea\u8abf\u67fb18K41","client_name":"\u56fd\u571f\u4ea4\u901a\u7701\u95a2\u6771\u5730\u65b9\u6574\u5099\u5c40\u5e38\u7dcf\u56fd\u9053\u4e8b\u52d9\u6240","boring_xml_url":47,"boring_view_url":1,"soilmap_view_url":null,"soiltest_xml_url":0,"soiltest_view_url":0},{"id":146747,"code":"B4KJ201801003-4996","latitude":"36.06772222","longitude":"139.9380833","source_code":"KT200683346020410010","project_name":"","survey_name":"\u5e73\u621018\u5e74\u5ea6 \u570f\u592e\u9053(\u5742\u6771\u5e02\u52d8\u52a9\u65b0\u7530\u5730\u533a)\u5730\u8cea\u8abf\u67fb18K41","client_name":"\u56fd\u571f\u4ea4\u901a\u7701\u95a2\u6771\u5730\u65b9\u6574\u5099\u5c40\u5e38\u7dcf\u56fd\u9053\u4e8b\u52d9\u6240","boring_xml_url":47,"boring_view_url":1,"soilmap_view_url":null,"soiltest_xml_url":50,"soiltest_view_url":50},{"id":146746,"code":"B4KJ201801003-4995","latitude":"36.06766667","longitude":"139.9376944","source_code":"KT200683346020410009","project_name":"","survey_name":"\u5e73\u621018\u5e74\u5ea6 \u570f\u592e\u9053(\u5742\u6771\u5e02\u52d8\u52a9\u65b0\u7530\u5730\u533a)\u5730\u8cea\u8abf\u67fb18K41","client_name":"\u56fd\u571f\u4ea4\u901a\u7701\u95a2\u6771\u5730\u65b9\u6574\u5099\u5c40\u5e38\u7dcf\u56fd\u9053\u4e8b\u52d9\u6240","boring_xml_url":47,"boring_view_url":1,"soilmap_view_url":null,"soiltest_xml_url":0,"soiltest_view_url":0},{"id":146745,"code":"B4KJ201801003-4994","latitude":"36.06766667","longitude":"139.9373056","source_code":"KT200683346020410008","project_name":"","survey_name":"\u5e73\u621018\u5e74\u5ea6 \u570f\u592e\u9053(\u5742\u6771\u5e02\u52d8\u52a9\u65b0\u7530\u5730\u533a)\u5730\u8cea\u8abf\u67fb18K41","client_name":"\u56fd\u571f\u4ea4\u901a\u7701\u95a2\u6771\u5730\u65b9\u6574\u5099\u5c40\u5e38\u7dcf\u56fd\u9053\u4e8b\u52d9\u6240","boring_xml_url":47,"boring_view_url":1,"soilmap_view_url":null,"soiltest_xml_url":50,"soiltest_view_url":50},{"id":146744,"code":"B4KJ201801003-4993","latitude":"36.06775","longitude":"139.9368889","source_code":"KT200683346020410007","project_name":"","survey_name":"\u5e73\u621018\u5e74\u5ea6 \u570f\u592e\u9053(\u5742\u6771\u5e02\u52d8\u52a9\u65b0\u7530\u5730\u533a)\u5730\u8cea\u8abf\u67fb18K41","client_name":"\u56fd\u571f\u4ea4\u901a\u7701\u95a2\u6771\u5730\u65b9\u6574\u5099\u5c40\u5e38\u7dcf\u56fd\u9053\u4e8b\u52d9\u6240","boring_xml_url":47,"boring_view_url":1,"soilmap_view_url":null,"soiltest_xml_url":0,"soiltest_view_url":0},{"id":146743,"code":"B4KJ201801003-4992","latitude":"36.06772222","longitude":"139.9365","source_code":"KT200683346020410006","project_name":"","survey_name":"\u5e73\u621018\u5e74\u5ea6 \u570f\u592e\u9053(\u5742\u6771\u5e02\u52d8\u52a9\u65b0\u7530\u5730\u533a)\u5730\u8cea\u8abf\u67fb18K41","client_name":"\u56fd\u571f\u4ea4\u901a\u7701\u95a2\u6771\u5730\u65b9\u6574\u5099\u5c40\u5e38\u7dcf\u56fd\u9053\u4e8b\u52d9\u6240","boring_xml_url":47,"boring_view_url":1,"soilmap_view_url":null,"soiltest_xml_url":50,"soiltest_view_url":50},{"id":146742,"code":"B4KJ201801003-4991","latitude":"36.06769444","longitude":"139.9360833","source_code":"KT200683346020410005","project_name":"","survey_name":"\u5e73\u621018\u5e74\u5ea6 \u570f\u592e\u9053(\u5742\u6771\u5e02\u52d8\u52a9\u65b0\u7530\u5730\u533a)\u5730\u8cea\u8abf\u67fb18K41","client_name":"\u56fd\u571f\u4ea4\u901a\u7701\u95a2\u6771\u5730\u65b9\u6574\u5099\u5c40\u5e38\u7dcf\u56fd\u9053\u4e8b\u52d9\u6240","boring_xml_url":47,"boring_view_url":1,"soilmap_view_url":null,"soiltest_xml_url":0,"soiltest_view_url":0},{"id":146741,"code":"B4KJ201801003-4990","latitude":"36.06766667","longitude":"139.9356944","source_code":"KT200683346020410004","project_name":"","survey_name":"\u5e73\u621018\u5e74\u5ea6 \u570f\u592e\u9053(\u5742\u6771\u5e02\u52d8\u52a9\u65b0\u7530\u5730\u533a)\u5730\u8cea\u8abf\u67fb18K41","client_name":"\u56fd\u571f\u4ea4\u901a\u7701\u95a2\u6771\u5730\u65b9\u6574\u5099\u5c40\u5e38\u7dcf\u56fd\u9053\u4e8b\u52d9\u6240","boring_xml_url":47,"boring_view_url":1,"soilmap_view_url":null,"soiltest_xml_url":0,"soiltest_view_url":0},{"id":146740,"code":"B4KJ201801003-4989","latitude":"36.06763889","longitude":"139.9353333","source_code":"KT200683346020410003","project_name":"","survey_name":"\u5e73\u621018\u5e74\u5ea6 \u570f\u592e\u9053(\u5742\u6771\u5e02\u52d8\u52a9\u65b0\u7530\u5730\u533a)\u5730\u8cea\u8abf\u67fb18K41","client_name":"\u56fd\u571f\u4ea4\u901a\u7701\u95a2\u6771\u5730\u65b9\u6574\u5099\u5c40\u5e38\u7dcf\u56fd\u9053\u4e8b\u52d9\u6240","boring_xml_url":47,"boring_view_url":1,"soilmap_view_url":null,"soiltest_xml_url":50,"soiltest_view_url":50},{"id":146739,"code":"B4KJ201801003-4988","latitude":"36.06775","longitude":"139.9343611","source_code":"KT200683346020410002","project_name":"","survey_name":"\u5e73\u621018\u5e74\u5ea6 \u570f\u592e\u9053(\u5742\u6771\u5e02\u52d8\u52a9\u65b0\u7530\u5730\u533a)\u5730\u8cea\u8abf\u67fb18K41","client_name":"\u56fd\u571f\u4ea4\u901a\u7701\u95a2\u6771\u5730\u65b9\u6574\u5099\u5c40\u5e38\u7dcf\u56fd\u9053\u4e8b\u52d9\u6240","boring_xml_url":47,"boring_view_url":1,"soilmap_view_url":null,"soiltest_xml_url":50,"soiltest_view_url":50},{"id":146738,"code":"B4KJ201801003-4987","latitude":"36.06763889","longitude":"139.9333889","source_code":"KT200683346020410001","project_name":"","survey_name":"\u5e73\u621018\u5e74\u5ea6 \u570f\u592e\u9053(\u5742\u6771\u5e02\u52d8\u52a9\u65b0\u7530\u5730\u533a)\u5730\u8cea\u8abf\u67fb18K41","client_name":"\u56fd\u571f\u4ea4\u901a\u7701\u95a2\u6771\u5730\u65b9\u6574\u5099\u5c40\u5e38\u7dcf\u56fd\u9053\u4e8b\u52d9\u6240","boring_xml_url":47,"boring_view_url":1,"soilmap_view_url":null,"soiltest_xml_url":50,"soiltest_view_url":50},{"id":146737,"code":"B4KJ201801003-4986","latitude":"36.06805556","longitude":"139.9333333","source_code":"KT200683346020400017","project_name":"","survey_name":"\u570f\u592e\u9053(\u5742\u6771\u5e02\u5e73\u516b\u65b0\u7530\u5730\u533a)\u5730\u8cea\u8abf\u67fb18K40","client_name":"\u56fd\u571f\u4ea4\u901a\u7701\u95a2\u6771\u5730\u65b9\u6574\u5099\u5c40\u5e38\u7dcf\u56fd\u9053\u4e8b\u52d9\u6240","boring_xml_url":47,"boring_view_url":1,"soilmap_view_url":null,"soiltest_xml_url":0,"soiltest_view_url":0},{"id":146736,"code":"B4KJ201801003-4985","latitude":"36.06819444","longitude":"139.9327778","source_code":"KT200683346020400016","project_name":"","survey_name":"\u570f\u592e\u9053(\u5742\u6771\u5e02\u5e73\u516b\u65b0\u7530\u5730\u533a)\u5730\u8cea\u8abf\u67fb18K40","client_name":"\u56fd\u571f\u4ea4\u901a\u7701\u95a2\u6771\u5730\u65b9\u6574\u5099\u5c40\u5e38\u7dcf\u56fd\u9053\u4e8b\u52d9\u6240","boring_xml_url":47,"boring_view_url":1,"soilmap_view_url":null,"soiltest_xml_url":0,"soiltest_view_url":0},{"id":146735,"code":"B4KJ201801003-4984","latitude":"36.06830556","longitude":"139.9323611","source_code":"KT200683346020400015","project_name":"","survey_name":"\u570f\u592e\u9053(\u5742\u6771\u5e02\u5e73\u516b\u65b0\u7530\u5730\u533a)\u5730\u8cea\u8abf\u67fb18K40","client_name":"\u56fd\u571f\u4ea4\u901a\u7701\u95a2\u6771\u5730\u65b9\u6574\u5099\u5c40\u5e38\u7dcf\u56fd\u9053\u4e8b\u52d9\u6240","boring_xml_url":47,"boring_view_url":1,"soilmap_view_url":null,"soiltest_xml_url":0,"soiltest_view_url":0},{"id":146734,"code":"B4KJ201801003-4983","latitude":"36.06836111","longitude":"139.9318056","source_code":"KT200683346020400014","project_name":"","survey_name":"\u570f\u592e\u9053(\u5742\u6771\u5e02\u5e73\u516b\u65b0\u7530\u5730\u533a)\u5730\u8cea\u8abf\u67fb18K40","client_name":"\u56fd\u571f\u4ea4\u901a\u7701\u95a2\u6771\u5730\u65b9\u6574\u5099\u5c40\u5e38\u7dcf\u56fd\u9053\u4e8b\u52d9\u6240","boring_xml_url":47,"boring_view_url":1,"soilmap_view_url":null,"soiltest_xml_url":0,"soiltest_view_url":0},{"id":146733,"code":"B4KJ201801003-4982","latitude":"36.06841667","longitude":"139.9313889","source_code":"KT200683346020400013","project_name":"","survey_name":"\u570f\u592e\u9053(\u5742\u6771\u5e02\u5e73\u516b\u65b0\u7530\u5730\u533a)\u5730\u8cea\u8abf\u67fb18K40","client_name":"\u56fd\u571f\u4ea4\u901a\u7701\u95a2\u6771\u5730\u65b9\u6574\u5099\u5c40\u5e38\u7dcf\u56fd\u9053\u4e8b\u52d9\u6240","boring_xml_url":47,"boring_view_url":1,"soilmap_view_url":null,"soiltest_xml_url":0,"soiltest_view_url":0},{"id":146732,"code":"B4KJ201801003-4981","latitude":"36.06861111","longitude":"139.9309722","source_code":"KT200683346020400012","project_name":"","survey_name":"\u570f\u592e\u9053(\u5742\u6771\u5e02\u5e73\u516b\u65b0\u7530\u5730\u533a)\u5730\u8cea\u8abf\u67fb18K40","client_name":"\u56fd\u571f\u4ea4\u901a\u7701\u95a2\u6771\u5730\u65b9\u6574\u5099\u5c40\u5e38\u7dcf\u56fd\u9053\u4e8b\u52d9\u6240","boring_xml_url":47,"boring_view_url":1,"soilmap_view_url":null,"soiltest_xml_url":0,"soiltest_view_url":0},{"id":146731,"code":"B4KJ201801003-4980","latitude":"36.06869444","longitude":"139.9301389","source_code":"KT200683346020400011","project_name":"","survey_name":"\u570f\u592e\u9053(\u5742\u6771\u5e02\u5e73\u516b\u65b0\u7530\u5730\u533a)\u5730\u8cea\u8abf\u67fb18K40","client_name":"\u56fd\u571f\u4ea4\u901a\u7701\u95a2\u6771\u5730\u65b9\u6574\u5099\u5c40\u5e38\u7dcf\u56fd\u9053\u4e8b\u52d9\u6240","boring_xml_url":47,"boring_view_url":1,"soilmap_view_url":null,"soiltest_xml_url":0,"soiltest_view_url":0},{"id":146730,"code":"B4KJ201801003-4979","latitude":"36.06919444","longitude":"139.9297222","source_code":"KT200683346020400010","project_name":"","survey_name":"\u570f\u592e\u9053(\u5742\u6771\u5e02\u5e73\u516b\u65b0\u7530\u5730\u533a)\u5730\u8cea\u8abf\u67fb18K40","client_name":"\u56fd\u571f\u4ea4\u901a\u7701\u95a2\u6771\u5730\u65b9\u6574\u5099\u5c40\u5e38\u7dcf\u56fd\u9053\u4e8b\u52d9\u6240","boring_xml_url":47,"boring_view_url":1,"soilmap_view_url":null,"soiltest_xml_url":0,"soiltest_view_url":0},{"id":146729,"code":"B4KJ201801003-4978","latitude":"36.06930556","longitude":"139.9294444","source_code":"KT200683346020400009","project_name":"","survey_name":"\u570f\u592e\u9053(\u5742\u6771\u5e02\u5e73\u516b\u65b0\u7530\u5730\u533a)\u5730\u8cea\u8abf\u67fb18K40","client_name":"\u56fd\u571f\u4ea4\u901a\u7701\u95a2\u6771\u5730\u65b9\u6574\u5099\u5c40\u5e38\u7dcf\u56fd\u9053\u4e8b\u52d9\u6240","boring_xml_url":47,"boring_view_url":1,"soilmap_view_url":null,"soiltest_xml_url":0,"soiltest_view_url":0},{"id":146728,"code":"B4KJ201801003-4977","latitude":"36.06936111","longitude":"139.9290278","source_code":"KT200683346020400008","project_name":"","survey_name":"\u570f\u592e\u9053(\u5742\u6771\u5e02\u5e73\u516b\u65b0\u7530\u5730\u533a)\u5730\u8cea\u8abf\u67fb18K40","client_name":"\u56fd\u571f\u4ea4\u901a\u7701\u95a2\u6771\u5730\u65b9\u6574\u5099\u5c40\u5e38\u7dcf\u56fd\u9053\u4e8b\u52d9\u6240","boring_xml_url":47,"boring_view_url":1,"soilmap_view_url":null,"soiltest_xml_url":0,"soiltest_view_url":0},{"id":146727,"code":"B4KJ201801003-4976","latitude":"36.06941667","longitude":"139.9286111","source_code":"KT200683346020400007","project_name":"","survey_name":"\u570f\u592e\u9053(\u5742\u6771\u5e02\u5e73\u516b\u65b0\u7530\u5730\u533a)\u5730\u8cea\u8abf\u67fb18K40","client_name":"\u56fd\u571f\u4ea4\u901a\u7701\u95a2\u6771\u5730\u65b9\u6574\u5099\u5c40\u5e38\u7dcf\u56fd\u9053\u4e8b\u52d9\u6240","boring_xml_url":47,"boring_view_url":1,"soilmap_view_url":null,"soiltest_xml_url":0,"soiltest_view_url":0},{"id":146726,"code":"B4KJ201801003-4975","latitude":"36.06952778","longitude":"139.9283333","source_code":"KT200683346020400006","project_name":"","survey_name":"\u570f\u592e\u9053(\u5742\u6771\u5e02\u5e73\u516b\u65b0\u7530\u5730\u533a)\u5730\u8cea\u8abf\u67fb18K41","client_name":"\u56fd\u571f\u4ea4\u901a\u7701\u95a2\u6771\u5730\u65b9\u6574\u5099\u5c40\u5e38\u7dcf\u56fd\u9053\u4e8b\u52d9\u6240","boring_xml_url":47,"boring_view_url":1,"soilmap_view_url":null,"soiltest_xml_url":0,"soiltest_view_url":0}]}}