{"header":{"xyz":{"source":[],"mosaic":false},"page":5799,"raw":{"soiltest_result":"0","bbox":"57.598333,109.544722,1.933333,163.806111","page":"5799"},"conditions":{"soiltest_result":0,"north":57.598333,"west":109.544722,"south":1.933333,"east":163.806111},"success":true,"message":""},"data":{"meta":{"total":212844,"page":5799,"pages":7095,"count":30},"values":[{"id":146605,"code":"B4KJ201801003-4854","latitude":"35.74030556","longitude":"140.8486667","source_code":"KT200583506020420004","project_name":"\u6cb3\u53e3\u5c0e\u6d41\u5824\u571f\u8cea\u8abf\u67fb\u696d\u52d9","survey_name":"\u6cb3\u53e3\u5c0e\u6d41\u5824\u571f\u8cea\u8abf\u67fb\u696d\u52d9","client_name":"\u56fd\u571f\u4ea4\u901a\u7701\u95a2\u6771\u5730\u65b9\u6574\u5099\u5c40\u5229\u6839\u5ddd\u4e0b\u6d41\u6cb3\u5ddd\u4e8b\u52d9\u6240","boring_xml_url":47,"boring_view_url":1,"soilmap_view_url":null,"soiltest_xml_url":0,"soiltest_view_url":0},{"id":146604,"code":"B4KJ201801003-4853","latitude":"35.73944444","longitude":"140.8494722","source_code":"KT200583506020420003","project_name":"\u6cb3\u53e3\u5c0e\u6d41\u5824\u571f\u8cea\u8abf\u67fb\u696d\u52d9","survey_name":"\u6cb3\u53e3\u5c0e\u6d41\u5824\u571f\u8cea\u8abf\u67fb\u696d\u52d9","client_name":"\u56fd\u571f\u4ea4\u901a\u7701\u95a2\u6771\u5730\u65b9\u6574\u5099\u5c40\u5229\u6839\u5ddd\u4e0b\u6d41\u6cb3\u5ddd\u4e8b\u52d9\u6240","boring_xml_url":47,"boring_view_url":1,"soilmap_view_url":null,"soiltest_xml_url":50,"soiltest_view_url":50},{"id":146603,"code":"B4KJ201801003-4852","latitude":"35.741","longitude":"140.8492778","source_code":"KT200583506020420002","project_name":"\u6cb3\u53e3\u5c0e\u6d41\u5824\u571f\u8cea\u8abf\u67fb\u696d\u52d9","survey_name":"\u6cb3\u53e3\u5c0e\u6d41\u5824\u571f\u8cea\u8abf\u67fb\u696d\u52d9","client_name":"\u56fd\u571f\u4ea4\u901a\u7701\u95a2\u6771\u5730\u65b9\u6574\u5099\u5c40\u5229\u6839\u5ddd\u4e0b\u6d41\u6cb3\u5ddd\u4e8b\u52d9\u6240","boring_xml_url":47,"boring_view_url":1,"soilmap_view_url":null,"soiltest_xml_url":50,"soiltest_view_url":50},{"id":146602,"code":"B4KJ201801003-4851","latitude":"35.73986111","longitude":"140.8504722","source_code":"KT200583506020420001","project_name":"\u6cb3\u53e3\u5c0e\u6d41\u5824\u571f\u8cea\u8abf\u67fb\u696d\u52d9","survey_name":"\u6cb3\u53e3\u5c0e\u6d41\u5824\u571f\u8cea\u8abf\u67fb\u696d\u52d9","client_name":"\u56fd\u571f\u4ea4\u901a\u7701\u95a2\u6771\u5730\u65b9\u6574\u5099\u5c40\u5229\u6839\u5ddd\u4e0b\u6d41\u6cb3\u5ddd\u4e8b\u52d9\u6240","boring_xml_url":47,"boring_view_url":1,"soilmap_view_url":null,"soiltest_xml_url":50,"soiltest_view_url":50},{"id":146601,"code":"B4KJ201801003-4850","latitude":"35.89674595","longitude":"140.5052672","source_code":"KT200583505820060003","project_name":"","survey_name":"H17\u672c\u5bbf\u8015\u5730\u5730\u8cea\u8abf\u67fb\u696d\u52d9","client_name":"\u56fd\u571f\u4ea4\u901a\u7701\u95a2\u6771\u5730\u65b9\u6574\u5099\u5c40\u5229\u6839\u5ddd\u4e0b\u6d41\u6cb3\u5ddd\u4e8b\u52d9\u6240","boring_xml_url":47,"boring_view_url":1,"soilmap_view_url":null,"soiltest_xml_url":50,"soiltest_view_url":50},{"id":146600,"code":"B4KJ201801003-4849","latitude":"35.89669293","longitude":"140.5062516","source_code":"KT200583505820060002","project_name":"","survey_name":"H17\u672c\u5bbf\u8015\u5730\u5730\u8cea\u8abf\u67fb\u696d\u52d9","client_name":"\u56fd\u571f\u4ea4\u901a\u7701\u95a2\u6771\u5730\u65b9\u6574\u5099\u5c40\u5229\u6839\u5ddd\u4e0b\u6d41\u6cb3\u5ddd\u4e8b\u52d9\u6240","boring_xml_url":47,"boring_view_url":1,"soilmap_view_url":null,"soiltest_xml_url":50,"soiltest_view_url":50},{"id":146599,"code":"B4KJ201801003-4848","latitude":"35.89635819","longitude":"140.5074854","source_code":"KT200583505820060001","project_name":"","survey_name":"H17\u672c\u5bbf\u8015\u5730\u5730\u8cea\u8abf\u67fb\u696d\u52d9","client_name":"\u56fd\u571f\u4ea4\u901a\u7701\u95a2\u6771\u5730\u65b9\u6574\u5099\u5c40\u5229\u6839\u5ddd\u4e0b\u6d41\u6cb3\u5ddd\u4e8b\u52d9\u6240","boring_xml_url":47,"boring_view_url":1,"soilmap_view_url":null,"soiltest_xml_url":50,"soiltest_view_url":50},{"id":146598,"code":"B4KJ201801003-4847","latitude":"35.97708333","longitude":"139.8916667","source_code":"KT200583456420150016","project_name":"\u76ee\u5439\u6cb3\u5ddd\u9632\u707d\u30b9\u30c6\u30fc\u30b7\u30e7\u30f3\u4e8b\u696d","survey_name":"\u76ee\u5439\u5730\u533a\u9ad8\u898f\u683c\u5824\u9632\u5730\u8cea\u8abf\u67fb\u696d\u52d9","client_name":"\u56fd\u571f\u4ea4\u901a\u7701\u95a2\u6771\u5730\u65b9\u6574\u5099\u5c40\u5229\u6839\u5ddd\u4e0a\u6d41\u6cb3\u5ddd\u4e8b\u52d9\u6240","boring_xml_url":47,"boring_view_url":1,"soilmap_view_url":null,"soiltest_xml_url":48,"soiltest_view_url":48},{"id":146597,"code":"B4KJ201801003-4846","latitude":"35.9765","longitude":"139.8926111","source_code":"KT200583456420150015","project_name":"\u76ee\u5439\u6cb3\u5ddd\u9632\u707d\u30b9\u30c6\u30fc\u30b7\u30e7\u30f3\u4e8b\u696d","survey_name":"\u76ee\u5439\u5730\u533a\u9ad8\u898f\u683c\u5824\u9632\u5730\u8cea\u8abf\u67fb\u696d\u52d9","client_name":"\u56fd\u571f\u4ea4\u901a\u7701\u95a2\u6771\u5730\u65b9\u6574\u5099\u5c40\u5229\u6839\u5ddd\u4e0a\u6d41\u6cb3\u5ddd\u4e8b\u52d9\u6240","boring_xml_url":47,"boring_view_url":1,"soilmap_view_url":null,"soiltest_xml_url":48,"soiltest_view_url":48},{"id":146596,"code":"B4KJ201801003-4845","latitude":"35.97594444","longitude":"139.8935","source_code":"KT200583456420150014","project_name":"\u76ee\u5439\u6cb3\u5ddd\u9632\u707d\u30b9\u30c6\u30fc\u30b7\u30e7\u30f3\u4e8b\u696d","survey_name":"\u76ee\u5439\u5730\u533a\u9ad8\u898f\u683c\u5824\u9632\u5730\u8cea\u8abf\u67fb\u696d\u52d9","client_name":"\u56fd\u571f\u4ea4\u901a\u7701\u95a2\u6771\u5730\u65b9\u6574\u5099\u5c40\u5229\u6839\u5ddd\u4e0a\u6d41\u6cb3\u5ddd\u4e8b\u52d9\u6240","boring_xml_url":47,"boring_view_url":1,"soilmap_view_url":null,"soiltest_xml_url":48,"soiltest_view_url":48},{"id":146595,"code":"B4KJ201801003-4844","latitude":"35.97538889","longitude":"139.8944167","source_code":"KT200583456420150013","project_name":"\u76ee\u5439\u6cb3\u5ddd\u9632\u707d\u30b9\u30c6\u30fc\u30b7\u30e7\u30f3\u4e8b\u696d","survey_name":"\u76ee\u5439\u5730\u533a\u9ad8\u898f\u683c\u5824\u9632\u5730\u8cea\u8abf\u67fb\u696d\u52d9","client_name":"\u56fd\u571f\u4ea4\u901a\u7701\u95a2\u6771\u5730\u65b9\u6574\u5099\u5c40\u5229\u6839\u5ddd\u4e0a\u6d41\u6cb3\u5ddd\u4e8b\u52d9\u6240","boring_xml_url":47,"boring_view_url":1,"soilmap_view_url":null,"soiltest_xml_url":48,"soiltest_view_url":48},{"id":146594,"code":"B4KJ201801003-4843","latitude":"35.97783333","longitude":"139.8923611","source_code":"KT200583456420150012","project_name":"\u76ee\u5439\u6cb3\u5ddd\u9632\u707d\u30b9\u30c6\u30fc\u30b7\u30e7\u30f3\u4e8b\u696d","survey_name":"\u76ee\u5439\u5730\u533a\u9ad8\u898f\u683c\u5824\u9632\u5730\u8cea\u8abf\u67fb\u696d\u52d9","client_name":"\u56fd\u571f\u4ea4\u901a\u7701\u95a2\u6771\u5730\u65b9\u6574\u5099\u5c40\u5229\u6839\u5ddd\u4e0a\u6d41\u6cb3\u5ddd\u4e8b\u52d9\u6240","boring_xml_url":47,"boring_view_url":1,"soilmap_view_url":null,"soiltest_xml_url":48,"soiltest_view_url":48},{"id":146593,"code":"B4KJ201801003-4842","latitude":"35.97722222","longitude":"139.8932778","source_code":"KT200583456420150011","project_name":"\u76ee\u5439\u6cb3\u5ddd\u9632\u707d\u30b9\u30c6\u30fc\u30b7\u30e7\u30f3\u4e8b\u696d","survey_name":"\u76ee\u5439\u5730\u533a\u9ad8\u898f\u683c\u5824\u9632\u5730\u8cea\u8abf\u67fb\u696d\u52d9","client_name":"\u56fd\u571f\u4ea4\u901a\u7701\u95a2\u6771\u5730\u65b9\u6574\u5099\u5c40\u5229\u6839\u5ddd\u4e0a\u6d41\u6cb3\u5ddd\u4e8b\u52d9\u6240","boring_xml_url":47,"boring_view_url":1,"soilmap_view_url":null,"soiltest_xml_url":48,"soiltest_view_url":48},{"id":146592,"code":"B4KJ201801003-4841","latitude":"35.97663889","longitude":"139.8941667","source_code":"KT200583456420150010","project_name":"\u76ee\u5439\u6cb3\u5ddd\u9632\u707d\u30b9\u30c6\u30fc\u30b7\u30e7\u30f3\u4e8b\u696d","survey_name":"\u76ee\u5439\u5730\u533a\u9ad8\u898f\u683c\u5824\u9632\u5730\u8cea\u8abf\u67fb\u696d\u52d9","client_name":"\u56fd\u571f\u4ea4\u901a\u7701\u95a2\u6771\u5730\u65b9\u6574\u5099\u5c40\u5229\u6839\u5ddd\u4e0a\u6d41\u6cb3\u5ddd\u4e8b\u52d9\u6240","boring_xml_url":47,"boring_view_url":1,"soilmap_view_url":null,"soiltest_xml_url":48,"soiltest_view_url":48},{"id":146591,"code":"B4KJ201801003-4840","latitude":"35.97583333","longitude":"139.8948333","source_code":"KT200583456420150009","project_name":"\u76ee\u5439\u6cb3\u5ddd\u9632\u707d\u30b9\u30c6\u30fc\u30b7\u30e7\u30f3\u4e8b\u696d","survey_name":"\u76ee\u5439\u5730\u533a\u9ad8\u898f\u683c\u5824\u9632\u5730\u8cea\u8abf\u67fb\u696d\u52d9","client_name":"\u56fd\u571f\u4ea4\u901a\u7701\u95a2\u6771\u5730\u65b9\u6574\u5099\u5c40\u5229\u6839\u5ddd\u4e0a\u6d41\u6cb3\u5ddd\u4e8b\u52d9\u6240","boring_xml_url":47,"boring_view_url":1,"soilmap_view_url":null,"soiltest_xml_url":48,"soiltest_view_url":48},{"id":146590,"code":"B4KJ201801003-4839","latitude":"35.97861111","longitude":"139.8931111","source_code":"KT200583456420150008","project_name":"\u76ee\u5439\u6cb3\u5ddd\u9632\u707d\u30b9\u30c6\u30fc\u30b7\u30e7\u30f3\u4e8b\u696d","survey_name":"\u76ee\u5439\u5730\u533a\u9ad8\u898f\u683c\u5824\u9632\u5730\u8cea\u8abf\u67fb\u696d\u52d9","client_name":"\u56fd\u571f\u4ea4\u901a\u7701\u95a2\u6771\u5730\u65b9\u6574\u5099\u5c40\u5229\u6839\u5ddd\u4e0a\u6d41\u6cb3\u5ddd\u4e8b\u52d9\u6240","boring_xml_url":47,"boring_view_url":1,"soilmap_view_url":null,"soiltest_xml_url":48,"soiltest_view_url":48},{"id":146589,"code":"B4KJ201801003-4838","latitude":"35.97802778","longitude":"139.8940833","source_code":"KT200583456420150007","project_name":"\u76ee\u5439\u6cb3\u5ddd\u9632\u707d\u30b9\u30c6\u30fc\u30b7\u30e7\u30f3\u4e8b\u696d","survey_name":"\u76ee\u5439\u5730\u533a\u9ad8\u898f\u683c\u5824\u9632\u5730\u8cea\u8abf\u67fb\u696d\u52d9","client_name":"\u56fd\u571f\u4ea4\u901a\u7701\u95a2\u6771\u5730\u65b9\u6574\u5099\u5c40\u5229\u6839\u5ddd\u4e0a\u6d41\u6cb3\u5ddd\u4e8b\u52d9\u6240","boring_xml_url":47,"boring_view_url":1,"soilmap_view_url":null,"soiltest_xml_url":48,"soiltest_view_url":48},{"id":146588,"code":"B4KJ201801003-4837","latitude":"35.97741667","longitude":"139.8948889","source_code":"KT200583456420150006","project_name":"\u76ee\u5439\u6cb3\u5ddd\u9632\u707d\u30b9\u30c6\u30fc\u30b7\u30e7\u30f3\u4e8b\u696d","survey_name":"\u76ee\u5439\u5730\u533a\u9ad8\u898f\u683c\u5824\u9632\u5730\u8cea\u8abf\u67fb\u696d\u52d9","client_name":"\u56fd\u571f\u4ea4\u901a\u7701\u95a2\u6771\u5730\u65b9\u6574\u5099\u5c40\u5229\u6839\u5ddd\u4e0a\u6d41\u6cb3\u5ddd\u4e8b\u52d9\u6240","boring_xml_url":47,"boring_view_url":1,"soilmap_view_url":null,"soiltest_xml_url":48,"soiltest_view_url":48},{"id":146587,"code":"B4KJ201801003-4836","latitude":"35.97686111","longitude":"139.8958056","source_code":"KT200583456420150005","project_name":"\u76ee\u5439\u6cb3\u5ddd\u9632\u707d\u30b9\u30c6\u30fc\u30b7\u30e7\u30f3\u4e8b\u696d","survey_name":"\u76ee\u5439\u5730\u533a\u9ad8\u898f\u683c\u5824\u9632\u5730\u8cea\u8abf\u67fb\u696d\u52d9","client_name":"\u56fd\u571f\u4ea4\u901a\u7701\u95a2\u6771\u5730\u65b9\u6574\u5099\u5c40\u5229\u6839\u5ddd\u4e0a\u6d41\u6cb3\u5ddd\u4e8b\u52d9\u6240","boring_xml_url":47,"boring_view_url":1,"soilmap_view_url":null,"soiltest_xml_url":48,"soiltest_view_url":48},{"id":146586,"code":"B4KJ201801003-4835","latitude":"35.97916667","longitude":"139.8937778","source_code":"KT200583456420150004","project_name":"\u76ee\u5439\u6cb3\u5ddd\u9632\u707d\u30b9\u30c6\u30fc\u30b7\u30e7\u30f3\u4e8b\u696d","survey_name":"\u76ee\u5439\u5730\u533a\u9ad8\u898f\u683c\u5824\u9632\u5730\u8cea\u8abf\u67fb\u696d\u52d9","client_name":"\u56fd\u571f\u4ea4\u901a\u7701\u95a2\u6771\u5730\u65b9\u6574\u5099\u5c40\u5229\u6839\u5ddd\u4e0a\u6d41\u6cb3\u5ddd\u4e8b\u52d9\u6240","boring_xml_url":47,"boring_view_url":1,"soilmap_view_url":null,"soiltest_xml_url":48,"soiltest_view_url":48},{"id":146585,"code":"B4KJ201801003-4834","latitude":"36.18858333","longitude":"139.5106389","source_code":"KT200583456420050009","project_name":"\u5927\u9ad8\u5cf6\u5730\u533a\u9ad8\u898f\u683c\u5824\u9632\u5730\u8cea\u8abf\u67fb","survey_name":"\u5927\u9ad8\u5cf6\u5730\u533a\u9ad8\u898f\u683c\u5824\u9632\u5730\u8cea\u8abf\u67fb","client_name":"\u56fd\u571f\u4ea4\u901a\u7701\u95a2\u6771\u5730\u65b9\u6574\u5099\u5c40\u5229\u6839\u5ddd\u4e0a\u6d41\u6cb3\u5ddd\u4e8b\u52d9\u6240","boring_xml_url":47,"boring_view_url":1,"soilmap_view_url":null,"soiltest_xml_url":0,"soiltest_view_url":0},{"id":146584,"code":"B4KJ201801003-4833","latitude":"36.18880556","longitude":"139.5109444","source_code":"KT200583456420050008","project_name":"\u5927\u9ad8\u5cf6\u5730\u533a\u9ad8\u898f\u683c\u5824\u9632\u5730\u8cea\u8abf\u67fb","survey_name":"\u5927\u9ad8\u5cf6\u5730\u533a\u9ad8\u898f\u683c\u5824\u9632\u5730\u8cea\u8abf\u67fb","client_name":"\u56fd\u571f\u4ea4\u901a\u7701\u95a2\u6771\u5730\u65b9\u6574\u5099\u5c40\u5229\u6839\u5ddd\u4e0a\u6d41\u6cb3\u5ddd\u4e8b\u52d9\u6240","boring_xml_url":47,"boring_view_url":1,"soilmap_view_url":null,"soiltest_xml_url":0,"soiltest_view_url":0},{"id":146583,"code":"B4KJ201801003-4832","latitude":"36.18633333","longitude":"139.63","source_code":"KT200583456420050004","project_name":"\u5927\u9ad8\u5cf6\u5730\u533a\u9ad8\u898f\u683c\u5824\u9632\u5730\u8cea\u8abf\u67fb","survey_name":"\u5927\u9ad8\u5cf6\u5730\u533a\u9ad8\u898f\u683c\u5824\u9632\u5730\u8cea\u8abf\u67fb","client_name":"\u56fd\u571f\u4ea4\u901a\u7701\u95a2\u6771\u5730\u65b9\u6574\u5099\u5c40\u5229\u6839\u5ddd\u4e0a\u6d41\u6cb3\u5ddd\u4e8b\u52d9\u6240","boring_xml_url":47,"boring_view_url":1,"soilmap_view_url":null,"soiltest_xml_url":50,"soiltest_view_url":50},{"id":146582,"code":"B4KJ201801003-4831","latitude":"36.18711111","longitude":"139.6293333","source_code":"KT200583456420050001","project_name":"\u5927\u9ad8\u5cf6\u5730\u533a\u9ad8\u898f\u683c\u5824\u9632\u5730\u8cea\u8abf\u67fb","survey_name":"\u5927\u9ad8\u5cf6\u5730\u533a\u9ad8\u898f\u683c\u5824\u9632\u5730\u8cea\u8abf\u67fb","client_name":"\u56fd\u571f\u4ea4\u901a\u7701\u95a2\u6771\u5730\u65b9\u6574\u5099\u5c40\u5229\u6839\u5ddd\u4e0a\u6d41\u6cb3\u5ddd\u4e8b\u52d9\u6240","boring_xml_url":47,"boring_view_url":1,"soilmap_view_url":null,"soiltest_xml_url":50,"soiltest_view_url":50},{"id":146581,"code":"B4KJ201801003-4830","latitude":"35.89777778","longitude":"140.0391667","source_code":"KT200583456020450007","project_name":"","survey_name":"\u7a32\u5730\u5148\u5730\u8cea\u8abf\u67fb\u696d\u52d9","client_name":"\u56fd\u571f\u4ea4\u901a\u7701\u95a2\u6771\u5730\u65b9\u6574\u5099\u5c40\u5229\u6839\u5ddd\u4e0a\u6d41\u6cb3\u5ddd\u4e8b\u52d9\u6240","boring_xml_url":47,"boring_view_url":1,"soilmap_view_url":null,"soiltest_xml_url":0,"soiltest_view_url":0},{"id":146580,"code":"B4KJ201801003-4829","latitude":"35.89888889","longitude":"140.0402778","source_code":"KT200583456020450006","project_name":"","survey_name":"\u7a32\u5730\u5148\u5730\u8cea\u8abf\u67fb\u696d\u52d9","client_name":"\u56fd\u571f\u4ea4\u901a\u7701\u95a2\u6771\u5730\u65b9\u6574\u5099\u5c40\u5229\u6839\u5ddd\u4e0a\u6d41\u6cb3\u5ddd\u4e8b\u52d9\u6240","boring_xml_url":47,"boring_view_url":1,"soilmap_view_url":null,"soiltest_xml_url":0,"soiltest_view_url":0},{"id":146579,"code":"B4KJ201801003-4828","latitude":"35.90027778","longitude":"140.0408333","source_code":"KT200583456020450005","project_name":"","survey_name":"\u7a32\u5730\u5148\u5730\u8cea\u8abf\u67fb\u696d\u52d9","client_name":"\u56fd\u571f\u4ea4\u901a\u7701\u95a2\u6771\u5730\u65b9\u6574\u5099\u5c40\u5229\u6839\u5ddd\u4e0a\u6d41\u6cb3\u5ddd\u4e8b\u52d9\u6240","boring_xml_url":47,"boring_view_url":1,"soilmap_view_url":null,"soiltest_xml_url":0,"soiltest_view_url":0},{"id":146578,"code":"B4KJ201801003-4827","latitude":"35.90055556","longitude":"140.0411111","source_code":"KT200583456020450004","project_name":"","survey_name":"\u7a32\u5730\u5148\u5730\u8cea\u8abf\u67fb\u696d\u52d9","client_name":"\u56fd\u571f\u4ea4\u901a\u7701\u95a2\u6771\u5730\u65b9\u6574\u5099\u5c40\u5229\u6839\u5ddd\u4e0a\u6d41\u6cb3\u5ddd\u4e8b\u52d9\u6240","boring_xml_url":47,"boring_view_url":1,"soilmap_view_url":null,"soiltest_xml_url":0,"soiltest_view_url":0},{"id":146577,"code":"B4KJ201801003-4826","latitude":"35.90083333","longitude":"140.0411111","source_code":"KT200583456020450003","project_name":"","survey_name":"\u7a32\u5730\u5148\u5730\u8cea\u8abf\u67fb\u696d\u52d9","client_name":"\u56fd\u571f\u4ea4\u901a\u7701\u95a2\u6771\u5730\u65b9\u6574\u5099\u5c40\u5229\u6839\u5ddd\u4e0a\u6d41\u6cb3\u5ddd\u4e8b\u52d9\u6240","boring_xml_url":47,"boring_view_url":1,"soilmap_view_url":null,"soiltest_xml_url":0,"soiltest_view_url":0},{"id":146576,"code":"B4KJ201801003-4825","latitude":"35.90111111","longitude":"140.0413889","source_code":"KT200583456020450002","project_name":"","survey_name":"\u7a32\u5730\u5148\u5730\u8cea\u8abf\u67fb\u696d\u52d9","client_name":"\u56fd\u571f\u4ea4\u901a\u7701\u95a2\u6771\u5730\u65b9\u6574\u5099\u5c40\u5229\u6839\u5ddd\u4e0a\u6d41\u6cb3\u5ddd\u4e8b\u52d9\u6240","boring_xml_url":47,"boring_view_url":1,"soilmap_view_url":null,"soiltest_xml_url":0,"soiltest_view_url":0}]}}