{"header":{"xyz":{"source":[],"mosaic":false},"page":580,"raw":{"soiltest_result":"0","bbox":"57.598333,109.544722,1.933333,163.806111","page":"580"},"conditions":{"soiltest_result":0,"north":57.598333,"west":109.544722,"south":1.933333,"east":163.806111},"success":true,"message":""},"data":{"meta":{"total":212844,"page":580,"pages":7095,"count":30},"values":[{"id":528018,"code":"B4KJ202201003-0554","latitude":"33.481528","longitude":"132.72225","source_code":"158851622000090015","project_name":"","survey_name":"\u5e73\u621028\u5e74\u5ea6\u3000\u5ca9\u8c37\u5730\u533a\u5730\u8cea\u8abf\u67fb\u696d\u52d9","client_name":"\u56fd\u571f\u4ea4\u901a\u7701\u56db\u56fd\u5730\u65b9\u6574\u5099\u5c40\u3000\u5c71\u9ce5\u5742\u30c0\u30e0\u5de5\u4e8b\u4e8b\u52d9\u6240","boring_xml_url":64,"boring_view_url":1,"soilmap_view_url":null,"soiltest_xml_url":0,"soiltest_view_url":0},{"id":528017,"code":"B4KJ202201003-0553","latitude":"33.481028","longitude":"132.722417","source_code":"158851622000090014","project_name":"","survey_name":"\u5e73\u621028\u5e74\u5ea6\u3000\u5ca9\u8c37\u5730\u533a\u5730\u8cea\u8abf\u67fb\u696d\u52d9","client_name":"\u56fd\u571f\u4ea4\u901a\u7701\u56db\u56fd\u5730\u65b9\u6574\u5099\u5c40\u3000\u5c71\u9ce5\u5742\u30c0\u30e0\u5de5\u4e8b\u4e8b\u52d9\u6240","boring_xml_url":64,"boring_view_url":1,"soilmap_view_url":null,"soiltest_xml_url":0,"soiltest_view_url":0},{"id":528016,"code":"B4KJ202201003-0552","latitude":"33.481083","longitude":"132.722361","source_code":"158851622000090013","project_name":"","survey_name":"\u5e73\u621028\u5e74\u5ea6\u3000\u5ca9\u8c37\u5730\u533a\u5730\u8cea\u8abf\u67fb\u696d\u52d9","client_name":"\u56fd\u571f\u4ea4\u901a\u7701\u56db\u56fd\u5730\u65b9\u6574\u5099\u5c40\u3000\u5c71\u9ce5\u5742\u30c0\u30e0\u5de5\u4e8b\u4e8b\u52d9\u6240","boring_xml_url":64,"boring_view_url":1,"soilmap_view_url":null,"soiltest_xml_url":0,"soiltest_view_url":0},{"id":528015,"code":"B4KJ202201003-0551","latitude":"33.535496","longitude":"132.60715","source_code":"158851622000090012","project_name":"","survey_name":"\u5e73\u621027\u5e74\u5ea6\u52a0\u4e16\u5730\u533a\u5916\u5730\u8cea\u8abf\u67fb\u696d\u52d9","client_name":"\u56fd\u571f\u4ea4\u901a\u7701\u56db\u56fd\u5730\u65b9\u6574\u5099\u5c40\u5927\u6d32\u6cb3\u5ddd\u56fd\u9053\u4e8b\u52d9\u6240","boring_xml_url":64,"boring_view_url":1,"soilmap_view_url":null,"soiltest_xml_url":0,"soiltest_view_url":0},{"id":528014,"code":"B4KJ202201003-0550","latitude":"33.535479","longitude":"132.607153","source_code":"158851622000090011","project_name":"","survey_name":"\u5e73\u621027\u5e74\u5ea6\u52a0\u4e16\u5730\u533a\u5916\u5730\u8cea\u8abf\u67fb\u696d\u52d9","client_name":"\u56fd\u571f\u4ea4\u901a\u7701\u56db\u56fd\u5730\u65b9\u6574\u5099\u5c40\u5927\u6d32\u6cb3\u5ddd\u56fd\u9053\u4e8b\u52d9\u6240","boring_xml_url":64,"boring_view_url":1,"soilmap_view_url":null,"soiltest_xml_url":0,"soiltest_view_url":0},{"id":528013,"code":"B4KJ202201003-0549","latitude":"33.535457","longitude":"132.607155","source_code":"158851622000090010","project_name":"","survey_name":"\u5e73\u621027\u5e74\u5ea6\u52a0\u4e16\u5730\u533a\u5916\u5730\u8cea\u8abf\u67fb\u696d\u52d9","client_name":"\u56fd\u571f\u4ea4\u901a\u7701\u56db\u56fd\u5730\u65b9\u6574\u5099\u5c40\u5927\u6d32\u6cb3\u5ddd\u56fd\u9053\u4e8b\u52d9\u6240","boring_xml_url":64,"boring_view_url":1,"soilmap_view_url":null,"soiltest_xml_url":0,"soiltest_view_url":0},{"id":528012,"code":"B4KJ202201003-0548","latitude":"33.535399","longitude":"132.607163","source_code":"158851622000090009","project_name":"","survey_name":"\u5e73\u621027\u5e74\u5ea6\u52a0\u4e16\u5730\u533a\u5916\u5730\u8cea\u8abf\u67fb\u696d\u52d9","client_name":"\u56fd\u571f\u4ea4\u901a\u7701\u56db\u56fd\u5730\u65b9\u6574\u5099\u5c40\u5927\u6d32\u6cb3\u5ddd\u56fd\u9053\u4e8b\u52d9\u6240","boring_xml_url":64,"boring_view_url":1,"soilmap_view_url":null,"soiltest_xml_url":0,"soiltest_view_url":0},{"id":528011,"code":"B4KJ202201003-0547","latitude":"33.535332","longitude":"132.603413","source_code":"158851622000090008","project_name":"","survey_name":"\u5e73\u621027\u5e74\u5ea6\u52a0\u4e16\u5730\u533a\u5916\u5730\u8cea\u8abf\u67fb\u696d\u52d9","client_name":"\u56fd\u571f\u4ea4\u901a\u7701\u56db\u56fd\u5730\u65b9\u6574\u5099\u5c40\u5927\u6d32\u6cb3\u5ddd\u56fd\u9053\u4e8b\u52d9\u6240","boring_xml_url":64,"boring_view_url":1,"soilmap_view_url":null,"soiltest_xml_url":0,"soiltest_view_url":0},{"id":528010,"code":"B4KJ202201003-0546","latitude":"33.535295","longitude":"132.603378","source_code":"158851622000090007","project_name":"","survey_name":"\u5e73\u621027\u5e74\u5ea6\u52a0\u4e16\u5730\u533a\u5916\u5730\u8cea\u8abf\u67fb\u696d\u52d9","client_name":"\u56fd\u571f\u4ea4\u901a\u7701\u56db\u56fd\u5730\u65b9\u6574\u5099\u5c40\u5927\u6d32\u6cb3\u5ddd\u56fd\u9053\u4e8b\u52d9\u6240","boring_xml_url":64,"boring_view_url":1,"soilmap_view_url":null,"soiltest_xml_url":0,"soiltest_view_url":0},{"id":528009,"code":"B4KJ202201003-0545","latitude":"33.53525","longitude":"132.603329","source_code":"158851622000090006","project_name":"","survey_name":"\u5e73\u621027\u5e74\u5ea6\u52a0\u4e16\u5730\u533a\u5916\u5730\u8cea\u8abf\u67fb\u696d\u52d9","client_name":"\u56fd\u571f\u4ea4\u901a\u7701\u56db\u56fd\u5730\u65b9\u6574\u5099\u5c40\u5927\u6d32\u6cb3\u5ddd\u56fd\u9053\u4e8b\u52d9\u6240","boring_xml_url":64,"boring_view_url":1,"soilmap_view_url":null,"soiltest_xml_url":0,"soiltest_view_url":0},{"id":528008,"code":"B4KJ202201003-0544","latitude":"33.538035","longitude":"132.572262","source_code":"158851622000090005","project_name":"","survey_name":"\u5e73\u621027\u5e74\u5ea6\u52a0\u4e16\u5730\u533a\u5916\u5730\u8cea\u8abf\u67fb\u696d\u52d9","client_name":"\u56fd\u571f\u4ea4\u901a\u7701\u56db\u56fd\u5730\u65b9\u6574\u5099\u5c40\u5927\u6d32\u6cb3\u5ddd\u56fd\u9053\u4e8b\u52d9\u6240","boring_xml_url":64,"boring_view_url":1,"soilmap_view_url":null,"soiltest_xml_url":0,"soiltest_view_url":0},{"id":528007,"code":"B4KJ202201003-0543","latitude":"33.592375","longitude":"132.504331","source_code":"158851622000090004","project_name":"","survey_name":"\u5e73\u621027\u5e74\u5ea6\u52a0\u4e16\u5730\u533a\u5916\u5730\u8cea\u8abf\u67fb\u696d\u52d9","client_name":"\u56fd\u571f\u4ea4\u901a\u7701\u56db\u56fd\u5730\u65b9\u6574\u5099\u5c40\u5927\u6d32\u6cb3\u5ddd\u56fd\u9053\u4e8b\u52d9\u6240","boring_xml_url":64,"boring_view_url":1,"soilmap_view_url":null,"soiltest_xml_url":0,"soiltest_view_url":0},{"id":528006,"code":"B4KJ202201003-0542","latitude":"33.583724","longitude":"132.517224","source_code":"158851622000090003","project_name":"","survey_name":"\u5e73\u621027\u5e74\u5ea6\u52a0\u4e16\u5730\u533a\u5916\u5730\u8cea\u8abf\u67fb\u696d\u52d9","client_name":"\u56fd\u571f\u4ea4\u901a\u7701\u56db\u56fd\u5730\u65b9\u6574\u5099\u5c40\u5927\u6d32\u6cb3\u5ddd\u56fd\u9053\u4e8b\u52d9\u6240","boring_xml_url":64,"boring_view_url":1,"soilmap_view_url":null,"soiltest_xml_url":0,"soiltest_view_url":0},{"id":528005,"code":"B4KJ202201003-0541","latitude":"33.584299","longitude":"132.5165","source_code":"158851622000090002","project_name":"","survey_name":"\u5e73\u621027\u5e74\u5ea6\u52a0\u4e16\u5730\u533a\u5916\u5730\u8cea\u8abf\u67fb\u696d\u52d9","client_name":"\u56fd\u571f\u4ea4\u901a\u7701\u56db\u56fd\u5730\u65b9\u6574\u5099\u5c40\u5927\u6d32\u6cb3\u5ddd\u56fd\u9053\u4e8b\u52d9\u6240","boring_xml_url":64,"boring_view_url":1,"soilmap_view_url":null,"soiltest_xml_url":0,"soiltest_view_url":0},{"id":528004,"code":"B4KJ202201003-0540","latitude":"33.584943","longitude":"132.516226","source_code":"158851622000090001","project_name":"","survey_name":"\u5e73\u621027\u5e74\u5ea6\u52a0\u4e16\u5730\u533a\u5916\u5730\u8cea\u8abf\u67fb\u696d\u52d9","client_name":"\u56fd\u571f\u4ea4\u901a\u7701\u56db\u56fd\u5730\u65b9\u6574\u5099\u5c40\u5927\u6d32\u6cb3\u5ddd\u56fd\u9053\u4e8b\u52d9\u6240","boring_xml_url":64,"boring_view_url":1,"soilmap_view_url":null,"soiltest_xml_url":0,"soiltest_view_url":0},{"id":528003,"code":"B4KJ202201003-0539","latitude":"33.585707","longitude":"132.515722","source_code":"168850402000030003","project_name":"","survey_name":"\u5e73\u621027\u5e74\u5ea6\u52a0\u4e16\u5730\u533a\u5916\u5730\u8cea\u8abf\u67fb\u696d\u52d9","client_name":"\u56fd\u571f\u4ea4\u901a\u7701\u56db\u56fd\u5730\u65b9\u6574\u5099\u5c40\u5927\u6d32\u6cb3\u5ddd\u56fd\u9053\u4e8b\u52d9\u6240","boring_xml_url":64,"boring_view_url":1,"soilmap_view_url":null,"soiltest_xml_url":0,"soiltest_view_url":0},{"id":528002,"code":"B4KJ202201003-0538","latitude":"33.585867","longitude":"132.515968","source_code":"168850402000030002","project_name":"","survey_name":"\u5e73\u621027\u5e74\u5ea6\u52a0\u4e16\u5730\u533a\u5916\u5730\u8cea\u8abf\u67fb\u696d\u52d9","client_name":"\u56fd\u571f\u4ea4\u901a\u7701\u56db\u56fd\u5730\u65b9\u6574\u5099\u5c40\u5927\u6d32\u6cb3\u5ddd\u56fd\u9053\u4e8b\u52d9\u6240","boring_xml_url":64,"boring_view_url":1,"soilmap_view_url":null,"soiltest_xml_url":0,"soiltest_view_url":0},{"id":528001,"code":"B4KJ202201003-0537","latitude":"33.587031","longitude":"132.514968","source_code":"168850402000030001","project_name":"","survey_name":"\u5e73\u621027\u5e74\u5ea6\u52a0\u4e16\u5730\u533a\u5916\u5730\u8cea\u8abf\u67fb\u696d\u52d9","client_name":"\u56fd\u571f\u4ea4\u901a\u7701\u56db\u56fd\u5730\u65b9\u6574\u5099\u5c40\u5927\u6d32\u6cb3\u5ddd\u56fd\u9053\u4e8b\u52d9\u6240","boring_xml_url":64,"boring_view_url":1,"soilmap_view_url":null,"soiltest_xml_url":0,"soiltest_view_url":0},{"id":528000,"code":"B4KJ202201003-0536","latitude":"33.587833","longitude":"132.514021","source_code":"814004282100610010","project_name":"","survey_name":"\u5e73\u621027\u5e74\u5ea6\u52a0\u4e16\u5730\u533a\u5916\u5730\u8cea\u8abf\u67fb\u696d\u52d9","client_name":"\u56fd\u571f\u4ea4\u901a\u7701\u56db\u56fd\u5730\u65b9\u6574\u5099\u5c40\u5927\u6d32\u6cb3\u5ddd\u56fd\u9053\u4e8b\u52d9\u6240","boring_xml_url":64,"boring_view_url":1,"soilmap_view_url":null,"soiltest_xml_url":0,"soiltest_view_url":0},{"id":527999,"code":"B4KJ202201003-0535","latitude":"33.809125","longitude":"132.716769","source_code":"814004282100610009","project_name":"","survey_name":"\u5e73\u621028\u5e74\u5ea6\u3000\u91cd\u4fe1\u5ddd\u7ba1\u5185\u6d78\u900f\u5bfe\u7b56\u8a2d\u8a08\uff08\u305d\u306e1\uff09\u696d\u52d9","client_name":"\"\u56fd\u571f\u4ea4\u901a\u7701 \u56db\u56fd\u5730\u65b9\u6574\u5099\u5c40 \u677e\u5c71\u6cb3\u5ddd\u56fd\u9053\u4e8b\u52d9\u6240\"","boring_xml_url":64,"boring_view_url":1,"soilmap_view_url":null,"soiltest_xml_url":0,"soiltest_view_url":0},{"id":527998,"code":"B4KJ202201003-0534","latitude":"33.808603","longitude":"132.711658","source_code":"814004282100610008","project_name":"","survey_name":"\u5e73\u621028\u5e74\u5ea6\u3000\u91cd\u4fe1\u5ddd\u7ba1\u5185\u6d78\u900f\u5bfe\u7b56\u8a2d\u8a08\uff08\u305d\u306e1\uff09\u696d\u52d9","client_name":"\"\u56fd\u571f\u4ea4\u901a\u7701 \u56db\u56fd\u5730\u65b9\u6574\u5099\u5c40 \u677e\u5c71\u6cb3\u5ddd\u56fd\u9053\u4e8b\u52d9\u6240\"","boring_xml_url":64,"boring_view_url":1,"soilmap_view_url":null,"soiltest_xml_url":0,"soiltest_view_url":0},{"id":527997,"code":"B4KJ202201003-0533","latitude":"33.807622","longitude":"132.708653","source_code":"814004282100610007","project_name":"","survey_name":"\u5e73\u621028\u5e74\u5ea6\u3000\u91cd\u4fe1\u5ddd\u7ba1\u5185\u6d78\u900f\u5bfe\u7b56\u8a2d\u8a08\uff08\u305d\u306e1\uff09\u696d\u52d9","client_name":"\"\u56fd\u571f\u4ea4\u901a\u7701 \u56db\u56fd\u5730\u65b9\u6574\u5099\u5c40 \u677e\u5c71\u6cb3\u5ddd\u56fd\u9053\u4e8b\u52d9\u6240\"","boring_xml_url":64,"boring_view_url":1,"soilmap_view_url":null,"soiltest_xml_url":0,"soiltest_view_url":0},{"id":527996,"code":"B4KJ202201003-0532","latitude":"33.928992","longitude":"134.611769","source_code":"814004282100610006","project_name":"\u5e73\u621028\u5e74\u5ea6\u3000\u6851\u91ce\u9053\u8def\u30fb\u798f\u4e95\u9053\u8def\u5730\u8cea\u8abf\u67fb\u696d\u52d9","survey_name":"\u5e73\u621028\u5e74\u5ea6\u3000\u6851\u91ce\u9053\u8def\u30fb\u798f\u4e95\u9053\u8def\u5730\u8cea\u8abf\u67fb\u696d\u52d9","client_name":"\"\u56fd\u571f\u4ea4\u901a\u7701 \u56db\u56fd\u5730\u65b9\u6574\u5099\u5c40 \u5fb3\u5cf6\u6cb3\u5ddd\u56fd\u9053\u4e8b\u52d9\u6240\"","boring_xml_url":64,"boring_view_url":1,"soilmap_view_url":null,"soiltest_xml_url":0,"soiltest_view_url":0},{"id":527995,"code":"B4KJ202201003-0531","latitude":"33.929094","longitude":"134.611442","source_code":"814004282100610005","project_name":"\u5e73\u621028\u5e74\u5ea6\u3000\u6851\u91ce\u9053\u8def\u30fb\u798f\u4e95\u9053\u8def\u5730\u8cea\u8abf\u67fb\u696d\u52d9","survey_name":"\u5e73\u621028\u5e74\u5ea6\u3000\u6851\u91ce\u9053\u8def\u30fb\u798f\u4e95\u9053\u8def\u5730\u8cea\u8abf\u67fb\u696d\u52d9","client_name":"\"\u56fd\u571f\u4ea4\u901a\u7701 \u56db\u56fd\u5730\u65b9\u6574\u5099\u5c40 \u5fb3\u5cf6\u6cb3\u5ddd\u56fd\u9053\u4e8b\u52d9\u6240\"","boring_xml_url":64,"boring_view_url":1,"soilmap_view_url":null,"soiltest_xml_url":0,"soiltest_view_url":0},{"id":527994,"code":"B4KJ202201003-0530","latitude":"33.929311","longitude":"134.611833","source_code":"814004282100610004","project_name":"\u5e73\u621028\u5e74\u5ea6\u3000\u6851\u91ce\u9053\u8def\u30fb\u798f\u4e95\u9053\u8def\u5730\u8cea\u8abf\u67fb\u696d\u52d9","survey_name":"\u5e73\u621028\u5e74\u5ea6\u3000\u6851\u91ce\u9053\u8def\u30fb\u798f\u4e95\u9053\u8def\u5730\u8cea\u8abf\u67fb\u696d\u52d9","client_name":"\"\u56fd\u571f\u4ea4\u901a\u7701 \u56db\u56fd\u5730\u65b9\u6574\u5099\u5c40 \u5fb3\u5cf6\u6cb3\u5ddd\u56fd\u9053\u4e8b\u52d9\u6240\"","boring_xml_url":64,"boring_view_url":1,"soilmap_view_url":null,"soiltest_xml_url":0,"soiltest_view_url":0},{"id":527993,"code":"B4KJ202201003-0529","latitude":"33.929958","longitude":"134.611619","source_code":"814004282100610003","project_name":"\u5e73\u621028\u5e74\u5ea6\u3000\u6851\u91ce\u9053\u8def\u30fb\u798f\u4e95\u9053\u8def\u5730\u8cea\u8abf\u67fb\u696d\u52d9","survey_name":"\u5e73\u621028\u5e74\u5ea6\u3000\u6851\u91ce\u9053\u8def\u30fb\u798f\u4e95\u9053\u8def\u5730\u8cea\u8abf\u67fb\u696d\u52d9","client_name":"\"\u56fd\u571f\u4ea4\u901a\u7701 \u56db\u56fd\u5730\u65b9\u6574\u5099\u5c40 \u5fb3\u5cf6\u6cb3\u5ddd\u56fd\u9053\u4e8b\u52d9\u6240\"","boring_xml_url":64,"boring_view_url":1,"soilmap_view_url":null,"soiltest_xml_url":0,"soiltest_view_url":0},{"id":527992,"code":"B4KJ202201003-0528","latitude":"33.9303","longitude":"134.611592","source_code":"814004282100610002","project_name":"\u5e73\u621028\u5e74\u5ea6\u3000\u6851\u91ce\u9053\u8def\u30fb\u798f\u4e95\u9053\u8def\u5730\u8cea\u8abf\u67fb\u696d\u52d9","survey_name":"\u5e73\u621028\u5e74\u5ea6\u3000\u6851\u91ce\u9053\u8def\u30fb\u798f\u4e95\u9053\u8def\u5730\u8cea\u8abf\u67fb\u696d\u52d9","client_name":"\"\u56fd\u571f\u4ea4\u901a\u7701 \u56db\u56fd\u5730\u65b9\u6574\u5099\u5c40 \u5fb3\u5cf6\u6cb3\u5ddd\u56fd\u9053\u4e8b\u52d9\u6240\"","boring_xml_url":64,"boring_view_url":1,"soilmap_view_url":null,"soiltest_xml_url":0,"soiltest_view_url":0},{"id":527991,"code":"B4KJ202201003-0527","latitude":"33.930383","longitude":"134.611869","source_code":"814004282100610001","project_name":"\u5e73\u621028\u5e74\u5ea6\u3000\u6851\u91ce\u9053\u8def\u30fb\u798f\u4e95\u9053\u8def\u5730\u8cea\u8abf\u67fb\u696d\u52d9","survey_name":"\u5e73\u621028\u5e74\u5ea6\u3000\u6851\u91ce\u9053\u8def\u30fb\u798f\u4e95\u9053\u8def\u5730\u8cea\u8abf\u67fb\u696d\u52d9","client_name":"\"\u56fd\u571f\u4ea4\u901a\u7701 \u56db\u56fd\u5730\u65b9\u6574\u5099\u5c40 \u5fb3\u5cf6\u6cb3\u5ddd\u56fd\u9053\u4e8b\u52d9\u6240\"","boring_xml_url":64,"boring_view_url":1,"soilmap_view_url":null,"soiltest_xml_url":0,"soiltest_view_url":0},{"id":527990,"code":"B4KJ202201003-0526","latitude":"33.930811","longitude":"134.611619","source_code":"168830472000170006","project_name":"\u5e73\u621028\u5e74\u5ea6\u3000\u6851\u91ce\u9053\u8def\u30fb\u798f\u4e95\u9053\u8def\u5730\u8cea\u8abf\u67fb\u696d\u52d9","survey_name":"\u5e73\u621028\u5e74\u5ea6\u3000\u6851\u91ce\u9053\u8def\u30fb\u798f\u4e95\u9053\u8def\u5730\u8cea\u8abf\u67fb\u696d\u52d9","client_name":"\"\u56fd\u571f\u4ea4\u901a\u7701 \u56db\u56fd\u5730\u65b9\u6574\u5099\u5c40 \u5fb3\u5cf6\u6cb3\u5ddd\u56fd\u9053\u4e8b\u52d9\u6240\"","boring_xml_url":64,"boring_view_url":1,"soilmap_view_url":null,"soiltest_xml_url":0,"soiltest_view_url":0},{"id":527989,"code":"B4KJ202201003-0525","latitude":"33.931061","longitude":"134.611614","source_code":"168830472000170005","project_name":"\u5e73\u621028\u5e74\u5ea6\u3000\u6851\u91ce\u9053\u8def\u30fb\u798f\u4e95\u9053\u8def\u5730\u8cea\u8abf\u67fb\u696d\u52d9","survey_name":"\u5e73\u621028\u5e74\u5ea6\u3000\u6851\u91ce\u9053\u8def\u30fb\u798f\u4e95\u9053\u8def\u5730\u8cea\u8abf\u67fb\u696d\u52d9","client_name":"\"\u56fd\u571f\u4ea4\u901a\u7701 \u56db\u56fd\u5730\u65b9\u6574\u5099\u5c40 \u5fb3\u5cf6\u6cb3\u5ddd\u56fd\u9053\u4e8b\u52d9\u6240\"","boring_xml_url":64,"boring_view_url":1,"soilmap_view_url":null,"soiltest_xml_url":0,"soiltest_view_url":0}]}}