{"header":{"xyz":{"source":[],"mosaic":false},"page":5813,"raw":{"soiltest_result":"0","bbox":"57.598333,109.544722,1.933333,163.806111","page":"5813"},"conditions":{"soiltest_result":0,"north":57.598333,"west":109.544722,"south":1.933333,"east":163.806111},"success":true,"message":""},"data":{"meta":{"total":212844,"page":5813,"pages":7095,"count":30},"values":[{"id":146185,"code":"B4KJ201801003-4434","latitude":"35.72055556","longitude":"139.9041667","source_code":"KT200483516020420007","project_name":"\u6c5f\u6238\u5ddd\u5824\u9632\u5730\u8cea\u8abf\u67fb\u696d\u52d9","survey_name":"\u6c5f\u6238\u5ddd\u5824\u9632\u5730\u8cea\u8abf\u67fb\u696d\u52d9","client_name":"\u56fd\u571f\u4ea4\u901a\u7701\u95a2\u6771\u5730\u65b9\u6574\u5099\u5c40\u6c5f\u6238\u5ddd\u6cb3\u5ddd\u4e8b\u52d9\u6240","boring_xml_url":47,"boring_view_url":1,"soilmap_view_url":null,"soiltest_xml_url":50,"soiltest_view_url":50},{"id":146184,"code":"B4KJ201801003-4433","latitude":"35.72055556","longitude":"139.9041667","source_code":"KT200483516020420006","project_name":"\u6c5f\u6238\u5ddd\u5824\u9632\u5730\u8cea\u8abf\u67fb\u696d\u52d9","survey_name":"\u6c5f\u6238\u5ddd\u5824\u9632\u5730\u8cea\u8abf\u67fb\u696d\u52d9","client_name":"\u56fd\u571f\u4ea4\u901a\u7701\u95a2\u6771\u5730\u65b9\u6574\u5099\u5c40\u6c5f\u6238\u5ddd\u6cb3\u5ddd\u4e8b\u52d9\u6240","boring_xml_url":47,"boring_view_url":1,"soilmap_view_url":null,"soiltest_xml_url":50,"soiltest_view_url":50},{"id":146183,"code":"B4KJ201801003-4432","latitude":"35.71361111","longitude":"139.9122222","source_code":"KT200483516020420005","project_name":"\u6c5f\u6238\u5ddd\u5824\u9632\u5730\u8cea\u8abf\u67fb\u696d\u52d9","survey_name":"\u6c5f\u6238\u5ddd\u5824\u9632\u5730\u8cea\u8abf\u67fb\u696d\u52d9","client_name":"\u56fd\u571f\u4ea4\u901a\u7701\u95a2\u6771\u5730\u65b9\u6574\u5099\u5c40\u6c5f\u6238\u5ddd\u6cb3\u5ddd\u4e8b\u52d9\u6240","boring_xml_url":47,"boring_view_url":1,"soilmap_view_url":null,"soiltest_xml_url":50,"soiltest_view_url":50},{"id":146182,"code":"B4KJ201801003-4431","latitude":"35.83072222","longitude":"139.8115833","source_code":"KT200483516020370008","project_name":"","survey_name":"\u6804\u3001\u7a32\u8377\u5730\u533a\u7b49\u5730\u8cea\u8abf\u67fb\u696d\u52d9","client_name":"\u56fd\u571f\u4ea4\u901a\u7701\u95a2\u6771\u5730\u65b9\u6574\u5099\u5c40\u6c5f\u6238\u5ddd\u6cb3\u5ddd\u4e8b\u52d9\u6240","boring_xml_url":47,"boring_view_url":1,"soilmap_view_url":null,"soiltest_xml_url":0,"soiltest_view_url":0},{"id":146181,"code":"B4KJ201801003-4430","latitude":"35.82919444","longitude":"139.8132778","source_code":"KT200483516020370006","project_name":"","survey_name":"\u6804\u30fb\u7a32\u8377\u5730\u533a\u7b49\u5730\u8cea\u8abf\u67fb\u696d\u52d9","client_name":"\u56fd\u571f\u4ea4\u901a\u7701\u95a2\u6771\u5730\u65b9\u6574\u5099\u5c40\u6c5f\u6238\u5ddd\u6cb3\u5ddd\u4e8b\u52d9\u6240","boring_xml_url":47,"boring_view_url":1,"soilmap_view_url":null,"soiltest_xml_url":50,"soiltest_view_url":50},{"id":146180,"code":"B4KJ201801003-4429","latitude":"35.82847222","longitude":"139.8139167","source_code":"KT200483516020370005","project_name":"","survey_name":"\u6804\u3001\u7a32\u8377\u5730\u533a\u7b49\u5730\u8cea\u8abf\u67fb\u696d\u52d9","client_name":"\u56fd\u571f\u4ea4\u901a\u7701\u95a2\u6771\u5730\u65b9\u6574\u5099\u5c40\u6c5f\u6238\u5ddd\u6cb3\u5ddd\u4e8b\u52d9\u6240","boring_xml_url":47,"boring_view_url":1,"soilmap_view_url":null,"soiltest_xml_url":50,"soiltest_view_url":50},{"id":146179,"code":"B4KJ201801003-4428","latitude":"35.78386944","longitude":"139.8919917","source_code":"KT200483516020350024","project_name":"\u6c5f\u6238\u5ddd\u53f3\u5cb8\u5824\u9632\u5730\u8cea\u8abf\u67fb(\u305d\u306e4)\u696d\u52d9","survey_name":"\u6c5f\u6238\u5ddd\u53f3\u5cb8\u5824\u9632\u5730\u8cea\u8abf\u67fb(\u305d\u306e4)\u696d\u52d9","client_name":"\u56fd\u571f\u4ea4\u901a\u7701\u95a2\u6771\u5730\u65b9\u6574\u5099\u5c40\u6c5f\u6238\u5ddd\u6cb3\u5ddd\u4e8b\u52d9\u6240","boring_xml_url":47,"boring_view_url":1,"soilmap_view_url":null,"soiltest_xml_url":0,"soiltest_view_url":0},{"id":146178,"code":"B4KJ201801003-4427","latitude":"35.714225","longitude":"139.9095694","source_code":"KT200483516020350023","project_name":"\u6c5f\u6238\u5ddd\u53f3\u5cb8\u5824\u9632\u5730\u8cea\u8abf\u67fb(\u305d\u306e4)\u696d\u52d9","survey_name":"\u6c5f\u6238\u5ddd\u53f3\u5cb8\u5824\u9632\u5730\u8cea\u8abf\u67fb(\u305d\u306e4)\u696d\u52d9","client_name":"\u56fd\u571f\u4ea4\u901a\u7701\u95a2\u6771\u5730\u65b9\u6574\u5099\u5c40\u6c5f\u6238\u5ddd\u6cb3\u5ddd\u4e8b\u52d9\u6240","boring_xml_url":47,"boring_view_url":1,"soilmap_view_url":null,"soiltest_xml_url":0,"soiltest_view_url":0},{"id":146177,"code":"B4KJ201801003-4426","latitude":"35.84532778","longitude":"139.8881833","source_code":"KT200483516020350022","project_name":"\u6c5f\u6238\u5ddd\u53f3\u5cb8\u5824\u9632\u5730\u8cea\u8abf\u67fb(\u305d\u306e4)\u696d\u52d9","survey_name":"\u6c5f\u6238\u5ddd\u53f3\u5cb8\u5824\u9632\u5730\u8cea\u8abf\u67fb(\u305d\u306e4)\u696d\u52d9","client_name":"\u56fd\u571f\u4ea4\u901a\u7701\u95a2\u6771\u5730\u65b9\u6574\u5099\u5c40\u6c5f\u6238\u5ddd\u6cb3\u5ddd\u4e8b\u52d9\u6240","boring_xml_url":47,"boring_view_url":1,"soilmap_view_url":null,"soiltest_xml_url":0,"soiltest_view_url":0},{"id":146176,"code":"B4KJ201801003-4425","latitude":"35.84534444","longitude":"139.8883778","source_code":"KT200483516020350021","project_name":"\u6c5f\u6238\u5ddd\u53f3\u5cb8\u5824\u9632\u5730\u8cea\u8abf\u67fb(\u305d\u306e4)\u696d\u52d9","survey_name":"\u6c5f\u6238\u5ddd\u53f3\u5cb8\u5824\u9632\u5730\u8cea\u8abf\u67fb(\u305d\u306e4)\u696d\u52d9","client_name":"\u56fd\u571f\u4ea4\u901a\u7701\u95a2\u6771\u5730\u65b9\u6574\u5099\u5c40\u6c5f\u6238\u5ddd\u6cb3\u5ddd\u4e8b\u52d9\u6240","boring_xml_url":47,"boring_view_url":1,"soilmap_view_url":null,"soiltest_xml_url":0,"soiltest_view_url":0},{"id":146175,"code":"B4KJ201801003-4424","latitude":"35.84532778","longitude":"139.8884972","source_code":"KT200483516020350020","project_name":"\u6c5f\u6238\u5ddd\u53f3\u5cb8\u5824\u9632\u5730\u8cea\u8abf\u67fb(\u305d\u306e4)\u696d\u52d9","survey_name":"\u6c5f\u6238\u5ddd\u53f3\u5cb8\u5824\u9632\u5730\u8cea\u8abf\u67fb(\u305d\u306e4)\u696d\u52d9","client_name":"\u56fd\u571f\u4ea4\u901a\u7701\u95a2\u6771\u5730\u65b9\u6574\u5099\u5c40\u6c5f\u6238\u5ddd\u6cb3\u5ddd\u4e8b\u52d9\u6240","boring_xml_url":47,"boring_view_url":1,"soilmap_view_url":null,"soiltest_xml_url":0,"soiltest_view_url":0},{"id":146174,"code":"B4KJ201801003-4423","latitude":"35.82036111","longitude":"139.8875389","source_code":"KT200483516020350019","project_name":"\u6c5f\u6238\u5ddd\u53f3\u5cb8\u5824\u9632\u5730\u8cea\u8abf\u67fb(\u305d\u306e4)\u696d\u52d9","survey_name":"\u6c5f\u6238\u5ddd\u53f3\u5cb8\u5824\u9632\u5730\u8cea\u8abf\u67fb(\u305d\u306e4)\u696d\u52d9","client_name":"\u56fd\u571f\u4ea4\u901a\u7701\u95a2\u6771\u5730\u65b9\u6574\u5099\u5c40\u6c5f\u6238\u5ddd\u6cb3\u5ddd\u4e8b\u52d9\u6240","boring_xml_url":47,"boring_view_url":1,"soilmap_view_url":null,"soiltest_xml_url":0,"soiltest_view_url":0},{"id":146173,"code":"B4KJ201801003-4422","latitude":"35.76553611","longitude":"139.8794528","source_code":"KT200483516020350017","project_name":"\u6c5f\u6238\u5ddd\u53f3\u5cb8\u5824\u9632\u5730\u8cea\u8abf\u67fb(\u305d\u306e4)\u696d\u52d9","survey_name":"\u6c5f\u6238\u5ddd\u53f3\u5cb8\u5824\u9632\u5730\u8cea\u8abf\u67fb(\u305d\u306e4)\u696d\u52d9","client_name":"\u56fd\u571f\u4ea4\u901a\u7701\u95a2\u6771\u5730\u65b9\u6574\u5099\u5c40\u6c5f\u6238\u5ddd\u6cb3\u5ddd\u4e8b\u52d9\u6240","boring_xml_url":47,"boring_view_url":1,"soilmap_view_url":null,"soiltest_xml_url":0,"soiltest_view_url":0},{"id":146172,"code":"B4KJ201801003-4421","latitude":"35.76290556","longitude":"139.8800583","source_code":"KT200483516020350016","project_name":"\u6c5f\u6238\u5ddd\u53f3\u5cb8\u5824\u9632\u5730\u8cea\u8abf\u67fb(\u305d\u306e4)\u696d\u52d9","survey_name":"\u6c5f\u6238\u5ddd\u53f3\u5cb8\u5824\u9632\u5730\u8cea\u8abf\u67fb(\u305d\u306e4)\u696d\u52d9","client_name":"\u56fd\u571f\u4ea4\u901a\u7701\u95a2\u6771\u5730\u65b9\u6574\u5099\u5c40\u6c5f\u6238\u5ddd\u6cb3\u5ddd\u4e8b\u52d9\u6240","boring_xml_url":47,"boring_view_url":1,"soilmap_view_url":null,"soiltest_xml_url":0,"soiltest_view_url":0},{"id":146171,"code":"B4KJ201801003-4420","latitude":"35.76166944","longitude":"139.8805167","source_code":"KT200483516020350015","project_name":"\u6c5f\u6238\u5ddd\u53f3\u5cb8\u5824\u9632\u5730\u8cea\u8abf\u67fb(\u305d\u306e4)\u696d\u52d9","survey_name":"\u6c5f\u6238\u5ddd\u53f3\u5cb8\u5824\u9632\u5730\u8cea\u8abf\u67fb(\u305d\u306e4)\u696d\u52d9","client_name":"\u56fd\u571f\u4ea4\u901a\u7701\u95a2\u6771\u5730\u65b9\u6574\u5099\u5c40\u6c5f\u6238\u5ddd\u6cb3\u5ddd\u4e8b\u52d9\u6240","boring_xml_url":47,"boring_view_url":1,"soilmap_view_url":null,"soiltest_xml_url":0,"soiltest_view_url":0},{"id":146170,"code":"B4KJ201801003-4419","latitude":"35.71991389","longitude":"139.8973444","source_code":"KT200483516020350007","project_name":"\u6c5f\u6238\u5ddd\u53f3\u5cb8\u5824\u9632\u5730\u8cea\u8abf\u67fb(\u305d\u306e4)\u696d\u52d9","survey_name":"\u6c5f\u6238\u5ddd\u53f3\u5cb8\u5824\u9632\u5730\u8cea\u8abf\u67fb(\u305d\u306e4)\u696d\u52d9","client_name":"\u56fd\u571f\u4ea4\u901a\u7701\u95a2\u6771\u5730\u65b9\u6574\u5099\u5c40\u6c5f\u6238\u5ddd\u6cb3\u5ddd\u4e8b\u52d9\u6240","boring_xml_url":47,"boring_view_url":1,"soilmap_view_url":null,"soiltest_xml_url":0,"soiltest_view_url":0},{"id":146169,"code":"B4KJ201801003-4418","latitude":"35.72015","longitude":"139.897725","source_code":"KT200483516020350006","project_name":"\u6c5f\u6238\u5ddd\u53f3\u5cb8\u5824\u9632\u5730\u8cea\u8abf\u67fb(\u305d\u306e4)\u696d\u52d9","survey_name":"\u6c5f\u6238\u5ddd\u53f3\u5cb8\u5824\u9632\u5730\u8cea\u8abf\u67fb(\u305d\u306e4)\u696d\u52d9","client_name":"\u56fd\u571f\u4ea4\u901a\u7701\u95a2\u6771\u5730\u65b9\u6574\u5099\u5c40\u6c5f\u6238\u5ddd\u6cb3\u5ddd\u4e8b\u52d9\u6240","boring_xml_url":47,"boring_view_url":1,"soilmap_view_url":null,"soiltest_xml_url":0,"soiltest_view_url":0},{"id":146168,"code":"B4KJ201801003-4417","latitude":"35.71345278","longitude":"139.9053917","source_code":"KT200483516020350005","project_name":"\u6c5f\u6238\u5ddd\u53f3\u5cb8\u5824\u9632\u5730\u8cea\u8abf\u67fb(\u305d\u306e4)\u696d\u52d9","survey_name":"\u6c5f\u6238\u5ddd\u53f3\u5cb8\u5824\u9632\u5730\u8cea\u8abf\u67fb(\u305d\u306e4)\u696d\u52d9","client_name":"\u56fd\u571f\u4ea4\u901a\u7701\u95a2\u6771\u5730\u65b9\u6574\u5099\u5c40\u6c5f\u6238\u5ddd\u6cb3\u5ddd\u4e8b\u52d9\u6240","boring_xml_url":47,"boring_view_url":1,"soilmap_view_url":null,"soiltest_xml_url":0,"soiltest_view_url":0},{"id":146167,"code":"B4KJ201801003-4416","latitude":"35.71376944","longitude":"139.9057806","source_code":"KT200483516020350004","project_name":"\u6c5f\u6238\u5ddd\u53f3\u5cb8\u5824\u9632\u5730\u8cea\u8abf\u67fb(\u305d\u306e4)\u696d\u52d9","survey_name":"\u6c5f\u6238\u5ddd\u53f3\u5cb8\u5824\u9632\u5730\u8cea\u8abf\u67fb(\u305d\u306e4)\u696d\u52d9","client_name":"\u56fd\u571f\u4ea4\u901a\u7701\u95a2\u6771\u5730\u65b9\u6574\u5099\u5c40\u6c5f\u6238\u5ddd\u6cb3\u5ddd\u4e8b\u52d9\u6240","boring_xml_url":47,"boring_view_url":1,"soilmap_view_url":null,"soiltest_xml_url":0,"soiltest_view_url":0},{"id":146166,"code":"B4KJ201801003-4415","latitude":"35.70403611","longitude":"139.91495","source_code":"KT200483516020350002","project_name":"\u6c5f\u6238\u5ddd\u53f3\u5cb8\u5824\u9632\u5730\u8cea\u8abf\u67fb(\u305d\u306e4)\u696d\u52d9","survey_name":"\u6c5f\u6238\u5ddd\u53f3\u5cb8\u5824\u9632\u5730\u8cea\u8abf\u67fb(\u305d\u306e4)\u696d\u52d9","client_name":"\u56fd\u571f\u4ea4\u901a\u7701\u95a2\u6771\u5730\u65b9\u6574\u5099\u5c40\u6c5f\u6238\u5ddd\u6cb3\u5ddd\u4e8b\u52d9\u6240","boring_xml_url":47,"boring_view_url":1,"soilmap_view_url":null,"soiltest_xml_url":0,"soiltest_view_url":0},{"id":146165,"code":"B4KJ201801003-4414","latitude":"35.704225","longitude":"139.915175","source_code":"KT200483516020350001","project_name":"\u6c5f\u6238\u5ddd\u53f3\u5cb8\u5824\u9632\u5730\u8cea\u8abf\u67fb(\u305d\u306e4)\u696d\u52d9","survey_name":"\u6c5f\u6238\u5ddd\u53f3\u5cb8\u5824\u9632\u5730\u8cea\u8abf\u67fb(\u305d\u306e4)\u696d\u52d9","client_name":"\u56fd\u571f\u4ea4\u901a\u7701\u95a2\u6771\u5730\u65b9\u6574\u5099\u5c40\u6c5f\u6238\u5ddd\u6cb3\u5ddd\u4e8b\u52d9\u6240","boring_xml_url":47,"boring_view_url":1,"soilmap_view_url":null,"soiltest_xml_url":0,"soiltest_view_url":0},{"id":146164,"code":"B4KJ201801003-4413","latitude":"35.82491996","longitude":"139.8539749","source_code":"KT200483516020170011","project_name":"\u4e2d\u5ddd\u5824\u9632\u8a2d\u8a08\u691c\u8a0e\u696d\u52d9","survey_name":"\u4e2d\u5ddd\u5824\u9632\u8a2d\u8a08\u691c\u8a0e\u696d\u52d9","client_name":"\u56fd\u571f\u4ea4\u901a\u7701\u95a2\u6771\u5730\u65b9\u6574\u5099\u5c40\u6c5f\u6238\u5ddd\u6cb3\u5ddd\u4e8b\u52d9\u6240","boring_xml_url":47,"boring_view_url":1,"soilmap_view_url":null,"soiltest_xml_url":0,"soiltest_view_url":0},{"id":146163,"code":"B4KJ201801003-4412","latitude":"35.77406463","longitude":"139.8561157","source_code":"KT200483516020170006","project_name":"\u4e2d\u5ddd\u5824\u9632\u8a2d\u8a08\u691c\u8a0e\u696d\u52d9","survey_name":"\u4e2d\u5ddd\u5824\u9632\u8a2d\u8a08\u691c\u8a0e\u696d\u52d9","client_name":"\u56fd\u571f\u4ea4\u901a\u7701\u95a2\u6771\u5730\u65b9\u6574\u5099\u5c40\u6c5f\u6238\u5ddd\u6cb3\u5ddd\u4e8b\u52d9\u6240","boring_xml_url":47,"boring_view_url":1,"soilmap_view_url":null,"soiltest_xml_url":50,"soiltest_view_url":50},{"id":146162,"code":"B4KJ201801003-4411","latitude":"35.78514642","longitude":"139.8454773","source_code":"KT200483516020170002","project_name":"\u4e2d\u5ddd\u5824\u9632\u8a2d\u8a08\u691c\u8a0e\u696d\u52d9","survey_name":"\u4e2d\u5ddd\u5824\u9632\u8a2d\u8a08\u691c\u8a0e\u696d\u52d9","client_name":"\u56fd\u571f\u4ea4\u901a\u7701\u95a2\u6771\u5730\u65b9\u6574\u5099\u5c40\u6c5f\u6238\u5ddd\u6cb3\u5ddd\u4e8b\u52d9\u6240","boring_xml_url":47,"boring_view_url":1,"soilmap_view_url":null,"soiltest_xml_url":50,"soiltest_view_url":50},{"id":146161,"code":"B4KJ201801003-4410","latitude":"35.79690453","longitude":"140.7395184","source_code":"KT200483506020350005","project_name":"","survey_name":"\u929a\u5b50\u5730\u5148\u4ed6\u5730\u8cea\u8abf\u67fb\u696d\u52d9","client_name":"\u56fd\u571f\u4ea4\u901a\u7701\u95a2\u6771\u5730\u65b9\u6574\u5099\u5c40\u5229\u6839\u4e0b\u6d41\u6cb3\u5ddd\u4e8b\u52d9\u6240","boring_xml_url":47,"boring_view_url":1,"soilmap_view_url":null,"soiltest_xml_url":50,"soiltest_view_url":50},{"id":146160,"code":"B4KJ201801003-4409","latitude":"35.79681961","longitude":"140.7393502","source_code":"KT200483506020350004","project_name":"","survey_name":"\u929a\u5b50\u5730\u5148\u4ed6\u5730\u8cea\u8abf\u67fb\u696d\u52d9","client_name":"\u56fd\u571f\u4ea4\u901a\u7701\u95a2\u6771\u5730\u65b9\u6574\u5099\u5c40\u5229\u6839\u4e0b\u6d41\u6cb3\u5ddd\u4e8b\u52d9\u6240","boring_xml_url":47,"boring_view_url":1,"soilmap_view_url":null,"soiltest_xml_url":50,"soiltest_view_url":50},{"id":146159,"code":"B4KJ201801003-4408","latitude":"35.8551742","longitude":"140.1358943","source_code":"KT200483506020330005","project_name":"\u5229\u6839\u5ddd\u4e0b\u6d41\u90e8\u5824\u9632\u88dc\u5f37\u5bfe\u7b56\u691c\u8a0e\u696d\u52d9","survey_name":"\u5229\u6839\u5ddd\u4e0b\u6d41\u90e8\u5824\u9632\u88dc\u5f37\u5bfe\u7b56\u691c\u8a0e\u696d\u52d9","client_name":"\u56fd\u571f\u4ea4\u901a\u7701\u95a2\u6771\u5730\u65b9\u6574\u5099\u5c40\u5229\u6839\u5ddd\u4e0b\u6d41\u6cb3\u5ddd\u4e8b\u52d9\u6240","boring_xml_url":47,"boring_view_url":1,"soilmap_view_url":null,"soiltest_xml_url":0,"soiltest_view_url":0},{"id":146158,"code":"B4KJ201801003-4407","latitude":"35.85517422","longitude":"140.1364498","source_code":"KT200483506020330004","project_name":"\u5229\u6839\u5ddd\u4e0b\u6d41\u90e8\u5824\u9632\u88dc\u5f37\u5bfe\u7b56\u691c\u8a0e\u696d\u52d9","survey_name":"\u5229\u6839\u5ddd\u4e0b\u6d41\u90e8\u5824\u9632\u88dc\u5f37\u5bfe\u7b56\u691c\u8a0e\u696d\u52d9","client_name":"\u56fd\u571f\u4ea4\u901a\u7701\u95a2\u6771\u5730\u65b9\u6574\u5099\u5c40\u5229\u6839\u5ddd\u4e0b\u6d41\u6cb3\u5ddd\u4e8b\u52d9\u6240","boring_xml_url":47,"boring_view_url":1,"soilmap_view_url":null,"soiltest_xml_url":0,"soiltest_view_url":0},{"id":146157,"code":"B4KJ201801003-4406","latitude":"35.85517421","longitude":"140.136172","source_code":"KT200483506020330003","project_name":"\u5229\u6839\u5ddd\u4e0b\u6d41\u90e8\u5824\u9632\u88dc\u5f37\u5bfe\u7b56\u691c\u8a0e\u696d\u52d9","survey_name":"\u5229\u6839\u5ddd\u4e0b\u6d41\u90e8\u5824\u9632\u88dc\u5f37\u5bfe\u7b56\u691c\u8a0e\u696d\u52d9","client_name":"\u56fd\u571f\u4ea4\u901a\u7701\u95a2\u6771\u5730\u65b9\u6574\u5099\u5c40\u5229\u6839\u5ddd\u4e0b\u6d41\u6cb3\u5ddd\u4e8b\u52d9\u6240","boring_xml_url":47,"boring_view_url":1,"soilmap_view_url":null,"soiltest_xml_url":0,"soiltest_view_url":0},{"id":146156,"code":"B4KJ201801003-4405","latitude":"35.85378553","longitude":"140.1381163","source_code":"KT200483506020330002","project_name":"\u5229\u6839\u5ddd\u4e0b\u6d41\u90e8\u5824\u9632\u88dc\u5f37\u5bfe\u7b56\u691c\u8a0e\u696d\u52d9","survey_name":"\u5229\u6839\u5ddd\u4e0b\u6d41\u90e8\u5824\u9632\u88dc\u5f37\u5bfe\u7b56\u691c\u8a0e\u696d\u52d9","client_name":"\u56fd\u571f\u4ea4\u901a\u7701\u95a2\u6771\u5730\u65b9\u6574\u5099\u5c40\u5229\u6839\u5ddd\u4e0b\u6d41\u6cb3\u5ddd\u4e8b\u52d9\u6240","boring_xml_url":47,"boring_view_url":1,"soilmap_view_url":null,"soiltest_xml_url":0,"soiltest_view_url":0}]}}