{"header":{"xyz":{"source":[],"mosaic":false},"page":5817,"raw":{"soiltest_result":"0","bbox":"57.598333,109.544722,1.933333,163.806111","page":"5817"},"conditions":{"soiltest_result":0,"north":57.598333,"west":109.544722,"south":1.933333,"east":163.806111},"success":true,"message":""},"data":{"meta":{"total":212844,"page":5817,"pages":7095,"count":30},"values":[{"id":146065,"code":"B4KJ201801003-4314","latitude":"36.19506403","longitude":"139.5369868","source_code":"KT200483456020390002","project_name":"\u5ddd\u4fe3\u5730\u8cea\u8abf\u67fb(\u305d\u306e1)\u696d\u52d9","survey_name":"\u5ddd\u4fe3\u5730\u8cea\u8abf\u67fb(\u305d\u306e1)\u696d\u52d9","client_name":"\u56fd\u571f\u4ea4\u901a\u7701\u95a2\u6771\u5730\u65b9\u6574\u5099\u5c40\u5229\u6839\u5ddd\u4e0a\u6d41\u6cb3\u5ddd\u4e8b\u52d9\u6240","boring_xml_url":47,"boring_view_url":1,"soilmap_view_url":null,"soiltest_xml_url":50,"soiltest_view_url":50},{"id":146064,"code":"B4KJ201801003-4313","latitude":"36.19539733","longitude":"139.5368479","source_code":"KT200483456020390001","project_name":"\u5ddd\u4fe3\u5730\u8cea\u8abf\u67fb(\u305d\u306e1)\u696d\u52d9","survey_name":"\u5ddd\u4fe3\u5730\u8cea\u8abf\u67fb(\u305d\u306e1)\u696d\u52d9","client_name":"\u56fd\u571f\u4ea4\u901a\u7701\u95a2\u6771\u5730\u65b9\u6574\u5099\u5c40\u5229\u6839\u5ddd\u4e0a\u6d41\u6cb3\u5ddd\u4e8b\u52d9\u6240","boring_xml_url":47,"boring_view_url":1,"soilmap_view_url":null,"soiltest_xml_url":50,"soiltest_view_url":50},{"id":146063,"code":"B4KJ201801003-4312","latitude":"36.14777778","longitude":"139.7077778","source_code":"KT200483456020330020","project_name":"\u6817\u6a4b\u5730\u8cea\u8abf\u67fb(\u305d\u306e1)\u696d\u52d9","survey_name":"\u6817\u6a4b\u5730\u8cea\u8abf\u67fb(\u305d\u306e1)\u696d\u52d9","client_name":"\u56fd\u571f\u4ea4\u901a\u7701\u95a2\u6771\u5730\u65b9\u6574\u5099\u5c40\u5229\u6839\u5ddd\u4e0a\u6d41\u6cb3\u5ddd\u4e8b\u52d9\u6240","boring_xml_url":47,"boring_view_url":1,"soilmap_view_url":null,"soiltest_xml_url":0,"soiltest_view_url":0},{"id":146062,"code":"B4KJ201801003-4311","latitude":"36.1475","longitude":"139.7075","source_code":"KT200483456020330019","project_name":"\u6817\u6a4b\u5730\u8cea\u8abf\u67fb(\u305d\u306e1)\u696d\u52d9","survey_name":"\u6817\u6a4b\u5730\u8cea\u8abf\u67fb(\u305d\u306e1)\u696d\u52d9","client_name":"\u56fd\u571f\u4ea4\u901a\u7701\u95a2\u6771\u5730\u65b9\u6574\u5099\u5c40\u5229\u6839\u5ddd\u4e0a\u6d41\u6cb3\u5ddd\u4e8b\u52d9\u6240","boring_xml_url":47,"boring_view_url":1,"soilmap_view_url":null,"soiltest_xml_url":0,"soiltest_view_url":0},{"id":146061,"code":"B4KJ201801003-4310","latitude":"36.1475","longitude":"139.7072222","source_code":"KT200483456020330018","project_name":"\u6817\u6a4b\u5730\u8cea\u8abf\u67fb(\u305d\u306e1)\u696d\u52d9","survey_name":"\u6817\u6a4b\u5730\u8cea\u8abf\u67fb(\u305d\u306e1)\u696d\u52d9","client_name":"\u56fd\u571f\u4ea4\u901a\u7701\u95a2\u6771\u5730\u65b9\u6574\u5099\u5c40\u5229\u6839\u5ddd\u4e0a\u6d41\u6cb3\u5ddd\u4e8b\u52d9\u6240","boring_xml_url":47,"boring_view_url":1,"soilmap_view_url":null,"soiltest_xml_url":0,"soiltest_view_url":0},{"id":146060,"code":"B4KJ201801003-4309","latitude":"36.14388889","longitude":"139.7113889","source_code":"KT200483456020330017","project_name":"\u6817\u6a4b\u5730\u8cea\u8abf\u67fb(\u305d\u306e1)\u696d\u52d9","survey_name":"\u6817\u6a4b\u5730\u8cea\u8abf\u67fb(\u305d\u306e1)\u696d\u52d9","client_name":"\u56fd\u571f\u4ea4\u901a\u7701\u95a2\u6771\u5730\u65b9\u6574\u5099\u5c40\u5229\u6839\u5ddd\u4e0a\u6d41\u6cb3\u5ddd\u4e8b\u52d9\u6240","boring_xml_url":47,"boring_view_url":1,"soilmap_view_url":null,"soiltest_xml_url":0,"soiltest_view_url":0},{"id":146059,"code":"B4KJ201801003-4308","latitude":"36.14388889","longitude":"139.7111111","source_code":"KT200483456020330016","project_name":"\u6817\u6a4b\u5730\u8cea\u8abf\u67fb(\u305d\u306e1)\u696d\u52d9","survey_name":"\u6817\u6a4b\u5730\u8cea\u8abf\u67fb(\u305d\u306e1)\u696d\u52d9","client_name":"\u56fd\u571f\u4ea4\u901a\u7701\u95a2\u6771\u5730\u65b9\u6574\u5099\u5c40\u5229\u6839\u5ddd\u4e0a\u6d41\u6cb3\u5ddd\u4e8b\u52d9\u6240","boring_xml_url":47,"boring_view_url":1,"soilmap_view_url":null,"soiltest_xml_url":0,"soiltest_view_url":0},{"id":146058,"code":"B4KJ201801003-4307","latitude":"36.14388889","longitude":"139.7108333","source_code":"KT200483456020330015","project_name":"\u6817\u6a4b\u5730\u8cea\u8abf\u67fb(\u305d\u306e1)\u696d\u52d9","survey_name":"\u6817\u6a4b\u5730\u8cea\u8abf\u67fb(\u305d\u306e1)\u696d\u52d9","client_name":"\u56fd\u571f\u4ea4\u901a\u7701\u95a2\u6771\u5730\u65b9\u6574\u5099\u5c40\u5229\u6839\u5ddd\u4e0a\u6d41\u6cb3\u5ddd\u4e8b\u52d9\u6240","boring_xml_url":47,"boring_view_url":1,"soilmap_view_url":null,"soiltest_xml_url":0,"soiltest_view_url":0},{"id":146057,"code":"B4KJ201801003-4306","latitude":"36.14027778","longitude":"139.7155556","source_code":"KT200483456020330014","project_name":"\u6817\u6a4b\u5730\u8cea\u8abf\u67fb(\u305d\u306e1)\u696d\u52d9","survey_name":"\u6817\u6a4b\u5730\u8cea\u8abf\u67fb(\u305d\u306e1)\u696d\u52d9","client_name":"\u56fd\u571f\u4ea4\u901a\u7701\u95a2\u6771\u5730\u65b9\u6574\u5099\u5c40\u5229\u6839\u5ddd\u4e0a\u6d41\u6cb3\u5ddd\u4e8b\u52d9\u6240","boring_xml_url":47,"boring_view_url":1,"soilmap_view_url":null,"soiltest_xml_url":0,"soiltest_view_url":0},{"id":146056,"code":"B4KJ201801003-4305","latitude":"36.14027778","longitude":"139.7152778","source_code":"KT200483456020330013","project_name":"\u6817\u6a4b\u5730\u8cea\u8abf\u67fb(\u305d\u306e1)\u696d\u52d9","survey_name":"\u6817\u6a4b\u5730\u8cea\u8abf\u67fb(\u305d\u306e1)\u696d\u52d9","client_name":"\u56fd\u571f\u4ea4\u901a\u7701\u95a2\u6771\u5730\u65b9\u6574\u5099\u5c40\u5229\u6839\u5ddd\u4e0a\u6d41\u6cb3\u5ddd\u4e8b\u52d9\u6240","boring_xml_url":47,"boring_view_url":1,"soilmap_view_url":null,"soiltest_xml_url":0,"soiltest_view_url":0},{"id":146055,"code":"B4KJ201801003-4304","latitude":"36.14027778","longitude":"139.715","source_code":"KT200483456020330012","project_name":"\u6817\u6a4b\u5730\u8cea\u8abf\u67fb(\u305d\u306e1)\u696d\u52d9","survey_name":"\u6817\u6a4b\u5730\u8cea\u8abf\u67fb(\u305d\u306e1)\u696d\u52d9","client_name":"\u56fd\u571f\u4ea4\u901a\u7701\u95a2\u6771\u5730\u65b9\u6574\u5099\u5c40\u5229\u6839\u5ddd\u4e0a\u6d41\u6cb3\u5ddd\u4e8b\u52d9\u6240","boring_xml_url":47,"boring_view_url":1,"soilmap_view_url":null,"soiltest_xml_url":0,"soiltest_view_url":0},{"id":146054,"code":"B4KJ201801003-4303","latitude":"36.13472222","longitude":"139.7086111","source_code":"KT200483456020330011","project_name":"\u6817\u6a4b\u5730\u8cea\u8abf\u67fb(\u305d\u306e1)\u696d\u52d9","survey_name":"\u6817\u6a4b\u5730\u8cea\u8abf\u67fb(\u305d\u306e1)\u696d\u52d9","client_name":"\u56fd\u571f\u4ea4\u901a\u7701\u95a2\u6771\u5730\u65b9\u6574\u5099\u5c40\u5229\u6839\u5ddd\u4e0a\u6d41\u6cb3\u5ddd\u4e8b\u52d9\u6240","boring_xml_url":47,"boring_view_url":1,"soilmap_view_url":null,"soiltest_xml_url":0,"soiltest_view_url":0},{"id":146053,"code":"B4KJ201801003-4302","latitude":"36.135","longitude":"139.7086111","source_code":"KT200483456020330010","project_name":"\u6817\u6a4b\u5730\u8cea\u8abf\u67fb(\u305d\u306e1)\u696d\u52d9","survey_name":"\u6817\u6a4b\u5730\u8cea\u8abf\u67fb(\u305d\u306e1)\u696d\u52d9","client_name":"\u56fd\u571f\u4ea4\u901a\u7701\u95a2\u6771\u5730\u65b9\u6574\u5099\u5c40\u5229\u6839\u5ddd\u4e0a\u6d41\u6cb3\u5ddd\u4e8b\u52d9\u6240","boring_xml_url":47,"boring_view_url":1,"soilmap_view_url":null,"soiltest_xml_url":0,"soiltest_view_url":0},{"id":146052,"code":"B4KJ201801003-4301","latitude":"36.12222222","longitude":"139.755","source_code":"KT200483456020330009","project_name":"\u6817\u6a4b\u5730\u8cea\u8abf\u67fb(\u305d\u306e1)\u696d\u52d9","survey_name":"\u6817\u6a4b\u5730\u8cea\u8abf\u67fb(\u305d\u306e1)\u696d\u52d9","client_name":"\u56fd\u571f\u4ea4\u901a\u7701\u95a2\u6771\u5730\u65b9\u6574\u5099\u5c40\u5229\u6839\u5ddd\u4e0a\u6d41\u6cb3\u5ddd\u4e8b\u52d9\u6240","boring_xml_url":47,"boring_view_url":1,"soilmap_view_url":null,"soiltest_xml_url":0,"soiltest_view_url":0},{"id":146051,"code":"B4KJ201801003-4300","latitude":"36.1225","longitude":"139.7552778","source_code":"KT200483456020330008","project_name":"\u6817\u6a4b\u5730\u8cea\u8abf\u67fb(\u305d\u306e1)\u696d\u52d9","survey_name":"\u6817\u6a4b\u5730\u8cea\u8abf\u67fb(\u305d\u306e1)\u696d\u52d9","client_name":"\u56fd\u571f\u4ea4\u901a\u7701\u95a2\u6771\u5730\u65b9\u6574\u5099\u5c40\u5229\u6839\u5ddd\u4e0a\u6d41\u6cb3\u5ddd\u4e8b\u52d9\u6240","boring_xml_url":47,"boring_view_url":1,"soilmap_view_url":null,"soiltest_xml_url":0,"soiltest_view_url":0},{"id":146050,"code":"B4KJ201801003-4299","latitude":"36.1225","longitude":"139.7555556","source_code":"KT200483456020330007","project_name":"\u6817\u6a4b\u5730\u8cea\u8abf\u67fb(\u305d\u306e1)\u696d\u52d9","survey_name":"\u6817\u6a4b\u5730\u8cea\u8abf\u67fb(\u305d\u306e1)\u696d\u52d9","client_name":"\u56fd\u571f\u4ea4\u901a\u7701\u95a2\u6771\u5730\u65b9\u6574\u5099\u5c40\u5229\u6839\u5ddd\u4e0a\u6d41\u6cb3\u5ddd\u4e8b\u52d9\u6240","boring_xml_url":47,"boring_view_url":1,"soilmap_view_url":null,"soiltest_xml_url":50,"soiltest_view_url":50},{"id":146049,"code":"B4KJ201801003-4298","latitude":"36.12361111","longitude":"139.7533333","source_code":"KT200483456020330006","project_name":"\u6817\u6a4b\u5730\u8cea\u8abf\u67fb(\u305d\u306e1)\u696d\u52d9","survey_name":"\u6817\u6a4b\u5730\u8cea\u8abf\u67fb(\u305d\u306e1)\u696d\u52d9","client_name":"\u56fd\u571f\u4ea4\u901a\u7701\u95a2\u6771\u5730\u65b9\u6574\u5099\u5c40\u5229\u6839\u5ddd\u4e0a\u6d41\u6cb3\u5ddd\u4e8b\u52d9\u6240","boring_xml_url":47,"boring_view_url":1,"soilmap_view_url":null,"soiltest_xml_url":50,"soiltest_view_url":50},{"id":146048,"code":"B4KJ201801003-4297","latitude":"36.12361111","longitude":"139.7536111","source_code":"KT200483456020330005","project_name":"\u6817\u6a4b\u5730\u8cea\u8abf\u67fb(\u305d\u306e1)\u696d\u52d9","survey_name":"\u6817\u6a4b\u5730\u8cea\u8abf\u67fb(\u305d\u306e1)\u696d\u52d9","client_name":"\u56fd\u571f\u4ea4\u901a\u7701\u95a2\u6771\u5730\u65b9\u6574\u5099\u5c40\u5229\u6839\u5ddd\u4e0a\u6d41\u6cb3\u5ddd\u4e8b\u52d9\u6240","boring_xml_url":47,"boring_view_url":1,"soilmap_view_url":null,"soiltest_xml_url":50,"soiltest_view_url":50},{"id":146047,"code":"B4KJ201801003-4296","latitude":"35.78861","longitude":"139.70889","source_code":"KT200483456020330004","project_name":"\u6817\u6a4b\u5730\u8cea\u8abf\u67fb(\u305d\u306e1)\u696d\u52d9","survey_name":"\u5e73\u621016\u5e74\u5ea6 \u5317\u8d64\u7fbd\u5730\u533a(\u65e5\u8208\u5de5\u533a)\u5730\u8cea\u8abf\u67fb\u696d\u52d9","client_name":"\u56fd\u571f\u4ea4\u901a\u7701\u95a2\u6771\u5730\u65b9\u6574\u5099\u5c40\u8352\u5ddd\u4e0b\u6d41\u6cb3\u5ddd\u4e8b\u52d9\u6240","boring_xml_url":47,"boring_view_url":1,"soilmap_view_url":null,"soiltest_xml_url":50,"soiltest_view_url":50},{"id":146046,"code":"B4KJ201801003-4295","latitude":"35.78861","longitude":"139.70972","source_code":"KT200483456020330003","project_name":"\u6817\u6a4b\u5730\u8cea\u8abf\u67fb(\u305d\u306e1)\u696d\u52d9","survey_name":"\u5e73\u621016\u5e74\u5ea6 \u5317\u8d64\u7fbd\u5730\u533a(\u65e5\u8208\u5de5\u533a)\u5730\u8cea\u8abf\u67fb\u696d\u52d9","client_name":"\u56fd\u571f\u4ea4\u901a\u7701\u95a2\u6771\u5730\u65b9\u6574\u5099\u5c40\u8352\u5ddd\u4e0b\u6d41\u6cb3\u5ddd\u4e8b\u52d9\u6240","boring_xml_url":47,"boring_view_url":1,"soilmap_view_url":null,"soiltest_xml_url":50,"soiltest_view_url":50},{"id":146045,"code":"B4KJ201801003-4294","latitude":"35.78861","longitude":"139.71139","source_code":"KT200483456020330002","project_name":"\u6817\u6a4b\u5730\u8cea\u8abf\u67fb(\u305d\u306e1)\u696d\u52d9","survey_name":"\u5e73\u621016\u5e74\u5ea6 \u5317\u8d64\u7fbd\u5730\u533a(\u65e5\u8208\u5de5\u533a)\u5730\u8cea\u8abf\u67fb\u696d\u52d9","client_name":"\u56fd\u571f\u4ea4\u901a\u7701\u95a2\u6771\u5730\u65b9\u6574\u5099\u5c40\u8352\u5ddd\u4e0b\u6d41\u6cb3\u5ddd\u4e8b\u52d9\u6240","boring_xml_url":47,"boring_view_url":1,"soilmap_view_url":null,"soiltest_xml_url":50,"soiltest_view_url":50},{"id":146044,"code":"B4KJ201801003-4293","latitude":"35.78917","longitude":"139.71139","source_code":"KT200483456020330001","project_name":"\u6817\u6a4b\u5730\u8cea\u8abf\u67fb(\u305d\u306e1)\u696d\u52d9","survey_name":"\u5e73\u621016\u5e74\u5ea6 \u5317\u8d64\u7fbd\u5730\u533a(\u65e5\u8208\u5de5\u533a)\u5730\u8cea\u8abf\u67fb\u696d\u52d9","client_name":"\u56fd\u571f\u4ea4\u901a\u7701\u95a2\u6771\u5730\u65b9\u6574\u5099\u5c40\u8352\u5ddd\u4e0b\u6d41\u6cb3\u5ddd\u4e8b\u52d9\u6240","boring_xml_url":47,"boring_view_url":1,"soilmap_view_url":null,"soiltest_xml_url":50,"soiltest_view_url":50},{"id":146043,"code":"B4KJ201801003-4292","latitude":"36.55486111","longitude":"138.7165278","source_code":"KT200483426020270001","project_name":"X:62143.555\u3001Y:-99977.210","survey_name":"H16\u30c0\u30e0\u30b5\u30a4\u30c8\u5730\u8cea\u8abf\u67fb(\u305d\u306e2)","client_name":"\u56fd\u571f\u4ea4\u901a\u7701\u95a2\u6771\u5730\u65b9\u6574\u5099\u5c40\u516b\u30c3\u5834\u30c0\u30e0\u5de5\u4e8b\u4e8b\u52d9\u6240","boring_xml_url":47,"boring_view_url":1,"soilmap_view_url":null,"soiltest_xml_url":0,"soiltest_view_url":0},{"id":146042,"code":"B4KJ201801003-4291","latitude":"36.28869444","longitude":"139.5703056","source_code":"KT200483356020160016","project_name":"","survey_name":"\u7ba1\u5185\u5730\u8cea\u8abf\u67fb(\u79cb\u5c71\u5ddd\u6a4b)","client_name":"\u56fd\u571f\u4ea4\u901a\u7701\u95a2\u6771\u5730\u65b9\u6574\u5099\u5c40\u5b87\u90fd\u5bae\u56fd\u9053\u4e8b\u52d9\u6240","boring_xml_url":47,"boring_view_url":1,"soilmap_view_url":null,"soiltest_xml_url":0,"soiltest_view_url":0},{"id":146041,"code":"B4KJ201801003-4290","latitude":"36.28902778","longitude":"139.5528889","source_code":"KT200483356020160015","project_name":"","survey_name":"\u7ba1\u5185\u5730\u8cea\u8abf\u67fb(\u624d\u5ddd\u6a4b)","client_name":"\u56fd\u571f\u4ea4\u901a\u7701\u95a2\u6771\u5730\u65b9\u6574\u5099\u5c40\u5b87\u90fd\u5bae\u56fd\u9053\u4e8b\u52d9\u6240","boring_xml_url":47,"boring_view_url":1,"soilmap_view_url":null,"soiltest_xml_url":0,"soiltest_view_url":0},{"id":146040,"code":"B4KJ201801003-4289","latitude":"36.29213889","longitude":"139.49075","source_code":"KT200483356020160014","project_name":"","survey_name":"\u7ba1\u5185\u5730\u8cea\u8abf\u67fb(\u59e5\u5ddd\u6a4b)","client_name":"\u56fd\u571f\u4ea4\u901a\u7701\u95a2\u6771\u5730\u65b9\u6574\u5099\u5c40\u5b87\u90fd\u5bae\u56fd\u9053\u4e8b\u52d9\u6240","boring_xml_url":47,"boring_view_url":1,"soilmap_view_url":null,"soiltest_xml_url":0,"soiltest_view_url":0},{"id":146039,"code":"B4KJ201801003-4288","latitude":"36.29127778","longitude":"139.9123056","source_code":"KT200483356020160013","project_name":"","survey_name":"\u7ba1\u5185\u5730\u8cea\u8abf\u67fb(\u65b0\u5ddd\u5cf6\u6a4b)","client_name":"\u56fd\u571f\u4ea4\u901a\u7701\u95a2\u6771\u5730\u65b9\u6574\u5099\u5c40\u5b87\u90fd\u5bae\u56fd\u9053\u4e8b\u52d9\u6240","boring_xml_url":47,"boring_view_url":1,"soilmap_view_url":null,"soiltest_xml_url":0,"soiltest_view_url":0},{"id":146038,"code":"B4KJ201801003-4287","latitude":"36.29191667","longitude":"139.9061389","source_code":"KT200483356020160012","project_name":"","survey_name":"\u7ba1\u5185\u5730\u8cea\u8abf\u67fb(\u65b0\u5ddd\u5cf6\u6a4b)","client_name":"\u56fd\u571f\u4ea4\u901a\u7701\u95a2\u6771\u5730\u65b9\u6574\u5099\u5c40\u5b87\u90fd\u5bae\u56fd\u9053\u4e8b\u52d9\u6240","boring_xml_url":47,"boring_view_url":1,"soilmap_view_url":null,"soiltest_xml_url":0,"soiltest_view_url":0},{"id":146037,"code":"B4KJ201801003-4286","latitude":"36.29202778","longitude":"139.9055","source_code":"KT200483356020160011","project_name":"","survey_name":"\u7ba1\u5185\u5730\u8cea\u8abf\u67fb(\u65b0\u5ddd\u5cf6\u6a4b)","client_name":"\u56fd\u571f\u4ea4\u901a\u7701\u95a2\u6771\u5730\u65b9\u6574\u5099\u5c40\u5b87\u90fd\u5bae\u56fd\u9053\u4e8b\u52d9\u6240","boring_xml_url":47,"boring_view_url":1,"soilmap_view_url":null,"soiltest_xml_url":0,"soiltest_view_url":0},{"id":146036,"code":"B4KJ201801003-4285","latitude":"36.29205556","longitude":"139.9047778","source_code":"KT200483356020160010","project_name":"","survey_name":"\u7ba1\u5185\u5730\u8cea\u8abf\u67fb(\u65b0\u5ddd\u5cf6\u6a4b)","client_name":"\u56fd\u571f\u4ea4\u901a\u7701\u95a2\u6771\u5730\u65b9\u6574\u5099\u5c40\u5b87\u90fd\u5bae\u56fd\u9053\u4e8b\u52d9\u6240","boring_xml_url":47,"boring_view_url":1,"soilmap_view_url":null,"soiltest_xml_url":0,"soiltest_view_url":0}]}}