{"header":{"xyz":{"source":[],"mosaic":false},"page":5825,"raw":{"soiltest_result":"0","bbox":"57.598333,109.544722,1.933333,163.806111","page":"5825"},"conditions":{"soiltest_result":0,"north":57.598333,"west":109.544722,"south":1.933333,"east":163.806111},"success":true,"message":""},"data":{"meta":{"total":212844,"page":5825,"pages":7095,"count":30},"values":[{"id":145825,"code":"B4KJ201801003-4074","latitude":"36.58366667","longitude":"139.0545972","source_code":"KT200383406020250015","project_name":"","survey_name":"\u7dbe\u6238\u30d0\u30a4\u30d1\u30b9\u5730\u8cea\u8abf\u67fb","client_name":"\u56fd\u571f\u4ea4\u901a\u7701\u95a2\u6771\u5730\u65b9\u6574\u5099\u5c40\u9ad8\u5d0e\u6cb3\u5ddd\u56fd\u9053\u4e8b\u52d9\u6240","boring_xml_url":47,"boring_view_url":1,"soilmap_view_url":null,"soiltest_xml_url":0,"soiltest_view_url":0},{"id":145824,"code":"B4KJ201801003-4073","latitude":"36.58384722","longitude":"139.054175","source_code":"KT200383406020250014","project_name":"","survey_name":"\u7dbe\u6238\u30d0\u30a4\u30d1\u30b9\u5730\u8cea\u8abf\u67fb","client_name":"\u56fd\u571f\u4ea4\u901a\u7701\u95a2\u6771\u5730\u65b9\u6574\u5099\u5c40\u9ad8\u5d0e\u6cb3\u5ddd\u56fd\u9053\u4e8b\u52d9\u6240","boring_xml_url":47,"boring_view_url":1,"soilmap_view_url":null,"soiltest_xml_url":0,"soiltest_view_url":0},{"id":145823,"code":"B4KJ201801003-4072","latitude":"36.57845","longitude":"139.0512556","source_code":"KT200383406020250013","project_name":"","survey_name":"\u7dbe\u6238\u30d0\u30a4\u30d1\u30b9\u5730\u8cea\u8abf\u67fb","client_name":"\u56fd\u571f\u4ea4\u901a\u7701\u95a2\u6771\u5730\u65b9\u6574\u5099\u5c40\u9ad8\u5d0e\u6cb3\u5ddd\u56fd\u9053\u4e8b\u52d9\u6240","boring_xml_url":47,"boring_view_url":1,"soilmap_view_url":null,"soiltest_xml_url":0,"soiltest_view_url":0},{"id":145822,"code":"B4KJ201801003-4071","latitude":"36.57721944","longitude":"139.0490083","source_code":"KT200383406020250012","project_name":"","survey_name":"\u7dbe\u6238\u30d0\u30a4\u30d1\u30b9\u5730\u8cea\u8abf\u67fb","client_name":"\u56fd\u571f\u4ea4\u901a\u7701\u95a2\u6771\u5730\u65b9\u6574\u5099\u5c40\u9ad8\u5d0e\u6cb3\u5ddd\u56fd\u9053\u4e8b\u52d9\u6240","boring_xml_url":47,"boring_view_url":1,"soilmap_view_url":null,"soiltest_xml_url":0,"soiltest_view_url":0},{"id":145821,"code":"B4KJ201801003-4070","latitude":"36.57859167","longitude":"139.0508639","source_code":"KT200383406020250011","project_name":"","survey_name":"\u7dbe\u6238\u30d0\u30a4\u30d1\u30b9\u5730\u8cea\u8abf\u67fb","client_name":"\u56fd\u571f\u4ea4\u901a\u7701\u95a2\u6771\u5730\u65b9\u6574\u5099\u5c40\u9ad8\u5d0e\u6cb3\u5ddd\u56fd\u9053\u4e8b\u52d9\u6240","boring_xml_url":47,"boring_view_url":1,"soilmap_view_url":null,"soiltest_xml_url":0,"soiltest_view_url":0},{"id":145820,"code":"B4KJ201801003-4069","latitude":"36.57843333","longitude":"139.0505278","source_code":"KT200383406020250010","project_name":"","survey_name":"\u7dbe\u6238\u30d0\u30a4\u30d1\u30b9\u5730\u8cea\u8abf\u67fb","client_name":"\u56fd\u571f\u4ea4\u901a\u7701\u95a2\u6771\u5730\u65b9\u6574\u5099\u5c40\u9ad8\u5d0e\u6cb3\u5ddd\u56fd\u9053\u4e8b\u52d9\u6240","boring_xml_url":47,"boring_view_url":1,"soilmap_view_url":null,"soiltest_xml_url":0,"soiltest_view_url":0},{"id":145819,"code":"B4KJ201801003-4068","latitude":"36.57756944","longitude":"139.0489722","source_code":"KT200383406020250009","project_name":"","survey_name":"\u7dbe\u6238\u30d0\u30a4\u30d1\u30b9\u5730\u8cea\u8abf\u67fb","client_name":"\u56fd\u571f\u4ea4\u901a\u7701\u95a2\u6771\u5730\u65b9\u6574\u5099\u5c40\u9ad8\u5d0e\u6cb3\u5ddd\u56fd\u9053\u4e8b\u52d9\u6240","boring_xml_url":47,"boring_view_url":1,"soilmap_view_url":null,"soiltest_xml_url":0,"soiltest_view_url":0},{"id":145818,"code":"B4KJ201801003-4067","latitude":"36.733275","longitude":"139.0543583","source_code":"KT200383406020250008","project_name":"","survey_name":"\u7dbe\u6238\u30d0\u30a4\u30d1\u30b9\u5730\u8cea\u8abf\u67fb","client_name":"\u56fd\u571f\u4ea4\u901a\u7701\u95a2\u6771\u5730\u65b9\u6574\u5099\u5c40\u9ad8\u5d0e\u6cb3\u5ddd\u56fd\u9053\u4e8b\u52d9\u6240","boring_xml_url":47,"boring_view_url":1,"soilmap_view_url":null,"soiltest_xml_url":0,"soiltest_view_url":0},{"id":145817,"code":"B4KJ201801003-4066","latitude":"36.57880556","longitude":"139.0518111","source_code":"KT200383406020250007","project_name":"","survey_name":"\u7dbe\u6238\u30d0\u30a4\u30d1\u30b9\u5730\u8cea\u8abf\u67fb","client_name":"\u56fd\u571f\u4ea4\u901a\u7701\u95a2\u6771\u5730\u65b9\u6574\u5099\u5c40\u9ad8\u5d0e\u6cb3\u5ddd\u56fd\u9053\u4e8b\u52d9\u6240","boring_xml_url":47,"boring_view_url":1,"soilmap_view_url":null,"soiltest_xml_url":0,"soiltest_view_url":0},{"id":145816,"code":"B4KJ201801003-4065","latitude":"36.58351944","longitude":"139.0539361","source_code":"KT200383406020250006","project_name":"","survey_name":"\u7dbe\u6238\u30d0\u30a4\u30d1\u30b9\u5730\u8cea\u8abf\u67fb","client_name":"\u56fd\u571f\u4ea4\u901a\u7701\u95a2\u6771\u5730\u65b9\u6574\u5099\u5c40\u9ad8\u5d0e\u6cb3\u5ddd\u56fd\u9053\u4e8b\u52d9\u6240","boring_xml_url":47,"boring_view_url":1,"soilmap_view_url":null,"soiltest_xml_url":0,"soiltest_view_url":0},{"id":145815,"code":"B4KJ201801003-4064","latitude":"36.57918333","longitude":"139.0516389","source_code":"KT200383406020250005","project_name":"","survey_name":"\u7dbe\u6238\u30d0\u30a4\u30d1\u30b9\u5730\u8cea\u8abf\u67fb","client_name":"\u56fd\u571f\u4ea4\u901a\u7701\u95a2\u6771\u5730\u65b9\u6574\u5099\u5c40\u9ad8\u5d0e\u6cb3\u5ddd\u56fd\u9053\u4e8b\u52d9\u6240","boring_xml_url":47,"boring_view_url":1,"soilmap_view_url":null,"soiltest_xml_url":0,"soiltest_view_url":0},{"id":145814,"code":"B4KJ201801003-4063","latitude":"36.5772","longitude":"139.0489944","source_code":"KT200383406020250004","project_name":"","survey_name":"\u7dbe\u6238\u30d0\u30a4\u30d1\u30b9\u5730\u8cea\u8abf\u67fb","client_name":"\u56fd\u571f\u4ea4\u901a\u7701\u95a2\u6771\u5730\u65b9\u6574\u5099\u5c40\u9ad8\u5d0e\u6cb3\u5ddd\u56fd\u9053\u4e8b\u52d9\u6240","boring_xml_url":47,"boring_view_url":1,"soilmap_view_url":null,"soiltest_xml_url":0,"soiltest_view_url":0},{"id":145813,"code":"B4KJ201801003-4062","latitude":"36.57745278","longitude":"139.0487944","source_code":"KT200383406020250003","project_name":"","survey_name":"\u7dbe\u6238\u30d0\u30a4\u30d1\u30b9\u5730\u8cea\u8abf\u67fb","client_name":"\u56fd\u571f\u4ea4\u901a\u7701\u95a2\u6771\u5730\u65b9\u6574\u5099\u5c40\u9ad8\u5d0e\u6cb3\u5ddd\u56fd\u9053\u4e8b\u52d9\u6240","boring_xml_url":47,"boring_view_url":1,"soilmap_view_url":null,"soiltest_xml_url":0,"soiltest_view_url":0},{"id":145812,"code":"B4KJ201801003-4061","latitude":"36.57724444","longitude":"139.0486083","source_code":"KT200383406020250002","project_name":"","survey_name":"\u7dbe\u6238\u30d0\u30a4\u30d1\u30b9\u5730\u8cea\u8abf\u67fb","client_name":"\u56fd\u571f\u4ea4\u901a\u7701\u95a2\u6771\u5730\u65b9\u6574\u5099\u5c40\u9ad8\u5d0e\u6cb3\u5ddd\u56fd\u9053\u4e8b\u52d9\u6240","boring_xml_url":47,"boring_view_url":1,"soilmap_view_url":null,"soiltest_xml_url":0,"soiltest_view_url":0},{"id":145811,"code":"B4KJ201801003-4060","latitude":"36.57348611","longitude":"139.0444583","source_code":"KT200383406020250001","project_name":"","survey_name":"\u7dbe\u6238\u30d0\u30a4\u30d1\u30b9\u5730\u8cea\u8abf\u67fb","client_name":"\u56fd\u571f\u4ea4\u901a\u7701\u95a2\u6771\u5730\u65b9\u6574\u5099\u5c40\u9ad8\u5d0e\u6cb3\u5ddd\u56fd\u9053\u4e8b\u52d9\u6240","boring_xml_url":47,"boring_view_url":1,"soilmap_view_url":null,"soiltest_xml_url":0,"soiltest_view_url":0},{"id":145810,"code":"B4KJ201801003-4059","latitude":"36.12488889","longitude":"139.6948056","source_code":"KT200383346020380016","project_name":"\u5e73\u621015\u5e74\u5ea6 \u570f\u592e\u9053(\u5883IC\uff5e\u733f\u5cf6\u5ca9\u4e95IC)\u5730\u8cea\u8abf\u67fb 15K38","survey_name":"\u5e73\u621015\u5e74\u5ea6 \u570f\u592e\u9053(\u5883IC\uff5e\u733f\u5cf6\u5ca9\u4e95IC)\u5730\u8cea\u8abf\u67fb 15K38","client_name":"\u56fd\u571f\u4ea4\u901a\u7701\u95a2\u6771\u5730\u65b9\u6574\u5099\u5c40\u5e38\u7dcf\u56fd\u9053\u4e8b\u52d9\u6240","boring_xml_url":47,"boring_view_url":1,"soilmap_view_url":null,"soiltest_xml_url":0,"soiltest_view_url":0},{"id":145809,"code":"B4KJ201801003-4058","latitude":"36.12425","longitude":"139.7919444","source_code":"KT200383346020380015","project_name":"\u5e73\u621015\u5e74\u5ea6 \u570f\u592e\u9053(\u5883IC\uff5e\u733f\u5cf6\u5ca9\u4e95IC)\u5730\u8cea\u8abf\u67fb 15K38","survey_name":"\u5e73\u621015\u5e74\u5ea6 \u570f\u592e\u9053(\u5883IC\uff5e\u733f\u5cf6\u5ca9\u4e95IC)\u5730\u8cea\u8abf\u67fb 15K38","client_name":"\u56fd\u571f\u4ea4\u901a\u7701\u95a2\u6771\u5730\u65b9\u6574\u5099\u5c40\u5e38\u7dcf\u56fd\u9053\u4e8b\u52d9\u6240","boring_xml_url":47,"boring_view_url":1,"soilmap_view_url":null,"soiltest_xml_url":0,"soiltest_view_url":0},{"id":145808,"code":"B4KJ201801003-4057","latitude":"36.09402778","longitude":"139.7646944","source_code":"KT200383346020380014","project_name":"\u5e73\u621015\u5e74\u5ea6 \u570f\u592e\u9053(\u5883IC\uff5e\u733f\u5cf6\u5ca9\u4e95IC)\u5730\u8cea\u8abf\u67fb 15K38","survey_name":"\u5e73\u621015\u5e74\u5ea6 \u570f\u592e\u9053(\u5883IC\uff5e\u733f\u5cf6\u5ca9\u4e95IC)\u5730\u8cea\u8abf\u67fb 15K38","client_name":"\u56fd\u571f\u4ea4\u901a\u7701\u95a2\u6771\u5730\u65b9\u6574\u5099\u5c40\u5e38\u7dcf\u56fd\u9053\u4e8b\u52d9\u6240","boring_xml_url":47,"boring_view_url":1,"soilmap_view_url":null,"soiltest_xml_url":0,"soiltest_view_url":0},{"id":145807,"code":"B4KJ201801003-4056","latitude":"36.09258333","longitude":"139.7641111","source_code":"KT200383346020380013","project_name":"\u5e73\u621015\u5e74\u5ea6 \u570f\u592e\u9053(\u5883IC\uff5e\u733f\u5cf6\u5ca9\u4e95IC)\u5730\u8cea\u8abf\u67fb 15K38","survey_name":"\u5e73\u621015\u5e74\u5ea6 \u570f\u592e\u9053(\u5883IC\uff5e\u733f\u5cf6\u5ca9\u4e95IC)\u5730\u8cea\u8abf\u67fb 15K38","client_name":"\u56fd\u571f\u4ea4\u901a\u7701\u95a2\u6771\u5730\u65b9\u6574\u5099\u5c40\u5e38\u7dcf\u56fd\u9053\u4e8b\u52d9\u6240","boring_xml_url":47,"boring_view_url":1,"soilmap_view_url":null,"soiltest_xml_url":0,"soiltest_view_url":0},{"id":145806,"code":"B4KJ201801003-4055","latitude":"36.09086111","longitude":"139.7639722","source_code":"KT200383346020380012","project_name":"\u5e73\u621015\u5e74\u5ea6 \u570f\u592e\u9053(\u5883IC\uff5e\u733f\u5cf6\u5ca9\u4e95IC)\u5730\u8cea\u8abf\u67fb 15K38","survey_name":"\u5e73\u621015\u5e74\u5ea6 \u570f\u592e\u9053(\u5883IC\uff5e\u733f\u5cf6\u5ca9\u4e95IC)\u5730\u8cea\u8abf\u67fb 15K38","client_name":"\u56fd\u571f\u4ea4\u901a\u7701\u95a2\u6771\u5730\u65b9\u6574\u5099\u5c40\u5e38\u7dcf\u56fd\u9053\u4e8b\u52d9\u6240","boring_xml_url":47,"boring_view_url":1,"soilmap_view_url":null,"soiltest_xml_url":0,"soiltest_view_url":0},{"id":145805,"code":"B4KJ201801003-4054","latitude":"36.08980556","longitude":"139.7653889","source_code":"KT200383346020380011","project_name":"\u5e73\u621015\u5e74\u5ea6 \u570f\u592e\u9053(\u5883IC\uff5e\u733f\u5cf6\u5ca9\u4e95IC)\u5730\u8cea\u8abf\u67fb 15K38","survey_name":"\u5e73\u621015\u5e74\u5ea6 \u570f\u592e\u9053(\u5883IC\uff5e\u733f\u5cf6\u5ca9\u4e95IC)\u5730\u8cea\u8abf\u67fb 15K38","client_name":"\u56fd\u571f\u4ea4\u901a\u7701\u95a2\u6771\u5730\u65b9\u6574\u5099\u5c40\u5e38\u7dcf\u56fd\u9053\u4e8b\u52d9\u6240","boring_xml_url":47,"boring_view_url":1,"soilmap_view_url":null,"soiltest_xml_url":0,"soiltest_view_url":0},{"id":145804,"code":"B4KJ201801003-4053","latitude":"36.08741667","longitude":"139.7667778","source_code":"KT200383346020380010","project_name":"\u5e73\u621015\u5e74\u5ea6 \u570f\u592e\u9053(\u5883IC\uff5e\u733f\u5cf6\u5ca9\u4e95IC)\u5730\u8cea\u8abf\u67fb 15K38","survey_name":"\u5e73\u621015\u5e74\u5ea6 \u570f\u592e\u9053(\u5883IC\uff5e\u733f\u5cf6\u5ca9\u4e95IC)\u5730\u8cea\u8abf\u67fb 15K38","client_name":"\u56fd\u571f\u4ea4\u901a\u7701\u95a2\u6771\u5730\u65b9\u6574\u5099\u5c40\u5e38\u7dcf\u56fd\u9053\u4e8b\u52d9\u6240","boring_xml_url":47,"boring_view_url":1,"soilmap_view_url":null,"soiltest_xml_url":0,"soiltest_view_url":0},{"id":145803,"code":"B4KJ201801003-4052","latitude":"36.08675","longitude":"139.7662778","source_code":"KT200383346020380009","project_name":"\u5e73\u621015\u5e74\u5ea6 \u570f\u592e\u9053(\u5883IC\uff5e\u733f\u5cf6\u5ca9\u4e95IC)\u5730\u8cea\u8abf\u67fb 15K38","survey_name":"\u5e73\u621015\u5e74\u5ea6 \u570f\u592e\u9053(\u5883IC\uff5e\u733f\u5cf6\u5ca9\u4e95IC)\u5730\u8cea\u8abf\u67fb 15K38","client_name":"\u56fd\u571f\u4ea4\u901a\u7701\u95a2\u6771\u5730\u65b9\u6574\u5099\u5c40\u5e38\u7dcf\u56fd\u9053\u4e8b\u52d9\u6240","boring_xml_url":47,"boring_view_url":1,"soilmap_view_url":null,"soiltest_xml_url":0,"soiltest_view_url":0},{"id":145802,"code":"B4KJ201801003-4051","latitude":"36.08630556","longitude":"139.7654722","source_code":"KT200383346020380008","project_name":"\u5e73\u621015\u5e74\u5ea6 \u570f\u592e\u9053(\u5883IC\uff5e\u733f\u5cf6\u5ca9\u4e95IC)\u5730\u8cea\u8abf\u67fb 15K38","survey_name":"\u5e73\u621015\u5e74\u5ea6 \u570f\u592e\u9053(\u5883IC\uff5e\u733f\u5cf6\u5ca9\u4e95IC)\u5730\u8cea\u8abf\u67fb 15K38","client_name":"\u56fd\u571f\u4ea4\u901a\u7701\u95a2\u6771\u5730\u65b9\u6574\u5099\u5c40\u5e38\u7dcf\u56fd\u9053\u4e8b\u52d9\u6240","boring_xml_url":47,"boring_view_url":1,"soilmap_view_url":null,"soiltest_xml_url":0,"soiltest_view_url":0},{"id":145801,"code":"B4KJ201801003-4050","latitude":"36.09116667","longitude":"139.8760278","source_code":"KT200383346020380007","project_name":"\u5e73\u621015\u5e74\u5ea6 \u570f\u592e\u9053(\u5883IC\uff5e\u733f\u5cf6\u5ca9\u4e95IC)\u5730\u8cea\u8abf\u67fb 15K38","survey_name":"\u5e73\u621015\u5e74\u5ea6 \u570f\u592e\u9053(\u5883IC\uff5e\u733f\u5cf6\u5ca9\u4e95IC)\u5730\u8cea\u8abf\u67fb 15K38","client_name":"\u56fd\u571f\u4ea4\u901a\u7701\u95a2\u6771\u5730\u65b9\u6574\u5099\u5c40\u5e38\u7dcf\u56fd\u9053\u4e8b\u52d9\u6240","boring_xml_url":47,"boring_view_url":1,"soilmap_view_url":null,"soiltest_xml_url":0,"soiltest_view_url":0},{"id":145800,"code":"B4KJ201801003-4049","latitude":"36.10619444","longitude":"139.8622778","source_code":"KT200383346020380003","project_name":"\u5e73\u621015\u5e74\u5ea6 \u570f\u592e\u9053(\u5883IC\uff5e\u733f\u5cf6\u5ca9\u4e95IC)\u5730\u8cea\u8abf\u67fb 15K38","survey_name":"\u5e73\u621015\u5e74\u5ea6 \u570f\u592e\u9053(\u5883IC\uff5e\u733f\u5cf6\u5ca9\u4e95IC)\u5730\u8cea\u8abf\u67fb 15K38","client_name":"\u56fd\u571f\u4ea4\u901a\u7701\u95a2\u6771\u5730\u65b9\u6574\u5099\u5c40\u5e38\u7dcf\u56fd\u9053\u4e8b\u52d9\u6240","boring_xml_url":47,"boring_view_url":1,"soilmap_view_url":null,"soiltest_xml_url":50,"soiltest_view_url":50},{"id":145799,"code":"B4KJ201801003-4048","latitude":"36.12133333","longitude":"139.8213917","source_code":"KT200383346020380002","project_name":"\u5e73\u621015\u5e74\u5ea6 \u570f\u592e\u9053(\u5883IC\uff5e\u733f\u5cf6\u5ca9\u4e95IC)\u5730\u8cea\u8abf\u67fb 15K38","survey_name":"\u5e73\u621015\u5e74\u5ea6 \u570f\u592e\u9053(\u5883IC\uff5e\u733f\u5cf6\u5ca9\u4e95IC)\u5730\u8cea\u8abf\u67fb 15K38","client_name":"\u56fd\u571f\u4ea4\u901a\u7701\u95a2\u6771\u5730\u65b9\u6574\u5099\u5c40\u5e38\u7dcf\u56fd\u9053\u4e8b\u52d9\u6240","boring_xml_url":47,"boring_view_url":1,"soilmap_view_url":null,"soiltest_xml_url":50,"soiltest_view_url":50},{"id":145798,"code":"B4KJ201801003-4047","latitude":"36.12128611","longitude":"139.8205306","source_code":"KT200383346020380001","project_name":"\u5e73\u621015\u5e74\u5ea6 \u570f\u592e\u9053(\u5883IC\uff5e\u733f\u5cf6\u5ca9\u4e95IC)\u5730\u8cea\u8abf\u67fb 15K38","survey_name":"\u5e73\u621015\u5e74\u5ea6 \u570f\u592e\u9053(\u5883IC\uff5e\u733f\u5cf6\u5ca9\u4e95IC)\u5730\u8cea\u8abf\u67fb 15K38","client_name":"\u56fd\u571f\u4ea4\u901a\u7701\u95a2\u6771\u5730\u65b9\u6574\u5099\u5c40\u5e38\u7dcf\u56fd\u9053\u4e8b\u52d9\u6240","boring_xml_url":47,"boring_view_url":1,"soilmap_view_url":null,"soiltest_xml_url":50,"soiltest_view_url":50},{"id":145797,"code":"B4KJ201801003-4046","latitude":"35.91434048","longitude":"140.3650391","source_code":"KT200383346020230020","project_name":"","survey_name":"\u570f\u592e\u9053(\u6771IC~\u5343\u8449\u770c\u5883)\u5730\u8cea\u8abf\u67fb(2)15K24","client_name":"\u56fd\u571f\u4ea4\u901a\u7701\u95a2\u6771\u5730\u65b9\u6574\u5099\u5c40\u5e38\u7dcf\u56fd\u9053\u4e8b\u52d9\u6240","boring_xml_url":47,"boring_view_url":1,"soilmap_view_url":null,"soiltest_xml_url":0,"soiltest_view_url":0},{"id":145796,"code":"B4KJ201801003-4045","latitude":"35.91434048","longitude":"140.3647614","source_code":"KT200383346020230019","project_name":"","survey_name":"\u570f\u592e\u9053(\u6771IC~\u5343\u8449\u770c\u5883)\u5730\u8cea\u8abf\u67fb(2)15K24","client_name":"\u56fd\u571f\u4ea4\u901a\u7701\u95a2\u6771\u5730\u65b9\u6574\u5099\u5c40\u5e38\u7dcf\u56fd\u9053\u4e8b\u52d9\u6240","boring_xml_url":47,"boring_view_url":1,"soilmap_view_url":null,"soiltest_xml_url":0,"soiltest_view_url":0}]}}