{"header":{"xyz":{"source":[],"mosaic":false},"page":5828,"raw":{"soiltest_result":"0","bbox":"57.598333,109.544722,1.933333,163.806111","page":"5828"},"conditions":{"soiltest_result":0,"north":57.598333,"west":109.544722,"south":1.933333,"east":163.806111},"success":true,"message":""},"data":{"meta":{"total":212844,"page":5828,"pages":7095,"count":30},"values":[{"id":145735,"code":"B4KJ201801003-3984","latitude":"36.10802778","longitude":"139.7622778","source_code":"KT200283346020430001","project_name":"\u9996\u90fd\u570f\u4e2d\u592e\u9023\u7d61\u81ea\u52d5\u8eca\u9023\u7d61\u9053\u5efa\u8a2d\u4e8b\u696d","survey_name":"\u570f\u592e\u9053(\u57fc\u7389\u770c\u5883\uff5e\u5883IC)\u5730\u8cea\u8abf\u67fb(9)14K50","client_name":"\u56fd\u571f\u4ea4\u901a\u7701\u95a2\u6771\u5730\u65b9\u6574\u5099\u5c40\u5e38\u7dcf\u56fd\u9053\u5de5\u4e8b\u4e8b\u52d9\u6240","boring_xml_url":47,"boring_view_url":1,"soilmap_view_url":null,"soiltest_xml_url":50,"soiltest_view_url":50},{"id":145734,"code":"B4KJ201801003-3983","latitude":"35.90180556","longitude":"140.3775556","source_code":"KT200283346020420011","project_name":"","survey_name":"\u570f\u592e\u9053(\u6771IC\uff5e\u5343\u8449\u770c\u5883)\u5730\u8cea\u8abf\u67fb(2)14K41","client_name":"\u56fd\u571f\u4ea4\u901a\u7701\u95a2\u6771\u5730\u65b9\u6574\u5099\u5c40\u5e38\u7dcf\u56fd\u9053\u5de5\u4e8b\u4e8b\u52d9\u6240","boring_xml_url":47,"boring_view_url":1,"soilmap_view_url":null,"soiltest_xml_url":0,"soiltest_view_url":0},{"id":145733,"code":"B4KJ201801003-3982","latitude":"35.90208333","longitude":"140.3773333","source_code":"KT200283346020420010","project_name":"","survey_name":"\u570f\u592e\u9053(\u6771IC\uff5e\u5343\u8449\u770c\u5883)\u5730\u8cea\u8abf\u67fb(2)14K41","client_name":"\u56fd\u571f\u4ea4\u901a\u7701\u95a2\u6771\u5730\u65b9\u6574\u5099\u5c40\u5e38\u7dcf\u56fd\u9053\u5de5\u4e8b\u4e8b\u52d9\u6240","boring_xml_url":47,"boring_view_url":1,"soilmap_view_url":null,"soiltest_xml_url":0,"soiltest_view_url":0},{"id":145732,"code":"B4KJ201801003-3981","latitude":"35.90238889","longitude":"140.3771111","source_code":"KT200283346020420009","project_name":"","survey_name":"\u570f\u592e\u9053(\u6771IC\uff5e\u5343\u8449\u770c\u5883)\u5730\u8cea\u8abf\u67fb(2)14K41","client_name":"\u56fd\u571f\u4ea4\u901a\u7701\u95a2\u6771\u5730\u65b9\u6574\u5099\u5c40\u5e38\u7dcf\u56fd\u9053\u5de5\u4e8b\u4e8b\u52d9\u6240","boring_xml_url":47,"boring_view_url":1,"soilmap_view_url":null,"soiltest_xml_url":0,"soiltest_view_url":0},{"id":145731,"code":"B4KJ201801003-3980","latitude":"35.90269444","longitude":"140.3768889","source_code":"KT200283346020420008","project_name":"","survey_name":"\u570f\u592e\u9053(\u6771IC\uff5e\u5343\u8449\u770c\u5883)\u5730\u8cea\u8abf\u67fb(2)14K41","client_name":"\u56fd\u571f\u4ea4\u901a\u7701\u95a2\u6771\u5730\u65b9\u6574\u5099\u5c40\u5e38\u7dcf\u56fd\u9053\u5de5\u4e8b\u4e8b\u52d9\u6240","boring_xml_url":47,"boring_view_url":1,"soilmap_view_url":null,"soiltest_xml_url":0,"soiltest_view_url":0},{"id":145730,"code":"B4KJ201801003-3979","latitude":"35.90316667","longitude":"140.3766667","source_code":"KT200283346020420007","project_name":"","survey_name":"\u570f\u592e\u9053(\u6771IC\uff5e\u5343\u8449\u770c\u5883)\u5730\u8cea\u8abf\u67fb(2)14K41","client_name":"\u56fd\u571f\u4ea4\u901a\u7701\u95a2\u6771\u5730\u65b9\u6574\u5099\u5c40\u5e38\u7dcf\u56fd\u9053\u5de5\u4e8b\u4e8b\u52d9\u6240","boring_xml_url":47,"boring_view_url":1,"soilmap_view_url":null,"soiltest_xml_url":0,"soiltest_view_url":0},{"id":145729,"code":"B4KJ201801003-3978","latitude":"35.90377778","longitude":"140.3763333","source_code":"KT200283346020420006","project_name":"","survey_name":"\u570f\u592e\u9053(\u6771IC\uff5e\u5343\u8449\u770c\u5883)\u5730\u8cea\u8abf\u67fb(2)14K41","client_name":"\u56fd\u571f\u4ea4\u901a\u7701\u95a2\u6771\u5730\u65b9\u6574\u5099\u5c40\u5e38\u7dcf\u56fd\u9053\u5de5\u4e8b\u4e8b\u52d9\u6240","boring_xml_url":47,"boring_view_url":1,"soilmap_view_url":null,"soiltest_xml_url":0,"soiltest_view_url":0},{"id":145728,"code":"B4KJ201801003-3977","latitude":"35.90405556","longitude":"140.376","source_code":"KT200283346020420005","project_name":"","survey_name":"\u570f\u592e\u9053(\u6771IC\uff5e\u5343\u8449\u770c\u5883)\u5730\u8cea\u8abf\u67fb(2)14K41","client_name":"\u56fd\u571f\u4ea4\u901a\u7701\u95a2\u6771\u5730\u65b9\u6574\u5099\u5c40\u5e38\u7dcf\u56fd\u9053\u5de5\u4e8b\u4e8b\u52d9\u6240","boring_xml_url":47,"boring_view_url":1,"soilmap_view_url":null,"soiltest_xml_url":0,"soiltest_view_url":0},{"id":145727,"code":"B4KJ201801003-3976","latitude":"35.90433333","longitude":"140.3757778","source_code":"KT200283346020420004","project_name":"","survey_name":"\u570f\u592e\u9053(\u6771IC\uff5e\u5343\u8449\u770c\u5883)\u5730\u8cea\u8abf\u67fb(2)14K41","client_name":"\u56fd\u571f\u4ea4\u901a\u7701\u95a2\u6771\u5730\u65b9\u6574\u5099\u5c40\u5e38\u7dcf\u56fd\u9053\u5de5\u4e8b\u4e8b\u52d9\u6240","boring_xml_url":47,"boring_view_url":1,"soilmap_view_url":null,"soiltest_xml_url":0,"soiltest_view_url":0},{"id":145726,"code":"B4KJ201801003-3975","latitude":"35.90469444","longitude":"140.3754444","source_code":"KT200283346020420003","project_name":"","survey_name":"\u570f\u592e\u9053(\u6771IC\uff5e\u5343\u8449\u770c\u5883)\u5730\u8cea\u8abf\u67fb(2)14K41","client_name":"\u56fd\u571f\u4ea4\u901a\u7701\u95a2\u6771\u5730\u65b9\u6574\u5099\u5c40\u5e38\u7dcf\u56fd\u9053\u5de5\u4e8b\u4e8b\u52d9\u6240","boring_xml_url":47,"boring_view_url":1,"soilmap_view_url":null,"soiltest_xml_url":0,"soiltest_view_url":0},{"id":145725,"code":"B4KJ201801003-3974","latitude":"35.90530556","longitude":"140.3751111","source_code":"KT200283346020420002","project_name":"","survey_name":"\u570f\u592e\u9053(\u6771IC\uff5e\u5343\u8449\u770c\u5883)\u5730\u8cea\u8abf\u67fb(2)14K41","client_name":"\u56fd\u571f\u4ea4\u901a\u7701\u95a2\u6771\u5730\u65b9\u6574\u5099\u5c40\u5e38\u7dcf\u56fd\u9053\u5de5\u4e8b\u4e8b\u52d9\u6240","boring_xml_url":47,"boring_view_url":1,"soilmap_view_url":null,"soiltest_xml_url":0,"soiltest_view_url":0},{"id":145724,"code":"B4KJ201801003-3973","latitude":"35.90566667","longitude":"140.3747778","source_code":"KT200283346020420001","project_name":"","survey_name":"\u570f\u592e\u9053(\u6771IC\uff5e\u5343\u8449\u770c\u5883)\u5730\u8cea\u8abf\u67fb(2)14K41","client_name":"\u56fd\u571f\u4ea4\u901a\u7701\u95a2\u6771\u5730\u65b9\u6574\u5099\u5c40\u5e38\u7dcf\u56fd\u9053\u5de5\u4e8b\u4e8b\u52d9\u6240","boring_xml_url":47,"boring_view_url":1,"soilmap_view_url":null,"soiltest_xml_url":0,"soiltest_view_url":0},{"id":145723,"code":"B4KJ201801003-3972","latitude":"35.93608728","longitude":"140.3372628","source_code":"KT200283346020400015","project_name":"\u570f\u592e\u9053","survey_name":"\u570f\u592e\u9053(\u6c5f\u6238\u5d0eIC\uff5e\u6771IC)\u5730\u8cea\u8abf\u67fb(1)14K38","client_name":"\u56fd\u571f\u4ea4\u901a\u7701\u95a2\u6771\u5730\u65b9\u6574\u5099\u5c40\u5e38\u7dcf\u56fd\u9053\u5de5\u4e8b\u4e8b\u52d9\u6240","boring_xml_url":47,"boring_view_url":1,"soilmap_view_url":null,"soiltest_xml_url":0,"soiltest_view_url":0},{"id":145722,"code":"B4KJ201801003-3971","latitude":"35.93619836","longitude":"140.3368739","source_code":"KT200283346020400014","project_name":"\u570f\u592e\u9053","survey_name":"\u570f\u592e\u9053(\u6c5f\u6238\u5d0eIC\uff5e\u6771IC)\u5730\u8cea\u8abf\u67fb(1)14K38","client_name":"\u56fd\u571f\u4ea4\u901a\u7701\u95a2\u6771\u5730\u65b9\u6574\u5099\u5c40\u5e38\u7dcf\u56fd\u9053\u5de5\u4e8b\u4e8b\u52d9\u6240","boring_xml_url":47,"boring_view_url":1,"soilmap_view_url":null,"soiltest_xml_url":0,"soiltest_view_url":0},{"id":145721,"code":"B4KJ201801003-3970","latitude":"35.93642056","longitude":"140.3366239","source_code":"KT200283346020400013","project_name":"\u570f\u592e\u9053","survey_name":"\u570f\u592e\u9053(\u6c5f\u6238\u5d0eIC\uff5e\u6771IC)\u5730\u8cea\u8abf\u67fb(1)14K38","client_name":"\u56fd\u571f\u4ea4\u901a\u7701\u95a2\u6771\u5730\u65b9\u6574\u5099\u5c40\u5e38\u7dcf\u56fd\u9053\u5de5\u4e8b\u4e8b\u52d9\u6240","boring_xml_url":47,"boring_view_url":1,"soilmap_view_url":null,"soiltest_xml_url":0,"soiltest_view_url":0},{"id":145720,"code":"B4KJ201801003-3969","latitude":"35.93650387","longitude":"140.3362351","source_code":"KT200283346020400012","project_name":"\u570f\u592e\u9053","survey_name":"\u570f\u592e\u9053(\u6c5f\u6238\u5d0eIC\uff5e\u6771IC)\u5730\u8cea\u8abf\u67fb(1)14K38","client_name":"\u56fd\u571f\u4ea4\u901a\u7701\u95a2\u6771\u5730\u65b9\u6574\u5099\u5c40\u5e38\u7dcf\u56fd\u9053\u5de5\u4e8b\u4e8b\u52d9\u6240","boring_xml_url":47,"boring_view_url":1,"soilmap_view_url":null,"soiltest_xml_url":0,"soiltest_view_url":0},{"id":145719,"code":"B4KJ201801003-3968","latitude":"35.95011269","longitude":"140.3084869","source_code":"KT200283346020400011","project_name":"\u570f\u592e\u9053","survey_name":"\u570f\u592e\u9053(\u6c5f\u6238\u5d0eIC\uff5e\u6771IC)\u5730\u8cea\u8abf\u67fb(1)14K38","client_name":"\u56fd\u571f\u4ea4\u901a\u7701\u95a2\u6771\u5730\u65b9\u6574\u5099\u5c40\u5e38\u7dcf\u56fd\u9053\u5de5\u4e8b\u4e8b\u52d9\u6240","boring_xml_url":47,"boring_view_url":1,"soilmap_view_url":null,"soiltest_xml_url":0,"soiltest_view_url":0},{"id":145718,"code":"B4KJ201801003-3967","latitude":"35.95047374","longitude":"140.3077647","source_code":"KT200283346020400010","project_name":"\u570f\u592e\u9053","survey_name":"\u570f\u592e\u9053(\u6c5f\u6238\u5d0eIC\uff5e\u6771IC)\u5730\u8cea\u8abf\u67fb(1)14K38","client_name":"\u56fd\u571f\u4ea4\u901a\u7701\u95a2\u6771\u5730\u65b9\u6574\u5099\u5c40\u5e38\u7dcf\u56fd\u9053\u5de5\u4e8b\u4e8b\u52d9\u6240","boring_xml_url":47,"boring_view_url":1,"soilmap_view_url":null,"soiltest_xml_url":0,"soiltest_view_url":0},{"id":145717,"code":"B4KJ201801003-3966","latitude":"35.9506126","longitude":"140.3074036","source_code":"KT200283346020400009","project_name":"\u570f\u592e\u9053","survey_name":"\u570f\u592e\u9053(\u6c5f\u6238\u5d0eIC\uff5e\u6771IC)\u5730\u8cea\u8abf\u67fb(1)14K38","client_name":"\u56fd\u571f\u4ea4\u901a\u7701\u95a2\u6771\u5730\u65b9\u6574\u5099\u5c40\u5e38\u7dcf\u56fd\u9053\u5de5\u4e8b\u4e8b\u52d9\u6240","boring_xml_url":47,"boring_view_url":1,"soilmap_view_url":null,"soiltest_xml_url":0,"soiltest_view_url":0},{"id":145716,"code":"B4KJ201801003-3965","latitude":"35.95080701","longitude":"140.3069036","source_code":"KT200283346020400008","project_name":"\u570f\u592e\u9053","survey_name":"\u570f\u592e\u9053(\u6c5f\u6238\u5d0eIC\uff5e\u6771IC)\u5730\u8cea\u8abf\u67fb(1)14K38","client_name":"\u56fd\u571f\u4ea4\u901a\u7701\u95a2\u6771\u5730\u65b9\u6574\u5099\u5c40\u5e38\u7dcf\u56fd\u9053\u5de5\u4e8b\u4e8b\u52d9\u6240","boring_xml_url":47,"boring_view_url":1,"soilmap_view_url":null,"soiltest_xml_url":0,"soiltest_view_url":0},{"id":145715,"code":"B4KJ201801003-3964","latitude":"35.95097366","longitude":"140.3067925","source_code":"KT200283346020400007","project_name":"\u570f\u592e\u9053","survey_name":"\u570f\u592e\u9053(\u6c5f\u6238\u5d0eIC\uff5e\u6771IC)\u5730\u8cea\u8abf\u67fb(1)14K38","client_name":"\u56fd\u571f\u4ea4\u901a\u7701\u95a2\u6771\u5730\u65b9\u6574\u5099\u5c40\u5e38\u7dcf\u56fd\u9053\u5de5\u4e8b\u4e8b\u52d9\u6240","boring_xml_url":47,"boring_view_url":1,"soilmap_view_url":null,"soiltest_xml_url":0,"soiltest_view_url":0},{"id":145714,"code":"B4KJ201801003-3963","latitude":"35.95094588","longitude":"140.3065981","source_code":"KT200283346020400006","project_name":"\u570f\u592e\u9053","survey_name":"\u570f\u592e\u9053(\u6c5f\u6238\u5d0eIC\uff5e\u6771IC)\u5730\u8cea\u8abf\u67fb(1)14K38","client_name":"\u56fd\u571f\u4ea4\u901a\u7701\u95a2\u6771\u5730\u65b9\u6574\u5099\u5c40\u5e38\u7dcf\u56fd\u9053\u5de5\u4e8b\u4e8b\u52d9\u6240","boring_xml_url":47,"boring_view_url":1,"soilmap_view_url":null,"soiltest_xml_url":0,"soiltest_view_url":0},{"id":145713,"code":"B4KJ201801003-3962","latitude":"35.95111252","longitude":"140.306487","source_code":"KT200283346020400005","project_name":"\u570f\u592e\u9053","survey_name":"\u570f\u592e\u9053(\u6c5f\u6238\u5d0eIC\uff5e\u6771IC)\u5730\u8cea\u8abf\u67fb(1)14K38","client_name":"\u56fd\u571f\u4ea4\u901a\u7701\u95a2\u6771\u5730\u65b9\u6574\u5099\u5c40\u5e38\u7dcf\u56fd\u9053\u5de5\u4e8b\u4e8b\u52d9\u6240","boring_xml_url":47,"boring_view_url":1,"soilmap_view_url":null,"soiltest_xml_url":0,"soiltest_view_url":0},{"id":145712,"code":"B4KJ201801003-3961","latitude":"35.95114029","longitude":"140.3062926","source_code":"KT200283346020400004","project_name":"\u570f\u592e\u9053","survey_name":"\u570f\u592e\u9053(\u6c5f\u6238\u5d0eIC\uff5e\u6771IC)\u5730\u8cea\u8abf\u67fb(1)14K38","client_name":"\u56fd\u571f\u4ea4\u901a\u7701\u95a2\u6771\u5730\u65b9\u6574\u5099\u5c40\u5e38\u7dcf\u56fd\u9053\u5de5\u4e8b\u4e8b\u52d9\u6240","boring_xml_url":47,"boring_view_url":1,"soilmap_view_url":null,"soiltest_xml_url":0,"soiltest_view_url":0},{"id":145711,"code":"B4KJ201801003-3960","latitude":"35.95130693","longitude":"140.3061259","source_code":"KT200283346020400003","project_name":"\u570f\u592e\u9053","survey_name":"\u570f\u592e\u9053(\u6c5f\u6238\u5d0eIC\uff5e\u6771IC)\u5730\u8cea\u8abf\u67fb(1)14K38","client_name":"\u56fd\u571f\u4ea4\u901a\u7701\u95a2\u6771\u5730\u65b9\u6574\u5099\u5c40\u5e38\u7dcf\u56fd\u9053\u5de5\u4e8b\u4e8b\u52d9\u6240","boring_xml_url":47,"boring_view_url":1,"soilmap_view_url":null,"soiltest_xml_url":50,"soiltest_view_url":50},{"id":145710,"code":"B4KJ201801003-3959","latitude":"35.95125138","longitude":"140.3059592","source_code":"KT200283346020400002","project_name":"\u570f\u592e\u9053","survey_name":"\u570f\u592e\u9053(\u6c5f\u6238\u5d0eIC\uff5e\u6771IC)\u5730\u8cea\u8abf\u67fb(1)14K38","client_name":"\u56fd\u571f\u4ea4\u901a\u7701\u95a2\u6771\u5730\u65b9\u6574\u5099\u5c40\u5e38\u7dcf\u56fd\u9053\u5de5\u4e8b\u4e8b\u52d9\u6240","boring_xml_url":47,"boring_view_url":1,"soilmap_view_url":null,"soiltest_xml_url":0,"soiltest_view_url":0},{"id":145709,"code":"B4KJ201801003-3958","latitude":"35.95141802","longitude":"140.3056537","source_code":"KT200283346020400001","project_name":"\u570f\u592e\u9053","survey_name":"\u570f\u592e\u9053(\u6c5f\u6238\u5d0eIC\uff5e\u6771IC)\u5730\u8cea\u8abf\u67fb(1)14K38","client_name":"\u56fd\u571f\u4ea4\u901a\u7701\u95a2\u6771\u5730\u65b9\u6574\u5099\u5c40\u5e38\u7dcf\u56fd\u9053\u5de5\u4e8b\u4e8b\u52d9\u6240","boring_xml_url":47,"boring_view_url":1,"soilmap_view_url":null,"soiltest_xml_url":50,"soiltest_view_url":50},{"id":145708,"code":"B4KJ201801003-3957","latitude":"36.05771417","longitude":"140.0807467","source_code":"KT200283346020390016","project_name":"\u570f\u592e\u9053","survey_name":"\u5e73\u621014\u5e74\u5ea6 \u570f\u592e\u9053(\u3064\u304f\u3070\u5cf6\u540d\u30fb\u67f3\u6a4b\u5730\u533a)\u5730\u8cea\u8abf\u67fb14K37","client_name":"\u56fd\u571f\u4ea4\u901a\u7701\u95a2\u6771\u5730\u65b9\u6574\u5099\u5c40\u5e38\u7dcf\u56fd\u9053\u5de5\u4e8b\u4e8b\u52d9\u6240","boring_xml_url":47,"boring_view_url":1,"soilmap_view_url":null,"soiltest_xml_url":0,"soiltest_view_url":0},{"id":145707,"code":"B4KJ201801003-3956","latitude":"36.05762083","longitude":"140.0786928","source_code":"KT200283346020390015","project_name":"\u570f\u592e\u9053","survey_name":"\u5e73\u621014\u5e74\u5ea6 \u570f\u592e\u9053(\u3064\u304f\u3070\u5cf6\u540d\u30fb\u67f3\u6a4b\u5730\u533a)\u5730\u8cea\u8abf\u67fb14K37","client_name":"\u56fd\u571f\u4ea4\u901a\u7701\u95a2\u6771\u5730\u65b9\u6574\u5099\u5c40\u5e38\u7dcf\u56fd\u9053\u5de5\u4e8b\u4e8b\u52d9\u6240","boring_xml_url":47,"boring_view_url":1,"soilmap_view_url":null,"soiltest_xml_url":0,"soiltest_view_url":0},{"id":145706,"code":"B4KJ201801003-3955","latitude":"36.0572225","longitude":"140.0765478","source_code":"KT200283346020390014","project_name":"\u570f\u592e\u9053","survey_name":"\u5e73\u621014\u5e74\u5ea6 \u570f\u592e\u9053(\u3064\u304f\u3070\u5cf6\u540d\u30fb\u67f3\u6a4b\u5730\u533a)\u5730\u8cea\u8abf\u67fb14K37","client_name":"\u56fd\u571f\u4ea4\u901a\u7701\u95a2\u6771\u5730\u65b9\u6574\u5099\u5c40\u5e38\u7dcf\u56fd\u9053\u5de5\u4e8b\u4e8b\u52d9\u6240","boring_xml_url":47,"boring_view_url":1,"soilmap_view_url":null,"soiltest_xml_url":0,"soiltest_view_url":0}]}}