{"header":{"xyz":{"source":[],"mosaic":false},"page":5829,"raw":{"soiltest_result":"0","bbox":"57.598333,109.544722,1.933333,163.806111","page":"5829"},"conditions":{"soiltest_result":0,"north":57.598333,"west":109.544722,"south":1.933333,"east":163.806111},"success":true,"message":""},"data":{"meta":{"total":212844,"page":5829,"pages":7095,"count":30},"values":[{"id":145705,"code":"B4KJ201801003-3954","latitude":"36.0571","longitude":"140.0739581","source_code":"KT200283346020390013","project_name":"\u570f\u592e\u9053","survey_name":"\u5e73\u621014\u5e74\u5ea6 \u570f\u592e\u9053(\u3064\u304f\u3070\u5cf6\u540d\u30fb\u67f3\u6a4b\u5730\u533a)\u5730\u8cea\u8abf\u67fb14K37","client_name":"\u56fd\u571f\u4ea4\u901a\u7701\u95a2\u6771\u5730\u65b9\u6574\u5099\u5c40\u5e38\u7dcf\u56fd\u9053\u5de5\u4e8b\u4e8b\u52d9\u6240","boring_xml_url":47,"boring_view_url":1,"soilmap_view_url":null,"soiltest_xml_url":0,"soiltest_view_url":0},{"id":145704,"code":"B4KJ201801003-3953","latitude":"36.05685778","longitude":"140.0717556","source_code":"KT200283346020390012","project_name":"\u570f\u592e\u9053","survey_name":"\u5e73\u621014\u5e74\u5ea6 \u570f\u592e\u9053(\u3064\u304f\u3070\u5cf6\u540d\u30fb\u67f3\u6a4b\u5730\u533a)\u5730\u8cea\u8abf\u67fb14K37","client_name":"\u56fd\u571f\u4ea4\u901a\u7701\u95a2\u6771\u5730\u65b9\u6574\u5099\u5c40\u5e38\u7dcf\u56fd\u9053\u5de5\u4e8b\u4e8b\u52d9\u6240","boring_xml_url":47,"boring_view_url":1,"soilmap_view_url":null,"soiltest_xml_url":0,"soiltest_view_url":0},{"id":145703,"code":"B4KJ201801003-3952","latitude":"36.0563825","longitude":"140.0674358","source_code":"KT200283346020390011","project_name":"\u570f\u592e\u9053","survey_name":"\u5e73\u621014\u5e74\u5ea6 \u570f\u592e\u9053(\u3064\u304f\u3070\u5cf6\u540d\u30fb\u67f3\u6a4b\u5730\u533a)\u5730\u8cea\u8abf\u67fb14K37","client_name":"\u56fd\u571f\u4ea4\u901a\u7701\u95a2\u6771\u5730\u65b9\u6574\u5099\u5c40\u5e38\u7dcf\u56fd\u9053\u5de5\u4e8b\u4e8b\u52d9\u6240","boring_xml_url":47,"boring_view_url":1,"soilmap_view_url":null,"soiltest_xml_url":0,"soiltest_view_url":0},{"id":145702,"code":"B4KJ201801003-3951","latitude":"36.05625722","longitude":"140.0662975","source_code":"KT200283346020390010","project_name":"\u570f\u592e\u9053","survey_name":"\u5e73\u621014\u5e74\u5ea6 \u570f\u592e\u9053(\u3064\u304f\u3070\u5cf6\u540d\u30fb\u67f3\u6a4b\u5730\u533a)\u5730\u8cea\u8abf\u67fb14K37","client_name":"\u56fd\u571f\u4ea4\u901a\u7701\u95a2\u6771\u5730\u65b9\u6574\u5099\u5c40\u5e38\u7dcf\u56fd\u9053\u5de5\u4e8b\u4e8b\u52d9\u6240","boring_xml_url":47,"boring_view_url":1,"soilmap_view_url":null,"soiltest_xml_url":0,"soiltest_view_url":0},{"id":145701,"code":"B4KJ201801003-3950","latitude":"36.05608361","longitude":"140.06472","source_code":"KT200283346020390009","project_name":"\u570f\u592e\u9053","survey_name":"\u5e73\u621014\u5e74\u5ea6 \u570f\u592e\u9053(\u3064\u304f\u3070\u5cf6\u540d\u30fb\u67f3\u6a4b\u5730\u533a)\u5730\u8cea\u8abf\u67fb14K37","client_name":"\u56fd\u571f\u4ea4\u901a\u7701\u95a2\u6771\u5730\u65b9\u6574\u5099\u5c40\u5e38\u7dcf\u56fd\u9053\u5de5\u4e8b\u4e8b\u52d9\u6240","boring_xml_url":47,"boring_view_url":1,"soilmap_view_url":null,"soiltest_xml_url":0,"soiltest_view_url":0},{"id":145700,"code":"B4KJ201801003-3949","latitude":"36.05595194","longitude":"140.0635231","source_code":"KT200283346020390008","project_name":"\u570f\u592e\u9053","survey_name":"\u5e73\u621014\u5e74\u5ea6 \u570f\u592e\u9053(\u3064\u304f\u3070\u5cf6\u540d\u30fb\u67f3\u6a4b\u5730\u533a)\u5730\u8cea\u8abf\u67fb14K37","client_name":"\u56fd\u571f\u4ea4\u901a\u7701\u95a2\u6771\u5730\u65b9\u6574\u5099\u5c40\u5e38\u7dcf\u56fd\u9053\u5de5\u4e8b\u4e8b\u52d9\u6240","boring_xml_url":47,"boring_view_url":1,"soilmap_view_url":null,"soiltest_xml_url":0,"soiltest_view_url":0},{"id":145699,"code":"B4KJ201801003-3948","latitude":"36.05578583","longitude":"140.0603264","source_code":"KT200283346020390007","project_name":"\u570f\u592e\u9053","survey_name":"\u5e73\u621014\u5e74\u5ea6 \u570f\u592e\u9053(\u3064\u304f\u3070\u5cf6\u540d\u30fb\u67f3\u6a4b\u5730\u533a)\u5730\u8cea\u8abf\u67fb14K37","client_name":"\u56fd\u571f\u4ea4\u901a\u7701\u95a2\u6771\u5730\u65b9\u6574\u5099\u5c40\u5e38\u7dcf\u56fd\u9053\u5de5\u4e8b\u4e8b\u52d9\u6240","boring_xml_url":47,"boring_view_url":1,"soilmap_view_url":null,"soiltest_xml_url":0,"soiltest_view_url":0},{"id":145698,"code":"B4KJ201801003-3947","latitude":"36.05525444","longitude":"140.0580581","source_code":"KT200283346020390006","project_name":"\u570f\u592e\u9053","survey_name":"\u5e73\u621014\u5e74\u5ea6 \u570f\u592e\u9053(\u3064\u304f\u3070\u5cf6\u540d\u30fb\u67f3\u6a4b\u5730\u533a)\u5730\u8cea\u8abf\u67fb14K37","client_name":"\u56fd\u571f\u4ea4\u901a\u7701\u95a2\u6771\u5730\u65b9\u6574\u5099\u5c40\u5e38\u7dcf\u56fd\u9053\u5de5\u4e8b\u4e8b\u52d9\u6240","boring_xml_url":47,"boring_view_url":1,"soilmap_view_url":null,"soiltest_xml_url":0,"soiltest_view_url":0},{"id":145697,"code":"B4KJ201801003-3946","latitude":"36.05548389","longitude":"140.0559569","source_code":"KT200283346020390005","project_name":"\u570f\u592e\u9053","survey_name":"\u5e73\u621014\u5e74\u5ea6 \u570f\u592e\u9053(\u3064\u304f\u3070\u5cf6\u540d\u30fb\u67f3\u6a4b\u5730\u533a)\u5730\u8cea\u8abf\u67fb14K37","client_name":"\u56fd\u571f\u4ea4\u901a\u7701\u95a2\u6771\u5730\u65b9\u6574\u5099\u5c40\u5e38\u7dcf\u56fd\u9053\u5de5\u4e8b\u4e8b\u52d9\u6240","boring_xml_url":47,"boring_view_url":1,"soilmap_view_url":null,"soiltest_xml_url":0,"soiltest_view_url":0},{"id":145696,"code":"B4KJ201801003-3945","latitude":"36.05568944","longitude":"140.0537294","source_code":"KT200283346020390004","project_name":"\u570f\u592e\u9053","survey_name":"\u5e73\u621014\u5e74\u5ea6 \u570f\u592e\u9053(\u3064\u304f\u3070\u5cf6\u540d\u30fb\u67f3\u6a4b\u5730\u533a)\u5730\u8cea\u8abf\u67fb14K37","client_name":"\u56fd\u571f\u4ea4\u901a\u7701\u95a2\u6771\u5730\u65b9\u6574\u5099\u5c40\u5e38\u7dcf\u56fd\u9053\u5de5\u4e8b\u4e8b\u52d9\u6240","boring_xml_url":47,"boring_view_url":1,"soilmap_view_url":null,"soiltest_xml_url":0,"soiltest_view_url":0},{"id":145695,"code":"B4KJ201801003-3944","latitude":"36.05641222","longitude":"140.0507342","source_code":"KT200283346020390003","project_name":"\u570f\u592e\u9053","survey_name":"\u5e73\u621014\u5e74\u5ea6 \u570f\u592e\u9053(\u3064\u304f\u3070\u5cf6\u540d\u30fb\u67f3\u6a4b\u5730\u533a)\u5730\u8cea\u8abf\u67fb14K37","client_name":"\u56fd\u571f\u4ea4\u901a\u7701\u95a2\u6771\u5730\u65b9\u6574\u5099\u5c40\u5e38\u7dcf\u56fd\u9053\u5de5\u4e8b\u4e8b\u52d9\u6240","boring_xml_url":47,"boring_view_url":1,"soilmap_view_url":null,"soiltest_xml_url":0,"soiltest_view_url":0},{"id":145694,"code":"B4KJ201801003-3943","latitude":"36.0567525","longitude":"140.0490564","source_code":"KT200283346020390002","project_name":"\u570f\u592e\u9053","survey_name":"\u5e73\u621014\u5e74\u5ea6 \u570f\u592e\u9053(\u3064\u304f\u3070\u5cf6\u540d\u30fb\u67f3\u6a4b\u5730\u533a)\u5730\u8cea\u8abf\u67fb14K37","client_name":"\u56fd\u571f\u4ea4\u901a\u7701\u95a2\u6771\u5730\u65b9\u6574\u5099\u5c40\u5e38\u7dcf\u56fd\u9053\u5de5\u4e8b\u4e8b\u52d9\u6240","boring_xml_url":47,"boring_view_url":1,"soilmap_view_url":null,"soiltest_xml_url":0,"soiltest_view_url":0},{"id":145693,"code":"B4KJ201801003-3942","latitude":"36.05724639","longitude":"140.0476786","source_code":"KT200283346020390001","project_name":"\u570f\u592e\u9053","survey_name":"\u5e73\u621014\u5e74\u5ea6 \u570f\u592e\u9053(\u3064\u304f\u3070\u5cf6\u540d\u30fb\u67f3\u6a4b\u5730\u533a)\u5730\u8cea\u8abf\u67fb14K37","client_name":"\u56fd\u571f\u4ea4\u901a\u7701\u95a2\u6771\u5730\u65b9\u6574\u5099\u5c40\u5e38\u7dcf\u56fd\u9053\u5de5\u4e8b\u4e8b\u52d9\u6240","boring_xml_url":47,"boring_view_url":1,"soilmap_view_url":null,"soiltest_xml_url":0,"soiltest_view_url":0},{"id":145692,"code":"B4KJ201801003-3941","latitude":"36.06181501","longitude":"140.0409771","source_code":"KT200283346020380016","project_name":"\u9996\u90fd\u570f\u4e2d\u592e\u9023\u7d61\u81ea\u52d5\u8eca\u9053","survey_name":"\u5e73\u621014\u5e74\u5ea6\u570f\u592e\u9053(\u3064\u304f\u3070\u9ad8\u9808\u8cc0\u30fb\u5cf6\u540d\u5730\u533a)\u5730\u8cea\u8abf\u67fb14K36","client_name":"\u56fd\u571f\u4ea4\u901a\u7701\u95a2\u6771\u5730\u65b9\u6574\u5099\u5c40\u5e38\u7dcf\u56fd\u9053\u5de5\u4e8b\u4e8b\u52d9\u6240","boring_xml_url":47,"boring_view_url":1,"soilmap_view_url":null,"soiltest_xml_url":0,"soiltest_view_url":0},{"id":145691,"code":"B4KJ201801003-3940","latitude":"36.06270375","longitude":"140.0391439","source_code":"KT200283346020380015","project_name":"\u9996\u90fd\u570f\u4e2d\u592e\u9023\u7d61\u81ea\u52d5\u8eca\u9053","survey_name":"\u5e73\u621014\u5e74\u5ea6\u570f\u592e\u9053(\u3064\u304f\u3070\u9ad8\u9808\u8cc0\u30fb\u5cf6\u540d\u5730\u533a)\u5730\u8cea\u8abf\u67fb14K36","client_name":"\u56fd\u571f\u4ea4\u901a\u7701\u95a2\u6771\u5730\u65b9\u6574\u5099\u5c40\u5e38\u7dcf\u56fd\u9053\u5de5\u4e8b\u4e8b\u52d9\u6240","boring_xml_url":47,"boring_view_url":1,"soilmap_view_url":null,"soiltest_xml_url":0,"soiltest_view_url":0},{"id":145690,"code":"B4KJ201801003-3939","latitude":"36.06328697","longitude":"140.037394","source_code":"KT200283346020380014","project_name":"\u9996\u90fd\u570f\u4e2d\u592e\u9023\u7d61\u81ea\u52d5\u8eca\u9053","survey_name":"\u5e73\u621014\u5e74\u5ea6\u570f\u592e\u9053(\u3064\u304f\u3070\u9ad8\u9808\u8cc0\u30fb\u5cf6\u540d\u5730\u533a)\u5730\u8cea\u8abf\u67fb14K36","client_name":"\u56fd\u571f\u4ea4\u901a\u7701\u95a2\u6771\u5730\u65b9\u6574\u5099\u5c40\u5e38\u7dcf\u56fd\u9053\u5de5\u4e8b\u4e8b\u52d9\u6240","boring_xml_url":47,"boring_view_url":1,"soilmap_view_url":null,"soiltest_xml_url":0,"soiltest_view_url":0},{"id":145689,"code":"B4KJ201801003-3938","latitude":"36.06373133","longitude":"140.0359497","source_code":"KT200283346020380013","project_name":"\u9996\u90fd\u570f\u4e2d\u592e\u9023\u7d61\u81ea\u52d5\u8eca\u9053","survey_name":"\u5e73\u621014\u5e74\u5ea6\u570f\u592e\u9053(\u3064\u304f\u3070\u9ad8\u9808\u8cc0\u30fb\u5cf6\u540d\u5730\u533a)\u5730\u8cea\u8abf\u67fb14K36","client_name":"\u56fd\u571f\u4ea4\u901a\u7701\u95a2\u6771\u5730\u65b9\u6574\u5099\u5c40\u5e38\u7dcf\u56fd\u9053\u5de5\u4e8b\u4e8b\u52d9\u6240","boring_xml_url":47,"boring_view_url":1,"soilmap_view_url":null,"soiltest_xml_url":0,"soiltest_view_url":0},{"id":145688,"code":"B4KJ201801003-3937","latitude":"36.06487003","longitude":"140.0339498","source_code":"KT200283346020380012","project_name":"\u9996\u90fd\u570f\u4e2d\u592e\u9023\u7d61\u81ea\u52d5\u8eca\u9053","survey_name":"\u5e73\u621014\u5e74\u5ea6\u570f\u592e\u9053(\u3064\u304f\u3070\u9ad8\u9808\u8cc0\u30fb\u5cf6\u540d\u5730\u533a)\u5730\u8cea\u8abf\u67fb14K36","client_name":"\u56fd\u571f\u4ea4\u901a\u7701\u95a2\u6771\u5730\u65b9\u6574\u5099\u5c40\u5e38\u7dcf\u56fd\u9053\u5de5\u4e8b\u4e8b\u52d9\u6240","boring_xml_url":47,"boring_view_url":1,"soilmap_view_url":null,"soiltest_xml_url":0,"soiltest_view_url":0},{"id":145687,"code":"B4KJ201801003-3936","latitude":"36.06564768","longitude":"140.0325888","source_code":"KT200283346020380011","project_name":"\u9996\u90fd\u570f\u4e2d\u592e\u9023\u7d61\u81ea\u52d5\u8eca\u9053","survey_name":"\u5e73\u621014\u5e74\u5ea6\u570f\u592e\u9053(\u3064\u304f\u3070\u9ad8\u9808\u8cc0\u30fb\u5cf6\u540d\u5730\u533a)\u5730\u8cea\u8abf\u67fb14K36","client_name":"\u56fd\u571f\u4ea4\u901a\u7701\u95a2\u6771\u5730\u65b9\u6574\u5099\u5c40\u5e38\u7dcf\u56fd\u9053\u5de5\u4e8b\u4e8b\u52d9\u6240","boring_xml_url":47,"boring_view_url":1,"soilmap_view_url":null,"soiltest_xml_url":0,"soiltest_view_url":0},{"id":145686,"code":"B4KJ201801003-3935","latitude":"36.06631421","longitude":"140.0301445","source_code":"KT200283346020380010","project_name":"\u9996\u90fd\u570f\u4e2d\u592e\u9023\u7d61\u81ea\u52d5\u8eca\u9053","survey_name":"\u5e73\u621014\u5e74\u5ea6\u570f\u592e\u9053(\u3064\u304f\u3070\u9ad8\u9808\u8cc0\u30fb\u5cf6\u540d\u5730\u533a)\u5730\u8cea\u8abf\u67fb14K36","client_name":"\u56fd\u571f\u4ea4\u901a\u7701\u95a2\u6771\u5730\u65b9\u6574\u5099\u5c40\u5e38\u7dcf\u56fd\u9053\u5de5\u4e8b\u4e8b\u52d9\u6240","boring_xml_url":47,"boring_view_url":1,"soilmap_view_url":null,"soiltest_xml_url":0,"soiltest_view_url":0},{"id":145685,"code":"B4KJ201801003-3934","latitude":"36.06745285","longitude":"140.0257837","source_code":"KT200283346020380009","project_name":"\u9996\u90fd\u570f\u4e2d\u592e\u9023\u7d61\u81ea\u52d5\u8eca\u9053","survey_name":"\u5e73\u621014\u5e74\u5ea6\u570f\u592e\u9053(\u3064\u304f\u3070\u9ad8\u9808\u8cc0\u30fb\u5cf6\u540d\u5730\u533a)\u5730\u8cea\u8abf\u67fb14K36","client_name":"\u56fd\u571f\u4ea4\u901a\u7701\u95a2\u6771\u5730\u65b9\u6574\u5099\u5c40\u5e38\u7dcf\u56fd\u9053\u5de5\u4e8b\u4e8b\u52d9\u6240","boring_xml_url":47,"boring_view_url":1,"soilmap_view_url":null,"soiltest_xml_url":0,"soiltest_view_url":0},{"id":145684,"code":"B4KJ201801003-3933","latitude":"36.0682305","longitude":"140.0241727","source_code":"KT200283346020380008","project_name":"\u9996\u90fd\u570f\u4e2d\u592e\u9023\u7d61\u81ea\u52d5\u8eca\u9053","survey_name":"\u5e73\u621014\u5e74\u5ea6\u570f\u592e\u9053(\u3064\u304f\u3070\u9ad8\u9808\u8cc0\u30fb\u5cf6\u540d\u5730\u533a)\u5730\u8cea\u8abf\u67fb14K36","client_name":"\u56fd\u571f\u4ea4\u901a\u7701\u95a2\u6771\u5730\u65b9\u6574\u5099\u5c40\u5e38\u7dcf\u56fd\u9053\u5de5\u4e8b\u4e8b\u52d9\u6240","boring_xml_url":47,"boring_view_url":1,"soilmap_view_url":null,"soiltest_xml_url":0,"soiltest_view_url":0},{"id":145683,"code":"B4KJ201801003-3932","latitude":"36.06931372","longitude":"140.0245337","source_code":"KT200283346020380007","project_name":"\u9996\u90fd\u570f\u4e2d\u592e\u9023\u7d61\u81ea\u52d5\u8eca\u9053","survey_name":"\u5e73\u621014\u5e74\u5ea6\u570f\u592e\u9053(\u3064\u304f\u3070\u9ad8\u9808\u8cc0\u30fb\u5cf6\u540d\u5730\u533a)\u5730\u8cea\u8abf\u67fb14K36","client_name":"\u56fd\u571f\u4ea4\u901a\u7701\u95a2\u6771\u5730\u65b9\u6574\u5099\u5c40\u5e38\u7dcf\u56fd\u9053\u5de5\u4e8b\u4e8b\u52d9\u6240","boring_xml_url":47,"boring_view_url":1,"soilmap_view_url":null,"soiltest_xml_url":0,"soiltest_view_url":0},{"id":145682,"code":"B4KJ201801003-3931","latitude":"36.06992467","longitude":"140.0211729","source_code":"KT200283346020380006","project_name":"\u9996\u90fd\u570f\u4e2d\u592e\u9023\u7d61\u81ea\u52d5\u8eca\u9053","survey_name":"\u5e73\u621014\u5e74\u5ea6\u570f\u592e\u9053(\u3064\u304f\u3070\u9ad8\u9808\u8cc0\u30fb\u5cf6\u540d\u5730\u533a)\u5730\u8cea\u8abf\u67fb14K36","client_name":"\u56fd\u571f\u4ea4\u901a\u7701\u95a2\u6771\u5730\u65b9\u6574\u5099\u5c40\u5e38\u7dcf\u56fd\u9053\u5de5\u4e8b\u4e8b\u52d9\u6240","boring_xml_url":47,"boring_view_url":1,"soilmap_view_url":null,"soiltest_xml_url":0,"soiltest_view_url":0},{"id":145681,"code":"B4KJ201801003-3930","latitude":"36.07036904","longitude":"140.0202007","source_code":"KT200283346020380005","project_name":"\u9996\u90fd\u570f\u4e2d\u592e\u9023\u7d61\u81ea\u52d5\u8eca\u9053","survey_name":"\u5e73\u621014\u5e74\u5ea6\u570f\u592e\u9053(\u3064\u304f\u3070\u9ad8\u9808\u8cc0\u30fb\u5cf6\u540d\u5730\u533a)\u5730\u8cea\u8abf\u67fb14K36","client_name":"\u56fd\u571f\u4ea4\u901a\u7701\u95a2\u6771\u5730\u65b9\u6574\u5099\u5c40\u5e38\u7dcf\u56fd\u9053\u5de5\u4e8b\u4e8b\u52d9\u6240","boring_xml_url":47,"boring_view_url":1,"soilmap_view_url":null,"soiltest_xml_url":0,"soiltest_view_url":0},{"id":145680,"code":"B4KJ201801003-3929","latitude":"36.07075785","longitude":"140.0192286","source_code":"KT200283346020380004","project_name":"\u9996\u90fd\u570f\u4e2d\u592e\u9023\u7d61\u81ea\u52d5\u8eca\u9053","survey_name":"\u5e73\u621014\u5e74\u5ea6\u570f\u592e\u9053(\u3064\u304f\u3070\u9ad8\u9808\u8cc0\u30fb\u5cf6\u540d\u5730\u533a)\u5730\u8cea\u8abf\u67fb14K36","client_name":"\u56fd\u571f\u4ea4\u901a\u7701\u95a2\u6771\u5730\u65b9\u6574\u5099\u5c40\u5e38\u7dcf\u56fd\u9053\u5de5\u4e8b\u4e8b\u52d9\u6240","boring_xml_url":47,"boring_view_url":1,"soilmap_view_url":null,"soiltest_xml_url":0,"soiltest_view_url":0},{"id":145679,"code":"B4KJ201801003-3928","latitude":"36.07120223","longitude":"140.0185342","source_code":"KT200283346020380003","project_name":"\u9996\u90fd\u570f\u4e2d\u592e\u9023\u7d61\u81ea\u52d5\u8eca\u9053","survey_name":"\u5e73\u621014\u5e74\u5ea6\u570f\u592e\u9053(\u3064\u304f\u3070\u9ad8\u9808\u8cc0\u30fb\u5cf6\u540d\u5730\u533a)\u5730\u8cea\u8abf\u67fb14K36","client_name":"\u56fd\u571f\u4ea4\u901a\u7701\u95a2\u6771\u5730\u65b9\u6574\u5099\u5c40\u5e38\u7dcf\u56fd\u9053\u5de5\u4e8b\u4e8b\u52d9\u6240","boring_xml_url":47,"boring_view_url":1,"soilmap_view_url":null,"soiltest_xml_url":0,"soiltest_view_url":0},{"id":145678,"code":"B4KJ201801003-3927","latitude":"36.07150774","longitude":"140.0181175","source_code":"KT200283346020380002","project_name":"\u9996\u90fd\u570f\u4e2d\u592e\u9023\u7d61\u81ea\u52d5\u8eca\u9053","survey_name":"\u5e73\u621014\u5e74\u5ea6\u570f\u592e\u9053(\u3064\u304f\u3070\u9ad8\u9808\u8cc0\u30fb\u5cf6\u540d\u5730\u533a)\u5730\u8cea\u8abf\u67fb14K36","client_name":"\u56fd\u571f\u4ea4\u901a\u7701\u95a2\u6771\u5730\u65b9\u6574\u5099\u5c40\u5e38\u7dcf\u56fd\u9053\u5de5\u4e8b\u4e8b\u52d9\u6240","boring_xml_url":47,"boring_view_url":1,"soilmap_view_url":null,"soiltest_xml_url":0,"soiltest_view_url":0},{"id":145677,"code":"B4KJ201801003-3926","latitude":"36.07250758","longitude":"140.0162565","source_code":"KT200283346020380001","project_name":"\u9996\u90fd\u570f\u4e2d\u592e\u9023\u7d61\u81ea\u52d5\u8eca\u9053","survey_name":"\u5e73\u621014\u5e74\u5ea6\u570f\u592e\u9053(\u3064\u304f\u3070\u9ad8\u9808\u8cc0\u30fb\u5cf6\u540d\u5730\u533a)\u5730\u8cea\u8abf\u67fb14K36","client_name":"\u56fd\u571f\u4ea4\u901a\u7701\u95a2\u6771\u5730\u65b9\u6574\u5099\u5c40\u5e38\u7dcf\u56fd\u9053\u5de5\u4e8b\u4e8b\u52d9\u6240","boring_xml_url":47,"boring_view_url":1,"soilmap_view_url":null,"soiltest_xml_url":50,"soiltest_view_url":50},{"id":145676,"code":"B4KJ201801003-3925","latitude":"36.04533333","longitude":"140.1072778","source_code":"KT200283346020230032","project_name":"\u9996\u90fd\u570f\u4e2d\u592e\u9023\u7d61\u81ea\u52d5\u8eca\u9053\u8def","survey_name":"\u570f\u592e\u9053(\u3064\u304f\u3070IC\uff5e\u3064\u304f\u3070JCT)\u5730\u8cea\u8abf\u67fb14K12","client_name":"\u56fd\u571f\u4ea4\u901a\u7701\u95a2\u6771\u5730\u65b9\u6574\u5099\u5c40\u5e38\u7dcf\u56fd\u9053\u5de5\u4e8b\u4e8b\u52d9\u6240","boring_xml_url":47,"boring_view_url":1,"soilmap_view_url":null,"soiltest_xml_url":0,"soiltest_view_url":0}]}}