{"header":{"xyz":{"source":[],"mosaic":false},"page":5833,"raw":{"soiltest_result":"0","bbox":"57.598333,109.544722,1.933333,163.806111","page":"5833"},"conditions":{"soiltest_result":0,"north":57.598333,"west":109.544722,"south":1.933333,"east":163.806111},"success":true,"message":""},"data":{"meta":{"total":212844,"page":5833,"pages":7095,"count":30},"values":[{"id":145585,"code":"B4KJ201801003-3834","latitude":"40.87569","longitude":"141.37306","source_code":"TH61412340005","project_name":"\u9ad8\u702c\u5ddd\u5468\u8fba\u57fa\u790e\u5730\u76e4\u8abf\u67fb","survey_name":"\u9ad8\u702c\u5ddd\u5468\u8fba\u57fa\u790e\u5730\u76e4\u8abf\u67fb","client_name":"\u56fd\u571f\u4ea4\u901a\u7701\u6771\u5317\u5730\u65b9\u6574\u5099\u5c40\u9ad8\u702c\u5ddd\u6cb3\u5ddd\u4e8b\u52d9\u6240","boring_xml_url":40,"boring_view_url":1,"soilmap_view_url":null,"soiltest_xml_url":0,"soiltest_view_url":0},{"id":145584,"code":"B4KJ201801003-3833","latitude":"40.87342","longitude":"141.3725","source_code":"TH61412340004","project_name":"\u9ad8\u702c\u5ddd\u5468\u8fba\u57fa\u790e\u5730\u76e4\u8abf\u67fb","survey_name":"\u9ad8\u702c\u5ddd\u5468\u8fba\u57fa\u790e\u5730\u76e4\u8abf\u67fb","client_name":"\u56fd\u571f\u4ea4\u901a\u7701\u6771\u5317\u5730\u65b9\u6574\u5099\u5c40\u9ad8\u702c\u5ddd\u6cb3\u5ddd\u4e8b\u52d9\u6240","boring_xml_url":40,"boring_view_url":1,"soilmap_view_url":null,"soiltest_xml_url":0,"soiltest_view_url":0},{"id":145583,"code":"B4KJ201801003-3832","latitude":"40.87481","longitude":"141.37331","source_code":"TH61412340003","project_name":"\u662d\u548c53\u5e74\u5ea6\u9ad8\u702c\u5ddd\u5468\u8fba\u7b49\u57fa\u790e\u5730\u76e4\u8abf\u67fb","survey_name":"\u662d\u548c53\u5e74\u5ea6\u9ad8\u702c\u5ddd\u5468\u8fba\u7b49\u57fa\u790e\u5730\u76e4\u8abf\u67fb","client_name":"\u56fd\u571f\u4ea4\u901a\u7701\u6771\u5317\u5730\u65b9\u6574\u5099\u5c40\u9ad8\u702c\u5ddd\u6cb3\u5ddd\u4e8b\u52d9\u6240","boring_xml_url":40,"boring_view_url":1,"soilmap_view_url":null,"soiltest_xml_url":0,"soiltest_view_url":0},{"id":145582,"code":"B4KJ201801003-3831","latitude":"40.87122","longitude":"141.3715","source_code":"TH61412340002","project_name":"\u662d\u548c53\u5e74\u5ea6\u9ad8\u702c\u5ddd\u5468\u8fba\u7b49\u57fa\u790e\u5730\u76e4\u8abf\u67fb","survey_name":"\u662d\u548c53\u5e74\u5ea6\u9ad8\u702c\u5ddd\u5468\u8fba\u7b49\u57fa\u790e\u5730\u76e4\u8abf\u67fb","client_name":"\u56fd\u571f\u4ea4\u901a\u7701\u6771\u5317\u5730\u65b9\u6574\u5099\u5c40\u9ad8\u702c\u5ddd\u6cb3\u5ddd\u4e8b\u52d9\u6240","boring_xml_url":40,"boring_view_url":1,"soilmap_view_url":null,"soiltest_xml_url":0,"soiltest_view_url":0},{"id":145581,"code":"B4KJ201801003-3830","latitude":"40.877","longitude":"141.37256","source_code":"TH61412340001","project_name":"\u9ad8\u6f6e\u5824\u8010\u9707\u8a2d\u8a08\u8abf\u67fb","survey_name":"\u9ad8\u6f6e\u5824\u8010\u9707\u8a2d\u8a08\u8abf\u67fb","client_name":"\u56fd\u571f\u4ea4\u901a\u7701\u6771\u5317\u5730\u65b9\u6574\u5099\u5c40\u9ad8\u702c\u5ddd\u6cb3\u5ddd\u4e8b\u52d9\u6240","boring_xml_url":40,"boring_view_url":1,"soilmap_view_url":null,"soiltest_xml_url":0,"soiltest_view_url":0},{"id":145580,"code":"B4KJ201801003-3829","latitude":"40.86714","longitude":"141.37264","source_code":"TH61412330003","project_name":"\u9ad8\u702c\u5ddd\u5468\u8fba\u57fa\u790e\u5730\u76e4\u8abf\u67fb","survey_name":"\u9ad8\u702c\u5ddd\u5468\u8fba\u57fa\u790e\u5730\u76e4\u8abf\u67fb","client_name":"\u56fd\u571f\u4ea4\u901a\u7701\u6771\u5317\u5730\u65b9\u6574\u5099\u5c40\u9ad8\u702c\u5ddd\u6cb3\u5ddd\u4e8b\u52d9\u6240","boring_xml_url":40,"boring_view_url":1,"soilmap_view_url":null,"soiltest_xml_url":0,"soiltest_view_url":0},{"id":145579,"code":"B4KJ201801003-3828","latitude":"40.86669","longitude":"141.3725","source_code":"TH61412330002","project_name":"\u9ad8\u702c\u5ddd\u5468\u8fba\u57fa\u790e\u5730\u76e4\u8abf\u67fb","survey_name":"\u9ad8\u702c\u5ddd\u5468\u8fba\u57fa\u790e\u5730\u76e4\u8abf\u67fb","client_name":"\u56fd\u571f\u4ea4\u901a\u7701\u6771\u5317\u5730\u65b9\u6574\u5099\u5c40\u9ad8\u702c\u5ddd\u6cb3\u5ddd\u4e8b\u52d9\u6240","boring_xml_url":40,"boring_view_url":1,"soilmap_view_url":null,"soiltest_xml_url":0,"soiltest_view_url":0},{"id":145578,"code":"B4KJ201801003-3827","latitude":"40.86519","longitude":"141.37764","source_code":"TH61412330001","project_name":"\u662d\u548c53\u5e74\u5ea6\u9ad8\u702c\u5ddd\u5468\u8fba\u7b49\u57fa\u790e\u5730\u76e4\u8abf\u67fb","survey_name":"\u662d\u548c53\u5e74\u5ea6\u9ad8\u702c\u5ddd\u5468\u8fba\u7b49\u57fa\u790e\u5730\u76e4\u8abf\u67fb","client_name":"\u56fd\u571f\u4ea4\u901a\u7701\u6771\u5317\u5730\u65b9\u6574\u5099\u5c40\u9ad8\u702c\u5ddd\u6cb3\u5ddd\u4e8b\u52d9\u6240","boring_xml_url":40,"boring_view_url":1,"soilmap_view_url":null,"soiltest_xml_url":0,"soiltest_view_url":0},{"id":145577,"code":"B4KJ201801003-3826","latitude":"40.85686","longitude":"141.37764","source_code":"TH61412320006","project_name":"","survey_name":"\u6cb3\u53e3\u5830\u5468\u8fba\u7b49\u57fa\u790e\u5730\u76e4\u8abf\u67fb","client_name":"\u56fd\u571f\u4ea4\u901a\u7701\u6771\u5317\u5730\u65b9\u6574\u5099\u5c40\u9ad8\u702c\u5ddd\u6cb3\u5ddd\u4e8b\u52d9\u6240","boring_xml_url":40,"boring_view_url":1,"soilmap_view_url":null,"soiltest_xml_url":0,"soiltest_view_url":0},{"id":145576,"code":"B4KJ201801003-3825","latitude":"40.85686","longitude":"141.37764","source_code":"TH61412320005","project_name":"","survey_name":"\u6cb3\u53e3\u5830\u5468\u8fba\u7b49\u57fa\u790e\u5730\u76e4\u8abf\u67fb","client_name":"\u56fd\u571f\u4ea4\u901a\u7701\u6771\u5317\u5730\u65b9\u6574\u5099\u5c40\u9ad8\u702c\u5ddd\u6cb3\u5ddd\u4e8b\u52d9\u6240","boring_xml_url":40,"boring_view_url":1,"soilmap_view_url":null,"soiltest_xml_url":0,"soiltest_view_url":0},{"id":145575,"code":"B4KJ201801003-3824","latitude":"40.85686","longitude":"141.37764","source_code":"TH61412320004","project_name":"","survey_name":"\u6cb3\u53e3\u5830\u5468\u8fba\u7b49\u57fa\u790e\u5730\u76e4\u8abf\u67fb","client_name":"\u56fd\u571f\u4ea4\u901a\u7701\u6771\u5317\u5730\u65b9\u6574\u5099\u5c40\u9ad8\u702c\u5ddd\u6cb3\u5ddd\u4e8b\u52d9\u6240","boring_xml_url":40,"boring_view_url":1,"soilmap_view_url":null,"soiltest_xml_url":0,"soiltest_view_url":0},{"id":145574,"code":"B4KJ201801003-3823","latitude":"40.85686","longitude":"141.37764","source_code":"TH61412320003","project_name":"","survey_name":"\u6cb3\u53e3\u5830\u5468\u8fba\u7b49\u57fa\u790e\u5730\u76e4\u8abf\u67fb","client_name":"\u56fd\u571f\u4ea4\u901a\u7701\u6771\u5317\u5730\u65b9\u6574\u5099\u5c40\u9ad8\u702c\u5ddd\u6cb3\u5ddd\u4e8b\u52d9\u6240","boring_xml_url":40,"boring_view_url":1,"soilmap_view_url":null,"soiltest_xml_url":0,"soiltest_view_url":0},{"id":145573,"code":"B4KJ201801003-3822","latitude":"40.85517","longitude":"141.37511","source_code":"TH61412320002","project_name":"\u662d\u548c55\u5e74\u5ea6\u9ad8\u702c\u5ddd\u5468\u8fba\u57fa\u790e\u5730\u76e4\u8abf\u67fb(2)","survey_name":"\u662d\u548c55\u5e74\u5ea6\u9ad8\u702c\u5ddd\u5468\u8fba\u57fa\u790e\u5730\u76e4\u8abf\u67fb(2)","client_name":"\u56fd\u571f\u4ea4\u901a\u7701\u6771\u5317\u5730\u65b9\u6574\u5099\u5c40\u9ad8\u702c\u5ddd\u6cb3\u5ddd\u4e8b\u52d9\u6240","boring_xml_url":40,"boring_view_url":1,"soilmap_view_url":null,"soiltest_xml_url":0,"soiltest_view_url":0},{"id":145572,"code":"B4KJ201801003-3821","latitude":"40.85686","longitude":"141.37764","source_code":"TH61412320001","project_name":"","survey_name":"\u5c0f\u5ddd\u539f\u6e56\u5468\u8fba\u57fa\u790e\u5730\u76e4\u8abf\u67fb","client_name":"\u56fd\u571f\u4ea4\u901a\u7701\u6771\u5317\u5730\u65b9\u6574\u5099\u5c40\u9ad8\u702c\u5ddd\u6cb3\u5ddd\u4e8b\u52d9\u6240","boring_xml_url":40,"boring_view_url":1,"soilmap_view_url":null,"soiltest_xml_url":0,"soiltest_view_url":0},{"id":145571,"code":"B4KJ201801003-3820","latitude":"40.84853","longitude":"141.39014","source_code":"TH61412311007","project_name":"","survey_name":"\u6cb3\u53e3\u5354\u5468\u8fba\u7b49\u57fa\u790e\u5730\u76e4\u8abf\u67fb","client_name":"\u56fd\u571f\u4ea4\u901a\u7701\u6771\u5317\u5730\u65b9\u6574\u5099\u5c40\u9ad8\u702c\u5ddd\u6cb3\u5ddd\u4e8b\u52d9\u6240","boring_xml_url":40,"boring_view_url":1,"soilmap_view_url":null,"soiltest_xml_url":0,"soiltest_view_url":0},{"id":145570,"code":"B4KJ201801003-3819","latitude":"40.84853","longitude":"141.39014","source_code":"TH61412311006","project_name":"","survey_name":"\u6cb3\u53e3\u5354\u5468\u8fba\u7b49\u57fa\u790e\u5730\u76e4\u8abf\u67fb","client_name":"\u56fd\u571f\u4ea4\u901a\u7701\u6771\u5317\u5730\u65b9\u6574\u5099\u5c40\u9ad8\u702c\u5ddd\u6cb3\u5ddd\u4e8b\u52d9\u6240","boring_xml_url":40,"boring_view_url":1,"soilmap_view_url":null,"soiltest_xml_url":0,"soiltest_view_url":0},{"id":145569,"code":"B4KJ201801003-3818","latitude":"40.84853","longitude":"141.39014","source_code":"TH61412311005","project_name":"","survey_name":"\u6cb3\u53e3\u5830\u5468\u8fba\u7b49\u57fa\u790e\u5730\u76e4\u8abf\u67fb","client_name":"\u56fd\u571f\u4ea4\u901a\u7701\u6771\u5317\u5730\u65b9\u6574\u5099\u5c40\u9ad8\u702c\u5ddd\u6cb3\u5ddd\u4e8b\u52d9\u6240","boring_xml_url":40,"boring_view_url":1,"soilmap_view_url":null,"soiltest_xml_url":0,"soiltest_view_url":0},{"id":145568,"code":"B4KJ201801003-3817","latitude":"40.84544","longitude":"141.38892","source_code":"TH61412311004","project_name":"","survey_name":"\u662d\u548c53\u5e74\u5ea6\u9ad8\u702c\u5ddd\u5468\u8fba\u7b49\u57fa\u790e\u5730\u76e4\u8abf\u67fb","client_name":"\u56fd\u571f\u4ea4\u901a\u7701\u6771\u5317\u5730\u65b9\u6574\u5099\u5c40\u9ad8\u702c\u5ddd\u6cb3\u5ddd\u4e8b\u52d9\u6240","boring_xml_url":40,"boring_view_url":1,"soilmap_view_url":null,"soiltest_xml_url":0,"soiltest_view_url":0},{"id":145567,"code":"B4KJ201801003-3816","latitude":"40.84631","longitude":"141.38939","source_code":"TH61412311003","project_name":"","survey_name":"\u662d\u548c53\u5e74\u5ea6\u9ad8\u702c\u5ddd\u5468\u8fba\u7b49\u57fa\u790e\u5730\u76e4\u8abf\u67fb","client_name":"\u56fd\u571f\u4ea4\u901a\u7701\u6771\u5317\u5730\u65b9\u6574\u5099\u5c40\u9ad8\u702c\u5ddd\u6cb3\u5ddd\u4e8b\u52d9\u6240","boring_xml_url":40,"boring_view_url":1,"soilmap_view_url":null,"soiltest_xml_url":0,"soiltest_view_url":0},{"id":145566,"code":"B4KJ201801003-3815","latitude":"40.84453","longitude":"141.38858","source_code":"TH61412311002","project_name":"\u6cb3\u53e3\u5830\u5468\u8fba\u57fa\u790e\u5730\u76e4\u8abf\u67fb","survey_name":"\u6cb3\u53e3\u5830\u5468\u8fba\u57fa\u790e\u5730\u76e4\u8abf\u67fb","client_name":"\u56fd\u571f\u4ea4\u901a\u7701\u6771\u5317\u5730\u65b9\u6574\u5099\u5c40\u9ad8\u702c\u5ddd\u6cb3\u5ddd\u4e8b\u52d9\u6240","boring_xml_url":40,"boring_view_url":1,"soilmap_view_url":null,"soiltest_xml_url":0,"soiltest_view_url":0},{"id":145565,"code":"B4KJ201801003-3814","latitude":"40.84486","longitude":"141.39092","source_code":"TH61412311001","project_name":"","survey_name":"\u662d\u548c55\u5e74\u5ea6\u9ad8\u702c\u5ddd\u5468\u8fba\u57fa\u790e\u5730\u76e4\u8abf\u67fb(2)","client_name":"\u56fd\u571f\u4ea4\u901a\u7701\u6771\u5317\u5730\u65b9\u6574\u5099\u5c40\u9ad8\u702c\u5ddd\u6cb3\u5ddd\u4e8b\u52d9\u6240","boring_xml_url":40,"boring_view_url":1,"soilmap_view_url":null,"soiltest_xml_url":0,"soiltest_view_url":0},{"id":145564,"code":"B4KJ201801003-3813","latitude":"40.84853","longitude":"141.37764","source_code":"TH61412310024","project_name":"","survey_name":"\u6cb3\u53e3\u5830\u5468\u8fba\u7b49\u57fa\u790e\u5730\u76e4\u8abf\u67fb","client_name":"\u56fd\u571f\u4ea4\u901a\u7701 \u6771\u5317\u5730\u65b9\u6574\u5099\u5c40 \u9ad8\u702c\u5ddd\u6cb3\u5ddd\u4e8b\u52d9\u6240","boring_xml_url":40,"boring_view_url":1,"soilmap_view_url":null,"soiltest_xml_url":0,"soiltest_view_url":0},{"id":145563,"code":"B4KJ201801003-3812","latitude":"40.84853","longitude":"141.37764","source_code":"TH61412310023","project_name":"\u6cb3\u53e3\u5830\u5468\u8fba\u7b49\u57fa\u790e\u5730\u76e4\u8abf\u67fb","survey_name":"\u6cb3\u53e3\u5830\u5468\u8fba\u7b49\u57fa\u790e\u5730\u76e4\u8abf\u67fb","client_name":"\u56fd\u571f\u4ea4\u901a\u7701\u6771\u5317\u5730\u65b9\u6574\u5099\u5c40\u9ad8\u702c\u5ddd\u6cb3\u5ddd\u4e8b\u52d9\u6240","boring_xml_url":40,"boring_view_url":1,"soilmap_view_url":null,"soiltest_xml_url":0,"soiltest_view_url":0},{"id":145562,"code":"B4KJ201801003-3811","latitude":"40.84853","longitude":"141.37764","source_code":"TH61412310022","project_name":"","survey_name":"\u6cb3\u53e3\u5830\u5468\u8fba\u7b49\u57fa\u790e\u5730\u76e4\u8abf\u67fb","client_name":"\u56fd\u571f\u4ea4\u901a\u7701\u6771\u5317\u5730\u65b9\u6574\u5099\u5c40\u9ad8\u702c\u5ddd\u6cb3\u5ddd\u4e8b\u52d9\u6240","boring_xml_url":40,"boring_view_url":1,"soilmap_view_url":null,"soiltest_xml_url":0,"soiltest_view_url":0},{"id":145561,"code":"B4KJ201801003-3810","latitude":"40.84853","longitude":"141.37764","source_code":"TH61412310021","project_name":"\u6cb3\u53e3\u5830\u5468\u8fba\u7b49\u57fa\u790e\u5730\u76e4\u8abf\u67fb","survey_name":"\u6cb3\u53e3\u5830\u5468\u8fba\u7b49\u57fa\u790e\u5730\u76e4\u8abf\u67fb","client_name":"\u56fd\u571f\u4ea4\u901a\u7701\u6771\u5317\u5730\u65b9\u6574\u5099\u5c40\u9ad8\u702c\u5ddd\u6cb3\u5ddd\u4e8b\u52d9\u6240","boring_xml_url":40,"boring_view_url":1,"soilmap_view_url":null,"soiltest_xml_url":0,"soiltest_view_url":0},{"id":145560,"code":"B4KJ201801003-3809","latitude":"40.84853","longitude":"141.37764","source_code":"TH61412310020","project_name":"\u6cb3\u53e3\u5830\u5468\u8fba\u7b49\u57fa\u790e\u5730\u76e4\u8abf\u67fb","survey_name":"\u6cb3\u53e3\u5830\u5468\u8fba\u7b49\u57fa\u790e\u5730\u76e4\u8abf\u67fb","client_name":"\u56fd\u571f\u4ea4\u901a\u7701\u6771\u5317\u5730\u65b9\u6574\u5099\u5c40\u9ad8\u702c\u5ddd\u6cb3\u5ddd\u4e8b\u52d9\u6240","boring_xml_url":40,"boring_view_url":1,"soilmap_view_url":null,"soiltest_xml_url":0,"soiltest_view_url":0},{"id":145559,"code":"B4KJ201801003-3808","latitude":"40.84853","longitude":"141.37764","source_code":"TH61412310019","project_name":"","survey_name":"\u6cb3\u53e3\u5830\u5468\u8fba\u7b49\u57fa\u790e\u5730\u76e4\u8abf\u67fb","client_name":"\u56fd\u571f\u4ea4\u901a\u7701\u6771\u5317\u5730\u65b9\u6574\u5099\u5c40\u9ad8\u702c\u5ddd\u6cb3\u5ddd\u4e8b\u52d9\u6240","boring_xml_url":40,"boring_view_url":1,"soilmap_view_url":null,"soiltest_xml_url":0,"soiltest_view_url":0},{"id":145558,"code":"B4KJ201801003-3807","latitude":"40.84853","longitude":"141.37764","source_code":"TH61412310018","project_name":"\u6cb3\u53e3\u5830\u5468\u8fba\u7b49\u57fa\u790e\u5730\u76e4\u8abf\u67fb","survey_name":"\u6cb3\u53e3\u5830\u5468\u8fba\u7b49\u57fa\u790e\u5730\u76e4\u8abf\u67fb","client_name":"\u56fd\u571f\u4ea4\u901a\u7701\u6771\u5317\u5730\u65b9\u6574\u5099\u5c40\u9ad8\u702c\u5ddd\u6cb3\u5ddd\u4e8b\u52d9\u6240","boring_xml_url":40,"boring_view_url":1,"soilmap_view_url":null,"soiltest_xml_url":0,"soiltest_view_url":0},{"id":145557,"code":"B4KJ201801003-3806","latitude":"40.84853","longitude":"141.37764","source_code":"TH61412310017","project_name":"","survey_name":"\u6cb3\u53e3\u5830\u5468\u8fba\u7b49\u57fa\u790e\u5730\u76e4\u8abf\u67fb","client_name":"\u56fd\u571f\u4ea4\u901a\u7701\u6771\u5317\u5730\u65b9\u6574\u5099\u5c40\u9ad8\u702c\u5ddd\u6cb3\u5ddd\u4e8b\u52d9\u6240","boring_xml_url":40,"boring_view_url":1,"soilmap_view_url":null,"soiltest_xml_url":0,"soiltest_view_url":0},{"id":145556,"code":"B4KJ201801003-3805","latitude":"40.84853","longitude":"141.37764","source_code":"TH61412310016","project_name":"","survey_name":"\u6cb3\u53e3\u5830\u5468\u8fba\u7b49\u57fa\u790e\u5730\u76e4\u8abf\u67fb","client_name":"\u56fd\u571f\u4ea4\u901a\u7701\u6771\u5317\u5730\u65b9\u6574\u5099\u5c40\u9ad8\u702c\u5ddd\u6cb3\u5ddd\u4e8b\u52d9\u6240","boring_xml_url":40,"boring_view_url":1,"soilmap_view_url":null,"soiltest_xml_url":0,"soiltest_view_url":0}]}}