{"header":{"xyz":{"source":[],"mosaic":false},"page":5836,"raw":{"soiltest_result":"0","bbox":"57.598333,109.544722,1.933333,163.806111","page":"5836"},"conditions":{"soiltest_result":0,"north":57.598333,"west":109.544722,"south":1.933333,"east":163.806111},"success":true,"message":""},"data":{"meta":{"total":212844,"page":5836,"pages":7095,"count":30},"values":[{"id":145495,"code":"B4KJ201801003-3744","latitude":"40.81381","longitude":"141.35556","source_code":"TH61411278001","project_name":"","survey_name":"\u662d\u548c61\u5e74\u5ea6\u4ecf\u6cbc\u5730\u533a\u5730\u8cea\u8abf\u67fb","client_name":"\u56fd\u571f\u4ea4\u901a\u7701\u6771\u5317\u5730\u65b9\u6574\u5099\u5c40\u9ad8\u702c\u5ddd\u6cb3\u5ddd\u4e8b\u52d9\u6240","boring_xml_url":40,"boring_view_url":1,"soilmap_view_url":null,"soiltest_xml_url":0,"soiltest_view_url":0},{"id":145494,"code":"B4KJ201801003-3743","latitude":"40.81847","longitude":"141.33139","source_code":"TH61411276002","project_name":"","survey_name":"\u5c0f\u5ddd\u539f\u6e56\u7dcf\u5408\u89b3\u6e2c\u6240\u57fa\u790e\u5730\u76e4\u8abf\u67fb\u53ca\u3073\u5b9f\u65bd\u8a2d\u8a08\u696d\u52d9","client_name":"\u56fd\u571f\u4ea4\u901a\u7701\u6771\u5317\u5730\u65b9\u6574\u5099\u5c40\u9ad8\u702c\u5ddd\u6cb3\u5ddd\u4e8b\u52d9\u6240","boring_xml_url":40,"boring_view_url":1,"soilmap_view_url":null,"soiltest_xml_url":0,"soiltest_view_url":0},{"id":145493,"code":"B4KJ201801003-3742","latitude":"40.81847","longitude":"141.33183","source_code":"TH61411276001","project_name":"","survey_name":"\u5c0f\u5ddd\u539f\u6e56\u7dcf\u5408\u89b3\u6e2c\u6240\u57fa\u790e\u5730\u76e4\u8abf\u67fb\u53ca\u3073\u5b9f\u65bd\u8a2d\u8a08\u696d\u52d9","client_name":"\u56fd\u571f\u4ea4\u901a\u7701\u6771\u5317\u5730\u65b9\u6574\u5099\u5c40\u9ad8\u702c\u5ddd\u6cb3\u5ddd\u4e8b\u52d9\u6240","boring_xml_url":40,"boring_view_url":1,"soilmap_view_url":null,"soiltest_xml_url":0,"soiltest_view_url":0},{"id":145492,"code":"B4KJ201801003-3741","latitude":"40.81047","longitude":"141.35028","source_code":"TH61411268001","project_name":"\u662d\u548c61\u5e74\u5ea6\u4ecf\u6cbc\u5730\u533a\u5730\u8cea\u8abf\u67fb","survey_name":"\u662d\u548c61\u5e74\u5ea6\u4ecf\u6cbc\u5730\u533a\u5730\u8cea\u8abf\u67fb","client_name":"\u56fd\u571f\u4ea4\u901a\u7701\u6771\u5317\u5730\u65b9\u6574\u5099\u5c40\u9ad8\u702c\u5ddd\u6cb3\u5ddd\u4e8b\u52d9\u6240","boring_xml_url":40,"boring_view_url":1,"soilmap_view_url":null,"soiltest_xml_url":0,"soiltest_view_url":0},{"id":145491,"code":"B4KJ201801003-3740","latitude":"40.80631","longitude":"141.32842","source_code":"TH61411266001","project_name":"","survey_name":"\u5c0f\u5ddd\u539f\u6e56\u7dcf\u5408\u89b3\u6e2c\u6240\u57fa\u790e\u5730\u76e4\u8abf\u67fb\u53ca\u3073\u5b9f\u65bd\u8a2d\u8a08\u696d\u52d9","client_name":"\u56fd\u571f\u4ea4\u901a\u7701\u6771\u5317\u5730\u65b9\u6574\u5099\u5c40\u9ad8\u702c\u5ddd\u6cb3\u5ddd\u4e8b\u52d9\u6240","boring_xml_url":40,"boring_view_url":1,"soilmap_view_url":null,"soiltest_xml_url":0,"soiltest_view_url":0},{"id":145490,"code":"B4KJ201801003-3739","latitude":"40.78681","longitude":"141.30744","source_code":"TH61411244001","project_name":"","survey_name":"\u5c0f\u5ddd\u539f\u6e56\u5468\u8fba\u57fa\u790e\u5730\u76e4\u8abf\u67fb","client_name":"\u56fd\u571f\u4ea4\u901a\u7701\u6771\u5317\u5730\u65b9\u6574\u5099\u5c40\u9ad8\u702c\u5ddd\u6cb3\u5ddd\u4e8b\u52d9\u6240","boring_xml_url":40,"boring_view_url":1,"soilmap_view_url":null,"soiltest_xml_url":0,"soiltest_view_url":0},{"id":145489,"code":"B4KJ201801003-3738","latitude":"40.78356","longitude":"141.30858","source_code":"TH61411234005","project_name":"","survey_name":"\u662d\u548c61\u5e74\u5ea6\u6392\u6c34\u65bd\u8a2d\u5730\u8cea\u8abf\u67fb","client_name":"\u56fd\u571f\u4ea4\u901a\u7701\u6771\u5317\u5730\u65b9\u6574\u5099\u5c40\u9ad8\u702c\u5ddd\u6cb3\u5ddd\u4e8b\u52d9\u6240","boring_xml_url":40,"boring_view_url":1,"soilmap_view_url":null,"soiltest_xml_url":0,"soiltest_view_url":0},{"id":145488,"code":"B4KJ201801003-3737","latitude":"40.78514","longitude":"141.30817","source_code":"TH61411234004","project_name":"","survey_name":"\u5c0f\u5ddd\u539f\u6e56\u5468\u8fba\u57fa\u790e\u5730\u76e4\u8abf\u67fb","client_name":"\u56fd\u571f\u4ea4\u901a\u7701\u6771\u5317\u5730\u65b9\u6574\u5099\u5c40\u9ad8\u702c\u5ddd\u6cb3\u5ddd\u4e8b\u52d9\u6240","boring_xml_url":40,"boring_view_url":1,"soilmap_view_url":null,"soiltest_xml_url":0,"soiltest_view_url":0},{"id":145487,"code":"B4KJ201801003-3736","latitude":"40.78186","longitude":"141.30264","source_code":"TH61411234003","project_name":"\u5c0f\u5ddd\u539f\u6e56\u5468\u8fba\u5730\u76e4\u8abf\u67fb(2)","survey_name":"\u5c0f\u5ddd\u539f\u6e56\u5468\u8fba\u5730\u76e4\u8abf\u67fb(2)","client_name":"\u56fd\u571f\u4ea4\u901a\u7701\u6771\u5317\u5730\u65b9\u6574\u5099\u5c40\u9ad8\u702c\u5ddd\u6cb3\u5ddd\u4e8b\u52d9\u6240","boring_xml_url":40,"boring_view_url":1,"soilmap_view_url":null,"soiltest_xml_url":0,"soiltest_view_url":0},{"id":145486,"code":"B4KJ201801003-3735","latitude":"40.78186","longitude":"141.30803","source_code":"TH61411234002","project_name":"","survey_name":"\u5c0f\u5ddd\u539f\u6e56\u5468\u8fba\u57fa\u790e\u5730\u76e4\u8abf\u67fb","client_name":"\u56fd\u571f\u4ea4\u901a\u7701\u6771\u5317\u5730\u65b9\u6574\u5099\u5c40\u9ad8\u702c\u5ddd\u6cb3\u5ddd\u4e8b\u52d9\u6240","boring_xml_url":40,"boring_view_url":1,"soilmap_view_url":null,"soiltest_xml_url":0,"soiltest_view_url":0},{"id":145485,"code":"B4KJ201801003-3734","latitude":"40.78322","longitude":"141.30681","source_code":"TH61411234001","project_name":"","survey_name":"\u662d\u548c50\u5e74\u5ea6\u5c0f\u5ddd\u539f\u6e56\u897f\u5cb8\u5730\u8cea\u8abf\u67fb","client_name":"\u56fd\u571f\u4ea4\u901a\u7701\u6771\u5317\u5730\u65b9\u6574\u5099\u5c40\u9ad8\u702c\u5ddd\u6cb3\u5ddd\u4e8b\u52d9\u6240","boring_xml_url":40,"boring_view_url":1,"soilmap_view_url":null,"soiltest_xml_url":0,"soiltest_view_url":0},{"id":145484,"code":"B4KJ201801003-3733","latitude":"40.76294","longitude":"141.31853","source_code":"TH61411215006","project_name":"","survey_name":"\u662d\u548c61\u5e74\u5ea6\u6392\u6c34\u65bd\u8a2d\u5730\u8cea\u8abf\u67fb","client_name":"\u56fd\u571f\u4ea4\u901a\u7701\u6771\u5317\u5730\u65b9\u6574\u5099\u5c40\u9ad8\u702c\u5ddd\u6cb3\u5ddd\u4e8b\u52d9\u6240","boring_xml_url":40,"boring_view_url":1,"soilmap_view_url":null,"soiltest_xml_url":0,"soiltest_view_url":0},{"id":145483,"code":"B4KJ201801003-3732","latitude":"40.76597","longitude":"141.3175","source_code":"TH61411215005","project_name":"","survey_name":"\u5c0f\u5ddd\u539f\u6e56\u5468\u8fba\u5730\u76e4\u8abf\u67fb(2)","client_name":"\u56fd\u571f\u4ea4\u901a\u7701\u6771\u5317\u5730\u65b9\u6574\u5099\u5c40\u9ad8\u702c\u5ddd\u6cb3\u5ddd\u4e8b\u52d9\u6240","boring_xml_url":40,"boring_view_url":1,"soilmap_view_url":null,"soiltest_xml_url":0,"soiltest_view_url":0},{"id":145482,"code":"B4KJ201801003-3731","latitude":"40.76519","longitude":"141.31514","source_code":"TH61411215004","project_name":"","survey_name":"\u5c0f\u5ddd\u539f\u6e56\u5468\u8fba\u57fa\u790e\u5730\u76e4\u8abf\u67fb","client_name":"\u56fd\u571f\u4ea4\u901a\u7701\u6771\u5317\u5730\u65b9\u6574\u5099\u5c40\u9ad8\u702c\u5ddd\u6cb3\u5ddd\u4e8b\u52d9\u6240","boring_xml_url":40,"boring_view_url":1,"soilmap_view_url":null,"soiltest_xml_url":0,"soiltest_view_url":0},{"id":145481,"code":"B4KJ201801003-3730","latitude":"40.76519","longitude":"141.31514","source_code":"TH61411215003","project_name":"","survey_name":"\u5c0f\u5ddd\u539f\u6e56\u5468\u8fba\u57fa\u790e\u5730\u76e4\u8abf\u67fb","client_name":"\u56fd\u571f\u4ea4\u901a\u7701\u6771\u5317\u5730\u65b9\u6574\u5099\u5c40\u9ad8\u702c\u5ddd\u6cb3\u5ddd\u4e8b\u52d9\u6240","boring_xml_url":40,"boring_view_url":1,"soilmap_view_url":null,"soiltest_xml_url":0,"soiltest_view_url":0},{"id":145480,"code":"B4KJ201801003-3729","latitude":"40.76486","longitude":"141.3175","source_code":"TH61411215002","project_name":"","survey_name":"\u5c0f\u5ddd\u539f\u6e56\u5468\u8fba\u5730\u76e4\u8abf\u67fb(3)","client_name":"\u56fd\u571f\u4ea4\u901a\u7701\u6771\u5317\u5730\u65b9\u6574\u5099\u5c40\u9ad8\u702c\u5ddd\u6cb3\u5ddd\u4e8b\u52d9\u6240","boring_xml_url":40,"boring_view_url":1,"soilmap_view_url":null,"soiltest_xml_url":0,"soiltest_view_url":0},{"id":145479,"code":"B4KJ201801003-3728","latitude":"40.76394","longitude":"141.31767","source_code":"TH61411215001","project_name":"","survey_name":"\u5c0f\u5ddd\u539f\u6e56\u5468\u8fba\u5730\u76e4\u8abf\u67fb(3)","client_name":"\u56fd\u571f\u4ea4\u901a\u7701\u6771\u5317\u5730\u65b9\u6574\u5099\u5c40\u9ad8\u702c\u5ddd\u6cb3\u5ddd\u4e8b\u52d9\u6240","boring_xml_url":40,"boring_view_url":1,"soilmap_view_url":null,"soiltest_xml_url":0,"soiltest_view_url":0},{"id":145478,"code":"B4KJ201801003-3727","latitude":"40.75358","longitude":"141.32608","source_code":"TH61411206006","project_name":"","survey_name":"\u662d\u548c61\u5e74\u5ea6\u6392\u6c34\u65bd\u8a2d\u5730\u8cea\u8abf\u67fb","client_name":"\u56fd\u571f\u4ea4\u901a\u7701\u6771\u5317\u5730\u65b9\u6574\u5099\u5c40\u9ad8\u702c\u5ddd\u6cb3\u5ddd\u4e8b\u52d9\u6240","boring_xml_url":40,"boring_view_url":1,"soilmap_view_url":null,"soiltest_xml_url":0,"soiltest_view_url":0},{"id":145477,"code":"B4KJ201801003-3726","latitude":"40.76028","longitude":"141.32342","source_code":"TH61411206005","project_name":"","survey_name":"\u5c0f\u5ddd\u539f\u6e56\u5468\u8fba\u5730\u76e4\u8abf\u67fb(2)","client_name":"\u56fd\u571f\u4ea4\u901a\u7701\u6771\u5317\u5730\u65b9\u6574\u5099\u5c40\u9ad8\u702c\u5ddd\u6cb3\u5ddd\u4e8b\u52d9\u6240","boring_xml_url":40,"boring_view_url":1,"soilmap_view_url":null,"soiltest_xml_url":0,"soiltest_view_url":0},{"id":145476,"code":"B4KJ201801003-3725","latitude":"40.75686","longitude":"141.32764","source_code":"TH61411206004","project_name":"","survey_name":"\u5c0f\u5ddd\u539f\u6e56\u5468\u8fba\u57fa\u790e\u5730\u76e4\u8abf\u67fb","client_name":"\u56fd\u571f\u4ea4\u901a\u7701\u6771\u5317\u5730\u65b9\u6574\u5099\u5c40\u9ad8\u702c\u5ddd\u6cb3\u5ddd\u4e8b\u52d9\u6240","boring_xml_url":40,"boring_view_url":1,"soilmap_view_url":null,"soiltest_xml_url":0,"soiltest_view_url":0},{"id":145475,"code":"B4KJ201801003-3724","latitude":"40.75831","longitude":"141.32525","source_code":"TH61411206003","project_name":"","survey_name":"\u5c0f\u5ddd\u539f\u6e56\u5468\u8fba\u5730\u76e4\u8abf\u67fb(3)","client_name":"\u56fd\u571f\u4ea4\u901a\u7701\u6771\u5317\u5730\u65b9\u6574\u5099\u5c40\u9ad8\u702c\u5ddd\u6cb3\u5ddd\u4e8b\u52d9\u6240","boring_xml_url":40,"boring_view_url":1,"soilmap_view_url":null,"soiltest_xml_url":0,"soiltest_view_url":0},{"id":145474,"code":"B4KJ201801003-3723","latitude":"40.75428","longitude":"141.32675","source_code":"TH61411206002","project_name":"","survey_name":"\u5c0f\u5ddd\u539f\u6e56\u5468\u8fba\u5730\u76e4\u8abf\u67fb(3)","client_name":"\u56fd\u571f\u4ea4\u901a\u7701\u6771\u5317\u5730\u65b9\u6574\u5099\u5c40\u9ad8\u702c\u5ddd\u6cb3\u5ddd\u4e8b\u52d9\u6240","boring_xml_url":40,"boring_view_url":1,"soilmap_view_url":null,"soiltest_xml_url":0,"soiltest_view_url":0},{"id":145473,"code":"B4KJ201801003-3722","latitude":"40.75922","longitude":"141.32289","source_code":"TH61411206001","project_name":"","survey_name":"\u662d\u548c50\u5e74\u5ea6\u5c0f\u5ddd\u539f\u6e56\u897f\u5cb8\u5730\u8cea\u8abf\u67fb","client_name":"\u56fd\u571f\u4ea4\u901a\u7701\u6771\u5317\u5730\u65b9\u6574\u5099\u5c40\u9ad8\u702c\u5ddd\u6cb3\u5ddd\u4e8b\u52d9\u6240","boring_xml_url":40,"boring_view_url":1,"soilmap_view_url":null,"soiltest_xml_url":0,"soiltest_view_url":0},{"id":145472,"code":"B4KJ201801003-3721","latitude":"40.75517","longitude":"141.28664","source_code":"TH61411203001","project_name":"","survey_name":"\u84fc\u5185\u4ed62\u5730\u533a\u6e56\u5cb8\u5824\u5730\u8cea\u8abf\u67fb","client_name":"\u56fd\u571f\u4ea4\u901a\u7701\u6771\u5317\u5730\u65b9\u6574\u5099\u5c40\u9ad8\u702c\u5ddd\u6cb3\u5ddd\u4e8b\u52d9\u6240","boring_xml_url":40,"boring_view_url":1,"soilmap_view_url":null,"soiltest_xml_url":0,"soiltest_view_url":0},{"id":145471,"code":"B4KJ201801003-3720","latitude":"40.75308","longitude":"141.27633","source_code":"TH61411202003","project_name":"\u662d\u548c54\u5e74\u5ea6\u5c0f\u5ddd\u539f\u6e56\u5468\u8fba\u5730\u4e0b\u6c34\u5f71\u97ff\u8abf\u67fb","survey_name":"\u662d\u548c54\u5e74\u5ea6\u5c0f\u5ddd\u539f\u6e56\u5468\u8fba\u5730\u4e0b\u6c34\u5f71\u97ff\u8abf\u67fb","client_name":"\u56fd\u571f\u4ea4\u901a\u7701\u6771\u5317\u5730\u65b9\u6574\u5099\u5c40\u9ad8\u702c\u5ddd\u6cb3\u5ddd\u4e8b\u52d9\u6240","boring_xml_url":40,"boring_view_url":1,"soilmap_view_url":null,"soiltest_xml_url":0,"soiltest_view_url":0},{"id":145470,"code":"B4KJ201801003-3719","latitude":"40.75675","longitude":"141.27167","source_code":"TH61411202002","project_name":"\u662d\u548c54\u5e74\u5ea6\u5c0f\u5ddd\u539f\u6e56\u5468\u8fba\u5730\u4e0b\u6c34\u5f71\u97ff\u8abf\u67fb","survey_name":"\u662d\u548c54\u5e74\u5ea6\u5c0f\u5ddd\u539f\u6e56\u5468\u8fba\u5730\u4e0b\u6c34\u5f71\u97ff\u8abf\u67fb","client_name":"\u56fd\u571f\u4ea4\u901a\u7701\u6771\u5317\u5730\u65b9\u6574\u5099\u5c40\u9ad8\u702c\u5ddd\u6cb3\u5ddd\u4e8b\u52d9\u6240","boring_xml_url":40,"boring_view_url":1,"soilmap_view_url":null,"soiltest_xml_url":0,"soiltest_view_url":0},{"id":145469,"code":"B4KJ201801003-3718","latitude":"40.75517","longitude":"141.28181","source_code":"TH61411202001","project_name":"","survey_name":"\u662d\u548c54\u5e74\u5ea6\u5c0f\u5ddd\u539f\u6e56\u5468\u8fba\u5730\u4e0b\u6c34\u5f71\u97ff\u8abf\u67fb","client_name":"\u56fd\u571f\u4ea4\u901a\u7701\u6771\u5317\u5730\u65b9\u6574\u5099\u5c40\u9ad8\u702c\u5ddd\u6cb3\u5ddd\u4e8b\u52d9\u6240","boring_xml_url":40,"boring_view_url":1,"soilmap_view_url":null,"soiltest_xml_url":0,"soiltest_view_url":0},{"id":145468,"code":"B4KJ201801003-3717","latitude":"40.75483","longitude":"141.26028","source_code":"TH61411201001","project_name":"","survey_name":"\u662d\u548c54\u5e74\u5ea6\u5c0f\u5ddd\u539f\u6e56\u5468\u8fba\u5730\u4e0b\u6c34\u5f71\u97ff\u8abf\u67fb","client_name":"\u56fd\u571f\u4ea4\u901a\u7701\u6771\u5317\u5730\u65b9\u6574\u5099\u5c40\u9ad8\u702c\u5ddd\u6cb3\u5ddd\u4e8b\u52d9\u6240","boring_xml_url":40,"boring_view_url":1,"soilmap_view_url":null,"soiltest_xml_url":0,"soiltest_view_url":0},{"id":145467,"code":"B4KJ201801003-3716","latitude":"40.81047","longitude":"141.12808","source_code":"TH61411160001","project_name":"","survey_name":"+\u548c\u7530\u56fd\u9053\u6cd5\u9762\u9632\u707d\u8a2d\u8a08\u696d\u52d9\u59d4\u8a17","client_name":"\u56fd\u571f\u4ea4\u901a\u7701\u6771\u5317\u5730\u65b9\u6574\u5099\u5c40\u9752\u68ee\u6cb3\u5ddd\u56fd\u9053\u4e8b\u52d9\u6240","boring_xml_url":40,"boring_view_url":1,"soilmap_view_url":null,"soiltest_xml_url":0,"soiltest_view_url":0},{"id":145466,"code":"B4KJ201801003-3715","latitude":"40.78325","longitude":"141.14614","source_code":"TH61411131001","project_name":"","survey_name":"+\u548c\u7530\u56fd\u9053\u6cd5\u9762\u9632\u707d\u8a2d\u8a08\u696d\u52d9\u59d4\u8a17","client_name":"\u56fd\u571f\u4ea4\u901a\u7701\u6771\u5317\u5730\u65b9\u6574\u5099\u5c40\u9752\u68ee\u6cb3\u5ddd\u56fd\u9053\u4e8b\u52d9\u6240","boring_xml_url":40,"boring_view_url":1,"soilmap_view_url":null,"soiltest_xml_url":0,"soiltest_view_url":0}]}}