{"header":{"xyz":{"source":[],"mosaic":false},"page":584,"raw":{"soiltest_result":"0","bbox":"57.598333,109.544722,1.933333,163.806111","page":"584"},"conditions":{"soiltest_result":0,"north":57.598333,"west":109.544722,"south":1.933333,"east":163.806111},"success":true,"message":""},"data":{"meta":{"total":212844,"page":584,"pages":7095,"count":30},"values":[{"id":527898,"code":"B4KJ202201003-0434","latitude":"33.541287","longitude":"133.094819","source_code":"158877002000080004","project_name":"","survey_name":"\u5e73\u621027\u5e74\u5ea6\u5927\u5c3e\u5730\u533a\u5916\u5730\u8cea\u8abf\u67fb\u696d\u52d9","client_name":"\u56fd\u571f\u4ea4\u901a\u7701\u56db\u56fd\u5730\u65b9\u6574\u5099\u5c40\u5927\u6e21\u30c0\u30e0\u7ba1\u7406\u6240","boring_xml_url":64,"boring_view_url":1,"soilmap_view_url":null,"soiltest_xml_url":0,"soiltest_view_url":0},{"id":527897,"code":"B4KJ202201003-0433","latitude":"33.541947","longitude":"133.095413","source_code":"158877002000080003","project_name":"","survey_name":"\u5e73\u621027\u5e74\u5ea6\u5927\u5c3e\u5730\u533a\u5916\u5730\u8cea\u8abf\u67fb\u696d\u52d9","client_name":"\u56fd\u571f\u4ea4\u901a\u7701\u56db\u56fd\u5730\u65b9\u6574\u5099\u5c40\u5927\u6e21\u30c0\u30e0\u7ba1\u7406\u6240","boring_xml_url":64,"boring_view_url":1,"soilmap_view_url":null,"soiltest_xml_url":0,"soiltest_view_url":0},{"id":527896,"code":"B4KJ202201003-0432","latitude":"33.541218","longitude":"133.09553","source_code":"158877002000080002","project_name":"","survey_name":"\u5e73\u621027\u5e74\u5ea6\u5927\u5c3e\u5730\u533a\u5916\u5730\u8cea\u8abf\u67fb\u696d\u52d9","client_name":"\u56fd\u571f\u4ea4\u901a\u7701\u56db\u56fd\u5730\u65b9\u6574\u5099\u5c40\u5927\u6e21\u30c0\u30e0\u7ba1\u7406\u6240","boring_xml_url":64,"boring_view_url":1,"soilmap_view_url":null,"soiltest_xml_url":0,"soiltest_view_url":0},{"id":527895,"code":"B4KJ202201003-0431","latitude":"33.541171","longitude":"133.095984","source_code":"158877002000080001","project_name":"","survey_name":"\u5e73\u621027\u5e74\u5ea6\u5927\u5c3e\u5730\u533a\u5916\u5730\u8cea\u8abf\u67fb\u696d\u52d9","client_name":"\u56fd\u571f\u4ea4\u901a\u7701\u56db\u56fd\u5730\u65b9\u6574\u5099\u5c40\u5927\u6e21\u30c0\u30e0\u7ba1\u7406\u6240","boring_xml_url":64,"boring_view_url":1,"soilmap_view_url":null,"soiltest_xml_url":0,"soiltest_view_url":0},{"id":527894,"code":"B4KJ202201003-0430","latitude":"33.545039","longitude":"133.104814","source_code":"158875602000110001","project_name":"","survey_name":"\u5e73\u621027\u5e74\u5ea6\u9ad8\u702c\u5730\u533a\u5916\u5730\u8cea\u8abf\u67fb\u696d\u52d9","client_name":"\u56fd\u571f\u4ea4\u901a\u7701\u56db\u56fd\u5730\u65b9\u6574\u5099\u5c40\u5927\u6e21\u30c0\u30e0\u5de5\u4e8b\u4e8b\u52d9\u6240","boring_xml_url":64,"boring_view_url":1,"soilmap_view_url":null,"soiltest_xml_url":0,"soiltest_view_url":0},{"id":527893,"code":"B4KJ202201003-0429","latitude":"33.546305","longitude":"133.103797","source_code":"158875602000050002","project_name":"","survey_name":"\u5e73\u621027\u5e74\u5ea6\u9ad8\u702c\u5730\u533a\u5916\u5730\u8cea\u8abf\u67fb\u696d\u52d9","client_name":"\u56fd\u571f\u4ea4\u901a\u7701\u56db\u56fd\u5730\u65b9\u6574\u5099\u5c40\u5927\u6e21\u30c0\u30e0\u5de5\u4e8b\u4e8b\u52d9\u6240","boring_xml_url":64,"boring_view_url":1,"soilmap_view_url":null,"soiltest_xml_url":0,"soiltest_view_url":0},{"id":527892,"code":"B4KJ202201003-0428","latitude":"33.54485","longitude":"133.105578","source_code":"158875602000050001","project_name":"","survey_name":"\u5e73\u621027\u5e74\u5ea6\u9ad8\u702c\u5730\u533a\u5916\u5730\u8cea\u8abf\u67fb\u696d\u52d9","client_name":"\u56fd\u571f\u4ea4\u901a\u7701\u56db\u56fd\u5730\u65b9\u6574\u5099\u5c40\u5927\u6e21\u30c0\u30e0\u5de5\u4e8b\u4e8b\u52d9\u6240","boring_xml_url":64,"boring_view_url":1,"soilmap_view_url":null,"soiltest_xml_url":0,"soiltest_view_url":0},{"id":527891,"code":"B4KJ202201003-0427","latitude":"33.545862","longitude":"133.104811","source_code":"158862622000160004","project_name":"","survey_name":"\u5e73\u621027\u5e74\u5ea6\u9ad8\u702c\u5730\u533a\u5916\u5730\u8cea\u8abf\u67fb\u696d\u52d9","client_name":"\u56fd\u571f\u4ea4\u901a\u7701\u56db\u56fd\u5730\u65b9\u6574\u5099\u5c40\u5927\u6e21\u30c0\u30e0\u5de5\u4e8b\u4e8b\u52d9\u6240","boring_xml_url":64,"boring_view_url":1,"soilmap_view_url":null,"soiltest_xml_url":0,"soiltest_view_url":0},{"id":527890,"code":"B4KJ202201003-0426","latitude":"33.754822","longitude":"133.551439","source_code":"158862622000160003","project_name":"","survey_name":"\"\u5e73\u621027\u5e74\u5ea6 \u5409\u91ce\u5ddd\u4e0a\u6d41\u5730\u8cea\u8abf\u67fb\u696d\u52d9\"","client_name":"\u56db\u56fd\u5730\u65b9\u6574\u5099\u5c40\u5409\u91ce\u5ddd\u30c0\u30e0\u7d71\u5408\u7ba1\u7406\u4e8b\u52d9\u6240","boring_xml_url":64,"boring_view_url":1,"soilmap_view_url":null,"soiltest_xml_url":0,"soiltest_view_url":0},{"id":527889,"code":"B4KJ202201003-0425","latitude":"33.929133","longitude":"133.525531","source_code":"158862622000160002","project_name":"\u5e73\u621027\u5e74\u5ea6\u3000\u67f3\u702c\u30c0\u30e0\u5730\u8cea\u8abf\u67fb\u696d\u52d9","survey_name":"\u5e73\u621027\u5e74\u5ea6\u3000\u67f3\u702c\u30c0\u30e0\u5730\u8cea\u8abf\u67fb\u696d\u52d9","client_name":"\u56fd\u571f\u4ea4\u901a\u7701\u56db\u56fd\u5730\u65b9\u6574\u5099\u5c40\u5409\u91ce\u5ddd\u30c0\u30e0\u7d71\u5408\u7ba1\u7406\u4e8b\u52d9\u6240","boring_xml_url":64,"boring_view_url":1,"soilmap_view_url":null,"soiltest_xml_url":0,"soiltest_view_url":0},{"id":527888,"code":"B4KJ202201003-0424","latitude":"33.929644","longitude":"133.525031","source_code":"158862622000160001","project_name":"\u5e73\u621027\u5e74\u5ea6\u3000\u67f3\u702c\u30c0\u30e0\u5730\u8cea\u8abf\u67fb\u696d\u52d9","survey_name":"\u5e73\u621027\u5e74\u5ea6\u3000\u67f3\u702c\u30c0\u30e0\u5730\u8cea\u8abf\u67fb\u696d\u52d9","client_name":"\u56fd\u571f\u4ea4\u901a\u7701\u56db\u56fd\u5730\u65b9\u6574\u5099\u5c40\u5409\u91ce\u5ddd\u30c0\u30e0\u7d71\u5408\u7ba1\u7406\u4e8b\u52d9\u6240","boring_xml_url":64,"boring_view_url":1,"soilmap_view_url":null,"soiltest_xml_url":0,"soiltest_view_url":0},{"id":527887,"code":"B4KJ202201003-0423","latitude":"33.563388","longitude":"133.577445","source_code":"148862622000440035","project_name":"\u9ad8\u77e5\u4e2d\u592eIC","survey_name":"\u5e73\u621027\u5e74\u5ea6\u3000\u9ad8\u77e5\u4e2d\u592eIC\u5730\u8cea\u8abf\u67fb\u696d\u52d9","client_name":"\u56fd\u571f\u4ea4\u901a\u7701\u571f\u4f50\u56fd\u9053\u4e8b\u52d9\u6240","boring_xml_url":64,"boring_view_url":1,"soilmap_view_url":null,"soiltest_xml_url":0,"soiltest_view_url":0},{"id":527886,"code":"B4KJ202201003-0422","latitude":"33.56324","longitude":"133.577599","source_code":"148862622000440034","project_name":"\u9ad8\u77e5\u4e2d\u592eIC","survey_name":"\u5e73\u621027\u5e74\u5ea6\u3000\u9ad8\u77e5\u4e2d\u592eIC\u5730\u8cea\u8abf\u67fb\u696d\u52d9","client_name":"\u56fd\u571f\u4ea4\u901a\u7701\u571f\u4f50\u56fd\u9053\u4e8b\u52d9\u6240","boring_xml_url":64,"boring_view_url":1,"soilmap_view_url":null,"soiltest_xml_url":0,"soiltest_view_url":0},{"id":527885,"code":"B4KJ202201003-0421","latitude":"33.562814","longitude":"133.57754","source_code":"148862622000440033","project_name":"\u9ad8\u77e5\u4e2d\u592eIC","survey_name":"\u5e73\u621027\u5e74\u5ea6\u3000\u9ad8\u77e5\u4e2d\u592eIC\u5730\u8cea\u8abf\u67fb\u696d\u52d9","client_name":"\u56fd\u571f\u4ea4\u901a\u7701\u571f\u4f50\u56fd\u9053\u4e8b\u52d9\u6240","boring_xml_url":64,"boring_view_url":1,"soilmap_view_url":null,"soiltest_xml_url":0,"soiltest_view_url":0},{"id":527884,"code":"B4KJ202201003-0420","latitude":"33.562986","longitude":"133.57769","source_code":"148862622000440032","project_name":"\u9ad8\u77e5\u4e2d\u592eIC","survey_name":"\u5e73\u621027\u5e74\u5ea6\u3000\u9ad8\u77e5\u4e2d\u592eIC\u5730\u8cea\u8abf\u67fb\u696d\u52d9","client_name":"\u56fd\u571f\u4ea4\u901a\u7701\u571f\u4f50\u56fd\u9053\u4e8b\u52d9\u6240","boring_xml_url":64,"boring_view_url":1,"soilmap_view_url":null,"soiltest_xml_url":0,"soiltest_view_url":0},{"id":527883,"code":"B4KJ202201003-0419","latitude":"33.539767","longitude":"133.58885","source_code":"148862622000440031","project_name":"\"\u5e73\u621026-27\u5e74\u5ea6 \u4e94\u53f0\u5c71\u5730\u533a\u5730\u8cea\u8abf\u67fb\u696d\u52d9\"","survey_name":"\"\u5e73\u621026-27\u5e74\u5ea6 \u4e94\u53f0\u5c71\u5730\u533a\u5730\u8cea\u8abf\u67fb\u696d\u52d9\"","client_name":"\u56fd\u571f\u4ea4\u901a\u7701\u56db\u56fd\u5730\u65b9\u6574\u5099\u5c40\u3000\u571f\u4f50\u56fd\u9053\u4e8b\u52d9\u6240","boring_xml_url":64,"boring_view_url":1,"soilmap_view_url":null,"soiltest_xml_url":0,"soiltest_view_url":0},{"id":527882,"code":"B4KJ202201003-0418","latitude":"33.540086","longitude":"133.587533","source_code":"148862622000440030","project_name":"\"\u5e73\u621026-27\u5e74\u5ea6 \u4e94\u53f0\u5c71\u5730\u533a\u5730\u8cea\u8abf\u67fb\u696d\u52d9\"","survey_name":"\"\u5e73\u621026-27\u5e74\u5ea6 \u4e94\u53f0\u5c71\u5730\u533a\u5730\u8cea\u8abf\u67fb\u696d\u52d9\"","client_name":"\u56fd\u571f\u4ea4\u901a\u7701\u56db\u56fd\u5730\u65b9\u6574\u5099\u5c40\u3000\u571f\u4f50\u56fd\u9053\u4e8b\u52d9\u6240","boring_xml_url":64,"boring_view_url":1,"soilmap_view_url":null,"soiltest_xml_url":0,"soiltest_view_url":0},{"id":527881,"code":"B4KJ202201003-0417","latitude":"33.540044","longitude":"133.587517","source_code":"148862622000440029","project_name":"\"\u5e73\u621026-27\u5e74\u5ea6 \u4e94\u53f0\u5c71\u5730\u533a\u5730\u8cea\u8abf\u67fb\u696d\u52d9\"","survey_name":"\"\u5e73\u621026-27\u5e74\u5ea6 \u4e94\u53f0\u5c71\u5730\u533a\u5730\u8cea\u8abf\u67fb\u696d\u52d9\"","client_name":"\u56fd\u571f\u4ea4\u901a\u7701\u56db\u56fd\u5730\u65b9\u6574\u5099\u5c40\u3000\u571f\u4f50\u56fd\u9053\u4e8b\u52d9\u6240","boring_xml_url":64,"boring_view_url":1,"soilmap_view_url":null,"soiltest_xml_url":0,"soiltest_view_url":0},{"id":527880,"code":"B4KJ202201003-0416","latitude":"33.540072","longitude":"133.587583","source_code":"148862622000440028","project_name":"\"\u5e73\u621026-27\u5e74\u5ea6 \u4e94\u53f0\u5c71\u5730\u533a\u5730\u8cea\u8abf\u67fb\u696d\u52d9\"","survey_name":"\"\u5e73\u621026-27\u5e74\u5ea6 \u4e94\u53f0\u5c71\u5730\u533a\u5730\u8cea\u8abf\u67fb\u696d\u52d9\"","client_name":"\u56fd\u571f\u4ea4\u901a\u7701\u56db\u56fd\u5730\u65b9\u6574\u5099\u5c40\u3000\u571f\u4f50\u56fd\u9053\u4e8b\u52d9\u6240","boring_xml_url":64,"boring_view_url":1,"soilmap_view_url":null,"soiltest_xml_url":0,"soiltest_view_url":0},{"id":527879,"code":"B4KJ202201003-0415","latitude":"33.540031","longitude":"133.587567","source_code":"148862622000440027","project_name":"\"\u5e73\u621026-27\u5e74\u5ea6 \u4e94\u53f0\u5c71\u5730\u533a\u5730\u8cea\u8abf\u67fb\u696d\u52d9\"","survey_name":"\"\u5e73\u621026-27\u5e74\u5ea6 \u4e94\u53f0\u5c71\u5730\u533a\u5730\u8cea\u8abf\u67fb\u696d\u52d9\"","client_name":"\u56fd\u571f\u4ea4\u901a\u7701\u56db\u56fd\u5730\u65b9\u6574\u5099\u5c40\u3000\u571f\u4f50\u56fd\u9053\u4e8b\u52d9\u6240","boring_xml_url":64,"boring_view_url":1,"soilmap_view_url":null,"soiltest_xml_url":0,"soiltest_view_url":0},{"id":527878,"code":"B4KJ202201003-0414","latitude":"33.539886","longitude":"133.587422","source_code":"148862622000440026","project_name":"\"\u5e73\u621026-27\u5e74\u5ea6 \u4e94\u53f0\u5c71\u5730\u533a\u5730\u8cea\u8abf\u67fb\u696d\u52d9\"","survey_name":"\"\u5e73\u621026-27\u5e74\u5ea6 \u4e94\u53f0\u5c71\u5730\u533a\u5730\u8cea\u8abf\u67fb\u696d\u52d9\"","client_name":"\u56fd\u571f\u4ea4\u901a\u7701\u56db\u56fd\u5730\u65b9\u6574\u5099\u5c40\u3000\u571f\u4f50\u56fd\u9053\u4e8b\u52d9\u6240","boring_xml_url":64,"boring_view_url":1,"soilmap_view_url":null,"soiltest_xml_url":0,"soiltest_view_url":0},{"id":527877,"code":"B4KJ202201003-0413","latitude":"33.539978","longitude":"133.587456","source_code":"148862622000440025","project_name":"\"\u5e73\u621026-27\u5e74\u5ea6 \u4e94\u53f0\u5c71\u5730\u533a\u5730\u8cea\u8abf\u67fb\u696d\u52d9\"","survey_name":"\"\u5e73\u621026-27\u5e74\u5ea6 \u4e94\u53f0\u5c71\u5730\u533a\u5730\u8cea\u8abf\u67fb\u696d\u52d9\"","client_name":"\u56fd\u571f\u4ea4\u901a\u7701\u56db\u56fd\u5730\u65b9\u6574\u5099\u5c40\u3000\u571f\u4f50\u56fd\u9053\u4e8b\u52d9\u6240","boring_xml_url":64,"boring_view_url":1,"soilmap_view_url":null,"soiltest_xml_url":0,"soiltest_view_url":0},{"id":527876,"code":"B4KJ202201003-0412","latitude":"33.539911","longitude":"133.587314","source_code":"148862622000440024","project_name":"\"\u5e73\u621026-27\u5e74\u5ea6 \u4e94\u53f0\u5c71\u5730\u533a\u5730\u8cea\u8abf\u67fb\u696d\u52d9\"","survey_name":"\"\u5e73\u621026-27\u5e74\u5ea6 \u4e94\u53f0\u5c71\u5730\u533a\u5730\u8cea\u8abf\u67fb\u696d\u52d9\"","client_name":"\u56fd\u571f\u4ea4\u901a\u7701\u56db\u56fd\u5730\u65b9\u6574\u5099\u5c40\u3000\u571f\u4f50\u56fd\u9053\u4e8b\u52d9\u6240","boring_xml_url":64,"boring_view_url":1,"soilmap_view_url":null,"soiltest_xml_url":0,"soiltest_view_url":0},{"id":527875,"code":"B4KJ202201003-0411","latitude":"33.540003","longitude":"133.587347","source_code":"148862622000440023","project_name":"\"\u5e73\u621026-27\u5e74\u5ea6 \u4e94\u53f0\u5c71\u5730\u533a\u5730\u8cea\u8abf\u67fb\u696d\u52d9\"","survey_name":"\"\u5e73\u621026-27\u5e74\u5ea6 \u4e94\u53f0\u5c71\u5730\u533a\u5730\u8cea\u8abf\u67fb\u696d\u52d9\"","client_name":"\u56fd\u571f\u4ea4\u901a\u7701\u56db\u56fd\u5730\u65b9\u6574\u5099\u5c40\u3000\u571f\u4f50\u56fd\u9053\u4e8b\u52d9\u6240","boring_xml_url":64,"boring_view_url":1,"soilmap_view_url":null,"soiltest_xml_url":0,"soiltest_view_url":0},{"id":527874,"code":"B4KJ202201003-0410","latitude":"33.540767","longitude":"133.584861","source_code":"148862622000440022","project_name":"\"\u5e73\u621026-27\u5e74\u5ea6 \u4e94\u53f0\u5c71\u5730\u533a\u5730\u8cea\u8abf\u67fb\u696d\u52d9\"","survey_name":"\"\u5e73\u621026-27\u5e74\u5ea6 \u4e94\u53f0\u5c71\u5730\u533a\u5730\u8cea\u8abf\u67fb\u696d\u52d9\"","client_name":"\u56fd\u571f\u4ea4\u901a\u7701\u56db\u56fd\u5730\u65b9\u6574\u5099\u5c40\u3000\u571f\u4f50\u56fd\u9053\u4e8b\u52d9\u6240","boring_xml_url":64,"boring_view_url":1,"soilmap_view_url":null,"soiltest_xml_url":0,"soiltest_view_url":0},{"id":527873,"code":"B4KJ202201003-0409","latitude":"33.540642","longitude":"133.585067","source_code":"148862622000440021","project_name":"\"\u5e73\u621026-27\u5e74\u5ea6 \u4e94\u53f0\u5c71\u5730\u533a\u5730\u8cea\u8abf\u67fb\u696d\u52d9\"","survey_name":"\"\u5e73\u621026-27\u5e74\u5ea6 \u4e94\u53f0\u5c71\u5730\u533a\u5730\u8cea\u8abf\u67fb\u696d\u52d9\"","client_name":"\u56fd\u571f\u4ea4\u901a\u7701\u56db\u56fd\u5730\u65b9\u6574\u5099\u5c40\u3000\u571f\u4f50\u56fd\u9053\u4e8b\u52d9\u6240","boring_xml_url":64,"boring_view_url":1,"soilmap_view_url":null,"soiltest_xml_url":0,"soiltest_view_url":0},{"id":527872,"code":"B4KJ202201003-0408","latitude":"33.540531","longitude":"133.585281","source_code":"148862622000440020","project_name":"\"\u5e73\u621026-27\u5e74\u5ea6 \u4e94\u53f0\u5c71\u5730\u533a\u5730\u8cea\u8abf\u67fb\u696d\u52d9\"","survey_name":"\"\u5e73\u621026-27\u5e74\u5ea6 \u4e94\u53f0\u5c71\u5730\u533a\u5730\u8cea\u8abf\u67fb\u696d\u52d9\"","client_name":"\u56fd\u571f\u4ea4\u901a\u7701\u56db\u56fd\u5730\u65b9\u6574\u5099\u5c40\u3000\u571f\u4f50\u56fd\u9053\u4e8b\u52d9\u6240","boring_xml_url":64,"boring_view_url":1,"soilmap_view_url":null,"soiltest_xml_url":0,"soiltest_view_url":0},{"id":527871,"code":"B4KJ202201003-0407","latitude":"33.540433","longitude":"133.585503","source_code":"148862622000440019","project_name":"\"\u5e73\u621026-27\u5e74\u5ea6 \u4e94\u53f0\u5c71\u5730\u533a\u5730\u8cea\u8abf\u67fb\u696d\u52d9\"","survey_name":"\"\u5e73\u621026-27\u5e74\u5ea6 \u4e94\u53f0\u5c71\u5730\u533a\u5730\u8cea\u8abf\u67fb\u696d\u52d9\"","client_name":"\u56fd\u571f\u4ea4\u901a\u7701\u56db\u56fd\u5730\u65b9\u6574\u5099\u5c40\u3000\u571f\u4f50\u56fd\u9053\u4e8b\u52d9\u6240","boring_xml_url":64,"boring_view_url":1,"soilmap_view_url":null,"soiltest_xml_url":0,"soiltest_view_url":0},{"id":527870,"code":"B4KJ202201003-0406","latitude":"33.540325","longitude":"133.585719","source_code":"148862622000440018","project_name":"\"\u5e73\u621026-27\u5e74\u5ea6 \u4e94\u53f0\u5c71\u5730\u533a\u5730\u8cea\u8abf\u67fb\u696d\u52d9\"","survey_name":"\"\u5e73\u621026-27\u5e74\u5ea6 \u4e94\u53f0\u5c71\u5730\u533a\u5730\u8cea\u8abf\u67fb\u696d\u52d9\"","client_name":"\u56fd\u571f\u4ea4\u901a\u7701\u56db\u56fd\u5730\u65b9\u6574\u5099\u5c40\u3000\u571f\u4f50\u56fd\u9053\u4e8b\u52d9\u6240","boring_xml_url":64,"boring_view_url":1,"soilmap_view_url":null,"soiltest_xml_url":0,"soiltest_view_url":0},{"id":527869,"code":"B4KJ202201003-0405","latitude":"33.540042","longitude":"133.586203","source_code":"148862622000440017","project_name":"\"\u5e73\u621026-27\u5e74\u5ea6 \u4e94\u53f0\u5c71\u5730\u533a\u5730\u8cea\u8abf\u67fb\u696d\u52d9\"","survey_name":"\"\u5e73\u621026-27\u5e74\u5ea6 \u4e94\u53f0\u5c71\u5730\u533a\u5730\u8cea\u8abf\u67fb\u696d\u52d9\"","client_name":"\u56fd\u571f\u4ea4\u901a\u7701\u56db\u56fd\u5730\u65b9\u6574\u5099\u5c40\u3000\u571f\u4f50\u56fd\u9053\u4e8b\u52d9\u6240","boring_xml_url":64,"boring_view_url":1,"soilmap_view_url":null,"soiltest_xml_url":0,"soiltest_view_url":0}]}}