{"header":{"xyz":{"source":[],"mosaic":false},"page":5841,"raw":{"soiltest_result":"0","bbox":"57.598333,109.544722,1.933333,163.806111","page":"5841"},"conditions":{"soiltest_result":0,"north":57.598333,"west":109.544722,"south":1.933333,"east":163.806111},"success":true,"message":""},"data":{"meta":{"total":212844,"page":5841,"pages":7095,"count":30},"values":[{"id":145345,"code":"B4KJ201801003-3594","latitude":"40.85475","longitude":"140.40214","source_code":"TH61402322002","project_name":"","survey_name":"\u662d\u548c57\u5e74\u5ea6\u4e94\u6240\u5ddd\u539f\u5730\u533a\u5730\u76e4\u8abf\u67fb","client_name":"\u56fd\u571f\u4ea4\u901a\u7701\u6771\u5317\u5730\u65b9\u6574\u5099\u5c40\u9752\u68ee\u6cb3\u5ddd\u56fd\u9053\u4e8b\u52d9\u6240","boring_xml_url":40,"boring_view_url":1,"soilmap_view_url":null,"soiltest_xml_url":0,"soiltest_view_url":0},{"id":145344,"code":"B4KJ201801003-3593","latitude":"40.85556","longitude":"140.40214","source_code":"TH61402322001","project_name":"","survey_name":"\u662d\u548c57\u5e74\u5ea6\u4e94\u6240\u5ddd\u539f\u5730\u533a\u5730\u76e4\u8abf\u67fb","client_name":"\u56fd\u571f\u4ea4\u901a\u7701\u6771\u5317\u5730\u65b9\u6574\u5099\u5c40\u9752\u68ee\u6cb3\u5ddd\u56fd\u9053\u4e8b\u52d9\u6240","boring_xml_url":40,"boring_view_url":1,"soilmap_view_url":null,"soiltest_xml_url":0,"soiltest_view_url":0},{"id":145343,"code":"B4KJ201801003-3592","latitude":"40.82928","longitude":"140.81383","source_code":"TH61401695001","project_name":"","survey_name":"\u5e73\u62108\u5e74\u5ea6 \u9752\u68ee\u74b0\u72b6\u9053\u8def\u5730\u8cea\u8abf\u67fb","client_name":"\u56fd\u571f\u4ea4\u901a\u7701\u6771\u5317\u5730\u65b9\u6574\u5099\u5c40\u9752\u68ee\u6cb3\u5ddd\u56fd\u9053\u4e8b\u52d9\u6240","boring_xml_url":40,"boring_view_url":1,"soilmap_view_url":null,"soiltest_xml_url":0,"soiltest_view_url":0},{"id":145342,"code":"B4KJ201801003-3591","latitude":"40.82789","longitude":"140.80478","source_code":"TH61401694001","project_name":"","survey_name":"\u9752\u68ee\u6771\u30d0\u30a4\u30d1\u30b9(2\u5de5\u533a)\u5730\u8cea\u8abf\u67fb(\u6771\u3053\u7dda\u6a4b\u571f\u8cea\u8abf\u67fb)","client_name":"\u56fd\u571f\u4ea4\u901a\u7701\u6771\u5317\u5730\u65b9\u6574\u5099\u5c40\u9752\u68ee\u6cb3\u5ddd\u56fd\u9053\u4e8b\u52d9\u6240","boring_xml_url":40,"boring_view_url":1,"soilmap_view_url":null,"soiltest_xml_url":0,"soiltest_view_url":0},{"id":145341,"code":"B4KJ201801003-3590","latitude":"40.82122","longitude":"140.80792","source_code":"TH61401684004","project_name":"","survey_name":"\u5e73\u62108\u5e74\u5ea6 \u9752\u68ee\u74b0\u72b6\u9053\u8def\u5730\u8cea\u8abf\u67fb","client_name":"\u56fd\u571f\u4ea4\u901a\u7701\u6771\u5317\u5730\u65b9\u6574\u5099\u5c40\u9752\u68ee\u6cb3\u5ddd\u56fd\u9053\u4e8b\u52d9\u6240","boring_xml_url":40,"boring_view_url":1,"soilmap_view_url":null,"soiltest_xml_url":0,"soiltest_view_url":0},{"id":145340,"code":"B4KJ201801003-3589","latitude":"40.82728","longitude":"140.80386","source_code":"TH61401684003","project_name":"","survey_name":"\u9752\u68ee\u6771\u30d0\u30a4\u30d1\u30b9(2\u5de5\u533a)\u5730\u8cea\u8abf\u67fb(\u6771\u3053\u7dda\u6a4b\u571f\u8cea\u8abf\u67fb)","client_name":"\u56fd\u571f\u4ea4\u901a\u7701\u6771\u5317\u5730\u65b9\u6574\u5099\u5c40\u9752\u68ee\u6cb3\u5ddd\u56fd\u9053\u4e8b\u52d9\u6240","boring_xml_url":40,"boring_view_url":1,"soilmap_view_url":null,"soiltest_xml_url":0,"soiltest_view_url":0},{"id":145339,"code":"B4KJ201801003-3588","latitude":"40.82747","longitude":"140.80433","source_code":"TH61401684002","project_name":"","survey_name":"\u9752\u68ee\u6771\u30d0\u30a4\u30d1\u30b9(2\u5de5\u533a)\u5730\u8cea\u8abf\u67fb(\u6771\u3053\u7dda\u6a4b\u571f\u8cea\u8abf\u67fb)","client_name":"\u56fd\u571f\u4ea4\u901a\u7701\u6771\u5317\u5730\u65b9\u6574\u5099\u5c40\u9752\u68ee\u6cb3\u5ddd\u56fd\u9053\u4e8b\u52d9\u6240","boring_xml_url":40,"boring_view_url":1,"soilmap_view_url":null,"soiltest_xml_url":0,"soiltest_view_url":0},{"id":145338,"code":"B4KJ201801003-3587","latitude":"40.82722","longitude":"140.8035","source_code":"TH61401684001","project_name":"","survey_name":"\u9752\u68ee\u6771\u30d0\u30a4\u30d1\u30b9(2\u5de5\u533a)\u5730\u8cea\u8abf\u67fb(\u6771\u3053\u7dda\u6a4b\u571f\u8cea\u8abf\u67fb)","client_name":"\u56fd\u571f\u4ea4\u901a\u7701\u6771\u5317\u5730\u65b9\u6574\u5099\u5c40\u9752\u68ee\u6cb3\u5ddd\u56fd\u9053\u4e8b\u52d9\u6240","boring_xml_url":40,"boring_view_url":1,"soilmap_view_url":null,"soiltest_xml_url":0,"soiltest_view_url":0},{"id":145337,"code":"B4KJ201801003-3586","latitude":"40.82544","longitude":"140.772","source_code":"TH61401682002","project_name":"","survey_name":"\u4ea4\u901a\u5b89\u5168\u6e2c\u91cf\u30fb\u8abf\u67fb\u30fb\u59d4\u8a17","client_name":"\u56fd\u571f\u4ea4\u901a\u7701\u6771\u5317\u5730\u65b9\u6574\u5099\u5c40\u9752\u68ee\u6cb3\u5ddd\u56fd\u9053\u4e8b\u52d9\u6240","boring_xml_url":40,"boring_view_url":1,"soilmap_view_url":null,"soiltest_xml_url":0,"soiltest_view_url":0},{"id":145336,"code":"B4KJ201801003-3585","latitude":"40.82561","longitude":"140.77261","source_code":"TH61401682001","project_name":"","survey_name":"\u4ea4\u901a\u5b89\u5168\u6e2c\u91cf\u30fb\u8abf\u67fb\u30fb\u59d4\u8a17","client_name":"\u56fd\u571f\u4ea4\u901a\u7701\u6771\u5317\u5730\u65b9\u6574\u5099\u5c40\u9752\u68ee\u6cb3\u5ddd\u56fd\u9053\u4e8b\u52d9\u6240","boring_xml_url":40,"boring_view_url":1,"soilmap_view_url":null,"soiltest_xml_url":0,"soiltest_view_url":0},{"id":145335,"code":"B4KJ201801003-3584","latitude":"40.82464","longitude":"140.76542","source_code":"TH61401681013","project_name":"","survey_name":"\u4ea4\u901a\u5b89\u5168\u6e2c\u91cf\u30fb\u8abf\u67fb\u30fb\u59d4\u8a17","client_name":"\u56fd\u571f\u4ea4\u901a\u7701\u6771\u5317\u5730\u65b9\u6574\u5099\u5c40\u9752\u68ee\u6cb3\u5ddd\u56fd\u9053\u4e8b\u52d9\u6240","boring_xml_url":40,"boring_view_url":1,"soilmap_view_url":null,"soiltest_xml_url":0,"soiltest_view_url":0},{"id":145334,"code":"B4KJ201801003-3583","latitude":"40.82436","longitude":"140.76317","source_code":"TH61401681012","project_name":"","survey_name":"\u4ea4\u901a\u5b89\u5168\u6e2c\u91cf\u30fb\u8abf\u67fb\u30fb\u59d4\u8a17","client_name":"\u56fd\u571f\u4ea4\u901a\u7701\u6771\u5317\u5730\u65b9\u6574\u5099\u5c40\u9752\u68ee\u6cb3\u5ddd\u56fd\u9053\u4e8b\u52d9\u6240","boring_xml_url":40,"boring_view_url":1,"soilmap_view_url":null,"soiltest_xml_url":0,"soiltest_view_url":0},{"id":145333,"code":"B4KJ201801003-3582","latitude":"40.82447","longitude":"140.76375","source_code":"TH61401681011","project_name":"","survey_name":"\u4ea4\u901a\u5b89\u5168\u6e2c\u91cf\u30fb\u8abf\u67fb\u30fb\u59d4\u8a17","client_name":"\u56fd\u571f\u4ea4\u901a\u7701\u6771\u5317\u5730\u65b9\u6574\u5099\u5c40\u9752\u68ee\u6cb3\u5ddd\u56fd\u9053\u4e8b\u52d9\u6240","boring_xml_url":40,"boring_view_url":1,"soilmap_view_url":null,"soiltest_xml_url":0,"soiltest_view_url":0},{"id":145332,"code":"B4KJ201801003-3581","latitude":"40.82456","longitude":"140.76472","source_code":"TH61401681010","project_name":"","survey_name":"\u4ea4\u901a\u5b89\u5168\u6e2c\u91cf\u30fb\u8abf\u67fb\u30fb\u59d4\u8a17","client_name":"\u56fd\u571f\u4ea4\u901a\u7701\u6771\u5317\u5730\u65b9\u6574\u5099\u5c40\u9752\u68ee\u6cb3\u5ddd\u56fd\u9053\u4e8b\u52d9\u6240","boring_xml_url":40,"boring_view_url":1,"soilmap_view_url":null,"soiltest_xml_url":0,"soiltest_view_url":0},{"id":145331,"code":"B4KJ201801003-3580","latitude":"40.82472","longitude":"140.76589","source_code":"TH61401681009","project_name":"","survey_name":"\u4ea4\u901a\u5b89\u5168\u6e2c\u91cf\u30fb\u8abf\u67fb\u30fb\u59d4\u8a17","client_name":"\u56fd\u571f\u4ea4\u901a\u7701\u6771\u5317\u5730\u65b9\u6574\u5099\u5c40\u9752\u68ee\u6cb3\u5ddd\u56fd\u9053\u4e8b\u52d9\u6240","boring_xml_url":40,"boring_view_url":1,"soilmap_view_url":null,"soiltest_xml_url":0,"soiltest_view_url":0},{"id":145330,"code":"B4KJ201801003-3579","latitude":"40.82481","longitude":"140.76667","source_code":"TH61401681008","project_name":"","survey_name":"\u4ea4\u901a\u5b89\u5168\u6e2c\u91cf\u30fb\u8abf\u67fb\u30fb\u59d4\u8a17","client_name":"\u56fd\u571f\u4ea4\u901a\u7701\u6771\u5317\u5730\u65b9\u6574\u5099\u5c40\u9752\u68ee\u6cb3\u5ddd\u56fd\u9053\u4e8b\u52d9\u6240","boring_xml_url":40,"boring_view_url":1,"soilmap_view_url":null,"soiltest_xml_url":0,"soiltest_view_url":0},{"id":145329,"code":"B4KJ201801003-3578","latitude":"40.82492","longitude":"140.76714","source_code":"TH61401681007","project_name":"","survey_name":"\u4ea4\u901a\u5b89\u5168\u6e2c\u91cf\u30fb\u8abf\u67fb\u30fb\u59d4\u8a17","client_name":"\u56fd\u571f\u4ea4\u901a\u7701\u6771\u5317\u5730\u65b9\u6574\u5099\u5c40\u9752\u68ee\u6cb3\u5ddd\u56fd\u9053\u4e8b\u52d9\u6240","boring_xml_url":40,"boring_view_url":1,"soilmap_view_url":null,"soiltest_xml_url":0,"soiltest_view_url":0},{"id":145328,"code":"B4KJ201801003-3577","latitude":"40.82494","longitude":"140.76772","source_code":"TH61401681006","project_name":"","survey_name":"\u4ea4\u901a\u5b89\u5168\u6e2c\u91cf\u30fb\u8abf\u67fb\u30fb\u59d4\u8a17","client_name":"\u56fd\u571f\u4ea4\u901a\u7701\u6771\u5317\u5730\u65b9\u6574\u5099\u5c40\u9752\u68ee\u6cb3\u5ddd\u56fd\u9053\u4e8b\u52d9\u6240","boring_xml_url":40,"boring_view_url":1,"soilmap_view_url":null,"soiltest_xml_url":0,"soiltest_view_url":0},{"id":145327,"code":"B4KJ201801003-3576","latitude":"40.82508","longitude":"140.76836","source_code":"TH61401681005","project_name":"","survey_name":"\u4ea4\u901a\u5b89\u5168\u6e2c\u91cf\u30fb\u8abf\u67fb\u30fb\u59d4\u8a17","client_name":"\u56fd\u571f\u4ea4\u901a\u7701\u6771\u5317\u5730\u65b9\u6574\u5099\u5c40\u9752\u68ee\u6cb3\u5ddd\u56fd\u9053\u4e8b\u52d9\u6240","boring_xml_url":40,"boring_view_url":1,"soilmap_view_url":null,"soiltest_xml_url":0,"soiltest_view_url":0},{"id":145326,"code":"B4KJ201801003-3575","latitude":"40.82517","longitude":"140.76914","source_code":"TH61401681004","project_name":"","survey_name":"\u4ea4\u901a\u5b89\u5168\u6e2c\u91cf\u30fb\u8abf\u67fb\u30fb\u59d4\u8a17","client_name":"\u56fd\u571f\u4ea4\u901a\u7701\u6771\u5317\u5730\u65b9\u6574\u5099\u5c40\u9752\u68ee\u6cb3\u5ddd\u56fd\u9053\u4e8b\u52d9\u6240","boring_xml_url":40,"boring_view_url":1,"soilmap_view_url":null,"soiltest_xml_url":0,"soiltest_view_url":0},{"id":145325,"code":"B4KJ201801003-3574","latitude":"40.82522","longitude":"140.76989","source_code":"TH61401681003","project_name":"","survey_name":"\u4ea4\u901a\u5b89\u5168\u6e2c\u91cf\u30fb\u8abf\u67fb\u30fb\u59d4\u8a17","client_name":"\u56fd\u571f\u4ea4\u901a\u7701\u6771\u5317\u5730\u65b9\u6574\u5099\u5c40\u9752\u68ee\u6cb3\u5ddd\u56fd\u9053\u4e8b\u52d9\u6240","boring_xml_url":40,"boring_view_url":1,"soilmap_view_url":null,"soiltest_xml_url":0,"soiltest_view_url":0},{"id":145324,"code":"B4KJ201801003-3573","latitude":"40.82531","longitude":"140.77053","source_code":"TH61401681002","project_name":"","survey_name":"\u4ea4\u901a\u5b89\u5168\u6e2c\u91cf\u30fb\u8abf\u67fb\u30fb\u59d4\u8a17","client_name":"\u56fd\u571f\u4ea4\u901a\u7701\u6771\u5317\u5730\u65b9\u6574\u5099\u5c40\u9752\u68ee\u6cb3\u5ddd\u56fd\u9053\u4e8b\u52d9\u6240","boring_xml_url":40,"boring_view_url":1,"soilmap_view_url":null,"soiltest_xml_url":0,"soiltest_view_url":0},{"id":145323,"code":"B4KJ201801003-3572","latitude":"40.82525","longitude":"140.77119","source_code":"TH61401681001","project_name":"","survey_name":"\u4ea4\u901a\u5b89\u5168\u6e2c\u91cf\u30fb\u8abf\u67fb\u30fb\u59d4\u8a17","client_name":"\u56fd\u571f\u4ea4\u901a\u7701\u6771\u5317\u5730\u65b9\u6574\u5099\u5c40\u9752\u68ee\u6cb3\u5ddd\u56fd\u9053\u4e8b\u52d9\u6240","boring_xml_url":40,"boring_view_url":1,"soilmap_view_url":null,"soiltest_xml_url":0,"soiltest_view_url":0},{"id":145322,"code":"B4KJ201801003-3571","latitude":"40.81503","longitude":"140.80464","source_code":"TH61401674003","project_name":"","survey_name":"\u5e73\u62108\u5e74\u5ea6 \u9752\u68ee\u74b0\u72b6\u9053\u8def\u5730\u8cea\u8abf\u67fb","client_name":"\u56fd\u571f\u4ea4\u901a\u7701\u6771\u5317\u5730\u65b9\u6574\u5099\u5c40\u9752\u68ee\u6cb3\u5ddd\u56fd\u9053\u4e8b\u52d9\u6240","boring_xml_url":40,"boring_view_url":1,"soilmap_view_url":null,"soiltest_xml_url":0,"soiltest_view_url":0},{"id":145321,"code":"B4KJ201801003-3570","latitude":"40.81356","longitude":"140.80439","source_code":"TH61401674002","project_name":"","survey_name":"\u5e73\u62108\u5e74\u5ea6 \u9752\u68ee\u74b0\u72b6\u9053\u8def\u5730\u8cea\u8abf\u67fb","client_name":"\u56fd\u571f\u4ea4\u901a\u7701\u6771\u5317\u5730\u65b9\u6574\u5099\u5c40\u9752\u68ee\u6cb3\u5ddd\u56fd\u9053\u4e8b\u52d9\u6240","boring_xml_url":40,"boring_view_url":1,"soilmap_view_url":null,"soiltest_xml_url":0,"soiltest_view_url":0},{"id":145320,"code":"B4KJ201801003-3569","latitude":"40.81247","longitude":"140.75686","source_code":"TH61401670005","project_name":"","survey_name":"\u5e73\u621012\u5e74\u5ea6 \u9752\u68ee\u5730\u533a\u5730\u76e4\u8abf\u67fb(\u5965\u91ce\u5730\u533a)","client_name":"\u56fd\u571f\u4ea4\u901a\u7701\u6771\u5317\u5730\u65b9\u6574\u5099\u5c40\u9752\u68ee\u6cb3\u5ddd\u56fd\u9053\u4e8b\u52d9\u6240","boring_xml_url":40,"boring_view_url":1,"soilmap_view_url":null,"soiltest_xml_url":0,"soiltest_view_url":0},{"id":145319,"code":"B4KJ201801003-3568","latitude":"40.81517","longitude":"140.75269","source_code":"TH61401670002","project_name":"","survey_name":"\u9752\u68ee\u74b0\u72b6\u9053\u8def\u767d\u6a3a\u6a4b\u5730\u76e4\u8abf\u67fb","client_name":"\u56fd\u571f\u4ea4\u901a\u7701\u6771\u5317\u5730\u65b9\u6574\u5099\u5c40\u9752\u68ee\u6cb3\u5ddd\u56fd\u9053\u4e8b\u52d9\u6240","boring_xml_url":40,"boring_view_url":1,"soilmap_view_url":null,"soiltest_xml_url":0,"soiltest_view_url":0},{"id":145318,"code":"B4KJ201801003-3567","latitude":"40.81517","longitude":"140.75269","source_code":"TH61401670001","project_name":"","survey_name":"\u9752\u68ee\u74b0\u72b6\u9053\u8def\u767d\u6a3a\u6a4b\u5730\u76e4\u8abf\u67fb","client_name":"\u56fd\u571f\u4ea4\u901a\u7701\u6771\u5317\u5730\u65b9\u6574\u5099\u5c40\u9752\u68ee\u6cb3\u5ddd\u56fd\u9053\u4e8b\u52d9\u6240","boring_xml_url":40,"boring_view_url":1,"soilmap_view_url":null,"soiltest_xml_url":0,"soiltest_view_url":0},{"id":145317,"code":"B4KJ201801003-3566","latitude":"40.80311","longitude":"140.79217","source_code":"TH61401663001","project_name":"","survey_name":"\u9752\u68ee\u74b0\u72b6\u9053\u8def\u5730\u76e4\u8abf\u67fb","client_name":"\u56fd\u571f\u4ea4\u901a\u7701\u6771\u5317\u5730\u65b9\u6574\u5099\u5c40\u9752\u68ee\u6cb3\u5ddd\u56fd\u9053\u4e8b\u52d9\u6240","boring_xml_url":40,"boring_view_url":1,"soilmap_view_url":null,"soiltest_xml_url":0,"soiltest_view_url":0},{"id":145316,"code":"B4KJ201801003-3565","latitude":"40.80142","longitude":"140.78811","source_code":"TH61401653002","project_name":"","survey_name":"\u662d\u548c63\u5e74\u5ea6\u9752\u68ee\u5730\u533a\u5730\u76e4\u8abf\u67fb","client_name":"\u56fd\u571f\u4ea4\u901a\u7701\u6771\u5317\u5730\u65b9\u6574\u5099\u5c40\u9752\u68ee\u6cb3\u5ddd\u56fd\u9053\u4e8b\u52d9\u6240","boring_xml_url":40,"boring_view_url":1,"soilmap_view_url":null,"soiltest_xml_url":0,"soiltest_view_url":0}]}}