{"header":{"xyz":{"source":[],"mosaic":false},"page":5845,"raw":{"soiltest_result":"0","bbox":"57.598333,109.544722,1.933333,163.806111","page":"5845"},"conditions":{"soiltest_result":0,"north":57.598333,"west":109.544722,"south":1.933333,"east":163.806111},"success":true,"message":""},"data":{"meta":{"total":212844,"page":5845,"pages":7095,"count":30},"values":[{"id":145225,"code":"B4KJ201801003-3474","latitude":"40.81297","longitude":"140.68981","source_code":"TH61401575008","project_name":"","survey_name":"\u662d\u548c50\u5e74\u5ea6\u9752\u68ee\u74b0\u72b6\u9053\u8def\u5730\u8cea\u8abf\u67fb\u696d\u52d9\u59d4\u8a17","client_name":"\u56fd\u571f\u4ea4\u901a\u7701\u6771\u5317\u5730\u65b9\u6574\u5099\u5c40\u9752\u68ee\u6cb3\u5ddd\u56fd\u9053\u4e8b\u52d9\u6240","boring_xml_url":40,"boring_view_url":1,"soilmap_view_url":null,"soiltest_xml_url":0,"soiltest_view_url":0},{"id":145224,"code":"B4KJ201801003-3473","latitude":"40.81231","longitude":"140.69069","source_code":"TH61401575007","project_name":"","survey_name":"\u662d\u548c50\u5e74\u5ea6\u9752\u68ee\u74b0\u72b6\u9053\u8def\u5730\u8cea\u8abf\u67fb\u696d\u52d9\u59d4\u8a17","client_name":"\u56fd\u571f\u4ea4\u901a\u7701\u6771\u5317\u5730\u65b9\u6574\u5099\u5c40\u9752\u68ee\u6cb3\u5ddd\u56fd\u9053\u4e8b\u52d9\u6240","boring_xml_url":40,"boring_view_url":1,"soilmap_view_url":null,"soiltest_xml_url":0,"soiltest_view_url":0},{"id":145223,"code":"B4KJ201801003-3472","latitude":"40.81231","longitude":"140.69069","source_code":"TH61401575006","project_name":"","survey_name":"\u662d\u548c50\u5e74\u5ea6\u9752\u68ee\u74b0\u72b6\u9053\u8def\u5730\u8cea\u8abf\u67fb\u696d\u52d9\u59d4\u8a17","client_name":"\u56fd\u571f\u4ea4\u901a\u7701\u6771\u5317\u5730\u65b9\u6574\u5099\u5c40\u9752\u68ee\u6cb3\u5ddd\u56fd\u9053\u4e8b\u52d9\u6240","boring_xml_url":40,"boring_view_url":1,"soilmap_view_url":null,"soiltest_xml_url":0,"soiltest_view_url":0},{"id":145222,"code":"B4KJ201801003-3471","latitude":"40.81231","longitude":"140.69069","source_code":"TH61401575005","project_name":"","survey_name":"\u662d\u548c50\u5e74\u5ea6\u9752\u68ee\u74b0\u72b6\u9053\u8def\u5730\u8cea\u8abf\u67fb\u696d\u52d9\u59d4\u8a17","client_name":"\u56fd\u571f\u4ea4\u901a\u7701\u6771\u5317\u5730\u65b9\u6574\u5099\u5c40\u9752\u68ee\u6cb3\u5ddd\u56fd\u9053\u4e8b\u52d9\u6240","boring_xml_url":40,"boring_view_url":1,"soilmap_view_url":null,"soiltest_xml_url":0,"soiltest_view_url":0},{"id":145221,"code":"B4KJ201801003-3470","latitude":"40.81231","longitude":"140.69069","source_code":"TH61401575004","project_name":"","survey_name":"\u662d\u548c50\u5e74\u5ea6\u9752\u68ee\u74b0\u72b6\u9053\u8def\u5730\u8cea\u8abf\u67fb\u696d\u52d9\u59d4\u8a17","client_name":"\u56fd\u571f\u4ea4\u901a\u7701\u6771\u5317\u5730\u65b9\u6574\u5099\u5c40\u9752\u68ee\u6cb3\u5ddd\u56fd\u9053\u4e8b\u52d9\u6240","boring_xml_url":40,"boring_view_url":1,"soilmap_view_url":null,"soiltest_xml_url":0,"soiltest_view_url":0},{"id":145220,"code":"B4KJ201801003-3469","latitude":"40.81408","longitude":"140.68742","source_code":"TH61401575003","project_name":"","survey_name":"\u662d\u548c50\u5e74\u5ea6\u9752\u68ee\u74b0\u72b6\u9053\u8def\u5730\u8cea\u8abf\u67fb\u696d\u52d9\u59d4\u8a17","client_name":"\u56fd\u571f\u4ea4\u901a\u7701\u6771\u5317\u5730\u65b9\u6574\u5099\u5c40\u9752\u68ee\u6cb3\u5ddd\u56fd\u9053\u4e8b\u52d9\u6240","boring_xml_url":40,"boring_view_url":1,"soilmap_view_url":null,"soiltest_xml_url":0,"soiltest_view_url":0},{"id":145219,"code":"B4KJ201801003-3468","latitude":"40.81456","longitude":"140.68475","source_code":"TH61401575002","project_name":"","survey_name":"\u662d\u548c50\u5e74\u5ea6\u9752\u68ee\u74b0\u72b6\u9053\u8def\u5730\u8cea\u8abf\u67fb\u696d\u52d9\u59d4\u8a17","client_name":"\u56fd\u571f\u4ea4\u901a\u7701\u6771\u5317\u5730\u65b9\u6574\u5099\u5c40\u9752\u68ee\u6cb3\u5ddd\u56fd\u9053\u4e8b\u52d9\u6240","boring_xml_url":40,"boring_view_url":1,"soilmap_view_url":null,"soiltest_xml_url":0,"soiltest_view_url":0},{"id":145218,"code":"B4KJ201801003-3467","latitude":"40.81456","longitude":"140.68475","source_code":"TH61401575001","project_name":"","survey_name":"\u662d\u548c50\u5e74\u5ea6\u9752\u68ee\u74b0\u72b6\u9053\u8def\u5730\u8cea\u8abf\u67fb\u696d\u52d9\u59d4\u8a17","client_name":"\u56fd\u571f\u4ea4\u901a\u7701\u6771\u5317\u5730\u65b9\u6574\u5099\u5c40\u9752\u68ee\u6cb3\u5ddd\u56fd\u9053\u4e8b\u52d9\u6240","boring_xml_url":40,"boring_view_url":1,"soilmap_view_url":null,"soiltest_xml_url":0,"soiltest_view_url":0},{"id":145217,"code":"B4KJ201801003-3466","latitude":"40.81589","longitude":"140.67828","source_code":"TH61401574023","project_name":"","survey_name":"\u9752\u68ee\u74b0\u72b6\u9053\u8def\u5730\u8cea\u8abf\u67fb\u696d\u52d9\u59d4\u8a17","client_name":"\u56fd\u571f\u4ea4\u901a\u7701\u6771\u5317\u5730\u65b9\u6574\u5099\u5c40\u9752\u68ee\u6cb3\u5ddd\u56fd\u9053\u4e8b\u52d9\u6240","boring_xml_url":40,"boring_view_url":1,"soilmap_view_url":null,"soiltest_xml_url":0,"soiltest_view_url":0},{"id":145216,"code":"B4KJ201801003-3465","latitude":"40.81614","longitude":"140.67828","source_code":"TH61401574022","project_name":"","survey_name":"\u9752\u68ee\u74b0\u72b6\u9053\u8def\u5730\u8cea\u8abf\u67fb\u696d\u52d9\u59d4\u8a17","client_name":"\u56fd\u571f\u4ea4\u901a\u7701\u6771\u5317\u5730\u65b9\u6574\u5099\u5c40\u9752\u68ee\u6cb3\u5ddd\u56fd\u9053\u4e8b\u52d9\u6240","boring_xml_url":40,"boring_view_url":1,"soilmap_view_url":null,"soiltest_xml_url":0,"soiltest_view_url":0},{"id":145215,"code":"B4KJ201801003-3464","latitude":"40.81589","longitude":"140.67769","source_code":"TH61401574021","project_name":"","survey_name":"\u9752\u68ee\u74b0\u72b6\u9053\u8def\u5730\u8cea\u8abf\u67fb\u696d\u52d9\u59d4\u8a17","client_name":"\u56fd\u571f\u4ea4\u901a\u7701\u6771\u5317\u5730\u65b9\u6574\u5099\u5c40\u9752\u68ee\u6cb3\u5ddd\u56fd\u9053\u4e8b\u52d9\u6240","boring_xml_url":40,"boring_view_url":1,"soilmap_view_url":null,"soiltest_xml_url":0,"soiltest_view_url":0},{"id":145214,"code":"B4KJ201801003-3463","latitude":"40.81614","longitude":"140.67769","source_code":"TH61401574020","project_name":"","survey_name":"\u9752\u68ee\u74b0\u72b6\u9053\u8def\u5730\u8cea\u8abf\u67fb\u696d\u52d9\u59d4\u8a17","client_name":"\u56fd\u571f\u4ea4\u901a\u7701\u6771\u5317\u5730\u65b9\u6574\u5099\u5c40\u9752\u68ee\u6cb3\u5ddd\u56fd\u9053\u4e8b\u52d9\u6240","boring_xml_url":40,"boring_view_url":1,"soilmap_view_url":null,"soiltest_xml_url":0,"soiltest_view_url":0},{"id":145213,"code":"B4KJ201801003-3462","latitude":"40.81636","longitude":"140.67769","source_code":"TH61401574019","project_name":"","survey_name":"\u9752\u68ee\u74b0\u72b6\u9053\u8def\u5730\u8cea\u8abf\u67fb\u696d\u52d9\u59d4\u8a17","client_name":"\u56fd\u571f\u4ea4\u901a\u7701\u6771\u5317\u5730\u65b9\u6574\u5099\u5c40\u9752\u68ee\u6cb3\u5ddd\u56fd\u9053\u4e8b\u52d9\u6240","boring_xml_url":40,"boring_view_url":1,"soilmap_view_url":null,"soiltest_xml_url":0,"soiltest_view_url":0},{"id":145212,"code":"B4KJ201801003-3461","latitude":"40.81758","longitude":"140.67203","source_code":"TH61401574018","project_name":"","survey_name":"\u9752\u68ee\u74b0\u72b6\u9053\u8def\u5730\u8cea\u8abf\u67fb\u696d\u52d9\u59d4\u8a17","client_name":"\u56fd\u571f\u4ea4\u901a\u7701\u6771\u5317\u5730\u65b9\u6574\u5099\u5c40\u9752\u68ee\u6cb3\u5ddd\u56fd\u9053\u4e8b\u52d9\u6240","boring_xml_url":40,"boring_view_url":1,"soilmap_view_url":null,"soiltest_xml_url":0,"soiltest_view_url":0},{"id":145211,"code":"B4KJ201801003-3460","latitude":"40.81517","longitude":"140.67769","source_code":"TH61401574017","project_name":"","survey_name":"\u9752\u68ee\u74b0\u72b6\u9053\u8def\u5730\u8cea\u8abf\u67fb\u696d\u52d9\u59d4\u8a17","client_name":"\u56fd\u571f\u4ea4\u901a\u7701\u6771\u5317\u5730\u65b9\u6574\u5099\u5c40\u9752\u68ee\u6cb3\u5ddd\u56fd\u9053\u4e8b\u52d9\u6240","boring_xml_url":40,"boring_view_url":1,"soilmap_view_url":null,"soiltest_xml_url":0,"soiltest_view_url":0},{"id":145210,"code":"B4KJ201801003-3459","latitude":"40.81647","longitude":"140.67461","source_code":"TH61401574015","project_name":"","survey_name":"\u9752\u68ee\u74b0\u72b6\u9053\u8def\u767d\u6a3a\u6a4b\u5730\u76e4\u8abf\u67fb","client_name":"\u56fd\u571f\u4ea4\u901a\u7701\u6771\u5317\u5730\u65b9\u6574\u5099\u5c40\u9752\u68ee\u6cb3\u5ddd\u56fd\u9053\u4e8b\u52d9\u6240","boring_xml_url":40,"boring_view_url":1,"soilmap_view_url":null,"soiltest_xml_url":0,"soiltest_view_url":0},{"id":145209,"code":"B4KJ201801003-3458","latitude":"40.81636","longitude":"140.67217","source_code":"TH61401574013","project_name":"","survey_name":"\u9752\u68ee\u74b0\u72b6\u9053\u8def\u65b0\u57ce\u5730\u533a\u5730\u76e4\u8abf\u67fb","client_name":"\u56fd\u571f\u4ea4\u901a\u7701\u6771\u5317\u5730\u65b9\u6574\u5099\u5c40\u9752\u68ee\u6cb3\u5ddd\u56fd\u9053\u4e8b\u52d9\u6240","boring_xml_url":40,"boring_view_url":1,"soilmap_view_url":null,"soiltest_xml_url":0,"soiltest_view_url":0},{"id":145208,"code":"B4KJ201801003-3457","latitude":"40.81597","longitude":"140.6745","source_code":"TH61401574012","project_name":"","survey_name":"\u9752\u68ee\u74b0\u72b6\u9053\u8def\u65b0\u57ce\u5730\u533a\u5730\u76e4\u8abf\u67fb","client_name":"\u56fd\u571f\u4ea4\u901a\u7701\u6771\u5317\u5730\u65b9\u6574\u5099\u5c40\u9752\u68ee\u6cb3\u5ddd\u56fd\u9053\u4e8b\u52d9\u6240","boring_xml_url":40,"boring_view_url":1,"soilmap_view_url":null,"soiltest_xml_url":0,"soiltest_view_url":0},{"id":145207,"code":"B4KJ201801003-3456","latitude":"40.81558","longitude":"140.67961","source_code":"TH61401574011","project_name":"","survey_name":"\u662d\u548c49\u5e74\u5ea6\u9752\u68ee\u74b0\u72b6\u9053\u8def\u5b89\u7530\u5730\u533a\u5730\u76e4\u8abf\u67fb","client_name":"\u56fd\u571f\u4ea4\u901a\u7701\u6771\u5317\u5730\u65b9\u6574\u5099\u5c40\u9752\u68ee\u6cb3\u5ddd\u56fd\u9053\u4e8b\u52d9\u6240","boring_xml_url":40,"boring_view_url":1,"soilmap_view_url":null,"soiltest_xml_url":0,"soiltest_view_url":0},{"id":145206,"code":"B4KJ201801003-3455","latitude":"40.815","longitude":"140.67942","source_code":"TH61401574010","project_name":"","survey_name":"\u662d\u548c50\u5e74\u5ea6\u9752\u68ee\u74b0\u72b6\u9053\u8def\u5730\u8cea\u8abf\u67fb\u696d\u52d9\u59d4\u8a17","client_name":"\u56fd\u571f\u4ea4\u901a\u7701\u6771\u5317\u5730\u65b9\u6574\u5099\u5c40\u9752\u68ee\u6cb3\u5ddd\u56fd\u9053\u4e8b\u52d9\u6240","boring_xml_url":40,"boring_view_url":1,"soilmap_view_url":null,"soiltest_xml_url":0,"soiltest_view_url":0},{"id":145205,"code":"B4KJ201801003-3454","latitude":"40.815","longitude":"140.67942","source_code":"TH61401574009","project_name":"","survey_name":"\u662d\u548c50\u5e74\u5ea6\u9752\u68ee\u74b0\u72b6\u9053\u8def\u5730\u8cea\u8abf\u67fb\u696d\u52d9\u59d4\u8a17","client_name":"\u56fd\u571f\u4ea4\u901a\u7701\u6771\u5317\u5730\u65b9\u6574\u5099\u5c40\u9752\u68ee\u6cb3\u5ddd\u56fd\u9053\u4e8b\u52d9\u6240","boring_xml_url":40,"boring_view_url":1,"soilmap_view_url":null,"soiltest_xml_url":0,"soiltest_view_url":0},{"id":145204,"code":"B4KJ201801003-3453","latitude":"40.81478","longitude":"140.67792","source_code":"TH61401574008","project_name":"","survey_name":"\u662d\u548c50\u5e74\u5ea6\u9752\u68ee\u74b0\u72b6\u9053\u8def\u5730\u8cea\u8abf\u67fb\u696d\u52d9\u59d4\u8a17","client_name":"\u56fd\u571f\u4ea4\u901a\u7701\u6771\u5317\u5730\u65b9\u6574\u5099\u5c40\u9752\u68ee\u6cb3\u5ddd\u56fd\u9053\u4e8b\u52d9\u6240","boring_xml_url":40,"boring_view_url":1,"soilmap_view_url":null,"soiltest_xml_url":0,"soiltest_view_url":0},{"id":145203,"code":"B4KJ201801003-3452","latitude":"40.81478","longitude":"140.67792","source_code":"TH61401574007","project_name":"","survey_name":"\u662d\u548c50\u5e74\u5ea6\u9752\u68ee\u74b0\u72b6\u9053\u8def\u5730\u8cea\u8abf\u67fb\u696d\u52d9\u59d4\u8a17","client_name":"\u56fd\u571f\u4ea4\u901a\u7701\u6771\u5317\u5730\u65b9\u6574\u5099\u5c40\u9752\u68ee\u6cb3\u5ddd\u56fd\u9053\u4e8b\u52d9\u6240","boring_xml_url":40,"boring_view_url":1,"soilmap_view_url":null,"soiltest_xml_url":0,"soiltest_view_url":0},{"id":145202,"code":"B4KJ201801003-3451","latitude":"40.81478","longitude":"140.67792","source_code":"TH61401574006","project_name":"","survey_name":"\u662d\u548c50\u5e74\u5ea6\u9752\u68ee\u74b0\u72b6\u9053\u8def\u5730\u8cea\u8abf\u67fb\u696d\u52d9\u59d4\u8a17","client_name":"\u56fd\u571f\u4ea4\u901a\u7701\u6771\u5317\u5730\u65b9\u6574\u5099\u5c40\u9752\u68ee\u6cb3\u5ddd\u56fd\u9053\u4e8b\u52d9\u6240","boring_xml_url":40,"boring_view_url":1,"soilmap_view_url":null,"soiltest_xml_url":0,"soiltest_view_url":0},{"id":145201,"code":"B4KJ201801003-3450","latitude":"40.81725","longitude":"140.67228","source_code":"TH61401574004","project_name":"","survey_name":"\u662d\u548c50\u5e74\u5ea6\u9752\u68ee\u74b0\u72b6\u9053\u8def\u5730\u8cea\u8abf\u67fb\u696d\u52d9\u59d4\u8a17","client_name":"\u56fd\u571f\u4ea4\u901a\u7701\u6771\u5317\u5730\u65b9\u6574\u5099\u5c40\u9752\u68ee\u6cb3\u5ddd\u56fd\u9053\u4e8b\u52d9\u6240","boring_xml_url":40,"boring_view_url":1,"soilmap_view_url":null,"soiltest_xml_url":0,"soiltest_view_url":0},{"id":145200,"code":"B4KJ201801003-3449","latitude":"40.81572","longitude":"140.6745","source_code":"TH61401574003","project_name":"","survey_name":"\u65b0\u57ce\u9ad8\u67b6\u6a4b\u5730\u76e4\u8abf\u67fb","client_name":"\u56fd\u571f\u4ea4\u901a\u7701\u6771\u5317\u5730\u65b9\u6574\u5099\u5c40\u9752\u68ee\u6cb3\u5ddd\u56fd\u9053\u4e8b\u52d9\u6240","boring_xml_url":40,"boring_view_url":1,"soilmap_view_url":null,"soiltest_xml_url":0,"soiltest_view_url":0},{"id":145199,"code":"B4KJ201801003-3448","latitude":"40.81572","longitude":"140.6745","source_code":"TH61401574002","project_name":"","survey_name":"\u65b0\u57ce\u9ad8\u67b6\u6a4b\u5730\u76e4\u8abf\u67fb","client_name":"\u56fd\u571f\u4ea4\u901a\u7701\u6771\u5317\u5730\u65b9\u6574\u5099\u5c40\u9752\u68ee\u6cb3\u5ddd\u56fd\u9053\u4e8b\u52d9\u6240","boring_xml_url":40,"boring_view_url":1,"soilmap_view_url":null,"soiltest_xml_url":0,"soiltest_view_url":0},{"id":145198,"code":"B4KJ201801003-3447","latitude":"40.81572","longitude":"140.6745","source_code":"TH61401574001","project_name":"","survey_name":"\u65b0\u57ce\u9ad8\u67b6\u6a4b\u5730\u76e4\u8abf\u67fb","client_name":"\u56fd\u571f\u4ea4\u901a\u7701\u6771\u5317\u5730\u65b9\u6574\u5099\u5c40\u9752\u68ee\u6cb3\u5ddd\u56fd\u9053\u4e8b\u52d9\u6240","boring_xml_url":40,"boring_view_url":1,"soilmap_view_url":null,"soiltest_xml_url":0,"soiltest_view_url":0},{"id":145197,"code":"B4KJ201801003-3446","latitude":"40.81464","longitude":"140.6435","source_code":"TH61401571004","project_name":"","survey_name":"\u9db4\u30b1\u5742\u30d0\u30a4\u30d1\u30b9\u5730\u76e4\u8abf\u67fb\u696d\u52d9\u59d4\u8a17","client_name":"\u56fd\u571f\u4ea4\u901a\u7701\u6771\u5317\u5730\u65b9\u6574\u5099\u5c40\u9752\u68ee\u6cb3\u5ddd\u56fd\u9053\u4e8b\u52d9\u6240","boring_xml_url":40,"boring_view_url":1,"soilmap_view_url":null,"soiltest_xml_url":0,"soiltest_view_url":0},{"id":145196,"code":"B4KJ201801003-3445","latitude":"40.81419","longitude":"140.64294","source_code":"TH61401571003","project_name":"","survey_name":"\u9db4\u30b1\u5742\u30d0\u30a4\u30d1\u30b9\u5730\u76e4\u8abf\u67fb\u696d\u52d9\u59d4\u8a17","client_name":"\u56fd\u571f\u4ea4\u901a\u7701\u6771\u5317\u5730\u65b9\u6574\u5099\u5c40\u9752\u68ee\u6cb3\u5ddd\u56fd\u9053\u4e8b\u52d9\u6240","boring_xml_url":40,"boring_view_url":1,"soilmap_view_url":null,"soiltest_xml_url":0,"soiltest_view_url":0}]}}