{"header":{"xyz":{"source":[],"mosaic":false},"page":5854,"raw":{"soiltest_result":"0","bbox":"57.598333,109.544722,1.933333,163.806111","page":"5854"},"conditions":{"soiltest_result":0,"north":57.598333,"west":109.544722,"south":1.933333,"east":163.806111},"success":true,"message":""},"data":{"meta":{"total":212844,"page":5854,"pages":7095,"count":30},"values":[{"id":144955,"code":"B4KJ201801003-3204","latitude":"40.64178","longitude":"141.21203","source_code":"TH60417167003","project_name":"","survey_name":"\u662d\u548c57\u5e74\u5ea6+\u548c\u7530\u30d0\u30a4\u30d1\u30b9(6I\u533a)\u5730\u8cea\u8abf\u67fb","client_name":"\u56fd\u571f\u4ea4\u901a\u7701\u6771\u5317\u5730\u65b9\u6574\u5099\u5c40\u9752\u68ee\u6cb3\u5ddd\u56fd\u9053\u4e8b\u52d9\u6240","boring_xml_url":40,"boring_view_url":1,"soilmap_view_url":null,"soiltest_xml_url":0,"soiltest_view_url":0},{"id":144954,"code":"B4KJ201801003-3203","latitude":"40.64222","longitude":"141.21097","source_code":"TH60417167002","project_name":"","survey_name":"\u662d\u548c57\u5e74\u5ea6+\u548c\u7530\u30d0\u30a4\u30d1\u30b9(6I\u533a)\u5730\u8cea\u8abf\u67fb","client_name":"\u56fd\u571f\u4ea4\u901a\u7701\u6771\u5317\u5730\u65b9\u6574\u5099\u5c40\u9752\u68ee\u6cb3\u5ddd\u56fd\u9053\u4e8b\u52d9\u6240","boring_xml_url":40,"boring_view_url":1,"soilmap_view_url":null,"soiltest_xml_url":0,"soiltest_view_url":0},{"id":144953,"code":"B4KJ201801003-3202","latitude":"40.642","longitude":"141.21083","source_code":"TH60417167001","project_name":"","survey_name":"\u662d\u548c57\u5e74\u5ea6+\u548c\u7530\u30d0\u30a4\u30d1\u30b9(6I\u533a)\u5730\u8cea\u8abf\u67fb","client_name":"\u56fd\u571f\u4ea4\u901a\u7701\u6771\u5317\u5730\u65b9\u6574\u5099\u5c40\u9752\u68ee\u6cb3\u5ddd\u56fd\u9053\u4e8b\u52d9\u6240","boring_xml_url":40,"boring_view_url":1,"soilmap_view_url":null,"soiltest_xml_url":0,"soiltest_view_url":0},{"id":144952,"code":"B4KJ201801003-3201","latitude":"40.64031","longitude":"141.19933","source_code":"TH60417166008","project_name":"","survey_name":"+\u548c\u7530\u30d0\u30a4\u30d1\u30b9(6\u5de5\u533a)\u5730\u76e4\u8abf\u67fb","client_name":"\u56fd\u571f\u4ea4\u901a\u7701\u6771\u5317\u5730\u65b9\u6574\u5099\u5c40\u9752\u68ee\u6cb3\u5ddd\u56fd\u9053\u4e8b\u52d9\u6240","boring_xml_url":40,"boring_view_url":1,"soilmap_view_url":null,"soiltest_xml_url":0,"soiltest_view_url":0},{"id":144951,"code":"B4KJ201801003-3200","latitude":"40.63986","longitude":"141.20142","source_code":"TH60417166007","project_name":"","survey_name":"+\u548c\u7530\u30d0\u30a4\u30d1\u30b9(6\u5de5\u533a)\u5730\u76e4\u8abf\u67fb","client_name":"\u56fd\u571f\u4ea4\u901a\u7701\u6771\u5317\u5730\u65b9\u6574\u5099\u5c40\u9752\u68ee\u6cb3\u5ddd\u56fd\u9053\u4e8b\u52d9\u6240","boring_xml_url":40,"boring_view_url":1,"soilmap_view_url":null,"soiltest_xml_url":0,"soiltest_view_url":0},{"id":144950,"code":"B4KJ201801003-3199","latitude":"40.64347","longitude":"141.20517","source_code":"TH60417166005","project_name":"","survey_name":"+\u548c\u7530\u30d0\u30a4\u30d1\u30b9(6\u5de5\u533a)\u5730\u76e4\u8abf\u67fb","client_name":"\u56fd\u571f\u4ea4\u901a\u7701\u6771\u5317\u5730\u65b9\u6574\u5099\u5c40\u9752\u68ee\u6cb3\u5ddd\u56fd\u9053\u4e8b\u52d9\u6240","boring_xml_url":40,"boring_view_url":1,"soilmap_view_url":null,"soiltest_xml_url":0,"soiltest_view_url":0},{"id":144949,"code":"B4KJ201801003-3198","latitude":"40.64256","longitude":"141.20711","source_code":"TH60417166004","project_name":"","survey_name":"\u662d\u548c57\u5e74\u5ea6+\u548c\u7530\u30d0\u30a4\u30d1\u30b9(6I\u533a)\u5730\u8cea\u8abf\u67fb","client_name":"\u56fd\u571f\u4ea4\u901a\u7701\u6771\u5317\u5730\u65b9\u6574\u5099\u5c40\u9752\u68ee\u6cb3\u5ddd\u56fd\u9053\u4e8b\u52d9\u6240","boring_xml_url":40,"boring_view_url":1,"soilmap_view_url":null,"soiltest_xml_url":0,"soiltest_view_url":0},{"id":144948,"code":"B4KJ201801003-3197","latitude":"40.64425","longitude":"141.19897","source_code":"TH60417166003","project_name":"","survey_name":"\u662d\u548c57\u5e74\u5ea6+\u548c\u7530\u30d0\u30a4\u30d1\u30b9(6I\u533a)\u5730\u8cea\u8abf\u67fb","client_name":"\u56fd\u571f\u4ea4\u901a\u7701\u6771\u5317\u5730\u65b9\u6574\u5099\u5c40\u9752\u68ee\u6cb3\u5ddd\u56fd\u9053\u4e8b\u52d9\u6240","boring_xml_url":40,"boring_view_url":1,"soilmap_view_url":null,"soiltest_xml_url":0,"soiltest_view_url":0},{"id":144947,"code":"B4KJ201801003-3196","latitude":"40.64358","longitude":"141.20578","source_code":"TH60417166002","project_name":"","survey_name":"\u662d\u548c57\u5e74\u5ea6+\u548c\u7530\u30d0\u30a4\u30d1\u30b9(6I\u533a)\u5730\u8cea\u8abf\u67fb","client_name":"\u56fd\u571f\u4ea4\u901a\u7701\u6771\u5317\u5730\u65b9\u6574\u5099\u5c40\u9752\u68ee\u6cb3\u5ddd\u56fd\u9053\u4e8b\u52d9\u6240","boring_xml_url":40,"boring_view_url":1,"soilmap_view_url":null,"soiltest_xml_url":0,"soiltest_view_url":0},{"id":144946,"code":"B4KJ201801003-3195","latitude":"40.64358","longitude":"141.20506","source_code":"TH60417166001","project_name":"","survey_name":"\u662d\u548c57\u5e74\u5ea6+\u548c\u7530\u30d0\u30a4\u30d1\u30b9(6I\u533a)\u5730\u8cea\u8abf\u67fb","client_name":"\u56fd\u571f\u4ea4\u901a\u7701\u6771\u5317\u5730\u65b9\u6574\u5099\u5c40\u9752\u68ee\u6cb3\u5ddd\u56fd\u9053\u4e8b\u52d9\u6240","boring_xml_url":40,"boring_view_url":1,"soilmap_view_url":null,"soiltest_xml_url":0,"soiltest_view_url":0},{"id":144945,"code":"B4KJ201801003-3194","latitude":"40.60647","longitude":"141.22011","source_code":"TH60417127001","project_name":"","survey_name":"\u4ea4\u901a\u5b89\u5168\u6e2c\u91cf\u30fb\u8abf\u67fb\u30fb\u59d4\u8a17","client_name":"\u56fd\u571f\u4ea4\u901a\u7701\u6771\u5317\u5730\u65b9\u6574\u5099\u5c40\u9752\u68ee\u6cb3\u5ddd\u56fd\u9053\u4e8b\u52d9\u6240","boring_xml_url":40,"boring_view_url":1,"soilmap_view_url":null,"soiltest_xml_url":0,"soiltest_view_url":0},{"id":144944,"code":"B4KJ201801003-3193","latitude":"40.58833","longitude":"141.23783","source_code":"TH60417109009","project_name":"","survey_name":"\u662d\u548c60\u5e74\u5ea6\u5fa1\u5e78\u6a4b\u5730\u76e4\u8abf\u67fb","client_name":"\u56fd\u571f\u4ea4\u901a\u7701\u6771\u5317\u5730\u65b9\u6574\u5099\u5c40\u9752\u68ee\u6cb3\u5ddd\u56fd\u9053\u4e8b\u52d9\u6240","boring_xml_url":40,"boring_view_url":1,"soilmap_view_url":null,"soiltest_xml_url":0,"soiltest_view_url":0},{"id":144943,"code":"B4KJ201801003-3192","latitude":"40.58767","longitude":"141.23783","source_code":"TH60417109006","project_name":"","survey_name":"\u662d\u548c60\u5e74\u5ea6\u5fa1\u5e78\u6a4b\u5730\u76e4\u8abf\u67fb","client_name":"\u56fd\u571f\u4ea4\u901a\u7701\u6771\u5317\u5730\u65b9\u6574\u5099\u5c40\u9752\u68ee\u6cb3\u5ddd\u56fd\u9053\u4e8b\u52d9\u6240","boring_xml_url":40,"boring_view_url":1,"soilmap_view_url":null,"soiltest_xml_url":0,"soiltest_view_url":0},{"id":144942,"code":"B4KJ201801003-3191","latitude":"40.58744","longitude":"141.23783","source_code":"TH60417109005","project_name":"","survey_name":"\u662d\u548c60\u5e74\u5ea6\u5fa1\u5e78\u6a4b\u5730\u76e4\u8abf\u67fb","client_name":"\u56fd\u571f\u4ea4\u901a\u7701\u6771\u5317\u5730\u65b9\u6574\u5099\u5c40\u9752\u68ee\u6cb3\u5ddd\u56fd\u9053\u4e8b\u52d9\u6240","boring_xml_url":40,"boring_view_url":1,"soilmap_view_url":null,"soiltest_xml_url":0,"soiltest_view_url":0},{"id":144941,"code":"B4KJ201801003-3190","latitude":"40.58831","longitude":"141.23781","source_code":"TH60417109004","project_name":"","survey_name":"\u5fa1\u5e78\u6a4b\u5730\u8cea\u8abf\u67fb","client_name":"\u56fd\u571f\u4ea4\u901a\u7701\u6771\u5317\u5730\u65b9\u6574\u5099\u5c40\u9752\u68ee\u6cb3\u5ddd\u56fd\u9053\u4e8b\u52d9\u6240","boring_xml_url":40,"boring_view_url":1,"soilmap_view_url":null,"soiltest_xml_url":0,"soiltest_view_url":0},{"id":144940,"code":"B4KJ201801003-3189","latitude":"40.58719","longitude":"141.23781","source_code":"TH60417109003","project_name":"","survey_name":"\u5fa1\u5e78\u6a4b\u5730\u76e4\u8abf\u67fb","client_name":"\u56fd\u571f\u4ea4\u901a\u7701\u6771\u5317\u5730\u65b9\u6574\u5099\u5c40\u9752\u68ee\u6cb3\u5ddd\u56fd\u9053\u4e8b\u52d9\u6240","boring_xml_url":40,"boring_view_url":1,"soilmap_view_url":null,"soiltest_xml_url":0,"soiltest_view_url":0},{"id":144939,"code":"B4KJ201801003-3188","latitude":"40.58753","longitude":"141.23781","source_code":"TH60417109002","project_name":"","survey_name":"\u5fa1\u5e78\u6a4b\u5730\u76e4\u8abf\u67fb","client_name":"\u56fd\u571f\u4ea4\u901a\u7701\u6771\u5317\u5730\u65b9\u6574\u5099\u5c40\u9752\u68ee\u6cb3\u5ddd\u56fd\u9053\u4e8b\u52d9\u6240","boring_xml_url":40,"boring_view_url":1,"soilmap_view_url":null,"soiltest_xml_url":0,"soiltest_view_url":0},{"id":144938,"code":"B4KJ201801003-3187","latitude":"40.50744","longitude":"141.52222","source_code":"TH60416402001","project_name":"","survey_name":"\u662d\u548c63\u5e74\u5ea6\u9ad8\u9928\u5730\u533a\u5730\u76e4\u8abf\u67fb(\u65b0\u4e95\u7530\u5730\u533a)","client_name":"\u56fd\u571f\u4ea4\u901a\u7701\u6771\u5317\u5730\u65b9\u6574\u5099\u5c40\u9752\u68ee\u6cb3\u5ddd\u56fd\u9053\u4e8b\u52d9\u6240","boring_xml_url":40,"boring_view_url":1,"soilmap_view_url":null,"soiltest_xml_url":0,"soiltest_view_url":0},{"id":144937,"code":"B4KJ201801003-3186","latitude":"40.57864","longitude":"141.43989","source_code":"TH60416395013","project_name":"","survey_name":"\u4ea4\u901a\u5b89\u5168\u6e2c\u91cf\u30fb\u8abf\u67fb\u30fb\u59d4\u8a17","client_name":"\u56fd\u571f\u4ea4\u901a\u7701\u6771\u5317\u5730\u65b9\u6574\u5099\u5c40\u9752\u68ee\u6cb3\u5ddd\u56fd\u9053\u4e8b\u52d9\u6240","boring_xml_url":40,"boring_view_url":1,"soilmap_view_url":null,"soiltest_xml_url":0,"soiltest_view_url":0},{"id":144936,"code":"B4KJ201801003-3185","latitude":"40.58522","longitude":"141.43528","source_code":"TH60416395012","project_name":"","survey_name":"\u591a\u8cc0\u53f0\u6a2a\u65ad\u6b69\u9053\u6a4b\u8a2d\u8a08\u696d\u52d9","client_name":"\u56fd\u571f\u4ea4\u901a\u7701\u6771\u5317\u5730\u65b9\u6574\u5099\u5c40\u9752\u68ee\u6cb3\u5ddd\u56fd\u9053\u4e8b\u52d9\u6240","boring_xml_url":40,"boring_view_url":1,"soilmap_view_url":null,"soiltest_xml_url":0,"soiltest_view_url":0},{"id":144935,"code":"B4KJ201801003-3184","latitude":"40.58386","longitude":"141.43714","source_code":"TH60416395011","project_name":"","survey_name":"\u591a\u8cc0\u53f0\u6a2a\u65ad\u6b69\u9053\u6a4b\u5b9f\u65bd\u8a2d\u8a08\u53ca\u3073\u5730\u76e4\u8abf\u67fb","client_name":"\u56fd\u571f\u4ea4\u901a\u7701\u6771\u5317\u5730\u65b9\u6574\u5099\u5c40\u9752\u68ee\u6cb3\u5ddd\u56fd\u9053\u4e8b\u52d9\u6240","boring_xml_url":40,"boring_view_url":1,"soilmap_view_url":null,"soiltest_xml_url":0,"soiltest_view_url":0},{"id":144934,"code":"B4KJ201801003-3183","latitude":"40.58381","longitude":"141.43669","source_code":"TH60416395010","project_name":"","survey_name":"\u591a\u8cc0\u53f0\u6a2a\u65ad\u6b69\u9053\u6a4b\u5b9f\u65bd\u8a2d\u8a08\u53ca\u3073\u5730\u76e4\u8abf\u67fb","client_name":"\u56fd\u571f\u4ea4\u901a\u7701\u6771\u5317\u5730\u65b9\u6574\u5099\u5c40\u9752\u68ee\u6cb3\u5ddd\u56fd\u9053\u4e8b\u52d9\u6240","boring_xml_url":40,"boring_view_url":1,"soilmap_view_url":null,"soiltest_xml_url":0,"soiltest_view_url":0},{"id":144933,"code":"B4KJ201801003-3182","latitude":"40.57864","longitude":"141.43972","source_code":"TH60416395008","project_name":"","survey_name":"\u767e\u77f3\u30d0\u30a4\u30d1\u30b9\u5730\u76e4\u8abf\u67fb","client_name":"\u56fd\u571f\u4ea4\u901a\u7701\u6771\u5317\u5730\u65b9\u6574\u5099\u5c40\u9752\u68ee\u6cb3\u5ddd\u56fd\u9053\u4e8b\u52d9\u6240","boring_xml_url":40,"boring_view_url":1,"soilmap_view_url":null,"soiltest_xml_url":0,"soiltest_view_url":0},{"id":144932,"code":"B4KJ201801003-3181","latitude":"40.57864","longitude":"141.43972","source_code":"TH60416395007","project_name":"","survey_name":"\u767e\u77f3\u30d0\u30a4\u30d1\u30b9\u5730\u76e4\u8abf\u67fb","client_name":"\u56fd\u571f\u4ea4\u901a\u7701\u6771\u5317\u5730\u65b9\u6574\u5099\u5c40\u9752\u68ee\u6cb3\u5ddd\u56fd\u9053\u4e8b\u52d9\u6240","boring_xml_url":40,"boring_view_url":1,"soilmap_view_url":null,"soiltest_xml_url":0,"soiltest_view_url":0},{"id":144931,"code":"B4KJ201801003-3180","latitude":"40.5845","longitude":"141.43444","source_code":"TH60416395006","project_name":"","survey_name":"\u767e\u77f3\u30d0\u30a4\u30d1\u30b9\u5730\u4e0b\u6c34\u89b3\u6e2c\u696d\u52d9\u59d4\u8a17","client_name":"\u56fd\u571f\u4ea4\u901a\u7701\u6771\u5317\u5730\u65b9\u6574\u5099\u5c40\u9752\u68ee\u6cb3\u5ddd\u56fd\u9053\u4e8b\u52d9\u6240","boring_xml_url":40,"boring_view_url":1,"soilmap_view_url":null,"soiltest_xml_url":0,"soiltest_view_url":0},{"id":144930,"code":"B4KJ201801003-3179","latitude":"40.58361","longitude":"141.43414","source_code":"TH60416395005","project_name":"","survey_name":"\u767e\u77f3\u30d0\u30a4\u30d1\u30b9\u5730\u4e0b\u6c34\u89b3\u6e2c\u696d\u52d9\u59d4\u8a17","client_name":"\u56fd\u571f\u4ea4\u901a\u7701\u6771\u5317\u5730\u65b9\u6574\u5099\u5c40\u9752\u68ee\u6cb3\u5ddd\u56fd\u9053\u4e8b\u52d9\u6240","boring_xml_url":40,"boring_view_url":1,"soilmap_view_url":null,"soiltest_xml_url":0,"soiltest_view_url":0},{"id":144929,"code":"B4KJ201801003-3178","latitude":"40.57931","longitude":"141.43614","source_code":"TH60416395002","project_name":"","survey_name":"\u767e\u77f3\u30d0\u30a4\u30d1\u30b9\u5e02\u5ddd\u5730\u533a\u5730\u76e4\u8abf\u67fb","client_name":"\u56fd\u571f\u4ea4\u901a\u7701\u6771\u5317\u5730\u65b9\u6574\u5099\u5c40\u9752\u68ee\u6cb3\u5ddd\u56fd\u9053\u4e8b\u52d9\u6240","boring_xml_url":40,"boring_view_url":1,"soilmap_view_url":null,"soiltest_xml_url":0,"soiltest_view_url":0},{"id":144928,"code":"B4KJ201801003-3177","latitude":"40.57819","longitude":"141.43644","source_code":"TH60416395001","project_name":"","survey_name":"\u767e\u77f3\u30d0\u30a4\u30d1\u30b9\u5e02\u5ddd\u5730\u533a\u5730\u76e4\u8abf\u67fb","client_name":"\u56fd\u571f\u4ea4\u901a\u7701\u6771\u5317\u5730\u65b9\u6574\u5099\u5c40\u9752\u68ee\u6cb3\u5ddd\u56fd\u9053\u4e8b\u52d9\u6240","boring_xml_url":40,"boring_view_url":1,"soilmap_view_url":null,"soiltest_xml_url":0,"soiltest_view_url":0},{"id":144927,"code":"B4KJ201801003-3176","latitude":"40.5855","longitude":"141.43133","source_code":"TH60416394004","project_name":"","survey_name":"\u767e\u77f3\u30d0\u30a4\u30d1\u30b9\u5730\u76e4\u8abf\u67fb","client_name":"\u56fd\u571f\u4ea4\u901a\u7701\u6771\u5317\u5730\u65b9\u6574\u5099\u5c40\u9752\u68ee\u6cb3\u5ddd\u56fd\u9053\u4e8b\u52d9\u6240","boring_xml_url":40,"boring_view_url":1,"soilmap_view_url":null,"soiltest_xml_url":0,"soiltest_view_url":0},{"id":144926,"code":"B4KJ201801003-3175","latitude":"40.58592","longitude":"141.42972","source_code":"TH60416394003","project_name":"","survey_name":"\u767e\u77f3\u30d0\u30a4\u30d1\u30b9\u5730\u76e4\u8abf\u67fb","client_name":"\u56fd\u571f\u4ea4\u901a\u7701\u6771\u5317\u5730\u65b9\u6574\u5099\u5c40\u9752\u68ee\u6cb3\u5ddd\u56fd\u9053\u4e8b\u52d9\u6240","boring_xml_url":40,"boring_view_url":1,"soilmap_view_url":null,"soiltest_xml_url":0,"soiltest_view_url":0}]}}