{"header":{"xyz":{"source":[],"mosaic":false},"page":5856,"raw":{"soiltest_result":"0","bbox":"57.598333,109.544722,1.933333,163.806111","page":"5856"},"conditions":{"soiltest_result":0,"north":57.598333,"west":109.544722,"south":1.933333,"east":163.806111},"success":true,"message":""},"data":{"meta":{"total":212844,"page":5856,"pages":7095,"count":30},"values":[{"id":144895,"code":"B4KJ201801003-3144","latitude":"40.56672","longitude":"141.43628","source_code":"TH60416375012","project_name":"","survey_name":"\u5e73\u6210\u5143\u5e74\u5ea6\u516b\u6238\u5730\u533a\u5730\u76e4\u8abf\u67fb","client_name":"\u56fd\u571f\u4ea4\u901a\u7701\u6771\u5317\u5730\u65b9\u6574\u5099\u5c40\u9752\u68ee\u6cb3\u5ddd\u56fd\u9053\u4e8b\u52d9\u6240","boring_xml_url":40,"boring_view_url":1,"soilmap_view_url":null,"soiltest_xml_url":0,"soiltest_view_url":0},{"id":144894,"code":"B4KJ201801003-3143","latitude":"40.56647","longitude":"141.43619","source_code":"TH60416375011","project_name":"","survey_name":"\u5e73\u6210\u5143\u5e74\u5ea6\u516b\u6238\u5730\u533a\u5730\u76e4\u8abf\u67fb","client_name":"\u56fd\u571f\u4ea4\u901a\u7701\u6771\u5317\u5730\u65b9\u6574\u5099\u5c40\u9752\u68ee\u6cb3\u5ddd\u56fd\u9053\u4e8b\u52d9\u6240","boring_xml_url":40,"boring_view_url":1,"soilmap_view_url":null,"soiltest_xml_url":0,"soiltest_view_url":0},{"id":144893,"code":"B4KJ201801003-3142","latitude":"40.56633","longitude":"141.43628","source_code":"TH60416375010","project_name":"","survey_name":"\u5e73\u6210\u5143\u5e74\u5ea6\u516b\u6238\u5730\u533a\u5730\u76e4\u8abf\u67fb","client_name":"\u56fd\u571f\u4ea4\u901a\u7701\u6771\u5317\u5730\u65b9\u6574\u5099\u5c40\u9752\u68ee\u6cb3\u5ddd\u56fd\u9053\u4e8b\u52d9\u6240","boring_xml_url":40,"boring_view_url":1,"soilmap_view_url":null,"soiltest_xml_url":0,"soiltest_view_url":0},{"id":144892,"code":"B4KJ201801003-3141","latitude":"40.56622","longitude":"141.43889","source_code":"TH60416375009","project_name":"","survey_name":"\u5e73\u6210\u5143\u5e74\u5ea6\u516b\u6238\u5730\u533a\u5730\u76e4\u8abf\u67fb","client_name":"\u56fd\u571f\u4ea4\u901a\u7701\u6771\u5317\u5730\u65b9\u6574\u5099\u5c40\u9752\u68ee\u6cb3\u5ddd\u56fd\u9053\u4e8b\u52d9\u6240","boring_xml_url":40,"boring_view_url":1,"soilmap_view_url":null,"soiltest_xml_url":0,"soiltest_view_url":0},{"id":144891,"code":"B4KJ201801003-3140","latitude":"40.56758","longitude":"141.43642","source_code":"TH60416375008","project_name":"","survey_name":"\u767e\u77f3\u30d0\u30a4\u30d1\u30b9\u5730\u76e4\u8abf\u67fb","client_name":"\u56fd\u571f\u4ea4\u901a\u7701\u6771\u5317\u5730\u65b9\u6574\u5099\u5c40\u9752\u68ee\u6cb3\u5ddd\u56fd\u9053\u4e8b\u52d9\u6240","boring_xml_url":40,"boring_view_url":1,"soilmap_view_url":null,"soiltest_xml_url":0,"soiltest_view_url":0},{"id":144890,"code":"B4KJ201801003-3139","latitude":"40.56397","longitude":"141.43597","source_code":"TH60416375003","project_name":"","survey_name":"\u5e02\u5ddd\u3053\u7dda\u6a4b\u5b9f\u65bd\u8a2d\u8a08\u696d\u52d9\u59d4\u8a17","client_name":"\u56fd\u571f\u4ea4\u901a\u7701\u6771\u5317\u5730\u65b9\u6574\u5099\u5c40\u9752\u68ee\u6cb3\u5ddd\u56fd\u9053\u4e8b\u52d9\u6240","boring_xml_url":40,"boring_view_url":1,"soilmap_view_url":null,"soiltest_xml_url":0,"soiltest_view_url":0},{"id":144889,"code":"B4KJ201801003-3138","latitude":"40.56808","longitude":"141.43647","source_code":"TH60416375002","project_name":"","survey_name":"\u516b\u6238\u5317\u30d0\u30a4\u30d1\u30b9\u5e02\u5ddd\u5730\u533a\u5730\u76e4\u8abf\u67fb\u53ca\u3073\u8a2d\u8a08\u696d\u52d9\u59d4\u8a17","client_name":"\u56fd\u571f\u4ea4\u901a\u7701\u6771\u5317\u5730\u65b9\u6574\u5099\u5c40\u9752\u68ee\u6cb3\u5ddd\u56fd\u9053\u4e8b\u52d9\u6240","boring_xml_url":40,"boring_view_url":1,"soilmap_view_url":null,"soiltest_xml_url":0,"soiltest_view_url":0},{"id":144888,"code":"B4KJ201801003-3137","latitude":"40.56558","longitude":"141.43561","source_code":"TH60416375001","project_name":"","survey_name":"\u516b\u6238\u5317\u30d0\u30a4\u30d1\u30b9\u5e02\u5ddd\u5730\u533a\u5730\u76e4\u8abf\u67fb\u53ca\u3073\u8a2d\u8a08\u696d\u52d9\u59d4\u8a17","client_name":"\u56fd\u571f\u4ea4\u901a\u7701\u6771\u5317\u5730\u65b9\u6574\u5099\u5c40\u9752\u68ee\u6cb3\u5ddd\u56fd\u9053\u4e8b\u52d9\u6240","boring_xml_url":40,"boring_view_url":1,"soilmap_view_url":null,"soiltest_xml_url":0,"soiltest_view_url":0},{"id":144887,"code":"B4KJ201801003-3136","latitude":"40.56172","longitude":"141.43086","source_code":"TH60416374002","project_name":"","survey_name":"\u767e\u77f3\u9053\u8def(\u516b\u6238\u5317IC)\u5730\u76e4\u8abf\u67fb","client_name":"\u56fd\u571f\u4ea4\u901a\u7701\u6771\u5317\u5730\u65b9\u6574\u5099\u5c40\u9752\u68ee\u6cb3\u5ddd\u56fd\u9053\u4e8b\u52d9\u6240","boring_xml_url":40,"boring_view_url":1,"soilmap_view_url":null,"soiltest_xml_url":0,"soiltest_view_url":0},{"id":144886,"code":"B4KJ201801003-3135","latitude":"40.56172","longitude":"141.43086","source_code":"TH60416374001","project_name":"","survey_name":"\u767e\u77f3\u9053\u8def(\u516b\u6238\u5317IC)\u5730\u76e4\u8abf\u67fb","client_name":"\u56fd\u571f\u4ea4\u901a\u7701\u6771\u5317\u5730\u65b9\u6574\u5099\u5c40\u9752\u68ee\u6cb3\u5ddd\u56fd\u9053\u4e8b\u52d9\u6240","boring_xml_url":40,"boring_view_url":1,"soilmap_view_url":null,"soiltest_xml_url":0,"soiltest_view_url":0},{"id":144885,"code":"B4KJ201801003-3134","latitude":"40.55319","longitude":"141.43647","source_code":"TH60416365004","project_name":"","survey_name":"\u5e73\u6210\u5143\u5e74\u5ea6\u516b\u6238\u5730\u533a\u5730\u76e4\u8abf\u67fb","client_name":"\u56fd\u571f\u4ea4\u901a\u7701\u6771\u5317\u5730\u65b9\u6574\u5099\u5c40\u9752\u68ee\u6cb3\u5ddd\u56fd\u9053\u4e8b\u52d9\u6240","boring_xml_url":40,"boring_view_url":1,"soilmap_view_url":null,"soiltest_xml_url":0,"soiltest_view_url":0},{"id":144884,"code":"B4KJ201801003-3133","latitude":"40.55331","longitude":"141.43597","source_code":"TH60416365003","project_name":"","survey_name":"\u5e73\u6210\u5143\u5e74\u5ea6\u516b\u6238\u5730\u533a\u5730\u76e4\u8abf\u67fb","client_name":"\u56fd\u571f\u4ea4\u901a\u7701\u6771\u5317\u5730\u65b9\u6574\u5099\u5c40\u9752\u68ee\u6cb3\u5ddd\u56fd\u9053\u4e8b\u52d9\u6240","boring_xml_url":40,"boring_view_url":1,"soilmap_view_url":null,"soiltest_xml_url":0,"soiltest_view_url":0},{"id":144883,"code":"B4KJ201801003-3132","latitude":"40.55722","longitude":"141.43511","source_code":"TH60416365002","project_name":"","survey_name":"\u516b\u6238\u5317\u30d0\u30a4\u30d1\u30b9\u5730\u76e4\u8abf\u67fb","client_name":"\u56fd\u571f\u4ea4\u901a\u7701\u6771\u5317\u5730\u65b9\u6574\u5099\u5c40\u9752\u68ee\u6cb3\u5ddd\u56fd\u9053\u4e8b\u52d9\u6240","boring_xml_url":40,"boring_view_url":1,"soilmap_view_url":null,"soiltest_xml_url":0,"soiltest_view_url":0},{"id":144882,"code":"B4KJ201801003-3131","latitude":"40.55722","longitude":"141.43569","source_code":"TH60416365001","project_name":"","survey_name":"\u516b\u6238\u5317\u30d0\u30a4\u30d1\u30b9\u5730\u76e4\u8abf\u67fb","client_name":"\u56fd\u571f\u4ea4\u901a\u7701\u6771\u5317\u5730\u65b9\u6574\u5099\u5c40\u9752\u68ee\u6cb3\u5ddd\u56fd\u9053\u4e8b\u52d9\u6240","boring_xml_url":40,"boring_view_url":1,"soilmap_view_url":null,"soiltest_xml_url":0,"soiltest_view_url":0},{"id":144881,"code":"B4KJ201801003-3130","latitude":"40.55678","longitude":"141.43197","source_code":"TH60416364004","project_name":"","survey_name":"\u767e\u77f3\u9053\u8def(\u516b\u6238\u5317IC)\u5730\u76e4\u8abf\u67fb","client_name":"\u56fd\u571f\u4ea4\u901a\u7701\u6771\u5317\u5730\u65b9\u6574\u5099\u5c40\u9752\u68ee\u6cb3\u5ddd\u56fd\u9053\u4e8b\u52d9\u6240","boring_xml_url":40,"boring_view_url":1,"soilmap_view_url":null,"soiltest_xml_url":0,"soiltest_view_url":0},{"id":144880,"code":"B4KJ201801003-3129","latitude":"40.55678","longitude":"141.43197","source_code":"TH60416364003","project_name":"","survey_name":"\u767e\u77f3\u9053\u8def(\u516b\u6238\u5317IC)\u5730\u76e4\u8abf\u67fb","client_name":"\u56fd\u571f\u4ea4\u901a\u7701\u6771\u5317\u5730\u65b9\u6574\u5099\u5c40\u9752\u68ee\u6cb3\u5ddd\u56fd\u9053\u4e8b\u52d9\u6240","boring_xml_url":40,"boring_view_url":1,"soilmap_view_url":null,"soiltest_xml_url":0,"soiltest_view_url":0},{"id":144879,"code":"B4KJ201801003-3128","latitude":"40.55678","longitude":"141.43197","source_code":"TH60416364002","project_name":"","survey_name":"\u767e\u77f3\u9053\u8def(\u516b\u6238\u5317IC)\u5730\u76e4\u8abf\u67fb","client_name":"\u56fd\u571f\u4ea4\u901a\u7701\u6771\u5317\u5730\u65b9\u6574\u5099\u5c40\u9752\u68ee\u6cb3\u5ddd\u56fd\u9053\u4e8b\u52d9\u6240","boring_xml_url":40,"boring_view_url":1,"soilmap_view_url":null,"soiltest_xml_url":0,"soiltest_view_url":0},{"id":144878,"code":"B4KJ201801003-3127","latitude":"40.53778","longitude":"141.45436","source_code":"TH60416346006","project_name":"","survey_name":"\u662d\u548c53\u5e74\u5ea6\u516b\u6238\u5317\u30d0\u30a4\u30d1\u30b9\u9ad8\u8218\u8de8\u9053\u6a4b\u5730\u76e4\u8abf\u67fb","client_name":"\u56fd\u571f\u4ea4\u901a\u7701\u6771\u5317\u5730\u65b9\u6574\u5099\u5c40\u9752\u68ee\u6cb3\u5ddd\u56fd\u9053\u4e8b\u52d9\u6240","boring_xml_url":40,"boring_view_url":1,"soilmap_view_url":null,"soiltest_xml_url":0,"soiltest_view_url":0},{"id":144877,"code":"B4KJ201801003-3126","latitude":"40.53722","longitude":"141.45503","source_code":"TH60416346005","project_name":"","survey_name":"\u662d\u548c53\u5e74\u5ea6\u516b\u6238\u5317\u30d0\u30a4\u30d1\u30b9\u9ad8\u8218\u8de8\u9053\u6a4b\u5730\u76e4\u8abf\u67fb","client_name":"\u56fd\u571f\u4ea4\u901a\u7701\u6771\u5317\u5730\u65b9\u6574\u5099\u5c40\u9752\u68ee\u6cb3\u5ddd\u56fd\u9053\u4e8b\u52d9\u6240","boring_xml_url":40,"boring_view_url":1,"soilmap_view_url":null,"soiltest_xml_url":0,"soiltest_view_url":0},{"id":144876,"code":"B4KJ201801003-3125","latitude":"40.54192","longitude":"141.44789","source_code":"TH60416346004","project_name":"","survey_name":"\u516b\u6238\u5317\u30d0\u30a4\u30d1\u30b9\u5730\u76e4\u8abf\u67fb","client_name":"\u56fd\u571f\u4ea4\u901a\u7701\u6771\u5317\u5730\u65b9\u6574\u5099\u5c40\u9752\u68ee\u6cb3\u5ddd\u56fd\u9053\u4e8b\u52d9\u6240","boring_xml_url":40,"boring_view_url":1,"soilmap_view_url":null,"soiltest_xml_url":0,"soiltest_view_url":0},{"id":144875,"code":"B4KJ201801003-3124","latitude":"40.54214","longitude":"141.44847","source_code":"TH60416346003","project_name":"","survey_name":"\u516b\u6238\u5317\u30d0\u30a4\u30d1\u30b9\u5730\u76e4\u8abf\u67fb","client_name":"\u56fd\u571f\u4ea4\u901a\u7701\u6771\u5317\u5730\u65b9\u6574\u5099\u5c40\u9752\u68ee\u6cb3\u5ddd\u56fd\u9053\u4e8b\u52d9\u6240","boring_xml_url":40,"boring_view_url":1,"soilmap_view_url":null,"soiltest_xml_url":0,"soiltest_view_url":0},{"id":144874,"code":"B4KJ201801003-3123","latitude":"40.53189","longitude":"141.49014","source_code":"TH60416339006","project_name":"","survey_name":"\u4e00\u65e5\u5e02\u6a0b\u9580\u57fa\u790e\u5730\u76e4\u8abf\u67fb","client_name":"\u56fd\u571f\u4ea4\u901a\u7701\u6771\u5317\u5730\u65b9\u6574\u5099\u5c40\u9752\u68ee\u6cb3\u5ddd\u56fd\u9053\u4e8b\u52d9\u6240","boring_xml_url":40,"boring_view_url":1,"soilmap_view_url":null,"soiltest_xml_url":0,"soiltest_view_url":0},{"id":144873,"code":"B4KJ201801003-3122","latitude":"40.53447","longitude":"141.49361","source_code":"TH60416339005","project_name":"","survey_name":"\u99ac\u6e15\u5ddd\u65e7\u5ddd\u6d44\u5316\u65bd\u8a2d\u5730\u8cea\u8abf\u67fb","client_name":"\u56fd\u571f\u4ea4\u901a\u7701\u6771\u5317\u5730\u65b9\u6574\u5099\u5c40\u9752\u68ee\u6cb3\u5ddd\u56fd\u9053\u4e8b\u52d9\u6240","boring_xml_url":40,"boring_view_url":1,"soilmap_view_url":null,"soiltest_xml_url":0,"soiltest_view_url":0},{"id":144872,"code":"B4KJ201801003-3121","latitude":"40.533","longitude":"141.49444","source_code":"TH60416339003","project_name":"","survey_name":"\u99ac\u6e15\u5ddd\u65e7\u5ddd\u6d44\u5316\u65bd\u8a2d\u5730\u8cea\u8abf\u67fb","client_name":"\u56fd\u571f\u4ea4\u901a\u7701\u6771\u5317\u5730\u65b9\u6574\u5099\u5c40\u9752\u68ee\u6cb3\u5ddd\u56fd\u9053\u4e8b\u52d9\u6240","boring_xml_url":40,"boring_view_url":1,"soilmap_view_url":null,"soiltest_xml_url":0,"soiltest_view_url":0},{"id":144871,"code":"B4KJ201801003-3120","latitude":"40.53133","longitude":"141.48836","source_code":"TH60416339002","project_name":"","survey_name":"\u99ac\u6df5\u5ddd\u6f6e\u6b62\u5830\u5730\u8cea\u8abf\u67fb","client_name":"\u56fd\u571f\u4ea4\u901a\u7701\u6771\u5317\u5730\u65b9\u6574\u5099\u5c40\u9752\u68ee\u6cb3\u5ddd\u56fd\u9053\u4e8b\u52d9\u6240","boring_xml_url":40,"boring_view_url":1,"soilmap_view_url":null,"soiltest_xml_url":0,"soiltest_view_url":0},{"id":144870,"code":"B4KJ201801003-3119","latitude":"40.52806","longitude":"141.48522","source_code":"TH60416339001","project_name":"","survey_name":"\u99ac\u6df5\u5ddd\u6f6e\u6b62\u5830\u5730\u8cea\u8abf\u67fb","client_name":"\u56fd\u571f\u4ea4\u901a\u7701\u6771\u5317\u5730\u65b9\u6574\u5099\u5c40\u9752\u68ee\u6cb3\u5ddd\u56fd\u9053\u4e8b\u52d9\u6240","boring_xml_url":40,"boring_view_url":1,"soilmap_view_url":null,"soiltest_xml_url":0,"soiltest_view_url":0},{"id":144869,"code":"B4KJ201801003-3118","latitude":"40.53342","longitude":"141.45994","source_code":"TH60416337007","project_name":"","survey_name":"\u516b\u6238\u5317\u30d0\u30a4\u30d1\u30b9\u5730\u76e4\u8abf\u67fb(\u305d\u306e1)","client_name":"\u56fd\u571f\u4ea4\u901a\u7701\u6771\u5317\u5730\u65b9\u6574\u5099\u5c40\u9752\u68ee\u6cb3\u5ddd\u56fd\u9053\u4e8b\u52d9\u6240","boring_xml_url":40,"boring_view_url":1,"soilmap_view_url":null,"soiltest_xml_url":0,"soiltest_view_url":0},{"id":144868,"code":"B4KJ201801003-3117","latitude":"40.53242","longitude":"141.46081","source_code":"TH60416337006","project_name":"","survey_name":"\u516b\u6238\u5317\u30d0\u30a4\u30d1\u30b9\u5730\u76e4\u8abf\u67fb(\u305d\u306e1)","client_name":"\u56fd\u571f\u4ea4\u901a\u7701\u6771\u5317\u5730\u65b9\u6574\u5099\u5c40\u9752\u68ee\u6cb3\u5ddd\u56fd\u9053\u4e8b\u52d9\u6240","boring_xml_url":40,"boring_view_url":1,"soilmap_view_url":null,"soiltest_xml_url":0,"soiltest_view_url":0},{"id":144867,"code":"B4KJ201801003-3116","latitude":"40.53203","longitude":"141.46078","source_code":"TH60416337005","project_name":"","survey_name":"\u516b\u6238\u5317\u30d0\u30a4\u30d1\u30b9\u5730\u76e4\u8abf\u67fb(\u305d\u306e1)","client_name":"\u56fd\u571f\u4ea4\u901a\u7701\u6771\u5317\u5730\u65b9\u6574\u5099\u5c40\u9752\u68ee\u6cb3\u5ddd\u56fd\u9053\u4e8b\u52d9\u6240","boring_xml_url":40,"boring_view_url":1,"soilmap_view_url":null,"soiltest_xml_url":0,"soiltest_view_url":0},{"id":144866,"code":"B4KJ201801003-3115","latitude":"40.53356","longitude":"141.45917","source_code":"TH60416337003","project_name":"","survey_name":"\u662d\u548c63\u5e74\u5ea6\u9ad8\u9928\u5730\u533a\u5730\u76e4\u8abf\u67fb(\u9ad8\u9928\u5730\u533a)","client_name":"\u56fd\u571f\u4ea4\u901a\u7701\u6771\u5317\u5730\u65b9\u6574\u5099\u5c40\u9752\u68ee\u6cb3\u5ddd\u56fd\u9053\u4e8b\u52d9\u6240","boring_xml_url":40,"boring_view_url":1,"soilmap_view_url":null,"soiltest_xml_url":0,"soiltest_view_url":0}]}}