{"header":{"xyz":{"source":[],"mosaic":false},"page":5867,"raw":{"soiltest_result":"0","bbox":"57.598333,109.544722,1.933333,163.806111","page":"5867"},"conditions":{"soiltest_result":0,"north":57.598333,"west":109.544722,"south":1.933333,"east":163.806111},"success":true,"message":""},"data":{"meta":{"total":212844,"page":5867,"pages":7095,"count":30},"values":[{"id":144565,"code":"B4KJ201801003-2814","latitude":"40.65242","longitude":"140.45989","source_code":"TH60407377002","project_name":"","survey_name":"\u5f8c\u9577\u6839\u5ddd\u5730\u533a\u95a2\u9023\u65bd\u8a2d\u8a2d\u8a08\u696d\u52d9\u59d4\u8a17","client_name":"\u56fd\u571f\u4ea4\u901a\u7701\u6771\u5317\u5730\u65b9\u6574\u5099\u5c40\u9752\u68ee\u6cb3\u5ddd\u56fd\u9053\u4e8b\u52d9\u6240","boring_xml_url":40,"boring_view_url":1,"soilmap_view_url":null,"soiltest_xml_url":0,"soiltest_view_url":0},{"id":144564,"code":"B4KJ201801003-2813","latitude":"40.65161","longitude":"140.46064","source_code":"TH60407377001","project_name":"","survey_name":"\u5f8c\u9577\u6839\u5ddd\u5730\u533a\u95a2\u9023\u65bd\u8a2d\u8a2d\u8a08\u696d\u52d9\u59d4\u8a17","client_name":"\u56fd\u571f\u4ea4\u901a\u7701\u6771\u5317\u5730\u65b9\u6574\u5099\u5c40\u9752\u68ee\u6cb3\u5ddd\u56fd\u9053\u4e8b\u52d9\u6240","boring_xml_url":40,"boring_view_url":1,"soilmap_view_url":null,"soiltest_xml_url":0,"soiltest_view_url":0},{"id":144563,"code":"B4KJ201801003-2812","latitude":"40.64919","longitude":"140.45547","source_code":"TH60407376001","project_name":"","survey_name":"\u5f8c\u9577\u6839\u5ddd\u69cb\u9020\u7269\u5b9f\u65bd\u8a2d\u8a08\u696d\u52d9\u59d4\u8a17","client_name":"\u56fd\u571f\u4ea4\u901a\u7701\u6771\u5317\u5730\u65b9\u6574\u5099\u5c40\u9752\u68ee\u6cb3\u5ddd\u56fd\u9053\u4e8b\u52d9\u6240","boring_xml_url":40,"boring_view_url":1,"soilmap_view_url":null,"soiltest_xml_url":0,"soiltest_view_url":0},{"id":144562,"code":"B4KJ201801003-2811","latitude":"40.64258","longitude":"140.4915","source_code":"TH60407369002","project_name":"","survey_name":"\u5e73\u62102\u5e74\u5ea6\u5f18\u524d\u3001\u6d6a\u5ca1\u5730\u533a\u5730\u76e4\u8abf\u67fb","client_name":"\u56fd\u571f\u4ea4\u901a\u7701\u6771\u5317\u5730\u65b9\u6574\u5099\u5c40\u9752\u68ee\u6cb3\u5ddd\u56fd\u9053\u4e8b\u52d9\u6240","boring_xml_url":40,"boring_view_url":1,"soilmap_view_url":null,"soiltest_xml_url":0,"soiltest_view_url":0},{"id":144561,"code":"B4KJ201801003-2810","latitude":"40.64325","longitude":"140.49553","source_code":"TH60407369001","project_name":"","survey_name":"\u662d\u548c50\u5e74\u5ea6\u5e73\u5ddd\u5730\u533a\u57fa\u790e\u5730\u76e4\u8abf\u67fb","client_name":"\u56fd\u571f\u4ea4\u901a\u7701\u6771\u5317\u5730\u65b9\u6574\u5099\u5c40\u9752\u68ee\u6cb3\u5ddd\u56fd\u9053\u4e8b\u52d9\u6240","boring_xml_url":40,"boring_view_url":1,"soilmap_view_url":null,"soiltest_xml_url":0,"soiltest_view_url":0},{"id":144560,"code":"B4KJ201801003-2809","latitude":"40.63306","longitude":"140.48822","source_code":"TH60407359001","project_name":"","survey_name":"\u5e73\u62102\u5e74\u5ea6\u5f18\u524d\u3001\u6d6a\u5ca1\u5730\u533a\u5730\u76e4\u8abf\u67fb","client_name":"\u56fd\u571f\u4ea4\u901a\u7701\u6771\u5317\u5730\u65b9\u6574\u5099\u5c40\u9752\u68ee\u6cb3\u5ddd\u56fd\u9053\u4e8b\u52d9\u6240","boring_xml_url":40,"boring_view_url":1,"soilmap_view_url":null,"soiltest_xml_url":0,"soiltest_view_url":0},{"id":144559,"code":"B4KJ201801003-2808","latitude":"40.61844","longitude":"140.49333","source_code":"TH60407339004","project_name":"","survey_name":"\u662d\u548c62\u5e74\u5ea6\u5f18\u524d\u5730\u533a\u5730\u76e4\u8abf\u67fb","client_name":"\u56fd\u571f\u4ea4\u901a\u7701\u6771\u5317\u5730\u65b9\u6574\u5099\u5c40\u9752\u68ee\u6cb3\u5ddd\u56fd\u9053\u4e8b\u52d9\u6240","boring_xml_url":40,"boring_view_url":1,"soilmap_view_url":null,"soiltest_xml_url":0,"soiltest_view_url":0},{"id":144558,"code":"B4KJ201801003-2807","latitude":"40.61586","longitude":"140.49528","source_code":"TH60407339002","project_name":"","survey_name":"\u662d\u548c46\u5e74\u5ea6\u5e73\u5ddd\u9ad8\u7530\u9ad8\u5d0e\u5730\u533a\u5730\u76e4\u8abf\u67fb","client_name":"\u56fd\u571f\u4ea4\u901a\u7701\u6771\u5317\u5730\u65b9\u6574\u5099\u5c40\u9752\u68ee\u6cb3\u5ddd\u56fd\u9053\u4e8b\u52d9\u6240","boring_xml_url":40,"boring_view_url":1,"soilmap_view_url":null,"soiltest_xml_url":0,"soiltest_view_url":0},{"id":144557,"code":"B4KJ201801003-2806","latitude":"40.61883","longitude":"140.49233","source_code":"TH60407339001","project_name":"","survey_name":"\u662d\u548c46\u5e74\u5ea6\u5e73\u5ddd\u9ad8\u7530\u9ad8\u5d0e\u5730\u533a\u5730\u76e4\u8abf\u67fb","client_name":"\u56fd\u571f\u4ea4\u901a\u7701\u6771\u5317\u5730\u65b9\u6574\u5099\u5c40\u9752\u68ee\u6cb3\u5ddd\u56fd\u9053\u4e8b\u52d9\u6240","boring_xml_url":40,"boring_view_url":1,"soilmap_view_url":null,"soiltest_xml_url":0,"soiltest_view_url":0},{"id":144556,"code":"B4KJ201801003-2805","latitude":"40.60183","longitude":"140.46136","source_code":"TH60407317032","project_name":"","survey_name":"\u5e73\u62109\u5e74\u5ea6\u5f18\u524d\u8302\u68ee\u5730\u533a\u5730\u8cea\u8abf\u67fb\u696d\u52d9","client_name":"\u56fd\u571f\u4ea4\u901a\u7701\u6771\u5317\u5730\u65b9\u6574\u5099\u5c40\u9752\u68ee\u6cb3\u5ddd\u56fd\u9053\u4e8b\u52d9\u6240","boring_xml_url":40,"boring_view_url":1,"soilmap_view_url":null,"soiltest_xml_url":0,"soiltest_view_url":0},{"id":144555,"code":"B4KJ201801003-2804","latitude":"40.60214","longitude":"140.46072","source_code":"TH60407317031","project_name":"","survey_name":"\u5e73\u62109\u5e74\u5ea6\u5f18\u524d\u8302\u68ee\u5730\u533a\u5730\u8cea\u8abf\u67fb\u696d\u52d9","client_name":"\u56fd\u571f\u4ea4\u901a\u7701\u6771\u5317\u5730\u65b9\u6574\u5099\u5c40\u9752\u68ee\u6cb3\u5ddd\u56fd\u9053\u4e8b\u52d9\u6240","boring_xml_url":40,"boring_view_url":1,"soilmap_view_url":null,"soiltest_xml_url":0,"soiltest_view_url":0},{"id":144554,"code":"B4KJ201801003-2803","latitude":"40.59531","longitude":"140.36394","source_code":"TH60407219004","project_name":"","survey_name":"\u65b0\u56fd\u5409\u6a4b\u4ed6\u5730\u8cea\u8abf\u67fb\u696d\u52d9\u59d4\u8a17","client_name":"\u56fd\u571f\u4ea4\u901a\u7701\u6771\u5317\u5730\u65b9\u6574\u5099\u5c40\u6d25\u8efd\u30c0\u30e0\u5de5\u4e8b\u4e8b\u52d9\u6240","boring_xml_url":40,"boring_view_url":1,"soilmap_view_url":null,"soiltest_xml_url":0,"soiltest_view_url":0},{"id":144553,"code":"B4KJ201801003-2802","latitude":"40.59539","longitude":"140.36394","source_code":"TH60407219003","project_name":"","survey_name":"\u65b0\u56fd\u5409\u6a4b\u4ed6\u5730\u8cea\u8abf\u67fb\u696d\u52d9\u59d4\u8a17","client_name":"\u56fd\u571f\u4ea4\u901a\u7701\u6771\u5317\u5730\u65b9\u6574\u5099\u5c40\u6d25\u8efd\u30c0\u30e0\u5de5\u4e8b\u4e8b\u52d9\u6240","boring_xml_url":40,"boring_view_url":1,"soilmap_view_url":null,"soiltest_xml_url":0,"soiltest_view_url":0},{"id":144552,"code":"B4KJ201801003-2801","latitude":"40.59531","longitude":"140.36364","source_code":"TH60407219002","project_name":"","survey_name":"\u65b0\u56fd\u5409\u6a4b\u4ed6\u5730\u8cea\u8abf\u67fb\u696d\u52d9\u59d4\u8a17","client_name":"\u56fd\u571f\u4ea4\u901a\u7701\u6771\u5317\u5730\u65b9\u6574\u5099\u5c40\u6d25\u8efd\u30c0\u30e0\u5de5\u4e8b\u4e8b\u52d9\u6240","boring_xml_url":40,"boring_view_url":1,"soilmap_view_url":null,"soiltest_xml_url":0,"soiltest_view_url":0},{"id":144551,"code":"B4KJ201801003-2800","latitude":"40.59558","longitude":"140.36369","source_code":"TH60407219001","project_name":"","survey_name":"\u65b0\u56fd\u5409\u6a4b\u4ed6\u5730\u8cea\u8abf\u67fb\u696d\u52d9\u59d4\u8a17","client_name":"\u56fd\u571f\u4ea4\u901a\u7701\u6771\u5317\u5730\u65b9\u6574\u5099\u5c40\u6d25\u8efd\u30c0\u30e0\u5de5\u4e8b\u4e8b\u52d9\u6240","boring_xml_url":40,"boring_view_url":1,"soilmap_view_url":null,"soiltest_xml_url":0,"soiltest_view_url":0},{"id":144550,"code":"B4KJ201801003-2799","latitude":"40.59531","longitude":"140.35714","source_code":"TH60407218004","project_name":"","survey_name":"\u65b0\u56fd\u5409\u6a4b\u4ed6\u5730\u8cea\u8abf\u67fb\u696d\u52d9\u59d4\u8a17","client_name":"\u56fd\u571f\u4ea4\u901a\u7701\u6771\u5317\u5730\u65b9\u6574\u5099\u5c40\u6d25\u8efd\u30c0\u30e0\u5de5\u4e8b\u4e8b\u52d9\u6240","boring_xml_url":40,"boring_view_url":1,"soilmap_view_url":null,"soiltest_xml_url":0,"soiltest_view_url":0},{"id":144549,"code":"B4KJ201801003-2798","latitude":"40.59544","longitude":"140.35683","source_code":"TH60407218003","project_name":"","survey_name":"\u65b0\u56fd\u5409\u6a4b\u4ed6\u5730\u8cea\u8abf\u67fb\u696d\u52d9\u59d4\u8a17","client_name":"\u56fd\u571f\u4ea4\u901a\u7701\u6771\u5317\u5730\u65b9\u6574\u5099\u5c40\u6d25\u8efd\u30c0\u30e0\u5de5\u4e8b\u4e8b\u52d9\u6240","boring_xml_url":40,"boring_view_url":1,"soilmap_view_url":null,"soiltest_xml_url":0,"soiltest_view_url":0},{"id":144548,"code":"B4KJ201801003-2797","latitude":"40.59494","longitude":"140.35683","source_code":"TH60407218002","project_name":"","survey_name":"\u65b0\u56fd\u5409\u6a4b\u4ed6\u5730\u8cea\u8abf\u67fb\u696d\u52d9\u59d4\u8a17","client_name":"\u56fd\u571f\u4ea4\u901a\u7701\u6771\u5317\u5730\u65b9\u6574\u5099\u5c40\u6d25\u8efd\u30c0\u30e0\u5de5\u4e8b\u4e8b\u52d9\u6240","boring_xml_url":40,"boring_view_url":1,"soilmap_view_url":null,"soiltest_xml_url":0,"soiltest_view_url":0},{"id":144547,"code":"B4KJ201801003-2796","latitude":"40.59503","longitude":"140.35661","source_code":"TH60407218001","project_name":"","survey_name":"\u65b0\u56fd\u5409\u6a4b\u4ed6\u5730\u8cea\u8abf\u67fb\u696d\u52d9\u59d4\u8a17","client_name":"\u56fd\u571f\u4ea4\u901a\u7701\u6771\u5317\u5730\u65b9\u6574\u5099\u5c40\u6d25\u8efd\u30c0\u30e0\u5de5\u4e8b\u4e8b\u52d9\u6240","boring_xml_url":40,"boring_view_url":1,"soilmap_view_url":null,"soiltest_xml_url":0,"soiltest_view_url":0},{"id":144546,"code":"B4KJ201801003-2795","latitude":"40.59097","longitude":"140.34603","source_code":"TH60407207004","project_name":"","survey_name":"\u65b0\u56fd\u5409\u6a4b\u4ed6\u5730\u8cea\u8abf\u67fb\u696d\u52d9\u59d4\u8a17","client_name":"\u56fd\u571f\u4ea4\u901a\u7701\u6771\u5317\u5730\u65b9\u6574\u5099\u5c40\u6d25\u8efd\u30c0\u30e0\u5de5\u4e8b\u4e8b\u52d9\u6240","boring_xml_url":40,"boring_view_url":1,"soilmap_view_url":null,"soiltest_xml_url":0,"soiltest_view_url":0},{"id":144545,"code":"B4KJ201801003-2794","latitude":"40.59119","longitude":"140.34578","source_code":"TH60407207003","project_name":"","survey_name":"\u65b0\u56fd\u5409\u6a4b\u4ed6\u5730\u8cea\u8abf\u67fb\u696d\u52d9\u59d4\u8a17","client_name":"\u56fd\u571f\u4ea4\u901a\u7701\u6771\u5317\u5730\u65b9\u6574\u5099\u5c40\u6d25\u8efd\u30c0\u30e0\u5de5\u4e8b\u4e8b\u52d9\u6240","boring_xml_url":40,"boring_view_url":1,"soilmap_view_url":null,"soiltest_xml_url":0,"soiltest_view_url":0},{"id":144544,"code":"B4KJ201801003-2793","latitude":"40.59075","longitude":"140.34556","source_code":"TH60407207002","project_name":"","survey_name":"\u65b0\u56fd\u5409\u6a4b\u4ed6\u5730\u8cea\u8abf\u67fb\u696d\u52d9\u59d4\u8a17","client_name":"\u56fd\u571f\u4ea4\u901a\u7701\u6771\u5317\u5730\u65b9\u6574\u5099\u5c40\u6d25\u8efd\u30c0\u30e0\u5de5\u4e8b\u4e8b\u52d9\u6240","boring_xml_url":40,"boring_view_url":1,"soilmap_view_url":null,"soiltest_xml_url":0,"soiltest_view_url":0},{"id":144543,"code":"B4KJ201801003-2792","latitude":"40.59097","longitude":"140.34531","source_code":"TH60407207001","project_name":"","survey_name":"\u65b0\u56fd\u5409\u6a4b\u4ed6\u5730\u8cea\u8abf\u67fb\u696d\u52d9\u59d4\u8a17","client_name":"\u56fd\u571f\u4ea4\u901a\u7701\u6771\u5317\u5730\u65b9\u6574\u5099\u5c40\u6d25\u8efd\u30c0\u30e0\u5de5\u4e8b\u4e8b\u52d9\u6240","boring_xml_url":40,"boring_view_url":1,"soilmap_view_url":null,"soiltest_xml_url":0,"soiltest_view_url":0},{"id":144542,"code":"B4KJ201801003-2791","latitude":"40.57172","longitude":"140.52328","source_code":"TH60406482001","project_name":"","survey_name":"\u662d\u548c51\u5e74\u5ea6\u77f3\u5ddd\u30d0\u30a4\u30d1\u30b9\u6e2c\u91cf\u8a2d\u8a08\u696d\u52d9\u59d4\u8a17","client_name":"\u56fd\u571f\u4ea4\u901a\u7701\u6771\u5317\u5730\u65b9\u6574\u5099\u5c40\u9752\u68ee\u6cb3\u5ddd\u56fd\u9053\u4e8b\u52d9\u6240","boring_xml_url":40,"boring_view_url":1,"soilmap_view_url":null,"soiltest_xml_url":0,"soiltest_view_url":0},{"id":144541,"code":"B4KJ201801003-2790","latitude":"40.52997","longitude":"140.55347","source_code":"TH60406434002","project_name":"","survey_name":"\u662d\u548c58\u5e74\u5ea6\u5927\u9c10\u5c40\u6539\u5730\u76e4\u8abf\u67fb","client_name":"\u56fd\u571f\u4ea4\u901a\u7701\u6771\u5317\u5730\u65b9\u6574\u5099\u5c40\u9752\u68ee\u6cb3\u5ddd\u56fd\u9053\u4e8b\u52d9\u6240","boring_xml_url":40,"boring_view_url":1,"soilmap_view_url":null,"soiltest_xml_url":0,"soiltest_view_url":0},{"id":144540,"code":"B4KJ201801003-2789","latitude":"40.52883","longitude":"140.55403","source_code":"TH60406434001","project_name":"","survey_name":"\u662d\u548c58\u5e74\u5ea6\u5927\u9c10\u5c40\u6539\u5730\u76e4\u8abf\u67fb","client_name":"\u56fd\u571f\u4ea4\u901a\u7701\u6771\u5317\u5730\u65b9\u6574\u5099\u5c40\u9752\u68ee\u6cb3\u5ddd\u56fd\u9053\u4e8b\u52d9\u6240","boring_xml_url":40,"boring_view_url":1,"soilmap_view_url":null,"soiltest_xml_url":0,"soiltest_view_url":0},{"id":144539,"code":"B4KJ201801003-2788","latitude":"40.52492","longitude":"140.56064","source_code":"TH60406425021","project_name":"","survey_name":"\u5927\u9c10\u5730\u533a\u305d\u306e\u4ed6\u5730\u76e4\u8abf\u67fb","client_name":"\u56fd\u571f\u4ea4\u901a\u7701\u6771\u5317\u5730\u65b9\u6574\u5099\u5c40\u9752\u68ee\u6cb3\u5ddd\u56fd\u9053\u4e8b\u52d9\u6240","boring_xml_url":40,"boring_view_url":1,"soilmap_view_url":null,"soiltest_xml_url":0,"soiltest_view_url":0},{"id":144538,"code":"B4KJ201801003-2787","latitude":"40.52397","longitude":"140.56158","source_code":"TH60406425020","project_name":"","survey_name":"\u5e73\u62103\u5e74\u5ea6\u5927\u9c10\u5730\u533a\u5730\u76e4\u8abf\u67fb","client_name":"\u56fd\u571f\u4ea4\u901a\u7701\u6771\u5317\u5730\u65b9\u6574\u5099\u5c40\u9752\u68ee\u6cb3\u5ddd\u56fd\u9053\u4e8b\u52d9\u6240","boring_xml_url":40,"boring_view_url":1,"soilmap_view_url":null,"soiltest_xml_url":0,"soiltest_view_url":0},{"id":144537,"code":"B4KJ201801003-2786","latitude":"40.52547","longitude":"140.56397","source_code":"TH60406425019","project_name":"","survey_name":"\u5e73\u6210\u5143\u5e74\u5ea6\u5927\u9c10\u6539\u826f\u5730\u8cea\u8abf\u67fb","client_name":"\u56fd\u571f\u4ea4\u901a\u7701\u6771\u5317\u5730\u65b9\u6574\u5099\u5c40\u9752\u68ee\u6cb3\u5ddd\u56fd\u9053\u4e8b\u52d9\u6240","boring_xml_url":40,"boring_view_url":1,"soilmap_view_url":null,"soiltest_xml_url":0,"soiltest_view_url":0},{"id":144536,"code":"B4KJ201801003-2785","latitude":"40.52547","longitude":"140.56397","source_code":"TH60406425018","project_name":"","survey_name":"\u5e73\u6210\u5143\u5e74\u5ea6\u5927\u9c10\u6539\u826f\u5730\u8cea\u8abf\u67fb","client_name":"\u56fd\u571f\u4ea4\u901a\u7701\u6771\u5317\u5730\u65b9\u6574\u5099\u5c40\u9752\u68ee\u6cb3\u5ddd\u56fd\u9053\u4e8b\u52d9\u6240","boring_xml_url":40,"boring_view_url":1,"soilmap_view_url":null,"soiltest_xml_url":0,"soiltest_view_url":0}]}}