{"header":{"xyz":{"source":[],"mosaic":false},"page":5871,"raw":{"soiltest_result":"0","bbox":"57.598333,109.544722,1.933333,163.806111","page":"5871"},"conditions":{"soiltest_result":0,"north":57.598333,"west":109.544722,"south":1.933333,"east":163.806111},"success":true,"message":""},"data":{"meta":{"total":212844,"page":5871,"pages":7095,"count":30},"values":[{"id":144445,"code":"B4KJ201801003-2694","latitude":"40.27119","longitude":"140.44094","source_code":"TH60403325004","project_name":"","survey_name":"\u4e8c\u30c4\u4e95\u53ca\u3073\u65e9\u53e3\u5730\u533a\u5730\u76e4\u8abf\u67fb","client_name":"\u56fd\u571f\u4ea4\u901a\u7701\u6771\u5317\u5730\u65b9\u6574\u5099\u5c40\u80fd\u4ee3\u6cb3\u5ddd\u56fd\u9053\u4e8b\u52d9\u6240","boring_xml_url":40,"boring_view_url":1,"soilmap_view_url":null,"soiltest_xml_url":0,"soiltest_view_url":0},{"id":144444,"code":"B4KJ201801003-2693","latitude":"40.27053","longitude":"140.43817","source_code":"TH60403325001","project_name":"","survey_name":"\u4e8c\u30c4\u4e95\u53ca\u3073\u65e9\u53e3\u5730\u533a\u5730\u76e4\u8abf\u67fb","client_name":"\u56fd\u571f\u4ea4\u901a\u7701\u6771\u5317\u5730\u65b9\u6574\u5099\u5c40\u80fd\u4ee3\u6cb3\u5ddd\u56fd\u9053\u4e8b\u52d9\u6240","boring_xml_url":40,"boring_view_url":1,"soilmap_view_url":null,"soiltest_xml_url":0,"soiltest_view_url":0},{"id":144443,"code":"B4KJ201801003-2692","latitude":"40.26853","longitude":"140.44661","source_code":"TH60403316005","project_name":"","survey_name":"\u662d\u548c61\u5e74\u5ea6\u5916\u5ddd\u539f\u5730\u533a\u5730\u76e4\u8abf\u67fb","client_name":"\u56fd\u571f\u4ea4\u901a\u7701\u6771\u5317\u5730\u65b9\u6574\u5099\u5c40\u80fd\u4ee3\u6cb3\u5ddd\u56fd\u9053\u4e8b\u52d9\u6240","boring_xml_url":40,"boring_view_url":1,"soilmap_view_url":null,"soiltest_xml_url":0,"soiltest_view_url":0},{"id":144442,"code":"B4KJ201801003-2691","latitude":"40.26744","longitude":"140.44817","source_code":"TH60403316004","project_name":"","survey_name":"\u5916\u5ddd\u539f\u6a4b\u4e88\u5099\u8a2d\u8a08\u696d\u52d9\u59d4\u8a17(\u5730\u8cea\u8abf\u67fb)","client_name":"\u56fd\u571f\u4ea4\u901a\u7701\u6771\u5317\u5730\u65b9\u6574\u5099\u5c40\u80fd\u4ee3\u6cb3\u5ddd\u56fd\u9053\u4e8b\u52d9\u6240","boring_xml_url":40,"boring_view_url":1,"soilmap_view_url":null,"soiltest_xml_url":0,"soiltest_view_url":0},{"id":144441,"code":"B4KJ201801003-2690","latitude":"40.26744","longitude":"140.44817","source_code":"TH60403316003","project_name":"","survey_name":"\u5916\u5ddd\u539f\u6a4b\u4e88\u5099\u8a2d\u8a08\u696d\u52d9\u59d4\u8a17(\u5730\u8cea\u8abf\u67fb)","client_name":"\u56fd\u571f\u4ea4\u901a\u7701\u6771\u5317\u5730\u65b9\u6574\u5099\u5c40\u80fd\u4ee3\u6cb3\u5ddd\u56fd\u9053\u4e8b\u52d9\u6240","boring_xml_url":40,"boring_view_url":1,"soilmap_view_url":null,"soiltest_xml_url":0,"soiltest_view_url":0},{"id":144440,"code":"B4KJ201801003-2689","latitude":"40.22014","longitude":"140.64469","source_code":"TH60402561005","project_name":"","survey_name":"\u5927\u6edd\u6ca2\u5ddd\u6a4b\u5730\u76e4\u8abf\u67fb","client_name":"\u56fd\u571f\u4ea4\u901a\u7701\u6771\u5317\u5730\u65b9\u6574\u5099\u5c40\u80fd\u4ee3\u6cb3\u5ddd\u56fd\u9053\u4e8b\u52d9\u6240","boring_xml_url":40,"boring_view_url":1,"soilmap_view_url":null,"soiltest_xml_url":0,"soiltest_view_url":0},{"id":144439,"code":"B4KJ201801003-2688","latitude":"40.21989","longitude":"140.64344","source_code":"TH60402561003","project_name":"","survey_name":"\u5927\u6edd\u6ca2\u5ddd\u6a4b\u5730\u76e4\u8abf\u67fb","client_name":"\u56fd\u571f\u4ea4\u901a\u7701\u6771\u5317\u5730\u65b9\u6574\u5099\u5c40\u80fd\u4ee3\u6cb3\u5ddd\u56fd\u9053\u4e8b\u52d9\u6240","boring_xml_url":40,"boring_view_url":1,"soilmap_view_url":null,"soiltest_xml_url":0,"soiltest_view_url":0},{"id":144438,"code":"B4KJ201801003-2687","latitude":"40.22014","longitude":"140.6435","source_code":"TH60402561002","project_name":"","survey_name":"\u5927\u6edd\u6ca2\u5ddd\u6a4b\u5730\u76e4\u8abf\u67fb","client_name":"\u56fd\u571f\u4ea4\u901a\u7701\u6771\u5317\u5730\u65b9\u6574\u5099\u5c40\u80fd\u4ee3\u6cb3\u5ddd\u56fd\u9053\u4e8b\u52d9\u6240","boring_xml_url":40,"boring_view_url":1,"soilmap_view_url":null,"soiltest_xml_url":0,"soiltest_view_url":0},{"id":144437,"code":"B4KJ201801003-2686","latitude":"40.22014","longitude":"140.64319","source_code":"TH60402561001","project_name":"","survey_name":"\u5927\u6edd\u6ca2\u5ddd\u6a4b\u5730\u76e4\u8abf\u67fb","client_name":"\u56fd\u571f\u4ea4\u901a\u7701\u6771\u5317\u5730\u65b9\u6574\u5099\u5c40\u80fd\u4ee3\u6cb3\u5ddd\u56fd\u9053\u4e8b\u52d9\u6240","boring_xml_url":40,"boring_view_url":1,"soilmap_view_url":null,"soiltest_xml_url":0,"soiltest_view_url":0},{"id":144436,"code":"B4KJ201801003-2685","latitude":"40.23189","longitude":"140.39372","source_code":"TH60402371002","project_name":"","survey_name":"\u5e73\u6210\u5143\u5e74\u5ea6\u6469\u5f53\u6392\u6c34\u6a0b\u7ba1\u5b9f\u65bd\u8a2d\u8a08\u696d\u52d9\u59d4\u8a17","client_name":"\u56fd\u571f\u4ea4\u901a\u7701\u6771\u5317\u5730\u65b9\u6574\u5099\u5c40\u80fd\u4ee3\u6cb3\u5ddd\u56fd\u9053\u4e8b\u52d9\u6240","boring_xml_url":40,"boring_view_url":1,"soilmap_view_url":null,"soiltest_xml_url":0,"soiltest_view_url":0},{"id":144435,"code":"B4KJ201801003-2684","latitude":"40.23189","longitude":"140.39344","source_code":"TH60402371001","project_name":"","survey_name":"\u5e73\u6210\u5143\u5e74\u5ea6\u6469\u5f53\u6392\u6c34\u6a0b\u7ba1\u5b9f\u65bd\u8a2d\u8a08\u696d\u52d9\u59d4\u8a17","client_name":"\u56fd\u571f\u4ea4\u901a\u7701\u6771\u5317\u5730\u65b9\u6574\u5099\u5c40\u80fd\u4ee3\u6cb3\u5ddd\u56fd\u9053\u4e8b\u52d9\u6240","boring_xml_url":40,"boring_view_url":1,"soilmap_view_url":null,"soiltest_xml_url":0,"soiltest_view_url":0},{"id":144434,"code":"B4KJ201801003-2683","latitude":"40.21964","longitude":"140.25536","source_code":"TH60402260002","project_name":"","survey_name":"\u662d\u548c51\u5e74\u5ea6\u304d\u307f\u307e\u3061\u5742\u5730\u533a\u5730\u8cea\u8abf\u67fb\u89e3\u6790","client_name":"\u56fd\u571f\u4ea4\u901a\u7701\u6771\u5317\u5730\u65b9\u6574\u5099\u5c40\u80fd\u4ee3\u6cb3\u5ddd\u56fd\u9053\u4e8b\u52d9\u6240","boring_xml_url":40,"boring_view_url":1,"soilmap_view_url":null,"soiltest_xml_url":0,"soiltest_view_url":0},{"id":144433,"code":"B4KJ201801003-2682","latitude":"40.21847","longitude":"140.24817","source_code":"TH60402250033","project_name":"","survey_name":"\u4e8c\u30c4\u4e95\u8de8\u7dda\u6a4b\u5730\u76e4\u8abf\u67fb","client_name":"\u56fd\u571f\u4ea4\u901a\u7701\u6771\u5317\u5730\u65b9\u6574\u5099\u5c40\u80fd\u4ee3\u6cb3\u5ddd\u56fd\u9053\u4e8b\u52d9\u6240","boring_xml_url":40,"boring_view_url":1,"soilmap_view_url":null,"soiltest_xml_url":0,"soiltest_view_url":0},{"id":144432,"code":"B4KJ201801003-2681","latitude":"40.21847","longitude":"140.24725","source_code":"TH60402250032","project_name":"","survey_name":"\u4e8c\u30c4\u4e95\u8de8\u7dda\u6a4b\u5730\u76e4\u8abf\u67fb","client_name":"\u56fd\u571f\u4ea4\u901a\u7701\u6771\u5317\u5730\u65b9\u6574\u5099\u5c40\u80fd\u4ee3\u6cb3\u5ddd\u56fd\u9053\u4e8b\u52d9\u6240","boring_xml_url":40,"boring_view_url":1,"soilmap_view_url":null,"soiltest_xml_url":0,"soiltest_view_url":0},{"id":144431,"code":"B4KJ201801003-2680","latitude":"40.21794","longitude":"140.25389","source_code":"TH60402250031","project_name":"","survey_name":"\u662d\u548c52\u5e74\u5ea6\u304d\u307f\u307e\u3061\u5742\u5730\u533a\u5730\u8cea\u8abf\u67fb\u30fb\u89e3\u6790","client_name":"\u56fd\u571f\u4ea4\u901a\u7701\u6771\u5317\u5730\u65b9\u6574\u5099\u5c40\u80fd\u4ee3\u6cb3\u5ddd\u56fd\u9053\u4e8b\u52d9\u6240","boring_xml_url":40,"boring_view_url":1,"soilmap_view_url":null,"soiltest_xml_url":0,"soiltest_view_url":0},{"id":144430,"code":"B4KJ201801003-2679","latitude":"40.21817","longitude":"140.25522","source_code":"TH60402250028","project_name":"","survey_name":"\u662d\u548c51\u5e74\u5ea6\u304d\u307f\u307e\u3061\u5742\u5730\u533a\u5730\u8cea\u8abf\u67fb\u89e3\u6790","client_name":"\u56fd\u571f\u4ea4\u901a\u7701\u6771\u5317\u5730\u65b9\u6574\u5099\u5c40\u80fd\u4ee3\u6cb3\u5ddd\u56fd\u9053\u4e8b\u52d9\u6240","boring_xml_url":40,"boring_view_url":1,"soilmap_view_url":null,"soiltest_xml_url":0,"soiltest_view_url":0},{"id":144429,"code":"B4KJ201801003-2678","latitude":"40.21806","longitude":"140.25286","source_code":"TH60402250027","project_name":"","survey_name":"\u662d\u548c51\u5e74\u5ea6\u304d\u307f\u307e\u3061\u5742\u5730\u533a\u5730\u8cea\u8abf\u67fb\u89e3\u6790","client_name":"\u56fd\u571f\u4ea4\u901a\u7701\u6771\u5317\u5730\u65b9\u6574\u5099\u5c40\u80fd\u4ee3\u6cb3\u5ddd\u56fd\u9053\u4e8b\u52d9\u6240","boring_xml_url":40,"boring_view_url":1,"soilmap_view_url":null,"soiltest_xml_url":0,"soiltest_view_url":0},{"id":144428,"code":"B4KJ201801003-2677","latitude":"40.21853","longitude":"140.25286","source_code":"TH60402250026","project_name":"","survey_name":"\u662d\u548c51\u5e74\u5ea6\u304d\u307f\u307e\u3061\u5742\u5730\u533a\u5730\u8cea\u8abf\u67fb\u89e3\u6790","client_name":"\u56fd\u571f\u4ea4\u901a\u7701\u6771\u5317\u5730\u65b9\u6574\u5099\u5c40\u80fd\u4ee3\u6cb3\u5ddd\u56fd\u9053\u4e8b\u52d9\u6240","boring_xml_url":40,"boring_view_url":1,"soilmap_view_url":null,"soiltest_xml_url":0,"soiltest_view_url":0},{"id":144427,"code":"B4KJ201801003-2676","latitude":"40.21931","longitude":"140.25317","source_code":"TH60402250025","project_name":"","survey_name":"\u662d\u548c51\u5e74\u5ea6\u304d\u307f\u307e\u3061\u5742\u5730\u533a\u5730\u8cea\u8abf\u67fb\u89e3\u6790","client_name":"\u56fd\u571f\u4ea4\u901a\u7701\u6771\u5317\u5730\u65b9\u6574\u5099\u5c40\u80fd\u4ee3\u6cb3\u5ddd\u56fd\u9053\u4e8b\u52d9\u6240","boring_xml_url":40,"boring_view_url":1,"soilmap_view_url":null,"soiltest_xml_url":0,"soiltest_view_url":0},{"id":144426,"code":"B4KJ201801003-2675","latitude":"40.21908","longitude":"140.253","source_code":"TH60402250024","project_name":"","survey_name":"\u662d\u548c51\u5e74\u5ea6\u304d\u307f\u307e\u3061\u5742\u5730\u533a\u5730\u8cea\u8abf\u67fb\u89e3\u6790","client_name":"\u56fd\u571f\u4ea4\u901a\u7701\u6771\u5317\u5730\u65b9\u6574\u5099\u5c40\u80fd\u4ee3\u6cb3\u5ddd\u56fd\u9053\u4e8b\u52d9\u6240","boring_xml_url":40,"boring_view_url":1,"soilmap_view_url":null,"soiltest_xml_url":0,"soiltest_view_url":0},{"id":144425,"code":"B4KJ201801003-2674","latitude":"40.21886","longitude":"140.253","source_code":"TH60402250023","project_name":"","survey_name":"\u662d\u548c51\u5e74\u5ea6\u304d\u307f\u307e\u3061\u5742\u5730\u533a\u5730\u8cea\u8abf\u67fb\u89e3\u6790","client_name":"\u56fd\u571f\u4ea4\u901a\u7701\u6771\u5317\u5730\u65b9\u6574\u5099\u5c40\u80fd\u4ee3\u6cb3\u5ddd\u56fd\u9053\u4e8b\u52d9\u6240","boring_xml_url":40,"boring_view_url":1,"soilmap_view_url":null,"soiltest_xml_url":0,"soiltest_view_url":0},{"id":144424,"code":"B4KJ201801003-2673","latitude":"40.21817","longitude":"140.25522","source_code":"TH60402250022","project_name":"","survey_name":"\u662d\u548c51\u5e74\u5ea6\u304d\u307f\u307e\u3061\u5742\u5730\u533a\u5730\u8cea\u8abf\u67fb\u89e3\u6790","client_name":"\u56fd\u571f\u4ea4\u901a\u7701\u6771\u5317\u5730\u65b9\u6574\u5099\u5c40\u80fd\u4ee3\u6cb3\u5ddd\u56fd\u9053\u4e8b\u52d9\u6240","boring_xml_url":40,"boring_view_url":1,"soilmap_view_url":null,"soiltest_xml_url":0,"soiltest_view_url":0},{"id":144423,"code":"B4KJ201801003-2672","latitude":"40.21853","longitude":"140.25522","source_code":"TH60402250021","project_name":"","survey_name":"\u662d\u548c51\u5e74\u5ea6\u304d\u307f\u307e\u3061\u5742\u5730\u533a\u5730\u8cea\u8abf\u67fb\u89e3\u6790","client_name":"\u56fd\u571f\u4ea4\u901a\u7701\u6771\u5317\u5730\u65b9\u6574\u5099\u5c40\u80fd\u4ee3\u6cb3\u5ddd\u56fd\u9053\u4e8b\u52d9\u6240","boring_xml_url":40,"boring_view_url":1,"soilmap_view_url":null,"soiltest_xml_url":0,"soiltest_view_url":0},{"id":144422,"code":"B4KJ201801003-2671","latitude":"40.21931","longitude":"140.25536","source_code":"TH60402250020","project_name":"","survey_name":"\u662d\u548c51\u5e74\u5ea6\u304d\u307f\u307e\u3061\u5742\u5730\u533a\u5730\u8cea\u8abf\u67fb\u89e3\u6790","client_name":"\u56fd\u571f\u4ea4\u901a\u7701\u6771\u5317\u5730\u65b9\u6574\u5099\u5c40\u80fd\u4ee3\u6cb3\u5ddd\u56fd\u9053\u4e8b\u52d9\u6240","boring_xml_url":40,"boring_view_url":1,"soilmap_view_url":null,"soiltest_xml_url":0,"soiltest_view_url":0},{"id":144421,"code":"B4KJ201801003-2670","latitude":"40.21886","longitude":"140.25522","source_code":"TH60402250019","project_name":"","survey_name":"\u662d\u548c51\u5e74\u5ea6\u304d\u307f\u307e\u3061\u5742\u5730\u533a\u5730\u8cea\u8abf\u67fb\u89e3\u6790","client_name":"\u56fd\u571f\u4ea4\u901a\u7701\u6771\u5317\u5730\u65b9\u6574\u5099\u5c40\u80fd\u4ee3\u6cb3\u5ddd\u56fd\u9053\u4e8b\u52d9\u6240","boring_xml_url":40,"boring_view_url":1,"soilmap_view_url":null,"soiltest_xml_url":0,"soiltest_view_url":0},{"id":144420,"code":"B4KJ201801003-2669","latitude":"40.21908","longitude":"140.25522","source_code":"TH60402250018","project_name":"","survey_name":"\u662d\u548c51\u5e74\u5ea6\u304d\u307f\u307e\u3061\u5742\u5730\u533a\u5730\u8cea\u8abf\u67fb\u89e3\u6790","client_name":"\u56fd\u571f\u4ea4\u901a\u7701\u6771\u5317\u5730\u65b9\u6574\u5099\u5c40\u80fd\u4ee3\u6cb3\u5ddd\u56fd\u9053\u4e8b\u52d9\u6240","boring_xml_url":40,"boring_view_url":1,"soilmap_view_url":null,"soiltest_xml_url":0,"soiltest_view_url":0},{"id":144419,"code":"B4KJ201801003-2668","latitude":"40.21522","longitude":"140.25278","source_code":"TH60402250017","project_name":"","survey_name":"\u304d\u307f\u307e\u3061\u5742\u5730\u533a\u5730\u76e4\u8abf\u67fb","client_name":"\u56fd\u571f\u4ea4\u901a\u7701\u6771\u5317\u5730\u65b9\u6574\u5099\u5c40\u80fd\u4ee3\u6cb3\u5ddd\u56fd\u9053\u4e8b\u52d9\u6240","boring_xml_url":40,"boring_view_url":1,"soilmap_view_url":null,"soiltest_xml_url":0,"soiltest_view_url":0},{"id":144418,"code":"B4KJ201801003-2667","latitude":"40.21522","longitude":"140.25278","source_code":"TH60402250016","project_name":"","survey_name":"\u304d\u307f\u307e\u3061\u5742\u5730\u533a\u5730\u76e4\u8abf\u67fb","client_name":"\u56fd\u571f\u4ea4\u901a\u7701\u6771\u5317\u5730\u65b9\u6574\u5099\u5c40\u80fd\u4ee3\u6cb3\u5ddd\u56fd\u9053\u4e8b\u52d9\u6240","boring_xml_url":40,"boring_view_url":1,"soilmap_view_url":null,"soiltest_xml_url":0,"soiltest_view_url":0},{"id":144417,"code":"B4KJ201801003-2666","latitude":"40.21522","longitude":"140.25278","source_code":"TH60402250015","project_name":"","survey_name":"\u304d\u307f\u307e\u3061\u5742\u5730\u533a\u5730\u76e4\u8abf\u67fb","client_name":"\u56fd\u571f\u4ea4\u901a\u7701\u6771\u5317\u5730\u65b9\u6574\u5099\u5c40\u80fd\u4ee3\u6cb3\u5ddd\u56fd\u9053\u4e8b\u52d9\u6240","boring_xml_url":40,"boring_view_url":1,"soilmap_view_url":null,"soiltest_xml_url":0,"soiltest_view_url":0},{"id":144416,"code":"B4KJ201801003-2665","latitude":"40.21522","longitude":"140.25278","source_code":"TH60402250014","project_name":"","survey_name":"\u304d\u307f\u307e\u3061\u5742\u5730\u533a\u5730\u76e4\u8abf\u67fb","client_name":"\u56fd\u571f\u4ea4\u901a\u7701\u6771\u5317\u5730\u65b9\u6574\u5099\u5c40\u80fd\u4ee3\u6cb3\u5ddd\u56fd\u9053\u4e8b\u52d9\u6240","boring_xml_url":40,"boring_view_url":1,"soilmap_view_url":null,"soiltest_xml_url":0,"soiltest_view_url":0}]}}