{"header":{"xyz":{"source":[],"mosaic":false},"page":5876,"raw":{"soiltest_result":"0","bbox":"57.598333,109.544722,1.933333,163.806111","page":"5876"},"conditions":{"soiltest_result":0,"north":57.598333,"west":109.544722,"south":1.933333,"east":163.806111},"success":true,"message":""},"data":{"meta":{"total":212844,"page":5876,"pages":7095,"count":30},"values":[{"id":144295,"code":"B4KJ201801003-2544","latitude":"40.19867","longitude":"140.06433","source_code":"TH60402035002","project_name":"","survey_name":"\u5fdc\u6025\u5bfe\u7b56\u8a2d\u8a08\u696d\u52d9\u59d4\u8a17\u5730\u76e4\u8abf\u67fb","client_name":"\u56fd\u571f\u4ea4\u901a\u7701\u6771\u5317\u5730\u65b9\u6574\u5099\u5c40\u80fd\u4ee3\u6cb3\u5ddd\u56fd\u9053\u4e8b\u52d9\u6240","boring_xml_url":40,"boring_view_url":1,"soilmap_view_url":null,"soiltest_xml_url":0,"soiltest_view_url":0},{"id":144294,"code":"B4KJ201801003-2543","latitude":"40.19689","longitude":"140.05475","source_code":"TH60402034003","project_name":"","survey_name":"\u7c73\u4ee3\u5ddd\u74b0\u5883\u8abf\u67fb","client_name":"\u56fd\u571f\u4ea4\u901a\u7701\u6771\u5317\u5730\u65b9\u6574\u5099\u5c40\u80fd\u4ee3\u6cb3\u5ddd\u56fd\u9053\u4e8b\u52d9\u6240","boring_xml_url":40,"boring_view_url":1,"soilmap_view_url":null,"soiltest_xml_url":0,"soiltest_view_url":0},{"id":144293,"code":"B4KJ201801003-2542","latitude":"40.19711","longitude":"140.04772","source_code":"TH60402034002","project_name":"","survey_name":"\u7c73\u4ee3\u5ddd\u74b0\u5883\u8abf\u67fb","client_name":"\u56fd\u571f\u4ea4\u901a\u7701\u6771\u5317\u5730\u65b9\u6574\u5099\u5c40\u80fd\u4ee3\u6cb3\u5ddd\u56fd\u9053\u4e8b\u52d9\u6240","boring_xml_url":40,"boring_view_url":1,"soilmap_view_url":null,"soiltest_xml_url":0,"soiltest_view_url":0},{"id":144292,"code":"B4KJ201801003-2541","latitude":"40.19689","longitude":"140.04728","source_code":"TH60402034001","project_name":"","survey_name":"\u7c73\u4ee3\u5ddd\u74b0\u5883\u8abf\u67fb","client_name":"\u56fd\u571f\u4ea4\u901a\u7701\u6771\u5317\u5730\u65b9\u6574\u5099\u5c40\u80fd\u4ee3\u6cb3\u5ddd\u56fd\u9053\u4e8b\u52d9\u6240","boring_xml_url":40,"boring_view_url":1,"soilmap_view_url":null,"soiltest_xml_url":0,"soiltest_view_url":0},{"id":144291,"code":"B4KJ201801003-2540","latitude":"40.19339","longitude":"140.11631","source_code":"TH60402029003","project_name":"","survey_name":"\u5e73\u621011\u5e74\u5ea6\u99d2\u5f62\u5730\u533a\u5730\u76e4\u8abf\u67fb\u59d4\u8a17","client_name":"\u56fd\u571f\u4ea4\u901a\u7701\u6771\u5317\u5730\u65b9\u6574\u5099\u5c40\u80fd\u4ee3\u6cb3\u5ddd\u56fd\u9053\u4e8b\u52d9\u6240","boring_xml_url":40,"boring_view_url":1,"soilmap_view_url":null,"soiltest_xml_url":0,"soiltest_view_url":0},{"id":144290,"code":"B4KJ201801003-2539","latitude":"40.18764","longitude":"140.10006","source_code":"TH60402028014","project_name":"","survey_name":"\u5e73\u621011\u5e74\u5ea6\u6d45\u5185\u5730\u533a\u5730\u8cea\u8abf\u67fb","client_name":"\u56fd\u571f\u4ea4\u901a\u7701\u6771\u5317\u5730\u65b9\u6574\u5099\u5c40\u80fd\u4ee3\u6cb3\u5ddd\u56fd\u9053\u4e8b\u52d9\u6240","boring_xml_url":40,"boring_view_url":1,"soilmap_view_url":null,"soiltest_xml_url":0,"soiltest_view_url":0},{"id":144289,"code":"B4KJ201801003-2538","latitude":"40.18672","longitude":"140.09803","source_code":"TH60402028013","project_name":"","survey_name":"\u5e73\u621011\u5e74\u5ea6\u6d45\u5185\u5730\u533a\u5730\u8cea\u8abf\u67fb","client_name":"\u56fd\u571f\u4ea4\u901a\u7701\u6771\u5317\u5730\u65b9\u6574\u5099\u5c40\u80fd\u4ee3\u6cb3\u5ddd\u56fd\u9053\u4e8b\u52d9\u6240","boring_xml_url":40,"boring_view_url":1,"soilmap_view_url":null,"soiltest_xml_url":0,"soiltest_view_url":0},{"id":144288,"code":"B4KJ201801003-2537","latitude":"40.19167","longitude":"140.10761","source_code":"TH60402028012","project_name":"","survey_name":"\u5e73\u621011\u5e74\u5ea6\u99d2\u5f62\u5730\u533a\u5730\u76e4\u8abf\u67fb\u59d4\u8a17","client_name":"\u56fd\u571f\u4ea4\u901a\u7701\u6771\u5317\u5730\u65b9\u6574\u5099\u5c40\u80fd\u4ee3\u6cb3\u5ddd\u56fd\u9053\u4e8b\u52d9\u6240","boring_xml_url":40,"boring_view_url":1,"soilmap_view_url":null,"soiltest_xml_url":0,"soiltest_view_url":0},{"id":144287,"code":"B4KJ201801003-2536","latitude":"40.18817","longitude":"140.10083","source_code":"TH60402028011","project_name":"","survey_name":"\u5e73\u621011\u5e74\u5ea6 \u99d2\u5f62\u5730\u533a\u5730\u76e4\u8abf\u67fb\u59d4\u8a17","client_name":"\u56fd\u571f\u4ea4\u901a\u7701\u6771\u5317\u5730\u65b9\u6574\u5099\u5c40\u80fd\u4ee3\u6cb3\u5ddd\u56fd\u9053\u4e8b\u52d9\u6240","boring_xml_url":40,"boring_view_url":1,"soilmap_view_url":null,"soiltest_xml_url":0,"soiltest_view_url":0},{"id":144286,"code":"B4KJ201801003-2535","latitude":"40.19394","longitude":"140.09814","source_code":"TH60402028002","project_name":"","survey_name":"\u80fd\u4ee3\u7ba1\u5185\u76db\u571f\u7dca\u6025\u70b9\u691c","client_name":"\u56fd\u571f\u4ea4\u901a\u7701\u6771\u5317\u5730\u65b9\u6574\u5099\u5c40\u80fd\u4ee3\u6cb3\u5ddd\u56fd\u9053\u4e8b\u52d9\u6240","boring_xml_url":40,"boring_view_url":1,"soilmap_view_url":null,"soiltest_xml_url":0,"soiltest_view_url":0},{"id":144285,"code":"B4KJ201801003-2534","latitude":"40.19417","longitude":"140.09842","source_code":"TH60402028001","project_name":"","survey_name":"\u80fd\u4ee3\u7ba1\u5185\u76db\u571f\u7dca\u6025\u70b9\u691c","client_name":"\u56fd\u571f\u4ea4\u901a\u7701\u6771\u5317\u5730\u65b9\u6574\u5099\u5c40\u80fd\u4ee3\u6cb3\u5ddd\u56fd\u9053\u4e8b\u52d9\u6240","boring_xml_url":40,"boring_view_url":1,"soilmap_view_url":null,"soiltest_xml_url":0,"soiltest_view_url":0},{"id":144284,"code":"B4KJ201801003-2533","latitude":"40.19272","longitude":"140.04767","source_code":"TH60402024005","project_name":"","survey_name":"\u60aa\u571f\u5ddd\u5730\u76e4\u8abf\u67fb","client_name":"\u56fd\u571f\u4ea4\u901a\u7701\u6771\u5317\u5730\u65b9\u6574\u5099\u5c40\u80fd\u4ee3\u6cb3\u5ddd\u56fd\u9053\u4e8b\u52d9\u6240","boring_xml_url":40,"boring_view_url":1,"soilmap_view_url":null,"soiltest_xml_url":0,"soiltest_view_url":0},{"id":144283,"code":"B4KJ201801003-2532","latitude":"40.19272","longitude":"140.04767","source_code":"TH60402024004","project_name":"","survey_name":"\u60aa\u571f\u5ddd\u5730\u76e4\u8abf\u67fb","client_name":"\u56fd\u571f\u4ea4\u901a\u7701\u6771\u5317\u5730\u65b9\u6574\u5099\u5c40\u80fd\u4ee3\u6cb3\u5ddd\u56fd\u9053\u4e8b\u52d9\u6240","boring_xml_url":40,"boring_view_url":1,"soilmap_view_url":null,"soiltest_xml_url":0,"soiltest_view_url":0},{"id":144282,"code":"B4KJ201801003-2531","latitude":"40.19022","longitude":"140.04031","source_code":"TH60402023001","project_name":"","survey_name":"\u60aa\u571f\u5ddd\u6392\u6c34\u6a5f\u5834\u5b9f\u65bd\u8a2d\u8a08\u696d\u52d9\u59d4\u8a17","client_name":"\u56fd\u571f\u4ea4\u901a\u7701\u6771\u5317\u5730\u65b9\u6574\u5099\u5c40\u80fd\u4ee3\u6cb3\u5ddd\u56fd\u9053\u4e8b\u52d9\u6240","boring_xml_url":40,"boring_view_url":1,"soilmap_view_url":null,"soiltest_xml_url":0,"soiltest_view_url":0},{"id":144281,"code":"B4KJ201801003-2530","latitude":"40.18583","longitude":"140.09553","source_code":"TH60402017015","project_name":"","survey_name":"\u5e73\u621011\u5e74\u5ea6\u6d45\u5185\u5730\u533a\u5730\u8cea\u8abf\u67fb","client_name":"\u56fd\u571f\u4ea4\u901a\u7701\u6771\u5317\u5730\u65b9\u6574\u5099\u5c40\u80fd\u4ee3\u6cb3\u5ddd\u56fd\u9053\u4e8b\u52d9\u6240","boring_xml_url":40,"boring_view_url":1,"soilmap_view_url":null,"soiltest_xml_url":0,"soiltest_view_url":0},{"id":144280,"code":"B4KJ201801003-2529","latitude":"40.1855","longitude":"140.09433","source_code":"TH60402017013","project_name":"","survey_name":"\u5e73\u621011\u5e74\u5ea6\u6d45\u5185\u5730\u533a\u5730\u8cea\u8abf\u67fb","client_name":"\u56fd\u571f\u4ea4\u901a\u7701\u6771\u5317\u5730\u65b9\u6574\u5099\u5c40\u80fd\u4ee3\u6cb3\u5ddd\u56fd\u9053\u4e8b\u52d9\u6240","boring_xml_url":40,"boring_view_url":1,"soilmap_view_url":null,"soiltest_xml_url":0,"soiltest_view_url":0},{"id":144279,"code":"B4KJ201801003-2528","latitude":"40.18539","longitude":"140.09331","source_code":"TH60402017012","project_name":"","survey_name":"\u5e73\u621011\u5e74\u5ea6\u6d45\u5185\u5730\u533a\u5730\u8cea\u8abf\u67fb","client_name":"\u56fd\u571f\u4ea4\u901a\u7701\u6771\u5317\u5730\u65b9\u6574\u5099\u5c40\u80fd\u4ee3\u6cb3\u5ddd\u56fd\u9053\u4e8b\u52d9\u6240","boring_xml_url":40,"boring_view_url":1,"soilmap_view_url":null,"soiltest_xml_url":0,"soiltest_view_url":0},{"id":144278,"code":"B4KJ201801003-2527","latitude":"40.1855","longitude":"140.09103","source_code":"TH60402017011","project_name":"","survey_name":"\u5e73\u621011\u5e74\u5ea6 \u99d2\u5f62\u5730\u533a\u5730\u76e4\u8abf\u67fb\u59d4\u8a17","client_name":"\u56fd\u571f\u4ea4\u901a\u7701\u6771\u5317\u5730\u65b9\u6574\u5099\u5c40\u80fd\u4ee3\u6cb3\u5ddd\u56fd\u9053\u4e8b\u52d9\u6240","boring_xml_url":40,"boring_view_url":1,"soilmap_view_url":null,"soiltest_xml_url":0,"soiltest_view_url":0},{"id":144277,"code":"B4KJ201801003-2526","latitude":"40.18356","longitude":"140.07506","source_code":"TH60402016024","project_name":"","survey_name":"\u5e73\u621012\u5e74\u5ea6 \u9c04\u6e15\u5730\u533a\u9053\u8def\u8a73\u7d30\u8a2d\u8a08\u696d\u52d9","client_name":"\u56fd\u571f\u4ea4\u901a\u7701\u6771\u5317\u5730\u65b9\u6574\u5099\u5c40\u80fd\u4ee3\u6cb3\u5ddd\u56fd\u9053\u4e8b\u52d9\u6240","boring_xml_url":40,"boring_view_url":1,"soilmap_view_url":null,"soiltest_xml_url":0,"soiltest_view_url":0},{"id":144276,"code":"B4KJ201801003-2525","latitude":"40.18428","longitude":"140.07872","source_code":"TH60402016023","project_name":"","survey_name":"\u5e73\u621012\u5e74\u5ea6 \u9c04\u6e15\u5730\u533a\u9053\u8def\u8a73\u7d30\u8a2d\u8a08\u696d\u52d9","client_name":"\u56fd\u571f\u4ea4\u901a\u7701\u6771\u5317\u5730\u65b9\u6574\u5099\u5c40\u80fd\u4ee3\u6cb3\u5ddd\u56fd\u9053\u4e8b\u52d9\u6240","boring_xml_url":40,"boring_view_url":1,"soilmap_view_url":null,"soiltest_xml_url":0,"soiltest_view_url":0},{"id":144275,"code":"B4KJ201801003-2524","latitude":"40.18575","longitude":"140.077","source_code":"TH60402016022","project_name":"","survey_name":"\u5e73\u621012\u5e74\u5ea6 \u9c04\u6e15\u5730\u533a\u9053\u8def\u8a73\u7d30\u8a2d\u8a08\u696d\u52d9","client_name":"\u56fd\u571f\u4ea4\u901a\u7701\u6771\u5317\u5730\u65b9\u6574\u5099\u5c40\u80fd\u4ee3\u6cb3\u5ddd\u56fd\u9053\u4e8b\u52d9\u6240","boring_xml_url":40,"boring_view_url":1,"soilmap_view_url":null,"soiltest_xml_url":0,"soiltest_view_url":0},{"id":144274,"code":"B4KJ201801003-2523","latitude":"40.18294","longitude":"140.07925","source_code":"TH60402016021","project_name":"","survey_name":"\u5e73\u621012\u5e74\u5ea6 \u9c04\u6e15\u5730\u533a\u9053\u8def\u8a73\u7d30\u8a2d\u8a08\u696d\u52d9","client_name":"\u56fd\u571f\u4ea4\u901a\u7701\u6771\u5317\u5730\u65b9\u6574\u5099\u5c40\u80fd\u4ee3\u6cb3\u5ddd\u56fd\u9053\u4e8b\u52d9\u6240","boring_xml_url":40,"boring_view_url":1,"soilmap_view_url":null,"soiltest_xml_url":0,"soiltest_view_url":0},{"id":144273,"code":"B4KJ201801003-2522","latitude":"40.18317","longitude":"140.08014","source_code":"TH60402016020","project_name":"","survey_name":"\u5e73\u621012\u5e74\u5ea6 \u9c04\u6e15\u5730\u533a\u9053\u8def\u8a73\u7d30\u8a2d\u8a08\u696d\u52d9","client_name":"\u56fd\u571f\u4ea4\u901a\u7701\u6771\u5317\u5730\u65b9\u6574\u5099\u5c40\u80fd\u4ee3\u6cb3\u5ddd\u56fd\u9053\u4e8b\u52d9\u6240","boring_xml_url":40,"boring_view_url":1,"soilmap_view_url":null,"soiltest_xml_url":0,"soiltest_view_url":0},{"id":144272,"code":"B4KJ201801003-2521","latitude":"40.18397","longitude":"140.07869","source_code":"TH60402016019","project_name":"","survey_name":"\u5e73\u621012\u5e74\u5ea6 \u9c04\u6e15\u5730\u533a\u9053\u8def\u8a73\u7d30\u8a2d\u8a08\u696d\u52d9","client_name":"\u56fd\u571f\u4ea4\u901a\u7701\u6771\u5317\u5730\u65b9\u6574\u5099\u5c40\u80fd\u4ee3\u6cb3\u5ddd\u56fd\u9053\u4e8b\u52d9\u6240","boring_xml_url":40,"boring_view_url":1,"soilmap_view_url":null,"soiltest_xml_url":0,"soiltest_view_url":0},{"id":144271,"code":"B4KJ201801003-2520","latitude":"40.18386","longitude":"140.07717","source_code":"TH60402016018","project_name":"","survey_name":"\u5e73\u621012\u5e74\u5ea6 \u9c04\u6e15\u5730\u533a\u9053\u8def\u8a73\u7d30\u8a2d\u8a08\u696d\u52d9","client_name":"\u56fd\u571f\u4ea4\u901a\u7701\u6771\u5317\u5730\u65b9\u6574\u5099\u5c40\u80fd\u4ee3\u6cb3\u5ddd\u56fd\u9053\u4e8b\u52d9\u6240","boring_xml_url":40,"boring_view_url":1,"soilmap_view_url":null,"soiltest_xml_url":0,"soiltest_view_url":0},{"id":144270,"code":"B4KJ201801003-2519","latitude":"40.18369","longitude":"140.07594","source_code":"TH60402016017","project_name":"","survey_name":"\u5e73\u621012\u5e74\u5ea6 \u9c04\u6e15\u5730\u533a\u9053\u8def\u8a73\u7d30\u8a2d\u8a08\u696d\u52d9","client_name":"\u56fd\u571f\u4ea4\u901a\u7701\u6771\u5317\u5730\u65b9\u6574\u5099\u5c40\u80fd\u4ee3\u6cb3\u5ddd\u56fd\u9053\u4e8b\u52d9\u6240","boring_xml_url":40,"boring_view_url":1,"soilmap_view_url":null,"soiltest_xml_url":0,"soiltest_view_url":0},{"id":144269,"code":"B4KJ201801003-2518","latitude":"40.17803","longitude":"140.05914","source_code":"TH60402015002","project_name":"","survey_name":"\u5e73\u621012\u5e74\u5ea6\u9c04\u6e15\u5730\u533a\u5730\u8cea\u8abf\u67fb(\u305d\u306e1)\u696d\u52d9","client_name":"\u56fd\u571f\u4ea4\u901a\u7701\u6771\u5317\u5730\u65b9\u6574\u5099\u5c40\u80fd\u4ee3\u6cb3\u5ddd\u56fd\u9053\u4e8b\u52d9\u6240","boring_xml_url":40,"boring_view_url":1,"soilmap_view_url":null,"soiltest_xml_url":0,"soiltest_view_url":0},{"id":144268,"code":"B4KJ201801003-2517","latitude":"40.17828","longitude":"140.05886","source_code":"TH60402014004","project_name":"","survey_name":"\u5e73\u621012\u5e74\u5ea6\u9c04\u6e15\u5730\u533a\u5730\u8cea\u8abf\u67fb(\u305d\u306e1)\u696d\u52d9","client_name":"\u56fd\u571f\u4ea4\u901a\u7701\u6771\u5317\u5730\u65b9\u6574\u5099\u5c40\u80fd\u4ee3\u6cb3\u5ddd\u56fd\u9053\u4e8b\u52d9\u6240","boring_xml_url":40,"boring_view_url":1,"soilmap_view_url":null,"soiltest_xml_url":0,"soiltest_view_url":0},{"id":144267,"code":"B4KJ201801003-2516","latitude":"40.17772","longitude":"140.05878","source_code":"TH60402014003","project_name":"","survey_name":"\u5e73\u621012\u5e74\u5ea6\u9c04\u6e15\u5730\u533a\u5730\u8cea\u8abf\u67fb(\u305d\u306e1)\u696d\u52d9","client_name":"\u56fd\u571f\u4ea4\u901a\u7701\u6771\u5317\u5730\u65b9\u6574\u5099\u5c40\u80fd\u4ee3\u6cb3\u5ddd\u56fd\u9053\u4e8b\u52d9\u6240","boring_xml_url":40,"boring_view_url":1,"soilmap_view_url":null,"soiltest_xml_url":0,"soiltest_view_url":0},{"id":144266,"code":"B4KJ201801003-2515","latitude":"40.17775","longitude":"140.01128","source_code":"TH60402011001","project_name":"","survey_name":"\u80fd\u4ee3\u5357\u30d0\u30a4\u30d1\u30b9\u5730\u9707\u707d\u5bb3\u5730\u76e4\u8abf\u67fb","client_name":"\u56fd\u571f\u4ea4\u901a\u7701\u6771\u5317\u5730\u65b9\u6574\u5099\u5c40\u80fd\u4ee3\u6cb3\u5ddd\u56fd\u9053\u4e8b\u52d9\u6240","boring_xml_url":40,"boring_view_url":1,"soilmap_view_url":null,"soiltest_xml_url":0,"soiltest_view_url":0}]}}