{"header":{"xyz":{"source":[],"mosaic":false},"page":5884,"raw":{"soiltest_result":"0","bbox":"57.598333,109.544722,1.933333,163.806111","page":"5884"},"conditions":{"soiltest_result":0,"north":57.598333,"west":109.544722,"south":1.933333,"east":163.806111},"success":true,"message":""},"data":{"meta":{"total":212844,"page":5884,"pages":7095,"count":30},"values":[{"id":144055,"code":"B4KJ201801003-2304","latitude":"40.03744","longitude":"140.45167","source_code":"TH60400346003","project_name":"","survey_name":"\u5e73\u62105\u5e74\u5ea6\u6839\u68ee\u7530\u5730\u533a\u5730\u8cea\u8abf\u67fb","client_name":"\u56fd\u571f\u4ea4\u901a\u7701\u6771\u5317\u5730\u65b9\u6574\u5099\u5c40\u68ee\u5409\u5c71\u30c0\u30e0\u5de5\u4e8b\u4e8b\u52d9\u6240","boring_xml_url":40,"boring_view_url":1,"soilmap_view_url":null,"soiltest_xml_url":0,"soiltest_view_url":0},{"id":144054,"code":"B4KJ201801003-2303","latitude":"40.03744","longitude":"140.45142","source_code":"TH60400346002","project_name":"","survey_name":"\u5e73\u62105\u5e74\u5ea6\u6839\u68ee\u7530\u5730\u533a\u5730\u8cea\u8abf\u67fb","client_name":"\u56fd\u571f\u4ea4\u901a\u7701\u6771\u5317\u5730\u65b9\u6574\u5099\u5c40\u68ee\u5409\u5c71\u30c0\u30e0\u5de5\u4e8b\u4e8b\u52d9\u6240","boring_xml_url":40,"boring_view_url":1,"soilmap_view_url":null,"soiltest_xml_url":0,"soiltest_view_url":0},{"id":144053,"code":"B4KJ201801003-2302","latitude":"40.03753","longitude":"140.45108","source_code":"TH60400346001","project_name":"","survey_name":"\u5e73\u62105\u5e74\u5ea6\u6839\u68ee\u7530\u5730\u533a\u5730\u8cea\u8abf\u67fb","client_name":"\u56fd\u571f\u4ea4\u901a\u7701\u6771\u5317\u5730\u65b9\u6574\u5099\u5c40\u68ee\u5409\u5c71\u30c0\u30e0\u5de5\u4e8b\u4e8b\u52d9\u6240","boring_xml_url":40,"boring_view_url":1,"soilmap_view_url":null,"soiltest_xml_url":0,"soiltest_view_url":0},{"id":144052,"code":"B4KJ201801003-2301","latitude":"40.0345","longitude":"140.46906","source_code":"TH60400337001","project_name":"","survey_name":"\u68ee\u5409\u5c71\u30c0\u30e0\u4ed8\u66ff\u6797\u9053\u5730\u8cea\u8abf\u67fb(\u305d\u306e2)","client_name":"\u56fd\u571f\u4ea4\u901a\u7701\u6771\u5317\u5730\u65b9\u6574\u5099\u5c40\u68ee\u5409\u5c71\u30c0\u30e0\u5de5\u4e8b\u4e8b\u52d9\u6240","boring_xml_url":40,"boring_view_url":1,"soilmap_view_url":null,"soiltest_xml_url":0,"soiltest_view_url":0},{"id":144051,"code":"B4KJ201801003-2300","latitude":"40.03297","longitude":"140.45119","source_code":"TH60400336001","project_name":"","survey_name":"\u5e73\u62105\u5e74\u5ea6\u4e0b\u6d41\u8fc2\u56de\u8def\u5730\u8cea\u8abf\u67fb","client_name":"\u56fd\u571f\u4ea4\u901a\u7701\u6771\u5317\u5730\u65b9\u6574\u5099\u5c40\u68ee\u5409\u5c71\u30c0\u30e0\u5de5\u4e8b\u4e8b\u52d9\u6240","boring_xml_url":40,"boring_view_url":1,"soilmap_view_url":null,"soiltest_xml_url":0,"soiltest_view_url":0},{"id":144050,"code":"B4KJ201801003-2299","latitude":"40.08325","longitude":"140.05981","source_code":"TH60400095009","project_name":"","survey_name":"\u6a2a\u6ca2\u5730\u533a\u5730\u8cea\u8abf\u67fb","client_name":"\u56fd\u571f\u4ea4\u901a\u7701\u6771\u5317\u5730\u65b9\u6574\u5099\u5c40\u80fd\u4ee3\u6cb3\u5ddd\u56fd\u9053\u4e8b\u52d9\u6240","boring_xml_url":40,"boring_view_url":1,"soilmap_view_url":null,"soiltest_xml_url":0,"soiltest_view_url":0},{"id":144049,"code":"B4KJ201801003-2298","latitude":"40.08258","longitude":"140.061","source_code":"TH60400095008","project_name":"","survey_name":"\u6a2a\u6ca2\u5730\u533a\u5730\u8cea\u8abf\u67fb","client_name":"\u56fd\u571f\u4ea4\u901a\u7701\u6771\u5317\u5730\u65b9\u6574\u5099\u5c40\u80fd\u4ee3\u6cb3\u5ddd\u56fd\u9053\u4e8b\u52d9\u6240","boring_xml_url":40,"boring_view_url":1,"soilmap_view_url":null,"soiltest_xml_url":0,"soiltest_view_url":0},{"id":144048,"code":"B4KJ201801003-2297","latitude":"40.08206","longitude":"140.06292","source_code":"TH60400095007","project_name":"","survey_name":"\u6a2a\u6ca2\u5730\u533a\u5730\u8cea\u8abf\u67fb","client_name":"\u56fd\u571f\u4ea4\u901a\u7701\u6771\u5317\u5730\u65b9\u6574\u5099\u5c40\u80fd\u4ee3\u6cb3\u5ddd\u56fd\u9053\u4e8b\u52d9\u6240","boring_xml_url":40,"boring_view_url":1,"soilmap_view_url":null,"soiltest_xml_url":0,"soiltest_view_url":0},{"id":144047,"code":"B4KJ201801003-2296","latitude":"40.0815","longitude":"140.06397","source_code":"TH60400095006","project_name":"","survey_name":"\u6a2a\u6ca2\u5730\u533a\u5730\u8cea\u8abf\u67fb","client_name":"\u56fd\u571f\u4ea4\u901a\u7701\u6771\u5317\u5730\u65b9\u6574\u5099\u5c40\u80fd\u4ee3\u6cb3\u5ddd\u56fd\u9053\u4e8b\u52d9\u6240","boring_xml_url":40,"boring_view_url":1,"soilmap_view_url":null,"soiltest_xml_url":0,"soiltest_view_url":0},{"id":144046,"code":"B4KJ201801003-2295","latitude":"40.08086","longitude":"140.06569","source_code":"TH60400095005","project_name":"","survey_name":"\u6a2a\u6ca2\u5730\u533a\u5730\u8cea\u8abf\u67fb","client_name":"\u56fd\u571f\u4ea4\u901a\u7701\u6771\u5317\u5730\u65b9\u6574\u5099\u5c40\u80fd\u4ee3\u6cb3\u5ddd\u56fd\u9053\u4e8b\u52d9\u6240","boring_xml_url":40,"boring_view_url":1,"soilmap_view_url":null,"soiltest_xml_url":0,"soiltest_view_url":0},{"id":144045,"code":"B4KJ201801003-2294","latitude":"40.07867","longitude":"140.06767","source_code":"TH60400095004","project_name":"","survey_name":"\u53e4\u9928\u5730\u533a\u5730\u8cea\u8abf\u67fb","client_name":"\u56fd\u571f\u4ea4\u901a\u7701\u6771\u5317\u5730\u65b9\u6574\u5099\u5c40\u80fd\u4ee3\u6cb3\u5ddd\u56fd\u9053\u4e8b\u52d9\u6240","boring_xml_url":40,"boring_view_url":1,"soilmap_view_url":null,"soiltest_xml_url":0,"soiltest_view_url":0},{"id":144044,"code":"B4KJ201801003-2293","latitude":"40.0785","longitude":"140.06819","source_code":"TH60400095003","project_name":"","survey_name":"\u53e4\u9928\u5730\u533a\u5730\u8cea\u8abf\u67fb","client_name":"\u56fd\u571f\u4ea4\u901a\u7701\u6771\u5317\u5730\u65b9\u6574\u5099\u5c40\u80fd\u4ee3\u6cb3\u5ddd\u56fd\u9053\u4e8b\u52d9\u6240","boring_xml_url":40,"boring_view_url":1,"soilmap_view_url":null,"soiltest_xml_url":0,"soiltest_view_url":0},{"id":144043,"code":"B4KJ201801003-2292","latitude":"40.07828","longitude":"140.0685","source_code":"TH60400095002","project_name":"","survey_name":"\u53e4\u9928\u5730\u533a\u5730\u8cea\u8abf\u67fb","client_name":"\u56fd\u571f\u4ea4\u901a\u7701\u6771\u5317\u5730\u65b9\u6574\u5099\u5c40\u80fd\u4ee3\u6cb3\u5ddd\u56fd\u9053\u4e8b\u52d9\u6240","boring_xml_url":40,"boring_view_url":1,"soilmap_view_url":null,"soiltest_xml_url":0,"soiltest_view_url":0},{"id":144042,"code":"B4KJ201801003-2291","latitude":"40.08219","longitude":"140.06211","source_code":"TH60400095001","project_name":"","survey_name":"\u7434\u4e18\u80fd\u4ee3\u9053\u8def\u5730\u76e4\u8abf\u67fb","client_name":"\u56fd\u571f\u4ea4\u901a\u7701\u6771\u5317\u5730\u65b9\u6574\u5099\u5c40\u80fd\u4ee3\u6cb3\u5ddd\u56fd\u9053\u4e8b\u52d9\u6240","boring_xml_url":40,"boring_view_url":1,"soilmap_view_url":null,"soiltest_xml_url":0,"soiltest_view_url":0},{"id":144041,"code":"B4KJ201801003-2290","latitude":"40.08572","longitude":"140.05564","source_code":"TH60400094002","project_name":"","survey_name":"\u6a2a\u6ca2\u5730\u533a\u5730\u8cea\u8abf\u67fb","client_name":"\u56fd\u571f\u4ea4\u901a\u7701\u6771\u5317\u5730\u65b9\u6574\u5099\u5c40\u80fd\u4ee3\u6cb3\u5ddd\u56fd\u9053\u4e8b\u52d9\u6240","boring_xml_url":40,"boring_view_url":1,"soilmap_view_url":null,"soiltest_xml_url":0,"soiltest_view_url":0},{"id":144040,"code":"B4KJ201801003-2289","latitude":"40.08517","longitude":"140.05667","source_code":"TH60400094001","project_name":"","survey_name":"\u6a2a\u6ca2\u5730\u533a\u5730\u8cea\u8abf\u67fb","client_name":"\u56fd\u571f\u4ea4\u901a\u7701\u6771\u5317\u5730\u65b9\u6574\u5099\u5c40\u80fd\u4ee3\u6cb3\u5ddd\u56fd\u9053\u4e8b\u52d9\u6240","boring_xml_url":40,"boring_view_url":1,"soilmap_view_url":null,"soiltest_xml_url":0,"soiltest_view_url":0},{"id":144039,"code":"B4KJ201801003-2288","latitude":"40.07694","longitude":"140.07172","source_code":"TH60400086003","project_name":"","survey_name":"\u53e4\u9928\u5730\u533a\u5730\u8cea\u8abf\u67fb","client_name":"\u56fd\u571f\u4ea4\u901a\u7701\u6771\u5317\u5730\u65b9\u6574\u5099\u5c40\u80fd\u4ee3\u6cb3\u5ddd\u56fd\u9053\u4e8b\u52d9\u6240","boring_xml_url":40,"boring_view_url":1,"soilmap_view_url":null,"soiltest_xml_url":0,"soiltest_view_url":0},{"id":144038,"code":"B4KJ201801003-2287","latitude":"40.0745","longitude":"140.07767","source_code":"TH60400086002","project_name":"","survey_name":"\u7434\u4e18\u80fd\u4ee3\u9053\u8def\u5730\u76e4\u8abf\u67fb","client_name":"\u56fd\u571f\u4ea4\u901a\u7701\u6771\u5317\u5730\u65b9\u6574\u5099\u5c40\u80fd\u4ee3\u6cb3\u5ddd\u56fd\u9053\u4e8b\u52d9\u6240","boring_xml_url":40,"boring_view_url":1,"soilmap_view_url":null,"soiltest_xml_url":0,"soiltest_view_url":0},{"id":144037,"code":"B4KJ201801003-2286","latitude":"40.07078","longitude":"140.08211","source_code":"TH60400086001","project_name":"","survey_name":"\u7434\u4e18\u80fd\u4ee3\u9053\u8def\u5730\u76e4\u8abf\u67fb","client_name":"\u56fd\u571f\u4ea4\u901a\u7701\u6771\u5317\u5730\u65b9\u6574\u5099\u5c40\u80fd\u4ee3\u6cb3\u5ddd\u56fd\u9053\u4e8b\u52d9\u6240","boring_xml_url":40,"boring_view_url":1,"soilmap_view_url":null,"soiltest_xml_url":0,"soiltest_view_url":0},{"id":144036,"code":"B4KJ201801003-2285","latitude":"40.07658","longitude":"140.07111","source_code":"TH60400085002","project_name":"","survey_name":"\u7434\u4e18\u80fd\u4ee3\u9053\u8def\u5730\u76e4\u8abf\u67fb\u696d\u52d9\u59d4\u8a17","client_name":"\u56fd\u571f\u4ea4\u901a\u7701\u6771\u5317\u5730\u65b9\u6574\u5099\u5c40\u80fd\u4ee3\u6cb3\u5ddd\u56fd\u9053\u4e8b\u52d9\u6240","boring_xml_url":40,"boring_view_url":1,"soilmap_view_url":null,"soiltest_xml_url":0,"soiltest_view_url":0},{"id":144035,"code":"B4KJ201801003-2284","latitude":"40.07683","longitude":"140.07083","source_code":"TH60400085001","project_name":"","survey_name":"\u7434\u4e18\u80fd\u4ee3\u9053\u8def\u5730\u76e4\u8abf\u67fb\u696d\u52d9\u59d4\u8a17","client_name":"\u56fd\u571f\u4ea4\u901a\u7701\u6771\u5317\u5730\u65b9\u6574\u5099\u5c40\u80fd\u4ee3\u6cb3\u5ddd\u56fd\u9053\u4e8b\u52d9\u6240","boring_xml_url":40,"boring_view_url":1,"soilmap_view_url":null,"soiltest_xml_url":0,"soiltest_view_url":0},{"id":144034,"code":"B4KJ201801003-2283","latitude":"40.06794","longitude":"140.08478","source_code":"TH60400077001","project_name":"","survey_name":"\u6cc9\u6ca2\u5730\u533a\u5730\u8cea\u8abf\u67fb","client_name":"\u56fd\u571f\u4ea4\u901a\u7701\u6771\u5317\u5730\u65b9\u6574\u5099\u5c40\u80fd\u4ee3\u6cb3\u5ddd\u56fd\u9053\u4e8b\u52d9\u6240","boring_xml_url":40,"boring_view_url":1,"soilmap_view_url":null,"soiltest_xml_url":0,"soiltest_view_url":0},{"id":144033,"code":"B4KJ201801003-2282","latitude":"40.05692","longitude":"140.09108","source_code":"TH60400067002","project_name":"","survey_name":"\u9928\u6751\u5730\u533a\u5730\u8cea\u8abf\u67fb","client_name":"\u56fd\u571f\u4ea4\u901a\u7701\u6771\u5317\u5730\u65b9\u6574\u5099\u5c40\u80fd\u4ee3\u6cb3\u5ddd\u56fd\u9053\u4e8b\u52d9\u6240","boring_xml_url":40,"boring_view_url":1,"soilmap_view_url":null,"soiltest_xml_url":0,"soiltest_view_url":0},{"id":144032,"code":"B4KJ201801003-2281","latitude":"40.05411","longitude":"140.09072","source_code":"TH60400067001","project_name":"","survey_name":"\u7434\u4e18\u80fd\u4ee3\u9053\u8def\u5730\u76e4\u8abf\u67fb","client_name":"\u56fd\u571f\u4ea4\u901a\u7701\u6771\u5317\u5730\u65b9\u6574\u5099\u5c40\u80fd\u4ee3\u6cb3\u5ddd\u56fd\u9053\u4e8b\u52d9\u6240","boring_xml_url":40,"boring_view_url":1,"soilmap_view_url":null,"soiltest_xml_url":0,"soiltest_view_url":0},{"id":144031,"code":"B4KJ201801003-2280","latitude":"40.05319","longitude":"140.07464","source_code":"TH60400066001","project_name":"","survey_name":"\u80fd\u4ee3\u5730\u533a\u9707\u707d\u5bfe\u7b56\u8abf\u67fb\u696d\u52d9","client_name":"\u56fd\u571f\u4ea4\u901a\u7701\u6771\u5317\u5730\u65b9\u6574\u5099\u5c40\u80fd\u4ee3\u6cb3\u5ddd\u56fd\u9053\u4e8b\u52d9\u6240","boring_xml_url":40,"boring_view_url":1,"soilmap_view_url":null,"soiltest_xml_url":0,"soiltest_view_url":0},{"id":144030,"code":"B4KJ201801003-2279","latitude":"40.0415","longitude":"140.09714","source_code":"TH60400048001","project_name":"","survey_name":"\u7434\u4e18\u80fd\u4ee3\u9053\u8def(\u7434\u4e18\u5730\u533a)\u571f\u53d6\u5834\u8abf\u67fb","client_name":"\u56fd\u571f\u4ea4\u901a\u7701\u6771\u5317\u5730\u65b9\u6574\u5099\u5c40\u80fd\u4ee3\u6cb3\u5ddd\u56fd\u9053\u4e8b\u52d9\u6240","boring_xml_url":40,"boring_view_url":1,"soilmap_view_url":null,"soiltest_xml_url":0,"soiltest_view_url":0},{"id":144029,"code":"B4KJ201801003-2278","latitude":"40.04192","longitude":"140.09006","source_code":"TH60400047007","project_name":"","survey_name":"\u9928\u6751\u5730\u533a\u5730\u8cea\u8abf\u67fb","client_name":"\u56fd\u571f\u4ea4\u901a\u7701\u6771\u5317\u5730\u65b9\u6574\u5099\u5c40\u80fd\u4ee3\u6cb3\u5ddd\u56fd\u9053\u4e8b\u52d9\u6240","boring_xml_url":40,"boring_view_url":1,"soilmap_view_url":null,"soiltest_xml_url":0,"soiltest_view_url":0},{"id":144028,"code":"B4KJ201801003-2277","latitude":"40.04103","longitude":"140.08986","source_code":"TH60400047006","project_name":"","survey_name":"\u9928\u6751\u5730\u533a\u5730\u8cea\u8abf\u67fb","client_name":"\u56fd\u571f\u4ea4\u901a\u7701\u6771\u5317\u5730\u65b9\u6574\u5099\u5c40\u80fd\u4ee3\u6cb3\u5ddd\u56fd\u9053\u4e8b\u52d9\u6240","boring_xml_url":40,"boring_view_url":1,"soilmap_view_url":null,"soiltest_xml_url":0,"soiltest_view_url":0},{"id":144027,"code":"B4KJ201801003-2276","latitude":"40.03908","longitude":"140.08958","source_code":"TH60400047005","project_name":"","survey_name":"\u9928\u6751\u5730\u533a\u5730\u8cea\u8abf\u67fb","client_name":"\u56fd\u571f\u4ea4\u901a\u7701\u6771\u5317\u5730\u65b9\u6574\u5099\u5c40\u80fd\u4ee3\u6cb3\u5ddd\u56fd\u9053\u4e8b\u52d9\u6240","boring_xml_url":40,"boring_view_url":1,"soilmap_view_url":null,"soiltest_xml_url":0,"soiltest_view_url":0},{"id":144026,"code":"B4KJ201801003-2275","latitude":"40.03806","longitude":"140.08942","source_code":"TH60400047004","project_name":"","survey_name":"\u9928\u6751\u5730\u533a\u5730\u8cea\u8abf\u67fb","client_name":"\u56fd\u571f\u4ea4\u901a\u7701\u6771\u5317\u5730\u65b9\u6574\u5099\u5c40\u80fd\u4ee3\u6cb3\u5ddd\u56fd\u9053\u4e8b\u52d9\u6240","boring_xml_url":40,"boring_view_url":1,"soilmap_view_url":null,"soiltest_xml_url":0,"soiltest_view_url":0}]}}