{"header":{"xyz":{"source":[],"mosaic":false},"page":5892,"raw":{"soiltest_result":"0","bbox":"57.598333,109.544722,1.933333,163.806111","page":"5892"},"conditions":{"soiltest_result":0,"north":57.598333,"west":109.544722,"south":1.933333,"east":163.806111},"success":true,"message":""},"data":{"meta":{"total":212844,"page":5892,"pages":7095,"count":30},"values":[{"id":143815,"code":"B4KJ201801003-2064","latitude":"39.44611","longitude":"141.95714","source_code":"TH59411736002","project_name":"","survey_name":"\u662d\u548c63\u5e74\u5ea6\u5c71\u7530\u9053\u8def\u5730\u76e4\u8abf\u67fb(\u305d\u306e1)","client_name":"\u56fd\u571f\u4ea4\u901a\u7701\u6771\u5317\u5730\u65b9\u6574\u5099\u5c40\u4e09\u9678\u56fd\u9053\u4e8b\u52d9\u6240","boring_xml_url":40,"boring_view_url":1,"soilmap_view_url":null,"soiltest_xml_url":0,"soiltest_view_url":0},{"id":143814,"code":"B4KJ201801003-2063","latitude":"39.44578","longitude":"141.95753","source_code":"TH59411736001","project_name":"","survey_name":"\u662d\u548c63\u5e74\u5ea6\u5c71\u7530\u9053\u8def\u5730\u76e4\u8abf\u67fb(\u305d\u306e1)","client_name":"\u56fd\u571f\u4ea4\u901a\u7701\u6771\u5317\u5730\u65b9\u6574\u5099\u5c40\u4e09\u9678\u56fd\u9053\u4e8b\u52d9\u6240","boring_xml_url":40,"boring_view_url":1,"soilmap_view_url":null,"soiltest_xml_url":0,"soiltest_view_url":0},{"id":143813,"code":"B4KJ201801003-2062","latitude":"39.43717","longitude":"141.96675","source_code":"TH59411727001","project_name":"","survey_name":"\u662d\u548c63\u5e74\u5ea6\u5c71\u7530\u9053\u8def\u5730\u76e4\u8abf\u67fb(\u305d\u306e1)","client_name":"\u56fd\u571f\u4ea4\u901a\u7701\u6771\u5317\u5730\u65b9\u6574\u5099\u5c40\u4e09\u9678\u56fd\u9053\u4e8b\u52d9\u6240","boring_xml_url":40,"boring_view_url":1,"soilmap_view_url":null,"soiltest_xml_url":0,"soiltest_view_url":0},{"id":143812,"code":"B4KJ201801003-2061","latitude":"39.43231","longitude":"141.96906","source_code":"TH59411717004","project_name":"","survey_name":"\u662d\u548c63\u5e74\u5ea6\u5c71\u7530\u9053\u8def\u5730\u76e4\u8abf\u67fb(\u305d\u306e1)","client_name":"\u56fd\u571f\u4ea4\u901a\u7701\u6771\u5317\u5730\u65b9\u6574\u5099\u5c40\u4e09\u9678\u56fd\u9053\u4e8b\u52d9\u6240","boring_xml_url":40,"boring_view_url":1,"soilmap_view_url":null,"soiltest_xml_url":0,"soiltest_view_url":0},{"id":143811,"code":"B4KJ201801003-2060","latitude":"39.43417","longitude":"141.96853","source_code":"TH59411717003","project_name":"","survey_name":"\u662d\u548c63\u5e74\u5ea6\u5c71\u7530\u9053\u8def\u5730\u76e4\u8abf\u67fb(\u305d\u306e1)","client_name":"\u56fd\u571f\u4ea4\u901a\u7701\u6771\u5317\u5730\u65b9\u6574\u5099\u5c40\u4e09\u9678\u56fd\u9053\u4e8b\u52d9\u6240","boring_xml_url":40,"boring_view_url":1,"soilmap_view_url":null,"soiltest_xml_url":0,"soiltest_view_url":0},{"id":143810,"code":"B4KJ201801003-2059","latitude":"39.43306","longitude":"141.96886","source_code":"TH59411717002","project_name":"","survey_name":"\u662d\u548c63\u5e74\u5ea6\u5c71\u7530\u9053\u8def\u5730\u76e4\u8abf\u67fb(\u305d\u306e1)","client_name":"\u56fd\u571f\u4ea4\u901a\u7701\u6771\u5317\u5730\u65b9\u6574\u5099\u5c40\u4e09\u9678\u56fd\u9053\u4e8b\u52d9\u6240","boring_xml_url":40,"boring_view_url":1,"soilmap_view_url":null,"soiltest_xml_url":0,"soiltest_view_url":0},{"id":143809,"code":"B4KJ201801003-2058","latitude":"39.42808","longitude":"141.96947","source_code":"TH59411717001","project_name":"","survey_name":"\u662d\u548c63\u5e74\u5ea6\u5c71\u7530\u9053\u8def\u5730\u76e4\u8abf\u67fb(\u305d\u306e1)","client_name":"\u56fd\u571f\u4ea4\u901a\u7701\u6771\u5317\u5730\u65b9\u6574\u5099\u5c40\u4e09\u9678\u56fd\u9053\u4e8b\u52d9\u6240","boring_xml_url":40,"boring_view_url":1,"soilmap_view_url":null,"soiltest_xml_url":0,"soiltest_view_url":0},{"id":143808,"code":"B4KJ201801003-2057","latitude":"39.42567","longitude":"141.96936","source_code":"TH59411707003","project_name":"","survey_name":"\u5e73\u62102\u5e74\u5ea6\u5c71\u7530\u9053\u8def\u8a73\u7d30\u8a2d\u8a08\u4e8b\u52d9\u59d4\u8a17","client_name":"\u56fd\u571f\u4ea4\u901a\u7701\u6771\u5317\u5730\u65b9\u6574\u5099\u5c40\u4e09\u9678\u56fd\u9053\u4e8b\u52d9\u6240","boring_xml_url":40,"boring_view_url":1,"soilmap_view_url":null,"soiltest_xml_url":0,"soiltest_view_url":0},{"id":143807,"code":"B4KJ201801003-2056","latitude":"39.42364","longitude":"141.96892","source_code":"TH59411707002","project_name":"","survey_name":"\u5e73\u62102\u5e74\u5ea6\u8239\u8d8a\u5730\u533a\u69cb\u9020\u7269\u305d\u306e\u4ed6\u8a2d\u8a08\u696d\u52d9\u59d4\u8a17","client_name":"\u56fd\u571f\u4ea4\u901a\u7701\u6771\u5317\u5730\u65b9\u6574\u5099\u5c40\u4e09\u9678\u56fd\u9053\u4e8b\u52d9\u6240","boring_xml_url":40,"boring_view_url":1,"soilmap_view_url":null,"soiltest_xml_url":0,"soiltest_view_url":0},{"id":143806,"code":"B4KJ201801003-2055","latitude":"39.42017","longitude":"141.96822","source_code":"TH59411707001","project_name":"","survey_name":"\u662d\u548c63\u5e74\u5ea6\u5c71\u7530\u9053\u8def\u5730\u76e4\u8abf\u67fb(\u305d\u306e1)","client_name":"\u56fd\u571f\u4ea4\u901a\u7701\u6771\u5317\u5730\u65b9\u6574\u5099\u5c40\u4e09\u9678\u56fd\u9053\u4e8b\u52d9\u6240","boring_xml_url":40,"boring_view_url":1,"soilmap_view_url":null,"soiltest_xml_url":0,"soiltest_view_url":0},{"id":143805,"code":"B4KJ201801003-2054","latitude":"39.49231","longitude":"141.15178","source_code":"TH59411182001","project_name":"","survey_name":"\u85ac\u5e2b\u5802\u5ddd\u6876\u9580\u5730\u76e4\u8abf\u67fb","client_name":"\u56fd\u571f\u4ea4\u901a\u7701\u6771\u5317\u5730\u65b9\u6574\u5099\u5c40\u5ca9\u624b\u6cb3\u5ddd\u56fd\u9053\u4e8b\u52d9\u6240","boring_xml_url":40,"boring_view_url":1,"soilmap_view_url":null,"soiltest_xml_url":0,"soiltest_view_url":0},{"id":143804,"code":"B4KJ201801003-2053","latitude":"39.46139","longitude":"141.1415","source_code":"TH59411151002","project_name":"","survey_name":"\u662d\u548c58\u5e74\u5ea6\u5e73\u6cc9\u30d0\u30a4\u30d1\u30b9\u5730\u76e4\u8abf\u67fb(\u8033\u53d6\u6a4b)","client_name":"\u56fd\u571f\u4ea4\u901a\u7701\u6771\u5317\u5730\u65b9\u6574\u5099\u5c40\u5ca9\u624b\u6cb3\u5ddd\u56fd\u9053\u4e8b\u52d9\u6240","boring_xml_url":40,"boring_view_url":1,"soilmap_view_url":null,"soiltest_xml_url":0,"soiltest_view_url":0},{"id":143803,"code":"B4KJ201801003-2052","latitude":"39.46139","longitude":"141.1415","source_code":"TH59411151001","project_name":"","survey_name":"\u662d\u548c58\u5e74\u5ea6\u5e73\u6cc9\u30d0\u30a4\u30d1\u30b9\u5730\u76e4\u8abf\u67fb(\u8033\u53d6\u6a4b)","client_name":"\u56fd\u571f\u4ea4\u901a\u7701\u6771\u5317\u5730\u65b9\u6574\u5099\u5c40\u5ca9\u624b\u6cb3\u5ddd\u56fd\u9053\u4e8b\u52d9\u6240","boring_xml_url":40,"boring_view_url":1,"soilmap_view_url":null,"soiltest_xml_url":0,"soiltest_view_url":0},{"id":143802,"code":"B4KJ201801003-2051","latitude":"39.41864","longitude":"141.96758","source_code":"TH59410797001","project_name":"","survey_name":"\u662d\u548c63\u5e74\u5ea6\u5c71\u7530\u9053\u8def\u5730\u76e4\u8abf\u67fb(\u305d\u306e1)","client_name":"\u56fd\u571f\u4ea4\u901a\u7701\u6771\u5317\u5730\u65b9\u6574\u5099\u5c40\u4e09\u9678\u56fd\u9053\u4e8b\u52d9\u6240","boring_xml_url":40,"boring_view_url":1,"soilmap_view_url":null,"soiltest_xml_url":0,"soiltest_view_url":0},{"id":143801,"code":"B4KJ201801003-2050","latitude":"39.36647","longitude":"141.93175","source_code":"TH59410734001","project_name":"","survey_name":"\u662d\u548c57\u5e74\u5ea6\u4e09\u9678\u56fd\u9053\u5730\u76e4\u8abf\u67fb","client_name":"\u56fd\u571f\u4ea4\u901a\u7701\u6771\u5317\u5730\u65b9\u6574\u5099\u5c40\u4e09\u9678\u56fd\u9053\u4e8b\u52d9\u6240","boring_xml_url":40,"boring_view_url":1,"soilmap_view_url":null,"soiltest_xml_url":0,"soiltest_view_url":0},{"id":143800,"code":"B4KJ201801003-2049","latitude":"39.36286","longitude":"141.92064","source_code":"TH59410733013","project_name":"","survey_name":"\u662d\u548c62\u5e74\u5ea6\u5927\u69cc\u30d0\u30a4\u30d1\u30b9\u5b89\u6e21\u5730\u533a\u5730\u76e4\u8abf\u67fb","client_name":"\u56fd\u571f\u4ea4\u901a\u7701\u6771\u5317\u5730\u65b9\u6574\u5099\u5c40\u4e09\u9678\u56fd\u9053\u4e8b\u52d9\u6240","boring_xml_url":40,"boring_view_url":1,"soilmap_view_url":null,"soiltest_xml_url":0,"soiltest_view_url":0},{"id":143799,"code":"B4KJ201801003-2048","latitude":"39.36278","longitude":"141.92011","source_code":"TH59410733012","project_name":"","survey_name":"\u662d\u548c62\u5e74\u5ea6\u5927\u69cc\u30d0\u30a4\u30d1\u30b9\u5b89\u6e21\u5730\u533a\u5730\u76e4\u8abf\u67fb","client_name":"\u56fd\u571f\u4ea4\u901a\u7701\u6771\u5317\u5730\u65b9\u6574\u5099\u5c40\u4e09\u9678\u56fd\u9053\u4e8b\u52d9\u6240","boring_xml_url":40,"boring_view_url":1,"soilmap_view_url":null,"soiltest_xml_url":0,"soiltest_view_url":0},{"id":143798,"code":"B4KJ201801003-2047","latitude":"39.36267","longitude":"141.91967","source_code":"TH59410733011","project_name":"","survey_name":"\u662d\u548c62\u5e74\u5ea6\u5927\u69cc\u30d0\u30a4\u30d1\u30b9\u5b89\u6e21\u5730\u533a\u5730\u76e4\u8abf\u67fb","client_name":"\u56fd\u571f\u4ea4\u901a\u7701\u6771\u5317\u5730\u65b9\u6574\u5099\u5c40\u4e09\u9678\u56fd\u9053\u4e8b\u52d9\u6240","boring_xml_url":40,"boring_view_url":1,"soilmap_view_url":null,"soiltest_xml_url":0,"soiltest_view_url":0},{"id":143797,"code":"B4KJ201801003-2046","latitude":"39.36231","longitude":"141.91889","source_code":"TH59410733010","project_name":"","survey_name":"\u662d\u548c62\u5e74\u5ea6\u5927\u69cc\u30d0\u30a4\u30d1\u30b9\u5b89\u6e21\u5730\u533a\u5730\u76e4\u8abf\u67fb","client_name":"\u56fd\u571f\u4ea4\u901a\u7701\u6771\u5317\u5730\u65b9\u6574\u5099\u5c40\u4e09\u9678\u56fd\u9053\u4e8b\u52d9\u6240","boring_xml_url":40,"boring_view_url":1,"soilmap_view_url":null,"soiltest_xml_url":0,"soiltest_view_url":0},{"id":143796,"code":"B4KJ201801003-2045","latitude":"39.36244","longitude":"141.91753","source_code":"TH59410733009","project_name":"","survey_name":"\u662d\u548c62\u5e74\u5ea6\u5927\u69cc\u30d0\u30a4\u30d1\u30b9\u5b89\u6e21\u5730\u533a\u5730\u76e4\u8abf\u67fb","client_name":"\u56fd\u571f\u4ea4\u901a\u7701\u6771\u5317\u5730\u65b9\u6574\u5099\u5c40\u4e09\u9678\u56fd\u9053\u4e8b\u52d9\u6240","boring_xml_url":40,"boring_view_url":1,"soilmap_view_url":null,"soiltest_xml_url":0,"soiltest_view_url":0},{"id":143795,"code":"B4KJ201801003-2044","latitude":"39.36303","longitude":"141.91594","source_code":"TH59410733008","project_name":"","survey_name":"\u662d\u548c62\u5e74\u5ea6\u5927\u69cc\u7b2c2\uff5e\u7b2c4\u30c8\u30f3\u30cd\u30eb\u5730\u76e4\u8abf\u67fb","client_name":"\u56fd\u571f\u4ea4\u901a\u7701\u6771\u5317\u5730\u65b9\u6574\u5099\u5c40\u4e09\u9678\u56fd\u9053\u4e8b\u52d9\u6240","boring_xml_url":40,"boring_view_url":1,"soilmap_view_url":null,"soiltest_xml_url":0,"soiltest_view_url":0},{"id":143794,"code":"B4KJ201801003-2043","latitude":"39.36303","longitude":"141.91594","source_code":"TH59410733007","project_name":"","survey_name":"\u662d\u548c62\u5e74\u5ea6\u5927\u69cc\u7b2c2\uff5e\u7b2c4\u30c8\u30f3\u30cd\u30eb\u5730\u76e4\u8abf\u67fb","client_name":"\u56fd\u571f\u4ea4\u901a\u7701\u6771\u5317\u5730\u65b9\u6574\u5099\u5c40\u4e09\u9678\u56fd\u9053\u4e8b\u52d9\u6240","boring_xml_url":40,"boring_view_url":1,"soilmap_view_url":null,"soiltest_xml_url":0,"soiltest_view_url":0},{"id":143793,"code":"B4KJ201801003-2042","latitude":"39.36319","longitude":"141.91464","source_code":"TH59410733006","project_name":"","survey_name":"\u662d\u548c62\u5e74\u5ea6\u5927\u69cc\u7b2c2\uff5e\u7b2c4\u30c8\u30f3\u30cd\u30eb\u5730\u76e4\u8abf\u67fb","client_name":"\u56fd\u571f\u4ea4\u901a\u7701\u6771\u5317\u5730\u65b9\u6574\u5099\u5c40\u4e09\u9678\u56fd\u9053\u4e8b\u52d9\u6240","boring_xml_url":40,"boring_view_url":1,"soilmap_view_url":null,"soiltest_xml_url":0,"soiltest_view_url":0},{"id":143792,"code":"B4KJ201801003-2041","latitude":"39.36319","longitude":"141.91464","source_code":"TH59410733005","project_name":"","survey_name":"\u662d\u548c62\u5e74\u5ea6\u5927\u69cc\u7b2c2\uff5e\u7b2c4\u30c8\u30f3\u30cd\u30eb\u5730\u76e4\u8abf\u67fb","client_name":"\u56fd\u571f\u4ea4\u901a\u7701\u6771\u5317\u5730\u65b9\u6574\u5099\u5c40\u4e09\u9678\u56fd\u9053\u4e8b\u52d9\u6240","boring_xml_url":40,"boring_view_url":1,"soilmap_view_url":null,"soiltest_xml_url":0,"soiltest_view_url":0},{"id":143791,"code":"B4KJ201801003-2040","latitude":"39.36325","longitude":"141.91414","source_code":"TH59410733004","project_name":"","survey_name":"\u662d\u548c62\u5e74\u5ea6\u5927\u69cc\u7b2c2\uff5e\u7b2c4\u30c8\u30f3\u30cd\u30eb\u5730\u76e4\u8abf\u67fb","client_name":"\u56fd\u571f\u4ea4\u901a\u7701\u6771\u5317\u5730\u65b9\u6574\u5099\u5c40\u4e09\u9678\u56fd\u9053\u4e8b\u52d9\u6240","boring_xml_url":40,"boring_view_url":1,"soilmap_view_url":null,"soiltest_xml_url":0,"soiltest_view_url":0},{"id":143790,"code":"B4KJ201801003-2039","latitude":"39.36461","longitude":"141.91189","source_code":"TH59410733003","project_name":"","survey_name":"\u662d\u548c62\u5e74\u5ea6\u5927\u69cc\u7b2c2\uff5e\u7b2c4\u30c8\u30f3\u30cd\u30eb\u5730\u76e4\u8abf\u67fb","client_name":"\u56fd\u571f\u4ea4\u901a\u7701\u6771\u5317\u5730\u65b9\u6574\u5099\u5c40\u4e09\u9678\u56fd\u9053\u4e8b\u52d9\u6240","boring_xml_url":40,"boring_view_url":1,"soilmap_view_url":null,"soiltest_xml_url":0,"soiltest_view_url":0},{"id":143789,"code":"B4KJ201801003-2038","latitude":"39.36461","longitude":"141.91189","source_code":"TH59410733002","project_name":"","survey_name":"\u662d\u548c62\u5e74\u5ea6\u5927\u69cc\u7b2c2\uff5e\u7b2c4\u30c8\u30f3\u30cd\u30eb\u5730\u76e4\u8abf\u67fb","client_name":"\u56fd\u571f\u4ea4\u901a\u7701\u6771\u5317\u5730\u65b9\u6574\u5099\u5c40\u4e09\u9678\u56fd\u9053\u4e8b\u52d9\u6240","boring_xml_url":40,"boring_view_url":1,"soilmap_view_url":null,"soiltest_xml_url":0,"soiltest_view_url":0},{"id":143788,"code":"B4KJ201801003-2037","latitude":"39.36614","longitude":"141.90922","source_code":"TH59410733001","project_name":"","survey_name":"\u662d\u548c62\u5e74\u5ea6\u5927\u69cc\u7b2c2\uff5e\u7b2c4\u30c8\u30f3\u30cd\u30eb\u5730\u76e4\u8abf\u67fb","client_name":"\u56fd\u571f\u4ea4\u901a\u7701\u6771\u5317\u5730\u65b9\u6574\u5099\u5c40\u4e09\u9678\u56fd\u9053\u4e8b\u52d9\u6240","boring_xml_url":40,"boring_view_url":1,"soilmap_view_url":null,"soiltest_xml_url":0,"soiltest_view_url":0},{"id":143787,"code":"B4KJ201801003-2036","latitude":"39.36392","longitude":"141.90197","source_code":"TH59410732010","project_name":"","survey_name":"\u662d\u548c61\u5e74\u5ea6\u5927\u69cc\u30d0\u30a4\u30d1\u30b9\u5730\u76e4\u8abf\u67fb","client_name":"\u56fd\u571f\u4ea4\u901a\u7701\u6771\u5317\u5730\u65b9\u6574\u5099\u5c40\u4e09\u9678\u56fd\u9053\u4e8b\u52d9\u6240","boring_xml_url":40,"boring_view_url":1,"soilmap_view_url":null,"soiltest_xml_url":0,"soiltest_view_url":0},{"id":143786,"code":"B4KJ201801003-2035","latitude":"39.36344","longitude":"141.90156","source_code":"TH59410732009","project_name":"","survey_name":"\u662d\u548c61\u5e74\u5ea6\u5927\u69cc\u30d0\u30a4\u30d1\u30b9\u5730\u76e4\u8abf\u67fb","client_name":"\u56fd\u571f\u4ea4\u901a\u7701\u6771\u5317\u5730\u65b9\u6574\u5099\u5c40\u4e09\u9678\u56fd\u9053\u4e8b\u52d9\u6240","boring_xml_url":40,"boring_view_url":1,"soilmap_view_url":null,"soiltest_xml_url":0,"soiltest_view_url":0}]}}