{"header":{"xyz":{"source":[],"mosaic":false},"page":5893,"raw":{"soiltest_result":"0","bbox":"57.598333,109.544722,1.933333,163.806111","page":"5893"},"conditions":{"soiltest_result":0,"north":57.598333,"west":109.544722,"south":1.933333,"east":163.806111},"success":true,"message":""},"data":{"meta":{"total":212844,"page":5893,"pages":7095,"count":30},"values":[{"id":143785,"code":"B4KJ201801003-2034","latitude":"39.36367","longitude":"141.90128","source_code":"TH59410732008","project_name":"","survey_name":"\u662d\u548c61\u5e74\u5ea6\u5927\u69cc\u30d0\u30a4\u30d1\u30b9\u5730\u76e4\u8abf\u67fb","client_name":"\u56fd\u571f\u4ea4\u901a\u7701\u6771\u5317\u5730\u65b9\u6574\u5099\u5c40\u4e09\u9678\u56fd\u9053\u4e8b\u52d9\u6240","boring_xml_url":40,"boring_view_url":1,"soilmap_view_url":null,"soiltest_xml_url":0,"soiltest_view_url":0},{"id":143784,"code":"B4KJ201801003-2033","latitude":"39.363","longitude":"141.89892","source_code":"TH59410732007","project_name":"","survey_name":"\u662d\u548c61\u5e74\u5ea6\u5927\u69cc\u30d0\u30a4\u30d1\u30b9\u5730\u76e4\u8abf\u67fb","client_name":"\u56fd\u571f\u4ea4\u901a\u7701\u6771\u5317\u5730\u65b9\u6574\u5099\u5c40\u4e09\u9678\u56fd\u9053\u4e8b\u52d9\u6240","boring_xml_url":40,"boring_view_url":1,"soilmap_view_url":null,"soiltest_xml_url":0,"soiltest_view_url":0},{"id":143783,"code":"B4KJ201801003-2032","latitude":"39.36267","longitude":"141.89836","source_code":"TH59410732006","project_name":"","survey_name":"\u662d\u548c61\u5e74\u5ea6\u5927\u69cc\u30d0\u30a4\u30d1\u30b9\u5730\u76e4\u8abf\u67fb","client_name":"\u56fd\u571f\u4ea4\u901a\u7701\u6771\u5317\u5730\u65b9\u6574\u5099\u5c40\u4e09\u9678\u56fd\u9053\u4e8b\u52d9\u6240","boring_xml_url":40,"boring_view_url":1,"soilmap_view_url":null,"soiltest_xml_url":0,"soiltest_view_url":0},{"id":143782,"code":"B4KJ201801003-2031","latitude":"39.36639","longitude":"141.90475","source_code":"TH59410732005","project_name":"","survey_name":"\u662d\u548c57\u5e74\u5ea6\u5927\u69cc\u30d0\u30a4\u30d1\u30b9\u5927\u69cc\u5ddd\u6a4b\u6881\u5730\u8cea\u8abf\u67fb","client_name":"\u56fd\u571f\u4ea4\u901a\u7701\u6771\u5317\u5730\u65b9\u6574\u5099\u5c40\u4e09\u9678\u56fd\u9053\u4e8b\u52d9\u6240","boring_xml_url":40,"boring_view_url":1,"soilmap_view_url":null,"soiltest_xml_url":0,"soiltest_view_url":0},{"id":143781,"code":"B4KJ201801003-2030","latitude":"39.36447","longitude":"141.90253","source_code":"TH59410732004","project_name":"","survey_name":"\u662d\u548c57\u5e74\u5ea6\u5927\u69cc\u30d0\u30a4\u30d1\u30b9\u5927\u69cc\u5ddd\u6a4b\u6881\u5730\u8cea\u8abf\u67fb","client_name":"\u56fd\u571f\u4ea4\u901a\u7701\u6771\u5317\u5730\u65b9\u6574\u5099\u5c40\u4e09\u9678\u56fd\u9053\u4e8b\u52d9\u6240","boring_xml_url":40,"boring_view_url":1,"soilmap_view_url":null,"soiltest_xml_url":0,"soiltest_view_url":0},{"id":143780,"code":"B4KJ201801003-2029","latitude":"39.36425","longitude":"141.90197","source_code":"TH59410732003","project_name":"","survey_name":"\u662d\u548c57\u5e74\u5ea6\u5927\u69cc\u30d0\u30a4\u30d1\u30b9\u5927\u69cc\u5ddd\u6a4b\u6881\u5730\u8cea\u8abf\u67fb","client_name":"\u56fd\u571f\u4ea4\u901a\u7701\u6771\u5317\u5730\u65b9\u6574\u5099\u5c40\u4e09\u9678\u56fd\u9053\u4e8b\u52d9\u6240","boring_xml_url":40,"boring_view_url":1,"soilmap_view_url":null,"soiltest_xml_url":0,"soiltest_view_url":0},{"id":143779,"code":"B4KJ201801003-2028","latitude":"39.36392","longitude":"141.90169","source_code":"TH59410732002","project_name":"","survey_name":"\u662d\u548c57\u5e74\u5ea6\u5927\u69cc\u30d0\u30a4\u30d1\u30b9\u5927\u69cc\u5ddd\u6a4b\u6881\u5730\u8cea\u8abf\u67fb","client_name":"\u56fd\u571f\u4ea4\u901a\u7701\u6771\u5317\u5730\u65b9\u6574\u5099\u5c40\u4e09\u9678\u56fd\u9053\u4e8b\u52d9\u6240","boring_xml_url":40,"boring_view_url":1,"soilmap_view_url":null,"soiltest_xml_url":0,"soiltest_view_url":0},{"id":143778,"code":"B4KJ201801003-2027","latitude":"39.36344","longitude":"141.90086","source_code":"TH59410732001","project_name":"","survey_name":"\u662d\u548c57\u5e74\u5ea6\u5927\u69cc\u30d0\u30a4\u30d1\u30b9\u5927\u69cc\u5ddd\u6a4b\u6881\u5730\u8cea\u8abf\u67fb","client_name":"\u56fd\u571f\u4ea4\u901a\u7701\u6771\u5317\u5730\u65b9\u6574\u5099\u5c40\u4e09\u9678\u56fd\u9053\u4e8b\u52d9\u6240","boring_xml_url":40,"boring_view_url":1,"soilmap_view_url":null,"soiltest_xml_url":0,"soiltest_view_url":0},{"id":143777,"code":"B4KJ201801003-2026","latitude":"39.35447","longitude":"141.89272","source_code":"TH59410721004","project_name":"","survey_name":"\u662d\u548c57\u5e74\u5ea6\u5927\u69cc\u30d0\u30a4\u30d1\u30b9\u5c0f\u69cc\u5ddd\u6a4b\u6881\u5730\u76e4\u8abf\u67fb","client_name":"\u56fd\u571f\u4ea4\u901a\u7701\u6771\u5317\u5730\u65b9\u6574\u5099\u5c40\u4e09\u9678\u56fd\u9053\u4e8b\u52d9\u6240","boring_xml_url":40,"boring_view_url":1,"soilmap_view_url":null,"soiltest_xml_url":0,"soiltest_view_url":0},{"id":143776,"code":"B4KJ201801003-2025","latitude":"39.35606","longitude":"141.89331","source_code":"TH59410721003","project_name":"","survey_name":"\u662d\u548c57\u5e74\u5ea6\u5927\u69cc\u30d0\u30a4\u30d1\u30b9\u5c0f\u69cc\u5ddd\u6a4b\u6881\u5730\u76e4\u8abf\u67fb","client_name":"\u56fd\u571f\u4ea4\u901a\u7701\u6771\u5317\u5730\u65b9\u6574\u5099\u5c40\u4e09\u9678\u56fd\u9053\u4e8b\u52d9\u6240","boring_xml_url":40,"boring_view_url":1,"soilmap_view_url":null,"soiltest_xml_url":0,"soiltest_view_url":0},{"id":143775,"code":"B4KJ201801003-2024","latitude":"39.35672","longitude":"141.89358","source_code":"TH59410721002","project_name":"","survey_name":"\u662d\u548c57\u5e74\u5ea6\u5927\u69cc\u30d0\u30a4\u30d1\u30b9\u5c0f\u69cc\u5ddd\u6a4b\u6881\u5730\u76e4\u8abf\u67fb","client_name":"\u56fd\u571f\u4ea4\u901a\u7701\u6771\u5317\u5730\u65b9\u6574\u5099\u5c40\u4e09\u9678\u56fd\u9053\u4e8b\u52d9\u6240","boring_xml_url":40,"boring_view_url":1,"soilmap_view_url":null,"soiltest_xml_url":0,"soiltest_view_url":0},{"id":143774,"code":"B4KJ201801003-2023","latitude":"39.35717","longitude":"141.89372","source_code":"TH59410721001","project_name":"","survey_name":"\u662d\u548c57\u5e74\u5ea6\u5927\u69cc\u30d0\u30a4\u30d1\u30b9\u5c0f\u69cc\u5ddd\u6a4b\u6881\u5730\u76e4\u8abf\u67fb","client_name":"\u56fd\u571f\u4ea4\u901a\u7701\u6771\u5317\u5730\u65b9\u6574\u5099\u5c40\u4e09\u9678\u56fd\u9053\u4e8b\u52d9\u6240","boring_xml_url":40,"boring_view_url":1,"soilmap_view_url":null,"soiltest_xml_url":0,"soiltest_view_url":0},{"id":143773,"code":"B4KJ201801003-2022","latitude":"39.40394","longitude":"141.13844","source_code":"TH59410181006","project_name":"","survey_name":"\u82b1\u5dfb\u6771\u30d0\u30a4\u30d1\u30b9\u4f3c\u5185\u3053\u9053\u6a4b\u4e88\u5099\u8a2d\u8a08\u696d\u52d9\u59d4\u8a17","client_name":"\u56fd\u571f\u4ea4\u901a\u7701\u6771\u5317\u5730\u65b9\u6574\u5099\u5c40\u5ca9\u624b\u6cb3\u5ddd\u56fd\u9053\u4e8b\u52d9\u6240","boring_xml_url":40,"boring_view_url":1,"soilmap_view_url":null,"soiltest_xml_url":0,"soiltest_view_url":0},{"id":143772,"code":"B4KJ201801003-2021","latitude":"39.40394","longitude":"141.13817","source_code":"TH59410181005","project_name":"","survey_name":"\u82b1\u5dfb\u6771\u30d0\u30a4\u30d1\u30b9\u4f3c\u5185\u3053\u9053\u6a4b\u4e88\u5099\u8a2d\u8a08\u696d\u52d9\u59d4\u8a17","client_name":"\u56fd\u571f\u4ea4\u901a\u7701\u6771\u5317\u5730\u65b9\u6574\u5099\u5c40\u5ca9\u624b\u6cb3\u5ddd\u56fd\u9053\u4e8b\u52d9\u6240","boring_xml_url":40,"boring_view_url":1,"soilmap_view_url":null,"soiltest_xml_url":0,"soiltest_view_url":0},{"id":143771,"code":"B4KJ201801003-2020","latitude":"39.4045","longitude":"141.13872","source_code":"TH59410181003","project_name":"","survey_name":"\u82b1\u5dfb\u6771\u30d0\u30a4\u30d1\u30b9\u4f3c\u5185\u3053\u9053\u6a4b\u4e88\u5099\u8a2d\u8a08\u696d\u52d9\u59d4\u8a17","client_name":"\u56fd\u571f\u4ea4\u901a\u7701\u6771\u5317\u5730\u65b9\u6574\u5099\u5c40\u5ca9\u624b\u6cb3\u5ddd\u56fd\u9053\u4e8b\u52d9\u6240","boring_xml_url":40,"boring_view_url":1,"soilmap_view_url":null,"soiltest_xml_url":0,"soiltest_view_url":0},{"id":143770,"code":"B4KJ201801003-2019","latitude":"39.4045","longitude":"141.139","source_code":"TH59410181002","project_name":"","survey_name":"\u82b1\u5dfb\u6771\u30d0\u30a4\u30d1\u30b9\u4f3c\u5185\u3053\u9053\u6a4b\u4e88\u5099\u8a2d\u8a08\u696d\u52d9\u59d4\u8a17","client_name":"\u56fd\u571f\u4ea4\u901a\u7701\u6771\u5317\u5730\u65b9\u6574\u5099\u5c40\u5ca9\u624b\u6cb3\u5ddd\u56fd\u9053\u4e8b\u52d9\u6240","boring_xml_url":40,"boring_view_url":1,"soilmap_view_url":null,"soiltest_xml_url":0,"soiltest_view_url":0},{"id":143769,"code":"B4KJ201801003-2018","latitude":"39.40422","longitude":"141.13872","source_code":"TH59410181001","project_name":"","survey_name":"\u82b1\u5dfb\u6771\u30d0\u30a4\u30d1\u30b9\u4f3c\u5185\u3053\u9053\u6a4b\u4e88\u5099\u8a2d\u8a08\u696d\u52d9\u59d4\u8a17","client_name":"\u56fd\u571f\u4ea4\u901a\u7701\u6771\u5317\u5730\u65b9\u6574\u5099\u5c40\u5ca9\u624b\u6cb3\u5ddd\u56fd\u9053\u4e8b\u52d9\u6240","boring_xml_url":40,"boring_view_url":1,"soilmap_view_url":null,"soiltest_xml_url":0,"soiltest_view_url":0},{"id":143768,"code":"B4KJ201801003-2017","latitude":"39.40147","longitude":"141.13983","source_code":"TH59410171007","project_name":"","survey_name":"\u82b1\u5dfb\u6771\u30d0\u30a4\u30d1\u30b9\u82b1\u5dfb\u5317\u5927\u6a4b\u5730\u76e4\u8abf\u67fb","client_name":"\u56fd\u571f\u4ea4\u901a\u7701\u6771\u5317\u5730\u65b9\u6574\u5099\u5c40\u5ca9\u624b\u6cb3\u5ddd\u56fd\u9053\u4e8b\u52d9\u6240","boring_xml_url":40,"boring_view_url":1,"soilmap_view_url":null,"soiltest_xml_url":0,"soiltest_view_url":0},{"id":143767,"code":"B4KJ201801003-2016","latitude":"39.40036","longitude":"141.13983","source_code":"TH59410171006","project_name":"","survey_name":"\u82b1\u5dfb\u6771\u30d0\u30a4\u30d1\u30b9\u82b1\u5dfb\u5317\u5927\u6a4b\u5730\u76e4\u8abf\u67fb","client_name":"\u56fd\u571f\u4ea4\u901a\u7701\u6771\u5317\u5730\u65b9\u6574\u5099\u5c40\u5ca9\u624b\u6cb3\u5ddd\u56fd\u9053\u4e8b\u52d9\u6240","boring_xml_url":40,"boring_view_url":1,"soilmap_view_url":null,"soiltest_xml_url":0,"soiltest_view_url":0},{"id":143766,"code":"B4KJ201801003-2015","latitude":"39.40147","longitude":"141.13956","source_code":"TH59410171005","project_name":"","survey_name":"\u662d\u548c63\u5e74\u5ea6\u82b1\u5dfb\u6771\u30d0\u30a4\u30d1\u30b9\u7b2c1\u5730\u533a\u5730\u76e4\u8abf\u67fb","client_name":"\u56fd\u571f\u4ea4\u901a\u7701\u6771\u5317\u5730\u65b9\u6574\u5099\u5c40\u5ca9\u624b\u6cb3\u5ddd\u56fd\u9053\u4e8b\u52d9\u6240","boring_xml_url":40,"boring_view_url":1,"soilmap_view_url":null,"soiltest_xml_url":0,"soiltest_view_url":0},{"id":143765,"code":"B4KJ201801003-2014","latitude":"39.39953","longitude":"141.14011","source_code":"TH59410171004","project_name":"","survey_name":"\u662d\u548c63\u5e74\u5ea6\u82b1\u5dfb\u6771\u30d0\u30a4\u30d1\u30b9\u7b2c1\u5730\u533a\u5730\u76e4\u8abf\u67fb","client_name":"\u56fd\u571f\u4ea4\u901a\u7701\u6771\u5317\u5730\u65b9\u6574\u5099\u5c40\u5ca9\u624b\u6cb3\u5ddd\u56fd\u9053\u4e8b\u52d9\u6240","boring_xml_url":40,"boring_view_url":1,"soilmap_view_url":null,"soiltest_xml_url":0,"soiltest_view_url":0},{"id":143764,"code":"B4KJ201801003-2013","latitude":"39.39897","longitude":"141.14039","source_code":"TH59410171003","project_name":"","survey_name":"\u662d\u548c63\u5e74\u5ea6\u82b1\u5dfb\u6771\u30d0\u30a4\u30d1\u30b9\u7b2c1\u5730\u533a\u5730\u76e4\u8abf\u67fb","client_name":"\u56fd\u571f\u4ea4\u901a\u7701\u6771\u5317\u5730\u65b9\u6574\u5099\u5c40\u5ca9\u624b\u6cb3\u5ddd\u56fd\u9053\u4e8b\u52d9\u6240","boring_xml_url":40,"boring_view_url":1,"soilmap_view_url":null,"soiltest_xml_url":0,"soiltest_view_url":0},{"id":143763,"code":"B4KJ201801003-2012","latitude":"39.39758","longitude":"141.14067","source_code":"TH59410171002","project_name":"","survey_name":"\u662d\u548c63\u5e74\u5ea6\u82b1\u5dfb\u6771\u30d0\u30a4\u30d1\u30b9\u7b2c1\u5730\u533a\u5730\u76e4\u8abf\u67fb","client_name":"\u56fd\u571f\u4ea4\u901a\u7701\u6771\u5317\u5730\u65b9\u6574\u5099\u5c40\u5ca9\u624b\u6cb3\u5ddd\u56fd\u9053\u4e8b\u52d9\u6240","boring_xml_url":40,"boring_view_url":1,"soilmap_view_url":null,"soiltest_xml_url":0,"soiltest_view_url":0},{"id":143762,"code":"B4KJ201801003-2011","latitude":"39.39508","longitude":"141.14122","source_code":"TH59410171001","project_name":"","survey_name":"\u662d\u548c63\u5e74\u5ea6\u82b1\u5dfb\u6771\u30d0\u30a4\u30d1\u30b9\u7b2c1\u5730\u533a\u5730\u76e4\u8abf\u67fb","client_name":"\u56fd\u571f\u4ea4\u901a\u7701\u6771\u5317\u5730\u65b9\u6574\u5099\u5c40\u5ca9\u624b\u6cb3\u5ddd\u56fd\u9053\u4e8b\u52d9\u6240","boring_xml_url":40,"boring_view_url":1,"soilmap_view_url":null,"soiltest_xml_url":0,"soiltest_view_url":0},{"id":143761,"code":"B4KJ201801003-2010","latitude":"39.39286","longitude":"141.14233","source_code":"TH59410161003","project_name":"","survey_name":"\u662d\u548c63\u5e74\u5ea6\u82b1\u5dfb\u6771\u30d0\u30a4\u30d1\u30b9\u7b2c1\u5730\u533a\u5730\u76e4\u8abf\u67fb","client_name":"\u56fd\u571f\u4ea4\u901a\u7701\u6771\u5317\u5730\u65b9\u6574\u5099\u5c40\u5ca9\u624b\u6cb3\u5ddd\u56fd\u9053\u4e8b\u52d9\u6240","boring_xml_url":40,"boring_view_url":1,"soilmap_view_url":null,"soiltest_xml_url":0,"soiltest_view_url":0},{"id":143760,"code":"B4KJ201801003-2009","latitude":"39.39064","longitude":"141.14317","source_code":"TH59410161002","project_name":"","survey_name":"\u662d\u548c63\u5e74\u5ea6\u82b1\u5dfb\u6771\u30d0\u30a4\u30d1\u30b9\u7b2c1\u5730\u533a\u5730\u76e4\u8abf\u67fb","client_name":"\u56fd\u571f\u4ea4\u901a\u7701\u6771\u5317\u5730\u65b9\u6574\u5099\u5c40\u5ca9\u624b\u6cb3\u5ddd\u56fd\u9053\u4e8b\u52d9\u6240","boring_xml_url":40,"boring_view_url":1,"soilmap_view_url":null,"soiltest_xml_url":0,"soiltest_view_url":0},{"id":143759,"code":"B4KJ201801003-2008","latitude":"39.38758","longitude":"141.144","source_code":"TH59410161001","project_name":"","survey_name":"\u662d\u548c63\u5e74\u5ea6\u82b1\u5dfb\u6771\u30d0\u30a4\u30d1\u30b9\u7b2c1\u5730\u533a\u5730\u76e4\u8abf\u67fb","client_name":"\u56fd\u571f\u4ea4\u901a\u7701\u6771\u5317\u5730\u65b9\u6574\u5099\u5c40\u5ca9\u624b\u6cb3\u5ddd\u56fd\u9053\u4e8b\u52d9\u6240","boring_xml_url":40,"boring_view_url":1,"soilmap_view_url":null,"soiltest_xml_url":0,"soiltest_view_url":0},{"id":143758,"code":"B4KJ201801003-2007","latitude":"39.36875","longitude":"141.11656","source_code":"TH59410039002","project_name":"","survey_name":"S60\u5e74\u5ea6\u4ec1\u6ca2\u702c\u5074\u9053\u6a4b\u5916\u4e00\u6a4b\u5730\u76e4\u8abf\u67fb","client_name":"\u56fd\u571f\u4ea4\u901a\u7701\u6771\u5317\u5730\u65b9\u6574\u5099\u5c40\u5ca9\u624b\u6cb3\u5ddd\u56fd\u9053\u4e8b\u52d9\u6240","boring_xml_url":40,"boring_view_url":1,"soilmap_view_url":null,"soiltest_xml_url":0,"soiltest_view_url":0},{"id":143757,"code":"B4KJ201801003-2006","latitude":"39.93611","longitude":"140.93814","source_code":"TH59407725012","project_name":"","survey_name":"\u8d64\u5ddd\u7b2c3\u30c0\u30e0\u5730\u3059\u3079\u308a\u5730\u8cea\u8abf\u67fb\u691c\u8a0e\u696d\u52d9","client_name":"\u56fd\u571f\u4ea4\u901a\u7701\u6771\u5317\u5730\u65b9\u6574\u5099\u5c40\u5ca9\u624b\u6cb3\u5ddd\u56fd\u9053\u4e8b\u52d9\u6240","boring_xml_url":40,"boring_view_url":1,"soilmap_view_url":null,"soiltest_xml_url":0,"soiltest_view_url":0},{"id":143756,"code":"B4KJ201801003-2005","latitude":"39.93611","longitude":"140.93814","source_code":"TH59407725011","project_name":"","survey_name":"\u8d64\u5ddd\u7b2c3\u30c0\u30e0\u5730\u3059\u3079\u308a\u5730\u8cea\u8abf\u67fb\u691c\u8a0e\u696d\u52d9","client_name":"\u56fd\u571f\u4ea4\u901a\u7701\u6771\u5317\u5730\u65b9\u6574\u5099\u5c40\u5ca9\u624b\u6cb3\u5ddd\u56fd\u9053\u4e8b\u52d9\u6240","boring_xml_url":40,"boring_view_url":1,"soilmap_view_url":null,"soiltest_xml_url":0,"soiltest_view_url":0}]}}