{"header":{"xyz":{"source":[],"mosaic":false},"page":59,"raw":{"soiltest_result":"0","bbox":"57.598333,109.544722,1.933333,163.806111","page":"59"},"conditions":{"soiltest_result":0,"north":57.598333,"west":109.544722,"south":1.933333,"east":163.806111},"success":true,"message":""},"data":{"meta":{"total":212844,"page":59,"pages":7095,"count":30},"values":[{"id":697984,"code":"NGIC202304523-0013","latitude":"34.708700805556","longitude":"135.57370569444","source_code":"","project_name":"\u6dc0\u5ddd\u5de6\u5cb8\u7dda\u5ef6\u4f38\u4e8b\u696d","survey_name":"\u6dc0\u5ddd\u5de6\u5cb8\u7dda\u5ef6\u4f38\u90e8\u6a2a\u5824\u897f\u5730\u533a\u4ed6\u571f\u58cc\u8abf\u67fb\u696d\u52d9","client_name":"\u56fd\u571f\u4ea4\u901a\u7701\u8fd1\u757f\u5730\u65b9\u6574\u5099\u5c40\u6d6a\u901f\u56fd\u9053\u4e8b\u52d9\u6240","boring_xml_url":47,"boring_view_url":1,"soilmap_view_url":null,"soiltest_xml_url":0,"soiltest_view_url":0},{"id":697983,"code":"NGIC202304523-0012","latitude":"34.708734388889","longitude":"135.57380702778","source_code":"","project_name":"\u6dc0\u5ddd\u5de6\u5cb8\u7dda\u5ef6\u4f38\u4e8b\u696d","survey_name":"\u6dc0\u5ddd\u5de6\u5cb8\u7dda\u5ef6\u4f38\u90e8\u6a2a\u5824\u897f\u5730\u533a\u4ed6\u571f\u58cc\u8abf\u67fb\u696d\u52d9","client_name":"\u56fd\u571f\u4ea4\u901a\u7701\u8fd1\u757f\u5730\u65b9\u6574\u5099\u5c40\u6d6a\u901f\u56fd\u9053\u4e8b\u52d9\u6240","boring_xml_url":47,"boring_view_url":1,"soilmap_view_url":null,"soiltest_xml_url":0,"soiltest_view_url":0},{"id":697982,"code":"NGIC202304523-0011","latitude":"34.708767944444","longitude":"135.57390833333","source_code":"","project_name":"\u6dc0\u5ddd\u5de6\u5cb8\u7dda\u5ef6\u4f38\u4e8b\u696d","survey_name":"\u6dc0\u5ddd\u5de6\u5cb8\u7dda\u5ef6\u4f38\u90e8\u6a2a\u5824\u897f\u5730\u533a\u4ed6\u571f\u58cc\u8abf\u67fb\u696d\u52d9","client_name":"\u56fd\u571f\u4ea4\u901a\u7701\u8fd1\u757f\u5730\u65b9\u6574\u5099\u5c40\u6d6a\u901f\u56fd\u9053\u4e8b\u52d9\u6240","boring_xml_url":47,"boring_view_url":1,"soilmap_view_url":null,"soiltest_xml_url":0,"soiltest_view_url":0},{"id":697981,"code":"NGIC202304523-0010","latitude":"34.708415111111","longitude":"135.57255061111","source_code":"","project_name":"\u6dc0\u5ddd\u5de6\u5cb8\u7dda\u5ef6\u4f38\u4e8b\u696d","survey_name":"\u6dc0\u5ddd\u5de6\u5cb8\u7dda\u5ef6\u4f38\u90e8\u6a2a\u5824\u897f\u5730\u533a\u4ed6\u571f\u58cc\u8abf\u67fb\u696d\u52d9","client_name":"\u56fd\u571f\u4ea4\u901a\u7701\u8fd1\u757f\u5730\u65b9\u6574\u5099\u5c40\u6d6a\u901f\u56fd\u9053\u4e8b\u52d9\u6240","boring_xml_url":47,"boring_view_url":1,"soilmap_view_url":null,"soiltest_xml_url":0,"soiltest_view_url":0},{"id":697980,"code":"NGIC202304523-0009","latitude":"34.708418472222","longitude":"135.57256075","source_code":"","project_name":"\u6dc0\u5ddd\u5de6\u5cb8\u7dda\u5ef6\u4f38\u4e8b\u696d","survey_name":"\u6dc0\u5ddd\u5de6\u5cb8\u7dda\u5ef6\u4f38\u90e8\u6a2a\u5824\u897f\u5730\u533a\u4ed6\u571f\u58cc\u8abf\u67fb\u696d\u52d9","client_name":"\u56fd\u571f\u4ea4\u901a\u7701\u8fd1\u757f\u5730\u65b9\u6574\u5099\u5c40\u6d6a\u901f\u56fd\u9053\u4e8b\u52d9\u6240","boring_xml_url":47,"boring_view_url":1,"soilmap_view_url":null,"soiltest_xml_url":47,"soiltest_view_url":47},{"id":697979,"code":"NGIC202304523-0008","latitude":"34.708457055556","longitude":"135.57264786111","source_code":"","project_name":"\u6dc0\u5ddd\u5de6\u5cb8\u7dda\u5ef6\u4f38\u4e8b\u696d","survey_name":"\u6dc0\u5ddd\u5de6\u5cb8\u7dda\u5ef6\u4f38\u90e8\u6a2a\u5824\u897f\u5730\u533a\u4ed6\u571f\u58cc\u8abf\u67fb\u696d\u52d9","client_name":"\u56fd\u571f\u4ea4\u901a\u7701\u8fd1\u757f\u5730\u65b9\u6574\u5099\u5c40\u6d6a\u901f\u56fd\u9053\u4e8b\u52d9\u6240","boring_xml_url":47,"boring_view_url":1,"soilmap_view_url":null,"soiltest_xml_url":0,"soiltest_view_url":0},{"id":697978,"code":"NGIC202304523-0007","latitude":"34.708482277778","longitude":"135.57275322222","source_code":"","project_name":"\u6dc0\u5ddd\u5de6\u5cb8\u7dda\u5ef6\u4f38\u4e8b\u696d","survey_name":"\u6dc0\u5ddd\u5de6\u5cb8\u7dda\u5ef6\u4f38\u90e8\u6a2a\u5824\u897f\u5730\u533a\u4ed6\u571f\u58cc\u8abf\u67fb\u696d\u52d9","client_name":"\u56fd\u571f\u4ea4\u901a\u7701\u8fd1\u757f\u5730\u65b9\u6574\u5099\u5c40\u6d6a\u901f\u56fd\u9053\u4e8b\u52d9\u6240","boring_xml_url":47,"boring_view_url":1,"soilmap_view_url":null,"soiltest_xml_url":0,"soiltest_view_url":0},{"id":697977,"code":"NGIC202304523-0006","latitude":"34.708515833333","longitude":"135.57285455556","source_code":"","project_name":"\u6dc0\u5ddd\u5de6\u5cb8\u7dda\u5ef6\u4f38\u4e8b\u696d","survey_name":"\u6dc0\u5ddd\u5de6\u5cb8\u7dda\u5ef6\u4f38\u90e8\u6a2a\u5824\u897f\u5730\u533a\u4ed6\u571f\u58cc\u8abf\u67fb\u696d\u52d9","client_name":"\u56fd\u571f\u4ea4\u901a\u7701\u8fd1\u757f\u5730\u65b9\u6574\u5099\u5c40\u6d6a\u901f\u56fd\u9053\u4e8b\u52d9\u6240","boring_xml_url":47,"boring_view_url":1,"soilmap_view_url":null,"soiltest_xml_url":0,"soiltest_view_url":0},{"id":697976,"code":"NGIC202304523-0005","latitude":"34.708541055556","longitude":"135.57295991667","source_code":"","project_name":"\u6dc0\u5ddd\u5de6\u5cb8\u7dda\u5ef6\u4f38\u4e8b\u696d","survey_name":"\u6dc0\u5ddd\u5de6\u5cb8\u7dda\u5ef6\u4f38\u90e8\u6a2a\u5824\u897f\u5730\u533a\u4ed6\u571f\u58cc\u8abf\u67fb\u696d\u52d9","client_name":"\u56fd\u571f\u4ea4\u901a\u7701\u8fd1\u757f\u5730\u65b9\u6574\u5099\u5c40\u6d6a\u901f\u56fd\u9053\u4e8b\u52d9\u6240","boring_xml_url":47,"boring_view_url":1,"soilmap_view_url":null,"soiltest_xml_url":0,"soiltest_view_url":0},{"id":697975,"code":"NGIC202304523-0004","latitude":"34.708566277778","longitude":"135.57306530556","source_code":"","project_name":"\u6dc0\u5ddd\u5de6\u5cb8\u7dda\u5ef6\u4f38\u4e8b\u696d","survey_name":"\u6dc0\u5ddd\u5de6\u5cb8\u7dda\u5ef6\u4f38\u90e8\u6a2a\u5824\u897f\u5730\u533a\u4ed6\u571f\u58cc\u8abf\u67fb\u696d\u52d9","client_name":"\u56fd\u571f\u4ea4\u901a\u7701\u8fd1\u757f\u5730\u65b9\u6574\u5099\u5c40\u6d6a\u901f\u56fd\u9053\u4e8b\u52d9\u6240","boring_xml_url":47,"boring_view_url":1,"soilmap_view_url":null,"soiltest_xml_url":0,"soiltest_view_url":0},{"id":697974,"code":"NGIC202304523-0003","latitude":"34.708591472222","longitude":"135.57317069444","source_code":"","project_name":"\u6dc0\u5ddd\u5de6\u5cb8\u7dda\u5ef6\u4f38\u4e8b\u696d","survey_name":"\u6dc0\u5ddd\u5de6\u5cb8\u7dda\u5ef6\u4f38\u90e8\u6a2a\u5824\u897f\u5730\u533a\u4ed6\u571f\u58cc\u8abf\u67fb\u696d\u52d9","client_name":"\u56fd\u571f\u4ea4\u901a\u7701\u8fd1\u757f\u5730\u65b9\u6574\u5099\u5c40\u6d6a\u901f\u56fd\u9053\u4e8b\u52d9\u6240","boring_xml_url":47,"boring_view_url":1,"soilmap_view_url":null,"soiltest_xml_url":0,"soiltest_view_url":0},{"id":697973,"code":"NGIC202304523-0002","latitude":"34.708616694444","longitude":"135.57327605556","source_code":"","project_name":"\u6dc0\u5ddd\u5de6\u5cb8\u7dda\u5ef6\u4f38\u4e8b\u696d","survey_name":"\u6dc0\u5ddd\u5de6\u5cb8\u7dda\u5ef6\u4f38\u90e8\u6a2a\u5824\u897f\u5730\u533a\u4ed6\u571f\u58cc\u8abf\u67fb\u696d\u52d9","client_name":"\u56fd\u571f\u4ea4\u901a\u7701\u8fd1\u757f\u5730\u65b9\u6574\u5099\u5c40\u6d6a\u901f\u56fd\u9053\u4e8b\u52d9\u6240","boring_xml_url":47,"boring_view_url":1,"soilmap_view_url":null,"soiltest_xml_url":0,"soiltest_view_url":0},{"id":697972,"code":"NGIC202304523-0001","latitude":"34.708646083333","longitude":"135.57337941667","source_code":"","project_name":"\u6dc0\u5ddd\u5de6\u5cb8\u7dda\u5ef6\u4f38\u4e8b\u696d","survey_name":"\u6dc0\u5ddd\u5de6\u5cb8\u7dda\u5ef6\u4f38\u90e8\u6a2a\u5824\u897f\u5730\u533a\u4ed6\u571f\u58cc\u8abf\u67fb\u696d\u52d9","client_name":"\u56fd\u571f\u4ea4\u901a\u7701\u8fd1\u757f\u5730\u65b9\u6574\u5099\u5c40\u6d6a\u901f\u56fd\u9053\u4e8b\u52d9\u6240","boring_xml_url":47,"boring_view_url":1,"soilmap_view_url":null,"soiltest_xml_url":0,"soiltest_view_url":0},{"id":697964,"code":"NGIC202304773-0006","latitude":"33.607027777778","longitude":"130.437575","source_code":"","project_name":"","survey_name":"\u4ee4\u548c5\u5e74\u5ea6\u535a\u591a\u30d0\u30a4\u30d1\u30b9\u5730\u8cea\u8abf\u67fb\u696d\u52d9","client_name":"\u56fd\u571f\u4ea4\u901a\u7701\u4e5d\u5dde\u5730\u65b9\u6574\u5099\u5c40\u798f\u5ca1\u56fd\u9053\u4e8b\u52d9\u6240","boring_xml_url":47,"boring_view_url":1,"soilmap_view_url":null,"soiltest_xml_url":47,"soiltest_view_url":47},{"id":697963,"code":"NGIC202304773-0005","latitude":"33.607430555556","longitude":"130.43758055556","source_code":"","project_name":"","survey_name":"\u4ee4\u548c5\u5e74\u5ea6\u535a\u591a\u30d0\u30a4\u30d1\u30b9\u5730\u8cea\u8abf\u67fb\u696d\u52d9","client_name":"\u56fd\u571f\u4ea4\u901a\u7701\u4e5d\u5dde\u5730\u65b9\u6574\u5099\u5c40\u798f\u5ca1\u56fd\u9053\u4e8b\u52d9\u6240","boring_xml_url":47,"boring_view_url":1,"soilmap_view_url":null,"soiltest_xml_url":47,"soiltest_view_url":47},{"id":697962,"code":"NGIC202304773-0004","latitude":"33.60855","longitude":"130.43788333333","source_code":"","project_name":"","survey_name":"\u4ee4\u548c5\u5e74\u5ea6\u535a\u591a\u30d0\u30a4\u30d1\u30b9\u5730\u8cea\u8abf\u67fb\u696d\u52d9","client_name":"\u56fd\u571f\u4ea4\u901a\u7701\u4e5d\u5dde\u5730\u65b9\u6574\u5099\u5c40\u798f\u5ca1\u56fd\u9053\u4e8b\u52d9\u6240","boring_xml_url":47,"boring_view_url":1,"soilmap_view_url":null,"soiltest_xml_url":47,"soiltest_view_url":47},{"id":697961,"code":"NGIC202304773-0003","latitude":"33.608947222222","longitude":"130.43795555556","source_code":"","project_name":"","survey_name":"\u4ee4\u548c5\u5e74\u5ea6\u535a\u591a\u30d0\u30a4\u30d1\u30b9\u5730\u8cea\u8abf\u67fb\u696d\u52d9","client_name":"\u56fd\u571f\u4ea4\u901a\u7701\u4e5d\u5dde\u5730\u65b9\u6574\u5099\u5c40\u798f\u5ca1\u56fd\u9053\u4e8b\u52d9\u6240","boring_xml_url":47,"boring_view_url":1,"soilmap_view_url":null,"soiltest_xml_url":47,"soiltest_view_url":47},{"id":697960,"code":"NGIC202304773-0002","latitude":"33.609822222222","longitude":"130.43785277778","source_code":"","project_name":"","survey_name":"\u4ee4\u548c5\u5e74\u5ea6\u535a\u591a\u30d0\u30a4\u30d1\u30b9\u5730\u8cea\u8abf\u67fb\u696d\u52d9","client_name":"\u56fd\u571f\u4ea4\u901a\u7701\u4e5d\u5dde\u5730\u65b9\u6574\u5099\u5c40\u798f\u5ca1\u56fd\u9053\u4e8b\u52d9\u6240","boring_xml_url":47,"boring_view_url":1,"soilmap_view_url":null,"soiltest_xml_url":47,"soiltest_view_url":47},{"id":697959,"code":"NGIC202304773-0001","latitude":"33.610219444444","longitude":"130.43780833333","source_code":"","project_name":"","survey_name":"\u4ee4\u548c5\u5e74\u5ea6\u535a\u591a\u30d0\u30a4\u30d1\u30b9\u5730\u8cea\u8abf\u67fb\u696d\u52d9","client_name":"\u56fd\u571f\u4ea4\u901a\u7701\u4e5d\u5dde\u5730\u65b9\u6574\u5099\u5c40\u798f\u5ca1\u56fd\u9053\u4e8b\u52d9\u6240","boring_xml_url":47,"boring_view_url":1,"soilmap_view_url":null,"soiltest_xml_url":47,"soiltest_view_url":47},{"id":697949,"code":"NGIC202305135-0003","latitude":"43.086317083333","longitude":"140.72305383333","source_code":"","project_name":"","survey_name":"\u4e00\u822c\u56fd\u90535\u53f7 \u5036\u77e5\u5b89\u753a\u5916 \u5036\u77e5\u5b89\u6c34\u6587\u72b6\u6cc1\u8abf\u67fb\u696d\u52d9","client_name":"\u56fd\u571f\u4ea4\u901a\u7701\u5317\u6d77\u9053\u958b\u767a\u5c40\u5c0f\u6a3d\u958b\u767a\u5efa\u8a2d\u90e8","boring_xml_url":47,"boring_view_url":1,"soilmap_view_url":null,"soiltest_xml_url":0,"soiltest_view_url":0},{"id":697948,"code":"NGIC202305135-0002","latitude":"43.085448277778","longitude":"140.72334705556","source_code":"","project_name":"","survey_name":"\u4e00\u822c\u56fd\u90535\u53f7 \u5036\u77e5\u5b89\u753a\u5916 \u5036\u77e5\u5b89\u6c34\u6587\u72b6\u6cc1\u8abf\u67fb\u696d\u52d9","client_name":"\u56fd\u571f\u4ea4\u901a\u7701\u5317\u6d77\u9053\u958b\u767a\u5c40\u5c0f\u6a3d\u958b\u767a\u5efa\u8a2d\u90e8","boring_xml_url":47,"boring_view_url":1,"soilmap_view_url":null,"soiltest_xml_url":0,"soiltest_view_url":0},{"id":697947,"code":"NGIC202305135-0001","latitude":"43.085740305556","longitude":"140.72642686111","source_code":"","project_name":"","survey_name":"\u4e00\u822c\u56fd\u90535\u53f7 \u5036\u77e5\u5b89\u753a\u5916 \u5036\u77e5\u5b89\u6c34\u6587\u72b6\u6cc1\u8abf\u67fb\u696d\u52d9","client_name":"\u56fd\u571f\u4ea4\u901a\u7701\u5317\u6d77\u9053\u958b\u767a\u5c40\u5c0f\u6a3d\u958b\u767a\u5efa\u8a2d\u90e8","boring_xml_url":47,"boring_view_url":1,"soilmap_view_url":null,"soiltest_xml_url":0,"soiltest_view_url":0},{"id":697946,"code":"NGIC202304761-0006","latitude":"34.250203888889","longitude":"131.09020694444","source_code":"","project_name":"","survey_name":"\u4ee4\u548c4\u5e74\u5ea6\u4ff5\u5c71\u30fb\u8c4a\u7530\u9053\u8def\u5730\u3059\u3079\u308a\u8abf\u67fb\u8a2d\u8a08\u696d\u52d9","client_name":"\u56fd\u571f\u4ea4\u901a\u7701\u4e2d\u56fd\u5730\u65b9\u6574\u5099\u5c40\u5c71\u9670\u897f\u90e8\u56fd\u9053\u4e8b\u52d9\u6240\u3000\u5de5\u52d9\u8ab2","boring_xml_url":47,"boring_view_url":1,"soilmap_view_url":null,"soiltest_xml_url":0,"soiltest_view_url":0},{"id":697945,"code":"NGIC202304761-0005","latitude":"34.254878055556","longitude":"131.09198638889","source_code":"","project_name":"","survey_name":"\u4ee4\u548c4\u5e74\u5ea6\u4ff5\u5c71\u30fb\u8c4a\u7530\u9053\u8def\u5730\u3059\u3079\u308a\u8abf\u67fb\u8a2d\u8a08\u696d\u52d9","client_name":"\u56fd\u571f\u4ea4\u901a\u7701\u4e2d\u56fd\u5730\u65b9\u6574\u5099\u5c40\u5c71\u9670\u897f\u90e8\u56fd\u9053\u4e8b\u52d9\u6240\u3000\u5de5\u52d9\u8ab2","boring_xml_url":47,"boring_view_url":1,"soilmap_view_url":null,"soiltest_xml_url":0,"soiltest_view_url":0},{"id":697944,"code":"NGIC202304761-0004","latitude":"34.254635277778","longitude":"131.09265333333","source_code":"","project_name":"","survey_name":"\u4ee4\u548c4\u5e74\u5ea6\u4ff5\u5c71\u30fb\u8c4a\u7530\u9053\u8def\u5730\u3059\u3079\u308a\u8abf\u67fb\u8a2d\u8a08\u696d\u52d9","client_name":"\u56fd\u571f\u4ea4\u901a\u7701\u4e2d\u56fd\u5730\u65b9\u6574\u5099\u5c40\u5c71\u9670\u897f\u90e8\u56fd\u9053\u4e8b\u52d9\u6240\u3000\u5de5\u52d9\u8ab2","boring_xml_url":47,"boring_view_url":1,"soilmap_view_url":null,"soiltest_xml_url":0,"soiltest_view_url":0},{"id":697943,"code":"NGIC202304761-0003","latitude":"34.25593","longitude":"131.09138611111","source_code":"","project_name":"","survey_name":"\u4ee4\u548c4\u5e74\u5ea6\u4ff5\u5c71\u30fb\u8c4a\u7530\u9053\u8def\u5730\u3059\u3079\u308a\u8abf\u67fb\u8a2d\u8a08\u696d\u52d9","client_name":"\u56fd\u571f\u4ea4\u901a\u7701\u4e2d\u56fd\u5730\u65b9\u6574\u5099\u5c40\u5c71\u9670\u897f\u90e8\u56fd\u9053\u4e8b\u52d9\u6240\u3000\u5de5\u52d9\u8ab2","boring_xml_url":47,"boring_view_url":1,"soilmap_view_url":null,"soiltest_xml_url":0,"soiltest_view_url":0},{"id":697942,"code":"NGIC202304761-0002","latitude":"34.255528055556","longitude":"131.09223555556","source_code":"","project_name":"","survey_name":"\u4ee4\u548c4\u5e74\u5ea6\u4ff5\u5c71\u30fb\u8c4a\u7530\u9053\u8def\u5730\u3059\u3079\u308a\u8abf\u67fb\u8a2d\u8a08\u696d\u52d9","client_name":"\u56fd\u571f\u4ea4\u901a\u7701\u4e2d\u56fd\u5730\u65b9\u6574\u5099\u5c40\u5c71\u9670\u897f\u90e8\u56fd\u9053\u4e8b\u52d9\u6240\u3000\u5de5\u52d9\u8ab2","boring_xml_url":47,"boring_view_url":1,"soilmap_view_url":null,"soiltest_xml_url":0,"soiltest_view_url":0},{"id":697941,"code":"NGIC202304761-0001","latitude":"34.269912777778","longitude":"131.09860861111","source_code":"","project_name":"","survey_name":"\u4ee4\u548c4\u5e74\u5ea6\u4ff5\u5c71\u30fb\u8c4a\u7530\u9053\u8def\u5730\u3059\u3079\u308a\u8abf\u67fb\u8a2d\u8a08\u696d\u52d9","client_name":"\u56fd\u571f\u4ea4\u901a\u7701\u4e2d\u56fd\u5730\u65b9\u6574\u5099\u5c40\u5c71\u9670\u897f\u90e8\u56fd\u9053\u4e8b\u52d9\u6240\u3000\u5de5\u52d9\u8ab2","boring_xml_url":47,"boring_view_url":1,"soilmap_view_url":null,"soiltest_xml_url":0,"soiltest_view_url":0},{"id":697940,"code":"NGIC202305144-0002","latitude":"43.957402777778","longitude":"144.19884722222","source_code":"","project_name":"\u7db2\u8d70\u958b\u767a\u5efa\u8a2d\u90e8\u7ba1\u5185\u8b77\u5cb8\u8a2d\u8a08\u5916\u696d\u52d9","survey_name":"\u7db2\u8d70\u958b\u767a\u5efa\u8a2d\u90e8\u7ba1\u5185\u8b77\u5cb8\u8a2d\u8a08\u5916\u696d\u52d9","client_name":"\u56fd\u571f\u4ea4\u901a\u7701\u5317\u6d77\u9053\u958b\u767a\u5c40\u7db2\u8d70\u958b\u767a\u5efa\u8a2d\u90e8\u672c\u90e8","boring_xml_url":47,"boring_view_url":1,"soilmap_view_url":null,"soiltest_xml_url":47,"soiltest_view_url":47},{"id":697939,"code":"NGIC202305144-0001","latitude":"44.082519444444","longitude":"143.53210833333","source_code":"","project_name":"\u7db2\u8d70\u958b\u767a\u5efa\u8a2d\u90e8\u7ba1\u5185\u8b77\u5cb8\u8a2d\u8a08\u5916\u696d\u52d9","survey_name":"\u7db2\u8d70\u958b\u767a\u5efa\u8a2d\u90e8\u7ba1\u5185\u8b77\u5cb8\u8a2d\u8a08\u5916\u696d\u52d9","client_name":"\u56fd\u571f\u4ea4\u901a\u7701\u5317\u6d77\u9053\u958b\u767a\u5c40\u7db2\u8d70\u958b\u767a\u5efa\u8a2d\u90e8\u672c\u90e8","boring_xml_url":47,"boring_view_url":1,"soilmap_view_url":null,"soiltest_xml_url":47,"soiltest_view_url":47}]}}