{"header":{"xyz":{"source":[],"mosaic":false},"page":5907,"raw":{"soiltest_result":"0","bbox":"57.598333,109.544722,1.933333,163.806111","page":"5907"},"conditions":{"soiltest_result":0,"north":57.598333,"west":109.544722,"south":1.933333,"east":163.806111},"success":true,"message":""},"data":{"meta":{"total":212844,"page":5907,"pages":7095,"count":30},"values":[{"id":143365,"code":"B4KJ201801003-1614","latitude":"39.55478","longitude":"140.36481","source_code":"TH59402269004","project_name":"","survey_name":"\u662d\u548c60\u5e74\u5ea6\u5208\u548c\u91ce\u30d0\u30a4\u30d1\u30b9\u5730\u76e4\u8abf\u67fb","client_name":"\u56fd\u571f\u4ea4\u901a\u7701\u6771\u5317\u5730\u65b9\u6574\u5099\u5c40\u6e6f\u6ca2\u6cb3\u5ddd\u56fd\u9053\u4e8b\u52d9\u6240","boring_xml_url":40,"boring_view_url":1,"soilmap_view_url":null,"soiltest_xml_url":0,"soiltest_view_url":0},{"id":143364,"code":"B4KJ201801003-1613","latitude":"39.55489","longitude":"140.36433","source_code":"TH59402269003","project_name":"","survey_name":"\u662d\u548c56\u5e74\u5ea6\u5208\u548c\u91ce\u30d0\u30a4\u30d1\u30b9\u5730\u76e4\u8abf\u67fb","client_name":"\u56fd\u571f\u4ea4\u901a\u7701\u6771\u5317\u5730\u65b9\u6574\u5099\u5c40\u6e6f\u6ca2\u6cb3\u5ddd\u56fd\u9053\u4e8b\u52d9\u6240","boring_xml_url":40,"boring_view_url":1,"soilmap_view_url":null,"soiltest_xml_url":0,"soiltest_view_url":0},{"id":143363,"code":"B4KJ201801003-1612","latitude":"39.55522","longitude":"140.36669","source_code":"TH59402269002","project_name":"","survey_name":"\u662d\u548c56\u5e74\u5ea6\u5208\u548c\u91ce\u30d0\u30a4\u30d1\u30b9\u5730\u76e4\u8abf\u67fb","client_name":"\u56fd\u571f\u4ea4\u901a\u7701\u6771\u5317\u5730\u65b9\u6574\u5099\u5c40\u6e6f\u6ca2\u6cb3\u5ddd\u56fd\u9053\u4e8b\u52d9\u6240","boring_xml_url":40,"boring_view_url":1,"soilmap_view_url":null,"soiltest_xml_url":0,"soiltest_view_url":0},{"id":143362,"code":"B4KJ201801003-1611","latitude":"39.55533","longitude":"140.36803","source_code":"TH59402269001","project_name":"","survey_name":"\u662d\u548c56\u5e74\u5ea6\u5208\u548c\u91ce\u30d0\u30a4\u30d1\u30b9\u5730\u76e4\u8abf\u67fb","client_name":"\u56fd\u571f\u4ea4\u901a\u7701\u6771\u5317\u5730\u65b9\u6574\u5099\u5c40\u6e6f\u6ca2\u6cb3\u5ddd\u56fd\u9053\u4e8b\u52d9\u6240","boring_xml_url":40,"boring_view_url":1,"soilmap_view_url":null,"soiltest_xml_url":0,"soiltest_view_url":0},{"id":143361,"code":"B4KJ201801003-1610","latitude":"39.55775","longitude":"140.30736","source_code":"TH59402264001","project_name":"","survey_name":"\u96c4\u7269\u5ddd\u4e2d\u6d41\u5730\u533a\u5730\u8cea\u8abf\u67fb","client_name":"\u56fd\u571f\u4ea4\u901a\u7701\u6771\u5317\u5730\u65b9\u6574\u5099\u5c40\u6e6f\u6ca2\u6cb3\u5ddd\u56fd\u9053\u4e8b\u52d9\u6240","boring_xml_url":40,"boring_view_url":1,"soilmap_view_url":null,"soiltest_xml_url":43,"soiltest_view_url":43},{"id":143360,"code":"B4KJ201801003-1609","latitude":"39.55847","longitude":"140.28864","source_code":"TH59402263002","project_name":"","survey_name":"\u5e73\u62105\u5e74\u5ea6\u5f37\u9996\u5730\u533a\u8f2a\u4e2d\u5824\u5185\u5730\u8a08\u753b\u8abf\u67fb","client_name":"\u56fd\u571f\u4ea4\u901a\u7701\u6771\u5317\u5730\u65b9\u6574\u5099\u5c40\u6e6f\u6ca2\u6cb3\u5ddd\u56fd\u9053\u4e8b\u52d9\u6240","boring_xml_url":40,"boring_view_url":1,"soilmap_view_url":null,"soiltest_xml_url":0,"soiltest_view_url":0},{"id":143359,"code":"B4KJ201801003-1608","latitude":"39.56072","longitude":"140.286","source_code":"TH59402263001","project_name":"","survey_name":"\u96c4\u7269\u5ddd\u4e2d\u6d41\u5730\u533a\u5730\u8cea\u8abf\u67fb","client_name":"\u56fd\u571f\u4ea4\u901a\u7701\u6771\u5317\u5730\u65b9\u6574\u5099\u5c40\u6e6f\u6ca2\u6cb3\u5ddd\u56fd\u9053\u4e8b\u52d9\u6240","boring_xml_url":40,"boring_view_url":1,"soilmap_view_url":null,"soiltest_xml_url":43,"soiltest_view_url":43},{"id":143358,"code":"B4KJ201801003-1607","latitude":"39.55997","longitude":"140.28369","source_code":"TH59402262012","project_name":"","survey_name":"\u5e73\u62109\u5e74\u5ea6 \u5f37\u9996\u5730\u533a\u6392\u6c34\u6a0b\u7ba1\u5b9f\u65bd\u8a2d\u8a08\u696d\u52d9\u59d4\u8a17","client_name":"\u56fd\u571f\u4ea4\u901a\u7701\u6771\u5317\u5730\u65b9\u6574\u5099\u5c40\u6e6f\u6ca2\u6cb3\u5ddd\u56fd\u9053\u4e8b\u52d9\u6240","boring_xml_url":40,"boring_view_url":1,"soilmap_view_url":null,"soiltest_xml_url":43,"soiltest_view_url":43},{"id":143357,"code":"B4KJ201801003-1606","latitude":"39.5555","longitude":"140.28281","source_code":"TH59402262011","project_name":"","survey_name":"\u5f37\u9996\u5730\u533a\u9632\u707d\u30b9\u30c6\u30fc\u30b7\u30e7\u30f3\u5b9f\u65bd\u8a2d\u8a08\u696d\u52d9\u59d4\u8a17","client_name":"\u56fd\u571f\u4ea4\u901a\u7701\u6771\u5317\u5730\u65b9\u6574\u5099\u5c40\u6e6f\u6ca2\u6cb3\u5ddd\u56fd\u9053\u4e8b\u52d9\u6240","boring_xml_url":40,"boring_view_url":1,"soilmap_view_url":null,"soiltest_xml_url":43,"soiltest_view_url":43},{"id":143356,"code":"B4KJ201801003-1605","latitude":"39.55639","longitude":"140.27892","source_code":"TH59402262010","project_name":"","survey_name":"\u5e73\u62109\u5e74\u5ea6 \u5f37\u9996\u5730\u533a\u6392\u6c34\u6a0b\u7ba1\u5b9f\u65bd\u8a2d\u8a08\u696d\u52d9\u59d4\u8a17","client_name":"\u56fd\u571f\u4ea4\u901a\u7701\u6771\u5317\u5730\u65b9\u6574\u5099\u5c40\u6e6f\u6ca2\u6cb3\u5ddd\u56fd\u9053\u4e8b\u52d9\u6240","boring_xml_url":40,"boring_view_url":1,"soilmap_view_url":null,"soiltest_xml_url":43,"soiltest_view_url":43},{"id":143355,"code":"B4KJ201801003-1604","latitude":"39.54947","longitude":"140.36211","source_code":"TH59402259003","project_name":"","survey_name":"\u4e09\u679a\u6a4b\u6a0b\u9580\u5b9f\u65bd\u8a2d\u8a08\u696d\u52d9","client_name":"\u56fd\u571f\u4ea4\u901a\u7701\u6771\u5317\u5730\u65b9\u6574\u5099\u5c40\u6e6f\u6ca2\u6cb3\u5ddd\u56fd\u9053\u4e8b\u52d9\u6240","boring_xml_url":40,"boring_view_url":1,"soilmap_view_url":null,"soiltest_xml_url":0,"soiltest_view_url":0},{"id":143354,"code":"B4KJ201801003-1603","latitude":"39.54822","longitude":"140.35892","source_code":"TH59402258002","project_name":"","survey_name":"\u5317\u91ce\u76ee\u6392\u6c34\u6a0b\u9580\u6e2c\u91cf\u8abf\u67fb\u53ca\u3073\u5b9f\u65bd\u8a2d\u8a08\u696d\u52d9\u59d4\u8a17","client_name":"\u56fd\u571f\u4ea4\u901a\u7701\u6771\u5317\u5730\u65b9\u6574\u5099\u5c40\u6e6f\u6ca2\u6cb3\u5ddd\u56fd\u9053\u4e8b\u52d9\u6240","boring_xml_url":40,"boring_view_url":1,"soilmap_view_url":null,"soiltest_xml_url":0,"soiltest_view_url":0},{"id":143353,"code":"B4KJ201801003-1602","latitude":"39.54822","longitude":"140.35892","source_code":"TH59402258001","project_name":"","survey_name":"\u5317\u91ce\u76ee\u6392\u6c34\u6a0b\u9580\u6e2c\u91cf\u8abf\u67fb\u53ca\u3073\u5b9f\u65bd\u8a2d\u8a08\u696d\u52d9\u59d4\u8a17","client_name":"\u56fd\u571f\u4ea4\u901a\u7701\u6771\u5317\u5730\u65b9\u6574\u5099\u5c40\u6e6f\u6ca2\u6cb3\u5ddd\u56fd\u9053\u4e8b\u52d9\u6240","boring_xml_url":40,"boring_view_url":1,"soilmap_view_url":null,"soiltest_xml_url":0,"soiltest_view_url":0},{"id":143352,"code":"B4KJ201801003-1601","latitude":"39.55011","longitude":"140.27403","source_code":"TH59402252001","project_name":"","survey_name":"\u96c4\u7269\u5ddd\u4e2d\u6d41\u5730\u533a\u5730\u8cea\u8abf\u67fb","client_name":"\u56fd\u571f\u4ea4\u901a\u7701\u6771\u5317\u5730\u65b9\u6574\u5099\u5c40\u6e6f\u6ca2\u6cb3\u5ddd\u56fd\u9053\u4e8b\u52d9\u6240","boring_xml_url":40,"boring_view_url":1,"soilmap_view_url":null,"soiltest_xml_url":43,"soiltest_view_url":43},{"id":143351,"code":"B4KJ201801003-1600","latitude":"39.52869","longitude":"140.27403","source_code":"TH59402232001","project_name":"","survey_name":"\u96c4\u7269\u5ddd\u4e2d\u6d41\u5730\u533a\u5730\u8cea\u8abf\u67fb","client_name":"\u56fd\u571f\u4ea4\u901a\u7701\u6771\u5317\u5730\u65b9\u6574\u5099\u5c40\u6e6f\u6ca2\u6cb3\u5ddd\u56fd\u9053\u4e8b\u52d9\u6240","boring_xml_url":40,"boring_view_url":1,"soilmap_view_url":null,"soiltest_xml_url":43,"soiltest_view_url":43},{"id":143350,"code":"B4KJ201801003-1599","latitude":"39.51519","longitude":"140.27053","source_code":"TH59402211001","project_name":"","survey_name":"\u96c4\u7269\u5ddd\u4e2d\u6d41\u5730\u533a\u5730\u8cea\u8abf\u67fb","client_name":"\u56fd\u571f\u4ea4\u901a\u7701\u6771\u5317\u5730\u65b9\u6574\u5099\u5c40\u6e6f\u6ca2\u6cb3\u5ddd\u56fd\u9053\u4e8b\u52d9\u6240","boring_xml_url":40,"boring_view_url":1,"soilmap_view_url":null,"soiltest_xml_url":43,"soiltest_view_url":43},{"id":143349,"code":"B4KJ201801003-1598","latitude":"39.51294","longitude":"140.25592","source_code":"TH59402210001","project_name":"","survey_name":"\u96c4\u7269\u5ddd\u4e2d\u6d41\u5730\u533a\u5730\u8cea\u8abf\u67fb","client_name":"\u56fd\u571f\u4ea4\u901a\u7701\u6771\u5317\u5730\u65b9\u6574\u5099\u5c40\u6e6f\u6ca2\u6cb3\u5ddd\u56fd\u9053\u4e8b\u52d9\u6240","boring_xml_url":40,"boring_view_url":1,"soilmap_view_url":null,"soiltest_xml_url":43,"soiltest_view_url":43},{"id":143348,"code":"B4KJ201801003-1597","latitude":"39.58108","longitude":"140.20078","source_code":"TH59402196001","project_name":"","survey_name":"\u662d\u548c58\u5e74\u5ea6\u96c4\u7269\u5ddd\u4e0b\u6d41\u5730\u533a\u5730\u8cea\u8abf\u67fb","client_name":"\u56fd\u571f\u4ea4\u901a\u7701\u6771\u5317\u5730\u65b9\u6574\u5099\u5c40\u79cb\u7530\u6cb3\u5ddd\u56fd\u9053\u4e8b\u52d9\u6240","boring_xml_url":40,"boring_view_url":1,"soilmap_view_url":null,"soiltest_xml_url":0,"soiltest_view_url":0},{"id":143347,"code":"B4KJ201801003-1596","latitude":"39.57167","longitude":"140.20739","source_code":"TH59402186001","project_name":"","survey_name":"\u662d\u548c58\u5e74\u5ea6\u96c4\u7269\u5ddd\u4e0b\u6d41\u5730\u533a\u5730\u8cea\u8abf\u67fb","client_name":"\u56fd\u571f\u4ea4\u901a\u7701\u6771\u5317\u5730\u65b9\u6574\u5099\u5c40\u79cb\u7530\u6cb3\u5ddd\u56fd\u9053\u4e8b\u52d9\u6240","boring_xml_url":40,"boring_view_url":1,"soilmap_view_url":null,"soiltest_xml_url":0,"soiltest_view_url":0},{"id":143346,"code":"B4KJ201801003-1595","latitude":"39.56256","longitude":"140.21544","source_code":"TH59402177001","project_name":"","survey_name":"\u662d\u548c58\u5e74\u5ea6\u96c4\u7269\u5ddd\u4e0b\u6d41\u5730\u533a\u5730\u8cea\u8abf\u67fb","client_name":"\u56fd\u571f\u4ea4\u901a\u7701\u6771\u5317\u5730\u65b9\u6574\u5099\u5c40\u79cb\u7530\u6cb3\u5ddd\u56fd\u9053\u4e8b\u52d9\u6240","boring_xml_url":40,"boring_view_url":1,"soilmap_view_url":null,"soiltest_xml_url":0,"soiltest_view_url":0},{"id":143345,"code":"B4KJ201801003-1594","latitude":"39.55397","longitude":"140.21611","source_code":"TH59402167001","project_name":"","survey_name":"\u662d\u548c58\u5e74\u5ea6\u96c4\u7269\u5ddd\u4e0b\u6d41\u5730\u533a\u5730\u8cea\u8abf\u67fb","client_name":"\u56fd\u571f\u4ea4\u901a\u7701\u6771\u5317\u5730\u65b9\u6574\u5099\u5c40\u79cb\u7530\u6cb3\u5ddd\u56fd\u9053\u4e8b\u52d9\u6240","boring_xml_url":40,"boring_view_url":1,"soilmap_view_url":null,"soiltest_xml_url":0,"soiltest_view_url":0},{"id":143344,"code":"B4KJ201801003-1593","latitude":"39.53681","longitude":"140.24461","source_code":"TH59402149001","project_name":"","survey_name":"\u96c4\u7269\u5ddd\u4e2d\u6d41\u5730\u533a\u5730\u8cea\u8abf\u67fb","client_name":"\u56fd\u571f\u4ea4\u901a\u7701\u6771\u5317\u5730\u65b9\u6574\u5099\u5c40\u6e6f\u6ca2\u6cb3\u5ddd\u56fd\u9053\u4e8b\u52d9\u6240","boring_xml_url":40,"boring_view_url":1,"soilmap_view_url":null,"soiltest_xml_url":43,"soiltest_view_url":43},{"id":143343,"code":"B4KJ201801003-1592","latitude":"39.53881","longitude":"140.2135","source_code":"TH59402147001","project_name":"","survey_name":"\u662d\u548c58\u5e74\u5ea6\u96c4\u7269\u5ddd\u4e0b\u6d41\u5730\u533a\u5730\u8cea\u8abf\u67fb","client_name":"\u56fd\u571f\u4ea4\u901a\u7701\u6771\u5317\u5730\u65b9\u6574\u5099\u5c40\u79cb\u7530\u6cb3\u5ddd\u56fd\u9053\u4e8b\u52d9\u6240","boring_xml_url":40,"boring_view_url":1,"soilmap_view_url":null,"soiltest_xml_url":0,"soiltest_view_url":0},{"id":143342,"code":"B4KJ201801003-1591","latitude":"39.53533","longitude":"140.23558","source_code":"TH59402139001","project_name":"","survey_name":"\u662d\u548c58\u5e74\u5ea6\u96c4\u7269\u5ddd\u4e0b\u6d41\u5730\u533a\u5730\u8cea\u8abf\u67fb","client_name":"\u56fd\u571f\u4ea4\u901a\u7701\u6771\u5317\u5730\u65b9\u6574\u5099\u5c40\u79cb\u7530\u6cb3\u5ddd\u56fd\u9053\u4e8b\u52d9\u6240","boring_xml_url":40,"boring_view_url":1,"soilmap_view_url":null,"soiltest_xml_url":0,"soiltest_view_url":0},{"id":143341,"code":"B4KJ201801003-1590","latitude":"39.53089","longitude":"140.23364","source_code":"TH59402138003","project_name":"","survey_name":"\u662d\u548c54\u5e74\u5ea6\u65b0\u6ce2\u5730\u533a\u5730\u76e4\u8abf\u67fb","client_name":"\u56fd\u571f\u4ea4\u901a\u7701\u6771\u5317\u5730\u65b9\u6574\u5099\u5c40\u79cb\u7530\u6cb3\u5ddd\u56fd\u9053\u4e8b\u52d9\u6240","boring_xml_url":40,"boring_view_url":1,"soilmap_view_url":null,"soiltest_xml_url":0,"soiltest_view_url":0},{"id":143340,"code":"B4KJ201801003-1589","latitude":"39.53197","longitude":"140.22781","source_code":"TH59402138002","project_name":"","survey_name":"\u662d\u548c54\u5e74\u5ea6\u65b0\u6ce2\u5730\u533a\u5730\u76e4\u8abf\u67fb","client_name":"\u56fd\u571f\u4ea4\u901a\u7701\u6771\u5317\u5730\u65b9\u6574\u5099\u5c40\u79cb\u7530\u6cb3\u5ddd\u56fd\u9053\u4e8b\u52d9\u6240","boring_xml_url":40,"boring_view_url":1,"soilmap_view_url":null,"soiltest_xml_url":0,"soiltest_view_url":0},{"id":143339,"code":"B4KJ201801003-1588","latitude":"39.53125","longitude":"140.23317","source_code":"TH59402138001","project_name":"","survey_name":"\u662d\u548c54\u5e74\u5ea6\u65b0\u6ce2\u5730\u533a\u5730\u76e4\u8abf\u67fb","client_name":"\u56fd\u571f\u4ea4\u901a\u7701\u6771\u5317\u5730\u65b9\u6574\u5099\u5c40\u79cb\u7530\u6cb3\u5ddd\u56fd\u9053\u4e8b\u52d9\u6240","boring_xml_url":40,"boring_view_url":1,"soilmap_view_url":null,"soiltest_xml_url":0,"soiltest_view_url":0},{"id":143338,"code":"B4KJ201801003-1587","latitude":"39.54067","longitude":"140.05294","source_code":"TH59402044002","project_name":"","survey_name":"\u9053\u5ddd\u8de8\u7dda\u6a4b\u5074\u9053\u6a4b\u8a73\u7d30\u8a2d\u8a08\u696d\u52d9\u59d4\u8a17","client_name":"\u56fd\u571f\u4ea4\u901a\u7701\u6771\u5317\u5730\u65b9\u6574\u5099\u5c40\u79cb\u7530\u6cb3\u5ddd\u56fd\u9053\u4e8b\u52d9\u6240","boring_xml_url":40,"boring_view_url":1,"soilmap_view_url":null,"soiltest_xml_url":0,"soiltest_view_url":0},{"id":143337,"code":"B4KJ201801003-1586","latitude":"39.53953","longitude":"140.05347","source_code":"TH59402044001","project_name":"","survey_name":"\u9053\u5ddd\u8de8\u7dda\u6a4b\u5074\u9053\u6a4b\u8a73\u7d30\u8a2d\u8a08\u696d\u52d9\u59d4\u8a17","client_name":"\u56fd\u571f\u4ea4\u901a\u7701\u6771\u5317\u5730\u65b9\u6574\u5099\u5c40\u79cb\u7530\u6cb3\u5ddd\u56fd\u9053\u4e8b\u52d9\u6240","boring_xml_url":40,"boring_view_url":1,"soilmap_view_url":null,"soiltest_xml_url":0,"soiltest_view_url":0},{"id":143336,"code":"B4KJ201801003-1585","latitude":"39.47367","longitude":"140.50278","source_code":"TH59401460003","project_name":"","survey_name":"\u5927\u66f2\u30d0\u30a4\u30d1\u30b9\u7b2c2\u5730\u76e4\u8abf\u67fb","client_name":"\u56fd\u571f\u4ea4\u901a\u7701\u6771\u5317\u5730\u65b9\u6574\u5099\u5c40\u6e6f\u6ca2\u6cb3\u5ddd\u56fd\u9053\u4e8b\u52d9\u6240","boring_xml_url":40,"boring_view_url":1,"soilmap_view_url":null,"soiltest_xml_url":0,"soiltest_view_url":0}]}}