{"header":{"xyz":{"source":[],"mosaic":false},"page":591,"raw":{"soiltest_result":"0","bbox":"57.598333,109.544722,1.933333,163.806111","page":"591"},"conditions":{"soiltest_result":0,"north":57.598333,"west":109.544722,"south":1.933333,"east":163.806111},"success":true,"message":""},"data":{"meta":{"total":212844,"page":591,"pages":7095,"count":30},"values":[{"id":527688,"code":"B4KJ202201003-0224","latitude":"34.026331","longitude":"132.98515","source_code":"158850622000120006","project_name":"\u5e73\u621027\u5e74\u5ea6\u3000\u4eca\u6cbb\u9053\u8def\uff08\u4e94\u5341\u5d50\u5730\u533a\uff09\u5730\u8cea\u8abf\u67fb\u696d\u52d9","survey_name":"\u5e73\u621027\u5e74\u5ea6\u3000\u4eca\u6cbb\u9053\u8def\uff08\u4e94\u5341\u5d50\u5730\u533a\uff09\u5730\u8cea\u8abf\u67fb\u696d\u52d9","client_name":"\u56fd\u571f\u4ea4\u901a\u7701\u56db\u56fd\u5730\u65b9\u6574\u5099\u5c40\u677e\u5c71\u6cb3\u5ddd\u56fd\u9053\u4e8b\u52d9\u6240","boring_xml_url":64,"boring_view_url":1,"soilmap_view_url":null,"soiltest_xml_url":0,"soiltest_view_url":0},{"id":527687,"code":"B4KJ202201003-0223","latitude":"34.035267","longitude":"132.976567","source_code":"158850622000120005","project_name":"\u5e73\u621027\u5e74\u5ea6\u3000\u4eca\u6cbb\u9053\u8def\uff08\u4e94\u5341\u5d50\u5730\u533a\uff09\u5730\u8cea\u8abf\u67fb\u696d\u52d9","survey_name":"\u5e73\u621027\u5e74\u5ea6\u3000\u4eca\u6cbb\u9053\u8def\uff08\u4e94\u5341\u5d50\u5730\u533a\uff09\u5730\u8cea\u8abf\u67fb\u696d\u52d9","client_name":"\u56fd\u571f\u4ea4\u901a\u7701\u56db\u56fd\u5730\u65b9\u6574\u5099\u5c40\u677e\u5c71\u6cb3\u5ddd\u56fd\u9053\u4e8b\u52d9\u6240","boring_xml_url":64,"boring_view_url":1,"soilmap_view_url":null,"soiltest_xml_url":0,"soiltest_view_url":0},{"id":527686,"code":"B4KJ202201003-0222","latitude":"34.030611","longitude":"132.979883","source_code":"158850622000120004","project_name":"\u5e73\u621027\u5e74\u5ea6\u3000\u4eca\u6cbb\u9053\u8def\uff08\u4e94\u5341\u5d50\u5730\u533a\uff09\u5730\u8cea\u8abf\u67fb\u696d\u52d9","survey_name":"\u5e73\u621027\u5e74\u5ea6\u3000\u4eca\u6cbb\u9053\u8def\uff08\u4e94\u5341\u5d50\u5730\u533a\uff09\u5730\u8cea\u8abf\u67fb\u696d\u52d9","client_name":"\u56fd\u571f\u4ea4\u901a\u7701\u56db\u56fd\u5730\u65b9\u6574\u5099\u5c40\u677e\u5c71\u6cb3\u5ddd\u56fd\u9053\u4e8b\u52d9\u6240","boring_xml_url":64,"boring_view_url":1,"soilmap_view_url":null,"soiltest_xml_url":0,"soiltest_view_url":0},{"id":527685,"code":"B4KJ202201003-0221","latitude":"34.032089","longitude":"132.978822","source_code":"158850622000120003","project_name":"\u5e73\u621027\u5e74\u5ea6\u3000\u4eca\u6cbb\u9053\u8def\uff08\u4e94\u5341\u5d50\u5730\u533a\uff09\u5730\u8cea\u8abf\u67fb\u696d\u52d9","survey_name":"\u5e73\u621027\u5e74\u5ea6\u3000\u4eca\u6cbb\u9053\u8def\uff08\u4e94\u5341\u5d50\u5730\u533a\uff09\u5730\u8cea\u8abf\u67fb\u696d\u52d9","client_name":"\u56fd\u571f\u4ea4\u901a\u7701\u56db\u56fd\u5730\u65b9\u6574\u5099\u5c40\u677e\u5c71\u6cb3\u5ddd\u56fd\u9053\u4e8b\u52d9\u6240","boring_xml_url":64,"boring_view_url":1,"soilmap_view_url":null,"soiltest_xml_url":0,"soiltest_view_url":0},{"id":527684,"code":"B4KJ202201003-0220","latitude":"34.032356","longitude":"132.9788","source_code":"158850622000120002","project_name":"\u5e73\u621027\u5e74\u5ea6\u3000\u4eca\u6cbb\u9053\u8def\uff08\u4e94\u5341\u5d50\u5730\u533a\uff09\u5730\u8cea\u8abf\u67fb\u696d\u52d9","survey_name":"\u5e73\u621027\u5e74\u5ea6\u3000\u4eca\u6cbb\u9053\u8def\uff08\u4e94\u5341\u5d50\u5730\u533a\uff09\u5730\u8cea\u8abf\u67fb\u696d\u52d9","client_name":"\u56fd\u571f\u4ea4\u901a\u7701\u56db\u56fd\u5730\u65b9\u6574\u5099\u5c40\u677e\u5c71\u6cb3\u5ddd\u56fd\u9053\u4e8b\u52d9\u6240","boring_xml_url":64,"boring_view_url":1,"soilmap_view_url":null,"soiltest_xml_url":0,"soiltest_view_url":0},{"id":527683,"code":"B4KJ202201003-0219","latitude":"34.033483","longitude":"132.976986","source_code":"158850622000120001","project_name":"\u5e73\u621027\u5e74\u5ea6\u3000\u4eca\u6cbb\u9053\u8def\uff08\u4e94\u5341\u5d50\u5730\u533a\uff09\u5730\u8cea\u8abf\u67fb\u696d\u52d9","survey_name":"\u5e73\u621027\u5e74\u5ea6\u3000\u4eca\u6cbb\u9053\u8def\uff08\u4e94\u5341\u5d50\u5730\u533a\uff09\u5730\u8cea\u8abf\u67fb\u696d\u52d9","client_name":"\u56fd\u571f\u4ea4\u901a\u7701\u56db\u56fd\u5730\u65b9\u6574\u5099\u5c40\u677e\u5c71\u6cb3\u5ddd\u56fd\u9053\u4e8b\u52d9\u6240","boring_xml_url":64,"boring_view_url":1,"soilmap_view_url":null,"soiltest_xml_url":0,"soiltest_view_url":0},{"id":527682,"code":"B4KJ202201003-0218","latitude":"34.032192","longitude":"132.978642","source_code":"158850622000080007","project_name":"\u5e73\u621027\u5e74\u5ea6\u3000\u4eca\u6cbb\u9053\u8def\uff08\u4e94\u5341\u5d50\u5730\u533a\uff09\u5730\u8cea\u8abf\u67fb\u696d\u52d9","survey_name":"\u5e73\u621027\u5e74\u5ea6\u3000\u4eca\u6cbb\u9053\u8def\uff08\u4e94\u5341\u5d50\u5730\u533a\uff09\u5730\u8cea\u8abf\u67fb\u696d\u52d9","client_name":"\u56fd\u571f\u4ea4\u901a\u7701\u56db\u56fd\u5730\u65b9\u6574\u5099\u5c40\u677e\u5c71\u6cb3\u5ddd\u56fd\u9053\u4e8b\u52d9\u6240","boring_xml_url":64,"boring_view_url":1,"soilmap_view_url":null,"soiltest_xml_url":0,"soiltest_view_url":0},{"id":527681,"code":"B4KJ202201003-0217","latitude":"34.026331","longitude":"132.998333","source_code":"158850622000080006","project_name":"\u5e73\u621027\u5e74\u5ea6\u3000\u4eca\u6cbb\u9053\u8def\uff08\u4e94\u5341\u5d50\u5730\u533a\uff09\u5730\u8cea\u8abf\u67fb\u696d\u52d9","survey_name":"\u5e73\u621027\u5e74\u5ea6\u3000\u4eca\u6cbb\u9053\u8def\uff08\u4e94\u5341\u5d50\u5730\u533a\uff09\u5730\u8cea\u8abf\u67fb\u696d\u52d9","client_name":"\u56fd\u571f\u4ea4\u901a\u7701\u56db\u56fd\u5730\u65b9\u6574\u5099\u5c40\u677e\u5c71\u6cb3\u5ddd\u56fd\u9053\u4e8b\u52d9\u6240","boring_xml_url":64,"boring_view_url":1,"soilmap_view_url":null,"soiltest_xml_url":0,"soiltest_view_url":0},{"id":527680,"code":"B4KJ202201003-0216","latitude":"34.035156","longitude":"132.976692","source_code":"158850622000080005","project_name":"\u5e73\u621027\u5e74\u5ea6\u3000\u4eca\u6cbb\u9053\u8def\uff08\u4e94\u5341\u5d50\u5730\u533a\uff09\u5730\u8cea\u8abf\u67fb\u696d\u52d9","survey_name":"\u5e73\u621027\u5e74\u5ea6\u3000\u4eca\u6cbb\u9053\u8def\uff08\u4e94\u5341\u5d50\u5730\u533a\uff09\u5730\u8cea\u8abf\u67fb\u696d\u52d9","client_name":"\u56fd\u571f\u4ea4\u901a\u7701\u56db\u56fd\u5730\u65b9\u6574\u5099\u5c40\u677e\u5c71\u6cb3\u5ddd\u56fd\u9053\u4e8b\u52d9\u6240","boring_xml_url":64,"boring_view_url":1,"soilmap_view_url":null,"soiltest_xml_url":0,"soiltest_view_url":0},{"id":527679,"code":"B4KJ202201003-0215","latitude":"34.037836","longitude":"132.974856","source_code":"158850622000080004","project_name":"\u5e73\u621027\u5e74\u5ea6\u3000\u4eca\u6cbb\u9053\u8def\uff08\u4e94\u5341\u5d50\u5730\u533a\uff09\u5730\u8cea\u8abf\u67fb\u696d\u52d9","survey_name":"\u5e73\u621027\u5e74\u5ea6\u3000\u4eca\u6cbb\u9053\u8def\uff08\u4e94\u5341\u5d50\u5730\u533a\uff09\u5730\u8cea\u8abf\u67fb\u696d\u52d9","client_name":"\u56fd\u571f\u4ea4\u901a\u7701\u56db\u56fd\u5730\u65b9\u6574\u5099\u5c40\u677e\u5c71\u6cb3\u5ddd\u56fd\u9053\u4e8b\u52d9\u6240","boring_xml_url":64,"boring_view_url":1,"soilmap_view_url":null,"soiltest_xml_url":0,"soiltest_view_url":0},{"id":527678,"code":"B4KJ202201003-0214","latitude":"33.987374","longitude":"133.050328","source_code":"158850622000080003","project_name":"\u5730\u8cea\u8abf\u67fb","survey_name":"\u5e73\u621027\u5e74\u5ea6\u3000\u4eca\u6cbb\u9053\u8def\uff082\u5de5\u533a\uff09\u5730\u8cea\u8abf\u67fb\u696d\u52d9","client_name":"\u56fd\u571f\u4ea4\u901a\u7701\u56db\u56fd\u5730\u65b9\u6574\u5099\u5c40\u677e\u5c71\u6cb3\u5ddd\u56fd\u9053\u4e8b\u52d9\u6240","boring_xml_url":64,"boring_view_url":1,"soilmap_view_url":null,"soiltest_xml_url":0,"soiltest_view_url":0},{"id":527677,"code":"B4KJ202201003-0213","latitude":"33.987124","longitude":"133.050626","source_code":"158850622000080002","project_name":"\u5730\u8cea\u8abf\u67fb","survey_name":"\u5e73\u621027\u5e74\u5ea6\u3000\u4eca\u6cbb\u9053\u8def\uff082\u5de5\u533a\uff09\u5730\u8cea\u8abf\u67fb\u696d\u52d9","client_name":"\u56fd\u571f\u4ea4\u901a\u7701\u56db\u56fd\u5730\u65b9\u6574\u5099\u5c40\u677e\u5c71\u6cb3\u5ddd\u56fd\u9053\u4e8b\u52d9\u6240","boring_xml_url":64,"boring_view_url":1,"soilmap_view_url":null,"soiltest_xml_url":0,"soiltest_view_url":0},{"id":527676,"code":"B4KJ202201003-0212","latitude":"33.986914","longitude":"133.050335","source_code":"158850622000080001","project_name":"\u5730\u8cea\u8abf\u67fb","survey_name":"\u5e73\u621027\u5e74\u5ea6\u3000\u4eca\u6cbb\u9053\u8def\uff082\u5de5\u533a\uff09\u5730\u8cea\u8abf\u67fb\u696d\u52d9","client_name":"\u56fd\u571f\u4ea4\u901a\u7701\u56db\u56fd\u5730\u65b9\u6574\u5099\u5c40\u677e\u5c71\u6cb3\u5ddd\u56fd\u9053\u4e8b\u52d9\u6240","boring_xml_url":64,"boring_view_url":1,"soilmap_view_url":null,"soiltest_xml_url":0,"soiltest_view_url":0},{"id":527675,"code":"B4KJ202201003-0211","latitude":"33.987829","longitude":"133.049688","source_code":"158850542000240003","project_name":"\u5730\u8cea\u8abf\u67fb","survey_name":"\u5e73\u621027\u5e74\u5ea6\u3000\u4eca\u6cbb\u9053\u8def\uff082\u5de5\u533a\uff09\u5730\u8cea\u8abf\u67fb\u696d\u52d9","client_name":"\u56fd\u571f\u4ea4\u901a\u7701\u56db\u56fd\u5730\u65b9\u6574\u5099\u5c40\u677e\u5c71\u6cb3\u5ddd\u56fd\u9053\u4e8b\u52d9\u6240","boring_xml_url":64,"boring_view_url":1,"soilmap_view_url":null,"soiltest_xml_url":0,"soiltest_view_url":0},{"id":527674,"code":"B4KJ202201003-0210","latitude":"33.988229","longitude":"133.049001","source_code":"158850542000240002","project_name":"\u5730\u8cea\u8abf\u67fb","survey_name":"\u5e73\u621027\u5e74\u5ea6\u3000\u4eca\u6cbb\u9053\u8def\uff082\u5de5\u533a\uff09\u5730\u8cea\u8abf\u67fb\u696d\u52d9","client_name":"\u56fd\u571f\u4ea4\u901a\u7701\u56db\u56fd\u5730\u65b9\u6574\u5099\u5c40\u677e\u5c71\u6cb3\u5ddd\u56fd\u9053\u4e8b\u52d9\u6240","boring_xml_url":64,"boring_view_url":1,"soilmap_view_url":null,"soiltest_xml_url":0,"soiltest_view_url":0},{"id":527673,"code":"B4KJ202201003-0209","latitude":"33.988037","longitude":"133.048823","source_code":"158850542000240001","project_name":"\u5730\u8cea\u8abf\u67fb","survey_name":"\u5e73\u621027\u5e74\u5ea6\u3000\u4eca\u6cbb\u9053\u8def\uff082\u5de5\u533a\uff09\u5730\u8cea\u8abf\u67fb\u696d\u52d9","client_name":"\u56fd\u571f\u4ea4\u901a\u7701\u56db\u56fd\u5730\u65b9\u6574\u5099\u5c40\u677e\u5c71\u6cb3\u5ddd\u56fd\u9053\u4e8b\u52d9\u6240","boring_xml_url":64,"boring_view_url":1,"soilmap_view_url":null,"soiltest_xml_url":0,"soiltest_view_url":0},{"id":527672,"code":"B4KJ202201003-0208","latitude":"33.98881","longitude":"133.047728","source_code":"158850542000190003","project_name":"\u5730\u8cea\u8abf\u67fb","survey_name":"\u5e73\u621027\u5e74\u5ea6\u3000\u4eca\u6cbb\u9053\u8def\uff082\u5de5\u533a\uff09\u5730\u8cea\u8abf\u67fb\u696d\u52d9","client_name":"\u56fd\u571f\u4ea4\u901a\u7701\u56db\u56fd\u5730\u65b9\u6574\u5099\u5c40\u677e\u5c71\u6cb3\u5ddd\u56fd\u9053\u4e8b\u52d9\u6240","boring_xml_url":64,"boring_view_url":1,"soilmap_view_url":null,"soiltest_xml_url":0,"soiltest_view_url":0},{"id":527671,"code":"B4KJ202201003-0207","latitude":"33.944431","longitude":"133.379922","source_code":"158850542000190002","project_name":"","survey_name":"\u5e73\u621027\u5e74\u5ea6\u3000\u677e\u5c71\u7ba1\u5185\u5730\u8cea\u8abf\u67fb\uff08\u305d\u306e2\uff09\u696d\u52d9","client_name":"\u56fd\u571f\u4ea4\u901a\u7701\u3000\u677e\u5c71\u6cb3\u5ddd\u56fd\u9053\u4e8b\u52d9\u6240","boring_xml_url":64,"boring_view_url":1,"soilmap_view_url":null,"soiltest_xml_url":0,"soiltest_view_url":0},{"id":527670,"code":"B4KJ202201003-0206","latitude":"33.944447","longitude":"133.380347","source_code":"158850542000190001","project_name":"","survey_name":"\u5e73\u621027\u5e74\u5ea6\u3000\u677e\u5c71\u7ba1\u5185\u5730\u8cea\u8abf\u67fb\uff08\u305d\u306e2\uff09\u696d\u52d9","client_name":"\u56fd\u571f\u4ea4\u901a\u7701\u3000\u677e\u5c71\u6cb3\u5ddd\u56fd\u9053\u4e8b\u52d9\u6240","boring_xml_url":64,"boring_view_url":1,"soilmap_view_url":null,"soiltest_xml_url":0,"soiltest_view_url":0},{"id":527669,"code":"B4KJ202201003-0205","latitude":"33.670103","longitude":"132.894564","source_code":"148850542500030002","project_name":"","survey_name":"\u5e73\u621027\u5e74\u5ea6\u3000\u677e\u5c71\u7ba1\u5185\u5730\u8cea\u8abf\u67fb\uff08\u305d\u306e2\uff09\u696d\u52d9","client_name":"\u56fd\u571f\u4ea4\u901a\u7701\u3000\u56db\u56fd\u5730\u65b9\u6574\u5099\u5c40\u3000\u677e\u5c71\u6cb3\u5ddd\u56fd\u9053\u4e8b\u52d9\u6240","boring_xml_url":64,"boring_view_url":1,"soilmap_view_url":null,"soiltest_xml_url":0,"soiltest_view_url":0},{"id":527668,"code":"B4KJ202201003-0204","latitude":"33.670197","longitude":"132.894597","source_code":"148850542500030001","project_name":"\u897f\u660e\u795e\u5730\u533a(\u5ea7\u6a19X=74487.956,Y=-56140.030)","survey_name":"\u5e73\u621027\u5e74\u5ea6\u3000\u677e\u5c71\u7ba1\u5185\u5730\u8cea\u8abf\u67fb\u696d\u52d9","client_name":"\u56fd\u571f\u4ea4\u901a\u7701\u56db\u56fd\u5730\u65b9\u6574\u5099\u5c40\u677e\u5c71\u6cb3\u5ddd\u56fd\u9053\u4e8b\u52d9\u6240","boring_xml_url":64,"boring_view_url":1,"soilmap_view_url":null,"soiltest_xml_url":0,"soiltest_view_url":0},{"id":527667,"code":"B4KJ202201003-0203","latitude":"33.669997","longitude":"132.894653","source_code":"158840612000090001","project_name":"\u897f\u660e\u795e\u5730\u533a(\u5ea7\u6a19X=74466.662,Y=-56135.012)","survey_name":"\u5e73\u621027\u5e74\u5ea6\u3000\u677e\u5c71\u7ba1\u5185\u5730\u8cea\u8abf\u67fb\u696d\u52d9","client_name":"\u56fd\u571f\u4ea4\u901a\u7701\u56db\u56fd\u5730\u65b9\u6574\u5099\u5c40\u677e\u5c71\u6cb3\u5ddd\u56fd\u9053\u4e8b\u52d9\u6240","boring_xml_url":64,"boring_view_url":1,"soilmap_view_url":null,"soiltest_xml_url":0,"soiltest_view_url":0},{"id":527666,"code":"B4KJ202201003-0202","latitude":"33.670183","longitude":"132.894528","source_code":"158840542000020002","project_name":"\u897f\u660e\u795e\u5730\u533a(\u5ea7\u6a19X=74487.373,Y=-56146.394)","survey_name":"\u5e73\u621027\u5e74\u5ea6\u3000\u677e\u5c71\u7ba1\u5185\u5730\u8cea\u8abf\u67fb\u696d\u52d9","client_name":"\u56fd\u571f\u4ea4\u901a\u7701\u56db\u56fd\u5730\u65b9\u6574\u5099\u5c40\u677e\u5c71\u6cb3\u5ddd\u56fd\u9053\u4e8b\u52d9\u6240","boring_xml_url":64,"boring_view_url":1,"soilmap_view_url":null,"soiltest_xml_url":0,"soiltest_view_url":0},{"id":527665,"code":"B4KJ202201003-0201","latitude":"33.580178","longitude":"132.99286","source_code":"158840542000020001","project_name":"","survey_name":"\u5e73\u621026-27\u5e74\u5ea6\u677e\u4e00\u7ba1\u5185\u9632\u707d\u70b9\u691c\u696d\u52d9","client_name":"\u56fd\u571f\u4ea4\u901a\u7701\u56db\u56fd\u5730\u65b9\u6574\u5099\u5c40\u677e\u5c71\u6cb3\u5ddd\u56fd\u9053\u4e8b\u52d9\u6240","boring_xml_url":64,"boring_view_url":1,"soilmap_view_url":null,"soiltest_xml_url":0,"soiltest_view_url":0},{"id":527664,"code":"B4KJ202201003-0200","latitude":"33.58011","longitude":"132.991921","source_code":"158840452000050008","project_name":"","survey_name":"\u5e73\u621026-27\u5e74\u5ea6\u677e\u4e00\u7ba1\u5185\u9632\u707d\u70b9\u691c\u696d\u52d9","client_name":"\u56fd\u571f\u4ea4\u901a\u7701\u56db\u56fd\u5730\u65b9\u6574\u5099\u5c40\u677e\u5c71\u6cb3\u5ddd\u56fd\u9053\u4e8b\u52d9\u6240","boring_xml_url":64,"boring_view_url":1,"soilmap_view_url":null,"soiltest_xml_url":0,"soiltest_view_url":0},{"id":527663,"code":"B4KJ202201003-0199","latitude":"34.237597","longitude":"134.368247","source_code":"158840452000050007","project_name":"","survey_name":"\"\u5e73\u621027\u5e74\u5ea6 \u9999\u5ddd\u7ba1\u5185\u9053\u8def\u8a73\u7d30\u8a2d\u8a08\u5916\u696d\u52d9\"","client_name":"\"\u56fd\u571f\u4ea4\u901a\u7701 \u56db\u56fd\u5730\u65b9\u6574\u5099\u5c40 \u9999\u5ddd\u6cb3\u5ddd\u56fd\u9053\u4e8b\u52d9\u6240\"","boring_xml_url":64,"boring_view_url":1,"soilmap_view_url":null,"soiltest_xml_url":0,"soiltest_view_url":0},{"id":527662,"code":"B4KJ202201003-0198","latitude":"34.154167","longitude":"133.82","source_code":"158840452000050006","project_name":"\u8ffd\u4e0a\u5730\u533a","survey_name":"\u5e73\u621027\u5e74\u5ea6\u3000\u9999\u5ddd\u7ba1\u5185\u9632\u707d\u70b9\u691c\u696d\u52d9","client_name":"\"\u56fd\u571f\u4ea4\u901a\u7701\u56db\u56fd\u5730\u65b9\u6574\u5099\u5c40 \u9999\u5ddd\u6cb3\u5ddd\u56fd\u9053\u4e8b\u52d9\u6240\"","boring_xml_url":64,"boring_view_url":1,"soilmap_view_url":null,"soiltest_xml_url":0,"soiltest_view_url":0},{"id":527661,"code":"B4KJ202201003-0197","latitude":"34.153889","longitude":"133.820833","source_code":"158840452000050005","project_name":"\u8ffd\u4e0a\u5730\u533a","survey_name":"\u5e73\u621027\u5e74\u5ea6\u3000\u9999\u5ddd\u7ba1\u5185\u9632\u707d\u70b9\u691c\u696d\u52d9","client_name":"\"\u56fd\u571f\u4ea4\u901a\u7701\u56db\u56fd\u5730\u65b9\u6574\u5099\u5c40 \u9999\u5ddd\u6cb3\u5ddd\u56fd\u9053\u4e8b\u52d9\u6240\"","boring_xml_url":64,"boring_view_url":1,"soilmap_view_url":null,"soiltest_xml_url":0,"soiltest_view_url":0},{"id":527660,"code":"B4KJ202201003-0196","latitude":"34.275722","longitude":"133.82375","source_code":"158840452000050004","project_name":"\"\u5e73\u621027\u5e74\u5ea6 \u571f\u5668\u5ddd\u5730\u8cea\u8abf\u67fb\u696d\u52d9\"","survey_name":"\"\u5e73\u621027\u5e74\u5ea6 \u571f\u5668\u5ddd\u5730\u8cea\u8abf\u67fb\u696d\u52d9\"","client_name":"\"\u56fd\u571f\u4ea4\u901a\u7701\u56db\u56fd\u5730\u65b9\u6574\u5099\u5c40 \u9999\u5ddd\u6cb3\u5ddd\u56fd\u9053\u4e8b\u52d9\u6240\"","boring_xml_url":64,"boring_view_url":1,"soilmap_view_url":null,"soiltest_xml_url":0,"soiltest_view_url":0},{"id":527659,"code":"B4KJ202201003-0195","latitude":"34.276972","longitude":"133.822944","source_code":"158840452000050003","project_name":"\"\u5e73\u621027\u5e74\u5ea6 \u571f\u5668\u5ddd\u5730\u8cea\u8abf\u67fb\u696d\u52d9\"","survey_name":"\"\u5e73\u621027\u5e74\u5ea6 \u571f\u5668\u5ddd\u5730\u8cea\u8abf\u67fb\u696d\u52d9\"","client_name":"\"\u56fd\u571f\u4ea4\u901a\u7701\u56db\u56fd\u5730\u65b9\u6574\u5099\u5c40 \u9999\u5ddd\u6cb3\u5ddd\u56fd\u9053\u4e8b\u52d9\u6240\"","boring_xml_url":64,"boring_view_url":1,"soilmap_view_url":null,"soiltest_xml_url":0,"soiltest_view_url":0}]}}