{"header":{"xyz":{"source":[],"mosaic":false},"page":5918,"raw":{"soiltest_result":"0","bbox":"57.598333,109.544722,1.933333,163.806111","page":"5918"},"conditions":{"soiltest_result":0,"north":57.598333,"west":109.544722,"south":1.933333,"east":163.806111},"success":true,"message":""},"data":{"meta":{"total":212844,"page":5918,"pages":7095,"count":30},"values":[{"id":143035,"code":"B4KJ201801003-1284","latitude":"39.12511","longitude":"141.73533","source_code":"TH58415549005","project_name":"","survey_name":"\u662d\u548c63\u5e74\u5ea6\u4e09\u9678\u9053\u8def\u5730\u76e4\u8abf\u67fb","client_name":"\u56fd\u571f\u4ea4\u901a\u7701\u6771\u5317\u5730\u65b9\u6574\u5099\u5c40\u4e09\u9678\u56fd\u9053\u4e8b\u52d9\u6240","boring_xml_url":40,"boring_view_url":1,"soilmap_view_url":null,"soiltest_xml_url":0,"soiltest_view_url":0},{"id":143034,"code":"B4KJ201801003-1283","latitude":"39.12125","longitude":"141.73589","source_code":"TH58415549001","project_name":"","survey_name":"\u4e09\u9678\u5c40\u653f\u7d30\u91ce\u5730\u533a\u5730\u76e4\u8abf\u67fb","client_name":"\u56fd\u571f\u4ea4\u901a\u7701\u6771\u5317\u5730\u65b9\u6574\u5099\u5c40\u4e09\u9678\u56fd\u9053\u4e8b\u52d9\u6240","boring_xml_url":40,"boring_view_url":1,"soilmap_view_url":null,"soiltest_xml_url":0,"soiltest_view_url":0},{"id":143033,"code":"B4KJ201801003-1282","latitude":"39.122","longitude":"141.72092","source_code":"TH58415547002","project_name":"","survey_name":"\u5e73\u62108\u5e74\u5ea6 \u5927\u8239\u6e21\u5730\u533a\u5730\u76e4\u8abf\u67fb","client_name":"\u56fd\u571f\u4ea4\u901a\u7701\u6771\u5317\u5730\u65b9\u6574\u5099\u5c40\u4e09\u9678\u56fd\u9053\u4e8b\u52d9\u6240","boring_xml_url":40,"boring_view_url":1,"soilmap_view_url":null,"soiltest_xml_url":0,"soiltest_view_url":0},{"id":143032,"code":"B4KJ201801003-1281","latitude":"39.12139","longitude":"141.71989","source_code":"TH58415547001","project_name":"","survey_name":"\u5e73\u62108\u5e74\u5ea6 \u5927\u8239\u6e21\u5730\u533a\u5730\u76e4\u8abf\u67fb","client_name":"\u56fd\u571f\u4ea4\u901a\u7701\u6771\u5317\u5730\u65b9\u6574\u5099\u5c40\u4e09\u9678\u56fd\u9053\u4e8b\u52d9\u6240","boring_xml_url":40,"boring_view_url":1,"soilmap_view_url":null,"soiltest_xml_url":0,"soiltest_view_url":0},{"id":143031,"code":"B4KJ201801003-1280","latitude":"39.10761","longitude":"141.70814","source_code":"TH58415526002","project_name":"","survey_name":"\u5e73\u62108\u5e74\u5ea6 \u5927\u8239\u6e21\u5730\u533a\u5730\u76e4\u8abf\u67fb","client_name":"\u56fd\u571f\u4ea4\u901a\u7701\u6771\u5317\u5730\u65b9\u6574\u5099\u5c40\u4e09\u9678\u56fd\u9053\u4e8b\u52d9\u6240","boring_xml_url":40,"boring_view_url":1,"soilmap_view_url":null,"soiltest_xml_url":0,"soiltest_view_url":0},{"id":143030,"code":"B4KJ201801003-1279","latitude":"39.10675","longitude":"141.70886","source_code":"TH58415526001","project_name":"","survey_name":"\u5e73\u62108\u5e74\u5ea6 \u5927\u8239\u6e21\u5730\u533a\u5730\u76e4\u8abf\u67fb","client_name":"\u56fd\u571f\u4ea4\u901a\u7701\u6771\u5317\u5730\u65b9\u6574\u5099\u5c40\u4e09\u9678\u56fd\u9053\u4e8b\u52d9\u6240","boring_xml_url":40,"boring_view_url":1,"soilmap_view_url":null,"soiltest_xml_url":0,"soiltest_view_url":0},{"id":143029,"code":"B4KJ201801003-1278","latitude":"39.094","longitude":"141.70089","source_code":"TH58415506004","project_name":"","survey_name":"\u660e\u795e\u524d\u30c8\u30f3\u30cd\u30eb\u8a73\u7d30\u8a2d\u8a08\u305d\u306e\u4ed6\u696d\u52d9\u59d4\u8a17","client_name":"\u56fd\u571f\u4ea4\u901a\u7701\u6771\u5317\u5730\u65b9\u6574\u5099\u5c40\u4e09\u9678\u56fd\u9053\u4e8b\u52d9\u6240","boring_xml_url":40,"boring_view_url":1,"soilmap_view_url":null,"soiltest_xml_url":0,"soiltest_view_url":0},{"id":143028,"code":"B4KJ201801003-1277","latitude":"39.16886","longitude":"141.14181","source_code":"TH58415191002","project_name":"","survey_name":"\u6c34\u6ca2\u76db\u5ca1\u5730\u533a\u5730\u76e4\u8abf\u67fb","client_name":"\u56fd\u571f\u4ea4\u901a\u7701\u6771\u5317\u5730\u65b9\u6574\u5099\u5c40\u5ca9\u624b\u6cb3\u5ddd\u56fd\u9053\u4e8b\u52d9\u6240","boring_xml_url":40,"boring_view_url":1,"soilmap_view_url":null,"soiltest_xml_url":0,"soiltest_view_url":0},{"id":143027,"code":"B4KJ201801003-1276","latitude":"39.16889","longitude":"141.14228","source_code":"TH58415191001","project_name":"","survey_name":"\u6c34\u6ca2\u76db\u5ca1\u5730\u533a\u5730\u76e4\u8abf\u67fb","client_name":"\u56fd\u571f\u4ea4\u901a\u7701\u6771\u5317\u5730\u65b9\u6574\u5099\u5c40\u5ca9\u624b\u6cb3\u5ddd\u56fd\u9053\u4e8b\u52d9\u6240","boring_xml_url":40,"boring_view_url":1,"soilmap_view_url":null,"soiltest_xml_url":0,"soiltest_view_url":0},{"id":143026,"code":"B4KJ201801003-1275","latitude":"39.15325","longitude":"141.16186","source_code":"TH58415183003","project_name":"","survey_name":"\u6c34\u6ca2\u5730\u533a\u5730\u8cea\u8abf\u67fb","client_name":"\u56fd\u571f\u4ea4\u901a\u7701\u6771\u5317\u5730\u65b9\u6574\u5099\u5c40\u5ca9\u624b\u6cb3\u5ddd\u56fd\u9053\u4e8b\u52d9\u6240","boring_xml_url":40,"boring_view_url":1,"soilmap_view_url":null,"soiltest_xml_url":0,"soiltest_view_url":0},{"id":143025,"code":"B4KJ201801003-1274","latitude":"39.14953","longitude":"141.17928","source_code":"TH58415174002","project_name":"","survey_name":"\u7fbd\u7530\u8b77\u5cb8\u5730\u76e4\u8abf\u67fb","client_name":"\u56fd\u571f\u4ea4\u901a\u7701\u6771\u5317\u5730\u65b9\u6574\u5099\u5c40\u5ca9\u624b\u6cb3\u5ddd\u56fd\u9053\u4e8b\u52d9\u6240","boring_xml_url":40,"boring_view_url":1,"soilmap_view_url":null,"soiltest_xml_url":0,"soiltest_view_url":0},{"id":143024,"code":"B4KJ201801003-1273","latitude":"39.14922","longitude":"141.17986","source_code":"TH58415174001","project_name":"","survey_name":"\u7fbd\u7530\u8b77\u5cb8\u5730\u76e4\u8abf\u67fb","client_name":"\u56fd\u571f\u4ea4\u901a\u7701\u6771\u5317\u5730\u65b9\u6574\u5099\u5c40\u5ca9\u624b\u6cb3\u5ddd\u56fd\u9053\u4e8b\u52d9\u6240","boring_xml_url":40,"boring_view_url":1,"soilmap_view_url":null,"soiltest_xml_url":0,"soiltest_view_url":0},{"id":143023,"code":"B4KJ201801003-1272","latitude":"39.14917","longitude":"141.16228","source_code":"TH58415173018","project_name":"","survey_name":"\u6c34\u6ca2\u5730\u533a\u5730\u8cea\u8abf\u67fb","client_name":"\u56fd\u571f\u4ea4\u901a\u7701\u6771\u5317\u5730\u65b9\u6574\u5099\u5c40\u5ca9\u624b\u6cb3\u5ddd\u56fd\u9053\u4e8b\u52d9\u6240","boring_xml_url":40,"boring_view_url":1,"soilmap_view_url":null,"soiltest_xml_url":0,"soiltest_view_url":0},{"id":143022,"code":"B4KJ201801003-1271","latitude":"39.14883","longitude":"141.16239","source_code":"TH58415173017","project_name":"","survey_name":"\u6c34\u6ca2\u5730\u533a\u5730\u8cea\u8abf\u67fb","client_name":"\u56fd\u571f\u4ea4\u901a\u7701\u6771\u5317\u5730\u65b9\u6574\u5099\u5c40\u5ca9\u624b\u6cb3\u5ddd\u56fd\u9053\u4e8b\u52d9\u6240","boring_xml_url":40,"boring_view_url":1,"soilmap_view_url":null,"soiltest_xml_url":0,"soiltest_view_url":0},{"id":143021,"code":"B4KJ201801003-1270","latitude":"39.14725","longitude":"141.1625","source_code":"TH58415173016","project_name":"","survey_name":"\u6c34\u6ca2\u5730\u533a\u5730\u8cea\u8abf\u67fb","client_name":"\u56fd\u571f\u4ea4\u901a\u7701\u6771\u5317\u5730\u65b9\u6574\u5099\u5c40\u5ca9\u624b\u6cb3\u5ddd\u56fd\u9053\u4e8b\u52d9\u6240","boring_xml_url":40,"boring_view_url":1,"soilmap_view_url":null,"soiltest_xml_url":0,"soiltest_view_url":0},{"id":143020,"code":"B4KJ201801003-1269","latitude":"39.14636","longitude":"141.1625","source_code":"TH58415173015","project_name":"","survey_name":"\u6c34\u6ca2\u5730\u533a\u5730\u8cea\u8abf\u67fb","client_name":"\u56fd\u571f\u4ea4\u901a\u7701\u6771\u5317\u5730\u65b9\u6574\u5099\u5c40\u5ca9\u624b\u6cb3\u5ddd\u56fd\u9053\u4e8b\u52d9\u6240","boring_xml_url":40,"boring_view_url":1,"soilmap_view_url":null,"soiltest_xml_url":0,"soiltest_view_url":0},{"id":143019,"code":"B4KJ201801003-1268","latitude":"39.14581","longitude":"141.16278","source_code":"TH58415173014","project_name":"","survey_name":"\u6c34\u6ca2\u5730\u533a\u5730\u8cea\u8abf\u67fb","client_name":"\u56fd\u571f\u4ea4\u901a\u7701\u6771\u5317\u5730\u65b9\u6574\u5099\u5c40\u5ca9\u624b\u6cb3\u5ddd\u56fd\u9053\u4e8b\u52d9\u6240","boring_xml_url":40,"boring_view_url":1,"soilmap_view_url":null,"soiltest_xml_url":0,"soiltest_view_url":0},{"id":143018,"code":"B4KJ201801003-1267","latitude":"39.14475","longitude":"141.16283","source_code":"TH58415173013","project_name":"","survey_name":"\u6c34\u6ca2\u5730\u533a\u5730\u8cea\u8abf\u67fb","client_name":"\u56fd\u571f\u4ea4\u901a\u7701\u6771\u5317\u5730\u65b9\u6574\u5099\u5c40\u5ca9\u624b\u6cb3\u5ddd\u56fd\u9053\u4e8b\u52d9\u6240","boring_xml_url":40,"boring_view_url":1,"soilmap_view_url":null,"soiltest_xml_url":0,"soiltest_view_url":0},{"id":143017,"code":"B4KJ201801003-1266","latitude":"39.14439","longitude":"141.16286","source_code":"TH58415163009","project_name":"","survey_name":"\u6c34\u6ca2\u5730\u533a\u5730\u8cea\u8abf\u67fb","client_name":"\u56fd\u571f\u4ea4\u901a\u7701\u6771\u5317\u5730\u65b9\u6574\u5099\u5c40\u5ca9\u624b\u6cb3\u5ddd\u56fd\u9053\u4e8b\u52d9\u6240","boring_xml_url":40,"boring_view_url":1,"soilmap_view_url":null,"soiltest_xml_url":0,"soiltest_view_url":0},{"id":143016,"code":"B4KJ201801003-1265","latitude":"39.14281","longitude":"141.16308","source_code":"TH58415163008","project_name":"","survey_name":"\u6c34\u6ca2\u5730\u533a\u5730\u8cea\u8abf\u67fb","client_name":"\u56fd\u571f\u4ea4\u901a\u7701\u6771\u5317\u5730\u65b9\u6574\u5099\u5c40\u5ca9\u624b\u6cb3\u5ddd\u56fd\u9053\u4e8b\u52d9\u6240","boring_xml_url":40,"boring_view_url":1,"soilmap_view_url":null,"soiltest_xml_url":0,"soiltest_view_url":0},{"id":143015,"code":"B4KJ201801003-1264","latitude":"39.14128","longitude":"141.16331","source_code":"TH58415163007","project_name":"","survey_name":"\u6c34\u6ca2\u5730\u533a\u5730\u8cea\u8abf\u67fb","client_name":"\u56fd\u571f\u4ea4\u901a\u7701\u6771\u5317\u5730\u65b9\u6574\u5099\u5c40\u5ca9\u624b\u6cb3\u5ddd\u56fd\u9053\u4e8b\u52d9\u6240","boring_xml_url":40,"boring_view_url":1,"soilmap_view_url":null,"soiltest_xml_url":0,"soiltest_view_url":0},{"id":143014,"code":"B4KJ201801003-1263","latitude":"39.13128","longitude":"141.18144","source_code":"TH58415154001","project_name":"","survey_name":"\u751f\u6bcd\u9ed2\u77f3\u571f\u53d6\u5834\u8abf\u67fb","client_name":"\u56fd\u571f\u4ea4\u901a\u7701\u6771\u5317\u5730\u65b9\u6574\u5099\u5c40\u5ca9\u624b\u6cb3\u5ddd\u56fd\u9053\u4e8b\u52d9\u6240","boring_xml_url":40,"boring_view_url":1,"soilmap_view_url":null,"soiltest_xml_url":0,"soiltest_view_url":0},{"id":143013,"code":"B4KJ201801003-1262","latitude":"39.08108","longitude":"141.70033","source_code":"TH58414596003","project_name":"","survey_name":"\u5e73\u62108\u5e74\u5ea6 \u5927\u8239\u6e21\u5730\u533a\u5730\u76e4\u8abf\u67fb","client_name":"\u56fd\u571f\u4ea4\u901a\u7701\u6771\u5317\u5730\u65b9\u6574\u5099\u5c40\u4e09\u9678\u56fd\u9053\u4e8b\u52d9\u6240","boring_xml_url":40,"boring_view_url":1,"soilmap_view_url":null,"soiltest_xml_url":0,"soiltest_view_url":0},{"id":143012,"code":"B4KJ201801003-1261","latitude":"39.08306","longitude":"141.70033","source_code":"TH58414596002","project_name":"","survey_name":"\u5e73\u62108\u5e74\u5ea6 \u5927\u8239\u6e21\u5730\u533a\u5730\u76e4\u8abf\u67fb","client_name":"\u56fd\u571f\u4ea4\u901a\u7701\u6771\u5317\u5730\u65b9\u6574\u5099\u5c40\u4e09\u9678\u56fd\u9053\u4e8b\u52d9\u6240","boring_xml_url":40,"boring_view_url":1,"soilmap_view_url":null,"soiltest_xml_url":0,"soiltest_view_url":0},{"id":143011,"code":"B4KJ201801003-1260","latitude":"39.08272","longitude":"141.70033","source_code":"TH58414596001","project_name":"","survey_name":"\u5e73\u62108\u5e74\u5ea6 \u5927\u8239\u6e21\u5730\u533a\u5730\u76e4\u8abf\u67fb","client_name":"\u56fd\u571f\u4ea4\u901a\u7701\u6771\u5317\u5730\u65b9\u6574\u5099\u5c40\u4e09\u9678\u56fd\u9053\u4e8b\u52d9\u6240","boring_xml_url":40,"boring_view_url":1,"soilmap_view_url":null,"soiltest_xml_url":0,"soiltest_view_url":0},{"id":143010,"code":"B4KJ201801003-1259","latitude":"39.03719","longitude":"141.7145","source_code":"TH58414547002","project_name":"","survey_name":"\u5e73\u62108\u5e74\u5ea6 \u5927\u8239\u6e21\u5730\u533a\u5730\u76e4\u8abf\u67fb","client_name":"\u56fd\u571f\u4ea4\u901a\u7701\u6771\u5317\u5730\u65b9\u6574\u5099\u5c40\u4e09\u9678\u56fd\u9053\u4e8b\u52d9\u6240","boring_xml_url":40,"boring_view_url":1,"soilmap_view_url":null,"soiltest_xml_url":0,"soiltest_view_url":0},{"id":143009,"code":"B4KJ201801003-1258","latitude":"39.03119","longitude":"141.71386","source_code":"TH58414537016","project_name":"","survey_name":"\u5e73\u621010\u5e74\u5ea6\u5927\u8239\u6e21\u4e09\u9678\u9053\u8def\u5730\u76e4\u8abf\u67fb","client_name":"\u56fd\u571f\u4ea4\u901a\u7701\u6771\u5317\u5730\u65b9\u6574\u5099\u5c40\u4e09\u9678\u56fd\u9053\u4e8b\u52d9\u6240","boring_xml_url":40,"boring_view_url":1,"soilmap_view_url":null,"soiltest_xml_url":0,"soiltest_view_url":0},{"id":143008,"code":"B4KJ201801003-1257","latitude":"39.03128","longitude":"141.71375","source_code":"TH58414537015","project_name":"","survey_name":"\u5e73\u621010\u5e74\u5ea6\u5927\u8239\u6e21\u4e09\u9678\u9053\u8def\u5730\u76e4\u8abf\u67fb","client_name":"\u56fd\u571f\u4ea4\u901a\u7701\u6771\u5317\u5730\u65b9\u6574\u5099\u5c40\u4e09\u9678\u56fd\u9053\u4e8b\u52d9\u6240","boring_xml_url":40,"boring_view_url":1,"soilmap_view_url":null,"soiltest_xml_url":0,"soiltest_view_url":0},{"id":143007,"code":"B4KJ201801003-1256","latitude":"39.035","longitude":"141.71356","source_code":"TH58414537014","project_name":"","survey_name":"\u5e73\u62108\u5e74\u5ea6 \u5927\u8239\u6e21\u5730\u533a\u5730\u76e4\u8abf\u67fb","client_name":"\u56fd\u571f\u4ea4\u901a\u7701\u6771\u5317\u5730\u65b9\u6574\u5099\u5c40\u4e09\u9678\u56fd\u9053\u4e8b\u52d9\u6240","boring_xml_url":40,"boring_view_url":1,"soilmap_view_url":null,"soiltest_xml_url":0,"soiltest_view_url":0},{"id":143006,"code":"B4KJ201801003-1255","latitude":"39.03456","longitude":"141.71339","source_code":"TH58414537013","project_name":"","survey_name":"\u5e73\u62108\u5e74\u5ea6 \u5927\u8239\u6e21\u5730\u533a\u5730\u76e4\u8abf\u67fb","client_name":"\u56fd\u571f\u4ea4\u901a\u7701\u6771\u5317\u5730\u65b9\u6574\u5099\u5c40\u4e09\u9678\u56fd\u9053\u4e8b\u52d9\u6240","boring_xml_url":40,"boring_view_url":1,"soilmap_view_url":null,"soiltest_xml_url":0,"soiltest_view_url":0}]}}