{"header":{"xyz":{"source":[],"mosaic":false},"page":5943,"raw":{"soiltest_result":"0","bbox":"57.598333,109.544722,1.933333,163.806111","page":"5943"},"conditions":{"soiltest_result":0,"north":57.598333,"west":109.544722,"south":1.933333,"east":163.806111},"success":true,"message":""},"data":{"meta":{"total":212844,"page":5943,"pages":7095,"count":30},"values":[{"id":142285,"code":"B4KJ201801003-0534","latitude":"39.064","longitude":"140.46436","source_code":"TH58404377001","project_name":"","survey_name":"\u5e73\u62104\u5e74\u5ea6\u6e6f\u6ca2\u5357\u9053\u8def\u5730\u76e4\u8abf\u67fb\u696d\u52d9\u59d4\u8a17","client_name":"\u56fd\u571f\u4ea4\u901a\u7701\u6771\u5317\u5730\u65b9\u6574\u5099\u5c40\u6e6f\u6ca2\u6cb3\u5ddd\u56fd\u9053\u4e8b\u52d9\u6240","boring_xml_url":40,"boring_view_url":1,"soilmap_view_url":null,"soiltest_xml_url":0,"soiltest_view_url":0},{"id":142284,"code":"B4KJ201801003-0533","latitude":"38.9403","longitude":"140.55","source_code":"TH58403424005","project_name":"","survey_name":"\u5e73\u62104\u5e74\u5ea6\u9b3c\u9996\u9053\u8def\u5730\u76e4\u8abf\u67fb","client_name":"\u56fd\u571f\u4ea4\u901a\u7701\u6771\u5317\u5730\u65b9\u6574\u5099\u5c40\u6e6f\u6ca2\u6cb3\u5ddd\u56fd\u9053\u4e8b\u52d9\u6240","boring_xml_url":40,"boring_view_url":1,"soilmap_view_url":null,"soiltest_xml_url":0,"soiltest_view_url":0},{"id":142283,"code":"B4KJ201801003-0532","latitude":"38.93961","longitude":"140.55","source_code":"TH58403424004","project_name":"","survey_name":"\u5e73\u62104\u5e74\u5ea6\u9b3c\u9996\u9053\u8def\u5730\u76e4\u8abf\u67fb","client_name":"\u56fd\u571f\u4ea4\u901a\u7701\u6771\u5317\u5730\u65b9\u6574\u5099\u5c40\u6e6f\u6ca2\u6cb3\u5ddd\u56fd\u9053\u4e8b\u52d9\u6240","boring_xml_url":40,"boring_view_url":1,"soilmap_view_url":null,"soiltest_xml_url":0,"soiltest_view_url":0},{"id":142282,"code":"B4KJ201801003-0531","latitude":"38.93983","longitude":"140.55058","source_code":"TH58403424003","project_name":"","survey_name":"\u5e73\u62104\u5e74\u5ea6\u9b3c\u9996\u9053\u8def\u5730\u76e4\u8abf\u67fb","client_name":"\u56fd\u571f\u4ea4\u901a\u7701\u6771\u5317\u5730\u65b9\u6574\u5099\u5c40\u6e6f\u6ca2\u6cb3\u5ddd\u56fd\u9053\u4e8b\u52d9\u6240","boring_xml_url":40,"boring_view_url":1,"soilmap_view_url":null,"soiltest_xml_url":0,"soiltest_view_url":0},{"id":142281,"code":"B4KJ201801003-0530","latitude":"38.94028","longitude":"140.55086","source_code":"TH58403424002","project_name":"","survey_name":"\u5e73\u62104\u5e74\u5ea6\u9b3c\u9996\u9053\u8def\u5730\u76e4\u8abf\u67fb","client_name":"\u56fd\u571f\u4ea4\u901a\u7701\u6771\u5317\u5730\u65b9\u6574\u5099\u5c40\u6e6f\u6ca2\u6cb3\u5ddd\u56fd\u9053\u4e8b\u52d9\u6240","boring_xml_url":40,"boring_view_url":1,"soilmap_view_url":null,"soiltest_xml_url":0,"soiltest_view_url":0},{"id":142280,"code":"B4KJ201801003-0529","latitude":"38.93961","longitude":"140.55086","source_code":"TH58403424001","project_name":"","survey_name":"\u5e73\u62104\u5e74\u5ea6\u9b3c\u9996\u9053\u8def\u5730\u76e4\u8abf\u67fb","client_name":"\u56fd\u571f\u4ea4\u901a\u7701\u6771\u5317\u5730\u65b9\u6574\u5099\u5c40\u6e6f\u6ca2\u6cb3\u5ddd\u56fd\u9053\u4e8b\u52d9\u6240","boring_xml_url":40,"boring_view_url":1,"soilmap_view_url":null,"soiltest_xml_url":0,"soiltest_view_url":0},{"id":142279,"code":"B4KJ201801003-0528","latitude":"38.92867","longitude":"140.5535","source_code":"TH58403414003","project_name":"","survey_name":"\u662d\u548c61\u5e74\u5ea6\u7b39\u6839\u6ca2\u5730\u533a\u5730\u76e4\u8abf\u67fb","client_name":"\u56fd\u571f\u4ea4\u901a\u7701\u6771\u5317\u5730\u65b9\u6574\u5099\u5c40\u6e6f\u6ca2\u6cb3\u5ddd\u56fd\u9053\u4e8b\u52d9\u6240","boring_xml_url":40,"boring_view_url":1,"soilmap_view_url":null,"soiltest_xml_url":0,"soiltest_view_url":0},{"id":142278,"code":"B4KJ201801003-0527","latitude":"38.92833","longitude":"140.55378","source_code":"TH58403414002","project_name":"","survey_name":"\u662d\u548c61\u5e74\u5ea6\u7b39\u6839\u6ca2\u5730\u533a\u5730\u76e4\u8abf\u67fb","client_name":"\u56fd\u571f\u4ea4\u901a\u7701\u6771\u5317\u5730\u65b9\u6574\u5099\u5c40\u6e6f\u6ca2\u6cb3\u5ddd\u56fd\u9053\u4e8b\u52d9\u6240","boring_xml_url":40,"boring_view_url":1,"soilmap_view_url":null,"soiltest_xml_url":0,"soiltest_view_url":0},{"id":142277,"code":"B4KJ201801003-0526","latitude":"38.928","longitude":"140.55419","source_code":"TH58403414001","project_name":"","survey_name":"\u662d\u548c61\u5e74\u5ea6\u7b39\u6839\u6ca2\u5730\u533a\u5730\u76e4\u8abf\u67fb","client_name":"\u56fd\u571f\u4ea4\u901a\u7701\u6771\u5317\u5730\u65b9\u6574\u5099\u5c40\u6e6f\u6ca2\u6cb3\u5ddd\u56fd\u9053\u4e8b\u52d9\u6240","boring_xml_url":40,"boring_view_url":1,"soilmap_view_url":null,"soiltest_xml_url":0,"soiltest_view_url":0},{"id":142276,"code":"B4KJ201801003-0525","latitude":"38.91978","longitude":"140.55822","source_code":"TH58403404087","project_name":"","survey_name":"\u662d\u548c56\u5e74\u5ea6\u79cb\u306e\u5bae\u5730\u533a\u7b2c3\u5730\u76e4\u8abf\u67fb","client_name":"\u56fd\u571f\u4ea4\u901a\u7701\u6771\u5317\u5730\u65b9\u6574\u5099\u5c40\u6e6f\u6ca2\u6cb3\u5ddd\u56fd\u9053\u4e8b\u52d9\u6240","boring_xml_url":40,"boring_view_url":1,"soilmap_view_url":null,"soiltest_xml_url":0,"soiltest_view_url":0},{"id":142275,"code":"B4KJ201801003-0524","latitude":"38.92508","longitude":"140.55589","source_code":"TH58403404086","project_name":"","survey_name":"\u5e73\u62105\u5e74\u5ea6\u79cb\u306e\u5bae\u5730\u533a\u5730\u76e4\u8abf\u67fb","client_name":"\u56fd\u571f\u4ea4\u901a\u7701\u6771\u5317\u5730\u65b9\u6574\u5099\u5c40\u6e6f\u6ca2\u6cb3\u5ddd\u56fd\u9053\u4e8b\u52d9\u6240","boring_xml_url":40,"boring_view_url":1,"soilmap_view_url":null,"soiltest_xml_url":0,"soiltest_view_url":0},{"id":142274,"code":"B4KJ201801003-0523","latitude":"38.92497","longitude":"140.55564","source_code":"TH58403404085","project_name":"","survey_name":"\u5e73\u62105\u5e74\u5ea6\u79cb\u306e\u5bae\u5730\u533a\u5730\u76e4\u8abf\u67fb","client_name":"\u56fd\u571f\u4ea4\u901a\u7701\u6771\u5317\u5730\u65b9\u6574\u5099\u5c40\u6e6f\u6ca2\u6cb3\u5ddd\u56fd\u9053\u4e8b\u52d9\u6240","boring_xml_url":40,"boring_view_url":1,"soilmap_view_url":null,"soiltest_xml_url":0,"soiltest_view_url":0},{"id":142273,"code":"B4KJ201801003-0522","latitude":"38.92622","longitude":"140.5555","source_code":"TH58403404084","project_name":"","survey_name":"\u5e73\u62105\u5e74\u5ea6\u79cb\u306e\u5bae\u5730\u533a\u5730\u76e4\u8abf\u67fb","client_name":"\u56fd\u571f\u4ea4\u901a\u7701\u6771\u5317\u5730\u65b9\u6574\u5099\u5c40\u6e6f\u6ca2\u6cb3\u5ddd\u56fd\u9053\u4e8b\u52d9\u6240","boring_xml_url":40,"boring_view_url":1,"soilmap_view_url":null,"soiltest_xml_url":0,"soiltest_view_url":0},{"id":142272,"code":"B4KJ201801003-0521","latitude":"38.92614","longitude":"140.55528","source_code":"TH58403404083","project_name":"","survey_name":"\u5e73\u62105\u5e74\u5ea6\u79cb\u306e\u5bae\u5730\u533a\u5730\u76e4\u8abf\u67fb","client_name":"\u56fd\u571f\u4ea4\u901a\u7701\u6771\u5317\u5730\u65b9\u6574\u5099\u5c40\u6e6f\u6ca2\u6cb3\u5ddd\u56fd\u9053\u4e8b\u52d9\u6240","boring_xml_url":40,"boring_view_url":1,"soilmap_view_url":null,"soiltest_xml_url":0,"soiltest_view_url":0},{"id":142271,"code":"B4KJ201801003-0520","latitude":"38.92603","longitude":"140.55519","source_code":"TH58403404082","project_name":"","survey_name":"\u5e73\u62105\u5e74\u5ea6\u79cb\u306e\u5bae\u5730\u533a\u5730\u76e4\u8abf\u67fb","client_name":"\u56fd\u571f\u4ea4\u901a\u7701\u6771\u5317\u5730\u65b9\u6574\u5099\u5c40\u6e6f\u6ca2\u6cb3\u5ddd\u56fd\u9053\u4e8b\u52d9\u6240","boring_xml_url":40,"boring_view_url":1,"soilmap_view_url":null,"soiltest_xml_url":0,"soiltest_view_url":0},{"id":142270,"code":"B4KJ201801003-0519","latitude":"38.92583","longitude":"140.55525","source_code":"TH58403404081","project_name":"","survey_name":"\u5e73\u62105\u5e74\u5ea6\u79cb\u306e\u5bae\u5730\u533a\u5730\u76e4\u8abf\u67fb","client_name":"\u56fd\u571f\u4ea4\u901a\u7701\u6771\u5317\u5730\u65b9\u6574\u5099\u5c40\u6e6f\u6ca2\u6cb3\u5ddd\u56fd\u9053\u4e8b\u52d9\u6240","boring_xml_url":40,"boring_view_url":1,"soilmap_view_url":null,"soiltest_xml_url":0,"soiltest_view_url":0},{"id":142269,"code":"B4KJ201801003-0518","latitude":"38.92542","longitude":"140.55503","source_code":"TH58403404080","project_name":"","survey_name":"\u5e73\u62105\u5e74\u5ea6\u79cb\u306e\u5bae\u5730\u533a\u5730\u76e4\u8abf\u67fb","client_name":"\u56fd\u571f\u4ea4\u901a\u7701\u6771\u5317\u5730\u65b9\u6574\u5099\u5c40\u6e6f\u6ca2\u6cb3\u5ddd\u56fd\u9053\u4e8b\u52d9\u6240","boring_xml_url":40,"boring_view_url":1,"soilmap_view_url":null,"soiltest_xml_url":0,"soiltest_view_url":0},{"id":142268,"code":"B4KJ201801003-0517","latitude":"38.92531","longitude":"140.55497","source_code":"TH58403404078","project_name":"","survey_name":"\u5e73\u62105\u5e74\u5ea6\u79cb\u306e\u5bae\u5730\u533a\u5730\u76e4\u8abf\u67fb","client_name":"\u56fd\u571f\u4ea4\u901a\u7701\u6771\u5317\u5730\u65b9\u6574\u5099\u5c40\u6e6f\u6ca2\u6cb3\u5ddd\u56fd\u9053\u4e8b\u52d9\u6240","boring_xml_url":40,"boring_view_url":1,"soilmap_view_url":null,"soiltest_xml_url":0,"soiltest_view_url":0},{"id":142267,"code":"B4KJ201801003-0516","latitude":"38.92522","longitude":"140.55519","source_code":"TH58403404077","project_name":"","survey_name":"\u5e73\u62105\u5e74\u5ea6\u79cb\u306e\u5bae\u5730\u533a\u5730\u76e4\u8abf\u67fb","client_name":"\u56fd\u571f\u4ea4\u901a\u7701\u6771\u5317\u5730\u65b9\u6574\u5099\u5c40\u6e6f\u6ca2\u6cb3\u5ddd\u56fd\u9053\u4e8b\u52d9\u6240","boring_xml_url":40,"boring_view_url":1,"soilmap_view_url":null,"soiltest_xml_url":0,"soiltest_view_url":0},{"id":142266,"code":"B4KJ201801003-0515","latitude":"38.92511","longitude":"140.55542","source_code":"TH58403404076","project_name":"","survey_name":"\u5e73\u62105\u5e74\u5ea6\u79cb\u306e\u5bae\u5730\u533a\u5730\u76e4\u8abf\u67fb","client_name":"\u56fd\u571f\u4ea4\u901a\u7701\u6771\u5317\u5730\u65b9\u6574\u5099\u5c40\u6e6f\u6ca2\u6cb3\u5ddd\u56fd\u9053\u4e8b\u52d9\u6240","boring_xml_url":40,"boring_view_url":1,"soilmap_view_url":null,"soiltest_xml_url":0,"soiltest_view_url":0},{"id":142265,"code":"B4KJ201801003-0514","latitude":"38.92403","longitude":"140.55661","source_code":"TH58403404075","project_name":"","survey_name":"\u5e73\u62105\u5e74\u5ea6\u79cb\u306e\u5bae\u5730\u533a\u5730\u76e4\u8abf\u67fb","client_name":"\u56fd\u571f\u4ea4\u901a\u7701\u6771\u5317\u5730\u65b9\u6574\u5099\u5c40\u6e6f\u6ca2\u6cb3\u5ddd\u56fd\u9053\u4e8b\u52d9\u6240","boring_xml_url":40,"boring_view_url":1,"soilmap_view_url":null,"soiltest_xml_url":0,"soiltest_view_url":0},{"id":142264,"code":"B4KJ201801003-0513","latitude":"38.92411","longitude":"140.55606","source_code":"TH58403404074","project_name":"","survey_name":"\u5e73\u62105\u5e74\u5ea6\u79cb\u306e\u5bae\u5730\u533a\u5730\u76e4\u8abf\u67fb","client_name":"\u56fd\u571f\u4ea4\u901a\u7701\u6771\u5317\u5730\u65b9\u6574\u5099\u5c40\u6e6f\u6ca2\u6cb3\u5ddd\u56fd\u9053\u4e8b\u52d9\u6240","boring_xml_url":40,"boring_view_url":1,"soilmap_view_url":null,"soiltest_xml_url":0,"soiltest_view_url":0},{"id":142263,"code":"B4KJ201801003-0512","latitude":"38.92394","longitude":"140.55617","source_code":"TH58403404073","project_name":"","survey_name":"\u5e73\u62105\u5e74\u5ea6\u79cb\u306e\u5bae\u5730\u533a\u5730\u76e4\u8abf\u67fb","client_name":"\u56fd\u571f\u4ea4\u901a\u7701\u6771\u5317\u5730\u65b9\u6574\u5099\u5c40\u6e6f\u6ca2\u6cb3\u5ddd\u56fd\u9053\u4e8b\u52d9\u6240","boring_xml_url":40,"boring_view_url":1,"soilmap_view_url":null,"soiltest_xml_url":0,"soiltest_view_url":0},{"id":142262,"code":"B4KJ201801003-0511","latitude":"38.92383","longitude":"140.55619","source_code":"TH58403404072","project_name":"","survey_name":"\u5e73\u62105\u5e74\u5ea6\u79cb\u306e\u5bae\u5730\u533a\u5730\u76e4\u8abf\u67fb","client_name":"\u56fd\u571f\u4ea4\u901a\u7701\u6771\u5317\u5730\u65b9\u6574\u5099\u5c40\u6e6f\u6ca2\u6cb3\u5ddd\u56fd\u9053\u4e8b\u52d9\u6240","boring_xml_url":40,"boring_view_url":1,"soilmap_view_url":null,"soiltest_xml_url":0,"soiltest_view_url":0},{"id":142261,"code":"B4KJ201801003-0510","latitude":"38.92486","longitude":"140.55578","source_code":"TH58403404071","project_name":"","survey_name":"\u5e73\u62105\u5e74\u5ea6\u79cb\u306e\u5bae\u5730\u533a\u5730\u76e4\u8abf\u67fb","client_name":"\u56fd\u571f\u4ea4\u901a\u7701\u6771\u5317\u5730\u65b9\u6574\u5099\u5c40\u6e6f\u6ca2\u6cb3\u5ddd\u56fd\u9053\u4e8b\u52d9\u6240","boring_xml_url":40,"boring_view_url":1,"soilmap_view_url":null,"soiltest_xml_url":0,"soiltest_view_url":0},{"id":142260,"code":"B4KJ201801003-0509","latitude":"38.92497","longitude":"140.55594","source_code":"TH58403404070","project_name":"","survey_name":"\u5e73\u62105\u5e74\u5ea6\u79cb\u306e\u5bae\u5730\u533a\u5730\u76e4\u8abf\u67fb","client_name":"\u56fd\u571f\u4ea4\u901a\u7701\u6771\u5317\u5730\u65b9\u6574\u5099\u5c40\u6e6f\u6ca2\u6cb3\u5ddd\u56fd\u9053\u4e8b\u52d9\u6240","boring_xml_url":40,"boring_view_url":1,"soilmap_view_url":null,"soiltest_xml_url":0,"soiltest_view_url":0},{"id":142259,"code":"B4KJ201801003-0508","latitude":"38.92464","longitude":"140.55592","source_code":"TH58403404069","project_name":"","survey_name":"\u5e73\u62105\u5e74\u5ea6\u79cb\u306e\u5bae\u5730\u533a\u5730\u76e4\u8abf\u67fb","client_name":"\u56fd\u571f\u4ea4\u901a\u7701\u6771\u5317\u5730\u65b9\u6574\u5099\u5c40\u6e6f\u6ca2\u6cb3\u5ddd\u56fd\u9053\u4e8b\u52d9\u6240","boring_xml_url":40,"boring_view_url":1,"soilmap_view_url":null,"soiltest_xml_url":0,"soiltest_view_url":0},{"id":142258,"code":"B4KJ201801003-0507","latitude":"38.92461","longitude":"140.55619","source_code":"TH58403404068","project_name":"","survey_name":"\u5e73\u62105\u5e74\u5ea6\u79cb\u306e\u5bae\u5730\u533a\u5730\u76e4\u8abf\u67fb","client_name":"\u56fd\u571f\u4ea4\u901a\u7701\u6771\u5317\u5730\u65b9\u6574\u5099\u5c40\u6e6f\u6ca2\u6cb3\u5ddd\u56fd\u9053\u4e8b\u52d9\u6240","boring_xml_url":40,"boring_view_url":1,"soilmap_view_url":null,"soiltest_xml_url":0,"soiltest_view_url":0},{"id":142257,"code":"B4KJ201801003-0506","latitude":"38.92439","longitude":"140.55619","source_code":"TH58403404067","project_name":"","survey_name":"\u5e73\u62105\u5e74\u5ea6\u79cb\u306e\u5bae\u5730\u533a\u5730\u76e4\u8abf\u67fb","client_name":"\u56fd\u571f\u4ea4\u901a\u7701\u6771\u5317\u5730\u65b9\u6574\u5099\u5c40\u6e6f\u6ca2\u6cb3\u5ddd\u56fd\u9053\u4e8b\u52d9\u6240","boring_xml_url":40,"boring_view_url":1,"soilmap_view_url":null,"soiltest_xml_url":0,"soiltest_view_url":0},{"id":142256,"code":"B4KJ201801003-0505","latitude":"38.92406","longitude":"140.55636","source_code":"TH58403404066","project_name":"","survey_name":"\u5e73\u62105\u5e74\u5ea6\u79cb\u306e\u5bae\u5730\u533a\u5730\u76e4\u8abf\u67fb","client_name":"\u56fd\u571f\u4ea4\u901a\u7701\u6771\u5317\u5730\u65b9\u6574\u5099\u5c40\u6e6f\u6ca2\u6cb3\u5ddd\u56fd\u9053\u4e8b\u52d9\u6240","boring_xml_url":40,"boring_view_url":1,"soilmap_view_url":null,"soiltest_xml_url":0,"soiltest_view_url":0}]}}