{"header":{"xyz":{"source":[],"mosaic":false},"page":5944,"raw":{"soiltest_result":"0","bbox":"57.598333,109.544722,1.933333,163.806111","page":"5944"},"conditions":{"soiltest_result":0,"north":57.598333,"west":109.544722,"south":1.933333,"east":163.806111},"success":true,"message":""},"data":{"meta":{"total":212844,"page":5944,"pages":7095,"count":30},"values":[{"id":142255,"code":"B4KJ201801003-0504","latitude":"38.92419","longitude":"140.5565","source_code":"TH58403404065","project_name":"","survey_name":"\u5e73\u62105\u5e74\u5ea6\u79cb\u306e\u5bae\u5730\u533a\u5730\u76e4\u8abf\u67fb","client_name":"\u56fd\u571f\u4ea4\u901a\u7701\u6771\u5317\u5730\u65b9\u6574\u5099\u5c40\u6e6f\u6ca2\u6cb3\u5ddd\u56fd\u9053\u4e8b\u52d9\u6240","boring_xml_url":40,"boring_view_url":1,"soilmap_view_url":null,"soiltest_xml_url":0,"soiltest_view_url":0},{"id":142254,"code":"B4KJ201801003-0503","latitude":"38.92297","longitude":"140.55708","source_code":"TH58403404064","project_name":"","survey_name":"\u5e73\u62105\u5e74\u5ea6\u79cb\u306e\u5bae\u5730\u533a\u5730\u76e4\u8abf\u67fb","client_name":"\u56fd\u571f\u4ea4\u901a\u7701\u6771\u5317\u5730\u65b9\u6574\u5099\u5c40\u6e6f\u6ca2\u6cb3\u5ddd\u56fd\u9053\u4e8b\u52d9\u6240","boring_xml_url":40,"boring_view_url":1,"soilmap_view_url":null,"soiltest_xml_url":0,"soiltest_view_url":0},{"id":142253,"code":"B4KJ201801003-0502","latitude":"38.92281","longitude":"140.55711","source_code":"TH58403404063","project_name":"","survey_name":"\u5e73\u62105\u5e74\u5ea6\u79cb\u306e\u5bae\u5730\u533a\u5730\u76e4\u8abf\u67fb","client_name":"\u56fd\u571f\u4ea4\u901a\u7701\u6771\u5317\u5730\u65b9\u6574\u5099\u5c40\u6e6f\u6ca2\u6cb3\u5ddd\u56fd\u9053\u4e8b\u52d9\u6240","boring_xml_url":40,"boring_view_url":1,"soilmap_view_url":null,"soiltest_xml_url":0,"soiltest_view_url":0},{"id":142252,"code":"B4KJ201801003-0501","latitude":"38.92261","longitude":"140.55736","source_code":"TH58403404061","project_name":"","survey_name":"\u5e73\u62105\u5e74\u5ea6\u79cb\u306e\u5bae\u5730\u533a\u5730\u76e4\u8abf\u67fb","client_name":"\u56fd\u571f\u4ea4\u901a\u7701\u6771\u5317\u5730\u65b9\u6574\u5099\u5c40\u6e6f\u6ca2\u6cb3\u5ddd\u56fd\u9053\u4e8b\u52d9\u6240","boring_xml_url":40,"boring_view_url":1,"soilmap_view_url":null,"soiltest_xml_url":0,"soiltest_view_url":0},{"id":142251,"code":"B4KJ201801003-0500","latitude":"38.92253","longitude":"140.55769","source_code":"TH58403404060","project_name":"","survey_name":"\u5e73\u62105\u5e74\u5ea6\u79cb\u306e\u5bae\u5730\u533a\u5730\u76e4\u8abf\u67fb","client_name":"\u56fd\u571f\u4ea4\u901a\u7701\u6771\u5317\u5730\u65b9\u6574\u5099\u5c40\u6e6f\u6ca2\u6cb3\u5ddd\u56fd\u9053\u4e8b\u52d9\u6240","boring_xml_url":40,"boring_view_url":1,"soilmap_view_url":null,"soiltest_xml_url":0,"soiltest_view_url":0},{"id":142250,"code":"B4KJ201801003-0499","latitude":"38.92225","longitude":"140.55781","source_code":"TH58403404058","project_name":"","survey_name":"\u5e73\u62105\u5e74\u5ea6\u79cb\u306e\u5bae\u5730\u533a\u5730\u76e4\u8abf\u67fb","client_name":"\u56fd\u571f\u4ea4\u901a\u7701\u6771\u5317\u5730\u65b9\u6574\u5099\u5c40\u6e6f\u6ca2\u6cb3\u5ddd\u56fd\u9053\u4e8b\u52d9\u6240","boring_xml_url":40,"boring_view_url":1,"soilmap_view_url":null,"soiltest_xml_url":0,"soiltest_view_url":0},{"id":142249,"code":"B4KJ201801003-0498","latitude":"38.92206","longitude":"140.55822","source_code":"TH58403404057","project_name":"","survey_name":"\u5e73\u62105\u5e74\u5ea6\u79cb\u306e\u5bae\u5730\u533a\u5730\u76e4\u8abf\u67fb","client_name":"\u56fd\u571f\u4ea4\u901a\u7701\u6771\u5317\u5730\u65b9\u6574\u5099\u5c40\u6e6f\u6ca2\u6cb3\u5ddd\u56fd\u9053\u4e8b\u52d9\u6240","boring_xml_url":40,"boring_view_url":1,"soilmap_view_url":null,"soiltest_xml_url":0,"soiltest_view_url":0},{"id":142248,"code":"B4KJ201801003-0497","latitude":"38.92203","longitude":"140.55781","source_code":"TH58403404056","project_name":"","survey_name":"\u5e73\u62105\u5e74\u5ea6\u79cb\u306e\u5bae\u5730\u533a\u5730\u76e4\u8abf\u67fb","client_name":"\u56fd\u571f\u4ea4\u901a\u7701\u6771\u5317\u5730\u65b9\u6574\u5099\u5c40\u6e6f\u6ca2\u6cb3\u5ddd\u56fd\u9053\u4e8b\u52d9\u6240","boring_xml_url":40,"boring_view_url":1,"soilmap_view_url":null,"soiltest_xml_url":0,"soiltest_view_url":0},{"id":142247,"code":"B4KJ201801003-0496","latitude":"38.92094","longitude":"140.55833","source_code":"TH58403404054","project_name":"","survey_name":"\u5e73\u62105\u5e74\u5ea6\u79cb\u306e\u5bae\u5730\u533a\u5730\u76e4\u8abf\u67fb","client_name":"\u56fd\u571f\u4ea4\u901a\u7701\u6771\u5317\u5730\u65b9\u6574\u5099\u5c40\u6e6f\u6ca2\u6cb3\u5ddd\u56fd\u9053\u4e8b\u52d9\u6240","boring_xml_url":40,"boring_view_url":1,"soilmap_view_url":null,"soiltest_xml_url":0,"soiltest_view_url":0},{"id":142246,"code":"B4KJ201801003-0495","latitude":"38.92069","longitude":"140.55858","source_code":"TH58403404053","project_name":"","survey_name":"\u5e73\u62105\u5e74\u5ea6\u79cb\u306e\u5bae\u5730\u533a\u5730\u76e4\u8abf\u67fb","client_name":"\u56fd\u571f\u4ea4\u901a\u7701\u6771\u5317\u5730\u65b9\u6574\u5099\u5c40\u6e6f\u6ca2\u6cb3\u5ddd\u56fd\u9053\u4e8b\u52d9\u6240","boring_xml_url":40,"boring_view_url":1,"soilmap_view_url":null,"soiltest_xml_url":0,"soiltest_view_url":0},{"id":142245,"code":"B4KJ201801003-0494","latitude":"38.92053","longitude":"140.55825","source_code":"TH58403404052","project_name":"","survey_name":"\u5e73\u62105\u5e74\u5ea6\u79cb\u306e\u5bae\u5730\u533a\u5730\u76e4\u8abf\u67fb","client_name":"\u56fd\u571f\u4ea4\u901a\u7701\u6771\u5317\u5730\u65b9\u6574\u5099\u5c40\u6e6f\u6ca2\u6cb3\u5ddd\u56fd\u9053\u4e8b\u52d9\u6240","boring_xml_url":40,"boring_view_url":1,"soilmap_view_url":null,"soiltest_xml_url":0,"soiltest_view_url":0},{"id":142244,"code":"B4KJ201801003-0493","latitude":"38.92025","longitude":"140.55856","source_code":"TH58403404051","project_name":"","survey_name":"\u5e73\u62105\u5e74\u5ea6\u79cb\u306e\u5bae\u5730\u533a\u5730\u76e4\u8abf\u67fb","client_name":"\u56fd\u571f\u4ea4\u901a\u7701\u6771\u5317\u5730\u65b9\u6574\u5099\u5c40\u6e6f\u6ca2\u6cb3\u5ddd\u56fd\u9053\u4e8b\u52d9\u6240","boring_xml_url":40,"boring_view_url":1,"soilmap_view_url":null,"soiltest_xml_url":0,"soiltest_view_url":0},{"id":142243,"code":"B4KJ201801003-0492","latitude":"38.92025","longitude":"140.55819","source_code":"TH58403404050","project_name":"","survey_name":"\u5e73\u62105\u5e74\u5ea6\u79cb\u306e\u5bae\u5730\u533a\u5730\u76e4\u8abf\u67fb","client_name":"\u56fd\u571f\u4ea4\u901a\u7701\u6771\u5317\u5730\u65b9\u6574\u5099\u5c40\u6e6f\u6ca2\u6cb3\u5ddd\u56fd\u9053\u4e8b\u52d9\u6240","boring_xml_url":40,"boring_view_url":1,"soilmap_view_url":null,"soiltest_xml_url":0,"soiltest_view_url":0},{"id":142242,"code":"B4KJ201801003-0491","latitude":"38.92189","longitude":"140.55828","source_code":"TH58403404049","project_name":"","survey_name":"\u79cb\u306e\u5bae\u5730\u533a\u5730\u76e4\u8abf\u67fb","client_name":"\u56fd\u571f\u4ea4\u901a\u7701\u6771\u5317\u5730\u65b9\u6574\u5099\u5c40\u6e6f\u6ca2\u6cb3\u5ddd\u56fd\u9053\u4e8b\u52d9\u6240","boring_xml_url":40,"boring_view_url":1,"soilmap_view_url":null,"soiltest_xml_url":0,"soiltest_view_url":0},{"id":142241,"code":"B4KJ201801003-0490","latitude":"38.92142","longitude":"140.55836","source_code":"TH58403404048","project_name":"","survey_name":"\u79cb\u306e\u5bae\u5730\u533a\u5730\u76e4\u8abf\u67fb","client_name":"\u56fd\u571f\u4ea4\u901a\u7701\u6771\u5317\u5730\u65b9\u6574\u5099\u5c40\u6e6f\u6ca2\u6cb3\u5ddd\u56fd\u9053\u4e8b\u52d9\u6240","boring_xml_url":40,"boring_view_url":1,"soilmap_view_url":null,"soiltest_xml_url":0,"soiltest_view_url":0},{"id":142240,"code":"B4KJ201801003-0489","latitude":"38.92133","longitude":"140.55819","source_code":"TH58403404047","project_name":"","survey_name":"\u79cb\u306e\u5bae\u5730\u533a\u5730\u76e4\u8abf\u67fb","client_name":"\u56fd\u571f\u4ea4\u901a\u7701\u6771\u5317\u5730\u65b9\u6574\u5099\u5c40\u6e6f\u6ca2\u6cb3\u5ddd\u56fd\u9053\u4e8b\u52d9\u6240","boring_xml_url":40,"boring_view_url":1,"soilmap_view_url":null,"soiltest_xml_url":0,"soiltest_view_url":0},{"id":142239,"code":"B4KJ201801003-0488","latitude":"38.92094","longitude":"140.55839","source_code":"TH58403404046","project_name":"","survey_name":"\u79cb\u306e\u5bae\u5730\u533a\u5730\u76e4\u8abf\u67fb","client_name":"\u56fd\u571f\u4ea4\u901a\u7701\u6771\u5317\u5730\u65b9\u6574\u5099\u5c40\u6e6f\u6ca2\u6cb3\u5ddd\u56fd\u9053\u4e8b\u52d9\u6240","boring_xml_url":40,"boring_view_url":1,"soilmap_view_url":null,"soiltest_xml_url":0,"soiltest_view_url":0},{"id":142238,"code":"B4KJ201801003-0487","latitude":"38.92644","longitude":"140.55553","source_code":"TH58403404036","project_name":"","survey_name":"\u7b39\u6839\u6ca2\u6a4b\u5730\u76e4\u8abf\u67fb","client_name":"\u56fd\u571f\u4ea4\u901a\u7701\u6771\u5317\u5730\u65b9\u6574\u5099\u5c40\u6e6f\u6ca2\u6cb3\u5ddd\u56fd\u9053\u4e8b\u52d9\u6240","boring_xml_url":40,"boring_view_url":1,"soilmap_view_url":null,"soiltest_xml_url":0,"soiltest_view_url":0},{"id":142237,"code":"B4KJ201801003-0486","latitude":"38.92644","longitude":"140.55564","source_code":"TH58403404035","project_name":"","survey_name":"\u7b39\u6839\u6ca2\u6a4b\u5730\u76e4\u8abf\u67fb","client_name":"\u56fd\u571f\u4ea4\u901a\u7701\u6771\u5317\u5730\u65b9\u6574\u5099\u5c40\u6e6f\u6ca2\u6cb3\u5ddd\u56fd\u9053\u4e8b\u52d9\u6240","boring_xml_url":40,"boring_view_url":1,"soilmap_view_url":null,"soiltest_xml_url":0,"soiltest_view_url":0},{"id":142236,"code":"B4KJ201801003-0485","latitude":"38.92747","longitude":"140.55433","source_code":"TH58403404034","project_name":"","survey_name":"\u662d\u548c61\u5e74\u5ea6\u7b39\u6839\u6ca2\u5730\u533a\u5730\u76e4\u8abf\u67fb","client_name":"\u56fd\u571f\u4ea4\u901a\u7701\u6771\u5317\u5730\u65b9\u6574\u5099\u5c40\u6e6f\u6ca2\u6cb3\u5ddd\u56fd\u9053\u4e8b\u52d9\u6240","boring_xml_url":40,"boring_view_url":1,"soilmap_view_url":null,"soiltest_xml_url":0,"soiltest_view_url":0},{"id":142235,"code":"B4KJ201801003-0484","latitude":"38.92769","longitude":"140.55433","source_code":"TH58403404033","project_name":"","survey_name":"\u662d\u548c61\u5e74\u5ea6\u7b39\u6839\u6ca2\u5730\u533a\u5730\u76e4\u8abf\u67fb","client_name":"\u56fd\u571f\u4ea4\u901a\u7701\u6771\u5317\u5730\u65b9\u6574\u5099\u5c40\u6e6f\u6ca2\u6cb3\u5ddd\u56fd\u9053\u4e8b\u52d9\u6240","boring_xml_url":40,"boring_view_url":1,"soilmap_view_url":null,"soiltest_xml_url":0,"soiltest_view_url":0},{"id":142234,"code":"B4KJ201801003-0483","latitude":"38.92747","longitude":"140.55447","source_code":"TH58403404032","project_name":"","survey_name":"\u662d\u548c61\u5e74\u5ea6\u7b39\u6839\u6ca2\u5730\u533a\u5730\u76e4\u8abf\u67fb","client_name":"\u56fd\u571f\u4ea4\u901a\u7701\u6771\u5317\u5730\u65b9\u6574\u5099\u5c40\u6e6f\u6ca2\u6cb3\u5ddd\u56fd\u9053\u4e8b\u52d9\u6240","boring_xml_url":40,"boring_view_url":1,"soilmap_view_url":null,"soiltest_xml_url":0,"soiltest_view_url":0},{"id":142233,"code":"B4KJ201801003-0482","latitude":"38.92689","longitude":"140.55461","source_code":"TH58403404031","project_name":"","survey_name":"\u662d\u548c61\u5e74\u5ea6\u7b39\u6839\u6ca2\u5730\u533a\u5730\u76e4\u8abf\u67fb","client_name":"\u56fd\u571f\u4ea4\u901a\u7701\u6771\u5317\u5730\u65b9\u6574\u5099\u5c40\u6e6f\u6ca2\u6cb3\u5ddd\u56fd\u9053\u4e8b\u52d9\u6240","boring_xml_url":40,"boring_view_url":1,"soilmap_view_url":null,"soiltest_xml_url":0,"soiltest_view_url":0},{"id":142232,"code":"B4KJ201801003-0481","latitude":"38.92711","longitude":"140.55489","source_code":"TH58403404030","project_name":"","survey_name":"\u662d\u548c61\u5e74\u5ea6\u7b39\u6839\u6ca2\u5730\u533a\u5730\u76e4\u8abf\u67fb","client_name":"\u56fd\u571f\u4ea4\u901a\u7701\u6771\u5317\u5730\u65b9\u6574\u5099\u5c40\u6e6f\u6ca2\u6cb3\u5ddd\u56fd\u9053\u4e8b\u52d9\u6240","boring_xml_url":40,"boring_view_url":1,"soilmap_view_url":null,"soiltest_xml_url":0,"soiltest_view_url":0},{"id":142231,"code":"B4KJ201801003-0480","latitude":"38.92767","longitude":"140.55489","source_code":"TH58403404029","project_name":"","survey_name":"\u662d\u548c56\u5e74\u5ea6\u79cb\u306e\u5bae\u5730\u533a\u7b2c3\u5730\u76e4\u8abf\u67fb","client_name":"\u56fd\u571f\u4ea4\u901a\u7701\u6771\u5317\u5730\u65b9\u6574\u5099\u5c40\u6e6f\u6ca2\u6cb3\u5ddd\u56fd\u9053\u4e8b\u52d9\u6240","boring_xml_url":40,"boring_view_url":1,"soilmap_view_url":null,"soiltest_xml_url":0,"soiltest_view_url":0},{"id":142230,"code":"B4KJ201801003-0479","latitude":"38.92733","longitude":"140.55503","source_code":"TH58403404028","project_name":"","survey_name":"\u662d\u548c56\u5e74\u5ea6\u79cb\u306e\u5bae\u5730\u533a\u7b2c3\u5730\u76e4\u8abf\u67fb","client_name":"\u56fd\u571f\u4ea4\u901a\u7701\u6771\u5317\u5730\u65b9\u6574\u5099\u5c40\u6e6f\u6ca2\u6cb3\u5ddd\u56fd\u9053\u4e8b\u52d9\u6240","boring_xml_url":40,"boring_view_url":1,"soilmap_view_url":null,"soiltest_xml_url":0,"soiltest_view_url":0},{"id":142229,"code":"B4KJ201801003-0478","latitude":"38.92711","longitude":"140.55533","source_code":"TH58403404027","project_name":"","survey_name":"\u662d\u548c56\u5e74\u5ea6\u79cb\u306e\u5bae\u5730\u533a\u7b2c3\u5730\u76e4\u8abf\u67fb","client_name":"\u56fd\u571f\u4ea4\u901a\u7701\u6771\u5317\u5730\u65b9\u6574\u5099\u5c40\u6e6f\u6ca2\u6cb3\u5ddd\u56fd\u9053\u4e8b\u52d9\u6240","boring_xml_url":40,"boring_view_url":1,"soilmap_view_url":null,"soiltest_xml_url":0,"soiltest_view_url":0},{"id":142228,"code":"B4KJ201801003-0477","latitude":"38.92675","longitude":"140.55533","source_code":"TH58403404026","project_name":"","survey_name":"\u662d\u548c56\u5e74\u5ea6\u79cb\u306e\u5bae\u5730\u533a\u7b2c3\u5730\u76e4\u8abf\u67fb","client_name":"\u56fd\u571f\u4ea4\u901a\u7701\u6771\u5317\u5730\u65b9\u6574\u5099\u5c40\u6e6f\u6ca2\u6cb3\u5ddd\u56fd\u9053\u4e8b\u52d9\u6240","boring_xml_url":40,"boring_view_url":1,"soilmap_view_url":null,"soiltest_xml_url":0,"soiltest_view_url":0},{"id":142227,"code":"B4KJ201801003-0476","latitude":"38.92689","longitude":"140.55561","source_code":"TH58403404025","project_name":"","survey_name":"\u662d\u548c56\u5e74\u5ea6\u79cb\u306e\u5bae\u5730\u533a\u7b2c3\u5730\u76e4\u8abf\u67fb","client_name":"\u56fd\u571f\u4ea4\u901a\u7701\u6771\u5317\u5730\u65b9\u6574\u5099\u5c40\u6e6f\u6ca2\u6cb3\u5ddd\u56fd\u9053\u4e8b\u52d9\u6240","boring_xml_url":40,"boring_view_url":1,"soilmap_view_url":null,"soiltest_xml_url":0,"soiltest_view_url":0},{"id":142226,"code":"B4KJ201801003-0475","latitude":"38.92653","longitude":"140.55544","source_code":"TH58403404024","project_name":"","survey_name":"\u662d\u548c56\u5e74\u5ea6\u79cb\u306e\u5bae\u5730\u533a\u7b2c3\u5730\u76e4\u8abf\u67fb","client_name":"\u56fd\u571f\u4ea4\u901a\u7701\u6771\u5317\u5730\u65b9\u6574\u5099\u5c40\u6e6f\u6ca2\u6cb3\u5ddd\u56fd\u9053\u4e8b\u52d9\u6240","boring_xml_url":40,"boring_view_url":1,"soilmap_view_url":null,"soiltest_xml_url":0,"soiltest_view_url":0}]}}