{"header":{"xyz":{"source":[],"mosaic":false},"page":5956,"raw":{"soiltest_result":"0","bbox":"57.598333,109.544722,1.933333,163.806111","page":"5956"},"conditions":{"soiltest_result":0,"north":57.598333,"west":109.544722,"south":1.933333,"east":163.806111},"success":true,"message":""},"data":{"meta":{"total":212844,"page":5956,"pages":7095,"count":30},"values":[{"id":141895,"code":"B4KJ201801003-0144","latitude":"38.70744","longitude":"140.36528","source_code":"TH58400249002","project_name":"","survey_name":"\u540d\u6728\u6ca2\u6a4b\u5916\u30ce\u6a4b\u6b69\u9053\u6a4b\u5b9f\u65bd\u8a2d\u8a08\u696d\u52d9","client_name":"\u56fd\u571f\u4ea4\u901a\u7701\u6771\u5317\u5730\u65b9\u6574\u5099\u5c40\u5c71\u5f62\u6cb3\u5ddd\u56fd\u9053\u4e8b\u52d9\u6240","boring_xml_url":40,"boring_view_url":1,"soilmap_view_url":null,"soiltest_xml_url":0,"soiltest_view_url":0},{"id":141894,"code":"B4KJ201801003-0143","latitude":"38.70744","longitude":"140.36497","source_code":"TH58400249001","project_name":"","survey_name":"\u540d\u6728\u6ca2\u6a4b\u5916\u30ce\u6a4b\u6b69\u9053\u6a4b\u5b9f\u65bd\u8a2d\u8a08\u696d\u52d9","client_name":"\u56fd\u571f\u4ea4\u901a\u7701\u6771\u5317\u5730\u65b9\u6574\u5099\u5c40\u5c71\u5f62\u6cb3\u5ddd\u56fd\u9053\u4e8b\u52d9\u6240","boring_xml_url":40,"boring_view_url":1,"soilmap_view_url":null,"soiltest_xml_url":0,"soiltest_view_url":0},{"id":141893,"code":"B4KJ201801003-0142","latitude":"38.70375","longitude":"140.31614","source_code":"TH58400245002","project_name":"","survey_name":"\u662d\u548c59\u5e74\u5ea6\u67f4\u5c71\u3053\u7dda\u6a4b\u59161\u6a4b\u6b69\u9053\u6a4b\u5b9f\u65bd\u63a5\u8a08\u696d\u52d9","client_name":"\u56fd\u571f\u4ea4\u901a\u7701\u6771\u5317\u5730\u65b9\u6574\u5099\u5c40\u5c71\u5f62\u6cb3\u5ddd\u56fd\u9053\u4e8b\u52d9\u6240","boring_xml_url":40,"boring_view_url":1,"soilmap_view_url":null,"soiltest_xml_url":0,"soiltest_view_url":0},{"id":141892,"code":"B4KJ201801003-0141","latitude":"38.70375","longitude":"140.31614","source_code":"TH58400245001","project_name":"","survey_name":"\u662d\u548c59\u5e74\u5ea6\u67f4\u5c71\u3053\u7dda\u6a4b\u59161\u6a4b\u6b69\u9053\u6a4b\u5b9f\u65bd\u63a5\u8a08\u696d\u52d9","client_name":"\u56fd\u571f\u4ea4\u901a\u7701\u6771\u5317\u5730\u65b9\u6574\u5099\u5c40\u5c71\u5f62\u6cb3\u5ddd\u56fd\u9053\u4e8b\u52d9\u6240","boring_xml_url":40,"boring_view_url":1,"soilmap_view_url":null,"soiltest_xml_url":0,"soiltest_view_url":0},{"id":141891,"code":"B4KJ201801003-0140","latitude":"38.71042","longitude":"140.30792","source_code":"TH58400244002","project_name":"","survey_name":"\u5c3e\u82b1\u6ca2\u65b0\u5e84\u9053\u8def\u65b0\u5e84\u5730\u533a\u5730\u8cea\u8abf\u67fb","client_name":"\u56fd\u571f\u4ea4\u901a\u7701\u6771\u5317\u5730\u65b9\u6574\u5099\u5c40\u5c71\u5f62\u6cb3\u5ddd\u56fd\u9053\u4e8b\u52d9\u6240","boring_xml_url":40,"boring_view_url":1,"soilmap_view_url":null,"soiltest_xml_url":0,"soiltest_view_url":0},{"id":141890,"code":"B4KJ201801003-0139","latitude":"38.69583","longitude":"140.31081","source_code":"TH58400235013","project_name":"","survey_name":"\u821f\u5f62\u5927\u6a4b\u5730\u76e4\u8abf\u67fb","client_name":"\u56fd\u571f\u4ea4\u901a\u7701\u6771\u5317\u5730\u65b9\u6574\u5099\u5c40\u5c71\u5f62\u6cb3\u5ddd\u56fd\u9053\u4e8b\u52d9\u6240","boring_xml_url":40,"boring_view_url":1,"soilmap_view_url":null,"soiltest_xml_url":0,"soiltest_view_url":0},{"id":141889,"code":"B4KJ201801003-0138","latitude":"38.69514","longitude":"140.31108","source_code":"TH58400235012","project_name":"","survey_name":"\u821f\u5f62\u5927\u6a4b\u5730\u76e4\u8abf\u67fb","client_name":"\u56fd\u571f\u4ea4\u901a\u7701\u6771\u5317\u5730\u65b9\u6574\u5099\u5c40\u5c71\u5f62\u6cb3\u5ddd\u56fd\u9053\u4e8b\u52d9\u6240","boring_xml_url":40,"boring_view_url":1,"soilmap_view_url":null,"soiltest_xml_url":0,"soiltest_view_url":0},{"id":141888,"code":"B4KJ201801003-0137","latitude":"38.69481","longitude":"140.31047","source_code":"TH58400235006","project_name":"","survey_name":"\u5e73\u62102\u5e74\u5ea6\u821f\u5f62\u5927\u6a4b\u5730\u76e4\u8abf\u67fb","client_name":"\u56fd\u571f\u4ea4\u901a\u7701\u6771\u5317\u5730\u65b9\u6574\u5099\u5c40\u5c71\u5f62\u6cb3\u5ddd\u56fd\u9053\u4e8b\u52d9\u6240","boring_xml_url":40,"boring_view_url":1,"soilmap_view_url":null,"soiltest_xml_url":0,"soiltest_view_url":0},{"id":141887,"code":"B4KJ201801003-0136","latitude":"38.69525","longitude":"140.31047","source_code":"TH58400235005","project_name":"","survey_name":"\u5e73\u62102\u5e74\u5ea6\u821f\u5f62\u5927\u6a4b\u5730\u76e4\u8abf\u67fb","client_name":"\u56fd\u571f\u4ea4\u901a\u7701\u6771\u5317\u5730\u65b9\u6574\u5099\u5c40\u5c71\u5f62\u6cb3\u5ddd\u56fd\u9053\u4e8b\u52d9\u6240","boring_xml_url":40,"boring_view_url":1,"soilmap_view_url":null,"soiltest_xml_url":0,"soiltest_view_url":0},{"id":141886,"code":"B4KJ201801003-0135","latitude":"38.69639","longitude":"140.31158","source_code":"TH58400235004","project_name":"","survey_name":"\u5e73\u62102\u5e74\u5ea6\u821f\u5f62\u5927\u6a4b\u5730\u76e4\u8abf\u67fb","client_name":"\u56fd\u571f\u4ea4\u901a\u7701\u6771\u5317\u5730\u65b9\u6574\u5099\u5c40\u5c71\u5f62\u6cb3\u5ddd\u56fd\u9053\u4e8b\u52d9\u6240","boring_xml_url":40,"boring_view_url":1,"soilmap_view_url":null,"soiltest_xml_url":0,"soiltest_view_url":0},{"id":141885,"code":"B4KJ201801003-0134","latitude":"38.69847","longitude":"140.31047","source_code":"TH58400235003","project_name":"","survey_name":"\u821f\u5f62\u30c8\u30f3\u30cd\u30eb\u5730\u76e4\u8abf\u67fb","client_name":"\u56fd\u571f\u4ea4\u901a\u7701\u6771\u5317\u5730\u65b9\u6574\u5099\u5c40\u5c71\u5f62\u6cb3\u5ddd\u56fd\u9053\u4e8b\u52d9\u6240","boring_xml_url":40,"boring_view_url":1,"soilmap_view_url":null,"soiltest_xml_url":0,"soiltest_view_url":0},{"id":141884,"code":"B4KJ201801003-0133","latitude":"38.69486","longitude":"140.31158","source_code":"TH58400235001","project_name":"","survey_name":"\u821f\u5f62\u30c8\u30f3\u30cd\u30eb\u5730\u76e4\u8abf\u67fb","client_name":"\u56fd\u571f\u4ea4\u901a\u7701\u6771\u5317\u5730\u65b9\u6574\u5099\u5c40\u5c71\u5f62\u6cb3\u5ddd\u56fd\u9053\u4e8b\u52d9\u6240","boring_xml_url":40,"boring_view_url":1,"soilmap_view_url":null,"soiltest_xml_url":0,"soiltest_view_url":0},{"id":141883,"code":"B4KJ201801003-0132","latitude":"38.69447","longitude":"140.31139","source_code":"TH58400225011","project_name":"","survey_name":"\u821f\u5f62\u5927\u6a4b\u5730\u76e4\u8abf\u67fb","client_name":"\u56fd\u571f\u4ea4\u901a\u7701\u6771\u5317\u5730\u65b9\u6574\u5099\u5c40\u5c71\u5f62\u6cb3\u5ddd\u56fd\u9053\u4e8b\u52d9\u6240","boring_xml_url":40,"boring_view_url":1,"soilmap_view_url":null,"soiltest_xml_url":0,"soiltest_view_url":0},{"id":141882,"code":"B4KJ201801003-0131","latitude":"38.69358","longitude":"140.31167","source_code":"TH58400225010","project_name":"","survey_name":"\u821f\u5f62\u5927\u6a4b\u5730\u76e4\u8abf\u67fb","client_name":"\u56fd\u571f\u4ea4\u901a\u7701\u6771\u5317\u5730\u65b9\u6574\u5099\u5c40\u5c71\u5f62\u6cb3\u5ddd\u56fd\u9053\u4e8b\u52d9\u6240","boring_xml_url":40,"boring_view_url":1,"soilmap_view_url":null,"soiltest_xml_url":0,"soiltest_view_url":0},{"id":141881,"code":"B4KJ201801003-0130","latitude":"38.68775","longitude":"140.31356","source_code":"TH58400225008","project_name":"","survey_name":"\u5e73\u62104\u5e74\u5ea6\u897f\u5800\u5730\u533a\u5730\u76e4\u8abf\u67fb","client_name":"\u56fd\u571f\u4ea4\u901a\u7701\u6771\u5317\u5730\u65b9\u6574\u5099\u5c40\u5c71\u5f62\u6cb3\u5ddd\u56fd\u9053\u4e8b\u52d9\u6240","boring_xml_url":40,"boring_view_url":1,"soilmap_view_url":null,"soiltest_xml_url":0,"soiltest_view_url":0},{"id":141880,"code":"B4KJ201801003-0129","latitude":"38.68772","longitude":"140.31356","source_code":"TH58400225006","project_name":"","survey_name":"\u5e73\u62104\u5e74\u5ea6\u897f\u5800\u5730\u533a\u5730\u76e4\u8abf\u67fb","client_name":"\u56fd\u571f\u4ea4\u901a\u7701\u6771\u5317\u5730\u65b9\u6574\u5099\u5c40\u5c71\u5f62\u6cb3\u5ddd\u56fd\u9053\u4e8b\u52d9\u6240","boring_xml_url":40,"boring_view_url":1,"soilmap_view_url":null,"soiltest_xml_url":0,"soiltest_view_url":0},{"id":141879,"code":"B4KJ201801003-0128","latitude":"38.68931","longitude":"140.31492","source_code":"TH58400225005","project_name":"","survey_name":"\u821f\u5f62\u30c8\u30f3\u30cd\u30eb\u5730\u76e4\u8abf\u67fb","client_name":"\u56fd\u571f\u4ea4\u901a\u7701\u6771\u5317\u5730\u65b9\u6574\u5099\u5c40\u5c71\u5f62\u6cb3\u5ddd\u56fd\u9053\u4e8b\u52d9\u6240","boring_xml_url":40,"boring_view_url":1,"soilmap_view_url":null,"soiltest_xml_url":0,"soiltest_view_url":0},{"id":141878,"code":"B4KJ201801003-0127","latitude":"38.68792","longitude":"140.31575","source_code":"TH58400225004","project_name":"","survey_name":"\u821f\u5f62\u30c8\u30f3\u30cd\u30eb\u5730\u76e4\u8abf\u67fb","client_name":"\u56fd\u571f\u4ea4\u901a\u7701\u6771\u5317\u5730\u65b9\u6574\u5099\u5c40\u5c71\u5f62\u6cb3\u5ddd\u56fd\u9053\u4e8b\u52d9\u6240","boring_xml_url":40,"boring_view_url":1,"soilmap_view_url":null,"soiltest_xml_url":0,"soiltest_view_url":0},{"id":141877,"code":"B4KJ201801003-0126","latitude":"38.68514","longitude":"140.31547","source_code":"TH58400215002","project_name":"","survey_name":"\u821f\u5f62\u30c8\u30f3\u30cd\u30eb\u5730\u76e4\u8abf\u67fb","client_name":"\u56fd\u571f\u4ea4\u901a\u7701\u6771\u5317\u5730\u65b9\u6574\u5099\u5c40\u5c71\u5f62\u6cb3\u5ddd\u56fd\u9053\u4e8b\u52d9\u6240","boring_xml_url":40,"boring_view_url":1,"soilmap_view_url":null,"soiltest_xml_url":0,"soiltest_view_url":0},{"id":141876,"code":"B4KJ201801003-0125","latitude":"38.68264","longitude":"140.31714","source_code":"TH58400215001","project_name":"","survey_name":"\u821f\u5f62\u30c8\u30f3\u30cd\u30eb\u5730\u76e4\u8abf\u67fb","client_name":"\u56fd\u571f\u4ea4\u901a\u7701\u6771\u5317\u5730\u65b9\u6574\u5099\u5c40\u5c71\u5f62\u6cb3\u5ddd\u56fd\u9053\u4e8b\u52d9\u6240","boring_xml_url":40,"boring_view_url":1,"soilmap_view_url":null,"soiltest_xml_url":0,"soiltest_view_url":0},{"id":141875,"code":"B4KJ201801003-0124","latitude":"38.67319","longitude":"140.32733","source_code":"TH58400206004","project_name":"","survey_name":"\u5e73\u62103\u5e74\u5ea6\u5c3e\u82b1\u6ca2\u65b0\u5e84\u9053\u8def\u6bd2\u6ca2\u5730\u533a\u5730\u8cea\u8abf\u67fb","client_name":"\u56fd\u571f\u4ea4\u901a\u7701\u6771\u5317\u5730\u65b9\u6574\u5099\u5c40\u5c71\u5f62\u6cb3\u5ddd\u56fd\u9053\u4e8b\u52d9\u6240","boring_xml_url":40,"boring_view_url":1,"soilmap_view_url":null,"soiltest_xml_url":0,"soiltest_view_url":0},{"id":141874,"code":"B4KJ201801003-0123","latitude":"38.67275","longitude":"140.32792","source_code":"TH58400206003","project_name":"","survey_name":"\u5e73\u62103\u5e74\u5ea6\u5c3e\u82b1\u6ca2\u65b0\u5e84\u9053\u8def\u6bd2\u6ca2\u5730\u533a\u5730\u8cea\u8abf\u67fb","client_name":"\u56fd\u571f\u4ea4\u901a\u7701\u6771\u5317\u5730\u65b9\u6574\u5099\u5c40\u5c71\u5f62\u6cb3\u5ddd\u56fd\u9053\u4e8b\u52d9\u6240","boring_xml_url":40,"boring_view_url":1,"soilmap_view_url":null,"soiltest_xml_url":0,"soiltest_view_url":0},{"id":141873,"code":"B4KJ201801003-0122","latitude":"38.67206","longitude":"140.32925","source_code":"TH58400206002","project_name":"","survey_name":"\u662d\u548c61\u5e74\u5ea6\u821f\u5f62\u30d0\u30a4\u30d1\u30b9\u5730\u76e4\u8abf\u67fb","client_name":"\u56fd\u571f\u4ea4\u901a\u7701\u6771\u5317\u5730\u65b9\u6574\u5099\u5c40\u5c71\u5f62\u6cb3\u5ddd\u56fd\u9053\u4e8b\u52d9\u6240","boring_xml_url":40,"boring_view_url":1,"soilmap_view_url":null,"soiltest_xml_url":0,"soiltest_view_url":0},{"id":141872,"code":"B4KJ201801003-0121","latitude":"38.67375","longitude":"140.32783","source_code":"TH58400206001","project_name":"","survey_name":"\u662d\u548c61\u5e74\u5ea6\u821f\u5f62\u30d0\u30a4\u30d1\u30b9\u5730\u76e4\u8abf\u67fb","client_name":"\u56fd\u571f\u4ea4\u901a\u7701\u6771\u5317\u5730\u65b9\u6574\u5099\u5c40\u5c71\u5f62\u6cb3\u5ddd\u56fd\u9053\u4e8b\u52d9\u6240","boring_xml_url":40,"boring_view_url":1,"soilmap_view_url":null,"soiltest_xml_url":0,"soiltest_view_url":0},{"id":141871,"code":"B4KJ201801003-0120","latitude":"38.67386","longitude":"140.26925","source_code":"TH58400201002","project_name":"","survey_name":"\u662d\u548c61\u5e74\u5ea6\u6700\u4e0a\u5ddd\u4e2d\u6d41\u6cb3\u5cb8\u8abf\u67fb\u6e2c\u91cf","client_name":"\u56fd\u571f\u4ea4\u901a\u7701\u6771\u5317\u5730\u65b9\u6574\u5099\u5c40\u65b0\u5e84\u6cb3\u5ddd\u4e8b\u52d9\u6240","boring_xml_url":40,"boring_view_url":1,"soilmap_view_url":null,"soiltest_xml_url":0,"soiltest_view_url":0},{"id":141870,"code":"B4KJ201801003-0119","latitude":"38.67094","longitude":"140.26883","source_code":"TH58400201001","project_name":"","survey_name":"\u662d\u548c61\u5e74\u5ea6\u6700\u4e0a\u5ddd\u4e2d\u6d41\u6cb3\u5cb8\u8abf\u67fb\u6e2c\u91cf","client_name":"\u56fd\u571f\u4ea4\u901a\u7701\u6771\u5317\u5730\u65b9\u6574\u5099\u5c40\u65b0\u5e84\u6cb3\u5ddd\u4e8b\u52d9\u6240","boring_xml_url":40,"boring_view_url":1,"soilmap_view_url":null,"soiltest_xml_url":0,"soiltest_view_url":0},{"id":141869,"code":"B4KJ201801003-0118","latitude":"38.74972","longitude":"140.18769","source_code":"TH58400195003","project_name":"","survey_name":"\u540d\u9ad8\u5730\u533a\u7528\u6c34\u53ca\u3073\u6392\u6c34\u6a0b\u7ba1\u8a2d\u8a08\u696d\u52d9","client_name":"\u56fd\u571f\u4ea4\u901a\u7701\u6771\u5317\u5730\u65b9\u6574\u5099\u5c40\u65b0\u5e84\u6cb3\u5ddd\u4e8b\u52d9\u6240","boring_xml_url":40,"boring_view_url":1,"soilmap_view_url":null,"soiltest_xml_url":0,"soiltest_view_url":0},{"id":141868,"code":"B4KJ201801003-0117","latitude":"38.74997","longitude":"140.18742","source_code":"TH58400195002","project_name":"","survey_name":"\u540d\u9ad8\u5730\u533a\u7528\u6c34\u53ca\u3073\u6392\u6c34\u6a0b\u7ba1\u8a2d\u8a08\u696d\u52d9","client_name":"\u56fd\u571f\u4ea4\u901a\u7701\u6771\u5317\u5730\u65b9\u6574\u5099\u5c40\u65b0\u5e84\u6cb3\u5ddd\u4e8b\u52d9\u6240","boring_xml_url":40,"boring_view_url":1,"soilmap_view_url":null,"soiltest_xml_url":0,"soiltest_view_url":0},{"id":141867,"code":"B4KJ201801003-0116","latitude":"38.75064","longitude":"140.18742","source_code":"TH58400195001","project_name":"","survey_name":"\u540d\u9ad8\u5730\u533a\u7528\u6c34\u53ca\u3073\u6392\u6c34\u6a0b\u7ba1\u8a2d\u8a08\u696d\u52d9","client_name":"\u56fd\u571f\u4ea4\u901a\u7701\u6771\u5317\u5730\u65b9\u6574\u5099\u5c40\u65b0\u5e84\u6cb3\u5ddd\u4e8b\u52d9\u6240","boring_xml_url":40,"boring_view_url":1,"soilmap_view_url":null,"soiltest_xml_url":0,"soiltest_view_url":0},{"id":141866,"code":"B4KJ201801003-0115","latitude":"38.74011","longitude":"140.24489","source_code":"TH58400189002","project_name":"","survey_name":"\u5e73\u62106\u5e74\u5ea6\u65b0\u5e84\u5730\u533a\u5730\u76e4\u8abf\u67fb","client_name":"\u56fd\u571f\u4ea4\u901a\u7701\u6771\u5317\u5730\u65b9\u6574\u5099\u5c40\u5c71\u5f62\u6cb3\u5ddd\u56fd\u9053\u4e8b\u52d9\u6240","boring_xml_url":40,"boring_view_url":1,"soilmap_view_url":null,"soiltest_xml_url":0,"soiltest_view_url":0}]}}