{"header":{"xyz":{"source":[],"mosaic":false},"page":5958,"raw":{"soiltest_result":"0","bbox":"57.598333,109.544722,1.933333,163.806111","page":"5958"},"conditions":{"soiltest_result":0,"north":57.598333,"west":109.544722,"south":1.933333,"east":163.806111},"success":true,"message":""},"data":{"meta":{"total":212844,"page":5958,"pages":7095,"count":30},"values":[{"id":141835,"code":"B4KJ201801003-0084","latitude":"38.72786","longitude":"140.16075","source_code":"TH58400163003","project_name":"","survey_name":"\u5e73\u62107\u5e74\u5ea6\u9ed2\u6e15\u5730\u533a\u5730\u8cea\u8abf\u67fb(\u305d\u306e2)","client_name":"\u56fd\u571f\u4ea4\u901a\u7701\u6771\u5317\u5730\u65b9\u6574\u5099\u5c40\u65b0\u5e84\u6cb3\u5ddd\u4e8b\u52d9\u6240","boring_xml_url":40,"boring_view_url":1,"soilmap_view_url":null,"soiltest_xml_url":0,"soiltest_view_url":0},{"id":141834,"code":"B4KJ201801003-0083","latitude":"38.72642","longitude":"140.16472","source_code":"TH58400163002","project_name":"","survey_name":"\u5e73\u62105\u5e74\u5ea6\u9ed2\u6e15\u5730\u3059\u3079\u308a\u5730\u8cea\u8abf\u67fb(\u305d\u306e2)","client_name":"\u56fd\u571f\u4ea4\u901a\u7701\u6771\u5317\u5730\u65b9\u6574\u5099\u5c40\u65b0\u5e84\u6cb3\u5ddd\u4e8b\u52d9\u6240","boring_xml_url":40,"boring_view_url":1,"soilmap_view_url":null,"soiltest_xml_url":0,"soiltest_view_url":0},{"id":141833,"code":"B4KJ201801003-0082","latitude":"38.72744","longitude":"140.16472","source_code":"TH58400163001","project_name":"","survey_name":"\u5e73\u62105\u5e74\u5ea6\u9ed2\u6e15\u5730\u3059\u3079\u308a\u5730\u8cea\u8abf\u67fb(\u305d\u306e2)","client_name":"\u56fd\u571f\u4ea4\u901a\u7701\u6771\u5317\u5730\u65b9\u6574\u5099\u5c40\u65b0\u5e84\u6cb3\u5ddd\u4e8b\u52d9\u6240","boring_xml_url":40,"boring_view_url":1,"soilmap_view_url":null,"soiltest_xml_url":0,"soiltest_view_url":0},{"id":141832,"code":"B4KJ201801003-0081","latitude":"38.72772","longitude":"140.15819","source_code":"TH58400162001","project_name":"","survey_name":"\u9ed2\u6e15\u6392\u6c34\u30c8\u30f3\u30cd\u30eb\u8a2d\u8a08\u696d\u52d9","client_name":"\u56fd\u571f\u4ea4\u901a\u7701\u6771\u5317\u5730\u65b9\u6574\u5099\u5c40\u65b0\u5e84\u6cb3\u5ddd\u4e8b\u52d9\u6240","boring_xml_url":40,"boring_view_url":1,"soilmap_view_url":null,"soiltest_xml_url":0,"soiltest_view_url":0},{"id":141831,"code":"B4KJ201801003-0080","latitude":"38.70672","longitude":"140.22478","source_code":"TH58400148007","project_name":"","survey_name":"\u6e05\u6c34\u5824\u9632\u6f0f\u6c34\u8abf\u67fb","client_name":"\u56fd\u571f\u4ea4\u901a\u7701\u6771\u5317\u5730\u65b9\u6574\u5099\u5c40\u65b0\u5e84\u6cb3\u5ddd\u4e8b\u52d9\u6240","boring_xml_url":40,"boring_view_url":1,"soilmap_view_url":null,"soiltest_xml_url":0,"soiltest_view_url":0},{"id":141830,"code":"B4KJ201801003-0079","latitude":"38.70717","longitude":"140.22478","source_code":"TH58400148006","project_name":"","survey_name":"\u6e05\u6c34\u5824\u9632\u6f0f\u6c34\u8abf\u67fb","client_name":"\u56fd\u571f\u4ea4\u901a\u7701\u6771\u5317\u5730\u65b9\u6574\u5099\u5c40\u65b0\u5e84\u6cb3\u5ddd\u4e8b\u52d9\u6240","boring_xml_url":40,"boring_view_url":1,"soilmap_view_url":null,"soiltest_xml_url":0,"soiltest_view_url":0},{"id":141829,"code":"B4KJ201801003-0078","latitude":"38.70739","longitude":"140.22506","source_code":"TH58400148005","project_name":"","survey_name":"\u6e05\u6c34\u5824\u9632\u6f0f\u6c34\u8abf\u67fb","client_name":"\u56fd\u571f\u4ea4\u901a\u7701\u6771\u5317\u5730\u65b9\u6574\u5099\u5c40\u65b0\u5e84\u6cb3\u5ddd\u4e8b\u52d9\u6240","boring_xml_url":40,"boring_view_url":1,"soilmap_view_url":null,"soiltest_xml_url":0,"soiltest_view_url":0},{"id":141828,"code":"B4KJ201801003-0077","latitude":"38.70783","longitude":"140.22478","source_code":"TH58400148004","project_name":"","survey_name":"\u6e05\u6c34\u5824\u9632\u6f0f\u6c34\u8abf\u67fb","client_name":"\u56fd\u571f\u4ea4\u901a\u7701\u6771\u5317\u5730\u65b9\u6574\u5099\u5c40\u65b0\u5e84\u6cb3\u5ddd\u4e8b\u52d9\u6240","boring_xml_url":40,"boring_view_url":1,"soilmap_view_url":null,"soiltest_xml_url":0,"soiltest_view_url":0},{"id":141827,"code":"B4KJ201801003-0076","latitude":"38.69122","longitude":"140.126","source_code":"TH58400120011","project_name":"","survey_name":"\u9e7f\u306e\u6ca2\u7b2c\u4e8c\u30c0\u30e0\u5ca9\u76e4\u8abf\u67fb","client_name":"\u56fd\u571f\u4ea4\u901a\u7701\u6771\u5317\u5730\u65b9\u6574\u5099\u5c40\u65b0\u5e84\u6cb3\u5ddd\u4e8b\u52d9\u6240","boring_xml_url":40,"boring_view_url":1,"soilmap_view_url":null,"soiltest_xml_url":0,"soiltest_view_url":0},{"id":141826,"code":"B4KJ201801003-0075","latitude":"38.69136","longitude":"140.126","source_code":"TH58400120010","project_name":"","survey_name":"\u9e7f\u306e\u6ca2\u7b2c\u4e8c\u30c0\u30e0\u5ca9\u76e4\u8abf\u67fb","client_name":"\u56fd\u571f\u4ea4\u901a\u7701\u6771\u5317\u5730\u65b9\u6574\u5099\u5c40\u65b0\u5e84\u6cb3\u5ddd\u4e8b\u52d9\u6240","boring_xml_url":40,"boring_view_url":1,"soilmap_view_url":null,"soiltest_xml_url":0,"soiltest_view_url":0},{"id":141825,"code":"B4KJ201801003-0074","latitude":"38.69158","longitude":"140.12617","source_code":"TH58400120009","project_name":"","survey_name":"\u9e7f\u306e\u6ca2\u7b2c\u4e8c\u30c0\u30e0\u5ca9\u76e4\u8abf\u67fb","client_name":"\u56fd\u571f\u4ea4\u901a\u7701\u6771\u5317\u5730\u65b9\u6574\u5099\u5c40\u65b0\u5e84\u6cb3\u5ddd\u4e8b\u52d9\u6240","boring_xml_url":40,"boring_view_url":1,"soilmap_view_url":null,"soiltest_xml_url":0,"soiltest_view_url":0},{"id":141824,"code":"B4KJ201801003-0073","latitude":"38.69169","longitude":"140.12594","source_code":"TH58400120008","project_name":"","survey_name":"\u9e7f\u306e\u6ca2\u7b2c\u4e8c\u30c0\u30e0\u5ca9\u76e4\u8abf\u67fb","client_name":"\u56fd\u571f\u4ea4\u901a\u7701\u6771\u5317\u5730\u65b9\u6574\u5099\u5c40\u65b0\u5e84\u6cb3\u5ddd\u4e8b\u52d9\u6240","boring_xml_url":40,"boring_view_url":1,"soilmap_view_url":null,"soiltest_xml_url":0,"soiltest_view_url":0},{"id":141823,"code":"B4KJ201801003-0072","latitude":"38.69133","longitude":"140.12636","source_code":"TH58400120007","project_name":"","survey_name":"\u9e7f\u306e\u6ca2\u7b2c\u4e8c\u30c0\u30e0\u5ca9\u76e4\u8abf\u67fb","client_name":"\u56fd\u571f\u4ea4\u901a\u7701\u6771\u5317\u5730\u65b9\u6574\u5099\u5c40\u65b0\u5e84\u6cb3\u5ddd\u4e8b\u52d9\u6240","boring_xml_url":40,"boring_view_url":1,"soilmap_view_url":null,"soiltest_xml_url":0,"soiltest_view_url":0},{"id":141822,"code":"B4KJ201801003-0071","latitude":"38.69144","longitude":"140.12564","source_code":"TH58400120006","project_name":"","survey_name":"\u9e7f\u306e\u6ca2\u7b2c\u4e8c\u30c0\u30e0\u5ca9\u76e4\u8abf\u67fb","client_name":"\u56fd\u571f\u4ea4\u901a\u7701\u6771\u5317\u5730\u65b9\u6574\u5099\u5c40\u65b0\u5e84\u6cb3\u5ddd\u4e8b\u52d9\u6240","boring_xml_url":40,"boring_view_url":1,"soilmap_view_url":null,"soiltest_xml_url":0,"soiltest_view_url":0},{"id":141821,"code":"B4KJ201801003-0070","latitude":"38.69144","longitude":"140.12553","source_code":"TH58400120005","project_name":"","survey_name":"\u9e7f\u306e\u6ca2\u7b2c\u4e8c\u30c0\u30e0\u5ca9\u76e4\u8abf\u67fb","client_name":"\u56fd\u571f\u4ea4\u901a\u7701\u6771\u5317\u5730\u65b9\u6574\u5099\u5c40\u65b0\u5e84\u6cb3\u5ddd\u4e8b\u52d9\u6240","boring_xml_url":40,"boring_view_url":1,"soilmap_view_url":null,"soiltest_xml_url":0,"soiltest_view_url":0},{"id":141820,"code":"B4KJ201801003-0069","latitude":"38.69147","longitude":"140.12569","source_code":"TH58400120004","project_name":"","survey_name":"\u9e7f\u306e\u6ca2\u7b2c\u4e8c\u30c0\u30e0\u5ca9\u76e4\u8abf\u67fb","client_name":"\u56fd\u571f\u4ea4\u901a\u7701\u6771\u5317\u5730\u65b9\u6574\u5099\u5c40\u65b0\u5e84\u6cb3\u5ddd\u4e8b\u52d9\u6240","boring_xml_url":40,"boring_view_url":1,"soilmap_view_url":null,"soiltest_xml_url":0,"soiltest_view_url":0},{"id":141819,"code":"B4KJ201801003-0068","latitude":"38.69153","longitude":"140.12558","source_code":"TH58400120003","project_name":"","survey_name":"\u9e7f\u306e\u6ca2\u7b2c\u4e8c\u30c0\u30e0\u5ca9\u76e4\u8abf\u67fb","client_name":"\u56fd\u571f\u4ea4\u901a\u7701\u6771\u5317\u5730\u65b9\u6574\u5099\u5c40\u65b0\u5e84\u6cb3\u5ddd\u4e8b\u52d9\u6240","boring_xml_url":40,"boring_view_url":1,"soilmap_view_url":null,"soiltest_xml_url":0,"soiltest_view_url":0},{"id":141818,"code":"B4KJ201801003-0067","latitude":"38.69181","longitude":"140.12542","source_code":"TH58400120002","project_name":"","survey_name":"\u9e7f\u306e\u6ca2\u7b2c\u4e8c\u30c0\u30e0\u5ca9\u76e4\u8abf\u67fb","client_name":"\u56fd\u571f\u4ea4\u901a\u7701\u6771\u5317\u5730\u65b9\u6574\u5099\u5c40\u65b0\u5e84\u6cb3\u5ddd\u4e8b\u52d9\u6240","boring_xml_url":40,"boring_view_url":1,"soilmap_view_url":null,"soiltest_xml_url":0,"soiltest_view_url":0},{"id":141817,"code":"B4KJ201801003-0066","latitude":"38.69172","longitude":"140.12525","source_code":"TH58400120001","project_name":"","survey_name":"\u9e7f\u306e\u6ca2\u7b2c\u4e8c\u30c0\u30e0\u5ca9\u76e4\u8abf\u67fb","client_name":"\u56fd\u571f\u4ea4\u901a\u7701\u6771\u5317\u5730\u65b9\u6574\u5099\u5c40\u65b0\u5e84\u6cb3\u5ddd\u4e8b\u52d9\u6240","boring_xml_url":40,"boring_view_url":1,"soilmap_view_url":null,"soiltest_xml_url":0,"soiltest_view_url":0},{"id":141816,"code":"B4KJ201801003-0065","latitude":"38.70311","longitude":"140.01764","source_code":"TH58400041001","project_name":"","survey_name":"\u7acb\u5ddd\u6c34\u6ca2\u5ddd\u30c0\u30e0\u6e2c\u91cf\u5730\u76e4\u8abf\u67fb\u5b9f\u65bd\u8a2d\u8a08\u696d\u52d9","client_name":"\u56fd\u571f\u4ea4\u901a\u7701\u6771\u5317\u5730\u65b9\u6574\u5099\u5c40\u65b0\u5e84\u6cb3\u5ddd\u4e8b\u52d9\u6240","boring_xml_url":40,"boring_view_url":1,"soilmap_view_url":null,"soiltest_xml_url":0,"soiltest_view_url":0},{"id":141815,"code":"B4KJ201801003-0064","latitude":"38.69975","longitude":"140.11731","source_code":"TH58400039008","project_name":"","survey_name":"\u89d2\u5ddd\u53ca\u3073\u9bad\u5ddd\u7ba1\u5185\u7802\u9632\u30c0\u30e0\u5ca9\u76e4\u8abf\u67fb","client_name":"\u56fd\u571f\u4ea4\u901a\u7701\u6771\u5317\u5730\u65b9\u6574\u5099\u5c40\u65b0\u5e84\u6cb3\u5ddd\u4e8b\u52d9\u6240","boring_xml_url":40,"boring_view_url":1,"soilmap_view_url":null,"soiltest_xml_url":0,"soiltest_view_url":0},{"id":141814,"code":"B4KJ201801003-0063","latitude":"38.70003","longitude":"140.11711","source_code":"TH58400039007","project_name":"","survey_name":"\u89d2\u5ddd\u53ca\u3073\u9bad\u5ddd\u7ba1\u5185\u7802\u9632\u30c0\u30e0\u5ca9\u76e4\u8abf\u67fb","client_name":"\u56fd\u571f\u4ea4\u901a\u7701\u6771\u5317\u5730\u65b9\u6574\u5099\u5c40\u65b0\u5e84\u6cb3\u5ddd\u4e8b\u52d9\u6240","boring_xml_url":40,"boring_view_url":1,"soilmap_view_url":null,"soiltest_xml_url":0,"soiltest_view_url":0},{"id":141813,"code":"B4KJ201801003-0062","latitude":"38.70061","longitude":"140.11689","source_code":"TH58400039006","project_name":"","survey_name":"\u89d2\u5ddd\u53ca\u3073\u9bad\u5ddd\u7ba1\u5185\u7802\u9632\u30c0\u30e0\u5ca9\u76e4\u8abf\u67fb","client_name":"\u56fd\u571f\u4ea4\u901a\u7701\u6771\u5317\u5730\u65b9\u6574\u5099\u5c40\u65b0\u5e84\u6cb3\u5ddd\u4e8b\u52d9\u6240","boring_xml_url":40,"boring_view_url":1,"soilmap_view_url":null,"soiltest_xml_url":0,"soiltest_view_url":0},{"id":141812,"code":"B4KJ201801003-0061","latitude":"38.69975","longitude":"140.11647","source_code":"TH58400039003","project_name":"","survey_name":"\u89d2\u5ddd\u53ca\u3073\u9bad\u5ddd\u7ba1\u5185\u7802\u9632\u30c0\u30e0\u5ca9\u76e4\u8abf\u67fb","client_name":"\u56fd\u571f\u4ea4\u901a\u7701\u6771\u5317\u5730\u65b9\u6574\u5099\u5c40\u65b0\u5e84\u6cb3\u5ddd\u4e8b\u52d9\u6240","boring_xml_url":40,"boring_view_url":1,"soilmap_view_url":null,"soiltest_xml_url":0,"soiltest_view_url":0},{"id":141811,"code":"B4KJ201801003-0060","latitude":"38.70022","longitude":"140.11608","source_code":"TH58400039002","project_name":"","survey_name":"\u89d2\u5ddd\u53ca\u3073\u9bad\u5ddd\u7ba1\u5185\u7802\u9632\u30c0\u30e0\u5ca9\u76e4\u8abf\u67fb","client_name":"\u56fd\u571f\u4ea4\u901a\u7701\u6771\u5317\u5730\u65b9\u6574\u5099\u5c40\u65b0\u5e84\u6cb3\u5ddd\u4e8b\u52d9\u6240","boring_xml_url":40,"boring_view_url":1,"soilmap_view_url":null,"soiltest_xml_url":0,"soiltest_view_url":0},{"id":141810,"code":"B4KJ201801003-0059","latitude":"38.69872","longitude":"140.11536","source_code":"TH58400039001","project_name":"","survey_name":"\u89d2\u5ddd\u53ca\u3073\u9bad\u5ddd\u7ba1\u5185\u7802\u9632\u30c0\u30e0\u5ca9\u76e4\u8abf\u67fb","client_name":"\u56fd\u571f\u4ea4\u901a\u7701\u6771\u5317\u5730\u65b9\u6574\u5099\u5c40\u65b0\u5e84\u6cb3\u5ddd\u4e8b\u52d9\u6240","boring_xml_url":40,"boring_view_url":1,"soilmap_view_url":null,"soiltest_xml_url":0,"soiltest_view_url":0},{"id":141809,"code":"B4KJ201801003-0058","latitude":"39.32125","longitude":"139.98869","source_code":"TH58397789002","project_name":"","survey_name":"\u51fa\u6238\u5730\u533a\u5730\u76e4\u8abf\u67fb","client_name":"\u56fd\u571f\u4ea4\u901a\u7701\u6771\u5317\u5730\u65b9\u6574\u5099\u5c40\u79cb\u7530\u6cb3\u5ddd\u56fd\u9053\u4e8b\u52d9\u6240","boring_xml_url":40,"boring_view_url":1,"soilmap_view_url":null,"soiltest_xml_url":0,"soiltest_view_url":0},{"id":141808,"code":"B4KJ201801003-0057","latitude":"39.31533","longitude":"139.99033","source_code":"TH58397779002","project_name":"","survey_name":"\u51fa\u6238\u5730\u533a\u5730\u76e4\u8abf\u67fb","client_name":"\u56fd\u571f\u4ea4\u901a\u7701\u6771\u5317\u5730\u65b9\u6574\u5099\u5c40\u79cb\u7530\u6cb3\u5ddd\u56fd\u9053\u4e8b\u52d9\u6240","boring_xml_url":40,"boring_view_url":1,"soilmap_view_url":null,"soiltest_xml_url":0,"soiltest_view_url":0},{"id":141807,"code":"B4KJ201801003-0056","latitude":"39.31533","longitude":"139.99033","source_code":"TH58397779001","project_name":"","survey_name":"\u51fa\u6238\u5730\u533a\u5730\u76e4\u8abf\u67fb","client_name":"\u56fd\u571f\u4ea4\u901a\u7701\u6771\u5317\u5730\u65b9\u6574\u5099\u5c40\u79cb\u7530\u6cb3\u5ddd\u56fd\u9053\u4e8b\u52d9\u6240","boring_xml_url":40,"boring_view_url":1,"soilmap_view_url":null,"soiltest_xml_url":0,"soiltest_view_url":0},{"id":141806,"code":"B4KJ201801003-0055","latitude":"39.307","longitude":"139.97783","source_code":"TH58397768003","project_name":"","survey_name":"\u4ec1\u8cc0\u4fdd\u5730\u533a\u7dca\u6025\u5bfe\u7b56\u8abf\u67fb\u8a2d\u8a08\u696d\u52d9\u59d4\u8a17","client_name":"\u56fd\u571f\u4ea4\u901a\u7701\u6771\u5317\u5730\u65b9\u6574\u5099\u5c40\u79cb\u7530\u6cb3\u5ddd\u56fd\u9053\u4e8b\u52d9\u6240","boring_xml_url":40,"boring_view_url":1,"soilmap_view_url":null,"soiltest_xml_url":0,"soiltest_view_url":0}]}}