{"header":{"xyz":{"source":[],"mosaic":false},"page":5967,"raw":{"soiltest_result":"0","bbox":"57.598333,109.544722,1.933333,163.806111","page":"5967"},"conditions":{"soiltest_result":0,"north":57.598333,"west":109.544722,"south":1.933333,"east":163.806111},"success":true,"message":""},"data":{"meta":{"total":212844,"page":5967,"pages":7095,"count":30},"values":[{"id":141565,"code":"B4KJ201801002-9814","latitude":"38.7565","longitude":"139.82942","source_code":"TH58391606004","project_name":"","survey_name":"\u9db4\u5ca1\u30d0\u30a4\u30d1\u30b9\u5c0f\u4eac\u7530\u5730\u533a\u5730\u76e4\u8abf\u67fb","client_name":"\u56fd\u571f\u4ea4\u901a\u7701\u6771\u5317\u5730\u65b9\u6574\u5099\u5c40\u9152\u7530\u6cb3\u5ddd\u56fd\u9053\u4e8b\u52d9\u6240","boring_xml_url":40,"boring_view_url":1,"soilmap_view_url":null,"soiltest_xml_url":0,"soiltest_view_url":0},{"id":141564,"code":"B4KJ201801002-9813","latitude":"38.75622","longitude":"139.82942","source_code":"TH58391606003","project_name":"","survey_name":"\u9db4\u5ca1\u30d0\u30a4\u30d1\u30b9\u5c0f\u4eac\u7530\u5730\u533a\u5730\u76e4\u8abf\u67fb","client_name":"\u56fd\u571f\u4ea4\u901a\u7701\u6771\u5317\u5730\u65b9\u6574\u5099\u5c40\u9152\u7530\u6cb3\u5ddd\u56fd\u9053\u4e8b\u52d9\u6240","boring_xml_url":40,"boring_view_url":1,"soilmap_view_url":null,"soiltest_xml_url":0,"soiltest_view_url":0},{"id":141563,"code":"B4KJ201801002-9812","latitude":"38.74725","longitude":"139.93219","source_code":"TH58390794001","project_name":"","survey_name":"\u662d\u548c54\u5e74\u5ea6\u5e84\u5185\u5730\u533a\u5730\u4e0b\u6c34\u8abf\u67fb","client_name":"\u56fd\u571f\u4ea4\u901a\u7701\u6771\u5317\u5730\u65b9\u6574\u5099\u5c40\u9152\u7530\u6cb3\u5ddd\u56fd\u9053\u4e8b\u52d9\u6240","boring_xml_url":40,"boring_view_url":1,"soilmap_view_url":null,"soiltest_xml_url":0,"soiltest_view_url":0},{"id":141562,"code":"B4KJ201801002-9811","latitude":"38.75031","longitude":"139.85386","source_code":"TH58390698004","project_name":"","survey_name":"\u8d64\u5ddd\u7ba1\u5185\u5fdc\u5bfe\u5b9f\u65bd\u8a2d\u8a08\u696d\u52d9","client_name":"\u56fd\u571f\u4ea4\u901a\u7701\u6771\u5317\u5730\u65b9\u6574\u5099\u5c40\u9152\u7530\u6cb3\u5ddd\u56fd\u9053\u4e8b\u52d9\u6240","boring_xml_url":40,"boring_view_url":1,"soilmap_view_url":null,"soiltest_xml_url":0,"soiltest_view_url":0},{"id":141561,"code":"B4KJ201801002-9810","latitude":"38.75164","longitude":"139.85053","source_code":"TH58390698003","project_name":"","survey_name":"\u662d\u548c62\u5e74\u5ea6\u8d64\u5ddd\u4e2d\u6d41\u5730\u533a\u5730\u76e4\u8abf\u67fb","client_name":"\u56fd\u571f\u4ea4\u901a\u7701\u6771\u5317\u5730\u65b9\u6574\u5099\u5c40\u9152\u7530\u6cb3\u5ddd\u56fd\u9053\u4e8b\u52d9\u6240","boring_xml_url":40,"boring_view_url":1,"soilmap_view_url":null,"soiltest_xml_url":0,"soiltest_view_url":0},{"id":141560,"code":"B4KJ201801002-9809","latitude":"38.74894","longitude":"139.85469","source_code":"TH58390698002","project_name":"","survey_name":"\u662d\u548c62\u5e74\u5ea6\u8d64\u5ddd\u4e2d\u6d41\u5730\u533a\u5730\u76e4\u8abf\u67fb","client_name":"\u56fd\u571f\u4ea4\u901a\u7701\u6771\u5317\u5730\u65b9\u6574\u5099\u5c40\u9152\u7530\u6cb3\u5ddd\u56fd\u9053\u4e8b\u52d9\u6240","boring_xml_url":40,"boring_view_url":1,"soilmap_view_url":null,"soiltest_xml_url":0,"soiltest_view_url":0},{"id":141559,"code":"B4KJ201801002-9808","latitude":"38.74658","longitude":"139.85469","source_code":"TH58390698001","project_name":"","survey_name":"\u662d\u548c62\u5e74\u5ea6\u8d64\u5ddd\u4e2d\u6d41\u5730\u533a\u5730\u76e4\u8abf\u67fb","client_name":"\u56fd\u571f\u4ea4\u901a\u7701\u6771\u5317\u5730\u65b9\u6574\u5099\u5c40\u9152\u7530\u6cb3\u5ddd\u56fd\u9053\u4e8b\u52d9\u6240","boring_xml_url":40,"boring_view_url":1,"soilmap_view_url":null,"soiltest_xml_url":0,"soiltest_view_url":0},{"id":141558,"code":"B4KJ201801002-9807","latitude":"38.74658","longitude":"139.84606","source_code":"TH58390697001","project_name":"","survey_name":"\u662d\u548c62\u5e74\u5ea6\u8d64\u5ddd\u4e2d\u6d41\u5730\u533a\u5730\u76e4\u8abf\u67fb","client_name":"\u56fd\u571f\u4ea4\u901a\u7701\u6771\u5317\u5730\u65b9\u6574\u5099\u5c40\u9152\u7530\u6cb3\u5ddd\u56fd\u9053\u4e8b\u52d9\u6240","boring_xml_url":40,"boring_view_url":1,"soilmap_view_url":null,"soiltest_xml_url":0,"soiltest_view_url":0},{"id":141557,"code":"B4KJ201801002-9806","latitude":"38.75203","longitude":"139.82353","source_code":"TH58390696001","project_name":"","survey_name":"\u662d\u548c57\u5e74\u5ea6\u9db4\u5ca1\u30d0\u30a4\u30d1\u30b9\u5730\u8cea\u8abf\u67fb","client_name":"\u56fd\u571f\u4ea4\u901a\u7701\u6771\u5317\u5730\u65b9\u6574\u5099\u5c40\u9152\u7530\u6cb3\u5ddd\u56fd\u9053\u4e8b\u52d9\u6240","boring_xml_url":40,"boring_view_url":1,"soilmap_view_url":null,"soiltest_xml_url":0,"soiltest_view_url":0},{"id":141556,"code":"B4KJ201801002-9805","latitude":"38.74536","longitude":"139.81417","source_code":"TH58390695002","project_name":"","survey_name":"\u662d\u548c57\u5e74\u5ea6\u9db4\u5ca1\u30d0\u30a4\u30d1\u30b9\u5730\u8cea\u8abf\u67fb","client_name":"\u56fd\u571f\u4ea4\u901a\u7701\u6771\u5317\u5730\u65b9\u6574\u5099\u5c40\u9152\u7530\u6cb3\u5ddd\u56fd\u9053\u4e8b\u52d9\u6240","boring_xml_url":40,"boring_view_url":1,"soilmap_view_url":null,"soiltest_xml_url":0,"soiltest_view_url":0},{"id":141555,"code":"B4KJ201801002-9804","latitude":"38.74839","longitude":"139.81886","source_code":"TH58390695001","project_name":"","survey_name":"\u662d\u548c57\u5e74\u5ea6\u9db4\u5ca1\u30d0\u30a4\u30d1\u30b9\u5730\u8cea\u8abf\u67fb","client_name":"\u56fd\u571f\u4ea4\u901a\u7701\u6771\u5317\u5730\u65b9\u6574\u5099\u5c40\u9152\u7530\u6cb3\u5ddd\u56fd\u9053\u4e8b\u52d9\u6240","boring_xml_url":40,"boring_view_url":1,"soilmap_view_url":null,"soiltest_xml_url":0,"soiltest_view_url":0},{"id":141554,"code":"B4KJ201801002-9803","latitude":"38.74367","longitude":"139.85792","source_code":"TH58390688004","project_name":"","survey_name":"\u8d64\u5ddd\u7ba1\u5185\u5fdc\u5bfe\u5b9f\u65bd\u8a2d\u8a08\u696d\u52d9","client_name":"\u56fd\u571f\u4ea4\u901a\u7701\u6771\u5317\u5730\u65b9\u6574\u5099\u5c40\u9152\u7530\u6cb3\u5ddd\u56fd\u9053\u4e8b\u52d9\u6240","boring_xml_url":40,"boring_view_url":1,"soilmap_view_url":null,"soiltest_xml_url":0,"soiltest_view_url":0},{"id":141553,"code":"B4KJ201801002-9802","latitude":"38.73783","longitude":"139.85253","source_code":"TH58390688003","project_name":"","survey_name":"\u8d64\u5ddd\u7ba1\u5185\u5fdc\u5bfe\u5b9f\u65bd\u8a2d\u8a08\u696d\u52d9","client_name":"\u56fd\u571f\u4ea4\u901a\u7701\u6771\u5317\u5730\u65b9\u6574\u5099\u5c40\u9152\u7530\u6cb3\u5ddd\u56fd\u9053\u4e8b\u52d9\u6240","boring_xml_url":40,"boring_view_url":1,"soilmap_view_url":null,"soiltest_xml_url":0,"soiltest_view_url":0},{"id":141552,"code":"B4KJ201801002-9801","latitude":"38.73836","longitude":"139.85411","source_code":"TH58390688002","project_name":"","survey_name":"\u662d\u548c62\u5e74\u5ea6\u8d64\u5ddd\u4e2d\u6d41\u5730\u533a\u5730\u76e4\u8abf\u67fb","client_name":"\u56fd\u571f\u4ea4\u901a\u7701\u6771\u5317\u5730\u65b9\u6574\u5099\u5c40\u9152\u7530\u6cb3\u5ddd\u56fd\u9053\u4e8b\u52d9\u6240","boring_xml_url":40,"boring_view_url":1,"soilmap_view_url":null,"soiltest_xml_url":0,"soiltest_view_url":0},{"id":141551,"code":"B4KJ201801002-9800","latitude":"38.73892","longitude":"139.84683","source_code":"TH58390688001","project_name":"","survey_name":"\u662d\u548c62\u5e74\u5ea6\u8d64\u5ddd\u4e2d\u6d41\u5730\u533a\u5730\u76e4\u8abf\u67fb","client_name":"\u56fd\u571f\u4ea4\u901a\u7701\u6771\u5317\u5730\u65b9\u6574\u5099\u5c40\u9152\u7530\u6cb3\u5ddd\u56fd\u9053\u4e8b\u52d9\u6240","boring_xml_url":40,"boring_view_url":1,"soilmap_view_url":null,"soiltest_xml_url":0,"soiltest_view_url":0},{"id":141550,"code":"B4KJ201801002-9799","latitude":"38.73775","longitude":"139.79711","source_code":"TH58390684009","project_name":"","survey_name":"\u662d\u548c61\u5e74\u5ea6\u9db4\u5ca1\u30d0\u30a4\u30d1\u30b9\u5927\u6cc9\u5730\u533a\u5730\u76e4\u8abf\u67fb","client_name":"\u56fd\u571f\u4ea4\u901a\u7701\u6771\u5317\u5730\u65b9\u6574\u5099\u5c40\u9152\u7530\u6cb3\u5ddd\u56fd\u9053\u4e8b\u52d9\u6240","boring_xml_url":40,"boring_view_url":1,"soilmap_view_url":null,"soiltest_xml_url":0,"soiltest_view_url":0},{"id":141549,"code":"B4KJ201801002-9798","latitude":"38.73731","longitude":"139.79681","source_code":"TH58390684008","project_name":"","survey_name":"\u662d\u548c61\u5e74\u5ea6\u9db4\u5ca1\u30d0\u30a4\u30d1\u30b9\u5927\u6cc9\u5730\u533a\u5730\u76e4\u8abf\u67fb","client_name":"\u56fd\u571f\u4ea4\u901a\u7701\u6771\u5317\u5730\u65b9\u6574\u5099\u5c40\u9152\u7530\u6cb3\u5ddd\u56fd\u9053\u4e8b\u52d9\u6240","boring_xml_url":40,"boring_view_url":1,"soilmap_view_url":null,"soiltest_xml_url":0,"soiltest_view_url":0},{"id":141548,"code":"B4KJ201801002-9797","latitude":"38.74006","longitude":"139.79997","source_code":"TH58390684007","project_name":"","survey_name":"\u5927\u6dc0\u5ddd\u5730\u533a\u5730\u76e4\u8abf\u67fb","client_name":"\u56fd\u571f\u4ea4\u901a\u7701\u6771\u5317\u5730\u65b9\u6574\u5099\u5c40\u9152\u7530\u6cb3\u5ddd\u56fd\u9053\u4e8b\u52d9\u6240","boring_xml_url":40,"boring_view_url":1,"soilmap_view_url":null,"soiltest_xml_url":0,"soiltest_view_url":0},{"id":141547,"code":"B4KJ201801002-9796","latitude":"38.74208","longitude":"139.80608","source_code":"TH58390684006","project_name":"","survey_name":"\u9db4\u5ca1\u30d0\u30a4\u30d1\u30b9\u5730\u8cea\u8abf\u67fb","client_name":"\u56fd\u571f\u4ea4\u901a\u7701\u6771\u5317\u5730\u65b9\u6574\u5099\u5c40\u9152\u7530\u6cb3\u5ddd\u56fd\u9053\u4e8b\u52d9\u6240","boring_xml_url":40,"boring_view_url":1,"soilmap_view_url":null,"soiltest_xml_url":0,"soiltest_view_url":0},{"id":141546,"code":"B4KJ201801002-9795","latitude":"38.74164","longitude":"139.80511","source_code":"TH58390684005","project_name":"","survey_name":"\u9db4\u5ca1\u30d0\u30a4\u30d1\u30b9\u5730\u8cea\u8abf\u67fb","client_name":"\u56fd\u571f\u4ea4\u901a\u7701\u6771\u5317\u5730\u65b9\u6574\u5099\u5c40\u9152\u7530\u6cb3\u5ddd\u56fd\u9053\u4e8b\u52d9\u6240","boring_xml_url":40,"boring_view_url":1,"soilmap_view_url":null,"soiltest_xml_url":0,"soiltest_view_url":0},{"id":141545,"code":"B4KJ201801002-9794","latitude":"38.74097","longitude":"139.80428","source_code":"TH58390684004","project_name":"","survey_name":"\u9db4\u5ca1\u30d0\u30a4\u30d1\u30b9\u5730\u8cea\u8abf\u67fb","client_name":"\u56fd\u571f\u4ea4\u901a\u7701\u6771\u5317\u5730\u65b9\u6574\u5099\u5c40\u9152\u7530\u6cb3\u5ddd\u56fd\u9053\u4e8b\u52d9\u6240","boring_xml_url":40,"boring_view_url":1,"soilmap_view_url":null,"soiltest_xml_url":0,"soiltest_view_url":0},{"id":141544,"code":"B4KJ201801002-9793","latitude":"38.74053","longitude":"139.80344","source_code":"TH58390684003","project_name":"","survey_name":"\u9db4\u5ca1\u30d0\u30a4\u30d1\u30b9\u5730\u8cea\u8abf\u67fb","client_name":"\u56fd\u571f\u4ea4\u901a\u7701\u6771\u5317\u5730\u65b9\u6574\u5099\u5c40\u9152\u7530\u6cb3\u5ddd\u56fd\u9053\u4e8b\u52d9\u6240","boring_xml_url":40,"boring_view_url":1,"soilmap_view_url":null,"soiltest_xml_url":0,"soiltest_view_url":0},{"id":141543,"code":"B4KJ201801002-9792","latitude":"38.74267","longitude":"139.80864","source_code":"TH58390684002","project_name":"","survey_name":"\u9db4\u5ca1\u30d0\u30a4\u30d1\u30b9\u5730\u76e4\u8abf\u67fb","client_name":"\u56fd\u571f\u4ea4\u901a\u7701\u6771\u5317\u5730\u65b9\u6574\u5099\u5c40\u9152\u7530\u6cb3\u5ddd\u56fd\u9053\u4e8b\u52d9\u6240","boring_xml_url":40,"boring_view_url":1,"soilmap_view_url":null,"soiltest_xml_url":0,"soiltest_view_url":0},{"id":141542,"code":"B4KJ201801002-9791","latitude":"38.7405","longitude":"139.80425","source_code":"TH58390684001","project_name":"","survey_name":"\u9db4\u5ca1\u30d0\u30a4\u30d1\u30b9\u5730\u76e4\u8abf\u67fb","client_name":"\u56fd\u571f\u4ea4\u901a\u7701\u6771\u5317\u5730\u65b9\u6574\u5099\u5c40\u9152\u7530\u6cb3\u5ddd\u56fd\u9053\u4e8b\u52d9\u6240","boring_xml_url":40,"boring_view_url":1,"soilmap_view_url":null,"soiltest_xml_url":0,"soiltest_view_url":0},{"id":141541,"code":"B4KJ201801002-9790","latitude":"38.73714","longitude":"139.79475","source_code":"TH58390683001","project_name":"","survey_name":"\u5927\u6dc0\u5ddd\u5730\u533a\u5730\u76e4\u8abf\u67fb","client_name":"\u56fd\u571f\u4ea4\u901a\u7701\u6771\u5317\u5730\u65b9\u6574\u5099\u5c40\u9152\u7530\u6cb3\u5ddd\u56fd\u9053\u4e8b\u52d9\u6240","boring_xml_url":40,"boring_view_url":1,"soilmap_view_url":null,"soiltest_xml_url":0,"soiltest_view_url":0},{"id":141540,"code":"B4KJ201801002-9789","latitude":"38.73203","longitude":"139.78844","source_code":"TH58390673005","project_name":"","survey_name":"\u5e73\u62102\u5e74\u5ea6\u5927\u6dc0\u5ddd\u5730\u533a\u4ed6\u5730\u76e4\u8abf\u67fb","client_name":"\u56fd\u571f\u4ea4\u901a\u7701\u6771\u5317\u5730\u65b9\u6574\u5099\u5c40\u9152\u7530\u6cb3\u5ddd\u56fd\u9053\u4e8b\u52d9\u6240","boring_xml_url":40,"boring_view_url":1,"soilmap_view_url":null,"soiltest_xml_url":0,"soiltest_view_url":0},{"id":141539,"code":"B4KJ201801002-9788","latitude":"38.73225","longitude":"139.78833","source_code":"TH58390673004","project_name":"","survey_name":"\u5e73\u62102\u5e74\u5ea6\u5927\u6dc0\u5ddd\u5730\u533a\u4ed6\u5730\u76e4\u8abf\u67fb","client_name":"\u56fd\u571f\u4ea4\u901a\u7701\u6771\u5317\u5730\u65b9\u6574\u5099\u5c40\u9152\u7530\u6cb3\u5ddd\u56fd\u9053\u4e8b\u52d9\u6240","boring_xml_url":40,"boring_view_url":1,"soilmap_view_url":null,"soiltest_xml_url":0,"soiltest_view_url":0},{"id":141538,"code":"B4KJ201801002-9787","latitude":"38.73133","longitude":"139.78556","source_code":"TH58390673003","project_name":"","survey_name":"\u662d\u548c61\u5e74\u5ea6\u9db4\u5ca1\u30d0\u30a4\u30d1\u30b9\u5927\u6cc9\u5730\u533a\u5730\u76e4\u8abf\u67fb","client_name":"\u56fd\u571f\u4ea4\u901a\u7701\u6771\u5317\u5730\u65b9\u6574\u5099\u5c40\u9152\u7530\u6cb3\u5ddd\u56fd\u9053\u4e8b\u52d9\u6240","boring_xml_url":40,"boring_view_url":1,"soilmap_view_url":null,"soiltest_xml_url":0,"soiltest_view_url":0},{"id":141537,"code":"B4KJ201801002-9786","latitude":"38.73478","longitude":"139.78975","source_code":"TH58390673002","project_name":"","survey_name":"\u9db4\u5ca1\u30d0\u30a4\u30d1\u30b9(\u5927\u6dc0\u5ddd\u5730\u533a)\u5730\u76e4\u8abf\u67fb","client_name":"\u56fd\u571f\u4ea4\u901a\u7701\u6771\u5317\u5730\u65b9\u6574\u5099\u5c40\u9152\u7530\u6cb3\u5ddd\u56fd\u9053\u4e8b\u52d9\u6240","boring_xml_url":40,"boring_view_url":1,"soilmap_view_url":null,"soiltest_xml_url":0,"soiltest_view_url":0},{"id":141536,"code":"B4KJ201801002-9785","latitude":"38.73533","longitude":"139.79003","source_code":"TH58390673001","project_name":"","survey_name":"\u9db4\u5ca1\u30d0\u30a4\u30d1\u30b9(\u5927\u6dc0\u5ddd\u5730\u533a)\u5730\u76e4\u8abf\u67fb","client_name":"\u56fd\u571f\u4ea4\u901a\u7701\u6771\u5317\u5730\u65b9\u6574\u5099\u5c40\u9152\u7530\u6cb3\u5ddd\u56fd\u9053\u4e8b\u52d9\u6240","boring_xml_url":40,"boring_view_url":1,"soilmap_view_url":null,"soiltest_xml_url":0,"soiltest_view_url":0}]}}