{"header":{"xyz":{"source":[],"mosaic":false},"page":5972,"raw":{"soiltest_result":"0","bbox":"57.598333,109.544722,1.933333,163.806111","page":"5972"},"conditions":{"soiltest_result":0,"north":57.598333,"west":109.544722,"south":1.933333,"east":163.806111},"success":true,"message":""},"data":{"meta":{"total":212844,"page":5972,"pages":7095,"count":30},"values":[{"id":141415,"code":"B4KJ201801002-9664","latitude":"38.55878","longitude":"141.27069","source_code":"TH57416261003","project_name":"","survey_name":"\u5e73\u62105\u5e74\u5ea6\u77e2\u672c\u30fb\u77f3\u5dfb\u9053\u8def\u6843\u751f\u5730\u533a\u5730\u8cea\u8abf\u67fb","client_name":"\u56fd\u571f\u4ea4\u901a\u7701\u6771\u5317\u5730\u65b9\u6574\u5099\u5c40\u4ed9\u53f0\u6cb3\u5ddd\u56fd\u9053\u4e8b\u52d9\u6240","boring_xml_url":40,"boring_view_url":1,"soilmap_view_url":null,"soiltest_xml_url":0,"soiltest_view_url":0},{"id":141414,"code":"B4KJ201801002-9663","latitude":"38.55683","longitude":"141.27069","source_code":"TH57416261002","project_name":"","survey_name":"\u5e73\u62105\u5e74\u5ea6\u77e2\u672c\u30fb\u77f3\u5dfb\u9053\u8def\u6843\u751f\u5730\u533a\u5730\u8cea\u8abf\u67fb","client_name":"\u56fd\u571f\u4ea4\u901a\u7701\u6771\u5317\u5730\u65b9\u6574\u5099\u5c40\u4ed9\u53f0\u6cb3\u5ddd\u56fd\u9053\u4e8b\u52d9\u6240","boring_xml_url":40,"boring_view_url":1,"soilmap_view_url":null,"soiltest_xml_url":0,"soiltest_view_url":0},{"id":141413,"code":"B4KJ201801002-9662","latitude":"38.55544","longitude":"141.27014","source_code":"TH57416261001","project_name":"","survey_name":"\u5e73\u62105\u5e74\u5ea6\u77e2\u672c\u30fb\u77f3\u5dfb\u9053\u8def\u6843\u751f\u5730\u533a\u5730\u8cea\u8abf\u67fb","client_name":"\u56fd\u571f\u4ea4\u901a\u7701\u6771\u5317\u5730\u65b9\u6574\u5099\u5c40\u4ed9\u53f0\u6cb3\u5ddd\u56fd\u9053\u4e8b\u52d9\u6240","boring_xml_url":40,"boring_view_url":1,"soilmap_view_url":null,"soiltest_xml_url":0,"soiltest_view_url":0},{"id":141412,"code":"B4KJ201801002-9661","latitude":"38.54489","longitude":"141.27264","source_code":"TH57416252001","project_name":"","survey_name":"\u5e73\u62105\u5e74\u5ea6\u77e2\u672c\u30fb\u77f3\u5dfb\u9053\u8def\u6843\u751f\u5730\u533a\u5730\u8cea\u8abf\u67fb","client_name":"\u56fd\u571f\u4ea4\u901a\u7701\u6771\u5317\u5730\u65b9\u6574\u5099\u5c40\u4ed9\u53f0\u6cb3\u5ddd\u56fd\u9053\u4e8b\u52d9\u6240","boring_xml_url":40,"boring_view_url":1,"soilmap_view_url":null,"soiltest_xml_url":0,"soiltest_view_url":0},{"id":141411,"code":"B4KJ201801002-9660","latitude":"38.54989","longitude":"141.27069","source_code":"TH57416251003","project_name":"","survey_name":"\u5e73\u62105\u5e74\u5ea6\u77e2\u672c\u30fb\u77f3\u5dfb\u9053\u8def\u6843\u751f\u5730\u533a\u5730\u8cea\u8abf\u67fb","client_name":"\u56fd\u571f\u4ea4\u901a\u7701\u6771\u5317\u5730\u65b9\u6574\u5099\u5c40\u4ed9\u53f0\u6cb3\u5ddd\u56fd\u9053\u4e8b\u52d9\u6240","boring_xml_url":40,"boring_view_url":1,"soilmap_view_url":null,"soiltest_xml_url":0,"soiltest_view_url":0},{"id":141410,"code":"B4KJ201801002-9659","latitude":"38.54906","longitude":"141.27097","source_code":"TH57416251002","project_name":"","survey_name":"\u5e73\u62105\u5e74\u5ea6\u77e2\u672c\u30fb\u77f3\u5dfb\u9053\u8def\u6843\u751f\u5730\u533a\u5730\u8cea\u8abf\u67fb","client_name":"\u56fd\u571f\u4ea4\u901a\u7701\u6771\u5317\u5730\u65b9\u6574\u5099\u5c40\u4ed9\u53f0\u6cb3\u5ddd\u56fd\u9053\u4e8b\u52d9\u6240","boring_xml_url":40,"boring_view_url":1,"soilmap_view_url":null,"soiltest_xml_url":0,"soiltest_view_url":0},{"id":141409,"code":"B4KJ201801002-9658","latitude":"38.54794","longitude":"141.27125","source_code":"TH57416251001","project_name":"","survey_name":"\u5e73\u62105\u5e74\u5ea6\u77e2\u672c\u30fb\u77f3\u5dfb\u9053\u8def\u6843\u751f\u5730\u533a\u5730\u8cea\u8abf\u67fb","client_name":"\u56fd\u571f\u4ea4\u901a\u7701\u6771\u5317\u5730\u65b9\u6574\u5099\u5c40\u4ed9\u53f0\u6cb3\u5ddd\u56fd\u9053\u4e8b\u52d9\u6240","boring_xml_url":40,"boring_view_url":1,"soilmap_view_url":null,"soiltest_xml_url":0,"soiltest_view_url":0},{"id":141408,"code":"B4KJ201801002-9657","latitude":"38.53628","longitude":"141.30594","source_code":"TH57416244001","project_name":"","survey_name":"\u5317\u4e0a\u5927\u5830\u53f3\u5cb8\u7528\u6c34\u8def\u8a2d\u8a08\u696d\u52d9\u59d4\u8a17(\u5730\u76e4\u8abf\u67fb)","client_name":"\u56fd\u571f\u4ea4\u901a\u7701\u6771\u5317\u5730\u65b9\u6574\u5099\u5c40\u5317\u4e0a\u5ddd\u4e0b\u6d41\u6cb3\u5ddd\u4e8b\u52d9\u6240","boring_xml_url":40,"boring_view_url":1,"soilmap_view_url":null,"soiltest_xml_url":43,"soiltest_view_url":43},{"id":141407,"code":"B4KJ201801002-9656","latitude":"38.54206","longitude":"141.27456","source_code":"TH57416242010","project_name":"","survey_name":"\u5e73\u621011\u5e74\u5ea6\u77e2\u672c\u77f3\u5dfb\u9053\u8def\u6cb3\u5317\u6843\u751f\u5730\u533a\u5730\u8cea\u8abf\u67fb","client_name":"\u56fd\u571f\u4ea4\u901a\u7701\u6771\u5317\u5730\u65b9\u6574\u5099\u5c40\u4ed9\u53f0\u6cb3\u5ddd\u56fd\u9053\u4e8b\u52d9\u6240","boring_xml_url":40,"boring_view_url":1,"soilmap_view_url":null,"soiltest_xml_url":0,"soiltest_view_url":0},{"id":141406,"code":"B4KJ201801002-9655","latitude":"38.54133","longitude":"141.27464","source_code":"TH57416242009","project_name":"","survey_name":"\u5e73\u621011\u5e74\u5ea6\u77e2\u672c\u77f3\u5dfb\u9053\u8def\u6cb3\u5317\u6843\u751f\u5730\u533a\u5730\u8cea\u8abf\u67fb","client_name":"\u56fd\u571f\u4ea4\u901a\u7701\u6771\u5317\u5730\u65b9\u6574\u5099\u5c40\u4ed9\u53f0\u6cb3\u5ddd\u56fd\u9053\u4e8b\u52d9\u6240","boring_xml_url":40,"boring_view_url":1,"soilmap_view_url":null,"soiltest_xml_url":0,"soiltest_view_url":0},{"id":141405,"code":"B4KJ201801002-9654","latitude":"38.54239","longitude":"141.27486","source_code":"TH57416242004","project_name":"","survey_name":"\u5e73\u62105\u5e74\u5ea6\u77e2\u672c\u30fb\u77f3\u5dfb\u9053\u8def\u6843\u751f\u5730\u533a\u5730\u8cea\u8abf\u67fb","client_name":"\u56fd\u571f\u4ea4\u901a\u7701\u6771\u5317\u5730\u65b9\u6574\u5099\u5c40\u4ed9\u53f0\u6cb3\u5ddd\u56fd\u9053\u4e8b\u52d9\u6240","boring_xml_url":40,"boring_view_url":1,"soilmap_view_url":null,"soiltest_xml_url":0,"soiltest_view_url":0},{"id":141404,"code":"B4KJ201801002-9653","latitude":"38.53739","longitude":"141.27986","source_code":"TH57416242002","project_name":"","survey_name":"\u5e73\u62105\u5e74\u5ea6\u77e2\u672c\u30fb\u77f3\u5dfb\u9053\u8def\u6843\u751f\u5730\u533a\u5730\u8cea\u8abf\u67fb","client_name":"\u56fd\u571f\u4ea4\u901a\u7701\u6771\u5317\u5730\u65b9\u6574\u5099\u5c40\u4ed9\u53f0\u6cb3\u5ddd\u56fd\u9053\u4e8b\u52d9\u6240","boring_xml_url":40,"boring_view_url":1,"soilmap_view_url":null,"soiltest_xml_url":0,"soiltest_view_url":0},{"id":141403,"code":"B4KJ201801002-9652","latitude":"38.53683","longitude":"141.27875","source_code":"TH57416242001","project_name":"","survey_name":"\u5e73\u62105\u5e74\u5ea6\u77e2\u672c\u30fb\u77f3\u5dfb\u9053\u8def\u6843\u751f\u5730\u533a\u5730\u8cea\u8abf\u67fb","client_name":"\u56fd\u571f\u4ea4\u901a\u7701\u6771\u5317\u5730\u65b9\u6574\u5099\u5c40\u4ed9\u53f0\u6cb3\u5ddd\u56fd\u9053\u4e8b\u52d9\u6240","boring_xml_url":40,"boring_view_url":1,"soilmap_view_url":null,"soiltest_xml_url":0,"soiltest_view_url":0},{"id":141402,"code":"B4KJ201801002-9651","latitude":"38.53739","longitude":"141.26986","source_code":"TH57416241001","project_name":"","survey_name":"\u5e73\u62105\u5e74\u5ea6\u77e2\u672c\u30fb\u77f3\u5dfb\u9053\u8def\u6843\u751f\u5730\u533a\u5730\u8cea\u8abf\u67fb","client_name":"\u56fd\u571f\u4ea4\u901a\u7701\u6771\u5317\u5730\u65b9\u6574\u5099\u5c40\u4ed9\u53f0\u6cb3\u5ddd\u56fd\u9053\u4e8b\u52d9\u6240","boring_xml_url":40,"boring_view_url":1,"soilmap_view_url":null,"soiltest_xml_url":0,"soiltest_view_url":0},{"id":141401,"code":"B4KJ201801002-9650","latitude":"38.53106","longitude":"141.36744","source_code":"TH57416239007","project_name":"","survey_name":"\u5317\u4e0a\u5ddd\u63d0\u9632\u5730\u76e4\u8abf\u67fb","client_name":"\u56fd\u571f\u4ea4\u901a\u7701\u6771\u5317\u5730\u65b9\u6574\u5099\u5c40\u5317\u4e0a\u5ddd\u4e0b\u6d41\u6cb3\u5ddd\u4e8b\u52d9\u6240","boring_xml_url":40,"boring_view_url":1,"soilmap_view_url":null,"soiltest_xml_url":43,"soiltest_view_url":43},{"id":141400,"code":"B4KJ201801002-9649","latitude":"38.53322","longitude":"141.37053","source_code":"TH57416239006","project_name":"","survey_name":"\u5317\u4e0a\u5ddd\u63d0\u9632\u5730\u76e4\u8abf\u67fb","client_name":"\u56fd\u571f\u4ea4\u901a\u7701\u6771\u5317\u5730\u65b9\u6574\u5099\u5c40\u5317\u4e0a\u5ddd\u4e0b\u6d41\u6cb3\u5ddd\u4e8b\u52d9\u6240","boring_xml_url":40,"boring_view_url":1,"soilmap_view_url":null,"soiltest_xml_url":43,"soiltest_view_url":43},{"id":141399,"code":"B4KJ201801002-9648","latitude":"38.53031","longitude":"141.36653","source_code":"TH57416239005","project_name":"","survey_name":"\u5317\u4e0a\u5ddd\u53ca\u3073\u65e7\u5317\u4e0a\u5ddd\u5730\u76e4\u8abf\u67fb","client_name":"\u56fd\u571f\u4ea4\u901a\u7701\u6771\u5317\u5730\u65b9\u6574\u5099\u5c40\u5317\u4e0a\u5ddd\u4e0b\u6d41\u6cb3\u5ddd\u4e8b\u52d9\u6240","boring_xml_url":40,"boring_view_url":1,"soilmap_view_url":null,"soiltest_xml_url":0,"soiltest_view_url":0},{"id":141398,"code":"B4KJ201801002-9647","latitude":"38.53381","longitude":"141.37019","source_code":"TH57416239004","project_name":"","survey_name":"\u662d\u548c53\u5e74\u5ea6\u6a4b\u6d66\u5824\u9632\u571f\u8cea\u8abf\u67fb\u53ca\u3073\u8a2d\u8a08\u696d\u52d9\u59d4\u8a17","client_name":"\u56fd\u571f\u4ea4\u901a\u7701\u6771\u5317\u5730\u65b9\u6574\u5099\u5c40\u5317\u4e0a\u5ddd\u4e0b\u6d41\u6cb3\u5ddd\u4e8b\u52d9\u6240","boring_xml_url":40,"boring_view_url":1,"soilmap_view_url":null,"soiltest_xml_url":0,"soiltest_view_url":0},{"id":141397,"code":"B4KJ201801002-9646","latitude":"38.5335","longitude":"141.37031","source_code":"TH57416239003","project_name":"","survey_name":"\u662d\u548c53\u5e74\u5ea6\u6a4b\u6d66\u5824\u9632\u571f\u8cea\u8abf\u67fb\u53ca\u3073\u8a2d\u8a08\u696d\u52d9\u59d4\u8a17","client_name":"\u56fd\u571f\u4ea4\u901a\u7701\u6771\u5317\u5730\u65b9\u6574\u5099\u5c40\u5317\u4e0a\u5ddd\u4e0b\u6d41\u6cb3\u5ddd\u4e8b\u52d9\u6240","boring_xml_url":40,"boring_view_url":1,"soilmap_view_url":null,"soiltest_xml_url":43,"soiltest_view_url":43},{"id":141396,"code":"B4KJ201801002-9645","latitude":"38.53367","longitude":"141.37097","source_code":"TH57416239002","project_name":"","survey_name":"\u662d\u548c53\u5e74\u5ea6\u6a4b\u6d66\u5824\u9632\u571f\u8cea\u8abf\u67fb\u53ca\u3073\u8a2d\u8a08\u696d\u52d9\u59d4\u8a17","client_name":"\u56fd\u571f\u4ea4\u901a\u7701\u6771\u5317\u5730\u65b9\u6574\u5099\u5c40\u5317\u4e0a\u5ddd\u4e0b\u6d41\u6cb3\u5ddd\u4e8b\u52d9\u6240","boring_xml_url":40,"boring_view_url":1,"soilmap_view_url":null,"soiltest_xml_url":0,"soiltest_view_url":0},{"id":141395,"code":"B4KJ201801002-9644","latitude":"38.53403","longitude":"141.37122","source_code":"TH57416239001","project_name":"","survey_name":"\u662d\u548c53\u5e74\u5ea6\u6a4b\u6d66\u5824\u9632\u571f\u8cea\u8abf\u67fb\u53ca\u3073\u8a2d\u8a08\u696d\u52d9\u59d4\u8a17","client_name":"\u56fd\u571f\u4ea4\u901a\u7701\u6771\u5317\u5730\u65b9\u6574\u5099\u5c40\u5317\u4e0a\u5ddd\u4e0b\u6d41\u6cb3\u5ddd\u4e8b\u52d9\u6240","boring_xml_url":40,"boring_view_url":1,"soilmap_view_url":null,"soiltest_xml_url":43,"soiltest_view_url":43},{"id":141394,"code":"B4KJ201801002-9643","latitude":"38.53586","longitude":"141.30492","source_code":"TH57416234003","project_name":"","survey_name":"\u5317\u4e0a\u5927\u5830\u53f3\u5cb8\u7528\u6c34\u8def\u8a2d\u8a08\u696d\u52d9\u59d4\u8a17(\u5730\u76e4\u8abf\u67fb)","client_name":"\u56fd\u571f\u4ea4\u901a\u7701\u6771\u5317\u5730\u65b9\u6574\u5099\u5c40\u5317\u4e0a\u5ddd\u4e0b\u6d41\u6cb3\u5ddd\u4e8b\u52d9\u6240","boring_xml_url":40,"boring_view_url":1,"soilmap_view_url":null,"soiltest_xml_url":43,"soiltest_view_url":43},{"id":141393,"code":"B4KJ201801002-9642","latitude":"38.53494","longitude":"141.30644","source_code":"TH57416234002","project_name":"","survey_name":"\u5317\u4e0a\u5927\u5830\u53f3\u5cb8\u7528\u6c34\u8def\u8a2d\u8a08\u696d\u52d9\u59d4\u8a17(\u5730\u76e4\u8abf\u67fb)","client_name":"\u56fd\u571f\u4ea4\u901a\u7701\u6771\u5317\u5730\u65b9\u6574\u5099\u5c40\u5317\u4e0a\u5ddd\u4e0b\u6d41\u6cb3\u5ddd\u4e8b\u52d9\u6240","boring_xml_url":40,"boring_view_url":1,"soilmap_view_url":null,"soiltest_xml_url":43,"soiltest_view_url":43},{"id":141392,"code":"B4KJ201801002-9641","latitude":"38.53475","longitude":"141.30567","source_code":"TH57416234001","project_name":"","survey_name":"\u5317\u4e0a\u5927\u5830\u53f3\u5cb8\u7528\u6c34\u8def\u8a2d\u8a08\u696d\u52d9\u59d4\u8a17(\u5730\u76e4\u8abf\u67fb)","client_name":"\u56fd\u571f\u4ea4\u901a\u7701\u6771\u5317\u5730\u65b9\u6574\u5099\u5c40\u5317\u4e0a\u5ddd\u4e0b\u6d41\u6cb3\u5ddd\u4e8b\u52d9\u6240","boring_xml_url":40,"boring_view_url":1,"soilmap_view_url":null,"soiltest_xml_url":43,"soiltest_view_url":43},{"id":141391,"code":"B4KJ201801002-9640","latitude":"38.53294","longitude":"141.28292","source_code":"TH57416232003","project_name":"","survey_name":"\u5e73\u62105\u5e74\u5ea6\u77e2\u672c\u30fb\u77f3\u5dfb\u9053\u8def\u6843\u751f\u5730\u533a\u5730\u8cea\u8abf\u67fb","client_name":"\u56fd\u571f\u4ea4\u901a\u7701\u6771\u5317\u5730\u65b9\u6574\u5099\u5c40\u4ed9\u53f0\u6cb3\u5ddd\u56fd\u9053\u4e8b\u52d9\u6240","boring_xml_url":40,"boring_view_url":1,"soilmap_view_url":null,"soiltest_xml_url":0,"soiltest_view_url":0},{"id":141390,"code":"B4KJ201801002-9639","latitude":"38.52044","longitude":"141.30594","source_code":"TH57416224003","project_name":"","survey_name":"\u5317\u4e0a\u5927\u5830\u53f3\u5cb8\u7528\u6c34\u8def\u8a2d\u8a08\u696d\u52d9\u59d4\u8a17(\u5730\u76e4\u8abf\u67fb)","client_name":"\u56fd\u571f\u4ea4\u901a\u7701\u6771\u5317\u5730\u65b9\u6574\u5099\u5c40\u5317\u4e0a\u5ddd\u4e0b\u6d41\u6cb3\u5ddd\u4e8b\u52d9\u6240","boring_xml_url":40,"boring_view_url":1,"soilmap_view_url":null,"soiltest_xml_url":0,"soiltest_view_url":0},{"id":141389,"code":"B4KJ201801002-9638","latitude":"38.52333","longitude":"141.30642","source_code":"TH57416224002","project_name":"","survey_name":"\u662d\u548c53\u5e74\u5ea6\u5317\u4e0a\u5927\u5830\u6d5a\u6e2b\u95a2\u9023\u571f\u8cea\u8abf\u67fb","client_name":"\u56fd\u571f\u4ea4\u901a\u7701\u6771\u5317\u5730\u65b9\u6574\u5099\u5c40\u5317\u4e0a\u5ddd\u4e0b\u6d41\u6cb3\u5ddd\u4e8b\u52d9\u6240","boring_xml_url":40,"boring_view_url":1,"soilmap_view_url":null,"soiltest_xml_url":0,"soiltest_view_url":0},{"id":141388,"code":"B4KJ201801002-9637","latitude":"38.52647","longitude":"141.30447","source_code":"TH57416224001","project_name":"","survey_name":"\u5317\u4e0a\u5927\u5830\u53f3\u5cb8\u7528\u6c34\u8def\u8a2d\u8a08\u4e26\u3073\u306b\u5730\u76e4\u8abf\u67fb","client_name":"\u56fd\u571f\u4ea4\u901a\u7701\u6771\u5317\u5730\u65b9\u6574\u5099\u5c40\u5317\u4e0a\u5ddd\u4e0b\u6d41\u6cb3\u5ddd\u4e8b\u52d9\u6240","boring_xml_url":40,"boring_view_url":1,"soilmap_view_url":null,"soiltest_xml_url":0,"soiltest_view_url":0},{"id":141387,"code":"B4KJ201801002-9636","latitude":"38.52592","longitude":"141.28811","source_code":"TH57416223004","project_name":"","survey_name":"\u5e73\u62103\u5e74\u5ea6\u77e2\u672c\u30fb\u77f3\u5dfb\u9053\u8def\u6cb3\u5317\u5730\u533a\u5730\u76e4\u8abf\u67fb(\u305d\u306e2)","client_name":"\u56fd\u571f\u4ea4\u901a\u7701\u6771\u5317\u5730\u65b9\u6574\u5099\u5c40\u4ed9\u53f0\u6cb3\u5ddd\u56fd\u9053\u4e8b\u52d9\u6240","boring_xml_url":40,"boring_view_url":1,"soilmap_view_url":null,"soiltest_xml_url":0,"soiltest_view_url":0},{"id":141386,"code":"B4KJ201801002-9635","latitude":"38.51608","longitude":"141.32306","source_code":"TH57416216001","project_name":"","survey_name":"\u5317\u4e0a\u5ddd\u6c5f\u5408\u5ddd\u7b4b\u5730\u76e4\u8abf\u67fb","client_name":"\u56fd\u571f\u4ea4\u901a\u7701\u6771\u5317\u5730\u65b9\u6574\u5099\u5c40\u5317\u4e0a\u5ddd\u4e0b\u6d41\u6cb3\u5ddd\u4e8b\u52d9\u6240","boring_xml_url":40,"boring_view_url":1,"soilmap_view_url":null,"soiltest_xml_url":0,"soiltest_view_url":0}]}}