{"header":{"xyz":{"source":[],"mosaic":false},"page":5976,"raw":{"soiltest_result":"0","bbox":"57.598333,109.544722,1.933333,163.806111","page":"5976"},"conditions":{"soiltest_result":0,"north":57.598333,"west":109.544722,"south":1.933333,"east":163.806111},"success":true,"message":""},"data":{"meta":{"total":212844,"page":5976,"pages":7095,"count":30},"values":[{"id":141295,"code":"B4KJ201801002-9544","latitude":"38.55486","longitude":"141.06386","source_code":"TH57416065004","project_name":"","survey_name":"\u5c0f\u725b\u7530\u30d0\u30a4\u30d1\u30b9\u4e00\u5de5\u533a\u9053\u8def\u4e88\u5099\u8a2d\u8a08\u696d\u52d9(\u5730\u76e4\u8abf\u67fb\u7de8)","client_name":"\u56fd\u571f\u4ea4\u901a\u7701\u6771\u5317\u5730\u65b9\u6574\u5099\u5c40\u4ed9\u53f0\u6cb3\u5ddd\u56fd\u9053\u4e8b\u52d9\u6240","boring_xml_url":40,"boring_view_url":1,"soilmap_view_url":null,"soiltest_xml_url":0,"soiltest_view_url":0},{"id":141294,"code":"B4KJ201801002-9543","latitude":"38.55444","longitude":"141.06311","source_code":"TH57416065003","project_name":"","survey_name":"\u662d\u548c61\u5e74\u5ea6\u5c0f\u5348\u7530\u30d0\u30a4\u30d1\u30b9\u4e00\u5de5\u533a\u5730\u76e4\u8abf\u67fb","client_name":"\u56fd\u571f\u4ea4\u901a\u7701\u6771\u5317\u5730\u65b9\u6574\u5099\u5c40\u4ed9\u53f0\u6cb3\u5ddd\u56fd\u9053\u4e8b\u52d9\u6240","boring_xml_url":40,"boring_view_url":1,"soilmap_view_url":null,"soiltest_xml_url":0,"soiltest_view_url":0},{"id":141293,"code":"B4KJ201801002-9542","latitude":"38.55714","longitude":"141.07025","source_code":"TH57416065002","project_name":"","survey_name":"\u662d\u548c61\u5e74\u5ea6\u5c0f\u5348\u7530\u30d0\u30a4\u30d1\u30b9\u4e00\u5de5\u533a\u5730\u76e4\u8abf\u67fb","client_name":"\u56fd\u571f\u4ea4\u901a\u7701\u6771\u5317\u5730\u65b9\u6574\u5099\u5c40\u4ed9\u53f0\u6cb3\u5ddd\u56fd\u9053\u4e8b\u52d9\u6240","boring_xml_url":40,"boring_view_url":1,"soilmap_view_url":null,"soiltest_xml_url":0,"soiltest_view_url":0},{"id":141292,"code":"B4KJ201801002-9541","latitude":"38.55711","longitude":"141.06528","source_code":"TH57416065001","project_name":"","survey_name":"\u662d\u548c60\u5e74\u5ea6\u5c0f\u725b\u7530\u30d0\u30a4\u30d1\u30b9\u4e8c\u5de5\u533a\u5730\u76e4\u8abf\u67fb","client_name":"\u56fd\u571f\u4ea4\u901a\u7701\u6771\u5317\u5730\u65b9\u6574\u5099\u5c40\u4ed9\u53f0\u6cb3\u5ddd\u56fd\u9053\u4e8b\u52d9\u6240","boring_xml_url":40,"boring_view_url":1,"soilmap_view_url":null,"soiltest_xml_url":0,"soiltest_view_url":0},{"id":141291,"code":"B4KJ201801002-9540","latitude":"38.55317","longitude":"141.05819","source_code":"TH57416064002","project_name":"","survey_name":"\u5c0f\u725b\u7530\u30d0\u30a4\u30d1\u30b9\u7acb\u4f53\u6a2a\u65ad\u65bd\u8a2d\u8a2d\u8a08\u696d\u52d9","client_name":"\u56fd\u571f\u4ea4\u901a\u7701\u6771\u5317\u5730\u65b9\u6574\u5099\u5c40\u4ed9\u53f0\u6cb3\u5ddd\u56fd\u9053\u4e8b\u52d9\u6240","boring_xml_url":40,"boring_view_url":1,"soilmap_view_url":null,"soiltest_xml_url":0,"soiltest_view_url":0},{"id":141290,"code":"B4KJ201801002-9539","latitude":"38.55711","longitude":"141.05278","source_code":"TH57416064001","project_name":"","survey_name":"\u5ddd\u53e3\u6392\u6c34\u6a0b\u7ba1\u5b9f\u65bd\u8a2d\u8a08\u59d4\u8a17\u696d\u52d9","client_name":"\u56fd\u571f\u4ea4\u901a\u7701\u6771\u5317\u5730\u65b9\u6574\u5099\u5c40\u5317\u4e0a\u5ddd\u4e0b\u6d41\u6cb3\u5ddd\u4e8b\u52d9\u6240","boring_xml_url":40,"boring_view_url":1,"soilmap_view_url":null,"soiltest_xml_url":0,"soiltest_view_url":0},{"id":141289,"code":"B4KJ201801002-9538","latitude":"38.55611","longitude":"141.04014","source_code":"TH57416063003","project_name":"","survey_name":"\u662d\u548c60\u5e74\u5ea6\u5c0f\u725b\u7530\u30d0\u30a4\u30d1\u30b9\u4e8c\u5de5\u533a\u5730\u76e4\u8abf\u67fb","client_name":"\u56fd\u571f\u4ea4\u901a\u7701\u6771\u5317\u5730\u65b9\u6574\u5099\u5c40\u4ed9\u53f0\u6cb3\u5ddd\u56fd\u9053\u4e8b\u52d9\u6240","boring_xml_url":40,"boring_view_url":1,"soilmap_view_url":null,"soiltest_xml_url":0,"soiltest_view_url":0},{"id":141288,"code":"B4KJ201801002-9537","latitude":"38.55925","longitude":"141.03431","source_code":"TH57416063002","project_name":"","survey_name":"\u662d\u548c60\u5e74\u5ea6\u5c0f\u725b\u7530\u30d0\u30a4\u30d1\u30b9\u4e8c\u5de5\u533a\u5730\u76e4\u8abf\u67fb","client_name":"\u56fd\u571f\u4ea4\u901a\u7701\u6771\u5317\u5730\u65b9\u6574\u5099\u5c40\u4ed9\u53f0\u6cb3\u5ddd\u56fd\u9053\u4e8b\u52d9\u6240","boring_xml_url":40,"boring_view_url":1,"soilmap_view_url":null,"soiltest_xml_url":0,"soiltest_view_url":0},{"id":141287,"code":"B4KJ201801002-9536","latitude":"38.55711","longitude":"141.04028","source_code":"TH57416063001","project_name":"","survey_name":"\u662d\u548c60\u5e74\u5ea6\u5c0f\u4e2d\u7530\u30d0\u30a4\u30d1\u30b9\u4e8c\u5de5\u533a\u5730\u76e4\u8abf\u67fb","client_name":"\u56fd\u571f\u4ea4\u901a\u7701\u6771\u5317\u5730\u65b9\u6574\u5099\u5c40\u4ed9\u53f0\u6cb3\u5ddd\u56fd\u9053\u4e8b\u52d9\u6240","boring_xml_url":40,"boring_view_url":1,"soilmap_view_url":null,"soiltest_xml_url":0,"soiltest_view_url":0},{"id":141286,"code":"B4KJ201801002-9535","latitude":"38.54978","longitude":"141.09925","source_code":"TH57416058004","project_name":"","survey_name":"\u662d\u548c62\u5e74\u5ea6\u6d8c\u8c37\u30d0\u30a4\u30d1\u30b9\u8edf\u5f31\u5730\u76e4\u89e3\u6790\u696d\u52d9","client_name":"\u56fd\u571f\u4ea4\u901a\u7701\u6771\u5317\u5730\u65b9\u6574\u5099\u5c40\u4ed9\u53f0\u6cb3\u5ddd\u56fd\u9053\u4e8b\u52d9\u6240","boring_xml_url":40,"boring_view_url":1,"soilmap_view_url":null,"soiltest_xml_url":0,"soiltest_view_url":0},{"id":141285,"code":"B4KJ201801002-9534","latitude":"38.54572","longitude":"141.10819","source_code":"TH57416058003","project_name":"","survey_name":"\u662d\u548c61\u5e74\u5ea6\u6d8c\u8c37\u30d0\u30a4\u30d1\u30b9\u4e00\u672c\u67f3\u5730\u533a\u5730\u76e4\u8abf\u67fb","client_name":"\u56fd\u571f\u4ea4\u901a\u7701\u6771\u5317\u5730\u65b9\u6574\u5099\u5c40\u4ed9\u53f0\u6cb3\u5ddd\u56fd\u9053\u4e8b\u52d9\u6240","boring_xml_url":40,"boring_view_url":1,"soilmap_view_url":null,"soiltest_xml_url":0,"soiltest_view_url":0},{"id":141284,"code":"B4KJ201801002-9533","latitude":"38.54722","longitude":"141.10789","source_code":"TH57416058002","project_name":"","survey_name":"\u6d8c\u8c37\u30d0\u30a4\u30d1\u30b9\u5730\u76e4\u8abf\u67fb","client_name":"\u56fd\u571f\u4ea4\u901a\u7701\u6771\u5317\u5730\u65b9\u6574\u5099\u5c40\u4ed9\u53f0\u6cb3\u5ddd\u56fd\u9053\u4e8b\u52d9\u6240","boring_xml_url":40,"boring_view_url":1,"soilmap_view_url":null,"soiltest_xml_url":0,"soiltest_view_url":0},{"id":141283,"code":"B4KJ201801002-9532","latitude":"38.54825","longitude":"141.10719","source_code":"TH57416058001","project_name":"","survey_name":"\u6d8c\u8c37\u30d0\u30a4\u30d1\u30b9\u5730\u76e4\u8abf\u67fb","client_name":"\u56fd\u571f\u4ea4\u901a\u7701\u6771\u5317\u5730\u65b9\u6574\u5099\u5c40\u4ed9\u53f0\u6cb3\u5ddd\u56fd\u9053\u4e8b\u52d9\u6240","boring_xml_url":40,"boring_view_url":1,"soilmap_view_url":null,"soiltest_xml_url":0,"soiltest_view_url":0},{"id":141282,"code":"B4KJ201801002-9531","latitude":"38.54878","longitude":"141.05278","source_code":"TH57416054001","project_name":"","survey_name":"\u662d\u548c60\u5e74\u5ea6\u5c0f\u725b\u7530\u30d0\u30a4\u30d1\u30b9\u4e8c\u5de5\u533a\u5730\u76e4\u8abf\u67fb","client_name":"\u56fd\u571f\u4ea4\u901a\u7701\u6771\u5317\u5730\u65b9\u6574\u5099\u5c40\u4ed9\u53f0\u6cb3\u5ddd\u56fd\u9053\u4e8b\u52d9\u6240","boring_xml_url":40,"boring_view_url":1,"soilmap_view_url":null,"soiltest_xml_url":0,"soiltest_view_url":0},{"id":141281,"code":"B4KJ201801002-9530","latitude":"38.54044","longitude":"141.11528","source_code":"TH57416049002","project_name":"","survey_name":"\u6d8c\u8c37\u30d0\u30a4\u30d1\u30b9\u5730\u76e4\u8abf\u67fb","client_name":"\u56fd\u571f\u4ea4\u901a\u7701\u6771\u5317\u5730\u65b9\u6574\u5099\u5c40\u4ed9\u53f0\u6cb3\u5ddd\u56fd\u9053\u4e8b\u52d9\u6240","boring_xml_url":40,"boring_view_url":1,"soilmap_view_url":null,"soiltest_xml_url":0,"soiltest_view_url":0},{"id":141280,"code":"B4KJ201801002-9529","latitude":"38.53747","longitude":"141.1175","source_code":"TH57416049001","project_name":"","survey_name":"\u6d8c\u8c37\u30d0\u30a4\u30d1\u30b9\u5730\u76e4\u8abf\u67fb","client_name":"\u56fd\u571f\u4ea4\u901a\u7701\u6771\u5317\u5730\u65b9\u6574\u5099\u5c40\u4ed9\u53f0\u6cb3\u5ddd\u56fd\u9053\u4e8b\u52d9\u6240","boring_xml_url":40,"boring_view_url":1,"soilmap_view_url":null,"soiltest_xml_url":0,"soiltest_view_url":0},{"id":141279,"code":"B4KJ201801002-9528","latitude":"38.54283","longitude":"141.10861","source_code":"TH57416048003","project_name":"","survey_name":"\u6d8c\u8c37\u30d0\u30a4\u30d1\u30b9\u5730\u76e4\u8abf\u67fb","client_name":"\u56fd\u571f\u4ea4\u901a\u7701\u6771\u5317\u5730\u65b9\u6574\u5099\u5c40\u4ed9\u53f0\u6cb3\u5ddd\u56fd\u9053\u4e8b\u52d9\u6240","boring_xml_url":40,"boring_view_url":1,"soilmap_view_url":null,"soiltest_xml_url":0,"soiltest_view_url":0},{"id":141278,"code":"B4KJ201801002-9527","latitude":"38.54286","longitude":"141.108","source_code":"TH57416048002","project_name":"","survey_name":"\u662d\u548c57\u5e74\u5ea6\u6d8c\u8c37\u30d0\u30a4\u30d1\u30b9\u6e0b\u6c5f\u5730\u533a\u5730\u76e4\u8abf\u67fb","client_name":"\u56fd\u571f\u4ea4\u901a\u7701\u6771\u5317\u5730\u65b9\u6574\u5099\u5c40\u4ed9\u53f0\u6cb3\u5ddd\u56fd\u9053\u4e8b\u52d9\u6240","boring_xml_url":40,"boring_view_url":1,"soilmap_view_url":null,"soiltest_xml_url":0,"soiltest_view_url":0},{"id":141277,"code":"B4KJ201801002-9526","latitude":"38.54422","longitude":"141.10786","source_code":"TH57416048001","project_name":"","survey_name":"\u662d\u548c57\u5e74\u5ea6\u6d8c\u8c37\u30d0\u30a4\u30d1\u30b9\u6e0b\u6c5f\u5730\u533a\u5730\u76e4\u8abf\u67fb","client_name":"\u56fd\u571f\u4ea4\u901a\u7701\u6771\u5317\u5730\u65b9\u6574\u5099\u5c40\u4ed9\u53f0\u6cb3\u5ddd\u56fd\u9053\u4e8b\u52d9\u6240","boring_xml_url":40,"boring_view_url":1,"soilmap_view_url":null,"soiltest_xml_url":0,"soiltest_view_url":0},{"id":141276,"code":"B4KJ201801002-9525","latitude":"38.53033","longitude":"141.00511","source_code":"TH57416030002","project_name":"","survey_name":"\u5317\u4e0a\u5ddd\u6c5f\u5408\u5ddd\u7b4b\u5730\u76e4\u8abf\u67fb","client_name":"\u56fd\u571f\u4ea4\u901a\u7701\u6771\u5317\u5730\u65b9\u6574\u5099\u5c40\u5317\u4e0a\u5ddd\u4e0b\u6d41\u6cb3\u5ddd\u4e8b\u52d9\u6240","boring_xml_url":40,"boring_view_url":1,"soilmap_view_url":null,"soiltest_xml_url":0,"soiltest_view_url":0},{"id":141275,"code":"B4KJ201801002-9524","latitude":"38.53386","longitude":"140.99964","source_code":"TH57416030001","project_name":"","survey_name":"\u662d\u548c57\u5e74\u5ea6\u9cf4\u702c\u5ddd\u7b4b\u5730\u8cea\u8abf\u67fb","client_name":"\u56fd\u571f\u4ea4\u901a\u7701\u6771\u5317\u5730\u65b9\u6574\u5099\u5c40\u5317\u4e0a\u5ddd\u4e0b\u6d41\u6cb3\u5ddd\u4e8b\u52d9\u6240","boring_xml_url":40,"boring_view_url":1,"soilmap_view_url":null,"soiltest_xml_url":0,"soiltest_view_url":0},{"id":141274,"code":"B4KJ201801002-9523","latitude":"38.52411","longitude":"141.09161","source_code":"TH57416027018","project_name":"","survey_name":"\u5e73\u62103\u5e74\u5ea6\u9cf4\u702c\u5ddd\u4e2d\u6d41\u5830\u5730\u8cea\u8abf\u67fb\u305d\u306e3","client_name":"\u56fd\u571f\u4ea4\u901a\u7701\u6771\u5317\u5730\u65b9\u6574\u5099\u5c40\u5317\u4e0a\u5ddd\u4e0b\u6d41\u6cb3\u5ddd\u4e8b\u52d9\u6240","boring_xml_url":40,"boring_view_url":1,"soilmap_view_url":null,"soiltest_xml_url":0,"soiltest_view_url":0},{"id":141273,"code":"B4KJ201801002-9522","latitude":"38.52433","longitude":"141.09069","source_code":"TH57416027017","project_name":"","survey_name":"\u5e73\u62103\u5e74\u5ea6\u9cf4\u702c\u5ddd\u4e2d\u6d41\u5830\u5730\u8cea\u8abf\u67fb\u305d\u306e3","client_name":"\u56fd\u571f\u4ea4\u901a\u7701\u6771\u5317\u5730\u65b9\u6574\u5099\u5c40\u5317\u4e0a\u5ddd\u4e0b\u6d41\u6cb3\u5ddd\u4e8b\u52d9\u6240","boring_xml_url":40,"boring_view_url":1,"soilmap_view_url":null,"soiltest_xml_url":0,"soiltest_view_url":0},{"id":141272,"code":"B4KJ201801002-9521","latitude":"38.52478","longitude":"141.09103","source_code":"TH57416027016","project_name":"","survey_name":"\u5e73\u62103\u5e74\u5ea6\u9cf4\u702c\u5ddd\u4e2d\u6d41\u5830\u5730\u8cea\u8abf\u67fb\u305d\u306e3","client_name":"\u56fd\u571f\u4ea4\u901a\u7701\u6771\u5317\u5730\u65b9\u6574\u5099\u5c40\u5317\u4e0a\u5ddd\u4e0b\u6d41\u6cb3\u5ddd\u4e8b\u52d9\u6240","boring_xml_url":40,"boring_view_url":1,"soilmap_view_url":null,"soiltest_xml_url":0,"soiltest_view_url":0},{"id":141271,"code":"B4KJ201801002-9520","latitude":"38.52528","longitude":"141.09108","source_code":"TH57416027015","project_name":"","survey_name":"\u5e73\u62103\u5e74\u5ea6\u9cf4\u702c\u5ddd\u4e2d\u6d41\u5830\u5730\u8cea\u8abf\u67fb\u305d\u306e3","client_name":"\u56fd\u571f\u4ea4\u901a\u7701\u6771\u5317\u5730\u65b9\u6574\u5099\u5c40\u5317\u4e0a\u5ddd\u4e0b\u6d41\u6cb3\u5ddd\u4e8b\u52d9\u6240","boring_xml_url":40,"boring_view_url":1,"soilmap_view_url":null,"soiltest_xml_url":0,"soiltest_view_url":0},{"id":141270,"code":"B4KJ201801002-9519","latitude":"38.52389","longitude":"141.092","source_code":"TH57416027014","project_name":"","survey_name":"\u9cf4\u702c\u5ddd\u4e2d\u6d41\u5830\u5730\u8cea\u8abf\u67fb\u305d\u306e2","client_name":"\u56fd\u571f\u4ea4\u901a\u7701\u6771\u5317\u5730\u65b9\u6574\u5099\u5c40\u5317\u4e0a\u5ddd\u4e0b\u6d41\u6cb3\u5ddd\u4e8b\u52d9\u6240","boring_xml_url":40,"boring_view_url":1,"soilmap_view_url":null,"soiltest_xml_url":0,"soiltest_view_url":0},{"id":141269,"code":"B4KJ201801002-9518","latitude":"38.52458","longitude":"141.092","source_code":"TH57416027013","project_name":"","survey_name":"\u9cf4\u702c\u5ddd\u4e2d\u6d41\u5830\u5730\u8cea\u8abf\u67fb\u305d\u306e2","client_name":"\u56fd\u571f\u4ea4\u901a\u7701\u6771\u5317\u5730\u65b9\u6574\u5099\u5c40\u5317\u4e0a\u5ddd\u4e0b\u6d41\u6cb3\u5ddd\u4e8b\u52d9\u6240","boring_xml_url":40,"boring_view_url":1,"soilmap_view_url":null,"soiltest_xml_url":0,"soiltest_view_url":0},{"id":141268,"code":"B4KJ201801002-9517","latitude":"38.52525","longitude":"141.092","source_code":"TH57416027012","project_name":"","survey_name":"\u9cf4\u702c\u5ddd\u4e2d\u6d41\u5830\u5730\u8cea\u8abf\u67fb\u305d\u306e2","client_name":"\u56fd\u571f\u4ea4\u901a\u7701\u6771\u5317\u5730\u65b9\u6574\u5099\u5c40\u5317\u4e0a\u5ddd\u4e0b\u6d41\u6cb3\u5ddd\u4e8b\u52d9\u6240","boring_xml_url":40,"boring_view_url":1,"soilmap_view_url":null,"soiltest_xml_url":0,"soiltest_view_url":0},{"id":141267,"code":"B4KJ201801002-9516","latitude":"38.52414","longitude":"141.09083","source_code":"TH57416027011","project_name":"","survey_name":"\u9cf4\u702c\u5ddd\u4e2d\u6d41\u5830\u5730\u8cea\u8abf\u67fb\u305d\u306e2","client_name":"\u56fd\u571f\u4ea4\u901a\u7701\u6771\u5317\u5730\u65b9\u6574\u5099\u5c40\u5317\u4e0a\u5ddd\u4e0b\u6d41\u6cb3\u5ddd\u4e8b\u52d9\u6240","boring_xml_url":40,"boring_view_url":1,"soilmap_view_url":null,"soiltest_xml_url":0,"soiltest_view_url":0},{"id":141266,"code":"B4KJ201801002-9515","latitude":"38.52481","longitude":"141.09083","source_code":"TH57416027010","project_name":"","survey_name":"\u9cf4\u702c\u5ddd\u4e2d\u6d41\u5830\u5730\u8cea\u8abf\u67fb\u305d\u306e2","client_name":"\u56fd\u571f\u4ea4\u901a\u7701\u6771\u5317\u5730\u65b9\u6574\u5099\u5c40\u5317\u4e0a\u5ddd\u4e0b\u6d41\u6cb3\u5ddd\u4e8b\u52d9\u6240","boring_xml_url":40,"boring_view_url":1,"soilmap_view_url":null,"soiltest_xml_url":0,"soiltest_view_url":0}]}}