{"header":{"xyz":{"source":[],"mosaic":false},"page":5978,"raw":{"soiltest_result":"0","bbox":"57.598333,109.544722,1.933333,163.806111","page":"5978"},"conditions":{"soiltest_result":0,"north":57.598333,"west":109.544722,"south":1.933333,"east":163.806111},"success":true,"message":""},"data":{"meta":{"total":212844,"page":5978,"pages":7095,"count":30},"values":[{"id":141235,"code":"B4KJ201801002-9484","latitude":"38.46775","longitude":"141.28503","source_code":"TH57415253008","project_name":"","survey_name":"\u5e73\u62105\u5e74\u5ea6\u77e2\u672c\u30fb\u77f3\u5dfb\u9053\u8def\u6cb3\u5357\u9ad8\u67b6\u6a4b\u5730\u8cea\u8abf\u67fb","client_name":"\u56fd\u571f\u4ea4\u901a\u7701\u6771\u5317\u5730\u65b9\u6574\u5099\u5c40\u4ed9\u53f0\u6cb3\u5ddd\u56fd\u9053\u4e8b\u52d9\u6240","boring_xml_url":40,"boring_view_url":1,"soilmap_view_url":null,"soiltest_xml_url":0,"soiltest_view_url":0},{"id":141234,"code":"B4KJ201801002-9483","latitude":"38.46764","longitude":"141.28461","source_code":"TH57415253007","project_name":"","survey_name":"\u5e73\u62105\u5e74\u5ea6\u77e2\u672c\u30fb\u77f3\u5dfb\u9053\u8def\u6cb3\u5357\u9ad8\u67b6\u6a4b\u5730\u8cea\u8abf\u67fb","client_name":"\u56fd\u571f\u4ea4\u901a\u7701\u6771\u5317\u5730\u65b9\u6574\u5099\u5c40\u4ed9\u53f0\u6cb3\u5ddd\u56fd\u9053\u4e8b\u52d9\u6240","boring_xml_url":40,"boring_view_url":1,"soilmap_view_url":null,"soiltest_xml_url":0,"soiltest_view_url":0},{"id":141233,"code":"B4KJ201801002-9482","latitude":"38.46947","longitude":"141.28819","source_code":"TH57415253006","project_name":"","survey_name":"\u5e73\u62103\u5e74\u5ea6\u77e2\u672c\u77f3\u5dfb\u9053\u8def\u6cb3\u5357\u5730\u533a\u5730\u76e4\u8abf\u67fb\u305d\u306e1","client_name":"\u56fd\u571f\u4ea4\u901a\u7701\u6771\u5317\u5730\u65b9\u6574\u5099\u5c40\u4ed9\u53f0\u6cb3\u5ddd\u56fd\u9053\u4e8b\u52d9\u6240","boring_xml_url":40,"boring_view_url":1,"soilmap_view_url":null,"soiltest_xml_url":0,"soiltest_view_url":0},{"id":141232,"code":"B4KJ201801002-9481","latitude":"38.46806","longitude":"141.28675","source_code":"TH57415253005","project_name":"","survey_name":"\u5e73\u62103\u5e74\u5ea6\u77e2\u672c\u77f3\u5dfb\u9053\u8def\u6cb3\u5357\u5730\u533a\u5730\u76e4\u8abf\u67fb\u305d\u306e1","client_name":"\u56fd\u571f\u4ea4\u901a\u7701\u6771\u5317\u5730\u65b9\u6574\u5099\u5c40\u4ed9\u53f0\u6cb3\u5ddd\u56fd\u9053\u4e8b\u52d9\u6240","boring_xml_url":40,"boring_view_url":1,"soilmap_view_url":null,"soiltest_xml_url":0,"soiltest_view_url":0},{"id":141231,"code":"B4KJ201801002-9480","latitude":"38.46236","longitude":"141.29439","source_code":"TH57415253004","project_name":"","survey_name":"\u66fd\u6ce2\u795e\u5730\u533a\u5730\u76e4\u8abf\u67fb(\u305d\u306e2)","client_name":"\u56fd\u571f\u4ea4\u901a\u7701\u6771\u5317\u5730\u65b9\u6574\u5099\u5c40\u5317\u4e0a\u5ddd\u4e0b\u6d41\u6cb3\u5ddd\u4e8b\u52d9\u6240","boring_xml_url":40,"boring_view_url":1,"soilmap_view_url":null,"soiltest_xml_url":0,"soiltest_view_url":0},{"id":141230,"code":"B4KJ201801002-9479","latitude":"38.46156","longitude":"141.29231","source_code":"TH57415253003","project_name":"","survey_name":"\u662d\u548c63\u5e74\u5ea6\u66fd\u6ce2\u795e\u5730\u533a\u5730\u76e4\u8abf\u67fb(\u305d\u306e1)","client_name":"\u56fd\u571f\u4ea4\u901a\u7701\u6771\u5317\u5730\u65b9\u6574\u5099\u5c40\u5317\u4e0a\u5ddd\u4e0b\u6d41\u6cb3\u5ddd\u4e8b\u52d9\u6240","boring_xml_url":40,"boring_view_url":1,"soilmap_view_url":null,"soiltest_xml_url":0,"soiltest_view_url":0},{"id":141229,"code":"B4KJ201801002-9478","latitude":"38.46267","longitude":"141.29072","source_code":"TH57415253002","project_name":"","survey_name":"\u662d\u548c63\u5e74\u5ea6\u66fd\u6ce2\u795e\u5730\u533a\u5730\u76e4\u8abf\u67fb(\u305d\u306e1)","client_name":"\u56fd\u571f\u4ea4\u901a\u7701\u6771\u5317\u5730\u65b9\u6574\u5099\u5c40\u5317\u4e0a\u5ddd\u4e0b\u6d41\u6cb3\u5ddd\u4e8b\u52d9\u6240","boring_xml_url":40,"boring_view_url":1,"soilmap_view_url":null,"soiltest_xml_url":0,"soiltest_view_url":0},{"id":141228,"code":"B4KJ201801002-9477","latitude":"38.46403","longitude":"141.29136","source_code":"TH57415253001","project_name":"","survey_name":"\u66fd\u6ce2\u795e\u6a0b\u7ba1\u5730\u76e4\u8abf\u67fb\u53ca\u3073\u8a2d\u8a08\u696d\u52d9","client_name":"\u56fd\u571f\u4ea4\u901a\u7701\u6771\u5317\u5730\u65b9\u6574\u5099\u5c40\u5317\u4e0a\u5ddd\u4e0b\u6d41\u6cb3\u5ddd\u4e8b\u52d9\u6240","boring_xml_url":40,"boring_view_url":1,"soilmap_view_url":null,"soiltest_xml_url":0,"soiltest_view_url":0},{"id":141227,"code":"B4KJ201801002-9476","latitude":"38.46325","longitude":"141.28125","source_code":"TH57415252001","project_name":"","survey_name":"\u662d\u548c63\u5e74\u5ea6\u77f3\u5dfb\u9053\u8def\u5730\u76e4\u8abf\u67fb","client_name":"\u56fd\u571f\u4ea4\u901a\u7701\u6771\u5317\u5730\u65b9\u6574\u5099\u5c40\u4ed9\u53f0\u6cb3\u5ddd\u56fd\u9053\u4e8b\u52d9\u6240","boring_xml_url":40,"boring_view_url":1,"soilmap_view_url":null,"soiltest_xml_url":0,"soiltest_view_url":0},{"id":141226,"code":"B4KJ201801002-9475","latitude":"38.45572","longitude":"141.28619","source_code":"TH57415243008","project_name":"","survey_name":"\u5e73\u62107\u5e74\u5ea6 \u65e7\u5317\u4e0a\u5ddd\u5824\u9632\u8010\u9707\u5bfe\u7b56\u8abf\u67fb\u8a2d\u8a08\u696d\u52d9","client_name":"\u56fd\u571f\u4ea4\u901a\u7701\u6771\u5317\u5730\u65b9\u6574\u5099\u5c40\u5317\u4e0a\u5ddd\u4e0b\u6d41\u6cb3\u5ddd\u4e8b\u52d9\u6240","boring_xml_url":40,"boring_view_url":1,"soilmap_view_url":null,"soiltest_xml_url":43,"soiltest_view_url":43},{"id":141225,"code":"B4KJ201801002-9474","latitude":"38.45342","longitude":"141.28711","source_code":"TH57415243007","project_name":"","survey_name":"\u5e73\u62107\u5e74\u5ea6 \u65e7\u5317\u4e0a\u5ddd\u5824\u9632\u8010\u9707\u5bfe\u7b56\u8abf\u67fb\u8a2d\u8a08\u696d\u52d9","client_name":"\u56fd\u571f\u4ea4\u901a\u7701\u6771\u5317\u5730\u65b9\u6574\u5099\u5c40\u5317\u4e0a\u5ddd\u4e0b\u6d41\u6cb3\u5ddd\u4e8b\u52d9\u6240","boring_xml_url":40,"boring_view_url":1,"soilmap_view_url":null,"soiltest_xml_url":43,"soiltest_view_url":43},{"id":141224,"code":"B4KJ201801002-9473","latitude":"38.46","longitude":"141.29544","source_code":"TH57415243006","project_name":"","survey_name":"\u66fd\u6ce2\u795e\u5730\u533a\u5730\u76e4\u8abf\u67fb(\u305d\u306e2)","client_name":"\u56fd\u571f\u4ea4\u901a\u7701\u6771\u5317\u5730\u65b9\u6574\u5099\u5c40\u5317\u4e0a\u5ddd\u4e0b\u6d41\u6cb3\u5ddd\u4e8b\u52d9\u6240","boring_xml_url":40,"boring_view_url":1,"soilmap_view_url":null,"soiltest_xml_url":0,"soiltest_view_url":0},{"id":141223,"code":"B4KJ201801002-9472","latitude":"38.46078","longitude":"141.29367","source_code":"TH57415243005","project_name":"","survey_name":"\u66fd\u6ce2\u795e\u5730\u533a\u5730\u76e4\u8abf\u67fb(\u305d\u306e2)","client_name":"\u56fd\u571f\u4ea4\u901a\u7701\u6771\u5317\u5730\u65b9\u6574\u5099\u5c40\u5317\u4e0a\u5ddd\u4e0b\u6d41\u6cb3\u5ddd\u4e8b\u52d9\u6240","boring_xml_url":40,"boring_view_url":1,"soilmap_view_url":null,"soiltest_xml_url":0,"soiltest_view_url":0},{"id":141222,"code":"B4KJ201801002-9471","latitude":"38.46094","longitude":"141.29242","source_code":"TH57415243004","project_name":"","survey_name":"\u662d\u548c63\u5e74\u5ea6\u66fd\u6ce2\u795e\u5730\u533a\u5730\u76e4\u8abf\u67fb","client_name":"\u56fd\u571f\u4ea4\u901a\u7701\u6771\u5317\u5730\u65b9\u6574\u5099\u5c40\u5317\u4e0a\u5ddd\u4e0b\u6d41\u6cb3\u5ddd\u4e8b\u52d9\u6240","boring_xml_url":40,"boring_view_url":1,"soilmap_view_url":null,"soiltest_xml_url":0,"soiltest_view_url":0},{"id":141221,"code":"B4KJ201801002-9470","latitude":"38.46003","longitude":"141.29247","source_code":"TH57415243003","project_name":"","survey_name":"\u662d\u548c63\u5e74\u5ea6\u66fd\u6ce2\u795e\u5730\u533a\u5730\u76e4\u8abf\u67fb","client_name":"\u56fd\u571f\u4ea4\u901a\u7701\u6771\u5317\u5730\u65b9\u6574\u5099\u5c40\u5317\u4e0a\u5ddd\u4e0b\u6d41\u6cb3\u5ddd\u4e8b\u52d9\u6240","boring_xml_url":40,"boring_view_url":1,"soilmap_view_url":null,"soiltest_xml_url":0,"soiltest_view_url":0},{"id":141220,"code":"B4KJ201801002-9469","latitude":"38.45928","longitude":"141.29178","source_code":"TH57415243002","project_name":"","survey_name":"\u662d\u548c55\u5e74\u5ea6\u65e7\u5317\u4e0a\u5ddd\u5830\u5730\u76e4\u8abf\u67fb","client_name":"\u56fd\u571f\u4ea4\u901a\u7701\u6771\u5317\u5730\u65b9\u6574\u5099\u5c40\u5317\u4e0a\u5ddd\u4e0b\u6d41\u6cb3\u5ddd\u4e8b\u52d9\u6240","boring_xml_url":40,"boring_view_url":1,"soilmap_view_url":null,"soiltest_xml_url":0,"soiltest_view_url":0},{"id":141219,"code":"B4KJ201801002-9468","latitude":"38.46042","longitude":"141.29067","source_code":"TH57415243001","project_name":"","survey_name":"\u662d\u548c59\u5e74\u5ea6\u66fd\u6ce2\u4e4b\u795e\u5730\u533a\u5730\u8cea\u8abf\u67fb","client_name":"\u56fd\u571f\u4ea4\u901a\u7701\u6771\u5317\u5730\u65b9\u6574\u5099\u5c40\u5317\u4e0a\u5ddd\u4e0b\u6d41\u6cb3\u5ddd\u4e8b\u52d9\u6240","boring_xml_url":40,"boring_view_url":1,"soilmap_view_url":null,"soiltest_xml_url":0,"soiltest_view_url":0},{"id":141218,"code":"B4KJ201801002-9467","latitude":"38.45519","longitude":"141.27292","source_code":"TH57415242002","project_name":"","survey_name":"\u5e73\u62104\u5e74\u5ea6\u77e2\u672c\u30fb\u77f3\u5dfb\u9053\u8def\u6cb3\u5317\u5730\u533a\u5730\u8cea\u8abf\u67fb\u696d\u52d9","client_name":"\u56fd\u571f\u4ea4\u901a\u7701\u6771\u5317\u5730\u65b9\u6574\u5099\u5c40\u4ed9\u53f0\u6cb3\u5ddd\u56fd\u9053\u4e8b\u52d9\u6240","boring_xml_url":40,"boring_view_url":1,"soilmap_view_url":null,"soiltest_xml_url":0,"soiltest_view_url":0},{"id":141217,"code":"B4KJ201801002-9466","latitude":"38.45714","longitude":"141.27778","source_code":"TH57415242001","project_name":"","survey_name":"\u5e73\u62104\u5e74\u5ea6\u77e2\u672c\u30fb\u77f3\u5dfb\u9053\u8def\u6cb3\u5317\u5730\u533a\u5730\u8cea\u8abf\u67fb\u696d\u52d9","client_name":"\u56fd\u571f\u4ea4\u901a\u7701\u6771\u5317\u5730\u65b9\u6574\u5099\u5c40\u4ed9\u53f0\u6cb3\u5ddd\u56fd\u9053\u4e8b\u52d9\u6240","boring_xml_url":40,"boring_view_url":1,"soilmap_view_url":null,"soiltest_xml_url":0,"soiltest_view_url":0},{"id":141216,"code":"B4KJ201801002-9465","latitude":"38.45433","longitude":"141.26372","source_code":"TH57415241003","project_name":"","survey_name":"\u5e73\u62107\u5e74\u5ea6 \u77e2\u672c\u30fb\u77f3\u5dfb\u9053\u8def\u86c7\u7530\u5730\u533a\u5730\u8cea\u8abf\u67fb","client_name":"\u56fd\u571f\u4ea4\u901a\u7701\u6771\u5317\u5730\u65b9\u6574\u5099\u5c40\u4ed9\u53f0\u6cb3\u5ddd\u56fd\u9053\u4e8b\u52d9\u6240","boring_xml_url":40,"boring_view_url":1,"soilmap_view_url":null,"soiltest_xml_url":0,"soiltest_view_url":0},{"id":141215,"code":"B4KJ201801002-9464","latitude":"38.45614","longitude":"141.26314","source_code":"TH57415241002","project_name":"","survey_name":"\u5e73\u62107\u5e74\u5ea6 \u77e2\u672c\u30fb\u77f3\u5dfb\u9053\u8def\u86c7\u7530\u5730\u533a\u5730\u8cea\u8abf\u67fb","client_name":"\u56fd\u571f\u4ea4\u901a\u7701\u6771\u5317\u5730\u65b9\u6574\u5099\u5c40\u4ed9\u53f0\u6cb3\u5ddd\u56fd\u9053\u4e8b\u52d9\u6240","boring_xml_url":40,"boring_view_url":1,"soilmap_view_url":null,"soiltest_xml_url":0,"soiltest_view_url":0},{"id":141214,"code":"B4KJ201801002-9463","latitude":"38.45344","longitude":"141.26311","source_code":"TH57415241001","project_name":"","survey_name":"\u5e73\u62107\u5e74\u5ea6 \u77e2\u672c\u30fb\u77f3\u5dfb\u9053\u8def\u86c7\u7530\u5730\u533a\u5730\u8cea\u8abf\u67fb","client_name":"\u56fd\u571f\u4ea4\u901a\u7701\u6771\u5317\u5730\u65b9\u6574\u5099\u5c40\u4ed9\u53f0\u6cb3\u5ddd\u56fd\u9053\u4e8b\u52d9\u6240","boring_xml_url":40,"boring_view_url":1,"soilmap_view_url":null,"soiltest_xml_url":0,"soiltest_view_url":0},{"id":141213,"code":"B4KJ201801002-9462","latitude":"38.44797","longitude":"141.32361","source_code":"TH57415236003","project_name":"","survey_name":"\u5e73\u62107\u5e74\u5ea6 \u65e7\u5317\u4e0a\u5ddd\u5824\u9632\u8010\u9707\u5bfe\u7b56\u8abf\u67fb\u8a2d\u8a08\u696d\u52d9","client_name":"\u56fd\u571f\u4ea4\u901a\u7701\u6771\u5317\u5730\u65b9\u6574\u5099\u5c40\u5317\u4e0a\u5ddd\u4e0b\u6d41\u6cb3\u5ddd\u4e8b\u52d9\u6240","boring_xml_url":40,"boring_view_url":1,"soilmap_view_url":null,"soiltest_xml_url":43,"soiltest_view_url":43},{"id":141212,"code":"B4KJ201801002-9461","latitude":"38.44517","longitude":"141.32419","source_code":"TH57415236002","project_name":"","survey_name":"\u5e73\u62107\u5e74\u5ea6 \u65e7\u5317\u4e0a\u5ddd\u5824\u9632\u8010\u9707\u5bfe\u7b56\u8abf\u67fb\u8a2d\u8a08\u696d\u52d9","client_name":"\u56fd\u571f\u4ea4\u901a\u7701\u6771\u5317\u5730\u65b9\u6574\u5099\u5c40\u5317\u4e0a\u5ddd\u4e0b\u6d41\u6cb3\u5ddd\u4e8b\u52d9\u6240","boring_xml_url":40,"boring_view_url":1,"soilmap_view_url":null,"soiltest_xml_url":43,"soiltest_view_url":43},{"id":141211,"code":"B4KJ201801002-9460","latitude":"38.44511","longitude":"141.32414","source_code":"TH57415236001","project_name":"","survey_name":"\u5e73\u62107\u5e74\u5ea6 \u65e7\u5317\u4e0a\u5ddd\u5824\u9632\u8010\u9707\u5bfe\u7b56\u8abf\u67fb\u8a2d\u8a08\u696d\u52d9","client_name":"\u56fd\u571f\u4ea4\u901a\u7701\u6771\u5317\u5730\u65b9\u6574\u5099\u5c40\u5317\u4e0a\u5ddd\u4e0b\u6d41\u6cb3\u5ddd\u4e8b\u52d9\u6240","boring_xml_url":40,"boring_view_url":1,"soilmap_view_url":null,"soiltest_xml_url":43,"soiltest_view_url":43},{"id":141210,"code":"B4KJ201801002-9459","latitude":"38.44814","longitude":"141.31625","source_code":"TH57415235009","project_name":"","survey_name":"\u5e73\u62107\u5e74\u5ea6 \u65e7\u5317\u4e0a\u5ddd\u5824\u9632\u8010\u9707\u5bfe\u7b56\u8abf\u67fb\u8a2d\u8a08\u696d\u52d9","client_name":"\u56fd\u571f\u4ea4\u901a\u7701\u6771\u5317\u5730\u65b9\u6574\u5099\u5c40\u5317\u4e0a\u5ddd\u4e0b\u6d41\u6cb3\u5ddd\u4e8b\u52d9\u6240","boring_xml_url":40,"boring_view_url":1,"soilmap_view_url":null,"soiltest_xml_url":43,"soiltest_view_url":43},{"id":141209,"code":"B4KJ201801002-9458","latitude":"38.44797","longitude":"141.31847","source_code":"TH57415235008","project_name":"","survey_name":"\u5e73\u62107\u5e74\u5ea6 \u65e7\u5317\u4e0a\u5ddd\u5824\u9632\u8010\u9707\u5bfe\u7b56\u8abf\u67fb\u8a2d\u8a08\u696d\u52d9","client_name":"\u56fd\u571f\u4ea4\u901a\u7701\u6771\u5317\u5730\u65b9\u6574\u5099\u5c40\u5317\u4e0a\u5ddd\u4e0b\u6d41\u6cb3\u5ddd\u4e8b\u52d9\u6240","boring_xml_url":40,"boring_view_url":1,"soilmap_view_url":null,"soiltest_xml_url":43,"soiltest_view_url":43},{"id":141208,"code":"B4KJ201801002-9457","latitude":"38.44833","longitude":"141.32086","source_code":"TH57415235007","project_name":"","survey_name":"\u5e73\u62107\u5e74\u5ea6 \u65e7\u5317\u4e0a\u5ddd\u5824\u9632\u8010\u9707\u5bfe\u7b56\u8abf\u67fb\u8a2d\u8a08\u696d\u52d9","client_name":"\u56fd\u571f\u4ea4\u901a\u7701\u6771\u5317\u5730\u65b9\u6574\u5099\u5c40\u5317\u4e0a\u5ddd\u4e0b\u6d41\u6cb3\u5ddd\u4e8b\u52d9\u6240","boring_xml_url":40,"boring_view_url":1,"soilmap_view_url":null,"soiltest_xml_url":43,"soiltest_view_url":43},{"id":141207,"code":"B4KJ201801002-9456","latitude":"38.44458","longitude":"141.31389","source_code":"TH57415235006","project_name":"","survey_name":"\u5e73\u62107\u5e74\u5ea6 \u65e7\u5317\u4e0a\u5ddd\u5824\u9632\u8010\u9707\u5bfe\u7b56\u8abf\u67fb\u8a2d\u8a08\u696d\u52d9","client_name":"\u56fd\u571f\u4ea4\u901a\u7701\u6771\u5317\u5730\u65b9\u6574\u5099\u5c40\u5317\u4e0a\u5ddd\u4e0b\u6d41\u6cb3\u5ddd\u4e8b\u52d9\u6240","boring_xml_url":40,"boring_view_url":1,"soilmap_view_url":null,"soiltest_xml_url":43,"soiltest_view_url":43},{"id":141206,"code":"B4KJ201801002-9455","latitude":"38.44544","longitude":"141.31656","source_code":"TH57415235005","project_name":"","survey_name":"\u5e73\u62107\u5e74\u5ea6 \u65e7\u5317\u4e0a\u5ddd\u5824\u9632\u8010\u9707\u5bfe\u7b56\u8abf\u67fb\u8a2d\u8a08\u696d\u52d9","client_name":"\u56fd\u571f\u4ea4\u901a\u7701\u6771\u5317\u5730\u65b9\u6574\u5099\u5c40\u5317\u4e0a\u5ddd\u4e0b\u6d41\u6cb3\u5ddd\u4e8b\u52d9\u6240","boring_xml_url":40,"boring_view_url":1,"soilmap_view_url":null,"soiltest_xml_url":43,"soiltest_view_url":43}]}}