{"header":{"xyz":{"source":[],"mosaic":false},"page":5984,"raw":{"soiltest_result":"0","bbox":"57.598333,109.544722,1.933333,163.806111","page":"5984"},"conditions":{"soiltest_result":0,"north":57.598333,"west":109.544722,"south":1.933333,"east":163.806111},"success":true,"message":""},"data":{"meta":{"total":212844,"page":5984,"pages":7095,"count":30},"values":[{"id":141055,"code":"B4KJ201801002-9304","latitude":"38.44394","longitude":"141.05128","source_code":"TH57415024008","project_name":"","survey_name":"\u5fd7\u7530\u8c37\u5730\u5730\u533a\u5730\u8cea\u8abf\u67fb","client_name":"\u56fd\u571f\u4ea4\u901a\u7701\u6771\u5317\u5730\u65b9\u6574\u5099\u5c40\u5317\u4e0a\u5ddd\u4e0b\u6d41\u6cb3\u5ddd\u4e8b\u52d9\u6240","boring_xml_url":40,"boring_view_url":1,"soilmap_view_url":null,"soiltest_xml_url":43,"soiltest_view_url":43},{"id":141054,"code":"B4KJ201801002-9303","latitude":"38.44406","longitude":"141.05128","source_code":"TH57415024007","project_name":"","survey_name":"\u5fd7\u7530\u8c37\u5730\u5730\u533a\u5730\u8cea\u8abf\u67fb","client_name":"\u56fd\u571f\u4ea4\u901a\u7701\u6771\u5317\u5730\u65b9\u6574\u5099\u5c40\u5317\u4e0a\u5ddd\u4e0b\u6d41\u6cb3\u5ddd\u4e8b\u52d9\u6240","boring_xml_url":40,"boring_view_url":1,"soilmap_view_url":null,"soiltest_xml_url":0,"soiltest_view_url":0},{"id":141053,"code":"B4KJ201801002-9302","latitude":"38.4435","longitude":"141.05897","source_code":"TH57415024006","project_name":"","survey_name":"\u5409\u7530\u5ddd\u7b4b\u5730\u76e4\u691c\u8a0e\u8abf\u67fb","client_name":"\u56fd\u571f\u4ea4\u901a\u7701\u6771\u5317\u5730\u65b9\u6574\u5099\u5c40\u5317\u4e0a\u5ddd\u4e0b\u6d41\u6cb3\u5ddd\u4e8b\u52d9\u6240","boring_xml_url":40,"boring_view_url":1,"soilmap_view_url":null,"soiltest_xml_url":0,"soiltest_view_url":0},{"id":141052,"code":"B4KJ201801002-9301","latitude":"38.4435","longitude":"141.05461","source_code":"TH57415024005","project_name":"","survey_name":"\u662d\u548c61\u5e74\u5ea6\u5409\u7530\u5ddd\u5730\u533a\u5730\u76e4\u8abf\u67fb","client_name":"\u56fd\u571f\u4ea4\u901a\u7701\u6771\u5317\u5730\u65b9\u6574\u5099\u5c40\u5317\u4e0a\u5ddd\u4e0b\u6d41\u6cb3\u5ddd\u4e8b\u52d9\u6240","boring_xml_url":40,"boring_view_url":1,"soilmap_view_url":null,"soiltest_xml_url":0,"soiltest_view_url":0},{"id":141051,"code":"B4KJ201801002-9300","latitude":"38.44328","longitude":"141.05447","source_code":"TH57415024004","project_name":"","survey_name":"\u662d\u548c61\u5e74\u5ea6\u5409\u7530\u5ddd\u5730\u533a\u5730\u76e4\u8abf\u67fb","client_name":"\u56fd\u571f\u4ea4\u901a\u7701\u6771\u5317\u5730\u65b9\u6574\u5099\u5c40\u5317\u4e0a\u5ddd\u4e0b\u6d41\u6cb3\u5ddd\u4e8b\u52d9\u6240","boring_xml_url":40,"boring_view_url":1,"soilmap_view_url":null,"soiltest_xml_url":0,"soiltest_view_url":0},{"id":141050,"code":"B4KJ201801002-9299","latitude":"38.44192","longitude":"141.05633","source_code":"TH57415024003","project_name":"","survey_name":"\u5409\u7530\u5ddd\u4e2d\u6d41\u5824\u9632\u571f\u8cea\u8abf\u67fb","client_name":"\u56fd\u571f\u4ea4\u901a\u7701\u6771\u5317\u5730\u65b9\u6574\u5099\u5c40\u5317\u4e0a\u5ddd\u4e0b\u6d41\u6cb3\u5ddd\u4e8b\u52d9\u6240","boring_xml_url":40,"boring_view_url":1,"soilmap_view_url":null,"soiltest_xml_url":0,"soiltest_view_url":0},{"id":141049,"code":"B4KJ201801002-9298","latitude":"38.44372","longitude":"141.04689","source_code":"TH57415024002","project_name":"","survey_name":"\u5409\u7530\u5ddd\u4e2d\u6d41\u5824\u9632\u571f\u8cea\u8abf\u67fb","client_name":"\u56fd\u571f\u4ea4\u901a\u7701\u6771\u5317\u5730\u65b9\u6574\u5099\u5c40\u5317\u4e0a\u5ddd\u4e0b\u6d41\u6cb3\u5ddd\u4e8b\u52d9\u6240","boring_xml_url":40,"boring_view_url":1,"soilmap_view_url":null,"soiltest_xml_url":0,"soiltest_view_url":0},{"id":141048,"code":"B4KJ201801002-9297","latitude":"38.4435","longitude":"141.05169","source_code":"TH57415024001","project_name":"","survey_name":"\u5409\u7530\u5ddd\u7b4b\u5824\u9632\u5730\u76e4\u8abf\u67fb","client_name":"\u56fd\u571f\u4ea4\u901a\u7701\u6771\u5317\u5730\u65b9\u6574\u5099\u5c40\u5317\u4e0a\u5ddd\u4e0b\u6d41\u6cb3\u5ddd\u4e8b\u52d9\u6240","boring_xml_url":40,"boring_view_url":1,"soilmap_view_url":null,"soiltest_xml_url":0,"soiltest_view_url":0},{"id":141047,"code":"B4KJ201801002-9296","latitude":"38.44297","longitude":"141.04008","source_code":"TH57415023007","project_name":"","survey_name":"\u662d\u548c54\u5e74\u5ea6\u5ddd\u5357\u63da\u6c34\u6a5f\u5834\u5730\u76e4\u8abf\u67fb","client_name":"\u56fd\u571f\u4ea4\u901a\u7701\u6771\u5317\u5730\u65b9\u6574\u5099\u5c40\u5317\u4e0a\u5ddd\u4e0b\u6d41\u6cb3\u5ddd\u4e8b\u52d9\u6240","boring_xml_url":40,"boring_view_url":1,"soilmap_view_url":null,"soiltest_xml_url":0,"soiltest_view_url":0},{"id":141046,"code":"B4KJ201801002-9295","latitude":"38.44297","longitude":"141.04008","source_code":"TH57415023006","project_name":"","survey_name":"\u662d\u548c54\u5e74\u5ea6\u5ddd\u5357\u63da\u6c34\u6a5f\u5834\u5730\u76e4\u8abf\u67fb","client_name":"\u56fd\u571f\u4ea4\u901a\u7701\u6771\u5317\u5730\u65b9\u6574\u5099\u5c40\u5317\u4e0a\u5ddd\u4e0b\u6d41\u6cb3\u5ddd\u4e8b\u52d9\u6240","boring_xml_url":40,"boring_view_url":1,"soilmap_view_url":null,"soiltest_xml_url":0,"soiltest_view_url":0},{"id":141045,"code":"B4KJ201801002-9294","latitude":"38.44297","longitude":"141.04075","source_code":"TH57415023005","project_name":"","survey_name":"\u5409\u7530\u5ddd\u5824\u9632\u5730\u76e4\u8abf\u67fb","client_name":"\u56fd\u571f\u4ea4\u901a\u7701\u6771\u5317\u5730\u65b9\u6574\u5099\u5c40\u5317\u4e0a\u5ddd\u4e0b\u6d41\u6cb3\u5ddd\u4e8b\u52d9\u6240","boring_xml_url":40,"boring_view_url":1,"soilmap_view_url":null,"soiltest_xml_url":0,"soiltest_view_url":0},{"id":141044,"code":"B4KJ201801002-9293","latitude":"38.44417","longitude":"141.04125","source_code":"TH57415023004","project_name":"","survey_name":"\u662d\u548c54\u5e74\u5ea6\u9e7f\u5cf6\u53f0\u7b2c1\u63da\u6c34\u6a5f\u5834\u5730\u76e4\u8abf\u67fb","client_name":"\u56fd\u571f\u4ea4\u901a\u7701\u6771\u5317\u5730\u65b9\u6574\u5099\u5c40\u5317\u4e0a\u5ddd\u4e0b\u6d41\u6cb3\u5ddd\u4e8b\u52d9\u6240","boring_xml_url":40,"boring_view_url":1,"soilmap_view_url":null,"soiltest_xml_url":0,"soiltest_view_url":0},{"id":141043,"code":"B4KJ201801002-9292","latitude":"38.44436","longitude":"141.04072","source_code":"TH57415023003","project_name":"","survey_name":"\u662d\u548c54\u5e74\u5ea6\u9e7f\u5cf6\u53f0\u7b2c1\u63da\u6c34\u6a5f\u5834\u5730\u76e4\u8abf\u67fb","client_name":"\u56fd\u571f\u4ea4\u901a\u7701\u6771\u5317\u5730\u65b9\u6574\u5099\u5c40\u5317\u4e0a\u5ddd\u4e0b\u6d41\u6cb3\u5ddd\u4e8b\u52d9\u6240","boring_xml_url":40,"boring_view_url":1,"soilmap_view_url":null,"soiltest_xml_url":0,"soiltest_view_url":0},{"id":141042,"code":"B4KJ201801002-9291","latitude":"38.44458","longitude":"141.04094","source_code":"TH57415023002","project_name":"","survey_name":"\u662d\u548c54\u5e74\u5ea6\u9e7f\u5cf6\u53f0\u7b2c1\u63da\u6c34\u6a5f\u5834\u5730\u76e4\u8abf\u67fb","client_name":"\u56fd\u571f\u4ea4\u901a\u7701\u6771\u5317\u5730\u65b9\u6574\u5099\u5c40\u5317\u4e0a\u5ddd\u4e0b\u6d41\u6cb3\u5ddd\u4e8b\u52d9\u6240","boring_xml_url":40,"boring_view_url":1,"soilmap_view_url":null,"soiltest_xml_url":0,"soiltest_view_url":0},{"id":141041,"code":"B4KJ201801002-9290","latitude":"38.44417","longitude":"141.04131","source_code":"TH57415023001","project_name":"","survey_name":"\u662d\u548c54\u5e74\u5ea6\u9e7f\u5cf6\u53f0\u7b2c1\u63da\u6c34\u6a5f\u5834\u5730\u76e4\u8abf\u67fb","client_name":"\u56fd\u571f\u4ea4\u901a\u7701\u6771\u5317\u5730\u65b9\u6574\u5099\u5c40\u5317\u4e0a\u5ddd\u4e0b\u6d41\u6cb3\u5ddd\u4e8b\u52d9\u6240","boring_xml_url":40,"boring_view_url":1,"soilmap_view_url":null,"soiltest_xml_url":0,"soiltest_view_url":0},{"id":141040,"code":"B4KJ201801002-9289","latitude":"38.44044","longitude":"141.02781","source_code":"TH57415022008","project_name":"","survey_name":"\u5409\u7530\u5ddd\u5c71\u5d0e\u5730\u533a\u571f\u8cea\u8abf\u67fb","client_name":"\u56fd\u571f\u4ea4\u901a\u7701\u6771\u5317\u5730\u65b9\u6574\u5099\u5c40\u5317\u4e0a\u5ddd\u4e0b\u6d41\u6cb3\u5ddd\u4e8b\u52d9\u6240","boring_xml_url":40,"boring_view_url":1,"soilmap_view_url":null,"soiltest_xml_url":0,"soiltest_view_url":0},{"id":141039,"code":"B4KJ201801002-9288","latitude":"38.44044","longitude":"141.02781","source_code":"TH57415022007","project_name":"","survey_name":"\u5409\u7530\u5ddd\u5c71\u5d0e\u5730\u533a\u571f\u8cea\u8abf\u67fb","client_name":"\u56fd\u571f\u4ea4\u901a\u7701\u6771\u5317\u5730\u65b9\u6574\u5099\u5c40\u5317\u4e0a\u5ddd\u4e0b\u6d41\u6cb3\u5ddd\u4e8b\u52d9\u6240","boring_xml_url":40,"boring_view_url":1,"soilmap_view_url":null,"soiltest_xml_url":0,"soiltest_view_url":0},{"id":141038,"code":"B4KJ201801002-9287","latitude":"38.44044","longitude":"141.02781","source_code":"TH57415022006","project_name":"","survey_name":"\u5409\u7530\u5ddd\u5c71\u5d0e\u5730\u533a\u571f\u8cea\u8abf\u67fb","client_name":"\u56fd\u571f\u4ea4\u901a\u7701\u6771\u5317\u5730\u65b9\u6574\u5099\u5c40\u5317\u4e0a\u5ddd\u4e0b\u6d41\u6cb3\u5ddd\u4e8b\u52d9\u6240","boring_xml_url":40,"boring_view_url":1,"soilmap_view_url":null,"soiltest_xml_url":0,"soiltest_view_url":0},{"id":141037,"code":"B4KJ201801002-9286","latitude":"38.44219","longitude":"141.02239","source_code":"TH57415022005","project_name":"","survey_name":"\u5409\u7530\u5ddd\u5824\u9632\u5730\u76e4\u8abf\u67fb","client_name":"\u56fd\u571f\u4ea4\u901a\u7701\u6771\u5317\u5730\u65b9\u6574\u5099\u5c40\u5317\u4e0a\u5ddd\u4e0b\u6d41\u6cb3\u5ddd\u4e8b\u52d9\u6240","boring_xml_url":40,"boring_view_url":1,"soilmap_view_url":null,"soiltest_xml_url":0,"soiltest_view_url":0},{"id":141036,"code":"B4KJ201801002-9285","latitude":"38.44378","longitude":"141.02383","source_code":"TH57415022004","project_name":"","survey_name":"\u5409\u7530\u5ddd\u5824\u9632\u5730\u76e4\u8abf\u67fb","client_name":"\u56fd\u571f\u4ea4\u901a\u7701\u6771\u5317\u5730\u65b9\u6574\u5099\u5c40\u5317\u4e0a\u5ddd\u4e0b\u6d41\u6cb3\u5ddd\u4e8b\u52d9\u6240","boring_xml_url":40,"boring_view_url":1,"soilmap_view_url":null,"soiltest_xml_url":0,"soiltest_view_url":0},{"id":141035,"code":"B4KJ201801002-9284","latitude":"38.44286","longitude":"141.02383","source_code":"TH57415022003","project_name":"","survey_name":"\u5409\u7530\u5ddd\u5824\u9632\u5730\u76e4\u8abf\u67fb","client_name":"\u56fd\u571f\u4ea4\u901a\u7701\u6771\u5317\u5730\u65b9\u6574\u5099\u5c40\u5317\u4e0a\u5ddd\u4e0b\u6d41\u6cb3\u5ddd\u4e8b\u52d9\u6240","boring_xml_url":40,"boring_view_url":1,"soilmap_view_url":null,"soiltest_xml_url":0,"soiltest_view_url":0},{"id":141034,"code":"B4KJ201801002-9283","latitude":"38.44044","longitude":"141.02781","source_code":"TH57415022002","project_name":"","survey_name":"\u5409\u7530\u5ddd\u5824\u9632\u5730\u76e4\u8abf\u67fb","client_name":"\u56fd\u571f\u4ea4\u901a\u7701\u6771\u5317\u5730\u65b9\u6574\u5099\u5c40\u5317\u4e0a\u5ddd\u4e0b\u6d41\u6cb3\u5ddd\u4e8b\u52d9\u6240","boring_xml_url":40,"boring_view_url":1,"soilmap_view_url":null,"soiltest_xml_url":0,"soiltest_view_url":0},{"id":141033,"code":"B4KJ201801002-9282","latitude":"38.44261","longitude":"141.02214","source_code":"TH57415022001","project_name":"","survey_name":"\u5409\u7530\u5ddd\u5824\u9632\u571f\u8cea\u8abf\u67fb","client_name":"\u56fd\u571f\u4ea4\u901a\u7701\u6771\u5317\u5730\u65b9\u6574\u5099\u5c40\u5317\u4e0a\u5ddd\u4e0b\u6d41\u6cb3\u5ddd\u4e8b\u52d9\u6240","boring_xml_url":40,"boring_view_url":1,"soilmap_view_url":null,"soiltest_xml_url":43,"soiltest_view_url":43},{"id":141032,"code":"B4KJ201801002-9281","latitude":"38.441","longitude":"141.01156","source_code":"TH57415021007","project_name":"","survey_name":"\u662d\u548c61\u5e74\u5ea6\u5409\u7530\u5ddd\u5730\u533a\u5730\u76e4\u8abf\u67fb","client_name":"\u56fd\u571f\u4ea4\u901a\u7701\u6771\u5317\u5730\u65b9\u6574\u5099\u5c40\u5317\u4e0a\u5ddd\u4e0b\u6d41\u6cb3\u5ddd\u4e8b\u52d9\u6240","boring_xml_url":40,"boring_view_url":1,"soilmap_view_url":null,"soiltest_xml_url":0,"soiltest_view_url":0},{"id":141031,"code":"B4KJ201801002-9280","latitude":"38.43953","longitude":"141.01914","source_code":"TH57415021006","project_name":"","survey_name":"\u5409\u7530\u5ddd\u4e2d\u6d41\u5824\u9632\u571f\u8cea\u8abf\u67fb","client_name":"\u56fd\u571f\u4ea4\u901a\u7701\u6771\u5317\u5730\u65b9\u6574\u5099\u5c40\u5317\u4e0a\u5ddd\u4e0b\u6d41\u6cb3\u5ddd\u4e8b\u52d9\u6240","boring_xml_url":40,"boring_view_url":1,"soilmap_view_url":null,"soiltest_xml_url":0,"soiltest_view_url":0},{"id":141030,"code":"B4KJ201801002-9279","latitude":"38.44378","longitude":"141.02125","source_code":"TH57415021005","project_name":"","survey_name":"\u5409\u7530\u5ddd\u5824\u9632\u5730\u76e4\u8abf\u67fb","client_name":"\u56fd\u571f\u4ea4\u901a\u7701\u6771\u5317\u5730\u65b9\u6574\u5099\u5c40\u5317\u4e0a\u5ddd\u4e0b\u6d41\u6cb3\u5ddd\u4e8b\u52d9\u6240","boring_xml_url":40,"boring_view_url":1,"soilmap_view_url":null,"soiltest_xml_url":0,"soiltest_view_url":0},{"id":141029,"code":"B4KJ201801002-9278","latitude":"38.43972","longitude":"141.01486","source_code":"TH57415021004","project_name":"","survey_name":"\u5409\u7530\u5ddd\u5824\u9632\u5730\u76e4\u8abf\u67fb","client_name":"\u56fd\u571f\u4ea4\u901a\u7701\u6771\u5317\u5730\u65b9\u6574\u5099\u5c40\u5317\u4e0a\u5ddd\u4e0b\u6d41\u6cb3\u5ddd\u4e8b\u52d9\u6240","boring_xml_url":40,"boring_view_url":1,"soilmap_view_url":null,"soiltest_xml_url":0,"soiltest_view_url":0},{"id":141028,"code":"B4KJ201801002-9277","latitude":"38.44431","longitude":"141.02097","source_code":"TH57415021003","project_name":"","survey_name":"\u5409\u7530\u5ddd\u5824\u9632\u571f\u8cea\u8abf\u67fb","client_name":"\u56fd\u571f\u4ea4\u901a\u7701\u6771\u5317\u5730\u65b9\u6574\u5099\u5c40\u5317\u4e0a\u5ddd\u4e0b\u6d41\u6cb3\u5ddd\u4e8b\u52d9\u6240","boring_xml_url":40,"boring_view_url":1,"soilmap_view_url":null,"soiltest_xml_url":43,"soiltest_view_url":43},{"id":141027,"code":"B4KJ201801002-9276","latitude":"38.44442","longitude":"141.02069","source_code":"TH57415021002","project_name":"","survey_name":"\u5409\u7530\u5ddd\u5824\u9632\u571f\u8cea\u8abf\u67fb","client_name":"\u56fd\u571f\u4ea4\u901a\u7701\u6771\u5317\u5730\u65b9\u6574\u5099\u5c40\u5317\u4e0a\u5ddd\u4e0b\u6d41\u6cb3\u5ddd\u4e8b\u52d9\u6240","boring_xml_url":40,"boring_view_url":1,"soilmap_view_url":null,"soiltest_xml_url":0,"soiltest_view_url":0},{"id":141026,"code":"B4KJ201801002-9275","latitude":"38.44206","longitude":"141.02028","source_code":"TH57415021001","project_name":"","survey_name":"\u662d\u548c57\u5e74\u5ea6\u7b4b\u5730\u8cea\u8abf\u67fb","client_name":"\u56fd\u571f\u4ea4\u901a\u7701\u6771\u5317\u5730\u65b9\u6574\u5099\u5c40\u5317\u4e0a\u5ddd\u4e0b\u6d41\u6cb3\u5ddd\u4e8b\u52d9\u6240","boring_xml_url":40,"boring_view_url":1,"soilmap_view_url":null,"soiltest_xml_url":0,"soiltest_view_url":0}]}}