{"header":{"xyz":{"source":[],"mosaic":false},"page":600,"raw":{"soiltest_result":"0","bbox":"57.598333,109.544722,1.933333,163.806111","page":"600"},"conditions":{"soiltest_result":0,"north":57.598333,"west":109.544722,"south":1.933333,"east":163.806111},"success":true,"message":""},"data":{"meta":{"total":212844,"page":600,"pages":7095,"count":30},"values":[{"id":527418,"code":"B4KJ202201002-9954","latitude":"33.539863","longitude":"133.588024","source_code":"148862622000120007","project_name":"","survey_name":"\u5e73\u621026\u5e74\u5ea6\u3000\u4e94\u53f0\u5c71\u5730\u533a\u5730\u8cea\u8abf\u67fb\u696d\u52d9","client_name":"\u56db\u56fd\u5730\u65b9\u6574\u5099\u5c40\u3000\u571f\u4f50\u56fd\u9053\u4e8b\u52d9\u6240","boring_xml_url":64,"boring_view_url":1,"soilmap_view_url":null,"soiltest_xml_url":0,"soiltest_view_url":0},{"id":527417,"code":"B4KJ202201002-9953","latitude":"33.539982","longitude":"133.587716","source_code":"148862622000120006","project_name":"","survey_name":"\u5e73\u621026\u5e74\u5ea6\u3000\u4e94\u53f0\u5c71\u5730\u533a\u5730\u8cea\u8abf\u67fb\u696d\u52d9","client_name":"\u56db\u56fd\u5730\u65b9\u6574\u5099\u5c40\u3000\u571f\u4f50\u56fd\u9053\u4e8b\u52d9\u6240","boring_xml_url":64,"boring_view_url":1,"soilmap_view_url":null,"soiltest_xml_url":0,"soiltest_view_url":0},{"id":527416,"code":"B4KJ202201002-9952","latitude":"33.540113","longitude":"133.586949","source_code":"148862622000120005","project_name":"","survey_name":"\u5e73\u621026\u5e74\u5ea6\u3000\u4e94\u53f0\u5c71\u5730\u533a\u5730\u8cea\u8abf\u67fb\u696d\u52d9","client_name":"\u56db\u56fd\u5730\u65b9\u6574\u5099\u5c40\u3000\u571f\u4f50\u56fd\u9053\u4e8b\u52d9\u6240","boring_xml_url":64,"boring_view_url":1,"soilmap_view_url":null,"soiltest_xml_url":0,"soiltest_view_url":0},{"id":527415,"code":"B4KJ202201002-9951","latitude":"33.542557","longitude":"133.58293","source_code":"148862622000120004","project_name":"","survey_name":"\u5e73\u621026\u5e74\u5ea6\u3000\u4e94\u53f0\u5c71\u5730\u533a\u5730\u8cea\u8abf\u67fb\u696d\u52d9","client_name":"\u56db\u56fd\u5730\u65b9\u6574\u5099\u5c40\u3000\u571f\u4f50\u56fd\u9053\u4e8b\u52d9\u6240","boring_xml_url":64,"boring_view_url":1,"soilmap_view_url":null,"soiltest_xml_url":0,"soiltest_view_url":0},{"id":527414,"code":"B4KJ202201002-9950","latitude":"33.542987","longitude":"133.582549","source_code":"148862622000120003","project_name":"","survey_name":"\u5e73\u621026\u5e74\u5ea6\u3000\u4e94\u53f0\u5c71\u5730\u533a\u5730\u8cea\u8abf\u67fb\u696d\u52d9","client_name":"\u56db\u56fd\u5730\u65b9\u6574\u5099\u5c40\u3000\u571f\u4f50\u56fd\u9053\u4e8b\u52d9\u6240","boring_xml_url":64,"boring_view_url":1,"soilmap_view_url":null,"soiltest_xml_url":0,"soiltest_view_url":0},{"id":527413,"code":"B4KJ202201002-9949","latitude":"33.543654","longitude":"133.582005","source_code":"148862622000120002","project_name":"","survey_name":"\u5e73\u621026\u5e74\u5ea6\u3000\u4e94\u53f0\u5c71\u5730\u533a\u5730\u8cea\u8abf\u67fb\u696d\u52d9","client_name":"\u56db\u56fd\u5730\u65b9\u6574\u5099\u5c40\u3000\u571f\u4f50\u56fd\u9053\u4e8b\u52d9\u6240","boring_xml_url":64,"boring_view_url":1,"soilmap_view_url":null,"soiltest_xml_url":0,"soiltest_view_url":0},{"id":527412,"code":"B4KJ202201002-9948","latitude":"33.54417","longitude":"133.581588","source_code":"148862622000120001","project_name":"","survey_name":"\u5e73\u621026\u5e74\u5ea6\u3000\u4e94\u53f0\u5c71\u5730\u533a\u5730\u8cea\u8abf\u67fb\u696d\u52d9","client_name":"\u56db\u56fd\u5730\u65b9\u6574\u5099\u5c40\u3000\u571f\u4f50\u56fd\u9053\u4e8b\u52d9\u6240","boring_xml_url":64,"boring_view_url":1,"soilmap_view_url":null,"soiltest_xml_url":0,"soiltest_view_url":0},{"id":527411,"code":"B4KJ202201002-9947","latitude":"33.544345","longitude":"133.581447","source_code":"148862512000160003","project_name":"","survey_name":"\u5e73\u621026\u5e74\u5ea6\u3000\u4e94\u53f0\u5c71\u5730\u533a\u5730\u8cea\u8abf\u67fb\u696d\u52d9","client_name":"\u56db\u56fd\u5730\u65b9\u6574\u5099\u5c40\u3000\u571f\u4f50\u56fd\u9053\u4e8b\u52d9\u6240","boring_xml_url":64,"boring_view_url":1,"soilmap_view_url":null,"soiltest_xml_url":0,"soiltest_view_url":0},{"id":527410,"code":"B4KJ202201002-9946","latitude":"33.544743","longitude":"133.581305","source_code":"148862512000160002","project_name":"","survey_name":"\u5e73\u621026\u5e74\u5ea6\u3000\u4e94\u53f0\u5c71\u5730\u533a\u5730\u8cea\u8abf\u67fb\u696d\u52d9","client_name":"\u56db\u56fd\u5730\u65b9\u6574\u5099\u5c40\u3000\u571f\u4f50\u56fd\u9053\u4e8b\u52d9\u6240","boring_xml_url":64,"boring_view_url":1,"soilmap_view_url":null,"soiltest_xml_url":0,"soiltest_view_url":0},{"id":527409,"code":"B4KJ202201002-9945","latitude":"33.544743","longitude":"133.581127","source_code":"148862512000160001","project_name":"","survey_name":"\u5e73\u621026\u5e74\u5ea6\u3000\u4e94\u53f0\u5c71\u5730\u533a\u5730\u8cea\u8abf\u67fb\u696d\u52d9","client_name":"\u56db\u56fd\u5730\u65b9\u6574\u5099\u5c40\u3000\u571f\u4f50\u56fd\u9053\u4e8b\u52d9\u6240","boring_xml_url":64,"boring_view_url":1,"soilmap_view_url":null,"soiltest_xml_url":0,"soiltest_view_url":0},{"id":527408,"code":"B4KJ202201002-9944","latitude":"33.545106","longitude":"133.580935","source_code":"148862452000190009","project_name":"","survey_name":"\u5e73\u621026\u5e74\u5ea6\u3000\u4e94\u53f0\u5c71\u5730\u533a\u5730\u8cea\u8abf\u67fb\u696d\u52d9","client_name":"\u56db\u56fd\u5730\u65b9\u6574\u5099\u5c40\u3000\u571f\u4f50\u56fd\u9053\u4e8b\u52d9\u6240","boring_xml_url":64,"boring_view_url":1,"soilmap_view_url":null,"soiltest_xml_url":0,"soiltest_view_url":0},{"id":527407,"code":"B4KJ202201002-9943","latitude":"33.787472","longitude":"133.727889","source_code":"148862452000190008","project_name":"\u5e73\u621026\u5e74\u5ea6\u3000\u5357\u56fd\u30fb\u5948\u534a\u5229\u7ba1\u5185\u9632\u707d\u6e2c\u91cf\u8a2d\u8a08\u696d\u52d9","survey_name":"\u5e73\u621026\u5e74\u5ea6\u3000\u5357\u56fd\u30fb\u5948\u534a\u5229\u7ba1\u5185\u9632\u707d\u6e2c\u91cf\u8a2d\u8a08\u696d\u52d9","client_name":"\u56fd\u571f\u4ea4\u901a\u7701\u56db\u56fd\u5730\u65b9\u6574\u5099\u5c40\u571f\u4f50\u56fd\u9053\u4e8b\u52d9\u6240","boring_xml_url":64,"boring_view_url":1,"soilmap_view_url":null,"soiltest_xml_url":0,"soiltest_view_url":0},{"id":527406,"code":"B4KJ202201002-9942","latitude":"33.787278","longitude":"133.727556","source_code":"148862452000190007","project_name":"\u5e73\u621026\u5e74\u5ea6\u3000\u5357\u56fd\u30fb\u5948\u534a\u5229\u7ba1\u5185\u9632\u707d\u6e2c\u91cf\u8a2d\u8a08\u696d\u52d9","survey_name":"\u5e73\u621026\u5e74\u5ea6\u3000\u5357\u56fd\u30fb\u5948\u534a\u5229\u7ba1\u5185\u9632\u707d\u6e2c\u91cf\u8a2d\u8a08\u696d\u52d9","client_name":"\u56fd\u571f\u4ea4\u901a\u7701\u56db\u56fd\u5730\u65b9\u6574\u5099\u5c40\u571f\u4f50\u56fd\u9053\u4e8b\u52d9\u6240","boring_xml_url":64,"boring_view_url":1,"soilmap_view_url":null,"soiltest_xml_url":0,"soiltest_view_url":0},{"id":527405,"code":"B4KJ202201002-9941","latitude":"33.787361","longitude":"133.727722","source_code":"148862452000190006","project_name":"\u5e73\u621026\u5e74\u5ea6\u3000\u5357\u56fd\u30fb\u5948\u534a\u5229\u7ba1\u5185\u9632\u707d\u6e2c\u91cf\u8a2d\u8a08\u696d\u52d9","survey_name":"\u5e73\u621026\u5e74\u5ea6\u3000\u5357\u56fd\u30fb\u5948\u534a\u5229\u7ba1\u5185\u9632\u707d\u6e2c\u91cf\u8a2d\u8a08\u696d\u52d9","client_name":"\u56fd\u571f\u4ea4\u901a\u7701\u56db\u56fd\u5730\u65b9\u6574\u5099\u5c40\u571f\u4f50\u56fd\u9053\u4e8b\u52d9\u6240","boring_xml_url":64,"boring_view_url":1,"soilmap_view_url":null,"soiltest_xml_url":0,"soiltest_view_url":0},{"id":527404,"code":"B4KJ202201002-9940","latitude":"33.504417","longitude":"132.9274","source_code":"148862452000190005","project_name":"","survey_name":"\u5e73\u621026\u5e74\u5ea6\u3000\u56fd\u905333\u53f7\u7ba1\u5185\u5730\u8cea\u8abf\u67fb\u696d\u52d9","client_name":"\u56fd\u571f\u4ea4\u901a\u7701\u56db\u56fd\u5730\u65b9\u6574\u5099\u5c40\u571f\u4f50\u56fd\u9053\u4e8b\u52d9\u6240","boring_xml_url":64,"boring_view_url":1,"soilmap_view_url":null,"soiltest_xml_url":0,"soiltest_view_url":0},{"id":527403,"code":"B4KJ202201002-9939","latitude":"33.504833","longitude":"132.927333","source_code":"148862452000190004","project_name":"","survey_name":"\u5e73\u621026\u5e74\u5ea6\u3000\u56fd\u905333\u53f7\u7ba1\u5185\u5730\u8cea\u8abf\u67fb\u696d\u52d9","client_name":"\u56fd\u571f\u4ea4\u901a\u7701\u56db\u56fd\u5730\u65b9\u6574\u5099\u5c40\u571f\u4f50\u56fd\u9053\u4e8b\u52d9\u6240","boring_xml_url":64,"boring_view_url":1,"soilmap_view_url":null,"soiltest_xml_url":0,"soiltest_view_url":0},{"id":527402,"code":"B4KJ202201002-9938","latitude":"33.54375","longitude":"133.049767","source_code":"148862452000190003","project_name":"","survey_name":"\u5e73\u621026\u5e74\u5ea6\u3000\u56fd\u905333\u53f7\u7ba1\u5185\u5730\u8cea\u8abf\u67fb\u696d\u52d9","client_name":"\u56fd\u571f\u4ea4\u901a\u7701\u56db\u56fd\u5730\u65b9\u6574\u5099\u5c40\u571f\u4f50\u56fd\u9053\u4e8b\u52d9\u6240","boring_xml_url":64,"boring_view_url":1,"soilmap_view_url":null,"soiltest_xml_url":0,"soiltest_view_url":0},{"id":527401,"code":"B4KJ202201002-9937","latitude":"33.544733","longitude":"133.049633","source_code":"148862452000190002","project_name":"","survey_name":"\u5e73\u621026\u5e74\u5ea6\u3000\u56fd\u905333\u53f7\u7ba1\u5185\u5730\u8cea\u8abf\u67fb\u696d\u52d9","client_name":"\u56fd\u571f\u4ea4\u901a\u7701\u56db\u56fd\u5730\u65b9\u6574\u5099\u5c40\u571f\u4f50\u56fd\u9053\u4e8b\u52d9\u6240","boring_xml_url":64,"boring_view_url":1,"soilmap_view_url":null,"soiltest_xml_url":0,"soiltest_view_url":0},{"id":527400,"code":"B4KJ202201002-9936","latitude":"33.539667","longitude":"133.0425","source_code":"148862452000190001","project_name":"","survey_name":"\u5e73\u621026\u5e74\u5ea6\u3000\u56fd\u905333\u53f7\u7ba1\u5185\u5730\u8cea\u8abf\u67fb\u696d\u52d9","client_name":"\u56fd\u571f\u4ea4\u901a\u7701\u56db\u56fd\u5730\u65b9\u6574\u5099\u5c40\u571f\u4f50\u56fd\u9053\u4e8b\u52d9\u6240","boring_xml_url":64,"boring_view_url":1,"soilmap_view_url":null,"soiltest_xml_url":0,"soiltest_view_url":0},{"id":527399,"code":"B4KJ202201002-9935","latitude":"33.544871","longitude":"133.047769","source_code":"138862622000600009","project_name":"","survey_name":"\u5e73\u621026\u5e74\u5ea6\u3000\u56fd\u905333\u53f7\u7ba1\u5185\u5730\u8cea\u8abf\u67fb\u696d\u52d9","client_name":"\u56fd\u571f\u4ea4\u901a\u7701\u56db\u56fd\u5730\u65b9\u6574\u5099\u5c40\u571f\u4f50\u56fd\u9053\u4e8b\u52d9\u6240","boring_xml_url":64,"boring_view_url":1,"soilmap_view_url":null,"soiltest_xml_url":0,"soiltest_view_url":0},{"id":527398,"code":"B4KJ202201002-9934","latitude":"33.544947","longitude":"133.229297","source_code":"138862622000600008","project_name":"","survey_name":"\u5e73\u621026\u5e74\u5ea6\u3000\u56fd\u905333\u53f7\u7ba1\u5185\u5730\u8cea\u8abf\u67fb\u696d\u52d9","client_name":"\u56fd\u571f\u4ea4\u901a\u7701\u56db\u56fd\u5730\u65b9\u6574\u5099\u5c40\u571f\u4f50\u56fd\u9053\u4e8b\u52d9\u6240","boring_xml_url":64,"boring_view_url":1,"soilmap_view_url":null,"soiltest_xml_url":0,"soiltest_view_url":0},{"id":527397,"code":"B4KJ202201002-9933","latitude":"33.520167","longitude":"133.266217","source_code":"138862622000600007","project_name":"","survey_name":"\u5e73\u621026\u5e74\u5ea6\u3000\u56fd\u905333\u53f7\u7ba1\u5185\u5730\u8cea\u8abf\u67fb\u696d\u52d9","client_name":"\u56fd\u571f\u4ea4\u901a\u7701\u56db\u56fd\u5730\u65b9\u6574\u5099\u5c40\u571f\u4f50\u56fd\u9053\u4e8b\u52d9\u6240","boring_xml_url":64,"boring_view_url":1,"soilmap_view_url":null,"soiltest_xml_url":0,"soiltest_view_url":0},{"id":527396,"code":"B4KJ202201002-9932","latitude":"33.5203","longitude":"133.26375","source_code":"138862622000600006","project_name":"","survey_name":"\u5e73\u621026\u5e74\u5ea6\u3000\u56fd\u905333\u53f7\u7ba1\u5185\u5730\u8cea\u8abf\u67fb\u696d\u52d9","client_name":"\u56fd\u571f\u4ea4\u901a\u7701\u56db\u56fd\u5730\u65b9\u6574\u5099\u5c40\u571f\u4f50\u56fd\u9053\u4e8b\u52d9\u6240","boring_xml_url":64,"boring_view_url":1,"soilmap_view_url":null,"soiltest_xml_url":0,"soiltest_view_url":0},{"id":527395,"code":"B4KJ202201002-9931","latitude":"33.554483","longitude":"133.573772","source_code":"138862622000600005","project_name":"","survey_name":"\u5e73\u621025-26\u5e74\u5ea6\u3000\u7d76\u6d77\u5730\u533a\u5730\u8cea\u8abf\u67fb\u696d\u52d9","client_name":"\u56fd\u571f\u4ea4\u901a\u7701\u56db\u56fd\u5730\u65b9\u6574\u5099\u5c40\u571f\u4f50\u56fd\u9053\u4e8b\u52d9\u6240","boring_xml_url":64,"boring_view_url":1,"soilmap_view_url":null,"soiltest_xml_url":0,"soiltest_view_url":0},{"id":527394,"code":"B4KJ202201002-9930","latitude":"33.554299","longitude":"133.573672","source_code":"138862622000600004","project_name":"","survey_name":"\u5e73\u621025-26\u5e74\u5ea6\u3000\u7d76\u6d77\u5730\u533a\u5730\u8cea\u8abf\u67fb\u696d\u52d9","client_name":"\u56fd\u571f\u4ea4\u901a\u7701\u56db\u56fd\u5730\u65b9\u6574\u5099\u5c40\u571f\u4f50\u56fd\u9053\u4e8b\u52d9\u6240","boring_xml_url":64,"boring_view_url":1,"soilmap_view_url":null,"soiltest_xml_url":0,"soiltest_view_url":0},{"id":527393,"code":"B4KJ202201002-9929","latitude":"33.554483","longitude":"133.573389","source_code":"138862622000600003","project_name":"","survey_name":"\u5e73\u621025-26\u5e74\u5ea6\u3000\u7d76\u6d77\u5730\u533a\u5730\u8cea\u8abf\u67fb\u696d\u52d9","client_name":"\u56fd\u571f\u4ea4\u901a\u7701\u56db\u56fd\u5730\u65b9\u6574\u5099\u5c40\u571f\u4f50\u56fd\u9053\u4e8b\u52d9\u6240","boring_xml_url":64,"boring_view_url":1,"soilmap_view_url":null,"soiltest_xml_url":0,"soiltest_view_url":0},{"id":527392,"code":"B4KJ202201002-9928","latitude":"33.554799","longitude":"133.573355","source_code":"138862622000600002","project_name":"","survey_name":"\u5e73\u621025-26\u5e74\u5ea6\u3000\u7d76\u6d77\u5730\u533a\u5730\u8cea\u8abf\u67fb\u696d\u52d9","client_name":"\u56fd\u571f\u4ea4\u901a\u7701\u56db\u56fd\u5730\u65b9\u6574\u5099\u5c40\u571f\u4f50\u56fd\u9053\u4e8b\u52d9\u6240","boring_xml_url":64,"boring_view_url":1,"soilmap_view_url":null,"soiltest_xml_url":0,"soiltest_view_url":0},{"id":527391,"code":"B4KJ202201002-9927","latitude":"33.555133","longitude":"133.573172","source_code":"138862622000600001","project_name":"","survey_name":"\u5e73\u621025-26\u5e74\u5ea6\u3000\u7d76\u6d77\u5730\u533a\u5730\u8cea\u8abf\u67fb\u696d\u52d9","client_name":"\u56fd\u571f\u4ea4\u901a\u7701\u56db\u56fd\u5730\u65b9\u6574\u5099\u5c40\u571f\u4f50\u56fd\u9053\u4e8b\u52d9\u6240","boring_xml_url":64,"boring_view_url":1,"soilmap_view_url":null,"soiltest_xml_url":0,"soiltest_view_url":0},{"id":527390,"code":"B4KJ202201002-9926","latitude":"33.555399","longitude":"133.573005","source_code":"138862622000590006","project_name":"","survey_name":"\u5e73\u621025-26\u5e74\u5ea6\u3000\u7d76\u6d77\u5730\u533a\u5730\u8cea\u8abf\u67fb\u696d\u52d9","client_name":"\u56fd\u571f\u4ea4\u901a\u7701\u56db\u56fd\u5730\u65b9\u6574\u5099\u5c40\u571f\u4f50\u56fd\u9053\u4e8b\u52d9\u6240","boring_xml_url":64,"boring_view_url":1,"soilmap_view_url":null,"soiltest_xml_url":0,"soiltest_view_url":0},{"id":527389,"code":"B4KJ202201002-9925","latitude":"33.555849","longitude":"133.572822","source_code":"138862622000590005","project_name":"","survey_name":"\u5e73\u621025-26\u5e74\u5ea6\u3000\u7d76\u6d77\u5730\u533a\u5730\u8cea\u8abf\u67fb\u696d\u52d9","client_name":"\u56fd\u571f\u4ea4\u901a\u7701\u56db\u56fd\u5730\u65b9\u6574\u5099\u5c40\u571f\u4f50\u56fd\u9053\u4e8b\u52d9\u6240","boring_xml_url":64,"boring_view_url":1,"soilmap_view_url":null,"soiltest_xml_url":0,"soiltest_view_url":0}]}}