{"header":{"xyz":{"source":[],"mosaic":false},"page":6011,"raw":{"soiltest_result":"0","bbox":"57.598333,109.544722,1.933333,163.806111","page":"6011"},"conditions":{"soiltest_result":0,"north":57.598333,"west":109.544722,"south":1.933333,"east":163.806111},"success":true,"message":""},"data":{"meta":{"total":212844,"page":6011,"pages":7095,"count":30},"values":[{"id":140245,"code":"B4KJ201801002-8494","latitude":"38.40553","longitude":"140.23242","source_code":"TH57404188003","project_name":"","survey_name":"\u662d\u548c62\u5e74\u5ea6\u767d\u5ca9\u30d0\u30a4\u30d1\u30b9\u5730\u76e4\u8abf\u67fb","client_name":"\u56fd\u571f\u4ea4\u901a\u7701\u6771\u5317\u5730\u65b9\u6574\u5099\u5c40\u5c71\u5f62\u6cb3\u5ddd\u56fd\u9053\u4e8b\u52d9\u6240","boring_xml_url":40,"boring_view_url":1,"soilmap_view_url":null,"soiltest_xml_url":0,"soiltest_view_url":0},{"id":140244,"code":"B4KJ201801002-8493","latitude":"38.405","longitude":"140.23308","source_code":"TH57404188002","project_name":"","survey_name":"\u662d\u548c62\u5e74\u5ea6\u767d\u5ca9\u30d0\u30a4\u30d1\u30b9\u5730\u76e4\u8abf\u67fb","client_name":"\u56fd\u571f\u4ea4\u901a\u7701\u6771\u5317\u5730\u65b9\u6574\u5099\u5c40\u5c71\u5f62\u6cb3\u5ddd\u56fd\u9053\u4e8b\u52d9\u6240","boring_xml_url":40,"boring_view_url":1,"soilmap_view_url":null,"soiltest_xml_url":0,"soiltest_view_url":0},{"id":140243,"code":"B4KJ201801002-8492","latitude":"38.40436","longitude":"140.23394","source_code":"TH57404188001","project_name":"","survey_name":"\u662d\u548c62\u5e74\u5ea6\u767d\u5ca9\u30d0\u30a4\u30d1\u30b9\u5730\u76e4\u8abf\u67fb","client_name":"\u56fd\u571f\u4ea4\u901a\u7701\u6771\u5317\u5730\u65b9\u6574\u5099\u5c40\u5c71\u5f62\u6cb3\u5ddd\u56fd\u9053\u4e8b\u52d9\u6240","boring_xml_url":40,"boring_view_url":1,"soilmap_view_url":null,"soiltest_xml_url":0,"soiltest_view_url":0},{"id":140242,"code":"B4KJ201801002-8491","latitude":"38.41122","longitude":"140.21006","source_code":"TH57404187003","project_name":"","survey_name":"\u662d\u548c62\u5e74\u5ea6\u767d\u5ca9\u30d0\u30a4\u30d1\u30b9\u5730\u76e4\u8abf\u67fb","client_name":"\u56fd\u571f\u4ea4\u901a\u7701\u6771\u5317\u5730\u65b9\u6574\u5099\u5c40\u5c71\u5f62\u6cb3\u5ddd\u56fd\u9053\u4e8b\u52d9\u6240","boring_xml_url":40,"boring_view_url":1,"soilmap_view_url":null,"soiltest_xml_url":0,"soiltest_view_url":0},{"id":140241,"code":"B4KJ201801002-8490","latitude":"38.41119","longitude":"140.21383","source_code":"TH57404187002","project_name":"","survey_name":"\u662d\u548c62\u5e74\u5ea6\u767d\u5ca9\u30d0\u30a4\u30d1\u30b9\u5730\u76e4\u8abf\u67fb","client_name":"\u56fd\u571f\u4ea4\u901a\u7701\u6771\u5317\u5730\u65b9\u6574\u5099\u5c40\u5c71\u5f62\u6cb3\u5ddd\u56fd\u9053\u4e8b\u52d9\u6240","boring_xml_url":40,"boring_view_url":1,"soilmap_view_url":null,"soiltest_xml_url":0,"soiltest_view_url":0},{"id":140240,"code":"B4KJ201801002-8489","latitude":"38.40969","longitude":"140.21686","source_code":"TH57404187001","project_name":"","survey_name":"\u662d\u548c62\u5e74\u5ea6\u767d\u5ca9\u30d0\u30a4\u30d1\u30b9\u5730\u76e4\u8abf\u67fb","client_name":"\u56fd\u571f\u4ea4\u901a\u7701\u6771\u5317\u5730\u65b9\u6574\u5099\u5c40\u5c71\u5f62\u6cb3\u5ddd\u56fd\u9053\u4e8b\u52d9\u6240","boring_xml_url":40,"boring_view_url":1,"soilmap_view_url":null,"soiltest_xml_url":0,"soiltest_view_url":0},{"id":140239,"code":"B4KJ201801002-8488","latitude":"38.40286","longitude":"140.24347","source_code":"TH57404179001","project_name":"","survey_name":"\u662d\u548c62\u5e74\u5ea6\u767d\u5ca9\u30d0\u30a4\u30d1\u30b9\u5730\u76e4\u8abf\u67fb","client_name":"\u56fd\u571f\u4ea4\u901a\u7701\u6771\u5317\u5730\u65b9\u6574\u5099\u5c40\u5c71\u5f62\u6cb3\u5ddd\u56fd\u9053\u4e8b\u52d9\u6240","boring_xml_url":40,"boring_view_url":1,"soilmap_view_url":null,"soiltest_xml_url":0,"soiltest_view_url":0},{"id":140238,"code":"B4KJ201801002-8487","latitude":"38.33281","longitude":"140.99367","source_code":"TH57403799002","project_name":"","survey_name":"\u662d\u548c62\u5e74\u5ea6\u4ed9\u5869\u30d0\u30a4\u30d1\u30b9\u5229\u5e9c\u5730\u533a\u5730\u76e4\u8abf\u67fb","client_name":"\u56fd\u571f\u4ea4\u901a\u7701\u6771\u5317\u5730\u65b9\u6574\u5099\u5c40\u4ed9\u53f0\u6cb3\u5ddd\u56fd\u9053\u4e8b\u52d9\u6240","boring_xml_url":40,"boring_view_url":1,"soilmap_view_url":null,"soiltest_xml_url":0,"soiltest_view_url":0},{"id":140237,"code":"B4KJ201801002-8486","latitude":"38.33325","longitude":"140.99625","source_code":"TH57403799001","project_name":"","survey_name":"\u4ed9\u5869\u30d0\u30a4\u30d1\u30b9\u85e4\u7530\u9ad8\u67b6\u6a4b\u5916\u5730\u76e4\u8abf\u67fb","client_name":"\u56fd\u571f\u4ea4\u901a\u7701\u6771\u5317\u5730\u65b9\u6574\u5099\u5c40\u4ed9\u53f0\u6cb3\u5ddd\u56fd\u9053\u4e8b\u52d9\u6240","boring_xml_url":40,"boring_view_url":1,"soilmap_view_url":null,"soiltest_xml_url":0,"soiltest_view_url":0},{"id":140236,"code":"B4KJ201801002-8485","latitude":"38.32864","longitude":"140.96147","source_code":"TH57403797001","project_name":"","survey_name":"\u5e73\u62106\u5e74\u5ea6\u4ed9\u53f0\u5317\u90e8\u9053\u8def\u5229\u5e9c\u5730\u533a\u5730\u8cea\u8abf\u67fb","client_name":"\u56fd\u571f\u4ea4\u901a\u7701\u6771\u5317\u5730\u65b9\u6574\u5099\u5c40\u4ed9\u53f0\u6cb3\u5ddd\u56fd\u9053\u4e8b\u52d9\u6240","boring_xml_url":40,"boring_view_url":1,"soilmap_view_url":null,"soiltest_xml_url":0,"soiltest_view_url":0},{"id":140235,"code":"B4KJ201801002-8484","latitude":"38.33517","longitude":"140.95825","source_code":"TH57403796001","project_name":"","survey_name":"\u5e73\u62106\u5e74\u5ea6\u4ed9\u53f0\u5317\u90e8\u9053\u8def\u6ca2\u4e59\u5730\u533a\u5730\u8cea\u8abf\u67fb","client_name":"\u56fd\u571f\u4ea4\u901a\u7701\u6771\u5317\u5730\u65b9\u6574\u5099\u5c40\u4ed9\u53f0\u6cb3\u5ddd\u56fd\u9053\u4e8b\u52d9\u6240","boring_xml_url":40,"boring_view_url":1,"soilmap_view_url":null,"soiltest_xml_url":0,"soiltest_view_url":0},{"id":140234,"code":"B4KJ201801002-8483","latitude":"38.32144","longitude":"140.98781","source_code":"TH57403789007","project_name":"","survey_name":"\u662d\u548c62\u5e74\u5ea6\u4ed9\u5869\u30d0\u30a4\u30d1\u30b9\u5229\u5e9c\u5730\u533a\u5730\u76e4\u8abf\u67fb","client_name":"\u56fd\u571f\u4ea4\u901a\u7701\u6771\u5317\u5730\u65b9\u6574\u5099\u5c40\u4ed9\u53f0\u6cb3\u5ddd\u56fd\u9053\u4e8b\u52d9\u6240","boring_xml_url":40,"boring_view_url":1,"soilmap_view_url":null,"soiltest_xml_url":0,"soiltest_view_url":0},{"id":140233,"code":"B4KJ201801002-8482","latitude":"38.32172","longitude":"140.98781","source_code":"TH57403789006","project_name":"","survey_name":"\u662d\u548c62\u5e74\u5ea6\u4ed9\u5869\u30d0\u30a4\u30d1\u30b9\u5229\u5e9c\u5730\u533a\u5730\u76e4\u8abf\u67fb","client_name":"\u56fd\u571f\u4ea4\u901a\u7701\u6771\u5317\u5730\u65b9\u6574\u5099\u5c40\u4ed9\u53f0\u6cb3\u5ddd\u56fd\u9053\u4e8b\u52d9\u6240","boring_xml_url":40,"boring_view_url":1,"soilmap_view_url":null,"soiltest_xml_url":0,"soiltest_view_url":0},{"id":140232,"code":"B4KJ201801002-8481","latitude":"38.32019","longitude":"140.98453","source_code":"TH57403789005","project_name":"","survey_name":"\u662d\u548c62\u5e74\u5ea6\u4ed9\u5869\u30d0\u30a4\u30d1\u30b9\u5229\u5e9c\u5730\u533a\u5730\u76e4\u8abf\u67fb","client_name":"\u56fd\u571f\u4ea4\u901a\u7701\u6771\u5317\u5730\u65b9\u6574\u5099\u5c40\u4ed9\u53f0\u6cb3\u5ddd\u56fd\u9053\u4e8b\u52d9\u6240","boring_xml_url":40,"boring_view_url":1,"soilmap_view_url":null,"soiltest_xml_url":0,"soiltest_view_url":0},{"id":140231,"code":"B4KJ201801002-8480","latitude":"38.32303","longitude":"140.9885","source_code":"TH57403789003","project_name":"","survey_name":"\u662d\u548c59\u5e74\u5ea6\u4ed9\u5869\u30d0\u30a4\u30d1\u30b9\u5229\u5e9c\u5730\u533a\u5730\u76e4\u8abf\u67fb","client_name":"\u56fd\u571f\u4ea4\u901a\u7701\u6771\u5317\u5730\u65b9\u6574\u5099\u5c40\u4ed9\u53f0\u6cb3\u5ddd\u56fd\u9053\u4e8b\u52d9\u6240","boring_xml_url":40,"boring_view_url":1,"soilmap_view_url":null,"soiltest_xml_url":0,"soiltest_view_url":0},{"id":140230,"code":"B4KJ201801002-8479","latitude":"38.32217","longitude":"140.98925","source_code":"TH57403789002","project_name":"","survey_name":"\u662d\u548c58\u5e74\u5ea6\u4ed9\u5869\u30d0\u30a4\u30d1\u30b9\u5730\u76e4\u8abf\u67fb","client_name":"\u56fd\u571f\u4ea4\u901a\u7701\u6771\u5317\u5730\u65b9\u6574\u5099\u5c40\u4ed9\u53f0\u6cb3\u5ddd\u56fd\u9053\u4e8b\u52d9\u6240","boring_xml_url":40,"boring_view_url":1,"soilmap_view_url":null,"soiltest_xml_url":0,"soiltest_view_url":0},{"id":140229,"code":"B4KJ201801002-8478","latitude":"38.321","longitude":"140.98742","source_code":"TH57403789001","project_name":"","survey_name":"\u662d\u548c58\u5e74\u5ea6\u4ed9\u5869\u30d0\u30a4\u30d1\u30b9\u5730\u76e4\u8abf\u67fb","client_name":"\u56fd\u571f\u4ea4\u901a\u7701\u6771\u5317\u5730\u65b9\u6574\u5099\u5c40\u4ed9\u53f0\u6cb3\u5ddd\u56fd\u9053\u4e8b\u52d9\u6240","boring_xml_url":40,"boring_view_url":1,"soilmap_view_url":null,"soiltest_xml_url":0,"soiltest_view_url":0},{"id":140228,"code":"B4KJ201801002-8477","latitude":"38.31964","longitude":"140.96322","source_code":"TH57403787008","project_name":"","survey_name":"\u5e73\u62108\u5e74\u5ea6\u4ed9\u53f0\u5317\u90e8\u9053\u8def\u5229\u5e9c\u5730\u533a\u5730\u76e4\u8abf\u67fb","client_name":"\u56fd\u571f\u4ea4\u901a\u7701\u6771\u5317\u5730\u65b9\u6574\u5099\u5c40\u4ed9\u53f0\u6cb3\u5ddd\u56fd\u9053\u4e8b\u52d9\u6240","boring_xml_url":40,"boring_view_url":1,"soilmap_view_url":null,"soiltest_xml_url":0,"soiltest_view_url":0},{"id":140227,"code":"B4KJ201801002-8476","latitude":"38.31964","longitude":"140.96322","source_code":"TH57403787007","project_name":"","survey_name":"\u5e73\u62108\u5e74\u5ea6\u4ed9\u53f0\u5317\u90e8\u9053\u8def\u5229\u5e9c\u5730\u533a\u5730\u76e4\u8abf\u67fb","client_name":"\u56fd\u571f\u4ea4\u901a\u7701\u6771\u5317\u5730\u65b9\u6574\u5099\u5c40\u4ed9\u53f0\u6cb3\u5ddd\u56fd\u9053\u4e8b\u52d9\u6240","boring_xml_url":40,"boring_view_url":1,"soilmap_view_url":null,"soiltest_xml_url":0,"soiltest_view_url":0},{"id":140226,"code":"B4KJ201801002-8475","latitude":"38.31964","longitude":"140.96322","source_code":"TH57403787006","project_name":"","survey_name":"\u5e73\u62108\u5e74\u5ea6\u4ed9\u53f0\u5317\u90e8\u9053\u8def\u5229\u5e9c\u5730\u533a\u5730\u76e4\u8abf\u67fb","client_name":"\u56fd\u571f\u4ea4\u901a\u7701\u6771\u5317\u5730\u65b9\u6574\u5099\u5c40\u4ed9\u53f0\u6cb3\u5ddd\u56fd\u9053\u4e8b\u52d9\u6240","boring_xml_url":40,"boring_view_url":1,"soilmap_view_url":null,"soiltest_xml_url":0,"soiltest_view_url":0},{"id":140225,"code":"B4KJ201801002-8474","latitude":"38.31964","longitude":"140.96322","source_code":"TH57403787005","project_name":"","survey_name":"\u5e73\u62108\u5e74\u5ea6\u4ed9\u53f0\u5317\u90e8\u9053\u8def\u5229\u5e9c\u5730\u533a\u5730\u76e4\u8abf\u67fb","client_name":"\u56fd\u571f\u4ea4\u901a\u7701\u6771\u5317\u5730\u65b9\u6574\u5099\u5c40\u4ed9\u53f0\u6cb3\u5ddd\u56fd\u9053\u4e8b\u52d9\u6240","boring_xml_url":40,"boring_view_url":1,"soilmap_view_url":null,"soiltest_xml_url":0,"soiltest_view_url":0},{"id":140224,"code":"B4KJ201801002-8473","latitude":"38.3272","longitude":"140.9631","source_code":"TH57403787002","project_name":"","survey_name":"\u5e73\u62106\u5e74\u5ea6\u4ed9\u53f0\u5317\u90e8\u9053\u8def\u5229\u5e9c\u5730\u533a\u5730\u8cea\u8abf\u67fb","client_name":"\u56fd\u571f\u4ea4\u901a\u7701\u6771\u5317\u5730\u65b9\u6574\u5099\u5c40\u4ed9\u53f0\u6cb3\u5ddd\u56fd\u9053\u4e8b\u52d9\u6240","boring_xml_url":40,"boring_view_url":1,"soilmap_view_url":null,"soiltest_xml_url":0,"soiltest_view_url":0},{"id":140223,"code":"B4KJ201801002-8472","latitude":"38.32267","longitude":"140.96681","source_code":"TH57403787001","project_name":"","survey_name":"\u5e73\u62106\u5e74\u5ea6\u4ed9\u53f0\u5317\u90e8\u9053\u8def\u5229\u5e9c\u5730\u533a\u5730\u8cea\u8abf\u67fb","client_name":"\u56fd\u571f\u4ea4\u901a\u7701\u6771\u5317\u5730\u65b9\u6574\u5099\u5c40\u4ed9\u53f0\u6cb3\u5ddd\u56fd\u9053\u4e8b\u52d9\u6240","boring_xml_url":40,"boring_view_url":1,"soilmap_view_url":null,"soiltest_xml_url":0,"soiltest_view_url":0},{"id":140222,"code":"B4KJ201801002-8471","latitude":"38.31961","longitude":"140.98481","source_code":"TH57403779001","project_name":"","survey_name":"\u662d\u548c62\u5e74\u5ea6\u4ed9\u5869\u30d0\u30a4\u30d1\u30b9\u5229\u5e9c\u5730\u533a\u5730\u76e4\u8abf\u67fb","client_name":"\u56fd\u571f\u4ea4\u901a\u7701\u6771\u5317\u5730\u65b9\u6574\u5099\u5c40\u4ed9\u53f0\u6cb3\u5ddd\u56fd\u9053\u4e8b\u52d9\u6240","boring_xml_url":40,"boring_view_url":1,"soilmap_view_url":null,"soiltest_xml_url":0,"soiltest_view_url":0},{"id":140221,"code":"B4KJ201801002-8470","latitude":"38.31403","longitude":"140.97867","source_code":"TH57403778020","project_name":"","survey_name":"\u5e73\u62108\u5e74\u5ea6\u4ed9\u53f0\u5317\u90e8\u9053\u8def\u52a0\u702c\u5730\u533a\u5730\u76e4\u8abf\u67fb","client_name":"\u56fd\u571f\u4ea4\u901a\u7701\u6771\u5317\u5730\u65b9\u6574\u5099\u5c40\u4ed9\u53f0\u6cb3\u5ddd\u56fd\u9053\u4e8b\u52d9\u6240","boring_xml_url":40,"boring_view_url":1,"soilmap_view_url":null,"soiltest_xml_url":0,"soiltest_view_url":0},{"id":140220,"code":"B4KJ201801002-8469","latitude":"38.31439","longitude":"140.97792","source_code":"TH57403778019","project_name":"","survey_name":"\u5e73\u62108\u5e74\u5ea6\u4ed9\u53f0\u5317\u90e8\u9053\u8def\u52a0\u702c\u5730\u533a\u5730\u76e4\u8abf\u67fb","client_name":"\u56fd\u571f\u4ea4\u901a\u7701\u6771\u5317\u5730\u65b9\u6574\u5099\u5c40\u4ed9\u53f0\u6cb3\u5ddd\u56fd\u9053\u4e8b\u52d9\u6240","boring_xml_url":40,"boring_view_url":1,"soilmap_view_url":null,"soiltest_xml_url":0,"soiltest_view_url":0},{"id":140219,"code":"B4KJ201801002-8468","latitude":"38.31417","longitude":"140.97597","source_code":"TH57403778015","project_name":"","survey_name":"\u5e73\u62106\u5e74\u5ea6\u4ed9\u53f0\u5317\u90e8\u9053\u8def\u5229\u5e9c\u5730\u533a\u5730\u8cea\u8abf\u67fb","client_name":"\u56fd\u571f\u4ea4\u901a\u7701\u6771\u5317\u5730\u65b9\u6574\u5099\u5c40\u4ed9\u53f0\u6cb3\u5ddd\u56fd\u9053\u4e8b\u52d9\u6240","boring_xml_url":40,"boring_view_url":1,"soilmap_view_url":null,"soiltest_xml_url":0,"soiltest_view_url":0},{"id":140218,"code":"B4KJ201801002-8467","latitude":"38.31803","longitude":"140.98278","source_code":"TH57403778005","project_name":"","survey_name":"\u662d\u548c62\u5e74\u5ea6\u4ed9\u5869\u30d0\u30a4\u30d1\u30b9\u5229\u5e9c\u5730\u533a\u5730\u76e4\u8abf\u67fb","client_name":"\u56fd\u571f\u4ea4\u901a\u7701\u6771\u5317\u5730\u65b9\u6574\u5099\u5c40\u4ed9\u53f0\u6cb3\u5ddd\u56fd\u9053\u4e8b\u52d9\u6240","boring_xml_url":40,"boring_view_url":1,"soilmap_view_url":null,"soiltest_xml_url":0,"soiltest_view_url":0},{"id":140217,"code":"B4KJ201801002-8466","latitude":"38.31725","longitude":"140.98078","source_code":"TH57403778004","project_name":"","survey_name":"\u662d\u548c62\u5e74\u5ea6\u4ed9\u5869\u30d0\u30a4\u30d1\u30b9\u5229\u5e9c\u5730\u533a\u5730\u76e4\u8abf\u67fb","client_name":"\u56fd\u571f\u4ea4\u901a\u7701\u6771\u5317\u5730\u65b9\u6574\u5099\u5c40\u4ed9\u53f0\u6cb3\u5ddd\u56fd\u9053\u4e8b\u52d9\u6240","boring_xml_url":40,"boring_view_url":1,"soilmap_view_url":null,"soiltest_xml_url":0,"soiltest_view_url":0},{"id":140216,"code":"B4KJ201801002-8465","latitude":"38.31353","longitude":"140.97764","source_code":"TH57403778003","project_name":"","survey_name":"\u662d\u548c62\u5e74\u5ea6\u4ed9\u5869\u30d0\u30a4\u30d1\u30b9\u5229\u5e9c\u5730\u533a\u5730\u76e4\u8abf\u67fb","client_name":"\u56fd\u571f\u4ea4\u901a\u7701\u6771\u5317\u5730\u65b9\u6574\u5099\u5c40\u4ed9\u53f0\u6cb3\u5ddd\u56fd\u9053\u4e8b\u52d9\u6240","boring_xml_url":40,"boring_view_url":1,"soilmap_view_url":null,"soiltest_xml_url":0,"soiltest_view_url":0}]}}