{"header":{"xyz":{"source":[],"mosaic":false},"page":6018,"raw":{"soiltest_result":"0","bbox":"57.598333,109.544722,1.933333,163.806111","page":"6018"},"conditions":{"soiltest_result":0,"north":57.598333,"west":109.544722,"south":1.933333,"east":163.806111},"success":true,"message":""},"data":{"meta":{"total":212844,"page":6018,"pages":7095,"count":30},"values":[{"id":140035,"code":"B4KJ201801002-8284","latitude":"38.286","longitude":"140.99283","source_code":"TH57403739012","project_name":"","survey_name":"\u5e73\u62102\u5e74\u5ea6\u4ed9\u5869\u9053\u8def\u591a\u8cc0\u57ce\u9ad8\u67b6\u6a4b\u5730\u76e4\u8abf\u67fb(\u305d\u306e1)","client_name":"\u56fd\u571f\u4ea4\u901a\u7701\u6771\u5317\u5730\u65b9\u6574\u5099\u5c40\u4ed9\u53f0\u6cb3\u5ddd\u56fd\u9053\u4e8b\u52d9\u6240","boring_xml_url":40,"boring_view_url":1,"soilmap_view_url":null,"soiltest_xml_url":0,"soiltest_view_url":0},{"id":140034,"code":"B4KJ201801002-8283","latitude":"38.28581","longitude":"140.99303","source_code":"TH57403739011","project_name":"","survey_name":"\u5e73\u62102\u5e74\u5ea6\u4ed9\u5869\u9053\u8def\u591a\u8cc0\u57ce\u9ad8\u67b6\u6a4b\u5730\u76e4\u8abf\u67fb(\u305d\u306e1)","client_name":"\u56fd\u571f\u4ea4\u901a\u7701\u6771\u5317\u5730\u65b9\u6574\u5099\u5c40\u4ed9\u53f0\u6cb3\u5ddd\u56fd\u9053\u4e8b\u52d9\u6240","boring_xml_url":40,"boring_view_url":1,"soilmap_view_url":null,"soiltest_xml_url":0,"soiltest_view_url":0},{"id":140033,"code":"B4KJ201801002-8282","latitude":"38.28556","longitude":"140.99286","source_code":"TH57403739010","project_name":"","survey_name":"\u5e73\u5e742\u5e74\u5ea6\u4ed9\u5869\u9053\u8def\u591a\u8cc0\u57ce\u9ad8\u67b6\u6a4b\u5730\u76e4\u8abf\u67fb(\u305d\u306e1)","client_name":"\u56fd\u571f\u4ea4\u901a\u7701\u6771\u5317\u5730\u65b9\u6574\u5099\u5c40\u4ed9\u53f0\u6cb3\u5ddd\u56fd\u9053\u4e8b\u52d9\u6240","boring_xml_url":40,"boring_view_url":1,"soilmap_view_url":null,"soiltest_xml_url":0,"soiltest_view_url":0},{"id":140032,"code":"B4KJ201801002-8281","latitude":"38.28533","longitude":"140.99306","source_code":"TH57403739009","project_name":"","survey_name":"\u5e73\u62102\u5e74\u5ea6\u4ed9\u5869\u9053\u8def\u591a\u8cc0\u57ce\u9ad8\u67b6\u6a4b\u5730\u76e4\u8abf\u67fb(\u305d\u306e1)","client_name":"\u56fd\u571f\u4ea4\u901a\u7701\u6771\u5317\u5730\u65b9\u6574\u5099\u5c40\u4ed9\u53f0\u6cb3\u5ddd\u56fd\u9053\u4e8b\u52d9\u6240","boring_xml_url":40,"boring_view_url":1,"soilmap_view_url":null,"soiltest_xml_url":0,"soiltest_view_url":0},{"id":140031,"code":"B4KJ201801002-8280","latitude":"38.28556","longitude":"140.99286","source_code":"TH57403739008","project_name":"","survey_name":"\u5e73\u62102\u5e74\u5ea6\u4ed9\u5869\u9053\u8def\u591a\u8cc0\u57ce\u9ad8\u67b6\u6a4b\u5730\u76e4\u8abf\u67fb(\u305d\u306e1)","client_name":"\u56fd\u571f\u4ea4\u901a\u7701\u6771\u5317\u5730\u65b9\u6574\u5099\u5c40\u4ed9\u53f0\u6cb3\u5ddd\u56fd\u9053\u4e8b\u52d9\u6240","boring_xml_url":40,"boring_view_url":1,"soilmap_view_url":null,"soiltest_xml_url":0,"soiltest_view_url":0},{"id":140030,"code":"B4KJ201801002-8279","latitude":"38.28506","longitude":"140.99317","source_code":"TH57403739007","project_name":"","survey_name":"\u5e73\u62102\u5e74\u5ea6\u4ed9\u5869\u9053\u8def\u591a\u8cc0\u57ce\u9ad8\u67b6\u6a4b\u5730\u76e4\u8abf\u67fb(\u305d\u306e1)","client_name":"\u56fd\u571f\u4ea4\u901a\u7701\u6771\u5317\u5730\u65b9\u6574\u5099\u5c40\u4ed9\u53f0\u6cb3\u5ddd\u56fd\u9053\u4e8b\u52d9\u6240","boring_xml_url":40,"boring_view_url":1,"soilmap_view_url":null,"soiltest_xml_url":0,"soiltest_view_url":0},{"id":140029,"code":"B4KJ201801002-8278","latitude":"38.28453","longitude":"140.99283","source_code":"TH57403739006","project_name":"","survey_name":"\u4ed9\u5869\u30d0\u30a4\u30d1\u30b9\u4ed9\u53f0\u5730\u533a\u5730\u76e4\u8abf\u67fb","client_name":"\u56fd\u571f\u4ea4\u901a\u7701\u6771\u5317\u5730\u65b9\u6574\u5099\u5c40\u4ed9\u53f0\u6cb3\u5ddd\u56fd\u9053\u4e8b\u52d9\u6240","boring_xml_url":40,"boring_view_url":1,"soilmap_view_url":null,"soiltest_xml_url":0,"soiltest_view_url":0},{"id":140028,"code":"B4KJ201801002-8277","latitude":"38.28372","longitude":"140.99328","source_code":"TH57403739005","project_name":"","survey_name":"\u4ed9\u5869\u30d0\u30a4\u30d1\u30b9\u4ed9\u53f0\u5730\u533a\u5730\u76e4\u8abf\u67fb","client_name":"\u56fd\u571f\u4ea4\u901a\u7701\u6771\u5317\u5730\u65b9\u6574\u5099\u5c40\u4ed9\u53f0\u6cb3\u5ddd\u56fd\u9053\u4e8b\u52d9\u6240","boring_xml_url":40,"boring_view_url":1,"soilmap_view_url":null,"soiltest_xml_url":0,"soiltest_view_url":0},{"id":140027,"code":"B4KJ201801002-8276","latitude":"38.28328","longitude":"140.99356","source_code":"TH57403739004","project_name":"","survey_name":"\u4ed9\u5869\u30d0\u30a4\u30d1\u30b9\u4ed9\u53f0\u5730\u533a\u5730\u76e4\u8abf\u67fb","client_name":"\u56fd\u571f\u4ea4\u901a\u7701\u6771\u5317\u5730\u65b9\u6574\u5099\u5c40\u4ed9\u53f0\u6cb3\u5ddd\u56fd\u9053\u4e8b\u52d9\u6240","boring_xml_url":40,"boring_view_url":1,"soilmap_view_url":null,"soiltest_xml_url":0,"soiltest_view_url":0},{"id":140026,"code":"B4KJ201801002-8275","latitude":"38.28031","longitude":"140.99269","source_code":"TH57403739003","project_name":"","survey_name":"\u4ed9\u5869\u30d0\u30a4\u30d1\u30b9\u4ed9\u53f0\u5730\u533a\u5730\u76e4\u8abf\u67fb","client_name":"\u56fd\u571f\u4ea4\u901a\u7701\u6771\u5317\u5730\u65b9\u6574\u5099\u5c40\u4ed9\u53f0\u6cb3\u5ddd\u56fd\u9053\u4e8b\u52d9\u6240","boring_xml_url":40,"boring_view_url":1,"soilmap_view_url":null,"soiltest_xml_url":0,"soiltest_view_url":0},{"id":140025,"code":"B4KJ201801002-8274","latitude":"38.28","longitude":"140.992","source_code":"TH57403739002","project_name":"","survey_name":"\u662d\u548c58\u5e74\u5ea6\u4ed9\u5869\u30d0\u30a4\u30d1\u30b9\u5730\u76e4\u8abf\u67fb","client_name":"\u56fd\u571f\u4ea4\u901a\u7701\u6771\u5317\u5730\u65b9\u6574\u5099\u5c40\u4ed9\u53f0\u6cb3\u5ddd\u56fd\u9053\u4e8b\u52d9\u6240","boring_xml_url":40,"boring_view_url":1,"soilmap_view_url":null,"soiltest_xml_url":0,"soiltest_view_url":0},{"id":140024,"code":"B4KJ201801002-8273","latitude":"38.28514","longitude":"140.99289","source_code":"TH57403739001","project_name":"","survey_name":"\u662d\u548c58\u5e74\u5ea6\u4ed9\u5869\u30d0\u30a4\u30d1\u30b9\u5730\u76e4\u8abf\u67fb","client_name":"\u56fd\u571f\u4ea4\u901a\u7701\u6771\u5317\u5730\u65b9\u6574\u5099\u5c40\u4ed9\u53f0\u6cb3\u5ddd\u56fd\u9053\u4e8b\u52d9\u6240","boring_xml_url":40,"boring_view_url":1,"soilmap_view_url":null,"soiltest_xml_url":0,"soiltest_view_url":0},{"id":140023,"code":"B4KJ201801002-8272","latitude":"38.28114","longitude":"140.93808","source_code":"TH57403735006","project_name":"","survey_name":"\u5e73\u62102\u5e74\u5ea6\u5c0f\u9db4\u5730\u533a\u5730\u76e4\u8abf\u67fb","client_name":"\u56fd\u571f\u4ea4\u901a\u7701\u6771\u5317\u5730\u65b9\u6574\u5099\u5c40\u4ed9\u53f0\u6cb3\u5ddd\u56fd\u9053\u4e8b\u52d9\u6240","boring_xml_url":40,"boring_view_url":1,"soilmap_view_url":null,"soiltest_xml_url":0,"soiltest_view_url":0},{"id":140022,"code":"B4KJ201801002-8271","latitude":"38.27839","longitude":"140.93878","source_code":"TH57403735005","project_name":"","survey_name":"\u5e73\u62102\u5e74\u5ea6\u5c0f\u9db4\u5730\u533a\u5730\u76e4\u8abf\u67fb","client_name":"\u56fd\u571f\u4ea4\u901a\u7701\u6771\u5317\u5730\u65b9\u6574\u5099\u5c40\u4ed9\u53f0\u6cb3\u5ddd\u56fd\u9053\u4e8b\u52d9\u6240","boring_xml_url":40,"boring_view_url":1,"soilmap_view_url":null,"soiltest_xml_url":0,"soiltest_view_url":0},{"id":140021,"code":"B4KJ201801002-8270","latitude":"38.28239","longitude":"140.93858","source_code":"TH57403735004","project_name":"","survey_name":"\u5e73\u62102\u5e74\u5ea6\u4ed9\u53f0\u62e1\u5e45\u8edf\u5f31\u5730\u76e4\u89e3\u6790\u696d\u52d9","client_name":"\u56fd\u571f\u4ea4\u901a\u7701\u6771\u5317\u5730\u65b9\u6574\u5099\u5c40\u4ed9\u53f0\u6cb3\u5ddd\u56fd\u9053\u4e8b\u52d9\u6240","boring_xml_url":40,"boring_view_url":1,"soilmap_view_url":null,"soiltest_xml_url":0,"soiltest_view_url":0},{"id":140020,"code":"B4KJ201801002-8269","latitude":"38.28508","longitude":"140.93842","source_code":"TH57403735003","project_name":"","survey_name":"\u5e73\u62102\u5e74\u5ea6\u4ed9\u53f0\u62e1\u5e45\u8edf\u5f31\u5730\u76e4\u89e3\u6790\u696d\u52d9","client_name":"\u56fd\u571f\u4ea4\u901a\u7701\u6771\u5317\u5730\u65b9\u6574\u5099\u5c40\u4ed9\u53f0\u6cb3\u5ddd\u56fd\u9053\u4e8b\u52d9\u6240","boring_xml_url":40,"boring_view_url":1,"soilmap_view_url":null,"soiltest_xml_url":0,"soiltest_view_url":0},{"id":140019,"code":"B4KJ201801002-8268","latitude":"38.28564","longitude":"140.93797","source_code":"TH57403735002","project_name":"","survey_name":"\u5e73\u62102\u5e74\u5ea6\u71d5\u6ca2\u5730\u533a\u5730\u76e4\u8abf\u67fb","client_name":"\u56fd\u571f\u4ea4\u901a\u7701\u6771\u5317\u5730\u65b9\u6574\u5099\u5c40\u4ed9\u53f0\u6cb3\u5ddd\u56fd\u9053\u4e8b\u52d9\u6240","boring_xml_url":40,"boring_view_url":1,"soilmap_view_url":null,"soiltest_xml_url":0,"soiltest_view_url":0},{"id":140018,"code":"B4KJ201801002-8267","latitude":"38.28358","longitude":"140.93811","source_code":"TH57403735001","project_name":"","survey_name":"\u5e73\u6210\u5143\u5e74\u5ea6\u4ed9\u53f0\u62e1\u5dfe\u5730\u76e4\u8abf\u67fb(\u305d\u306e1)","client_name":"\u56fd\u571f\u4ea4\u901a\u7701\u6771\u5317\u5730\u65b9\u6574\u5099\u5c40\u4ed9\u53f0\u6cb3\u5ddd\u56fd\u9053\u4e8b\u52d9\u6240","boring_xml_url":40,"boring_view_url":1,"soilmap_view_url":null,"soiltest_xml_url":0,"soiltest_view_url":0},{"id":140017,"code":"B4KJ201801002-8266","latitude":"38.27525","longitude":"140.98711","source_code":"TH57403729007","project_name":"","survey_name":"\u5e73\u62109\u5e74\u5ea6\u4ed9\u53f0\u6771\u90e8\u9053\u8def\u9ad8\u7802\u5730\u533a\u5730\u76e4\u8abf\u67fb","client_name":"\u56fd\u571f\u4ea4\u901a\u7701\u6771\u5317\u5730\u65b9\u6574\u5099\u5c40\u4ed9\u53f0\u6cb3\u5ddd\u56fd\u9053\u4e8b\u52d9\u6240","boring_xml_url":40,"boring_view_url":1,"soilmap_view_url":null,"soiltest_xml_url":0,"soiltest_view_url":0},{"id":140016,"code":"B4KJ201801002-8265","latitude":"38.27722","longitude":"140.99011","source_code":"TH57403729003","project_name":"","survey_name":"\u5e73\u62108\u5e74\u5ea6\u4ed9\u53f0\u6771\u90e8\u9053\u8def\u5730\u76e4\u8abf\u67fb\u696d\u52d9(\u305d\u306e2)","client_name":"\u56fd\u571f\u4ea4\u901a\u7701\u6771\u5317\u5730\u65b9\u6574\u5099\u5c40\u4ed9\u53f0\u6cb3\u5ddd\u56fd\u9053\u4e8b\u52d9\u6240","boring_xml_url":40,"boring_view_url":1,"soilmap_view_url":null,"soiltest_xml_url":0,"soiltest_view_url":0},{"id":140015,"code":"B4KJ201801002-8264","latitude":"38.27664","longitude":"140.98911","source_code":"TH57403729002","project_name":"","survey_name":"\u5e73\u62108\u5e74\u5ea6\u4ed9\u53f0\u6771\u90e8\u9053\u8def\u5730\u76e4\u8abf\u67fb\u696d\u52d9(\u305d\u306e2)","client_name":"\u56fd\u571f\u4ea4\u901a\u7701\u6771\u5317\u5730\u65b9\u6574\u5099\u5c40\u4ed9\u53f0\u6cb3\u5ddd\u56fd\u9053\u4e8b\u52d9\u6240","boring_xml_url":40,"boring_view_url":1,"soilmap_view_url":null,"soiltest_xml_url":0,"soiltest_view_url":0},{"id":140014,"code":"B4KJ201801002-8263","latitude":"38.27697","longitude":"140.98969","source_code":"TH57403729001","project_name":"","survey_name":"\u5e73\u62108\u5e74\u5ea6\u4ed9\u53f0\u5317\u90e8\u9053\u8def\u52a0\u702c\u5730\u533a\u5730\u76e4\u8abf\u67fb","client_name":"\u56fd\u571f\u4ea4\u901a\u7701\u6771\u5317\u5730\u65b9\u6574\u5099\u5c40\u4ed9\u53f0\u6cb3\u5ddd\u56fd\u9053\u4e8b\u52d9\u6240","boring_xml_url":40,"boring_view_url":1,"soilmap_view_url":null,"soiltest_xml_url":0,"soiltest_view_url":0},{"id":140013,"code":"B4KJ201801002-8262","latitude":"38.27247","longitude":"140.98111","source_code":"TH57403728004","project_name":"","survey_name":"\u5e73\u62109\u5e74\u5ea6\u4ed9\u53f0\u6771\u90e8\u9053\u8def\u9ad8\u7802\u5730\u533a\u5730\u76e4\u8abf\u67fb","client_name":"\u56fd\u571f\u4ea4\u901a\u7701\u6771\u5317\u5730\u65b9\u6574\u5099\u5c40\u4ed9\u53f0\u6cb3\u5ddd\u56fd\u9053\u4e8b\u52d9\u6240","boring_xml_url":40,"boring_view_url":1,"soilmap_view_url":null,"soiltest_xml_url":0,"soiltest_view_url":0},{"id":140012,"code":"B4KJ201801002-8261","latitude":"38.27367","longitude":"140.93903","source_code":"TH57403725017","project_name":"","survey_name":"\u5e73\u62103\u5e74\u5ea6\u6885\u7530\u5730\u533a\u5730\u76e4\u8abf\u67fb(\u6885\u7530\u5730\u533a)","client_name":"\u56fd\u571f\u4ea4\u901a\u7701\u6771\u5317\u5730\u65b9\u6574\u5099\u5c40\u4ed9\u53f0\u6cb3\u5ddd\u56fd\u9053\u4e8b\u52d9\u6240","boring_xml_url":40,"boring_view_url":1,"soilmap_view_url":null,"soiltest_xml_url":0,"soiltest_view_url":0},{"id":140011,"code":"B4KJ201801002-8260","latitude":"38.27367","longitude":"140.93831","source_code":"TH57403725016","project_name":"","survey_name":"\u5e73\u62103\u5e74\u5ea6\u6885\u7530\u5730\u533a\u5730\u76e4\u8abf\u67fb(\u6885\u7530\u5730\u533a)","client_name":"\u56fd\u571f\u4ea4\u901a\u7701\u6771\u5317\u5730\u65b9\u6574\u5099\u5c40\u4ed9\u53f0\u6cb3\u5ddd\u56fd\u9053\u4e8b\u52d9\u6240","boring_xml_url":40,"boring_view_url":1,"soilmap_view_url":null,"soiltest_xml_url":0,"soiltest_view_url":0},{"id":140010,"code":"B4KJ201801002-8259","latitude":"38.27344","longitude":"140.93903","source_code":"TH57403725015","project_name":"","survey_name":"\u5e73\u62103\u5e74\u5ea6\u6885\u7530\u5730\u533a\u5730\u76e4\u8abf\u67fb(\u6885\u7530\u5730\u533a)","client_name":"\u56fd\u571f\u4ea4\u901a\u7701\u6771\u5317\u5730\u65b9\u6574\u5099\u5c40\u4ed9\u53f0\u6cb3\u5ddd\u56fd\u9053\u4e8b\u52d9\u6240","boring_xml_url":40,"boring_view_url":1,"soilmap_view_url":null,"soiltest_xml_url":0,"soiltest_view_url":0},{"id":140009,"code":"B4KJ201801002-8258","latitude":"38.27344","longitude":"140.93831","source_code":"TH57403725014","project_name":"","survey_name":"\u5e73\u62103\u5e74\u5ea6\u6885\u7530\u5730\u533a\u5730\u76e4\u8abf\u67fb(\u6885\u7530\u5730\u533a)","client_name":"\u56fd\u571f\u4ea4\u901a\u7701\u6771\u5317\u5730\u65b9\u6574\u5099\u5c40\u4ed9\u53f0\u6cb3\u5ddd\u56fd\u9053\u4e8b\u52d9\u6240","boring_xml_url":40,"boring_view_url":1,"soilmap_view_url":null,"soiltest_xml_url":0,"soiltest_view_url":0},{"id":140008,"code":"B4KJ201801002-8257","latitude":"38.27322","longitude":"140.93903","source_code":"TH57403725013","project_name":"","survey_name":"\u5e73\u62103\u5e74\u5ea6\u6885\u7530\u5730\u533a\u5730\u76e4\u8abf\u67fb(\u6885\u7530\u5730\u533a)","client_name":"\u56fd\u571f\u4ea4\u901a\u7701\u6771\u5317\u5730\u65b9\u6574\u5099\u5c40\u4ed9\u53f0\u6cb3\u5ddd\u56fd\u9053\u4e8b\u52d9\u6240","boring_xml_url":40,"boring_view_url":1,"soilmap_view_url":null,"soiltest_xml_url":0,"soiltest_view_url":0},{"id":140007,"code":"B4KJ201801002-8256","latitude":"38.27322","longitude":"140.93831","source_code":"TH57403725012","project_name":"","survey_name":"\u5e73\u62103\u5e74\u5ea6\u6885\u7530\u5730\u533a\u5730\u76e4\u8abf\u67fb(\u6885\u7530\u5730\u533a)","client_name":"\u56fd\u571f\u4ea4\u901a\u7701\u6771\u5317\u5730\u65b9\u6574\u5099\u5c40\u4ed9\u53f0\u6cb3\u5ddd\u56fd\u9053\u4e8b\u52d9\u6240","boring_xml_url":40,"boring_view_url":1,"soilmap_view_url":null,"soiltest_xml_url":0,"soiltest_view_url":0},{"id":140006,"code":"B4KJ201801002-8255","latitude":"38.273","longitude":"140.93903","source_code":"TH57403725011","project_name":"","survey_name":"\u5e73\u62103\u5e74\u5ea6\u6885\u7530\u5730\u533a\u5730\u76e4\u8abf\u67fb(\u6885\u7530\u5730\u533a)","client_name":"\u56fd\u571f\u4ea4\u901a\u7701\u6771\u5317\u5730\u65b9\u6574\u5099\u5c40\u4ed9\u53f0\u6cb3\u5ddd\u56fd\u9053\u4e8b\u52d9\u6240","boring_xml_url":40,"boring_view_url":1,"soilmap_view_url":null,"soiltest_xml_url":0,"soiltest_view_url":0}]}}