{"header":{"xyz":{"source":[],"mosaic":false},"page":602,"raw":{"soiltest_result":"0","bbox":"57.598333,109.544722,1.933333,163.806111","page":"602"},"conditions":{"soiltest_result":0,"north":57.598333,"west":109.544722,"south":1.933333,"east":163.806111},"success":true,"message":""},"data":{"meta":{"total":212844,"page":602,"pages":7095,"count":30},"values":[{"id":527358,"code":"B4KJ202201002-9894","latitude":"33.225523","longitude":"133.156681","source_code":"148861622000430010","project_name":"\"\u5e73\u621026\u5e74\u5ea6 \u7aaa\u5ddd\u4f50\u8cc0\u9053\u8def(\u5e73\u4e32\u5730\u533a\u5916)\u5730\u8cea\u8abf\u67fb\u696d\u52d9\"","survey_name":"\"\u5e73\u621026\u5e74\u5ea6 \u7aaa\u5ddd\u4f50\u8cc0\u9053\u8def(\u5e73\u4e32\u5730\u533a\u5916)\u5730\u8cea\u8abf\u67fb\u696d\u52d9\"","client_name":"\u56fd\u571f\u4ea4\u901a\u7701\u3000\u56db\u56fd\u6574\u5099\u5c40\u3000\u4e2d\u6751\u6cb3\u5ddd\u56fd\u9053\u4e8b\u52d9\u6240","boring_xml_url":64,"boring_view_url":1,"soilmap_view_url":null,"soiltest_xml_url":0,"soiltest_view_url":0},{"id":527357,"code":"B4KJ202201002-9893","latitude":"33.22774","longitude":"133.156111","source_code":"148861622000430009","project_name":"\"\u5e73\u621026\u5e74\u5ea6 \u7aaa\u5ddd\u4f50\u8cc0\u9053\u8def(\u5e73\u4e32\u5730\u533a\u5916)\u5730\u8cea\u8abf\u67fb\u696d\u52d9\"","survey_name":"\"\u5e73\u621026\u5e74\u5ea6 \u7aaa\u5ddd\u4f50\u8cc0\u9053\u8def(\u5e73\u4e32\u5730\u533a\u5916)\u5730\u8cea\u8abf\u67fb\u696d\u52d9\"","client_name":"\u56fd\u571f\u4ea4\u901a\u7701\u3000\u56db\u56fd\u6574\u5099\u5c40\u3000\u4e2d\u6751\u6cb3\u5ddd\u56fd\u9053\u4e8b\u52d9\u6240","boring_xml_url":64,"boring_view_url":1,"soilmap_view_url":null,"soiltest_xml_url":0,"soiltest_view_url":0},{"id":527356,"code":"B4KJ202201002-9892","latitude":"33.228669","longitude":"133.156732","source_code":"148861622000430008","project_name":"\"\u5e73\u621026\u5e74\u5ea6 \u7aaa\u5ddd\u4f50\u8cc0\u9053\u8def(\u5e73\u4e32\u5730\u533a\u5916)\u5730\u8cea\u8abf\u67fb\u696d\u52d9\"","survey_name":"\"\u5e73\u621026\u5e74\u5ea6 \u7aaa\u5ddd\u4f50\u8cc0\u9053\u8def(\u5e73\u4e32\u5730\u533a\u5916)\u5730\u8cea\u8abf\u67fb\u696d\u52d9\"","client_name":"\u56fd\u571f\u4ea4\u901a\u7701\u3000\u56db\u56fd\u6574\u5099\u5c40\u3000\u4e2d\u6751\u6cb3\u5ddd\u56fd\u9053\u4e8b\u52d9\u6240","boring_xml_url":64,"boring_view_url":1,"soilmap_view_url":null,"soiltest_xml_url":0,"soiltest_view_url":0},{"id":527355,"code":"B4KJ202201002-9891","latitude":"33.222714","longitude":"133.157688","source_code":"148861622000430007","project_name":"\"\u5e73\u621026\u5e74\u5ea6 \u7aaa\u5ddd\u4f50\u8cc0\u9053\u8def(\u5e73\u4e32\u5730\u533a\u5916)\u5730\u8cea\u8abf\u67fb\u696d\u52d9\"","survey_name":"\"\u5e73\u621026\u5e74\u5ea6 \u7aaa\u5ddd\u4f50\u8cc0\u9053\u8def(\u5e73\u4e32\u5730\u533a\u5916)\u5730\u8cea\u8abf\u67fb\u696d\u52d9\"","client_name":"\u56fd\u571f\u4ea4\u901a\u7701\u3000\u56db\u56fd\u6574\u5099\u5c40\u3000\u4e2d\u6751\u6cb3\u5ddd\u56fd\u9053\u4e8b\u52d9\u6240","boring_xml_url":64,"boring_view_url":1,"soilmap_view_url":null,"soiltest_xml_url":0,"soiltest_view_url":0},{"id":527354,"code":"B4KJ202201002-9890","latitude":"33.223613","longitude":"133.15737","source_code":"148861622000430006","project_name":"\"\u5e73\u621026\u5e74\u5ea6 \u7aaa\u5ddd\u4f50\u8cc0\u9053\u8def(\u5e73\u4e32\u5730\u533a\u5916)\u5730\u8cea\u8abf\u67fb\u696d\u52d9\"","survey_name":"\"\u5e73\u621026\u5e74\u5ea6 \u7aaa\u5ddd\u4f50\u8cc0\u9053\u8def(\u5e73\u4e32\u5730\u533a\u5916)\u5730\u8cea\u8abf\u67fb\u696d\u52d9\"","client_name":"\u56fd\u571f\u4ea4\u901a\u7701\u3000\u56db\u56fd\u6574\u5099\u5c40\u3000\u4e2d\u6751\u6cb3\u5ddd\u56fd\u9053\u4e8b\u52d9\u6240","boring_xml_url":64,"boring_view_url":1,"soilmap_view_url":null,"soiltest_xml_url":0,"soiltest_view_url":0},{"id":527353,"code":"B4KJ202201002-9889","latitude":"33.224125","longitude":"133.157179","source_code":"148861622000430005","project_name":"\"\u5e73\u621026\u5e74\u5ea6 \u7aaa\u5ddd\u4f50\u8cc0\u9053\u8def(\u5e73\u4e32\u5730\u533a\u5916)\u5730\u8cea\u8abf\u67fb\u696d\u52d9\"","survey_name":"\"\u5e73\u621026\u5e74\u5ea6 \u7aaa\u5ddd\u4f50\u8cc0\u9053\u8def(\u5e73\u4e32\u5730\u533a\u5916)\u5730\u8cea\u8abf\u67fb\u696d\u52d9\"","client_name":"\u56fd\u571f\u4ea4\u901a\u7701\u3000\u56db\u56fd\u6574\u5099\u5c40\u3000\u4e2d\u6751\u6cb3\u5ddd\u56fd\u9053\u4e8b\u52d9\u6240","boring_xml_url":64,"boring_view_url":1,"soilmap_view_url":null,"soiltest_xml_url":0,"soiltest_view_url":0},{"id":527352,"code":"B4KJ202201002-9888","latitude":"33.227833","longitude":"133.156414","source_code":"148861622000430004","project_name":"\"\u5e73\u621026\u5e74\u5ea6 \u7aaa\u5ddd\u4f50\u8cc0\u9053\u8def(\u5e73\u4e32\u5730\u533a\u5916)\u5730\u8cea\u8abf\u67fb\u696d\u52d9\"","survey_name":"\"\u5e73\u621026\u5e74\u5ea6 \u7aaa\u5ddd\u4f50\u8cc0\u9053\u8def(\u5e73\u4e32\u5730\u533a\u5916)\u5730\u8cea\u8abf\u67fb\u696d\u52d9\"","client_name":"\u56fd\u571f\u4ea4\u901a\u7701\u3000\u56db\u56fd\u6574\u5099\u5c40\u3000\u4e2d\u6751\u6cb3\u5ddd\u56fd\u9053\u4e8b\u52d9\u6240","boring_xml_url":64,"boring_view_url":1,"soilmap_view_url":null,"soiltest_xml_url":0,"soiltest_view_url":0},{"id":527351,"code":"B4KJ202201002-9887","latitude":"33.228022","longitude":"133.156025","source_code":"148861622000430003","project_name":"\"\u5e73\u621026\u5e74\u5ea6 \u7aaa\u5ddd\u4f50\u8cc0\u9053\u8def(\u5e73\u4e32\u5730\u533a\u5916)\u5730\u8cea\u8abf\u67fb\u696d\u52d9\"","survey_name":"\"\u5e73\u621026\u5e74\u5ea6 \u7aaa\u5ddd\u4f50\u8cc0\u9053\u8def(\u5e73\u4e32\u5730\u533a\u5916)\u5730\u8cea\u8abf\u67fb\u696d\u52d9\"","client_name":"\u56fd\u571f\u4ea4\u901a\u7701\u3000\u56db\u56fd\u6574\u5099\u5c40\u3000\u4e2d\u6751\u6cb3\u5ddd\u56fd\u9053\u4e8b\u52d9\u6240","boring_xml_url":64,"boring_view_url":1,"soilmap_view_url":null,"soiltest_xml_url":0,"soiltest_view_url":0},{"id":527350,"code":"B4KJ202201002-9886","latitude":"33.228728","longitude":"133.155739","source_code":"148861622000430002","project_name":"\"\u5e73\u621026\u5e74\u5ea6 \u7aaa\u5ddd\u4f50\u8cc0\u9053\u8def(\u5e73\u4e32\u5730\u533a\u5916)\u5730\u8cea\u8abf\u67fb\u696d\u52d9\"","survey_name":"\"\u5e73\u621026\u5e74\u5ea6 \u7aaa\u5ddd\u4f50\u8cc0\u9053\u8def(\u5e73\u4e32\u5730\u533a\u5916)\u5730\u8cea\u8abf\u67fb\u696d\u52d9\"","client_name":"\u56fd\u571f\u4ea4\u901a\u7701\u3000\u56db\u56fd\u6574\u5099\u5c40\u3000\u4e2d\u6751\u6cb3\u5ddd\u56fd\u9053\u4e8b\u52d9\u6240","boring_xml_url":64,"boring_view_url":1,"soilmap_view_url":null,"soiltest_xml_url":0,"soiltest_view_url":0},{"id":527349,"code":"B4KJ202201002-9885","latitude":"33.228672","longitude":"133.15648","source_code":"148861622000430001","project_name":"\"\u5e73\u621026\u5e74\u5ea6 \u7aaa\u5ddd\u4f50\u8cc0\u9053\u8def(\u5e73\u4e32\u5730\u533a\u5916)\u5730\u8cea\u8abf\u67fb\u696d\u52d9\"","survey_name":"\"\u5e73\u621026\u5e74\u5ea6 \u7aaa\u5ddd\u4f50\u8cc0\u9053\u8def(\u5e73\u4e32\u5730\u533a\u5916)\u5730\u8cea\u8abf\u67fb\u696d\u52d9\"","client_name":"\u56fd\u571f\u4ea4\u901a\u7701\u3000\u56db\u56fd\u6574\u5099\u5c40\u3000\u4e2d\u6751\u6cb3\u5ddd\u56fd\u9053\u4e8b\u52d9\u6240","boring_xml_url":64,"boring_view_url":1,"soilmap_view_url":null,"soiltest_xml_url":0,"soiltest_view_url":0},{"id":527348,"code":"B4KJ202201002-9884","latitude":"33.228758","longitude":"133.156489","source_code":"148861622000420012","project_name":"\"\u5e73\u621026\u5e74\u5ea6 \u7aaa\u5ddd\u4f50\u8cc0\u9053\u8def(\u5e73\u4e32\u5730\u533a\u5916)\u5730\u8cea\u8abf\u67fb\u696d\u52d9\"","survey_name":"\"\u5e73\u621026\u5e74\u5ea6 \u7aaa\u5ddd\u4f50\u8cc0\u9053\u8def(\u5e73\u4e32\u5730\u533a\u5916)\u5730\u8cea\u8abf\u67fb\u696d\u52d9\"","client_name":"\u56fd\u571f\u4ea4\u901a\u7701\u3000\u56db\u56fd\u6574\u5099\u5c40\u3000\u4e2d\u6751\u6cb3\u5ddd\u56fd\u9053\u4e8b\u52d9\u6240","boring_xml_url":64,"boring_view_url":1,"soilmap_view_url":null,"soiltest_xml_url":0,"soiltest_view_url":0},{"id":527347,"code":"B4KJ202201002-9883","latitude":"33.228585","longitude":"133.157152","source_code":"148861622000420011","project_name":"\"\u5e73\u621026\u5e74\u5ea6 \u7aaa\u5ddd\u4f50\u8cc0\u9053\u8def(\u5e73\u4e32\u5730\u533a\u5916)\u5730\u8cea\u8abf\u67fb\u696d\u52d9\"","survey_name":"\"\u5e73\u621026\u5e74\u5ea6 \u7aaa\u5ddd\u4f50\u8cc0\u9053\u8def(\u5e73\u4e32\u5730\u533a\u5916)\u5730\u8cea\u8abf\u67fb\u696d\u52d9\"","client_name":"\u56fd\u571f\u4ea4\u901a\u7701\u3000\u56db\u56fd\u6574\u5099\u5c40\u3000\u4e2d\u6751\u6cb3\u5ddd\u56fd\u9053\u4e8b\u52d9\u6240","boring_xml_url":64,"boring_view_url":1,"soilmap_view_url":null,"soiltest_xml_url":0,"soiltest_view_url":0},{"id":527346,"code":"B4KJ202201002-9882","latitude":"33.229698","longitude":"133.157715","source_code":"148861622000420010","project_name":"\"\u5e73\u621026\u5e74\u5ea6 \u7aaa\u5ddd\u4f50\u8cc0\u9053\u8def(\u5e73\u4e32\u5730\u533a\u5916)\u5730\u8cea\u8abf\u67fb\u696d\u52d9\"","survey_name":"\"\u5e73\u621026\u5e74\u5ea6 \u7aaa\u5ddd\u4f50\u8cc0\u9053\u8def(\u5e73\u4e32\u5730\u533a\u5916)\u5730\u8cea\u8abf\u67fb\u696d\u52d9\"","client_name":"\u56fd\u571f\u4ea4\u901a\u7701\u3000\u56db\u56fd\u6574\u5099\u5c40\u3000\u4e2d\u6751\u6cb3\u5ddd\u56fd\u9053\u4e8b\u52d9\u6240","boring_xml_url":64,"boring_view_url":1,"soilmap_view_url":null,"soiltest_xml_url":0,"soiltest_view_url":0},{"id":527345,"code":"B4KJ202201002-9881","latitude":"33.229542","longitude":"133.157537","source_code":"148861622000420009","project_name":"\"\u5e73\u621026\u5e74\u5ea6 \u7aaa\u5ddd\u4f50\u8cc0\u9053\u8def(\u5e73\u4e32\u5730\u533a\u5916)\u5730\u8cea\u8abf\u67fb\u696d\u52d9\"","survey_name":"\"\u5e73\u621026\u5e74\u5ea6 \u7aaa\u5ddd\u4f50\u8cc0\u9053\u8def(\u5e73\u4e32\u5730\u533a\u5916)\u5730\u8cea\u8abf\u67fb\u696d\u52d9\"","client_name":"\u56fd\u571f\u4ea4\u901a\u7701\u3000\u56db\u56fd\u6574\u5099\u5c40\u3000\u4e2d\u6751\u6cb3\u5ddd\u56fd\u9053\u4e8b\u52d9\u6240","boring_xml_url":64,"boring_view_url":1,"soilmap_view_url":null,"soiltest_xml_url":0,"soiltest_view_url":0},{"id":527344,"code":"B4KJ202201002-9880","latitude":"33.094919","longitude":"133.102256","source_code":"148861622000420008","project_name":"","survey_name":"\u5e73\u621026\u5e74\u5ea6\u3000\u4e0d\u7834\u539f\u30c8\u30f3\u30cd\u30eb\u5916\u5730\u8cea\u8abf\u67fb\u696d\u52d9","client_name":"\u56fd\u571f\u4ea4\u901a\u7701\u3000\u56db\u56fd\u5730\u65b9\u6574\u5099\u5c40\u3000\u4e2d\u6751\u6cb3\u5ddd\u56fd\u9053\u4e8b\u52d9\u6240","boring_xml_url":64,"boring_view_url":1,"soilmap_view_url":null,"soiltest_xml_url":0,"soiltest_view_url":0},{"id":527343,"code":"B4KJ202201002-9879","latitude":"33.098236","longitude":"133.105917","source_code":"148861622000420007","project_name":"","survey_name":"\u5e73\u621026\u5e74\u5ea6\u3000\u4e0d\u7834\u539f\u30c8\u30f3\u30cd\u30eb\u5916\u5730\u8cea\u8abf\u67fb\u696d\u52d9","client_name":"\u56fd\u571f\u4ea4\u901a\u7701\u3000\u56db\u56fd\u5730\u65b9\u6574\u5099\u5c40\u3000\u4e2d\u6751\u6cb3\u5ddd\u56fd\u9053\u4e8b\u52d9\u6240","boring_xml_url":64,"boring_view_url":1,"soilmap_view_url":null,"soiltest_xml_url":0,"soiltest_view_url":0},{"id":527342,"code":"B4KJ202201002-9878","latitude":"33.094869","longitude":"133.102203","source_code":"148861622000420006","project_name":"","survey_name":"\u5e73\u621026\u5e74\u5ea6\u3000\u4e0d\u7834\u539f\u30c8\u30f3\u30cd\u30eb\u5916\u5730\u8cea\u8abf\u67fb\u696d\u52d9","client_name":"\u56fd\u571f\u4ea4\u901a\u7701\u3000\u56db\u56fd\u5730\u65b9\u6574\u5099\u5c40\u3000\u4e2d\u6751\u6cb3\u5ddd\u56fd\u9053\u4e8b\u52d9\u6240","boring_xml_url":64,"boring_view_url":1,"soilmap_view_url":null,"soiltest_xml_url":0,"soiltest_view_url":0},{"id":527341,"code":"B4KJ202201002-9877","latitude":"33.095286","longitude":"133.102661","source_code":"148861622000420005","project_name":"","survey_name":"\u5e73\u621026\u5e74\u5ea6\u3000\u4e0d\u7834\u539f\u30c8\u30f3\u30cd\u30eb\u5916\u5730\u8cea\u8abf\u67fb\u696d\u52d9","client_name":"\u56fd\u571f\u4ea4\u901a\u7701\u3000\u56db\u56fd\u5730\u65b9\u6574\u5099\u5c40\u3000\u4e2d\u6751\u6cb3\u5ddd\u56fd\u9053\u4e8b\u52d9\u6240","boring_xml_url":64,"boring_view_url":1,"soilmap_view_url":null,"soiltest_xml_url":0,"soiltest_view_url":0},{"id":527340,"code":"B4KJ202201002-9876","latitude":"33.097944","longitude":"133.105594","source_code":"148861622000420004","project_name":"","survey_name":"\u5e73\u621026\u5e74\u5ea6\u3000\u4e0d\u7834\u539f\u30c8\u30f3\u30cd\u30eb\u5916\u5730\u8cea\u8abf\u67fb\u696d\u52d9","client_name":"\u56fd\u571f\u4ea4\u901a\u7701\u3000\u56db\u56fd\u5730\u65b9\u6574\u5099\u5c40\u3000\u4e2d\u6751\u6cb3\u5ddd\u56fd\u9053\u4e8b\u52d9\u6240","boring_xml_url":64,"boring_view_url":1,"soilmap_view_url":null,"soiltest_xml_url":0,"soiltest_view_url":0},{"id":527339,"code":"B4KJ202201002-9875","latitude":"33.098208","longitude":"133.105886","source_code":"148861622000420003","project_name":"","survey_name":"\u5e73\u621026\u5e74\u5ea6\u3000\u4e0d\u7834\u539f\u30c8\u30f3\u30cd\u30eb\u5916\u5730\u8cea\u8abf\u67fb\u696d\u52d9","client_name":"\u56fd\u571f\u4ea4\u901a\u7701\u3000\u56db\u56fd\u5730\u65b9\u6574\u5099\u5c40\u3000\u4e2d\u6751\u6cb3\u5ddd\u56fd\u9053\u4e8b\u52d9\u6240","boring_xml_url":64,"boring_view_url":1,"soilmap_view_url":null,"soiltest_xml_url":0,"soiltest_view_url":0},{"id":527338,"code":"B4KJ202201002-9874","latitude":"33.099361","longitude":"133.107167","source_code":"148861622000420002","project_name":"","survey_name":"\u5e73\u621026\u5e74\u5ea6\u3000\u4e0d\u7834\u539f\u30c8\u30f3\u30cd\u30eb\u5916\u5730\u8cea\u8abf\u67fb\u696d\u52d9","client_name":"\u56fd\u571f\u4ea4\u901a\u7701\u3000\u56db\u56fd\u5730\u65b9\u6574\u5099\u5c40\u3000\u4e2d\u6751\u6cb3\u5ddd\u56fd\u9053\u4e8b\u52d9\u6240","boring_xml_url":64,"boring_view_url":1,"soilmap_view_url":null,"soiltest_xml_url":0,"soiltest_view_url":0},{"id":527337,"code":"B4KJ202201002-9873","latitude":"33.112347","longitude":"133.119406","source_code":"148861622000420001","project_name":"","survey_name":"\u5e73\u621026\u5e74\u5ea6\u3000\u4e0d\u7834\u539f\u30c8\u30f3\u30cd\u30eb\u5916\u5730\u8cea\u8abf\u67fb\u696d\u52d9","client_name":"\u56fd\u571f\u4ea4\u901a\u7701\u3000\u56db\u56fd\u5730\u65b9\u6574\u5099\u5c40\u3000\u4e2d\u6751\u6cb3\u5ddd\u56fd\u9053\u4e8b\u52d9\u6240","boring_xml_url":64,"boring_view_url":1,"soilmap_view_url":null,"soiltest_xml_url":0,"soiltest_view_url":0},{"id":527336,"code":"B4KJ202201002-9872","latitude":"33.099342","longitude":"133.107128","source_code":"148861622000400013","project_name":"","survey_name":"\u5e73\u621026\u5e74\u5ea6\u3000\u4e0d\u7834\u539f\u30c8\u30f3\u30cd\u30eb\u5916\u5730\u8cea\u8abf\u67fb\u696d\u52d9","client_name":"\u56fd\u571f\u4ea4\u901a\u7701\u3000\u56db\u56fd\u5730\u65b9\u6574\u5099\u5c40\u3000\u4e2d\u6751\u6cb3\u5ddd\u56fd\u9053\u4e8b\u52d9\u6240","boring_xml_url":64,"boring_view_url":1,"soilmap_view_url":null,"soiltest_xml_url":0,"soiltest_view_url":0},{"id":527335,"code":"B4KJ202201002-9871","latitude":"33.099728","longitude":"133.107539","source_code":"148861622000400012","project_name":"","survey_name":"\u5e73\u621026\u5e74\u5ea6\u3000\u4e0d\u7834\u539f\u30c8\u30f3\u30cd\u30eb\u5916\u5730\u8cea\u8abf\u67fb\u696d\u52d9","client_name":"\u56fd\u571f\u4ea4\u901a\u7701\u3000\u56db\u56fd\u5730\u65b9\u6574\u5099\u5c40\u3000\u4e2d\u6751\u6cb3\u5ddd\u56fd\u9053\u4e8b\u52d9\u6240","boring_xml_url":64,"boring_view_url":1,"soilmap_view_url":null,"soiltest_xml_url":0,"soiltest_view_url":0},{"id":527334,"code":"B4KJ202201002-9870","latitude":"33.111836","longitude":"133.119033","source_code":"148861622000400011","project_name":"","survey_name":"\u5e73\u621026\u5e74\u5ea6\u3000\u4e0d\u7834\u539f\u30c8\u30f3\u30cd\u30eb\u5916\u5730\u8cea\u8abf\u67fb\u696d\u52d9","client_name":"\u56fd\u571f\u4ea4\u901a\u7701\u3000\u56db\u56fd\u5730\u65b9\u6574\u5099\u5c40\u3000\u4e2d\u6751\u6cb3\u5ddd\u56fd\u9053\u4e8b\u52d9\u6240","boring_xml_url":64,"boring_view_url":1,"soilmap_view_url":null,"soiltest_xml_url":0,"soiltest_view_url":0},{"id":527333,"code":"B4KJ202201002-9869","latitude":"33.112272","longitude":"133.119353","source_code":"148861622000400009","project_name":"","survey_name":"\u5e73\u621026\u5e74\u5ea6\u3000\u4e0d\u7834\u539f\u30c8\u30f3\u30cd\u30eb\u5916\u5730\u8cea\u8abf\u67fb\u696d\u52d9","client_name":"\u56fd\u571f\u4ea4\u901a\u7701\u3000\u56db\u56fd\u5730\u65b9\u6574\u5099\u5c40\u3000\u4e2d\u6751\u6cb3\u5ddd\u56fd\u9053\u4e8b\u52d9\u6240","boring_xml_url":64,"boring_view_url":1,"soilmap_view_url":null,"soiltest_xml_url":0,"soiltest_view_url":0},{"id":527332,"code":"B4KJ202201002-9868","latitude":"33.114203","longitude":"133.120622","source_code":"148861622000400008","project_name":"","survey_name":"\u5e73\u621026\u5e74\u5ea6\u3000\u8377\u7a32\u30c8\u30f3\u30cd\u30eb\u5916\u5730\u8cea\u8abf\u67fb\u696d\u52d9","client_name":"\u56fd\u571f\u4ea4\u901a\u7701\u3000\u56db\u56fd\u5730\u65b9\u6574\u5099\u5c40\u3000\u4e2d\u6751\u6cb3\u5ddd\u56fd\u9053\u4e8b\u52d9\u6240","boring_xml_url":64,"boring_view_url":1,"soilmap_view_url":null,"soiltest_xml_url":0,"soiltest_view_url":0},{"id":527331,"code":"B4KJ202201002-9867","latitude":"33.117508","longitude":"133.121936","source_code":"148861622000400007","project_name":"","survey_name":"\u5e73\u621026\u5e74\u5ea6\u3000\u8377\u7a32\u30c8\u30f3\u30cd\u30eb\u5916\u5730\u8cea\u8abf\u67fb\u696d\u52d9","client_name":"\u56fd\u571f\u4ea4\u901a\u7701\u3000\u56db\u56fd\u5730\u65b9\u6574\u5099\u5c40\u3000\u4e2d\u6751\u6cb3\u5ddd\u56fd\u9053\u4e8b\u52d9\u6240","boring_xml_url":64,"boring_view_url":1,"soilmap_view_url":null,"soiltest_xml_url":0,"soiltest_view_url":0},{"id":527330,"code":"B4KJ202201002-9866","latitude":"33.114206","longitude":"133.120625","source_code":"148861622000400006","project_name":"","survey_name":"\u5e73\u621026\u5e74\u5ea6\u3000\u8377\u7a32\u30c8\u30f3\u30cd\u30eb\u5916\u5730\u8cea\u8abf\u67fb\u696d\u52d9","client_name":"\u56fd\u571f\u4ea4\u901a\u7701\u3000\u56db\u56fd\u5730\u65b9\u6574\u5099\u5c40\u3000\u4e2d\u6751\u6cb3\u5ddd\u56fd\u9053\u4e8b\u52d9\u6240","boring_xml_url":64,"boring_view_url":1,"soilmap_view_url":null,"soiltest_xml_url":0,"soiltest_view_url":0},{"id":527329,"code":"B4KJ202201002-9865","latitude":"33.117122","longitude":"133.121861","source_code":"148861622000400005","project_name":"","survey_name":"\u5e73\u621026\u5e74\u5ea6\u3000\u8377\u7a32\u30c8\u30f3\u30cd\u30eb\u5916\u5730\u8cea\u8abf\u67fb\u696d\u52d9","client_name":"\u56fd\u571f\u4ea4\u901a\u7701\u3000\u56db\u56fd\u5730\u65b9\u6574\u5099\u5c40\u3000\u4e2d\u6751\u6cb3\u5ddd\u56fd\u9053\u4e8b\u52d9\u6240","boring_xml_url":64,"boring_view_url":1,"soilmap_view_url":null,"soiltest_xml_url":0,"soiltest_view_url":0}]}}