{"header":{"xyz":{"source":[],"mosaic":false},"page":6025,"raw":{"soiltest_result":"0","bbox":"57.598333,109.544722,1.933333,163.806111","page":"6025"},"conditions":{"soiltest_result":0,"north":57.598333,"west":109.544722,"south":1.933333,"east":163.806111},"success":true,"message":""},"data":{"meta":{"total":212844,"page":6025,"pages":7095,"count":30},"values":[{"id":139825,"code":"B4KJ201801002-8074","latitude":"38.09911","longitude":"140.87408","source_code":"TH57401710020","project_name":"","survey_name":"\u5e73\u62106\u5e74\u5ea6\u62bc\u5206\u5206\u6c34\u8def\u6c34\u9580\u8a73\u7d30\u8a2d\u8a08\u696d\u52d9\u59d4\u8a17","client_name":"\u56fd\u571f\u4ea4\u901a\u7701\u6771\u5317\u5730\u65b9\u6574\u5099\u5c40\u4ed9\u53f0\u6cb3\u5ddd\u56fd\u9053\u4e8b\u52d9\u6240","boring_xml_url":40,"boring_view_url":1,"soilmap_view_url":null,"soiltest_xml_url":0,"soiltest_view_url":0},{"id":139824,"code":"B4KJ201801002-8073","latitude":"38.09911","longitude":"140.87589","source_code":"TH57401710019","project_name":"","survey_name":"\u5e73\u62106\u5e74\u5ea6\u62bc\u5206\u5206\u6c34\u8def\u6c34\u9580\u8a73\u7d30\u8a2d\u8a08\u696d\u52d9\u59d4\u8a17","client_name":"\u56fd\u571f\u4ea4\u901a\u7701\u6771\u5317\u5730\u65b9\u6574\u5099\u5c40\u4ed9\u53f0\u6cb3\u5ddd\u56fd\u9053\u4e8b\u52d9\u6240","boring_xml_url":40,"boring_view_url":1,"soilmap_view_url":null,"soiltest_xml_url":0,"soiltest_view_url":0},{"id":139823,"code":"B4KJ201801002-8072","latitude":"38.09911","longitude":"140.87519","source_code":"TH57401710017","project_name":"","survey_name":"\u5e73\u62106\u5e74\u5ea6\u62bc\u5206\u5206\u6c34\u8def\u6c34\u9580\u8a73\u7d30\u8a2d\u8a08\u696d\u52d9\u59d4\u8a17","client_name":"\u56fd\u571f\u4ea4\u901a\u7701\u6771\u5317\u5730\u65b9\u6574\u5099\u5c40\u4ed9\u53f0\u6cb3\u5ddd\u56fd\u9053\u4e8b\u52d9\u6240","boring_xml_url":40,"boring_view_url":1,"soilmap_view_url":null,"soiltest_xml_url":0,"soiltest_view_url":0},{"id":139822,"code":"B4KJ201801002-8071","latitude":"38.09828","longitude":"140.87436","source_code":"TH57401710015","project_name":"","survey_name":"\u5e73\u62106\u5e74\u5ea6\u62bc\u5206\u5206\u6c34\u8def\u6c34\u9580\u8a73\u7d30\u8a2d\u8a08\u696d\u52d9\u59d4\u8a17","client_name":"\u56fd\u571f\u4ea4\u901a\u7701\u6771\u5317\u5730\u65b9\u6574\u5099\u5c40\u4ed9\u53f0\u6cb3\u5ddd\u56fd\u9053\u4e8b\u52d9\u6240","boring_xml_url":40,"boring_view_url":1,"soilmap_view_url":null,"soiltest_xml_url":0,"soiltest_view_url":0},{"id":139821,"code":"B4KJ201801002-8070","latitude":"38.09994","longitude":"140.87575","source_code":"TH57401710013","project_name":"","survey_name":"\u5e73\u62106\u5e74\u5ea6\u62bc\u5206\u5206\u6c34\u8def\u9644\u5e2f\u8a2d\u5099\u4e88\u5099\u8a2d\u8a08\u696d\u52d9\u59d4\u8a17","client_name":"\u56fd\u571f\u4ea4\u901a\u7701\u6771\u5317\u5730\u65b9\u6574\u5099\u5c40\u4ed9\u53f0\u6cb3\u5ddd\u56fd\u9053\u4e8b\u52d9\u6240","boring_xml_url":40,"boring_view_url":1,"soilmap_view_url":null,"soiltest_xml_url":0,"soiltest_view_url":0},{"id":139820,"code":"B4KJ201801002-8069","latitude":"38.09994","longitude":"140.87547","source_code":"TH57401710012","project_name":"","survey_name":"\u5e73\u62106\u5e74\u5ea6\u62bc\u5206\u5206\u6c34\u8def\u9644\u5e2f\u8a2d\u5099\u4e88\u5099\u8a2d\u8a08\u696d\u52d9\u59d4\u8a17","client_name":"\u56fd\u571f\u4ea4\u901a\u7701\u6771\u5317\u5730\u65b9\u6574\u5099\u5c40\u4ed9\u53f0\u6cb3\u5ddd\u56fd\u9053\u4e8b\u52d9\u6240","boring_xml_url":40,"boring_view_url":1,"soilmap_view_url":null,"soiltest_xml_url":0,"soiltest_view_url":0},{"id":139819,"code":"B4KJ201801002-8068","latitude":"38.09967","longitude":"140.87492","source_code":"TH57401710011","project_name":"","survey_name":"\u5e73\u62106\u5e74\u5ea6\u62bc\u5206\u5206\u6c34\u8def\u9644\u5e2f\u8a2d\u5099\u4e88\u5099\u8a2d\u8a08\u696d\u52d9\u59d4\u8a17","client_name":"\u56fd\u571f\u4ea4\u901a\u7701\u6771\u5317\u5730\u65b9\u6574\u5099\u5c40\u4ed9\u53f0\u6cb3\u5ddd\u56fd\u9053\u4e8b\u52d9\u6240","boring_xml_url":40,"boring_view_url":1,"soilmap_view_url":null,"soiltest_xml_url":0,"soiltest_view_url":0},{"id":139818,"code":"B4KJ201801002-8067","latitude":"38.09994","longitude":"140.87408","source_code":"TH57401710010","project_name":"","survey_name":"\u5e73\u62106\u5e74\u5ea6\u62bc\u5206\u5206\u6c34\u8def\u9644\u5e2f\u8a2d\u5099\u4e88\u5099\u8a2d\u8a08\u696d\u52d9\u59d4\u8a17","client_name":"\u56fd\u571f\u4ea4\u901a\u7701\u6771\u5317\u5730\u65b9\u6574\u5099\u5c40\u4ed9\u53f0\u6cb3\u5ddd\u56fd\u9053\u4e8b\u52d9\u6240","boring_xml_url":40,"boring_view_url":1,"soilmap_view_url":null,"soiltest_xml_url":0,"soiltest_view_url":0},{"id":139817,"code":"B4KJ201801002-8066","latitude":"38.09967","longitude":"140.87353","source_code":"TH57401710009","project_name":"","survey_name":"\u5e73\u62106\u5e74\u5ea6\u62bc\u5206\u5206\u6c34\u8def\u9644\u5e2f\u8a2d\u5099\u4e88\u5099\u8a2d\u8a08\u696d\u52d9\u59d4\u8a17","client_name":"\u56fd\u571f\u4ea4\u901a\u7701\u6771\u5317\u5730\u65b9\u6574\u5099\u5c40\u4ed9\u53f0\u6cb3\u5ddd\u56fd\u9053\u4e8b\u52d9\u6240","boring_xml_url":40,"boring_view_url":1,"soilmap_view_url":null,"soiltest_xml_url":0,"soiltest_view_url":0},{"id":139816,"code":"B4KJ201801002-8065","latitude":"38.09567","longitude":"140.87186","source_code":"TH57401710008","project_name":"","survey_name":"\u963f\u6b66\u9688\u6a4b\u5730\u76e4\u8abf\u67fb","client_name":"\u56fd\u571f\u4ea4\u901a\u7701\u6771\u5317\u5730\u65b9\u6574\u5099\u5c40\u4ed9\u53f0\u6cb3\u5ddd\u56fd\u9053\u4e8b\u52d9\u6240","boring_xml_url":40,"boring_view_url":1,"soilmap_view_url":null,"soiltest_xml_url":0,"soiltest_view_url":0},{"id":139815,"code":"B4KJ201801002-8064","latitude":"38.09475","longitude":"140.87203","source_code":"TH57401710007","project_name":"","survey_name":"\u963f\u6b66\u9688\u6a4b\u5730\u76e4\u8abf\u67fb","client_name":"\u56fd\u571f\u4ea4\u901a\u7701\u6771\u5317\u5730\u65b9\u6574\u5099\u5c40\u4ed9\u53f0\u6cb3\u5ddd\u56fd\u9053\u4e8b\u52d9\u6240","boring_xml_url":40,"boring_view_url":1,"soilmap_view_url":null,"soiltest_xml_url":0,"soiltest_view_url":0},{"id":139814,"code":"B4KJ201801002-8063","latitude":"38.09556","longitude":"140.88239","source_code":"TH57401710005","project_name":"","survey_name":"\u963f\u6b66\u9688\u5ddd(\u4eca\u6cc9\u5730\u533a)\u5730\u76e4\u8abf\u67fb","client_name":"\u56fd\u571f\u4ea4\u901a\u7701\u6771\u5317\u5730\u65b9\u6574\u5099\u5c40\u4ed9\u53f0\u6cb3\u5ddd\u56fd\u9053\u4e8b\u52d9\u6240","boring_xml_url":40,"boring_view_url":1,"soilmap_view_url":null,"soiltest_xml_url":0,"soiltest_view_url":0},{"id":139813,"code":"B4KJ201801002-8062","latitude":"38.09533","longitude":"140.87853","source_code":"TH57401710003","project_name":"","survey_name":"\u963f\u6b66\u9688\u5ddd(\u4eca\u6cc9\u5730\u533a)\u5730\u76e4\u8abf\u67fb","client_name":"\u56fd\u571f\u4ea4\u901a\u7701\u6771\u5317\u5730\u65b9\u6574\u5099\u5c40\u4ed9\u53f0\u6cb3\u5ddd\u56fd\u9053\u4e8b\u52d9\u6240","boring_xml_url":40,"boring_view_url":1,"soilmap_view_url":null,"soiltest_xml_url":0,"soiltest_view_url":0},{"id":139812,"code":"B4KJ201801002-8061","latitude":"38.09511","longitude":"140.87447","source_code":"TH57401710001","project_name":"","survey_name":"\u963f\u6b66\u9688\u5ddd(\u4eca\u6cc9\u5730\u533a)\u5730\u76e4\u8abf\u67fb","client_name":"\u56fd\u571f\u4ea4\u901a\u7701\u6771\u5317\u5730\u65b9\u6574\u5099\u5c40\u4ed9\u53f0\u6cb3\u5ddd\u56fd\u9053\u4e8b\u52d9\u6240","boring_xml_url":40,"boring_view_url":1,"soilmap_view_url":null,"soiltest_xml_url":0,"soiltest_view_url":0},{"id":139811,"code":"B4KJ201801002-8060","latitude":"38.09344","longitude":"140.89786","source_code":"TH57401702012","project_name":"","survey_name":"\u662d\u548c61\u5e74\u5ea6\u963f\u6b66\u9688\u5ddd\u5824\u9632\u8abf\u67fb\u696d\u52d9\u59d4\u8a17(\u5730\u76e4\u8abf\u67fb\u7de8\u5de5)","client_name":"\u56fd\u571f\u4ea4\u901a\u7701\u6771\u5317\u5730\u65b9\u6574\u5099\u5c40\u4ed9\u53f0\u6cb3\u5ddd\u56fd\u9053\u4e8b\u52d9\u6240","boring_xml_url":40,"boring_view_url":1,"soilmap_view_url":null,"soiltest_xml_url":0,"soiltest_view_url":0},{"id":139810,"code":"B4KJ201801002-8059","latitude":"38.09119","longitude":"140.9","source_code":"TH57401702011","project_name":"","survey_name":"\u662d\u548c61\u5e74\u5ea6\u963f\u6b66\u9688\u5ddd\u5824\u9632\u8abf\u67fb\u696d\u52d9\u59d4\u8a17(\u5730\u76e4\u8abf\u67fb\u7de8\u5de5)","client_name":"\u56fd\u571f\u4ea4\u901a\u7701\u6771\u5317\u5730\u65b9\u6574\u5099\u5c40\u4ed9\u53f0\u6cb3\u5ddd\u56fd\u9053\u4e8b\u52d9\u6240","boring_xml_url":40,"boring_view_url":1,"soilmap_view_url":null,"soiltest_xml_url":0,"soiltest_view_url":0},{"id":139809,"code":"B4KJ201801002-8058","latitude":"38.0905","longitude":"140.89772","source_code":"TH57401702010","project_name":"","survey_name":"\u662d\u548c61\u5e74\u5ea6\u963f\u6b66\u9688\u5ddd\u5824\u9632\u8abf\u67fb\u696d\u52d9\u59d4\u8a17(\u5730\u76e4\u8abf\u67fb\u7de8\u5de5)","client_name":"\u56fd\u571f\u4ea4\u901a\u7701\u6771\u5317\u5730\u65b9\u6574\u5099\u5c40\u4ed9\u53f0\u6cb3\u5ddd\u56fd\u9053\u4e8b\u52d9\u6240","boring_xml_url":40,"boring_view_url":1,"soilmap_view_url":null,"soiltest_xml_url":0,"soiltest_view_url":0},{"id":139808,"code":"B4KJ201801002-8057","latitude":"38.09117","longitude":"140.89744","source_code":"TH57401702008","project_name":"","survey_name":"\u963f\u6b66\u9688\u5ddd\u5824\u9632\u8abf\u67fb\u696d\u52d9\u59d4\u8a17","client_name":"\u56fd\u571f\u4ea4\u901a\u7701\u6771\u5317\u5730\u65b9\u6574\u5099\u5c40\u4ed9\u53f0\u6cb3\u5ddd\u56fd\u9053\u4e8b\u52d9\u6240","boring_xml_url":40,"boring_view_url":1,"soilmap_view_url":null,"soiltest_xml_url":0,"soiltest_view_url":0},{"id":139807,"code":"B4KJ201801002-8056","latitude":"38.09083","longitude":"140.89731","source_code":"TH57401702007","project_name":"","survey_name":"\u963f\u6b66\u9688\u5ddd\u5824\u9632\u8abf\u67fb\u696d\u52d9\u59d4\u8a17","client_name":"\u56fd\u571f\u4ea4\u901a\u7701\u6771\u5317\u5730\u65b9\u6574\u5099\u5c40\u4ed9\u53f0\u6cb3\u5ddd\u56fd\u9053\u4e8b\u52d9\u6240","boring_xml_url":40,"boring_view_url":1,"soilmap_view_url":null,"soiltest_xml_url":0,"soiltest_view_url":0},{"id":139806,"code":"B4KJ201801002-8055","latitude":"38.09061","longitude":"140.89744","source_code":"TH57401702006","project_name":"","survey_name":"\u963f\u6b66\u9688\u5ddd\u5824\u9632\u8abf\u67fb\u696d\u52d9\u59d4\u8a17","client_name":"\u56fd\u571f\u4ea4\u901a\u7701\u6771\u5317\u5730\u65b9\u6574\u5099\u5c40\u4ed9\u53f0\u6cb3\u5ddd\u56fd\u9053\u4e8b\u52d9\u6240","boring_xml_url":40,"boring_view_url":1,"soilmap_view_url":null,"soiltest_xml_url":0,"soiltest_view_url":0},{"id":139805,"code":"B4KJ201801002-8054","latitude":"38.09117","longitude":"140.89672","source_code":"TH57401702003","project_name":"","survey_name":"\u963f\u6b66\u9688\u5ddd\u5824\u9632\u8abf\u67fb\u696d\u52d9\u59d4\u8a17","client_name":"\u56fd\u571f\u4ea4\u901a\u7701\u6771\u5317\u5730\u65b9\u6574\u5099\u5c40\u4ed9\u53f0\u6cb3\u5ddd\u56fd\u9053\u4e8b\u52d9\u6240","boring_xml_url":40,"boring_view_url":1,"soilmap_view_url":null,"soiltest_xml_url":0,"soiltest_view_url":0},{"id":139804,"code":"B4KJ201801002-8053","latitude":"38.09461","longitude":"140.88803","source_code":"TH57401701009","project_name":"","survey_name":"\u662d\u548c62\u5e74\u5ea6\u4ed9\u53f0\u6771\u30d0\u30a4\u30d1\u30b91\u5de5\u533a\u5730\u76e4\u8abf\u67fb","client_name":"\u56fd\u571f\u4ea4\u901a\u7701\u6771\u5317\u5730\u65b9\u6574\u5099\u5c40\u4ed9\u53f0\u6cb3\u5ddd\u56fd\u9053\u4e8b\u52d9\u6240","boring_xml_url":40,"boring_view_url":1,"soilmap_view_url":null,"soiltest_xml_url":0,"soiltest_view_url":0},{"id":139803,"code":"B4KJ201801002-8052","latitude":"38.09294","longitude":"140.88742","source_code":"TH57401701008","project_name":"","survey_name":"\u662d\u548c62\u5e74\u5ea6\u4ed9\u53f0\u6771\u30d0\u30a4\u30d1\u30b91\u5de5\u533a\u5730\u76e4\u8abf\u67fb","client_name":"\u56fd\u571f\u4ea4\u901a\u7701\u6771\u5317\u5730\u65b9\u6574\u5099\u5c40\u4ed9\u53f0\u6cb3\u5ddd\u56fd\u9053\u4e8b\u52d9\u6240","boring_xml_url":40,"boring_view_url":1,"soilmap_view_url":null,"soiltest_xml_url":0,"soiltest_view_url":0},{"id":139802,"code":"B4KJ201801002-8051","latitude":"38.09083","longitude":"140.88686","source_code":"TH57401701007","project_name":"","survey_name":"\u662d\u548c62\u5e74\u5ea6\u4ed9\u53f0\u6771\u30d0\u30a4\u30d1\u30b91\u5de5\u533a\u5730\u76e4\u8abf\u67fb","client_name":"\u56fd\u571f\u4ea4\u901a\u7701\u6771\u5317\u5730\u65b9\u6574\u5099\u5c40\u4ed9\u53f0\u6cb3\u5ddd\u56fd\u9053\u4e8b\u52d9\u6240","boring_xml_url":40,"boring_view_url":1,"soilmap_view_url":null,"soiltest_xml_url":0,"soiltest_view_url":0},{"id":139801,"code":"B4KJ201801002-8050","latitude":"38.09389","longitude":"140.88575","source_code":"TH57401701002","project_name":"","survey_name":"\u4eca\u6cc9\u4ed64\u5730\u533a\u5b9f\u65bd\u6e2c\u91cf\u53ca\u3073\u5730\u76e4\u8abf\u67fb","client_name":"\u56fd\u571f\u4ea4\u901a\u7701\u6771\u5317\u5730\u65b9\u6574\u5099\u5c40\u4ed9\u53f0\u6cb3\u5ddd\u56fd\u9053\u4e8b\u52d9\u6240","boring_xml_url":40,"boring_view_url":1,"soilmap_view_url":null,"soiltest_xml_url":0,"soiltest_view_url":0},{"id":139800,"code":"B4KJ201801002-8049","latitude":"38.09167","longitude":"140.889","source_code":"TH57401701001","project_name":"","survey_name":"\u662d\u548c56\u5e74\u5ea6\u4eca\u6cc9\u6f0f\u6c34\u707d\u5bb3\u9632\u6b62\u8abf\u67fb","client_name":"\u56fd\u571f\u4ea4\u901a\u7701\u6771\u5317\u5730\u65b9\u6574\u5099\u5c40\u4ed9\u53f0\u6cb3\u5ddd\u56fd\u9053\u4e8b\u52d9\u6240","boring_xml_url":40,"boring_view_url":1,"soilmap_view_url":null,"soiltest_xml_url":0,"soiltest_view_url":0},{"id":139799,"code":"B4KJ201801002-8048","latitude":"38.09308","longitude":"140.87231","source_code":"TH57401700008","project_name":"","survey_name":"\u662d\u548c52\u5e74\u5ea6\u65b0\u963f\u6b66\u9688\u6a4b\u5730\u76e4\u8abf\u67fb","client_name":"\u56fd\u571f\u4ea4\u901a\u7701\u6771\u5317\u5730\u65b9\u6574\u5099\u5c40\u4ed9\u53f0\u6cb3\u5ddd\u56fd\u9053\u4e8b\u52d9\u6240","boring_xml_url":40,"boring_view_url":1,"soilmap_view_url":null,"soiltest_xml_url":0,"soiltest_view_url":0},{"id":139798,"code":"B4KJ201801002-8047","latitude":"38.08972","longitude":"140.87283","source_code":"TH57401700007","project_name":"","survey_name":"\u662d\u548c53\u5e74\u5ea6\u540d\u53d6\u5927\u6a4b\u5730\u8cea\u8abf\u67fb(\u5ca9\u6cbc\u5730\u533a)","client_name":"\u56fd\u571f\u4ea4\u901a\u7701\u6771\u5317\u5730\u65b9\u6574\u5099\u5c40\u4ed9\u53f0\u6cb3\u5ddd\u56fd\u9053\u4e8b\u52d9\u6240","boring_xml_url":40,"boring_view_url":1,"soilmap_view_url":null,"soiltest_xml_url":0,"soiltest_view_url":0},{"id":139797,"code":"B4KJ201801002-8046","latitude":"38.09397","longitude":"140.87231","source_code":"TH57401700006","project_name":"","survey_name":"\u963f\u6b66\u9688\u6a4b\u5730\u76e4\u8abf\u67fb","client_name":"\u56fd\u571f\u4ea4\u901a\u7701\u6771\u5317\u5730\u65b9\u6574\u5099\u5c40\u4ed9\u53f0\u6cb3\u5ddd\u56fd\u9053\u4e8b\u52d9\u6240","boring_xml_url":40,"boring_view_url":1,"soilmap_view_url":null,"soiltest_xml_url":0,"soiltest_view_url":0},{"id":139796,"code":"B4KJ201801002-8045","latitude":"38.09283","longitude":"140.87258","source_code":"TH57401700005","project_name":"","survey_name":"\u963f\u6b66\u9688\u6a4b\u5730\u76e4\u8abf\u67fb","client_name":"\u56fd\u571f\u4ea4\u901a\u7701\u6771\u5317\u5730\u65b9\u6574\u5099\u5c40\u4ed9\u53f0\u6cb3\u5ddd\u56fd\u9053\u4e8b\u52d9\u6240","boring_xml_url":40,"boring_view_url":1,"soilmap_view_url":null,"soiltest_xml_url":0,"soiltest_view_url":0}]}}