{"header":{"xyz":{"source":[],"mosaic":false},"page":6029,"raw":{"soiltest_result":"0","bbox":"57.598333,109.544722,1.933333,163.806111","page":"6029"},"conditions":{"soiltest_result":0,"north":57.598333,"west":109.544722,"south":1.933333,"east":163.806111},"success":true,"message":""},"data":{"meta":{"total":212844,"page":6029,"pages":7095,"count":30},"values":[{"id":139705,"code":"B4KJ201801002-7954","latitude":"38.07825","longitude":"140.84814","source_code":"TH57400698002","project_name":"","survey_name":"\u5c0f\u5c71\u5730\u533a\u5b9f\u65bd\u6e2c\u91cf\u53ca\u3073\u5730\u76e4\u8abf\u67fb","client_name":"\u56fd\u571f\u4ea4\u901a\u7701\u6771\u5317\u5730\u65b9\u6574\u5099\u5c40\u4ed9\u53f0\u6cb3\u5ddd\u56fd\u9053\u4e8b\u52d9\u6240","boring_xml_url":40,"boring_view_url":1,"soilmap_view_url":null,"soiltest_xml_url":0,"soiltest_view_url":0},{"id":139704,"code":"B4KJ201801002-7953","latitude":"38.07839","longitude":"140.84825","source_code":"TH57400698001","project_name":"","survey_name":"\u5c0f\u5c71\u5730\u533a\u5b9f\u65bd\u6e2c\u91cf\u53ca\u3073\u5730\u76e4\u8abf\u67fb","client_name":"\u56fd\u571f\u4ea4\u901a\u7701\u6771\u5317\u5730\u65b9\u6574\u5099\u5c40\u4ed9\u53f0\u6cb3\u5ddd\u56fd\u9053\u4e8b\u52d9\u6240","boring_xml_url":40,"boring_view_url":1,"soilmap_view_url":null,"soiltest_xml_url":0,"soiltest_view_url":0},{"id":139703,"code":"B4KJ201801002-7952","latitude":"38.08364","longitude":"140.83436","source_code":"TH57400697007","project_name":"","survey_name":"\u662d\u548c52\u5e74\u5ea6\u963f\u6b66\u9688\u5ddd\u5824\u9632\u8abf\u67fb","client_name":"\u56fd\u571f\u4ea4\u901a\u7701\u6771\u5317\u5730\u65b9\u6574\u5099\u5c40\u4ed9\u53f0\u6cb3\u5ddd\u56fd\u9053\u4e8b\u52d9\u6240","boring_xml_url":40,"boring_view_url":1,"soilmap_view_url":null,"soiltest_xml_url":0,"soiltest_view_url":0},{"id":139702,"code":"B4KJ201801002-7951","latitude":"38.08053","longitude":"140.83547","source_code":"TH57400697006","project_name":"","survey_name":"\u5c0f\u5c71\u5730\u533a\u5b9f\u65bd\u6e2c\u91cf\u53ca\u3073\u5730\u76e4\u8abf\u67fb","client_name":"\u56fd\u571f\u4ea4\u901a\u7701\u6771\u5317\u5730\u65b9\u6574\u5099\u5c40\u4ed9\u53f0\u6cb3\u5ddd\u56fd\u9053\u4e8b\u52d9\u6240","boring_xml_url":40,"boring_view_url":1,"soilmap_view_url":null,"soiltest_xml_url":0,"soiltest_view_url":0},{"id":139701,"code":"B4KJ201801002-7950","latitude":"38.07972","longitude":"140.83842","source_code":"TH57400697005","project_name":"","survey_name":"\u5c0f\u5c71\u5730\u533a\u5b9f\u65bd\u6e2c\u91cf\u53ca\u3073\u5730\u76e4\u8abf\u67fb","client_name":"\u56fd\u571f\u4ea4\u901a\u7701\u6771\u5317\u5730\u65b9\u6574\u5099\u5c40\u4ed9\u53f0\u6cb3\u5ddd\u56fd\u9053\u4e8b\u52d9\u6240","boring_xml_url":40,"boring_view_url":1,"soilmap_view_url":null,"soiltest_xml_url":0,"soiltest_view_url":0},{"id":139700,"code":"B4KJ201801002-7949","latitude":"38.08011","longitude":"140.83986","source_code":"TH57400697003","project_name":"","survey_name":"\u5c0f\u5c71\u5730\u533a\u5b9f\u65bd\u6e2c\u91cf\u53ca\u3073\u5730\u76e4\u8abf\u67fb","client_name":"\u56fd\u571f\u4ea4\u901a\u7701\u6771\u5317\u5730\u65b9\u6574\u5099\u5c40\u4ed9\u53f0\u6cb3\u5ddd\u56fd\u9053\u4e8b\u52d9\u6240","boring_xml_url":40,"boring_view_url":1,"soilmap_view_url":null,"soiltest_xml_url":0,"soiltest_view_url":0},{"id":139699,"code":"B4KJ201801002-7948","latitude":"38.07822","longitude":"140.84325","source_code":"TH57400697002","project_name":"","survey_name":"\u662d\u548c52\u5e74\u5ea6\u963f\u6b66\u9688\u5ddd\u5824\u9632\u8abf\u67fb","client_name":"\u56fd\u571f\u4ea4\u901a\u7701\u6771\u5317\u5730\u65b9\u6574\u5099\u5c40\u4ed9\u53f0\u6cb3\u5ddd\u56fd\u9053\u4e8b\u52d9\u6240","boring_xml_url":40,"boring_view_url":1,"soilmap_view_url":null,"soiltest_xml_url":0,"soiltest_view_url":0},{"id":139698,"code":"B4KJ201801002-7947","latitude":"38.07867","longitude":"140.84297","source_code":"TH57400697001","project_name":"","survey_name":"\u662d\u548c52\u5e74\u5ea6\u963f\u6b66\u9688\u5ddd\u5824\u9632\u8abf\u67fb","client_name":"\u56fd\u571f\u4ea4\u901a\u7701\u6771\u5317\u5730\u65b9\u6574\u5099\u5c40\u4ed9\u53f0\u6cb3\u5ddd\u56fd\u9053\u4e8b\u52d9\u6240","boring_xml_url":40,"boring_view_url":1,"soilmap_view_url":null,"soiltest_xml_url":0,"soiltest_view_url":0},{"id":139697,"code":"B4KJ201801002-7946","latitude":"38.08228","longitude":"140.83019","source_code":"TH57400696001","project_name":"","survey_name":"\u662d\u548c52\u5e74\u5ea6\u963f\u6b66\u9688\u5ddd\u5824\u9632\u8abf\u67fb","client_name":"\u56fd\u571f\u4ea4\u901a\u7701\u6771\u5317\u5730\u65b9\u6574\u5099\u5c40\u4ed9\u53f0\u6cb3\u5ddd\u56fd\u9053\u4e8b\u52d9\u6240","boring_xml_url":40,"boring_view_url":1,"soilmap_view_url":null,"soiltest_xml_url":0,"soiltest_view_url":0},{"id":139696,"code":"B4KJ201801002-7945","latitude":"38.07694","longitude":"140.86136","source_code":"TH57400689002","project_name":"","survey_name":"\u662d\u548c53\u5e74\u5ea6\u5927\u5830\u5730\u76e4\u8abf\u67fb\u30fb\u6e2c\u91cf\u30fb\u8a2d\u8a08\u696d\u52d9\u59d4\u8a17","client_name":"\u56fd\u571f\u4ea4\u901a\u7701\u6771\u5317\u5730\u65b9\u6574\u5099\u5c40\u4ed9\u53f0\u6cb3\u5ddd\u56fd\u9053\u4e8b\u52d9\u6240","boring_xml_url":40,"boring_view_url":1,"soilmap_view_url":null,"soiltest_xml_url":0,"soiltest_view_url":0},{"id":139695,"code":"B4KJ201801002-7944","latitude":"38.07706","longitude":"140.86172","source_code":"TH57400689001","project_name":"","survey_name":"\u662d\u548c53\u5e74\u5ea6\u5927\u5830\u5730\u76e4\u8abf\u67fb\u30fb\u6e2c\u91cf\u30fb\u8a2d\u8a08\u696d\u52d9\u59d4\u8a17","client_name":"\u56fd\u571f\u4ea4\u901a\u7701\u6771\u5317\u5730\u65b9\u6574\u5099\u5c40\u4ed9\u53f0\u6cb3\u5ddd\u56fd\u9053\u4e8b\u52d9\u6240","boring_xml_url":40,"boring_view_url":1,"soilmap_view_url":null,"soiltest_xml_url":0,"soiltest_view_url":0},{"id":139694,"code":"B4KJ201801002-7943","latitude":"38.07778","longitude":"140.82506","source_code":"TH57400686001","project_name":"","survey_name":"\u9022\u9688\u305d\u306e\u4ed62\u533a\u5730\u76e4\u8abf\u67fb","client_name":"\u56fd\u571f\u4ea4\u901a\u7701\u6771\u5317\u5730\u65b9\u6574\u5099\u5c40\u4ed9\u53f0\u6cb3\u5ddd\u56fd\u9053\u4e8b\u52d9\u6240","boring_xml_url":40,"boring_view_url":1,"soilmap_view_url":null,"soiltest_xml_url":0,"soiltest_view_url":0},{"id":139693,"code":"B4KJ201801002-7942","latitude":"38.07033","longitude":"140.81131","source_code":"TH57400685006","project_name":"","survey_name":"\u662d\u548c52\u5e74\u5ea6\u963f\u6b66\u9688\u5ddd\u5824\u9632\u8abf\u67fb","client_name":"\u56fd\u571f\u4ea4\u901a\u7701\u6771\u5317\u5730\u65b9\u6574\u5099\u5c40\u4ed9\u53f0\u6cb3\u5ddd\u56fd\u9053\u4e8b\u52d9\u6240","boring_xml_url":40,"boring_view_url":1,"soilmap_view_url":null,"soiltest_xml_url":0,"soiltest_view_url":0},{"id":139692,"code":"B4KJ201801002-7941","latitude":"38.07125","longitude":"140.81325","source_code":"TH57400685005","project_name":"","survey_name":"\u662d\u548c52\u5e74\u5ea6\u963f\u6b66\u9688\u5ddd\u5824\u9632\u8abf\u67fb","client_name":"\u56fd\u571f\u4ea4\u901a\u7701\u6771\u5317\u5730\u65b9\u6574\u5099\u5c40\u4ed9\u53f0\u6cb3\u5ddd\u56fd\u9053\u4e8b\u52d9\u6240","boring_xml_url":40,"boring_view_url":1,"soilmap_view_url":null,"soiltest_xml_url":0,"soiltest_view_url":0},{"id":139691,"code":"B4KJ201801002-7940","latitude":"38.07239","longitude":"140.81464","source_code":"TH57400685004","project_name":"","survey_name":"\u662d\u548c52\u5e74\u5ea6\u963f\u6b66\u9688\u5ddd\u5824\u9632\u8abf\u67fb","client_name":"\u56fd\u571f\u4ea4\u901a\u7701\u6771\u5317\u5730\u65b9\u6574\u5099\u5c40\u4ed9\u53f0\u6cb3\u5ddd\u56fd\u9053\u4e8b\u52d9\u6240","boring_xml_url":40,"boring_view_url":1,"soilmap_view_url":null,"soiltest_xml_url":0,"soiltest_view_url":0},{"id":139690,"code":"B4KJ201801002-7939","latitude":"38.07372","longitude":"140.81603","source_code":"TH57400685003","project_name":"","survey_name":"\u662d\u548c52\u5e74\u5ea6\u963f\u6b66\u9688\u5ddd\u5824\u9632\u8abf\u67fb","client_name":"\u56fd\u571f\u4ea4\u901a\u7701\u6771\u5317\u5730\u65b9\u6574\u5099\u5c40\u4ed9\u53f0\u6cb3\u5ddd\u56fd\u9053\u4e8b\u52d9\u6240","boring_xml_url":40,"boring_view_url":1,"soilmap_view_url":null,"soiltest_xml_url":0,"soiltest_view_url":0},{"id":139689,"code":"B4KJ201801002-7938","latitude":"38.07531","longitude":"140.81714","source_code":"TH57400685002","project_name":"","survey_name":"\u662d\u548c52\u5e74\u5ea6\u963f\u6b66\u9688\u5ddd\u5824\u9632\u8abf\u67fb","client_name":"\u56fd\u571f\u4ea4\u901a\u7701\u6771\u5317\u5730\u65b9\u6574\u5099\u5c40\u4ed9\u53f0\u6cb3\u5ddd\u56fd\u9053\u4e8b\u52d9\u6240","boring_xml_url":40,"boring_view_url":1,"soilmap_view_url":null,"soiltest_xml_url":0,"soiltest_view_url":0},{"id":139688,"code":"B4KJ201801002-7937","latitude":"38.07667","longitude":"140.81853","source_code":"TH57400685001","project_name":"","survey_name":"\u662d\u548c52\u5e74\u5ea6\u963f\u6b66\u9688\u5ddd\u5824\u9632\u8abf\u67fb","client_name":"\u56fd\u571f\u4ea4\u901a\u7701\u6771\u5317\u5730\u65b9\u6574\u5099\u5c40\u4ed9\u53f0\u6cb3\u5ddd\u56fd\u9053\u4e8b\u52d9\u6240","boring_xml_url":40,"boring_view_url":1,"soilmap_view_url":null,"soiltest_xml_url":0,"soiltest_view_url":0},{"id":139687,"code":"B4KJ201801002-7936","latitude":"38.07203","longitude":"140.79917","source_code":"TH57400684040","project_name":"","survey_name":"\u67f4\u7530B\u30fbP\u5730\u3059\u3079\u308a\u6e2c\u5b9a\u8abf\u67fb","client_name":"\u56fd\u571f\u4ea4\u901a\u7701\u6771\u5317\u5730\u65b9\u6574\u5099\u5c40\u4ed9\u53f0\u6cb3\u5ddd\u56fd\u9053\u4e8b\u52d9\u6240","boring_xml_url":40,"boring_view_url":1,"soilmap_view_url":null,"soiltest_xml_url":0,"soiltest_view_url":0},{"id":139686,"code":"B4KJ201801002-7935","latitude":"38.07169","longitude":"140.79744","source_code":"TH57400684039","project_name":"","survey_name":"\u67f4\u7530B\u30fbP\u5730\u3059\u3079\u308a\u6e2c\u5b9a\u8abf\u67fb","client_name":"\u56fd\u571f\u4ea4\u901a\u7701\u6771\u5317\u5730\u65b9\u6574\u5099\u5c40\u4ed9\u53f0\u6cb3\u5ddd\u56fd\u9053\u4e8b\u52d9\u6240","boring_xml_url":40,"boring_view_url":1,"soilmap_view_url":null,"soiltest_xml_url":0,"soiltest_view_url":0},{"id":139685,"code":"B4KJ201801002-7934","latitude":"38.07075","longitude":"140.80481","source_code":"TH57400684038","project_name":"","survey_name":"\u69fb\u6728\u3053\u7dda\u6a4b\u5730\u76e4\u8abf\u67fb\u7b2c2","client_name":"\u56fd\u571f\u4ea4\u901a\u7701\u6771\u5317\u5730\u65b9\u6574\u5099\u5c40\u4ed9\u53f0\u6cb3\u5ddd\u56fd\u9053\u4e8b\u52d9\u6240","boring_xml_url":40,"boring_view_url":1,"soilmap_view_url":null,"soiltest_xml_url":0,"soiltest_view_url":0},{"id":139684,"code":"B4KJ201801002-7933","latitude":"38.07044","longitude":"140.8055","source_code":"TH57400684037","project_name":"","survey_name":"\u69fb\u6728\u3053\u7dda\u6a4b\u5730\u76e4\u8abf\u67fb\u7b2c2","client_name":"\u56fd\u571f\u4ea4\u901a\u7701\u6771\u5317\u5730\u65b9\u6574\u5099\u5c40\u4ed9\u53f0\u6cb3\u5ddd\u56fd\u9053\u4e8b\u52d9\u6240","boring_xml_url":40,"boring_view_url":1,"soilmap_view_url":null,"soiltest_xml_url":0,"soiltest_view_url":0},{"id":139683,"code":"B4KJ201801002-7932","latitude":"38.07075","longitude":"140.80778","source_code":"TH57400684036","project_name":"","survey_name":"\u69fb\u6728\u3053\u7dda\u6a4b\u5730\u76e4\u8abf\u67fb\u7b2c2","client_name":"\u56fd\u571f\u4ea4\u901a\u7701\u6771\u5317\u5730\u65b9\u6574\u5099\u5c40\u4ed9\u53f0\u6cb3\u5ddd\u56fd\u9053\u4e8b\u52d9\u6240","boring_xml_url":40,"boring_view_url":1,"soilmap_view_url":null,"soiltest_xml_url":0,"soiltest_view_url":0},{"id":139682,"code":"B4KJ201801002-7931","latitude":"38.07033","longitude":"140.80722","source_code":"TH57400684035","project_name":"","survey_name":"\u69fb\u6728\u3053\u7dda\u6a4b\u5730\u76e4\u8abf\u67fb\u7b2c2","client_name":"\u56fd\u571f\u4ea4\u901a\u7701\u6771\u5317\u5730\u65b9\u6574\u5099\u5c40\u4ed9\u53f0\u6cb3\u5ddd\u56fd\u9053\u4e8b\u52d9\u6240","boring_xml_url":40,"boring_view_url":1,"soilmap_view_url":null,"soiltest_xml_url":0,"soiltest_view_url":0},{"id":139681,"code":"B4KJ201801002-7930","latitude":"38.07061","longitude":"140.80681","source_code":"TH57400684034","project_name":"","survey_name":"\u69fb\u6728\u3053\u7dda\u6a4b\u5730\u76e4\u8abf\u67fb\u7b2c2","client_name":"\u56fd\u571f\u4ea4\u901a\u7701\u6771\u5317\u5730\u65b9\u6574\u5099\u5c40\u4ed9\u53f0\u6cb3\u5ddd\u56fd\u9053\u4e8b\u52d9\u6240","boring_xml_url":40,"boring_view_url":1,"soilmap_view_url":null,"soiltest_xml_url":0,"soiltest_view_url":0},{"id":139680,"code":"B4KJ201801002-7929","latitude":"38.07033","longitude":"140.80606","source_code":"TH57400684033","project_name":"","survey_name":"\u69fb\u6728\u3053\u7dda\u6a4b\u5730\u76e4\u8abf\u67fb\u7b2c2","client_name":"\u56fd\u571f\u4ea4\u901a\u7701\u6771\u5317\u5730\u65b9\u6574\u5099\u5c40\u4ed9\u53f0\u6cb3\u5ddd\u56fd\u9053\u4e8b\u52d9\u6240","boring_xml_url":40,"boring_view_url":1,"soilmap_view_url":null,"soiltest_xml_url":0,"soiltest_view_url":0},{"id":139679,"code":"B4KJ201801002-7928","latitude":"38.07044","longitude":"140.80439","source_code":"TH57400684032","project_name":"","survey_name":"\u69fb\u6728\u3053\u7dda\u6a4b\u5730\u76e4\u8abf\u67fb\u7b2c2","client_name":"\u56fd\u571f\u4ea4\u901a\u7701\u6771\u5317\u5730\u65b9\u6574\u5099\u5c40\u4ed9\u53f0\u6cb3\u5ddd\u56fd\u9053\u4e8b\u52d9\u6240","boring_xml_url":40,"boring_view_url":1,"soilmap_view_url":null,"soiltest_xml_url":0,"soiltest_view_url":0},{"id":139678,"code":"B4KJ201801002-7927","latitude":"38.07075","longitude":"140.80439","source_code":"TH57400684031","project_name":"","survey_name":"\u69fb\u6728\u3053\u7dda\u6a4b\u5730\u76e4\u8abf\u67fb\u7b2c2","client_name":"\u56fd\u571f\u4ea4\u901a\u7701\u6771\u5317\u5730\u65b9\u6574\u5099\u5c40\u4ed9\u53f0\u6cb3\u5ddd\u56fd\u9053\u4e8b\u52d9\u6240","boring_xml_url":40,"boring_view_url":1,"soilmap_view_url":null,"soiltest_xml_url":0,"soiltest_view_url":0},{"id":139677,"code":"B4KJ201801002-7926","latitude":"38.07033","longitude":"140.80531","source_code":"TH57400684030","project_name":"","survey_name":"\u69fb\u6728\u3053\u7dda\u6a4b\u5730\u76e4\u8abf\u67fb\u7b2c2","client_name":"\u56fd\u571f\u4ea4\u901a\u7701\u6771\u5317\u5730\u65b9\u6574\u5099\u5c40\u4ed9\u53f0\u6cb3\u5ddd\u56fd\u9053\u4e8b\u52d9\u6240","boring_xml_url":40,"boring_view_url":1,"soilmap_view_url":null,"soiltest_xml_url":0,"soiltest_view_url":0},{"id":139676,"code":"B4KJ201801002-7925","latitude":"38.07044","longitude":"140.80481","source_code":"TH57400684029","project_name":"","survey_name":"\u69fb\u6728\u3053\u7dda\u6a4b\u5730\u76e4\u8abf\u67fb\u7b2c2","client_name":"\u56fd\u571f\u4ea4\u901a\u7701\u6771\u5317\u5730\u65b9\u6574\u5099\u5c40\u4ed9\u53f0\u6cb3\u5ddd\u56fd\u9053\u4e8b\u52d9\u6240","boring_xml_url":40,"boring_view_url":1,"soilmap_view_url":null,"soiltest_xml_url":0,"soiltest_view_url":0}]}}