{"header":{"xyz":{"source":[],"mosaic":false},"page":6031,"raw":{"soiltest_result":"0","bbox":"57.598333,109.544722,1.933333,163.806111","page":"6031"},"conditions":{"soiltest_result":0,"north":57.598333,"west":109.544722,"south":1.933333,"east":163.806111},"success":true,"message":""},"data":{"meta":{"total":212844,"page":6031,"pages":7095,"count":30},"values":[{"id":139645,"code":"B4KJ201801002-7894","latitude":"38.07033","longitude":"140.78667","source_code":"TH57400683010","project_name":"","survey_name":"\u67f4\u7530B\u30fbP\u5730\u3059\u3079\u308a\u6e2c\u5b9a\u8abf\u67fb","client_name":"\u56fd\u571f\u4ea4\u901a\u7701\u6771\u5317\u5730\u65b9\u6574\u5099\u5c40\u4ed9\u53f0\u6cb3\u5ddd\u56fd\u9053\u4e8b\u52d9\u6240","boring_xml_url":40,"boring_view_url":1,"soilmap_view_url":null,"soiltest_xml_url":0,"soiltest_view_url":0},{"id":139644,"code":"B4KJ201801002-7893","latitude":"38.07114","longitude":"140.78667","source_code":"TH57400683009","project_name":"","survey_name":"\u67f4\u7530B\u30fbP\u5730\u3059\u3079\u308a\u6e2c\u5b9a\u8abf\u67fb","client_name":"\u56fd\u571f\u4ea4\u901a\u7701\u6771\u5317\u5730\u65b9\u6574\u5099\u5c40\u4ed9\u53f0\u6cb3\u5ddd\u56fd\u9053\u4e8b\u52d9\u6240","boring_xml_url":40,"boring_view_url":1,"soilmap_view_url":null,"soiltest_xml_url":0,"soiltest_view_url":0},{"id":139643,"code":"B4KJ201801002-7892","latitude":"38.07169","longitude":"140.78681","source_code":"TH57400683008","project_name":"","survey_name":"\u67f4\u7530B\u30fbP\u5730\u3059\u3079\u308a\u6e2c\u5b9a\u8abf\u67fb","client_name":"\u56fd\u571f\u4ea4\u901a\u7701\u6771\u5317\u5730\u65b9\u6574\u5099\u5c40\u4ed9\u53f0\u6cb3\u5ddd\u56fd\u9053\u4e8b\u52d9\u6240","boring_xml_url":40,"boring_view_url":1,"soilmap_view_url":null,"soiltest_xml_url":0,"soiltest_view_url":0},{"id":139642,"code":"B4KJ201801002-7891","latitude":"38.07114","longitude":"140.79514","source_code":"TH57400683007","project_name":"","survey_name":"\u67f4\u7530B\u30fbP\u5730\u3059\u3079\u308a\u6e2c\u5b9a\u8abf\u67fb","client_name":"\u56fd\u571f\u4ea4\u901a\u7701\u6771\u5317\u5730\u65b9\u6574\u5099\u5c40\u4ed9\u53f0\u6cb3\u5ddd\u56fd\u9053\u4e8b\u52d9\u6240","boring_xml_url":40,"boring_view_url":1,"soilmap_view_url":null,"soiltest_xml_url":0,"soiltest_view_url":0},{"id":139641,"code":"B4KJ201801002-7890","latitude":"38.07147","longitude":"140.79314","source_code":"TH57400683006","project_name":"","survey_name":"\u67f4\u7530B\u30fbP\u5730\u3059\u3079\u308a\u6e2c\u5b9a\u8abf\u67fb","client_name":"\u56fd\u571f\u4ea4\u901a\u7701\u6771\u5317\u5730\u65b9\u6574\u5099\u5c40\u4ed9\u53f0\u6cb3\u5ddd\u56fd\u9053\u4e8b\u52d9\u6240","boring_xml_url":40,"boring_view_url":1,"soilmap_view_url":null,"soiltest_xml_url":0,"soiltest_view_url":0},{"id":139640,"code":"B4KJ201801002-7889","latitude":"38.07214","longitude":"140.79314","source_code":"TH57400683005","project_name":"","survey_name":"\u67f4\u7530B\u30fbP\u5730\u3059\u3079\u308a\u6e2c\u5b9a\u8abf\u67fb","client_name":"\u56fd\u571f\u4ea4\u901a\u7701\u6771\u5317\u5730\u65b9\u6574\u5099\u5c40\u4ed9\u53f0\u6cb3\u5ddd\u56fd\u9053\u4e8b\u52d9\u6240","boring_xml_url":40,"boring_view_url":1,"soilmap_view_url":null,"soiltest_xml_url":0,"soiltest_view_url":0},{"id":139639,"code":"B4KJ201801002-7888","latitude":"38.07092","longitude":"140.79486","source_code":"TH57400683004","project_name":"","survey_name":"\u67f4\u7530B\u30fbP\u5730\u3059\u3079\u308a\u6e2c\u5b9a\u8abf\u67fb","client_name":"\u56fd\u571f\u4ea4\u901a\u7701\u6771\u5317\u5730\u65b9\u6574\u5099\u5c40\u4ed9\u53f0\u6cb3\u5ddd\u56fd\u9053\u4e8b\u52d9\u6240","boring_xml_url":40,"boring_view_url":1,"soilmap_view_url":null,"soiltest_xml_url":0,"soiltest_view_url":0},{"id":139638,"code":"B4KJ201801002-7887","latitude":"38.07125","longitude":"140.794","source_code":"TH57400683002","project_name":"","survey_name":"\u67f4\u7530B\u30fbP\u5730\u3059\u3079\u308a\u6e2c\u5b9a\u8abf\u67fb","client_name":"\u56fd\u571f\u4ea4\u901a\u7701\u6771\u5317\u5730\u65b9\u6574\u5099\u5c40\u4ed9\u53f0\u6cb3\u5ddd\u56fd\u9053\u4e8b\u52d9\u6240","boring_xml_url":40,"boring_view_url":1,"soilmap_view_url":null,"soiltest_xml_url":0,"soiltest_view_url":0},{"id":139637,"code":"B4KJ201801002-7886","latitude":"38.07067","longitude":"140.79372","source_code":"TH57400683001","project_name":"","survey_name":"\u67f4\u7530B\u30fbP\u5730\u3059\u3079\u308a\u6e2c\u5b9a\u8abf\u67fb","client_name":"\u56fd\u571f\u4ea4\u901a\u7701\u6771\u5317\u5730\u65b9\u6574\u5099\u5c40\u4ed9\u53f0\u6cb3\u5ddd\u56fd\u9053\u4e8b\u52d9\u6240","boring_xml_url":40,"boring_view_url":1,"soilmap_view_url":null,"soiltest_xml_url":0,"soiltest_view_url":0},{"id":139636,"code":"B4KJ201801002-7885","latitude":"38.06947","longitude":"140.80992","source_code":"TH57400675001","project_name":"","survey_name":"\u662d\u548c52\u5e74\u5ea6\u963f\u6b66\u9688\u5ddd\u5824\u9632\u8abf\u67fb","client_name":"\u56fd\u571f\u4ea4\u901a\u7701\u6771\u5317\u5730\u65b9\u6574\u5099\u5c40\u4ed9\u53f0\u6cb3\u5ddd\u56fd\u9053\u4e8b\u52d9\u6240","boring_xml_url":40,"boring_view_url":1,"soilmap_view_url":null,"soiltest_xml_url":0,"soiltest_view_url":0},{"id":139635,"code":"B4KJ201801002-7884","latitude":"38.06922","longitude":"140.80353","source_code":"TH57400674001","project_name":"","survey_name":"\u963f\u6b66\u9688\u5ddd\u4e0b\u6d41\u6cb3\u5ddd\u6e2c\u91cf\u53ca\u3073\u795e\u660e\u6a0b\u7ba1\u5730\u76e4\u8abf\u67fb\u7b49\u696d\u52d9\u59d4\u8a17","client_name":"\u56fd\u571f\u4ea4\u901a\u7701\u6771\u5317\u5730\u65b9\u6574\u5099\u5c40\u4ed9\u53f0\u6cb3\u5ddd\u56fd\u9053\u4e8b\u52d9\u6240","boring_xml_url":40,"boring_view_url":1,"soilmap_view_url":null,"soiltest_xml_url":0,"soiltest_view_url":0},{"id":139634,"code":"B4KJ201801002-7883","latitude":"38.06892","longitude":"140.79336","source_code":"TH57400673001","project_name":"","survey_name":"\u571f\u5e73\u5730\u533a\u69cb\u9020\u7269\u8a2d\u8a08\u696d\u52d9","client_name":"\u56fd\u571f\u4ea4\u901a\u7701\u6771\u5317\u5730\u65b9\u6574\u5099\u5c40\u4ed9\u53f0\u6cb3\u5ddd\u56fd\u9053\u4e8b\u52d9\u6240","boring_xml_url":40,"boring_view_url":1,"soilmap_view_url":null,"soiltest_xml_url":0,"soiltest_view_url":0},{"id":139633,"code":"B4KJ201801002-7882","latitude":"38.05961","longitude":"140.75128","source_code":"TH57400660004","project_name":"","survey_name":"\u67f4\u7530\u30d0\u30a4\u30d1\u30b9\u97ee\u795e\u6a4b\u5730\u76e4\u8abf\u67fb","client_name":"\u56fd\u571f\u4ea4\u901a\u7701\u6771\u5317\u5730\u65b9\u6574\u5099\u5c40\u4ed9\u53f0\u6cb3\u5ddd\u56fd\u9053\u4e8b\u52d9\u6240","boring_xml_url":40,"boring_view_url":1,"soilmap_view_url":null,"soiltest_xml_url":0,"soiltest_view_url":0},{"id":139632,"code":"B4KJ201801002-7881","latitude":"38.06092","longitude":"140.74769","source_code":"TH57400660003","project_name":"","survey_name":"\u662d\u548c54\u5e74\u5ea6\u67f4\u7530\u30d0\u30a4\u30d1\u30b9\u97ee\u795e\u6a4b\u5730\u76e4\u8abf\u67fb","client_name":"\u56fd\u571f\u4ea4\u901a\u7701\u6771\u5317\u5730\u65b9\u6574\u5099\u5c40\u4ed9\u53f0\u6cb3\u5ddd\u56fd\u9053\u4e8b\u52d9\u6240","boring_xml_url":40,"boring_view_url":1,"soilmap_view_url":null,"soiltest_xml_url":0,"soiltest_view_url":0},{"id":139631,"code":"B4KJ201801002-7880","latitude":"38.06092","longitude":"140.75103","source_code":"TH57400660002","project_name":"","survey_name":"\u662d\u548c54\u5e74\u5ea6\u67f4\u7530\u30d0\u30a4\u30d1\u30b9\u97ee\u795e\u6a4b\u5730\u76e4\u8abf\u67fb","client_name":"\u56fd\u571f\u4ea4\u901a\u7701\u6771\u5317\u5730\u65b9\u6574\u5099\u5c40\u4ed9\u53f0\u6cb3\u5ddd\u56fd\u9053\u4e8b\u52d9\u6240","boring_xml_url":40,"boring_view_url":1,"soilmap_view_url":null,"soiltest_xml_url":0,"soiltest_view_url":0},{"id":139630,"code":"B4KJ201801002-7879","latitude":"38.05978","longitude":"140.75103","source_code":"TH57400660001","project_name":"","survey_name":"\u662d\u548c54\u5e74\u5ea6\u67f4\u7530\u30d0\u30a4\u30d1\u30b9\u97ee\u795e\u6a4b\u5730\u76e4\u8abf\u67fb","client_name":"\u56fd\u571f\u4ea4\u901a\u7701\u6771\u5317\u5730\u65b9\u6574\u5099\u5c40\u4ed9\u53f0\u6cb3\u5ddd\u56fd\u9053\u4e8b\u52d9\u6240","boring_xml_url":40,"boring_view_url":1,"soilmap_view_url":null,"soiltest_xml_url":0,"soiltest_view_url":0},{"id":139629,"code":"B4KJ201801002-7878","latitude":"38.02011","longitude":"140.81269","source_code":"TH57400625003","project_name":"","survey_name":"\u662d\u548c56\u5e74\u5ea6\u4e0a\u53f0\u6392\u6c34\u6a0b\u7ba1\u5b9f\u65bd\u8a2d\u8a08\u696d\u52d9\u59d4\u8a17","client_name":"\u56fd\u571f\u4ea4\u901a\u7701\u6771\u5317\u5730\u65b9\u6574\u5099\u5c40\u4ed9\u53f0\u6cb3\u5ddd\u56fd\u9053\u4e8b\u52d9\u6240","boring_xml_url":40,"boring_view_url":1,"soilmap_view_url":null,"soiltest_xml_url":0,"soiltest_view_url":0},{"id":139628,"code":"B4KJ201801002-7877","latitude":"38.02011","longitude":"140.81269","source_code":"TH57400625002","project_name":"","survey_name":"\u662d\u548c56\u5e74\u5ea6\u4e0a\u53f0\u6392\u6c34\u6a0b\u7ba1\u5b9f\u65bd\u8a2d\u8a08\u696d\u52d9\u59d4\u8a17","client_name":"\u56fd\u571f\u4ea4\u901a\u7701\u6771\u5317\u5730\u65b9\u6574\u5099\u5c40\u4ed9\u53f0\u6cb3\u5ddd\u56fd\u9053\u4e8b\u52d9\u6240","boring_xml_url":40,"boring_view_url":1,"soilmap_view_url":null,"soiltest_xml_url":0,"soiltest_view_url":0},{"id":139627,"code":"B4KJ201801002-7876","latitude":"38.02011","longitude":"140.81269","source_code":"TH57400625001","project_name":"","survey_name":"\u662d\u548c56\u5e74\u5ea6\u4e0a\u53f0\u6392\u6c34\u6a0b\u7ba1\u5b9f\u65bd\u8a2d\u8a08\u696d\u52d9\u59d4\u8a17","client_name":"\u56fd\u571f\u4ea4\u901a\u7701\u6771\u5317\u5730\u65b9\u6574\u5099\u5c40\u4ed9\u53f0\u6cb3\u5ddd\u56fd\u9053\u4e8b\u52d9\u6240","boring_xml_url":40,"boring_view_url":1,"soilmap_view_url":null,"soiltest_xml_url":0,"soiltest_view_url":0},{"id":139626,"code":"B4KJ201801002-7875","latitude":"38.02383","longitude":"140.80283","source_code":"TH57400624001","project_name":"","survey_name":"\u662d\u548c61\u5e74\u5ea6\u5824\u9632\u958b\u524a\u7b87\u6240\u5824\u4f53\u571f\u8cea\u8abf\u67fb","client_name":"\u56fd\u571f\u4ea4\u901a\u7701\u6771\u5317\u5730\u65b9\u6574\u5099\u5c40\u4ed9\u53f0\u6cb3\u5ddd\u56fd\u9053\u4e8b\u52d9\u6240","boring_xml_url":40,"boring_view_url":1,"soilmap_view_url":null,"soiltest_xml_url":0,"soiltest_view_url":0},{"id":139625,"code":"B4KJ201801002-7874","latitude":"38.0635","longitude":"140.74353","source_code":"TH57400579005","project_name":"","survey_name":"\u97ee\u795e\u5730\u533a\u5730\u76e4\u8abf\u67fb","client_name":"\u56fd\u571f\u4ea4\u901a\u7701\u6771\u5317\u5730\u65b9\u6574\u5099\u5c40\u4ed9\u53f0\u6cb3\u5ddd\u56fd\u9053\u4e8b\u52d9\u6240","boring_xml_url":40,"boring_view_url":1,"soilmap_view_url":null,"soiltest_xml_url":0,"soiltest_view_url":0},{"id":139624,"code":"B4KJ201801002-7873","latitude":"38.06283","longitude":"140.74172","source_code":"TH57400579003","project_name":"","survey_name":"\u97ee\u795e\u5730\u533a\u5730\u76e4\u8abf\u67fb","client_name":"\u56fd\u571f\u4ea4\u901a\u7701\u6771\u5317\u5730\u65b9\u6574\u5099\u5c40\u4ed9\u53f0\u6cb3\u5ddd\u56fd\u9053\u4e8b\u52d9\u6240","boring_xml_url":40,"boring_view_url":1,"soilmap_view_url":null,"soiltest_xml_url":0,"soiltest_view_url":0},{"id":139623,"code":"B4KJ201801002-7872","latitude":"38.06267","longitude":"140.74289","source_code":"TH57400579002","project_name":"","survey_name":"\u67f4\u7530\u30d0\u30a4\u30d1\u30b9\u97ee\u795e\u6a4b\u5730\u76e4\u8abf\u67fb","client_name":"\u56fd\u571f\u4ea4\u901a\u7701\u6771\u5317\u5730\u65b9\u6574\u5099\u5c40\u4ed9\u53f0\u6cb3\u5ddd\u56fd\u9053\u4e8b\u52d9\u6240","boring_xml_url":40,"boring_view_url":1,"soilmap_view_url":null,"soiltest_xml_url":0,"soiltest_view_url":0},{"id":139622,"code":"B4KJ201801002-7871","latitude":"38.06256","longitude":"140.74361","source_code":"TH57400579001","project_name":"","survey_name":"\u67f4\u7530\u30d0\u30a4\u30d1\u30b9\u97ee\u795e\u6a4b\u5730\u76e4\u8abf\u67fb","client_name":"\u56fd\u571f\u4ea4\u901a\u7701\u6771\u5317\u5730\u65b9\u6574\u5099\u5c40\u4ed9\u53f0\u6cb3\u5ddd\u56fd\u9053\u4e8b\u52d9\u6240","boring_xml_url":40,"boring_view_url":1,"soilmap_view_url":null,"soiltest_xml_url":0,"soiltest_view_url":0},{"id":139621,"code":"B4KJ201801002-7870","latitude":"38.04394","longitude":"140.65639","source_code":"TH57400542002","project_name":"","survey_name":"\u5e73\u62106\u5e74\u5ea6\u4ed9\u53f0\u5317\u90e8\u9053\u8def\u5229\u5e9c\u5730\u533a\u8cea\u8abf\u67fb(\u8535\u738b\u5927\u6a4b\u5730\u533a)","client_name":"\u56fd\u571f\u4ea4\u901a\u7701\u6771\u5317\u5730\u65b9\u6574\u5099\u5c40\u4ed9\u53f0\u6cb3\u5ddd\u56fd\u9053\u4e8b\u52d9\u6240","boring_xml_url":40,"boring_view_url":1,"soilmap_view_url":null,"soiltest_xml_url":0,"soiltest_view_url":0},{"id":139620,"code":"B4KJ201801002-7869","latitude":"38.04425","longitude":"140.65631","source_code":"TH57400542001","project_name":"","survey_name":"\u5e73\u62106\u5e74\u5ea6\u4ed9\u53f0\u5317\u90e8\u9053\u8def\u5229\u5e9c\u5730\u533a\u5730\u8cea\u8abf\u67fb(\u8535\u738b\u5927\u6a4b\u5730\u533a)","client_name":"\u56fd\u571f\u4ea4\u901a\u7701\u6771\u5317\u5730\u65b9\u6574\u5099\u5c40\u4ed9\u53f0\u6cb3\u5ddd\u56fd\u9053\u4e8b\u52d9\u6240","boring_xml_url":40,"boring_view_url":1,"soilmap_view_url":null,"soiltest_xml_url":0,"soiltest_view_url":0},{"id":139619,"code":"B4KJ201801002-7868","latitude":"38.03214","longitude":"140.26886","source_code":"TH57400231041","project_name":"","survey_name":"\u5e73\u62105\u5e74\u5ea6\u91d1\u84cb\u6a4b\u8a73\u7d30\u8a2d\u8a08\u696d\u52d9\u59d4\u8a17","client_name":"\u56fd\u571f\u4ea4\u901a\u7701\u6771\u5317\u5730\u65b9\u6574\u5099\u5c40\u5c71\u5f62\u6cb3\u5ddd\u56fd\u9053\u4e8b\u52d9\u6240","boring_xml_url":40,"boring_view_url":1,"soilmap_view_url":null,"soiltest_xml_url":0,"soiltest_view_url":0},{"id":139618,"code":"B4KJ201801002-7867","latitude":"38.03214","longitude":"140.26886","source_code":"TH57400231040","project_name":"","survey_name":"\u5e73\u62105\u5e74\u5ea6\u91d1\u84cb\u6a4b\u8a73\u7d30\u8a2d\u8a08\u696d\u52d9\u59d4\u8a17","client_name":"\u56fd\u571f\u4ea4\u901a\u7701\u6771\u5317\u5730\u65b9\u6574\u5099\u5c40\u5c71\u5f62\u6cb3\u5ddd\u56fd\u9053\u4e8b\u52d9\u6240","boring_xml_url":40,"boring_view_url":1,"soilmap_view_url":null,"soiltest_xml_url":0,"soiltest_view_url":0},{"id":139617,"code":"B4KJ201801002-7866","latitude":"38.03242","longitude":"140.26858","source_code":"TH57400231039","project_name":"","survey_name":"\u5e73\u62105\u5e74\u5ea6\u91d1\u84cb\u6a4b\u8a73\u7d30\u8a2d\u8a08\u696d\u52d9\u59d4\u8a17","client_name":"\u56fd\u571f\u4ea4\u901a\u7701\u6771\u5317\u5730\u65b9\u6574\u5099\u5c40\u5c71\u5f62\u6cb3\u5ddd\u56fd\u9053\u4e8b\u52d9\u6240","boring_xml_url":40,"boring_view_url":1,"soilmap_view_url":null,"soiltest_xml_url":0,"soiltest_view_url":0},{"id":139616,"code":"B4KJ201801002-7865","latitude":"38.03325","longitude":"140.26739","source_code":"TH57400231038","project_name":"","survey_name":"\u7a32\u8449\u5165\u6a4b\u5730\u76e4\u8abf\u67fb","client_name":"\u56fd\u571f\u4ea4\u901a\u7701\u6771\u5317\u5730\u65b9\u6574\u5099\u5c40\u5c71\u5f62\u6cb3\u5ddd\u56fd\u9053\u4e8b\u52d9\u6240","boring_xml_url":40,"boring_view_url":1,"soilmap_view_url":null,"soiltest_xml_url":0,"soiltest_view_url":0}]}}