{"header":{"xyz":{"source":[],"mosaic":false},"page":6037,"raw":{"soiltest_result":"0","bbox":"57.598333,109.544722,1.933333,163.806111","page":"6037"},"conditions":{"soiltest_result":0,"north":57.598333,"west":109.544722,"south":1.933333,"east":163.806111},"success":true,"message":""},"data":{"meta":{"total":212844,"page":6037,"pages":7095,"count":30},"values":[{"id":139465,"code":"B4KJ201801002-7714","latitude":"38.02789","longitude":"140.00503","source_code":"TH57400020002","project_name":"","survey_name":"\u6dfb\u5ddd\u9053\u8def\u5730\u76e4\u8abf\u67fb","client_name":"\u56fd\u571f\u4ea4\u901a\u7701\u6771\u5317\u5730\u65b9\u6574\u5099\u5c40\u5c71\u5f62\u6cb3\u5ddd\u56fd\u9053\u4e8b\u52d9\u6240","boring_xml_url":40,"boring_view_url":1,"soilmap_view_url":null,"soiltest_xml_url":0,"soiltest_view_url":0},{"id":139464,"code":"B4KJ201801002-7713","latitude":"38.02733","longitude":"140","source_code":"TH57400020001","project_name":"","survey_name":"\u6dfb\u5ddd\u9053\u8def\u5730\u76e4\u8abf\u67fb","client_name":"\u56fd\u571f\u4ea4\u901a\u7701\u6771\u5317\u5730\u65b9\u6574\u5099\u5c40\u5c71\u5f62\u6cb3\u5ddd\u56fd\u9053\u4e8b\u52d9\u6240","boring_xml_url":40,"boring_view_url":1,"soilmap_view_url":null,"soiltest_xml_url":0,"soiltest_view_url":0},{"id":139463,"code":"B4KJ201801002-7712","latitude":"38.01547","longitude":"140.09039","source_code":"TH57400017001","project_name":"","survey_name":"\u6cbc\u30ce\u4e0a\u6a4b\u5b9f\u65bd\u8a2d\u8a08\u696d\u52d9","client_name":"\u56fd\u571f\u4ea4\u901a\u7701\u6771\u5317\u5730\u65b9\u6574\u5099\u5c40\u5c71\u5f62\u6cb3\u5ddd\u56fd\u9053\u4e8b\u52d9\u6240","boring_xml_url":40,"boring_view_url":1,"soilmap_view_url":null,"soiltest_xml_url":0,"soiltest_view_url":0},{"id":139462,"code":"B4KJ201801002-7711","latitude":"38.01108","longitude":"140.09425","source_code":"TH57400007001","project_name":"","survey_name":"\u6cbc\u30ce\u4e0a\u6a4b\u5b9f\u65bd\u8a2d\u8a08\u696d\u52d9","client_name":"\u56fd\u571f\u4ea4\u901a\u7701\u6771\u5317\u5730\u65b9\u6574\u5099\u5c40\u5c71\u5f62\u6cb3\u5ddd\u56fd\u9053\u4e8b\u52d9\u6240","boring_xml_url":40,"boring_view_url":1,"soilmap_view_url":null,"soiltest_xml_url":0,"soiltest_view_url":0},{"id":139461,"code":"B4KJ201801002-7710","latitude":"38.59008","longitude":"139.88514","source_code":"TH57397701015","project_name":"","survey_name":"\u770c\u9053\u5927\u7db2\u4ee3\u7dda\u5730\u76e4\u8abf\u67fb\u53ca\u3073\u8a2d\u8a08\u696d\u52d9\u59d4\u8a17","client_name":"\u56fd\u571f\u4ea4\u901a\u7701\u6771\u5317\u5730\u65b9\u6574\u5099\u5c40\u6708\u5c71\u30c0\u30e0\u7ba1\u7406\u6240","boring_xml_url":40,"boring_view_url":1,"soilmap_view_url":null,"soiltest_xml_url":0,"soiltest_view_url":0},{"id":139460,"code":"B4KJ201801002-7709","latitude":"38.59008","longitude":"139.88483","source_code":"TH57397701014","project_name":"","survey_name":"\u770c\u9053\u5927\u7db2\u4ee3\u7dda\u5730\u76e4\u8abf\u67fb\u53ca\u3073\u8a2d\u8a08\u696d\u52d9\u59d4\u8a17","client_name":"\u56fd\u571f\u4ea4\u901a\u7701\u6771\u5317\u5730\u65b9\u6574\u5099\u5c40\u6708\u5c71\u30c0\u30e0\u7ba1\u7406\u6240","boring_xml_url":40,"boring_view_url":1,"soilmap_view_url":null,"soiltest_xml_url":0,"soiltest_view_url":0},{"id":139459,"code":"B4KJ201801002-7708","latitude":"38.58681","longitude":"139.89303","source_code":"TH57397701013","project_name":"","survey_name":"\u662d\u548c63\u5e74\u5ea6\u56fd\u9053112\u53f7\u4ed8\u66ff\u7b2c3\u5de5\u533a\u53d6\u4ed8\u9053\u8def\u8a2d\u8a08\u696d\u52d9\u59d4\u8a17","client_name":"\u56fd\u571f\u4ea4\u901a\u7701\u6771\u5317\u5730\u65b9\u6574\u5099\u5c40\u6708\u5c71\u30c0\u30e0\u7ba1\u7406\u6240","boring_xml_url":40,"boring_view_url":1,"soilmap_view_url":null,"soiltest_xml_url":0,"soiltest_view_url":0},{"id":139458,"code":"B4KJ201801002-7707","latitude":"38.58872","longitude":"139.89447","source_code":"TH57397701012","project_name":"","survey_name":"\u662d\u548c53\u5e74\u5ea6\u8d64\u5ddd\u30c0\u30e0\u5927\u7db1\u5730\u533a\u5730\u8cea\u8abf\u67fb","client_name":"\u56fd\u571f\u4ea4\u901a\u7701\u6771\u5317\u5730\u65b9\u6574\u5099\u5c40\u6708\u5c71\u30c0\u30e0\u7ba1\u7406\u6240","boring_xml_url":40,"boring_view_url":1,"soilmap_view_url":null,"soiltest_xml_url":0,"soiltest_view_url":0},{"id":139457,"code":"B4KJ201801002-7706","latitude":"38.58803","longitude":"139.894","source_code":"TH57397701011","project_name":"","survey_name":"\u662d\u548c53\u5e74\u5ea6\u8d64\u5ddd\u30c0\u30e0\u5927\u7db1\u5730\u533a\u5730\u8cea\u8abf\u67fb","client_name":"\u56fd\u571f\u4ea4\u901a\u7701\u6771\u5317\u5730\u65b9\u6574\u5099\u5c40\u6708\u5c71\u30c0\u30e0\u7ba1\u7406\u6240","boring_xml_url":40,"boring_view_url":1,"soilmap_view_url":null,"soiltest_xml_url":0,"soiltest_view_url":0},{"id":139456,"code":"B4KJ201801002-7705","latitude":"38.58828","longitude":"139.89219","source_code":"TH57397701010","project_name":"","survey_name":"\u662d\u548c53\u5e74\u5ea6\u8d64\u5ddd\u30c0\u30e0\u5927\u7db1\u5730\u533a\u5730\u8cea\u8abf\u67fb","client_name":"\u56fd\u571f\u4ea4\u901a\u7701\u6771\u5317\u5730\u65b9\u6574\u5099\u5c40\u6708\u5c71\u30c0\u30e0\u7ba1\u7406\u6240","boring_xml_url":40,"boring_view_url":1,"soilmap_view_url":null,"soiltest_xml_url":0,"soiltest_view_url":0},{"id":139455,"code":"B4KJ201801002-7704","latitude":"38.58786","longitude":"139.89178","source_code":"TH57397701009","project_name":"","survey_name":"\u662d\u548c53\u5e74\u5ea6\u8d64\u5ddd\u30c0\u30e0\u5927\u7db1\u5730\u533a\u5730\u8cea\u8abf\u67fb","client_name":"\u56fd\u571f\u4ea4\u901a\u7701\u6771\u5317\u5730\u65b9\u6574\u5099\u5c40\u6708\u5c71\u30c0\u30e0\u7ba1\u7406\u6240","boring_xml_url":40,"boring_view_url":1,"soilmap_view_url":null,"soiltest_xml_url":0,"soiltest_view_url":0},{"id":139454,"code":"B4KJ201801002-7703","latitude":"38.58942","longitude":"139.88608","source_code":"TH57397701002","project_name":"","survey_name":"\u662d\u548c50\u5e74\u5ea6112\u53f7\u5730\u8cea\u8abf\u67fb","client_name":"\u56fd\u571f\u4ea4\u901a\u7701\u6771\u5317\u5730\u65b9\u6574\u5099\u5c40\u9152\u7530\u6cb3\u5ddd\u56fd\u9053\u4e8b\u52d9\u6240","boring_xml_url":40,"boring_view_url":1,"soilmap_view_url":null,"soiltest_xml_url":0,"soiltest_view_url":0},{"id":139453,"code":"B4KJ201801002-7702","latitude":"38.58942","longitude":"139.88608","source_code":"TH57397701001","project_name":"","survey_name":"\u662d\u548c50\u5e74\u5ea6112\u53f7\u5730\u8cea\u8abf\u67fb","client_name":"\u56fd\u571f\u4ea4\u901a\u7701\u6771\u5317\u5730\u65b9\u6574\u5099\u5c40\u9152\u7530\u6cb3\u5ddd\u56fd\u9053\u4e8b\u52d9\u6240","boring_xml_url":40,"boring_view_url":1,"soilmap_view_url":null,"soiltest_xml_url":0,"soiltest_view_url":0},{"id":139452,"code":"B4KJ201801002-7701","latitude":"38.58942","longitude":"139.88197","source_code":"TH57397700010","project_name":"","survey_name":"\u5e73\u6210\u5143\u5e74\u5ea6\u5927\u7db2\u5730\u533a\u5730\u76e4\u8abf\u67fb","client_name":"\u56fd\u571f\u4ea4\u901a\u7701\u6771\u5317\u5730\u65b9\u6574\u5099\u5c40\u6708\u5c71\u30c0\u30e0\u7ba1\u7406\u6240","boring_xml_url":40,"boring_view_url":1,"soilmap_view_url":null,"soiltest_xml_url":0,"soiltest_view_url":0},{"id":139451,"code":"B4KJ201801002-7700","latitude":"38.59075","longitude":"139.88342","source_code":"TH57397700009","project_name":"","survey_name":"\u770c\u9053\u5927\u7db2\u4ee3\u7dda\u5730\u76e4\u8abf\u67fb\u53ca\u3073\u8a2d\u8a08\u696d\u52d9\u59d4\u8a17","client_name":"\u56fd\u571f\u4ea4\u901a\u7701\u6771\u5317\u5730\u65b9\u6574\u5099\u5c40\u6708\u5c71\u30c0\u30e0\u7ba1\u7406\u6240","boring_xml_url":40,"boring_view_url":1,"soilmap_view_url":null,"soiltest_xml_url":0,"soiltest_view_url":0},{"id":139450,"code":"B4KJ201801002-7699","latitude":"38.58764","longitude":"139.88219","source_code":"TH57397700006","project_name":"","survey_name":"\u662d\u548c57\u5e74\u5ea6\u6708\u5c71\u30c0\u30e0\u4ed8\u66ff\u6751\u9053(\u516b\u4e45\u548c)\u7b2c5\u6b21\u5730\u8cea\u8abf\u67fb","client_name":"\u56fd\u571f\u4ea4\u901a\u7701\u6771\u5317\u5730\u65b9\u6574\u5099\u5c40\u6708\u5c71\u30c0\u30e0\u7ba1\u7406\u6240","boring_xml_url":40,"boring_view_url":1,"soilmap_view_url":null,"soiltest_xml_url":0,"soiltest_view_url":0},{"id":139449,"code":"B4KJ201801002-7698","latitude":"38.58736","longitude":"139.88219","source_code":"TH57397700005","project_name":"","survey_name":"\u662d\u548c57\u5e74\u5ea6\u6708\u5c71\u30c0\u30e0\u4ed8\u66ff\u6751\u9053(\u516b\u4e45\u548c)\u7b2c5\u6b21\u5730\u8cea\u8abf\u67fb","client_name":"\u56fd\u571f\u4ea4\u901a\u7701\u6771\u5317\u5730\u65b9\u6574\u5099\u5c40\u6708\u5c71\u30c0\u30e0\u7ba1\u7406\u6240","boring_xml_url":40,"boring_view_url":1,"soilmap_view_url":null,"soiltest_xml_url":0,"soiltest_view_url":0},{"id":139448,"code":"B4KJ201801002-7697","latitude":"38.58764","longitude":"139.88219","source_code":"TH57397700004","project_name":"","survey_name":"\u662d\u548c57\u5e74\u5ea6\u6708\u5c71\u30c0\u30e0\u4ed8\u66ff\u6751\u9053(\u516b\u4e45\u548c\u7dda)\u7b2c4\u6b21\u5730\u8cea\u8abf\u67fb","client_name":"\u56fd\u571f\u4ea4\u901a\u7701\u6771\u5317\u5730\u65b9\u6574\u5099\u5c40\u6708\u5c71\u30c0\u30e0\u7ba1\u7406\u6240","boring_xml_url":40,"boring_view_url":1,"soilmap_view_url":null,"soiltest_xml_url":0,"soiltest_view_url":0},{"id":139447,"code":"B4KJ201801002-7696","latitude":"38.58736","longitude":"139.88219","source_code":"TH57397700003","project_name":"","survey_name":"\u662d\u548c57\u5e74\u5ea6\u6708\u5c71\u30c0\u30e0\u4ed8\u66ff\u6751\u9053(\u516b\u4e45\u548c\u7dda)\u7b2c4\u6b21\u5730\u8cea\u8abf\u67fb","client_name":"\u56fd\u571f\u4ea4\u901a\u7701\u6771\u5317\u5730\u65b9\u6574\u5099\u5c40\u6708\u5c71\u30c0\u30e0\u7ba1\u7406\u6240","boring_xml_url":40,"boring_view_url":1,"soilmap_view_url":null,"soiltest_xml_url":0,"soiltest_view_url":0},{"id":139446,"code":"B4KJ201801002-7695","latitude":"38.58792","longitude":"139.88219","source_code":"TH57397700002","project_name":"","survey_name":"\u662d\u548c57\u5e74\u5ea6\u6708\u5c71\u30c0\u30e0\u4ed8\u66ff\u6751\u9053(\u516b\u4e45\u548c\u7dda)\u7b2c4\u6b21\u5730\u8cea\u8abf\u67fb","client_name":"\u56fd\u571f\u4ea4\u901a\u7701\u6771\u5317\u5730\u65b9\u6574\u5099\u5c40\u6708\u5c71\u30c0\u30e0\u7ba1\u7406\u6240","boring_xml_url":40,"boring_view_url":1,"soilmap_view_url":null,"soiltest_xml_url":0,"soiltest_view_url":0},{"id":139445,"code":"B4KJ201801002-7694","latitude":"38.58736","longitude":"139.88219","source_code":"TH57397700001","project_name":"","survey_name":"\u662d\u548c57\u5e74\u5ea6\u6708\u5c71\u30c0\u30e0\u4ed8\u66ff\u6751\u9053(\u516b\u4e45\u548c\u7dda)\u7b2c4\u6b21\u5730\u8cea\u8abf\u67fb","client_name":"\u56fd\u571f\u4ea4\u901a\u7701\u6771\u5317\u5730\u65b9\u6574\u5099\u5c40\u6708\u5c71\u30c0\u30e0\u7ba1\u7406\u6240","boring_xml_url":40,"boring_view_url":1,"soilmap_view_url":null,"soiltest_xml_url":0,"soiltest_view_url":0},{"id":139444,"code":"B4KJ201801002-7693","latitude":"38.62289","longitude":"139.84075","source_code":"TH57397647005","project_name":"","survey_name":"\u5e73\u62108\u5e74\u5ea6\u718a\u51fa\u5730\u533a\u843d\u77f3\u9632\u6b62\u8abf\u67fb\u53ca\u3073\u6e2c\u91cf\u8a2d\u8a08\u696d\u52d9","client_name":"\u56fd\u571f\u4ea4\u901a\u7701\u6771\u5317\u5730\u65b9\u6574\u5099\u5c40\u9152\u7530\u6cb3\u5ddd\u56fd\u9053\u4e8b\u52d9\u6240","boring_xml_url":40,"boring_view_url":1,"soilmap_view_url":null,"soiltest_xml_url":0,"soiltest_view_url":0},{"id":139443,"code":"B4KJ201801002-7692","latitude":"38.62289","longitude":"139.84058","source_code":"TH57397647004","project_name":"","survey_name":"\u5e73\u62108\u5e74\u5ea6\u718a\u51fa\u5730\u533a\u843d\u77f3\u9632\u6b62\u8abf\u67fb\u53ca\u3073\u6e2c\u91cf\u8a2d\u8a08\u696d\u52d9","client_name":"\u56fd\u571f\u4ea4\u901a\u7701\u6771\u5317\u5730\u65b9\u6574\u5099\u5c40\u9152\u7530\u6cb3\u5ddd\u56fd\u9053\u4e8b\u52d9\u6240","boring_xml_url":40,"boring_view_url":1,"soilmap_view_url":null,"soiltest_xml_url":0,"soiltest_view_url":0},{"id":139442,"code":"B4KJ201801002-7691","latitude":"38.62261","longitude":"139.84075","source_code":"TH57397647003","project_name":"","survey_name":"\u5e73\u62108\u5e74\u5ea6\u718a\u51fa\u5730\u533a\u843d\u77f3\u9632\u6b62\u8abf\u67fb\u53ca\u3073\u6e2c\u91cf\u8a2d\u8a08\u696d\u52d9","client_name":"\u56fd\u571f\u4ea4\u901a\u7701\u6771\u5317\u5730\u65b9\u6574\u5099\u5c40\u9152\u7530\u6cb3\u5ddd\u56fd\u9053\u4e8b\u52d9\u6240","boring_xml_url":40,"boring_view_url":1,"soilmap_view_url":null,"soiltest_xml_url":0,"soiltest_view_url":0},{"id":139441,"code":"B4KJ201801002-7690","latitude":"38.62261","longitude":"139.84058","source_code":"TH57397647002","project_name":"","survey_name":"\u5e73\u62108\u5e74\u5ea6\u718a\u51fa\u5730\u533a\u843d\u77f3\u9632\u6b62\u8abf\u67fb\u53ca\u3073\u6e2c\u91cf\u8a2d\u8a08\u696d\u52d9","client_name":"\u56fd\u571f\u4ea4\u901a\u7701\u6771\u5317\u5730\u65b9\u6574\u5099\u5c40\u9152\u7530\u6cb3\u5ddd\u56fd\u9053\u4e8b\u52d9\u6240","boring_xml_url":40,"boring_view_url":1,"soilmap_view_url":null,"soiltest_xml_url":0,"soiltest_view_url":0},{"id":139440,"code":"B4KJ201801002-7689","latitude":"38.62547","longitude":"139.84189","source_code":"TH57397647001","project_name":"","survey_name":"\u5e73\u62102\u5e74\u5ea6\u5927\u6dc0\u5ddd\u5730\u533a\u5730\u76e4\u8abf\u67fb","client_name":"\u56fd\u571f\u4ea4\u901a\u7701\u6771\u5317\u5730\u65b9\u6574\u5099\u5c40\u9152\u7530\u6cb3\u5ddd\u56fd\u9053\u4e8b\u52d9\u6240","boring_xml_url":40,"boring_view_url":1,"soilmap_view_url":null,"soiltest_xml_url":0,"soiltest_view_url":0},{"id":139439,"code":"B4KJ201801002-7688","latitude":"38.5785","longitude":"139.93328","source_code":"TH57396794001","project_name":"","survey_name":"\u7530\u9ea6\u4fe3\u5730\u533a\u5730\u76e4\u8abf\u67fb","client_name":"\u56fd\u571f\u4ea4\u901a\u7701\u6771\u5317\u5730\u65b9\u6574\u5099\u5c40\u9152\u7530\u6cb3\u5ddd\u56fd\u9053\u4e8b\u52d9\u6240","boring_xml_url":40,"boring_view_url":1,"soilmap_view_url":null,"soiltest_xml_url":0,"soiltest_view_url":0},{"id":139438,"code":"B4KJ201801002-7687","latitude":"38.57911","longitude":"139.89928","source_code":"TH57396792011","project_name":"","survey_name":"\u5e73\u62103\u5e74\u5ea6\u30c8\u30f3\u30cd\u30eb\u5468\u8fba\u5730\u5c71\u5bfe\u7b56\u5730\u8cea\u8abf\u67fb","client_name":"\u56fd\u571f\u4ea4\u901a\u7701\u6771\u5317\u5730\u65b9\u6574\u5099\u5c40\u6708\u5c71\u30c0\u30e0\u7ba1\u7406\u6240","boring_xml_url":40,"boring_view_url":1,"soilmap_view_url":null,"soiltest_xml_url":0,"soiltest_view_url":0},{"id":139437,"code":"B4KJ201801002-7686","latitude":"38.57956","longitude":"139.89928","source_code":"TH57396792010","project_name":"","survey_name":"\u5e73\u62103\u5e74\u5ea6\u30c8\u30f3\u30cd\u30eb\u5468\u8fba\u5730\u5c71\u5bfe\u7b56\u5730\u8cea\u8abf\u67fb","client_name":"\u56fd\u571f\u4ea4\u901a\u7701\u6771\u5317\u5730\u65b9\u6574\u5099\u5c40\u6708\u5c71\u30c0\u30e0\u7ba1\u7406\u6240","boring_xml_url":40,"boring_view_url":1,"soilmap_view_url":null,"soiltest_xml_url":0,"soiltest_view_url":0},{"id":139436,"code":"B4KJ201801002-7685","latitude":"38.57911","longitude":"139.89986","source_code":"TH57396792009","project_name":"","survey_name":"\u5e73\u62103\u5e74\u5ea6\u30c8\u30f3\u30cd\u30eb\u5468\u8fba\u5730\u5c71\u5bfe\u7b56\u5730\u8cea\u8abf\u67fb","client_name":"\u56fd\u571f\u4ea4\u901a\u7701\u6771\u5317\u5730\u65b9\u6574\u5099\u5c40\u6708\u5c71\u30c0\u30e0\u7ba1\u7406\u6240","boring_xml_url":40,"boring_view_url":1,"soilmap_view_url":null,"soiltest_xml_url":0,"soiltest_view_url":0}]}}