{"header":{"xyz":{"source":[],"mosaic":false},"page":6039,"raw":{"soiltest_result":"0","bbox":"57.598333,109.544722,1.933333,163.806111","page":"6039"},"conditions":{"soiltest_result":0,"north":57.598333,"west":109.544722,"south":1.933333,"east":163.806111},"success":true,"message":""},"data":{"meta":{"total":212844,"page":6039,"pages":7095,"count":30},"values":[{"id":139405,"code":"B4KJ201801002-7654","latitude":"38.57589","longitude":"139.92953","source_code":"TH57396784006","project_name":"","survey_name":"\u662d\u548c52\u5e74\u5ea6\u629c\u5802\u5730\u533a\u5730\u3059\u3079\u308a\u8abf\u67fb","client_name":"\u56fd\u571f\u4ea4\u901a\u7701\u6771\u5317\u5730\u65b9\u6574\u5099\u5c40\u9152\u7530\u6cb3\u5ddd\u56fd\u9053\u4e8b\u52d9\u6240","boring_xml_url":40,"boring_view_url":1,"soilmap_view_url":null,"soiltest_xml_url":0,"soiltest_view_url":0},{"id":139404,"code":"B4KJ201801002-7653","latitude":"38.57589","longitude":"139.92953","source_code":"TH57396784005","project_name":"","survey_name":"\u662d\u548c52\u5e74\u5ea6\u629c\u5802\u5730\u533a\u5730\u3059\u3079\u308a\u8abf\u67fb","client_name":"\u56fd\u571f\u4ea4\u901a\u7701\u6771\u5317\u5730\u65b9\u6574\u5099\u5c40\u9152\u7530\u6cb3\u5ddd\u56fd\u9053\u4e8b\u52d9\u6240","boring_xml_url":40,"boring_view_url":1,"soilmap_view_url":null,"soiltest_xml_url":0,"soiltest_view_url":0},{"id":139403,"code":"B4KJ201801002-7652","latitude":"38.57589","longitude":"139.92953","source_code":"TH57396784004","project_name":"","survey_name":"\u662d\u548c52\u5e74\u5ea6\u629c\u5802\u5730\u533a\u5730\u3059\u3079\u308a\u8abf\u67fb","client_name":"\u56fd\u571f\u4ea4\u901a\u7701\u6771\u5317\u5730\u65b9\u6574\u5099\u5c40\u9152\u7530\u6cb3\u5ddd\u56fd\u9053\u4e8b\u52d9\u6240","boring_xml_url":40,"boring_view_url":1,"soilmap_view_url":null,"soiltest_xml_url":0,"soiltest_view_url":0},{"id":139402,"code":"B4KJ201801002-7651","latitude":"38.57589","longitude":"139.92953","source_code":"TH57396784003","project_name":"","survey_name":"\u662d\u548c52\u5e74\u5ea6\u629c\u5802\u5730\u533a\u5730\u3059\u3079\u308a\u8abf\u67fb","client_name":"\u56fd\u571f\u4ea4\u901a\u7701\u6771\u5317\u5730\u65b9\u6574\u5099\u5c40\u9152\u7530\u6cb3\u5ddd\u56fd\u9053\u4e8b\u52d9\u6240","boring_xml_url":40,"boring_view_url":1,"soilmap_view_url":null,"soiltest_xml_url":0,"soiltest_view_url":0},{"id":139401,"code":"B4KJ201801002-7650","latitude":"38.57589","longitude":"139.92953","source_code":"TH57396784002","project_name":"","survey_name":"\u662d\u548c52\u5e74\u5ea6\u629c\u5802\u5730\u533a\u5730\u3059\u3079\u308a\u8abf\u67fb","client_name":"\u56fd\u571f\u4ea4\u901a\u7701\u6771\u5317\u5730\u65b9\u6574\u5099\u5c40\u9152\u7530\u6cb3\u5ddd\u56fd\u9053\u4e8b\u52d9\u6240","boring_xml_url":40,"boring_view_url":1,"soilmap_view_url":null,"soiltest_xml_url":0,"soiltest_view_url":0},{"id":139400,"code":"B4KJ201801002-7649","latitude":"38.56986","longitude":"139.90581","source_code":"TH57396782012","project_name":"","survey_name":"\u5e73\u62103\u5e74\u5ea6\u7530\u9ea6\u4fe3\u5730\u533a\u5730\u8cea\u8abf\u67fb\u305d\u306e3","client_name":"\u56fd\u571f\u4ea4\u901a\u7701\u6771\u5317\u5730\u65b9\u6574\u5099\u5c40\u6708\u5c71\u30c0\u30e0\u7ba1\u7406\u6240","boring_xml_url":40,"boring_view_url":1,"soilmap_view_url":null,"soiltest_xml_url":0,"soiltest_view_url":0},{"id":139399,"code":"B4KJ201801002-7648","latitude":"38.57375","longitude":"139.90289","source_code":"TH57396782011","project_name":"","survey_name":"\u5e73\u62103\u5e74\u5ea6\u7530\u9ea6\u4fe3\u5730\u533a\u5730\u8cea\u8abf\u67fb\u305d\u306e3","client_name":"\u56fd\u571f\u4ea4\u901a\u7701\u6771\u5317\u5730\u65b9\u6574\u5099\u5c40\u6708\u5c71\u30c0\u30e0\u7ba1\u7406\u6240","boring_xml_url":40,"boring_view_url":1,"soilmap_view_url":null,"soiltest_xml_url":0,"soiltest_view_url":0},{"id":139398,"code":"B4KJ201801002-7647","latitude":"38.57042","longitude":"139.90497","source_code":"TH57396782010","project_name":"","survey_name":"\u5e73\u62103\u5e74\u5ea6\u7530\u9ea6\u4fe3\u5730\u533a\u5730\u8cea\u8abf\u67fb\u305d\u306e3","client_name":"\u56fd\u571f\u4ea4\u901a\u7701\u6771\u5317\u5730\u65b9\u6574\u5099\u5c40\u6708\u5c71\u30c0\u30e0\u7ba1\u7406\u6240","boring_xml_url":40,"boring_view_url":1,"soilmap_view_url":null,"soiltest_xml_url":0,"soiltest_view_url":0},{"id":139397,"code":"B4KJ201801002-7646","latitude":"38.57069","longitude":"139.90469","source_code":"TH57396782009","project_name":"","survey_name":"\u5e73\u62103\u5e74\u5ea6\u7530\u9ea6\u4fe3\u5730\u533a\u5730\u8cea\u8abf\u67fb\u305d\u306e3","client_name":"\u56fd\u571f\u4ea4\u901a\u7701\u6771\u5317\u5730\u65b9\u6574\u5099\u5c40\u6708\u5c71\u30c0\u30e0\u7ba1\u7406\u6240","boring_xml_url":40,"boring_view_url":1,"soilmap_view_url":null,"soiltest_xml_url":0,"soiltest_view_url":0},{"id":139396,"code":"B4KJ201801002-7645","latitude":"38.57042","longitude":"139.90414","source_code":"TH57396782008","project_name":"","survey_name":"\u5e73\u62103\u5e74\u5ea6\u7530\u9ea6\u4fe3\u5730\u533a\u5730\u8cea\u8abf\u67fb\u305d\u306e3","client_name":"\u56fd\u571f\u4ea4\u901a\u7701\u6771\u5317\u5730\u65b9\u6574\u5099\u5c40\u6708\u5c71\u30c0\u30e0\u7ba1\u7406\u6240","boring_xml_url":40,"boring_view_url":1,"soilmap_view_url":null,"soiltest_xml_url":0,"soiltest_view_url":0},{"id":139395,"code":"B4KJ201801002-7644","latitude":"38.5719","longitude":"139.9","source_code":"TH57396782007","project_name":"","survey_name":"\u7530\u9ea6\u4fe3\u5730\u533a\u5730\u76e4\u8abf\u67fb(3)","client_name":"\u56fd\u571f\u4ea4\u901a\u7701\u6771\u5317\u5730\u65b9\u6574\u5099\u5c40\u6708\u5c71\u30c0\u30e0\u7ba1\u7406\u6240","boring_xml_url":40,"boring_view_url":1,"soilmap_view_url":null,"soiltest_xml_url":0,"soiltest_view_url":0},{"id":139394,"code":"B4KJ201801002-7643","latitude":"38.57236","longitude":"139.90114","source_code":"TH57396782006","project_name":"","survey_name":"\u7530\u9ea6\u4fe3\u5730\u533a\u5730\u76e4\u8abf\u67fb(3)","client_name":"\u56fd\u571f\u4ea4\u901a\u7701\u6771\u5317\u5730\u65b9\u6574\u5099\u5c40\u6708\u5c71\u30c0\u30e0\u7ba1\u7406\u6240","boring_xml_url":40,"boring_view_url":1,"soilmap_view_url":null,"soiltest_xml_url":0,"soiltest_view_url":0},{"id":139393,"code":"B4KJ201801002-7642","latitude":"38.56994","longitude":"139.90472","source_code":"TH57396782005","project_name":"","survey_name":"\u7530\u9ea6\u4fe3\u5730\u533a\u5730\u76e4\u8abf\u67fb(3)","client_name":"\u56fd\u571f\u4ea4\u901a\u7701\u6771\u5317\u5730\u65b9\u6574\u5099\u5c40\u6708\u5c71\u30c0\u30e0\u7ba1\u7406\u6240","boring_xml_url":40,"boring_view_url":1,"soilmap_view_url":null,"soiltest_xml_url":0,"soiltest_view_url":0},{"id":139392,"code":"B4KJ201801002-7641","latitude":"38.57022","longitude":"139.90511","source_code":"TH57396782004","project_name":"","survey_name":"\u7530\u9ea6\u4fe3\u5730\u533a\u5730\u76e4\u8abf\u67fb(3)","client_name":"\u56fd\u571f\u4ea4\u901a\u7701\u6771\u5317\u5730\u65b9\u6574\u5099\u5c40\u6708\u5c71\u30c0\u30e0\u7ba1\u7406\u6240","boring_xml_url":40,"boring_view_url":1,"soilmap_view_url":null,"soiltest_xml_url":0,"soiltest_view_url":0},{"id":139391,"code":"B4KJ201801002-7640","latitude":"38.57264","longitude":"139.89636","source_code":"TH57396781013","project_name":"","survey_name":"\u5de6\u5cb8\u90e8\u5730\u5c71\u5bfe\u7b56\u5730\u8cea\u8abf\u67fb","client_name":"\u56fd\u571f\u4ea4\u901a\u7701\u6771\u5317\u5730\u65b9\u6574\u5099\u5c40\u6708\u5c71\u30c0\u30e0\u7ba1\u7406\u6240","boring_xml_url":40,"boring_view_url":1,"soilmap_view_url":null,"soiltest_xml_url":0,"soiltest_view_url":0},{"id":139390,"code":"B4KJ201801002-7639","latitude":"38.57478","longitude":"139.89553","source_code":"TH57396781012","project_name":"","survey_name":"\u5de6\u5cb8\u90e8\u5730\u5c71\u5bfe\u7b56\u5730\u8cea\u8abf\u67fb","client_name":"\u56fd\u571f\u4ea4\u901a\u7701\u6771\u5317\u5730\u65b9\u6574\u5099\u5c40\u6708\u5c71\u30c0\u30e0\u7ba1\u7406\u6240","boring_xml_url":40,"boring_view_url":1,"soilmap_view_url":null,"soiltest_xml_url":0,"soiltest_view_url":0},{"id":139389,"code":"B4KJ201801002-7638","latitude":"38.575","longitude":"139.89581","source_code":"TH57396781011","project_name":"","survey_name":"\u5de6\u5cb8\u90e8\u5730\u5c71\u5bfe\u7b56\u5730\u8cea\u8abf\u67fb","client_name":"\u56fd\u571f\u4ea4\u901a\u7701\u6771\u5317\u5730\u65b9\u6574\u5099\u5c40\u6708\u5c71\u30c0\u30e0\u7ba1\u7406\u6240","boring_xml_url":40,"boring_view_url":1,"soilmap_view_url":null,"soiltest_xml_url":0,"soiltest_view_url":0},{"id":139388,"code":"B4KJ201801002-7637","latitude":"38.57522","longitude":"139.89608","source_code":"TH57396781010","project_name":"","survey_name":"\u5de6\u5cb8\u90e8\u5730\u5c71\u5bfe\u7b56\u5730\u8cea\u8abf\u67fb","client_name":"\u56fd\u571f\u4ea4\u901a\u7701\u6771\u5317\u5730\u65b9\u6574\u5099\u5c40\u6708\u5c71\u30c0\u30e0\u7ba1\u7406\u6240","boring_xml_url":40,"boring_view_url":1,"soilmap_view_url":null,"soiltest_xml_url":0,"soiltest_view_url":0},{"id":139387,"code":"B4KJ201801002-7636","latitude":"38.57736","longitude":"139.89525","source_code":"TH57396781009","project_name":"","survey_name":"\u5de6\u5cb8\u90e8\u5730\u5c71\u5bfe\u7b56\u5730\u8cea\u8abf\u67fb","client_name":"\u56fd\u571f\u4ea4\u901a\u7701\u6771\u5317\u5730\u65b9\u6574\u5099\u5c40\u6708\u5c71\u30c0\u30e0\u7ba1\u7406\u6240","boring_xml_url":40,"boring_view_url":1,"soilmap_view_url":null,"soiltest_xml_url":0,"soiltest_view_url":0},{"id":139386,"code":"B4KJ201801002-7635","latitude":"38.57489","longitude":"139.89494","source_code":"TH57396781008","project_name":"","survey_name":"\u4e0a\u4ecf\u6ca2\u6a4b\u5730\u76e4\u8abf\u67fb","client_name":"\u56fd\u571f\u4ea4\u901a\u7701\u6771\u5317\u5730\u65b9\u6574\u5099\u5c40\u6708\u5c71\u30c0\u30e0\u7ba1\u7406\u6240","boring_xml_url":40,"boring_view_url":1,"soilmap_view_url":null,"soiltest_xml_url":0,"soiltest_view_url":0},{"id":139385,"code":"B4KJ201801002-7634","latitude":"38.57375","longitude":"139.89525","source_code":"TH57396781007","project_name":"","survey_name":"\u662d\u548c57\u5e74\u5ea6\u6708\u5c71\u30c0\u30e0\u4ed8\u66ff\u6751\u9053(\u516b\u4e45\u548c\u7dda)\u7b2c4\u6b21\u5730\u8cea\u8abf\u67fb","client_name":"\u56fd\u571f\u4ea4\u901a\u7701\u6771\u5317\u5730\u65b9\u6574\u5099\u5c40\u6708\u5c71\u30c0\u30e0\u7ba1\u7406\u6240","boring_xml_url":40,"boring_view_url":1,"soilmap_view_url":null,"soiltest_xml_url":0,"soiltest_view_url":0},{"id":139384,"code":"B4KJ201801002-7633","latitude":"38.57264","longitude":"139.89525","source_code":"TH57396781006","project_name":"","survey_name":"\u662d\u548c57\u5e74\u5ea6\u6708\u5c71\u30c0\u30e0\u4ed8\u66ff\u6751\u9053(\u516b\u4e45\u548c\u7dda)\u7b2c4\u6b21\u5730\u8cea\u8abf\u67fb","client_name":"\u56fd\u571f\u4ea4\u901a\u7701\u6771\u5317\u5730\u65b9\u6574\u5099\u5c40\u6708\u5c71\u30c0\u30e0\u7ba1\u7406\u6240","boring_xml_url":40,"boring_view_url":1,"soilmap_view_url":null,"soiltest_xml_url":0,"soiltest_view_url":0},{"id":139383,"code":"B4KJ201801002-7632","latitude":"38.57292","longitude":"139.89497","source_code":"TH57396781005","project_name":"","survey_name":"\u662d\u548c57\u5e74\u5ea6\u6708\u5c71\u30c0\u30e0\u4ed8\u66ff\u6751\u9053(\u516b\u4e45\u548c\u7dda)\u7b2c4\u6b21\u5730\u8cea\u8abf\u67fb","client_name":"\u56fd\u571f\u4ea4\u901a\u7701\u6771\u5317\u5730\u65b9\u6574\u5099\u5c40\u6708\u5c71\u30c0\u30e0\u7ba1\u7406\u6240","boring_xml_url":40,"boring_view_url":1,"soilmap_view_url":null,"soiltest_xml_url":0,"soiltest_view_url":0},{"id":139382,"code":"B4KJ201801002-7631","latitude":"38.57319","longitude":"139.89497","source_code":"TH57396781004","project_name":"","survey_name":"\u662d\u548c57\u5e74\u5ea6\u6708\u5c71\u30c0\u30e0\u4ed8\u66ff\u6751\u9053(\u516b\u4e45\u548c\u7dda)\u7b2c4\u6b21\u5730\u8cea\u8abf\u67fb","client_name":"\u56fd\u571f\u4ea4\u901a\u7701\u6771\u5317\u5730\u65b9\u6574\u5099\u5c40\u6708\u5c71\u30c0\u30e0\u7ba1\u7406\u6240","boring_xml_url":40,"boring_view_url":1,"soilmap_view_url":null,"soiltest_xml_url":0,"soiltest_view_url":0},{"id":139381,"code":"B4KJ201801002-7630","latitude":"38.57347","longitude":"139.89525","source_code":"TH57396781003","project_name":"","survey_name":"\u662d\u548c57\u5e74\u5ea6\u6708\u5c71\u30c0\u30e0\u4ed8\u66ff\u6751\u9053(\u516b\u4e45\u548c\u7dda)\u7b2c4\u6b21\u5730\u8cea\u8abf\u67fb","client_name":"\u56fd\u571f\u4ea4\u901a\u7701\u6771\u5317\u5730\u65b9\u6574\u5099\u5c40\u6708\u5c71\u30c0\u30e0\u7ba1\u7406\u6240","boring_xml_url":40,"boring_view_url":1,"soilmap_view_url":null,"soiltest_xml_url":0,"soiltest_view_url":0},{"id":139380,"code":"B4KJ201801002-7629","latitude":"38.57403","longitude":"139.89525","source_code":"TH57396781002","project_name":"","survey_name":"\u662d\u548c57\u5e74\u5ea6\u6708\u5c71\u30c0\u30e0\u4ed8\u66ff\u6751\u9053(\u516b\u4e45\u548c\u7dda)\u7b2c4\u6b21\u5730\u8cea\u8abf\u67fb","client_name":"\u56fd\u571f\u4ea4\u901a\u7701\u6771\u5317\u5730\u65b9\u6574\u5099\u5c40\u6708\u5c71\u30c0\u30e0\u7ba1\u7406\u6240","boring_xml_url":40,"boring_view_url":1,"soilmap_view_url":null,"soiltest_xml_url":0,"soiltest_view_url":0},{"id":139379,"code":"B4KJ201801002-7628","latitude":"38.57517","longitude":"139.89519","source_code":"TH57396781001","project_name":"","survey_name":"\u4e0a\u4ecf\u6ca2\u6a4b\u5730\u76e4\u8abf\u67fb","client_name":"\u56fd\u571f\u4ea4\u901a\u7701\u6771\u5317\u5730\u65b9\u6574\u5099\u5c40\u6708\u5c71\u30c0\u30e0\u7ba1\u7406\u6240","boring_xml_url":40,"boring_view_url":1,"soilmap_view_url":null,"soiltest_xml_url":0,"soiltest_view_url":0},{"id":139378,"code":"B4KJ201801002-7627","latitude":"38.56233","longitude":"139.93581","source_code":"TH57396775015","project_name":"","survey_name":"+\u5ea7\u5730\u533a\u5730\u8cea\u8abf\u67fb","client_name":"\u56fd\u571f\u4ea4\u901a\u7701\u6771\u5317\u5730\u65b9\u6574\u5099\u5c40\u9152\u7530\u6cb3\u5ddd\u56fd\u9053\u4e8b\u52d9\u6240","boring_xml_url":40,"boring_view_url":1,"soilmap_view_url":null,"soiltest_xml_url":0,"soiltest_view_url":0},{"id":139377,"code":"B4KJ201801002-7626","latitude":"38.56231","longitude":"139.93553","source_code":"TH57396775014","project_name":"","survey_name":"+\u5ea7\u5730\u533a\u5730\u8cea\u8abf\u67fb","client_name":"\u56fd\u571f\u4ea4\u901a\u7701\u6771\u5317\u5730\u65b9\u6574\u5099\u5c40\u9152\u7530\u6cb3\u5ddd\u56fd\u9053\u4e8b\u52d9\u6240","boring_xml_url":40,"boring_view_url":1,"soilmap_view_url":null,"soiltest_xml_url":0,"soiltest_view_url":0},{"id":139376,"code":"B4KJ201801002-7625","latitude":"38.56228","longitude":"139.93525","source_code":"TH57396775013","project_name":"","survey_name":"+\u5ea7\u5730\u533a\u5730\u8cea\u8abf\u67fb","client_name":"\u56fd\u571f\u4ea4\u901a\u7701\u6771\u5317\u5730\u65b9\u6574\u5099\u5c40\u9152\u7530\u6cb3\u5ddd\u56fd\u9053\u4e8b\u52d9\u6240","boring_xml_url":40,"boring_view_url":1,"soilmap_view_url":null,"soiltest_xml_url":0,"soiltest_view_url":0}]}}