{"header":{"xyz":{"source":[],"mosaic":false},"page":6047,"raw":{"soiltest_result":"0","bbox":"57.598333,109.544722,1.933333,163.806111","page":"6047"},"conditions":{"soiltest_result":0,"north":57.598333,"west":109.544722,"south":1.933333,"east":163.806111},"success":true,"message":""},"data":{"meta":{"total":212844,"page":6047,"pages":7095,"count":30},"values":[{"id":139165,"code":"B4KJ201801002-7414","latitude":"38.01242","longitude":"139.93167","source_code":"TH57390714014","project_name":"","survey_name":"\u56fd\u9053113\u53f7\u843d\u5408\u6539\u826f\u624b\u306e\u5b50\u5730\u533a\u5730\u76e4\u8abf\u67fb","client_name":"\u56fd\u571f\u4ea4\u901a\u7701\u6771\u5317\u5730\u65b9\u6574\u5099\u5c40\u5c71\u5f62\u6cb3\u5ddd\u56fd\u9053\u4e8b\u52d9\u6240","boring_xml_url":40,"boring_view_url":1,"soilmap_view_url":null,"soiltest_xml_url":0,"soiltest_view_url":0},{"id":139164,"code":"B4KJ201801002-7413","latitude":"38.01408","longitude":"139.92972","source_code":"TH57390714013","project_name":"","survey_name":"\u56fd\u9053113\u53f7\u843d\u5408\u6539\u826f\u624b\u306e\u5b50\u5730\u533a\u5730\u76e4\u8abf\u67fb","client_name":"\u56fd\u571f\u4ea4\u901a\u7701\u6771\u5317\u5730\u65b9\u6574\u5099\u5c40\u5c71\u5f62\u6cb3\u5ddd\u56fd\u9053\u4e8b\u52d9\u6240","boring_xml_url":40,"boring_view_url":1,"soilmap_view_url":null,"soiltest_xml_url":0,"soiltest_view_url":0},{"id":139163,"code":"B4KJ201801002-7412","latitude":"38.01464","longitude":"139.92972","source_code":"TH57390714012","project_name":"","survey_name":"\u56fd\u9053113\u53f7\u843d\u5408\u6539\u826f\u624b\u306e\u5b50\u5730\u533a\u5730\u76e4\u8abf\u67fb","client_name":"\u56fd\u571f\u4ea4\u901a\u7701\u6771\u5317\u5730\u65b9\u6574\u5099\u5c40\u5c71\u5f62\u6cb3\u5ddd\u56fd\u9053\u4e8b\u52d9\u6240","boring_xml_url":40,"boring_view_url":1,"soilmap_view_url":null,"soiltest_xml_url":0,"soiltest_view_url":0},{"id":139162,"code":"B4KJ201801002-7411","latitude":"38.01464","longitude":"139.92917","source_code":"TH57390714011","project_name":"","survey_name":"\u56fd\u9053113\u53f7\u843d\u5408\u6539\u826f\u624b\u306e\u5b50\u5730\u533a\u5730\u76e4\u8abf\u67fb","client_name":"\u56fd\u571f\u4ea4\u901a\u7701\u6771\u5317\u5730\u65b9\u6574\u5099\u5c40\u5c71\u5f62\u6cb3\u5ddd\u56fd\u9053\u4e8b\u52d9\u6240","boring_xml_url":40,"boring_view_url":1,"soilmap_view_url":null,"soiltest_xml_url":0,"soiltest_view_url":0},{"id":139161,"code":"B4KJ201801002-7410","latitude":"38.01492","longitude":"139.92944","source_code":"TH57390714010","project_name":"","survey_name":"\u56fd\u9053113\u53f7\u843d\u5408\u6539\u826f\u624b\u306e\u5b50\u5730\u533a\u5730\u76e4\u8abf\u67fb","client_name":"\u56fd\u571f\u4ea4\u901a\u7701\u6771\u5317\u5730\u65b9\u6574\u5099\u5c40\u5c71\u5f62\u6cb3\u5ddd\u56fd\u9053\u4e8b\u52d9\u6240","boring_xml_url":40,"boring_view_url":1,"soilmap_view_url":null,"soiltest_xml_url":0,"soiltest_view_url":0},{"id":139160,"code":"B4KJ201801002-7409","latitude":"38.01269","longitude":"139.93167","source_code":"TH57390714009","project_name":"","survey_name":"\u56fd\u9053113\u53f7\u843d\u5408\u6539\u826f\u624b\u306e\u5b50\u5730\u533a\u5730\u76e4\u8abf\u67fb","client_name":"\u56fd\u571f\u4ea4\u901a\u7701\u6771\u5317\u5730\u65b9\u6574\u5099\u5c40\u5c71\u5f62\u6cb3\u5ddd\u56fd\u9053\u4e8b\u52d9\u6240","boring_xml_url":40,"boring_view_url":1,"soilmap_view_url":null,"soiltest_xml_url":0,"soiltest_view_url":0},{"id":139159,"code":"B4KJ201801002-7408","latitude":"38.01519","longitude":"139.92917","source_code":"TH57390714008","project_name":"","survey_name":"\u56fd\u9053113\u53f7\u843d\u5408\u6539\u826f\u624b\u306e\u5b50\u5730\u533a\u5730\u76e4\u8abf\u67fb","client_name":"\u56fd\u571f\u4ea4\u901a\u7701\u6771\u5317\u5730\u65b9\u6574\u5099\u5c40\u5c71\u5f62\u6cb3\u5ddd\u56fd\u9053\u4e8b\u52d9\u6240","boring_xml_url":40,"boring_view_url":1,"soilmap_view_url":null,"soiltest_xml_url":0,"soiltest_view_url":0},{"id":139158,"code":"B4KJ201801002-7407","latitude":"38.01547","longitude":"139.92792","source_code":"TH57390714007","project_name":"","survey_name":"\u662d\u548c61\u5e74\u5ea6\u843d\u5408\u5730\u533a\u5730\u76e4\u8abf\u67fb","client_name":"\u56fd\u571f\u4ea4\u901a\u7701\u6771\u5317\u5730\u65b9\u6574\u5099\u5c40\u5c71\u5f62\u6cb3\u5ddd\u56fd\u9053\u4e8b\u52d9\u6240","boring_xml_url":40,"boring_view_url":1,"soilmap_view_url":null,"soiltest_xml_url":0,"soiltest_view_url":0},{"id":139157,"code":"B4KJ201801002-7406","latitude":"38.01425","longitude":"139.93083","source_code":"TH57390714006","project_name":"","survey_name":"\u662d\u548c61\u5e74\u5ea6\u843d\u5408\u5730\u533a\u5730\u76e4\u8abf\u67fb","client_name":"\u56fd\u571f\u4ea4\u901a\u7701\u6771\u5317\u5730\u65b9\u6574\u5099\u5c40\u5c71\u5f62\u6cb3\u5ddd\u56fd\u9053\u4e8b\u52d9\u6240","boring_xml_url":40,"boring_view_url":1,"soilmap_view_url":null,"soiltest_xml_url":0,"soiltest_view_url":0},{"id":139156,"code":"B4KJ201801002-7405","latitude":"38.01403","longitude":"139.93111","source_code":"TH57390714005","project_name":"","survey_name":"\u662d\u548c61\u5e74\u5ea6\u843d\u5408\u5730\u533a\u5730\u76e4\u8abf\u67fb","client_name":"\u56fd\u571f\u4ea4\u901a\u7701\u6771\u5317\u5730\u65b9\u6574\u5099\u5c40\u5c71\u5f62\u6cb3\u5ddd\u56fd\u9053\u4e8b\u52d9\u6240","boring_xml_url":40,"boring_view_url":1,"soilmap_view_url":null,"soiltest_xml_url":0,"soiltest_view_url":0},{"id":139155,"code":"B4KJ201801002-7404","latitude":"38.01381","longitude":"139.93111","source_code":"TH57390714004","project_name":"","survey_name":"\u662d\u548c61\u5e74\u5ea6\u843d\u5408\u5730\u533a\u5730\u76e4\u8abf\u67fb","client_name":"\u56fd\u571f\u4ea4\u901a\u7701\u6771\u5317\u5730\u65b9\u6574\u5099\u5c40\u5c71\u5f62\u6cb3\u5ddd\u56fd\u9053\u4e8b\u52d9\u6240","boring_xml_url":40,"boring_view_url":1,"soilmap_view_url":null,"soiltest_xml_url":0,"soiltest_view_url":0},{"id":139154,"code":"B4KJ201801002-7403","latitude":"38.01547","longitude":"139.92792","source_code":"TH57390714003","project_name":"","survey_name":"\u662d\u548c61\u5e74\u5ea6\u843d\u5408\u5730\u533a\u5730\u76e4\u8abf\u67fb","client_name":"\u56fd\u571f\u4ea4\u901a\u7701\u6771\u5317\u5730\u65b9\u6574\u5099\u5c40\u5c71\u5f62\u6cb3\u5ddd\u56fd\u9053\u4e8b\u52d9\u6240","boring_xml_url":40,"boring_view_url":1,"soilmap_view_url":null,"soiltest_xml_url":0,"soiltest_view_url":0},{"id":139153,"code":"B4KJ201801002-7402","latitude":"38.01536","longitude":"139.92789","source_code":"TH57390714002","project_name":"","survey_name":"\u662d\u548c60\u5e74\u5ea6\u843d\u5408\u30c8\u30f3\u30cd\u30eb\u5730\u76e4\u8abf\u67fb(\u305d\u306e2)","client_name":"\u56fd\u571f\u4ea4\u901a\u7701\u6771\u5317\u5730\u65b9\u6574\u5099\u5c40\u5c71\u5f62\u6cb3\u5ddd\u56fd\u9053\u4e8b\u52d9\u6240","boring_xml_url":40,"boring_view_url":1,"soilmap_view_url":null,"soiltest_xml_url":0,"soiltest_view_url":0},{"id":139152,"code":"B4KJ201801002-7401","latitude":"38.01564","longitude":"139.92561","source_code":"TH57390714001","project_name":"","survey_name":"\u662d\u548c60\u5e74\u5ea6\u843d\u5408\u30c8\u30f3\u30cd\u30eb\u5730\u76e4\u8abf\u67fb(\u305d\u306e2)","client_name":"\u56fd\u571f\u4ea4\u901a\u7701\u6771\u5317\u5730\u65b9\u6574\u5099\u5c40\u5c71\u5f62\u6cb3\u5ddd\u56fd\u9053\u4e8b\u52d9\u6240","boring_xml_url":40,"boring_view_url":1,"soilmap_view_url":null,"soiltest_xml_url":0,"soiltest_view_url":0},{"id":139151,"code":"B4KJ201801002-7400","latitude":"38.01853","longitude":"139.91125","source_code":"TH57390713017","project_name":"","survey_name":"\u662d\u548c61\u5e74\u5ea6\u9593\u702c1\u53f7\u6a4b\u8a73\u7d30\u8a2d\u8a08\u696d\u52d9\u59d4\u8a17","client_name":"\u56fd\u571f\u4ea4\u901a\u7701\u6771\u5317\u5730\u65b9\u6574\u5099\u5c40\u5c71\u5f62\u6cb3\u5ddd\u56fd\u9053\u4e8b\u52d9\u6240","boring_xml_url":40,"boring_view_url":1,"soilmap_view_url":null,"soiltest_xml_url":0,"soiltest_view_url":0},{"id":139150,"code":"B4KJ201801002-7399","latitude":"38.01853","longitude":"139.91083","source_code":"TH57390713016","project_name":"","survey_name":"\u662d\u548c61\u5e74\u5ea6\u9593\u702c1\u53f7\u6a4b\u8a73\u7d30\u8a2d\u8a08\u696d\u52d9\u59d4\u8a17","client_name":"\u56fd\u571f\u4ea4\u901a\u7701\u6771\u5317\u5730\u65b9\u6574\u5099\u5c40\u5c71\u5f62\u6cb3\u5ddd\u56fd\u9053\u4e8b\u52d9\u6240","boring_xml_url":40,"boring_view_url":1,"soilmap_view_url":null,"soiltest_xml_url":0,"soiltest_view_url":0},{"id":139149,"code":"B4KJ201801002-7398","latitude":"38.01864","longitude":"139.91042","source_code":"TH57390713015","project_name":"","survey_name":"\u662d\u548c61\u5e74\u5ea6\u9593\u702c1\u53f7\u6a4b\u8a73\u7d30\u8a2d\u8a08\u696d\u52d9\u59d4\u8a17","client_name":"\u56fd\u571f\u4ea4\u901a\u7701\u6771\u5317\u5730\u65b9\u6574\u5099\u5c40\u5c71\u5f62\u6cb3\u5ddd\u56fd\u9053\u4e8b\u52d9\u6240","boring_xml_url":40,"boring_view_url":1,"soilmap_view_url":null,"soiltest_xml_url":0,"soiltest_view_url":0},{"id":139148,"code":"B4KJ201801002-7397","latitude":"38.01875","longitude":"139.91014","source_code":"TH57390713014","project_name":"","survey_name":"\u662d\u548c61\u5e74\u5ea6\u9593\u702c1\u53f7\u6a4b\u8a73\u7d30\u8a2d\u8a08\u696d\u52d9\u59d4\u8a17","client_name":"\u56fd\u571f\u4ea4\u901a\u7701\u6771\u5317\u5730\u65b9\u6574\u5099\u5c40\u5c71\u5f62\u6cb3\u5ddd\u56fd\u9053\u4e8b\u52d9\u6240","boring_xml_url":40,"boring_view_url":1,"soilmap_view_url":null,"soiltest_xml_url":0,"soiltest_view_url":0},{"id":139147,"code":"B4KJ201801002-7396","latitude":"38.01842","longitude":"139.91","source_code":"TH57390713013","project_name":"","survey_name":"\u662d\u548c61\u5e74\u5ea6\u9593\u702c1\u53f7\u6a4b\u8a73\u7d30\u8a2d\u8a08\u696d\u52d9\u59d4\u8a17","client_name":"\u56fd\u571f\u4ea4\u901a\u7701\u6771\u5317\u5730\u65b9\u6574\u5099\u5c40\u5c71\u5f62\u6cb3\u5ddd\u56fd\u9053\u4e8b\u52d9\u6240","boring_xml_url":40,"boring_view_url":1,"soilmap_view_url":null,"soiltest_xml_url":0,"soiltest_view_url":0},{"id":139146,"code":"B4KJ201801002-7395","latitude":"38.01842","longitude":"139.90972","source_code":"TH57390713012","project_name":"","survey_name":"\u662d\u548c61\u5e74\u5ea6\u9593\u702c1\u53f7\u6a4b\u8a73\u7d30\u8a2d\u8a08\u696d\u52d9\u59d4\u8a17","client_name":"\u56fd\u571f\u4ea4\u901a\u7701\u6771\u5317\u5730\u65b9\u6574\u5099\u5c40\u5c71\u5f62\u6cb3\u5ddd\u56fd\u9053\u4e8b\u52d9\u6240","boring_xml_url":40,"boring_view_url":1,"soilmap_view_url":null,"soiltest_xml_url":0,"soiltest_view_url":0},{"id":139145,"code":"B4KJ201801002-7394","latitude":"38.01772","longitude":"139.91342","source_code":"TH57390713008","project_name":"","survey_name":"\u662d\u548c60\u5e74\u5ea6\u9593\u702c2\u53f7\u6a4b\u5730\u76e4\u8abf\u67fb","client_name":"\u56fd\u571f\u4ea4\u901a\u7701\u6771\u5317\u5730\u65b9\u6574\u5099\u5c40\u5c71\u5f62\u6cb3\u5ddd\u56fd\u9053\u4e8b\u52d9\u6240","boring_xml_url":40,"boring_view_url":1,"soilmap_view_url":null,"soiltest_xml_url":0,"soiltest_view_url":0},{"id":139144,"code":"B4KJ201801002-7393","latitude":"38.01789","longitude":"139.91183","source_code":"TH57390713004","project_name":"","survey_name":"\u662d\u548c59\u5e74\u5ea6\u843d\u5408\u5c40\u6539\u6cbc\u6ca2\u5730\u533a\u5730\u76e4\u8abf\u67fb","client_name":"\u56fd\u571f\u4ea4\u901a\u7701\u6771\u5317\u5730\u65b9\u6574\u5099\u5c40\u5c71\u5f62\u6cb3\u5ddd\u56fd\u9053\u4e8b\u52d9\u6240","boring_xml_url":40,"boring_view_url":1,"soilmap_view_url":null,"soiltest_xml_url":0,"soiltest_view_url":0},{"id":139143,"code":"B4KJ201801002-7392","latitude":"38.01731","longitude":"139.91239","source_code":"TH57390713003","project_name":"","survey_name":"\u662d\u548c59\u5e74\u5ea6\u843d\u5408\u5c40\u6539\u6cbc\u6ca2\u5730\u533a\u5730\u76e4\u8abf\u67fb","client_name":"\u56fd\u571f\u4ea4\u901a\u7701\u6771\u5317\u5730\u65b9\u6574\u5099\u5c40\u5c71\u5f62\u6cb3\u5ddd\u56fd\u9053\u4e8b\u52d9\u6240","boring_xml_url":40,"boring_view_url":1,"soilmap_view_url":null,"soiltest_xml_url":0,"soiltest_view_url":0},{"id":139142,"code":"B4KJ201801002-7391","latitude":"38.01731","longitude":"139.91183","source_code":"TH57390713002","project_name":"","survey_name":"\u662d\u548c59\u5e74\u5ea6\u843d\u5408\u5c40\u6539\u6cbc\u6ca2\u5730\u533a\u5730\u76e4\u8abf\u67fb","client_name":"\u56fd\u571f\u4ea4\u901a\u7701\u6771\u5317\u5730\u65b9\u6574\u5099\u5c40\u5c71\u5f62\u6cb3\u5ddd\u56fd\u9053\u4e8b\u52d9\u6240","boring_xml_url":40,"boring_view_url":1,"soilmap_view_url":null,"soiltest_xml_url":0,"soiltest_view_url":0},{"id":139141,"code":"B4KJ201801002-7390","latitude":"38.01731","longitude":"139.91131","source_code":"TH57390713001","project_name":"","survey_name":"\u662d\u548c59\u5e74\u5ea6\u843d\u5408\u5c40\u6539\u6cbc\u6ca2\u5730\u533a\u5730\u76e4\u8abf\u67fb","client_name":"\u56fd\u571f\u4ea4\u901a\u7701\u6771\u5317\u5730\u65b9\u6574\u5099\u5c40\u5c71\u5f62\u6cb3\u5ddd\u56fd\u9053\u4e8b\u52d9\u6240","boring_xml_url":40,"boring_view_url":1,"soilmap_view_url":null,"soiltest_xml_url":0,"soiltest_view_url":0},{"id":139140,"code":"B4KJ201801002-7389","latitude":"37.54889","longitude":"141.00283","source_code":"TH56412050001","project_name":"","survey_name":"\u7b2c\u4e00\u6cbc\u7530\u6a4b\u4e0b\u90e8\u5de5\u5730\u8cea\u8abf\u67fb","client_name":"\u56fd\u571f\u4ea4\u901a\u7701\u6771\u5317\u5730\u65b9\u6574\u5099\u5c40\u78d0\u57ce\u56fd\u9053\u4e8b\u52d9\u6240","boring_xml_url":40,"boring_view_url":1,"soilmap_view_url":null,"soiltest_xml_url":0,"soiltest_view_url":0},{"id":139139,"code":"B4KJ201801002-7388","latitude":"37.49311","longitude":"141.00331","source_code":"TH56411080002","project_name":"","survey_name":"\u5e7e\u4e16\u6a4b\u4ea4\u5dee\u70b9\u6539\u826f\u5b9f\u65bd\u8a2d\u8a08\u696d\u52d9\u59d4\u8a17","client_name":"\u56fd\u571f\u4ea4\u901a\u7701\u6771\u5317\u5730\u65b9\u6574\u5099\u5c40\u78d0\u57ce\u56fd\u9053\u4e8b\u52d9\u6240","boring_xml_url":40,"boring_view_url":1,"soilmap_view_url":null,"soiltest_xml_url":0,"soiltest_view_url":0},{"id":139138,"code":"B4KJ201801002-7387","latitude":"37.49311","longitude":"141.00281","source_code":"TH56411080001","project_name":"","survey_name":"\u5e7e\u4e16\u6a4b\u4ea4\u5dee\u70b9\u6539\u826f\u5b9f\u65bd\u8a2d\u8a08\u696d\u52d9\u59d4\u8a17","client_name":"\u56fd\u571f\u4ea4\u901a\u7701\u6771\u5317\u5730\u65b9\u6574\u5099\u5c40\u78d0\u57ce\u56fd\u9053\u4e8b\u52d9\u6240","boring_xml_url":40,"boring_view_url":1,"soilmap_view_url":null,"soiltest_xml_url":0,"soiltest_view_url":0},{"id":139137,"code":"B4KJ201801002-7386","latitude":"37.93719","longitude":"140.89431","source_code":"TH56407721001","project_name":"","survey_name":"\u5e73\u62107\u5e74\u5ea6\u5742\u5143\u5730\u533a\u6a4b\u6881\u8a73\u7d30\u8a2d\u8a08\u696d\u52d9\u59d4\u8a17","client_name":"\u56fd\u571f\u4ea4\u901a\u7701\u6771\u5317\u5730\u65b9\u6574\u5099\u5c40\u4ed9\u53f0\u6cb3\u5ddd\u56fd\u9053\u4e8b\u52d9\u6240","boring_xml_url":40,"boring_view_url":1,"soilmap_view_url":null,"soiltest_xml_url":0,"soiltest_view_url":0},{"id":139136,"code":"B4KJ201801002-7385","latitude":"37.92772","longitude":"140.89783","source_code":"TH56407702009","project_name":"","survey_name":"\u5e73\u62107\u5e74\u5ea6\u5742\u5143\u5730\u533a\u6a4b\u6881\u8a73\u7d30\u8a2d\u8a08\u696d\u52d9\u59d4\u8a17","client_name":"\u56fd\u571f\u4ea4\u901a\u7701\u6771\u5317\u5730\u65b9\u6574\u5099\u5c40\u4ed9\u53f0\u6cb3\u5ddd\u56fd\u9053\u4e8b\u52d9\u6240","boring_xml_url":40,"boring_view_url":1,"soilmap_view_url":null,"soiltest_xml_url":0,"soiltest_view_url":0}]}}