{"header":{"xyz":{"source":[],"mosaic":false},"page":6057,"raw":{"soiltest_result":"0","bbox":"57.598333,109.544722,1.933333,163.806111","page":"6057"},"conditions":{"soiltest_result":0,"north":57.598333,"west":109.544722,"south":1.933333,"east":163.806111},"success":true,"message":""},"data":{"meta":{"total":212844,"page":6057,"pages":7095,"count":30},"values":[{"id":138865,"code":"B4KJ201801002-7114","latitude":"37.78128","longitude":"140.45344","source_code":"TH56405336016","project_name":"","survey_name":"\u5e73\u62105\u5e74\u5ea6\u6e05\u6c34\u9ad8\u67b6\u6a4b\u5730\u76e4\u8abf\u67fb","client_name":"\u56fd\u571f\u4ea4\u901a\u7701\u6771\u5317\u5730\u65b9\u6574\u5099\u5c40\u798f\u5cf6\u6cb3\u5ddd\u56fd\u9053\u4e8b\u52d9\u6240","boring_xml_url":40,"boring_view_url":1,"soilmap_view_url":null,"soiltest_xml_url":0,"soiltest_view_url":0},{"id":138864,"code":"B4KJ201801002-7113","latitude":"37.78192","longitude":"140.45386","source_code":"TH56405336015","project_name":"","survey_name":"\u5e73\u62104\u5e74\u5ea6\u6cc9\u5730\u533a\u5730\u76e4\u8abf\u67fb","client_name":"\u56fd\u571f\u4ea4\u901a\u7701\u6771\u5317\u5730\u65b9\u6574\u5099\u5c40\u798f\u5cf6\u6cb3\u5ddd\u56fd\u9053\u4e8b\u52d9\u6240","boring_xml_url":40,"boring_view_url":1,"soilmap_view_url":null,"soiltest_xml_url":0,"soiltest_view_url":0},{"id":138863,"code":"B4KJ201801002-7112","latitude":"37.78108","longitude":"140.45303","source_code":"TH56405336014","project_name":"","survey_name":"\u5e73\u62104\u5e74\u5ea6\u6cc9\u5730\u533a\u5730\u76e4\u8abf\u67fb","client_name":"\u56fd\u571f\u4ea4\u901a\u7701\u6771\u5317\u5730\u65b9\u6574\u5099\u5c40\u798f\u5cf6\u6cb3\u5ddd\u56fd\u9053\u4e8b\u52d9\u6240","boring_xml_url":40,"boring_view_url":1,"soilmap_view_url":null,"soiltest_xml_url":0,"soiltest_view_url":0},{"id":138862,"code":"B4KJ201801002-7111","latitude":"37.77997","longitude":"140.45275","source_code":"TH56405336013","project_name":"","survey_name":"\u5e73\u62104\u5e74\u5ea6\u6cc9\u5730\u533a\u5730\u76e4\u8abf\u67fb","client_name":"\u56fd\u571f\u4ea4\u901a\u7701\u6771\u5317\u5730\u65b9\u6574\u5099\u5c40\u798f\u5cf6\u6cb3\u5ddd\u56fd\u9053\u4e8b\u52d9\u6240","boring_xml_url":40,"boring_view_url":1,"soilmap_view_url":null,"soiltest_xml_url":0,"soiltest_view_url":0},{"id":138861,"code":"B4KJ201801002-7110","latitude":"37.78581","longitude":"140.45747","source_code":"TH56405336012","project_name":"","survey_name":"\u798f\u5cf6\u897f\u9053\u8def\u5730\u76e4\u8abf\u67fb","client_name":"\u56fd\u571f\u4ea4\u901a\u7701\u6771\u5317\u5730\u65b9\u6574\u5099\u5c40\u798f\u5cf6\u6cb3\u5ddd\u56fd\u9053\u4e8b\u52d9\u6240","boring_xml_url":40,"boring_view_url":1,"soilmap_view_url":null,"soiltest_xml_url":0,"soiltest_view_url":0},{"id":138860,"code":"B4KJ201801002-7109","latitude":"37.78497","longitude":"140.45192","source_code":"TH56405336011","project_name":"","survey_name":"\u798f\u5cf6\u897f\u9053\u8def\u5730\u76e4\u8abf\u67fb","client_name":"\u56fd\u571f\u4ea4\u901a\u7701\u6771\u5317\u5730\u65b9\u6574\u5099\u5c40\u798f\u5cf6\u6cb3\u5ddd\u56fd\u9053\u4e8b\u52d9\u6240","boring_xml_url":40,"boring_view_url":1,"soilmap_view_url":null,"soiltest_xml_url":0,"soiltest_view_url":0},{"id":138859,"code":"B4KJ201801002-7108","latitude":"37.78025","longitude":"140.45219","source_code":"TH56405336010","project_name":"","survey_name":"\u798f\u5cf6\u897f\u9053\u8def\u5730\u76e4\u8abf\u67fb","client_name":"\u56fd\u571f\u4ea4\u901a\u7701\u6771\u5317\u5730\u65b9\u6574\u5099\u5c40\u798f\u5cf6\u6cb3\u5ddd\u56fd\u9053\u4e8b\u52d9\u6240","boring_xml_url":40,"boring_view_url":1,"soilmap_view_url":null,"soiltest_xml_url":0,"soiltest_view_url":0},{"id":138858,"code":"B4KJ201801002-7107","latitude":"37.7785","longitude":"140.44886","source_code":"TH56405336009","project_name":"","survey_name":"\u5e73\u62103\u5e74\u5ea6\u6e05\u6c34\u9ad8\u67b6\u6a4b\u5730\u76e4\u8abf\u67fb","client_name":"\u56fd\u571f\u4ea4\u901a\u7701\u6771\u5317\u5730\u65b9\u6574\u5099\u5c40\u798f\u5cf6\u6cb3\u5ddd\u56fd\u9053\u4e8b\u52d9\u6240","boring_xml_url":40,"boring_view_url":1,"soilmap_view_url":null,"soiltest_xml_url":0,"soiltest_view_url":0},{"id":138857,"code":"B4KJ201801002-7106","latitude":"37.78225","longitude":"140.45519","source_code":"TH56405336008","project_name":"","survey_name":"\u5e73\u6210\u5143\u5e74\u5ea6\u677e\u5ddd\u6a4b\u5730\u76e4\u8abf\u67fb","client_name":"\u56fd\u571f\u4ea4\u901a\u7701\u6771\u5317\u5730\u65b9\u6574\u5099\u5c40\u798f\u5cf6\u6cb3\u5ddd\u56fd\u9053\u4e8b\u52d9\u6240","boring_xml_url":40,"boring_view_url":1,"soilmap_view_url":null,"soiltest_xml_url":0,"soiltest_view_url":0},{"id":138856,"code":"B4KJ201801002-7105","latitude":"37.78203","longitude":"140.45511","source_code":"TH56405336007","project_name":"","survey_name":"\u5e73\u6210\u5143\u5e74\u5ea6\u677e\u5ddd\u6a4b\u5730\u76e4\u8abf\u67fb","client_name":"\u56fd\u571f\u4ea4\u901a\u7701\u6771\u5317\u5730\u65b9\u6574\u5099\u5c40\u798f\u5cf6\u6cb3\u5ddd\u56fd\u9053\u4e8b\u52d9\u6240","boring_xml_url":40,"boring_view_url":1,"soilmap_view_url":null,"soiltest_xml_url":0,"soiltest_view_url":0},{"id":138855,"code":"B4KJ201801002-7104","latitude":"37.78186","longitude":"140.45497","source_code":"TH56405336006","project_name":"","survey_name":"\u5e73\u6210\u5143\u5e74\u5ea6\u677e\u5ddd\u6a4b\u5730\u76e4\u8abf\u67fb","client_name":"\u56fd\u571f\u4ea4\u901a\u7701\u6771\u5317\u5730\u65b9\u6574\u5099\u5c40\u798f\u5cf6\u6cb3\u5ddd\u56fd\u9053\u4e8b\u52d9\u6240","boring_xml_url":40,"boring_view_url":1,"soilmap_view_url":null,"soiltest_xml_url":0,"soiltest_view_url":0},{"id":138854,"code":"B4KJ201801002-7103","latitude":"37.78169","longitude":"140.45483","source_code":"TH56405336005","project_name":"","survey_name":"\u5e73\u6210\u5143\u5e74\u5ea6\u677e\u5ddd\u6a4b\u5730\u76e4\u8abf\u67fb","client_name":"\u56fd\u571f\u4ea4\u901a\u7701\u6771\u5317\u5730\u65b9\u6574\u5099\u5c40\u798f\u5cf6\u6cb3\u5ddd\u56fd\u9053\u4e8b\u52d9\u6240","boring_xml_url":40,"boring_view_url":1,"soilmap_view_url":null,"soiltest_xml_url":0,"soiltest_view_url":0},{"id":138853,"code":"B4KJ201801002-7102","latitude":"37.78192","longitude":"140.44942","source_code":"TH56405336004","project_name":"","survey_name":"\u662d\u548c62\u5e74\u5ea6\u6cc9\u5730\u533a\u5730\u4e0b\u6c34\u53ca\u3073\u5730\u76e4\u8abf\u67fb","client_name":"\u56fd\u571f\u4ea4\u901a\u7701\u6771\u5317\u5730\u65b9\u6574\u5099\u5c40\u798f\u5cf6\u6cb3\u5ddd\u56fd\u9053\u4e8b\u52d9\u6240","boring_xml_url":40,"boring_view_url":1,"soilmap_view_url":null,"soiltest_xml_url":0,"soiltest_view_url":0},{"id":138852,"code":"B4KJ201801002-7101","latitude":"37.78192","longitude":"140.44942","source_code":"TH56405336003","project_name":"","survey_name":"\u662d\u548c62\u5e74\u5ea6\u6cc9\u5730\u533a\u5730\u4e0b\u6c34\u53ca\u3073\u5730\u76e4\u8abf\u67fb","client_name":"\u56fd\u571f\u4ea4\u901a\u7701\u6771\u5317\u5730\u65b9\u6574\u5099\u5c40\u798f\u5cf6\u6cb3\u5ddd\u56fd\u9053\u4e8b\u52d9\u6240","boring_xml_url":40,"boring_view_url":1,"soilmap_view_url":null,"soiltest_xml_url":0,"soiltest_view_url":0},{"id":138851,"code":"B4KJ201801002-7100","latitude":"37.78189","longitude":"140.45394","source_code":"TH56405336001","project_name":"","survey_name":"\u6cc9\uff5e\u5317\u6ca2\u53c8\u5730\u533a\u5730\u4e0b\u6c34\u8abf\u67fb","client_name":"\u56fd\u571f\u4ea4\u901a\u7701\u6771\u5317\u5730\u65b9\u6574\u5099\u5c40\u798f\u5cf6\u6cb3\u5ddd\u56fd\u9053\u4e8b\u52d9\u6240","boring_xml_url":40,"boring_view_url":1,"soilmap_view_url":null,"soiltest_xml_url":0,"soiltest_view_url":0},{"id":138850,"code":"B4KJ201801002-7099","latitude":"37.78519","longitude":"140.39517","source_code":"TH56405331008","project_name":"","survey_name":"\u677e\u5ddd\u904a\u7802\u5730\u7b2c1\u5e8a\u56fa\u5730\u8cea\u8abf\u67fb","client_name":"\u56fd\u571f\u4ea4\u901a\u7701\u6771\u5317\u5730\u65b9\u6574\u5099\u5c40\u798f\u5cf6\u6cb3\u5ddd\u56fd\u9053\u4e8b\u52d9\u6240","boring_xml_url":40,"boring_view_url":1,"soilmap_view_url":null,"soiltest_xml_url":0,"soiltest_view_url":0},{"id":138849,"code":"B4KJ201801002-7098","latitude":"37.78519","longitude":"140.39517","source_code":"TH56405331007","project_name":"","survey_name":"\u677e\u5ddd\u7802\u904a\u5730\u7b2c1\u5e8a\u56fa\u5730\u8cea\u8abf\u67fb","client_name":"\u56fd\u571f\u4ea4\u901a\u7701\u6771\u5317\u5730\u65b9\u6574\u5099\u5c40\u798f\u5cf6\u6cb3\u5ddd\u56fd\u9053\u4e8b\u52d9\u6240","boring_xml_url":40,"boring_view_url":1,"soilmap_view_url":null,"soiltest_xml_url":0,"soiltest_view_url":0},{"id":138848,"code":"B4KJ201801002-7097","latitude":"37.78519","longitude":"140.39517","source_code":"TH56405331006","project_name":"","survey_name":"\u677e\u5ddd\u904a\u7802\u5730\u7b2c1\u5e8a\u56fa\u5730\u8cea\u8abf\u67fb","client_name":"\u56fd\u571f\u4ea4\u901a\u7701\u6771\u5317\u5730\u65b9\u6574\u5099\u5c40\u798f\u5cf6\u6cb3\u5ddd\u56fd\u9053\u4e8b\u52d9\u6240","boring_xml_url":40,"boring_view_url":1,"soilmap_view_url":null,"soiltest_xml_url":0,"soiltest_view_url":0},{"id":138847,"code":"B4KJ201801002-7096","latitude":"37.78519","longitude":"140.39517","source_code":"TH56405331005","project_name":"","survey_name":"\u677e\u5ddd\u904a\u7802\u5730\u7b2c1\u5e8a\u56fa\u5730\u8cea\u8abf\u67fb","client_name":"\u56fd\u571f\u4ea4\u901a\u7701\u6771\u5317\u5730\u65b9\u6574\u5099\u5c40\u798f\u5cf6\u6cb3\u5ddd\u56fd\u9053\u4e8b\u52d9\u6240","boring_xml_url":40,"boring_view_url":1,"soilmap_view_url":null,"soiltest_xml_url":0,"soiltest_view_url":0},{"id":138846,"code":"B4KJ201801002-7095","latitude":"37.78519","longitude":"140.39517","source_code":"TH56405331004","project_name":"","survey_name":"\u677e\u5ddd\u904a\u7802\u5730\u7b2c1\u5e8a\u56fa\u5730\u8cea\u8abf\u67fb","client_name":"\u56fd\u571f\u4ea4\u901a\u7701\u6771\u5317\u5730\u65b9\u6574\u5099\u5c40\u798f\u5cf6\u6cb3\u5ddd\u56fd\u9053\u4e8b\u52d9\u6240","boring_xml_url":40,"boring_view_url":1,"soilmap_view_url":null,"soiltest_xml_url":0,"soiltest_view_url":0},{"id":138845,"code":"B4KJ201801002-7094","latitude":"37.78519","longitude":"140.39517","source_code":"TH56405331003","project_name":"","survey_name":"\u677e\u5ddd\u904a\u7802\u5730\u7b2c1\u5e8a\u56fa\u5730\u8cea\u8abf\u67fb","client_name":"\u56fd\u571f\u4ea4\u901a\u7701\u6771\u5317\u5730\u65b9\u6574\u5099\u5c40\u798f\u5cf6\u6cb3\u5ddd\u56fd\u9053\u4e8b\u52d9\u6240","boring_xml_url":40,"boring_view_url":1,"soilmap_view_url":null,"soiltest_xml_url":0,"soiltest_view_url":0},{"id":138844,"code":"B4KJ201801002-7093","latitude":"37.78519","longitude":"140.39517","source_code":"TH56405331002","project_name":"","survey_name":"\u677e\u5ddd\u904a\u7802\u5730\u7b2c1\u5e8a\u56fa\u5730\u8cea\u8abf\u67fb","client_name":"\u56fd\u571f\u4ea4\u901a\u7701\u6771\u5317\u5730\u65b9\u6574\u5099\u5c40\u798f\u5cf6\u6cb3\u5ddd\u56fd\u9053\u4e8b\u52d9\u6240","boring_xml_url":40,"boring_view_url":1,"soilmap_view_url":null,"soiltest_xml_url":0,"soiltest_view_url":0},{"id":138843,"code":"B4KJ201801002-7092","latitude":"37.78519","longitude":"140.39517","source_code":"TH56405331001","project_name":"","survey_name":"\u677e\u5ddd\u904a\u7802\u5730\u7b2c1\u5e8a\u56fa\u5730\u8cea\u8abf\u67fb","client_name":"\u56fd\u571f\u4ea4\u901a\u7701\u6771\u5317\u5730\u65b9\u6574\u5099\u5c40\u798f\u5cf6\u6cb3\u5ddd\u56fd\u9053\u4e8b\u52d9\u6240","boring_xml_url":40,"boring_view_url":1,"soilmap_view_url":null,"soiltest_xml_url":0,"soiltest_view_url":0},{"id":138842,"code":"B4KJ201801002-7091","latitude":"37.77531","longitude":"140.48325","source_code":"TH56405328001","project_name":"","survey_name":"\u4ec1\u4e95\u7530\u5730\u533a\u5730\u4e0b\u6c34\u8abf\u67fb","client_name":"\u56fd\u571f\u4ea4\u901a\u7701\u6771\u5317\u5730\u65b9\u6574\u5099\u5c40\u798f\u5cf6\u6cb3\u5ddd\u56fd\u9053\u4e8b\u52d9\u6240","boring_xml_url":40,"boring_view_url":1,"soilmap_view_url":null,"soiltest_xml_url":0,"soiltest_view_url":0},{"id":138841,"code":"B4KJ201801002-7090","latitude":"37.77625","longitude":"140.46553","source_code":"TH56405327002","project_name":"","survey_name":"\u5e73\u62102\u5e74\u5ea6\u4e0a\u90e1\u30fb\u5fa1\u5c71\u5730\u533a\u5730\u76e4\u8abf\u67fb","client_name":"\u56fd\u571f\u4ea4\u901a\u7701\u6771\u5317\u5730\u65b9\u6574\u5099\u5c40\u798f\u5cf6\u6cb3\u5ddd\u56fd\u9053\u4e8b\u52d9\u6240","boring_xml_url":40,"boring_view_url":1,"soilmap_view_url":null,"soiltest_xml_url":0,"soiltest_view_url":0},{"id":138840,"code":"B4KJ201801002-7089","latitude":"37.77808","longitude":"140.44792","source_code":"TH56405326005","project_name":"","survey_name":"\u5e73\u62105\u5e74\u5ea6\u6e05\u6c34\u9ad8\u67b6\u6a4b\u5730\u76e4\u8abf\u67fb","client_name":"\u56fd\u571f\u4ea4\u901a\u7701\u6771\u5317\u5730\u65b9\u6574\u5099\u5c40\u798f\u5cf6\u6cb3\u5ddd\u56fd\u9053\u4e8b\u52d9\u6240","boring_xml_url":40,"boring_view_url":1,"soilmap_view_url":null,"soiltest_xml_url":0,"soiltest_view_url":0},{"id":138839,"code":"B4KJ201801002-7088","latitude":"37.77778","longitude":"140.44736","source_code":"TH56405326004","project_name":"","survey_name":"\u5e73\u62105\u5e74\u5ea6\u6e05\u6c34\u9ad8\u67b6\u6a4b\u5730\u76e4\u8abf\u67fb","client_name":"\u56fd\u571f\u4ea4\u901a\u7701\u6771\u5317\u5730\u65b9\u6574\u5099\u5c40\u798f\u5cf6\u6cb3\u5ddd\u56fd\u9053\u4e8b\u52d9\u6240","boring_xml_url":40,"boring_view_url":1,"soilmap_view_url":null,"soiltest_xml_url":0,"soiltest_view_url":0},{"id":138838,"code":"B4KJ201801002-7087","latitude":"37.77742","longitude":"140.44803","source_code":"TH56405326003","project_name":"","survey_name":"\u5e73\u62105\u5e74\u5ea6\u6e05\u6c34\u9ad8\u67b6\u6a4b\u5730\u76e4\u8abf\u67fb","client_name":"\u56fd\u571f\u4ea4\u901a\u7701\u6771\u5317\u5730\u65b9\u6574\u5099\u5c40\u798f\u5cf6\u6cb3\u5ddd\u56fd\u9053\u4e8b\u52d9\u6240","boring_xml_url":40,"boring_view_url":1,"soilmap_view_url":null,"soiltest_xml_url":0,"soiltest_view_url":0},{"id":138837,"code":"B4KJ201801002-7086","latitude":"37.77794","longitude":"140.44775","source_code":"TH56405326002","project_name":"","survey_name":"\u5e73\u62103\u5e74\u5ea6\u6e05\u6c34\u9ad8\u67b6\u6a4b\u5730\u76e4\u8abf\u67fb","client_name":"\u56fd\u571f\u4ea4\u901a\u7701\u6771\u5317\u5730\u65b9\u6574\u5099\u5c40\u798f\u5cf6\u6cb3\u5ddd\u56fd\u9053\u4e8b\u52d9\u6240","boring_xml_url":40,"boring_view_url":1,"soilmap_view_url":null,"soiltest_xml_url":0,"soiltest_view_url":0},{"id":138836,"code":"B4KJ201801002-7085","latitude":"37.77783","longitude":"140.44719","source_code":"TH56405326001","project_name":"","survey_name":"\u5e73\u62103\u5e74\u5ea6\u6e05\u6c34\u9ad8\u67b6\u6a4b\u5730\u76e4\u8abf\u67fb","client_name":"\u56fd\u571f\u4ea4\u901a\u7701\u6771\u5317\u5730\u65b9\u6574\u5099\u5c40\u798f\u5cf6\u6cb3\u5ddd\u56fd\u9053\u4e8b\u52d9\u6240","boring_xml_url":40,"boring_view_url":1,"soilmap_view_url":null,"soiltest_xml_url":0,"soiltest_view_url":0}]}}