{"header":{"xyz":{"source":[],"mosaic":false},"page":6077,"raw":{"soiltest_result":"0","bbox":"57.598333,109.544722,1.933333,163.806111","page":"6077"},"conditions":{"soiltest_result":0,"north":57.598333,"west":109.544722,"south":1.933333,"east":163.806111},"success":true,"message":""},"data":{"meta":{"total":212844,"page":6077,"pages":7095,"count":30},"values":[{"id":138265,"code":"B4KJ201801002-6514","latitude":"37.55653","longitude":"139.858","source_code":"TH56392668001","project_name":"","survey_name":"\u662d\u548c58\u5e74\u5ea6\u5bae\u53e4\u6a4b\u5730\u76e4\u8abf\u67fb","client_name":"\u56fd\u571f\u4ea4\u901a\u7701\u6771\u5317\u5730\u65b9\u6574\u5099\u5c40\u90e1\u5c71\u56fd\u9053\u4e8b\u52d9\u6240","boring_xml_url":40,"boring_view_url":1,"soilmap_view_url":null,"soiltest_xml_url":0,"soiltest_view_url":0},{"id":138264,"code":"B4KJ201801002-6513","latitude":"37.55664","longitude":"139.74697","source_code":"TH56392660016","project_name":"","survey_name":"\u71b1\u6d77\u30d0\u30a4\u30d1\u30b9\u7389\u5ddd\u5730\u533a\u4ed6\u5730\u8cea\u8abf\u67fb\u696d\u52d9","client_name":"\u56fd\u571f\u4ea4\u901a\u7701\u6771\u5317\u5730\u65b9\u6574\u5099\u5c40\u90e1\u5c71\u56fd\u9053\u4e8b\u52d9\u6240","boring_xml_url":40,"boring_view_url":1,"soilmap_view_url":null,"soiltest_xml_url":0,"soiltest_view_url":0},{"id":138263,"code":"B4KJ201801002-6512","latitude":"37.55481","longitude":"139.75533","source_code":"TH56392660015","project_name":"","survey_name":"\u662d\u548c50\u5e74\u5ea6\u85e4\u6a4b\u4e88\u5099\u8a2d\u8a08\u306b\u4f34\u3046\u5730\u8cea\u8abf\u67fb","client_name":"\u56fd\u571f\u4ea4\u901a\u7701\u6771\u5317\u5730\u65b9\u6574\u5099\u5c40\u90e1\u5c71\u56fd\u9053\u4e8b\u52d9\u6240","boring_xml_url":40,"boring_view_url":1,"soilmap_view_url":null,"soiltest_xml_url":0,"soiltest_view_url":0},{"id":138262,"code":"B4KJ201801002-6511","latitude":"37.55492","longitude":"139.75478","source_code":"TH56392660014","project_name":"","survey_name":"\u662d\u548c50\u5e74\u5ea6\u85e4\u6a4b\u4e88\u5099\u8a2d\u8a08\u306b\u4f34\u3046\u5730\u8cea\u8abf\u67fb","client_name":"\u56fd\u571f\u4ea4\u901a\u7701\u6771\u5317\u5730\u65b9\u6574\u5099\u5c40\u90e1\u5c71\u56fd\u9053\u4e8b\u52d9\u6240","boring_xml_url":40,"boring_view_url":1,"soilmap_view_url":null,"soiltest_xml_url":0,"soiltest_view_url":0},{"id":138261,"code":"B4KJ201801002-6510","latitude":"37.55561","longitude":"139.75167","source_code":"TH56392660013","project_name":"","survey_name":"\u662d\u548c50\u5e74\u5ea6\u85e4\u6a4b\u4e88\u5099\u8a2d\u8a08\u306b\u4f34\u3046\u5730\u8cea\u8abf\u67fb","client_name":"\u56fd\u571f\u4ea4\u901a\u7701\u6771\u5317\u5730\u65b9\u6574\u5099\u5c40\u90e1\u5c71\u56fd\u9053\u4e8b\u52d9\u6240","boring_xml_url":40,"boring_view_url":1,"soilmap_view_url":null,"soiltest_xml_url":0,"soiltest_view_url":0},{"id":138260,"code":"B4KJ201801002-6509","latitude":"37.55561","longitude":"139.75094","source_code":"TH56392660012","project_name":"","survey_name":"\u662d\u548c50\u5e74\u5ea6\u85e4\u6a4b\u4e88\u5099\u8a2d\u8a08\u306b\u4f34\u3046\u5730\u8cea\u8abf\u67fb","client_name":"\u56fd\u571f\u4ea4\u901a\u7701\u6771\u5317\u5730\u65b9\u6574\u5099\u5c40\u90e1\u5c71\u56fd\u9053\u4e8b\u52d9\u6240","boring_xml_url":40,"boring_view_url":1,"soilmap_view_url":null,"soiltest_xml_url":0,"soiltest_view_url":0},{"id":138259,"code":"B4KJ201801002-6508","latitude":"37.22392","longitude":"141.00286","source_code":"TH55416060003","project_name":"","survey_name":"\u4e0b\u6d45\u898b\u5ddd\u5730\u8cea\u8abf\u67fb","client_name":"\u56fd\u571f\u4ea4\u901a\u7701\u6771\u5317\u5730\u65b9\u6574\u5099\u5c40\u78d0\u57ce\u56fd\u9053\u4e8b\u52d9\u6240","boring_xml_url":40,"boring_view_url":1,"soilmap_view_url":null,"soiltest_xml_url":0,"soiltest_view_url":0},{"id":138258,"code":"B4KJ201801002-6507","latitude":"37.22114","longitude":"141.00383","source_code":"TH55416060002","project_name":"","survey_name":"\u4e0b\u6d45\u898b\u5ddd\u5730\u8cea\u8abf\u67fb","client_name":"\u56fd\u571f\u4ea4\u901a\u7701\u6771\u5317\u5730\u65b9\u6574\u5099\u5c40\u78d0\u57ce\u56fd\u9053\u4e8b\u52d9\u6240","boring_xml_url":40,"boring_view_url":1,"soilmap_view_url":null,"soiltest_xml_url":0,"soiltest_view_url":0},{"id":138257,"code":"B4KJ201801002-6506","latitude":"37.22114","longitude":"141.00383","source_code":"TH55416060001","project_name":"","survey_name":"\u4e0b\u6d45\u898b\u5ddd\u5730\u8cea\u8abf\u67fb","client_name":"\u56fd\u571f\u4ea4\u901a\u7701\u6771\u5317\u5730\u65b9\u6574\u5099\u5c40\u78d0\u57ce\u56fd\u9053\u4e8b\u52d9\u6240","boring_xml_url":40,"boring_view_url":1,"soilmap_view_url":null,"soiltest_xml_url":0,"soiltest_view_url":0},{"id":138256,"code":"B4KJ201801002-6505","latitude":"37.29772","longitude":"140.37717","source_code":"TH55407350003","project_name":"","survey_name":"\u662d\u548c50\u5e74\u5ea6\u91c8\u8fe6\u5802\u5ddd\u5730\u76e4\u8abf\u67fb\u696d\u52d9\u59d4\u8a17","client_name":"\u56fd\u571f\u4ea4\u901a\u7701\u6771\u5317\u5730\u65b9\u6574\u5099\u5c40\u798f\u5cf6\u6cb3\u5ddd\u56fd\u9053\u4e8b\u52d9\u6240","boring_xml_url":40,"boring_view_url":1,"soilmap_view_url":null,"soiltest_xml_url":0,"soiltest_view_url":0},{"id":138255,"code":"B4KJ201801002-6504","latitude":"37.29803","longitude":"140.37772","source_code":"TH55407350002","project_name":"","survey_name":"\u662d\u548c50\u5e74\u5ea6\u91c8\u8fe6\u5802\u5ddd\u5730\u76e4\u8abf\u67fb\u696d\u52d9\u59d4\u8a17","client_name":"\u56fd\u571f\u4ea4\u901a\u7701\u6771\u5317\u5730\u65b9\u6574\u5099\u5c40\u798f\u5cf6\u6cb3\u5ddd\u56fd\u9053\u4e8b\u52d9\u6240","boring_xml_url":40,"boring_view_url":1,"soilmap_view_url":null,"soiltest_xml_url":0,"soiltest_view_url":0},{"id":138254,"code":"B4KJ201801002-6503","latitude":"37.29839","longitude":"140.37831","source_code":"TH55407350001","project_name":"","survey_name":"\u662d\u548c50\u5e74\u5ea6\u91c8\u8fe6\u5802\u5ddd\u5730\u76e4\u8abf\u67fb\u696d\u52d9\u59d4\u8a17","client_name":"\u56fd\u571f\u4ea4\u901a\u7701\u6771\u5317\u5730\u65b9\u6574\u5099\u5c40\u798f\u5cf6\u6cb3\u5ddd\u56fd\u9053\u4e8b\u52d9\u6240","boring_xml_url":40,"boring_view_url":1,"soilmap_view_url":null,"soiltest_xml_url":0,"soiltest_view_url":0},{"id":138253,"code":"B4KJ201801002-6502","latitude":"37.31786","longitude":"140.36408","source_code":"TH55407279004","project_name":"","survey_name":"\u90e1\u5c71\u30d0\u30a4\u30d1\u30b9\u5730\u76e4\u8abf\u67fb","client_name":"\u56fd\u571f\u4ea4\u901a\u7701\u6771\u5317\u5730\u65b9\u6574\u5099\u5c40\u90e1\u5c71\u56fd\u9053\u4e8b\u52d9\u6240","boring_xml_url":40,"boring_view_url":1,"soilmap_view_url":null,"soiltest_xml_url":0,"soiltest_view_url":0},{"id":138252,"code":"B4KJ201801002-6501","latitude":"37.31786","longitude":"140.36453","source_code":"TH55407279003","project_name":"","survey_name":"\u90e1\u5c71\u30d0\u30a4\u30d1\u30b9\u5730\u76e4\u8abf\u67fb","client_name":"\u56fd\u571f\u4ea4\u901a\u7701\u6771\u5317\u5730\u65b9\u6574\u5099\u5c40\u90e1\u5c71\u56fd\u9053\u4e8b\u52d9\u6240","boring_xml_url":40,"boring_view_url":1,"soilmap_view_url":null,"soiltest_xml_url":0,"soiltest_view_url":0},{"id":138251,"code":"B4KJ201801002-6500","latitude":"37.31556","longitude":"140.36542","source_code":"TH55407279002","project_name":"","survey_name":"\u90e1\u5c71\u30d0\u30a4\u30d1\u30b9\u5730\u76e4\u8abf\u67fb","client_name":"\u56fd\u571f\u4ea4\u901a\u7701\u6771\u5317\u5730\u65b9\u6574\u5099\u5c40\u90e1\u5c71\u56fd\u9053\u4e8b\u52d9\u6240","boring_xml_url":40,"boring_view_url":1,"soilmap_view_url":null,"soiltest_xml_url":0,"soiltest_view_url":0},{"id":138250,"code":"B4KJ201801002-6499","latitude":"37.31189","longitude":"140.36592","source_code":"TH55407279001","project_name":"","survey_name":"\u90e1\u5c71\u30d0\u30a4\u30d1\u30b9\u5730\u76e4\u8abf\u67fb","client_name":"\u56fd\u571f\u4ea4\u901a\u7701\u6771\u5317\u5730\u65b9\u6574\u5099\u5c40\u90e1\u5c71\u56fd\u9053\u4e8b\u52d9\u6240","boring_xml_url":40,"boring_view_url":1,"soilmap_view_url":null,"soiltest_xml_url":0,"soiltest_view_url":0},{"id":138249,"code":"B4KJ201801002-6498","latitude":"37.29678","longitude":"140.3675","source_code":"TH55407259004","project_name":"","survey_name":"\u662d\u548c54\u5e74\u5ea6\u91c8\u8fe6\u5802\u5ddd\u6a4b\u5730\u76e4\u8abf\u67fb","client_name":"\u56fd\u571f\u4ea4\u901a\u7701\u6771\u5317\u5730\u65b9\u6574\u5099\u5c40\u90e1\u5c71\u56fd\u9053\u4e8b\u52d9\u6240","boring_xml_url":40,"boring_view_url":1,"soilmap_view_url":null,"soiltest_xml_url":0,"soiltest_view_url":0},{"id":138248,"code":"B4KJ201801002-6497","latitude":"37.29586","longitude":"140.36744","source_code":"TH55407259003","project_name":"","survey_name":"\u662d\u548c54\u5e74\u5ea6\u91c8\u8fe6\u5802\u5ddd\u6a4b\u5730\u76e4\u8abf\u67fb","client_name":"\u56fd\u571f\u4ea4\u901a\u7701\u6771\u5317\u5730\u65b9\u6574\u5099\u5c40\u90e1\u5c71\u56fd\u9053\u4e8b\u52d9\u6240","boring_xml_url":40,"boring_view_url":1,"soilmap_view_url":null,"soiltest_xml_url":0,"soiltest_view_url":0},{"id":138247,"code":"B4KJ201801002-6496","latitude":"37.29531","longitude":"140.36811","source_code":"TH55407259002","project_name":"","survey_name":"\u662d\u548c54\u5e74\u5ea6\u91c8\u8fe6\u5802\u5ddd\u6a4b\u5730\u76e4\u8abf\u67fb","client_name":"\u56fd\u571f\u4ea4\u901a\u7701\u6771\u5317\u5730\u65b9\u6574\u5099\u5c40\u90e1\u5c71\u56fd\u9053\u4e8b\u52d9\u6240","boring_xml_url":40,"boring_view_url":1,"soilmap_view_url":null,"soiltest_xml_url":0,"soiltest_view_url":0},{"id":138246,"code":"B4KJ201801002-6495","latitude":"37.29497","longitude":"140.36758","source_code":"TH55407259001","project_name":"","survey_name":"\u662d\u548c54\u5e74\u5ea6\u91c8\u8fe6\u5802\u5ddd\u6a4b\u5730\u76e4\u8abf\u67fb","client_name":"\u56fd\u571f\u4ea4\u901a\u7701\u6771\u5317\u5730\u65b9\u6574\u5099\u5c40\u90e1\u5c71\u56fd\u9053\u4e8b\u52d9\u6240","boring_xml_url":40,"boring_view_url":1,"soilmap_view_url":null,"soiltest_xml_url":0,"soiltest_view_url":0},{"id":138245,"code":"B4KJ201801002-6494","latitude":"37.28911","longitude":"140.36844","source_code":"TH55407249006","project_name":"","survey_name":"\u662d\u548c54\u5e74\u5ea6\u91c8\u8fe6\u5802\u5ddd\u6a4b\u5730\u76e4\u8abf\u67fb","client_name":"\u56fd\u571f\u4ea4\u901a\u7701\u6771\u5317\u5730\u65b9\u6574\u5099\u5c40\u90e1\u5c71\u56fd\u9053\u4e8b\u52d9\u6240","boring_xml_url":40,"boring_view_url":1,"soilmap_view_url":null,"soiltest_xml_url":0,"soiltest_view_url":0},{"id":138244,"code":"B4KJ201801002-6493","latitude":"37.28903","longitude":"140.36808","source_code":"TH55407249005","project_name":"","survey_name":"\u662d\u548c54\u5e74\u5ea6\u91c8\u8fe6\u5802\u5ddd\u6a4b\u5730\u76e4\u8abf\u67fb","client_name":"\u56fd\u571f\u4ea4\u901a\u7701\u6771\u5317\u5730\u65b9\u6574\u5099\u5c40\u90e1\u5c71\u56fd\u9053\u4e8b\u52d9\u6240","boring_xml_url":40,"boring_view_url":1,"soilmap_view_url":null,"soiltest_xml_url":0,"soiltest_view_url":0},{"id":138243,"code":"B4KJ201801002-6492","latitude":"37.29178","longitude":"140.36833","source_code":"TH55407249004","project_name":"","survey_name":"\u897f\u5ddd\u5730\u533a\u69cb\u9020\u7269\u8a2d\u8a08","client_name":"\u56fd\u571f\u4ea4\u901a\u7701\u6771\u5317\u5730\u65b9\u6574\u5099\u5c40\u90e1\u5c71\u56fd\u9053\u4e8b\u52d9\u6240","boring_xml_url":40,"boring_view_url":1,"soilmap_view_url":null,"soiltest_xml_url":0,"soiltest_view_url":0},{"id":138242,"code":"B4KJ201801002-6491","latitude":"37.2905","longitude":"140.36817","source_code":"TH55407249003","project_name":"","survey_name":"\u897f\u5ddd\u5730\u533a\u69cb\u9020\u7269\u8a2d\u8a08","client_name":"\u56fd\u571f\u4ea4\u901a\u7701\u6771\u5317\u5730\u65b9\u6574\u5099\u5c40\u90e1\u5c71\u56fd\u9053\u4e8b\u52d9\u6240","boring_xml_url":40,"boring_view_url":1,"soilmap_view_url":null,"soiltest_xml_url":0,"soiltest_view_url":0},{"id":138241,"code":"B4KJ201801002-6490","latitude":"37.28978","longitude":"140.36847","source_code":"TH55407249002","project_name":"","survey_name":"\u897f\u5ddd\u5730\u533a\u69cb\u9020\u7269\u8a2d\u8a08","client_name":"\u56fd\u571f\u4ea4\u901a\u7701\u6771\u5317\u5730\u65b9\u6574\u5099\u5c40\u90e1\u5c71\u56fd\u9053\u4e8b\u52d9\u6240","boring_xml_url":40,"boring_view_url":1,"soilmap_view_url":null,"soiltest_xml_url":0,"soiltest_view_url":0},{"id":138240,"code":"B4KJ201801002-6489","latitude":"37.28875","longitude":"140.36853","source_code":"TH55407249001","project_name":"","survey_name":"\u5927\u9ed2\u5730\u533a\u69cb\u9020\u7269\u8a2d\u8a08\u696d\u52d9\u59d4\u8a17","client_name":"\u56fd\u571f\u4ea4\u901a\u7701\u6771\u5317\u5730\u65b9\u6574\u5099\u5c40\u90e1\u5c71\u56fd\u9053\u4e8b\u52d9\u6240","boring_xml_url":40,"boring_view_url":1,"soilmap_view_url":null,"soiltest_xml_url":0,"soiltest_view_url":0},{"id":138239,"code":"B4KJ201801002-6488","latitude":"37.27786","longitude":"140.3645","source_code":"TH55407229006","project_name":"","survey_name":"\u662d\u548c63\u5e74\u5ea6\u71b1\u6d77\u30d0\u30a4\u30d1\u30b9\u4e8c\u6e21\u5730\u533a\u5730\u76e4\u8abf\u67fb(\u7530\u7aef\u5730\u533a)","client_name":"\u56fd\u571f\u4ea4\u901a\u7701\u6771\u5317\u5730\u65b9\u6574\u5099\u5c40\u90e1\u5c71\u56fd\u9053\u4e8b\u52d9\u6240","boring_xml_url":40,"boring_view_url":1,"soilmap_view_url":null,"soiltest_xml_url":0,"soiltest_view_url":0},{"id":138238,"code":"B4KJ201801002-6487","latitude":"37.27589","longitude":"140.36311","source_code":"TH55407229005","project_name":"","survey_name":"\u662d\u548c63\u5e74\u5ea6\u9808\u8cc0\u5ddd\u5730\u533a\u5730\u76e4\u8abf\u67fb","client_name":"\u56fd\u571f\u4ea4\u901a\u7701\u6771\u5317\u5730\u65b9\u6574\u5099\u5c40\u90e1\u5c71\u56fd\u9053\u4e8b\u52d9\u6240","boring_xml_url":40,"boring_view_url":1,"soilmap_view_url":null,"soiltest_xml_url":0,"soiltest_view_url":0},{"id":138237,"code":"B4KJ201801002-6486","latitude":"37.27631","longitude":"140.36289","source_code":"TH55407229004","project_name":"","survey_name":"\u662d\u548c63\u5e74\u5ea6\u9808\u8cc0\u5ddd\u5730\u533a\u5730\u76e4\u8abf\u67fb","client_name":"\u56fd\u571f\u4ea4\u901a\u7701\u6771\u5317\u5730\u65b9\u6574\u5099\u5c40\u90e1\u5c71\u56fd\u9053\u4e8b\u52d9\u6240","boring_xml_url":40,"boring_view_url":1,"soilmap_view_url":null,"soiltest_xml_url":0,"soiltest_view_url":0},{"id":138236,"code":"B4KJ201801002-6485","latitude":"37.27594","longitude":"140.36239","source_code":"TH55407229003","project_name":"","survey_name":"\u662d\u548c63\u5e74\u5ea6\u9808\u8cc0\u5ddd\u5730\u533a\u5730\u76e4\u8abf\u67fb","client_name":"\u56fd\u571f\u4ea4\u901a\u7701\u6771\u5317\u5730\u65b9\u6574\u5099\u5c40\u90e1\u5c71\u56fd\u9053\u4e8b\u52d9\u6240","boring_xml_url":40,"boring_view_url":1,"soilmap_view_url":null,"soiltest_xml_url":0,"soiltest_view_url":0}]}}