{"header":{"xyz":{"source":[],"mosaic":false},"page":6088,"raw":{"soiltest_result":"0","bbox":"57.598333,109.544722,1.933333,163.806111","page":"6088"},"conditions":{"soiltest_result":0,"north":57.598333,"west":109.544722,"south":1.933333,"east":163.806111},"success":true,"message":""},"data":{"meta":{"total":212844,"page":6088,"pages":7095,"count":30},"values":[{"id":137935,"code":"B4KJ201801002-6184","latitude":"39.04811","longitude":"140.96289","source_code":"TH20098257000370004","project_name":"","survey_name":"\u5e73\u621011\u5e74\u5ea6 \u6a2a\u9053\u6ca2\u5730\u4e0b\u6c34\u4f4d\u8a08\u8a2d\u7f6e\u8abf\u67fb\u696d\u52d9","client_name":"\u5efa\u8a2d\u7701\u6771\u5317\u5730\u65b9\u5efa\u8a2d\u5c40\u65b0\u5e84\u5de5\u4e8b\u4e8b\u52d9\u6240","boring_xml_url":46,"boring_view_url":1,"soilmap_view_url":null,"soiltest_xml_url":0,"soiltest_view_url":0},{"id":137934,"code":"B4KJ201801002-6183","latitude":"38.90056","longitude":"140.60642","source_code":"TH20098257000370003","project_name":"","survey_name":"\u5e73\u621011\u5e74\u5ea6 \u6a2a\u9053\u6ca2\u5730\u4e0b\u6c34\u4f4d\u8a08\u8a2d\u7f6e\u8abf\u67fb\u696d\u52d9","client_name":"\u5efa\u8a2d\u7701\u6771\u5317\u5730\u65b9\u5efa\u8a2d\u5c40\u65b0\u5e84\u5de5\u4e8b\u4e8b\u52d9\u6240","boring_xml_url":46,"boring_view_url":1,"soilmap_view_url":null,"soiltest_xml_url":0,"soiltest_view_url":0},{"id":137933,"code":"B4KJ201801002-6182","latitude":"38.94394","longitude":"140.65767","source_code":"TH20098257000370002","project_name":"","survey_name":"\u5e73\u621011\u5e74\u5ea6 \u6a2a\u9053\u6ca2\u5730\u4e0b\u6c34\u4f4d\u8a08\u8a2d\u7f6e\u8abf\u67fb\u696d\u52d9","client_name":"\u5efa\u8a2d\u7701\u6771\u5317\u5730\u65b9\u5efa\u8a2d\u5c40\u65b0\u5e84\u5de5\u4e8b\u4e8b\u52d9\u6240","boring_xml_url":46,"boring_view_url":1,"soilmap_view_url":null,"soiltest_xml_url":0,"soiltest_view_url":0},{"id":137932,"code":"B4KJ201801002-6181","latitude":"38.98736","longitude":"140.78789","source_code":"TH20098257000370001","project_name":"","survey_name":"\u5e73\u621011\u5e74\u5ea6 \u6a2a\u9053\u6ca2\u5730\u4e0b\u6c34\u4f4d\u8a08\u8a2d\u7f6e\u8abf\u67fb\u696d\u52d9","client_name":"\u5efa\u8a2d\u7701\u6771\u5317\u5730\u65b9\u5efa\u8a2d\u5c40\u65b0\u5e84\u5de5\u4e8b\u4e8b\u52d9\u6240","boring_xml_url":46,"boring_view_url":1,"soilmap_view_url":null,"soiltest_xml_url":0,"soiltest_view_url":0},{"id":137931,"code":"B4KJ201801002-6180","latitude":"38.66244","longitude":"140.16386","source_code":"TH20098257000360009","project_name":"","survey_name":"\u5e73\u621010\u5e74\u5ea6 \u5e73\u6839\u5317\u5730\u533a\u5730\u8cea\u8abf\u67fb","client_name":"\u5efa\u8a2d\u7701\u6771\u5317\u5730\u65b9\u5efa\u8a2d\u5c40\u65b0\u5e84\u5de5\u4e8b\u4e8b\u52d9\u6240","boring_xml_url":46,"boring_view_url":1,"soilmap_view_url":null,"soiltest_xml_url":0,"soiltest_view_url":0},{"id":137930,"code":"B4KJ201801002-6179","latitude":"38.66172","longitude":"140.16317","source_code":"TH20098257000360008","project_name":"","survey_name":"\u5e73\u621010\u5e74\u5ea6 \u5e73\u6839\u5317\u5730\u533a\u5730\u8cea\u8abf\u67fb","client_name":"\u5efa\u8a2d\u7701\u6771\u5317\u5730\u65b9\u5efa\u8a2d\u5c40\u65b0\u5e84\u5de5\u4e8b\u4e8b\u52d9\u6240","boring_xml_url":46,"boring_view_url":1,"soilmap_view_url":null,"soiltest_xml_url":0,"soiltest_view_url":0},{"id":137929,"code":"B4KJ201801002-6178","latitude":"38.66222","longitude":"140.16328","source_code":"TH20098257000360007","project_name":"","survey_name":"\u5e73\u621010\u5e74\u5ea6 \u5e73\u6839\u5317\u5730\u533a\u5730\u8cea\u8abf\u67fb","client_name":"\u5efa\u8a2d\u7701\u6771\u5317\u5730\u65b9\u5efa\u8a2d\u5c40\u65b0\u5e84\u5de5\u4e8b\u4e8b\u52d9\u6240","boring_xml_url":46,"boring_view_url":1,"soilmap_view_url":null,"soiltest_xml_url":0,"soiltest_view_url":0},{"id":137928,"code":"B4KJ201801002-6177","latitude":"38.66208","longitude":"140.16372","source_code":"TH20098257000360006","project_name":"","survey_name":"\u5e73\u621010\u5e74\u5ea6 \u5e73\u6839\u5317\u5730\u533a\u5730\u8cea\u8abf\u67fb","client_name":"\u5efa\u8a2d\u7701\u6771\u5317\u5730\u65b9\u5efa\u8a2d\u5c40\u65b0\u5e84\u5de5\u4e8b\u4e8b\u52d9\u6240","boring_xml_url":46,"boring_view_url":1,"soilmap_view_url":null,"soiltest_xml_url":0,"soiltest_view_url":0},{"id":137927,"code":"B4KJ201801002-6176","latitude":"38.66656","longitude":"140.17408","source_code":"TH20098257000360005","project_name":"","survey_name":"\u5e73\u621010\u5e74\u5ea6 \u5e73\u6839\u5317\u5730\u533a\u5730\u8cea\u8abf\u67fb","client_name":"\u5efa\u8a2d\u7701\u6771\u5317\u5730\u65b9\u5efa\u8a2d\u5c40\u65b0\u5e84\u5de5\u4e8b\u4e8b\u52d9\u6240","boring_xml_url":46,"boring_view_url":1,"soilmap_view_url":null,"soiltest_xml_url":0,"soiltest_view_url":0},{"id":137926,"code":"B4KJ201801002-6175","latitude":"38.66653","longitude":"140.17411","source_code":"TH20098257000360004","project_name":"","survey_name":"\u5e73\u621010\u5e74\u5ea6 \u5e73\u6839\u5317\u5730\u533a\u5730\u8cea\u8abf\u67fb","client_name":"\u5efa\u8a2d\u7701\u6771\u5317\u5730\u65b9\u5efa\u8a2d\u5c40\u65b0\u5e84\u5de5\u4e8b\u4e8b\u52d9\u6240","boring_xml_url":46,"boring_view_url":1,"soilmap_view_url":null,"soiltest_xml_url":0,"soiltest_view_url":0},{"id":137925,"code":"B4KJ201801002-6174","latitude":"38.66575","longitude":"140.17439","source_code":"TH20098257000360003","project_name":"","survey_name":"\u5e73\u621010\u5e74\u5ea6 \u5e73\u6839\u5317\u5730\u533a\u5730\u8cea\u8abf\u67fb","client_name":"\u5efa\u8a2d\u7701\u6771\u5317\u5730\u65b9\u5efa\u8a2d\u5c40\u65b0\u5e84\u5de5\u4e8b\u4e8b\u52d9\u6240","boring_xml_url":46,"boring_view_url":1,"soilmap_view_url":null,"soiltest_xml_url":0,"soiltest_view_url":0},{"id":137924,"code":"B4KJ201801002-6173","latitude":"38.66489","longitude":"140.17475","source_code":"TH20098257000360002","project_name":"","survey_name":"\u5e73\u621010\u5e74\u5ea6 \u5e73\u6839\u5317\u5730\u533a\u5730\u8cea\u8abf\u67fb","client_name":"\u5efa\u8a2d\u7701\u6771\u5317\u5730\u65b9\u5efa\u8a2d\u5c40\u65b0\u5e84\u5de5\u4e8b\u4e8b\u52d9\u6240","boring_xml_url":46,"boring_view_url":1,"soilmap_view_url":null,"soiltest_xml_url":0,"soiltest_view_url":0},{"id":137923,"code":"B4KJ201801002-6172","latitude":"38.66692","longitude":"140.17775","source_code":"TH20098257000360001","project_name":"","survey_name":"\u5e73\u621010\u5e74\u5ea6 \u5e73\u6839\u5317\u5730\u533a\u5730\u8cea\u8abf\u67fb","client_name":"\u5efa\u8a2d\u7701\u6771\u5317\u5730\u65b9\u5efa\u8a2d\u5c40\u65b0\u5e84\u5de5\u4e8b\u4e8b\u52d9\u6240","boring_xml_url":46,"boring_view_url":1,"soilmap_view_url":null,"soiltest_xml_url":0,"soiltest_view_url":0},{"id":137922,"code":"B4KJ201801002-6171","latitude":"38.66375","longitude":"140.16689","source_code":"TH20098257000350003","project_name":"","survey_name":"\u5e73\u621010\u5e74\u5ea6 \u5e73\u6839\u5730\u3059\u3079\u308a\u5730\u8cea\u8abf\u67fb","client_name":"\u5efa\u8a2d\u7701\u6771\u5317\u5730\u65b9\u5efa\u8a2d\u5c40\u65b0\u5e84\u5de5\u4e8b\u4e8b\u52d9\u6240","boring_xml_url":46,"boring_view_url":1,"soilmap_view_url":null,"soiltest_xml_url":0,"soiltest_view_url":0},{"id":137921,"code":"B4KJ201801002-6170","latitude":"38.66375","longitude":"140.16856","source_code":"TH20098257000350002","project_name":"","survey_name":"\u5e73\u621010\u5e74\u5ea6 \u5e73\u6839\u5730\u3059\u3079\u308a\u5730\u8cea\u8abf\u67fb","client_name":"\u5efa\u8a2d\u7701\u6771\u5317\u5730\u65b9\u5efa\u8a2d\u5c40\u65b0\u5e84\u5de5\u4e8b\u4e8b\u52d9\u6240","boring_xml_url":46,"boring_view_url":1,"soilmap_view_url":null,"soiltest_xml_url":0,"soiltest_view_url":0},{"id":137920,"code":"B4KJ201801002-6169","latitude":"38.66375","longitude":"140.16939","source_code":"TH20098257000350001","project_name":"","survey_name":"\u5e73\u621010\u5e74\u5ea6 \u5e73\u6839\u5730\u3059\u3079\u308a\u5730\u8cea\u8abf\u67fb","client_name":"\u5efa\u8a2d\u7701\u6771\u5317\u5730\u65b9\u5efa\u8a2d\u5c40\u65b0\u5e84\u5de5\u4e8b\u4e8b\u52d9\u6240","boring_xml_url":46,"boring_view_url":1,"soilmap_view_url":null,"soiltest_xml_url":0,"soiltest_view_url":0},{"id":137919,"code":"B4KJ201801002-6168","latitude":"38.70244","longitude":"140.22856","source_code":"TH20098257000340003","project_name":"","survey_name":"\u5e73\u621010\u5e74\u5ea6 \u6e05\u6c34\u5824\u9632\u8a73\u7d30\u8abf\u67fb\u696d\u52d9","client_name":"\u5efa\u8a2d\u7701\u6771\u5317\u5730\u65b9\u5efa\u8a2d\u5c40\u65b0\u5e84\u5de5\u4e8b\u4e8b\u52d9\u6240","boring_xml_url":46,"boring_view_url":1,"soilmap_view_url":null,"soiltest_xml_url":49,"soiltest_view_url":49},{"id":137918,"code":"B4KJ201801002-6167","latitude":"38.70239","longitude":"140.22661","source_code":"TH20098257000340002","project_name":"","survey_name":"\u5e73\u621010\u5e74\u5ea6 \u6e05\u6c34\u5824\u9632\u8a73\u7d30\u8abf\u67fb\u696d\u52d9","client_name":"\u5efa\u8a2d\u7701\u6771\u5317\u5730\u65b9\u5efa\u8a2d\u5c40\u65b0\u5e84\u5de5\u4e8b\u4e8b\u52d9\u6240","boring_xml_url":46,"boring_view_url":1,"soilmap_view_url":null,"soiltest_xml_url":49,"soiltest_view_url":49},{"id":137917,"code":"B4KJ201801002-6166","latitude":"38.69789","longitude":"140.22717","source_code":"TH20098257000340001","project_name":"","survey_name":"\u5e73\u621010\u5e74\u5ea6 \u6e05\u6c34\u5824\u9632\u8a73\u7d30\u8abf\u67fb\u696d\u52d9","client_name":"\u5efa\u8a2d\u7701\u6771\u5317\u5730\u65b9\u5efa\u8a2d\u5c40\u65b0\u5e84\u5de5\u4e8b\u4e8b\u52d9\u6240","boring_xml_url":46,"boring_view_url":1,"soilmap_view_url":null,"soiltest_xml_url":49,"soiltest_view_url":49},{"id":137916,"code":"B4KJ201801002-6165","latitude":"38.72789","longitude":"140.02794","source_code":"TH20098257000330002","project_name":"","survey_name":"\u5e73\u62109\u5e74\u5ea6 \u76f8\u5e73\u5ddd\u30c0\u30e0\u6982\u7565\u8a2d\u8a08\u696d\u52d9","client_name":"\u5efa\u8a2d\u7701\u6771\u5317\u5730\u65b9\u5efa\u8a2d\u5c40\u65b0\u5e84\u5de5\u4e8b\u4e8b\u52d9\u6240","boring_xml_url":46,"boring_view_url":1,"soilmap_view_url":null,"soiltest_xml_url":0,"soiltest_view_url":0},{"id":137915,"code":"B4KJ201801002-6164","latitude":"38.72769","longitude":"140.02231","source_code":"TH20098257000330001","project_name":"","survey_name":"\u5e73\u62109\u5e74\u5ea6 \u76f8\u5e73\u5ddd\u30c0\u30e0\u6982\u7565\u8a2d\u8a08\u696d\u52d9","client_name":"\u5efa\u8a2d\u7701\u6771\u5317\u5730\u65b9\u5efa\u8a2d\u5c40\u65b0\u5e84\u5de5\u4e8b\u4e8b\u52d9\u6240","boring_xml_url":46,"boring_view_url":1,"soilmap_view_url":null,"soiltest_xml_url":0,"soiltest_view_url":0},{"id":137914,"code":"B4KJ201801002-6163","latitude":"38.62319","longitude":"140.04772","source_code":"TH20098257000320009","project_name":"","survey_name":"\u5e73\u62109\u5e74\u5ea6 \u65e2\u8a2d\u7802\u9632\u30c0\u30e0\u5730\u8cea\u8abf\u67fb","client_name":"\u5efa\u8a2d\u7701\u6771\u5317\u5730\u65b9\u5efa\u8a2d\u5c40\u65b0\u5e84\u5de5\u4e8b\u4e8b\u52d9\u6240","boring_xml_url":46,"boring_view_url":1,"soilmap_view_url":null,"soiltest_xml_url":0,"soiltest_view_url":0},{"id":137913,"code":"B4KJ201801002-6162","latitude":"38.62514","longitude":"140.02386","source_code":"TH20098257000320008","project_name":"","survey_name":"\u5e73\u62109\u5e74\u5ea6 \u65e2\u8a2d\u7802\u9632\u30c0\u30e0\u5730\u8cea\u8abf\u67fb","client_name":"\u5efa\u8a2d\u7701\u6771\u5317\u5730\u65b9\u5efa\u8a2d\u5c40\u65b0\u5e84\u5de5\u4e8b\u4e8b\u52d9\u6240","boring_xml_url":46,"boring_view_url":1,"soilmap_view_url":null,"soiltest_xml_url":0,"soiltest_view_url":0},{"id":137912,"code":"B4KJ201801002-6161","latitude":"38.62597","longitude":"140.02386","source_code":"TH20098257000320007","project_name":"","survey_name":"\u5e73\u62109\u5e74\u5ea6 \u65e2\u8a2d\u7802\u9632\u30c0\u30e0\u5730\u8cea\u8abf\u67fb","client_name":"\u5efa\u8a2d\u7701\u6771\u5317\u5730\u65b9\u5efa\u8a2d\u5c40\u65b0\u5e84\u5de5\u4e8b\u4e8b\u52d9\u6240","boring_xml_url":46,"boring_view_url":1,"soilmap_view_url":null,"soiltest_xml_url":0,"soiltest_view_url":0},{"id":137911,"code":"B4KJ201801002-6160","latitude":"38.35933","longitude":"139.97719","source_code":"TH20098257000320006","project_name":"","survey_name":"\u5e73\u62109\u5e74\u5ea6 \u65e2\u8a2d\u7802\u9632\u30c0\u30e0\u5730\u8cea\u8abf\u67fb","client_name":"\u5efa\u8a2d\u7701\u6771\u5317\u5730\u65b9\u5efa\u8a2d\u5c40\u65b0\u5e84\u5de5\u4e8b\u4e8b\u52d9\u6240","boring_xml_url":46,"boring_view_url":1,"soilmap_view_url":null,"soiltest_xml_url":0,"soiltest_view_url":0},{"id":137910,"code":"B4KJ201801002-6159","latitude":"38.35933","longitude":"139.97719","source_code":"TH20098257000320005","project_name":"","survey_name":"\u5e73\u62109\u5e74\u5ea6 \u65e2\u8a2d\u7802\u9632\u30c0\u30e0\u5730\u8cea\u8abf\u67fb","client_name":"\u5efa\u8a2d\u7701\u6771\u5317\u5730\u65b9\u5efa\u8a2d\u5c40\u65b0\u5e84\u5de5\u4e8b\u4e8b\u52d9\u6240","boring_xml_url":46,"boring_view_url":1,"soilmap_view_url":null,"soiltest_xml_url":0,"soiltest_view_url":0},{"id":137909,"code":"B4KJ201801002-6158","latitude":"38.70789","longitude":"140.04772","source_code":"TH20098257000320004","project_name":"","survey_name":"\u5e73\u62109\u5e74\u5ea6 \u65e2\u8a2d\u7802\u9632\u30c0\u30e0\u5730\u8cea\u8abf\u67fb","client_name":"\u5efa\u8a2d\u7701\u6771\u5317\u5730\u65b9\u5efa\u8a2d\u5c40\u65b0\u5e84\u5de5\u4e8b\u4e8b\u52d9\u6240","boring_xml_url":46,"boring_view_url":1,"soilmap_view_url":null,"soiltest_xml_url":0,"soiltest_view_url":0},{"id":137908,"code":"B4KJ201801002-6157","latitude":"38.70789","longitude":"140.12328","source_code":"TH20098257000320003","project_name":"","survey_name":"\u5e73\u62109\u5e74\u5ea6 \u65e2\u8a2d\u7802\u9632\u30c0\u30e0\u5730\u8cea\u8abf\u67fb","client_name":"\u5efa\u8a2d\u7701\u6771\u5317\u5730\u65b9\u5efa\u8a2d\u5c40\u65b0\u5e84\u5de5\u4e8b\u4e8b\u52d9\u6240","boring_xml_url":46,"boring_view_url":1,"soilmap_view_url":null,"soiltest_xml_url":0,"soiltest_view_url":0},{"id":137907,"code":"B4KJ201801002-6156","latitude":"38.45264","longitude":"140.06164","source_code":"TH20098257000320002","project_name":"","survey_name":"\u5e73\u62109\u5e74\u5ea6 \u65e2\u8a2d\u7802\u9632\u30c0\u30e0\u5730\u8cea\u8abf\u67fb","client_name":"\u5efa\u8a2d\u7701\u6771\u5317\u5730\u65b9\u5efa\u8a2d\u5c40\u65b0\u5e84\u5de5\u4e8b\u4e8b\u52d9\u6240","boring_xml_url":46,"boring_view_url":1,"soilmap_view_url":null,"soiltest_xml_url":0,"soiltest_view_url":0},{"id":137906,"code":"B4KJ201801002-6155","latitude":"38.45264","longitude":"140.06164","source_code":"TH20098257000320001","project_name":"","survey_name":"\u5e73\u62109\u5e74\u5ea6 \u65e2\u8a2d\u7802\u9632\u30c0\u30e0\u5730\u8cea\u8abf\u67fb","client_name":"\u5efa\u8a2d\u7701\u6771\u5317\u5730\u65b9\u5efa\u8a2d\u5c40\u65b0\u5e84\u5de5\u4e8b\u4e8b\u52d9\u6240","boring_xml_url":46,"boring_view_url":1,"soilmap_view_url":null,"soiltest_xml_url":0,"soiltest_view_url":0}]}}