{"header":{"xyz":{"source":[],"mosaic":false},"page":6091,"raw":{"soiltest_result":"0","bbox":"57.598333,109.544722,1.933333,163.806111","page":"6091"},"conditions":{"soiltest_result":0,"north":57.598333,"west":109.544722,"south":1.933333,"east":163.806111},"success":true,"message":""},"data":{"meta":{"total":212844,"page":6091,"pages":7095,"count":30},"values":[{"id":137845,"code":"B4KJ201801002-6094","latitude":"38.78067","longitude":"140.02883","source_code":"TH20098257000060010","project_name":"","survey_name":"\u662d\u548c63\u5e74\u5ea6 \u6700\u4e0a\u5ddd\u4e2d\u6d41\u5830\u5730\u8cea\u8abf\u67fb","client_name":"\u5efa\u8a2d\u7701\u6771\u5317\u5730\u65b9\u5efa\u8a2d\u5c40\u65b0\u5e84\u5de5\u4e8b\u4e8b\u52d9\u6240","boring_xml_url":46,"boring_view_url":1,"soilmap_view_url":null,"soiltest_xml_url":49,"soiltest_view_url":49},{"id":137844,"code":"B4KJ201801002-6093","latitude":"38.77853","longitude":"140.02917","source_code":"TH20098257000060009","project_name":"","survey_name":"\u662d\u548c63\u5e74\u5ea6 \u6700\u4e0a\u5ddd\u4e2d\u6d41\u5830\u5730\u8cea\u8abf\u67fb","client_name":"\u5efa\u8a2d\u7701\u6771\u5317\u5730\u65b9\u5efa\u8a2d\u5c40\u65b0\u5e84\u5de5\u4e8b\u4e8b\u52d9\u6240","boring_xml_url":46,"boring_view_url":1,"soilmap_view_url":null,"soiltest_xml_url":49,"soiltest_view_url":49},{"id":137843,"code":"B4KJ201801002-6092","latitude":"38.778","longitude":"140.02847","source_code":"TH20098257000060008","project_name":"","survey_name":"\u662d\u548c63\u5e74\u5ea6 \u6700\u4e0a\u5ddd\u4e2d\u6d41\u5830\u5730\u8cea\u8abf\u67fb","client_name":"\u5efa\u8a2d\u7701\u6771\u5317\u5730\u65b9\u5efa\u8a2d\u5c40\u65b0\u5e84\u5de5\u4e8b\u4e8b\u52d9\u6240","boring_xml_url":46,"boring_view_url":1,"soilmap_view_url":null,"soiltest_xml_url":49,"soiltest_view_url":49},{"id":137842,"code":"B4KJ201801002-6091","latitude":"38.77931","longitude":"140.02992","source_code":"TH20098257000060007","project_name":"","survey_name":"\u662d\u548c63\u5e74\u5ea6 \u6700\u4e0a\u5ddd\u4e2d\u6d41\u5830\u5730\u8cea\u8abf\u67fb","client_name":"\u5efa\u8a2d\u7701\u6771\u5317\u5730\u65b9\u5efa\u8a2d\u5c40\u65b0\u5e84\u5de5\u4e8b\u4e8b\u52d9\u6240","boring_xml_url":46,"boring_view_url":1,"soilmap_view_url":null,"soiltest_xml_url":49,"soiltest_view_url":49},{"id":137841,"code":"B4KJ201801002-6090","latitude":"38.77892","longitude":"140.03019","source_code":"TH20098257000060006","project_name":"","survey_name":"\u662d\u548c63\u5e74\u5ea6 \u6700\u4e0a\u5ddd\u4e2d\u6d41\u5830\u5730\u8cea\u8abf\u67fb","client_name":"\u5efa\u8a2d\u7701\u6771\u5317\u5730\u65b9\u5efa\u8a2d\u5c40\u65b0\u5e84\u5de5\u4e8b\u4e8b\u52d9\u6240","boring_xml_url":46,"boring_view_url":1,"soilmap_view_url":null,"soiltest_xml_url":49,"soiltest_view_url":49},{"id":137840,"code":"B4KJ201801002-6089","latitude":"38.77844","longitude":"140.0305","source_code":"TH20098257000060005","project_name":"","survey_name":"\u662d\u548c63\u5e74\u5ea6 \u6700\u4e0a\u5ddd\u4e2d\u6d41\u5830\u5730\u8cea\u8abf\u67fb","client_name":"\u5efa\u8a2d\u7701\u6771\u5317\u5730\u65b9\u5efa\u8a2d\u5c40\u65b0\u5e84\u5de5\u4e8b\u4e8b\u52d9\u6240","boring_xml_url":46,"boring_view_url":1,"soilmap_view_url":null,"soiltest_xml_url":49,"soiltest_view_url":49},{"id":137839,"code":"B4KJ201801002-6088","latitude":"38.7781","longitude":"140.0308","source_code":"TH20098257000060004","project_name":"","survey_name":"\u662d\u548c63\u5e74\u5ea6 \u6700\u4e0a\u5ddd\u4e2d\u6d41\u5830\u5730\u8cea\u8abf\u67fb","client_name":"\u5efa\u8a2d\u7701\u6771\u5317\u5730\u65b9\u5efa\u8a2d\u5c40\u65b0\u5e84\u5de5\u4e8b\u4e8b\u52d9\u6240","boring_xml_url":46,"boring_view_url":1,"soilmap_view_url":null,"soiltest_xml_url":49,"soiltest_view_url":49},{"id":137838,"code":"B4KJ201801002-6087","latitude":"38.7795","longitude":"140.03297","source_code":"TH20098257000060003","project_name":"","survey_name":"\u662d\u548c63\u5e74\u5ea6 \u6700\u4e0a\u5ddd\u4e2d\u6d41\u5830\u5730\u8cea\u8abf\u67fb","client_name":"\u5efa\u8a2d\u7701\u6771\u5317\u5730\u65b9\u5efa\u8a2d\u5c40\u65b0\u5e84\u5de5\u4e8b\u4e8b\u52d9\u6240","boring_xml_url":46,"boring_view_url":1,"soilmap_view_url":null,"soiltest_xml_url":49,"soiltest_view_url":49},{"id":137837,"code":"B4KJ201801002-6086","latitude":"38.77931","longitude":"140.03256","source_code":"TH20098257000060002","project_name":"","survey_name":"\u662d\u548c63\u5e74\u5ea6 \u6700\u4e0a\u5ddd\u4e2d\u6d41\u5830\u5730\u8cea\u8abf\u67fb","client_name":"\u5efa\u8a2d\u7701\u6771\u5317\u5730\u65b9\u5efa\u8a2d\u5c40\u65b0\u5e84\u5de5\u4e8b\u4e8b\u52d9\u6240","boring_xml_url":46,"boring_view_url":1,"soilmap_view_url":null,"soiltest_xml_url":49,"soiltest_view_url":49},{"id":137836,"code":"B4KJ201801002-6085","latitude":"38.77906","longitude":"140.03194","source_code":"TH20098257000060001","project_name":"","survey_name":"\u662d\u548c63\u5e74\u5ea6 \u6700\u4e0a\u5ddd\u4e2d\u6d41\u5830\u5730\u8cea\u8abf\u67fb","client_name":"\u5efa\u8a2d\u7701\u6771\u5317\u5730\u65b9\u5efa\u8a2d\u5c40\u65b0\u5e84\u5de5\u4e8b\u4e8b\u52d9\u6240","boring_xml_url":46,"boring_view_url":1,"soilmap_view_url":null,"soiltest_xml_url":49,"soiltest_view_url":49},{"id":137835,"code":"B4KJ201801002-6084","latitude":"38.55075","longitude":"140.14072","source_code":"TH20098257000040004","project_name":"","survey_name":"\u662d\u548c63\u5e74\u5ea6 \u70cf\u5ddd\u7b2c3\u30c0\u30e0\u6e2c\u91cf\u5730\u76e4\u8abf\u67fb\u5b9f\u65bd\u8a2d\u8a08\u696d\u52d9","client_name":"\u5efa\u8a2d\u7701\u6771\u5317\u5730\u65b9\u5efa\u8a2d\u5c40\u65b0\u5e84\u5de5\u4e8b\u4e8b\u52d9\u6240","boring_xml_url":46,"boring_view_url":1,"soilmap_view_url":null,"soiltest_xml_url":0,"soiltest_view_url":0},{"id":137834,"code":"B4KJ201801002-6083","latitude":"38.55053","longitude":"140.13933","source_code":"TH20098257000040003","project_name":"","survey_name":"\u662d\u548c63\u5e74\u5ea6 \u70cf\u5ddd\u7b2c3\u30c0\u30e0\u6e2c\u91cf\u5730\u76e4\u8abf\u67fb\u5b9f\u65bd\u8a2d\u8a08\u696d\u52d9","client_name":"\u5efa\u8a2d\u7701\u6771\u5317\u5730\u65b9\u5efa\u8a2d\u5c40\u65b0\u5e84\u5de5\u4e8b\u4e8b\u52d9\u6240","boring_xml_url":46,"boring_view_url":1,"soilmap_view_url":null,"soiltest_xml_url":0,"soiltest_view_url":0},{"id":137833,"code":"B4KJ201801002-6082","latitude":"38.55031","longitude":"140.141","source_code":"TH20098257000040002","project_name":"","survey_name":"\u662d\u548c63\u5e74\u5ea6 \u70cf\u5ddd\u7b2c3\u30c0\u30e0\u6e2c\u91cf\u5730\u76e4\u8abf\u67fb\u5b9f\u65bd\u8a2d\u8a08\u696d\u52d9","client_name":"\u5efa\u8a2d\u7701\u6771\u5317\u5730\u65b9\u5efa\u8a2d\u5c40\u65b0\u5e84\u5de5\u4e8b\u4e8b\u52d9\u6240","boring_xml_url":46,"boring_view_url":1,"soilmap_view_url":null,"soiltest_xml_url":0,"soiltest_view_url":0},{"id":137832,"code":"B4KJ201801002-6081","latitude":"38.55008","longitude":"140.14072","source_code":"TH20098257000040001","project_name":"","survey_name":"\u662d\u548c63\u5e74\u5ea6 \u70cf\u5ddd\u7b2c3\u30c0\u30e0\u6e2c\u91cf\u5730\u76e4\u8abf\u67fb\u5b9f\u65bd\u8a2d\u8a08\u696d\u52d9","client_name":"\u5efa\u8a2d\u7701\u6771\u5317\u5730\u65b9\u5efa\u8a2d\u5c40\u65b0\u5e84\u5de5\u4e8b\u4e8b\u52d9\u6240","boring_xml_url":46,"boring_view_url":1,"soilmap_view_url":null,"soiltest_xml_url":0,"soiltest_view_url":0},{"id":137831,"code":"B4KJ201801002-6080","latitude":"38.73372","longitude":"140.11328","source_code":"TH20098257000030003","project_name":"","survey_name":"\u662d\u548c62\u5e74\u5ea6 \u4e09\u30c3\u6ca2\u7b2c4\u30c0\u30e0\u6e2c\u91cf\u30fb\u5730\u76e4\u8abf\u67fb\u30fb\u5b9f\u65bd\u8a2d\u8a08\u696d\u52d9","client_name":"\u5efa\u8a2d\u7701\u6771\u5317\u5730\u65b9\u5efa\u8a2d\u5c40\u65b0\u5e84\u5de5\u4e8b\u4e8b\u52d9\u6240","boring_xml_url":46,"boring_view_url":1,"soilmap_view_url":null,"soiltest_xml_url":0,"soiltest_view_url":0},{"id":137830,"code":"B4KJ201801002-6079","latitude":"38.73372","longitude":"140.11244","source_code":"TH20098257000030002","project_name":"","survey_name":"\u662d\u548c62\u5e74\u5ea6 \u4e09\u30c3\u6ca2\u7b2c4\u30c0\u30e0\u6e2c\u91cf\u30fb\u5730\u76e4\u8abf\u67fb\u30fb\u5b9f\u65bd\u8a2d\u8a08\u696d\u52d9","client_name":"\u5efa\u8a2d\u7701\u6771\u5317\u5730\u65b9\u5efa\u8a2d\u5c40\u65b0\u5e84\u5de5\u4e8b\u4e8b\u52d9\u6240","boring_xml_url":46,"boring_view_url":1,"soilmap_view_url":null,"soiltest_xml_url":0,"soiltest_view_url":0},{"id":137829,"code":"B4KJ201801002-6078","latitude":"38.734","longitude":"140.11244","source_code":"TH20098257000030001","project_name":"","survey_name":"\u662d\u548c62\u5e74\u5ea6 \u4e09\u30c3\u6ca2\u7b2c4\u30c0\u30e0\u6e2c\u91cf\u30fb\u5730\u76e4\u8abf\u67fb\u30fb\u5b9f\u65bd\u8a2d\u8a08\u696d\u52d9","client_name":"\u5efa\u8a2d\u7701\u6771\u5317\u5730\u65b9\u5efa\u8a2d\u5c40\u65b0\u5e84\u5de5\u4e8b\u4e8b\u52d9\u6240","boring_xml_url":46,"boring_view_url":1,"soilmap_view_url":null,"soiltest_xml_url":0,"soiltest_view_url":0},{"id":137828,"code":"B4KJ201801002-6077","latitude":"38.65372","longitude":"140.00997","source_code":"TH20098257000020004","project_name":"\u7acb\u8c37\u6ca2\u5ddd\u6d41\u57df\u7acb\u8c37\u6ca2\u5ddd\u53f3\u652f\u5ddd\u89d2\u6ca2\u7b2c2\u30c0\u30e0\u57fa\u790e\u5ca9\u76e4\u8abf\u67fb","survey_name":"\u662d\u548c62\u5e74\u5ea6\u89d2\u6ca2\u7b2c2\u30c0\u30e0\u6e2c\u91cf\u30fb\u5730\u76e4\u8abf\u67fb\u30fb\u5b9f\u65bd\u8a2d\u8a08\u696d\u52d9","client_name":"\u5efa\u8a2d\u7701\u6771\u5317\u5730\u65b9\u5efa\u8a2d\u5c40\u65b0\u5e84\u5de5\u4e8b\u4e8b\u52d9\u6240","boring_xml_url":46,"boring_view_url":1,"soilmap_view_url":null,"soiltest_xml_url":0,"soiltest_view_url":0},{"id":137827,"code":"B4KJ201801002-6076","latitude":"38.65372","longitude":"140.00997","source_code":"TH20098257000020003","project_name":"\u7acb\u8c37\u6ca2\u5ddd\u6d41\u57df\u7acb\u8c37\u6ca2\u5ddd\u53f3\u652f\u5ddd\u89d2\u6ca2\u7b2c2\u30c0\u30e0\u57fa\u790e\u5ca9\u76e4\u8abf\u67fb","survey_name":"\u662d\u548c62\u5e74\u5ea6\u89d2\u6ca2\u7b2c2\u30c0\u30e0\u6e2c\u91cf\u30fb\u5730\u76e4\u8abf\u67fb\u30fb\u5b9f\u65bd\u8a2d\u8a08\u696d\u52d9","client_name":"\u5efa\u8a2d\u7701\u6771\u5317\u5730\u65b9\u5efa\u8a2d\u5c40\u65b0\u5e84\u5de5\u4e8b\u4e8b\u52d9\u6240","boring_xml_url":46,"boring_view_url":1,"soilmap_view_url":null,"soiltest_xml_url":0,"soiltest_view_url":0},{"id":137826,"code":"B4KJ201801002-6075","latitude":"38.65372","longitude":"140.00997","source_code":"TH20098257000020002","project_name":"\u7acb\u8c37\u6ca2\u5ddd\u6d41\u57df\u7acb\u8c37\u6ca2\u5ddd\u53f3\u652f\u5ddd\u89d2\u6ca2\u7b2c2\u30c0\u30e0\u57fa\u790e\u5ca9\u76e4\u8abf\u67fb","survey_name":"\u662d\u548c62\u5e74\u5ea6\u89d2\u6ca2\u7b2c2\u30c0\u30e0\u6e2c\u91cf\u30fb\u5730\u76e4\u8abf\u67fb\u30fb\u5b9f\u65bd\u8a2d\u8a08\u696d\u52d9","client_name":"\u5efa\u8a2d\u7701\u6771\u5317\u5730\u65b9\u5efa\u8a2d\u5c40\u65b0\u5e84\u5de5\u4e8b\u4e8b\u52d9\u6240","boring_xml_url":46,"boring_view_url":1,"soilmap_view_url":null,"soiltest_xml_url":0,"soiltest_view_url":0},{"id":137825,"code":"B4KJ201801002-6074","latitude":"38.65372","longitude":"140.00997","source_code":"TH20098257000020001","project_name":"\u7acb\u8c37\u6ca2\u5ddd\u6d41\u57df\u7acb\u8c37\u6ca2\u5ddd\u53f3\u652f\u5ddd\u89d2\u6ca2\u7b2c2\u30c0\u30e0\u57fa\u790e\u5ca9\u76e4\u8abf\u67fb","survey_name":"\u662d\u548c62\u5e74\u5ea6\u89d2\u6ca2\u7b2c2\u30c0\u30e0\u6e2c\u91cf\u30fb\u5730\u76e4\u8abf\u67fb\u30fb\u5b9f\u65bd\u8a2d\u8a08\u696d\u52d9","client_name":"\u5efa\u8a2d\u7701\u6771\u5317\u5730\u65b9\u5efa\u8a2d\u5c40\u65b0\u5e84\u5de5\u4e8b\u4e8b\u52d9\u6240","boring_xml_url":46,"boring_view_url":1,"soilmap_view_url":null,"soiltest_xml_url":0,"soiltest_view_url":0},{"id":137824,"code":"B4KJ201801002-6073","latitude":"38.82686","longitude":"139.81586","source_code":"TH20098256000710004","project_name":"","survey_name":"\u5e73\u621020\u5e74\u5ea6 \u8d64\u5ddd\u5824\u9632\u8abf\u67fb","client_name":"\u56fd\u571f\u4ea4\u901a\u7701\u6771\u5317\u5730\u65b9\u6574\u5099\u5c40\u9152\u7530\u6cb3\u5ddd\u56fd\u9053\u4e8b\u52d9\u6240","boring_xml_url":46,"boring_view_url":1,"soilmap_view_url":null,"soiltest_xml_url":0,"soiltest_view_url":0},{"id":137823,"code":"B4KJ201801002-6072","latitude":"38.82689","longitude":"139.81569","source_code":"TH20098256000710003","project_name":"","survey_name":"\u5e73\u621020\u5e74\u5ea6 \u8d64\u5ddd\u5824\u9632\u8abf\u67fb","client_name":"\u56fd\u571f\u4ea4\u901a\u7701\u6771\u5317\u5730\u65b9\u6574\u5099\u5c40\u9152\u7530\u6cb3\u5ddd\u56fd\u9053\u4e8b\u52d9\u6240","boring_xml_url":46,"boring_view_url":1,"soilmap_view_url":null,"soiltest_xml_url":0,"soiltest_view_url":0},{"id":137822,"code":"B4KJ201801002-6071","latitude":"38.83594","longitude":"139.81511","source_code":"TH20098256000710002","project_name":"","survey_name":"\u5e73\u621020\u5e74\u5ea6 \u8d64\u5ddd\u5824\u9632\u8abf\u67fb","client_name":"\u56fd\u571f\u4ea4\u901a\u7701\u6771\u5317\u5730\u65b9\u6574\u5099\u5c40\u9152\u7530\u6cb3\u5ddd\u56fd\u9053\u4e8b\u52d9\u6240","boring_xml_url":46,"boring_view_url":1,"soilmap_view_url":null,"soiltest_xml_url":49,"soiltest_view_url":49},{"id":137821,"code":"B4KJ201801002-6070","latitude":"38.83594","longitude":"139.815","source_code":"TH20098256000710001","project_name":"","survey_name":"\u5e73\u621020\u5e74\u5ea6 \u8d64\u5ddd\u5824\u9632\u8abf\u67fb","client_name":"\u56fd\u571f\u4ea4\u901a\u7701\u6771\u5317\u5730\u65b9\u6574\u5099\u5c40\u9152\u7530\u6cb3\u5ddd\u56fd\u9053\u4e8b\u52d9\u6240","boring_xml_url":46,"boring_view_url":1,"soilmap_view_url":null,"soiltest_xml_url":49,"soiltest_view_url":49},{"id":137820,"code":"B4KJ201801002-6069","latitude":"38.82503","longitude":"139.81447","source_code":"TH20098256000700014","project_name":"","survey_name":"\u5e73\u621019\u5e74\u5ea6 \u8d64\u5ddd\u5824\u9632\u8abf\u67fb","client_name":"\u56fd\u571f\u4ea4\u901a\u7701\u6771\u5317\u5730\u65b9\u6574\u5099\u5c40\u9152\u7530\u6cb3\u5ddd\u56fd\u9053\u4e8b\u52d9\u6240","boring_xml_url":46,"boring_view_url":1,"soilmap_view_url":null,"soiltest_xml_url":49,"soiltest_view_url":49},{"id":137819,"code":"B4KJ201801002-6068","latitude":"38.82511","longitude":"139.81467","source_code":"TH20098256000700013","project_name":"","survey_name":"\u5e73\u621019\u5e74\u5ea6 \u8d64\u5ddd\u5824\u9632\u8abf\u67fb","client_name":"\u56fd\u571f\u4ea4\u901a\u7701\u6771\u5317\u5730\u65b9\u6574\u5099\u5c40\u9152\u7530\u6cb3\u5ddd\u56fd\u9053\u4e8b\u52d9\u6240","boring_xml_url":46,"boring_view_url":1,"soilmap_view_url":null,"soiltest_xml_url":49,"soiltest_view_url":49},{"id":137818,"code":"B4KJ201801002-6067","latitude":"38.83614","longitude":"139.814","source_code":"TH20098256000700012","project_name":"","survey_name":"\u5e73\u621019\u5e74\u5ea6 \u8d64\u5ddd\u5824\u9632\u8abf\u67fb","client_name":"\u56fd\u571f\u4ea4\u901a\u7701\u6771\u5317\u5730\u65b9\u6574\u5099\u5c40\u9152\u7530\u6cb3\u5ddd\u56fd\u9053\u4e8b\u52d9\u6240","boring_xml_url":46,"boring_view_url":1,"soilmap_view_url":null,"soiltest_xml_url":49,"soiltest_view_url":49},{"id":137817,"code":"B4KJ201801002-6066","latitude":"38.83614","longitude":"139.81422","source_code":"TH20098256000700011","project_name":"","survey_name":"\u5e73\u621019\u5e74\u5ea6 \u8d64\u5ddd\u5824\u9632\u8abf\u67fb","client_name":"\u56fd\u571f\u4ea4\u901a\u7701\u6771\u5317\u5730\u65b9\u6574\u5099\u5c40\u9152\u7530\u6cb3\u5ddd\u56fd\u9053\u4e8b\u52d9\u6240","boring_xml_url":46,"boring_view_url":1,"soilmap_view_url":null,"soiltest_xml_url":49,"soiltest_view_url":49},{"id":137816,"code":"B4KJ201801002-6065","latitude":"38.74031","longitude":"139.84706","source_code":"TH20098256000700010","project_name":"","survey_name":"\u5e73\u621019\u5e74\u5ea6 \u8d64\u5ddd\u5824\u9632\u8abf\u67fb","client_name":"\u56fd\u571f\u4ea4\u901a\u7701\u6771\u5317\u5730\u65b9\u6574\u5099\u5c40\u9152\u7530\u6cb3\u5ddd\u56fd\u9053\u4e8b\u52d9\u6240","boring_xml_url":46,"boring_view_url":1,"soilmap_view_url":null,"soiltest_xml_url":49,"soiltest_view_url":49}]}}