{"header":{"xyz":{"source":[],"mosaic":false},"page":6092,"raw":{"soiltest_result":"0","bbox":"57.598333,109.544722,1.933333,163.806111","page":"6092"},"conditions":{"soiltest_result":0,"north":57.598333,"west":109.544722,"south":1.933333,"east":163.806111},"success":true,"message":""},"data":{"meta":{"total":212844,"page":6092,"pages":7095,"count":30},"values":[{"id":137815,"code":"B4KJ201801002-6064","latitude":"38.74031","longitude":"139.84703","source_code":"TH20098256000700009","project_name":"","survey_name":"\u5e73\u621019\u5e74\u5ea6 \u8d64\u5ddd\u5824\u9632\u8abf\u67fb","client_name":"\u56fd\u571f\u4ea4\u901a\u7701\u6771\u5317\u5730\u65b9\u6574\u5099\u5c40\u9152\u7530\u6cb3\u5ddd\u56fd\u9053\u4e8b\u52d9\u6240","boring_xml_url":46,"boring_view_url":1,"soilmap_view_url":null,"soiltest_xml_url":49,"soiltest_view_url":49},{"id":137814,"code":"B4KJ201801002-6063","latitude":"38.73864","longitude":"139.84578","source_code":"TH20098256000700008","project_name":"","survey_name":"\u5e73\u621019\u5e74\u5ea6 \u8d64\u5ddd\u5824\u9632\u8abf\u67fb","client_name":"\u56fd\u571f\u4ea4\u901a\u7701\u6771\u5317\u5730\u65b9\u6574\u5099\u5c40\u9152\u7530\u6cb3\u5ddd\u56fd\u9053\u4e8b\u52d9\u6240","boring_xml_url":46,"boring_view_url":1,"soilmap_view_url":null,"soiltest_xml_url":49,"soiltest_view_url":49},{"id":137813,"code":"B4KJ201801002-6062","latitude":"38.73864","longitude":"139.846","source_code":"TH20098256000700007","project_name":"","survey_name":"\u5e73\u621019\u5e74\u5ea6 \u8d64\u5ddd\u5824\u9632\u8abf\u67fb","client_name":"\u56fd\u571f\u4ea4\u901a\u7701\u6771\u5317\u5730\u65b9\u6574\u5099\u5c40\u9152\u7530\u6cb3\u5ddd\u56fd\u9053\u4e8b\u52d9\u6240","boring_xml_url":46,"boring_view_url":1,"soilmap_view_url":null,"soiltest_xml_url":49,"soiltest_view_url":49},{"id":137812,"code":"B4KJ201801002-6061","latitude":"38.7495","longitude":"139.84836","source_code":"TH20098256000700006","project_name":"","survey_name":"\u5e73\u621019\u5e74\u5ea6 \u8d64\u5ddd\u5824\u9632\u8abf\u67fb","client_name":"\u56fd\u571f\u4ea4\u901a\u7701\u6771\u5317\u5730\u65b9\u6574\u5099\u5c40\u9152\u7530\u6cb3\u5ddd\u56fd\u9053\u4e8b\u52d9\u6240","boring_xml_url":46,"boring_view_url":1,"soilmap_view_url":null,"soiltest_xml_url":49,"soiltest_view_url":49},{"id":137811,"code":"B4KJ201801002-6060","latitude":"38.74953","longitude":"139.84842","source_code":"TH20098256000700005","project_name":"","survey_name":"\u5e73\u621019\u5e74\u5ea6 \u8d64\u5ddd\u5824\u9632\u8abf\u67fb","client_name":"\u56fd\u571f\u4ea4\u901a\u7701\u6771\u5317\u5730\u65b9\u6574\u5099\u5c40\u9152\u7530\u6cb3\u5ddd\u56fd\u9053\u4e8b\u52d9\u6240","boring_xml_url":46,"boring_view_url":1,"soilmap_view_url":null,"soiltest_xml_url":49,"soiltest_view_url":49},{"id":137810,"code":"B4KJ201801002-6059","latitude":"38.83308","longitude":"139.8245","source_code":"TH20098256000700004","project_name":"","survey_name":"\u5e73\u621019\u5e74\u5ea6 \u8d64\u5ddd\u5824\u9632\u8abf\u67fb","client_name":"\u56fd\u571f\u4ea4\u901a\u7701\u6771\u5317\u5730\u65b9\u6574\u5099\u5c40\u9152\u7530\u6cb3\u5ddd\u56fd\u9053\u4e8b\u52d9\u6240","boring_xml_url":46,"boring_view_url":1,"soilmap_view_url":null,"soiltest_xml_url":49,"soiltest_view_url":49},{"id":137809,"code":"B4KJ201801002-6058","latitude":"38.83322","longitude":"139.82467","source_code":"TH20098256000700003","project_name":"","survey_name":"\u5e73\u621019\u5e74\u5ea6 \u8d64\u5ddd\u5824\u9632\u8abf\u67fb","client_name":"\u56fd\u571f\u4ea4\u901a\u7701\u6771\u5317\u5730\u65b9\u6574\u5099\u5c40\u9152\u7530\u6cb3\u5ddd\u56fd\u9053\u4e8b\u52d9\u6240","boring_xml_url":46,"boring_view_url":1,"soilmap_view_url":null,"soiltest_xml_url":49,"soiltest_view_url":49},{"id":137808,"code":"B4KJ201801002-6057","latitude":"38.83794","longitude":"139.81836","source_code":"TH20098256000700002","project_name":"","survey_name":"\u5e73\u621019\u5e74\u5ea6 \u8d64\u5ddd\u5824\u9632\u8abf\u67fb","client_name":"\u56fd\u571f\u4ea4\u901a\u7701\u6771\u5317\u5730\u65b9\u6574\u5099\u5c40\u9152\u7530\u6cb3\u5ddd\u56fd\u9053\u4e8b\u52d9\u6240","boring_xml_url":46,"boring_view_url":1,"soilmap_view_url":null,"soiltest_xml_url":49,"soiltest_view_url":49},{"id":137807,"code":"B4KJ201801002-6056","latitude":"38.83808","longitude":"139.81844","source_code":"TH20098256000700001","project_name":"","survey_name":"\u5e73\u621019\u5e74\u5ea6 \u8d64\u5ddd\u5824\u9632\u8abf\u67fb","client_name":"\u56fd\u571f\u4ea4\u901a\u7701\u6771\u5317\u5730\u65b9\u6574\u5099\u5c40\u9152\u7530\u6cb3\u5ddd\u56fd\u9053\u4e8b\u52d9\u6240","boring_xml_url":46,"boring_view_url":1,"soilmap_view_url":null,"soiltest_xml_url":49,"soiltest_view_url":49},{"id":137806,"code":"B4KJ201801002-6055","latitude":"38.62936","longitude":"139.84875","source_code":"TH20098256000690018","project_name":"","survey_name":"\u5e73\u621018\u5e74\u5ea6 \u8d64\u5ddd\u5824\u9632\u6d78\u900f\u8abf\u67fb","client_name":"\u56fd\u571f\u4ea4\u901a\u7701\u6771\u5317\u5730\u65b9\u6574\u5099\u5c40\u9152\u7530\u6cb3\u5ddd\u56fd\u9053\u4e8b\u52d9\u6240","boring_xml_url":46,"boring_view_url":1,"soilmap_view_url":null,"soiltest_xml_url":49,"soiltest_view_url":49},{"id":137805,"code":"B4KJ201801002-6054","latitude":"38.6295","longitude":"139.84861","source_code":"TH20098256000690017","project_name":"","survey_name":"\u5e73\u621018\u5e74\u5ea6 \u8d64\u5ddd\u5824\u9632\u6d78\u900f\u8abf\u67fb","client_name":"\u56fd\u571f\u4ea4\u901a\u7701\u6771\u5317\u5730\u65b9\u6574\u5099\u5c40\u9152\u7530\u6cb3\u5ddd\u56fd\u9053\u4e8b\u52d9\u6240","boring_xml_url":46,"boring_view_url":1,"soilmap_view_url":null,"soiltest_xml_url":49,"soiltest_view_url":49},{"id":137804,"code":"B4KJ201801002-6053","latitude":"38.68928","longitude":"139.86247","source_code":"TH20098256000690016","project_name":"","survey_name":"\u5e73\u621018\u5e74\u5ea6 \u8d64\u5ddd\u5824\u9632\u6d78\u900f\u8abf\u67fb","client_name":"\u56fd\u571f\u4ea4\u901a\u7701\u6771\u5317\u5730\u65b9\u6574\u5099\u5c40\u9152\u7530\u6cb3\u5ddd\u56fd\u9053\u4e8b\u52d9\u6240","boring_xml_url":46,"boring_view_url":1,"soilmap_view_url":null,"soiltest_xml_url":49,"soiltest_view_url":49},{"id":137803,"code":"B4KJ201801002-6052","latitude":"38.68928","longitude":"139.86247","source_code":"TH20098256000690015","project_name":"","survey_name":"\u5e73\u621018\u5e74\u5ea6 \u8d64\u5ddd\u5824\u9632\u6d78\u900f\u8abf\u67fb","client_name":"\u56fd\u571f\u4ea4\u901a\u7701\u6771\u5317\u5730\u65b9\u6574\u5099\u5c40\u9152\u7530\u6cb3\u5ddd\u56fd\u9053\u4e8b\u52d9\u6240","boring_xml_url":46,"boring_view_url":1,"soilmap_view_url":null,"soiltest_xml_url":49,"soiltest_view_url":49},{"id":137802,"code":"B4KJ201801002-6051","latitude":"38.69564","longitude":"139.86439","source_code":"TH20098256000690014","project_name":"","survey_name":"\u5e73\u621018\u5e74\u5ea6 \u8d64\u5ddd\u5824\u9632\u6d78\u900f\u8abf\u67fb","client_name":"\u56fd\u571f\u4ea4\u901a\u7701\u6771\u5317\u5730\u65b9\u6574\u5099\u5c40\u9152\u7530\u6cb3\u5ddd\u56fd\u9053\u4e8b\u52d9\u6240","boring_xml_url":46,"boring_view_url":1,"soilmap_view_url":null,"soiltest_xml_url":49,"soiltest_view_url":49},{"id":137801,"code":"B4KJ201801002-6050","latitude":"38.69567","longitude":"139.86358","source_code":"TH20098256000690013","project_name":"","survey_name":"\u5e73\u621018\u5e74\u5ea6 \u8d64\u5ddd\u5824\u9632\u6d78\u900f\u8abf\u67fb","client_name":"\u56fd\u571f\u4ea4\u901a\u7701\u6771\u5317\u5730\u65b9\u6574\u5099\u5c40\u9152\u7530\u6cb3\u5ddd\u56fd\u9053\u4e8b\u52d9\u6240","boring_xml_url":46,"boring_view_url":1,"soilmap_view_url":null,"soiltest_xml_url":49,"soiltest_view_url":49},{"id":137800,"code":"B4KJ201801002-6049","latitude":"38.70653","longitude":"139.86203","source_code":"TH20098256000690012","project_name":"","survey_name":"\u5e73\u621018\u5e74\u5ea6 \u8d64\u5ddd\u5824\u9632\u6d78\u900f\u8abf\u67fb","client_name":"\u56fd\u571f\u4ea4\u901a\u7701\u6771\u5317\u5730\u65b9\u6574\u5099\u5c40\u9152\u7530\u6cb3\u5ddd\u56fd\u9053\u4e8b\u52d9\u6240","boring_xml_url":46,"boring_view_url":1,"soilmap_view_url":null,"soiltest_xml_url":49,"soiltest_view_url":49},{"id":137799,"code":"B4KJ201801002-6048","latitude":"38.70647","longitude":"139.86178","source_code":"TH20098256000690011","project_name":"","survey_name":"\u5e73\u621018\u5e74\u5ea6 \u8d64\u5ddd\u5824\u9632\u6d78\u900f\u8abf\u67fb","client_name":"\u56fd\u571f\u4ea4\u901a\u7701\u6771\u5317\u5730\u65b9\u6574\u5099\u5c40\u9152\u7530\u6cb3\u5ddd\u56fd\u9053\u4e8b\u52d9\u6240","boring_xml_url":46,"boring_view_url":1,"soilmap_view_url":null,"soiltest_xml_url":49,"soiltest_view_url":49},{"id":137798,"code":"B4KJ201801002-6047","latitude":"38.76728","longitude":"139.85111","source_code":"TH20098256000690010","project_name":"","survey_name":"\u5e73\u621018\u5e74\u5ea6 \u8d64\u5ddd\u5824\u9632\u6d78\u900f\u8abf\u67fb","client_name":"\u56fd\u571f\u4ea4\u901a\u7701\u6771\u5317\u5730\u65b9\u6574\u5099\u5c40\u9152\u7530\u6cb3\u5ddd\u56fd\u9053\u4e8b\u52d9\u6240","boring_xml_url":46,"boring_view_url":1,"soilmap_view_url":null,"soiltest_xml_url":49,"soiltest_view_url":49},{"id":137797,"code":"B4KJ201801002-6046","latitude":"38.76733","longitude":"139.85147","source_code":"TH20098256000690009","project_name":"","survey_name":"\u5e73\u621018\u5e74\u5ea6 \u8d64\u5ddd\u5824\u9632\u6d78\u900f\u8abf\u67fb","client_name":"\u56fd\u571f\u4ea4\u901a\u7701\u6771\u5317\u5730\u65b9\u6574\u5099\u5c40\u9152\u7530\u6cb3\u5ddd\u56fd\u9053\u4e8b\u52d9\u6240","boring_xml_url":46,"boring_view_url":1,"soilmap_view_url":null,"soiltest_xml_url":49,"soiltest_view_url":49},{"id":137796,"code":"B4KJ201801002-6045","latitude":"38.78681","longitude":"139.84133","source_code":"TH20098256000690008","project_name":"","survey_name":"\u5e73\u621018\u5e74\u5ea6 \u8d64\u5ddd\u5824\u9632\u6d78\u900f\u8abf\u67fb","client_name":"\u56fd\u571f\u4ea4\u901a\u7701\u6771\u5317\u5730\u65b9\u6574\u5099\u5c40\u9152\u7530\u6cb3\u5ddd\u56fd\u9053\u4e8b\u52d9\u6240","boring_xml_url":46,"boring_view_url":1,"soilmap_view_url":null,"soiltest_xml_url":49,"soiltest_view_url":49},{"id":137795,"code":"B4KJ201801002-6044","latitude":"38.78706","longitude":"139.84108","source_code":"TH20098256000690007","project_name":"","survey_name":"\u5e73\u621018\u5e74\u5ea6 \u8d64\u5ddd\u5824\u9632\u6d78\u900f\u8abf\u67fb","client_name":"\u56fd\u571f\u4ea4\u901a\u7701\u6771\u5317\u5730\u65b9\u6574\u5099\u5c40\u9152\u7530\u6cb3\u5ddd\u56fd\u9053\u4e8b\u52d9\u6240","boring_xml_url":46,"boring_view_url":1,"soilmap_view_url":null,"soiltest_xml_url":49,"soiltest_view_url":49},{"id":137794,"code":"B4KJ201801002-6043","latitude":"38.80264","longitude":"139.84325","source_code":"TH20098256000690006","project_name":"","survey_name":"\u5e73\u621018\u5e74\u5ea6 \u8d64\u5ddd\u5824\u9632\u6d78\u900f\u8abf\u67fb","client_name":"\u56fd\u571f\u4ea4\u901a\u7701\u6771\u5317\u5730\u65b9\u6574\u5099\u5c40\u9152\u7530\u6cb3\u5ddd\u56fd\u9053\u4e8b\u52d9\u6240","boring_xml_url":46,"boring_view_url":1,"soilmap_view_url":null,"soiltest_xml_url":49,"soiltest_view_url":49},{"id":137793,"code":"B4KJ201801002-6042","latitude":"38.80253","longitude":"139.84339","source_code":"TH20098256000690005","project_name":"","survey_name":"\u5e73\u621018\u5e74\u5ea6 \u8d64\u5ddd\u5824\u9632\u6d78\u900f\u8abf\u67fb","client_name":"\u56fd\u571f\u4ea4\u901a\u7701\u6771\u5317\u5730\u65b9\u6574\u5099\u5c40\u9152\u7530\u6cb3\u5ddd\u56fd\u9053\u4e8b\u52d9\u6240","boring_xml_url":46,"boring_view_url":1,"soilmap_view_url":null,"soiltest_xml_url":49,"soiltest_view_url":49},{"id":137792,"code":"B4KJ201801002-6041","latitude":"38.81011","longitude":"139.84608","source_code":"TH20098256000690004","project_name":"","survey_name":"\u5e73\u621018\u5e74\u5ea6 \u8d64\u5ddd\u5824\u9632\u6d78\u900f\u8abf\u67fb","client_name":"\u56fd\u571f\u4ea4\u901a\u7701\u6771\u5317\u5730\u65b9\u6574\u5099\u5c40\u9152\u7530\u6cb3\u5ddd\u56fd\u9053\u4e8b\u52d9\u6240","boring_xml_url":46,"boring_view_url":1,"soilmap_view_url":null,"soiltest_xml_url":49,"soiltest_view_url":49},{"id":137791,"code":"B4KJ201801002-6040","latitude":"38.81011","longitude":"139.84636","source_code":"TH20098256000690003","project_name":"","survey_name":"\u5e73\u621018\u5e74\u5ea6 \u8d64\u5ddd\u5824\u9632\u6d78\u900f\u8abf\u67fb","client_name":"\u56fd\u571f\u4ea4\u901a\u7701\u6771\u5317\u5730\u65b9\u6574\u5099\u5c40\u9152\u7530\u6cb3\u5ddd\u56fd\u9053\u4e8b\u52d9\u6240","boring_xml_url":46,"boring_view_url":1,"soilmap_view_url":null,"soiltest_xml_url":49,"soiltest_view_url":49},{"id":137790,"code":"B4KJ201801002-6039","latitude":"38.82889","longitude":"139.83239","source_code":"TH20098256000690002","project_name":"","survey_name":"\u5e73\u621018\u5e74\u5ea6 \u8d64\u5ddd\u5824\u9632\u6d78\u900f\u8abf\u67fb","client_name":"\u56fd\u571f\u4ea4\u901a\u7701\u6771\u5317\u5730\u65b9\u6574\u5099\u5c40\u9152\u7530\u6cb3\u5ddd\u56fd\u9053\u4e8b\u52d9\u6240","boring_xml_url":46,"boring_view_url":1,"soilmap_view_url":null,"soiltest_xml_url":49,"soiltest_view_url":49},{"id":137789,"code":"B4KJ201801002-6038","latitude":"38.82908","longitude":"139.83258","source_code":"TH20098256000690001","project_name":"","survey_name":"\u5e73\u621018\u5e74\u5ea6 \u8d64\u5ddd\u5824\u9632\u6d78\u900f\u8abf\u67fb","client_name":"\u56fd\u571f\u4ea4\u901a\u7701\u6771\u5317\u5730\u65b9\u6574\u5099\u5c40\u9152\u7530\u6cb3\u5ddd\u56fd\u9053\u4e8b\u52d9\u6240","boring_xml_url":46,"boring_view_url":1,"soilmap_view_url":null,"soiltest_xml_url":49,"soiltest_view_url":49},{"id":137788,"code":"B4KJ201801002-6037","latitude":"38.719","longitude":"139.85886","source_code":"TH20098256000680020","project_name":"\u8d64\u5ddd\u5824\u9632\u8abf\u67fb","survey_name":"\u5e73\u621017\u5e74\u5ea6 \u8d64\u5ddd\u5824\u9632\u8abf\u67fb","client_name":"\u56fd\u571f\u4ea4\u901a\u7701\u6771\u5317\u5730\u65b9\u6574\u5099\u5c40\u9152\u7530\u6cb3\u5ddd\u56fd\u9053\u4e8b\u52d9\u6240","boring_xml_url":46,"boring_view_url":1,"soilmap_view_url":null,"soiltest_xml_url":49,"soiltest_view_url":49},{"id":137787,"code":"B4KJ201801002-6036","latitude":"38.719","longitude":"139.85858","source_code":"TH20098256000680019","project_name":"\u8d64\u5ddd\u5824\u9632\u8abf\u67fb","survey_name":"\u5e73\u621017\u5e74\u5ea6 \u8d64\u5ddd\u5824\u9632\u8abf\u67fb","client_name":"\u56fd\u571f\u4ea4\u901a\u7701\u6771\u5317\u5730\u65b9\u6574\u5099\u5c40\u9152\u7530\u6cb3\u5ddd\u56fd\u9053\u4e8b\u52d9\u6240","boring_xml_url":46,"boring_view_url":1,"soilmap_view_url":null,"soiltest_xml_url":49,"soiltest_view_url":49},{"id":137786,"code":"B4KJ201801002-6035","latitude":"38.72317","longitude":"139.85386","source_code":"TH20098256000680018","project_name":"\u8d64\u5ddd\u5824\u9632\u8abf\u67fb","survey_name":"\u5e73\u621017\u5e74\u5ea6 \u8d64\u5ddd\u5824\u9632\u8abf\u67fb","client_name":"\u56fd\u571f\u4ea4\u901a\u7701\u6771\u5317\u5730\u65b9\u6574\u5099\u5c40\u9152\u7530\u6cb3\u5ddd\u56fd\u9053\u4e8b\u52d9\u6240","boring_xml_url":46,"boring_view_url":1,"soilmap_view_url":null,"soiltest_xml_url":49,"soiltest_view_url":49}]}}