{"header":{"xyz":{"source":[],"mosaic":false},"page":6094,"raw":{"soiltest_result":"0","bbox":"57.598333,109.544722,1.933333,163.806111","page":"6094"},"conditions":{"soiltest_result":0,"north":57.598333,"west":109.544722,"south":1.933333,"east":163.806111},"success":true,"message":""},"data":{"meta":{"total":212844,"page":6094,"pages":7095,"count":30},"values":[{"id":137755,"code":"B4KJ201801002-6004","latitude":"38.72331","longitude":"139.84919","source_code":"TH20098256000670006","project_name":"\u8d64\u5ddd\u5824\u9632\u6d78\u900f\u6d41\u89e3\u6790\u8abf\u67fb","survey_name":"\u5e73\u621017\u5e74\u5ea6 \u8d64\u5ddd\u5824\u9632\u6d78\u900f\u6d41\u89e3\u6790\u8abf\u67fb","client_name":"\u56fd\u571f\u4ea4\u901a\u7701\u6771\u5317\u5730\u65b9\u6574\u5099\u5c40\u9152\u7530\u6cb3\u5ddd\u56fd\u9053\u4e8b\u52d9\u6240","boring_xml_url":46,"boring_view_url":1,"soilmap_view_url":null,"soiltest_xml_url":49,"soiltest_view_url":49},{"id":137754,"code":"B4KJ201801002-6003","latitude":"38.72344","longitude":"139.84969","source_code":"TH20098256000670005","project_name":"\u8d64\u5ddd\u5824\u9632\u6d78\u900f\u6d41\u89e3\u6790\u8abf\u67fb","survey_name":"\u5e73\u621017\u5e74\u5ea6 \u8d64\u5ddd\u5824\u9632\u6d78\u900f\u6d41\u89e3\u6790\u8abf\u67fb","client_name":"\u56fd\u571f\u4ea4\u901a\u7701\u6771\u5317\u5730\u65b9\u6574\u5099\u5c40\u9152\u7530\u6cb3\u5ddd\u56fd\u9053\u4e8b\u52d9\u6240","boring_xml_url":46,"boring_view_url":1,"soilmap_view_url":null,"soiltest_xml_url":49,"soiltest_view_url":49},{"id":137753,"code":"B4KJ201801002-6002","latitude":"38.74178","longitude":"139.84997","source_code":"TH20098256000670004","project_name":"\u8d64\u5ddd\u5824\u9632\u6d78\u900f\u6d41\u89e3\u6790\u8abf\u67fb","survey_name":"\u5e73\u621017\u5e74\u5ea6 \u8d64\u5ddd\u5824\u9632\u6d78\u900f\u6d41\u89e3\u6790\u8abf\u67fb","client_name":"\u56fd\u571f\u4ea4\u901a\u7701\u6771\u5317\u5730\u65b9\u6574\u5099\u5c40\u9152\u7530\u6cb3\u5ddd\u56fd\u9053\u4e8b\u52d9\u6240","boring_xml_url":46,"boring_view_url":1,"soilmap_view_url":null,"soiltest_xml_url":49,"soiltest_view_url":49},{"id":137752,"code":"B4KJ201801002-6001","latitude":"38.74178","longitude":"139.84969","source_code":"TH20098256000670003","project_name":"\u8d64\u5ddd\u5824\u9632\u6d78\u900f\u6d41\u89e3\u6790\u8abf\u67fb","survey_name":"\u5e73\u621017\u5e74\u5ea6 \u8d64\u5ddd\u5824\u9632\u6d78\u900f\u6d41\u89e3\u6790\u8abf\u67fb","client_name":"\u56fd\u571f\u4ea4\u901a\u7701\u6771\u5317\u5730\u65b9\u6574\u5099\u5c40\u9152\u7530\u6cb3\u5ddd\u56fd\u9053\u4e8b\u52d9\u6240","boring_xml_url":46,"boring_view_url":1,"soilmap_view_url":null,"soiltest_xml_url":49,"soiltest_view_url":49},{"id":137751,"code":"B4KJ201801002-6000","latitude":"38.74539","longitude":"139.85469","source_code":"TH20098256000670002","project_name":"\u8d64\u5ddd\u5824\u9632\u6d78\u900f\u6d41\u89e3\u6790\u8abf\u67fb","survey_name":"\u5e73\u621017\u5e74\u5ea6 \u8d64\u5ddd\u5824\u9632\u6d78\u900f\u6d41\u89e3\u6790\u8abf\u67fb","client_name":"\u56fd\u571f\u4ea4\u901a\u7701\u6771\u5317\u5730\u65b9\u6574\u5099\u5c40\u9152\u7530\u6cb3\u5ddd\u56fd\u9053\u4e8b\u52d9\u6240","boring_xml_url":46,"boring_view_url":1,"soilmap_view_url":null,"soiltest_xml_url":49,"soiltest_view_url":49},{"id":137750,"code":"B4KJ201801002-5999","latitude":"38.74539","longitude":"139.85497","source_code":"TH20098256000670001","project_name":"\u8d64\u5ddd\u5824\u9632\u6d78\u900f\u6d41\u89e3\u6790\u8abf\u67fb","survey_name":"\u5e73\u621017\u5e74\u5ea6 \u8d64\u5ddd\u5824\u9632\u6d78\u900f\u6d41\u89e3\u6790\u8abf\u67fb","client_name":"\u56fd\u571f\u4ea4\u901a\u7701\u6771\u5317\u5730\u65b9\u6574\u5099\u5c40\u9152\u7530\u6cb3\u5ddd\u56fd\u9053\u4e8b\u52d9\u6240","boring_xml_url":46,"boring_view_url":1,"soilmap_view_url":null,"soiltest_xml_url":49,"soiltest_view_url":49},{"id":137749,"code":"B4KJ201801002-5998","latitude":"38.80236","longitude":"139.85094","source_code":"TH20098256000660002","project_name":"","survey_name":"\u5e73\u621017\u5e74\u5ea6 \u8d64\u5ddd\u5bfe\u99ac\u6a0b\u7ba1\u5b9f\u65bd\u8a2d\u8a08\u696d\u52d9","client_name":"\u56fd\u571f\u4ea4\u901a\u7701\u6771\u5317\u5730\u65b9\u6574\u5099\u5c40\u9152\u7530\u6cb3\u5ddd\u56fd\u9053\u4e8b\u52d9\u6240","boring_xml_url":46,"boring_view_url":1,"soilmap_view_url":null,"soiltest_xml_url":0,"soiltest_view_url":0},{"id":137748,"code":"B4KJ201801002-5997","latitude":"38.80258","longitude":"139.85072","source_code":"TH20098256000660001","project_name":"","survey_name":"\u5e73\u621017\u5e74\u5ea6 \u8d64\u5ddd\u5bfe\u99ac\u6a0b\u7ba1\u5b9f\u65bd\u8a2d\u8a08\u696d\u52d9","client_name":"\u56fd\u571f\u4ea4\u901a\u7701\u6771\u5317\u5730\u65b9\u6574\u5099\u5c40\u9152\u7530\u6cb3\u5ddd\u56fd\u9053\u4e8b\u52d9\u6240","boring_xml_url":46,"boring_view_url":1,"soilmap_view_url":null,"soiltest_xml_url":49,"soiltest_view_url":49},{"id":137747,"code":"B4KJ201801002-5996","latitude":"38.82928","longitude":"139.96525","source_code":"TH20098256000650011","project_name":"\u6700\u4e0a\u5ddd\u5824\u9632\u6d78\u900f\u6d41\u89e3\u6790\u8abf\u67fb","survey_name":"\u5e73\u621017\u5e74\u5ea6 \u6700\u4e0a\u5ddd\u5824\u9632\u6d78\u900f\u6d41\u89e3\u6790\u8abf\u67fb","client_name":"\u56fd\u571f\u4ea4\u901a\u7701\u6771\u5317\u5730\u65b9\u6574\u5099\u5c40\u9152\u7530\u6cb3\u5ddd\u56fd\u9053\u4e8b\u52d9\u6240","boring_xml_url":46,"boring_view_url":1,"soilmap_view_url":null,"soiltest_xml_url":49,"soiltest_view_url":49},{"id":137746,"code":"B4KJ201801002-5995","latitude":"38.82956","longitude":"139.96525","source_code":"TH20098256000650010","project_name":"\u6700\u4e0a\u5ddd\u5824\u9632\u6d78\u900f\u6d41\u89e3\u6790\u8abf\u67fb","survey_name":"\u5e73\u621017\u5e74\u5ea6 \u6700\u4e0a\u5ddd\u5824\u9632\u6d78\u900f\u6d41\u89e3\u6790\u8abf\u67fb","client_name":"\u56fd\u571f\u4ea4\u901a\u7701\u6771\u5317\u5730\u65b9\u6574\u5099\u5c40\u9152\u7530\u6cb3\u5ddd\u56fd\u9053\u4e8b\u52d9\u6240","boring_xml_url":46,"boring_view_url":1,"soilmap_view_url":null,"soiltest_xml_url":49,"soiltest_view_url":49},{"id":137745,"code":"B4KJ201801002-5994","latitude":"38.82956","longitude":"139.96497","source_code":"TH20098256000650009","project_name":"\u6700\u4e0a\u5ddd\u5824\u9632\u6d78\u900f\u6d41\u89e3\u6790\u8abf\u67fb","survey_name":"\u5e73\u621017\u5e74\u5ea6 \u6700\u4e0a\u5ddd\u5824\u9632\u6d78\u900f\u6d41\u89e3\u6790\u8abf\u67fb","client_name":"\u56fd\u571f\u4ea4\u901a\u7701\u6771\u5317\u5730\u65b9\u6574\u5099\u5c40\u9152\u7530\u6cb3\u5ddd\u56fd\u9053\u4e8b\u52d9\u6240","boring_xml_url":46,"boring_view_url":1,"soilmap_view_url":null,"soiltest_xml_url":49,"soiltest_view_url":49},{"id":137744,"code":"B4KJ201801002-5993","latitude":"38.82928","longitude":"139.96497","source_code":"TH20098256000650008","project_name":"\u6700\u4e0a\u5ddd\u5824\u9632\u6d78\u900f\u6d41\u89e3\u6790\u8abf\u67fb","survey_name":"\u5e73\u621017\u5e74\u5ea6 \u6700\u4e0a\u5ddd\u5824\u9632\u6d78\u900f\u6d41\u89e3\u6790\u8abf\u67fb","client_name":"\u56fd\u571f\u4ea4\u901a\u7701\u6771\u5317\u5730\u65b9\u6574\u5099\u5c40\u9152\u7530\u6cb3\u5ddd\u56fd\u9053\u4e8b\u52d9\u6240","boring_xml_url":46,"boring_view_url":1,"soilmap_view_url":null,"soiltest_xml_url":49,"soiltest_view_url":49},{"id":137743,"code":"B4KJ201801002-5992","latitude":"38.82928","longitude":"139.96469","source_code":"TH20098256000650007","project_name":"\u6700\u4e0a\u5ddd\u5824\u9632\u6d78\u900f\u6d41\u89e3\u6790\u8abf\u67fb","survey_name":"\u5e73\u621017\u5e74\u5ea6 \u6700\u4e0a\u5ddd\u5824\u9632\u6d78\u900f\u6d41\u89e3\u6790\u8abf\u67fb","client_name":"\u56fd\u571f\u4ea4\u901a\u7701\u6771\u5317\u5730\u65b9\u6574\u5099\u5c40\u9152\u7530\u6cb3\u5ddd\u56fd\u9053\u4e8b\u52d9\u6240","boring_xml_url":46,"boring_view_url":1,"soilmap_view_url":null,"soiltest_xml_url":49,"soiltest_view_url":49},{"id":137742,"code":"B4KJ201801002-5991","latitude":"38.88258","longitude":"139.89803","source_code":"TH20098256000650006","project_name":"\u6700\u4e0a\u5ddd\u5824\u9632\u6d78\u900f\u6d41\u89e3\u6790\u8abf\u67fb","survey_name":"\u5e73\u621017\u5e74\u5ea6 \u6700\u4e0a\u5ddd\u5824\u9632\u6d78\u900f\u6d41\u89e3\u6790\u8abf\u67fb","client_name":"\u56fd\u571f\u4ea4\u901a\u7701\u6771\u5317\u5730\u65b9\u6574\u5099\u5c40\u9152\u7530\u6cb3\u5ddd\u56fd\u9053\u4e8b\u52d9\u6240","boring_xml_url":46,"boring_view_url":1,"soilmap_view_url":null,"soiltest_xml_url":49,"soiltest_view_url":49},{"id":137741,"code":"B4KJ201801002-5990","latitude":"38.88231","longitude":"139.89775","source_code":"TH20098256000650005","project_name":"\u6700\u4e0a\u5ddd\u5824\u9632\u6d78\u900f\u6d41\u89e3\u6790\u8abf\u67fb","survey_name":"\u5e73\u621017\u5e74\u5ea6 \u6700\u4e0a\u5ddd\u5824\u9632\u6d78\u900f\u6d41\u89e3\u6790\u8abf\u67fb","client_name":"\u56fd\u571f\u4ea4\u901a\u7701\u6771\u5317\u5730\u65b9\u6574\u5099\u5c40\u9152\u7530\u6cb3\u5ddd\u56fd\u9053\u4e8b\u52d9\u6240","boring_xml_url":46,"boring_view_url":1,"soilmap_view_url":null,"soiltest_xml_url":49,"soiltest_view_url":49},{"id":137740,"code":"B4KJ201801002-5989","latitude":"38.88258","longitude":"139.93636","source_code":"TH20098256000650004","project_name":"\u6700\u4e0a\u5ddd\u5824\u9632\u6d78\u900f\u6d41\u89e3\u6790\u8abf\u67fb","survey_name":"\u5e73\u621017\u5e74\u5ea6 \u6700\u4e0a\u5ddd\u5824\u9632\u6d78\u900f\u6d41\u89e3\u6790\u8abf\u67fb","client_name":"\u56fd\u571f\u4ea4\u901a\u7701\u6771\u5317\u5730\u65b9\u6574\u5099\u5c40\u9152\u7530\u6cb3\u5ddd\u56fd\u9053\u4e8b\u52d9\u6240","boring_xml_url":46,"boring_view_url":1,"soilmap_view_url":null,"soiltest_xml_url":49,"soiltest_view_url":49},{"id":137739,"code":"B4KJ201801002-5988","latitude":"38.88258","longitude":"139.93608","source_code":"TH20098256000650003","project_name":"\u6700\u4e0a\u5ddd\u5824\u9632\u6d78\u900f\u6d41\u89e3\u6790\u8abf\u67fb","survey_name":"\u5e73\u621017\u5e74\u5ea6 \u6700\u4e0a\u5ddd\u5824\u9632\u6d78\u900f\u6d41\u89e3\u6790\u8abf\u67fb","client_name":"\u56fd\u571f\u4ea4\u901a\u7701\u6771\u5317\u5730\u65b9\u6574\u5099\u5c40\u9152\u7530\u6cb3\u5ddd\u56fd\u9053\u4e8b\u52d9\u6240","boring_xml_url":46,"boring_view_url":1,"soilmap_view_url":null,"soiltest_xml_url":49,"soiltest_view_url":49},{"id":137738,"code":"B4KJ201801002-5987","latitude":"38.88036","longitude":"139.93247","source_code":"TH20098256000650002","project_name":"\u6700\u4e0a\u5ddd\u5824\u9632\u6d78\u900f\u6d41\u89e3\u6790\u8abf\u67fb","survey_name":"\u5e73\u621017\u5e74\u5ea6 \u6700\u4e0a\u5ddd\u5824\u9632\u6d78\u900f\u6d41\u89e3\u6790\u8abf\u67fb","client_name":"\u56fd\u571f\u4ea4\u901a\u7701\u6771\u5317\u5730\u65b9\u6574\u5099\u5c40\u9152\u7530\u6cb3\u5ddd\u56fd\u9053\u4e8b\u52d9\u6240","boring_xml_url":46,"boring_view_url":1,"soilmap_view_url":null,"soiltest_xml_url":49,"soiltest_view_url":49},{"id":137737,"code":"B4KJ201801002-5986","latitude":"38.88008","longitude":"139.93275","source_code":"TH20098256000650001","project_name":"\u6700\u4e0a\u5ddd\u5824\u9632\u6d78\u900f\u6d41\u89e3\u6790\u8abf\u67fb","survey_name":"\u5e73\u621017\u5e74\u5ea6 \u6700\u4e0a\u5ddd\u5824\u9632\u6d78\u900f\u6d41\u89e3\u6790\u8abf\u67fb","client_name":"\u56fd\u571f\u4ea4\u901a\u7701\u6771\u5317\u5730\u65b9\u6574\u5099\u5c40\u9152\u7530\u6cb3\u5ddd\u56fd\u9053\u4e8b\u52d9\u6240","boring_xml_url":46,"boring_view_url":1,"soilmap_view_url":null,"soiltest_xml_url":49,"soiltest_view_url":49},{"id":137736,"code":"B4KJ201801002-5985","latitude":"38.87897","longitude":"139.93303","source_code":"TH20098256000640017","project_name":"\u6700\u4e0a\u5ddd\u4e0b\u6d41\u5824\u9632\u8abf\u67fb","survey_name":"\u5e73\u621017\u5e74\u5ea6 \u6700\u4e0a\u5ddd\u4e0b\u6d41\u5824\u9632\u8abf\u67fb","client_name":"\u56fd\u571f\u4ea4\u901a\u7701\u6771\u5317\u5730\u65b9\u6574\u5099\u5c40\u9152\u7530\u6cb3\u5ddd\u56fd\u9053\u4e8b\u52d9\u6240","boring_xml_url":46,"boring_view_url":1,"soilmap_view_url":null,"soiltest_xml_url":0,"soiltest_view_url":0},{"id":137735,"code":"B4KJ201801002-5984","latitude":"38.87897","longitude":"139.93331","source_code":"TH20098256000640016","project_name":"\u6700\u4e0a\u5ddd\u4e0b\u6d41\u5824\u9632\u8abf\u67fb","survey_name":"\u5e73\u621017\u5e74\u5ea6 \u6700\u4e0a\u5ddd\u4e0b\u6d41\u5824\u9632\u8abf\u67fb","client_name":"\u56fd\u571f\u4ea4\u901a\u7701\u6771\u5317\u5730\u65b9\u6574\u5099\u5c40\u9152\u7530\u6cb3\u5ddd\u56fd\u9053\u4e8b\u52d9\u6240","boring_xml_url":46,"boring_view_url":1,"soilmap_view_url":null,"soiltest_xml_url":49,"soiltest_view_url":49},{"id":137734,"code":"B4KJ201801002-5983","latitude":"38.88731","longitude":"139.83608","source_code":"TH20098256000640015","project_name":"\u6700\u4e0a\u5ddd\u4e0b\u6d41\u5824\u9632\u8abf\u67fb","survey_name":"\u5e73\u621017\u5e74\u5ea6 \u6700\u4e0a\u5ddd\u4e0b\u6d41\u5824\u9632\u8abf\u67fb","client_name":"\u56fd\u571f\u4ea4\u901a\u7701\u6771\u5317\u5730\u65b9\u6574\u5099\u5c40\u9152\u7530\u6cb3\u5ddd\u56fd\u9053\u4e8b\u52d9\u6240","boring_xml_url":46,"boring_view_url":1,"soilmap_view_url":null,"soiltest_xml_url":0,"soiltest_view_url":0},{"id":137733,"code":"B4KJ201801002-5982","latitude":"38.88703","longitude":"139.83608","source_code":"TH20098256000640014","project_name":"\u6700\u4e0a\u5ddd\u4e0b\u6d41\u5824\u9632\u8abf\u67fb","survey_name":"\u5e73\u621017\u5e74\u5ea6 \u6700\u4e0a\u5ddd\u4e0b\u6d41\u5824\u9632\u8abf\u67fb","client_name":"\u56fd\u571f\u4ea4\u901a\u7701\u6771\u5317\u5730\u65b9\u6574\u5099\u5c40\u9152\u7530\u6cb3\u5ddd\u56fd\u9053\u4e8b\u52d9\u6240","boring_xml_url":46,"boring_view_url":1,"soilmap_view_url":null,"soiltest_xml_url":49,"soiltest_view_url":49},{"id":137732,"code":"B4KJ201801002-5981","latitude":"38.89231","longitude":"139.83164","source_code":"TH20098256000640013","project_name":"\u6700\u4e0a\u5ddd\u4e0b\u6d41\u5824\u9632\u8abf\u67fb","survey_name":"\u5e73\u621017\u5e74\u5ea6 \u6700\u4e0a\u5ddd\u4e0b\u6d41\u5824\u9632\u8abf\u67fb","client_name":"\u56fd\u571f\u4ea4\u901a\u7701\u6771\u5317\u5730\u65b9\u6574\u5099\u5c40\u9152\u7530\u6cb3\u5ddd\u56fd\u9053\u4e8b\u52d9\u6240","boring_xml_url":46,"boring_view_url":1,"soilmap_view_url":null,"soiltest_xml_url":49,"soiltest_view_url":49},{"id":137731,"code":"B4KJ201801002-5980","latitude":"38.89258","longitude":"139.83136","source_code":"TH20098256000640012","project_name":"\u6700\u4e0a\u5ddd\u4e0b\u6d41\u5824\u9632\u8abf\u67fb","survey_name":"\u5e73\u621017\u5e74\u5ea6 \u6700\u4e0a\u5ddd\u4e0b\u6d41\u5824\u9632\u8abf\u67fb","client_name":"\u56fd\u571f\u4ea4\u901a\u7701\u6771\u5317\u5730\u65b9\u6574\u5099\u5c40\u9152\u7530\u6cb3\u5ddd\u56fd\u9053\u4e8b\u52d9\u6240","boring_xml_url":46,"boring_view_url":1,"soilmap_view_url":null,"soiltest_xml_url":49,"soiltest_view_url":49},{"id":137730,"code":"B4KJ201801002-5979","latitude":"38.90619","longitude":"139.81942","source_code":"TH20098256000640011","project_name":"\u6700\u4e0a\u5ddd\u4e0b\u6d41\u5824\u9632\u8abf\u67fb","survey_name":"\u5e73\u621017\u5e74\u5ea6 \u6700\u4e0a\u5ddd\u4e0b\u6d41\u5824\u9632\u8abf\u67fb","client_name":"\u56fd\u571f\u4ea4\u901a\u7701\u6771\u5317\u5730\u65b9\u6574\u5099\u5c40\u9152\u7530\u6cb3\u5ddd\u56fd\u9053\u4e8b\u52d9\u6240","boring_xml_url":46,"boring_view_url":1,"soilmap_view_url":null,"soiltest_xml_url":49,"soiltest_view_url":49},{"id":137729,"code":"B4KJ201801002-5978","latitude":"38.90592","longitude":"139.81942","source_code":"TH20098256000640010","project_name":"\u6700\u4e0a\u5ddd\u4e0b\u6d41\u5824\u9632\u8abf\u67fb","survey_name":"\u5e73\u621017\u5e74\u5ea6 \u6700\u4e0a\u5ddd\u4e0b\u6d41\u5824\u9632\u8abf\u67fb","client_name":"\u56fd\u571f\u4ea4\u901a\u7701\u6771\u5317\u5730\u65b9\u6574\u5099\u5c40\u9152\u7530\u6cb3\u5ddd\u56fd\u9053\u4e8b\u52d9\u6240","boring_xml_url":46,"boring_view_url":1,"soilmap_view_url":null,"soiltest_xml_url":49,"soiltest_view_url":49},{"id":137728,"code":"B4KJ201801002-5977","latitude":"38.88619","longitude":"139.83803","source_code":"TH20098256000640009","project_name":"\u6700\u4e0a\u5ddd\u4e0b\u6d41\u5824\u9632\u8abf\u67fb","survey_name":"\u5e73\u621017\u5e74\u5ea6 \u6700\u4e0a\u5ddd\u4e0b\u6d41\u5824\u9632\u8abf\u67fb","client_name":"\u56fd\u571f\u4ea4\u901a\u7701\u6771\u5317\u5730\u65b9\u6574\u5099\u5c40\u9152\u7530\u6cb3\u5ddd\u56fd\u9053\u4e8b\u52d9\u6240","boring_xml_url":46,"boring_view_url":1,"soilmap_view_url":null,"soiltest_xml_url":49,"soiltest_view_url":49},{"id":137727,"code":"B4KJ201801002-5976","latitude":"38.88592","longitude":"139.83803","source_code":"TH20098256000640008","project_name":"\u6700\u4e0a\u5ddd\u4e0b\u6d41\u5824\u9632\u8abf\u67fb","survey_name":"\u5e73\u621017\u5e74\u5ea6 \u6700\u4e0a\u5ddd\u4e0b\u6d41\u5824\u9632\u8abf\u67fb","client_name":"\u56fd\u571f\u4ea4\u901a\u7701\u6771\u5317\u5730\u65b9\u6574\u5099\u5c40\u9152\u7530\u6cb3\u5ddd\u56fd\u9053\u4e8b\u52d9\u6240","boring_xml_url":46,"boring_view_url":1,"soilmap_view_url":null,"soiltest_xml_url":49,"soiltest_view_url":49},{"id":137726,"code":"B4KJ201801002-5975","latitude":"38.79","longitude":"140.0233","source_code":"TH20098256000640007","project_name":"\u6700\u4e0a\u5ddd\u4e0b\u6d41\u5824\u9632\u8abf\u67fb","survey_name":"\u5e73\u621017\u5e74\u5ea6 \u6700\u4e0a\u5ddd\u4e0b\u6d41\u5824\u9632\u8abf\u67fb","client_name":"\u56fd\u571f\u4ea4\u901a\u7701\u6771\u5317\u5730\u65b9\u6574\u5099\u5c40\u9152\u7530\u6cb3\u5ddd\u56fd\u9053\u4e8b\u52d9\u6240","boring_xml_url":46,"boring_view_url":1,"soilmap_view_url":null,"soiltest_xml_url":49,"soiltest_view_url":49}]}}