{"header":{"xyz":{"source":[],"mosaic":false},"page":6100,"raw":{"soiltest_result":"0","bbox":"57.598333,109.544722,1.933333,163.806111","page":"6100"},"conditions":{"soiltest_result":0,"north":57.598333,"west":109.544722,"south":1.933333,"east":163.806111},"success":true,"message":""},"data":{"meta":{"total":212844,"page":6100,"pages":7095,"count":30},"values":[{"id":137575,"code":"B4KJ201801002-5824","latitude":"38.90878","longitude":"139.81933","source_code":"TH20098256000400007","project_name":"","survey_name":"\u5e73\u62107\u5e74\u5ea6 \u6700\u4e0a\u5ddd\u5de6\u5cb8\u5730\u8cea\u8abf\u67fb","client_name":"\u5efa\u8a2d\u7701\u6771\u5317\u5730\u65b9\u5efa\u8a2d\u5c40\u9152\u7530\u5de5\u4e8b\u4e8b\u52d9\u6240","boring_xml_url":46,"boring_view_url":1,"soilmap_view_url":null,"soiltest_xml_url":49,"soiltest_view_url":49},{"id":137574,"code":"B4KJ201801002-5823","latitude":"38.89169","longitude":"139.8335","source_code":"TH20098256000400006","project_name":"","survey_name":"\u5e73\u62107\u5e74\u5ea6 \u6700\u4e0a\u5ddd\u5de6\u5cb8\u5730\u8cea\u8abf\u67fb","client_name":"\u5efa\u8a2d\u7701\u6771\u5317\u5730\u65b9\u5efa\u8a2d\u5c40\u9152\u7530\u5de5\u4e8b\u4e8b\u52d9\u6240","boring_xml_url":46,"boring_view_url":1,"soilmap_view_url":null,"soiltest_xml_url":49,"soiltest_view_url":49},{"id":137573,"code":"B4KJ201801002-5822","latitude":"38.89231","longitude":"139.83342","source_code":"TH20098256000400005","project_name":"","survey_name":"\u5e73\u62107\u5e74\u5ea6 \u6700\u4e0a\u5ddd\u5de6\u5cb8\u5730\u8cea\u8abf\u67fb","client_name":"\u5efa\u8a2d\u7701\u6771\u5317\u5730\u65b9\u5efa\u8a2d\u5c40\u9152\u7530\u5de5\u4e8b\u4e8b\u52d9\u6240","boring_xml_url":46,"boring_view_url":1,"soilmap_view_url":null,"soiltest_xml_url":49,"soiltest_view_url":49},{"id":137572,"code":"B4KJ201801002-5821","latitude":"38.89494","longitude":"139.83083","source_code":"TH20098256000400004","project_name":"","survey_name":"\u5e73\u62107\u5e74\u5ea6 \u6700\u4e0a\u5ddd\u5de6\u5cb8\u5730\u8cea\u8abf\u67fb","client_name":"\u5efa\u8a2d\u7701\u6771\u5317\u5730\u65b9\u5efa\u8a2d\u5c40\u9152\u7530\u5de5\u4e8b\u4e8b\u52d9\u6240","boring_xml_url":46,"boring_view_url":1,"soilmap_view_url":null,"soiltest_xml_url":49,"soiltest_view_url":49},{"id":137571,"code":"B4KJ201801002-5820","latitude":"38.899","longitude":"139.82733","source_code":"TH20098256000400003","project_name":"","survey_name":"\u5e73\u62107\u5e74\u5ea6 \u6700\u4e0a\u5ddd\u5de6\u5cb8\u5730\u8cea\u8abf\u67fb","client_name":"\u5efa\u8a2d\u7701\u6771\u5317\u5730\u65b9\u5efa\u8a2d\u5c40\u9152\u7530\u5de5\u4e8b\u4e8b\u52d9\u6240","boring_xml_url":46,"boring_view_url":1,"soilmap_view_url":null,"soiltest_xml_url":49,"soiltest_view_url":49},{"id":137570,"code":"B4KJ201801002-5819","latitude":"38.90508","longitude":"139.82222","source_code":"TH20098256000400002","project_name":"","survey_name":"\u5e73\u62107\u5e74\u5ea6 \u6700\u4e0a\u5ddd\u5de6\u5cb8\u5730\u8cea\u8abf\u67fb","client_name":"\u5efa\u8a2d\u7701\u6771\u5317\u5730\u65b9\u5efa\u8a2d\u5c40\u9152\u7530\u5de5\u4e8b\u4e8b\u52d9\u6240","boring_xml_url":46,"boring_view_url":1,"soilmap_view_url":null,"soiltest_xml_url":49,"soiltest_view_url":49},{"id":137569,"code":"B4KJ201801002-5818","latitude":"38.90878","longitude":"139.81933","source_code":"TH20098256000400001","project_name":"","survey_name":"\u5e73\u62107\u5e74\u5ea6 \u6700\u4e0a\u5ddd\u5de6\u5cb8\u5730\u8cea\u8abf\u67fb","client_name":"\u5efa\u8a2d\u7701\u6771\u5317\u5730\u65b9\u5efa\u8a2d\u5c40\u9152\u7530\u5de5\u4e8b\u4e8b\u52d9\u6240","boring_xml_url":46,"boring_view_url":1,"soilmap_view_url":null,"soiltest_xml_url":49,"soiltest_view_url":49},{"id":137568,"code":"B4KJ201801002-5817","latitude":"38.63019","longitude":"139.84667","source_code":"TH20098256000390003","project_name":"","survey_name":"\u5e73\u62107\u5e74\u5ea6 \u6700\u4e0a\u5ddd\u53f3\u5cb8\u5730\u8cea\u8abf\u67fb(\u8d64\u5ddd)","client_name":"\u5efa\u8a2d\u7701\u6771\u5317\u5730\u65b9\u5efa\u8a2d\u5c40\u9152\u7530\u5de5\u4e8b\u4e8b\u52d9\u6240","boring_xml_url":46,"boring_view_url":1,"soilmap_view_url":null,"soiltest_xml_url":0,"soiltest_view_url":0},{"id":137567,"code":"B4KJ201801002-5816","latitude":"38.63075","longitude":"139.84775","source_code":"TH20098256000390002","project_name":"","survey_name":"\u5e73\u62107\u5e74\u5ea6 \u6700\u4e0a\u5ddd\u53f3\u5cb8\u5730\u8cea\u8abf\u67fb(\u8d64\u5ddd)","client_name":"\u5efa\u8a2d\u7701\u6771\u5317\u5730\u65b9\u5efa\u8a2d\u5c40\u9152\u7530\u5de5\u4e8b\u4e8b\u52d9\u6240","boring_xml_url":46,"boring_view_url":1,"soilmap_view_url":null,"soiltest_xml_url":0,"soiltest_view_url":0},{"id":137566,"code":"B4KJ201801002-5815","latitude":"38.63064","longitude":"139.84692","source_code":"TH20098256000390001","project_name":"","survey_name":"\u5e73\u62107\u5e74\u5ea6 \u6700\u4e0a\u5ddd\u53f3\u5cb8\u5730\u8cea\u8abf\u67fb(\u8d64\u5ddd)","client_name":"\u5efa\u8a2d\u7701\u6771\u5317\u5730\u65b9\u5efa\u8a2d\u5c40\u9152\u7530\u5de5\u4e8b\u4e8b\u52d9\u6240","boring_xml_url":46,"boring_view_url":1,"soilmap_view_url":null,"soiltest_xml_url":0,"soiltest_view_url":0},{"id":137565,"code":"B4KJ201801002-5814","latitude":"38.88856","longitude":"139.84664","source_code":"TH20098256000380007","project_name":"","survey_name":"\u5e73\u62107\u5e74\u5ea6 \u6700\u4e0a\u5ddd\u53f3\u5cb8\u5730\u8cea\u8abf\u67fb","client_name":"\u5efa\u8a2d\u7701\u6771\u5317\u5730\u65b9\u5efa\u8a2d\u5c40\u9152\u7530\u5de5\u4e8b\u4e8b\u52d9\u6240","boring_xml_url":46,"boring_view_url":1,"soilmap_view_url":null,"soiltest_xml_url":49,"soiltest_view_url":49},{"id":137564,"code":"B4KJ201801002-5813","latitude":"38.88428","longitude":"139.85336","source_code":"TH20098256000380006","project_name":"","survey_name":"\u5e73\u62107\u5e74\u5ea6 \u6700\u4e0a\u5ddd\u53f3\u5cb8\u5730\u8cea\u8abf\u67fb","client_name":"\u5efa\u8a2d\u7701\u6771\u5317\u5730\u65b9\u5efa\u8a2d\u5c40\u9152\u7530\u5de5\u4e8b\u4e8b\u52d9\u6240","boring_xml_url":46,"boring_view_url":1,"soilmap_view_url":null,"soiltest_xml_url":49,"soiltest_view_url":49},{"id":137563,"code":"B4KJ201801002-5812","latitude":"38.89217","longitude":"139.84428","source_code":"TH20098256000380005","project_name":"","survey_name":"\u5e73\u62107\u5e74\u5ea6 \u6700\u4e0a\u5ddd\u53f3\u5cb8\u5730\u8cea\u8abf\u67fb","client_name":"\u5efa\u8a2d\u7701\u6771\u5317\u5730\u65b9\u5efa\u8a2d\u5c40\u9152\u7530\u5de5\u4e8b\u4e8b\u52d9\u6240","boring_xml_url":46,"boring_view_url":1,"soilmap_view_url":null,"soiltest_xml_url":49,"soiltest_view_url":49},{"id":137562,"code":"B4KJ201801002-5811","latitude":"38.91436","longitude":"139.82442","source_code":"TH20098256000380004","project_name":"","survey_name":"\u5e73\u62107\u5e74\u5ea6 \u6700\u4e0a\u5ddd\u53f3\u5cb8\u5730\u8cea\u8abf\u67fb","client_name":"\u5efa\u8a2d\u7701\u6771\u5317\u5730\u65b9\u5efa\u8a2d\u5c40\u9152\u7530\u5de5\u4e8b\u4e8b\u52d9\u6240","boring_xml_url":46,"boring_view_url":1,"soilmap_view_url":null,"soiltest_xml_url":49,"soiltest_view_url":49},{"id":137561,"code":"B4KJ201801002-5810","latitude":"38.91794","longitude":"139.82075","source_code":"TH20098256000380003","project_name":"","survey_name":"\u5e73\u62107\u5e74\u5ea6 \u6700\u4e0a\u5ddd\u53f3\u5cb8\u5730\u8cea\u8abf\u67fb","client_name":"\u5efa\u8a2d\u7701\u6771\u5317\u5730\u65b9\u5efa\u8a2d\u5c40\u9152\u7530\u5de5\u4e8b\u4e8b\u52d9\u6240","boring_xml_url":46,"boring_view_url":1,"soilmap_view_url":null,"soiltest_xml_url":49,"soiltest_view_url":49},{"id":137560,"code":"B4KJ201801002-5809","latitude":"38.922","longitude":"139.81547","source_code":"TH20098256000380002","project_name":"","survey_name":"\u5e73\u62107\u5e74\u5ea6 \u6700\u4e0a\u5ddd\u53f3\u5cb8\u5730\u8cea\u8abf\u67fb","client_name":"\u5efa\u8a2d\u7701\u6771\u5317\u5730\u65b9\u5efa\u8a2d\u5c40\u9152\u7530\u5de5\u4e8b\u4e8b\u52d9\u6240","boring_xml_url":46,"boring_view_url":1,"soilmap_view_url":null,"soiltest_xml_url":49,"soiltest_view_url":49},{"id":137559,"code":"B4KJ201801002-5808","latitude":"38.92461","longitude":"139.81025","source_code":"TH20098256000380001","project_name":"","survey_name":"\u5e73\u62107\u5e74\u5ea6 \u6700\u4e0a\u5ddd\u53f3\u5cb8\u5730\u8cea\u8abf\u67fb","client_name":"\u5efa\u8a2d\u7701\u6771\u5317\u5730\u65b9\u5efa\u8a2d\u5c40\u9152\u7530\u5de5\u4e8b\u4e8b\u52d9\u6240","boring_xml_url":46,"boring_view_url":1,"soilmap_view_url":null,"soiltest_xml_url":49,"soiltest_view_url":49},{"id":137558,"code":"B4KJ201801002-5807","latitude":"38.88522","longitude":"139.83694","source_code":"TH20098256000370009","project_name":"","survey_name":"\u5e73\u62107\u5e74\u5ea6 \u4eac\u7530\u5ddd\u5730\u8cea\u8abf\u67fb","client_name":"\u5efa\u8a2d\u7701\u6771\u5317\u5730\u65b9\u5efa\u8a2d\u5c40\u9152\u7530\u5de5\u4e8b\u4e8b\u52d9\u6240","boring_xml_url":46,"boring_view_url":1,"soilmap_view_url":null,"soiltest_xml_url":49,"soiltest_view_url":49},{"id":137557,"code":"B4KJ201801002-5806","latitude":"38.89025","longitude":"139.83361","source_code":"TH20098256000370008","project_name":"","survey_name":"\u5e73\u62107\u5e74\u5ea6 \u4eac\u7530\u5ddd\u5730\u8cea\u8abf\u67fb","client_name":"\u5efa\u8a2d\u7701\u6771\u5317\u5730\u65b9\u5efa\u8a2d\u5c40\u9152\u7530\u5de5\u4e8b\u4e8b\u52d9\u6240","boring_xml_url":46,"boring_view_url":1,"soilmap_view_url":null,"soiltest_xml_url":49,"soiltest_view_url":49},{"id":137556,"code":"B4KJ201801002-5805","latitude":"38.89383","longitude":"139.82994","source_code":"TH20098256000370007","project_name":"","survey_name":"\u5e73\u62107\u5e74\u5ea6 \u4eac\u7530\u5ddd\u5730\u8cea\u8abf\u67fb","client_name":"\u5efa\u8a2d\u7701\u6771\u5317\u5730\u65b9\u5efa\u8a2d\u5c40\u9152\u7530\u5de5\u4e8b\u4e8b\u52d9\u6240","boring_xml_url":46,"boring_view_url":1,"soilmap_view_url":null,"soiltest_xml_url":49,"soiltest_view_url":49},{"id":137555,"code":"B4KJ201801002-5804","latitude":"38.89656","longitude":"139.82753","source_code":"TH20098256000370006","project_name":"","survey_name":"\u5e73\u62107\u5e74\u5ea6 \u4eac\u7530\u5ddd\u5730\u8cea\u8abf\u67fb","client_name":"\u5efa\u8a2d\u7701\u6771\u5317\u5730\u65b9\u5efa\u8a2d\u5c40\u9152\u7530\u5de5\u4e8b\u4e8b\u52d9\u6240","boring_xml_url":46,"boring_view_url":1,"soilmap_view_url":null,"soiltest_xml_url":49,"soiltest_view_url":49},{"id":137554,"code":"B4KJ201801002-5803","latitude":"38.89881","longitude":"139.82569","source_code":"TH20098256000370005","project_name":"","survey_name":"\u5e73\u62107\u5e74\u5ea6 \u4eac\u7530\u5ddd\u5730\u8cea\u8abf\u67fb","client_name":"\u5efa\u8a2d\u7701\u6771\u5317\u5730\u65b9\u5efa\u8a2d\u5c40\u9152\u7530\u5de5\u4e8b\u4e8b\u52d9\u6240","boring_xml_url":46,"boring_view_url":1,"soilmap_view_url":null,"soiltest_xml_url":49,"soiltest_view_url":49},{"id":137553,"code":"B4KJ201801002-5802","latitude":"38.90197","longitude":"139.82294","source_code":"TH20098256000370004","project_name":"","survey_name":"\u5e73\u62107\u5e74\u5ea6 \u4eac\u7530\u5ddd\u5730\u8cea\u8abf\u67fb","client_name":"\u5efa\u8a2d\u7701\u6771\u5317\u5730\u65b9\u5efa\u8a2d\u5c40\u9152\u7530\u5de5\u4e8b\u4e8b\u52d9\u6240","boring_xml_url":46,"boring_view_url":1,"soilmap_view_url":null,"soiltest_xml_url":49,"soiltest_view_url":49},{"id":137552,"code":"B4KJ201801002-5801","latitude":"38.90739","longitude":"139.81864","source_code":"TH20098256000370003","project_name":"","survey_name":"\u5e73\u62107\u5e74\u5ea6 \u4eac\u7530\u5ddd\u5730\u8cea\u8abf\u67fb","client_name":"\u5efa\u8a2d\u7701\u6771\u5317\u5730\u65b9\u5efa\u8a2d\u5c40\u9152\u7530\u5de5\u4e8b\u4e8b\u52d9\u6240","boring_xml_url":46,"boring_view_url":1,"soilmap_view_url":null,"soiltest_xml_url":49,"soiltest_view_url":49},{"id":137551,"code":"B4KJ201801002-5800","latitude":"38.91097","longitude":"139.81589","source_code":"TH20098256000370002","project_name":"","survey_name":"\u5e73\u62107\u5e74\u5ea6 \u4eac\u7530\u5ddd\u5730\u8cea\u8abf\u67fb","client_name":"\u5efa\u8a2d\u7701\u6771\u5317\u5730\u65b9\u5efa\u8a2d\u5c40\u9152\u7530\u5de5\u4e8b\u4e8b\u52d9\u6240","boring_xml_url":46,"boring_view_url":1,"soilmap_view_url":null,"soiltest_xml_url":49,"soiltest_view_url":49},{"id":137550,"code":"B4KJ201801002-5799","latitude":"38.91394","longitude":"139.81275","source_code":"TH20098256000370001","project_name":"","survey_name":"\u5e73\u62107\u5e74\u5ea6 \u4eac\u7530\u5ddd\u5730\u8cea\u8abf\u67fb","client_name":"\u5efa\u8a2d\u7701\u6771\u5317\u5730\u65b9\u5efa\u8a2d\u5c40\u9152\u7530\u5de5\u4e8b\u4e8b\u52d9\u6240","boring_xml_url":46,"boring_view_url":1,"soilmap_view_url":null,"soiltest_xml_url":49,"soiltest_view_url":49},{"id":137549,"code":"B4KJ201801002-5798","latitude":"38.90811","longitude":"139.81936","source_code":"TH20098256000360002","project_name":"","survey_name":"\u5e73\u62107\u5e74\u5ea6 \u5bae\u91ce\u6d66\u6a4b\u5b9f\u65bd\u8a2d\u8a08\u696d\u52d9\u59d4\u8a17","client_name":"\u5efa\u8a2d\u7701\u6771\u5317\u5730\u65b9\u5efa\u8a2d\u5c40\u9152\u7530\u5de5\u4e8b\u4e8b\u52d9\u6240","boring_xml_url":46,"boring_view_url":1,"soilmap_view_url":null,"soiltest_xml_url":49,"soiltest_view_url":49},{"id":137548,"code":"B4KJ201801002-5797","latitude":"38.9078","longitude":"139.8186","source_code":"TH20098256000360001","project_name":"","survey_name":"\u5e73\u62107\u5e74\u5ea6 \u5bae\u91ce\u6d66\u6a4b\u5b9f\u65bd\u8a2d\u8a08\u696d\u52d9\u59d4\u8a17","client_name":"\u5efa\u8a2d\u7701\u6771\u5317\u5730\u65b9\u5efa\u8a2d\u5c40\u9152\u7530\u5de5\u4e8b\u4e8b\u52d9\u6240","boring_xml_url":46,"boring_view_url":1,"soilmap_view_url":null,"soiltest_xml_url":49,"soiltest_view_url":49},{"id":137547,"code":"B4KJ201801002-5796","latitude":"38.79167","longitude":"140.0145","source_code":"TH20098256000340002","project_name":"\u8352\u934b\u6a0b\u9580","survey_name":"\u5e73\u62106\u5e74\u5ea6\u6700\u4e0a\u5ddd\u4e0b\u6d41\u5fdc\u5bfe\u5b9f\u65bd\u8a2d\u8a08\u696d\u52d9","client_name":"\u5efa\u8a2d\u7701\u6771\u5317\u5730\u65b9\u5efa\u8a2d\u5c40\u9152\u7530\u5de5\u4e8b\u4e8b\u52d9\u6240","boring_xml_url":46,"boring_view_url":1,"soilmap_view_url":null,"soiltest_xml_url":0,"soiltest_view_url":0},{"id":137546,"code":"B4KJ201801002-5795","latitude":"38.80403","longitude":"139.99128","source_code":"TH20098256000340001","project_name":"\u8352\u934b\u6a0b\u9580","survey_name":"\u5e73\u62106\u5e74\u5ea6\u6700\u4e0a\u5ddd\u4e0b\u6d41\u5fdc\u5bfe\u5b9f\u65bd\u8a2d\u8a08\u696d\u52d9","client_name":"\u5efa\u8a2d\u7701\u6771\u5317\u5730\u65b9\u5efa\u8a2d\u5c40\u9152\u7530\u5de5\u4e8b\u4e8b\u52d9\u6240","boring_xml_url":46,"boring_view_url":1,"soilmap_view_url":null,"soiltest_xml_url":0,"soiltest_view_url":0}]}}