{"header":{"xyz":{"source":[],"mosaic":false},"page":6108,"raw":{"soiltest_result":"0","bbox":"57.598333,109.544722,1.933333,163.806111","page":"6108"},"conditions":{"soiltest_result":0,"north":57.598333,"west":109.544722,"south":1.933333,"east":163.806111},"success":true,"message":""},"data":{"meta":{"total":212844,"page":6108,"pages":7095,"count":30},"values":[{"id":137335,"code":"B4KJ201801002-5584","latitude":"40.2067","longitude":"140.1108","source_code":"TH20098247000340001","project_name":"","survey_name":"\u7c73\u4ee3\u5ddd\u5824\u9632\u6d78\u900f\u8abf\u67fb\u696d\u52d9","client_name":"\u56fd\u571f\u4ea4\u901a\u7701\u6771\u5317\u5730\u65b9\u6574\u5099\u5c40\u80fd\u4ee3\u6cb3\u5ddd\u56fd\u9053\u4e8b\u52d9\u6240","boring_xml_url":46,"boring_view_url":1,"soilmap_view_url":null,"soiltest_xml_url":49,"soiltest_view_url":49},{"id":137334,"code":"B4KJ201801002-5583","latitude":"40.23458","longitude":"140.57783","source_code":"TH20098247000310024","project_name":"","survey_name":"\u7c73\u4ee3\u5ddd\u5824\u9632\u6d78\u900f\u8abf\u67fb","client_name":"\u56fd\u571f\u4ea4\u901a\u7701\u6771\u5317\u5730\u65b9\u6574\u5099\u5c40\u80fd\u4ee3\u6cb3\u5ddd\u56fd\u9053\u4e8b\u52d9\u6240","boring_xml_url":46,"boring_view_url":1,"soilmap_view_url":null,"soiltest_xml_url":49,"soiltest_view_url":49},{"id":137333,"code":"B4KJ201801002-5582","latitude":"40.23458","longitude":"140.57783","source_code":"TH20098247000310023","project_name":"","survey_name":"\u7c73\u4ee3\u5ddd\u5824\u9632\u6d78\u900f\u8abf\u67fb","client_name":"\u56fd\u571f\u4ea4\u901a\u7701\u6771\u5317\u5730\u65b9\u6574\u5099\u5c40\u80fd\u4ee3\u6cb3\u5ddd\u56fd\u9053\u4e8b\u52d9\u6240","boring_xml_url":46,"boring_view_url":1,"soilmap_view_url":null,"soiltest_xml_url":49,"soiltest_view_url":49},{"id":137332,"code":"B4KJ201801002-5581","latitude":"40.2425","longitude":"140.56253","source_code":"TH20098247000310022","project_name":"","survey_name":"\u7c73\u4ee3\u5ddd\u5824\u9632\u6d78\u900f\u8abf\u67fb","client_name":"\u56fd\u571f\u4ea4\u901a\u7701\u6771\u5317\u5730\u65b9\u6574\u5099\u5c40\u80fd\u4ee3\u6cb3\u5ddd\u56fd\u9053\u4e8b\u52d9\u6240","boring_xml_url":46,"boring_view_url":1,"soilmap_view_url":null,"soiltest_xml_url":49,"soiltest_view_url":49},{"id":137331,"code":"B4KJ201801002-5580","latitude":"40.2425","longitude":"140.56253","source_code":"TH20098247000310021","project_name":"","survey_name":"\u7c73\u4ee3\u5ddd\u5824\u9632\u6d78\u900f\u8abf\u67fb","client_name":"\u56fd\u571f\u4ea4\u901a\u7701\u6771\u5317\u5730\u65b9\u6574\u5099\u5c40\u80fd\u4ee3\u6cb3\u5ddd\u56fd\u9053\u4e8b\u52d9\u6240","boring_xml_url":46,"boring_view_url":1,"soilmap_view_url":null,"soiltest_xml_url":49,"soiltest_view_url":49},{"id":137330,"code":"B4KJ201801002-5579","latitude":"40.25092","longitude":"140.402","source_code":"TH20098247000310020","project_name":"","survey_name":"\u7c73\u4ee3\u5ddd\u5824\u9632\u6d78\u900f\u8abf\u67fb","client_name":"\u56fd\u571f\u4ea4\u901a\u7701\u6771\u5317\u5730\u65b9\u6574\u5099\u5c40\u80fd\u4ee3\u6cb3\u5ddd\u56fd\u9053\u4e8b\u52d9\u6240","boring_xml_url":46,"boring_view_url":1,"soilmap_view_url":null,"soiltest_xml_url":49,"soiltest_view_url":49},{"id":137329,"code":"B4KJ201801002-5578","latitude":"40.25092","longitude":"140.402","source_code":"TH20098247000310019","project_name":"","survey_name":"\u7c73\u4ee3\u5ddd\u5824\u9632\u6d78\u900f\u8abf\u67fb","client_name":"\u56fd\u571f\u4ea4\u901a\u7701\u6771\u5317\u5730\u65b9\u6574\u5099\u5c40\u80fd\u4ee3\u6cb3\u5ddd\u56fd\u9053\u4e8b\u52d9\u6240","boring_xml_url":46,"boring_view_url":1,"soilmap_view_url":null,"soiltest_xml_url":49,"soiltest_view_url":49},{"id":137328,"code":"B4KJ201801002-5577","latitude":"40.22961","longitude":"140.38911","source_code":"TH20098247000310018","project_name":"","survey_name":"\u7c73\u4ee3\u5ddd\u5824\u9632\u6d78\u900f\u8abf\u67fb","client_name":"\u56fd\u571f\u4ea4\u901a\u7701\u6771\u5317\u5730\u65b9\u6574\u5099\u5c40\u80fd\u4ee3\u6cb3\u5ddd\u56fd\u9053\u4e8b\u52d9\u6240","boring_xml_url":46,"boring_view_url":1,"soilmap_view_url":null,"soiltest_xml_url":49,"soiltest_view_url":49},{"id":137327,"code":"B4KJ201801002-5576","latitude":"40.22961","longitude":"140.38911","source_code":"TH20098247000310017","project_name":"","survey_name":"\u7c73\u4ee3\u5ddd\u5824\u9632\u6d78\u900f\u8abf\u67fb","client_name":"\u56fd\u571f\u4ea4\u901a\u7701\u6771\u5317\u5730\u65b9\u6574\u5099\u5c40\u80fd\u4ee3\u6cb3\u5ddd\u56fd\u9053\u4e8b\u52d9\u6240","boring_xml_url":46,"boring_view_url":1,"soilmap_view_url":null,"soiltest_xml_url":49,"soiltest_view_url":49},{"id":137326,"code":"B4KJ201801002-5575","latitude":"40.22178","longitude":"140.37697","source_code":"TH20098247000310016","project_name":"","survey_name":"\u7c73\u4ee3\u5ddd\u5824\u9632\u6d78\u900f\u8abf\u67fb","client_name":"\u56fd\u571f\u4ea4\u901a\u7701\u6771\u5317\u5730\u65b9\u6574\u5099\u5c40\u80fd\u4ee3\u6cb3\u5ddd\u56fd\u9053\u4e8b\u52d9\u6240","boring_xml_url":46,"boring_view_url":1,"soilmap_view_url":null,"soiltest_xml_url":49,"soiltest_view_url":49},{"id":137325,"code":"B4KJ201801002-5574","latitude":"40.22178","longitude":"140.37697","source_code":"TH20098247000310015","project_name":"","survey_name":"\u7c73\u4ee3\u5ddd\u5824\u9632\u6d78\u900f\u8abf\u67fb","client_name":"\u56fd\u571f\u4ea4\u901a\u7701\u6771\u5317\u5730\u65b9\u6574\u5099\u5c40\u80fd\u4ee3\u6cb3\u5ddd\u56fd\u9053\u4e8b\u52d9\u6240","boring_xml_url":46,"boring_view_url":1,"soilmap_view_url":null,"soiltest_xml_url":49,"soiltest_view_url":49},{"id":137324,"code":"B4KJ201801002-5573","latitude":"40.21361","longitude":"140.32964","source_code":"TH20098247000310014","project_name":"","survey_name":"\u7c73\u4ee3\u5ddd\u5824\u9632\u6d78\u900f\u8abf\u67fb","client_name":"\u56fd\u571f\u4ea4\u901a\u7701\u6771\u5317\u5730\u65b9\u6574\u5099\u5c40\u80fd\u4ee3\u6cb3\u5ddd\u56fd\u9053\u4e8b\u52d9\u6240","boring_xml_url":46,"boring_view_url":1,"soilmap_view_url":null,"soiltest_xml_url":49,"soiltest_view_url":49},{"id":137323,"code":"B4KJ201801002-5572","latitude":"40.21361","longitude":"140.32964","source_code":"TH20098247000310013","project_name":"","survey_name":"\u7c73\u4ee3\u5ddd\u5824\u9632\u6d78\u900f\u8abf\u67fb","client_name":"\u56fd\u571f\u4ea4\u901a\u7701\u6771\u5317\u5730\u65b9\u6574\u5099\u5c40\u80fd\u4ee3\u6cb3\u5ddd\u56fd\u9053\u4e8b\u52d9\u6240","boring_xml_url":46,"boring_view_url":1,"soilmap_view_url":null,"soiltest_xml_url":49,"soiltest_view_url":49},{"id":137322,"code":"B4KJ201801002-5571","latitude":"40.21175","longitude":"140.24478","source_code":"TH20098247000310012","project_name":"","survey_name":"\u7c73\u4ee3\u5ddd\u5824\u9632\u6d78\u900f\u8abf\u67fb","client_name":"\u56fd\u571f\u4ea4\u901a\u7701\u6771\u5317\u5730\u65b9\u6574\u5099\u5c40\u80fd\u4ee3\u6cb3\u5ddd\u56fd\u9053\u4e8b\u52d9\u6240","boring_xml_url":46,"boring_view_url":1,"soilmap_view_url":null,"soiltest_xml_url":49,"soiltest_view_url":49},{"id":137321,"code":"B4KJ201801002-5570","latitude":"40.21175","longitude":"140.24478","source_code":"TH20098247000310011","project_name":"","survey_name":"\u7c73\u4ee3\u5ddd\u5824\u9632\u6d78\u900f\u8abf\u67fb","client_name":"\u56fd\u571f\u4ea4\u901a\u7701\u6771\u5317\u5730\u65b9\u6574\u5099\u5c40\u80fd\u4ee3\u6cb3\u5ddd\u56fd\u9053\u4e8b\u52d9\u6240","boring_xml_url":46,"boring_view_url":1,"soilmap_view_url":null,"soiltest_xml_url":49,"soiltest_view_url":49},{"id":137320,"code":"B4KJ201801002-5569","latitude":"40.22378","longitude":"140.16733","source_code":"TH20098247000310010","project_name":"","survey_name":"\u7c73\u4ee3\u5ddd\u5824\u9632\u6d78\u900f\u8abf\u67fb","client_name":"\u56fd\u571f\u4ea4\u901a\u7701\u6771\u5317\u5730\u65b9\u6574\u5099\u5c40\u80fd\u4ee3\u6cb3\u5ddd\u56fd\u9053\u4e8b\u52d9\u6240","boring_xml_url":46,"boring_view_url":1,"soilmap_view_url":null,"soiltest_xml_url":49,"soiltest_view_url":49},{"id":137319,"code":"B4KJ201801002-5568","latitude":"40.22378","longitude":"140.16733","source_code":"TH20098247000310009","project_name":"","survey_name":"\u7c73\u4ee3\u5ddd\u5824\u9632\u6d78\u900f\u8abf\u67fb","client_name":"\u56fd\u571f\u4ea4\u901a\u7701\u6771\u5317\u5730\u65b9\u6574\u5099\u5c40\u80fd\u4ee3\u6cb3\u5ddd\u56fd\u9053\u4e8b\u52d9\u6240","boring_xml_url":46,"boring_view_url":1,"soilmap_view_url":null,"soiltest_xml_url":49,"soiltest_view_url":49},{"id":137318,"code":"B4KJ201801002-5567","latitude":"40.22233","longitude":"140.14581","source_code":"TH20098247000310008","project_name":"","survey_name":"\u7c73\u4ee3\u5ddd\u5824\u9632\u6d78\u900f\u8abf\u67fb","client_name":"\u56fd\u571f\u4ea4\u901a\u7701\u6771\u5317\u5730\u65b9\u6574\u5099\u5c40\u80fd\u4ee3\u6cb3\u5ddd\u56fd\u9053\u4e8b\u52d9\u6240","boring_xml_url":46,"boring_view_url":1,"soilmap_view_url":null,"soiltest_xml_url":49,"soiltest_view_url":49},{"id":137317,"code":"B4KJ201801002-5566","latitude":"40.22233","longitude":"140.14581","source_code":"TH20098247000310007","project_name":"","survey_name":"\u7c73\u4ee3\u5ddd\u5824\u9632\u6d78\u900f\u8abf\u67fb","client_name":"\u56fd\u571f\u4ea4\u901a\u7701\u6771\u5317\u5730\u65b9\u6574\u5099\u5c40\u80fd\u4ee3\u6cb3\u5ddd\u56fd\u9053\u4e8b\u52d9\u6240","boring_xml_url":46,"boring_view_url":1,"soilmap_view_url":null,"soiltest_xml_url":49,"soiltest_view_url":49},{"id":137316,"code":"B4KJ201801002-5565","latitude":"40.22064","longitude":"140.14131","source_code":"TH20098247000310006","project_name":"","survey_name":"\u7c73\u4ee3\u5ddd\u5824\u9632\u6d78\u900f\u8abf\u67fb","client_name":"\u56fd\u571f\u4ea4\u901a\u7701\u6771\u5317\u5730\u65b9\u6574\u5099\u5c40\u80fd\u4ee3\u6cb3\u5ddd\u56fd\u9053\u4e8b\u52d9\u6240","boring_xml_url":46,"boring_view_url":1,"soilmap_view_url":null,"soiltest_xml_url":49,"soiltest_view_url":49},{"id":137315,"code":"B4KJ201801002-5564","latitude":"40.22064","longitude":"140.14131","source_code":"TH20098247000310005","project_name":"","survey_name":"\u7c73\u4ee3\u5ddd\u5824\u9632\u6d78\u900f\u8abf\u67fb","client_name":"\u56fd\u571f\u4ea4\u901a\u7701\u6771\u5317\u5730\u65b9\u6574\u5099\u5c40\u80fd\u4ee3\u6cb3\u5ddd\u56fd\u9053\u4e8b\u52d9\u6240","boring_xml_url":46,"boring_view_url":1,"soilmap_view_url":null,"soiltest_xml_url":49,"soiltest_view_url":49},{"id":137314,"code":"B4KJ201801002-5563","latitude":"40.20392","longitude":"140.06131","source_code":"TH20098247000310004","project_name":"","survey_name":"\u7c73\u4ee3\u5ddd\u5824\u9632\u6d78\u900f\u8abf\u67fb","client_name":"\u56fd\u571f\u4ea4\u901a\u7701\u6771\u5317\u5730\u65b9\u6574\u5099\u5c40\u80fd\u4ee3\u6cb3\u5ddd\u56fd\u9053\u4e8b\u52d9\u6240","boring_xml_url":46,"boring_view_url":1,"soilmap_view_url":null,"soiltest_xml_url":49,"soiltest_view_url":49},{"id":137313,"code":"B4KJ201801002-5562","latitude":"40.20392","longitude":"140.06131","source_code":"TH20098247000310003","project_name":"","survey_name":"\u7c73\u4ee3\u5ddd\u5824\u9632\u6d78\u900f\u8abf\u67fb","client_name":"\u56fd\u571f\u4ea4\u901a\u7701\u6771\u5317\u5730\u65b9\u6574\u5099\u5c40\u80fd\u4ee3\u6cb3\u5ddd\u56fd\u9053\u4e8b\u52d9\u6240","boring_xml_url":46,"boring_view_url":1,"soilmap_view_url":null,"soiltest_xml_url":49,"soiltest_view_url":49},{"id":137312,"code":"B4KJ201801002-5561","latitude":"40.20197","longitude":"140.04622","source_code":"TH20098247000310002","project_name":"","survey_name":"\u7c73\u4ee3\u5ddd\u5824\u9632\u6d78\u900f\u8abf\u67fb","client_name":"\u56fd\u571f\u4ea4\u901a\u7701\u6771\u5317\u5730\u65b9\u6574\u5099\u5c40\u80fd\u4ee3\u6cb3\u5ddd\u56fd\u9053\u4e8b\u52d9\u6240","boring_xml_url":46,"boring_view_url":1,"soilmap_view_url":null,"soiltest_xml_url":49,"soiltest_view_url":49},{"id":137311,"code":"B4KJ201801002-5560","latitude":"40.20197","longitude":"140.04622","source_code":"TH20098247000310001","project_name":"","survey_name":"\u7c73\u4ee3\u5ddd\u5824\u9632\u6d78\u900f\u8abf\u67fb","client_name":"\u56fd\u571f\u4ea4\u901a\u7701\u6771\u5317\u5730\u65b9\u6574\u5099\u5c40\u80fd\u4ee3\u6cb3\u5ddd\u56fd\u9053\u4e8b\u52d9\u6240","boring_xml_url":46,"boring_view_url":1,"soilmap_view_url":null,"soiltest_xml_url":49,"soiltest_view_url":49},{"id":137310,"code":"B4KJ201801002-5559","latitude":"40.22356","longitude":"140.24544","source_code":"TH20098247000300009","project_name":"\u5e73\u621016\u5e74\u5ea6 \u7c73\u4ee3\u5ddd\u4e8c\u30c4\u4e95\u5730\u533a\u5730\u8cea\u8abf\u67fb","survey_name":"\u5e73\u621016\u5e74\u5ea6 \u7c73\u4ee3\u5ddd\u4e8c\u30c4\u4e95\u5730\u533a\u5730\u8cea\u8abf\u67fb","client_name":"\u56fd\u571f\u4ea4\u901a\u7701\u6771\u5317\u5730\u65b9\u6574\u5099\u5c40\u80fd\u4ee3\u6cb3\u5ddd\u56fd\u9053\u4e8b\u52d9\u6240","boring_xml_url":46,"boring_view_url":1,"soilmap_view_url":null,"soiltest_xml_url":0,"soiltest_view_url":0},{"id":137309,"code":"B4KJ201801002-5558","latitude":"40.22356","longitude":"140.24572","source_code":"TH20098247000300008","project_name":"\u5e73\u621016\u5e74\u5ea6 \u7c73\u4ee3\u5ddd\u4e8c\u30c4\u4e95\u5730\u533a\u5730\u8cea\u8abf\u67fb","survey_name":"\u5e73\u621016\u5e74\u5ea6 \u7c73\u4ee3\u5ddd\u4e8c\u30c4\u4e95\u5730\u533a\u5730\u8cea\u8abf\u67fb","client_name":"\u56fd\u571f\u4ea4\u901a\u7701\u6771\u5317\u5730\u65b9\u6574\u5099\u5c40\u80fd\u4ee3\u6cb3\u5ddd\u56fd\u9053\u4e8b\u52d9\u6240","boring_xml_url":46,"boring_view_url":1,"soilmap_view_url":null,"soiltest_xml_url":0,"soiltest_view_url":0},{"id":137308,"code":"B4KJ201801002-5557","latitude":"40.19772","longitude":"140.22822","source_code":"TH20098247000300007","project_name":"\u5e73\u621016\u5e74\u5ea6 \u7c73\u4ee3\u5ddd\u4e8c\u30c4\u4e95\u5730\u533a\u5730\u8cea\u8abf\u67fb","survey_name":"\u5e73\u621016\u5e74\u5ea6 \u7c73\u4ee3\u5ddd\u4e8c\u30c4\u4e95\u5730\u533a\u5730\u8cea\u8abf\u67fb","client_name":"\u56fd\u571f\u4ea4\u901a\u7701\u6771\u5317\u5730\u65b9\u6574\u5099\u5c40\u80fd\u4ee3\u6cb3\u5ddd\u56fd\u9053\u4e8b\u52d9\u6240","boring_xml_url":46,"boring_view_url":1,"soilmap_view_url":null,"soiltest_xml_url":0,"soiltest_view_url":0},{"id":137307,"code":"B4KJ201801002-5556","latitude":"40.19911","longitude":"140.21961","source_code":"TH20098247000300006","project_name":"\u5e73\u621016\u5e74\u5ea6 \u7c73\u4ee3\u5ddd\u4e8c\u30c4\u4e95\u5730\u533a\u5730\u8cea\u8abf\u67fb","survey_name":"\u5e73\u621016\u5e74\u5ea6 \u7c73\u4ee3\u5ddd\u4e8c\u30c4\u4e95\u5730\u533a\u5730\u8cea\u8abf\u67fb","client_name":"\u56fd\u571f\u4ea4\u901a\u7701\u6771\u5317\u5730\u65b9\u6574\u5099\u5c40\u80fd\u4ee3\u6cb3\u5ddd\u56fd\u9053\u4e8b\u52d9\u6240","boring_xml_url":46,"boring_view_url":1,"soilmap_view_url":null,"soiltest_xml_url":0,"soiltest_view_url":0},{"id":137306,"code":"B4KJ201801002-5555","latitude":"40.19911","longitude":"140.21933","source_code":"TH20098247000300005","project_name":"\u5e73\u621016\u5e74\u5ea6 \u7c73\u4ee3\u5ddd\u4e8c\u30c4\u4e95\u5730\u533a\u5730\u8cea\u8abf\u67fb","survey_name":"\u5e73\u621016\u5e74\u5ea6 \u7c73\u4ee3\u5ddd\u4e8c\u30c4\u4e95\u5730\u533a\u5730\u8cea\u8abf\u67fb","client_name":"\u56fd\u571f\u4ea4\u901a\u7701\u6771\u5317\u5730\u65b9\u6574\u5099\u5c40\u80fd\u4ee3\u6cb3\u5ddd\u56fd\u9053\u4e8b\u52d9\u6240","boring_xml_url":46,"boring_view_url":1,"soilmap_view_url":null,"soiltest_xml_url":0,"soiltest_view_url":0}]}}