{"header":{"xyz":{"source":[],"mosaic":false},"page":6113,"raw":{"soiltest_result":"0","bbox":"57.598333,109.544722,1.933333,163.806111","page":"6113"},"conditions":{"soiltest_result":0,"north":57.598333,"west":109.544722,"south":1.933333,"east":163.806111},"success":true,"message":""},"data":{"meta":{"total":212844,"page":6113,"pages":7095,"count":30},"values":[{"id":137185,"code":"B4KJ201801002-5434","latitude":"40.2125","longitude":"140.0389","source_code":"TH20098247000070001","project_name":"","survey_name":"\u662d\u548c58\u5e74\u5ea6\u7c73\u4ee3\u5ddd\u30fb\u4e2d\u5ddd\u539f\u5730\u533a\u5824\u9632\u5730\u76e4\u8abf\u67fb","client_name":"\u56fd\u571f\u4ea4\u901a\u7701\u6771\u5317\u5730\u65b9\u6574\u5099\u5c40\u80fd\u4ee3\u6cb3\u5ddd\u56fd\u9053\u4e8b\u52d9\u6240","boring_xml_url":46,"boring_view_url":1,"soilmap_view_url":null,"soiltest_xml_url":0,"soiltest_view_url":0},{"id":137184,"code":"B4KJ201801002-5433","latitude":"40.21442","longitude":"140.093","source_code":"TH20098247000060016","project_name":"","survey_name":"\u662d\u548c58\u5e74\u5ea6\u7c73\u4ee3\u5ddd\u5824\u9632\u5730\u76e4\u8abf\u67fb","client_name":"\u56fd\u571f\u4ea4\u901a\u7701\u6771\u5317\u5730\u65b9\u6574\u5099\u5c40\u80fd\u4ee3\u6cb3\u5ddd\u56fd\u9053\u4e8b\u52d9\u6240","boring_xml_url":46,"boring_view_url":1,"soilmap_view_url":null,"soiltest_xml_url":0,"soiltest_view_url":0},{"id":137183,"code":"B4KJ201801002-5432","latitude":"40.21456","longitude":"140.04389","source_code":"TH20098247000060015","project_name":"","survey_name":"\u662d\u548c58\u5e74\u5ea6\u7c73\u4ee3\u5ddd\u5824\u9632\u5730\u76e4\u8abf\u67fb","client_name":"\u56fd\u571f\u4ea4\u901a\u7701\u6771\u5317\u5730\u65b9\u6574\u5099\u5c40\u80fd\u4ee3\u6cb3\u5ddd\u56fd\u9053\u4e8b\u52d9\u6240","boring_xml_url":46,"boring_view_url":1,"soilmap_view_url":null,"soiltest_xml_url":0,"soiltest_view_url":0},{"id":137182,"code":"B4KJ201801002-5431","latitude":"40.20544","longitude":"140.37731","source_code":"TH20098247000060014","project_name":"","survey_name":"\u662d\u548c58\u5e74\u5ea6\u7c73\u4ee3\u5ddd\u5824\u9632\u5730\u76e4\u8abf\u67fb","client_name":"\u56fd\u571f\u4ea4\u901a\u7701\u6771\u5317\u5730\u65b9\u6574\u5099\u5c40\u80fd\u4ee3\u6cb3\u5ddd\u56fd\u9053\u4e8b\u52d9\u6240","boring_xml_url":46,"boring_view_url":1,"soilmap_view_url":null,"soiltest_xml_url":0,"soiltest_view_url":0},{"id":137181,"code":"B4KJ201801002-5430","latitude":"40.2092","longitude":"140.3042","source_code":"TH20098247000060013","project_name":"","survey_name":"\u662d\u548c58\u5e74\u5ea6\u7c73\u4ee3\u5ddd\u5824\u9632\u5730\u76e4\u8abf\u67fb","client_name":"\u56fd\u571f\u4ea4\u901a\u7701\u6771\u5317\u5730\u65b9\u6574\u5099\u5c40\u80fd\u4ee3\u6cb3\u5ddd\u56fd\u9053\u4e8b\u52d9\u6240","boring_xml_url":46,"boring_view_url":1,"soilmap_view_url":null,"soiltest_xml_url":0,"soiltest_view_url":0},{"id":137180,"code":"B4KJ201801002-5429","latitude":"40.21006","longitude":"140.28944","source_code":"TH20098247000060012","project_name":"","survey_name":"\u662d\u548c58\u5e74\u5ea6\u7c73\u4ee3\u5ddd\u5824\u9632\u5730\u76e4\u8abf\u67fb","client_name":"\u56fd\u571f\u4ea4\u901a\u7701\u6771\u5317\u5730\u65b9\u6574\u5099\u5c40\u80fd\u4ee3\u6cb3\u5ddd\u56fd\u9053\u4e8b\u52d9\u6240","boring_xml_url":46,"boring_view_url":1,"soilmap_view_url":null,"soiltest_xml_url":0,"soiltest_view_url":0},{"id":137179,"code":"B4KJ201801002-5428","latitude":"40.20742","longitude":"140.095","source_code":"TH20098247000060011","project_name":"","survey_name":"\u662d\u548c58\u5e74\u5ea6\u7c73\u4ee3\u5ddd\u5824\u9632\u5730\u76e4\u8abf\u67fb","client_name":"\u56fd\u571f\u4ea4\u901a\u7701\u6771\u5317\u5730\u65b9\u6574\u5099\u5c40\u80fd\u4ee3\u6cb3\u5ddd\u56fd\u9053\u4e8b\u52d9\u6240","boring_xml_url":46,"boring_view_url":1,"soilmap_view_url":null,"soiltest_xml_url":0,"soiltest_view_url":0},{"id":137178,"code":"B4KJ201801002-5427","latitude":"40.20675","longitude":"140.09417","source_code":"TH20098247000060010","project_name":"","survey_name":"\u662d\u548c58\u5e74\u5ea6\u7c73\u4ee3\u5ddd\u5824\u9632\u5730\u76e4\u8abf\u67fb","client_name":"\u56fd\u571f\u4ea4\u901a\u7701\u6771\u5317\u5730\u65b9\u6574\u5099\u5c40\u80fd\u4ee3\u6cb3\u5ddd\u56fd\u9053\u4e8b\u52d9\u6240","boring_xml_url":46,"boring_view_url":1,"soilmap_view_url":null,"soiltest_xml_url":0,"soiltest_view_url":0},{"id":137177,"code":"B4KJ201801002-5426","latitude":"40.20736","longitude":"140.0785","source_code":"TH20098247000060009","project_name":"","survey_name":"\u662d\u548c58\u5e74\u5ea6\u7c73\u4ee3\u5ddd\u5824\u9632\u5730\u76e4\u8abf\u67fb","client_name":"\u56fd\u571f\u4ea4\u901a\u7701\u6771\u5317\u5730\u65b9\u6574\u5099\u5c40\u80fd\u4ee3\u6cb3\u5ddd\u56fd\u9053\u4e8b\u52d9\u6240","boring_xml_url":46,"boring_view_url":1,"soilmap_view_url":null,"soiltest_xml_url":0,"soiltest_view_url":0},{"id":137176,"code":"B4KJ201801002-5425","latitude":"40.19856","longitude":"140.06472","source_code":"TH20098247000060008","project_name":"","survey_name":"\u662d\u548c58\u5e74\u5ea6\u7c73\u4ee3\u5ddd\u5824\u9632\u5730\u76e4\u8abf\u67fb","client_name":"\u56fd\u571f\u4ea4\u901a\u7701\u6771\u5317\u5730\u65b9\u6574\u5099\u5c40\u80fd\u4ee3\u6cb3\u5ddd\u56fd\u9053\u4e8b\u52d9\u6240","boring_xml_url":46,"boring_view_url":1,"soilmap_view_url":null,"soiltest_xml_url":0,"soiltest_view_url":0},{"id":137175,"code":"B4KJ201801002-5424","latitude":"40.21228","longitude":"140.03906","source_code":"TH20098247000060007","project_name":"","survey_name":"\u662d\u548c58\u5e74\u5ea6\u7c73\u4ee3\u5ddd\u5824\u9632\u5730\u76e4\u8abf\u67fb","client_name":"\u56fd\u571f\u4ea4\u901a\u7701\u6771\u5317\u5730\u65b9\u6574\u5099\u5c40\u80fd\u4ee3\u6cb3\u5ddd\u56fd\u9053\u4e8b\u52d9\u6240","boring_xml_url":46,"boring_view_url":1,"soilmap_view_url":null,"soiltest_xml_url":0,"soiltest_view_url":0},{"id":137174,"code":"B4KJ201801002-5423","latitude":"40.21656","longitude":"140.04106","source_code":"TH20098247000060006","project_name":"","survey_name":"\u662d\u548c58\u5e74\u5ea6\u7c73\u4ee3\u5ddd\u5824\u9632\u5730\u76e4\u8abf\u67fb","client_name":"\u56fd\u571f\u4ea4\u901a\u7701\u6771\u5317\u5730\u65b9\u6574\u5099\u5c40\u80fd\u4ee3\u6cb3\u5ddd\u56fd\u9053\u4e8b\u52d9\u6240","boring_xml_url":46,"boring_view_url":1,"soilmap_view_url":null,"soiltest_xml_url":0,"soiltest_view_url":0},{"id":137173,"code":"B4KJ201801002-5422","latitude":"40.2169","longitude":"140.0222","source_code":"TH20098247000060005","project_name":"","survey_name":"\u662d\u548c58\u5e74\u5ea6\u7c73\u4ee3\u5ddd\u5824\u9632\u5730\u76e4\u8abf\u67fb","client_name":"\u56fd\u571f\u4ea4\u901a\u7701\u6771\u5317\u5730\u65b9\u6574\u5099\u5c40\u80fd\u4ee3\u6cb3\u5ddd\u56fd\u9053\u4e8b\u52d9\u6240","boring_xml_url":46,"boring_view_url":1,"soilmap_view_url":null,"soiltest_xml_url":0,"soiltest_view_url":0},{"id":137172,"code":"B4KJ201801002-5421","latitude":"40.21847","longitude":"140.02067","source_code":"TH20098247000060004","project_name":"","survey_name":"\u662d\u548c58\u5e74\u5ea6\u7c73\u4ee3\u5ddd\u5824\u9632\u5730\u76e4\u8abf\u67fb","client_name":"\u56fd\u571f\u4ea4\u901a\u7701\u6771\u5317\u5730\u65b9\u6574\u5099\u5c40\u80fd\u4ee3\u6cb3\u5ddd\u56fd\u9053\u4e8b\u52d9\u6240","boring_xml_url":46,"boring_view_url":1,"soilmap_view_url":null,"soiltest_xml_url":0,"soiltest_view_url":0},{"id":137171,"code":"B4KJ201801002-5420","latitude":"40.22006","longitude":"140.01139","source_code":"TH20098247000060003","project_name":"","survey_name":"\u662d\u548c58\u5e74\u5ea6\u7c73\u4ee3\u5ddd\u5824\u9632\u5730\u76e4\u8abf\u67fb","client_name":"\u56fd\u571f\u4ea4\u901a\u7701\u6771\u5317\u5730\u65b9\u6574\u5099\u5c40\u80fd\u4ee3\u6cb3\u5ddd\u56fd\u9053\u4e8b\u52d9\u6240","boring_xml_url":46,"boring_view_url":1,"soilmap_view_url":null,"soiltest_xml_url":0,"soiltest_view_url":0},{"id":137170,"code":"B4KJ201801002-5419","latitude":"40.22558","longitude":"140.00989","source_code":"TH20098247000060002","project_name":"","survey_name":"\u662d\u548c58\u5e74\u5ea6\u7c73\u4ee3\u5ddd\u5824\u9632\u5730\u76e4\u8abf\u67fb","client_name":"\u56fd\u571f\u4ea4\u901a\u7701\u6771\u5317\u5730\u65b9\u6574\u5099\u5c40\u80fd\u4ee3\u6cb3\u5ddd\u56fd\u9053\u4e8b\u52d9\u6240","boring_xml_url":46,"boring_view_url":1,"soilmap_view_url":null,"soiltest_xml_url":0,"soiltest_view_url":0},{"id":137169,"code":"B4KJ201801002-5418","latitude":"40.22569","longitude":"140.00917","source_code":"TH20098247000060001","project_name":"","survey_name":"\u662d\u548c58\u5e74\u5ea6\u7c73\u4ee3\u5ddd\u5824\u9632\u5730\u76e4\u8abf\u67fb","client_name":"\u56fd\u571f\u4ea4\u901a\u7701\u6771\u5317\u5730\u65b9\u6574\u5099\u5c40\u80fd\u4ee3\u6cb3\u5ddd\u56fd\u9053\u4e8b\u52d9\u6240","boring_xml_url":46,"boring_view_url":1,"soilmap_view_url":null,"soiltest_xml_url":0,"soiltest_view_url":0},{"id":137168,"code":"B4KJ201801002-5417","latitude":"40.21661","longitude":"140.04156","source_code":"TH20098247000050011","project_name":"","survey_name":"\u662d\u548c58\u5e74\u5ea6\u7c73\u4ee3\u5ddd\u4e2d\u5cf6\u5439\u8d8a\u5730\u533a\u5824\u9632\u5730\u76e4\u8abf\u67fb","client_name":"\u56fd\u571f\u4ea4\u901a\u7701\u6771\u5317\u5730\u65b9\u6574\u5099\u5c40\u80fd\u4ee3\u6cb3\u5ddd\u56fd\u9053\u4e8b\u52d9\u6240","boring_xml_url":46,"boring_view_url":1,"soilmap_view_url":null,"soiltest_xml_url":0,"soiltest_view_url":0},{"id":137167,"code":"B4KJ201801002-5416","latitude":"40.21644","longitude":"140.04133","source_code":"TH20098247000050010","project_name":"","survey_name":"\u662d\u548c58\u5e74\u5ea6\u7c73\u4ee3\u5ddd\u4e2d\u5cf6\u5439\u8d8a\u5730\u533a\u5824\u9632\u5730\u76e4\u8abf\u67fb","client_name":"\u56fd\u571f\u4ea4\u901a\u7701\u6771\u5317\u5730\u65b9\u6574\u5099\u5c40\u80fd\u4ee3\u6cb3\u5ddd\u56fd\u9053\u4e8b\u52d9\u6240","boring_xml_url":46,"boring_view_url":1,"soilmap_view_url":null,"soiltest_xml_url":0,"soiltest_view_url":0},{"id":137166,"code":"B4KJ201801002-5415","latitude":"40.21711","longitude":"140.04019","source_code":"TH20098247000050009","project_name":"","survey_name":"\u662d\u548c58\u5e74\u5ea6\u7c73\u4ee3\u5ddd\u4e2d\u5cf6\u5439\u8d8a\u5730\u533a\u63d0\u9632\u5730\u76e4\u8abf\u67fb","client_name":"\u56fd\u571f\u4ea4\u901a\u7701\u6771\u5317\u5730\u65b9\u6574\u5099\u5c40\u80fd\u4ee3\u6cb3\u5ddd\u56fd\u9053\u4e8b\u52d9\u6240","boring_xml_url":46,"boring_view_url":1,"soilmap_view_url":null,"soiltest_xml_url":0,"soiltest_view_url":0},{"id":137165,"code":"B4KJ201801002-5414","latitude":"40.21711","longitude":"140.04014","source_code":"TH20098247000050008","project_name":"","survey_name":"\u662d\u548c58\u5e74\u5ea6\u7c73\u4ee3\u5ddd\u4e2d\u5cf6\u5439\u8d8a\u5730\u533a\u63d0\u9632\u5730\u76e4\u8abf\u67fb","client_name":"\u56fd\u571f\u4ea4\u901a\u7701\u6771\u5317\u5730\u65b9\u6574\u5099\u5c40\u80fd\u4ee3\u6cb3\u5ddd\u56fd\u9053\u4e8b\u52d9\u6240","boring_xml_url":46,"boring_view_url":1,"soilmap_view_url":null,"soiltest_xml_url":0,"soiltest_view_url":0},{"id":137164,"code":"B4KJ201801002-5413","latitude":"40.21783","longitude":"140.03892","source_code":"TH20098247000050007","project_name":"","survey_name":"\u662d\u548c58\u5e74\u5ea6\u7c73\u4ee3\u5ddd\u4e2d\u5cf6\u5439\u8d8a\u5730\u533a\u63d0\u9632\u5730\u76e4\u8abf\u67fb","client_name":"\u56fd\u571f\u4ea4\u901a\u7701\u6771\u5317\u5730\u65b9\u6574\u5099\u5c40\u80fd\u4ee3\u6cb3\u5ddd\u56fd\u9053\u4e8b\u52d9\u6240","boring_xml_url":46,"boring_view_url":1,"soilmap_view_url":null,"soiltest_xml_url":0,"soiltest_view_url":0},{"id":137163,"code":"B4KJ201801002-5412","latitude":"40.21983","longitude":"140.01364","source_code":"TH20098247000050006","project_name":"","survey_name":"\u662d\u548c58\u5e74\u5ea6\u7c73\u4ee3\u5ddd\u4e2d\u5cf6\u5439\u8d8a\u5730\u533a\u63d0\u9632\u5730\u76e4\u8abf\u67fb","client_name":"\u56fd\u571f\u4ea4\u901a\u7701\u6771\u5317\u5730\u65b9\u6574\u5099\u5c40\u80fd\u4ee3\u6cb3\u5ddd\u56fd\u9053\u4e8b\u52d9\u6240","boring_xml_url":46,"boring_view_url":1,"soilmap_view_url":null,"soiltest_xml_url":0,"soiltest_view_url":0},{"id":137162,"code":"B4KJ201801002-5411","latitude":"40.22028","longitude":"140.00897","source_code":"TH20098247000050005","project_name":"","survey_name":"\u662d\u548c58\u5e74\u5ea6\u7c73\u4ee3\u5ddd\u4e2d\u5cf6\u5439\u8d8a\u5730\u533a\u63d0\u9632\u5730\u76e4\u8abf\u67fb","client_name":"\u56fd\u571f\u4ea4\u901a\u7701\u6771\u5317\u5730\u65b9\u6574\u5099\u5c40\u80fd\u4ee3\u6cb3\u5ddd\u56fd\u9053\u4e8b\u52d9\u6240","boring_xml_url":46,"boring_view_url":1,"soilmap_view_url":null,"soiltest_xml_url":0,"soiltest_view_url":0},{"id":137161,"code":"B4KJ201801002-5410","latitude":"40.22042","longitude":"140.00753","source_code":"TH20098247000050004","project_name":"","survey_name":"\u662d\u548c58\u5e74\u5ea6\u7c73\u4ee3\u5ddd\u4e2d\u5cf6\u5439\u8d8a\u5730\u533a\u5824\u9632\u5730\u76e4\u8abf\u67fb","client_name":"\u56fd\u571f\u4ea4\u901a\u7701\u6771\u5317\u5730\u65b9\u6574\u5099\u5c40\u80fd\u4ee3\u6cb3\u5ddd\u56fd\u9053\u4e8b\u52d9\u6240","boring_xml_url":46,"boring_view_url":1,"soilmap_view_url":null,"soiltest_xml_url":0,"soiltest_view_url":0},{"id":137160,"code":"B4KJ201801002-5409","latitude":"40.2205","longitude":"140.00653","source_code":"TH20098247000050003","project_name":"","survey_name":"\u662d\u548c58\u5e74\u5ea6\u7c73\u4ee3\u5ddd\u4e2d\u5cf6\u5439\u8d8a\u5730\u533a\u5824\u9632\u5730\u76e4\u8abf\u67fb","client_name":"\u56fd\u571f\u4ea4\u901a\u7701\u6771\u5317\u5730\u65b9\u6574\u5099\u5c40\u80fd\u4ee3\u6cb3\u5ddd\u56fd\u9053\u4e8b\u52d9\u6240","boring_xml_url":46,"boring_view_url":1,"soilmap_view_url":null,"soiltest_xml_url":0,"soiltest_view_url":0},{"id":137159,"code":"B4KJ201801002-5408","latitude":"40.22056","longitude":"140.00586","source_code":"TH20098247000050002","project_name":"","survey_name":"\u662d\u548c58\u5e74\u5ea6\u7c73\u4ee3\u5ddd\u4e2d\u5cf6\u5439\u8d8a\u5730\u533a\u5824\u9632\u5730\u76e4\u8abf\u67fb","client_name":"\u56fd\u571f\u4ea4\u901a\u7701\u6771\u5317\u5730\u65b9\u6574\u5099\u5c40\u80fd\u4ee3\u6cb3\u5ddd\u56fd\u9053\u4e8b\u52d9\u6240","boring_xml_url":46,"boring_view_url":1,"soilmap_view_url":null,"soiltest_xml_url":0,"soiltest_view_url":0},{"id":137158,"code":"B4KJ201801002-5407","latitude":"40.22064","longitude":"140.00508","source_code":"TH20098247000050001","project_name":"","survey_name":"\u662d\u548c58\u5e74\u5ea6\u7c73\u4ee3\u5ddd\u4e2d\u5cf6\u5439\u8d8a\u5730\u533a\u5824\u9632\u5730\u76e4\u8abf\u67fb","client_name":"\u56fd\u571f\u4ea4\u901a\u7701\u6771\u5317\u5730\u65b9\u6574\u5099\u5c40\u80fd\u4ee3\u6cb3\u5ddd\u56fd\u9053\u4e8b\u52d9\u6240","boring_xml_url":46,"boring_view_url":1,"soilmap_view_url":null,"soiltest_xml_url":0,"soiltest_view_url":0},{"id":137157,"code":"B4KJ201801002-5406","latitude":"40.26897","longitude":"140.44872","source_code":"TH20098247000040006","project_name":"","survey_name":"\u662d\u548c58\u5e74\u5ea6\u4e8c\u30c4\u4e95,\u5916\u5ddd\u539f\u5730\u533a\u5730\u8cea\u8abf\u67fb","client_name":"\u56fd\u571f\u4ea4\u901a\u7701\u6771\u5317\u5730\u65b9\u6574\u5099\u5c40\u80fd\u4ee3\u6cb3\u5ddd\u56fd\u9053\u4e8b\u52d9\u6240","boring_xml_url":46,"boring_view_url":1,"soilmap_view_url":null,"soiltest_xml_url":0,"soiltest_view_url":0},{"id":137156,"code":"B4KJ201801002-5405","latitude":"40.19169","longitude":"140.22514","source_code":"TH20098247000040003","project_name":"","survey_name":"\u662d\u548c58\u5e74\u5ea6\u4e8c\u30c4\u4e95,\u5916\u5ddd\u539f\u5730\u533a\u5730\u8cea\u8abf\u67fb","client_name":"\u56fd\u571f\u4ea4\u901a\u7701\u6771\u5317\u5730\u65b9\u6574\u5099\u5c40\u80fd\u4ee3\u6cb3\u5ddd\u56fd\u9053\u4e8b\u52d9\u6240","boring_xml_url":46,"boring_view_url":1,"soilmap_view_url":null,"soiltest_xml_url":0,"soiltest_view_url":0}]}}