{"header":{"xyz":{"source":[],"mosaic":false},"page":6117,"raw":{"soiltest_result":"0","bbox":"57.598333,109.544722,1.933333,163.806111","page":"6117"},"conditions":{"soiltest_result":0,"north":57.598333,"west":109.544722,"south":1.933333,"east":163.806111},"success":true,"message":""},"data":{"meta":{"total":212844,"page":6117,"pages":7095,"count":30},"values":[{"id":137065,"code":"B4KJ201801002-5314","latitude":"39.75944","longitude":"140.74228","source_code":"TH2009824600disk30590007","project_name":"\u5c0f\u5148\u9054\u5ddd\u7b2c1\u30c0\u30e0\u5b9f\u65bd\u6e2c\u91cf\u30fb\u5730\u76e4\u8abf\u67fb\u53ca\u3073\u8a2d\u8a08\u696d\u52d9","survey_name":"\u5c0f\u5148\u9054\u5ddd\u7b2c1\u30c0\u30e0\u5b9f\u65bd\u6e2c\u91cf\u30fb\u5730\u76e4\u8abf\u67fb\u53ca\u3073\u8a2d\u8a08\u696d\u52d9","client_name":"\u5efa\u8a2d\u7701\u6771\u5317\u5730\u65b9\u5efa\u8a2d\u5c40\u6e6f\u6ca2\u5de5\u4e8b\u4e8b\u52d9\u6240","boring_xml_url":51,"boring_view_url":1,"soilmap_view_url":null,"soiltest_xml_url":0,"soiltest_view_url":0},{"id":137064,"code":"B4KJ201801002-5313","latitude":"39.75925","longitude":"140.74233","source_code":"TH2009824600disk30590006","project_name":"\u5c0f\u5148\u9054\u5ddd\u7b2c1\u30c0\u30e0\u5b9f\u65bd\u6e2c\u91cf\u30fb\u5730\u76e4\u8abf\u67fb\u53ca\u3073\u8a2d\u8a08\u696d\u52d9","survey_name":"\u5c0f\u5148\u9054\u5ddd\u7b2c1\u30c0\u30e0\u5b9f\u65bd\u6e2c\u91cf\u30fb\u5730\u76e4\u8abf\u67fb\u53ca\u3073\u8a2d\u8a08\u696d\u52d9","client_name":"\u5efa\u8a2d\u7701\u6771\u5317\u5730\u65b9\u5efa\u8a2d\u5c40\u6e6f\u6ca2\u5de5\u4e8b\u4e8b\u52d9\u6240","boring_xml_url":51,"boring_view_url":1,"soilmap_view_url":null,"soiltest_xml_url":0,"soiltest_view_url":0},{"id":137063,"code":"B4KJ201801002-5312","latitude":"39.75908","longitude":"140.74242","source_code":"TH2009824600disk30590005","project_name":"\u5c0f\u5148\u9054\u5ddd\u7b2c1\u30c0\u30e0\u5b9f\u65bd\u6e2c\u91cf\u30fb\u5730\u76e4\u8abf\u67fb\u53ca\u3073\u8a2d\u8a08\u696d\u52d9","survey_name":"\u5c0f\u5148\u9054\u5ddd\u7b2c1\u30c0\u30e0\u5b9f\u65bd\u6e2c\u91cf\u30fb\u5730\u76e4\u8abf\u67fb\u53ca\u3073\u8a2d\u8a08\u696d\u52d9","client_name":"\u5efa\u8a2d\u7701\u6771\u5317\u5730\u65b9\u5efa\u8a2d\u5c40\u6e6f\u6ca2\u5de5\u4e8b\u4e8b\u52d9\u6240","boring_xml_url":51,"boring_view_url":1,"soilmap_view_url":null,"soiltest_xml_url":0,"soiltest_view_url":0},{"id":137062,"code":"B4KJ201801002-5311","latitude":"39.75925","longitude":"140.74272","source_code":"TH2009824600disk30590004","project_name":"\u5c0f\u5148\u9054\u5ddd\u7b2c1\u30c0\u30e0\u5b9f\u65bd\u6e2c\u91cf\u30fb\u5730\u76e4\u8abf\u67fb\u53ca\u3073\u8a2d\u8a08\u696d\u52d9","survey_name":"\u5c0f\u5148\u9054\u5ddd\u7b2c1\u30c0\u30e0\u5b9f\u65bd\u6e2c\u91cf\u30fb\u5730\u76e4\u8abf\u67fb\u53ca\u3073\u8a2d\u8a08\u696d\u52d9","client_name":"\u5efa\u8a2d\u7701\u6771\u5317\u5730\u65b9\u5efa\u8a2d\u5c40\u6e6f\u6ca2\u5de5\u4e8b\u4e8b\u52d9\u6240","boring_xml_url":51,"boring_view_url":1,"soilmap_view_url":null,"soiltest_xml_url":0,"soiltest_view_url":0},{"id":137061,"code":"B4KJ201801002-5310","latitude":"39.75931","longitude":"140.74261","source_code":"TH2009824600disk30590002","project_name":"\u5c0f\u5148\u9054\u5ddd\u7b2c1\u30c0\u30e0\u5b9f\u65bd\u6e2c\u91cf\u30fb\u5730\u76e4\u8abf\u67fb\u53ca\u3073\u8a2d\u8a08\u696d\u52d9","survey_name":"\u5c0f\u5148\u9054\u5ddd\u7b2c1\u30c0\u30e0\u5b9f\u65bd\u6e2c\u91cf\u30fb\u5730\u76e4\u8abf\u67fb\u53ca\u3073\u8a2d\u8a08\u696d\u52d9","client_name":"\u5efa\u8a2d\u7701\u6771\u5317\u5730\u65b9\u5efa\u8a2d\u5c40\u6e6f\u6ca2\u5de5\u4e8b\u4e8b\u52d9\u6240","boring_xml_url":51,"boring_view_url":1,"soilmap_view_url":null,"soiltest_xml_url":0,"soiltest_view_url":0},{"id":137060,"code":"B4KJ201801002-5309","latitude":"39.75894","longitude":"140.74272","source_code":"TH2009824600disk30590001","project_name":"\u5c0f\u5148\u9054\u5ddd\u7b2c1\u30c0\u30e0\u5b9f\u65bd\u6e2c\u91cf\u30fb\u5730\u76e4\u8abf\u67fb\u53ca\u3073\u8a2d\u8a08\u696d\u52d9","survey_name":"\u5c0f\u5148\u9054\u5ddd\u7b2c1\u30c0\u30e0\u5b9f\u65bd\u6e2c\u91cf\u30fb\u5730\u76e4\u8abf\u67fb\u53ca\u3073\u8a2d\u8a08\u696d\u52d9","client_name":"\u5efa\u8a2d\u7701\u6771\u5317\u5730\u65b9\u5efa\u8a2d\u5c40\u6e6f\u6ca2\u5de5\u4e8b\u4e8b\u52d9\u6240","boring_xml_url":51,"boring_view_url":1,"soilmap_view_url":null,"soiltest_xml_url":0,"soiltest_view_url":0},{"id":137059,"code":"B4KJ201801002-5308","latitude":"39.5411","longitude":"140.3678","source_code":"TH2009824600disk30580002","project_name":"\u5208\u548c\u91ce\u5730\u533a\u5b9f\u65bd\u8a2d\u8a08\u696d\u52d9\u59d4\u8a17","survey_name":"\u5208\u548c\u91ce\u5730\u533a\u5b9f\u65bd\u8a2d\u8a08\u696d\u52d9\u59d4\u8a17","client_name":"\u5efa\u8a2d\u7701\u6771\u5317\u5730\u65b9\u5efa\u8a2d\u5c40\u6e6f\u6ca2\u5de5\u4e8b\u4e8b\u52d9\u6240","boring_xml_url":51,"boring_view_url":1,"soilmap_view_url":null,"soiltest_xml_url":0,"soiltest_view_url":0},{"id":137058,"code":"B4KJ201801002-5307","latitude":"39.5394","longitude":"140.3686","source_code":"TH2009824600disk30580001","project_name":"\u5208\u548c\u91ce\u5730\u533a\u5b9f\u65bd\u8a2d\u8a08\u696d\u52d9\u59d4\u8a17","survey_name":"\u5208\u548c\u91ce\u5730\u533a\u5b9f\u65bd\u8a2d\u8a08\u696d\u52d9\u59d4\u8a17","client_name":"\u5efa\u8a2d\u7701\u6771\u5317\u5730\u65b9\u5efa\u8a2d\u5c40\u6e6f\u6ca2\u5de5\u4e8b\u4e8b\u52d9\u6240","boring_xml_url":51,"boring_view_url":1,"soilmap_view_url":null,"soiltest_xml_url":0,"soiltest_view_url":0},{"id":137057,"code":"B4KJ201801002-5306","latitude":"39.45569","longitude":"140.46625","source_code":"TH2009824600disk30570020","project_name":"\u5927\u66f2\u6377\u6c34\u8def\u5730\u8cea\u53ca\u5730\u4e0b\u6c34\u8abf\u67fb","survey_name":"\u5927\u66f2\u6377\u6c34\u8def\u5730\u8cea\u53ca\u5730\u4e0b\u6c34\u8abf\u67fb","client_name":"\u5efa\u8a2d\u7701\u6771\u5317\u5730\u65b9\u5efa\u8a2d\u5c40\u6e6f\u6ca2\u5de5\u4e8b\u4e8b\u52d9\u6240","boring_xml_url":51,"boring_view_url":1,"soilmap_view_url":null,"soiltest_xml_url":0,"soiltest_view_url":0},{"id":137056,"code":"B4KJ201801002-5305","latitude":"39.45569","longitude":"140.46625","source_code":"TH2009824600disk30570019","project_name":"\u5927\u66f2\u6377\u6c34\u8def\u5730\u8cea\u53ca\u5730\u4e0b\u6c34\u8abf\u67fb","survey_name":"\u5927\u66f2\u6377\u6c34\u8def\u5730\u8cea\u53ca\u5730\u4e0b\u6c34\u8abf\u67fb","client_name":"\u5efa\u8a2d\u7701\u6771\u5317\u5730\u65b9\u5efa\u8a2d\u5c40\u6e6f\u6ca2\u5de5\u4e8b\u4e8b\u52d9\u6240","boring_xml_url":51,"boring_view_url":1,"soilmap_view_url":null,"soiltest_xml_url":0,"soiltest_view_url":0},{"id":137055,"code":"B4KJ201801002-5304","latitude":"39.45569","longitude":"140.46625","source_code":"TH2009824600disk30570018","project_name":"\u5927\u66f2\u6377\u6c34\u8def\u5730\u8cea\u53ca\u5730\u4e0b\u6c34\u8abf\u67fb","survey_name":"\u5927\u66f2\u6377\u6c34\u8def\u5730\u8cea\u53ca\u5730\u4e0b\u6c34\u8abf\u67fb","client_name":"\u5efa\u8a2d\u7701\u6771\u5317\u5730\u65b9\u5efa\u8a2d\u5c40\u6e6f\u6ca2\u5de5\u4e8b\u4e8b\u52d9\u6240","boring_xml_url":51,"boring_view_url":1,"soilmap_view_url":null,"soiltest_xml_url":0,"soiltest_view_url":0},{"id":137054,"code":"B4KJ201801002-5303","latitude":"39.45569","longitude":"140.46625","source_code":"TH2009824600disk30570017","project_name":"\u5927\u66f2\u6377\u6c34\u8def\u5730\u8cea\u53ca\u5730\u4e0b\u6c34\u8abf\u67fb","survey_name":"\u5927\u66f2\u6377\u6c34\u8def\u5730\u8cea\u53ca\u5730\u4e0b\u6c34\u8abf\u67fb","client_name":"\u5efa\u8a2d\u7701\u6771\u5317\u5730\u65b9\u5efa\u8a2d\u5c40\u6e6f\u6ca2\u5de5\u4e8b\u4e8b\u52d9\u6240","boring_xml_url":51,"boring_view_url":1,"soilmap_view_url":null,"soiltest_xml_url":0,"soiltest_view_url":0},{"id":137053,"code":"B4KJ201801002-5302","latitude":"39.4553","longitude":"140.4639","source_code":"TH2009824600disk30570016","project_name":"\u5927\u66f2\u6377\u6c34\u8def\u5730\u8cea\u53ca\u5730\u4e0b\u6c34\u8abf\u67fb","survey_name":"\u5927\u66f2\u6377\u6c34\u8def\u5730\u8cea\u53ca\u5730\u4e0b\u6c34\u8abf\u67fb","client_name":"\u5efa\u8a2d\u7701\u6771\u5317\u5730\u65b9\u5efa\u8a2d\u5c40\u6e6f\u6ca2\u5de5\u4e8b\u4e8b\u52d9\u6240","boring_xml_url":51,"boring_view_url":1,"soilmap_view_url":null,"soiltest_xml_url":0,"soiltest_view_url":0},{"id":137052,"code":"B4KJ201801002-5301","latitude":"39.4553","longitude":"140.4639","source_code":"TH2009824600disk30570015","project_name":"\u5927\u66f2\u6377\u6c34\u8def\u5730\u8cea\u53ca\u5730\u4e0b\u6c34\u8abf\u67fb","survey_name":"\u5927\u66f2\u6377\u6c34\u8def\u5730\u8cea\u53ca\u5730\u4e0b\u6c34\u8abf\u67fb","client_name":"\u5efa\u8a2d\u7701\u6771\u5317\u5730\u65b9\u5efa\u8a2d\u5c40\u6e6f\u6ca2\u5de5\u4e8b\u4e8b\u52d9\u6240","boring_xml_url":51,"boring_view_url":1,"soilmap_view_url":null,"soiltest_xml_url":0,"soiltest_view_url":0},{"id":137051,"code":"B4KJ201801002-5300","latitude":"39.4553","longitude":"140.4639","source_code":"TH2009824600disk30570014","project_name":"\u5927\u66f2\u6377\u6c34\u8def\u5730\u8cea\u53ca\u5730\u4e0b\u6c34\u8abf\u67fb","survey_name":"\u5927\u66f2\u6377\u6c34\u8def\u5730\u8cea\u53ca\u5730\u4e0b\u6c34\u8abf\u67fb","client_name":"\u5efa\u8a2d\u7701\u6771\u5317\u5730\u65b9\u5efa\u8a2d\u5c40\u6e6f\u6ca2\u5de5\u4e8b\u4e8b\u52d9\u6240","boring_xml_url":51,"boring_view_url":1,"soilmap_view_url":null,"soiltest_xml_url":0,"soiltest_view_url":0},{"id":137050,"code":"B4KJ201801002-5299","latitude":"39.4553","longitude":"140.4639","source_code":"TH2009824600disk30570013","project_name":"\u5927\u66f2\u6377\u6c34\u8def\u5730\u8cea\u53ca\u5730\u4e0b\u6c34\u8abf\u67fb","survey_name":"\u5927\u66f2\u6377\u6c34\u8def\u5730\u8cea\u53ca\u5730\u4e0b\u6c34\u8abf\u67fb","client_name":"\u5efa\u8a2d\u7701\u6771\u5317\u5730\u65b9\u5efa\u8a2d\u5c40\u6e6f\u6ca2\u5de5\u4e8b\u4e8b\u52d9\u6240","boring_xml_url":51,"boring_view_url":1,"soilmap_view_url":null,"soiltest_xml_url":0,"soiltest_view_url":0},{"id":137049,"code":"B4KJ201801002-5298","latitude":"39.46014","longitude":"140.46444","source_code":"TH2009824600disk30570012","project_name":"\u5927\u66f2\u6377\u6c34\u8def\u5730\u8cea\u53ca\u5730\u4e0b\u6c34\u8abf\u67fb","survey_name":"\u5927\u66f2\u6377\u6c34\u8def\u5730\u8cea\u53ca\u5730\u4e0b\u6c34\u8abf\u67fb","client_name":"\u5efa\u8a2d\u7701\u6771\u5317\u5730\u65b9\u5efa\u8a2d\u5c40\u6e6f\u6ca2\u5de5\u4e8b\u4e8b\u52d9\u6240","boring_xml_url":51,"boring_view_url":1,"soilmap_view_url":null,"soiltest_xml_url":0,"soiltest_view_url":0},{"id":137048,"code":"B4KJ201801002-5297","latitude":"39.46014","longitude":"140.46444","source_code":"TH2009824600disk30570011","project_name":"\u5927\u66f2\u6377\u6c34\u8def\u5730\u8cea\u53ca\u5730\u4e0b\u6c34\u8abf\u67fb","survey_name":"\u5927\u66f2\u6377\u6c34\u8def\u5730\u8cea\u53ca\u5730\u4e0b\u6c34\u8abf\u67fb","client_name":"\u5efa\u8a2d\u7701\u6771\u5317\u5730\u65b9\u5efa\u8a2d\u5c40\u6e6f\u6ca2\u5de5\u4e8b\u4e8b\u52d9\u6240","boring_xml_url":51,"boring_view_url":1,"soilmap_view_url":null,"soiltest_xml_url":0,"soiltest_view_url":0},{"id":137047,"code":"B4KJ201801002-5296","latitude":"39.46014","longitude":"140.46444","source_code":"TH2009824600disk30570010","project_name":"\u5927\u66f2\u6377\u6c34\u8def\u5730\u8cea\u53ca\u5730\u4e0b\u6c34\u8abf\u67fb","survey_name":"\u5927\u66f2\u6377\u6c34\u8def\u5730\u8cea\u53ca\u5730\u4e0b\u6c34\u8abf\u67fb","client_name":"\u5efa\u8a2d\u7701\u6771\u5317\u5730\u65b9\u5efa\u8a2d\u5c40\u6e6f\u6ca2\u5de5\u4e8b\u4e8b\u52d9\u6240","boring_xml_url":51,"boring_view_url":1,"soilmap_view_url":null,"soiltest_xml_url":0,"soiltest_view_url":0},{"id":137046,"code":"B4KJ201801002-5295","latitude":"39.46014","longitude":"140.46444","source_code":"TH2009824600disk30570009","project_name":"\u5927\u66f2\u6377\u6c34\u8def\u5730\u8cea\u53ca\u5730\u4e0b\u6c34\u8abf\u67fb","survey_name":"\u5927\u66f2\u6377\u6c34\u8def\u5730\u8cea\u53ca\u5730\u4e0b\u6c34\u8abf\u67fb","client_name":"\u5efa\u8a2d\u7701\u6771\u5317\u5730\u65b9\u5efa\u8a2d\u5c40\u6e6f\u6ca2\u5de5\u4e8b\u4e8b\u52d9\u6240","boring_xml_url":51,"boring_view_url":1,"soilmap_view_url":null,"soiltest_xml_url":0,"soiltest_view_url":0},{"id":137045,"code":"B4KJ201801002-5294","latitude":"39.45958","longitude":"140.46236","source_code":"TH2009824600disk30570008","project_name":"\u5927\u66f2\u6377\u6c34\u8def\u5730\u8cea\u53ca\u5730\u4e0b\u6c34\u8abf\u67fb","survey_name":"\u5927\u66f2\u6377\u6c34\u8def\u5730\u8cea\u53ca\u5730\u4e0b\u6c34\u8abf\u67fb","client_name":"\u5efa\u8a2d\u7701\u6771\u5317\u5730\u65b9\u5efa\u8a2d\u5c40\u6e6f\u6ca2\u5de5\u4e8b\u4e8b\u52d9\u6240","boring_xml_url":51,"boring_view_url":1,"soilmap_view_url":null,"soiltest_xml_url":0,"soiltest_view_url":0},{"id":137044,"code":"B4KJ201801002-5293","latitude":"39.45958","longitude":"140.46236","source_code":"TH2009824600disk30570007","project_name":"\u5927\u66f2\u6377\u6c34\u8def\u5730\u8cea\u53ca\u5730\u4e0b\u6c34\u8abf\u67fb","survey_name":"\u5927\u66f2\u6377\u6c34\u8def\u5730\u8cea\u53ca\u5730\u4e0b\u6c34\u8abf\u67fb","client_name":"\u5efa\u8a2d\u7701\u6771\u5317\u5730\u65b9\u5efa\u8a2d\u5c40\u6e6f\u6ca2\u5de5\u4e8b\u4e8b\u52d9\u6240","boring_xml_url":51,"boring_view_url":1,"soilmap_view_url":null,"soiltest_xml_url":0,"soiltest_view_url":0},{"id":137043,"code":"B4KJ201801002-5292","latitude":"39.45958","longitude":"140.46236","source_code":"TH2009824600disk30570006","project_name":"\u5927\u66f2\u6377\u6c34\u8def\u5730\u8cea\u53ca\u5730\u4e0b\u6c34\u8abf\u67fb","survey_name":"\u5927\u66f2\u6377\u6c34\u8def\u5730\u8cea\u53ca\u5730\u4e0b\u6c34\u8abf\u67fb","client_name":"\u5efa\u8a2d\u7701\u6771\u5317\u5730\u65b9\u5efa\u8a2d\u5c40\u6e6f\u6ca2\u5de5\u4e8b\u4e8b\u52d9\u6240","boring_xml_url":51,"boring_view_url":1,"soilmap_view_url":null,"soiltest_xml_url":0,"soiltest_view_url":0},{"id":137042,"code":"B4KJ201801002-5291","latitude":"39.45958","longitude":"140.46236","source_code":"TH2009824600disk30570005","project_name":"\u5927\u66f2\u6377\u6c34\u8def\u5730\u8cea\u53ca\u5730\u4e0b\u6c34\u8abf\u67fb","survey_name":"\u5927\u66f2\u6377\u6c34\u8def\u5730\u8cea\u53ca\u5730\u4e0b\u6c34\u8abf\u67fb","client_name":"\u5efa\u8a2d\u7701\u6771\u5317\u5730\u65b9\u5efa\u8a2d\u5c40\u6e6f\u6ca2\u5de5\u4e8b\u4e8b\u52d9\u6240","boring_xml_url":51,"boring_view_url":1,"soilmap_view_url":null,"soiltest_xml_url":0,"soiltest_view_url":0},{"id":137041,"code":"B4KJ201801002-5290","latitude":"39.46375","longitude":"140.46236","source_code":"TH2009824600disk30570004","project_name":"\u5927\u66f2\u6377\u6c34\u8def\u5730\u8cea\u53ca\u5730\u4e0b\u6c34\u8abf\u67fb","survey_name":"\u5927\u66f2\u6377\u6c34\u8def\u5730\u8cea\u53ca\u5730\u4e0b\u6c34\u8abf\u67fb","client_name":"\u5efa\u8a2d\u7701\u6771\u5317\u5730\u65b9\u5efa\u8a2d\u5c40\u6e6f\u6ca2\u5de5\u4e8b\u4e8b\u52d9\u6240","boring_xml_url":51,"boring_view_url":1,"soilmap_view_url":null,"soiltest_xml_url":0,"soiltest_view_url":0},{"id":137040,"code":"B4KJ201801002-5289","latitude":"39.46375","longitude":"140.46236","source_code":"TH2009824600disk30570003","project_name":"\u5927\u66f2\u6377\u6c34\u8def\u5730\u8cea\u53ca\u5730\u4e0b\u6c34\u8abf\u67fb","survey_name":"\u5927\u66f2\u6377\u6c34\u8def\u5730\u8cea\u53ca\u5730\u4e0b\u6c34\u8abf\u67fb","client_name":"\u5efa\u8a2d\u7701\u6771\u5317\u5730\u65b9\u5efa\u8a2d\u5c40\u6e6f\u6ca2\u5de5\u4e8b\u4e8b\u52d9\u6240","boring_xml_url":51,"boring_view_url":1,"soilmap_view_url":null,"soiltest_xml_url":0,"soiltest_view_url":0},{"id":137039,"code":"B4KJ201801002-5288","latitude":"39.46375","longitude":"140.46236","source_code":"TH2009824600disk30570002","project_name":"\u5927\u66f2\u6377\u6c34\u8def\u5730\u8cea\u53ca\u5730\u4e0b\u6c34\u8abf\u67fb","survey_name":"\u5927\u66f2\u6377\u6c34\u8def\u5730\u8cea\u53ca\u5730\u4e0b\u6c34\u8abf\u67fb","client_name":"\u5efa\u8a2d\u7701\u6771\u5317\u5730\u65b9\u5efa\u8a2d\u5c40\u6e6f\u6ca2\u5de5\u4e8b\u4e8b\u52d9\u6240","boring_xml_url":51,"boring_view_url":1,"soilmap_view_url":null,"soiltest_xml_url":0,"soiltest_view_url":0},{"id":137038,"code":"B4KJ201801002-5287","latitude":"39.46375","longitude":"140.46236","source_code":"TH2009824600disk30570001","project_name":"\u5927\u66f2\u6377\u6c34\u8def\u5730\u8cea\u53ca\u5730\u4e0b\u6c34\u8abf\u67fb","survey_name":"\u5927\u66f2\u6377\u6c34\u8def\u5730\u8cea\u53ca\u5730\u4e0b\u6c34\u8abf\u67fb","client_name":"\u5efa\u8a2d\u7701\u6771\u5317\u5730\u65b9\u5efa\u8a2d\u5c40\u6e6f\u6ca2\u5de5\u4e8b\u4e8b\u52d9\u6240","boring_xml_url":51,"boring_view_url":1,"soilmap_view_url":null,"soiltest_xml_url":0,"soiltest_view_url":0},{"id":137037,"code":"B4KJ201801002-5286","latitude":"39.4528","longitude":"140.4664","source_code":"TH2009824600disk30560003","project_name":"\u5927\u66f2\u6377\u6c34\u8def\u5730\u8cea\u8a66\u9a13\u8abf\u67fb","survey_name":"\u5927\u66f2\u6377\u6c34\u8def\u5730\u8cea\u8a66\u9a13\u8abf\u67fb","client_name":"\u5efa\u8a2d\u7701\u6771\u5317\u5730\u65b9\u5efa\u8a2d\u5c40\u6e6f\u6ca2\u5de5\u4e8b\u4e8b\u52d9\u6240","boring_xml_url":51,"boring_view_url":1,"soilmap_view_url":null,"soiltest_xml_url":0,"soiltest_view_url":0},{"id":137036,"code":"B4KJ201801002-5285","latitude":"39.4606","longitude":"140.4619","source_code":"TH2009824600disk30560002","project_name":"\u5927\u66f2\u6377\u6c34\u8def\u5730\u8cea\u8a66\u9a13\u8abf\u67fb","survey_name":"\u5927\u66f2\u6377\u6c34\u8def\u5730\u8cea\u8a66\u9a13\u8abf\u67fb","client_name":"\u5efa\u8a2d\u7701\u6771\u5317\u5730\u65b9\u5efa\u8a2d\u5c40\u6e6f\u6ca2\u5de5\u4e8b\u4e8b\u52d9\u6240","boring_xml_url":51,"boring_view_url":1,"soilmap_view_url":null,"soiltest_xml_url":0,"soiltest_view_url":0}]}}