{"header":{"xyz":{"source":[],"mosaic":false},"page":612,"raw":{"soiltest_result":"0","bbox":"57.598333,109.544722,1.933333,163.806111","page":"612"},"conditions":{"soiltest_result":0,"north":57.598333,"west":109.544722,"south":1.933333,"east":163.806111},"success":true,"message":""},"data":{"meta":{"total":212844,"page":612,"pages":7095,"count":30},"values":[{"id":527058,"code":"B4KJ202201002-9594","latitude":"33.966589","longitude":"133.475717","source_code":"148850522000090002","project_name":"","survey_name":"\u5e73\u621026\u5e74\u5ea6\u3000\u677e\u5c71\u7ba1\u5185\u5730\u8cea\u8abf\u67fb\u696d\u52d9","client_name":"\u56fd\u571f\u4ea4\u901a\u7701\u56db\u56fd\u5730\u65b9\u6574\u5099\u5c40\u677e\u5c71\u6cb3\u5ddd\u56fd\u9053\u4e8b\u52d9\u6240","boring_xml_url":64,"boring_view_url":1,"soilmap_view_url":null,"soiltest_xml_url":0,"soiltest_view_url":0},{"id":527057,"code":"B4KJ202201002-9593","latitude":"33.967258","longitude":"133.479489","source_code":"148850522000090001","project_name":"","survey_name":"\u5e73\u621026\u5e74\u5ea6\u3000\u677e\u5c71\u7ba1\u5185\u5730\u8cea\u8abf\u67fb\u696d\u52d9","client_name":"\u56fd\u571f\u4ea4\u901a\u7701\u56db\u56fd\u5730\u65b9\u6574\u5099\u5c40\u677e\u5c71\u6cb3\u5ddd\u56fd\u9053\u4e8b\u52d9\u6240","boring_xml_url":64,"boring_view_url":1,"soilmap_view_url":null,"soiltest_xml_url":0,"soiltest_view_url":0},{"id":527056,"code":"B4KJ202201002-9592","latitude":"33.700301","longitude":"132.706845","source_code":"138850622000550006","project_name":"\"\u5e73\u621026\u5e74\u5ea6 \u677e\u5c71\u7ba1\u5185\u8010\u9707\u88dc\u5f37\u8a2d\u8a08\u696d\u52d9\"","survey_name":"\"\u5e73\u621026\u5e74\u5ea6 \u677e\u5c71\u7ba1\u5185\u8010\u9707\u88dc\u5f37\u8a2d\u8a08\u696d\u52d9\"","client_name":"\"\u56fd\u571f\u4ea4\u901a\u7701\u56db\u56fd\u5730\u65b9\u6574\u5099\u5c40\u677e\u5c71\u6cb3\u5ddd\u56fd\u9053\u4e8b\u52d9\u6240 \u9053\u8def\u7ba1\u7406\u7b2c\u4e8c\u8ab2\"","boring_xml_url":64,"boring_view_url":1,"soilmap_view_url":null,"soiltest_xml_url":0,"soiltest_view_url":0},{"id":527055,"code":"B4KJ202201002-9591","latitude":"33.700301","longitude":"132.706845","source_code":"138850622000550005","project_name":"\"\u5e73\u621026\u5e74\u5ea6 \u677e\u5c71\u7ba1\u5185\u8010\u9707\u88dc\u5f37\u8a2d\u8a08\u696d\u52d9\"","survey_name":"\"\u5e73\u621026\u5e74\u5ea6 \u677e\u5c71\u7ba1\u5185\u8010\u9707\u88dc\u5f37\u8a2d\u8a08\u696d\u52d9\"","client_name":"\"\u56fd\u571f\u4ea4\u901a\u7701\u56db\u56fd\u5730\u65b9\u6574\u5099\u5c40\u677e\u5c71\u6cb3\u5ddd\u56fd\u9053\u4e8b\u52d9\u6240 \u9053\u8def\u7ba1\u7406\u7b2c\u4e8c\u8ab2\"","boring_xml_url":64,"boring_view_url":1,"soilmap_view_url":null,"soiltest_xml_url":0,"soiltest_view_url":0},{"id":527054,"code":"B4KJ202201002-9590","latitude":"33.8805","longitude":"132.837111","source_code":"138850622000550004","project_name":"","survey_name":"\u5e73\u621026\u5e74\u5ea6\u3000\u77f3\u624b\u5ddd\u30c0\u30e0\u5730\u8cea\u8abf\u67fb\u696d\u52d9","client_name":"\u56db\u56fd\u5730\u65b9\u6574\u5099\u5c40\u677e\u5c71\u6cb3\u5ddd\u56fd\u9053\u4e8b\u52d9\u6240","boring_xml_url":64,"boring_view_url":1,"soilmap_view_url":null,"soiltest_xml_url":0,"soiltest_view_url":0},{"id":527053,"code":"B4KJ202201002-9589","latitude":"33.884222","longitude":"132.840778","source_code":"138850622000550003","project_name":"","survey_name":"\u5e73\u621026\u5e74\u5ea6\u3000\u77f3\u624b\u5ddd\u30c0\u30e0\u5730\u8cea\u8abf\u67fb\u696d\u52d9","client_name":"\u56db\u56fd\u5730\u65b9\u6574\u5099\u5c40\u677e\u5c71\u6cb3\u5ddd\u56fd\u9053\u4e8b\u52d9\u6240","boring_xml_url":64,"boring_view_url":1,"soilmap_view_url":null,"soiltest_xml_url":0,"soiltest_view_url":0},{"id":527052,"code":"B4KJ202201002-9588","latitude":"34.029465","longitude":"132.982628","source_code":"138850622000550002","project_name":"\u5e73\u621025-26\u5e74\u5ea6","survey_name":"\u4eca\u6cbb\u9053\u8def(\u65b0\u8c37\u5730\u533a)\u5730\u8cea\u8abf\u67fb\u696d\u52d9","client_name":"\u56fd\u571f\u4ea4\u901a\u7701\u56db\u56fd\u5730\u65b9\u6574\u5099\u5c40\u3000\u677e\u5c71\u6cb3\u5ddd\u56fd\u9053\u4e8b\u52d9\u6240","boring_xml_url":64,"boring_view_url":1,"soilmap_view_url":null,"soiltest_xml_url":0,"soiltest_view_url":0},{"id":527051,"code":"B4KJ202201002-9587","latitude":"34.029749","longitude":"132.982691","source_code":"138850622000550001","project_name":"\u5e73\u621025-26\u5e74\u5ea6","survey_name":"\u4eca\u6cbb\u9053\u8def(\u65b0\u8c37\u5730\u533a)\u5730\u8cea\u8abf\u67fb\u696d\u52d9","client_name":"\u56fd\u571f\u4ea4\u901a\u7701\u56db\u56fd\u5730\u65b9\u6574\u5099\u5c40\u3000\u677e\u5c71\u6cb3\u5ddd\u56fd\u9053\u4e8b\u52d9\u6240","boring_xml_url":64,"boring_view_url":1,"soilmap_view_url":null,"soiltest_xml_url":0,"soiltest_view_url":0},{"id":527050,"code":"B4KJ202201002-9586","latitude":"34.028203","longitude":"132.983745","source_code":"138850402000130015","project_name":"\u5e73\u621025-26\u5e74\u5ea6","survey_name":"\u4eca\u6cbb\u9053\u8def(\u65b0\u8c37\u5730\u533a)\u5730\u8cea\u8abf\u67fb\u696d\u52d9","client_name":"\u56fd\u571f\u4ea4\u901a\u7701\u56db\u56fd\u5730\u65b9\u6574\u5099\u5c40\u3000\u677e\u5c71\u6cb3\u5ddd\u56fd\u9053\u4e8b\u52d9\u6240","boring_xml_url":64,"boring_view_url":1,"soilmap_view_url":null,"soiltest_xml_url":0,"soiltest_view_url":0},{"id":527049,"code":"B4KJ202201002-9585","latitude":"34.021186","longitude":"132.989002","source_code":"138850402000130014","project_name":"\u5e73\u621025-26\u5e74\u5ea6","survey_name":"\u4eca\u6cbb\u9053\u8def(\u65b0\u8c37\u5730\u533a)\u5730\u8cea\u8abf\u67fb\u696d\u52d9","client_name":"\u56fd\u571f\u4ea4\u901a\u7701\u56db\u56fd\u5730\u65b9\u6574\u5099\u5c40\u3000\u677e\u5c71\u6cb3\u5ddd\u56fd\u9053\u4e8b\u52d9\u6240","boring_xml_url":64,"boring_view_url":1,"soilmap_view_url":null,"soiltest_xml_url":0,"soiltest_view_url":0},{"id":527048,"code":"B4KJ202201002-9584","latitude":"34.020218","longitude":"132.989389","source_code":"138850402000130013","project_name":"\u5e73\u621025-26\u5e74\u5ea6","survey_name":"\u4eca\u6cbb\u9053\u8def(\u65b0\u8c37\u5730\u533a)\u5730\u8cea\u8abf\u67fb\u696d\u52d9","client_name":"\u56fd\u571f\u4ea4\u901a\u7701\u56db\u56fd\u5730\u65b9\u6574\u5099\u5c40\u3000\u677e\u5c71\u6cb3\u5ddd\u56fd\u9053\u4e8b\u52d9\u6240","boring_xml_url":64,"boring_view_url":1,"soilmap_view_url":null,"soiltest_xml_url":0,"soiltest_view_url":0},{"id":527047,"code":"B4KJ202201002-9583","latitude":"34.025547","longitude":"132.985821","source_code":"138850402000130012","project_name":"\u5e73\u621025-26\u5e74\u5ea6","survey_name":"\u4eca\u6cbb\u9053\u8def(\u65b0\u8c37\u5730\u533a)\u5730\u8cea\u8abf\u67fb\u696d\u52d9","client_name":"\u56fd\u571f\u4ea4\u901a\u7701\u56db\u56fd\u5730\u65b9\u6574\u5099\u5c40\u3000\u677e\u5c71\u6cb3\u5ddd\u56fd\u9053\u4e8b\u52d9\u6240","boring_xml_url":64,"boring_view_url":1,"soilmap_view_url":null,"soiltest_xml_url":0,"soiltest_view_url":0},{"id":527046,"code":"B4KJ202201002-9582","latitude":"33.806512","longitude":"132.732733","source_code":"138850402000130011","project_name":"","survey_name":"\u5e73\u621025-26\u5e74\u5ea6\u57a3\u751f\u5730\u533a\u5730\u8cea\u8abf\u67fb\u5916\u696d\u52d9","client_name":"\u56fd\u571f\u4ea4\u901a\u7701\u56db\u56fd\u5730\u65b9\u6574\u5099\u5c40\u677e\u5c71\u6cb3\u5ddd\u56fd\u9053\u4e8b\u52d9\u6240","boring_xml_url":64,"boring_view_url":1,"soilmap_view_url":null,"soiltest_xml_url":0,"soiltest_view_url":0},{"id":527045,"code":"B4KJ202201002-9581","latitude":"33.806451","longitude":"132.732771","source_code":"138850402000130010","project_name":"","survey_name":"\u5e73\u621025-26\u5e74\u5ea6\u57a3\u751f\u5730\u533a\u5730\u8cea\u8abf\u67fb\u5916\u696d\u52d9","client_name":"\u56fd\u571f\u4ea4\u901a\u7701\u56db\u56fd\u5730\u65b9\u6574\u5099\u5c40\u677e\u5c71\u6cb3\u5ddd\u56fd\u9053\u4e8b\u52d9\u6240","boring_xml_url":64,"boring_view_url":1,"soilmap_view_url":null,"soiltest_xml_url":0,"soiltest_view_url":0},{"id":527044,"code":"B4KJ202201002-9580","latitude":"33.806337","longitude":"132.732842","source_code":"138850402000130009","project_name":"","survey_name":"\u5e73\u621025-26\u5e74\u5ea6\u57a3\u751f\u5730\u533a\u5730\u8cea\u8abf\u67fb\u5916\u696d\u52d9","client_name":"\u56fd\u571f\u4ea4\u901a\u7701\u56db\u56fd\u5730\u65b9\u6574\u5099\u5c40\u677e\u5c71\u6cb3\u5ddd\u56fd\u9053\u4e8b\u52d9\u6240","boring_xml_url":64,"boring_view_url":1,"soilmap_view_url":null,"soiltest_xml_url":0,"soiltest_view_url":0},{"id":527043,"code":"B4KJ202201002-9579","latitude":"33.806308","longitude":"132.727362","source_code":"138850402000130008","project_name":"","survey_name":"\u5e73\u621025-26\u5e74\u5ea6\u57a3\u751f\u5730\u533a\u5730\u8cea\u8abf\u67fb\u5916\u696d\u52d9","client_name":"\u56fd\u571f\u4ea4\u901a\u7701\u56db\u56fd\u5730\u65b9\u6574\u5099\u5c40\u677e\u5c71\u6cb3\u5ddd\u56fd\u9053\u4e8b\u52d9\u6240","boring_xml_url":64,"boring_view_url":1,"soilmap_view_url":null,"soiltest_xml_url":0,"soiltest_view_url":0},{"id":527042,"code":"B4KJ202201002-9578","latitude":"33.808187","longitude":"132.72257","source_code":"138850402000130007","project_name":"","survey_name":"\u5e73\u621025-26\u5e74\u5ea6\u57a3\u751f\u5730\u533a\u5730\u8cea\u8abf\u67fb\u5916\u696d\u52d9","client_name":"\u56fd\u571f\u4ea4\u901a\u7701\u56db\u56fd\u5730\u65b9\u6574\u5099\u5c40\u677e\u5c71\u6cb3\u5ddd\u56fd\u9053\u4e8b\u52d9\u6240","boring_xml_url":64,"boring_view_url":1,"soilmap_view_url":null,"soiltest_xml_url":0,"soiltest_view_url":0},{"id":527041,"code":"B4KJ202201002-9577","latitude":"33.809692","longitude":"132.716699","source_code":"138850402000130006","project_name":"","survey_name":"\u5e73\u621025-26\u5e74\u5ea6\u57a3\u751f\u5730\u533a\u5730\u8cea\u8abf\u67fb\u5916\u696d\u52d9","client_name":"\u56fd\u571f\u4ea4\u901a\u7701\u56db\u56fd\u5730\u65b9\u6574\u5099\u5c40\u677e\u5c71\u6cb3\u5ddd\u56fd\u9053\u4e8b\u52d9\u6240","boring_xml_url":64,"boring_view_url":1,"soilmap_view_url":null,"soiltest_xml_url":0,"soiltest_view_url":0},{"id":527040,"code":"B4KJ202201002-9576","latitude":"33.809583","longitude":"132.716712","source_code":"138850402000130005","project_name":"","survey_name":"\u5e73\u621025-26\u5e74\u5ea6\u57a3\u751f\u5730\u533a\u5730\u8cea\u8abf\u67fb\u5916\u696d\u52d9","client_name":"\u56fd\u571f\u4ea4\u901a\u7701\u56db\u56fd\u5730\u65b9\u6574\u5099\u5c40\u677e\u5c71\u6cb3\u5ddd\u56fd\u9053\u4e8b\u52d9\u6240","boring_xml_url":64,"boring_view_url":1,"soilmap_view_url":null,"soiltest_xml_url":0,"soiltest_view_url":0},{"id":527039,"code":"B4KJ202201002-9575","latitude":"33.809515","longitude":"132.71672","source_code":"138850402000130004","project_name":"","survey_name":"\u5e73\u621025-26\u5e74\u5ea6\u57a3\u751f\u5730\u533a\u5730\u8cea\u8abf\u67fb\u5916\u696d\u52d9","client_name":"\u56fd\u571f\u4ea4\u901a\u7701\u56db\u56fd\u5730\u65b9\u6574\u5099\u5c40\u677e\u5c71\u6cb3\u5ddd\u56fd\u9053\u4e8b\u52d9\u6240","boring_xml_url":64,"boring_view_url":1,"soilmap_view_url":null,"soiltest_xml_url":0,"soiltest_view_url":0},{"id":527038,"code":"B4KJ202201002-9574","latitude":"33.808214","longitude":"132.708503","source_code":"138850402000130003","project_name":"","survey_name":"\u5e73\u621025-26\u5e74\u5ea6\u57a3\u751f\u5730\u533a\u5730\u8cea\u8abf\u67fb\u5916\u696d\u52d9","client_name":"\u56fd\u571f\u4ea4\u901a\u7701\u56db\u56fd\u5730\u65b9\u6574\u5099\u5c40\u677e\u5c71\u6cb3\u5ddd\u56fd\u9053\u4e8b\u52d9\u6240","boring_xml_url":64,"boring_view_url":1,"soilmap_view_url":null,"soiltest_xml_url":0,"soiltest_view_url":0},{"id":527037,"code":"B4KJ202201002-9573","latitude":"33.808095","longitude":"132.708592","source_code":"138850402000130002","project_name":"","survey_name":"\u5e73\u621025-26\u5e74\u5ea6\u57a3\u751f\u5730\u533a\u5730\u8cea\u8abf\u67fb\u5916\u696d\u52d9","client_name":"\u56fd\u571f\u4ea4\u901a\u7701\u56db\u56fd\u5730\u65b9\u6574\u5099\u5c40\u677e\u5c71\u6cb3\u5ddd\u56fd\u9053\u4e8b\u52d9\u6240","boring_xml_url":64,"boring_view_url":1,"soilmap_view_url":null,"soiltest_xml_url":0,"soiltest_view_url":0},{"id":527036,"code":"B4KJ202201002-9572","latitude":"33.806517","longitude":"132.703456","source_code":"138850402000130001","project_name":"","survey_name":"\u5e73\u621025-26\u5e74\u5ea6\u57a3\u751f\u5730\u533a\u5730\u8cea\u8abf\u67fb\u5916\u696d\u52d9","client_name":"\u56fd\u571f\u4ea4\u901a\u7701\u56db\u56fd\u5730\u65b9\u6574\u5099\u5c40\u677e\u5c71\u6cb3\u5ddd\u56fd\u9053\u4e8b\u52d9\u6240","boring_xml_url":64,"boring_view_url":1,"soilmap_view_url":null,"soiltest_xml_url":0,"soiltest_view_url":0},{"id":527035,"code":"B4KJ202201002-9571","latitude":"33.806379","longitude":"132.703486","source_code":"138840452000140006","project_name":"","survey_name":"\u5e73\u621025-26\u5e74\u5ea6\u57a3\u751f\u5730\u533a\u5730\u8cea\u8abf\u67fb\u5916\u696d\u52d9","client_name":"\u56fd\u571f\u4ea4\u901a\u7701\u56db\u56fd\u5730\u65b9\u6574\u5099\u5c40\u677e\u5c71\u6cb3\u5ddd\u56fd\u9053\u4e8b\u52d9\u6240","boring_xml_url":64,"boring_view_url":1,"soilmap_view_url":null,"soiltest_xml_url":0,"soiltest_view_url":0},{"id":527034,"code":"B4KJ202201002-9570","latitude":"33.806778","longitude":"132.698998","source_code":"138840452000140005","project_name":"","survey_name":"\u5e73\u621025-26\u5e74\u5ea6\u57a3\u751f\u5730\u533a\u5730\u8cea\u8abf\u67fb\u5916\u696d\u52d9","client_name":"\u56fd\u571f\u4ea4\u901a\u7701\u56db\u56fd\u5730\u65b9\u6574\u5099\u5c40\u677e\u5c71\u6cb3\u5ddd\u56fd\u9053\u4e8b\u52d9\u6240","boring_xml_url":64,"boring_view_url":1,"soilmap_view_url":null,"soiltest_xml_url":0,"soiltest_view_url":0},{"id":527033,"code":"B4KJ202201002-9569","latitude":"33.806714","longitude":"132.698993","source_code":"138840452000140004","project_name":"","survey_name":"\u5e73\u621025-26\u5e74\u5ea6\u57a3\u751f\u5730\u533a\u5730\u8cea\u8abf\u67fb\u5916\u696d\u52d9","client_name":"\u56fd\u571f\u4ea4\u901a\u7701\u56db\u56fd\u5730\u65b9\u6574\u5099\u5c40\u677e\u5c71\u6cb3\u5ddd\u56fd\u9053\u4e8b\u52d9\u6240","boring_xml_url":64,"boring_view_url":1,"soilmap_view_url":null,"soiltest_xml_url":0,"soiltest_view_url":0},{"id":527032,"code":"B4KJ202201002-9568","latitude":"33.806644","longitude":"132.698987","source_code":"138840452000140003","project_name":"","survey_name":"\u5e73\u621025-26\u5e74\u5ea6\u57a3\u751f\u5730\u533a\u5730\u8cea\u8abf\u67fb\u5916\u696d\u52d9","client_name":"\u56fd\u571f\u4ea4\u901a\u7701\u56db\u56fd\u5730\u65b9\u6574\u5099\u5c40\u677e\u5c71\u6cb3\u5ddd\u56fd\u9053\u4e8b\u52d9\u6240","boring_xml_url":64,"boring_view_url":1,"soilmap_view_url":null,"soiltest_xml_url":0,"soiltest_view_url":0},{"id":527031,"code":"B4KJ202201002-9567","latitude":"34.293971","longitude":"133.805954","source_code":"138840452000140002","project_name":"","survey_name":"\u5e73\u621025-26\u5e74\u5ea6\u84ec\u83b1\u6a4b\u5730\u8cea\u8abf\u67fb\u696d\u52d9","client_name":"\u56fd\u571f\u4ea4\u901a\u7701\u56db\u56fd\u5730\u65b9\u6574\u5099\u5c40\u9999\u5ddd\u6cb3\u5ddd\u56fd\u9053\u4e8b\u52d9\u6240","boring_xml_url":64,"boring_view_url":1,"soilmap_view_url":null,"soiltest_xml_url":0,"soiltest_view_url":0},{"id":527030,"code":"B4KJ202201002-9566","latitude":"34.293843","longitude":"133.806335","source_code":"138840452000140001","project_name":"","survey_name":"\u5e73\u621025-26\u5e74\u5ea6\u84ec\u83b1\u6a4b\u5730\u8cea\u8abf\u67fb\u696d\u52d9","client_name":"\u56fd\u571f\u4ea4\u901a\u7701\u56db\u56fd\u5730\u65b9\u6574\u5099\u5c40\u9999\u5ddd\u6cb3\u5ddd\u56fd\u9053\u4e8b\u52d9\u6240","boring_xml_url":64,"boring_view_url":1,"soilmap_view_url":null,"soiltest_xml_url":0,"soiltest_view_url":0},{"id":527029,"code":"B4KJ202201002-9565","latitude":"34.293409","longitude":"133.805751","source_code":"148830642000060001","project_name":"","survey_name":"\u5e73\u621025-26\u5e74\u5ea6\u84ec\u83b1\u6a4b\u5730\u8cea\u8abf\u67fb\u696d\u52d9","client_name":"\u56fd\u571f\u4ea4\u901a\u7701\u56db\u56fd\u5730\u65b9\u6574\u5099\u5c40\u9999\u5ddd\u6cb3\u5ddd\u56fd\u9053\u4e8b\u52d9\u6240","boring_xml_url":64,"boring_view_url":1,"soilmap_view_url":null,"soiltest_xml_url":0,"soiltest_view_url":0}]}}