{"header":{"xyz":{"source":[],"mosaic":false},"page":6139,"raw":{"soiltest_result":"0","bbox":"57.598333,109.544722,1.933333,163.806111","page":"6139"},"conditions":{"soiltest_result":0,"north":57.598333,"west":109.544722,"south":1.933333,"east":163.806111},"success":true,"message":""},"data":{"meta":{"total":212844,"page":6139,"pages":7095,"count":30},"values":[{"id":136405,"code":"B4KJ201801002-4654","latitude":"38.44558","longitude":"141.32764","source_code":"TH2009824100S49-020002","project_name":"","survey_name":"\u771f\u91ce\u5ddd\u6c34\u9580\u5730\u76e4\u8abf\u67fb","client_name":"\u56fd\u571f\u4ea4\u901a\u7701\u6771\u5317\u5730\u65b9\u6574\u5099\u5c40\u5317\u4e0a\u5ddd\u4e0b\u6d41\u6cb3\u5ddd\u4e8b\u52d9\u6240","boring_xml_url":49,"boring_view_url":1,"soilmap_view_url":null,"soiltest_xml_url":52,"soiltest_view_url":52},{"id":136404,"code":"B4KJ201801002-4653","latitude":"38.44508","longitude":"141.32831","source_code":"TH2009824100S49-020001","project_name":"","survey_name":"\u771f\u91ce\u5ddd\u6c34\u9580\u5730\u76e4\u8abf\u67fb","client_name":"\u56fd\u571f\u4ea4\u901a\u7701\u6771\u5317\u5730\u65b9\u6574\u5099\u5c40\u5317\u4e0a\u5ddd\u4e0b\u6d41\u6cb3\u5ddd\u4e8b\u52d9\u6240","boring_xml_url":49,"boring_view_url":1,"soilmap_view_url":null,"soiltest_xml_url":52,"soiltest_view_url":52},{"id":136403,"code":"B4KJ201801002-4652","latitude":"38.60389","longitude":"141.30119","source_code":"TH2009824100S49-010004","project_name":"","survey_name":"\u662d\u548c49\u5e74\u5ea6 \u5357\u6ca2\u6c34\u9580\u5730\u76e4\u8abf\u67fb\u696d\u52d9\u59d4\u8a17","client_name":"\u56fd\u571f\u4ea4\u901a\u7701\u6771\u5317\u5730\u65b9\u6574\u5099\u5c40\u5317\u4e0a\u5ddd\u4e0b\u6d41\u6cb3\u5ddd\u4e8b\u52d9\u6240","boring_xml_url":49,"boring_view_url":1,"soilmap_view_url":null,"soiltest_xml_url":0,"soiltest_view_url":0},{"id":136402,"code":"B4KJ201801002-4651","latitude":"38.60417","longitude":"141.30164","source_code":"TH2009824100S49-010003","project_name":"","survey_name":"\u662d\u548c49\u5e74\u5ea6 \u5357\u6ca2\u6c34\u9580\u5730\u76e4\u8abf\u67fb\u696d\u52d9\u59d4\u8a17","client_name":"\u56fd\u571f\u4ea4\u901a\u7701\u6771\u5317\u5730\u65b9\u6574\u5099\u5c40\u5317\u4e0a\u5ddd\u4e0b\u6d41\u6cb3\u5ddd\u4e8b\u52d9\u6240","boring_xml_url":49,"boring_view_url":1,"soilmap_view_url":null,"soiltest_xml_url":0,"soiltest_view_url":0},{"id":136401,"code":"B4KJ201801002-4650","latitude":"38.604","longitude":"141.30178","source_code":"TH2009824100S49-010002","project_name":"","survey_name":"\u662d\u548c49\u5e74\u5ea6 \u5357\u6ca2\u6c34\u9580\u5730\u76e4\u8abf\u67fb\u696d\u52d9\u59d4\u8a17","client_name":"\u56fd\u571f\u4ea4\u901a\u7701\u6771\u5317\u5730\u65b9\u6574\u5099\u5c40\u5317\u4e0a\u5ddd\u4e0b\u6d41\u6cb3\u5ddd\u4e8b\u52d9\u6240","boring_xml_url":49,"boring_view_url":1,"soilmap_view_url":null,"soiltest_xml_url":0,"soiltest_view_url":0},{"id":136400,"code":"B4KJ201801002-4649","latitude":"38.60433","longitude":"141.30144","source_code":"TH2009824100S49-010001","project_name":"\u67f3\u6d25\u6c34\u9580\u5730\u76e4\u8abf\u67fb","survey_name":"\u662d\u548c49\u5e74\u5ea6 \u5357\u6ca2\u6c34\u9580\u5730\u76e4\u8abf\u67fb\u696d\u52d9\u59d4\u8a17","client_name":"\u56fd\u571f\u4ea4\u901a\u7701\u6771\u5317\u5730\u65b9\u6574\u5099\u5c40\u5317\u4e0a\u5ddd\u4e0b\u6d41\u6cb3\u5ddd\u4e8b\u52d9\u6240","boring_xml_url":49,"boring_view_url":1,"soilmap_view_url":null,"soiltest_xml_url":0,"soiltest_view_url":0},{"id":136399,"code":"B4KJ201801002-4648","latitude":"38.602","longitude":"141.29092","source_code":"TH2009824100S48-060006","project_name":"","survey_name":"\u9d07\u6ce2\u53ca\u5f8c\u8c37\u5730\u5730\u533a\u5730\u76e4\u8abf\u67fb","client_name":"\u56fd\u571f\u4ea4\u901a\u7701\u6771\u5317\u5730\u65b9\u6574\u5099\u5c40\u5317\u4e0a\u5ddd\u4e0b\u6d41\u6cb3\u5ddd\u4e8b\u52d9\u6240","boring_xml_url":49,"boring_view_url":1,"soilmap_view_url":null,"soiltest_xml_url":0,"soiltest_view_url":0},{"id":136398,"code":"B4KJ201801002-4647","latitude":"38.60294","longitude":"141.29114","source_code":"TH2009824100S48-060005","project_name":"","survey_name":"\u9d07\u6ce2\u53ca\u5f8c\u8c37\u5730\u5730\u533a\u5730\u76e4\u8abf\u67fb","client_name":"\u56fd\u571f\u4ea4\u901a\u7701\u6771\u5317\u5730\u65b9\u6574\u5099\u5c40\u5317\u4e0a\u5ddd\u4e0b\u6d41\u6cb3\u5ddd\u4e8b\u52d9\u6240","boring_xml_url":49,"boring_view_url":1,"soilmap_view_url":null,"soiltest_xml_url":52,"soiltest_view_url":52},{"id":136397,"code":"B4KJ201801002-4646","latitude":"38.60342","longitude":"141.29336","source_code":"TH2009824100S48-060004","project_name":"","survey_name":"\u9d07\u6ce2\u53ca\u5f8c\u8c37\u5730\u5730\u533a\u5730\u76e4\u8abf\u67fb","client_name":"\u56fd\u571f\u4ea4\u901a\u7701\u6771\u5317\u5730\u65b9\u6574\u5099\u5c40\u5317\u4e0a\u5ddd\u4e0b\u6d41\u6cb3\u5ddd\u4e8b\u52d9\u6240","boring_xml_url":49,"boring_view_url":1,"soilmap_view_url":null,"soiltest_xml_url":52,"soiltest_view_url":52},{"id":136396,"code":"B4KJ201801002-4645","latitude":"38.60567","longitude":"141.2925","source_code":"TH2009824100S48-060003","project_name":"","survey_name":"\u9d07\u6ce2\u53ca\u5f8c\u8c37\u5730\u5730\u533a\u5730\u76e4\u8abf\u67fb","client_name":"\u56fd\u571f\u4ea4\u901a\u7701\u6771\u5317\u5730\u65b9\u6574\u5099\u5c40\u5317\u4e0a\u5ddd\u4e0b\u6d41\u6cb3\u5ddd\u4e8b\u52d9\u6240","boring_xml_url":49,"boring_view_url":1,"soilmap_view_url":null,"soiltest_xml_url":52,"soiltest_view_url":52},{"id":136395,"code":"B4KJ201801002-4644","latitude":"38.60706","longitude":"141.29183","source_code":"TH2009824100S48-060002","project_name":"","survey_name":"\u9d07\u6ce2\u53ca\u5f8c\u8c37\u5730\u5730\u533a\u5730\u76e4\u8abf\u67fb","client_name":"\u56fd\u571f\u4ea4\u901a\u7701\u6771\u5317\u5730\u65b9\u6574\u5099\u5c40\u5317\u4e0a\u5ddd\u4e0b\u6d41\u6cb3\u5ddd\u4e8b\u52d9\u6240","boring_xml_url":49,"boring_view_url":1,"soilmap_view_url":null,"soiltest_xml_url":0,"soiltest_view_url":0},{"id":136394,"code":"B4KJ201801002-4643","latitude":"38.60744","longitude":"141.29147","source_code":"TH2009824100S48-060001","project_name":"","survey_name":"\u9d07\u6ce2\u53ca\u5f8c\u8c37\u5730\u5730\u533a\u5730\u76e4\u8abf\u67fb","client_name":"\u56fd\u571f\u4ea4\u901a\u7701\u6771\u5317\u5730\u65b9\u6574\u5099\u5c40\u5317\u4e0a\u5ddd\u4e0b\u6d41\u6cb3\u5ddd\u4e8b\u52d9\u6240","boring_xml_url":49,"boring_view_url":1,"soilmap_view_url":null,"soiltest_xml_url":52,"soiltest_view_url":52},{"id":136393,"code":"B4KJ201801002-4642","latitude":"38.52853","longitude":"141.14581","source_code":"TH2009824100S48-050004","project_name":"","survey_name":"\u662d\u548c48\u5e74\u5ea6 \u5317\u4e0a\u5ddd\u53ca\u3073\u9cf4\u702c\u5ddd\u6c34\u7cfb\u5730\u4e0b\u6c34\u8abf\u67fb","client_name":"\u56fd\u571f\u4ea4\u901a\u7701\u6771\u5317\u5730\u65b9\u6574\u5099\u5c40\u5317\u4e0a\u5ddd\u4e0b\u6d41\u6cb3\u5ddd\u4e8b\u52d9\u6240","boring_xml_url":49,"boring_view_url":1,"soilmap_view_url":null,"soiltest_xml_url":52,"soiltest_view_url":52},{"id":136392,"code":"B4KJ201801002-4641","latitude":"38.56617","longitude":"140.95436","source_code":"TH2009824100S48-050003","project_name":"","survey_name":"\u662d\u548c48\u5e74\u5ea6 \u5317\u4e0a\u5ddd\u53ca\u3073\u9cf4\u702c\u5ddd\u6c34\u7cfb\u5730\u4e0b\u6c34\u8abf\u67fb","client_name":"\u56fd\u571f\u4ea4\u901a\u7701\u6771\u5317\u5730\u65b9\u6574\u5099\u5c40\u5317\u4e0a\u5ddd\u4e0b\u6d41\u6cb3\u5ddd\u4e8b\u52d9\u6240","boring_xml_url":49,"boring_view_url":1,"soilmap_view_url":null,"soiltest_xml_url":52,"soiltest_view_url":52},{"id":136391,"code":"B4KJ201801002-4640","latitude":"38.49978","longitude":"141.13642","source_code":"TH2009824100S48-050002","project_name":"","survey_name":"\u662d\u548c48\u5e74\u5ea6 \u5317\u4e0a\u5ddd\u53ca\u3073\u9cf4\u702c\u5ddd\u6c34\u7cfb\u5730\u4e0b\u6c34\u8abf\u67fb","client_name":"\u56fd\u571f\u4ea4\u901a\u7701\u6771\u5317\u5730\u65b9\u6574\u5099\u5c40\u5317\u4e0a\u5ddd\u4e0b\u6d41\u6cb3\u5ddd\u4e8b\u52d9\u6240","boring_xml_url":49,"boring_view_url":1,"soilmap_view_url":null,"soiltest_xml_url":52,"soiltest_view_url":52},{"id":136390,"code":"B4KJ201801002-4639","latitude":"38.44328","longitude":"141.28586","source_code":"TH2009824100S48-050001","project_name":"","survey_name":"\u662d\u548c48\u5e74\u5ea6 \u5317\u4e0a\u5ddd\u53ca\u3073\u9cf4\u702c\u5ddd\u6c34\u7cfb\u5730\u4e0b\u6c34\u8abf\u67fb","client_name":"\u56fd\u571f\u4ea4\u901a\u7701\u6771\u5317\u5730\u65b9\u6574\u5099\u5c40\u5317\u4e0a\u5ddd\u4e0b\u6d41\u6cb3\u5ddd\u4e8b\u52d9\u6240","boring_xml_url":49,"boring_view_url":1,"soilmap_view_url":null,"soiltest_xml_url":52,"soiltest_view_url":52},{"id":136389,"code":"B4KJ201801002-4638","latitude":"38.69178","longitude":"141.29283","source_code":"TH2009824100S48-040006","project_name":"","survey_name":"\u662d\u548c48\u5e74\u5ea6 \u5317\u4e0a\u5ddd\u4e0b\u6d41(\u7c73\u8c37\u5730\u533a)\u5730\u76e4\u8abf\u67fb\u696d\u52d9\u59d4\u8a17","client_name":"\u56fd\u571f\u4ea4\u901a\u7701\u6771\u5317\u5730\u65b9\u6574\u5099\u5c40\u5317\u4e0a\u5ddd\u4e0b\u6d41\u6cb3\u5ddd\u4e8b\u52d9\u6240","boring_xml_url":49,"boring_view_url":1,"soilmap_view_url":null,"soiltest_xml_url":0,"soiltest_view_url":0},{"id":136388,"code":"B4KJ201801002-4637","latitude":"38.69183","longitude":"141.29194","source_code":"TH2009824100S48-040005","project_name":"","survey_name":"\u662d\u548c48\u5e74\u5ea6 \u5317\u4e0a\u5ddd\u4e0b\u6d41(\u7c73\u8c37\u5730\u533a)\u5730\u76e4\u8abf\u67fb\u696d\u52d9\u59d4\u8a17","client_name":"\u56fd\u571f\u4ea4\u901a\u7701\u6771\u5317\u5730\u65b9\u6574\u5099\u5c40\u5317\u4e0a\u5ddd\u4e0b\u6d41\u6cb3\u5ddd\u4e8b\u52d9\u6240","boring_xml_url":49,"boring_view_url":1,"soilmap_view_url":null,"soiltest_xml_url":0,"soiltest_view_url":0},{"id":136387,"code":"B4KJ201801002-4636","latitude":"38.69025","longitude":"141.29167","source_code":"TH2009824100S48-040004","project_name":"","survey_name":"\u662d\u548c48\u5e74\u5ea6 \u5317\u4e0a\u5ddd\u4e0b\u6d41(\u7c73\u8c37\u5730\u533a)\u5730\u76e4\u8abf\u67fb\u696d\u52d9\u59d4\u8a17","client_name":"\u56fd\u571f\u4ea4\u901a\u7701\u6771\u5317\u5730\u65b9\u6574\u5099\u5c40\u5317\u4e0a\u5ddd\u4e0b\u6d41\u6cb3\u5ddd\u4e8b\u52d9\u6240","boring_xml_url":49,"boring_view_url":1,"soilmap_view_url":null,"soiltest_xml_url":0,"soiltest_view_url":0},{"id":136386,"code":"B4KJ201801002-4635","latitude":"38.69008","longitude":"141.29156","source_code":"TH2009824100S48-040003","project_name":"","survey_name":"\u662d\u548c48\u5e74\u5ea6 \u5317\u4e0a\u5ddd\u4e0b\u6d41(\u7c73\u8c37\u5730\u533a)\u5730\u76e4\u8abf\u67fb\u696d\u52d9\u59d4\u8a17","client_name":"\u56fd\u571f\u4ea4\u901a\u7701\u6771\u5317\u5730\u65b9\u6574\u5099\u5c40\u5317\u4e0a\u5ddd\u4e0b\u6d41\u6cb3\u5ddd\u4e8b\u52d9\u6240","boring_xml_url":49,"boring_view_url":1,"soilmap_view_url":null,"soiltest_xml_url":0,"soiltest_view_url":0},{"id":136385,"code":"B4KJ201801002-4634","latitude":"38.52231","longitude":"140.91822","source_code":"TH2009824100S48-040002","project_name":"","survey_name":"\u662d\u548c48\u5e74\u5ea6 \u9cf4\u702c\u5ddd(\u4e09\u672c\u6728\u53f3\u5cb8\u4e0a\u6d41\u5730\u533a)\u5730\u76e4\u8abf\u67fb\u696d\u52d9\u59d4\u8a17","client_name":"\u56fd\u571f\u4ea4\u901a\u7701\u6771\u5317\u5730\u65b9\u6574\u5099\u5c40\u5317\u4e0a\u5ddd\u4e0b\u6d41\u6cb3\u5ddd\u4e8b\u52d9\u6240","boring_xml_url":49,"boring_view_url":1,"soilmap_view_url":null,"soiltest_xml_url":0,"soiltest_view_url":0},{"id":136384,"code":"B4KJ201801002-4633","latitude":"38.52256","longitude":"140.91817","source_code":"TH2009824100S48-040001","project_name":"","survey_name":"\u662d\u548c48\u5e74\u5ea6 \u9cf4\u702c\u5ddd(\u4e09\u672c\u6728\u53f3\u5cb8\u4e0a\u6d41\u5730\u533a)\u5730\u76e4\u8abf\u67fb\u696d\u52d9\u59d4\u8a17","client_name":"\u56fd\u571f\u4ea4\u901a\u7701\u6771\u5317\u5730\u65b9\u6574\u5099\u5c40\u5317\u4e0a\u5ddd\u4e0b\u6d41\u6cb3\u5ddd\u4e8b\u52d9\u6240","boring_xml_url":49,"boring_view_url":1,"soilmap_view_url":null,"soiltest_xml_url":0,"soiltest_view_url":0},{"id":136383,"code":"B4KJ201801002-4632","latitude":"38.53647","longitude":"141.14353","source_code":"TH2009824100S48-030003","project_name":"","survey_name":"\u662d\u548c48\u5e74\u5ea6 \u4f50\u5e73\u6b21\u63da\u6392\u6c34\u6a5f\u5834\u5b9f\u65bd\u8a2d\u8a08\u696d\u52d9\u59d4\u8a17 \u5730\u76e4\u8abf\u67fb","client_name":"\u56fd\u571f\u4ea4\u901a\u7701\u6771\u5317\u5730\u65b9\u6574\u5099\u5c40\u5317\u4e0a\u5ddd\u4e0b\u6d41\u6cb3\u5ddd\u4e8b\u52d9\u6240","boring_xml_url":49,"boring_view_url":1,"soilmap_view_url":null,"soiltest_xml_url":0,"soiltest_view_url":0},{"id":136382,"code":"B4KJ201801002-4631","latitude":"38.535","longitude":"141.14314","source_code":"TH2009824100S48-030002","project_name":"","survey_name":"\u662d\u548c48\u5e74\u5ea6 \u4f50\u5e73\u6b21\u63da\u6392\u6c34\u6a5f\u5834\u5b9f\u65bd\u8a2d\u8a08\u696d\u52d9\u59d4\u8a17 \u5730\u76e4\u8abf\u67fb","client_name":"\u56fd\u571f\u4ea4\u901a\u7701\u6771\u5317\u5730\u65b9\u6574\u5099\u5c40\u5317\u4e0a\u5ddd\u4e0b\u6d41\u6cb3\u5ddd\u4e8b\u52d9\u6240","boring_xml_url":49,"boring_view_url":1,"soilmap_view_url":null,"soiltest_xml_url":0,"soiltest_view_url":0},{"id":136381,"code":"B4KJ201801002-4630","latitude":"38.53472","longitude":"141.14272","source_code":"TH2009824100S48-030001","project_name":"","survey_name":"\u662d\u548c48\u5e74\u5ea6 \u4f50\u5e73\u6b21\u63da\u6392\u6c34\u6a5f\u5834\u5b9f\u65bd\u8a2d\u8a08\u696d\u52d9\u59d4\u8a17 \u5730\u76e4\u8abf\u67fb","client_name":"\u56fd\u571f\u4ea4\u901a\u7701\u6771\u5317\u5730\u65b9\u6574\u5099\u5c40\u5317\u4e0a\u5ddd\u4e0b\u6d41\u6cb3\u5ddd\u4e8b\u52d9\u6240","boring_xml_url":49,"boring_view_url":1,"soilmap_view_url":null,"soiltest_xml_url":0,"soiltest_view_url":0},{"id":136380,"code":"B4KJ201801002-4629","latitude":"38.51539","longitude":"141.30344","source_code":"TH2009824100S48-020003","project_name":"","survey_name":"\u67f3\u6d25\u6c34\u9580\u5b9f\u65bd\u8a2d\u8a08\u696d\u52d9\u59d4\u8a17","client_name":"\u56fd\u571f\u4ea4\u901a\u7701\u6771\u5317\u5730\u65b9\u6574\u5099\u5c40\u5317\u4e0a\u5ddd\u4e0b\u6d41\u6cb3\u5ddd\u4e8b\u52d9\u6240","boring_xml_url":49,"boring_view_url":1,"soilmap_view_url":null,"soiltest_xml_url":0,"soiltest_view_url":0},{"id":136379,"code":"B4KJ201801002-4628","latitude":"38.51539","longitude":"141.30344","source_code":"TH2009824100S48-020002","project_name":"","survey_name":"\u67f3\u6d25\u6c34\u9580\u5b9f\u65bd\u8a2d\u8a08\u696d\u52d9\u59d4\u8a17","client_name":"\u56fd\u571f\u4ea4\u901a\u7701\u6771\u5317\u5730\u65b9\u6574\u5099\u5c40\u5317\u4e0a\u5ddd\u4e0b\u6d41\u6cb3\u5ddd\u4e8b\u52d9\u6240","boring_xml_url":49,"boring_view_url":1,"soilmap_view_url":null,"soiltest_xml_url":0,"soiltest_view_url":0},{"id":136378,"code":"B4KJ201801002-4627","latitude":"38.60461","longitude":"141.30119","source_code":"TH2009824100S48-020001","project_name":"","survey_name":"\u67f3\u6d25\u6c34\u9580\u5b9f\u65bd\u8a2d\u8a08\u696d\u52d9\u59d4\u8a17","client_name":"\u56fd\u571f\u4ea4\u901a\u7701\u6771\u5317\u5730\u65b9\u6574\u5099\u5c40\u5317\u4e0a\u5ddd\u4e0b\u6d41\u6cb3\u5ddd\u4e8b\u52d9\u6240","boring_xml_url":49,"boring_view_url":1,"soilmap_view_url":null,"soiltest_xml_url":0,"soiltest_view_url":0},{"id":136377,"code":"B4KJ201801002-4626","latitude":"38.60494","longitude":"141.30328","source_code":"TH2009824100S48-010006","project_name":"","survey_name":"\u662d\u548c48\u5e74\u5ea6 \u67f3\u6d25\u6c34\u9580\u5730\u76e4\u8abf\u67fb\u696d\u52d9\u59d4\u8a17","client_name":"\u56fd\u571f\u4ea4\u901a\u7701\u6771\u5317\u5730\u65b9\u6574\u5099\u5c40\u5317\u4e0a\u5ddd\u4e0b\u6d41\u6cb3\u5ddd\u4e8b\u52d9\u6240","boring_xml_url":49,"boring_view_url":1,"soilmap_view_url":null,"soiltest_xml_url":0,"soiltest_view_url":0},{"id":136376,"code":"B4KJ201801002-4625","latitude":"38.60467","longitude":"141.30306","source_code":"TH2009824100S48-010005","project_name":"","survey_name":"\u662d\u548c48\u5e74\u5ea6 \u67f3\u6d25\u6c34\u9580\u5730\u76e4\u8abf\u67fb\u696d\u52d9\u59d4\u8a17","client_name":"\u56fd\u571f\u4ea4\u901a\u7701\u6771\u5317\u5730\u65b9\u6574\u5099\u5c40\u5317\u4e0a\u5ddd\u4e0b\u6d41\u6cb3\u5ddd\u4e8b\u52d9\u6240","boring_xml_url":49,"boring_view_url":1,"soilmap_view_url":null,"soiltest_xml_url":0,"soiltest_view_url":0}]}}