{"header":{"xyz":{"source":[],"mosaic":false},"page":6142,"raw":{"soiltest_result":"0","bbox":"57.598333,109.544722,1.933333,163.806111","page":"6142"},"conditions":{"soiltest_result":0,"north":57.598333,"west":109.544722,"south":1.933333,"east":163.806111},"success":true,"message":""},"data":{"meta":{"total":212844,"page":6142,"pages":7095,"count":30},"values":[{"id":136315,"code":"B4KJ201801002-4564","latitude":"38.52536","longitude":"141.05861","source_code":"TH2009824100S46-070008","project_name":"","survey_name":"\u662d\u548c46\u5e74\u5ea6\u7b2c\u4e8c\u671f\u5730\u4e0b\u6c34\u8abf\u67fb","client_name":"\u56fd\u571f\u4ea4\u901a\u7701\u6771\u5317\u5730\u65b9\u6574\u5099\u5c40\u5317\u4e0a\u5ddd\u4e0b\u6d41\u6cb3\u5ddd\u4e8b\u52d9\u6240","boring_xml_url":49,"boring_view_url":1,"soilmap_view_url":null,"soiltest_xml_url":0,"soiltest_view_url":0},{"id":136314,"code":"B4KJ201801002-4563","latitude":"38.52683","longitude":"141.08225","source_code":"TH2009824100S46-070007","project_name":"","survey_name":"\u662d\u548c46\u5e74\u5ea6\u7b2c\u4e8c\u671f\u5730\u4e0b\u6c34\u8abf\u67fb","client_name":"\u56fd\u571f\u4ea4\u901a\u7701\u6771\u5317\u5730\u65b9\u6574\u5099\u5c40\u5317\u4e0a\u5ddd\u4e0b\u6d41\u6cb3\u5ddd\u4e8b\u52d9\u6240","boring_xml_url":49,"boring_view_url":1,"soilmap_view_url":null,"soiltest_xml_url":0,"soiltest_view_url":0},{"id":136313,"code":"B4KJ201801002-4562","latitude":"38.52258","longitude":"141.09428","source_code":"TH2009824100S46-070006","project_name":"","survey_name":"\u662d\u548c46\u5e74\u5ea6\u7b2c\u4e8c\u671f\u5730\u4e0b\u6c34\u8abf\u67fb","client_name":"\u56fd\u571f\u4ea4\u901a\u7701\u6771\u5317\u5730\u65b9\u6574\u5099\u5c40\u5317\u4e0a\u5ddd\u4e0b\u6d41\u6cb3\u5ddd\u4e8b\u52d9\u6240","boring_xml_url":49,"boring_view_url":1,"soilmap_view_url":null,"soiltest_xml_url":0,"soiltest_view_url":0},{"id":136312,"code":"B4KJ201801002-4561","latitude":"38.52178","longitude":"141.10167","source_code":"TH2009824100S46-070005","project_name":"","survey_name":"\u662d\u548c46\u5e74\u5ea6\u7b2c\u4e8c\u671f\u5730\u4e0b\u6c34\u8abf\u67fb","client_name":"\u56fd\u571f\u4ea4\u901a\u7701\u6771\u5317\u5730\u65b9\u6574\u5099\u5c40\u5317\u4e0a\u5ddd\u4e0b\u6d41\u6cb3\u5ddd\u4e8b\u52d9\u6240","boring_xml_url":49,"boring_view_url":1,"soilmap_view_url":null,"soiltest_xml_url":0,"soiltest_view_url":0},{"id":136311,"code":"B4KJ201801002-4560","latitude":"38.51247","longitude":"141.10358","source_code":"TH2009824100S46-070004","project_name":"","survey_name":"\u662d\u548c46\u5e74\u5ea6\u7b2c\u4e8c\u671f\u5730\u4e0b\u6c34\u8abf\u67fb","client_name":"\u56fd\u571f\u4ea4\u901a\u7701\u6771\u5317\u5730\u65b9\u6574\u5099\u5c40\u5317\u4e0a\u5ddd\u4e0b\u6d41\u6cb3\u5ddd\u4e8b\u52d9\u6240","boring_xml_url":49,"boring_view_url":1,"soilmap_view_url":null,"soiltest_xml_url":0,"soiltest_view_url":0},{"id":136310,"code":"B4KJ201801002-4559","latitude":"38.52103","longitude":"141.14431","source_code":"TH2009824100S46-070003","project_name":"","survey_name":"\u662d\u548c46\u5e74\u5ea6\u7b2c\u4e8c\u671f\u5730\u4e0b\u6c34\u8abf\u67fb","client_name":"\u56fd\u571f\u4ea4\u901a\u7701\u6771\u5317\u5730\u65b9\u6574\u5099\u5c40\u5317\u4e0a\u5ddd\u4e0b\u6d41\u6cb3\u5ddd\u4e8b\u52d9\u6240","boring_xml_url":49,"boring_view_url":1,"soilmap_view_url":null,"soiltest_xml_url":0,"soiltest_view_url":0},{"id":136309,"code":"B4KJ201801002-4558","latitude":"38.51603","longitude":"141.13614","source_code":"TH2009824100S46-070002","project_name":"","survey_name":"\u662d\u548c46\u5e74\u5ea6\u7b2c\u4e8c\u671f\u5730\u4e0b\u6c34\u8abf\u67fb","client_name":"\u56fd\u571f\u4ea4\u901a\u7701\u6771\u5317\u5730\u65b9\u6574\u5099\u5c40\u5317\u4e0a\u5ddd\u4e0b\u6d41\u6cb3\u5ddd\u4e8b\u52d9\u6240","boring_xml_url":49,"boring_view_url":1,"soilmap_view_url":null,"soiltest_xml_url":0,"soiltest_view_url":0},{"id":136308,"code":"B4KJ201801002-4557","latitude":"38.51039","longitude":"141.1265","source_code":"TH2009824100S46-070001","project_name":"","survey_name":"\u662d\u548c46\u5e74\u5ea6\u7b2c\u4e8c\u671f\u5730\u4e0b\u6c34\u8abf\u67fb","client_name":"\u56fd\u571f\u4ea4\u901a\u7701\u6771\u5317\u5730\u65b9\u6574\u5099\u5c40\u5317\u4e0a\u5ddd\u4e0b\u6d41\u6cb3\u5ddd\u4e8b\u52d9\u6240","boring_xml_url":49,"boring_view_url":1,"soilmap_view_url":null,"soiltest_xml_url":0,"soiltest_view_url":0},{"id":136307,"code":"B4KJ201801002-4556","latitude":"38.57367","longitude":"141.4475","source_code":"TH2009824100S46-060003","project_name":"","survey_name":"\u767b\u7c73\u5824\u9632\u5730\u8cea\u8abf\u67fb\u306e\u5185 \u6708\u6d5c\u7b2c\u4e8c\u6c34\u9580\u57fa\u790e\u5730\u76e4\u8abf\u67fb","client_name":"\u56fd\u571f\u4ea4\u901a\u7701\u6771\u5317\u5730\u65b9\u6574\u5099\u5c40\u5317\u4e0a\u5ddd\u4e0b\u6d41\u6cb3\u5ddd\u4e8b\u52d9\u6240","boring_xml_url":49,"boring_view_url":1,"soilmap_view_url":null,"soiltest_xml_url":0,"soiltest_view_url":0},{"id":136306,"code":"B4KJ201801002-4555","latitude":"38.57367","longitude":"141.44747","source_code":"TH2009824100S46-060002","project_name":"","survey_name":"\u767b\u7c73\u5824\u9632\u5730\u8cea\u8abf\u67fb\u306e\u5185 \u6708\u6d5c\u7b2c\u4e8c\u6c34\u9580\u57fa\u790e\u5730\u76e4\u8abf\u67fb","client_name":"\u56fd\u571f\u4ea4\u901a\u7701\u6771\u5317\u5730\u65b9\u6574\u5099\u5c40\u5317\u4e0a\u5ddd\u4e0b\u6d41\u6cb3\u5ddd\u4e8b\u52d9\u6240","boring_xml_url":49,"boring_view_url":1,"soilmap_view_url":null,"soiltest_xml_url":0,"soiltest_view_url":0},{"id":136305,"code":"B4KJ201801002-4554","latitude":"38.57369","longitude":"141.44744","source_code":"TH2009824100S46-060001","project_name":"","survey_name":"\u767b\u7c73\u5824\u9632\u5730\u8cea\u8abf\u67fb\u306e\u5185 \u6708\u6d5c\u7b2c\u4e8c\u6c34\u9580\u57fa\u790e\u5730\u76e4\u8abf\u67fb","client_name":"\u56fd\u571f\u4ea4\u901a\u7701\u6771\u5317\u5730\u65b9\u6574\u5099\u5c40\u5317\u4e0a\u5ddd\u4e0b\u6d41\u6cb3\u5ddd\u4e8b\u52d9\u6240","boring_xml_url":49,"boring_view_url":1,"soilmap_view_url":null,"soiltest_xml_url":0,"soiltest_view_url":0},{"id":136304,"code":"B4KJ201801002-4553","latitude":"38.65803","longitude":"141.28578","source_code":"TH2009824100S46-050008","project_name":"","survey_name":"\u767b\u7c73\u5824\u9632\u8abf\u67fb\u5730\u8cea","client_name":"\u56fd\u571f\u4ea4\u901a\u7701\u6771\u5317\u5730\u65b9\u6574\u5099\u5c40\u5317\u4e0a\u5ddd\u4e0b\u6d41\u6cb3\u5ddd\u4e8b\u52d9\u6240","boring_xml_url":49,"boring_view_url":1,"soilmap_view_url":null,"soiltest_xml_url":0,"soiltest_view_url":0},{"id":136303,"code":"B4KJ201801002-4552","latitude":"38.65778","longitude":"141.28569","source_code":"TH2009824100S46-050007","project_name":"","survey_name":"\u767b\u7c73\u5824\u9632\u5730\u8cea\u8abf\u67fb","client_name":"\u56fd\u571f\u4ea4\u901a\u7701\u6771\u5317\u5730\u65b9\u6574\u5099\u5c40\u5317\u4e0a\u5ddd\u4e0b\u6d41\u6cb3\u5ddd\u4e8b\u52d9\u6240","boring_xml_url":49,"boring_view_url":1,"soilmap_view_url":null,"soiltest_xml_url":0,"soiltest_view_url":0},{"id":136302,"code":"B4KJ201801002-4551","latitude":"38.65775","longitude":"141.28583","source_code":"TH2009824100S46-050006","project_name":"","survey_name":"\u767b\u7c73\u5824\u9632\u5730\u8cea\u8abf\u67fb","client_name":"\u56fd\u571f\u4ea4\u901a\u7701\u6771\u5317\u5730\u65b9\u6574\u5099\u5c40\u5317\u4e0a\u5ddd\u4e0b\u6d41\u6cb3\u5ddd\u4e8b\u52d9\u6240","boring_xml_url":49,"boring_view_url":1,"soilmap_view_url":null,"soiltest_xml_url":0,"soiltest_view_url":0},{"id":136301,"code":"B4KJ201801002-4550","latitude":"38.65772","longitude":"141.28603","source_code":"TH2009824100S46-050005","project_name":"","survey_name":"\u767b\u7c73\u5824\u9632\u5730\u8cea\u8abf\u67fb","client_name":"\u56fd\u571f\u4ea4\u901a\u7701\u6771\u5317\u5730\u65b9\u6574\u5099\u5c40\u5317\u4e0a\u5ddd\u4e0b\u6d41\u6cb3\u5ddd\u4e8b\u52d9\u6240","boring_xml_url":49,"boring_view_url":1,"soilmap_view_url":null,"soiltest_xml_url":0,"soiltest_view_url":0},{"id":136300,"code":"B4KJ201801002-4549","latitude":"38.65761","longitude":"141.28564","source_code":"TH2009824100S46-050004","project_name":"","survey_name":"\u767b\u7c73\u5824\u9632\u8abf\u67fb","client_name":"\u56fd\u571f\u4ea4\u901a\u7701\u6771\u5317\u5730\u65b9\u6574\u5099\u5c40\u5317\u4e0a\u5ddd\u4e0b\u6d41\u6cb3\u5ddd\u4e8b\u52d9\u6240","boring_xml_url":49,"boring_view_url":1,"soilmap_view_url":null,"soiltest_xml_url":0,"soiltest_view_url":0},{"id":136299,"code":"B4KJ201801002-4548","latitude":"38.65758","longitude":"141.28578","source_code":"TH2009824100S46-050003","project_name":"","survey_name":"\u767b\u7c73\u5824\u9632\u5730\u8cea\u8abf\u67fb","client_name":"\u56fd\u571f\u4ea4\u901a\u7701\u6771\u5317\u5730\u65b9\u6574\u5099\u5c40\u5317\u4e0a\u5ddd\u4e0b\u6d41\u6cb3\u5ddd\u4e8b\u52d9\u6240","boring_xml_url":49,"boring_view_url":1,"soilmap_view_url":null,"soiltest_xml_url":0,"soiltest_view_url":0},{"id":136298,"code":"B4KJ201801002-4547","latitude":"38.65756","longitude":"141.28597","source_code":"TH2009824100S46-050002","project_name":"","survey_name":"\u767b\u7c73\u5824\u9632\u5730\u8cea\u8abf\u67fb","client_name":"\u56fd\u571f\u4ea4\u901a\u7701\u6771\u5317\u5730\u65b9\u6574\u5099\u5c40\u5317\u4e0a\u5ddd\u4e0b\u6d41\u6cb3\u5ddd\u4e8b\u52d9\u6240","boring_xml_url":49,"boring_view_url":1,"soilmap_view_url":null,"soiltest_xml_url":0,"soiltest_view_url":0},{"id":136297,"code":"B4KJ201801002-4546","latitude":"38.65747","longitude":"141.28558","source_code":"TH2009824100S46-050001","project_name":"","survey_name":"\u767b\u7c73\u5824\u9632\u5730\u8cea\u8abf\u67fb","client_name":"\u56fd\u571f\u4ea4\u901a\u7701\u6771\u5317\u5730\u65b9\u6574\u5099\u5c40\u5317\u4e0a\u5ddd\u4e0b\u6d41\u6cb3\u5ddd\u4e8b\u52d9\u6240","boring_xml_url":49,"boring_view_url":1,"soilmap_view_url":null,"soiltest_xml_url":0,"soiltest_view_url":0},{"id":136296,"code":"B4KJ201801002-4545","latitude":"38.42628","longitude":"140.95244","source_code":"TH2009824100S46-040003","project_name":"","survey_name":"\u662d\u548c46\u5e74 \u609f\u6e13\u5bfa\u6a4b\u5730\u8cea\u8abf\u67fb","client_name":"\u56fd\u571f\u4ea4\u901a\u7701\u6771\u5317\u5730\u65b9\u6574\u5099\u5c40\u5317\u4e0a\u5ddd\u4e0b\u6d41\u6cb3\u5ddd\u4e8b\u52d9\u6240","boring_xml_url":49,"boring_view_url":1,"soilmap_view_url":null,"soiltest_xml_url":0,"soiltest_view_url":0},{"id":136295,"code":"B4KJ201801002-4544","latitude":"38.42697","longitude":"140.9525","source_code":"TH2009824100S46-040002","project_name":"","survey_name":"\u662d\u548c46\u5e74\u5ea6 \u609f\u6e13\u5bfa\u6a4b\u5730\u8cea\u8abf\u67fb","client_name":"\u56fd\u571f\u4ea4\u901a\u7701\u6771\u5317\u5730\u65b9\u6574\u5099\u5c40\u5317\u4e0a\u5ddd\u4e0b\u6d41\u6cb3\u5ddd\u4e8b\u52d9\u6240","boring_xml_url":49,"boring_view_url":1,"soilmap_view_url":null,"soiltest_xml_url":0,"soiltest_view_url":0},{"id":136294,"code":"B4KJ201801002-4543","latitude":"38.42783","longitude":"140.95256","source_code":"TH2009824100S46-040001","project_name":"","survey_name":"\u662d\u548c46\u5e74\u5ea6 \u609f\u6e13\u5bfa\u6a4b\u5730\u8cea\u8abf\u67fb","client_name":"\u56fd\u571f\u4ea4\u901a\u7701\u6771\u5317\u5730\u65b9\u6574\u5099\u5c40\u5317\u4e0a\u5ddd\u4e0b\u6d41\u6cb3\u5ddd\u4e8b\u52d9\u6240","boring_xml_url":49,"boring_view_url":1,"soilmap_view_url":null,"soiltest_xml_url":0,"soiltest_view_url":0},{"id":136293,"code":"B4KJ201801002-4542","latitude":"38.44247","longitude":"141.10642","source_code":"TH2009824100S46-030005","project_name":"","survey_name":"\u662d\u548c45\u5e74\u5ea6 \u938c\u5dfb\u5824\u9632\u5730\u8cea\u8abf\u67fb","client_name":"\u56fd\u571f\u4ea4\u901a\u7701\u6771\u5317\u5730\u65b9\u6574\u5099\u5c40\u5317\u4e0a\u5ddd\u4e0b\u6d41\u6cb3\u5ddd\u4e8b\u52d9\u6240","boring_xml_url":49,"boring_view_url":1,"soilmap_view_url":null,"soiltest_xml_url":52,"soiltest_view_url":52},{"id":136292,"code":"B4KJ201801002-4541","latitude":"38.44247","longitude":"141.10642","source_code":"TH2009824100S46-030004","project_name":"","survey_name":"\u662d\u548c45\u5e74\u5ea6 \u938c\u5dfb\u5824\u9632\u5730\u8cea\u8abf\u67fb","client_name":"\u56fd\u571f\u4ea4\u901a\u7701\u6771\u5317\u5730\u65b9\u6574\u5099\u5c40\u5317\u4e0a\u5ddd\u4e0b\u6d41\u6cb3\u5ddd\u4e8b\u52d9\u6240","boring_xml_url":49,"boring_view_url":1,"soilmap_view_url":null,"soiltest_xml_url":52,"soiltest_view_url":52},{"id":136291,"code":"B4KJ201801002-4540","latitude":"38.44247","longitude":"141.10642","source_code":"TH2009824100S46-030003","project_name":"","survey_name":"\u662d\u548c45\u5e74\u5ea6 \u938c\u5dfb\u5824\u9632\u5730\u8cea\u8abf\u67fb","client_name":"\u56fd\u571f\u4ea4\u901a\u7701\u6771\u5317\u5730\u65b9\u6574\u5099\u5c40\u5317\u4e0a\u5ddd\u4e0b\u6d41\u6cb3\u5ddd\u4e8b\u52d9\u6240","boring_xml_url":49,"boring_view_url":1,"soilmap_view_url":null,"soiltest_xml_url":52,"soiltest_view_url":52},{"id":136290,"code":"B4KJ201801002-4539","latitude":"38.44247","longitude":"141.10642","source_code":"TH2009824100S46-030002","project_name":"","survey_name":"\u662d\u548c45\u5e74\u5ea6\u938c\u5dfb\u5824\u9632\u5730\u8cea\u8abf\u67fb","client_name":"\u56fd\u571f\u4ea4\u901a\u7701\u6771\u5317\u5730\u65b9\u6574\u5099\u5c40\u5317\u4e0a\u5ddd\u4e0b\u6d41\u6cb3\u5ddd\u4e8b\u52d9\u6240","boring_xml_url":49,"boring_view_url":1,"soilmap_view_url":null,"soiltest_xml_url":52,"soiltest_view_url":52},{"id":136289,"code":"B4KJ201801002-4538","latitude":"38.44247","longitude":"141.10642","source_code":"TH2009824100S46-030001","project_name":"","survey_name":"\u662d\u548c45\u5e74\u5ea6 \u938c\u5dfb\u5824\u9632\u5730\u8cea\u8abf\u67fb","client_name":"\u56fd\u571f\u4ea4\u901a\u7701\u6771\u5317\u5730\u65b9\u6574\u5099\u5c40\u5317\u4e0a\u5ddd\u4e0b\u6d41\u6cb3\u5ddd\u4e8b\u52d9\u6240","boring_xml_url":49,"boring_view_url":1,"soilmap_view_url":null,"soiltest_xml_url":52,"soiltest_view_url":52},{"id":136288,"code":"B4KJ201801002-4537","latitude":"38.55622","longitude":"141.05878","source_code":"TH2009824100S46-020012","project_name":"","survey_name":"\u662d\u548c46\u5e74\u5ea6 \u9cf4\u702c\u5ddd\u7b4b\u5730\u4e0b\u6c34\u8abf\u67fb","client_name":"\u56fd\u571f\u4ea4\u901a\u7701\u6771\u5317\u5730\u65b9\u6574\u5099\u5c40\u5317\u4e0a\u5ddd\u4e0b\u6d41\u6cb3\u5ddd\u4e8b\u52d9\u6240","boring_xml_url":49,"boring_view_url":1,"soilmap_view_url":null,"soiltest_xml_url":0,"soiltest_view_url":0},{"id":136287,"code":"B4KJ201801002-4536","latitude":"38.547","longitude":"141.05919","source_code":"TH2009824100S46-020011","project_name":"","survey_name":"\u662d\u548c46\u5e74\u5ea6 \u9cf4\u702c\u5ddd\u7b4b\u5730\u4e0b\u6c34\u8abf\u67fb","client_name":"\u56fd\u571f\u4ea4\u901a\u7701\u6771\u5317\u5730\u65b9\u6574\u5099\u5c40\u5317\u4e0a\u5ddd\u4e0b\u6d41\u6cb3\u5ddd\u4e8b\u52d9\u6240","boring_xml_url":49,"boring_view_url":1,"soilmap_view_url":null,"soiltest_xml_url":0,"soiltest_view_url":0},{"id":136286,"code":"B4KJ201801002-4535","latitude":"38.53808","longitude":"141.05925","source_code":"TH2009824100S46-020010","project_name":"","survey_name":"\u662d\u548c46\u5e74\u5ea6 \u9cf4\u702c\u5ddd\u7b4b\u5730\u4e0b\u6c34\u8abf\u67fb","client_name":"\u56fd\u571f\u4ea4\u901a\u7701\u6771\u5317\u5730\u65b9\u6574\u5099\u5c40\u5317\u4e0a\u5ddd\u4e0b\u6d41\u6cb3\u5ddd\u4e8b\u52d9\u6240","boring_xml_url":49,"boring_view_url":1,"soilmap_view_url":null,"soiltest_xml_url":0,"soiltest_view_url":0}]}}