{"header":{"xyz":{"source":[],"mosaic":false},"page":6148,"raw":{"soiltest_result":"0","bbox":"57.598333,109.544722,1.933333,163.806111","page":"6148"},"conditions":{"soiltest_result":0,"north":57.598333,"west":109.544722,"south":1.933333,"east":163.806111},"success":true,"message":""},"data":{"meta":{"total":212844,"page":6148,"pages":7095,"count":30},"values":[{"id":136135,"code":"B4KJ201801002-4384","latitude":"38.53489","longitude":"141.30617","source_code":"TH2009824100S42-050015","project_name":"","survey_name":"\u67f3\u6d25\u30fb\u5165\u69cc\u30fb\u76f8\u91ce\u7530\u5730\u70b9\u5730\u8cea\u8abf\u67fb","client_name":"\u56fd\u571f\u4ea4\u901a\u7701\u6771\u5317\u5730\u65b9\u6574\u5099\u5c40\u5317\u4e0a\u5ddd\u4e0b\u6d41\u6cb3\u5ddd\u4e8b\u52d9\u6240","boring_xml_url":49,"boring_view_url":1,"soilmap_view_url":null,"soiltest_xml_url":0,"soiltest_view_url":0},{"id":136134,"code":"B4KJ201801002-4383","latitude":"38.53511","longitude":"141.30703","source_code":"TH2009824100S42-050014","project_name":"","survey_name":"\u67f3\u6d25\u30fb\u5165\u69cc\u30fb\u76f8\u91ce\u7530\u5730\u70b9\u5730\u8cea\u8abf\u67fb","client_name":"\u56fd\u571f\u4ea4\u901a\u7701\u6771\u5317\u5730\u65b9\u6574\u5099\u5c40\u5317\u4e0a\u5ddd\u4e0b\u6d41\u6cb3\u5ddd\u4e8b\u52d9\u6240","boring_xml_url":49,"boring_view_url":1,"soilmap_view_url":null,"soiltest_xml_url":0,"soiltest_view_url":0},{"id":136133,"code":"B4KJ201801002-4382","latitude":"38.53378","longitude":"141.30483","source_code":"TH2009824100S42-050013","project_name":"","survey_name":"\u67f3\u6d25\u30fb\u5165\u69cc\u30fb\u76f8\u91ce\u7530\u5730\u70b9\u5730\u8cea\u8abf\u67fb","client_name":"\u56fd\u571f\u4ea4\u901a\u7701\u6771\u5317\u5730\u65b9\u6574\u5099\u5c40\u5317\u4e0a\u5ddd\u4e0b\u6d41\u6cb3\u5ddd\u4e8b\u52d9\u6240","boring_xml_url":49,"boring_view_url":1,"soilmap_view_url":null,"soiltest_xml_url":52,"soiltest_view_url":52},{"id":136132,"code":"B4KJ201801002-4381","latitude":"38.53378","longitude":"141.30508","source_code":"TH2009824100S42-050012","project_name":"","survey_name":"\u67f3\u6d25\u30fb\u5165\u69cc\u30fb\u76f8\u91ce\u7530\u5730\u70b9\u5730\u8cea\u8abf\u67fb","client_name":"\u56fd\u571f\u4ea4\u901a\u7701\u6771\u5317\u5730\u65b9\u6574\u5099\u5c40\u5317\u4e0a\u5ddd\u4e0b\u6d41\u6cb3\u5ddd\u4e8b\u52d9\u6240","boring_xml_url":49,"boring_view_url":1,"soilmap_view_url":null,"soiltest_xml_url":0,"soiltest_view_url":0},{"id":136131,"code":"B4KJ201801002-4380","latitude":"38.53381","longitude":"141.30572","source_code":"TH2009824100S42-050011","project_name":"","survey_name":"\u67f3\u6d25\u30fb\u5165\u69cc\u30fb\u76f8\u91ce\u7530\u5730\u70b9\u5730\u8cea\u8abf\u67fb","client_name":"\u56fd\u571f\u4ea4\u901a\u7701\u6771\u5317\u5730\u65b9\u6574\u5099\u5c40\u5317\u4e0a\u5ddd\u4e0b\u6d41\u6cb3\u5ddd\u4e8b\u52d9\u6240","boring_xml_url":49,"boring_view_url":1,"soilmap_view_url":null,"soiltest_xml_url":52,"soiltest_view_url":52},{"id":136130,"code":"B4KJ201801002-4379","latitude":"38.53383","longitude":"141.30636","source_code":"TH2009824100S42-050010","project_name":"","survey_name":"\u67f3\u6d25\u30fb\u5165\u69cc\u30fb\u76f8\u91ce\u7530\u5730\u70b9\u5730\u8cea\u8abf\u67fb","client_name":"\u56fd\u571f\u4ea4\u901a\u7701\u6771\u5317\u5730\u65b9\u6574\u5099\u5c40\u5317\u4e0a\u5ddd\u4e0b\u6d41\u6cb3\u5ddd\u4e8b\u52d9\u6240","boring_xml_url":49,"boring_view_url":1,"soilmap_view_url":null,"soiltest_xml_url":0,"soiltest_view_url":0},{"id":136129,"code":"B4KJ201801002-4378","latitude":"38.53383","longitude":"141.30703","source_code":"TH2009824100S42-050009","project_name":"","survey_name":"\u67f3\u6d25\u30fb\u5165\u69cc\u30fb\u76f8\u91ce\u7530\u5730\u70b9\u5730\u8cea\u8abf\u67fb","client_name":"\u56fd\u571f\u4ea4\u901a\u7701\u6771\u5317\u5730\u65b9\u6574\u5099\u5c40\u5317\u4e0a\u5ddd\u4e0b\u6d41\u6cb3\u5ddd\u4e8b\u52d9\u6240","boring_xml_url":49,"boring_view_url":1,"soilmap_view_url":null,"soiltest_xml_url":52,"soiltest_view_url":52},{"id":136128,"code":"B4KJ201801002-4377","latitude":"38.53386","longitude":"141.30767","source_code":"TH2009824100S42-050008","project_name":"","survey_name":"\u67f3\u6d25\u30fb\u5165\u69cc\u30fb\u76f8\u91ce\u7530\u5730\u70b9\u5730\u8cea\u8abf\u67fb","client_name":"\u56fd\u571f\u4ea4\u901a\u7701\u6771\u5317\u5730\u65b9\u6574\u5099\u5c40\u5317\u4e0a\u5ddd\u4e0b\u6d41\u6cb3\u5ddd\u4e8b\u52d9\u6240","boring_xml_url":49,"boring_view_url":1,"soilmap_view_url":null,"soiltest_xml_url":0,"soiltest_view_url":0},{"id":136127,"code":"B4KJ201801002-4376","latitude":"38.53306","longitude":"141.30503","source_code":"TH2009824100S42-050007","project_name":"","survey_name":"\u67f3\u6d25\u30fb\u5165\u69cc\u30fb\u76f8\u91ce\u7530\u5730\u70b9\u5730\u8cea\u8abf\u67fb","client_name":"\u56fd\u571f\u4ea4\u901a\u7701\u6771\u5317\u5730\u65b9\u6574\u5099\u5c40\u5317\u4e0a\u5ddd\u4e0b\u6d41\u6cb3\u5ddd\u4e8b\u52d9\u6240","boring_xml_url":49,"boring_view_url":1,"soilmap_view_url":null,"soiltest_xml_url":0,"soiltest_view_url":0},{"id":136126,"code":"B4KJ201801002-4375","latitude":"38.53306","longitude":"141.30553","source_code":"TH2009824100S42-050006","project_name":"","survey_name":"\u67f3\u6d25\u30fb\u5165\u69cc\u30fb\u76f8\u91ce\u7530\u5730\u70b9\u5730\u8cea\u8abf\u67fb","client_name":"\u56fd\u571f\u4ea4\u901a\u7701\u6771\u5317\u5730\u65b9\u6574\u5099\u5c40\u5317\u4e0a\u5ddd\u4e0b\u6d41\u6cb3\u5ddd\u4e8b\u52d9\u6240","boring_xml_url":49,"boring_view_url":1,"soilmap_view_url":null,"soiltest_xml_url":0,"soiltest_view_url":0},{"id":136125,"code":"B4KJ201801002-4374","latitude":"38.53308","longitude":"141.30653","source_code":"TH2009824100S42-050005","project_name":"","survey_name":"\u67f3\u6d25\u30fb\u5165\u69cc\u30fb\u76f8\u91ce\u7530\u5730\u70b9\u5730\u8cea\u8abf\u67fb","client_name":"\u56fd\u571f\u4ea4\u901a\u7701\u6771\u5317\u5730\u65b9\u6574\u5099\u5c40\u5317\u4e0a\u5ddd\u4e0b\u6d41\u6cb3\u5ddd\u4e8b\u52d9\u6240","boring_xml_url":49,"boring_view_url":1,"soilmap_view_url":null,"soiltest_xml_url":0,"soiltest_view_url":0},{"id":136124,"code":"B4KJ201801002-4373","latitude":"38.53311","longitude":"141.30753","source_code":"TH2009824100S42-050004","project_name":"","survey_name":"\u67f3\u6d25\u30fb\u5165\u69cc\u30fb\u76f8\u91ce\u7530\u5730\u70b9\u5730\u8cea\u8abf\u67fb","client_name":"\u56fd\u571f\u4ea4\u901a\u7701\u6771\u5317\u5730\u65b9\u6574\u5099\u5c40\u5317\u4e0a\u5ddd\u4e0b\u6d41\u6cb3\u5ddd\u4e8b\u52d9\u6240","boring_xml_url":49,"boring_view_url":1,"soilmap_view_url":null,"soiltest_xml_url":0,"soiltest_view_url":0},{"id":136123,"code":"B4KJ201801002-4372","latitude":"38.52567","longitude":"141.35606","source_code":"TH2009824100S42-050003","project_name":"","survey_name":"\u67f3\u6d25\u30fb\u5165\u69cc\u30fb\u76f8\u91ce\u7530\u5730\u70b9\u5730\u8cea\u8abf\u67fb","client_name":"\u56fd\u571f\u4ea4\u901a\u7701\u6771\u5317\u5730\u65b9\u6574\u5099\u5c40\u5317\u4e0a\u5ddd\u4e0b\u6d41\u6cb3\u5ddd\u4e8b\u52d9\u6240","boring_xml_url":49,"boring_view_url":1,"soilmap_view_url":null,"soiltest_xml_url":0,"soiltest_view_url":0},{"id":136122,"code":"B4KJ201801002-4371","latitude":"38.52667","longitude":"141.35603","source_code":"TH2009824100S42-050002","project_name":"","survey_name":"\u67f3\u6d25\u30fb\u5165\u69cc\u30fb\u76f8\u91ce\u7530\u5730\u70b9\u5730\u8cea\u8abf\u67fb","client_name":"\u56fd\u571f\u4ea4\u901a\u7701\u6771\u5317\u5730\u65b9\u6574\u5099\u5c40\u5317\u4e0a\u5ddd\u4e0b\u6d41\u6cb3\u5ddd\u4e8b\u52d9\u6240","boring_xml_url":49,"boring_view_url":1,"soilmap_view_url":null,"soiltest_xml_url":0,"soiltest_view_url":0},{"id":136121,"code":"B4KJ201801002-4370","latitude":"38.52767","longitude":"141.356","source_code":"TH2009824100S42-050001","project_name":"","survey_name":"\u67f3\u6d25\u30fb\u5165\u69cc\u30fb\u76f8\u91ce\u7530\u5730\u70b9\u5730\u8cea\u8abf\u67fb","client_name":"\u56fd\u571f\u4ea4\u901a\u7701\u6771\u5317\u5730\u65b9\u6574\u5099\u5c40\u5317\u4e0a\u5ddd\u4e0b\u6d41\u6cb3\u5ddd\u4e8b\u52d9\u6240","boring_xml_url":49,"boring_view_url":1,"soilmap_view_url":null,"soiltest_xml_url":0,"soiltest_view_url":0},{"id":136120,"code":"B4KJ201801002-4369","latitude":"38.52717","longitude":"141.05556","source_code":"TH2009824100S42-040009","project_name":"","survey_name":"\u516b\u53cd\u6a0b\u7ba1 \u5c71\u738b\u5824\u9632\u6f0f\u6c34\u8abf\u67fb \u888b\u8c37\u5730\u7bc9\u5824\u30f6\u6240\u5730\u8cea\u8abf\u67fb\u5831\u544a","client_name":"\u56fd\u571f\u4ea4\u901a\u7701\u6771\u5317\u5730\u65b9\u6574\u5099\u5c40\u5317\u4e0a\u5ddd\u4e0b\u6d41\u6cb3\u5ddd\u4e8b\u52d9\u6240","boring_xml_url":49,"boring_view_url":1,"soilmap_view_url":null,"soiltest_xml_url":52,"soiltest_view_url":52},{"id":136119,"code":"B4KJ201801002-4368","latitude":"38.52733","longitude":"141.05564","source_code":"TH2009824100S42-040008","project_name":"","survey_name":"\u516b\u53cd\u6a0b\u7ba1 \u5c71\u738b\u5824\u9632\u6f0f\u6c34\u8abf\u67fb \u888b\u8c37\u5730\u7bc9\u5824\u30f6\u6240\u5730\u8cea\u8abf\u67fb\u5831\u544a","client_name":"\u56fd\u571f\u4ea4\u901a\u7701\u6771\u5317\u5730\u65b9\u6574\u5099\u5c40\u5317\u4e0a\u5ddd\u4e0b\u6d41\u6cb3\u5ddd\u4e8b\u52d9\u6240","boring_xml_url":49,"boring_view_url":1,"soilmap_view_url":null,"soiltest_xml_url":52,"soiltest_view_url":52},{"id":136118,"code":"B4KJ201801002-4367","latitude":"38.52908","longitude":"141.0565","source_code":"TH2009824100S42-040007","project_name":"","survey_name":"\u516b\u53cd\u6a0b\u7ba1 \u5c71\u738b\u5824\u9632\u6f0f\u6c34\u8abf\u67fb \u888b\u8c37\u5730\u7bc9\u5824\u30f6\u6240\u5730\u8cea\u8abf\u67fb\u5831\u544a","client_name":"\u56fd\u571f\u4ea4\u901a\u7701\u6771\u5317\u5730\u65b9\u6574\u5099\u5c40\u5317\u4e0a\u5ddd\u4e0b\u6d41\u6cb3\u5ddd\u4e8b\u52d9\u6240","boring_xml_url":49,"boring_view_url":1,"soilmap_view_url":null,"soiltest_xml_url":52,"soiltest_view_url":52},{"id":136117,"code":"B4KJ201801002-4366","latitude":"38.52922","longitude":"141.05658","source_code":"TH2009824100S42-040006","project_name":"","survey_name":"\u516b\u53cd\u6a0b\u7ba1 \u5c71\u738b\u5824\u9632\u6f0f\u6c34\u8abf\u67fb \u888b\u8c37\u5730\u7bc9\u5824\u30f6\u6240\u5730\u8cea\u8abf\u67fb\u5831\u544a","client_name":"\u56fd\u571f\u4ea4\u901a\u7701\u6771\u5317\u5730\u65b9\u6574\u5099\u5c40\u5317\u4e0a\u5ddd\u4e0b\u6d41\u6cb3\u5ddd\u4e8b\u52d9\u6240","boring_xml_url":49,"boring_view_url":1,"soilmap_view_url":null,"soiltest_xml_url":52,"soiltest_view_url":52},{"id":136116,"code":"B4KJ201801002-4365","latitude":"38.65347","longitude":"141.28783","source_code":"TH2009824100S42-040005","project_name":"","survey_name":"\u516b\u53cd\u6a0b\u7ba1 \u5c71\u738b\u5824\u9632\u6f0f\u6c34\u8abf\u67fb \u888b\u8c37\u5730\u7bc9\u5824\u30f6\u6240\u5730\u8cea\u8abf\u67fb\u5831\u544a","client_name":"\u56fd\u571f\u4ea4\u901a\u7701\u6771\u5317\u5730\u65b9\u6574\u5099\u5c40\u5317\u4e0a\u5ddd\u4e0b\u6d41\u6cb3\u5ddd\u4e8b\u52d9\u6240","boring_xml_url":49,"boring_view_url":1,"soilmap_view_url":null,"soiltest_xml_url":52,"soiltest_view_url":52},{"id":136115,"code":"B4KJ201801002-4364","latitude":"38.65347","longitude":"141.28767","source_code":"TH2009824100S42-040004","project_name":"","survey_name":"\u516b\u53cd\u6a0b\u7ba1 \u5c71\u738b\u5824\u9632\u6f0f\u6c34\u8abf\u67fb \u888b\u8c37\u5730\u7bc9\u5824\u30f6\u6240\u5730\u8cea\u8abf\u67fb\u5831\u544a","client_name":"\u56fd\u571f\u4ea4\u901a\u7701\u6771\u5317\u5730\u65b9\u6574\u5099\u5c40\u5317\u4e0a\u5ddd\u4e0b\u6d41\u6cb3\u5ddd\u4e8b\u52d9\u6240","boring_xml_url":49,"boring_view_url":1,"soilmap_view_url":null,"soiltest_xml_url":52,"soiltest_view_url":52},{"id":136114,"code":"B4KJ201801002-4363","latitude":"38.65347","longitude":"141.28756","source_code":"TH2009824100S42-040003","project_name":"","survey_name":"\u516b\u53cd\u6a0b\u7ba1 \u5c71\u738b\u5824\u9632\u6f0f\u6c34\u8abf\u67fb \u888b\u8c37\u5730\u7bc9\u5824\u30f6\u6240\u5730\u8cea\u8abf\u67fb\u5831\u544a","client_name":"\u56fd\u571f\u4ea4\u901a\u7701\u6771\u5317\u5730\u65b9\u6574\u5099\u5c40\u5317\u4e0a\u5ddd\u4e0b\u6d41\u6cb3\u5ddd\u4e8b\u52d9\u6240","boring_xml_url":49,"boring_view_url":1,"soilmap_view_url":null,"soiltest_xml_url":52,"soiltest_view_url":52},{"id":136113,"code":"B4KJ201801002-4362","latitude":"38.44247","longitude":"141.32597","source_code":"TH2009824100S42-040002","project_name":"","survey_name":"\u516b\u53cd\u6a0b\u7ba1 \u5c71\u738b\u5824\u9632\u6f0f\u6c34\u8abf\u67fb \u888b\u8c37\u5730\u7bc9\u5824\u30f6\u6240\u5730\u8cea\u8abf\u67fb\u5831\u544a","client_name":"\u56fd\u571f\u4ea4\u901a\u7701\u6771\u5317\u5730\u65b9\u6574\u5099\u5c40\u5317\u4e0a\u5ddd\u4e0b\u6d41\u6cb3\u5ddd\u4e8b\u52d9\u6240","boring_xml_url":49,"boring_view_url":1,"soilmap_view_url":null,"soiltest_xml_url":52,"soiltest_view_url":52},{"id":136112,"code":"B4KJ201801002-4361","latitude":"38.44175","longitude":"141.32497","source_code":"TH2009824100S42-040001","project_name":"","survey_name":"\u516b\u53cd\u6a0b\u7ba1 \u5c71\u738b\u5824\u9632\u6f0f\u6c34\u8abf\u67fb \u888b\u8c37\u5730\u7bc9\u5824\u30f6\u6240\u5730\u8cea\u8abf\u67fb\u5831\u544a","client_name":"\u56fd\u571f\u4ea4\u901a\u7701\u6771\u5317\u5730\u65b9\u6574\u5099\u5c40\u5317\u4e0a\u5ddd\u4e0b\u6d41\u6cb3\u5ddd\u4e8b\u52d9\u6240","boring_xml_url":49,"boring_view_url":1,"soilmap_view_url":null,"soiltest_xml_url":52,"soiltest_view_url":52},{"id":136111,"code":"B4KJ201801002-4360","latitude":"38.43","longitude":"141.12533","source_code":"TH2009824100S42-030003","project_name":"","survey_name":"\u76ee\u79fb\u6392\u6c34\u6a0b\u7ba1\u6a5f\u95a2\u5834\u571f\u8cea\u8abf\u67fb\u53ca\u3073\u8a2d\u8a08\u696d\u52d9\u59d4\u8a17","client_name":"\u56fd\u571f\u4ea4\u901a\u7701\u6771\u5317\u5730\u65b9\u6574\u5099\u5c40\u5317\u4e0a\u5ddd\u4e0b\u6d41\u6cb3\u5ddd\u4e8b\u52d9\u6240","boring_xml_url":49,"boring_view_url":1,"soilmap_view_url":null,"soiltest_xml_url":52,"soiltest_view_url":52},{"id":136110,"code":"B4KJ201801002-4359","latitude":"38.43006","longitude":"141.12514","source_code":"TH2009824100S42-030002","project_name":"","survey_name":"\u76ee\u79fb\u6392\u6c34\u6a0b\u7ba1\u6a5f\u95a2\u5834\u571f\u8cea\u8abf\u67fb\u53ca\u3073\u8a2d\u8a08\u696d\u52d9\u59d4\u8a17","client_name":"\u56fd\u571f\u4ea4\u901a\u7701\u6771\u5317\u5730\u65b9\u6574\u5099\u5c40\u5317\u4e0a\u5ddd\u4e0b\u6d41\u6cb3\u5ddd\u4e8b\u52d9\u6240","boring_xml_url":49,"boring_view_url":1,"soilmap_view_url":null,"soiltest_xml_url":52,"soiltest_view_url":52},{"id":136109,"code":"B4KJ201801002-4358","latitude":"38.43008","longitude":"141.12503","source_code":"TH2009824100S42-030001","project_name":"","survey_name":"\u76ee\u79fb\u6392\u6c34\u6a0b\u7ba1\u6a5f\u95a2\u5834\u571f\u8cea\u8abf\u67fb\u53ca\u3073\u8a2d\u8a08\u696d\u52d9\u59d4\u8a17","client_name":"\u56fd\u571f\u4ea4\u901a\u7701\u6771\u5317\u5730\u65b9\u6574\u5099\u5c40\u5317\u4e0a\u5ddd\u4e0b\u6d41\u6cb3\u5ddd\u4e8b\u52d9\u6240","boring_xml_url":49,"boring_view_url":1,"soilmap_view_url":null,"soiltest_xml_url":52,"soiltest_view_url":52},{"id":136108,"code":"B4KJ201801002-4357","latitude":"38.52125","longitude":"141.17508","source_code":"TH2009824100S42-020001","project_name":"","survey_name":"\u662d\u548c42\u5e74\u5ea6 \u660e\u6cbb\u6c34\u9580\u571f\u8cea\u8abf\u67fb","client_name":"\u56fd\u571f\u4ea4\u901a\u7701\u6771\u5317\u5730\u65b9\u6574\u5099\u5c40\u5317\u4e0a\u5ddd\u4e0b\u6d41\u6cb3\u5ddd\u4e8b\u52d9\u6240","boring_xml_url":49,"boring_view_url":1,"soilmap_view_url":null,"soiltest_xml_url":52,"soiltest_view_url":52},{"id":136107,"code":"B4KJ201801002-4356","latitude":"38.42389","longitude":"140.95956","source_code":"TH2009824100S42-010001","project_name":"","survey_name":"\u9df9\u306e\u5de3\u7b2c3\u6a0b\u7ba1\u5730\u8cea\u8abf\u67fb","client_name":"\u56fd\u571f\u4ea4\u901a\u7701\u6771\u5317\u5730\u65b9\u6574\u5099\u5c40\u5317\u4e0a\u5ddd\u4e0b\u6d41\u6cb3\u5ddd\u4e8b\u52d9\u6240","boring_xml_url":49,"boring_view_url":1,"soilmap_view_url":null,"soiltest_xml_url":52,"soiltest_view_url":52},{"id":136106,"code":"B4KJ201801002-4355","latitude":"38.51486","longitude":"141.30958","source_code":"TH2009824100S41-030003","project_name":"","survey_name":"\u662d\u548c41\u5e74\u5ea6 \u98ef\u91ce\u5ddd\u53ef\u52d5\u5830\u4e0a\u6d41\u5730\u8cea\u8abf\u67fb","client_name":"\u56fd\u571f\u4ea4\u901a\u7701\u6771\u5317\u5730\u65b9\u6574\u5099\u5c40\u5317\u4e0a\u5ddd\u4e0b\u6d41\u6cb3\u5ddd\u4e8b\u52d9\u6240","boring_xml_url":49,"boring_view_url":1,"soilmap_view_url":null,"soiltest_xml_url":0,"soiltest_view_url":0}]}}