{"header":{"xyz":{"source":[],"mosaic":false},"page":6153,"raw":{"soiltest_result":"0","bbox":"57.598333,109.544722,1.933333,163.806111","page":"6153"},"conditions":{"soiltest_result":0,"north":57.598333,"west":109.544722,"south":1.933333,"east":163.806111},"success":true,"message":""},"data":{"meta":{"total":212844,"page":6153,"pages":7095,"count":30},"values":[{"id":135985,"code":"B4KJ201801002-4234","latitude":"38.95036","longitude":"141.24939","source_code":"TH20098235000450004","project_name":"","survey_name":"\u5e73\u621014\u5e74\u5ea6 \u6839\u5cb8\u5730\u533a\u6392\u6c34\u6a0b\u7ba1\u4e88\u5099\u8a2d\u8a08\u696d\u52d9","client_name":"\u56fd\u571f\u4ea4\u901a\u7701\u6771\u5317\u5730\u65b9\u6574\u5099\u5c40\u5ca9\u624b\u5de5\u4e8b\u4e8b\u52d9\u6240","boring_xml_url":46,"boring_view_url":1,"soilmap_view_url":null,"soiltest_xml_url":49,"soiltest_view_url":49},{"id":135984,"code":"B4KJ201801002-4233","latitude":"38.94253","longitude":"141.24881","source_code":"TH20098235000450003","project_name":"","survey_name":"\u5e73\u621014\u5e74\u5ea6 \u6839\u5cb8\u5730\u533a\u6392\u6c34\u6a0b\u7ba1\u4e88\u5099\u8a2d\u8a08\u696d\u52d9","client_name":"\u56fd\u571f\u4ea4\u901a\u7701\u6771\u5317\u5730\u65b9\u6574\u5099\u5c40\u5ca9\u624b\u5de5\u4e8b\u4e8b\u52d9\u6240","boring_xml_url":46,"boring_view_url":1,"soilmap_view_url":null,"soiltest_xml_url":0,"soiltest_view_url":0},{"id":135983,"code":"B4KJ201801002-4232","latitude":"38.94231","longitude":"141.24811","source_code":"TH20098235000450002","project_name":"","survey_name":"\u5e73\u621014\u5e74\u5ea6 \u6839\u5cb8\u5730\u533a\u6392\u6c34\u6a0b\u7ba1\u4e88\u5099\u8a2d\u8a08\u696d\u52d9","client_name":"\u56fd\u571f\u4ea4\u901a\u7701\u6771\u5317\u5730\u65b9\u6574\u5099\u5c40\u5ca9\u624b\u5de5\u4e8b\u4e8b\u52d9\u6240","boring_xml_url":46,"boring_view_url":1,"soilmap_view_url":null,"soiltest_xml_url":0,"soiltest_view_url":0},{"id":135982,"code":"B4KJ201801002-4231","latitude":"38.94236","longitude":"141.24831","source_code":"TH20098235000450001","project_name":"","survey_name":"\u5e73\u621014\u5e74\u5ea6 \u6839\u5cb8\u5730\u533a\u6392\u6c34\u6a0b\u7ba1\u4e88\u5099\u8a2d\u8a08\u696d\u52d9","client_name":"\u56fd\u571f\u4ea4\u901a\u7701\u6771\u5317\u5730\u65b9\u6574\u5099\u5c40\u5ca9\u624b\u5de5\u4e8b\u4e8b\u52d9\u6240","boring_xml_url":46,"boring_view_url":1,"soilmap_view_url":null,"soiltest_xml_url":49,"soiltest_view_url":49},{"id":135981,"code":"B4KJ201801002-4230","latitude":"38.93294","longitude":"141.15303","source_code":"TH20098235000440002","project_name":"\u5438\u5ddd\u6392\u6c34\u6a0b\u9580\u8a2d\u8a08\u696d\u52d9","survey_name":"\u5e73\u621014\u5e74\u5ea6 \u5438\u5ddd\u6392\u6c34\u6a0b\u9580\u8a2d\u8a08\u696d\u52d9","client_name":"\u56fd\u571f\u4ea4\u901a\u7701\u6771\u5317\u5730\u65b9\u6574\u5099\u5c40\u5ca9\u624b\u6cb3\u5ddd\u56fd\u9053\u4e8b\u52d9\u6240","boring_xml_url":46,"boring_view_url":1,"soilmap_view_url":null,"soiltest_xml_url":0,"soiltest_view_url":0},{"id":135980,"code":"B4KJ201801002-4229","latitude":"38.93336","longitude":"141.15333","source_code":"TH20098235000440001","project_name":"\u5438\u5ddd\u6392\u6c34\u6a0b\u9580\u8a2d\u8a08\u696d\u52d9","survey_name":"\u5e73\u621014\u5e74\u5ea6 \u5438\u5ddd\u6392\u6c34\u6a0b\u9580\u8a2d\u8a08\u696d\u52d9","client_name":"\u56fd\u571f\u4ea4\u901a\u7701\u6771\u5317\u5730\u65b9\u6574\u5099\u5c40\u5ca9\u624b\u6cb3\u5ddd\u56fd\u9053\u4e8b\u52d9\u6240","boring_xml_url":46,"boring_view_url":1,"soilmap_view_url":null,"soiltest_xml_url":0,"soiltest_view_url":0},{"id":135979,"code":"B4KJ201801002-4228","latitude":"38.94683","longitude":"141.24625","source_code":"TH20098235000430006","project_name":"","survey_name":"\u5e73\u621014\u5e74\u5ea6 \u5ca9\u30ce\u4e0b\u5730\u533a\u6392\u6c34\u6a0b\u7ba1\u4e88\u5099\u8a2d\u8a08\u696d\u52d9","client_name":"\u56fd\u571f\u4ea4\u901a\u7701\u6771\u5317\u6574\u5099\u5c40\u5ca9\u624b\u5de5\u4e8b\u4e8b\u52d9\u6240","boring_xml_url":46,"boring_view_url":1,"soilmap_view_url":null,"soiltest_xml_url":49,"soiltest_view_url":49},{"id":135978,"code":"B4KJ201801002-4227","latitude":"38.9465","longitude":"141.24656","source_code":"TH20098235000430005","project_name":"","survey_name":"\u5e73\u621014\u5e74\u5ea6 \u5ca9\u30ce\u4e0b\u5730\u533a\u6392\u6c34\u6a0b\u7ba1\u4e88\u5099\u8a2d\u8a08\u696d\u52d9","client_name":"\u56fd\u571f\u4ea4\u901a\u7701\u6771\u5317\u6574\u5099\u5c40\u5ca9\u624b\u5de5\u4e8b\u4e8b\u52d9\u6240","boring_xml_url":46,"boring_view_url":1,"soilmap_view_url":null,"soiltest_xml_url":49,"soiltest_view_url":49},{"id":135977,"code":"B4KJ201801002-4226","latitude":"38.94628","longitude":"141.24683","source_code":"TH20098235000430004","project_name":"","survey_name":"\u5e73\u621014\u5e74\u5ea6 \u5ca9\u30ce\u4e0b\u5730\u533a\u6392\u6c34\u6a0b\u7ba1\u4e88\u5099\u8a2d\u8a08\u696d\u52d9","client_name":"\u56fd\u571f\u4ea4\u901a\u7701\u6771\u5317\u6574\u5099\u5c40\u5ca9\u624b\u5de5\u4e8b\u4e8b\u52d9\u6240","boring_xml_url":46,"boring_view_url":1,"soilmap_view_url":null,"soiltest_xml_url":49,"soiltest_view_url":49},{"id":135976,"code":"B4KJ201801002-4225","latitude":"38.93278","longitude":"141.24761","source_code":"TH20098235000430003","project_name":"","survey_name":"\u5e73\u621014\u5e74\u5ea6 \u5ca9\u30ce\u4e0b\u5730\u533a\u6392\u6c34\u6a0b\u7ba1\u4e88\u5099\u8a2d\u8a08\u696d\u52d9","client_name":"\u56fd\u571f\u4ea4\u901a\u7701\u6771\u5317\u6574\u5099\u5c40\u5ca9\u624b\u5de5\u4e8b\u4e8b\u52d9\u6240","boring_xml_url":46,"boring_view_url":1,"soilmap_view_url":null,"soiltest_xml_url":49,"soiltest_view_url":49},{"id":135975,"code":"B4KJ201801002-4224","latitude":"38.93281","longitude":"141.24731","source_code":"TH20098235000430002","project_name":"","survey_name":"\u5e73\u621014\u5e74\u5ea6 \u5ca9\u30ce\u4e0b\u5730\u533a\u6392\u6c34\u6a0b\u7ba1\u4e88\u5099\u8a2d\u8a08\u696d\u52d9","client_name":"\u56fd\u571f\u4ea4\u901a\u7701\u6771\u5317\u6574\u5099\u5c40\u5ca9\u624b\u5de5\u4e8b\u4e8b\u52d9\u6240","boring_xml_url":46,"boring_view_url":1,"soilmap_view_url":null,"soiltest_xml_url":49,"soiltest_view_url":49},{"id":135974,"code":"B4KJ201801002-4223","latitude":"38.93283","longitude":"141.24703","source_code":"TH20098235000430001","project_name":"","survey_name":"\u5e73\u621014\u5e74\u5ea6 \u5ca9\u30ce\u4e0b\u5730\u533a\u6392\u6c34\u6a0b\u7ba1\u4e88\u5099\u8a2d\u8a08\u696d\u52d9","client_name":"\u56fd\u571f\u4ea4\u901a\u7701\u6771\u5317\u6574\u5099\u5c40\u5ca9\u624b\u5de5\u4e8b\u4e8b\u52d9\u6240","boring_xml_url":46,"boring_view_url":1,"soilmap_view_url":null,"soiltest_xml_url":49,"soiltest_view_url":49},{"id":135973,"code":"B4KJ201801002-4222","latitude":"39.00417","longitude":"141.11006","source_code":"TH20098235000420003","project_name":"","survey_name":"\u5e73\u621014\u5e74\u5ea6 \u8863\u5ddd\u5730\u533a\u7bc9\u5824\u4ed6\u6e2c\u91cf\u8a2d\u8a08\u696d\u52d9","client_name":"\u56fd\u571f\u4ea4\u901a\u7701\u6771\u5317\u5730\u65b9\u6574\u5099\u5c40\u5ca9\u624b\u5de5\u4e8b\u4e8b\u52d9\u6240","boring_xml_url":46,"boring_view_url":1,"soilmap_view_url":null,"soiltest_xml_url":49,"soiltest_view_url":49},{"id":135972,"code":"B4KJ201801002-4221","latitude":"39.00456","longitude":"141.10992","source_code":"TH20098235000420002","project_name":"","survey_name":"\u5e73\u621014\u5e74\u5ea6 \u8863\u5ddd\u5730\u533a\u7bc9\u5824\u4ed6\u6e2c\u91cf\u8a2d\u8a08\u696d\u52d9","client_name":"\u56fd\u571f\u4ea4\u901a\u7701\u6771\u5317\u5730\u65b9\u6574\u5099\u5c40\u5ca9\u624b\u5de5\u4e8b\u4e8b\u52d9\u6240","boring_xml_url":46,"boring_view_url":1,"soilmap_view_url":null,"soiltest_xml_url":49,"soiltest_view_url":49},{"id":135971,"code":"B4KJ201801002-4220","latitude":"39.00481","longitude":"141.10981","source_code":"TH20098235000420001","project_name":"","survey_name":"\u5e73\u621014\u5e74\u5ea6 \u8863\u5ddd\u5730\u533a\u7bc9\u5824\u4ed6\u6e2c\u91cf\u8a2d\u8a08\u696d\u52d9","client_name":"\u56fd\u571f\u4ea4\u901a\u7701\u6771\u5317\u5730\u65b9\u6574\u5099\u5c40\u5ca9\u624b\u5de5\u4e8b\u4e8b\u52d9\u6240","boring_xml_url":46,"boring_view_url":1,"soilmap_view_url":null,"soiltest_xml_url":49,"soiltest_view_url":49},{"id":135970,"code":"B4KJ201801002-4219","latitude":"38.88375","longitude":"141.25881","source_code":"TH20098235000410010","project_name":"","survey_name":"\u5e73\u621013\u5e74\u5ea6 \u5317\u4e0a\u5ddd\u4e0a\u6d41\u6a0b\u9580\u7b49\u69cb\u9020\u7269\u5468\u8fba\u5824\u9632\u70b9\u691c\u696d\u52d9(\u5f25\u6804\u5730\u533a\u5824\u4f53\u571f\u8cea\u8abf\u67fb)","client_name":"\u56fd\u571f\u4ea4\u901a\u7701\u6771\u5317\u5730\u65b9\u6574\u5099\u5c40\u5ca9\u624b\u5de5\u4e8b\u4e8b\u52d9\u6240","boring_xml_url":46,"boring_view_url":1,"soilmap_view_url":null,"soiltest_xml_url":49,"soiltest_view_url":49},{"id":135969,"code":"B4KJ201801002-4218","latitude":"38.88372","longitude":"141.25911","source_code":"TH20098235000410009","project_name":"","survey_name":"\u5e73\u621013\u5e74\u5ea6 \u5317\u4e0a\u5ddd\u4e0a\u6d41\u6a0b\u9580\u7b49\u69cb\u9020\u7269\u5468\u8fba\u5824\u9632\u70b9\u691c\u696d\u52d9(\u5f25\u6804\u5730\u533a\u5824\u4f53\u571f\u8cea\u8abf\u67fb)","client_name":"\u56fd\u571f\u4ea4\u901a\u7701\u6771\u5317\u5730\u65b9\u6574\u5099\u5c40\u5ca9\u624b\u5de5\u4e8b\u4e8b\u52d9\u6240","boring_xml_url":46,"boring_view_url":1,"soilmap_view_url":null,"soiltest_xml_url":49,"soiltest_view_url":49},{"id":135968,"code":"B4KJ201801002-4217","latitude":"38.88642","longitude":"141.26017","source_code":"TH20098235000410008","project_name":"","survey_name":"\u5e73\u621013\u5e74\u5ea6 \u5317\u4e0a\u5ddd\u4e0a\u6d41\u6a0b\u9580\u7b49\u69cb\u9020\u7269\u5468\u8fba\u5824\u9632\u70b9\u691c\u696d\u52d9(\u5f25\u6804\u5730\u533a\u5824\u4f53\u571f\u8cea\u8abf\u67fb)","client_name":"\u56fd\u571f\u4ea4\u901a\u7701\u6771\u5317\u5730\u65b9\u6574\u5099\u5c40\u5ca9\u624b\u5de5\u4e8b\u4e8b\u52d9\u6240","boring_xml_url":46,"boring_view_url":1,"soilmap_view_url":null,"soiltest_xml_url":49,"soiltest_view_url":49},{"id":135967,"code":"B4KJ201801002-4216","latitude":"38.88639","longitude":"141.26042","source_code":"TH20098235000410007","project_name":"","survey_name":"\u5e73\u621013\u5e74\u5ea6 \u5317\u4e0a\u5ddd\u4e0a\u6d41\u6a0b\u9580\u7b49\u69cb\u9020\u7269\u5468\u8fba\u5824\u9632\u70b9\u691c\u696d\u52d9(\u5f25\u6804\u5730\u533a\u5824\u4f53\u571f\u8cea\u8abf\u67fb)","client_name":"\u56fd\u571f\u4ea4\u901a\u7701\u6771\u5317\u5730\u65b9\u6574\u5099\u5c40\u5ca9\u624b\u5de5\u4e8b\u4e8b\u52d9\u6240","boring_xml_url":46,"boring_view_url":1,"soilmap_view_url":null,"soiltest_xml_url":49,"soiltest_view_url":49},{"id":135966,"code":"B4KJ201801002-4215","latitude":"38.92261","longitude":"141.25506","source_code":"TH20098235000400001","project_name":"","survey_name":"\u5e73\u621012\u5e74\u5ea6 \u7802\u9244\u5ddd\u7bc9\u5824\u8edf\u5f31\u5730\u76e4\u8abf\u67fb\u89e3\u6790\u696d\u52d9","client_name":"\u5efa\u8a2d\u7701\u6771\u5317\u5730\u65b9\u5efa\u8a2d\u5c40\u5ca9\u624b\u5de5\u4e8b\u4e8b\u52d9\u6240","boring_xml_url":46,"boring_view_url":1,"soilmap_view_url":null,"soiltest_xml_url":0,"soiltest_view_url":0},{"id":135965,"code":"B4KJ201801002-4214","latitude":"38.93339","longitude":"141.13131","source_code":"TH20098235000390004","project_name":"","survey_name":"\u5e73\u621013\u5e74\u5ea6 \u7ba1\u5185\u6a0b\u7ba1\u88dc\u4fee\u8a2d\u8a08\u696d\u52d9","client_name":"\u56fd\u571f\u4ea4\u901a\u7701\u6771\u5317\u5730\u65b9\u6574\u5099\u5c40\u5ca9\u624b\u6cb3\u5ddd\u56fd\u9053\u4e8b\u52d9\u6240","boring_xml_url":46,"boring_view_url":1,"soilmap_view_url":null,"soiltest_xml_url":0,"soiltest_view_url":0},{"id":135964,"code":"B4KJ201801002-4213","latitude":"38.93331","longitude":"141.15311","source_code":"TH20098235000390003","project_name":"","survey_name":"\u5e73\u621013\u5e74\u5ea6 \u7ba1\u5185\u6a0b\u7ba1\u88dc\u4fee\u8a2d\u8a08\u696d\u52d9","client_name":"\u56fd\u571f\u4ea4\u901a\u7701\u6771\u5317\u5730\u65b9\u6574\u5099\u5c40\u5ca9\u624b\u6cb3\u5ddd\u56fd\u9053\u4e8b\u52d9\u6240","boring_xml_url":46,"boring_view_url":1,"soilmap_view_url":null,"soiltest_xml_url":0,"soiltest_view_url":0},{"id":135963,"code":"B4KJ201801002-4212","latitude":"39.36006","longitude":"141.14211","source_code":"TH20098235000390002","project_name":"","survey_name":"\u5e73\u621013\u5e74\u5ea6 \u7ba1\u5185\u6a0b\u7ba1\u88dc\u4fee\u8a2d\u8a08\u696d\u52d9","client_name":"\u56fd\u571f\u4ea4\u901a\u7701\u6771\u5317\u5730\u65b9\u6574\u5099\u5c40\u5ca9\u624b\u6cb3\u5ddd\u56fd\u9053\u4e8b\u52d9\u6240","boring_xml_url":46,"boring_view_url":1,"soilmap_view_url":null,"soiltest_xml_url":0,"soiltest_view_url":0},{"id":135962,"code":"B4KJ201801002-4211","latitude":"38.93353","longitude":"141.13139","source_code":"TH20098235000390001","project_name":"","survey_name":"\u5e73\u621013\u5e74\u5ea6 \u7ba1\u5185\u6a0b\u7ba1\u88dc\u4fee\u8a2d\u8a08\u696d\u52d9","client_name":"\u56fd\u571f\u4ea4\u901a\u7701\u6771\u5317\u5730\u65b9\u6574\u5099\u5c40\u5ca9\u624b\u6cb3\u5ddd\u56fd\u9053\u4e8b\u52d9\u6240","boring_xml_url":46,"boring_view_url":1,"soilmap_view_url":null,"soiltest_xml_url":0,"soiltest_view_url":0},{"id":135961,"code":"B4KJ201801002-4210","latitude":"38.95108","longitude":"141.17281","source_code":"TH20098235000380002","project_name":"","survey_name":"\u5e73\u621013\u5e74\u5ea6 \u4e00\u95a2\u904a\u6c34\u5730\u6c34\u9580\u57fa\u672c\u8a2d\u8a08\u696d\u52d9","client_name":"\u56fd\u571f\u4ea4\u901a\u7701\u6771\u5317\u5730\u65b9\u6574\u5099\u5c40\u5ca9\u624b\u5de5\u4e8b\u4e8b\u52d9\u6240","boring_xml_url":46,"boring_view_url":1,"soilmap_view_url":null,"soiltest_xml_url":49,"soiltest_view_url":49},{"id":135960,"code":"B4KJ201801002-4209","latitude":"38.97839","longitude":"141.14939","source_code":"TH20098235000380001","project_name":"","survey_name":"\u5e73\u621013\u5e74\u5ea6 \u4e00\u95a2\u904a\u6c34\u5730\u6c34\u9580\u57fa\u672c\u8a2d\u8a08\u696d\u52d9","client_name":"\u56fd\u571f\u4ea4\u901a\u7701\u6771\u5317\u5730\u65b9\u6574\u5099\u5c40\u5ca9\u624b\u5de5\u4e8b\u4e8b\u52d9\u6240","boring_xml_url":46,"boring_view_url":1,"soilmap_view_url":null,"soiltest_xml_url":49,"soiltest_view_url":49},{"id":135959,"code":"B4KJ201801002-4208","latitude":"38.84558","longitude":"141.25908","source_code":"TH20098235000370002","project_name":"","survey_name":"\u5e73\u621012\u5e74\u5ea6 \u4e2d\u795e\u7b2c2\u6392\u6c34\u6a0b\u7ba1\u8a73\u7d30\u8a2d\u8a08\u696d\u52d9","client_name":"\u56fd\u571f\u4ea4\u901a\u7701\u6771\u5317\u5730\u65b9\u6574\u5099\u5c40\u5ca9\u624b\u5de5\u4e8b\u4e8b\u52d9\u6240","boring_xml_url":46,"boring_view_url":1,"soilmap_view_url":null,"soiltest_xml_url":49,"soiltest_view_url":49},{"id":135958,"code":"B4KJ201801002-4207","latitude":"38.84575","longitude":"141.25925","source_code":"TH20098235000370001","project_name":"","survey_name":"\u5e73\u621012\u5e74\u5ea6 \u4e2d\u795e\u7b2c2\u6392\u6c34\u6a0b\u7ba1\u8a73\u7d30\u8a2d\u8a08\u696d\u52d9","client_name":"\u56fd\u571f\u4ea4\u901a\u7701\u6771\u5317\u5730\u65b9\u6574\u5099\u5c40\u5ca9\u624b\u5de5\u4e8b\u4e8b\u52d9\u6240","boring_xml_url":46,"boring_view_url":1,"soilmap_view_url":null,"soiltest_xml_url":49,"soiltest_view_url":49},{"id":135957,"code":"B4KJ201801002-4206","latitude":"39.01106","longitude":"141.13411","source_code":"TH20098235000360006","project_name":"","survey_name":"\u5e73\u621012\u5e74\u5ea6 \u7b2c2\u904a\u6c34\u5730\u5730\u5185\u6cb3\u5ddd\u4e0a\u6d41\u753a\u9053\u6a4b\u5b9f\u65bd\u8a2d\u8a08\u696d\u52d9","client_name":"\u56fd\u571f\u4ea4\u901a\u7701\u6771\u5317\u5730\u65b9\u6574\u5099\u5c40\u5ca9\u624b\u5de5\u4e8b\u4e8b\u52d9\u6240","boring_xml_url":46,"boring_view_url":1,"soilmap_view_url":null,"soiltest_xml_url":0,"soiltest_view_url":0},{"id":135956,"code":"B4KJ201801002-4205","latitude":"39.01103","longitude":"141.13419","source_code":"TH20098235000360005","project_name":"","survey_name":"\u5e73\u621012\u5e74\u5ea6 \u7b2c2\u904a\u6c34\u5730\u5730\u5185\u6cb3\u5ddd\u4e0a\u6d41\u753a\u9053\u6a4b\u5b9f\u65bd\u8a2d\u8a08\u696d\u52d9","client_name":"\u56fd\u571f\u4ea4\u901a\u7701\u6771\u5317\u5730\u65b9\u6574\u5099\u5c40\u5ca9\u624b\u5de5\u4e8b\u4e8b\u52d9\u6240","boring_xml_url":46,"boring_view_url":1,"soilmap_view_url":null,"soiltest_xml_url":0,"soiltest_view_url":0}]}}