{"header":{"xyz":{"source":[],"mosaic":false},"page":6154,"raw":{"soiltest_result":"0","bbox":"57.598333,109.544722,1.933333,163.806111","page":"6154"},"conditions":{"soiltest_result":0,"north":57.598333,"west":109.544722,"south":1.933333,"east":163.806111},"success":true,"message":""},"data":{"meta":{"total":212844,"page":6154,"pages":7095,"count":30},"values":[{"id":135955,"code":"B4KJ201801002-4204","latitude":"39.00789","longitude":"141.13408","source_code":"TH20098235000360004","project_name":"","survey_name":"\u5e73\u621012\u5e74\u5ea6 \u7b2c2\u904a\u6c34\u5730\u5730\u5185\u6cb3\u5ddd\u4e0a\u6d41\u753a\u9053\u6a4b\u5b9f\u65bd\u8a2d\u8a08\u696d\u52d9","client_name":"\u56fd\u571f\u4ea4\u901a\u7701\u6771\u5317\u5730\u65b9\u6574\u5099\u5c40\u5ca9\u624b\u5de5\u4e8b\u4e8b\u52d9\u6240","boring_xml_url":46,"boring_view_url":1,"soilmap_view_url":null,"soiltest_xml_url":0,"soiltest_view_url":0},{"id":135954,"code":"B4KJ201801002-4203","latitude":"39.00783","longitude":"141.13425","source_code":"TH20098235000360003","project_name":"","survey_name":"\u5e73\u621012\u5e74\u5ea6 \u7b2c2\u904a\u6c34\u5730\u5730\u5185\u6cb3\u5ddd\u4e0a\u6d41\u753a\u9053\u6a4b\u5b9f\u65bd\u8a2d\u8a08\u696d\u52d9","client_name":"\u56fd\u571f\u4ea4\u901a\u7701\u6771\u5317\u5730\u65b9\u6574\u5099\u5c40\u5ca9\u624b\u5de5\u4e8b\u4e8b\u52d9\u6240","boring_xml_url":46,"boring_view_url":1,"soilmap_view_url":null,"soiltest_xml_url":0,"soiltest_view_url":0},{"id":135953,"code":"B4KJ201801002-4202","latitude":"39.00314","longitude":"141.13442","source_code":"TH20098235000360002","project_name":"","survey_name":"\u5e73\u621012\u5e74\u5ea6 \u7b2c2\u904a\u6c34\u5730\u5730\u5185\u6cb3\u5ddd\u4e0a\u6d41\u753a\u9053\u6a4b\u5b9f\u65bd\u8a2d\u8a08\u696d\u52d9","client_name":"\u56fd\u571f\u4ea4\u901a\u7701\u6771\u5317\u5730\u65b9\u6574\u5099\u5c40\u5ca9\u624b\u5de5\u4e8b\u4e8b\u52d9\u6240","boring_xml_url":46,"boring_view_url":1,"soilmap_view_url":null,"soiltest_xml_url":0,"soiltest_view_url":0},{"id":135952,"code":"B4KJ201801002-4201","latitude":"39.00306","longitude":"141.13461","source_code":"TH20098235000360001","project_name":"","survey_name":"\u5e73\u621012\u5e74\u5ea6 \u7b2c2\u904a\u6c34\u5730\u5730\u5185\u6cb3\u5ddd\u4e0a\u6d41\u753a\u9053\u6a4b\u5b9f\u65bd\u8a2d\u8a08\u696d\u52d9","client_name":"\u56fd\u571f\u4ea4\u901a\u7701\u6771\u5317\u5730\u65b9\u6574\u5099\u5c40\u5ca9\u624b\u5de5\u4e8b\u4e8b\u52d9\u6240","boring_xml_url":46,"boring_view_url":1,"soilmap_view_url":null,"soiltest_xml_url":0,"soiltest_view_url":0},{"id":135951,"code":"B4KJ201801002-4200","latitude":"38.91522","longitude":"141.29653","source_code":"TH20098235000350006","project_name":"","survey_name":"\u5e73\u621012\u5e74\u5ea6 \u7802\u9244\u5ddd\u7bc9\u5824\u571f\u53d6\u5834\u8abf\u67fb\u696d\u52d9","client_name":"\u56fd\u571f\u4ea4\u901a\u7701\u6771\u5317\u5730\u65b9\u6574\u5099\u5c40\u5ca9\u624b\u5de5\u4e8b\u4e8b\u52d9\u6240","boring_xml_url":46,"boring_view_url":1,"soilmap_view_url":null,"soiltest_xml_url":49,"soiltest_view_url":49},{"id":135950,"code":"B4KJ201801002-4199","latitude":"38.91433","longitude":"141.29325","source_code":"TH20098235000350005","project_name":"","survey_name":"\u5e73\u621012\u5e74\u5ea6 \u7802\u9244\u5ddd\u7bc9\u5824\u571f\u53d6\u5834\u8abf\u67fb\u696d\u52d9","client_name":"\u56fd\u571f\u4ea4\u901a\u7701\u6771\u5317\u5730\u65b9\u6574\u5099\u5c40\u5ca9\u624b\u5de5\u4e8b\u4e8b\u52d9\u6240","boring_xml_url":46,"boring_view_url":1,"soilmap_view_url":null,"soiltest_xml_url":0,"soiltest_view_url":0},{"id":135949,"code":"B4KJ201801002-4198","latitude":"38.91614","longitude":"141.29847","source_code":"TH20098235000350004","project_name":"","survey_name":"\u5e73\u621012\u5e74\u5ea6 \u7802\u9244\u5ddd\u7bc9\u5824\u571f\u53d6\u5834\u8abf\u67fb\u696d\u52d9","client_name":"\u56fd\u571f\u4ea4\u901a\u7701\u6771\u5317\u5730\u65b9\u6574\u5099\u5c40\u5ca9\u624b\u5de5\u4e8b\u4e8b\u52d9\u6240","boring_xml_url":46,"boring_view_url":1,"soilmap_view_url":null,"soiltest_xml_url":0,"soiltest_view_url":0},{"id":135948,"code":"B4KJ201801002-4197","latitude":"38.93519","longitude":"141.27394","source_code":"TH20098235000350003","project_name":"","survey_name":"\u5e73\u621012\u5e74\u5ea6 \u7802\u9244\u5ddd\u7bc9\u5824\u571f\u53d6\u5834\u8abf\u67fb\u696d\u52d9","client_name":"\u56fd\u571f\u4ea4\u901a\u7701\u6771\u5317\u5730\u65b9\u6574\u5099\u5c40\u5ca9\u624b\u5de5\u4e8b\u4e8b\u52d9\u6240","boring_xml_url":46,"boring_view_url":1,"soilmap_view_url":null,"soiltest_xml_url":49,"soiltest_view_url":49},{"id":135947,"code":"B4KJ201801002-4196","latitude":"38.95056","longitude":"141.28339","source_code":"TH20098235000350002","project_name":"","survey_name":"\u5e73\u621012\u5e74\u5ea6 \u7802\u9244\u5ddd\u7bc9\u5824\u571f\u53d6\u5834\u8abf\u67fb\u696d\u52d9","client_name":"\u56fd\u571f\u4ea4\u901a\u7701\u6771\u5317\u5730\u65b9\u6574\u5099\u5c40\u5ca9\u624b\u5de5\u4e8b\u4e8b\u52d9\u6240","boring_xml_url":46,"boring_view_url":1,"soilmap_view_url":null,"soiltest_xml_url":0,"soiltest_view_url":0},{"id":135946,"code":"B4KJ201801002-4195","latitude":"38.95164","longitude":"141.28647","source_code":"TH20098235000350001","project_name":"","survey_name":"\u5e73\u621012\u5e74\u5ea6 \u7802\u9244\u5ddd\u7bc9\u5824\u571f\u53d6\u5834\u8abf\u67fb\u696d\u52d9","client_name":"\u56fd\u571f\u4ea4\u901a\u7701\u6771\u5317\u5730\u65b9\u6574\u5099\u5c40\u5ca9\u624b\u5de5\u4e8b\u4e8b\u52d9\u6240","boring_xml_url":46,"boring_view_url":1,"soilmap_view_url":null,"soiltest_xml_url":0,"soiltest_view_url":0},{"id":135945,"code":"B4KJ201801002-4194","latitude":"38.92819","longitude":"141.25731","source_code":"TH20098235000340001","project_name":"","survey_name":"\u5e73\u621012\u5e74\u5ea6 \u7802\u9244\u5ddd\u7bc9\u5824\u8edf\u5f31\u5730\u76e4\u8abf\u67fb\u89e3\u6790","client_name":"\u5efa\u8a2d\u7701\u6771\u5317\u5730\u65b9\u5efa\u8a2d\u5c40\u5ca9\u624b\u5de5\u4e8b\u4e8b\u52d9\u6240","boring_xml_url":46,"boring_view_url":1,"soilmap_view_url":null,"soiltest_xml_url":49,"soiltest_view_url":49},{"id":135944,"code":"B4KJ201801002-4193","latitude":"38.93589","longitude":"141.14014","source_code":"TH20098235000330006","project_name":"","survey_name":"\u5e73\u621012\u5e74\u5ea6 \u6cb3\u5ddd\u5824\u9632\u306e\u6d78\u900f\u306b\u95a2\u3059\u308b\u8abf\u67fb","client_name":"\u56fd\u571f\u4ea4\u901a\u7701\u6771\u5317\u5730\u65b9\u6574\u5099\u5c40\u5ca9\u624b\u5de5\u4e8b\u4e8b\u52d9\u6240","boring_xml_url":46,"boring_view_url":1,"soilmap_view_url":null,"soiltest_xml_url":49,"soiltest_view_url":49},{"id":135943,"code":"B4KJ201801002-4192","latitude":"38.93622","longitude":"141.14022","source_code":"TH20098235000330005","project_name":"","survey_name":"\u5e73\u621012\u5e74\u5ea6 \u6cb3\u5ddd\u5824\u9632\u306e\u6d78\u900f\u306b\u95a2\u3059\u308b\u8abf\u67fb","client_name":"\u56fd\u571f\u4ea4\u901a\u7701\u6771\u5317\u5730\u65b9\u6574\u5099\u5c40\u5ca9\u624b\u5de5\u4e8b\u4e8b\u52d9\u6240","boring_xml_url":46,"boring_view_url":1,"soilmap_view_url":null,"soiltest_xml_url":49,"soiltest_view_url":49},{"id":135942,"code":"B4KJ201801002-4191","latitude":"39.39083","longitude":"141.12708","source_code":"TH20098235000330004","project_name":"","survey_name":"\u5e73\u621012\u5e74\u5ea6 \u6cb3\u5ddd\u5824\u9632\u306e\u6d78\u900f\u306b\u95a2\u3059\u308b\u8abf\u67fb","client_name":"\u56fd\u571f\u4ea4\u901a\u7701\u6771\u5317\u5730\u65b9\u6574\u5099\u5c40\u5ca9\u624b\u5de5\u4e8b\u4e8b\u52d9\u6240","boring_xml_url":46,"boring_view_url":1,"soilmap_view_url":null,"soiltest_xml_url":49,"soiltest_view_url":49},{"id":135941,"code":"B4KJ201801002-4190","latitude":"39.39081","longitude":"141.1275","source_code":"TH20098235000330003","project_name":"","survey_name":"\u5e73\u621012\u5e74\u5ea6 \u6cb3\u5ddd\u5824\u9632\u306e\u6d78\u900f\u306b\u95a2\u3059\u308b\u8abf\u67fb","client_name":"\u56fd\u571f\u4ea4\u901a\u7701\u6771\u5317\u5730\u65b9\u6574\u5099\u5c40\u5ca9\u624b\u5de5\u4e8b\u4e8b\u52d9\u6240","boring_xml_url":46,"boring_view_url":1,"soilmap_view_url":null,"soiltest_xml_url":49,"soiltest_view_url":49},{"id":135940,"code":"B4KJ201801002-4189","latitude":"39.27775","longitude":"141.12322","source_code":"TH20098235000330002","project_name":"","survey_name":"\u5e73\u621012\u5e74\u5ea6 \u6cb3\u5ddd\u5824\u9632\u306e\u6d78\u900f\u306b\u95a2\u3059\u308b\u8abf\u67fb","client_name":"\u56fd\u571f\u4ea4\u901a\u7701\u6771\u5317\u5730\u65b9\u6574\u5099\u5c40\u5ca9\u624b\u5de5\u4e8b\u4e8b\u52d9\u6240","boring_xml_url":46,"boring_view_url":1,"soilmap_view_url":null,"soiltest_xml_url":49,"soiltest_view_url":49},{"id":135939,"code":"B4KJ201801002-4188","latitude":"39.27769","longitude":"141.12358","source_code":"TH20098235000330001","project_name":"","survey_name":"\u5e73\u621012\u5e74\u5ea6 \u6cb3\u5ddd\u5824\u9632\u306e\u6d78\u900f\u306b\u95a2\u3059\u308b\u8abf\u67fb","client_name":"\u56fd\u571f\u4ea4\u901a\u7701\u6771\u5317\u5730\u65b9\u6574\u5099\u5c40\u5ca9\u624b\u5de5\u4e8b\u4e8b\u52d9\u6240","boring_xml_url":46,"boring_view_url":1,"soilmap_view_url":null,"soiltest_xml_url":49,"soiltest_view_url":49},{"id":135938,"code":"B4KJ201801002-4187","latitude":"38.964","longitude":"141.01764","source_code":"TH20098235000320002","project_name":"","survey_name":"\u5e73\u621011\u5e74\u5ea6 \u78d0\u4e95\u5ddd\u7b4b\u5730\u8cea\u8abf\u67fb","client_name":"\u5efa\u8a2d\u7701\u6771\u5317\u5730\u65b9\u5efa\u8a2d\u5c40\u5ca9\u624b\u5de5\u4e8b\u4e8b\u52d9\u6240","boring_xml_url":46,"boring_view_url":1,"soilmap_view_url":null,"soiltest_xml_url":49,"soiltest_view_url":49},{"id":135937,"code":"B4KJ201801002-4186","latitude":"38.95956","longitude":"140.99958","source_code":"TH20098235000320001","project_name":"","survey_name":"\u5e73\u621011\u5e74\u5ea6 \u78d0\u4e95\u5ddd\u7b4b\u5730\u8cea\u8abf\u67fb","client_name":"\u5efa\u8a2d\u7701\u6771\u5317\u5730\u65b9\u5efa\u8a2d\u5c40\u5ca9\u624b\u5de5\u4e8b\u4e8b\u52d9\u6240","boring_xml_url":46,"boring_view_url":1,"soilmap_view_url":null,"soiltest_xml_url":49,"soiltest_view_url":49},{"id":135936,"code":"B4KJ201801002-4185","latitude":"38.94853","longitude":"141.13278","source_code":"TH20098235000310007","project_name":"","survey_name":"\u5e73\u621011\u5e74\u5ea6 \u7b2c2\u904a\u6c34\u5730\u5730\u5185\u6cb3\u5ddd\u6a4b\u6881\u5b9f\u65bd\u8a2d\u8a08\u696d\u52d9","client_name":"\u5efa\u8a2d\u7701\u6771\u5317\u5730\u65b9\u5efa\u8a2d\u5c40\u5ca9\u624b\u5de5\u4e8b\u4e8b\u52d9\u6240","boring_xml_url":46,"boring_view_url":1,"soilmap_view_url":null,"soiltest_xml_url":0,"soiltest_view_url":0},{"id":135935,"code":"B4KJ201801002-4184","latitude":"38.99372","longitude":"141.13458","source_code":"TH20098235000310006","project_name":"","survey_name":"\u5e73\u621011\u5e74\u5ea6 \u7b2c2\u904a\u6c34\u5730\u5730\u5185\u6cb3\u5ddd\u6a4b\u6881\u5b9f\u65bd\u8a2d\u8a08\u696d\u52d9","client_name":"\u5efa\u8a2d\u7701\u6771\u5317\u5730\u65b9\u5efa\u8a2d\u5c40\u5ca9\u624b\u5de5\u4e8b\u4e8b\u52d9\u6240","boring_xml_url":46,"boring_view_url":1,"soilmap_view_url":null,"soiltest_xml_url":49,"soiltest_view_url":49},{"id":135934,"code":"B4KJ201801002-4183","latitude":"38.99356","longitude":"141.13481","source_code":"TH20098235000310005","project_name":"","survey_name":"\u5e73\u621011\u5e74\u5ea6 \u7b2c2\u904a\u6c34\u5730\u5730\u5185\u6cb3\u5ddd\u6a4b\u6881\u5b9f\u65bd\u8a2d\u8a08\u696d\u52d9","client_name":"\u5efa\u8a2d\u7701\u6771\u5317\u5730\u65b9\u5efa\u8a2d\u5c40\u5ca9\u624b\u5de5\u4e8b\u4e8b\u52d9\u6240","boring_xml_url":46,"boring_view_url":1,"soilmap_view_url":null,"soiltest_xml_url":49,"soiltest_view_url":49},{"id":135933,"code":"B4KJ201801002-4182","latitude":"38.98397","longitude":"141.13992","source_code":"TH20098235000310004","project_name":"","survey_name":"\u5e73\u621011\u5e74\u5ea6 \u7b2c2\u904a\u6c34\u5730\u5730\u5185\u6cb3\u5ddd\u6a4b\u6881\u5b9f\u65bd\u8a2d\u8a08\u696d\u52d9","client_name":"\u5efa\u8a2d\u7701\u6771\u5317\u5730\u65b9\u5efa\u8a2d\u5c40\u5ca9\u624b\u5de5\u4e8b\u4e8b\u52d9\u6240","boring_xml_url":46,"boring_view_url":1,"soilmap_view_url":null,"soiltest_xml_url":49,"soiltest_view_url":49},{"id":135932,"code":"B4KJ201801002-4181","latitude":"38.98419","longitude":"141.14025","source_code":"TH20098235000310003","project_name":"","survey_name":"\u5e73\u621011\u5e74\u5ea6 \u7b2c2\u904a\u6c34\u5730\u5730\u5185\u6cb3\u5ddd\u6a4b\u6881\u5b9f\u65bd\u8a2d\u8a08\u696d\u52d9","client_name":"\u5efa\u8a2d\u7701\u6771\u5317\u5730\u65b9\u5efa\u8a2d\u5c40\u5ca9\u624b\u5de5\u4e8b\u4e8b\u52d9\u6240","boring_xml_url":46,"boring_view_url":1,"soilmap_view_url":null,"soiltest_xml_url":49,"soiltest_view_url":49},{"id":135931,"code":"B4KJ201801002-4180","latitude":"38.98136","longitude":"141.14614","source_code":"TH20098235000310002","project_name":"","survey_name":"\u5e73\u621011\u5e74\u5ea6 \u7b2c2\u904a\u6c34\u5730\u5730\u5185\u6cb3\u5ddd\u6a4b\u6881\u5b9f\u65bd\u8a2d\u8a08\u696d\u52d9","client_name":"\u5efa\u8a2d\u7701\u6771\u5317\u5730\u65b9\u5efa\u8a2d\u5c40\u5ca9\u624b\u5de5\u4e8b\u4e8b\u52d9\u6240","boring_xml_url":46,"boring_view_url":1,"soilmap_view_url":null,"soiltest_xml_url":49,"soiltest_view_url":49},{"id":135930,"code":"B4KJ201801002-4179","latitude":"38.98161","longitude":"141.1465","source_code":"TH20098235000310001","project_name":"","survey_name":"\u5e73\u621011\u5e74\u5ea6 \u7b2c2\u904a\u6c34\u5730\u5730\u5185\u6cb3\u5ddd\u6a4b\u6881\u5b9f\u65bd\u8a2d\u8a08\u696d\u52d9","client_name":"\u5efa\u8a2d\u7701\u6771\u5317\u5730\u65b9\u5efa\u8a2d\u5c40\u5ca9\u624b\u5de5\u4e8b\u4e8b\u52d9\u6240","boring_xml_url":46,"boring_view_url":1,"soilmap_view_url":null,"soiltest_xml_url":49,"soiltest_view_url":49},{"id":135929,"code":"B4KJ201801002-4178","latitude":"38.99972","longitude":"141.11392","source_code":"TH20098235000300002","project_name":"","survey_name":"\u5e73\u621011\u5e74\u5ea6 \u685c\u5ddd\u6392\u6c34\u6a0b\u7ba1\u5b9f\u65bd\u8a2d\u8a08\u696d\u52d9","client_name":"\u5efa\u8a2d\u7701\u6771\u5317\u5730\u65b9\u5efa\u8a2d\u5c40\u5ca9\u624b\u5de5\u4e8b\u4e8b\u52d9\u6240","boring_xml_url":46,"boring_view_url":1,"soilmap_view_url":null,"soiltest_xml_url":0,"soiltest_view_url":0},{"id":135928,"code":"B4KJ201801002-4177","latitude":"38.99922","longitude":"141.11308","source_code":"TH20098235000300001","project_name":"","survey_name":"\u5e73\u621011\u5e74\u5ea6 \u685c\u5ddd\u6392\u6c34\u6a0b\u7ba1\u5b9f\u65bd\u8a2d\u8a08\u696d\u52d9","client_name":"\u5efa\u8a2d\u7701\u6771\u5317\u5730\u65b9\u5efa\u8a2d\u5c40\u5ca9\u624b\u5de5\u4e8b\u4e8b\u52d9\u6240","boring_xml_url":46,"boring_view_url":1,"soilmap_view_url":null,"soiltest_xml_url":49,"soiltest_view_url":49},{"id":135927,"code":"B4KJ201801002-4176","latitude":"38.91897","longitude":"141.23897","source_code":"TH20098235000290023","project_name":"","survey_name":"\u5e73\u621011\u5e74\u5ea6 \u7802\u9244\u5ddd\u7bc9\u5824\u571f\u53d6\u5834\u8abf\u67fb\u696d\u52d9","client_name":"\u5efa\u8a2d\u7701\u6771\u5317\u5730\u65b9\u5efa\u8a2d\u5c40\u5ca9\u624b\u5de5\u4e8b\u4e8b\u52d9\u6240","boring_xml_url":46,"boring_view_url":1,"soilmap_view_url":null,"soiltest_xml_url":0,"soiltest_view_url":0},{"id":135926,"code":"B4KJ201801002-4175","latitude":"38.87561","longitude":"141.27358","source_code":"TH20098235000290022","project_name":"","survey_name":"\u5e73\u621011\u5e74\u5ea6 \u7802\u9244\u5ddd\u7bc9\u5824\u571f\u53d6\u5834\u8abf\u67fb\u696d\u52d9","client_name":"\u5efa\u8a2d\u7701\u6771\u5317\u5730\u65b9\u5efa\u8a2d\u5c40\u5ca9\u624b\u5de5\u4e8b\u4e8b\u52d9\u6240","boring_xml_url":46,"boring_view_url":1,"soilmap_view_url":null,"soiltest_xml_url":0,"soiltest_view_url":0}]}}