{"header":{"xyz":{"source":[],"mosaic":false},"page":6178,"raw":{"soiltest_result":"0","bbox":"57.598333,109.544722,1.933333,163.806111","page":"6178"},"conditions":{"soiltest_result":0,"north":57.598333,"west":109.544722,"south":1.933333,"east":163.806111},"success":true,"message":""},"data":{"meta":{"total":212844,"page":6178,"pages":7095,"count":30},"values":[{"id":135235,"code":"B4KJ201801002-3484","latitude":"39.37608","longitude":"141.10967","source_code":"TH20028235600200210008","project_name":"\u5e73\u621014\u5e74\u5ea6 \u6cb3\u5ddd\u5824\u9632\u306e\u6d78\u900f\u306b\u95a2\u3059\u308b\u8abf\u67fb","survey_name":"\u5e73\u621014\u5e74\u5ea6 \u6cb3\u5ddd\u5824\u9632\u306e\u6d78\u900f\u306b\u95a2\u3059\u308b\u8abf\u67fb","client_name":"\u56fd\u571f\u4ea4\u901a\u7701\u6771\u5317\u5730\u65b9\u6574\u5099\u5c40\u5ca9\u624b\u6cb3\u5ddd\u56fd\u9053\u4e8b\u52d9\u6240","boring_xml_url":49,"boring_view_url":1,"soilmap_view_url":null,"soiltest_xml_url":50,"soiltest_view_url":50},{"id":135234,"code":"B4KJ201801002-3483","latitude":"39.37597","longitude":"141.11025","source_code":"TH20028235600200210007","project_name":"\u5e73\u621014\u5e74\u5ea6 \u6cb3\u5ddd\u5824\u9632\u306e\u6d78\u900f\u306b\u95a2\u3059\u308b\u8abf\u67fb","survey_name":"\u5e73\u621014\u5e74\u5ea6 \u6cb3\u5ddd\u5824\u9632\u306e\u6d78\u900f\u306b\u95a2\u3059\u308b\u8abf\u67fb","client_name":"\u56fd\u571f\u4ea4\u901a\u7701\u6771\u5317\u5730\u65b9\u6574\u5099\u5c40\u5ca9\u624b\u6cb3\u5ddd\u56fd\u9053\u4e8b\u52d9\u6240","boring_xml_url":49,"boring_view_url":1,"soilmap_view_url":null,"soiltest_xml_url":50,"soiltest_view_url":50},{"id":135233,"code":"B4KJ201801002-3482","latitude":"39.32756","longitude":"141.14475","source_code":"TH20028235600200210006","project_name":"\u5e73\u621014\u5e74\u5ea6 \u6cb3\u5ddd\u5824\u9632\u306e\u6d78\u900f\u306b\u95a2\u3059\u308b\u8abf\u67fb","survey_name":"\u5e73\u621014\u5e74\u5ea6 \u6cb3\u5ddd\u5824\u9632\u306e\u6d78\u900f\u306b\u95a2\u3059\u308b\u8abf\u67fb","client_name":"\u56fd\u571f\u4ea4\u901a\u7701\u6771\u5317\u5730\u65b9\u6574\u5099\u5c40\u5ca9\u624b\u6cb3\u5ddd\u56fd\u9053\u4e8b\u52d9\u6240","boring_xml_url":49,"boring_view_url":1,"soilmap_view_url":null,"soiltest_xml_url":50,"soiltest_view_url":50},{"id":135232,"code":"B4KJ201801002-3481","latitude":"39.32708","longitude":"141.14461","source_code":"TH20028235600200210005","project_name":"\u5e73\u621014\u5e74\u5ea6 \u6cb3\u5ddd\u5824\u9632\u306e\u6d78\u900f\u306b\u95a2\u3059\u308b\u8abf\u67fb","survey_name":"\u5e73\u621014\u5e74\u5ea6 \u6cb3\u5ddd\u5824\u9632\u306e\u6d78\u900f\u306b\u95a2\u3059\u308b\u8abf\u67fb","client_name":"\u56fd\u571f\u4ea4\u901a\u7701\u6771\u5317\u5730\u65b9\u6574\u5099\u5c40\u5ca9\u624b\u6cb3\u5ddd\u56fd\u9053\u4e8b\u52d9\u6240","boring_xml_url":49,"boring_view_url":1,"soilmap_view_url":null,"soiltest_xml_url":50,"soiltest_view_url":50},{"id":135231,"code":"B4KJ201801002-3480","latitude":"38.93453","longitude":"141.24731","source_code":"TH20028235420200110005","project_name":"\u5e73\u621014\u5e74\u5ea6 (\u4eee\u79f0)\u5e03\u4f50\u6a4b\u4e88\u5099\u8a2d\u8a08\u696d\u52d9","survey_name":"\u5e73\u621014\u5e74\u5ea6 (\u4eee\u79f0)\u5e03\u4f50\u6a4b\u4e88\u5099\u8a2d\u8a08\u696d\u52d9","client_name":"\u56fd\u571f\u4ea4\u901a\u7701\u6771\u5317\u5730\u65b9\u6574\u5099\u5c40\u5ca9\u624b\u6cb3\u5ddd\u56fd\u9053\u4e8b\u52d9\u6240","boring_xml_url":49,"boring_view_url":1,"soilmap_view_url":null,"soiltest_xml_url":50,"soiltest_view_url":50},{"id":135230,"code":"B4KJ201801002-3479","latitude":"38.93458","longitude":"141.24783","source_code":"TH20028235420200110004","project_name":"\u5e73\u621014\u5e74\u5ea6 (\u4eee\u79f0)\u5e03\u4f50\u6a4b\u4e88\u5099\u8a2d\u8a08\u696d\u52d9","survey_name":"\u5e73\u621014\u5e74\u5ea6 (\u4eee\u79f0)\u5e03\u4f50\u6a4b\u4e88\u5099\u8a2d\u8a08\u696d\u52d9","client_name":"\u56fd\u571f\u4ea4\u901a\u7701\u6771\u5317\u5730\u65b9\u6574\u5099\u5c40\u5ca9\u624b\u6cb3\u5ddd\u56fd\u9053\u4e8b\u52d9\u6240","boring_xml_url":49,"boring_view_url":1,"soilmap_view_url":null,"soiltest_xml_url":50,"soiltest_view_url":50},{"id":135229,"code":"B4KJ201801002-3478","latitude":"38.93464","longitude":"141.24853","source_code":"TH20028235420200110003","project_name":"\u5e73\u621014\u5e74\u5ea6 (\u4eee\u79f0)\u5e03\u4f50\u6a4b\u4e88\u5099\u8a2d\u8a08\u696d\u52d9","survey_name":"\u5e73\u621014\u5e74\u5ea6 (\u4eee\u79f0)\u5e03\u4f50\u6a4b\u4e88\u5099\u8a2d\u8a08\u696d\u52d9","client_name":"\u56fd\u571f\u4ea4\u901a\u7701\u6771\u5317\u5730\u65b9\u6574\u5099\u5c40\u5ca9\u624b\u6cb3\u5ddd\u56fd\u9053\u4e8b\u52d9\u6240","boring_xml_url":49,"boring_view_url":1,"soilmap_view_url":null,"soiltest_xml_url":50,"soiltest_view_url":50},{"id":135228,"code":"B4KJ201801002-3477","latitude":"38.93467","longitude":"141.24892","source_code":"TH20028235420200110002","project_name":"\u5e73\u621014\u5e74\u5ea6 (\u4eee\u79f0)\u5e03\u4f50\u6a4b\u4e88\u5099\u8a2d\u8a08\u696d\u52d9","survey_name":"\u5e73\u621014\u5e74\u5ea6 (\u4eee\u79f0)\u5e03\u4f50\u6a4b\u4e88\u5099\u8a2d\u8a08\u696d\u52d9","client_name":"\u56fd\u571f\u4ea4\u901a\u7701\u6771\u5317\u5730\u65b9\u6574\u5099\u5c40\u5ca9\u624b\u6cb3\u5ddd\u56fd\u9053\u4e8b\u52d9\u6240","boring_xml_url":49,"boring_view_url":1,"soilmap_view_url":null,"soiltest_xml_url":50,"soiltest_view_url":50},{"id":135227,"code":"B4KJ201801002-3476","latitude":"38.93472","longitude":"141.24939","source_code":"TH20028235420200110001","project_name":"\u5e73\u621014\u5e74\u5ea6 (\u4eee\u79f0)\u5e03\u4f50\u6a4b\u4e88\u5099\u8a2d\u8a08\u696d\u52d9","survey_name":"\u5e73\u621014\u5e74\u5ea6 (\u4eee\u79f0)\u5e03\u4f50\u6a4b\u4e88\u5099\u8a2d\u8a08\u696d\u52d9","client_name":"\u56fd\u571f\u4ea4\u901a\u7701\u6771\u5317\u5730\u65b9\u6574\u5099\u5c40\u5ca9\u624b\u6cb3\u5ddd\u56fd\u9053\u4e8b\u52d9\u6240","boring_xml_url":49,"boring_view_url":1,"soilmap_view_url":null,"soiltest_xml_url":50,"soiltest_view_url":50},{"id":135226,"code":"B4KJ201801002-3475","latitude":"38.67272","longitude":"140.32789","source_code":"TH20018255610200450001","project_name":"","survey_name":"\u5e73\u621013\u5e74\u5ea6 \u5ddd\u539f\u5b50\u8de8\u9053\u6a4b\u4e88\u5099\u8a2d\u8a08\u696d\u52d9","client_name":"\u56fd\u571f\u4ea4\u901a\u7701\u6771\u5317\u5730\u65b9\u6574\u5099\u5c40\u5c71\u5f62\u6cb3\u5ddd\u56fd\u9053\u4e8b\u52d9\u6240","boring_xml_url":49,"boring_view_url":1,"soilmap_view_url":null,"soiltest_xml_url":0,"soiltest_view_url":0},{"id":135225,"code":"B4KJ201801002-3474","latitude":"38.6011","longitude":"141.2825","source_code":"TH20018240480200100017","project_name":"","survey_name":"\u6843\u751f\u767b\u7c73\u9053\u8def\u8107\u8c37\u5730\u533a\u5730\u8cea\u8abf\u67fb","client_name":"\u56fd\u571f\u4ea4\u901a\u7701\u6771\u5317\u5730\u65b9\u6574\u5099\u5c40\u4ed9\u53f0\u6cb3\u5ddd\u56fd\u9053\u4e8b\u52d9\u6240","boring_xml_url":49,"boring_view_url":1,"soilmap_view_url":null,"soiltest_xml_url":0,"soiltest_view_url":0},{"id":135224,"code":"B4KJ201801002-3473","latitude":"38.6031","longitude":"141.2828","source_code":"TH20018240480200100015","project_name":"","survey_name":"\u6843\u751f\u767b\u7c73\u9053\u8def\u8107\u8c37\u5730\u533a\u5730\u8cea\u8abf\u67fb","client_name":"\u56fd\u571f\u4ea4\u901a\u7701\u6771\u5317\u5730\u65b9\u6574\u5099\u5c40\u4ed9\u53f0\u6cb3\u5ddd\u56fd\u9053\u4e8b\u52d9\u6240","boring_xml_url":49,"boring_view_url":1,"soilmap_view_url":null,"soiltest_xml_url":0,"soiltest_view_url":0},{"id":135223,"code":"B4KJ201801002-3472","latitude":"38.6025","longitude":"141.2828","source_code":"TH20018240480200100003","project_name":"","survey_name":"\u6843\u751f\u767b\u7c73\u9053\u8def\u8107\u8c37\u5730\u533a\u5730\u8cea\u8abf\u67fb","client_name":"\u56fd\u571f\u4ea4\u901a\u7701\u6771\u5317\u5730\u65b9\u6574\u5099\u5c40\u4ed9\u53f0\u6cb3\u5ddd\u56fd\u9053\u4e8b\u52d9\u6240","boring_xml_url":49,"boring_view_url":1,"soilmap_view_url":null,"soiltest_xml_url":0,"soiltest_view_url":0},{"id":135222,"code":"B4KJ201801002-3471","latitude":"38.4672","longitude":"141.2861","source_code":"TH20018240480200100002","project_name":"","survey_name":"\u6843\u751f\u767b\u7c73\u9053\u8def\u8107\u8c37\u5730\u533a\u5730\u8cea\u8abf\u67fb","client_name":"\u56fd\u571f\u4ea4\u901a\u7701\u6771\u5317\u5730\u65b9\u6574\u5099\u5c40\u4ed9\u53f0\u6cb3\u5ddd\u56fd\u9053\u4e8b\u52d9\u6240","boring_xml_url":49,"boring_view_url":1,"soilmap_view_url":null,"soiltest_xml_url":0,"soiltest_view_url":0},{"id":135221,"code":"B4KJ201801002-3470","latitude":"38.4675","longitude":"141.2861","source_code":"TH20018240480200100001","project_name":"","survey_name":"\u6843\u751f\u767b\u7c73\u9053\u8def\u8107\u8c37\u5730\u533a\u5730\u8cea\u8abf\u67fb","client_name":"\u56fd\u571f\u4ea4\u901a\u7701\u6771\u5317\u5730\u65b9\u6574\u5099\u5c40\u4ed9\u53f0\u6cb3\u5ddd\u56fd\u9053\u4e8b\u52d9\u6240","boring_xml_url":49,"boring_view_url":1,"soilmap_view_url":null,"soiltest_xml_url":0,"soiltest_view_url":0},{"id":135220,"code":"B4KJ201801002-3469","latitude":"39.99783","longitude":"141.88561","source_code":"TH20018237600200120008","project_name":"\u5e73\u621013\u5e74\u5ea6 \u666e\u4ee3\u5730\u533a\u5730\u76e4\u8abf\u67fb","survey_name":"\u5e73\u621013\u5e74\u5ea6 \u666e\u4ee3\u5730\u533a\u5730\u76e4\u8abf\u67fb","client_name":"\u56fd\u571f\u4ea4\u901a\u7701\u6771\u5317\u5730\u65b9\u6574\u5099\u5c40\u4e09\u9678\u56fd\u9053\u4e8b\u52d9\u6240","boring_xml_url":49,"boring_view_url":1,"soilmap_view_url":null,"soiltest_xml_url":0,"soiltest_view_url":0},{"id":135219,"code":"B4KJ201801002-3468","latitude":"39.99786","longitude":"141.88533","source_code":"TH20018237600200120005","project_name":"\u5e73\u621013\u5e74\u5ea6 \u666e\u4ee3\u5730\u533a\u5730\u76e4\u8abf\u67fb","survey_name":"\u5e73\u621013\u5e74\u5ea6 \u666e\u4ee3\u5730\u533a\u5730\u76e4\u8abf\u67fb","client_name":"\u56fd\u571f\u4ea4\u901a\u7701\u6771\u5317\u5730\u65b9\u6574\u5099\u5c40\u4e09\u9678\u56fd\u9053\u4e8b\u52d9\u6240","boring_xml_url":49,"boring_view_url":1,"soilmap_view_url":null,"soiltest_xml_url":0,"soiltest_view_url":0},{"id":135218,"code":"B4KJ201801002-3467","latitude":"39.99728","longitude":"141.88458","source_code":"TH20018237600200120004","project_name":"\u5e73\u621013\u5e74\u5ea6 \u666e\u4ee3\u5730\u533a\u5730\u76e4\u8abf\u67fb","survey_name":"\u5e73\u621013\u5e74\u5ea6 \u666e\u4ee3\u5730\u533a\u5730\u76e4\u8abf\u67fb","client_name":"\u56fd\u571f\u4ea4\u901a\u7701\u6771\u5317\u5730\u65b9\u6574\u5099\u5c40\u4e09\u9678\u56fd\u9053\u4e8b\u52d9\u6240","boring_xml_url":49,"boring_view_url":1,"soilmap_view_url":null,"soiltest_xml_url":0,"soiltest_view_url":0},{"id":135217,"code":"B4KJ201801002-3466","latitude":"39.99628","longitude":"141.88369","source_code":"TH20018237600200120003","project_name":"\u5e73\u621013\u5e74\u5ea6 \u666e\u4ee3\u5730\u533a\u5730\u76e4\u8abf\u67fb","survey_name":"\u5e73\u621013\u5e74\u5ea6 \u666e\u4ee3\u5730\u533a\u5730\u76e4\u8abf\u67fb","client_name":"\u56fd\u571f\u4ea4\u901a\u7701\u6771\u5317\u5730\u65b9\u6574\u5099\u5c40\u4e09\u9678\u56fd\u9053\u4e8b\u52d9\u6240","boring_xml_url":49,"boring_view_url":1,"soilmap_view_url":null,"soiltest_xml_url":0,"soiltest_view_url":0},{"id":135216,"code":"B4KJ201801002-3465","latitude":"43.14589","longitude":"141.47147","source_code":"HK3201820040","project_name":"\u65e5\u7b20\u6a0b\u9580\u5916\u5fdc\u6025\u5bfe\u7b56\u4e8b\u524d\u8abf\u67fb\u696d\u52d9","survey_name":"\u65e5\u7b20\u6a0b\u9580\u5916\u5fdc\u6025\u5bfe\u7b56\u4e8b\u524d\u8abf\u67fb\u696d\u52d9","client_name":"\u56fd\u571f\u4ea4\u901a\u7701\u5317\u6d77\u9053\u958b\u767a\u5c40\u77f3\u72e9\u5ddd\u958b\u767a\u5efa\u8a2d\u90e8","boring_xml_url":39,"boring_view_url":1,"soilmap_view_url":null,"soiltest_xml_url":0,"soiltest_view_url":0},{"id":135215,"code":"B4KJ201801002-3464","latitude":"43.14558","longitude":"141.47125","source_code":"HK3201820039","project_name":"\u65e5\u7b20\u6a0b\u9580\u5916\u5fdc\u6025\u5bfe\u7b56\u4e8b\u524d\u8abf\u67fb\u696d\u52d9","survey_name":"\u65e5\u7b20\u6a0b\u9580\u5916\u5fdc\u6025\u5bfe\u7b56\u4e8b\u524d\u8abf\u67fb\u696d\u52d9","client_name":"\u56fd\u571f\u4ea4\u901a\u7701\u5317\u6d77\u9053\u958b\u767a\u5c40\u77f3\u72e9\u5ddd\u958b\u767a\u5efa\u8a2d\u90e8","boring_xml_url":39,"boring_view_url":1,"soilmap_view_url":null,"soiltest_xml_url":0,"soiltest_view_url":0},{"id":135214,"code":"B4KJ201801002-3463","latitude":"43.146","longitude":"141.47158","source_code":"HK3201820038","project_name":"\u65e5\u7b20\u6a0b\u9580\u5916\u5fdc\u6025\u5bfe\u7b56\u4e8b\u524d\u8abf\u67fb\u696d\u52d9","survey_name":"\u65e5\u7b20\u6a0b\u9580\u5916\u5fdc\u6025\u5bfe\u7b56\u4e8b\u524d\u8abf\u67fb\u696d\u52d9","client_name":"\u56fd\u571f\u4ea4\u901a\u7701\u5317\u6d77\u9053\u958b\u767a\u5c40\u77f3\u72e9\u5ddd\u958b\u767a\u5efa\u8a2d\u90e8","boring_xml_url":39,"boring_view_url":1,"soilmap_view_url":null,"soiltest_xml_url":0,"soiltest_view_url":0},{"id":135213,"code":"B4KJ201801002-3462","latitude":"43.14575","longitude":"141.47136","source_code":"HK3201820037","project_name":"\u65e5\u7b20\u6a0b\u9580\u5916\u5fdc\u6025\u5bfe\u7b56\u4e8b\u524d\u8abf\u67fb\u696d\u52d9","survey_name":"\u65e5\u7b20\u6a0b\u9580\u5916\u5fdc\u6025\u5bfe\u7b56\u4e8b\u524d\u8abf\u67fb\u696d\u52d9","client_name":"\u56fd\u571f\u4ea4\u901a\u7701\u5317\u6d77\u9053\u958b\u767a\u5c40\u77f3\u72e9\u5ddd\u958b\u767a\u5efa\u8a2d\u90e8","boring_xml_url":39,"boring_view_url":1,"soilmap_view_url":null,"soiltest_xml_url":0,"soiltest_view_url":0},{"id":135212,"code":"B4KJ201801002-3461","latitude":"43.1455","longitude":"141.47122","source_code":"HK3201820036","project_name":"\u65e5\u7b20\u6a0b\u9580\u5916\u5fdc\u6025\u5bfe\u7b56\u4e8b\u524d\u8abf\u67fb\u696d\u52d9","survey_name":"\u65e5\u7b20\u6a0b\u9580\u5916\u5fdc\u6025\u5bfe\u7b56\u4e8b\u524d\u8abf\u67fb\u696d\u52d9","client_name":"\u56fd\u571f\u4ea4\u901a\u7701\u5317\u6d77\u9053\u958b\u767a\u5c40\u77f3\u72e9\u5ddd\u958b\u767a\u5efa\u8a2d\u90e8","boring_xml_url":39,"boring_view_url":1,"soilmap_view_url":null,"soiltest_xml_url":0,"soiltest_view_url":0},{"id":135211,"code":"B4KJ201801002-3460","latitude":"43.08042","longitude":"141.72486","source_code":"HK3201820035","project_name":"\u65e5\u7b20\u6a0b\u9580\u5916\u5fdc\u6025\u5bfe\u7b56\u4e8b\u524d\u8abf\u67fb\u696d\u52d9","survey_name":"\u65e5\u7b20\u6a0b\u9580\u5916\u5fdc\u6025\u5bfe\u7b56\u4e8b\u524d\u8abf\u67fb\u696d\u52d9","client_name":"\u56fd\u571f\u4ea4\u901a\u7701\u5317\u6d77\u9053\u958b\u767a\u5c40\u77f3\u72e9\u5ddd\u958b\u767a\u5efa\u8a2d\u90e8","boring_xml_url":39,"boring_view_url":1,"soilmap_view_url":null,"soiltest_xml_url":0,"soiltest_view_url":0},{"id":135210,"code":"B4KJ201801002-3459","latitude":"43.08028","longitude":"141.72483","source_code":"HK3201820034","project_name":"\u65e5\u7b20\u6a0b\u9580\u5916\u5fdc\u6025\u5bfe\u7b56\u4e8b\u524d\u8abf\u67fb\u696d\u52d9","survey_name":"\u65e5\u7b20\u6a0b\u9580\u5916\u5fdc\u6025\u5bfe\u7b56\u4e8b\u524d\u8abf\u67fb\u696d\u52d9","client_name":"\u56fd\u571f\u4ea4\u901a\u7701\u5317\u6d77\u9053\u958b\u767a\u5c40\u77f3\u72e9\u5ddd\u958b\u767a\u5efa\u8a2d\u90e8","boring_xml_url":39,"boring_view_url":1,"soilmap_view_url":null,"soiltest_xml_url":0,"soiltest_view_url":0},{"id":135209,"code":"B4KJ201801002-3458","latitude":"43.08039","longitude":"141.72486","source_code":"HK3201820033","project_name":"\u65e5\u7b20\u6a0b\u9580\u5916\u5fdc\u6025\u5bfe\u7b56\u4e8b\u524d\u8abf\u67fb\u696d\u52d9","survey_name":"\u65e5\u7b20\u6a0b\u9580\u5916\u5fdc\u6025\u5bfe\u7b56\u4e8b\u524d\u8abf\u67fb\u696d\u52d9","client_name":"\u56fd\u571f\u4ea4\u901a\u7701\u5317\u6d77\u9053\u958b\u767a\u5c40\u77f3\u72e9\u5ddd\u958b\u767a\u5efa\u8a2d\u90e8","boring_xml_url":39,"boring_view_url":1,"soilmap_view_url":null,"soiltest_xml_url":0,"soiltest_view_url":0},{"id":135208,"code":"B4KJ201801002-3457","latitude":"43.08033","longitude":"141.72483","source_code":"HK3201820032","project_name":"\u65e5\u7b20\u6a0b\u9580\u5916\u5fdc\u6025\u5bfe\u7b56\u4e8b\u524d\u8abf\u67fb\u696d\u52d9","survey_name":"\u65e5\u7b20\u6a0b\u9580\u5916\u5fdc\u6025\u5bfe\u7b56\u4e8b\u524d\u8abf\u67fb\u696d\u52d9","client_name":"\u56fd\u571f\u4ea4\u901a\u7701\u5317\u6d77\u9053\u958b\u767a\u5c40\u77f3\u72e9\u5ddd\u958b\u767a\u5efa\u8a2d\u90e8","boring_xml_url":39,"boring_view_url":1,"soilmap_view_url":null,"soiltest_xml_url":0,"soiltest_view_url":0},{"id":135207,"code":"B4KJ201801002-3456","latitude":"43.08028","longitude":"141.72486","source_code":"HK3201820031","project_name":"\u65e5\u7b20\u6a0b\u9580\u5916\u5fdc\u6025\u5bfe\u7b56\u4e8b\u524d\u8abf\u67fb\u696d\u52d9","survey_name":"\u65e5\u7b20\u6a0b\u9580\u5916\u5fdc\u6025\u5bfe\u7b56\u4e8b\u524d\u8abf\u67fb\u696d\u52d9","client_name":"\u56fd\u571f\u4ea4\u901a\u7701\u5317\u6d77\u9053\u958b\u767a\u5c40\u77f3\u72e9\u5ddd\u958b\u767a\u5efa\u8a2d\u90e8","boring_xml_url":39,"boring_view_url":1,"soilmap_view_url":null,"soiltest_xml_url":0,"soiltest_view_url":0},{"id":135206,"code":"B4KJ201801002-3455","latitude":"43.08506","longitude":"141.74069","source_code":"HK3201820030","project_name":"\u65e5\u7b20\u6a0b\u9580\u5916\u5fdc\u6025\u5bfe\u7b56\u4e8b\u524d\u8abf\u67fb\u696d\u52d9","survey_name":"\u65e5\u7b20\u6a0b\u9580\u5916\u5fdc\u6025\u5bfe\u7b56\u4e8b\u524d\u8abf\u67fb\u696d\u52d9","client_name":"\u56fd\u571f\u4ea4\u901a\u7701\u5317\u6d77\u9053\u958b\u767a\u5c40\u77f3\u72e9\u5ddd\u958b\u767a\u5efa\u8a2d\u90e8","boring_xml_url":39,"boring_view_url":1,"soilmap_view_url":null,"soiltest_xml_url":0,"soiltest_view_url":0}]}}