{"header":{"xyz":{"source":[],"mosaic":false},"page":618,"raw":{"soiltest_result":"0","bbox":"57.598333,109.544722,1.933333,163.806111","page":"618"},"conditions":{"soiltest_result":0,"north":57.598333,"west":109.544722,"south":1.933333,"east":163.806111},"success":true,"message":""},"data":{"meta":{"total":212844,"page":618,"pages":7095,"count":30},"values":[{"id":526878,"code":"B4KJ202201002-9414","latitude":"33.8045","longitude":"133.8145","source_code":"128837652000410006","project_name":"\u5e73\u621025\u5e74\u5ea6\u3000\u30bf\u30c0\u30ec\u8c37\u7802\u9632\u5830\u5824\u6e2c\u91cf\u8a2d\u8a08\u696d\u52d9","survey_name":"\u5e73\u621025\u5e74\u5ea6\u3000\u30bf\u30c0\u30ec\u8c37\u7802\u9632\u5830\u5824\u6e2c\u91cf\u8a2d\u8a08\u696d\u52d9","client_name":"\u56fd\u571f\u4ea4\u901a\u7701\u56db\u56fd\u5730\u65b9\u6574\u5099\u5c40\u3000\u56db\u56fd\u5c71\u5730\u7802\u9632\u4e8b\u52d9\u6240","boring_xml_url":64,"boring_view_url":1,"soilmap_view_url":null,"soiltest_xml_url":0,"soiltest_view_url":0},{"id":526877,"code":"B4KJ202201002-9413","latitude":"33.804472","longitude":"133.814389","source_code":"128837652000410005","project_name":"\u5e73\u621025\u5e74\u5ea6\u3000\u30bf\u30c0\u30ec\u8c37\u7802\u9632\u5830\u5824\u6e2c\u91cf\u8a2d\u8a08\u696d\u52d9","survey_name":"\u5e73\u621025\u5e74\u5ea6\u3000\u30bf\u30c0\u30ec\u8c37\u7802\u9632\u5830\u5824\u6e2c\u91cf\u8a2d\u8a08\u696d\u52d9","client_name":"\u56fd\u571f\u4ea4\u901a\u7701\u56db\u56fd\u5730\u65b9\u6574\u5099\u5c40\u3000\u56db\u56fd\u5c71\u5730\u7802\u9632\u4e8b\u52d9\u6240","boring_xml_url":64,"boring_view_url":1,"soilmap_view_url":null,"soiltest_xml_url":0,"soiltest_view_url":0},{"id":526876,"code":"B4KJ202201002-9412","latitude":"33.789297","longitude":"133.781361","source_code":"128837652000410004","project_name":"","survey_name":"\"\u5e73\u621025\u5e74\u5ea6 \u843d\u5408\u4eee\u6a4b\u65bd\u5de5\u65b9\u6cd5\u691c\u8a0e\u696d\u52d9\"","client_name":"\u56db\u56fd\u5c71\u5730\u7802\u9632\u4e8b\u52d9\u6240","boring_xml_url":64,"boring_view_url":1,"soilmap_view_url":null,"soiltest_xml_url":0,"soiltest_view_url":0},{"id":526875,"code":"B4KJ202201002-9411","latitude":"33.789485","longitude":"133.781209","source_code":"128837652000410003","project_name":"","survey_name":"\u5e73\u621025\u5e74\u5ea6\u3000\u843d\u5408\u4eee\u6a4b\u65bd\u5de5\u65b9\u6cd5\u691c\u8a0e\u696d\u52d9","client_name":"\u56db\u56fd\u5c71\u5730\u7802\u9632\u4e8b\u52d9\u6240","boring_xml_url":64,"boring_view_url":1,"soilmap_view_url":null,"soiltest_xml_url":0,"soiltest_view_url":0},{"id":526874,"code":"B4KJ202201002-9410","latitude":"33.88125","longitude":"133.940194","source_code":"128837652000410002","project_name":"","survey_name":"\u5e73\u621024\u5e74\u5ea6\u3000\u843d\u5408\u8c37\u5ddd\u5de6\u652f\u7802\u9632\u5830\u5824\u6e2c\u91cf\u8a2d\u8a08\u696d\u52d9","client_name":"\u56fd\u571f\u4ea4\u901a\u7701\u3000\u56db\u56fd\u5730\u65b9\u6574\u5099\u5c40\u3000\u56db\u56fd\u5c71\u5730\u7802\u9632\u4e8b\u52d9\u6240","boring_xml_url":64,"boring_view_url":1,"soilmap_view_url":null,"soiltest_xml_url":0,"soiltest_view_url":0},{"id":526873,"code":"B4KJ202201002-9409","latitude":"33.881217","longitude":"133.940417","source_code":"128837652000410001","project_name":"","survey_name":"\u5e73\u621024\u5e74\u5ea6\u3000\u843d\u5408\u8c37\u5ddd\u5de6\u652f\u7802\u9632\u5830\u5824\u6e2c\u91cf\u8a2d\u8a08\u696d\u52d9","client_name":"\u56fd\u571f\u4ea4\u901a\u7701\u3000\u56db\u56fd\u5730\u65b9\u6574\u5099\u5c40\u3000\u56db\u56fd\u5c71\u5730\u7802\u9632\u4e8b\u52d9\u6240","boring_xml_url":64,"boring_view_url":1,"soilmap_view_url":null,"soiltest_xml_url":0,"soiltest_view_url":0},{"id":526872,"code":"B4KJ202201002-9408","latitude":"33.88105","longitude":"133.9402","source_code":"128837652000400004","project_name":"","survey_name":"\u5e73\u621024\u5e74\u5ea6\u3000\u843d\u5408\u8c37\u5ddd\u5de6\u652f\u7802\u9632\u5830\u5824\u6e2c\u91cf\u8a2d\u8a08\u696d\u52d9","client_name":"\u56fd\u571f\u4ea4\u901a\u7701\u3000\u56db\u56fd\u5730\u65b9\u6574\u5099\u5c40\u3000\u56db\u56fd\u5c71\u5730\u7802\u9632\u4e8b\u52d9\u6240","boring_xml_url":64,"boring_view_url":1,"soilmap_view_url":null,"soiltest_xml_url":0,"soiltest_view_url":0},{"id":526871,"code":"B4KJ202201002-9407","latitude":"33.880867","longitude":"133.940267","source_code":"128837652000400003","project_name":"","survey_name":"\u5e73\u621024\u5e74\u5ea6\u3000\u843d\u5408\u8c37\u5ddd\u5de6\u652f\u7802\u9632\u5830\u5824\u6e2c\u91cf\u8a2d\u8a08\u696d\u52d9","client_name":"\u56fd\u571f\u4ea4\u901a\u7701\u3000\u56db\u56fd\u5730\u65b9\u6574\u5099\u5c40\u3000\u56db\u56fd\u5c71\u5730\u7802\u9632\u4e8b\u52d9\u6240","boring_xml_url":64,"boring_view_url":1,"soilmap_view_url":null,"soiltest_xml_url":0,"soiltest_view_url":0},{"id":526870,"code":"B4KJ202201002-9406","latitude":"33.880967","longitude":"133.940278","source_code":"128837652000400002","project_name":"","survey_name":"\u5e73\u621024\u5e74\u5ea6\u3000\u843d\u5408\u8c37\u5ddd\u5de6\u652f\u7802\u9632\u5830\u5824\u6e2c\u91cf\u8a2d\u8a08\u696d\u52d9","client_name":"\u56fd\u571f\u4ea4\u901a\u7701\u3000\u56db\u56fd\u5730\u65b9\u6574\u5099\u5c40\u3000\u56db\u56fd\u5c71\u5730\u7802\u9632\u4e8b\u52d9\u6240","boring_xml_url":64,"boring_view_url":1,"soilmap_view_url":null,"soiltest_xml_url":0,"soiltest_view_url":0},{"id":526869,"code":"B4KJ202201002-9405","latitude":"33.881167","longitude":"133.940733","source_code":"128837652000400001","project_name":"","survey_name":"\u5e73\u621024\u5e74\u5ea6\u3000\u843d\u5408\u8c37\u5ddd\u5de6\u652f\u7802\u9632\u5830\u5824\u6e2c\u91cf\u8a2d\u8a08\u696d\u52d9","client_name":"\u56fd\u571f\u4ea4\u901a\u7701\u3000\u56db\u56fd\u5730\u65b9\u6574\u5099\u5c40\u3000\u56db\u56fd\u5c71\u5730\u7802\u9632\u4e8b\u52d9\u6240","boring_xml_url":64,"boring_view_url":1,"soilmap_view_url":null,"soiltest_xml_url":0,"soiltest_view_url":0},{"id":526868,"code":"B4KJ202201002-9404","latitude":"33.781446","longitude":"132.954936","source_code":"128837652000390005","project_name":"\u5e73\u621024\u5e74\u5ea6\u3000\u5b9d\u8535\u5bfa\u4e0a\u8c37\u7802\u9632\u5830\u5824\u6e2c\u91cf\u8a2d\u8a08\u696d\u52d9","survey_name":"\u5e73\u621024\u5e74\u5ea6\u3000\u5b9d\u8535\u5bfa\u4e0a\u8c37\u7802\u9632\u5830\u5824\u6e2c\u91cf\u8a2d\u8a08\u696d\u52d9","client_name":"\u56fd\u571f\u4ea4\u901a\u7701\u56db\u56fd\u5730\u65b9\u6574\u5099\u5c40\u56db\u56fd\u5c71\u5730\u7802\u9632\u4e8b\u52d9\u6240","boring_xml_url":64,"boring_view_url":1,"soilmap_view_url":null,"soiltest_xml_url":0,"soiltest_view_url":0},{"id":526867,"code":"B4KJ202201002-9403","latitude":"33.781542","longitude":"132.954673","source_code":"128837652000390004","project_name":"\u5e73\u621024\u5e74\u5ea6\u3000\u5b9d\u8535\u5bfa\u4e0a\u8c37\u7802\u9632\u5830\u5824\u6e2c\u91cf\u8a2d\u8a08\u696d\u52d9","survey_name":"\u5e73\u621024\u5e74\u5ea6\u3000\u5b9d\u8535\u5bfa\u4e0a\u8c37\u7802\u9632\u5830\u5824\u6e2c\u91cf\u8a2d\u8a08\u696d\u52d9","client_name":"\u56fd\u571f\u4ea4\u901a\u7701\u56db\u56fd\u5730\u65b9\u6574\u5099\u5c40\u56db\u56fd\u5c71\u5730\u7802\u9632\u4e8b\u52d9\u6240","boring_xml_url":64,"boring_view_url":1,"soilmap_view_url":null,"soiltest_xml_url":0,"soiltest_view_url":0},{"id":526866,"code":"B4KJ202201002-9402","latitude":"33.781419","longitude":"132.954703","source_code":"128837652000390003","project_name":"\u5e73\u621024\u5e74\u5ea6\u3000\u5b9d\u8535\u5bfa\u4e0a\u8c37\u7802\u9632\u5830\u5824\u6e2c\u91cf\u8a2d\u8a08\u696d\u52d9","survey_name":"\u5e73\u621024\u5e74\u5ea6\u3000\u5b9d\u8535\u5bfa\u4e0a\u8c37\u7802\u9632\u5830\u5824\u6e2c\u91cf\u8a2d\u8a08\u696d\u52d9","client_name":"\u56fd\u571f\u4ea4\u901a\u7701\u56db\u56fd\u5730\u65b9\u6574\u5099\u5c40\u56db\u56fd\u5c71\u5730\u7802\u9632\u4e8b\u52d9\u6240","boring_xml_url":64,"boring_view_url":1,"soilmap_view_url":null,"soiltest_xml_url":0,"soiltest_view_url":0},{"id":526865,"code":"B4KJ202201002-9401","latitude":"33.781301","longitude":"132.954743","source_code":"128837652000390002","project_name":"\u5e73\u621024\u5e74\u5ea6\u3000\u5b9d\u8535\u5bfa\u4e0a\u8c37\u7802\u9632\u5830\u5824\u6e2c\u91cf\u8a2d\u8a08\u696d\u52d9","survey_name":"\u5e73\u621024\u5e74\u5ea6\u3000\u5b9d\u8535\u5bfa\u4e0a\u8c37\u7802\u9632\u5830\u5824\u6e2c\u91cf\u8a2d\u8a08\u696d\u52d9","client_name":"\u56fd\u571f\u4ea4\u901a\u7701\u56db\u56fd\u5730\u65b9\u6574\u5099\u5c40\u56db\u56fd\u5c71\u5730\u7802\u9632\u4e8b\u52d9\u6240","boring_xml_url":64,"boring_view_url":1,"soilmap_view_url":null,"soiltest_xml_url":0,"soiltest_view_url":0},{"id":526864,"code":"B4KJ202201002-9400","latitude":"33.787467","longitude":"133.795158","source_code":"128837652000390001","project_name":"\"\u5e73\u621024\u5e74\u5ea6 \u4e09\u6d25\u5b50\u91ce\u7802\u9632\u5830\u5824\u6e2c\u91cf\u8a2d\u8a08\u696d\u52d9\"","survey_name":"\"\u5e73\u621024\u5e74\u5ea6 \u4e09\u6d25\u5b50\u91ce\u7802\u9632\u5830\u5824\u6e2c\u91cf\u8a2d\u8a08\u696d\u52d9\"","client_name":"\"\u56fd\u571f\u4ea4\u901a\u7701 \u56db\u56fd\u5730\u65b9\u6574\u5099\u5c40 \u56db\u56fd\u5c71\u5730\u7802\u9632\u4e8b\u52d9\u6240\"","boring_xml_url":64,"boring_view_url":1,"soilmap_view_url":null,"soiltest_xml_url":0,"soiltest_view_url":0},{"id":526863,"code":"B4KJ202201002-9399","latitude":"33.787603","longitude":"133.795111","source_code":"128837652000370003","project_name":"\"\u5e73\u621024\u5e74\u5ea6 \u4e09\u6d25\u5b50\u91ce\u7802\u9632\u5830\u5824\u6e2c\u91cf\u8a2d\u8a08\u696d\u52d9\"","survey_name":"\"\u5e73\u621024\u5e74\u5ea6 \u4e09\u6d25\u5b50\u91ce\u7802\u9632\u5830\u5824\u6e2c\u91cf\u8a2d\u8a08\u696d\u52d9\"","client_name":"\"\u56fd\u571f\u4ea4\u901a\u7701 \u56db\u56fd\u5730\u65b9\u6574\u5099\u5c40 \u56db\u56fd\u5c71\u5730\u7802\u9632\u4e8b\u52d9\u6240\"","boring_xml_url":64,"boring_view_url":1,"soilmap_view_url":null,"soiltest_xml_url":0,"soiltest_view_url":0},{"id":526862,"code":"B4KJ202201002-9398","latitude":"33.787669","longitude":"133.794806","source_code":"128837652000370002","project_name":"\"\u5e73\u621024\u5e74\u5ea6 \u4e09\u6d25\u5b50\u91ce\u7802\u9632\u5830\u5824\u6e2c\u91cf\u8a2d\u8a08\u696d\u52d9\"","survey_name":"\"\u5e73\u621024\u5e74\u5ea6 \u4e09\u6d25\u5b50\u91ce\u7802\u9632\u5830\u5824\u6e2c\u91cf\u8a2d\u8a08\u696d\u52d9\"","client_name":"\"\u56fd\u571f\u4ea4\u901a\u7701 \u56db\u56fd\u5730\u65b9\u6574\u5099\u5c40 \u56db\u56fd\u5c71\u5730\u7802\u9632\u4e8b\u52d9\u6240\"","boring_xml_url":64,"boring_view_url":1,"soilmap_view_url":null,"soiltest_xml_url":0,"soiltest_view_url":0},{"id":526861,"code":"B4KJ202201002-9397","latitude":"33.787711","longitude":"133.795064","source_code":"128837652000370001","project_name":"\"\u5e73\u621024\u5e74\u5ea6 \u4e09\u6d25\u5b50\u91ce\u7802\u9632\u5830\u5824\u6e2c\u91cf\u8a2d\u8a08\u696d\u52d9\"","survey_name":"\"\u5e73\u621024\u5e74\u5ea6 \u4e09\u6d25\u5b50\u91ce\u7802\u9632\u5830\u5824\u6e2c\u91cf\u8a2d\u8a08\u696d\u52d9\"","client_name":"\"\u56fd\u571f\u4ea4\u901a\u7701 \u56db\u56fd\u5730\u65b9\u6574\u5099\u5c40 \u56db\u56fd\u5c71\u5730\u7802\u9632\u4e8b\u52d9\u6240\"","boring_xml_url":64,"boring_view_url":1,"soilmap_view_url":null,"soiltest_xml_url":0,"soiltest_view_url":0},{"id":526860,"code":"B4KJ202201002-9396","latitude":"33.787753","longitude":"133.795208","source_code":"128837652000250003","project_name":"\"\u5e73\u621024\u5e74\u5ea6 \u4e09\u6d25\u5b50\u91ce\u7802\u9632\u5830\u5824\u6e2c\u91cf\u8a2d\u8a08\u696d\u52d9\"","survey_name":"\"\u5e73\u621024\u5e74\u5ea6 \u4e09\u6d25\u5b50\u91ce\u7802\u9632\u5830\u5824\u6e2c\u91cf\u8a2d\u8a08\u696d\u52d9\"","client_name":"\"\u56fd\u571f\u4ea4\u901a\u7701 \u56db\u56fd\u5730\u65b9\u6574\u5099\u5c40 \u56db\u56fd\u5c71\u5730\u7802\u9632\u4e8b\u52d9\u6240\"","boring_xml_url":64,"boring_view_url":1,"soilmap_view_url":null,"soiltest_xml_url":0,"soiltest_view_url":0},{"id":526859,"code":"B4KJ202201002-9395","latitude":"33.686844","longitude":"133.491075","source_code":"128837652000250002","project_name":"","survey_name":"\"\u5e73\u621024\u5e74\u5ea6 \u65b0\u5341\u90ce\u8352\u8c37\u7802\u9632\u5830\u5824\u6e2c\u91cf\u8a2d\u8a08\u696d\u52d9\"","client_name":"\"\u56fd\u571f\u4ea4\u901a\u7701 \u56db\u56fd\u5730\u65b9\u6574\u5099\u5c40 \u56db\u56fd\u5c71\u5730\u7802\u9632\u4e8b\u52d9\u6240\"","boring_xml_url":64,"boring_view_url":1,"soilmap_view_url":null,"soiltest_xml_url":0,"soiltest_view_url":0},{"id":526858,"code":"B4KJ202201002-9394","latitude":"33.685964","longitude":"133.49105","source_code":"128837652000250001","project_name":"","survey_name":"\"\u5e73\u621024\u5e74\u5ea6 \u65b0\u5341\u90ce\u8352\u8c37\u7802\u9632\u5830\u5824\u6e2c\u91cf\u8a2d\u8a08\u696d\u52d9\"","client_name":"\"\u56fd\u571f\u4ea4\u901a\u7701 \u56db\u56fd\u5730\u65b9\u6574\u5099\u5c40 \u56db\u56fd\u5c71\u5730\u7802\u9632\u4e8b\u52d9\u6240\"","boring_xml_url":64,"boring_view_url":1,"soilmap_view_url":null,"soiltest_xml_url":0,"soiltest_view_url":0},{"id":526857,"code":"B4KJ202201002-9393","latitude":"33.687378","longitude":"133.491339","source_code":"128837652000190006","project_name":"","survey_name":"\"\u5e73\u621024\u5e74\u5ea6 \u65b0\u5341\u90ce\u8352\u8c37\u7802\u9632\u5830\u5824\u6e2c\u91cf\u8a2d\u8a08\u696d\u52d9\"","client_name":"\"\u56fd\u571f\u4ea4\u901a\u7701 \u56db\u56fd\u5730\u65b9\u6574\u5099\u5c40 \u56db\u56fd\u5c71\u5730\u7802\u9632\u4e8b\u52d9\u6240\"","boring_xml_url":64,"boring_view_url":1,"soilmap_view_url":null,"soiltest_xml_url":0,"soiltest_view_url":0},{"id":526856,"code":"B4KJ202201002-9392","latitude":"33.765335","longitude":"132.965709","source_code":"128837652000190005","project_name":"\"\u5e73\u621024\u5e74\u5ea6 \u91cd\u4fe1\u5ddd\u7802\u9632\u5830\u5824\u6982\u7565\u8a2d\u8a08(\u305d\u306e1)\u696d\u52d9\"","survey_name":"\"\u5e73\u621024\u5e74\u5ea6 \u91cd\u4fe1\u5ddd\u7802\u9632\u5830\u5824\u6982\u7565\u8a2d\u8a08(\u305d\u306e1)\u696d\u52d9\"","client_name":"\u56fd\u571f\u4ea4\u901a\u7701\u56db\u56fd\u5730\u65b9\u6574\u5099\u5c40\u56db\u56fd\u5c71\u5730\u7802\u9632\u4e8b\u52d9\u6240","boring_xml_url":64,"boring_view_url":1,"soilmap_view_url":null,"soiltest_xml_url":0,"soiltest_view_url":0},{"id":526855,"code":"B4KJ202201002-9391","latitude":"33.765266","longitude":"132.966011","source_code":"128837652000190004","project_name":"\"\u5e73\u621024\u5e74\u5ea6 \u91cd\u4fe1\u5ddd\u7802\u9632\u5830\u5824\u6982\u7565\u8a2d\u8a08(\u305d\u306e1)\u696d\u52d9\"","survey_name":"\"\u5e73\u621024\u5e74\u5ea6 \u91cd\u4fe1\u5ddd\u7802\u9632\u5830\u5824\u6982\u7565\u8a2d\u8a08(\u305d\u306e1)\u696d\u52d9\"","client_name":"\u56fd\u571f\u4ea4\u901a\u7701\u56db\u56fd\u5730\u65b9\u6574\u5099\u5c40\u56db\u56fd\u5c71\u5730\u7802\u9632\u4e8b\u52d9\u6240","boring_xml_url":64,"boring_view_url":1,"soilmap_view_url":null,"soiltest_xml_url":0,"soiltest_view_url":0},{"id":526854,"code":"B4KJ202201002-9390","latitude":"33.765304","longitude":"132.965843","source_code":"128837652000190003","project_name":"\"\u5e73\u621024\u5e74\u5ea6 \u91cd\u4fe1\u5ddd\u7802\u9632\u5830\u5824\u6982\u7565\u8a2d\u8a08(\u305d\u306e1)\u696d\u52d9\"","survey_name":"\"\u5e73\u621024\u5e74\u5ea6 \u91cd\u4fe1\u5ddd\u7802\u9632\u5830\u5824\u6982\u7565\u8a2d\u8a08(\u305d\u306e1)\u696d\u52d9\"","client_name":"\u56fd\u571f\u4ea4\u901a\u7701\u56db\u56fd\u5730\u65b9\u6574\u5099\u5c40\u56db\u56fd\u5c71\u5730\u7802\u9632\u4e8b\u52d9\u6240","boring_xml_url":64,"boring_view_url":1,"soilmap_view_url":null,"soiltest_xml_url":0,"soiltest_view_url":0},{"id":526853,"code":"B4KJ202201002-9389","latitude":"33.514535","longitude":"134.111044","source_code":"128837652000190002","project_name":"","survey_name":"\u5e73\u621024\u5e74\u5ea6\u5927\u8c37\u5ddd\u7b2c3\u7802\u9632\u5830\u5824\u6e2c\u91cf\u8a2d\u8a08\u696d\u52d9","client_name":"\u56fd\u571f\u4ea4\u901a\u7701\u56db\u56fd\u5730\u65b9\u6574\u5099\u5c40\u56db\u56fd\u5c71\u5730\u7802\u9632\u4e8b\u52d9\u6240","boring_xml_url":64,"boring_view_url":1,"soilmap_view_url":null,"soiltest_xml_url":0,"soiltest_view_url":0},{"id":526852,"code":"B4KJ202201002-9388","latitude":"33.51463","longitude":"134.111107","source_code":"128837652000190001","project_name":"","survey_name":"\u5e73\u621024\u5e74\u5ea6\u5927\u8c37\u5ddd\u7b2c3\u7802\u9632\u5830\u5824\u6e2c\u91cf\u8a2d\u8a08\u696d\u52d9","client_name":"\u56fd\u571f\u4ea4\u901a\u7701\u56db\u56fd\u5730\u65b9\u6574\u5099\u5c40\u56db\u56fd\u5c71\u5730\u7802\u9632\u4e8b\u52d9\u6240","boring_xml_url":64,"boring_view_url":1,"soilmap_view_url":null,"soiltest_xml_url":0,"soiltest_view_url":0},{"id":526851,"code":"B4KJ202201002-9387","latitude":"33.514294","longitude":"134.111476","source_code":"128837652000110003","project_name":"","survey_name":"\u5e73\u621024\u5e74\u5ea6\u5927\u8c37\u5ddd\u7b2c3\u7802\u9632\u5830\u5824\u6e2c\u91cf\u8a2d\u8a08\u696d\u52d9","client_name":"\u56fd\u571f\u4ea4\u901a\u7701\u56db\u56fd\u5730\u65b9\u6574\u5099\u5c40\u56db\u56fd\u5c71\u5730\u7802\u9632\u4e8b\u52d9\u6240","boring_xml_url":64,"boring_view_url":1,"soilmap_view_url":null,"soiltest_xml_url":0,"soiltest_view_url":0},{"id":526850,"code":"B4KJ202201002-9386","latitude":"33.514642","longitude":"134.110862","source_code":"128837652000110002","project_name":"","survey_name":"\u5e73\u621024\u5e74\u5ea6\u5927\u8c37\u5ddd\u7b2c3\u7802\u9632\u5830\u5824\u6e2c\u91cf\u8a2d\u8a08\u696d\u52d9","client_name":"\u56fd\u571f\u4ea4\u901a\u7701\u56db\u56fd\u5730\u65b9\u6574\u5099\u5c40\u56db\u56fd\u5c71\u5730\u7802\u9632\u4e8b\u52d9\u6240","boring_xml_url":64,"boring_view_url":1,"soilmap_view_url":null,"soiltest_xml_url":0,"soiltest_view_url":0},{"id":526849,"code":"B4KJ202201002-9385","latitude":"33.514648","longitude":"134.11146","source_code":"128837652000110001","project_name":"","survey_name":"\u5e73\u621024\u5e74\u5ea6\u5927\u8c37\u5ddd\u7b2c3\u7802\u9632\u5830\u5824\u6e2c\u91cf\u8a2d\u8a08\u696d\u52d9","client_name":"\u56fd\u571f\u4ea4\u901a\u7701\u56db\u56fd\u5730\u65b9\u6574\u5099\u5c40\u56db\u56fd\u5c71\u5730\u7802\u9632\u4e8b\u52d9\u6240","boring_xml_url":64,"boring_view_url":1,"soilmap_view_url":null,"soiltest_xml_url":0,"soiltest_view_url":0}]}}