{"header":{"xyz":{"source":[],"mosaic":false},"page":6180,"raw":{"soiltest_result":"0","bbox":"57.598333,109.544722,1.933333,163.806111","page":"6180"},"conditions":{"soiltest_result":0,"north":57.598333,"west":109.544722,"south":1.933333,"east":163.806111},"success":true,"message":""},"data":{"meta":{"total":212844,"page":6180,"pages":7095,"count":30},"values":[{"id":135175,"code":"B4KJ201801002-3424","latitude":"43.66936","longitude":"142.02111","source_code":"HK30520007","project_name":"\u4e00\u822c\u56fd\u905312\u53f7\u6df1\u5ddd\u5e02","survey_name":"\u4e00\u822c\u56fd\u905312\u53f7\u6df1\u5ddd\u5e02\u6c96\u91cc\u6cb3\u6a4b\u5730\u8cea\u8abf\u67fb\u5916\u4e00\u9023\u696d\u52d9","client_name":"\u56fd\u571f\u4ea4\u901a\u7701\u5317\u6d77\u9053\u958b\u767a\u5c40\u672d\u5e4c\u958b\u767a\u5efa\u8a2d\u90e8","boring_xml_url":37,"boring_view_url":1,"soilmap_view_url":null,"soiltest_xml_url":0,"soiltest_view_url":0},{"id":135174,"code":"B4KJ201801002-3423","latitude":"43.67811","longitude":"142.04097","source_code":"HK30520006","project_name":"\u4e00\u822c\u56fd\u905312\u53f7\u6df1\u5ddd\u5e02","survey_name":"\u4e00\u822c\u56fd\u905312\u53f7\u6df1\u5ddd\u5e02\u6c96\u91cc\u6cb3\u6a4b\u5730\u8cea\u8abf\u67fb\u5916\u4e00\u9023\u696d\u52d9","client_name":"\u56fd\u571f\u4ea4\u901a\u7701\u5317\u6d77\u9053\u958b\u767a\u5c40\u672d\u5e4c\u958b\u767a\u5efa\u8a2d\u90e8","boring_xml_url":37,"boring_view_url":1,"soilmap_view_url":null,"soiltest_xml_url":0,"soiltest_view_url":0},{"id":135173,"code":"B4KJ201801002-3422","latitude":"43.67747","longitude":"142.04047","source_code":"HK30520005","project_name":"\u4e00\u822c\u56fd\u905312\u53f7\u6df1\u5ddd\u5e02","survey_name":"\u4e00\u822c\u56fd\u905312\u53f7\u6df1\u5ddd\u5e02\u6c96\u91cc\u6cb3\u6a4b\u5730\u8cea\u8abf\u67fb\u5916\u4e00\u9023\u696d\u52d9","client_name":"\u56fd\u571f\u4ea4\u901a\u7701\u5317\u6d77\u9053\u958b\u767a\u5c40\u672d\u5e4c\u958b\u767a\u5efa\u8a2d\u90e8","boring_xml_url":37,"boring_view_url":1,"soilmap_view_url":null,"soiltest_xml_url":0,"soiltest_view_url":0},{"id":135172,"code":"B4KJ201801002-3421","latitude":"43.67747","longitude":"142.04047","source_code":"HK30520004","project_name":"\u4e00\u822c\u56fd\u905312\u53f7\u6df1\u5ddd\u5e02","survey_name":"\u4e00\u822c\u56fd\u905312\u53f7\u6df1\u5ddd\u5e02\u6c96\u91cc\u6cb3\u6a4b\u5730\u8cea\u8abf\u67fb\u5916\u4e00\u9023\u696d\u52d9","client_name":"\u56fd\u571f\u4ea4\u901a\u7701\u5317\u6d77\u9053\u958b\u767a\u5c40\u672d\u5e4c\u958b\u767a\u5efa\u8a2d\u90e8","boring_xml_url":37,"boring_view_url":1,"soilmap_view_url":null,"soiltest_xml_url":0,"soiltest_view_url":0},{"id":135171,"code":"B4KJ201801002-3420","latitude":"43.67656","longitude":"142.03878","source_code":"HK30520003","project_name":"\u4e00\u822c\u56fd\u905312\u53f7\u6df1\u5ddd\u5e02\u6c96\u91cc\u6cb3\u6a4b\u5730\u8cea\u8abf\u67fb\u5916\u4e00\u9023\u696d\u52d9","survey_name":"\u4e00\u822c\u56fd\u905312\u53f7\u6df1\u5ddd\u5e02","client_name":"\u56fd\u571f\u4ea4\u901a\u7701\u5317\u6d77\u9053\u958b\u767a\u5c40\u672d\u5e4c\u958b\u767a\u5efa\u8a2d\u90e8","boring_xml_url":37,"boring_view_url":1,"soilmap_view_url":null,"soiltest_xml_url":0,"soiltest_view_url":0},{"id":135170,"code":"B4KJ201801002-3419","latitude":"43.67297","longitude":"142.02928","source_code":"HK30520002","project_name":"\u4e00\u822c\u56fd\u905312\u53f7\u6df1\u5ddd\u5e02","survey_name":"\u4e00\u822c\u56fd\u905312\u53f7\u6df1\u5ddd\u5e02\u6c96\u91cc\u6cb3\u6a4b\u5730\u8cea\u8abf\u67fb\u5916\u4e00\u9023\u696d\u52d9","client_name":"\u56fd\u571f\u4ea4\u901a\u7701\u5317\u6d77\u9053\u958b\u767a\u5c40\u672d\u5e4c\u958b\u767a\u5efa\u8a2d\u90e8","boring_xml_url":37,"boring_view_url":1,"soilmap_view_url":null,"soiltest_xml_url":0,"soiltest_view_url":0},{"id":135169,"code":"B4KJ201801002-3418","latitude":"43.67231","longitude":"142.02856","source_code":"HK30520001","project_name":"\u4e00\u822c\u56fd\u905312\u53f7\u6df1\u5ddd\u5e02\u6c96\u91cc\u6cb3\u6a4b\u5730\u8cea\u8abf\u67fb\u5916\u4e00\u9023\u696d\u52d9","survey_name":"\u4e00\u822c\u56fd\u905312\u53f7\u6df1\u5ddd\u5e02","client_name":"\u56fd\u571f\u4ea4\u901a\u7701\u5317\u6d77\u9053\u958b\u767a\u5c40\u672d\u5e4c\u958b\u767a\u5efa\u8a2d\u90e8","boring_xml_url":37,"boring_view_url":1,"soilmap_view_url":null,"soiltest_xml_url":0,"soiltest_view_url":0},{"id":135168,"code":"B4KJ201801002-3417","latitude":"44.98923436","longitude":"141.8397869","source_code":"HK3006880007","project_name":"","survey_name":"\u5929\u5869\u5ddd\u8fb0\u6839\u725b\u5916\u5730\u8cea\u8abf\u67fb\u696d\u52d9","client_name":"\u56fd\u571f\u4ea4\u901a\u7701\u5317\u6d77\u9053\u958b\u767a\u5c40\u7559\u840c\u958b\u767a\u5efa\u8a2d\u90e8\u5e4c\u5ef6\u6cb3\u5ddd\u4e8b\u696d\u6240","boring_xml_url":39,"boring_view_url":1,"soilmap_view_url":null,"soiltest_xml_url":40,"soiltest_view_url":40},{"id":135167,"code":"B4KJ201801002-3416","latitude":"44.98881378","longitude":"141.8400122","source_code":"HK3006880006","project_name":"","survey_name":"\u5929\u5869\u5ddd\u8fb0\u6839\u725b\u5916\u5730\u8cea\u8abf\u67fb\u696d\u52d9","client_name":"\u56fd\u571f\u4ea4\u901a\u7701\u5317\u6d77\u9053\u958b\u767a\u5c40\u7559\u840c\u958b\u767a\u5efa\u8a2d\u90e8\u5e4c\u5ef6\u6cb3\u5ddd\u4e8b\u696d\u6240","boring_xml_url":39,"boring_view_url":1,"soilmap_view_url":null,"soiltest_xml_url":40,"soiltest_view_url":40},{"id":135166,"code":"B4KJ201801002-3415","latitude":"44.91389","longitude":"141.98108","source_code":"HK3006880005","project_name":"","survey_name":"\u5e73\u621018\u5e74\u5ea6\u65bd\u884c \u5929\u5869\u5ddd\u8fb0\u6839\u725b\u5916\u5730\u8cea\u8abf\u67fb\u696d\u52d9","client_name":"\u56fd\u571f\u4ea4\u901a\u7701\u5317\u6d77\u9053\u958b\u767a\u5c40\u7559\u840c\u958b\u767a\u5efa\u8a2d\u90e8\u5e4c\u5ef6\u6cb3\u5ddd\u4e8b\u696d\u6240","boring_xml_url":39,"boring_view_url":1,"soilmap_view_url":null,"soiltest_xml_url":40,"soiltest_view_url":40},{"id":135165,"code":"B4KJ201801002-3414","latitude":"44.89869","longitude":"141.95539","source_code":"HK3006880001","project_name":"","survey_name":"\u5e73\u621018\u5e74\u5ea6\u65bd\u884c \u5929\u5869\u5ddd\u8fb0\u6839\u725b\u5916\u5730\u8cea\u8abf\u67fb\u696d\u52d9","client_name":"\u56fd\u571f\u4ea4\u901a\u7701\u5317\u6d77\u9053\u958b\u767a\u5c40\u7559\u840c\u958b\u767a\u5efa\u8a2d\u90e8\u5e4c\u5ef6\u6cb3\u5ddd\u4e8b\u696d\u6240","boring_xml_url":39,"boring_view_url":1,"soilmap_view_url":null,"soiltest_xml_url":40,"soiltest_view_url":40},{"id":135164,"code":"B4KJ201801002-3413","latitude":"43.8105","longitude":"141.41481","source_code":"HK3006720001","project_name":"\u4e00\u822c\u56fd\u9053231\u53f7\u7559\u840c\u5e02","survey_name":"\u4e00\u822c\u56fd\u9053231\u53f7\u7559\u840c\u5e02\u6d5c\u4e2d\u5730\u8cea\u8abf\u67fb\u5916\u4e00\u9023\u696d\u52d9","client_name":"\u56fd\u571f\u4ea4\u901a\u7701\u5317\u6d77\u9053\u958b\u767a\u5c40\u7559\u840c\u958b\u767a\u5efa\u8a2d\u90e8","boring_xml_url":39,"boring_view_url":1,"soilmap_view_url":null,"soiltest_xml_url":0,"soiltest_view_url":0},{"id":135163,"code":"B4KJ201801002-3412","latitude":"44.4347","longitude":"142.0403","source_code":"HK3005370010","project_name":"No.6\u88dc\u5f37\u571f\u58c1\u5de5","survey_name":"\u4e00\u822c\u9053\u9053\u540d\u5bc4\u9060\u5225\u7dda\u9060\u5225\u753a\u89b3\u6d41\u6a4b\u5730\u8cea\u8abf\u67fb\u5916\u4e00\u9023\u696d\u52d9","client_name":"\u56fd\u571f\u4ea4\u901a\u7701\u5317\u6d77\u9053\u958b\u767a\u5c40\u7559\u840c\u958b\u767a\u5efa\u8a2d\u90e8\u9060\u5225\u9053\u8def\u5efa\u8a2d\u4e8b\u696d\u6240","boring_xml_url":39,"boring_view_url":1,"soilmap_view_url":null,"soiltest_xml_url":0,"soiltest_view_url":0},{"id":135162,"code":"B4KJ201801002-3411","latitude":"44.435","longitude":"142.0392","source_code":"HK3005370009","project_name":"No.5\u88dc\u5f37\u571f\u58c1\u5de5","survey_name":"\u4e00\u822c\u9053\u9053\u540d\u5bc4\u9060\u5225\u7dda\u9060\u5225\u753a\u89b3\u6d41\u6a4b\u5730\u8cea\u8abf\u67fb\u5916\u4e00\u9023\u696d\u52d9","client_name":"\u56fd\u571f\u4ea4\u901a\u7701\u5317\u6d77\u9053\u958b\u767a\u5c40\u7559\u840c\u958b\u767a\u5efa\u8a2d\u90e8\u9060\u5225\u9053\u8def\u5efa\u8a2d\u4e8b\u696d\u6240","boring_xml_url":39,"boring_view_url":1,"soilmap_view_url":null,"soiltest_xml_url":0,"soiltest_view_url":0},{"id":135161,"code":"B4KJ201801002-3410","latitude":"44.4361","longitude":"142.0378","source_code":"HK3005370008","project_name":"No.4\u88dc\u5f37\u571f\u58c1\u5de5","survey_name":"\u4e00\u822c\u9053\u9053\u540d\u5bc4\u9060\u5225\u7dda\u9060\u5225\u753a\u89b3\u6d41\u6a4b\u5730\u8cea\u8abf\u67fb\u5916\u4e00\u9023\u696d\u52d9","client_name":"\u56fd\u571f\u4ea4\u901a\u7701\u5317\u6d77\u9053\u958b\u767a\u5c40\u7559\u840c\u958b\u767a\u5efa\u8a2d\u90e8\u9060\u5225\u9053\u8def\u5efa\u8a2d\u4e8b\u696d\u6240","boring_xml_url":39,"boring_view_url":1,"soilmap_view_url":null,"soiltest_xml_url":0,"soiltest_view_url":0},{"id":135160,"code":"B4KJ201801002-3409","latitude":"44.4369","longitude":"142.0367","source_code":"HK3005370007","project_name":"No.3\u88dc\u5f37\u571f\u58c1\u5de5","survey_name":"\u4e00\u822c\u9053\u9053\u540d\u5bc4\u9060\u5225\u7dda\u9060\u5225\u753a\u89b3\u6d41\u6a4b\u5730\u8cea\u8abf\u67fb\u5916\u4e00\u9023\u696d\u52d9","client_name":"\u56fd\u571f\u4ea4\u901a\u7701\u5317\u6d77\u9053\u958b\u767a\u5c40\u7559\u840c\u958b\u767a\u5efa\u8a2d\u90e8\u9060\u5225\u9053\u8def\u5efa\u8a2d\u4e8b\u696d\u6240","boring_xml_url":39,"boring_view_url":1,"soilmap_view_url":null,"soiltest_xml_url":0,"soiltest_view_url":0},{"id":135159,"code":"B4KJ201801002-3408","latitude":"44.4375","longitude":"142.0369","source_code":"HK3005370006","project_name":"No.2\u88dc\u5f37\u571f\u58c1\u5de5","survey_name":"\u4e00\u822c\u9053\u9053\u540d\u5bc4\u9060\u5225\u7dda\u9060\u5225\u753a\u89b3\u6d41\u6a4b\u5730\u8cea\u8abf\u67fb\u5916\u4e00\u9023\u696d\u52d9","client_name":"\u56fd\u571f\u4ea4\u901a\u7701\u5317\u6d77\u9053\u958b\u767a\u5c40\u7559\u840c\u958b\u767a\u5efa\u8a2d\u90e8\u9060\u5225\u9053\u8def\u5efa\u8a2d\u4e8b\u696d\u6240","boring_xml_url":39,"boring_view_url":1,"soilmap_view_url":null,"soiltest_xml_url":0,"soiltest_view_url":0},{"id":135158,"code":"B4KJ201801002-3407","latitude":"44.4394","longitude":"142.0356","source_code":"HK3005370005","project_name":"No.1\u88dc\u5f37\u571f\u58c1\u5de5","survey_name":"\u4e00\u822c\u9053\u9053\u540d\u5bc4\u9060\u5225\u7dda\u9060\u5225\u753a\u89b3\u6d41\u6a4b\u5730\u8cea\u8abf\u67fb\u5916\u4e00\u9023\u696d\u52d9","client_name":"\u56fd\u571f\u4ea4\u901a\u7701\u5317\u6d77\u9053\u958b\u767a\u5c40\u7559\u840c\u958b\u767a\u5efa\u8a2d\u90e8\u9060\u5225\u9053\u8def\u5efa\u8a2d\u4e8b\u696d\u6240","boring_xml_url":39,"boring_view_url":1,"soilmap_view_url":null,"soiltest_xml_url":0,"soiltest_view_url":0},{"id":135157,"code":"B4KJ201801002-3406","latitude":"44.4364","longitude":"142.0372","source_code":"HK3005370004","project_name":"\u89b3\u6d41\u6a4b","survey_name":"\u4e00\u822c\u9053\u9053\u540d\u5bc4\u9060\u5225\u7dda\u9060\u5225\u753a\u89b3\u6d41\u6a4b\u5730\u8cea\u8abf\u67fb\u5916\u4e00\u9023\u696d\u52d9","client_name":"\u56fd\u571f\u4ea4\u901a\u7701\u5317\u6d77\u9053\u958b\u767a\u5c40\u7559\u840c\u958b\u767a\u5efa\u8a2d\u90e8\u9060\u5225\u9053\u8def\u5efa\u8a2d\u4e8b\u696d\u6240","boring_xml_url":39,"boring_view_url":1,"soilmap_view_url":null,"soiltest_xml_url":0,"soiltest_view_url":0},{"id":135156,"code":"B4KJ201801002-3405","latitude":"44.4369","longitude":"142.0369","source_code":"HK3005370002","project_name":"\u89b3\u6d41\u6a4b","survey_name":"\u4e00\u822c\u9053\u9053\u540d\u5bc4\u9060\u5225\u7dda\u9060\u5225\u753a\u89b3\u6d41\u6a4b\u5730\u8cea\u8abf\u67fb\u5916\u4e00\u9023\u696d\u52d9","client_name":"\u56fd\u571f\u4ea4\u901a\u7701\u5317\u6d77\u9053\u958b\u767a\u5c40\u7559\u840c\u958b\u767a\u5efa\u8a2d\u90e8\u9060\u5225\u9053\u8def\u5efa\u8a2d\u4e8b\u696d\u6240","boring_xml_url":39,"boring_view_url":1,"soilmap_view_url":null,"soiltest_xml_url":0,"soiltest_view_url":0},{"id":135155,"code":"B4KJ201801002-3404","latitude":"44.4367","longitude":"142.0369","source_code":"HK3005370001","project_name":"\u89b3\u6d41\u6a4b","survey_name":"\u4e00\u822c\u9053\u9053\u540d\u5bc4\u9060\u5225\u7dda\u9060\u5225\u753a\u89b3\u6d41\u6a4b\u5730\u8cea\u8abf\u67fb\u5916\u4e00\u9023\u696d\u52d9","client_name":"\u56fd\u571f\u4ea4\u901a\u7701\u5317\u6d77\u9053\u958b\u767a\u5c40\u7559\u840c\u958b\u767a\u5efa\u8a2d\u90e8\u9060\u5225\u9053\u8def\u5efa\u8a2d\u4e8b\u696d\u6240","boring_xml_url":39,"boring_view_url":1,"soilmap_view_url":null,"soiltest_xml_url":0,"soiltest_view_url":0},{"id":135154,"code":"B4KJ201801002-3403","latitude":"44.0540019","longitude":"143.518365","source_code":"HK2923090003","project_name":"\u65ed\u5ddd\u7d0b\u5225\u81ea\u52d5\u8eca\u9053 \u9060\u8efd\u753a \u30e9\u30a6\u30cd\u30ca\u30a4\u6ca2\u6a4b\u5730\u8cea\u8abf\u67fb\u5916\u4e00\u9023\u696d\u52d9","survey_name":"\u65ed\u5ddd\u7d0b\u5225\u81ea\u52d5\u8eca\u9053 \u9060\u8efd\u753a \u30e9\u30a6\u30cd\u30ca\u30a4\u6ca2\u6a4b\u5730\u8cea\u8abf\u67fb\u5916\u4e00\u9023\u696d\u52d9","client_name":"\u56fd\u571f\u4ea4\u901a\u7701\u5317\u6d77\u9053\u958b\u767a\u5c40\u7db2\u8d70\u958b\u767a\u5efa\u8a2d\u90e8\u9060\u8efd\u9053\u8def\u4e8b\u52d9\u6240","boring_xml_url":39,"boring_view_url":1,"soilmap_view_url":null,"soiltest_xml_url":40,"soiltest_view_url":40},{"id":135153,"code":"B4KJ201801002-3402","latitude":"42.8233","longitude":"143.4772","source_code":"HK2812520002","project_name":"","survey_name":"\u4e00\u822c\u56fd\u905338\u53f7\u8c4a\u9803\u753a\u5730\u4e0b\u6c34\u4f4d\u89b3\u6e2c\u5916\u696d\u52d9","client_name":"\u56fd\u571f\u4ea4\u901a\u7701\u5317\u6d77\u9053\u958b\u767a\u5c40\u5e2f\u5e83\u958b\u767a\u5efa\u8a2d\u90e8\u5e2f\u5e83\u9053\u8def\u4e8b\u52d9\u6240","boring_xml_url":39,"boring_view_url":1,"soilmap_view_url":null,"soiltest_xml_url":0,"soiltest_view_url":0},{"id":135152,"code":"B4KJ201801002-3401","latitude":"42.8311","longitude":"143.4686","source_code":"HK2812520001","project_name":"","survey_name":"\u4e00\u822c\u56fd\u905338\u53f7\u8c4a\u9803\u753a\u5730\u4e0b\u6c34\u4f4d\u89b3\u6e2c\u5916\u696d\u52d9","client_name":"\u56fd\u571f\u4ea4\u901a\u7701\u5317\u6d77\u9053\u958b\u767a\u5c40\u5e2f\u5e83\u958b\u767a\u5efa\u8a2d\u90e8\u5e2f\u5e83\u9053\u8def\u4e8b\u52d9\u6240","boring_xml_url":39,"boring_view_url":1,"soilmap_view_url":null,"soiltest_xml_url":0,"soiltest_view_url":0},{"id":135151,"code":"B4KJ201801002-3400","latitude":"43.3017","longitude":"142.3811","source_code":"HK2526950010","project_name":"\u516b\u7dda\u5ddd\u6a4b(A-2)","survey_name":"\u4e00\u822c\u56fd\u905338\u53f7\u5bcc\u826f\u91ce\u5e02\u5bcc\u826f\u91ce\u9053\u8def\u6a4b\u6881\u5730\u8cea\u8abf\u67fb\u696d\u52d9","client_name":"\u56fd\u571f\u4ea4\u901a\u7701\u5317\u6d77\u9053\u958b\u767a\u5c40\u65ed\u5ddd\u958b\u767a\u5efa\u8a2d\u90e8\u91d1\u5c71\u9053\u8def\u4e8b\u696d\u6240","boring_xml_url":39,"boring_view_url":1,"soilmap_view_url":null,"soiltest_xml_url":0,"soiltest_view_url":0},{"id":135150,"code":"B4KJ201801002-3399","latitude":"43.3022","longitude":"142.3814","source_code":"HK2526950009","project_name":"\u516b\u7dda\u5ddd\u6a4b(A-1)","survey_name":"\u4e00\u822c\u56fd\u905338\u53f7\u5bcc\u826f\u91ce\u5e02\u5bcc\u826f\u91ce\u9053\u8def\u6a4b\u6881\u5730\u8cea\u8abf\u67fb\u696d\u52d9","client_name":"\u56fd\u571f\u4ea4\u901a\u7701\u5317\u6d77\u9053\u958b\u767a\u5c40\u65ed\u5ddd\u958b\u767a\u5efa\u8a2d\u90e8\u91d1\u5c71\u9053\u8def\u4e8b\u696d\u6240","boring_xml_url":39,"boring_view_url":1,"soilmap_view_url":null,"soiltest_xml_url":0,"soiltest_view_url":0},{"id":135149,"code":"B4KJ201801002-3398","latitude":"43.3211","longitude":"142.3825","source_code":"HK2526950006","project_name":"\u56db\u7dda\u5ddd\u6a4b(P-3)","survey_name":"\u4e00\u822c\u56fd\u905338\u53f7\u5bcc\u826f\u91ce\u5e02\u5bcc\u826f\u91ce\u9053\u8def\u6a4b\u6881\u5730\u8cea\u8abf\u67fb\u696d\u52d9","client_name":"\u56fd\u571f\u4ea4\u901a\u7701\u5317\u6d77\u9053\u958b\u767a\u5c40\u65ed\u5ddd\u958b\u767a\u5efa\u8a2d\u90e8\u91d1\u5c71\u9053\u8def\u4e8b\u696d\u6240","boring_xml_url":39,"boring_view_url":1,"soilmap_view_url":null,"soiltest_xml_url":0,"soiltest_view_url":0},{"id":135148,"code":"B4KJ201801002-3397","latitude":"43.3217","longitude":"142.3819","source_code":"HK2526950005","project_name":"\u56db\u7dda\u5ddd\u6a4b(P-2)","survey_name":"\u4e00\u822c\u56fd\u905338\u53f7\u5bcc\u826f\u91ce\u5e02\u5bcc\u826f\u91ce\u9053\u8def\u6a4b\u6881\u5730\u8cea\u8abf\u67fb\u696d\u52d9","client_name":"\u56fd\u571f\u4ea4\u901a\u7701\u5317\u6d77\u9053\u958b\u767a\u5c40\u65ed\u5ddd\u958b\u767a\u5efa\u8a2d\u90e8\u91d1\u5c71\u9053\u8def\u4e8b\u696d\u6240","boring_xml_url":39,"boring_view_url":1,"soilmap_view_url":null,"soiltest_xml_url":0,"soiltest_view_url":0},{"id":135147,"code":"B4KJ201801002-3396","latitude":"43.3225","longitude":"142.3817","source_code":"HK2526950004","project_name":"\u56db\u7dda\u5ddd\u6a4b(P-1)","survey_name":"\u4e00\u822c\u56fd\u905338\u53f7\u5bcc\u826f\u91ce\u5e02\u5bcc\u826f\u91ce\u9053\u8def\u6a4b\u6881\u5730\u8cea\u8abf\u67fb\u696d\u52d9","client_name":"\u56fd\u571f\u4ea4\u901a\u7701\u5317\u6d77\u9053\u958b\u767a\u5c40\u65ed\u5ddd\u958b\u767a\u5efa\u8a2d\u90e8\u91d1\u5c71\u9053\u8def\u4e8b\u696d\u6240","boring_xml_url":39,"boring_view_url":1,"soilmap_view_url":null,"soiltest_xml_url":0,"soiltest_view_url":0},{"id":135146,"code":"B4KJ201801002-3395","latitude":"43.3228","longitude":"142.3817","source_code":"HK2526950003","project_name":"\u56db\u7dda\u5ddd\u6a4b(A-1)","survey_name":"\u4e00\u822c\u56fd\u905338\u53f7\u5bcc\u826f\u91ce\u5e02\u5bcc\u826f\u91ce\u9053\u8def\u6a4b\u6881\u5730\u8cea\u8abf\u67fb\u696d\u52d9","client_name":"\u56fd\u571f\u4ea4\u901a\u7701\u5317\u6d77\u9053\u958b\u767a\u5c40\u65ed\u5ddd\u958b\u767a\u5efa\u8a2d\u90e8\u91d1\u5c71\u9053\u8def\u4e8b\u696d\u6240","boring_xml_url":39,"boring_view_url":1,"soilmap_view_url":null,"soiltest_xml_url":0,"soiltest_view_url":0}]}}