{"header":{"xyz":{"source":[],"mosaic":false},"page":6181,"raw":{"soiltest_result":"0","bbox":"57.598333,109.544722,1.933333,163.806111","page":"6181"},"conditions":{"soiltest_result":0,"north":57.598333,"west":109.544722,"south":1.933333,"east":163.806111},"success":true,"message":""},"data":{"meta":{"total":212844,"page":6181,"pages":7095,"count":30},"values":[{"id":135145,"code":"B4KJ201801002-3394","latitude":"43.3267","longitude":"142.3772","source_code":"HK2526950001","project_name":"\u6a2a\u65ad\u5730\u4e0b\u9053\u30dc\u30c3\u30af\u30b9\u30ab\u30eb\u30d0\u30fc\u30c8","survey_name":"\u4e00\u822c\u56fd\u905338\u53f7\u5bcc\u826f\u91ce\u5e02\u5bcc\u826f\u91ce\u9053\u8def\u6a4b\u6881\u5730\u8cea\u8abf\u67fb\u696d\u52d9","client_name":"\u56fd\u571f\u4ea4\u901a\u7701\u5317\u6d77\u9053\u958b\u767a\u5c40\u65ed\u5ddd\u958b\u767a\u5efa\u8a2d\u90e8\u91d1\u5c71\u9053\u8def\u4e8b\u696d\u6240","boring_xml_url":39,"boring_view_url":1,"soilmap_view_url":null,"soiltest_xml_url":0,"soiltest_view_url":0},{"id":135144,"code":"B4KJ201801002-3393","latitude":"43.3542","longitude":"142.3617","source_code":"HK2524260007","project_name":"\u4e00\u822c\u56fd\u905338\u53f7 \u5bcc\u826f\u91ce\u5e02 \u5bcc\u826f\u91ce\u9053\u8def\u51fd\u6e20\u5730\u8cea\u8abf\u67fb\u696d\u52d9","survey_name":"\u4e00\u822c\u56fd\u905338\u53f7 \u5bcc\u826f\u91ce\u5e02 \u5bcc\u826f\u91ce\u9053\u8def\u51fd\u6e20\u5730\u8cea\u8abf\u67fb\u696d\u52d9","client_name":"\u56fd\u571f\u4ea4\u901a\u7701\u5317\u6d77\u9053\u958b\u767a\u5c40\u65ed\u5ddd\u958b\u767a\u5efa\u8a2d\u90e8","boring_xml_url":39,"boring_view_url":1,"soilmap_view_url":null,"soiltest_xml_url":40,"soiltest_view_url":40},{"id":135143,"code":"B4KJ201801002-3392","latitude":"43.3069","longitude":"142.3819","source_code":"HK2524260004","project_name":"\u4e00\u822c\u56fd\u905338\u53f7 \u5bcc\u826f\u91ce\u5e02 \u5bcc\u826f\u91ce\u9053\u8def\u51fd\u6e20\u5730\u8cea\u8abf\u67fb\u696d\u52d9","survey_name":"\u4e00\u822c\u56fd\u905338\u53f7 \u5bcc\u826f\u91ce\u5e02 \u5bcc\u826f\u91ce\u9053\u8def\u51fd\u6e20\u5730\u8cea\u8abf\u67fb\u696d\u52d9","client_name":"\u56fd\u571f\u4ea4\u901a\u7701\u5317\u6d77\u9053\u958b\u767a\u5c40\u65ed\u5ddd\u958b\u767a\u5efa\u8a2d\u90e8","boring_xml_url":39,"boring_view_url":1,"soilmap_view_url":null,"soiltest_xml_url":0,"soiltest_view_url":0},{"id":135142,"code":"B4KJ201801002-3391","latitude":"43.3069","longitude":"142.3825","source_code":"HK2524260003","project_name":"\u4e00\u822c\u56fd\u905338\u53f7 \u5bcc\u826f\u91ce\u5e02 \u5bcc\u826f\u91ce\u9053\u8def\u51fd\u6e20\u5730\u8cea\u8abf\u67fb\u696d\u52d9","survey_name":"\u4e00\u822c\u56fd\u905338\u53f7 \u5bcc\u826f\u91ce\u5e02 \u5bcc\u826f\u91ce\u9053\u8def\u51fd\u6e20\u5730\u8cea\u8abf\u67fb\u696d\u52d9","client_name":"\u56fd\u571f\u4ea4\u901a\u7701\u5317\u6d77\u9053\u958b\u767a\u5c40\u65ed\u5ddd\u958b\u767a\u5efa\u8a2d\u90e8","boring_xml_url":39,"boring_view_url":1,"soilmap_view_url":null,"soiltest_xml_url":40,"soiltest_view_url":40},{"id":135141,"code":"B4KJ201801002-3390","latitude":"43.3597","longitude":"142.3603","source_code":"HK2524260002","project_name":"\u4e00\u822c\u56fd\u905338\u53f7 \u5bcc\u826f\u91ce\u5e02 \u5bcc\u826f\u91ce\u9053\u8def\u51fd\u6e20\u5730\u8cea\u8abf\u67fb\u696d\u52d9","survey_name":"\u4e00\u822c\u56fd\u905338\u53f7 \u5bcc\u826f\u91ce\u5e02 \u5bcc\u826f\u91ce\u9053\u8def\u51fd\u6e20\u5730\u8cea\u8abf\u67fb\u696d\u52d9","client_name":"\u56fd\u571f\u4ea4\u901a\u7701\u5317\u6d77\u9053\u958b\u767a\u5c40\u65ed\u5ddd\u958b\u767a\u5efa\u8a2d\u90e8","boring_xml_url":39,"boring_view_url":1,"soilmap_view_url":null,"soiltest_xml_url":0,"soiltest_view_url":0},{"id":135140,"code":"B4KJ201801002-3389","latitude":"43.3597","longitude":"142.3606","source_code":"HK2524260001","project_name":"\u4e00\u822c\u56fd\u905338\u53f7 \u5bcc\u826f\u91ce\u5e02 \u5bcc\u826f\u91ce\u9053\u8def\u51fd\u6e20\u5730\u8cea\u8abf\u67fb\u696d\u52d9","survey_name":"\u4e00\u822c\u56fd\u905338\u53f7 \u5bcc\u826f\u91ce\u5e02 \u5bcc\u826f\u91ce\u9053\u8def\u51fd\u6e20\u5730\u8cea\u8abf\u67fb\u696d\u52d9","client_name":"\u56fd\u571f\u4ea4\u901a\u7701\u5317\u6d77\u9053\u958b\u767a\u5c40\u65ed\u5ddd\u958b\u767a\u5efa\u8a2d\u90e8","boring_xml_url":39,"boring_view_url":1,"soilmap_view_url":null,"soiltest_xml_url":40,"soiltest_view_url":40},{"id":135139,"code":"B4KJ201801002-3388","latitude":"44.45428","longitude":"142.37494","source_code":"HK2517150003","project_name":"\u4e00\u822c\u56fd\u905340\u53f7 \u540d\u5bc4\u5e02 \u667a\u6075\u6587\u5927\u6a4b\u5730\u8cea\u8abf\u67fb\u5916\u4e00\u9023\u696d\u52d9","survey_name":"\u4e00\u822c\u56fd\u905340\u53f7 \u540d\u5bc4\u5e02 \u667a\u6075\u6587\u5927\u6a4b\u5730\u8cea\u8abf\u67fb\u5916\u4e00\u9023\u696d\u52d9","client_name":"\u56fd\u571f\u4ea4\u901a\u7701\u5317\u6d77\u9053\u958b\u767a\u5c40\u5c0f\u6a3d\u958b\u767a\u5efa\u8a2d\u90e8\u5ca9\u5185\u9053\u8def\u4e8b\u52d9\u6240","boring_xml_url":39,"boring_view_url":1,"soilmap_view_url":null,"soiltest_xml_url":0,"soiltest_view_url":0},{"id":135138,"code":"B4KJ201801002-3387","latitude":"44.45328","longitude":"142.37475","source_code":"HK2517150002","project_name":"\u4e00\u822c\u56fd\u905340\u53f7 \u540d\u5bc4\u5e02 \u667a\u6075\u6587\u5927\u6a4b \u5730\u8cea\u8abf\u67fb\u5916\u4e00\u9023\u696d\u52d9","survey_name":"\u4e00\u822c\u56fd\u905340\u53f7 \u540d\u5bc4\u5e02 \u667a\u6075\u6587\u5927\u6a4b \u5730\u8cea\u8abf\u67fb\u5916\u4e00\u9023\u696d\u52d9","client_name":"\u56fd\u571f\u4ea4\u901a\u7701\u5317\u6d77\u9053\u958b\u767a\u5c40\u5c0f\u6a3d\u958b\u767a\u5efa\u8a2d\u90e8\u5ca9\u5185\u9053\u8def\u4e8b\u52d9\u6240","boring_xml_url":39,"boring_view_url":1,"soilmap_view_url":null,"soiltest_xml_url":0,"soiltest_view_url":0},{"id":135137,"code":"B4KJ201801002-3386","latitude":"44.45233","longitude":"142.37453","source_code":"HK2517150001","project_name":"\u4e00\u822c\u56fd\u905340\u53f7 \u540d\u5bc4\u5e02 \u667a\u6075\u6587\u5927\u6a4b\u5730\u8cea\u8abf\u67fb\u5916\u4e00\u9023\u696d\u52d9","survey_name":"\u4e00\u822c\u56fd\u905340\u53f7 \u540d\u5bc4\u5e02 \u667a\u6075\u6587\u5927\u6a4b\u5730\u8cea\u8abf\u67fb\u5916\u4e00\u9023\u696d\u52d9","client_name":"\u56fd\u571f\u4ea4\u901a\u7701\u5317\u6d77\u9053\u958b\u767a\u5c40\u5c0f\u6a3d\u958b\u767a\u5efa\u8a2d\u90e8\u5ca9\u5185\u9053\u8def\u4e8b\u52d9\u6240","boring_xml_url":39,"boring_view_url":1,"soilmap_view_url":null,"soiltest_xml_url":0,"soiltest_view_url":0},{"id":135136,"code":"B4KJ201801002-3385","latitude":"42.9303","longitude":"140.4147","source_code":"HK2410770011","project_name":"\u4e00\u822c\u56fd\u9053229\u53f7\u6cca\u6751\u76c3\u5730\u8cea\u8abf\u67fb\u5916\u4e00\u9023\u696d\u52d9","survey_name":"\u4e00\u822c\u56fd\u9053229\u53f7\u6cca\u6751\u76c3\u5730\u8cea\u8abf\u67fb\u5916\u4e00\u9023\u696d\u52d9","client_name":"\u56fd\u571f\u4ea4\u901a\u7701\u5317\u6d77\u9053\u958b\u767a\u5c40\u5c0f\u6a3d\u958b\u767a\u5efa\u8a2d\u90e8\u5ca9\u5185\u9053\u8def\u4e8b\u52d9\u6240","boring_xml_url":39,"boring_view_url":1,"soilmap_view_url":null,"soiltest_xml_url":0,"soiltest_view_url":0},{"id":135135,"code":"B4KJ201801002-3384","latitude":"43.0881","longitude":"140.4686","source_code":"HK2410770010","project_name":"\u4e00\u822c\u56fd\u9053229\u53f7\u6cca\u6751\u76c3\u5730\u8cea\u8abf\u67fb\u5916\u4e00\u9023\u696d\u52d9","survey_name":"\u4e00\u822c\u56fd\u9053229\u53f7\u6cca\u6751\u76c3\u5730\u8cea\u8abf\u67fb\u5916\u4e00\u9023\u696d\u52d9","client_name":"\u56fd\u571f\u4ea4\u901a\u7701\u5317\u6d77\u9053\u958b\u767a\u5c40\u5c0f\u6a3d\u958b\u767a\u5efa\u8a2d\u90e8\u5ca9\u5185\u9053\u8def\u4e8b\u52d9\u6240","boring_xml_url":39,"boring_view_url":1,"soilmap_view_url":null,"soiltest_xml_url":0,"soiltest_view_url":0},{"id":135134,"code":"B4KJ201801002-3383","latitude":"43.0878","longitude":"140.4689","source_code":"HK2410770009","project_name":"\u4e00\u822c\u56fd\u9053229\u53f7\u6cca\u6751\u76c3\u5730\u8cea\u8abf\u67fb\u5916\u4e00\u9023\u696d\u52d9","survey_name":"\u4e00\u822c\u56fd\u9053229\u53f7\u6cca\u6751\u76c3\u5730\u8cea\u8abf\u67fb\u5916\u4e00\u9023\u696d\u52d9","client_name":"\u56fd\u571f\u4ea4\u901a\u7701\u5317\u6d77\u9053\u958b\u767a\u5c40\u5c0f\u6a3d\u958b\u767a\u5efa\u8a2d\u90e8\u5ca9\u5185\u9053\u8def\u4e8b\u52d9\u6240","boring_xml_url":39,"boring_view_url":1,"soilmap_view_url":null,"soiltest_xml_url":0,"soiltest_view_url":0},{"id":135133,"code":"B4KJ201801002-3382","latitude":"43.0881","longitude":"140.4689","source_code":"HK2410770008","project_name":"\u4e00\u822c\u56fd\u9053229\u53f7\u6cca\u6751\u76c3\u5730\u8cea\u8abf\u67fb\u5916\u4e00\u9023\u696d\u52d9","survey_name":"\u4e00\u822c\u56fd\u9053229\u53f7\u6cca\u6751\u76c3\u5730\u8cea\u8abf\u67fb\u5916\u4e00\u9023\u696d\u52d9","client_name":"\u56fd\u571f\u4ea4\u901a\u7701\u5317\u6d77\u9053\u958b\u767a\u5c40\u5c0f\u6a3d\u958b\u767a\u5efa\u8a2d\u90e8\u5ca9\u5185\u9053\u8def\u4e8b\u52d9\u6240","boring_xml_url":39,"boring_view_url":1,"soilmap_view_url":null,"soiltest_xml_url":0,"soiltest_view_url":0},{"id":135132,"code":"B4KJ201801002-3381","latitude":"43.0883","longitude":"140.4686","source_code":"HK2410770007","project_name":"\u4e00\u822c\u56fd\u9053229\u53f7\u6cca\u6751\u76c3\u5730\u8cea\u8abf\u67fb\u5916\u4e00\u9023\u696d\u52d9","survey_name":"\u4e00\u822c\u56fd\u9053229\u53f7\u6cca\u6751\u76c3\u5730\u8cea\u8abf\u67fb\u5916\u4e00\u9023\u696d\u52d9","client_name":"\u56fd\u571f\u4ea4\u901a\u7701\u5317\u6d77\u9053\u958b\u767a\u5c40\u5c0f\u6a3d\u958b\u767a\u5efa\u8a2d\u90e8\u5ca9\u5185\u9053\u8def\u4e8b\u52d9\u6240","boring_xml_url":39,"boring_view_url":1,"soilmap_view_url":null,"soiltest_xml_url":0,"soiltest_view_url":0},{"id":135131,"code":"B4KJ201801002-3380","latitude":"43.1286","longitude":"140.4406","source_code":"HK2410770006","project_name":"\u4e00\u822c\u56fd\u9053229\u53f7\u6cca\u6751\u76c3\u5730\u8cea\u8abf\u67fb\u5916\u4e00\u9023\u696d\u52d9","survey_name":"\u4e00\u822c\u56fd\u9053229\u53f7\u6cca\u6751\u76c3\u5730\u8cea\u8abf\u67fb\u5916\u4e00\u9023\u696d\u52d9","client_name":"\u56fd\u571f\u4ea4\u901a\u7701\u5317\u6d77\u9053\u958b\u767a\u5c40\u5c0f\u6a3d\u958b\u767a\u5efa\u8a2d\u90e8\u5ca9\u5185\u9053\u8def\u4e8b\u52d9\u6240","boring_xml_url":39,"boring_view_url":1,"soilmap_view_url":null,"soiltest_xml_url":0,"soiltest_view_url":0},{"id":135130,"code":"B4KJ201801002-3379","latitude":"43.1321014","longitude":"140.4374594","source_code":"HK2410770005","project_name":"\u4e00\u822c\u56fd\u9053229\u53f7\u6cca\u6751\u76c3\u5730\u8cea\u8abf\u67fb\u5916\u4e00\u9023\u696d\u52d9","survey_name":"\u4e00\u822c\u56fd\u9053229\u53f7\u6cca\u6751\u76c3\u5730\u8cea\u8abf\u67fb\u5916\u4e00\u9023\u696d\u52d9","client_name":"\u56fd\u571f\u4ea4\u901a\u7701\u5317\u6d77\u9053\u958b\u767a\u5c40\u5c0f\u6a3d\u958b\u767a\u5efa\u8a2d\u90e8\u5ca9\u5185\u9053\u8def\u4e8b\u52d9\u6240","boring_xml_url":39,"boring_view_url":1,"soilmap_view_url":null,"soiltest_xml_url":0,"soiltest_view_url":0},{"id":135129,"code":"B4KJ201801002-3378","latitude":"43.1318236","longitude":"140.4377372","source_code":"HK2410770004","project_name":"\u4e00\u822c\u56fd\u9053229\u53f7\u6cca\u6751\u76c3\u5730\u8cea\u8abf\u67fb\u5916\u4e00\u9023\u696d\u52d9","survey_name":"\u4e00\u822c\u56fd\u9053229\u53f7\u6cca\u6751\u76c3\u5730\u8cea\u8abf\u67fb\u5916\u4e00\u9023\u696d\u52d9","client_name":"\u56fd\u571f\u4ea4\u901a\u7701\u5317\u6d77\u9053\u958b\u767a\u5c40\u5c0f\u6a3d\u958b\u767a\u5efa\u8a2d\u90e8\u5ca9\u5185\u9053\u8def\u4e8b\u52d9\u6240","boring_xml_url":39,"boring_view_url":1,"soilmap_view_url":null,"soiltest_xml_url":0,"soiltest_view_url":0},{"id":135128,"code":"B4KJ201801002-3377","latitude":"43.1318236","longitude":"140.438015","source_code":"HK2410770003","project_name":"\u4e00\u822c\u56fd\u9053229\u53f7\u6cca\u6751\u76c3\u5730\u8cea\u8abf\u67fb\u5916\u4e00\u9023\u696d\u52d9","survey_name":"\u4e00\u822c\u56fd\u9053229\u53f7\u6cca\u6751\u76c3\u5730\u8cea\u8abf\u67fb\u5916\u4e00\u9023\u696d\u52d9","client_name":"\u56fd\u571f\u4ea4\u901a\u7701\u5317\u6d77\u9053\u958b\u767a\u5c40\u5c0f\u6a3d\u958b\u767a\u5efa\u8a2d\u90e8\u5ca9\u5185\u9053\u8def\u4e8b\u52d9\u6240","boring_xml_url":39,"boring_view_url":1,"soilmap_view_url":null,"soiltest_xml_url":0,"soiltest_view_url":0},{"id":135127,"code":"B4KJ201801002-3376","latitude":"43.1297","longitude":"140.4383","source_code":"HK2410770002","project_name":"\u4e00\u822c\u56fd\u9053229\u53f7\u6cca\u6751\u76c3\u5730\u8cea\u8abf\u67fb\u5916\u4e00\u9023\u696d\u52d9","survey_name":"\u4e00\u822c\u56fd\u9053229\u53f7\u6cca\u6751\u76c3\u5730\u8cea\u8abf\u67fb\u5916\u4e00\u9023\u696d\u52d9","client_name":"\u56fd\u571f\u4ea4\u901a\u7701\u5317\u6d77\u9053\u958b\u767a\u5c40\u5c0f\u6a3d\u958b\u767a\u5efa\u8a2d\u90e8\u5ca9\u5185\u9053\u8def\u4e8b\u52d9\u6240","boring_xml_url":39,"boring_view_url":1,"soilmap_view_url":null,"soiltest_xml_url":0,"soiltest_view_url":0},{"id":135126,"code":"B4KJ201801002-3375","latitude":"43.1578","longitude":"140.4031","source_code":"HK2410770001","project_name":"\u4e00\u822c\u56fd\u9053229\u53f7\u6cca\u6751\u76c3\u5730\u8cea\u8abf\u67fb\u5916\u4e00\u9023\u696d\u52d9","survey_name":"\u4e00\u822c\u56fd\u9053229\u53f7\u6cca\u6751\u76c3\u5730\u8cea\u8abf\u67fb\u5916\u4e00\u9023\u696d\u52d9","client_name":"\u56fd\u571f\u4ea4\u901a\u7701\u5317\u6d77\u9053\u958b\u767a\u5c40\u5c0f\u6a3d\u958b\u767a\u5efa\u8a2d\u90e8\u5ca9\u5185\u9053\u8def\u4e8b\u52d9\u6240","boring_xml_url":39,"boring_view_url":1,"soilmap_view_url":null,"soiltest_xml_url":0,"soiltest_view_url":0},{"id":135125,"code":"B4KJ201801002-3374","latitude":"42.70194589","longitude":"142.4100581","source_code":"HK2402400041","project_name":"\u5e73\u53d6\u30c0\u30e0\u5730\u8cea\u8abf\u67fb\u691c\u8a0e\u696d\u52d9","survey_name":"\u5e73\u621016\u5e74\u5ea6 \u6c99\u6d41\u5ddd\u7dcf\u5408\u958b\u767a\u306e\u5185","client_name":"\u56fd\u571f\u4ea4\u901a\u7701\u5317\u6d77\u9053\u958b\u767a\u5c40\u5ba4\u862d\u958b\u767a\u5efa\u8a2d\u90e8\u6c99\u6d41\u5ddd\u30c0\u30e0\u5efa\u8a2d\u4e8b\u52d9\u6240","boring_xml_url":39,"boring_view_url":1,"soilmap_view_url":null,"soiltest_xml_url":0,"soiltest_view_url":0},{"id":135124,"code":"B4KJ201801002-3373","latitude":"42.69028619","longitude":"142.406585","source_code":"HK2402400034","project_name":"\u5e73\u53d6\u30c0\u30e0\u5730\u8cea\u8abf\u67fb\u691c\u8a0e\u696d\u52d9","survey_name":"\u5e73\u621016\u5e74\u5ea6 \u6c99\u6d41\u5ddd\u7dcf\u5408\u958b\u767a\u306e\u5185","client_name":"\u56fd\u571f\u4ea4\u901a\u7701\u5317\u6d77\u9053\u958b\u767a\u5c40\u5ba4\u862d\u958b\u767a\u5efa\u8a2d\u90e8\u6c99\u6d41\u5ddd\u30c0\u30e0\u5efa\u8a2d\u4e8b\u52d9\u6240","boring_xml_url":39,"boring_view_url":1,"soilmap_view_url":null,"soiltest_xml_url":0,"soiltest_view_url":0},{"id":135123,"code":"B4KJ201801002-3372","latitude":"42.681452","longitude":"142.4235603","source_code":"HK2402400022","project_name":"\u5e73\u53d6\u30c0\u30e0\u5730\u8cea\u8abf\u67fb\u691c\u8a0e\u696d\u52d9","survey_name":"\u5e73\u621016\u5e74\u5ea6 \u6c99\u6d41\u5ddd\u7dcf\u5408\u958b\u767a\u306e\u5185","client_name":"\u56fd\u571f\u4ea4\u901a\u7701\u5317\u6d77\u9053\u958b\u767a\u5c40\u5ba4\u862d\u958b\u767a\u5efa\u8a2d\u90e8\u6c99\u6d41\u5ddd\u30c0\u30e0\u5efa\u8a2d\u4e8b\u52d9\u6240","boring_xml_url":39,"boring_view_url":1,"soilmap_view_url":null,"soiltest_xml_url":0,"soiltest_view_url":0},{"id":135122,"code":"B4KJ201801002-3371","latitude":"42.67558464","longitude":"142.4174939","source_code":"HK2402400019","project_name":"\u5e73\u53d6\u30c0\u30e0\u5730\u8cea\u8abf\u67fb\u691c\u8a0e\u696d\u52d9","survey_name":"\u5e73\u621016\u5e74\u5ea6 \u6c99\u6d41\u5ddd\u7dcf\u5408\u958b\u767a\u306e\u5185","client_name":"\u56fd\u571f\u4ea4\u901a\u7701\u5317\u6d77\u9053\u958b\u767a\u5c40\u5ba4\u862d\u958b\u767a\u5efa\u8a2d\u90e8\u6c99\u6d41\u5ddd\u30c0\u30e0\u5efa\u8a2d\u4e8b\u52d9\u6240","boring_xml_url":39,"boring_view_url":1,"soilmap_view_url":null,"soiltest_xml_url":0,"soiltest_view_url":0},{"id":135121,"code":"B4KJ201801002-3370","latitude":"42.67502811","longitude":"142.4192861","source_code":"HK2402400018","project_name":"\u5e73\u53d6\u30c0\u30e0\u5730\u8cea\u8abf\u67fb\u691c\u8a0e\u696d\u52d9","survey_name":"\u5e73\u621016\u5e74\u5ea6 \u6c99\u6d41\u5ddd\u7dcf\u5408\u958b\u767a\u306e\u5185","client_name":"\u56fd\u571f\u4ea4\u901a\u7701\u5317\u6d77\u9053\u958b\u767a\u5c40\u5ba4\u862d\u958b\u767a\u5efa\u8a2d\u90e8\u6c99\u6d41\u5ddd\u30c0\u30e0\u5efa\u8a2d\u4e8b\u52d9\u6240","boring_xml_url":39,"boring_view_url":1,"soilmap_view_url":null,"soiltest_xml_url":0,"soiltest_view_url":0},{"id":135120,"code":"B4KJ201801002-3369","latitude":"42.67533492","longitude":"142.4190936","source_code":"HK2402400017","project_name":"\u5e73\u53d6\u30c0\u30e0\u5730\u8cea\u8abf\u67fb\u691c\u8a0e\u696d\u52d9","survey_name":"\u5e73\u621016\u5e74\u5ea6 \u6c99\u6d41\u5ddd\u7dcf\u5408\u958b\u767a\u306e\u5185","client_name":"\u56fd\u571f\u4ea4\u901a\u7701\u5317\u6d77\u9053\u958b\u767a\u5c40\u5ba4\u862d\u958b\u767a\u5efa\u8a2d\u90e8\u6c99\u6d41\u5ddd\u30c0\u30e0\u5efa\u8a2d\u4e8b\u52d9\u6240","boring_xml_url":39,"boring_view_url":1,"soilmap_view_url":null,"soiltest_xml_url":0,"soiltest_view_url":0},{"id":135119,"code":"B4KJ201801002-3368","latitude":"42.6729115","longitude":"142.4117036","source_code":"HK2402400015","project_name":"\u5e73\u53d6\u30c0\u30e0\u5730\u8cea\u8abf\u67fb\u691c\u8a0e\u696d\u52d9","survey_name":"\u5e73\u621016\u5e74\u5ea6 \u6c99\u6d41\u5ddd\u7dcf\u5408\u958b\u767a\u306e\u5185","client_name":"\u56fd\u571f\u4ea4\u901a\u7701\u5317\u6d77\u9053\u958b\u767a\u5c40\u5ba4\u862d\u958b\u767a\u5efa\u8a2d\u90e8\u6c99\u6d41\u5ddd\u30c0\u30e0\u5efa\u8a2d\u4e8b\u52d9\u6240","boring_xml_url":39,"boring_view_url":1,"soilmap_view_url":null,"soiltest_xml_url":0,"soiltest_view_url":0},{"id":135118,"code":"B4KJ201801002-3367","latitude":"42.67542433","longitude":"142.4091061","source_code":"HK2402400014","project_name":"\u5e73\u53d6\u30c0\u30e0\u5730\u8cea\u8abf\u67fb\u691c\u8a0e\u696d\u52d9","survey_name":"\u5e73\u621016\u5e74\u5ea6 \u6c99\u6d41\u5ddd\u7dcf\u5408\u958b\u767a\u306e\u5185","client_name":"\u56fd\u571f\u4ea4\u901a\u7701\u5317\u6d77\u9053\u958b\u767a\u5c40\u5ba4\u862d\u958b\u767a\u5efa\u8a2d\u90e8\u6c99\u6d41\u5ddd\u30c0\u30e0\u5efa\u8a2d\u4e8b\u52d9\u6240","boring_xml_url":39,"boring_view_url":1,"soilmap_view_url":null,"soiltest_xml_url":0,"soiltest_view_url":0},{"id":135117,"code":"B4KJ201801002-3366","latitude":"42.67591364","longitude":"142.4110983","source_code":"HK2402400013","project_name":"\u5e73\u53d6\u30c0\u30e0\u5730\u8cea\u8abf\u67fb\u691c\u8a0e\u696d\u52d9","survey_name":"\u5e73\u621016\u5e74\u5ea6 \u6c99\u6d41\u5ddd\u7dcf\u5408\u958b\u767a\u306e\u5185","client_name":"\u56fd\u571f\u4ea4\u901a\u7701\u5317\u6d77\u9053\u958b\u767a\u5c40\u5ba4\u862d\u958b\u767a\u5efa\u8a2d\u90e8\u6c99\u6d41\u5ddd\u30c0\u30e0\u5efa\u8a2d\u4e8b\u52d9\u6240","boring_xml_url":39,"boring_view_url":1,"soilmap_view_url":null,"soiltest_xml_url":0,"soiltest_view_url":0},{"id":135116,"code":"B4KJ201801002-3365","latitude":"42.67463886","longitude":"142.4100367","source_code":"HK2402400012","project_name":"\u5e73\u53d6\u30c0\u30e0\u5730\u8cea\u8abf\u67fb\u691c\u8a0e\u696d\u52d9","survey_name":"\u5e73\u621016\u5e74\u5ea6 \u6c99\u6d41\u5ddd\u7dcf\u5408\u958b\u767a\u306e\u5185","client_name":"\u56fd\u571f\u4ea4\u901a\u7701\u5317\u6d77\u9053\u958b\u767a\u5c40\u5ba4\u862d\u958b\u767a\u5efa\u8a2d\u90e8\u6c99\u6d41\u5ddd\u30c0\u30e0\u5efa\u8a2d\u4e8b\u52d9\u6240","boring_xml_url":39,"boring_view_url":1,"soilmap_view_url":null,"soiltest_xml_url":0,"soiltest_view_url":0}]}}