{"header":{"xyz":{"source":[],"mosaic":false},"page":6185,"raw":{"soiltest_result":"0","bbox":"57.598333,109.544722,1.933333,163.806111","page":"6185"},"conditions":{"soiltest_result":0,"north":57.598333,"west":109.544722,"south":1.933333,"east":163.806111},"success":true,"message":""},"data":{"meta":{"total":212844,"page":6185,"pages":7095,"count":30},"values":[{"id":135025,"code":"B4KJ201801002-3274","latitude":"42.8289147","longitude":"140.4272903","source_code":"HK2202780003","project_name":"\u5c3b\u5225\u5ddd\u6539\u4fee\u5de5\u4e8b","survey_name":"\u5c3b\u5225\u5ddd\u4e09\u6d66\u6a0b\u9580\u8a73\u7d30\u8a2d\u8a08\u696d\u52d9","client_name":"\u56fd\u571f\u4ea4\u901a\u7701\u5317\u6d77\u9053\u958b\u767a\u5c40\u5c0f\u6a3d\u958b\u767a\u5efa\u8a2d\u90e8","boring_xml_url":39,"boring_view_url":1,"soilmap_view_url":null,"soiltest_xml_url":0,"soiltest_view_url":0},{"id":135024,"code":"B4KJ201801002-3273","latitude":"42.8291644","longitude":"140.4270958","source_code":"HK2202780002","project_name":"\u5c3b\u5225\u5ddd\u6539\u4fee\u5de5\u4e8b","survey_name":"\u5c3b\u5225\u5ddd\u4e09\u6d66\u6a0b\u9580\u8a73\u7d30\u8a2d\u8a08\u696d\u52d9","client_name":"\u56fd\u571f\u4ea4\u901a\u7701\u5317\u6d77\u9053\u958b\u767a\u5c40\u5c0f\u6a3d\u958b\u767a\u5efa\u8a2d\u90e8","boring_xml_url":39,"boring_view_url":1,"soilmap_view_url":null,"soiltest_xml_url":0,"soiltest_view_url":0},{"id":135023,"code":"B4KJ201801002-3272","latitude":"42.8293311","longitude":"140.4267069","source_code":"HK2202780001","project_name":"\u5c3b\u5225\u5ddd\u6539\u4fee\u5de5\u4e8b","survey_name":"\u5c3b\u5225\u5ddd\u4e09\u6d66\u6a0b\u9580\u8a73\u7d30\u8a2d\u8a08\u696d\u52d9","client_name":"\u56fd\u571f\u4ea4\u901a\u7701\u5317\u6d77\u9053\u958b\u767a\u5c40\u5c0f\u6a3d\u958b\u767a\u5efa\u8a2d\u90e8","boring_xml_url":39,"boring_view_url":1,"soilmap_view_url":null,"soiltest_xml_url":0,"soiltest_view_url":0},{"id":135022,"code":"B4KJ201801002-3271","latitude":"43.27221344","longitude":"141.9815994","source_code":"HK2202770003","project_name":"\u5e73\u621016\u5e74\u5ea6 \u5e7e\u6625\u5225\u5ddd\u7dcf\u5408\u958b\u767a\u4e8b\u696d\u306e\u5185 \u4e09\u7b20\u307d\u3093\u3079\u3064\u30c0\u30e0\u30b5\u30a4\u30c8\u5730\u8cea\u8abf\u67fb\u691c\u8a0e\u696d\u52d9","survey_name":"\u5e73\u621016\u5e74\u5ea6 \u5e7e\u6625\u5225\u5ddd\u7dcf\u5408\u958b\u767a\u4e8b\u696d\u306e\u5185 \u4e09\u7b20\u307d\u3093\u3079\u3064\u30c0\u30e0\u30b5\u30a4\u30c8\u5730\u8cea\u8abf\u67fb\u691c\u8a0e\u696d\u52d9","client_name":"\u56fd\u571f\u4ea4\u901a\u7701\u5317\u6d77\u9053\u958b\u767a\u5c40\u77f3\u72e9\u5ddd\u958b\u767a\u5efa\u8a2d\u90e8","boring_xml_url":39,"boring_view_url":1,"soilmap_view_url":null,"soiltest_xml_url":0,"soiltest_view_url":0},{"id":135021,"code":"B4KJ201801002-3270","latitude":"43.27219042","longitude":"141.9817814","source_code":"HK2202770002","project_name":"\u5e73\u621016\u5e74\u5ea6 \u5e7e\u6625\u5225\u5ddd\u7dcf\u5408\u958b\u767a\u4e8b\u696d\u306e\u5185 \u4e09\u7b20\u307d\u3093\u3079\u3064\u30c0\u30e0\u30b5\u30a4\u30c8\u5730\u8cea\u8abf\u67fb\u691c\u8a0e\u696d\u52d9","survey_name":"\u5e73\u621016\u5e74\u5ea6 \u5e7e\u6625\u5225\u5ddd\u7dcf\u5408\u958b\u767a\u4e8b\u696d\u306e\u5185 \u4e09\u7b20\u307d\u3093\u3079\u3064\u30c0\u30e0\u30b5\u30a4\u30c8\u5730\u8cea\u8abf\u67fb\u691c\u8a0e\u696d\u52d9","client_name":"\u56fd\u571f\u4ea4\u901a\u7701\u5317\u6d77\u9053\u958b\u767a\u5c40\u77f3\u72e9\u5ddd\u958b\u767a\u5efa\u8a2d\u90e8","boring_xml_url":39,"boring_view_url":1,"soilmap_view_url":null,"soiltest_xml_url":0,"soiltest_view_url":0},{"id":135020,"code":"B4KJ201801002-3269","latitude":"43.2720983","longitude":"141.98251","source_code":"HK2202770001","project_name":"","survey_name":"\u5e73\u621016\u5e74\u5ea6 \u5e7e\u6625\u5225\u5ddd\u7dcf\u5408\u958b\u767a\u4e8b\u696d\u306e\u5185 \u4e09\u7b20\u307d\u3093\u3079\u3064\u30c0\u30e0\u30b5\u30a4\u30c8\u5730\u8cea\u8abf\u67fb\u691c\u8a0e\u696d\u52d9","client_name":"\u56fd\u571f\u4ea4\u901a\u7701\u5317\u6d77\u9053\u958b\u767a\u5c40\u77f3\u72e9\u5ddd\u958b\u767a\u5efa\u8a2d\u90e8","boring_xml_url":39,"boring_view_url":1,"soilmap_view_url":null,"soiltest_xml_url":0,"soiltest_view_url":0},{"id":135019,"code":"B4KJ201801002-3268","latitude":"43.2385372","longitude":"141.9914422","source_code":"HK2202190003","project_name":"","survey_name":"\u5e73\u621016\u5e74\u5ea6\u5e7e\u6625\u5225\u5ddd\u7dcf\u5408\u958b\u767a\u4e8b\u696d\u306e\u5185 \u539f\u77f3\u5c71\u5824\u4f53\u6750\u6599\u8abf\u67fb\u691c\u8a0e\u696d\u52d9","client_name":"\u56fd\u571f\u4ea4\u901a\u7701\u5317\u6d77\u9053\u958b\u767a\u5c40\u77f3\u72e9\u5ddd\u958b\u767a\u5efa\u8a2d\u90e8","boring_xml_url":39,"boring_view_url":1,"soilmap_view_url":null,"soiltest_xml_url":0,"soiltest_view_url":0},{"id":135018,"code":"B4KJ201801002-3267","latitude":"43.2377792","longitude":"141.992345","source_code":"HK2202190002","project_name":"","survey_name":"\u5e73\u621016\u5e74\u5ea6\u5e7e\u6625\u5225\u5ddd\u7dcf\u5408\u958b\u767a\u4e8b\u696d\u306e\u5185 \u539f\u77f3\u5c71\u5824\u4f53\u6750\u6599\u8abf\u67fb\u691c\u8a0e\u696d\u52d9","client_name":"\u56fd\u571f\u4ea4\u901a\u7701\u5317\u6d77\u9053\u958b\u767a\u5c40\u77f3\u72e9\u5ddd\u958b\u767a\u5efa\u8a2d\u90e8","boring_xml_url":39,"boring_view_url":1,"soilmap_view_url":null,"soiltest_xml_url":0,"soiltest_view_url":0},{"id":135017,"code":"B4KJ201801002-3266","latitude":"43.2374653","longitude":"141.9917478","source_code":"HK2202190001","project_name":"","survey_name":"\u5e73\u621016\u5e74\u5ea6\u5e7e\u6625\u5225\u5ddd\u7dcf\u5408\u958b\u767a\u4e8b\u696d\u306e\u5185 \u539f\u77f3\u5c71\u5824\u4f53\u6750\u6599\u8abf\u67fb\u691c\u8a0e\u696d\u52d9","client_name":"\u56fd\u571f\u4ea4\u901a\u7701\u5317\u6d77\u9053\u958b\u767a\u5c40\u77f3\u72e9\u5ddd\u958b\u767a\u5efa\u8a2d\u90e8","boring_xml_url":39,"boring_view_url":1,"soilmap_view_url":null,"soiltest_xml_url":0,"soiltest_view_url":0},{"id":135016,"code":"B4KJ201801002-3265","latitude":"43.125","longitude":"141.7189","source_code":"HK2202020034","project_name":"","survey_name":"\u6e05\u771f\u5e03\u5ddd\u53f3\u5cb8\u67718\u53f7\u6a0b\u9580\u5916\u5fdc\u6025\u5bfe\u7b56\u4e8b\u524d\u8abf\u67fb\u696d\u52d9","client_name":"\u56fd\u571f\u4ea4\u901a\u7701\u5317\u6d77\u9053\u958b\u767a\u5c40\u77f3\u72e9\u5ddd\u958b\u767a\u5efa\u8a2d\u90e8\u6c5f\u5225\u6cb3\u5ddd\u4e8b\u52d9\u6240","boring_xml_url":39,"boring_view_url":1,"soilmap_view_url":null,"soiltest_xml_url":0,"soiltest_view_url":0},{"id":135015,"code":"B4KJ201801002-3264","latitude":"43.125","longitude":"141.7189","source_code":"HK2202020033","project_name":"","survey_name":"\u6e05\u771f\u5e03\u5ddd\u53f3\u5cb8\u67718\u53f7\u6a0b\u9580\u5916\u5fdc\u6025\u5bfe\u7b56\u4e8b\u524d\u8abf\u67fb\u696d\u52d9","client_name":"\u56fd\u571f\u4ea4\u901a\u7701\u5317\u6d77\u9053\u958b\u767a\u5c40\u77f3\u72e9\u5ddd\u958b\u767a\u5efa\u8a2d\u90e8\u6c5f\u5225\u6cb3\u5ddd\u4e8b\u52d9\u6240","boring_xml_url":39,"boring_view_url":1,"soilmap_view_url":null,"soiltest_xml_url":0,"soiltest_view_url":0},{"id":135014,"code":"B4KJ201801002-3263","latitude":"43.125","longitude":"141.7189","source_code":"HK2202020032","project_name":"","survey_name":"\u6e05\u771f\u5e03\u5ddd\u53f3\u5cb8\u67718\u53f7\u6a0b\u9580\u5916\u5fdc\u6025\u5bfe\u7b56\u4e8b\u524d\u8abf\u67fb\u696d\u52d9","client_name":"\u56fd\u571f\u4ea4\u901a\u7701\u5317\u6d77\u9053\u958b\u767a\u5c40\u77f3\u72e9\u5ddd\u958b\u767a\u5efa\u8a2d\u90e8\u6c5f\u5225\u6cb3\u5ddd\u4e8b\u52d9\u6240","boring_xml_url":39,"boring_view_url":1,"soilmap_view_url":null,"soiltest_xml_url":0,"soiltest_view_url":0},{"id":135013,"code":"B4KJ201801002-3262","latitude":"43.125","longitude":"141.7189","source_code":"HK2202020031","project_name":"","survey_name":"\u6e05\u771f\u5e03\u5ddd\u53f3\u5cb8\u67718\u53f7\u6a0b\u9580\u5916\u5fdc\u6025\u5bfe\u7b56\u4e8b\u524d\u8abf\u67fb\u696d\u52d9","client_name":"\u56fd\u571f\u4ea4\u901a\u7701\u5317\u6d77\u9053\u958b\u767a\u5c40\u77f3\u72e9\u5ddd\u958b\u767a\u5efa\u8a2d\u90e8\u6c5f\u5225\u6cb3\u5ddd\u4e8b\u52d9\u6240","boring_xml_url":39,"boring_view_url":1,"soilmap_view_url":null,"soiltest_xml_url":0,"soiltest_view_url":0},{"id":135012,"code":"B4KJ201801002-3261","latitude":"43.1294","longitude":"141.7283","source_code":"HK2202020030","project_name":"","survey_name":"\u6e05\u771f\u5e03\u5ddd\u53f3\u5cb8\u67718\u53f7\u6a0b\u9580\u5916\u5fdc\u6025\u5bfe\u7b56\u4e8b\u524d\u8abf\u67fb\u696d\u52d9","client_name":"\u56fd\u571f\u4ea4\u901a\u7701\u5317\u6d77\u9053\u958b\u767a\u5c40\u77f3\u72e9\u5ddd\u958b\u767a\u5efa\u8a2d\u90e8\u6c5f\u5225\u6cb3\u5ddd\u4e8b\u52d9\u6240","boring_xml_url":39,"boring_view_url":1,"soilmap_view_url":null,"soiltest_xml_url":0,"soiltest_view_url":0},{"id":135011,"code":"B4KJ201801002-3260","latitude":"43.1294","longitude":"141.7283","source_code":"HK2202020029","project_name":"","survey_name":"\u6e05\u771f\u5e03\u5ddd\u53f3\u5cb8\u67718\u53f7\u6a0b\u9580\u5916\u5fdc\u6025\u5bfe\u7b56\u4e8b\u524d\u8abf\u67fb\u696d\u52d9","client_name":"\u56fd\u571f\u4ea4\u901a\u7701\u5317\u6d77\u9053\u958b\u767a\u5c40\u77f3\u72e9\u5ddd\u958b\u767a\u5efa\u8a2d\u90e8\u6c5f\u5225\u6cb3\u5ddd\u4e8b\u52d9\u6240","boring_xml_url":39,"boring_view_url":1,"soilmap_view_url":null,"soiltest_xml_url":0,"soiltest_view_url":0},{"id":135010,"code":"B4KJ201801002-3259","latitude":"43.1294","longitude":"141.7283","source_code":"HK2202020028","project_name":"","survey_name":"\u6e05\u771f\u5e03\u5ddd\u53f3\u5cb8\u67718\u53f7\u6a0b\u9580\u5916\u5fdc\u6025\u5bfe\u7b56\u4e8b\u524d\u8abf\u67fb\u696d\u52d9","client_name":"\u56fd\u571f\u4ea4\u901a\u7701\u5317\u6d77\u9053\u958b\u767a\u5c40\u77f3\u72e9\u5ddd\u958b\u767a\u5efa\u8a2d\u90e8\u6c5f\u5225\u6cb3\u5ddd\u4e8b\u52d9\u6240","boring_xml_url":39,"boring_view_url":1,"soilmap_view_url":null,"soiltest_xml_url":0,"soiltest_view_url":0},{"id":135009,"code":"B4KJ201801002-3258","latitude":"43.1239","longitude":"141.7106","source_code":"HK2202020027","project_name":"","survey_name":"\u6e05\u771f\u5e03\u5ddd\u53f3\u5cb8\u67718\u53f7\u6a0b\u9580\u5916\u5fdc\u6025\u5bfe\u7b56\u4e8b\u524d\u8abf\u67fb\u696d\u52d9","client_name":"\u56fd\u571f\u4ea4\u901a\u7701\u5317\u6d77\u9053\u958b\u767a\u5c40\u77f3\u72e9\u5ddd\u958b\u767a\u5efa\u8a2d\u90e8\u6c5f\u5225\u6cb3\u5ddd\u4e8b\u52d9\u6240","boring_xml_url":39,"boring_view_url":1,"soilmap_view_url":null,"soiltest_xml_url":0,"soiltest_view_url":0},{"id":135008,"code":"B4KJ201801002-3257","latitude":"43.1239","longitude":"141.7106","source_code":"HK2202020026","project_name":"","survey_name":"\u6e05\u771f\u5e03\u5ddd\u53f3\u5cb8\u67718\u53f7\u6a0b\u9580\u5916\u5fdc\u6025\u5bfe\u7b56\u4e8b\u524d\u8abf\u67fb\u696d\u52d9","client_name":"\u56fd\u571f\u4ea4\u901a\u7701\u5317\u6d77\u9053\u958b\u767a\u5c40\u77f3\u72e9\u5ddd\u958b\u767a\u5efa\u8a2d\u90e8\u6c5f\u5225\u6cb3\u5ddd\u4e8b\u52d9\u6240","boring_xml_url":39,"boring_view_url":1,"soilmap_view_url":null,"soiltest_xml_url":0,"soiltest_view_url":0},{"id":135007,"code":"B4KJ201801002-3256","latitude":"43.1239","longitude":"141.7106","source_code":"HK2202020025","project_name":"","survey_name":"\u6e05\u771f\u5e03\u5ddd\u53f3\u5cb8\u67718\u53f7\u6a0b\u9580\u5916\u5fdc\u6025\u5bfe\u7b56\u4e8b\u524d\u8abf\u67fb\u696d\u52d9","client_name":"\u56fd\u571f\u4ea4\u901a\u7701\u5317\u6d77\u9053\u958b\u767a\u5c40\u77f3\u72e9\u5ddd\u958b\u767a\u5efa\u8a2d\u90e8\u6c5f\u5225\u6cb3\u5ddd\u4e8b\u52d9\u6240","boring_xml_url":39,"boring_view_url":1,"soilmap_view_url":null,"soiltest_xml_url":0,"soiltest_view_url":0},{"id":135006,"code":"B4KJ201801002-3255","latitude":"43.1267","longitude":"141.7047","source_code":"HK2202020024","project_name":"","survey_name":"\u6e05\u771f\u5e03\u5ddd\u53f3\u5cb8\u67718\u53f7\u6a0b\u9580\u5916\u5fdc\u6025\u5bfe\u7b56\u4e8b\u524d\u8abf\u67fb\u696d\u52d9","client_name":"\u56fd\u571f\u4ea4\u901a\u7701\u5317\u6d77\u9053\u958b\u767a\u5c40\u77f3\u72e9\u5ddd\u958b\u767a\u5efa\u8a2d\u90e8\u6c5f\u5225\u6cb3\u5ddd\u4e8b\u52d9\u6240","boring_xml_url":39,"boring_view_url":1,"soilmap_view_url":null,"soiltest_xml_url":0,"soiltest_view_url":0},{"id":135005,"code":"B4KJ201801002-3254","latitude":"43.1267","longitude":"141.7047","source_code":"HK2202020023","project_name":"","survey_name":"\u6e05\u771f\u5e03\u5ddd\u53f3\u5cb8\u67718\u53f7\u6a0b\u9580\u5916\u5fdc\u6025\u5bfe\u7b56\u4e8b\u524d\u8abf\u67fb\u696d\u52d9","client_name":"\u56fd\u571f\u4ea4\u901a\u7701\u5317\u6d77\u9053\u958b\u767a\u5c40\u77f3\u72e9\u5ddd\u958b\u767a\u5efa\u8a2d\u90e8\u6c5f\u5225\u6cb3\u5ddd\u4e8b\u52d9\u6240","boring_xml_url":39,"boring_view_url":1,"soilmap_view_url":null,"soiltest_xml_url":0,"soiltest_view_url":0},{"id":135004,"code":"B4KJ201801002-3253","latitude":"43.1267","longitude":"141.7047","source_code":"HK2202020022","project_name":"","survey_name":"\u6e05\u771f\u5e03\u5ddd\u53f3\u5cb8\u67718\u53f7\u6a0b\u9580\u5916\u5fdc\u6025\u5bfe\u7b56\u4e8b\u524d\u8abf\u67fb\u696d\u52d9","client_name":"\u56fd\u571f\u4ea4\u901a\u7701\u5317\u6d77\u9053\u958b\u767a\u5c40\u77f3\u72e9\u5ddd\u958b\u767a\u5efa\u8a2d\u90e8\u6c5f\u5225\u6cb3\u5ddd\u4e8b\u52d9\u6240","boring_xml_url":39,"boring_view_url":1,"soilmap_view_url":null,"soiltest_xml_url":0,"soiltest_view_url":0},{"id":135003,"code":"B4KJ201801002-3252","latitude":"43.1297","longitude":"141.6992","source_code":"HK2202020021","project_name":"","survey_name":"\u6e05\u771f\u5e03\u5ddd\u53f3\u5cb8\u67718\u53f7\u6a0b\u9580\u5916\u5fdc\u6025\u5bfe\u7b56\u4e8b\u524d\u8abf\u67fb\u696d\u52d9","client_name":"\u56fd\u571f\u4ea4\u901a\u7701\u5317\u6d77\u9053\u958b\u767a\u5c40\u77f3\u72e9\u5ddd\u958b\u767a\u5efa\u8a2d\u90e8\u6c5f\u5225\u6cb3\u5ddd\u4e8b\u52d9\u6240","boring_xml_url":39,"boring_view_url":1,"soilmap_view_url":null,"soiltest_xml_url":0,"soiltest_view_url":0},{"id":135002,"code":"B4KJ201801002-3251","latitude":"43.1297","longitude":"141.6992","source_code":"HK2202020020","project_name":"","survey_name":"\u6e05\u771f\u5e03\u5ddd\u53f3\u5cb8\u67718\u53f7\u6a0b\u9580\u5916\u5fdc\u6025\u5bfe\u7b56\u4e8b\u524d\u8abf\u67fb\u696d\u52d9","client_name":"\u56fd\u571f\u4ea4\u901a\u7701\u5317\u6d77\u9053\u958b\u767a\u5c40\u77f3\u72e9\u5ddd\u958b\u767a\u5efa\u8a2d\u90e8\u6c5f\u5225\u6cb3\u5ddd\u4e8b\u52d9\u6240","boring_xml_url":39,"boring_view_url":1,"soilmap_view_url":null,"soiltest_xml_url":0,"soiltest_view_url":0},{"id":135001,"code":"B4KJ201801002-3250","latitude":"43.1297","longitude":"141.6992","source_code":"HK2202020019","project_name":"","survey_name":"\u6e05\u771f\u5e03\u5ddd\u53f3\u5cb8\u67718\u53f7\u6a0b\u9580\u5916\u5fdc\u6025\u5bfe\u7b56\u4e8b\u524d\u8abf\u67fb\u696d\u52d9","client_name":"\u56fd\u571f\u4ea4\u901a\u7701\u5317\u6d77\u9053\u958b\u767a\u5c40\u77f3\u72e9\u5ddd\u958b\u767a\u5efa\u8a2d\u90e8\u6c5f\u5225\u6cb3\u5ddd\u4e8b\u52d9\u6240","boring_xml_url":39,"boring_view_url":1,"soilmap_view_url":null,"soiltest_xml_url":0,"soiltest_view_url":0},{"id":135000,"code":"B4KJ201801002-3249","latitude":"43.1314","longitude":"141.6906","source_code":"HK2202020018","project_name":"","survey_name":"\u6e05\u771f\u5e03\u5ddd\u53f3\u5cb8\u67718\u53f7\u6a0b\u9580\u5916\u5fdc\u6025\u5bfe\u7b56\u4e8b\u524d\u8abf\u67fb\u696d\u52d9","client_name":"\u56fd\u571f\u4ea4\u901a\u7701\u5317\u6d77\u9053\u958b\u767a\u5c40\u77f3\u72e9\u5ddd\u958b\u767a\u5efa\u8a2d\u90e8\u6c5f\u5225\u6cb3\u5ddd\u4e8b\u52d9\u6240","boring_xml_url":39,"boring_view_url":1,"soilmap_view_url":null,"soiltest_xml_url":0,"soiltest_view_url":0},{"id":134999,"code":"B4KJ201801002-3248","latitude":"43.1314","longitude":"141.6906","source_code":"HK2202020017","project_name":"","survey_name":"\u6e05\u771f\u5e03\u5ddd\u53f3\u5cb8\u67718\u53f7\u6a0b\u9580\u5916\u5fdc\u6025\u5bfe\u7b56\u4e8b\u524d\u8abf\u67fb\u696d\u52d9","client_name":"\u56fd\u571f\u4ea4\u901a\u7701\u5317\u6d77\u9053\u958b\u767a\u5c40\u77f3\u72e9\u5ddd\u958b\u767a\u5efa\u8a2d\u90e8\u6c5f\u5225\u6cb3\u5ddd\u4e8b\u52d9\u6240","boring_xml_url":39,"boring_view_url":1,"soilmap_view_url":null,"soiltest_xml_url":0,"soiltest_view_url":0},{"id":134998,"code":"B4KJ201801002-3247","latitude":"43.1314","longitude":"141.6906","source_code":"HK2202020016","project_name":"","survey_name":"\u6e05\u771f\u5e03\u5ddd\u53f3\u5cb8\u67718\u53f7\u6a0b\u9580\u5916\u5fdc\u6025\u5bfe\u7b56\u4e8b\u524d\u8abf\u67fb\u696d\u52d9","client_name":"\u56fd\u571f\u4ea4\u901a\u7701\u5317\u6d77\u9053\u958b\u767a\u5c40\u77f3\u72e9\u5ddd\u958b\u767a\u5efa\u8a2d\u90e8\u6c5f\u5225\u6cb3\u5ddd\u4e8b\u52d9\u6240","boring_xml_url":39,"boring_view_url":1,"soilmap_view_url":null,"soiltest_xml_url":0,"soiltest_view_url":0},{"id":134997,"code":"B4KJ201801002-3246","latitude":"43.1319","longitude":"141.6803","source_code":"HK2202020015","project_name":"","survey_name":"\u6e05\u771f\u5e03\u5ddd\u53f3\u5cb8\u67718\u53f7\u6a0b\u9580\u5916\u5fdc\u6025\u5bfe\u7b56\u4e8b\u524d\u8abf\u67fb\u696d\u52d9","client_name":"\u56fd\u571f\u4ea4\u901a\u7701\u5317\u6d77\u9053\u958b\u767a\u5c40\u77f3\u72e9\u5ddd\u958b\u767a\u5efa\u8a2d\u90e8\u6c5f\u5225\u6cb3\u5ddd\u4e8b\u52d9\u6240","boring_xml_url":39,"boring_view_url":1,"soilmap_view_url":null,"soiltest_xml_url":0,"soiltest_view_url":0},{"id":134996,"code":"B4KJ201801002-3245","latitude":"43.1319","longitude":"141.6803","source_code":"HK2202020014","project_name":"","survey_name":"\u6e05\u771f\u5e03\u5ddd\u53f3\u5cb8\u67718\u53f7\u6a0b\u9580\u5916\u5fdc\u6025\u5bfe\u7b56\u4e8b\u524d\u8abf\u67fb\u696d\u52d9","client_name":"\u56fd\u571f\u4ea4\u901a\u7701\u5317\u6d77\u9053\u958b\u767a\u5c40\u77f3\u72e9\u5ddd\u958b\u767a\u5efa\u8a2d\u90e8\u6c5f\u5225\u6cb3\u5ddd\u4e8b\u52d9\u6240","boring_xml_url":39,"boring_view_url":1,"soilmap_view_url":null,"soiltest_xml_url":0,"soiltest_view_url":0}]}}