{"header":{"xyz":{"source":[],"mosaic":false},"page":6188,"raw":{"soiltest_result":"0","bbox":"57.598333,109.544722,1.933333,163.806111","page":"6188"},"conditions":{"soiltest_result":0,"north":57.598333,"west":109.544722,"south":1.933333,"east":163.806111},"success":true,"message":""},"data":{"meta":{"total":212844,"page":6188,"pages":7095,"count":30},"values":[{"id":134935,"code":"B4KJ201801002-3184","latitude":"45.36623914","longitude":"141.744995","source_code":"HK2009813100H180002","project_name":"","survey_name":"\u6cbc\u306e\u6ca2\u6a0b\u9580\u8a73\u7d30\u8a2d\u8a08\u5916\u696d\u52d9","client_name":"\u56fd\u571f\u4ea4\u901a\u7701\u5317\u6d77\u9053\u958b\u767a\u5c40\u7a1a\u5185\u958b\u767a\u5efa\u8a2d\u90e8","boring_xml_url":46,"boring_view_url":1,"soilmap_view_url":null,"soiltest_xml_url":40,"soiltest_view_url":40},{"id":134934,"code":"B4KJ201801002-3183","latitude":"45.36630961","longitude":"141.7451158","source_code":"HK2009813100H180001","project_name":"","survey_name":"\u6cbc\u306e\u6ca2\u6a0b\u9580\u8a73\u7d30\u8a2d\u8a08\u5916\u696d\u52d9","client_name":"\u56fd\u571f\u4ea4\u901a\u7701\u5317\u6d77\u9053\u958b\u767a\u5c40\u7a1a\u5185\u958b\u767a\u5efa\u8a2d\u90e8","boring_xml_url":46,"boring_view_url":1,"soilmap_view_url":null,"soiltest_xml_url":40,"soiltest_view_url":40},{"id":134933,"code":"B4KJ201801002-3182","latitude":"45.2731","longitude":"141.8103","source_code":"HK2009813100H170001","project_name":"\u6cbc\u5ddd\u5de6\u5cb8\u6a0b\u9580\u8a73\u7d30\u8a2d\u8a08\u696d\u52d9","survey_name":"\u6cbc\u5ddd\u5de6\u5cb8\u6a0b\u9580\u8a73\u7d30\u8a2d\u8a08\u696d\u52d9","client_name":"\u56fd\u571f\u4ea4\u901a\u7701\u5317\u6d77\u9053\u958b\u767a\u5c40\u7a1a\u5185\u958b\u767a\u5efa\u8a2d\u90e8\u7a1a\u5185\u958b\u767a\u4e8b\u52d9\u6240","boring_xml_url":46,"boring_view_url":1,"soilmap_view_url":null,"soiltest_xml_url":0,"soiltest_view_url":0},{"id":134932,"code":"B4KJ201801002-3181","latitude":"44.1219","longitude":"144.0744","source_code":"HK2009812900040043","project_name":"","survey_name":"\u5e73\u621017\u5e74\u5ea6\u65bd\u884c \u7db2\u8d70\u5ddd\u5916\u5824\u9632\u8a73\u7d30\u70b9\u691c\u696d\u52d9","client_name":"\u56fd\u571f\u4ea4\u901a\u7701\u5317\u6d77\u9053\u958b\u767a\u5c40\u7db2\u8d70\u958b\u767a\u5efa\u8a2d\u90e8","boring_xml_url":45,"boring_view_url":1,"soilmap_view_url":null,"soiltest_xml_url":0,"soiltest_view_url":0},{"id":134931,"code":"B4KJ201801002-3180","latitude":"44.1217","longitude":"144.0764","source_code":"HK2009812900040042","project_name":"","survey_name":"\u5e73\u621017\u5e74\u5ea6\u65bd\u884c \u7db2\u8d70\u5ddd\u5916\u5824\u9632\u8a73\u7d30\u70b9\u691c\u696d\u52d9","client_name":"\u56fd\u571f\u4ea4\u901a\u7701\u5317\u6d77\u9053\u958b\u767a\u5c40\u7db2\u8d70\u958b\u767a\u5efa\u8a2d\u90e8","boring_xml_url":45,"boring_view_url":1,"soilmap_view_url":null,"soiltest_xml_url":0,"soiltest_view_url":0},{"id":134930,"code":"B4KJ201801002-3179","latitude":"44.02619108","longitude":"143.4965325","source_code":"HK2009812900040041","project_name":"","survey_name":"\u5e73\u621017\u5e74\u5ea6\u65bd\u884c \u7db2\u8d70\u5ddd\u5916\u5824\u9632\u8a73\u7d30\u70b9\u691c\u696d\u52d9","client_name":"\u56fd\u571f\u4ea4\u901a\u7701\u5317\u6d77\u9053\u958b\u767a\u5c40\u7db2\u8d70\u958b\u767a\u5efa\u8a2d\u90e8","boring_xml_url":45,"boring_view_url":1,"soilmap_view_url":null,"soiltest_xml_url":48,"soiltest_view_url":48},{"id":134929,"code":"B4KJ201801002-3178","latitude":"44.02615758","longitude":"143.4965325","source_code":"HK2009812900040040","project_name":"","survey_name":"\u5e73\u621017\u5e74\u5ea6\u65bd\u884c \u7db2\u8d70\u5ddd\u5916\u5824\u9632\u8a73\u7d30\u70b9\u691c\u696d\u52d9","client_name":"\u56fd\u571f\u4ea4\u901a\u7701\u5317\u6d77\u9053\u958b\u767a\u5c40\u7db2\u8d70\u958b\u767a\u5efa\u8a2d\u90e8","boring_xml_url":45,"boring_view_url":1,"soilmap_view_url":null,"soiltest_xml_url":48,"soiltest_view_url":48},{"id":134928,"code":"B4KJ201801002-3177","latitude":"44.0260585","longitude":"143.4965219","source_code":"HK2009812900040039","project_name":"","survey_name":"\u5e73\u621017\u5e74\u5ea6\u65bd\u884c \u7db2\u8d70\u5ddd\u5916\u5824\u9632\u8a73\u7d30\u70b9\u691c\u696d\u52d9","client_name":"\u56fd\u571f\u4ea4\u901a\u7701\u5317\u6d77\u9053\u958b\u767a\u5c40\u7db2\u8d70\u958b\u767a\u5efa\u8a2d\u90e8","boring_xml_url":45,"boring_view_url":1,"soilmap_view_url":null,"soiltest_xml_url":48,"soiltest_view_url":48},{"id":134927,"code":"B4KJ201801002-3176","latitude":"44.12750058","longitude":"143.5446453","source_code":"HK2009812900040038","project_name":"","survey_name":"\u5e73\u621017\u5e74\u5ea6\u65bd\u884c \u7db2\u8d70\u5ddd\u5916\u5824\u9632\u8a73\u7d30\u70b9\u691c\u696d\u52d9","client_name":"\u56fd\u571f\u4ea4\u901a\u7701\u5317\u6d77\u9053\u958b\u767a\u5c40\u7db2\u8d70\u958b\u767a\u5efa\u8a2d\u90e8","boring_xml_url":45,"boring_view_url":1,"soilmap_view_url":null,"soiltest_xml_url":48,"soiltest_view_url":48},{"id":134926,"code":"B4KJ201801002-3175","latitude":"44.12749303","longitude":"143.544735","source_code":"HK2009812900040037","project_name":"","survey_name":"\u5e73\u621017\u5e74\u5ea6\u65bd\u884c \u7db2\u8d70\u5ddd\u5916\u5824\u9632\u8a73\u7d30\u70b9\u691c\u696d\u52d9","client_name":"\u56fd\u571f\u4ea4\u901a\u7701\u5317\u6d77\u9053\u958b\u767a\u5c40\u7db2\u8d70\u958b\u767a\u5efa\u8a2d\u90e8","boring_xml_url":45,"boring_view_url":1,"soilmap_view_url":null,"soiltest_xml_url":48,"soiltest_view_url":48},{"id":134925,"code":"B4KJ201801002-3174","latitude":"44.14277519","longitude":"143.5466589","source_code":"HK2009812900040036","project_name":"","survey_name":"\u5e73\u621017\u5e74\u5ea6\u65bd\u884c \u7db2\u8d70\u5ddd\u5916\u5824\u9632\u8a73\u7d30\u70b9\u691c\u696d\u52d9","client_name":"\u56fd\u571f\u4ea4\u901a\u7701\u5317\u6d77\u9053\u958b\u767a\u5c40\u7db2\u8d70\u958b\u767a\u5efa\u8a2d\u90e8","boring_xml_url":45,"boring_view_url":1,"soilmap_view_url":null,"soiltest_xml_url":48,"soiltest_view_url":48},{"id":134924,"code":"B4KJ201801002-3173","latitude":"44.14276786","longitude":"143.5467472","source_code":"HK2009812900040035","project_name":"","survey_name":"\u5e73\u621017\u5e74\u5ea6\u65bd\u884c \u7db2\u8d70\u5ddd\u5916\u5824\u9632\u8a73\u7d30\u70b9\u691c\u696d\u52d9","client_name":"\u56fd\u571f\u4ea4\u901a\u7701\u5317\u6d77\u9053\u958b\u767a\u5c40\u7db2\u8d70\u958b\u767a\u5efa\u8a2d\u90e8","boring_xml_url":45,"boring_view_url":1,"soilmap_view_url":null,"soiltest_xml_url":48,"soiltest_view_url":48},{"id":134923,"code":"B4KJ201801002-3172","latitude":"44.15784089","longitude":"143.5533639","source_code":"HK2009812900040034","project_name":"","survey_name":"\u5e73\u621017\u5e74\u5ea6\u65bd\u884c \u7db2\u8d70\u5ddd\u5916\u5824\u9632\u8a73\u7d30\u70b9\u691c\u696d\u52d9","client_name":"\u56fd\u571f\u4ea4\u901a\u7701\u5317\u6d77\u9053\u958b\u767a\u5c40\u7db2\u8d70\u958b\u767a\u5efa\u8a2d\u90e8","boring_xml_url":45,"boring_view_url":1,"soilmap_view_url":null,"soiltest_xml_url":48,"soiltest_view_url":48},{"id":134922,"code":"B4KJ201801002-3171","latitude":"44.15780675","longitude":"143.5534708","source_code":"HK2009812900040033","project_name":"","survey_name":"\u5e73\u621017\u5e74\u5ea6\u65bd\u884c \u7db2\u8d70\u5ddd\u5916\u5824\u9632\u8a73\u7d30\u70b9\u691c\u696d\u52d9","client_name":"\u56fd\u571f\u4ea4\u901a\u7701\u5317\u6d77\u9053\u958b\u767a\u5c40\u7db2\u8d70\u958b\u767a\u5efa\u8a2d\u90e8","boring_xml_url":45,"boring_view_url":1,"soilmap_view_url":null,"soiltest_xml_url":48,"soiltest_view_url":48},{"id":134921,"code":"B4KJ201801002-3170","latitude":"44.17556044","longitude":"143.5695564","source_code":"HK2009812900040032","project_name":"","survey_name":"\u5e73\u621017\u5e74\u5ea6\u65bd\u884c \u7db2\u8d70\u5ddd\u5916\u5824\u9632\u8a73\u7d30\u70b9\u691c\u696d\u52d9","client_name":"\u56fd\u571f\u4ea4\u901a\u7701\u5317\u6d77\u9053\u958b\u767a\u5c40\u7db2\u8d70\u958b\u767a\u5efa\u8a2d\u90e8","boring_xml_url":45,"boring_view_url":1,"soilmap_view_url":null,"soiltest_xml_url":48,"soiltest_view_url":48},{"id":134920,"code":"B4KJ201801002-3169","latitude":"44.17550203","longitude":"143.5696419","source_code":"HK2009812900040031","project_name":"","survey_name":"\u5e73\u621017\u5e74\u5ea6\u65bd\u884c \u7db2\u8d70\u5ddd\u5916\u5824\u9632\u8a73\u7d30\u70b9\u691c\u696d\u52d9","client_name":"\u56fd\u571f\u4ea4\u901a\u7701\u5317\u6d77\u9053\u958b\u767a\u5c40\u7db2\u8d70\u958b\u767a\u5efa\u8a2d\u90e8","boring_xml_url":45,"boring_view_url":1,"soilmap_view_url":null,"soiltest_xml_url":48,"soiltest_view_url":48},{"id":134919,"code":"B4KJ201801002-3168","latitude":"44.18435461","longitude":"143.5810531","source_code":"HK2009812900040030","project_name":"","survey_name":"\u5e73\u621017\u5e74\u5ea6\u65bd\u884c \u7db2\u8d70\u5ddd\u5916\u5824\u9632\u8a73\u7d30\u70b9\u691c\u696d\u52d9","client_name":"\u56fd\u571f\u4ea4\u901a\u7701\u5317\u6d77\u9053\u958b\u767a\u5c40\u7db2\u8d70\u958b\u767a\u5efa\u8a2d\u90e8","boring_xml_url":45,"boring_view_url":1,"soilmap_view_url":null,"soiltest_xml_url":48,"soiltest_view_url":48},{"id":134918,"code":"B4KJ201801002-3167","latitude":"44.18412053","longitude":"143.5811536","source_code":"HK2009812900040029","project_name":"","survey_name":"\u5e73\u621017\u5e74\u5ea6\u65bd\u884c \u7db2\u8d70\u5ddd\u5916\u5824\u9632\u8a73\u7d30\u70b9\u691c\u696d\u52d9","client_name":"\u56fd\u571f\u4ea4\u901a\u7701\u5317\u6d77\u9053\u958b\u767a\u5c40\u7db2\u8d70\u958b\u767a\u5efa\u8a2d\u90e8","boring_xml_url":45,"boring_view_url":1,"soilmap_view_url":null,"soiltest_xml_url":48,"soiltest_view_url":48},{"id":134917,"code":"B4KJ201801002-3166","latitude":"44.19864661","longitude":"143.5929303","source_code":"HK2009812900040028","project_name":"","survey_name":"\u5e73\u621017\u5e74\u5ea6\u65bd\u884c \u7db2\u8d70\u5ddd\u5916\u5824\u9632\u8a73\u7d30\u70b9\u691c\u696d\u52d9","client_name":"\u56fd\u571f\u4ea4\u901a\u7701\u5317\u6d77\u9053\u958b\u767a\u5c40\u7db2\u8d70\u958b\u767a\u5efa\u8a2d\u90e8","boring_xml_url":45,"boring_view_url":1,"soilmap_view_url":null,"soiltest_xml_url":48,"soiltest_view_url":48},{"id":134916,"code":"B4KJ201801002-3165","latitude":"44.19861697","longitude":"143.5930233","source_code":"HK2009812900040027","project_name":"","survey_name":"\u5e73\u621017\u5e74\u5ea6\u65bd\u884c \u7db2\u8d70\u5ddd\u5916\u5824\u9632\u8a73\u7d30\u70b9\u691c\u696d\u52d9","client_name":"\u56fd\u571f\u4ea4\u901a\u7701\u5317\u6d77\u9053\u958b\u767a\u5c40\u7db2\u8d70\u958b\u767a\u5efa\u8a2d\u90e8","boring_xml_url":45,"boring_view_url":1,"soilmap_view_url":null,"soiltest_xml_url":48,"soiltest_view_url":48},{"id":134915,"code":"B4KJ201801002-3164","latitude":"43.71037406","longitude":"143.6577006","source_code":"HK2009812900040026","project_name":"","survey_name":"\u5e73\u621017\u5e74\u5ea6\u65bd\u884c \u7db2\u8d70\u5ddd\u5916\u5824\u9632\u8a73\u7d30\u70b9\u691c\u696d\u52d9","client_name":"\u56fd\u571f\u4ea4\u901a\u7701\u5317\u6d77\u9053\u958b\u767a\u5c40\u7db2\u8d70\u958b\u767a\u5efa\u8a2d\u90e8","boring_xml_url":45,"boring_view_url":1,"soilmap_view_url":null,"soiltest_xml_url":48,"soiltest_view_url":48},{"id":134914,"code":"B4KJ201801002-3163","latitude":"43.71031217","longitude":"143.6577539","source_code":"HK2009812900040025","project_name":"","survey_name":"\u5e73\u621017\u5e74\u5ea6\u65bd\u884c \u7db2\u8d70\u5ddd\u5916\u5824\u9632\u8a73\u7d30\u70b9\u691c\u696d\u52d9","client_name":"\u56fd\u571f\u4ea4\u901a\u7701\u5317\u6d77\u9053\u958b\u767a\u5c40\u7db2\u8d70\u958b\u767a\u5efa\u8a2d\u90e8","boring_xml_url":45,"boring_view_url":1,"soilmap_view_url":null,"soiltest_xml_url":48,"soiltest_view_url":48},{"id":134913,"code":"B4KJ201801002-3162","latitude":"43.66280508","longitude":"143.5602897","source_code":"HK2009812900040024","project_name":"","survey_name":"\u5e73\u621017\u5e74\u5ea6\u65bd\u884c \u7db2\u8d70\u5ddd\u5916\u5824\u9632\u8a73\u7d30\u70b9\u691c\u696d\u52d9","client_name":"\u56fd\u571f\u4ea4\u901a\u7701\u5317\u6d77\u9053\u958b\u767a\u5c40\u7db2\u8d70\u958b\u767a\u5efa\u8a2d\u90e8","boring_xml_url":45,"boring_view_url":1,"soilmap_view_url":null,"soiltest_xml_url":48,"soiltest_view_url":48},{"id":134912,"code":"B4KJ201801002-3161","latitude":"43.66284178","longitude":"143.5602242","source_code":"HK2009812900040023","project_name":"","survey_name":"\u5e73\u621017\u5e74\u5ea6\u65bd\u884c \u7db2\u8d70\u5ddd\u5916\u5824\u9632\u8a73\u7d30\u70b9\u691c\u696d\u52d9","client_name":"\u56fd\u571f\u4ea4\u901a\u7701\u5317\u6d77\u9053\u958b\u767a\u5c40\u7db2\u8d70\u958b\u767a\u5efa\u8a2d\u90e8","boring_xml_url":45,"boring_view_url":1,"soilmap_view_url":null,"soiltest_xml_url":48,"soiltest_view_url":48},{"id":134911,"code":"B4KJ201801002-3160","latitude":"43.70702883","longitude":"143.6498656","source_code":"HK2009812900040022","project_name":"","survey_name":"\u5e73\u621017\u5e74\u5ea6\u65bd\u884c \u7db2\u8d70\u5ddd\u5916\u5824\u9632\u8a73\u7d30\u70b9\u691c\u696d\u52d9","client_name":"\u56fd\u571f\u4ea4\u901a\u7701\u5317\u6d77\u9053\u958b\u767a\u5c40\u7db2\u8d70\u958b\u767a\u5efa\u8a2d\u90e8","boring_xml_url":45,"boring_view_url":1,"soilmap_view_url":null,"soiltest_xml_url":48,"soiltest_view_url":48},{"id":134910,"code":"B4KJ201801002-3159","latitude":"43.70707858","longitude":"143.6497914","source_code":"HK2009812900040021","project_name":"","survey_name":"\u5e73\u621017\u5e74\u5ea6\u65bd\u884c \u7db2\u8d70\u5ddd\u5916\u5824\u9632\u8a73\u7d30\u70b9\u691c\u696d\u52d9","client_name":"\u56fd\u571f\u4ea4\u901a\u7701\u5317\u6d77\u9053\u958b\u767a\u5c40\u7db2\u8d70\u958b\u767a\u5efa\u8a2d\u90e8","boring_xml_url":45,"boring_view_url":1,"soilmap_view_url":null,"soiltest_xml_url":48,"soiltest_view_url":48},{"id":134909,"code":"B4KJ201801002-3158","latitude":"43.71394375","longitude":"143.6657503","source_code":"HK2009812900040020","project_name":"","survey_name":"\u5e73\u621017\u5e74\u5ea6\u65bd\u884c \u7db2\u8d70\u5ddd\u5916\u5824\u9632\u8a73\u7d30\u70b9\u691c\u696d\u52d9","client_name":"\u56fd\u571f\u4ea4\u901a\u7701\u5317\u6d77\u9053\u958b\u767a\u5c40\u7db2\u8d70\u958b\u767a\u5efa\u8a2d\u90e8","boring_xml_url":45,"boring_view_url":1,"soilmap_view_url":null,"soiltest_xml_url":48,"soiltest_view_url":48},{"id":134908,"code":"B4KJ201801002-3157","latitude":"43.71400233","longitude":"143.6657244","source_code":"HK2009812900040019","project_name":"","survey_name":"\u5e73\u621017\u5e74\u5ea6\u65bd\u884c \u7db2\u8d70\u5ddd\u5916\u5824\u9632\u8a73\u7d30\u70b9\u691c\u696d\u52d9","client_name":"\u56fd\u571f\u4ea4\u901a\u7701\u5317\u6d77\u9053\u958b\u767a\u5c40\u7db2\u8d70\u958b\u767a\u5efa\u8a2d\u90e8","boring_xml_url":45,"boring_view_url":1,"soilmap_view_url":null,"soiltest_xml_url":48,"soiltest_view_url":48},{"id":134907,"code":"B4KJ201801002-3156","latitude":"43.71199442","longitude":"143.6773392","source_code":"HK2009812900040018","project_name":"","survey_name":"\u5e73\u621017\u5e74\u5ea6\u65bd\u884c \u7db2\u8d70\u5ddd\u5916\u5824\u9632\u8a73\u7d30\u70b9\u691c\u696d\u52d9","client_name":"\u56fd\u571f\u4ea4\u901a\u7701\u5317\u6d77\u9053\u958b\u767a\u5c40\u7db2\u8d70\u958b\u767a\u5efa\u8a2d\u90e8","boring_xml_url":45,"boring_view_url":1,"soilmap_view_url":null,"soiltest_xml_url":48,"soiltest_view_url":48},{"id":134906,"code":"B4KJ201801002-3155","latitude":"43.71205653","longitude":"143.6773581","source_code":"HK2009812900040017","project_name":"","survey_name":"\u5e73\u621017\u5e74\u5ea6\u65bd\u884c \u7db2\u8d70\u5ddd\u5916\u5824\u9632\u8a73\u7d30\u70b9\u691c\u696d\u52d9","client_name":"\u56fd\u571f\u4ea4\u901a\u7701\u5317\u6d77\u9053\u958b\u767a\u5c40\u7db2\u8d70\u958b\u767a\u5efa\u8a2d\u90e8","boring_xml_url":45,"boring_view_url":1,"soilmap_view_url":null,"soiltest_xml_url":48,"soiltest_view_url":48}]}}