{"header":{"xyz":{"source":[],"mosaic":false},"page":6189,"raw":{"soiltest_result":"0","bbox":"57.598333,109.544722,1.933333,163.806111","page":"6189"},"conditions":{"soiltest_result":0,"north":57.598333,"west":109.544722,"south":1.933333,"east":163.806111},"success":true,"message":""},"data":{"meta":{"total":212844,"page":6189,"pages":7095,"count":30},"values":[{"id":134905,"code":"B4KJ201801002-3154","latitude":"43.72168631","longitude":"143.7013364","source_code":"HK2009812900040016","project_name":"","survey_name":"\u5e73\u621017\u5e74\u5ea6\u65bd\u884c \u7db2\u8d70\u5ddd\u5916\u5824\u9632\u8a73\u7d30\u70b9\u691c\u696d\u52d9","client_name":"\u56fd\u571f\u4ea4\u901a\u7701\u5317\u6d77\u9053\u958b\u767a\u5c40\u7db2\u8d70\u958b\u767a\u5efa\u8a2d\u90e8","boring_xml_url":45,"boring_view_url":1,"soilmap_view_url":null,"soiltest_xml_url":48,"soiltest_view_url":48},{"id":134904,"code":"B4KJ201801002-3153","latitude":"43.72173786","longitude":"143.7013406","source_code":"HK2009812900040015","project_name":"","survey_name":"\u5e73\u621017\u5e74\u5ea6\u65bd\u884c \u7db2\u8d70\u5ddd\u5916\u5824\u9632\u8a73\u7d30\u70b9\u691c\u696d\u52d9","client_name":"\u56fd\u571f\u4ea4\u901a\u7701\u5317\u6d77\u9053\u958b\u767a\u5c40\u7db2\u8d70\u958b\u767a\u5efa\u8a2d\u90e8","boring_xml_url":45,"boring_view_url":1,"soilmap_view_url":null,"soiltest_xml_url":48,"soiltest_view_url":48},{"id":134903,"code":"B4KJ201801002-3152","latitude":"43.72543925","longitude":"143.7170339","source_code":"HK2009812900040014","project_name":"","survey_name":"\u5e73\u621017\u5e74\u5ea6\u65bd\u884c \u7db2\u8d70\u5ddd\u5916\u5824\u9632\u8a73\u7d30\u70b9\u691c\u696d\u52d9","client_name":"\u56fd\u571f\u4ea4\u901a\u7701\u5317\u6d77\u9053\u958b\u767a\u5c40\u7db2\u8d70\u958b\u767a\u5efa\u8a2d\u90e8","boring_xml_url":45,"boring_view_url":1,"soilmap_view_url":null,"soiltest_xml_url":48,"soiltest_view_url":48},{"id":134902,"code":"B4KJ201801002-3151","latitude":"43.72549433","longitude":"143.7170133","source_code":"HK2009812900040013","project_name":"","survey_name":"\u5e73\u621017\u5e74\u5ea6\u65bd\u884c \u7db2\u8d70\u5ddd\u5916\u5824\u9632\u8a73\u7d30\u70b9\u691c\u696d\u52d9","client_name":"\u56fd\u571f\u4ea4\u901a\u7701\u5317\u6d77\u9053\u958b\u767a\u5c40\u7db2\u8d70\u958b\u767a\u5efa\u8a2d\u90e8","boring_xml_url":45,"boring_view_url":1,"soilmap_view_url":null,"soiltest_xml_url":48,"soiltest_view_url":48},{"id":134901,"code":"B4KJ201801002-3150","latitude":"43.74559442","longitude":"144.0468247","source_code":"HK2009812900040012","project_name":"","survey_name":"\u5e73\u621017\u5e74\u5ea6\u65bd\u884c \u7db2\u8d70\u5ddd\u5916\u5824\u9632\u8a73\u7d30\u70b9\u691c\u696d\u52d9","client_name":"\u56fd\u571f\u4ea4\u901a\u7701\u5317\u6d77\u9053\u958b\u767a\u5c40\u7db2\u8d70\u958b\u767a\u5efa\u8a2d\u90e8","boring_xml_url":45,"boring_view_url":1,"soilmap_view_url":null,"soiltest_xml_url":48,"soiltest_view_url":48},{"id":134900,"code":"B4KJ201801002-3149","latitude":"43.74559442","longitude":"144.0468994","source_code":"HK2009812900040011","project_name":"","survey_name":"\u5e73\u621017\u5e74\u5ea6\u65bd\u884c \u7db2\u8d70\u5ddd\u5916\u5824\u9632\u8a73\u7d30\u70b9\u691c\u696d\u52d9","client_name":"\u56fd\u571f\u4ea4\u901a\u7701\u5317\u6d77\u9053\u958b\u767a\u5c40\u7db2\u8d70\u958b\u767a\u5efa\u8a2d\u90e8","boring_xml_url":45,"boring_view_url":1,"soilmap_view_url":null,"soiltest_xml_url":48,"soiltest_view_url":48},{"id":134899,"code":"B4KJ201801002-3148","latitude":"43.86886172","longitude":"144.1290244","source_code":"HK2009812900040010","project_name":"","survey_name":"\u5e73\u621017\u5e74\u5ea6\u65bd\u884c \u7db2\u8d70\u5ddd\u5916\u5824\u9632\u8a73\u7d30\u70b9\u691c\u696d\u52d9","client_name":"\u56fd\u571f\u4ea4\u901a\u7701\u5317\u6d77\u9053\u958b\u767a\u5c40\u7db2\u8d70\u958b\u767a\u5efa\u8a2d\u90e8","boring_xml_url":45,"boring_view_url":1,"soilmap_view_url":null,"soiltest_xml_url":48,"soiltest_view_url":48},{"id":134898,"code":"B4KJ201801002-3147","latitude":"43.8688025","longitude":"144.1290844","source_code":"HK2009812900040009","project_name":"","survey_name":"\u5e73\u621017\u5e74\u5ea6\u65bd\u884c \u7db2\u8d70\u5ddd\u5916\u5824\u9632\u8a73\u7d30\u70b9\u691c\u696d\u52d9","client_name":"\u56fd\u571f\u4ea4\u901a\u7701\u5317\u6d77\u9053\u958b\u767a\u5c40\u7db2\u8d70\u958b\u767a\u5efa\u8a2d\u90e8","boring_xml_url":45,"boring_view_url":1,"soilmap_view_url":null,"soiltest_xml_url":48,"soiltest_view_url":48},{"id":134897,"code":"B4KJ201801002-3146","latitude":"43.90704825","longitude":"144.1388972","source_code":"HK2009812900040008","project_name":"","survey_name":"\u5e73\u621017\u5e74\u5ea6\u65bd\u884c \u7db2\u8d70\u5ddd\u5916\u5824\u9632\u8a73\u7d30\u70b9\u691c\u696d\u52d9","client_name":"\u56fd\u571f\u4ea4\u901a\u7701\u5317\u6d77\u9053\u958b\u767a\u5c40\u7db2\u8d70\u958b\u767a\u5efa\u8a2d\u90e8","boring_xml_url":45,"boring_view_url":1,"soilmap_view_url":null,"soiltest_xml_url":48,"soiltest_view_url":48},{"id":134896,"code":"B4KJ201801002-3145","latitude":"43.90702744","longitude":"144.1389925","source_code":"HK2009812900040007","project_name":"","survey_name":"\u5e73\u621017\u5e74\u5ea6\u65bd\u884c \u7db2\u8d70\u5ddd\u5916\u5824\u9632\u8a73\u7d30\u70b9\u691c\u696d\u52d9","client_name":"\u56fd\u571f\u4ea4\u901a\u7701\u5317\u6d77\u9053\u958b\u767a\u5c40\u7db2\u8d70\u958b\u767a\u5efa\u8a2d\u90e8","boring_xml_url":45,"boring_view_url":1,"soilmap_view_url":null,"soiltest_xml_url":48,"soiltest_view_url":48},{"id":134895,"code":"B4KJ201801002-3144","latitude":"43.74627356","longitude":"144.0462297","source_code":"HK2009812900040006","project_name":"","survey_name":"\u5e73\u621017\u5e74\u5ea6\u65bd\u884c \u7db2\u8d70\u5ddd\u5916\u5824\u9632\u8a73\u7d30\u70b9\u691c\u696d\u52d9","client_name":"\u56fd\u571f\u4ea4\u901a\u7701\u5317\u6d77\u9053\u958b\u767a\u5c40\u7db2\u8d70\u958b\u767a\u5efa\u8a2d\u90e8","boring_xml_url":45,"boring_view_url":1,"soilmap_view_url":null,"soiltest_xml_url":48,"soiltest_view_url":48},{"id":134894,"code":"B4KJ201801002-3143","latitude":"43.74631731","longitude":"144.0461567","source_code":"HK2009812900040005","project_name":"","survey_name":"\u5e73\u621017\u5e74\u5ea6\u65bd\u884c \u7db2\u8d70\u5ddd\u5916\u5824\u9632\u8a73\u7d30\u70b9\u691c\u696d\u52d9","client_name":"\u56fd\u571f\u4ea4\u901a\u7701\u5317\u6d77\u9053\u958b\u767a\u5c40\u7db2\u8d70\u958b\u767a\u5efa\u8a2d\u90e8","boring_xml_url":45,"boring_view_url":1,"soilmap_view_url":null,"soiltest_xml_url":48,"soiltest_view_url":48},{"id":134893,"code":"B4KJ201801002-3142","latitude":"43.75477392","longitude":"144.0566933","source_code":"HK2009812900040004","project_name":"","survey_name":"\u5e73\u621017\u5e74\u5ea6\u65bd\u884c \u7db2\u8d70\u5ddd\u5916\u5824\u9632\u8a73\u7d30\u70b9\u691c\u696d\u52d9","client_name":"\u56fd\u571f\u4ea4\u901a\u7701\u5317\u6d77\u9053\u958b\u767a\u5c40\u7db2\u8d70\u958b\u767a\u5efa\u8a2d\u90e8","boring_xml_url":45,"boring_view_url":1,"soilmap_view_url":null,"soiltest_xml_url":48,"soiltest_view_url":48},{"id":134892,"code":"B4KJ201801002-3141","latitude":"43.75482536","longitude":"144.0566297","source_code":"HK2009812900040003","project_name":"","survey_name":"\u5e73\u621017\u5e74\u5ea6\u65bd\u884c \u7db2\u8d70\u5ddd\u5916\u5824\u9632\u8a73\u7d30\u70b9\u691c\u696d\u52d9","client_name":"\u56fd\u571f\u4ea4\u901a\u7701\u5317\u6d77\u9053\u958b\u767a\u5c40\u7db2\u8d70\u958b\u767a\u5efa\u8a2d\u90e8","boring_xml_url":45,"boring_view_url":1,"soilmap_view_url":null,"soiltest_xml_url":48,"soiltest_view_url":48},{"id":134891,"code":"B4KJ201801002-3140","latitude":"43.84999169","longitude":"144.1144372","source_code":"HK2009812900040002","project_name":"","survey_name":"\u5e73\u621017\u5e74\u5ea6\u65bd\u884c \u7db2\u8d70\u5ddd\u5916\u5824\u9632\u8a73\u7d30\u70b9\u691c\u696d\u52d9","client_name":"\u56fd\u571f\u4ea4\u901a\u7701\u5317\u6d77\u9053\u958b\u767a\u5c40\u7db2\u8d70\u958b\u767a\u5efa\u8a2d\u90e8","boring_xml_url":45,"boring_view_url":1,"soilmap_view_url":null,"soiltest_xml_url":48,"soiltest_view_url":48},{"id":134890,"code":"B4KJ201801002-3139","latitude":"43.85002478","longitude":"144.1143225","source_code":"HK2009812900040001","project_name":"","survey_name":"\u5e73\u621017\u5e74\u5ea6\u65bd\u884c \u7db2\u8d70\u5ddd\u5916\u5824\u9632\u8a73\u7d30\u70b9\u691c\u696d\u52d9","client_name":"\u56fd\u571f\u4ea4\u901a\u7701\u5317\u6d77\u9053\u958b\u767a\u5c40\u7db2\u8d70\u958b\u767a\u5efa\u8a2d\u90e8","boring_xml_url":45,"boring_view_url":1,"soilmap_view_url":null,"soiltest_xml_url":48,"soiltest_view_url":48},{"id":134889,"code":"B4KJ201801002-3138","latitude":"43.93170844","longitude":"144.156375","source_code":"HK2009812900030005","project_name":"\u7db2\u8d70\u5ddd\u4e0b\u6d41\u5de5\u4e8b\u7b87\u6240\u8abf\u67fb\u696d\u52d9","survey_name":"\u7db2\u8d70\u5ddd\u4e0b\u6d41\u5de5\u4e8b\u7b87\u6240\u8abf\u67fb\u696d\u52d9","client_name":"\u56fd\u571f\u4ea4\u901a\u7701\u5317\u6d77\u9053\u958b\u767a\u5c40\u7db2\u8d70\u958b\u767a\u5efa\u8a2d\u90e8\u5317\u898b\u6cb3\u5ddd\u4e8b\u52d9\u6240","boring_xml_url":45,"boring_view_url":1,"soilmap_view_url":null,"soiltest_xml_url":0,"soiltest_view_url":0},{"id":134888,"code":"B4KJ201801002-3137","latitude":"44.0203795","longitude":"144.2466697","source_code":"HK2009812900030004","project_name":"\u7db2\u8d70\u5ddd\u4e0b\u6d41\u5de5\u4e8b\u7b87\u6240\u8abf\u67fb\u696d\u52d9","survey_name":"\u7db2\u8d70\u5ddd\u4e0b\u6d41\u5de5\u4e8b\u7b87\u6240\u8abf\u67fb\u696d\u52d9","client_name":"\u56fd\u571f\u4ea4\u901a\u7701\u5317\u6d77\u9053\u958b\u767a\u5c40\u7db2\u8d70\u958b\u767a\u5efa\u8a2d\u90e8\u5317\u898b\u6cb3\u5ddd\u4e8b\u52d9\u6240","boring_xml_url":45,"boring_view_url":1,"soilmap_view_url":null,"soiltest_xml_url":0,"soiltest_view_url":0},{"id":134887,"code":"B4KJ201801002-3136","latitude":"43.9376564","longitude":"144.1259692","source_code":"HK2009812900030003","project_name":"\u7db2\u8d70\u5ddd\u4e0b\u6d41\u5de5\u4e8b\u7b87\u6240\u8abf\u67fb\u696d\u52d9","survey_name":"\u7db2\u8d70\u5ddd\u4e0b\u6d41\u5de5\u4e8b\u7b87\u6240\u8abf\u67fb\u696d\u52d9","client_name":"\u56fd\u571f\u4ea4\u901a\u7701\u5317\u6d77\u9053\u958b\u767a\u5c40\u7db2\u8d70\u958b\u767a\u5efa\u8a2d\u90e8\u5317\u898b\u6cb3\u5ddd\u4e8b\u52d9\u6240","boring_xml_url":45,"boring_view_url":1,"soilmap_view_url":null,"soiltest_xml_url":0,"soiltest_view_url":0},{"id":134886,"code":"B4KJ201801002-3135","latitude":"43.9394078","longitude":"144.1247433","source_code":"HK2009812900030002","project_name":"\u7db2\u8d70\u5ddd\u4e0b\u6d41\u5de5\u4e8b\u7b87\u6240\u8abf\u67fb\u696d\u52d9","survey_name":"\u7db2\u8d70\u5ddd\u4e0b\u6d41\u5de5\u4e8b\u7b87\u6240\u8abf\u67fb\u696d\u52d9","client_name":"\u56fd\u571f\u4ea4\u901a\u7701\u5317\u6d77\u9053\u958b\u767a\u5c40\u7db2\u8d70\u958b\u767a\u5efa\u8a2d\u90e8\u5317\u898b\u6cb3\u5ddd\u4e8b\u52d9\u6240","boring_xml_url":45,"boring_view_url":1,"soilmap_view_url":null,"soiltest_xml_url":0,"soiltest_view_url":0},{"id":134885,"code":"B4KJ201801002-3134","latitude":"43.94106614","longitude":"144.1249675","source_code":"HK2009812900030001","project_name":"\u7db2\u8d70\u5ddd\u4e0b\u6d41\u5de5\u4e8b\u7b87\u6240\u8abf\u67fb\u696d\u52d9","survey_name":"\u7db2\u8d70\u5ddd\u4e0b\u6d41\u5de5\u4e8b\u7b87\u6240\u8abf\u67fb\u696d\u52d9","client_name":"\u56fd\u571f\u4ea4\u901a\u7701\u5317\u6d77\u9053\u958b\u767a\u5c40\u7db2\u8d70\u958b\u767a\u5efa\u8a2d\u90e8\u5317\u898b\u6cb3\u5ddd\u4e8b\u52d9\u6240","boring_xml_url":45,"boring_view_url":1,"soilmap_view_url":null,"soiltest_xml_url":0,"soiltest_view_url":0},{"id":134884,"code":"B4KJ201801002-3133","latitude":"44.3781","longitude":"143.3228","source_code":"HK2009812900020040","project_name":"\u5e73\u621016\u5e74\u5ea6 \u6e67\u5225\u5ddd\u5916\u5824\u9632\u8a73\u7d30\u70b9\u691c\u696d\u52d9","survey_name":"\u5e73\u621016\u5e74\u5ea6 \u6e67\u5225\u5ddd\u5916\u5824\u9632\u8a73\u7d30\u70b9\u691c\u696d\u52d9","client_name":"\u56fd\u571f\u4ea4\u901a\u7701\u5317\u6d77\u9053\u958b\u767a\u5c40\u7db2\u8d70\u958b\u767a\u5efa\u8a2d\u90e8","boring_xml_url":45,"boring_view_url":1,"soilmap_view_url":null,"soiltest_xml_url":48,"soiltest_view_url":48},{"id":134883,"code":"B4KJ201801002-3132","latitude":"44.3781","longitude":"143.3222","source_code":"HK2009812900020039","project_name":"\u5e73\u621016\u5e74\u5ea6 \u6e67\u5225\u5ddd\u5916\u5824\u9632\u8a73\u7d30\u70b9\u691c\u696d\u52d9","survey_name":"\u5e73\u621016\u5e74\u5ea6 \u6e67\u5225\u5ddd\u5916\u5824\u9632\u8a73\u7d30\u70b9\u691c\u696d\u52d9","client_name":"\u56fd\u571f\u4ea4\u901a\u7701\u5317\u6d77\u9053\u958b\u767a\u5c40\u7db2\u8d70\u958b\u767a\u5efa\u8a2d\u90e8","boring_xml_url":45,"boring_view_url":1,"soilmap_view_url":null,"soiltest_xml_url":48,"soiltest_view_url":48},{"id":134882,"code":"B4KJ201801002-3131","latitude":"44.2758","longitude":"143.2794","source_code":"HK2009812900020038","project_name":"\u5e73\u621016\u5e74\u5ea6 \u6e67\u5225\u5ddd\u5916\u5824\u9632\u8a73\u7d30\u70b9\u691c\u696d\u52d9","survey_name":"\u5e73\u621016\u5e74\u5ea6 \u6e67\u5225\u5ddd\u5916\u5824\u9632\u8a73\u7d30\u70b9\u691c\u696d\u52d9","client_name":"\u56fd\u571f\u4ea4\u901a\u7701\u5317\u6d77\u9053\u958b\u767a\u5c40\u7db2\u8d70\u958b\u767a\u5efa\u8a2d\u90e8","boring_xml_url":45,"boring_view_url":1,"soilmap_view_url":null,"soiltest_xml_url":48,"soiltest_view_url":48},{"id":134881,"code":"B4KJ201801002-3130","latitude":"44.2758","longitude":"143.2794","source_code":"HK2009812900020037","project_name":"\u5e73\u621016\u5e74\u5ea6 \u6e67\u5225\u5ddd\u5916\u5824\u9632\u8a73\u7d30\u70b9\u691c\u696d\u52d9","survey_name":"\u5e73\u621016\u5e74\u5ea6 \u6e67\u5225\u5ddd\u5916\u5824\u9632\u8a73\u7d30\u70b9\u691c\u696d\u52d9","client_name":"\u56fd\u571f\u4ea4\u901a\u7701\u5317\u6d77\u9053\u958b\u767a\u5c40\u7db2\u8d70\u958b\u767a\u5efa\u8a2d\u90e8","boring_xml_url":45,"boring_view_url":1,"soilmap_view_url":null,"soiltest_xml_url":48,"soiltest_view_url":48},{"id":134880,"code":"B4KJ201801002-3129","latitude":"44.2861","longitude":"143.2839","source_code":"HK2009812900020036","project_name":"\u5e73\u621016\u5e74\u5ea6 \u6e67\u5225\u5ddd\u5916\u5824\u9632\u8a73\u7d30\u70b9\u691c\u696d\u52d9","survey_name":"\u5e73\u621016\u5e74\u5ea6 \u6e67\u5225\u5ddd\u5916\u5824\u9632\u8a73\u7d30\u70b9\u691c\u696d\u52d9","client_name":"\u56fd\u571f\u4ea4\u901a\u7701\u5317\u6d77\u9053\u958b\u767a\u5c40\u7db2\u8d70\u958b\u767a\u5efa\u8a2d\u90e8","boring_xml_url":45,"boring_view_url":1,"soilmap_view_url":null,"soiltest_xml_url":48,"soiltest_view_url":48},{"id":134879,"code":"B4KJ201801002-3128","latitude":"44.2861","longitude":"143.2839","source_code":"HK2009812900020035","project_name":"\u5e73\u621016\u5e74\u5ea6 \u6e67\u5225\u5ddd\u5916\u5824\u9632\u8a73\u7d30\u70b9\u691c\u696d\u52d9","survey_name":"\u5e73\u621016\u5e74\u5ea6 \u6e67\u5225\u5ddd\u5916\u5824\u9632\u8a73\u7d30\u70b9\u691c\u696d\u52d9","client_name":"\u56fd\u571f\u4ea4\u901a\u7701\u5317\u6d77\u9053\u958b\u767a\u5c40\u7db2\u8d70\u958b\u767a\u5efa\u8a2d\u90e8","boring_xml_url":45,"boring_view_url":1,"soilmap_view_url":null,"soiltest_xml_url":48,"soiltest_view_url":48},{"id":134878,"code":"B4KJ201801002-3127","latitude":"44.3014","longitude":"143.2839","source_code":"HK2009812900020034","project_name":"\u5e73\u621016\u5e74\u5ea6 \u6e67\u5225\u5ddd\u5916\u5824\u9632\u8a73\u7d30\u70b9\u691c\u696d\u52d9","survey_name":"\u5e73\u621016\u5e74\u5ea6 \u6e67\u5225\u5ddd\u5916\u5824\u9632\u8a73\u7d30\u70b9\u691c\u696d\u52d9","client_name":"\u56fd\u571f\u4ea4\u901a\u7701\u5317\u6d77\u9053\u958b\u767a\u5c40\u7db2\u8d70\u958b\u767a\u5efa\u8a2d\u90e8","boring_xml_url":45,"boring_view_url":1,"soilmap_view_url":null,"soiltest_xml_url":48,"soiltest_view_url":48},{"id":134877,"code":"B4KJ201801002-3126","latitude":"44.3014","longitude":"143.2839","source_code":"HK2009812900020033","project_name":"\u5e73\u621016\u5e74\u5ea6 \u6e67\u5225\u5ddd\u5916\u5824\u9632\u8a73\u7d30\u70b9\u691c\u696d\u52d9","survey_name":"\u5e73\u621016\u5e74\u5ea6 \u6e67\u5225\u5ddd\u5916\u5824\u9632\u8a73\u7d30\u70b9\u691c\u696d\u52d9","client_name":"\u56fd\u571f\u4ea4\u901a\u7701\u5317\u6d77\u9053\u958b\u767a\u5c40\u7db2\u8d70\u958b\u767a\u5efa\u8a2d\u90e8","boring_xml_url":45,"boring_view_url":1,"soilmap_view_url":null,"soiltest_xml_url":48,"soiltest_view_url":48},{"id":134876,"code":"B4KJ201801002-3125","latitude":"44.3142","longitude":"143.2867","source_code":"HK2009812900020032","project_name":"\u5e73\u621016\u5e74\u5ea6 \u6e67\u5225\u5ddd\u5916\u5824\u9632\u8a73\u7d30\u70b9\u691c\u696d\u52d9","survey_name":"\u5e73\u621016\u5e74\u5ea6 \u6e67\u5225\u5ddd\u5916\u5824\u9632\u8a73\u7d30\u70b9\u691c\u696d\u52d9","client_name":"\u56fd\u571f\u4ea4\u901a\u7701\u5317\u6d77\u9053\u958b\u767a\u5c40\u7db2\u8d70\u958b\u767a\u5efa\u8a2d\u90e8","boring_xml_url":45,"boring_view_url":1,"soilmap_view_url":null,"soiltest_xml_url":48,"soiltest_view_url":48}]}}