{"header":{"xyz":{"source":[],"mosaic":false},"page":619,"raw":{"soiltest_result":"0","bbox":"57.598333,109.544722,1.933333,163.806111","page":"619"},"conditions":{"soiltest_result":0,"north":57.598333,"west":109.544722,"south":1.933333,"east":163.806111},"success":true,"message":""},"data":{"meta":{"total":212844,"page":619,"pages":7095,"count":30},"values":[{"id":526848,"code":"B4KJ202201002-9384","latitude":"33.514815","longitude":"134.112045","source_code":"128837652000100004","project_name":"","survey_name":"\u5e73\u621024\u5e74\u5ea6\u5927\u8c37\u5ddd\u7b2c3\u7802\u9632\u5830\u5824\u6e2c\u91cf\u8a2d\u8a08\u696d\u52d9","client_name":"\u56fd\u571f\u4ea4\u901a\u7701\u56db\u56fd\u5730\u65b9\u6574\u5099\u5c40\u56db\u56fd\u5c71\u5730\u7802\u9632\u4e8b\u52d9\u6240","boring_xml_url":64,"boring_view_url":1,"soilmap_view_url":null,"soiltest_xml_url":0,"soiltest_view_url":0},{"id":526847,"code":"B4KJ202201002-9383","latitude":"33.868349","longitude":"133.968901","source_code":"128837652000100003","project_name":"\u5e73\u621024\u5e74\u5ea6\u3000\u65b0\u5c45\u5c4b\u8c37\u7802\u9632\u5830\u5824\u7fa4\u6e2c\u91cf\u8a2d\u8a08\u696d\u52d9","survey_name":"\u5e73\u621024\u5e74\u5ea6\u3000\u65b0\u5c45\u5c4b\u8c37\u7802\u9632\u5830\u5824\u7fa4\u6e2c\u91cf\u8a2d\u8a08\uff08\u305d\u306e1\uff09\u696d\u52d9","client_name":"\"\u56fd\u571f\u4ea4\u901a\u7701 \u56db\u56fd\u5730\u65b9\u6574\u5099\u5c40 \u56db\u56fd\u5c71\u5730\u7802\u9632\u4e8b\u52d9\u6240\"","boring_xml_url":64,"boring_view_url":1,"soilmap_view_url":null,"soiltest_xml_url":0,"soiltest_view_url":0},{"id":526846,"code":"B4KJ202201002-9382","latitude":"33.86865","longitude":"133.968836","source_code":"128837652000100002","project_name":"\u5e73\u621024\u5e74\u5ea6\u3000\u65b0\u5c45\u5c4b\u8c37\u7802\u9632\u5830\u5824\u7fa4\u6e2c\u91cf\u8a2d\u8a08\u696d\u52d9","survey_name":"\u5e73\u621024\u5e74\u5ea6\u3000\u65b0\u5c45\u5c4b\u8c37\u7802\u9632\u5830\u5824\u7fa4\u6e2c\u91cf\u8a2d\u8a08\uff08\u305d\u306e1\uff09\u696d\u52d9","client_name":"\"\u56fd\u571f\u4ea4\u901a\u7701 \u56db\u56fd\u5730\u65b9\u6574\u5099\u5c40 \u56db\u56fd\u5c71\u5730\u7802\u9632\u4e8b\u52d9\u6240\"","boring_xml_url":64,"boring_view_url":1,"soilmap_view_url":null,"soiltest_xml_url":0,"soiltest_view_url":0},{"id":526845,"code":"B4KJ202201002-9381","latitude":"33.86865","longitude":"133.968615","source_code":"128837652000100001","project_name":"\u5e73\u621024\u5e74\u5ea6\u3000\u65b0\u5c45\u5c4b\u8c37\u7802\u9632\u5830\u5824\u7fa4\u6e2c\u91cf\u8a2d\u8a08\u696d\u52d9","survey_name":"\u5e73\u621024\u5e74\u5ea6\u3000\u65b0\u5c45\u5c4b\u8c37\u7802\u9632\u5830\u5824\u7fa4\u6e2c\u91cf\u8a2d\u8a08\uff08\u305d\u306e1\uff09\u696d\u52d9","client_name":"\"\u56fd\u571f\u4ea4\u901a\u7701 \u56db\u56fd\u5730\u65b9\u6574\u5099\u5c40 \u56db\u56fd\u5c71\u5730\u7802\u9632\u4e8b\u52d9\u6240\"","boring_xml_url":64,"boring_view_url":1,"soilmap_view_url":null,"soiltest_xml_url":0,"soiltest_view_url":0},{"id":526844,"code":"B4KJ202201002-9380","latitude":"33.778096","longitude":"132.915674","source_code":"128837652000080004","project_name":"\u30a2\u30ea\u30ce\u6728\u8c37\u7802\u9632\u5830\u5824","survey_name":"\u5e73\u621024\u5e74\u5ea6\u3000\u30a2\u30ea\u30ce\u6728\u8c37\u7802\u9632\u5830\u5824\u6e2c\u91cf\u8a2d\u8a08\u696d\u52d9","client_name":"\u56fd\u571f\u4ea4\u901a\u7701\u56db\u56fd\u5730\u65b9\u6574\u5099\u5c40\u56db\u56fd\u5c71\u5730\u7802\u9632\u4e8b\u52d9\u6240","boring_xml_url":64,"boring_view_url":1,"soilmap_view_url":null,"soiltest_xml_url":0,"soiltest_view_url":0},{"id":526843,"code":"B4KJ202201002-9379","latitude":"33.777904","longitude":"132.915501","source_code":"128837652000080003","project_name":"\u30a2\u30ea\u30ce\u6728\u8c37\u7802\u9632\u5830\u5824","survey_name":"\u5e73\u621024\u5e74\u5ea6\u3000\u30a2\u30ea\u30ce\u6728\u8c37\u7802\u9632\u5830\u5824\u6e2c\u91cf\u8a2d\u8a08\u696d\u52d9","client_name":"\u56fd\u571f\u4ea4\u901a\u7701\u56db\u56fd\u5730\u65b9\u6574\u5099\u5c40\u56db\u56fd\u5c71\u5730\u7802\u9632\u4e8b\u52d9\u6240","boring_xml_url":64,"boring_view_url":1,"soilmap_view_url":null,"soiltest_xml_url":0,"soiltest_view_url":0},{"id":526842,"code":"B4KJ202201002-9378","latitude":"33.778042","longitude":"132.91545","source_code":"128837652000080002","project_name":"\u30a2\u30ea\u30ce\u6728\u8c37\u7802\u9632\u5830\u5824","survey_name":"\u5e73\u621024\u5e74\u5ea6\u3000\u30a2\u30ea\u30ce\u6728\u8c37\u7802\u9632\u5830\u5824\u6e2c\u91cf\u8a2d\u8a08\u696d\u52d9","client_name":"\u56fd\u571f\u4ea4\u901a\u7701\u56db\u56fd\u5730\u65b9\u6574\u5099\u5c40\u56db\u56fd\u5c71\u5730\u7802\u9632\u4e8b\u52d9\u6240","boring_xml_url":64,"boring_view_url":1,"soilmap_view_url":null,"soiltest_xml_url":0,"soiltest_view_url":0},{"id":526841,"code":"B4KJ202201002-9377","latitude":"33.778168","longitude":"132.9154","source_code":"128837652000080001","project_name":"\u30a2\u30ea\u30ce\u6728\u8c37\u7802\u9632\u5830\u5824","survey_name":"\u5e73\u621024\u5e74\u5ea6\u3000\u30a2\u30ea\u30ce\u6728\u8c37\u7802\u9632\u5830\u5824\u6e2c\u91cf\u8a2d\u8a08\u696d\u52d9","client_name":"\u56fd\u571f\u4ea4\u901a\u7701\u56db\u56fd\u5730\u65b9\u6574\u5099\u5c40\u56db\u56fd\u5c71\u5730\u7802\u9632\u4e8b\u52d9\u6240","boring_xml_url":64,"boring_view_url":1,"soilmap_view_url":null,"soiltest_xml_url":0,"soiltest_view_url":0},{"id":526840,"code":"B4KJ202201002-9376","latitude":"33.795017","longitude":"133.357683","source_code":"128837652000070008","project_name":"","survey_name":"\u5e73\u621024\u5e74\u5ea6\u3000\u685c\u8c37\u7802\u9632\u5830\u5824\u6e2c\u91cf\u8a2d\u8a08\u696d\u52d9","client_name":"\u56fd\u571f\u4ea4\u901a\u7701\u3000\u56db\u56fd\u5730\u65b9\u6574\u5099\u5c40\u3000\u56db\u56fd\u5c71\u5730\u7802\u9632\u4e8b\u52d9\u6240","boring_xml_url":64,"boring_view_url":1,"soilmap_view_url":null,"soiltest_xml_url":0,"soiltest_view_url":0},{"id":526839,"code":"B4KJ202201002-9375","latitude":"33.794983","longitude":"133.357483","source_code":"128837652000070007","project_name":"","survey_name":"\u5e73\u621024\u5e74\u5ea6\u3000\u685c\u8c37\u7802\u9632\u5830\u5824\u6e2c\u91cf\u8a2d\u8a08\u696d\u52d9","client_name":"\u56fd\u571f\u4ea4\u901a\u7701\u3000\u56db\u56fd\u5730\u65b9\u6574\u5099\u5c40\u3000\u56db\u56fd\u5c71\u5730\u7802\u9632\u4e8b\u52d9\u6240","boring_xml_url":64,"boring_view_url":1,"soilmap_view_url":null,"soiltest_xml_url":0,"soiltest_view_url":0},{"id":526838,"code":"B4KJ202201002-9374","latitude":"33.794833","longitude":"133.35735","source_code":"128837652000070006","project_name":"","survey_name":"\u5e73\u621024\u5e74\u5ea6\u3000\u685c\u8c37\u7802\u9632\u5830\u5824\u6e2c\u91cf\u8a2d\u8a08\u696d\u52d9","client_name":"\u56fd\u571f\u4ea4\u901a\u7701\u3000\u56db\u56fd\u5730\u65b9\u6574\u5099\u5c40\u3000\u56db\u56fd\u5c71\u5730\u7802\u9632\u4e8b\u52d9\u6240","boring_xml_url":64,"boring_view_url":1,"soilmap_view_url":null,"soiltest_xml_url":0,"soiltest_view_url":0},{"id":526837,"code":"B4KJ202201002-9373","latitude":"33.794767","longitude":"133.357167","source_code":"128837652000070005","project_name":"","survey_name":"\u5e73\u621024\u5e74\u5ea6\u3000\u685c\u8c37\u7802\u9632\u5830\u5824\u6e2c\u91cf\u8a2d\u8a08\u696d\u52d9","client_name":"\u56fd\u571f\u4ea4\u901a\u7701\u3000\u56db\u56fd\u5730\u65b9\u6574\u5099\u5c40\u3000\u56db\u56fd\u5c71\u5730\u7802\u9632\u4e8b\u52d9\u6240","boring_xml_url":64,"boring_view_url":1,"soilmap_view_url":null,"soiltest_xml_url":0,"soiltest_view_url":0},{"id":526836,"code":"B4KJ202201002-9372","latitude":"33.793883","longitude":"133.374081","source_code":"128837652000070004","project_name":"\u5e73\u621024\u5e74\u5ea6\u5929\u795e\u8c37\u7802\u9632\u5830\u5824\u6e2c\u91cf\u8a2d\u8a08\u696d\u52d9\uff08\u5357\u91ce\u5c71\u897f\u8c37\uff09","survey_name":"\u5e73\u621024\u5e74\u5ea6\u5929\u795e\u8c37\u7802\u9632\u5830\u5824\u6e2c\u91cf\u8a2d\u8a08\u696d\u52d9\uff08\u5357\u91ce\u5c71\u897f\u8c37\uff09","client_name":"\u56fd\u571f\u4ea4\u901a\u7701\u3000\u56db\u56fd\u5730\u65b9\u6574\u5099\u5c40\u3000\u5c71\u5730\u7802\u9632\u4e8b\u52d9\u6240","boring_xml_url":64,"boring_view_url":1,"soilmap_view_url":null,"soiltest_xml_url":0,"soiltest_view_url":0},{"id":526835,"code":"B4KJ202201002-9371","latitude":"33.7936","longitude":"133.374028","source_code":"128837652000070003","project_name":"\u5e73\u621024\u5e74\u5ea6\u5929\u795e\u8c37\u7802\u9632\u5830\u5824\u6e2c\u91cf\u8a2d\u8a08\u696d\u52d9\uff08\u5357\u91ce\u5c71\u897f\u8c37\uff09","survey_name":"\u5e73\u621024\u5e74\u5ea6\u5929\u795e\u8c37\u7802\u9632\u5830\u5824\u6e2c\u91cf\u8a2d\u8a08\u696d\u52d9\uff08\u5357\u91ce\u5c71\u897f\u8c37\uff09","client_name":"\u56fd\u571f\u4ea4\u901a\u7701\u3000\u56db\u56fd\u5730\u65b9\u6574\u5099\u5c40\u3000\u5c71\u5730\u7802\u9632\u4e8b\u52d9\u6240","boring_xml_url":64,"boring_view_url":1,"soilmap_view_url":null,"soiltest_xml_url":0,"soiltest_view_url":0},{"id":526834,"code":"B4KJ202201002-9370","latitude":"33.793781","longitude":"133.374189","source_code":"128837652000070002","project_name":"\u5e73\u621024\u5e74\u5ea6\u5929\u795e\u8c37\u7802\u9632\u5830\u5824\u6e2c\u91cf\u8a2d\u8a08\u696d\u52d9\uff08\u5357\u91ce\u5c71\u897f\u8c37\uff09","survey_name":"\u5e73\u621024\u5e74\u5ea6\u5929\u795e\u8c37\u7802\u9632\u5830\u5824\u6e2c\u91cf\u8a2d\u8a08\u696d\u52d9\uff08\u5357\u91ce\u5c71\u897f\u8c37\uff09","client_name":"\u56fd\u571f\u4ea4\u901a\u7701\u3000\u56db\u56fd\u5730\u65b9\u6574\u5099\u5c40\u3000\u5c71\u5730\u7802\u9632\u4e8b\u52d9\u6240","boring_xml_url":64,"boring_view_url":1,"soilmap_view_url":null,"soiltest_xml_url":0,"soiltest_view_url":0},{"id":526833,"code":"B4KJ202201002-9369","latitude":"33.793781","longitude":"133.374189","source_code":"128837652000070001","project_name":"\u5e73\u621024\u5e74\u5ea6\u5929\u795e\u8c37\u7802\u9632\u5830\u5824\u6e2c\u91cf\u8a2d\u8a08\u696d\u52d9\uff08\u5357\u91ce\u5c71\u897f\u8c37\uff09","survey_name":"\u5e73\u621024\u5e74\u5ea6\u5929\u795e\u8c37\u7802\u9632\u5830\u5824\u6e2c\u91cf\u8a2d\u8a08\u696d\u52d9\uff08\u5357\u91ce\u5c71\u897f\u8c37\uff09","client_name":"\u56fd\u571f\u4ea4\u901a\u7701\u3000\u56db\u56fd\u5730\u65b9\u6574\u5099\u5c40\u3000\u5c71\u5730\u7802\u9632\u4e8b\u52d9\u6240","boring_xml_url":64,"boring_view_url":1,"soilmap_view_url":null,"soiltest_xml_url":0,"soiltest_view_url":0},{"id":526832,"code":"B4KJ202201002-9368","latitude":"33.771307","longitude":"133.338947","source_code":"138834652000110003","project_name":"\u5e73\u621024\u5e74\u5ea6\u3000\u5929\u795e\u8c37\u7802\u9632\u5830\u5824\u6e2c\u91cf\u8a2d\u8a08\u696d\u52d9","survey_name":"\u5e73\u621024\u5e74\u5ea6\u3000\u5929\u795e\u8c37\u7802\u9632\u5830\u5824\u6e2c\u91cf\u8a2d\u8a08\u696d\u52d9","client_name":"\u56fd\u571f\u4ea4\u901a\u7701\u56db\u56fd\u5730\u65b9\u6574\u5099\u5c40\u3000\u56db\u56fd\u5c71\u5730\u7802\u9632\u4e8b\u52d9\u6240","boring_xml_url":64,"boring_view_url":1,"soilmap_view_url":null,"soiltest_xml_url":0,"soiltest_view_url":0},{"id":526831,"code":"B4KJ202201002-9367","latitude":"33.771146","longitude":"133.338953","source_code":"138834652000110002","project_name":"\u5e73\u621024\u5e74\u5ea6\u3000\u5929\u795e\u8c37\u7802\u9632\u5830\u5824\u6e2c\u91cf\u8a2d\u8a08\u696d\u52d9","survey_name":"\u5e73\u621024\u5e74\u5ea6\u3000\u5929\u795e\u8c37\u7802\u9632\u5830\u5824\u6e2c\u91cf\u8a2d\u8a08\u696d\u52d9","client_name":"\u56fd\u571f\u4ea4\u901a\u7701\u56db\u56fd\u5730\u65b9\u6574\u5099\u5c40\u3000\u56db\u56fd\u5c71\u5730\u7802\u9632\u4e8b\u52d9\u6240","boring_xml_url":64,"boring_view_url":1,"soilmap_view_url":null,"soiltest_xml_url":0,"soiltest_view_url":0},{"id":526830,"code":"B4KJ202201002-9366","latitude":"33.771307","longitude":"133.339152","source_code":"138834652000110001","project_name":"\u5e73\u621024\u5e74\u5ea6\u3000\u5929\u795e\u8c37\u7802\u9632\u5830\u5824\u6e2c\u91cf\u8a2d\u8a08\u696d\u52d9","survey_name":"\u5e73\u621024\u5e74\u5ea6\u3000\u5929\u795e\u8c37\u7802\u9632\u5830\u5824\u6e2c\u91cf\u8a2d\u8a08\u696d\u52d9","client_name":"\u56fd\u571f\u4ea4\u901a\u7701\u56db\u56fd\u5730\u65b9\u6574\u5099\u5c40\u3000\u56db\u56fd\u5c71\u5730\u7802\u9632\u4e8b\u52d9\u6240","boring_xml_url":64,"boring_view_url":1,"soilmap_view_url":null,"soiltest_xml_url":0,"soiltest_view_url":0},{"id":526829,"code":"B4KJ202201002-9365","latitude":"33.771217","longitude":"133.339039","source_code":"138834452000130002","project_name":"\u5e73\u621024\u5e74\u5ea6\u3000\u5929\u795e\u8c37\u7802\u9632\u5830\u5824\u6e2c\u91cf\u8a2d\u8a08\u696d\u52d9","survey_name":"\u5e73\u621024\u5e74\u5ea6\u3000\u5929\u795e\u8c37\u7802\u9632\u5830\u5824\u6e2c\u91cf\u8a2d\u8a08\u696d\u52d9","client_name":"\u56fd\u571f\u4ea4\u901a\u7701\u56db\u56fd\u5730\u65b9\u6574\u5099\u5c40\u3000\u56db\u56fd\u5c71\u5730\u7802\u9632\u4e8b\u52d9\u6240","boring_xml_url":64,"boring_view_url":1,"soilmap_view_url":null,"soiltest_xml_url":0,"soiltest_view_url":0},{"id":526828,"code":"B4KJ202201002-9364","latitude":"33.904046","longitude":"134.623586","source_code":"138834452000130001","project_name":"","survey_name":"\u5e73\u621025\u5e74\u5ea6\u3000\u6851\u91ce\u5ddd\u6a0b\u9580\u8010\u9707\u691c\u8a0e\u696d\u52d9","client_name":"\u56fd\u571f\u4ea4\u901a\u7701\u3000\u56db\u56fd\u5730\u65b9\u6574\u5099\u5c40\u3000\u90a3\u8cc0\u5ddd\u6cb3\u5ddd\u4e8b\u52d9\u6240","boring_xml_url":64,"boring_view_url":1,"soilmap_view_url":null,"soiltest_xml_url":0,"soiltest_view_url":0},{"id":526827,"code":"B4KJ202201002-9363","latitude":"33.911556","longitude":"134.627501","source_code":"138834452000100011","project_name":"","survey_name":"\u5e73\u621025\u5e74\u5ea6\u3000\u6851\u91ce\u5ddd\u6a0b\u9580\u8010\u9707\u691c\u8a0e\u696d\u52d9","client_name":"\u56fd\u571f\u4ea4\u901a\u7701\u3000\u56db\u56fd\u5730\u65b9\u6574\u5099\u5c40\u3000\u90a3\u8cc0\u5ddd\u6cb3\u5ddd\u4e8b\u52d9\u6240","boring_xml_url":64,"boring_view_url":1,"soilmap_view_url":null,"soiltest_xml_url":0,"soiltest_view_url":0},{"id":526826,"code":"B4KJ202201002-9362","latitude":"33.9161","longitude":"134.643411","source_code":"138834452000100010","project_name":"","survey_name":"\u5e73\u621025\u5e74\u5ea6\u3000\u6851\u91ce\u5ddd\u6a0b\u9580\u8010\u9707\u691c\u8a0e\u696d\u52d9","client_name":"\u56fd\u571f\u4ea4\u901a\u7701\u3000\u56db\u56fd\u5730\u65b9\u6574\u5099\u5c40\u3000\u90a3\u8cc0\u5ddd\u6cb3\u5ddd\u4e8b\u52d9\u6240","boring_xml_url":64,"boring_view_url":1,"soilmap_view_url":null,"soiltest_xml_url":0,"soiltest_view_url":0},{"id":526825,"code":"B4KJ202201002-9361","latitude":"33.80787","longitude":"134.359848","source_code":"138834452000100009","project_name":"","survey_name":"\u5e73\u621025\u5e74\u5ea6\u3000\u9577\u5b89\u53e3\u30c0\u30e0\u5730\u8cea\u8abf\u67fb\uff08\u305d\u306e2\uff09\u696d\u52d9","client_name":"\u56fd\u571f\u4ea4\u901a\u7701\u56db\u56fd\u5730\u65b9\u6574\u5099\u5c40\u90a3\u8cc0\u5ddd\u6cb3\u5ddd\u4e8b\u52d9\u6240","boring_xml_url":64,"boring_view_url":1,"soilmap_view_url":null,"soiltest_xml_url":0,"soiltest_view_url":0},{"id":526824,"code":"B4KJ202201002-9360","latitude":"33.808124","longitude":"134.359804","source_code":"138834452000100008","project_name":"","survey_name":"\u5e73\u621025\u5e74\u5ea6\u3000\u9577\u5b89\u53e3\u30c0\u30e0\u5730\u8cea\u8abf\u67fb\uff08\u305d\u306e2\uff09\u696d\u52d9","client_name":"\u56fd\u571f\u4ea4\u901a\u7701\u56db\u56fd\u5730\u65b9\u6574\u5099\u5c40\u90a3\u8cc0\u5ddd\u6cb3\u5ddd\u4e8b\u52d9\u6240","boring_xml_url":64,"boring_view_url":1,"soilmap_view_url":null,"soiltest_xml_url":0,"soiltest_view_url":0},{"id":526823,"code":"B4KJ202201002-9359","latitude":"33.804723","longitude":"134.360493","source_code":"138834452000100007","project_name":"\u5e73\u621025\u5e74\u5ea6\u3000\u9577\u5b89\u53e3\u30c0\u30e0\u5730\u8cea\u8abf\u67fb\u696d\u52d9","survey_name":"\u5e73\u621025\u5e74\u5ea6\u3000\u9577\u5b89\u53e3\u30c0\u30e0\u5730\u8cea\u8abf\u67fb\u696d\u52d9","client_name":"\u56fd\u571f\u4ea4\u901a\u7701\u3000\u56db\u56fd\u5730\u65b9\u6574\u5099\u5c40\u3000\u90a3\u8cc0\u5ddd\u6cb3\u5ddd\u4e8b\u52d9\u6240","boring_xml_url":64,"boring_view_url":1,"soilmap_view_url":null,"soiltest_xml_url":0,"soiltest_view_url":0},{"id":526822,"code":"B4KJ202201002-9358","latitude":"33.804525","longitude":"134.3605","source_code":"138834452000100006","project_name":"\u5e73\u621025\u5e74\u5ea6\u3000\u9577\u5b89\u53e3\u30c0\u30e0\u5730\u8cea\u8abf\u67fb\u696d\u52d9","survey_name":"\u5e73\u621025\u5e74\u5ea6\u3000\u9577\u5b89\u53e3\u30c0\u30e0\u5730\u8cea\u8abf\u67fb\u696d\u52d9","client_name":"\u56fd\u571f\u4ea4\u901a\u7701\u3000\u56db\u56fd\u5730\u65b9\u6574\u5099\u5c40\u3000\u90a3\u8cc0\u5ddd\u6cb3\u5ddd\u4e8b\u52d9\u6240","boring_xml_url":64,"boring_view_url":1,"soilmap_view_url":null,"soiltest_xml_url":0,"soiltest_view_url":0},{"id":526821,"code":"B4KJ202201002-9357","latitude":"33.802589","longitude":"134.360934","source_code":"138834452000100005","project_name":"\u5e73\u621025\u5e74\u5ea6\u3000\u9577\u5b89\u53e3\u30c0\u30e0\u5730\u8cea\u8abf\u67fb\u696d\u52d9","survey_name":"\u5e73\u621025\u5e74\u5ea6\u3000\u9577\u5b89\u53e3\u30c0\u30e0\u5730\u8cea\u8abf\u67fb\u696d\u52d9","client_name":"\u56fd\u571f\u4ea4\u901a\u7701\u3000\u56db\u56fd\u5730\u65b9\u6574\u5099\u5c40\u3000\u90a3\u8cc0\u5ddd\u6cb3\u5ddd\u4e8b\u52d9\u6240","boring_xml_url":64,"boring_view_url":1,"soilmap_view_url":null,"soiltest_xml_url":0,"soiltest_view_url":0},{"id":526820,"code":"B4KJ202201002-9356","latitude":"33.802666","longitude":"134.361103","source_code":"138834452000100004","project_name":"\u5e73\u621025\u5e74\u5ea6\u3000\u9577\u5b89\u53e3\u30c0\u30e0\u5730\u8cea\u8abf\u67fb\u696d\u52d9","survey_name":"\u5e73\u621025\u5e74\u5ea6\u3000\u9577\u5b89\u53e3\u30c0\u30e0\u5730\u8cea\u8abf\u67fb\u696d\u52d9","client_name":"\u56fd\u571f\u4ea4\u901a\u7701\u3000\u56db\u56fd\u5730\u65b9\u6574\u5099\u5c40\u3000\u90a3\u8cc0\u5ddd\u6cb3\u5ddd\u4e8b\u52d9\u6240","boring_xml_url":64,"boring_view_url":1,"soilmap_view_url":null,"soiltest_xml_url":0,"soiltest_view_url":0},{"id":526819,"code":"B4KJ202201002-9355","latitude":"33.804","longitude":"134.360804","source_code":"138834452000100003","project_name":"\u5e73\u621025\u5e74\u5ea6\u3000\u9577\u5b89\u53e3\u30c0\u30e0\u5730\u8cea\u8abf\u67fb\u696d\u52d9","survey_name":"\u5e73\u621025\u5e74\u5ea6\u3000\u9577\u5b89\u53e3\u30c0\u30e0\u5730\u8cea\u8abf\u67fb\u696d\u52d9","client_name":"\u56fd\u571f\u4ea4\u901a\u7701\u3000\u56db\u56fd\u5730\u65b9\u6574\u5099\u5c40\u3000\u90a3\u8cc0\u5ddd\u6cb3\u5ddd\u4e8b\u52d9\u6240","boring_xml_url":64,"boring_view_url":1,"soilmap_view_url":null,"soiltest_xml_url":0,"soiltest_view_url":0}]}}