{"header":{"xyz":{"source":[],"mosaic":false},"page":6190,"raw":{"soiltest_result":"0","bbox":"57.598333,109.544722,1.933333,163.806111","page":"6190"},"conditions":{"soiltest_result":0,"north":57.598333,"west":109.544722,"south":1.933333,"east":163.806111},"success":true,"message":""},"data":{"meta":{"total":212844,"page":6190,"pages":7095,"count":30},"values":[{"id":134875,"code":"B4KJ201801002-3124","latitude":"44.3142","longitude":"143.2867","source_code":"HK2009812900020031","project_name":"\u5e73\u621016\u5e74\u5ea6 \u6e67\u5225\u5ddd\u5916\u5824\u9632\u8a73\u7d30\u70b9\u691c\u696d\u52d9","survey_name":"\u5e73\u621016\u5e74\u5ea6 \u6e67\u5225\u5ddd\u5916\u5824\u9632\u8a73\u7d30\u70b9\u691c\u696d\u52d9","client_name":"\u56fd\u571f\u4ea4\u901a\u7701\u5317\u6d77\u9053\u958b\u767a\u5c40\u7db2\u8d70\u958b\u767a\u5efa\u8a2d\u90e8","boring_xml_url":45,"boring_view_url":1,"soilmap_view_url":null,"soiltest_xml_url":48,"soiltest_view_url":48},{"id":134874,"code":"B4KJ201801002-3123","latitude":"44.3286","longitude":"143.2844","source_code":"HK2009812900020030","project_name":"\u5e73\u621016\u5e74\u5ea6 \u6e67\u5225\u5ddd\u5916\u5824\u9632\u8a73\u7d30\u70b9\u691c\u696d\u52d9","survey_name":"\u5e73\u621016\u5e74\u5ea6 \u6e67\u5225\u5ddd\u5916\u5824\u9632\u8a73\u7d30\u70b9\u691c\u696d\u52d9","client_name":"\u56fd\u571f\u4ea4\u901a\u7701\u5317\u6d77\u9053\u958b\u767a\u5c40\u7db2\u8d70\u958b\u767a\u5efa\u8a2d\u90e8","boring_xml_url":45,"boring_view_url":1,"soilmap_view_url":null,"soiltest_xml_url":48,"soiltest_view_url":48},{"id":134873,"code":"B4KJ201801002-3122","latitude":"44.3286","longitude":"143.2844","source_code":"HK2009812900020029","project_name":"\u5e73\u621016\u5e74\u5ea6 \u6e67\u5225\u5ddd\u5916\u5824\u9632\u8a73\u7d30\u70b9\u691c\u696d\u52d9","survey_name":"\u5e73\u621016\u5e74\u5ea6 \u6e67\u5225\u5ddd\u5916\u5824\u9632\u8a73\u7d30\u70b9\u691c\u696d\u52d9","client_name":"\u56fd\u571f\u4ea4\u901a\u7701\u5317\u6d77\u9053\u958b\u767a\u5c40\u7db2\u8d70\u958b\u767a\u5efa\u8a2d\u90e8","boring_xml_url":45,"boring_view_url":1,"soilmap_view_url":null,"soiltest_xml_url":48,"soiltest_view_url":48},{"id":134872,"code":"B4KJ201801002-3121","latitude":"44.3806","longitude":"143.3081","source_code":"HK2009812900020028","project_name":"\u5e73\u621016\u5e74\u5ea6 \u6e67\u5225\u5ddd\u5916\u5824\u9632\u8a73\u7d30\u70b9\u691c\u696d\u52d9","survey_name":"\u5e73\u621016\u5e74\u5ea6 \u6e67\u5225\u5ddd\u5916\u5824\u9632\u8a73\u7d30\u70b9\u691c\u696d\u52d9","client_name":"\u56fd\u571f\u4ea4\u901a\u7701\u5317\u6d77\u9053\u958b\u767a\u5c40\u7db2\u8d70\u958b\u767a\u5efa\u8a2d\u90e8","boring_xml_url":45,"boring_view_url":1,"soilmap_view_url":null,"soiltest_xml_url":48,"soiltest_view_url":48},{"id":134871,"code":"B4KJ201801002-3120","latitude":"44.3806","longitude":"143.3081","source_code":"HK2009812900020027","project_name":"\u5e73\u621016\u5e74\u5ea6 \u6e67\u5225\u5ddd\u5916\u5824\u9632\u8a73\u7d30\u70b9\u691c\u696d\u52d9","survey_name":"\u5e73\u621016\u5e74\u5ea6 \u6e67\u5225\u5ddd\u5916\u5824\u9632\u8a73\u7d30\u70b9\u691c\u696d\u52d9","client_name":"\u56fd\u571f\u4ea4\u901a\u7701\u5317\u6d77\u9053\u958b\u767a\u5c40\u7db2\u8d70\u958b\u767a\u5efa\u8a2d\u90e8","boring_xml_url":45,"boring_view_url":1,"soilmap_view_url":null,"soiltest_xml_url":48,"soiltest_view_url":48},{"id":134870,"code":"B4KJ201801002-3119","latitude":"44.2583","longitude":"143.2619","source_code":"HK2009812900020026","project_name":"\u5e73\u621016\u5e74\u5ea6 \u6e67\u5225\u5ddd\u5916\u5824\u9632\u8a73\u7d30\u70b9\u691c\u696d\u52d9","survey_name":"\u5e73\u621016\u5e74\u5ea6 \u6e67\u5225\u5ddd\u5916\u5824\u9632\u8a73\u7d30\u70b9\u691c\u696d\u52d9","client_name":"\u56fd\u571f\u4ea4\u901a\u7701\u5317\u6d77\u9053\u958b\u767a\u5c40\u7db2\u8d70\u958b\u767a\u5efa\u8a2d\u90e8","boring_xml_url":45,"boring_view_url":1,"soilmap_view_url":null,"soiltest_xml_url":48,"soiltest_view_url":48},{"id":134869,"code":"B4KJ201801002-3118","latitude":"44.2583","longitude":"143.2619","source_code":"HK2009812900020025","project_name":"\u5e73\u621016\u5e74\u5ea6 \u6e67\u5225\u5ddd\u5916\u5824\u9632\u8a73\u7d30\u70b9\u691c\u696d\u52d9","survey_name":"\u5e73\u621016\u5e74\u5ea6 \u6e67\u5225\u5ddd\u5916\u5824\u9632\u8a73\u7d30\u70b9\u691c\u696d\u52d9","client_name":"\u56fd\u571f\u4ea4\u901a\u7701\u5317\u6d77\u9053\u958b\u767a\u5c40\u7db2\u8d70\u958b\u767a\u5efa\u8a2d\u90e8","boring_xml_url":45,"boring_view_url":1,"soilmap_view_url":null,"soiltest_xml_url":48,"soiltest_view_url":48},{"id":134868,"code":"B4KJ201801002-3117","latitude":"44.3831","longitude":"143.305","source_code":"HK2009812900020024","project_name":"\u5e73\u621016\u5e74\u5ea6 \u6e67\u5225\u5ddd\u5916\u5824\u9632\u8a73\u7d30\u70b9\u691c\u696d\u52d9","survey_name":"\u5e73\u621016\u5e74\u5ea6 \u6e67\u5225\u5ddd\u5916\u5824\u9632\u8a73\u7d30\u70b9\u691c\u696d\u52d9","client_name":"\u56fd\u571f\u4ea4\u901a\u7701\u5317\u6d77\u9053\u958b\u767a\u5c40\u7db2\u8d70\u958b\u767a\u5efa\u8a2d\u90e8","boring_xml_url":45,"boring_view_url":1,"soilmap_view_url":null,"soiltest_xml_url":48,"soiltest_view_url":48},{"id":134867,"code":"B4KJ201801002-3116","latitude":"44.3831","longitude":"143.305","source_code":"HK2009812900020023","project_name":"\u5e73\u621016\u5e74\u5ea6 \u6e67\u5225\u5ddd\u5916\u5824\u9632\u8a73\u7d30\u70b9\u691c\u696d\u52d9","survey_name":"\u5e73\u621016\u5e74\u5ea6 \u6e67\u5225\u5ddd\u5916\u5824\u9632\u8a73\u7d30\u70b9\u691c\u696d\u52d9","client_name":"\u56fd\u571f\u4ea4\u901a\u7701\u5317\u6d77\u9053\u958b\u767a\u5c40\u7db2\u8d70\u958b\u767a\u5efa\u8a2d\u90e8","boring_xml_url":45,"boring_view_url":1,"soilmap_view_url":null,"soiltest_xml_url":48,"soiltest_view_url":48},{"id":134866,"code":"B4KJ201801002-3115","latitude":"44.0464","longitude":"143.5136","source_code":"HK2009812900020022","project_name":"\u5e73\u621016\u5e74\u5ea6 \u6e67\u5225\u5ddd\u5916\u5824\u9632\u8a73\u7d30\u70b9\u691c\u696d\u52d9","survey_name":"\u5e73\u621016\u5e74\u5ea6 \u6e67\u5225\u5ddd\u5916\u5824\u9632\u8a73\u7d30\u70b9\u691c\u696d\u52d9","client_name":"\u56fd\u571f\u4ea4\u901a\u7701\u5317\u6d77\u9053\u958b\u767a\u5c40\u7db2\u8d70\u958b\u767a\u5efa\u8a2d\u90e8","boring_xml_url":45,"boring_view_url":1,"soilmap_view_url":null,"soiltest_xml_url":48,"soiltest_view_url":48},{"id":134865,"code":"B4KJ201801002-3114","latitude":"44.0464","longitude":"143.5136","source_code":"HK2009812900020021","project_name":"\u5e73\u621016\u5e74\u5ea6 \u6e67\u5225\u5ddd\u5916\u5824\u9632\u8a73\u7d30\u70b9\u691c\u696d\u52d9","survey_name":"\u5e73\u621016\u5e74\u5ea6 \u6e67\u5225\u5ddd\u5916\u5824\u9632\u8a73\u7d30\u70b9\u691c\u696d\u52d9","client_name":"\u56fd\u571f\u4ea4\u901a\u7701\u5317\u6d77\u9053\u958b\u767a\u5c40\u7db2\u8d70\u958b\u767a\u5efa\u8a2d\u90e8","boring_xml_url":45,"boring_view_url":1,"soilmap_view_url":null,"soiltest_xml_url":48,"soiltest_view_url":48},{"id":134864,"code":"B4KJ201801002-3113","latitude":"44.21","longitude":"143.5983","source_code":"HK2009812900020020","project_name":"\u5e73\u621016\u5e74\u5ea6 \u6e67\u5225\u5ddd\u5916\u5824\u9632\u8a73\u7d30\u70b9\u691c\u696d\u52d9","survey_name":"\u5e73\u621016\u5e74\u5ea6 \u6e67\u5225\u5ddd\u5916\u5824\u9632\u8a73\u7d30\u70b9\u691c\u696d\u52d9","client_name":"\u56fd\u571f\u4ea4\u901a\u7701\u5317\u6d77\u9053\u958b\u767a\u5c40\u7db2\u8d70\u958b\u767a\u5efa\u8a2d\u90e8","boring_xml_url":45,"boring_view_url":1,"soilmap_view_url":null,"soiltest_xml_url":48,"soiltest_view_url":48},{"id":134863,"code":"B4KJ201801002-3112","latitude":"44.21","longitude":"143.5983","source_code":"HK2009812900020019","project_name":"\u5e73\u621016\u5e74\u5ea6 \u6e67\u5225\u5ddd\u5916\u5824\u9632\u8a73\u7d30\u70b9\u691c\u696d\u52d9","survey_name":"\u5e73\u621016\u5e74\u5ea6 \u6e67\u5225\u5ddd\u5916\u5824\u9632\u8a73\u7d30\u70b9\u691c\u696d\u52d9","client_name":"\u56fd\u571f\u4ea4\u901a\u7701\u5317\u6d77\u9053\u958b\u767a\u5c40\u7db2\u8d70\u958b\u767a\u5efa\u8a2d\u90e8","boring_xml_url":45,"boring_view_url":1,"soilmap_view_url":null,"soiltest_xml_url":48,"soiltest_view_url":48},{"id":134862,"code":"B4KJ201801002-3111","latitude":"44.2272","longitude":"143.6053","source_code":"HK2009812900020018","project_name":"\u5e73\u621016\u5e74\u5ea6 \u6e67\u5225\u5ddd\u5916\u5824\u9632\u8a73\u7d30\u70b9\u691c\u696d\u52d9","survey_name":"\u5e73\u621016\u5e74\u5ea6 \u6e67\u5225\u5ddd\u5916\u5824\u9632\u8a73\u7d30\u70b9\u691c\u696d\u52d9","client_name":"\u56fd\u571f\u4ea4\u901a\u7701\u5317\u6d77\u9053\u958b\u767a\u5c40\u7db2\u8d70\u958b\u767a\u5efa\u8a2d\u90e8","boring_xml_url":45,"boring_view_url":1,"soilmap_view_url":null,"soiltest_xml_url":48,"soiltest_view_url":48},{"id":134861,"code":"B4KJ201801002-3110","latitude":"44.2272","longitude":"143.6053","source_code":"HK2009812900020017","project_name":"\u5e73\u621016\u5e74\u5ea6 \u6e67\u5225\u5ddd\u5916\u5824\u9632\u8a73\u7d30\u70b9\u691c\u696d\u52d9","survey_name":"\u5e73\u621016\u5e74\u5ea6 \u6e67\u5225\u5ddd\u5916\u5824\u9632\u8a73\u7d30\u70b9\u691c\u696d\u52d9","client_name":"\u56fd\u571f\u4ea4\u901a\u7701\u5317\u6d77\u9053\u958b\u767a\u5c40\u7db2\u8d70\u958b\u767a\u5efa\u8a2d\u90e8","boring_xml_url":45,"boring_view_url":1,"soilmap_view_url":null,"soiltest_xml_url":48,"soiltest_view_url":48},{"id":134860,"code":"B4KJ201801002-3109","latitude":"44.0294","longitude":"143.5019","source_code":"HK2009812900020016","project_name":"\u5e73\u621016\u5e74\u5ea6 \u6e67\u5225\u5ddd\u5916\u5824\u9632\u8a73\u7d30\u70b9\u691c\u696d\u52d9","survey_name":"\u5e73\u621016\u5e74\u5ea6 \u6e67\u5225\u5ddd\u5916\u5824\u9632\u8a73\u7d30\u70b9\u691c\u696d\u52d9","client_name":"\u56fd\u571f\u4ea4\u901a\u7701\u5317\u6d77\u9053\u958b\u767a\u5c40\u7db2\u8d70\u958b\u767a\u5efa\u8a2d\u90e8","boring_xml_url":45,"boring_view_url":1,"soilmap_view_url":null,"soiltest_xml_url":48,"soiltest_view_url":48},{"id":134859,"code":"B4KJ201801002-3108","latitude":"44.0294","longitude":"143.5019","source_code":"HK2009812900020015","project_name":"\u5e73\u621016\u5e74\u5ea6 \u6e67\u5225\u5ddd\u5916\u5824\u9632\u8a73\u7d30\u70b9\u691c\u696d\u52d9","survey_name":"\u5e73\u621016\u5e74\u5ea6 \u6e67\u5225\u5ddd\u5916\u5824\u9632\u8a73\u7d30\u70b9\u691c\u696d\u52d9","client_name":"\u56fd\u571f\u4ea4\u901a\u7701\u5317\u6d77\u9053\u958b\u767a\u5c40\u7db2\u8d70\u958b\u767a\u5efa\u8a2d\u90e8","boring_xml_url":45,"boring_view_url":1,"soilmap_view_url":null,"soiltest_xml_url":48,"soiltest_view_url":48},{"id":134858,"code":"B4KJ201801002-3107","latitude":"44.0542","longitude":"143.5228","source_code":"HK2009812900020014","project_name":"\u5e73\u621016\u5e74\u5ea6 \u6e67\u5225\u5ddd\u5916\u5824\u9632\u8a73\u7d30\u70b9\u691c\u696d\u52d9","survey_name":"\u5e73\u621016\u5e74\u5ea6 \u6e67\u5225\u5ddd\u5916\u5824\u9632\u8a73\u7d30\u70b9\u691c\u696d\u52d9","client_name":"\u56fd\u571f\u4ea4\u901a\u7701\u5317\u6d77\u9053\u958b\u767a\u5c40\u7db2\u8d70\u958b\u767a\u5efa\u8a2d\u90e8","boring_xml_url":45,"boring_view_url":1,"soilmap_view_url":null,"soiltest_xml_url":48,"soiltest_view_url":48},{"id":134857,"code":"B4KJ201801002-3106","latitude":"44.0542","longitude":"143.5228","source_code":"HK2009812900020013","project_name":"\u5e73\u621016\u5e74\u5ea6 \u6e67\u5225\u5ddd\u5916\u5824\u9632\u8a73\u7d30\u70b9\u691c\u696d\u52d9","survey_name":"\u5e73\u621016\u5e74\u5ea6 \u6e67\u5225\u5ddd\u5916\u5824\u9632\u8a73\u7d30\u70b9\u691c\u696d\u52d9","client_name":"\u56fd\u571f\u4ea4\u901a\u7701\u5317\u6d77\u9053\u958b\u767a\u5c40\u7db2\u8d70\u958b\u767a\u5efa\u8a2d\u90e8","boring_xml_url":45,"boring_view_url":1,"soilmap_view_url":null,"soiltest_xml_url":48,"soiltest_view_url":48},{"id":134856,"code":"B4KJ201801002-3105","latitude":"44.0619","longitude":"143.5342","source_code":"HK2009812900020012","project_name":"\u5e73\u621016\u5e74\u5ea6 \u6e67\u5225\u5ddd\u5916\u5824\u9632\u8a73\u7d30\u70b9\u691c\u696d\u52d9","survey_name":"\u5e73\u621016\u5e74\u5ea6 \u6e67\u5225\u5ddd\u5916\u5824\u9632\u8a73\u7d30\u70b9\u691c\u696d\u52d9","client_name":"\u56fd\u571f\u4ea4\u901a\u7701\u5317\u6d77\u9053\u958b\u767a\u5c40\u7db2\u8d70\u958b\u767a\u5efa\u8a2d\u90e8","boring_xml_url":45,"boring_view_url":1,"soilmap_view_url":null,"soiltest_xml_url":48,"soiltest_view_url":48},{"id":134855,"code":"B4KJ201801002-3104","latitude":"44.0619","longitude":"143.5342","source_code":"HK2009812900020011","project_name":"\u5e73\u621016\u5e74\u5ea6 \u6e67\u5225\u5ddd\u5916\u5824\u9632\u8a73\u7d30\u70b9\u691c\u696d\u52d9","survey_name":"\u5e73\u621016\u5e74\u5ea6 \u6e67\u5225\u5ddd\u5916\u5824\u9632\u8a73\u7d30\u70b9\u691c\u696d\u52d9","client_name":"\u56fd\u571f\u4ea4\u901a\u7701\u5317\u6d77\u9053\u958b\u767a\u5c40\u7db2\u8d70\u958b\u767a\u5efa\u8a2d\u90e8","boring_xml_url":45,"boring_view_url":1,"soilmap_view_url":null,"soiltest_xml_url":48,"soiltest_view_url":48},{"id":134854,"code":"B4KJ201801002-3103","latitude":"44.0731","longitude":"143.5336","source_code":"HK2009812900020010","project_name":"\u5e73\u621016\u5e74\u5ea6 \u6e67\u5225\u5ddd\u5916\u5824\u9632\u8a73\u7d30\u70b9\u691c\u696d\u52d9","survey_name":"\u5e73\u621016\u5e74\u5ea6 \u6e67\u5225\u5ddd\u5916\u5824\u9632\u8a73\u7d30\u70b9\u691c\u696d\u52d9","client_name":"\u56fd\u571f\u4ea4\u901a\u7701\u5317\u6d77\u9053\u958b\u767a\u5c40\u7db2\u8d70\u958b\u767a\u5efa\u8a2d\u90e8","boring_xml_url":45,"boring_view_url":1,"soilmap_view_url":null,"soiltest_xml_url":48,"soiltest_view_url":48},{"id":134853,"code":"B4KJ201801002-3102","latitude":"44.0731","longitude":"143.5336","source_code":"HK2009812900020009","project_name":"\u5e73\u621016\u5e74\u5ea6 \u6e67\u5225\u5ddd\u5916\u5824\u9632\u8a73\u7d30\u70b9\u691c\u696d\u52d9","survey_name":"\u5e73\u621016\u5e74\u5ea6 \u6e67\u5225\u5ddd\u5916\u5824\u9632\u8a73\u7d30\u70b9\u691c\u696d\u52d9","client_name":"\u56fd\u571f\u4ea4\u901a\u7701\u5317\u6d77\u9053\u958b\u767a\u5c40\u7db2\u8d70\u958b\u767a\u5efa\u8a2d\u90e8","boring_xml_url":45,"boring_view_url":1,"soilmap_view_url":null,"soiltest_xml_url":48,"soiltest_view_url":48},{"id":134852,"code":"B4KJ201801002-3101","latitude":"44.0903","longitude":"143.5342","source_code":"HK2009812900020008","project_name":"\u5e73\u621016\u5e74\u5ea6 \u6e67\u5225\u5ddd\u5916\u5824\u9632\u8a73\u7d30\u70b9\u691c\u696d\u52d9","survey_name":"\u5e73\u621016\u5e74\u5ea6 \u6e67\u5225\u5ddd\u5916\u5824\u9632\u8a73\u7d30\u70b9\u691c\u696d\u52d9","client_name":"\u56fd\u571f\u4ea4\u901a\u7701\u5317\u6d77\u9053\u958b\u767a\u5c40\u7db2\u8d70\u958b\u767a\u5efa\u8a2d\u90e8","boring_xml_url":45,"boring_view_url":1,"soilmap_view_url":null,"soiltest_xml_url":48,"soiltest_view_url":48},{"id":134851,"code":"B4KJ201801002-3100","latitude":"44.0903","longitude":"143.5342","source_code":"HK2009812900020007","project_name":"\u5e73\u621016\u5e74\u5ea6 \u6e67\u5225\u5ddd\u5916\u5824\u9632\u8a73\u7d30\u70b9\u691c\u696d\u52d9","survey_name":"\u5e73\u621016\u5e74\u5ea6 \u6e67\u5225\u5ddd\u5916\u5824\u9632\u8a73\u7d30\u70b9\u691c\u696d\u52d9","client_name":"\u56fd\u571f\u4ea4\u901a\u7701\u5317\u6d77\u9053\u958b\u767a\u5c40\u7db2\u8d70\u958b\u767a\u5efa\u8a2d\u90e8","boring_xml_url":45,"boring_view_url":1,"soilmap_view_url":null,"soiltest_xml_url":48,"soiltest_view_url":48},{"id":134850,"code":"B4KJ201801002-3099","latitude":"44.1067","longitude":"143.545","source_code":"HK2009812900020006","project_name":"\u5e73\u621016\u5e74\u5ea6 \u6e67\u5225\u5ddd\u5916\u5824\u9632\u8a73\u7d30\u70b9\u691c\u696d\u52d9","survey_name":"\u5e73\u621016\u5e74\u5ea6 \u6e67\u5225\u5ddd\u5916\u5824\u9632\u8a73\u7d30\u70b9\u691c\u696d\u52d9","client_name":"\u56fd\u571f\u4ea4\u901a\u7701\u5317\u6d77\u9053\u958b\u767a\u5c40\u7db2\u8d70\u958b\u767a\u5efa\u8a2d\u90e8","boring_xml_url":45,"boring_view_url":1,"soilmap_view_url":null,"soiltest_xml_url":48,"soiltest_view_url":48},{"id":134849,"code":"B4KJ201801002-3098","latitude":"44.1067","longitude":"143.545","source_code":"HK2009812900020005","project_name":"\u5e73\u621016\u5e74\u5ea6 \u6e67\u5225\u5ddd\u5916\u5824\u9632\u8a73\u7d30\u70b9\u691c\u696d\u52d9","survey_name":"\u5e73\u621016\u5e74\u5ea6 \u6e67\u5225\u5ddd\u5916\u5824\u9632\u8a73\u7d30\u70b9\u691c\u696d\u52d9","client_name":"\u56fd\u571f\u4ea4\u901a\u7701\u5317\u6d77\u9053\u958b\u767a\u5c40\u7db2\u8d70\u958b\u767a\u5efa\u8a2d\u90e8","boring_xml_url":45,"boring_view_url":1,"soilmap_view_url":null,"soiltest_xml_url":48,"soiltest_view_url":48},{"id":134848,"code":"B4KJ201801002-3097","latitude":"44.1531","longitude":"143.5422","source_code":"HK2009812900020004","project_name":"\u5e73\u621016\u5e74\u5ea6 \u6e67\u5225\u5ddd\u5916\u5824\u9632\u8a73\u7d30\u70b9\u691c\u696d\u52d9","survey_name":"\u5e73\u621016\u5e74\u5ea6 \u6e67\u5225\u5ddd\u5916\u5824\u9632\u8a73\u7d30\u70b9\u691c\u696d\u52d9","client_name":"\u56fd\u571f\u4ea4\u901a\u7701\u5317\u6d77\u9053\u958b\u767a\u5c40\u7db2\u8d70\u958b\u767a\u5efa\u8a2d\u90e8","boring_xml_url":45,"boring_view_url":1,"soilmap_view_url":null,"soiltest_xml_url":48,"soiltest_view_url":48},{"id":134847,"code":"B4KJ201801002-3096","latitude":"44.1531","longitude":"143.5422","source_code":"HK2009812900020003","project_name":"\u5e73\u621016\u5e74\u5ea6 \u6e67\u5225\u5ddd\u5916\u5824\u9632\u8a73\u7d30\u70b9\u691c\u696d\u52d9","survey_name":"\u5e73\u621016\u5e74\u5ea6 \u6e67\u5225\u5ddd\u5916\u5824\u9632\u8a73\u7d30\u70b9\u691c\u696d\u52d9","client_name":"\u56fd\u571f\u4ea4\u901a\u7701\u5317\u6d77\u9053\u958b\u767a\u5c40\u7db2\u8d70\u958b\u767a\u5efa\u8a2d\u90e8","boring_xml_url":45,"boring_view_url":1,"soilmap_view_url":null,"soiltest_xml_url":48,"soiltest_view_url":48},{"id":134846,"code":"B4KJ201801002-3095","latitude":"44.2192","longitude":"143.5944","source_code":"HK2009812900020002","project_name":"\u5e73\u621016\u5e74\u5ea6 \u6e67\u5225\u5ddd\u5916\u5824\u9632\u8a73\u7d30\u70b9\u691c\u696d\u52d9","survey_name":"\u5e73\u621016\u5e74\u5ea6 \u6e67\u5225\u5ddd\u5916\u5824\u9632\u8a73\u7d30\u70b9\u691c\u696d\u52d9","client_name":"\u56fd\u571f\u4ea4\u901a\u7701\u5317\u6d77\u9053\u958b\u767a\u5c40\u7db2\u8d70\u958b\u767a\u5efa\u8a2d\u90e8","boring_xml_url":45,"boring_view_url":1,"soilmap_view_url":null,"soiltest_xml_url":48,"soiltest_view_url":48}]}}