{"header":{"xyz":{"source":[],"mosaic":false},"page":6196,"raw":{"soiltest_result":"0","bbox":"57.598333,109.544722,1.933333,163.806111","page":"6196"},"conditions":{"soiltest_result":0,"north":57.598333,"west":109.544722,"south":1.933333,"east":163.806111},"success":true,"message":""},"data":{"meta":{"total":212844,"page":6196,"pages":7095,"count":30},"values":[{"id":134695,"code":"B4KJ201801002-2944","latitude":"42.93194","longitude":"143.02342","source_code":"HK200981280070002","project_name":"\u82bd\u5ba4\u7bc9\u5824","survey_name":"+\u52dd\u5ddd\u5824\u9632\u6d78\u900f\u6d41\u89e3\u6790\u696d\u52d9","client_name":"\u56fd\u571f\u4ea4\u901a\u7701\u5317\u6d77\u9053\u958b\u767a\u5c40\u5e2f\u5e83\u958b\u767a\u5efa\u8a2d\u90e8","boring_xml_url":44,"boring_view_url":1,"soilmap_view_url":null,"soiltest_xml_url":0,"soiltest_view_url":0},{"id":134694,"code":"B4KJ201801002-2943","latitude":"42.932","longitude":"143.02347","source_code":"HK200981280070001","project_name":"\u82bd\u5ba4\u7bc9\u5824","survey_name":"+\u52dd\u5ddd\u5824\u9632\u6d78\u900f\u6d41\u89e3\u6790\u696d\u52d9","client_name":"\u56fd\u571f\u4ea4\u901a\u7701\u5317\u6d77\u9053\u958b\u767a\u5c40\u5e2f\u5e83\u958b\u767a\u5efa\u8a2d\u90e8","boring_xml_url":44,"boring_view_url":1,"soilmap_view_url":null,"soiltest_xml_url":0,"soiltest_view_url":0},{"id":134693,"code":"B4KJ201801002-2942","latitude":"43.18","longitude":"143.2219","source_code":"HK200981280060020","project_name":"\u97f3\u66f4\u5ddd\u5824\u9632\u5b89\u5b9a\u89e3\u6790\u696d\u52d9","survey_name":"\u97f3\u66f4\u5ddd\u5824\u9632\u5b89\u5b9a\u89e3\u6790\u696d\u52d9","client_name":"\u56fd\u571f\u4ea4\u901a\u7701\u5317\u6d77\u9053\u958b\u767a\u5c40\u5e2f\u5e83\u958b\u767a\u5efa\u8a2d\u90e8","boring_xml_url":44,"boring_view_url":1,"soilmap_view_url":null,"soiltest_xml_url":0,"soiltest_view_url":0},{"id":134692,"code":"B4KJ201801002-2941","latitude":"43.1803","longitude":"143.2219","source_code":"HK200981280060019","project_name":"\u97f3\u66f4\u5ddd\u5824\u9632\u5b89\u5b9a\u89e3\u6790\u696d\u52d9","survey_name":"\u97f3\u66f4\u5ddd\u5824\u9632\u5b89\u5b9a\u89e3\u6790\u696d\u52d9","client_name":"\u56fd\u571f\u4ea4\u901a\u7701\u5317\u6d77\u9053\u958b\u767a\u5c40\u5e2f\u5e83\u958b\u767a\u5efa\u8a2d\u90e8","boring_xml_url":44,"boring_view_url":1,"soilmap_view_url":null,"soiltest_xml_url":0,"soiltest_view_url":0},{"id":134691,"code":"B4KJ201801002-2940","latitude":"43.1792","longitude":"143.2172","source_code":"HK200981280060018","project_name":"\u97f3\u66f4\u5ddd\u5824\u9632\u5b89\u5b9a\u89e3\u6790\u696d\u52d9","survey_name":"\u97f3\u66f4\u5ddd\u5824\u9632\u5b89\u5b9a\u89e3\u6790\u696d\u52d9","client_name":"\u56fd\u571f\u4ea4\u901a\u7701\u5317\u6d77\u9053\u958b\u767a\u5c40\u5e2f\u5e83\u958b\u767a\u5efa\u8a2d\u90e8","boring_xml_url":44,"boring_view_url":1,"soilmap_view_url":null,"soiltest_xml_url":0,"soiltest_view_url":0},{"id":134690,"code":"B4KJ201801002-2939","latitude":"43.1794","longitude":"143.2172","source_code":"HK200981280060017","project_name":"\u97f3\u66f4\u5ddd\u5824\u9632\u5b89\u5b9a\u89e3\u6790\u696d\u52d9","survey_name":"\u97f3\u66f4\u5ddd\u5824\u9632\u5b89\u5b9a\u89e3\u6790\u696d\u52d9","client_name":"\u56fd\u571f\u4ea4\u901a\u7701\u5317\u6d77\u9053\u958b\u767a\u5c40\u5e2f\u5e83\u958b\u767a\u5efa\u8a2d\u90e8","boring_xml_url":44,"boring_view_url":1,"soilmap_view_url":null,"soiltest_xml_url":0,"soiltest_view_url":0},{"id":134689,"code":"B4KJ201801002-2938","latitude":"43.1567","longitude":"143.2172","source_code":"HK200981280060016","project_name":"\u97f3\u66f4\u5ddd\u5824\u9632\u5b89\u5b9a\u89e3\u6790\u696d\u52d9","survey_name":"\u97f3\u66f4\u5ddd\u5824\u9632\u5b89\u5b9a\u89e3\u6790\u696d\u52d9","client_name":"\u56fd\u571f\u4ea4\u901a\u7701\u5317\u6d77\u9053\u958b\u767a\u5c40\u5e2f\u5e83\u958b\u767a\u5efa\u8a2d\u90e8","boring_xml_url":44,"boring_view_url":1,"soilmap_view_url":null,"soiltest_xml_url":0,"soiltest_view_url":0},{"id":134688,"code":"B4KJ201801002-2937","latitude":"43.1567","longitude":"143.2169","source_code":"HK200981280060015","project_name":"\u97f3\u66f4\u5ddd\u5824\u9632\u5b89\u5b9a\u89e3\u6790\u696d\u52d9","survey_name":"\u97f3\u66f4\u5ddd\u5824\u9632\u5b89\u5b9a\u89e3\u6790\u696d\u52d9","client_name":"\u56fd\u571f\u4ea4\u901a\u7701\u5317\u6d77\u9053\u958b\u767a\u5c40\u5e2f\u5e83\u958b\u767a\u5efa\u8a2d\u90e8","boring_xml_url":44,"boring_view_url":1,"soilmap_view_url":null,"soiltest_xml_url":0,"soiltest_view_url":0},{"id":134687,"code":"B4KJ201801002-2936","latitude":"43.1536","longitude":"143.2133","source_code":"HK200981280060014","project_name":"\u97f3\u66f4\u5ddd\u5824\u9632\u5b89\u5b9a\u89e3\u6790\u696d\u52d9","survey_name":"\u97f3\u66f4\u5ddd\u5824\u9632\u5b89\u5b9a\u89e3\u6790\u696d\u52d9","client_name":"\u56fd\u571f\u4ea4\u901a\u7701\u5317\u6d77\u9053\u958b\u767a\u5c40\u5e2f\u5e83\u958b\u767a\u5efa\u8a2d\u90e8","boring_xml_url":44,"boring_view_url":1,"soilmap_view_url":null,"soiltest_xml_url":0,"soiltest_view_url":0},{"id":134686,"code":"B4KJ201801002-2935","latitude":"43.1536","longitude":"143.2136","source_code":"HK200981280060013","project_name":"\u97f3\u66f4\u5ddd\u5824\u9632\u5b89\u5b9a\u89e3\u6790\u696d\u52d9","survey_name":"\u97f3\u66f4\u5ddd\u5824\u9632\u5b89\u5b9a\u89e3\u6790\u696d\u52d9","client_name":"\u56fd\u571f\u4ea4\u901a\u7701\u5317\u6d77\u9053\u958b\u767a\u5c40\u5e2f\u5e83\u958b\u767a\u5efa\u8a2d\u90e8","boring_xml_url":44,"boring_view_url":1,"soilmap_view_url":null,"soiltest_xml_url":0,"soiltest_view_url":0},{"id":134685,"code":"B4KJ201801002-2934","latitude":"43.1461","longitude":"143.2164","source_code":"HK200981280060012","project_name":"\u97f3\u66f4\u5ddd\u5824\u9632\u5b89\u5b9a\u89e3\u6790\u696d\u52d9","survey_name":"\u97f3\u66f4\u5ddd\u5824\u9632\u5b89\u5b9a\u89e3\u6790\u696d\u52d9","client_name":"\u56fd\u571f\u4ea4\u901a\u7701\u5317\u6d77\u9053\u958b\u767a\u5c40\u5e2f\u5e83\u958b\u767a\u5efa\u8a2d\u90e8","boring_xml_url":44,"boring_view_url":1,"soilmap_view_url":null,"soiltest_xml_url":0,"soiltest_view_url":0},{"id":134684,"code":"B4KJ201801002-2933","latitude":"43.1464","longitude":"143.2164","source_code":"HK200981280060011","project_name":"\u97f3\u66f4\u5ddd\u5824\u9632\u5b89\u5b9a\u89e3\u6790\u696d\u52d9","survey_name":"\u97f3\u66f4\u5ddd\u5824\u9632\u5b89\u5b9a\u89e3\u6790\u696d\u52d9","client_name":"\u56fd\u571f\u4ea4\u901a\u7701\u5317\u6d77\u9053\u958b\u767a\u5c40\u5e2f\u5e83\u958b\u767a\u5efa\u8a2d\u90e8","boring_xml_url":44,"boring_view_url":1,"soilmap_view_url":null,"soiltest_xml_url":0,"soiltest_view_url":0},{"id":134683,"code":"B4KJ201801002-2932","latitude":"43.1192","longitude":"143.2161","source_code":"HK200981280060010","project_name":"\u97f3\u66f4\u5ddd\u5824\u9632\u5b89\u5b9a\u89e3\u6790\u696d\u52d9","survey_name":"\u97f3\u66f4\u5ddd\u5824\u9632\u5b89\u5b9a\u89e3\u6790\u696d\u52d9","client_name":"\u56fd\u571f\u4ea4\u901a\u7701\u5317\u6d77\u9053\u958b\u767a\u5c40\u5e2f\u5e83\u958b\u767a\u5efa\u8a2d\u90e8","boring_xml_url":44,"boring_view_url":1,"soilmap_view_url":null,"soiltest_xml_url":0,"soiltest_view_url":0},{"id":134682,"code":"B4KJ201801002-2931","latitude":"43.1189","longitude":"143.2161","source_code":"HK200981280060009","project_name":"\u97f3\u66f4\u5ddd\u5824\u9632\u5b89\u5b9a\u89e3\u6790\u696d\u52d9","survey_name":"\u97f3\u66f4\u5ddd\u5824\u9632\u5b89\u5b9a\u89e3\u6790\u696d\u52d9","client_name":"\u56fd\u571f\u4ea4\u901a\u7701\u5317\u6d77\u9053\u958b\u767a\u5c40\u5e2f\u5e83\u958b\u767a\u5efa\u8a2d\u90e8","boring_xml_url":44,"boring_view_url":1,"soilmap_view_url":null,"soiltest_xml_url":0,"soiltest_view_url":0},{"id":134681,"code":"B4KJ201801002-2930","latitude":"43.1","longitude":"143.2092","source_code":"HK200981280060008","project_name":"\u97f3\u66f4\u5ddd\u5824\u9632\u5b89\u5b9a\u89e3\u6790\u696d\u52d9","survey_name":"\u97f3\u66f4\u5ddd\u5824\u9632\u5b89\u5b9a\u89e3\u6790\u696d\u52d9","client_name":"\u56fd\u571f\u4ea4\u901a\u7701\u5317\u6d77\u9053\u958b\u767a\u5c40\u5e2f\u5e83\u958b\u767a\u5efa\u8a2d\u90e8","boring_xml_url":44,"boring_view_url":1,"soilmap_view_url":null,"soiltest_xml_url":0,"soiltest_view_url":0},{"id":134680,"code":"B4KJ201801002-2929","latitude":"43.1003","longitude":"143.2092","source_code":"HK200981280060007","project_name":"\u97f3\u66f4\u5ddd\u5824\u9632\u5b89\u5b9a\u89e3\u6790\u696d\u52d9","survey_name":"\u97f3\u66f4\u5ddd\u5824\u9632\u5b89\u5b9a\u89e3\u6790\u696d\u52d9","client_name":"\u56fd\u571f\u4ea4\u901a\u7701\u5317\u6d77\u9053\u958b\u767a\u5c40\u5e2f\u5e83\u958b\u767a\u5efa\u8a2d\u90e8","boring_xml_url":44,"boring_view_url":1,"soilmap_view_url":null,"soiltest_xml_url":0,"soiltest_view_url":0},{"id":134679,"code":"B4KJ201801002-2928","latitude":"43.0875","longitude":"143.2006","source_code":"HK200981280060006","project_name":"\u97f3\u66f4\u5ddd\u5824\u9632\u5b89\u5b9a\u89e3\u6790\u696d\u52d9","survey_name":"\u97f3\u66f4\u5ddd\u5824\u9632\u5b89\u5b9a\u89e3\u6790\u696d\u52d9","client_name":"\u56fd\u571f\u4ea4\u901a\u7701\u5317\u6d77\u9053\u958b\u767a\u5c40\u5e2f\u5e83\u958b\u767a\u5efa\u8a2d\u90e8","boring_xml_url":44,"boring_view_url":1,"soilmap_view_url":null,"soiltest_xml_url":0,"soiltest_view_url":0},{"id":134678,"code":"B4KJ201801002-2927","latitude":"43.0875","longitude":"143.2008","source_code":"HK200981280060005","project_name":"\u97f3\u66f4\u5ddd\u5824\u9632\u5b89\u5b9a\u89e3\u6790\u696d\u52d9","survey_name":"\u97f3\u66f4\u5ddd\u5824\u9632\u5b89\u5b9a\u89e3\u6790\u696d\u52d9","client_name":"\u56fd\u571f\u4ea4\u901a\u7701\u5317\u6d77\u9053\u958b\u767a\u5c40\u5e2f\u5e83\u958b\u767a\u5efa\u8a2d\u90e8","boring_xml_url":44,"boring_view_url":1,"soilmap_view_url":null,"soiltest_xml_url":0,"soiltest_view_url":0},{"id":134677,"code":"B4KJ201801002-2926","latitude":"43.0747","longitude":"143.1981","source_code":"HK200981280060004","project_name":"\u97f3\u66f4\u5ddd\u5824\u9632\u5b89\u5b9a\u89e3\u6790\u696d\u52d9","survey_name":"\u97f3\u66f4\u5ddd\u5824\u9632\u5b89\u5b9a\u89e3\u6790\u696d\u52d9","client_name":"\u56fd\u571f\u4ea4\u901a\u7701\u5317\u6d77\u9053\u958b\u767a\u5c40\u5e2f\u5e83\u958b\u767a\u5efa\u8a2d\u90e8","boring_xml_url":44,"boring_view_url":1,"soilmap_view_url":null,"soiltest_xml_url":0,"soiltest_view_url":0},{"id":134676,"code":"B4KJ201801002-2925","latitude":"43.0747","longitude":"143.1983","source_code":"HK200981280060003","project_name":"\u97f3\u66f4\u5ddd\u5824\u9632\u5b89\u5b9a\u89e3\u6790\u696d\u52d9","survey_name":"\u97f3\u66f4\u5ddd\u5824\u9632\u5b89\u5b9a\u89e3\u6790\u696d\u52d9","client_name":"\u56fd\u571f\u4ea4\u901a\u7701\u5317\u6d77\u9053\u958b\u767a\u5c40\u5e2f\u5e83\u958b\u767a\u5efa\u8a2d\u90e8","boring_xml_url":44,"boring_view_url":1,"soilmap_view_url":null,"soiltest_xml_url":0,"soiltest_view_url":0},{"id":134675,"code":"B4KJ201801002-2924","latitude":"43.0425","longitude":"143.1925","source_code":"HK200981280060002","project_name":"\u97f3\u66f4\u5ddd\u5824\u9632\u5b89\u5b9a\u89e3\u6790\u696d\u52d9","survey_name":"\u97f3\u66f4\u5ddd\u5824\u9632\u5b89\u5b9a\u89e3\u6790\u696d\u52d9","client_name":"\u56fd\u571f\u4ea4\u901a\u7701\u5317\u6d77\u9053\u958b\u767a\u5c40\u5e2f\u5e83\u958b\u767a\u5efa\u8a2d\u90e8","boring_xml_url":44,"boring_view_url":1,"soilmap_view_url":null,"soiltest_xml_url":0,"soiltest_view_url":0},{"id":134674,"code":"B4KJ201801002-2923","latitude":"43.0425","longitude":"143.1928","source_code":"HK200981280060001","project_name":"\u97f3\u66f4\u5ddd\u5824\u9632\u5b89\u5b9a\u89e3\u6790\u696d\u52d9","survey_name":"\u97f3\u66f4\u5ddd\u5824\u9632\u5b89\u5b9a\u89e3\u6790\u696d\u52d9","client_name":"\u56fd\u571f\u4ea4\u901a\u7701\u5317\u6d77\u9053\u958b\u767a\u5c40\u5e2f\u5e83\u958b\u767a\u5efa\u8a2d\u90e8","boring_xml_url":44,"boring_view_url":1,"soilmap_view_url":null,"soiltest_xml_url":0,"soiltest_view_url":0},{"id":134673,"code":"B4KJ201801002-2922","latitude":"42.62358","longitude":"143.07289","source_code":"HK200981280050044","project_name":"\u5e73\u621017\u5e74\u5ea6 \u672d\u5185\u5ddd\u5824\u9632\u70b9\u691c\u696d\u52d9","survey_name":"\u5e73\u621017\u5e74\u5ea6 \u672d\u5185\u5ddd\u5824\u9632\u70b9\u691c\u696d\u52d9","client_name":"\u56fd\u571f\u4ea4\u901a\u7701\u5317\u6d77\u9053\u958b\u767a\u5c40\u5e2f\u5e83\u958b\u767a\u5efa\u8a2d\u90e8","boring_xml_url":44,"boring_view_url":1,"soilmap_view_url":null,"soiltest_xml_url":0,"soiltest_view_url":0},{"id":134672,"code":"B4KJ201801002-2921","latitude":"42.62361","longitude":"143.07281","source_code":"HK200981280050043","project_name":"\u5e73\u621017\u5e74\u5ea6 \u672d\u5185\u5ddd\u5824\u9632\u70b9\u691c\u696d\u52d9","survey_name":"\u5e73\u621017\u5e74\u5ea6 \u672d\u5185\u5ddd\u5824\u9632\u70b9\u691c\u696d\u52d9","client_name":"\u56fd\u571f\u4ea4\u901a\u7701\u5317\u6d77\u9053\u958b\u767a\u5c40\u5e2f\u5e83\u958b\u767a\u5efa\u8a2d\u90e8","boring_xml_url":44,"boring_view_url":1,"soilmap_view_url":null,"soiltest_xml_url":0,"soiltest_view_url":0},{"id":134671,"code":"B4KJ201801002-2920","latitude":"42.62953","longitude":"143.07725","source_code":"HK200981280050042","project_name":"\u5e73\u621017\u5e74\u5ea6 \u672d\u5185\u5ddd\u5824\u9632\u70b9\u691c\u696d\u52d9","survey_name":"\u5e73\u621017\u5e74\u5ea6 \u672d\u5185\u5ddd\u5824\u9632\u70b9\u691c\u696d\u52d9","client_name":"\u56fd\u571f\u4ea4\u901a\u7701\u5317\u6d77\u9053\u958b\u767a\u5c40\u5e2f\u5e83\u958b\u767a\u5efa\u8a2d\u90e8","boring_xml_url":44,"boring_view_url":1,"soilmap_view_url":null,"soiltest_xml_url":0,"soiltest_view_url":0},{"id":134670,"code":"B4KJ201801002-2919","latitude":"42.62953","longitude":"143.07717","source_code":"HK200981280050041","project_name":"\u5e73\u621017\u5e74\u5ea6 \u672d\u5185\u5ddd\u5824\u9632\u70b9\u691c\u696d\u52d9","survey_name":"\u5e73\u621017\u5e74\u5ea6 \u672d\u5185\u5ddd\u5824\u9632\u70b9\u691c\u696d\u52d9","client_name":"\u56fd\u571f\u4ea4\u901a\u7701\u5317\u6d77\u9053\u958b\u767a\u5c40\u5e2f\u5e83\u958b\u767a\u5efa\u8a2d\u90e8","boring_xml_url":44,"boring_view_url":1,"soilmap_view_url":null,"soiltest_xml_url":0,"soiltest_view_url":0},{"id":134669,"code":"B4KJ201801002-2918","latitude":"42.63764","longitude":"143.08614","source_code":"HK200981280050040","project_name":"\u5e73\u621017\u5e74\u5ea6 \u672d\u5185\u5ddd\u5824\u9632\u70b9\u691c\u696d\u52d9","survey_name":"\u5e73\u621017\u5e74\u5ea6 \u672d\u5185\u5ddd\u5824\u9632\u70b9\u691c\u696d\u52d9","client_name":"\u56fd\u571f\u4ea4\u901a\u7701\u5317\u6d77\u9053\u958b\u767a\u5c40\u5e2f\u5e83\u958b\u767a\u5efa\u8a2d\u90e8","boring_xml_url":44,"boring_view_url":1,"soilmap_view_url":null,"soiltest_xml_url":0,"soiltest_view_url":0},{"id":134668,"code":"B4KJ201801002-2917","latitude":"42.63767","longitude":"143.08608","source_code":"HK200981280050039","project_name":"\u5e73\u621017\u5e74\u5ea6 \u672d\u5185\u5ddd\u5824\u9632\u70b9\u691c\u696d\u52d9","survey_name":"\u5e73\u621017\u5e74\u5ea6 \u672d\u5185\u5ddd\u5824\u9632\u70b9\u691c\u696d\u52d9","client_name":"\u56fd\u571f\u4ea4\u901a\u7701\u5317\u6d77\u9053\u958b\u767a\u5c40\u5e2f\u5e83\u958b\u767a\u5efa\u8a2d\u90e8","boring_xml_url":44,"boring_view_url":1,"soilmap_view_url":null,"soiltest_xml_url":0,"soiltest_view_url":0},{"id":134667,"code":"B4KJ201801002-2916","latitude":"42.65325","longitude":"143.10086","source_code":"HK200981280050038","project_name":"\u5e73\u621017\u5e74\u5ea6 \u672d\u5185\u5ddd\u5824\u9632\u70b9\u691c\u696d\u52d9","survey_name":"\u5e73\u621017\u5e74\u5ea6 \u672d\u5185\u5ddd\u5824\u9632\u70b9\u691c\u696d\u52d9","client_name":"\u56fd\u571f\u4ea4\u901a\u7701\u5317\u6d77\u9053\u958b\u767a\u5c40\u5e2f\u5e83\u958b\u767a\u5efa\u8a2d\u90e8","boring_xml_url":44,"boring_view_url":1,"soilmap_view_url":null,"soiltest_xml_url":0,"soiltest_view_url":0},{"id":134666,"code":"B4KJ201801002-2915","latitude":"42.65328","longitude":"143.10078","source_code":"HK200981280050037","project_name":"\u5e73\u621017\u5e74\u5ea6 \u672d\u5185\u5ddd\u5824\u9632\u70b9\u691c\u696d\u52d9","survey_name":"\u5e73\u621017\u5e74\u5ea6 \u672d\u5185\u5ddd\u5824\u9632\u70b9\u691c\u696d\u52d9","client_name":"\u56fd\u571f\u4ea4\u901a\u7701\u5317\u6d77\u9053\u958b\u767a\u5c40\u5e2f\u5e83\u958b\u767a\u5efa\u8a2d\u90e8","boring_xml_url":44,"boring_view_url":1,"soilmap_view_url":null,"soiltest_xml_url":0,"soiltest_view_url":0}]}}