{"header":{"xyz":{"source":[],"mosaic":false},"page":6201,"raw":{"soiltest_result":"0","bbox":"57.598333,109.544722,1.933333,163.806111","page":"6201"},"conditions":{"soiltest_result":0,"north":57.598333,"west":109.544722,"south":1.933333,"east":163.806111},"success":true,"message":""},"data":{"meta":{"total":212844,"page":6201,"pages":7095,"count":30},"values":[{"id":134545,"code":"B4KJ201801002-2794","latitude":"43.1206","longitude":"143.5508","source_code":"HK200981280010002","project_name":"\u30c1\u30a8\u30c8\u30a4\u7bc9\u5824\u5de5\u4e8b\u7b87\u6240\u5730\u8cea\u8abf\u67fb\u89e3\u6790\u696d\u52d9","survey_name":"\u30c1\u30a8\u30c8\u30a4\u7bc9\u5824\u5de5\u4e8b\u7b87\u6240\u5730\u8cea\u8abf\u67fb\u89e3\u6790\u696d\u52d9","client_name":"\u56fd\u571f\u4ea4\u901a\u7701\u5317\u6d77\u9053\u958b\u767a\u5c40\u5e2f\u5e83\u958b\u767a\u5efa\u8a2d\u90e8","boring_xml_url":44,"boring_view_url":1,"soilmap_view_url":null,"soiltest_xml_url":0,"soiltest_view_url":0},{"id":134544,"code":"B4KJ201801002-2793","latitude":"43.1214","longitude":"143.5425","source_code":"HK200981280010001","project_name":"\u30c1\u30a8\u30c8\u30a4\u7bc9\u5824\u5de5\u4e8b\u7b87\u6240\u5730\u8cea\u8abf\u67fb\u89e3\u6790\u696d\u52d9","survey_name":"\u30c1\u30a8\u30c8\u30a4\u7bc9\u5824\u5de5\u4e8b\u7b87\u6240\u5730\u8cea\u8abf\u67fb\u89e3\u6790\u696d\u52d9","client_name":"\u56fd\u571f\u4ea4\u901a\u7701\u5317\u6d77\u9053\u958b\u767a\u5c40\u5e2f\u5e83\u958b\u767a\u5efa\u8a2d\u90e8","boring_xml_url":44,"boring_view_url":1,"soilmap_view_url":null,"soiltest_xml_url":0,"soiltest_view_url":0},{"id":134543,"code":"B4KJ201801002-2792","latitude":"43.6256","longitude":"145.0478","source_code":"HK20098127000039","project_name":"\u6a19\u6d25\u5ddd\u5730\u8cea\u8abf\u67fb\u696d\u52d9","survey_name":"\u6a19\u6d25\u5ddd\u5730\u8cea\u8abf\u67fb\u696d\u52d9","client_name":"\u56fd\u571f\u4ea4\u901a\u7701\u5317\u6d77\u9053\u958b\u767a\u5c40\u91e7\u8def\u958b\u767a\u5efa\u8a2d\u90e8","boring_xml_url":43,"boring_view_url":1,"soilmap_view_url":null,"soiltest_xml_url":0,"soiltest_view_url":0},{"id":134542,"code":"B4KJ201801002-2791","latitude":"43.6278","longitude":"145.0617","source_code":"HK20098127000038","project_name":"\u6a19\u6d25\u5ddd\u5730\u8cea\u8abf\u67fb\u696d\u52d9","survey_name":"\u6a19\u6d25\u5ddd\u5730\u8cea\u8abf\u67fb\u696d\u52d9","client_name":"\u56fd\u571f\u4ea4\u901a\u7701\u5317\u6d77\u9053\u958b\u767a\u5c40\u91e7\u8def\u958b\u767a\u5efa\u8a2d\u90e8","boring_xml_url":43,"boring_view_url":1,"soilmap_view_url":null,"soiltest_xml_url":0,"soiltest_view_url":0},{"id":134541,"code":"B4KJ201801002-2790","latitude":"43.6089","longitude":"145.0714","source_code":"HK20098127000037","project_name":"\u6a19\u6d25\u5ddd\u5730\u8cea\u8abf\u67fb\u696d\u52d9","survey_name":"\u6a19\u6d25\u5ddd\u5730\u8cea\u8abf\u67fb\u696d\u52d9","client_name":"\u56fd\u571f\u4ea4\u901a\u7701\u5317\u6d77\u9053\u958b\u767a\u5c40\u91e7\u8def\u958b\u767a\u5efa\u8a2d\u90e8","boring_xml_url":43,"boring_view_url":1,"soilmap_view_url":null,"soiltest_xml_url":0,"soiltest_view_url":0},{"id":134540,"code":"B4KJ201801002-2789","latitude":"43.6083","longitude":"145.0717","source_code":"HK20098127000036","project_name":"\u6a19\u6d25\u5ddd\u5730\u8cea\u8abf\u67fb\u696d\u52d9","survey_name":"\u6a19\u6d25\u5ddd\u5730\u8cea\u8abf\u67fb\u696d\u52d9","client_name":"\u56fd\u571f\u4ea4\u901a\u7701\u5317\u6d77\u9053\u958b\u767a\u5c40\u91e7\u8def\u958b\u767a\u5efa\u8a2d\u90e8","boring_xml_url":43,"boring_view_url":1,"soilmap_view_url":null,"soiltest_xml_url":0,"soiltest_view_url":0},{"id":134539,"code":"B4KJ201801002-2788","latitude":"43.6089","longitude":"145.0725","source_code":"HK20098127000035","project_name":"\u6a19\u6d25\u5ddd\u5730\u8cea\u8abf\u67fb\u696d\u52d9","survey_name":"\u6a19\u6d25\u5ddd\u5730\u8cea\u8abf\u67fb\u696d\u52d9","client_name":"\u56fd\u571f\u4ea4\u901a\u7701\u5317\u6d77\u9053\u958b\u767a\u5c40\u91e7\u8def\u958b\u767a\u5efa\u8a2d\u90e8","boring_xml_url":43,"boring_view_url":1,"soilmap_view_url":null,"soiltest_xml_url":0,"soiltest_view_url":0},{"id":134538,"code":"B4KJ201801002-2787","latitude":"43.61","longitude":"145.0764","source_code":"HK20098127000034","project_name":"\u6a19\u6d25\u5ddd\u5730\u8cea\u8abf\u67fb\u696d\u52d9","survey_name":"\u6a19\u6d25\u5ddd\u5730\u8cea\u8abf\u67fb\u696d\u52d9","client_name":"\u56fd\u571f\u4ea4\u901a\u7701\u5317\u6d77\u9053\u958b\u767a\u5c40\u91e7\u8def\u958b\u767a\u5efa\u8a2d\u90e8","boring_xml_url":43,"boring_view_url":1,"soilmap_view_url":null,"soiltest_xml_url":0,"soiltest_view_url":0},{"id":134537,"code":"B4KJ201801002-2786","latitude":"43.6114","longitude":"145.0761","source_code":"HK20098127000033","project_name":"\u6a19\u6d25\u5ddd\u5730\u8cea\u8abf\u67fb\u696d\u52d9","survey_name":"\u6a19\u6d25\u5ddd\u5730\u8cea\u8abf\u67fb\u696d\u52d9","client_name":"\u56fd\u571f\u4ea4\u901a\u7701\u5317\u6d77\u9053\u958b\u767a\u5c40\u91e7\u8def\u958b\u767a\u5efa\u8a2d\u90e8","boring_xml_url":43,"boring_view_url":1,"soilmap_view_url":null,"soiltest_xml_url":0,"soiltest_view_url":0},{"id":134536,"code":"B4KJ201801002-2785","latitude":"43.6122","longitude":"145.0767","source_code":"HK20098127000032","project_name":"\u6a19\u6d25\u5ddd\u5730\u8cea\u8abf\u67fb\u696d\u52d9","survey_name":"\u6a19\u6d25\u5ddd\u5730\u8cea\u8abf\u67fb\u696d\u52d9","client_name":"\u56fd\u571f\u4ea4\u901a\u7701\u5317\u6d77\u9053\u958b\u767a\u5c40\u91e7\u8def\u958b\u767a\u5efa\u8a2d\u90e8","boring_xml_url":43,"boring_view_url":1,"soilmap_view_url":null,"soiltest_xml_url":0,"soiltest_view_url":0},{"id":134535,"code":"B4KJ201801002-2784","latitude":"43.6128","longitude":"145.0756","source_code":"HK20098127000031","project_name":"\u6a19\u6d25\u5ddd\u5730\u8cea\u8abf\u67fb\u696d\u52d9","survey_name":"\u6a19\u6d25\u5ddd\u5730\u8cea\u8abf\u67fb\u696d\u52d9","client_name":"\u56fd\u571f\u4ea4\u901a\u7701\u5317\u6d77\u9053\u958b\u767a\u5c40\u91e7\u8def\u958b\u767a\u5efa\u8a2d\u90e8","boring_xml_url":43,"boring_view_url":1,"soilmap_view_url":null,"soiltest_xml_url":0,"soiltest_view_url":0},{"id":134534,"code":"B4KJ201801002-2783","latitude":"43.6069","longitude":"145.0522","source_code":"HK20098127000030","project_name":"\u6a19\u6d25\u5ddd\u5730\u8cea\u8abf\u67fb\u696d\u52d9","survey_name":"\u6a19\u6d25\u5ddd\u5730\u8cea\u8abf\u67fb\u696d\u52d9","client_name":"\u56fd\u571f\u4ea4\u901a\u7701\u5317\u6d77\u9053\u958b\u767a\u5c40\u91e7\u8def\u958b\u767a\u5efa\u8a2d\u90e8","boring_xml_url":43,"boring_view_url":1,"soilmap_view_url":null,"soiltest_xml_url":0,"soiltest_view_url":0},{"id":134533,"code":"B4KJ201801002-2782","latitude":"43.6019","longitude":"145.0606","source_code":"HK20098127000029","project_name":"\u6a19\u6d25\u5ddd\u5730\u8cea\u8abf\u67fb\u696d\u52d9","survey_name":"\u6a19\u6d25\u5ddd\u5730\u8cea\u8abf\u67fb\u696d\u52d9","client_name":"\u56fd\u571f\u4ea4\u901a\u7701\u5317\u6d77\u9053\u958b\u767a\u5c40\u91e7\u8def\u958b\u767a\u5efa\u8a2d\u90e8","boring_xml_url":43,"boring_view_url":1,"soilmap_view_url":null,"soiltest_xml_url":0,"soiltest_view_url":0},{"id":134532,"code":"B4KJ201801002-2781","latitude":"43.6144","longitude":"145.0603","source_code":"HK20098127000028","project_name":"\u6a19\u6d25\u5ddd\u5730\u8cea\u8abf\u67fb\u696d\u52d9","survey_name":"\u6a19\u6d25\u5ddd\u5730\u8cea\u8abf\u67fb\u696d\u52d9","client_name":"\u56fd\u571f\u4ea4\u901a\u7701\u5317\u6d77\u9053\u958b\u767a\u5c40\u91e7\u8def\u958b\u767a\u5efa\u8a2d\u90e8","boring_xml_url":43,"boring_view_url":1,"soilmap_view_url":null,"soiltest_xml_url":0,"soiltest_view_url":0},{"id":134531,"code":"B4KJ201801002-2780","latitude":"43.6094","longitude":"145.0686","source_code":"HK20098127000027","project_name":"\u6a19\u6d25\u5ddd\u5730\u8cea\u8abf\u67fb\u696d\u52d9","survey_name":"\u6a19\u6d25\u5ddd\u5730\u8cea\u8abf\u67fb\u696d\u52d9","client_name":"\u56fd\u571f\u4ea4\u901a\u7701\u5317\u6d77\u9053\u958b\u767a\u5c40\u91e7\u8def\u958b\u767a\u5efa\u8a2d\u90e8","boring_xml_url":43,"boring_view_url":1,"soilmap_view_url":null,"soiltest_xml_url":0,"soiltest_view_url":0},{"id":134530,"code":"B4KJ201801002-2779","latitude":"43.6161","longitude":"145.0708","source_code":"HK20098127000026","project_name":"\u6a19\u6d25\u5ddd\u5730\u8cea\u8abf\u67fb\u696d\u52d9","survey_name":"\u6a19\u6d25\u5ddd\u5730\u8cea\u8abf\u67fb\u696d\u52d9","client_name":"\u56fd\u571f\u4ea4\u901a\u7701\u5317\u6d77\u9053\u958b\u767a\u5c40\u91e7\u8def\u958b\u767a\u5efa\u8a2d\u90e8","boring_xml_url":43,"boring_view_url":1,"soilmap_view_url":null,"soiltest_xml_url":0,"soiltest_view_url":0},{"id":134529,"code":"B4KJ201801002-2778","latitude":"43.6233","longitude":"145.0753","source_code":"HK20098127000025","project_name":"\u6a19\u6d25\u5ddd\u5730\u8cea\u8abf\u67fb\u696d\u52d9","survey_name":"\u6a19\u6d25\u5ddd\u5730\u8cea\u8abf\u67fb\u696d\u52d9","client_name":"\u56fd\u571f\u4ea4\u901a\u7701\u5317\u6d77\u9053\u958b\u767a\u5c40\u91e7\u8def\u958b\u767a\u5efa\u8a2d\u90e8","boring_xml_url":43,"boring_view_url":1,"soilmap_view_url":null,"soiltest_xml_url":0,"soiltest_view_url":0},{"id":134528,"code":"B4KJ201801002-2777","latitude":"43.6303","longitude":"145.0769","source_code":"HK20098127000024","project_name":"\u6a19\u6d25\u5ddd\u5730\u8cea\u8abf\u67fb\u696d\u52d9","survey_name":"\u6a19\u6d25\u5ddd\u5730\u8cea\u8abf\u67fb\u696d\u52d9","client_name":"\u56fd\u571f\u4ea4\u901a\u7701\u5317\u6d77\u9053\u958b\u767a\u5c40\u91e7\u8def\u958b\u767a\u5efa\u8a2d\u90e8","boring_xml_url":43,"boring_view_url":1,"soilmap_view_url":null,"soiltest_xml_url":0,"soiltest_view_url":0},{"id":134527,"code":"B4KJ201801002-2776","latitude":"43.6006","longitude":"145.0631","source_code":"HK20098127000023","project_name":"\u6a19\u6d25\u5ddd\u5730\u8cea\u8abf\u67fb\u696d\u52d9","survey_name":"\u6a19\u6d25\u5ddd\u5730\u8cea\u8abf\u67fb\u696d\u52d9","client_name":"\u56fd\u571f\u4ea4\u901a\u7701\u5317\u6d77\u9053\u958b\u767a\u5c40\u91e7\u8def\u958b\u767a\u5efa\u8a2d\u90e8","boring_xml_url":43,"boring_view_url":1,"soilmap_view_url":null,"soiltest_xml_url":0,"soiltest_view_url":0},{"id":134526,"code":"B4KJ201801002-2775","latitude":"43.6156","longitude":"145.0769","source_code":"HK20098127000022","project_name":"\u6a19\u6d25\u5ddd\u5730\u8cea\u8abf\u67fb\u696d\u52d9","survey_name":"\u6a19\u6d25\u5ddd\u5730\u8cea\u8abf\u67fb\u696d\u52d9","client_name":"\u56fd\u571f\u4ea4\u901a\u7701\u5317\u6d77\u9053\u958b\u767a\u5c40\u91e7\u8def\u958b\u767a\u5efa\u8a2d\u90e8","boring_xml_url":43,"boring_view_url":1,"soilmap_view_url":null,"soiltest_xml_url":0,"soiltest_view_url":0},{"id":134525,"code":"B4KJ201801002-2774","latitude":"43.6147","longitude":"145.0847","source_code":"HK20098127000021","project_name":"\u6a19\u6d25\u5ddd\u5730\u8cea\u8abf\u67fb\u696d\u52d9","survey_name":"\u6a19\u6d25\u5ddd\u5730\u8cea\u8abf\u67fb\u696d\u52d9","client_name":"\u56fd\u571f\u4ea4\u901a\u7701\u5317\u6d77\u9053\u958b\u767a\u5c40\u91e7\u8def\u958b\u767a\u5efa\u8a2d\u90e8","boring_xml_url":43,"boring_view_url":1,"soilmap_view_url":null,"soiltest_xml_url":0,"soiltest_view_url":0},{"id":134524,"code":"B4KJ201801002-2773","latitude":"43.6181","longitude":"145.0875","source_code":"HK20098127000020","project_name":"\u6a19\u6d25\u5ddd\u5730\u8cea\u8abf\u67fb\u696d\u52d9","survey_name":"\u6a19\u6d25\u5ddd\u5730\u8cea\u8abf\u67fb\u696d\u52d9","client_name":"\u56fd\u571f\u4ea4\u901a\u7701\u5317\u6d77\u9053\u958b\u767a\u5c40\u91e7\u8def\u958b\u767a\u5efa\u8a2d\u90e8","boring_xml_url":43,"boring_view_url":1,"soilmap_view_url":null,"soiltest_xml_url":0,"soiltest_view_url":0},{"id":134523,"code":"B4KJ201801002-2772","latitude":"43.6208","longitude":"145.0853","source_code":"HK20098127000019","project_name":"\u6a19\u6d25\u5ddd\u5730\u8cea\u8abf\u67fb\u696d\u52d9","survey_name":"\u6a19\u6d25\u5ddd\u5730\u8cea\u8abf\u67fb\u696d\u52d9","client_name":"\u56fd\u571f\u4ea4\u901a\u7701\u5317\u6d77\u9053\u958b\u767a\u5c40\u91e7\u8def\u958b\u767a\u5efa\u8a2d\u90e8","boring_xml_url":43,"boring_view_url":1,"soilmap_view_url":null,"soiltest_xml_url":0,"soiltest_view_url":0},{"id":134522,"code":"B4KJ201801002-2771","latitude":"43.6311","longitude":"145.0858","source_code":"HK20098127000018","project_name":"\u6a19\u6d25\u5ddd\u5730\u8cea\u8abf\u67fb\u696d\u52d9","survey_name":"\u6a19\u6d25\u5ddd\u5730\u8cea\u8abf\u67fb\u696d\u52d9","client_name":"\u56fd\u571f\u4ea4\u901a\u7701\u5317\u6d77\u9053\u958b\u767a\u5c40\u91e7\u8def\u958b\u767a\u5efa\u8a2d\u90e8","boring_xml_url":43,"boring_view_url":1,"soilmap_view_url":null,"soiltest_xml_url":0,"soiltest_view_url":0},{"id":134521,"code":"B4KJ201801002-2770","latitude":"43.6303","longitude":"145.0936","source_code":"HK20098127000017","project_name":"\u6a19\u6d25\u5ddd\u5730\u8cea\u8abf\u67fb\u696d\u52d9","survey_name":"\u6a19\u6d25\u5ddd\u5730\u8cea\u8abf\u67fb\u696d\u52d9","client_name":"\u56fd\u571f\u4ea4\u901a\u7701\u5317\u6d77\u9053\u958b\u767a\u5c40\u91e7\u8def\u958b\u767a\u5efa\u8a2d\u90e8","boring_xml_url":43,"boring_view_url":1,"soilmap_view_url":null,"soiltest_xml_url":0,"soiltest_view_url":0},{"id":134520,"code":"B4KJ201801002-2769","latitude":"43.6367","longitude":"145.0903","source_code":"HK20098127000016","project_name":"\u6a19\u6d25\u5ddd\u5730\u8cea\u8abf\u67fb\u696d\u52d9","survey_name":"\u6a19\u6d25\u5ddd\u5730\u8cea\u8abf\u67fb\u696d\u52d9","client_name":"\u56fd\u571f\u4ea4\u901a\u7701\u5317\u6d77\u9053\u958b\u767a\u5c40\u91e7\u8def\u958b\u767a\u5efa\u8a2d\u90e8","boring_xml_url":43,"boring_view_url":1,"soilmap_view_url":null,"soiltest_xml_url":0,"soiltest_view_url":0},{"id":134519,"code":"B4KJ201801002-2768","latitude":"43.6397","longitude":"145.1033","source_code":"HK20098127000015","project_name":"\u6a19\u6d25\u5ddd\u5730\u8cea\u8abf\u67fb\u696d\u52d9","survey_name":"\u6a19\u6d25\u5ddd\u5730\u8cea\u8abf\u67fb\u696d\u52d9","client_name":"\u56fd\u571f\u4ea4\u901a\u7701\u5317\u6d77\u9053\u958b\u767a\u5c40\u91e7\u8def\u958b\u767a\u5efa\u8a2d\u90e8","boring_xml_url":43,"boring_view_url":1,"soilmap_view_url":null,"soiltest_xml_url":0,"soiltest_view_url":0},{"id":134518,"code":"B4KJ201801002-2767","latitude":"43.6422","longitude":"145.0989","source_code":"HK20098127000014","project_name":"\u6a19\u6d25\u5ddd\u5730\u8cea\u8abf\u67fb\u696d\u52d9","survey_name":"\u6a19\u6d25\u5ddd\u5730\u8cea\u8abf\u67fb\u696d\u52d9","client_name":"\u56fd\u571f\u4ea4\u901a\u7701\u5317\u6d77\u9053\u958b\u767a\u5c40\u91e7\u8def\u958b\u767a\u5efa\u8a2d\u90e8","boring_xml_url":43,"boring_view_url":1,"soilmap_view_url":null,"soiltest_xml_url":0,"soiltest_view_url":0},{"id":134517,"code":"B4KJ201801002-2766","latitude":"43.6464","longitude":"145.1103","source_code":"HK20098127000013","project_name":"\u6a19\u6d25\u5ddd\u5730\u8cea\u8abf\u67fb\u696d\u52d9","survey_name":"\u6a19\u6d25\u5ddd\u5730\u8cea\u8abf\u67fb\u696d\u52d9","client_name":"\u56fd\u571f\u4ea4\u901a\u7701\u5317\u6d77\u9053\u958b\u767a\u5c40\u91e7\u8def\u958b\u767a\u5efa\u8a2d\u90e8","boring_xml_url":43,"boring_view_url":1,"soilmap_view_url":null,"soiltest_xml_url":0,"soiltest_view_url":0},{"id":134516,"code":"B4KJ201801002-2765","latitude":"43.6478","longitude":"145.1094","source_code":"HK20098127000012","project_name":"\u6a19\u6d25\u5ddd\u5730\u8cea\u8abf\u67fb\u696d\u52d9","survey_name":"\u6a19\u6d25\u5ddd\u5730\u8cea\u8abf\u67fb\u696d\u52d9","client_name":"\u56fd\u571f\u4ea4\u901a\u7701\u5317\u6d77\u9053\u958b\u767a\u5c40\u91e7\u8def\u958b\u767a\u5efa\u8a2d\u90e8","boring_xml_url":43,"boring_view_url":1,"soilmap_view_url":null,"soiltest_xml_url":0,"soiltest_view_url":0}]}}