{"header":{"xyz":{"source":[],"mosaic":false},"page":6213,"raw":{"soiltest_result":"0","bbox":"57.598333,109.544722,1.933333,163.806111","page":"6213"},"conditions":{"soiltest_result":0,"north":57.598333,"west":109.544722,"south":1.933333,"east":163.806111},"success":true,"message":""},"data":{"meta":{"total":212844,"page":6213,"pages":7095,"count":30},"values":[{"id":134185,"code":"B4KJ201801002-2434","latitude":"43.665703","longitude":"142.394892","source_code":"HK200981250003040021","project_name":"\u77f3\u72e9\u5ddd\u4e0a\u6d41\u7f8e\u745b\u5ddd\u5916","survey_name":"\u77f3\u72e9\u5ddd\u4e0a\u6d41\u7f8e\u745b\u5ddd\u5916\u5824\u9632\u8cea\u7684\u6574\u5099\u8a73\u7d30\u70b9\u691c\u696d\u52d9","client_name":"\u56fd\u571f\u4ea4\u901a\u7701\u5317\u6d77\u9053\u958b\u767a\u5c40\u65ed\u5ddd\u958b\u767a\u5efa\u8a2d\u90e8","boring_xml_url":47,"boring_view_url":1,"soilmap_view_url":null,"soiltest_xml_url":0,"soiltest_view_url":0},{"id":134184,"code":"B4KJ201801002-2433","latitude":"43.665744","longitude":"142.394956","source_code":"HK200981250003040020","project_name":"\u77f3\u72e9\u5ddd\u4e0a\u6d41\u7f8e\u745b\u5ddd\u5916","survey_name":"\u77f3\u72e9\u5ddd\u4e0a\u6d41\u7f8e\u745b\u5ddd\u5916\u5824\u9632\u8cea\u7684\u6574\u5099\u8a73\u7d30\u70b9\u691c\u696d\u52d9","client_name":"\u56fd\u571f\u4ea4\u901a\u7701\u5317\u6d77\u9053\u958b\u767a\u5c40\u65ed\u5ddd\u958b\u767a\u5efa\u8a2d\u90e8","boring_xml_url":47,"boring_view_url":1,"soilmap_view_url":null,"soiltest_xml_url":0,"soiltest_view_url":0},{"id":134183,"code":"B4KJ201801002-2432","latitude":"43.665786","longitude":"142.395022","source_code":"HK200981250003040019","project_name":"\u77f3\u72e9\u5ddd\u4e0a\u6d41\u7f8e\u745b\u5ddd\u5916","survey_name":"\u77f3\u72e9\u5ddd\u4e0a\u6d41\u7f8e\u745b\u5ddd\u5916\u5824\u9632\u8cea\u7684\u6574\u5099\u8a73\u7d30\u70b9\u691c\u696d\u52d9","client_name":"\u56fd\u571f\u4ea4\u901a\u7701\u5317\u6d77\u9053\u958b\u767a\u5c40\u65ed\u5ddd\u958b\u767a\u5efa\u8a2d\u90e8","boring_xml_url":47,"boring_view_url":1,"soilmap_view_url":null,"soiltest_xml_url":0,"soiltest_view_url":0},{"id":134182,"code":"B4KJ201801002-2431","latitude":"43.681133","longitude":"142.381947","source_code":"HK200981250003040018","project_name":"\u77f3\u72e9\u5ddd\u4e0a\u6d41\u7f8e\u745b\u5ddd\u5916","survey_name":"\u77f3\u72e9\u5ddd\u4e0a\u6d41\u7f8e\u745b\u5ddd\u5916\u5824\u9632\u8cea\u7684\u6574\u5099\u8a73\u7d30\u70b9\u691c\u696d\u52d9","client_name":"\u56fd\u571f\u4ea4\u901a\u7701\u5317\u6d77\u9053\u958b\u767a\u5c40\u65ed\u5ddd\u958b\u767a\u5efa\u8a2d\u90e8","boring_xml_url":47,"boring_view_url":1,"soilmap_view_url":null,"soiltest_xml_url":0,"soiltest_view_url":0},{"id":134181,"code":"B4KJ201801002-2430","latitude":"43.681117","longitude":"142.381811","source_code":"HK200981250003040017","project_name":"\u77f3\u72e9\u5ddd\u4e0a\u6d41\u7f8e\u745b\u5ddd\u5916","survey_name":"\u77f3\u72e9\u5ddd\u4e0a\u6d41\u7f8e\u745b\u5ddd\u5916\u5824\u9632\u8cea\u7684\u6574\u5099\u8a73\u7d30\u70b9\u691c\u696d\u52d9","client_name":"\u56fd\u571f\u4ea4\u901a\u7701\u5317\u6d77\u9053\u958b\u767a\u5c40\u65ed\u5ddd\u958b\u767a\u5efa\u8a2d\u90e8","boring_xml_url":47,"boring_view_url":1,"soilmap_view_url":null,"soiltest_xml_url":0,"soiltest_view_url":0},{"id":134180,"code":"B4KJ201801002-2429","latitude":"43.681128","longitude":"142.381892","source_code":"HK200981250003040016","project_name":"\u77f3\u72e9\u5ddd\u4e0a\u6d41\u7f8e\u745b\u5ddd\u5916","survey_name":"\u77f3\u72e9\u5ddd\u4e0a\u6d41\u7f8e\u745b\u5ddd\u5916\u5824\u9632\u8cea\u7684\u6574\u5099\u8a73\u7d30\u70b9\u691c\u696d\u52d9","client_name":"\u56fd\u571f\u4ea4\u901a\u7701\u5317\u6d77\u9053\u958b\u767a\u5c40\u65ed\u5ddd\u958b\u767a\u5efa\u8a2d\u90e8","boring_xml_url":47,"boring_view_url":1,"soilmap_view_url":null,"soiltest_xml_url":0,"soiltest_view_url":0},{"id":134179,"code":"B4KJ201801002-2428","latitude":"43.695719","longitude":"142.374947","source_code":"HK200981250003040015","project_name":"\u77f3\u72e9\u5ddd\u4e0a\u6d41\u7f8e\u745b\u5ddd\u5916","survey_name":"\u77f3\u72e9\u5ddd\u4e0a\u6d41\u7f8e\u745b\u5ddd\u5916\u5824\u9632\u8cea\u7684\u6574\u5099\u8a73\u7d30\u70b9\u691c\u696d\u52d9","client_name":"\u56fd\u571f\u4ea4\u901a\u7701\u5317\u6d77\u9053\u958b\u767a\u5c40\u65ed\u5ddd\u958b\u767a\u5efa\u8a2d\u90e8","boring_xml_url":47,"boring_view_url":1,"soilmap_view_url":null,"soiltest_xml_url":0,"soiltest_view_url":0},{"id":134178,"code":"B4KJ201801002-2427","latitude":"43.695706","longitude":"142.374844","source_code":"HK200981250003040014","project_name":"\u77f3\u72e9\u5ddd\u4e0a\u6d41\u7f8e\u745b\u5ddd\u5916","survey_name":"\u77f3\u72e9\u5ddd\u4e0a\u6d41\u7f8e\u745b\u5ddd\u5916\u5824\u9632\u8cea\u7684\u6574\u5099\u8a73\u7d30\u70b9\u691c\u696d\u52d9","client_name":"\u56fd\u571f\u4ea4\u901a\u7701\u5317\u6d77\u9053\u958b\u767a\u5c40\u65ed\u5ddd\u958b\u767a\u5efa\u8a2d\u90e8","boring_xml_url":47,"boring_view_url":1,"soilmap_view_url":null,"soiltest_xml_url":0,"soiltest_view_url":0},{"id":134177,"code":"B4KJ201801002-2426","latitude":"43.695714","longitude":"142.374894","source_code":"HK200981250003040013","project_name":"\u77f3\u72e9\u5ddd\u4e0a\u6d41\u7f8e\u745b\u5ddd\u5916","survey_name":"\u77f3\u72e9\u5ddd\u4e0a\u6d41\u7f8e\u745b\u5ddd\u5916\u5824\u9632\u8cea\u7684\u6574\u5099\u8a73\u7d30\u70b9\u691c\u696d\u52d9","client_name":"\u56fd\u571f\u4ea4\u901a\u7701\u5317\u6d77\u9053\u958b\u767a\u5c40\u65ed\u5ddd\u958b\u767a\u5efa\u8a2d\u90e8","boring_xml_url":47,"boring_view_url":1,"soilmap_view_url":null,"soiltest_xml_url":0,"soiltest_view_url":0},{"id":134176,"code":"B4KJ201801002-2425","latitude":"43.711411","longitude":"142.369183","source_code":"HK200981250003040012","project_name":"\u77f3\u72e9\u5ddd\u4e0a\u6d41\u7f8e\u745b\u5ddd\u5916","survey_name":"\u77f3\u72e9\u5ddd\u4e0a\u6d41\u7f8e\u745b\u5ddd\u5916\u5824\u9632\u8cea\u7684\u6574\u5099\u8a73\u7d30\u70b9\u691c\u696d\u52d9","client_name":"\u56fd\u571f\u4ea4\u901a\u7701\u5317\u6d77\u9053\u958b\u767a\u5c40\u65ed\u5ddd\u958b\u767a\u5efa\u8a2d\u90e8","boring_xml_url":47,"boring_view_url":1,"soilmap_view_url":null,"soiltest_xml_url":0,"soiltest_view_url":0},{"id":134175,"code":"B4KJ201801002-2424","latitude":"43.711358","longitude":"142.369067","source_code":"HK200981250003040011","project_name":"\u77f3\u72e9\u5ddd\u4e0a\u6d41\u7f8e\u745b\u5ddd\u5916","survey_name":"\u77f3\u72e9\u5ddd\u4e0a\u6d41\u7f8e\u745b\u5ddd\u5916\u5824\u9632\u8cea\u7684\u6574\u5099\u8a73\u7d30\u70b9\u691c\u696d\u52d9","client_name":"\u56fd\u571f\u4ea4\u901a\u7701\u5317\u6d77\u9053\u958b\u767a\u5c40\u65ed\u5ddd\u958b\u767a\u5efa\u8a2d\u90e8","boring_xml_url":47,"boring_view_url":1,"soilmap_view_url":null,"soiltest_xml_url":0,"soiltest_view_url":0},{"id":134174,"code":"B4KJ201801002-2423","latitude":"43.711386","longitude":"142.369128","source_code":"HK200981250003040010","project_name":"\u77f3\u72e9\u5ddd\u4e0a\u6d41\u7f8e\u745b\u5ddd\u5916","survey_name":"\u77f3\u72e9\u5ddd\u4e0a\u6d41\u7f8e\u745b\u5ddd\u5916\u5824\u9632\u8cea\u7684\u6574\u5099\u8a73\u7d30\u70b9\u691c\u696d\u52d9","client_name":"\u56fd\u571f\u4ea4\u901a\u7701\u5317\u6d77\u9053\u958b\u767a\u5c40\u65ed\u5ddd\u958b\u767a\u5efa\u8a2d\u90e8","boring_xml_url":47,"boring_view_url":1,"soilmap_view_url":null,"soiltest_xml_url":0,"soiltest_view_url":0},{"id":134173,"code":"B4KJ201801002-2422","latitude":"43.720064","longitude":"142.368497","source_code":"HK200981250003040009","project_name":"\u77f3\u72e9\u5ddd\u4e0a\u6d41\u7f8e\u745b\u5ddd\u5916","survey_name":"\u77f3\u72e9\u5ddd\u4e0a\u6d41\u7f8e\u745b\u5ddd\u5916\u5824\u9632\u8cea\u7684\u6574\u5099\u8a73\u7d30\u70b9\u691c\u696d\u52d9","client_name":"\u56fd\u571f\u4ea4\u901a\u7701\u5317\u6d77\u9053\u958b\u767a\u5c40\u65ed\u5ddd\u958b\u767a\u5efa\u8a2d\u90e8","boring_xml_url":47,"boring_view_url":1,"soilmap_view_url":null,"soiltest_xml_url":0,"soiltest_view_url":0},{"id":134172,"code":"B4KJ201801002-2421","latitude":"43.720058","longitude":"142.368367","source_code":"HK200981250003040008","project_name":"\u77f3\u72e9\u5ddd\u4e0a\u6d41\u7f8e\u745b\u5ddd\u5916","survey_name":"\u77f3\u72e9\u5ddd\u4e0a\u6d41\u7f8e\u745b\u5ddd\u5916\u5824\u9632\u8cea\u7684\u6574\u5099\u8a73\u7d30\u70b9\u691c\u696d\u52d9","client_name":"\u56fd\u571f\u4ea4\u901a\u7701\u5317\u6d77\u9053\u958b\u767a\u5c40\u65ed\u5ddd\u958b\u767a\u5efa\u8a2d\u90e8","boring_xml_url":47,"boring_view_url":1,"soilmap_view_url":null,"soiltest_xml_url":0,"soiltest_view_url":0},{"id":134171,"code":"B4KJ201801002-2420","latitude":"43.720061","longitude":"142.368433","source_code":"HK200981250003040007","project_name":"\u77f3\u72e9\u5ddd\u4e0a\u6d41\u7f8e\u745b\u5ddd\u5916","survey_name":"\u77f3\u72e9\u5ddd\u4e0a\u6d41\u7f8e\u745b\u5ddd\u5916\u5824\u9632\u8cea\u7684\u6574\u5099\u8a73\u7d30\u70b9\u691c\u696d\u52d9","client_name":"\u56fd\u571f\u4ea4\u901a\u7701\u5317\u6d77\u9053\u958b\u767a\u5c40\u65ed\u5ddd\u958b\u767a\u5efa\u8a2d\u90e8","boring_xml_url":47,"boring_view_url":1,"soilmap_view_url":null,"soiltest_xml_url":0,"soiltest_view_url":0},{"id":134170,"code":"B4KJ201801002-2419","latitude":"43.724792","longitude":"142.364169","source_code":"HK200981250003040006","project_name":"\u77f3\u72e9\u5ddd\u4e0a\u6d41\u7f8e\u745b\u5ddd\u5916","survey_name":"\u77f3\u72e9\u5ddd\u4e0a\u6d41\u7f8e\u745b\u5ddd\u5916\u5824\u9632\u8cea\u7684\u6574\u5099\u8a73\u7d30\u70b9\u691c\u696d\u52d9","client_name":"\u56fd\u571f\u4ea4\u901a\u7701\u5317\u6d77\u9053\u958b\u767a\u5c40\u65ed\u5ddd\u958b\u767a\u5efa\u8a2d\u90e8","boring_xml_url":47,"boring_view_url":1,"soilmap_view_url":null,"soiltest_xml_url":0,"soiltest_view_url":0},{"id":134169,"code":"B4KJ201801002-2418","latitude":"43.724803","longitude":"142.364314","source_code":"HK200981250003040005","project_name":"\u77f3\u72e9\u5ddd\u4e0a\u6d41\u7f8e\u745b\u5ddd\u5916","survey_name":"\u77f3\u72e9\u5ddd\u4e0a\u6d41\u7f8e\u745b\u5ddd\u5916\u5824\u9632\u8cea\u7684\u6574\u5099\u8a73\u7d30\u70b9\u691c\u696d\u52d9","client_name":"\u56fd\u571f\u4ea4\u901a\u7701\u5317\u6d77\u9053\u958b\u767a\u5c40\u65ed\u5ddd\u958b\u767a\u5efa\u8a2d\u90e8","boring_xml_url":47,"boring_view_url":1,"soilmap_view_url":null,"soiltest_xml_url":0,"soiltest_view_url":0},{"id":134168,"code":"B4KJ201801002-2417","latitude":"43.724794","longitude":"142.3642","source_code":"HK200981250003040004","project_name":"\u77f3\u72e9\u5ddd\u4e0a\u6d41\u7f8e\u745b\u5ddd\u5916","survey_name":"\u77f3\u72e9\u5ddd\u4e0a\u6d41\u7f8e\u745b\u5ddd\u5916\u5824\u9632\u8cea\u7684\u6574\u5099\u8a73\u7d30\u70b9\u691c\u696d\u52d9","client_name":"\u56fd\u571f\u4ea4\u901a\u7701\u5317\u6d77\u9053\u958b\u767a\u5c40\u65ed\u5ddd\u958b\u767a\u5efa\u8a2d\u90e8","boring_xml_url":47,"boring_view_url":1,"soilmap_view_url":null,"soiltest_xml_url":0,"soiltest_view_url":0},{"id":134167,"code":"B4KJ201801002-2416","latitude":"43.735211","longitude":"142.356439","source_code":"HK200981250003040003","project_name":"\u77f3\u72e9\u5ddd\u4e0a\u6d41\u7f8e\u745b\u5ddd\u5916","survey_name":"\u77f3\u72e9\u5ddd\u4e0a\u6d41\u7f8e\u745b\u5ddd\u5916\u5824\u9632\u8cea\u7684\u6574\u5099\u8a73\u7d30\u70b9\u691c\u696d\u52d9","client_name":"\u56fd\u571f\u4ea4\u901a\u7701\u5317\u6d77\u9053\u958b\u767a\u5c40\u65ed\u5ddd\u958b\u767a\u5efa\u8a2d\u90e8","boring_xml_url":47,"boring_view_url":1,"soilmap_view_url":null,"soiltest_xml_url":0,"soiltest_view_url":0},{"id":134166,"code":"B4KJ201801002-2415","latitude":"43.735292","longitude":"142.356572","source_code":"HK200981250003040002","project_name":"\u77f3\u72e9\u5ddd\u4e0a\u6d41\u7f8e\u745b\u5ddd\u5916","survey_name":"\u77f3\u72e9\u5ddd\u4e0a\u6d41\u7f8e\u745b\u5ddd\u5916\u5824\u9632\u8cea\u7684\u6574\u5099\u8a73\u7d30\u70b9\u691c\u696d\u52d9","client_name":"\u56fd\u571f\u4ea4\u901a\u7701\u5317\u6d77\u9053\u958b\u767a\u5c40\u65ed\u5ddd\u958b\u767a\u5efa\u8a2d\u90e8","boring_xml_url":47,"boring_view_url":1,"soilmap_view_url":null,"soiltest_xml_url":0,"soiltest_view_url":0},{"id":134165,"code":"B4KJ201801002-2414","latitude":"43.735233","longitude":"142.356475","source_code":"HK200981250003040001","project_name":"\u77f3\u72e9\u5ddd\u4e0a\u6d41\u7f8e\u745b\u5ddd\u5916","survey_name":"\u77f3\u72e9\u5ddd\u4e0a\u6d41\u7f8e\u745b\u5ddd\u5916\u5824\u9632\u8cea\u7684\u6574\u5099\u8a73\u7d30\u70b9\u691c\u696d\u52d9","client_name":"\u56fd\u571f\u4ea4\u901a\u7701\u5317\u6d77\u9053\u958b\u767a\u5c40\u65ed\u5ddd\u958b\u767a\u5efa\u8a2d\u90e8","boring_xml_url":47,"boring_view_url":1,"soilmap_view_url":null,"soiltest_xml_url":0,"soiltest_view_url":0},{"id":134164,"code":"B4KJ201801002-2413","latitude":"44.60981","longitude":"142.30558","source_code":"HK200981250003030022","project_name":"\u6960\u7bc9\u5824","survey_name":"\u5929\u5869\u5ddd\u4e0a\u6d41\u7f8e\u6df1\u5730\u533a\u5916\u5824\u9632\u8cea\u7684\u6574\u5099\u8a73\u7d30\u70b9\u691c\u696d\u52d9","client_name":"\u56fd\u571f\u4ea4\u901a\u7701\u5317\u6d77\u9053\u958b\u767a\u5c40\u65ed\u5ddd\u958b\u767a\u5efa\u8a2d\u90e8","boring_xml_url":47,"boring_view_url":1,"soilmap_view_url":null,"soiltest_xml_url":0,"soiltest_view_url":0},{"id":134163,"code":"B4KJ201801002-2412","latitude":"44.60981","longitude":"142.30558","source_code":"HK200981250003030021","project_name":"\u6960\u7bc9\u5824","survey_name":"\u5929\u5869\u5ddd\u4e0a\u6d41\u7f8e\u6df1\u5730\u533a\u5916\u5824\u9632\u8cea\u7684\u6574\u5099\u8a73\u7d30\u70b9\u691c\u696d\u52d9","client_name":"\u56fd\u571f\u4ea4\u901a\u7701\u5317\u6d77\u9053\u958b\u767a\u5c40\u65ed\u5ddd\u958b\u767a\u5efa\u8a2d\u90e8","boring_xml_url":47,"boring_view_url":1,"soilmap_view_url":null,"soiltest_xml_url":0,"soiltest_view_url":0},{"id":134162,"code":"B4KJ201801002-2411","latitude":"44.6231","longitude":"142.2847","source_code":"HK200981250003030020","project_name":"\u6960\u7bc9\u5824","survey_name":"\u5929\u5869\u5ddd\u4e0a\u6d41\u7f8e\u6df1\u5730\u533a\u5916\u5824\u9632\u8cea\u7684\u6574\u5099\u8a73\u7d30\u70b9\u691c\u696d\u52d9","client_name":"\u56fd\u571f\u4ea4\u901a\u7701\u5317\u6d77\u9053\u958b\u767a\u5c40\u65ed\u5ddd\u958b\u767a\u5efa\u8a2d\u90e8","boring_xml_url":47,"boring_view_url":1,"soilmap_view_url":null,"soiltest_xml_url":0,"soiltest_view_url":0},{"id":134161,"code":"B4KJ201801002-2410","latitude":"44.6231","longitude":"142.2847","source_code":"HK200981250003030019","project_name":"\u6960\u7bc9\u5824","survey_name":"\u5929\u5869\u5ddd\u4e0a\u6d41\u7f8e\u6df1\u5730\u533a\u5916\u5824\u9632\u8cea\u7684\u6574\u5099\u8a73\u7d30\u70b9\u691c\u696d\u52d9","client_name":"\u56fd\u571f\u4ea4\u901a\u7701\u5317\u6d77\u9053\u958b\u767a\u5c40\u65ed\u5ddd\u958b\u767a\u5efa\u8a2d\u90e8","boring_xml_url":47,"boring_view_url":1,"soilmap_view_url":null,"soiltest_xml_url":0,"soiltest_view_url":0},{"id":134160,"code":"B4KJ201801002-2409","latitude":"44.6892","longitude":"142.2653","source_code":"HK200981250003030018","project_name":"\u54b2\u6765\u7bc9\u5824","survey_name":"\u5929\u5869\u5ddd\u4e0a\u6d41\u7f8e\u6df1\u5730\u533a\u5916\u5824\u9632\u8cea\u7684\u6574\u5099\u8a73\u7d30\u70b9\u691c\u696d\u52d9","client_name":"\u56fd\u571f\u4ea4\u901a\u7701\u5317\u6d77\u9053\u958b\u767a\u5c40\u65ed\u5ddd\u958b\u767a\u5efa\u8a2d\u90e8","boring_xml_url":47,"boring_view_url":1,"soilmap_view_url":null,"soiltest_xml_url":0,"soiltest_view_url":0},{"id":134159,"code":"B4KJ201801002-2408","latitude":"44.6892","longitude":"142.2653","source_code":"HK200981250003030017","project_name":"\u54b2\u6765\u7bc9\u5824","survey_name":"\u5929\u5869\u5ddd\u4e0a\u6d41\u7f8e\u6df1\u5730\u533a\u5916\u5824\u9632\u8cea\u7684\u6574\u5099\u8a73\u7d30\u70b9\u691c\u696d\u52d9","client_name":"\u56fd\u571f\u4ea4\u901a\u7701\u5317\u6d77\u9053\u958b\u767a\u5c40\u65ed\u5ddd\u958b\u767a\u5efa\u8a2d\u90e8","boring_xml_url":47,"boring_view_url":1,"soilmap_view_url":null,"soiltest_xml_url":0,"soiltest_view_url":0},{"id":134158,"code":"B4KJ201801002-2407","latitude":"44.6892","longitude":"142.2653","source_code":"HK200981250003030016","project_name":"\u54b2\u6765\u7bc9\u5824","survey_name":"\u5929\u5869\u5ddd\u4e0a\u6d41\u7f8e\u6df1\u5730\u533a\u5916\u5824\u9632\u8cea\u7684\u6574\u5099\u8a73\u7d30\u70b9\u691c\u696d\u52d9","client_name":"\u56fd\u571f\u4ea4\u901a\u7701\u5317\u6d77\u9053\u958b\u767a\u5c40\u65ed\u5ddd\u958b\u767a\u5efa\u8a2d\u90e8","boring_xml_url":47,"boring_view_url":1,"soilmap_view_url":null,"soiltest_xml_url":0,"soiltest_view_url":0},{"id":134157,"code":"B4KJ201801002-2406","latitude":"44.7256","longitude":"142.2597","source_code":"HK200981250003030015","project_name":"\u97f3\u5a01\u5b50\u5e9c\u7bc9\u5824","survey_name":"\u5929\u5869\u5ddd\u4e0a\u6d41\u7f8e\u6df1\u5730\u533a\u5916\u5824\u9632\u8cea\u7684\u6574\u5099\u8a73\u7d30\u70b9\u691c\u696d\u52d9","client_name":"\u56fd\u571f\u4ea4\u901a\u7701\u5317\u6d77\u9053\u958b\u767a\u5c40\u65ed\u5ddd\u958b\u767a\u5efa\u8a2d\u90e8","boring_xml_url":47,"boring_view_url":1,"soilmap_view_url":null,"soiltest_xml_url":0,"soiltest_view_url":0},{"id":134156,"code":"B4KJ201801002-2405","latitude":"44.7256","longitude":"142.2597","source_code":"HK200981250003030014","project_name":"\u97f3\u5a01\u5b50\u5e9c\u7bc9\u5824","survey_name":"\u5929\u5869\u5ddd\u4e0a\u6d41\u7f8e\u6df1\u5730\u533a\u5916\u5824\u9632\u8cea\u7684\u6574\u5099\u8a73\u7d30\u70b9\u691c\u696d\u52d9","client_name":"\u56fd\u571f\u4ea4\u901a\u7701\u5317\u6d77\u9053\u958b\u767a\u5c40\u65ed\u5ddd\u958b\u767a\u5efa\u8a2d\u90e8","boring_xml_url":47,"boring_view_url":1,"soilmap_view_url":null,"soiltest_xml_url":0,"soiltest_view_url":0}]}}