{"header":{"xyz":{"source":[],"mosaic":false},"page":6214,"raw":{"soiltest_result":"0","bbox":"57.598333,109.544722,1.933333,163.806111","page":"6214"},"conditions":{"soiltest_result":0,"north":57.598333,"west":109.544722,"south":1.933333,"east":163.806111},"success":true,"message":""},"data":{"meta":{"total":212844,"page":6214,"pages":7095,"count":30},"values":[{"id":134155,"code":"B4KJ201801002-2404","latitude":"44.7256","longitude":"142.2597","source_code":"HK200981250003030013","project_name":"\u97f3\u5a01\u5b50\u5e9c\u7bc9\u5824","survey_name":"\u5929\u5869\u5ddd\u4e0a\u6d41\u7f8e\u6df1\u5730\u533a\u5916\u5824\u9632\u8cea\u7684\u6574\u5099\u8a73\u7d30\u70b9\u691c\u696d\u52d9","client_name":"\u56fd\u571f\u4ea4\u901a\u7701\u5317\u6d77\u9053\u958b\u767a\u5c40\u65ed\u5ddd\u958b\u767a\u5efa\u8a2d\u90e8","boring_xml_url":47,"boring_view_url":1,"soilmap_view_url":null,"soiltest_xml_url":0,"soiltest_view_url":0},{"id":134154,"code":"B4KJ201801002-2403","latitude":"44.7367","longitude":"142.1956","source_code":"HK200981250003030012","project_name":"\u7b6c\u5cf6\u7bc9\u5824","survey_name":"\u5929\u5869\u5ddd\u4e0a\u6d41\u7f8e\u6df1\u5730\u533a\u5916\u5824\u9632\u8cea\u7684\u6574\u5099\u8a73\u7d30\u70b9\u691c\u696d\u52d9","client_name":"\u56fd\u571f\u4ea4\u901a\u7701\u5317\u6d77\u9053\u958b\u767a\u5c40\u65ed\u5ddd\u958b\u767a\u5efa\u8a2d\u90e8","boring_xml_url":47,"boring_view_url":1,"soilmap_view_url":null,"soiltest_xml_url":0,"soiltest_view_url":0},{"id":134153,"code":"B4KJ201801002-2402","latitude":"44.7367","longitude":"142.1956","source_code":"HK200981250003030011","project_name":"\u7b6c\u5cf6\u7bc9\u5824","survey_name":"\u5929\u5869\u5ddd\u4e0a\u6d41\u7f8e\u6df1\u5730\u533a\u5916\u5824\u9632\u8cea\u7684\u6574\u5099\u8a73\u7d30\u70b9\u691c\u696d\u52d9","client_name":"\u56fd\u571f\u4ea4\u901a\u7701\u5317\u6d77\u9053\u958b\u767a\u5c40\u65ed\u5ddd\u958b\u767a\u5efa\u8a2d\u90e8","boring_xml_url":47,"boring_view_url":1,"soilmap_view_url":null,"soiltest_xml_url":0,"soiltest_view_url":0},{"id":134152,"code":"B4KJ201801002-2401","latitude":"44.7367","longitude":"142.1956","source_code":"HK200981250003030010","project_name":"\u7b6c\u5cf6\u7bc9\u5824","survey_name":"\u5929\u5869\u5ddd\u4e0a\u6d41\u7f8e\u6df1\u5730\u533a\u5916\u5824\u9632\u8cea\u7684\u6574\u5099\u8a73\u7d30\u70b9\u691c\u696d\u52d9","client_name":"\u56fd\u571f\u4ea4\u901a\u7701\u5317\u6d77\u9053\u958b\u767a\u5c40\u65ed\u5ddd\u958b\u767a\u5efa\u8a2d\u90e8","boring_xml_url":47,"boring_view_url":1,"soilmap_view_url":null,"soiltest_xml_url":0,"soiltest_view_url":0},{"id":134151,"code":"B4KJ201801002-2400","latitude":"44.75783","longitude":"142.05475","source_code":"HK200981250003030009","project_name":"\u4f50\u4e45\u7bc9\u5824","survey_name":"\u5929\u5869\u5ddd\u4e0a\u6d41\u7f8e\u6df1\u5730\u533a\u5916\u5824\u9632\u8cea\u7684\u6574\u5099\u8a73\u7d30\u70b9\u691c\u696d\u52d9","client_name":"\u56fd\u571f\u4ea4\u901a\u7701\u5317\u6d77\u9053\u958b\u767a\u5c40\u65ed\u5ddd\u958b\u767a\u5efa\u8a2d\u90e8","boring_xml_url":47,"boring_view_url":1,"soilmap_view_url":null,"soiltest_xml_url":0,"soiltest_view_url":0},{"id":134150,"code":"B4KJ201801002-2399","latitude":"44.75783","longitude":"142.05475","source_code":"HK200981250003030008","project_name":"\u4f50\u4e45\u7bc9\u5824","survey_name":"\u5929\u5869\u5ddd\u4e0a\u6d41\u7f8e\u6df1\u5730\u533a\u5916\u5824\u9632\u8cea\u7684\u6574\u5099\u8a73\u7d30\u70b9\u691c\u696d\u52d9","client_name":"\u56fd\u571f\u4ea4\u901a\u7701\u5317\u6d77\u9053\u958b\u767a\u5c40\u65ed\u5ddd\u958b\u767a\u5efa\u8a2d\u90e8","boring_xml_url":47,"boring_view_url":1,"soilmap_view_url":null,"soiltest_xml_url":0,"soiltest_view_url":0},{"id":134149,"code":"B4KJ201801002-2398","latitude":"44.75783","longitude":"142.05475","source_code":"HK200981250003030007","project_name":"\u4f50\u4e45\u7bc9\u5824","survey_name":"\u5929\u5869\u5ddd\u4e0a\u6d41\u7f8e\u6df1\u5730\u533a\u5916\u5824\u9632\u8cea\u7684\u6574\u5099\u8a73\u7d30\u70b9\u691c\u696d\u52d9","client_name":"\u56fd\u571f\u4ea4\u901a\u7701\u5317\u6d77\u9053\u958b\u767a\u5c40\u65ed\u5ddd\u958b\u767a\u5efa\u8a2d\u90e8","boring_xml_url":47,"boring_view_url":1,"soilmap_view_url":null,"soiltest_xml_url":0,"soiltest_view_url":0},{"id":134148,"code":"B4KJ201801002-2397","latitude":"44.6067","longitude":"142.305","source_code":"HK200981250003030006","project_name":"\u5c0f\u8eca\u7bc9\u5824","survey_name":"\u5929\u5869\u5ddd\u4e0a\u6d41\u7f8e\u6df1\u5730\u533a\u5916\u5824\u9632\u8cea\u7684\u6574\u5099\u8a73\u7d30\u70b9\u691c\u696d\u52d9","client_name":"\u56fd\u571f\u4ea4\u901a\u7701\u5317\u6d77\u9053\u958b\u767a\u5c40\u65ed\u5ddd\u958b\u767a\u5efa\u8a2d\u90e8","boring_xml_url":47,"boring_view_url":1,"soilmap_view_url":null,"soiltest_xml_url":0,"soiltest_view_url":0},{"id":134147,"code":"B4KJ201801002-2396","latitude":"44.6067","longitude":"142.305","source_code":"HK200981250003030005","project_name":"\u5c0f\u8eca\u7bc9\u5824","survey_name":"\u5929\u5869\u5ddd\u4e0a\u6d41\u7f8e\u6df1\u5730\u533a\u5916\u5824\u9632\u8cea\u7684\u6574\u5099\u8a73\u7d30\u70b9\u691c\u696d\u52d9","client_name":"\u56fd\u571f\u4ea4\u901a\u7701\u5317\u6d77\u9053\u958b\u767a\u5c40\u65ed\u5ddd\u958b\u767a\u5efa\u8a2d\u90e8","boring_xml_url":47,"boring_view_url":1,"soilmap_view_url":null,"soiltest_xml_url":0,"soiltest_view_url":0},{"id":134146,"code":"B4KJ201801002-2395","latitude":"44.6067","longitude":"142.305","source_code":"HK200981250003030004","project_name":"\u5c0f\u8eca\u7bc9\u5824","survey_name":"\u5929\u5869\u5ddd\u4e0a\u6d41\u7f8e\u6df1\u5730\u533a\u5916\u5824\u9632\u8cea\u7684\u6574\u5099\u8a73\u7d30\u70b9\u691c\u696d\u52d9","client_name":"\u56fd\u571f\u4ea4\u901a\u7701\u5317\u6d77\u9053\u958b\u767a\u5c40\u65ed\u5ddd\u958b\u767a\u5efa\u8a2d\u90e8","boring_xml_url":47,"boring_view_url":1,"soilmap_view_url":null,"soiltest_xml_url":0,"soiltest_view_url":0},{"id":134145,"code":"B4KJ201801002-2394","latitude":"44.7219","longitude":"142.2592","source_code":"HK200981250003030003","project_name":"\u8328\u5185\u7bc9\u5824","survey_name":"\u5929\u5869\u5ddd\u4e0a\u6d41\u7f8e\u6df1\u5730\u533a\u5916\u5824\u9632\u8cea\u7684\u6574\u5099\u8a73\u7d30\u70b9\u691c\u696d\u52d9","client_name":"\u56fd\u571f\u4ea4\u901a\u7701\u5317\u6d77\u9053\u958b\u767a\u5c40\u65ed\u5ddd\u958b\u767a\u5efa\u8a2d\u90e8","boring_xml_url":47,"boring_view_url":1,"soilmap_view_url":null,"soiltest_xml_url":0,"soiltest_view_url":0},{"id":134144,"code":"B4KJ201801002-2393","latitude":"44.7219","longitude":"142.2592","source_code":"HK200981250003030002","project_name":"\u8328\u5185\u7bc9\u5824","survey_name":"\u5929\u5869\u5ddd\u4e0a\u6d41\u7f8e\u6df1\u5730\u533a\u5916\u5824\u9632\u8cea\u7684\u6574\u5099\u8a73\u7d30\u70b9\u691c\u696d\u52d9","client_name":"\u56fd\u571f\u4ea4\u901a\u7701\u5317\u6d77\u9053\u958b\u767a\u5c40\u65ed\u5ddd\u958b\u767a\u5efa\u8a2d\u90e8","boring_xml_url":47,"boring_view_url":1,"soilmap_view_url":null,"soiltest_xml_url":0,"soiltest_view_url":0},{"id":134143,"code":"B4KJ201801002-2392","latitude":"44.7219","longitude":"142.2592","source_code":"HK200981250003030001","project_name":"\u8328\u5185\u7bc9\u5824","survey_name":"\u5929\u5869\u5ddd\u4e0a\u6d41\u7f8e\u6df1\u5730\u533a\u5916\u5824\u9632\u8cea\u7684\u6574\u5099\u8a73\u7d30\u70b9\u691c\u696d\u52d9","client_name":"\u56fd\u571f\u4ea4\u901a\u7701\u5317\u6d77\u9053\u958b\u767a\u5c40\u65ed\u5ddd\u958b\u767a\u5efa\u8a2d\u90e8","boring_xml_url":47,"boring_view_url":1,"soilmap_view_url":null,"soiltest_xml_url":0,"soiltest_view_url":0},{"id":134142,"code":"B4KJ201801002-2391","latitude":"43.22903058","longitude":"142.3797992","source_code":"HK200981250003020024","project_name":"","survey_name":"\u5e73\u621018\u5e74\u5ea6\u65bd\u884c\u77f3\u72e9\u5ddd\u4e0a\u6d41\u7a7a\u77e5\u5ddd\u5730\u533a\u5824\u9632\u8cea\u7684\u6574\u5099\u8a73\u7d30\u70b9\u691c\u696d\u52d9","client_name":"\u56fd\u571f\u4ea4\u901a\u7701\u5317\u6d77\u9053\u958b\u767a\u5c40\u65ed\u5ddd\u958b\u767a\u5efa\u8a2d\u90e8","boring_xml_url":47,"boring_view_url":1,"soilmap_view_url":null,"soiltest_xml_url":0,"soiltest_view_url":0},{"id":134141,"code":"B4KJ201801002-2390","latitude":"43.22917525","longitude":"142.3798394","source_code":"HK200981250003020023","project_name":"","survey_name":"\u5e73\u621018\u5e74\u5ea6\u65bd\u884c\u77f3\u72e9\u5ddd\u4e0a\u6d41\u7a7a\u77e5\u5ddd\u5730\u533a\u5824\u9632\u8cea\u7684\u6574\u5099\u8a73\u7d30\u70b9\u691c\u696d\u52d9","client_name":"\u56fd\u571f\u4ea4\u901a\u7701\u5317\u6d77\u9053\u958b\u767a\u5c40\u65ed\u5ddd\u958b\u767a\u5efa\u8a2d\u90e8","boring_xml_url":47,"boring_view_url":1,"soilmap_view_url":null,"soiltest_xml_url":0,"soiltest_view_url":0},{"id":134140,"code":"B4KJ201801002-2389","latitude":"43.22910064","longitude":"142.3798167","source_code":"HK200981250003020022","project_name":"","survey_name":"\u5e73\u621018\u5e74\u5ea6\u65bd\u884c\u77f3\u72e9\u5ddd\u4e0a\u6d41\u7a7a\u77e5\u5ddd\u5730\u533a\u5824\u9632\u8cea\u7684\u6574\u5099\u8a73\u7d30\u70b9\u691c\u696d\u52d9","client_name":"\u56fd\u571f\u4ea4\u901a\u7701\u5317\u6d77\u9053\u958b\u767a\u5c40\u65ed\u5ddd\u958b\u767a\u5efa\u8a2d\u90e8","boring_xml_url":47,"boring_view_url":1,"soilmap_view_url":null,"soiltest_xml_url":0,"soiltest_view_url":0},{"id":134139,"code":"B4KJ201801002-2388","latitude":"43.23775058","longitude":"142.3885897","source_code":"HK200981250003020021","project_name":"","survey_name":"\u5e73\u621018\u5e74\u5ea6\u65bd\u884c\u77f3\u72e9\u5ddd\u4e0a\u6d41\u7a7a\u77e5\u5ddd\u5730\u533a\u5824\u9632\u8cea\u7684\u6574\u5099\u8a73\u7d30\u70b9\u691c\u696d\u52d9","client_name":"\u56fd\u571f\u4ea4\u901a\u7701\u5317\u6d77\u9053\u958b\u767a\u5c40\u65ed\u5ddd\u958b\u767a\u5efa\u8a2d\u90e8","boring_xml_url":47,"boring_view_url":1,"soilmap_view_url":null,"soiltest_xml_url":0,"soiltest_view_url":0},{"id":134138,"code":"B4KJ201801002-2387","latitude":"43.23787108","longitude":"142.3884364","source_code":"HK200981250003020020","project_name":"","survey_name":"\u5e73\u621018\u5e74\u5ea6\u65bd\u884c\u77f3\u72e9\u5ddd\u4e0a\u6d41\u7a7a\u77e5\u5ddd\u5730\u533a\u5824\u9632\u8cea\u7684\u6574\u5099\u8a73\u7d30\u70b9\u691c\u696d\u52d9","client_name":"\u56fd\u571f\u4ea4\u901a\u7701\u5317\u6d77\u9053\u958b\u767a\u5c40\u65ed\u5ddd\u958b\u767a\u5efa\u8a2d\u90e8","boring_xml_url":47,"boring_view_url":1,"soilmap_view_url":null,"soiltest_xml_url":0,"soiltest_view_url":0},{"id":134137,"code":"B4KJ201801002-2386","latitude":"43.23781336","longitude":"142.3884928","source_code":"HK200981250003020019","project_name":"","survey_name":"\u5e73\u621018\u5e74\u5ea6\u65bd\u884c\u77f3\u72e9\u5ddd\u4e0a\u6d41\u7a7a\u77e5\u5ddd\u5730\u533a\u5824\u9632\u8cea\u7684\u6574\u5099\u8a73\u7d30\u70b9\u691c\u696d\u52d9","client_name":"\u56fd\u571f\u4ea4\u901a\u7701\u5317\u6d77\u9053\u958b\u767a\u5c40\u65ed\u5ddd\u958b\u767a\u5efa\u8a2d\u90e8","boring_xml_url":47,"boring_view_url":1,"soilmap_view_url":null,"soiltest_xml_url":0,"soiltest_view_url":0},{"id":134136,"code":"B4KJ201801002-2385","latitude":"43.25970411","longitude":"142.3936075","source_code":"HK200981250003020018","project_name":"","survey_name":"\u5e73\u621018\u5e74\u5ea6\u65bd\u884c\u77f3\u72e9\u5ddd\u4e0a\u6d41\u7a7a\u77e5\u5ddd\u5730\u533a\u5824\u9632\u8cea\u7684\u6574\u5099\u8a73\u7d30\u70b9\u691c\u696d\u52d9","client_name":"\u56fd\u571f\u4ea4\u901a\u7701\u5317\u6d77\u9053\u958b\u767a\u5c40\u65ed\u5ddd\u958b\u767a\u5efa\u8a2d\u90e8","boring_xml_url":47,"boring_view_url":1,"soilmap_view_url":null,"soiltest_xml_url":0,"soiltest_view_url":0},{"id":134135,"code":"B4KJ201801002-2384","latitude":"43.25969617","longitude":"142.3934389","source_code":"HK200981250003020017","project_name":"","survey_name":"\u5e73\u621018\u5e74\u5ea6\u65bd\u884c\u77f3\u72e9\u5ddd\u4e0a\u6d41\u7a7a\u77e5\u5ddd\u5730\u533a\u5824\u9632\u8cea\u7684\u6574\u5099\u8a73\u7d30\u70b9\u691c\u696d\u52d9","client_name":"\u56fd\u571f\u4ea4\u901a\u7701\u5317\u6d77\u9053\u958b\u767a\u5c40\u65ed\u5ddd\u958b\u767a\u5efa\u8a2d\u90e8","boring_xml_url":47,"boring_view_url":1,"soilmap_view_url":null,"soiltest_xml_url":0,"soiltest_view_url":0},{"id":134134,"code":"B4KJ201801002-2383","latitude":"43.25969878","longitude":"142.3934944","source_code":"HK200981250003020016","project_name":"","survey_name":"\u5e73\u621018\u5e74\u5ea6\u65bd\u884c\u77f3\u72e9\u5ddd\u4e0a\u6d41\u7a7a\u77e5\u5ddd\u5730\u533a\u5824\u9632\u8cea\u7684\u6574\u5099\u8a73\u7d30\u70b9\u691c\u696d\u52d9","client_name":"\u56fd\u571f\u4ea4\u901a\u7701\u5317\u6d77\u9053\u958b\u767a\u5c40\u65ed\u5ddd\u958b\u767a\u5efa\u8a2d\u90e8","boring_xml_url":47,"boring_view_url":1,"soilmap_view_url":null,"soiltest_xml_url":0,"soiltest_view_url":0},{"id":134133,"code":"B4KJ201801002-2382","latitude":"43.33415606","longitude":"142.3883489","source_code":"HK200981250003020015","project_name":"","survey_name":"\u5e73\u621018\u5e74\u5ea6\u65bd\u884c\u77f3\u72e9\u5ddd\u4e0a\u6d41\u7a7a\u77e5\u5ddd\u5730\u533a\u5824\u9632\u8cea\u7684\u6574\u5099\u8a73\u7d30\u70b9\u691c\u696d\u52d9","client_name":"\u56fd\u571f\u4ea4\u901a\u7701\u5317\u6d77\u9053\u958b\u767a\u5c40\u65ed\u5ddd\u958b\u767a\u5efa\u8a2d\u90e8","boring_xml_url":47,"boring_view_url":1,"soilmap_view_url":null,"soiltest_xml_url":0,"soiltest_view_url":0},{"id":134132,"code":"B4KJ201801002-2381","latitude":"43.33415664","longitude":"142.3881508","source_code":"HK200981250003020014","project_name":"","survey_name":"\u5e73\u621018\u5e74\u5ea6\u65bd\u884c\u77f3\u72e9\u5ddd\u4e0a\u6d41\u7a7a\u77e5\u5ddd\u5730\u533a\u5824\u9632\u8cea\u7684\u6574\u5099\u8a73\u7d30\u70b9\u691c\u696d\u52d9","client_name":"\u56fd\u571f\u4ea4\u901a\u7701\u5317\u6d77\u9053\u958b\u767a\u5c40\u65ed\u5ddd\u958b\u767a\u5efa\u8a2d\u90e8","boring_xml_url":47,"boring_view_url":1,"soilmap_view_url":null,"soiltest_xml_url":0,"soiltest_view_url":0},{"id":134131,"code":"B4KJ201801002-2380","latitude":"43.33415303","longitude":"142.3882639","source_code":"HK200981250003020013","project_name":"","survey_name":"\u5e73\u621018\u5e74\u5ea6\u65bd\u884c\u77f3\u72e9\u5ddd\u4e0a\u6d41\u7a7a\u77e5\u5ddd\u5730\u533a\u5824\u9632\u8cea\u7684\u6574\u5099\u8a73\u7d30\u70b9\u691c\u696d\u52d9","client_name":"\u56fd\u571f\u4ea4\u901a\u7701\u5317\u6d77\u9053\u958b\u767a\u5c40\u65ed\u5ddd\u958b\u767a\u5efa\u8a2d\u90e8","boring_xml_url":47,"boring_view_url":1,"soilmap_view_url":null,"soiltest_xml_url":0,"soiltest_view_url":0},{"id":134130,"code":"B4KJ201801002-2379","latitude":"43.3461855","longitude":"142.372945","source_code":"HK200981250003020012","project_name":"","survey_name":"\u5e73\u621018\u5e74\u5ea6\u65bd\u884c\u77f3\u72e9\u5ddd\u4e0a\u6d41\u7a7a\u77e5\u5ddd\u5730\u533a\u5824\u9632\u8cea\u7684\u6574\u5099\u8a73\u7d30\u70b9\u691c\u696d\u52d9","client_name":"\u56fd\u571f\u4ea4\u901a\u7701\u5317\u6d77\u9053\u958b\u767a\u5c40\u65ed\u5ddd\u958b\u767a\u5efa\u8a2d\u90e8","boring_xml_url":47,"boring_view_url":1,"soilmap_view_url":null,"soiltest_xml_url":0,"soiltest_view_url":0},{"id":134129,"code":"B4KJ201801002-2378","latitude":"43.34616703","longitude":"142.3727336","source_code":"HK200981250003020011","project_name":"","survey_name":"\u5e73\u621018\u5e74\u5ea6\u65bd\u884c\u77f3\u72e9\u5ddd\u4e0a\u6d41\u7a7a\u77e5\u5ddd\u5730\u533a\u5824\u9632\u8cea\u7684\u6574\u5099\u8a73\u7d30\u70b9\u691c\u696d\u52d9","client_name":"\u56fd\u571f\u4ea4\u901a\u7701\u5317\u6d77\u9053\u958b\u767a\u5c40\u65ed\u5ddd\u958b\u767a\u5efa\u8a2d\u90e8","boring_xml_url":47,"boring_view_url":1,"soilmap_view_url":null,"soiltest_xml_url":0,"soiltest_view_url":0},{"id":134128,"code":"B4KJ201801002-2377","latitude":"43.34617536","longitude":"142.3728039","source_code":"HK200981250003020010","project_name":"","survey_name":"\u5e73\u621018\u5e74\u5ea6\u65bd\u884c\u77f3\u72e9\u5ddd\u4e0a\u6d41\u7a7a\u77e5\u5ddd\u5730\u533a\u5824\u9632\u8cea\u7684\u6574\u5099\u8a73\u7d30\u70b9\u691c\u696d\u52d9","client_name":"\u56fd\u571f\u4ea4\u901a\u7701\u5317\u6d77\u9053\u958b\u767a\u5c40\u65ed\u5ddd\u958b\u767a\u5efa\u8a2d\u90e8","boring_xml_url":47,"boring_view_url":1,"soilmap_view_url":null,"soiltest_xml_url":0,"soiltest_view_url":0},{"id":134127,"code":"B4KJ201801002-2376","latitude":"43.36084414","longitude":"142.3643236","source_code":"HK200981250003020009","project_name":"","survey_name":"\u5e73\u621018\u5e74\u5ea6\u65bd\u884c\u77f3\u72e9\u5ddd\u4e0a\u6d41\u7a7a\u77e5\u5ddd\u5730\u533a\u5824\u9632\u8cea\u7684\u6574\u5099\u8a73\u7d30\u70b9\u691c\u696d\u52d9","client_name":"\u56fd\u571f\u4ea4\u901a\u7701\u5317\u6d77\u9053\u958b\u767a\u5c40\u65ed\u5ddd\u958b\u767a\u5efa\u8a2d\u90e8","boring_xml_url":47,"boring_view_url":1,"soilmap_view_url":null,"soiltest_xml_url":0,"soiltest_view_url":0},{"id":134126,"code":"B4KJ201801002-2375","latitude":"43.36076383","longitude":"142.3641675","source_code":"HK200981250003020008","project_name":"","survey_name":"\u5e73\u621018\u5e74\u5ea6\u65bd\u884c\u77f3\u72e9\u5ddd\u4e0a\u6d41\u7a7a\u77e5\u5ddd\u5730\u533a\u5824\u9632\u8cea\u7684\u6574\u5099\u8a73\u7d30\u70b9\u691c\u696d\u52d9","client_name":"\u56fd\u571f\u4ea4\u901a\u7701\u5317\u6d77\u9053\u958b\u767a\u5c40\u65ed\u5ddd\u958b\u767a\u5efa\u8a2d\u90e8","boring_xml_url":47,"boring_view_url":1,"soilmap_view_url":null,"soiltest_xml_url":0,"soiltest_view_url":0}]}}