{"header":{"xyz":{"source":[],"mosaic":false},"page":6220,"raw":{"soiltest_result":"0","bbox":"57.598333,109.544722,1.933333,163.806111","page":"6220"},"conditions":{"soiltest_result":0,"north":57.598333,"west":109.544722,"south":1.933333,"east":163.806111},"success":true,"message":""},"data":{"meta":{"total":212844,"page":6220,"pages":7095,"count":30},"values":[{"id":133975,"code":"B4KJ201801002-2224","latitude":"42.9612","longitude":"140.877994","source_code":"HK20072408350010","project_name":"\u4e00\u822c\u56fd\u90535\u53f7\u862d\u8d8a\u753a\u76ee\u540d\u5730\u8cea\u8abf\u67fb\u5916\u4e00\u9023\u696d\u52d9","survey_name":"\u4e00\u822c\u56fd\u90535\u53f7\u862d\u8d8a\u753a\u76ee\u540d\u5730\u8cea\u8abf\u67fb\u5916\u4e00\u9023\u696d\u52d9","client_name":"\u56fd\u571f\u4ea4\u901a\u7701\u5317\u6d77\u9053\u958b\u767a\u5c40\u5c0f\u6a3d\u958b\u767a\u5efa\u8a2d\u90e8\u5036\u77e5\u5b89\u9053\u8def\u4e8b\u52d9\u6240","boring_xml_url":43,"boring_view_url":1,"soilmap_view_url":null,"soiltest_xml_url":44,"soiltest_view_url":44},{"id":133974,"code":"B4KJ201801002-2223","latitude":"42.960864","longitude":"140.877372","source_code":"HK20072408350009","project_name":"\u4e00\u822c\u56fd\u90535\u53f7\u862d\u8d8a\u753a\u76ee\u540d\u5730\u8cea\u8abf\u67fb\u5916\u4e00\u9023\u696d\u52d9","survey_name":"\u4e00\u822c\u56fd\u90535\u53f7\u862d\u8d8a\u753a\u76ee\u540d\u5730\u8cea\u8abf\u67fb\u5916\u4e00\u9023\u696d\u52d9","client_name":"\u56fd\u571f\u4ea4\u901a\u7701\u5317\u6d77\u9053\u958b\u767a\u5c40\u5c0f\u6a3d\u958b\u767a\u5efa\u8a2d\u90e8\u5036\u77e5\u5b89\u9053\u8def\u4e8b\u52d9\u6240","boring_xml_url":43,"boring_view_url":1,"soilmap_view_url":null,"soiltest_xml_url":44,"soiltest_view_url":44},{"id":133973,"code":"B4KJ201801002-2222","latitude":"42.959128","longitude":"140.878111","source_code":"HK20072408350008","project_name":"\u4e00\u822c\u56fd\u90535\u53f7\u862d\u8d8a\u753a\u76ee\u540d\u5730\u8cea\u8abf\u67fb\u5916\u4e00\u9023\u696d\u52d9","survey_name":"\u4e00\u822c\u56fd\u90535\u53f7\u862d\u8d8a\u753a\u76ee\u540d\u5730\u8cea\u8abf\u67fb\u5916\u4e00\u9023\u696d\u52d9","client_name":"\u56fd\u571f\u4ea4\u901a\u7701\u5317\u6d77\u9053\u958b\u767a\u5c40\u5c0f\u6a3d\u958b\u767a\u5efa\u8a2d\u90e8\u5036\u77e5\u5b89\u9053\u8def\u4e8b\u52d9\u6240","boring_xml_url":43,"boring_view_url":1,"soilmap_view_url":null,"soiltest_xml_url":44,"soiltest_view_url":44},{"id":133972,"code":"B4KJ201801002-2221","latitude":"42.412886","longitude":"139.99465","source_code":"HK20072301440025","project_name":"\u5e73\u621019\u5e74\u5ea6","survey_name":"\u5f8c\u5fd7\u5229\u5225\u5ddd\u6a0b\u9580\u4e8b\u524d\u8abf\u67fb\u696d\u52d9","client_name":"\u56fd\u571f\u4ea4\u901a\u7701\u5317\u6d77\u9053\u958b\u767a\u5c40\u51fd\u9928\u958b\u767a\u5efa\u8a2d\u90e8","boring_xml_url":43,"boring_view_url":1,"soilmap_view_url":null,"soiltest_xml_url":0,"soiltest_view_url":0},{"id":133971,"code":"B4KJ201801002-2220","latitude":"42.412903","longitude":"139.994717","source_code":"HK20072301440023","project_name":"\u5e73\u621019\u5e74\u5ea6","survey_name":"\u5f8c\u5fd7\u5229\u5225\u5ddd\u6a0b\u9580\u4e8b\u524d\u8abf\u67fb\u696d\u52d9","client_name":"\u56fd\u571f\u4ea4\u901a\u7701\u5317\u6d77\u9053\u958b\u767a\u5c40\u51fd\u9928\u958b\u767a\u5efa\u8a2d\u90e8","boring_xml_url":43,"boring_view_url":1,"soilmap_view_url":null,"soiltest_xml_url":0,"soiltest_view_url":0},{"id":133970,"code":"B4KJ201801002-2219","latitude":"42.412753","longitude":"139.994397","source_code":"HK20072301440021","project_name":"\u5e73\u621019\u5e74\u5ea6","survey_name":"\u5f8c\u5fd7\u5229\u5225\u5ddd\u6a0b\u9580\u4e8b\u524d\u8abf\u67fb\u696d\u52d9","client_name":"\u56fd\u571f\u4ea4\u901a\u7701\u5317\u6d77\u9053\u958b\u767a\u5c40\u51fd\u9928\u958b\u767a\u5efa\u8a2d\u90e8","boring_xml_url":43,"boring_view_url":1,"soilmap_view_url":null,"soiltest_xml_url":0,"soiltest_view_url":0},{"id":133969,"code":"B4KJ201801002-2218","latitude":"42.422308","longitude":"140.015625","source_code":"HK20072301440020","project_name":"\u5e73\u621019\u5e74\u5ea6","survey_name":"\u5f8c\u5fd7\u5229\u5225\u5ddd\u6a0b\u9580\u4e8b\u524d\u8abf\u67fb\u696d\u52d9","client_name":"\u56fd\u571f\u4ea4\u901a\u7701\u5317\u6d77\u9053\u958b\u767a\u5c40\u51fd\u9928\u958b\u767a\u5efa\u8a2d\u90e8","boring_xml_url":43,"boring_view_url":1,"soilmap_view_url":null,"soiltest_xml_url":0,"soiltest_view_url":0},{"id":133968,"code":"B4KJ201801002-2217","latitude":"42.422514","longitude":"140.015675","source_code":"HK20072301440019","project_name":"\u5e73\u621019\u5e74\u5ea6","survey_name":"\u5f8c\u5fd7\u5229\u5225\u5ddd\u6a0b\u9580\u4e8b\u524d\u8abf\u67fb\u696d\u52d9","client_name":"\u56fd\u571f\u4ea4\u901a\u7701\u5317\u6d77\u9053\u958b\u767a\u5c40\u51fd\u9928\u958b\u767a\u5efa\u8a2d\u90e8","boring_xml_url":43,"boring_view_url":1,"soilmap_view_url":null,"soiltest_xml_url":0,"soiltest_view_url":0},{"id":133967,"code":"B4KJ201801002-2216","latitude":"42.422542","longitude":"140.0157","source_code":"HK20072301440016","project_name":"\u5e73\u621019\u5e74\u5ea6","survey_name":"\u5f8c\u5fd7\u5229\u5225\u5ddd\u6a0b\u9580\u4e8b\u524d\u8abf\u67fb\u696d\u52d9","client_name":"\u56fd\u571f\u4ea4\u901a\u7701\u5317\u6d77\u9053\u958b\u767a\u5c40\u51fd\u9928\u958b\u767a\u5efa\u8a2d\u90e8","boring_xml_url":43,"boring_view_url":1,"soilmap_view_url":null,"soiltest_xml_url":0,"soiltest_view_url":0},{"id":133966,"code":"B4KJ201801002-2215","latitude":"42.419589","longitude":"139.999097","source_code":"HK20072301440015","project_name":"\u5e73\u621019\u5e74\u5ea6","survey_name":"\u5f8c\u5fd7\u5229\u5225\u5ddd\u6a0b\u9580\u4e8b\u524d\u8abf\u67fb\u696d\u52d9","client_name":"\u56fd\u571f\u4ea4\u901a\u7701\u5317\u6d77\u9053\u958b\u767a\u5c40\u51fd\u9928\u958b\u767a\u5efa\u8a2d\u90e8","boring_xml_url":43,"boring_view_url":1,"soilmap_view_url":null,"soiltest_xml_url":0,"soiltest_view_url":0},{"id":133965,"code":"B4KJ201801002-2214","latitude":"42.419461","longitude":"139.999225","source_code":"HK20072301440014","project_name":"\u5e73\u621019\u5e74\u5ea6","survey_name":"\u5f8c\u5fd7\u5229\u5225\u5ddd\u6a0b\u9580\u4e8b\u524d\u8abf\u67fb\u696d\u52d9","client_name":"\u56fd\u571f\u4ea4\u901a\u7701\u5317\u6d77\u9053\u958b\u767a\u5c40\u51fd\u9928\u958b\u767a\u5efa\u8a2d\u90e8","boring_xml_url":43,"boring_view_url":1,"soilmap_view_url":null,"soiltest_xml_url":0,"soiltest_view_url":0},{"id":133964,"code":"B4KJ201801002-2213","latitude":"42.419683","longitude":"139.999203","source_code":"HK20072301440013","project_name":"\u5e73\u621019\u5e74\u5ea6","survey_name":"\u5f8c\u5fd7\u5229\u5225\u5ddd\u6a0b\u9580\u4e8b\u524d\u8abf\u67fb\u696d\u52d9","client_name":"\u56fd\u571f\u4ea4\u901a\u7701\u5317\u6d77\u9053\u958b\u767a\u5c40\u51fd\u9928\u958b\u767a\u5efa\u8a2d\u90e8","boring_xml_url":43,"boring_view_url":1,"soilmap_view_url":null,"soiltest_xml_url":0,"soiltest_view_url":0},{"id":133963,"code":"B4KJ201801002-2212","latitude":"42.419497","longitude":"139.999389","source_code":"HK20072301440011","project_name":"\u5e73\u621019\u5e74\u5ea6","survey_name":"\u5f8c\u5fd7\u5229\u5225\u5ddd\u6a0b\u9580\u4e8b\u524d\u8abf\u67fb\u696d\u52d9","client_name":"\u56fd\u571f\u4ea4\u901a\u7701\u5317\u6d77\u9053\u958b\u767a\u5c40\u51fd\u9928\u958b\u767a\u5efa\u8a2d\u90e8","boring_xml_url":43,"boring_view_url":1,"soilmap_view_url":null,"soiltest_xml_url":0,"soiltest_view_url":0},{"id":133962,"code":"B4KJ201801002-2211","latitude":"42.407547","longitude":"139.887692","source_code":"HK20072301440008","project_name":"\u5e73\u621019\u5e74\u5ea6","survey_name":"\u5f8c\u5fd7\u5229\u5225\u5ddd \u6a0b\u9580\u4e8b\u524d\u8abf\u67fb\u696d\u52d9","client_name":"\u56fd\u571f\u4ea4\u901a\u7701\u5317\u6d77\u9053\u958b\u767a\u5c40\u51fd\u9928\u958b\u767a\u5efa\u8a2d\u90e8","boring_xml_url":43,"boring_view_url":1,"soilmap_view_url":null,"soiltest_xml_url":0,"soiltest_view_url":0},{"id":133961,"code":"B4KJ201801002-2210","latitude":"42.407394","longitude":"139.887578","source_code":"HK20072301440007","project_name":"\u5e73\u621019\u5e74\u5ea6","survey_name":"\u5f8c\u5fd7\u5229\u5225\u5ddd \u6a0b\u9580\u4e8b\u524d\u8abf\u67fb\u696d\u52d9","client_name":"\u56fd\u571f\u4ea4\u901a\u7701\u5317\u6d77\u9053\u958b\u767a\u5c40\u51fd\u9928\u958b\u767a\u5efa\u8a2d\u90e8","boring_xml_url":43,"boring_view_url":1,"soilmap_view_url":null,"soiltest_xml_url":0,"soiltest_view_url":0},{"id":133960,"code":"B4KJ201801002-2209","latitude":"42.407392","longitude":"139.887797","source_code":"HK20072301440006","project_name":"\u5e73\u621019\u5e74\u5ea6","survey_name":"\u5f8c\u5fd7\u5229\u5225\u5ddd \u6a0b\u9580\u4e8b\u524d\u8abf\u67fb\u696d\u52d9","client_name":"\u56fd\u571f\u4ea4\u901a\u7701\u5317\u6d77\u9053\u958b\u767a\u5c40\u51fd\u9928\u958b\u767a\u5efa\u8a2d\u90e8","boring_xml_url":43,"boring_view_url":1,"soilmap_view_url":null,"soiltest_xml_url":0,"soiltest_view_url":0},{"id":133959,"code":"B4KJ201801002-2208","latitude":"42.407206","longitude":"139.870839","source_code":"HK20072301440003","project_name":"\u5e73\u621019\u5e74\u5ea6","survey_name":"\u5f8c\u5fd7\u5229\u5225\u5ddd\u6a0b\u9580\u4e8b\u524d\u8abf\u67fb\u696d\u52d9","client_name":"\u56fd\u571f\u4ea4\u901a\u7701\u5317\u6d77\u9053\u958b\u767a\u5c40\u51fd\u9928\u958b\u767a\u5efa\u8a2d\u90e8","boring_xml_url":43,"boring_view_url":1,"soilmap_view_url":null,"soiltest_xml_url":0,"soiltest_view_url":0},{"id":133958,"code":"B4KJ201801002-2207","latitude":"42.407","longitude":"139.870706","source_code":"HK20072301440001","project_name":"\u5e73\u621019\u5e74\u5ea6","survey_name":"\u5f8c\u5fd7\u5229\u5225\u5ddd\u6a0b\u9580\u4e8b\u524d\u8abf\u67fb\u696d\u52d9","client_name":"\u56fd\u571f\u4ea4\u901a\u7701\u5317\u6d77\u9053\u958b\u767a\u5c40\u51fd\u9928\u958b\u767a\u5efa\u8a2d\u90e8","boring_xml_url":43,"boring_view_url":1,"soilmap_view_url":null,"soiltest_xml_url":0,"soiltest_view_url":0},{"id":133957,"code":"B4KJ201801002-2206","latitude":"43.020081","longitude":"142.105322","source_code":"HK20072225090012","project_name":"\u5915\u5f35\u30b7\u30e5\u30fc\u30d1\u30ed\u30c0\u30e0","survey_name":"\u57fa\u790e\u8a55\u4fa1\u89e3\u6790\u691c\u8a0e\u696d\u52d9","client_name":"\u56fd\u571f\u4ea4\u901a\u7701\u5317\u6d77\u9053\u958b\u767a\u5c40\u77f3\u72e9\u5ddd\u958b\u767a\u5efa\u8a2d\u90e8","boring_xml_url":43,"boring_view_url":1,"soilmap_view_url":null,"soiltest_xml_url":0,"soiltest_view_url":0},{"id":133956,"code":"B4KJ201801002-2205","latitude":"43.019864","longitude":"142.105558","source_code":"HK20072225090011","project_name":"\u5915\u5f35\u30b7\u30e5\u30fc\u30d1\u30ed\u30c0\u30e0","survey_name":"\u57fa\u790e\u8a55\u4fa1\u89e3\u6790\u691c\u8a0e\u696d\u52d9","client_name":"\u56fd\u571f\u4ea4\u901a\u7701\u5317\u6d77\u9053\u958b\u767a\u5c40\u77f3\u72e9\u5ddd\u958b\u767a\u5efa\u8a2d\u90e8","boring_xml_url":43,"boring_view_url":1,"soilmap_view_url":null,"soiltest_xml_url":0,"soiltest_view_url":0},{"id":133955,"code":"B4KJ201801002-2204","latitude":"43.019919","longitude":"142.105383","source_code":"HK20072225090010","project_name":"\u5915\u5f35\u30b7\u30e5\u30fc\u30d1\u30ed\u30c0\u30e0","survey_name":"\u57fa\u790e\u8a55\u4fa1\u89e3\u6790\u691c\u8a0e\u696d\u52d9","client_name":"\u56fd\u571f\u4ea4\u901a\u7701\u5317\u6d77\u9053\u958b\u767a\u5c40\u77f3\u72e9\u5ddd\u958b\u767a\u5efa\u8a2d\u90e8","boring_xml_url":43,"boring_view_url":1,"soilmap_view_url":null,"soiltest_xml_url":0,"soiltest_view_url":0},{"id":133954,"code":"B4KJ201801002-2203","latitude":"43.019975","longitude":"142.105208","source_code":"HK20072225090009","project_name":"\u5915\u5f35\u30b7\u30e5\u30fc\u30d1\u30ed\u30c0\u30e0","survey_name":"\u57fa\u790e\u8a55\u4fa1\u89e3\u6790\u691c\u8a0e\u696d\u52d9","client_name":"\u56fd\u571f\u4ea4\u901a\u7701\u5317\u6d77\u9053\u958b\u767a\u5c40\u77f3\u72e9\u5ddd\u958b\u767a\u5efa\u8a2d\u90e8","boring_xml_url":43,"boring_view_url":1,"soilmap_view_url":null,"soiltest_xml_url":0,"soiltest_view_url":0},{"id":133953,"code":"B4KJ201801002-2202","latitude":"43.02","longitude":"142.105267","source_code":"HK20072225090008","project_name":"\u5915\u5f35\u30b7\u30e5\u30fc\u30d1\u30ed\u30c0\u30e0","survey_name":"\u57fa\u790e\u8a55\u4fa1\u89e3\u6790\u691c\u8a0e\u696d\u52d9","client_name":"\u56fd\u571f\u4ea4\u901a\u7701\u5317\u6d77\u9053\u958b\u767a\u5c40\u77f3\u72e9\u5ddd\u958b\u767a\u5efa\u8a2d\u90e8","boring_xml_url":43,"boring_view_url":1,"soilmap_view_url":null,"soiltest_xml_url":0,"soiltest_view_url":0},{"id":133952,"code":"B4KJ201801002-2201","latitude":"43.0198","longitude":"142.105017","source_code":"HK20072225090007","project_name":"\u5915\u5f35\u30b7\u30e5\u30fc\u30d1\u30ed\u30c0\u30e0","survey_name":"\u57fa\u790e\u8a55\u4fa1\u89e3\u6790\u691c\u8a0e\u696d\u52d9","client_name":"\u56fd\u571f\u4ea4\u901a\u7701\u5317\u6d77\u9053\u958b\u767a\u5c40\u77f3\u72e9\u5ddd\u958b\u767a\u5efa\u8a2d\u90e8","boring_xml_url":43,"boring_view_url":1,"soilmap_view_url":null,"soiltest_xml_url":0,"soiltest_view_url":0},{"id":133951,"code":"B4KJ201801002-2200","latitude":"43.020131","longitude":"142.105142","source_code":"HK20072225090006","project_name":"\u5915\u5f35\u30b7\u30e5\u30fc\u30d1\u30ed\u30c0\u30e0","survey_name":"\u57fa\u790e\u8a55\u4fa1\u89e3\u6790\u691c\u8a0e\u696d\u52d9","client_name":"\u56fd\u571f\u4ea4\u901a\u7701\u5317\u6d77\u9053\u958b\u767a\u5c40\u77f3\u72e9\u5ddd\u958b\u767a\u5efa\u8a2d\u90e8","boring_xml_url":43,"boring_view_url":1,"soilmap_view_url":null,"soiltest_xml_url":0,"soiltest_view_url":0},{"id":133950,"code":"B4KJ201801002-2199","latitude":"43.020008","longitude":"142.105008","source_code":"HK20072225090005","project_name":"\u5915\u5f35\u30b7\u30e5\u30fc\u30d1\u30ed\u30c0\u30e0","survey_name":"\u57fa\u790e\u8a55\u4fa1\u89e3\u6790\u691c\u8a0e\u696d\u52d9","client_name":"\u56fd\u571f\u4ea4\u901a\u7701\u5317\u6d77\u9053\u958b\u767a\u5c40\u77f3\u72e9\u5ddd\u958b\u767a\u5efa\u8a2d\u90e8","boring_xml_url":43,"boring_view_url":1,"soilmap_view_url":null,"soiltest_xml_url":0,"soiltest_view_url":0},{"id":133949,"code":"B4KJ201801002-2198","latitude":"43.019244","longitude":"142.105575","source_code":"HK20072225090004","project_name":"\u5915\u5f35\u30b7\u30e5\u30fc\u30d1\u30ed\u30c0\u30e0","survey_name":"\u57fa\u790e\u8a55\u4fa1\u89e3\u6790\u691c\u8a0e\u696d\u52d9","client_name":"\u56fd\u571f\u4ea4\u901a\u7701\u5317\u6d77\u9053\u958b\u767a\u5c40\u77f3\u72e9\u5ddd\u958b\u767a\u5efa\u8a2d\u90e8","boring_xml_url":43,"boring_view_url":1,"soilmap_view_url":null,"soiltest_xml_url":0,"soiltest_view_url":0},{"id":133948,"code":"B4KJ201801002-2197","latitude":"43.01925","longitude":"142.105564","source_code":"HK20072225090003","project_name":"\u5915\u5f35\u30b7\u30e5\u30fc\u30d1\u30ed\u30c0\u30e0","survey_name":"\u57fa\u790e\u8a55\u4fa1\u89e3\u6790\u691c\u8a0e\u696d\u52d9","client_name":"\u56fd\u571f\u4ea4\u901a\u7701\u5317\u6d77\u9053\u958b\u767a\u5c40\u77f3\u72e9\u5ddd\u958b\u767a\u5efa\u8a2d\u90e8","boring_xml_url":43,"boring_view_url":1,"soilmap_view_url":null,"soiltest_xml_url":0,"soiltest_view_url":0},{"id":133947,"code":"B4KJ201801002-2196","latitude":"43.018528","longitude":"142.105756","source_code":"HK20072225090002","project_name":"\u5915\u5f35\u30b7\u30e5\u30fc\u30d1\u30ed\u30c0\u30e0","survey_name":"\u57fa\u790e\u8a55\u4fa1\u89e3\u6790\u691c\u8a0e\u696d\u52d9","client_name":"\u56fd\u571f\u4ea4\u901a\u7701\u5317\u6d77\u9053\u958b\u767a\u5c40\u77f3\u72e9\u5ddd\u958b\u767a\u5efa\u8a2d\u90e8","boring_xml_url":43,"boring_view_url":1,"soilmap_view_url":null,"soiltest_xml_url":0,"soiltest_view_url":0},{"id":133946,"code":"B4KJ201801002-2195","latitude":"43.018639","longitude":"142.105878","source_code":"HK20072225090001","project_name":"\u5915\u5f35\u30b7\u30e5\u30fc\u30d1\u30ed\u30c0\u30e0","survey_name":"\u57fa\u790e\u8a55\u4fa1\u89e3\u6790\u691c\u8a0e\u696d\u52d9","client_name":"\u56fd\u571f\u4ea4\u901a\u7701\u5317\u6d77\u9053\u958b\u767a\u5c40\u77f3\u72e9\u5ddd\u958b\u767a\u5efa\u8a2d\u90e8","boring_xml_url":43,"boring_view_url":1,"soilmap_view_url":null,"soiltest_xml_url":0,"soiltest_view_url":0}]}}