{"header":{"xyz":{"source":[],"mosaic":false},"page":6222,"raw":{"soiltest_result":"0","bbox":"57.598333,109.544722,1.933333,163.806111","page":"6222"},"conditions":{"soiltest_result":0,"north":57.598333,"west":109.544722,"south":1.933333,"east":163.806111},"success":true,"message":""},"data":{"meta":{"total":212844,"page":6222,"pages":7095,"count":30},"values":[{"id":133915,"code":"B4KJ201801002-2164","latitude":"45.31321119","longitude":"141.7936511","source_code":"HK20063103730014","project_name":"","survey_name":"\u5e73\u621018\u5e74\u5ea6\u65bd\u884c \u58f0\u554f\u5ddd\u5824\u9632\u5f62\u72b6\u691c\u8a0e\u696d\u52d9","client_name":"\u56fd\u571f\u4ea4\u901a\u7701\u5317\u6d77\u9053\u958b\u767a\u5c40\u7a1a\u5185\u958b\u767a\u5efa\u8a2d\u90e8","boring_xml_url":43,"boring_view_url":1,"soilmap_view_url":null,"soiltest_xml_url":44,"soiltest_view_url":44},{"id":133914,"code":"B4KJ201801002-2163","latitude":"45.3747061","longitude":"141.7873183","source_code":"HK20063103730013","project_name":"","survey_name":"\u5e73\u621018\u5e74\u5ea6\u65bd\u884c \u58f0\u554f\u5ddd\u5824\u9632\u5f62\u72b6\u691c\u8a0e\u696d\u52d9","client_name":"\u56fd\u571f\u4ea4\u901a\u7701\u5317\u6d77\u9053\u958b\u767a\u5c40\u7a1a\u5185\u958b\u767a\u5efa\u8a2d\u90e8","boring_xml_url":43,"boring_view_url":1,"soilmap_view_url":null,"soiltest_xml_url":44,"soiltest_view_url":44},{"id":133913,"code":"B4KJ201801002-2162","latitude":"45.37466964","longitude":"141.7871961","source_code":"HK20063103730012","project_name":"","survey_name":"\u5e73\u621018\u5e74\u5ea6\u65bd\u884c \u58f0\u554f\u5ddd\u5824\u9632\u5f62\u72b6\u691c\u8a0e\u696d\u52d9","client_name":"\u56fd\u571f\u4ea4\u901a\u7701\u5317\u6d77\u9053\u958b\u767a\u5c40\u7a1a\u5185\u958b\u767a\u5efa\u8a2d\u90e8","boring_xml_url":43,"boring_view_url":1,"soilmap_view_url":null,"soiltest_xml_url":44,"soiltest_view_url":44},{"id":133912,"code":"B4KJ201801002-2161","latitude":"45.37469336","longitude":"141.7872761","source_code":"HK20063103730011","project_name":"","survey_name":"\u5e73\u621018\u5e74\u5ea6\u65bd\u884c \u58f0\u554f\u5ddd\u5824\u9632\u5f62\u72b6\u691c\u8a0e\u696d\u52d9","client_name":"\u56fd\u571f\u4ea4\u901a\u7701\u5317\u6d77\u9053\u958b\u767a\u5c40\u7a1a\u5185\u958b\u767a\u5efa\u8a2d\u90e8","boring_xml_url":43,"boring_view_url":1,"soilmap_view_url":null,"soiltest_xml_url":44,"soiltest_view_url":44},{"id":133911,"code":"B4KJ201801002-2160","latitude":"45.29982872","longitude":"141.8035575","source_code":"HK20063103730010","project_name":"","survey_name":"\u5e73\u621018\u5e74\u5ea6\u65bd\u884c \u58f0\u554f\u5ddd\u5824\u9632\u5f62\u72b6\u691c\u8a0e\u696d\u52d9","client_name":"\u56fd\u571f\u4ea4\u901a\u7701\u5317\u6d77\u9053\u958b\u767a\u5c40\u7a1a\u5185\u958b\u767a\u5efa\u8a2d\u90e8","boring_xml_url":43,"boring_view_url":1,"soilmap_view_url":null,"soiltest_xml_url":44,"soiltest_view_url":44},{"id":133910,"code":"B4KJ201801002-2159","latitude":"45.29980122","longitude":"141.8034328","source_code":"HK20063103730009","project_name":"","survey_name":"\u5e73\u621018\u5e74\u5ea6\u65bd\u884c \u58f0\u554f\u5ddd\u5824\u9632\u5f62\u72b6\u691c\u8a0e\u696d\u52d9","client_name":"\u56fd\u571f\u4ea4\u901a\u7701\u5317\u6d77\u9053\u958b\u767a\u5c40\u7a1a\u5185\u958b\u767a\u5efa\u8a2d\u90e8","boring_xml_url":43,"boring_view_url":1,"soilmap_view_url":null,"soiltest_xml_url":44,"soiltest_view_url":44},{"id":133909,"code":"B4KJ201801002-2158","latitude":"45.2977417","longitude":"141.8025794","source_code":"HK20063103730007","project_name":"","survey_name":"\u5e73\u621018\u5e74\u5ea6\u65bd\u884c \u58f0\u554f\u5ddd\u5824\u9632\u5f62\u72b6\u691c\u8a0e\u696d\u52d9","client_name":"\u56fd\u571f\u4ea4\u901a\u7701\u5317\u6d77\u9053\u958b\u767a\u5c40\u7a1a\u5185\u958b\u767a\u5efa\u8a2d\u90e8","boring_xml_url":43,"boring_view_url":1,"soilmap_view_url":null,"soiltest_xml_url":44,"soiltest_view_url":44},{"id":133908,"code":"B4KJ201801002-2157","latitude":"45.27857314","longitude":"141.8122692","source_code":"HK20063103730006","project_name":"","survey_name":"\u5e73\u621018\u5e74\u5ea6\u65bd\u884c \u58f0\u554f\u5ddd\u5824\u9632\u5f62\u72b6\u691c\u8a0e\u696d\u52d9","client_name":"\u56fd\u571f\u4ea4\u901a\u7701\u5317\u6d77\u9053\u958b\u767a\u5c40\u7a1a\u5185\u958b\u767a\u5efa\u8a2d\u90e8","boring_xml_url":43,"boring_view_url":1,"soilmap_view_url":null,"soiltest_xml_url":44,"soiltest_view_url":44},{"id":133907,"code":"B4KJ201801002-2156","latitude":"45.27849442","longitude":"141.812155","source_code":"HK20063103730005","project_name":"","survey_name":"\u5e73\u621018\u5e74\u5ea6\u65bd\u884c \u58f0\u554f\u5ddd\u5824\u9632\u5f62\u72b6\u691c\u8a0e\u696d\u52d9","client_name":"\u56fd\u571f\u4ea4\u901a\u7701\u5317\u6d77\u9053\u958b\u767a\u5c40\u7a1a\u5185\u958b\u767a\u5efa\u8a2d\u90e8","boring_xml_url":43,"boring_view_url":1,"soilmap_view_url":null,"soiltest_xml_url":44,"soiltest_view_url":44},{"id":133906,"code":"B4KJ201801002-2155","latitude":"45.31415422","longitude":"141.7954497","source_code":"HK20063103730004","project_name":"","survey_name":"\u5e73\u621018\u5e74\u5ea6\u65bd\u884c \u58f0\u554f\u5ddd\u5824\u9632\u5f62\u72b6\u691c\u8a0e\u696d\u52d9","client_name":"\u56fd\u571f\u4ea4\u901a\u7701\u5317\u6d77\u9053\u958b\u767a\u5c40\u7a1a\u5185\u958b\u767a\u5efa\u8a2d\u90e8","boring_xml_url":43,"boring_view_url":1,"soilmap_view_url":null,"soiltest_xml_url":44,"soiltest_view_url":44},{"id":133905,"code":"B4KJ201801002-2154","latitude":"45.314098","longitude":"141.7953417","source_code":"HK20063103730003","project_name":"","survey_name":"\u5e73\u621018\u5e74\u5ea6\u65bd\u884c \u58f0\u554f\u5ddd\u5824\u9632\u5f62\u72b6\u691c\u8a0e\u696d\u52d9","client_name":"\u56fd\u571f\u4ea4\u901a\u7701\u5317\u6d77\u9053\u958b\u767a\u5c40\u7a1a\u5185\u958b\u767a\u5efa\u8a2d\u90e8","boring_xml_url":43,"boring_view_url":1,"soilmap_view_url":null,"soiltest_xml_url":44,"soiltest_view_url":44},{"id":133904,"code":"B4KJ201801002-2153","latitude":"45.35182789","longitude":"141.7946975","source_code":"HK20063103730002","project_name":"","survey_name":"\u5e73\u621018\u5e74\u5ea6\u65bd\u884c \u58f0\u554f\u5ddd\u5824\u9632\u5f62\u72b6\u691c\u8a0e\u696d\u52d9","client_name":"\u56fd\u571f\u4ea4\u901a\u7701\u5317\u6d77\u9053\u958b\u767a\u5c40\u7a1a\u5185\u958b\u767a\u5efa\u8a2d\u90e8","boring_xml_url":43,"boring_view_url":1,"soilmap_view_url":null,"soiltest_xml_url":44,"soiltest_view_url":44},{"id":133903,"code":"B4KJ201801002-2152","latitude":"42.8036","longitude":"143.565","source_code":"HK20062812580009","project_name":"\u4e00\u822c\u56fd\u905338\u53f7\u8c4a\u9803\u753a\u6d45\u5c64\u6df7\u5408\u51e6\u7406\u5ba4\u5185\u914d\u5408\u8a66\u9a13\u5916\u696d\u52d9","survey_name":"\u4e00\u822c\u56fd\u905338\u53f7\u8c4a\u9803\u753a\u6d45\u5c64\u6df7\u5408\u51e6\u7406\u5ba4\u5185\u914d\u5408\u8a66\u9a13\u5916\u696d\u52d9","client_name":"\u56fd\u571f\u4ea4\u901a\u7701\u5317\u6d77\u9053\u958b\u767a\u5c40\u5e2f\u5e83\u958b\u767a\u5efa\u8a2d\u90e8\u5e2f\u5e83\u9053\u8def\u4e8b\u52d9\u6240","boring_xml_url":43,"boring_view_url":1,"soilmap_view_url":null,"soiltest_xml_url":0,"soiltest_view_url":0},{"id":133902,"code":"B4KJ201801002-2151","latitude":"42.8031","longitude":"143.5658","source_code":"HK20062812580008","project_name":"\u4e00\u822c\u56fd\u905338\u53f7\u8c4a\u9803\u753a\u6d45\u5c64\u6df7\u5408\u51e6\u7406\u5ba4\u5185\u914d\u5408\u8a66\u9a13\u5916\u696d\u52d9","survey_name":"\u4e00\u822c\u56fd\u905338\u53f7\u8c4a\u9803\u753a\u6d45\u5c64\u6df7\u5408\u51e6\u7406\u5ba4\u5185\u914d\u5408\u8a66\u9a13\u5916\u696d\u52d9","client_name":"\u56fd\u571f\u4ea4\u901a\u7701\u5317\u6d77\u9053\u958b\u767a\u5c40\u5e2f\u5e83\u958b\u767a\u5efa\u8a2d\u90e8\u5e2f\u5e83\u9053\u8def\u4e8b\u52d9\u6240","boring_xml_url":43,"boring_view_url":1,"soilmap_view_url":null,"soiltest_xml_url":44,"soiltest_view_url":44},{"id":133901,"code":"B4KJ201801002-2150","latitude":"42.8156","longitude":"143.5311","source_code":"HK20062812580007","project_name":"\u4e00\u822c\u56fd\u905338\u53f7\u8c4a\u9803\u753a\u6d45\u5c64\u6df7\u5408\u51e6\u7406\u5ba4\u5185\u914d\u5408\u8a66\u9a13\u5916\u696d\u52d9","survey_name":"\u4e00\u822c\u56fd\u905338\u53f7\u8c4a\u9803\u753a\u6d45\u5c64\u6df7\u5408\u51e6\u7406\u5ba4\u5185\u914d\u5408\u8a66\u9a13\u5916\u696d\u52d9","client_name":"\u56fd\u571f\u4ea4\u901a\u7701\u5317\u6d77\u9053\u958b\u767a\u5c40\u5e2f\u5e83\u958b\u767a\u5efa\u8a2d\u90e8\u5e2f\u5e83\u9053\u8def\u4e8b\u52d9\u6240","boring_xml_url":43,"boring_view_url":1,"soilmap_view_url":null,"soiltest_xml_url":44,"soiltest_view_url":44},{"id":133900,"code":"B4KJ201801002-2149","latitude":"42.8158","longitude":"143.5286","source_code":"HK20062812580006","project_name":"\u4e00\u822c\u56fd\u905338\u53f7\u8c4a\u9803\u753a\u6d45\u5c64\u6df7\u5408\u51e6\u7406\u5ba4\u5185\u914d\u5408\u8a66\u9a13\u5916\u696d\u52d9","survey_name":"\u4e00\u822c\u56fd\u905338\u53f7\u8c4a\u9803\u753a\u6d45\u5c64\u6df7\u5408\u51e6\u7406\u5ba4\u5185\u914d\u5408\u8a66\u9a13\u5916\u696d\u52d9","client_name":"\u56fd\u571f\u4ea4\u901a\u7701\u5317\u6d77\u9053\u958b\u767a\u5c40\u5e2f\u5e83\u958b\u767a\u5efa\u8a2d\u90e8\u5e2f\u5e83\u9053\u8def\u4e8b\u52d9\u6240","boring_xml_url":43,"boring_view_url":1,"soilmap_view_url":null,"soiltest_xml_url":44,"soiltest_view_url":44},{"id":133899,"code":"B4KJ201801002-2148","latitude":"42.8081","longitude":"143.5","source_code":"HK20062812580004","project_name":"\u4e00\u822c\u56fd\u905338\u53f7 \u8c4a\u9803\u753a\u6d45\u5c64\u6df7\u5408\u51e6\u7406\u5ba4\u5185\u914d\u5408\u8a66\u9a13\u5916\u696d\u52d9","survey_name":"\u4e00\u822c\u56fd\u905338\u53f7 \u8c4a\u9803\u753a\u6d45\u5c64\u6df7\u5408\u51e6\u7406\u5ba4\u5185\u914d\u5408\u8a66\u9a13\u5916\u696d\u52d9","client_name":"\u56fd\u571f\u4ea4\u901a\u7701\u5317\u6d77\u9053\u958b\u767a\u5c40\u5e2f\u5e83\u958b\u767a\u5efa\u8a2d\u90e8\u5e2f\u5e83\u9053\u8def\u4e8b\u52d9\u6240","boring_xml_url":43,"boring_view_url":1,"soilmap_view_url":null,"soiltest_xml_url":44,"soiltest_view_url":44},{"id":133898,"code":"B4KJ201801002-2147","latitude":"42.8083","longitude":"143.5008","source_code":"HK20062812580003","project_name":"\u4e00\u822c\u56fd\u905338\u53f7 \u8c4a\u9803\u753a\u6d45\u5c64\u6df7\u5408\u51e6\u7406\u5ba4\u5185\u914d\u5408\u8a66\u9a13\u5916\u696d\u52d9","survey_name":"\u4e00\u822c\u56fd\u905338\u53f7 \u8c4a\u9803\u753a\u6d45\u5c64\u6df7\u5408\u51e6\u7406\u5ba4\u5185\u914d\u5408\u8a66\u9a13\u5916\u696d\u52d9","client_name":"\u56fd\u571f\u4ea4\u901a\u7701\u5317\u6d77\u9053\u958b\u767a\u5c40\u5e2f\u5e83\u958b\u767a\u5efa\u8a2d\u90e8\u5e2f\u5e83\u9053\u8def\u4e8b\u52d9\u6240","boring_xml_url":43,"boring_view_url":1,"soilmap_view_url":null,"soiltest_xml_url":44,"soiltest_view_url":44},{"id":133897,"code":"B4KJ201801002-2146","latitude":"42.8511","longitude":"143.4483","source_code":"HK20062812580002","project_name":"\u4e00\u822c\u56fd\u905338\u53f7 \u8c4a\u9803\u753a\u6d45\u5c64\u6df7\u5408\u51e6\u7406\u5ba4\u5185\u914d\u5408\u8a66\u9a13\u5916\u696d\u52d9","survey_name":"\u4e00\u822c\u56fd\u905338\u53f7 \u8c4a\u9803\u753a\u6d45\u5c64\u6df7\u5408\u51e6\u7406\u5ba4\u5185\u914d\u5408\u8a66\u9a13\u5916\u696d\u52d9","client_name":"\u56fd\u571f\u4ea4\u901a\u7701\u5317\u6d77\u9053\u958b\u767a\u5c40\u5e2f\u5e83\u958b\u767a\u5efa\u8a2d\u90e8\u5e2f\u5e83\u9053\u8def\u4e8b\u52d9\u6240","boring_xml_url":43,"boring_view_url":1,"soilmap_view_url":null,"soiltest_xml_url":44,"soiltest_view_url":44},{"id":133896,"code":"B4KJ201801002-2145","latitude":"42.8528","longitude":"143.4464","source_code":"HK20062812580001","project_name":"\u4e00\u822c\u56fd\u905338\u53f7 \u8c4a\u9803\u753a\u6d45\u5c64\u6df7\u5408\u51e6\u7406\u5ba4\u5185\u914d\u5408\u8a66\u9a13\u5916\u696d\u52d9","survey_name":"\u4e00\u822c\u56fd\u905338\u53f7 \u8c4a\u9803\u753a\u6d45\u5c64\u6df7\u5408\u51e6\u7406\u5ba4\u5185\u914d\u5408\u8a66\u9a13\u5916\u696d\u52d9","client_name":"\u56fd\u571f\u4ea4\u901a\u7701\u5317\u6d77\u9053\u958b\u767a\u5c40\u5e2f\u5e83\u958b\u767a\u5efa\u8a2d\u90e8\u5e2f\u5e83\u9053\u8def\u4e8b\u52d9\u6240","boring_xml_url":43,"boring_view_url":1,"soilmap_view_url":null,"soiltest_xml_url":44,"soiltest_view_url":44},{"id":133895,"code":"B4KJ201801002-2144","latitude":"43.19589","longitude":"144.46186","source_code":"HK2006277840005","project_name":"\u6d41\u5411\u6d41\u901f\u8abf\u67fb","survey_name":"\u5e73\u621018\u5e74\u5ea6 \u91e7\u8def\u6e7f\u539f\u5730\u8cea\u8abf\u67fb\u696d\u52d9","client_name":"\u56fd\u571f\u4ea4\u901a\u7701\u5317\u6d77\u9053\u958b\u767a\u5c40\u91e7\u8def\u958b\u767a\u5efa\u8a2d\u90e8","boring_xml_url":42,"boring_view_url":1,"soilmap_view_url":null,"soiltest_xml_url":43,"soiltest_view_url":43},{"id":133894,"code":"B4KJ201801002-2143","latitude":"42.6922189","longitude":"142.4034158","source_code":"HK20062602310005","project_name":"\u5e73\u53d6\u5730\u3059\u3079\u308a\u5bfe\u7b56\u5de5\u5b9f\u65bd\u8a2d\u8a08\u696d\u52d9","survey_name":"\u5e73\u621018\u5e74\u5ea6 \u6c99\u6d41\u5ddd\u7dcf\u5408\u958b\u767a\u4e8b\u696d\u306e\u5185","client_name":"\u56fd\u571f\u4ea4\u901a\u7701\u5317\u6d77\u9053\u958b\u767a\u5c40\u5ba4\u862d\u958b\u767a\u5efa\u8a2d\u90e8","boring_xml_url":43,"boring_view_url":1,"soilmap_view_url":null,"soiltest_xml_url":0,"soiltest_view_url":0},{"id":133893,"code":"B4KJ201801002-2142","latitude":"42.6924964","longitude":"142.4025825","source_code":"HK20062602310004","project_name":"\u5e73\u53d6\u5730\u3059\u3079\u308a\u5bfe\u7b56\u5de5\u5b9f\u65bd\u8a2d\u8a08\u696d\u52d9","survey_name":"\u5e73\u621018\u5e74\u5ea6 \u6c99\u6d41\u5ddd\u7dcf\u5408\u958b\u767a\u4e8b\u696d\u306e\u5185","client_name":"\u56fd\u571f\u4ea4\u901a\u7701\u5317\u6d77\u9053\u958b\u767a\u5c40\u5ba4\u862d\u958b\u767a\u5efa\u8a2d\u90e8","boring_xml_url":43,"boring_view_url":1,"soilmap_view_url":null,"soiltest_xml_url":0,"soiltest_view_url":0},{"id":133892,"code":"B4KJ201801002-2141","latitude":"42.6947186","longitude":"142.40286","source_code":"HK20062602310001","project_name":"\u5e73\u53d6\u5730\u3059\u3079\u308a\u5bfe\u7b56\u5de5\u5b9f\u65bd\u8a2d\u8a08\u696d\u52d9","survey_name":"\u5e73\u621018\u5e74\u5ea6 \u6c99\u6d41\u5ddd\u7dcf\u5408\u958b\u767a\u4e8b\u696d\u306e\u5185","client_name":"\u56fd\u571f\u4ea4\u901a\u7701\u5317\u6d77\u9053\u958b\u767a\u5c40\u5ba4\u862d\u958b\u767a\u5efa\u8a2d\u90e8","boring_xml_url":43,"boring_view_url":1,"soilmap_view_url":null,"soiltest_xml_url":0,"soiltest_view_url":0},{"id":133891,"code":"B4KJ201801002-2140","latitude":"43.1556","longitude":"142.5933","source_code":"HK20062518110002","project_name":"\u5e73\u621018\u5e74\u5ea6 \u4e00\u822c\u56fd\u905338\u53f7 \u5357\u5bcc\u826f\u91ce\u753a \u843d\u5408\u51fd\u6e20\u8abf\u67fb\u8a2d\u8a08\u696d\u52d9","survey_name":"\u5e73\u621018\u5e74\u5ea6 \u4e00\u822c\u56fd\u905338\u53f7 \u5357\u5bcc\u826f\u91ce\u753a \u843d\u5408\u51fd\u6e20\u8abf\u67fb\u8a2d\u8a08\u696d\u52d9","client_name":"\u56fd\u571f\u4ea4\u901a\u7701\u5317\u6d77\u9053\u958b\u767a\u5c40\u65ed\u5ddd\u958b\u767a\u5efa\u8a2d\u90e8","boring_xml_url":43,"boring_view_url":1,"soilmap_view_url":null,"soiltest_xml_url":0,"soiltest_view_url":0},{"id":133890,"code":"B4KJ201801002-2139","latitude":"43.1558","longitude":"142.5936","source_code":"HK20062518110001","project_name":"\u5e73\u621018\u5e74\u5ea6 \u4e00\u822c\u56fd\u905338\u53f7 \u5357\u5bcc\u826f\u91ce\u753a \u843d\u5408\u51fd\u6e20\u8abf\u67fb\u8a2d\u8a08\u696d\u52d9","survey_name":"\u5e73\u621018\u5e74\u5ea6 \u4e00\u822c\u56fd\u905338\u53f7 \u5357\u5bcc\u826f\u91ce\u753a \u843d\u5408\u51fd\u6e20\u8abf\u67fb\u8a2d\u8a08\u696d\u52d9","client_name":"\u56fd\u571f\u4ea4\u901a\u7701\u5317\u6d77\u9053\u958b\u767a\u5c40\u65ed\u5ddd\u958b\u767a\u5efa\u8a2d\u90e8","boring_xml_url":43,"boring_view_url":1,"soilmap_view_url":null,"soiltest_xml_url":0,"soiltest_view_url":0},{"id":133889,"code":"B4KJ201801002-2138","latitude":"43.0792","longitude":"142.4","source_code":"HK20062518100003","project_name":"","survey_name":"\u5e73\u621018\u5e74\u5ea6\u65bd\u5de5\u4e00\u822c\u56fd\u9053237\u53f7\u5357\u5bcc\u826f\u91ce\u753a\u91d1\u5c71\u96ea\u5d29\u4e88\u9632\u68da\u8abf\u67fb\u8a2d\u8a08\u696d\u52d9","client_name":"\u56fd\u571f\u4ea4\u901a\u7701\u5317\u6d77\u9053\u958b\u767a\u5c40\u65ed\u5ddd\u958b\u767a\u5efa\u8a2d\u90e8","boring_xml_url":43,"boring_view_url":1,"soilmap_view_url":null,"soiltest_xml_url":0,"soiltest_view_url":0},{"id":133888,"code":"B4KJ201801002-2137","latitude":"43.0942","longitude":"142.3986","source_code":"HK20062518100002","project_name":"","survey_name":"\u5e73\u621018\u5e74\u5ea6\u65bd\u5de5\u4e00\u822c\u56fd\u9053237\u53f7\u5357\u5bcc\u826f\u91ce\u753a\u91d1\u5c71\u96ea\u5d29\u4e88\u9632\u68da\u8abf\u67fb\u8a2d\u8a08\u696d\u52d9","client_name":"\u56fd\u571f\u4ea4\u901a\u7701\u5317\u6d77\u9053\u958b\u767a\u5c40\u65ed\u5ddd\u958b\u767a\u5efa\u8a2d\u90e8","boring_xml_url":43,"boring_view_url":1,"soilmap_view_url":null,"soiltest_xml_url":0,"soiltest_view_url":0},{"id":133887,"code":"B4KJ201801002-2136","latitude":"43.0958","longitude":"142.4022","source_code":"HK20062518100001","project_name":"","survey_name":"\u5e73\u621018\u5e74\u5ea6\u65bd\u5de5\u4e00\u822c\u56fd\u9053237\u53f7\u5357\u5bcc\u826f\u91ce\u753a\u91d1\u5c71\u96ea\u5d29\u4e88\u9632\u68da\u8abf\u67fb\u8a2d\u8a08\u696d\u52d9","client_name":"\u56fd\u571f\u4ea4\u901a\u7701\u5317\u6d77\u9053\u958b\u767a\u5c40\u65ed\u5ddd\u958b\u767a\u5efa\u8a2d\u90e8","boring_xml_url":43,"boring_view_url":1,"soilmap_view_url":null,"soiltest_xml_url":0,"soiltest_view_url":0},{"id":133886,"code":"B4KJ201801002-2135","latitude":"41.84766733","longitude":"140.5998222","source_code":"HK20062310420009","project_name":"","survey_name":"\u51fd\u9928\u6c5f\u5dee\u81ea\u52d5\u8eca\u9053 \u5317\u6597\u5e02 \u6dfb\u5c71\u5730\u8cea\u8abf\u67fb\u5916\u4e00\u9023\u696d\u52d9","client_name":"\u56fd\u571f\u4ea4\u901a\u7701\u5317\u6d77\u9053\u958b\u767a\u5c40\u51fd\u9928\u958b\u767a\u5efa\u8a2d\u90e8\u51fd\u9928\u9053\u8def\u4e8b\u52d9\u6240","boring_xml_url":43,"boring_view_url":1,"soilmap_view_url":null,"soiltest_xml_url":0,"soiltest_view_url":0}]}}