{"header":{"xyz":{"source":[],"mosaic":false},"page":6229,"raw":{"soiltest_result":"0","bbox":"57.598333,109.544722,1.933333,163.806111","page":"6229"},"conditions":{"soiltest_result":0,"north":57.598333,"west":109.544722,"south":1.933333,"east":163.806111},"success":true,"message":""},"data":{"meta":{"total":212844,"page":6229,"pages":7095,"count":30},"values":[{"id":133705,"code":"B4KJ201801002-1954","latitude":"43.40994","longitude":"141.86533","source_code":"HK20062207430013","project_name":"\u6edd\u5ddd\u6cb3\u5ddd\u4e8b\u52d9\u6240\u7ba1\u5185\u5824\u9632\u8abf\u67fb\u691c\u8a0e\u696d\u52d9","survey_name":"\u6edd\u5ddd\u6cb3\u5ddd\u4e8b\u52d9\u6240\u7ba1\u5185\u5824\u9632\u8abf\u67fb\u691c\u8a0e\u696d\u52d9","client_name":"\u56fd\u571f\u4ea4\u901a\u7701\u5317\u6d77\u9053\u958b\u767a\u5c40\u77f3\u72e9\u5ddd\u958b\u767a\u5efa\u8a2d\u90e8","boring_xml_url":43,"boring_view_url":1,"soilmap_view_url":null,"soiltest_xml_url":0,"soiltest_view_url":0},{"id":133704,"code":"B4KJ201801002-1953","latitude":"43.41067","longitude":"141.86772","source_code":"HK20062207430012","project_name":"\u6edd\u5ddd\u6cb3\u5ddd\u4e8b\u52d9\u6240\u7ba1\u5185\u5824\u9632\u8abf\u67fb\u691c\u8a0e\u696d\u52d9","survey_name":"\u6edd\u5ddd\u6cb3\u5ddd\u4e8b\u52d9\u6240\u7ba1\u5185\u5824\u9632\u8abf\u67fb\u691c\u8a0e\u696d\u52d9","client_name":"\u56fd\u571f\u4ea4\u901a\u7701\u5317\u6d77\u9053\u958b\u767a\u5c40\u77f3\u72e9\u5ddd\u958b\u767a\u5efa\u8a2d\u90e8","boring_xml_url":43,"boring_view_url":1,"soilmap_view_url":null,"soiltest_xml_url":0,"soiltest_view_url":0},{"id":133703,"code":"B4KJ201801002-1952","latitude":"43.41056","longitude":"141.86775","source_code":"HK20062207430011","project_name":"\u6edd\u5ddd\u6cb3\u5ddd\u4e8b\u52d9\u6240\u7ba1\u5185\u5824\u9632\u8abf\u67fb\u691c\u8a0e\u696d\u52d9","survey_name":"\u6edd\u5ddd\u6cb3\u5ddd\u4e8b\u52d9\u6240\u7ba1\u5185\u5824\u9632\u8abf\u67fb\u691c\u8a0e\u696d\u52d9","client_name":"\u56fd\u571f\u4ea4\u901a\u7701\u5317\u6d77\u9053\u958b\u767a\u5c40\u77f3\u72e9\u5ddd\u958b\u767a\u5efa\u8a2d\u90e8","boring_xml_url":43,"boring_view_url":1,"soilmap_view_url":null,"soiltest_xml_url":0,"soiltest_view_url":0},{"id":133702,"code":"B4KJ201801002-1951","latitude":"43.41058","longitude":"141.86775","source_code":"HK20062207430010","project_name":"\u6edd\u5ddd\u6cb3\u5ddd\u4e8b\u52d9\u6240\u7ba1\u5185\u5824\u9632\u8abf\u67fb\u691c\u8a0e\u696d\u52d9","survey_name":"\u6edd\u5ddd\u6cb3\u5ddd\u4e8b\u52d9\u6240\u7ba1\u5185\u5824\u9632\u8abf\u67fb\u691c\u8a0e\u696d\u52d9","client_name":"\u56fd\u571f\u4ea4\u901a\u7701\u5317\u6d77\u9053\u958b\u767a\u5c40\u77f3\u72e9\u5ddd\u958b\u767a\u5efa\u8a2d\u90e8","boring_xml_url":43,"boring_view_url":1,"soilmap_view_url":null,"soiltest_xml_url":0,"soiltest_view_url":0},{"id":133701,"code":"B4KJ201801002-1950","latitude":"43.41231","longitude":"141.85461","source_code":"HK20062207430009","project_name":"\u6edd\u5ddd\u6cb3\u5ddd\u4e8b\u52d9\u6240\u7ba1\u5185\u5824\u9632\u8abf\u67fb\u691c\u8a0e\u696d\u52d9","survey_name":"\u6edd\u5ddd\u6cb3\u5ddd\u4e8b\u52d9\u6240\u7ba1\u5185\u5824\u9632\u8abf\u67fb\u691c\u8a0e\u696d\u52d9","client_name":"\u56fd\u571f\u4ea4\u901a\u7701\u5317\u6d77\u9053\u958b\u767a\u5c40\u77f3\u72e9\u5ddd\u958b\u767a\u5efa\u8a2d\u90e8","boring_xml_url":43,"boring_view_url":1,"soilmap_view_url":null,"soiltest_xml_url":0,"soiltest_view_url":0},{"id":133700,"code":"B4KJ201801002-1949","latitude":"43.41244","longitude":"141.85472","source_code":"HK20062207430008","project_name":"\u6edd\u5ddd\u6cb3\u5ddd\u4e8b\u52d9\u6240\u7ba1\u5185\u5824\u9632\u8abf\u67fb\u691c\u8a0e\u696d\u52d9","survey_name":"\u6edd\u5ddd\u6cb3\u5ddd\u4e8b\u52d9\u6240\u7ba1\u5185\u5824\u9632\u8abf\u67fb\u691c\u8a0e\u696d\u52d9","client_name":"\u56fd\u571f\u4ea4\u901a\u7701\u5317\u6d77\u9053\u958b\u767a\u5c40\u77f3\u72e9\u5ddd\u958b\u767a\u5efa\u8a2d\u90e8","boring_xml_url":43,"boring_view_url":1,"soilmap_view_url":null,"soiltest_xml_url":0,"soiltest_view_url":0},{"id":133699,"code":"B4KJ201801002-1948","latitude":"43.41239","longitude":"141.85469","source_code":"HK20062207430007","project_name":"\u6edd\u5ddd\u6cb3\u5ddd\u4e8b\u52d9\u6240\u7ba1\u5185\u5824\u9632\u8abf\u67fb\u691c\u8a0e\u696d\u52d9","survey_name":"\u6edd\u5ddd\u6cb3\u5ddd\u4e8b\u52d9\u6240\u7ba1\u5185\u5824\u9632\u8abf\u67fb\u691c\u8a0e\u696d\u52d9","client_name":"\u56fd\u571f\u4ea4\u901a\u7701\u5317\u6d77\u9053\u958b\u767a\u5c40\u77f3\u72e9\u5ddd\u958b\u767a\u5efa\u8a2d\u90e8","boring_xml_url":43,"boring_view_url":1,"soilmap_view_url":null,"soiltest_xml_url":0,"soiltest_view_url":0},{"id":133698,"code":"B4KJ201801002-1947","latitude":"43.42342","longitude":"141.86328","source_code":"HK20062207430006","project_name":"\u6edd\u5ddd\u6cb3\u5ddd\u4e8b\u52d9\u6240\u7ba1\u5185\u5824\u9632\u8abf\u67fb\u691c\u8a0e\u696d\u52d9","survey_name":"\u6edd\u5ddd\u6cb3\u5ddd\u4e8b\u52d9\u6240\u7ba1\u5185\u5824\u9632\u8abf\u67fb\u691c\u8a0e\u696d\u52d9","client_name":"\u56fd\u571f\u4ea4\u901a\u7701\u5317\u6d77\u9053\u958b\u767a\u5c40\u77f3\u72e9\u5ddd\u958b\u767a\u5efa\u8a2d\u90e8","boring_xml_url":43,"boring_view_url":1,"soilmap_view_url":null,"soiltest_xml_url":0,"soiltest_view_url":0},{"id":133697,"code":"B4KJ201801002-1946","latitude":"43.42344","longitude":"141.86314","source_code":"HK20062207430005","project_name":"\u6edd\u5ddd\u6cb3\u5ddd\u4e8b\u52d9\u6240\u7ba1\u5185\u5824\u9632\u8abf\u67fb\u691c\u8a0e\u696d\u52d9","survey_name":"\u6edd\u5ddd\u6cb3\u5ddd\u4e8b\u52d9\u6240\u7ba1\u5185\u5824\u9632\u8abf\u67fb\u691c\u8a0e\u696d\u52d9","client_name":"\u56fd\u571f\u4ea4\u901a\u7701\u5317\u6d77\u9053\u958b\u767a\u5c40\u77f3\u72e9\u5ddd\u958b\u767a\u5efa\u8a2d\u90e8","boring_xml_url":43,"boring_view_url":1,"soilmap_view_url":null,"soiltest_xml_url":0,"soiltest_view_url":0},{"id":133696,"code":"B4KJ201801002-1945","latitude":"43.42344","longitude":"141.86319","source_code":"HK20062207430004","project_name":"\u6edd\u5ddd\u6cb3\u5ddd\u4e8b\u52d9\u6240\u7ba1\u5185\u5824\u9632\u8abf\u67fb\u691c\u8a0e\u696d\u52d9","survey_name":"\u6edd\u5ddd\u6cb3\u5ddd\u4e8b\u52d9\u6240\u7ba1\u5185\u5824\u9632\u8abf\u67fb\u691c\u8a0e\u696d\u52d9","client_name":"\u56fd\u571f\u4ea4\u901a\u7701\u5317\u6d77\u9053\u958b\u767a\u5c40\u77f3\u72e9\u5ddd\u958b\u767a\u5efa\u8a2d\u90e8","boring_xml_url":43,"boring_view_url":1,"soilmap_view_url":null,"soiltest_xml_url":0,"soiltest_view_url":0},{"id":133695,"code":"B4KJ201801002-1944","latitude":"43.41114","longitude":"141.84306","source_code":"HK20062207430003","project_name":"\u6edd\u5ddd\u6cb3\u5ddd\u4e8b\u52d9\u6240\u7ba1\u5185\u5824\u9632\u8abf\u67fb\u691c\u8a0e\u696d\u52d9","survey_name":"\u6edd\u5ddd\u6cb3\u5ddd\u4e8b\u52d9\u6240\u7ba1\u5185\u5824\u9632\u8abf\u67fb\u691c\u8a0e\u696d\u52d9","client_name":"\u56fd\u571f\u4ea4\u901a\u7701\u5317\u6d77\u9053\u958b\u767a\u5c40\u77f3\u72e9\u5ddd\u958b\u767a\u5efa\u8a2d\u90e8","boring_xml_url":43,"boring_view_url":1,"soilmap_view_url":null,"soiltest_xml_url":0,"soiltest_view_url":0},{"id":133694,"code":"B4KJ201801002-1943","latitude":"43.41125","longitude":"141.84289","source_code":"HK20062207430002","project_name":"\u6edd\u5ddd\u6cb3\u5ddd\u4e8b\u52d9\u6240\u7ba1\u5185\u5824\u9632\u8abf\u67fb\u691c\u8a0e\u696d\u52d9","survey_name":"\u6edd\u5ddd\u6cb3\u5ddd\u4e8b\u52d9\u6240\u7ba1\u5185\u5824\u9632\u8abf\u67fb\u691c\u8a0e\u696d\u52d9","client_name":"\u56fd\u571f\u4ea4\u901a\u7701\u5317\u6d77\u9053\u958b\u767a\u5c40\u77f3\u72e9\u5ddd\u958b\u767a\u5efa\u8a2d\u90e8","boring_xml_url":43,"boring_view_url":1,"soilmap_view_url":null,"soiltest_xml_url":0,"soiltest_view_url":0},{"id":133693,"code":"B4KJ201801002-1942","latitude":"43.41119","longitude":"141.84297","source_code":"HK20062207430001","project_name":"\u6edd\u5ddd\u6cb3\u5ddd\u4e8b\u52d9\u6240\u7ba1\u5185\u5824\u9632\u8abf\u67fb\u691c\u8a0e\u696d\u52d9","survey_name":"\u6edd\u5ddd\u6cb3\u5ddd\u4e8b\u52d9\u6240\u7ba1\u5185\u5824\u9632\u8abf\u67fb\u691c\u8a0e\u696d\u52d9","client_name":"\u56fd\u571f\u4ea4\u901a\u7701\u5317\u6d77\u9053\u958b\u767a\u5c40\u77f3\u72e9\u5ddd\u958b\u767a\u5efa\u8a2d\u90e8","boring_xml_url":43,"boring_view_url":1,"soilmap_view_url":null,"soiltest_xml_url":0,"soiltest_view_url":0},{"id":133692,"code":"B4KJ201801002-1941","latitude":"43.2419","longitude":"141.9986","source_code":"HK20062201740006","project_name":"\u5e7e\u6625\u5225\u5ddd\u7dcf\u5408\u958b\u767a\u4e8b\u696d","survey_name":"\u5e7e\u6625\u5225\u5ddd\u7dcf\u5408\u958b\u767a\u4e8b\u696d\u306e\u5185 \u65b0\u6842\u6ca2\u30c0\u30e0\u4eee\u8a2d\u5099\u5916\u5730\u8cea\u8abf\u67fb\u696d\u52d9","client_name":"\u56fd\u571f\u4ea4\u901a\u7701\u5317\u6d77\u9053\u958b\u767a\u5c40\u77f3\u72e9\u5ddd\u958b\u767a\u5efa\u8a2d\u90e8\u5e7e\u6625\u5225\u5ddd\u30c0\u30e0\u5efa\u8a2d\u4e8b\u696d\u6240","boring_xml_url":43,"boring_view_url":1,"soilmap_view_url":null,"soiltest_xml_url":0,"soiltest_view_url":0},{"id":133691,"code":"B4KJ201801002-1940","latitude":"43.2417","longitude":"141.9981","source_code":"HK20062201740005","project_name":"\u5e7e\u6625\u5225\u5ddd\u7dcf\u5408\u958b\u767a\u4e8b\u696d","survey_name":"\u5e7e\u6625\u5225\u5ddd\u7dcf\u5408\u958b\u767a\u4e8b\u696d\u306e\u5185 \u65b0\u6842\u6ca2\u30c0\u30e0\u4eee\u8a2d\u5099\u5916\u5730\u8cea\u8abf\u67fb\u696d\u52d9","client_name":"\u56fd\u571f\u4ea4\u901a\u7701\u5317\u6d77\u9053\u958b\u767a\u5c40\u77f3\u72e9\u5ddd\u958b\u767a\u5efa\u8a2d\u90e8\u5e7e\u6625\u5225\u5ddd\u30c0\u30e0\u5efa\u8a2d\u4e8b\u696d\u6240","boring_xml_url":43,"boring_view_url":1,"soilmap_view_url":null,"soiltest_xml_url":0,"soiltest_view_url":0},{"id":133690,"code":"B4KJ201801002-1939","latitude":"43.2419","longitude":"141.9989","source_code":"HK20062201740004","project_name":"\u5e7e\u6625\u5225\u5ddd\u7dcf\u5408\u958b\u767a\u4e8b\u696d","survey_name":"\u5e7e\u6625\u5225\u5ddd\u7dcf\u5408\u958b\u767a\u4e8b\u696d\u306e\u5185 \u65b0\u6842\u6ca2\u30c0\u30e0\u4eee\u8a2d\u5099\u5916\u5730\u8cea\u8abf\u67fb\u696d\u52d9","client_name":"\u56fd\u571f\u4ea4\u901a\u7701\u5317\u6d77\u9053\u958b\u767a\u5c40\u77f3\u72e9\u5ddd\u958b\u767a\u5efa\u8a2d\u90e8\u5e7e\u6625\u5225\u5ddd\u30c0\u30e0\u5efa\u8a2d\u4e8b\u696d\u6240","boring_xml_url":43,"boring_view_url":1,"soilmap_view_url":null,"soiltest_xml_url":0,"soiltest_view_url":0},{"id":133689,"code":"B4KJ201801002-1938","latitude":"43.2397","longitude":"142.0006","source_code":"HK20062201740003","project_name":"\u5e7e\u6625\u5225\u5ddd\u7dcf\u5408\u958b\u767a\u4e8b\u696d","survey_name":"\u5e7e\u6625\u5225\u5ddd\u7dcf\u5408\u958b\u767a\u4e8b\u696d\u306e\u5185 \u65b0\u6842\u6ca2\u30c0\u30e0\u4eee\u8a2d\u5099\u5916\u5730\u8cea\u8abf\u67fb\u696d\u52d9","client_name":"\u56fd\u571f\u4ea4\u901a\u7701\u5317\u6d77\u9053\u958b\u767a\u5c40\u77f3\u72e9\u5ddd\u958b\u767a\u5efa\u8a2d\u90e8\u5e7e\u6625\u5225\u5ddd\u30c0\u30e0\u5efa\u8a2d\u4e8b\u696d\u6240","boring_xml_url":43,"boring_view_url":1,"soilmap_view_url":null,"soiltest_xml_url":0,"soiltest_view_url":0},{"id":133688,"code":"B4KJ201801002-1937","latitude":"43.2397","longitude":"142.0006","source_code":"HK20062201740002","project_name":"\u5e7e\u6625\u5225\u5ddd\u7dcf\u5408\u958b\u767a\u4e8b\u696d","survey_name":"\u5e7e\u6625\u5225\u5ddd\u7dcf\u5408\u958b\u767a\u4e8b\u696d\u306e\u5185 \u65b0\u6842\u6ca2\u30c0\u30e0\u4eee\u8a2d\u5099\u5916\u5730\u8cea\u8abf\u67fb\u696d\u52d9","client_name":"\u56fd\u571f\u4ea4\u901a\u7701\u5317\u6d77\u9053\u958b\u767a\u5c40\u77f3\u72e9\u5ddd\u958b\u767a\u5efa\u8a2d\u90e8\u5e7e\u6625\u5225\u5ddd\u30c0\u30e0\u5efa\u8a2d\u4e8b\u696d\u6240","boring_xml_url":43,"boring_view_url":1,"soilmap_view_url":null,"soiltest_xml_url":0,"soiltest_view_url":0},{"id":133687,"code":"B4KJ201801002-1936","latitude":"43.2394","longitude":"142.0006","source_code":"HK20062201740001","project_name":"\u5e7e\u6625\u5225\u5ddd\u7dcf\u5408\u958b\u767a\u4e8b\u696d","survey_name":"\u5e7e\u6625\u5225\u5ddd\u7dcf\u5408\u958b\u767a\u4e8b\u696d\u306e\u5185 \u65b0\u6842\u6ca2\u30c0\u30e0\u4eee\u8a2d\u5099\u5916\u5730\u8cea\u8abf\u67fb\u696d\u52d9","client_name":"\u56fd\u571f\u4ea4\u901a\u7701\u5317\u6d77\u9053\u958b\u767a\u5c40\u77f3\u72e9\u5ddd\u958b\u767a\u5efa\u8a2d\u90e8\u5e7e\u6625\u5225\u5ddd\u30c0\u30e0\u5efa\u8a2d\u4e8b\u696d\u6240","boring_xml_url":43,"boring_view_url":1,"soilmap_view_url":null,"soiltest_xml_url":0,"soiltest_view_url":0},{"id":133686,"code":"B4KJ201801002-1935","latitude":"43.227264","longitude":"142.041617","source_code":"HK20062201590022","project_name":"\u5e7e\u6625\u5225\u5ddd\u7dcf\u5408\u958b\u767a\u4e8b\u696d","survey_name":"\u5e7e\u6625\u5225\u5ddd\u7dcf\u5408\u958b\u767a\u4e8b\u696d\u306e\u5185 \u4ed8\u66ff\u56fd\u9053\u5730\u8cea\u8abf\u67fb\u696d\u52d9","client_name":"\u56fd\u571f\u4ea4\u901a\u7701\u5317\u6d77\u9053\u958b\u767a\u5c40\u77f3\u72e9\u5ddd\u958b\u767a\u5efa\u8a2d\u90e8\u5e7e\u6625\u5225\u5ddd\u30c0\u30e0\u5efa\u8a2d\u4e8b\u696d\u6240","boring_xml_url":43,"boring_view_url":1,"soilmap_view_url":null,"soiltest_xml_url":0,"soiltest_view_url":0},{"id":133685,"code":"B4KJ201801002-1934","latitude":"43.227047","longitude":"142.042344","source_code":"HK20062201590021","project_name":"\u5e7e\u6625\u5225\u5ddd\u7dcf\u5408\u958b\u767a\u4e8b\u696d","survey_name":"\u5e7e\u6625\u5225\u5ddd\u7dcf\u5408\u958b\u767a\u4e8b\u696d\u306e\u5185 \u4ed8\u66ff\u56fd\u9053\u5730\u8cea\u8abf\u67fb\u696d\u52d9","client_name":"\u56fd\u571f\u4ea4\u901a\u7701\u5317\u6d77\u9053\u958b\u767a\u5c40\u77f3\u72e9\u5ddd\u958b\u767a\u5efa\u8a2d\u90e8\u5e7e\u6625\u5225\u5ddd\u30c0\u30e0\u5efa\u8a2d\u4e8b\u696d\u6240","boring_xml_url":43,"boring_view_url":1,"soilmap_view_url":null,"soiltest_xml_url":0,"soiltest_view_url":0},{"id":133684,"code":"B4KJ201801002-1933","latitude":"43.226831","longitude":"142.043072","source_code":"HK20062201590020","project_name":"\u5e7e\u6625\u5225\u5ddd\u7dcf\u5408\u958b\u767a\u4e8b\u696d","survey_name":"\u5e7e\u6625\u5225\u5ddd\u7dcf\u5408\u958b\u767a\u4e8b\u696d\u306e\u5185 \u4ed8\u66ff\u56fd\u9053\u5730\u8cea\u8abf\u67fb\u696d\u52d9","client_name":"\u56fd\u571f\u4ea4\u901a\u7701\u5317\u6d77\u9053\u958b\u767a\u5c40\u77f3\u72e9\u5ddd\u958b\u767a\u5efa\u8a2d\u90e8\u5e7e\u6625\u5225\u5ddd\u30c0\u30e0\u5efa\u8a2d\u4e8b\u696d\u6240","boring_xml_url":43,"boring_view_url":1,"soilmap_view_url":null,"soiltest_xml_url":0,"soiltest_view_url":0},{"id":133683,"code":"B4KJ201801002-1932","latitude":"43.237328","longitude":"142.036989","source_code":"HK20062201590019","project_name":"\u5e7e\u6625\u5225\u5ddd\u7dcf\u5408\u958b\u767a\u4e8b\u696d","survey_name":"\u5e7e\u6625\u5225\u5ddd\u7dcf\u5408\u958b\u767a\u4e8b\u696d\u306e\u5185 \u4ed8\u66ff\u56fd\u9053\u5730\u8cea\u8abf\u67fb\u696d\u52d9","client_name":"\u56fd\u571f\u4ea4\u901a\u7701\u5317\u6d77\u9053\u958b\u767a\u5c40\u77f3\u72e9\u5ddd\u958b\u767a\u5efa\u8a2d\u90e8\u5e7e\u6625\u5225\u5ddd\u30c0\u30e0\u5efa\u8a2d\u4e8b\u696d\u6240","boring_xml_url":43,"boring_view_url":1,"soilmap_view_url":null,"soiltest_xml_url":0,"soiltest_view_url":0},{"id":133682,"code":"B4KJ201801002-1931","latitude":"43.236781","longitude":"142.037353","source_code":"HK20062201590018","project_name":"\u5e7e\u6625\u5225\u5ddd\u7dcf\u5408\u958b\u767a\u4e8b\u696d","survey_name":"\u5e7e\u6625\u5225\u5ddd\u7dcf\u5408\u958b\u767a\u4e8b\u696d\u306e\u5185 \u4ed8\u66ff\u56fd\u9053\u5730\u8cea\u8abf\u67fb\u696d\u52d9","client_name":"\u56fd\u571f\u4ea4\u901a\u7701\u5317\u6d77\u9053\u958b\u767a\u5c40\u77f3\u72e9\u5ddd\u958b\u767a\u5efa\u8a2d\u90e8\u5e7e\u6625\u5225\u5ddd\u30c0\u30e0\u5efa\u8a2d\u4e8b\u696d\u6240","boring_xml_url":43,"boring_view_url":1,"soilmap_view_url":null,"soiltest_xml_url":0,"soiltest_view_url":0},{"id":133681,"code":"B4KJ201801002-1930","latitude":"43.234364","longitude":"142.037692","source_code":"HK20062201590017","project_name":"\u5e7e\u6625\u5225\u5ddd\u7dcf\u5408\u958b\u767a\u4e8b\u696d","survey_name":"\u5e7e\u6625\u5225\u5ddd\u7dcf\u5408\u958b\u767a\u4e8b\u696d\u306e\u5185 \u4ed8\u66ff\u56fd\u9053\u5730\u8cea\u8abf\u67fb\u696d\u52d9","client_name":"\u56fd\u571f\u4ea4\u901a\u7701\u5317\u6d77\u9053\u958b\u767a\u5c40\u77f3\u72e9\u5ddd\u958b\u767a\u5efa\u8a2d\u90e8\u5e7e\u6625\u5225\u5ddd\u30c0\u30e0\u5efa\u8a2d\u4e8b\u696d\u6240","boring_xml_url":43,"boring_view_url":1,"soilmap_view_url":null,"soiltest_xml_url":0,"soiltest_view_url":0},{"id":133680,"code":"B4KJ201801002-1929","latitude":"43.23369","longitude":"142.03797","source_code":"HK20062201590016","project_name":"\u5e7e\u6625\u5225\u5ddd\u7dcf\u5408\u958b\u767a\u4e8b\u696d","survey_name":"\u5e7e\u6625\u5225\u5ddd\u7dcf\u5408\u958b\u767a\u4e8b\u696d\u306e\u5185 \u4ed8\u66ff\u56fd\u9053\u5730\u8cea\u8abf\u67fb\u696d\u52d9","client_name":"\u56fd\u571f\u4ea4\u901a\u7701\u5317\u6d77\u9053\u958b\u767a\u5c40\u77f3\u72e9\u5ddd\u958b\u767a\u5efa\u8a2d\u90e8\u5e7e\u6625\u5225\u5ddd\u30c0\u30e0\u5efa\u8a2d\u4e8b\u696d\u6240","boring_xml_url":43,"boring_view_url":1,"soilmap_view_url":null,"soiltest_xml_url":0,"soiltest_view_url":0},{"id":133679,"code":"B4KJ201801002-1928","latitude":"43.227578","longitude":"142.042439","source_code":"HK20062201590015","project_name":"\u5e7e\u6625\u5225\u5ddd\u7dcf\u5408\u958b\u767a\u4e8b\u696d","survey_name":"\u5e7e\u6625\u5225\u5ddd\u7dcf\u5408\u958b\u767a\u4e8b\u696d\u306e\u5185 \u4ed8\u66ff\u56fd\u9053\u5730\u8cea\u8abf\u67fb\u696d\u52d9","client_name":"\u56fd\u571f\u4ea4\u901a\u7701\u5317\u6d77\u9053\u958b\u767a\u5c40\u77f3\u72e9\u5ddd\u958b\u767a\u5efa\u8a2d\u90e8\u5e7e\u6625\u5225\u5ddd\u30c0\u30e0\u5efa\u8a2d\u4e8b\u696d\u6240","boring_xml_url":43,"boring_view_url":1,"soilmap_view_url":null,"soiltest_xml_url":0,"soiltest_view_url":0},{"id":133678,"code":"B4KJ201801002-1927","latitude":"43.226811","longitude":"142.043753","source_code":"HK20062201590014","project_name":"\u5e7e\u6625\u5225\u5ddd\u7dcf\u5408\u958b\u767a\u4e8b\u696d","survey_name":"\u5e7e\u6625\u5225\u5ddd\u7dcf\u5408\u958b\u767a\u4e8b\u696d\u306e\u5185 \u4ed8\u66ff\u56fd\u9053\u5730\u8cea\u8abf\u67fb\u696d\u52d9","client_name":"\u56fd\u571f\u4ea4\u901a\u7701\u5317\u6d77\u9053\u958b\u767a\u5c40\u77f3\u72e9\u5ddd\u958b\u767a\u5efa\u8a2d\u90e8\u5e7e\u6625\u5225\u5ddd\u30c0\u30e0\u5efa\u8a2d\u4e8b\u696d\u6240","boring_xml_url":43,"boring_view_url":1,"soilmap_view_url":null,"soiltest_xml_url":0,"soiltest_view_url":0},{"id":133677,"code":"B4KJ201801002-1926","latitude":"43.225011","longitude":"142.045619","source_code":"HK20062201590013","project_name":"\u5e7e\u6625\u5225\u5ddd\u7dcf\u5408\u958b\u767a\u4e8b\u696d","survey_name":"\u5e7e\u6625\u5225\u5ddd\u7dcf\u5408\u958b\u767a\u4e8b\u696d\u306e\u5185 \u4ed8\u66ff\u56fd\u9053\u5730\u8cea\u8abf\u67fb\u696d\u52d9","client_name":"\u56fd\u571f\u4ea4\u901a\u7701\u5317\u6d77\u9053\u958b\u767a\u5c40\u77f3\u72e9\u5ddd\u958b\u767a\u5efa\u8a2d\u90e8\u5e7e\u6625\u5225\u5ddd\u30c0\u30e0\u5efa\u8a2d\u4e8b\u696d\u6240","boring_xml_url":43,"boring_view_url":1,"soilmap_view_url":null,"soiltest_xml_url":0,"soiltest_view_url":0},{"id":133676,"code":"B4KJ201801002-1925","latitude":"43.224853","longitude":"142.045864","source_code":"HK20062201590012","project_name":"\u5e7e\u6625\u5225\u5ddd\u7dcf\u5408\u958b\u767a\u4e8b\u696d","survey_name":"\u5e7e\u6625\u5225\u5ddd\u7dcf\u5408\u958b\u767a\u4e8b\u696d\u306e\u5185 \u4ed8\u66ff\u56fd\u9053\u5730\u8cea\u8abf\u67fb\u696d\u52d9","client_name":"\u56fd\u571f\u4ea4\u901a\u7701\u5317\u6d77\u9053\u958b\u767a\u5c40\u77f3\u72e9\u5ddd\u958b\u767a\u5efa\u8a2d\u90e8\u5e7e\u6625\u5225\u5ddd\u30c0\u30e0\u5efa\u8a2d\u4e8b\u696d\u6240","boring_xml_url":43,"boring_view_url":1,"soilmap_view_url":null,"soiltest_xml_url":0,"soiltest_view_url":0}]}}