{"header":{"xyz":{"source":[],"mosaic":false},"page":6231,"raw":{"soiltest_result":"0","bbox":"57.598333,109.544722,1.933333,163.806111","page":"6231"},"conditions":{"soiltest_result":0,"north":57.598333,"west":109.544722,"south":1.933333,"east":163.806111},"success":true,"message":""},"data":{"meta":{"total":212844,"page":6231,"pages":7095,"count":30},"values":[{"id":133645,"code":"B4KJ201801002-1894","latitude":"43.0553","longitude":"142.1428","source_code":"HK20062201200004","project_name":"\u5915\u5f35\u30b7\u30e5\u30fc\u30d1\u30ed\u30c0\u30e0\u5915\u5f35\u5cb3\u4ed8\u66ff\u6797\u9053\u8a73\u7d30\u8a2d\u8a08\u696d\u52d9","survey_name":"\u5915\u5f35\u30b7\u30e5\u30fc\u30d1\u30ed\u30c0\u30e0\u5915\u5f35\u5cb3\u4ed8\u66ff\u6797\u9053\u8a73\u7d30\u8a2d\u8a08\u696d\u52d9","client_name":"\u56fd\u571f\u4ea4\u901a\u7701\u5317\u6d77\u9053\u958b\u767a\u5c40\u77f3\u72e9\u5ddd\u958b\u767a\u5efa\u8a2d\u90e8","boring_xml_url":43,"boring_view_url":1,"soilmap_view_url":null,"soiltest_xml_url":0,"soiltest_view_url":0},{"id":133644,"code":"B4KJ201801002-1893","latitude":"43.0556","longitude":"142.1431","source_code":"HK20062201200003","project_name":"\u5915\u5f35\u30b7\u30e5\u30fc\u30d1\u30ed\u30c0\u30e0\u5915\u5f35\u5cb3\u4ed8\u66ff\u6797\u9053\u8a73\u7d30\u8a2d\u8a08\u696d\u52d9","survey_name":"\u5915\u5f35\u30b7\u30e5\u30fc\u30d1\u30ed\u30c0\u30e0\u5915\u5f35\u5cb3\u4ed8\u66ff\u6797\u9053\u8a73\u7d30\u8a2d\u8a08\u696d\u52d9","client_name":"\u56fd\u571f\u4ea4\u901a\u7701\u5317\u6d77\u9053\u958b\u767a\u5c40\u77f3\u72e9\u5ddd\u958b\u767a\u5efa\u8a2d\u90e8","boring_xml_url":43,"boring_view_url":1,"soilmap_view_url":null,"soiltest_xml_url":0,"soiltest_view_url":0},{"id":133643,"code":"B4KJ201801002-1892","latitude":"43.0578","longitude":"142.1439","source_code":"HK20062201200002","project_name":"\u5915\u5f35\u30b7\u30e5\u30fc\u30d1\u30ed\u30c0\u30e0\u5915\u5f35\u5cb3\u4ed8\u66ff\u6797\u9053\u8a73\u7d30\u8a2d\u8a08\u696d\u52d9","survey_name":"\u5915\u5f35\u30b7\u30e5\u30fc\u30d1\u30ed\u30c0\u30e0\u5915\u5f35\u5cb3\u4ed8\u66ff\u6797\u9053\u8a73\u7d30\u8a2d\u8a08\u696d\u52d9","client_name":"\u56fd\u571f\u4ea4\u901a\u7701\u5317\u6d77\u9053\u958b\u767a\u5c40\u77f3\u72e9\u5ddd\u958b\u767a\u5efa\u8a2d\u90e8","boring_xml_url":43,"boring_view_url":1,"soilmap_view_url":null,"soiltest_xml_url":0,"soiltest_view_url":0},{"id":133642,"code":"B4KJ201801002-1891","latitude":"43.0581","longitude":"142.1439","source_code":"HK20062201200001","project_name":"\u5915\u5f35\u30b7\u30e5\u30fc\u30d1\u30ed\u30c0\u30e0\u5915\u5f35\u5cb3\u4ed8\u66ff\u6797\u9053\u8a73\u7d30\u8a2d\u8a08\u696d\u52d9","survey_name":"\u5915\u5f35\u30b7\u30e5\u30fc\u30d1\u30ed\u30c0\u30e0\u5915\u5f35\u5cb3\u4ed8\u66ff\u6797\u9053\u8a73\u7d30\u8a2d\u8a08\u696d\u52d9","client_name":"\u56fd\u571f\u4ea4\u901a\u7701\u5317\u6d77\u9053\u958b\u767a\u5c40\u77f3\u72e9\u5ddd\u958b\u767a\u5efa\u8a2d\u90e8","boring_xml_url":43,"boring_view_url":1,"soilmap_view_url":null,"soiltest_xml_url":0,"soiltest_view_url":0},{"id":133641,"code":"B4KJ201801002-1890","latitude":"43.00908","longitude":"142.14211","source_code":"HK20062201110006","project_name":"\u5915\u5f35\u30b7\u30e5\u30fc\u30d1\u30ed\u30c0\u30e0\u4e0b\u5915\u5f35\u5bfe\u5cb81\u53f7\u4ed8\u66ff\u4f5c\u696d\u9053\u8a73\u7d30\u8a2d\u8a08\u696d\u52d9","survey_name":"\u5915\u5f35\u30b7\u30e5\u30fc\u30d1\u30ed\u30c0\u30e0\u4e0b\u5915\u5f35\u5bfe\u5cb81\u53f7\u4ed8\u66ff\u4f5c\u696d\u9053\u8a73\u7d30\u8a2d\u8a08\u696d\u52d9","client_name":"\u56fd\u571f\u4ea4\u901a\u7701\u5317\u6d77\u9053\u958b\u767a\u5c40\u77f3\u72e9\u5ddd\u958b\u767a\u5efa\u8a2d\u90e8","boring_xml_url":43,"boring_view_url":1,"soilmap_view_url":null,"soiltest_xml_url":0,"soiltest_view_url":0},{"id":133640,"code":"B4KJ201801002-1889","latitude":"43.0085","longitude":"142.14569","source_code":"HK20062201110005","project_name":"\u5915\u5f35\u30b7\u30e5\u30fc\u30d1\u30ed\u30c0\u30e0\u4e0b\u5915\u5f35\u5bfe\u5cb81\u53f7\u4ed8\u66ff\u4f5c\u696d\u9053\u8a73\u7d30\u8a2d\u8a08\u696d\u52d9","survey_name":"\u5915\u5f35\u30b7\u30e5\u30fc\u30d1\u30ed\u30c0\u30e0\u4e0b\u5915\u5f35\u5bfe\u5cb81\u53f7\u4ed8\u66ff\u4f5c\u696d\u9053\u8a73\u7d30\u8a2d\u8a08\u696d\u52d9","client_name":"\u56fd\u571f\u4ea4\u901a\u7701\u5317\u6d77\u9053\u958b\u767a\u5c40\u77f3\u72e9\u5ddd\u958b\u767a\u5efa\u8a2d\u90e8","boring_xml_url":43,"boring_view_url":1,"soilmap_view_url":null,"soiltest_xml_url":44,"soiltest_view_url":44},{"id":133639,"code":"B4KJ201801002-1888","latitude":"43.00767","longitude":"142.14631","source_code":"HK20062201110004","project_name":"\u5915\u5f35\u30b7\u30e5\u30fc\u30d1\u30ed\u30c0\u30e0\u4e0b\u5915\u5f35\u5bfe\u5cb81\u53f7\u4ed8\u66ff\u4f5c\u696d\u9053\u8a73\u7d30\u8a2d\u8a08\u696d\u52d9","survey_name":"\u5915\u5f35\u30b7\u30e5\u30fc\u30d1\u30ed\u30c0\u30e0\u4e0b\u5915\u5f35\u5bfe\u5cb81\u53f7\u4ed8\u66ff\u4f5c\u696d\u9053\u8a73\u7d30\u8a2d\u8a08\u696d\u52d9","client_name":"\u56fd\u571f\u4ea4\u901a\u7701\u5317\u6d77\u9053\u958b\u767a\u5c40\u77f3\u72e9\u5ddd\u958b\u767a\u5efa\u8a2d\u90e8","boring_xml_url":43,"boring_view_url":1,"soilmap_view_url":null,"soiltest_xml_url":0,"soiltest_view_url":0},{"id":133638,"code":"B4KJ201801002-1887","latitude":"42.99781","longitude":"142.14783","source_code":"HK20062201110003","project_name":"\u5915\u5f35\u30b7\u30e5\u30fc\u30d1\u30ed\u30c0\u30e0\u4e0b\u5915\u5f35\u5bfe\u5cb81\u53f7\u4ed8\u66ff\u4f5c\u696d\u9053\u8a73\u7d30\u8a2d\u8a08\u696d\u52d9","survey_name":"\u5915\u5f35\u30b7\u30e5\u30fc\u30d1\u30ed\u30c0\u30e0\u4e0b\u5915\u5f35\u5bfe\u5cb81\u53f7\u4ed8\u66ff\u4f5c\u696d\u9053\u8a73\u7d30\u8a2d\u8a08\u696d\u52d9","client_name":"\u56fd\u571f\u4ea4\u901a\u7701\u5317\u6d77\u9053\u958b\u767a\u5c40\u77f3\u72e9\u5ddd\u958b\u767a\u5efa\u8a2d\u90e8","boring_xml_url":43,"boring_view_url":1,"soilmap_view_url":null,"soiltest_xml_url":44,"soiltest_view_url":44},{"id":133637,"code":"B4KJ201801002-1886","latitude":"42.99658","longitude":"142.14886","source_code":"HK20062201110002","project_name":"\u5915\u5f35\u30b7\u30e5\u30fc\u30d1\u30ed\u30c0\u30e0\u4e0b\u5915\u5f35\u5bfe\u5cb81\u53f7\u4ed8\u66ff\u4f5c\u696d\u9053\u8a73\u7d30\u8a2d\u8a08\u696d\u52d9","survey_name":"\u5915\u5f35\u30b7\u30e5\u30fc\u30d1\u30ed\u30c0\u30e0\u4e0b\u5915\u5f35\u5bfe\u5cb81\u53f7\u4ed8\u66ff\u4f5c\u696d\u9053\u8a73\u7d30\u8a2d\u8a08\u696d\u52d9","client_name":"\u56fd\u571f\u4ea4\u901a\u7701\u5317\u6d77\u9053\u958b\u767a\u5c40\u77f3\u72e9\u5ddd\u958b\u767a\u5efa\u8a2d\u90e8","boring_xml_url":43,"boring_view_url":1,"soilmap_view_url":null,"soiltest_xml_url":0,"soiltest_view_url":0},{"id":133636,"code":"B4KJ201801002-1885","latitude":"42.99728","longitude":"142.15144","source_code":"HK20062201110001","project_name":"\u5915\u5f35\u30b7\u30e5\u30fc\u30d1\u30ed\u30c0\u30e0\u4e0b\u5915\u5f35\u5bfe\u5cb81\u53f7\u4ed8\u66ff\u4f5c\u696d\u9053\u8a73\u7d30\u8a2d\u8a08\u696d\u52d9","survey_name":"\u5915\u5f35\u30b7\u30e5\u30fc\u30d1\u30ed\u30c0\u30e0\u4e0b\u5915\u5f35\u5bfe\u5cb81\u53f7\u4ed8\u66ff\u4f5c\u696d\u9053\u8a73\u7d30\u8a2d\u8a08\u696d\u52d9","client_name":"\u56fd\u571f\u4ea4\u901a\u7701\u5317\u6d77\u9053\u958b\u767a\u5c40\u77f3\u72e9\u5ddd\u958b\u767a\u5efa\u8a2d\u90e8","boring_xml_url":43,"boring_view_url":1,"soilmap_view_url":null,"soiltest_xml_url":0,"soiltest_view_url":0},{"id":133635,"code":"B4KJ201801002-1884","latitude":"42.9914","longitude":"142.1711","source_code":"HK20062201100006","project_name":"","survey_name":"\u5e73\u621018\u5e74\u5ea6 \u5915\u5f35\u30b7\u30e5\u30fc\u30d1\u30ed\u30c0\u30e0\u66f2\u306e\u6ca2\u4ed8\u66ff\u6797\u9053\u8a73\u7d30\u8a2d\u8a08\u696d\u52d9","client_name":"\u56fd\u571f\u4ea4\u901a\u7701\u5317\u6d77\u9053\u958b\u767a\u5c40\u77f3\u72e9\u5ddd\u958b\u767a\u5efa\u8a2d\u90e8","boring_xml_url":43,"boring_view_url":1,"soilmap_view_url":null,"soiltest_xml_url":44,"soiltest_view_url":44},{"id":133634,"code":"B4KJ201801002-1883","latitude":"42.9914","longitude":"142.1736","source_code":"HK20062201100005","project_name":"","survey_name":"\u5e73\u621018\u5e74\u5ea6 \u5915\u5f35\u30b7\u30e5\u30fc\u30d1\u30ed\u30c0\u30e0\u66f2\u306e\u6ca2\u4ed8\u66ff\u6797\u9053\u8a73\u7d30\u8a2d\u8a08\u696d\u52d9","client_name":"\u56fd\u571f\u4ea4\u901a\u7701\u5317\u6d77\u9053\u958b\u767a\u5c40\u77f3\u72e9\u5ddd\u958b\u767a\u5efa\u8a2d\u90e8","boring_xml_url":43,"boring_view_url":1,"soilmap_view_url":null,"soiltest_xml_url":44,"soiltest_view_url":44},{"id":133633,"code":"B4KJ201801002-1882","latitude":"42.9917","longitude":"142.1736","source_code":"HK20062201100004","project_name":"","survey_name":"\u5e73\u621018\u5e74\u5ea6 \u5915\u5f35\u30b7\u30e5\u30fc\u30d1\u30ed\u30c0\u30e0\u66f2\u306e\u6ca2\u4ed8\u66ff\u6797\u9053\u8a73\u7d30\u8a2d\u8a08\u696d\u52d9","client_name":"\u56fd\u571f\u4ea4\u901a\u7701\u5317\u6d77\u9053\u958b\u767a\u5c40\u77f3\u72e9\u5ddd\u958b\u767a\u5efa\u8a2d\u90e8","boring_xml_url":43,"boring_view_url":1,"soilmap_view_url":null,"soiltest_xml_url":44,"soiltest_view_url":44},{"id":133632,"code":"B4KJ201801002-1881","latitude":"42.9914","longitude":"142.1728","source_code":"HK20062201100003","project_name":"","survey_name":"\u5e73\u621018\u5e74\u5ea6 \u5915\u5f35\u30b7\u30e5\u30fc\u30d1\u30ed\u30c0\u30e0\u66f2\u306e\u6ca2\u4ed8\u66ff\u6797\u9053\u8a73\u7d30\u8a2d\u8a08\u696d\u52d9","client_name":"\u56fd\u571f\u4ea4\u901a\u7701\u5317\u6d77\u9053\u958b\u767a\u5c40\u77f3\u72e9\u5ddd\u958b\u767a\u5efa\u8a2d\u90e8","boring_xml_url":43,"boring_view_url":1,"soilmap_view_url":null,"soiltest_xml_url":44,"soiltest_view_url":44},{"id":133631,"code":"B4KJ201801002-1880","latitude":"42.9936","longitude":"142.175","source_code":"HK20062201100002","project_name":"","survey_name":"\u5e73\u621018\u5e74\u5ea6 \u5915\u5f35\u30b7\u30e5\u30fc\u30d1\u30ed\u30c0\u30e0\u66f2\u306e\u6ca2\u4ed8\u66ff\u6797\u9053\u8a73\u7d30\u8a2d\u8a08\u696d\u52d9","client_name":"\u56fd\u571f\u4ea4\u901a\u7701\u5317\u6d77\u9053\u958b\u767a\u5c40\u77f3\u72e9\u5ddd\u958b\u767a\u5efa\u8a2d\u90e8","boring_xml_url":43,"boring_view_url":1,"soilmap_view_url":null,"soiltest_xml_url":0,"soiltest_view_url":0},{"id":133630,"code":"B4KJ201801002-1879","latitude":"42.9944","longitude":"142.175","source_code":"HK20062201100001","project_name":"","survey_name":"\u5e73\u621018\u5e74\u5ea6 \u5915\u5f35\u30b7\u30e5\u30fc\u30d1\u30ed\u30c0\u30e0\u66f2\u306e\u6ca2\u4ed8\u66ff\u6797\u9053\u8a73\u7d30\u8a2d\u8a08\u696d\u52d9","client_name":"\u56fd\u571f\u4ea4\u901a\u7701\u5317\u6d77\u9053\u958b\u767a\u5c40\u77f3\u72e9\u5ddd\u958b\u767a\u5efa\u8a2d\u90e8","boring_xml_url":43,"boring_view_url":1,"soilmap_view_url":null,"soiltest_xml_url":0,"soiltest_view_url":0},{"id":133629,"code":"B4KJ201801002-1878","latitude":"43.05633","longitude":"142.14008","source_code":"HK20062200940005","project_name":"\u5915\u5f35\u30b7\u30e5\u30fc\u30d1\u30ed\u30c0\u30e0 \u6625\u65e5\u652f\u7dda\u4ed8\u66ff\u6797\u9053\u8a73\u7d30\u8a2d\u8a08\u696d\u52d9","survey_name":"\u5915\u5f35\u30b7\u30e5\u30fc\u30d1\u30ed\u30c0\u30e0 \u6625\u65e5\u652f\u7dda\u4ed8\u66ff\u6797\u9053\u8a73\u7d30\u8a2d\u8a08\u696d\u52d9","client_name":"\u56fd\u571f\u4ea4\u901a\u7701\u5317\u6d77\u9053\u958b\u767a\u5c40\u77f3\u72e9\u5ddd\u958b\u767a\u5efa\u8a2d\u90e8\u5915\u5f35\u30b7\u30e5\u30fc\u30d1\u30ed\u30c0\u30e0\u7dcf\u5408\u5efa\u8a2d\u4e8b\u696d\u6240","boring_xml_url":43,"boring_view_url":1,"soilmap_view_url":null,"soiltest_xml_url":0,"soiltest_view_url":0},{"id":133628,"code":"B4KJ201801002-1877","latitude":"43.05631","longitude":"142.13992","source_code":"HK20062200940004","project_name":"\u5915\u5f35\u30b7\u30e5\u30fc\u30d1\u30ed\u30c0\u30e0 \u6625\u65e5\u652f\u7dda\u4ed8\u66ff\u6797\u9053\u8a73\u7d30\u8a2d\u8a08\u696d\u52d9","survey_name":"\u5915\u5f35\u30b7\u30e5\u30fc\u30d1\u30ed\u30c0\u30e0 \u6625\u65e5\u652f\u7dda\u4ed8\u66ff\u6797\u9053\u8a73\u7d30\u8a2d\u8a08\u696d\u52d9","client_name":"\u56fd\u571f\u4ea4\u901a\u7701\u5317\u6d77\u9053\u958b\u767a\u5c40\u77f3\u72e9\u5ddd\u958b\u767a\u5efa\u8a2d\u90e8\u5915\u5f35\u30b7\u30e5\u30fc\u30d1\u30ed\u30c0\u30e0\u7dcf\u5408\u5efa\u8a2d\u4e8b\u696d\u6240","boring_xml_url":43,"boring_view_url":1,"soilmap_view_url":null,"soiltest_xml_url":0,"soiltest_view_url":0},{"id":133627,"code":"B4KJ201801002-1876","latitude":"43.05639","longitude":"142.13992","source_code":"HK20062200940003","project_name":"\u5915\u5f35\u30b7\u30e5\u30fc\u30d1\u30ed\u30c0\u30e0 \u6625\u65e5\u652f\u7dda\u4ed8\u66ff\u6797\u9053\u8a73\u7d30\u8a2d\u8a08\u696d\u52d9","survey_name":"\u5915\u5f35\u30b7\u30e5\u30fc\u30d1\u30ed\u30c0\u30e0 \u6625\u65e5\u652f\u7dda\u4ed8\u66ff\u6797\u9053\u8a73\u7d30\u8a2d\u8a08\u696d\u52d9","client_name":"\u56fd\u571f\u4ea4\u901a\u7701\u5317\u6d77\u9053\u958b\u767a\u5c40\u77f3\u72e9\u5ddd\u958b\u767a\u5efa\u8a2d\u90e8\u5915\u5f35\u30b7\u30e5\u30fc\u30d1\u30ed\u30c0\u30e0\u7dcf\u5408\u5efa\u8a2d\u4e8b\u696d\u6240","boring_xml_url":43,"boring_view_url":1,"soilmap_view_url":null,"soiltest_xml_url":0,"soiltest_view_url":0},{"id":133626,"code":"B4KJ201801002-1875","latitude":"43.05647","longitude":"142.13992","source_code":"HK20062200940002","project_name":"\u5915\u5f35\u30b7\u30e5\u30fc\u30d1\u30ed\u30c0\u30e0 \u6625\u65e5\u652f\u7dda\u4ed8\u66ff\u6797\u9053\u8a73\u7d30\u8a2d\u8a08\u696d\u52d9","survey_name":"\u5915\u5f35\u30b7\u30e5\u30fc\u30d1\u30ed\u30c0\u30e0 \u6625\u65e5\u652f\u7dda\u4ed8\u66ff\u6797\u9053\u8a73\u7d30\u8a2d\u8a08\u696d\u52d9","client_name":"\u56fd\u571f\u4ea4\u901a\u7701\u5317\u6d77\u9053\u958b\u767a\u5c40\u77f3\u72e9\u5ddd\u958b\u767a\u5efa\u8a2d\u90e8\u5915\u5f35\u30b7\u30e5\u30fc\u30d1\u30ed\u30c0\u30e0\u7dcf\u5408\u5efa\u8a2d\u4e8b\u696d\u6240","boring_xml_url":43,"boring_view_url":1,"soilmap_view_url":null,"soiltest_xml_url":0,"soiltest_view_url":0},{"id":133625,"code":"B4KJ201801002-1874","latitude":"43.05656","longitude":"142.13992","source_code":"HK20062200940001","project_name":"\u5915\u5f35\u30b7\u30e5\u30fc\u30d1\u30ed\u30c0\u30e0 \u6625\u65e5\u652f\u7dda\u4ed8\u66ff\u6797\u9053\u8a73\u7d30\u8a2d\u8a08\u696d\u52d9","survey_name":"\u5915\u5f35\u30b7\u30e5\u30fc\u30d1\u30ed\u30c0\u30e0 \u6625\u65e5\u652f\u7dda\u4ed8\u66ff\u6797\u9053\u8a73\u7d30\u8a2d\u8a08\u696d\u52d9","client_name":"\u56fd\u571f\u4ea4\u901a\u7701\u5317\u6d77\u9053\u958b\u767a\u5c40\u77f3\u72e9\u5ddd\u958b\u767a\u5efa\u8a2d\u90e8\u5915\u5f35\u30b7\u30e5\u30fc\u30d1\u30ed\u30c0\u30e0\u7dcf\u5408\u5efa\u8a2d\u4e8b\u696d\u6240","boring_xml_url":43,"boring_view_url":1,"soilmap_view_url":null,"soiltest_xml_url":0,"soiltest_view_url":0},{"id":133624,"code":"B4KJ201801002-1873","latitude":"42.92356","longitude":"141.71211","source_code":"HK20062200730021","project_name":"\u5e73\u621018\u5e74\u5ea6 \u5343\u6b73\u5ddd\u5dae\u6df5\u53f3\u5cb8\u5730\u533a\u5730\u8cea\u8abf\u67fb\u696d\u52d9","survey_name":"\u5e73\u621018\u5e74\u5ea6 \u5343\u6b73\u5ddd\u5dae\u6df5\u53f3\u5cb8\u5730\u533a\u5730\u8cea\u8abf\u67fb\u696d\u52d9","client_name":"\u56fd\u571f\u4ea4\u901a\u7701\u5317\u6d77\u9053\u958b\u767a\u5c40\u77f3\u72e9\u5ddd\u958b\u767a\u5efa\u8a2d\u90e8\u5343\u6b73\u5ddd\u6cb3\u5ddd\u4e8b\u52d9\u6240","boring_xml_url":43,"boring_view_url":1,"soilmap_view_url":null,"soiltest_xml_url":0,"soiltest_view_url":0},{"id":133623,"code":"B4KJ201801002-1872","latitude":"42.91664","longitude":"141.71419","source_code":"HK20062200730020","project_name":"\u5e73\u621018\u5e74\u5ea6 \u5343\u6b73\u5ddd\u5dae\u6df5\u53f3\u5cb8\u5730\u533a\u5730\u8cea\u8abf\u67fb\u696d\u52d9","survey_name":"\u5e73\u621018\u5e74\u5ea6 \u5343\u6b73\u5ddd\u5dae\u6df5\u53f3\u5cb8\u5730\u533a\u5730\u8cea\u8abf\u67fb\u696d\u52d9","client_name":"\u56fd\u571f\u4ea4\u901a\u7701\u5317\u6d77\u9053\u958b\u767a\u5c40\u77f3\u72e9\u5ddd\u958b\u767a\u5efa\u8a2d\u90e8\u5343\u6b73\u5ddd\u6cb3\u5ddd\u4e8b\u52d9\u6240","boring_xml_url":43,"boring_view_url":1,"soilmap_view_url":null,"soiltest_xml_url":0,"soiltest_view_url":0},{"id":133622,"code":"B4KJ201801002-1871","latitude":"42.93069","longitude":"141.70789","source_code":"HK20062200730019","project_name":"\u5e73\u621018\u5e74\u5ea6 \u5343\u6b73\u5ddd\u5dae\u6df5\u53f3\u5cb8\u5730\u533a\u5730\u8cea\u8abf\u67fb\u696d\u52d9","survey_name":"\u5e73\u621018\u5e74\u5ea6 \u5343\u6b73\u5ddd\u5dae\u6df5\u53f3\u5cb8\u5730\u533a\u5730\u8cea\u8abf\u67fb\u696d\u52d9","client_name":"\u56fd\u571f\u4ea4\u901a\u7701\u5317\u6d77\u9053\u958b\u767a\u5c40\u77f3\u72e9\u5ddd\u958b\u767a\u5efa\u8a2d\u90e8\u5343\u6b73\u5ddd\u6cb3\u5ddd\u4e8b\u52d9\u6240","boring_xml_url":43,"boring_view_url":1,"soilmap_view_url":null,"soiltest_xml_url":0,"soiltest_view_url":0},{"id":133621,"code":"B4KJ201801002-1870","latitude":"42.93492","longitude":"141.6955","source_code":"HK20062200730018","project_name":"\u5e73\u621018\u5e74\u5ea6 \u5343\u6b73\u5ddd\u5dae\u6df5\u53f3\u5cb8\u5730\u533a\u5730\u8cea\u8abf\u67fb\u696d\u52d9","survey_name":"\u5e73\u621018\u5e74\u5ea6 \u5343\u6b73\u5ddd\u5dae\u6df5\u53f3\u5cb8\u5730\u533a\u5730\u8cea\u8abf\u67fb\u696d\u52d9","client_name":"\u56fd\u571f\u4ea4\u901a\u7701\u5317\u6d77\u9053\u958b\u767a\u5c40\u77f3\u72e9\u5ddd\u958b\u767a\u5efa\u8a2d\u90e8\u5343\u6b73\u5ddd\u6cb3\u5ddd\u4e8b\u52d9\u6240","boring_xml_url":43,"boring_view_url":1,"soilmap_view_url":null,"soiltest_xml_url":0,"soiltest_view_url":0},{"id":133620,"code":"B4KJ201801002-1869","latitude":"42.92814","longitude":"141.68375","source_code":"HK20062200730017","project_name":"\u5e73\u621018\u5e74\u5ea6 \u5343\u6b73\u5ddd\u5dae\u6df5\u53f3\u5cb8\u5730\u533a\u5730\u8cea\u8abf\u67fb\u696d\u52d9","survey_name":"\u5e73\u621018\u5e74\u5ea6 \u5343\u6b73\u5ddd\u5dae\u6df5\u53f3\u5cb8\u5730\u533a\u5730\u8cea\u8abf\u67fb\u696d\u52d9","client_name":"\u56fd\u571f\u4ea4\u901a\u7701\u5317\u6d77\u9053\u958b\u767a\u5c40\u77f3\u72e9\u5ddd\u958b\u767a\u5efa\u8a2d\u90e8\u5343\u6b73\u5ddd\u6cb3\u5ddd\u4e8b\u52d9\u6240","boring_xml_url":43,"boring_view_url":1,"soilmap_view_url":null,"soiltest_xml_url":0,"soiltest_view_url":0},{"id":133619,"code":"B4KJ201801002-1868","latitude":"42.91375","longitude":"141.70725","source_code":"HK20062200730016","project_name":"\u5e73\u621018\u5e74\u5ea6 \u5343\u6b73\u5ddd\u5dae\u6df5\u53f3\u5cb8\u5730\u533a\u5730\u8cea\u8abf\u67fb\u696d\u52d9","survey_name":"\u5e73\u621018\u5e74\u5ea6 \u5343\u6b73\u5ddd\u5dae\u6df5\u53f3\u5cb8\u5730\u533a\u5730\u8cea\u8abf\u67fb\u696d\u52d9","client_name":"\u56fd\u571f\u4ea4\u901a\u7701\u5317\u6d77\u9053\u958b\u767a\u5c40\u77f3\u72e9\u5ddd\u958b\u767a\u5efa\u8a2d\u90e8\u5343\u6b73\u5ddd\u6cb3\u5ddd\u4e8b\u52d9\u6240","boring_xml_url":43,"boring_view_url":1,"soilmap_view_url":null,"soiltest_xml_url":0,"soiltest_view_url":0},{"id":133618,"code":"B4KJ201801002-1867","latitude":"42.91569","longitude":"141.70022","source_code":"HK20062200730015","project_name":"\u5e73\u621018\u5e74\u5ea6 \u5343\u6b73\u5ddd\u5dae\u6df5\u53f3\u5cb8\u5730\u533a\u5730\u8cea\u8abf\u67fb\u696d\u52d9","survey_name":"\u5e73\u621018\u5e74\u5ea6 \u5343\u6b73\u5ddd\u5dae\u6df5\u53f3\u5cb8\u5730\u533a\u5730\u8cea\u8abf\u67fb\u696d\u52d9","client_name":"\u56fd\u571f\u4ea4\u901a\u7701\u5317\u6d77\u9053\u958b\u767a\u5c40\u77f3\u72e9\u5ddd\u958b\u767a\u5efa\u8a2d\u90e8\u5343\u6b73\u5ddd\u6cb3\u5ddd\u4e8b\u52d9\u6240","boring_xml_url":43,"boring_view_url":1,"soilmap_view_url":null,"soiltest_xml_url":0,"soiltest_view_url":0},{"id":133617,"code":"B4KJ201801002-1866","latitude":"42.91981","longitude":"141.68925","source_code":"HK20062200730014","project_name":"\u5e73\u621018\u5e74\u5ea6 \u5343\u6b73\u5ddd\u5dae\u6df5\u53f3\u5cb8\u5730\u533a\u5730\u8cea\u8abf\u67fb\u696d\u52d9","survey_name":"\u5e73\u621018\u5e74\u5ea6 \u5343\u6b73\u5ddd\u5dae\u6df5\u53f3\u5cb8\u5730\u533a\u5730\u8cea\u8abf\u67fb\u696d\u52d9","client_name":"\u56fd\u571f\u4ea4\u901a\u7701\u5317\u6d77\u9053\u958b\u767a\u5c40\u77f3\u72e9\u5ddd\u958b\u767a\u5efa\u8a2d\u90e8\u5343\u6b73\u5ddd\u6cb3\u5ddd\u4e8b\u52d9\u6240","boring_xml_url":43,"boring_view_url":1,"soilmap_view_url":null,"soiltest_xml_url":0,"soiltest_view_url":0},{"id":133616,"code":"B4KJ201801002-1865","latitude":"42.92847","longitude":"141.70647","source_code":"HK20062200730013","project_name":"\u5e73\u621018\u5e74\u5ea6 \u5343\u6b73\u5ddd\u5dae\u6df5\u53f3\u5cb8\u5730\u533a\u5730\u8cea\u8abf\u67fb\u696d\u52d9","survey_name":"\u5e73\u621018\u5e74\u5ea6 \u5343\u6b73\u5ddd\u5dae\u6df5\u53f3\u5cb8\u5730\u533a\u5730\u8cea\u8abf\u67fb\u696d\u52d9","client_name":"\u56fd\u571f\u4ea4\u901a\u7701\u5317\u6d77\u9053\u958b\u767a\u5c40\u77f3\u72e9\u5ddd\u958b\u767a\u5efa\u8a2d\u90e8\u5343\u6b73\u5ddd\u6cb3\u5ddd\u4e8b\u52d9\u6240","boring_xml_url":43,"boring_view_url":1,"soilmap_view_url":null,"soiltest_xml_url":0,"soiltest_view_url":0}]}}