{"header":{"xyz":{"source":[],"mosaic":false},"page":6264,"raw":{"soiltest_result":"0","bbox":"57.598333,109.544722,1.933333,163.806111","page":"6264"},"conditions":{"soiltest_result":0,"north":57.598333,"west":109.544722,"south":1.933333,"east":163.806111},"success":true,"message":""},"data":{"meta":{"total":212844,"page":6264,"pages":7095,"count":30},"values":[{"id":132655,"code":"B4KJ201801002-0904","latitude":"33.928425","longitude":"133.117725","source_code":"PORT38006010013","project_name":"\u6e2f\u6e7e\u5c40","survey_name":"\u6771\u4e88\u6e2f\u4e2d\u592e\u5730\u533a\u571f\u8cea\u8abf\u67fb(\u305d\u306e2)","client_name":"\u56fd\u571f\u4ea4\u901a\u7701\u56db\u56fd\u5730\u65b9\u6574\u5099\u5c40","boring_xml_url":0,"boring_view_url":0,"soilmap_view_url":66,"soiltest_xml_url":0,"soiltest_view_url":66},{"id":132654,"code":"B4KJ201801002-0903","latitude":"33.92890556","longitude":"133.1181083","source_code":"PORT38006010012","project_name":"\u6e2f\u6e7e\u5c40","survey_name":"\u6771\u4e88\u6e2f\u4e2d\u592e\u5730\u533a\u571f\u8cea\u8abf\u67fb(\u305d\u306e2)","client_name":"\u56fd\u571f\u4ea4\u901a\u7701\u56db\u56fd\u5730\u65b9\u6574\u5099\u5c40","boring_xml_url":0,"boring_view_url":0,"soilmap_view_url":66,"soiltest_xml_url":0,"soiltest_view_url":66},{"id":132653,"code":"B4KJ201801002-0902","latitude":"33.928875","longitude":"133.1176667","source_code":"PORT38006010011","project_name":"\u6e2f\u6e7e\u5c40","survey_name":"\u6771\u4e88\u6e2f\u4e2d\u592e\u5730\u533a\u571f\u8cea\u8abf\u67fb(\u305d\u306e2)","client_name":"\u56fd\u571f\u4ea4\u901a\u7701\u56db\u56fd\u5730\u65b9\u6574\u5099\u5c40","boring_xml_url":0,"boring_view_url":0,"soilmap_view_url":66,"soiltest_xml_url":0,"soiltest_view_url":66},{"id":132652,"code":"B4KJ201801002-0901","latitude":"33.929175","longitude":"133.1185556","source_code":"PORT38006010010","project_name":"\u6e2f\u6e7e\u5c40","survey_name":"\u6771\u4e88\u6e2f\u4e2d\u592e\u5730\u533a\u571f\u8cea\u8abf\u67fb(\u305d\u306e2)","client_name":"\u56fd\u571f\u4ea4\u901a\u7701\u56db\u56fd\u5730\u65b9\u6574\u5099\u5c40","boring_xml_url":0,"boring_view_url":0,"soilmap_view_url":66,"soiltest_xml_url":0,"soiltest_view_url":66},{"id":132651,"code":"B4KJ201801002-0900","latitude":"33.92936111","longitude":"133.1180556","source_code":"PORT38006010009","project_name":"\u6e2f\u6e7e\u5c40","survey_name":"\u6771\u4e88\u6e2f\u4e2d\u592e\u5730\u533a\u571f\u8cea\u8abf\u67fb(\u305d\u306e2)","client_name":"\u56fd\u571f\u4ea4\u901a\u7701\u56db\u56fd\u5730\u65b9\u6574\u5099\u5c40","boring_xml_url":0,"boring_view_url":0,"soilmap_view_url":66,"soiltest_xml_url":0,"soiltest_view_url":66},{"id":132650,"code":"B4KJ201801002-0899","latitude":"33.92983611","longitude":"133.1183194","source_code":"PORT38006010008","project_name":"\u6e2f\u6e7e\u5c40","survey_name":"\u6771\u4e88\u6e2f\u4e2d\u592e\u5730\u533a\u571f\u8cea\u8abf\u67fb(\u305d\u306e2)","client_name":"\u56fd\u571f\u4ea4\u901a\u7701\u56db\u56fd\u5730\u65b9\u6574\u5099\u5c40","boring_xml_url":0,"boring_view_url":0,"soilmap_view_url":66,"soiltest_xml_url":0,"soiltest_view_url":66},{"id":132649,"code":"B4KJ201801002-0898","latitude":"33.92980492","longitude":"133.1179975","source_code":"PORT38006010007","project_name":"\u6e2f\u6e7e\u5c40","survey_name":"\u6771\u4e88\u6e2f\u4e2d\u592e\u5730\u533a\u571f\u8cea\u8abf\u67fb","client_name":"\u56fd\u571f\u4ea4\u901a\u7701\u56db\u56fd\u5730\u65b9\u6574\u5099\u5c40","boring_xml_url":0,"boring_view_url":0,"soilmap_view_url":66,"soiltest_xml_url":0,"soiltest_view_url":66},{"id":132648,"code":"B4KJ201801002-0897","latitude":"33.92977661","longitude":"133.1176685","source_code":"PORT38006010006","project_name":"\u6e2f\u6e7e\u5c40","survey_name":"\u6771\u4e88\u6e2f\u4e2d\u592e\u5730\u533a\u571f\u8cea\u8abf\u67fb","client_name":"\u56fd\u571f\u4ea4\u901a\u7701\u56db\u56fd\u5730\u65b9\u6574\u5099\u5c40","boring_xml_url":0,"boring_view_url":0,"soilmap_view_url":66,"soiltest_xml_url":0,"soiltest_view_url":66},{"id":132647,"code":"B4KJ201801002-0896","latitude":"33.93036794","longitude":"133.118263","source_code":"PORT38006010005","project_name":"\u6e2f\u6e7e\u5c40","survey_name":"\u6771\u4e88\u6e2f\u4e2d\u592e\u5730\u533a\u571f\u8cea\u8abf\u67fb","client_name":"\u56fd\u571f\u4ea4\u901a\u7701\u56db\u56fd\u5730\u65b9\u6574\u5099\u5c40","boring_xml_url":0,"boring_view_url":0,"soilmap_view_url":66,"soiltest_xml_url":0,"soiltest_view_url":66},{"id":132646,"code":"B4KJ201801002-0895","latitude":"33.9303405","longitude":"133.1178995","source_code":"PORT38006010004","project_name":"\u6e2f\u6e7e\u5c40","survey_name":"\u6771\u4e88\u6e2f\u4e2d\u592e\u5730\u533a\u571f\u8cea\u8abf\u67fb","client_name":"\u56fd\u571f\u4ea4\u901a\u7701\u56db\u56fd\u5730\u65b9\u6574\u5099\u5c40","boring_xml_url":0,"boring_view_url":0,"soilmap_view_url":66,"soiltest_xml_url":0,"soiltest_view_url":66},{"id":132645,"code":"B4KJ201801002-0894","latitude":"33.93089072","longitude":"133.1181959","source_code":"PORT38006010003","project_name":"\u6e2f\u6e7e\u5c40","survey_name":"\u6771\u4e88\u6e2f\u4e2d\u592e\u5730\u533a\u571f\u8cea\u8abf\u67fb","client_name":"\u56fd\u571f\u4ea4\u901a\u7701\u56db\u56fd\u5730\u65b9\u6574\u5099\u5c40","boring_xml_url":0,"boring_view_url":0,"soilmap_view_url":66,"soiltest_xml_url":0,"soiltest_view_url":66},{"id":132644,"code":"B4KJ201801002-0893","latitude":"33.93087447","longitude":"133.1178694","source_code":"PORT38006010002","project_name":"\u6e2f\u6e7e\u5c40","survey_name":"\u6771\u4e88\u6e2f\u4e2d\u592e\u5730\u533a\u571f\u8cea\u8abf\u67fb","client_name":"\u56fd\u571f\u4ea4\u901a\u7701\u56db\u56fd\u5730\u65b9\u6574\u5099\u5c40","boring_xml_url":0,"boring_view_url":0,"soilmap_view_url":66,"soiltest_xml_url":0,"soiltest_view_url":66},{"id":132643,"code":"B4KJ201801002-0892","latitude":"33.93085772","longitude":"133.1175474","source_code":"PORT38006010001","project_name":"\u6e2f\u6e7e\u5c40","survey_name":"\u6771\u4e88\u6e2f\u4e2d\u592e\u5730\u533a\u571f\u8cea\u8abf\u67fb","client_name":"\u56fd\u571f\u4ea4\u901a\u7701\u56db\u56fd\u5730\u65b9\u6574\u5099\u5c40","boring_xml_url":0,"boring_view_url":0,"soilmap_view_url":66,"soiltest_xml_url":0,"soiltest_view_url":66},{"id":132642,"code":"B4KJ201801002-0891","latitude":"34.04970044","longitude":"134.6034004","source_code":"PORT36001010072","project_name":"\u6e2f\u6e7e\u5c40","survey_name":"\u5fb3\u5cf6\u5c0f\u677e\u5cf6\u6e2f\u6c96\u6d32(\u5916)\u5730\u533a\u571f\u8cea\u8abf","client_name":"\u56fd\u571f\u4ea4\u901a\u7701\u56db\u56fd\u5730\u65b9\u6574\u5099\u5c40","boring_xml_url":0,"boring_view_url":0,"soilmap_view_url":66,"soiltest_xml_url":0,"soiltest_view_url":66},{"id":132641,"code":"B4KJ201801002-0890","latitude":"34.05037903","longitude":"134.603373","source_code":"PORT36001010071","project_name":"\u6e2f\u6e7e\u5c40","survey_name":"\u5fb3\u5cf6\u5c0f\u677e\u5cf6\u6e2f\u6c96\u6d32(\u5916)\u5730\u533a\u571f\u8cea\u8abf","client_name":"\u56fd\u571f\u4ea4\u901a\u7701\u56db\u56fd\u5730\u65b9\u6574\u5099\u5c40","boring_xml_url":0,"boring_view_url":0,"soilmap_view_url":66,"soiltest_xml_url":0,"soiltest_view_url":66},{"id":132640,"code":"B4KJ201801002-0889","latitude":"34.70919167","longitude":"136.5221861","source_code":"PORT24005012605","project_name":"\u6e2f\u6e7e\u5c40","survey_name":"\u5e73\u621026\u5e74\u5ea6 \u6d25\u677e\u962a\u6e2f\u6d25\u5730\u533a(\u963f\u6f15\u6d66\u30fb\u5fa1\u6bbf\u5834)1\u5de5\u533a\u571f\u8cea\u8abf","client_name":"\u56fd\u571f\u4ea4\u901a\u7701\u4e2d\u90e8\u5730\u65b9\u6574\u5099\u5c40","boring_xml_url":0,"boring_view_url":0,"soilmap_view_url":66,"soiltest_xml_url":0,"soiltest_view_url":66},{"id":132639,"code":"B4KJ201801002-0888","latitude":"34.70985278","longitude":"136.5221028","source_code":"PORT24005012604","project_name":"\u6e2f\u6e7e\u5c40","survey_name":"\u5e73\u621026\u5e74\u5ea6 \u6d25\u677e\u962a\u6e2f\u6d25\u5730\u533a(\u963f\u6f15\u6d66\u30fb\u5fa1\u6bbf\u5834)1\u5de5\u533a\u571f\u8cea\u8abf","client_name":"\u56fd\u571f\u4ea4\u901a\u7701\u4e2d\u90e8\u5730\u65b9\u6574\u5099\u5c40","boring_xml_url":0,"boring_view_url":0,"soilmap_view_url":66,"soiltest_xml_url":0,"soiltest_view_url":66},{"id":132638,"code":"B4KJ201801002-0887","latitude":"34.70986111","longitude":"136.5221028","source_code":"PORT24005012603","project_name":"\u6e2f\u6e7e\u5c40","survey_name":"\u5e73\u621026\u5e74\u5ea6 \u6d25\u677e\u962a\u6e2f\u6d25\u5730\u533a(\u963f\u6f15\u6d66\u30fb\u5fa1\u6bbf\u5834)1\u5de5\u533a\u571f\u8cea\u8abf","client_name":"\u56fd\u571f\u4ea4\u901a\u7701\u4e2d\u90e8\u5730\u65b9\u6574\u5099\u5c40","boring_xml_url":0,"boring_view_url":0,"soilmap_view_url":66,"soiltest_xml_url":0,"soiltest_view_url":66},{"id":132637,"code":"B4KJ201801002-0886","latitude":"34.75249444","longitude":"136.5331611","source_code":"PORT24005012602","project_name":"\u6e2f\u6e7e\u5c40","survey_name":"\u5e73\u621026\u5e74\u5ea6 \u6d25\u677e\u962a\u6e2f\u6d25\u5730\u533a(\u6817\u771f\u753a\u5c4b)\u73fe\u6cc1\u8abf\u67fb","client_name":"\u56fd\u571f\u4ea4\u901a\u7701\u4e2d\u90e8\u5730\u65b9\u6574\u5099\u5c40","boring_xml_url":0,"boring_view_url":0,"soilmap_view_url":66,"soiltest_xml_url":0,"soiltest_view_url":66},{"id":132636,"code":"B4KJ201801002-0885","latitude":"34.75789167","longitude":"136.5354222","source_code":"PORT24005012601","project_name":"\u6e2f\u6e7e\u5c40","survey_name":"\u5e73\u621026\u5e74\u5ea6 \u6d25\u677e\u962a\u6e2f\u6d25\u5730\u533a(\u6817\u771f\u753a\u5c4b)\u73fe\u6cc1\u8abf\u67fb","client_name":"\u56fd\u571f\u4ea4\u901a\u7701\u4e2d\u90e8\u5730\u65b9\u6574\u5099\u5c40","boring_xml_url":0,"boring_view_url":0,"soilmap_view_url":66,"soiltest_xml_url":0,"soiltest_view_url":66},{"id":132635,"code":"B4KJ201801002-0884","latitude":"35.00461111","longitude":"136.8244444","source_code":"PORT23001011797","project_name":"\u6e2f\u6e7e\u5c40","survey_name":"\u5e73\u621026\u5e74\u5ea6\u540d\u53e4\u5c4b\u6e2f\u30dd\u30fc\u30c8\u30a2\u30a4\u30e9\u30f3","client_name":"\u56fd\u571f\u4ea4\u901a\u7701\u4e2d\u90e8\u5730\u65b9\u6574\u5099\u5c40","boring_xml_url":0,"boring_view_url":0,"soilmap_view_url":66,"soiltest_xml_url":0,"soiltest_view_url":66},{"id":132634,"code":"B4KJ201801002-0883","latitude":"44.02222222","longitude":"144.2725","source_code":"PORT01030012602","project_name":"\u6e2f\u6e7e\u5c40","survey_name":"\u7db2\u8d70\u6e2f \u5730\u8cea\u8abf\u67fb\u696d\u52d9","client_name":"\u56fd\u571f\u4ea4\u901a\u7701\u5317\u6d77\u9053\u958b\u767a\u5c40","boring_xml_url":0,"boring_view_url":0,"soilmap_view_url":66,"soiltest_xml_url":0,"soiltest_view_url":66},{"id":132633,"code":"B4KJ201801002-0882","latitude":"44.02222222","longitude":"144.2730556","source_code":"PORT01030012601","project_name":"\u6e2f\u6e7e\u5c40","survey_name":"\u7db2\u8d70\u6e2f \u5730\u8cea\u8abf\u67fb\u696d\u52d9","client_name":"\u56fd\u571f\u4ea4\u901a\u7701\u5317\u6d77\u9053\u958b\u767a\u5c40","boring_xml_url":0,"boring_view_url":0,"soilmap_view_url":66,"soiltest_xml_url":0,"soiltest_view_url":66},{"id":132632,"code":"B4KJ201801002-0881","latitude":"44.86675081","longitude":"141.7542119","source_code":"PORT01023012606","project_name":"\u6e2f\u6e7e\u5c40","survey_name":"\u5929\u5869\u6e2f\u59162\u6e2f\u5730\u8cea\u8abf\u67fb\u696d\u52d9","client_name":"\u56fd\u571f\u4ea4\u901a\u7701\u5317\u6d77\u9053\u958b\u767a\u5c40","boring_xml_url":0,"boring_view_url":0,"soilmap_view_url":66,"soiltest_xml_url":0,"soiltest_view_url":0},{"id":132631,"code":"B4KJ201801002-0880","latitude":"44.87905986","longitude":"141.7361673","source_code":"PORT01023012605","project_name":"\u6e2f\u6e7e\u5c40","survey_name":"\u5929\u5869\u6e2f\u59162\u6e2f\u5730\u8cea\u8abf\u67fb\u696d\u52d9","client_name":"\u56fd\u571f\u4ea4\u901a\u7701\u5317\u6d77\u9053\u958b\u767a\u5c40","boring_xml_url":0,"boring_view_url":0,"soilmap_view_url":66,"soiltest_xml_url":0,"soiltest_view_url":66},{"id":132630,"code":"B4KJ201801002-0879","latitude":"44.8788015","longitude":"141.7349983","source_code":"PORT01023012604","project_name":"\u6e2f\u6e7e\u5c40","survey_name":"\u5929\u5869\u6e2f\u59162\u6e2f\u5730\u8cea\u8abf\u67fb\u696d\u52d9","client_name":"\u56fd\u571f\u4ea4\u901a\u7701\u5317\u6d77\u9053\u958b\u767a\u5c40","boring_xml_url":0,"boring_view_url":0,"soilmap_view_url":66,"soiltest_xml_url":0,"soiltest_view_url":66},{"id":132629,"code":"B4KJ201801002-0878","latitude":"44.87857853","longitude":"141.7339876","source_code":"PORT01023012603","project_name":"\u6e2f\u6e7e\u5c40","survey_name":"\u5929\u5869\u6e2f\u59162\u6e2f\u5730\u8cea\u8abf\u67fb\u696d\u52d9","client_name":"\u56fd\u571f\u4ea4\u901a\u7701\u5317\u6d77\u9053\u958b\u767a\u5c40","boring_xml_url":0,"boring_view_url":0,"soilmap_view_url":66,"soiltest_xml_url":0,"soiltest_view_url":66},{"id":132628,"code":"B4KJ201801002-0877","latitude":"44.87836525","longitude":"141.7330206","source_code":"PORT01023012602","project_name":"\u6e2f\u6e7e\u5c40","survey_name":"\u5929\u5869\u6e2f\u59162\u6e2f\u5730\u8cea\u8abf\u67fb\u696d\u52d9","client_name":"\u56fd\u571f\u4ea4\u901a\u7701\u5317\u6d77\u9053\u958b\u767a\u5c40","boring_xml_url":0,"boring_view_url":0,"soilmap_view_url":66,"soiltest_xml_url":0,"soiltest_view_url":66},{"id":132627,"code":"B4KJ201801002-0876","latitude":"44.87815186","longitude":"141.7320535","source_code":"PORT01023012601","project_name":"\u6e2f\u6e7e\u5c40","survey_name":"\u5929\u5869\u6e2f\u59162\u6e2f\u5730\u8cea\u8abf\u67fb\u696d\u52d9","client_name":"\u56fd\u571f\u4ea4\u901a\u7701\u5317\u6d77\u9053\u958b\u767a\u5c40","boring_xml_url":0,"boring_view_url":0,"soilmap_view_url":66,"soiltest_xml_url":0,"soiltest_view_url":66},{"id":132626,"code":"B4KJ201801002-0875","latitude":"43.854292","longitude":"141.5298067","source_code":"PORT01022012602","project_name":"\u6e2f\u6e7e\u5c40","survey_name":"\u5929\u5869\u6e2f\u59162\u6e2f\u5730\u8cea\u8abf\u67fb\u696d\u52d9","client_name":"\u56fd\u571f\u4ea4\u901a\u7701\u5317\u6d77\u9053\u958b\u767a\u5c40","boring_xml_url":0,"boring_view_url":0,"soilmap_view_url":66,"soiltest_xml_url":0,"soiltest_view_url":0}]}}