{"header":{"xyz":{"source":[],"mosaic":false},"page":6270,"raw":{"soiltest_result":"0","bbox":"57.598333,109.544722,1.933333,163.806111","page":"6270"},"conditions":{"soiltest_result":0,"north":57.598333,"west":109.544722,"south":1.933333,"east":163.806111},"success":true,"message":""},"data":{"meta":{"total":212844,"page":6270,"pages":7095,"count":30},"values":[{"id":132475,"code":"B4KJ201801002-0724","latitude":"33.79433331","longitude":"130.9943546","source_code":"PORT40003010188","project_name":"\u6e2f\u6e7e\u5c40","survey_name":"\u82c5\u7530\u6e2f\u56fd\u6709\u6e2f\u6e7e\u8001\u673d\u5316\u65bd\u8a2d\u571f\u8cea\u8abf\u67fb","client_name":"\u56fd\u571f\u4ea4\u901a\u7701\u4e5d\u5dde\u5730\u65b9\u6574\u5099\u5c40","boring_xml_url":0,"boring_view_url":0,"soilmap_view_url":66,"soiltest_xml_url":0,"soiltest_view_url":66},{"id":132474,"code":"B4KJ201801002-0723","latitude":"33.79553914","longitude":"130.9977375","source_code":"PORT40003010187","project_name":"\u6e2f\u6e7e\u5c40","survey_name":"\u82c5\u7530\u6e2f\u56fd\u6709\u6e2f\u6e7e\u8001\u673d\u5316\u65bd\u8a2d\u571f\u8cea\u8abf\u67fb","client_name":"\u56fd\u571f\u4ea4\u901a\u7701\u4e5d\u5dde\u5730\u65b9\u6574\u5099\u5c40","boring_xml_url":0,"boring_view_url":0,"soilmap_view_url":66,"soiltest_xml_url":0,"soiltest_view_url":66},{"id":132473,"code":"B4KJ201801002-0722","latitude":"33.79553914","longitude":"130.9977375","source_code":"PORT40003010186","project_name":"\u6e2f\u6e7e\u5c40","survey_name":"\u82c5\u7530\u6e2f\u56fd\u6709\u6e2f\u6e7e\u8001\u673d\u5316\u65bd\u8a2d\u571f\u8cea\u8abf\u67fb","client_name":"\u56fd\u571f\u4ea4\u901a\u7701\u4e5d\u5dde\u5730\u65b9\u6574\u5099\u5c40","boring_xml_url":0,"boring_view_url":0,"soilmap_view_url":66,"soiltest_xml_url":0,"soiltest_view_url":66},{"id":132472,"code":"B4KJ201801002-0721","latitude":"33.79569872","longitude":"130.9998321","source_code":"PORT40003010185","project_name":"\u6e2f\u6e7e\u5c40","survey_name":"\u82c5\u7530\u6e2f\u56fd\u6709\u6e2f\u6e7e\u30fb\u8001\u673d\u5316\u65bd\u8a2d\u571f\u8cea\u8abf\u67fb","client_name":"\u56fd\u571f\u4ea4\u901a\u7701\u4e5d\u5dde\u5730\u65b9\u6574\u5099\u5c40","boring_xml_url":0,"boring_view_url":0,"soilmap_view_url":66,"soiltest_xml_url":0,"soiltest_view_url":66},{"id":132471,"code":"B4KJ201801002-0720","latitude":"33.02091667","longitude":"130.4121944","source_code":"PORT40002110038","project_name":"\u6e2f\u6e7e\u5c40","survey_name":"\u4e09\u6c60\u6e2f(\u5185\u6e2f\u5317\u5730\u533a)\u822a\u8def\u8b77\u5cb8\u571f\u8cea\u8abf","client_name":"\u56fd\u571f\u4ea4\u901a\u7701\u4e5d\u5dde\u5730\u65b9\u6574\u5099\u5c40","boring_xml_url":0,"boring_view_url":0,"soilmap_view_url":66,"soiltest_xml_url":0,"soiltest_view_url":66},{"id":132470,"code":"B4KJ201801002-0719","latitude":"33.00719444","longitude":"130.4034722","source_code":"PORT40002110037","project_name":"\u6e2f\u6e7e\u5c40","survey_name":"\u4e09\u6c60\u6e2f(\u5185\u6e2f\u5317\u5730\u533a)\u822a\u8def\u8b77\u5cb8\u571f\u8cea\u8abf\u67fb","client_name":"\u56fd\u571f\u4ea4\u901a\u7701\u4e5d\u5dde\u5730\u65b9\u6574\u5099\u5c40","boring_xml_url":0,"boring_view_url":0,"soilmap_view_url":66,"soiltest_xml_url":0,"soiltest_view_url":66},{"id":132469,"code":"B4KJ201801002-0718","latitude":"33.00688889","longitude":"130.3987778","source_code":"PORT40002110036","project_name":"\u6e2f\u6e7e\u5c40","survey_name":"\u4e09\u6c60\u6e2f(\u5185\u6e2f\u5317\u5730\u533a)\u822a\u8def\u8b77\u5cb8\u571f\u8cea\u8abf\u67fb","client_name":"\u56fd\u571f\u4ea4\u901a\u7701\u4e5d\u5dde\u5730\u65b9\u6574\u5099\u5c40","boring_xml_url":0,"boring_view_url":0,"soilmap_view_url":66,"soiltest_xml_url":0,"soiltest_view_url":66},{"id":132468,"code":"B4KJ201801002-0717","latitude":"33.62312222","longitude":"130.4039083","source_code":"PORT40002010490","project_name":"\u6e2f\u6e7e\u5c40","survey_name":"\u535a\u591a\u6e2f\u56fd\u6709\u6e2f\u6e7e\u8001\u673d\u5316\u65bd\u8a2d\u571f\u8cea\u8abf\u67fb","client_name":"\u56fd\u571f\u4ea4\u901a\u7701\u4e5d\u5dde\u5730\u65b9\u6574\u5099\u5c40","boring_xml_url":0,"boring_view_url":0,"soilmap_view_url":66,"soiltest_xml_url":0,"soiltest_view_url":66},{"id":132467,"code":"B4KJ201801002-0716","latitude":"33.62271667","longitude":"130.4057194","source_code":"PORT40002010489","project_name":"\u6e2f\u6e7e\u5c40","survey_name":"\u535a\u591a\u6e2f\u56fd\u6709\u6e2f\u6e7e\u8001\u673d\u5316\u65bd\u8a2d\u571f\u8cea\u8abf\u67fb","client_name":"\u56fd\u571f\u4ea4\u901a\u7701\u4e5d\u5dde\u5730\u65b9\u6574\u5099\u5c40","boring_xml_url":0,"boring_view_url":0,"soilmap_view_url":66,"soiltest_xml_url":0,"soiltest_view_url":66},{"id":132466,"code":"B4KJ201801002-0715","latitude":"33.65489464","longitude":"130.3986496","source_code":"PORT40002010488","project_name":"\u6e2f\u6e7e\u5c40","survey_name":"\u5e73\u621025\u5e74\u5ea6\u535a\u591a\u6e2f(\u30a2\u30a4\u30e9\u30f3\u30c9\u30b7\u30c6\u30a3\u5730\u533a)\u571f\u8cea\u8abf\u67fb","client_name":"\u56fd\u571f\u4ea4\u901a\u7701\u4e5d\u5dde\u5730\u65b9\u6574\u5099\u5c40","boring_xml_url":0,"boring_view_url":0,"soilmap_view_url":66,"soiltest_xml_url":0,"soiltest_view_url":66},{"id":132465,"code":"B4KJ201801002-0714","latitude":"33.65601178","longitude":"130.3984617","source_code":"PORT40002010487","project_name":"\u6e2f\u6e7e\u5c40","survey_name":"\u5e73\u621025\u5e74\u5ea6\u535a\u591a\u6e2f(\u30a2\u30a4\u30e9\u30f3\u30c9\u30b7\u30c6\u30a3\u5730\u533a)\u571f\u8cea\u8abf\u67fb","client_name":"\u56fd\u571f\u4ea4\u901a\u7701\u4e5d\u5dde\u5730\u65b9\u6574\u5099\u5c40","boring_xml_url":0,"boring_view_url":0,"soilmap_view_url":66,"soiltest_xml_url":0,"soiltest_view_url":66},{"id":132464,"code":"B4KJ201801002-0713","latitude":"33.65529422","longitude":"130.3996161","source_code":"PORT40002010486","project_name":"\u6e2f\u6e7e\u5c40","survey_name":"\u5e73\u621025\u5e74\u5ea6\u535a\u591a\u6e2f(\u30a2\u30a4\u30e9\u30f3\u30c9\u30b7\u30c6\u30a3\u5730\u533a)\u571f\u8cea\u8abf\u67fb","client_name":"\u56fd\u571f\u4ea4\u901a\u7701\u4e5d\u5dde\u5730\u65b9\u6574\u5099\u5c40","boring_xml_url":0,"boring_view_url":0,"soilmap_view_url":66,"soiltest_xml_url":0,"soiltest_view_url":66},{"id":132463,"code":"B4KJ201801002-0712","latitude":"33.65545653","longitude":"130.3995222","source_code":"PORT40002010485","project_name":"\u6e2f\u6e7e\u5c40","survey_name":"\u5e73\u621025\u5e74\u5ea6\u535a\u591a\u6e2f(\u30a2\u30a4\u30e9\u30f3\u30c9\u30b7\u30c6\u30a3\u5730\u533a)\u571f\u8cea\u8abf\u67fb","client_name":"\u56fd\u571f\u4ea4\u901a\u7701\u4e5d\u5dde\u5730\u65b9\u6574\u5099\u5c40","boring_xml_url":0,"boring_view_url":0,"soilmap_view_url":66,"soiltest_xml_url":0,"soiltest_view_url":66},{"id":132462,"code":"B4KJ201801002-0711","latitude":"33.65601178","longitude":"130.3994282","source_code":"PORT40002010484","project_name":"\u6e2f\u6e7e\u5c40","survey_name":"\u5e73\u621025\u5e74\u5ea6\u535a\u591a\u6e2f(\u30a2\u30a4\u30e9\u30f3\u30c9\u30b7\u30c6\u30a3\u5730\u533a)\u571f\u8cea\u8abf\u67fb","client_name":"\u56fd\u571f\u4ea4\u901a\u7701\u4e5d\u5dde\u5730\u65b9\u6574\u5099\u5c40","boring_xml_url":0,"boring_view_url":0,"soilmap_view_url":66,"soiltest_xml_url":0,"soiltest_view_url":66},{"id":132461,"code":"B4KJ201801002-0710","latitude":"33.65568717","longitude":"130.4005866","source_code":"PORT40002010483","project_name":"\u6e2f\u6e7e\u5c40","survey_name":"\u5e73\u621025\u5e74\u5ea6\u535a\u591a\u6e2f(\u30a2\u30a4\u30e9\u30f3\u30c9\u30b7\u30c6\u30a3\u5730\u533a)\u571f\u8cea\u8abf\u67fb","client_name":"\u56fd\u571f\u4ea4\u901a\u7701\u4e5d\u5dde\u5730\u65b9\u6574\u5099\u5c40","boring_xml_url":0,"boring_view_url":0,"soilmap_view_url":66,"soiltest_xml_url":0,"soiltest_view_url":66},{"id":132460,"code":"B4KJ201801002-0709","latitude":"33.65584947","longitude":"130.4004926","source_code":"PORT40002010482","project_name":"\u6e2f\u6e7e\u5c40","survey_name":"\u5e73\u621025\u5e74\u5ea6\u535a\u591a\u6e2f(\u30a2\u30a4\u30e9\u30f3\u30c9\u30b7\u30c6\u30a3\u5730\u533a)\u571f\u8cea\u8abf\u67fb","client_name":"\u56fd\u571f\u4ea4\u901a\u7701\u4e5d\u5dde\u5730\u65b9\u6574\u5099\u5c40","boring_xml_url":0,"boring_view_url":0,"soilmap_view_url":66,"soiltest_xml_url":0,"soiltest_view_url":66},{"id":132459,"code":"B4KJ201801002-0708","latitude":"33.65601178","longitude":"130.4003986","source_code":"PORT40002010481","project_name":"\u6e2f\u6e7e\u5c40","survey_name":"\u5e73\u621025\u5e74\u5ea6\u535a\u591a\u6e2f(\u30a2\u30a4\u30e9\u30f3\u30c9\u30b7\u30c6\u30a3\u5730\u533a)\u571f\u8cea\u8abf\u67fb","client_name":"\u56fd\u571f\u4ea4\u901a\u7701\u4e5d\u5dde\u5730\u65b9\u6574\u5099\u5c40","boring_xml_url":0,"boring_view_url":0,"soilmap_view_url":66,"soiltest_xml_url":0,"soiltest_view_url":66},{"id":132458,"code":"B4KJ201801002-0707","latitude":"33.65617228","longitude":"130.4012796","source_code":"PORT40002010480","project_name":"\u6e2f\u6e7e\u5c40","survey_name":"\u5e73\u621025\u5e74\u5ea6\u535a\u591a\u6e2f(\u30a2\u30a4\u30e9\u30f3\u30c9\u30b7\u30c6\u30a3\u5730\u533a)\u571f\u8cea\u8abf\u67fb","client_name":"\u56fd\u571f\u4ea4\u901a\u7701\u4e5d\u5dde\u5730\u65b9\u6574\u5099\u5c40","boring_xml_url":0,"boring_view_url":0,"soilmap_view_url":66,"soiltest_xml_url":0,"soiltest_view_url":66},{"id":132457,"code":"B4KJ201801002-0706","latitude":"33.93246783","longitude":"130.7625188","source_code":"PORT40001060182","project_name":"\u6e2f\u6e7e\u5c40","survey_name":"\u5e73\u621025\u5e74\u5ea6 \u5317\u4e5d\u5dde\u6e2f\u571f\u8cea\u8abf\u67fb","client_name":"\u56fd\u571f\u4ea4\u901a\u7701\u4e5d\u5dde\u5730\u65b9\u6574\u5099\u5c40","boring_xml_url":0,"boring_view_url":0,"soilmap_view_url":66,"soiltest_xml_url":0,"soiltest_view_url":66},{"id":132456,"code":"B4KJ201801002-0705","latitude":"33.93342456","longitude":"130.7640083","source_code":"PORT40001060181","project_name":"\u6e2f\u6e7e\u5c40","survey_name":"\u5e73\u621025\u5e74\u5ea6 \u5317\u4e5d\u5dde\u6e2f\u571f\u8cea\u8abf\u67fb","client_name":"\u56fd\u571f\u4ea4\u901a\u7701\u4e5d\u5dde\u5730\u65b9\u6574\u5099\u5c40","boring_xml_url":0,"boring_view_url":0,"soilmap_view_url":66,"soiltest_xml_url":0,"soiltest_view_url":66},{"id":132455,"code":"B4KJ201801002-0704","latitude":"33.93342264","longitude":"130.7625178","source_code":"PORT40001060180","project_name":"\u6e2f\u6e7e\u5c40","survey_name":"\u5e73\u621025\u5e74\u5ea6 \u5317\u4e5d\u5dde\u6e2f\u571f\u8cea\u8abf\u67fb","client_name":"\u56fd\u571f\u4ea4\u901a\u7701\u4e5d\u5dde\u5730\u65b9\u6574\u5099\u5c40","boring_xml_url":0,"boring_view_url":0,"soilmap_view_url":66,"soiltest_xml_url":0,"soiltest_view_url":66},{"id":132454,"code":"B4KJ201801002-0703","latitude":"33.93341936","longitude":"130.761016","source_code":"PORT40001060179","project_name":"\u6e2f\u6e7e\u5c40","survey_name":"\u5e73\u621025\u5e74\u5ea6 \u5317\u4e5d\u5dde\u6e2f\u571f\u8cea\u8abf\u67fb","client_name":"\u56fd\u571f\u4ea4\u901a\u7701\u4e5d\u5dde\u5730\u65b9\u6574\u5099\u5c40","boring_xml_url":0,"boring_view_url":0,"soilmap_view_url":66,"soiltest_xml_url":0,"soiltest_view_url":66},{"id":132453,"code":"B4KJ201801002-0702","latitude":"33.93333333","longitude":"130.8275","source_code":"PORT40001060183","project_name":"\u6e2f\u6e7e\u5c40","survey_name":"\u5317\u4e5d\u5dde\u5e02\u82e5\u677e\u533a\u97ff\u7058\u5730\u533a\u97ff\u7058\u53572\u53f7\u5cb8\u58c1","client_name":"\u56fd\u571f\u4ea4\u901a\u7701\u4e5d\u5dde\u5730\u65b9\u6574\u5099\u5c40","boring_xml_url":0,"boring_view_url":0,"soilmap_view_url":66,"soiltest_xml_url":0,"soiltest_view_url":66},{"id":132452,"code":"B4KJ201801002-0701","latitude":"33.90361111","longitude":"130.8797222","source_code":"PORT40001040001","project_name":"\u6e2f\u6e7e\u5c40","survey_name":"\u5317\u4e5d\u5dde\u5e02\u9580\u53f8\u533a\u65e5\u660e\u5730\u533a\u65e5\u660e\u67715\u53f7\u5cb8\u58c1","client_name":"\u56fd\u571f\u4ea4\u901a\u7701\u4e5d\u5dde\u5730\u65b9\u6574\u5099\u5c40","boring_xml_url":0,"boring_view_url":0,"soilmap_view_url":66,"soiltest_xml_url":0,"soiltest_view_url":66},{"id":132451,"code":"B4KJ201801002-0700","latitude":"33.96005872","longitude":"130.981971","source_code":"PORT40001031640","project_name":"\u6e2f\u6e7e\u5c40","survey_name":"\u5317\u4e5d\u5dde\u6e2f(\u7530\u91ce\u6d66\u5730\u533a)\u5cb8\u58c1(-9m)(\u6539\u826f)(2)\u571f\u8cea\u8abf\u67fb","client_name":"\u56fd\u571f\u4ea4\u901a\u7701\u4e5d\u5dde\u5730\u65b9\u6574\u5099\u5c40","boring_xml_url":0,"boring_view_url":0,"soilmap_view_url":66,"soiltest_xml_url":0,"soiltest_view_url":66},{"id":132450,"code":"B4KJ201801002-0699","latitude":"33.96026867","longitude":"130.9831343","source_code":"PORT40001031639","project_name":"\u6e2f\u6e7e\u5c40","survey_name":"\u5317\u4e5d\u5dde\u6e2f(\u7530\u91ce\u6d66\u5730\u533a)\u5cb8\u58c1(-9m)(\u6539\u826f)(2)\u571f\u8cea\u8abf\u67fb","client_name":"\u56fd\u571f\u4ea4\u901a\u7701\u4e5d\u5dde\u5730\u65b9\u6574\u5099\u5c40","boring_xml_url":0,"boring_view_url":0,"soilmap_view_url":66,"soiltest_xml_url":0,"soiltest_view_url":66},{"id":132449,"code":"B4KJ201801002-0698","latitude":"33.96037214","longitude":"130.9818674","source_code":"PORT40001031638","project_name":"\u6e2f\u6e7e\u5c40","survey_name":"\u5317\u4e5d\u5dde\u6e2f(\u7530\u91ce\u6d66\u5730\u533a)\u5cb8\u58c1(-9m)(\u6539\u826f)(2)\u571f\u8cea\u8abf\u67fb","client_name":"\u56fd\u571f\u4ea4\u901a\u7701\u4e5d\u5dde\u5730\u65b9\u6574\u5099\u5c40","boring_xml_url":0,"boring_view_url":0,"soilmap_view_url":66,"soiltest_xml_url":0,"soiltest_view_url":66},{"id":132448,"code":"B4KJ201801002-0697","latitude":"33.96047711","longitude":"130.9824491","source_code":"PORT40001031637","project_name":"\u6e2f\u6e7e\u5c40","survey_name":"\u5317\u4e5d\u5dde\u6e2f(\u7530\u91ce\u6d66\u5730\u533a)\u5cb8\u58c1(-9m)(\u6539\u826f)(2)\u571f\u8cea\u8abf\u67fb","client_name":"\u56fd\u571f\u4ea4\u901a\u7701\u4e5d\u5dde\u5730\u65b9\u6574\u5099\u5c40","boring_xml_url":0,"boring_view_url":0,"soilmap_view_url":66,"soiltest_xml_url":0,"soiltest_view_url":66},{"id":132447,"code":"B4KJ201801002-0696","latitude":"33.96019592","longitude":"130.9819132","source_code":"PORT40001031636","project_name":"\u6e2f\u6e7e\u5c40","survey_name":"\u5317\u4e5d\u5dde\u6e2f(\u7530\u91ce\u6d66\u5730\u533a)\u5cb8\u58c1(-9m)(\u6539\u826f)(2)\u571f\u8cea\u8abf\u67fb","client_name":"\u56fd\u571f\u4ea4\u901a\u7701\u4e5d\u5dde\u5730\u65b9\u6574\u5099\u5c40","boring_xml_url":0,"boring_view_url":0,"soilmap_view_url":66,"soiltest_xml_url":0,"soiltest_view_url":66},{"id":132446,"code":"B4KJ201801002-0695","latitude":"33.96030089","longitude":"130.9824949","source_code":"PORT40001031635","project_name":"\u6e2f\u6e7e\u5c40","survey_name":"\u5317\u4e5d\u5dde\u6e2f(\u7530\u91ce\u6d66\u5730\u533a)\u5cb8\u58c1(-9m)(\u6539\u826f)(2)\u571f\u8cea\u8abf\u67fb","client_name":"\u56fd\u571f\u4ea4\u901a\u7701\u4e5d\u5dde\u5730\u65b9\u6574\u5099\u5c40","boring_xml_url":0,"boring_view_url":0,"soilmap_view_url":66,"soiltest_xml_url":0,"soiltest_view_url":66}]}}