{"header":{"xyz":{"source":[],"mosaic":false},"page":6278,"raw":{"soiltest_result":"0","bbox":"57.598333,109.544722,1.933333,163.806111","page":"6278"},"conditions":{"soiltest_result":0,"north":57.598333,"west":109.544722,"south":1.933333,"east":163.806111},"success":true,"message":""},"data":{"meta":{"total":212844,"page":6278,"pages":7095,"count":30},"values":[{"id":132235,"code":"B4KJ201801002-0484","latitude":"35.60560147","longitude":"139.8006553","source_code":"PORT13001012547","project_name":"\u6e2f\u6e7e\u5c40","survey_name":"\u6771\u4eac\u6e2f\u571f\u8cea\u8abf\u67fb","client_name":"\u56fd\u571f\u4ea4\u901a\u7701\u95a2\u6771\u5730\u65b9\u6574\u5099\u5c40","boring_xml_url":0,"boring_view_url":0,"soilmap_view_url":66,"soiltest_xml_url":0,"soiltest_view_url":66},{"id":132234,"code":"B4KJ201801002-0483","latitude":"35.60216233","longitude":"139.8036388","source_code":"PORT13001012546","project_name":"\u6e2f\u6e7e\u5c40","survey_name":"\u6771\u4eac\u6e2f\u571f\u8cea\u8abf\u67fb","client_name":"\u56fd\u571f\u4ea4\u901a\u7701\u95a2\u6771\u5730\u65b9\u6574\u5099\u5c40","boring_xml_url":0,"boring_view_url":0,"soilmap_view_url":66,"soiltest_xml_url":0,"soiltest_view_url":66},{"id":132233,"code":"B4KJ201801002-0482","latitude":"35.60366361","longitude":"139.8024172","source_code":"PORT13001012545","project_name":"\u6e2f\u6e7e\u5c40","survey_name":"\u6771\u4eac\u6e2f\u571f\u8cea\u8abf\u67fb","client_name":"\u56fd\u571f\u4ea4\u901a\u7701\u95a2\u6771\u5730\u65b9\u6574\u5099\u5c40","boring_xml_url":0,"boring_view_url":0,"soilmap_view_url":66,"soiltest_xml_url":0,"soiltest_view_url":66},{"id":132232,"code":"B4KJ201801002-0481","latitude":"35.60483331","longitude":"139.8014612","source_code":"PORT13001012544","project_name":"\u6e2f\u6e7e\u5c40","survey_name":"\u6771\u4eac\u6e2f\u571f\u8cea\u8abf\u67fb","client_name":"\u56fd\u571f\u4ea4\u901a\u7701\u95a2\u6771\u5730\u65b9\u6574\u5099\u5c40","boring_xml_url":0,"boring_view_url":0,"soilmap_view_url":66,"soiltest_xml_url":0,"soiltest_view_url":66},{"id":132231,"code":"B4KJ201801002-0480","latitude":"35.60676567","longitude":"139.7998534","source_code":"PORT13001012543","project_name":"\u6e2f\u6e7e\u5c40","survey_name":"\u6771\u4eac\u6e2f\u571f\u8cea\u8abf\u67fb","client_name":"\u56fd\u571f\u4ea4\u901a\u7701\u95a2\u6771\u5730\u65b9\u6574\u5099\u5c40","boring_xml_url":0,"boring_view_url":0,"soilmap_view_url":66,"soiltest_xml_url":0,"soiltest_view_url":66},{"id":132230,"code":"B4KJ201801002-0479","latitude":"35.60816672","longitude":"139.7987491","source_code":"PORT13001012542","project_name":"\u6e2f\u6e7e\u5c40","survey_name":"\u6771\u4eac\u6e2f\u571f\u8cea\u8abf\u67fb","client_name":"\u56fd\u571f\u4ea4\u901a\u7701\u95a2\u6771\u5730\u65b9\u6574\u5099\u5c40","boring_xml_url":0,"boring_view_url":0,"soilmap_view_url":66,"soiltest_xml_url":0,"soiltest_view_url":66},{"id":132229,"code":"B4KJ201801002-0478","latitude":"35.60936792","longitude":"139.7977718","source_code":"PORT13001012541","project_name":"\u6e2f\u6e7e\u5c40","survey_name":"\u6771\u4eac\u6e2f\u571f\u8cea\u8abf\u67fb","client_name":"\u56fd\u571f\u4ea4\u901a\u7701\u95a2\u6771\u5730\u65b9\u6574\u5099\u5c40","boring_xml_url":0,"boring_view_url":0,"soilmap_view_url":66,"soiltest_xml_url":0,"soiltest_view_url":66},{"id":132228,"code":"B4KJ201801002-0477","latitude":"35.58518464","longitude":"139.8053463","source_code":"PORT13001012538","project_name":"\u6e2f\u6e7e\u5c40","survey_name":"\u6771\u4eac\u6e2f\u4e2d\u592e\u9632\u6ce2\u5824\u5916\u5074\u5730\u533a\u5cb8\u58c1(-16m)\u571f\u8cea\u8abf\u67fb(\u305d\u306e2)","client_name":"\u56fd\u571f\u4ea4\u901a\u7701\u95a2\u6771\u5730\u65b9\u6574\u5099\u5c40","boring_xml_url":0,"boring_view_url":0,"soilmap_view_url":66,"soiltest_xml_url":0,"soiltest_view_url":66},{"id":132227,"code":"B4KJ201801002-0476","latitude":"35.58571758","longitude":"139.8044471","source_code":"PORT13001012537","project_name":"\u6e2f\u6e7e\u5c40","survey_name":"\u6771\u4eac\u6e2f\u4e2d\u592e\u9632\u6ce2\u5824\u5916\u5074\u5730\u533a\u5cb8\u58c1(-16m)\u571f\u8cea\u8abf\u67fb(\u305d\u306e2)","client_name":"\u56fd\u571f\u4ea4\u901a\u7701\u95a2\u6771\u5730\u65b9\u6574\u5099\u5c40","boring_xml_url":0,"boring_view_url":0,"soilmap_view_url":66,"soiltest_xml_url":0,"soiltest_view_url":66},{"id":132226,"code":"B4KJ201801002-0475","latitude":"35.58623781","longitude":"139.8035551","source_code":"PORT13001012536","project_name":"\u6e2f\u6e7e\u5c40","survey_name":"\u6771\u4eac\u6e2f\u4e2d\u592e\u9632\u6ce2\u5824\u5916\u5074\u5730\u533a\u5cb8\u58c1(-16m)\u571f\u8cea\u8abf\u67fb(\u305d\u306e2)","client_name":"\u56fd\u571f\u4ea4\u901a\u7701\u95a2\u6771\u5730\u65b9\u6574\u5099\u5c40","boring_xml_url":0,"boring_view_url":0,"soilmap_view_url":66,"soiltest_xml_url":0,"soiltest_view_url":66},{"id":132225,"code":"B4KJ201801002-0474","latitude":"35.58678128","longitude":"139.8026597","source_code":"PORT13001012535","project_name":"\u6e2f\u6e7e\u5c40","survey_name":"\u6771\u4eac\u6e2f\u4e2d\u592e\u9632\u6ce2\u5824\u5916\u5074\u5730\u533a\u5cb8\u58c1(-16m)\u571f\u8cea\u8abf\u67fb(\u305d\u306e2)","client_name":"\u56fd\u571f\u4ea4\u901a\u7701\u95a2\u6771\u5730\u65b9\u6574\u5099\u5c40","boring_xml_url":0,"boring_view_url":0,"soilmap_view_url":66,"soiltest_xml_url":0,"soiltest_view_url":66},{"id":132224,"code":"B4KJ201801002-0473","latitude":"35.58562992","longitude":"139.8050568","source_code":"PORT13001012534","project_name":"\u6e2f\u6e7e\u5c40","survey_name":"\u6771\u4eac\u6e2f\u4e2d\u592e\u9632\u6ce2\u5824\u5916\u5074\u5730\u533a\u5cb8\u58c1(-16m)\u571f\u8cea\u8abf\u67fb(\u305d\u306e2)","client_name":"\u56fd\u571f\u4ea4\u901a\u7701\u95a2\u6771\u5730\u65b9\u6574\u5099\u5c40","boring_xml_url":0,"boring_view_url":0,"soilmap_view_url":66,"soiltest_xml_url":0,"soiltest_view_url":66},{"id":132223,"code":"B4KJ201801002-0472","latitude":"35.58615908","longitude":"139.8041495","source_code":"PORT13001012533","project_name":"\u6e2f\u6e7e\u5c40","survey_name":"\u6771\u4eac\u6e2f\u4e2d\u592e\u9632\u6ce2\u5824\u5916\u5074\u5730\u533a\u5cb8\u58c1(-16m)\u571f\u8cea\u8abf\u67fb(\u305d\u306e2)","client_name":"\u56fd\u571f\u4ea4\u901a\u7701\u95a2\u6771\u5730\u65b9\u6574\u5099\u5c40","boring_xml_url":0,"boring_view_url":0,"soilmap_view_url":66,"soiltest_xml_url":0,"soiltest_view_url":66},{"id":132222,"code":"B4KJ201801002-0471","latitude":"35.586681","longitude":"139.8032652","source_code":"PORT13001012532","project_name":"\u6e2f\u6e7e\u5c40","survey_name":"\u6771\u4eac\u6e2f\u4e2d\u592e\u9632\u6ce2\u5824\u5916\u5074\u5730\u533a\u5cb8\u58c1(-16m)\u571f\u8cea\u8abf\u67fb(\u305d\u306e2)","client_name":"\u56fd\u571f\u4ea4\u901a\u7701\u95a2\u6771\u5730\u65b9\u6574\u5099\u5c40","boring_xml_url":0,"boring_view_url":0,"soilmap_view_url":66,"soiltest_xml_url":0,"soiltest_view_url":66},{"id":132221,"code":"B4KJ201801002-0470","latitude":"35.58721903","longitude":"139.8023629","source_code":"PORT13001012531","project_name":"\u6e2f\u6e7e\u5c40","survey_name":"\u6771\u4eac\u6e2f\u4e2d\u592e\u9632\u6ce2\u5824\u5916\u5074\u5730\u533a\u5cb8\u58c1(-16m)\u571f\u8cea\u8abf\u67fb(\u305d\u306e2)","client_name":"\u56fd\u571f\u4ea4\u901a\u7701\u95a2\u6771\u5730\u65b9\u6574\u5099\u5c40","boring_xml_url":0,"boring_view_url":0,"soilmap_view_url":66,"soiltest_xml_url":0,"soiltest_view_url":66},{"id":132220,"code":"B4KJ201801002-0469","latitude":"35.58576114","longitude":"139.8038066","source_code":"PORT13001012528","project_name":"\u6e2f\u6e7e\u5c40","survey_name":"\u6771\u4eac\u6e2f\u4e2d\u592e\u9632\u6ce2\u5824\u5916\u5074\u5730\u533a\u5cb8\u58c1(-16m)\u571f\u8cea\u8abf\u67fb","client_name":"\u56fd\u571f\u4ea4\u901a\u7701\u95a2\u6771\u5730\u65b9\u6574\u5099\u5c40","boring_xml_url":0,"boring_view_url":0,"soilmap_view_url":66,"soiltest_xml_url":0,"soiltest_view_url":66},{"id":132219,"code":"B4KJ201801002-0468","latitude":"35.58682039","longitude":"139.8020208","source_code":"PORT13001012527","project_name":"\u6e2f\u6e7e\u5c40","survey_name":"\u6771\u4eac\u6e2f\u4e2d\u592e\u9632\u6ce2\u5824\u5916\u5074\u5730\u533a\u5cb8\u58c1(-16m)\u571f\u8cea\u8abf\u67fb","client_name":"\u56fd\u571f\u4ea4\u901a\u7701\u95a2\u6771\u5730\u65b9\u6574\u5099\u5c40","boring_xml_url":0,"boring_view_url":0,"soilmap_view_url":66,"soiltest_xml_url":0,"soiltest_view_url":66},{"id":132218,"code":"B4KJ201801002-0467","latitude":"35.58597997","longitude":"139.804001","source_code":"PORT13001012526","project_name":"\u6e2f\u6e7e\u5c40","survey_name":"\u6771\u4eac\u6e2f\u4e2d\u592e\u9632\u6ce2\u5824\u5916\u5074\u5730\u533a\u5cb8\u58c1(-16m)\u571f\u8cea\u8abf\u67fb","client_name":"\u56fd\u571f\u4ea4\u901a\u7701\u95a2\u6771\u5730\u65b9\u6574\u5099\u5c40","boring_xml_url":0,"boring_view_url":0,"soilmap_view_url":66,"soiltest_xml_url":0,"soiltest_view_url":66},{"id":132217,"code":"B4KJ201801002-0466","latitude":"35.58703467","longitude":"139.8022111","source_code":"PORT13001012525","project_name":"\u6e2f\u6e7e\u5c40","survey_name":"\u6771\u4eac\u6e2f\u4e2d\u592e\u9632\u6ce2\u5824\u5916\u5074\u5730\u533a\u5cb8\u58c1(-16m)\u571f\u8cea\u8abf\u67fb","client_name":"\u56fd\u571f\u4ea4\u901a\u7701\u95a2\u6771\u5730\u65b9\u6574\u5099\u5c40","boring_xml_url":0,"boring_view_url":0,"soilmap_view_url":66,"soiltest_xml_url":0,"soiltest_view_url":66},{"id":132216,"code":"B4KJ201801002-0465","latitude":"35.58641769","longitude":"139.8043899","source_code":"PORT13001012524","project_name":"\u6e2f\u6e7e\u5c40","survey_name":"\u6771\u4eac\u6e2f\u4e2d\u592e\u9632\u6ce2\u5824\u5916\u5074\u5730\u533a\u5cb8\u58c1(-16m)\u571f\u8cea\u8abf\u67fb","client_name":"\u56fd\u571f\u4ea4\u901a\u7701\u95a2\u6771\u5730\u65b9\u6574\u5099\u5c40","boring_xml_url":0,"boring_view_url":0,"soilmap_view_url":66,"soiltest_xml_url":0,"soiltest_view_url":66},{"id":132215,"code":"B4KJ201801002-0464","latitude":"35.58724558","longitude":"139.8028951","source_code":"PORT13001012523","project_name":"\u6e2f\u6e7e\u5c40","survey_name":"\u6771\u4eac\u6e2f\u4e2d\u592e\u9632\u6ce2\u5824\u5916\u5074\u5730\u533a\u5cb8\u58c1(-16m)\u571f\u8cea\u8abf\u67fb","client_name":"\u56fd\u571f\u4ea4\u901a\u7701\u95a2\u6771\u5730\u65b9\u6574\u5099\u5c40","boring_xml_url":0,"boring_view_url":0,"soilmap_view_url":66,"soiltest_xml_url":0,"soiltest_view_url":66},{"id":132214,"code":"B4KJ201801002-0463","latitude":"35.58663653","longitude":"139.8129178","source_code":"PORT13001012522","project_name":"\u6e2f\u6e7e\u5c40","survey_name":"\u6771\u4eac\u6e2f\u4e2d\u592e\u9632\u6ce2\u5824\u5916\u5074\u5730\u533a\u5cb8\u58c1(-16m)\u571f\u8cea\u8abf\u67fb","client_name":"\u56fd\u571f\u4ea4\u901a\u7701\u95a2\u6771\u5730\u65b9\u6574\u5099\u5c40","boring_xml_url":0,"boring_view_url":0,"soilmap_view_url":66,"soiltest_xml_url":0,"soiltest_view_url":66},{"id":132213,"code":"B4KJ201801002-0462","latitude":"35.587518","longitude":"139.8031001","source_code":"PORT13001012521","project_name":"\u6e2f\u6e7e\u5c40","survey_name":"\u6771\u4eac\u6e2f\u4e2d\u592e\u9632\u6ce2\u5824\u5916\u5074\u5730\u533a\u5cb8\u58c1(-16m)\u571f\u8cea\u8abf\u67fb","client_name":"\u56fd\u571f\u4ea4\u901a\u7701\u95a2\u6771\u5730\u65b9\u6574\u5099\u5c40","boring_xml_url":0,"boring_view_url":0,"soilmap_view_url":66,"soiltest_xml_url":0,"soiltest_view_url":66},{"id":132212,"code":"B4KJ201801002-0461","latitude":"35.58843328","longitude":"139.8012592","source_code":"PORT13001012519","project_name":"\u6e2f\u6e7e\u5c40","survey_name":"\u6771\u4eac\u6e7e\u4e2d\u592e\u9632\u6ce2\u5824\u5916\u5074\u5730\u533a\u571f\u8cea\u8abf\u67fb","client_name":"\u56fd\u571f\u4ea4\u901a\u7701\u95a2\u6771\u5730\u65b9\u6574\u5099\u5c40","boring_xml_url":0,"boring_view_url":0,"soilmap_view_url":66,"soiltest_xml_url":0,"soiltest_view_url":0},{"id":132211,"code":"B4KJ201801002-0460","latitude":"35.58520739","longitude":"139.8046931","source_code":"PORT13001012518","project_name":"\u6e2f\u6e7e\u5c40","survey_name":"\u6771\u4eac\u6e7e\u4e2d\u592e\u9632\u6ce2\u5824\u5916\u5074\u5730\u533a\u571f\u8cea\u8abf\u67fb","client_name":"\u56fd\u571f\u4ea4\u901a\u7701\u95a2\u6771\u5730\u65b9\u6574\u5099\u5c40","boring_xml_url":0,"boring_view_url":0,"soilmap_view_url":66,"soiltest_xml_url":0,"soiltest_view_url":66},{"id":132210,"code":"B4KJ201801002-0459","latitude":"35.58630447","longitude":"139.8029273","source_code":"PORT13001012517","project_name":"\u6e2f\u6e7e\u5c40","survey_name":"\u6771\u4eac\u6e2f\u4e2d\u592e\u9632\u6ce2\u5824\u5916\u5074\u5730\u533a\u571f\u8cea\u8abf\u67fb","client_name":"\u56fd\u571f\u4ea4\u901a\u7701\u95a2\u6771\u5730\u65b9\u6574\u5099\u5c40","boring_xml_url":0,"boring_view_url":0,"soilmap_view_url":66,"soiltest_xml_url":0,"soiltest_view_url":66},{"id":132209,"code":"B4KJ201801002-0458","latitude":"35.58544036","longitude":"139.8048644","source_code":"PORT13001012516","project_name":"\u6e2f\u6e7e\u5c40","survey_name":"\u6771\u4eac\u6e2f\u4e2d\u592e\u9632\u6ce2\u5824\u5916\u5074\u5730\u533a\u571f\u8cea\u8abf\u67fb","client_name":"\u56fd\u571f\u4ea4\u901a\u7701\u95a2\u6771\u5730\u65b9\u6574\u5099\u5c40","boring_xml_url":0,"boring_view_url":0,"soilmap_view_url":66,"soiltest_xml_url":0,"soiltest_view_url":66},{"id":132208,"code":"B4KJ201801002-0457","latitude":"35.58650961","longitude":"139.8031081","source_code":"PORT13001012515","project_name":"\u6e2f\u6e7e\u5c40","survey_name":"\u6771\u4eac\u6e2f\u4e2d\u592e\u9632\u6ce2\u5824\u5916\u5074\u5730\u533a\u571f\u8cea\u8abf\u67fb","client_name":"\u56fd\u571f\u4ea4\u901a\u7701\u95a2\u6771\u5730\u65b9\u6574\u5099\u5c40","boring_xml_url":0,"boring_view_url":0,"soilmap_view_url":66,"soiltest_xml_url":0,"soiltest_view_url":66},{"id":132207,"code":"B4KJ201801002-0456","latitude":"35.58588806","longitude":"139.8052829","source_code":"PORT13001012514","project_name":"\u6e2f\u6e7e\u5c40","survey_name":"\u6771\u4eac\u6e2f\u4e2d\u592e\u9632\u6ce2\u5824\u5916\u5074\u5730\u533a\u571f\u8cea\u8abf\u67fb","client_name":"\u56fd\u571f\u4ea4\u901a\u7701\u95a2\u6771\u5730\u65b9\u6574\u5099\u5c40","boring_xml_url":0,"boring_view_url":0,"soilmap_view_url":66,"soiltest_xml_url":0,"soiltest_view_url":66},{"id":132206,"code":"B4KJ201801002-0455","latitude":"35.58694731","longitude":"139.803497","source_code":"PORT13001012513","project_name":"\u6e2f\u6e7e\u5c40","survey_name":"\u6771\u4eac\u6e2f\u4e2d\u592e\u9632\u6ce2\u5824\u5916\u5074\u5730\u533a\u571f\u8cea\u8abf\u67fb","client_name":"\u56fd\u571f\u4ea4\u901a\u7701\u95a2\u6771\u5730\u65b9\u6574\u5099\u5c40","boring_xml_url":0,"boring_view_url":0,"soilmap_view_url":66,"soiltest_xml_url":0,"soiltest_view_url":66}]}}