{"header":{"xyz":{"source":[],"mosaic":false},"page":6294,"raw":{"soiltest_result":"0","bbox":"57.598333,109.544722,1.933333,163.806111","page":"6294"},"conditions":{"soiltest_result":0,"north":57.598333,"west":109.544722,"south":1.933333,"east":163.806111},"success":true,"message":""},"data":{"meta":{"total":212844,"page":6294,"pages":7095,"count":30},"values":[{"id":131755,"code":"B4KJ201801002-0004","latitude":"33.62174444","longitude":"131.2589194","source_code":"PORT44011010096","project_name":"\u6e2f\u6e7e\u5c40","survey_name":"\u4e2d\u6d25\u6e2f(\u7530\u5c3b\u5730\u533a)\u571f\u8cea\u8abf\u67fb","client_name":"\u56fd\u571f\u4ea4\u901a\u7701\u4e5d\u5dde\u5730\u65b9\u6574\u5099\u5c40","boring_xml_url":0,"boring_view_url":0,"soilmap_view_url":66,"soiltest_xml_url":0,"soiltest_view_url":66},{"id":131754,"code":"B4KJ201801002-0003","latitude":"33.62003611","longitude":"131.2571639","source_code":"PORT44011010095","project_name":"\u6e2f\u6e7e\u5c40","survey_name":"\u4e2d\u6d25\u6e2f(\u7530\u5c3b\u5730\u533a)\u571f\u8cea\u8abf\u67fb","client_name":"\u56fd\u571f\u4ea4\u901a\u7701\u4e5d\u5dde\u5730\u65b9\u6574\u5099\u5c40","boring_xml_url":0,"boring_view_url":0,"soilmap_view_url":66,"soiltest_xml_url":0,"soiltest_view_url":66},{"id":131753,"code":"B4KJ201801002-0002","latitude":"33.61866667","longitude":"131.2557583","source_code":"PORT44011010094","project_name":"\u6e2f\u6e7e\u5c40","survey_name":"\u4e2d\u6d25\u6e2f(\u7530\u5c3b\u5730\u533a)\u571f\u8cea\u8abf\u67fb","client_name":"\u56fd\u571f\u4ea4\u901a\u7701\u4e5d\u5dde\u5730\u65b9\u6574\u5099\u5c40","boring_xml_url":0,"boring_view_url":0,"soilmap_view_url":66,"soiltest_xml_url":0,"soiltest_view_url":66},{"id":131752,"code":"B4KJ201801002-0001","latitude":"33.6173","longitude":"131.2543556","source_code":"PORT44011010093","project_name":"\u6e2f\u6e7e\u5c40","survey_name":"\u4e2d\u6d25\u6e2f(\u7530\u5c3b\u5730\u533a)\u571f\u8cea\u8abf\u67fb","client_name":"\u56fd\u571f\u4ea4\u901a\u7701\u4e5d\u5dde\u5730\u65b9\u6574\u5099\u5c40","boring_xml_url":0,"boring_view_url":0,"soilmap_view_url":66,"soiltest_xml_url":0,"soiltest_view_url":66},{"id":131751,"code":"B4KJ201801002-0000","latitude":"33.61481389","longitude":"131.2538556","source_code":"PORT44011010092","project_name":"\u6e2f\u6e7e\u5c40","survey_name":"\u4e2d\u6d25\u6e2f(\u7530\u5c3b\u5730\u533a)\u571f\u8cea\u8abf\u67fb","client_name":"\u56fd\u571f\u4ea4\u901a\u7701\u4e5d\u5dde\u5730\u65b9\u6574\u5099\u5c40","boring_xml_url":0,"boring_view_url":0,"soilmap_view_url":66,"soiltest_xml_url":0,"soiltest_view_url":66},{"id":131750,"code":"B4KJ201801001-9999","latitude":"33.61435","longitude":"131.2536833","source_code":"PORT44011010091","project_name":"\u6e2f\u6e7e\u5c40","survey_name":"\u4e2d\u6d25\u6e2f(\u7530\u5c3b\u5730\u533a)\u571f\u8cea\u8abf\u67fb","client_name":"\u56fd\u571f\u4ea4\u901a\u7701\u4e5d\u5dde\u5730\u65b9\u6574\u5099\u5c40","boring_xml_url":0,"boring_view_url":0,"soilmap_view_url":66,"soiltest_xml_url":0,"soiltest_view_url":66},{"id":131749,"code":"B4KJ201801001-9998","latitude":"33.61436389","longitude":"131.2538972","source_code":"PORT44011010090","project_name":"\u6e2f\u6e7e\u5c40","survey_name":"\u4e2d\u6d25\u6e2f(\u7530\u5c3b\u5730\u533a)\u571f\u8cea\u8abf\u67fb","client_name":"\u56fd\u571f\u4ea4\u901a\u7701\u4e5d\u5dde\u5730\u65b9\u6574\u5099\u5c40","boring_xml_url":0,"boring_view_url":0,"soilmap_view_url":66,"soiltest_xml_url":0,"soiltest_view_url":66},{"id":131748,"code":"B4KJ201801001-9997","latitude":"33.61437778","longitude":"131.2541139","source_code":"PORT44011010089","project_name":"\u6e2f\u6e7e\u5c40","survey_name":"\u4e2d\u6d25\u6e2f(\u7530\u5c3b\u5730\u533a)\u571f\u8cea\u8abf\u67fb","client_name":"\u56fd\u571f\u4ea4\u901a\u7701\u4e5d\u5dde\u5730\u65b9\u6574\u5099\u5c40","boring_xml_url":0,"boring_view_url":0,"soilmap_view_url":66,"soiltest_xml_url":0,"soiltest_view_url":66},{"id":131747,"code":"B4KJ201801001-9996","latitude":"33.61391389","longitude":"131.2539389","source_code":"PORT44011010088","project_name":"\u6e2f\u6e7e\u5c40","survey_name":"\u4e2d\u6d25\u6e2f(\u7530\u5c3b\u5730\u533a)\u571f\u8cea\u8abf\u67fb","client_name":"\u56fd\u571f\u4ea4\u901a\u7701\u4e5d\u5dde\u5730\u65b9\u6574\u5099\u5c40","boring_xml_url":0,"boring_view_url":0,"soilmap_view_url":66,"soiltest_xml_url":0,"soiltest_view_url":66},{"id":131746,"code":"B4KJ201801001-9995","latitude":"33.61345278","longitude":"131.2537639","source_code":"PORT44011010087","project_name":"\u6e2f\u6e7e\u5c40","survey_name":"\u4e2d\u6d25\u6e2f(\u7530\u5c3b\u5730\u533a)\u571f\u8cea\u8abf\u67fb","client_name":"\u56fd\u571f\u4ea4\u901a\u7701\u4e5d\u5dde\u5730\u65b9\u6574\u5099\u5c40","boring_xml_url":0,"boring_view_url":0,"soilmap_view_url":66,"soiltest_xml_url":0,"soiltest_view_url":66},{"id":131745,"code":"B4KJ201801001-9994","latitude":"33.61355556","longitude":"131.2539722","source_code":"PORT44011010086","project_name":"\u6e2f\u6e7e\u5c40","survey_name":"\u4e2d\u6d25\u6e2f(\u7530\u5c3b\u5730\u533a)\u571f\u8cea\u8abf\u67fb","client_name":"\u56fd\u571f\u4ea4\u901a\u7701\u4e5d\u5dde\u5730\u65b9\u6574\u5099\u5c40","boring_xml_url":0,"boring_view_url":0,"soilmap_view_url":66,"soiltest_xml_url":0,"soiltest_view_url":66},{"id":131744,"code":"B4KJ201801001-9993","latitude":"33.61347778","longitude":"131.2541944","source_code":"PORT44011010085","project_name":"\u6e2f\u6e7e\u5c40","survey_name":"\u4e2d\u6d25\u6e2f(\u7530\u5c3b\u5730\u533a)\u571f\u8cea\u8abf\u67fb","client_name":"\u56fd\u571f\u4ea4\u901a\u7701\u4e5d\u5dde\u5730\u65b9\u6574\u5099\u5c40","boring_xml_url":0,"boring_view_url":0,"soilmap_view_url":66,"soiltest_xml_url":0,"soiltest_view_url":66},{"id":131743,"code":"B4KJ201801001-9992","latitude":"33.61301667","longitude":"131.2540194","source_code":"PORT44011010084","project_name":"\u6e2f\u6e7e\u5c40","survey_name":"\u4e2d\u6d25\u6e2f(\u7530\u5c3b\u5730\u533a)\u571f\u8cea\u8abf\u67fb","client_name":"\u56fd\u571f\u4ea4\u901a\u7701\u4e5d\u5dde\u5730\u65b9\u6574\u5099\u5c40","boring_xml_url":0,"boring_view_url":0,"soilmap_view_url":66,"soiltest_xml_url":0,"soiltest_view_url":66},{"id":131742,"code":"B4KJ201801001-9991","latitude":"33.61255278","longitude":"131.2538444","source_code":"PORT44011010083","project_name":"\u6e2f\u6e7e\u5c40","survey_name":"\u4e2d\u6d25\u6e2f(\u7530\u5c3b\u5730\u533a)\u571f\u8cea\u8abf\u67fb","client_name":"\u56fd\u571f\u4ea4\u901a\u7701\u4e5d\u5dde\u5730\u65b9\u6574\u5099\u5c40","boring_xml_url":0,"boring_view_url":0,"soilmap_view_url":66,"soiltest_xml_url":0,"soiltest_view_url":66},{"id":131741,"code":"B4KJ201801001-9990","latitude":"33.61256667","longitude":"131.2540611","source_code":"PORT44011010082","project_name":"\u6e2f\u6e7e\u5c40","survey_name":"\u4e2d\u6d25\u6e2f(\u7530\u5c3b\u5730\u533a)\u571f\u8cea\u8abf\u67fb","client_name":"\u56fd\u571f\u4ea4\u901a\u7701\u4e5d\u5dde\u5730\u65b9\u6574\u5099\u5c40","boring_xml_url":0,"boring_view_url":0,"soilmap_view_url":66,"soiltest_xml_url":0,"soiltest_view_url":66},{"id":131740,"code":"B4KJ201801001-9989","latitude":"33.612625","longitude":"131.2542722","source_code":"PORT44011010081","project_name":"\u6e2f\u6e7e\u5c40","survey_name":"\u4e2d\u6d25\u6e2f(\u7530\u5c3b\u5730\u533a)\u571f\u8cea\u8abf\u67fb","client_name":"\u56fd\u571f\u4ea4\u901a\u7701\u4e5d\u5dde\u5730\u65b9\u6574\u5099\u5c40","boring_xml_url":0,"boring_view_url":0,"soilmap_view_url":66,"soiltest_xml_url":0,"soiltest_view_url":66},{"id":131739,"code":"B4KJ201801001-9988","latitude":"33.31812144","longitude":"131.5002417","source_code":"PORT44003010193","project_name":"\u6e2f\u6e7e\u5c40","survey_name":"\u5225\u5e9c\u6e2f\u6d77\u5cb8(\u5317\u6d5c\u5730\u533a\u30fb\u4e0a\u4eba\u30f6\u6d5c\u5730","client_name":"\u56fd\u571f\u4ea4\u901a\u7701\u4e5d\u5dde\u5730\u65b9\u6574\u5099\u5c40","boring_xml_url":0,"boring_view_url":0,"soilmap_view_url":66,"soiltest_xml_url":0,"soiltest_view_url":66},{"id":131738,"code":"B4KJ201801001-9987","latitude":"33.27919758","longitude":"131.5079879","source_code":"PORT44003010192","project_name":"\u6e2f\u6e7e\u5c40","survey_name":"\u5225\u5e9c\u6e2f\u6d77\u5cb8(\u5317\u6d5c\u5730\u533a\u30fb\u4e0a\u4eba\u30f6\u6d5c\u5730","client_name":"\u56fd\u571f\u4ea4\u901a\u7701\u4e5d\u5dde\u5730\u65b9\u6574\u5099\u5c40","boring_xml_url":0,"boring_view_url":0,"soilmap_view_url":66,"soiltest_xml_url":0,"soiltest_view_url":66},{"id":131737,"code":"B4KJ201801001-9986","latitude":"33.27981025","longitude":"131.5077958","source_code":"PORT44003010191","project_name":"\u6e2f\u6e7e\u5c40","survey_name":"\u5225\u5e9c\u6e2f\u6d77\u5cb8(\u5317\u6d5c\u5730\u533a\u30fb\u4e0a\u4eba\u30f6\u6d5c\u5730","client_name":"\u56fd\u571f\u4ea4\u901a\u7701\u4e5d\u5dde\u5730\u65b9\u6574\u5099\u5c40","boring_xml_url":0,"boring_view_url":0,"soilmap_view_url":66,"soiltest_xml_url":0,"soiltest_view_url":66},{"id":131736,"code":"B4KJ201801001-9985","latitude":"33.28061881","longitude":"131.507601","source_code":"PORT44003010190","project_name":"\u6e2f\u6e7e\u5c40","survey_name":"\u5225\u5e9c\u6e2f\u6d77\u5cb8(\u5317\u6d5c\u5730\u533a\u30fb\u4e0a\u4eba\u30f6\u6d5c\u5730","client_name":"\u56fd\u571f\u4ea4\u901a\u7701\u4e5d\u5dde\u5730\u65b9\u6574\u5099\u5c40","boring_xml_url":0,"boring_view_url":0,"soilmap_view_url":66,"soiltest_xml_url":0,"soiltest_view_url":66},{"id":131735,"code":"B4KJ201801001-9984","latitude":"33.28113817","longitude":"131.5074808","source_code":"PORT44003010189","project_name":"\u6e2f\u6e7e\u5c40","survey_name":"\u5225\u5e9c\u6e2f\u6d77\u5cb8(\u5317\u6d5c\u5730\u533a\u30fb\u4e0a\u4eba\u30f6\u6d5c\u5730","client_name":"\u56fd\u571f\u4ea4\u901a\u7701\u4e5d\u5dde\u5730\u65b9\u6574\u5099\u5c40","boring_xml_url":0,"boring_view_url":0,"soilmap_view_url":66,"soiltest_xml_url":0,"soiltest_view_url":66},{"id":131734,"code":"B4KJ201801001-9983","latitude":"33.27525247","longitude":"131.5087968","source_code":"PORT44003010188","project_name":"\u6e2f\u6e7e\u5c40","survey_name":"\u5225\u5e9c\u6e2f\u6d77\u5cb8(\u5317\u6d5c\u5730\u533a\u30fb\u4e0a\u4eba\u30f6\u6d5c\u5730","client_name":"\u56fd\u571f\u4ea4\u901a\u7701\u4e5d\u5dde\u5730\u65b9\u6574\u5099\u5c40","boring_xml_url":0,"boring_view_url":0,"soilmap_view_url":66,"soiltest_xml_url":0,"soiltest_view_url":66},{"id":131733,"code":"B4KJ201801001-9982","latitude":"32.75647053","longitude":"130.5634138","source_code":"PORT43054010310","project_name":"\u6e2f\u6e7e\u5c40","survey_name":"\u718a\u672c\u6e2f(\u5922\u54b2\u5cf6\u5730\u533a)\u9632\u6ce2\u5824(\u5357)\u571f\u8cea\u30dc\u30fc\u30ea\u30f3\u30b0No.41-2","client_name":"\u56fd\u571f\u4ea4\u901a\u7701\u4e5d\u5dde\u5730\u65b9\u6574\u5099\u5c40","boring_xml_url":0,"boring_view_url":0,"soilmap_view_url":66,"soiltest_xml_url":0,"soiltest_view_url":0},{"id":131732,"code":"B4KJ201801001-9981","latitude":"32.75652442","longitude":"130.5634081","source_code":"PORT43054010309","project_name":"\u6e2f\u6e7e\u5c40","survey_name":"\u718a\u672c\u6e2f(\u5922\u54b2\u5cf6\u5730\u533a)\u9632\u6ce2\u5824(\u5357)\u571f\u8cea\u30dc\u30fc\u30ea\u30f3\u30b0No.41-1","client_name":"\u56fd\u571f\u4ea4\u901a\u7701\u4e5d\u5dde\u5730\u65b9\u6574\u5099\u5c40","boring_xml_url":0,"boring_view_url":0,"soilmap_view_url":66,"soiltest_xml_url":0,"soiltest_view_url":0},{"id":131731,"code":"B4KJ201801001-9980","latitude":"32.75649747","longitude":"130.563411","source_code":"PORT43054010308","project_name":"\u6e2f\u6e7e\u5c40","survey_name":"\u718a\u672c\u6e2f(\u5922\u54b2\u5cf6\u5730\u533a)\u9632\u6ce2\u5824(\u5357)\u571f\u30dc\u30fc\u30ea\u30f3\u30b0No.40","client_name":"\u56fd\u571f\u4ea4\u901a\u7701\u4e5d\u5dde\u5730\u65b9\u6574\u5099\u5c40","boring_xml_url":0,"boring_view_url":0,"soilmap_view_url":66,"soiltest_xml_url":0,"soiltest_view_url":66},{"id":131730,"code":"B4KJ201801001-9979","latitude":"32.53920833","longitude":"130.54455","source_code":"PORT43002010105","project_name":"\u6e2f\u6e7e\u5c40","survey_name":"\u516b\u4ee3\u6e2f(\u5916\u6e2f\u5730\u533a)\u571f\u8cea\u8abf\u67fb\u516b\u4ee3\u6e2f(\u5916\u6e2f\u5730\u533a)\u571f\u8cea\u8abf\u67fb","client_name":"\u56fd\u571f\u4ea4\u901a\u7701\u4e5d\u5dde\u5730\u65b9\u6574\u5099\u5c40","boring_xml_url":0,"boring_view_url":0,"soilmap_view_url":66,"soiltest_xml_url":0,"soiltest_view_url":66},{"id":131729,"code":"B4KJ201801001-9978","latitude":"32.53850833","longitude":"130.5449444","source_code":"PORT43002010104","project_name":"\u6e2f\u6e7e\u5c40","survey_name":"\u516b\u4ee3\u6e2f(\u5916\u6e2f\u5730\u533a)\u571f\u8cea\u8abf\u67fb\u516b\u4ee3\u6e2f(\u5916\u6e2f\u5730\u533a)\u571f\u8cea\u8abf\u67fb","client_name":"\u56fd\u571f\u4ea4\u901a\u7701\u4e5d\u5dde\u5730\u65b9\u6574\u5099\u5c40","boring_xml_url":0,"boring_view_url":0,"soilmap_view_url":66,"soiltest_xml_url":0,"soiltest_view_url":66},{"id":131728,"code":"B4KJ201801001-9977","latitude":"32.538725","longitude":"130.5444778","source_code":"PORT43002010103","project_name":"\u6e2f\u6e7e\u5c40","survey_name":"\u516b\u4ee3\u6e2f(\u5916\u6e2f\u5730\u533a)\u571f\u8cea\u8abf\u67fb\u516b\u4ee3\u6e2f(\u5916\u6e2f\u5730\u533a)\u571f\u8cea\u8abf\u67fb","client_name":"\u56fd\u571f\u4ea4\u901a\u7701\u4e5d\u5dde\u5730\u65b9\u6574\u5099\u5c40","boring_xml_url":0,"boring_view_url":0,"soilmap_view_url":66,"soiltest_xml_url":0,"soiltest_view_url":66},{"id":131727,"code":"B4KJ201801001-9976","latitude":"32.53881389","longitude":"130.5442917","source_code":"PORT43002010102","project_name":"\u6e2f\u6e7e\u5c40","survey_name":"\u516b\u4ee3\u6e2f(\u5916\u6e2f\u5730\u533a)\u571f\u8cea\u8abf\u67fb\u516b\u4ee3\u6e2f(\u5916\u6e2f\u5730\u533a)\u571f\u8cea\u8abf\u67fb","client_name":"\u56fd\u571f\u4ea4\u901a\u7701\u4e5d\u5dde\u5730\u65b9\u6574\u5099\u5c40","boring_xml_url":0,"boring_view_url":0,"soilmap_view_url":66,"soiltest_xml_url":0,"soiltest_view_url":66},{"id":131726,"code":"B4KJ201801001-9975","latitude":"32.5389","longitude":"130.5441056","source_code":"PORT43002010101","project_name":"\u6e2f\u6e7e\u5c40","survey_name":"\u516b\u4ee3\u6e2f(\u5916\u6e2f\u5730\u533a)\u571f\u8cea\u8abf\u67fb\u516b\u4ee3\u6e2f(\u5916\u6e2f\u5730\u533a)\u571f\u8cea\u8abf\u67fb","client_name":"\u56fd\u571f\u4ea4\u901a\u7701\u4e5d\u5dde\u5730\u65b9\u6574\u5099\u5c40","boring_xml_url":0,"boring_view_url":0,"soilmap_view_url":66,"soiltest_xml_url":0,"soiltest_view_url":66}]}}