{"header":{"xyz":{"source":[],"mosaic":false},"page":6303,"raw":{"soiltest_result":"0","bbox":"57.598333,109.544722,1.933333,163.806111","page":"6303"},"conditions":{"soiltest_result":0,"north":57.598333,"west":109.544722,"south":1.933333,"east":163.806111},"success":true,"message":""},"data":{"meta":{"total":212844,"page":6303,"pages":7095,"count":30},"values":[{"id":131485,"code":"B4KJ201801001-9734","latitude":"39.783975","longitude":"140.0335621","source_code":"PORT05001010357","project_name":"\u6e2f\u6e7e\u5c40","survey_name":"\u79cb\u7530\u6e2f\u98ef\u5cf6\u5730\u533a\u6cca\u5730(-11m)\u571f\u8cea\u8abf\u67fb","client_name":"\u56fd\u571f\u4ea4\u901a\u7701\u6771\u5317\u5730\u65b9\u6574\u5099\u5c40","boring_xml_url":0,"boring_view_url":0,"soilmap_view_url":66,"soiltest_xml_url":0,"soiltest_view_url":66},{"id":131484,"code":"B4KJ201801001-9733","latitude":"39.02077417","longitude":"141.7333675","source_code":"PORT03002012302","project_name":"\u6e2f\u6e7e\u5c40","survey_name":"\u5e73\u621023\u5e74\u5ea6 \u5927\u8239\u6e21\u6e2f\u6e7e\u53e3\u5730\u533a\u9632\u6ce2","client_name":"\u56fd\u571f\u4ea4\u901a\u7701\u6771\u5317\u5730\u65b9\u6574\u5099\u5c40","boring_xml_url":0,"boring_view_url":0,"soilmap_view_url":66,"soiltest_xml_url":0,"soiltest_view_url":0},{"id":131483,"code":"B4KJ201801001-9732","latitude":"39.01689778","longitude":"141.7320064","source_code":"PORT03002012301","project_name":"\u6e2f\u6e7e\u5c40","survey_name":"\u5e73\u621023\u5e74\u5ea6 \u5927\u8239\u6e21\u6e2f\u6e7e\u53e3\u5730\u533a\u9632\u6ce2","client_name":"\u56fd\u571f\u4ea4\u901a\u7701\u6771\u5317\u5730\u65b9\u6574\u5099\u5c40","boring_xml_url":0,"boring_view_url":0,"soilmap_view_url":66,"soiltest_xml_url":0,"soiltest_view_url":0},{"id":131482,"code":"B4KJ201801001-9731","latitude":"40.83284772","longitude":"140.7456898","source_code":"PORT02001010576","project_name":"\u6e2f\u6e7e\u5c40","survey_name":"\u5e73\u621023\u5e74\u5ea6\u9752\u68ee\u6e2f\u571f\u8cea\u8abf\u67fb","client_name":"\u56fd\u571f\u4ea4\u901a\u7701\u6771\u5317\u5730\u65b9\u6574\u5099\u5c40","boring_xml_url":0,"boring_view_url":0,"soilmap_view_url":66,"soiltest_xml_url":0,"soiltest_view_url":66},{"id":131481,"code":"B4KJ201801001-9730","latitude":"40.84378667","longitude":"140.7457053","source_code":"PORT02001010575","project_name":"\u6e2f\u6e7e\u5c40","survey_name":"\u5e73\u621023\u5e74\u5ea6\u9752\u68ee\u6e2f\u571f\u8cea\u8abf\u67fb","client_name":"\u56fd\u571f\u4ea4\u901a\u7701\u6771\u5317\u5730\u65b9\u6574\u5099\u5c40","boring_xml_url":0,"boring_view_url":0,"soilmap_view_url":66,"soiltest_xml_url":0,"soiltest_view_url":66},{"id":131480,"code":"B4KJ201801001-9729","latitude":"43.18685883","longitude":"141.2906332","source_code":"PORT01046016365","project_name":"\u6e2f\u6e7e\u5c40","survey_name":"\u5bff\u90fd\u6f01\u6e2f\u59161\u6e2f\u5730\u8cea\u8abf\u67fb\u696d\u52d9","client_name":"\u56fd\u571f\u4ea4\u901a\u7701\u5317\u6d77\u9053\u958b\u767a\u5c40","boring_xml_url":0,"boring_view_url":0,"soilmap_view_url":66,"soiltest_xml_url":0,"soiltest_view_url":66},{"id":131479,"code":"B4KJ201801001-9728","latitude":"43.18777264","longitude":"141.2903642","source_code":"PORT01046016364","project_name":"\u6e2f\u6e7e\u5c40","survey_name":"\u5bff\u90fd\u6f01\u6e2f\u59161\u6e2f\u5730\u8cea\u8abf\u67fb\u696d\u52d9","client_name":"\u56fd\u571f\u4ea4\u901a\u7701\u5317\u6d77\u9053\u958b\u767a\u5c40","boring_xml_url":0,"boring_view_url":0,"soilmap_view_url":66,"soiltest_xml_url":0,"soiltest_view_url":66},{"id":131478,"code":"B4KJ201801001-9727","latitude":"45.24211022","longitude":"141.2286015","source_code":"PORT01024012311","project_name":"\u6e2f\u6e7e\u5c40","survey_name":"\u9d1b\u6cca\u6e2f\u59162\u6e2f\u5730\u8cea\u8abf\u67fb\u696d\u52d9\u9d1b\u6ccaNo.11","client_name":"\u56fd\u571f\u4ea4\u901a\u7701\u5317\u6d77\u9053\u958b\u767a\u5c40","boring_xml_url":0,"boring_view_url":0,"soilmap_view_url":66,"soiltest_xml_url":0,"soiltest_view_url":66},{"id":131477,"code":"B4KJ201801001-9726","latitude":"45.24190161","longitude":"141.2282588","source_code":"PORT01024012310","project_name":"\u6e2f\u6e7e\u5c40","survey_name":"\u9d1b\u6cca\u6e2f\u59162\u6e2f\u5730\u8cea\u8abf\u67fb\u696d\u52d9\u9d1b\u6cca-No.10","client_name":"\u56fd\u571f\u4ea4\u901a\u7701\u5317\u6d77\u9053\u958b\u767a\u5c40","boring_xml_url":0,"boring_view_url":0,"soilmap_view_url":66,"soiltest_xml_url":0,"soiltest_view_url":66},{"id":131476,"code":"B4KJ201801001-9725","latitude":"45.24129581","longitude":"141.2283865","source_code":"PORT01024012309","project_name":"\u6e2f\u6e7e\u5c40","survey_name":"\u9d1b\u6cca\u6e2f\u59162\u6e2f\u5730\u8cea\u8abf\u67fb\u696d\u52d9\u9d1b\u6cca-No.9","client_name":"\u56fd\u571f\u4ea4\u901a\u7701\u5317\u6d77\u9053\u958b\u767a\u5c40","boring_xml_url":0,"boring_view_url":0,"soilmap_view_url":66,"soiltest_xml_url":0,"soiltest_view_url":66},{"id":131475,"code":"B4KJ201801001-9724","latitude":"45.239137","longitude":"141.2294018","source_code":"PORT01024012305","project_name":"\u6e2f\u6e7e\u5c40","survey_name":"\u9d1b\u6cca\u6e2f\u59162 \u6e2f\u5730\u8cea\u8abf\u67fb\u696d\u52d9\u9d1b\u6cca-No.5","client_name":"\u56fd\u571f\u4ea4\u901a\u7701\u5317\u6d77\u9053\u958b\u767a\u5c40","boring_xml_url":0,"boring_view_url":0,"soilmap_view_url":66,"soiltest_xml_url":0,"soiltest_view_url":66},{"id":131474,"code":"B4KJ201801001-9723","latitude":"45.23951725","longitude":"141.2298061","source_code":"PORT01024012304","project_name":"\u6e2f\u6e7e\u5c40","survey_name":"\u9d1b\u6cca\u6e2f\u59162 \u6e2f\u5730\u8cea\u8abf\u67fb\u696d\u52d9\u9d1b\u6cca-No.4","client_name":"\u56fd\u571f\u4ea4\u901a\u7701\u5317\u6d77\u9053\u958b\u767a\u5c40","boring_xml_url":0,"boring_view_url":0,"soilmap_view_url":66,"soiltest_xml_url":0,"soiltest_view_url":66},{"id":131473,"code":"B4KJ201801001-9722","latitude":"45.24083117","longitude":"141.2288064","source_code":"PORT01024012303","project_name":"\u6e2f\u6e7e\u5c40","survey_name":"\u9d1b\u6cca\u6e2f\u59162 \u6e2f\u5730\u8cea\u8abf\u67fb\u696d\u52d9\u9d1b\u6cca-No.3","client_name":"\u56fd\u571f\u4ea4\u901a\u7701\u5317\u6d77\u9053\u958b\u767a\u5c40","boring_xml_url":0,"boring_view_url":0,"soilmap_view_url":66,"soiltest_xml_url":0,"soiltest_view_url":66},{"id":131472,"code":"B4KJ201801001-9721","latitude":"45.24140967","longitude":"141.2286844","source_code":"PORT01024012302","project_name":"\u6e2f\u6e7e\u5c40","survey_name":"\u9d1b\u6cca\u6e2f\u59162 \u6e2f\u5730\u8cea\u8abf\u67fb\u696d\u52d9\u9d1b\u6cca-No.2","client_name":"\u56fd\u571f\u4ea4\u901a\u7701\u5317\u6d77\u9053\u958b\u767a\u5c40","boring_xml_url":0,"boring_view_url":0,"soilmap_view_url":66,"soiltest_xml_url":0,"soiltest_view_url":66},{"id":131471,"code":"B4KJ201801001-9720","latitude":"45.24195192","longitude":"141.2286534","source_code":"PORT01024012301","project_name":"\u6e2f\u6e7e\u5c40","survey_name":"\u9d1b\u6cca\u6e2f\u59162 \u6e2f\u5730\u8cea\u8abf\u67fb\u696d\u52d9\u9d1b\u6cca-No.1","client_name":"\u56fd\u571f\u4ea4\u901a\u7701\u5317\u6d77\u9053\u958b\u767a\u5c40","boring_xml_url":0,"boring_view_url":0,"soilmap_view_url":66,"soiltest_xml_url":0,"soiltest_view_url":66},{"id":131470,"code":"B4KJ201801001-9719","latitude":"44.88202778","longitude":"141.739","source_code":"PORT01023012401","project_name":"\u6e2f\u6e7e\u5c40","survey_name":"\u7fbd\u5e4c\u6e2f\u5916\u5730\u8cea\u8abf\u67fb\u696d\u52d9","client_name":"\u56fd\u571f\u4ea4\u901a\u7701\u5317\u6d77\u9053\u958b\u767a\u5c40","boring_xml_url":0,"boring_view_url":0,"soilmap_view_url":66,"soiltest_xml_url":0,"soiltest_view_url":66},{"id":131469,"code":"B4KJ201801001-9718","latitude":"44.37033333","longitude":"141.6978333","source_code":"PORT01019012407","project_name":"\u6e2f\u6e7e\u5c40","survey_name":"\u7fbd\u5e4c\u6e2f\u5916\u5730\u8cea\u8abf\u67fb\u696d\u52d9","client_name":"\u56fd\u571f\u4ea4\u901a\u7701\u5317\u6d77\u9053\u958b\u767a\u5c40","boring_xml_url":0,"boring_view_url":0,"soilmap_view_url":66,"soiltest_xml_url":0,"soiltest_view_url":66},{"id":131468,"code":"B4KJ201801001-9717","latitude":"44.36977778","longitude":"141.6984167","source_code":"PORT01019012406","project_name":"\u6e2f\u6e7e\u5c40","survey_name":"\u7fbd\u5e4c\u6e2f\u5916\u5730\u8cea\u8abf\u67fb\u696d\u52d9","client_name":"\u56fd\u571f\u4ea4\u901a\u7701\u5317\u6d77\u9053\u958b\u767a\u5c40","boring_xml_url":0,"boring_view_url":0,"soilmap_view_url":66,"soiltest_xml_url":0,"soiltest_view_url":66},{"id":131467,"code":"B4KJ201801001-9716","latitude":"44.36858333","longitude":"141.6975278","source_code":"PORT01019012405","project_name":"\u6e2f\u6e7e\u5c40","survey_name":"\u7fbd\u5e4c\u6e2f\u5916\u5730\u8cea\u8abf\u67fb\u696d\u52d9","client_name":"\u56fd\u571f\u4ea4\u901a\u7701\u5317\u6d77\u9053\u958b\u767a\u5c40","boring_xml_url":0,"boring_view_url":0,"soilmap_view_url":66,"soiltest_xml_url":0,"soiltest_view_url":66},{"id":131466,"code":"B4KJ201801001-9715","latitude":"44.37016667","longitude":"141.6966111","source_code":"PORT01019012404","project_name":"\u6e2f\u6e7e\u5c40","survey_name":"\u7fbd\u5e4c\u6e2f\u5916\u5730\u8cea\u8abf\u67fb\u696d\u52d9","client_name":"\u56fd\u571f\u4ea4\u901a\u7701\u5317\u6d77\u9053\u958b\u767a\u5c40","boring_xml_url":0,"boring_view_url":0,"soilmap_view_url":66,"soiltest_xml_url":0,"soiltest_view_url":66},{"id":131465,"code":"B4KJ201801001-9714","latitude":"44.36994444","longitude":"141.6980278","source_code":"PORT01019012403","project_name":"\u6e2f\u6e7e\u5c40","survey_name":"\u7fbd\u5e4c\u6e2f\u5916\u5730\u8cea\u8abf\u67fb\u696d\u52d9","client_name":"\u56fd\u571f\u4ea4\u901a\u7701\u5317\u6d77\u9053\u958b\u767a\u5c40","boring_xml_url":0,"boring_view_url":0,"soilmap_view_url":66,"soiltest_xml_url":0,"soiltest_view_url":66},{"id":131464,"code":"B4KJ201801001-9713","latitude":"44.36958333","longitude":"141.6962222","source_code":"PORT01019012402","project_name":"\u6e2f\u6e7e\u5c40","survey_name":"\u7fbd\u5e4c\u6e2f\u5916\u5730\u8cea\u8abf\u67fb\u696d\u52d9","client_name":"\u56fd\u571f\u4ea4\u901a\u7701\u5317\u6d77\u9053\u958b\u767a\u5c40","boring_xml_url":0,"boring_view_url":0,"soilmap_view_url":66,"soiltest_xml_url":0,"soiltest_view_url":66},{"id":131463,"code":"B4KJ201801001-9712","latitude":"44.36847222","longitude":"141.6973056","source_code":"PORT01019012401","project_name":"\u6e2f\u6e7e\u5c40","survey_name":"\u7fbd\u5e4c\u6e2f\u5916\u5730\u8cea\u8abf\u67fb\u696d\u52d9","client_name":"\u56fd\u571f\u4ea4\u901a\u7701\u5317\u6d77\u9053\u958b\u767a\u5c40","boring_xml_url":0,"boring_view_url":0,"soilmap_view_url":66,"soiltest_xml_url":0,"soiltest_view_url":66},{"id":131462,"code":"B4KJ201801001-9711","latitude":"44.37202194","longitude":"141.6979969","source_code":"PORT01019012302","project_name":"\u6e2f\u6e7e\u5c40","survey_name":"\u82eb\u524d\u6f01\u6e2f\u5916\u5730\u8cea\u8abf\u67fb\u696d\u52d9","client_name":"\u56fd\u571f\u4ea4\u901a\u7701\u5317\u6d77\u9053\u958b\u767a\u5c40","boring_xml_url":0,"boring_view_url":0,"soilmap_view_url":66,"soiltest_xml_url":0,"soiltest_view_url":66},{"id":131461,"code":"B4KJ201801001-9710","latitude":"44.37173556","longitude":"141.6985319","source_code":"PORT01019012301","project_name":"\u6e2f\u6e7e\u5c40","survey_name":"\u82eb\u524d\u6f01\u6e2f\u5916\u5730\u8cea\u8abf\u67fb\u696d\u52d9","client_name":"\u56fd\u571f\u4ea4\u901a\u7701\u5317\u6d77\u9053\u958b\u767a\u5c40","boring_xml_url":0,"boring_view_url":0,"soilmap_view_url":66,"soiltest_xml_url":0,"soiltest_view_url":66},{"id":131460,"code":"B4KJ201801001-9709","latitude":"42.60692139","longitude":"141.7811837","source_code":"PORT01003029727","project_name":"\u6e2f\u6e7e\u5c40","survey_name":"\u767d\u8001\u6e2f\u59161\u6e2f\u5730\u8cea\u8abf\u67fb\u696d\u52d9","client_name":"\u56fd\u571f\u4ea4\u901a\u7701\u5317\u6d77\u9053\u958b\u767a\u5c40","boring_xml_url":0,"boring_view_url":0,"soilmap_view_url":66,"soiltest_xml_url":0,"soiltest_view_url":66},{"id":131459,"code":"B4KJ201801001-9708","latitude":"32.44183333","longitude":"131.6653056","source_code":"PORT45001010034","project_name":"\u6e2f\u6e7e\u5c40","survey_name":"\u7d30\u5cf6\u6e2f\u571f\u8cea\u8abf\u67fb","client_name":"\u56fd\u571f\u4ea4\u901a\u7701\u4e5d\u5dde\u5730\u65b9\u6574\u5099\u5c40","boring_xml_url":0,"boring_view_url":0,"soilmap_view_url":66,"soiltest_xml_url":0,"soiltest_view_url":66},{"id":131458,"code":"B4KJ201801001-9707","latitude":"32.4425","longitude":"131.6660556","source_code":"PORT45001010033","project_name":"\u6e2f\u6e7e\u5c40","survey_name":"\u7d30\u5cf6\u6e2f\u571f\u8cea\u8abf\u67fb","client_name":"\u56fd\u571f\u4ea4\u901a\u7701\u4e5d\u5dde\u5730\u65b9\u6574\u5099\u5c40","boring_xml_url":0,"boring_view_url":0,"soilmap_view_url":66,"soiltest_xml_url":0,"soiltest_view_url":66},{"id":131457,"code":"B4KJ201801001-9706","latitude":"32.97845556","longitude":"131.9308806","source_code":"PORT44010010024","project_name":"\u6e2f\u6e7e\u5c40","survey_name":"\u5e73\u621022\u5e74\u5ea6\u4f50\u4f2f\u6e2f(\u5973\u5cf6\u5730\u533a)\u571f\u8cea","client_name":"\u56fd\u571f\u4ea4\u901a\u7701\u4e5d\u5dde\u5730\u65b9\u6574\u5099\u5c40","boring_xml_url":0,"boring_view_url":0,"soilmap_view_url":66,"soiltest_xml_url":0,"soiltest_view_url":66},{"id":131456,"code":"B4KJ201801001-9705","latitude":"33.28161136","longitude":"131.5073687","source_code":"PORT44003010187","project_name":"\u6e2f\u6e7e\u5c40","survey_name":"\u5225\u5e9c\u6e2f\u6d77\u5cb8(\u5317\u6d5c\u5730\u533a)\u571f\u8cea\u8abf\u67fb(\u7b2c3\u6b21)","client_name":"\u56fd\u571f\u4ea4\u901a\u7701\u4e5d\u5dde\u5730\u65b9\u6574\u5099\u5c40","boring_xml_url":0,"boring_view_url":0,"soilmap_view_url":66,"soiltest_xml_url":0,"soiltest_view_url":66}]}}