{"header":{"xyz":{"source":[],"mosaic":false},"page":6308,"raw":{"soiltest_result":"0","bbox":"57.598333,109.544722,1.933333,163.806111","page":"6308"},"conditions":{"soiltest_result":0,"north":57.598333,"west":109.544722,"south":1.933333,"east":163.806111},"success":true,"message":""},"data":{"meta":{"total":212844,"page":6308,"pages":7095,"count":30},"values":[{"id":131335,"code":"B4KJ201801001-9584","latitude":"35.50896536","longitude":"139.7407829","source_code":"PORT14002012225","project_name":"\u6e2f\u6e7e\u5c40","survey_name":"\u5ddd\u5d0e\u6e2f\u81e8\u6e2f\u9053\u8def\u6771\u6247\u5cf6\u6c34\u6c5f\u753a\u7dda\u6c34\u6c5f\u753a\u5074\u30a2\u30d7\u30ed\u30fc\u30c1\u90e8\u571f\u8cea\u8abf\u67fb","client_name":"\u56fd\u571f\u4ea4\u901a\u7701\u95a2\u6771\u5730\u65b9\u6574\u5099\u5c40","boring_xml_url":0,"boring_view_url":0,"soilmap_view_url":66,"soiltest_xml_url":0,"soiltest_view_url":66},{"id":131334,"code":"B4KJ201801001-9583","latitude":"35.49722192","longitude":"139.7483386","source_code":"PORT14002012224","project_name":"\u6e2f\u6e7e\u5c40","survey_name":"\u5ddd\u5d0e\u6e2f\u81e8\u6e2f\u9053\u8def\u6771\u6247\u5cf6\u6c34\u6c5f\u753a\u7dda\u6771\u6247\u5cf6\u5074\u30a2\u30d7\u30ed\u30fc\u30c1\u90e8\u571f\u8cea\u8abf\u67fb","client_name":"\u56fd\u571f\u4ea4\u901a\u7701\u95a2\u6771\u5730\u65b9\u6574\u5099\u5c40","boring_xml_url":0,"boring_view_url":0,"soilmap_view_url":66,"soiltest_xml_url":0,"soiltest_view_url":66},{"id":131333,"code":"B4KJ201801001-9582","latitude":"35.49592589","longitude":"139.7506542","source_code":"PORT14002012223","project_name":"\u6e2f\u6e7e\u5c40","survey_name":"\u5ddd\u5d0e\u6e2f\u81e8\u6e2f\u9053\u8def\u6771\u6247\u5cf6\u6c34\u6c5f\u753a\u7dda\u6771\u6247","client_name":"\u56fd\u571f\u4ea4\u901a\u7701\u95a2\u6771\u5730\u65b9\u6574\u5099\u5c40","boring_xml_url":0,"boring_view_url":0,"soilmap_view_url":66,"soiltest_xml_url":0,"soiltest_view_url":66},{"id":131332,"code":"B4KJ201801001-9581","latitude":"35.49411497","longitude":"139.7500512","source_code":"PORT14002012222","project_name":"\u6e2f\u6e7e\u5c40","survey_name":"\u5ddd\u5d0e\u6e2f\u81e8\u6e2f\u9053\u8def\u6771\u6247\u5cf6\u6c34\u6c5f\u753a\u7dda\u6771\u6247\u5cf6\u5074\u30a2\u30d7\u30ed\u30fc\u30c1\u90e8\u571f\u8cea\u8abf\u67fb","client_name":"\u56fd\u571f\u4ea4\u901a\u7701\u95a2\u6771\u5730\u65b9\u6574\u5099\u5c40","boring_xml_url":0,"boring_view_url":0,"soilmap_view_url":66,"soiltest_xml_url":0,"soiltest_view_url":66},{"id":131331,"code":"B4KJ201801001-9580","latitude":"35.49273811","longitude":"139.7519703","source_code":"PORT14002012221","project_name":"\u6e2f\u6e7e\u5c40","survey_name":"\u5ddd\u5d0e\u6e2f\u81e8\u6e2f\u9053\u8def\u6771\u6247\u5cf6\u6c34\u6c5f\u753a\u7dda\u6771\u6247\u5cf6\u5074\u30a2\u30d7\u30ed\u30fc\u30c1\u90e8\u571f\u8cea\u8abf\u67fb","client_name":"\u56fd\u571f\u4ea4\u901a\u7701\u95a2\u6771\u5730\u65b9\u6574\u5099\u5c40","boring_xml_url":0,"boring_view_url":0,"soilmap_view_url":66,"soiltest_xml_url":0,"soiltest_view_url":66},{"id":131330,"code":"B4KJ201801001-9579","latitude":"35.49336692","longitude":"139.753245","source_code":"PORT14002012220","project_name":"\u6e2f\u6e7e\u5c40","survey_name":"\u5ddd\u5d0e\u6e2f\u81e8\u6e2f\u9053\u8def\u6771\u6247\u5cf6\u6c34\u6c5f\u753a\u7dda\u6771\u6247\u5ddd\u5d0e\u6e2f\u6771\u6247\u5cf6\u6c34\u6c5f\u753a\u5730\u533a\u81e8\u6e2f\u9053","client_name":"\u56fd\u571f\u4ea4\u901a\u7701\u95a2\u6771\u5730\u65b9\u6574\u5099\u5c40","boring_xml_url":0,"boring_view_url":0,"soilmap_view_url":66,"soiltest_xml_url":0,"soiltest_view_url":66},{"id":131329,"code":"B4KJ201801001-9578","latitude":"35.50476111","longitude":"139.7437614","source_code":"PORT14002012219","project_name":"\u6e2f\u6e7e\u5c40","survey_name":"\u5ddd\u5d0e\u6e2f\u81e8\u6e2f\u9053\u8def\u6771\u6247\u5cf6\u6c34\u6c5f\u753a\u7dda\u5468\u8fba\u5cb8\u58c1\u7b49\u571f\u8cea\u8abf\u67fb","client_name":"\u56fd\u571f\u4ea4\u901a\u7701\u95a2\u6771\u5730\u65b9\u6574\u5099\u5c40","boring_xml_url":0,"boring_view_url":0,"soilmap_view_url":66,"soiltest_xml_url":0,"soiltest_view_url":66},{"id":131328,"code":"B4KJ201801001-9577","latitude":"35.504665","longitude":"139.7433333","source_code":"PORT14002012218","project_name":"\u6e2f\u6e7e\u5c40","survey_name":"\u5ddd\u5d0e\u6e2f\u81e8\u6e2f\u9053\u8def\u6771\u6247\u5cf6\u6c34\u6c5f\u753a\u7dda\u5468\u8fba\u5cb8\u58c1\u7b49\u571f\u8cea\u8abf\u67fb","client_name":"\u56fd\u571f\u4ea4\u901a\u7701\u95a2\u6771\u5730\u65b9\u6574\u5099\u5c40","boring_xml_url":0,"boring_view_url":0,"soilmap_view_url":66,"soiltest_xml_url":0,"soiltest_view_url":66},{"id":131327,"code":"B4KJ201801001-9576","latitude":"35.50479139","longitude":"139.7432486","source_code":"PORT14002012217","project_name":"\u6e2f\u6e7e\u5c40","survey_name":"\u5ddd\u5d0e\u6e2f\u81e8\u6e2f\u9053\u8def\u6771\u6247\u5cf6\u6c34\u6c5f\u753a\u7dda\u5468\u8fba\u5cb8\u58c1\u7b49\u571f\u8cea\u8abf\u67fb","client_name":"\u56fd\u571f\u4ea4\u901a\u7701\u95a2\u6771\u5730\u65b9\u6574\u5099\u5c40","boring_xml_url":0,"boring_view_url":0,"soilmap_view_url":66,"soiltest_xml_url":0,"soiltest_view_url":66},{"id":131326,"code":"B4KJ201801001-9575","latitude":"35.50468972","longitude":"139.7428844","source_code":"PORT14002012216","project_name":"\u6e2f\u6e7e\u5c40","survey_name":"\u5ddd\u5d0e\u6e2f\u81e8\u6e2f\u9053\u8def\u6771\u6247\u5cf6\u6c34\u6c5f\u753a\u7dda\u5468\u8fba\u5cb8\u58c1\u7b49\u571f\u8cea\u8abf\u67fb","client_name":"\u56fd\u571f\u4ea4\u901a\u7701\u95a2\u6771\u5730\u65b9\u6574\u5099\u5c40","boring_xml_url":0,"boring_view_url":0,"soilmap_view_url":66,"soiltest_xml_url":0,"soiltest_view_url":66},{"id":131325,"code":"B4KJ201801001-9574","latitude":"35.50559972","longitude":"139.7425392","source_code":"PORT14002012215","project_name":"\u6e2f\u6e7e\u5c40","survey_name":"\u5ddd\u5d0e\u6e2f\u81e8\u6e2f\u9053\u8def\u6771\u6247\u5cf6\u6c34\u6c5f\u753a\u7dda\u5468\u8fba\u5cb8\u58c1\u7b49\u571f\u8cea\u8abf\u67fb","client_name":"\u56fd\u571f\u4ea4\u901a\u7701\u95a2\u6771\u5730\u65b9\u6574\u5099\u5c40","boring_xml_url":0,"boring_view_url":0,"soilmap_view_url":66,"soiltest_xml_url":0,"soiltest_view_url":66},{"id":131324,"code":"B4KJ201801001-9573","latitude":"35.50634861","longitude":"139.7421328","source_code":"PORT14002012214","project_name":"\u6e2f\u6e7e\u5c40","survey_name":"\u5ddd\u5d0e\u6e2f\u81e8\u6e2f\u9053\u8def\u6771\u6247\u5cf6\u6c34\u6c5f\u753a\u7dda\u5468\u8fba\u5cb8\u58c1\u7b49\u571f\u8cea\u8abf\u67fb","client_name":"\u56fd\u571f\u4ea4\u901a\u7701\u95a2\u6771\u5730\u65b9\u6574\u5099\u5c40","boring_xml_url":0,"boring_view_url":0,"soilmap_view_url":66,"soiltest_xml_url":0,"soiltest_view_url":66},{"id":131323,"code":"B4KJ201801001-9572","latitude":"35.50419722","longitude":"139.7424","source_code":"PORT14002012213","project_name":"\u6e2f\u6e7e\u5c40","survey_name":"\u5e73\u621022\u5e74\u5ea6\u5ddd\u5d0e\u6e2f\u81e8\u6e2f\u9053\u8def\u6771\u6247\u5cf6\u6c34\u6c5f\u753a\u7dda\u571f\u8cea\u8abf\u67fb(\u305d\u306e2)","client_name":"\u56fd\u571f\u4ea4\u901a\u7701\u95a2\u6771\u5730\u65b9\u6574\u5099\u5c40","boring_xml_url":0,"boring_view_url":0,"soilmap_view_url":66,"soiltest_xml_url":0,"soiltest_view_url":66},{"id":131322,"code":"B4KJ201801001-9571","latitude":"35.50456944","longitude":"139.7432472","source_code":"PORT14002012212","project_name":"\u6e2f\u6e7e\u5c40","survey_name":"\u5e73\u621022\u5e74\u5ea6\u5ddd\u5d0e\u6e2f\u81e8\u6e2f\u9053\u8def\u6771\u6247\u5cf6\u6c34\u6c5f\u753a\u7dda\u571f\u8cea\u8abf\u67fb(\u305d\u306e2)","client_name":"\u56fd\u571f\u4ea4\u901a\u7701\u95a2\u6771\u5730\u65b9\u6574\u5099\u5c40","boring_xml_url":0,"boring_view_url":0,"soilmap_view_url":66,"soiltest_xml_url":0,"soiltest_view_url":66},{"id":131321,"code":"B4KJ201801001-9570","latitude":"35.50445","longitude":"139.7429806","source_code":"PORT14002012211","project_name":"\u6e2f\u6e7e\u5c40","survey_name":"\u5e73\u621022\u5e74\u5ea6\u5ddd\u5d0e\u6e2f\u81e8\u6e2f\u9053\u8def\u6771\u6247\u5cf6\u6c34\u6c5f\u753a\u7dda\u571f\u8cea\u8abf\u67fb(\u305d\u306e2)","client_name":"\u56fd\u571f\u4ea4\u901a\u7701\u95a2\u6771\u5730\u65b9\u6574\u5099\u5c40","boring_xml_url":0,"boring_view_url":0,"soilmap_view_url":66,"soiltest_xml_url":0,"soiltest_view_url":66},{"id":131320,"code":"B4KJ201801001-9569","latitude":"35.50433611","longitude":"139.7430583","source_code":"PORT14002012210","project_name":"\u6e2f\u6e7e\u5c40","survey_name":"\u5e73\u621022\u5e74\u5ea6\u5ddd\u5d0e\u6e2f\u81e8\u6e2f\u9053\u8def\u6771\u6247\u5cf6\u6c34\u6c5f\u753a\u7dda\u571f\u8cea\u8abf\u67fb(\u305d\u306e2)","client_name":"\u56fd\u571f\u4ea4\u901a\u7701\u95a2\u6771\u5730\u65b9\u6574\u5099\u5c40","boring_xml_url":0,"boring_view_url":0,"soilmap_view_url":66,"soiltest_xml_url":0,"soiltest_view_url":66},{"id":131319,"code":"B4KJ201801001-9568","latitude":"35.50446111","longitude":"139.7433306","source_code":"PORT14002012209","project_name":"\u6e2f\u6e7e\u5c40","survey_name":"\u5e73\u621022\u5e74\u5ea6\u5ddd\u5d0e\u6e2f\u81e8\u6e2f\u9053\u8def\u6771\u6247\u5cf6\u6c34\u6c5f\u753a\u7dda\u571f\u8cea\u8abf\u67fb(\u305d\u306e2)","client_name":"\u56fd\u571f\u4ea4\u901a\u7701\u95a2\u6771\u5730\u65b9\u6574\u5099\u5c40","boring_xml_url":0,"boring_view_url":0,"soilmap_view_url":66,"soiltest_xml_url":0,"soiltest_view_url":66},{"id":131318,"code":"B4KJ201801001-9567","latitude":"35.50446667","longitude":"139.7431889","source_code":"PORT14002012208","project_name":"\u6e2f\u6e7e\u5c40","survey_name":"\u5e73\u621022\u5e74\u5ea6\u5ddd\u5d0e\u6e2f\u81e8\u6e2f\u9053\u8def\u6771\u6247\u5cf6\u6c34\u6c5f\u753a\u7dda\u571f\u8cea\u8abf\u67fb(\u305d\u306e2)","client_name":"\u56fd\u571f\u4ea4\u901a\u7701\u95a2\u6771\u5730\u65b9\u6574\u5099\u5c40","boring_xml_url":0,"boring_view_url":0,"soilmap_view_url":66,"soiltest_xml_url":0,"soiltest_view_url":66},{"id":131317,"code":"B4KJ201801001-9566","latitude":"35.49888225","longitude":"139.7472531","source_code":"PORT14002012207","project_name":"\u6e2f\u6e7e\u5c40","survey_name":"\u5e73\u621022\u5e74\u5ea6\u5ddd\u5d0e\u6e2f\u81e8\u6d77\u9053\u8def\u6771\u6247\u5cf6\u6c34\u6c5f\u753a\u7dda\u571f\u8cea\u8abf\u67fb","client_name":"\u56fd\u571f\u4ea4\u901a\u7701\u95a2\u6771\u5730\u65b9\u6574\u5099\u5c40","boring_xml_url":0,"boring_view_url":0,"soilmap_view_url":66,"soiltest_xml_url":0,"soiltest_view_url":66},{"id":131316,"code":"B4KJ201801001-9565","latitude":"35.50015567","longitude":"139.7465657","source_code":"PORT14002012206","project_name":"\u6e2f\u6e7e\u5c40","survey_name":"\u5e73\u621022\u5e74\u5ea6\u5ddd\u5d0e\u6e2f\u81e8\u6e2f\u9053\u8def\u6771\u6247\u5cf6\u6c34\u6c5f\u753a\u7dda\u571f\u8cea\u8abf\u67fb","client_name":"\u56fd\u571f\u4ea4\u901a\u7701\u95a2\u6771\u5730\u65b9\u6574\u5099\u5c40","boring_xml_url":0,"boring_view_url":0,"soilmap_view_url":66,"soiltest_xml_url":0,"soiltest_view_url":66},{"id":131315,"code":"B4KJ201801001-9564","latitude":"35.49999403","longitude":"139.7462376","source_code":"PORT14002012205","project_name":"\u6e2f\u6e7e\u5c40","survey_name":"\u5e73\u621022\u5e74\u5ea6\u5ddd\u5d0e\u6e2f\u81e8\u6e2f\u9053\u8def\u6771\u6247\u5cf6\u6c34\u6c5f\u753a\u7dda\u571f\u8cea\u8abf\u67fb","client_name":"\u56fd\u571f\u4ea4\u901a\u7701\u95a2\u6771\u5730\u65b9\u6574\u5099\u5c40","boring_xml_url":0,"boring_view_url":0,"soilmap_view_url":66,"soiltest_xml_url":0,"soiltest_view_url":66},{"id":131314,"code":"B4KJ201801001-9563","latitude":"35.49988214","longitude":"139.7463197","source_code":"PORT14002012204","project_name":"\u6e2f\u6e7e\u5c40","survey_name":"\u5e73\u621022\u5e74\u5ea6\u5ddd\u5d0e\u6e2f\u81e8\u6e2f\u9053\u8def\u6771\u6247\u5cf6\u6c34\u6c5f\u753a\u7dda\u571f\u8cea\u8abf\u67fb","client_name":"\u56fd\u571f\u4ea4\u901a\u7701\u95a2\u6771\u5730\u65b9\u6574\u5099\u5c40","boring_xml_url":0,"boring_view_url":0,"soilmap_view_url":66,"soiltest_xml_url":0,"soiltest_view_url":66},{"id":131313,"code":"B4KJ201801001-9562","latitude":"35.50004281","longitude":"139.7466485","source_code":"PORT14002012203","project_name":"\u6e2f\u6e7e\u5c40","survey_name":"\u5e73\u621022\u5e74\u5ea6\u5ddd\u5d0e\u6e2f\u81e8\u6e2f\u9053\u8def\u6771\u6247\u5cf6\u6c34\u6c5f\u753a\u7dda\u571f\u8cea\u8abf\u67fb","client_name":"\u56fd\u571f\u4ea4\u901a\u7701\u95a2\u6771\u5730\u65b9\u6574\u5099\u5c40","boring_xml_url":0,"boring_view_url":0,"soilmap_view_url":66,"soiltest_xml_url":0,"soiltest_view_url":66},{"id":131312,"code":"B4KJ201801001-9561","latitude":"35.50001864","longitude":"139.7464429","source_code":"PORT14002012202","project_name":"\u6e2f\u6e7e\u5c40","survey_name":"\u5e73\u621022\u5e74\u5ea6\u5ddd\u5d0e\u6e2f\u81e8\u6e2f\u9053\u8def\u6771\u6247\u5cf6\u6c34\u6c5f\u753a\u7dda\u571f\u8cea\u8abf\u67fb","client_name":"\u56fd\u571f\u4ea4\u901a\u7701\u95a2\u6771\u5730\u65b9\u6574\u5099\u5c40","boring_xml_url":0,"boring_view_url":0,"soilmap_view_url":66,"soiltest_xml_url":0,"soiltest_view_url":66},{"id":131311,"code":"B4KJ201801001-9560","latitude":"35.49822172","longitude":"139.7477056","source_code":"PORT14002012201","project_name":"\u6e2f\u6e7e\u5c40","survey_name":"\u5e73\u621022\u5e74\u5ea6\u5ddd\u5d0e\u6e2f\u81e8\u6e2f\u9053\u8def\u6771\u6247\u5cf6\u6c34\u6c5f\u753a\u7dda\u571f\u8cea\u8abf\u67fb","client_name":"\u56fd\u571f\u4ea4\u901a\u7701\u95a2\u6771\u5730\u65b9\u6574\u5099\u5c40","boring_xml_url":0,"boring_view_url":0,"soilmap_view_url":66,"soiltest_xml_url":0,"soiltest_view_url":66},{"id":131310,"code":"B4KJ201801001-9559","latitude":"35.41331667","longitude":"139.6773111","source_code":"PORT14001013044","project_name":"\u6e2f\u6e7e\u5c40","survey_name":"\u5e73\u621021\u5e74\u5ea6\u6a2a\u6d5c\u6e2f\u672c\u7267\u30fb\u5357\u672c\u7267\u5730\u533a\u81e8\u6e2f\u9053\u8def\u9678\u4e0a\u9ad8\u67b6\u90e8\u8abf\u67fb\u8a2d\u8a08","client_name":"\u56fd\u571f\u4ea4\u901a\u7701\u95a2\u6771\u5730\u65b9\u6574\u5099\u5c40","boring_xml_url":0,"boring_view_url":0,"soilmap_view_url":66,"soiltest_xml_url":0,"soiltest_view_url":66},{"id":131309,"code":"B4KJ201801001-9558","latitude":"35.41388333","longitude":"139.6754528","source_code":"PORT14001013043","project_name":"\u6e2f\u6e7e\u5c40","survey_name":"\u5e73\u621021\u5e74\u5ea6\u6a2a\u6d5c\u6e2f\u672c\u7267\u30fb\u5357\u672c\u7267\u5730\u533a\u81e8\u6e2f\u9053\u8def\u9678\u4e0a\u9ad8\u67b6\u90e8\u8abf\u67fb\u8a2d\u8a08","client_name":"\u56fd\u571f\u4ea4\u901a\u7701\u95a2\u6771\u5730\u65b9\u6574\u5099\u5c40","boring_xml_url":0,"boring_view_url":0,"soilmap_view_url":66,"soiltest_xml_url":0,"soiltest_view_url":66},{"id":131308,"code":"B4KJ201801001-9557","latitude":"35.41441111","longitude":"139.6737111","source_code":"PORT14001013042","project_name":"\u6e2f\u6e7e\u5c40","survey_name":"\u5e73\u621021\u5e74\u5ea6\u6a2a\u6d5c\u6e2f\u672c\u7267\u30fb\u5357\u672c\u7267\u5730\u533a\u81e8\u6e2f\u9053\u8def\u9678\u4e0a\u9ad8\u67b6\u90e8\u8abf\u67fb\u8a2d\u8a08","client_name":"\u56fd\u571f\u4ea4\u901a\u7701\u95a2\u6771\u5730\u65b9\u6574\u5099\u5c40","boring_xml_url":0,"boring_view_url":0,"soilmap_view_url":66,"soiltest_xml_url":0,"soiltest_view_url":66},{"id":131307,"code":"B4KJ201801001-9556","latitude":"35.41501944","longitude":"139.6717333","source_code":"PORT14001013041","project_name":"\u6e2f\u6e7e\u5c40","survey_name":"\u5e73\u621021\u5e74\u5ea6\u6a2a\u6d5c\u6e2f\u672c\u7267\u30fb\u5357\u672c\u7267\u5730\u533a\u81e8\u6e2f\u9053\u8def\u9678\u4e0a\u9ad8\u67b6\u90e8\u8abf\u67fb\u8a2d\u8a08","client_name":"\u56fd\u571f\u4ea4\u901a\u7701\u95a2\u6771\u5730\u65b9\u6574\u5099\u5c40","boring_xml_url":0,"boring_view_url":0,"soilmap_view_url":66,"soiltest_xml_url":0,"soiltest_view_url":66},{"id":131306,"code":"B4KJ201801001-9555","latitude":"35.41603333","longitude":"139.6706667","source_code":"PORT14001013040","project_name":"\u6e2f\u6e7e\u5c40","survey_name":"\u5e73\u621021\u5e74\u5ea6\u6a2a\u6d5c\u6e2f\u672c\u7267\u30fb\u5357\u672c\u7267\u5730\u533a\u81e8\u6e2f\u9053\u8def\u9678\u4e0a\u9ad8\u67b6\u90e8\u8abf\u67fb\u8a2d\u8a08","client_name":"\u56fd\u571f\u4ea4\u901a\u7701\u95a2\u6771\u5730\u65b9\u6574\u5099\u5c40","boring_xml_url":0,"boring_view_url":0,"soilmap_view_url":66,"soiltest_xml_url":0,"soiltest_view_url":66}]}}