{"header":{"xyz":{"source":[],"mosaic":false},"page":6309,"raw":{"soiltest_result":"0","bbox":"57.598333,109.544722,1.933333,163.806111","page":"6309"},"conditions":{"soiltest_result":0,"north":57.598333,"west":109.544722,"south":1.933333,"east":163.806111},"success":true,"message":""},"data":{"meta":{"total":212844,"page":6309,"pages":7095,"count":30},"values":[{"id":131305,"code":"B4KJ201801001-9554","latitude":"35.41730278","longitude":"139.6707611","source_code":"PORT14001013039","project_name":"\u6e2f\u6e7e\u5c40","survey_name":"\u5e73\u621021\u5e74\u5ea6\u6a2a\u6d5c\u6e2f\u672c\u7267\u30fb\u5357\u672c\u7267\u5730\u533a\u81e8\u6e2f\u9053\u8def\u9678\u4e0a\u9ad8\u67b6\u90e8\u8abf\u67fb\u8a2d\u8a08","client_name":"\u56fd\u571f\u4ea4\u901a\u7701\u95a2\u6771\u5730\u65b9\u6574\u5099\u5c40","boring_xml_url":0,"boring_view_url":0,"soilmap_view_url":66,"soiltest_xml_url":0,"soiltest_view_url":66},{"id":131304,"code":"B4KJ201801001-9553","latitude":"35.41861111","longitude":"139.6710111","source_code":"PORT14001013038","project_name":"\u6e2f\u6e7e\u5c40","survey_name":"\u5e73\u621021\u5e74\u5ea6\u6a2a\u6d5c\u6e2f\u672c\u7267\u30fb\u5357\u672c\u7267\u5730\u533a\u81e8\u6e2f\u9053\u8def\u9678\u4e0a\u9ad8\u67b6\u90e8\u8abf\u67fb\u8a2d\u8a08","client_name":"\u56fd\u571f\u4ea4\u901a\u7701\u95a2\u6771\u5730\u65b9\u6574\u5099\u5c40","boring_xml_url":0,"boring_view_url":0,"soilmap_view_url":66,"soiltest_xml_url":0,"soiltest_view_url":66},{"id":131303,"code":"B4KJ201801001-9552","latitude":"35.42016111","longitude":"139.6713972","source_code":"PORT14001013037","project_name":"\u6e2f\u6e7e\u5c40","survey_name":"\u5e73\u621021\u5e74\u5ea6\u6a2a\u6d5c\u6e2f\u672c\u7267\u30fb\u5357\u672c\u7267\u5730\u533a\u81e8\u6e2f\u9053\u8def\u9678\u4e0a\u9ad8\u67b6\u90e8\u8abf\u67fb\u8a2d\u8a08","client_name":"\u56fd\u571f\u4ea4\u901a\u7701\u95a2\u6771\u5730\u65b9\u6574\u5099\u5c40","boring_xml_url":0,"boring_view_url":0,"soilmap_view_url":66,"soiltest_xml_url":0,"soiltest_view_url":66},{"id":131302,"code":"B4KJ201801001-9551","latitude":"35.42166111","longitude":"139.6719194","source_code":"PORT14001013036","project_name":"\u6e2f\u6e7e\u5c40","survey_name":"\u5e73\u621021\u5e74\u5ea6\u6a2a\u6d5c\u6e2f\u672c\u7267\u30fb\u5357\u672c\u7267\u5730\u533a\u81e8\u6e2f\u9053\u8def\u9678\u4e0a\u9ad8\u67b6\u90e8\u8abf\u67fb\u8a2d\u8a08","client_name":"\u56fd\u571f\u4ea4\u901a\u7701\u95a2\u6771\u5730\u65b9\u6574\u5099\u5c40","boring_xml_url":0,"boring_view_url":0,"soilmap_view_url":66,"soiltest_xml_url":0,"soiltest_view_url":66},{"id":131301,"code":"B4KJ201801001-9550","latitude":"35.42225556","longitude":"139.6694472","source_code":"PORT14001013035","project_name":"\u6e2f\u6e7e\u5c40","survey_name":"\u5e73\u621021\u5e74\u5ea6\u6a2a\u6d5c\u6e2f\u672c\u7267\u30fb\u5357\u672c\u7267\u5730\u533a\u81e8\u6e2f\u9053\u8def\u9678\u4e0a\u9ad8\u67b6\u90e8\u8abf\u67fb\u8a2d\u8a08","client_name":"\u56fd\u571f\u4ea4\u901a\u7701\u95a2\u6771\u5730\u65b9\u6574\u5099\u5c40","boring_xml_url":0,"boring_view_url":0,"soilmap_view_url":66,"soiltest_xml_url":0,"soiltest_view_url":66},{"id":131300,"code":"B4KJ201801001-9549","latitude":"35.42333611","longitude":"139.672","source_code":"PORT14001013034","project_name":"\u6e2f\u6e7e\u5c40","survey_name":"\u5e73\u621021\u5e74\u5ea6\u6a2a\u6d5c\u6e2f\u672c\u7267\u30fb\u5357\u672c\u7267\u5730\u533a\u81e8\u6e2f\u9053\u8def\u9678\u4e0a\u9ad8\u67b6\u90e8\u8abf\u67fb\u8a2d\u8a08","client_name":"\u56fd\u571f\u4ea4\u901a\u7701\u95a2\u6771\u5730\u65b9\u6574\u5099\u5c40","boring_xml_url":0,"boring_view_url":0,"soilmap_view_url":66,"soiltest_xml_url":0,"soiltest_view_url":66},{"id":131299,"code":"B4KJ201801001-9548","latitude":"35.40898639","longitude":"139.6845423","source_code":"PORT14001013033","project_name":"\u6e2f\u6e7e\u5c40","survey_name":"\u5e73\u621021\u5e74\u5ea6\u6a2a\u6d5c\u6e2f\u672c\u7267\u30fb\u5357\u672c\u7267\u5730\u533a\u81e8\u6d77\u9053\u8def\u6a4b\u6881\u90e8\u8abf\u67fb\u8a2d\u8a08","client_name":"\u56fd\u571f\u4ea4\u901a\u7701\u95a2\u6771\u5730\u65b9\u6574\u5099\u5c40","boring_xml_url":0,"boring_view_url":0,"soilmap_view_url":66,"soiltest_xml_url":0,"soiltest_view_url":66},{"id":131298,"code":"B4KJ201801001-9547","latitude":"35.40981681","longitude":"139.6843015","source_code":"PORT14001013032","project_name":"\u6e2f\u6e7e\u5c40","survey_name":"\u5e73\u621021\u5e74\u5ea6\u6a2a\u6d5c\u6e2f\u672c\u7267\u30fb\u5357\u672c\u7267\u5730\u533a\u81e8\u6e2f\u9053\u8def\u6a4b\u6881\u90e8\u8abf\u67fb\u8a2d\u8a08","client_name":"\u56fd\u571f\u4ea4\u901a\u7701\u95a2\u6771\u5730\u65b9\u6574\u5099\u5c40","boring_xml_url":0,"boring_view_url":0,"soilmap_view_url":66,"soiltest_xml_url":0,"soiltest_view_url":66},{"id":131297,"code":"B4KJ201801001-9546","latitude":"35.40995128","longitude":"139.6835833","source_code":"PORT14001013031","project_name":"\u6e2f\u6e7e\u5c40","survey_name":"\u5e73\u621021\u5e74\u5ea6\u6a2a\u6d5c\u6e2f\u672c\u7267\u30fb\u5357\u672c\u7267\u5730\u533a\u81e8\u6e2f\u9053\u8def\u6a4b\u6881\u90e8\u8abf\u67fb\u8a2d\u8a08","client_name":"\u56fd\u571f\u4ea4\u901a\u7701\u95a2\u6771\u5730\u65b9\u6574\u5099\u5c40","boring_xml_url":0,"boring_view_url":0,"soilmap_view_url":66,"soiltest_xml_url":0,"soiltest_view_url":66},{"id":131296,"code":"B4KJ201801001-9545","latitude":"35.41086183","longitude":"139.6824161","source_code":"PORT14001013030","project_name":"\u6e2f\u6e7e\u5c40","survey_name":"\u5e73\u621021\u5e74\u5ea6\u6a2a\u6d5c\u6e2f\u672c\u7267\u30fb\u5357\u672c\u7267\u5730\u533a\u81e8\u6e2f\u9053\u8def\u6a4b\u6881\u90e8\u8abf\u67fb\u8a2d\u8a08","client_name":"\u56fd\u571f\u4ea4\u901a\u7701\u95a2\u6771\u5730\u65b9\u6574\u5099\u5c40","boring_xml_url":0,"boring_view_url":0,"soilmap_view_url":66,"soiltest_xml_url":0,"soiltest_view_url":66},{"id":131295,"code":"B4KJ201801001-9544","latitude":"35.41207778","longitude":"139.6809454","source_code":"PORT14001013029","project_name":"\u6e2f\u6e7e\u5c40","survey_name":"\u5e73\u621021\u5e74\u5ea6\u6a2a\u6d5c\u6e2f\u672c\u7267\u30fb\u5357\u672c\u7267\u5730\u533a\u81e8\u6e2f\u9053\u8def\u6a4b\u6881\u90e8\u8abf\u67fb\u8a2d\u8a08","client_name":"\u56fd\u571f\u4ea4\u901a\u7701\u95a2\u6771\u5730\u65b9\u6574\u5099\u5c40","boring_xml_url":0,"boring_view_url":0,"soilmap_view_url":66,"soiltest_xml_url":0,"soiltest_view_url":66},{"id":131294,"code":"B4KJ201801001-9543","latitude":"35.41272839","longitude":"139.679426","source_code":"PORT14001013028","project_name":"\u6e2f\u6e7e\u5c40","survey_name":"\u5e73\u621021\u5e74\u5ea6\u6a2a\u6d5c\u6e2f\u672c\u7267\u30fb\u5357\u672c\u7267\u5730\u533a\u81e8\u6e2f\u9053\u8def\u6a4b\u6881\u90e8\u8abf\u67fb\u8a2d\u8a08","client_name":"\u56fd\u571f\u4ea4\u901a\u7701\u95a2\u6771\u5730\u65b9\u6574\u5099\u5c40","boring_xml_url":0,"boring_view_url":0,"soilmap_view_url":66,"soiltest_xml_url":0,"soiltest_view_url":66},{"id":131293,"code":"B4KJ201801001-9542","latitude":"35.41298208","longitude":"139.6785902","source_code":"PORT14001013027","project_name":"\u6e2f\u6e7e\u5c40","survey_name":"\u5e73\u621021\u5e74\u5ea6\u6a2a\u6d5c\u6e2f\u672c\u7267\u30fb\u5357\u672c\u7267\u5730\u533a\u81e8\u6e2f\u9053\u8def\u6a4b\u6881\u90e8\u8abf\u67fb\u8a2d\u8a08","client_name":"\u56fd\u571f\u4ea4\u901a\u7701\u95a2\u6771\u5730\u65b9\u6574\u5099\u5c40","boring_xml_url":0,"boring_view_url":0,"soilmap_view_url":66,"soiltest_xml_url":0,"soiltest_view_url":66},{"id":131292,"code":"B4KJ201801001-9541","latitude":"35.41315692","longitude":"139.6779699","source_code":"PORT14001013026","project_name":"\u6e2f\u6e7e\u5c40","survey_name":"\u5e73\u621021\u5e74\u5ea6\u6a2a\u6d5c\u6e2f\u672c\u7267\u30fb\u5357\u672c\u7267\u5730\u533a\u81e8\u6e2f\u9053\u8def\u6a4b\u6881\u90e8\u8abf\u67fb\u8a2d\u8a08","client_name":"\u56fd\u571f\u4ea4\u901a\u7701\u95a2\u6771\u5730\u65b9\u6574\u5099\u5c40","boring_xml_url":0,"boring_view_url":0,"soilmap_view_url":66,"soiltest_xml_url":0,"soiltest_view_url":66},{"id":131291,"code":"B4KJ201801001-9540","latitude":"35.43875942","longitude":"139.6948747","source_code":"PORT14001012225","project_name":"\u6e2f\u6e7e\u5c40","survey_name":"\u6a2a\u6d5c\u6e2f\u672c\u7267\u5730\u533a\u5cb8\u58c1(-15m)(\u8010\u9707)(\u6539\u826f)\u6db2\u72b6\u5316\u5224\u5b9a\u7b49\u696d\u52d9","client_name":"\u56fd\u571f\u4ea4\u901a\u7701\u95a2\u6771\u5730\u65b9\u6574\u5099\u5c40","boring_xml_url":0,"boring_view_url":0,"soilmap_view_url":66,"soiltest_xml_url":0,"soiltest_view_url":66},{"id":131290,"code":"B4KJ201801001-9539","latitude":"35.43875942","longitude":"139.6948747","source_code":"PORT14001012224","project_name":"\u6e2f\u6e7e\u5c40","survey_name":"\u6a2a\u6d5c\u6e2f\u672c\u7267\u5730\u533a\u5cb8\u58c1(-15m)(\u8010\u9707)(\u6539\u826f)\u6db2\u72b6\u5316\u5224\u5b9a\u7b49\u696d\u52d9","client_name":"\u56fd\u571f\u4ea4\u901a\u7701\u95a2\u6771\u5730\u65b9\u6574\u5099\u5c40","boring_xml_url":0,"boring_view_url":0,"soilmap_view_url":66,"soiltest_xml_url":0,"soiltest_view_url":66},{"id":131289,"code":"B4KJ201801001-9538","latitude":"35.43833981","longitude":"139.6923222","source_code":"PORT14001012223","project_name":"\u6e2f\u6e7e\u5c40","survey_name":"\u6a2a\u6d5c\u6e2f\u672c\u7267\u5730\u533a\u5cb8\u58c1(-15m)(\u8010\u9707)(\u6539\u826f)\u6db2\u72b6\u5316\u5224\u5b9a\u7b49\u696d\u52d9","client_name":"\u56fd\u571f\u4ea4\u901a\u7701\u95a2\u6771\u5730\u65b9\u6574\u5099\u5c40","boring_xml_url":0,"boring_view_url":0,"soilmap_view_url":66,"soiltest_xml_url":0,"soiltest_view_url":66},{"id":131288,"code":"B4KJ201801001-9537","latitude":"35.43833981","longitude":"139.6923222","source_code":"PORT14001012222","project_name":"\u6e2f\u6e7e\u5c40","survey_name":"\u6a2a\u6d5c\u6e2f\u672c\u7267\u5730\u533a\u5cb8\u58c1(-15m)(\u8010\u9707)(\u6539\u826f)\u6db2\u72b6\u5316\u5224\u5b9a\u7b49\u696d\u52d9","client_name":"\u56fd\u571f\u4ea4\u901a\u7701\u95a2\u6771\u5730\u65b9\u6574\u5099\u5c40","boring_xml_url":0,"boring_view_url":0,"soilmap_view_url":66,"soiltest_xml_url":0,"soiltest_view_url":66},{"id":131287,"code":"B4KJ201801001-9536","latitude":"35.43793636","longitude":"139.6898678","source_code":"PORT14001012221","project_name":"\u6e2f\u6e7e\u5c40","survey_name":"\u6a2a\u6d5c\u6e2f\u672c\u7267\u5730\u533a\u5cb8\u58c1(-15m)(\u8010\u9707)(\u6539\u826f)\u6db2\u72b6\u5316\u5224\u5b9a\u7b49\u696d\u52d9","client_name":"\u56fd\u571f\u4ea4\u901a\u7701\u95a2\u6771\u5730\u65b9\u6574\u5099\u5c40","boring_xml_url":0,"boring_view_url":0,"soilmap_view_url":66,"soiltest_xml_url":0,"soiltest_view_url":66},{"id":131286,"code":"B4KJ201801001-9535","latitude":"35.43986778","longitude":"139.6898678","source_code":"PORT14001012220","project_name":"\u6e2f\u6e7e\u5c40","survey_name":"\u6a2a\u6d5c\u6e2f\u672c\u7267\u5730\u533a\u5cb8\u58c1(-15m)(\u8010\u9707)(\u6539\u826f)\u6db2\u72b6\u5316\u5224\u5b9a\u7b49\u696d\u52d9","client_name":"\u56fd\u571f\u4ea4\u901a\u7701\u95a2\u6771\u5730\u65b9\u6574\u5099\u5c40","boring_xml_url":0,"boring_view_url":0,"soilmap_view_url":66,"soiltest_xml_url":0,"soiltest_view_url":66},{"id":131285,"code":"B4KJ201801001-9534","latitude":"35.43753289","longitude":"139.6874133","source_code":"PORT14001012219","project_name":"\u6e2f\u6e7e\u5c40","survey_name":"\u6a2a\u6d5c\u6e2f\u672c\u7267\u5730\u533a\u5cb8\u58c1(-15m)(\u8010\u9707)(\u6539\u826f)\u6db2\u72b6\u5316\u5224\u5b9a\u7b49\u696d\u52d9","client_name":"\u56fd\u571f\u4ea4\u901a\u7701\u95a2\u6771\u5730\u65b9\u6574\u5099\u5c40","boring_xml_url":0,"boring_view_url":0,"soilmap_view_url":66,"soiltest_xml_url":0,"soiltest_view_url":66},{"id":131284,"code":"B4KJ201801001-9533","latitude":"35.43753289","longitude":"139.6874133","source_code":"PORT14001012218","project_name":"\u6e2f\u6e7e\u5c40","survey_name":"\u6a2a\u6d5c\u6e2f\u672c\u7267\u5730\u533a\u5cb8\u58c1(-15m)(\u8010\u9707)(\u6539\u826f)\u6db2\u72b6\u5316\u5224\u5b9a\u7b49\u696d\u52d9","client_name":"\u56fd\u571f\u4ea4\u901a\u7701\u95a2\u6771\u5730\u65b9\u6574\u5099\u5c40","boring_xml_url":0,"boring_view_url":0,"soilmap_view_url":66,"soiltest_xml_url":0,"soiltest_view_url":66},{"id":131283,"code":"B4KJ201801001-9532","latitude":"35.43712942","longitude":"139.6849592","source_code":"PORT14001012217","project_name":"\u6e2f\u6e7e\u5c40","survey_name":"\u6a2a\u6d5c\u6e2f\u672c\u7267\u5730\u533a\u5cb8\u58c1(-15m)(\u8010\u9707)(\u6539\u826f)\u6db2\u72b6\u5316\u5224\u5b9a\u7b49\u696d\u52d9","client_name":"\u56fd\u571f\u4ea4\u901a\u7701\u95a2\u6771\u5730\u65b9\u6574\u5099\u5c40","boring_xml_url":0,"boring_view_url":0,"soilmap_view_url":66,"soiltest_xml_url":0,"soiltest_view_url":66},{"id":131282,"code":"B4KJ201801001-9531","latitude":"35.43712942","longitude":"139.6849592","source_code":"PORT14001012216","project_name":"\u6e2f\u6e7e\u5c40","survey_name":"\u6a2a\u6d5c\u6e2f\u672c\u7267\u5730\u533a\u5cb8\u58c1(-15m)(\u8010\u9707)(\u6539\u826f)\u6db2\u72b6\u5316\u5224\u5b9a\u7b49\u696d\u52d9","client_name":"\u56fd\u571f\u4ea4\u901a\u7701\u95a2\u6771\u5730\u65b9\u6574\u5099\u5c40","boring_xml_url":0,"boring_view_url":0,"soilmap_view_url":66,"soiltest_xml_url":0,"soiltest_view_url":66},{"id":131281,"code":"B4KJ201801001-9530","latitude":"35.43672594","longitude":"139.6832505","source_code":"PORT14001012215","project_name":"\u6e2f\u6e7e\u5c40","survey_name":"\u6a2a\u6d5c\u6e2f\u672c\u7267\u5730\u533a\u5cb8\u58c1(-15m)(\u8010\u9707)(\u6539\u826f)\u6db2\u72b6\u5316\u5224\u5b9a\u7b49\u696d\u52d9","client_name":"\u56fd\u571f\u4ea4\u901a\u7701\u95a2\u6771\u5730\u65b9\u6574\u5099\u5c40","boring_xml_url":0,"boring_view_url":0,"soilmap_view_url":66,"soiltest_xml_url":0,"soiltest_view_url":66},{"id":131280,"code":"B4KJ201801001-9529","latitude":"35.43672594","longitude":"139.6832505","source_code":"PORT14001012214","project_name":"\u6e2f\u6e7e\u5c40","survey_name":"\u6a2a\u6d5c\u6e2f\u672c\u7267\u5730\u533a\u5cb8\u58c1(-15m)(\u8010\u9707)(\u6539\u826f)\u6db2\u72b6\u5316\u5224\u5b9a\u7b49\u696d\u52d9","client_name":"\u56fd\u571f\u4ea4\u901a\u7701\u95a2\u6771\u5730\u65b9\u6574\u5099\u5c40","boring_xml_url":0,"boring_view_url":0,"soilmap_view_url":66,"soiltest_xml_url":0,"soiltest_view_url":66},{"id":131279,"code":"B4KJ201801001-9528","latitude":"35.41318611","longitude":"139.6784111","source_code":"PORT14001012213","project_name":"\u6e2f\u6e7e\u5c40","survey_name":"\u6a2a\u6d5c\u6e2f\u81e8\u6e2f\u9053\u8def\u5357\u672c\u7267\u3075\u982d\u672c\u7267\u7dda\u571f\u8cea\u8abf\u67fb","client_name":"\u56fd\u571f\u4ea4\u901a\u7701\u95a2\u6771\u5730\u65b9\u6574\u5099\u5c40","boring_xml_url":0,"boring_view_url":0,"soilmap_view_url":66,"soiltest_xml_url":0,"soiltest_view_url":66},{"id":131278,"code":"B4KJ201801001-9527","latitude":"35.41334722","longitude":"139.6778056","source_code":"PORT14001012212","project_name":"\u6e2f\u6e7e\u5c40","survey_name":"\u6a2a\u6d5c\u6e2f\u81e8\u6e2f\u9053\u8def\u5357\u672c\u7267\u3075\u982d\u672c\u7267\u7dda\u571f\u8cea\u8abf\u67fb","client_name":"\u56fd\u571f\u4ea4\u901a\u7701\u95a2\u6771\u5730\u65b9\u6574\u5099\u5c40","boring_xml_url":0,"boring_view_url":0,"soilmap_view_url":66,"soiltest_xml_url":0,"soiltest_view_url":66},{"id":131277,"code":"B4KJ201801001-9526","latitude":"35.41365833","longitude":"139.6766167","source_code":"PORT14001012211","project_name":"\u6e2f\u6e7e\u5c40","survey_name":"\u6a2a\u6d5c\u6e2f\u81e8\u6e2f\u9053\u8def\u5357\u672c\u7267\u3075\u982d\u672c\u7267\u7dda\u571f\u8cea\u8abf\u67fb","client_name":"\u56fd\u571f\u4ea4\u901a\u7701\u95a2\u6771\u5730\u65b9\u6574\u5099\u5c40","boring_xml_url":0,"boring_view_url":0,"soilmap_view_url":66,"soiltest_xml_url":0,"soiltest_view_url":66},{"id":131276,"code":"B4KJ201801001-9525","latitude":"35.4137","longitude":"139.6760639","source_code":"PORT14001012210","project_name":"\u6e2f\u6e7e\u5c40","survey_name":"\u6a2a\u6d5c\u6e2f\u81e8\u6e2f\u9053\u8def\u5357\u672c\u7267\u3075\u982d\u672c\u7267\u7dda\u571f\u8cea\u8abf\u67fb","client_name":"\u56fd\u571f\u4ea4\u901a\u7701\u95a2\u6771\u5730\u65b9\u6574\u5099\u5c40","boring_xml_url":0,"boring_view_url":0,"soilmap_view_url":66,"soiltest_xml_url":0,"soiltest_view_url":66}]}}