{"header":{"xyz":{"source":[],"mosaic":false},"page":6310,"raw":{"soiltest_result":"0","bbox":"57.598333,109.544722,1.933333,163.806111","page":"6310"},"conditions":{"soiltest_result":0,"north":57.598333,"west":109.544722,"south":1.933333,"east":163.806111},"success":true,"message":""},"data":{"meta":{"total":212844,"page":6310,"pages":7095,"count":30},"values":[{"id":131275,"code":"B4KJ201801001-9524","latitude":"35.41408333","longitude":"139.6747639","source_code":"PORT14001012209","project_name":"\u6e2f\u6e7e\u5c40","survey_name":"\u6a2a\u6d5c\u6e2f\u81e8\u6e2f\u9053\u8def\u5357\u672c\u7267\u3075\u982d\u672c\u7267\u7dda\u571f\u8cea\u8abf\u67fb","client_name":"\u56fd\u571f\u4ea4\u901a\u7701\u95a2\u6771\u5730\u65b9\u6574\u5099\u5c40","boring_xml_url":0,"boring_view_url":0,"soilmap_view_url":66,"soiltest_xml_url":0,"soiltest_view_url":66},{"id":131274,"code":"B4KJ201801001-9523","latitude":"35.41426944","longitude":"139.6741444","source_code":"PORT14001012208","project_name":"\u6e2f\u6e7e\u5c40","survey_name":"\u6a2a\u6d5c\u6e2f\u81e8\u6e2f\u9053\u8def\u5357\u672c\u7267\u3075\u982d\u672c\u7267\u7dda\u571f\u8cea\u8abf\u67fb","client_name":"\u56fd\u571f\u4ea4\u901a\u7701\u95a2\u6771\u5730\u65b9\u6574\u5099\u5c40","boring_xml_url":0,"boring_view_url":0,"soilmap_view_url":66,"soiltest_xml_url":0,"soiltest_view_url":66},{"id":131273,"code":"B4KJ201801001-9522","latitude":"35.42205","longitude":"139.6719444","source_code":"PORT14001012207","project_name":"\u6e2f\u6e7e\u5c40","survey_name":"\u6a2a\u6d5c\u6e2f\u81e8\u6e2f\u9053\u8def\u5357\u672c\u7267\u3075\u982d\u672c\u7267\u7dda\u571f\u8cea\u8abf\u67fb","client_name":"\u56fd\u571f\u4ea4\u901a\u7701\u95a2\u6771\u5730\u65b9\u6574\u5099\u5c40","boring_xml_url":0,"boring_view_url":0,"soilmap_view_url":66,"soiltest_xml_url":0,"soiltest_view_url":66},{"id":131272,"code":"B4KJ201801001-9521","latitude":"35.42264722","longitude":"139.6719778","source_code":"PORT14001012206","project_name":"\u6e2f\u6e7e\u5c40","survey_name":"\u6a2a\u6d5c\u6e2f\u81e8\u6e2f\u9053\u8def\u5357\u672c\u7267\u3075\u982d\u672c\u7267\u7dda\u571f\u8cea\u8abf\u67fb","client_name":"\u56fd\u571f\u4ea4\u901a\u7701\u95a2\u6771\u5730\u65b9\u6574\u5099\u5c40","boring_xml_url":0,"boring_view_url":0,"soilmap_view_url":66,"soiltest_xml_url":0,"soiltest_view_url":66},{"id":131271,"code":"B4KJ201801001-9520","latitude":"35.42294167","longitude":"139.6719944","source_code":"PORT14001012205","project_name":"\u6e2f\u6e7e\u5c40","survey_name":"\u6a2a\u6d5c\u6e2f\u81e8\u6e2f\u9053\u8def\u5357\u672c\u7267\u3075\u982d\u672c\u7267\u7dda\u571f\u8cea\u8abf\u67fb","client_name":"\u56fd\u571f\u4ea4\u901a\u7701\u95a2\u6771\u5730\u65b9\u6574\u5099\u5c40","boring_xml_url":0,"boring_view_url":0,"soilmap_view_url":66,"soiltest_xml_url":0,"soiltest_view_url":66},{"id":131270,"code":"B4KJ201801001-9519","latitude":"35.42354722","longitude":"139.6720222","source_code":"PORT14001012204","project_name":"\u6e2f\u6e7e\u5c40","survey_name":"\u6a2a\u6d5c\u6e2f\u81e8\u6e2f\u9053\u8def\u5357\u672c\u7267\u3075\u982d\u672c\u7267\u7dda\u571f\u8cea\u8abf\u67fb","client_name":"\u56fd\u571f\u4ea4\u901a\u7701\u95a2\u6771\u5730\u65b9\u6574\u5099\u5c40","boring_xml_url":0,"boring_view_url":0,"soilmap_view_url":66,"soiltest_xml_url":0,"soiltest_view_url":66},{"id":131269,"code":"B4KJ201801001-9518","latitude":"35.54894444","longitude":"139.7538056","source_code":"PORT1300A017065","project_name":"\u6e2f\u6e7e\u5c40","survey_name":"\u6771\u4eac\u56fd\u969b\u7a7a\u6e2f\u69cb\u5185\u9053\u8def\u5730\u4e0b\u69cb\u9020\u7269\u6e2c\u91cf\u53ca\u3073\u571f\u8cea\u8abf\u67fb","client_name":"\u56fd\u571f\u4ea4\u901a\u7701\u95a2\u6771\u5730\u65b9\u6574\u5099\u5c40","boring_xml_url":0,"boring_view_url":0,"soilmap_view_url":66,"soiltest_xml_url":0,"soiltest_view_url":66},{"id":131268,"code":"B4KJ201801001-9517","latitude":"35.54897222","longitude":"139.7537778","source_code":"PORT1300A017064","project_name":"\u6e2f\u6e7e\u5c40","survey_name":"\u6771\u4eac\u56fd\u969b\u7a7a\u6e2f\u69cb\u5185\u9053\u8def\u5730\u4e0b\u69cb\u9020\u7269\u6e2c\u91cf\u53ca\u3073\u571f\u8cea\u8abf\u67fb","client_name":"\u56fd\u571f\u4ea4\u901a\u7701\u95a2\u6771\u5730\u65b9\u6574\u5099\u5c40","boring_xml_url":0,"boring_view_url":0,"soilmap_view_url":66,"soiltest_xml_url":0,"soiltest_view_url":66},{"id":131267,"code":"B4KJ201801001-9516","latitude":"35.55019444","longitude":"139.7541389","source_code":"PORT1300A017063","project_name":"\u6e2f\u6e7e\u5c40","survey_name":"\u6771\u4eac\u56fd\u969b\u7a7a\u6e2f\u69cb\u5185\u9053\u8def\u5730\u4e0b\u69cb\u9020\u7269\u6e2c\u91cf\u53ca\u3073\u571f\u8cea\u8abf\u67fb","client_name":"\u56fd\u571f\u4ea4\u901a\u7701\u95a2\u6771\u5730\u65b9\u6574\u5099\u5c40","boring_xml_url":0,"boring_view_url":0,"soilmap_view_url":66,"soiltest_xml_url":0,"soiltest_view_url":66},{"id":131266,"code":"B4KJ201801001-9515","latitude":"35.55016667","longitude":"139.7541389","source_code":"PORT1300A017062","project_name":"\u6e2f\u6e7e\u5c40","survey_name":"\u6771\u4eac\u56fd\u969b\u7a7a\u6e2f\u69cb\u5185\u9053\u8def\u5730\u4e0b\u69cb\u9020\u7269\u6e2c\u91cf\u53ca\u3073\u571f\u8cea\u8abf\u67fb","client_name":"\u56fd\u571f\u4ea4\u901a\u7701\u95a2\u6771\u5730\u65b9\u6574\u5099\u5c40","boring_xml_url":0,"boring_view_url":0,"soilmap_view_url":66,"soiltest_xml_url":0,"soiltest_view_url":66},{"id":131265,"code":"B4KJ201801001-9514","latitude":"35.55016667","longitude":"139.7538333","source_code":"PORT1300A017061","project_name":"\u6e2f\u6e7e\u5c40","survey_name":"\u6771\u4eac\u56fd\u969b\u7a7a\u6e2f\u69cb\u5185\u9053\u8def\u5730\u4e0b\u69cb\u9020\u7269\u6e2c\u91cf\u53ca\u3073\u571f\u8cea\u8abf\u67fb","client_name":"\u56fd\u571f\u4ea4\u901a\u7701\u95a2\u6771\u5730\u65b9\u6574\u5099\u5c40","boring_xml_url":0,"boring_view_url":0,"soilmap_view_url":66,"soiltest_xml_url":0,"soiltest_view_url":66},{"id":131264,"code":"B4KJ201801001-9513","latitude":"35.55005556","longitude":"139.7534167","source_code":"PORT1300A017060","project_name":"\u6e2f\u6e7e\u5c40","survey_name":"\u6771\u4eac\u56fd\u969b\u7a7a\u6e2f\u69cb\u5185\u9053\u8def\u5730\u4e0b\u69cb\u9020\u7269\u6e2c\u91cf\u53ca\u3073\u571f\u8cea\u8abf\u67fb","client_name":"\u56fd\u571f\u4ea4\u901a\u7701\u95a2\u6771\u5730\u65b9\u6574\u5099\u5c40","boring_xml_url":0,"boring_view_url":0,"soilmap_view_url":66,"soiltest_xml_url":0,"soiltest_view_url":66},{"id":131263,"code":"B4KJ201801001-9512","latitude":"35.54777778","longitude":"139.7638611","source_code":"PORT1300A017059","project_name":"\u6e2f\u6e7e\u5c40","survey_name":"\u6771\u4eac\u56fd\u969b\u7a7a\u6e2f\u56fd\u969b\u7dda\u5730\u533a\u30a8\u30d7\u30ed\u30f3","client_name":"\u56fd\u571f\u4ea4\u901a\u7701\u95a2\u6771\u5730\u65b9\u6574\u5099\u5c40","boring_xml_url":0,"boring_view_url":0,"soilmap_view_url":66,"soiltest_xml_url":0,"soiltest_view_url":66},{"id":131262,"code":"B4KJ201801001-9511","latitude":"35.54794444","longitude":"139.7643333","source_code":"PORT1300A017058","project_name":"\u6e2f\u6e7e\u5c40","survey_name":"\u6771\u4eac\u56fd\u969b\u7a7a\u6e2f\u56fd\u969b\u7dda\u5730\u533a\u30a8\u30d7\u30ed\u30f3","client_name":"\u56fd\u571f\u4ea4\u901a\u7701\u95a2\u6771\u5730\u65b9\u6574\u5099\u5c40","boring_xml_url":0,"boring_view_url":0,"soilmap_view_url":66,"soiltest_xml_url":0,"soiltest_view_url":66},{"id":131261,"code":"B4KJ201801001-9510","latitude":"35.54780556","longitude":"139.7648611","source_code":"PORT1300A017057","project_name":"\u6e2f\u6e7e\u5c40","survey_name":"\u6771\u4eac\u56fd\u969b\u7a7a\u6e2f\u56fd\u969b\u7dda\u5730\u533a\u30a8\u30d7\u30ed\u30f3","client_name":"\u56fd\u571f\u4ea4\u901a\u7701\u95a2\u6771\u5730\u65b9\u6574\u5099\u5c40","boring_xml_url":0,"boring_view_url":0,"soilmap_view_url":66,"soiltest_xml_url":0,"soiltest_view_url":66},{"id":131260,"code":"B4KJ201801001-9509","latitude":"35.54802778","longitude":"139.7653333","source_code":"PORT1300A017056","project_name":"\u6e2f\u6e7e\u5c40","survey_name":"\u6771\u4eac\u56fd\u969b\u7a7a\u6e2f\u56fd\u969b\u7dda\u5730\u533a\u30a8\u30d7\u30ed\u30f3","client_name":"\u56fd\u571f\u4ea4\u901a\u7701\u95a2\u6771\u5730\u65b9\u6574\u5099\u5c40","boring_xml_url":0,"boring_view_url":0,"soilmap_view_url":66,"soiltest_xml_url":0,"soiltest_view_url":66},{"id":131259,"code":"B4KJ201801001-9508","latitude":"35.54825","longitude":"139.7658056","source_code":"PORT1300A017055","project_name":"\u6e2f\u6e7e\u5c40","survey_name":"\u6771\u4eac\u56fd\u969b\u7a7a\u6e2f\u56fd\u969b\u7dda\u5730\u533a\u30a8\u30d7\u30ed\u30f3","client_name":"\u56fd\u571f\u4ea4\u901a\u7701\u95a2\u6771\u5730\u65b9\u6574\u5099\u5c40","boring_xml_url":0,"boring_view_url":0,"soilmap_view_url":66,"soiltest_xml_url":0,"soiltest_view_url":66},{"id":131258,"code":"B4KJ201801001-9507","latitude":"35.54847222","longitude":"139.7663056","source_code":"PORT1300A017054","project_name":"\u6e2f\u6e7e\u5c40","survey_name":"\u6771\u4eac\u56fd\u969b\u7a7a\u6e2f\u56fd\u969b\u7dda\u5730\u533a\u30a8\u30d7\u30ed\u30f3","client_name":"\u56fd\u571f\u4ea4\u901a\u7701\u95a2\u6771\u5730\u65b9\u6574\u5099\u5c40","boring_xml_url":0,"boring_view_url":0,"soilmap_view_url":66,"soiltest_xml_url":0,"soiltest_view_url":66},{"id":131257,"code":"B4KJ201801001-9506","latitude":"35.54833333","longitude":"139.7644722","source_code":"PORT1300A017053","project_name":"\u6e2f\u6e7e\u5c40","survey_name":"\u6771\u4eac\u56fd\u969b\u7a7a\u6e2f\u56fd\u969b\u7dda\u5730\u533a\u30a8\u30d7\u30ed\u30f3","client_name":"\u56fd\u571f\u4ea4\u901a\u7701\u95a2\u6771\u5730\u65b9\u6574\u5099\u5c40","boring_xml_url":0,"boring_view_url":0,"soilmap_view_url":66,"soiltest_xml_url":0,"soiltest_view_url":66},{"id":131256,"code":"B4KJ201801001-9505","latitude":"35.54855556","longitude":"139.7649444","source_code":"PORT1300A017052","project_name":"\u6e2f\u6e7e\u5c40","survey_name":"\u6771\u4eac\u56fd\u969b\u7a7a\u6e2f\u56fd\u969b\u7dda\u5730\u533a\u30a8\u30d7\u30ed\u30f3","client_name":"\u56fd\u571f\u4ea4\u901a\u7701\u95a2\u6771\u5730\u65b9\u6574\u5099\u5c40","boring_xml_url":0,"boring_view_url":0,"soilmap_view_url":66,"soiltest_xml_url":0,"soiltest_view_url":66},{"id":131255,"code":"B4KJ201801001-9504","latitude":"35.54855556","longitude":"139.7655833","source_code":"PORT1300A017051","project_name":"\u6e2f\u6e7e\u5c40","survey_name":"\u6771\u4eac\u56fd\u969b\u7a7a\u6e2f\u56fd\u969b\u7dda\u5730\u533a\u30a8\u30d7\u30ed\u30f3","client_name":"\u56fd\u571f\u4ea4\u901a\u7701\u95a2\u6771\u5730\u65b9\u6574\u5099\u5c40","boring_xml_url":0,"boring_view_url":0,"soilmap_view_url":66,"soiltest_xml_url":0,"soiltest_view_url":66},{"id":131254,"code":"B4KJ201801001-9503","latitude":"35.54902778","longitude":"139.7659167","source_code":"PORT1300A017050","project_name":"\u6e2f\u6e7e\u5c40","survey_name":"\u6771\u4eac\u56fd\u969b\u7a7a\u6e2f\u56fd\u969b\u7dda\u5730\u533a\u30a8\u30d7\u30ed\u30f3","client_name":"\u56fd\u571f\u4ea4\u901a\u7701\u95a2\u6771\u5730\u65b9\u6574\u5099\u5c40","boring_xml_url":0,"boring_view_url":0,"soilmap_view_url":66,"soiltest_xml_url":0,"soiltest_view_url":66},{"id":131253,"code":"B4KJ201801001-9502","latitude":"35.54922222","longitude":"139.7663889","source_code":"PORT1300A017049","project_name":"\u6e2f\u6e7e\u5c40","survey_name":"\u6771\u4eac\u56fd\u969b\u7a7a\u6e2f\u56fd\u969b\u7dda\u5730\u533a\u30a8\u30d7\u30ed\u30f3","client_name":"\u56fd\u571f\u4ea4\u901a\u7701\u95a2\u6771\u5730\u65b9\u6574\u5099\u5c40","boring_xml_url":0,"boring_view_url":0,"soilmap_view_url":66,"soiltest_xml_url":0,"soiltest_view_url":66},{"id":131252,"code":"B4KJ201801001-9501","latitude":"35.53832419","longitude":"139.7760819","source_code":"PORT1300A017048","project_name":"\u6e2f\u6e7e\u5c40","survey_name":"\u6771\u4eac\u56fd\u969b\u7a7a\u6e2f\u591a\u6469\u5ddd\u5916\u5468\u8b77\u5cb8\u571f\u8cea\u8abf","client_name":"\u56fd\u571f\u4ea4\u901a\u7701\u95a2\u6771\u5730\u65b9\u6574\u5099\u5c40","boring_xml_url":0,"boring_view_url":0,"soilmap_view_url":66,"soiltest_xml_url":0,"soiltest_view_url":66},{"id":131251,"code":"B4KJ201801001-9500","latitude":"35.54052833","longitude":"139.7712757","source_code":"PORT1300A017047","project_name":"\u6e2f\u6e7e\u5c40","survey_name":"\u6771\u4eac\u56fd\u969b\u7a7a\u6e2f\u591a\u6469\u5ddd\u5916\u5468\u8b77\u5cb8\u571f\u8cea\u8abf","client_name":"\u56fd\u571f\u4ea4\u901a\u7701\u95a2\u6771\u5730\u65b9\u6574\u5099\u5c40","boring_xml_url":0,"boring_view_url":0,"soilmap_view_url":66,"soiltest_xml_url":0,"soiltest_view_url":66},{"id":131250,"code":"B4KJ201801001-9499","latitude":"35.53847953","longitude":"139.7812241","source_code":"PORT1300A017046","project_name":"\u6e2f\u6e7e\u5c40","survey_name":"\u6771\u4eac\u56fd\u969b\u7a7a\u6e2f\u591a\u6469\u5ddd\u5916\u5468\u8b77\u5cb8\u571f\u8cea\u8abf","client_name":"\u56fd\u571f\u4ea4\u901a\u7701\u95a2\u6771\u5730\u65b9\u6574\u5099\u5c40","boring_xml_url":0,"boring_view_url":0,"soilmap_view_url":66,"soiltest_xml_url":0,"soiltest_view_url":66},{"id":131249,"code":"B4KJ201801001-9498","latitude":"35.53796797","longitude":"139.7803162","source_code":"PORT1300A017045","project_name":"\u6e2f\u6e7e\u5c40","survey_name":"\u6771\u4eac\u56fd\u969b\u7a7a\u6e2f\u591a\u6469\u5ddd\u5916\u5468\u8b77\u5cb8\u571f\u8cea\u8abf","client_name":"\u56fd\u571f\u4ea4\u901a\u7701\u95a2\u6771\u5730\u65b9\u6574\u5099\u5c40","boring_xml_url":0,"boring_view_url":0,"soilmap_view_url":66,"soiltest_xml_url":0,"soiltest_view_url":66},{"id":131248,"code":"B4KJ201801001-9497","latitude":"35.53745528","longitude":"139.7794093","source_code":"PORT1300A017044","project_name":"\u6e2f\u6e7e\u5c40","survey_name":"\u6771\u4eac\u56fd\u969b\u7a7a\u6e2f\u591a\u6469\u5ddd\u5916\u5468\u8b77\u5cb8\u571f\u8cea\u8abf","client_name":"\u56fd\u571f\u4ea4\u901a\u7701\u95a2\u6771\u5730\u65b9\u6574\u5099\u5c40","boring_xml_url":0,"boring_view_url":0,"soilmap_view_url":66,"soiltest_xml_url":0,"soiltest_view_url":66},{"id":131247,"code":"B4KJ201801001-9496","latitude":"35.53721989","longitude":"139.7784869","source_code":"PORT1300A017043","project_name":"\u6e2f\u6e7e\u5c40","survey_name":"\u6771\u4eac\u56fd\u969b\u7a7a\u6e2f\u591a\u6469\u5ddd\u5916\u5468\u8b77\u5cb8\u571f\u8cea\u8abf","client_name":"\u56fd\u571f\u4ea4\u901a\u7701\u95a2\u6771\u5730\u65b9\u6574\u5099\u5c40","boring_xml_url":0,"boring_view_url":0,"soilmap_view_url":66,"soiltest_xml_url":0,"soiltest_view_url":66},{"id":131246,"code":"B4KJ201801001-9495","latitude":"35.53766233","longitude":"139.7775248","source_code":"PORT1300A017042","project_name":"\u6e2f\u6e7e\u5c40","survey_name":"\u6771\u4eac\u56fd\u969b\u7a7a\u6e2f\u591a\u6469\u5ddd\u5916\u5468\u8b77\u5cb8\u571f\u8cea\u8abf","client_name":"\u56fd\u571f\u4ea4\u901a\u7701\u95a2\u6771\u5730\u65b9\u6574\u5099\u5c40","boring_xml_url":0,"boring_view_url":0,"soilmap_view_url":66,"soiltest_xml_url":0,"soiltest_view_url":66}]}}