{"header":{"xyz":{"source":[],"mosaic":false},"page":6312,"raw":{"soiltest_result":"0","bbox":"57.598333,109.544722,1.933333,163.806111","page":"6312"},"conditions":{"soiltest_result":0,"north":57.598333,"west":109.544722,"south":1.933333,"east":163.806111},"success":true,"message":""},"data":{"meta":{"total":212844,"page":6312,"pages":7095,"count":30},"values":[{"id":131215,"code":"B4KJ201801001-9464","latitude":"35.55605556","longitude":"139.7908889","source_code":"PORT1300A017011","project_name":"\u6e2f\u6e7e\u5c40","survey_name":"\u6771\u4eac\u56fd\u969b\u7a7a\u6e2fC\u8a98\u5c0e\u8def\u571f\u8cea\u8abf\u67fb(\u305d\u306e6)","client_name":"\u56fd\u571f\u4ea4\u901a\u7701\u95a2\u6771\u5730\u65b9\u6574\u5099\u5c40","boring_xml_url":0,"boring_view_url":0,"soilmap_view_url":66,"soiltest_xml_url":0,"soiltest_view_url":66},{"id":131214,"code":"B4KJ201801001-9463","latitude":"35.55594444","longitude":"139.7905028","source_code":"PORT1300A017010","project_name":"\u6e2f\u6e7e\u5c40","survey_name":"\u6771\u4eac\u56fd\u969b\u7a7a\u6e2fC\u8a98\u5c0e\u8def\u571f\u8cea\u8abf\u67fb(\u305d\u306e6)","client_name":"\u56fd\u571f\u4ea4\u901a\u7701\u95a2\u6771\u5730\u65b9\u6574\u5099\u5c40","boring_xml_url":0,"boring_view_url":0,"soilmap_view_url":66,"soiltest_xml_url":0,"soiltest_view_url":66},{"id":131213,"code":"B4KJ201801001-9462","latitude":"35.55591667","longitude":"139.7911667","source_code":"PORT1300A017009","project_name":"\u6e2f\u6e7e\u5c40","survey_name":"\u6771\u4eac\u56fd\u969b\u7a7a\u6e2fC\u8a98\u5c0e\u8def\u571f\u8cea\u8abf\u67fb(\u305d\u306e6)","client_name":"\u56fd\u571f\u4ea4\u901a\u7701\u95a2\u6771\u5730\u65b9\u6574\u5099\u5c40","boring_xml_url":0,"boring_view_url":0,"soilmap_view_url":66,"soiltest_xml_url":0,"soiltest_view_url":66},{"id":131212,"code":"B4KJ201801001-9461","latitude":"35.55569444","longitude":"139.7911389","source_code":"PORT1300A017008","project_name":"\u6e2f\u6e7e\u5c40","survey_name":"\u6771\u4eac\u56fd\u969b\u7a7a\u6e2fC\u8a98\u5c0e\u8def\u571f\u8cea\u8abf\u67fb(\u305d\u306e6)","client_name":"\u56fd\u571f\u4ea4\u901a\u7701\u95a2\u6771\u5730\u65b9\u6574\u5099\u5c40","boring_xml_url":0,"boring_view_url":0,"soilmap_view_url":66,"soiltest_xml_url":0,"soiltest_view_url":66},{"id":131211,"code":"B4KJ201801001-9460","latitude":"35.55566667","longitude":"139.7911667","source_code":"PORT1300A017007","project_name":"\u6e2f\u6e7e\u5c40","survey_name":"\u6771\u4eac\u56fd\u969b\u7a7a\u6e2fC\u8a98\u5c0e\u8def\u571f\u8cea\u8abf\u67fb(\u305d\u306e6)","client_name":"\u56fd\u571f\u4ea4\u901a\u7701\u95a2\u6771\u5730\u65b9\u6574\u5099\u5c40","boring_xml_url":0,"boring_view_url":0,"soilmap_view_url":66,"soiltest_xml_url":0,"soiltest_view_url":66},{"id":131210,"code":"B4KJ201801001-9459","latitude":"35.55555556","longitude":"139.7914167","source_code":"PORT1300A017006","project_name":"\u6e2f\u6e7e\u5c40","survey_name":"\u6771\u4eac\u56fd\u969b\u7a7a\u6e2fC\u8a98\u5c0e\u8def\u571f\u8cea\u8abf\u67fb(\u305d\u306e6)","client_name":"\u56fd\u571f\u4ea4\u901a\u7701\u95a2\u6771\u5730\u65b9\u6574\u5099\u5c40","boring_xml_url":0,"boring_view_url":0,"soilmap_view_url":66,"soiltest_xml_url":0,"soiltest_view_url":66},{"id":131209,"code":"B4KJ201801001-9458","latitude":"35.55552778","longitude":"139.7914444","source_code":"PORT1300A017005","project_name":"\u6e2f\u6e7e\u5c40","survey_name":"\u6771\u4eac\u56fd\u969b\u7a7a\u6e2fC\u8a98\u5c0e\u8def\u571f\u8cea\u8abf\u67fb(\u305d\u306e6)","client_name":"\u56fd\u571f\u4ea4\u901a\u7701\u95a2\u6771\u5730\u65b9\u6574\u5099\u5c40","boring_xml_url":0,"boring_view_url":0,"soilmap_view_url":66,"soiltest_xml_url":0,"soiltest_view_url":66},{"id":131208,"code":"B4KJ201801001-9457","latitude":"35.55533333","longitude":"139.7913611","source_code":"PORT1300A017004","project_name":"\u6e2f\u6e7e\u5c40","survey_name":"\u6771\u4eac\u56fd\u969b\u7a7a\u6e2fC\u8a98\u5c0e\u8def\u571f\u8cea\u8abf\u67fb(\u305d\u306e6)","client_name":"\u56fd\u571f\u4ea4\u901a\u7701\u95a2\u6771\u5730\u65b9\u6574\u5099\u5c40","boring_xml_url":0,"boring_view_url":0,"soilmap_view_url":66,"soiltest_xml_url":0,"soiltest_view_url":66},{"id":131207,"code":"B4KJ201801001-9456","latitude":"35.55530556","longitude":"139.7913611","source_code":"PORT1300A017003","project_name":"\u6e2f\u6e7e\u5c40","survey_name":"\u6771\u4eac\u56fd\u969b\u7a7a\u6e2fC\u8a98\u5c0e\u8def\u571f\u8cea\u8abf\u67fb(\u305d\u306e6)","client_name":"\u56fd\u571f\u4ea4\u901a\u7701\u95a2\u6771\u5730\u65b9\u6574\u5099\u5c40","boring_xml_url":0,"boring_view_url":0,"soilmap_view_url":66,"soiltest_xml_url":0,"soiltest_view_url":66},{"id":131206,"code":"B4KJ201801001-9455","latitude":"35.55522222","longitude":"139.7916667","source_code":"PORT1300A017002","project_name":"\u6e2f\u6e7e\u5c40","survey_name":"\u6771\u4eac\u56fd\u969b\u7a7a\u6e2fC\u8a98\u5c0e\u8def\u571f\u8cea\u8abf\u67fb(\u305d\u306e6)","client_name":"\u56fd\u571f\u4ea4\u901a\u7701\u95a2\u6771\u5730\u65b9\u6574\u5099\u5c40","boring_xml_url":0,"boring_view_url":0,"soilmap_view_url":66,"soiltest_xml_url":0,"soiltest_view_url":66},{"id":131205,"code":"B4KJ201801001-9454","latitude":"35.55519444","longitude":"139.7916944","source_code":"PORT1300A017001","project_name":"\u6e2f\u6e7e\u5c40","survey_name":"\u6771\u4eac\u56fd\u969b\u7a7a\u6e2fC\u8a98\u5c0e\u8def\u571f\u8cea\u8abf\u67fb(\u305d\u306e6)","client_name":"\u56fd\u571f\u4ea4\u901a\u7701\u95a2\u6771\u5730\u65b9\u6574\u5099\u5c40","boring_xml_url":0,"boring_view_url":0,"soilmap_view_url":66,"soiltest_xml_url":0,"soiltest_view_url":66},{"id":131204,"code":"B4KJ201801001-9453","latitude":"35.555","longitude":"139.7916389","source_code":"PORT1300A017000","project_name":"\u6e2f\u6e7e\u5c40","survey_name":"\u6771\u4eac\u56fd\u969b\u7a7a\u6e2fC\u8a98\u5c0e\u8def\u571f\u8cea\u8abf\u67fb(\u305d\u306e6)","client_name":"\u56fd\u571f\u4ea4\u901a\u7701\u95a2\u6771\u5730\u65b9\u6574\u5099\u5c40","boring_xml_url":0,"boring_view_url":0,"soilmap_view_url":66,"soiltest_xml_url":0,"soiltest_view_url":66},{"id":131203,"code":"B4KJ201801001-9452","latitude":"35.55497222","longitude":"139.7916667","source_code":"PORT1300A016999","project_name":"\u6e2f\u6e7e\u5c40","survey_name":"\u6771\u4eac\u56fd\u969b\u7a7a\u6e2fC\u8a98\u5c0e\u8def\u571f\u8cea\u8abf\u67fb(\u305d\u306e6)","client_name":"\u56fd\u571f\u4ea4\u901a\u7701\u95a2\u6771\u5730\u65b9\u6574\u5099\u5c40","boring_xml_url":0,"boring_view_url":0,"soilmap_view_url":66,"soiltest_xml_url":0,"soiltest_view_url":66},{"id":131202,"code":"B4KJ201801001-9451","latitude":"35.55788889","longitude":"139.78975","source_code":"PORT1300A016998","project_name":"\u6e2f\u6e7e\u5c40","survey_name":"\u6771\u4eac\u56fd\u969b\u7a7a\u6e2fC\u8a98\u5c0e\u8def\u571f\u8cea\u8abf\u67fb(\u305d\u306e5)","client_name":"\u56fd\u571f\u4ea4\u901a\u7701\u95a2\u6771\u5730\u65b9\u6574\u5099\u5c40","boring_xml_url":0,"boring_view_url":0,"soilmap_view_url":66,"soiltest_xml_url":0,"soiltest_view_url":66},{"id":131201,"code":"B4KJ201801001-9450","latitude":"35.55788889","longitude":"139.7897778","source_code":"PORT1300A016997","project_name":"\u6e2f\u6e7e\u5c40","survey_name":"\u6771\u4eac\u56fd\u969b\u7a7a\u6e2fC\u8a98\u5c0e\u8def\u571f\u8cea\u8abf\u67fb(\u305d\u306e5)","client_name":"\u56fd\u571f\u4ea4\u901a\u7701\u95a2\u6771\u5730\u65b9\u6574\u5099\u5c40","boring_xml_url":0,"boring_view_url":0,"soilmap_view_url":66,"soiltest_xml_url":0,"soiltest_view_url":66},{"id":131200,"code":"B4KJ201801001-9449","latitude":"35.55763889","longitude":"139.78975","source_code":"PORT1300A016996","project_name":"\u6e2f\u6e7e\u5c40","survey_name":"\u6771\u4eac\u56fd\u969b\u7a7a\u6e2fC\u8a98\u5c0e\u8def\u571f\u8cea\u8abf\u67fb(\u305d\u306e5)","client_name":"\u56fd\u571f\u4ea4\u901a\u7701\u95a2\u6771\u5730\u65b9\u6574\u5099\u5c40","boring_xml_url":0,"boring_view_url":0,"soilmap_view_url":66,"soiltest_xml_url":0,"soiltest_view_url":66},{"id":131199,"code":"B4KJ201801001-9448","latitude":"35.55763889","longitude":"139.7897222","source_code":"PORT1300A016995","project_name":"\u6e2f\u6e7e\u5c40","survey_name":"\u6771\u4eac\u56fd\u969b\u7a7a\u6e2fC\u8a98\u5c0e\u8def\u571f\u8cea\u8abf\u67fb(\u305d\u306e5)","client_name":"\u56fd\u571f\u4ea4\u901a\u7701\u95a2\u6771\u5730\u65b9\u6574\u5099\u5c40","boring_xml_url":0,"boring_view_url":0,"soilmap_view_url":66,"soiltest_xml_url":0,"soiltest_view_url":66},{"id":131198,"code":"B4KJ201801001-9447","latitude":"35.5575","longitude":"139.7900278","source_code":"PORT1300A016994","project_name":"\u6e2f\u6e7e\u5c40","survey_name":"\u6771\u4eac\u56fd\u969b\u7a7a\u6e2fC\u8a98\u5c0e\u8def\u571f\u8cea\u8abf\u67fb(\u305d\u306e5)","client_name":"\u56fd\u571f\u4ea4\u901a\u7701\u95a2\u6771\u5730\u65b9\u6574\u5099\u5c40","boring_xml_url":0,"boring_view_url":0,"soilmap_view_url":66,"soiltest_xml_url":0,"soiltest_view_url":66},{"id":131197,"code":"B4KJ201801001-9446","latitude":"35.5575","longitude":"139.7900556","source_code":"PORT1300A016993","project_name":"\u6e2f\u6e7e\u5c40","survey_name":"\u6771\u4eac\u56fd\u969b\u7a7a\u6e2fC\u8a98\u5c0e\u8def\u571f\u8cea\u8abf\u67fb(\u305d\u306e5)","client_name":"\u56fd\u571f\u4ea4\u901a\u7701\u95a2\u6771\u5730\u65b9\u6574\u5099\u5c40","boring_xml_url":0,"boring_view_url":0,"soilmap_view_url":66,"soiltest_xml_url":0,"soiltest_view_url":66},{"id":131196,"code":"B4KJ201801001-9445","latitude":"35.55725","longitude":"139.7900278","source_code":"PORT1300A016992","project_name":"\u6e2f\u6e7e\u5c40","survey_name":"\u6771\u4eac\u56fd\u969b\u7a7a\u6e2fC\u8a98\u5c0e\u8def\u571f\u8cea\u8abf\u67fb(\u305d\u306e5)","client_name":"\u56fd\u571f\u4ea4\u901a\u7701\u95a2\u6771\u5730\u65b9\u6574\u5099\u5c40","boring_xml_url":0,"boring_view_url":0,"soilmap_view_url":66,"soiltest_xml_url":0,"soiltest_view_url":66},{"id":131195,"code":"B4KJ201801001-9444","latitude":"35.55722222","longitude":"139.7900556","source_code":"PORT1300A016991","project_name":"\u6e2f\u6e7e\u5c40","survey_name":"\u6771\u4eac\u56fd\u969b\u7a7a\u6e2fC\u8a98\u5c0e\u8def\u571f\u8cea\u8abf\u67fb(\u305d\u306e5)","client_name":"\u56fd\u571f\u4ea4\u901a\u7701\u95a2\u6771\u5730\u65b9\u6574\u5099\u5c40","boring_xml_url":0,"boring_view_url":0,"soilmap_view_url":66,"soiltest_xml_url":0,"soiltest_view_url":66},{"id":131194,"code":"B4KJ201801001-9443","latitude":"35.55711111","longitude":"139.7903056","source_code":"PORT1300A016990","project_name":"\u6e2f\u6e7e\u5c40","survey_name":"\u6771\u4eac\u56fd\u969b\u7a7a\u6e2fC\u8a98\u5c0e\u8def\u571f\u8cea\u8abf\u67fb(\u305d\u306e5)","client_name":"\u56fd\u571f\u4ea4\u901a\u7701\u95a2\u6771\u5730\u65b9\u6574\u5099\u5c40","boring_xml_url":0,"boring_view_url":0,"soilmap_view_url":66,"soiltest_xml_url":0,"soiltest_view_url":66},{"id":131193,"code":"B4KJ201801001-9442","latitude":"35.55711111","longitude":"139.7903333","source_code":"PORT1300A016989","project_name":"\u6e2f\u6e7e\u5c40","survey_name":"\u6771\u4eac\u56fd\u969b\u7a7a\u6e2fC\u8a98\u5c0e\u8def\u571f\u8cea\u8abf\u67fb(\u305d\u306e5)","client_name":"\u56fd\u571f\u4ea4\u901a\u7701\u95a2\u6771\u5730\u65b9\u6574\u5099\u5c40","boring_xml_url":0,"boring_view_url":0,"soilmap_view_url":66,"soiltest_xml_url":0,"soiltest_view_url":66},{"id":131192,"code":"B4KJ201801001-9441","latitude":"35.55686111","longitude":"139.7903056","source_code":"PORT1300A016988","project_name":"\u6e2f\u6e7e\u5c40","survey_name":"\u6771\u4eac\u56fd\u969b\u7a7a\u6e2fC\u8a98\u5c0e\u8def\u571f\u8cea\u8abf\u67fb(\u305d\u306e5)","client_name":"\u56fd\u571f\u4ea4\u901a\u7701\u95a2\u6771\u5730\u65b9\u6574\u5099\u5c40","boring_xml_url":0,"boring_view_url":0,"soilmap_view_url":66,"soiltest_xml_url":0,"soiltest_view_url":66},{"id":131191,"code":"B4KJ201801001-9440","latitude":"35.55683333","longitude":"139.7903333","source_code":"PORT1300A016987","project_name":"\u6e2f\u6e7e\u5c40","survey_name":"\u6771\u4eac\u56fd\u969b\u7a7a\u6e2fC\u8a98\u5c0e\u8def\u571f\u8cea\u8abf\u67fb(\u305d\u306e5)","client_name":"\u56fd\u571f\u4ea4\u901a\u7701\u95a2\u6771\u5730\u65b9\u6574\u5099\u5c40","boring_xml_url":0,"boring_view_url":0,"soilmap_view_url":66,"soiltest_xml_url":0,"soiltest_view_url":66},{"id":131190,"code":"B4KJ201801001-9439","latitude":"35.55672222","longitude":"139.7905833","source_code":"PORT1300A016986","project_name":"\u6e2f\u6e7e\u5c40","survey_name":"\u6771\u4eac\u56fd\u969b\u7a7a\u6e2fC\u8a98\u5c0e\u8def\u571f\u8cea\u8abf\u67fb(\u305d\u306e5)","client_name":"\u56fd\u571f\u4ea4\u901a\u7701\u95a2\u6771\u5730\u65b9\u6574\u5099\u5c40","boring_xml_url":0,"boring_view_url":0,"soilmap_view_url":66,"soiltest_xml_url":0,"soiltest_view_url":66},{"id":131189,"code":"B4KJ201801001-9438","latitude":"35.55669444","longitude":"139.7906111","source_code":"PORT1300A016985","project_name":"\u6e2f\u6e7e\u5c40","survey_name":"\u6771\u4eac\u56fd\u969b\u7a7a\u6e2fC\u8a98\u5c0e\u8def\u571f\u8cea\u8abf\u67fb(\u305d\u306e5)","client_name":"\u56fd\u571f\u4ea4\u901a\u7701\u95a2\u6771\u5730\u65b9\u6574\u5099\u5c40","boring_xml_url":0,"boring_view_url":0,"soilmap_view_url":66,"soiltest_xml_url":0,"soiltest_view_url":66},{"id":131188,"code":"B4KJ201801001-9437","latitude":"35.55647222","longitude":"139.7905833","source_code":"PORT1300A016984","project_name":"\u6e2f\u6e7e\u5c40","survey_name":"\u6771\u4eac\u56fd\u969b\u7a7a\u6e2fC\u8a98\u5c0e\u8def\u571f\u8cea\u8abf\u67fb(\u305d\u306e5)","client_name":"\u56fd\u571f\u4ea4\u901a\u7701\u95a2\u6771\u5730\u65b9\u6574\u5099\u5c40","boring_xml_url":0,"boring_view_url":0,"soilmap_view_url":66,"soiltest_xml_url":0,"soiltest_view_url":66},{"id":131187,"code":"B4KJ201801001-9436","latitude":"35.55644444","longitude":"139.7906111","source_code":"PORT1300A016983","project_name":"\u6e2f\u6e7e\u5c40","survey_name":"\u6771\u4eac\u56fd\u969b\u7a7a\u6e2fC\u8a98\u5c0e\u8def\u571f\u8cea\u8abf\u67fb(\u305d\u306e5)","client_name":"\u56fd\u571f\u4ea4\u901a\u7701\u95a2\u6771\u5730\u65b9\u6574\u5099\u5c40","boring_xml_url":0,"boring_view_url":0,"soilmap_view_url":66,"soiltest_xml_url":0,"soiltest_view_url":66},{"id":131186,"code":"B4KJ201801001-9435","latitude":"35.55413306","longitude":"139.7595892","source_code":"PORT1300A016982","project_name":"\u6e2f\u6e7e\u5c40","survey_name":"\u6771\u4eac\u56fd\u969b\u7a7a\u6e2fC\u8a98\u5c0e\u8def\u571f\u8cea\u8abf\u67fb(4)","client_name":"\u56fd\u571f\u4ea4\u901a\u7701\u95a2\u6771\u5730\u65b9\u6574\u5099\u5c40","boring_xml_url":0,"boring_view_url":0,"soilmap_view_url":66,"soiltest_xml_url":0,"soiltest_view_url":66}]}}