{"header":{"xyz":{"source":[],"mosaic":false},"page":6331,"raw":{"soiltest_result":"0","bbox":"57.598333,109.544722,1.933333,163.806111","page":"6331"},"conditions":{"soiltest_result":0,"north":57.598333,"west":109.544722,"south":1.933333,"east":163.806111},"success":true,"message":""},"data":{"meta":{"total":212844,"page":6331,"pages":7095,"count":30},"values":[{"id":130645,"code":"B4KJ201801001-8894","latitude":"35.03944444","longitude":"138.5102778","source_code":"PORT22001011648","project_name":"\u6e2f\u6e7e\u5c40","survey_name":"\u5e73\u621021\u5e74\u5ea6\u6e05\u6c34\u6e2f\u8208\u6d25\u5730\u533a\u5cb8\u58c1(-12m)\u571f\u8cea\u8abf\u67fb","client_name":"\u56fd\u571f\u4ea4\u901a\u7701\u4e2d\u90e8\u5730\u65b9\u6574\u5099\u5c40","boring_xml_url":0,"boring_view_url":0,"soilmap_view_url":66,"soiltest_xml_url":0,"soiltest_view_url":66},{"id":130644,"code":"B4KJ201801001-8893","latitude":"35.03777778","longitude":"138.5113889","source_code":"PORT22001011647","project_name":"\u6e2f\u6e7e\u5c40","survey_name":"\u5e73\u621021\u5e74\u5ea6\u6e05\u6c34\u6e2f\u8208\u6d25\u5730\u533a\u5cb8\u58c1(-12m)\u571f\u8cea\u8abf\u67fb","client_name":"\u56fd\u571f\u4ea4\u901a\u7701\u4e2d\u90e8\u5730\u65b9\u6574\u5099\u5c40","boring_xml_url":0,"boring_view_url":0,"soilmap_view_url":66,"soiltest_xml_url":0,"soiltest_view_url":66},{"id":130643,"code":"B4KJ201801001-8892","latitude":"35.31177778","longitude":"139.7434167","source_code":"PORT14003010233","project_name":"\u6e2f\u6e7e\u5c40","survey_name":"\u6771\u4eac\u6e7e\u53e3\u822a\u8def\u4ed8\u5e2f\u65bd\u8a2d\u7b49\u691c\u8a0e\u696d\u52d9","client_name":"\u56fd\u571f\u4ea4\u901a\u7701\u95a2\u6771\u5730\u65b9\u6574\u5099\u5c40","boring_xml_url":0,"boring_view_url":0,"soilmap_view_url":66,"soiltest_xml_url":0,"soiltest_view_url":66},{"id":130642,"code":"B4KJ201801001-8891","latitude":"35.31211111","longitude":"139.7430833","source_code":"PORT14003010232","project_name":"\u6e2f\u6e7e\u5c40","survey_name":"\u6771\u4eac\u6e7e\u53e3\u822a\u8def\u4ed8\u5e2f\u65bd\u8a2d\u7b49\u691c\u8a0e\u696d\u52d9","client_name":"\u56fd\u571f\u4ea4\u901a\u7701\u95a2\u6771\u5730\u65b9\u6574\u5099\u5c40","boring_xml_url":0,"boring_view_url":0,"soilmap_view_url":66,"soiltest_xml_url":0,"soiltest_view_url":66},{"id":130641,"code":"B4KJ201801001-8890","latitude":"35.31227778","longitude":"139.744","source_code":"PORT14003010231","project_name":"\u6e2f\u6e7e\u5c40","survey_name":"\u6771\u4eac\u6e7e\u53e3\u822a\u8def\u4ed8\u5e2f\u65bd\u8a2d\u7b49\u691c\u8a0e\u696d\u52d9","client_name":"\u56fd\u571f\u4ea4\u901a\u7701\u95a2\u6771\u5730\u65b9\u6574\u5099\u5c40","boring_xml_url":0,"boring_view_url":0,"soilmap_view_url":66,"soiltest_xml_url":0,"soiltest_view_url":66},{"id":130640,"code":"B4KJ201801001-8889","latitude":"35.31266667","longitude":"139.7441389","source_code":"PORT14003010230","project_name":"\u6e2f\u6e7e\u5c40","survey_name":"\u6771\u4eac\u6e7e\u53e3\u822a\u8def\u4ed8\u5e2f\u65bd\u8a2d\u7b49\u691c\u8a0e\u696d\u52d9","client_name":"\u56fd\u571f\u4ea4\u901a\u7701\u95a2\u6771\u5730\u65b9\u6574\u5099\u5c40","boring_xml_url":0,"boring_view_url":0,"soilmap_view_url":66,"soiltest_xml_url":0,"soiltest_view_url":66},{"id":130639,"code":"B4KJ201801001-8888","latitude":"35.31261111","longitude":"139.7436667","source_code":"PORT14003010229","project_name":"\u6e2f\u6e7e\u5c40","survey_name":"\u6771\u4eac\u6e7e\u53e3\u822a\u8def\u4ed8\u5e2f\u65bd\u8a2d\u7b49\u691c\u8a0e\u696d\u52d9","client_name":"\u56fd\u571f\u4ea4\u901a\u7701\u95a2\u6771\u5730\u65b9\u6574\u5099\u5c40","boring_xml_url":0,"boring_view_url":0,"soilmap_view_url":66,"soiltest_xml_url":0,"soiltest_view_url":66},{"id":130638,"code":"B4KJ201801001-8887","latitude":"35.49900917","longitude":"139.7776194","source_code":"PORT14002012121","project_name":"\u6e2f\u6e7e\u5c40","survey_name":"\u5e73\u621021\u5e74\u5ea6\u5ddd\u5d0e\u6e2f\u6771\u6247\u5cf6\u5730\u533a\u5cb8\u58c1(-12m)\u571f\u8cea\u8abf\u67fb","client_name":"\u56fd\u571f\u4ea4\u901a\u7701\u95a2\u6771\u5730\u65b9\u6574\u5099\u5c40","boring_xml_url":0,"boring_view_url":0,"soilmap_view_url":66,"soiltest_xml_url":0,"soiltest_view_url":66},{"id":130637,"code":"B4KJ201801001-8886","latitude":"35.49880083","longitude":"139.7771497","source_code":"PORT14002012120","project_name":"\u6e2f\u6e7e\u5c40","survey_name":"\u5e73\u621021\u5e74\u5ea6\u5ddd\u5d0e\u6e2f\u6771\u6247\u5cf6\u5730\u533a\u5cb8\u58c1(-12m)\u571f\u8cea\u8abf\u67fb","client_name":"\u56fd\u571f\u4ea4\u901a\u7701\u95a2\u6771\u5730\u65b9\u6574\u5099\u5c40","boring_xml_url":0,"boring_view_url":0,"soilmap_view_url":66,"soiltest_xml_url":0,"soiltest_view_url":66},{"id":130636,"code":"B4KJ201801001-8885","latitude":"35.49838056","longitude":"139.7762019","source_code":"PORT14002012119","project_name":"\u6e2f\u6e7e\u5c40","survey_name":"\u5e73\u621021\u5e74\u5ea6\u5ddd\u5d0e\u6e2f\u6771\u6247\u5cf6\u5730\u533a\u5cb8\u58c1(-12m)\u571f\u8cea\u8abf\u67fb","client_name":"\u56fd\u571f\u4ea4\u901a\u7701\u95a2\u6771\u5730\u65b9\u6574\u5099\u5c40","boring_xml_url":0,"boring_view_url":0,"soilmap_view_url":66,"soiltest_xml_url":0,"soiltest_view_url":66},{"id":130635,"code":"B4KJ201801001-8884","latitude":"35.49817194","longitude":"139.7757322","source_code":"PORT14002012118","project_name":"\u6e2f\u6e7e\u5c40","survey_name":"\u5e73\u621021\u5e74\u5ea6\u5ddd\u5d0e\u6e2f\u6771\u6247\u5cf6\u5730\u533a\u5cb8\u58c1(-12m)\u571f\u8cea\u8abf\u67fb","client_name":"\u56fd\u571f\u4ea4\u901a\u7701\u95a2\u6771\u5730\u65b9\u6574\u5099\u5c40","boring_xml_url":0,"boring_view_url":0,"soilmap_view_url":66,"soiltest_xml_url":0,"soiltest_view_url":66},{"id":130634,"code":"B4KJ201801001-8883","latitude":"35.49925139","longitude":"139.7774717","source_code":"PORT14002012117","project_name":"\u6e2f\u6e7e\u5c40","survey_name":"\u5e73\u621021\u5e74\u5ea6\u5ddd\u5d0e\u6e2f\u6771\u6247\u5cf6\u5730\u533a\u5cb8\u58c1(-12m)\u571f\u8cea\u8abf\u67fb","client_name":"\u56fd\u571f\u4ea4\u901a\u7701\u95a2\u6771\u5730\u65b9\u6574\u5099\u5c40","boring_xml_url":0,"boring_view_url":0,"soilmap_view_url":66,"soiltest_xml_url":0,"soiltest_view_url":66},{"id":130633,"code":"B4KJ201801001-8882","latitude":"35.49904278","longitude":"139.7770017","source_code":"PORT14002012116","project_name":"\u6e2f\u6e7e\u5c40","survey_name":"\u5e73\u621021\u5e74\u5ea6\u5ddd\u5d0e\u6e2f\u6771\u6247\u5cf6\u5730\u533a\u5cb8\u58c1(-12m)\u571f\u8cea\u8abf\u67fb","client_name":"\u56fd\u571f\u4ea4\u901a\u7701\u95a2\u6771\u5730\u65b9\u6574\u5099\u5c40","boring_xml_url":0,"boring_view_url":0,"soilmap_view_url":66,"soiltest_xml_url":0,"soiltest_view_url":66},{"id":130632,"code":"B4KJ201801001-8881","latitude":"35.49861806","longitude":"139.7760444","source_code":"PORT14002012115","project_name":"\u6e2f\u6e7e\u5c40","survey_name":"\u5e73\u621021\u5e74\u5ea6\u5ddd\u5d0e\u6e2f\u6771\u6247\u5cf6\u5730\u533a\u5cb8\u58c1(-12m)\u571f\u8cea\u8abf\u67fb","client_name":"\u56fd\u571f\u4ea4\u901a\u7701\u95a2\u6771\u5730\u65b9\u6574\u5099\u5c40","boring_xml_url":0,"boring_view_url":0,"soilmap_view_url":66,"soiltest_xml_url":0,"soiltest_view_url":66},{"id":130631,"code":"B4KJ201801001-8880","latitude":"35.49840972","longitude":"139.7755744","source_code":"PORT14002012114","project_name":"\u6e2f\u6e7e\u5c40","survey_name":"\u5e73\u621021\u5e74\u5ea6\u5ddd\u5d0e\u6e2f\u6771\u6247\u5cf6\u5730\u533a\u5cb8\u58c1(-12m)\u571f\u8cea\u8abf\u67fb","client_name":"\u56fd\u571f\u4ea4\u901a\u7701\u95a2\u6771\u5730\u65b9\u6574\u5099\u5c40","boring_xml_url":0,"boring_view_url":0,"soilmap_view_url":66,"soiltest_xml_url":0,"soiltest_view_url":66},{"id":130630,"code":"B4KJ201801001-8879","latitude":"35.49940972","longitude":"139.7773664","source_code":"PORT14002012113","project_name":"\u6e2f\u6e7e\u5c40","survey_name":"\u5e73\u621021\u5e74\u5ea6\u5ddd\u5d0e\u6e2f\u6771\u6247\u5cf6\u5730\u533a\u5cb8\u58c1(-12m)\u571f\u8cea\u8abf\u67fb","client_name":"\u56fd\u571f\u4ea4\u901a\u7701\u95a2\u6771\u5730\u65b9\u6574\u5099\u5c40","boring_xml_url":0,"boring_view_url":0,"soilmap_view_url":66,"soiltest_xml_url":0,"soiltest_view_url":66},{"id":130629,"code":"B4KJ201801001-8878","latitude":"35.49919194","longitude":"139.7768753","source_code":"PORT14002012112","project_name":"\u6e2f\u6e7e\u5c40","survey_name":"\u5e73\u621021\u5e74\u5ea6\u5ddd\u5d0e\u6e2f\u6771\u6247\u5cf6\u5730\u533a\u5cb8\u58c1(-12m)\u571f\u8cea\u8abf\u67fb","client_name":"\u56fd\u571f\u4ea4\u901a\u7701\u95a2\u6771\u5730\u65b9\u6574\u5099\u5c40","boring_xml_url":0,"boring_view_url":0,"soilmap_view_url":66,"soiltest_xml_url":0,"soiltest_view_url":66},{"id":130628,"code":"B4KJ201801001-8877","latitude":"35.49920139","longitude":"139.7768967","source_code":"PORT14002012111","project_name":"\u6e2f\u6e7e\u5c40","survey_name":"\u5e73\u621021\u5e74\u5ea6\u5ddd\u5d0e\u6e2f\u6771\u6247\u5cf6\u5730\u533a\u5cb8\u58c1(-12m)\u571f\u8cea\u8abf\u67fb","client_name":"\u56fd\u571f\u4ea4\u901a\u7701\u95a2\u6771\u5730\u65b9\u6574\u5099\u5c40","boring_xml_url":0,"boring_view_url":0,"soilmap_view_url":66,"soiltest_xml_url":0,"soiltest_view_url":66},{"id":130627,"code":"B4KJ201801001-8876","latitude":"35.49877667","longitude":"139.7759392","source_code":"PORT14002012110","project_name":"\u6e2f\u6e7e\u5c40","survey_name":"\u5e73\u621021\u5e74\u5ea6\u5ddd\u5d0e\u6e2f\u6771\u6247\u5cf6\u5730\u533a\u5cb8\u58c1(-12m)\u571f\u8cea\u8abf\u67fb","client_name":"\u56fd\u571f\u4ea4\u901a\u7701\u95a2\u6771\u5730\u65b9\u6574\u5099\u5c40","boring_xml_url":0,"boring_view_url":0,"soilmap_view_url":66,"soiltest_xml_url":0,"soiltest_view_url":66},{"id":130626,"code":"B4KJ201801001-8875","latitude":"35.49856806","longitude":"139.7754694","source_code":"PORT14002012109","project_name":"\u6e2f\u6e7e\u5c40","survey_name":"\u5e73\u621021\u5e74\u5ea6\u5ddd\u5d0e\u6e2f\u6771\u6247\u5cf6\u5730\u533a\u5cb8\u58c1(-12m)\u571f\u8cea\u8abf\u67fb","client_name":"\u56fd\u571f\u4ea4\u901a\u7701\u95a2\u6771\u5730\u65b9\u6574\u5099\u5c40","boring_xml_url":0,"boring_view_url":0,"soilmap_view_url":66,"soiltest_xml_url":0,"soiltest_view_url":66},{"id":130625,"code":"B4KJ201801001-8874","latitude":"35.51012508","longitude":"139.7398736","source_code":"PORT14002012108","project_name":"\u6e2f\u6e7e\u5c40","survey_name":"\u5ddd\u5d0e\u6e2f\u6771\u6247\u5cf6\u30fb\u6c34\u6c5f\u753a\u81e8\u6e2f\u9053\u8def\u571f\u8cea","client_name":"\u56fd\u571f\u4ea4\u901a\u7701\u95a2\u6771\u5730\u65b9\u6574\u5099\u5c40","boring_xml_url":0,"boring_view_url":0,"soilmap_view_url":66,"soiltest_xml_url":0,"soiltest_view_url":66},{"id":130624,"code":"B4KJ201801001-8873","latitude":"35.50721075","longitude":"139.7416693","source_code":"PORT14002012107","project_name":"\u6e2f\u6e7e\u5c40","survey_name":"\u5ddd\u5d0e\u6e2f\u6771\u6247\u5cf6\u30fb\u6c34\u6c5f\u753a\u81e8\u6e2f\u9053\u8def\u571f\u8cea","client_name":"\u56fd\u571f\u4ea4\u901a\u7701\u95a2\u6771\u5730\u65b9\u6574\u5099\u5c40","boring_xml_url":0,"boring_view_url":0,"soilmap_view_url":66,"soiltest_xml_url":0,"soiltest_view_url":66},{"id":130623,"code":"B4KJ201801001-8872","latitude":"35.50534306","longitude":"139.7426995","source_code":"PORT14002012106","project_name":"\u6e2f\u6e7e\u5c40","survey_name":"\u5ddd\u5d0e\u6e2f\u6771\u6247\u5cf6\u30fb\u6c34\u6c5f\u753a\u81e8\u6e2f\u9053\u8def\u571f\u8cea","client_name":"\u56fd\u571f\u4ea4\u901a\u7701\u95a2\u6771\u5730\u65b9\u6574\u5099\u5c40","boring_xml_url":0,"boring_view_url":0,"soilmap_view_url":66,"soiltest_xml_url":0,"soiltest_view_url":66},{"id":130622,"code":"B4KJ201801001-8871","latitude":"35.50375897","longitude":"139.7431408","source_code":"PORT14002012105","project_name":"\u6e2f\u6e7e\u5c40","survey_name":"\u5ddd\u5d0e\u6e2f\u6771\u6247\u5cf6\u30fb\u6c34\u6c5f\u753a\u81e8\u6e2f\u9053\u8def\u571f\u8cea","client_name":"\u56fd\u571f\u4ea4\u901a\u7701\u95a2\u6771\u5730\u65b9\u6574\u5099\u5c40","boring_xml_url":0,"boring_view_url":0,"soilmap_view_url":66,"soiltest_xml_url":0,"soiltest_view_url":66},{"id":130621,"code":"B4KJ201801001-8870","latitude":"35.49977808","longitude":"139.7466436","source_code":"PORT14002012104","project_name":"\u6e2f\u6e7e\u5c40","survey_name":"\u5ddd\u5d0e\u6e2f\u6771\u6247\u5cf6\u30fb\u6c34\u6c5f\u753a\u81e8\u6e2f\u9053\u8def\u571f\u8cea","client_name":"\u56fd\u571f\u4ea4\u901a\u7701\u95a2\u6771\u5730\u65b9\u6574\u5099\u5c40","boring_xml_url":0,"boring_view_url":0,"soilmap_view_url":66,"soiltest_xml_url":0,"soiltest_view_url":66},{"id":130620,"code":"B4KJ201801001-8869","latitude":"35.49849611","longitude":"139.7474579","source_code":"PORT14002012103","project_name":"\u6e2f\u6e7e\u5c40","survey_name":"\u5ddd\u5d0e\u6e2f\u6771\u6247\u5cf6\u30fb\u6c34\u6c5f\u753a\u81e8\u6e2f\u9053\u8def\u571f\u8cea","client_name":"\u56fd\u571f\u4ea4\u901a\u7701\u95a2\u6771\u5730\u65b9\u6574\u5099\u5c40","boring_xml_url":0,"boring_view_url":0,"soilmap_view_url":66,"soiltest_xml_url":0,"soiltest_view_url":66},{"id":130619,"code":"B4KJ201801001-8868","latitude":"35.49590414","longitude":"139.7491625","source_code":"PORT14002012102","project_name":"\u6e2f\u6e7e\u5c40","survey_name":"\u5ddd\u5d0e\u6e2f\u6771\u6247\u5cf6\u30fb\u6c34\u6c5f\u753a\u81e8\u6e2f\u9053\u8def\u571f\u8cea","client_name":"\u56fd\u571f\u4ea4\u901a\u7701\u95a2\u6771\u5730\u65b9\u6574\u5099\u5c40","boring_xml_url":0,"boring_view_url":0,"soilmap_view_url":66,"soiltest_xml_url":0,"soiltest_view_url":66},{"id":130618,"code":"B4KJ201801001-8867","latitude":"35.49247039","longitude":"139.7512186","source_code":"PORT14002012101","project_name":"\u6e2f\u6e7e\u5c40","survey_name":"\u5ddd\u5d0e\u6e2f\u6771\u6247\u5cf6\u30fb\u6c34\u6c5f\u753a\u81e8\u6e2f\u9053\u8def\u571f\u8cea","client_name":"\u56fd\u571f\u4ea4\u901a\u7701\u95a2\u6771\u5730\u65b9\u6574\u5099\u5c40","boring_xml_url":0,"boring_view_url":0,"soilmap_view_url":66,"soiltest_xml_url":0,"soiltest_view_url":66},{"id":130617,"code":"B4KJ201801001-8866","latitude":"35.46093611","longitude":"139.6980639","source_code":"PORT14001012112","project_name":"\u6e2f\u6e7e\u5c40","survey_name":"\u6a2a\u6d5c\u6e2f\u5927\u9ed2\u5730\u533a\u571f\u8cea\u8abf\u67fb","client_name":"\u56fd\u571f\u4ea4\u901a\u7701\u95a2\u6771\u5730\u65b9\u6574\u5099\u5c40","boring_xml_url":0,"boring_view_url":0,"soilmap_view_url":66,"soiltest_xml_url":0,"soiltest_view_url":66},{"id":130616,"code":"B4KJ201801001-8865","latitude":"35.46094444","longitude":"139.6980556","source_code":"PORT14001012111","project_name":"\u6e2f\u6e7e\u5c40","survey_name":"\u6a2a\u6d5c\u6e2f\u5927\u9ed2\u5730\u533a\u571f\u8cea\u8abf\u67fb","client_name":"\u56fd\u571f\u4ea4\u901a\u7701\u95a2\u6771\u5730\u65b9\u6574\u5099\u5c40","boring_xml_url":0,"boring_view_url":0,"soilmap_view_url":66,"soiltest_xml_url":0,"soiltest_view_url":66}]}}