{"header":{"xyz":{"source":[],"mosaic":false},"page":6334,"raw":{"soiltest_result":"0","bbox":"57.598333,109.544722,1.933333,163.806111","page":"6334"},"conditions":{"soiltest_result":0,"north":57.598333,"west":109.544722,"south":1.933333,"east":163.806111},"success":true,"message":""},"data":{"meta":{"total":212844,"page":6334,"pages":7095,"count":30},"values":[{"id":130555,"code":"B4KJ201801001-8804","latitude":"35.53816667","longitude":"139.8064167","source_code":"PORT1300A016866","project_name":"\u6e2f\u6e7e\u5c40","survey_name":"\u5e73\u621021\u5e74\u5ea6\u6771\u4eac\u56fd\u969b\u7a7a\u6e2fC\u6ed1\u8d70\u8def\u571f\u8cea\u8abf\u67fb(\u305d\u306e7)","client_name":"\u56fd\u571f\u4ea4\u901a\u7701\u95a2\u6771\u5730\u65b9\u6574\u5099\u5c40","boring_xml_url":0,"boring_view_url":0,"soilmap_view_url":66,"soiltest_xml_url":0,"soiltest_view_url":66},{"id":130554,"code":"B4KJ201801001-8803","latitude":"35.53813889","longitude":"139.8064167","source_code":"PORT1300A016865","project_name":"\u6e2f\u6e7e\u5c40","survey_name":"\u5e73\u621021\u5e74\u5ea6\u6771\u4eac\u56fd\u969b\u7a7a\u6e2fC\u6ed1\u8d70\u8def\u571f\u8cea\u8abf\u67fb(\u305d\u306e7)","client_name":"\u56fd\u571f\u4ea4\u901a\u7701\u95a2\u6771\u5730\u65b9\u6574\u5099\u5c40","boring_xml_url":0,"boring_view_url":0,"soilmap_view_url":66,"soiltest_xml_url":0,"soiltest_view_url":66},{"id":130553,"code":"B4KJ201801001-8802","latitude":"35.53861111","longitude":"139.8073889","source_code":"PORT1300A016864","project_name":"\u6e2f\u6e7e\u5c40","survey_name":"\u5e73\u621021\u5e74\u5ea6\u6771\u4eac\u56fd\u969b\u7a7a\u6e2fC\u6ed1\u8d70\u8def\u571f\u8cea\u8abf\u67fb(\u305d\u306e7)","client_name":"\u56fd\u571f\u4ea4\u901a\u7701\u95a2\u6771\u5730\u65b9\u6574\u5099\u5c40","boring_xml_url":0,"boring_view_url":0,"soilmap_view_url":66,"soiltest_xml_url":0,"soiltest_view_url":66},{"id":130552,"code":"B4KJ201801001-8801","latitude":"35.53938889","longitude":"139.8068333","source_code":"PORT1300A016863","project_name":"\u6e2f\u6e7e\u5c40","survey_name":"\u5e73\u621021\u5e74\u5ea6\u6771\u4eac\u56fd\u969b\u7a7a\u6e2fC\u6ed1\u8d70\u8def\u571f\u8cea\u8abf\u67fb(\u305d\u306e7)","client_name":"\u56fd\u571f\u4ea4\u901a\u7701\u95a2\u6771\u5730\u65b9\u6574\u5099\u5c40","boring_xml_url":0,"boring_view_url":0,"soilmap_view_url":66,"soiltest_xml_url":0,"soiltest_view_url":66},{"id":130551,"code":"B4KJ201801001-8800","latitude":"35.53852778","longitude":"139.8061389","source_code":"PORT1300A016862","project_name":"\u6e2f\u6e7e\u5c40","survey_name":"\u5e73\u621021\u5e74\u5ea6\u6771\u4eac\u56fd\u969b\u7a7a\u6e2fC\u6ed1\u8d70\u8def\u571f\u8cea\u8abf\u67fb(\u305d\u306e7)","client_name":"\u56fd\u571f\u4ea4\u901a\u7701\u95a2\u6771\u5730\u65b9\u6574\u5099\u5c40","boring_xml_url":0,"boring_view_url":0,"soilmap_view_url":66,"soiltest_xml_url":0,"soiltest_view_url":66},{"id":130550,"code":"B4KJ201801001-8799","latitude":"35.53861111","longitude":"139.8056944","source_code":"PORT1300A016861","project_name":"\u6e2f\u6e7e\u5c40","survey_name":"\u5e73\u621021\u5e74\u5ea6\u6771\u4eac\u56fd\u969b\u7a7a\u6e2fC\u6ed1\u8d70\u8def\u571f\u8cea\u8abf\u67fb(\u305d\u306e7)","client_name":"\u56fd\u571f\u4ea4\u901a\u7701\u95a2\u6771\u5730\u65b9\u6574\u5099\u5c40","boring_xml_url":0,"boring_view_url":0,"soilmap_view_url":66,"soiltest_xml_url":0,"soiltest_view_url":66},{"id":130549,"code":"B4KJ201801001-8798","latitude":"35.53858333","longitude":"139.8057222","source_code":"PORT1300A016860","project_name":"\u6e2f\u6e7e\u5c40","survey_name":"\u5e73\u621021\u5e74\u5ea6\u6771\u4eac\u56fd\u969b\u7a7a\u6e2fC\u6ed1\u8d70\u8def\u571f\u8cea\u8abf\u67fb(\u305d\u306e7)","client_name":"\u56fd\u571f\u4ea4\u901a\u7701\u95a2\u6771\u5730\u65b9\u6574\u5099\u5c40","boring_xml_url":0,"boring_view_url":0,"soilmap_view_url":66,"soiltest_xml_url":0,"soiltest_view_url":66},{"id":130548,"code":"B4KJ201801001-8797","latitude":"35.53894444","longitude":"139.8058611","source_code":"PORT1300A016859","project_name":"\u6e2f\u6e7e\u5c40","survey_name":"\u5e73\u621021\u5e74\u5ea6\u6771\u4eac\u56fd\u969b\u7a7a\u6e2fC\u6ed1\u8d70\u8def\u571f\u8cea\u8abf\u67fb(\u305d\u306e7)","client_name":"\u56fd\u571f\u4ea4\u901a\u7701\u95a2\u6771\u5730\u65b9\u6574\u5099\u5c40","boring_xml_url":0,"boring_view_url":0,"soilmap_view_url":66,"soiltest_xml_url":0,"soiltest_view_url":66},{"id":130547,"code":"B4KJ201801001-8796","latitude":"35.53930556","longitude":"139.8055833","source_code":"PORT1300A016858","project_name":"\u6e2f\u6e7e\u5c40","survey_name":"\u5e73\u621021\u5e74\u5ea6\u6771\u4eac\u56fd\u969b\u7a7a\u6e2fC\u6ed1\u8d70\u8def\u571f\u8cea\u8abf\u67fb(\u305d\u306e7)","client_name":"\u56fd\u571f\u4ea4\u901a\u7701\u95a2\u6771\u5730\u65b9\u6574\u5099\u5c40","boring_xml_url":0,"boring_view_url":0,"soilmap_view_url":66,"soiltest_xml_url":0,"soiltest_view_url":66},{"id":130546,"code":"B4KJ201801001-8795","latitude":"35.53897222","longitude":"139.8054444","source_code":"PORT1300A016857","project_name":"\u6e2f\u6e7e\u5c40","survey_name":"\u5e73\u621021\u5e74\u5ea6\u6771\u4eac\u56fd\u969b\u7a7a\u6e2fC\u6ed1\u8d70\u8def\u571f\u8cea\u8abf\u67fb(\u305d\u306e7)","client_name":"\u56fd\u571f\u4ea4\u901a\u7701\u95a2\u6771\u5730\u65b9\u6574\u5099\u5c40","boring_xml_url":0,"boring_view_url":0,"soilmap_view_url":66,"soiltest_xml_url":0,"soiltest_view_url":66},{"id":130545,"code":"B4KJ201801001-8794","latitude":"35.53930556","longitude":"139.8055833","source_code":"PORT1300A016856","project_name":"\u6e2f\u6e7e\u5c40","survey_name":"\u5e73\u621021\u5e74\u5ea6\u6771\u4eac\u56fd\u969b\u7a7a\u6e2fC\u6ed1\u8d70\u8def\u571f\u8cea\u8abf\u67fb(\u305d\u306e7)","client_name":"\u56fd\u571f\u4ea4\u901a\u7701\u95a2\u6771\u5730\u65b9\u6574\u5099\u5c40","boring_xml_url":0,"boring_view_url":0,"soilmap_view_url":66,"soiltest_xml_url":0,"soiltest_view_url":66},{"id":130544,"code":"B4KJ201801001-8793","latitude":"35.541155","longitude":"139.805564","source_code":"PORT1300A016855","project_name":"\u6e2f\u6e7e\u5c40","survey_name":"\u5e73\u621021\u5e74\u5ea6\u6771\u4eac\u56fd\u969b\u7a7a\u6e2fC\u6ed1\u8d70\u8def\u571f\u8cea\u8abf\u67fb(\u305d\u306e6)","client_name":"\u56fd\u571f\u4ea4\u901a\u7701\u95a2\u6771\u5730\u65b9\u6574\u5099\u5c40","boring_xml_url":0,"boring_view_url":0,"soilmap_view_url":66,"soiltest_xml_url":0,"soiltest_view_url":66},{"id":130543,"code":"B4KJ201801001-8792","latitude":"35.54113161","longitude":"139.8055806","source_code":"PORT1300A016854","project_name":"\u6e2f\u6e7e\u5c40","survey_name":"\u5e73\u621021\u5e74\u5ea6\u6771\u4eac\u56fd\u969b\u7a7a\u6e2fC\u6ed1\u8d70\u8def\u571f\u8cea\u8abf\u67fb(\u305d\u306e6)","client_name":"\u56fd\u571f\u4ea4\u901a\u7701\u95a2\u6771\u5730\u65b9\u6574\u5099\u5c40","boring_xml_url":0,"boring_view_url":0,"soilmap_view_url":66,"soiltest_xml_url":0,"soiltest_view_url":66},{"id":130542,"code":"B4KJ201801001-8791","latitude":"35.53933364","longitude":"139.8042046","source_code":"PORT1300A016853","project_name":"\u6e2f\u6e7e\u5c40","survey_name":"\u5e73\u621021\u5e74\u5ea6\u6771\u4eac\u56fd\u969b\u7a7a\u6e2fC\u6ed1\u8d70\u8def\u571f\u8cea\u8abf\u67fb(\u305d\u306e6)","client_name":"\u56fd\u571f\u4ea4\u901a\u7701\u95a2\u6771\u5730\u65b9\u6574\u5099\u5c40","boring_xml_url":0,"boring_view_url":0,"soilmap_view_url":66,"soiltest_xml_url":0,"soiltest_view_url":66},{"id":130541,"code":"B4KJ201801001-8790","latitude":"35.53934719","longitude":"139.8042333","source_code":"PORT1300A016852","project_name":"\u6e2f\u6e7e\u5c40","survey_name":"\u5e73\u621021\u5e74\u5ea6\u6771\u4eac\u56fd\u969b\u7a7a\u6e2fC\u6ed1\u8d70\u8def\u571f\u8cea\u8abf\u67fb(\u305d\u306e6)","client_name":"\u56fd\u571f\u4ea4\u901a\u7701\u95a2\u6771\u5730\u65b9\u6574\u5099\u5c40","boring_xml_url":0,"boring_view_url":0,"soilmap_view_url":66,"soiltest_xml_url":0,"soiltest_view_url":66},{"id":130540,"code":"B4KJ201801001-8789","latitude":"35.53956361","longitude":"139.8043602","source_code":"PORT1300A016851","project_name":"\u6e2f\u6e7e\u5c40","survey_name":"\u5e73\u621021\u5e74\u5ea6\u6771\u4eac\u56fd\u969b\u7a7a\u6e2fC\u6ed1\u8d70\u8def\u571f\u8cea\u8abf\u67fb(\u305d\u306e6)","client_name":"\u56fd\u571f\u4ea4\u901a\u7701\u95a2\u6771\u5730\u65b9\u6574\u5099\u5c40","boring_xml_url":0,"boring_view_url":0,"soilmap_view_url":66,"soiltest_xml_url":0,"soiltest_view_url":66},{"id":130539,"code":"B4KJ201801001-8788","latitude":"35.53957717","longitude":"139.8043888","source_code":"PORT1300A016850","project_name":"\u6e2f\u6e7e\u5c40","survey_name":"\u5e73\u621021\u5e74\u5ea6\u6771\u4eac\u56fd\u969b\u7a7a\u6e2fC\u6ed1\u8d70\u8def\u571f\u8cea\u8abf\u67fb(\u305d\u306e6)","client_name":"\u56fd\u571f\u4ea4\u901a\u7701\u95a2\u6771\u5730\u65b9\u6574\u5099\u5c40","boring_xml_url":0,"boring_view_url":0,"soilmap_view_url":66,"soiltest_xml_url":0,"soiltest_view_url":66},{"id":130538,"code":"B4KJ201801001-8787","latitude":"35.53955967","longitude":"139.8046816","source_code":"PORT1300A016849","project_name":"\u6e2f\u6e7e\u5c40","survey_name":"\u5e73\u621021\u5e74\u5ea6\u6771\u4eac\u56fd\u969b\u7a7a\u6e2fC\u6ed1\u8d70\u8def\u571f\u8cea\u8abf\u67fb(\u305d\u306e6)","client_name":"\u56fd\u571f\u4ea4\u901a\u7701\u95a2\u6771\u5730\u65b9\u6574\u5099\u5c40","boring_xml_url":0,"boring_view_url":0,"soilmap_view_url":66,"soiltest_xml_url":0,"soiltest_view_url":66},{"id":130537,"code":"B4KJ201801001-8786","latitude":"35.53957322","longitude":"139.8047103","source_code":"PORT1300A016848","project_name":"\u6e2f\u6e7e\u5c40","survey_name":"\u5e73\u621021\u5e74\u5ea6\u6771\u4eac\u56fd\u969b\u7a7a\u6e2fC\u6ed1\u8d70\u8def\u571f\u8cea\u8abf\u67fb(\u305d\u306e6)","client_name":"\u56fd\u571f\u4ea4\u901a\u7701\u95a2\u6771\u5730\u65b9\u6574\u5099\u5c40","boring_xml_url":0,"boring_view_url":0,"soilmap_view_url":66,"soiltest_xml_url":0,"soiltest_view_url":66},{"id":130536,"code":"B4KJ201801001-8785","latitude":"35.53939772","longitude":"139.8051534","source_code":"PORT1300A016847","project_name":"\u6e2f\u6e7e\u5c40","survey_name":"\u5e73\u621021\u5e74\u5ea6\u6771\u4eac\u56fd\u969b\u7a7a\u6e2fC\u6ed1\u8d70\u8def\u571f\u8cea\u8abf\u67fb(\u305d\u306e6)","client_name":"\u56fd\u571f\u4ea4\u901a\u7701\u95a2\u6771\u5730\u65b9\u6574\u5099\u5c40","boring_xml_url":0,"boring_view_url":0,"soilmap_view_url":66,"soiltest_xml_url":0,"soiltest_view_url":66},{"id":130535,"code":"B4KJ201801001-8784","latitude":"35.53937433","longitude":"139.80517","source_code":"PORT1300A016846","project_name":"\u6e2f\u6e7e\u5c40","survey_name":"\u5e73\u621021\u5e74\u5ea6\u6771\u4eac\u56fd\u969b\u7a7a\u6e2fC\u6ed1\u8d70\u8def\u571f\u8cea\u8abf\u67fb(\u305d\u306e6)","client_name":"\u56fd\u571f\u4ea4\u901a\u7701\u95a2\u6771\u5730\u65b9\u6574\u5099\u5c40","boring_xml_url":0,"boring_view_url":0,"soilmap_view_url":66,"soiltest_xml_url":0,"soiltest_view_url":66},{"id":130534,"code":"B4KJ201801001-8783","latitude":"35.53972828","longitude":"139.8053013","source_code":"PORT1300A016845","project_name":"\u6e2f\u6e7e\u5c40","survey_name":"\u5e73\u621021\u5e74\u5ea6\u6771\u4eac\u56fd\u969b\u7a7a\u6e2fC\u6ed1\u8d70\u8def\u571f\u8cea\u8abf\u67fb(\u305d\u306e6)","client_name":"\u56fd\u571f\u4ea4\u901a\u7701\u95a2\u6771\u5730\u65b9\u6574\u5099\u5c40","boring_xml_url":0,"boring_view_url":0,"soilmap_view_url":66,"soiltest_xml_url":0,"soiltest_view_url":66},{"id":130533,"code":"B4KJ201801001-8782","latitude":"35.53970489","longitude":"139.8053179","source_code":"PORT1300A016844","project_name":"\u6e2f\u6e7e\u5c40","survey_name":"\u5e73\u621021\u5e74\u5ea6\u6771\u4eac\u56fd\u969b\u7a7a\u6e2fC\u6ed1\u8d70\u8def\u571f\u8cea\u8abf\u67fb(\u305d\u306e6)","client_name":"\u56fd\u571f\u4ea4\u901a\u7701\u95a2\u6771\u5730\u65b9\u6574\u5099\u5c40","boring_xml_url":0,"boring_view_url":0,"soilmap_view_url":66,"soiltest_xml_url":0,"soiltest_view_url":66},{"id":130532,"code":"B4KJ201801001-8781","latitude":"35.53978761","longitude":"139.8048769","source_code":"PORT1300A016843","project_name":"\u6e2f\u6e7e\u5c40","survey_name":"\u5e73\u621021\u5e74\u5ea6\u6771\u4eac\u56fd\u969b\u7a7a\u6e2fC\u6ed1\u8d70\u8def\u571f\u8cea\u8abf\u67fb(\u305d\u306e6)","client_name":"\u56fd\u571f\u4ea4\u901a\u7701\u95a2\u6771\u5730\u65b9\u6574\u5099\u5c40","boring_xml_url":0,"boring_view_url":0,"soilmap_view_url":66,"soiltest_xml_url":0,"soiltest_view_url":66},{"id":130531,"code":"B4KJ201801001-8780","latitude":"35.53976422","longitude":"139.8048934","source_code":"PORT1300A016842","project_name":"\u6e2f\u6e7e\u5c40","survey_name":"\u5e73\u621021\u5e74\u5ea6\u6771\u4eac\u56fd\u969b\u7a7a\u6e2fC\u6ed1\u8d70\u8def\u571f\u8cea\u8abf\u67fb(\u305d\u306e6)","client_name":"\u56fd\u571f\u4ea4\u901a\u7701\u95a2\u6771\u5730\u65b9\u6574\u5099\u5c40","boring_xml_url":0,"boring_view_url":0,"soilmap_view_url":66,"soiltest_xml_url":0,"soiltest_view_url":66},{"id":130530,"code":"B4KJ201801001-8779","latitude":"35.54011817","longitude":"139.8050248","source_code":"PORT1300A016841","project_name":"\u6e2f\u6e7e\u5c40","survey_name":"\u5e73\u621021\u5e74\u5ea6\u6771\u4eac\u56fd\u969b\u7a7a\u6e2fC\u6ed1\u8d70\u8def\u571f\u8cea\u8abf\u67fb(\u305d\u306e6)","client_name":"\u56fd\u571f\u4ea4\u901a\u7701\u95a2\u6771\u5730\u65b9\u6574\u5099\u5c40","boring_xml_url":0,"boring_view_url":0,"soilmap_view_url":66,"soiltest_xml_url":0,"soiltest_view_url":66},{"id":130529,"code":"B4KJ201801001-8778","latitude":"35.54009478","longitude":"139.8050414","source_code":"PORT1300A016840","project_name":"\u6e2f\u6e7e\u5c40","survey_name":"\u5e73\u621021\u5e74\u5ea6\u6771\u4eac\u56fd\u969b\u7a7a\u6e2fC\u6ed1\u8d70\u8def\u571f\u8cea\u8abf\u67fb(\u305d\u306e6)","client_name":"\u56fd\u571f\u4ea4\u901a\u7701\u95a2\u6771\u5730\u65b9\u6574\u5099\u5c40","boring_xml_url":0,"boring_view_url":0,"soilmap_view_url":66,"soiltest_xml_url":0,"soiltest_view_url":66},{"id":130528,"code":"B4KJ201801001-8777","latitude":"35.54017747","longitude":"139.8046003","source_code":"PORT1300A016839","project_name":"\u6e2f\u6e7e\u5c40","survey_name":"\u5e73\u621021\u5e74\u5ea6\u6771\u4eac\u56fd\u969b\u7a7a\u6e2fC\u6ed1\u8d70\u8def\u571f\u8cea\u8abf\u67fb(\u305d\u306e6)","client_name":"\u56fd\u571f\u4ea4\u901a\u7701\u95a2\u6771\u5730\u65b9\u6574\u5099\u5c40","boring_xml_url":0,"boring_view_url":0,"soilmap_view_url":66,"soiltest_xml_url":0,"soiltest_view_url":66},{"id":130527,"code":"B4KJ201801001-8776","latitude":"35.54015408","longitude":"139.8046169","source_code":"PORT1300A016838","project_name":"\u6e2f\u6e7e\u5c40","survey_name":"\u5e73\u621021\u5e74\u5ea6\u6771\u4eac\u56fd\u969b\u7a7a\u6e2fC\u6ed1\u8d70\u8def\u571f\u8cea\u8abf\u67fb(\u305d\u306e6)","client_name":"\u56fd\u571f\u4ea4\u901a\u7701\u95a2\u6771\u5730\u65b9\u6574\u5099\u5c40","boring_xml_url":0,"boring_view_url":0,"soilmap_view_url":66,"soiltest_xml_url":0,"soiltest_view_url":66},{"id":130526,"code":"B4KJ201801001-8775","latitude":"35.54193475","longitude":"139.8050109","source_code":"PORT1300A016837","project_name":"\u6e2f\u6e7e\u5c40","survey_name":"\u6771\u4eac\u56fd\u969b\u7a7a\u6e2fC\u6ed1\u8d70\u8def\u571f\u8cea\u8abf\u67fb(\u305d\u306e5)","client_name":"\u56fd\u571f\u4ea4\u901a\u7701\u95a2\u6771\u5730\u65b9\u6574\u5099\u5c40","boring_xml_url":0,"boring_view_url":0,"soilmap_view_url":66,"soiltest_xml_url":0,"soiltest_view_url":66}]}}