{"header":{"xyz":{"source":[],"mosaic":false},"page":6336,"raw":{"soiltest_result":"0","bbox":"57.598333,109.544722,1.933333,163.806111","page":"6336"},"conditions":{"soiltest_result":0,"north":57.598333,"west":109.544722,"south":1.933333,"east":163.806111},"success":true,"message":""},"data":{"meta":{"total":212844,"page":6336,"pages":7095,"count":30},"values":[{"id":130495,"code":"B4KJ201801001-8744","latitude":"35.56543983","longitude":"139.7866753","source_code":"PORT1300A016806","project_name":"\u6e2f\u6e7e\u5c40","survey_name":"\u6771\u4eac\u56fd\u969b\u7a7a\u6e2fC\u6ed1\u8d70\u8def\u571f\u8cea\u8abf\u67fb(\u305d\u306e3)","client_name":"\u56fd\u571f\u4ea4\u901a\u7701\u95a2\u6771\u5730\u65b9\u6574\u5099\u5c40","boring_xml_url":0,"boring_view_url":0,"soilmap_view_url":66,"soiltest_xml_url":0,"soiltest_view_url":66},{"id":130494,"code":"B4KJ201801001-8743","latitude":"35.56538442","longitude":"139.7870971","source_code":"PORT1300A016805","project_name":"\u6e2f\u6e7e\u5c40","survey_name":"\u6771\u4eac\u56fd\u969b\u7a7a\u6e2fC\u6ed1\u8d70\u8def\u571f\u8cea\u8abf\u67fb(\u305d\u306e3)","client_name":"\u56fd\u571f\u4ea4\u901a\u7701\u95a2\u6771\u5730\u65b9\u6574\u5099\u5c40","boring_xml_url":0,"boring_view_url":0,"soilmap_view_url":66,"soiltest_xml_url":0,"soiltest_view_url":66},{"id":130493,"code":"B4KJ201801001-8742","latitude":"35.56505","longitude":"139.786952","source_code":"PORT1300A016804","project_name":"\u6e2f\u6e7e\u5c40","survey_name":"\u6771\u4eac\u56fd\u969b\u7a7a\u6e2fC\u6ed1\u8d70\u8def\u571f\u8cea\u8abf\u67fb(\u305d\u306e3)","client_name":"\u56fd\u571f\u4ea4\u901a\u7701\u95a2\u6771\u5730\u65b9\u6574\u5099\u5c40","boring_xml_url":0,"boring_view_url":0,"soilmap_view_url":66,"soiltest_xml_url":0,"soiltest_view_url":66},{"id":130492,"code":"B4KJ201801001-8741","latitude":"35.56499075","longitude":"139.7873766","source_code":"PORT1300A016803","project_name":"\u6e2f\u6e7e\u5c40","survey_name":"\u6771\u4eac\u56fd\u969b\u7a7a\u6e2fC\u6ed1\u8d70\u8def\u571f\u8cea\u8abf\u67fb(\u305d\u306e3)","client_name":"\u56fd\u571f\u4ea4\u901a\u7701\u95a2\u6771\u5730\u65b9\u6574\u5099\u5c40","boring_xml_url":0,"boring_view_url":0,"soilmap_view_url":66,"soiltest_xml_url":0,"soiltest_view_url":66},{"id":130491,"code":"B4KJ201801001-8740","latitude":"35.56465522","longitude":"139.787206","source_code":"PORT1300A016802","project_name":"\u6e2f\u6e7e\u5c40","survey_name":"\u6771\u4eac\u56fd\u969b\u7a7a\u6e2fC\u6ed1\u8d70\u8def\u571f\u8cea\u8abf\u67fb(\u305d\u306e3)","client_name":"\u56fd\u571f\u4ea4\u901a\u7701\u95a2\u6771\u5730\u65b9\u6574\u5099\u5c40","boring_xml_url":0,"boring_view_url":0,"soilmap_view_url":66,"soiltest_xml_url":0,"soiltest_view_url":66},{"id":130490,"code":"B4KJ201801001-8739","latitude":"35.56460769","longitude":"139.7876676","source_code":"PORT1300A016801","project_name":"\u6e2f\u6e7e\u5c40","survey_name":"\u6771\u4eac\u56fd\u969b\u7a7a\u6e2fC\u6ed1\u8d70\u8def\u571f\u8cea\u8abf\u67fb(\u305d\u306e3)","client_name":"\u56fd\u571f\u4ea4\u901a\u7701\u95a2\u6771\u5730\u65b9\u6574\u5099\u5c40","boring_xml_url":0,"boring_view_url":0,"soilmap_view_url":66,"soiltest_xml_url":0,"soiltest_view_url":66},{"id":130489,"code":"B4KJ201801001-8738","latitude":"35.56421433","longitude":"139.7879277","source_code":"PORT1300A016800","project_name":"\u6e2f\u6e7e\u5c40","survey_name":"\u6771\u4eac\u56fd\u969b\u7a7a\u6e2fC\u6ed1\u8d70\u8def\u571f\u8cea\u8abf\u67fb(\u305d\u306e3)","client_name":"\u56fd\u571f\u4ea4\u901a\u7701\u95a2\u6771\u5730\u65b9\u6574\u5099\u5c40","boring_xml_url":0,"boring_view_url":0,"soilmap_view_url":66,"soiltest_xml_url":0,"soiltest_view_url":66},{"id":130488,"code":"B4KJ201801001-8737","latitude":"35.56388053","longitude":"139.7877821","source_code":"PORT1300A016799","project_name":"\u6e2f\u6e7e\u5c40","survey_name":"\u6771\u4eac\u56fd\u969b\u7a7a\u6e2fC\u6ed1\u8d70\u8def\u571f\u8cea\u8abf\u67fb(\u305d\u306e3)","client_name":"\u56fd\u571f\u4ea4\u901a\u7701\u95a2\u6771\u5730\u65b9\u6574\u5099\u5c40","boring_xml_url":0,"boring_view_url":0,"soilmap_view_url":66,"soiltest_xml_url":0,"soiltest_view_url":0},{"id":130487,"code":"B4KJ201801001-8736","latitude":"35.56382125","longitude":"139.7882067","source_code":"PORT1300A016798","project_name":"\u6e2f\u6e7e\u5c40","survey_name":"\u6771\u4eac\u56fd\u969b\u7a7a\u6e2fC\u6ed1\u8d70\u8def\u571f\u8cea\u8abf\u67fb(\u305d\u306e3)","client_name":"\u56fd\u571f\u4ea4\u901a\u7701\u95a2\u6771\u5730\u65b9\u6574\u5099\u5c40","boring_xml_url":0,"boring_view_url":0,"soilmap_view_url":66,"soiltest_xml_url":0,"soiltest_view_url":66},{"id":130486,"code":"B4KJ201801001-8735","latitude":"35.56345225","longitude":"139.7879777","source_code":"PORT1300A016797","project_name":"\u6e2f\u6e7e\u5c40","survey_name":"\u6771\u4eac\u56fd\u969b\u7a7a\u6e2fC\u6ed1\u8d70\u8def\u571f\u8cea\u8abf\u67fb(\u305d\u306e3)","client_name":"\u56fd\u571f\u4ea4\u901a\u7701\u95a2\u6771\u5730\u65b9\u6574\u5099\u5c40","boring_xml_url":0,"boring_view_url":0,"soilmap_view_url":66,"soiltest_xml_url":0,"soiltest_view_url":66},{"id":130485,"code":"B4KJ201801001-8734","latitude":"35.56346986","longitude":"139.7885645","source_code":"PORT1300A016796","project_name":"\u6e2f\u6e7e\u5c40","survey_name":"\u6771\u4eac\u56fd\u969b\u7a7a\u6e2fC\u6ed1\u8d70\u8def\u571f\u8cea\u8abf\u67fb(\u305d\u306e3)","client_name":"\u56fd\u571f\u4ea4\u901a\u7701\u95a2\u6771\u5730\u65b9\u6574\u5099\u5c40","boring_xml_url":0,"boring_view_url":0,"soilmap_view_url":66,"soiltest_xml_url":0,"soiltest_view_url":66},{"id":130484,"code":"B4KJ201801001-8733","latitude":"35.56574703","longitude":"139.7868398","source_code":"PORT1300A016795","project_name":"\u6e2f\u6e7e\u5c40","survey_name":"\u6771\u4eac\u56fd\u969b\u7a7a\u6e2fC\u6ed1\u8d70\u8def\u571f\u8cea\u8abf\u67fb(\u305d\u306e3)","client_name":"\u56fd\u571f\u4ea4\u901a\u7701\u95a2\u6771\u5730\u65b9\u6574\u5099\u5c40","boring_xml_url":0,"boring_view_url":0,"soilmap_view_url":66,"soiltest_xml_url":0,"soiltest_view_url":66},{"id":130483,"code":"B4KJ201801001-8732","latitude":"35.56541644","longitude":"139.7866919","source_code":"PORT1300A016794","project_name":"\u6e2f\u6e7e\u5c40","survey_name":"\u6771\u4eac\u56fd\u969b\u7a7a\u6e2fC\u6ed1\u8d70\u8def\u571f\u8cea\u8abf\u67fb(\u305d\u306e3)","client_name":"\u56fd\u571f\u4ea4\u901a\u7701\u95a2\u6771\u5730\u65b9\u6574\u5099\u5c40","boring_xml_url":0,"boring_view_url":0,"soilmap_view_url":66,"soiltest_xml_url":0,"soiltest_view_url":66},{"id":130482,"code":"B4KJ201801001-8731","latitude":"35.56535719","longitude":"139.7871165","source_code":"PORT1300A016793","project_name":"\u6e2f\u6e7e\u5c40","survey_name":"\u6771\u4eac\u56fd\u969b\u7a7a\u6e2fC\u6ed1\u8d70\u8def\u571f\u8cea\u8abf\u67fb(\u305d\u306e3)","client_name":"\u56fd\u571f\u4ea4\u901a\u7701\u95a2\u6771\u5730\u65b9\u6574\u5099\u5c40","boring_xml_url":0,"boring_view_url":0,"soilmap_view_url":66,"soiltest_xml_url":0,"soiltest_view_url":66},{"id":130481,"code":"B4KJ201801001-8730","latitude":"35.56502661","longitude":"139.7869686","source_code":"PORT1300A016792","project_name":"\u6e2f\u6e7e\u5c40","survey_name":"\u6771\u4eac\u56fd\u969b\u7a7a\u6e2fC\u6ed1\u8d70\u8def\u571f\u8cea\u8abf\u67fb(\u305d\u306e3)","client_name":"\u56fd\u571f\u4ea4\u901a\u7701\u95a2\u6771\u5730\u65b9\u6574\u5099\u5c40","boring_xml_url":0,"boring_view_url":0,"soilmap_view_url":66,"soiltest_xml_url":0,"soiltest_view_url":66},{"id":130480,"code":"B4KJ201801001-8729","latitude":"35.56496736","longitude":"139.7873932","source_code":"PORT1300A016791","project_name":"\u6e2f\u6e7e\u5c40","survey_name":"\u6771\u4eac\u56fd\u969b\u7a7a\u6e2fC\u6ed1\u8d70\u8def\u571f\u8cea\u8abf\u67fb(\u305d\u306e3)","client_name":"\u56fd\u571f\u4ea4\u901a\u7701\u95a2\u6771\u5730\u65b9\u6574\u5099\u5c40","boring_xml_url":0,"boring_view_url":0,"soilmap_view_url":66,"soiltest_xml_url":0,"soiltest_view_url":66},{"id":130479,"code":"B4KJ201801001-8728","latitude":"35.56463","longitude":"139.787231","source_code":"PORT1300A016790","project_name":"\u6e2f\u6e7e\u5c40","survey_name":"\u6771\u4eac\u56fd\u969b\u7a7a\u6e2fC\u6ed1\u8d70\u8def\u571f\u8cea\u8abf\u67fb(\u305d\u306e3)","client_name":"\u56fd\u571f\u4ea4\u901a\u7701\u95a2\u6771\u5730\u65b9\u6574\u5099\u5c40","boring_xml_url":0,"boring_view_url":0,"soilmap_view_url":66,"soiltest_xml_url":0,"soiltest_view_url":66},{"id":130478,"code":"B4KJ201801001-8727","latitude":"35.56458431","longitude":"139.7876842","source_code":"PORT1300A016789","project_name":"\u6e2f\u6e7e\u5c40","survey_name":"\u6771\u4eac\u56fd\u969b\u7a7a\u6e2fC\u6ed1\u8d70\u8def\u571f\u8cea\u8abf\u67fb(\u305d\u306e3)","client_name":"\u56fd\u571f\u4ea4\u901a\u7701\u95a2\u6771\u5730\u65b9\u6574\u5099\u5c40","boring_xml_url":0,"boring_view_url":0,"soilmap_view_url":66,"soiltest_xml_url":0,"soiltest_view_url":66},{"id":130477,"code":"B4KJ201801001-8726","latitude":"35.56418769","longitude":"139.7879466","source_code":"PORT1300A016788","project_name":"\u6e2f\u6e7e\u5c40","survey_name":"\u6771\u4eac\u56fd\u969b\u7a7a\u6e2fC\u6ed1\u8d70\u8def\u571f\u8cea\u8abf\u67fb(\u305d\u306e3)","client_name":"\u56fd\u571f\u4ea4\u901a\u7701\u95a2\u6771\u5730\u65b9\u6574\u5099\u5c40","boring_xml_url":0,"boring_view_url":0,"soilmap_view_url":66,"soiltest_xml_url":0,"soiltest_view_url":66},{"id":130476,"code":"B4KJ201801001-8725","latitude":"35.56385714","longitude":"139.7877987","source_code":"PORT1300A016787","project_name":"\u6e2f\u6e7e\u5c40","survey_name":"\u6771\u4eac\u56fd\u969b\u7a7a\u6e2fC\u6ed1\u8d70\u8def\u571f\u8cea\u8abf\u67fb(\u305d\u306e3)","client_name":"\u56fd\u571f\u4ea4\u901a\u7701\u95a2\u6771\u5730\u65b9\u6574\u5099\u5c40","boring_xml_url":0,"boring_view_url":0,"soilmap_view_url":66,"soiltest_xml_url":0,"soiltest_view_url":66},{"id":130475,"code":"B4KJ201801001-8724","latitude":"35.56379786","longitude":"139.7882233","source_code":"PORT1300A016786","project_name":"\u6e2f\u6e7e\u5c40","survey_name":"\u6771\u4eac\u56fd\u969b\u7a7a\u6e2fC\u6ed1\u8d70\u8def\u571f\u8cea\u8abf\u67fb(\u305d\u306e3)","client_name":"\u56fd\u571f\u4ea4\u901a\u7701\u95a2\u6771\u5730\u65b9\u6574\u5099\u5c40","boring_xml_url":0,"boring_view_url":0,"soilmap_view_url":66,"soiltest_xml_url":0,"soiltest_view_url":66},{"id":130474,"code":"B4KJ201801001-8723","latitude":"35.56342886","longitude":"139.7879943","source_code":"PORT1300A016785","project_name":"\u6e2f\u6e7e\u5c40","survey_name":"\u6771\u4eac\u56fd\u969b\u7a7a\u6e2fC\u6ed1\u8d70\u8def\u571f\u8cea\u8abf\u67fb(\u305d\u306e3)","client_name":"\u56fd\u571f\u4ea4\u901a\u7701\u95a2\u6771\u5730\u65b9\u6574\u5099\u5c40","boring_xml_url":0,"boring_view_url":0,"soilmap_view_url":66,"soiltest_xml_url":0,"soiltest_view_url":66},{"id":130473,"code":"B4KJ201801001-8722","latitude":"35.56344647","longitude":"139.7885811","source_code":"PORT1300A016784","project_name":"\u6e2f\u6e7e\u5c40","survey_name":"\u6771\u4eac\u56fd\u969b\u7a7a\u6e2fC\u6ed1\u8d70\u8def\u571f\u8cea\u8abf\u67fb(\u305d\u306e3)","client_name":"\u56fd\u571f\u4ea4\u901a\u7701\u95a2\u6771\u5730\u65b9\u6574\u5099\u5c40","boring_xml_url":0,"boring_view_url":0,"soilmap_view_url":66,"soiltest_xml_url":0,"soiltest_view_url":66},{"id":130472,"code":"B4KJ201801001-8721","latitude":"35.56306242","longitude":"139.7882544","source_code":"PORT1300A016783","project_name":"\u6e2f\u6e7e\u5c40","survey_name":"\u6771\u4eac\u56fd\u969b\u7a7a\u6e2fC\u6ed1\u8d70\u8def\u571f\u8cea\u8abf\u67fb(\u305d\u306e2)","client_name":"\u56fd\u571f\u4ea4\u901a\u7701\u95a2\u6771\u5730\u65b9\u6574\u5099\u5c40","boring_xml_url":0,"boring_view_url":0,"soilmap_view_url":66,"soiltest_xml_url":0,"soiltest_view_url":66},{"id":130471,"code":"B4KJ201801001-8720","latitude":"35.56304539","longitude":"139.7887573","source_code":"PORT1300A016782","project_name":"\u6e2f\u6e7e\u5c40","survey_name":"\u6771\u4eac\u56fd\u969b\u7a7a\u6e2fC\u6ed1\u8d70\u8def\u571f\u8cea\u8abf\u67fb(\u305d\u306e2)","client_name":"\u56fd\u571f\u4ea4\u901a\u7701\u95a2\u6771\u5730\u65b9\u6574\u5099\u5c40","boring_xml_url":0,"boring_view_url":0,"soilmap_view_url":66,"soiltest_xml_url":0,"soiltest_view_url":66},{"id":130470,"code":"B4KJ201801001-8719","latitude":"35.56265175","longitude":"139.7890368","source_code":"PORT1300A016781","project_name":"\u6e2f\u6e7e\u5c40","survey_name":"\u6771\u4eac\u56fd\u969b\u7a7a\u6e2fC\u6ed1\u8d70\u8def\u571f\u8cea\u8abf\u67fb(\u305d\u306e2)","client_name":"\u56fd\u571f\u4ea4\u901a\u7701\u95a2\u6771\u5730\u65b9\u6574\u5099\u5c40","boring_xml_url":0,"boring_view_url":0,"soilmap_view_url":66,"soiltest_xml_url":0,"soiltest_view_url":66},{"id":130469,"code":"B4KJ201801001-8718","latitude":"35.56231439","longitude":"139.7888746","source_code":"PORT1300A016780","project_name":"\u6e2f\u6e7e\u5c40","survey_name":"\u6771\u4eac\u56fd\u969b\u7a7a\u6e2fC\u6ed1\u8d70\u8def\u571f\u8cea\u8abf\u67fb(\u305d\u306e2)","client_name":"\u56fd\u571f\u4ea4\u901a\u7701\u95a2\u6771\u5730\u65b9\u6574\u5099\u5c40","boring_xml_url":0,"boring_view_url":0,"soilmap_view_url":66,"soiltest_xml_url":0,"soiltest_view_url":66},{"id":130468,"code":"B4KJ201801001-8717","latitude":"35.56226869","longitude":"139.7893278","source_code":"PORT1300A016779","project_name":"\u6e2f\u6e7e\u5c40","survey_name":"\u6771\u4eac\u56fd\u969b\u7a7a\u6e2fC\u6ed1\u8d70\u8def\u571f\u8cea\u8abf\u67fb(\u305d\u306e2)","client_name":"\u56fd\u571f\u4ea4\u901a\u7701\u95a2\u6771\u5730\u65b9\u6574\u5099\u5c40","boring_xml_url":0,"boring_view_url":0,"soilmap_view_url":66,"soiltest_xml_url":0,"soiltest_view_url":66},{"id":130467,"code":"B4KJ201801001-8716","latitude":"35.56190561","longitude":"139.7891838","source_code":"PORT1300A016778","project_name":"\u6e2f\u6e7e\u5c40","survey_name":"\u6771\u4eac\u56fd\u969b\u7a7a\u6e2fC\u6ed1\u8d70\u8def\u571f\u8cea\u8abf\u67fb(\u305d\u306e2)","client_name":"\u56fd\u571f\u4ea4\u901a\u7701\u95a2\u6771\u5730\u65b9\u6574\u5099\u5c40","boring_xml_url":0,"boring_view_url":0,"soilmap_view_url":66,"soiltest_xml_url":0,"soiltest_view_url":66},{"id":130466,"code":"B4KJ201801001-8715","latitude":"35.56187811","longitude":"139.7895856","source_code":"PORT1300A016777","project_name":"\u6e2f\u6e7e\u5c40","survey_name":"\u6771\u4eac\u56fd\u969b\u7a7a\u6e2fC\u6ed1\u8d70\u8def\u571f\u8cea\u8abf\u67fb(\u305d\u306e2)","client_name":"\u56fd\u571f\u4ea4\u901a\u7701\u95a2\u6771\u5730\u65b9\u6574\u5099\u5c40","boring_xml_url":0,"boring_view_url":0,"soilmap_view_url":66,"soiltest_xml_url":0,"soiltest_view_url":66}]}}