{"header":{"xyz":{"source":[],"mosaic":false},"page":6339,"raw":{"soiltest_result":"0","bbox":"57.598333,109.544722,1.933333,163.806111","page":"6339"},"conditions":{"soiltest_result":0,"north":57.598333,"west":109.544722,"south":1.933333,"east":163.806111},"success":true,"message":""},"data":{"meta":{"total":212844,"page":6339,"pages":7095,"count":30},"values":[{"id":130405,"code":"B4KJ201801001-8654","latitude":"42.51287419","longitude":"141.3143466","source_code":"PORT01049011728","project_name":"\u6e2f\u6e7e\u5c40","survey_name":"\u767d\u8001\u6e2f\u5730\u8cea\u8abf\u67fb\u696d\u52d9","client_name":"\u56fd\u571f\u4ea4\u901a\u7701\u5317\u6d77\u9053\u958b\u767a\u5c40\u6e2f\u6e7e\u7a7a\u6e2f\u90e8","boring_xml_url":0,"boring_view_url":0,"soilmap_view_url":66,"soiltest_xml_url":0,"soiltest_view_url":66},{"id":130404,"code":"B4KJ201801001-8653","latitude":"42.51312108","longitude":"141.3136066","source_code":"PORT01049011727","project_name":"\u6e2f\u6e7e\u5c40","survey_name":"\u767d\u8001\u6e2f\u5730\u8cea\u8abf\u67fb\u696d\u52d9","client_name":"\u56fd\u571f\u4ea4\u901a\u7701\u5317\u6d77\u9053\u958b\u767a\u5c40\u6e2f\u6e7e\u7a7a\u6e2f\u90e8","boring_xml_url":0,"boring_view_url":0,"soilmap_view_url":66,"soiltest_xml_url":0,"soiltest_view_url":66},{"id":130403,"code":"B4KJ201801001-8652","latitude":"44.35059072","longitude":"143.3666279","source_code":"PORT01048016318","project_name":"\u6e2f\u6e7e\u5c40","survey_name":"\u7d0b\u5225\u6e2f\u59161\u6e2f\u5730\u8cea\u8abf\u67fb\u696d\u52d9","client_name":"\u56fd\u571f\u4ea4\u901a\u7701\u5317\u6d77\u9053\u958b\u767a\u5c40\u6e2f\u6e7e\u7a7a\u6e2f\u90e8","boring_xml_url":0,"boring_view_url":0,"soilmap_view_url":66,"soiltest_xml_url":0,"soiltest_view_url":66},{"id":130402,"code":"B4KJ201801001-8651","latitude":"44.35000506","longitude":"143.3658603","source_code":"PORT01048016317","project_name":"\u6e2f\u6e7e\u5c40","survey_name":"\u7d0b\u5225\u6e2f\u59161\u6e2f\u5730\u8cea\u8abf\u67fb\u696d\u52d9","client_name":"\u56fd\u571f\u4ea4\u901a\u7701\u5317\u6d77\u9053\u958b\u767a\u5c40\u6e2f\u6e7e\u7a7a\u6e2f\u90e8","boring_xml_url":0,"boring_view_url":0,"soilmap_view_url":66,"soiltest_xml_url":0,"soiltest_view_url":66},{"id":130401,"code":"B4KJ201801001-8650","latitude":"44.35077717","longitude":"143.3639639","source_code":"PORT01048016316","project_name":"\u6e2f\u6e7e\u5c40","survey_name":"\u7d0b\u5225\u6e2f\u59161\u6e2f\u5730\u8cea\u8abf\u67fb\u696d\u52d9","client_name":"\u56fd\u571f\u4ea4\u901a\u7701\u5317\u6d77\u9053\u958b\u767a\u5c40\u6e2f\u6e7e\u7a7a\u6e2f\u90e8","boring_xml_url":0,"boring_view_url":0,"soilmap_view_url":66,"soiltest_xml_url":0,"soiltest_view_url":66},{"id":130400,"code":"B4KJ201801001-8649","latitude":"44.35167817","longitude":"143.3624172","source_code":"PORT01048016315","project_name":"\u6e2f\u6e7e\u5c40","survey_name":"\u7d0b\u5225\u6e2f\u59161\u6e2f\u5730\u8cea\u8abf\u67fb\u696d\u52d9","client_name":"\u56fd\u571f\u4ea4\u901a\u7701\u5317\u6d77\u9053\u958b\u767a\u5c40\u6e2f\u6e7e\u7a7a\u6e2f\u90e8","boring_xml_url":0,"boring_view_url":0,"soilmap_view_url":66,"soiltest_xml_url":0,"soiltest_view_url":66},{"id":130399,"code":"B4KJ201801001-8648","latitude":"44.35259931","longitude":"143.3606577","source_code":"PORT01048016314","project_name":"\u6e2f\u6e7e\u5c40","survey_name":"\u7d0b\u5225\u6e2f\u59161\u6e2f\u5730\u8cea\u8abf\u67fb\u696d\u52d9","client_name":"\u56fd\u571f\u4ea4\u901a\u7701\u5317\u6d77\u9053\u958b\u767a\u5c40\u6e2f\u6e7e\u7a7a\u6e2f\u90e8","boring_xml_url":0,"boring_view_url":0,"soilmap_view_url":66,"soiltest_xml_url":0,"soiltest_view_url":66},{"id":130398,"code":"B4KJ201801001-8647","latitude":"44.35212478","longitude":"143.3595366","source_code":"PORT01048016313","project_name":"\u6e2f\u6e7e\u5c40","survey_name":"\u7d0b\u5225\u6e2f\u59161\u6e2f\u5730\u8cea\u8abf\u67fb\u696d\u52d9","client_name":"\u56fd\u571f\u4ea4\u901a\u7701\u5317\u6d77\u9053\u958b\u767a\u5c40\u6e2f\u6e7e\u7a7a\u6e2f\u90e8","boring_xml_url":0,"boring_view_url":0,"soilmap_view_url":66,"soiltest_xml_url":0,"soiltest_view_url":66},{"id":130397,"code":"B4KJ201801001-8646","latitude":"43.08497222","longitude":"145.1343889","source_code":"PORT01033010022","project_name":"\u6e2f\u6e7e\u5c40","survey_name":"\u5e73\u621021\u5e74\u5ea6\u6839\u5ba4\u6e2f\u5916\u5730\u8cea\u8abf\u67fb\u696d\u52d9","client_name":"\u56fd\u571f\u4ea4\u901a\u7701\u5317\u6d77\u9053\u958b\u767a\u5c40\u6e2f\u6e7e\u7a7a\u6e2f\u90e8","boring_xml_url":0,"boring_view_url":0,"soilmap_view_url":66,"soiltest_xml_url":0,"soiltest_view_url":66},{"id":130396,"code":"B4KJ201801001-8645","latitude":"43.08452778","longitude":"145.1343889","source_code":"PORT01033010021","project_name":"\u6e2f\u6e7e\u5c40","survey_name":"\u5e73\u621021\u5e74\u5ea6\u6839\u5ba4\u6e2f\u5916\u5730\u8cea\u8abf\u67fb\u696d\u52d9","client_name":"\u56fd\u571f\u4ea4\u901a\u7701\u5317\u6d77\u9053\u958b\u767a\u5c40\u6e2f\u6e7e\u7a7a\u6e2f\u90e8","boring_xml_url":0,"boring_view_url":0,"soilmap_view_url":66,"soiltest_xml_url":0,"soiltest_view_url":66},{"id":130395,"code":"B4KJ201801001-8644","latitude":"43.08422222","longitude":"145.1344722","source_code":"PORT01033010020","project_name":"\u6e2f\u6e7e\u5c40","survey_name":"\u5e73\u621021\u5e74\u5ea6\u6839\u5ba4\u6e2f\u5916\u5730\u8cea\u8abf\u67fb\u696d\u52d9","client_name":"\u56fd\u571f\u4ea4\u901a\u7701\u5317\u6d77\u9053\u958b\u767a\u5c40\u6e2f\u6e7e\u7a7a\u6e2f\u90e8","boring_xml_url":0,"boring_view_url":0,"soilmap_view_url":66,"soiltest_xml_url":0,"soiltest_view_url":66},{"id":130394,"code":"B4KJ201801001-8643","latitude":"43.08380556","longitude":"145.1345556","source_code":"PORT01033010019","project_name":"\u6e2f\u6e7e\u5c40","survey_name":"\u5e73\u621021\u5e74\u5ea6\u6839\u5ba4\u6e2f\u5916\u5730\u8cea\u8abf\u67fb\u696d\u52d9","client_name":"\u56fd\u571f\u4ea4\u901a\u7701\u5317\u6d77\u9053\u958b\u767a\u5c40\u6e2f\u6e7e\u7a7a\u6e2f\u90e8","boring_xml_url":0,"boring_view_url":0,"soilmap_view_url":66,"soiltest_xml_url":0,"soiltest_view_url":66},{"id":130393,"code":"B4KJ201801001-8642","latitude":"43.08494083","longitude":"145.1344146","source_code":"PORT01033010018","project_name":"\u6e2f\u6e7e\u5c40","survey_name":"\u5e73\u621021\u5e74\u5ea6\u6839\u5ba4\u6e2f\u5916\u8010\u9707\u5cb8\u58c1\u5730\u8cea\u8abf\u67fb\u305d\u306e\u4ed6\u696d\u52d9","client_name":"\u56fd\u571f\u4ea4\u901a\u7701\u5317\u6d77\u9053\u958b\u767a\u5c40\u6e2f\u6e7e\u7a7a\u6e2f\u90e8","boring_xml_url":0,"boring_view_url":0,"soilmap_view_url":66,"soiltest_xml_url":0,"soiltest_view_url":66},{"id":130392,"code":"B4KJ201801001-8641","latitude":"43.08372472","longitude":"145.1346555","source_code":"PORT01033010017","project_name":"\u6e2f\u6e7e\u5c40","survey_name":"\u5e73\u621021\u5e74\u5ea6\u6839\u5ba4\u6e2f\u5916\u8010\u9707\u5cb8\u58c1\u5730\u8cea\u8abf\u67fb\u305d\u306e\u4ed6\u696d\u52d9","client_name":"\u56fd\u571f\u4ea4\u901a\u7701\u5317\u6d77\u9053\u958b\u767a\u5c40\u6e2f\u6e7e\u7a7a\u6e2f\u90e8","boring_xml_url":0,"boring_view_url":0,"soilmap_view_url":66,"soiltest_xml_url":0,"soiltest_view_url":66},{"id":130391,"code":"B4KJ201801001-8640","latitude":"43.08322642","longitude":"145.134172","source_code":"PORT01033010016","project_name":"\u6e2f\u6e7e\u5c40","survey_name":"\u5e73\u621021\u5e74\u5ea6\u6839\u5ba4\u6e2f\u5916\u8010\u9707\u5cb8\u58c1\u5730\u8cea\u8abf\u67fb\u305d\u306e\u4ed6\u696d\u52d9","client_name":"\u56fd\u571f\u4ea4\u901a\u7701\u5317\u6d77\u9053\u958b\u767a\u5c40\u6e2f\u6e7e\u7a7a\u6e2f\u90e8","boring_xml_url":0,"boring_view_url":0,"soilmap_view_url":66,"soiltest_xml_url":0,"soiltest_view_url":66},{"id":130390,"code":"B4KJ201801001-8639","latitude":"43.083233","longitude":"145.1341636","source_code":"PORT01033010015","project_name":"\u6e2f\u6e7e\u5c40","survey_name":"\u5e73\u621021\u5e74\u5ea6\u6839\u5ba4\u6e2f\u5916\u8010\u9707\u5cb8\u58c1\u5730\u8cea\u8abf\u67fb\u305d\u306e\u4ed6\u696d\u52d9","client_name":"\u56fd\u571f\u4ea4\u901a\u7701\u5317\u6d77\u9053\u958b\u767a\u5c40\u6e2f\u6e7e\u7a7a\u6e2f\u90e8","boring_xml_url":0,"boring_view_url":0,"soilmap_view_url":66,"soiltest_xml_url":0,"soiltest_view_url":66},{"id":130389,"code":"B4KJ201801001-8638","latitude":"43.08323953","longitude":"145.1341548","source_code":"PORT01033010014","project_name":"\u6e2f\u6e7e\u5c40","survey_name":"\u5e73\u621021\u5e74\u5ea6\u6839\u5ba4\u6e2f\u5916\u8010\u9707\u5cb8\u58c1\u5730\u8cea\u8abf\u67fb\u305d\u306e\u4ed6\u696d\u52d9","client_name":"\u56fd\u571f\u4ea4\u901a\u7701\u5317\u6d77\u9053\u958b\u767a\u5c40\u6e2f\u6e7e\u7a7a\u6e2f\u90e8","boring_xml_url":0,"boring_view_url":0,"soilmap_view_url":66,"soiltest_xml_url":0,"soiltest_view_url":66},{"id":130388,"code":"B4KJ201801001-8637","latitude":"43.08277778","longitude":"145.1342778","source_code":"PORT01033010013","project_name":"\u6e2f\u6e7e\u5c40","survey_name":"\u5e73\u621021\u5e74\u5ea6\u6839\u5ba4\u6e2f\u5916\u8010\u9707\u5cb8\u58c1\u5730\u8cea\u8abf\u67fb\u305d\u306e\u4ed6\u696d\u52d9","client_name":"\u56fd\u571f\u4ea4\u901a\u7701\u5317\u6d77\u9053\u958b\u767a\u5c40\u6e2f\u6e7e\u7a7a\u6e2f\u90e8","boring_xml_url":0,"boring_view_url":0,"soilmap_view_url":66,"soiltest_xml_url":0,"soiltest_view_url":66},{"id":130387,"code":"B4KJ201801001-8636","latitude":"44.93516983","longitude":"142.5903564","source_code":"PORT01026012007","project_name":"\u6e2f\u6e7e\u5c40","survey_name":"\u5e73\u621021\u5e74\u5ea6\u7a1a\u5185\u6e2f\u59161\u6e2f\u5730\u8cea\u8abf\u67fb\u696d\u52d9","client_name":"\u56fd\u571f\u4ea4\u901a\u7701\u5317\u6d77\u9053\u958b\u767a\u5c40\u6e2f\u6e7e\u7a7a\u6e2f\u90e8","boring_xml_url":0,"boring_view_url":0,"soilmap_view_url":66,"soiltest_xml_url":0,"soiltest_view_url":66},{"id":130386,"code":"B4KJ201801001-8635","latitude":"44.93494008","longitude":"142.5898495","source_code":"PORT01026012006","project_name":"\u6e2f\u6e7e\u5c40","survey_name":"\u5e73\u621021\u5e74\u5ea6\u7a1a\u5185\u6e2f\u59161\u6e2f\u5730\u8cea\u8abf\u67fb\u696d\u52d9","client_name":"\u56fd\u571f\u4ea4\u901a\u7701\u5317\u6d77\u9053\u958b\u767a\u5c40\u6e2f\u6e7e\u7a7a\u6e2f\u90e8","boring_xml_url":0,"boring_view_url":0,"soilmap_view_url":66,"soiltest_xml_url":0,"soiltest_view_url":66},{"id":130385,"code":"B4KJ201801001-8634","latitude":"44.93470653","longitude":"142.5893265","source_code":"PORT01026012005","project_name":"\u6e2f\u6e7e\u5c40","survey_name":"\u5e73\u621021\u5e74\u5ea6\u7a1a\u5185\u6e2f\u59161\u6e2f\u5730\u8cea\u8abf\u67fb\u696d\u52d9","client_name":"\u56fd\u571f\u4ea4\u901a\u7701\u5317\u6d77\u9053\u958b\u767a\u5c40\u6e2f\u6e7e\u7a7a\u6e2f\u90e8","boring_xml_url":0,"boring_view_url":0,"soilmap_view_url":66,"soiltest_xml_url":0,"soiltest_view_url":66},{"id":130384,"code":"B4KJ201801001-8633","latitude":"45.24393817","longitude":"141.2306618","source_code":"PORT01024012106","project_name":"\u6e2f\u6e7e\u5c40","survey_name":"\u9d1b\u6cca\u6e2f\u672c\u6e2f\u5730\u533a\u5730\u8cea\u8abf\u67fb\u696d\u52d9","client_name":"\u56fd\u571f\u4ea4\u901a\u7701\u5317\u6d77\u9053\u958b\u767a\u5c40\u6e2f\u6e7e\u7a7a\u6e2f\u90e8","boring_xml_url":0,"boring_view_url":0,"soilmap_view_url":66,"soiltest_xml_url":0,"soiltest_view_url":66},{"id":130383,"code":"B4KJ201801001-8632","latitude":"45.2440745","longitude":"141.2306679","source_code":"PORT01024012105","project_name":"\u6e2f\u6e7e\u5c40","survey_name":"\u9d1b\u6cca\u6e2f\u672c\u6e2f\u5730\u533a\u5730\u8cea\u8abf\u67fb\u696d\u52d9","client_name":"\u56fd\u571f\u4ea4\u901a\u7701\u5317\u6d77\u9053\u958b\u767a\u5c40\u6e2f\u6e7e\u7a7a\u6e2f\u90e8","boring_xml_url":0,"boring_view_url":0,"soilmap_view_url":66,"soiltest_xml_url":0,"soiltest_view_url":66},{"id":130382,"code":"B4KJ201801001-8631","latitude":"45.24427642","longitude":"141.230641","source_code":"PORT01024012104","project_name":"\u6e2f\u6e7e\u5c40","survey_name":"\u9d1b\u6cca\u6e2f\u672c\u6e2f\u5730\u533a\u5730\u8cea\u8abf\u67fb\u696d\u52d9","client_name":"\u56fd\u571f\u4ea4\u901a\u7701\u5317\u6d77\u9053\u958b\u767a\u5c40\u6e2f\u6e7e\u7a7a\u6e2f\u90e8","boring_xml_url":0,"boring_view_url":0,"soilmap_view_url":66,"soiltest_xml_url":0,"soiltest_view_url":66},{"id":130381,"code":"B4KJ201801001-8630","latitude":"45.24417356","longitude":"141.2308258","source_code":"PORT01024012103","project_name":"\u6e2f\u6e7e\u5c40","survey_name":"\u9d1b\u6cca\u6e2f\u672c\u6e2f\u5730\u533a\u5730\u8cea\u8abf\u67fb\u696d\u52d9","client_name":"\u56fd\u571f\u4ea4\u901a\u7701\u5317\u6d77\u9053\u958b\u767a\u5c40\u6e2f\u6e7e\u7a7a\u6e2f\u90e8","boring_xml_url":0,"boring_view_url":0,"soilmap_view_url":66,"soiltest_xml_url":0,"soiltest_view_url":66},{"id":130380,"code":"B4KJ201801001-8629","latitude":"45.24445597","longitude":"141.2308432","source_code":"PORT01024012102","project_name":"\u6e2f\u6e7e\u5c40","survey_name":"\u9d1b\u6cca\u6e2f\u672c\u6e2f\u5730\u533a\u5730\u8cea\u8abf\u67fb\u696d\u52d9","client_name":"\u56fd\u571f\u4ea4\u901a\u7701\u5317\u6d77\u9053\u958b\u767a\u5c40\u6e2f\u6e7e\u7a7a\u6e2f\u90e8","boring_xml_url":0,"boring_view_url":0,"soilmap_view_url":66,"soiltest_xml_url":0,"soiltest_view_url":66},{"id":130379,"code":"B4KJ201801001-8628","latitude":"45.24482214","longitude":"141.2308136","source_code":"PORT01024012101","project_name":"\u6e2f\u6e7e\u5c40","survey_name":"\u9d1b\u6cca\u6e2f\u672c\u6e2f\u5730\u533a\u5730\u8cea\u8abf\u67fb\u696d\u52d9","client_name":"\u56fd\u571f\u4ea4\u901a\u7701\u5317\u6d77\u9053\u958b\u767a\u5c40\u6e2f\u6e7e\u7a7a\u6e2f\u90e8","boring_xml_url":0,"boring_view_url":0,"soilmap_view_url":66,"soiltest_xml_url":0,"soiltest_view_url":66},{"id":130378,"code":"B4KJ201801001-8627","latitude":"43.28280556","longitude":"145.5845","source_code":"PORT01017021623","project_name":"\u6e2f\u6e7e\u5c40","survey_name":"\u5e73\u621021\u5e74\u5ea6\u6839\u5ba4\u6e2f\u5916\u5730\u8cea\u8abf\u67fb\u696d\u52d9","client_name":"\u56fd\u571f\u4ea4\u901a\u7701\u5317\u6d77\u9053\u958b\u767a\u5c40\u6e2f\u6e7e\u7a7a\u6e2f\u90e8","boring_xml_url":0,"boring_view_url":0,"soilmap_view_url":66,"soiltest_xml_url":0,"soiltest_view_url":66},{"id":130377,"code":"B4KJ201801001-8626","latitude":"43.28280556","longitude":"145.5845","source_code":"PORT01017021622","project_name":"\u6e2f\u6e7e\u5c40","survey_name":"\u5e73\u621021\u5e74\u5ea6\u6839\u5ba4\u6e2f\u5916\u5730\u8cea\u8abf\u67fb\u696d\u52d9","client_name":"\u56fd\u571f\u4ea4\u901a\u7701\u5317\u6d77\u9053\u958b\u767a\u5c40\u6e2f\u6e7e\u7a7a\u6e2f\u90e8","boring_xml_url":0,"boring_view_url":0,"soilmap_view_url":66,"soiltest_xml_url":0,"soiltest_view_url":66},{"id":130376,"code":"B4KJ201801001-8625","latitude":"43.28377778","longitude":"145.5844722","source_code":"PORT01017021621","project_name":"\u6e2f\u6e7e\u5c40","survey_name":"\u5e73\u621021\u5e74\u5ea6\u6839\u5ba4\u6e2f\u5916\u5730\u8cea\u8abf\u67fb\u696d\u52d9","client_name":"\u56fd\u571f\u4ea4\u901a\u7701\u5317\u6d77\u9053\u958b\u767a\u5c40\u6e2f\u6e7e\u7a7a\u6e2f\u90e8","boring_xml_url":0,"boring_view_url":0,"soilmap_view_url":66,"soiltest_xml_url":0,"soiltest_view_url":66}]}}