{"header":{"xyz":{"source":[],"mosaic":false},"page":6341,"raw":{"soiltest_result":"0","bbox":"57.598333,109.544722,1.933333,163.806111","page":"6341"},"conditions":{"soiltest_result":0,"north":57.598333,"west":109.544722,"south":1.933333,"east":163.806111},"success":true,"message":""},"data":{"meta":{"total":212844,"page":6341,"pages":7095,"count":30},"values":[{"id":130345,"code":"B4KJ201801001-8594","latitude":"42.99369961","longitude":"144.2973474","source_code":"PORT01006012102","project_name":"\u6e2f\u6e7e\u5c40","survey_name":"\u91e7\u8def\u6e2f\u5730\u8cea\u8abf\u67fb\u696d\u52d9","client_name":"\u56fd\u571f\u4ea4\u901a\u7701\u5317\u6d77\u9053\u958b\u767a\u5c40\u6e2f\u6e7e\u7a7a\u6e2f\u90e8","boring_xml_url":0,"boring_view_url":0,"soilmap_view_url":66,"soiltest_xml_url":0,"soiltest_view_url":66},{"id":130344,"code":"B4KJ201801001-8593","latitude":"42.99279939","longitude":"144.2973479","source_code":"PORT01006012101","project_name":"\u6e2f\u6e7e\u5c40","survey_name":"\u91e7\u8def\u6e2f\u5730\u8cea\u8abf\u67fb\u696d\u52d9","client_name":"\u56fd\u571f\u4ea4\u901a\u7701\u5317\u6d77\u9053\u958b\u767a\u5c40\u6e2f\u6e7e\u7a7a\u6e2f\u90e8","boring_xml_url":0,"boring_view_url":0,"soilmap_view_url":66,"soiltest_xml_url":0,"soiltest_view_url":66},{"id":130343,"code":"B4KJ201801001-8592","latitude":"42.63289861","longitude":"141.6277031","source_code":"PORT01003012111","project_name":"\u6e2f\u6e7e\u5c40","survey_name":"\u82eb\u5c0f\u7267\u6e2f\u5730\u8cea\u8abf\u67fb\u696d\u52d9","client_name":"\u56fd\u571f\u4ea4\u901a\u7701\u5317\u6d77\u9053\u958b\u767a\u5c40\u6e2f\u6e7e\u7a7a\u6e2f\u90e8","boring_xml_url":0,"boring_view_url":0,"soilmap_view_url":66,"soiltest_xml_url":0,"soiltest_view_url":66},{"id":130342,"code":"B4KJ201801001-8591","latitude":"42.63871861","longitude":"141.6241092","source_code":"PORT01003012109","project_name":"\u6e2f\u6e7e\u5c40","survey_name":"\u82eb\u5c0f\u7267\u6e2f\u5730\u8cea\u8abf\u67fb\u696d\u52d9","client_name":"\u56fd\u571f\u4ea4\u901a\u7701\u5317\u6d77\u9053\u958b\u767a\u5c40\u6e2f\u6e7e\u7a7a\u6e2f\u90e8","boring_xml_url":0,"boring_view_url":0,"soilmap_view_url":66,"soiltest_xml_url":0,"soiltest_view_url":66},{"id":130341,"code":"B4KJ201801001-8590","latitude":"42.63308528","longitude":"141.6282578","source_code":"PORT01003012108","project_name":"\u6e2f\u6e7e\u5c40","survey_name":"\u82eb\u5c0f\u7267\u6e2f\u5730\u8cea\u8abf\u67fb\u696d\u52d9","client_name":"\u56fd\u571f\u4ea4\u901a\u7701\u5317\u6d77\u9053\u958b\u767a\u5c40\u6e2f\u6e7e\u7a7a\u6e2f\u90e8","boring_xml_url":0,"boring_view_url":0,"soilmap_view_url":66,"soiltest_xml_url":0,"soiltest_view_url":66},{"id":130340,"code":"B4KJ201801001-8589","latitude":"42.63411333","longitude":"141.6276231","source_code":"PORT01003012107","project_name":"\u6e2f\u6e7e\u5c40","survey_name":"\u82eb\u5c0f\u7267\u6e2f\u5730\u8cea\u8abf\u67fb\u696d\u52d9","client_name":"\u56fd\u571f\u4ea4\u901a\u7701\u5317\u6d77\u9053\u958b\u767a\u5c40\u6e2f\u6e7e\u7a7a\u6e2f\u90e8","boring_xml_url":0,"boring_view_url":0,"soilmap_view_url":66,"soiltest_xml_url":0,"soiltest_view_url":66},{"id":130339,"code":"B4KJ201801001-8588","latitude":"42.63489139","longitude":"141.6271433","source_code":"PORT01003012106","project_name":"\u6e2f\u6e7e\u5c40","survey_name":"\u82eb\u5c0f\u7267\u6e2f\u5730\u8cea\u8abf\u67fb\u696d\u52d9","client_name":"\u56fd\u571f\u4ea4\u901a\u7701\u5317\u6d77\u9053\u958b\u767a\u5c40\u6e2f\u6e7e\u7a7a\u6e2f\u90e8","boring_xml_url":0,"boring_view_url":0,"soilmap_view_url":66,"soiltest_xml_url":0,"soiltest_view_url":66},{"id":130338,"code":"B4KJ201801001-8587","latitude":"42.63566972","longitude":"141.6266619","source_code":"PORT01003012105","project_name":"\u6e2f\u6e7e\u5c40","survey_name":"\u82eb\u5c0f\u7267\u6e2f\u5730\u8cea\u8abf\u67fb\u696d\u52d9","client_name":"\u56fd\u571f\u4ea4\u901a\u7701\u5317\u6d77\u9053\u958b\u767a\u5c40\u6e2f\u6e7e\u7a7a\u6e2f\u90e8","boring_xml_url":0,"boring_view_url":0,"soilmap_view_url":66,"soiltest_xml_url":0,"soiltest_view_url":66},{"id":130337,"code":"B4KJ201801001-8586","latitude":"42.63644778","longitude":"141.6261814","source_code":"PORT01003012104","project_name":"\u6e2f\u6e7e\u5c40","survey_name":"\u82eb\u5c0f\u7267\u6e2f\u5730\u8cea\u8abf\u67fb\u696d\u52d9","client_name":"\u56fd\u571f\u4ea4\u901a\u7701\u5317\u6d77\u9053\u958b\u767a\u5c40\u6e2f\u6e7e\u7a7a\u6e2f\u90e8","boring_xml_url":0,"boring_view_url":0,"soilmap_view_url":66,"soiltest_xml_url":0,"soiltest_view_url":66},{"id":130336,"code":"B4KJ201801001-8585","latitude":"42.63878428","longitude":"141.6247454","source_code":"PORT01003012101","project_name":"\u6e2f\u6e7e\u5c40","survey_name":"\u82eb\u5c0f\u7267\u6e2f\u5730\u8cea\u8abf\u67fb\u696d\u52d9","client_name":"\u56fd\u571f\u4ea4\u901a\u7701\u5317\u6d77\u9053\u958b\u767a\u5c40\u6e2f\u6e7e\u7a7a\u6e2f\u90e8","boring_xml_url":0,"boring_view_url":0,"soilmap_view_url":66,"soiltest_xml_url":0,"soiltest_view_url":66},{"id":130335,"code":"B4KJ201801001-8584","latitude":"45.4071825","longitude":"141.6790652","source_code":"PORT01002010013","project_name":"\u6e2f\u6e7e\u5c40","survey_name":"\u5e73\u621021\u5e74\u5ea6\u7a1a\u5185\u6e2f\u59161\u6e2f\u5730\u8cea\u8abf\u67fb\u696d\u52d9","client_name":"\u56fd\u571f\u4ea4\u901a\u7701\u5317\u6d77\u9053\u958b\u767a\u5c40\u6e2f\u6e7e\u7a7a\u6e2f\u90e8","boring_xml_url":0,"boring_view_url":0,"soilmap_view_url":66,"soiltest_xml_url":0,"soiltest_view_url":66},{"id":130334,"code":"B4KJ201801001-8583","latitude":"45.4071825","longitude":"141.6789418","source_code":"PORT01002010012","project_name":"\u6e2f\u6e7e\u5c40","survey_name":"\u5e73\u621021\u5e74\u5ea6\u7a1a\u5185\u6e2f\u59161\u6e2f\u5730\u8cea\u8abf\u67fb\u696d\u52d9","client_name":"\u56fd\u571f\u4ea4\u901a\u7701\u5317\u6d77\u9053\u958b\u767a\u5c40\u6e2f\u6e7e\u7a7a\u6e2f\u90e8","boring_xml_url":0,"boring_view_url":0,"soilmap_view_url":66,"soiltest_xml_url":0,"soiltest_view_url":66},{"id":130333,"code":"B4KJ201801001-8582","latitude":"45.408092","longitude":"141.6790464","source_code":"PORT01002010011","project_name":"\u6e2f\u6e7e\u5c40","survey_name":"\u5e73\u621021\u5e74\u5ea6\u7a1a\u5185\u6e2f\u59161\u6e2f\u5730\u8cea\u8abf\u67fb\u696d\u52d9","client_name":"\u56fd\u571f\u4ea4\u901a\u7701\u5317\u6d77\u9053\u958b\u767a\u5c40\u6e2f\u6e7e\u7a7a\u6e2f\u90e8","boring_xml_url":0,"boring_view_url":0,"soilmap_view_url":66,"soiltest_xml_url":0,"soiltest_view_url":66},{"id":130332,"code":"B4KJ201801001-8581","latitude":"45.40809014","longitude":"141.6789204","source_code":"PORT01002010010","project_name":"\u6e2f\u6e7e\u5c40","survey_name":"\u5e73\u621021\u5e74\u5ea6\u7a1a\u5185\u6e2f\u59161\u6e2f\u5730\u8cea\u8abf\u67fb\u696d\u52d9","client_name":"\u56fd\u571f\u4ea4\u901a\u7701\u5317\u6d77\u9053\u958b\u767a\u5c40\u6e2f\u6e7e\u7a7a\u6e2f\u90e8","boring_xml_url":0,"boring_view_url":0,"soilmap_view_url":66,"soiltest_xml_url":0,"soiltest_view_url":66},{"id":130331,"code":"B4KJ201801001-8580","latitude":"45.40902789","longitude":"141.679025","source_code":"PORT01002010009","project_name":"\u6e2f\u6e7e\u5c40","survey_name":"\u5e73\u621021\u5e74\u5ea6\u7a1a\u5185\u6e2f\u59161\u6e2f\u5730\u8cea\u8abf\u67fb\u696d\u52d9","client_name":"\u56fd\u571f\u4ea4\u901a\u7701\u5317\u6d77\u9053\u958b\u767a\u5c40\u6e2f\u6e7e\u7a7a\u6e2f\u90e8","boring_xml_url":0,"boring_view_url":0,"soilmap_view_url":66,"soiltest_xml_url":0,"soiltest_view_url":66},{"id":130330,"code":"B4KJ201801001-8579","latitude":"45.409026","longitude":"141.6788936","source_code":"PORT01002010008","project_name":"\u6e2f\u6e7e\u5c40","survey_name":"\u5e73\u621021\u5e74\u5ea6\u7a1a\u5185\u6e2f\u59161\u6e2f\u5730\u8cea\u8abf\u67fb\u696d\u52d9","client_name":"\u56fd\u571f\u4ea4\u901a\u7701\u5317\u6d77\u9053\u958b\u767a\u5c40\u6e2f\u6e7e\u7a7a\u6e2f\u90e8","boring_xml_url":0,"boring_view_url":0,"soilmap_view_url":66,"soiltest_xml_url":0,"soiltest_view_url":66},{"id":130329,"code":"B4KJ201801001-8578","latitude":"45.41080731","longitude":"141.6790733","source_code":"PORT01002010007","project_name":"\u6e2f\u6e7e\u5c40","survey_name":"\u5e73\u621021\u5e74\u5ea6\u7a1a\u5185\u6e2f\u59161\u6e2f\u5730\u8cea\u8abf\u67fb\u696d\u52d9","client_name":"\u56fd\u571f\u4ea4\u901a\u7701\u5317\u6d77\u9053\u958b\u767a\u5c40\u6e2f\u6e7e\u7a7a\u6e2f\u90e8","boring_xml_url":0,"boring_view_url":0,"soilmap_view_url":66,"soiltest_xml_url":0,"soiltest_view_url":66},{"id":130328,"code":"B4KJ201801001-8577","latitude":"45.41019911","longitude":"141.6789526","source_code":"PORT01002010006","project_name":"\u6e2f\u6e7e\u5c40","survey_name":"\u5e73\u621021\u5e74\u5ea6\u7a1a\u5185\u6e2f\u59161\u6e2f\u5730\u8cea\u8abf\u67fb\u696d\u52d9","client_name":"\u56fd\u571f\u4ea4\u901a\u7701\u5317\u6d77\u9053\u958b\u767a\u5c40\u6e2f\u6e7e\u7a7a\u6e2f\u90e8","boring_xml_url":0,"boring_view_url":0,"soilmap_view_url":66,"soiltest_xml_url":0,"soiltest_view_url":66},{"id":130327,"code":"B4KJ201801001-8576","latitude":"31.87648611","longitude":"131.4580944","source_code":"PORT45017020048","project_name":"\u6e2f\u6e7e\u5c40","survey_name":"\u5bae\u5d0e\u7a7a\u6e2f\u571f\u8cea\u8abf\u67fb(\u7b2c2\u6b21)","client_name":"\u56fd\u571f\u4ea4\u901a\u7701\u4e5d\u5dde\u5730\u65b9\u6574\u5099\u5c40","boring_xml_url":0,"boring_view_url":0,"soilmap_view_url":66,"soiltest_xml_url":0,"soiltest_view_url":66},{"id":130326,"code":"B4KJ201801001-8575","latitude":"31.87542778","longitude":"131.443725","source_code":"PORT45017020047","project_name":"\u6e2f\u6e7e\u5c40","survey_name":"\u5bae\u5d0e\u7a7a\u6e2f\u571f\u8cea\u8abf\u67fb(\u7b2c2\u6b21)","client_name":"\u56fd\u571f\u4ea4\u901a\u7701\u4e5d\u5dde\u5730\u65b9\u6574\u5099\u5c40","boring_xml_url":0,"boring_view_url":0,"soilmap_view_url":66,"soiltest_xml_url":0,"soiltest_view_url":66},{"id":130325,"code":"B4KJ201801001-8574","latitude":"31.878475","longitude":"131.4624361","source_code":"PORT45017020046","project_name":"\u6e2f\u6e7e\u5c40","survey_name":"\u5bae\u5d0e\u7a7a\u6e2f\u571f\u8cea\u8abf\u67fb(\u7b2c2\u6b21)","client_name":"\u56fd\u571f\u4ea4\u901a\u7701\u4e5d\u5dde\u5730\u65b9\u6574\u5099\u5c40","boring_xml_url":0,"boring_view_url":0,"soilmap_view_url":66,"soiltest_xml_url":0,"soiltest_view_url":66},{"id":130324,"code":"B4KJ201801001-8573","latitude":"31.87833806","longitude":"131.4605186","source_code":"PORT45017020045","project_name":"\u6e2f\u6e7e\u5c40","survey_name":"\u5bae\u5d0e\u822a\u7a7a\u571f\u8cea\u8abf\u67fb(\u7b2c2\u6b21)","client_name":"\u56fd\u571f\u4ea4\u901a\u7701\u4e5d\u5dde\u5730\u65b9\u6574\u5099\u5c40","boring_xml_url":0,"boring_view_url":0,"soilmap_view_url":66,"soiltest_xml_url":0,"soiltest_view_url":66},{"id":130323,"code":"B4KJ201801001-8572","latitude":"31.87876667","longitude":"131.4576278","source_code":"PORT45017020044","project_name":"\u6e2f\u6e7e\u5c40","survey_name":"\u5bae\u5d0e\u7a7a\u6e2f\u571f\u8cea\u8abf\u67fb(\u7b2c2\u6b21)","client_name":"\u56fd\u571f\u4ea4\u901a\u7701\u4e5d\u5dde\u5730\u65b9\u6574\u5099\u5c40","boring_xml_url":0,"boring_view_url":0,"soilmap_view_url":66,"soiltest_xml_url":0,"soiltest_view_url":66},{"id":130322,"code":"B4KJ201801001-8571","latitude":"31.87746944","longitude":"131.4484083","source_code":"PORT45017020043","project_name":"\u6e2f\u6e7e\u5c40","survey_name":"\u5bae\u5d0e\u7a7a\u6e2f\u571f\u8cea\u8abf\u67fb(\u7b2c2\u6b21)","client_name":"\u56fd\u571f\u4ea4\u901a\u7701\u4e5d\u5dde\u5730\u65b9\u6574\u5099\u5c40","boring_xml_url":0,"boring_view_url":0,"soilmap_view_url":66,"soiltest_xml_url":0,"soiltest_view_url":66},{"id":130321,"code":"B4KJ201801001-8570","latitude":"31.873675","longitude":"131.4486528","source_code":"PORT45017020042","project_name":"\u6e2f\u6e7e\u5c40","survey_name":"\u5bae\u5d0e\u7a7a\u6e2f\u571f\u8cea\u8abf\u67fb(\u7b2c2\u6b21)","client_name":"\u56fd\u571f\u4ea4\u901a\u7701\u4e5d\u5dde\u5730\u65b9\u6574\u5099\u5c40","boring_xml_url":0,"boring_view_url":0,"soilmap_view_url":66,"soiltest_xml_url":0,"soiltest_view_url":66},{"id":130320,"code":"B4KJ201801001-8569","latitude":"31.87978978","longitude":"131.4609046","source_code":"PORT45017020041","project_name":"\u6e2f\u6e7e\u5c40","survey_name":"\u5bae\u5d0e\u7a7a\u6e2f\u571f\u8cea\u8abf\u67fb","client_name":"\u56fd\u571f\u4ea4\u901a\u7701\u4e5d\u5dde\u5730\u65b9\u6574\u5099\u5c40","boring_xml_url":0,"boring_view_url":0,"soilmap_view_url":66,"soiltest_xml_url":0,"soiltest_view_url":66},{"id":130319,"code":"B4KJ201801001-8568","latitude":"31.87446161","longitude":"131.4626866","source_code":"PORT45017020040","project_name":"\u6e2f\u6e7e\u5c40","survey_name":"\u5bae\u5d0e\u7a7a\u6e2f\u571f\u8cea\u8abf\u67fb","client_name":"\u56fd\u571f\u4ea4\u901a\u7701\u4e5d\u5dde\u5730\u65b9\u6574\u5099\u5c40","boring_xml_url":0,"boring_view_url":0,"soilmap_view_url":66,"soiltest_xml_url":0,"soiltest_view_url":66},{"id":130318,"code":"B4KJ201801001-8567","latitude":"31.87345069","longitude":"131.4611335","source_code":"PORT45017020039","project_name":"\u6e2f\u6e7e\u5c40","survey_name":"\u5bae\u5d0e\u7a7a\u6e2f\u571f\u8cea\u8abf\u67fb","client_name":"\u56fd\u571f\u4ea4\u901a\u7701\u4e5d\u5dde\u5730\u65b9\u6574\u5099\u5c40","boring_xml_url":0,"boring_view_url":0,"soilmap_view_url":66,"soiltest_xml_url":0,"soiltest_view_url":66},{"id":130317,"code":"B4KJ201801001-8566","latitude":"31.87635808","longitude":"131.462173","source_code":"PORT45017020038","project_name":"\u6e2f\u6e7e\u5c40","survey_name":"\u5bae\u5d0e\u7a7a\u6e2f\u571f\u8cea\u8abf\u67fb","client_name":"\u56fd\u571f\u4ea4\u901a\u7701\u4e5d\u5dde\u5730\u65b9\u6574\u5099\u5c40","boring_xml_url":0,"boring_view_url":0,"soilmap_view_url":66,"soiltest_xml_url":0,"soiltest_view_url":66},{"id":130316,"code":"B4KJ201801001-8565","latitude":"31.88005608","longitude":"131.4609838","source_code":"PORT45017020037","project_name":"\u6e2f\u6e7e\u5c40","survey_name":"\u5bae\u5d0e\u7a7a\u6e2f\u571f\u8cea\u8abf\u67fb","client_name":"\u56fd\u571f\u4ea4\u901a\u7701\u4e5d\u5dde\u5730\u65b9\u6574\u5099\u5c40","boring_xml_url":0,"boring_view_url":0,"soilmap_view_url":66,"soiltest_xml_url":0,"soiltest_view_url":66}]}}