{"header":{"xyz":{"source":[],"mosaic":false},"page":6359,"raw":{"soiltest_result":"0","bbox":"57.598333,109.544722,1.933333,163.806111","page":"6359"},"conditions":{"soiltest_result":0,"north":57.598333,"west":109.544722,"south":1.933333,"east":163.806111},"success":true,"message":""},"data":{"meta":{"total":212844,"page":6359,"pages":7095,"count":30},"values":[{"id":129805,"code":"B4KJ201801001-8054","latitude":"26.31092276","longitude":"127.8756598","source_code":"PORT47051010446","project_name":"\u6e2f\u6e7e\u5c40","survey_name":"\u4e2d\u57ce\u6e7e\u6e2f(\u65b0\u6e2f\u5730\u533a)\u9632\u6ce2\u5824(\u6771)\u571f\u8cea\u8abf\u67fb(\u7b2c2\u6b21)","client_name":"\u5185\u95a3\u5e9c\u6c96\u7e04\u7dcf\u5408\u4e8b\u52d9\u5c40\u958b\u767a\u5efa\u8a2d\u90e8\u90a3\u8987\u6e2f\u6e7e\u30fb\u7a7a\u6e2f\u6574\u5099\u4e8b\u52d9\u6240","boring_xml_url":0,"boring_view_url":0,"soilmap_view_url":66,"soiltest_xml_url":0,"soiltest_view_url":66},{"id":129804,"code":"B4KJ201801001-8053","latitude":"26.31150699","longitude":"127.8764233","source_code":"PORT47051010445","project_name":"\u6e2f\u6e7e\u5c40","survey_name":"\u4e2d\u57ce\u6e7e\u6e2f(\u65b0\u6e2f\u5730\u533a)\u822a\u8def\u6cca\u5730(-13.0m)\u571f\u8cea\u8abf\u67fb(\u7b2c2\u6b21)","client_name":"\u5185\u95a3\u5e9c\u6c96\u7e04\u7dcf\u5408\u4e8b\u52d9\u5c40\u958b\u767a\u5efa\u8a2d\u90e8\u90a3\u8987\u6e2f\u6e7e\u30fb\u7a7a\u6e2f\u6574\u5099\u4e8b\u52d9\u6240","boring_xml_url":0,"boring_view_url":0,"soilmap_view_url":66,"soiltest_xml_url":0,"soiltest_view_url":0},{"id":129803,"code":"B4KJ201801001-8052","latitude":"26.33001064","longitude":"127.8408518","source_code":"PORT47051010438","project_name":"\u6e2f\u6e7e\u5c40","survey_name":"\u4e2d\u57ce\u6e7e\u6e2f\u65b0\u5e81\u820e\u571f\u8cea\u8abf\u67fb","client_name":"\u5185\u95a3\u5e9c\u6c96\u7e04\u7dcf\u5408\u4e8b\u52d9\u5c40\u958b\u767a\u5efa\u8a2d\u90e8\u90a3\u8987\u6e2f\u6e7e\u30fb\u7a7a\u6e2f\u6574\u5099\u4e8b\u52d9\u6240","boring_xml_url":0,"boring_view_url":0,"soilmap_view_url":66,"soiltest_xml_url":0,"soiltest_view_url":66},{"id":129802,"code":"B4KJ201801001-8051","latitude":"26.33012873","longitude":"127.8413027","source_code":"PORT47051010437","project_name":"\u6e2f\u6e7e\u5c40","survey_name":"\u4e2d\u57ce\u6e7e\u6e2f(\u65b0\u6e2f\u5730\u533a)\u822a\u8def\u6cca\u5730(-13.0m)\u571f\u8cea\u8abf\u67fb","client_name":"\u5185\u95a3\u5e9c\u6c96\u7e04\u7dcf\u5408\u4e8b\u52d9\u5c40\u958b\u767a\u5efa\u8a2d\u90e8\u90a3\u8987\u6e2f\u6e7e\u30fb\u7a7a\u6e2f\u6574\u5099\u4e8b\u52d9\u6240","boring_xml_url":0,"boring_view_url":0,"soilmap_view_url":66,"soiltest_xml_url":0,"soiltest_view_url":66},{"id":129801,"code":"B4KJ201801001-8050","latitude":"26.32762954","longitude":"127.8519285","source_code":"PORT47051010435","project_name":"\u6e2f\u6e7e\u5c40","survey_name":"\u4e2d\u57ce\u6e7e\u6e2f(\u65b0\u6e2f\u5730\u533a)\u822a\u8def\u6cca\u5730(-13.0m)\u571f\u8cea\u8abf\u67fb","client_name":"\u5185\u95a3\u5e9c\u6c96\u7e04\u7dcf\u5408\u4e8b\u52d9\u5c40\u958b\u767a\u5efa\u8a2d\u90e8\u90a3\u8987\u6e2f\u6e7e\u30fb\u7a7a\u6e2f\u6574\u5099\u4e8b\u52d9\u6240","boring_xml_url":0,"boring_view_url":0,"soilmap_view_url":66,"soiltest_xml_url":0,"soiltest_view_url":66},{"id":129800,"code":"B4KJ201801001-8049","latitude":"26.32679629","longitude":"127.8516508","source_code":"PORT47051010434","project_name":"\u6e2f\u6e7e\u5c40","survey_name":"\u4e2d\u57ce\u6e7e\u6e2f(\u65b0\u6e2f\u5730\u533a)\u822a\u8def\u6cca\u5730(-13.0m)\u571f\u8cea\u8abf\u67fb","client_name":"\u5185\u95a3\u5e9c\u6c96\u7e04\u7dcf\u5408\u4e8b\u52d9\u5c40\u958b\u767a\u5efa\u8a2d\u90e8\u90a3\u8987\u6e2f\u6e7e\u30fb\u7a7a\u6e2f\u6574\u5099\u4e8b\u52d9\u6240","boring_xml_url":0,"boring_view_url":0,"soilmap_view_url":66,"soiltest_xml_url":0,"soiltest_view_url":66},{"id":129799,"code":"B4KJ201801001-8048","latitude":"26.3273518","longitude":"127.8530395","source_code":"PORT47051010432","project_name":"\u6e2f\u6e7e\u5c40","survey_name":"\u4e2d\u57ce\u6e7e\u6e2f(\u65b0\u6e2f\u5730\u533a)\u822a\u8def\u6cca\u5730(-13.0m)\u571f\u8cea\u8abf\u67fb","client_name":"\u5185\u95a3\u5e9c\u6c96\u7e04\u7dcf\u5408\u4e8b\u52d9\u5c40\u958b\u767a\u5efa\u8a2d\u90e8\u90a3\u8987\u6e2f\u6e7e\u30fb\u7a7a\u6e2f\u6574\u5099\u4e8b\u52d9\u6240","boring_xml_url":0,"boring_view_url":0,"soilmap_view_url":66,"soiltest_xml_url":0,"soiltest_view_url":66},{"id":129798,"code":"B4KJ201801001-8047","latitude":"26.32651855","longitude":"127.8527618","source_code":"PORT47051010430","project_name":"\u6e2f\u6e7e\u5c40","survey_name":"\u4e2d\u57ce\u6e7e\u6e2f(\u65b0\u6e2f\u5730\u533a)\u822a\u8def\u6cca\u5730(-13.0m)\u571f\u8cea\u8abf\u67fb","client_name":"\u5185\u95a3\u5e9c\u6c96\u7e04\u7dcf\u5408\u4e8b\u52d9\u5c40\u958b\u767a\u5efa\u8a2d\u90e8\u90a3\u8987\u6e2f\u6e7e\u30fb\u7a7a\u6e2f\u6574\u5099\u4e8b\u52d9\u6240","boring_xml_url":0,"boring_view_url":0,"soilmap_view_url":66,"soiltest_xml_url":0,"soiltest_view_url":66},{"id":129797,"code":"B4KJ201801001-8046","latitude":"26.32735182","longitude":"127.8541505","source_code":"PORT47051010428","project_name":"\u6e2f\u6e7e\u5c40","survey_name":"\u4e2d\u57ce\u6e7e\u6e2f(\u65b0\u6e2f\u5730\u533a)\u822a\u8def\u6cca\u5730(-13.0m)\u571f\u8cea\u8abf\u67fb","client_name":"\u5185\u95a3\u5e9c\u6c96\u7e04\u7dcf\u5408\u4e8b\u52d9\u5c40\u958b\u767a\u5efa\u8a2d\u90e8\u90a3\u8987\u6e2f\u6e7e\u30fb\u7a7a\u6e2f\u6574\u5099\u4e8b\u52d9\u6240","boring_xml_url":0,"boring_view_url":0,"soilmap_view_url":66,"soiltest_xml_url":0,"soiltest_view_url":66},{"id":129796,"code":"B4KJ201801001-8045","latitude":"26.30846516","longitude":"127.8724826","source_code":"PORT47051010427","project_name":"\u6e2f\u6e7e\u5c40","survey_name":"\u4e2d\u57ce\u6e7e\u6e2f(\u65b0\u6e2f\u5730\u533a)\u9632\u6ce2\u5824(\u6771)\u571f\u8cea\u8abf\u67fb","client_name":"\u5185\u95a3\u5e9c\u6c96\u7e04\u7dcf\u5408\u4e8b\u52d9\u5c40\u958b\u767a\u5efa\u8a2d\u90e8\u90a3\u8987\u6e2f\u6e7e\u30fb\u7a7a\u6e2f\u6574\u5099\u4e8b\u52d9\u6240","boring_xml_url":0,"boring_view_url":0,"soilmap_view_url":66,"soiltest_xml_url":0,"soiltest_view_url":66},{"id":129795,"code":"B4KJ201801001-8044","latitude":"26.30887792","longitude":"127.8729877","source_code":"PORT47051010425","project_name":"\u6e2f\u6e7e\u5c40","survey_name":"\u4e2d\u57ce\u6e7e\u6e2f(\u65b0\u6e2f\u5730\u533a)\u9632\u6ce2\u5824(\u6771)\u571f\u8cea\u8abf\u67fb","client_name":"\u5185\u95a3\u5e9c\u6c96\u7e04\u7dcf\u5408\u4e8b\u52d9\u5c40\u958b\u767a\u5efa\u8a2d\u90e8\u90a3\u8987\u6e2f\u6e7e\u30fb\u7a7a\u6e2f\u6574\u5099\u4e8b\u52d9\u6240","boring_xml_url":0,"boring_view_url":0,"soilmap_view_url":66,"soiltest_xml_url":0,"soiltest_view_url":66},{"id":129794,"code":"B4KJ201801001-8043","latitude":"26.30946216","longitude":"127.8737512","source_code":"PORT47051010424","project_name":"\u6e2f\u6e7e\u5c40","survey_name":"\u4e2d\u57ce\u6e7e\u6e2f(\u65b0\u6e2f\u5730\u533a)\u9632\u6ce2\u5824(\u6771)\u571f\u8cea\u8abf\u67fb","client_name":"\u5185\u95a3\u5e9c\u6c96\u7e04\u7dcf\u5408\u4e8b\u52d9\u5c40\u958b\u767a\u5efa\u8a2d\u90e8\u90a3\u8987\u6e2f\u6e7e\u30fb\u7a7a\u6e2f\u6574\u5099\u4e8b\u52d9\u6240","boring_xml_url":0,"boring_view_url":0,"soilmap_view_url":66,"soiltest_xml_url":0,"soiltest_view_url":66},{"id":129793,"code":"B4KJ201801001-8042","latitude":"26.3100464","longitude":"127.8745146","source_code":"PORT47051010423","project_name":"\u6e2f\u6e7e\u5c40","survey_name":"\u4e2d\u57ce\u6e7e\u6e2f(\u65b0\u6e2f\u5730\u533a)\u9632\u6ce2\u5824(\u6771)\u571f\u8cea\u8abf\u67fb","client_name":"\u5185\u95a3\u5e9c\u6c96\u7e04\u7dcf\u5408\u4e8b\u52d9\u5c40\u958b\u767a\u5efa\u8a2d\u90e8\u90a3\u8987\u6e2f\u6e7e\u30fb\u7a7a\u6e2f\u6574\u5099\u4e8b\u52d9\u6240","boring_xml_url":0,"boring_view_url":0,"soilmap_view_url":66,"soiltest_xml_url":0,"soiltest_view_url":66},{"id":129792,"code":"B4KJ201801001-8041","latitude":"26.31063064","longitude":"127.8752781","source_code":"PORT47051010422","project_name":"\u6e2f\u6e7e\u5c40","survey_name":"\u4e2d\u57ce\u6e7e\u6e2f(\u65b0\u6e2f\u5730\u533a)\u9632\u6ce2\u5824(\u6771)\u571f\u8cea\u8abf\u67fb","client_name":"\u5185\u95a3\u5e9c\u6c96\u7e04\u7dcf\u5408\u4e8b\u52d9\u5c40\u958b\u767a\u5efa\u8a2d\u90e8\u90a3\u8987\u6e2f\u6e7e\u30fb\u7a7a\u6e2f\u6574\u5099\u4e8b\u52d9\u6240","boring_xml_url":0,"boring_view_url":0,"soilmap_view_url":66,"soiltest_xml_url":0,"soiltest_view_url":66},{"id":129791,"code":"B4KJ201801001-8040","latitude":"26.31121487","longitude":"127.8760416","source_code":"PORT47051010421","project_name":"\u6e2f\u6e7e\u5c40","survey_name":"\u4e2d\u57ce\u6e7e\u6e2f(\u65b0\u6e2f\u5730\u533a)\u9632\u6ce2\u5824(\u6771)\u571f\u8cea\u8abf\u67fb","client_name":"\u5185\u95a3\u5e9c\u6c96\u7e04\u7dcf\u5408\u4e8b\u52d9\u5c40\u958b\u767a\u5efa\u8a2d\u90e8\u90a3\u8987\u6e2f\u6e7e\u30fb\u7a7a\u6e2f\u6574\u5099\u4e8b\u52d9\u6240","boring_xml_url":0,"boring_view_url":0,"soilmap_view_url":66,"soiltest_xml_url":0,"soiltest_view_url":66},{"id":129790,"code":"B4KJ201801001-8039","latitude":"26.3117991","longitude":"127.8768051","source_code":"PORT47051010420","project_name":"\u6e2f\u6e7e\u5c40","survey_name":"\u4e2d\u57ce\u6e7e\u6e2f(\u65b0\u6e2f\u5730\u533a)\u9632\u6ce2\u5824(\u6771)\u571f\u8cea\u8abf\u67fb","client_name":"\u5185\u95a3\u5e9c\u6c96\u7e04\u7dcf\u5408\u4e8b\u52d9\u5c40\u958b\u767a\u5efa\u8a2d\u90e8\u90a3\u8987\u6e2f\u6e7e\u30fb\u7a7a\u6e2f\u6574\u5099\u4e8b\u52d9\u6240","boring_xml_url":0,"boring_view_url":0,"soilmap_view_url":66,"soiltest_xml_url":0,"soiltest_view_url":66},{"id":129789,"code":"B4KJ201801001-8038","latitude":"26.31227954","longitude":"127.8776508","source_code":"PORT47051010419","project_name":"\u6e2f\u6e7e\u5c40","survey_name":"\u4e2d\u57ce\u6e7e\u6e2f(\u65b0\u6e2f\u5730\u533a)\u9632\u6ce2\u5824(\u6771)\u571f\u8cea\u8abf\u67fb","client_name":"\u5185\u95a3\u5e9c\u6c96\u7e04\u7dcf\u5408\u4e8b\u52d9\u5c40\u958b\u767a\u5efa\u8a2d\u90e8\u90a3\u8987\u6e2f\u6e7e\u30fb\u7a7a\u6e2f\u6574\u5099\u4e8b\u52d9\u6240","boring_xml_url":0,"boring_view_url":0,"soilmap_view_url":66,"soiltest_xml_url":0,"soiltest_view_url":66},{"id":129788,"code":"B4KJ201801001-8037","latitude":"26.31344799","longitude":"127.8791778","source_code":"PORT47051010417","project_name":"\u6e2f\u6e7e\u5c40","survey_name":"\u4e2d\u57ce\u6e7e\u6e2f(\u65b0\u6e2f\u5730\u533a)\u9632\u6ce2\u5824(\u6771)\u571f\u8cea\u8abf\u67fb","client_name":"\u5185\u95a3\u5e9c\u6c96\u7e04\u7dcf\u5408\u4e8b\u52d9\u5c40\u958b\u767a\u5efa\u8a2d\u90e8\u90a3\u8987\u6e2f\u6e7e\u30fb\u7a7a\u6e2f\u6574\u5099\u4e8b\u52d9\u6240","boring_xml_url":0,"boring_view_url":0,"soilmap_view_url":66,"soiltest_xml_url":0,"soiltest_view_url":66},{"id":129787,"code":"B4KJ201801001-8036","latitude":"26.31403222","longitude":"127.8799412","source_code":"PORT47051010416","project_name":"\u6e2f\u6e7e\u5c40","survey_name":"\u4e2d\u57ce\u6e7e\u6e2f(\u65b0\u6e2f\u5730\u533a)\u7269\u63da\u5834(-4.0m)\u571f\u8cea\u8abf\u67fb","client_name":"\u5185\u95a3\u5e9c\u6c96\u7e04\u7dcf\u5408\u4e8b\u52d9\u5c40\u958b\u767a\u5efa\u8a2d\u90e8\u90a3\u8987\u6e2f\u6e7e\u30fb\u7a7a\u6e2f\u6574\u5099\u4e8b\u52d9\u6240","boring_xml_url":0,"boring_view_url":0,"soilmap_view_url":66,"soiltest_xml_url":0,"soiltest_view_url":66},{"id":129786,"code":"B4KJ201801001-8035","latitude":"26.32821351","longitude":"127.8402134","source_code":"PORT47051010415","project_name":"\u6e2f\u6e7e\u5c40","survey_name":"\u4e2d\u57ce\u6e7e\u6e2f(\u65b0\u6e2f\u5730\u533a)\u7269\u63da\u5834(-4.0m)\u571f\u8cea\u8abf\u67fb","client_name":"\u5185\u95a3\u5e9c\u6c96\u7e04\u7dcf\u5408\u4e8b\u52d9\u5c40\u958b\u767a\u5efa\u8a2d\u90e8\u90a3\u8987\u6e2f\u6e7e\u30fb\u7a7a\u6e2f\u6574\u5099\u4e8b\u52d9\u6240","boring_xml_url":0,"boring_view_url":0,"soilmap_view_url":66,"soiltest_xml_url":0,"soiltest_view_url":66},{"id":129785,"code":"B4KJ201801001-8034","latitude":"26.32813732","longitude":"127.8402887","source_code":"PORT47051010414","project_name":"\u6e2f\u6e7e\u5c40","survey_name":"\u4e2d\u57ce\u6e7e\u6e2f(\u65b0\u6e2f\u5730\u533a)\u7269\u63da\u5834(-4.0m)\u571f\u8cea\u8abf\u67fb","client_name":"\u5185\u95a3\u5e9c\u6c96\u7e04\u7dcf\u5408\u4e8b\u52d9\u5c40\u958b\u767a\u5efa\u8a2d\u90e8\u90a3\u8987\u6e2f\u6e7e\u30fb\u7a7a\u6e2f\u6574\u5099\u4e8b\u52d9\u6240","boring_xml_url":0,"boring_view_url":0,"soilmap_view_url":66,"soiltest_xml_url":0,"soiltest_view_url":66},{"id":129784,"code":"B4KJ201801001-8033","latitude":"26.3287563","longitude":"127.8409972","source_code":"PORT47051010413","project_name":"\u6e2f\u6e7e\u5c40","survey_name":"\u4e2d\u57ce\u6e7e\u6e2f(\u65b0\u6e2f\u5730\u533a)\u7269\u63da\u5834(-4.0m)\u571f\u8cea\u8abf\u67fb","client_name":"\u5185\u95a3\u5e9c\u6c96\u7e04\u7dcf\u5408\u4e8b\u52d9\u5c40\u958b\u767a\u5efa\u8a2d\u90e8\u90a3\u8987\u6e2f\u6e7e\u30fb\u7a7a\u6e2f\u6574\u5099\u4e8b\u52d9\u6240","boring_xml_url":0,"boring_view_url":0,"soilmap_view_url":66,"soiltest_xml_url":0,"soiltest_view_url":66},{"id":129783,"code":"B4KJ201801001-8032","latitude":"26.32888615","longitude":"127.8411908","source_code":"PORT47051010412","project_name":"\u6e2f\u6e7e\u5c40","survey_name":"\u4e2d\u57ce\u6e7e\u6e2f(\u65b0\u6e2f\u5730\u533a)\u822a\u8def\u6cca\u5730(-13.0m)\u571f\u8cea\u8abf\u67fb(\u7b2c3\u6b21)","client_name":"\u5185\u95a3\u5e9c\u6c96\u7e04\u7dcf\u5408\u4e8b\u52d9\u5c40\u958b\u767a\u5efa\u8a2d\u90e8\u90a3\u8987\u6e2f\u6e7e\u30fb\u7a7a\u6e2f\u6574\u5099\u4e8b\u52d9\u6240","boring_xml_url":0,"boring_view_url":0,"soilmap_view_url":66,"soiltest_xml_url":0,"soiltest_view_url":66},{"id":129782,"code":"B4KJ201801001-8031","latitude":"26.32762961","longitude":"127.8572058","source_code":"PORT47051010385","project_name":"\u6e2f\u6e7e\u5c40","survey_name":"\u4e2d\u57ce\u6e7e\u6e2f(\u65b0\u6e2f\u5730\u533a)\u8b77\u5cb8(\u9632\u6ce2)\u571f\u8cea\u8abf\u67fb(\u7b2c2\u6b21)","client_name":"\u5185\u95a3\u5e9c\u6c96\u7e04\u7dcf\u5408\u4e8b\u52d9\u5c40\u958b\u767a\u5efa\u8a2d\u90e8\u90a3\u8987\u6e2f\u6e7e\u30fb\u7a7a\u6e2f\u6574\u5099\u4e8b\u52d9\u6240","boring_xml_url":0,"boring_view_url":0,"soilmap_view_url":66,"soiltest_xml_url":0,"soiltest_view_url":66},{"id":129781,"code":"B4KJ201801001-8030","latitude":"26.32762612","longitude":"127.8571853","source_code":"PORT47051010384","project_name":"\u6e2f\u6e7e\u5c40","survey_name":"\u4e2d\u57ce\u6e7e\u6e2f(\u65b0\u6e2f\u5730\u533a)\u8b77\u5cb8(\u9632\u6ce2)\u571f\u8cea\u8abf\u67fb(\u7b2c2\u6b21)","client_name":"\u5185\u95a3\u5e9c\u6c96\u7e04\u7dcf\u5408\u4e8b\u52d9\u5c40\u958b\u767a\u5efa\u8a2d\u90e8\u90a3\u8987\u6e2f\u6e7e\u30fb\u7a7a\u6e2f\u6574\u5099\u4e8b\u52d9\u6240","boring_xml_url":0,"boring_view_url":0,"soilmap_view_url":66,"soiltest_xml_url":0,"soiltest_view_url":66},{"id":129780,"code":"B4KJ201801001-8029","latitude":"26.32744599","longitude":"127.8568026","source_code":"PORT47051010383","project_name":"\u6e2f\u6e7e\u5c40","survey_name":"\u4e2d\u57ce\u6e7e\u6e2f(\u65b0\u6e2f\u5730\u533a)\u8b77\u5cb8(\u9632\u6ce2)\u571f\u8cea\u8abf\u67fb(\u7b2c2\u6b21)","client_name":"\u5185\u95a3\u5e9c\u6c96\u7e04\u7dcf\u5408\u4e8b\u52d9\u5c40\u958b\u767a\u5efa\u8a2d\u90e8\u90a3\u8987\u6e2f\u6e7e\u30fb\u7a7a\u6e2f\u6574\u5099\u4e8b\u52d9\u6240","boring_xml_url":0,"boring_view_url":0,"soilmap_view_url":66,"soiltest_xml_url":0,"soiltest_view_url":66},{"id":129779,"code":"B4KJ201801001-8028","latitude":"26.32717547","longitude":"127.8565603","source_code":"PORT47051010382","project_name":"\u6e2f\u6e7e\u5c40","survey_name":"\u4e2d\u57ce\u6e7e\u6e2f(\u65b0\u6e2f\u5730\u533a)\u8b77\u5cb8(\u9632\u6ce2)\u571f\u8cea\u8abf\u67fb(\u7b2c2\u6b21)","client_name":"\u5185\u95a3\u5e9c\u6c96\u7e04\u7dcf\u5408\u4e8b\u52d9\u5c40\u958b\u767a\u5efa\u8a2d\u90e8\u90a3\u8987\u6e2f\u6e7e\u30fb\u7a7a\u6e2f\u6574\u5099\u4e8b\u52d9\u6240","boring_xml_url":0,"boring_view_url":0,"soilmap_view_url":66,"soiltest_xml_url":0,"soiltest_view_url":66},{"id":129778,"code":"B4KJ201801001-8027","latitude":"26.3266613","longitude":"127.8557928","source_code":"PORT47051010381","project_name":"\u6e2f\u6e7e\u5c40","survey_name":"\u4e2d\u57ce\u6e7e\u6e2f(\u65b0\u6e2f\u5730\u533a)\u8b77\u5cb8(\u9632\u6ce2)\u571f\u8cea\u8abf\u67fb(\u7b2c2\u6b21)","client_name":"\u5185\u95a3\u5e9c\u6c96\u7e04\u7dcf\u5408\u4e8b\u52d9\u5c40\u958b\u767a\u5efa\u8a2d\u90e8\u90a3\u8987\u6e2f\u6e7e\u30fb\u7a7a\u6e2f\u6574\u5099\u4e8b\u52d9\u6240","boring_xml_url":0,"boring_view_url":0,"soilmap_view_url":66,"soiltest_xml_url":0,"soiltest_view_url":66},{"id":129777,"code":"B4KJ201801001-8026","latitude":"26.32643089","longitude":"127.8556637","source_code":"PORT47051010380","project_name":"\u6e2f\u6e7e\u5c40","survey_name":"\u4e2d\u57ce\u6e7e\u6e2f(\u65b0\u6e2f\u5730\u533a)\u8b77\u5cb8(\u9632\u6ce2)\u571f\u8cea\u8abf\u67fb(\u7b2c2\u6b21)","client_name":"\u5185\u95a3\u5e9c\u6c96\u7e04\u7dcf\u5408\u4e8b\u52d9\u5c40\u958b\u767a\u5efa\u8a2d\u90e8\u90a3\u8987\u6e2f\u6e7e\u30fb\u7a7a\u6e2f\u6574\u5099\u4e8b\u52d9\u6240","boring_xml_url":0,"boring_view_url":0,"soilmap_view_url":66,"soiltest_xml_url":0,"soiltest_view_url":66},{"id":129776,"code":"B4KJ201801001-8025","latitude":"26.32625509","longitude":"127.8553023","source_code":"PORT47051010379","project_name":"\u6e2f\u6e7e\u5c40","survey_name":"\u4e2d\u57ce\u6e7e\u6e2f(\u65b0\u6e2f\u5730\u533a)\u8b77\u5cb8(\u9632\u6ce2)\u571f\u8cea\u8abf\u67fb(\u7b2c2\u6b21)","client_name":"\u5185\u95a3\u5e9c\u6c96\u7e04\u7dcf\u5408\u4e8b\u52d9\u5c40\u958b\u767a\u5efa\u8a2d\u90e8\u90a3\u8987\u6e2f\u6e7e\u30fb\u7a7a\u6e2f\u6574\u5099\u4e8b\u52d9\u6240","boring_xml_url":0,"boring_view_url":0,"soilmap_view_url":66,"soiltest_xml_url":0,"soiltest_view_url":66}]}}