{"header":{"xyz":{"source":[],"mosaic":false},"page":6362,"raw":{"soiltest_result":"0","bbox":"57.598333,109.544722,1.933333,163.806111","page":"6362"},"conditions":{"soiltest_result":0,"north":57.598333,"west":109.544722,"south":1.933333,"east":163.806111},"success":true,"message":""},"data":{"meta":{"total":212844,"page":6362,"pages":7095,"count":30},"values":[{"id":129715,"code":"B4KJ201801001-7964","latitude":"26.32401879","longitude":"127.8505398","source_code":"PORT47051010272","project_name":"\u6e2f\u6e7e\u5c40","survey_name":"\u4e2d\u57ce\u6e7e\u6e2f(\u65b0\u6e2f\u5730\u533a)\u6cca\u5730(-10.0m)(\u8986\u571f)\u571f\u8cea\u8abf\u67fb(\u7b2c2\u6b21)","client_name":"\u5185\u95a3\u5e9c\u6c96\u7e04\u7dcf\u5408\u4e8b\u52d9\u5c40\u958b\u767a\u5efa\u8a2d\u90e8\u90a3\u8987\u6e2f\u6e7e\u30fb\u7a7a\u6e2f\u6574\u5099\u4e8b\u52d9\u6240","boring_xml_url":0,"boring_view_url":0,"soilmap_view_url":66,"soiltest_xml_url":0,"soiltest_view_url":0},{"id":129714,"code":"B4KJ201801001-7963","latitude":"26.32263003","longitude":"127.8499843","source_code":"PORT47051010271","project_name":"\u6e2f\u6e7e\u5c40","survey_name":"\u4e2d\u57ce\u6e7e\u6e2f(\u65b0\u6e2f\u5730\u533a)\u6cca\u5730(-10.0m)(\u8986\u571f)\u571f\u8cea\u8abf\u67fb(\u7b2c2\u6b21)","client_name":"\u5185\u95a3\u5e9c\u6c96\u7e04\u7dcf\u5408\u4e8b\u52d9\u5c40\u958b\u767a\u5efa\u8a2d\u90e8\u90a3\u8987\u6e2f\u6e7e\u30fb\u7a7a\u6e2f\u6574\u5099\u4e8b\u52d9\u6240","boring_xml_url":0,"boring_view_url":0,"soilmap_view_url":66,"soiltest_xml_url":0,"soiltest_view_url":0},{"id":129713,"code":"B4KJ201801001-7962","latitude":"26.32318554","longitude":"127.8505398","source_code":"PORT47051010270","project_name":"\u6e2f\u6e7e\u5c40","survey_name":"\u4e2d\u57ce\u6e7e\u6e2f(\u65b0\u6e2f\u5730\u533a)\u6cca\u5730(-10.0m)(\u8986\u571f)\u571f\u8cea\u8abf\u67fb(\u7b2c2\u6b21)","client_name":"\u5185\u95a3\u5e9c\u6c96\u7e04\u7dcf\u5408\u4e8b\u52d9\u5c40\u958b\u767a\u5efa\u8a2d\u90e8\u90a3\u8987\u6e2f\u6e7e\u30fb\u7a7a\u6e2f\u6574\u5099\u4e8b\u52d9\u6240","boring_xml_url":0,"boring_view_url":0,"soilmap_view_url":66,"soiltest_xml_url":0,"soiltest_view_url":66},{"id":129712,"code":"B4KJ201801001-7961","latitude":"26.32374104","longitude":"127.8510953","source_code":"PORT47051010269","project_name":"\u6e2f\u6e7e\u5c40","survey_name":"\u4e2d\u57ce\u6e7e\u6e2f(\u65b0\u6e2f\u5730\u533a)\u6cca\u5730(-10.0m)(\u8986\u571f)\u571f\u8cea\u8abf\u67fb(\u7b2c2\u6b21)","client_name":"\u5185\u95a3\u5e9c\u6c96\u7e04\u7dcf\u5408\u4e8b\u52d9\u5c40\u958b\u767a\u5efa\u8a2d\u90e8\u90a3\u8987\u6e2f\u6e7e\u30fb\u7a7a\u6e2f\u6574\u5099\u4e8b\u52d9\u6240","boring_xml_url":0,"boring_view_url":0,"soilmap_view_url":66,"soiltest_xml_url":0,"soiltest_view_url":0},{"id":129711,"code":"B4KJ201801001-7960","latitude":"26.32207454","longitude":"127.8505398","source_code":"PORT47051010268","project_name":"\u6e2f\u6e7e\u5c40","survey_name":"\u4e2d\u57ce\u6e7e\u6e2f(\u65b0\u6e2f\u5730\u533a)\u6cca\u5730(-10.0m)(\u8986\u571f)\u571f\u8cea\u8abf\u67fb(\u7b2c2\u6b21)","client_name":"\u5185\u95a3\u5e9c\u6c96\u7e04\u7dcf\u5408\u4e8b\u52d9\u5c40\u958b\u767a\u5efa\u8a2d\u90e8\u90a3\u8987\u6e2f\u6e7e\u30fb\u7a7a\u6e2f\u6574\u5099\u4e8b\u52d9\u6240","boring_xml_url":0,"boring_view_url":0,"soilmap_view_url":66,"soiltest_xml_url":0,"soiltest_view_url":0},{"id":129710,"code":"B4KJ201801001-7959","latitude":"26.3223523","longitude":"127.8510953","source_code":"PORT47051010267","project_name":"\u6e2f\u6e7e\u5c40","survey_name":"\u4e2d\u57ce\u6e7e\u6e2f(\u65b0\u6e2f\u5730\u533a)\u6cca\u5730(-10.0m)(\u8986\u571f)\u571f\u8cea\u8abf\u67fb(\u7b2c2\u6b21)","client_name":"\u5185\u95a3\u5e9c\u6c96\u7e04\u7dcf\u5408\u4e8b\u52d9\u5c40\u958b\u767a\u5efa\u8a2d\u90e8\u90a3\u8987\u6e2f\u6e7e\u30fb\u7a7a\u6e2f\u6574\u5099\u4e8b\u52d9\u6240","boring_xml_url":0,"boring_view_url":0,"soilmap_view_url":66,"soiltest_xml_url":0,"soiltest_view_url":66},{"id":129709,"code":"B4KJ201801001-7958","latitude":"26.3229078","longitude":"127.8513731","source_code":"PORT47051010266","project_name":"\u6e2f\u6e7e\u5c40","survey_name":"\u4e2d\u57ce\u6e7e\u6e2f(\u65b0\u6e2f\u5730\u533a)\u6cca\u5730(-10.0m)(\u8986\u571f)\u571f\u8cea\u8abf\u67fb(\u7b2c2\u6b21)","client_name":"\u5185\u95a3\u5e9c\u6c96\u7e04\u7dcf\u5408\u4e8b\u52d9\u5c40\u958b\u767a\u5efa\u8a2d\u90e8\u90a3\u8987\u6e2f\u6e7e\u30fb\u7a7a\u6e2f\u6574\u5099\u4e8b\u52d9\u6240","boring_xml_url":0,"boring_view_url":0,"soilmap_view_url":66,"soiltest_xml_url":0,"soiltest_view_url":0},{"id":129708,"code":"B4KJ201801001-7957","latitude":"26.32151905","longitude":"127.8510953","source_code":"PORT47051010265","project_name":"\u6e2f\u6e7e\u5c40","survey_name":"\u4e2d\u57ce\u6e7e\u6e2f(\u65b0\u6e2f\u5730\u533a)\u6cca\u5730(-10.0m)(\u8986\u571f)\u571f\u8cea\u8abf\u67fb(\u7b2c2\u6b21)","client_name":"\u5185\u95a3\u5e9c\u6c96\u7e04\u7dcf\u5408\u4e8b\u52d9\u5c40\u958b\u767a\u5efa\u8a2d\u90e8\u90a3\u8987\u6e2f\u6e7e\u30fb\u7a7a\u6e2f\u6574\u5099\u4e8b\u52d9\u6240","boring_xml_url":0,"boring_view_url":0,"soilmap_view_url":66,"soiltest_xml_url":0,"soiltest_view_url":0},{"id":129707,"code":"B4KJ201801001-7956","latitude":"26.32207456","longitude":"127.8513731","source_code":"PORT47051010264","project_name":"\u6e2f\u6e7e\u5c40","survey_name":"\u4e2d\u57ce\u6e7e\u6e2f(\u65b0\u6e2f\u5730\u533a)\u6cca\u5730(-10.0m)(\u8986\u571f)\u571f\u8cea\u8abf\u67fb(\u7b2c2\u6b21)","client_name":"\u5185\u95a3\u5e9c\u6c96\u7e04\u7dcf\u5408\u4e8b\u52d9\u5c40\u958b\u767a\u5efa\u8a2d\u90e8\u90a3\u8987\u6e2f\u6e7e\u30fb\u7a7a\u6e2f\u6574\u5099\u4e8b\u52d9\u6240","boring_xml_url":0,"boring_view_url":0,"soilmap_view_url":66,"soiltest_xml_url":0,"soiltest_view_url":66},{"id":129706,"code":"B4KJ201801001-7955","latitude":"26.32263006","longitude":"127.8519286","source_code":"PORT47051010263","project_name":"\u6e2f\u6e7e\u5c40","survey_name":"\u4e2d\u57ce\u6e7e\u6e2f(\u65b0\u6e2f\u5730\u533a)\u6cca\u5730(-10.0m)(\u8986\u571f)\u571f\u8cea\u8abf\u67fb(\u7b2c2\u6b21)","client_name":"\u5185\u95a3\u5e9c\u6c96\u7e04\u7dcf\u5408\u4e8b\u52d9\u5c40\u958b\u767a\u5efa\u8a2d\u90e8\u90a3\u8987\u6e2f\u6e7e\u30fb\u7a7a\u6e2f\u6574\u5099\u4e8b\u52d9\u6240","boring_xml_url":0,"boring_view_url":0,"soilmap_view_url":66,"soiltest_xml_url":0,"soiltest_view_url":0},{"id":129705,"code":"B4KJ201801001-7954","latitude":"26.32124131","longitude":"127.8513731","source_code":"PORT47051010262","project_name":"\u6e2f\u6e7e\u5c40","survey_name":"\u4e2d\u57ce\u6e7e\u6e2f(\u65b0\u6e2f\u5730\u533a)\u6cca\u5730(-10.0m)(\u8986\u571f)\u571f\u8cea\u8abf\u67fb(\u7b2c2\u6b21)","client_name":"\u5185\u95a3\u5e9c\u6c96\u7e04\u7dcf\u5408\u4e8b\u52d9\u5c40\u958b\u767a\u5efa\u8a2d\u90e8\u90a3\u8987\u6e2f\u6e7e\u30fb\u7a7a\u6e2f\u6574\u5099\u4e8b\u52d9\u6240","boring_xml_url":0,"boring_view_url":0,"soilmap_view_url":66,"soiltest_xml_url":0,"soiltest_view_url":0},{"id":129704,"code":"B4KJ201801001-7953","latitude":"26.32179681","longitude":"127.8519286","source_code":"PORT47051010261","project_name":"\u6e2f\u6e7e\u5c40","survey_name":"\u4e2d\u57ce\u6e7e\u6e2f(\u65b0\u6e2f\u5730\u533a)\u6cca\u5730(-10.0m)(\u8986\u571f)\u571f\u8cea\u8abf\u67fb(\u7b2c2\u6b21)","client_name":"\u5185\u95a3\u5e9c\u6c96\u7e04\u7dcf\u5408\u4e8b\u52d9\u5c40\u958b\u767a\u5efa\u8a2d\u90e8\u90a3\u8987\u6e2f\u6e7e\u30fb\u7a7a\u6e2f\u6574\u5099\u4e8b\u52d9\u6240","boring_xml_url":0,"boring_view_url":0,"soilmap_view_url":66,"soiltest_xml_url":0,"soiltest_view_url":66},{"id":129703,"code":"B4KJ201801001-7952","latitude":"26.32207457","longitude":"127.8524841","source_code":"PORT47051010260","project_name":"\u6e2f\u6e7e\u5c40","survey_name":"\u4e2d\u57ce\u6e7e\u6e2f(\u65b0\u6e2f\u5730\u533a)\u6cca\u5730(-10.0m)(\u8986\u571f)\u571f\u8cea\u8abf\u67fb(\u7b2c2\u6b21)","client_name":"\u5185\u95a3\u5e9c\u6c96\u7e04\u7dcf\u5408\u4e8b\u52d9\u5c40\u958b\u767a\u5efa\u8a2d\u90e8\u90a3\u8987\u6e2f\u6e7e\u30fb\u7a7a\u6e2f\u6574\u5099\u4e8b\u52d9\u6240","boring_xml_url":0,"boring_view_url":0,"soilmap_view_url":66,"soiltest_xml_url":0,"soiltest_view_url":0},{"id":129702,"code":"B4KJ201801001-7951","latitude":"26.32457425","longitude":"127.8483178","source_code":"PORT47051010259","project_name":"\u6e2f\u6e7e\u5c40","survey_name":"\u4e2d\u57ce\u6e7e\u6e2f(\u65b0\u6e2f\u5730\u533a)\u6cca\u5730(-10.0m)(\u8986\u571f)\u571f\u8cea\u8abf\u67fb","client_name":"\u5185\u95a3\u5e9c\u6c96\u7e04\u7dcf\u5408\u4e8b\u52d9\u5c40\u958b\u767a\u5efa\u8a2d\u90e8\u90a3\u8987\u6e2f\u6e7e\u30fb\u7a7a\u6e2f\u6574\u5099\u4e8b\u52d9\u6240","boring_xml_url":0,"boring_view_url":0,"soilmap_view_url":66,"soiltest_xml_url":0,"soiltest_view_url":0},{"id":129701,"code":"B4KJ201801001-7950","latitude":"26.32401877","longitude":"127.849151","source_code":"PORT47051010258","project_name":"\u6e2f\u6e7e\u5c40","survey_name":"\u4e2d\u57ce\u6e7e\u6e2f(\u65b0\u6e2f\u5730\u533a)\u6cca\u5730(-10.0m)(\u8986\u571f)\u571f\u8cea\u8abf\u67fb","client_name":"\u5185\u95a3\u5e9c\u6c96\u7e04\u7dcf\u5408\u4e8b\u52d9\u5c40\u958b\u767a\u5efa\u8a2d\u90e8\u90a3\u8987\u6e2f\u6e7e\u30fb\u7a7a\u6e2f\u6574\u5099\u4e8b\u52d9\u6240","boring_xml_url":0,"boring_view_url":0,"soilmap_view_url":66,"soiltest_xml_url":0,"soiltest_view_url":0},{"id":129700,"code":"B4KJ201801001-7949","latitude":"26.32540749","longitude":"127.84804","source_code":"PORT47051010257","project_name":"\u6e2f\u6e7e\u5c40","survey_name":"\u4e2d\u57ce\u6e7e\u6e2f(\u65b0\u6e2f\u5730\u533a)\u6cca\u5730(-10.0m)(\u8986\u571f)\u571f\u8cea\u8abf\u67fb","client_name":"\u5185\u95a3\u5e9c\u6c96\u7e04\u7dcf\u5408\u4e8b\u52d9\u5c40\u958b\u767a\u5efa\u8a2d\u90e8\u90a3\u8987\u6e2f\u6e7e\u30fb\u7a7a\u6e2f\u6574\u5099\u4e8b\u52d9\u6240","boring_xml_url":0,"boring_view_url":0,"soilmap_view_url":66,"soiltest_xml_url":0,"soiltest_view_url":0},{"id":129699,"code":"B4KJ201801001-7948","latitude":"26.32512976","longitude":"127.8488733","source_code":"PORT47051010256","project_name":"\u6e2f\u6e7e\u5c40","survey_name":"\u4e2d\u57ce\u6e7e\u6e2f(\u65b0\u6e2f\u5730\u533a)\u6cca\u5730(-10.0m)(\u8986\u571f)\u571f\u8cea\u8abf\u67fb","client_name":"\u5185\u95a3\u5e9c\u6c96\u7e04\u7dcf\u5408\u4e8b\u52d9\u5c40\u958b\u767a\u5efa\u8a2d\u90e8\u90a3\u8987\u6e2f\u6e7e\u30fb\u7a7a\u6e2f\u6574\u5099\u4e8b\u52d9\u6240","boring_xml_url":0,"boring_view_url":0,"soilmap_view_url":66,"soiltest_xml_url":0,"soiltest_view_url":0},{"id":129698,"code":"B4KJ201801001-7947","latitude":"26.32457427","longitude":"127.8497065","source_code":"PORT47051010255","project_name":"\u6e2f\u6e7e\u5c40","survey_name":"\u4e2d\u57ce\u6e7e\u6e2f(\u65b0\u6e2f\u5730\u533a)\u6cca\u5730(-10.0m)(\u8986\u571f)\u571f\u8cea\u8abf\u67fb","client_name":"\u5185\u95a3\u5e9c\u6c96\u7e04\u7dcf\u5408\u4e8b\u52d9\u5c40\u958b\u767a\u5efa\u8a2d\u90e8\u90a3\u8987\u6e2f\u6e7e\u30fb\u7a7a\u6e2f\u6574\u5099\u4e8b\u52d9\u6240","boring_xml_url":0,"boring_view_url":0,"soilmap_view_url":66,"soiltest_xml_url":0,"soiltest_view_url":66},{"id":129697,"code":"B4KJ201801001-7946","latitude":"26.32429653","longitude":"127.850262","source_code":"PORT47051010254","project_name":"\u6e2f\u6e7e\u5c40","survey_name":"\u4e2d\u57ce\u6e7e\u6e2f(\u65b0\u6e2f\u5730\u533a)\u6cca\u5730(-10.0m)(\u8986\u571f)\u571f\u8cea\u8abf\u67fb","client_name":"\u5185\u95a3\u5e9c\u6c96\u7e04\u7dcf\u5408\u4e8b\u52d9\u5c40\u958b\u767a\u5efa\u8a2d\u90e8\u90a3\u8987\u6e2f\u6e7e\u30fb\u7a7a\u6e2f\u6574\u5099\u4e8b\u52d9\u6240","boring_xml_url":0,"boring_view_url":0,"soilmap_view_url":66,"soiltest_xml_url":0,"soiltest_view_url":0},{"id":129696,"code":"B4KJ201801001-7945","latitude":"26.3242965","longitude":"127.84804","source_code":"PORT47051010253","project_name":"\u6e2f\u6e7e\u5c40","survey_name":"\u4e2d\u57ce\u6e7e\u6e2f(\u65b0\u6e2f\u5730\u533a)\u6cca\u5730(-10.0m)(\u8986\u571f)\u571f\u8cea\u8abf\u67fb","client_name":"\u5185\u95a3\u5e9c\u6c96\u7e04\u7dcf\u5408\u4e8b\u52d9\u5c40\u958b\u767a\u5efa\u8a2d\u90e8\u90a3\u8987\u6e2f\u6e7e\u30fb\u7a7a\u6e2f\u6574\u5099\u4e8b\u52d9\u6240","boring_xml_url":0,"boring_view_url":0,"soilmap_view_url":66,"soiltest_xml_url":0,"soiltest_view_url":0},{"id":129695,"code":"B4KJ201801001-7944","latitude":"26.32374101","longitude":"127.8485955","source_code":"PORT47051010252","project_name":"\u6e2f\u6e7e\u5c40","survey_name":"\u4e2d\u57ce\u6e7e\u6e2f(\u65b0\u6e2f\u5730\u533a)\u6cca\u5730(-10.0m)(\u8986\u571f)\u571f\u8cea\u8abf\u67fb","client_name":"\u5185\u95a3\u5e9c\u6c96\u7e04\u7dcf\u5408\u4e8b\u52d9\u5c40\u958b\u767a\u5efa\u8a2d\u90e8\u90a3\u8987\u6e2f\u6e7e\u30fb\u7a7a\u6e2f\u6574\u5099\u4e8b\u52d9\u6240","boring_xml_url":0,"boring_view_url":0,"soilmap_view_url":66,"soiltest_xml_url":0,"soiltest_view_url":66},{"id":129694,"code":"B4KJ201801001-7943","latitude":"26.32318552","longitude":"127.849151","source_code":"PORT47051010251","project_name":"\u6e2f\u6e7e\u5c40","survey_name":"\u4e2d\u57ce\u6e7e\u6e2f(\u65b0\u6e2f\u5730\u533a)\u6cca\u5730(-10.0m)(\u8986\u571f)\u571f\u8cea\u8abf\u67fb","client_name":"\u5185\u95a3\u5e9c\u6c96\u7e04\u7dcf\u5408\u4e8b\u52d9\u5c40\u958b\u767a\u5efa\u8a2d\u90e8\u90a3\u8987\u6e2f\u6e7e\u30fb\u7a7a\u6e2f\u6574\u5099\u4e8b\u52d9\u6240","boring_xml_url":0,"boring_view_url":0,"soilmap_view_url":66,"soiltest_xml_url":0,"soiltest_view_url":0},{"id":129693,"code":"B4KJ201801001-7942","latitude":"26.33068469","longitude":"127.8458179","source_code":"PORT47051010250","project_name":"\u6e2f\u6e7e\u5c40","survey_name":"\u4e2d\u57ce\u6e7e\u6e2f(\u65b0\u6e2f\u5730\u533a)\u6e2f\u6e7e\u65bd\u8a2d\u7528\u5730(-10.0m)\u571f\u8cea\u8abf\u67fb","client_name":"\u5185\u95a3\u5e9c\u6c96\u7e04\u7dcf\u5408\u4e8b\u52d9\u5c40\u958b\u767a\u5efa\u8a2d\u90e8\u90a3\u8987\u6e2f\u6e7e\u30fb\u7a7a\u6e2f\u6574\u5099\u4e8b\u52d9\u6240","boring_xml_url":0,"boring_view_url":0,"soilmap_view_url":66,"soiltest_xml_url":0,"soiltest_view_url":66},{"id":129692,"code":"B4KJ201801001-7941","latitude":"26.32594602","longitude":"127.8510496","source_code":"PORT47051010249","project_name":"\u6e2f\u6e7e\u5c40","survey_name":"\u4e2d\u57ce\u6e7e\u6e2f(\u65b0\u6e2f\u5730\u533a)\u6e2f\u6e7e\u65bd\u8a2d\u7528\u5730(-10.0m)\u571f\u8cea\u8abf\u67fb","client_name":"\u5185\u95a3\u5e9c\u6c96\u7e04\u7dcf\u5408\u4e8b\u52d9\u5c40\u958b\u767a\u5efa\u8a2d\u90e8\u90a3\u8987\u6e2f\u6e7e\u30fb\u7a7a\u6e2f\u6574\u5099\u4e8b\u52d9\u6240","boring_xml_url":0,"boring_view_url":0,"soilmap_view_url":66,"soiltest_xml_url":0,"soiltest_view_url":66},{"id":129691,"code":"B4KJ201801001-7940","latitude":"26.32563573","longitude":"127.8509531","source_code":"PORT47051010248","project_name":"\u6e2f\u6e7e\u5c40","survey_name":"\u4e2d\u57ce\u6e7e\u6e2f(\u65b0\u6e2f\u5730\u533a)\u6e2f\u6e7e\u65bd\u8a2d\u7528\u5730(-10.0m)\u571f\u8cea\u8abf\u67fb","client_name":"\u5185\u95a3\u5e9c\u6c96\u7e04\u7dcf\u5408\u4e8b\u52d9\u5c40\u958b\u767a\u5efa\u8a2d\u90e8\u90a3\u8987\u6e2f\u6e7e\u30fb\u7a7a\u6e2f\u6574\u5099\u4e8b\u52d9\u6240","boring_xml_url":0,"boring_view_url":0,"soilmap_view_url":66,"soiltest_xml_url":0,"soiltest_view_url":66},{"id":129690,"code":"B4KJ201801001-7939","latitude":"26.32603653","longitude":"127.8511979","source_code":"PORT47051010247","project_name":"\u6e2f\u6e7e\u5c40","survey_name":"\u4e2d\u57ce\u6e7e\u6e2f(\u65b0\u6e2f\u5730\u533a)\u6e2f\u6e7e\u65bd\u8a2d\u7528\u5730(-10.0m)\u571f\u8cea\u8abf\u67fb","client_name":"\u5185\u95a3\u5e9c\u6c96\u7e04\u7dcf\u5408\u4e8b\u52d9\u5c40\u958b\u767a\u5efa\u8a2d\u90e8\u90a3\u8987\u6e2f\u6e7e\u30fb\u7a7a\u6e2f\u6574\u5099\u4e8b\u52d9\u6240","boring_xml_url":0,"boring_view_url":0,"soilmap_view_url":66,"soiltest_xml_url":0,"soiltest_view_url":66},{"id":129689,"code":"B4KJ201801001-7938","latitude":"26.32584308","longitude":"127.8510285","source_code":"PORT47051010246","project_name":"\u6e2f\u6e7e\u5c40","survey_name":"\u4e2d\u57ce\u6e7e\u6e2f(\u65b0\u6e2f\u5730\u533a)\u6e2f\u6e7e\u65bd\u8a2d\u7528\u5730(-10.0m)\u571f\u8cea\u8abf\u67fb","client_name":"\u5185\u95a3\u5e9c\u6c96\u7e04\u7dcf\u5408\u4e8b\u52d9\u5c40\u958b\u767a\u5efa\u8a2d\u90e8\u90a3\u8987\u6e2f\u6e7e\u30fb\u7a7a\u6e2f\u6574\u5099\u4e8b\u52d9\u6240","boring_xml_url":0,"boring_view_url":0,"soilmap_view_url":66,"soiltest_xml_url":0,"soiltest_view_url":66},{"id":129688,"code":"B4KJ201801001-7937","latitude":"26.3256445","longitude":"127.8508794","source_code":"PORT47051010245","project_name":"\u6e2f\u6e7e\u5c40","survey_name":"\u4e2d\u57ce\u6e7e\u6e2f(\u65b0\u6e2f\u5730\u533a)\u5cb8\u58c1(-13.0m)\u30c1\u30a7\u30c3\u30af\u30dc\u30fc\u30ea\u30f3\u30b0","client_name":"\u5185\u95a3\u5e9c\u6c96\u7e04\u7dcf\u5408\u4e8b\u52d9\u5c40\u958b\u767a\u5efa\u8a2d\u90e8\u90a3\u8987\u6e2f\u6e7e\u30fb\u7a7a\u6e2f\u6574\u5099\u4e8b\u52d9\u6240","boring_xml_url":0,"boring_view_url":0,"soilmap_view_url":66,"soiltest_xml_url":0,"soiltest_view_url":66},{"id":129687,"code":"B4KJ201801001-7936","latitude":"26.32485552","longitude":"127.8520176","source_code":"PORT47051010244","project_name":"\u6e2f\u6e7e\u5c40","survey_name":"\u4e2d\u57ce\u6e7e\u6e2f(\u65b0\u6e2f\u5730\u533a)\u5cb8\u58c1(-13.0m)\u30c1\u30a7\u30c3\u30af\u30dc\u30fc\u30ea\u30f3\u30b0","client_name":"\u5185\u95a3\u5e9c\u6c96\u7e04\u7dcf\u5408\u4e8b\u52d9\u5c40\u958b\u767a\u5efa\u8a2d\u90e8\u90a3\u8987\u6e2f\u6e7e\u30fb\u7a7a\u6e2f\u6574\u5099\u4e8b\u52d9\u6240","boring_xml_url":0,"boring_view_url":0,"soilmap_view_url":66,"soiltest_xml_url":0,"soiltest_view_url":66},{"id":129686,"code":"B4KJ201801001-7935","latitude":"26.32501581","longitude":"127.8518895","source_code":"PORT47051010243","project_name":"\u6e2f\u6e7e\u5c40","survey_name":"\u4e2d\u57ce\u6e7e\u6e2f(\u65b0\u6e2f\u5730\u533a)\u5cb8\u58c1(-13.0m)\u30c1\u30a7\u30c3\u30af\u30dc\u30fc\u30ea\u30f3\u30b0","client_name":"\u5185\u95a3\u5e9c\u6c96\u7e04\u7dcf\u5408\u4e8b\u52d9\u5c40\u958b\u767a\u5efa\u8a2d\u90e8\u90a3\u8987\u6e2f\u6e7e\u30fb\u7a7a\u6e2f\u6574\u5099\u4e8b\u52d9\u6240","boring_xml_url":0,"boring_view_url":0,"soilmap_view_url":66,"soiltest_xml_url":0,"soiltest_view_url":66}]}}