{"header":{"xyz":{"source":[],"mosaic":false},"page":6382,"raw":{"soiltest_result":"0","bbox":"57.598333,109.544722,1.933333,163.806111","page":"6382"},"conditions":{"soiltest_result":0,"north":57.598333,"west":109.544722,"south":1.933333,"east":163.806111},"success":true,"message":""},"data":{"meta":{"total":212844,"page":6382,"pages":7095,"count":30},"values":[{"id":129115,"code":"B4KJ201801001-7364","latitude":"24.3222375","longitude":"124.1694971","source_code":"PORT47004010007","project_name":"\u6e2f\u6e7e\u5c40","survey_name":"\u77f3\u57a3\u6e2f\u571f\u8cea\u8abf\u67fb\u571f\u8cea\u8abf\u67fb","client_name":"\u5185\u95a3\u5e9c\u6c96\u7e04\u7dcf\u5408\u4e8b\u52d9\u5c40\u958b\u767a\u5efa\u8a2d\u90e8\u90a3\u8987\u6e2f\u6e7e\u30fb\u7a7a\u6e2f\u6574\u5099\u4e8b\u52d9\u6240","boring_xml_url":0,"boring_view_url":0,"soilmap_view_url":66,"soiltest_xml_url":0,"soiltest_view_url":66},{"id":129114,"code":"B4KJ201801001-7363","latitude":"24.32279299","longitude":"124.1689416","source_code":"PORT47004010006","project_name":"\u6e2f\u6e7e\u5c40","survey_name":"\u77f3\u57a3\u6e2f\u571f\u8cea\u8abf\u67fb\u571f\u8cea\u8abf\u67fb","client_name":"\u5185\u95a3\u5e9c\u6c96\u7e04\u7dcf\u5408\u4e8b\u52d9\u5c40\u958b\u767a\u5efa\u8a2d\u90e8\u90a3\u8987\u6e2f\u6e7e\u30fb\u7a7a\u6e2f\u6574\u5099\u4e8b\u52d9\u6240","boring_xml_url":0,"boring_view_url":0,"soilmap_view_url":66,"soiltest_xml_url":0,"soiltest_view_url":66},{"id":129113,"code":"B4KJ201801001-7362","latitude":"24.32307074","longitude":"124.1689416","source_code":"PORT47004010005","project_name":"\u6e2f\u6e7e\u5c40","survey_name":"\u77f3\u57a3\u6e2f\u571f\u8cea\u8abf\u67fb\u571f\u8cea\u8abf\u67fb","client_name":"\u5185\u95a3\u5e9c\u6c96\u7e04\u7dcf\u5408\u4e8b\u52d9\u5c40\u958b\u767a\u5efa\u8a2d\u90e8\u90a3\u8987\u6e2f\u6e7e\u30fb\u7a7a\u6e2f\u6574\u5099\u4e8b\u52d9\u6240","boring_xml_url":0,"boring_view_url":0,"soilmap_view_url":66,"soiltest_xml_url":0,"soiltest_view_url":66},{"id":129112,"code":"B4KJ201801001-7361","latitude":"24.32307073","longitude":"124.1681083","source_code":"PORT47004010004","project_name":"\u6e2f\u6e7e\u5c40","survey_name":"\u77f3\u57a3\u6e2f\u571f\u8cea\u8abf\u67fb\u571f\u8cea\u8abf\u67fb","client_name":"\u5185\u95a3\u5e9c\u6c96\u7e04\u7dcf\u5408\u4e8b\u52d9\u5c40\u958b\u767a\u5efa\u8a2d\u90e8\u90a3\u8987\u6e2f\u6e7e\u30fb\u7a7a\u6e2f\u6574\u5099\u4e8b\u52d9\u6240","boring_xml_url":0,"boring_view_url":0,"soilmap_view_url":66,"soiltest_xml_url":0,"soiltest_view_url":66},{"id":129111,"code":"B4KJ201801001-7360","latitude":"24.32529267","longitude":"124.1633865","source_code":"PORT47004010003","project_name":"\u6e2f\u6e7e\u5c40","survey_name":"\u77f3\u57a3\u6e2f\u571f\u8cea\u8abf\u67fb\u571f\u8cea\u8abf\u67fb","client_name":"\u5185\u95a3\u5e9c\u6c96\u7e04\u7dcf\u5408\u4e8b\u52d9\u5c40\u958b\u767a\u5efa\u8a2d\u90e8\u90a3\u8987\u6e2f\u6e7e\u30fb\u7a7a\u6e2f\u6574\u5099\u4e8b\u52d9\u6240","boring_xml_url":0,"boring_view_url":0,"soilmap_view_url":66,"soiltest_xml_url":0,"soiltest_view_url":66},{"id":129110,"code":"B4KJ201801001-7359","latitude":"24.32557043","longitude":"124.163942","source_code":"PORT47004010002","project_name":"\u6e2f\u6e7e\u5c40","survey_name":"\u77f3\u57a3\u6e2f\u571f\u8cea\u8abf\u67fb\u571f\u8cea\u8abf\u67fb","client_name":"\u5185\u95a3\u5e9c\u6c96\u7e04\u7dcf\u5408\u4e8b\u52d9\u5c40\u958b\u767a\u5efa\u8a2d\u90e8\u90a3\u8987\u6e2f\u6e7e\u30fb\u7a7a\u6e2f\u6574\u5099\u4e8b\u52d9\u6240","boring_xml_url":0,"boring_view_url":0,"soilmap_view_url":66,"soiltest_xml_url":0,"soiltest_view_url":66},{"id":129109,"code":"B4KJ201801001-7358","latitude":"24.32557044","longitude":"124.1647753","source_code":"PORT47004010001","project_name":"\u6e2f\u6e7e\u5c40","survey_name":"\u77f3\u57a3\u6e2f\u571f\u8cea\u8abf\u67fb\u571f\u8cea\u8abf\u67fb","client_name":"\u5185\u95a3\u5e9c\u6c96\u7e04\u7dcf\u5408\u4e8b\u52d9\u5c40\u958b\u767a\u5efa\u8a2d\u90e8\u90a3\u8987\u6e2f\u6e7e\u30fb\u7a7a\u6e2f\u6574\u5099\u4e8b\u52d9\u6240","boring_xml_url":0,"boring_view_url":0,"soilmap_view_url":66,"soiltest_xml_url":0,"soiltest_view_url":66},{"id":129108,"code":"B4KJ201801001-7357","latitude":"24.32557044","longitude":"124.1653308","source_code":"PORT47004010000","project_name":"\u6e2f\u6e7e\u5c40","survey_name":"\u77f3\u57a3\u6e2f\u571f\u8cea\u8abf\u67fb\u571f\u8cea\u8abf\u67fb","client_name":"\u5185\u95a3\u5e9c\u6c96\u7e04\u7dcf\u5408\u4e8b\u52d9\u5c40\u958b\u767a\u5efa\u8a2d\u90e8\u90a3\u8987\u6e2f\u6e7e\u30fb\u7a7a\u6e2f\u6574\u5099\u4e8b\u52d9\u6240","boring_xml_url":0,"boring_view_url":0,"soilmap_view_url":66,"soiltest_xml_url":0,"soiltest_view_url":66},{"id":129107,"code":"B4KJ201801001-7356","latitude":"24.81677778","longitude":"125.2671389","source_code":"PORT47003010619","project_name":"\u6e2f\u6e7e\u5c40","survey_name":"\u5e73\u826f\u6e2f(\u4e0b\u5d0e\u5730\u533a)\u6cca\u5730(-10.0m)\u571f\u8cea\u8abf\u67fb\u696d\u52d9","client_name":"\u5185\u95a3\u5e9c\u6c96\u7e04\u7dcf\u5408\u4e8b\u52d9\u5c40\u958b\u767a\u5efa\u8a2d\u90e8\u90a3\u8987\u6e2f\u6e7e\u30fb\u7a7a\u6e2f\u6574\u5099\u4e8b\u52d9\u6240","boring_xml_url":0,"boring_view_url":0,"soilmap_view_url":66,"soiltest_xml_url":0,"soiltest_view_url":66},{"id":129106,"code":"B4KJ201801001-7355","latitude":"24.82480556","longitude":"125.2658333","source_code":"PORT47003010618","project_name":"\u6e2f\u6e7e\u5c40","survey_name":"\u5e73\u826f\u6e2f(\u4e0b\u5d0e\u5730\u533a)\u6cca\u5730(-10.0m)\u571f\u8cea\u8abf\u67fb\u696d\u52d9","client_name":"\u5185\u95a3\u5e9c\u6c96\u7e04\u7dcf\u5408\u4e8b\u52d9\u5c40\u958b\u767a\u5efa\u8a2d\u90e8\u90a3\u8987\u6e2f\u6e7e\u30fb\u7a7a\u6e2f\u6574\u5099\u4e8b\u52d9\u6240","boring_xml_url":0,"boring_view_url":0,"soilmap_view_url":66,"soiltest_xml_url":0,"soiltest_view_url":66},{"id":129105,"code":"B4KJ201801001-7354","latitude":"24.81772222","longitude":"125.2708056","source_code":"PORT47003010617","project_name":"\u6e2f\u6e7e\u5c40","survey_name":"\u5e73\u826f\u6e2f(\u4e0b\u5d0e\u5730\u533a)\u6cca\u5730(-10.0m)\u571f\u8cea\u8abf\u67fb\u696d\u52d9","client_name":"\u5185\u95a3\u5e9c\u6c96\u7e04\u7dcf\u5408\u4e8b\u52d9\u5c40\u958b\u767a\u5efa\u8a2d\u90e8\u90a3\u8987\u6e2f\u6e7e\u30fb\u7a7a\u6e2f\u6574\u5099\u4e8b\u52d9\u6240","boring_xml_url":0,"boring_view_url":0,"soilmap_view_url":66,"soiltest_xml_url":0,"soiltest_view_url":66},{"id":129104,"code":"B4KJ201801001-7353","latitude":"24.82072222","longitude":"125.27025","source_code":"PORT47003010616","project_name":"\u6e2f\u6e7e\u5c40","survey_name":"\u5e73\u826f\u6e2f(\u4e0b\u5d0e\u5730\u533a)\u6cca\u5730(-10.0m)\u571f\u8cea\u8abf\u67fb\u696d\u52d9","client_name":"\u5185\u95a3\u5e9c\u6c96\u7e04\u7dcf\u5408\u4e8b\u52d9\u5c40\u958b\u767a\u5efa\u8a2d\u90e8\u90a3\u8987\u6e2f\u6e7e\u30fb\u7a7a\u6e2f\u6574\u5099\u4e8b\u52d9\u6240","boring_xml_url":0,"boring_view_url":0,"soilmap_view_url":66,"soiltest_xml_url":0,"soiltest_view_url":66},{"id":129103,"code":"B4KJ201801001-7352","latitude":"24.82265108","longitude":"125.2780902","source_code":"PORT47003010615","project_name":"\u6e2f\u6e7e\u5c40","survey_name":"\u5e73\u826f\u6e2f(\u4e0b\u5d0e\u5730\u533a)\u5cb8\u58c1(-10.0m)\u571f\u8cea","client_name":"\u5185\u95a3\u5e9c\u6c96\u7e04\u7dcf\u5408\u4e8b\u52d9\u5c40\u958b\u767a\u5efa\u8a2d\u90e8\u90a3\u8987\u6e2f\u6e7e\u30fb\u7a7a\u6e2f\u6574\u5099\u4e8b\u52d9\u6240","boring_xml_url":0,"boring_view_url":0,"soilmap_view_url":66,"soiltest_xml_url":0,"soiltest_view_url":66},{"id":129102,"code":"B4KJ201801001-7351","latitude":"24.82310553","longitude":"125.2779366","source_code":"PORT47003010614","project_name":"\u6e2f\u6e7e\u5c40","survey_name":"\u5e73\u826f\u6e2f(\u4e0b\u5d0e\u5730\u533a)\u5cb8\u58c1(-10.0m)\u571f\u8cea","client_name":"\u5185\u95a3\u5e9c\u6c96\u7e04\u7dcf\u5408\u4e8b\u52d9\u5c40\u958b\u767a\u5efa\u8a2d\u90e8\u90a3\u8987\u6e2f\u6e7e\u30fb\u7a7a\u6e2f\u6574\u5099\u4e8b\u52d9\u6240","boring_xml_url":0,"boring_view_url":0,"soilmap_view_url":66,"soiltest_xml_url":0,"soiltest_view_url":66},{"id":129101,"code":"B4KJ201801001-7350","latitude":"24.83394842","longitude":"125.2754253","source_code":"PORT47003010613","project_name":"\u6e2f\u6e7e\u5c40","survey_name":"\u5e73\u826f\u6e2f(\u672c\u6e2f\u5730\u533a)\u9632\u6ce2\u5824(\u4e0b\u5d0e\u5317)(\u7b2c\u4e8c)\u571f\u8cea\u8abf\u67fb(\u7b2c2\u6b21)","client_name":"\u5185\u95a3\u5e9c\u6c96\u7e04\u7dcf\u5408\u4e8b\u52d9\u5c40\u958b\u767a\u5efa\u8a2d\u90e8\u90a3\u8987\u6e2f\u6e7e\u30fb\u7a7a\u6e2f\u6574\u5099\u4e8b\u52d9\u6240","boring_xml_url":0,"boring_view_url":0,"soilmap_view_url":66,"soiltest_xml_url":0,"soiltest_view_url":66},{"id":129100,"code":"B4KJ201801001-7349","latitude":"24.83407236","longitude":"125.2751806","source_code":"PORT47003010612","project_name":"\u6e2f\u6e7e\u5c40","survey_name":"\u5e73\u826f\u6e2f(\u672c\u6e2f\u5730\u533a)\u9632\u6ce2\u5824(\u4e0b\u5d0e\u5317)(\u7b2c\u4e8c)\u571f\u8cea\u8abf\u67fb(\u7b2c2\u6b21)","client_name":"\u5185\u95a3\u5e9c\u6c96\u7e04\u7dcf\u5408\u4e8b\u52d9\u5c40\u958b\u767a\u5efa\u8a2d\u90e8\u90a3\u8987\u6e2f\u6e7e\u30fb\u7a7a\u6e2f\u6574\u5099\u4e8b\u52d9\u6240","boring_xml_url":0,"boring_view_url":0,"soilmap_view_url":66,"soiltest_xml_url":0,"soiltest_view_url":66},{"id":129099,"code":"B4KJ201801001-7348","latitude":"24.83389878","longitude":"125.275235","source_code":"PORT47003010611","project_name":"\u6e2f\u6e7e\u5c40","survey_name":"\u5e73\u826f\u6e2f(\u672c\u6e2f\u5730\u533a)\u9632\u6ce2\u5824(\u4e0b\u5d0e\u5317)(\u7b2c\u4e8c)\u571f\u8cea\u8abf\u67fb(\u7b2c2\u6b21)","client_name":"\u5185\u95a3\u5e9c\u6c96\u7e04\u7dcf\u5408\u4e8b\u52d9\u5c40\u958b\u767a\u5efa\u8a2d\u90e8\u90a3\u8987\u6e2f\u6e7e\u30fb\u7a7a\u6e2f\u6574\u5099\u4e8b\u52d9\u6240","boring_xml_url":0,"boring_view_url":0,"soilmap_view_url":66,"soiltest_xml_url":0,"soiltest_view_url":66},{"id":129098,"code":"B4KJ201801001-7347","latitude":"24.83372519","longitude":"125.2752894","source_code":"PORT47003010610","project_name":"\u6e2f\u6e7e\u5c40","survey_name":"\u5e73\u826f\u6e2f(\u672c\u6e2f\u5730\u533a)\u9632\u6ce2\u5824(\u4e0b\u5d0e\u5317)(\u7b2c\u4e8c)\u571f\u8cea\u8abf\u67fb(\u7b2c2\u6b21)","client_name":"\u5185\u95a3\u5e9c\u6c96\u7e04\u7dcf\u5408\u4e8b\u52d9\u5c40\u958b\u767a\u5efa\u8a2d\u90e8\u90a3\u8987\u6e2f\u6e7e\u30fb\u7a7a\u6e2f\u6574\u5099\u4e8b\u52d9\u6240","boring_xml_url":0,"boring_view_url":0,"soilmap_view_url":66,"soiltest_xml_url":0,"soiltest_view_url":66},{"id":129097,"code":"B4KJ201801001-7346","latitude":"24.83377469","longitude":"125.2747595","source_code":"PORT47003010609","project_name":"\u6e2f\u6e7e\u5c40","survey_name":"\u5e73\u826f\u6e2f(\u672c\u6e2f\u5730\u533a)\u9632\u6ce2\u5824(\u4e0b\u5d0e\u5317)(\u7b2c\u4e8c)\u571f\u8cea\u8abf\u67fb(\u7b2c2\u6b21)","client_name":"\u5185\u95a3\u5e9c\u6c96\u7e04\u7dcf\u5408\u4e8b\u52d9\u5c40\u958b\u767a\u5efa\u8a2d\u90e8\u90a3\u8987\u6e2f\u6e7e\u30fb\u7a7a\u6e2f\u6574\u5099\u4e8b\u52d9\u6240","boring_xml_url":0,"boring_view_url":0,"soilmap_view_url":66,"soiltest_xml_url":0,"soiltest_view_url":66},{"id":129096,"code":"B4KJ201801001-7345","latitude":"24.83382417","longitude":"125.2742296","source_code":"PORT47003010608","project_name":"\u6e2f\u6e7e\u5c40","survey_name":"\u5e73\u826f\u6e2f(\u672c\u6e2f\u5730\u533a)\u9632\u6ce2\u5824(\u4e0b\u5d0e\u5317)(\u7b2c\u4e8c)\u571f\u8cea\u8abf\u67fb(\u7b2c2\u6b21)","client_name":"\u5185\u95a3\u5e9c\u6c96\u7e04\u7dcf\u5408\u4e8b\u52d9\u5c40\u958b\u767a\u5efa\u8a2d\u90e8\u90a3\u8987\u6e2f\u6e7e\u30fb\u7a7a\u6e2f\u6574\u5099\u4e8b\u52d9\u6240","boring_xml_url":0,"boring_view_url":0,"soilmap_view_url":66,"soiltest_xml_url":0,"soiltest_view_url":66},{"id":129095,"code":"B4KJ201801001-7344","latitude":"24.83365058","longitude":"125.274284","source_code":"PORT47003010607","project_name":"\u6e2f\u6e7e\u5c40","survey_name":"\u5e73\u826f\u6e2f(\u672c\u6e2f\u5730\u533a)\u9632\u6ce2\u5824(\u4e0b\u5d0e\u5317)(\u7b2c\u4e8c)\u571f\u8cea\u8abf\u67fb(\u7b2c2\u6b21)","client_name":"\u5185\u95a3\u5e9c\u6c96\u7e04\u7dcf\u5408\u4e8b\u52d9\u5c40\u958b\u767a\u5efa\u8a2d\u90e8\u90a3\u8987\u6e2f\u6e7e\u30fb\u7a7a\u6e2f\u6574\u5099\u4e8b\u52d9\u6240","boring_xml_url":0,"boring_view_url":0,"soilmap_view_url":66,"soiltest_xml_url":0,"soiltest_view_url":66},{"id":129094,"code":"B4KJ201801001-7343","latitude":"24.833477","longitude":"125.2743384","source_code":"PORT47003010606","project_name":"\u6e2f\u6e7e\u5c40","survey_name":"\u5e73\u826f\u6e2f(\u672c\u6e2f\u5730\u533a)\u9632\u6ce2\u5824(\u4e0b\u5d0e\u5317)(\u7b2c\u4e8c)\u571f\u8cea\u8abf\u67fb(\u7b2c2\u6b21)","client_name":"\u5185\u95a3\u5e9c\u6c96\u7e04\u7dcf\u5408\u4e8b\u52d9\u5c40\u958b\u767a\u5efa\u8a2d\u90e8\u90a3\u8987\u6e2f\u6e7e\u30fb\u7a7a\u6e2f\u6574\u5099\u4e8b\u52d9\u6240","boring_xml_url":0,"boring_view_url":0,"soilmap_view_url":66,"soiltest_xml_url":0,"soiltest_view_url":66},{"id":129093,"code":"B4KJ201801001-7342","latitude":"24.83352647","longitude":"125.2738085","source_code":"PORT47003010605","project_name":"\u6e2f\u6e7e\u5c40","survey_name":"\u5e73\u826f\u6e2f(\u672c\u6e2f\u5730\u533a)\u9632\u6ce2\u5824(\u4e0b\u5d0e\u5317)(\u7b2c\u4e8c)\u571f\u8cea\u8abf\u67fb(\u7b2c2\u6b21)","client_name":"\u5185\u95a3\u5e9c\u6c96\u7e04\u7dcf\u5408\u4e8b\u52d9\u5c40\u958b\u767a\u5efa\u8a2d\u90e8\u90a3\u8987\u6e2f\u6e7e\u30fb\u7a7a\u6e2f\u6574\u5099\u4e8b\u52d9\u6240","boring_xml_url":0,"boring_view_url":0,"soilmap_view_url":66,"soiltest_xml_url":0,"soiltest_view_url":66},{"id":129092,"code":"B4KJ201801001-7341","latitude":"24.81908333","longitude":"125.2799722","source_code":"PORT47003010594","project_name":"\u6e2f\u6e7e\u5c40","survey_name":"\u5e73\u826f\u6e2f(\u4e0b\u5d0e\u5730\u533a)\u6e2f\u6e7e\u65bd\u8a2d\u7528\u5730(-10.0m)\u4ed61\u4ef6\u571f\u8cea\u8abf\u67fb","client_name":"\u5185\u95a3\u5e9c\u6c96\u7e04\u7dcf\u5408\u4e8b\u52d9\u5c40\u958b\u767a\u5efa\u8a2d\u90e8\u90a3\u8987\u6e2f\u6e7e\u30fb\u7a7a\u6e2f\u6574\u5099\u4e8b\u52d9\u6240","boring_xml_url":0,"boring_view_url":0,"soilmap_view_url":66,"soiltest_xml_url":0,"soiltest_view_url":66},{"id":129091,"code":"B4KJ201801001-7340","latitude":"24.81666667","longitude":"125.2796111","source_code":"PORT47003010593","project_name":"\u6e2f\u6e7e\u5c40","survey_name":"\u5e73\u826f\u6e2f(\u4e0b\u5d0e\u5730\u533a)\u6e2f\u6e7e\u65bd\u8a2d\u7528\u5730(-10.0m)\u4ed61\u4ef6\u571f\u8cea\u8abf\u67fb","client_name":"\u5185\u95a3\u5e9c\u6c96\u7e04\u7dcf\u5408\u4e8b\u52d9\u5c40\u958b\u767a\u5efa\u8a2d\u90e8\u90a3\u8987\u6e2f\u6e7e\u30fb\u7a7a\u6e2f\u6574\u5099\u4e8b\u52d9\u6240","boring_xml_url":0,"boring_view_url":0,"soilmap_view_url":66,"soiltest_xml_url":0,"soiltest_view_url":66},{"id":129090,"code":"B4KJ201801001-7339","latitude":"24.81666872","longitude":"125.2666791","source_code":"PORT47003010592","project_name":"\u6e2f\u6e7e\u5c40","survey_name":"\u5e73\u826f\u6e2f(\u4e0b\u5d0e\u5730\u533a)\u6e2f\u6e7e\u65bd\u8a2d\u7528\u5730(-10.0m)\u4ed61\u4ef6\u571f\u8cea\u8abf\u67fb","client_name":"\u5185\u95a3\u5e9c\u6c96\u7e04\u7dcf\u5408\u4e8b\u52d9\u5c40\u958b\u767a\u5efa\u8a2d\u90e8\u90a3\u8987\u6e2f\u6e7e\u30fb\u7a7a\u6e2f\u6574\u5099\u4e8b\u52d9\u6240","boring_xml_url":0,"boring_view_url":0,"soilmap_view_url":66,"soiltest_xml_url":0,"soiltest_view_url":66},{"id":129089,"code":"B4KJ201801001-7338","latitude":"24.81691667","longitude":"125.2792778","source_code":"PORT47003010591","project_name":"\u6e2f\u6e7e\u5c40","survey_name":"\u5e73\u826f\u6e2f(\u4e0b\u5d0e\u5730\u533a)\u6e2f\u6e7e\u65bd\u8a2d\u7528\u5730(-10.0m)\u4ed61\u4ef6\u571f\u8cea\u8abf\u67fb","client_name":"\u5185\u95a3\u5e9c\u6c96\u7e04\u7dcf\u5408\u4e8b\u52d9\u5c40\u958b\u767a\u5efa\u8a2d\u90e8\u90a3\u8987\u6e2f\u6e7e\u30fb\u7a7a\u6e2f\u6574\u5099\u4e8b\u52d9\u6240","boring_xml_url":0,"boring_view_url":0,"soilmap_view_url":66,"soiltest_xml_url":0,"soiltest_view_url":66},{"id":129088,"code":"B4KJ201801001-7337","latitude":"24.80313576","longitude":"125.2615797","source_code":"PORT47003010582","project_name":"\u6e2f\u6e7e\u5c40","survey_name":"\u5e73\u826f\u6e2f(\u30c8\u30a5\u30ea\u30d0\u30fc\u5730\u533a)\u8b77\u5cb8(\u9632\u6ce2)\u571f\u8cea\u8abf\u67fb","client_name":"\u5185\u95a3\u5e9c\u6c96\u7e04\u7dcf\u5408\u4e8b\u52d9\u5c40\u958b\u767a\u5efa\u8a2d\u90e8\u90a3\u8987\u6e2f\u6e7e\u30fb\u7a7a\u6e2f\u6574\u5099\u4e8b\u52d9\u6240","boring_xml_url":0,"boring_view_url":0,"soilmap_view_url":66,"soiltest_xml_url":0,"soiltest_view_url":66},{"id":129087,"code":"B4KJ201801001-7336","latitude":"24.80262454","longitude":"125.2622497","source_code":"PORT47003010581","project_name":"\u6e2f\u6e7e\u5c40","survey_name":"\u5e73\u826f\u6e2f(\u30c8\u30a5\u30ea\u30d0\u30fc\u5730\u533a)\u8b77\u5cb8(\u9632\u6ce2)\u571f\u8cea\u8abf\u67fb","client_name":"\u5185\u95a3\u5e9c\u6c96\u7e04\u7dcf\u5408\u4e8b\u52d9\u5c40\u958b\u767a\u5efa\u8a2d\u90e8\u90a3\u8987\u6e2f\u6e7e\u30fb\u7a7a\u6e2f\u6574\u5099\u4e8b\u52d9\u6240","boring_xml_url":0,"boring_view_url":0,"soilmap_view_url":66,"soiltest_xml_url":0,"soiltest_view_url":66},{"id":129086,"code":"B4KJ201801001-7335","latitude":"24.80283179","longitude":"125.2621519","source_code":"PORT47003010580","project_name":"\u6e2f\u6e7e\u5c40","survey_name":"\u5e73\u826f\u6e2f\u6db2\u72b6\u5316\u5224\u5b9a\u571f\u8cea\u8abf\u67fb","client_name":"\u5185\u95a3\u5e9c\u6c96\u7e04\u7dcf\u5408\u4e8b\u52d9\u5c40\u958b\u767a\u5efa\u8a2d\u90e8\u90a3\u8987\u6e2f\u6e7e\u30fb\u7a7a\u6e2f\u6574\u5099\u4e8b\u52d9\u6240","boring_xml_url":0,"boring_view_url":0,"soilmap_view_url":66,"soiltest_xml_url":0,"soiltest_view_url":66}]}}