{"header":{"xyz":{"source":[],"mosaic":false},"page":6384,"raw":{"soiltest_result":"0","bbox":"57.598333,109.544722,1.933333,163.806111","page":"6384"},"conditions":{"soiltest_result":0,"north":57.598333,"west":109.544722,"south":1.933333,"east":163.806111},"success":true,"message":""},"data":{"meta":{"total":212844,"page":6384,"pages":7095,"count":30},"values":[{"id":129055,"code":"B4KJ201801001-7304","latitude":"24.80297324","longitude":"125.2582664","source_code":"PORT47003010532","project_name":"\u6e2f\u6e7e\u5c40","survey_name":"\u5e73\u826f\u6e2f(\u30c8\u30a5\u30ea\u30d0\u30fc\u5730\u533a)\u8b77\u5cb8(\u7dd1\u5730)\u571f\u8cea\u8abf\u67fb","client_name":"\u5185\u95a3\u5e9c\u6c96\u7e04\u7dcf\u5408\u4e8b\u52d9\u5c40\u958b\u767a\u5efa\u8a2d\u90e8\u90a3\u8987\u6e2f\u6e7e\u30fb\u7a7a\u6e2f\u6574\u5099\u4e8b\u52d9\u6240","boring_xml_url":0,"boring_view_url":0,"soilmap_view_url":66,"soiltest_xml_url":0,"soiltest_view_url":66},{"id":129054,"code":"B4KJ201801001-7303","latitude":"24.80263354","longitude":"125.25695","source_code":"PORT47003010531","project_name":"\u6e2f\u6e7e\u5c40","survey_name":"\u5e73\u826f\u6e2f(\u30c8\u30a5\u30ea\u30d0\u30fc\u5730\u533a)\u8b77\u5cb8(\u7dd1\u5730)\u571f\u8cea\u8abf\u67fb","client_name":"\u5185\u95a3\u5e9c\u6c96\u7e04\u7dcf\u5408\u4e8b\u52d9\u5c40\u958b\u767a\u5efa\u8a2d\u90e8\u90a3\u8987\u6e2f\u6e7e\u30fb\u7a7a\u6e2f\u6574\u5099\u4e8b\u52d9\u6240","boring_xml_url":0,"boring_view_url":0,"soilmap_view_url":66,"soiltest_xml_url":0,"soiltest_view_url":66},{"id":129053,"code":"B4KJ201801001-7302","latitude":"24.80238704","longitude":"125.2572826","source_code":"PORT47003010530","project_name":"\u6e2f\u6e7e\u5c40","survey_name":"\u5e73\u826f\u6e2f(\u30c8\u30a5\u30ea\u30d0\u30fc\u5730\u533a)\u8b77\u5cb8(\u7dd1\u5730)\u571f\u8cea\u8abf\u67fb","client_name":"\u5185\u95a3\u5e9c\u6c96\u7e04\u7dcf\u5408\u4e8b\u52d9\u5c40\u958b\u767a\u5efa\u8a2d\u90e8\u90a3\u8987\u6e2f\u6e7e\u30fb\u7a7a\u6e2f\u6574\u5099\u4e8b\u52d9\u6240","boring_xml_url":0,"boring_view_url":0,"soilmap_view_url":66,"soiltest_xml_url":0,"soiltest_view_url":66},{"id":129052,"code":"B4KJ201801001-7301","latitude":"24.80120859","longitude":"125.2575978","source_code":"PORT47003010529","project_name":"\u6e2f\u6e7e\u5c40","survey_name":"\u5e73\u826f\u6e2f(\u30c8\u30a5\u30ea\u30d0\u30fc\u5730\u533a)\u8b77\u5cb8(\u7dd1\u5730)\u571f\u8cea\u8abf\u67fb","client_name":"\u5185\u95a3\u5e9c\u6c96\u7e04\u7dcf\u5408\u4e8b\u52d9\u5c40\u958b\u767a\u5efa\u8a2d\u90e8\u90a3\u8987\u6e2f\u6e7e\u30fb\u7a7a\u6e2f\u6574\u5099\u4e8b\u52d9\u6240","boring_xml_url":0,"boring_view_url":0,"soilmap_view_url":66,"soiltest_xml_url":0,"soiltest_view_url":66},{"id":129051,"code":"B4KJ201801001-7300","latitude":"24.80031658","longitude":"125.2577419","source_code":"PORT47003010528","project_name":"\u6e2f\u6e7e\u5c40","survey_name":"\u5e73\u826f\u6e2f(\u30c8\u30a5\u30ea\u30d0\u30fc\u5730\u533a)\u8b77\u5cb8(\u7dd1\u5730)\u571f\u8cea\u8abf\u67fb","client_name":"\u5185\u95a3\u5e9c\u6c96\u7e04\u7dcf\u5408\u4e8b\u52d9\u5c40\u958b\u767a\u5efa\u8a2d\u90e8\u90a3\u8987\u6e2f\u6e7e\u30fb\u7a7a\u6e2f\u6574\u5099\u4e8b\u52d9\u6240","boring_xml_url":0,"boring_view_url":0,"soilmap_view_url":66,"soiltest_xml_url":0,"soiltest_view_url":66},{"id":129050,"code":"B4KJ201801001-7299","latitude":"24.79943699","longitude":"125.2576712","source_code":"PORT47003010527","project_name":"\u6e2f\u6e7e\u5c40","survey_name":"\u5e73\u826f\u6e2f(\u30c8\u30a5\u30ea\u30d0\u30fc\u5730\u533a)\u8b77\u5cb8(\u9632\u6ce2)\u571f\u8cea\u8abf\u67fb","client_name":"\u5185\u95a3\u5e9c\u6c96\u7e04\u7dcf\u5408\u4e8b\u52d9\u5c40\u958b\u767a\u5efa\u8a2d\u90e8\u90a3\u8987\u6e2f\u6e7e\u30fb\u7a7a\u6e2f\u6574\u5099\u4e8b\u52d9\u6240","boring_xml_url":0,"boring_view_url":0,"soilmap_view_url":66,"soiltest_xml_url":0,"soiltest_view_url":66},{"id":129049,"code":"B4KJ201801001-7298","latitude":"24.80331102","longitude":"125.258008","source_code":"PORT47003010526","project_name":"\u6e2f\u6e7e\u5c40","survey_name":"\u5e73\u826f\u6e2f(\u30c8\u30a5\u30ea\u30d0\u30fc\u5730\u533a)\u8b77\u5cb8(\u9632\u6ce2)\u571f\u8cea\u8abf\u67fb","client_name":"\u5185\u95a3\u5e9c\u6c96\u7e04\u7dcf\u5408\u4e8b\u52d9\u5c40\u958b\u767a\u5efa\u8a2d\u90e8\u90a3\u8987\u6e2f\u6e7e\u30fb\u7a7a\u6e2f\u6574\u5099\u4e8b\u52d9\u6240","boring_xml_url":0,"boring_view_url":0,"soilmap_view_url":66,"soiltest_xml_url":0,"soiltest_view_url":66},{"id":129048,"code":"B4KJ201801001-7297","latitude":"24.80358877","longitude":"125.258008","source_code":"PORT47003010525","project_name":"\u6e2f\u6e7e\u5c40","survey_name":"\u5e73\u826f\u6e2f(\u30c8\u30a5\u30ea\u30d0\u30fc\u5730\u533a)\u8b77\u5cb8(\u9632\u6ce2)\u571f\u8cea\u8abf\u67fb","client_name":"\u5185\u95a3\u5e9c\u6c96\u7e04\u7dcf\u5408\u4e8b\u52d9\u5c40\u958b\u767a\u5efa\u8a2d\u90e8\u90a3\u8987\u6e2f\u6e7e\u30fb\u7a7a\u6e2f\u6574\u5099\u4e8b\u52d9\u6240","boring_xml_url":0,"boring_view_url":0,"soilmap_view_url":66,"soiltest_xml_url":0,"soiltest_view_url":66},{"id":129047,"code":"B4KJ201801001-7296","latitude":"24.80303328","longitude":"125.2588413","source_code":"PORT47003010524","project_name":"\u6e2f\u6e7e\u5c40","survey_name":"\u5e73\u826f\u6e2f(\u30c8\u30a5\u30ea\u30d0\u30fc\u5730\u533a)\u8b77\u5cb8(\u9632\u6ce2)\u571f\u8cea\u8abf\u67fb","client_name":"\u5185\u95a3\u5e9c\u6c96\u7e04\u7dcf\u5408\u4e8b\u52d9\u5c40\u958b\u767a\u5efa\u8a2d\u90e8\u90a3\u8987\u6e2f\u6e7e\u30fb\u7a7a\u6e2f\u6574\u5099\u4e8b\u52d9\u6240","boring_xml_url":0,"boring_view_url":0,"soilmap_view_url":66,"soiltest_xml_url":0,"soiltest_view_url":66},{"id":129046,"code":"B4KJ201801001-7295","latitude":"24.80303328","longitude":"125.2588413","source_code":"PORT47003010523","project_name":"\u6e2f\u6e7e\u5c40","survey_name":"\u5e73\u826f\u6e2f(\u30c8\u30a5\u30ea\u30d0\u30fc\u5730\u533a)\u8b77\u5cb8(\u9632\u6ce2)\u571f\u8cea\u8abf\u67fb","client_name":"\u5185\u95a3\u5e9c\u6c96\u7e04\u7dcf\u5408\u4e8b\u52d9\u5c40\u958b\u767a\u5efa\u8a2d\u90e8\u90a3\u8987\u6e2f\u6e7e\u30fb\u7a7a\u6e2f\u6574\u5099\u4e8b\u52d9\u6240","boring_xml_url":0,"boring_view_url":0,"soilmap_view_url":66,"soiltest_xml_url":0,"soiltest_view_url":66},{"id":129045,"code":"B4KJ201801001-7294","latitude":"24.80303328","longitude":"125.2588413","source_code":"PORT47003010522","project_name":"\u6e2f\u6e7e\u5c40","survey_name":"\u5e73\u826f\u6e2f(\u30c8\u30a5\u30ea\u30d0\u30fc\u5730\u533a)\u8b77\u5cb8(\u9632\u6ce2)\u571f\u8cea\u8abf\u67fb","client_name":"\u5185\u95a3\u5e9c\u6c96\u7e04\u7dcf\u5408\u4e8b\u52d9\u5c40\u958b\u767a\u5efa\u8a2d\u90e8\u90a3\u8987\u6e2f\u6e7e\u30fb\u7a7a\u6e2f\u6574\u5099\u4e8b\u52d9\u6240","boring_xml_url":0,"boring_view_url":0,"soilmap_view_url":66,"soiltest_xml_url":0,"soiltest_view_url":66},{"id":129044,"code":"B4KJ201801001-7293","latitude":"24.80331103","longitude":"125.259119","source_code":"PORT47003010521","project_name":"\u6e2f\u6e7e\u5c40","survey_name":"\u5e73\u826f\u6e2f(\u30c8\u30a5\u30ea\u30d0\u30fc\u5730\u533a)\u8b77\u5cb8(\u9632\u6ce2)\u571f\u8cea\u8abf\u67fb","client_name":"\u5185\u95a3\u5e9c\u6c96\u7e04\u7dcf\u5408\u4e8b\u52d9\u5c40\u958b\u767a\u5efa\u8a2d\u90e8\u90a3\u8987\u6e2f\u6e7e\u30fb\u7a7a\u6e2f\u6574\u5099\u4e8b\u52d9\u6240","boring_xml_url":0,"boring_view_url":0,"soilmap_view_url":66,"soiltest_xml_url":0,"soiltest_view_url":66},{"id":129043,"code":"B4KJ201801001-7292","latitude":"24.83525217","longitude":"125.2588408","source_code":"PORT47003010520","project_name":"\u6e2f\u6e7e\u5c40","survey_name":"\u5e73\u826f\u6e2f(\u672c\u6e2f\u5730\u533a)\u9632\u6ce2\u5824(\u4e0b\u5d0e\u897f)(\u7b2c2\u6b21)","client_name":"\u5185\u95a3\u5e9c\u6c96\u7e04\u7dcf\u5408\u4e8b\u52d9\u5c40\u958b\u767a\u5efa\u8a2d\u90e8\u90a3\u8987\u6e2f\u6e7e\u30fb\u7a7a\u6e2f\u6574\u5099\u4e8b\u52d9\u6240","boring_xml_url":0,"boring_view_url":0,"soilmap_view_url":66,"soiltest_xml_url":0,"soiltest_view_url":66},{"id":129042,"code":"B4KJ201801001-7291","latitude":"24.83519219","longitude":"125.2589338","source_code":"PORT47003010519","project_name":"\u6e2f\u6e7e\u5c40","survey_name":"\u5e73\u826f\u6e2f(\u672c\u6e2f\u5730\u533a)\u9632\u6ce2\u5824(\u4e0b\u5d0e\u897f)(\u7b2c2\u6b21)","client_name":"\u5185\u95a3\u5e9c\u6c96\u7e04\u7dcf\u5408\u4e8b\u52d9\u5c40\u958b\u767a\u5efa\u8a2d\u90e8\u90a3\u8987\u6e2f\u6e7e\u30fb\u7a7a\u6e2f\u6574\u5099\u4e8b\u52d9\u6240","boring_xml_url":0,"boring_view_url":0,"soilmap_view_url":66,"soiltest_xml_url":0,"soiltest_view_url":66},{"id":129041,"code":"B4KJ201801001-7290","latitude":"24.83472549","longitude":"125.259083","source_code":"PORT47003010518","project_name":"\u6e2f\u6e7e\u5c40","survey_name":"\u5e73\u826f\u6e2f(\u672c\u6e2f\u5730\u533a)\u9632\u6ce2\u5824(\u4e0b\u5d0e\u897f)(\u7b2c2\u6b21)","client_name":"\u5185\u95a3\u5e9c\u6c96\u7e04\u7dcf\u5408\u4e8b\u52d9\u5c40\u958b\u767a\u5efa\u8a2d\u90e8\u90a3\u8987\u6e2f\u6e7e\u30fb\u7a7a\u6e2f\u6574\u5099\u4e8b\u52d9\u6240","boring_xml_url":0,"boring_view_url":0,"soilmap_view_url":66,"soiltest_xml_url":0,"soiltest_view_url":66},{"id":129040,"code":"B4KJ201801001-7289","latitude":"24.83474295","longitude":"125.2588862","source_code":"PORT47003010517","project_name":"\u6e2f\u6e7e\u5c40","survey_name":"\u5e73\u826f\u6e2f(\u672c\u6e2f\u5730\u533a)\u9632\u6ce2\u5824(\u4e0b\u5d0e\u897f)(\u7b2c2\u6b21)","client_name":"\u5185\u95a3\u5e9c\u6c96\u7e04\u7dcf\u5408\u4e8b\u52d9\u5c40\u958b\u767a\u5efa\u8a2d\u90e8\u90a3\u8987\u6e2f\u6e7e\u30fb\u7a7a\u6e2f\u6574\u5099\u4e8b\u52d9\u6240","boring_xml_url":0,"boring_view_url":0,"soilmap_view_url":66,"soiltest_xml_url":0,"soiltest_view_url":66},{"id":129039,"code":"B4KJ201801001-7288","latitude":"24.83476031","longitude":"125.2586892","source_code":"PORT47003010516","project_name":"\u6e2f\u6e7e\u5c40","survey_name":"\u5e73\u826f\u6e2f(\u672c\u6e2f\u5730\u533a)\u9632\u6ce2\u5824(\u4e0b\u5d0e\u897f)(\u7b2c2\u6b21)","client_name":"\u5185\u95a3\u5e9c\u6c96\u7e04\u7dcf\u5408\u4e8b\u52d9\u5c40\u958b\u767a\u5efa\u8a2d\u90e8\u90a3\u8987\u6e2f\u6e7e\u30fb\u7a7a\u6e2f\u6574\u5099\u4e8b\u52d9\u6240","boring_xml_url":0,"boring_view_url":0,"soilmap_view_url":66,"soiltest_xml_url":0,"soiltest_view_url":66},{"id":129038,"code":"B4KJ201801001-7287","latitude":"24.83429371","longitude":"125.2588385","source_code":"PORT47003010515","project_name":"\u6e2f\u6e7e\u5c40","survey_name":"\u5e73\u826f\u6e2f(\u672c\u6e2f\u5730\u533a)\u9632\u6ce2\u5824(\u4e0b\u5d0e\u897f)\u571f\u8cea\u8abf\u67fb","client_name":"\u5185\u95a3\u5e9c\u6c96\u7e04\u7dcf\u5408\u4e8b\u52d9\u5c40\u958b\u767a\u5efa\u8a2d\u90e8\u90a3\u8987\u6e2f\u6e7e\u30fb\u7a7a\u6e2f\u6574\u5099\u4e8b\u52d9\u6240","boring_xml_url":0,"boring_view_url":0,"soilmap_view_url":66,"soiltest_xml_url":0,"soiltest_view_url":66},{"id":129037,"code":"B4KJ201801001-7286","latitude":"24.83382701","longitude":"125.2589877","source_code":"PORT47003010514","project_name":"\u6e2f\u6e7e\u5c40","survey_name":"\u5e73\u826f\u6e2f(\u672c\u6e2f\u5730\u533a)\u9632\u6ce2\u5824(\u4e0b\u5d0e\u897f)\u571f\u8cea\u8abf\u67fb","client_name":"\u5185\u95a3\u5e9c\u6c96\u7e04\u7dcf\u5408\u4e8b\u52d9\u5c40\u958b\u767a\u5efa\u8a2d\u90e8\u90a3\u8987\u6e2f\u6e7e\u30fb\u7a7a\u6e2f\u6574\u5099\u4e8b\u52d9\u6240","boring_xml_url":0,"boring_view_url":0,"soilmap_view_url":66,"soiltest_xml_url":0,"soiltest_view_url":66},{"id":129036,"code":"B4KJ201801001-7285","latitude":"24.83384447","longitude":"125.2587908","source_code":"PORT47003010513","project_name":"\u6e2f\u6e7e\u5c40","survey_name":"\u5e73\u826f\u6e2f(\u672c\u6e2f\u5730\u533a)\u9632\u6ce2\u5824(\u4e0b\u5d0e\u897f)\u571f\u8cea\u8abf\u67fb","client_name":"\u5185\u95a3\u5e9c\u6c96\u7e04\u7dcf\u5408\u4e8b\u52d9\u5c40\u958b\u767a\u5efa\u8a2d\u90e8\u90a3\u8987\u6e2f\u6e7e\u30fb\u7a7a\u6e2f\u6574\u5099\u4e8b\u52d9\u6240","boring_xml_url":0,"boring_view_url":0,"soilmap_view_url":66,"soiltest_xml_url":0,"soiltest_view_url":66},{"id":129035,"code":"B4KJ201801001-7284","latitude":"24.83386183","longitude":"125.258594","source_code":"PORT47003010512","project_name":"\u6e2f\u6e7e\u5c40","survey_name":"\u5e73\u826f\u6e2f(\u672c\u6e2f\u5730\u533a)\u9632\u6ce2\u5824(\u4e0b\u5d0e\u897f)\u571f\u8cea\u8abf\u67fb","client_name":"\u5185\u95a3\u5e9c\u6c96\u7e04\u7dcf\u5408\u4e8b\u52d9\u5c40\u958b\u767a\u5efa\u8a2d\u90e8\u90a3\u8987\u6e2f\u6e7e\u30fb\u7a7a\u6e2f\u6574\u5099\u4e8b\u52d9\u6240","boring_xml_url":0,"boring_view_url":0,"soilmap_view_url":66,"soiltest_xml_url":0,"soiltest_view_url":66},{"id":129034,"code":"B4KJ201801001-7283","latitude":"24.83339523","longitude":"125.2587432","source_code":"PORT47003010511","project_name":"\u6e2f\u6e7e\u5c40","survey_name":"\u5e73\u826f\u6e2f(\u30c8\u30a5\u30ea\u30d0\u30fc\u5730\u533a)\u8b77\u5cb8(\u9632\u6ce2)\u571f\u8cea\u8abf\u67fb","client_name":"\u5185\u95a3\u5e9c\u6c96\u7e04\u7dcf\u5408\u4e8b\u52d9\u5c40\u958b\u767a\u5efa\u8a2d\u90e8\u90a3\u8987\u6e2f\u6e7e\u30fb\u7a7a\u6e2f\u6574\u5099\u4e8b\u52d9\u6240","boring_xml_url":0,"boring_view_url":0,"soilmap_view_url":66,"soiltest_xml_url":0,"soiltest_view_url":66},{"id":129033,"code":"B4KJ201801001-7282","latitude":"24.80239402","longitude":"125.2603453","source_code":"PORT47003010510","project_name":"\u6e2f\u6e7e\u5c40","survey_name":"\u5e73\u826f\u6e2f(\u30c8\u30a5\u30ea\u30d0\u30fc\u5730\u533a)\u8b77\u5cb8(\u9632\u6ce2)\u571f\u8cea\u8abf\u67fb","client_name":"\u5185\u95a3\u5e9c\u6c96\u7e04\u7dcf\u5408\u4e8b\u52d9\u5c40\u958b\u767a\u5efa\u8a2d\u90e8\u90a3\u8987\u6e2f\u6e7e\u30fb\u7a7a\u6e2f\u6574\u5099\u4e8b\u52d9\u6240","boring_xml_url":0,"boring_view_url":0,"soilmap_view_url":66,"soiltest_xml_url":0,"soiltest_view_url":66},{"id":129032,"code":"B4KJ201801001-7281","latitude":"24.80218599","longitude":"125.2605759","source_code":"PORT47003010509","project_name":"\u6e2f\u6e7e\u5c40","survey_name":"\u5e73\u826f\u6e2f(\u30c8\u30a5\u30ea\u30d0\u30fc\u5730\u533a)\u8b77\u5cb8(\u9632\u6ce2)\u571f\u8cea\u8abf\u67fb","client_name":"\u5185\u95a3\u5e9c\u6c96\u7e04\u7dcf\u5408\u4e8b\u52d9\u5c40\u958b\u767a\u5efa\u8a2d\u90e8\u90a3\u8987\u6e2f\u6e7e\u30fb\u7a7a\u6e2f\u6574\u5099\u4e8b\u52d9\u6240","boring_xml_url":0,"boring_view_url":0,"soilmap_view_url":66,"soiltest_xml_url":0,"soiltest_view_url":66},{"id":129031,"code":"B4KJ201801001-7280","latitude":"24.80254658","longitude":"125.2605924","source_code":"PORT47003010508","project_name":"\u6e2f\u6e7e\u5c40","survey_name":"\u5e73\u826f\u6e2f(\u30c8\u30a5\u30ea\u30d0\u30fc\u5730\u533a)\u8b77\u5cb8(\u9632\u6ce2)\u571f\u8cea\u8abf\u67fb","client_name":"\u5185\u95a3\u5e9c\u6c96\u7e04\u7dcf\u5408\u4e8b\u52d9\u5c40\u958b\u767a\u5efa\u8a2d\u90e8\u90a3\u8987\u6e2f\u6e7e\u30fb\u7a7a\u6e2f\u6574\u5099\u4e8b\u52d9\u6240","boring_xml_url":0,"boring_view_url":0,"soilmap_view_url":66,"soiltest_xml_url":0,"soiltest_view_url":66},{"id":129030,"code":"B4KJ201801001-7279","latitude":"24.80254611","longitude":"125.2606053","source_code":"PORT47003010507","project_name":"\u6e2f\u6e7e\u5c40","survey_name":"\u5e73\u826f\u6e2f(\u30c8\u30a5\u30ea\u30d0\u30fc\u5730\u533a)\u8b77\u5cb8(\u9632\u6ce2)\u571f\u8cea\u8abf\u67fb","client_name":"\u5185\u95a3\u5e9c\u6c96\u7e04\u7dcf\u5408\u4e8b\u52d9\u5c40\u958b\u767a\u5efa\u8a2d\u90e8\u90a3\u8987\u6e2f\u6e7e\u30fb\u7a7a\u6e2f\u6574\u5099\u4e8b\u52d9\u6240","boring_xml_url":0,"boring_view_url":0,"soilmap_view_url":66,"soiltest_xml_url":0,"soiltest_view_url":66},{"id":129029,"code":"B4KJ201801001-7278","latitude":"24.80244379","longitude":"125.2601043","source_code":"PORT47003010506","project_name":"\u6e2f\u6e7e\u5c40","survey_name":"\u5e73\u826f\u6e2f(\u672c\u6e2f\u5730\u533a)\u9632\u6ce2\u5824(\u4e0b\u5d0e\u897f)\u4ed61\u4ef6\u571f\u8cea\u8abf\u67fb","client_name":"\u5185\u95a3\u5e9c\u6c96\u7e04\u7dcf\u5408\u4e8b\u52d9\u5c40\u958b\u767a\u5efa\u8a2d\u90e8\u90a3\u8987\u6e2f\u6e7e\u30fb\u7a7a\u6e2f\u6574\u5099\u4e8b\u52d9\u6240","boring_xml_url":0,"boring_view_url":0,"soilmap_view_url":66,"soiltest_xml_url":0,"soiltest_view_url":66},{"id":129028,"code":"B4KJ201801001-7277","latitude":"24.8253822","longitude":"125.258913","source_code":"PORT47003010505","project_name":"\u6e2f\u6e7e\u5c40","survey_name":"\u5e73\u826f\u6e2f(\u672c\u6e2f\u5730\u533a)\u9632\u6ce2\u5824(\u4e0b\u5d0e\u897f)\u4ed61\u4ef6\u571f\u8cea\u8abf\u67fb","client_name":"\u5185\u95a3\u5e9c\u6c96\u7e04\u7dcf\u5408\u4e8b\u52d9\u5c40\u958b\u767a\u5efa\u8a2d\u90e8\u90a3\u8987\u6e2f\u6e7e\u30fb\u7a7a\u6e2f\u6574\u5099\u4e8b\u52d9\u6240","boring_xml_url":0,"boring_view_url":0,"soilmap_view_url":66,"soiltest_xml_url":0,"soiltest_view_url":66},{"id":129027,"code":"B4KJ201801001-7276","latitude":"24.8258644","longitude":"125.258981","source_code":"PORT47003010504","project_name":"\u6e2f\u6e7e\u5c40","survey_name":"\u5e73\u826f\u6e2f(\u672c\u6e2f\u5730\u533a)\u9632\u6ce2\u5824(\u4e0b\u5d0e\u897f)\u4ed61\u4ef6\u571f\u8cea\u8abf\u67fb","client_name":"\u5185\u95a3\u5e9c\u6c96\u7e04\u7dcf\u5408\u4e8b\u52d9\u5c40\u958b\u767a\u5efa\u8a2d\u90e8\u90a3\u8987\u6e2f\u6e7e\u30fb\u7a7a\u6e2f\u6574\u5099\u4e8b\u52d9\u6240","boring_xml_url":0,"boring_view_url":0,"soilmap_view_url":66,"soiltest_xml_url":0,"soiltest_view_url":66},{"id":129026,"code":"B4KJ201801001-7275","latitude":"24.82581925","longitude":"125.2587894","source_code":"PORT47003010503","project_name":"\u6e2f\u6e7e\u5c40","survey_name":"\u5e73\u826f\u6e2f(\u672c\u6e2f\u5730\u533a)\u9632\u6ce2\u5824(\u4e0b\u5d0e\u897f)\u4ed61\u4ef6\u571f\u8cea\u8abf\u67fb","client_name":"\u5185\u95a3\u5e9c\u6c96\u7e04\u7dcf\u5408\u4e8b\u52d9\u5c40\u958b\u767a\u5efa\u8a2d\u90e8\u90a3\u8987\u6e2f\u6e7e\u30fb\u7a7a\u6e2f\u6574\u5099\u4e8b\u52d9\u6240","boring_xml_url":0,"boring_view_url":0,"soilmap_view_url":66,"soiltest_xml_url":0,"soiltest_view_url":66}]}}