{"header":{"xyz":{"source":[],"mosaic":false},"page":6393,"raw":{"soiltest_result":"0","bbox":"57.598333,109.544722,1.933333,163.806111","page":"6393"},"conditions":{"soiltest_result":0,"north":57.598333,"west":109.544722,"south":1.933333,"east":163.806111},"success":true,"message":""},"data":{"meta":{"total":212844,"page":6393,"pages":7095,"count":30},"values":[{"id":128785,"code":"B4KJ201801001-7034","latitude":"24.81295322","longitude":"125.2804223","source_code":"PORT47003010200","project_name":"\u6e2f\u6e7e\u5c40","survey_name":"\u5e73\u826f\u6e2f(\u672c\u6e2f\u5730\u533a)\u9632\u6ce2\u5824(\u5357)\u571f\u8cea\u8abf\u67fb","client_name":"\u5185\u95a3\u5e9c\u6c96\u7e04\u7dcf\u5408\u4e8b\u52d9\u5c40\u958b\u767a\u5efa\u8a2d\u90e8\u90a3\u8987\u6e2f\u6e7e\u30fb\u7a7a\u6e2f\u6574\u5099\u4e8b\u52d9\u6240","boring_xml_url":0,"boring_view_url":0,"soilmap_view_url":66,"soiltest_xml_url":0,"soiltest_view_url":66},{"id":128784,"code":"B4KJ201801001-7033","latitude":"24.81358785","longitude":"125.2682848","source_code":"PORT47003010199","project_name":"\u6e2f\u6e7e\u5c40","survey_name":"\u5e73\u826f\u6e2f\u9632\u6ce2\u5824(\u5357)\u571f\u8cea\u8abf\u67fb\u4ed61\u4ef6","client_name":"\u5185\u95a3\u5e9c\u6c96\u7e04\u7dcf\u5408\u4e8b\u52d9\u5c40\u958b\u767a\u5efa\u8a2d\u90e8\u90a3\u8987\u6e2f\u6e7e\u30fb\u7a7a\u6e2f\u6574\u5099\u4e8b\u52d9\u6240","boring_xml_url":0,"boring_view_url":0,"soilmap_view_url":66,"soiltest_xml_url":0,"soiltest_view_url":66},{"id":128783,"code":"B4KJ201801001-7032","latitude":"24.81414335","longitude":"125.2682848","source_code":"PORT47003010198","project_name":"\u6e2f\u6e7e\u5c40","survey_name":"\u5e73\u826f\u6e2f\u9632\u6ce2\u5824(\u5357)\u571f\u8cea\u8abf\u67fb\u4ed61\u4ef6","client_name":"\u5185\u95a3\u5e9c\u6c96\u7e04\u7dcf\u5408\u4e8b\u52d9\u5c40\u958b\u767a\u5efa\u8a2d\u90e8\u90a3\u8987\u6e2f\u6e7e\u30fb\u7a7a\u6e2f\u6574\u5099\u4e8b\u52d9\u6240","boring_xml_url":0,"boring_view_url":0,"soilmap_view_url":66,"soiltest_xml_url":0,"soiltest_view_url":66},{"id":128782,"code":"B4KJ201801001-7031","latitude":"24.8138656","longitude":"125.268007","source_code":"PORT47003010197","project_name":"\u6e2f\u6e7e\u5c40","survey_name":"\u5e73\u826f\u6e2f\u9632\u6ce2\u5824(\u5357)\u571f\u8cea\u8abf\u67fb\u4ed61\u4ef6","client_name":"\u5185\u95a3\u5e9c\u6c96\u7e04\u7dcf\u5408\u4e8b\u52d9\u5c40\u958b\u767a\u5efa\u8a2d\u90e8\u90a3\u8987\u6e2f\u6e7e\u30fb\u7a7a\u6e2f\u6574\u5099\u4e8b\u52d9\u6240","boring_xml_url":0,"boring_view_url":0,"soilmap_view_url":66,"soiltest_xml_url":0,"soiltest_view_url":66},{"id":128781,"code":"B4KJ201801001-7030","latitude":"24.8138656","longitude":"125.2682848","source_code":"PORT47003010196","project_name":"\u6e2f\u6e7e\u5c40","survey_name":"\u5e73\u826f\u6e2f\u9632\u6ce2\u5824(\u5357)\u571f\u8cea\u8abf\u67fb\u4ed61\u4ef6","client_name":"\u5185\u95a3\u5e9c\u6c96\u7e04\u7dcf\u5408\u4e8b\u52d9\u5c40\u958b\u767a\u5efa\u8a2d\u90e8\u90a3\u8987\u6e2f\u6e7e\u30fb\u7a7a\u6e2f\u6574\u5099\u4e8b\u52d9\u6240","boring_xml_url":0,"boring_view_url":0,"soilmap_view_url":66,"soiltest_xml_url":0,"soiltest_view_url":66},{"id":128780,"code":"B4KJ201801001-7029","latitude":"24.81386561","longitude":"125.2685625","source_code":"PORT47003010195","project_name":"\u6e2f\u6e7e\u5c40","survey_name":"\u5e73\u826f\u6e2f\u9632\u6ce2\u5824(\u5357)\u571f\u8cea\u8abf\u67fb\u4ed61\u4ef6","client_name":"\u5185\u95a3\u5e9c\u6c96\u7e04\u7dcf\u5408\u4e8b\u52d9\u5c40\u958b\u767a\u5efa\u8a2d\u90e8\u90a3\u8987\u6e2f\u6e7e\u30fb\u7a7a\u6e2f\u6574\u5099\u4e8b\u52d9\u6240","boring_xml_url":0,"boring_view_url":0,"soilmap_view_url":66,"soiltest_xml_url":0,"soiltest_view_url":66},{"id":128779,"code":"B4KJ201801001-7028","latitude":"24.81053262","longitude":"125.2691181","source_code":"PORT47003010194","project_name":"\u6e2f\u6e7e\u5c40","survey_name":"\u5e73\u826f\u6e2f\u9632\u6ce2\u5824(\u5357)\u571f\u8cea\u8abf\u67fb\u4ed61\u4ef6","client_name":"\u5185\u95a3\u5e9c\u6c96\u7e04\u7dcf\u5408\u4e8b\u52d9\u5c40\u958b\u767a\u5efa\u8a2d\u90e8\u90a3\u8987\u6e2f\u6e7e\u30fb\u7a7a\u6e2f\u6574\u5099\u4e8b\u52d9\u6240","boring_xml_url":0,"boring_view_url":0,"soilmap_view_url":66,"soiltest_xml_url":0,"soiltest_view_url":66},{"id":128778,"code":"B4KJ201801001-7027","latitude":"24.80997712","longitude":"125.2688403","source_code":"PORT47003010193","project_name":"\u6e2f\u6e7e\u5c40","survey_name":"\u5e73\u826f\u6e2f\u9632\u6ce2\u5824(\u5357)\u571f\u8cea\u8abf\u67fb\u4ed61\u4ef6","client_name":"\u5185\u95a3\u5e9c\u6c96\u7e04\u7dcf\u5408\u4e8b\u52d9\u5c40\u958b\u767a\u5efa\u8a2d\u90e8\u90a3\u8987\u6e2f\u6e7e\u30fb\u7a7a\u6e2f\u6574\u5099\u4e8b\u52d9\u6240","boring_xml_url":0,"boring_view_url":0,"soilmap_view_url":66,"soiltest_xml_url":0,"soiltest_view_url":66},{"id":128777,"code":"B4KJ201801001-7026","latitude":"24.81053262","longitude":"125.2688403","source_code":"PORT47003010192","project_name":"\u6e2f\u6e7e\u5c40","survey_name":"\u5e73\u826f\u6e2f\u9632\u6ce2\u5824(\u5357)\u571f\u8cea\u8abf\u67fb\u4ed61\u4ef6","client_name":"\u5185\u95a3\u5e9c\u6c96\u7e04\u7dcf\u5408\u4e8b\u52d9\u5c40\u958b\u767a\u5efa\u8a2d\u90e8\u90a3\u8987\u6e2f\u6e7e\u30fb\u7a7a\u6e2f\u6574\u5099\u4e8b\u52d9\u6240","boring_xml_url":0,"boring_view_url":0,"soilmap_view_url":66,"soiltest_xml_url":0,"soiltest_view_url":66},{"id":128776,"code":"B4KJ201801001-7025","latitude":"24.80997713","longitude":"125.2691181","source_code":"PORT47003010191","project_name":"\u6e2f\u6e7e\u5c40","survey_name":"\u5e73\u826f\u6e2f\u9632\u6ce2\u5824(\u5357)\u571f\u8cea\u8abf\u67fb\u4ed61\u4ef6","client_name":"\u5185\u95a3\u5e9c\u6c96\u7e04\u7dcf\u5408\u4e8b\u52d9\u5c40\u958b\u767a\u5efa\u8a2d\u90e8\u90a3\u8987\u6e2f\u6e7e\u30fb\u7a7a\u6e2f\u6574\u5099\u4e8b\u52d9\u6240","boring_xml_url":0,"boring_view_url":0,"soilmap_view_url":66,"soiltest_xml_url":0,"soiltest_view_url":66},{"id":128775,"code":"B4KJ201801001-7024","latitude":"24.80997712","longitude":"125.2685626","source_code":"PORT47003010190","project_name":"\u6e2f\u6e7e\u5c40","survey_name":"\u5e73\u826f\u6e2f\u9632\u6ce2\u5824(\u5357)\u571f\u8cea\u8abf\u67fb\u4ed61\u4ef6","client_name":"\u5185\u95a3\u5e9c\u6c96\u7e04\u7dcf\u5408\u4e8b\u52d9\u5c40\u958b\u767a\u5efa\u8a2d\u90e8\u90a3\u8987\u6e2f\u6e7e\u30fb\u7a7a\u6e2f\u6574\u5099\u4e8b\u52d9\u6240","boring_xml_url":0,"boring_view_url":0,"soilmap_view_url":66,"soiltest_xml_url":0,"soiltest_view_url":66},{"id":128774,"code":"B4KJ201801001-7023","latitude":"24.81108812","longitude":"125.2693958","source_code":"PORT47003010189","project_name":"\u6e2f\u6e7e\u5c40","survey_name":"\u5e73\u826f\u6e2f\u9632\u6ce2\u5824(\u5357)\u571f\u8cea\u8abf\u67fb\u4ed61\u4ef6","client_name":"\u5185\u95a3\u5e9c\u6c96\u7e04\u7dcf\u5408\u4e8b\u52d9\u5c40\u958b\u767a\u5efa\u8a2d\u90e8\u90a3\u8987\u6e2f\u6e7e\u30fb\u7a7a\u6e2f\u6574\u5099\u4e8b\u52d9\u6240","boring_xml_url":0,"boring_view_url":0,"soilmap_view_url":66,"soiltest_xml_url":0,"soiltest_view_url":66},{"id":128773,"code":"B4KJ201801001-7022","latitude":"24.81136587","longitude":"125.2688403","source_code":"PORT47003010188","project_name":"\u6e2f\u6e7e\u5c40","survey_name":"\u5e73\u826f\u6e2f\u9632\u6ce2\u5824(\u5357)\u571f\u8cea\u8abf\u67fb\u4ed61\u4ef6","client_name":"\u5185\u95a3\u5e9c\u6c96\u7e04\u7dcf\u5408\u4e8b\u52d9\u5c40\u958b\u767a\u5efa\u8a2d\u90e8\u90a3\u8987\u6e2f\u6e7e\u30fb\u7a7a\u6e2f\u6574\u5099\u4e8b\u52d9\u6240","boring_xml_url":0,"boring_view_url":0,"soilmap_view_url":66,"soiltest_xml_url":0,"soiltest_view_url":66},{"id":128772,"code":"B4KJ201801001-7021","latitude":"24.80942162","longitude":"125.2685626","source_code":"PORT47003010187","project_name":"\u6e2f\u6e7e\u5c40","survey_name":"\u5e73\u826f\u6e2f\u9632\u6ce2\u5824(\u5357)\u571f\u8cea\u8abf\u67fb\u4ed61\u4ef6","client_name":"\u5185\u95a3\u5e9c\u6c96\u7e04\u7dcf\u5408\u4e8b\u52d9\u5c40\u958b\u767a\u5efa\u8a2d\u90e8\u90a3\u8987\u6e2f\u6e7e\u30fb\u7a7a\u6e2f\u6574\u5099\u4e8b\u52d9\u6240","boring_xml_url":0,"boring_view_url":0,"soilmap_view_url":66,"soiltest_xml_url":0,"soiltest_view_url":66},{"id":128771,"code":"B4KJ201801001-7020","latitude":"24.80997712","longitude":"125.2688403","source_code":"PORT47003010186","project_name":"\u6e2f\u6e7e\u5c40","survey_name":"\u5e73\u826f\u6e2f\u9632\u6ce2\u5824(\u5357)\u571f\u8cea\u8abf\u67fb\u4ed61\u4ef6","client_name":"\u5185\u95a3\u5e9c\u6c96\u7e04\u7dcf\u5408\u4e8b\u52d9\u5c40\u958b\u767a\u5efa\u8a2d\u90e8\u90a3\u8987\u6e2f\u6e7e\u30fb\u7a7a\u6e2f\u6574\u5099\u4e8b\u52d9\u6240","boring_xml_url":0,"boring_view_url":0,"soilmap_view_url":66,"soiltest_xml_url":0,"soiltest_view_url":66},{"id":128770,"code":"B4KJ201801001-7019","latitude":"24.81025487","longitude":"125.2688403","source_code":"PORT47003010185","project_name":"\u6e2f\u6e7e\u5c40","survey_name":"\u5e73\u826f\u6e2f\u9632\u6ce2\u5824(\u5357)\u571f\u8cea\u8abf\u67fb\u4ed61\u4ef6","client_name":"\u5185\u95a3\u5e9c\u6c96\u7e04\u7dcf\u5408\u4e8b\u52d9\u5c40\u958b\u767a\u5efa\u8a2d\u90e8\u90a3\u8987\u6e2f\u6e7e\u30fb\u7a7a\u6e2f\u6574\u5099\u4e8b\u52d9\u6240","boring_xml_url":0,"boring_view_url":0,"soilmap_view_url":66,"soiltest_xml_url":0,"soiltest_view_url":66},{"id":128769,"code":"B4KJ201801001-7018","latitude":"24.81081037","longitude":"125.2691181","source_code":"PORT47003010184","project_name":"\u6e2f\u6e7e\u5c40","survey_name":"\u5e73\u826f\u6e2f\u9632\u6ce2\u5824(\u5357)\u571f\u8cea\u8abf\u67fb\u4ed61\u4ef6","client_name":"\u5185\u95a3\u5e9c\u6c96\u7e04\u7dcf\u5408\u4e8b\u52d9\u5c40\u958b\u767a\u5efa\u8a2d\u90e8\u90a3\u8987\u6e2f\u6e7e\u30fb\u7a7a\u6e2f\u6574\u5099\u4e8b\u52d9\u6240","boring_xml_url":0,"boring_view_url":0,"soilmap_view_url":66,"soiltest_xml_url":0,"soiltest_view_url":66},{"id":128768,"code":"B4KJ201801001-7017","latitude":"24.81136587","longitude":"125.2691181","source_code":"PORT47003010183","project_name":"\u6e2f\u6e7e\u5c40","survey_name":"\u5e73\u826f\u6e2f\u9632\u6ce2\u5824(\u5357)\u571f\u8cea\u8abf\u67fb\u4ed61\u4ef6","client_name":"\u5185\u95a3\u5e9c\u6c96\u7e04\u7dcf\u5408\u4e8b\u52d9\u5c40\u958b\u767a\u5efa\u8a2d\u90e8\u90a3\u8987\u6e2f\u6e7e\u30fb\u7a7a\u6e2f\u6574\u5099\u4e8b\u52d9\u6240","boring_xml_url":0,"boring_view_url":0,"soilmap_view_url":66,"soiltest_xml_url":0,"soiltest_view_url":66},{"id":128767,"code":"B4KJ201801001-7016","latitude":"24.81136587","longitude":"125.2691181","source_code":"PORT47003010182","project_name":"\u6e2f\u6e7e\u5c40","survey_name":"\u5e73\u826f\u6e2f\u9632\u6ce2\u5824(\u5357)\u571f\u8cea\u8abf\u67fb\u4ed61\u4ef6","client_name":"\u5185\u95a3\u5e9c\u6c96\u7e04\u7dcf\u5408\u4e8b\u52d9\u5c40\u958b\u767a\u5efa\u8a2d\u90e8\u90a3\u8987\u6e2f\u6e7e\u30fb\u7a7a\u6e2f\u6574\u5099\u4e8b\u52d9\u6240","boring_xml_url":0,"boring_view_url":0,"soilmap_view_url":66,"soiltest_xml_url":0,"soiltest_view_url":66},{"id":128766,"code":"B4KJ201801001-7015","latitude":"24.81692095","longitude":"125.2774506","source_code":"PORT47003010181","project_name":"\u6e2f\u6e7e\u5c40","survey_name":"\u5e73\u826f\u6e2f\u9632\u6ce2\u5824(\u5317)\u571f\u8cea\u8abf\u67fb","client_name":"\u5185\u95a3\u5e9c\u6c96\u7e04\u7dcf\u5408\u4e8b\u52d9\u5c40\u958b\u767a\u5efa\u8a2d\u90e8\u90a3\u8987\u6e2f\u6e7e\u30fb\u7a7a\u6e2f\u6574\u5099\u4e8b\u52d9\u6240","boring_xml_url":0,"boring_view_url":0,"soilmap_view_url":66,"soiltest_xml_url":0,"soiltest_view_url":66},{"id":128765,"code":"B4KJ201801001-7014","latitude":"24.81692095","longitude":"125.2774506","source_code":"PORT47003010180","project_name":"\u6e2f\u6e7e\u5c40","survey_name":"\u5e73\u826f\u6e2f\u9632\u6ce2\u5824(\u5317)\u571f\u8cea\u8abf\u67fb","client_name":"\u5185\u95a3\u5e9c\u6c96\u7e04\u7dcf\u5408\u4e8b\u52d9\u5c40\u958b\u767a\u5efa\u8a2d\u90e8\u90a3\u8987\u6e2f\u6e7e\u30fb\u7a7a\u6e2f\u6574\u5099\u4e8b\u52d9\u6240","boring_xml_url":0,"boring_view_url":0,"soilmap_view_url":66,"soiltest_xml_url":0,"soiltest_view_url":66},{"id":128764,"code":"B4KJ201801001-7013","latitude":"24.81692095","longitude":"125.2774506","source_code":"PORT47003010179","project_name":"\u6e2f\u6e7e\u5c40","survey_name":"\u5e73\u826f\u6e2f\u9632\u6ce2\u5824(\u5317)\u571f\u8cea\u8abf\u67fb","client_name":"\u5185\u95a3\u5e9c\u6c96\u7e04\u7dcf\u5408\u4e8b\u52d9\u5c40\u958b\u767a\u5efa\u8a2d\u90e8\u90a3\u8987\u6e2f\u6e7e\u30fb\u7a7a\u6e2f\u6574\u5099\u4e8b\u52d9\u6240","boring_xml_url":0,"boring_view_url":0,"soilmap_view_url":66,"soiltest_xml_url":0,"soiltest_view_url":66},{"id":128763,"code":"B4KJ201801001-7012","latitude":"24.81692095","longitude":"125.2774506","source_code":"PORT47003010178","project_name":"\u6e2f\u6e7e\u5c40","survey_name":"\u5e73\u826f\u6e2f\u9632\u6ce2\u5824(\u5317)\u571f\u8cea\u8abf\u67fb","client_name":"\u5185\u95a3\u5e9c\u6c96\u7e04\u7dcf\u5408\u4e8b\u52d9\u5c40\u958b\u767a\u5efa\u8a2d\u90e8\u90a3\u8987\u6e2f\u6e7e\u30fb\u7a7a\u6e2f\u6574\u5099\u4e8b\u52d9\u6240","boring_xml_url":0,"boring_view_url":0,"soilmap_view_url":66,"soiltest_xml_url":0,"soiltest_view_url":66},{"id":128762,"code":"B4KJ201801001-7011","latitude":"24.81664319","longitude":"125.2771729","source_code":"PORT47003010177","project_name":"\u6e2f\u6e7e\u5c40","survey_name":"\u5e73\u826f\u6e2f\u9632\u6ce2\u5824(\u5317)\u571f\u8cea\u8abf\u67fb","client_name":"\u5185\u95a3\u5e9c\u6c96\u7e04\u7dcf\u5408\u4e8b\u52d9\u5c40\u958b\u767a\u5efa\u8a2d\u90e8\u90a3\u8987\u6e2f\u6e7e\u30fb\u7a7a\u6e2f\u6574\u5099\u4e8b\u52d9\u6240","boring_xml_url":0,"boring_view_url":0,"soilmap_view_url":66,"soiltest_xml_url":0,"soiltest_view_url":66},{"id":128761,"code":"B4KJ201801001-7010","latitude":"24.81664319","longitude":"125.2771729","source_code":"PORT47003010176","project_name":"\u6e2f\u6e7e\u5c40","survey_name":"\u5e73\u826f\u6e2f\u9632\u6ce2\u5824(\u5317)\u571f\u8cea\u8abf\u67fb","client_name":"\u5185\u95a3\u5e9c\u6c96\u7e04\u7dcf\u5408\u4e8b\u52d9\u5c40\u958b\u767a\u5efa\u8a2d\u90e8\u90a3\u8987\u6e2f\u6e7e\u30fb\u7a7a\u6e2f\u6574\u5099\u4e8b\u52d9\u6240","boring_xml_url":0,"boring_view_url":0,"soilmap_view_url":66,"soiltest_xml_url":0,"soiltest_view_url":66},{"id":128760,"code":"B4KJ201801001-7009","latitude":"24.81636544","longitude":"125.2768951","source_code":"PORT47003010175","project_name":"\u6e2f\u6e7e\u5c40","survey_name":"\u5e73\u826f\u6e2f\u9632\u6ce2\u5824(\u5317)\u571f\u8cea\u8abf\u67fb","client_name":"\u5185\u95a3\u5e9c\u6c96\u7e04\u7dcf\u5408\u4e8b\u52d9\u5c40\u958b\u767a\u5efa\u8a2d\u90e8\u90a3\u8987\u6e2f\u6e7e\u30fb\u7a7a\u6e2f\u6574\u5099\u4e8b\u52d9\u6240","boring_xml_url":0,"boring_view_url":0,"soilmap_view_url":66,"soiltest_xml_url":0,"soiltest_view_url":66},{"id":128759,"code":"B4KJ201801001-7008","latitude":"24.81636544","longitude":"125.2768951","source_code":"PORT47003010174","project_name":"\u6e2f\u6e7e\u5c40","survey_name":"\u5e73\u826f\u6e2f\u9632\u6ce2\u5824(\u5317)\u571f\u8cea\u8abf\u67fb","client_name":"\u5185\u95a3\u5e9c\u6c96\u7e04\u7dcf\u5408\u4e8b\u52d9\u5c40\u958b\u767a\u5efa\u8a2d\u90e8\u90a3\u8987\u6e2f\u6e7e\u30fb\u7a7a\u6e2f\u6574\u5099\u4e8b\u52d9\u6240","boring_xml_url":0,"boring_view_url":0,"soilmap_view_url":66,"soiltest_xml_url":0,"soiltest_view_url":66},{"id":128758,"code":"B4KJ201801001-7007","latitude":"24.81636544","longitude":"125.2766173","source_code":"PORT47003010173","project_name":"\u6e2f\u6e7e\u5c40","survey_name":"\u5e73\u826f\u6e2f\u9632\u6ce2\u5824(\u5317)\u571f\u8cea\u8abf\u67fb","client_name":"\u5185\u95a3\u5e9c\u6c96\u7e04\u7dcf\u5408\u4e8b\u52d9\u5c40\u958b\u767a\u5efa\u8a2d\u90e8\u90a3\u8987\u6e2f\u6e7e\u30fb\u7a7a\u6e2f\u6574\u5099\u4e8b\u52d9\u6240","boring_xml_url":0,"boring_view_url":0,"soilmap_view_url":66,"soiltest_xml_url":0,"soiltest_view_url":66},{"id":128757,"code":"B4KJ201801001-7006","latitude":"24.81636544","longitude":"125.2766173","source_code":"PORT47003010172","project_name":"\u6e2f\u6e7e\u5c40","survey_name":"\u5e73\u826f\u6e2f\u9632\u6ce2\u5824(\u5317)\u571f\u8cea\u8abf\u67fb","client_name":"\u5185\u95a3\u5e9c\u6c96\u7e04\u7dcf\u5408\u4e8b\u52d9\u5c40\u958b\u767a\u5efa\u8a2d\u90e8\u90a3\u8987\u6e2f\u6e7e\u30fb\u7a7a\u6e2f\u6574\u5099\u4e8b\u52d9\u6240","boring_xml_url":0,"boring_view_url":0,"soilmap_view_url":66,"soiltest_xml_url":0,"soiltest_view_url":66},{"id":128756,"code":"B4KJ201801001-7005","latitude":"24.81636544","longitude":"125.2768951","source_code":"PORT47003010171","project_name":"\u6e2f\u6e7e\u5c40","survey_name":"\u5e73\u826f\u6e2f\u9632\u6ce2\u5824(\u5317)\u571f\u8cea\u8abf\u67fb","client_name":"\u5185\u95a3\u5e9c\u6c96\u7e04\u7dcf\u5408\u4e8b\u52d9\u5c40\u958b\u767a\u5efa\u8a2d\u90e8\u90a3\u8987\u6e2f\u6e7e\u30fb\u7a7a\u6e2f\u6574\u5099\u4e8b\u52d9\u6240","boring_xml_url":0,"boring_view_url":0,"soilmap_view_url":66,"soiltest_xml_url":0,"soiltest_view_url":66}]}}