{"header":{"xyz":{"source":[],"mosaic":false},"page":6421,"raw":{"soiltest_result":"0","bbox":"57.598333,109.544722,1.933333,163.806111","page":"6421"},"conditions":{"soiltest_result":0,"north":57.598333,"west":109.544722,"south":1.933333,"east":163.806111},"success":true,"message":""},"data":{"meta":{"total":212844,"page":6421,"pages":7095,"count":30},"values":[{"id":127945,"code":"B4KJ201801001-6194","latitude":"26.22960313","longitude":"127.6812869","source_code":"PORT47001010496","project_name":"\u6e2f\u6e7e\u5c40","survey_name":"\u81e8\u6e2f\u9053\u8defP18\u571f\u8cea\u8abf\u67fb","client_name":"\u5185\u95a3\u5e9c\u6c96\u7e04\u7dcf\u5408\u4e8b\u52d9\u5c40\u958b\u767a\u5efa\u8a2d\u90e8\u90a3\u8987\u6e2f\u6e7e\u30fb\u7a7a\u6e2f\u6574\u5099\u4e8b\u52d9\u6240","boring_xml_url":0,"boring_view_url":0,"soilmap_view_url":66,"soiltest_xml_url":0,"soiltest_view_url":66},{"id":127944,"code":"B4KJ201801001-6193","latitude":"26.23347028","longitude":"127.6727788","source_code":"PORT47001010495","project_name":"\u6e2f\u6e7e\u5c40","survey_name":"\u81e8\u6e2f\u9053\u8defP18\u571f\u8cea\u8abf\u67fb","client_name":"\u5185\u95a3\u5e9c\u6c96\u7e04\u7dcf\u5408\u4e8b\u52d9\u5c40\u958b\u767a\u5efa\u8a2d\u90e8\u90a3\u8987\u6e2f\u6e7e\u30fb\u7a7a\u6e2f\u6574\u5099\u4e8b\u52d9\u6240","boring_xml_url":0,"boring_view_url":0,"soilmap_view_url":66,"soiltest_xml_url":0,"soiltest_view_url":66},{"id":127943,"code":"B4KJ201801001-6192","latitude":"26.23347029","longitude":"127.6730565","source_code":"PORT47001010494","project_name":"\u6e2f\u6e7e\u5c40","survey_name":"\u81e8\u6e2f\u9053\u8defP18\u571f\u8cea\u8abf\u67fb","client_name":"\u5185\u95a3\u5e9c\u6c96\u7e04\u7dcf\u5408\u4e8b\u52d9\u5c40\u958b\u767a\u5efa\u8a2d\u90e8\u90a3\u8987\u6e2f\u6e7e\u30fb\u7a7a\u6e2f\u6574\u5099\u4e8b\u52d9\u6240","boring_xml_url":0,"boring_view_url":0,"soilmap_view_url":66,"soiltest_xml_url":0,"soiltest_view_url":66},{"id":127942,"code":"B4KJ201801001-6191","latitude":"26.23319254","longitude":"127.6730565","source_code":"PORT47001010493","project_name":"\u6e2f\u6e7e\u5c40","survey_name":"\u81e8\u6e2f\u9053\u8defP18\u571f\u8cea\u8abf\u67fb","client_name":"\u5185\u95a3\u5e9c\u6c96\u7e04\u7dcf\u5408\u4e8b\u52d9\u5c40\u958b\u767a\u5efa\u8a2d\u90e8\u90a3\u8987\u6e2f\u6e7e\u30fb\u7a7a\u6e2f\u6574\u5099\u4e8b\u52d9\u6240","boring_xml_url":0,"boring_view_url":0,"soilmap_view_url":66,"soiltest_xml_url":0,"soiltest_view_url":66},{"id":127941,"code":"B4KJ201801001-6190","latitude":"26.23319254","longitude":"127.6730565","source_code":"PORT47001010492","project_name":"\u6e2f\u6e7e\u5c40","survey_name":"\u81e8\u6e2f\u9053\u8defP18\u571f\u8cea\u8abf\u67fb","client_name":"\u5185\u95a3\u5e9c\u6c96\u7e04\u7dcf\u5408\u4e8b\u52d9\u5c40\u958b\u767a\u5efa\u8a2d\u90e8\u90a3\u8987\u6e2f\u6e7e\u30fb\u7a7a\u6e2f\u6574\u5099\u4e8b\u52d9\u6240","boring_xml_url":0,"boring_view_url":0,"soilmap_view_url":66,"soiltest_xml_url":0,"soiltest_view_url":66},{"id":127940,"code":"B4KJ201801001-6189","latitude":"26.23208153","longitude":"127.6722233","source_code":"PORT47001010491","project_name":"\u6e2f\u6e7e\u5c40","survey_name":"\u81e8\u6e2f\u9053\u8defP17\u4ed8\u8fd1\u571f\u8cea\u8abf\u67fb","client_name":"\u5185\u95a3\u5e9c\u6c96\u7e04\u7dcf\u5408\u4e8b\u52d9\u5c40\u958b\u767a\u5efa\u8a2d\u90e8\u90a3\u8987\u6e2f\u6e7e\u30fb\u7a7a\u6e2f\u6574\u5099\u4e8b\u52d9\u6240","boring_xml_url":0,"boring_view_url":0,"soilmap_view_url":66,"soiltest_xml_url":0,"soiltest_view_url":66},{"id":127939,"code":"B4KJ201801001-6188","latitude":"26.23208153","longitude":"127.6722233","source_code":"PORT47001010490","project_name":"\u6e2f\u6e7e\u5c40","survey_name":"\u81e8\u6e2f\u9053\u8defP17\u4ed8\u8fd1\u571f\u8cea\u8abf\u67fb","client_name":"\u5185\u95a3\u5e9c\u6c96\u7e04\u7dcf\u5408\u4e8b\u52d9\u5c40\u958b\u767a\u5efa\u8a2d\u90e8\u90a3\u8987\u6e2f\u6e7e\u30fb\u7a7a\u6e2f\u6574\u5099\u4e8b\u52d9\u6240","boring_xml_url":0,"boring_view_url":0,"soilmap_view_url":66,"soiltest_xml_url":0,"soiltest_view_url":66},{"id":127938,"code":"B4KJ201801001-6187","latitude":"26.23235928","longitude":"127.6722233","source_code":"PORT47001010489","project_name":"\u6e2f\u6e7e\u5c40","survey_name":"\u81e8\u6e2f\u9053\u8defP17\u4ed8\u8fd1\u571f\u8cea\u8abf\u67fb","client_name":"\u5185\u95a3\u5e9c\u6c96\u7e04\u7dcf\u5408\u4e8b\u52d9\u5c40\u958b\u767a\u5efa\u8a2d\u90e8\u90a3\u8987\u6e2f\u6e7e\u30fb\u7a7a\u6e2f\u6574\u5099\u4e8b\u52d9\u6240","boring_xml_url":0,"boring_view_url":0,"soilmap_view_url":66,"soiltest_xml_url":0,"soiltest_view_url":66},{"id":127937,"code":"B4KJ201801001-6186","latitude":"26.23374804","longitude":"127.673612","source_code":"PORT47001010488","project_name":"\u6e2f\u6e7e\u5c40","survey_name":"\u81e8\u6e2f\u9053\u8def\u4e3b\u5f84\u9593\u57fa\u790e\u8a66\u9a13\u5de5\u4e8b\u571f\u8cea\u8abf\u67fb","client_name":"\u5185\u95a3\u5e9c\u6c96\u7e04\u7dcf\u5408\u4e8b\u52d9\u5c40\u958b\u767a\u5efa\u8a2d\u90e8\u90a3\u8987\u6e2f\u6e7e\u30fb\u7a7a\u6e2f\u6574\u5099\u4e8b\u52d9\u6240","boring_xml_url":0,"boring_view_url":0,"soilmap_view_url":66,"soiltest_xml_url":0,"soiltest_view_url":66},{"id":127936,"code":"B4KJ201801001-6185","latitude":"26.22699108","longitude":"127.6809723","source_code":"PORT47001010487","project_name":"\u6e2f\u6e7e\u5c40","survey_name":"\u81e8\u6e2f\u9053\u8def\u4e3b\u5f84\u9593\u57fa\u790e\u8a66\u9a13\u5de5\u4e8b\u571f\u8cea\u8abf\u67fb","client_name":"\u5185\u95a3\u5e9c\u6c96\u7e04\u7dcf\u5408\u4e8b\u52d9\u5c40\u958b\u767a\u5efa\u8a2d\u90e8\u90a3\u8987\u6e2f\u6e7e\u30fb\u7a7a\u6e2f\u6574\u5099\u4e8b\u52d9\u6240","boring_xml_url":0,"boring_view_url":0,"soilmap_view_url":66,"soiltest_xml_url":0,"soiltest_view_url":66},{"id":127935,"code":"B4KJ201801001-6184","latitude":"26.2270083","longitude":"127.6809152","source_code":"PORT47001010486","project_name":"\u6e2f\u6e7e\u5c40","survey_name":"\u81e8\u6e2f\u9053\u8def\u4e3b\u5f84\u9593\u57fa\u790e\u8a66\u9a13\u5de5\u4e8b\u571f\u8cea\u8abf\u67fb","client_name":"\u5185\u95a3\u5e9c\u6c96\u7e04\u7dcf\u5408\u4e8b\u52d9\u5c40\u958b\u767a\u5efa\u8a2d\u90e8\u90a3\u8987\u6e2f\u6e7e\u30fb\u7a7a\u6e2f\u6574\u5099\u4e8b\u52d9\u6240","boring_xml_url":0,"boring_view_url":0,"soilmap_view_url":66,"soiltest_xml_url":0,"soiltest_view_url":66},{"id":127934,"code":"B4KJ201801001-6183","latitude":"26.22695502","longitude":"127.6809322","source_code":"PORT47001010485","project_name":"\u6e2f\u6e7e\u5c40","survey_name":"\u81e8\u6e2f\u9053\u8defPier10\u571f\u8cea\u8abf\u67fb","client_name":"\u5185\u95a3\u5e9c\u6c96\u7e04\u7dcf\u5408\u4e8b\u52d9\u5c40\u958b\u767a\u5efa\u8a2d\u90e8\u90a3\u8987\u6e2f\u6e7e\u30fb\u7a7a\u6e2f\u6574\u5099\u4e8b\u52d9\u6240","boring_xml_url":0,"boring_view_url":0,"soilmap_view_url":66,"soiltest_xml_url":0,"soiltest_view_url":66},{"id":127933,"code":"B4KJ201801001-6182","latitude":"26.22410996","longitude":"127.6758413","source_code":"PORT47001010484","project_name":"\u6e2f\u6e7e\u5c40","survey_name":"\u81e8\u6e2f\u9053\u8defPier10\u571f\u8cea\u8abf\u67fb","client_name":"\u5185\u95a3\u5e9c\u6c96\u7e04\u7dcf\u5408\u4e8b\u52d9\u5c40\u958b\u767a\u5efa\u8a2d\u90e8\u90a3\u8987\u6e2f\u6e7e\u30fb\u7a7a\u6e2f\u6574\u5099\u4e8b\u52d9\u6240","boring_xml_url":0,"boring_view_url":0,"soilmap_view_url":66,"soiltest_xml_url":0,"soiltest_view_url":66},{"id":127932,"code":"B4KJ201801001-6181","latitude":"26.22417949","longitude":"127.6758948","source_code":"PORT47001010483","project_name":"\u6e2f\u6e7e\u5c40","survey_name":"\u81e8\u6e2f\u9053\u8def\u92fc\u7ba1\u676d\u571f\u8cea\u8abf\u67fb","client_name":"\u5185\u95a3\u5e9c\u6c96\u7e04\u7dcf\u5408\u4e8b\u52d9\u5c40\u958b\u767a\u5efa\u8a2d\u90e8\u90a3\u8987\u6e2f\u6e7e\u30fb\u7a7a\u6e2f\u6574\u5099\u4e8b\u52d9\u6240","boring_xml_url":0,"boring_view_url":0,"soilmap_view_url":66,"soiltest_xml_url":0,"soiltest_view_url":0},{"id":127931,"code":"B4KJ201801001-6180","latitude":"26.22486","longitude":"127.6675016","source_code":"PORT47001010482","project_name":"\u6e2f\u6e7e\u5c40","survey_name":"\u81e8\u6e2f\u9053\u8def\u92fc\u7ba1\u676d\u571f\u8cea\u8abf\u67fb","client_name":"\u5185\u95a3\u5e9c\u6c96\u7e04\u7dcf\u5408\u4e8b\u52d9\u5c40\u958b\u767a\u5efa\u8a2d\u90e8\u90a3\u8987\u6e2f\u6e7e\u30fb\u7a7a\u6e2f\u6574\u5099\u4e8b\u52d9\u6240","boring_xml_url":0,"boring_view_url":0,"soilmap_view_url":66,"soiltest_xml_url":0,"soiltest_view_url":66},{"id":127930,"code":"B4KJ201801001-6179","latitude":"26.22458225","longitude":"127.6675016","source_code":"PORT47001010481","project_name":"\u6e2f\u6e7e\u5c40","survey_name":"\u81e8\u6e2f\u9053\u8def\u92fc\u7ba1\u676d\u571f\u8cea\u8abf\u67fb","client_name":"\u5185\u95a3\u5e9c\u6c96\u7e04\u7dcf\u5408\u4e8b\u52d9\u5c40\u958b\u767a\u5efa\u8a2d\u90e8\u90a3\u8987\u6e2f\u6e7e\u30fb\u7a7a\u6e2f\u6574\u5099\u4e8b\u52d9\u6240","boring_xml_url":0,"boring_view_url":0,"soilmap_view_url":66,"soiltest_xml_url":0,"soiltest_view_url":66},{"id":127929,"code":"B4KJ201801001-6178","latitude":"26.22402675","longitude":"127.6669461","source_code":"PORT47001010480","project_name":"\u6e2f\u6e7e\u5c40","survey_name":"\u81e8\u6e2f\u9053\u8def\u92fc\u7ba1\u676d\u571f\u8cea\u8abf\u67fb","client_name":"\u5185\u95a3\u5e9c\u6c96\u7e04\u7dcf\u5408\u4e8b\u52d9\u5c40\u958b\u767a\u5efa\u8a2d\u90e8\u90a3\u8987\u6e2f\u6e7e\u30fb\u7a7a\u6e2f\u6574\u5099\u4e8b\u52d9\u6240","boring_xml_url":0,"boring_view_url":0,"soilmap_view_url":66,"soiltest_xml_url":0,"soiltest_view_url":66},{"id":127928,"code":"B4KJ201801001-6177","latitude":"26.22402675","longitude":"127.6669461","source_code":"PORT47001010479","project_name":"\u6e2f\u6e7e\u5c40","survey_name":"\u81e8\u6e2f\u9053\u8def\u92fc\u7ba1\u676d\u571f\u8cea\u8abf\u67fb","client_name":"\u5185\u95a3\u5e9c\u6c96\u7e04\u7dcf\u5408\u4e8b\u52d9\u5c40\u958b\u767a\u5efa\u8a2d\u90e8\u90a3\u8987\u6e2f\u6e7e\u30fb\u7a7a\u6e2f\u6574\u5099\u4e8b\u52d9\u6240","boring_xml_url":0,"boring_view_url":0,"soilmap_view_url":66,"soiltest_xml_url":0,"soiltest_view_url":66},{"id":127927,"code":"B4KJ201801001-6176","latitude":"26.2343036","longitude":"127.6780561","source_code":"PORT47001010478","project_name":"\u6e2f\u6e7e\u5c40","survey_name":"\u81e8\u6e2f\u9053\u8def\u6cca\u9678\u4e0a\u90e8\u571f\u8cea\u8abf\u67fb","client_name":"\u5185\u95a3\u5e9c\u6c96\u7e04\u7dcf\u5408\u4e8b\u52d9\u5c40\u958b\u767a\u5efa\u8a2d\u90e8\u90a3\u8987\u6e2f\u6e7e\u30fb\u7a7a\u6e2f\u6574\u5099\u4e8b\u52d9\u6240","boring_xml_url":0,"boring_view_url":0,"soilmap_view_url":66,"soiltest_xml_url":0,"soiltest_view_url":66},{"id":127926,"code":"B4KJ201801001-6175","latitude":"26.23091736","longitude":"127.681633","source_code":"PORT47001010477","project_name":"\u6e2f\u6e7e\u5c40","survey_name":"\u81e8\u6e2f\u9053\u8def\u6cca\u9678\u4e0a\u90e8\u571f\u8cea\u8abf\u67fb","client_name":"\u5185\u95a3\u5e9c\u6c96\u7e04\u7dcf\u5408\u4e8b\u52d9\u5c40\u958b\u767a\u5efa\u8a2d\u90e8\u90a3\u8987\u6e2f\u6e7e\u30fb\u7a7a\u6e2f\u6574\u5099\u4e8b\u52d9\u6240","boring_xml_url":0,"boring_view_url":0,"soilmap_view_url":66,"soiltest_xml_url":0,"soiltest_view_url":66},{"id":127925,"code":"B4KJ201801001-6174","latitude":"26.23094444","longitude":"127.6816352","source_code":"PORT47001010476","project_name":"\u6e2f\u6e7e\u5c40","survey_name":"\u81e8\u6e2f\u9053\u8def\u6cca\u9678\u4e0a\u90e8\u571f\u8cea\u8abf\u67fb","client_name":"\u5185\u95a3\u5e9c\u6c96\u7e04\u7dcf\u5408\u4e8b\u52d9\u5c40\u958b\u767a\u5efa\u8a2d\u90e8\u90a3\u8987\u6e2f\u6e7e\u30fb\u7a7a\u6e2f\u6574\u5099\u4e8b\u52d9\u6240","boring_xml_url":0,"boring_view_url":0,"soilmap_view_url":66,"soiltest_xml_url":0,"soiltest_view_url":66},{"id":127924,"code":"B4KJ201801001-6173","latitude":"26.23095309","longitude":"127.6815055","source_code":"PORT47001010475","project_name":"\u6e2f\u6e7e\u5c40","survey_name":"\u81e8\u6e2f\u9053\u8def\u6cca\u9678\u4e0a\u90e8\u571f\u8cea\u8abf\u67fb","client_name":"\u5185\u95a3\u5e9c\u6c96\u7e04\u7dcf\u5408\u4e8b\u52d9\u5c40\u958b\u767a\u5efa\u8a2d\u90e8\u90a3\u8987\u6e2f\u6e7e\u30fb\u7a7a\u6e2f\u6574\u5099\u4e8b\u52d9\u6240","boring_xml_url":0,"boring_view_url":0,"soilmap_view_url":66,"soiltest_xml_url":0,"soiltest_view_url":66},{"id":127923,"code":"B4KJ201801001-6172","latitude":"26.23092601","longitude":"127.6815032","source_code":"PORT47001010474","project_name":"\u6e2f\u6e7e\u5c40","survey_name":"\u81e8\u6e2f\u9053\u8def\u6cca\u9678\u4e0a\u90e8\u571f\u8cea\u8abf\u67fb","client_name":"\u5185\u95a3\u5e9c\u6c96\u7e04\u7dcf\u5408\u4e8b\u52d9\u5c40\u958b\u767a\u5efa\u8a2d\u90e8\u90a3\u8987\u6e2f\u6e7e\u30fb\u7a7a\u6e2f\u6574\u5099\u4e8b\u52d9\u6240","boring_xml_url":0,"boring_view_url":0,"soilmap_view_url":66,"soiltest_xml_url":0,"soiltest_view_url":66},{"id":127922,"code":"B4KJ201801001-6171","latitude":"26.23055084","longitude":"127.6815804","source_code":"PORT47001010473","project_name":"\u6e2f\u6e7e\u5c40","survey_name":"\u81e8\u6e2f\u9053\u8def\u6cca\u9678\u4e0a\u90e8\u571f\u8cea\u8abf\u67fb","client_name":"\u5185\u95a3\u5e9c\u6c96\u7e04\u7dcf\u5408\u4e8b\u52d9\u5c40\u958b\u767a\u5efa\u8a2d\u90e8\u90a3\u8987\u6e2f\u6e7e\u30fb\u7a7a\u6e2f\u6574\u5099\u4e8b\u52d9\u6240","boring_xml_url":0,"boring_view_url":0,"soilmap_view_url":66,"soiltest_xml_url":0,"soiltest_view_url":66},{"id":127921,"code":"B4KJ201801001-6170","latitude":"26.23057783","longitude":"127.6815828","source_code":"PORT47001010472","project_name":"\u6e2f\u6e7e\u5c40","survey_name":"\u81e8\u6e2f\u9053\u8def\u6cca\u9678\u4e0a\u90e8\u571f\u8cea\u8abf\u67fb","client_name":"\u5185\u95a3\u5e9c\u6c96\u7e04\u7dcf\u5408\u4e8b\u52d9\u5c40\u958b\u767a\u5efa\u8a2d\u90e8\u90a3\u8987\u6e2f\u6e7e\u30fb\u7a7a\u6e2f\u6574\u5099\u4e8b\u52d9\u6240","boring_xml_url":0,"boring_view_url":0,"soilmap_view_url":66,"soiltest_xml_url":0,"soiltest_view_url":66},{"id":127920,"code":"B4KJ201801001-6169","latitude":"26.23058435","longitude":"127.681493","source_code":"PORT47001010471","project_name":"\u6e2f\u6e7e\u5c40","survey_name":"\u81e8\u6e2f\u9053\u8def\u6cca\u9678\u4e0a\u90e8\u571f\u8cea\u8abf\u67fb","client_name":"\u5185\u95a3\u5e9c\u6c96\u7e04\u7dcf\u5408\u4e8b\u52d9\u5c40\u958b\u767a\u5efa\u8a2d\u90e8\u90a3\u8987\u6e2f\u6e7e\u30fb\u7a7a\u6e2f\u6574\u5099\u4e8b\u52d9\u6240","boring_xml_url":0,"boring_view_url":0,"soilmap_view_url":66,"soiltest_xml_url":0,"soiltest_view_url":66},{"id":127919,"code":"B4KJ201801001-6168","latitude":"26.23055736","longitude":"127.681493","source_code":"PORT47001010470","project_name":"\u6e2f\u6e7e\u5c40","survey_name":"\u81e8\u6e2f\u9053\u8def\u6cca\u9678\u4e0a\u90e8\u571f\u8cea\u8abf\u67fb","client_name":"\u5185\u95a3\u5e9c\u6c96\u7e04\u7dcf\u5408\u4e8b\u52d9\u5c40\u958b\u767a\u5efa\u8a2d\u90e8\u90a3\u8987\u6e2f\u6e7e\u30fb\u7a7a\u6e2f\u6574\u5099\u4e8b\u52d9\u6240","boring_xml_url":0,"boring_view_url":0,"soilmap_view_url":66,"soiltest_xml_url":0,"soiltest_view_url":66},{"id":127918,"code":"B4KJ201801001-6167","latitude":"26.23016995","longitude":"127.6815444","source_code":"PORT47001010469","project_name":"\u6e2f\u6e7e\u5c40","survey_name":"\u81e8\u6e2f\u9053\u8def\u6cca\u9678\u4e0a\u90e8\u571f\u8cea\u8abf\u67fb","client_name":"\u5185\u95a3\u5e9c\u6c96\u7e04\u7dcf\u5408\u4e8b\u52d9\u5c40\u958b\u767a\u5efa\u8a2d\u90e8\u90a3\u8987\u6e2f\u6e7e\u30fb\u7a7a\u6e2f\u6574\u5099\u4e8b\u52d9\u6240","boring_xml_url":0,"boring_view_url":0,"soilmap_view_url":66,"soiltest_xml_url":0,"soiltest_view_url":66},{"id":127917,"code":"B4KJ201801001-6166","latitude":"26.23022392","longitude":"127.6815512","source_code":"PORT47001010468","project_name":"\u6e2f\u6e7e\u5c40","survey_name":"\u81e8\u6e2f\u9053\u8def\u6cca\u9678\u4e0a\u90e8\u571f\u8cea\u8abf\u67fb","client_name":"\u5185\u95a3\u5e9c\u6c96\u7e04\u7dcf\u5408\u4e8b\u52d9\u5c40\u958b\u767a\u5efa\u8a2d\u90e8\u90a3\u8987\u6e2f\u6e7e\u30fb\u7a7a\u6e2f\u6574\u5099\u4e8b\u52d9\u6240","boring_xml_url":0,"boring_view_url":0,"soilmap_view_url":66,"soiltest_xml_url":0,"soiltest_view_url":66},{"id":127916,"code":"B4KJ201801001-6165","latitude":"26.23023044","longitude":"127.6814614","source_code":"PORT47001010467","project_name":"\u6e2f\u6e7e\u5c40","survey_name":"\u81e8\u6e2f\u9053\u8def\u6cca\u9678\u4e0a\u90e8\u571f\u8cea\u8abf\u67fb","client_name":"\u5185\u95a3\u5e9c\u6c96\u7e04\u7dcf\u5408\u4e8b\u52d9\u5c40\u958b\u767a\u5efa\u8a2d\u90e8\u90a3\u8987\u6e2f\u6e7e\u30fb\u7a7a\u6e2f\u6574\u5099\u4e8b\u52d9\u6240","boring_xml_url":0,"boring_view_url":0,"soilmap_view_url":66,"soiltest_xml_url":0,"soiltest_view_url":66}]}}