{"header":{"xyz":{"source":[],"mosaic":false},"page":6423,"raw":{"soiltest_result":"0","bbox":"57.598333,109.544722,1.933333,163.806111","page":"6423"},"conditions":{"soiltest_result":0,"north":57.598333,"west":109.544722,"south":1.933333,"east":163.806111},"success":true,"message":""},"data":{"meta":{"total":212844,"page":6423,"pages":7095,"count":30},"values":[{"id":127885,"code":"B4KJ201801001-6134","latitude":"26.24782075","longitude":"127.6780426","source_code":"PORT47001010436","project_name":"\u6e2f\u6e7e\u5c40","survey_name":"\u30b1\u30fc\u30bd\u30f3\u4eee\u7f6e\u304d\u5834\u571f\u8cea\u8abf\u67fb","client_name":"\u5185\u95a3\u5e9c\u6c96\u7e04\u7dcf\u5408\u4e8b\u52d9\u5c40\u958b\u767a\u5efa\u8a2d\u90e8\u90a3\u8987\u6e2f\u6e7e\u30fb\u7a7a\u6e2f\u6574\u5099\u4e8b\u52d9\u6240","boring_xml_url":0,"boring_view_url":0,"soilmap_view_url":66,"soiltest_xml_url":0,"soiltest_view_url":66},{"id":127884,"code":"B4KJ201801001-6133","latitude":"26.24795597","longitude":"127.6781929","source_code":"PORT47001010435","project_name":"\u6e2f\u6e7e\u5c40","survey_name":"\u30b1\u30fc\u30bd\u30f3\u4eee\u7f6e\u304d\u5834\u571f\u8cea\u8abf\u67fb","client_name":"\u5185\u95a3\u5e9c\u6c96\u7e04\u7dcf\u5408\u4e8b\u52d9\u5c40\u958b\u767a\u5efa\u8a2d\u90e8\u90a3\u8987\u6e2f\u6e7e\u30fb\u7a7a\u6e2f\u6574\u5099\u4e8b\u52d9\u6240","boring_xml_url":0,"boring_view_url":0,"soilmap_view_url":66,"soiltest_xml_url":0,"soiltest_view_url":66},{"id":127883,"code":"B4KJ201801001-6132","latitude":"26.24795625","longitude":"127.6779627","source_code":"PORT47001010434","project_name":"\u6e2f\u6e7e\u5c40","survey_name":"\u30b1\u30fc\u30bd\u30f3\u4eee\u7f6e\u304d\u5834\u571f\u8cea\u8abf\u67fb","client_name":"\u5185\u95a3\u5e9c\u6c96\u7e04\u7dcf\u5408\u4e8b\u52d9\u5c40\u958b\u767a\u5efa\u8a2d\u90e8\u90a3\u8987\u6e2f\u6e7e\u30fb\u7a7a\u6e2f\u6574\u5099\u4e8b\u52d9\u6240","boring_xml_url":0,"boring_view_url":0,"soilmap_view_url":66,"soiltest_xml_url":0,"soiltest_view_url":66},{"id":127882,"code":"B4KJ201801001-6131","latitude":"26.24795653","longitude":"127.6777425","source_code":"PORT47001010433","project_name":"\u6e2f\u6e7e\u5c40","survey_name":"\u30b1\u30fc\u30bd\u30f3\u4eee\u7f6e\u304d\u5834\u571f\u8cea\u8abf\u67fb","client_name":"\u5185\u95a3\u5e9c\u6c96\u7e04\u7dcf\u5408\u4e8b\u52d9\u5c40\u958b\u767a\u5efa\u8a2d\u90e8\u90a3\u8987\u6e2f\u6e7e\u30fb\u7a7a\u6e2f\u6574\u5099\u4e8b\u52d9\u6240","boring_xml_url":0,"boring_view_url":0,"soilmap_view_url":66,"soiltest_xml_url":0,"soiltest_view_url":66},{"id":127881,"code":"B4KJ201801001-6130","latitude":"26.24795651","longitude":"127.6777425","source_code":"PORT47001010432","project_name":"\u6e2f\u6e7e\u5c40","survey_name":"\u90a3\u8987\u6e2f\u81e8\u6e2f\u9053\u8def\u571f\u8cea\u8abf\u67fb","client_name":"\u5185\u95a3\u5e9c\u6c96\u7e04\u7dcf\u5408\u4e8b\u52d9\u5c40\u958b\u767a\u5efa\u8a2d\u90e8\u90a3\u8987\u6e2f\u6e7e\u30fb\u7a7a\u6e2f\u6574\u5099\u4e8b\u52d9\u6240","boring_xml_url":0,"boring_view_url":0,"soilmap_view_url":66,"soiltest_xml_url":0,"soiltest_view_url":66},{"id":127880,"code":"B4KJ201801001-6129","latitude":"26.23347029","longitude":"127.6733343","source_code":"PORT47001010431","project_name":"\u6e2f\u6e7e\u5c40","survey_name":"\u90a3\u8987\u6e2f\u81e8\u6e2f\u9053\u8def\u571f\u8cea\u8abf\u67fb","client_name":"\u5185\u95a3\u5e9c\u6c96\u7e04\u7dcf\u5408\u4e8b\u52d9\u5c40\u958b\u767a\u5efa\u8a2d\u90e8\u90a3\u8987\u6e2f\u6e7e\u30fb\u7a7a\u6e2f\u6574\u5099\u4e8b\u52d9\u6240","boring_xml_url":0,"boring_view_url":0,"soilmap_view_url":66,"soiltest_xml_url":0,"soiltest_view_url":66},{"id":127879,"code":"B4KJ201801001-6128","latitude":"26.23347029","longitude":"127.6733343","source_code":"PORT47001010430","project_name":"\u6e2f\u6e7e\u5c40","survey_name":"\u90a3\u8987\u6e2f\u81e8\u6e2f\u9053\u8def\u571f\u8cea\u8abf\u67fb","client_name":"\u5185\u95a3\u5e9c\u6c96\u7e04\u7dcf\u5408\u4e8b\u52d9\u5c40\u958b\u767a\u5efa\u8a2d\u90e8\u90a3\u8987\u6e2f\u6e7e\u30fb\u7a7a\u6e2f\u6574\u5099\u4e8b\u52d9\u6240","boring_xml_url":0,"boring_view_url":0,"soilmap_view_url":66,"soiltest_xml_url":0,"soiltest_view_url":66},{"id":127878,"code":"B4KJ201801001-6127","latitude":"26.23235928","longitude":"127.672501","source_code":"PORT47001010429","project_name":"\u6e2f\u6e7e\u5c40","survey_name":"\u90a3\u8987\u6e2f\u81e8\u6e2f\u9053\u8def\u571f\u8cea\u8abf\u67fb","client_name":"\u5185\u95a3\u5e9c\u6c96\u7e04\u7dcf\u5408\u4e8b\u52d9\u5c40\u958b\u767a\u5efa\u8a2d\u90e8\u90a3\u8987\u6e2f\u6e7e\u30fb\u7a7a\u6e2f\u6574\u5099\u4e8b\u52d9\u6240","boring_xml_url":0,"boring_view_url":0,"soilmap_view_url":66,"soiltest_xml_url":0,"soiltest_view_url":66},{"id":127877,"code":"B4KJ201801001-6126","latitude":"26.23235928","longitude":"127.672501","source_code":"PORT47001010428","project_name":"\u6e2f\u6e7e\u5c40","survey_name":"\u90a3\u8987\u6e2f\u81e8\u6e2f\u9053\u8def\u571f\u8cea\u8abf\u67fb","client_name":"\u5185\u95a3\u5e9c\u6c96\u7e04\u7dcf\u5408\u4e8b\u52d9\u5c40\u958b\u767a\u5efa\u8a2d\u90e8\u90a3\u8987\u6e2f\u6e7e\u30fb\u7a7a\u6e2f\u6574\u5099\u4e8b\u52d9\u6240","boring_xml_url":0,"boring_view_url":0,"soilmap_view_url":66,"soiltest_xml_url":0,"soiltest_view_url":66},{"id":127876,"code":"B4KJ201801001-6125","latitude":"26.23208154","longitude":"127.672501","source_code":"PORT47001010427","project_name":"\u6e2f\u6e7e\u5c40","survey_name":"\u90a3\u8987\u6e2f\u81e8\u6e2f\u9053\u8def\u571f\u8cea\u8abf\u67fb","client_name":"\u5185\u95a3\u5e9c\u6c96\u7e04\u7dcf\u5408\u4e8b\u52d9\u5c40\u958b\u767a\u5efa\u8a2d\u90e8\u90a3\u8987\u6e2f\u6e7e\u30fb\u7a7a\u6e2f\u6574\u5099\u4e8b\u52d9\u6240","boring_xml_url":0,"boring_view_url":0,"soilmap_view_url":66,"soiltest_xml_url":0,"soiltest_view_url":66},{"id":127875,"code":"B4KJ201801001-6124","latitude":"26.23208154","longitude":"127.672501","source_code":"PORT47001010426","project_name":"\u6e2f\u6e7e\u5c40","survey_name":"\u90a3\u8987\u6e2f\u81e8\u6e2f\u9053\u8def\u571f\u8cea\u8abf\u67fb","client_name":"\u5185\u95a3\u5e9c\u6c96\u7e04\u7dcf\u5408\u4e8b\u52d9\u5c40\u958b\u767a\u5efa\u8a2d\u90e8\u90a3\u8987\u6e2f\u6e7e\u30fb\u7a7a\u6e2f\u6574\u5099\u4e8b\u52d9\u6240","boring_xml_url":0,"boring_view_url":0,"soilmap_view_url":66,"soiltest_xml_url":0,"soiltest_view_url":66},{"id":127874,"code":"B4KJ201801001-6123","latitude":"26.23097053","longitude":"127.6716678","source_code":"PORT47001010425","project_name":"\u6e2f\u6e7e\u5c40","survey_name":"\u90a3\u8987\u6e2f\u81e8\u6e2f\u9053\u8def\u571f\u8cea\u8abf\u67fb","client_name":"\u5185\u95a3\u5e9c\u6c96\u7e04\u7dcf\u5408\u4e8b\u52d9\u5c40\u958b\u767a\u5efa\u8a2d\u90e8\u90a3\u8987\u6e2f\u6e7e\u30fb\u7a7a\u6e2f\u6574\u5099\u4e8b\u52d9\u6240","boring_xml_url":0,"boring_view_url":0,"soilmap_view_url":66,"soiltest_xml_url":0,"soiltest_view_url":66},{"id":127873,"code":"B4KJ201801001-6122","latitude":"26.23069278","longitude":"127.6713901","source_code":"PORT47001010424","project_name":"\u6e2f\u6e7e\u5c40","survey_name":"\u90a3\u8987\u6e2f\u81e8\u6e2f\u9053\u8def\u571f\u8cea\u8abf\u67fb","client_name":"\u5185\u95a3\u5e9c\u6c96\u7e04\u7dcf\u5408\u4e8b\u52d9\u5c40\u958b\u767a\u5efa\u8a2d\u90e8\u90a3\u8987\u6e2f\u6e7e\u30fb\u7a7a\u6e2f\u6574\u5099\u4e8b\u52d9\u6240","boring_xml_url":0,"boring_view_url":0,"soilmap_view_url":66,"soiltest_xml_url":0,"soiltest_view_url":66},{"id":127872,"code":"B4KJ201801001-6121","latitude":"26.23069278","longitude":"127.6713901","source_code":"PORT47001010423","project_name":"\u6e2f\u6e7e\u5c40","survey_name":"\u90a3\u8987\u6e2f\u81e8\u6e2f\u9053\u8def\u571f\u8cea\u8abf\u67fb","client_name":"\u5185\u95a3\u5e9c\u6c96\u7e04\u7dcf\u5408\u4e8b\u52d9\u5c40\u958b\u767a\u5efa\u8a2d\u90e8\u90a3\u8987\u6e2f\u6e7e\u30fb\u7a7a\u6e2f\u6574\u5099\u4e8b\u52d9\u6240","boring_xml_url":0,"boring_view_url":0,"soilmap_view_url":66,"soiltest_xml_url":0,"soiltest_view_url":66},{"id":127871,"code":"B4KJ201801001-6120","latitude":"26.23041503","longitude":"127.6713901","source_code":"PORT47001010422","project_name":"\u6e2f\u6e7e\u5c40","survey_name":"\u90a3\u8987\u6e2f\u81e8\u6e2f\u9053\u8def\u571f\u8cea\u8abf\u67fb","client_name":"\u5185\u95a3\u5e9c\u6c96\u7e04\u7dcf\u5408\u4e8b\u52d9\u5c40\u958b\u767a\u5efa\u8a2d\u90e8\u90a3\u8987\u6e2f\u6e7e\u30fb\u7a7a\u6e2f\u6574\u5099\u4e8b\u52d9\u6240","boring_xml_url":0,"boring_view_url":0,"soilmap_view_url":66,"soiltest_xml_url":0,"soiltest_view_url":66},{"id":127870,"code":"B4KJ201801001-6119","latitude":"26.23013728","longitude":"127.6711123","source_code":"PORT47001010421","project_name":"\u6e2f\u6e7e\u5c40","survey_name":"\u90a3\u8987\u6e2f\u81e8\u6e2f\u9053\u8def\u571f\u8cea\u8abf\u67fb","client_name":"\u5185\u95a3\u5e9c\u6c96\u7e04\u7dcf\u5408\u4e8b\u52d9\u5c40\u958b\u767a\u5efa\u8a2d\u90e8\u90a3\u8987\u6e2f\u6e7e\u30fb\u7a7a\u6e2f\u6574\u5099\u4e8b\u52d9\u6240","boring_xml_url":0,"boring_view_url":0,"soilmap_view_url":66,"soiltest_xml_url":0,"soiltest_view_url":66},{"id":127869,"code":"B4KJ201801001-6118","latitude":"26.22958177","longitude":"127.6705568","source_code":"PORT47001010420","project_name":"\u6e2f\u6e7e\u5c40","survey_name":"\u90a3\u8987\u6e2f\u81e8\u6e2f\u9053\u8def\u571f\u8cea\u8abf\u67fb","client_name":"\u5185\u95a3\u5e9c\u6c96\u7e04\u7dcf\u5408\u4e8b\u52d9\u5c40\u958b\u767a\u5efa\u8a2d\u90e8\u90a3\u8987\u6e2f\u6e7e\u30fb\u7a7a\u6e2f\u6574\u5099\u4e8b\u52d9\u6240","boring_xml_url":0,"boring_view_url":0,"soilmap_view_url":66,"soiltest_xml_url":0,"soiltest_view_url":66},{"id":127868,"code":"B4KJ201801001-6117","latitude":"26.22930402","longitude":"127.6705568","source_code":"PORT47001010419","project_name":"\u6e2f\u6e7e\u5c40","survey_name":"\u90a3\u8987\u6e2f\u81e8\u6e2f\u9053\u8def\u571f\u8cea\u8abf\u67fb","client_name":"\u5185\u95a3\u5e9c\u6c96\u7e04\u7dcf\u5408\u4e8b\u52d9\u5c40\u958b\u767a\u5efa\u8a2d\u90e8\u90a3\u8987\u6e2f\u6e7e\u30fb\u7a7a\u6e2f\u6574\u5099\u4e8b\u52d9\u6240","boring_xml_url":0,"boring_view_url":0,"soilmap_view_url":66,"soiltest_xml_url":0,"soiltest_view_url":66},{"id":127867,"code":"B4KJ201801001-6116","latitude":"26.22237315","longitude":"127.6626105","source_code":"PORT47001010418","project_name":"\u6e2f\u6e7e\u5c40","survey_name":"\u90a3\u8987\u6e2f\u81e8\u6e2f\u9053\u8def\u571f\u8cea\u8abf\u67fb","client_name":"\u5185\u95a3\u5e9c\u6c96\u7e04\u7dcf\u5408\u4e8b\u52d9\u5c40\u958b\u767a\u5efa\u8a2d\u90e8\u90a3\u8987\u6e2f\u6e7e\u30fb\u7a7a\u6e2f\u6574\u5099\u4e8b\u52d9\u6240","boring_xml_url":0,"boring_view_url":0,"soilmap_view_url":66,"soiltest_xml_url":0,"soiltest_view_url":66},{"id":127866,"code":"B4KJ201801001-6115","latitude":"26.22296914","longitude":"127.6624112","source_code":"PORT47001010417","project_name":"\u6e2f\u6e7e\u5c40","survey_name":"\u90a3\u8987\u6e2f\u81e8\u6e2f\u9053\u8def\u571f\u8cea\u8abf\u67fb","client_name":"\u5185\u95a3\u5e9c\u6c96\u7e04\u7dcf\u5408\u4e8b\u52d9\u5c40\u958b\u767a\u5efa\u8a2d\u90e8\u90a3\u8987\u6e2f\u6e7e\u30fb\u7a7a\u6e2f\u6574\u5099\u4e8b\u52d9\u6240","boring_xml_url":0,"boring_view_url":0,"soilmap_view_url":66,"soiltest_xml_url":0,"soiltest_view_url":66},{"id":127865,"code":"B4KJ201801001-6114","latitude":"26.22272332","longitude":"127.6642724","source_code":"PORT47001010416","project_name":"\u6e2f\u6e7e\u5c40","survey_name":"\u90a3\u8987\u6e2f\u81e8\u6e2f\u9053\u8def\u571f\u8cea\u8abf\u67fb","client_name":"\u5185\u95a3\u5e9c\u6c96\u7e04\u7dcf\u5408\u4e8b\u52d9\u5c40\u958b\u767a\u5efa\u8a2d\u90e8\u90a3\u8987\u6e2f\u6e7e\u30fb\u7a7a\u6e2f\u6574\u5099\u4e8b\u52d9\u6240","boring_xml_url":0,"boring_view_url":0,"soilmap_view_url":66,"soiltest_xml_url":0,"soiltest_view_url":66},{"id":127864,"code":"B4KJ201801001-6113","latitude":"26.22306646","longitude":"127.6641627","source_code":"PORT47001010415","project_name":"\u6e2f\u6e7e\u5c40","survey_name":"\u90a3\u8987\u6e2f\u81e8\u6e2f\u9053\u8def\u571f\u8cea\u8abf\u67fb","client_name":"\u5185\u95a3\u5e9c\u6c96\u7e04\u7dcf\u5408\u4e8b\u52d9\u5c40\u958b\u767a\u5efa\u8a2d\u90e8\u90a3\u8987\u6e2f\u6e7e\u30fb\u7a7a\u6e2f\u6574\u5099\u4e8b\u52d9\u6240","boring_xml_url":0,"boring_view_url":0,"soilmap_view_url":66,"soiltest_xml_url":0,"soiltest_view_url":66},{"id":127863,"code":"B4KJ201801001-6112","latitude":"26.22341865","longitude":"127.6640431","source_code":"PORT47001010414","project_name":"\u6e2f\u6e7e\u5c40","survey_name":"\u90a3\u8987\u6e2f\u81e8\u6e2f\u9053\u8def\u571f\u8cea\u8abf\u67fb","client_name":"\u5185\u95a3\u5e9c\u6c96\u7e04\u7dcf\u5408\u4e8b\u52d9\u5c40\u958b\u767a\u5efa\u8a2d\u90e8\u90a3\u8987\u6e2f\u6e7e\u30fb\u7a7a\u6e2f\u6574\u5099\u4e8b\u52d9\u6240","boring_xml_url":0,"boring_view_url":0,"soilmap_view_url":66,"soiltest_xml_url":0,"soiltest_view_url":66},{"id":127862,"code":"B4KJ201801001-6111","latitude":"26.22303795","longitude":"127.6654237","source_code":"PORT47001010413","project_name":"\u6e2f\u6e7e\u5c40","survey_name":"\u90a3\u8987\u6e2f\u81e8\u6e2f\u9053\u8def\u571f\u8cea\u8abf\u67fb","client_name":"\u5185\u95a3\u5e9c\u6c96\u7e04\u7dcf\u5408\u4e8b\u52d9\u5c40\u958b\u767a\u5efa\u8a2d\u90e8\u90a3\u8987\u6e2f\u6e7e\u30fb\u7a7a\u6e2f\u6574\u5099\u4e8b\u52d9\u6240","boring_xml_url":0,"boring_view_url":0,"soilmap_view_url":66,"soiltest_xml_url":0,"soiltest_view_url":66},{"id":127861,"code":"B4KJ201801001-6110","latitude":"26.22338109","longitude":"127.6653141","source_code":"PORT47001010412","project_name":"\u6e2f\u6e7e\u5c40","survey_name":"\u90a3\u8987\u6e2f\u81e8\u6e2f\u9053\u8def\u571f\u8cea\u8abf\u67fb","client_name":"\u5185\u95a3\u5e9c\u6c96\u7e04\u7dcf\u5408\u4e8b\u52d9\u5c40\u958b\u767a\u5efa\u8a2d\u90e8\u90a3\u8987\u6e2f\u6e7e\u30fb\u7a7a\u6e2f\u6574\u5099\u4e8b\u52d9\u6240","boring_xml_url":0,"boring_view_url":0,"soilmap_view_url":66,"soiltest_xml_url":0,"soiltest_view_url":66},{"id":127860,"code":"B4KJ201801001-6109","latitude":"26.22339748","longitude":"127.6667653","source_code":"PORT47001010411","project_name":"\u6e2f\u6e7e\u5c40","survey_name":"\u90a3\u8987\u6e2f\u81e8\u6e2f\u9053\u8def\u571f\u8cea\u8abf\u67fb","client_name":"\u5185\u95a3\u5e9c\u6c96\u7e04\u7dcf\u5408\u4e8b\u52d9\u5c40\u958b\u767a\u5efa\u8a2d\u90e8\u90a3\u8987\u6e2f\u6e7e\u30fb\u7a7a\u6e2f\u6574\u5099\u4e8b\u52d9\u6240","boring_xml_url":0,"boring_view_url":0,"soilmap_view_url":66,"soiltest_xml_url":0,"soiltest_view_url":66},{"id":127859,"code":"B4KJ201801001-6108","latitude":"26.22374064","longitude":"127.6666457","source_code":"PORT47001010410","project_name":"\u6e2f\u6e7e\u5c40","survey_name":"\u90a3\u8987\u6e2f\u81e8\u6e2f\u9053\u8def\u571f\u8cea\u8abf\u67fb","client_name":"\u5185\u95a3\u5e9c\u6c96\u7e04\u7dcf\u5408\u4e8b\u52d9\u5c40\u958b\u767a\u5efa\u8a2d\u90e8\u90a3\u8987\u6e2f\u6e7e\u30fb\u7a7a\u6e2f\u6574\u5099\u4e8b\u52d9\u6240","boring_xml_url":0,"boring_view_url":0,"soilmap_view_url":66,"soiltest_xml_url":0,"soiltest_view_url":66},{"id":127858,"code":"B4KJ201801001-6107","latitude":"26.22410183","longitude":"127.6665461","source_code":"PORT47001010409","project_name":"\u6e2f\u6e7e\u5c40","survey_name":"\u90a3\u8987\u6e2f\u822a\u8def(-11m)\u571f\u8cea\u8abf\u67fb","client_name":"\u5185\u95a3\u5e9c\u6c96\u7e04\u7dcf\u5408\u4e8b\u52d9\u5c40\u958b\u767a\u5efa\u8a2d\u90e8\u90a3\u8987\u6e2f\u6e7e\u30fb\u7a7a\u6e2f\u6574\u5099\u4e8b\u52d9\u6240","boring_xml_url":0,"boring_view_url":0,"soilmap_view_url":66,"soiltest_xml_url":0,"soiltest_view_url":66},{"id":127857,"code":"B4KJ201801001-6106","latitude":"26.21802402","longitude":"127.6547653","source_code":"PORT47001010408","project_name":"\u6e2f\u6e7e\u5c40","survey_name":"\u90a3\u8987\u6e2f\u822a\u8def(-11m)\u571f\u8cea\u8abf\u67fb","client_name":"\u5185\u95a3\u5e9c\u6c96\u7e04\u7dcf\u5408\u4e8b\u52d9\u5c40\u958b\u767a\u5efa\u8a2d\u90e8\u90a3\u8987\u6e2f\u6e7e\u30fb\u7a7a\u6e2f\u6574\u5099\u4e8b\u52d9\u6240","boring_xml_url":0,"boring_view_url":0,"soilmap_view_url":66,"soiltest_xml_url":0,"soiltest_view_url":66},{"id":127856,"code":"B4KJ201801001-6105","latitude":"26.21791516","longitude":"127.654925","source_code":"PORT47001010407","project_name":"\u6e2f\u6e7e\u5c40","survey_name":"\u90a3\u8987\u6e2f\u81e8\u6e2f\u9053\u8def\u6c34\u5e73\u8f09\u8377\u8a66\u9a13\u5de5\u4e8b","client_name":"\u5185\u95a3\u5e9c\u6c96\u7e04\u7dcf\u5408\u4e8b\u52d9\u5c40\u958b\u767a\u5efa\u8a2d\u90e8\u90a3\u8987\u6e2f\u6e7e\u30fb\u7a7a\u6e2f\u6574\u5099\u4e8b\u52d9\u6240","boring_xml_url":0,"boring_view_url":0,"soilmap_view_url":66,"soiltest_xml_url":0,"soiltest_view_url":66}]}}