{"header":{"xyz":{"source":[],"mosaic":false},"page":6430,"raw":{"soiltest_result":"0","bbox":"57.598333,109.544722,1.933333,163.806111","page":"6430"},"conditions":{"soiltest_result":0,"north":57.598333,"west":109.544722,"south":1.933333,"east":163.806111},"success":true,"message":""},"data":{"meta":{"total":212844,"page":6430,"pages":7095,"count":30},"values":[{"id":127675,"code":"B4KJ201801001-5924","latitude":"26.23541457","longitude":"127.6761118","source_code":"PORT47001010226","project_name":"\u6e2f\u6e7e\u5c40","survey_name":"\u90a3\u8987\u6e2f(\u5cb8\u58c1-11m)\u571f\u8cea\u8abf\u67fb","client_name":"\u5185\u95a3\u5e9c\u6c96\u7e04\u7dcf\u5408\u4e8b\u52d9\u5c40\u958b\u767a\u5efa\u8a2d\u90e8\u90a3\u8987\u6e2f\u6e7e\u30fb\u7a7a\u6e2f\u6574\u5099\u4e8b\u52d9\u6240","boring_xml_url":0,"boring_view_url":0,"soilmap_view_url":66,"soiltest_xml_url":0,"soiltest_view_url":66},{"id":127674,"code":"B4KJ201801001-5923","latitude":"26.23597006","longitude":"127.675834","source_code":"PORT47001010225","project_name":"\u6e2f\u6e7e\u5c40","survey_name":"\u90a3\u8987\u6e2f(\u5cb8\u58c1-11m)\u571f\u8cea\u8abf\u67fb","client_name":"\u5185\u95a3\u5e9c\u6c96\u7e04\u7dcf\u5408\u4e8b\u52d9\u5c40\u958b\u767a\u5efa\u8a2d\u90e8\u90a3\u8987\u6e2f\u6e7e\u30fb\u7a7a\u6e2f\u6574\u5099\u4e8b\u52d9\u6240","boring_xml_url":0,"boring_view_url":0,"soilmap_view_url":66,"soiltest_xml_url":0,"soiltest_view_url":66},{"id":127673,"code":"B4KJ201801001-5922","latitude":"26.23624781","longitude":"127.675834","source_code":"PORT47001010224","project_name":"\u6e2f\u6e7e\u5c40","survey_name":"\u90a3\u8987\u6e2f(\u5cb8\u58c1-11m)\u571f\u8cea\u8abf\u67fb","client_name":"\u5185\u95a3\u5e9c\u6c96\u7e04\u7dcf\u5408\u4e8b\u52d9\u5c40\u958b\u767a\u5efa\u8a2d\u90e8\u90a3\u8987\u6e2f\u6e7e\u30fb\u7a7a\u6e2f\u6574\u5099\u4e8b\u52d9\u6240","boring_xml_url":0,"boring_view_url":0,"soilmap_view_url":66,"soiltest_xml_url":0,"soiltest_view_url":66},{"id":127672,"code":"B4KJ201801001-5921","latitude":"26.23513683","longitude":"127.6763896","source_code":"PORT47001010223","project_name":"\u6e2f\u6e7e\u5c40","survey_name":"\u90a3\u8987\u6e2f(\u5cb8\u58c1-11m)\u571f\u8cea\u8abf\u67fb","client_name":"\u5185\u95a3\u5e9c\u6c96\u7e04\u7dcf\u5408\u4e8b\u52d9\u5c40\u958b\u767a\u5efa\u8a2d\u90e8\u90a3\u8987\u6e2f\u6e7e\u30fb\u7a7a\u6e2f\u6574\u5099\u4e8b\u52d9\u6240","boring_xml_url":0,"boring_view_url":0,"soilmap_view_url":66,"soiltest_xml_url":0,"soiltest_view_url":66},{"id":127671,"code":"B4KJ201801001-5920","latitude":"26.23541457","longitude":"127.6761118","source_code":"PORT47001010222","project_name":"\u6e2f\u6e7e\u5c40","survey_name":"\u90a3\u8987\u6e2f(\u5cb8\u58c1-11m)\u571f\u8cea\u8abf\u67fb","client_name":"\u5185\u95a3\u5e9c\u6c96\u7e04\u7dcf\u5408\u4e8b\u52d9\u5c40\u958b\u767a\u5efa\u8a2d\u90e8\u90a3\u8987\u6e2f\u6e7e\u30fb\u7a7a\u6e2f\u6574\u5099\u4e8b\u52d9\u6240","boring_xml_url":0,"boring_view_url":0,"soilmap_view_url":66,"soiltest_xml_url":0,"soiltest_view_url":66},{"id":127670,"code":"B4KJ201801001-5919","latitude":"26.23597006","longitude":"127.675834","source_code":"PORT47001010221","project_name":"\u6e2f\u6e7e\u5c40","survey_name":"\u90a3\u8987\u6e2f(\u5cb8\u58c1-11m)\u571f\u8cea\u8abf\u67fb","client_name":"\u5185\u95a3\u5e9c\u6c96\u7e04\u7dcf\u5408\u4e8b\u52d9\u5c40\u958b\u767a\u5efa\u8a2d\u90e8\u90a3\u8987\u6e2f\u6e7e\u30fb\u7a7a\u6e2f\u6574\u5099\u4e8b\u52d9\u6240","boring_xml_url":0,"boring_view_url":0,"soilmap_view_url":66,"soiltest_xml_url":0,"soiltest_view_url":66},{"id":127669,"code":"B4KJ201801001-5918","latitude":"26.23624782","longitude":"127.6761118","source_code":"PORT47001010220","project_name":"\u6e2f\u6e7e\u5c40","survey_name":"\u90a3\u8987\u6e2f(\u5cb8\u58c1-11m)\u571f\u8cea\u8abf\u67fb","client_name":"\u5185\u95a3\u5e9c\u6c96\u7e04\u7dcf\u5408\u4e8b\u52d9\u5c40\u958b\u767a\u5efa\u8a2d\u90e8\u90a3\u8987\u6e2f\u6e7e\u30fb\u7a7a\u6e2f\u6574\u5099\u4e8b\u52d9\u6240","boring_xml_url":0,"boring_view_url":0,"soilmap_view_url":66,"soiltest_xml_url":0,"soiltest_view_url":66},{"id":127668,"code":"B4KJ201801001-5917","latitude":"26.23485908","longitude":"127.6763896","source_code":"PORT47001010219","project_name":"\u6e2f\u6e7e\u5c40","survey_name":"\u90a3\u8987\u6e2f(\u5cb8\u58c1-11m)\u571f\u8cea\u8abf\u67fb","client_name":"\u5185\u95a3\u5e9c\u6c96\u7e04\u7dcf\u5408\u4e8b\u52d9\u5c40\u958b\u767a\u5efa\u8a2d\u90e8\u90a3\u8987\u6e2f\u6e7e\u30fb\u7a7a\u6e2f\u6574\u5099\u4e8b\u52d9\u6240","boring_xml_url":0,"boring_view_url":0,"soilmap_view_url":66,"soiltest_xml_url":0,"soiltest_view_url":66},{"id":127667,"code":"B4KJ201801001-5916","latitude":"26.23541457","longitude":"127.6761118","source_code":"PORT47001010218","project_name":"\u6e2f\u6e7e\u5c40","survey_name":"\u90a3\u8987\u6e2f(\u5cb8\u58c1-11m)\u571f\u8cea\u8abf\u67fb","client_name":"\u5185\u95a3\u5e9c\u6c96\u7e04\u7dcf\u5408\u4e8b\u52d9\u5c40\u958b\u767a\u5efa\u8a2d\u90e8\u90a3\u8987\u6e2f\u6e7e\u30fb\u7a7a\u6e2f\u6574\u5099\u4e8b\u52d9\u6240","boring_xml_url":0,"boring_view_url":0,"soilmap_view_url":66,"soiltest_xml_url":0,"soiltest_view_url":66},{"id":127666,"code":"B4KJ201801001-5915","latitude":"26.23569231","longitude":"127.675834","source_code":"PORT47001010217","project_name":"\u6e2f\u6e7e\u5c40","survey_name":"\u90a3\u8987\u6e2f(\u5cb8\u58c1-11m)\u571f\u8cea\u8abf\u67fb","client_name":"\u5185\u95a3\u5e9c\u6c96\u7e04\u7dcf\u5408\u4e8b\u52d9\u5c40\u958b\u767a\u5efa\u8a2d\u90e8\u90a3\u8987\u6e2f\u6e7e\u30fb\u7a7a\u6e2f\u6574\u5099\u4e8b\u52d9\u6240","boring_xml_url":0,"boring_view_url":0,"soilmap_view_url":66,"soiltest_xml_url":0,"soiltest_view_url":66},{"id":127665,"code":"B4KJ201801001-5914","latitude":"26.23624781","longitude":"127.6755563","source_code":"PORT47001010216","project_name":"\u6e2f\u6e7e\u5c40","survey_name":"\u90a3\u8987\u6e2f(\u5cb8\u58c1-11m)\u571f\u8cea\u8abf\u67fb","client_name":"\u5185\u95a3\u5e9c\u6c96\u7e04\u7dcf\u5408\u4e8b\u52d9\u5c40\u958b\u767a\u5efa\u8a2d\u90e8\u90a3\u8987\u6e2f\u6e7e\u30fb\u7a7a\u6e2f\u6574\u5099\u4e8b\u52d9\u6240","boring_xml_url":0,"boring_view_url":0,"soilmap_view_url":66,"soiltest_xml_url":0,"soiltest_view_url":66},{"id":127664,"code":"B4KJ201801001-5913","latitude":"26.23513682","longitude":"127.6761118","source_code":"PORT47001010215","project_name":"\u6e2f\u6e7e\u5c40","survey_name":"\u90a3\u8987\u6e2f(\u5cb8\u58c1-11m)\u571f\u8cea\u8abf\u67fb","client_name":"\u5185\u95a3\u5e9c\u6c96\u7e04\u7dcf\u5408\u4e8b\u52d9\u5c40\u958b\u767a\u5efa\u8a2d\u90e8\u90a3\u8987\u6e2f\u6e7e\u30fb\u7a7a\u6e2f\u6574\u5099\u4e8b\u52d9\u6240","boring_xml_url":0,"boring_view_url":0,"soilmap_view_url":66,"soiltest_xml_url":0,"soiltest_view_url":66},{"id":127663,"code":"B4KJ201801001-5912","latitude":"26.23541457","longitude":"127.6761118","source_code":"PORT47001010214","project_name":"\u6e2f\u6e7e\u5c40","survey_name":"\u90a3\u8987\u6e2f(\u5cb8\u58c1-11m)\u571f\u8cea\u8abf\u67fb","client_name":"\u5185\u95a3\u5e9c\u6c96\u7e04\u7dcf\u5408\u4e8b\u52d9\u5c40\u958b\u767a\u5efa\u8a2d\u90e8\u90a3\u8987\u6e2f\u6e7e\u30fb\u7a7a\u6e2f\u6574\u5099\u4e8b\u52d9\u6240","boring_xml_url":0,"boring_view_url":0,"soilmap_view_url":66,"soiltest_xml_url":0,"soiltest_view_url":66},{"id":127662,"code":"B4KJ201801001-5911","latitude":"26.23569231","longitude":"127.675834","source_code":"PORT47001010213","project_name":"\u6e2f\u6e7e\u5c40","survey_name":"\u90a3\u8987\u6e2f(\u5cb8\u58c1-11m)\u571f\u8cea\u8abf\u67fb","client_name":"\u5185\u95a3\u5e9c\u6c96\u7e04\u7dcf\u5408\u4e8b\u52d9\u5c40\u958b\u767a\u5efa\u8a2d\u90e8\u90a3\u8987\u6e2f\u6e7e\u30fb\u7a7a\u6e2f\u6574\u5099\u4e8b\u52d9\u6240","boring_xml_url":0,"boring_view_url":0,"soilmap_view_url":66,"soiltest_xml_url":0,"soiltest_view_url":66},{"id":127661,"code":"B4KJ201801001-5910","latitude":"26.23624781","longitude":"127.6755563","source_code":"PORT47001010212","project_name":"\u6e2f\u6e7e\u5c40","survey_name":"\u90a3\u8987\u6e2f(\u5cb8\u58c1-11m)\u571f\u8cea\u8abf\u67fb","client_name":"\u5185\u95a3\u5e9c\u6c96\u7e04\u7dcf\u5408\u4e8b\u52d9\u5c40\u958b\u767a\u5efa\u8a2d\u90e8\u90a3\u8987\u6e2f\u6e7e\u30fb\u7a7a\u6e2f\u6574\u5099\u4e8b\u52d9\u6240","boring_xml_url":0,"boring_view_url":0,"soilmap_view_url":66,"soiltest_xml_url":0,"soiltest_view_url":66},{"id":127660,"code":"B4KJ201801001-5909","latitude":"26.23513683","longitude":"127.6763896","source_code":"PORT47001010211","project_name":"\u6e2f\u6e7e\u5c40","survey_name":"\u90a3\u8987\u6e2f(\u5cb8\u58c1-11m)\u571f\u8cea\u8abf\u67fb","client_name":"\u5185\u95a3\u5e9c\u6c96\u7e04\u7dcf\u5408\u4e8b\u52d9\u5c40\u958b\u767a\u5efa\u8a2d\u90e8\u90a3\u8987\u6e2f\u6e7e\u30fb\u7a7a\u6e2f\u6574\u5099\u4e8b\u52d9\u6240","boring_xml_url":0,"boring_view_url":0,"soilmap_view_url":66,"soiltest_xml_url":0,"soiltest_view_url":66},{"id":127659,"code":"B4KJ201801001-5908","latitude":"26.23541457","longitude":"127.6761118","source_code":"PORT47001010210","project_name":"\u6e2f\u6e7e\u5c40","survey_name":"\u90a3\u8987\u6e2f(\u5cb8\u58c1-11m)\u571f\u8cea\u8abf\u67fb","client_name":"\u5185\u95a3\u5e9c\u6c96\u7e04\u7dcf\u5408\u4e8b\u52d9\u5c40\u958b\u767a\u5efa\u8a2d\u90e8\u90a3\u8987\u6e2f\u6e7e\u30fb\u7a7a\u6e2f\u6574\u5099\u4e8b\u52d9\u6240","boring_xml_url":0,"boring_view_url":0,"soilmap_view_url":66,"soiltest_xml_url":0,"soiltest_view_url":66},{"id":127658,"code":"B4KJ201801001-5907","latitude":"26.23597007","longitude":"127.6761118","source_code":"PORT47001010209","project_name":"\u6e2f\u6e7e\u5c40","survey_name":"\u90a3\u8987\u6e2f(\u5cb8\u58c1-11m)\u571f\u8cea\u8abf\u67fb","client_name":"\u5185\u95a3\u5e9c\u6c96\u7e04\u7dcf\u5408\u4e8b\u52d9\u5c40\u958b\u767a\u5efa\u8a2d\u90e8\u90a3\u8987\u6e2f\u6e7e\u30fb\u7a7a\u6e2f\u6574\u5099\u4e8b\u52d9\u6240","boring_xml_url":0,"boring_view_url":0,"soilmap_view_url":66,"soiltest_xml_url":0,"soiltest_view_url":66},{"id":127657,"code":"B4KJ201801001-5906","latitude":"26.23624781","longitude":"127.675834","source_code":"PORT47001010208","project_name":"\u6e2f\u6e7e\u5c40","survey_name":"\u90a3\u8987\u6e2f(\u5cb8\u58c1-11m)\u571f\u8cea\u8abf\u67fb","client_name":"\u5185\u95a3\u5e9c\u6c96\u7e04\u7dcf\u5408\u4e8b\u52d9\u5c40\u958b\u767a\u5efa\u8a2d\u90e8\u90a3\u8987\u6e2f\u6e7e\u30fb\u7a7a\u6e2f\u6574\u5099\u4e8b\u52d9\u6240","boring_xml_url":0,"boring_view_url":0,"soilmap_view_url":66,"soiltest_xml_url":0,"soiltest_view_url":66},{"id":127656,"code":"B4KJ201801001-5905","latitude":"26.23513683","longitude":"127.6763896","source_code":"PORT47001010207","project_name":"\u6e2f\u6e7e\u5c40","survey_name":"\u90a3\u8987\u6e2f(\u5cb8\u58c1-11m)\u571f\u8cea\u8abf\u67fb","client_name":"\u5185\u95a3\u5e9c\u6c96\u7e04\u7dcf\u5408\u4e8b\u52d9\u5c40\u958b\u767a\u5efa\u8a2d\u90e8\u90a3\u8987\u6e2f\u6e7e\u30fb\u7a7a\u6e2f\u6574\u5099\u4e8b\u52d9\u6240","boring_xml_url":0,"boring_view_url":0,"soilmap_view_url":66,"soiltest_xml_url":0,"soiltest_view_url":66},{"id":127655,"code":"B4KJ201801001-5904","latitude":"26.23541457","longitude":"127.6761118","source_code":"PORT47001010206","project_name":"\u6e2f\u6e7e\u5c40","survey_name":"\u90a3\u8987\u6e2f(\u5cb8\u58c1-11m)\u571f\u8cea\u8abf\u67fb","client_name":"\u5185\u95a3\u5e9c\u6c96\u7e04\u7dcf\u5408\u4e8b\u52d9\u5c40\u958b\u767a\u5efa\u8a2d\u90e8\u90a3\u8987\u6e2f\u6e7e\u30fb\u7a7a\u6e2f\u6574\u5099\u4e8b\u52d9\u6240","boring_xml_url":0,"boring_view_url":0,"soilmap_view_url":66,"soiltest_xml_url":0,"soiltest_view_url":66},{"id":127654,"code":"B4KJ201801001-5903","latitude":"26.23597006","longitude":"127.675834","source_code":"PORT47001010205","project_name":"\u6e2f\u6e7e\u5c40","survey_name":"\u90a3\u8987\u6e2f(\u5cb8\u58c1-11m)\u571f\u8cea\u8abf\u67fb","client_name":"\u5185\u95a3\u5e9c\u6c96\u7e04\u7dcf\u5408\u4e8b\u52d9\u5c40\u958b\u767a\u5efa\u8a2d\u90e8\u90a3\u8987\u6e2f\u6e7e\u30fb\u7a7a\u6e2f\u6574\u5099\u4e8b\u52d9\u6240","boring_xml_url":0,"boring_view_url":0,"soilmap_view_url":66,"soiltest_xml_url":0,"soiltest_view_url":66},{"id":127653,"code":"B4KJ201801001-5902","latitude":"26.23624781","longitude":"127.6755563","source_code":"PORT47001010204","project_name":"\u6e2f\u6e7e\u5c40","survey_name":"\u90a3\u8987\u6e2f(\u5cb8\u58c1-11m)\u571f\u8cea\u8abf\u67fb","client_name":"\u5185\u95a3\u5e9c\u6c96\u7e04\u7dcf\u5408\u4e8b\u52d9\u5c40\u958b\u767a\u5efa\u8a2d\u90e8\u90a3\u8987\u6e2f\u6e7e\u30fb\u7a7a\u6e2f\u6574\u5099\u4e8b\u52d9\u6240","boring_xml_url":0,"boring_view_url":0,"soilmap_view_url":66,"soiltest_xml_url":0,"soiltest_view_url":66},{"id":127652,"code":"B4KJ201801001-5901","latitude":"26.23485908","longitude":"127.6763896","source_code":"PORT47001010203","project_name":"\u6e2f\u6e7e\u5c40","survey_name":"\u90a3\u8987\u6e2f(\u5cb8\u58c1-11m)\u571f\u8cea\u8abf\u67fb","client_name":"\u5185\u95a3\u5e9c\u6c96\u7e04\u7dcf\u5408\u4e8b\u52d9\u5c40\u958b\u767a\u5efa\u8a2d\u90e8\u90a3\u8987\u6e2f\u6e7e\u30fb\u7a7a\u6e2f\u6574\u5099\u4e8b\u52d9\u6240","boring_xml_url":0,"boring_view_url":0,"soilmap_view_url":66,"soiltest_xml_url":0,"soiltest_view_url":66},{"id":127651,"code":"B4KJ201801001-5900","latitude":"26.23541457","longitude":"127.6761118","source_code":"PORT47001010202","project_name":"\u6e2f\u6e7e\u5c40","survey_name":"\u90a3\u8987\u6e2f(\u5cb8\u58c1-11m)\u571f\u8cea\u8abf\u67fb","client_name":"\u5185\u95a3\u5e9c\u6c96\u7e04\u7dcf\u5408\u4e8b\u52d9\u5c40\u958b\u767a\u5efa\u8a2d\u90e8\u90a3\u8987\u6e2f\u6e7e\u30fb\u7a7a\u6e2f\u6574\u5099\u4e8b\u52d9\u6240","boring_xml_url":0,"boring_view_url":0,"soilmap_view_url":66,"soiltest_xml_url":0,"soiltest_view_url":66},{"id":127650,"code":"B4KJ201801001-5899","latitude":"26.23569231","longitude":"127.675834","source_code":"PORT47001010201","project_name":"\u6e2f\u6e7e\u5c40","survey_name":"\u90a3\u8987\u6e2f(\u5cb8\u58c1-11m)\u571f\u8cea\u8abf\u67fb","client_name":"\u5185\u95a3\u5e9c\u6c96\u7e04\u7dcf\u5408\u4e8b\u52d9\u5c40\u958b\u767a\u5efa\u8a2d\u90e8\u90a3\u8987\u6e2f\u6e7e\u30fb\u7a7a\u6e2f\u6574\u5099\u4e8b\u52d9\u6240","boring_xml_url":0,"boring_view_url":0,"soilmap_view_url":66,"soiltest_xml_url":0,"soiltest_view_url":66},{"id":127649,"code":"B4KJ201801001-5898","latitude":"26.23624781","longitude":"127.6755563","source_code":"PORT47001010200","project_name":"\u6e2f\u6e7e\u5c40","survey_name":"\u90a3\u8987\u6e2f(\u5cb8\u58c1-11m)\u571f\u8cea\u8abf\u67fb","client_name":"\u5185\u95a3\u5e9c\u6c96\u7e04\u7dcf\u5408\u4e8b\u52d9\u5c40\u958b\u767a\u5efa\u8a2d\u90e8\u90a3\u8987\u6e2f\u6e7e\u30fb\u7a7a\u6e2f\u6574\u5099\u4e8b\u52d9\u6240","boring_xml_url":0,"boring_view_url":0,"soilmap_view_url":66,"soiltest_xml_url":0,"soiltest_view_url":66},{"id":127648,"code":"B4KJ201801001-5897","latitude":"26.24319128","longitude":"127.6569466","source_code":"PORT47001010199","project_name":"\u6e2f\u6e7e\u5c40","survey_name":"\u90a3\u8987\u6e2f\u9632\u6ce2\u5824\u4e2d\u571f\u8cea\u8abf\u67fb\u305d\u306e2","client_name":"\u5185\u95a3\u5e9c\u6c96\u7e04\u7dcf\u5408\u4e8b\u52d9\u5c40\u958b\u767a\u5efa\u8a2d\u90e8\u90a3\u8987\u6e2f\u6e7e\u30fb\u7a7a\u6e2f\u6574\u5099\u4e8b\u52d9\u6240","boring_xml_url":0,"boring_view_url":0,"soilmap_view_url":66,"soiltest_xml_url":0,"soiltest_view_url":66},{"id":127647,"code":"B4KJ201801001-5896","latitude":"26.24596877","longitude":"127.6572243","source_code":"PORT47001010198","project_name":"\u6e2f\u6e7e\u5c40","survey_name":"\u90a3\u8987\u6e2f\u9632\u6ce2\u5824\u4e2d\u571f\u8cea\u8abf\u67fb\u305d\u306e2","client_name":"\u5185\u95a3\u5e9c\u6c96\u7e04\u7dcf\u5408\u4e8b\u52d9\u5c40\u958b\u767a\u5efa\u8a2d\u90e8\u90a3\u8987\u6e2f\u6e7e\u30fb\u7a7a\u6e2f\u6574\u5099\u4e8b\u52d9\u6240","boring_xml_url":0,"boring_view_url":0,"soilmap_view_url":66,"soiltest_xml_url":0,"soiltest_view_url":66},{"id":127646,"code":"B4KJ201801001-5895","latitude":"26.24846851","longitude":"127.6575021","source_code":"PORT47001010197","project_name":"\u6e2f\u6e7e\u5c40","survey_name":"\u90a3\u8987\u6e2f\u9632\u6ce2\u5824\u4e2d\u571f\u8cea\u8abf\u67fb\u305d\u306e2","client_name":"\u5185\u95a3\u5e9c\u6c96\u7e04\u7dcf\u5408\u4e8b\u52d9\u5c40\u958b\u767a\u5efa\u8a2d\u90e8\u90a3\u8987\u6e2f\u6e7e\u30fb\u7a7a\u6e2f\u6574\u5099\u4e8b\u52d9\u6240","boring_xml_url":0,"boring_view_url":0,"soilmap_view_url":66,"soiltest_xml_url":0,"soiltest_view_url":66}]}}