{"header":{"xyz":{"source":[],"mosaic":false},"page":644,"raw":{"soiltest_result":"0","bbox":"57.598333,109.544722,1.933333,163.806111","page":"644"},"conditions":{"soiltest_result":0,"north":57.598333,"west":109.544722,"south":1.933333,"east":163.806111},"success":true,"message":""},"data":{"meta":{"total":212844,"page":644,"pages":7095,"count":30},"values":[{"id":526098,"code":"B4KJ202201002-8634","latitude":"34.013194","longitude":"134.561944","source_code":"098830482000260004","project_name":"\u5e73\u621021\u5e74\u5ea6\u3000\u5c0f\u677e\u5cf6\u5fb3\u5cf6\u6771\u9593\u5730\u8cea\u8abf\u67fb(\u305d\u306e2)\u696d\u52d9","survey_name":"\u5e73\u621021\u5e74\u5ea6\u3000\u5c0f\u677e\u5cf6\u5fb3\u5cf6\u6771\u9593\u5730\u8cea\u8abf\u67fb(\u305d\u306e2)\u696d\u52d9","client_name":"\u56fd\u571f\u4ea4\u901a\u7701\u56db\u56fd\u5730\u65b9\u6574\u5099\u5c40\u5fb3\u5cf6\u6cb3\u5ddd\u56fd\u9053\u4e8b\u52d9\u6240","boring_xml_url":64,"boring_view_url":1,"soilmap_view_url":null,"soiltest_xml_url":0,"soiltest_view_url":0},{"id":526097,"code":"B4KJ202201002-8633","latitude":"34.013861","longitude":"134.562306","source_code":"098830482000260003","project_name":"\u5e73\u621021\u5e74\u5ea6\u3000\u5c0f\u677e\u5cf6\u5fb3\u5cf6\u6771\u9593\u5730\u8cea\u8abf\u67fb(\u305d\u306e2)\u696d\u52d9","survey_name":"\u5e73\u621021\u5e74\u5ea6\u3000\u5c0f\u677e\u5cf6\u5fb3\u5cf6\u6771\u9593\u5730\u8cea\u8abf\u67fb(\u305d\u306e2)\u696d\u52d9","client_name":"\u56fd\u571f\u4ea4\u901a\u7701\u56db\u56fd\u5730\u65b9\u6574\u5099\u5c40\u5fb3\u5cf6\u6cb3\u5ddd\u56fd\u9053\u4e8b\u52d9\u6240","boring_xml_url":64,"boring_view_url":1,"soilmap_view_url":null,"soiltest_xml_url":0,"soiltest_view_url":0},{"id":526096,"code":"B4KJ202201002-8632","latitude":"34.014833","longitude":"134.562917","source_code":"098830482000260002","project_name":"\u5e73\u621021\u5e74\u5ea6\u3000\u5c0f\u677e\u5cf6\u5fb3\u5cf6\u6771\u9593\u5730\u8cea\u8abf\u67fb(\u305d\u306e2)\u696d\u52d9","survey_name":"\u5e73\u621021\u5e74\u5ea6\u3000\u5c0f\u677e\u5cf6\u5fb3\u5cf6\u6771\u9593\u5730\u8cea\u8abf\u67fb(\u305d\u306e2)\u696d\u52d9","client_name":"\u56fd\u571f\u4ea4\u901a\u7701\u56db\u56fd\u5730\u65b9\u6574\u5099\u5c40\u5fb3\u5cf6\u6cb3\u5ddd\u56fd\u9053\u4e8b\u52d9\u6240","boring_xml_url":64,"boring_view_url":1,"soilmap_view_url":null,"soiltest_xml_url":0,"soiltest_view_url":0},{"id":526095,"code":"B4KJ202201002-8631","latitude":"34.016167","longitude":"134.563944","source_code":"098830482000260001","project_name":"\u5e73\u621021\u5e74\u5ea6\u3000\u5c0f\u677e\u5cf6\u5fb3\u5cf6\u6771\u9593\u5730\u8cea\u8abf\u67fb(\u305d\u306e2)\u696d\u52d9","survey_name":"\u5e73\u621021\u5e74\u5ea6\u3000\u5c0f\u677e\u5cf6\u5fb3\u5cf6\u6771\u9593\u5730\u8cea\u8abf\u67fb(\u305d\u306e2)\u696d\u52d9","client_name":"\u56fd\u571f\u4ea4\u901a\u7701\u56db\u56fd\u5730\u65b9\u6574\u5099\u5c40\u5fb3\u5cf6\u6cb3\u5ddd\u56fd\u9053\u4e8b\u52d9\u6240","boring_xml_url":64,"boring_view_url":1,"soilmap_view_url":null,"soiltest_xml_url":0,"soiltest_view_url":0},{"id":526094,"code":"B4KJ202201002-8630","latitude":"33.740889","longitude":"133.533806","source_code":"098837652000120004","project_name":"\"\u5e73\u621021\u5e74\u5ea6 \u9808\u78e8\u91ce\u8c37\u5830\u5824\u6e2c\u91cf\u8a2d\u8a08\u696d\u52d9\u59d4\u8a17\"","survey_name":"\"\u5e73\u621021\u5e74\u5ea6 \u9808\u78e8\u91ce\u8c37\u5830\u5824\u6e2c\u91cf\u8a2d\u8a08\u696d\u52d9\u59d4\u8a17\"","client_name":"\"\u56fd\u571f\u4ea4\u901a\u7701 \u56db\u56fd\u5730\u65b9\u6574\u5099\u5c40 \u56db\u56fd\u5c71\u5730\u7802\u9632\u4e8b\u52d9\u6240\"","boring_xml_url":64,"boring_view_url":1,"soilmap_view_url":null,"soiltest_xml_url":0,"soiltest_view_url":0},{"id":526093,"code":"B4KJ202201002-8629","latitude":"33.740889","longitude":"133.533694","source_code":"098837652000120003","project_name":"\"\u5e73\u621021\u5e74\u5ea6 \u9808\u78e8\u91ce\u8c37\u5830\u5824\u6e2c\u91cf\u8a2d\u8a08\u696d\u52d9\u59d4\u8a17\"","survey_name":"\"\u5e73\u621021\u5e74\u5ea6 \u9808\u78e8\u91ce\u8c37\u5830\u5824\u6e2c\u91cf\u8a2d\u8a08\u696d\u52d9\u59d4\u8a17\"","client_name":"\"\u56fd\u571f\u4ea4\u901a\u7701 \u56db\u56fd\u5730\u65b9\u6574\u5099\u5c40 \u56db\u56fd\u5c71\u5730\u7802\u9632\u4e8b\u52d9\u6240\"","boring_xml_url":64,"boring_view_url":1,"soilmap_view_url":null,"soiltest_xml_url":0,"soiltest_view_url":0},{"id":526092,"code":"B4KJ202201002-8628","latitude":"33.740833","longitude":"133.533472","source_code":"098837652000120002","project_name":"\"\u5e73\u621021\u5e74\u5ea6 \u9808\u78e8\u91ce\u8c37\u5830\u5824\u6e2c\u91cf\u8a2d\u8a08\u696d\u52d9\u59d4\u8a17\"","survey_name":"\"\u5e73\u621021\u5e74\u5ea6 \u9808\u78e8\u91ce\u8c37\u5830\u5824\u6e2c\u91cf\u8a2d\u8a08\u696d\u52d9\u59d4\u8a17\"","client_name":"\"\u56fd\u571f\u4ea4\u901a\u7701 \u56db\u56fd\u5730\u65b9\u6574\u5099\u5c40 \u56db\u56fd\u5c71\u5730\u7802\u9632\u4e8b\u52d9\u6240\"","boring_xml_url":64,"boring_view_url":1,"soilmap_view_url":null,"soiltest_xml_url":0,"soiltest_view_url":0},{"id":526091,"code":"B4KJ202201002-8627","latitude":"33.740833","longitude":"133.533333","source_code":"098837652000120001","project_name":"\"\u5e73\u621021\u5e74\u5ea6 \u9808\u78e8\u91ce\u8c37\u5830\u5824\u6e2c\u91cf\u8a2d\u8a08\u696d\u52d9\u59d4\u8a17\"","survey_name":"\"\u5e73\u621021\u5e74\u5ea6 \u9808\u78e8\u91ce\u8c37\u5830\u5824\u6e2c\u91cf\u8a2d\u8a08\u696d\u52d9\u59d4\u8a17\"","client_name":"\"\u56fd\u571f\u4ea4\u901a\u7701 \u56db\u56fd\u5730\u65b9\u6574\u5099\u5c40 \u56db\u56fd\u5c71\u5730\u7802\u9632\u4e8b\u52d9\u6240\"","boring_xml_url":64,"boring_view_url":1,"soilmap_view_url":null,"soiltest_xml_url":0,"soiltest_view_url":0},{"id":526090,"code":"B4KJ202201002-8626","latitude":"33.911361","longitude":"134.547444","source_code":"098834652000180011","project_name":"\u5e73\u621021\u5e74\u5ea6\u90a3\u8cc0\u5ddd\u4e0a\u6d41\u7121\u5824\u5730\u533a\u5730\u8cea\u8abf\u67fb\u5916\u696d\u52d9","survey_name":"\u5e73\u621021\u5e74\u5ea6\u90a3\u8cc0\u5ddd\u4e0a\u6d41\u7121\u5824\u5730\u533a\u5730\u8cea\u8abf\u67fb\u5916\u696d\u52d9","client_name":"\u56fd\u571f\u4ea4\u901a\u7701\u56db\u56fd\u5730\u65b9\u6574\u5099\u5c40\u90a3\u8cc0\u5ddd\u6cb3\u5ddd\u4e8b\u52d9\u6240","boring_xml_url":64,"boring_view_url":1,"soilmap_view_url":null,"soiltest_xml_url":0,"soiltest_view_url":0},{"id":526089,"code":"B4KJ202201002-8625","latitude":"33.910167","longitude":"134.547139","source_code":"098834652000180010","project_name":"\u5e73\u621021\u5e74\u5ea6\u90a3\u8cc0\u5ddd\u4e0a\u6d41\u7121\u5824\u5730\u533a\u5730\u8cea\u8abf\u67fb\u5916\u696d\u52d9","survey_name":"\u5e73\u621021\u5e74\u5ea6\u90a3\u8cc0\u5ddd\u4e0a\u6d41\u7121\u5824\u5730\u533a\u5730\u8cea\u8abf\u67fb\u5916\u696d\u52d9","client_name":"\u56fd\u571f\u4ea4\u901a\u7701\u56db\u56fd\u5730\u65b9\u6574\u5099\u5c40\u90a3\u8cc0\u5ddd\u6cb3\u5ddd\u4e8b\u52d9\u6240","boring_xml_url":64,"boring_view_url":1,"soilmap_view_url":null,"soiltest_xml_url":0,"soiltest_view_url":0},{"id":526088,"code":"B4KJ202201002-8624","latitude":"33.909722","longitude":"134.5475","source_code":"098834652000180009","project_name":"\u5e73\u621021\u5e74\u5ea6\u90a3\u8cc0\u5ddd\u4e0a\u6d41\u7121\u5824\u5730\u533a\u5730\u8cea\u8abf\u67fb\u5916\u696d\u52d9","survey_name":"\u5e73\u621021\u5e74\u5ea6\u90a3\u8cc0\u5ddd\u4e0a\u6d41\u7121\u5824\u5730\u533a\u5730\u8cea\u8abf\u67fb\u5916\u696d\u52d9","client_name":"\u56fd\u571f\u4ea4\u901a\u7701\u56db\u56fd\u5730\u65b9\u6574\u5099\u5c40\u90a3\u8cc0\u5ddd\u6cb3\u5ddd\u4e8b\u52d9\u6240","boring_xml_url":64,"boring_view_url":1,"soilmap_view_url":null,"soiltest_xml_url":0,"soiltest_view_url":0},{"id":526087,"code":"B4KJ202201002-8623","latitude":"33.908639","longitude":"134.546944","source_code":"098834652000180008","project_name":"\u5e73\u621021\u5e74\u5ea6\u90a3\u8cc0\u5ddd\u4e0a\u6d41\u7121\u5824\u5730\u533a\u5730\u8cea\u8abf\u67fb\u5916\u696d\u52d9","survey_name":"\u5e73\u621021\u5e74\u5ea6\u90a3\u8cc0\u5ddd\u4e0a\u6d41\u7121\u5824\u5730\u533a\u5730\u8cea\u8abf\u67fb\u5916\u696d\u52d9","client_name":"\u56fd\u571f\u4ea4\u901a\u7701\u56db\u56fd\u5730\u65b9\u6574\u5099\u5c40\u90a3\u8cc0\u5ddd\u6cb3\u5ddd\u4e8b\u52d9\u6240","boring_xml_url":64,"boring_view_url":1,"soilmap_view_url":null,"soiltest_xml_url":0,"soiltest_view_url":0},{"id":526086,"code":"B4KJ202201002-8622","latitude":"33.907972","longitude":"134.547389","source_code":"098834652000180007","project_name":"\u5e73\u621021\u5e74\u5ea6\u90a3\u8cc0\u5ddd\u4e0a\u6d41\u7121\u5824\u5730\u533a\u5730\u8cea\u8abf\u67fb\u5916\u696d\u52d9","survey_name":"\u5e73\u621021\u5e74\u5ea6\u90a3\u8cc0\u5ddd\u4e0a\u6d41\u7121\u5824\u5730\u533a\u5730\u8cea\u8abf\u67fb\u5916\u696d\u52d9","client_name":"\u56fd\u571f\u4ea4\u901a\u7701\u56db\u56fd\u5730\u65b9\u6574\u5099\u5c40\u90a3\u8cc0\u5ddd\u6cb3\u5ddd\u4e8b\u52d9\u6240","boring_xml_url":64,"boring_view_url":1,"soilmap_view_url":null,"soiltest_xml_url":0,"soiltest_view_url":0},{"id":526085,"code":"B4KJ202201002-8621","latitude":"33.906361","longitude":"134.547139","source_code":"098834652000180006","project_name":"\u5e73\u621021\u5e74\u5ea6\u90a3\u8cc0\u5ddd\u4e0a\u6d41\u7121\u5824\u5730\u533a\u5730\u8cea\u8abf\u67fb\u5916\u696d\u52d9","survey_name":"\u5e73\u621021\u5e74\u5ea6\u90a3\u8cc0\u5ddd\u4e0a\u6d41\u7121\u5824\u5730\u533a\u5730\u8cea\u8abf\u67fb\u5916\u696d\u52d9","client_name":"\u56fd\u571f\u4ea4\u901a\u7701\u56db\u56fd\u5730\u65b9\u6574\u5099\u5c40\u90a3\u8cc0\u5ddd\u6cb3\u5ddd\u4e8b\u52d9\u6240","boring_xml_url":64,"boring_view_url":1,"soilmap_view_url":null,"soiltest_xml_url":0,"soiltest_view_url":0},{"id":526084,"code":"B4KJ202201002-8620","latitude":"33.91375","longitude":"134.542778","source_code":"098834652000180005","project_name":"\u5e73\u621021\u5e74\u5ea6\u90a3\u8cc0\u5ddd\u4e0a\u6d41\u7121\u5824\u5730\u533a\u5730\u8cea\u8abf\u67fb\u5916\u696d\u52d9","survey_name":"\u5e73\u621021\u5e74\u5ea6\u90a3\u8cc0\u5ddd\u4e0a\u6d41\u7121\u5824\u5730\u533a\u5730\u8cea\u8abf\u67fb\u5916\u696d\u52d9","client_name":"\u56fd\u571f\u4ea4\u901a\u7701\u56db\u56fd\u5730\u65b9\u6574\u5099\u5c40\u90a3\u8cc0\u5ddd\u6cb3\u5ddd\u4e8b\u52d9\u6240","boring_xml_url":64,"boring_view_url":1,"soilmap_view_url":null,"soiltest_xml_url":0,"soiltest_view_url":0},{"id":526083,"code":"B4KJ202201002-8619","latitude":"33.914639","longitude":"134.544306","source_code":"098834652000180004","project_name":"\u5e73\u621021\u5e74\u5ea6\u90a3\u8cc0\u5ddd\u4e0a\u6d41\u7121\u5824\u5730\u533a\u5730\u8cea\u8abf\u67fb\u5916\u696d\u52d9","survey_name":"\u5e73\u621021\u5e74\u5ea6\u90a3\u8cc0\u5ddd\u4e0a\u6d41\u7121\u5824\u5730\u533a\u5730\u8cea\u8abf\u67fb\u5916\u696d\u52d9","client_name":"\u56fd\u571f\u4ea4\u901a\u7701\u56db\u56fd\u5730\u65b9\u6574\u5099\u5c40\u90a3\u8cc0\u5ddd\u6cb3\u5ddd\u4e8b\u52d9\u6240","boring_xml_url":64,"boring_view_url":1,"soilmap_view_url":null,"soiltest_xml_url":0,"soiltest_view_url":0},{"id":526082,"code":"B4KJ202201002-8618","latitude":"33.915167","longitude":"134.54575","source_code":"098834652000180003","project_name":"\u5e73\u621021\u5e74\u5ea6\u90a3\u8cc0\u5ddd\u4e0a\u6d41\u7121\u5824\u5730\u533a\u5730\u8cea\u8abf\u67fb\u5916\u696d\u52d9","survey_name":"\u5e73\u621021\u5e74\u5ea6\u90a3\u8cc0\u5ddd\u4e0a\u6d41\u7121\u5824\u5730\u533a\u5730\u8cea\u8abf\u67fb\u5916\u696d\u52d9","client_name":"\u56fd\u571f\u4ea4\u901a\u7701\u56db\u56fd\u5730\u65b9\u6574\u5099\u5c40\u90a3\u8cc0\u5ddd\u6cb3\u5ddd\u4e8b\u52d9\u6240","boring_xml_url":64,"boring_view_url":1,"soilmap_view_url":null,"soiltest_xml_url":0,"soiltest_view_url":0},{"id":526081,"code":"B4KJ202201002-8617","latitude":"33.915611","longitude":"134.548167","source_code":"098834652000180002","project_name":"\u5e73\u621021\u5e74\u5ea6\u90a3\u8cc0\u5ddd\u4e0a\u6d41\u7121\u5824\u5730\u533a\u5730\u8cea\u8abf\u67fb\u5916\u696d\u52d9","survey_name":"\u5e73\u621021\u5e74\u5ea6\u90a3\u8cc0\u5ddd\u4e0a\u6d41\u7121\u5824\u5730\u533a\u5730\u8cea\u8abf\u67fb\u5916\u696d\u52d9","client_name":"\u56fd\u571f\u4ea4\u901a\u7701\u56db\u56fd\u5730\u65b9\u6574\u5099\u5c40\u90a3\u8cc0\u5ddd\u6cb3\u5ddd\u4e8b\u52d9\u6240","boring_xml_url":64,"boring_view_url":1,"soilmap_view_url":null,"soiltest_xml_url":0,"soiltest_view_url":0},{"id":526080,"code":"B4KJ202201002-8616","latitude":"33.915917","longitude":"134.549917","source_code":"098834652000180001","project_name":"\u5e73\u621021\u5e74\u5ea6\u90a3\u8cc0\u5ddd\u4e0a\u6d41\u7121\u5824\u5730\u533a\u5730\u8cea\u8abf\u67fb\u5916\u696d\u52d9","survey_name":"\u5e73\u621021\u5e74\u5ea6\u90a3\u8cc0\u5ddd\u4e0a\u6d41\u7121\u5824\u5730\u533a\u5730\u8cea\u8abf\u67fb\u5916\u696d\u52d9","client_name":"\u56fd\u571f\u4ea4\u901a\u7701\u56db\u56fd\u5730\u65b9\u6574\u5099\u5c40\u90a3\u8cc0\u5ddd\u6cb3\u5ddd\u4e8b\u52d9\u6240","boring_xml_url":64,"boring_view_url":1,"soilmap_view_url":null,"soiltest_xml_url":0,"soiltest_view_url":0},{"id":526079,"code":"B4KJ202201002-8615","latitude":"33.451592","longitude":"132.685194","source_code":"098855402000160007","project_name":"","survey_name":"\u5e73\u621021\u5e74\u5ea6\u6817\u306e\u6728\u5730\u533a\u5730\u3059\u3079\u308a\u8abf\u67fb\u696d\u52d9","client_name":"\u56fd\u571f\u4ea4\u901a\u7701\u56db\u56fd\u5730\u65b9\u6574\u5099\u5c40\u5c71\u9ce5\u5742\u30c0\u30e0\u5de5\u4e8b\u4e8b\u52d9\u6240","boring_xml_url":64,"boring_view_url":1,"soilmap_view_url":null,"soiltest_xml_url":0,"soiltest_view_url":0},{"id":526078,"code":"B4KJ202201002-8614","latitude":"33.413786","longitude":"132.703536","source_code":"098855402000160006","project_name":"","survey_name":"\u5e73\u621021\u5e74\u5ea6\u6817\u306e\u6728\u5730\u533a\u5730\u3059\u3079\u308a\u8abf\u67fb\u696d\u52d9","client_name":"\u56fd\u571f\u4ea4\u901a\u7701\u56db\u56fd\u5730\u65b9\u6574\u5099\u5c40\u5c71\u9ce5\u5742\u30c0\u30e0\u5de5\u4e8b\u4e8b\u52d9\u6240","boring_xml_url":64,"boring_view_url":1,"soilmap_view_url":null,"soiltest_xml_url":0,"soiltest_view_url":0},{"id":526077,"code":"B4KJ202201002-8613","latitude":"33.414663","longitude":"132.704296","source_code":"098855402000160005","project_name":"","survey_name":"\u5e73\u621021\u5e74\u5ea6\u6817\u306e\u6728\u5730\u533a\u5730\u3059\u3079\u308a\u8abf\u67fb\u696d\u52d9","client_name":"\u56fd\u571f\u4ea4\u901a\u7701\u56db\u56fd\u5730\u65b9\u6574\u5099\u5c40\u5c71\u9ce5\u5742\u30c0\u30e0\u5de5\u4e8b\u4e8b\u52d9\u6240","boring_xml_url":64,"boring_view_url":1,"soilmap_view_url":null,"soiltest_xml_url":0,"soiltest_view_url":0},{"id":526076,"code":"B4KJ202201002-8612","latitude":"33.414651","longitude":"132.704299","source_code":"098855402000160004","project_name":"","survey_name":"\u5e73\u621021\u5e74\u5ea6\u6817\u306e\u6728\u5730\u533a\u5730\u3059\u3079\u308a\u8abf\u67fb\u696d\u52d9","client_name":"\u56fd\u571f\u4ea4\u901a\u7701\u56db\u56fd\u5730\u65b9\u6574\u5099\u5c40\u5c71\u9ce5\u5742\u30c0\u30e0\u5de5\u4e8b\u4e8b\u52d9\u6240","boring_xml_url":64,"boring_view_url":1,"soilmap_view_url":null,"soiltest_xml_url":0,"soiltest_view_url":0},{"id":526075,"code":"B4KJ202201002-8611","latitude":"33.412277","longitude":"132.706398","source_code":"098855402000160003","project_name":"","survey_name":"\u5e73\u621021\u5e74\u5ea6\u6817\u306e\u6728\u5730\u533a\u5730\u3059\u3079\u308a\u8abf\u67fb\u696d\u52d9","client_name":"\u56fd\u571f\u4ea4\u901a\u7701\u56db\u56fd\u5730\u65b9\u6574\u5099\u5c40\u5c71\u9ce5\u5742\u30c0\u30e0\u5de5\u4e8b\u4e8b\u52d9\u6240","boring_xml_url":64,"boring_view_url":1,"soilmap_view_url":null,"soiltest_xml_url":0,"soiltest_view_url":0},{"id":526074,"code":"B4KJ202201002-8610","latitude":"33.412873","longitude":"132.707168","source_code":"098855402000160002","project_name":"","survey_name":"\u5e73\u621021\u5e74\u5ea6\u6817\u306e\u6728\u5730\u533a\u5730\u3059\u3079\u308a\u8abf\u67fb\u696d\u52d9","client_name":"\u56fd\u571f\u4ea4\u901a\u7701\u56db\u56fd\u5730\u65b9\u6574\u5099\u5c40\u5c71\u9ce5\u5742\u30c0\u30e0\u5de5\u4e8b\u4e8b\u52d9\u6240","boring_xml_url":64,"boring_view_url":1,"soilmap_view_url":null,"soiltest_xml_url":0,"soiltest_view_url":0},{"id":526073,"code":"B4KJ202201002-8609","latitude":"33.412864","longitude":"132.707179","source_code":"098855402000160001","project_name":"","survey_name":"\u5e73\u621021\u5e74\u5ea6\u6817\u306e\u6728\u5730\u533a\u5730\u3059\u3079\u308a\u8abf\u67fb\u696d\u52d9","client_name":"\u56fd\u571f\u4ea4\u901a\u7701\u56db\u56fd\u5730\u65b9\u6574\u5099\u5c40\u5c71\u9ce5\u5742\u30c0\u30e0\u5de5\u4e8b\u4e8b\u52d9\u6240","boring_xml_url":64,"boring_view_url":1,"soilmap_view_url":null,"soiltest_xml_url":0,"soiltest_view_url":0},{"id":526072,"code":"B4KJ202201002-8608","latitude":"33.451667","longitude":"132.685","source_code":"098855402000130007","project_name":"","survey_name":"\u5e73\u621021\u5e74\u5ea6\u3000\u9e7f\u91ce\u5ddd\u30c0\u30e0\u5730\u3059\u3079\u308a\u8abf\u67fb\u696d\u52d9","client_name":"\u56fd\u571f\u4ea4\u901a\u7701\u56db\u56fd\u5730\u65b9\u6574\u5099\u5c40\u5c71\u9ce5\u5742\u30c0\u30e0\u5de5\u4e8b\u4e8b\u52d9\u6240","boring_xml_url":64,"boring_view_url":1,"soilmap_view_url":null,"soiltest_xml_url":0,"soiltest_view_url":0},{"id":526071,"code":"B4KJ202201002-8607","latitude":"33.413056","longitude":"132.709444","source_code":"098855402000130006","project_name":"","survey_name":"\u5e73\u621021\u5e74\u5ea6\u3000\u9e7f\u91ce\u5ddd\u30c0\u30e0\u5730\u3059\u3079\u308a\u8abf\u67fb\u696d\u52d9","client_name":"\u56fd\u571f\u4ea4\u901a\u7701\u56db\u56fd\u5730\u65b9\u6574\u5099\u5c40\u5c71\u9ce5\u5742\u30c0\u30e0\u5de5\u4e8b\u4e8b\u52d9\u6240","boring_xml_url":64,"boring_view_url":1,"soilmap_view_url":null,"soiltest_xml_url":0,"soiltest_view_url":0},{"id":526070,"code":"B4KJ202201002-8606","latitude":"33.4125","longitude":"132.709167","source_code":"098855402000130005","project_name":"","survey_name":"\u5e73\u621021\u5e74\u5ea6\u3000\u9e7f\u91ce\u5ddd\u30c0\u30e0\u5730\u3059\u3079\u308a\u8abf\u67fb\u696d\u52d9","client_name":"\u56fd\u571f\u4ea4\u901a\u7701\u56db\u56fd\u5730\u65b9\u6574\u5099\u5c40\u5c71\u9ce5\u5742\u30c0\u30e0\u5de5\u4e8b\u4e8b\u52d9\u6240","boring_xml_url":64,"boring_view_url":1,"soilmap_view_url":null,"soiltest_xml_url":0,"soiltest_view_url":0},{"id":526069,"code":"B4KJ202201002-8605","latitude":"33.411944","longitude":"132.709167","source_code":"098855402000130004","project_name":"","survey_name":"\u5e73\u621021\u5e74\u5ea6\u3000\u9e7f\u91ce\u5ddd\u30c0\u30e0\u5730\u3059\u3079\u308a\u8abf\u67fb","client_name":"\u56fd\u571f\u4ea4\u901a\u7701\u56db\u56fd\u5730\u65b9\u6574\u5099\u5c40\u5c71\u9ce5\u5742\u30c0\u30e0\u5de5\u4e8b\u4e8b\u52d9\u6240","boring_xml_url":64,"boring_view_url":1,"soilmap_view_url":null,"soiltest_xml_url":0,"soiltest_view_url":0}]}}