{"header":{"xyz":{"source":[],"mosaic":false},"page":6447,"raw":{"soiltest_result":"0","bbox":"57.598333,109.544722,1.933333,163.806111","page":"6447"},"conditions":{"soiltest_result":0,"north":57.598333,"west":109.544722,"south":1.933333,"east":163.806111},"success":true,"message":""},"data":{"meta":{"total":212844,"page":6447,"pages":7095,"count":30},"values":[{"id":127165,"code":"B4KJ201801001-5414","latitude":"31.49121143","longitude":"130.5372396","source_code":"PORT46001030042","project_name":"\u6e2f\u6e7e\u5c40","survey_name":"\u9e7f\u5150\u5cf6\u6e2f\u8c37\u5c712\u533a\u6771\u57e0\u982d\u571f\u8cea\u8abf\u67fb","client_name":"\u56fd\u571f\u4ea4\u901a\u7701\u4e5d\u5dde\u5730\u65b9\u6574\u5099\u5c40\u4e0b\u95a2\u6e2f\u6e7e\u7a7a\u6e2f\u6280\u8853\u8abf\u67fb\u4e8b\u52d9\u6240","boring_xml_url":0,"boring_view_url":0,"soilmap_view_url":66,"soiltest_xml_url":0,"soiltest_view_url":66},{"id":127164,"code":"B4KJ201801001-5413","latitude":"31.49123221","longitude":"130.5370305","source_code":"PORT46001030041","project_name":"\u6e2f\u6e7e\u5c40","survey_name":"\u9e7f\u5150\u5cf6\u6e2f\u8c37\u5c712\u533a\u6771\u57e0\u982d\u571f\u8cea\u8abf\u67fb","client_name":"\u56fd\u571f\u4ea4\u901a\u7701\u4e5d\u5dde\u5730\u65b9\u6574\u5099\u5c40\u4e0b\u95a2\u6e2f\u6e7e\u7a7a\u6e2f\u6280\u8853\u8abf\u67fb\u4e8b\u52d9\u6240","boring_xml_url":0,"boring_view_url":0,"soilmap_view_url":66,"soiltest_xml_url":0,"soiltest_view_url":66},{"id":127163,"code":"B4KJ201801001-5412","latitude":"31.49212816","longitude":"130.5371517","source_code":"PORT46001030040","project_name":"\u6e2f\u6e7e\u5c40","survey_name":"\u9e7f\u5150\u5cf6\u6e2f\u8c37\u5c712\u533a\u6771\u57e0\u982d\u571f\u8cea\u8abf\u67fb","client_name":"\u56fd\u571f\u4ea4\u901a\u7701\u4e5d\u5dde\u5730\u65b9\u6574\u5099\u5c40\u4e0b\u95a2\u6e2f\u6e7e\u7a7a\u6e2f\u6280\u8853\u8abf\u67fb\u4e8b\u52d9\u6240","boring_xml_url":0,"boring_view_url":0,"soilmap_view_url":66,"soiltest_xml_url":0,"soiltest_view_url":66},{"id":127162,"code":"B4KJ201801001-5411","latitude":"31.49304489","longitude":"130.5370638","source_code":"PORT46001030039","project_name":"\u6e2f\u6e7e\u5c40","survey_name":"\u9e7f\u5150\u5cf6\u6e2f\u8c37\u5c712\u533a\u6771\u57e0\u982d\u571f\u8cea\u8abf\u67fb","client_name":"\u56fd\u571f\u4ea4\u901a\u7701\u4e5d\u5dde\u5730\u65b9\u6574\u5099\u5c40\u4e0b\u95a2\u6e2f\u6e7e\u7a7a\u6e2f\u6280\u8853\u8abf\u67fb\u4e8b\u52d9\u6240","boring_xml_url":0,"boring_view_url":0,"soilmap_view_url":66,"soiltest_xml_url":0,"soiltest_view_url":66},{"id":127161,"code":"B4KJ201801001-5410","latitude":"31.49300335","longitude":"130.537482","source_code":"PORT46001030038","project_name":"\u6e2f\u6e7e\u5c40","survey_name":"\u9e7f\u5150\u5cf6\u6e2f\u8c37\u5c712\u533a\u6771\u57e0\u982d\u571f\u8cea\u8abf\u67fb","client_name":"\u56fd\u571f\u4ea4\u901a\u7701\u4e5d\u5dde\u5730\u65b9\u6574\u5099\u5c40\u4e0b\u95a2\u6e2f\u6e7e\u7a7a\u6e2f\u6280\u8853\u8abf\u67fb\u4e8b\u52d9\u6240","boring_xml_url":0,"boring_view_url":0,"soilmap_view_url":66,"soiltest_xml_url":0,"soiltest_view_url":66},{"id":127160,"code":"B4KJ201801001-5409","latitude":"31.49302411","longitude":"130.5372729","source_code":"PORT46001030037","project_name":"\u6e2f\u6e7e\u5c40","survey_name":"\u9e7f\u5150\u5cf6\u6e2f\u8c37\u5c712\u533a\u6771\u57e0\u982d\u571f\u8cea\u8abf\u67fb","client_name":"\u56fd\u571f\u4ea4\u901a\u7701\u4e5d\u5dde\u5730\u65b9\u6574\u5099\u5c40\u4e0b\u95a2\u6e2f\u6e7e\u7a7a\u6e2f\u6280\u8853\u8abf\u67fb\u4e8b\u52d9\u6240","boring_xml_url":0,"boring_view_url":0,"soilmap_view_url":66,"soiltest_xml_url":0,"soiltest_view_url":66},{"id":127159,"code":"B4KJ201801001-5408","latitude":"31.49392008","longitude":"130.5373941","source_code":"PORT46001030036","project_name":"\u6e2f\u6e7e\u5c40","survey_name":"\u9e7f\u5150\u5cf6\u6e2f\u8c37\u5c712\u533a\u6771\u57e0\u982d\u571f\u8cea\u8abf\u67fb","client_name":"\u56fd\u571f\u4ea4\u901a\u7701\u4e5d\u5dde\u5730\u65b9\u6574\u5099\u5c40\u4e0b\u95a2\u6e2f\u6e7e\u7a7a\u6e2f\u6280\u8853\u8abf\u67fb\u4e8b\u52d9\u6240","boring_xml_url":0,"boring_view_url":0,"soilmap_view_url":66,"soiltest_xml_url":0,"soiltest_view_url":66},{"id":127158,"code":"B4KJ201801001-5407","latitude":"31.4948368","longitude":"130.5373062","source_code":"PORT46001030035","project_name":"\u6e2f\u6e7e\u5c40","survey_name":"\u9e7f\u5150\u5cf6\u6e2f\u8c37\u5c712\u533a\u6771\u57e0\u982d\u571f\u8cea\u8abf\u67fb","client_name":"\u56fd\u571f\u4ea4\u901a\u7701\u4e5d\u5dde\u5730\u65b9\u6574\u5099\u5c40\u4e0b\u95a2\u6e2f\u6e7e\u7a7a\u6e2f\u6280\u8853\u8abf\u67fb\u4e8b\u52d9\u6240","boring_xml_url":0,"boring_view_url":0,"soilmap_view_url":66,"soiltest_xml_url":0,"soiltest_view_url":66},{"id":127157,"code":"B4KJ201801001-5406","latitude":"31.49479525","longitude":"130.5377244","source_code":"PORT46001030034","project_name":"\u6e2f\u6e7e\u5c40","survey_name":"\u9e7f\u5150\u5cf6\u6e2f\u8c37\u5c712\u533a\u6771\u57e0\u982d\u571f\u8cea\u8abf\u67fb","client_name":"\u56fd\u571f\u4ea4\u901a\u7701\u4e5d\u5dde\u5730\u65b9\u6574\u5099\u5c40\u4e0b\u95a2\u6e2f\u6e7e\u7a7a\u6e2f\u6280\u8853\u8abf\u67fb\u4e8b\u52d9\u6240","boring_xml_url":0,"boring_view_url":0,"soilmap_view_url":66,"soiltest_xml_url":0,"soiltest_view_url":66},{"id":127156,"code":"B4KJ201801001-5405","latitude":"31.49481603","longitude":"130.5375153","source_code":"PORT46001030033","project_name":"\u6e2f\u6e7e\u5c40","survey_name":"\u9e7f\u5150\u5cf6\u6e2f\u8c37\u5c712\u533a\u6771\u57e0\u982d\u571f\u8cea\u8abf\u67fb","client_name":"\u56fd\u571f\u4ea4\u901a\u7701\u4e5d\u5dde\u5730\u65b9\u6574\u5099\u5c40\u4e0b\u95a2\u6e2f\u6e7e\u7a7a\u6e2f\u6280\u8853\u8abf\u67fb\u4e8b\u52d9\u6240","boring_xml_url":0,"boring_view_url":0,"soilmap_view_url":66,"soiltest_xml_url":0,"soiltest_view_url":66},{"id":127155,"code":"B4KJ201801001-5404","latitude":"31.49571199","longitude":"130.5376365","source_code":"PORT46001030032","project_name":"\u6e2f\u6e7e\u5c40","survey_name":"\u9e7f\u5150\u5cf6\u6e2f\u8c37\u5c712\u533a\u6771\u57e0\u982d\u571f\u8cea\u8abf\u67fb","client_name":"\u56fd\u571f\u4ea4\u901a\u7701\u4e5d\u5dde\u5730\u65b9\u6574\u5099\u5c40\u4e0b\u95a2\u6e2f\u6e7e\u7a7a\u6e2f\u6280\u8853\u8abf\u67fb\u4e8b\u52d9\u6240","boring_xml_url":0,"boring_view_url":0,"soilmap_view_url":66,"soiltest_xml_url":0,"soiltest_view_url":66},{"id":127154,"code":"B4KJ201801001-5403","latitude":"31.49662871","longitude":"130.5375486","source_code":"PORT46001030031","project_name":"\u6e2f\u6e7e\u5c40","survey_name":"\u9e7f\u5150\u5cf6\u6e2f\u8c37\u5c712\u533a\u6771\u57e0\u982d\u571f\u8cea\u8abf\u67fb","client_name":"\u56fd\u571f\u4ea4\u901a\u7701\u4e5d\u5dde\u5730\u65b9\u6574\u5099\u5c40\u4e0b\u95a2\u6e2f\u6e7e\u7a7a\u6e2f\u6280\u8853\u8abf\u67fb\u4e8b\u52d9\u6240","boring_xml_url":0,"boring_view_url":0,"soilmap_view_url":66,"soiltest_xml_url":0,"soiltest_view_url":66},{"id":127153,"code":"B4KJ201801001-5402","latitude":"31.49658716","longitude":"130.5379669","source_code":"PORT46001030030","project_name":"\u6e2f\u6e7e\u5c40","survey_name":"\u9e7f\u5150\u5cf6\u6e2f\u8c37\u5c712\u533a\u6771\u57e0\u982d\u571f\u8cea\u8abf\u67fb","client_name":"\u56fd\u571f\u4ea4\u901a\u7701\u4e5d\u5dde\u5730\u65b9\u6574\u5099\u5c40\u4e0b\u95a2\u6e2f\u6e7e\u7a7a\u6e2f\u6280\u8853\u8abf\u67fb\u4e8b\u52d9\u6240","boring_xml_url":0,"boring_view_url":0,"soilmap_view_url":66,"soiltest_xml_url":0,"soiltest_view_url":66},{"id":127152,"code":"B4KJ201801001-5401","latitude":"31.49660794","longitude":"130.5377577","source_code":"PORT46001030029","project_name":"\u6e2f\u6e7e\u5c40","survey_name":"\u9e7f\u5150\u5cf6\u6e2f\u8c37\u5c712\u533a\u6771\u57e0\u982d\u571f\u8cea\u8abf\u67fb","client_name":"\u56fd\u571f\u4ea4\u901a\u7701\u4e5d\u5dde\u5730\u65b9\u6574\u5099\u5c40\u4e0b\u95a2\u6e2f\u6e7e\u7a7a\u6e2f\u6280\u8853\u8abf\u67fb\u4e8b\u52d9\u6240","boring_xml_url":0,"boring_view_url":0,"soilmap_view_url":66,"soiltest_xml_url":0,"soiltest_view_url":66},{"id":127151,"code":"B4KJ201801001-5400","latitude":"31.49705592","longitude":"130.5378183","source_code":"PORT46001030028","project_name":"\u6e2f\u6e7e\u5c40","survey_name":"\u9e7f\u5150\u5cf6\u6e2f\u8c37\u5c712\u533a\u6771\u57e0\u982d\u571f\u8cea\u8abf\u67fb","client_name":"\u56fd\u571f\u4ea4\u901a\u7701\u4e5d\u5dde\u5730\u65b9\u6574\u5099\u5c40\u4e0b\u95a2\u6e2f\u6e7e\u7a7a\u6e2f\u6280\u8853\u8abf\u67fb\u4e8b\u52d9\u6240","boring_xml_url":0,"boring_view_url":0,"soilmap_view_url":66,"soiltest_xml_url":0,"soiltest_view_url":66},{"id":127150,"code":"B4KJ201801001-5399","latitude":"31.50477822","longitude":"130.5241211","source_code":"PORT46001030027","project_name":"\u6e2f\u6e7e\u5c40","survey_name":"\u9e7f\u5150\u5cf6\u6e2f\u8c37\u5c711\u533a\u571f\u8cea\u8abf\u67fb","client_name":"\u56fd\u571f\u4ea4\u901a\u7701\u4e5d\u5dde\u5730\u65b9\u6574\u5099\u5c40\u4e0b\u95a2\u6e2f\u6e7e\u7a7a\u6e2f\u6280\u8853\u8abf\u67fb\u4e8b\u52d9\u6240","boring_xml_url":0,"boring_view_url":0,"soilmap_view_url":66,"soiltest_xml_url":0,"soiltest_view_url":66},{"id":127149,"code":"B4KJ201801001-5398","latitude":"31.50450177","longitude":"130.5251231","source_code":"PORT46001030026","project_name":"\u6e2f\u6e7e\u5c40","survey_name":"\u9e7f\u5150\u5cf6\u6e2f\u8c37\u5c711\u533a\u571f\u8cea\u8abf\u67fb","client_name":"\u56fd\u571f\u4ea4\u901a\u7701\u4e5d\u5dde\u5730\u65b9\u6574\u5099\u5c40\u4e0b\u95a2\u6e2f\u6e7e\u7a7a\u6e2f\u6280\u8853\u8abf\u67fb\u4e8b\u52d9\u6240","boring_xml_url":0,"boring_view_url":0,"soilmap_view_url":66,"soiltest_xml_url":0,"soiltest_view_url":66},{"id":127148,"code":"B4KJ201801001-5397","latitude":"31.50422532","longitude":"130.5261252","source_code":"PORT46001030025","project_name":"\u6e2f\u6e7e\u5c40","survey_name":"\u9e7f\u5150\u5cf6\u6e2f\u8c37\u5c711\u533a\u571f\u8cea\u8abf\u67fb","client_name":"\u56fd\u571f\u4ea4\u901a\u7701\u4e5d\u5dde\u5730\u65b9\u6574\u5099\u5c40\u4e0b\u95a2\u6e2f\u6e7e\u7a7a\u6e2f\u6280\u8853\u8abf\u67fb\u4e8b\u52d9\u6240","boring_xml_url":0,"boring_view_url":0,"soilmap_view_url":66,"soiltest_xml_url":0,"soiltest_view_url":66},{"id":127147,"code":"B4KJ201801001-5396","latitude":"31.50360544","longitude":"130.5269981","source_code":"PORT46001030024","project_name":"\u6e2f\u6e7e\u5c40","survey_name":"\u9e7f\u5150\u5cf6\u6e2f\u8c37\u5c711\u533a\u571f\u8cea\u8abf\u67fb","client_name":"\u56fd\u571f\u4ea4\u901a\u7701\u4e5d\u5dde\u5730\u65b9\u6574\u5099\u5c40\u4e0b\u95a2\u6e2f\u6e7e\u7a7a\u6e2f\u6280\u8853\u8abf\u67fb\u4e8b\u52d9\u6240","boring_xml_url":0,"boring_view_url":0,"soilmap_view_url":66,"soiltest_xml_url":0,"soiltest_view_url":66},{"id":127146,"code":"B4KJ201801001-5395","latitude":"31.50391968","longitude":"130.5237984","source_code":"PORT46001030023","project_name":"\u6e2f\u6e7e\u5c40","survey_name":"\u9e7f\u5150\u5cf6\u6e2f\u8c37\u5c711\u533a\u571f\u8cea\u8abf\u67fb","client_name":"\u56fd\u571f\u4ea4\u901a\u7701\u4e5d\u5dde\u5730\u65b9\u6574\u5099\u5c40\u4e0b\u95a2\u6e2f\u6e7e\u7a7a\u6e2f\u6280\u8853\u8abf\u67fb\u4e8b\u52d9\u6240","boring_xml_url":0,"boring_view_url":0,"soilmap_view_url":66,"soiltest_xml_url":0,"soiltest_view_url":66},{"id":127145,"code":"B4KJ201801001-5394","latitude":"31.50357626","longitude":"130.5236693","source_code":"PORT46001030022","project_name":"\u6e2f\u6e7e\u5c40","survey_name":"\u9e7f\u5150\u5cf6\u6e2f\u8c37\u5c711\u533a\u571f\u8cea\u8abf\u67fb","client_name":"\u56fd\u571f\u4ea4\u901a\u7701\u4e5d\u5dde\u5730\u65b9\u6574\u5099\u5c40\u4e0b\u95a2\u6e2f\u6e7e\u7a7a\u6e2f\u6280\u8853\u8abf\u67fb\u4e8b\u52d9\u6240","boring_xml_url":0,"boring_view_url":0,"soilmap_view_url":66,"soiltest_xml_url":0,"soiltest_view_url":66},{"id":127144,"code":"B4KJ201801001-5393","latitude":"31.50374797","longitude":"130.5237339","source_code":"PORT46001030021","project_name":"\u6e2f\u6e7e\u5c40","survey_name":"\u9e7f\u5150\u5cf6\u6e2f\u8c37\u5c711\u533a\u571f\u8cea\u8abf\u67fb","client_name":"\u56fd\u571f\u4ea4\u901a\u7701\u4e5d\u5dde\u5730\u65b9\u6574\u5099\u5c40\u4e0b\u95a2\u6e2f\u6e7e\u7a7a\u6e2f\u6280\u8853\u8abf\u67fb\u4e8b\u52d9\u6240","boring_xml_url":0,"boring_view_url":0,"soilmap_view_url":66,"soiltest_xml_url":0,"soiltest_view_url":66},{"id":127143,"code":"B4KJ201801001-5392","latitude":"31.50360974","longitude":"130.5242349","source_code":"PORT46001030020","project_name":"\u6e2f\u6e7e\u5c40","survey_name":"\u9e7f\u5150\u5cf6\u6e2f\u8c37\u5c711\u533a\u571f\u8cea\u8abf\u67fb","client_name":"\u56fd\u571f\u4ea4\u901a\u7701\u4e5d\u5dde\u5730\u65b9\u6574\u5099\u5c40\u4e0b\u95a2\u6e2f\u6e7e\u7a7a\u6e2f\u6280\u8853\u8abf\u67fb\u4e8b\u52d9\u6240","boring_xml_url":0,"boring_view_url":0,"soilmap_view_url":66,"soiltest_xml_url":0,"soiltest_view_url":66},{"id":127142,"code":"B4KJ201801001-5391","latitude":"31.50364323","longitude":"130.5248005","source_code":"PORT46001030019","project_name":"\u6e2f\u6e7e\u5c40","survey_name":"\u9e7f\u5150\u5cf6\u6e2f\u8c37\u5c711\u533a\u571f\u8cea\u8abf\u67fb","client_name":"\u56fd\u571f\u4ea4\u901a\u7701\u4e5d\u5dde\u5730\u65b9\u6574\u5099\u5c40\u4e0b\u95a2\u6e2f\u6e7e\u7a7a\u6e2f\u6280\u8853\u8abf\u67fb\u4e8b\u52d9\u6240","boring_xml_url":0,"boring_view_url":0,"soilmap_view_url":66,"soiltest_xml_url":0,"soiltest_view_url":66},{"id":127141,"code":"B4KJ201801001-5390","latitude":"31.50329982","longitude":"130.5246714","source_code":"PORT46001030018","project_name":"\u6e2f\u6e7e\u5c40","survey_name":"\u9e7f\u5150\u5cf6\u6e2f\u8c37\u5c711\u533a\u571f\u8cea\u8abf\u67fb","client_name":"\u56fd\u571f\u4ea4\u901a\u7701\u4e5d\u5dde\u5730\u65b9\u6574\u5099\u5c40\u4e0b\u95a2\u6e2f\u6e7e\u7a7a\u6e2f\u6280\u8853\u8abf\u67fb\u4e8b\u52d9\u6240","boring_xml_url":0,"boring_view_url":0,"soilmap_view_url":66,"soiltest_xml_url":0,"soiltest_view_url":66},{"id":127140,"code":"B4KJ201801001-5389","latitude":"31.50347152","longitude":"130.5247359","source_code":"PORT46001030017","project_name":"\u6e2f\u6e7e\u5c40","survey_name":"\u9e7f\u5150\u5cf6\u6e2f\u8c37\u5c711\u533a\u571f\u8cea\u8abf\u67fb","client_name":"\u56fd\u571f\u4ea4\u901a\u7701\u4e5d\u5dde\u5730\u65b9\u6574\u5099\u5c40\u4e0b\u95a2\u6e2f\u6e7e\u7a7a\u6e2f\u6280\u8853\u8abf\u67fb\u4e8b\u52d9\u6240","boring_xml_url":0,"boring_view_url":0,"soilmap_view_url":66,"soiltest_xml_url":0,"soiltest_view_url":66},{"id":127139,"code":"B4KJ201801001-5388","latitude":"31.5033333","longitude":"130.5252369","source_code":"PORT46001030016","project_name":"\u6e2f\u6e7e\u5c40","survey_name":"\u9e7f\u5150\u5cf6\u6e2f\u8c37\u5c711\u533a\u571f\u8cea\u8abf\u67fb","client_name":"\u56fd\u571f\u4ea4\u901a\u7701\u4e5d\u5dde\u5730\u65b9\u6574\u5099\u5c40\u4e0b\u95a2\u6e2f\u6e7e\u7a7a\u6e2f\u6280\u8853\u8abf\u67fb\u4e8b\u52d9\u6240","boring_xml_url":0,"boring_view_url":0,"soilmap_view_url":66,"soiltest_xml_url":0,"soiltest_view_url":66},{"id":127138,"code":"B4KJ201801001-5387","latitude":"31.50336678","longitude":"130.5258025","source_code":"PORT46001030015","project_name":"\u6e2f\u6e7e\u5c40","survey_name":"\u9e7f\u5150\u5cf6\u6e2f\u8c37\u5c711\u533a\u571f\u8cea\u8abf\u67fb","client_name":"\u56fd\u571f\u4ea4\u901a\u7701\u4e5d\u5dde\u5730\u65b9\u6574\u5099\u5c40\u4e0b\u95a2\u6e2f\u6e7e\u7a7a\u6e2f\u6280\u8853\u8abf\u67fb\u4e8b\u52d9\u6240","boring_xml_url":0,"boring_view_url":0,"soilmap_view_url":66,"soiltest_xml_url":0,"soiltest_view_url":66},{"id":127137,"code":"B4KJ201801001-5386","latitude":"31.50302337","longitude":"130.5256734","source_code":"PORT46001030014","project_name":"\u6e2f\u6e7e\u5c40","survey_name":"\u9e7f\u5150\u5cf6\u6e2f\u8c37\u5c711\u533a\u571f\u8cea\u8abf\u67fb","client_name":"\u56fd\u571f\u4ea4\u901a\u7701\u4e5d\u5dde\u5730\u65b9\u6574\u5099\u5c40\u4e0b\u95a2\u6e2f\u6e7e\u7a7a\u6e2f\u6280\u8853\u8abf\u67fb\u4e8b\u52d9\u6240","boring_xml_url":0,"boring_view_url":0,"soilmap_view_url":66,"soiltest_xml_url":0,"soiltest_view_url":66},{"id":127136,"code":"B4KJ201801001-5385","latitude":"31.50319507","longitude":"130.525738","source_code":"PORT46001030013","project_name":"\u6e2f\u6e7e\u5c40","survey_name":"\u9e7f\u5150\u5cf6\u6e2f\u8c37\u5c711\u533a\u571f\u8cea\u8abf\u67fb","client_name":"\u56fd\u571f\u4ea4\u901a\u7701\u4e5d\u5dde\u5730\u65b9\u6574\u5099\u5c40\u4e0b\u95a2\u6e2f\u6e7e\u7a7a\u6e2f\u6280\u8853\u8abf\u67fb\u4e8b\u52d9\u6240","boring_xml_url":0,"boring_view_url":0,"soilmap_view_url":66,"soiltest_xml_url":0,"soiltest_view_url":66}]}}