{"header":{"xyz":{"source":[],"mosaic":false},"page":6454,"raw":{"soiltest_result":"0","bbox":"57.598333,109.544722,1.933333,163.806111","page":"6454"},"conditions":{"soiltest_result":0,"north":57.598333,"west":109.544722,"south":1.933333,"east":163.806111},"success":true,"message":""},"data":{"meta":{"total":212844,"page":6454,"pages":7095,"count":30},"values":[{"id":126955,"code":"B4KJ201801001-5204","latitude":"33.30207555","longitude":"131.5054371","source_code":"PORT44003010049","project_name":"\u6e2f\u6e7e\u5c40","survey_name":"\u5225\u5e9c\u6e2f\u7b2c3\u57e0\u982d\u5730\u533a\u571f\u8cea\u8abf\u67fb","client_name":"\u56fd\u571f\u4ea4\u901a\u7701\u4e5d\u5dde\u5730\u65b9\u6574\u5099\u5c40\u4e0b\u95a2\u6e2f\u6e7e\u7a7a\u6e2f\u6280\u8853\u8abf\u67fb\u4e8b\u52d9\u6240","boring_xml_url":0,"boring_view_url":0,"soilmap_view_url":66,"soiltest_xml_url":0,"soiltest_view_url":66},{"id":126954,"code":"B4KJ201801001-5203","latitude":"33.30208596","longitude":"131.505759","source_code":"PORT44003010048","project_name":"\u6e2f\u6e7e\u5c40","survey_name":"\u5225\u5e9c\u6e2f\u7b2c3\u57e0\u982d\u5730\u533a\u571f\u8cea\u8abf\u67fb","client_name":"\u56fd\u571f\u4ea4\u901a\u7701\u4e5d\u5dde\u5730\u65b9\u6574\u5099\u5c40\u4e0b\u95a2\u6e2f\u6e7e\u7a7a\u6e2f\u6280\u8853\u8abf\u67fb\u4e8b\u52d9\u6240","boring_xml_url":0,"boring_view_url":0,"soilmap_view_url":66,"soiltest_xml_url":0,"soiltest_view_url":66},{"id":126953,"code":"B4KJ201801001-5202","latitude":"33.30165967","longitude":"131.5051338","source_code":"PORT44003010047","project_name":"\u6e2f\u6e7e\u5c40","survey_name":"\u5225\u5e9c\u6e2f\u7b2c3\u57e0\u982d\u5730\u533a\u571f\u8cea\u8abf\u67fb","client_name":"\u56fd\u571f\u4ea4\u901a\u7701\u4e5d\u5dde\u5730\u65b9\u6574\u5099\u5c40\u4e0b\u95a2\u6e2f\u6e7e\u7a7a\u6e2f\u6280\u8853\u8abf\u67fb\u4e8b\u52d9\u6240","boring_xml_url":0,"boring_view_url":0,"soilmap_view_url":66,"soiltest_xml_url":0,"soiltest_view_url":66},{"id":126952,"code":"B4KJ201801001-5201","latitude":"33.30194039","longitude":"131.5054433","source_code":"PORT44003010046","project_name":"\u6e2f\u6e7e\u5c40","survey_name":"\u5225\u5e9c\u6e2f\u7b2c3\u57e0\u982d\u5730\u533a\u571f\u8cea\u8abf\u67fb","client_name":"\u56fd\u571f\u4ea4\u901a\u7701\u4e5d\u5dde\u5730\u65b9\u6574\u5099\u5c40\u4e0b\u95a2\u6e2f\u6e7e\u7a7a\u6e2f\u6280\u8853\u8abf\u67fb\u4e8b\u52d9\u6240","boring_xml_url":0,"boring_view_url":0,"soilmap_view_url":66,"soiltest_xml_url":0,"soiltest_view_url":66},{"id":126951,"code":"B4KJ201801001-5200","latitude":"33.30222111","longitude":"131.5057528","source_code":"PORT44003010045","project_name":"\u6e2f\u6e7e\u5c40","survey_name":"\u5225\u5e9c\u6e2f\u7b2c3\u57e0\u982d\u5730\u533a\u571f\u8cea\u8abf\u67fb","client_name":"\u56fd\u571f\u4ea4\u901a\u7701\u4e5d\u5dde\u5730\u65b9\u6574\u5099\u5c40\u4e0b\u95a2\u6e2f\u6e7e\u7a7a\u6e2f\u6280\u8853\u8abf\u67fb\u4e8b\u52d9\u6240","boring_xml_url":0,"boring_view_url":0,"soilmap_view_url":66,"soiltest_xml_url":0,"soiltest_view_url":66},{"id":126950,"code":"B4KJ201801001-5199","latitude":"33.30139978","longitude":"131.5054681","source_code":"PORT44003010044","project_name":"\u6e2f\u6e7e\u5c40","survey_name":"\u5225\u5e9c\u6e2f\u7b2c3\u57e0\u982d\u5730\u533a\u571f\u8cea\u8abf\u67fb","client_name":"\u56fd\u571f\u4ea4\u901a\u7701\u4e5d\u5dde\u5730\u65b9\u6574\u5099\u5c40\u4e0b\u95a2\u6e2f\u6e7e\u7a7a\u6e2f\u6280\u8853\u8abf\u67fb\u4e8b\u52d9\u6240","boring_xml_url":0,"boring_view_url":0,"soilmap_view_url":66,"soiltest_xml_url":0,"soiltest_view_url":66},{"id":126949,"code":"B4KJ201801001-5198","latitude":"33.30192998","longitude":"131.5051214","source_code":"PORT44003010043","project_name":"\u6e2f\u6e7e\u5c40","survey_name":"\u5225\u5e9c\u6e2f\u7b2c3\u57e0\u982d\u5730\u533a\u571f\u8cea\u8abf\u67fb","client_name":"\u56fd\u571f\u4ea4\u901a\u7701\u4e5d\u5dde\u5730\u65b9\u6574\u5099\u5c40\u4e0b\u95a2\u6e2f\u6e7e\u7a7a\u6e2f\u6280\u8853\u8abf\u67fb\u4e8b\u52d9\u6240","boring_xml_url":0,"boring_view_url":0,"soilmap_view_url":66,"soiltest_xml_url":0,"soiltest_view_url":66},{"id":126948,"code":"B4KJ201801001-5197","latitude":"33.30195081","longitude":"131.5057652","source_code":"PORT44003010042","project_name":"\u6e2f\u6e7e\u5c40","survey_name":"\u5225\u5e9c\u6e2f\u7b2c3\u57e0\u982d\u5730\u533a\u571f\u8cea\u8abf\u67fb","client_name":"\u56fd\u571f\u4ea4\u901a\u7701\u4e5d\u5dde\u5730\u65b9\u6574\u5099\u5c40\u4e0b\u95a2\u6e2f\u6e7e\u7a7a\u6e2f\u6280\u8853\u8abf\u67fb\u4e8b\u52d9\u6240","boring_xml_url":0,"boring_view_url":0,"soilmap_view_url":66,"soiltest_xml_url":0,"soiltest_view_url":66},{"id":126947,"code":"B4KJ201801001-5196","latitude":"33.30598459","longitude":"131.5049355","source_code":"PORT44003010041","project_name":"\u6e2f\u6e7e\u5c40","survey_name":"\u5225\u5e9c\u6e2f\u7b2c3\u57e0\u982d\u5730\u533a\u571f\u8cea\u8abf\u67fb","client_name":"\u56fd\u571f\u4ea4\u901a\u7701\u4e5d\u5dde\u5730\u65b9\u6574\u5099\u5c40\u4e0b\u95a2\u6e2f\u6e7e\u7a7a\u6e2f\u6280\u8853\u8abf\u67fb\u4e8b\u52d9\u6240","boring_xml_url":0,"boring_view_url":0,"soilmap_view_url":66,"soiltest_xml_url":0,"soiltest_view_url":66},{"id":126946,"code":"B4KJ201801001-5195","latitude":"33.30490336","longitude":"131.5049851","source_code":"PORT44003010040","project_name":"\u6e2f\u6e7e\u5c40","survey_name":"\u5225\u5e9c\u6e2f\u7b2c3\u57e0\u982d\u5730\u533a\u571f\u8cea\u8abf\u67fb","client_name":"\u56fd\u571f\u4ea4\u901a\u7701\u4e5d\u5dde\u5730\u65b9\u6574\u5099\u5c40\u4e0b\u95a2\u6e2f\u6e7e\u7a7a\u6e2f\u6280\u8853\u8abf\u67fb\u4e8b\u52d9\u6240","boring_xml_url":0,"boring_view_url":0,"soilmap_view_url":66,"soiltest_xml_url":0,"soiltest_view_url":66},{"id":126945,"code":"B4KJ201801001-5194","latitude":"33.3024706","longitude":"131.5050966","source_code":"PORT44003010039","project_name":"\u6e2f\u6e7e\u5c40","survey_name":"\u5225\u5e9c\u6e2f\u7b2c3\u57e0\u982d\u5730\u533a\u571f\u8cea\u8abf\u67fb","client_name":"\u56fd\u571f\u4ea4\u901a\u7701\u4e5d\u5dde\u5730\u65b9\u6574\u5099\u5c40\u4e0b\u95a2\u6e2f\u6e7e\u7a7a\u6e2f\u6280\u8853\u8abf\u67fb\u4e8b\u52d9\u6240","boring_xml_url":0,"boring_view_url":0,"soilmap_view_url":66,"soiltest_xml_url":0,"soiltest_view_url":66},{"id":126944,"code":"B4KJ201801001-5193","latitude":"33.30600541","longitude":"131.5055793","source_code":"PORT44003010038","project_name":"\u6e2f\u6e7e\u5c40","survey_name":"\u5225\u5e9c\u6e2f\u7b2c3\u57e0\u982d\u5730\u533a\u571f\u8cea\u8abf\u67fb","client_name":"\u56fd\u571f\u4ea4\u901a\u7701\u4e5d\u5dde\u5730\u65b9\u6574\u5099\u5c40\u4e0b\u95a2\u6e2f\u6e7e\u7a7a\u6e2f\u6280\u8853\u8abf\u67fb\u4e8b\u52d9\u6240","boring_xml_url":0,"boring_view_url":0,"soilmap_view_url":66,"soiltest_xml_url":0,"soiltest_view_url":66},{"id":126943,"code":"B4KJ201801001-5192","latitude":"33.30492418","longitude":"131.5056289","source_code":"PORT44003010037","project_name":"\u6e2f\u6e7e\u5c40","survey_name":"\u5225\u5e9c\u6e2f\u7b2c3\u57e0\u982d\u5730\u533a\u571f\u8cea\u8abf\u67fb","client_name":"\u56fd\u571f\u4ea4\u901a\u7701\u4e5d\u5dde\u5730\u65b9\u6574\u5099\u5c40\u4e0b\u95a2\u6e2f\u6e7e\u7a7a\u6e2f\u6280\u8853\u8abf\u67fb\u4e8b\u52d9\u6240","boring_xml_url":0,"boring_view_url":0,"soilmap_view_url":66,"soiltest_xml_url":0,"soiltest_view_url":66},{"id":126942,"code":"B4KJ201801001-5191","latitude":"33.30384295","longitude":"131.5056785","source_code":"PORT44003010036","project_name":"\u6e2f\u6e7e\u5c40","survey_name":"\u5225\u5e9c\u6e2f\u7b2c3\u57e0\u982d\u5730\u533a\u571f\u8cea\u8abf\u67fb","client_name":"\u56fd\u571f\u4ea4\u901a\u7701\u4e5d\u5dde\u5730\u65b9\u6574\u5099\u5c40\u4e0b\u95a2\u6e2f\u6e7e\u7a7a\u6e2f\u6280\u8853\u8abf\u67fb\u4e8b\u52d9\u6240","boring_xml_url":0,"boring_view_url":0,"soilmap_view_url":66,"soiltest_xml_url":0,"soiltest_view_url":66},{"id":126941,"code":"B4KJ201801001-5190","latitude":"33.30249141","longitude":"131.5057404","source_code":"PORT44003010035","project_name":"\u6e2f\u6e7e\u5c40","survey_name":"\u5225\u5e9c\u6e2f\u7b2c3\u57e0\u982d\u5730\u533a\u571f\u8cea\u8abf\u67fb","client_name":"\u56fd\u571f\u4ea4\u901a\u7701\u4e5d\u5dde\u5730\u65b9\u6574\u5099\u5c40\u4e0b\u95a2\u6e2f\u6e7e\u7a7a\u6e2f\u6280\u8853\u8abf\u67fb\u4e8b\u52d9\u6240","boring_xml_url":0,"boring_view_url":0,"soilmap_view_url":66,"soiltest_xml_url":0,"soiltest_view_url":66},{"id":126940,"code":"B4KJ201801001-5189","latitude":"33.30141019","longitude":"131.50579","source_code":"PORT44003010034","project_name":"\u6e2f\u6e7e\u5c40","survey_name":"\u5225\u5e9c\u6e2f\u7b2c3\u57e0\u982d\u5730\u533a\u571f\u8cea\u8abf\u67fb","client_name":"\u56fd\u571f\u4ea4\u901a\u7701\u4e5d\u5dde\u5730\u65b9\u6574\u5099\u5c40\u4e0b\u95a2\u6e2f\u6e7e\u7a7a\u6e2f\u6280\u8853\u8abf\u67fb\u4e8b\u52d9\u6240","boring_xml_url":0,"boring_view_url":0,"soilmap_view_url":66,"soiltest_xml_url":0,"soiltest_view_url":66},{"id":126939,"code":"B4KJ201801001-5188","latitude":"33.3089529","longitude":"131.5063826","source_code":"PORT44003010033","project_name":"\u6e2f\u6e7e\u5c40","survey_name":"\u5225\u5e9c\u6e2f\u7b2c3\u57e0\u982d\u5730\u533a\u571f\u8cea\u53ca\u3073\u5e95\u8cea","client_name":"\u56fd\u571f\u4ea4\u901a\u7701\u4e5d\u5dde\u5730\u65b9\u6574\u5099\u5c40\u4e0b\u95a2\u6e2f\u6e7e\u7a7a\u6e2f\u6280\u8853\u8abf\u67fb\u4e8b\u52d9\u6240","boring_xml_url":0,"boring_view_url":0,"soilmap_view_url":66,"soiltest_xml_url":0,"soiltest_view_url":66},{"id":126938,"code":"B4KJ201801001-5187","latitude":"33.30805124","longitude":"131.5063947","source_code":"PORT44003010032","project_name":"\u6e2f\u6e7e\u5c40","survey_name":"\u5225\u5e9c\u6e2f\u7b2c3\u57e0\u982d\u5730\u533a\u571f\u8cea\u53ca\u3073\u5e95\u8cea","client_name":"\u56fd\u571f\u4ea4\u901a\u7701\u4e5d\u5dde\u5730\u65b9\u6574\u5099\u5c40\u4e0b\u95a2\u6e2f\u6e7e\u7a7a\u6e2f\u6280\u8853\u8abf\u67fb\u4e8b\u52d9\u6240","boring_xml_url":0,"boring_view_url":0,"soilmap_view_url":66,"soiltest_xml_url":0,"soiltest_view_url":66},{"id":126937,"code":"B4KJ201801001-5186","latitude":"33.30714958","longitude":"131.5064067","source_code":"PORT44003010031","project_name":"\u6e2f\u6e7e\u5c40","survey_name":"\u5225\u5e9c\u6e2f\u7b2c3\u57e0\u982d\u5730\u533a\u571f\u8cea\u53ca\u3073\u5e95\u8cea","client_name":"\u56fd\u571f\u4ea4\u901a\u7701\u4e5d\u5dde\u5730\u65b9\u6574\u5099\u5c40\u4e0b\u95a2\u6e2f\u6e7e\u7a7a\u6e2f\u6280\u8853\u8abf\u67fb\u4e8b\u52d9\u6240","boring_xml_url":0,"boring_view_url":0,"soilmap_view_url":66,"soiltest_xml_url":0,"soiltest_view_url":66},{"id":126936,"code":"B4KJ201801001-5185","latitude":"33.30624792","longitude":"131.5064188","source_code":"PORT44003010030","project_name":"\u6e2f\u6e7e\u5c40","survey_name":"\u5225\u5e9c\u6e2f\u7b2c3\u57e0\u982d\u5730\u533a\u571f\u8cea\u53ca\u3073\u5e95\u8cea","client_name":"\u56fd\u571f\u4ea4\u901a\u7701\u4e5d\u5dde\u5730\u65b9\u6574\u5099\u5c40\u4e0b\u95a2\u6e2f\u6e7e\u7a7a\u6e2f\u6280\u8853\u8abf\u67fb\u4e8b\u52d9\u6240","boring_xml_url":0,"boring_view_url":0,"soilmap_view_url":66,"soiltest_xml_url":0,"soiltest_view_url":66},{"id":126935,"code":"B4KJ201801001-5184","latitude":"33.30534626","longitude":"131.5064309","source_code":"PORT44003010029","project_name":"\u6e2f\u6e7e\u5c40","survey_name":"\u5225\u5e9c\u6e2f\u7b2c3\u57e0\u982d\u5730\u533a\u571f\u8cea\u53ca\u3073\u5e95\u8cea","client_name":"\u56fd\u571f\u4ea4\u901a\u7701\u4e5d\u5dde\u5730\u65b9\u6574\u5099\u5c40\u4e0b\u95a2\u6e2f\u6e7e\u7a7a\u6e2f\u6280\u8853\u8abf\u67fb\u4e8b\u52d9\u6240","boring_xml_url":0,"boring_view_url":0,"soilmap_view_url":66,"soiltest_xml_url":0,"soiltest_view_url":66},{"id":126934,"code":"B4KJ201801001-5183","latitude":"33.30462495","longitude":"131.5064406","source_code":"PORT44003010028","project_name":"\u6e2f\u6e7e\u5c40","survey_name":"\u5225\u5e9c\u6e2f\u7b2c3\u57e0\u982d\u5730\u533a\u571f\u8cea\u53ca\u3073\u5e95\u8cea","client_name":"\u56fd\u571f\u4ea4\u901a\u7701\u4e5d\u5dde\u5730\u65b9\u6574\u5099\u5c40\u4e0b\u95a2\u6e2f\u6e7e\u7a7a\u6e2f\u6280\u8853\u8abf\u67fb\u4e8b\u52d9\u6240","boring_xml_url":0,"boring_view_url":0,"soilmap_view_url":66,"soiltest_xml_url":0,"soiltest_view_url":66},{"id":126933,"code":"B4KJ201801001-5182","latitude":"33.30354303","longitude":"131.5064552","source_code":"PORT44003010027","project_name":"\u6e2f\u6e7e\u5c40","survey_name":"\u5225\u5e9c\u6e2f\u7b2c3\u57e0\u982d\u5730\u533a\u571f\u8cea\u53ca\u3073\u5e95\u8cea","client_name":"\u56fd\u571f\u4ea4\u901a\u7701\u4e5d\u5dde\u5730\u65b9\u6574\u5099\u5c40\u4e0b\u95a2\u6e2f\u6e7e\u7a7a\u6e2f\u6280\u8853\u8abf\u67fb\u4e8b\u52d9\u6240","boring_xml_url":0,"boring_view_url":0,"soilmap_view_url":66,"soiltest_xml_url":0,"soiltest_view_url":66},{"id":126932,"code":"B4KJ201801001-5181","latitude":"33.30894065","longitude":"131.5050941","source_code":"PORT44003010026","project_name":"\u6e2f\u6e7e\u5c40","survey_name":"\u5225\u5e9c\u6e2f\u7b2c3\u57e0\u982d\u5730\u533a\u571f\u8cea\u53ca\u3073\u5e95\u8cea","client_name":"\u56fd\u571f\u4ea4\u901a\u7701\u4e5d\u5dde\u5730\u65b9\u6574\u5099\u5c40\u4e0b\u95a2\u6e2f\u6e7e\u7a7a\u6e2f\u6280\u8853\u8abf\u67fb\u4e8b\u52d9\u6240","boring_xml_url":0,"boring_view_url":0,"soilmap_view_url":66,"soiltest_xml_url":0,"soiltest_view_url":66},{"id":126931,"code":"B4KJ201801001-5180","latitude":"33.30803899","longitude":"131.5051061","source_code":"PORT44003010025","project_name":"\u6e2f\u6e7e\u5c40","survey_name":"\u5225\u5e9c\u6e2f\u7b2c3\u57e0\u982d\u5730\u533a\u571f\u8cea\u53ca\u3073\u5e95\u8cea","client_name":"\u56fd\u571f\u4ea4\u901a\u7701\u4e5d\u5dde\u5730\u65b9\u6574\u5099\u5c40\u4e0b\u95a2\u6e2f\u6e7e\u7a7a\u6e2f\u6280\u8853\u8abf\u67fb\u4e8b\u52d9\u6240","boring_xml_url":0,"boring_view_url":0,"soilmap_view_url":66,"soiltest_xml_url":0,"soiltest_view_url":66},{"id":126930,"code":"B4KJ201801001-5179","latitude":"33.30713733","longitude":"131.5051182","source_code":"PORT44003010024","project_name":"\u6e2f\u6e7e\u5c40","survey_name":"\u5225\u5e9c\u6e2f\u7b2c3\u57e0\u982d\u5730\u533a\u571f\u8cea\u53ca\u3073\u5e95\u8cea","client_name":"\u56fd\u571f\u4ea4\u901a\u7701\u4e5d\u5dde\u5730\u65b9\u6574\u5099\u5c40\u4e0b\u95a2\u6e2f\u6e7e\u7a7a\u6e2f\u6280\u8853\u8abf\u67fb\u4e8b\u52d9\u6240","boring_xml_url":0,"boring_view_url":0,"soilmap_view_url":66,"soiltest_xml_url":0,"soiltest_view_url":66},{"id":126929,"code":"B4KJ201801001-5178","latitude":"33.30623567","longitude":"131.5051303","source_code":"PORT44003010023","project_name":"\u6e2f\u6e7e\u5c40","survey_name":"\u5225\u5e9c\u6e2f\u7b2c3\u57e0\u982d\u5730\u533a\u571f\u8cea\u53ca\u3073\u5e95\u8cea","client_name":"\u56fd\u571f\u4ea4\u901a\u7701\u4e5d\u5dde\u5730\u65b9\u6574\u5099\u5c40\u4e0b\u95a2\u6e2f\u6e7e\u7a7a\u6e2f\u6280\u8853\u8abf\u67fb\u4e8b\u52d9\u6240","boring_xml_url":0,"boring_view_url":0,"soilmap_view_url":66,"soiltest_xml_url":0,"soiltest_view_url":66},{"id":126928,"code":"B4KJ201801001-5177","latitude":"33.30533401","longitude":"131.5051424","source_code":"PORT44003010022","project_name":"\u6e2f\u6e7e\u5c40","survey_name":"\u5225\u5e9c\u6e2f\u7b2c3\u57e0\u982d\u5730\u533a\u571f\u8cea\u53ca\u3073\u5e95\u8cea","client_name":"\u56fd\u571f\u4ea4\u901a\u7701\u4e5d\u5dde\u5730\u65b9\u6574\u5099\u5c40\u4e0b\u95a2\u6e2f\u6e7e\u7a7a\u6e2f\u6280\u8853\u8abf\u67fb\u4e8b\u52d9\u6240","boring_xml_url":0,"boring_view_url":0,"soilmap_view_url":66,"soiltest_xml_url":0,"soiltest_view_url":66},{"id":126927,"code":"B4KJ201801001-5176","latitude":"33.30667764","longitude":"131.504044","source_code":"PORT44003010021","project_name":"\u6e2f\u6e7e\u5c40","survey_name":"\u5225\u5e9c\u6e2f\u7b2c3\u57e0\u982d\u5730\u533a\u571f\u8cea\u8abf\u67fb","client_name":"\u56fd\u571f\u4ea4\u901a\u7701\u4e5d\u5dde\u5730\u65b9\u6574\u5099\u5c40\u4e0b\u95a2\u6e2f\u6e7e\u7a7a\u6e2f\u6280\u8853\u8abf\u67fb\u4e8b\u52d9\u6240","boring_xml_url":0,"boring_view_url":0,"soilmap_view_url":66,"soiltest_xml_url":0,"soiltest_view_url":66},{"id":126926,"code":"B4KJ201801001-5175","latitude":"33.30668458","longitude":"131.5042586","source_code":"PORT44003010020","project_name":"\u6e2f\u6e7e\u5c40","survey_name":"\u5225\u5e9c\u6e2f\u7b2c3\u57e0\u982d\u5730\u533a\u571f\u8cea\u8abf\u67fb","client_name":"\u56fd\u571f\u4ea4\u901a\u7701\u4e5d\u5dde\u5730\u65b9\u6574\u5099\u5c40\u4e0b\u95a2\u6e2f\u6e7e\u7a7a\u6e2f\u6280\u8853\u8abf\u67fb\u4e8b\u52d9\u6240","boring_xml_url":0,"boring_view_url":0,"soilmap_view_url":66,"soiltest_xml_url":0,"soiltest_view_url":66}]}}