{"header":{"xyz":{"source":[],"mosaic":false},"page":6468,"raw":{"soiltest_result":"0","bbox":"57.598333,109.544722,1.933333,163.806111","page":"6468"},"conditions":{"soiltest_result":0,"north":57.598333,"west":109.544722,"south":1.933333,"east":163.806111},"success":true,"message":""},"data":{"meta":{"total":212844,"page":6468,"pages":7095,"count":30},"values":[{"id":126535,"code":"B4KJ201801001-4784","latitude":"32.74573274","longitude":"129.8678142","source_code":"PORT42001020004","project_name":"\u6e2f\u6e7e\u5c40","survey_name":"NAGASAKIKOHONKOCHIKUGANPEKI-6MDOSHITSUCH","client_name":"\u56fd\u571f\u4ea4\u901a\u7701 \u4e5d\u5dde\u5730\u65b9\u6574\u5099\u5c40 \u4e0b\u95a2\u6e2f\u6e7e\u7a7a\u6e2f\u6280\u8853\u8abf\u67fb\u4e8b\u52d9\u6240","boring_xml_url":0,"boring_view_url":0,"soilmap_view_url":66,"soiltest_xml_url":0,"soiltest_view_url":66},{"id":126534,"code":"B4KJ201801001-4783","latitude":"32.74627176","longitude":"129.8675937","source_code":"PORT42001020003","project_name":"\u6e2f\u6e7e\u5c40","survey_name":"NAGASAKIKOHONKOCHIKUGANPEKI-6MDOSHITSUCH","client_name":"\u56fd\u571f\u4ea4\u901a\u7701 \u4e5d\u5dde\u5730\u65b9\u6574\u5099\u5c40 \u4e0b\u95a2\u6e2f\u6e7e\u7a7a\u6e2f\u6280\u8853\u8abf\u67fb\u4e8b\u52d9\u6240","boring_xml_url":0,"boring_view_url":0,"soilmap_view_url":66,"soiltest_xml_url":0,"soiltest_view_url":66},{"id":126533,"code":"B4KJ201801001-4782","latitude":"32.74627375","longitude":"129.8678071","source_code":"PORT42001020002","project_name":"\u6e2f\u6e7e\u5c40","survey_name":"NAGASAKIKOHONKOCHIKUGANPEKI-6MDOSHITSUCH","client_name":"\u56fd\u571f\u4ea4\u901a\u7701 \u4e5d\u5dde\u5730\u65b9\u6574\u5099\u5c40 \u4e0b\u95a2\u6e2f\u6e7e\u7a7a\u6e2f\u6280\u8853\u8abf\u67fb\u4e8b\u52d9\u6240","boring_xml_url":0,"boring_view_url":0,"soilmap_view_url":66,"soiltest_xml_url":0,"soiltest_view_url":66},{"id":126532,"code":"B4KJ201801001-4781","latitude":"32.74627574","longitude":"129.8680204","source_code":"PORT42001020001","project_name":"\u6e2f\u6e7e\u5c40","survey_name":"NAGASAKIKOHONKOCHIKUGANPEKI-6MDOSHITSUCH","client_name":"\u56fd\u571f\u4ea4\u901a\u7701 \u4e5d\u5dde\u5730\u65b9\u6574\u5099\u5c40 \u4e0b\u95a2\u6e2f\u6e7e\u7a7a\u6e2f\u6280\u8853\u8abf\u67fb\u4e8b\u52d9\u6240","boring_xml_url":0,"boring_view_url":0,"soilmap_view_url":66,"soiltest_xml_url":0,"soiltest_view_url":66},{"id":126531,"code":"B4KJ201801001-4780","latitude":"33.54609286","longitude":"129.8683048","source_code":"PORT41006010101","project_name":"\u6e2f\u6e7e\u5c40","survey_name":"\u547c\u5b50\u6e2f(\u52a0\u90e8\u5cf6\u5730\u533a)\u9632\u6ce2\u5824","client_name":"\u56fd\u571f\u4ea4\u901a\u7701\u4e5d\u5dde\u5730\u65b9\u6574\u5099\u5c40\u4e0b\u95a2\u6e2f\u6e7e\u7a7a\u6e2f\u6280\u8853\u8abf\u67fb\u4e8b\u52d9\u6240","boring_xml_url":0,"boring_view_url":0,"soilmap_view_url":66,"soiltest_xml_url":0,"soiltest_view_url":66},{"id":126530,"code":"B4KJ201801001-4779","latitude":"33.54630821","longitude":"129.8682804","source_code":"PORT41006010100","project_name":"\u6e2f\u6e7e\u5c40","survey_name":"\u547c\u5b50\u6e2f(\u52a0\u90e8\u5cf6\u5730\u533a)\u9632\u6ce2\u5824","client_name":"\u56fd\u571f\u4ea4\u901a\u7701\u4e5d\u5dde\u5730\u65b9\u6574\u5099\u5c40\u4e0b\u95a2\u6e2f\u6e7e\u7a7a\u6e2f\u6280\u8853\u8abf\u67fb\u4e8b\u52d9\u6240","boring_xml_url":0,"boring_view_url":0,"soilmap_view_url":66,"soiltest_xml_url":0,"soiltest_view_url":66},{"id":126529,"code":"B4KJ201801001-4778","latitude":"33.54645181","longitude":"129.8682678","source_code":"PORT41006010099","project_name":"\u6e2f\u6e7e\u5c40","survey_name":"\u547c\u5b50\u6e2f(\u52a0\u90e8\u5cf6\u5730\u533a)\u9632\u6ce2\u5824","client_name":"\u56fd\u571f\u4ea4\u901a\u7701\u4e5d\u5dde\u5730\u65b9\u6574\u5099\u5c40\u4e0b\u95a2\u6e2f\u6e7e\u7a7a\u6e2f\u6280\u8853\u8abf\u67fb\u4e8b\u52d9\u6240","boring_xml_url":0,"boring_view_url":0,"soilmap_view_url":66,"soiltest_xml_url":0,"soiltest_view_url":66},{"id":126528,"code":"B4KJ201801001-4777","latitude":"33.54613672","longitude":"129.8688426","source_code":"PORT41006010098","project_name":"\u6e2f\u6e7e\u5c40","survey_name":"\u547c\u5b50\u6e2f(\u52a0\u90e8\u5cf6\u5730\u533a)\u9632\u6ce2\u5824","client_name":"\u56fd\u571f\u4ea4\u901a\u7701\u4e5d\u5dde\u5730\u65b9\u6574\u5099\u5c40\u4e0b\u95a2\u6e2f\u6e7e\u7a7a\u6e2f\u6280\u8853\u8abf\u67fb\u4e8b\u52d9\u6240","boring_xml_url":0,"boring_view_url":0,"soilmap_view_url":66,"soiltest_xml_url":0,"soiltest_view_url":66},{"id":126527,"code":"B4KJ201801001-4776","latitude":"33.54635208","longitude":"129.8688182","source_code":"PORT41006010097","project_name":"\u6e2f\u6e7e\u5c40","survey_name":"\u547c\u5b50\u6e2f(\u52a0\u90e8\u5cf6\u5730\u533a)\u9632\u6ce2\u5824","client_name":"\u56fd\u571f\u4ea4\u901a\u7701\u4e5d\u5dde\u5730\u65b9\u6574\u5099\u5c40\u4e0b\u95a2\u6e2f\u6e7e\u7a7a\u6e2f\u6280\u8853\u8abf\u67fb\u4e8b\u52d9\u6240","boring_xml_url":0,"boring_view_url":0,"soilmap_view_url":66,"soiltest_xml_url":0,"soiltest_view_url":66},{"id":126526,"code":"B4KJ201801001-4775","latitude":"33.54649568","longitude":"129.8688056","source_code":"PORT41006010096","project_name":"\u6e2f\u6e7e\u5c40","survey_name":"\u547c\u5b50\u6e2f(\u52a0\u90e8\u5cf6\u5730\u533a)\u9632\u6ce2\u5824","client_name":"\u56fd\u571f\u4ea4\u901a\u7701\u4e5d\u5dde\u5730\u65b9\u6574\u5099\u5c40\u4e0b\u95a2\u6e2f\u6e7e\u7a7a\u6e2f\u6280\u8853\u8abf\u67fb\u4e8b\u52d9\u6240","boring_xml_url":0,"boring_view_url":0,"soilmap_view_url":66,"soiltest_xml_url":0,"soiltest_view_url":66},{"id":126525,"code":"B4KJ201801001-4774","latitude":"33.54616421","longitude":"129.8691868","source_code":"PORT41006010095","project_name":"\u6e2f\u6e7e\u5c40","survey_name":"\u547c\u5b50\u6e2f(\u52a0\u90e8\u5cf6\u5730\u533a)\u9632\u6ce2\u5824","client_name":"\u56fd\u571f\u4ea4\u901a\u7701\u4e5d\u5dde\u5730\u65b9\u6574\u5099\u5c40\u4e0b\u95a2\u6e2f\u6e7e\u7a7a\u6e2f\u6280\u8853\u8abf\u67fb\u4e8b\u52d9\u6240","boring_xml_url":0,"boring_view_url":0,"soilmap_view_url":66,"soiltest_xml_url":0,"soiltest_view_url":66},{"id":126524,"code":"B4KJ201801001-4773","latitude":"33.54652306","longitude":"129.869139","source_code":"PORT41006010094","project_name":"\u6e2f\u6e7e\u5c40","survey_name":"\u547c\u5b50\u6e2f(\u52a0\u90e8\u5cf6\u5730\u533a)\u9632\u6ce2\u5824","client_name":"\u56fd\u571f\u4ea4\u901a\u7701\u4e5d\u5dde\u5730\u65b9\u6574\u5099\u5c40\u4e0b\u95a2\u6e2f\u6e7e\u7a7a\u6e2f\u6280\u8853\u8abf\u67fb\u4e8b\u52d9\u6240","boring_xml_url":0,"boring_view_url":0,"soilmap_view_url":66,"soiltest_xml_url":0,"soiltest_view_url":66},{"id":126523,"code":"B4KJ201801001-4772","latitude":"33.54596174","longitude":"129.8682526","source_code":"PORT41006010093","project_name":"\u6e2f\u6e7e\u5c40","survey_name":"\u547c\u5b50\u6e2f(\u52a0\u90e8\u5cf6\u5730\u533a)\u9632\u6ce2\u5824","client_name":"\u56fd\u571f\u4ea4\u901a\u7701\u4e5d\u5dde\u5730\u65b9\u6574\u5099\u5c40\u4e0b\u95a2\u6e2f\u6e7e\u7a7a\u6e2f\u6280\u8853\u8abf\u67fb\u4e8b\u52d9\u6240","boring_xml_url":0,"boring_view_url":0,"soilmap_view_url":66,"soiltest_xml_url":0,"soiltest_view_url":66},{"id":126522,"code":"B4KJ201801001-4771","latitude":"33.54624338","longitude":"129.868152","source_code":"PORT41006010092","project_name":"\u6e2f\u6e7e\u5c40","survey_name":"\u547c\u5b50\u6e2f(\u52a0\u90e8\u5cf6\u5730\u533a)\u9632\u6ce2\u5824","client_name":"\u56fd\u571f\u4ea4\u901a\u7701\u4e5d\u5dde\u5730\u65b9\u6574\u5099\u5c40\u4e0b\u95a2\u6e2f\u6e7e\u7a7a\u6e2f\u6280\u8853\u8abf\u67fb\u4e8b\u52d9\u6240","boring_xml_url":0,"boring_view_url":0,"soilmap_view_url":66,"soiltest_xml_url":0,"soiltest_view_url":66},{"id":126521,"code":"B4KJ201801001-4770","latitude":"33.54655544","longitude":"129.8679757","source_code":"PORT41006010091","project_name":"\u6e2f\u6e7e\u5c40","survey_name":"\u547c\u5b50\u6e2f(\u52a0\u90e8\u5cf6\u5730\u533a)\u9632\u6ce2\u5824","client_name":"\u56fd\u571f\u4ea4\u901a\u7701\u4e5d\u5dde\u5730\u65b9\u6574\u5099\u5c40\u4e0b\u95a2\u6e2f\u6e7e\u7a7a\u6e2f\u6280\u8853\u8abf\u67fb\u4e8b\u52d9\u6240","boring_xml_url":0,"boring_view_url":0,"soilmap_view_url":66,"soiltest_xml_url":0,"soiltest_view_url":66},{"id":126520,"code":"B4KJ201801001-4769","latitude":"33.54593678","longitude":"129.8683929","source_code":"PORT41006010090","project_name":"\u6e2f\u6e7e\u5c40","survey_name":"\u547c\u5b50\u6e2f(\u52a0\u90e8\u5cf6\u5730\u533a)\u9632\u6ce2\u5824","client_name":"\u56fd\u571f\u4ea4\u901a\u7701\u4e5d\u5dde\u5730\u65b9\u6574\u5099\u5c40\u4e0b\u95a2\u6e2f\u6e7e\u7a7a\u6e2f\u6280\u8853\u8abf\u67fb\u4e8b\u52d9\u6240","boring_xml_url":0,"boring_view_url":0,"soilmap_view_url":66,"soiltest_xml_url":0,"soiltest_view_url":66},{"id":126519,"code":"B4KJ201801001-4768","latitude":"33.54629856","longitude":"129.8683882","source_code":"PORT41006010089","project_name":"\u6e2f\u6e7e\u5c40","survey_name":"\u547c\u5b50\u6e2f(\u52a0\u90e8\u5cf6\u5730\u533a)\u9632\u6ce2\u5824","client_name":"\u56fd\u571f\u4ea4\u901a\u7701\u4e5d\u5dde\u5730\u65b9\u6574\u5099\u5c40\u4e0b\u95a2\u6e2f\u6e7e\u7a7a\u6e2f\u6280\u8853\u8abf\u67fb\u4e8b\u52d9\u6240","boring_xml_url":0,"boring_view_url":0,"soilmap_view_url":66,"soiltest_xml_url":0,"soiltest_view_url":66},{"id":126518,"code":"B4KJ201801001-4767","latitude":"33.54645873","longitude":"129.8683538","source_code":"PORT41006010088","project_name":"\u6e2f\u6e7e\u5c40","survey_name":"\u547c\u5b50\u6e2f(\u52a0\u90e8\u5cf6\u5730\u533a)\u9632\u6ce2\u5824","client_name":"\u56fd\u571f\u4ea4\u901a\u7701\u4e5d\u5dde\u5730\u65b9\u6574\u5099\u5c40\u4e0b\u95a2\u6e2f\u6e7e\u7a7a\u6e2f\u6280\u8853\u8abf\u67fb\u4e8b\u52d9\u6240","boring_xml_url":0,"boring_view_url":0,"soilmap_view_url":66,"soiltest_xml_url":0,"soiltest_view_url":66},{"id":126517,"code":"B4KJ201801001-4766","latitude":"33.54665763","longitude":"129.8685279","source_code":"PORT41006010028","project_name":"\u6e2f\u6e7e\u5c40","survey_name":"\u547c\u5b50\u6e2f\u52a0\u90e8\u5cf6\u5730\u533a\u9632\u6ce2\u5824\u571f\u8cea\u8abf\u67fb\u7b2c3\u6b21","client_name":"\u56fd\u571f\u4ea4\u901a\u7701\u4e5d\u5dde\u5730\u65b9\u6574\u5099\u5c40\u4e0b\u95a2\u6e2f\u6e7e\u7a7a\u6e2f\u6280\u8853\u8abf\u67fb\u4e8b\u52d9\u6240","boring_xml_url":0,"boring_view_url":0,"soilmap_view_url":66,"soiltest_xml_url":0,"soiltest_view_url":66},{"id":126516,"code":"B4KJ201801001-4765","latitude":"33.54665079","longitude":"129.868867","source_code":"PORT41006010027","project_name":"\u6e2f\u6e7e\u5c40","survey_name":"\u547c\u5b50\u6e2f\u52a0\u90e8\u5cf6\u5730\u533a\u9632\u6ce2\u5824\u571f\u8cea\u8abf\u67fb\u7b2c3\u6b21","client_name":"\u56fd\u571f\u4ea4\u901a\u7701\u4e5d\u5dde\u5730\u65b9\u6574\u5099\u5c40\u4e0b\u95a2\u6e2f\u6e7e\u7a7a\u6e2f\u6280\u8853\u8abf\u67fb\u4e8b\u52d9\u6240","boring_xml_url":0,"boring_view_url":0,"soilmap_view_url":66,"soiltest_xml_url":0,"soiltest_view_url":66},{"id":126515,"code":"B4KJ201801001-4764","latitude":"33.5462668","longitude":"129.8684553","source_code":"PORT41006010026","project_name":"\u6e2f\u6e7e\u5c40","survey_name":"\u547c\u5b50\u6e2f\u52a0\u90e8\u5cf6\u5730\u533a\u9632\u6ce2\u5824\u571f\u8cea\u8abf\u67fb\u7b2c3\u6b21","client_name":"\u56fd\u571f\u4ea4\u901a\u7701\u4e5d\u5dde\u5730\u65b9\u6574\u5099\u5c40\u4e0b\u95a2\u6e2f\u6e7e\u7a7a\u6e2f\u6280\u8853\u8abf\u67fb\u4e8b\u52d9\u6240","boring_xml_url":0,"boring_view_url":0,"soilmap_view_url":66,"soiltest_xml_url":0,"soiltest_view_url":66},{"id":126514,"code":"B4KJ201801001-4763","latitude":"33.54626571","longitude":"129.8685091","source_code":"PORT41006010025","project_name":"\u6e2f\u6e7e\u5c40","survey_name":"\u547c\u5b50\u6e2f\u52a0\u90e8\u5cf6\u5730\u533a\u9632\u6ce2\u5824\u571f\u8cea\u8abf\u67fb\u7b2c3\u6b21","client_name":"\u56fd\u571f\u4ea4\u901a\u7701\u4e5d\u5dde\u5730\u65b9\u6574\u5099\u5c40\u4e0b\u95a2\u6e2f\u6e7e\u7a7a\u6e2f\u6280\u8853\u8abf\u67fb\u4e8b\u52d9\u6240","boring_xml_url":0,"boring_view_url":0,"soilmap_view_url":66,"soiltest_xml_url":0,"soiltest_view_url":66},{"id":126513,"code":"B4KJ201801001-4762","latitude":"33.5462592","longitude":"129.868832","source_code":"PORT41006010024","project_name":"\u6e2f\u6e7e\u5c40","survey_name":"\u547c\u5b50\u6e2f\u52a0\u90e8\u5cf6\u5730\u533a\u9632\u6ce2\u5824\u571f\u8cea\u8abf\u67fb\u7b2c3\u6b21","client_name":"\u56fd\u571f\u4ea4\u901a\u7701\u4e5d\u5dde\u5730\u65b9\u6574\u5099\u5c40\u4e0b\u95a2\u6e2f\u6e7e\u7a7a\u6e2f\u6280\u8853\u8abf\u67fb\u4e8b\u52d9\u6240","boring_xml_url":0,"boring_view_url":0,"soilmap_view_url":66,"soiltest_xml_url":0,"soiltest_view_url":66},{"id":126512,"code":"B4KJ201801001-4761","latitude":"33.54669459","longitude":"129.8689307","source_code":"PORT41006010023","project_name":"\u6e2f\u6e7e\u5c40","survey_name":"\u547c\u5b50\u6e2f\u52a0\u90e8\u5cf6\u5730\u533a\u9632\u6ce2\u5824\u571f\u8cea\u8abf\u67fb\u7b2c3\u6b21","client_name":"\u56fd\u571f\u4ea4\u901a\u7701\u4e5d\u5dde\u5730\u65b9\u6574\u5099\u5c40\u4e0b\u95a2\u6e2f\u6e7e\u7a7a\u6e2f\u6280\u8853\u8abf\u67fb\u4e8b\u52d9\u6240","boring_xml_url":0,"boring_view_url":0,"soilmap_view_url":66,"soiltest_xml_url":0,"soiltest_view_url":66},{"id":126511,"code":"B4KJ201801001-4760","latitude":"33.54643789","longitude":"129.8682448","source_code":"PORT41006010022","project_name":"\u6e2f\u6e7e\u5c40","survey_name":"\u547c\u5b50\u6e2f\u52a0\u90e8\u5cf6\u5730\u533a\u9632\u6ce2\u5824\u571f\u8cea\u8abf\u67fb","client_name":"\u56fd\u571f\u4ea4\u901a\u7701\u4e5d\u5dde\u5730\u65b9\u6574\u5099\u5c40\u4e0b\u95a2\u6e2f\u6e7e\u7a7a\u6e2f\u6280\u8853\u8abf\u67fb\u4e8b\u52d9\u6240","boring_xml_url":0,"boring_view_url":0,"soilmap_view_url":66,"soiltest_xml_url":0,"soiltest_view_url":66},{"id":126510,"code":"B4KJ201801001-4759","latitude":"33.54670828","longitude":"129.8682526","source_code":"PORT41006010021","project_name":"\u6e2f\u6e7e\u5c40","survey_name":"\u547c\u5b50\u6e2f\u52a0\u90e8\u5cf6\u5730\u533a\u9632\u6ce2\u5824\u571f\u8cea\u8abf\u67fb","client_name":"\u56fd\u571f\u4ea4\u901a\u7701\u4e5d\u5dde\u5730\u65b9\u6574\u5099\u5c40\u4e0b\u95a2\u6e2f\u6e7e\u7a7a\u6e2f\u6280\u8853\u8abf\u67fb\u4e8b\u52d9\u6240","boring_xml_url":0,"boring_view_url":0,"soilmap_view_url":66,"soiltest_xml_url":0,"soiltest_view_url":66},{"id":126509,"code":"B4KJ201801001-4758","latitude":"33.54697866","longitude":"129.8682604","source_code":"PORT41006010020","project_name":"\u6e2f\u6e7e\u5c40","survey_name":"\u547c\u5b50\u6e2f\u52a0\u90e8\u5cf6\u5730\u533a\u9632\u6ce2\u5824\u571f\u8cea\u8abf\u67fb","client_name":"\u56fd\u571f\u4ea4\u901a\u7701\u4e5d\u5dde\u5730\u65b9\u6574\u5099\u5c40\u4e0b\u95a2\u6e2f\u6e7e\u7a7a\u6e2f\u6280\u8853\u8abf\u67fb\u4e8b\u52d9\u6240","boring_xml_url":0,"boring_view_url":0,"soilmap_view_url":66,"soiltest_xml_url":0,"soiltest_view_url":66},{"id":126508,"code":"B4KJ201801001-4757","latitude":"33.54642703","longitude":"129.868783","source_code":"PORT41006010019","project_name":"\u6e2f\u6e7e\u5c40","survey_name":"\u547c\u5b50\u6e2f\u52a0\u90e8\u5cf6\u5730\u533a\u9632\u6ce2\u5824\u571f\u8cea\u8abf\u67fb","client_name":"\u56fd\u571f\u4ea4\u901a\u7701\u4e5d\u5dde\u5730\u65b9\u6574\u5099\u5c40\u4e0b\u95a2\u6e2f\u6e7e\u7a7a\u6e2f\u6280\u8853\u8abf\u67fb\u4e8b\u52d9\u6240","boring_xml_url":0,"boring_view_url":0,"soilmap_view_url":66,"soiltest_xml_url":0,"soiltest_view_url":66},{"id":126507,"code":"B4KJ201801001-4756","latitude":"33.5469678","longitude":"129.8687986","source_code":"PORT41006010018","project_name":"\u6e2f\u6e7e\u5c40","survey_name":"\u547c\u5b50\u6e2f\u52a0\u90e8\u5cf6\u5730\u533a\u9632\u6ce2\u5824\u571f\u8cea\u8abf\u67fb","client_name":"\u56fd\u571f\u4ea4\u901a\u7701\u4e5d\u5dde\u5730\u65b9\u6574\u5099\u5c40\u4e0b\u95a2\u6e2f\u6e7e\u7a7a\u6e2f\u6280\u8853\u8abf\u67fb\u4e8b\u52d9\u6240","boring_xml_url":0,"boring_view_url":0,"soilmap_view_url":66,"soiltest_xml_url":0,"soiltest_view_url":66},{"id":126506,"code":"B4KJ201801001-4755","latitude":"33.54669199","longitude":"129.8690599","source_code":"PORT41006010017","project_name":"\u6e2f\u6e7e\u5c40","survey_name":"\u547c\u5b50\u6e2f\u52a0\u90e8\u5cf6\u5730\u533a\u9632\u6ce2\u5824\u571f\u8cea\u8abf\u67fb","client_name":"\u56fd\u571f\u4ea4\u901a\u7701\u4e5d\u5dde\u5730\u65b9\u6574\u5099\u5c40\u4e0b\u95a2\u6e2f\u6e7e\u7a7a\u6e2f\u6280\u8853\u8abf\u67fb\u4e8b\u52d9\u6240","boring_xml_url":0,"boring_view_url":0,"soilmap_view_url":66,"soiltest_xml_url":0,"soiltest_view_url":66}]}}