{"header":{"xyz":{"source":[],"mosaic":false},"page":6476,"raw":{"soiltest_result":"0","bbox":"57.598333,109.544722,1.933333,163.806111","page":"6476"},"conditions":{"soiltest_result":0,"north":57.598333,"west":109.544722,"south":1.933333,"east":163.806111},"success":true,"message":""},"data":{"meta":{"total":212844,"page":6476,"pages":7095,"count":30},"values":[{"id":126295,"code":"B4KJ201801001-4544","latitude":"33.64586577","longitude":"130.4054932","source_code":"PORT40002010005","project_name":"\u6e2f\u6e7e\u5c40","survey_name":"\u535a\u591a\u6e2f\u535a\u591a\u6e2f\u6728\u6750\u5730\u533a","client_name":"\u56fd\u571f\u4ea4\u901a\u7701\u4e5d\u5dde\u5730\u65b9\u6574\u5099\u5c40\u4e0b\u95a2\u6e2f\u6e7e\u7a7a\u6e2f\u6280\u8853\u8abf\u67fb\u4e8b\u52d9\u6240","boring_xml_url":0,"boring_view_url":0,"soilmap_view_url":66,"soiltest_xml_url":0,"soiltest_view_url":66},{"id":126294,"code":"B4KJ201801001-4543","latitude":"33.64575468","longitude":"130.4059034","source_code":"PORT40002010004","project_name":"\u6e2f\u6e7e\u5c40","survey_name":"\u535a\u591a\u6e2f\u535a\u591a\u6e2f\u6728\u6750\u5730\u533a","client_name":"\u56fd\u571f\u4ea4\u901a\u7701\u4e5d\u5dde\u5730\u65b9\u6574\u5099\u5c40\u4e0b\u95a2\u6e2f\u6e7e\u7a7a\u6e2f\u6280\u8853\u8abf\u67fb\u4e8b\u52d9\u6240","boring_xml_url":0,"boring_view_url":0,"soilmap_view_url":66,"soiltest_xml_url":0,"soiltest_view_url":66},{"id":126293,"code":"B4KJ201801001-4542","latitude":"33.64558807","longitude":"130.4065188","source_code":"PORT40002010003","project_name":"\u6e2f\u6e7e\u5c40","survey_name":"\u535a\u591a\u6e2f\u535a\u591a\u6e2f\u6728\u6750\u5730\u533a","client_name":"\u56fd\u571f\u4ea4\u901a\u7701\u4e5d\u5dde\u5730\u65b9\u6574\u5099\u5c40\u4e0b\u95a2\u6e2f\u6e7e\u7a7a\u6e2f\u6280\u8853\u8abf\u67fb\u4e8b\u52d9\u6240","boring_xml_url":0,"boring_view_url":0,"soilmap_view_url":66,"soiltest_xml_url":0,"soiltest_view_url":66},{"id":126292,"code":"B4KJ201801001-4541","latitude":"33.64537978","longitude":"130.407288","source_code":"PORT40002010001","project_name":"\u6e2f\u6e7e\u5c40","survey_name":"\u535a\u591a\u6e2f\u535a\u591a\u6e2f\u6728\u6750\u5730\u533a","client_name":"\u56fd\u571f\u4ea4\u901a\u7701\u4e5d\u5dde\u5730\u65b9\u6574\u5099\u5c40\u4e0b\u95a2\u6e2f\u6e7e\u7a7a\u6e2f\u6280\u8853\u8abf\u67fb\u4e8b\u52d9\u6240","boring_xml_url":0,"boring_view_url":0,"soilmap_view_url":66,"soiltest_xml_url":0,"soiltest_view_url":66},{"id":126291,"code":"B4KJ201801001-4540","latitude":"33.9313559","longitude":"131.0435437","source_code":"PORT40001070021","project_name":"\u6e2f\u6e7e\u5c40","survey_name":"\u5317\u4e5d\u5dde\u6e2f(\u767d\u91ce\u6c5f\u5730\u533a)\u571f\u8cea\u8abf\u67fb","client_name":"\u56fd\u571f\u4ea4\u901a\u7701\u4e5d\u5dde\u5730\u65b9\u6574\u5099\u5c40\u4e0b\u95a2\u6e2f\u6e7e\u7a7a\u6e2f\u6280\u8853\u8abf\u67fb\u4e8b\u52d9\u6240","boring_xml_url":0,"boring_view_url":0,"soilmap_view_url":66,"soiltest_xml_url":0,"soiltest_view_url":66},{"id":126290,"code":"B4KJ201801001-4539","latitude":"33.92951033","longitude":"131.0407439","source_code":"PORT40001070020","project_name":"\u6e2f\u6e7e\u5c40","survey_name":"\u5317\u4e5d\u5dde\u6e2f(\u767d\u91ce\u6c5f\u5730\u533a)\u571f\u8cea\u8abf\u67fb","client_name":"\u56fd\u571f\u4ea4\u901a\u7701\u4e5d\u5dde\u5730\u65b9\u6574\u5099\u5c40\u4e0b\u95a2\u6e2f\u6e7e\u7a7a\u6e2f\u6280\u8853\u8abf\u67fb\u4e8b\u52d9\u6240","boring_xml_url":0,"boring_view_url":0,"soilmap_view_url":66,"soiltest_xml_url":0,"soiltest_view_url":66},{"id":126289,"code":"B4KJ201801001-4538","latitude":"33.9276647","longitude":"131.037944","source_code":"PORT40001070019","project_name":"\u6e2f\u6e7e\u5c40","survey_name":"\u5317\u4e5d\u5dde\u6e2f(\u767d\u91ce\u6c5f\u5730\u533a)\u571f\u8cea\u8abf\u67fb","client_name":"\u56fd\u571f\u4ea4\u901a\u7701\u4e5d\u5dde\u5730\u65b9\u6574\u5099\u5c40\u4e0b\u95a2\u6e2f\u6e7e\u7a7a\u6e2f\u6280\u8853\u8abf\u67fb\u4e8b\u52d9\u6240","boring_xml_url":0,"boring_view_url":0,"soilmap_view_url":66,"soiltest_xml_url":0,"soiltest_view_url":66},{"id":126288,"code":"B4KJ201801001-4537","latitude":"33.92598664","longitude":"131.0353989","source_code":"PORT40001070018","project_name":"\u6e2f\u6e7e\u5c40","survey_name":"\u5317\u4e5d\u5dde\u6e2f(\u767d\u91ce\u6c5f\u5730\u533a)\u571f\u8cea\u8abf\u67fb","client_name":"\u56fd\u571f\u4ea4\u901a\u7701\u4e5d\u5dde\u5730\u65b9\u6574\u5099\u5c40\u4e0b\u95a2\u6e2f\u6e7e\u7a7a\u6e2f\u6280\u8853\u8abf\u67fb\u4e8b\u52d9\u6240","boring_xml_url":0,"boring_view_url":0,"soilmap_view_url":66,"soiltest_xml_url":0,"soiltest_view_url":66},{"id":126287,"code":"B4KJ201801001-4536","latitude":"33.92430851","longitude":"131.0328535","source_code":"PORT40001070017","project_name":"\u6e2f\u6e7e\u5c40","survey_name":"\u5317\u4e5d\u5dde\u6e2f(\u767d\u91ce\u6c5f\u5730\u533a)\u571f\u8cea\u8abf\u67fb","client_name":"\u56fd\u571f\u4ea4\u901a\u7701\u4e5d\u5dde\u5730\u65b9\u6574\u5099\u5c40\u4e0b\u95a2\u6e2f\u6e7e\u7a7a\u6e2f\u6280\u8853\u8abf\u67fb\u4e8b\u52d9\u6240","boring_xml_url":0,"boring_view_url":0,"soilmap_view_url":66,"soiltest_xml_url":0,"soiltest_view_url":66},{"id":126286,"code":"B4KJ201801001-4535","latitude":"33.92129192","longitude":"131.0112054","source_code":"PORT40001070016","project_name":"\u6e2f\u6e7e\u5c40","survey_name":"\u5317\u4e5d\u5dde\u6e2f\u767d\u91ce\u6c5f\u5730\u533a","client_name":"\u56fd\u571f\u4ea4\u901a\u7701\u4e5d\u5dde\u5730\u65b9\u6574\u5099\u5c40\u4e0b\u95a2\u6e2f\u6e7e\u7a7a\u6e2f\u6280\u8853\u8abf\u67fb\u4e8b\u52d9\u6240","boring_xml_url":0,"boring_view_url":0,"soilmap_view_url":66,"soiltest_xml_url":0,"soiltest_view_url":66},{"id":126285,"code":"B4KJ201801001-4534","latitude":"33.92129194","longitude":"131.0123164","source_code":"PORT40001070015","project_name":"\u6e2f\u6e7e\u5c40","survey_name":"\u5317\u4e5d\u5dde\u6e2f\u767d\u91ce\u6c5f\u5730\u533a","client_name":"\u56fd\u571f\u4ea4\u901a\u7701\u4e5d\u5dde\u5730\u65b9\u6574\u5099\u5c40\u4e0b\u95a2\u6e2f\u6e7e\u7a7a\u6e2f\u6280\u8853\u8abf\u67fb\u4e8b\u52d9\u6240","boring_xml_url":0,"boring_view_url":0,"soilmap_view_url":66,"soiltest_xml_url":0,"soiltest_view_url":66},{"id":126284,"code":"B4KJ201801001-4533","latitude":"33.92101423","longitude":"131.0139829","source_code":"PORT40001070014","project_name":"\u6e2f\u6e7e\u5c40","survey_name":"\u5317\u4e5d\u5dde\u6e2f\u767d\u91ce\u6c5f\u5730\u533a","client_name":"\u56fd\u571f\u4ea4\u901a\u7701\u4e5d\u5dde\u5730\u65b9\u6574\u5099\u5c40\u4e0b\u95a2\u6e2f\u6e7e\u7a7a\u6e2f\u6280\u8853\u8abf\u67fb\u4e8b\u52d9\u6240","boring_xml_url":0,"boring_view_url":0,"soilmap_view_url":66,"soiltest_xml_url":0,"soiltest_view_url":66},{"id":126283,"code":"B4KJ201801001-4532","latitude":"33.92101425","longitude":"131.015094","source_code":"PORT40001070013","project_name":"\u6e2f\u6e7e\u5c40","survey_name":"\u5317\u4e5d\u5dde\u6e2f\u767d\u91ce\u6c5f\u5730\u533a","client_name":"\u56fd\u571f\u4ea4\u901a\u7701\u4e5d\u5dde\u5730\u65b9\u6574\u5099\u5c40\u4e0b\u95a2\u6e2f\u6e7e\u7a7a\u6e2f\u6280\u8853\u8abf\u67fb\u4e8b\u52d9\u6240","boring_xml_url":0,"boring_view_url":0,"soilmap_view_url":66,"soiltest_xml_url":0,"soiltest_view_url":66},{"id":126282,"code":"B4KJ201801001-4531","latitude":"33.92073654","longitude":"131.0167605","source_code":"PORT40001070012","project_name":"\u6e2f\u6e7e\u5c40","survey_name":"\u5317\u4e5d\u5dde\u6e2f\u767d\u91ce\u6c5f\u5730\u533a","client_name":"\u56fd\u571f\u4ea4\u901a\u7701\u4e5d\u5dde\u5730\u65b9\u6574\u5099\u5c40\u4e0b\u95a2\u6e2f\u6e7e\u7a7a\u6e2f\u6280\u8853\u8abf\u67fb\u4e8b\u52d9\u6240","boring_xml_url":0,"boring_view_url":0,"soilmap_view_url":66,"soiltest_xml_url":0,"soiltest_view_url":66},{"id":126281,"code":"B4KJ201801001-4530","latitude":"33.92045882","longitude":"131.018427","source_code":"PORT40001070011","project_name":"\u6e2f\u6e7e\u5c40","survey_name":"\u5317\u4e5d\u5dde\u6e2f\u767d\u91ce\u6c5f\u5730\u533a","client_name":"\u56fd\u571f\u4ea4\u901a\u7701\u4e5d\u5dde\u5730\u65b9\u6574\u5099\u5c40\u4e0b\u95a2\u6e2f\u6e7e\u7a7a\u6e2f\u6280\u8853\u8abf\u67fb\u4e8b\u52d9\u6240","boring_xml_url":0,"boring_view_url":0,"soilmap_view_url":66,"soiltest_xml_url":0,"soiltest_view_url":66},{"id":126280,"code":"B4KJ201801001-4529","latitude":"33.92018112","longitude":"131.020649","source_code":"PORT40001070010","project_name":"\u6e2f\u6e7e\u5c40","survey_name":"\u5317\u4e5d\u5dde\u6e2f\u767d\u91ce\u6c5f\u5730\u533a","client_name":"\u56fd\u571f\u4ea4\u901a\u7701\u4e5d\u5dde\u5730\u65b9\u6574\u5099\u5c40\u4e0b\u95a2\u6e2f\u6e7e\u7a7a\u6e2f\u6280\u8853\u8abf\u67fb\u4e8b\u52d9\u6240","boring_xml_url":0,"boring_view_url":0,"soilmap_view_url":66,"soiltest_xml_url":0,"soiltest_view_url":66},{"id":126279,"code":"B4KJ201801001-4528","latitude":"33.91990339","longitude":"131.0214823","source_code":"PORT40001070009","project_name":"\u6e2f\u6e7e\u5c40","survey_name":"\u5317\u4e5d\u5dde\u6e2f\u767d\u91ce\u6c5f\u5730\u533a","client_name":"\u56fd\u571f\u4ea4\u901a\u7701\u4e5d\u5dde\u5730\u65b9\u6574\u5099\u5c40\u4e0b\u95a2\u6e2f\u6e7e\u7a7a\u6e2f\u6280\u8853\u8abf\u67fb\u4e8b\u52d9\u6240","boring_xml_url":0,"boring_view_url":0,"soilmap_view_url":66,"soiltest_xml_url":0,"soiltest_view_url":66},{"id":126278,"code":"B4KJ201801001-4527","latitude":"33.91962567","longitude":"131.0225933","source_code":"PORT40001070008","project_name":"\u6e2f\u6e7e\u5c40","survey_name":"\u5317\u4e5d\u5dde\u6e2f\u767d\u91ce\u6c5f\u5730\u533a","client_name":"\u56fd\u571f\u4ea4\u901a\u7701\u4e5d\u5dde\u5730\u65b9\u6574\u5099\u5c40\u4e0b\u95a2\u6e2f\u6e7e\u7a7a\u6e2f\u6280\u8853\u8abf\u67fb\u4e8b\u52d9\u6240","boring_xml_url":0,"boring_view_url":0,"soilmap_view_url":66,"soiltest_xml_url":0,"soiltest_view_url":66},{"id":126277,"code":"B4KJ201801001-4526","latitude":"33.91907023","longitude":"131.0250931","source_code":"PORT40001070007","project_name":"\u6e2f\u6e7e\u5c40","survey_name":"\u5317\u4e5d\u5dde\u6e2f\u767d\u91ce\u6c5f\u5730\u533a","client_name":"\u56fd\u571f\u4ea4\u901a\u7701\u4e5d\u5dde\u5730\u65b9\u6574\u5099\u5c40\u4e0b\u95a2\u6e2f\u6e7e\u7a7a\u6e2f\u6280\u8853\u8abf\u67fb\u4e8b\u52d9\u6240","boring_xml_url":0,"boring_view_url":0,"soilmap_view_url":66,"soiltest_xml_url":0,"soiltest_view_url":66},{"id":126276,"code":"B4KJ201801001-4525","latitude":"33.91907025","longitude":"131.0264819","source_code":"PORT40001070006","project_name":"\u6e2f\u6e7e\u5c40","survey_name":"\u5317\u4e5d\u5dde\u6e2f\u767d\u91ce\u6c5f\u5730\u533a","client_name":"\u56fd\u571f\u4ea4\u901a\u7701\u4e5d\u5dde\u5730\u65b9\u6574\u5099\u5c40\u4e0b\u95a2\u6e2f\u6e7e\u7a7a\u6e2f\u6280\u8853\u8abf\u67fb\u4e8b\u52d9\u6240","boring_xml_url":0,"boring_view_url":0,"soilmap_view_url":66,"soiltest_xml_url":0,"soiltest_view_url":66},{"id":126275,"code":"B4KJ201801001-4524","latitude":"33.91879254","longitude":"131.0284261","source_code":"PORT40001070005","project_name":"\u6e2f\u6e7e\u5c40","survey_name":"\u5317\u4e5d\u5dde\u6e2f\u767d\u91ce\u6c5f\u5730\u533a","client_name":"\u56fd\u571f\u4ea4\u901a\u7701\u4e5d\u5dde\u5730\u65b9\u6574\u5099\u5c40\u4e0b\u95a2\u6e2f\u6e7e\u7a7a\u6e2f\u6280\u8853\u8abf\u67fb\u4e8b\u52d9\u6240","boring_xml_url":0,"boring_view_url":0,"soilmap_view_url":66,"soiltest_xml_url":0,"soiltest_view_url":66},{"id":126274,"code":"B4KJ201801001-4523","latitude":"33.91851482","longitude":"131.0295372","source_code":"PORT40001070004","project_name":"\u6e2f\u6e7e\u5c40","survey_name":"\u5317\u4e5d\u5dde\u6e2f\u767d\u91ce\u6c5f\u5730\u533a","client_name":"\u56fd\u571f\u4ea4\u901a\u7701\u4e5d\u5dde\u5730\u65b9\u6574\u5099\u5c40\u4e0b\u95a2\u6e2f\u6e7e\u7a7a\u6e2f\u6280\u8853\u8abf\u67fb\u4e8b\u52d9\u6240","boring_xml_url":0,"boring_view_url":0,"soilmap_view_url":66,"soiltest_xml_url":0,"soiltest_view_url":66},{"id":126273,"code":"B4KJ201801001-4522","latitude":"33.91990325","longitude":"131.0142607","source_code":"PORT40001070003","project_name":"\u6e2f\u6e7e\u5c40","survey_name":"\u5317\u4e5d\u5dde\u6e2f(\u767d\u91ce\u6c5f\u5730\u533a)","client_name":"\u56fd\u571f\u4ea4\u901a\u7701\u4e5d\u5dde\u5730\u65b9\u6574\u5099\u5c40\u4e0b\u95a2\u6e2f\u6e7e\u7a7a\u6e2f\u6280\u8853\u8abf\u67fb\u4e8b\u52d9\u6240","boring_xml_url":0,"boring_view_url":0,"soilmap_view_url":66,"soiltest_xml_url":0,"soiltest_view_url":66},{"id":126272,"code":"B4KJ201801001-4521","latitude":"33.91956259","longitude":"131.0200493","source_code":"PORT40001070002","project_name":"\u6e2f\u6e7e\u5c40","survey_name":"\u5317\u4e5d\u5dde\u6e2f(\u767d\u91ce\u6c5f\u5730\u533a)\u6a4b\u6881\u571f\u8cea\u8abf\u67fb","client_name":"\u56fd\u571f\u4ea4\u901a\u7701\u4e5d\u5dde\u5730\u65b9\u6574\u5099\u5c40\u4e0b\u95a2\u6e2f\u6e7e\u7a7a\u6e2f\u6280\u8853\u8abf\u67fb\u4e8b\u52d9\u6240","boring_xml_url":0,"boring_view_url":0,"soilmap_view_url":66,"soiltest_xml_url":0,"soiltest_view_url":66},{"id":126271,"code":"B4KJ201801001-4520","latitude":"33.91875124","longitude":"131.0257255","source_code":"PORT40001070001","project_name":"\u6e2f\u6e7e\u5c40","survey_name":"\u5317\u4e5d\u5dde\u6e2f(\u767d\u91ce\u6c5f\u5730\u533a)\u6a4b\u6881\u571f\u8cea\u8abf\u67fb","client_name":"\u56fd\u571f\u4ea4\u901a\u7701\u4e5d\u5dde\u5730\u65b9\u6574\u5099\u5c40\u4e0b\u95a2\u6e2f\u6e7e\u7a7a\u6e2f\u6280\u8853\u8abf\u67fb\u4e8b\u52d9\u6240","boring_xml_url":0,"boring_view_url":0,"soilmap_view_url":66,"soiltest_xml_url":0,"soiltest_view_url":66},{"id":126270,"code":"B4KJ201801001-4519","latitude":"33.94836111","longitude":"130.758","source_code":"PORT40001060151","project_name":"\u6e2f\u6e7e\u5c40","survey_name":"\u5317\u4e5d\u5dde\u6e2f(\u97ff\u7058\u5730\u533a)\u9632\u6ce2\u5824(\u897f)\u571f\u8cea\u8abf\u67fb","client_name":"\u56fd\u571f\u4ea4\u901a\u7701\u4e5d\u5dde\u5730\u65b9\u6574\u5099\u5c40\u4e0b\u95a2\u6e2f\u6e7e\u7a7a\u6e2f\u6280\u8853\u8abf\u67fb\u4e8b\u52d9\u6240","boring_xml_url":0,"boring_view_url":0,"soilmap_view_url":66,"soiltest_xml_url":0,"soiltest_view_url":66},{"id":126269,"code":"B4KJ201801001-4518","latitude":"33.9485","longitude":"130.7578611","source_code":"PORT40001060150","project_name":"\u6e2f\u6e7e\u5c40","survey_name":"\u5317\u4e5d\u5dde\u6e2f(\u97ff\u7058\u5730\u533a)\u9632\u6ce2\u5824(\u897f)\u571f\u8cea\u8abf\u67fb","client_name":"\u56fd\u571f\u4ea4\u901a\u7701\u4e5d\u5dde\u5730\u65b9\u6574\u5099\u5c40\u4e0b\u95a2\u6e2f\u6e7e\u7a7a\u6e2f\u6280\u8853\u8abf\u67fb\u4e8b\u52d9\u6240","boring_xml_url":0,"boring_view_url":0,"soilmap_view_url":66,"soiltest_xml_url":0,"soiltest_view_url":66},{"id":126268,"code":"B4KJ201801001-4517","latitude":"33.94863889","longitude":"130.7577222","source_code":"PORT40001060149","project_name":"\u6e2f\u6e7e\u5c40","survey_name":"\u5317\u4e5d\u5dde\u6e2f(\u97ff\u7058\u5730\u533a)\u9632\u6ce2\u5824(\u897f)\u5730\u8cea\u8abf\u67fb","client_name":"\u56fd\u571f\u4ea4\u901a\u7701\u4e5d\u5dde\u5730\u65b9\u6574\u5099\u5c40\u4e0b\u95a2\u6e2f\u6e7e\u7a7a\u6e2f\u6280\u8853\u8abf\u67fb\u4e8b\u52d9\u6240","boring_xml_url":0,"boring_view_url":0,"soilmap_view_url":66,"soiltest_xml_url":0,"soiltest_view_url":66},{"id":126267,"code":"B4KJ201801001-4516","latitude":"33.94908333","longitude":"130.7586944","source_code":"PORT40001060148","project_name":"\u6e2f\u6e7e\u5c40","survey_name":"\u5317\u4e5d\u5dde\u6e2f(\u97ff\u7058\u5730\u533a)\u9632\u6ce2\u5824(\u897f)\u571f\u58cc\u8abf\u67fb","client_name":"\u56fd\u571f\u4ea4\u901a\u7701\u4e5d\u5dde\u5730\u65b9\u6574\u5099\u5c40\u4e0b\u95a2\u6e2f\u6e7e\u7a7a\u6e2f\u6280\u8853\u8abf\u67fb\u4e8b\u52d9\u6240","boring_xml_url":0,"boring_view_url":0,"soilmap_view_url":66,"soiltest_xml_url":0,"soiltest_view_url":66},{"id":126266,"code":"B4KJ201801001-4515","latitude":"33.93025499","longitude":"130.76802","source_code":"PORT40001060147","project_name":"\u6e2f\u6e7e\u5c40","survey_name":"\u5317\u4e5d\u5dde\u6e2f(\u97ff\u7058\u5730\u533a)\u6cca\u5730(-15m)\u571f\u8cea\u8abf\u67fb","client_name":"\u56fd\u571f\u4ea4\u901a\u7701\u4e5d\u5dde\u5730\u65b9\u6574\u5099\u5c40\u4e0b\u95a2\u6e2f\u6e7e\u7a7a\u6e2f\u6280\u8853\u8abf\u67fb\u4e8b\u52d9\u6240","boring_xml_url":0,"boring_view_url":0,"soilmap_view_url":66,"soiltest_xml_url":0,"soiltest_view_url":66}]}}