{"header":{"xyz":{"source":[],"mosaic":false},"page":6477,"raw":{"soiltest_result":"0","bbox":"57.598333,109.544722,1.933333,163.806111","page":"6477"},"conditions":{"soiltest_result":0,"north":57.598333,"west":109.544722,"south":1.933333,"east":163.806111},"success":true,"message":""},"data":{"meta":{"total":212844,"page":6477,"pages":7095,"count":30},"values":[{"id":126265,"code":"B4KJ201801001-4514","latitude":"33.93406357","longitude":"130.7717823","source_code":"PORT40001060142","project_name":"\u6e2f\u6e7e\u5c40","survey_name":"\u5317\u4e5d\u5dde\u6e2f(\u97ff\u7058\u5730\u533a)\u6cca\u5730(-15m)\u571f\u8cea\u8abf\u67fb","client_name":"\u56fd\u571f\u4ea4\u901a\u7701\u4e5d\u5dde\u5730\u65b9\u6574\u5099\u5c40\u4e0b\u95a2\u6e2f\u6e7e\u7a7a\u6e2f\u6280\u8853\u8abf\u67fb\u4e8b\u52d9\u6240","boring_xml_url":0,"boring_view_url":0,"soilmap_view_url":66,"soiltest_xml_url":0,"soiltest_view_url":66},{"id":126264,"code":"B4KJ201801001-4513","latitude":"33.93600779","longitude":"130.7717822","source_code":"PORT40001060141","project_name":"\u6e2f\u6e7e\u5c40","survey_name":"\u5317\u4e5d\u5dde\u6e2f(\u97ff\u7058\u5730\u533a)\u6cca\u5730(-15m)\u571f\u8cea\u8abf\u67fb","client_name":"\u56fd\u571f\u4ea4\u901a\u7701\u4e5d\u5dde\u5730\u65b9\u6574\u5099\u5c40\u4e0b\u95a2\u6e2f\u6e7e\u7a7a\u6e2f\u6280\u8853\u8abf\u67fb\u4e8b\u52d9\u6240","boring_xml_url":0,"boring_view_url":0,"soilmap_view_url":66,"soiltest_xml_url":0,"soiltest_view_url":66},{"id":126263,"code":"B4KJ201801001-4512","latitude":"33.93628563","longitude":"130.7762263","source_code":"PORT40001060140","project_name":"\u6e2f\u6e7e\u5c40","survey_name":"\u5317\u4e5d\u5dde\u6e2f(\u97ff\u7058\u5730\u533a)\u6cca\u5730(-15m)\u571f\u8cea\u8abf\u67fb","client_name":"\u56fd\u571f\u4ea4\u901a\u7701\u4e5d\u5dde\u5730\u65b9\u6574\u5099\u5c40\u4e0b\u95a2\u6e2f\u6e7e\u7a7a\u6e2f\u6280\u8853\u8abf\u67fb\u4e8b\u52d9\u6240","boring_xml_url":0,"boring_view_url":0,"soilmap_view_url":66,"soiltest_xml_url":0,"soiltest_view_url":66},{"id":126262,"code":"B4KJ201801001-4511","latitude":"33.93822984","longitude":"130.7762262","source_code":"PORT40001060139","project_name":"\u6e2f\u6e7e\u5c40","survey_name":"\u5317\u4e5d\u5dde\u6e2f(\u97ff\u7058\u5730\u533a)\u6cca\u5730(-15m)\u571f\u8cea\u8abf\u67fb","client_name":"\u56fd\u571f\u4ea4\u901a\u7701\u4e5d\u5dde\u5730\u65b9\u6574\u5099\u5c40\u4e0b\u95a2\u6e2f\u6e7e\u7a7a\u6e2f\u6280\u8853\u8abf\u67fb\u4e8b\u52d9\u6240","boring_xml_url":0,"boring_view_url":0,"soilmap_view_url":66,"soiltest_xml_url":0,"soiltest_view_url":66},{"id":126261,"code":"B4KJ201801001-4510","latitude":"33.96905952","longitude":"130.7703925","source_code":"PORT40001060105","project_name":"\u6e2f\u6e7e\u5c40","survey_name":"\u5317\u4e5d\u5dde\u6e2f(\u97ff\u7058\u5730\u533a)\u822a\u8def(-16m)\u571f\u8cea\u8abf\u67fb(\u7b2c2\u6b21)","client_name":"\u56fd\u571f\u4ea4\u901a\u7701\u4e5d\u5dde\u5730\u65b9\u6574\u5099\u5c40\u4e0b\u95a2\u6e2f\u6e7e\u7a7a\u6e2f\u6280\u8853\u8abf\u67fb\u4e8b\u52d9\u6240","boring_xml_url":0,"boring_view_url":0,"soilmap_view_url":66,"soiltest_xml_url":0,"soiltest_view_url":66},{"id":126260,"code":"B4KJ201801001-4509","latitude":"33.96739308","longitude":"130.7720591","source_code":"PORT40001060104","project_name":"\u6e2f\u6e7e\u5c40","survey_name":"\u5317\u4e5d\u5dde\u6e2f(\u97ff\u7058\u5730\u533a)\u822a\u8def(-16m)\u571f\u8cea\u8abf\u67fb(\u7b2c2\u6b21)","client_name":"\u56fd\u571f\u4ea4\u901a\u7701\u4e5d\u5dde\u5730\u65b9\u6574\u5099\u5c40\u4e0b\u95a2\u6e2f\u6e7e\u7a7a\u6e2f\u6280\u8853\u8abf\u67fb\u4e8b\u52d9\u6240","boring_xml_url":0,"boring_view_url":0,"soilmap_view_url":66,"soiltest_xml_url":0,"soiltest_view_url":66},{"id":126259,"code":"B4KJ201801001-4508","latitude":"33.97100377","longitude":"130.7717812","source_code":"PORT40001060103","project_name":"\u6e2f\u6e7e\u5c40","survey_name":"\u5317\u4e5d\u5dde\u6e2f(\u97ff\u7058\u5730\u533a)\u822a\u8def(-16m)\u571f\u8cea\u8abf\u67fb(\u7b2c2\u6b21)","client_name":"\u56fd\u571f\u4ea4\u901a\u7701\u4e5d\u5dde\u5730\u65b9\u6574\u5099\u5c40\u4e0b\u95a2\u6e2f\u6e7e\u7a7a\u6e2f\u6280\u8853\u8abf\u67fb\u4e8b\u52d9\u6240","boring_xml_url":0,"boring_view_url":0,"soilmap_view_url":66,"soiltest_xml_url":0,"soiltest_view_url":66},{"id":126258,"code":"B4KJ201801001-4507","latitude":"33.9785029","longitude":"130.7715033","source_code":"PORT40001060102","project_name":"\u6e2f\u6e7e\u5c40","survey_name":"\u5317\u4e5d\u5dde\u6e2f(\u97ff\u7058\u5730\u533a)\u822a\u8def(-16m)\u571f\u8cea\u8abf\u67fb(\u7b2c2\u6b21)","client_name":"\u56fd\u571f\u4ea4\u901a\u7701\u4e5d\u5dde\u5730\u65b9\u6574\u5099\u5c40\u4e0b\u95a2\u6e2f\u6e7e\u7a7a\u6e2f\u6280\u8853\u8abf\u67fb\u4e8b\u52d9\u6240","boring_xml_url":0,"boring_view_url":0,"soilmap_view_url":66,"soiltest_xml_url":0,"soiltest_view_url":66},{"id":126257,"code":"B4KJ201801001-4506","latitude":"33.98128028","longitude":"130.7676147","source_code":"PORT40001060101","project_name":"\u6e2f\u6e7e\u5c40","survey_name":"\u5317\u4e5d\u5dde\u6e2f(\u97ff\u7058\u5730\u533a)\u822a\u8def(-16m)\u571f\u8cea\u8abf\u67fb(\u7b2c2\u6b21)","client_name":"\u56fd\u571f\u4ea4\u901a\u7701\u4e5d\u5dde\u5730\u65b9\u6574\u5099\u5c40\u4e0b\u95a2\u6e2f\u6e7e\u7a7a\u6e2f\u6280\u8853\u8abf\u67fb\u4e8b\u52d9\u6240","boring_xml_url":0,"boring_view_url":0,"soilmap_view_url":66,"soiltest_xml_url":0,"soiltest_view_url":66},{"id":126256,"code":"B4KJ201801001-4505","latitude":"33.93628532","longitude":"130.7603944","source_code":"PORT40001060100","project_name":"\u6e2f\u6e7e\u5c40","survey_name":"\u5317\u4e5d\u5dde\u6e2f(\u97ff\u7058\u5730\u533a)\u6cca\u5730(-15m)\u571f\u8cea\u8abf\u67fb","client_name":"\u56fd\u571f\u4ea4\u901a\u7701\u4e5d\u5dde\u5730\u65b9\u6574\u5099\u5c40\u4e0b\u95a2\u6e2f\u6e7e\u7a7a\u6e2f\u6280\u8853\u8abf\u67fb\u4e8b\u52d9\u6240","boring_xml_url":0,"boring_view_url":0,"soilmap_view_url":66,"soiltest_xml_url":0,"soiltest_view_url":66},{"id":126255,"code":"B4KJ201801001-4504","latitude":"33.93906278","longitude":"130.7603943","source_code":"PORT40001060099","project_name":"\u6e2f\u6e7e\u5c40","survey_name":"\u5317\u4e5d\u5dde\u6e2f(\u97ff\u7058\u5730\u533a)\u6cca\u5730(-15m)\u571f\u8cea\u8abf\u67fb","client_name":"\u56fd\u571f\u4ea4\u901a\u7701\u4e5d\u5dde\u5730\u65b9\u6574\u5099\u5c40\u4e0b\u95a2\u6e2f\u6e7e\u7a7a\u6e2f\u6280\u8853\u8abf\u67fb\u4e8b\u52d9\u6240","boring_xml_url":0,"boring_view_url":0,"soilmap_view_url":66,"soiltest_xml_url":0,"soiltest_view_url":66},{"id":126254,"code":"B4KJ201801001-4503","latitude":"33.93517438","longitude":"130.7628942","source_code":"PORT40001060098","project_name":"\u6e2f\u6e7e\u5c40","survey_name":"\u5317\u4e5d\u5dde\u6e2f(\u97ff\u7058\u5730\u533a)\u6cca\u5730(-15m)\u571f\u8cea\u8abf\u67fb","client_name":"\u56fd\u571f\u4ea4\u901a\u7701\u4e5d\u5dde\u5730\u65b9\u6574\u5099\u5c40\u4e0b\u95a2\u6e2f\u6e7e\u7a7a\u6e2f\u6280\u8853\u8abf\u67fb\u4e8b\u52d9\u6240","boring_xml_url":0,"boring_view_url":0,"soilmap_view_url":66,"soiltest_xml_url":0,"soiltest_view_url":66},{"id":126253,"code":"B4KJ201801001-4502","latitude":"33.93517448","longitude":"130.767616","source_code":"PORT40001060097","project_name":"\u6e2f\u6e7e\u5c40","survey_name":"\u5317\u4e5d\u5dde\u6e2f(\u97ff\u7058\u5730\u533a)\u6cca\u5730(-15m)\u571f\u8cea\u8abf\u67fb","client_name":"\u56fd\u571f\u4ea4\u901a\u7701\u4e5d\u5dde\u5730\u65b9\u6574\u5099\u5c40\u4e0b\u95a2\u6e2f\u6e7e\u7a7a\u6e2f\u6280\u8853\u8abf\u67fb\u4e8b\u52d9\u6240","boring_xml_url":0,"boring_view_url":0,"soilmap_view_url":66,"soiltest_xml_url":0,"soiltest_view_url":66},{"id":126252,"code":"B4KJ201801001-4501","latitude":"33.93822968","longitude":"130.7676159","source_code":"PORT40001060096","project_name":"\u6e2f\u6e7e\u5c40","survey_name":"\u5317\u4e5d\u5dde\u6e2f(\u97ff\u7058\u5730\u533a)\u6cca\u5730(-15m)\u571f\u8cea\u8abf\u67fb","client_name":"\u56fd\u571f\u4ea4\u901a\u7701\u4e5d\u5dde\u5730\u65b9\u6574\u5099\u5c40\u4e0b\u95a2\u6e2f\u6e7e\u7a7a\u6e2f\u6280\u8853\u8abf\u67fb\u4e8b\u52d9\u6240","boring_xml_url":0,"boring_view_url":0,"soilmap_view_url":66,"soiltest_xml_url":0,"soiltest_view_url":66},{"id":126251,"code":"B4KJ201801001-4500","latitude":"33.93850755","longitude":"130.7740042","source_code":"PORT40001060095","project_name":"\u6e2f\u6e7e\u5c40","survey_name":"\u5317\u4e5d\u5dde\u6e2f(\u97ff\u7058\u5730\u533a)\u6cca\u5730(-15m)\u571f\u8cea\u8abf\u67fb","client_name":"\u56fd\u571f\u4ea4\u901a\u7701\u4e5d\u5dde\u5730\u65b9\u6574\u5099\u5c40\u4e0b\u95a2\u6e2f\u6e7e\u7a7a\u6e2f\u6280\u8853\u8abf\u67fb\u4e8b\u52d9\u6240","boring_xml_url":0,"boring_view_url":0,"soilmap_view_url":66,"soiltest_xml_url":0,"soiltest_view_url":66},{"id":126250,"code":"B4KJ201801001-4499","latitude":"33.94267374","longitude":"130.7740041","source_code":"PORT40001060094","project_name":"\u6e2f\u6e7e\u5c40","survey_name":"\u5317\u4e5d\u5dde\u6e2f(\u97ff\u7058\u5730\u533a)\u6cca\u5730(-15m)\u571f\u8cea\u8abf\u67fb","client_name":"\u56fd\u571f\u4ea4\u901a\u7701\u4e5d\u5dde\u5730\u65b9\u6574\u5099\u5c40\u4e0b\u95a2\u6e2f\u6e7e\u7a7a\u6e2f\u6280\u8853\u8abf\u67fb\u4e8b\u52d9\u6240","boring_xml_url":0,"boring_view_url":0,"soilmap_view_url":66,"soiltest_xml_url":0,"soiltest_view_url":66},{"id":126249,"code":"B4KJ201801001-4498","latitude":"33.95683875","longitude":"130.7728927","source_code":"PORT40001060091","project_name":"\u6e2f\u6e7e\u5c40","survey_name":"\u5317\u4e5d\u5dde\u6e2f(\u97ff\u7058\u5730\u533a)\u822a\u8def(-16m)\u571f\u8cea\u8abf\u67fb","client_name":"\u56fd\u571f\u4ea4\u901a\u7701\u4e5d\u5dde\u5730\u65b9\u6574\u5099\u5c40\u4e0b\u95a2\u6e2f\u6e7e\u7a7a\u6e2f\u6280\u8853\u8abf\u67fb\u4e8b\u52d9\u6240","boring_xml_url":0,"boring_view_url":0,"soilmap_view_url":66,"soiltest_xml_url":0,"soiltest_view_url":66},{"id":126248,"code":"B4KJ201801001-4497","latitude":"33.96100489","longitude":"130.7703928","source_code":"PORT40001060090","project_name":"\u6e2f\u6e7e\u5c40","survey_name":"\u5317\u4e5d\u5dde\u6e2f(\u97ff\u7058\u5730\u533a)\u822a\u8def(-16m)\u571f\u8cea\u8abf\u67fb","client_name":"\u56fd\u571f\u4ea4\u901a\u7701\u4e5d\u5dde\u5730\u65b9\u6574\u5099\u5c40\u4e0b\u95a2\u6e2f\u6e7e\u7a7a\u6e2f\u6280\u8853\u8abf\u67fb\u4e8b\u52d9\u6240","boring_xml_url":0,"boring_view_url":0,"soilmap_view_url":66,"soiltest_xml_url":0,"soiltest_view_url":66},{"id":126247,"code":"B4KJ201801001-4496","latitude":"33.96128268","longitude":"130.7726148","source_code":"PORT40001060089","project_name":"\u6e2f\u6e7e\u5c40","survey_name":"\u5317\u4e5d\u5dde\u6e2f(\u97ff\u7058\u5730\u533a)\u822a\u8def(-16m)\u571f\u8cea\u8abf\u67fb","client_name":"\u56fd\u571f\u4ea4\u901a\u7701\u4e5d\u5dde\u5730\u65b9\u6574\u5099\u5c40\u4e0b\u95a2\u6e2f\u6e7e\u7a7a\u6e2f\u6280\u8853\u8abf\u67fb\u4e8b\u52d9\u6240","boring_xml_url":0,"boring_view_url":0,"soilmap_view_url":66,"soiltest_xml_url":0,"soiltest_view_url":66},{"id":126246,"code":"B4KJ201801001-4495","latitude":"33.96572661","longitude":"130.7723369","source_code":"PORT40001060088","project_name":"\u6e2f\u6e7e\u5c40","survey_name":"\u5317\u4e5d\u5dde\u6e2f(\u97ff\u7058\u5730\u533a)\u822a\u8def(-16m)\u571f\u8cea\u8abf\u67fb","client_name":"\u56fd\u571f\u4ea4\u901a\u7701\u4e5d\u5dde\u5730\u65b9\u6574\u5099\u5c40\u4e0b\u95a2\u6e2f\u6e7e\u7a7a\u6e2f\u6280\u8853\u8abf\u67fb\u4e8b\u52d9\u6240","boring_xml_url":0,"boring_view_url":0,"soilmap_view_url":66,"soiltest_xml_url":0,"soiltest_view_url":66},{"id":126245,"code":"B4KJ201801001-4494","latitude":"33.96905949","longitude":"130.7690038","source_code":"PORT40001060087","project_name":"\u6e2f\u6e7e\u5c40","survey_name":"\u5317\u4e5d\u5dde\u6e2f(\u97ff\u7058\u5730\u533a)\u822a\u8def(-16m)\u571f\u8cea\u8abf\u67fb","client_name":"\u56fd\u571f\u4ea4\u901a\u7701\u4e5d\u5dde\u5730\u65b9\u6574\u5099\u5c40\u4e0b\u95a2\u6e2f\u6e7e\u7a7a\u6e2f\u6280\u8853\u8abf\u67fb\u4e8b\u52d9\u6240","boring_xml_url":0,"boring_view_url":0,"soilmap_view_url":66,"soiltest_xml_url":0,"soiltest_view_url":66},{"id":126244,"code":"B4KJ201801001-4493","latitude":"33.9693373","longitude":"130.772059","source_code":"PORT40001060086","project_name":"\u6e2f\u6e7e\u5c40","survey_name":"\u5317\u4e5d\u5dde\u6e2f(\u97ff\u7058\u5730\u533a)\u822a\u8def(-16m)\u571f\u8cea\u8abf\u67fb","client_name":"\u56fd\u571f\u4ea4\u901a\u7701\u4e5d\u5dde\u5730\u65b9\u6574\u5099\u5c40\u4e0b\u95a2\u6e2f\u6e7e\u7a7a\u6e2f\u6280\u8853\u8abf\u67fb\u4e8b\u52d9\u6240","boring_xml_url":0,"boring_view_url":0,"soilmap_view_url":66,"soiltest_xml_url":0,"soiltest_view_url":66},{"id":126243,"code":"B4KJ201801001-4492","latitude":"33.97267018","longitude":"130.7687259","source_code":"PORT40001060085","project_name":"\u6e2f\u6e7e\u5c40","survey_name":"\u5317\u4e5d\u5dde\u6e2f(\u97ff\u7058\u5730\u533a)\u822a\u8def(-16m)\u571f\u8cea\u8abf\u67fb","client_name":"\u56fd\u571f\u4ea4\u901a\u7701\u4e5d\u5dde\u5730\u65b9\u6574\u5099\u5c40\u4e0b\u95a2\u6e2f\u6e7e\u7a7a\u6e2f\u6280\u8853\u8abf\u67fb\u4e8b\u52d9\u6240","boring_xml_url":0,"boring_view_url":0,"soilmap_view_url":66,"soiltest_xml_url":0,"soiltest_view_url":66},{"id":126242,"code":"B4KJ201801001-4491","latitude":"33.97294798","longitude":"130.7715034","source_code":"PORT40001060084","project_name":"\u6e2f\u6e7e\u5c40","survey_name":"\u5317\u4e5d\u5dde\u6e2f(\u97ff\u7058\u5730\u533a)\u822a\u8def(-16m)\u571f\u8cea\u8abf\u67fb","client_name":"\u56fd\u571f\u4ea4\u901a\u7701\u4e5d\u5dde\u5730\u65b9\u6574\u5099\u5c40\u4e0b\u95a2\u6e2f\u6e7e\u7a7a\u6e2f\u6280\u8853\u8abf\u67fb\u4e8b\u52d9\u6240","boring_xml_url":0,"boring_view_url":0,"soilmap_view_url":66,"soiltest_xml_url":0,"soiltest_view_url":66},{"id":126241,"code":"B4KJ201801001-4490","latitude":"33.97878062","longitude":"130.7701145","source_code":"PORT40001060083","project_name":"\u6e2f\u6e7e\u5c40","survey_name":"\u5317\u4e5d\u5dde\u6e2f(\u97ff\u7058\u5730\u533a)\u822a\u8def(-16m)\u571f\u8cea\u8abf\u67fb","client_name":"\u56fd\u571f\u4ea4\u901a\u7701\u4e5d\u5dde\u5730\u65b9\u6574\u5099\u5c40\u4e0b\u95a2\u6e2f\u6e7e\u7a7a\u6e2f\u6280\u8853\u8abf\u67fb\u4e8b\u52d9\u6240","boring_xml_url":0,"boring_view_url":0,"soilmap_view_url":66,"soiltest_xml_url":0,"soiltest_view_url":66},{"id":126240,"code":"B4KJ201801001-4489","latitude":"33.97739192","longitude":"130.7717811","source_code":"PORT40001060082","project_name":"\u6e2f\u6e7e\u5c40","survey_name":"\u5317\u4e5d\u5dde\u6e2f(\u97ff\u7058\u5730\u533a)\u822a\u8def(-16m)\u571f\u8cea\u8abf\u67fb","client_name":"\u56fd\u571f\u4ea4\u901a\u7701\u4e5d\u5dde\u5730\u65b9\u6574\u5099\u5c40\u4e0b\u95a2\u6e2f\u6e7e\u7a7a\u6e2f\u6280\u8853\u8abf\u67fb\u4e8b\u52d9\u6240","boring_xml_url":0,"boring_view_url":0,"soilmap_view_url":66,"soiltest_xml_url":0,"soiltest_view_url":66},{"id":126239,"code":"B4KJ201801001-4488","latitude":"33.98016937","longitude":"130.7715032","source_code":"PORT40001060081","project_name":"\u6e2f\u6e7e\u5c40","survey_name":"\u5317\u4e5d\u5dde\u6e2f(\u97ff\u7058\u5730\u533a)\u822a\u8def(-16m)\u571f\u8cea\u8abf\u67fb","client_name":"\u56fd\u571f\u4ea4\u901a\u7701\u4e5d\u5dde\u5730\u65b9\u6574\u5099\u5c40\u4e0b\u95a2\u6e2f\u6e7e\u7a7a\u6e2f\u6280\u8853\u8abf\u67fb\u4e8b\u52d9\u6240","boring_xml_url":0,"boring_view_url":0,"soilmap_view_url":66,"soiltest_xml_url":0,"soiltest_view_url":66},{"id":126238,"code":"B4KJ201801001-4487","latitude":"33.98322457","longitude":"130.7712254","source_code":"PORT40001060080","project_name":"\u6e2f\u6e7e\u5c40","survey_name":"\u5317\u4e5d\u5dde\u6e2f(\u97ff\u7058\u5730\u533a)\u822a\u8def(-16m)\u571f\u8cea\u8abf\u67fb","client_name":"\u56fd\u571f\u4ea4\u901a\u7701\u4e5d\u5dde\u5730\u65b9\u6574\u5099\u5c40\u4e0b\u95a2\u6e2f\u6e7e\u7a7a\u6e2f\u6280\u8853\u8abf\u67fb\u4e8b\u52d9\u6240","boring_xml_url":0,"boring_view_url":0,"soilmap_view_url":66,"soiltest_xml_url":0,"soiltest_view_url":66},{"id":126237,"code":"B4KJ201801001-4486","latitude":"33.98544654","longitude":"130.7712253","source_code":"PORT40001060079","project_name":"\u6e2f\u6e7e\u5c40","survey_name":"\u5317\u4e5d\u5dde\u6e2f(\u97ff\u7058\u5730\u533a)\u822a\u8def(-16m)\u571f\u8cea\u8abf\u67fb","client_name":"\u56fd\u571f\u4ea4\u901a\u7701\u4e5d\u5dde\u5730\u65b9\u6574\u5099\u5c40\u4e0b\u95a2\u6e2f\u6e7e\u7a7a\u6e2f\u6280\u8853\u8abf\u67fb\u4e8b\u52d9\u6240","boring_xml_url":0,"boring_view_url":0,"soilmap_view_url":66,"soiltest_xml_url":0,"soiltest_view_url":66},{"id":126236,"code":"B4KJ201801001-4485","latitude":"33.95350566","longitude":"130.7656712","source_code":"PORT40001060063","project_name":"\u6e2f\u6e7e\u5c40","survey_name":"\u5317\u4e5d\u5dde\u6e2f(\u97ff\u7058\u5730\u533a)\u9632\u6ce2\u5824\u571f\u8cea\u8abf\u67fb","client_name":"\u56fd\u571f\u4ea4\u901a\u7701\u4e5d\u5dde\u5730\u65b9\u6574\u5099\u5c40\u4e0b\u95a2\u6e2f\u6e7e\u7a7a\u6e2f\u6280\u8853\u8abf\u67fb\u4e8b\u52d9\u6240","boring_xml_url":0,"boring_view_url":0,"soilmap_view_url":66,"soiltest_xml_url":0,"soiltest_view_url":66}]}}