{"header":{"xyz":{"source":[],"mosaic":false},"page":648,"raw":{"soiltest_result":"0","bbox":"57.598333,109.544722,1.933333,163.806111","page":"648"},"conditions":{"soiltest_result":0,"north":57.598333,"west":109.544722,"south":1.933333,"east":163.806111},"success":true,"message":""},"data":{"meta":{"total":212844,"page":648,"pages":7095,"count":30},"values":[{"id":525978,"code":"B4KJ202201002-8514","latitude":"33.462711","longitude":"132.703283","source_code":"098855402000070005","project_name":"","survey_name":"\u5e73\u621021\u5e74\u5ea6\u898b\u306e\u8d8a\u30c8\u30f3\u30cd\u30eb\u5730\u8cea\u8abf\u67fb\u696d\u52d9","client_name":"\u56fd\u571f\u4ea4\u901a\u7701\u56db\u56fd\u5730\u65b9\u6574\u5099\u5c40\u5c71\u9ce5\u5742\u5de5\u4e8b\u4e8b\u52d9\u6240","boring_xml_url":64,"boring_view_url":1,"soilmap_view_url":null,"soiltest_xml_url":0,"soiltest_view_url":0},{"id":525977,"code":"B4KJ202201002-8513","latitude":"33.462556","longitude":"132.703675","source_code":"098855402000070004","project_name":"","survey_name":"\u5e73\u621021\u5e74\u5ea6\u898b\u306e\u8d8a\u30c8\u30f3\u30cd\u30eb\u5730\u8cea\u8abf\u67fb\u696d\u52d9","client_name":"\u56fd\u571f\u4ea4\u901a\u7701\u56db\u56fd\u5730\u65b9\u6574\u5099\u5c40\u5c71\u9ce5\u5742\u5de5\u4e8b\u4e8b\u52d9\u6240","boring_xml_url":64,"boring_view_url":1,"soilmap_view_url":null,"soiltest_xml_url":0,"soiltest_view_url":0},{"id":525976,"code":"B4KJ202201002-8512","latitude":"33.462228","longitude":"132.704522","source_code":"098855402000070003","project_name":"","survey_name":"\u5e73\u621021\u5e74\u5ea6\u898b\u306e\u8d8a\u30c8\u30f3\u30cd\u30eb\u5730\u8cea\u8abf\u67fb\u696d\u52d9","client_name":"\u56fd\u571f\u4ea4\u901a\u7701\u56db\u56fd\u5730\u65b9\u6574\u5099\u5c40\u5c71\u9ce5\u5742\u5de5\u4e8b\u4e8b\u52d9\u6240","boring_xml_url":64,"boring_view_url":1,"soilmap_view_url":null,"soiltest_xml_url":0,"soiltest_view_url":0},{"id":525975,"code":"B4KJ202201002-8511","latitude":"33.462178","longitude":"132.705706","source_code":"098855402000070002","project_name":"","survey_name":"\u5e73\u621021\u5e74\u5ea6\u898b\u306e\u8d8a\u30c8\u30f3\u30cd\u30eb\u5730\u8cea\u8abf\u67fb\u696d\u52d9","client_name":"\u56fd\u571f\u4ea4\u901a\u7701\u56db\u56fd\u5730\u65b9\u6574\u5099\u5c40\u5c71\u9ce5\u5742\u5de5\u4e8b\u4e8b\u52d9\u6240","boring_xml_url":64,"boring_view_url":1,"soilmap_view_url":null,"soiltest_xml_url":0,"soiltest_view_url":0},{"id":525974,"code":"B4KJ202201002-8510","latitude":"33.462303","longitude":"132.70605","source_code":"098855402000070001","project_name":"","survey_name":"\u5e73\u621021\u5e74\u5ea6\u898b\u306e\u8d8a\u30c8\u30f3\u30cd\u30eb\u5730\u8cea\u8abf\u67fb\u696d\u52d9","client_name":"\u56fd\u571f\u4ea4\u901a\u7701\u56db\u56fd\u5730\u65b9\u6574\u5099\u5c40\u5c71\u9ce5\u5742\u5de5\u4e8b\u4e8b\u52d9\u6240","boring_xml_url":64,"boring_view_url":1,"soilmap_view_url":null,"soiltest_xml_url":0,"soiltest_view_url":0},{"id":525973,"code":"B4KJ202201002-8509","latitude":"33.453789","longitude":"132.698228","source_code":"098855402000060013","project_name":"","survey_name":"\u5e73\u621021\u5e74\u5ea6\u3000\u4e0b\u6577\u6c34\u30c8\u30f3\u30cd\u30eb\u5730\u8cea\u8abf\u67fb\u696d\u52d9","client_name":"\u56fd\u571f\u4ea4\u901a\u7701\u56db\u56fd\u5730\u65b9\u6574\u5099\u5c40\u5c71\u9ce5\u5742\u30c0\u30e0\u5de5\u4e8b\u4e8b\u52d9\u6240","boring_xml_url":64,"boring_view_url":1,"soilmap_view_url":null,"soiltest_xml_url":0,"soiltest_view_url":0},{"id":525972,"code":"B4KJ202201002-8508","latitude":"33.455356","longitude":"132.694442","source_code":"098855402000060012","project_name":"","survey_name":"\u5e73\u621021\u5e74\u5ea6\u3000\u4e0b\u6577\u6c34\u30c8\u30f3\u30cd\u30eb\u5730\u8cea\u8abf\u67fb\u696d\u52d9","client_name":"\u56fd\u571f\u4ea4\u901a\u7701\u56db\u56fd\u5730\u65b9\u6574\u5099\u5c40\u5c71\u9ce5\u5742\u30c0\u30e0\u5de5\u4e8b\u4e8b\u52d9\u6240","boring_xml_url":64,"boring_view_url":1,"soilmap_view_url":null,"soiltest_xml_url":0,"soiltest_view_url":0},{"id":525971,"code":"B4KJ202201002-8507","latitude":"33.463514","longitude":"132.70715","source_code":"098855402000060011","project_name":"","survey_name":"\u5e73\u621021\u5e74\u5ea6\u3000\u4e0b\u6577\u6c34\u30c8\u30f3\u30cd\u30eb\u5730\u8cea\u8abf\u67fb\u696d\u52d9","client_name":"\u56fd\u571f\u4ea4\u901a\u7701\u56db\u56fd\u5730\u65b9\u6574\u5099\u5c40\u5c71\u9ce5\u5742\u30c0\u30e0\u5de5\u4e8b\u4e8b\u52d9\u6240","boring_xml_url":64,"boring_view_url":1,"soilmap_view_url":null,"soiltest_xml_url":0,"soiltest_view_url":0},{"id":525970,"code":"B4KJ202201002-8506","latitude":"33.463903","longitude":"132.707481","source_code":"098855402000060010","project_name":"","survey_name":"\u5e73\u621021\u5e74\u5ea6\u3000\u4e0b\u6577\u6c34\u30c8\u30f3\u30cd\u30eb\u5730\u8cea\u8abf\u67fb\u696d\u52d9","client_name":"\u56fd\u571f\u4ea4\u901a\u7701\u56db\u56fd\u5730\u65b9\u6574\u5099\u5c40\u5c71\u9ce5\u5742\u30c0\u30e0\u5de5\u4e8b\u4e8b\u52d9\u6240","boring_xml_url":64,"boring_view_url":1,"soilmap_view_url":null,"soiltest_xml_url":0,"soiltest_view_url":0},{"id":525969,"code":"B4KJ202201002-8505","latitude":"33.4668","longitude":"132.711394","source_code":"098855402000060009","project_name":"","survey_name":"\u5e73\u621021\u5e74\u5ea6\u3000\u4e0b\u6577\u6c34\u30c8\u30f3\u30cd\u30eb\u5730\u8cea\u8abf\u67fb\u696d\u52d9","client_name":"\u56fd\u571f\u4ea4\u901a\u7701\u56db\u56fd\u5730\u65b9\u6574\u5099\u5c40\u5c71\u9ce5\u5742\u30c0\u30e0\u5de5\u4e8b\u4e8b\u52d9\u6240","boring_xml_url":64,"boring_view_url":1,"soilmap_view_url":null,"soiltest_xml_url":0,"soiltest_view_url":0},{"id":525968,"code":"B4KJ202201002-8504","latitude":"33.453728","longitude":"132.698111","source_code":"098855402000060008","project_name":"","survey_name":"\u5e73\u621021\u5e74\u5ea6\u3000\u4e0b\u6577\u6c34\u30c8\u30f3\u30cd\u30eb\u5730\u8cea\u8abf\u67fb\u696d\u52d9","client_name":"\u56fd\u571f\u4ea4\u901a\u7701\u56db\u56fd\u5730\u65b9\u6574\u5099\u5c40\u5c71\u9ce5\u5742\u30c0\u30e0\u5de5\u4e8b\u4e8b\u52d9\u6240","boring_xml_url":64,"boring_view_url":1,"soilmap_view_url":null,"soiltest_xml_url":0,"soiltest_view_url":0},{"id":525967,"code":"B4KJ202201002-8503","latitude":"33.4534","longitude":"132.698089","source_code":"098855402000060007","project_name":"","survey_name":"\u5e73\u621021\u5e74\u5ea6\u3000\u4e0b\u6577\u6c34\u30c8\u30f3\u30cd\u30eb\u5730\u8cea\u8abf\u67fb\u696d\u52d9","client_name":"\u56fd\u571f\u4ea4\u901a\u7701\u56db\u56fd\u5730\u65b9\u6574\u5099\u5c40\u5c71\u9ce5\u5742\u30c0\u30e0\u5de5\u4e8b\u4e8b\u52d9\u6240","boring_xml_url":64,"boring_view_url":1,"soilmap_view_url":null,"soiltest_xml_url":0,"soiltest_view_url":0},{"id":525966,"code":"B4KJ202201002-8502","latitude":"33.454983","longitude":"132.693872","source_code":"098855402000060006","project_name":"","survey_name":"\u5e73\u621021\u5e74\u5ea6\u3000\u4e0b\u6577\u6c34\u30c8\u30f3\u30cd\u30eb\u5730\u8cea\u8abf\u67fb\u696d\u52d9","client_name":"\u56fd\u571f\u4ea4\u901a\u7701\u56db\u56fd\u5730\u65b9\u6574\u5099\u5c40\u5c71\u9ce5\u5742\u30c0\u30e0\u5de5\u4e8b\u4e8b\u52d9\u6240","boring_xml_url":64,"boring_view_url":1,"soilmap_view_url":null,"soiltest_xml_url":0,"soiltest_view_url":0},{"id":525965,"code":"B4KJ202201002-8501","latitude":"33.629117","longitude":"132.706303","source_code":"098855402000060005","project_name":"","survey_name":"\u5e73\u621021\u5e74\u5ea6\u3000\u4e0b\u6577\u6c34\u30c8\u30f3\u30cd\u30eb\u5730\u8cea\u8abf\u67fb\u696d\u52d9","client_name":"\u56fd\u571f\u4ea4\u901a\u7701\u56db\u56fd\u5730\u65b9\u6574\u5099\u5c40\u5c71\u9ce5\u5742\u30c0\u30e0\u5de5\u4e8b\u4e8b\u52d9\u6240","boring_xml_url":64,"boring_view_url":1,"soilmap_view_url":null,"soiltest_xml_url":0,"soiltest_view_url":0},{"id":525964,"code":"B4KJ202201002-8500","latitude":"33.462431","longitude":"132.706361","source_code":"098855402000060004","project_name":"","survey_name":"\u5e73\u621021\u5e74\u5ea6\u3000\u4e0b\u6577\u6c34\u30c8\u30f3\u30cd\u30eb\u5730\u8cea\u8abf\u67fb\u696d\u52d9","client_name":"\u56fd\u571f\u4ea4\u901a\u7701\u56db\u56fd\u5730\u65b9\u6574\u5099\u5c40\u5c71\u9ce5\u5742\u30c0\u30e0\u5de5\u4e8b\u4e8b\u52d9\u6240","boring_xml_url":64,"boring_view_url":1,"soilmap_view_url":null,"soiltest_xml_url":0,"soiltest_view_url":0},{"id":525963,"code":"B4KJ202201002-8499","latitude":"33.462514","longitude":"132.706536","source_code":"098855402000060003","project_name":"","survey_name":"\u5e73\u621021\u5e74\u5ea6\u3000\u4e0b\u6577\u6c34\u30c8\u30f3\u30cd\u30eb\u5730\u8cea\u8abf\u67fb\u696d\u52d9","client_name":"\u56fd\u571f\u4ea4\u901a\u7701\u56db\u56fd\u5730\u65b9\u6574\u5099\u5c40\u5c71\u9ce5\u5742\u30c0\u30e0\u5de5\u4e8b\u4e8b\u52d9\u6240","boring_xml_url":64,"boring_view_url":1,"soilmap_view_url":null,"soiltest_xml_url":0,"soiltest_view_url":0},{"id":525962,"code":"B4KJ202201002-8498","latitude":"33.46705","longitude":"132.711897","source_code":"098855402000060002","project_name":"","survey_name":"\u5e73\u621021\u5e74\u5ea6\u3000\u4e0b\u6577\u6c34\u30c8\u30f3\u30cd\u30eb\u5730\u8cea\u8abf\u67fb\u696d\u52d9","client_name":"\u56fd\u571f\u4ea4\u901a\u7701\u56db\u56fd\u5730\u65b9\u6574\u5099\u5c40\u5c71\u9ce5\u5742\u30c0\u30e0\u5de5\u4e8b\u4e8b\u52d9\u6240","boring_xml_url":64,"boring_view_url":1,"soilmap_view_url":null,"soiltest_xml_url":0,"soiltest_view_url":0},{"id":525961,"code":"B4KJ202201002-8497","latitude":"33.467472","longitude":"132.713128","source_code":"098855402000060001","project_name":"","survey_name":"\u5e73\u621021\u5e74\u5ea6\u3000\u4e0b\u6577\u6c34\u30c8\u30f3\u30cd\u30eb\u5730\u8cea\u8abf\u67fb\u696d\u52d9","client_name":"\u56fd\u571f\u4ea4\u901a\u7701\u56db\u56fd\u5730\u65b9\u6574\u5099\u5c40\u5c71\u9ce5\u5742\u30c0\u30e0\u5de5\u4e8b\u4e8b\u52d9\u6240","boring_xml_url":64,"boring_view_url":1,"soilmap_view_url":null,"soiltest_xml_url":0,"soiltest_view_url":0},{"id":525960,"code":"B4KJ202201002-8496","latitude":"33.518175","longitude":"132.664828","source_code":"098851622000220003","project_name":"","survey_name":"\"\u5e73\u621021\u5e74\u5ea6 \u5824\u9632\u5824\u4f53\u95a2\u9023\u8abf\u67fb\u696d\u52d9\"","client_name":"\u56fd\u571f\u4ea4\u901a\u7701\u56db\u56fd\u5730\u65b9\u6574\u5099\u5c40\u5927\u6d32\u6cb3\u5ddd\u56fd\u9053\u4e8b\u52d9\u6240\u8abf\u67fb\u8ab2","boring_xml_url":64,"boring_view_url":1,"soilmap_view_url":null,"soiltest_xml_url":0,"soiltest_view_url":0},{"id":525959,"code":"B4KJ202201002-8495","latitude":"33.518214","longitude":"132.664864","source_code":"098851622000220002","project_name":"","survey_name":"\"\u5e73\u621021\u5e74\u5ea6 \u5824\u9632\u5824\u4f53\u95a2\u9023\u8abf\u67fb\u696d\u52d9\"","client_name":"\u56fd\u571f\u4ea4\u901a\u7701\u56db\u56fd\u5730\u65b9\u6574\u5099\u5c40\u5927\u6d32\u6cb3\u5ddd\u56fd\u9053\u4e8b\u52d9\u6240\u8abf\u67fb\u8ab2","boring_xml_url":64,"boring_view_url":1,"soilmap_view_url":null,"soiltest_xml_url":0,"soiltest_view_url":0},{"id":525958,"code":"B4KJ202201002-8494","latitude":"33.518253","longitude":"132.6649","source_code":"098851622000220001","project_name":"","survey_name":"\"\u5e73\u621021\u5e74\u5ea6 \u5824\u9632\u5824\u4f53\u95a2\u9023\u8abf\u67fb\u696d\u52d9\"","client_name":"\u56fd\u571f\u4ea4\u901a\u7701\u56db\u56fd\u5730\u65b9\u6574\u5099\u5c40\u5927\u6d32\u6cb3\u5ddd\u56fd\u9053\u4e8b\u52d9\u6240\u8abf\u67fb\u8ab2","boring_xml_url":64,"boring_view_url":1,"soilmap_view_url":null,"soiltest_xml_url":0,"soiltest_view_url":0},{"id":525957,"code":"B4KJ202201002-8493","latitude":"33.535359","longitude":"132.607161","source_code":"098851622000190018","project_name":"\u5e73\u621021\u5e74\u5ea6\u3000\u80b1\u5ddd\u30fb\u77e2\u843d\u5ddd\u5824\u9632\u5f37\u5316\u5bfe\u7b56\u691c\u8a0e\u696d\u52d9\u59d4\u8a17","survey_name":"\u5e73\u621021\u5e74\u5ea6\u3000\u80b1\u5ddd\u30fb\u77e2\u843d\u5ddd\u5824\u9632\u5f37\u5316\u5bfe\u7b56\u691c\u8a0e\u696d\u52d9\u59d4\u8a17","client_name":"\u56fd\u571f\u4ea4\u901a\u7701\u56db\u56fd\u5730\u65b9\u6574\u5099\u5c40\u3000\u5927\u6d32\u6cb3\u5ddd\u56fd\u9053\u4e8b\u52d9\u6240","boring_xml_url":64,"boring_view_url":1,"soilmap_view_url":null,"soiltest_xml_url":0,"soiltest_view_url":0},{"id":525956,"code":"B4KJ202201002-8492","latitude":"33.535413","longitude":"132.60715","source_code":"098851622000190017","project_name":"\u5e73\u621021\u5e74\u5ea6\u3000\u80b1\u5ddd\u30fb\u77e2\u843d\u5ddd\u5824\u9632\u5f37\u5316\u5bfe\u7b56\u691c\u8a0e\u696d\u52d9\u59d4\u8a17","survey_name":"\u5e73\u621021\u5e74\u5ea6\u3000\u80b1\u5ddd\u30fb\u77e2\u843d\u5ddd\u5824\u9632\u5f37\u5316\u5bfe\u7b56\u691c\u8a0e\u696d\u52d9\u59d4\u8a17","client_name":"\u56fd\u571f\u4ea4\u901a\u7701\u56db\u56fd\u5730\u65b9\u6574\u5099\u5c40\u3000\u5927\u6d32\u6cb3\u5ddd\u56fd\u9053\u4e8b\u52d9\u6240","boring_xml_url":64,"boring_view_url":1,"soilmap_view_url":null,"soiltest_xml_url":0,"soiltest_view_url":0},{"id":525955,"code":"B4KJ202201002-8491","latitude":"33.535441","longitude":"132.607144","source_code":"098851622000190016","project_name":"\u5e73\u621021\u5e74\u5ea6\u3000\u80b1\u5ddd\u30fb\u77e2\u843d\u5ddd\u5824\u9632\u5f37\u5316\u5bfe\u7b56\u691c\u8a0e\u696d\u52d9\u59d4\u8a17","survey_name":"\u5e73\u621021\u5e74\u5ea6\u3000\u80b1\u5ddd\u30fb\u77e2\u843d\u5ddd\u5824\u9632\u5f37\u5316\u5bfe\u7b56\u691c\u8a0e\u696d\u52d9\u59d4\u8a17","client_name":"\u56fd\u571f\u4ea4\u901a\u7701\u56db\u56fd\u5730\u65b9\u6574\u5099\u5c40\u3000\u5927\u6d32\u6cb3\u5ddd\u56fd\u9053\u4e8b\u52d9\u6240","boring_xml_url":64,"boring_view_url":1,"soilmap_view_url":null,"soiltest_xml_url":0,"soiltest_view_url":0},{"id":525954,"code":"B4KJ202201002-8490","latitude":"33.535648","longitude":"132.598595","source_code":"098851622000190015","project_name":"\u5e73\u621021\u5e74\u5ea6\u3000\u80b1\u5ddd\u30fb\u77e2\u843d\u5ddd\u5824\u9632\u5f37\u5316\u5bfe\u7b56\u691c\u8a0e\u696d\u52d9\u59d4\u8a17","survey_name":"\u5e73\u621021\u5e74\u5ea6\u3000\u80b1\u5ddd\u30fb\u77e2\u843d\u5ddd\u5824\u9632\u5f37\u5316\u5bfe\u7b56\u691c\u8a0e\u696d\u52d9\u59d4\u8a17","client_name":"\u56fd\u571f\u4ea4\u901a\u7701\u56db\u56fd\u5730\u65b9\u6574\u5099\u5c40\u3000\u5927\u6d32\u6cb3\u5ddd\u56fd\u9053\u4e8b\u52d9\u6240","boring_xml_url":64,"boring_view_url":1,"soilmap_view_url":null,"soiltest_xml_url":0,"soiltest_view_url":0},{"id":525953,"code":"B4KJ202201002-8489","latitude":"33.535716","longitude":"132.598561","source_code":"098851622000190014","project_name":"\u5e73\u621021\u5e74\u5ea6\u3000\u80b1\u5ddd\u30fb\u77e2\u843d\u5ddd\u5824\u9632\u5f37\u5316\u5bfe\u7b56\u691c\u8a0e\u696d\u52d9\u59d4\u8a17","survey_name":"\u5e73\u621021\u5e74\u5ea6\u3000\u80b1\u5ddd\u30fb\u77e2\u843d\u5ddd\u5824\u9632\u5f37\u5316\u5bfe\u7b56\u691c\u8a0e\u696d\u52d9\u59d4\u8a17","client_name":"\u56fd\u571f\u4ea4\u901a\u7701\u56db\u56fd\u5730\u65b9\u6574\u5099\u5c40\u3000\u5927\u6d32\u6cb3\u5ddd\u56fd\u9053\u4e8b\u52d9\u6240","boring_xml_url":64,"boring_view_url":1,"soilmap_view_url":null,"soiltest_xml_url":0,"soiltest_view_url":0},{"id":525952,"code":"B4KJ202201002-8488","latitude":"33.535737","longitude":"132.598551","source_code":"098851622000190013","project_name":"\u5e73\u621021\u5e74\u5ea6\u3000\u80b1\u5ddd\u30fb\u77e2\u843d\u5ddd\u5824\u9632\u5f37\u5316\u5bfe\u7b56\u691c\u8a0e\u696d\u52d9\u59d4\u8a17","survey_name":"\u5e73\u621021\u5e74\u5ea6\u3000\u80b1\u5ddd\u30fb\u77e2\u843d\u5ddd\u5824\u9632\u5f37\u5316\u5bfe\u7b56\u691c\u8a0e\u696d\u52d9\u59d4\u8a17","client_name":"\u56fd\u571f\u4ea4\u901a\u7701\u56db\u56fd\u5730\u65b9\u6574\u5099\u5c40\u3000\u5927\u6d32\u6cb3\u5ddd\u56fd\u9053\u4e8b\u52d9\u6240","boring_xml_url":64,"boring_view_url":1,"soilmap_view_url":null,"soiltest_xml_url":0,"soiltest_view_url":0},{"id":525951,"code":"B4KJ202201002-8487","latitude":"33.536695","longitude":"132.59557","source_code":"098851622000190012","project_name":"\u5e73\u621021\u5e74\u5ea6\u3000\u80b1\u5ddd\u30fb\u77e2\u843d\u5ddd\u5824\u9632\u5f37\u5316\u5bfe\u7b56\u691c\u8a0e\u696d\u52d9\u59d4\u8a17","survey_name":"\u5e73\u621021\u5e74\u5ea6\u3000\u80b1\u5ddd\u30fb\u77e2\u843d\u5ddd\u5824\u9632\u5f37\u5316\u5bfe\u7b56\u691c\u8a0e\u696d\u52d9\u59d4\u8a17","client_name":"\u56fd\u571f\u4ea4\u901a\u7701\u56db\u56fd\u5730\u65b9\u6574\u5099\u5c40\u3000\u5927\u6d32\u6cb3\u5ddd\u56fd\u9053\u4e8b\u52d9\u6240","boring_xml_url":64,"boring_view_url":1,"soilmap_view_url":null,"soiltest_xml_url":0,"soiltest_view_url":0},{"id":525950,"code":"B4KJ202201002-8486","latitude":"33.536767","longitude":"132.595579","source_code":"098851622000190011","project_name":"\u5e73\u621021\u5e74\u5ea6\u3000\u80b1\u5ddd\u30fb\u77e2\u843d\u5ddd\u5824\u9632\u5f37\u5316\u5bfe\u7b56\u691c\u8a0e\u696d\u52d9\u59d4\u8a17","survey_name":"\u5e73\u621021\u5e74\u5ea6\u3000\u80b1\u5ddd\u30fb\u77e2\u843d\u5ddd\u5824\u9632\u5f37\u5316\u5bfe\u7b56\u691c\u8a0e\u696d\u52d9\u59d4\u8a17","client_name":"\u56fd\u571f\u4ea4\u901a\u7701\u56db\u56fd\u5730\u65b9\u6574\u5099\u5c40\u3000\u5927\u6d32\u6cb3\u5ddd\u56fd\u9053\u4e8b\u52d9\u6240","boring_xml_url":64,"boring_view_url":1,"soilmap_view_url":null,"soiltest_xml_url":0,"soiltest_view_url":0},{"id":525949,"code":"B4KJ202201002-8485","latitude":"33.536794","longitude":"132.595582","source_code":"098851622000190010","project_name":"\u5e73\u621021\u5e74\u5ea6\u3000\u80b1\u5ddd\u30fb\u77e2\u843d\u5ddd\u5824\u9632\u5f37\u5316\u5bfe\u7b56\u691c\u8a0e\u696d\u52d9\u59d4\u8a17","survey_name":"\u5e73\u621021\u5e74\u5ea6\u3000\u80b1\u5ddd\u30fb\u77e2\u843d\u5ddd\u5824\u9632\u5f37\u5316\u5bfe\u7b56\u691c\u8a0e\u696d\u52d9\u59d4\u8a17","client_name":"\u56fd\u571f\u4ea4\u901a\u7701\u56db\u56fd\u5730\u65b9\u6574\u5099\u5c40\u3000\u5927\u6d32\u6cb3\u5ddd\u56fd\u9053\u4e8b\u52d9\u6240","boring_xml_url":64,"boring_view_url":1,"soilmap_view_url":null,"soiltest_xml_url":0,"soiltest_view_url":0}]}}