{"header":{"xyz":{"source":[],"mosaic":false},"page":6481,"raw":{"soiltest_result":"0","bbox":"57.598333,109.544722,1.933333,163.806111","page":"6481"},"conditions":{"soiltest_result":0,"north":57.598333,"west":109.544722,"south":1.933333,"east":163.806111},"success":true,"message":""},"data":{"meta":{"total":212844,"page":6481,"pages":7095,"count":30},"values":[{"id":126145,"code":"B4KJ201801001-4394","latitude":"33.93466499","longitude":"130.8614957","source_code":"PORT40001050207","project_name":"\u6e2f\u6e7e\u5c40","survey_name":"\u5317\u4e5d\u5dde\u6e2f(\u6d1e\u6d77)\u8abf\u67fb","client_name":"\u56fd\u571f\u4ea4\u901a\u7701\u4e5d\u5dde\u5730\u65b9\u6574\u5099\u5c40\u4e0b\u95a2\u6e2f\u6e7e\u7a7a\u6e2f\u6280\u8853\u8abf\u67fb\u4e8b\u52d9\u6240","boring_xml_url":0,"boring_view_url":0,"soilmap_view_url":66,"soiltest_xml_url":0,"soiltest_view_url":66},{"id":126144,"code":"B4KJ201801001-4393","latitude":"33.93321945","longitude":"130.858902","source_code":"PORT40001050206","project_name":"\u6e2f\u6e7e\u5c40","survey_name":"\u5317\u4e5d\u5dde\u6e2f(\u6d1e\u6d77)\u8abf\u67fb","client_name":"\u56fd\u571f\u4ea4\u901a\u7701\u4e5d\u5dde\u5730\u65b9\u6574\u5099\u5c40\u4e0b\u95a2\u6e2f\u6e7e\u7a7a\u6e2f\u6280\u8853\u8abf\u67fb\u4e8b\u52d9\u6240","boring_xml_url":0,"boring_view_url":0,"soilmap_view_url":66,"soiltest_xml_url":0,"soiltest_view_url":66},{"id":126143,"code":"B4KJ201801001-4392","latitude":"33.92704324","longitude":"130.8270125","source_code":"PORT40001050204","project_name":"\u6e2f\u6e7e\u5c40","survey_name":"\u5317\u4e5d\u5dde\u6e2f(\u6d1e\u6d77)\u8abf\u67fb","client_name":"\u56fd\u571f\u4ea4\u901a\u7701\u4e5d\u5dde\u5730\u65b9\u6574\u5099\u5c40\u4e0b\u95a2\u6e2f\u6e7e\u7a7a\u6e2f\u6280\u8853\u8abf\u67fb\u4e8b\u52d9\u6240","boring_xml_url":0,"boring_view_url":0,"soilmap_view_url":66,"soiltest_xml_url":0,"soiltest_view_url":66},{"id":126142,"code":"B4KJ201801001-4391","latitude":"33.92474451","longitude":"130.8241109","source_code":"PORT40001050203","project_name":"\u6e2f\u6e7e\u5c40","survey_name":"\u5317\u4e5d\u5dde\u6e2f(\u6d1e\u6d77)\u8abf\u67fb","client_name":"\u56fd\u571f\u4ea4\u901a\u7701\u4e5d\u5dde\u5730\u65b9\u6574\u5099\u5c40\u4e0b\u95a2\u6e2f\u6e7e\u7a7a\u6e2f\u6280\u8853\u8abf\u67fb\u4e8b\u52d9\u6240","boring_xml_url":0,"boring_view_url":0,"soilmap_view_url":66,"soiltest_xml_url":0,"soiltest_view_url":66},{"id":126141,"code":"B4KJ201801001-4390","latitude":"33.92499833","longitude":"130.8238054","source_code":"PORT40001050202","project_name":"\u6e2f\u6e7e\u5c40","survey_name":"\u5317\u4e5d\u5dde\u6e2f(\u6d1e\u6d77)\u8abf\u67fb","client_name":"\u56fd\u571f\u4ea4\u901a\u7701\u4e5d\u5dde\u5730\u65b9\u6574\u5099\u5c40\u4e0b\u95a2\u6e2f\u6e7e\u7a7a\u6e2f\u6280\u8853\u8abf\u67fb\u4e8b\u52d9\u6240","boring_xml_url":0,"boring_view_url":0,"soilmap_view_url":66,"soiltest_xml_url":0,"soiltest_view_url":66},{"id":126140,"code":"B4KJ201801001-4389","latitude":"33.92774588","longitude":"130.8278525","source_code":"PORT40001050201","project_name":"\u6e2f\u6e7e\u5c40","survey_name":"\u5317\u4e5d\u5dde\u6e2f(\u6d1e\u6d77)\u8abf\u67fb","client_name":"\u56fd\u571f\u4ea4\u901a\u7701\u4e5d\u5dde\u5730\u65b9\u6574\u5099\u5c40\u4e0b\u95a2\u6e2f\u6e7e\u7a7a\u6e2f\u6280\u8853\u8abf\u67fb\u4e8b\u52d9\u6240","boring_xml_url":0,"boring_view_url":0,"soilmap_view_url":66,"soiltest_xml_url":0,"soiltest_view_url":66},{"id":126139,"code":"B4KJ201801001-4388","latitude":"33.92576619","longitude":"130.8254857","source_code":"PORT40001050200","project_name":"\u6e2f\u6e7e\u5c40","survey_name":"\u5317\u4e5d\u5dde\u6e2f(\u6d1e\u6d77)\u8abf\u67fb","client_name":"\u56fd\u571f\u4ea4\u901a\u7701\u4e5d\u5dde\u5730\u65b9\u6574\u5099\u5c40\u4e0b\u95a2\u6e2f\u6e7e\u7a7a\u6e2f\u6280\u8853\u8abf\u67fb\u4e8b\u52d9\u6240","boring_xml_url":0,"boring_view_url":0,"soilmap_view_url":66,"soiltest_xml_url":0,"soiltest_view_url":66},{"id":126138,"code":"B4KJ201801001-4387","latitude":"33.92813666","longitude":"130.828769","source_code":"PORT40001050199","project_name":"\u6e2f\u6e7e\u5c40","survey_name":"\u5317\u4e5d\u5dde\u6e2f(\u6d1e\u6d77)\u8abf\u67fb","client_name":"\u56fd\u571f\u4ea4\u901a\u7701\u4e5d\u5dde\u5730\u65b9\u6574\u5099\u5c40\u4e0b\u95a2\u6e2f\u6e7e\u7a7a\u6e2f\u6280\u8853\u8abf\u67fb\u4e8b\u52d9\u6240","boring_xml_url":0,"boring_view_url":0,"soilmap_view_url":66,"soiltest_xml_url":0,"soiltest_view_url":66},{"id":126137,"code":"B4KJ201801001-4386","latitude":"33.92806495","longitude":"130.8277762","source_code":"PORT40001050198","project_name":"\u6e2f\u6e7e\u5c40","survey_name":"\u5317\u4e5d\u5dde\u6e2f(\u6d1e\u6d77)\u8abf\u67fb","client_name":"\u56fd\u571f\u4ea4\u901a\u7701\u4e5d\u5dde\u5730\u65b9\u6574\u5099\u5c40\u4e0b\u95a2\u6e2f\u6e7e\u7a7a\u6e2f\u6280\u8853\u8abf\u67fb\u4e8b\u52d9\u6240","boring_xml_url":0,"boring_view_url":0,"soilmap_view_url":66,"soiltest_xml_url":0,"soiltest_view_url":66},{"id":126136,"code":"B4KJ201801001-4385","latitude":"33.92697826","longitude":"130.8263247","source_code":"PORT40001050197","project_name":"\u6e2f\u6e7e\u5c40","survey_name":"\u5317\u4e5d\u5dde\u6e2f(\u6d1e\u6d77)\u8abf\u67fb","client_name":"\u56fd\u571f\u4ea4\u901a\u7701\u4e5d\u5dde\u5730\u65b9\u6574\u5099\u5c40\u4e0b\u95a2\u6e2f\u6e7e\u7a7a\u6e2f\u6280\u8853\u8abf\u67fb\u4e8b\u52d9\u6240","boring_xml_url":0,"boring_view_url":0,"soilmap_view_url":66,"soiltest_xml_url":0,"soiltest_view_url":66},{"id":126135,"code":"B4KJ201801001-4384","latitude":"33.9259568","longitude":"130.8251035","source_code":"PORT40001050196","project_name":"\u6e2f\u6e7e\u5c40","survey_name":"\u5317\u4e5d\u5dde\u6e2f(\u6d1e\u6d77)\u8abf\u67fb","client_name":"\u56fd\u571f\u4ea4\u901a\u7701\u4e5d\u5dde\u5730\u65b9\u6574\u5099\u5c40\u4e0b\u95a2\u6e2f\u6e7e\u7a7a\u6e2f\u6280\u8853\u8abf\u67fb\u4e8b\u52d9\u6240","boring_xml_url":0,"boring_view_url":0,"soilmap_view_url":66,"soiltest_xml_url":0,"soiltest_view_url":66},{"id":126134,"code":"B4KJ201801001-4383","latitude":"33.93164731","longitude":"130.8247328","source_code":"PORT40001050195","project_name":"\u6e2f\u6e7e\u5c40","survey_name":"\u5317\u4e5d\u5dde\u6e2f(\u6d1e\u6d77)\u8abf\u67fb(\u7b2c3\u6b21)","client_name":"\u56fd\u571f\u4ea4\u901a\u7701\u4e5d\u5dde\u5730\u65b9\u6574\u5099\u5c40\u4e0b\u95a2\u6e2f\u6e7e\u7a7a\u6e2f\u6280\u8853\u8abf\u67fb\u4e8b\u52d9\u6240","boring_xml_url":0,"boring_view_url":0,"soilmap_view_url":66,"soiltest_xml_url":0,"soiltest_view_url":66},{"id":126133,"code":"B4KJ201801001-4382","latitude":"33.93160662","longitude":"130.8246485","source_code":"PORT40001050194","project_name":"\u6e2f\u6e7e\u5c40","survey_name":"\u5317\u4e5d\u5dde\u6e2f(\u6d1e\u6d77)\u8abf\u67fb(\u7b2c3\u6b21)","client_name":"\u56fd\u571f\u4ea4\u901a\u7701\u4e5d\u5dde\u5730\u65b9\u6574\u5099\u5c40\u4e0b\u95a2\u6e2f\u6e7e\u7a7a\u6e2f\u6280\u8853\u8abf\u67fb\u4e8b\u52d9\u6240","boring_xml_url":0,"boring_view_url":0,"soilmap_view_url":66,"soiltest_xml_url":0,"soiltest_view_url":66},{"id":126132,"code":"B4KJ201801001-4381","latitude":"33.93165218","longitude":"130.8249902","source_code":"PORT40001050193","project_name":"\u6e2f\u6e7e\u5c40","survey_name":"\u5317\u4e5d\u5dde\u6e2f(\u6d1e\u6d77)\u571f\u8cea\u8abf\u67fb","client_name":"\u56fd\u571f\u4ea4\u901a\u7701\u4e5d\u5dde\u5730\u65b9\u6574\u5099\u5c40\u4e0b\u95a2\u6e2f\u6e7e\u7a7a\u6e2f\u6280\u8853\u8abf\u67fb\u4e8b\u52d9\u6240","boring_xml_url":0,"boring_view_url":0,"soilmap_view_url":66,"soiltest_xml_url":0,"soiltest_view_url":66},{"id":126131,"code":"B4KJ201801001-4380","latitude":"33.93174088","longitude":"130.825228","source_code":"PORT40001050192","project_name":"\u6e2f\u6e7e\u5c40","survey_name":"\u5317\u4e5d\u5dde\u6e2f(\u6d1e\u6d77)\u571f\u8cea\u8abf\u67fb","client_name":"\u56fd\u571f\u4ea4\u901a\u7701\u4e5d\u5dde\u5730\u65b9\u6574\u5099\u5c40\u4e0b\u95a2\u6e2f\u6e7e\u7a7a\u6e2f\u6280\u8853\u8abf\u67fb\u4e8b\u52d9\u6240","boring_xml_url":0,"boring_view_url":0,"soilmap_view_url":66,"soiltest_xml_url":0,"soiltest_view_url":66},{"id":126130,"code":"B4KJ201801001-4379","latitude":"33.93193275","longitude":"130.8257414","source_code":"PORT40001050191","project_name":"\u6e2f\u6e7e\u5c40","survey_name":"\u5317\u4e5d\u5dde\u6e2f(\u6d1e\u6d77)\u571f\u8cea\u8abf\u67fb","client_name":"\u56fd\u571f\u4ea4\u901a\u7701\u4e5d\u5dde\u5730\u65b9\u6574\u5099\u5c40\u4e0b\u95a2\u6e2f\u6e7e\u7a7a\u6e2f\u6280\u8853\u8abf\u67fb\u4e8b\u52d9\u6240","boring_xml_url":0,"boring_view_url":0,"soilmap_view_url":66,"soiltest_xml_url":0,"soiltest_view_url":66},{"id":126129,"code":"B4KJ201801001-4378","latitude":"33.93202778","longitude":"130.8259975","source_code":"PORT40001050190","project_name":"\u6e2f\u6e7e\u5c40","survey_name":"\u5317\u4e5d\u5dde\u6e2f(\u6d1e\u6d77)\u571f\u8cea\u8abf\u67fb","client_name":"\u56fd\u571f\u4ea4\u901a\u7701\u4e5d\u5dde\u5730\u65b9\u6574\u5099\u5c40\u4e0b\u95a2\u6e2f\u6e7e\u7a7a\u6e2f\u6280\u8853\u8abf\u67fb\u4e8b\u52d9\u6240","boring_xml_url":0,"boring_view_url":0,"soilmap_view_url":66,"soiltest_xml_url":0,"soiltest_view_url":66},{"id":126128,"code":"B4KJ201801001-4377","latitude":"33.93223776","longitude":"130.8265607","source_code":"PORT40001050189","project_name":"\u6e2f\u6e7e\u5c40","survey_name":"\u5317\u4e5d\u5dde\u6e2f(\u6d1e\u6d77)\u571f\u8cea\u8abf\u67fb","client_name":"\u56fd\u571f\u4ea4\u901a\u7701\u4e5d\u5dde\u5730\u65b9\u6574\u5099\u5c40\u4e0b\u95a2\u6e2f\u6e7e\u7a7a\u6e2f\u6280\u8853\u8abf\u67fb\u4e8b\u52d9\u6240","boring_xml_url":0,"boring_view_url":0,"soilmap_view_url":66,"soiltest_xml_url":0,"soiltest_view_url":66},{"id":126127,"code":"B4KJ201801001-4376","latitude":"33.93235541","longitude":"130.8268763","source_code":"PORT40001050188","project_name":"\u6e2f\u6e7e\u5c40","survey_name":"\u5317\u4e5d\u5dde\u6e2f(\u6d1e\u6d77)\u571f\u8cea\u8abf\u67fb","client_name":"\u56fd\u571f\u4ea4\u901a\u7701\u4e5d\u5dde\u5730\u65b9\u6574\u5099\u5c40\u4e0b\u95a2\u6e2f\u6e7e\u7a7a\u6e2f\u6280\u8853\u8abf\u67fb\u4e8b\u52d9\u6240","boring_xml_url":0,"boring_view_url":0,"soilmap_view_url":66,"soiltest_xml_url":0,"soiltest_view_url":66},{"id":126126,"code":"B4KJ201801001-4375","latitude":"33.92910757","longitude":"130.8359534","source_code":"PORT40001050183","project_name":"\u6e2f\u6e7e\u5c40","survey_name":"\u5317\u4e5d\u5dde\u6e2f(\u6d1e\u6d77)\u571f\u8cea\u8abf\u67fb","client_name":"\u56fd\u571f\u4ea4\u901a\u7701\u4e5d\u5dde\u5730\u65b9\u6574\u5099\u5c40\u4e0b\u95a2\u6e2f\u6e7e\u7a7a\u6e2f\u6280\u8853\u8abf\u67fb\u4e8b\u52d9\u6240","boring_xml_url":0,"boring_view_url":0,"soilmap_view_url":66,"soiltest_xml_url":0,"soiltest_view_url":66},{"id":126125,"code":"B4KJ201801001-4374","latitude":"33.92911774","longitude":"130.8354699","source_code":"PORT40001050182","project_name":"\u6e2f\u6e7e\u5c40","survey_name":"\u5317\u4e5d\u5dde\u6e2f(\u6d1e\u6d77)\u571f\u8cea\u8abf\u67fb","client_name":"\u56fd\u571f\u4ea4\u901a\u7701\u4e5d\u5dde\u5730\u65b9\u6574\u5099\u5c40\u4e0b\u95a2\u6e2f\u6e7e\u7a7a\u6e2f\u6280\u8853\u8abf\u67fb\u4e8b\u52d9\u6240","boring_xml_url":0,"boring_view_url":0,"soilmap_view_url":66,"soiltest_xml_url":0,"soiltest_view_url":66},{"id":126124,"code":"B4KJ201801001-4373","latitude":"33.92892685","longitude":"130.8349802","source_code":"PORT40001050181","project_name":"\u6e2f\u6e7e\u5c40","survey_name":"\u5317\u4e5d\u5dde\u6e2f(\u6d1e\u6d77)\u571f\u8cea\u8abf\u67fb","client_name":"\u56fd\u571f\u4ea4\u901a\u7701\u4e5d\u5dde\u5730\u65b9\u6574\u5099\u5c40\u4e0b\u95a2\u6e2f\u6e7e\u7a7a\u6e2f\u6280\u8853\u8abf\u67fb\u4e8b\u52d9\u6240","boring_xml_url":0,"boring_view_url":0,"soilmap_view_url":66,"soiltest_xml_url":0,"soiltest_view_url":66},{"id":126123,"code":"B4KJ201801001-4372","latitude":"33.92857288","longitude":"130.8345818","source_code":"PORT40001050180","project_name":"\u6e2f\u6e7e\u5c40","survey_name":"\u5317\u4e5d\u5dde\u6e2f(\u6d1e\u6d77)\u571f\u8cea\u8abf\u67fb","client_name":"\u56fd\u571f\u4ea4\u901a\u7701\u4e5d\u5dde\u5730\u65b9\u6574\u5099\u5c40\u4e0b\u95a2\u6e2f\u6e7e\u7a7a\u6e2f\u6280\u8853\u8abf\u67fb\u4e8b\u52d9\u6240","boring_xml_url":0,"boring_view_url":0,"soilmap_view_url":66,"soiltest_xml_url":0,"soiltest_view_url":66},{"id":126122,"code":"B4KJ201801001-4371","latitude":"33.92854504","longitude":"130.834","source_code":"PORT40001050179","project_name":"\u6e2f\u6e7e\u5c40","survey_name":"\u5317\u4e5d\u5dde\u6e2f(\u6d1e\u6d77)\u571f\u8cea\u8abf\u67fb","client_name":"\u56fd\u571f\u4ea4\u901a\u7701\u4e5d\u5dde\u5730\u65b9\u6574\u5099\u5c40\u4e0b\u95a2\u6e2f\u6e7e\u7a7a\u6e2f\u6280\u8853\u8abf\u67fb\u4e8b\u52d9\u6240","boring_xml_url":0,"boring_view_url":0,"soilmap_view_url":66,"soiltest_xml_url":0,"soiltest_view_url":66},{"id":126121,"code":"B4KJ201801001-4370","latitude":"33.92702006","longitude":"130.830438","source_code":"PORT40001050178","project_name":"\u6e2f\u6e7e\u5c40","survey_name":"\u5317\u4e5d\u5dde\u6e2f(\u6d1e\u6d77)\u571f\u8cea\u8abf\u67fb","client_name":"\u56fd\u571f\u4ea4\u901a\u7701\u4e5d\u5dde\u5730\u65b9\u6574\u5099\u5c40\u4e0b\u95a2\u6e2f\u6e7e\u7a7a\u6e2f\u6280\u8853\u8abf\u67fb\u4e8b\u52d9\u6240","boring_xml_url":0,"boring_view_url":0,"soilmap_view_url":66,"soiltest_xml_url":0,"soiltest_view_url":66},{"id":126120,"code":"B4KJ201801001-4369","latitude":"33.92751016","longitude":"130.8301623","source_code":"PORT40001050177","project_name":"\u6e2f\u6e7e\u5c40","survey_name":"\u5317\u4e5d\u5dde\u6e2f(\u6d1e\u6d77)\u571f\u8cea\u8abf\u67fb","client_name":"\u56fd\u571f\u4ea4\u901a\u7701\u4e5d\u5dde\u5730\u65b9\u6574\u5099\u5c40\u4e0b\u95a2\u6e2f\u6e7e\u7a7a\u6e2f\u6280\u8853\u8abf\u67fb\u4e8b\u52d9\u6240","boring_xml_url":0,"boring_view_url":0,"soilmap_view_url":66,"soiltest_xml_url":0,"soiltest_view_url":66},{"id":126119,"code":"B4KJ201801001-4368","latitude":"33.92791828","longitude":"130.8299332","source_code":"PORT40001050176","project_name":"\u6e2f\u6e7e\u5c40","survey_name":"\u5317\u4e5d\u5dde\u6e2f(\u6d1e\u6d77)\u571f\u8cea\u8abf\u67fb","client_name":"\u56fd\u571f\u4ea4\u901a\u7701\u4e5d\u5dde\u5730\u65b9\u6574\u5099\u5c40\u4e0b\u95a2\u6e2f\u6e7e\u7a7a\u6e2f\u6280\u8853\u8abf\u67fb\u4e8b\u52d9\u6240","boring_xml_url":0,"boring_view_url":0,"soilmap_view_url":66,"soiltest_xml_url":0,"soiltest_view_url":66},{"id":126118,"code":"B4KJ201801001-4367","latitude":"33.92743778","longitude":"130.8299764","source_code":"PORT40001050175","project_name":"\u6e2f\u6e7e\u5c40","survey_name":"\u5317\u4e5d\u5dde\u6e2f(\u6d1e\u6d77)\u571f\u8cea\u8abf\u67fb","client_name":"\u56fd\u571f\u4ea4\u901a\u7701\u4e5d\u5dde\u5730\u65b9\u6574\u5099\u5c40\u4e0b\u95a2\u6e2f\u6e7e\u7a7a\u6e2f\u6280\u8853\u8abf\u67fb\u4e8b\u52d9\u6240","boring_xml_url":0,"boring_view_url":0,"soilmap_view_url":66,"soiltest_xml_url":0,"soiltest_view_url":66},{"id":126117,"code":"B4KJ201801001-4366","latitude":"33.92687166","longitude":"130.8300554","source_code":"PORT40001050174","project_name":"\u6e2f\u6e7e\u5c40","survey_name":"\u5317\u4e5d\u5dde\u6e2f(\u6d1e\u6d77)\u571f\u8cea\u8abf\u67fb","client_name":"\u56fd\u571f\u4ea4\u901a\u7701\u4e5d\u5dde\u5730\u65b9\u6574\u5099\u5c40\u4e0b\u95a2\u6e2f\u6e7e\u7a7a\u6e2f\u6280\u8853\u8abf\u67fb\u4e8b\u52d9\u6240","boring_xml_url":0,"boring_view_url":0,"soilmap_view_url":66,"soiltest_xml_url":0,"soiltest_view_url":66},{"id":126116,"code":"B4KJ201801001-4365","latitude":"33.92711581","longitude":"130.8299186","source_code":"PORT40001050173","project_name":"\u6e2f\u6e7e\u5c40","survey_name":"\u5317\u4e5d\u5dde\u6e2f(\u6d1e\u6d77)\u571f\u8cea\u8abf\u67fb","client_name":"\u56fd\u571f\u4ea4\u901a\u7701\u4e5d\u5dde\u5730\u65b9\u6574\u5099\u5c40\u4e0b\u95a2\u6e2f\u6e7e\u7a7a\u6e2f\u6280\u8853\u8abf\u67fb\u4e8b\u52d9\u6240","boring_xml_url":0,"boring_view_url":0,"soilmap_view_url":66,"soiltest_xml_url":0,"soiltest_view_url":66}]}}