{"header":{"xyz":{"source":[],"mosaic":false},"page":649,"raw":{"soiltest_result":"0","bbox":"57.598333,109.544722,1.933333,163.806111","page":"649"},"conditions":{"soiltest_result":0,"north":57.598333,"west":109.544722,"south":1.933333,"east":163.806111},"success":true,"message":""},"data":{"meta":{"total":212844,"page":649,"pages":7095,"count":30},"values":[{"id":525948,"code":"B4KJ202201002-8484","latitude":"33.536646","longitude":"132.589601","source_code":"098851622000190009","project_name":"\u5e73\u621021\u5e74\u5ea6\u3000\u80b1\u5ddd\u30fb\u77e2\u843d\u5ddd\u5824\u9632\u5f37\u5316\u5bfe\u7b56\u691c\u8a0e\u696d\u52d9\u59d4\u8a17","survey_name":"\u5e73\u621021\u5e74\u5ea6\u3000\u80b1\u5ddd\u30fb\u77e2\u843d\u5ddd\u5824\u9632\u5f37\u5316\u5bfe\u7b56\u691c\u8a0e\u696d\u52d9\u59d4\u8a17","client_name":"\u56fd\u571f\u4ea4\u901a\u7701\u56db\u56fd\u5730\u65b9\u6574\u5099\u5c40\u3000\u5927\u6d32\u6cb3\u5ddd\u56fd\u9053\u4e8b\u52d9\u6240","boring_xml_url":64,"boring_view_url":1,"soilmap_view_url":null,"soiltest_xml_url":0,"soiltest_view_url":0},{"id":525947,"code":"B4KJ202201002-8483","latitude":"33.536732","longitude":"132.589606","source_code":"098851622000190008","project_name":"\u5e73\u621021\u5e74\u5ea6\u3000\u80b1\u5ddd\u30fb\u77e2\u843d\u5ddd\u5824\u9632\u5f37\u5316\u5bfe\u7b56\u691c\u8a0e\u696d\u52d9\u59d4\u8a17","survey_name":"\u5e73\u621021\u5e74\u5ea6\u3000\u80b1\u5ddd\u30fb\u77e2\u843d\u5ddd\u5824\u9632\u5f37\u5316\u5bfe\u7b56\u691c\u8a0e\u696d\u52d9\u59d4\u8a17","client_name":"\u56fd\u571f\u4ea4\u901a\u7701\u56db\u56fd\u5730\u65b9\u6574\u5099\u5c40\u3000\u5927\u6d32\u6cb3\u5ddd\u56fd\u9053\u4e8b\u52d9\u6240","boring_xml_url":64,"boring_view_url":1,"soilmap_view_url":null,"soiltest_xml_url":0,"soiltest_view_url":0},{"id":525946,"code":"B4KJ202201002-8482","latitude":"33.536827","longitude":"132.589611","source_code":"098851622000190007","project_name":"\u5e73\u621021\u5e74\u5ea6\u3000\u80b1\u5ddd\u30fb\u77e2\u843d\u5ddd\u5824\u9632\u5f37\u5316\u5bfe\u7b56\u691c\u8a0e\u696d\u52d9\u59d4\u8a17","survey_name":"\u5e73\u621021\u5e74\u5ea6\u3000\u80b1\u5ddd\u30fb\u77e2\u843d\u5ddd\u5824\u9632\u5f37\u5316\u5bfe\u7b56\u691c\u8a0e\u696d\u52d9\u59d4\u8a17","client_name":"\u56fd\u571f\u4ea4\u901a\u7701\u56db\u56fd\u5730\u65b9\u6574\u5099\u5c40\u3000\u5927\u6d32\u6cb3\u5ddd\u56fd\u9053\u4e8b\u52d9\u6240","boring_xml_url":64,"boring_view_url":1,"soilmap_view_url":null,"soiltest_xml_url":0,"soiltest_view_url":0},{"id":525945,"code":"B4KJ202201002-8481","latitude":"33.536646","longitude":"132.5896","source_code":"098851622000190006","project_name":"\u5e73\u621021\u5e74\u5ea6\u3000\u80b1\u5ddd\u30fb\u77e2\u843d\u5ddd\u5824\u9632\u5f37\u5316\u5bfe\u7b56\u691c\u8a0e\u696d\u52d9\u59d4\u8a17","survey_name":"\u5e73\u621021\u5e74\u5ea6\u3000\u80b1\u5ddd\u30fb\u77e2\u843d\u5ddd\u5824\u9632\u5f37\u5316\u5bfe\u7b56\u691c\u8a0e\u696d\u52d9\u59d4\u8a17","client_name":"\u56fd\u571f\u4ea4\u901a\u7701\u56db\u56fd\u5730\u65b9\u6574\u5099\u5c40\u3000\u5927\u6d32\u6cb3\u5ddd\u56fd\u9053\u4e8b\u52d9\u6240","boring_xml_url":64,"boring_view_url":1,"soilmap_view_url":null,"soiltest_xml_url":0,"soiltest_view_url":0},{"id":525944,"code":"B4KJ202201002-8480","latitude":"33.536455","longitude":"132.58178","source_code":"098851622000190005","project_name":"\u5e73\u621021\u5e74\u5ea6\u3000\u80b1\u5ddd\u30fb\u77e2\u843d\u5ddd\u5824\u9632\u5f37\u5316\u5bfe\u7b56\u691c\u8a0e\u696d\u52d9\u59d4\u8a17","survey_name":"\u5e73\u621021\u5e74\u5ea6\u3000\u80b1\u5ddd\u30fb\u77e2\u843d\u5ddd\u5824\u9632\u5f37\u5316\u5bfe\u7b56\u691c\u8a0e\u696d\u52d9\u59d4\u8a17","client_name":"\u56fd\u571f\u4ea4\u901a\u7701\u56db\u56fd\u5730\u65b9\u6574\u5099\u5c40\u3000\u5927\u6d32\u6cb3\u5ddd\u56fd\u9053\u4e8b\u52d9\u6240","boring_xml_url":64,"boring_view_url":1,"soilmap_view_url":null,"soiltest_xml_url":0,"soiltest_view_url":0},{"id":525943,"code":"B4KJ202201002-8479","latitude":"33.536527","longitude":"132.581776","source_code":"098851622000190004","project_name":"\u5e73\u621021\u5e74\u5ea6\u3000\u80b1\u5ddd\u30fb\u77e2\u843d\u5ddd\u5824\u9632\u5f37\u5316\u5bfe\u7b56\u691c\u8a0e\u696d\u52d9\u59d4\u8a17","survey_name":"\u5e73\u621021\u5e74\u5ea6\u3000\u80b1\u5ddd\u30fb\u77e2\u843d\u5ddd\u5824\u9632\u5f37\u5316\u5bfe\u7b56\u691c\u8a0e\u696d\u52d9\u59d4\u8a17","client_name":"\u56fd\u571f\u4ea4\u901a\u7701\u56db\u56fd\u5730\u65b9\u6574\u5099\u5c40\u3000\u5927\u6d32\u6cb3\u5ddd\u56fd\u9053\u4e8b\u52d9\u6240","boring_xml_url":64,"boring_view_url":1,"soilmap_view_url":null,"soiltest_xml_url":0,"soiltest_view_url":0},{"id":525942,"code":"B4KJ202201002-8478","latitude":"33.526862","longitude":"132.554542","source_code":"098851622000190003","project_name":"\u5e73\u621021\u5e74\u5ea6\u3000\u80b1\u5ddd\u30fb\u77e2\u843d\u5ddd\u5824\u9632\u5f37\u5316\u5bfe\u7b56\u691c\u8a0e\u696d\u52d9\u59d4\u8a17","survey_name":"\u5e73\u621021\u5e74\u5ea6\u3000\u80b1\u5ddd\u30fb\u77e2\u843d\u5ddd\u5824\u9632\u5f37\u5316\u5bfe\u7b56\u691c\u8a0e\u696d\u52d9\u59d4\u8a17","client_name":"\u56fd\u571f\u4ea4\u901a\u7701\u56db\u56fd\u5730\u65b9\u6574\u5099\u5c40\u3000\u5927\u6d32\u6cb3\u5ddd\u56fd\u9053\u4e8b\u52d9\u6240","boring_xml_url":64,"boring_view_url":1,"soilmap_view_url":null,"soiltest_xml_url":0,"soiltest_view_url":0},{"id":525941,"code":"B4KJ202201002-8477","latitude":"33.526964","longitude":"132.554507","source_code":"098851622000190002","project_name":"\u5e73\u621021\u5e74\u5ea6\u3000\u80b1\u5ddd\u30fb\u77e2\u843d\u5ddd\u5824\u9632\u5f37\u5316\u5bfe\u7b56\u691c\u8a0e\u696d\u52d9\u59d4\u8a17","survey_name":"\u5e73\u621021\u5e74\u5ea6\u3000\u80b1\u5ddd\u30fb\u77e2\u843d\u5ddd\u5824\u9632\u5f37\u5316\u5bfe\u7b56\u691c\u8a0e\u696d\u52d9\u59d4\u8a17","client_name":"\u56fd\u571f\u4ea4\u901a\u7701\u56db\u56fd\u5730\u65b9\u6574\u5099\u5c40\u3000\u5927\u6d32\u6cb3\u5ddd\u56fd\u9053\u4e8b\u52d9\u6240","boring_xml_url":64,"boring_view_url":1,"soilmap_view_url":null,"soiltest_xml_url":0,"soiltest_view_url":0},{"id":525940,"code":"B4KJ202201002-8476","latitude":"33.526964","longitude":"132.554464","source_code":"098851622000190001","project_name":"\u5e73\u621021\u5e74\u5ea6\u3000\u80b1\u5ddd\u30fb\u77e2\u843d\u5ddd\u5824\u9632\u5f37\u5316\u5bfe\u7b56\u691c\u8a0e\u696d\u52d9\u59d4\u8a17","survey_name":"\u5e73\u621021\u5e74\u5ea6\u3000\u80b1\u5ddd\u30fb\u77e2\u843d\u5ddd\u5824\u9632\u5f37\u5316\u5bfe\u7b56\u691c\u8a0e\u696d\u52d9\u59d4\u8a17","client_name":"\u56fd\u571f\u4ea4\u901a\u7701\u56db\u56fd\u5730\u65b9\u6574\u5099\u5c40\u3000\u5927\u6d32\u6cb3\u5ddd\u56fd\u9053\u4e8b\u52d9\u6240","boring_xml_url":64,"boring_view_url":1,"soilmap_view_url":null,"soiltest_xml_url":0,"soiltest_view_url":0},{"id":525939,"code":"B4KJ202201002-8475","latitude":"33.591086","longitude":"132.509611","source_code":"098851622000090007","project_name":"\u5e73\u621021\u5e74\u5ea6\u3000\u52a0\u4e16\u5c0f\u9577\u6d5c\u5730\u533a\u5824\u9632\u8a73\u7d30\u8a2d\u8a08\u696d\u52d9\u59d4\u8a17","survey_name":"\u5e73\u621021\u5e74\u5ea6\u3000\u52a0\u4e16\u5c0f\u9577\u6d5c\u5730\u533a\u5824\u9632\u8a73\u7d30\u8a2d\u8a08\u696d\u52d9\u59d4\u8a17","client_name":"\u56fd\u571f\u4ea4\u901a\u7701\u56db\u56fd\u5730\u65b9\u6574\u5099\u5c40\u5927\u6d32\u6cb3\u5ddd\u56fd\u9053\u4e8b\u52d9\u6240","boring_xml_url":64,"boring_view_url":1,"soilmap_view_url":null,"soiltest_xml_url":0,"soiltest_view_url":0},{"id":525938,"code":"B4KJ202201002-8474","latitude":"33.586333","longitude":"132.515847","source_code":"098851622000090006","project_name":"\u5e73\u621021\u5e74\u5ea6\u3000\u52a0\u4e16\u5c0f\u9577\u6d5c\u5730\u533a\u5824\u9632\u8a73\u7d30\u8a2d\u8a08\u696d\u52d9\u59d4\u8a17","survey_name":"\u5e73\u621021\u5e74\u5ea6\u3000\u52a0\u4e16\u5c0f\u9577\u6d5c\u5730\u533a\u5824\u9632\u8a73\u7d30\u8a2d\u8a08\u696d\u52d9\u59d4\u8a17","client_name":"\u56fd\u571f\u4ea4\u901a\u7701\u56db\u56fd\u5730\u65b9\u6574\u5099\u5c40\u5927\u6d32\u6cb3\u5ddd\u56fd\u9053\u4e8b\u52d9\u6240","boring_xml_url":64,"boring_view_url":1,"soilmap_view_url":null,"soiltest_xml_url":0,"soiltest_view_url":0},{"id":525937,"code":"B4KJ202201002-8473","latitude":"33.587647","longitude":"132.514406","source_code":"098851622000090005","project_name":"\u5e73\u621021\u5e74\u5ea6\u3000\u52a0\u4e16\u5c0f\u9577\u6d5c\u5730\u533a\u5824\u9632\u8a73\u7d30\u8a2d\u8a08\u696d\u52d9\u59d4\u8a17","survey_name":"\u5e73\u621021\u5e74\u5ea6\u3000\u52a0\u4e16\u5c0f\u9577\u6d5c\u5730\u533a\u5824\u9632\u8a73\u7d30\u8a2d\u8a08\u696d\u52d9\u59d4\u8a17","client_name":"\u56fd\u571f\u4ea4\u901a\u7701\u56db\u56fd\u5730\u65b9\u6574\u5099\u5c40\u5927\u6d32\u6cb3\u5ddd\u56fd\u9053\u4e8b\u52d9\u6240","boring_xml_url":64,"boring_view_url":1,"soilmap_view_url":null,"soiltest_xml_url":0,"soiltest_view_url":0},{"id":525936,"code":"B4KJ202201002-8472","latitude":"33.587981","longitude":"132.512717","source_code":"098851622000090004","project_name":"\u5e73\u621021\u5e74\u5ea6\u3000\u52a0\u4e16\u5c0f\u9577\u6d5c\u5730\u533a\u5824\u9632\u8a73\u7d30\u8a2d\u8a08\u696d\u52d9\u59d4\u8a17","survey_name":"\u5e73\u621021\u5e74\u5ea6\u3000\u52a0\u4e16\u5c0f\u9577\u6d5c\u5730\u533a\u5824\u9632\u8a73\u7d30\u8a2d\u8a08\u696d\u52d9\u59d4\u8a17","client_name":"\u56fd\u571f\u4ea4\u901a\u7701\u56db\u56fd\u5730\u65b9\u6574\u5099\u5c40\u5927\u6d32\u6cb3\u5ddd\u56fd\u9053\u4e8b\u52d9\u6240","boring_xml_url":64,"boring_view_url":1,"soilmap_view_url":null,"soiltest_xml_url":0,"soiltest_view_url":0},{"id":525935,"code":"B4KJ202201002-8471","latitude":"33.589086","longitude":"132.510931","source_code":"098851622000090003","project_name":"\u5e73\u621021\u5e74\u5ea6\u3000\u52a0\u4e16\u5c0f\u9577\u6d5c\u5730\u533a\u5824\u9632\u8a73\u7d30\u8a2d\u8a08\u696d\u52d9\u59d4\u8a17","survey_name":"\u5e73\u621021\u5e74\u5ea6\u3000\u52a0\u4e16\u5c0f\u9577\u6d5c\u5730\u533a\u5824\u9632\u8a73\u7d30\u8a2d\u8a08\u696d\u52d9\u59d4\u8a17","client_name":"\u56fd\u571f\u4ea4\u901a\u7701\u56db\u56fd\u5730\u65b9\u6574\u5099\u5c40\u5927\u6d32\u6cb3\u5ddd\u56fd\u9053\u4e8b\u52d9\u6240","boring_xml_url":64,"boring_view_url":1,"soilmap_view_url":null,"soiltest_xml_url":0,"soiltest_view_url":0},{"id":525934,"code":"B4KJ202201002-8470","latitude":"33.59005","longitude":"132.510075","source_code":"098851622000090002","project_name":"\u5e73\u621021\u5e74\u5ea6\u3000\u52a0\u4e16\u5c0f\u9577\u6d5c\u5730\u533a\u5824\u9632\u8a73\u7d30\u8a2d\u8a08\u696d\u52d9\u59d4\u8a17","survey_name":"\u5e73\u621021\u5e74\u5ea6\u3000\u52a0\u4e16\u5c0f\u9577\u6d5c\u5730\u533a\u5824\u9632\u8a73\u7d30\u8a2d\u8a08\u696d\u52d9\u59d4\u8a17","client_name":"\u56fd\u571f\u4ea4\u901a\u7701\u56db\u56fd\u5730\u65b9\u6574\u5099\u5c40\u5927\u6d32\u6cb3\u5ddd\u56fd\u9053\u4e8b\u52d9\u6240","boring_xml_url":64,"boring_view_url":1,"soilmap_view_url":null,"soiltest_xml_url":0,"soiltest_view_url":0},{"id":525933,"code":"B4KJ202201002-8469","latitude":"33.591847","longitude":"132.508531","source_code":"098851622000090001","project_name":"\u5e73\u621021\u5e74\u5ea6\u3000\u52a0\u4e16\u5c0f\u9577\u6d5c\u5730\u533a\u5824\u9632\u8a73\u7d30\u8a2d\u8a08\u696d\u52d9\u59d4\u8a17","survey_name":"\u5e73\u621021\u5e74\u5ea6\u3000\u52a0\u4e16\u5c0f\u9577\u6d5c\u5730\u533a\u5824\u9632\u8a73\u7d30\u8a2d\u8a08\u696d\u52d9\u59d4\u8a17","client_name":"\u56fd\u571f\u4ea4\u901a\u7701\u56db\u56fd\u5730\u65b9\u6574\u5099\u5c40\u5927\u6d32\u6cb3\u5ddd\u56fd\u9053\u4e8b\u52d9\u6240","boring_xml_url":64,"boring_view_url":1,"soilmap_view_url":null,"soiltest_xml_url":0,"soiltest_view_url":0},{"id":525932,"code":"B4KJ202201002-8468","latitude":"33.194369","longitude":"132.54511","source_code":"098851452000130004","project_name":"","survey_name":"\u5e73\u621021\u5e74\u5ea6\u3000\u80b1\u5ddd\u6a4b\u67b6\u66ff\u5730\u8cea\u8abf\u67fb\u696d\u52d9","client_name":"\u56fd\u571f\u4ea4\u901a\u7701\u56db\u56fd\u5730\u65b9\u6574\u5099\u5c40\u5927\u6d32\u6cb3\u5ddd\u56fd\u9053\u4e8b\u52d9\u6240","boring_xml_url":64,"boring_view_url":1,"soilmap_view_url":null,"soiltest_xml_url":0,"soiltest_view_url":0},{"id":525931,"code":"B4KJ202201002-8467","latitude":"33.508969","longitude":"132.545461","source_code":"098851452000130003","project_name":"","survey_name":"\u5e73\u621021\u5e74\u5ea6\u3000\u80b1\u5ddd\u6a4b\u67b6\u66ff\u5730\u8cea\u8abf\u67fb\u696d\u52d9","client_name":"\u56fd\u571f\u4ea4\u901a\u7701\u56db\u56fd\u5730\u65b9\u6574\u5099\u5c40\u5927\u6d32\u6cb3\u5ddd\u56fd\u9053\u4e8b\u52d9\u6240","boring_xml_url":64,"boring_view_url":1,"soilmap_view_url":null,"soiltest_xml_url":0,"soiltest_view_url":0},{"id":525930,"code":"B4KJ202201002-8466","latitude":"33.508626","longitude":"132.545428","source_code":"098851452000130002","project_name":"","survey_name":"\u5e73\u621021\u5e74\u5ea6\u3000\u80b1\u5ddd\u6a4b\u67b6\u66ff\u5730\u8cea\u8abf\u67fb\u696d\u52d9","client_name":"\u56fd\u571f\u4ea4\u901a\u7701\u56db\u56fd\u5730\u65b9\u6574\u5099\u5c40\u5927\u6d32\u6cb3\u5ddd\u56fd\u9053\u4e8b\u52d9\u6240","boring_xml_url":64,"boring_view_url":1,"soilmap_view_url":null,"soiltest_xml_url":0,"soiltest_view_url":0},{"id":525929,"code":"B4KJ202201002-8465","latitude":"33.508346","longitude":"132.545404","source_code":"098851452000130001","project_name":"","survey_name":"\u5e73\u621021\u5e74\u5ea6\u3000\u80b1\u5ddd\u6a4b\u67b6\u66ff\u5730\u8cea\u8abf\u67fb\u696d\u52d9","client_name":"\u56fd\u571f\u4ea4\u901a\u7701\u56db\u56fd\u5730\u65b9\u6574\u5099\u5c40\u5927\u6d32\u6cb3\u5ddd\u56fd\u9053\u4e8b\u52d9\u6240","boring_xml_url":64,"boring_view_url":1,"soilmap_view_url":null,"soiltest_xml_url":0,"soiltest_view_url":0},{"id":525928,"code":"B4KJ202201002-8464","latitude":"33.136944","longitude":"132.516419","source_code":"098851412000150002","project_name":"","survey_name":"\u5e73\u621021\u5e74\u5ea6\u3000\u56db\u56fd\u6a2a\u65ad\u81ea\u52d5\u8eca\u9053\u59161\u4ef6\u6c34\u6587\u8abf\u67fb\u696d\u52d9","client_name":"\u56fd\u571f\u4ea4\u901a\u7701\u3000\u56db\u56fd\u5730\u65b9\u6574\u5099\u5c40\u3000\u5927\u6d32\u6cb3\u5ddd\u56fd\u9053\u4e8b\u52d9\u6240","boring_xml_url":64,"boring_view_url":1,"soilmap_view_url":null,"soiltest_xml_url":0,"soiltest_view_url":0},{"id":525927,"code":"B4KJ202201002-8463","latitude":"33.136944","longitude":"132.516183","source_code":"098851412000150001","project_name":"","survey_name":"\u5e73\u621021\u5e74\u5ea6\u3000\u56db\u56fd\u6a2a\u65ad\u81ea\u52d5\u8eca\u9053\u59161\u4ef6\u6c34\u6587\u8abf\u67fb\u696d\u52d9","client_name":"\u56fd\u571f\u4ea4\u901a\u7701\u3000\u56db\u56fd\u5730\u65b9\u6574\u5099\u5c40\u3000\u5927\u6d32\u6cb3\u5ddd\u56fd\u9053\u4e8b\u52d9\u6240","boring_xml_url":64,"boring_view_url":1,"soilmap_view_url":null,"soiltest_xml_url":0,"soiltest_view_url":0},{"id":525926,"code":"B4KJ202201002-8462","latitude":"33.830894","longitude":"132.709502","source_code":"098850622000180007","project_name":"\u5e73\u621021\u5e74\u5ea6\u3000\u677e\u5c71\u5916\u74b0\u72b6\u9053\u8def\u7a7a\u6e2f\u7dda\u3000\u5357\u5409\u7530\u5916\u5730\u8cea\u8abf\u67fb\u696d\u52d9","survey_name":"\u5e73\u621021\u5e74\u5ea6\u3000\u677e\u5c71\u5916\u74b0\u72b6\u9053\u8def\u7a7a\u6e2f\u7dda\u3000\u5357\u5409\u7530\u5916\u5730\u8cea\u8abf\u67fb\u696d\u52d9","client_name":"\u56fd\u571f\u4ea4\u901a\u7701\u56db\u56fd\u5730\u65b9\u6574\u5099\u5c40\u3000\u677e\u5c71\u6cb3\u5ddd\u56fd\u9053\u4e8b\u52d9\u6240","boring_xml_url":64,"boring_view_url":1,"soilmap_view_url":null,"soiltest_xml_url":0,"soiltest_view_url":0},{"id":525925,"code":"B4KJ202201002-8461","latitude":"33.828584","longitude":"132.710249","source_code":"098850622000180006","project_name":"\u5e73\u621021\u5e74\u5ea6\u3000\u677e\u5c71\u5916\u74b0\u72b6\u9053\u8def\u7a7a\u6e2f\u7dda\u3000\u5357\u5409\u7530\u5916\u5730\u8cea\u8abf\u67fb\u696d\u52d9","survey_name":"\u5e73\u621021\u5e74\u5ea6\u3000\u677e\u5c71\u5916\u74b0\u72b6\u9053\u8def\u7a7a\u6e2f\u7dda\u3000\u5357\u5409\u7530\u5916\u5730\u8cea\u8abf\u67fb\u696d\u52d9","client_name":"\u56fd\u571f\u4ea4\u901a\u7701\u56db\u56fd\u5730\u65b9\u6574\u5099\u5c40\u3000\u677e\u5c71\u6cb3\u5ddd\u56fd\u9053\u4e8b\u52d9\u6240","boring_xml_url":64,"boring_view_url":1,"soilmap_view_url":null,"soiltest_xml_url":0,"soiltest_view_url":0},{"id":525924,"code":"B4KJ202201002-8460","latitude":"33.826392","longitude":"132.713046","source_code":"098850622000180005","project_name":"\u5e73\u621021\u5e74\u5ea6\u3000\u677e\u5c71\u5916\u74b0\u72b6\u9053\u8def\u7a7a\u6e2f\u7dda\u3000\u5357\u5409\u7530\u5916\u5730\u8cea\u8abf\u67fb\u696d\u52d9","survey_name":"\u5e73\u621021\u5e74\u5ea6\u3000\u677e\u5c71\u5916\u74b0\u72b6\u9053\u8def\u7a7a\u6e2f\u7dda\u3000\u5357\u5409\u7530\u5916\u5730\u8cea\u8abf\u67fb\u696d\u52d9","client_name":"\u56fd\u571f\u4ea4\u901a\u7701\u56db\u56fd\u5730\u65b9\u6574\u5099\u5c40\u3000\u677e\u5c71\u6cb3\u5ddd\u56fd\u9053\u4e8b\u52d9\u6240","boring_xml_url":64,"boring_view_url":1,"soilmap_view_url":null,"soiltest_xml_url":0,"soiltest_view_url":0},{"id":525923,"code":"B4KJ202201002-8459","latitude":"33.825183","longitude":"132.713368","source_code":"098850622000180004","project_name":"\u5e73\u621021\u5e74\u5ea6\u3000\u677e\u5c71\u5916\u74b0\u72b6\u9053\u8def\u7a7a\u6e2f\u7dda\u3000\u5357\u5409\u7530\u5916\u5730\u8cea\u8abf\u67fb\u696d\u52d9","survey_name":"\u5e73\u621021\u5e74\u5ea6\u3000\u677e\u5c71\u5916\u74b0\u72b6\u9053\u8def\u7a7a\u6e2f\u7dda\u3000\u5357\u5409\u7530\u5916\u5730\u8cea\u8abf\u67fb\u696d\u52d9","client_name":"\u56fd\u571f\u4ea4\u901a\u7701\u56db\u56fd\u5730\u65b9\u6574\u5099\u5c40\u3000\u677e\u5c71\u6cb3\u5ddd\u56fd\u9053\u4e8b\u52d9\u6240","boring_xml_url":64,"boring_view_url":1,"soilmap_view_url":null,"soiltest_xml_url":0,"soiltest_view_url":0},{"id":525922,"code":"B4KJ202201002-8458","latitude":"33.823233","longitude":"132.713355","source_code":"098850622000180003","project_name":"\u5e73\u621021\u5e74\u5ea6\u3000\u677e\u5c71\u5916\u74b0\u72b6\u9053\u8def\u7a7a\u6e2f\u7dda\u3000\u5357\u5409\u7530\u5916\u5730\u8cea\u8abf\u67fb\u696d\u52d9","survey_name":"\u5e73\u621021\u5e74\u5ea6\u3000\u677e\u5c71\u5916\u74b0\u72b6\u9053\u8def\u7a7a\u6e2f\u7dda\u3000\u5357\u5409\u7530\u5916\u5730\u8cea\u8abf\u67fb\u696d\u52d9","client_name":"\u56fd\u571f\u4ea4\u901a\u7701\u56db\u56fd\u5730\u65b9\u6574\u5099\u5c40\u3000\u677e\u5c71\u6cb3\u5ddd\u56fd\u9053\u4e8b\u52d9\u6240","boring_xml_url":64,"boring_view_url":1,"soilmap_view_url":null,"soiltest_xml_url":0,"soiltest_view_url":0},{"id":525921,"code":"B4KJ202201002-8457","latitude":"33.821329","longitude":"132.713834","source_code":"098850622000180002","project_name":"\u5e73\u621021\u5e74\u5ea6\u3000\u677e\u5c71\u5916\u74b0\u72b6\u9053\u8def\u7a7a\u6e2f\u7dda\u3000\u5357\u5409\u7530\u5916\u5730\u8cea\u8abf\u67fb\u696d\u52d9","survey_name":"\u5e73\u621021\u5e74\u5ea6\u3000\u677e\u5c71\u5916\u74b0\u72b6\u9053\u8def\u7a7a\u6e2f\u7dda\u3000\u5357\u5409\u7530\u5916\u5730\u8cea\u8abf\u67fb\u696d\u52d9","client_name":"\u56fd\u571f\u4ea4\u901a\u7701\u56db\u56fd\u5730\u65b9\u6574\u5099\u5c40\u3000\u677e\u5c71\u6cb3\u5ddd\u56fd\u9053\u4e8b\u52d9\u6240","boring_xml_url":64,"boring_view_url":1,"soilmap_view_url":null,"soiltest_xml_url":0,"soiltest_view_url":0},{"id":525920,"code":"B4KJ202201002-8456","latitude":"33.819666","longitude":"132.716028","source_code":"098850622000180001","project_name":"\u5e73\u621021\u5e74\u5ea6\u3000\u677e\u5c71\u5916\u74b0\u72b6\u9053\u8def\u7a7a\u6e2f\u7dda\u3000\u5357\u5409\u7530\u5916\u5730\u8cea\u8abf\u67fb\u696d\u52d9","survey_name":"\u5e73\u621021\u5e74\u5ea6\u3000\u677e\u5c71\u5916\u74b0\u72b6\u9053\u8def\u7a7a\u6e2f\u7dda\u3000\u5357\u5409\u7530\u5916\u5730\u8cea\u8abf\u67fb\u696d\u52d9","client_name":"\u56fd\u571f\u4ea4\u901a\u7701\u56db\u56fd\u5730\u65b9\u6574\u5099\u5c40\u3000\u677e\u5c71\u6cb3\u5ddd\u56fd\u9053\u4e8b\u52d9\u6240","boring_xml_url":64,"boring_view_url":1,"soilmap_view_url":null,"soiltest_xml_url":0,"soiltest_view_url":0},{"id":525919,"code":"B4KJ202201002-8455","latitude":"33.819208","longitude":"132.717533","source_code":"098850622000170009","project_name":"","survey_name":"\u5e73\u621021\u5e74\u5ea6\u677e\u5c71\u5916\u74b0\u72b6\u9053\u8def\u7a7a\u6e2f\u7dda\u4f59\u6238\u5916\u5730\u8cea\u8abf\u67fb\u696d\u52d9","client_name":"\u56fd\u571f\u4ea4\u901a\u7701\u56db\u56fd\u5730\u65b9\u6574\u5099\u5c40\u677e\u5c71\u6cb3\u5ddd\u56fd\u9053\u4e8b\u52d9\u6240","boring_xml_url":64,"boring_view_url":1,"soilmap_view_url":null,"soiltest_xml_url":0,"soiltest_view_url":0}]}}