{"header":{"xyz":{"source":[],"mosaic":false},"page":6497,"raw":{"soiltest_result":"0","bbox":"57.598333,109.544722,1.933333,163.806111","page":"6497"},"conditions":{"soiltest_result":0,"north":57.598333,"west":109.544722,"south":1.933333,"east":163.806111},"success":true,"message":""},"data":{"meta":{"total":212844,"page":6497,"pages":7095,"count":30},"values":[{"id":125665,"code":"B4KJ201801001-3914","latitude":"33.93003989","longitude":"130.8969479","source_code":"PORT35001020027","project_name":"\u6e2f\u6e7e\u5c40","survey_name":"\u4e0b\u95a2\u6e2f\u897f\u5c71\u5730\u533a\u571f\u8cea\u8abf\u67fb\u59d4\u8a17\u696d\u52d9","client_name":"\u56fd\u571f\u4ea4\u901a\u7701\u4e5d\u5dde\u5730\u65b9\u6574\u5099\u5c40\u4e0b\u95a2\u6e2f\u6e7e\u7a7a\u6e2f\u6280\u8853\u8abf\u67fb\u4e8b\u52d9\u6240","boring_xml_url":0,"boring_view_url":0,"soilmap_view_url":66,"soiltest_xml_url":0,"soiltest_view_url":66},{"id":125664,"code":"B4KJ201801001-3913","latitude":"33.92987269","longitude":"130.8964457","source_code":"PORT35001020026","project_name":"\u6e2f\u6e7e\u5c40","survey_name":"\u4e0b\u95a2\u6e2f\u897f\u5c71\u5730\u533a\u571f\u8cea\u8abf\u67fb\u59d4\u8a17\u696d\u52d9","client_name":"\u56fd\u571f\u4ea4\u901a\u7701\u4e5d\u5dde\u5730\u65b9\u6574\u5099\u5c40\u4e0b\u95a2\u6e2f\u6e7e\u7a7a\u6e2f\u6280\u8853\u8abf\u67fb\u4e8b\u52d9\u6240","boring_xml_url":0,"boring_view_url":0,"soilmap_view_url":66,"soiltest_xml_url":0,"soiltest_view_url":66},{"id":125663,"code":"B4KJ201801001-3912","latitude":"33.92953803","longitude":"130.8960237","source_code":"PORT35001020025","project_name":"\u6e2f\u6e7e\u5c40","survey_name":"\u4e0b\u95a2\u6e2f\u897f\u5c71\u5730\u533a\u571f\u8cea\u8abf\u67fb\u59d4\u8a17\u696d\u52d9","client_name":"\u56fd\u571f\u4ea4\u901a\u7701\u4e5d\u5dde\u5730\u65b9\u6574\u5099\u5c40\u4e0b\u95a2\u6e2f\u6e7e\u7a7a\u6e2f\u6280\u8853\u8abf\u67fb\u4e8b\u52d9\u6240","boring_xml_url":0,"boring_view_url":0,"soilmap_view_url":66,"soiltest_xml_url":0,"soiltest_view_url":66},{"id":125662,"code":"B4KJ201801001-3911","latitude":"33.92970549","longitude":"130.8959434","source_code":"PORT35001020024","project_name":"\u6e2f\u6e7e\u5c40","survey_name":"\u4e0b\u95a2\u6e2f\u897f\u5c71\u5730\u533a\u571f\u8cea\u8abf\u67fb\u59d4\u8a17\u696d\u52d9","client_name":"\u56fd\u571f\u4ea4\u901a\u7701\u4e5d\u5dde\u5730\u65b9\u6574\u5099\u5c40\u4e0b\u95a2\u6e2f\u6e7e\u7a7a\u6e2f\u6280\u8853\u8abf\u67fb\u4e8b\u52d9\u6240","boring_xml_url":0,"boring_view_url":0,"soilmap_view_url":66,"soiltest_xml_url":0,"soiltest_view_url":66},{"id":125661,"code":"B4KJ201801001-3910","latitude":"33.92987296","longitude":"130.8958632","source_code":"PORT35001020023","project_name":"\u6e2f\u6e7e\u5c40","survey_name":"\u4e0b\u95a2\u6e2f\u897f\u5c71\u5730\u533a\u571f\u8cea\u8abf\u67fb\u59d4\u8a17\u696d\u52d9","client_name":"\u56fd\u571f\u4ea4\u901a\u7701\u4e5d\u5dde\u5730\u65b9\u6574\u5099\u5c40\u4e0b\u95a2\u6e2f\u6e7e\u7a7a\u6e2f\u6280\u8853\u8abf\u67fb\u4e8b\u52d9\u6240","boring_xml_url":0,"boring_view_url":0,"soilmap_view_url":66,"soiltest_xml_url":0,"soiltest_view_url":66},{"id":125660,"code":"B4KJ201801001-3909","latitude":"33.92947141","longitude":"130.8952403","source_code":"PORT35001020022","project_name":"\u6e2f\u6e7e\u5c40","survey_name":"\u4e0b\u95a2\u6e2f\u897f\u5c71\u5730\u533a\u571f\u8cea\u8abf\u67fb\u59d4\u8a17\u696d\u52d9","client_name":"\u56fd\u571f\u4ea4\u901a\u7701\u4e5d\u5dde\u5730\u65b9\u6574\u5099\u5c40\u4e0b\u95a2\u6e2f\u6e7e\u7a7a\u6e2f\u6280\u8853\u8abf\u67fb\u4e8b\u52d9\u6240","boring_xml_url":0,"boring_view_url":0,"soilmap_view_url":66,"soiltest_xml_url":0,"soiltest_view_url":66},{"id":125659,"code":"B4KJ201801001-3908","latitude":"33.92975067","longitude":"130.8949629","source_code":"PORT35001020021","project_name":"\u6e2f\u6e7e\u5c40","survey_name":"\u4e0b\u95a2\u6e2f\u897f\u5c71\u5730\u533a\u571f\u8cea\u8abf\u67fb","client_name":"\u56fd\u571f\u4ea4\u901a\u7701\u4e5d\u5dde\u5730\u65b9\u6574\u5099\u5c40\u4e0b\u95a2\u6e2f\u6e7e\u7a7a\u6e2f\u6280\u8853\u8abf\u67fb\u4e8b\u52d9\u6240","boring_xml_url":0,"boring_view_url":0,"soilmap_view_url":66,"soiltest_xml_url":0,"soiltest_view_url":66},{"id":125658,"code":"B4KJ201801001-3907","latitude":"33.92958687","longitude":"130.8945774","source_code":"PORT35001020020","project_name":"\u6e2f\u6e7e\u5c40","survey_name":"\u4e0b\u95a2\u6e2f\u897f\u5c71\u5730\u533a\u571f\u8cea\u8abf\u67fb","client_name":"\u56fd\u571f\u4ea4\u901a\u7701\u4e5d\u5dde\u5730\u65b9\u6574\u5099\u5c40\u4e0b\u95a2\u6e2f\u6e7e\u7a7a\u6e2f\u6280\u8853\u8abf\u67fb\u4e8b\u52d9\u6240","boring_xml_url":0,"boring_view_url":0,"soilmap_view_url":66,"soiltest_xml_url":0,"soiltest_view_url":66},{"id":125657,"code":"B4KJ201801001-3906","latitude":"33.92994991","longitude":"130.8945982","source_code":"PORT35001020019","project_name":"\u6e2f\u6e7e\u5c40","survey_name":"\u4e0b\u95a2\u6e2f\u897f\u5c71\u5730\u533a\u571f\u8cea\u8abf\u67fb","client_name":"\u56fd\u571f\u4ea4\u901a\u7701\u4e5d\u5dde\u5730\u65b9\u6574\u5099\u5c40\u4e0b\u95a2\u6e2f\u6e7e\u7a7a\u6e2f\u6280\u8853\u8abf\u67fb\u4e8b\u52d9\u6240","boring_xml_url":0,"boring_view_url":0,"soilmap_view_url":66,"soiltest_xml_url":0,"soiltest_view_url":66},{"id":125656,"code":"B4KJ201801001-3905","latitude":"33.93051377","longitude":"130.8944961","source_code":"PORT35001020018","project_name":"\u6e2f\u6e7e\u5c40","survey_name":"\u4e0b\u95a2\u6e2f\u897f\u5c71\u5730\u533a\u571f\u8cea\u8abf\u67fb","client_name":"\u56fd\u571f\u4ea4\u901a\u7701\u4e5d\u5dde\u5730\u65b9\u6574\u5099\u5c40\u4e0b\u95a2\u6e2f\u6e7e\u7a7a\u6e2f\u6280\u8853\u8abf\u67fb\u4e8b\u52d9\u6240","boring_xml_url":0,"boring_view_url":0,"soilmap_view_url":66,"soiltest_xml_url":0,"soiltest_view_url":66},{"id":125655,"code":"B4KJ201801001-3904","latitude":"33.93043186","longitude":"130.8943034","source_code":"PORT35001020017","project_name":"\u6e2f\u6e7e\u5c40","survey_name":"\u4e0b\u95a2\u6e2f\u897f\u5c71\u5730\u533a\u571f\u8cea\u8abf\u67fb","client_name":"\u56fd\u571f\u4ea4\u901a\u7701\u4e5d\u5dde\u5730\u65b9\u6574\u5099\u5c40\u4e0b\u95a2\u6e2f\u6e7e\u7a7a\u6e2f\u6280\u8853\u8abf\u67fb\u4e8b\u52d9\u6240","boring_xml_url":0,"boring_view_url":0,"soilmap_view_url":66,"soiltest_xml_url":0,"soiltest_view_url":66},{"id":125654,"code":"B4KJ201801001-3903","latitude":"33.93034996","longitude":"130.8941107","source_code":"PORT35001020016","project_name":"\u6e2f\u6e7e\u5c40","survey_name":"\u4e0b\u95a2\u6e2f\u897f\u5c71\u5730\u533a\u571f\u8cea\u8abf\u67fb","client_name":"\u56fd\u571f\u4ea4\u901a\u7701\u4e5d\u5dde\u5730\u65b9\u6574\u5099\u5c40\u4e0b\u95a2\u6e2f\u6e7e\u7a7a\u6e2f\u6280\u8853\u8abf\u67fb\u4e8b\u52d9\u6240","boring_xml_url":0,"boring_view_url":0,"soilmap_view_url":66,"soiltest_xml_url":0,"soiltest_view_url":66},{"id":125653,"code":"B4KJ201801001-3902","latitude":"33.93087366","longitude":"130.8940332","source_code":"PORT35001020015","project_name":"\u6e2f\u6e7e\u5c40","survey_name":"\u4e0b\u95a2\u6e2f\u897f\u5c71\u5730\u533a\u571f\u8cea\u8abf\u67fb","client_name":"\u56fd\u571f\u4ea4\u901a\u7701\u4e5d\u5dde\u5730\u65b9\u6574\u5099\u5c40\u4e0b\u95a2\u6e2f\u6e7e\u7a7a\u6e2f\u6280\u8853\u8abf\u67fb\u4e8b\u52d9\u6240","boring_xml_url":0,"boring_view_url":0,"soilmap_view_url":66,"soiltest_xml_url":0,"soiltest_view_url":66},{"id":125652,"code":"B4KJ201801001-3901","latitude":"33.93135719","longitude":"130.8939803","source_code":"PORT35001020014","project_name":"\u6e2f\u6e7e\u5c40","survey_name":"\u4e0b\u95a2\u897f\u5c71\u5730\u533a\u571f\u8cea\u8abf\u67fb","client_name":"\u56fd\u571f\u4ea4\u901a\u7701\u4e5d\u5dde\u5730\u65b9\u6574\u5099\u5c40\u4e0b\u95a2\u6e2f\u6e7e\u7a7a\u6e2f\u6280\u8853\u8abf\u67fb\u4e8b\u52d9\u6240","boring_xml_url":0,"boring_view_url":0,"soilmap_view_url":66,"soiltest_xml_url":0,"soiltest_view_url":66},{"id":125651,"code":"B4KJ201801001-3900","latitude":"33.93127528","longitude":"130.8937876","source_code":"PORT35001020013","project_name":"\u6e2f\u6e7e\u5c40","survey_name":"\u4e0b\u95a2\u6e2f\u897f\u5c71\u5730\u533a\u571f\u8cea\u8abf\u67fb","client_name":"\u56fd\u571f\u4ea4\u901a\u7701\u4e5d\u5dde\u5730\u65b9\u6574\u5099\u5c40\u4e0b\u95a2\u6e2f\u6e7e\u7a7a\u6e2f\u6280\u8853\u8abf\u67fb\u4e8b\u52d9\u6240","boring_xml_url":0,"boring_view_url":0,"soilmap_view_url":66,"soiltest_xml_url":0,"soiltest_view_url":66},{"id":125650,"code":"B4KJ201801001-3899","latitude":"33.93119337","longitude":"130.8935948","source_code":"PORT35001020012","project_name":"\u6e2f\u6e7e\u5c40","survey_name":"\u4e0b\u95a2\u6e2f\u897f\u5c71\u5730\u533a\u571f\u8cea\u8abf\u67fb","client_name":"\u56fd\u571f\u4ea4\u901a\u7701\u4e5d\u5dde\u5730\u65b9\u6574\u5099\u5c40\u4e0b\u95a2\u6e2f\u6e7e\u7a7a\u6e2f\u6280\u8853\u8abf\u67fb\u4e8b\u52d9\u6240","boring_xml_url":0,"boring_view_url":0,"soilmap_view_url":66,"soiltest_xml_url":0,"soiltest_view_url":66},{"id":125649,"code":"B4KJ201801001-3898","latitude":"33.94767619","longitude":"130.9301009","source_code":"PORT35001010119","project_name":"\u6e2f\u6e7e\u5c40","survey_name":"\u5e73\u621011\u5e74\u5ea6\u4e0b\u95a2\u65e2\u5b58\u6e2f\u6e7e\u65bd\u8a2d\u70b9\u691c\u8abf\u67fb(\u7b2c2\u6b21)","client_name":"\u56fd\u571f\u4ea4\u901a\u7701\u4e5d\u5dde\u5730\u65b9\u6574\u5099\u5c40\u4e0b\u95a2\u6e2f\u6e7e\u7a7a\u6e2f\u6280\u8853\u8abf\u67fb\u4e8b\u52d9\u6240","boring_xml_url":0,"boring_view_url":0,"soilmap_view_url":66,"soiltest_xml_url":0,"soiltest_view_url":66},{"id":125648,"code":"B4KJ201801001-3897","latitude":"33.94767614","longitude":"130.9273234","source_code":"PORT35001010118","project_name":"\u6e2f\u6e7e\u5c40","survey_name":"\u5e73\u621011\u5e74\u5ea6\u4e0b\u95a2\u6e2f\u65e2\u5b58\u6e2f\u6e7e\u65bd\u8a2d\u70b9\u691c\u8abf\u67fb(\u7b2c2\u6b21)","client_name":"\u56fd\u571f\u4ea4\u901a\u7701\u4e5d\u5dde\u5730\u65b9\u6574\u5099\u5c40\u4e0b\u95a2\u6e2f\u6e7e\u7a7a\u6e2f\u6280\u8853\u8abf\u67fb\u4e8b\u52d9\u6240","boring_xml_url":0,"boring_view_url":0,"soilmap_view_url":66,"soiltest_xml_url":0,"soiltest_view_url":66},{"id":125647,"code":"B4KJ201801001-3896","latitude":"33.95406464","longitude":"130.9450994","source_code":"PORT35001010109","project_name":"\u6e2f\u6e7e\u5c40","survey_name":"\u4e0b\u95a2\u6e2f(\u6771\u6e2f\u5730\u533a)\u6cca\u5730(-12m)\u571f\u8cea\u8abf\u67fb","client_name":"\u56fd\u571f\u4ea4\u901a\u7701\u4e5d\u5dde\u5730\u65b9\u6574\u5099\u5c40\u4e0b\u95a2\u6e2f\u6e7e\u7a7a\u6e2f\u6280\u8853\u8abf\u67fb\u4e8b\u52d9\u6240","boring_xml_url":0,"boring_view_url":0,"soilmap_view_url":66,"soiltest_xml_url":0,"soiltest_view_url":66},{"id":125646,"code":"B4KJ201801001-3895","latitude":"33.95378688","longitude":"130.9442661","source_code":"PORT35001010108","project_name":"\u6e2f\u6e7e\u5c40","survey_name":"\u4e0b\u95a2\u6e2f(\u6771\u6e2f\u5730\u533a)\u6cca\u5730(-12m)\u571f\u8cea\u8abf\u67fb","client_name":"\u56fd\u571f\u4ea4\u901a\u7701\u4e5d\u5dde\u5730\u65b9\u6574\u5099\u5c40\u4e0b\u95a2\u6e2f\u6e7e\u7a7a\u6e2f\u6280\u8853\u8abf\u67fb\u4e8b\u52d9\u6240","boring_xml_url":0,"boring_view_url":0,"soilmap_view_url":66,"soiltest_xml_url":0,"soiltest_view_url":0},{"id":125645,"code":"B4KJ201801001-3894","latitude":"33.95323136","longitude":"130.9428774","source_code":"PORT35001010107","project_name":"\u6e2f\u6e7e\u5c40","survey_name":"\u4e0b\u95a2\u6e2f(\u6771\u6e2f\u5730\u533a)\u6cca\u5730(-12m)\u571f\u8cea\u8abf\u67fb","client_name":"\u56fd\u571f\u4ea4\u901a\u7701\u4e5d\u5dde\u5730\u65b9\u6574\u5099\u5c40\u4e0b\u95a2\u6e2f\u6e7e\u7a7a\u6e2f\u6280\u8853\u8abf\u67fb\u4e8b\u52d9\u6240","boring_xml_url":0,"boring_view_url":0,"soilmap_view_url":66,"soiltest_xml_url":0,"soiltest_view_url":66},{"id":125644,"code":"B4KJ201801001-3893","latitude":"33.95267586","longitude":"130.9423219","source_code":"PORT35001010106","project_name":"\u6e2f\u6e7e\u5c40","survey_name":"\u4e0b\u95a2\u6e2f(\u6771\u6e2f\u5730\u533a)\u6cca\u5730(-12m)\u571f\u8cea\u8abf\u67fb","client_name":"\u56fd\u571f\u4ea4\u901a\u7701\u4e5d\u5dde\u5730\u65b9\u6574\u5099\u5c40\u4e0b\u95a2\u6e2f\u6e7e\u7a7a\u6e2f\u6280\u8853\u8abf\u67fb\u4e8b\u52d9\u6240","boring_xml_url":0,"boring_view_url":0,"soilmap_view_url":66,"soiltest_xml_url":0,"soiltest_view_url":66},{"id":125643,"code":"B4KJ201801001-3892","latitude":"33.95045386","longitude":"130.9406554","source_code":"PORT35001010105","project_name":"\u6e2f\u6e7e\u5c40","survey_name":"\u4e0b\u95a2\u6e2f(\u6771\u6e2f\u5730\u533a)\u6cca\u5730(-12m)\u571f\u8cea\u8abf\u67fb","client_name":"\u56fd\u571f\u4ea4\u901a\u7701\u4e5d\u5dde\u5730\u65b9\u6574\u5099\u5c40\u4e0b\u95a2\u6e2f\u6e7e\u7a7a\u6e2f\u6280\u8853\u8abf\u67fb\u4e8b\u52d9\u6240","boring_xml_url":0,"boring_view_url":0,"soilmap_view_url":66,"soiltest_xml_url":0,"soiltest_view_url":66},{"id":125642,"code":"B4KJ201801001-3891","latitude":"33.94618648","longitude":"130.9370409","source_code":"PORT35001010070","project_name":"\u6e2f\u6e7e\u5c40","survey_name":"\u4e0b\u95a2\u6e2f\u6771\u6e2f\u5730\u533a\u5cb8\u58c1-12M\u4ed62\u4ef6","client_name":"\u56fd\u571f\u4ea4\u901a\u7701\u4e5d\u5dde\u5730\u65b9\u6574\u5099\u5c40\u4e0b\u95a2\u6e2f\u6e7e\u7a7a\u6e2f\u6280\u8853\u8abf\u67fb\u4e8b\u52d9\u6240","boring_xml_url":0,"boring_view_url":0,"soilmap_view_url":66,"soiltest_xml_url":0,"soiltest_view_url":66},{"id":125641,"code":"B4KJ201801001-3890","latitude":"33.94766853","longitude":"130.9379062","source_code":"PORT35001010069","project_name":"\u6e2f\u6e7e\u5c40","survey_name":"\u4e0b\u95a2\u6e2f\u6771\u6e2f\u5730\u533a\u5cb8\u58c1-12M\u4ed62\u4ef6","client_name":"\u56fd\u571f\u4ea4\u901a\u7701\u4e5d\u5dde\u5730\u65b9\u6574\u5099\u5c40\u4e0b\u95a2\u6e2f\u6e7e\u7a7a\u6e2f\u6280\u8853\u8abf\u67fb\u4e8b\u52d9\u6240","boring_xml_url":0,"boring_view_url":0,"soilmap_view_url":66,"soiltest_xml_url":0,"soiltest_view_url":66},{"id":125640,"code":"B4KJ201801001-3889","latitude":"33.95079972","longitude":"130.9403717","source_code":"PORT35001010068","project_name":"\u6e2f\u6e7e\u5c40","survey_name":"\u4e0b\u95a2\u6e2f\u6771\u6e2f\u5730\u533a\u5cb8\u58c1-12M\u4ed62\u4ef6","client_name":"\u56fd\u571f\u4ea4\u901a\u7701\u4e5d\u5dde\u5730\u65b9\u6574\u5099\u5c40\u4e0b\u95a2\u6e2f\u6e7e\u7a7a\u6e2f\u6280\u8853\u8abf\u67fb\u4e8b\u52d9\u6240","boring_xml_url":0,"boring_view_url":0,"soilmap_view_url":66,"soiltest_xml_url":0,"soiltest_view_url":66},{"id":125639,"code":"B4KJ201801001-3888","latitude":"33.95090546","longitude":"130.9401929","source_code":"PORT35001010067","project_name":"\u6e2f\u6e7e\u5c40","survey_name":"\u4e0b\u95a2\u6e2f\u6771\u6e2f\u5730\u533a\u5cb8\u58c1-12M\u4ed62\u4ef6","client_name":"\u56fd\u571f\u4ea4\u901a\u7701\u4e5d\u5dde\u5730\u65b9\u6574\u5099\u5c40\u4e0b\u95a2\u6e2f\u6e7e\u7a7a\u6e2f\u6280\u8853\u8abf\u67fb\u4e8b\u52d9\u6240","boring_xml_url":0,"boring_view_url":0,"soilmap_view_url":66,"soiltest_xml_url":0,"soiltest_view_url":66},{"id":125638,"code":"B4KJ201801001-3887","latitude":"33.9514683","longitude":"130.9409235","source_code":"PORT35001010066","project_name":"\u6e2f\u6e7e\u5c40","survey_name":"\u4e0b\u95a2\u6e2f\u6771\u6e2f\u5730\u533a\u5cb8\u58c1-12M\u4ed62\u4ef6","client_name":"\u56fd\u571f\u4ea4\u901a\u7701\u4e5d\u5dde\u5730\u65b9\u6574\u5099\u5c40\u4e0b\u95a2\u6e2f\u6e7e\u7a7a\u6e2f\u6280\u8853\u8abf\u67fb\u4e8b\u52d9\u6240","boring_xml_url":0,"boring_view_url":0,"soilmap_view_url":66,"soiltest_xml_url":0,"soiltest_view_url":66},{"id":125637,"code":"B4KJ201801001-3886","latitude":"33.95167268","longitude":"130.940567","source_code":"PORT35001010065","project_name":"\u6e2f\u6e7e\u5c40","survey_name":"\u4e0b\u95a2\u6e2f\u6771\u6e2f\u5730\u533a\u5cb8\u58c1-12M\u4ed62\u4ef6","client_name":"\u56fd\u571f\u4ea4\u901a\u7701\u4e5d\u5dde\u5730\u65b9\u6574\u5099\u5c40\u4e0b\u95a2\u6e2f\u6e7e\u7a7a\u6e2f\u6280\u8853\u8abf\u67fb\u4e8b\u52d9\u6240","boring_xml_url":0,"boring_view_url":0,"soilmap_view_url":66,"soiltest_xml_url":0,"soiltest_view_url":66},{"id":125636,"code":"B4KJ201801001-3885","latitude":"33.95183973","longitude":"130.9412301","source_code":"PORT35001010064","project_name":"\u6e2f\u6e7e\u5c40","survey_name":"\u4e0b\u95a2\u6e2f\u6771\u6e2f\u5730\u533a\u5cb8\u58c1-12M\u4ed62\u4ef6","client_name":"\u56fd\u571f\u4ea4\u901a\u7701\u4e5d\u5dde\u5730\u65b9\u6574\u5099\u5c40\u4e0b\u95a2\u6e2f\u6e7e\u7a7a\u6e2f\u6280\u8853\u8abf\u67fb\u4e8b\u52d9\u6240","boring_xml_url":0,"boring_view_url":0,"soilmap_view_url":66,"soiltest_xml_url":0,"soiltest_view_url":66}]}}