{"header":{"xyz":{"source":[],"mosaic":false},"page":6501,"raw":{"soiltest_result":"0","bbox":"57.598333,109.544722,1.933333,163.806111","page":"6501"},"conditions":{"soiltest_result":0,"north":57.598333,"west":109.544722,"south":1.933333,"east":163.806111},"success":true,"message":""},"data":{"meta":{"total":212844,"page":6501,"pages":7095,"count":30},"values":[{"id":125545,"code":"B4KJ201801001-3794","latitude":"33.28627972","longitude":"134.1320503","source_code":"PORT39005010030","project_name":"\u6e2f\u6e7e\u5c40","survey_name":"\u5ba4\u6d25\u6e2f\u5ba4\u6d25\u5730\u533a\u9632\u6ce2\u5824(I)\u571f\u8cea\u8abf\u67fb","client_name":"\u56fd\u571f\u4ea4\u901a\u7701\u56db\u56fd\u5730\u65b9\u6574\u5099\u5c40\u9ad8\u677e\u6e2f\u6e7e\u7a7a\u6e2f\u6280\u8853\u8abf\u67fb\u4e8b\u52d9\u6240","boring_xml_url":0,"boring_view_url":0,"soilmap_view_url":66,"soiltest_xml_url":0,"soiltest_view_url":66},{"id":125544,"code":"B4KJ201801001-3793","latitude":"33.28592944","longitude":"134.1330397","source_code":"PORT39005010029","project_name":"\u6e2f\u6e7e\u5c40","survey_name":"\u5ba4\u6d25\u6e2f\u5ba4\u6d25\u5730\u533a\u9632\u6ce2\u5824(I)\u571f\u8cea\u8abf\u67fb","client_name":"\u56fd\u571f\u4ea4\u901a\u7701\u56db\u56fd\u5730\u65b9\u6574\u5099\u5c40\u9ad8\u677e\u6e2f\u6e7e\u7a7a\u6e2f\u6280\u8853\u8abf\u67fb\u4e8b\u52d9\u6240","boring_xml_url":0,"boring_view_url":0,"soilmap_view_url":66,"soiltest_xml_url":0,"soiltest_view_url":66},{"id":125543,"code":"B4KJ201801001-3792","latitude":"33.29031666","longitude":"134.1415012","source_code":"PORT39005010028","project_name":"\u6e2f\u6e7e\u5c40","survey_name":"\u5ba4\u6d25\u6e2f\u5ba4\u6d25\u5730\u533a\u571f\u8cea\u8abf\u67fb","client_name":"\u56fd\u571f\u4ea4\u901a\u7701\u56db\u56fd\u5730\u65b9\u6574\u5099\u5c40\u9ad8\u677e\u6e2f\u6e7e\u7a7a\u6e2f\u6280\u8853\u8abf\u67fb\u4e8b\u52d9\u6240","boring_xml_url":0,"boring_view_url":0,"soilmap_view_url":66,"soiltest_xml_url":0,"soiltest_view_url":66},{"id":125542,"code":"B4KJ201801001-3791","latitude":"33.29392734","longitude":"134.1401123","source_code":"PORT39005010027","project_name":"\u6e2f\u6e7e\u5c40","survey_name":"\u5ba4\u6d25\u6e2f\u5ba4\u6d25\u5730\u533a\u571f\u8cea\u8abf\u67fb","client_name":"\u56fd\u571f\u4ea4\u901a\u7701\u56db\u56fd\u5730\u65b9\u6574\u5099\u5c40\u9ad8\u677e\u6e2f\u6e7e\u7a7a\u6e2f\u6280\u8853\u8abf\u67fb\u4e8b\u52d9\u6240","boring_xml_url":0,"boring_view_url":0,"soilmap_view_url":66,"soiltest_xml_url":0,"soiltest_view_url":66},{"id":125541,"code":"B4KJ201801001-3790","latitude":"33.29003891","longitude":"134.1409457","source_code":"PORT39005010026","project_name":"\u6e2f\u6e7e\u5c40","survey_name":"\u5ba4\u6d25\u6e2f\u5ba4\u6d25\u5730\u533a\u571f\u8cea\u8abf\u67fb","client_name":"\u56fd\u571f\u4ea4\u901a\u7701\u56db\u56fd\u5730\u65b9\u6574\u5099\u5c40\u9ad8\u677e\u6e2f\u6e7e\u7a7a\u6e2f\u6280\u8853\u8abf\u67fb\u4e8b\u52d9\u6240","boring_xml_url":0,"boring_view_url":0,"soilmap_view_url":66,"soiltest_xml_url":0,"soiltest_view_url":66},{"id":125540,"code":"B4KJ201801001-3789","latitude":"33.29087213","longitude":"134.1403902","source_code":"PORT39005010025","project_name":"\u6e2f\u6e7e\u5c40","survey_name":"\u5ba4\u6d25\u6e2f\u5ba4\u6d25\u5730\u533a\u571f\u8cea\u8abf\u67fb","client_name":"\u56fd\u571f\u4ea4\u901a\u7701\u56db\u56fd\u5730\u65b9\u6574\u5099\u5c40\u9ad8\u677e\u6e2f\u6e7e\u7a7a\u6e2f\u6280\u8853\u8abf\u67fb\u4e8b\u52d9\u6240","boring_xml_url":0,"boring_view_url":0,"soilmap_view_url":66,"soiltest_xml_url":0,"soiltest_view_url":66},{"id":125539,"code":"B4KJ201801001-3788","latitude":"33.29170536","longitude":"134.1398347","source_code":"PORT39005010024","project_name":"\u6e2f\u6e7e\u5c40","survey_name":"\u5ba4\u6d25\u6e2f\u5ba4\u6d25\u5730\u533a\u571f\u8cea\u8abf\u67fb","client_name":"\u56fd\u571f\u4ea4\u901a\u7701\u56db\u56fd\u5730\u65b9\u6574\u5099\u5c40\u9ad8\u677e\u6e2f\u6e7e\u7a7a\u6e2f\u6280\u8853\u8abf\u67fb\u4e8b\u52d9\u6240","boring_xml_url":0,"boring_view_url":0,"soilmap_view_url":66,"soiltest_xml_url":0,"soiltest_view_url":66},{"id":125538,"code":"B4KJ201801001-3787","latitude":"33.29226085","longitude":"134.1395569","source_code":"PORT39005010023","project_name":"\u6e2f\u6e7e\u5c40","survey_name":"\u5ba4\u6d25\u6e2f\u5ba4\u6d25\u5730\u533a\u571f\u8cea\u8abf\u67fb","client_name":"\u56fd\u571f\u4ea4\u901a\u7701\u56db\u56fd\u5730\u65b9\u6574\u5099\u5c40\u9ad8\u677e\u6e2f\u6e7e\u7a7a\u6e2f\u6280\u8853\u8abf\u67fb\u4e8b\u52d9\u6240","boring_xml_url":0,"boring_view_url":0,"soilmap_view_url":66,"soiltest_xml_url":0,"soiltest_view_url":66},{"id":125537,"code":"B4KJ201801001-3786","latitude":"33.29337182","longitude":"134.1390013","source_code":"PORT39005010022","project_name":"\u6e2f\u6e7e\u5c40","survey_name":"\u5ba4\u6d25\u6e2f\u5ba4\u6d25\u5730\u533a\u571f\u8cea\u8abf\u67fb","client_name":"\u56fd\u571f\u4ea4\u901a\u7701\u56db\u56fd\u5730\u65b9\u6574\u5099\u5c40\u9ad8\u677e\u6e2f\u6e7e\u7a7a\u6e2f\u6280\u8853\u8abf\u67fb\u4e8b\u52d9\u6240","boring_xml_url":0,"boring_view_url":0,"soilmap_view_url":66,"soiltest_xml_url":0,"soiltest_view_url":66},{"id":125536,"code":"B4KJ201801001-3785","latitude":"33.29249093","longitude":"134.1329109","source_code":"PORT39005010016","project_name":"\u6e2f\u6e7e\u5c40","survey_name":"\u5ba4\u6d25\u6e2f\u571f\u8cea\u8abf\u67fb56-10","client_name":"\u56fd\u571f\u4ea4\u901a\u7701\u56db\u56fd\u5730\u65b9\u6574\u5099\u5c40\u9ad8\u677e\u6e2f\u6e7e\u7a7a\u6e2f\u6280\u8853\u8abf\u67fb\u4e8b\u52d9\u6240","boring_xml_url":0,"boring_view_url":0,"soilmap_view_url":66,"soiltest_xml_url":0,"soiltest_view_url":66},{"id":125535,"code":"B4KJ201801001-3784","latitude":"33.2892309","longitude":"134.1324397","source_code":"PORT39005010015","project_name":"\u6e2f\u6e7e\u5c40","survey_name":"\u5ba4\u6d25\u6e2f\u571f\u8cea\u8abf\u67fb56-8","client_name":"\u56fd\u571f\u4ea4\u901a\u7701\u56db\u56fd\u5730\u65b9\u6574\u5099\u5c40\u9ad8\u677e\u6e2f\u6e7e\u7a7a\u6e2f\u6280\u8853\u8abf\u67fb\u4e8b\u52d9\u6240","boring_xml_url":0,"boring_view_url":0,"soilmap_view_url":66,"soiltest_xml_url":0,"soiltest_view_url":66},{"id":125534,"code":"B4KJ201801001-3783","latitude":"33.28713467","longitude":"134.1383784","source_code":"PORT39005010014","project_name":"\u6e2f\u6e7e\u5c40","survey_name":"\u5ba4\u6d25\u6e2f\u571f\u8cea\u8abf\u67fb56-7","client_name":"\u56fd\u571f\u4ea4\u901a\u7701\u56db\u56fd\u5730\u65b9\u6574\u5099\u5c40\u9ad8\u677e\u6e2f\u6e7e\u7a7a\u6e2f\u6280\u8853\u8abf\u67fb\u4e8b\u52d9\u6240","boring_xml_url":0,"boring_view_url":0,"soilmap_view_url":66,"soiltest_xml_url":0,"soiltest_view_url":66},{"id":125533,"code":"B4KJ201801001-3782","latitude":"33.28674668","longitude":"134.1311895","source_code":"PORT39005010013","project_name":"\u6e2f\u6e7e\u5c40","survey_name":"\u5ba4\u6d25\u6e2f\u571f\u8cea\u8abf\u67fb56-5","client_name":"\u56fd\u571f\u4ea4\u901a\u7701\u56db\u56fd\u5730\u65b9\u6574\u5099\u5c40\u9ad8\u677e\u6e2f\u6e7e\u7a7a\u6e2f\u6280\u8853\u8abf\u67fb\u4e8b\u52d9\u6240","boring_xml_url":0,"boring_view_url":0,"soilmap_view_url":66,"soiltest_xml_url":0,"soiltest_view_url":66},{"id":125532,"code":"B4KJ201801001-3781","latitude":"33.28464551","longitude":"134.1371174","source_code":"PORT39005010012","project_name":"\u6e2f\u6e7e\u5c40","survey_name":"\u5ba4\u6d25\u6e2f\u571f\u8cea\u8abf\u67fb56-4","client_name":"\u56fd\u571f\u4ea4\u901a\u7701\u56db\u56fd\u5730\u65b9\u6574\u5099\u5c40\u9ad8\u677e\u6e2f\u6e7e\u7a7a\u6e2f\u6280\u8853\u8abf\u67fb\u4e8b\u52d9\u6240","boring_xml_url":0,"boring_view_url":0,"soilmap_view_url":66,"soiltest_xml_url":0,"soiltest_view_url":66},{"id":125531,"code":"B4KJ201801001-3780","latitude":"33.28396751","longitude":"134.1390344","source_code":"PORT39005010011","project_name":"\u6e2f\u6e7e\u5c40","survey_name":"\u5ba4\u6d25\u6e2f\u571f\u8cea\u8abf\u67fb56-2","client_name":"\u56fd\u571f\u4ea4\u901a\u7701\u56db\u56fd\u5730\u65b9\u6574\u5099\u5c40\u9ad8\u677e\u6e2f\u6e7e\u7a7a\u6e2f\u6280\u8853\u8abf\u67fb\u4e8b\u52d9\u6240","boring_xml_url":0,"boring_view_url":0,"soilmap_view_url":66,"soiltest_xml_url":0,"soiltest_view_url":66},{"id":125530,"code":"B4KJ201801001-3779","latitude":"33.28503932","longitude":"134.134002","source_code":"PORT39005010010","project_name":"\u6e2f\u6e7e\u5c40","survey_name":"\u5ba4\u6d25\u6e2f[\u5ba4\u6d25\u5730\u533a]\u9632\u6ce2\u5824(1)[NO2-3]","client_name":"\u56fd\u571f\u4ea4\u901a\u7701\u56db\u56fd\u5730\u65b9\u6574\u5099\u5c40\u9ad8\u677e\u6e2f\u6e7e\u7a7a\u6e2f\u6280\u8853\u8abf\u67fb\u4e8b\u52d9\u6240","boring_xml_url":0,"boring_view_url":0,"soilmap_view_url":66,"soiltest_xml_url":0,"soiltest_view_url":66},{"id":125529,"code":"B4KJ201801001-3778","latitude":"33.28476159","longitude":"134.1351131","source_code":"PORT39005010009","project_name":"\u6e2f\u6e7e\u5c40","survey_name":"\u5ba4\u6d25\u6e2f[\u5ba4\u6d25\u5730\u533a]\u9632\u6ce2\u5824(1)[N02-2]","client_name":"\u56fd\u571f\u4ea4\u901a\u7701\u56db\u56fd\u5730\u65b9\u6574\u5099\u5c40\u9ad8\u677e\u6e2f\u6e7e\u7a7a\u6e2f\u6280\u8853\u8abf\u67fb\u4e8b\u52d9\u6240","boring_xml_url":0,"boring_view_url":0,"soilmap_view_url":66,"soiltest_xml_url":0,"soiltest_view_url":66},{"id":125528,"code":"B4KJ201801001-3777","latitude":"33.28420613","longitude":"134.1362241","source_code":"PORT39005010008","project_name":"\u6e2f\u6e7e\u5c40","survey_name":"\u5ba4\u6d25\u6e2f[\u5ba4\u6d25\u5730\u533a]\u9632\u6ce2\u5824(1)[NO2-1]","client_name":"\u56fd\u571f\u4ea4\u901a\u7701\u56db\u56fd\u5730\u65b9\u6574\u5099\u5c40\u9ad8\u677e\u6e2f\u6e7e\u7a7a\u6e2f\u6280\u8853\u8abf\u67fb\u4e8b\u52d9\u6240","boring_xml_url":0,"boring_view_url":0,"soilmap_view_url":66,"soiltest_xml_url":0,"soiltest_view_url":66},{"id":125527,"code":"B4KJ201801001-3776","latitude":"33.28448397","longitude":"134.1409459","source_code":"PORT39005010007","project_name":"\u6e2f\u6e7e\u5c40","survey_name":"\u5ba4\u6d25\u6e2f\u571f\u8cea\u8abf\u67fb","client_name":"\u56fd\u571f\u4ea4\u901a\u7701\u56db\u56fd\u5730\u65b9\u6574\u5099\u5c40\u9ad8\u677e\u6e2f\u6e7e\u7a7a\u6e2f\u6280\u8853\u8abf\u67fb\u4e8b\u52d9\u6240","boring_xml_url":0,"boring_view_url":0,"soilmap_view_url":66,"soiltest_xml_url":0,"soiltest_view_url":66},{"id":125526,"code":"B4KJ201801001-3775","latitude":"33.28420621","longitude":"134.1401126","source_code":"PORT39005010006","project_name":"\u6e2f\u6e7e\u5c40","survey_name":"\u5ba4\u6d25\u6e2f\u571f\u8cea\u8abf\u67fb","client_name":"\u56fd\u571f\u4ea4\u901a\u7701\u56db\u56fd\u5730\u65b9\u6574\u5099\u5c40\u9ad8\u677e\u6e2f\u6e7e\u7a7a\u6e2f\u6280\u8853\u8abf\u67fb\u4e8b\u52d9\u6240","boring_xml_url":0,"boring_view_url":0,"soilmap_view_url":66,"soiltest_xml_url":0,"soiltest_view_url":66},{"id":125525,"code":"B4KJ201801001-3774","latitude":"33.29392702","longitude":"134.1251136","source_code":"PORT39005010005","project_name":"\u6e2f\u6e7e\u5c40","survey_name":"\u5ba4\u6d25\u6e2f\u571f\u8cea\u8abf\u67fb","client_name":"\u56fd\u571f\u4ea4\u901a\u7701\u56db\u56fd\u5730\u65b9\u6574\u5099\u5c40\u9ad8\u677e\u6e2f\u6e7e\u7a7a\u6e2f\u6280\u8853\u8abf\u67fb\u4e8b\u52d9\u6240","boring_xml_url":0,"boring_view_url":0,"soilmap_view_url":66,"soiltest_xml_url":0,"soiltest_view_url":66},{"id":125524,"code":"B4KJ201801001-3773","latitude":"33.28948338","longitude":"134.1392792","source_code":"PORT39005010004","project_name":"\u6e2f\u6e7e\u5c40","survey_name":"\u5ba4\u6d25\u6e2f\u571f\u8cea\u8abf\u67fb","client_name":"\u56fd\u571f\u4ea4\u901a\u7701\u56db\u56fd\u5730\u65b9\u6574\u5099\u5c40\u9ad8\u677e\u6e2f\u6e7e\u7a7a\u6e2f\u6280\u8853\u8abf\u67fb\u4e8b\u52d9\u6240","boring_xml_url":0,"boring_view_url":0,"soilmap_view_url":66,"soiltest_xml_url":0,"soiltest_view_url":66},{"id":125523,"code":"B4KJ201801001-3772","latitude":"33.28864983","longitude":"134.1251138","source_code":"PORT39005010003","project_name":"\u6e2f\u6e7e\u5c40","survey_name":"\u5ba4\u6d25\u6e2f\u571f\u8cea\u8abf\u67fb","client_name":"\u56fd\u571f\u4ea4\u901a\u7701\u56db\u56fd\u5730\u65b9\u6574\u5099\u5c40\u9ad8\u677e\u6e2f\u6e7e\u7a7a\u6e2f\u6280\u8853\u8abf\u67fb\u4e8b\u52d9\u6240","boring_xml_url":0,"boring_view_url":0,"soilmap_view_url":66,"soiltest_xml_url":0,"soiltest_view_url":66},{"id":125522,"code":"B4KJ201801001-3771","latitude":"33.28448391","longitude":"134.1378906","source_code":"PORT39005010002","project_name":"\u6e2f\u6e7e\u5c40","survey_name":"\u5ba4\u6d25\u6e2f\u571f\u8cea\u8abf\u67fb","client_name":"\u56fd\u571f\u4ea4\u901a\u7701\u56db\u56fd\u5730\u65b9\u6574\u5099\u5c40\u9ad8\u677e\u6e2f\u6e7e\u7a7a\u6e2f\u6280\u8853\u8abf\u67fb\u4e8b\u52d9\u6240","boring_xml_url":0,"boring_view_url":0,"soilmap_view_url":66,"soiltest_xml_url":0,"soiltest_view_url":66},{"id":125521,"code":"B4KJ201801001-3770","latitude":"33.28337297","longitude":"134.1401127","source_code":"PORT39005010001","project_name":"\u6e2f\u6e7e\u5c40","survey_name":"\u5ba4\u6d25\u6e2f\u571f\u8cea\u8abf\u67fb","client_name":"\u56fd\u571f\u4ea4\u901a\u7701\u56db\u56fd\u5730\u65b9\u6574\u5099\u5c40\u9ad8\u677e\u6e2f\u6e7e\u7a7a\u6e2f\u6280\u8853\u8abf\u67fb\u4e8b\u52d9\u6240","boring_xml_url":0,"boring_view_url":0,"soilmap_view_url":66,"soiltest_xml_url":0,"soiltest_view_url":66},{"id":125520,"code":"B4KJ201801001-3769","latitude":"33.37558333","longitude":"133.2973889","source_code":"PORT39002010028","project_name":"\u6e2f\u6e7e\u5c40","survey_name":"\u9808\u5d0e\u6e2f\u6e7e\u53e3\u5730\u533a\u9632\u6ce2\u5824\u571f\u8cea\u8abf\u67fb","client_name":"\u56fd\u571f\u4ea4\u901a\u7701\u56db\u56fd\u5730\u65b9\u6574\u5099\u5c40\u9ad8\u677e\u6e2f\u6e7e\u7a7a\u6e2f\u6280\u8853\u8abf\u67fb\u4e8b\u52d9\u6240","boring_xml_url":0,"boring_view_url":0,"soilmap_view_url":66,"soiltest_xml_url":0,"soiltest_view_url":66},{"id":125519,"code":"B4KJ201801001-3768","latitude":"33.37624736","longitude":"133.2835265","source_code":"PORT39002010027","project_name":"\u6e2f\u6e7e\u5c40","survey_name":"\u9808\u5d0e\u6e2f\u6e7e\u53e3\u5730\u533a\u9632\u6ce2\u5824\u571f\u8cea\u8abf\u67fb","client_name":"\u56fd\u571f\u4ea4\u901a\u7701\u56db\u56fd\u5730\u65b9\u6574\u5099\u5c40\u9ad8\u677e\u6e2f\u6e7e\u7a7a\u6e2f\u6280\u8853\u8abf\u67fb\u4e8b\u52d9\u6240","boring_xml_url":0,"boring_view_url":0,"soilmap_view_url":66,"soiltest_xml_url":0,"soiltest_view_url":66},{"id":125518,"code":"B4KJ201801001-3767","latitude":"33.37661262","longitude":"133.2830505","source_code":"PORT39002010026","project_name":"\u6e2f\u6e7e\u5c40","survey_name":"\u9808\u5d0e\u6e2f\u6e7e\u53e3\u5730\u533a\u9632\u6ce2\u5824\u571f\u8cea\u8abf\u67fb","client_name":"\u56fd\u571f\u4ea4\u901a\u7701\u56db\u56fd\u5730\u65b9\u6574\u5099\u5c40\u9ad8\u677e\u6e2f\u6e7e\u7a7a\u6e2f\u6280\u8853\u8abf\u67fb\u4e8b\u52d9\u6240","boring_xml_url":0,"boring_view_url":0,"soilmap_view_url":66,"soiltest_xml_url":0,"soiltest_view_url":66},{"id":125517,"code":"B4KJ201801001-3766","latitude":"33.375883","longitude":"133.2840024","source_code":"PORT39002010025","project_name":"\u6e2f\u6e7e\u5c40","survey_name":"\u9808\u5d0e\u6e2f\u6e7e\u53e3\u5730\u533a\u9632\u6ce2\u5824\u571f\u8cea\u8abf\u67fb","client_name":"\u56fd\u571f\u4ea4\u901a\u7701\u56db\u56fd\u5730\u65b9\u6574\u5099\u5c40\u9ad8\u677e\u6e2f\u6e7e\u7a7a\u6e2f\u6280\u8853\u8abf\u67fb\u4e8b\u52d9\u6240","boring_xml_url":0,"boring_view_url":0,"soilmap_view_url":66,"soiltest_xml_url":0,"soiltest_view_url":66},{"id":125516,"code":"B4KJ201801001-3765","latitude":"33.37515337","longitude":"133.2849553","source_code":"PORT39002010024","project_name":"\u6e2f\u6e7e\u5c40","survey_name":"\u9808\u5d0e\u6e2f\u6e7e\u53e3\u5730\u533a\u9632\u6ce2\u5824\u571f\u8cea\u8abf\u67fb","client_name":"\u56fd\u571f\u4ea4\u901a\u7701\u56db\u56fd\u5730\u65b9\u6574\u5099\u5c40\u9ad8\u677e\u6e2f\u6e7e\u7a7a\u6e2f\u6280\u8853\u8abf\u67fb\u4e8b\u52d9\u6240","boring_xml_url":0,"boring_view_url":0,"soilmap_view_url":66,"soiltest_xml_url":0,"soiltest_view_url":66}]}}