{"header":{"xyz":{"source":[],"mosaic":false},"page":6502,"raw":{"soiltest_result":"0","bbox":"57.598333,109.544722,1.933333,163.806111","page":"6502"},"conditions":{"soiltest_result":0,"north":57.598333,"west":109.544722,"south":1.933333,"east":163.806111},"success":true,"message":""},"data":{"meta":{"total":212844,"page":6502,"pages":7095,"count":30},"values":[{"id":125515,"code":"B4KJ201801001-3764","latitude":"33.37442374","longitude":"133.2859082","source_code":"PORT39002010023","project_name":"\u6e2f\u6e7e\u5c40","survey_name":"\u9808\u5d0e\u6e2f\u6e7e\u53e3\u5730\u533a\u9632\u6ce2\u5824\u571f\u8cea\u8abf\u67fb","client_name":"\u56fd\u571f\u4ea4\u901a\u7701\u56db\u56fd\u5730\u65b9\u6574\u5099\u5c40\u9ad8\u677e\u6e2f\u6e7e\u7a7a\u6e2f\u6280\u8853\u8abf\u67fb\u4e8b\u52d9\u6240","boring_xml_url":0,"boring_view_url":0,"soilmap_view_url":66,"soiltest_xml_url":0,"soiltest_view_url":66},{"id":125514,"code":"B4KJ201801001-3763","latitude":"33.37528904","longitude":"133.2887957","source_code":"PORT39002010022","project_name":"\u6e2f\u6e7e\u5c40","survey_name":"\u9808\u5d0e\u6e2f\u6e7e\u53e3\u5730\u533a","client_name":"\u56fd\u571f\u4ea4\u901a\u7701\u56db\u56fd\u5730\u65b9\u6574\u5099\u5c40\u9ad8\u677e\u6e2f\u6e7e\u7a7a\u6e2f\u6280\u8853\u8abf\u67fb\u4e8b\u52d9\u6240","boring_xml_url":0,"boring_view_url":0,"soilmap_view_url":66,"soiltest_xml_url":0,"soiltest_view_url":66},{"id":125513,"code":"B4KJ201801001-3762","latitude":"33.37528909","longitude":"133.29074","source_code":"PORT39002010021","project_name":"\u6e2f\u6e7e\u5c40","survey_name":"\u9808\u5d0e\u6e2f\u6e7e\u53e3\u5730\u533a","client_name":"\u56fd\u571f\u4ea4\u901a\u7701\u56db\u56fd\u5730\u65b9\u6574\u5099\u5c40\u9ad8\u677e\u6e2f\u6e7e\u7a7a\u6e2f\u6280\u8853\u8abf\u67fb\u4e8b\u52d9\u6240","boring_xml_url":0,"boring_view_url":0,"soilmap_view_url":66,"soiltest_xml_url":0,"soiltest_view_url":66},{"id":125512,"code":"B4KJ201801001-3761","latitude":"33.37528661","longitude":"133.2932132","source_code":"PORT39002010020","project_name":"\u6e2f\u6e7e\u5c40","survey_name":"\u9808\u5d0e\u6e2f\u52e2\u4e95\u5730\u533a\u571f\u8cea\u8abf\u67fb60-11","client_name":"\u56fd\u571f\u4ea4\u901a\u7701\u56db\u56fd\u5730\u65b9\u6574\u5099\u5c40\u9ad8\u677e\u6e2f\u6e7e\u7a7a\u6e2f\u6280\u8853\u8abf\u67fb\u4e8b\u52d9\u6240","boring_xml_url":0,"boring_view_url":0,"soilmap_view_url":66,"soiltest_xml_url":0,"soiltest_view_url":66},{"id":125511,"code":"B4KJ201801001-3760","latitude":"33.37545144","longitude":"133.296323","source_code":"PORT39002010019","project_name":"\u6e2f\u6e7e\u5c40","survey_name":"\u9808\u5d0e\u52e2\u4e95\u5730\u533a\u571f\u8cea\u8abf\u67fb60-10","client_name":"\u56fd\u571f\u4ea4\u901a\u7701\u56db\u56fd\u5730\u65b9\u6574\u5099\u5c40\u9ad8\u677e\u6e2f\u6e7e\u7a7a\u6e2f\u6280\u8853\u8abf\u67fb\u4e8b\u52d9\u6240","boring_xml_url":0,"boring_view_url":0,"soilmap_view_url":66,"soiltest_xml_url":0,"soiltest_view_url":66},{"id":125510,"code":"B4KJ201801001-3759","latitude":"33.39209095","longitude":"133.3040732","source_code":"PORT39002010018","project_name":"\u6e2f\u6e7e\u5c40","survey_name":"\u9808\u5d0e\u6e2f\u4e32\u30ce\u6d66\u5730\u533a\u571f\u8cea\u8abf\u67fb60-9","client_name":"\u56fd\u571f\u4ea4\u901a\u7701\u56db\u56fd\u5730\u65b9\u6574\u5099\u5c40\u9ad8\u677e\u6e2f\u6e7e\u7a7a\u6e2f\u6280\u8853\u8abf\u67fb\u4e8b\u52d9\u6240","boring_xml_url":0,"boring_view_url":0,"soilmap_view_url":66,"soiltest_xml_url":0,"soiltest_view_url":66},{"id":125509,"code":"B4KJ201801001-3758","latitude":"33.39185867","longitude":"133.3036126","source_code":"PORT39002010017","project_name":"\u6e2f\u6e7e\u5c40","survey_name":"\u9808\u5d0e\u6e2f\u4e32\u30ce\u6d66\u5730\u533a\u571f\u8cea\u8abf\u67fb60-8","client_name":"\u56fd\u571f\u4ea4\u901a\u7701\u56db\u56fd\u5730\u65b9\u6574\u5099\u5c40\u9ad8\u677e\u6e2f\u6e7e\u7a7a\u6e2f\u6280\u8853\u8abf\u67fb\u4e8b\u52d9\u6240","boring_xml_url":0,"boring_view_url":0,"soilmap_view_url":66,"soiltest_xml_url":0,"soiltest_view_url":66},{"id":125508,"code":"B4KJ201801001-3757","latitude":"33.39162638","longitude":"133.3031519","source_code":"PORT39002010016","project_name":"\u6e2f\u6e7e\u5c40","survey_name":"\u9808\u5d0e\u6e2f\u4e32\u30ce\u6d66\u5730\u533a\u571f\u8cea\u8abf\u67fb60-6","client_name":"\u56fd\u571f\u4ea4\u901a\u7701\u56db\u56fd\u5730\u65b9\u6574\u5099\u5c40\u9ad8\u677e\u6e2f\u6e7e\u7a7a\u6e2f\u6280\u8853\u8abf\u67fb\u4e8b\u52d9\u6240","boring_xml_url":0,"boring_view_url":0,"soilmap_view_url":66,"soiltest_xml_url":0,"soiltest_view_url":66},{"id":125507,"code":"B4KJ201801001-3756","latitude":"33.39240712","longitude":"133.3026138","source_code":"PORT39002010015","project_name":"\u6e2f\u6e7e\u5c40","survey_name":"\u9808\u5d0e\u6e2f\u4e32\u30ce\u6d66\u5730\u533a\u571f\u8cea\u8abf\u67fb60-4","client_name":"\u56fd\u571f\u4ea4\u901a\u7701\u56db\u56fd\u5730\u65b9\u6574\u5099\u5c40\u9ad8\u677e\u6e2f\u6e7e\u7a7a\u6e2f\u6280\u8853\u8abf\u67fb\u4e8b\u52d9\u6240","boring_xml_url":0,"boring_view_url":0,"soilmap_view_url":66,"soiltest_xml_url":0,"soiltest_view_url":66},{"id":125506,"code":"B4KJ201801001-3755","latitude":"33.39318795","longitude":"133.3020756","source_code":"PORT39002010014","project_name":"\u6e2f\u6e7e\u5c40","survey_name":"\u9808\u5d0e\u6e2f\u4e32\u30ce\u6d66\u5730\u533a\u571f\u8cea\u8abf\u67fb60-2","client_name":"\u56fd\u571f\u4ea4\u901a\u7701\u56db\u56fd\u5730\u65b9\u6574\u5099\u5c40\u9ad8\u677e\u6e2f\u6e7e\u7a7a\u6e2f\u6280\u8853\u8abf\u67fb\u4e8b\u52d9\u6240","boring_xml_url":0,"boring_view_url":0,"soilmap_view_url":66,"soiltest_xml_url":0,"soiltest_view_url":66},{"id":125505,"code":"B4KJ201801001-3754","latitude":"33.39195412","longitude":"133.3024051","source_code":"PORT39002010011","project_name":"\u6e2f\u6e7e\u5c40","survey_name":"\u9808\u5d0e\u6e2f\u571f\u8cea\u8abf\u67fb\u4e32\u30ce\u6d66\u5730\u533a","client_name":"\u56fd\u571f\u4ea4\u901a\u7701\u56db\u56fd\u5730\u65b9\u6574\u5099\u5c40\u9ad8\u677e\u6e2f\u6e7e\u7a7a\u6e2f\u6280\u8853\u8abf\u67fb\u4e8b\u52d9\u6240","boring_xml_url":0,"boring_view_url":0,"soilmap_view_url":66,"soiltest_xml_url":0,"soiltest_view_url":66},{"id":125504,"code":"B4KJ201801001-3753","latitude":"33.39250963","longitude":"133.3032383","source_code":"PORT39002010010","project_name":"\u6e2f\u6e7e\u5c40","survey_name":"\u9808\u5d0e\u6e2f\u571f\u8cea\u8abf\u67fb\u4e32\u30ce\u6d66\u5730\u533a","client_name":"\u56fd\u571f\u4ea4\u901a\u7701\u56db\u56fd\u5730\u65b9\u6574\u5099\u5c40\u9ad8\u677e\u6e2f\u6e7e\u7a7a\u6e2f\u6280\u8853\u8abf\u67fb\u4e8b\u52d9\u6240","boring_xml_url":0,"boring_view_url":0,"soilmap_view_url":66,"soiltest_xml_url":0,"soiltest_view_url":66},{"id":125503,"code":"B4KJ201801001-3752","latitude":"33.39278738","longitude":"133.3035161","source_code":"PORT39002010009","project_name":"\u6e2f\u6e7e\u5c40","survey_name":"\u9808\u5d0e\u6e2f\u571f\u8cea\u8abf\u67fb\u4e32\u30ce\u6d66\u5730\u533a","client_name":"\u56fd\u571f\u4ea4\u901a\u7701\u56db\u56fd\u5730\u65b9\u6574\u5099\u5c40\u9ad8\u677e\u6e2f\u6e7e\u7a7a\u6e2f\u6280\u8853\u8abf\u67fb\u4e8b\u52d9\u6240","boring_xml_url":0,"boring_view_url":0,"soilmap_view_url":66,"soiltest_xml_url":0,"soiltest_view_url":66},{"id":125502,"code":"B4KJ201801001-3751","latitude":"33.39167638","longitude":"133.3029606","source_code":"PORT39002010008","project_name":"\u6e2f\u6e7e\u5c40","survey_name":"\u9808\u5d0e\u6e2f\u571f\u8cea\u8abf\u67fb\u4e32\u30ce\u6d66\u5730\u533a","client_name":"\u56fd\u571f\u4ea4\u901a\u7701\u56db\u56fd\u5730\u65b9\u6574\u5099\u5c40\u9ad8\u677e\u6e2f\u6e7e\u7a7a\u6e2f\u6280\u8853\u8abf\u67fb\u4e8b\u52d9\u6240","boring_xml_url":0,"boring_view_url":0,"soilmap_view_url":66,"soiltest_xml_url":0,"soiltest_view_url":66},{"id":125501,"code":"B4KJ201801001-3750","latitude":"33.39278736","longitude":"133.3024051","source_code":"PORT39002010007","project_name":"\u6e2f\u6e7e\u5c40","survey_name":"\u9808\u5d0e\u6e2f\u571f\u8cea\u8abf\u67fb\u4e32\u30ce\u6d66\u5730\u533a","client_name":"\u56fd\u571f\u4ea4\u901a\u7701\u56db\u56fd\u5730\u65b9\u6574\u5099\u5c40\u9ad8\u677e\u6e2f\u6e7e\u7a7a\u6e2f\u6280\u8853\u8abf\u67fb\u4e8b\u52d9\u6240","boring_xml_url":0,"boring_view_url":0,"soilmap_view_url":66,"soiltest_xml_url":0,"soiltest_view_url":66},{"id":125500,"code":"B4KJ201801001-3749","latitude":"33.39306509","longitude":"133.3018496","source_code":"PORT39002010006","project_name":"\u6e2f\u6e7e\u5c40","survey_name":"\u9808\u5d0e\u6e2f\u571f\u8cea\u8abf\u67fb\u4e32\u30ce\u6d66\u5730\u533a","client_name":"\u56fd\u571f\u4ea4\u901a\u7701\u56db\u56fd\u5730\u65b9\u6574\u5099\u5c40\u9ad8\u677e\u6e2f\u6e7e\u7a7a\u6e2f\u6280\u8853\u8abf\u67fb\u4e8b\u52d9\u6240","boring_xml_url":0,"boring_view_url":0,"soilmap_view_url":66,"soiltest_xml_url":0,"soiltest_view_url":66},{"id":125499,"code":"B4KJ201801001-3748","latitude":"33.37556684","longitude":"133.2912955","source_code":"PORT39002010005","project_name":"\u6e2f\u6e7e\u5c40","survey_name":"\u9808\u5d0e\u6e2f\u52e2\u4e95\u5730\u533a\u571f\u8cea\u8abf\u67fb","client_name":"\u56fd\u571f\u4ea4\u901a\u7701\u56db\u56fd\u5730\u65b9\u6574\u5099\u5c40\u9ad8\u677e\u6e2f\u6e7e\u7a7a\u6e2f\u6280\u8853\u8abf\u67fb\u4e8b\u52d9\u6240","boring_xml_url":0,"boring_view_url":0,"soilmap_view_url":66,"soiltest_xml_url":0,"soiltest_view_url":66},{"id":125498,"code":"B4KJ201801001-3747","latitude":"33.37556687","longitude":"133.2926842","source_code":"PORT39002010004","project_name":"\u6e2f\u6e7e\u5c40","survey_name":"\u9808\u5d0e\u6e2f\u52e2\u4e95\u5730\u533a\u571f\u8cea\u8abf\u67fb","client_name":"\u56fd\u571f\u4ea4\u901a\u7701\u56db\u56fd\u5730\u65b9\u6574\u5099\u5c40\u9ad8\u677e\u6e2f\u6e7e\u7a7a\u6e2f\u6280\u8853\u8abf\u67fb\u4e8b\u52d9\u6240","boring_xml_url":0,"boring_view_url":0,"soilmap_view_url":66,"soiltest_xml_url":0,"soiltest_view_url":66},{"id":125497,"code":"B4KJ201801001-3746","latitude":"33.37584471","longitude":"133.2968505","source_code":"PORT39002010002","project_name":"\u6e2f\u6e7e\u5c40","survey_name":"\u9808\u5d0e\u6e2f\u52e2\u4e95\u5730\u533a\u571f\u8cea\u8abf\u67fb","client_name":"\u56fd\u571f\u4ea4\u901a\u7701\u56db\u56fd\u5730\u65b9\u6574\u5099\u5c40\u9ad8\u677e\u6e2f\u6e7e\u7a7a\u6e2f\u6280\u8853\u8abf\u67fb\u4e8b\u52d9\u6240","boring_xml_url":0,"boring_view_url":0,"soilmap_view_url":66,"soiltest_xml_url":0,"soiltest_view_url":66},{"id":125496,"code":"B4KJ201801001-3745","latitude":"33.37528906","longitude":"133.2893512","source_code":"PORT39002010001","project_name":"\u6e2f\u6e7e\u5c40","survey_name":"\u9808\u5d0e\u6e2f\u52e2\u4e95\u5730\u533a\u571f\u8cea\u8abf\u67fb","client_name":"\u56fd\u571f\u4ea4\u901a\u7701\u56db\u56fd\u5730\u65b9\u6574\u5099\u5c40\u9ad8\u677e\u6e2f\u6e7e\u7a7a\u6e2f\u6280\u8853\u8abf\u67fb\u4e8b\u52d9\u6240","boring_xml_url":0,"boring_view_url":0,"soilmap_view_url":66,"soiltest_xml_url":0,"soiltest_view_url":66},{"id":125495,"code":"B4KJ201801001-3744","latitude":"33.49940833","longitude":"133.5826222","source_code":"PORT39001010096","project_name":"\u6e2f\u6e7e\u5c40","survey_name":"\u9ad8\u77e5\u6e2f\u4e09\u91cc\u5730\u533a\u9632\u6ce2\u5824(\u5357)\u571f\u8cea\u8abf\u67fb","client_name":"\u56fd\u571f\u4ea4\u901a\u7701\u56db\u56fd\u5730\u65b9\u6574\u5099\u5c40\u9ad8\u677e\u6e2f\u6e7e\u7a7a\u6e2f\u6280\u8853\u8abf\u67fb\u4e8b\u52d9\u6240","boring_xml_url":0,"boring_view_url":0,"soilmap_view_url":66,"soiltest_xml_url":0,"soiltest_view_url":66},{"id":125494,"code":"B4KJ201801001-3743","latitude":"33.53940429","longitude":"133.5605889","source_code":"PORT39001010095","project_name":"\u6e2f\u6e7e\u5c40","survey_name":"\u9ad8\u77e5\u6e2f\u8abf\u67fb\u59d4\u8a17\u696d\u52d9","client_name":"\u56fd\u571f\u4ea4\u901a\u7701\u56db\u56fd\u5730\u65b9\u6574\u5099\u5c40\u9ad8\u677e\u6e2f\u6e7e\u7a7a\u6e2f\u6280\u8853\u8abf\u67fb\u4e8b\u52d9\u6240","boring_xml_url":0,"boring_view_url":0,"soilmap_view_url":66,"soiltest_xml_url":0,"soiltest_view_url":66},{"id":125493,"code":"B4KJ201801001-3742","latitude":"33.53955741","longitude":"133.560912","source_code":"PORT39001010094","project_name":"\u6e2f\u6e7e\u5c40","survey_name":"\u9ad8\u77e5\u6e2f\u8abf\u67fb\u59d4\u8a17\u696d\u52d9","client_name":"\u56fd\u571f\u4ea4\u901a\u7701\u56db\u56fd\u5730\u65b9\u6574\u5099\u5c40\u9ad8\u677e\u6e2f\u6e7e\u7a7a\u6e2f\u6280\u8853\u8abf\u67fb\u4e8b\u52d9\u6240","boring_xml_url":0,"boring_view_url":0,"soilmap_view_url":66,"soiltest_xml_url":0,"soiltest_view_url":66},{"id":125492,"code":"B4KJ201801001-3741","latitude":"33.54066656","longitude":"133.5607621","source_code":"PORT39001010093","project_name":"\u6e2f\u6e7e\u5c40","survey_name":"\u9ad8\u77e5\u6e2f\u8abf\u67fb\u59d4\u8a17\u696d\u52d9","client_name":"\u56fd\u571f\u4ea4\u901a\u7701\u56db\u56fd\u5730\u65b9\u6574\u5099\u5c40\u9ad8\u677e\u6e2f\u6e7e\u7a7a\u6e2f\u6280\u8853\u8abf\u67fb\u4e8b\u52d9\u6240","boring_xml_url":0,"boring_view_url":0,"soilmap_view_url":66,"soiltest_xml_url":0,"soiltest_view_url":66},{"id":125491,"code":"B4KJ201801001-3740","latitude":"33.53888737","longitude":"133.5593225","source_code":"PORT39001010092","project_name":"\u6e2f\u6e7e\u5c40","survey_name":"\u9ad8\u77e5\u6e2f\u6f6e\u76ee\u5730\u533a\u5cb8\u58c1(-7.5m)\u571f\u8cea\u8abf\u67fb","client_name":"\u56fd\u571f\u4ea4\u901a\u7701\u56db\u56fd\u5730\u65b9\u6574\u5099\u5c40\u9ad8\u677e\u6e2f\u6e7e\u7a7a\u6e2f\u6280\u8853\u8abf\u67fb\u4e8b\u52d9\u6240","boring_xml_url":0,"boring_view_url":0,"soilmap_view_url":66,"soiltest_xml_url":0,"soiltest_view_url":66},{"id":125490,"code":"B4KJ201801001-3739","latitude":"33.53833189","longitude":"133.559878","source_code":"PORT39001010091","project_name":"\u6e2f\u6e7e\u5c40","survey_name":"\u9ad8\u77e5\u6e2f\u6f6e\u76ee\u5730\u533a\u5cb8\u58c1(-7.5m)\u571f\u8cea\u8abf\u67fb","client_name":"\u56fd\u571f\u4ea4\u901a\u7701\u56db\u56fd\u5730\u65b9\u6574\u5099\u5c40\u9ad8\u677e\u6e2f\u6e7e\u7a7a\u6e2f\u6280\u8853\u8abf\u67fb\u4e8b\u52d9\u6240","boring_xml_url":0,"boring_view_url":0,"soilmap_view_url":66,"soiltest_xml_url":0,"soiltest_view_url":66},{"id":125489,"code":"B4KJ201801001-3738","latitude":"33.53860963","longitude":"133.5593225","source_code":"PORT39001010090","project_name":"\u6e2f\u6e7e\u5c40","survey_name":"\u9ad8\u77e5\u6e2f\u6f6e\u76ee\u5730\u533a\u5cb8\u58c1(-7.5m)\u571f\u8cea\u8abf\u67fb","client_name":"\u56fd\u571f\u4ea4\u901a\u7701\u56db\u56fd\u5730\u65b9\u6574\u5099\u5c40\u9ad8\u677e\u6e2f\u6e7e\u7a7a\u6e2f\u6280\u8853\u8abf\u67fb\u4e8b\u52d9\u6240","boring_xml_url":0,"boring_view_url":0,"soilmap_view_url":66,"soiltest_xml_url":0,"soiltest_view_url":66},{"id":125488,"code":"B4KJ201801001-3737","latitude":"33.53888737","longitude":"133.5593225","source_code":"PORT39001010089","project_name":"\u6e2f\u6e7e\u5c40","survey_name":"\u9ad8\u77e5\u6e2f\u6f6e\u76ee\u5730\u533a\u5cb8\u58c1(-7.5m)\u571f\u8cea\u8abf\u67fb","client_name":"\u56fd\u571f\u4ea4\u901a\u7701\u56db\u56fd\u5730\u65b9\u6574\u5099\u5c40\u9ad8\u677e\u6e2f\u6e7e\u7a7a\u6e2f\u6280\u8853\u8abf\u67fb\u4e8b\u52d9\u6240","boring_xml_url":0,"boring_view_url":0,"soilmap_view_url":66,"soiltest_xml_url":0,"soiltest_view_url":66},{"id":125487,"code":"B4KJ201801001-3736","latitude":"33.53888741","longitude":"133.560989","source_code":"PORT39001010088","project_name":"\u6e2f\u6e7e\u5c40","survey_name":"\u9ad8\u77e5\u6e2f\u6f6e\u76ee\u5730\u533a\u5cb8\u58c1(-7.5m)\u571f\u8cea\u8abf\u67fb","client_name":"\u56fd\u571f\u4ea4\u901a\u7701\u56db\u56fd\u5730\u65b9\u6574\u5099\u5c40\u9ad8\u677e\u6e2f\u6e7e\u7a7a\u6e2f\u6280\u8853\u8abf\u67fb\u4e8b\u52d9\u6240","boring_xml_url":0,"boring_view_url":0,"soilmap_view_url":66,"soiltest_xml_url":0,"soiltest_view_url":66},{"id":125486,"code":"B4KJ201801001-3735","latitude":"33.53916515","longitude":"133.5607113","source_code":"PORT39001010087","project_name":"\u6e2f\u6e7e\u5c40","survey_name":"\u9ad8\u77e5\u6e2f\u6f6e\u76ee\u5730\u533a\u5cb8\u58c1(-7.5m)\u571f\u8cea\u8abf\u67fb","client_name":"\u56fd\u571f\u4ea4\u901a\u7701\u56db\u56fd\u5730\u65b9\u6574\u5099\u5c40\u9ad8\u677e\u6e2f\u6e7e\u7a7a\u6e2f\u6280\u8853\u8abf\u67fb\u4e8b\u52d9\u6240","boring_xml_url":0,"boring_view_url":0,"soilmap_view_url":66,"soiltest_xml_url":0,"soiltest_view_url":66}]}}