{"header":{"xyz":{"source":[],"mosaic":false},"page":6519,"raw":{"soiltest_result":"0","bbox":"57.598333,109.544722,1.933333,163.806111","page":"6519"},"conditions":{"soiltest_result":0,"north":57.598333,"west":109.544722,"south":1.933333,"east":163.806111},"success":true,"message":""},"data":{"meta":{"total":212844,"page":6519,"pages":7095,"count":30},"values":[{"id":125005,"code":"B4KJ201801001-3254","latitude":"33.99228191","longitude":"134.6165444","source_code":"PORT36001020101","project_name":"\u6e2f\u6e7e\u5c40","survey_name":"\u5c0f\u677e\u5cf6\u6e2f\u8d64\u77f3\u5730\u533a\u5cb8\u58c1(-13m)\u571f\u8cea\u8abf\u67fb","client_name":"\u56fd\u571f\u4ea4\u901a\u7701\u56db\u56fd\u5730\u65b9\u6574\u5099\u5c40\u9ad8\u677e\u6e2f\u6e7e\u7a7a\u6e2f\u6280\u8853\u8abf\u67fb\u4e8b\u52d9\u6240","boring_xml_url":0,"boring_view_url":0,"soilmap_view_url":66,"soiltest_xml_url":0,"soiltest_view_url":66},{"id":125004,"code":"B4KJ201801001-3253","latitude":"33.99223878","longitude":"134.6173231","source_code":"PORT36001020100","project_name":"\u6e2f\u6e7e\u5c40","survey_name":"\u5c0f\u677e\u5cf6\u6e2f\u8d64\u77f3\u5730\u533a\u5cb8\u58c1(-13m)\u571f\u8cea\u8abf\u67fb","client_name":"\u56fd\u571f\u4ea4\u901a\u7701\u56db\u56fd\u5730\u65b9\u6574\u5099\u5c40\u9ad8\u677e\u6e2f\u6e7e\u7a7a\u6e2f\u6280\u8853\u8abf\u67fb\u4e8b\u52d9\u6240","boring_xml_url":0,"boring_view_url":0,"soilmap_view_url":66,"soiltest_xml_url":0,"soiltest_view_url":66},{"id":125003,"code":"B4KJ201801001-3252","latitude":"33.99278318","longitude":"134.6169406","source_code":"PORT36001020099","project_name":"\u6e2f\u6e7e\u5c40","survey_name":"\u5c0f\u677e\u5cf6\u6e2f\u8d64\u77f3\u5730\u533a\u5cb8\u58c1(-13m)\u571f\u8cea\u8abf\u67fb","client_name":"\u56fd\u571f\u4ea4\u901a\u7701\u56db\u56fd\u5730\u65b9\u6574\u5099\u5c40\u9ad8\u677e\u6e2f\u6e7e\u7a7a\u6e2f\u6280\u8853\u8abf\u67fb\u4e8b\u52d9\u6240","boring_xml_url":0,"boring_view_url":0,"soilmap_view_url":66,"soiltest_xml_url":0,"soiltest_view_url":66},{"id":125002,"code":"B4KJ201801001-3251","latitude":"33.99255635","longitude":"134.6171","source_code":"PORT36001020098","project_name":"\u6e2f\u6e7e\u5c40","survey_name":"\u5c0f\u677e\u5cf6\u6e2f\u8d64\u77f3\u5730\u533a\u5cb8\u58c1(-13m)\u571f\u8cea\u8abf\u67fb","client_name":"\u56fd\u571f\u4ea4\u901a\u7701\u56db\u56fd\u5730\u65b9\u6574\u5099\u5c40\u9ad8\u677e\u6e2f\u6e7e\u7a7a\u6e2f\u6280\u8853\u8abf\u67fb\u4e8b\u52d9\u6240","boring_xml_url":0,"boring_view_url":0,"soilmap_view_url":66,"soiltest_xml_url":0,"soiltest_view_url":66},{"id":125001,"code":"B4KJ201801001-3250","latitude":"33.99283068","longitude":"134.6176664","source_code":"PORT36001020097","project_name":"\u6e2f\u6e7e\u5c40","survey_name":"\u5c0f\u677e\u5cf6\u6e2f\u8d64\u77f3\u5730\u533a\u5cb8\u58c1(-13m)\u571f\u8cea\u8abf\u67fb","client_name":"\u56fd\u571f\u4ea4\u901a\u7701\u56db\u56fd\u5730\u65b9\u6574\u5099\u5c40\u9ad8\u677e\u6e2f\u6e7e\u7a7a\u6e2f\u6280\u8853\u8abf\u67fb\u4e8b\u52d9\u6240","boring_xml_url":0,"boring_view_url":0,"soilmap_view_url":66,"soiltest_xml_url":0,"soiltest_view_url":66},{"id":125000,"code":"B4KJ201801001-3249","latitude":"33.99281419","longitude":"134.6184888","source_code":"PORT36001020096","project_name":"\u6e2f\u6e7e\u5c40","survey_name":"\u5c0f\u677e\u5cf6\u6e2f\u8d64\u77f3\u5730\u533a\u5cb8\u58c1(-13m)\u571f\u8cea\u8abf\u67fb","client_name":"\u56fd\u571f\u4ea4\u901a\u7701\u56db\u56fd\u5730\u65b9\u6574\u5099\u5c40\u9ad8\u677e\u6e2f\u6e7e\u7a7a\u6e2f\u6280\u8853\u8abf\u67fb\u4e8b\u52d9\u6240","boring_xml_url":0,"boring_view_url":0,"soilmap_view_url":66,"soiltest_xml_url":0,"soiltest_view_url":66},{"id":124999,"code":"B4KJ201801001-3248","latitude":"33.9933586","longitude":"134.6181062","source_code":"PORT36001020095","project_name":"\u6e2f\u6e7e\u5c40","survey_name":"\u5c0f\u677e\u5cf6\u6e2f\u8d64\u77f3\u5730\u533a\u5cb8\u58c1(-13m)\u571f\u8cea\u8abf\u67fb","client_name":"\u56fd\u571f\u4ea4\u901a\u7701\u56db\u56fd\u5730\u65b9\u6574\u5099\u5c40\u9ad8\u677e\u6e2f\u6e7e\u7a7a\u6e2f\u6280\u8853\u8abf\u67fb\u4e8b\u52d9\u6240","boring_xml_url":0,"boring_view_url":0,"soilmap_view_url":66,"soiltest_xml_url":0,"soiltest_view_url":66},{"id":124998,"code":"B4KJ201801001-3247","latitude":"34.04172564","longitude":"134.5982072","source_code":"PORT36001020094","project_name":"\u6e2f\u6e7e\u5c40","survey_name":"\u5c0f\u677e\u5cf6\u6e2f","client_name":"\u56fd\u571f\u4ea4\u901a\u7701\u56db\u56fd\u5730\u65b9\u6574\u5099\u5c40\u9ad8\u677e\u6e2f\u6e7e\u7a7a\u6e2f\u6280\u8853\u8abf\u67fb\u4e8b\u52d9\u6240","boring_xml_url":0,"boring_view_url":0,"soilmap_view_url":66,"soiltest_xml_url":0,"soiltest_view_url":66},{"id":124997,"code":"B4KJ201801001-3246","latitude":"34.04508223","longitude":"134.5999075","source_code":"PORT36001020093","project_name":"\u6e2f\u6e7e\u5c40","survey_name":"\u5c0f\u677e\u5cf6\u6e2f","client_name":"\u56fd\u571f\u4ea4\u901a\u7701\u56db\u56fd\u5730\u65b9\u6574\u5099\u5c40\u9ad8\u677e\u6e2f\u6e7e\u7a7a\u6e2f\u6280\u8853\u8abf\u67fb\u4e8b\u52d9\u6240","boring_xml_url":0,"boring_view_url":0,"soilmap_view_url":66,"soiltest_xml_url":0,"soiltest_view_url":66},{"id":124996,"code":"B4KJ201801001-3245","latitude":"34.04871436","longitude":"134.6070594","source_code":"PORT36001020092","project_name":"\u6e2f\u6e7e\u5c40","survey_name":"\u5c0f\u677e\u5cf6\u6e2f","client_name":"\u56fd\u571f\u4ea4\u901a\u7701\u56db\u56fd\u5730\u65b9\u6574\u5099\u5c40\u9ad8\u677e\u6e2f\u6e7e\u7a7a\u6e2f\u6280\u8853\u8abf\u67fb\u4e8b\u52d9\u6240","boring_xml_url":0,"boring_view_url":0,"soilmap_view_url":66,"soiltest_xml_url":0,"soiltest_view_url":66},{"id":124995,"code":"B4KJ201801001-3244","latitude":"34.04871074","longitude":"134.6134495","source_code":"PORT36001020091","project_name":"\u6e2f\u6e7e\u5c40","survey_name":"\u5c0f\u677e\u5cf6\u6e2f","client_name":"\u56fd\u571f\u4ea4\u901a\u7701\u56db\u56fd\u5730\u65b9\u6574\u5099\u5c40\u9ad8\u677e\u6e2f\u6e7e\u7a7a\u6e2f\u6280\u8853\u8abf\u67fb\u4e8b\u52d9\u6240","boring_xml_url":0,"boring_view_url":0,"soilmap_view_url":66,"soiltest_xml_url":0,"soiltest_view_url":66},{"id":124994,"code":"B4KJ201801001-3243","latitude":"34.00456905","longitude":"134.6178439","source_code":"PORT36001020090","project_name":"\u6e2f\u6e7e\u5c40","survey_name":"\u91d1\u78ef\u5730\u533a\u6e2f\u8def\u6cca\u5730(-11m)","client_name":"\u56fd\u571f\u4ea4\u901a\u7701\u56db\u56fd\u5730\u65b9\u6574\u5099\u5c40\u9ad8\u677e\u6e2f\u6e7e\u7a7a\u6e2f\u6280\u8853\u8abf\u67fb\u4e8b\u52d9\u6240","boring_xml_url":0,"boring_view_url":0,"soilmap_view_url":66,"soiltest_xml_url":0,"soiltest_view_url":66},{"id":124993,"code":"B4KJ201801001-3242","latitude":"33.99741424","longitude":"134.6166656","source_code":"PORT36001020089","project_name":"\u6e2f\u6e7e\u5c40","survey_name":"\u91d1\u78ef\u5730\u533a\u6e2f\u8def\u6cca\u5730(-11m)","client_name":"\u56fd\u571f\u4ea4\u901a\u7701\u56db\u56fd\u5730\u65b9\u6574\u5099\u5c40\u9ad8\u677e\u6e2f\u6e7e\u7a7a\u6e2f\u6280\u8853\u8abf\u67fb\u4e8b\u52d9\u6240","boring_xml_url":0,"boring_view_url":0,"soilmap_view_url":66,"soiltest_xml_url":0,"soiltest_view_url":66},{"id":124992,"code":"B4KJ201801001-3241","latitude":"34.00881791","longitude":"134.5979415","source_code":"PORT36001020088","project_name":"\u6e2f\u6e7e\u5c40","survey_name":"\u5c0f\u677e\u5cf6\u6e2f\u672c\u6e2f\u5730\u533a\u6771\u9632\u6ce2\u5824","client_name":"\u56fd\u571f\u4ea4\u901a\u7701\u56db\u56fd\u5730\u65b9\u6574\u5099\u5c40\u9ad8\u677e\u6e2f\u6e7e\u7a7a\u6e2f\u6280\u8853\u8abf\u67fb\u4e8b\u52d9\u6240","boring_xml_url":0,"boring_view_url":0,"soilmap_view_url":66,"soiltest_xml_url":0,"soiltest_view_url":66},{"id":124991,"code":"B4KJ201801001-3240","latitude":"34.00878846","longitude":"134.5982096","source_code":"PORT36001020087","project_name":"\u6e2f\u6e7e\u5c40","survey_name":"\u5c0f\u677e\u5cf6\u6e2f\u672c\u6e2f\u5730\u533a\u6771\u9632\u6ce2\u5824","client_name":"\u56fd\u571f\u4ea4\u901a\u7701\u56db\u56fd\u5730\u65b9\u6574\u5099\u5c40\u9ad8\u677e\u6e2f\u6e7e\u7a7a\u6e2f\u6280\u8853\u8abf\u67fb\u4e8b\u52d9\u6240","boring_xml_url":0,"boring_view_url":0,"soilmap_view_url":66,"soiltest_xml_url":0,"soiltest_view_url":66},{"id":124990,"code":"B4KJ201801001-3239","latitude":"34.00869731","longitude":"134.5984227","source_code":"PORT36001020086","project_name":"\u6e2f\u6e7e\u5c40","survey_name":"\u5c0f\u677e\u5cf6\u6e2f\u672c\u6e2f\u5730\u533a\u6771\u9632\u6ce2\u5824","client_name":"\u56fd\u571f\u4ea4\u901a\u7701\u56db\u56fd\u5730\u65b9\u6574\u5099\u5c40\u9ad8\u677e\u6e2f\u6e7e\u7a7a\u6e2f\u6280\u8853\u8abf\u67fb\u4e8b\u52d9\u6240","boring_xml_url":0,"boring_view_url":0,"soilmap_view_url":66,"soiltest_xml_url":0,"soiltest_view_url":66},{"id":124989,"code":"B4KJ201801001-3238","latitude":"34.00993911","longitude":"134.5982807","source_code":"PORT36001020085","project_name":"\u6e2f\u6e7e\u5c40","survey_name":"\u5c0f\u677e\u5cf6\u6e2f\u672c\u6e2f\u5730\u533a\u6771\u9632\u6ce2\u5824","client_name":"\u56fd\u571f\u4ea4\u901a\u7701\u56db\u56fd\u5730\u65b9\u6574\u5099\u5c40\u9ad8\u677e\u6e2f\u6e7e\u7a7a\u6e2f\u6280\u8853\u8abf\u67fb\u4e8b\u52d9\u6240","boring_xml_url":0,"boring_view_url":0,"soilmap_view_url":66,"soiltest_xml_url":0,"soiltest_view_url":66},{"id":124988,"code":"B4KJ201801001-3237","latitude":"34.00991046","longitude":"134.59846","source_code":"PORT36001020084","project_name":"\u6e2f\u6e7e\u5c40","survey_name":"\u5c0f\u677e\u5cf6\u6e2f\u672c\u6e2f\u5730\u533a\u6771\u9632\u6ce2\u5824","client_name":"\u56fd\u571f\u4ea4\u901a\u7701\u56db\u56fd\u5730\u65b9\u6574\u5099\u5c40\u9ad8\u677e\u6e2f\u6e7e\u7a7a\u6e2f\u6280\u8853\u8abf\u67fb\u4e8b\u52d9\u6240","boring_xml_url":0,"boring_view_url":0,"soilmap_view_url":66,"soiltest_xml_url":0,"soiltest_view_url":66},{"id":124987,"code":"B4KJ201801001-3236","latitude":"34.00981844","longitude":"134.5987695","source_code":"PORT36001020083","project_name":"\u6e2f\u6e7e\u5c40","survey_name":"\u5c0f\u677e\u5cf6\u6e2f\u672c\u6e2f\u5730\u533a\u6771\u9632\u6ce2\u5824","client_name":"\u56fd\u571f\u4ea4\u901a\u7701\u56db\u56fd\u5730\u65b9\u6574\u5099\u5c40\u9ad8\u677e\u6e2f\u6e7e\u7a7a\u6e2f\u6280\u8853\u8abf\u67fb\u4e8b\u52d9\u6240","boring_xml_url":0,"boring_view_url":0,"soilmap_view_url":66,"soiltest_xml_url":0,"soiltest_view_url":66},{"id":124986,"code":"B4KJ201801001-3235","latitude":"34.01108333","longitude":"134.5986678","source_code":"PORT36001020082","project_name":"\u6e2f\u6e7e\u5c40","survey_name":"\u5c0f\u677e\u5cf6\u6e2f\u672c\u6e2f\u5730\u533a\u9632\u6ce2\u5824","client_name":"\u56fd\u571f\u4ea4\u901a\u7701\u56db\u56fd\u5730\u65b9\u6574\u5099\u5c40\u9ad8\u677e\u6e2f\u6e7e\u7a7a\u6e2f\u6280\u8853\u8abf\u67fb\u4e8b\u52d9\u6240","boring_xml_url":0,"boring_view_url":0,"soilmap_view_url":66,"soiltest_xml_url":0,"soiltest_view_url":66},{"id":124985,"code":"B4KJ201801001-3234","latitude":"34.01108141","longitude":"134.5988821","source_code":"PORT36001020081","project_name":"\u6e2f\u6e7e\u5c40","survey_name":"\u5c0f\u677e\u5cf6\u6e2f\u672c\u6e2f\u5730\u533a\u9632\u6ce2\u5824","client_name":"\u56fd\u571f\u4ea4\u901a\u7701\u56db\u56fd\u5730\u65b9\u6574\u5099\u5c40\u9ad8\u677e\u6e2f\u6e7e\u7a7a\u6e2f\u6280\u8853\u8abf\u67fb\u4e8b\u52d9\u6240","boring_xml_url":0,"boring_view_url":0,"soilmap_view_url":66,"soiltest_xml_url":0,"soiltest_view_url":66},{"id":124984,"code":"B4KJ201801001-3233","latitude":"34.01099067","longitude":"134.5991495","source_code":"PORT36001020080","project_name":"\u6e2f\u6e7e\u5c40","survey_name":"\u5c0f\u677e\u5cf6\u6e2f\u672c\u6e2f\u5730\u533a\u9632\u6ce2\u5824","client_name":"\u56fd\u571f\u4ea4\u901a\u7701\u56db\u56fd\u5730\u65b9\u6574\u5099\u5c40\u9ad8\u677e\u6e2f\u6e7e\u7a7a\u6e2f\u6280\u8853\u8abf\u67fb\u4e8b\u52d9\u6240","boring_xml_url":0,"boring_view_url":0,"soilmap_view_url":66,"soiltest_xml_url":0,"soiltest_view_url":66},{"id":124983,"code":"B4KJ201801001-3232","latitude":"34.01197066","longitude":"134.5989477","source_code":"PORT36001020079","project_name":"\u6e2f\u6e7e\u5c40","survey_name":"\u5c0f\u677e\u5cf6\u6e2f\u672c\u6e2f\u5730\u533a\u9632\u6ce2\u5824","client_name":"\u56fd\u571f\u4ea4\u901a\u7701\u56db\u56fd\u5730\u65b9\u6574\u5099\u5c40\u9ad8\u677e\u6e2f\u6e7e\u7a7a\u6e2f\u6280\u8853\u8abf\u67fb\u4e8b\u52d9\u6240","boring_xml_url":0,"boring_view_url":0,"soilmap_view_url":66,"soiltest_xml_url":0,"soiltest_view_url":66},{"id":124982,"code":"B4KJ201801001-3231","latitude":"34.01192505","longitude":"134.5991074","source_code":"PORT36001020078","project_name":"\u6e2f\u6e7e\u5c40","survey_name":"\u5c0f\u677e\u5cf6\u6e2f\u672c\u6e2f\u5730\u533a\u9632\u6ce2\u5824","client_name":"\u56fd\u571f\u4ea4\u901a\u7701\u56db\u56fd\u5730\u65b9\u6574\u5099\u5c40\u9ad8\u677e\u6e2f\u6e7e\u7a7a\u6e2f\u6280\u8853\u8abf\u67fb\u4e8b\u52d9\u6240","boring_xml_url":0,"boring_view_url":0,"soilmap_view_url":66,"soiltest_xml_url":0,"soiltest_view_url":66},{"id":124981,"code":"B4KJ201801001-3230","latitude":"34.01187993","longitude":"134.599214","source_code":"PORT36001020077","project_name":"\u6e2f\u6e7e\u5c40","survey_name":"\u5c0f\u677e\u5cf6\u6e2f\u672c\u6e2f\u5730\u533a\u9632\u6ce2\u5824","client_name":"\u56fd\u571f\u4ea4\u901a\u7701\u56db\u56fd\u5730\u65b9\u6574\u5099\u5c40\u9ad8\u677e\u6e2f\u6e7e\u7a7a\u6e2f\u6280\u8853\u8abf\u67fb\u4e8b\u52d9\u6240","boring_xml_url":0,"boring_view_url":0,"soilmap_view_url":66,"soiltest_xml_url":0,"soiltest_view_url":66},{"id":124980,"code":"B4KJ201801001-3229","latitude":"34.01281382","longitude":"134.599226","source_code":"PORT36001020076","project_name":"\u6e2f\u6e7e\u5c40","survey_name":"\u5c0f\u677e\u5cf6\u6e2f\u672c\u6e2f\u5730\u533a\u9632\u6ce2\u5824","client_name":"\u56fd\u571f\u4ea4\u901a\u7701\u56db\u56fd\u5730\u65b9\u6574\u5099\u5c40\u9ad8\u677e\u6e2f\u6e7e\u7a7a\u6e2f\u6280\u8853\u8abf\u67fb\u4e8b\u52d9\u6240","boring_xml_url":0,"boring_view_url":0,"soilmap_view_url":66,"soiltest_xml_url":0,"soiltest_view_url":66},{"id":124979,"code":"B4KJ201801001-3228","latitude":"34.01276725","longitude":"134.5994939","source_code":"PORT36001020075","project_name":"\u6e2f\u6e7e\u5c40","survey_name":"\u5c0f\u677e\u5cf6\u6e2f\u672c\u6e2f\u5730\u533a\u9632\u6ce2\u5824","client_name":"\u56fd\u571f\u4ea4\u901a\u7701\u56db\u56fd\u5730\u65b9\u6574\u5099\u5c40\u9ad8\u677e\u6e2f\u6e7e\u7a7a\u6e2f\u6280\u8853\u8abf\u67fb\u4e8b\u52d9\u6240","boring_xml_url":0,"boring_view_url":0,"soilmap_view_url":66,"soiltest_xml_url":0,"soiltest_view_url":66},{"id":124978,"code":"B4KJ201801001-3227","latitude":"34.01272026","longitude":"134.5997076","source_code":"PORT36001020074","project_name":"\u6e2f\u6e7e\u5c40","survey_name":"\u5c0f\u677e\u5cf6\u6e2f\u672c\u6e2f\u5730\u533a\u9632\u6ce2\u5824","client_name":"\u56fd\u571f\u4ea4\u901a\u7701\u56db\u56fd\u5730\u65b9\u6574\u5099\u5c40\u9ad8\u677e\u6e2f\u6e7e\u7a7a\u6e2f\u6280\u8853\u8abf\u67fb\u4e8b\u52d9\u6240","boring_xml_url":0,"boring_view_url":0,"soilmap_view_url":66,"soiltest_xml_url":0,"soiltest_view_url":66},{"id":124977,"code":"B4KJ201801001-3226","latitude":"34.01369972","longitude":"134.5996661","source_code":"PORT36001020073","project_name":"\u6e2f\u6e7e\u5c40","survey_name":"\u5c0f\u677e\u5cf6\u6e2f\u672c\u6e2f\u5730\u533a\u9632\u6ce2\u5824","client_name":"\u56fd\u571f\u4ea4\u901a\u7701\u56db\u56fd\u5730\u65b9\u6574\u5099\u5c40\u9ad8\u677e\u6e2f\u6e7e\u7a7a\u6e2f\u6280\u8853\u8abf\u67fb\u4e8b\u52d9\u6240","boring_xml_url":0,"boring_view_url":0,"soilmap_view_url":66,"soiltest_xml_url":0,"soiltest_view_url":66},{"id":124976,"code":"B4KJ201801001-3225","latitude":"34.01356342","longitude":"134.599987","source_code":"PORT36001020072","project_name":"\u6e2f\u6e7e\u5c40","survey_name":"\u5c0f\u677e\u5cf6\u6e2f\u672c\u6e2f\u5730\u533a\u9632\u6ce2\u5824","client_name":"\u56fd\u571f\u4ea4\u901a\u7701\u56db\u56fd\u5730\u65b9\u6574\u5099\u5c40\u9ad8\u677e\u6e2f\u6e7e\u7a7a\u6e2f\u6280\u8853\u8abf\u67fb\u4e8b\u52d9\u6240","boring_xml_url":0,"boring_view_url":0,"soilmap_view_url":66,"soiltest_xml_url":0,"soiltest_view_url":66}]}}