{"header":{"xyz":{"source":[],"mosaic":false},"page":6522,"raw":{"soiltest_result":"0","bbox":"57.598333,109.544722,1.933333,163.806111","page":"6522"},"conditions":{"soiltest_result":0,"north":57.598333,"west":109.544722,"south":1.933333,"east":163.806111},"success":true,"message":""},"data":{"meta":{"total":212844,"page":6522,"pages":7095,"count":30},"values":[{"id":124915,"code":"B4KJ201801001-3164","latitude":"33.99653391","longitude":"134.6139265","source_code":"PORT36001020011","project_name":"\u6e2f\u6e7e\u5c40","survey_name":"\u91d1\u78ef\u5730\u533a(-)9M\u5cb8\u58c1\u7bc9\u9020","client_name":"\u56fd\u571f\u4ea4\u901a\u7701\u56db\u56fd\u5730\u65b9\u6574\u5099\u5c40\u9ad8\u677e\u6e2f\u6e7e\u7a7a\u6e2f\u6280\u8853\u8abf\u67fb\u4e8b\u52d9\u6240","boring_xml_url":0,"boring_view_url":0,"soilmap_view_url":66,"soiltest_xml_url":0,"soiltest_view_url":66},{"id":124914,"code":"B4KJ201801001-3163","latitude":"33.99390127","longitude":"134.610948","source_code":"PORT36001020010","project_name":"\u6e2f\u6e7e\u5c40","survey_name":"\u91d1\u78ef\u5730\u533a(-)4M\u7269\u63da\u5834(\u5357","client_name":"\u56fd\u571f\u4ea4\u901a\u7701\u56db\u56fd\u5730\u65b9\u6574\u5099\u5c40\u9ad8\u677e\u6e2f\u6e7e\u7a7a\u6e2f\u6280\u8853\u8abf\u67fb\u4e8b\u52d9\u6240","boring_xml_url":0,"boring_view_url":0,"soilmap_view_url":66,"soiltest_xml_url":0,"soiltest_view_url":66},{"id":124913,"code":"B4KJ201801001-3162","latitude":"33.9934567","longitude":"134.6102604","source_code":"PORT36001020009","project_name":"\u6e2f\u6e7e\u5c40","survey_name":"\u91d1\u78ef\u5730\u533a(-)4M\u7269\u63da\u5834(\u5357","client_name":"\u56fd\u571f\u4ea4\u901a\u7701\u56db\u56fd\u5730\u65b9\u6574\u5099\u5c40\u9ad8\u677e\u6e2f\u6e7e\u7a7a\u6e2f\u6280\u8853\u8abf\u67fb\u4e8b\u52d9\u6240","boring_xml_url":0,"boring_view_url":0,"soilmap_view_url":66,"soiltest_xml_url":0,"soiltest_view_url":66},{"id":124912,"code":"B4KJ201801001-3161","latitude":"33.99640564","longitude":"134.6051573","source_code":"PORT36001020008","project_name":"\u6e2f\u6e7e\u5c40","survey_name":"\u91d1\u78ef\u5730\u533a(-)9M\u5cb8\u58c1\u571f\u8cea\u8abf\u67fb","client_name":"\u56fd\u571f\u4ea4\u901a\u7701\u56db\u56fd\u5730\u65b9\u6574\u5099\u5c40\u9ad8\u677e\u6e2f\u6e7e\u7a7a\u6e2f\u6280\u8853\u8abf\u67fb\u4e8b\u52d9\u6240","boring_xml_url":0,"boring_view_url":0,"soilmap_view_url":66,"soiltest_xml_url":0,"soiltest_view_url":66},{"id":124911,"code":"B4KJ201801001-3160","latitude":"33.9960522","longitude":"134.606365","source_code":"PORT36001020007","project_name":"\u6e2f\u6e7e\u5c40","survey_name":"\u91d1\u78ef\u5730\u533a(-)9M\u5cb8\u58c1\u571f\u8cea\u8abf\u67fb","client_name":"\u56fd\u571f\u4ea4\u901a\u7701\u56db\u56fd\u5730\u65b9\u6574\u5099\u5c40\u9ad8\u677e\u6e2f\u6e7e\u7a7a\u6e2f\u6280\u8853\u8abf\u67fb\u4e8b\u52d9\u6240","boring_xml_url":0,"boring_view_url":0,"soilmap_view_url":66,"soiltest_xml_url":0,"soiltest_view_url":66},{"id":124910,"code":"B4KJ201801001-3159","latitude":"33.99628599","longitude":"134.606433","source_code":"PORT36001020006","project_name":"\u6e2f\u6e7e\u5c40","survey_name":"\u91d1\u78ef\u5730\u533a(-)9M\u5cb8\u58c1\u571f\u8cea\u8abf\u67fb","client_name":"\u56fd\u571f\u4ea4\u901a\u7701\u56db\u56fd\u5730\u65b9\u6574\u5099\u5c40\u9ad8\u677e\u6e2f\u6e7e\u7a7a\u6e2f\u6280\u8853\u8abf\u67fb\u4e8b\u52d9\u6240","boring_xml_url":0,"boring_view_url":0,"soilmap_view_url":66,"soiltest_xml_url":0,"soiltest_view_url":66},{"id":124909,"code":"B4KJ201801001-3158","latitude":"33.99661239","longitude":"134.6052249","source_code":"PORT36001020005","project_name":"\u6e2f\u6e7e\u5c40","survey_name":"\u91d1\u78ef\u5730\u533a(-)9M\u5cb8\u58c1\u571f\u8cea\u8abf\u67fb","client_name":"\u56fd\u571f\u4ea4\u901a\u7701\u56db\u56fd\u5730\u65b9\u6574\u5099\u5c40\u9ad8\u677e\u6e2f\u6e7e\u7a7a\u6e2f\u6280\u8853\u8abf\u67fb\u4e8b\u52d9\u6240","boring_xml_url":0,"boring_view_url":0,"soilmap_view_url":66,"soiltest_xml_url":0,"soiltest_view_url":66},{"id":124908,"code":"B4KJ201801001-3157","latitude":"33.99224074","longitude":"134.6061316","source_code":"PORT36001020004","project_name":"\u6e2f\u6e7e\u5c40","survey_name":"\u91d1\u78ef\u5730\u533a(-)4M\u7269\u63da\u5834(\u5357","client_name":"\u56fd\u571f\u4ea4\u901a\u7701\u56db\u56fd\u5730\u65b9\u6574\u5099\u5c40\u9ad8\u677e\u6e2f\u6e7e\u7a7a\u6e2f\u6280\u8853\u8abf\u67fb\u4e8b\u52d9\u6240","boring_xml_url":0,"boring_view_url":0,"soilmap_view_url":66,"soiltest_xml_url":0,"soiltest_view_url":66},{"id":124907,"code":"B4KJ201801001-3156","latitude":"33.99179305","longitude":"134.6077926","source_code":"PORT36001020003","project_name":"\u6e2f\u6e7e\u5c40","survey_name":"\u91d1\u78ef\u5730\u533a(-)4M\u7269\u63da\u5834(\u5357","client_name":"\u56fd\u571f\u4ea4\u901a\u7701\u56db\u56fd\u5730\u65b9\u6574\u5099\u5c40\u9ad8\u677e\u6e2f\u6e7e\u7a7a\u6e2f\u6280\u8853\u8abf\u67fb\u4e8b\u52d9\u6240","boring_xml_url":0,"boring_view_url":0,"soilmap_view_url":66,"soiltest_xml_url":0,"soiltest_view_url":66},{"id":124906,"code":"B4KJ201801001-3155","latitude":"33.99201689","longitude":"134.6069621","source_code":"PORT36001020002","project_name":"\u6e2f\u6e7e\u5c40","survey_name":"\u91d1\u78ef\u5730\u533a(-)4M\u7269\u63da\u5834(\u5357","client_name":"\u56fd\u571f\u4ea4\u901a\u7701\u56db\u56fd\u5730\u65b9\u6574\u5099\u5c40\u9ad8\u677e\u6e2f\u6e7e\u7a7a\u6e2f\u6280\u8853\u8abf\u67fb\u4e8b\u52d9\u6240","boring_xml_url":0,"boring_view_url":0,"soilmap_view_url":66,"soiltest_xml_url":0,"soiltest_view_url":66},{"id":124905,"code":"B4KJ201801001-3154","latitude":"33.99311903","longitude":"134.60571","source_code":"PORT36001020001","project_name":"\u6e2f\u6e7e\u5c40","survey_name":"\u91d1\u78ef\u5730\u533a(-)4.0M\u897f\u7269\u63da\u5834","client_name":"\u56fd\u571f\u4ea4\u901a\u7701\u56db\u56fd\u5730\u65b9\u6574\u5099\u5c40\u9ad8\u677e\u6e2f\u6e7e\u7a7a\u6e2f\u6280\u8853\u8abf\u67fb\u4e8b\u52d9\u6240","boring_xml_url":0,"boring_view_url":0,"soilmap_view_url":66,"soiltest_xml_url":0,"soiltest_view_url":66},{"id":124904,"code":"B4KJ201801001-3153","latitude":"34.04754657","longitude":"134.6093923","source_code":"PORT36001010055","project_name":"\u6e2f\u6e7e\u5c40","survey_name":"\u6d25\u7530\u5730\u533a\u822a\u8def(-12m)\u6cca\u5730(-12m)","client_name":"\u56fd\u571f\u4ea4\u901a\u7701\u56db\u56fd\u5730\u65b9\u6574\u5099\u5c40\u9ad8\u677e\u6e2f\u6e7e\u7a7a\u6e2f\u6280\u8853\u8abf\u67fb\u4e8b\u52d9\u6240","boring_xml_url":0,"boring_view_url":0,"soilmap_view_url":66,"soiltest_xml_url":0,"soiltest_view_url":66},{"id":124903,"code":"B4KJ201801001-3152","latitude":"34.04873339","longitude":"134.6030371","source_code":"PORT36001010054","project_name":"\u6e2f\u6e7e\u5c40","survey_name":"\u6d25\u7530\u5730\u533a\u822a\u8def(-12m)\u6cca\u5730(-12m)","client_name":"\u56fd\u571f\u4ea4\u901a\u7701\u56db\u56fd\u5730\u65b9\u6574\u5099\u5c40\u9ad8\u677e\u6e2f\u6e7e\u7a7a\u6e2f\u6280\u8853\u8abf\u67fb\u4e8b\u52d9\u6240","boring_xml_url":0,"boring_view_url":0,"soilmap_view_url":66,"soiltest_xml_url":0,"soiltest_view_url":66},{"id":124902,"code":"B4KJ201801001-3151","latitude":"34.05075956","longitude":"134.5856753","source_code":"PORT36001010053","project_name":"\u6e2f\u6e7e\u5c40","survey_name":"\u30b1\u30fc\u30bd\u30f3\u30e4\u30fc\u30c9","client_name":"\u56fd\u571f\u4ea4\u901a\u7701\u56db\u56fd\u5730\u65b9\u6574\u5099\u5c40\u9ad8\u677e\u6e2f\u6e7e\u7a7a\u6e2f\u6280\u8853\u8abf\u67fb\u4e8b\u52d9\u6240","boring_xml_url":0,"boring_view_url":0,"soilmap_view_url":66,"soiltest_xml_url":0,"soiltest_view_url":66},{"id":124901,"code":"B4KJ201801001-3150","latitude":"34.06228357","longitude":"134.6079507","source_code":"PORT36001010052","project_name":"\u6e2f\u6e7e\u5c40","survey_name":"\u6c96\u6d32\u6e2f\u6e7e\u6539\u826f\u5de5\u4e8b","client_name":"\u56fd\u571f\u4ea4\u901a\u7701\u56db\u56fd\u5730\u65b9\u6574\u5099\u5c40\u9ad8\u677e\u6e2f\u6e7e\u7a7a\u6e2f\u6280\u8853\u8abf\u67fb\u4e8b\u52d9\u6240","boring_xml_url":0,"boring_view_url":0,"soilmap_view_url":66,"soiltest_xml_url":0,"soiltest_view_url":66},{"id":124900,"code":"B4KJ201801001-3149","latitude":"34.06271953","longitude":"134.6095921","source_code":"PORT36001010051","project_name":"\u6e2f\u6e7e\u5c40","survey_name":"\u6c96\u6d32\u6e2f\u6e7e\u6539\u826f\u5de5\u4e8b","client_name":"\u56fd\u571f\u4ea4\u901a\u7701\u56db\u56fd\u5730\u65b9\u6574\u5099\u5c40\u9ad8\u677e\u6e2f\u6e7e\u7a7a\u6e2f\u6280\u8853\u8abf\u67fb\u4e8b\u52d9\u6240","boring_xml_url":0,"boring_view_url":0,"soilmap_view_url":66,"soiltest_xml_url":0,"soiltest_view_url":66},{"id":124899,"code":"B4KJ201801001-3148","latitude":"34.05051887","longitude":"134.6044925","source_code":"PORT36001010050","project_name":"\u6e2f\u6e7e\u5c40","survey_name":"\u5c0f\u677e\u5cf6\u6e2f\u6c96\u6d32\u9632\u6ce2\u5824\u571f\u8cea\u8abf\u67fb2-1","client_name":"\u56fd\u571f\u4ea4\u901a\u7701\u56db\u56fd\u5730\u65b9\u6574\u5099\u5c40\u9ad8\u677e\u6e2f\u6e7e\u7a7a\u6e2f\u6280\u8853\u8abf\u67fb\u4e8b\u52d9\u6240","boring_xml_url":0,"boring_view_url":0,"soilmap_view_url":66,"soiltest_xml_url":0,"soiltest_view_url":66},{"id":124898,"code":"B4KJ201801001-3147","latitude":"34.05893888","longitude":"134.6029353","source_code":"PORT36001010049","project_name":"\u6e2f\u6e7e\u5c40","survey_name":"\u6c96\u6d32\u6e2f\u6e7e\u74b0\u5883\u6574\u5099","client_name":"\u56fd\u571f\u4ea4\u901a\u7701\u56db\u56fd\u5730\u65b9\u6574\u5099\u5c40\u9ad8\u677e\u6e2f\u6e7e\u7a7a\u6e2f\u6280\u8853\u8abf\u67fb\u4e8b\u52d9\u6240","boring_xml_url":0,"boring_view_url":0,"soilmap_view_url":66,"soiltest_xml_url":0,"soiltest_view_url":66},{"id":124897,"code":"B4KJ201801001-3146","latitude":"34.05823871","longitude":"134.6046052","source_code":"PORT36001010048","project_name":"\u6e2f\u6e7e\u5c40","survey_name":"\u6c96\u6d32\u6e2f\u6e7e\u74b0\u5883\u6574\u5099","client_name":"\u56fd\u571f\u4ea4\u901a\u7701\u56db\u56fd\u5730\u65b9\u6574\u5099\u5c40\u9ad8\u677e\u6e2f\u6e7e\u7a7a\u6e2f\u6280\u8853\u8abf\u67fb\u4e8b\u52d9\u6240","boring_xml_url":0,"boring_view_url":0,"soilmap_view_url":66,"soiltest_xml_url":0,"soiltest_view_url":66},{"id":124896,"code":"B4KJ201801001-3145","latitude":"34.06016764","longitude":"134.6056485","source_code":"PORT36001010047","project_name":"\u6e2f\u6e7e\u5c40","survey_name":"\u6c96\u6d32\u6e2f\u6e7e\u74b0\u5883\u6574\u5099","client_name":"\u56fd\u571f\u4ea4\u901a\u7701\u56db\u56fd\u5730\u65b9\u6574\u5099\u5c40\u9ad8\u677e\u6e2f\u6e7e\u7a7a\u6e2f\u6280\u8853\u8abf\u67fb\u4e8b\u52d9\u6240","boring_xml_url":0,"boring_view_url":0,"soilmap_view_url":66,"soiltest_xml_url":0,"soiltest_view_url":66},{"id":124895,"code":"B4KJ201801001-3144","latitude":"34.06170267","longitude":"134.6063833","source_code":"PORT36001010046","project_name":"\u6e2f\u6e7e\u5c40","survey_name":"\u6c96\u6d32\u6e2f\u6e7e\u74b0\u5883\u6574\u5099","client_name":"\u56fd\u571f\u4ea4\u901a\u7701\u56db\u56fd\u5730\u65b9\u6574\u5099\u5c40\u9ad8\u677e\u6e2f\u6e7e\u7a7a\u6e2f\u6280\u8853\u8abf\u67fb\u4e8b\u52d9\u6240","boring_xml_url":0,"boring_view_url":0,"soilmap_view_url":66,"soiltest_xml_url":0,"soiltest_view_url":66},{"id":124894,"code":"B4KJ201801001-3143","latitude":"34.06252044","longitude":"134.6046716","source_code":"PORT36001010045","project_name":"\u6e2f\u6e7e\u5c40","survey_name":"\u6c96\u6d32\u6e2f\u6e7e\u74b0\u5883\u6574\u5099","client_name":"\u56fd\u571f\u4ea4\u901a\u7701\u56db\u56fd\u5730\u65b9\u6574\u5099\u5c40\u9ad8\u677e\u6e2f\u6e7e\u7a7a\u6e2f\u6280\u8853\u8abf\u67fb\u4e8b\u52d9\u6240","boring_xml_url":0,"boring_view_url":0,"soilmap_view_url":66,"soiltest_xml_url":0,"soiltest_view_url":66},{"id":124893,"code":"B4KJ201801001-3142","latitude":"34.06313231","longitude":"134.6027947","source_code":"PORT36001010044","project_name":"\u6e2f\u6e7e\u5c40","survey_name":"\u6c96\u6d32\u6e2f\u6e7e\u74b0\u5883\u6574\u5099","client_name":"\u56fd\u571f\u4ea4\u901a\u7701\u56db\u56fd\u5730\u65b9\u6574\u5099\u5c40\u9ad8\u677e\u6e2f\u6e7e\u7a7a\u6e2f\u6280\u8853\u8abf\u67fb\u4e8b\u52d9\u6240","boring_xml_url":0,"boring_view_url":0,"soilmap_view_url":66,"soiltest_xml_url":0,"soiltest_view_url":66},{"id":124892,"code":"B4KJ201801001-3141","latitude":"34.05643577","longitude":"134.6035853","source_code":"PORT36001010043","project_name":"\u6e2f\u6e7e\u5c40","survey_name":"\u6c96\u6d32\u571f\u8cea\u8abf\u67fb","client_name":"\u56fd\u571f\u4ea4\u901a\u7701\u56db\u56fd\u5730\u65b9\u6574\u5099\u5c40\u9ad8\u677e\u6e2f\u6e7e\u7a7a\u6e2f\u6280\u8853\u8abf\u67fb\u4e8b\u52d9\u6240","boring_xml_url":0,"boring_view_url":0,"soilmap_view_url":66,"soiltest_xml_url":0,"soiltest_view_url":66},{"id":124891,"code":"B4KJ201801001-3140","latitude":"34.05095104","longitude":"134.5887949","source_code":"PORT36001010042","project_name":"\u6e2f\u6e7e\u5c40","survey_name":"\u6d25\u7530\u5730\u533aKEISONYARDO","client_name":"\u56fd\u571f\u4ea4\u901a\u7701\u56db\u56fd\u5730\u65b9\u6574\u5099\u5c40\u9ad8\u677e\u6e2f\u6e7e\u7a7a\u6e2f\u6280\u8853\u8abf\u67fb\u4e8b\u52d9\u6240","boring_xml_url":0,"boring_view_url":0,"soilmap_view_url":66,"soiltest_xml_url":0,"soiltest_view_url":66},{"id":124890,"code":"B4KJ201801001-3139","latitude":"34.04333244","longitude":"134.6030148","source_code":"PORT36001010041","project_name":"\u6e2f\u6e7e\u5c40","survey_name":"\u6d25\u7530\u5730\u533a\u9632\u6ce2\u5824(\u5916)","client_name":"\u56fd\u571f\u4ea4\u901a\u7701\u56db\u56fd\u5730\u65b9\u6574\u5099\u5c40\u9ad8\u677e\u6e2f\u6e7e\u7a7a\u6e2f\u6280\u8853\u8abf\u67fb\u4e8b\u52d9\u6240","boring_xml_url":0,"boring_view_url":0,"soilmap_view_url":66,"soiltest_xml_url":0,"soiltest_view_url":66},{"id":124889,"code":"B4KJ201801001-3138","latitude":"34.04422078","longitude":"134.6034812","source_code":"PORT36001010040","project_name":"\u6e2f\u6e7e\u5c40","survey_name":"\u6d25\u7530\u5730\u533a\u9632\u6ce2\u5824(\u5916)","client_name":"\u56fd\u571f\u4ea4\u901a\u7701\u56db\u56fd\u5730\u65b9\u6574\u5099\u5c40\u9ad8\u677e\u6e2f\u6e7e\u7a7a\u6e2f\u6280\u8853\u8abf\u67fb\u4e8b\u52d9\u6240","boring_xml_url":0,"boring_view_url":0,"soilmap_view_url":66,"soiltest_xml_url":0,"soiltest_view_url":66},{"id":124888,"code":"B4KJ201801001-3137","latitude":"34.03745263","longitude":"134.5991809","source_code":"PORT36001010039","project_name":"\u6e2f\u6e7e\u5c40","survey_name":"\u6d25\u7530\u5730\u533a\u9632\u6ce2\u5824(\u5916)","client_name":"\u56fd\u571f\u4ea4\u901a\u7701\u56db\u56fd\u5730\u65b9\u6574\u5099\u5c40\u9ad8\u677e\u6e2f\u6e7e\u7a7a\u6e2f\u6280\u8853\u8abf\u67fb\u4e8b\u52d9\u6240","boring_xml_url":0,"boring_view_url":0,"soilmap_view_url":66,"soiltest_xml_url":0,"soiltest_view_url":66},{"id":124887,"code":"B4KJ201801001-3136","latitude":"34.03936689","longitude":"134.6008626","source_code":"PORT36001010038","project_name":"\u6e2f\u6e7e\u5c40","survey_name":"\u6d25\u7530\u5730\u533a\u9632\u6ce2\u5824(\u5916)","client_name":"\u56fd\u571f\u4ea4\u901a\u7701\u56db\u56fd\u5730\u65b9\u6574\u5099\u5c40\u9ad8\u677e\u6e2f\u6e7e\u7a7a\u6e2f\u6280\u8853\u8abf\u67fb\u4e8b\u52d9\u6240","boring_xml_url":0,"boring_view_url":0,"soilmap_view_url":66,"soiltest_xml_url":0,"soiltest_view_url":66},{"id":124886,"code":"B4KJ201801001-3135","latitude":"34.03974318","longitude":"134.6001202","source_code":"PORT36001010037","project_name":"\u6e2f\u6e7e\u5c40","survey_name":"\u6d25\u7530\u5730\u533a\u9632\u6ce2\u5824(\u5916)","client_name":"\u56fd\u571f\u4ea4\u901a\u7701\u56db\u56fd\u5730\u65b9\u6574\u5099\u5c40\u9ad8\u677e\u6e2f\u6e7e\u7a7a\u6e2f\u6280\u8853\u8abf\u67fb\u4e8b\u52d9\u6240","boring_xml_url":0,"boring_view_url":0,"soilmap_view_url":66,"soiltest_xml_url":0,"soiltest_view_url":66}]}}