{"header":{"xyz":{"source":[],"mosaic":false},"page":6523,"raw":{"soiltest_result":"0","bbox":"57.598333,109.544722,1.933333,163.806111","page":"6523"},"conditions":{"soiltest_result":0,"north":57.598333,"west":109.544722,"south":1.933333,"east":163.806111},"success":true,"message":""},"data":{"meta":{"total":212844,"page":6523,"pages":7095,"count":30},"values":[{"id":124885,"code":"B4KJ201801001-3134","latitude":"34.04114583","longitude":"134.6015462","source_code":"PORT36001010036","project_name":"\u6e2f\u6e7e\u5c40","survey_name":"\u6d25\u7530\u5730\u533a\u9632\u6ce2\u5824(\u5916)","client_name":"\u56fd\u571f\u4ea4\u901a\u7701\u56db\u56fd\u5730\u65b9\u6574\u5099\u5c40\u9ad8\u677e\u6e2f\u6e7e\u7a7a\u6e2f\u6280\u8853\u8abf\u67fb\u4e8b\u52d9\u6240","boring_xml_url":0,"boring_view_url":0,"soilmap_view_url":66,"soiltest_xml_url":0,"soiltest_view_url":66},{"id":124884,"code":"B4KJ201801001-3133","latitude":"34.04627398","longitude":"134.5956774","source_code":"PORT36001010035","project_name":"\u6e2f\u6e7e\u5c40","survey_name":"\u6d25\u7530\u5730\u533a\u6cca\u5730(\u5206\u96e2\u5824)","client_name":"\u56fd\u571f\u4ea4\u901a\u7701\u56db\u56fd\u5730\u65b9\u6574\u5099\u5c40\u9ad8\u677e\u6e2f\u6e7e\u7a7a\u6e2f\u6280\u8853\u8abf\u67fb\u4e8b\u52d9\u6240","boring_xml_url":0,"boring_view_url":0,"soilmap_view_url":66,"soiltest_xml_url":0,"soiltest_view_url":66},{"id":124883,"code":"B4KJ201801001-3132","latitude":"34.04480505","longitude":"134.5966224","source_code":"PORT36001010034","project_name":"\u6e2f\u6e7e\u5c40","survey_name":"\u6d25\u7530\u5730\u533a\u6cca\u5730(\u5206\u96e2\u5824)","client_name":"\u56fd\u571f\u4ea4\u901a\u7701\u56db\u56fd\u5730\u65b9\u6574\u5099\u5c40\u9ad8\u677e\u6e2f\u6e7e\u7a7a\u6e2f\u6280\u8853\u8abf\u67fb\u4e8b\u52d9\u6240","boring_xml_url":0,"boring_view_url":0,"soilmap_view_url":66,"soiltest_xml_url":0,"soiltest_view_url":66},{"id":124882,"code":"B4KJ201801001-3131","latitude":"34.04289135","longitude":"134.595883","source_code":"PORT36001010033","project_name":"\u6e2f\u6e7e\u5c40","survey_name":"\u6d25\u7530\u5730\u533a\u6cca\u5730(\u5206\u96e2\u5824)","client_name":"\u56fd\u571f\u4ea4\u901a\u7701\u56db\u56fd\u5730\u65b9\u6574\u5099\u5c40\u9ad8\u677e\u6e2f\u6e7e\u7a7a\u6e2f\u6280\u8853\u8abf\u67fb\u4e8b\u52d9\u6240","boring_xml_url":0,"boring_view_url":0,"soilmap_view_url":66,"soiltest_xml_url":0,"soiltest_view_url":66},{"id":124881,"code":"B4KJ201801001-3130","latitude":"34.042091","longitude":"134.5956561","source_code":"PORT36001010032","project_name":"\u6e2f\u6e7e\u5c40","survey_name":"\u6d25\u7530\u5730\u533a\u6cca\u5730(\u5206\u96e2\u5824)","client_name":"\u56fd\u571f\u4ea4\u901a\u7701\u56db\u56fd\u5730\u65b9\u6574\u5099\u5c40\u9ad8\u677e\u6e2f\u6e7e\u7a7a\u6e2f\u6280\u8853\u8abf\u67fb\u4e8b\u52d9\u6240","boring_xml_url":0,"boring_view_url":0,"soilmap_view_url":66,"soiltest_xml_url":0,"soiltest_view_url":66},{"id":124880,"code":"B4KJ201801001-3129","latitude":"34.04026676","longitude":"134.5949937","source_code":"PORT36001010031","project_name":"\u6e2f\u6e7e\u5c40","survey_name":"\u6d25\u7530\u5730\u533a\u6cca\u5730(\u5206\u96e2\u5824)","client_name":"\u56fd\u571f\u4ea4\u901a\u7701\u56db\u56fd\u5730\u65b9\u6574\u5099\u5c40\u9ad8\u677e\u6e2f\u6e7e\u7a7a\u6e2f\u6280\u8853\u8abf\u67fb\u4e8b\u52d9\u6240","boring_xml_url":0,"boring_view_url":0,"soilmap_view_url":66,"soiltest_xml_url":0,"soiltest_view_url":66},{"id":124879,"code":"B4KJ201801001-3128","latitude":"34.03946664","longitude":"134.5937272","source_code":"PORT36001010030","project_name":"\u6e2f\u6e7e\u5c40","survey_name":"\u6d25\u7530\u5730\u533a\u6cca\u5730(\u5206\u96e2\u5824)","client_name":"\u56fd\u571f\u4ea4\u901a\u7701\u56db\u56fd\u5730\u65b9\u6574\u5099\u5c40\u9ad8\u677e\u6e2f\u6e7e\u7a7a\u6e2f\u6280\u8853\u8abf\u67fb\u4e8b\u52d9\u6240","boring_xml_url":0,"boring_view_url":0,"soilmap_view_url":66,"soiltest_xml_url":0,"soiltest_view_url":66},{"id":124878,"code":"B4KJ201801001-3127","latitude":"34.05443943","longitude":"134.6030179","source_code":"PORT36001010029","project_name":"\u6e2f\u6e7e\u5c40","survey_name":"\u6c96\u6d32\u9632\u6ce2\u5824","client_name":"\u56fd\u571f\u4ea4\u901a\u7701\u56db\u56fd\u5730\u65b9\u6574\u5099\u5c40\u9ad8\u677e\u6e2f\u6e7e\u7a7a\u6e2f\u6280\u8853\u8abf\u67fb\u4e8b\u52d9\u6240","boring_xml_url":0,"boring_view_url":0,"soilmap_view_url":66,"soiltest_xml_url":0,"soiltest_view_url":66},{"id":124877,"code":"B4KJ201801001-3126","latitude":"34.05373641","longitude":"134.6029979","source_code":"PORT36001010028","project_name":"\u6e2f\u6e7e\u5c40","survey_name":"\u6c96\u6d32\u9632\u6ce2\u5824","client_name":"\u56fd\u571f\u4ea4\u901a\u7701\u56db\u56fd\u5730\u65b9\u6574\u5099\u5c40\u9ad8\u677e\u6e2f\u6e7e\u7a7a\u6e2f\u6280\u8853\u8abf\u67fb\u4e8b\u52d9\u6240","boring_xml_url":0,"boring_view_url":0,"soilmap_view_url":66,"soiltest_xml_url":0,"soiltest_view_url":66},{"id":124876,"code":"B4KJ201801001-3125","latitude":"34.05085044","longitude":"134.6031122","source_code":"PORT36001010027","project_name":"\u6e2f\u6e7e\u5c40","survey_name":"\u6c96\u6d32\u9632\u6ce2\u5824","client_name":"\u56fd\u571f\u4ea4\u901a\u7701\u56db\u56fd\u5730\u65b9\u6574\u5099\u5c40\u9ad8\u677e\u6e2f\u6e7e\u7a7a\u6e2f\u6280\u8853\u8abf\u67fb\u4e8b\u52d9\u6240","boring_xml_url":0,"boring_view_url":0,"soilmap_view_url":66,"soiltest_xml_url":0,"soiltest_view_url":66},{"id":124875,"code":"B4KJ201801001-3124","latitude":"34.06187618","longitude":"134.6061364","source_code":"PORT36001010026","project_name":"\u6e2f\u6e7e\u5c40","survey_name":"\u770c\u5358\u6e2f\u6e7e\u57fa\u790e\u8cc7\u6599\u6c96\u6d32\u753a","client_name":"\u56fd\u571f\u4ea4\u901a\u7701\u56db\u56fd\u5730\u65b9\u6574\u5099\u5c40\u9ad8\u677e\u6e2f\u6e7e\u7a7a\u6e2f\u6280\u8853\u8abf\u67fb\u4e8b\u52d9\u6240","boring_xml_url":0,"boring_view_url":0,"soilmap_view_url":66,"soiltest_xml_url":0,"soiltest_view_url":66},{"id":124874,"code":"B4KJ201801001-3123","latitude":"34.06349949","longitude":"134.6120721","source_code":"PORT36001010025","project_name":"\u6e2f\u6e7e\u5c40","survey_name":"\u770c\u5358\u6e2f\u6e7e\u57fa\u790e\u8cc7\u6599\u6c96\u6d32\u753a","client_name":"\u56fd\u571f\u4ea4\u901a\u7701\u56db\u56fd\u5730\u65b9\u6574\u5099\u5c40\u9ad8\u677e\u6e2f\u6e7e\u7a7a\u6e2f\u6280\u8853\u8abf\u67fb\u4e8b\u52d9\u6240","boring_xml_url":0,"boring_view_url":0,"soilmap_view_url":66,"soiltest_xml_url":0,"soiltest_view_url":66},{"id":124873,"code":"B4KJ201801001-3122","latitude":"34.04586566","longitude":"134.5969826","source_code":"PORT36001010024","project_name":"\u6e2f\u6e7e\u5c40","survey_name":"\u6d25\u7530\u5730\u533a\u6cca\u5730(\u5206\u96e2\u5824)","client_name":"\u56fd\u571f\u4ea4\u901a\u7701\u56db\u56fd\u5730\u65b9\u6574\u5099\u5c40\u9ad8\u677e\u6e2f\u6e7e\u7a7a\u6e2f\u6280\u8853\u8abf\u67fb\u4e8b\u52d9\u6240","boring_xml_url":0,"boring_view_url":0,"soilmap_view_url":66,"soiltest_xml_url":0,"soiltest_view_url":66},{"id":124872,"code":"B4KJ201801001-3121","latitude":"34.03915196","longitude":"134.5946436","source_code":"PORT36001010023","project_name":"\u6e2f\u6e7e\u5c40","survey_name":"\u6d25\u7530\u5730\u533a\u6cca\u5730(\u5206\u96e2\u5824)","client_name":"\u56fd\u571f\u4ea4\u901a\u7701\u56db\u56fd\u5730\u65b9\u6574\u5099\u5c40\u9ad8\u677e\u6e2f\u6e7e\u7a7a\u6e2f\u6280\u8853\u8abf\u67fb\u4e8b\u52d9\u6240","boring_xml_url":0,"boring_view_url":0,"soilmap_view_url":66,"soiltest_xml_url":0,"soiltest_view_url":66},{"id":124871,"code":"B4KJ201801001-3120","latitude":"34.04611856","longitude":"134.6059859","source_code":"PORT36001010022","project_name":"\u6e2f\u6e7e\u5c40","survey_name":"\u6d25\u7530\u5730\u533a\u9632\u6ce2\u5824(\u5916)\u306a\u3069","client_name":"\u56fd\u571f\u4ea4\u901a\u7701\u56db\u56fd\u5730\u65b9\u6574\u5099\u5c40\u9ad8\u677e\u6e2f\u6e7e\u7a7a\u6e2f\u6280\u8853\u8abf\u67fb\u4e8b\u52d9\u6240","boring_xml_url":0,"boring_view_url":0,"soilmap_view_url":66,"soiltest_xml_url":0,"soiltest_view_url":66},{"id":124870,"code":"B4KJ201801001-3119","latitude":"34.04621416","longitude":"134.6073843","source_code":"PORT36001010021","project_name":"\u6e2f\u6e7e\u5c40","survey_name":"\u6d25\u7530\u5730\u533a\u9632\u6ce2\u5824(\u5916)\u306a\u3069","client_name":"\u56fd\u571f\u4ea4\u901a\u7701\u56db\u56fd\u5730\u65b9\u6574\u5099\u5c40\u9ad8\u677e\u6e2f\u6e7e\u7a7a\u6e2f\u6280\u8853\u8abf\u67fb\u4e8b\u52d9\u6240","boring_xml_url":0,"boring_view_url":0,"soilmap_view_url":66,"soiltest_xml_url":0,"soiltest_view_url":66},{"id":124869,"code":"B4KJ201801001-3118","latitude":"34.04630434","longitude":"134.6083819","source_code":"PORT36001010020","project_name":"\u6e2f\u6e7e\u5c40","survey_name":"\u6d25\u7530\u5730\u533a\u9632\u6ce2\u5824(\u5916)\u306a\u3069","client_name":"\u56fd\u571f\u4ea4\u901a\u7701\u56db\u56fd\u5730\u65b9\u6574\u5099\u5c40\u9ad8\u677e\u6e2f\u6e7e\u7a7a\u6e2f\u6280\u8853\u8abf\u67fb\u4e8b\u52d9\u6240","boring_xml_url":0,"boring_view_url":0,"soilmap_view_url":66,"soiltest_xml_url":0,"soiltest_view_url":66},{"id":124868,"code":"B4KJ201801001-3117","latitude":"34.04811369","longitude":"134.5956144","source_code":"PORT36001010019","project_name":"\u6e2f\u6e7e\u5c40","survey_name":"\u6d25\u7530\u5730\u533a\u5cb8\u58c1(-10M)","client_name":"\u56fd\u571f\u4ea4\u901a\u7701\u56db\u56fd\u5730\u65b9\u6574\u5099\u5c40\u9ad8\u677e\u6e2f\u6e7e\u7a7a\u6e2f\u6280\u8853\u8abf\u67fb\u4e8b\u52d9\u6240","boring_xml_url":0,"boring_view_url":0,"soilmap_view_url":66,"soiltest_xml_url":0,"soiltest_view_url":66},{"id":124867,"code":"B4KJ201801001-3116","latitude":"34.04853766","longitude":"134.5955874","source_code":"PORT36001010018","project_name":"\u6e2f\u6e7e\u5c40","survey_name":"\u6d25\u7530\u5730\u533a\u5cb8\u58c1(-10M)","client_name":"\u56fd\u571f\u4ea4\u901a\u7701\u56db\u56fd\u5730\u65b9\u6574\u5099\u5c40\u9ad8\u677e\u6e2f\u6e7e\u7a7a\u6e2f\u6280\u8853\u8abf\u67fb\u4e8b\u52d9\u6240","boring_xml_url":0,"boring_view_url":0,"soilmap_view_url":66,"soiltest_xml_url":0,"soiltest_view_url":66},{"id":124866,"code":"B4KJ201801001-3115","latitude":"34.04848203","longitude":"134.5957599","source_code":"PORT36001010017","project_name":"\u6e2f\u6e7e\u5c40","survey_name":"\u6d25\u7530\u5730\u533a\u5cb8\u58c1(-10M)","client_name":"\u56fd\u571f\u4ea4\u901a\u7701\u56db\u56fd\u5730\u65b9\u6574\u5099\u5c40\u9ad8\u677e\u6e2f\u6e7e\u7a7a\u6e2f\u6280\u8853\u8abf\u67fb\u4e8b\u52d9\u6240","boring_xml_url":0,"boring_view_url":0,"soilmap_view_url":66,"soiltest_xml_url":0,"soiltest_view_url":66},{"id":124865,"code":"B4KJ201801001-3114","latitude":"34.04877893","longitude":"134.5958288","source_code":"PORT36001010016","project_name":"\u6e2f\u6e7e\u5c40","survey_name":"\u6d25\u7530\u5730\u533a\u5cb8\u58c1(-10M)","client_name":"\u56fd\u571f\u4ea4\u901a\u7701\u56db\u56fd\u5730\u65b9\u6574\u5099\u5c40\u9ad8\u677e\u6e2f\u6e7e\u7a7a\u6e2f\u6280\u8853\u8abf\u67fb\u4e8b\u52d9\u6240","boring_xml_url":0,"boring_view_url":0,"soilmap_view_url":66,"soiltest_xml_url":0,"soiltest_view_url":66},{"id":124864,"code":"B4KJ201801001-3113","latitude":"34.04900168","longitude":"134.596124","source_code":"PORT36001010015","project_name":"\u6e2f\u6e7e\u5c40","survey_name":"\u6d25\u7530\u5730\u533a\u5cb8\u58c1(-10M)","client_name":"\u56fd\u571f\u4ea4\u901a\u7701\u56db\u56fd\u5730\u65b9\u6574\u5099\u5c40\u9ad8\u677e\u6e2f\u6e7e\u7a7a\u6e2f\u6280\u8853\u8abf\u67fb\u4e8b\u52d9\u6240","boring_xml_url":0,"boring_view_url":0,"soilmap_view_url":66,"soiltest_xml_url":0,"soiltest_view_url":66},{"id":124863,"code":"B4KJ201801001-3112","latitude":"34.04932726","longitude":"134.5960091","source_code":"PORT36001010014","project_name":"\u6e2f\u6e7e\u5c40","survey_name":"\u6d25\u7530\u5730\u533a\u5cb8\u58c1(-10M)","client_name":"\u56fd\u571f\u4ea4\u901a\u7701\u56db\u56fd\u5730\u65b9\u6574\u5099\u5c40\u9ad8\u677e\u6e2f\u6e7e\u7a7a\u6e2f\u6280\u8853\u8abf\u67fb\u4e8b\u52d9\u6240","boring_xml_url":0,"boring_view_url":0,"soilmap_view_url":66,"soiltest_xml_url":0,"soiltest_view_url":66},{"id":124862,"code":"B4KJ201801001-3111","latitude":"34.04233815","longitude":"134.602298","source_code":"PORT36001010013","project_name":"\u6e2f\u6e7e\u5c40","survey_name":"\u6d25\u7530\u5730\u533a\u9632\u6ce2\u5824(\u5916)","client_name":"\u56fd\u571f\u4ea4\u901a\u7701\u56db\u56fd\u5730\u65b9\u6574\u5099\u5c40\u9ad8\u677e\u6e2f\u6e7e\u7a7a\u6e2f\u6280\u8853\u8abf\u67fb\u4e8b\u52d9\u6240","boring_xml_url":0,"boring_view_url":0,"soilmap_view_url":66,"soiltest_xml_url":0,"soiltest_view_url":66},{"id":124861,"code":"B4KJ201801001-3110","latitude":"34.03553264","longitude":"134.5981382","source_code":"PORT36001010012","project_name":"\u6e2f\u6e7e\u5c40","survey_name":"\u6d25\u7530\u5730\u533a\u571f\u8cea\u8abf\u67fb","client_name":"\u56fd\u571f\u4ea4\u901a\u7701\u56db\u56fd\u5730\u65b9\u6574\u5099\u5c40\u9ad8\u677e\u6e2f\u6e7e\u7a7a\u6e2f\u6280\u8853\u8abf\u67fb\u4e8b\u52d9\u6240","boring_xml_url":0,"boring_view_url":0,"soilmap_view_url":66,"soiltest_xml_url":0,"soiltest_view_url":66},{"id":124860,"code":"B4KJ201801001-3109","latitude":"34.03858177","longitude":"134.5999427","source_code":"PORT36001010011","project_name":"\u6e2f\u6e7e\u5c40","survey_name":"\u6d25\u7530\u5730\u533a\u571f\u8cea\u8abf\u67fb","client_name":"\u56fd\u571f\u4ea4\u901a\u7701\u56db\u56fd\u5730\u65b9\u6574\u5099\u5c40\u9ad8\u677e\u6e2f\u6e7e\u7a7a\u6e2f\u6280\u8853\u8abf\u67fb\u4e8b\u52d9\u6240","boring_xml_url":0,"boring_view_url":0,"soilmap_view_url":66,"soiltest_xml_url":0,"soiltest_view_url":66},{"id":124859,"code":"B4KJ201801001-3108","latitude":"34.03954156","longitude":"134.6004858","source_code":"PORT36001010010","project_name":"\u6e2f\u6e7e\u5c40","survey_name":"\u6d25\u7530\u5730\u533a\u571f\u8cea\u8abf\u67fb","client_name":"\u56fd\u571f\u4ea4\u901a\u7701\u56db\u56fd\u5730\u65b9\u6574\u5099\u5c40\u9ad8\u677e\u6e2f\u6e7e\u7a7a\u6e2f\u6280\u8853\u8abf\u67fb\u4e8b\u52d9\u6240","boring_xml_url":0,"boring_view_url":0,"soilmap_view_url":66,"soiltest_xml_url":0,"soiltest_view_url":66},{"id":124858,"code":"B4KJ201801001-3107","latitude":"34.04083188","longitude":"134.6013688","source_code":"PORT36001010009","project_name":"\u6e2f\u6e7e\u5c40","survey_name":"\u6d25\u7530\u5730\u533a\u571f\u8cea\u8abf\u67fb","client_name":"\u56fd\u571f\u4ea4\u901a\u7701\u56db\u56fd\u5730\u65b9\u6574\u5099\u5c40\u9ad8\u677e\u6e2f\u6e7e\u7a7a\u6e2f\u6280\u8853\u8abf\u67fb\u4e8b\u52d9\u6240","boring_xml_url":0,"boring_view_url":0,"soilmap_view_url":66,"soiltest_xml_url":0,"soiltest_view_url":66},{"id":124857,"code":"B4KJ201801001-3106","latitude":"34.04322504","longitude":"134.6029268","source_code":"PORT36001010008","project_name":"\u6e2f\u6e7e\u5c40","survey_name":"\u6d25\u7530\u5730\u533a\u571f\u8cea\u8abf\u67fb","client_name":"\u56fd\u571f\u4ea4\u901a\u7701\u56db\u56fd\u5730\u65b9\u6574\u5099\u5c40\u9ad8\u677e\u6e2f\u6e7e\u7a7a\u6e2f\u6280\u8853\u8abf\u67fb\u4e8b\u52d9\u6240","boring_xml_url":0,"boring_view_url":0,"soilmap_view_url":66,"soiltest_xml_url":0,"soiltest_view_url":66},{"id":124856,"code":"B4KJ201801001-3105","latitude":"34.04517939","longitude":"134.6041543","source_code":"PORT36001010007","project_name":"\u6e2f\u6e7e\u5c40","survey_name":"\u6d25\u7530\u5730\u533a\u571f\u8cea\u8abf\u67fb","client_name":"\u56fd\u571f\u4ea4\u901a\u7701\u56db\u56fd\u5730\u65b9\u6574\u5099\u5c40\u9ad8\u677e\u6e2f\u6e7e\u7a7a\u6e2f\u6280\u8853\u8abf\u67fb\u4e8b\u52d9\u6240","boring_xml_url":0,"boring_view_url":0,"soilmap_view_url":66,"soiltest_xml_url":0,"soiltest_view_url":66}]}}