{"header":{"xyz":{"source":[],"mosaic":false},"page":6525,"raw":{"soiltest_result":"0","bbox":"57.598333,109.544722,1.933333,163.806111","page":"6525"},"conditions":{"soiltest_result":0,"north":57.598333,"west":109.544722,"south":1.933333,"east":163.806111},"success":true,"message":""},"data":{"meta":{"total":212844,"page":6525,"pages":7095,"count":30},"values":[{"id":124825,"code":"B4KJ201801001-3074","latitude":"34.37203929","longitude":"130.9959339","source_code":"PORT35015010006","project_name":"\u6e2f\u6e7e\u5c40","survey_name":"\u6cb9\u8c37\u6e2f\u6d77\u5cb8\u9ad8\u6f6e\u5bfe\u7b56\u8abf\u67fb","client_name":"\u56fd\u571f\u4ea4\u901a\u7701\u4e2d\u56fd\u5730\u65b9\u6574\u5099\u5c40\u5e83\u5cf6\u6e2f\u6e7e\u7a7a\u6e2f\u6280\u8853\u8abf\u67fb\u4e8b\u52d9\u6240","boring_xml_url":0,"boring_view_url":0,"soilmap_view_url":66,"soiltest_xml_url":0,"soiltest_view_url":66},{"id":124824,"code":"B4KJ201801001-3073","latitude":"34.36983434","longitude":"130.9916158","source_code":"PORT35015010005","project_name":"\u6e2f\u6e7e\u5c40","survey_name":"\u6cb9\u8c37\u6e2f\u6d77\u5cb8\u9ad8\u6f6e\u5bfe\u7b56\u8abf\u67fb","client_name":"\u56fd\u571f\u4ea4\u901a\u7701\u4e2d\u56fd\u5730\u65b9\u6574\u5099\u5c40\u5e83\u5cf6\u6e2f\u6e7e\u7a7a\u6e2f\u6280\u8853\u8abf\u67fb\u4e8b\u52d9\u6240","boring_xml_url":0,"boring_view_url":0,"soilmap_view_url":66,"soiltest_xml_url":0,"soiltest_view_url":66},{"id":124823,"code":"B4KJ201801001-3072","latitude":"34.36991619","longitude":"130.9916908","source_code":"PORT35015010004","project_name":"\u6e2f\u6e7e\u5c40","survey_name":"\u6cb9\u8c37\u6e2f\u6d77\u5cb8\u9ad8\u6f6e\u5bfe\u7b56\u8abf\u67fb","client_name":"\u56fd\u571f\u4ea4\u901a\u7701\u4e2d\u56fd\u5730\u65b9\u6574\u5099\u5c40\u5e83\u5cf6\u6e2f\u6e7e\u7a7a\u6e2f\u6280\u8853\u8abf\u67fb\u4e8b\u52d9\u6240","boring_xml_url":0,"boring_view_url":0,"soilmap_view_url":66,"soiltest_xml_url":0,"soiltest_view_url":66},{"id":124822,"code":"B4KJ201801001-3071","latitude":"34.38336698","longitude":"131.0347906","source_code":"PORT35015010003","project_name":"\u6e2f\u6e7e\u5c40","survey_name":"\u6cb9\u8c37\u6e2f\u6d77\u5cb8\u9ad8\u6f6e\u5bfe\u7b56\u8abf\u67fb","client_name":"\u56fd\u571f\u4ea4\u901a\u7701\u4e2d\u56fd\u5730\u65b9\u6574\u5099\u5c40\u5e83\u5cf6\u6e2f\u6e7e\u7a7a\u6e2f\u6280\u8853\u8abf\u67fb\u4e8b\u52d9\u6240","boring_xml_url":0,"boring_view_url":0,"soilmap_view_url":66,"soiltest_xml_url":0,"soiltest_view_url":66},{"id":124821,"code":"B4KJ201801001-3070","latitude":"34.38457453","longitude":"131.0347417","source_code":"PORT35015010002","project_name":"\u6e2f\u6e7e\u5c40","survey_name":"\u6cb9\u8c37\u6e2f\u6d77\u5cb8\u9ad8\u6f6e\u5bfe\u7b56\u8abf\u67fb","client_name":"\u56fd\u571f\u4ea4\u901a\u7701\u4e2d\u56fd\u5730\u65b9\u6574\u5099\u5c40\u5e83\u5cf6\u6e2f\u6e7e\u7a7a\u6e2f\u6280\u8853\u8abf\u67fb\u4e8b\u52d9\u6240","boring_xml_url":0,"boring_view_url":0,"soilmap_view_url":66,"soiltest_xml_url":0,"soiltest_view_url":66},{"id":124820,"code":"B4KJ201801001-3069","latitude":"34.38552295","longitude":"131.0339678","source_code":"PORT35015010001","project_name":"\u6e2f\u6e7e\u5c40","survey_name":"\u6cb9\u8c37\u6e2f\u6d77\u5cb8\u9ad8\u6f6e\u5bfe\u7b56\u8abf\u67fb","client_name":"\u56fd\u571f\u4ea4\u901a\u7701\u4e2d\u56fd\u5730\u65b9\u6574\u5099\u5c40\u5e83\u5cf6\u6e2f\u6e7e\u7a7a\u6e2f\u6280\u8853\u8abf\u67fb\u4e8b\u52d9\u6240","boring_xml_url":0,"boring_view_url":0,"soilmap_view_url":66,"soiltest_xml_url":0,"soiltest_view_url":66},{"id":124819,"code":"B4KJ201801001-3068","latitude":"33.97823272","longitude":"131.1589682","source_code":"PORT35006010039","project_name":"\u6e2f\u6e7e\u5c40","survey_name":"\u5c0f\u91ce\u7530\u6e2f\u9632\u6ce2\u5824\u7b2c2\u6b21","client_name":"\u56fd\u571f\u4ea4\u901a\u7701\u4e2d\u56fd\u5730\u65b9\u6574\u5099\u5c40\u5e83\u5cf6\u6e2f\u6e7e\u7a7a\u6e2f\u6280\u8853\u8abf\u67fb\u4e8b\u52d9\u6240","boring_xml_url":0,"boring_view_url":0,"soilmap_view_url":66,"soiltest_xml_url":0,"soiltest_view_url":66},{"id":124818,"code":"B4KJ201801001-3067","latitude":"33.98101016","longitude":"131.1581349","source_code":"PORT35006010038","project_name":"\u6e2f\u6e7e\u5c40","survey_name":"\u5c0f\u91ce\u7530\u6e2f\u9632\u6ce2\u5824\u7b2c2\u6b21","client_name":"\u56fd\u571f\u4ea4\u901a\u7701\u4e2d\u56fd\u5730\u65b9\u6574\u5099\u5c40\u5e83\u5cf6\u6e2f\u6e7e\u7a7a\u6e2f\u6280\u8853\u8abf\u67fb\u4e8b\u52d9\u6240","boring_xml_url":0,"boring_view_url":0,"soilmap_view_url":66,"soiltest_xml_url":0,"soiltest_view_url":66},{"id":124817,"code":"B4KJ201801001-3066","latitude":"33.98101017","longitude":"131.1586904","source_code":"PORT35006010037","project_name":"\u6e2f\u6e7e\u5c40","survey_name":"\u5c0f\u91ce\u7530\u6e2f\u9632\u6ce2\u5824\u7b2c2\u6b21","client_name":"\u56fd\u571f\u4ea4\u901a\u7701\u4e2d\u56fd\u5730\u65b9\u6574\u5099\u5c40\u5e83\u5cf6\u6e2f\u6e7e\u7a7a\u6e2f\u6280\u8853\u8abf\u67fb\u4e8b\u52d9\u6240","boring_xml_url":0,"boring_view_url":0,"soilmap_view_url":66,"soiltest_xml_url":0,"soiltest_view_url":66},{"id":124816,"code":"B4KJ201801001-3065","latitude":"33.98101018","longitude":"131.1592459","source_code":"PORT35006010036","project_name":"\u6e2f\u6e7e\u5c40","survey_name":"\u5c0f\u91ce\u7530\u6e2f\u9632\u6ce2\u5824\u7b2c2\u6b21","client_name":"\u56fd\u571f\u4ea4\u901a\u7701\u4e2d\u56fd\u5730\u65b9\u6574\u5099\u5c40\u5e83\u5cf6\u6e2f\u6e7e\u7a7a\u6e2f\u6280\u8853\u8abf\u67fb\u4e8b\u52d9\u6240","boring_xml_url":0,"boring_view_url":0,"soilmap_view_url":66,"soiltest_xml_url":0,"soiltest_view_url":66},{"id":124815,"code":"B4KJ201801001-3064","latitude":"33.9823989","longitude":"131.1586904","source_code":"PORT35006010035","project_name":"\u6e2f\u6e7e\u5c40","survey_name":"\u5c0f\u91ce\u7530\u6e2f\u9632\u6ce2\u5824\u7b2c2\u6b21","client_name":"\u56fd\u571f\u4ea4\u901a\u7701\u4e2d\u56fd\u5730\u65b9\u6574\u5099\u5c40\u5e83\u5cf6\u6e2f\u6e7e\u7a7a\u6e2f\u6280\u8853\u8abf\u67fb\u4e8b\u52d9\u6240","boring_xml_url":0,"boring_view_url":0,"soilmap_view_url":66,"soiltest_xml_url":0,"soiltest_view_url":66},{"id":124814,"code":"B4KJ201801001-3063","latitude":"33.93187464","longitude":"131.2327155","source_code":"PORT35005010030","project_name":"\u6e2f\u6e7e\u5c40","survey_name":"\u5b87\u90e8\u6e2f(\u672c\u6e2f\u5730\u533a)\u5cb8\u58c1(-12m)\u571f\u8cea\u8abf\u67fb(\u7b2c2\u6b21)","client_name":"\u56fd\u571f\u4ea4\u901a\u7701\u4e2d\u56fd\u5730\u65b9\u6574\u5099\u5c40\u5e83\u5cf6\u6e2f\u6e7e\u7a7a\u6e2f\u6280\u8853\u8abf\u67fb\u4e8b\u52d9\u6240","boring_xml_url":0,"boring_view_url":0,"soilmap_view_url":66,"soiltest_xml_url":0,"soiltest_view_url":66},{"id":124813,"code":"B4KJ201801001-3062","latitude":"33.93127364","longitude":"131.2326177","source_code":"PORT35005010029","project_name":"\u6e2f\u6e7e\u5c40","survey_name":"\u5b87\u90e8\u6e2f(\u672c\u6e2f\u5730\u533a)\u5cb8\u58c1(-12m)\u571f\u8cea\u8abf\u67fb(\u7b2c2\u6b21)","client_name":"\u56fd\u571f\u4ea4\u901a\u7701\u4e2d\u56fd\u5730\u65b9\u6574\u5099\u5c40\u5e83\u5cf6\u6e2f\u6e7e\u7a7a\u6e2f\u6280\u8853\u8abf\u67fb\u4e8b\u52d9\u6240","boring_xml_url":0,"boring_view_url":0,"soilmap_view_url":66,"soiltest_xml_url":0,"soiltest_view_url":66},{"id":124812,"code":"B4KJ201801001-3061","latitude":"33.93147473","longitude":"131.2324841","source_code":"PORT35005010028","project_name":"\u6e2f\u6e7e\u5c40","survey_name":"\u5b87\u90e8\u6e2f(\u672c\u6e2f\u5730\u533a)\u5cb8\u58c1(-12m)\u571f\u8cea\u8abf\u67fb(\u7b2c2\u6b21)","client_name":"\u56fd\u571f\u4ea4\u901a\u7701\u4e2d\u56fd\u5730\u65b9\u6574\u5099\u5c40\u5e83\u5cf6\u6e2f\u6e7e\u7a7a\u6e2f\u6280\u8853\u8abf\u67fb\u4e8b\u52d9\u6240","boring_xml_url":0,"boring_view_url":0,"soilmap_view_url":66,"soiltest_xml_url":0,"soiltest_view_url":66},{"id":124811,"code":"B4KJ201801001-3060","latitude":"33.93156564","longitude":"131.2322782","source_code":"PORT35005010027","project_name":"\u6e2f\u6e7e\u5c40","survey_name":"\u5b87\u90e8\u6e2f(\u672c\u6e2f\u5730\u533a)\u5cb8\u58c1(-12m)\u571f\u8cea\u8abf\u67fb(\u7b2c2\u6b21)","client_name":"\u56fd\u571f\u4ea4\u901a\u7701\u4e2d\u56fd\u5730\u65b9\u6574\u5099\u5c40\u5e83\u5cf6\u6e2f\u6e7e\u7a7a\u6e2f\u6280\u8853\u8abf\u67fb\u4e8b\u52d9\u6240","boring_xml_url":0,"boring_view_url":0,"soilmap_view_url":66,"soiltest_xml_url":0,"soiltest_view_url":66},{"id":124810,"code":"B4KJ201801001-3059","latitude":"33.93167988","longitude":"131.2321053","source_code":"PORT35005010026","project_name":"\u6e2f\u6e7e\u5c40","survey_name":"\u5b87\u90e8\u6e2f(\u672c\u6e2f\u5730\u533a)\u5cb8\u58c1(-12m)\u571f\u8cea\u8abf\u67fb(\u7b2c2\u6b21)","client_name":"\u56fd\u571f\u4ea4\u901a\u7701\u4e2d\u56fd\u5730\u65b9\u6574\u5099\u5c40\u5e83\u5cf6\u6e2f\u6e7e\u7a7a\u6e2f\u6280\u8853\u8abf\u67fb\u4e8b\u52d9\u6240","boring_xml_url":0,"boring_view_url":0,"soilmap_view_url":66,"soiltest_xml_url":0,"soiltest_view_url":66},{"id":124809,"code":"B4KJ201801001-3058","latitude":"33.93134994","longitude":"131.2319729","source_code":"PORT35005010025","project_name":"\u6e2f\u6e7e\u5c40","survey_name":"\u5b87\u90e8\u6e2f(\u672c\u6e2f\u5730\u533a)\u5cb8\u58c1(-12m)\u571f\u8cea\u8abf\u67fb(\u7b2c2\u6b21)","client_name":"\u56fd\u571f\u4ea4\u901a\u7701\u4e2d\u56fd\u5730\u65b9\u6574\u5099\u5c40\u5e83\u5cf6\u6e2f\u6e7e\u7a7a\u6e2f\u6280\u8853\u8abf\u67fb\u4e8b\u52d9\u6240","boring_xml_url":0,"boring_view_url":0,"soilmap_view_url":66,"soiltest_xml_url":0,"soiltest_view_url":66},{"id":124808,"code":"B4KJ201801001-3057","latitude":"33.93074894","longitude":"131.2318751","source_code":"PORT35005010024","project_name":"\u6e2f\u6e7e\u5c40","survey_name":"\u5b87\u90e8\u6e2f(\u672c\u6e2f\u5730\u533a)\u5cb8\u58c1(-12m)\u571f\u8cea\u8abf\u67fb","client_name":"\u56fd\u571f\u4ea4\u901a\u7701\u4e2d\u56fd\u5730\u65b9\u6574\u5099\u5c40\u5e83\u5cf6\u6e2f\u6e7e\u7a7a\u6e2f\u6280\u8853\u8abf\u67fb\u4e8b\u52d9\u6240","boring_xml_url":0,"boring_view_url":0,"soilmap_view_url":66,"soiltest_xml_url":0,"soiltest_view_url":66},{"id":124807,"code":"B4KJ201801001-3056","latitude":"33.93092087","longitude":"131.2317003","source_code":"PORT35005010023","project_name":"\u6e2f\u6e7e\u5c40","survey_name":"\u5b87\u90e8\u6e2f(\u672c\u6e2f\u5730\u533a)\u5cb8\u58c1(-12m)\u571f\u8cea\u8abf\u67fb","client_name":"\u56fd\u571f\u4ea4\u901a\u7701\u4e2d\u56fd\u5730\u65b9\u6574\u5099\u5c40\u5e83\u5cf6\u6e2f\u6e7e\u7a7a\u6e2f\u6280\u8853\u8abf\u67fb\u4e8b\u52d9\u6240","boring_xml_url":0,"boring_view_url":0,"soilmap_view_url":66,"soiltest_xml_url":0,"soiltest_view_url":66},{"id":124806,"code":"B4KJ201801001-3055","latitude":"33.93105843","longitude":"131.2315604","source_code":"PORT35005010022","project_name":"\u6e2f\u6e7e\u5c40","survey_name":"\u5b87\u90e8\u6e2f(\u672c\u6e2f\u5730\u533a)\u5cb8\u58c1(-12m)\u571f\u8cea\u8abf\u67fb","client_name":"\u56fd\u571f\u4ea4\u901a\u7701\u4e2d\u56fd\u5730\u65b9\u6574\u5099\u5c40\u5e83\u5cf6\u6e2f\u6e7e\u7a7a\u6e2f\u6280\u8853\u8abf\u67fb\u4e8b\u52d9\u6240","boring_xml_url":0,"boring_view_url":0,"soilmap_view_url":66,"soiltest_xml_url":0,"soiltest_view_url":66},{"id":124805,"code":"B4KJ201801001-3054","latitude":"33.93119598","longitude":"131.2314205","source_code":"PORT35005010021","project_name":"\u6e2f\u6e7e\u5c40","survey_name":"\u5b87\u90e8\u6e2f(\u672c\u6e2f\u5730\u533a)\u5cb8\u58c1(-12m)\u571f\u8cea\u8abf\u67fb","client_name":"\u56fd\u571f\u4ea4\u901a\u7701\u4e2d\u56fd\u5730\u65b9\u6574\u5099\u5c40\u5e83\u5cf6\u6e2f\u6e7e\u7a7a\u6e2f\u6280\u8853\u8abf\u67fb\u4e8b\u52d9\u6240","boring_xml_url":0,"boring_view_url":0,"soilmap_view_url":66,"soiltest_xml_url":0,"soiltest_view_url":66},{"id":124804,"code":"B4KJ201801001-3053","latitude":"33.93076692","longitude":"131.2311478","source_code":"PORT35005010020","project_name":"\u6e2f\u6e7e\u5c40","survey_name":"\u5b87\u90e8\u6e2f(\u672c\u6e2f\u5730\u533a)\u5cb8\u58c1(-12m)\u571f\u8cea\u8abf\u67fb","client_name":"\u56fd\u571f\u4ea4\u901a\u7701\u4e2d\u56fd\u5730\u65b9\u6574\u5099\u5c40\u5e83\u5cf6\u6e2f\u6e7e\u7a7a\u6e2f\u6280\u8853\u8abf\u67fb\u4e8b\u52d9\u6240","boring_xml_url":0,"boring_view_url":0,"soilmap_view_url":66,"soiltest_xml_url":0,"soiltest_view_url":66},{"id":124803,"code":"B4KJ201801001-3052","latitude":"33.93016592","longitude":"131.23105","source_code":"PORT35005010019","project_name":"\u6e2f\u6e7e\u5c40","survey_name":"\u5b87\u90e8\u6e2f(\u672c\u6e2f\u5730\u533a)\u5cb8\u58c1(-12m)\u571f\u8cea\u8abf\u67fb","client_name":"\u56fd\u571f\u4ea4\u901a\u7701\u4e2d\u56fd\u5730\u65b9\u6574\u5099\u5c40\u5e83\u5cf6\u6e2f\u6e7e\u7a7a\u6e2f\u6280\u8853\u8abf\u67fb\u4e8b\u52d9\u6240","boring_xml_url":0,"boring_view_url":0,"soilmap_view_url":66,"soiltest_xml_url":0,"soiltest_view_url":66},{"id":124802,"code":"B4KJ201801001-3051","latitude":"33.93033787","longitude":"131.2308752","source_code":"PORT35005010018","project_name":"\u6e2f\u6e7e\u5c40","survey_name":"\u5b87\u90e8\u6e2f(\u672c\u6e2f\u5730\u533a)\u5cb8\u58c1(-12m)\u571f\u8cea\u8abf\u67fb","client_name":"\u56fd\u571f\u4ea4\u901a\u7701\u4e2d\u56fd\u5730\u65b9\u6574\u5099\u5c40\u5e83\u5cf6\u6e2f\u6e7e\u7a7a\u6e2f\u6280\u8853\u8abf\u67fb\u4e8b\u52d9\u6240","boring_xml_url":0,"boring_view_url":0,"soilmap_view_url":66,"soiltest_xml_url":0,"soiltest_view_url":66},{"id":124801,"code":"B4KJ201801001-3050","latitude":"33.93047541","longitude":"131.2307353","source_code":"PORT35005010017","project_name":"\u6e2f\u6e7e\u5c40","survey_name":"\u5b87\u90e8\u6e2f(\u672c\u6e2f\u5730\u533a)\u5cb8\u58c1(-12m)\u571f\u8cea\u8abf\u67fb","client_name":"\u56fd\u571f\u4ea4\u901a\u7701\u4e2d\u56fd\u5730\u65b9\u6574\u5099\u5c40\u5e83\u5cf6\u6e2f\u6e7e\u7a7a\u6e2f\u6280\u8853\u8abf\u67fb\u4e8b\u52d9\u6240","boring_xml_url":0,"boring_view_url":0,"soilmap_view_url":66,"soiltest_xml_url":0,"soiltest_view_url":66},{"id":124800,"code":"B4KJ201801001-3049","latitude":"33.93061296","longitude":"131.2305954","source_code":"PORT35005010016","project_name":"\u6e2f\u6e7e\u5c40","survey_name":"\u5b87\u90e8\u6e2f(\u672c\u6e2f\u5730\u533a)\u5cb8\u58c1(-12m)\u571f\u8cea\u8abf\u67fb","client_name":"\u56fd\u571f\u4ea4\u901a\u7701\u4e2d\u56fd\u5730\u65b9\u6574\u5099\u5c40\u5e83\u5cf6\u6e2f\u6e7e\u7a7a\u6e2f\u6280\u8853\u8abf\u67fb\u4e8b\u52d9\u6240","boring_xml_url":0,"boring_view_url":0,"soilmap_view_url":66,"soiltest_xml_url":0,"soiltest_view_url":66},{"id":124799,"code":"B4KJ201801001-3048","latitude":"33.94295835","longitude":"131.2484977","source_code":"PORT35005010015","project_name":"\u6e2f\u6e7e\u5c40","survey_name":"\u5b87\u90e8\u6e2f\u6e2f\u6e7e\u6539\u4fee(\u6e2c\u91cf\u30fb\u8abf\u67fb)","client_name":"\u56fd\u571f\u4ea4\u901a\u7701\u4e2d\u56fd\u5730\u65b9\u6574\u5099\u5c40\u5e83\u5cf6\u6e2f\u6e7e\u7a7a\u6e2f\u6280\u8853\u8abf\u67fb\u4e8b\u52d9\u6240","boring_xml_url":0,"boring_view_url":0,"soilmap_view_url":66,"soiltest_xml_url":0,"soiltest_view_url":66},{"id":124798,"code":"B4KJ201801001-3047","latitude":"33.96322759","longitude":"131.2260531","source_code":"PORT35005010014","project_name":"\u6e2f\u6e7e\u5c40","survey_name":"\u5b87\u90e8\u6e2f\u6d77\u5cb8\u9ad8\u6f6e\u5bfe\u7b56\u5bfe\u7b56\u8abf\u67fb","client_name":"\u56fd\u571f\u4ea4\u901a\u7701\u4e2d\u56fd\u5730\u65b9\u6574\u5099\u5c40\u5e83\u5cf6\u6e2f\u6e7e\u7a7a\u6e2f\u6280\u8853\u8abf\u67fb\u4e8b\u52d9\u6240","boring_xml_url":0,"boring_view_url":0,"soilmap_view_url":66,"soiltest_xml_url":0,"soiltest_view_url":66},{"id":124797,"code":"B4KJ201801001-3046","latitude":"33.9636572","longitude":"131.2263009","source_code":"PORT35005010013","project_name":"\u6e2f\u6e7e\u5c40","survey_name":"\u5b87\u90e8\u6e2f\u6d77\u5cb8\u9ad8\u6f6e\u5bfe\u7b56\u5bfe\u7b56\u8abf\u67fb","client_name":"\u56fd\u571f\u4ea4\u901a\u7701\u4e2d\u56fd\u5730\u65b9\u6574\u5099\u5c40\u5e83\u5cf6\u6e2f\u6e7e\u7a7a\u6e2f\u6280\u8853\u8abf\u67fb\u4e8b\u52d9\u6240","boring_xml_url":0,"boring_view_url":0,"soilmap_view_url":66,"soiltest_xml_url":0,"soiltest_view_url":66},{"id":124796,"code":"B4KJ201801001-3045","latitude":"33.94315909","longitude":"131.2473159","source_code":"PORT35005010012","project_name":"\u6e2f\u6e7e\u5c40","survey_name":"\u5b87\u90e8\u6e2f\u6e2f\u6e7e\u6539\u4fee\u6e2c\u91cf\u8abf\u67fb","client_name":"\u56fd\u571f\u4ea4\u901a\u7701\u4e2d\u56fd\u5730\u65b9\u6574\u5099\u5c40\u5e83\u5cf6\u6e2f\u6e7e\u7a7a\u6e2f\u6280\u8853\u8abf\u67fb\u4e8b\u52d9\u6240","boring_xml_url":0,"boring_view_url":0,"soilmap_view_url":66,"soiltest_xml_url":0,"soiltest_view_url":66}]}}