{"header":{"xyz":{"source":[],"mosaic":false},"page":6531,"raw":{"soiltest_result":"0","bbox":"57.598333,109.544722,1.933333,163.806111","page":"6531"},"conditions":{"soiltest_result":0,"north":57.598333,"west":109.544722,"south":1.933333,"east":163.806111},"success":true,"message":""},"data":{"meta":{"total":212844,"page":6531,"pages":7095,"count":30},"values":[{"id":124645,"code":"B4KJ201801001-2894","latitude":"34.21629009","longitude":"132.5960542","source_code":"PORT34004020050","project_name":"\u6e2f\u6e7e\u5c40","survey_name":"\u5449\u6e2f\u963f\u8cc0\u5730\u533a\u5cb8\u58c1(-7.5m)\u571f\u8cea\u8abf\u67fb(\u305d\u306e2)8-6","client_name":"\u56fd\u571f\u4ea4\u901a\u7701\u4e2d\u56fd\u5730\u65b9\u6574\u5099\u5c40\u5e83\u5cf6\u6e2f\u6e7e\u7a7a\u6e2f\u6280\u8853\u8abf\u67fb\u4e8b\u52d9\u6240","boring_xml_url":0,"boring_view_url":0,"soilmap_view_url":66,"soiltest_xml_url":0,"soiltest_view_url":66},{"id":124644,"code":"B4KJ201801001-2893","latitude":"34.21601233","longitude":"132.5954987","source_code":"PORT34004020049","project_name":"\u6e2f\u6e7e\u5c40","survey_name":"\u5449\u6e2f\u963f\u8cc0\u5730\u533a\u5cb8\u58c1(-7.5m)\u571f\u8cea\u8abf\u67fb(\u305d\u306e2)8-5-2","client_name":"\u56fd\u571f\u4ea4\u901a\u7701\u4e2d\u56fd\u5730\u65b9\u6574\u5099\u5c40\u5e83\u5cf6\u6e2f\u6e7e\u7a7a\u6e2f\u6280\u8853\u8abf\u67fb\u4e8b\u52d9\u6240","boring_xml_url":0,"boring_view_url":0,"soilmap_view_url":66,"soiltest_xml_url":0,"soiltest_view_url":66},{"id":124643,"code":"B4KJ201801001-2892","latitude":"34.2157346","longitude":"132.5960543","source_code":"PORT34004020048","project_name":"\u6e2f\u6e7e\u5c40","survey_name":"\u5449\u6e2f\u963f\u8cc0\u5730\u533a\u5cb8\u58c1(-7.5m)\u571f\u8cea\u8abf\u67fb(\u305d\u306e2)8-5-1","client_name":"\u56fd\u571f\u4ea4\u901a\u7701\u4e2d\u56fd\u5730\u65b9\u6574\u5099\u5c40\u5e83\u5cf6\u6e2f\u6e7e\u7a7a\u6e2f\u6280\u8853\u8abf\u67fb\u4e8b\u52d9\u6240","boring_xml_url":0,"boring_view_url":0,"soilmap_view_url":66,"soiltest_xml_url":0,"soiltest_view_url":66},{"id":124642,"code":"B4KJ201801001-2891","latitude":"34.21601233","longitude":"132.5954987","source_code":"PORT34004020047","project_name":"\u6e2f\u6e7e\u5c40","survey_name":"\u5449\u6e2f\u963f\u8cc0\u5730\u533a\u5cb8\u58c1(-7.5M)\u571f\u8cea\u8abf\u67fb8-5","client_name":"\u56fd\u571f\u4ea4\u901a\u7701\u4e2d\u56fd\u5730\u65b9\u6574\u5099\u5c40\u5e83\u5cf6\u6e2f\u6e7e\u7a7a\u6e2f\u6280\u8853\u8abf\u67fb\u4e8b\u52d9\u6240","boring_xml_url":0,"boring_view_url":0,"soilmap_view_url":66,"soiltest_xml_url":0,"soiltest_view_url":66},{"id":124641,"code":"B4KJ201801001-2890","latitude":"34.21573458","longitude":"132.595221","source_code":"PORT34004020046","project_name":"\u6e2f\u6e7e\u5c40","survey_name":"\u5449\u6e2f\u963f\u8cc0\u5730\u533a\u5cb8\u58c1(-7.5M)\u571f\u8cea\u8abf\u67fb8-4","client_name":"\u56fd\u571f\u4ea4\u901a\u7701\u4e2d\u56fd\u5730\u65b9\u6574\u5099\u5c40\u5e83\u5cf6\u6e2f\u6e7e\u7a7a\u6e2f\u6280\u8853\u8abf\u67fb\u4e8b\u52d9\u6240","boring_xml_url":0,"boring_view_url":0,"soilmap_view_url":66,"soiltest_xml_url":0,"soiltest_view_url":66},{"id":124640,"code":"B4KJ201801001-2889","latitude":"34.21517908","longitude":"132.5946655","source_code":"PORT34004020045","project_name":"\u6e2f\u6e7e\u5c40","survey_name":"\u5449\u6e2f\u963f\u8cc0\u5730\u533a\u5cb8\u58c1(-7.5M)\u571f\u8cea\u8abf\u67fb8-3-2","client_name":"\u56fd\u571f\u4ea4\u901a\u7701\u4e2d\u56fd\u5730\u65b9\u6574\u5099\u5c40\u5e83\u5cf6\u6e2f\u6e7e\u7a7a\u6e2f\u6280\u8853\u8abf\u67fb\u4e8b\u52d9\u6240","boring_xml_url":0,"boring_view_url":0,"soilmap_view_url":66,"soiltest_xml_url":0,"soiltest_view_url":66},{"id":124639,"code":"B4KJ201801001-2888","latitude":"34.21517909","longitude":"132.5954988","source_code":"PORT34004020044","project_name":"\u6e2f\u6e7e\u5c40","survey_name":"\u5449\u6e2f\u963f\u8cc0\u5730\u533a\u5cb8\u58c1(-7.5M)\u571f\u8cea\u8abf\u67fb8-3-1","client_name":"\u56fd\u571f\u4ea4\u901a\u7701\u4e2d\u56fd\u5730\u65b9\u6574\u5099\u5c40\u5e83\u5cf6\u6e2f\u6e7e\u7a7a\u6e2f\u6280\u8853\u8abf\u67fb\u4e8b\u52d9\u6240","boring_xml_url":0,"boring_view_url":0,"soilmap_view_url":66,"soiltest_xml_url":0,"soiltest_view_url":66},{"id":124638,"code":"B4KJ201801001-2887","latitude":"34.21490134","longitude":"132.5949433","source_code":"PORT34004020043","project_name":"\u6e2f\u6e7e\u5c40","survey_name":"\u5449\u6e2f\u963f\u8cc0\u5730\u533a\u5cb8\u58c1(-7.5M)\u571f\u8cea\u8abf\u67fb8-2","client_name":"\u56fd\u571f\u4ea4\u901a\u7701\u4e2d\u56fd\u5730\u65b9\u6574\u5099\u5c40\u5e83\u5cf6\u6e2f\u6e7e\u7a7a\u6e2f\u6280\u8853\u8abf\u67fb\u4e8b\u52d9\u6240","boring_xml_url":0,"boring_view_url":0,"soilmap_view_url":66,"soiltest_xml_url":0,"soiltest_view_url":66},{"id":124637,"code":"B4KJ201801001-2886","latitude":"34.21809238","longitude":"132.5938245","source_code":"PORT34004020042","project_name":"\u6e2f\u6e7e\u5c40","survey_name":"\u963f\u8cc0\u30de\u30ea\u30ce\u30dd\u30ea\u30b9\u5730\u533a\u6e2c\u91cf\u53ca\u3073\u571f\u8cea\u8abf\u67fb\u59d4\u8a174-3","client_name":"\u56fd\u571f\u4ea4\u901a\u7701\u4e2d\u56fd\u5730\u65b9\u6574\u5099\u5c40\u5e83\u5cf6\u6e2f\u6e7e\u7a7a\u6e2f\u6280\u8853\u8abf\u67fb\u4e8b\u52d9\u6240","boring_xml_url":0,"boring_view_url":0,"soilmap_view_url":66,"soiltest_xml_url":0,"soiltest_view_url":66},{"id":124636,"code":"B4KJ201801001-2885","latitude":"34.21677743","longitude":"132.5960212","source_code":"PORT34004020041","project_name":"\u6e2f\u6e7e\u5c40","survey_name":"\u963f\u8cc0\u30de\u30ea\u30ce\u30dd\u30ea\u30b9\u5730\u533a\u6e2c\u91cf\u53ca\u3073\u571f\u8cea\u8abf\u67fb\u59d4\u8a174-2","client_name":"\u56fd\u571f\u4ea4\u901a\u7701\u4e2d\u56fd\u5730\u65b9\u6574\u5099\u5c40\u5e83\u5cf6\u6e2f\u6e7e\u7a7a\u6e2f\u6280\u8853\u8abf\u67fb\u4e8b\u52d9\u6240","boring_xml_url":0,"boring_view_url":0,"soilmap_view_url":66,"soiltest_xml_url":0,"soiltest_view_url":66},{"id":124635,"code":"B4KJ201801001-2884","latitude":"34.21442919","longitude":"132.5946297","source_code":"PORT34004020040","project_name":"\u6e2f\u6e7e\u5c40","survey_name":"\u963f\u8cc0\u30de\u30ea\u30ce\u30dd\u30ea\u30b9\u5730\u533a\u6e2c\u91cf\u53ca\u3073\u571f\u8cea\u8abf\u67fb\u59d4\u8a174-1","client_name":"\u56fd\u571f\u4ea4\u901a\u7701\u4e2d\u56fd\u5730\u65b9\u6574\u5099\u5c40\u5e83\u5cf6\u6e2f\u6e7e\u7a7a\u6e2f\u6280\u8853\u8abf\u67fb\u4e8b\u52d9\u6240","boring_xml_url":0,"boring_view_url":0,"soilmap_view_url":66,"soiltest_xml_url":0,"soiltest_view_url":66},{"id":124634,"code":"B4KJ201801001-2883","latitude":"34.21159952","longitude":"132.586435","source_code":"PORT34004020039","project_name":"\u6e2f\u6e7e\u5c40","survey_name":"\u963f\u8cc0\u5927\u5165\u5730\u533a\u57cb\u7acb\u4e8b\u696d\u6e2c\u91cf\u8abf\u67fb\u53ca\u3073\u8a2d\u8a08\u59d4\u8a172-3","client_name":"\u56fd\u571f\u4ea4\u901a\u7701\u4e2d\u56fd\u5730\u65b9\u6574\u5099\u5c40\u5e83\u5cf6\u6e2f\u6e7e\u7a7a\u6e2f\u6280\u8853\u8abf\u67fb\u4e8b\u52d9\u6240","boring_xml_url":0,"boring_view_url":0,"soilmap_view_url":66,"soiltest_xml_url":0,"soiltest_view_url":66},{"id":124633,"code":"B4KJ201801001-2882","latitude":"34.21517909","longitude":"132.595221","source_code":"PORT34004020038","project_name":"\u6e2f\u6e7e\u5c40","survey_name":"\u5449\u6e2f(\u963f\u8cc0\u5730\u533a)\u9632\u6ce2\u58247-3","client_name":"\u56fd\u571f\u4ea4\u901a\u7701\u4e2d\u56fd\u5730\u65b9\u6574\u5099\u5c40\u5e83\u5cf6\u6e2f\u6e7e\u7a7a\u6e2f\u6280\u8853\u8abf\u67fb\u4e8b\u52d9\u6240","boring_xml_url":0,"boring_view_url":0,"soilmap_view_url":66,"soiltest_xml_url":0,"soiltest_view_url":66},{"id":124632,"code":"B4KJ201801001-2881","latitude":"34.21101274","longitude":"132.5874441","source_code":"PORT34004020037","project_name":"\u6e2f\u6e7e\u5c40","survey_name":"\u5449\u6e2f(\u963f\u8cc0\u5730\u533a)\u9632\u6ce2\u58247-2","client_name":"\u56fd\u571f\u4ea4\u901a\u7701\u4e2d\u56fd\u5730\u65b9\u6574\u5099\u5c40\u5e83\u5cf6\u6e2f\u6e7e\u7a7a\u6e2f\u6280\u8853\u8abf\u67fb\u4e8b\u52d9\u6240","boring_xml_url":0,"boring_view_url":0,"soilmap_view_url":66,"soiltest_xml_url":0,"soiltest_view_url":66},{"id":124631,"code":"B4KJ201801001-2880","latitude":"34.21073501","longitude":"132.5882773","source_code":"PORT34004020036","project_name":"\u6e2f\u6e7e\u5c40","survey_name":"\u5449\u6e2f(\u963f\u8cc0\u5730\u533a)\u9632\u6ce2\u58247-1","client_name":"\u56fd\u571f\u4ea4\u901a\u7701\u4e2d\u56fd\u5730\u65b9\u6574\u5099\u5c40\u5e83\u5cf6\u6e2f\u6e7e\u7a7a\u6e2f\u6280\u8853\u8abf\u67fb\u4e8b\u52d9\u6240","boring_xml_url":0,"boring_view_url":0,"soilmap_view_url":66,"soiltest_xml_url":0,"soiltest_view_url":66},{"id":124630,"code":"B4KJ201801001-2879","latitude":"34.2124858","longitude":"132.5934781","source_code":"PORT34004020035","project_name":"\u6e2f\u6e7e\u5c40","survey_name":"\u963f\u8cc0\u30de\u30ea\u30ce\u30dd\u30ea\u30b9\u5730\u533a\u5449\u5e02\u8abf\u67fb","client_name":"\u56fd\u571f\u4ea4\u901a\u7701\u4e2d\u56fd\u5730\u65b9\u6574\u5099\u5c40\u5e83\u5cf6\u6e2f\u6e7e\u7a7a\u6e2f\u6280\u8853\u8abf\u67fb\u4e8b\u52d9\u6240","boring_xml_url":0,"boring_view_url":0,"soilmap_view_url":66,"soiltest_xml_url":0,"soiltest_view_url":66},{"id":124629,"code":"B4KJ201801001-2878","latitude":"34.21156833","longitude":"132.5924436","source_code":"PORT34004020034","project_name":"\u6e2f\u6e7e\u5c40","survey_name":"\u5449\u6e2f\u963f\u8cc0\u5730\u533a\u9632\u6ce2\u5824","client_name":"\u56fd\u571f\u4ea4\u901a\u7701\u4e2d\u56fd\u5730\u65b9\u6574\u5099\u5c40\u5e83\u5cf6\u6e2f\u6e7e\u7a7a\u6e2f\u6280\u8853\u8abf\u67fb\u4e8b\u52d9\u6240","boring_xml_url":0,"boring_view_url":0,"soilmap_view_url":66,"soiltest_xml_url":0,"soiltest_view_url":66},{"id":124628,"code":"B4KJ201801001-2877","latitude":"34.21073507","longitude":"132.5913326","source_code":"PORT34004020033","project_name":"\u6e2f\u6e7e\u5c40","survey_name":"\u5449\u6e2f\u963f\u8cc0\u5730\u533a\u9632\u6ce2\u5824","client_name":"\u56fd\u571f\u4ea4\u901a\u7701\u4e2d\u56fd\u5730\u65b9\u6574\u5099\u5c40\u5e83\u5cf6\u6e2f\u6e7e\u7a7a\u6e2f\u6280\u8853\u8abf\u67fb\u4e8b\u52d9\u6240","boring_xml_url":0,"boring_view_url":0,"soilmap_view_url":66,"soiltest_xml_url":0,"soiltest_view_url":66},{"id":124627,"code":"B4KJ201801001-2876","latitude":"34.21027968","longitude":"132.5900868","source_code":"PORT34004020032","project_name":"\u6e2f\u6e7e\u5c40","survey_name":"\u5449\u6e2f\u963f\u8cc0\u5730\u533a\u9632\u6ce2\u5824NO.5-3","client_name":"\u56fd\u571f\u4ea4\u901a\u7701\u4e2d\u56fd\u5730\u65b9\u6574\u5099\u5c40\u5e83\u5cf6\u6e2f\u6e7e\u7a7a\u6e2f\u6280\u8853\u8abf\u67fb\u4e8b\u52d9\u6240","boring_xml_url":0,"boring_view_url":0,"soilmap_view_url":66,"soiltest_xml_url":0,"soiltest_view_url":66},{"id":124626,"code":"B4KJ201801001-2875","latitude":"34.21054488","longitude":"132.5890021","source_code":"PORT34004020031","project_name":"\u6e2f\u6e7e\u5c40","survey_name":"\u5449\u6e2f\u963f\u8cc0\u5730\u533a\u9632\u6ce2\u5824NO.5-2-1","client_name":"\u56fd\u571f\u4ea4\u901a\u7701\u4e2d\u56fd\u5730\u65b9\u6574\u5099\u5c40\u5e83\u5cf6\u6e2f\u6e7e\u7a7a\u6e2f\u6280\u8853\u8abf\u67fb\u4e8b\u52d9\u6240","boring_xml_url":0,"boring_view_url":0,"soilmap_view_url":66,"soiltest_xml_url":0,"soiltest_view_url":66},{"id":124625,"code":"B4KJ201801001-2874","latitude":"34.20994052","longitude":"132.5890898","source_code":"PORT34004020030","project_name":"\u6e2f\u6e7e\u5c40","survey_name":"\u5449\u6e2f\u963f\u8cc0\u5730\u533a\u9632\u6ce2\u5824NO.5-2","client_name":"\u56fd\u571f\u4ea4\u901a\u7701\u4e2d\u56fd\u5730\u65b9\u6574\u5099\u5c40\u5e83\u5cf6\u6e2f\u6e7e\u7a7a\u6e2f\u6280\u8853\u8abf\u67fb\u4e8b\u52d9\u6240","boring_xml_url":0,"boring_view_url":0,"soilmap_view_url":66,"soiltest_xml_url":0,"soiltest_view_url":66},{"id":124624,"code":"B4KJ201801001-2873","latitude":"34.20970071","longitude":"132.5880382","source_code":"PORT34004020029","project_name":"\u6e2f\u6e7e\u5c40","survey_name":"\u5449\u6e2f\u963f\u8cc0\u5730\u533a\u9632\u6ce2\u5824\u571f\u8cea\u8abf\u67fbNO.5-1","client_name":"\u56fd\u571f\u4ea4\u901a\u7701\u4e2d\u56fd\u5730\u65b9\u6574\u5099\u5c40\u5e83\u5cf6\u6e2f\u6e7e\u7a7a\u6e2f\u6280\u8853\u8abf\u67fb\u4e8b\u52d9\u6240","boring_xml_url":0,"boring_view_url":0,"soilmap_view_url":66,"soiltest_xml_url":0,"soiltest_view_url":66},{"id":124623,"code":"B4KJ201801001-2872","latitude":"34.21795684","longitude":"132.6093863","source_code":"PORT34004020022","project_name":"\u6e2f\u6e7e\u5c40","survey_name":"\u5e83\u5730\u533a\u571f\u8cea\u8abf\u67fb\u5cb8\u58c1(-5.5M)","client_name":"\u56fd\u571f\u4ea4\u901a\u7701\u4e2d\u56fd\u5730\u65b9\u6574\u5099\u5c40\u5e83\u5cf6\u6e2f\u6e7e\u7a7a\u6e2f\u6280\u8853\u8abf\u67fb\u4e8b\u52d9\u6240","boring_xml_url":0,"boring_view_url":0,"soilmap_view_url":66,"soiltest_xml_url":0,"soiltest_view_url":66},{"id":124622,"code":"B4KJ201801001-2871","latitude":"34.21823459","longitude":"132.6093863","source_code":"PORT34004020021","project_name":"\u6e2f\u6e7e\u5c40","survey_name":"\u5e83\u5730\u533a\u571f\u8cea\u8abf\u67fb\u5cb8\u58c1(-5.5M)","client_name":"\u56fd\u571f\u4ea4\u901a\u7701\u4e2d\u56fd\u5730\u65b9\u6574\u5099\u5c40\u5e83\u5cf6\u6e2f\u6e7e\u7a7a\u6e2f\u6280\u8853\u8abf\u67fb\u4e8b\u52d9\u6240","boring_xml_url":0,"boring_view_url":0,"soilmap_view_url":66,"soiltest_xml_url":0,"soiltest_view_url":66},{"id":124621,"code":"B4KJ201801001-2870","latitude":"34.21879009","longitude":"132.6096641","source_code":"PORT34004020020","project_name":"\u6e2f\u6e7e\u5c40","survey_name":"\u5e83\u5730\u533a\u571f\u8cea\u8abf\u67fb\u5cb8\u58c1(-5.5M)","client_name":"\u56fd\u571f\u4ea4\u901a\u7701\u4e2d\u56fd\u5730\u65b9\u6574\u5099\u5c40\u5e83\u5cf6\u6e2f\u6e7e\u7a7a\u6e2f\u6280\u8853\u8abf\u67fb\u4e8b\u52d9\u6240","boring_xml_url":0,"boring_view_url":0,"soilmap_view_url":66,"soiltest_xml_url":0,"soiltest_view_url":66},{"id":124620,"code":"B4KJ201801001-2869","latitude":"34.21934558","longitude":"132.6099418","source_code":"PORT34004020019","project_name":"\u6e2f\u6e7e\u5c40","survey_name":"\u5e83\u5730\u533a\u571f\u8cea\u8abf\u67fb\u5cb8\u58c1(-5.5M)","client_name":"\u56fd\u571f\u4ea4\u901a\u7701\u4e2d\u56fd\u5730\u65b9\u6574\u5099\u5c40\u5e83\u5cf6\u6e2f\u6e7e\u7a7a\u6e2f\u6280\u8853\u8abf\u67fb\u4e8b\u52d9\u6240","boring_xml_url":0,"boring_view_url":0,"soilmap_view_url":66,"soiltest_xml_url":0,"soiltest_view_url":66},{"id":124619,"code":"B4KJ201801001-2868","latitude":"34.22017883","longitude":"132.6102195","source_code":"PORT34004020018","project_name":"\u6e2f\u6e7e\u5c40","survey_name":"\u5e83\u5730\u533a\u571f\u8cea\u8abf\u67fb\u5cb8\u58c1(-5.5M)","client_name":"\u56fd\u571f\u4ea4\u901a\u7701\u4e2d\u56fd\u5730\u65b9\u6574\u5099\u5c40\u5e83\u5cf6\u6e2f\u6e7e\u7a7a\u6e2f\u6280\u8853\u8abf\u67fb\u4e8b\u52d9\u6240","boring_xml_url":0,"boring_view_url":0,"soilmap_view_url":66,"soiltest_xml_url":0,"soiltest_view_url":66},{"id":124618,"code":"B4KJ201801001-2867","latitude":"34.22156757","longitude":"132.610775","source_code":"PORT34004020017","project_name":"\u6e2f\u6e7e\u5c40","survey_name":"\u5449\u6e2f\u5e83\u5730\u533a\u571f\u8cea\u8abf\u67fb","client_name":"\u56fd\u571f\u4ea4\u901a\u7701\u4e2d\u56fd\u5730\u65b9\u6574\u5099\u5c40\u5e83\u5cf6\u6e2f\u6e7e\u7a7a\u6e2f\u6280\u8853\u8abf\u67fb\u4e8b\u52d9\u6240","boring_xml_url":0,"boring_view_url":0,"soilmap_view_url":66,"soiltest_xml_url":0,"soiltest_view_url":66},{"id":124617,"code":"B4KJ201801001-2866","latitude":"34.22184531","longitude":"132.6104972","source_code":"PORT34004020016","project_name":"\u6e2f\u6e7e\u5c40","survey_name":"\u5449\u6e2f\u5e83\u5730\u533a\u571f\u8cea\u8abf\u67fb","client_name":"\u56fd\u571f\u4ea4\u901a\u7701\u4e2d\u56fd\u5730\u65b9\u6574\u5099\u5c40\u5e83\u5cf6\u6e2f\u6e7e\u7a7a\u6e2f\u6280\u8853\u8abf\u67fb\u4e8b\u52d9\u6240","boring_xml_url":0,"boring_view_url":0,"soilmap_view_url":66,"soiltest_xml_url":0,"soiltest_view_url":66},{"id":124616,"code":"B4KJ201801001-2865","latitude":"34.22156756","longitude":"132.6104972","source_code":"PORT34004020015","project_name":"\u6e2f\u6e7e\u5c40","survey_name":"\u5449\u6e2f\u5e83\u5730\u533a\u571f\u8cea\u8abf\u67fb","client_name":"\u56fd\u571f\u4ea4\u901a\u7701\u4e2d\u56fd\u5730\u65b9\u6574\u5099\u5c40\u5e83\u5cf6\u6e2f\u6e7e\u7a7a\u6e2f\u6280\u8853\u8abf\u67fb\u4e8b\u52d9\u6240","boring_xml_url":0,"boring_view_url":0,"soilmap_view_url":66,"soiltest_xml_url":0,"soiltest_view_url":66}]}}