{"header":{"xyz":{"source":[],"mosaic":false},"page":6533,"raw":{"soiltest_result":"0","bbox":"57.598333,109.544722,1.933333,163.806111","page":"6533"},"conditions":{"soiltest_result":0,"north":57.598333,"west":109.544722,"south":1.933333,"east":163.806111},"success":true,"message":""},"data":{"meta":{"total":212844,"page":6533,"pages":7095,"count":30},"values":[{"id":124585,"code":"B4KJ201801001-2834","latitude":"34.24028915","longitude":"132.5501515","source_code":"PORT34004010066","project_name":"\u6e2f\u6e7e\u5c40","survey_name":"\u5449\u6e2f\u5b9d\u753a\u5730\u533a","client_name":"\u56fd\u571f\u4ea4\u901a\u7701\u4e2d\u56fd\u5730\u65b9\u6574\u5099\u5c40\u5e83\u5cf6\u6e2f\u6e7e\u7a7a\u6e2f\u6280\u8853\u8abf\u67fb\u4e8b\u52d9\u6240","boring_xml_url":0,"boring_view_url":0,"soilmap_view_url":66,"soiltest_xml_url":0,"soiltest_view_url":66},{"id":124584,"code":"B4KJ201801001-2833","latitude":"34.24032494","longitude":"132.5502385","source_code":"PORT34004010065","project_name":"\u6e2f\u6e7e\u5c40","survey_name":"\u5449\u6e2f\u5b9d\u753a\u5730\u533a","client_name":"\u56fd\u571f\u4ea4\u901a\u7701\u4e2d\u56fd\u5730\u65b9\u6574\u5099\u5c40\u5e83\u5cf6\u6e2f\u6e7e\u7a7a\u6e2f\u6280\u8853\u8abf\u67fb\u4e8b\u52d9\u6240","boring_xml_url":0,"boring_view_url":0,"soilmap_view_url":66,"soiltest_xml_url":0,"soiltest_view_url":66},{"id":124583,"code":"B4KJ201801001-2832","latitude":"34.24763758","longitude":"132.5261392","source_code":"PORT34004010064","project_name":"\u6e2f\u6e7e\u5c40","survey_name":"\u5449\u5409\u6d66\u5730\u533a\u685f\u6a4b(-7m)\u571f\u8cea\u8abf\u67fb3-7","client_name":"\u56fd\u571f\u4ea4\u901a\u7701\u4e2d\u56fd\u5730\u65b9\u6574\u5099\u5c40\u5e83\u5cf6\u6e2f\u6e7e\u7a7a\u6e2f\u6280\u8853\u8abf\u67fb\u4e8b\u52d9\u6240","boring_xml_url":0,"boring_view_url":0,"soilmap_view_url":66,"soiltest_xml_url":0,"soiltest_view_url":66},{"id":124582,"code":"B4KJ201801001-2831","latitude":"34.24767453","longitude":"132.5258354","source_code":"PORT34004010063","project_name":"\u6e2f\u6e7e\u5c40","survey_name":"\u5449\u5409\u6d66\u5730\u533a\u685f\u6a4b(-7m)\u571f\u8cea\u8abf\u67fb3-6","client_name":"\u56fd\u571f\u4ea4\u901a\u7701\u4e2d\u56fd\u5730\u65b9\u6574\u5099\u5c40\u5e83\u5cf6\u6e2f\u6e7e\u7a7a\u6e2f\u6280\u8853\u8abf\u67fb\u4e8b\u52d9\u6240","boring_xml_url":0,"boring_view_url":0,"soilmap_view_url":66,"soiltest_xml_url":0,"soiltest_view_url":66},{"id":124581,"code":"B4KJ201801001-2830","latitude":"34.24798076","longitude":"132.5259366","source_code":"PORT34004010062","project_name":"\u6e2f\u6e7e\u5c40","survey_name":"\u5449\u5409\u6d66\u5730\u533a\u685f\u6a4b(-7m)\u571f\u8cea\u8abf\u67fb3-5","client_name":"\u56fd\u571f\u4ea4\u901a\u7701\u4e2d\u56fd\u5730\u65b9\u6574\u5099\u5c40\u5e83\u5cf6\u6e2f\u6e7e\u7a7a\u6e2f\u6280\u8853\u8abf\u67fb\u4e8b\u52d9\u6240","boring_xml_url":0,"boring_view_url":0,"soilmap_view_url":66,"soiltest_xml_url":0,"soiltest_view_url":66},{"id":124580,"code":"B4KJ201801001-2829","latitude":"34.24777436","longitude":"132.5256111","source_code":"PORT34004010061","project_name":"\u6e2f\u6e7e\u5c40","survey_name":"\u5449\u5409\u6d66\u5730\u533a\u685f\u6a4b(-7m)\u571f\u8cea\u8abf\u67fb3-4","client_name":"\u56fd\u571f\u4ea4\u901a\u7701\u4e2d\u56fd\u5730\u65b9\u6574\u5099\u5c40\u5e83\u5cf6\u6e2f\u6e7e\u7a7a\u6e2f\u6280\u8853\u8abf\u67fb\u4e8b\u52d9\u6240","boring_xml_url":0,"boring_view_url":0,"soilmap_view_url":66,"soiltest_xml_url":0,"soiltest_view_url":66},{"id":124579,"code":"B4KJ201801001-2828","latitude":"34.24739617","longitude":"132.5254488","source_code":"PORT34004010060","project_name":"\u6e2f\u6e7e\u5c40","survey_name":"\u5449\u5409\u6d66\u5730\u533a\u685f\u6a4b(-7m)\u571f\u8cea\u8abf\u67fb3-3-2","client_name":"\u56fd\u571f\u4ea4\u901a\u7701\u4e2d\u56fd\u5730\u65b9\u6574\u5099\u5c40\u5e83\u5cf6\u6e2f\u6e7e\u7a7a\u6e2f\u6280\u8853\u8abf\u67fb\u4e8b\u52d9\u6240","boring_xml_url":0,"boring_view_url":0,"soilmap_view_url":66,"soiltest_xml_url":0,"soiltest_view_url":66},{"id":124578,"code":"B4KJ201801001-2827","latitude":"34.24778489","longitude":"132.52509","source_code":"PORT34004010059","project_name":"\u6e2f\u6e7e\u5c40","survey_name":"\u5449\u5409\u6d66\u5730\u533a\u685f\u6a4b(-7m)\u571f\u8cea\u8abf\u67fb3-3-1","client_name":"\u56fd\u571f\u4ea4\u901a\u7701\u4e2d\u56fd\u5730\u65b9\u6574\u5099\u5c40\u5e83\u5cf6\u6e2f\u6e7e\u7a7a\u6e2f\u6280\u8853\u8abf\u67fb\u4e8b\u52d9\u6240","boring_xml_url":0,"boring_view_url":0,"soilmap_view_url":66,"soiltest_xml_url":0,"soiltest_view_url":66},{"id":124577,"code":"B4KJ201801001-2826","latitude":"34.24757696","longitude":"132.5252856","source_code":"PORT34004010058","project_name":"\u6e2f\u6e7e\u5c40","survey_name":"\u5449\u5409\u6d66\u5730\u533a\u685f\u6a4b(-7m)\u571f\u8cea\u8abf\u67fb3-3","client_name":"\u56fd\u571f\u4ea4\u901a\u7701\u4e2d\u56fd\u5730\u65b9\u6574\u5099\u5c40\u5e83\u5cf6\u6e2f\u6e7e\u7a7a\u6e2f\u6280\u8853\u8abf\u67fb\u4e8b\u52d9\u6240","boring_xml_url":0,"boring_view_url":0,"soilmap_view_url":66,"soiltest_xml_url":0,"soiltest_view_url":66},{"id":124576,"code":"B4KJ201801001-2825","latitude":"34.24737055","longitude":"132.5249601","source_code":"PORT34004010057","project_name":"\u6e2f\u6e7e\u5c40","survey_name":"\u5449\u5409\u6d66\u5730\u533a\u685f\u6a4b(-7m)\u571f\u8cea\u8abf\u67fb3-2","client_name":"\u56fd\u571f\u4ea4\u901a\u7701\u4e2d\u56fd\u5730\u65b9\u6574\u5099\u5c40\u5e83\u5cf6\u6e2f\u6e7e\u7a7a\u6e2f\u6280\u8853\u8abf\u67fb\u4e8b\u52d9\u6240","boring_xml_url":0,"boring_view_url":0,"soilmap_view_url":66,"soiltest_xml_url":0,"soiltest_view_url":66},{"id":124575,"code":"B4KJ201801001-2824","latitude":"34.24716414","longitude":"132.5246357","source_code":"PORT34004010056","project_name":"\u6e2f\u6e7e\u5c40","survey_name":"\u5449\u5409\u6d66\u5730\u533a\u685f\u6a4b(-7m)\u571f\u8cea\u8abf\u67fb3-1","client_name":"\u56fd\u571f\u4ea4\u901a\u7701\u4e2d\u56fd\u5730\u65b9\u6574\u5099\u5c40\u5e83\u5cf6\u6e2f\u6e7e\u7a7a\u6e2f\u6280\u8853\u8abf\u67fb\u4e8b\u52d9\u6240","boring_xml_url":0,"boring_view_url":0,"soilmap_view_url":66,"soiltest_xml_url":0,"soiltest_view_url":66},{"id":124574,"code":"B4KJ201801001-2823","latitude":"34.24017537","longitude":"132.5541128","source_code":"PORT34004010055","project_name":"\u6e2f\u6e7e\u5c40","survey_name":"\u5449\u6e2fU(\u5b9d\u753a\u5730\u533a)-6.5M(\u6539\u826f)\u571f\u8cea(\u305d\u306e2)2-4","client_name":"\u56fd\u571f\u4ea4\u901a\u7701\u4e2d\u56fd\u5730\u65b9\u6574\u5099\u5c40\u5e83\u5cf6\u6e2f\u6e7e\u7a7a\u6e2f\u6280\u8853\u8abf\u67fb\u4e8b\u52d9\u6240","boring_xml_url":0,"boring_view_url":0,"soilmap_view_url":66,"soiltest_xml_url":0,"soiltest_view_url":66},{"id":124573,"code":"B4KJ201801001-2822","latitude":"34.24045311","longitude":"132.5538351","source_code":"PORT34004010054","project_name":"\u6e2f\u6e7e\u5c40","survey_name":"\u5449\u6e2fU(\u5b9d\u753a\u5730\u533a)-6.5M(\u6539\u826f)\u571f\u8cea(\u305d\u306e2)2-3","client_name":"\u56fd\u571f\u4ea4\u901a\u7701\u4e2d\u56fd\u5730\u65b9\u6574\u5099\u5c40\u5e83\u5cf6\u6e2f\u6e7e\u7a7a\u6e2f\u6280\u8853\u8abf\u67fb\u4e8b\u52d9\u6240","boring_xml_url":0,"boring_view_url":0,"soilmap_view_url":66,"soiltest_xml_url":0,"soiltest_view_url":66},{"id":124572,"code":"B4KJ201801001-2821","latitude":"34.24073084","longitude":"132.5532796","source_code":"PORT34004010053","project_name":"\u6e2f\u6e7e\u5c40","survey_name":"\u5449\u6e2f[\u5b9d\u753a\u5730\u533a]\u5cb8\u58c1(-6.5m)(\u6539\u826fNO.2-2-2","client_name":"\u56fd\u571f\u4ea4\u901a\u7701\u4e2d\u56fd\u5730\u65b9\u6574\u5099\u5c40\u5e83\u5cf6\u6e2f\u6e7e\u7a7a\u6e2f\u6280\u8853\u8abf\u67fb\u4e8b\u52d9\u6240","boring_xml_url":0,"boring_view_url":0,"soilmap_view_url":66,"soiltest_xml_url":0,"soiltest_view_url":66},{"id":124571,"code":"B4KJ201801001-2820","latitude":"34.24128634","longitude":"132.553835","source_code":"PORT34004010052","project_name":"\u6e2f\u6e7e\u5c40","survey_name":"\u5449\u6e2f[\u5b9d\u753a\u5730\u533a]\u5cb8\u58c1(-6.5m)(\u6539\u826fNO.2-2-1","client_name":"\u56fd\u571f\u4ea4\u901a\u7701\u4e2d\u56fd\u5730\u65b9\u6574\u5099\u5c40\u5e83\u5cf6\u6e2f\u6e7e\u7a7a\u6e2f\u6280\u8853\u8abf\u67fb\u4e8b\u52d9\u6240","boring_xml_url":0,"boring_view_url":0,"soilmap_view_url":66,"soiltest_xml_url":0,"soiltest_view_url":66},{"id":124570,"code":"B4KJ201801001-2819","latitude":"34.24017536","longitude":"132.5538351","source_code":"PORT34004010051","project_name":"\u6e2f\u6e7e\u5c40","survey_name":"\u5449\u6e2f[\u5b9d\u753a\u5730\u533a]\u5cb8\u58c1(-6.5m)(\u6539\u826fNO.2-1-2","client_name":"\u56fd\u571f\u4ea4\u901a\u7701\u4e2d\u56fd\u5730\u65b9\u6574\u5099\u5c40\u5e83\u5cf6\u6e2f\u6e7e\u7a7a\u6e2f\u6280\u8853\u8abf\u67fb\u4e8b\u52d9\u6240","boring_xml_url":0,"boring_view_url":0,"soilmap_view_url":66,"soiltest_xml_url":0,"soiltest_view_url":66},{"id":124569,"code":"B4KJ201801001-2818","latitude":"34.24100861","longitude":"132.5543906","source_code":"PORT34004010050","project_name":"\u6e2f\u6e7e\u5c40","survey_name":"\u5449\u6e2f[\u5b9d\u753a\u5730\u533a]\u5cb8\u58c1(-6.5m)(\u6539\u826f)NO.2-1-1","client_name":"\u56fd\u571f\u4ea4\u901a\u7701\u4e2d\u56fd\u5730\u65b9\u6574\u5099\u5c40\u5e83\u5cf6\u6e2f\u6e7e\u7a7a\u6e2f\u6280\u8853\u8abf\u67fb\u4e8b\u52d9\u6240","boring_xml_url":0,"boring_view_url":0,"soilmap_view_url":66,"soiltest_xml_url":0,"soiltest_view_url":66},{"id":124568,"code":"B4KJ201801001-2817","latitude":"34.23989756","longitude":"132.5510576","source_code":"PORT34004010049","project_name":"\u6e2f\u6e7e\u5c40","survey_name":"\u5449\u6e2f\u5b9d\u753a\u5730\u533a\u571f\u8cea\u8abf\u67fb","client_name":"\u56fd\u571f\u4ea4\u901a\u7701\u4e2d\u56fd\u5730\u65b9\u6574\u5099\u5c40\u5e83\u5cf6\u6e2f\u6e7e\u7a7a\u6e2f\u6280\u8853\u8abf\u67fb\u4e8b\u52d9\u6240","boring_xml_url":0,"boring_view_url":0,"soilmap_view_url":66,"soiltest_xml_url":0,"soiltest_view_url":66},{"id":124567,"code":"B4KJ201801001-2816","latitude":"34.24017529","longitude":"132.5502243","source_code":"PORT34004010048","project_name":"\u6e2f\u6e7e\u5c40","survey_name":"\u5449\u6e2f\u5b9d\u753a\u5730\u533a\u571f\u8cea\u8abf\u67fb","client_name":"\u56fd\u571f\u4ea4\u901a\u7701\u4e2d\u56fd\u5730\u65b9\u6574\u5099\u5c40\u5e83\u5cf6\u6e2f\u6e7e\u7a7a\u6e2f\u6280\u8853\u8abf\u67fb\u4e8b\u52d9\u6240","boring_xml_url":0,"boring_view_url":0,"soilmap_view_url":66,"soiltest_xml_url":0,"soiltest_view_url":66},{"id":124566,"code":"B4KJ201801001-2815","latitude":"34.23989744","longitude":"132.5452247","source_code":"PORT34004010047","project_name":"\u6e2f\u6e7e\u5c40","survey_name":"\u5449\u6e2f\u571f\u8cea\u8abf\u67fb(-)10M\u5cb8\u58c1","client_name":"\u56fd\u571f\u4ea4\u901a\u7701\u4e2d\u56fd\u5730\u65b9\u6574\u5099\u5c40\u5e83\u5cf6\u6e2f\u6e7e\u7a7a\u6e2f\u6280\u8853\u8abf\u67fb\u4e8b\u52d9\u6240","boring_xml_url":0,"boring_view_url":0,"soilmap_view_url":66,"soiltest_xml_url":0,"soiltest_view_url":66},{"id":124565,"code":"B4KJ201801001-2814","latitude":"34.24017518","longitude":"132.544947","source_code":"PORT34004010046","project_name":"\u6e2f\u6e7e\u5c40","survey_name":"\u5449\u6e2f\u571f\u8cea\u8abf\u67fb(-)10M\u5cb8\u58c1","client_name":"\u56fd\u571f\u4ea4\u901a\u7701\u4e2d\u56fd\u5730\u65b9\u6574\u5099\u5c40\u5e83\u5cf6\u6e2f\u6e7e\u7a7a\u6e2f\u6280\u8853\u8abf\u67fb\u4e8b\u52d9\u6240","boring_xml_url":0,"boring_view_url":0,"soilmap_view_url":66,"soiltest_xml_url":0,"soiltest_view_url":66},{"id":124564,"code":"B4KJ201801001-2813","latitude":"34.24045291","longitude":"132.5443915","source_code":"PORT34004010045","project_name":"\u6e2f\u6e7e\u5c40","survey_name":"\u5449\u6e2f\u571f\u8cea\u8abf\u67fb(-)10M\u5cb8\u58c1","client_name":"\u56fd\u571f\u4ea4\u901a\u7701\u4e2d\u56fd\u5730\u65b9\u6574\u5099\u5c40\u5e83\u5cf6\u6e2f\u6e7e\u7a7a\u6e2f\u6280\u8853\u8abf\u67fb\u4e8b\u52d9\u6240","boring_xml_url":0,"boring_view_url":0,"soilmap_view_url":66,"soiltest_xml_url":0,"soiltest_view_url":66},{"id":124563,"code":"B4KJ201801001-2812","latitude":"34.24073064","longitude":"132.543836","source_code":"PORT34004010044","project_name":"\u6e2f\u6e7e\u5c40","survey_name":"\u5449\u6e2f\u571f\u8cea\u8abf\u67fb(-)10M\u5cb8\u58c1","client_name":"\u56fd\u571f\u4ea4\u901a\u7701\u4e2d\u56fd\u5730\u65b9\u6574\u5099\u5c40\u5e83\u5cf6\u6e2f\u6e7e\u7a7a\u6e2f\u6280\u8853\u8abf\u67fb\u4e8b\u52d9\u6240","boring_xml_url":0,"boring_view_url":0,"soilmap_view_url":66,"soiltest_xml_url":0,"soiltest_view_url":66},{"id":124562,"code":"B4KJ201801001-2811","latitude":"34.24100838","longitude":"132.5432804","source_code":"PORT34004010043","project_name":"\u6e2f\u6e7e\u5c40","survey_name":"\u5ddd\u539f\u77f3(\u5357)\u571f\u8cea\u8abf\u67fb","client_name":"\u56fd\u571f\u4ea4\u901a\u7701\u4e2d\u56fd\u5730\u65b9\u6574\u5099\u5c40\u5e83\u5cf6\u6e2f\u6e7e\u7a7a\u6e2f\u6280\u8853\u8abf\u67fb\u4e8b\u52d9\u6240","boring_xml_url":0,"boring_view_url":0,"soilmap_view_url":66,"soiltest_xml_url":0,"soiltest_view_url":66},{"id":124561,"code":"B4KJ201801001-2810","latitude":"34.24128613","longitude":"132.5432804","source_code":"PORT34004010042","project_name":"\u6e2f\u6e7e\u5c40","survey_name":"\u5ddd\u539f\u77f3(\u5357)\u571f\u8cea\u8abf\u67fb","client_name":"\u56fd\u571f\u4ea4\u901a\u7701\u4e2d\u56fd\u5730\u65b9\u6574\u5099\u5c40\u5e83\u5cf6\u6e2f\u6e7e\u7a7a\u6e2f\u6280\u8853\u8abf\u67fb\u4e8b\u52d9\u6240","boring_xml_url":0,"boring_view_url":0,"soilmap_view_url":66,"soiltest_xml_url":0,"soiltest_view_url":66},{"id":124560,"code":"B4KJ201801001-2809","latitude":"34.24156386","longitude":"132.5427249","source_code":"PORT34004010041","project_name":"\u6e2f\u6e7e\u5c40","survey_name":"\u5ddd\u539f\u77f3(\u5357)\u571f\u8cea\u8abf\u67fb","client_name":"\u56fd\u571f\u4ea4\u901a\u7701\u4e2d\u56fd\u5730\u65b9\u6574\u5099\u5c40\u5e83\u5cf6\u6e2f\u6e7e\u7a7a\u6e2f\u6280\u8853\u8abf\u67fb\u4e8b\u52d9\u6240","boring_xml_url":0,"boring_view_url":0,"soilmap_view_url":66,"soiltest_xml_url":0,"soiltest_view_url":66},{"id":124559,"code":"B4KJ201801001-2808","latitude":"34.24184158","longitude":"132.5413361","source_code":"PORT34004010040","project_name":"\u6e2f\u6e7e\u5c40","survey_name":"\u5ddd\u539f\u77f3(\u5357)\u571f\u8cea\u8abf\u67fb","client_name":"\u56fd\u571f\u4ea4\u901a\u7701\u4e2d\u56fd\u5730\u65b9\u6574\u5099\u5c40\u5e83\u5cf6\u6e2f\u6e7e\u7a7a\u6e2f\u6280\u8853\u8abf\u67fb\u4e8b\u52d9\u6240","boring_xml_url":0,"boring_view_url":0,"soilmap_view_url":66,"soiltest_xml_url":0,"soiltest_view_url":66},{"id":124558,"code":"B4KJ201801001-2807","latitude":"34.24239707","longitude":"132.5413361","source_code":"PORT34004010039","project_name":"\u6e2f\u6e7e\u5c40","survey_name":"\u5ddd\u539f\u77f3(\u5357)\u571f\u8cea\u8abf\u67fb","client_name":"\u56fd\u571f\u4ea4\u901a\u7701\u4e2d\u56fd\u5730\u65b9\u6574\u5099\u5c40\u5e83\u5cf6\u6e2f\u6e7e\u7a7a\u6e2f\u6280\u8853\u8abf\u67fb\u4e8b\u52d9\u6240","boring_xml_url":0,"boring_view_url":0,"soilmap_view_url":66,"soiltest_xml_url":0,"soiltest_view_url":66},{"id":124557,"code":"B4KJ201801001-2806","latitude":"34.24406341","longitude":"132.53467","source_code":"PORT34004010038","project_name":"\u6e2f\u6e7e\u5c40","survey_name":"\u5449\u6e2f\u5ddd\u539f\u77f3\u5730\u533a(\u5449\u5e02)","client_name":"\u56fd\u571f\u4ea4\u901a\u7701\u4e2d\u56fd\u5730\u65b9\u6574\u5099\u5c40\u5e83\u5cf6\u6e2f\u6e7e\u7a7a\u6e2f\u6280\u8853\u8abf\u67fb\u4e8b\u52d9\u6240","boring_xml_url":0,"boring_view_url":0,"soilmap_view_url":66,"soiltest_xml_url":0,"soiltest_view_url":66},{"id":124556,"code":"B4KJ201801001-2805","latitude":"34.24323027","longitude":"132.5396696","source_code":"PORT34004010037","project_name":"\u6e2f\u6e7e\u5c40","survey_name":"\u5449\u6e2f\u5ddd\u539f\u77f3\u5730\u533a(\u5449\u5e02)","client_name":"\u56fd\u571f\u4ea4\u901a\u7701\u4e2d\u56fd\u5730\u65b9\u6574\u5099\u5c40\u5e83\u5cf6\u6e2f\u6e7e\u7a7a\u6e2f\u6280\u8853\u8abf\u67fb\u4e8b\u52d9\u6240","boring_xml_url":0,"boring_view_url":0,"soilmap_view_url":66,"soiltest_xml_url":0,"soiltest_view_url":66}]}}