{"header":{"xyz":{"source":[],"mosaic":false},"page":6580,"raw":{"soiltest_result":"0","bbox":"57.598333,109.544722,1.933333,163.806111","page":"6580"},"conditions":{"soiltest_result":0,"north":57.598333,"west":109.544722,"south":1.933333,"east":163.806111},"success":true,"message":""},"data":{"meta":{"total":212844,"page":6580,"pages":7095,"count":30},"values":[{"id":123175,"code":"B4KJ201801001-1424","latitude":"34.68847844","longitude":"135.2830541","source_code":"PORT28001010029","project_name":"\u6e2f\u6e7e\u5c40","survey_name":"\u795e\u6238\u516d\u7532\u30a2\u30a4\u30e9\u30f3\u30c9","client_name":"\u56fd\u571f\u4ea4\u901a\u7701\u8fd1\u757f\u5730\u65b9\u6574\u5099\u5c40\u795e\u6238\u6e2f\u6e7e\u7a7a\u6e2f\u6280\u8853\u8abf\u67fb\u4e8b\u52d9\u6240","boring_xml_url":0,"boring_view_url":0,"soilmap_view_url":66,"soiltest_xml_url":0,"soiltest_view_url":66},{"id":123174,"code":"B4KJ201801001-1423","latitude":"34.68855574","longitude":"135.2823893","source_code":"PORT28001010028","project_name":"\u6e2f\u6e7e\u5c40","survey_name":"\u795e\u6238\u516d\u7532\u30a2\u30a4\u30e9\u30f3\u30c9","client_name":"\u56fd\u571f\u4ea4\u901a\u7701\u8fd1\u757f\u5730\u65b9\u6574\u5099\u5c40\u795e\u6238\u6e2f\u6e7e\u7a7a\u6e2f\u6280\u8853\u8abf\u67fb\u4e8b\u52d9\u6240","boring_xml_url":0,"boring_view_url":0,"soilmap_view_url":66,"soiltest_xml_url":0,"soiltest_view_url":66},{"id":123173,"code":"B4KJ201801001-1422","latitude":"34.68877081","longitude":"135.2813986","source_code":"PORT28001010027","project_name":"\u6e2f\u6e7e\u5c40","survey_name":"\u795e\u6238\u516d\u7532\u30a2\u30a4\u30e9\u30f3\u30c9","client_name":"\u56fd\u571f\u4ea4\u901a\u7701\u8fd1\u757f\u5730\u65b9\u6574\u5099\u5c40\u795e\u6238\u6e2f\u6e7e\u7a7a\u6e2f\u6280\u8853\u8abf\u67fb\u4e8b\u52d9\u6240","boring_xml_url":0,"boring_view_url":0,"soilmap_view_url":66,"soiltest_xml_url":0,"soiltest_view_url":66},{"id":123172,"code":"B4KJ201801001-1421","latitude":"34.68877922","longitude":"135.2803182","source_code":"PORT28001010026","project_name":"\u6e2f\u6e7e\u5c40","survey_name":"\u795e\u6238\u516d\u7532\u30a2\u30a4\u30e9\u30f3\u30c9","client_name":"\u56fd\u571f\u4ea4\u901a\u7701\u8fd1\u757f\u5730\u65b9\u6574\u5099\u5c40\u795e\u6238\u6e2f\u6e7e\u7a7a\u6e2f\u6280\u8853\u8abf\u67fb\u4e8b\u52d9\u6240","boring_xml_url":0,"boring_view_url":0,"soilmap_view_url":66,"soiltest_xml_url":0,"soiltest_view_url":66},{"id":123171,"code":"B4KJ201801001-1420","latitude":"34.68195808","longitude":"135.2541044","source_code":"PORT28001010025","project_name":"\u6e2f\u6e7e\u5c40","survey_name":"\u795e\u6238\u516d\u7532\u30a2\u30a4\u30e9\u30f3\u30c9","client_name":"\u56fd\u571f\u4ea4\u901a\u7701\u8fd1\u757f\u5730\u65b9\u6574\u5099\u5c40\u795e\u6238\u6e2f\u6e7e\u7a7a\u6e2f\u6280\u8853\u8abf\u67fb\u4e8b\u52d9\u6240","boring_xml_url":0,"boring_view_url":0,"soilmap_view_url":66,"soiltest_xml_url":0,"soiltest_view_url":66},{"id":123170,"code":"B4KJ201801001-1419","latitude":"34.68926738","longitude":"135.2602535","source_code":"PORT28001010024","project_name":"\u6e2f\u6e7e\u5c40","survey_name":"\u795e\u6238\u516d\u7532\u30a2\u30a4\u30e9\u30f3\u30c9","client_name":"\u56fd\u571f\u4ea4\u901a\u7701\u8fd1\u757f\u5730\u65b9\u6574\u5099\u5c40\u795e\u6238\u6e2f\u6e7e\u7a7a\u6e2f\u6280\u8853\u8abf\u67fb\u4e8b\u52d9\u6240","boring_xml_url":0,"boring_view_url":0,"soilmap_view_url":66,"soiltest_xml_url":0,"soiltest_view_url":66},{"id":123169,"code":"B4KJ201801001-1418","latitude":"34.68851021","longitude":"135.2578768","source_code":"PORT28001010023","project_name":"\u6e2f\u6e7e\u5c40","survey_name":"\u795e\u6238\u516d\u7532\u30a2\u30a4\u30e9\u30f3\u30c9","client_name":"\u56fd\u571f\u4ea4\u901a\u7701\u8fd1\u757f\u5730\u65b9\u6574\u5099\u5c40\u795e\u6238\u6e2f\u6e7e\u7a7a\u6e2f\u6280\u8853\u8abf\u67fb\u4e8b\u52d9\u6240","boring_xml_url":0,"boring_view_url":0,"soilmap_view_url":66,"soiltest_xml_url":0,"soiltest_view_url":66},{"id":123168,"code":"B4KJ201801001-1417","latitude":"34.68797543","longitude":"135.2558845","source_code":"PORT28001010022","project_name":"\u6e2f\u6e7e\u5c40","survey_name":"\u795e\u6238\u516d\u7532\u30a2\u30a4\u30e9\u30f3\u30c9","client_name":"\u56fd\u571f\u4ea4\u901a\u7701\u8fd1\u757f\u5730\u65b9\u6574\u5099\u5c40\u795e\u6238\u6e2f\u6e7e\u7a7a\u6e2f\u6280\u8853\u8abf\u67fb\u4e8b\u52d9\u6240","boring_xml_url":0,"boring_view_url":0,"soilmap_view_url":66,"soiltest_xml_url":0,"soiltest_view_url":66},{"id":123167,"code":"B4KJ201801001-1416","latitude":"34.68721129","longitude":"135.2532241","source_code":"PORT28001010021","project_name":"\u6e2f\u6e7e\u5c40","survey_name":"\u795e\u6238\u516d\u7532\u30a2\u30a4\u30e9\u30f3\u30c9","client_name":"\u56fd\u571f\u4ea4\u901a\u7701\u8fd1\u757f\u5730\u65b9\u6574\u5099\u5c40\u795e\u6238\u6e2f\u6e7e\u7a7a\u6e2f\u6280\u8853\u8abf\u67fb\u4e8b\u52d9\u6240","boring_xml_url":0,"boring_view_url":0,"soilmap_view_url":66,"soiltest_xml_url":0,"soiltest_view_url":66},{"id":123166,"code":"B4KJ201801001-1415","latitude":"34.68905745","longitude":"135.2793173","source_code":"PORT28001010020","project_name":"\u6e2f\u6e7e\u5c40","survey_name":"\u795e\u6238\u516d\u7532\u30a2\u30a4\u30e9\u30f3\u30c9","client_name":"\u56fd\u571f\u4ea4\u901a\u7701\u8fd1\u757f\u5730\u65b9\u6574\u5099\u5c40\u795e\u6238\u6e2f\u6e7e\u7a7a\u6e2f\u6280\u8853\u8abf\u67fb\u4e8b\u52d9\u6240","boring_xml_url":0,"boring_view_url":0,"soilmap_view_url":66,"soiltest_xml_url":0,"soiltest_view_url":66},{"id":123165,"code":"B4KJ201801001-1414","latitude":"34.69180994","longitude":"135.2789339","source_code":"PORT28001010019","project_name":"\u6e2f\u6e7e\u5c40","survey_name":"\u795e\u6238\u516d\u7532\u30a2\u30a4\u30e9\u30f3\u30c9","client_name":"\u56fd\u571f\u4ea4\u901a\u7701\u8fd1\u757f\u5730\u65b9\u6574\u5099\u5c40\u795e\u6238\u6e2f\u6e7e\u7a7a\u6e2f\u6280\u8853\u8abf\u67fb\u4e8b\u52d9\u6240","boring_xml_url":0,"boring_view_url":0,"soilmap_view_url":66,"soiltest_xml_url":0,"soiltest_view_url":66},{"id":123164,"code":"B4KJ201801001-1413","latitude":"34.69100477","longitude":"135.2850802","source_code":"PORT28001010018","project_name":"\u6e2f\u6e7e\u5c40","survey_name":"\u795e\u6238\u516d\u7532\u30a2\u30a4\u30e9\u30f3\u30c9","client_name":"\u56fd\u571f\u4ea4\u901a\u7701\u8fd1\u757f\u5730\u65b9\u6574\u5099\u5c40\u795e\u6238\u6e2f\u6e7e\u7a7a\u6e2f\u6280\u8853\u8abf\u67fb\u4e8b\u52d9\u6240","boring_xml_url":0,"boring_view_url":0,"soilmap_view_url":66,"soiltest_xml_url":0,"soiltest_view_url":66},{"id":123163,"code":"B4KJ201801001-1412","latitude":"34.69049109","longitude":"135.2896582","source_code":"PORT28001010017","project_name":"\u6e2f\u6e7e\u5c40","survey_name":"\u795e\u6238\u516d\u7532\u30a2\u30a4\u30e9\u30f3\u30c9","client_name":"\u56fd\u571f\u4ea4\u901a\u7701\u8fd1\u757f\u5730\u65b9\u6574\u5099\u5c40\u795e\u6238\u6e2f\u6e7e\u7a7a\u6e2f\u6280\u8853\u8abf\u67fb\u4e8b\u52d9\u6240","boring_xml_url":0,"boring_view_url":0,"soilmap_view_url":66,"soiltest_xml_url":0,"soiltest_view_url":66},{"id":123162,"code":"B4KJ201801001-1411","latitude":"34.69551847","longitude":"135.2888756","source_code":"PORT28001010016","project_name":"\u6e2f\u6e7e\u5c40","survey_name":"\u795e\u6238\u516d\u7532\u30a2\u30a4\u30e9\u30f3\u30c9","client_name":"\u56fd\u571f\u4ea4\u901a\u7701\u8fd1\u757f\u5730\u65b9\u6574\u5099\u5c40\u795e\u6238\u6e2f\u6e7e\u7a7a\u6e2f\u6280\u8853\u8abf\u67fb\u4e8b\u52d9\u6240","boring_xml_url":0,"boring_view_url":0,"soilmap_view_url":66,"soiltest_xml_url":0,"soiltest_view_url":66},{"id":123161,"code":"B4KJ201801001-1410","latitude":"34.66866164","longitude":"135.3048597","source_code":"PORT28001010014","project_name":"\u6e2f\u6e7e\u5c40","survey_name":"\u795e\u62387-\u9632\u6ce2\u5824","client_name":"\u56fd\u571f\u4ea4\u901a\u7701\u8fd1\u757f\u5730\u65b9\u6574\u5099\u5c40\u795e\u6238\u6e2f\u6e7e\u7a7a\u6e2f\u6280\u8853\u8abf\u67fb\u4e8b\u52d9\u6240","boring_xml_url":0,"boring_view_url":0,"soilmap_view_url":66,"soiltest_xml_url":0,"soiltest_view_url":66},{"id":123160,"code":"B4KJ201801001-1409","latitude":"34.67448306","longitude":"135.2994499","source_code":"PORT28001010013","project_name":"\u6e2f\u6e7e\u5c40","survey_name":"\u795e\u62387-\u9632\u6ce2\u5824","client_name":"\u56fd\u571f\u4ea4\u901a\u7701\u8fd1\u757f\u5730\u65b9\u6574\u5099\u5c40\u795e\u6238\u6e2f\u6e7e\u7a7a\u6e2f\u6280\u8853\u8abf\u67fb\u4e8b\u52d9\u6240","boring_xml_url":0,"boring_view_url":0,"soilmap_view_url":66,"soiltest_xml_url":0,"soiltest_view_url":66},{"id":123159,"code":"B4KJ201801001-1408","latitude":"34.69745134","longitude":"135.2663261","source_code":"PORT28001010012","project_name":"\u6e2f\u6e7e\u5c40","survey_name":"\u795e\u6238\u516d\u7532\u30a2\u30a4\u30e9\u30f3\u30c9","client_name":"\u56fd\u571f\u4ea4\u901a\u7701\u8fd1\u757f\u5730\u65b9\u6574\u5099\u5c40\u795e\u6238\u6e2f\u6e7e\u7a7a\u6e2f\u6280\u8853\u8abf\u67fb\u4e8b\u52d9\u6240","boring_xml_url":0,"boring_view_url":0,"soilmap_view_url":66,"soiltest_xml_url":0,"soiltest_view_url":66},{"id":123158,"code":"B4KJ201801001-1407","latitude":"34.69606841","longitude":"135.2726628","source_code":"PORT28001010011","project_name":"\u6e2f\u6e7e\u5c40","survey_name":"\u795e\u6238\u516d\u7532\u30a2\u30a4\u30e9\u30f3\u30c9","client_name":"\u56fd\u571f\u4ea4\u901a\u7701\u8fd1\u757f\u5730\u65b9\u6574\u5099\u5c40\u795e\u6238\u6e2f\u6e7e\u7a7a\u6e2f\u6280\u8853\u8abf\u67fb\u4e8b\u52d9\u6240","boring_xml_url":0,"boring_view_url":0,"soilmap_view_url":66,"soiltest_xml_url":0,"soiltest_view_url":66},{"id":123157,"code":"B4KJ201801001-1406","latitude":"34.69549139","longitude":"135.2656383","source_code":"PORT28001010010","project_name":"\u6e2f\u6e7e\u5c40","survey_name":"\u795e\u6238\u516d\u7532\u30a2\u30a4\u30e9\u30f3\u30c9","client_name":"\u56fd\u571f\u4ea4\u901a\u7701\u8fd1\u757f\u5730\u65b9\u6574\u5099\u5c40\u795e\u6238\u6e2f\u6e7e\u7a7a\u6e2f\u6280\u8853\u8abf\u67fb\u4e8b\u52d9\u6240","boring_xml_url":0,"boring_view_url":0,"soilmap_view_url":66,"soiltest_xml_url":0,"soiltest_view_url":66},{"id":123156,"code":"B4KJ201801001-1405","latitude":"34.68793002","longitude":"135.2618538","source_code":"PORT28001010009","project_name":"\u6e2f\u6e7e\u5c40","survey_name":"\u795e\u6238\u516d\u7532\u30a2\u30a4\u30e9\u30f3\u30c9","client_name":"\u56fd\u571f\u4ea4\u901a\u7701\u8fd1\u757f\u5730\u65b9\u6574\u5099\u5c40\u795e\u6238\u6e2f\u6e7e\u7a7a\u6e2f\u6280\u8853\u8abf\u67fb\u4e8b\u52d9\u6240","boring_xml_url":0,"boring_view_url":0,"soilmap_view_url":66,"soiltest_xml_url":0,"soiltest_view_url":66},{"id":123155,"code":"B4KJ201801001-1404","latitude":"34.68980781","longitude":"135.2614928","source_code":"PORT28001010008","project_name":"\u6e2f\u6e7e\u5c40","survey_name":"\u795e\u6238\u516d\u7532\u30a2\u30a4\u30e9\u30f3\u30c9","client_name":"\u56fd\u571f\u4ea4\u901a\u7701\u8fd1\u757f\u5730\u65b9\u6574\u5099\u5c40\u795e\u6238\u6e2f\u6e7e\u7a7a\u6e2f\u6280\u8853\u8abf\u67fb\u4e8b\u52d9\u6240","boring_xml_url":0,"boring_view_url":0,"soilmap_view_url":66,"soiltest_xml_url":0,"soiltest_view_url":66},{"id":123154,"code":"B4KJ201801001-1403","latitude":"34.6941632","longitude":"135.2553857","source_code":"PORT28001010007","project_name":"\u6e2f\u6e7e\u5c40","survey_name":"\u795e\u6238\u516d\u7532\u30a2\u30a4\u30e9\u30f3\u30c9","client_name":"\u56fd\u571f\u4ea4\u901a\u7701\u8fd1\u757f\u5730\u65b9\u6574\u5099\u5c40\u795e\u6238\u6e2f\u6e7e\u7a7a\u6e2f\u6280\u8853\u8abf\u67fb\u4e8b\u52d9\u6240","boring_xml_url":0,"boring_view_url":0,"soilmap_view_url":66,"soiltest_xml_url":0,"soiltest_view_url":66},{"id":123153,"code":"B4KJ201801001-1402","latitude":"34.69746446","longitude":"135.2646126","source_code":"PORT28001010006","project_name":"\u6e2f\u6e7e\u5c40","survey_name":"\u795e\u6238\u516d\u7532\u30a2\u30a4\u30e9\u30f3\u30c9","client_name":"\u56fd\u571f\u4ea4\u901a\u7701\u8fd1\u757f\u5730\u65b9\u6574\u5099\u5c40\u795e\u6238\u6e2f\u6e7e\u7a7a\u6e2f\u6280\u8853\u8abf\u67fb\u4e8b\u52d9\u6240","boring_xml_url":0,"boring_view_url":0,"soilmap_view_url":66,"soiltest_xml_url":0,"soiltest_view_url":66},{"id":123152,"code":"B4KJ201801001-1401","latitude":"34.69042384","longitude":"135.2527794","source_code":"PORT28001010005","project_name":"\u6e2f\u6e7e\u5c40","survey_name":"\u795e\u6238\u516d\u7532\u30a2\u30a4\u30e9\u30f3\u30c9","client_name":"\u56fd\u571f\u4ea4\u901a\u7701\u8fd1\u757f\u5730\u65b9\u6574\u5099\u5c40\u795e\u6238\u6e2f\u6e7e\u7a7a\u6e2f\u6280\u8853\u8abf\u67fb\u4e8b\u52d9\u6240","boring_xml_url":0,"boring_view_url":0,"soilmap_view_url":66,"soiltest_xml_url":0,"soiltest_view_url":66},{"id":123151,"code":"B4KJ201801001-1400","latitude":"34.67539793","longitude":"135.294332","source_code":"PORT28001010004","project_name":"\u6e2f\u6e7e\u5c40","survey_name":"\u795e\u62387-\u9632\u6ce2\u5824","client_name":"\u56fd\u571f\u4ea4\u901a\u7701\u8fd1\u757f\u5730\u65b9\u6574\u5099\u5c40\u795e\u6238\u6e2f\u6e7e\u7a7a\u6e2f\u6280\u8853\u8abf\u67fb\u4e8b\u52d9\u6240","boring_xml_url":0,"boring_view_url":0,"soilmap_view_url":66,"soiltest_xml_url":0,"soiltest_view_url":66},{"id":123150,"code":"B4KJ201801001-1399","latitude":"34.67431837","longitude":"135.2837024","source_code":"PORT28001010003","project_name":"\u6e2f\u6e7e\u5c40","survey_name":"\u795e\u62387-\u9632\u6ce2\u5824","client_name":"\u56fd\u571f\u4ea4\u901a\u7701\u8fd1\u757f\u5730\u65b9\u6574\u5099\u5c40\u795e\u6238\u6e2f\u6e7e\u7a7a\u6e2f\u6280\u8853\u8abf\u67fb\u4e8b\u52d9\u6240","boring_xml_url":0,"boring_view_url":0,"soilmap_view_url":66,"soiltest_xml_url":0,"soiltest_view_url":66},{"id":123149,"code":"B4KJ201801001-1398","latitude":"34.6726111","longitude":"135.2678285","source_code":"PORT28001010002","project_name":"\u6e2f\u6e7e\u5c40","survey_name":"\u795e\u62387-\u9632\u6ce2\u5824","client_name":"\u56fd\u571f\u4ea4\u901a\u7701\u8fd1\u757f\u5730\u65b9\u6574\u5099\u5c40\u795e\u6238\u6e2f\u6e7e\u7a7a\u6e2f\u6280\u8853\u8abf\u67fb\u4e8b\u52d9\u6240","boring_xml_url":0,"boring_view_url":0,"soilmap_view_url":66,"soiltest_xml_url":0,"soiltest_view_url":66},{"id":123148,"code":"B4KJ201801001-1397","latitude":"34.67108129","longitude":"135.2559261","source_code":"PORT28001010001","project_name":"\u6e2f\u6e7e\u5c40","survey_name":"\u795e\u62387-\u9632\u6ce2\u5824","client_name":"\u56fd\u571f\u4ea4\u901a\u7701\u8fd1\u757f\u5730\u65b9\u6574\u5099\u5c40\u795e\u6238\u6e2f\u6e7e\u7a7a\u6e2f\u6280\u8853\u8abf\u67fb\u4e8b\u52d9\u6240","boring_xml_url":0,"boring_view_url":0,"soilmap_view_url":66,"soiltest_xml_url":0,"soiltest_view_url":66},{"id":123147,"code":"B4KJ201801001-1396","latitude":"34.79676862","longitude":"135.4369714","source_code":"PORT27011010007","project_name":"\u6e2f\u6e7e\u5c40","survey_name":"\u5927\u962a\u56fd\u969b\u7a7a\u6e2f\u6392\u6c34\u65bd\u8a2d\u571f\u8cea\u8abf\u67fb","client_name":"\u56fd\u571f\u4ea4\u901a\u7701\u8fd1\u757f\u5730\u65b9\u6574\u5099\u5c40\u795e\u6238\u6e2f\u6e7e\u7a7a\u6e2f\u6280\u8853\u8abf\u67fb\u4e8b\u52d9\u6240","boring_xml_url":0,"boring_view_url":0,"soilmap_view_url":66,"soiltest_xml_url":0,"soiltest_view_url":66},{"id":123146,"code":"B4KJ201801001-1395","latitude":"34.79774073","longitude":"135.4370269","source_code":"PORT27011010006","project_name":"\u6e2f\u6e7e\u5c40","survey_name":"\u5927\u962a\u56fd\u969b\u7a7a\u6e2f\u6392\u6c34\u65bd\u8a2d\u571f\u8cea\u8abf\u67fb","client_name":"\u56fd\u571f\u4ea4\u901a\u7701\u8fd1\u757f\u5730\u65b9\u6574\u5099\u5c40\u795e\u6238\u6e2f\u6e7e\u7a7a\u6e2f\u6280\u8853\u8abf\u67fb\u4e8b\u52d9\u6240","boring_xml_url":0,"boring_view_url":0,"soilmap_view_url":66,"soiltest_xml_url":0,"soiltest_view_url":66}]}}