{"header":{"xyz":{"source":[],"mosaic":false},"page":6604,"raw":{"soiltest_result":"0","bbox":"57.598333,109.544722,1.933333,163.806111","page":"6604"},"conditions":{"soiltest_result":0,"north":57.598333,"west":109.544722,"south":1.933333,"east":163.806111},"success":true,"message":""},"data":{"meta":{"total":212844,"page":6604,"pages":7095,"count":30},"values":[{"id":122455,"code":"B4KJ201801001-0704","latitude":"34.96601858","longitude":"136.6645594","source_code":"PORT24001010143","project_name":"\u6e2f\u6e7e\u5c40","survey_name":"\u6771\u9632\u6ce2\u5824\u571f\u8cea\u8abf\u67fb\u5de5\u4e8b\u56db\u65e5\u5e02\u6e2f\u5185","client_name":"\u56fd\u571f\u4ea4\u901a\u7701\u4e2d\u90e8\u5730\u65b9\u6574\u5099\u5c40\u540d\u53e4\u5c4b\u6e2f\u6e7e\u7a7a\u6e2f\u6280\u8853\u8abf\u67fb\u4e8b\u52d9\u6240","boring_xml_url":0,"boring_view_url":0,"soilmap_view_url":66,"soiltest_xml_url":0,"soiltest_view_url":66},{"id":122454,"code":"B4KJ201801001-0703","latitude":"34.9660186","longitude":"136.6651149","source_code":"PORT24001010142","project_name":"\u6e2f\u6e7e\u5c40","survey_name":"\u6771\u9632\u6ce2\u5824\u571f\u8cea\u8abf\u67fb\u5de5\u4e8b\u56db\u65e5\u5e02\u6e2f\u5185","client_name":"\u56fd\u571f\u4ea4\u901a\u7701\u4e2d\u90e8\u5730\u65b9\u6574\u5099\u5c40\u540d\u53e4\u5c4b\u6e2f\u6e7e\u7a7a\u6e2f\u6280\u8853\u8abf\u67fb\u4e8b\u52d9\u6240","boring_xml_url":0,"boring_view_url":0,"soilmap_view_url":66,"soiltest_xml_url":0,"soiltest_view_url":66},{"id":122453,"code":"B4KJ201801001-0702","latitude":"34.99407578","longitude":"136.664575","source_code":"PORT24001010141","project_name":"\u6e2f\u6e7e\u5c40","survey_name":"\u971e\u30f6\u6d66\u5730\u533a\u571f\u8cea\u8abf\u67fb\u56db\u65e5\u5e02\u6e2f\u971e\u30f6\u6d66","client_name":"\u56fd\u571f\u4ea4\u901a\u7701\u4e2d\u90e8\u5730\u65b9\u6574\u5099\u5c40\u540d\u53e4\u5c4b\u6e2f\u6e7e\u7a7a\u6e2f\u6280\u8853\u8abf\u67fb\u4e8b\u52d9\u6240","boring_xml_url":0,"boring_view_url":0,"soilmap_view_url":66,"soiltest_xml_url":0,"soiltest_view_url":66},{"id":122452,"code":"B4KJ201801001-0701","latitude":"34.99490904","longitude":"136.6670747","source_code":"PORT24001010140","project_name":"\u6e2f\u6e7e\u5c40","survey_name":"\u971e\u30f6\u6d66\u5730\u533a\u571f\u8cea\u8abf\u67fb\u56db\u65e5\u5e02\u6e2f\u971e\u30f6\u6d66","client_name":"\u56fd\u571f\u4ea4\u901a\u7701\u4e2d\u90e8\u5730\u65b9\u6574\u5099\u5c40\u540d\u53e4\u5c4b\u6e2f\u6e7e\u7a7a\u6e2f\u6280\u8853\u8abf\u67fb\u4e8b\u52d9\u6240","boring_xml_url":0,"boring_view_url":0,"soilmap_view_url":66,"soiltest_xml_url":0,"soiltest_view_url":66},{"id":122451,"code":"B4KJ201801001-0700","latitude":"34.99407585","longitude":"136.6687413","source_code":"PORT24001010139","project_name":"\u6e2f\u6e7e\u5c40","survey_name":"\u971e\u30f6\u6d66\u5730\u533a\u571f\u8cea\u8abf\u67fb\u56db\u65e5\u5e02\u6e2f\u971e\u30f6\u6d66","client_name":"\u56fd\u571f\u4ea4\u901a\u7701\u4e2d\u90e8\u5730\u65b9\u6574\u5099\u5c40\u540d\u53e4\u5c4b\u6e2f\u6e7e\u7a7a\u6e2f\u6280\u8853\u8abf\u67fb\u4e8b\u52d9\u6240","boring_xml_url":0,"boring_view_url":0,"soilmap_view_url":66,"soiltest_xml_url":0,"soiltest_view_url":66},{"id":122450,"code":"B4KJ201801001-0699","latitude":"34.99407584","longitude":"136.6681858","source_code":"PORT24001010138","project_name":"\u6e2f\u6e7e\u5c40","survey_name":"\u971e\u30f6\u6d66\u5730\u533a\u571f\u8cea\u8abf\u67fb\u56db\u65e5\u5e02\u6e2f\u971e\u30f6\u6d66","client_name":"\u56fd\u571f\u4ea4\u901a\u7701\u4e2d\u90e8\u5730\u65b9\u6574\u5099\u5c40\u540d\u53e4\u5c4b\u6e2f\u6e7e\u7a7a\u6e2f\u6280\u8853\u8abf\u67fb\u4e8b\u52d9\u6240","boring_xml_url":0,"boring_view_url":0,"soilmap_view_url":66,"soiltest_xml_url":0,"soiltest_view_url":66},{"id":122449,"code":"B4KJ201801001-0698","latitude":"34.99435357","longitude":"136.6676302","source_code":"PORT24001010137","project_name":"\u6e2f\u6e7e\u5c40","survey_name":"\u971e\u30f6\u6d66\u5730\u533a\u571f\u8cea\u8abf\u67fb\u56db\u65e5\u5e02\u6e2f\u971e\u30f6\u6d66","client_name":"\u56fd\u571f\u4ea4\u901a\u7701\u4e2d\u90e8\u5730\u65b9\u6574\u5099\u5c40\u540d\u53e4\u5c4b\u6e2f\u6e7e\u7a7a\u6e2f\u6280\u8853\u8abf\u67fb\u4e8b\u52d9\u6240","boring_xml_url":0,"boring_view_url":0,"soilmap_view_url":66,"soiltest_xml_url":0,"soiltest_view_url":66},{"id":122448,"code":"B4KJ201801001-0697","latitude":"34.99435356","longitude":"136.6670747","source_code":"PORT24001010136","project_name":"\u6e2f\u6e7e\u5c40","survey_name":"\u971e\u30f6\u6d66\u5730\u533a\u571f\u8cea\u8abf\u67fb\u56db\u65e5\u5e02\u6e2f\u971e\u30f6\u6d66","client_name":"\u56fd\u571f\u4ea4\u901a\u7701\u4e2d\u90e8\u5730\u65b9\u6574\u5099\u5c40\u540d\u53e4\u5c4b\u6e2f\u6e7e\u7a7a\u6e2f\u6280\u8853\u8abf\u67fb\u4e8b\u52d9\u6240","boring_xml_url":0,"boring_view_url":0,"soilmap_view_url":66,"soiltest_xml_url":0,"soiltest_view_url":66},{"id":122447,"code":"B4KJ201801001-0696","latitude":"34.9946313","longitude":"136.666797","source_code":"PORT24001010135","project_name":"\u6e2f\u6e7e\u5c40","survey_name":"\u971e\u30f6\u6d66\u5730\u533a\u571f\u8cea\u8abf\u67fb\u56db\u65e5\u5e02\u6e2f\u971e\u30f6\u6d66","client_name":"\u56fd\u571f\u4ea4\u901a\u7701\u4e2d\u90e8\u5730\u65b9\u6574\u5099\u5c40\u540d\u53e4\u5c4b\u6e2f\u6e7e\u7a7a\u6e2f\u6280\u8853\u8abf\u67fb\u4e8b\u52d9\u6240","boring_xml_url":0,"boring_view_url":0,"soilmap_view_url":66,"soiltest_xml_url":0,"soiltest_view_url":66},{"id":122446,"code":"B4KJ201801001-0695","latitude":"34.99463129","longitude":"136.6662415","source_code":"PORT24001010134","project_name":"\u6e2f\u6e7e\u5c40","survey_name":"\u971e\u30f6\u6d66\u5730\u533a\u571f\u8cea\u8abf\u67fb\u56db\u65e5\u5e02\u6e2f\u971e\u30f6\u6d66","client_name":"\u56fd\u571f\u4ea4\u901a\u7701\u4e2d\u90e8\u5730\u65b9\u6574\u5099\u5c40\u540d\u53e4\u5c4b\u6e2f\u6e7e\u7a7a\u6e2f\u6280\u8853\u8abf\u67fb\u4e8b\u52d9\u6240","boring_xml_url":0,"boring_view_url":0,"soilmap_view_url":66,"soiltest_xml_url":0,"soiltest_view_url":66},{"id":122445,"code":"B4KJ201801001-0694","latitude":"34.99490902","longitude":"136.665686","source_code":"PORT24001010133","project_name":"\u6e2f\u6e7e\u5c40","survey_name":"\u971e\u30f6\u6d66\u5730\u533a\u571f\u8cea\u8abf\u67fb\u56db\u65e5\u5e02\u6e2f\u971e\u30f6\u6d66","client_name":"\u56fd\u571f\u4ea4\u901a\u7701\u4e2d\u90e8\u5730\u65b9\u6574\u5099\u5c40\u540d\u53e4\u5c4b\u6e2f\u6e7e\u7a7a\u6e2f\u6280\u8853\u8abf\u67fb\u4e8b\u52d9\u6240","boring_xml_url":0,"boring_view_url":0,"soilmap_view_url":66,"soiltest_xml_url":0,"soiltest_view_url":66},{"id":122444,"code":"B4KJ201801001-0693","latitude":"34.99518675","longitude":"136.6651304","source_code":"PORT24001010132","project_name":"\u6e2f\u6e7e\u5c40","survey_name":"\u971e\u30f6\u6d66\u5730\u533a\u571f\u8cea\u8abf\u67fb\u56db\u65e5\u5e02\u6e2f\u971e\u30f6\u6d66","client_name":"\u56fd\u571f\u4ea4\u901a\u7701\u4e2d\u90e8\u5730\u65b9\u6574\u5099\u5c40\u540d\u53e4\u5c4b\u6e2f\u6e7e\u7a7a\u6e2f\u6280\u8853\u8abf\u67fb\u4e8b\u52d9\u6240","boring_xml_url":0,"boring_view_url":0,"soilmap_view_url":66,"soiltest_xml_url":0,"soiltest_view_url":66},{"id":122443,"code":"B4KJ201801001-0692","latitude":"34.99546448","longitude":"136.6645749","source_code":"PORT24001010131","project_name":"\u6e2f\u6e7e\u5c40","survey_name":"\u971e\u30f6\u6d66\u5730\u533a\u571f\u8cea\u8abf\u67fb\u56db\u65e5\u5e02\u6e2f\u971e\u30f6\u6d66","client_name":"\u56fd\u571f\u4ea4\u901a\u7701\u4e2d\u90e8\u5730\u65b9\u6574\u5099\u5c40\u540d\u53e4\u5c4b\u6e2f\u6e7e\u7a7a\u6e2f\u6280\u8853\u8abf\u67fb\u4e8b\u52d9\u6240","boring_xml_url":0,"boring_view_url":0,"soilmap_view_url":66,"soiltest_xml_url":0,"soiltest_view_url":66},{"id":122442,"code":"B4KJ201801001-0691","latitude":"34.96601864","longitude":"136.6667814","source_code":"PORT24001010130","project_name":"\u6e2f\u6e7e\u5c40","survey_name":"\u56db\u65e5\u5e02\u6e2f\u6771\u9632\u6ce2\u5824\u571f\u8cea\u8abf\u67fb\u5831\u544a\u66f8\u662d\u548c52\u5e7412\u6708","client_name":"\u56fd\u571f\u4ea4\u901a\u7701\u4e2d\u90e8\u5730\u65b9\u6574\u5099\u5c40\u540d\u53e4\u5c4b\u6e2f\u6e7e\u7a7a\u6e2f\u6280\u8853\u8abf\u67fb\u4e8b\u52d9\u6240","boring_xml_url":0,"boring_view_url":0,"soilmap_view_url":66,"soiltest_xml_url":0,"soiltest_view_url":66},{"id":122441,"code":"B4KJ201801001-0690","latitude":"34.96629638","longitude":"136.6665037","source_code":"PORT24001010129","project_name":"\u6e2f\u6e7e\u5c40","survey_name":"\u56db\u65e5\u5e02\u6e2f\u6771\u9632\u6ce2\u5824\u571f\u8cea\u8abf\u67fb\u5831\u544a\u66f8\u662d\u548c52\u5e7412\u6708","client_name":"\u56fd\u571f\u4ea4\u901a\u7701\u4e2d\u90e8\u5730\u65b9\u6574\u5099\u5c40\u540d\u53e4\u5c4b\u6e2f\u6e7e\u7a7a\u6e2f\u6280\u8853\u8abf\u67fb\u4e8b\u52d9\u6240","boring_xml_url":0,"boring_view_url":0,"soilmap_view_url":66,"soiltest_xml_url":0,"soiltest_view_url":66},{"id":122440,"code":"B4KJ201801001-0689","latitude":"34.96601863","longitude":"136.6665037","source_code":"PORT24001010128","project_name":"\u6e2f\u6e7e\u5c40","survey_name":"\u56db\u65e5\u5e02\u6e2f\u6771\u9632\u6ce2\u5824\u571f\u8cea\u8abf\u67fb\u5831\u544a\u66f8\u662d\u548c52\u5e7412\u6708","client_name":"\u56fd\u571f\u4ea4\u901a\u7701\u4e2d\u90e8\u5730\u65b9\u6574\u5099\u5c40\u540d\u53e4\u5c4b\u6e2f\u6e7e\u7a7a\u6e2f\u6280\u8853\u8abf\u67fb\u4e8b\u52d9\u6240","boring_xml_url":0,"boring_view_url":0,"soilmap_view_url":66,"soiltest_xml_url":0,"soiltest_view_url":66},{"id":122439,"code":"B4KJ201801001-0688","latitude":"34.98963204","longitude":"136.6692969","source_code":"PORT24001010127","project_name":"\u6e2f\u6e7e\u5c40","survey_name":"\u971e\u30f6\u6d66\u5cb8\u58c1(-12M)\u571f\u8cea\u56db\u65e5\u5e02\u6e2f\u971e\u30f6\u6d66","client_name":"\u56fd\u571f\u4ea4\u901a\u7701\u4e2d\u90e8\u5730\u65b9\u6574\u5099\u5c40\u540d\u53e4\u5c4b\u6e2f\u6e7e\u7a7a\u6e2f\u6280\u8853\u8abf\u67fb\u4e8b\u52d9\u6240","boring_xml_url":0,"boring_view_url":0,"soilmap_view_url":66,"soiltest_xml_url":0,"soiltest_view_url":66},{"id":122438,"code":"B4KJ201801001-0687","latitude":"34.98990978","longitude":"136.6692969","source_code":"PORT24001010126","project_name":"\u6e2f\u6e7e\u5c40","survey_name":"\u971e\u30f6\u6d66\u5cb8\u58c1(-12M)\u571f\u8cea\u56db\u65e5\u5e02\u6e2f\u971e\u30f6\u6d66","client_name":"\u56fd\u571f\u4ea4\u901a\u7701\u4e2d\u90e8\u5730\u65b9\u6574\u5099\u5c40\u540d\u53e4\u5c4b\u6e2f\u6e7e\u7a7a\u6e2f\u6280\u8853\u8abf\u67fb\u4e8b\u52d9\u6240","boring_xml_url":0,"boring_view_url":0,"soilmap_view_url":66,"soiltest_xml_url":0,"soiltest_view_url":66},{"id":122437,"code":"B4KJ201801001-0686","latitude":"34.98990978","longitude":"136.6692969","source_code":"PORT24001010125","project_name":"\u6e2f\u6e7e\u5c40","survey_name":"\u971e\u30f6\u6d66\u5cb8\u58c1(-12M)\u571f\u8cea\u56db\u65e5\u5e02\u6e2f\u971e\u30f6\u6d66","client_name":"\u56fd\u571f\u4ea4\u901a\u7701\u4e2d\u90e8\u5730\u65b9\u6574\u5099\u5c40\u540d\u53e4\u5c4b\u6e2f\u6e7e\u7a7a\u6e2f\u6280\u8853\u8abf\u67fb\u4e8b\u52d9\u6240","boring_xml_url":0,"boring_view_url":0,"soilmap_view_url":66,"soiltest_xml_url":0,"soiltest_view_url":66},{"id":122436,"code":"B4KJ201801001-0685","latitude":"34.96632118","longitude":"136.6667529","source_code":"PORT24001010124","project_name":"\u6e2f\u6e7e\u5c40","survey_name":"\u56db\u65e5\u5e02\u6e2f\u971e\u30f6\u6d66\u5cb8\u58c1(-12m)\u53ca\u3073\u6771\u9632\u7834\u5824\u571f\u8cea\u8abf\u67fb\u5de5\u4e8b\u5831\u544a\u66f8","client_name":"\u56fd\u571f\u4ea4\u901a\u7701\u4e2d\u90e8\u5730\u65b9\u6574\u5099\u5c40\u540d\u53e4\u5c4b\u6e2f\u6e7e\u7a7a\u6e2f\u6280\u8853\u8abf\u67fb\u4e8b\u52d9\u6240","boring_xml_url":0,"boring_view_url":0,"soilmap_view_url":66,"soiltest_xml_url":0,"soiltest_view_url":66},{"id":122435,"code":"B4KJ201801001-0684","latitude":"34.96646808","longitude":"136.6660303","source_code":"PORT24001010123","project_name":"\u6e2f\u6e7e\u5c40","survey_name":"\u56db\u65e5\u5e02\u6e2f\u971e\u30f6\u6d66\u5cb8\u58c1(-12m)\u53ca\u3073\u6771\u9632\u7834\u5824\u571f\u8cea\u8abf\u67fb\u5de5\u4e8b\u5831\u544a\u66f8","client_name":"\u56fd\u571f\u4ea4\u901a\u7701\u4e2d\u90e8\u5730\u65b9\u6574\u5099\u5c40\u540d\u53e4\u5c4b\u6e2f\u6e7e\u7a7a\u6e2f\u6280\u8853\u8abf\u67fb\u4e8b\u52d9\u6240","boring_xml_url":0,"boring_view_url":0,"soilmap_view_url":66,"soiltest_xml_url":0,"soiltest_view_url":66},{"id":122434,"code":"B4KJ201801001-0683","latitude":"34.96595207","longitude":"136.6660718","source_code":"PORT24001010122","project_name":"\u6e2f\u6e7e\u5c40","survey_name":"\u56db\u65e5\u5e02\u6e2f\u971e\u30f6\u6d66\u5cb8\u58c1(-12m)\u53ca\u3073\u6771\u9632\u7834\u5824\u571f\u8cea\u8abf\u67fb\u5de5\u4e8b\u5831\u544a\u66f8","client_name":"\u56fd\u571f\u4ea4\u901a\u7701\u4e2d\u90e8\u5730\u65b9\u6574\u5099\u5c40\u540d\u53e4\u5c4b\u6e2f\u6e7e\u7a7a\u6e2f\u6280\u8853\u8abf\u67fb\u4e8b\u52d9\u6240","boring_xml_url":0,"boring_view_url":0,"soilmap_view_url":66,"soiltest_xml_url":0,"soiltest_view_url":66},{"id":122433,"code":"B4KJ201801001-0682","latitude":"34.96618171","longitude":"136.6653943","source_code":"PORT24001010121","project_name":"\u6e2f\u6e7e\u5c40","survey_name":"\u56db\u65e5\u5e02\u6e2f\u971e\u30f6\u6d66\u5cb8\u58c1(-12m)\u53ca\u3073\u6771\u9632\u7834\u5824\u571f\u8cea\u8abf\u67fb\u5de5\u4e8b\u5831\u544a\u66f8","client_name":"\u56fd\u571f\u4ea4\u901a\u7701\u4e2d\u90e8\u5730\u65b9\u6574\u5099\u5c40\u540d\u53e4\u5c4b\u6e2f\u6e7e\u7a7a\u6e2f\u6280\u8853\u8abf\u67fb\u4e8b\u52d9\u6240","boring_xml_url":0,"boring_view_url":0,"soilmap_view_url":66,"soiltest_xml_url":0,"soiltest_view_url":66},{"id":122432,"code":"B4KJ201801001-0681","latitude":"34.99008549","longitude":"136.6696681","source_code":"PORT24001010120","project_name":"\u6e2f\u6e7e\u5c40","survey_name":"\u56db\u65e5\u5e02\u6e2f\u971e\u30f6\u6d66\u5cb8\u58c1(-12m)\u53ca\u3073\u6771\u9632\u7834\u5824\u571f\u8cea\u8abf\u67fb\u5de5\u4e8b\u5831\u544a\u66f8","client_name":"\u56fd\u571f\u4ea4\u901a\u7701\u4e2d\u90e8\u5730\u65b9\u6574\u5099\u5c40\u540d\u53e4\u5c4b\u6e2f\u6e7e\u7a7a\u6e2f\u6280\u8853\u8abf\u67fb\u4e8b\u52d9\u6240","boring_xml_url":0,"boring_view_url":0,"soilmap_view_url":66,"soiltest_xml_url":0,"soiltest_view_url":66},{"id":122431,"code":"B4KJ201801001-0680","latitude":"34.99024287","longitude":"136.6697632","source_code":"PORT24001010119","project_name":"\u6e2f\u6e7e\u5c40","survey_name":"\u56db\u65e5\u5e02\u6e2f\u971e\u30f6\u6d66\u5cb8\u58c1(-12m)\u53ca\u3073\u6771\u9632\u7834\u5824\u571f\u8cea\u8abf\u67fb\u5de5\u4e8b\u5831\u544a\u66f8","client_name":"\u56fd\u571f\u4ea4\u901a\u7701\u4e2d\u90e8\u5730\u65b9\u6574\u5099\u5c40\u540d\u53e4\u5c4b\u6e2f\u6e7e\u7a7a\u6e2f\u6280\u8853\u8abf\u67fb\u4e8b\u52d9\u6240","boring_xml_url":0,"boring_view_url":0,"soilmap_view_url":66,"soiltest_xml_url":0,"soiltest_view_url":66},{"id":122430,"code":"B4KJ201801001-0679","latitude":"34.9909257","longitude":"136.667926","source_code":"PORT24001010118","project_name":"\u6e2f\u6e7e\u5c40","survey_name":"\u56db\u65e5\u5e02\u6e2f\u971e\u30f6\u6d66\u5cb8\u58c1(-12m)\u53ca\u3073\u6771\u9632\u7834\u5824\u571f\u8cea\u8abf\u67fb\u5de5\u4e8b\u5831\u544a\u66f8","client_name":"\u56fd\u571f\u4ea4\u901a\u7701\u4e2d\u90e8\u5730\u65b9\u6574\u5099\u5c40\u540d\u53e4\u5c4b\u6e2f\u6e7e\u7a7a\u6e2f\u6280\u8853\u8abf\u67fb\u4e8b\u52d9\u6240","boring_xml_url":0,"boring_view_url":0,"soilmap_view_url":66,"soiltest_xml_url":0,"soiltest_view_url":66},{"id":122429,"code":"B4KJ201801001-0678","latitude":"34.99157615","longitude":"136.6662416","source_code":"PORT24001010117","project_name":"\u6e2f\u6e7e\u5c40","survey_name":"\u56db\u65e5\u5e02\u6e2f\u971e\u30f6\u6d66\u5cb8\u58c1(-12m)\u53ca\u3073\u6771\u9632\u7834\u5824\u571f\u8cea\u8abf\u67fb\u5de5\u4e8b\u5831\u544a\u66f8","client_name":"\u56fd\u571f\u4ea4\u901a\u7701\u4e2d\u90e8\u5730\u65b9\u6574\u5099\u5c40\u540d\u53e4\u5c4b\u6e2f\u6e7e\u7a7a\u6e2f\u6280\u8853\u8abf\u67fb\u4e8b\u52d9\u6240","boring_xml_url":0,"boring_view_url":0,"soilmap_view_url":66,"soiltest_xml_url":0,"soiltest_view_url":66},{"id":122428,"code":"B4KJ201801001-0677","latitude":"34.99074296","longitude":"136.6676304","source_code":"PORT24001010116","project_name":"\u6e2f\u6e7e\u5c40","survey_name":"\u971e\u30f6\u6d66\u5cb8\u58c1(-12M)\u571f\u8cea\u5357\u57e0\u982d\u5317","client_name":"\u56fd\u571f\u4ea4\u901a\u7701\u4e2d\u90e8\u5730\u65b9\u6574\u5099\u5c40\u540d\u53e4\u5c4b\u6e2f\u6e7e\u7a7a\u6e2f\u6280\u8853\u8abf\u67fb\u4e8b\u52d9\u6240","boring_xml_url":0,"boring_view_url":0,"soilmap_view_url":66,"soiltest_xml_url":0,"soiltest_view_url":66},{"id":122427,"code":"B4KJ201801001-0676","latitude":"34.99102066","longitude":"136.6656861","source_code":"PORT24001010115","project_name":"\u6e2f\u6e7e\u5c40","survey_name":"\u971e\u30f6\u6d66\u5cb8\u58c1(-12M)\u571f\u8cea\u5357\u57e0\u982d\u5317","client_name":"\u56fd\u571f\u4ea4\u901a\u7701\u4e2d\u90e8\u5730\u65b9\u6574\u5099\u5c40\u540d\u53e4\u5c4b\u6e2f\u6e7e\u7a7a\u6e2f\u6280\u8853\u8abf\u67fb\u4e8b\u52d9\u6240","boring_xml_url":0,"boring_view_url":0,"soilmap_view_url":66,"soiltest_xml_url":0,"soiltest_view_url":66},{"id":122426,"code":"B4KJ201801001-0675","latitude":"34.99074301","longitude":"136.6698524","source_code":"PORT24001010114","project_name":"\u6e2f\u6e7e\u5c40","survey_name":"\u56db\u65e5\u5e02\u6e2f\u971e\u30f6\u6d66\u5730\u533a\u571f\u8cea\u8abf\u67fb\u5de5\u4e8b\u5831\u544a\u66f8\u662d\u548c47\u5e7411\u6708","client_name":"\u56fd\u571f\u4ea4\u901a\u7701\u4e2d\u90e8\u5730\u65b9\u6574\u5099\u5c40\u540d\u53e4\u5c4b\u6e2f\u6e7e\u7a7a\u6e2f\u6280\u8853\u8abf\u67fb\u4e8b\u52d9\u6240","boring_xml_url":0,"boring_view_url":0,"soilmap_view_url":66,"soiltest_xml_url":0,"soiltest_view_url":66}]}}