{"header":{"xyz":{"source":[],"mosaic":false},"page":6610,"raw":{"soiltest_result":"0","bbox":"57.598333,109.544722,1.933333,163.806111","page":"6610"},"conditions":{"soiltest_result":0,"north":57.598333,"west":109.544722,"south":1.933333,"east":163.806111},"success":true,"message":""},"data":{"meta":{"total":212844,"page":6610,"pages":7095,"count":30},"values":[{"id":122275,"code":"B4KJ201801001-0524","latitude":"34.73929206","longitude":"137.3078159","source_code":"PORT23003010170","project_name":"\u6e2f\u6e7e\u5c40","survey_name":"\u5e73\u62104\u5e74\u5ea6\u4e09\u6cb3\u6e2f\u5cb8\u58c1(-12m)(\u897f)\u571f\u8cea\u8abf\u67fb\u5831\u544a\u66f8\u5e73","client_name":"\u56fd\u571f\u4ea4\u901a\u7701\u4e2d\u90e8\u5730\u65b9\u6574\u5099\u5c40\u540d\u53e4\u5c4b\u6e2f\u6e7e\u7a7a\u6e2f\u6280\u8853\u8abf\u67fb\u4e8b\u52d9\u6240","boring_xml_url":0,"boring_view_url":0,"soilmap_view_url":66,"soiltest_xml_url":0,"soiltest_view_url":66},{"id":122274,"code":"B4KJ201801001-0523","latitude":"34.73838092","longitude":"137.3083482","source_code":"PORT23003010169","project_name":"\u6e2f\u6e7e\u5c40","survey_name":"\u5e73\u62104\u5e74\u5ea6\u4e09\u6cb3\u6e2f\u5cb8\u58c1(-12m)(\u897f)\u571f\u8cea\u8abf\u67fb\u5831\u544a\u66f8\u5e73","client_name":"\u56fd\u571f\u4ea4\u901a\u7701\u4e2d\u90e8\u5730\u65b9\u6574\u5099\u5c40\u540d\u53e4\u5c4b\u6e2f\u6e7e\u7a7a\u6e2f\u6280\u8853\u8abf\u67fb\u4e8b\u52d9\u6240","boring_xml_url":0,"boring_view_url":0,"soilmap_view_url":66,"soiltest_xml_url":0,"soiltest_view_url":66},{"id":122273,"code":"B4KJ201801001-0522","latitude":"34.74064398","longitude":"137.3081092","source_code":"PORT23003010168","project_name":"\u6e2f\u6e7e\u5c40","survey_name":"\u5e73\u62104\u5e74\u5ea6\u4e09\u6cb3\u6e2f\u5cb8\u58c1(-12m)(\u897f)\u571f\u8cea\u8abf\u67fb\u5831\u544a\u66f8\u5e73","client_name":"\u56fd\u571f\u4ea4\u901a\u7701\u4e2d\u90e8\u5730\u65b9\u6574\u5099\u5c40\u540d\u53e4\u5c4b\u6e2f\u6e7e\u7a7a\u6e2f\u6280\u8853\u8abf\u67fb\u4e8b\u52d9\u6240","boring_xml_url":0,"boring_view_url":0,"soilmap_view_url":66,"soiltest_xml_url":0,"soiltest_view_url":66},{"id":122272,"code":"B4KJ201801001-0521","latitude":"34.74019324","longitude":"137.3081024","source_code":"PORT23003010167","project_name":"\u6e2f\u6e7e\u5c40","survey_name":"\u5e73\u62104\u5e74\u5ea6\u4e09\u6cb3\u6e2f\u5cb8\u58c1(-12m)(\u897f)\u571f\u8cea\u8abf\u67fb\u5831\u544a\u66f8\u5e73","client_name":"\u56fd\u571f\u4ea4\u901a\u7701\u4e2d\u90e8\u5730\u65b9\u6574\u5099\u5c40\u540d\u53e4\u5c4b\u6e2f\u6e7e\u7a7a\u6e2f\u6280\u8853\u8abf\u67fb\u4e8b\u52d9\u6240","boring_xml_url":0,"boring_view_url":0,"soilmap_view_url":66,"soiltest_xml_url":0,"soiltest_view_url":66},{"id":122271,"code":"B4KJ201801001-0520","latitude":"34.73974249","longitude":"137.3080957","source_code":"PORT23003010166","project_name":"\u6e2f\u6e7e\u5c40","survey_name":"\u5e73\u62104\u5e74\u5ea6\u4e09\u6cb3\u6e2f\u5cb8\u58c1(-12m)(\u897f)\u571f\u8cea\u8abf\u67fb\u5831\u544a\u66f8\u5e73","client_name":"\u56fd\u571f\u4ea4\u901a\u7701\u4e2d\u90e8\u5730\u65b9\u6574\u5099\u5c40\u540d\u53e4\u5c4b\u6e2f\u6e7e\u7a7a\u6e2f\u6280\u8853\u8abf\u67fb\u4e8b\u52d9\u6240","boring_xml_url":0,"boring_view_url":0,"soilmap_view_url":66,"soiltest_xml_url":0,"soiltest_view_url":66},{"id":122270,"code":"B4KJ201801001-0519","latitude":"34.73929175","longitude":"137.3080888","source_code":"PORT23003010165","project_name":"\u6e2f\u6e7e\u5c40","survey_name":"\u5e73\u62104\u5e74\u5ea6\u4e09\u6cb3\u6e2f\u5cb8\u58c1(-12m)(\u897f)\u571f\u8cea\u8abf\u67fb\u5831\u544a\u66f8\u5e73","client_name":"\u56fd\u571f\u4ea4\u901a\u7701\u4e2d\u90e8\u5730\u65b9\u6574\u5099\u5c40\u540d\u53e4\u5c4b\u6e2f\u6e7e\u7a7a\u6e2f\u6280\u8853\u8abf\u67fb\u4e8b\u52d9\u6240","boring_xml_url":0,"boring_view_url":0,"soilmap_view_url":66,"soiltest_xml_url":0,"soiltest_view_url":66},{"id":122269,"code":"B4KJ201801001-0518","latitude":"34.738841","longitude":"137.308082","source_code":"PORT23003010164","project_name":"\u6e2f\u6e7e\u5c40","survey_name":"\u5e73\u62104\u5e74\u5ea6\u4e09\u6cb3\u6e2f\u5cb8\u58c1(-12m)(\u897f)\u571f\u8cea\u8abf\u67fb\u5831\u544a\u66f8\u5e73","client_name":"\u56fd\u571f\u4ea4\u901a\u7701\u4e2d\u90e8\u5730\u65b9\u6574\u5099\u5c40\u540d\u53e4\u5c4b\u6e2f\u6e7e\u7a7a\u6e2f\u6280\u8853\u8abf\u67fb\u4e8b\u52d9\u6240","boring_xml_url":0,"boring_view_url":0,"soilmap_view_url":66,"soiltest_xml_url":0,"soiltest_view_url":66},{"id":122268,"code":"B4KJ201801001-0517","latitude":"34.73839026","longitude":"137.3080752","source_code":"PORT23003010163","project_name":"\u6e2f\u6e7e\u5c40","survey_name":"\u5e73\u62104\u5e74\u5ea6\u4e09\u6cb3\u6e2f\u5cb8\u58c1(-12m)(\u897f)\u571f\u8cea\u8abf\u67fb\u5831\u544a\u66f8\u5e73","client_name":"\u56fd\u571f\u4ea4\u901a\u7701\u4e2d\u90e8\u5730\u65b9\u6574\u5099\u5c40\u540d\u53e4\u5c4b\u6e2f\u6e7e\u7a7a\u6e2f\u6280\u8853\u8abf\u67fb\u4e8b\u52d9\u6240","boring_xml_url":0,"boring_view_url":0,"soilmap_view_url":66,"soiltest_xml_url":0,"soiltest_view_url":66},{"id":122267,"code":"B4KJ201801001-0516","latitude":"34.73793951","longitude":"137.3080684","source_code":"PORT23003010162","project_name":"\u6e2f\u6e7e\u5c40","survey_name":"\u5e73\u62104\u5e74\u5ea6\u4e09\u6cb3\u6e2f\u5cb8\u58c1(-12m)(\u897f)\u571f\u8cea\u8abf\u67fb\u5831\u544a\u66f8\u5e73","client_name":"\u56fd\u571f\u4ea4\u901a\u7701\u4e2d\u90e8\u5730\u65b9\u6574\u5099\u5c40\u540d\u53e4\u5c4b\u6e2f\u6e7e\u7a7a\u6e2f\u6280\u8853\u8abf\u67fb\u4e8b\u52d9\u6240","boring_xml_url":0,"boring_view_url":0,"soilmap_view_url":66,"soiltest_xml_url":0,"soiltest_view_url":66},{"id":122266,"code":"B4KJ201801001-0515","latitude":"34.73634761","longitude":"137.2956308","source_code":"PORT23003010161","project_name":"\u6e2f\u6e7e\u5c40","survey_name":"\u5e73\u62103\u5e74\u5ea6\u4e09\u6cb3\u6e2f\u571f\u8cea\u8abf\u67fb\u5831\u544a\u66f8\u5e73\u62104\u5e743\u6708","client_name":"\u56fd\u571f\u4ea4\u901a\u7701\u4e2d\u90e8\u5730\u65b9\u6574\u5099\u5c40\u540d\u53e4\u5c4b\u6e2f\u6e7e\u7a7a\u6e2f\u6280\u8853\u8abf\u67fb\u4e8b\u52d9\u6240","boring_xml_url":0,"boring_view_url":0,"soilmap_view_url":66,"soiltest_xml_url":0,"soiltest_view_url":66},{"id":122265,"code":"B4KJ201801001-0514","latitude":"34.73661553","longitude":"137.2997905","source_code":"PORT23003010160","project_name":"\u6e2f\u6e7e\u5c40","survey_name":"\u5e73\u62103\u5e74\u5ea6\u4e09\u6cb3\u6e2f\u571f\u8cea\u8abf\u67fb\u5831\u544a\u66f8\u5e73\u62104\u5e743\u6708","client_name":"\u56fd\u571f\u4ea4\u901a\u7701\u4e2d\u90e8\u5730\u65b9\u6574\u5099\u5c40\u540d\u53e4\u5c4b\u6e2f\u6e7e\u7a7a\u6e2f\u6280\u8853\u8abf\u67fb\u4e8b\u52d9\u6240","boring_xml_url":0,"boring_view_url":0,"soilmap_view_url":66,"soiltest_xml_url":0,"soiltest_view_url":66},{"id":122264,"code":"B4KJ201801001-0513","latitude":"34.73806317","longitude":"137.2754312","source_code":"PORT23003010159","project_name":"\u6e2f\u6e7e\u5c40","survey_name":"\u5e73\u62102\u5e74\u5ea6\u4e09\u6cb3\u6e2f\u822a\u8def\u6cca\u5730(-12m)\u571f\u8cea\u8abf\u67fb\u5831\u544a\u66f8\u5e73\u62103","client_name":"\u56fd\u571f\u4ea4\u901a\u7701\u4e2d\u90e8\u5730\u65b9\u6574\u5099\u5c40\u540d\u53e4\u5c4b\u6e2f\u6e7e\u7a7a\u6e2f\u6280\u8853\u8abf\u67fb\u4e8b\u52d9\u6240","boring_xml_url":0,"boring_view_url":0,"soilmap_view_url":66,"soiltest_xml_url":0,"soiltest_view_url":66},{"id":122263,"code":"B4KJ201801001-0512","latitude":"34.73598071","longitude":"137.2648029","source_code":"PORT23003010158","project_name":"\u6e2f\u6e7e\u5c40","survey_name":"\u5e73\u62102\u5e74\u5ea6\u4e09\u6cb3\u6e2f\u822a\u8def\u6cca\u5730(-12m)\u571f\u8cea\u8abf\u67fb\u5831\u544a\u66f8\u5e73\u62103","client_name":"\u56fd\u571f\u4ea4\u901a\u7701\u4e2d\u90e8\u5730\u65b9\u6574\u5099\u5c40\u540d\u53e4\u5c4b\u6e2f\u6e7e\u7a7a\u6e2f\u6280\u8853\u8abf\u67fb\u4e8b\u52d9\u6240","boring_xml_url":0,"boring_view_url":0,"soilmap_view_url":66,"soiltest_xml_url":0,"soiltest_view_url":66},{"id":122262,"code":"B4KJ201801001-0511","latitude":"34.73493912","longitude":"137.2594945","source_code":"PORT23003010157","project_name":"\u6e2f\u6e7e\u5c40","survey_name":"\u5e73\u62102\u5e74\u5ea6\u4e09\u6cb3\u6e2f\u822a\u8def\u6cca\u5730(-12m)\u571f\u8cea\u8abf\u67fb\u5831\u544a\u66f8\u5e73\u62103","client_name":"\u56fd\u571f\u4ea4\u901a\u7701\u4e2d\u90e8\u5730\u65b9\u6574\u5099\u5c40\u540d\u53e4\u5c4b\u6e2f\u6e7e\u7a7a\u6e2f\u6280\u8853\u8abf\u67fb\u4e8b\u52d9\u6240","boring_xml_url":0,"boring_view_url":0,"soilmap_view_url":66,"soiltest_xml_url":0,"soiltest_view_url":66},{"id":122261,"code":"B4KJ201801001-0510","latitude":"34.7338973","longitude":"137.2541861","source_code":"PORT23003010156","project_name":"\u6e2f\u6e7e\u5c40","survey_name":"\u5e73\u62102\u5e74\u5ea6\u4e09\u6cb3\u6e2f\u822a\u8def\u6cca\u5730(-12m)\u571f\u8cea\u8abf\u67fb\u5831\u544a\u66f8\u5e73\u62103","client_name":"\u56fd\u571f\u4ea4\u901a\u7701\u4e2d\u90e8\u5730\u65b9\u6574\u5099\u5c40\u540d\u53e4\u5c4b\u6e2f\u6e7e\u7a7a\u6e2f\u6280\u8853\u8abf\u67fb\u4e8b\u52d9\u6240","boring_xml_url":0,"boring_view_url":0,"soilmap_view_url":66,"soiltest_xml_url":0,"soiltest_view_url":66},{"id":122260,"code":"B4KJ201801001-0509","latitude":"34.73279236","longitude":"137.2485503","source_code":"PORT23003010155","project_name":"\u6e2f\u6e7e\u5c40","survey_name":"\u5e73\u62102\u5e74\u5ea6\u4e09\u6cb3\u6e2f\u822a\u8def\u6cca\u5730(-12m)\u571f\u8cea\u8abf\u67fb\u5831\u544a\u66f8\u5e73\u62103","client_name":"\u56fd\u571f\u4ea4\u901a\u7701\u4e2d\u90e8\u5730\u65b9\u6574\u5099\u5c40\u540d\u53e4\u5c4b\u6e2f\u6e7e\u7a7a\u6e2f\u6280\u8853\u8abf\u67fb\u4e8b\u52d9\u6240","boring_xml_url":0,"boring_view_url":0,"soilmap_view_url":66,"soiltest_xml_url":0,"soiltest_view_url":66},{"id":122259,"code":"B4KJ201801001-0508","latitude":"34.73175007","longitude":"137.2432422","source_code":"PORT23003010154","project_name":"\u6e2f\u6e7e\u5c40","survey_name":"\u5e73\u62102\u5e74\u5ea6\u4e09\u6cb3\u6e2f\u822a\u8def\u6cca\u5730(-12m)\u571f\u8cea\u8abf\u67fb\u5831\u544a\u66f8\u5e73\u62103","client_name":"\u56fd\u571f\u4ea4\u901a\u7701\u4e2d\u90e8\u5730\u65b9\u6574\u5099\u5c40\u540d\u53e4\u5c4b\u6e2f\u6e7e\u7a7a\u6e2f\u6280\u8853\u8abf\u67fb\u4e8b\u52d9\u6240","boring_xml_url":0,"boring_view_url":0,"soilmap_view_url":66,"soiltest_xml_url":0,"soiltest_view_url":66},{"id":122258,"code":"B4KJ201801001-0507","latitude":"34.73077047","longitude":"137.238251","source_code":"PORT23003010153","project_name":"\u6e2f\u6e7e\u5c40","survey_name":"\u5e73\u62102\u5e74\u5ea6\u4e09\u6cb3\u6e2f\u822a\u8def\u6cca\u5730(-12m)\u571f\u8cea\u8abf\u67fb\u5831\u544a\u66f8\u5e73\u62103","client_name":"\u56fd\u571f\u4ea4\u901a\u7701\u4e2d\u90e8\u5730\u65b9\u6574\u5099\u5c40\u540d\u53e4\u5c4b\u6e2f\u6e7e\u7a7a\u6e2f\u6280\u8853\u8abf\u67fb\u4e8b\u52d9\u6240","boring_xml_url":0,"boring_view_url":0,"soilmap_view_url":66,"soiltest_xml_url":0,"soiltest_view_url":66},{"id":122257,"code":"B4KJ201801001-0506","latitude":"34.72972772","longitude":"137.2329323","source_code":"PORT23003010152","project_name":"\u6e2f\u6e7e\u5c40","survey_name":"\u5e73\u62102\u5e74\u5ea6\u4e09\u6cb3\u6e2f\u822a\u8def\u6cca\u5730(-12m)\u571f\u8cea\u8abf\u67fb\u5831\u544a\u66f8\u5e73\u62103","client_name":"\u56fd\u571f\u4ea4\u901a\u7701\u4e2d\u90e8\u5730\u65b9\u6574\u5099\u5c40\u540d\u53e4\u5c4b\u6e2f\u6e7e\u7a7a\u6e2f\u6280\u8853\u8abf\u67fb\u4e8b\u52d9\u6240","boring_xml_url":0,"boring_view_url":0,"soilmap_view_url":66,"soiltest_xml_url":0,"soiltest_view_url":66},{"id":122256,"code":"B4KJ201801001-0505","latitude":"34.72868474","longitude":"137.2276246","source_code":"PORT23003010151","project_name":"\u6e2f\u6e7e\u5c40","survey_name":"\u5e73\u62102\u5e74\u5ea6\u4e09\u6cb3\u6e2f\u822a\u8def\u6cca\u5730(-12m)\u571f\u8cea\u8abf\u67fb\u5831\u544a\u66f8\u5e73\u62103","client_name":"\u56fd\u571f\u4ea4\u901a\u7701\u4e2d\u90e8\u5730\u65b9\u6574\u5099\u5c40\u540d\u53e4\u5c4b\u6e2f\u6e7e\u7a7a\u6e2f\u6280\u8853\u8abf\u67fb\u4e8b\u52d9\u6240","boring_xml_url":0,"boring_view_url":0,"soilmap_view_url":66,"soiltest_xml_url":0,"soiltest_view_url":66},{"id":122255,"code":"B4KJ201801001-0504","latitude":"34.72764154","longitude":"137.2223171","source_code":"PORT23003010150","project_name":"\u6e2f\u6e7e\u5c40","survey_name":"\u5e73\u62102\u5e74\u5ea6\u4e09\u6cb3\u6e2f\u822a\u8def\u6cca\u5730(-12m)\u571f\u8cea\u8abf\u67fb\u5831\u544a\u66f8\u5e73\u62103","client_name":"\u56fd\u571f\u4ea4\u901a\u7701\u4e2d\u90e8\u5730\u65b9\u6574\u5099\u5c40\u540d\u53e4\u5c4b\u6e2f\u6e7e\u7a7a\u6e2f\u6280\u8853\u8abf\u67fb\u4e8b\u52d9\u6240","boring_xml_url":0,"boring_view_url":0,"soilmap_view_url":66,"soiltest_xml_url":0,"soiltest_view_url":66},{"id":122254,"code":"B4KJ201801001-0503","latitude":"34.7265981","longitude":"137.2169987","source_code":"PORT23003010149","project_name":"\u6e2f\u6e7e\u5c40","survey_name":"\u5e73\u62102\u5e74\u5ea6\u4e09\u6cb3\u6e2f\u822a\u8def\u6cca\u5730(-12m)\u571f\u8cea\u8abf\u67fb\u5831\u544a\u66f8\u5e73\u62103","client_name":"\u56fd\u571f\u4ea4\u901a\u7701\u4e2d\u90e8\u5730\u65b9\u6574\u5099\u5c40\u540d\u53e4\u5c4b\u6e2f\u6e7e\u7a7a\u6e2f\u6280\u8853\u8abf\u67fb\u4e8b\u52d9\u6240","boring_xml_url":0,"boring_view_url":0,"soilmap_view_url":66,"soiltest_xml_url":0,"soiltest_view_url":66},{"id":122253,"code":"B4KJ201801001-0502","latitude":"34.72555443","longitude":"137.2116915","source_code":"PORT23003010148","project_name":"\u6e2f\u6e7e\u5c40","survey_name":"\u5e73\u62102\u5e74\u5ea6\u4e09\u6cb3\u6e2f\u822a\u8def\u6cca\u5730(-12m)\u571f\u8cea\u8abf\u67fb\u5831\u544a\u66f8\u5e73\u62103","client_name":"\u56fd\u571f\u4ea4\u901a\u7701\u4e2d\u90e8\u5730\u65b9\u6574\u5099\u5c40\u540d\u53e4\u5c4b\u6e2f\u6e7e\u7a7a\u6e2f\u6280\u8853\u8abf\u67fb\u4e8b\u52d9\u6240","boring_xml_url":0,"boring_view_url":0,"soilmap_view_url":66,"soiltest_xml_url":0,"soiltest_view_url":66},{"id":122252,"code":"B4KJ201801001-0501","latitude":"34.73049281","longitude":"137.2742483","source_code":"PORT23003010147","project_name":"\u6e2f\u6e7e\u5c40","survey_name":"\u5e73\u62102\u5e74\u5ea6\u4e09\u6cb3\u6e2f\u9632\u6ce2\u5824(\u5357)\u571f\u8cea\u8abf\u67fb\u5e73\u62103\u5e742\u6708","client_name":"\u56fd\u571f\u4ea4\u901a\u7701\u4e2d\u90e8\u5730\u65b9\u6574\u5099\u5c40\u540d\u53e4\u5c4b\u6e2f\u6e7e\u7a7a\u6e2f\u6280\u8853\u8abf\u67fb\u4e8b\u52d9\u6240","boring_xml_url":0,"boring_view_url":0,"soilmap_view_url":66,"soiltest_xml_url":0,"soiltest_view_url":66},{"id":122251,"code":"B4KJ201801001-0500","latitude":"34.73083491","longitude":"137.274762","source_code":"PORT23003010146","project_name":"\u6e2f\u6e7e\u5c40","survey_name":"\u5e73\u62102\u5e74\u5ea6\u4e09\u6cb3\u6e2f\u9632\u6ce2\u5824(\u5357)\u571f\u8cea\u8abf\u67fb\u5e73\u62103\u5e742\u6708","client_name":"\u56fd\u571f\u4ea4\u901a\u7701\u4e2d\u90e8\u5730\u65b9\u6574\u5099\u5c40\u540d\u53e4\u5c4b\u6e2f\u6e7e\u7a7a\u6e2f\u6280\u8853\u8abf\u67fb\u4e8b\u52d9\u6240","boring_xml_url":0,"boring_view_url":0,"soilmap_view_url":66,"soiltest_xml_url":0,"soiltest_view_url":66},{"id":122250,"code":"B4KJ201801001-0499","latitude":"34.73262206","longitude":"137.27222","source_code":"PORT23003010145","project_name":"\u6e2f\u6e7e\u5c40","survey_name":"\u5e73\u62102\u5e74\u5ea6\u4e09\u6cb3\u6e2f\u9632\u6ce2\u5824(\u5357)\u571f\u8cea\u8abf\u67fb\u5e73\u62103\u5e742\u6708","client_name":"\u56fd\u571f\u4ea4\u901a\u7701\u4e2d\u90e8\u5730\u65b9\u6574\u5099\u5c40\u540d\u53e4\u5c4b\u6e2f\u6e7e\u7a7a\u6e2f\u6280\u8853\u8abf\u67fb\u4e8b\u52d9\u6240","boring_xml_url":0,"boring_view_url":0,"soilmap_view_url":66,"soiltest_xml_url":0,"soiltest_view_url":66},{"id":122249,"code":"B4KJ201801001-0498","latitude":"34.73295515","longitude":"137.2727336","source_code":"PORT23003010144","project_name":"\u6e2f\u6e7e\u5c40","survey_name":"\u5e73\u62102\u5e74\u5ea6\u4e09\u6cb3\u6e2f\u9632\u6ce2\u5824(\u5357)\u571f\u8cea\u8abf\u67fb\u5e73\u62103\u5e742\u6708","client_name":"\u56fd\u571f\u4ea4\u901a\u7701\u4e2d\u90e8\u5730\u65b9\u6574\u5099\u5c40\u540d\u53e4\u5c4b\u6e2f\u6e7e\u7a7a\u6e2f\u6280\u8853\u8abf\u67fb\u4e8b\u52d9\u6240","boring_xml_url":0,"boring_view_url":0,"soilmap_view_url":66,"soiltest_xml_url":0,"soiltest_view_url":66},{"id":122248,"code":"B4KJ201801001-0497","latitude":"34.7299511","longitude":"137.2751758","source_code":"PORT23003010143","project_name":"\u6e2f\u6e7e\u5c40","survey_name":"\u5e73\u62102\u5e74\u5ea6\u4e09\u6cb3\u6e2f\u9632\u6ce2\u5824(\u5357)\u571f\u8cea\u8abf\u67fb\u5e73\u62103\u5e742\u6708","client_name":"\u56fd\u571f\u4ea4\u901a\u7701\u4e2d\u90e8\u5730\u65b9\u6574\u5099\u5c40\u540d\u53e4\u5c4b\u6e2f\u6e7e\u7a7a\u6e2f\u6280\u8853\u8abf\u67fb\u4e8b\u52d9\u6240","boring_xml_url":0,"boring_view_url":0,"soilmap_view_url":66,"soiltest_xml_url":0,"soiltest_view_url":66},{"id":122247,"code":"B4KJ201801001-0496","latitude":"34.73066386","longitude":"137.2744997","source_code":"PORT23003010142","project_name":"\u6e2f\u6e7e\u5c40","survey_name":"\u5e73\u62102\u5e74\u5ea6\u4e09\u6cb3\u6e2f\u9632\u6ce2\u5824(\u5357)\u571f\u8cea\u8abf\u67fb\u5e73\u62103\u5e742\u6708","client_name":"\u56fd\u571f\u4ea4\u901a\u7701\u4e2d\u90e8\u5730\u65b9\u6574\u5099\u5c40\u540d\u53e4\u5c4b\u6e2f\u6e7e\u7a7a\u6e2f\u6280\u8853\u8abf\u67fb\u4e8b\u52d9\u6240","boring_xml_url":0,"boring_view_url":0,"soilmap_view_url":66,"soiltest_xml_url":0,"soiltest_view_url":66},{"id":122246,"code":"B4KJ201801001-0495","latitude":"34.73136761","longitude":"137.2738236","source_code":"PORT23003010141","project_name":"\u6e2f\u6e7e\u5c40","survey_name":"\u5e73\u62102\u5e74\u5ea6\u4e09\u6cb3\u6e2f\u9632\u6ce2\u5824(\u5357)\u571f\u8cea\u8abf\u67fb\u5e73\u62103\u5e742\u6708","client_name":"\u56fd\u571f\u4ea4\u901a\u7701\u4e2d\u90e8\u5730\u65b9\u6574\u5099\u5c40\u540d\u53e4\u5c4b\u6e2f\u6e7e\u7a7a\u6e2f\u6280\u8853\u8abf\u67fb\u4e8b\u52d9\u6240","boring_xml_url":0,"boring_view_url":0,"soilmap_view_url":66,"soiltest_xml_url":0,"soiltest_view_url":66}]}}