{"header":{"xyz":{"source":[],"mosaic":false},"page":6611,"raw":{"soiltest_result":"0","bbox":"57.598333,109.544722,1.933333,163.806111","page":"6611"},"conditions":{"soiltest_result":0,"north":57.598333,"west":109.544722,"south":1.933333,"east":163.806111},"success":true,"message":""},"data":{"meta":{"total":212844,"page":6611,"pages":7095,"count":30},"values":[{"id":122245,"code":"B4KJ201801001-0494","latitude":"34.73208036","longitude":"137.2731475","source_code":"PORT23003010140","project_name":"\u6e2f\u6e7e\u5c40","survey_name":"\u5e73\u62102\u5e74\u5ea6\u4e09\u6cb3\u6e2f\u9632\u6ce2\u5824(\u5357)\u571f\u8cea\u8abf\u67fb\u5e73\u62103\u5e742\u6708","client_name":"\u56fd\u571f\u4ea4\u901a\u7701\u4e2d\u90e8\u5730\u65b9\u6574\u5099\u5c40\u540d\u53e4\u5c4b\u6e2f\u6e7e\u7a7a\u6e2f\u6280\u8853\u8abf\u67fb\u4e8b\u52d9\u6240","boring_xml_url":0,"boring_view_url":0,"soilmap_view_url":66,"soiltest_xml_url":0,"soiltest_view_url":66},{"id":122244,"code":"B4KJ201801001-0493","latitude":"34.7327841","longitude":"137.2724713","source_code":"PORT23003010139","project_name":"\u6e2f\u6e7e\u5c40","survey_name":"\u5e73\u62102\u5e74\u5ea6\u4e09\u6cb3\u6e2f\u9632\u6ce2\u5824(\u5357)\u571f\u8cea\u8abf\u67fb\u5e73\u62103\u5e742\u6708","client_name":"\u56fd\u571f\u4ea4\u901a\u7701\u4e2d\u90e8\u5730\u65b9\u6574\u5099\u5c40\u540d\u53e4\u5c4b\u6e2f\u6e7e\u7a7a\u6e2f\u6280\u8853\u8abf\u67fb\u4e8b\u52d9\u6240","boring_xml_url":0,"boring_view_url":0,"soilmap_view_url":66,"soiltest_xml_url":0,"soiltest_view_url":66},{"id":122243,"code":"B4KJ201801001-0492","latitude":"34.73348672","longitude":"137.2717888","source_code":"PORT23003010138","project_name":"\u6e2f\u6e7e\u5c40","survey_name":"\u5e73\u62102\u5e74\u5ea6\u4e09\u6cb3\u6e2f\u9632\u6ce2\u5824(\u5357)\u571f\u8cea\u8abf\u67fb\u5e73\u62103\u5e742\u6708","client_name":"\u56fd\u571f\u4ea4\u901a\u7701\u4e2d\u90e8\u5730\u65b9\u6574\u5099\u5c40\u540d\u53e4\u5c4b\u6e2f\u6e7e\u7a7a\u6e2f\u6280\u8853\u8abf\u67fb\u4e8b\u52d9\u6240","boring_xml_url":0,"boring_view_url":0,"soilmap_view_url":66,"soiltest_xml_url":0,"soiltest_view_url":66},{"id":122242,"code":"B4KJ201801001-0491","latitude":"34.74578081","longitude":"137.2853469","source_code":"PORT23003010137","project_name":"\u6e2f\u6e7e\u5c40","survey_name":"\u662d\u548c62\u5e74\u5ea6\u4e09\u6cb3\u6e2f\u9632\u6ce2\u5824(\u5317)\u571f\u8cea\u8abf\u67fb\u5831\u544a\u66f8\u662d\u548c63\u5e743","client_name":"\u56fd\u571f\u4ea4\u901a\u7701\u4e2d\u90e8\u5730\u65b9\u6574\u5099\u5c40\u540d\u53e4\u5c4b\u6e2f\u6e7e\u7a7a\u6e2f\u6280\u8853\u8abf\u67fb\u4e8b\u52d9\u6240","boring_xml_url":0,"boring_view_url":0,"soilmap_view_url":66,"soiltest_xml_url":0,"soiltest_view_url":66},{"id":122241,"code":"B4KJ201801001-0490","latitude":"34.74522529","longitude":"137.2845137","source_code":"PORT23003010136","project_name":"\u6e2f\u6e7e\u5c40","survey_name":"\u662d\u548c62\u5e74\u5ea6\u4e09\u6cb3\u6e2f\u9632\u6ce2\u5824(\u5317)\u571f\u8cea\u8abf\u67fb\u5831\u544a\u66f8\u662d\u548c63\u5e743","client_name":"\u56fd\u571f\u4ea4\u901a\u7701\u4e2d\u90e8\u5730\u65b9\u6574\u5099\u5c40\u540d\u53e4\u5c4b\u6e2f\u6e7e\u7a7a\u6e2f\u6280\u8853\u8abf\u67fb\u4e8b\u52d9\u6240","boring_xml_url":0,"boring_view_url":0,"soilmap_view_url":66,"soiltest_xml_url":0,"soiltest_view_url":66},{"id":122240,"code":"B4KJ201801001-0489","latitude":"34.74466978","longitude":"137.2836805","source_code":"PORT23003010135","project_name":"\u6e2f\u6e7e\u5c40","survey_name":"\u662d\u548c62\u5e74\u5ea6\u4e09\u6cb3\u6e2f\u9632\u6ce2\u5824(\u5317)\u571f\u8cea\u8abf\u67fb\u5831\u544a\u66f8\u662d\u548c63\u5e743","client_name":"\u56fd\u571f\u4ea4\u901a\u7701\u4e2d\u90e8\u5730\u65b9\u6574\u5099\u5c40\u540d\u53e4\u5c4b\u6e2f\u6e7e\u7a7a\u6e2f\u6280\u8853\u8abf\u67fb\u4e8b\u52d9\u6240","boring_xml_url":0,"boring_view_url":0,"soilmap_view_url":66,"soiltest_xml_url":0,"soiltest_view_url":66},{"id":122239,"code":"B4KJ201801001-0488","latitude":"34.7449475","longitude":"137.2825694","source_code":"PORT23003010134","project_name":"\u6e2f\u6e7e\u5c40","survey_name":"\u4e09\u6cb3\u6e2f\u9632\u6ce2\u5824(\u5317)\u571f\u8cea\u8abf\u67fb\u8abf\u67fb\u5831\u544a\u66f8\u662d\u548c61\u5e7411\u6708","client_name":"\u56fd\u571f\u4ea4\u901a\u7701\u4e2d\u90e8\u5730\u65b9\u6574\u5099\u5c40\u540d\u53e4\u5c4b\u6e2f\u6e7e\u7a7a\u6e2f\u6280\u8853\u8abf\u67fb\u4e8b\u52d9\u6240","boring_xml_url":0,"boring_view_url":0,"soilmap_view_url":66,"soiltest_xml_url":0,"soiltest_view_url":66},{"id":122238,"code":"B4KJ201801001-0487","latitude":"34.74439199","longitude":"137.2817362","source_code":"PORT23003010133","project_name":"\u6e2f\u6e7e\u5c40","survey_name":"\u4e09\u6cb3\u6e2f\u9632\u6ce2\u5824(\u5317)\u571f\u8cea\u8abf\u67fb\u8abf\u67fb\u5831\u544a\u66f8\u662d\u548c61\u5e7411\u6708","client_name":"\u56fd\u571f\u4ea4\u901a\u7701\u4e2d\u90e8\u5730\u65b9\u6574\u5099\u5c40\u540d\u53e4\u5c4b\u6e2f\u6e7e\u7a7a\u6e2f\u6280\u8853\u8abf\u67fb\u4e8b\u52d9\u6240","boring_xml_url":0,"boring_view_url":0,"soilmap_view_url":66,"soiltest_xml_url":0,"soiltest_view_url":66},{"id":122237,"code":"B4KJ201801001-0486","latitude":"34.73457626","longitude":"137.3122478","source_code":"PORT23003010132","project_name":"\u6e2f\u6e7e\u5c40","survey_name":"\u662d\u548c61\u5e74\u5ea6\u4e09\u6cb3\u6e2f\u5cb8\u58c1(-12m)\u571f\u8cea\u8abf\u67fb\u5831\u544a\u66f8\u662d\u548c6","client_name":"\u56fd\u571f\u4ea4\u901a\u7701\u4e2d\u90e8\u5730\u65b9\u6574\u5099\u5c40\u540d\u53e4\u5c4b\u6e2f\u6e7e\u7a7a\u6e2f\u6280\u8853\u8abf\u67fb\u4e8b\u52d9\u6240","boring_xml_url":0,"boring_view_url":0,"soilmap_view_url":66,"soiltest_xml_url":0,"soiltest_view_url":66},{"id":122236,"code":"B4KJ201801001-0485","latitude":"34.73454985","longitude":"137.3125638","source_code":"PORT23003010131","project_name":"\u6e2f\u6e7e\u5c40","survey_name":"\u662d\u548c61\u5e74\u5ea6\u4e09\u6cb3\u6e2f\u5cb8\u58c1(-12m)\u571f\u8cea\u8abf\u67fb\u5831\u544a\u66f8\u662d\u548c6","client_name":"\u56fd\u571f\u4ea4\u901a\u7701\u4e2d\u90e8\u5730\u65b9\u6574\u5099\u5c40\u540d\u53e4\u5c4b\u6e2f\u6e7e\u7a7a\u6e2f\u6280\u8853\u8abf\u67fb\u4e8b\u52d9\u6240","boring_xml_url":0,"boring_view_url":0,"soilmap_view_url":66,"soiltest_xml_url":0,"soiltest_view_url":66},{"id":122235,"code":"B4KJ201801001-0484","latitude":"34.73436744","longitude":"137.3127531","source_code":"PORT23003010130","project_name":"\u6e2f\u6e7e\u5c40","survey_name":"\u662d\u548c61\u5e74\u5ea6\u4e09\u6cb3\u6e2f\u5cb8\u58c1(-12m)\u571f\u8cea\u8abf\u67fb\u5831\u544a\u66f8\u662d\u548c6","client_name":"\u56fd\u571f\u4ea4\u901a\u7701\u4e2d\u90e8\u5730\u65b9\u6574\u5099\u5c40\u540d\u53e4\u5c4b\u6e2f\u6e7e\u7a7a\u6e2f\u6280\u8853\u8abf\u67fb\u4e8b\u52d9\u6240","boring_xml_url":0,"boring_view_url":0,"soilmap_view_url":66,"soiltest_xml_url":0,"soiltest_view_url":66},{"id":122234,"code":"B4KJ201801001-0483","latitude":"34.73449746","longitude":"137.3128481","source_code":"PORT23003010129","project_name":"\u6e2f\u6e7e\u5c40","survey_name":"\u662d\u548c61\u5e74\u5ea6\u4e09\u6cb3\u6e2f\u5cb8\u58c1(-12m)\u571f\u8cea\u8abf\u67fb\u5831\u544a\u66f8\u662d\u548c6","client_name":"\u56fd\u571f\u4ea4\u901a\u7701\u4e2d\u90e8\u5730\u65b9\u6574\u5099\u5c40\u540d\u53e4\u5c4b\u6e2f\u6e7e\u7a7a\u6e2f\u6280\u8853\u8abf\u67fb\u4e8b\u52d9\u6240","boring_xml_url":0,"boring_view_url":0,"soilmap_view_url":66,"soiltest_xml_url":0,"soiltest_view_url":66},{"id":122233,"code":"B4KJ201801001-0482","latitude":"34.73462751","longitude":"137.3129116","source_code":"PORT23003010128","project_name":"\u6e2f\u6e7e\u5c40","survey_name":"\u662d\u548c61\u5e74\u5ea6\u4e09\u6cb3\u6e2f\u5cb8\u58c1(-12m)\u571f\u8cea\u8abf\u67fb\u5831\u544a\u66f8\u662d\u548c6","client_name":"\u56fd\u571f\u4ea4\u901a\u7701\u4e2d\u90e8\u5730\u65b9\u6574\u5099\u5c40\u540d\u53e4\u5c4b\u6e2f\u6e7e\u7a7a\u6e2f\u6280\u8853\u8abf\u67fb\u4e8b\u52d9\u6240","boring_xml_url":0,"boring_view_url":0,"soilmap_view_url":66,"soiltest_xml_url":0,"soiltest_view_url":66},{"id":122232,"code":"B4KJ201801001-0481","latitude":"34.7344451","longitude":"137.3131008","source_code":"PORT23003010127","project_name":"\u6e2f\u6e7e\u5c40","survey_name":"\u662d\u548c61\u5e74\u5ea6\u4e09\u6cb3\u6e2f\u5cb8\u58c1(-12m)\u571f\u8cea\u8abf\u67fb\u5831\u544a\u66f8\u662d\u548c6","client_name":"\u56fd\u571f\u4ea4\u901a\u7701\u4e2d\u90e8\u5730\u65b9\u6574\u5099\u5c40\u540d\u53e4\u5c4b\u6e2f\u6e7e\u7a7a\u6e2f\u6280\u8853\u8abf\u67fb\u4e8b\u52d9\u6240","boring_xml_url":0,"boring_view_url":0,"soilmap_view_url":66,"soiltest_xml_url":0,"soiltest_view_url":66},{"id":122231,"code":"B4KJ201801001-0480","latitude":"34.73440051","longitude":"137.3133488","source_code":"PORT23003010126","project_name":"\u6e2f\u6e7e\u5c40","survey_name":"\u662d\u548c61\u5e74\u5ea6\u4e09\u6cb3\u6e2f\u5cb8\u58c1(-12m)\u571f\u8cea\u8abf\u67fb\u5831\u544a\u66f8\u662d\u548c6","client_name":"\u56fd\u571f\u4ea4\u901a\u7701\u4e2d\u90e8\u5730\u65b9\u6574\u5099\u5c40\u540d\u53e4\u5c4b\u6e2f\u6e7e\u7a7a\u6e2f\u6280\u8853\u8abf\u67fb\u4e8b\u52d9\u6240","boring_xml_url":0,"boring_view_url":0,"soilmap_view_url":66,"soiltest_xml_url":0,"soiltest_view_url":66},{"id":122230,"code":"B4KJ201801001-0479","latitude":"34.73134867","longitude":"137.3100743","source_code":"PORT23003010125","project_name":"\u6e2f\u6e7e\u5c40","survey_name":"\u4e09\u6cb3\u6e2f\u822a\u8def\u6cca\u5730(-12m)\u571f\u8cea\u8abf\u67fb\u8abf\u67fb\u5831\u544a\u66f8\u662d\u548c59\u5e741","client_name":"\u56fd\u571f\u4ea4\u901a\u7701\u4e2d\u90e8\u5730\u65b9\u6574\u5099\u5c40\u540d\u53e4\u5c4b\u6e2f\u6e7e\u7a7a\u6e2f\u6280\u8853\u8abf\u67fb\u4e8b\u52d9\u6240","boring_xml_url":0,"boring_view_url":0,"soilmap_view_url":66,"soiltest_xml_url":0,"soiltest_view_url":66},{"id":122229,"code":"B4KJ201801001-0478","latitude":"34.73051553","longitude":"137.3142406","source_code":"PORT23003010124","project_name":"\u6e2f\u6e7e\u5c40","survey_name":"\u4e09\u6cb3\u6e2f\u822a\u8def\u6cca\u5730(-12m)\u571f\u8cea\u8abf\u67fb\u8abf\u67fb\u5831\u544a\u66f8\u662d\u548c59\u5e741","client_name":"\u56fd\u571f\u4ea4\u901a\u7701\u4e2d\u90e8\u5730\u65b9\u6574\u5099\u5c40\u540d\u53e4\u5c4b\u6e2f\u6e7e\u7a7a\u6e2f\u6280\u8853\u8abf\u67fb\u4e8b\u52d9\u6240","boring_xml_url":0,"boring_view_url":0,"soilmap_view_url":66,"soiltest_xml_url":0,"soiltest_view_url":66},{"id":122228,"code":"B4KJ201801001-0477","latitude":"34.72996014","longitude":"137.3175737","source_code":"PORT23003010123","project_name":"\u6e2f\u6e7e\u5c40","survey_name":"\u4e09\u6cb3\u6e2f\u822a\u8def\u6cca\u5730(-12m)\u571f\u8cea\u8abf\u67fb\u8abf\u67fb\u5831\u544a\u66f8\u662d\u548c59\u5e741","client_name":"\u56fd\u571f\u4ea4\u901a\u7701\u4e2d\u90e8\u5730\u65b9\u6574\u5099\u5c40\u540d\u53e4\u5c4b\u6e2f\u6e7e\u7a7a\u6e2f\u6280\u8853\u8abf\u67fb\u4e8b\u52d9\u6240","boring_xml_url":0,"boring_view_url":0,"soilmap_view_url":66,"soiltest_xml_url":0,"soiltest_view_url":66},{"id":122227,"code":"B4KJ201801001-0476","latitude":"34.73329294","longitude":"137.314796","source_code":"PORT23003010122","project_name":"\u6e2f\u6e7e\u5c40","survey_name":"\u4e09\u6cb3\u6e2f\u9632\u6ce2\u5824(\u5317)\u571f\u8cea\u8abf\u67fb(\u305d\u306e2)\u5831\u544a\u66f8\u662d\u548c59\u5e741\u6708","client_name":"\u56fd\u571f\u4ea4\u901a\u7701\u4e2d\u90e8\u5730\u65b9\u6574\u5099\u5c40\u540d\u53e4\u5c4b\u6e2f\u6e7e\u7a7a\u6e2f\u6280\u8853\u8abf\u67fb\u4e8b\u52d9\u6240","boring_xml_url":0,"boring_view_url":0,"soilmap_view_url":66,"soiltest_xml_url":0,"soiltest_view_url":66},{"id":122226,"code":"B4KJ201801001-0475","latitude":"34.73301517","longitude":"137.3134072","source_code":"PORT23003010121","project_name":"\u6e2f\u6e7e\u5c40","survey_name":"\u4e09\u6cb3\u6e2f\u9632\u6ce2\u5824(\u5317)\u571f\u8cea\u8abf\u67fb(\u305d\u306e2)\u5831\u544a\u66f8\u662d\u548c59\u5e741\u6708","client_name":"\u56fd\u571f\u4ea4\u901a\u7701\u4e2d\u90e8\u5730\u65b9\u6574\u5099\u5c40\u540d\u53e4\u5c4b\u6e2f\u6e7e\u7a7a\u6e2f\u6280\u8853\u8abf\u67fb\u4e8b\u52d9\u6240","boring_xml_url":0,"boring_view_url":0,"soilmap_view_url":66,"soiltest_xml_url":0,"soiltest_view_url":66},{"id":122225,"code":"B4KJ201801001-0474","latitude":"34.74411423","longitude":"137.2814584","source_code":"PORT23003010120","project_name":"\u6e2f\u6e7e\u5c40","survey_name":"\u4e09\u6cb3\u6e2f\u9632\u6ce2\u5824(\u5317)\u571f\u8cea\u8abf\u67fb\u8abf\u67fb\u5831\u544a\u66f8\u662d\u548c58\u5e748\u6708","client_name":"\u56fd\u571f\u4ea4\u901a\u7701\u4e2d\u90e8\u5730\u65b9\u6574\u5099\u5c40\u540d\u53e4\u5c4b\u6e2f\u6e7e\u7a7a\u6e2f\u6280\u8853\u8abf\u67fb\u4e8b\u52d9\u6240","boring_xml_url":0,"boring_view_url":0,"soilmap_view_url":66,"soiltest_xml_url":0,"soiltest_view_url":66},{"id":122224,"code":"B4KJ201801001-0473","latitude":"34.74355872","longitude":"137.2806252","source_code":"PORT23003010119","project_name":"\u6e2f\u6e7e\u5c40","survey_name":"\u4e09\u6cb3\u6e2f\u9632\u6ce2\u5824(\u5317)\u571f\u8cea\u8abf\u67fb\u8abf\u67fb\u5831\u544a\u66f8\u662d\u548c58\u5e748\u6708","client_name":"\u56fd\u571f\u4ea4\u901a\u7701\u4e2d\u90e8\u5730\u65b9\u6574\u5099\u5c40\u540d\u53e4\u5c4b\u6e2f\u6e7e\u7a7a\u6e2f\u6280\u8853\u8abf\u67fb\u4e8b\u52d9\u6240","boring_xml_url":0,"boring_view_url":0,"soilmap_view_url":66,"soiltest_xml_url":0,"soiltest_view_url":66},{"id":122223,"code":"B4KJ201801001-0472","latitude":"34.74300321","longitude":"137.279792","source_code":"PORT23003010118","project_name":"\u6e2f\u6e7e\u5c40","survey_name":"\u4e09\u6cb3\u6e2f\u9632\u6ce2\u5824(\u5317)\u571f\u8cea\u8abf\u67fb\u8abf\u67fb\u5831\u544a\u66f8\u662d\u548c58\u5e748\u6708","client_name":"\u56fd\u571f\u4ea4\u901a\u7701\u4e2d\u90e8\u5730\u65b9\u6574\u5099\u5c40\u540d\u53e4\u5c4b\u6e2f\u6e7e\u7a7a\u6e2f\u6280\u8853\u8abf\u67fb\u4e8b\u52d9\u6240","boring_xml_url":0,"boring_view_url":0,"soilmap_view_url":66,"soiltest_xml_url":0,"soiltest_view_url":66},{"id":122222,"code":"B4KJ201801001-0471","latitude":"34.73219143","longitude":"137.3263521","source_code":"PORT23003010117","project_name":"\u6e2f\u6e7e\u5c40","survey_name":"\u662d\u548c57\u5e74\u5ea6\u4e09\u6cb3\u6e2f\u571f\u8cea\u8abf\u67fb(\u305d\u306e2)\u5831\u544a\u66f8\u662d\u548c58\u5e742\u6708","client_name":"\u56fd\u571f\u4ea4\u901a\u7701\u4e2d\u90e8\u5730\u65b9\u6574\u5099\u5c40\u540d\u53e4\u5c4b\u6e2f\u6e7e\u7a7a\u6e2f\u6280\u8853\u8abf\u67fb\u4e8b\u52d9\u6240","boring_xml_url":0,"boring_view_url":0,"soilmap_view_url":66,"soiltest_xml_url":0,"soiltest_view_url":66},{"id":122221,"code":"B4KJ201801001-0470","latitude":"34.73316081","longitude":"137.3208828","source_code":"PORT23003010116","project_name":"\u6e2f\u6e7e\u5c40","survey_name":"\u662d\u548c57\u5e74\u5ea6\u4e09\u6cb3\u6e2f\u571f\u8cea\u8abf\u67fb(\u305d\u306e2)\u5831\u544a\u66f8\u662d\u548c58\u5e742\u6708","client_name":"\u56fd\u571f\u4ea4\u901a\u7701\u4e2d\u90e8\u5730\u65b9\u6574\u5099\u5c40\u540d\u53e4\u5c4b\u6e2f\u6e7e\u7a7a\u6e2f\u6280\u8853\u8abf\u67fb\u4e8b\u52d9\u6240","boring_xml_url":0,"boring_view_url":0,"soilmap_view_url":66,"soiltest_xml_url":0,"soiltest_view_url":66},{"id":122220,"code":"B4KJ201801001-0469","latitude":"34.73468159","longitude":"137.3128516","source_code":"PORT23003010115","project_name":"\u6e2f\u6e7e\u5c40","survey_name":"\u4e09\u6cb3\u6e2f\u571f\u8cea\u8abf\u67fb\u5831\u544a\u66f8\u662d\u548c57\u5e748\u6708","client_name":"\u56fd\u571f\u4ea4\u901a\u7701\u4e2d\u90e8\u5730\u65b9\u6574\u5099\u5c40\u540d\u53e4\u5c4b\u6e2f\u6e7e\u7a7a\u6e2f\u6280\u8853\u8abf\u67fb\u4e8b\u52d9\u6240","boring_xml_url":0,"boring_view_url":0,"soilmap_view_url":66,"soiltest_xml_url":0,"soiltest_view_url":66},{"id":122219,"code":"B4KJ201801001-0468","latitude":"34.73440386","longitude":"137.3134072","source_code":"PORT23003010114","project_name":"\u6e2f\u6e7e\u5c40","survey_name":"\u4e09\u6cb3\u6e2f\u571f\u8cea\u8abf\u67fb\u5831\u544a\u66f8\u662d\u548c57\u5e748\u6708","client_name":"\u56fd\u571f\u4ea4\u901a\u7701\u4e2d\u90e8\u5730\u65b9\u6574\u5099\u5c40\u540d\u53e4\u5c4b\u6e2f\u6e7e\u7a7a\u6e2f\u6280\u8853\u8abf\u67fb\u4e8b\u52d9\u6240","boring_xml_url":0,"boring_view_url":0,"soilmap_view_url":66,"soiltest_xml_url":0,"soiltest_view_url":66},{"id":122218,"code":"B4KJ201801001-0467","latitude":"34.73440387","longitude":"137.3136849","source_code":"PORT23003010113","project_name":"\u6e2f\u6e7e\u5c40","survey_name":"\u4e09\u6cb3\u6e2f\u571f\u8cea\u8abf\u67fb\u5831\u544a\u66f8\u662d\u548c57\u5e748\u6708","client_name":"\u56fd\u571f\u4ea4\u901a\u7701\u4e2d\u90e8\u5730\u65b9\u6574\u5099\u5c40\u540d\u53e4\u5c4b\u6e2f\u6e7e\u7a7a\u6e2f\u6280\u8853\u8abf\u67fb\u4e8b\u52d9\u6240","boring_xml_url":0,"boring_view_url":0,"soilmap_view_url":66,"soiltest_xml_url":0,"soiltest_view_url":66},{"id":122217,"code":"B4KJ201801001-0466","latitude":"34.73440386","longitude":"137.3136849","source_code":"PORT23003010112","project_name":"\u6e2f\u6e7e\u5c40","survey_name":"\u4e09\u6cb3\u6e2f\u571f\u8cea\u8abf\u67fb\u5831\u544a\u66f8\u662d\u548c57\u5e748\u6708","client_name":"\u56fd\u571f\u4ea4\u901a\u7701\u4e2d\u90e8\u5730\u65b9\u6574\u5099\u5c40\u540d\u53e4\u5c4b\u6e2f\u6e7e\u7a7a\u6e2f\u6280\u8853\u8abf\u67fb\u4e8b\u52d9\u6240","boring_xml_url":0,"boring_view_url":0,"soilmap_view_url":66,"soiltest_xml_url":0,"soiltest_view_url":66},{"id":122216,"code":"B4KJ201801001-0465","latitude":"34.73440387","longitude":"137.3136849","source_code":"PORT23003010111","project_name":"\u6e2f\u6e7e\u5c40","survey_name":"\u4e09\u6cb3\u6e2f\u571f\u8cea\u8abf\u67fb\u5831\u544a\u66f8\u662d\u548c57\u5e748\u6708","client_name":"\u56fd\u571f\u4ea4\u901a\u7701\u4e2d\u90e8\u5730\u65b9\u6574\u5099\u5c40\u540d\u53e4\u5c4b\u6e2f\u6e7e\u7a7a\u6e2f\u6280\u8853\u8abf\u67fb\u4e8b\u52d9\u6240","boring_xml_url":0,"boring_view_url":0,"soilmap_view_url":66,"soiltest_xml_url":0,"soiltest_view_url":66}]}}