{"header":{"xyz":{"source":[],"mosaic":false},"page":6615,"raw":{"soiltest_result":"0","bbox":"57.598333,109.544722,1.933333,163.806111","page":"6615"},"conditions":{"soiltest_result":0,"north":57.598333,"west":109.544722,"south":1.933333,"east":163.806111},"success":true,"message":""},"data":{"meta":{"total":212844,"page":6615,"pages":7095,"count":30},"values":[{"id":122125,"code":"B4KJ201801001-0374","latitude":"34.73273715","longitude":"137.3006305","source_code":"PORT23003010020","project_name":"\u6e2f\u6e7e\u5c40","survey_name":"\u662d\u548c45\u5e74\u5ea6\u4e09\u6cb3\u6e7e\u822a\u8def\u571f\u8cea\u8abf\u67fb\u5de5\u4e8b\u5831\u544a\u66f8\u662d\u548c45\u5e745\u6708","client_name":"\u56fd\u571f\u4ea4\u901a\u7701\u4e2d\u90e8\u5730\u65b9\u6574\u5099\u5c40\u540d\u53e4\u5c4b\u6e2f\u6e7e\u7a7a\u6e2f\u6280\u8853\u8abf\u67fb\u4e8b\u52d9\u6240","boring_xml_url":0,"boring_view_url":0,"soilmap_view_url":66,"soiltest_xml_url":0,"soiltest_view_url":66},{"id":122124,"code":"B4KJ201801001-0373","latitude":"34.7321818","longitude":"137.3064634","source_code":"PORT23003010019","project_name":"\u6e2f\u6e7e\u5c40","survey_name":"\u662d\u548c45\u5e74\u5ea6\u4e09\u6cb3\u6e7e\u822a\u8def\u571f\u8cea\u8abf\u67fb\u5de5\u4e8b\u5831\u544a\u66f8\u662d\u548c45\u5e745\u6708","client_name":"\u56fd\u571f\u4ea4\u901a\u7701\u4e2d\u90e8\u5730\u65b9\u6574\u5099\u5c40\u540d\u53e4\u5c4b\u6e2f\u6e7e\u7a7a\u6e2f\u6280\u8853\u8abf\u67fb\u4e8b\u52d9\u6240","boring_xml_url":0,"boring_view_url":0,"soilmap_view_url":66,"soiltest_xml_url":0,"soiltest_view_url":66},{"id":122123,"code":"B4KJ201801001-0372","latitude":"34.73023785","longitude":"137.3164627","source_code":"PORT23003010018","project_name":"\u6e2f\u6e7e\u5c40","survey_name":"\u662d\u548c45\u5e74\u5ea6\u4e09\u6cb3\u6e7e\u822a\u8def\u571f\u8cea\u8abf\u67fb\u5de5\u4e8b\u5831\u544a\u66f8\u662d\u548c45\u5e745\u6708","client_name":"\u56fd\u571f\u4ea4\u901a\u7701\u4e2d\u90e8\u5730\u65b9\u6574\u5099\u5c40\u540d\u53e4\u5c4b\u6e2f\u6e7e\u7a7a\u6e2f\u6280\u8853\u8abf\u67fb\u4e8b\u52d9\u6240","boring_xml_url":0,"boring_view_url":0,"soilmap_view_url":66,"soiltest_xml_url":0,"soiltest_view_url":66},{"id":122122,"code":"B4KJ201801001-0371","latitude":"34.72940473","longitude":"137.3211845","source_code":"PORT23003010017","project_name":"\u6e2f\u6e7e\u5c40","survey_name":"\u662d\u548c45\u5e74\u5ea6\u4e09\u6cb3\u6e7e\u822a\u8def\u571f\u8cea\u8abf\u67fb\u5de5\u4e8b\u5831\u544a\u66f8\u662d\u548c45\u5e745\u6708","client_name":"\u56fd\u571f\u4ea4\u901a\u7701\u4e2d\u90e8\u5730\u65b9\u6574\u5099\u5c40\u540d\u53e4\u5c4b\u6e2f\u6e7e\u7a7a\u6e2f\u6280\u8853\u8abf\u67fb\u4e8b\u52d9\u6240","boring_xml_url":0,"boring_view_url":0,"soilmap_view_url":66,"soiltest_xml_url":0,"soiltest_view_url":66},{"id":122121,"code":"B4KJ201801001-0370","latitude":"34.72968257","longitude":"137.3253508","source_code":"PORT23003010016","project_name":"\u6e2f\u6e7e\u5c40","survey_name":"\u662d\u548c45\u5e74\u5ea6\u4e09\u6cb3\u6e7e\u822a\u8def\u571f\u8cea\u8abf\u67fb\u5de5\u4e8b\u5831\u544a\u66f8\u662d\u548c45\u5e745\u6708","client_name":"\u56fd\u571f\u4ea4\u901a\u7701\u4e2d\u90e8\u5730\u65b9\u6574\u5099\u5c40\u540d\u53e4\u5c4b\u6e2f\u6e7e\u7a7a\u6e2f\u6280\u8853\u8abf\u67fb\u4e8b\u52d9\u6240","boring_xml_url":0,"boring_view_url":0,"soilmap_view_url":66,"soiltest_xml_url":0,"soiltest_view_url":66},{"id":122120,"code":"B4KJ201801001-0369","latitude":"34.73259114","longitude":"137.3229493","source_code":"PORT23003010015","project_name":"\u6e2f\u6e7e\u5c40","survey_name":"\u8abf\u67fb\u5831\u544a\u66f8\u4e09\u6cb3\u6e2f\u571f\u8cea\u8abf\u67fb\u5de5\u4e8b\u662d\u548c45\u5e748\u6708","client_name":"\u56fd\u571f\u4ea4\u901a\u7701\u4e2d\u90e8\u5730\u65b9\u6574\u5099\u5c40\u540d\u53e4\u5c4b\u6e2f\u6e7e\u7a7a\u6e2f\u6280\u8853\u8abf\u67fb\u4e8b\u52d9\u6240","boring_xml_url":0,"boring_view_url":0,"soilmap_view_url":66,"soiltest_xml_url":0,"soiltest_view_url":66},{"id":122119,"code":"B4KJ201801001-0368","latitude":"34.7324187","longitude":"137.3238253","source_code":"PORT23003010014","project_name":"\u6e2f\u6e7e\u5c40","survey_name":"\u8abf\u67fb\u5831\u544a\u66f8\u4e09\u6cb3\u6e2f\u571f\u8cea\u8abf\u67fb\u5de5\u4e8b\u662d\u548c45\u5e748\u6708","client_name":"\u56fd\u571f\u4ea4\u901a\u7701\u4e2d\u90e8\u5730\u65b9\u6574\u5099\u5c40\u540d\u53e4\u5c4b\u6e2f\u6e7e\u7a7a\u6e2f\u6280\u8853\u8abf\u67fb\u4e8b\u52d9\u6240","boring_xml_url":0,"boring_view_url":0,"soilmap_view_url":66,"soiltest_xml_url":0,"soiltest_view_url":66},{"id":122118,"code":"B4KJ201801001-0367","latitude":"34.73224625","longitude":"137.3247013","source_code":"PORT23003010013","project_name":"\u6e2f\u6e7e\u5c40","survey_name":"\u8abf\u67fb\u5831\u544a\u66f8\u4e09\u6cb3\u6e2f\u571f\u8cea\u8abf\u67fb\u5de5\u4e8b\u662d\u548c45\u5e748\u6708","client_name":"\u56fd\u571f\u4ea4\u901a\u7701\u4e2d\u90e8\u5730\u65b9\u6574\u5099\u5c40\u540d\u53e4\u5c4b\u6e2f\u6e7e\u7a7a\u6e2f\u6280\u8853\u8abf\u67fb\u4e8b\u52d9\u6240","boring_xml_url":0,"boring_view_url":0,"soilmap_view_url":66,"soiltest_xml_url":0,"soiltest_view_url":66},{"id":122117,"code":"B4KJ201801001-0366","latitude":"34.73207367","longitude":"137.3256804","source_code":"PORT23003010012","project_name":"\u6e2f\u6e7e\u5c40","survey_name":"\u8abf\u67fb\u5831\u544a\u66f8\u4e09\u6cb3\u6e2f\u571f\u8cea\u8abf\u67fb\u5de5\u4e8b\u662d\u548c45\u5e748\u6708","client_name":"\u56fd\u571f\u4ea4\u901a\u7701\u4e2d\u90e8\u5730\u65b9\u6574\u5099\u5c40\u540d\u53e4\u5c4b\u6e2f\u6e7e\u7a7a\u6e2f\u6280\u8853\u8abf\u67fb\u4e8b\u52d9\u6240","boring_xml_url":0,"boring_view_url":0,"soilmap_view_url":66,"soiltest_xml_url":0,"soiltest_view_url":66},{"id":122116,"code":"B4KJ201801001-0365","latitude":"34.73185831","longitude":"137.3266079","source_code":"PORT23003010011","project_name":"\u6e2f\u6e7e\u5c40","survey_name":"\u8abf\u67fb\u5831\u544a\u66f8\u4e09\u6cb3\u6e2f\u571f\u8cea\u8abf\u67fb\u5de5\u4e8b\u662d\u548c45\u5e748\u6708","client_name":"\u56fd\u571f\u4ea4\u901a\u7701\u4e2d\u90e8\u5730\u65b9\u6574\u5099\u5c40\u540d\u53e4\u5c4b\u6e2f\u6e7e\u7a7a\u6e2f\u6280\u8853\u8abf\u67fb\u4e8b\u52d9\u6240","boring_xml_url":0,"boring_view_url":0,"soilmap_view_url":66,"soiltest_xml_url":0,"soiltest_view_url":66},{"id":122115,"code":"B4KJ201801001-0364","latitude":"34.73168558","longitude":"137.3276901","source_code":"PORT23003010010","project_name":"\u6e2f\u6e7e\u5c40","survey_name":"\u8abf\u67fb\u5831\u544a\u66f8\u4e09\u6cb3\u6e2f\u571f\u8cea\u8abf\u67fb\u5de5\u4e8b\u662d\u548c45\u5e748\u6708","client_name":"\u56fd\u571f\u4ea4\u901a\u7701\u4e2d\u90e8\u5730\u65b9\u6574\u5099\u5c40\u540d\u53e4\u5c4b\u6e2f\u6e7e\u7a7a\u6e2f\u6280\u8853\u8abf\u67fb\u4e8b\u52d9\u6240","boring_xml_url":0,"boring_view_url":0,"soilmap_view_url":66,"soiltest_xml_url":0,"soiltest_view_url":66},{"id":122114,"code":"B4KJ201801001-0363","latitude":"34.73146986","longitude":"137.3288753","source_code":"PORT23003010009","project_name":"\u6e2f\u6e7e\u5c40","survey_name":"\u8abf\u67fb\u5831\u544a\u66f8\u4e09\u6cb3\u6e2f\u571f\u8cea\u8abf\u67fb\u5de5\u4e8b\u662d\u548c45\u5e748\u6708","client_name":"\u56fd\u571f\u4ea4\u901a\u7701\u4e2d\u90e8\u5730\u65b9\u6574\u5099\u5c40\u540d\u53e4\u5c4b\u6e2f\u6e7e\u7a7a\u6e2f\u6280\u8853\u8abf\u67fb\u4e8b\u52d9\u6240","boring_xml_url":0,"boring_view_url":0,"soilmap_view_url":66,"soiltest_xml_url":0,"soiltest_view_url":66},{"id":122113,"code":"B4KJ201801001-0362","latitude":"34.74911392","longitude":"137.2911796","source_code":"PORT23003010008","project_name":"\u6e2f\u6e7e\u5c40","survey_name":"\u662d\u548c63\u5e74\u5ea6\u4e09\u6cb3\u6e2f\u9632\u6ce2\u5824(\u5317)\u571f\u8cea\u8abf\u67fb\u5831\u544a\u66f8\u662d\u548c63\u5e74","client_name":"\u56fd\u571f\u4ea4\u901a\u7701\u4e2d\u90e8\u5730\u65b9\u6574\u5099\u5c40\u540d\u53e4\u5c4b\u6e2f\u6e7e\u7a7a\u6e2f\u6280\u8853\u8abf\u67fb\u4e8b\u52d9\u6240","boring_xml_url":0,"boring_view_url":0,"soilmap_view_url":66,"soiltest_xml_url":0,"soiltest_view_url":66},{"id":122112,"code":"B4KJ201801001-0361","latitude":"34.74855839","longitude":"137.2903464","source_code":"PORT23003010007","project_name":"\u6e2f\u6e7e\u5c40","survey_name":"\u662d\u548c63\u5e74\u5ea6\u4e09\u6cb3\u6e2f\u9632\u6ce2\u5824(\u5317)\u571f\u8cea\u8abf\u67fb\u5831\u544a\u66f8\u662d\u548c63\u5e74","client_name":"\u56fd\u571f\u4ea4\u901a\u7701\u4e2d\u90e8\u5730\u65b9\u6574\u5099\u5c40\u540d\u53e4\u5c4b\u6e2f\u6e7e\u7a7a\u6e2f\u6280\u8853\u8abf\u67fb\u4e8b\u52d9\u6240","boring_xml_url":0,"boring_view_url":0,"soilmap_view_url":66,"soiltest_xml_url":0,"soiltest_view_url":66},{"id":122111,"code":"B4KJ201801001-0360","latitude":"34.74828063","longitude":"137.2897909","source_code":"PORT23003010006","project_name":"\u6e2f\u6e7e\u5c40","survey_name":"\u662d\u548c63\u5e74\u5ea6\u4e09\u6cb3\u6e2f\u9632\u6ce2\u5824(\u5317)\u571f\u8cea\u8abf\u67fb\u5831\u544a\u66f8\u662d\u548c63\u5e74","client_name":"\u56fd\u571f\u4ea4\u901a\u7701\u4e2d\u90e8\u5730\u65b9\u6574\u5099\u5c40\u540d\u53e4\u5c4b\u6e2f\u6e7e\u7a7a\u6e2f\u6280\u8853\u8abf\u67fb\u4e8b\u52d9\u6240","boring_xml_url":0,"boring_view_url":0,"soilmap_view_url":66,"soiltest_xml_url":0,"soiltest_view_url":66},{"id":122110,"code":"B4KJ201801001-0359","latitude":"34.74772511","longitude":"137.2886799","source_code":"PORT23003010005","project_name":"\u6e2f\u6e7e\u5c40","survey_name":"\u662d\u548c63\u5e74\u5ea6\u4e09\u6cb3\u6e2f\u9632\u6ce2\u5824(\u5317)\u571f\u8cea\u8abf\u67fb\u5831\u544a\u66f8\u662d\u548c63\u5e74","client_name":"\u56fd\u571f\u4ea4\u901a\u7701\u4e2d\u90e8\u5730\u65b9\u6574\u5099\u5c40\u540d\u53e4\u5c4b\u6e2f\u6e7e\u7a7a\u6e2f\u6280\u8853\u8abf\u67fb\u4e8b\u52d9\u6240","boring_xml_url":0,"boring_view_url":0,"soilmap_view_url":66,"soiltest_xml_url":0,"soiltest_view_url":66},{"id":122109,"code":"B4KJ201801001-0358","latitude":"34.7471696","longitude":"137.2878467","source_code":"PORT23003010004","project_name":"\u6e2f\u6e7e\u5c40","survey_name":"\u662d\u548c63\u5e74\u5ea6\u4e09\u6cb3\u6e2f\u9632\u6ce2\u5824(\u5317)\u571f\u8cea\u8abf\u67fb\u5831\u544a\u66f8\u662d\u548c63\u5e74","client_name":"\u56fd\u571f\u4ea4\u901a\u7701\u4e2d\u90e8\u5730\u65b9\u6574\u5099\u5c40\u540d\u53e4\u5c4b\u6e2f\u6e7e\u7a7a\u6e2f\u6280\u8853\u8abf\u67fb\u4e8b\u52d9\u6240","boring_xml_url":0,"boring_view_url":0,"soilmap_view_url":66,"soiltest_xml_url":0,"soiltest_view_url":66},{"id":122108,"code":"B4KJ201801001-0357","latitude":"34.74661409","longitude":"137.2870134","source_code":"PORT23003010003","project_name":"\u6e2f\u6e7e\u5c40","survey_name":"\u662d\u548c63\u5e74\u5ea6\u4e09\u6cb3\u6e2f\u9632\u6ce2\u5824(\u5317)\u571f\u8cea\u8abf\u67fb\u5831\u544a\u66f8\u662d\u548c63\u5e74","client_name":"\u56fd\u571f\u4ea4\u901a\u7701\u4e2d\u90e8\u5730\u65b9\u6574\u5099\u5c40\u540d\u53e4\u5c4b\u6e2f\u6e7e\u7a7a\u6e2f\u6280\u8853\u8abf\u67fb\u4e8b\u52d9\u6240","boring_xml_url":0,"boring_view_url":0,"soilmap_view_url":66,"soiltest_xml_url":0,"soiltest_view_url":66},{"id":122107,"code":"B4KJ201801001-0356","latitude":"34.74605857","longitude":"137.2859024","source_code":"PORT23003010002","project_name":"\u6e2f\u6e7e\u5c40","survey_name":"\u662d\u548c63\u5e74\u5ea6\u4e09\u6cb3\u6e2f\u9632\u6ce2\u5824(\u5317)\u571f\u8cea\u8abf\u67fb\u5831\u544a\u66f8\u662d\u548c63\u5e74","client_name":"\u56fd\u571f\u4ea4\u901a\u7701\u4e2d\u90e8\u5730\u65b9\u6574\u5099\u5c40\u540d\u53e4\u5c4b\u6e2f\u6e7e\u7a7a\u6e2f\u6280\u8853\u8abf\u67fb\u4e8b\u52d9\u6240","boring_xml_url":0,"boring_view_url":0,"soilmap_view_url":66,"soiltest_xml_url":0,"soiltest_view_url":66},{"id":122106,"code":"B4KJ201801001-0355","latitude":"34.73579231","longitude":"137.3025747","source_code":"PORT23003010001","project_name":"\u6e2f\u6e7e\u5c40","survey_name":"\u662d\u548c62\u5e74\u5ea6\u4e09\u6cb3\u6e2f\u571f\u8cea\u8abf\u67fb\u5831\u544a\u66f8\u662d\u548c62\u5e7410\u6708","client_name":"\u56fd\u571f\u4ea4\u901a\u7701\u4e2d\u90e8\u5730\u65b9\u6574\u5099\u5c40\u540d\u53e4\u5c4b\u6e2f\u6e7e\u7a7a\u6e2f\u6280\u8853\u8abf\u67fb\u4e8b\u52d9\u6240","boring_xml_url":0,"boring_view_url":0,"soilmap_view_url":66,"soiltest_xml_url":0,"soiltest_view_url":66},{"id":122105,"code":"B4KJ201801001-0354","latitude":"34.73828217","longitude":"137.305901","source_code":"PORT23003010000","project_name":"\u6e2f\u6e7e\u5c40","survey_name":"\u662d\u548c62\u5e74\u5ea6\u4e09\u6cb3\u6e2f\u571f\u8cea\u8abf\u67fb\u5831\u544a\u66f8\u662d\u548c62\u5e7410\u6708","client_name":"\u56fd\u571f\u4ea4\u901a\u7701\u4e2d\u90e8\u5730\u65b9\u6574\u5099\u5c40\u540d\u53e4\u5c4b\u6e2f\u6e7e\u7a7a\u6e2f\u6280\u8853\u8abf\u67fb\u4e8b\u52d9\u6240","boring_xml_url":0,"boring_view_url":0,"soilmap_view_url":66,"soiltest_xml_url":0,"soiltest_view_url":66},{"id":122104,"code":"B4KJ201801001-0353","latitude":"34.81797417","longitude":"136.9489822","source_code":"PORT23002010206","project_name":"\u6e2f\u6e7e\u5c40","survey_name":"\u8863\u6d66\u6e2f\u9632\u6ce2\u5824\u5730\u8cea\u8abf\u67fb\u5de5\u4e8b(\u305d\u306e3)","client_name":"\u56fd\u571f\u4ea4\u901a\u7701\u4e2d\u90e8\u5730\u65b9\u6574\u5099\u5c40\u540d\u53e4\u5c4b\u6e2f\u6e7e\u7a7a\u6e2f\u6280\u8853\u8abf\u67fb\u4e8b\u52d9\u6240","boring_xml_url":0,"boring_view_url":0,"soilmap_view_url":66,"soiltest_xml_url":0,"soiltest_view_url":66},{"id":122103,"code":"B4KJ201801001-0352","latitude":"34.82289769","longitude":"136.9595622","source_code":"PORT23002010205","project_name":"\u6e2f\u6e7e\u5c40","survey_name":"\u8863\u6d66\u6e2f\u9632\u6ce2\u5824\u5730\u8cea\u8abf\u67fb\u5de5\u4e8b(\u305d\u306e2)","client_name":"\u56fd\u571f\u4ea4\u901a\u7701\u4e2d\u90e8\u5730\u65b9\u6574\u5099\u5c40\u540d\u53e4\u5c4b\u6e2f\u6e7e\u7a7a\u6e2f\u6280\u8853\u8abf\u67fb\u4e8b\u52d9\u6240","boring_xml_url":0,"boring_view_url":0,"soilmap_view_url":66,"soiltest_xml_url":0,"soiltest_view_url":66},{"id":122102,"code":"B4KJ201801001-0351","latitude":"34.82252886","longitude":"136.9591893","source_code":"PORT23002010204","project_name":"\u6e2f\u6e7e\u5c40","survey_name":"\u8863\u6d66\u6e2f\u9632\u6ce2\u5824\u5730\u8cea\u8abf\u67fb\u5de5\u4e8b(\u305d\u306e2)","client_name":"\u56fd\u571f\u4ea4\u901a\u7701\u4e2d\u90e8\u5730\u65b9\u6574\u5099\u5c40\u540d\u53e4\u5c4b\u6e2f\u6e7e\u7a7a\u6e2f\u6280\u8853\u8abf\u67fb\u4e8b\u52d9\u6240","boring_xml_url":0,"boring_view_url":0,"soilmap_view_url":66,"soiltest_xml_url":0,"soiltest_view_url":66},{"id":122101,"code":"B4KJ201801001-0350","latitude":"34.86422222","longitude":"136.9688611","source_code":"PORT23002010203","project_name":"\u6e2f\u6e7e\u5c40","survey_name":"\u5e73\u621017\u5e74\u5ea6\u8863\u6d66\u6e2f\u571f\u8cea\u8abf\u67fb","client_name":"\u56fd\u571f\u4ea4\u901a\u7701\u4e2d\u90e8\u5730\u65b9\u6574\u5099\u5c40\u540d\u53e4\u5c4b\u6e2f\u6e7e\u7a7a\u6e2f\u6280\u8853\u8abf\u67fb\u4e8b\u52d9\u6240","boring_xml_url":0,"boring_view_url":0,"soilmap_view_url":66,"soiltest_xml_url":0,"soiltest_view_url":66},{"id":122100,"code":"B4KJ201801001-0349","latitude":"34.86511111","longitude":"136.9694444","source_code":"PORT23002010202","project_name":"\u6e2f\u6e7e\u5c40","survey_name":"\u5e73\u621017\u5e74\u5ea6\u8863\u6d66\u6e2f\u571f\u8cea\u8abf\u67fb","client_name":"\u56fd\u571f\u4ea4\u901a\u7701\u4e2d\u90e8\u5730\u65b9\u6574\u5099\u5c40\u540d\u53e4\u5c4b\u6e2f\u6e7e\u7a7a\u6e2f\u6280\u8853\u8abf\u67fb\u4e8b\u52d9\u6240","boring_xml_url":0,"boring_view_url":0,"soilmap_view_url":66,"soiltest_xml_url":0,"soiltest_view_url":66},{"id":122099,"code":"B4KJ201801001-0348","latitude":"34.86505556","longitude":"136.9695278","source_code":"PORT23002010201","project_name":"\u6e2f\u6e7e\u5c40","survey_name":"\u5e73\u621017\u5e74\u5ea6\u8863\u6d66\u6e2f\u571f\u8cea\u8abf\u67fb","client_name":"\u56fd\u571f\u4ea4\u901a\u7701\u4e2d\u90e8\u5730\u65b9\u6574\u5099\u5c40\u540d\u53e4\u5c4b\u6e2f\u6e7e\u7a7a\u6e2f\u6280\u8853\u8abf\u67fb\u4e8b\u52d9\u6240","boring_xml_url":0,"boring_view_url":0,"soilmap_view_url":66,"soiltest_xml_url":0,"soiltest_view_url":66},{"id":122098,"code":"B4KJ201801001-0347","latitude":"34.8717895","longitude":"136.9568673","source_code":"PORT23002010200","project_name":"\u6e2f\u6e7e\u5c40","survey_name":"\u8863\u6d66\u6e2f\u571f\u8cea\u8abf\u67fb\u5de5\u4e8b(\u305d\u306e3)\u662d\u548c49\u5e7411\u6708","client_name":"\u56fd\u571f\u4ea4\u901a\u7701\u4e2d\u90e8\u5730\u65b9\u6574\u5099\u5c40\u540d\u53e4\u5c4b\u6e2f\u6e7e\u7a7a\u6e2f\u6280\u8853\u8abf\u67fb\u4e8b\u52d9\u6240","boring_xml_url":0,"boring_view_url":0,"soilmap_view_url":66,"soiltest_xml_url":0,"soiltest_view_url":66},{"id":122097,"code":"B4KJ201801001-0346","latitude":"34.87260217","longitude":"136.9570119","source_code":"PORT23002010199","project_name":"\u6e2f\u6e7e\u5c40","survey_name":"\u8863\u6d66\u6e2f\u571f\u8cea\u8abf\u67fb\u5de5\u4e8b(\u305d\u306e3)\u662d\u548c49\u5e7411\u6708","client_name":"\u56fd\u571f\u4ea4\u901a\u7701\u4e2d\u90e8\u5730\u65b9\u6574\u5099\u5c40\u540d\u53e4\u5c4b\u6e2f\u6e7e\u7a7a\u6e2f\u6280\u8853\u8abf\u67fb\u4e8b\u52d9\u6240","boring_xml_url":0,"boring_view_url":0,"soilmap_view_url":66,"soiltest_xml_url":0,"soiltest_view_url":66},{"id":122096,"code":"B4KJ201801001-0345","latitude":"34.87335567","longitude":"136.9571926","source_code":"PORT23002010198","project_name":"\u6e2f\u6e7e\u5c40","survey_name":"\u8863\u6d66\u6e2f\u571f\u8cea\u8abf\u67fb\u5de5\u4e8b(\u305d\u306e3)\u662d\u548c49\u5e7411\u6708","client_name":"\u56fd\u571f\u4ea4\u901a\u7701\u4e2d\u90e8\u5730\u65b9\u6574\u5099\u5c40\u540d\u53e4\u5c4b\u6e2f\u6e7e\u7a7a\u6e2f\u6280\u8853\u8abf\u67fb\u4e8b\u52d9\u6240","boring_xml_url":0,"boring_view_url":0,"soilmap_view_url":66,"soiltest_xml_url":0,"soiltest_view_url":66}]}}