{"header":{"xyz":{"source":[],"mosaic":false},"page":662,"raw":{"soiltest_result":"0","bbox":"57.598333,109.544722,1.933333,163.806111","page":"662"},"conditions":{"soiltest_result":0,"north":57.598333,"west":109.544722,"south":1.933333,"east":163.806111},"success":true,"message":""},"data":{"meta":{"total":212844,"page":662,"pages":7095,"count":30},"values":[{"id":525558,"code":"B4KJ202201002-8094","latitude":"33.136667","longitude":"133.125833","source_code":"078861612000360020","project_name":"","survey_name":"\u5e73\u621019\u5e74\u5ea6\u7247\u5742\u30d0\u30a4\u30d1\u30b9\u5730\u8cea\u8abf\u67fb(\u305d\u306e2)\u696d\u52d9","client_name":"\u56fd\u571f\u4ea4\u901a\u7701\u56db\u56fd\u5730\u65b9\u6574\u5099\u5c40\u4e2d\u6751\u6cb3\u5ddd\u56fd\u9053\u4e8b\u52d9\u6240","boring_xml_url":64,"boring_view_url":1,"soilmap_view_url":null,"soiltest_xml_url":0,"soiltest_view_url":0},{"id":525557,"code":"B4KJ202201002-8093","latitude":"33.136667","longitude":"133.125556","source_code":"078861612000360018","project_name":"","survey_name":"\u5e73\u621019\u5e74\u5ea6\u7247\u5742\u30d0\u30a4\u30d1\u30b9\u5730\u8cea\u8abf\u67fb(\u305d\u306e2)\u696d\u52d9","client_name":"\u56fd\u571f\u4ea4\u901a\u7701\u56db\u56fd\u5730\u65b9\u6574\u5099\u5c40\u4e2d\u6751\u6cb3\u5ddd\u56fd\u9053\u4e8b\u52d9\u6240","boring_xml_url":64,"boring_view_url":1,"soilmap_view_url":null,"soiltest_xml_url":0,"soiltest_view_url":0},{"id":525556,"code":"B4KJ202201002-8092","latitude":"33.136111","longitude":"133.125","source_code":"078861612000360017","project_name":"","survey_name":"\u5e73\u621019\u5e74\u5ea6\u7247\u5742\u30d0\u30a4\u30d1\u30b9\u5730\u8cea\u8abf\u67fb(\u305d\u306e2)\u696d\u52d9","client_name":"\u56fd\u571f\u4ea4\u901a\u7701\u56db\u56fd\u5730\u65b9\u6574\u5099\u5c40\u4e2d\u6751\u6cb3\u5ddd\u56fd\u9053\u4e8b\u52d9\u6240","boring_xml_url":64,"boring_view_url":1,"soilmap_view_url":null,"soiltest_xml_url":0,"soiltest_view_url":0},{"id":525555,"code":"B4KJ202201002-8091","latitude":"33.138889","longitude":"133.126111","source_code":"078861612000360016","project_name":"","survey_name":"\u5e73\u621019\u5e74\u5ea6\u7247\u5742\u30d0\u30a4\u30d1\u30b9\u5730\u8cea\u8abf\u67fb(\u305d\u306e2)\u696d\u52d9","client_name":"\u56fd\u571f\u4ea4\u901a\u7701\u56db\u56fd\u5730\u65b9\u6574\u5099\u5c40\u4e2d\u6751\u6cb3\u5ddd\u56fd\u9053\u4e8b\u52d9\u6240","boring_xml_url":64,"boring_view_url":1,"soilmap_view_url":null,"soiltest_xml_url":0,"soiltest_view_url":0},{"id":525554,"code":"B4KJ202201002-8090","latitude":"33.139444","longitude":"133.126111","source_code":"078861612000360015","project_name":"","survey_name":"\u5e73\u621019\u5e74\u5ea6\u7247\u5742\u30d0\u30a4\u30d1\u30b9\u5730\u8cea\u8abf\u67fb(\u305d\u306e2)\u696d\u52d9","client_name":"\u56fd\u571f\u4ea4\u901a\u7701\u56db\u56fd\u5730\u65b9\u6574\u5099\u5c40\u4e2d\u6751\u6cb3\u5ddd\u56fd\u9053\u4e8b\u52d9\u6240","boring_xml_url":64,"boring_view_url":1,"soilmap_view_url":null,"soiltest_xml_url":0,"soiltest_view_url":0},{"id":525553,"code":"B4KJ202201002-8089","latitude":"33.152222","longitude":"133.144444","source_code":"078861612000360014","project_name":"","survey_name":"\u5e73\u621019\u5e74\u5ea6\u7247\u5742\u30d0\u30a4\u30d1\u30b9\u5730\u8cea\u8abf\u67fb(\u305d\u306e2)\u696d\u52d9","client_name":"\u56fd\u571f\u4ea4\u901a\u7701\u56db\u56fd\u5730\u65b9\u6574\u5099\u5c40\u4e2d\u6751\u6cb3\u5ddd\u56fd\u9053\u4e8b\u52d9\u6240","boring_xml_url":64,"boring_view_url":1,"soilmap_view_url":null,"soiltest_xml_url":0,"soiltest_view_url":0},{"id":525552,"code":"B4KJ202201002-8088","latitude":"33.148611","longitude":"133.135556","source_code":"078861612000360013","project_name":"","survey_name":"\u5e73\u621019\u5e74\u5ea6\u7247\u5742\u30d0\u30a4\u30d1\u30b9\u5730\u8cea\u8abf\u67fb(\u305d\u306e2)\u696d\u52d9","client_name":"\u56fd\u571f\u4ea4\u901a\u7701\u56db\u56fd\u5730\u65b9\u6574\u5099\u5c40\u4e2d\u6751\u6cb3\u5ddd\u56fd\u9053\u4e8b\u52d9\u6240","boring_xml_url":64,"boring_view_url":1,"soilmap_view_url":null,"soiltest_xml_url":0,"soiltest_view_url":0},{"id":525551,"code":"B4KJ202201002-8087","latitude":"33.146944","longitude":"133.138333","source_code":"078861612000360012","project_name":"","survey_name":"\u5e73\u621019\u5e74\u5ea6\u7247\u5742\u30d0\u30a4\u30d1\u30b9\u5730\u8cea\u8abf\u67fb(\u305d\u306e2)\u696d\u52d9","client_name":"\u56fd\u571f\u4ea4\u901a\u7701\u56db\u56fd\u5730\u65b9\u6574\u5099\u5c40\u4e2d\u6751\u6cb3\u5ddd\u56fd\u9053\u4e8b\u52d9\u6240","boring_xml_url":64,"boring_view_url":1,"soilmap_view_url":null,"soiltest_xml_url":0,"soiltest_view_url":0},{"id":525550,"code":"B4KJ202201002-8086","latitude":"33.147222","longitude":"133.138889","source_code":"078861612000360011","project_name":"","survey_name":"\u5e73\u621019\u5e74\u5ea6\u7247\u5742\u30d0\u30a4\u30d1\u30b9\u5730\u8cea\u8abf\u67fb(\u305d\u306e2)\u696d\u52d9","client_name":"\u56fd\u571f\u4ea4\u901a\u7701\u56db\u56fd\u5730\u65b9\u6574\u5099\u5c40\u4e2d\u6751\u6cb3\u5ddd\u56fd\u9053\u4e8b\u52d9\u6240","boring_xml_url":64,"boring_view_url":1,"soilmap_view_url":null,"soiltest_xml_url":0,"soiltest_view_url":0},{"id":525549,"code":"B4KJ202201002-8085","latitude":"33.161389","longitude":"133.145833","source_code":"078861612000360010","project_name":"","survey_name":"\u5e73\u621019\u5e74\u5ea6\u7247\u5742\u30d0\u30a4\u30d1\u30b9\u5730\u8cea\u8abf\u67fb(\u305d\u306e2)\u696d\u52d9","client_name":"\u56fd\u571f\u4ea4\u901a\u7701\u56db\u56fd\u5730\u65b9\u6574\u5099\u5c40\u4e2d\u6751\u6cb3\u5ddd\u56fd\u9053\u4e8b\u52d9\u6240","boring_xml_url":64,"boring_view_url":1,"soilmap_view_url":null,"soiltest_xml_url":0,"soiltest_view_url":0},{"id":525548,"code":"B4KJ202201002-8084","latitude":"33.161389","longitude":"133.146667","source_code":"078861612000360009","project_name":"","survey_name":"\u5e73\u621019\u5e74\u5ea6\u7247\u5742\u30d0\u30a4\u30d1\u30b9\u5730\u8cea\u8abf\u67fb(\u305d\u306e2)\u696d\u52d9","client_name":"\u56fd\u571f\u4ea4\u901a\u7701\u56db\u56fd\u5730\u65b9\u6574\u5099\u5c40\u4e2d\u6751\u6cb3\u5ddd\u56fd\u9053\u4e8b\u52d9\u6240","boring_xml_url":64,"boring_view_url":1,"soilmap_view_url":null,"soiltest_xml_url":0,"soiltest_view_url":0},{"id":525547,"code":"B4KJ202201002-8083","latitude":"33.161389","longitude":"133.146111","source_code":"078861612000360008","project_name":"","survey_name":"\u5e73\u621019\u5e74\u5ea6\u7247\u5742\u30d0\u30a4\u30d1\u30b9\u5730\u8cea\u8abf\u67fb(\u305d\u306e2)\u696d\u52d9","client_name":"\u56fd\u571f\u4ea4\u901a\u7701\u56db\u56fd\u5730\u65b9\u6574\u5099\u5c40\u4e2d\u6751\u6cb3\u5ddd\u56fd\u9053\u4e8b\u52d9\u6240","boring_xml_url":64,"boring_view_url":1,"soilmap_view_url":null,"soiltest_xml_url":0,"soiltest_view_url":0},{"id":525546,"code":"B4KJ202201002-8082","latitude":"33.160833","longitude":"133.1425","source_code":"078861612000360007","project_name":"","survey_name":"\u5e73\u621019\u5e74\u5ea6\u7247\u5742\u30d0\u30a4\u30d1\u30b9\u5730\u8cea\u8abf\u67fb(\u305d\u306e2)\u696d\u52d9","client_name":"\u56fd\u571f\u4ea4\u901a\u7701\u56db\u56fd\u5730\u65b9\u6574\u5099\u5c40\u4e2d\u6751\u6cb3\u5ddd\u56fd\u9053\u4e8b\u52d9\u6240","boring_xml_url":64,"boring_view_url":1,"soilmap_view_url":null,"soiltest_xml_url":0,"soiltest_view_url":0},{"id":525545,"code":"B4KJ202201002-8081","latitude":"33.163056","longitude":"133.149722","source_code":"078861612000360005","project_name":"","survey_name":"\u5e73\u621019\u5e74\u5ea6\u7247\u5742\u30d0\u30a4\u30d1\u30b9\u5730\u8cea\u8abf\u67fb(\u305d\u306e2)\u696d\u52d9","client_name":"\u56fd\u571f\u4ea4\u901a\u7701\u56db\u56fd\u5730\u65b9\u6574\u5099\u5c40\u4e2d\u6751\u6cb3\u5ddd\u56fd\u9053\u4e8b\u52d9\u6240","boring_xml_url":64,"boring_view_url":1,"soilmap_view_url":null,"soiltest_xml_url":0,"soiltest_view_url":0},{"id":525544,"code":"B4KJ202201002-8080","latitude":"34.088889","longitude":"134.338611","source_code":"078830402000230002","project_name":"","survey_name":"\u5e73\u621019\u5e74\u5ea6\u3000\u9ad8\u7551\u6f0f\u6c34\u5bfe\u7b56\u6e2c\u91cf\u8a2d\u8a08\u696d\u52d9\u59d4\u8a17","client_name":"\u56fd\u571f\u4ea4\u901a\u7701\u56db\u56fd\u5730\u65b9\u6574\u5099\u5c40\u5fb3\u5cf6\u6cb3\u5ddd\u56fd\u9053\u4e8b\u52d9\u6240","boring_xml_url":64,"boring_view_url":1,"soilmap_view_url":null,"soiltest_xml_url":0,"soiltest_view_url":0},{"id":525543,"code":"B4KJ202201002-8079","latitude":"34.089167","longitude":"134.340833","source_code":"078830402000230001","project_name":"","survey_name":"\u5e73\u621019\u5e74\u5ea6\u3000\u9ad8\u7551\u6f0f\u6c34\u5bfe\u7b56\u6e2c\u91cf\u8a2d\u8a08\u696d\u52d9\u59d4\u8a17","client_name":"\u56fd\u571f\u4ea4\u901a\u7701\u56db\u56fd\u5730\u65b9\u6574\u5099\u5c40\u5fb3\u5cf6\u6cb3\u5ddd\u56fd\u9053\u4e8b\u52d9\u6240","boring_xml_url":64,"boring_view_url":1,"soilmap_view_url":null,"soiltest_xml_url":0,"soiltest_view_url":0},{"id":525542,"code":"B4KJ202201002-8078","latitude":"33.413778","longitude":"132.718056","source_code":"078855402000120010","project_name":"\u5e73\u621019\u5e74\u5ea6\u3000\u9e7f\u91ce\u5ddd\u30c0\u30e0\u8caf\u6c34\u6c60\u5730\u3059\u3079\u308a\u8abf\u67fb\u696d\u52d9","survey_name":"\u5e73\u621019\u5e74\u5ea6\u3000\u9e7f\u91ce\u5ddd\u30c0\u30e0\u8caf\u6c34\u6c60\u5730\u3059\u3079\u308a\u8abf\u67fb\u696d\u52d9","client_name":"\u56fd\u571f\u4ea4\u901a\u7701\u3000\u56db\u56fd\u5730\u65b9\u6574\u5099\u5c40\u3000\u5c71\u9ce5\u5742\u30c0\u30e0\u5de5\u4e8b\u4e8b\u52d9\u6240","boring_xml_url":64,"boring_view_url":1,"soilmap_view_url":null,"soiltest_xml_url":0,"soiltest_view_url":0},{"id":525541,"code":"B4KJ202201002-8077","latitude":"33.413778","longitude":"132.718056","source_code":"078855402000120009","project_name":"\u5e73\u621019\u5e74\u5ea6\u3000\u9e7f\u91ce\u5ddd\u30c0\u30e0\u8caf\u6c34\u6c60\u5730\u3059\u3079\u308a\u8abf\u67fb\u696d\u52d9","survey_name":"\u5e73\u621019\u5e74\u5ea6\u3000\u9e7f\u91ce\u5ddd\u30c0\u30e0\u8caf\u6c34\u6c60\u5730\u3059\u3079\u308a\u8abf\u67fb\u696d\u52d9","client_name":"\u56fd\u571f\u4ea4\u901a\u7701\u3000\u56db\u56fd\u5730\u65b9\u6574\u5099\u5c40\u3000\u5c71\u9ce5\u5742\u30c0\u30e0\u5de5\u4e8b\u4e8b\u52d9\u6240","boring_xml_url":64,"boring_view_url":1,"soilmap_view_url":null,"soiltest_xml_url":0,"soiltest_view_url":0},{"id":525540,"code":"B4KJ202201002-8076","latitude":"33.413528","longitude":"132.717528","source_code":"078855402000120008","project_name":"\u5e73\u621019\u5e74\u5ea6\u3000\u9e7f\u91ce\u5ddd\u30c0\u30e0\u8caf\u6c34\u6c60\u5730\u3059\u3079\u308a\u8abf\u67fb\u696d\u52d9","survey_name":"\u5e73\u621019\u5e74\u5ea6\u3000\u9e7f\u91ce\u5ddd\u30c0\u30e0\u8caf\u6c34\u6c60\u5730\u3059\u3079\u308a\u8abf\u67fb\u696d\u52d9","client_name":"\u56fd\u571f\u4ea4\u901a\u7701\u3000\u56db\u56fd\u5730\u65b9\u6574\u5099\u5c40\u3000\u5c71\u9ce5\u5742\u30c0\u30e0\u5de5\u4e8b\u4e8b\u52d9\u6240","boring_xml_url":64,"boring_view_url":1,"soilmap_view_url":null,"soiltest_xml_url":0,"soiltest_view_url":0},{"id":525539,"code":"B4KJ202201002-8075","latitude":"33.414556","longitude":"132.717833","source_code":"078855402000120007","project_name":"\u5e73\u621019\u5e74\u5ea6\u3000\u9e7f\u91ce\u5ddd\u30c0\u30e0\u8caf\u6c34\u6c60\u5730\u3059\u3079\u308a\u8abf\u67fb\u696d\u52d9","survey_name":"\u5e73\u621019\u5e74\u5ea6\u3000\u9e7f\u91ce\u5ddd\u30c0\u30e0\u8caf\u6c34\u6c60\u5730\u3059\u3079\u308a\u8abf\u67fb\u696d\u52d9","client_name":"\u56fd\u571f\u4ea4\u901a\u7701\u3000\u56db\u56fd\u5730\u65b9\u6574\u5099\u5c40\u3000\u5c71\u9ce5\u5742\u30c0\u30e0\u5de5\u4e8b\u4e8b\u52d9\u6240","boring_xml_url":64,"boring_view_url":1,"soilmap_view_url":null,"soiltest_xml_url":0,"soiltest_view_url":0},{"id":525538,"code":"B4KJ202201002-8074","latitude":"33.414333","longitude":"132.711194","source_code":"078855402000120006","project_name":"\u5e73\u621019\u5e74\u5ea6\u3000\u9e7f\u91ce\u5ddd\u30c0\u30e0\u8caf\u6c34\u6c60\u5730\u3059\u3079\u308a\u8abf\u67fb\u696d\u52d9","survey_name":"\u5e73\u621019\u5e74\u5ea6\u3000\u9e7f\u91ce\u5ddd\u30c0\u30e0\u8caf\u6c34\u6c60\u5730\u3059\u3079\u308a\u8abf\u67fb\u696d\u52d9","client_name":"\u56fd\u571f\u4ea4\u901a\u7701\u3000\u56db\u56fd\u5730\u65b9\u6574\u5099\u5c40\u3000\u5c71\u9ce5\u5742\u30c0\u30e0\u5de5\u4e8b\u4e8b\u52d9\u6240","boring_xml_url":64,"boring_view_url":1,"soilmap_view_url":null,"soiltest_xml_url":0,"soiltest_view_url":0},{"id":525537,"code":"B4KJ202201002-8073","latitude":"33.414333","longitude":"132.711194","source_code":"078855402000120005","project_name":"\u5e73\u621019\u5e74\u5ea6\u3000\u9e7f\u91ce\u5ddd\u30c0\u30e0\u8caf\u6c34\u6c60\u5730\u3059\u3079\u308a\u8abf\u67fb\u696d\u52d9","survey_name":"\u5e73\u621019\u5e74\u5ea6\u3000\u9e7f\u91ce\u5ddd\u30c0\u30e0\u8caf\u6c34\u6c60\u5730\u3059\u3079\u308a\u8abf\u67fb\u696d\u52d9","client_name":"\u56fd\u571f\u4ea4\u901a\u7701\u3000\u56db\u56fd\u5730\u65b9\u6574\u5099\u5c40\u3000\u5c71\u9ce5\u5742\u30c0\u30e0\u5de5\u4e8b\u4e8b\u52d9\u6240","boring_xml_url":64,"boring_view_url":1,"soilmap_view_url":null,"soiltest_xml_url":0,"soiltest_view_url":0},{"id":525536,"code":"B4KJ202201002-8072","latitude":"33.415028","longitude":"132.711417","source_code":"078855402000120004","project_name":"\u5e73\u621019\u5e74\u5ea6\u3000\u9e7f\u91ce\u5ddd\u30c0\u30e0\u8caf\u6c34\u6c60\u5730\u3059\u3079\u308a\u8abf\u67fb\u696d\u52d9","survey_name":"\u5e73\u621019\u5e74\u5ea6\u3000\u9e7f\u91ce\u5ddd\u30c0\u30e0\u8caf\u6c34\u6c60\u5730\u3059\u3079\u308a\u8abf\u67fb\u696d\u52d9","client_name":"\u56fd\u571f\u4ea4\u901a\u7701\u3000\u56db\u56fd\u5730\u65b9\u6574\u5099\u5c40\u3000\u5c71\u9ce5\u5742\u30c0\u30e0\u5de5\u4e8b\u4e8b\u52d9\u6240","boring_xml_url":64,"boring_view_url":1,"soilmap_view_url":null,"soiltest_xml_url":0,"soiltest_view_url":0},{"id":525535,"code":"B4KJ202201002-8071","latitude":"33.415028","longitude":"132.711417","source_code":"078855402000120003","project_name":"\u5e73\u621019\u5e74\u5ea6\u3000\u9e7f\u91ce\u5ddd\u30c0\u30e0\u8caf\u6c34\u6c60\u5730\u3059\u3079\u308a\u8abf\u67fb\u696d\u52d9","survey_name":"\u5e73\u621019\u5e74\u5ea6\u3000\u9e7f\u91ce\u5ddd\u30c0\u30e0\u8caf\u6c34\u6c60\u5730\u3059\u3079\u308a\u8abf\u67fb\u696d\u52d9","client_name":"\u56fd\u571f\u4ea4\u901a\u7701\u3000\u56db\u56fd\u5730\u65b9\u6574\u5099\u5c40\u3000\u5c71\u9ce5\u5742\u30c0\u30e0\u5de5\u4e8b\u4e8b\u52d9\u6240","boring_xml_url":64,"boring_view_url":1,"soilmap_view_url":null,"soiltest_xml_url":0,"soiltest_view_url":0},{"id":525534,"code":"B4KJ202201002-8070","latitude":"33.414389","longitude":"132.7105","source_code":"078855402000120002","project_name":"\u5e73\u621019\u5e74\u5ea6\u3000\u9e7f\u91ce\u5ddd\u30c0\u30e0\u8caf\u6c34\u6c60\u5730\u3059\u3079\u308a\u8abf\u67fb\u696d\u52d9","survey_name":"\u5e73\u621019\u5e74\u5ea6\u3000\u9e7f\u91ce\u5ddd\u30c0\u30e0\u8caf\u6c34\u6c60\u5730\u3059\u3079\u308a\u8abf\u67fb\u696d\u52d9","client_name":"\u56fd\u571f\u4ea4\u901a\u7701\u3000\u56db\u56fd\u5730\u65b9\u6574\u5099\u5c40\u3000\u5c71\u9ce5\u5742\u30c0\u30e0\u5de5\u4e8b\u4e8b\u52d9\u6240","boring_xml_url":64,"boring_view_url":1,"soilmap_view_url":null,"soiltest_xml_url":0,"soiltest_view_url":0},{"id":525533,"code":"B4KJ202201002-8069","latitude":"33.415139","longitude":"132.71075","source_code":"078855402000120001","project_name":"\u5e73\u621019\u5e74\u5ea6\u3000\u9e7f\u91ce\u5ddd\u30c0\u30e0\u8caf\u6c34\u6c60\u5730\u3059\u3079\u308a\u8abf\u67fb\u696d\u52d9","survey_name":"\u5e73\u621019\u5e74\u5ea6\u3000\u9e7f\u91ce\u5ddd\u30c0\u30e0\u8caf\u6c34\u6c60\u5730\u3059\u3079\u308a\u8abf\u67fb\u696d\u52d9","client_name":"\u56fd\u571f\u4ea4\u901a\u7701\u3000\u56db\u56fd\u5730\u65b9\u6574\u5099\u5c40\u3000\u5c71\u9ce5\u5742\u30c0\u30e0\u5de5\u4e8b\u4e8b\u52d9\u6240","boring_xml_url":64,"boring_view_url":1,"soilmap_view_url":null,"soiltest_xml_url":0,"soiltest_view_url":0},{"id":525532,"code":"B4KJ202201002-8068","latitude":"33.69605","longitude":"132.706489","source_code":"078850542000140001","project_name":"\u5e73\u621019\u5e74\u5ea6\u3000\u677e\u4e8c\u7ba1\u5185\u9632\u707d\u5bfe\u7b56\u8a2d\u8a08\u696d\u52d9","survey_name":"\u5e73\u621019\u5e74\u5ea6\u3000\u677e\u4e8c\u7ba1\u5185\u9632\u707d\u5bfe\u7b56\u8a2d\u8a08\u696d\u52d9","client_name":"\u56fd\u571f\u4ea4\u901a\u7701\u56db\u56fd\u5730\u65b9\u6574\u5099\u5c40\u677e\u5c71\u6cb3\u5ddd\u56fd\u9053\u4e8b\u52d9\u6240","boring_xml_url":64,"boring_view_url":1,"soilmap_view_url":null,"soiltest_xml_url":0,"soiltest_view_url":0},{"id":525531,"code":"B4KJ202201002-8067","latitude":"33.9975","longitude":"133.655389","source_code":"078850542000120004","project_name":"\u5e73\u621019\u5e74\u5ea6\u3000\u897f\u6761\u7ba1\u5185\u9632\u707d\u5bfe\u7b56\u8a2d\u8a08\u696d\u52d9","survey_name":"\u5e73\u621019\u5e74\u5ea6\u3000\u897f\u6761\u7ba1\u5185\u9632\u707d\u5bfe\u7b56\u8a2d\u8a08\u696d\u52d9","client_name":"\u56fd\u571f\u4ea4\u901a\u7701\u56db\u56fd\u5730\u65b9\u6574\u5099\u5c40\u3000\u677e\u5c71\u6cb3\u5ddd\u56fd\u9053\u4e8b\u52d9\u6240","boring_xml_url":64,"boring_view_url":1,"soilmap_view_url":null,"soiltest_xml_url":0,"soiltest_view_url":0},{"id":525530,"code":"B4KJ202201002-8066","latitude":"33.997333","longitude":"133.655417","source_code":"078850542000120003","project_name":"\u5e73\u621019\u5e74\u5ea6\u3000\u897f\u6761\u7ba1\u5185\u9632\u707d\u5bfe\u7b56\u8a2d\u8a08\u696d\u52d9","survey_name":"\u5e73\u621019\u5e74\u5ea6\u3000\u897f\u6761\u7ba1\u5185\u9632\u707d\u5bfe\u7b56\u8a2d\u8a08\u696d\u52d9","client_name":"\u56fd\u571f\u4ea4\u901a\u7701\u56db\u56fd\u5730\u65b9\u6574\u5099\u5c40\u3000\u677e\u5c71\u6cb3\u5ddd\u56fd\u9053\u4e8b\u52d9\u6240","boring_xml_url":64,"boring_view_url":1,"soilmap_view_url":null,"soiltest_xml_url":0,"soiltest_view_url":0},{"id":525529,"code":"B4KJ202201002-8065","latitude":"33.997417","longitude":"133.655083","source_code":"078850542000120002","project_name":"\u5e73\u621019\u5e74\u5ea6\u3000\u897f\u6761\u7ba1\u5185\u9632\u707d\u5bfe\u7b56\u8a2d\u8a08\u696d\u52d9","survey_name":"\u5e73\u621019\u5e74\u5ea6\u3000\u897f\u6761\u7ba1\u5185\u9632\u707d\u5bfe\u7b56\u8a2d\u8a08\u696d\u52d9","client_name":"\u56fd\u571f\u4ea4\u901a\u7701\u56db\u56fd\u5730\u65b9\u6574\u5099\u5c40\u3000\u677e\u5c71\u6cb3\u5ddd\u56fd\u9053\u4e8b\u52d9\u6240","boring_xml_url":64,"boring_view_url":1,"soilmap_view_url":null,"soiltest_xml_url":0,"soiltest_view_url":0}]}}