{"header":{"xyz":{"source":[],"mosaic":false},"page":6623,"raw":{"soiltest_result":"0","bbox":"57.598333,109.544722,1.933333,163.806111","page":"6623"},"conditions":{"soiltest_result":0,"north":57.598333,"west":109.544722,"south":1.933333,"east":163.806111},"success":true,"message":""},"data":{"meta":{"total":212844,"page":6623,"pages":7095,"count":30},"values":[{"id":121885,"code":"B4KJ201801001-0134","latitude":"35.26182783","longitude":"136.9181521","source_code":"PORT23001020100","project_name":"\u6e2f\u6e7e\u5c40","survey_name":"\u662d\u548c55\u5e74\u5ea6\u540d\u53e4\u5c4b\u7a7a\u6e2f\u571f\u8cea\u53ca\u3073\u8def\u5e8a\u8abf\u67fb\u5831\u544a\u66f8\u662d\u548c55\u5e741","client_name":"\u56fd\u571f\u4ea4\u901a\u7701\u4e2d\u90e8\u5730\u65b9\u6574\u5099\u5c40\u540d\u53e4\u5c4b\u6e2f\u6e7e\u7a7a\u6e2f\u6280\u8853\u8abf\u67fb\u4e8b\u52d9\u6240","boring_xml_url":0,"boring_view_url":0,"soilmap_view_url":66,"soiltest_xml_url":0,"soiltest_view_url":66},{"id":121884,"code":"B4KJ201801001-0133","latitude":"35.26266101","longitude":"136.9173188","source_code":"PORT23001020099","project_name":"\u6e2f\u6e7e\u5c40","survey_name":"\u662d\u548c55\u5e74\u5ea6\u540d\u53e4\u5c4b\u7a7a\u6e2f\u571f\u8cea\u53ca\u3073\u8def\u5e8a\u8abf\u67fb\u5831\u544a\u66f8\u662d\u548c55\u5e741","client_name":"\u56fd\u571f\u4ea4\u901a\u7701\u4e2d\u90e8\u5730\u65b9\u6574\u5099\u5c40\u540d\u53e4\u5c4b\u6e2f\u6e7e\u7a7a\u6e2f\u6280\u8853\u8abf\u67fb\u4e8b\u52d9\u6240","boring_xml_url":0,"boring_view_url":0,"soilmap_view_url":66,"soiltest_xml_url":0,"soiltest_view_url":66},{"id":121883,"code":"B4KJ201801001-0132","latitude":"35.26377193","longitude":"136.9167632","source_code":"PORT23001020098","project_name":"\u6e2f\u6e7e\u5c40","survey_name":"\u662d\u548c55\u5e74\u5ea6\u540d\u53e4\u5c4b\u7a7a\u6e2f\u571f\u8cea\u53ca\u3073\u8def\u5e8a\u8abf\u67fb\u5831\u544a\u66f8\u662d\u548c55\u5e741","client_name":"\u56fd\u571f\u4ea4\u901a\u7701\u4e2d\u90e8\u5730\u65b9\u6574\u5099\u5c40\u540d\u53e4\u5c4b\u6e2f\u6e7e\u7a7a\u6e2f\u6280\u8853\u8abf\u67fb\u4e8b\u52d9\u6240","boring_xml_url":0,"boring_view_url":0,"soilmap_view_url":66,"soiltest_xml_url":0,"soiltest_view_url":66},{"id":121882,"code":"B4KJ201801001-0131","latitude":"35.26404969","longitude":"136.9175965","source_code":"PORT23001020097","project_name":"\u6e2f\u6e7e\u5c40","survey_name":"\u662d\u548c55\u5e74\u5ea6\u540d\u53e4\u5c4b\u7a7a\u6e2f\u571f\u8cea\u53ca\u3073\u8def\u5e8a\u8abf\u67fb\u5831\u544a\u66f8\u662d\u548c55\u5e741","client_name":"\u56fd\u571f\u4ea4\u901a\u7701\u4e2d\u90e8\u5730\u65b9\u6574\u5099\u5c40\u540d\u53e4\u5c4b\u6e2f\u6e7e\u7a7a\u6e2f\u6280\u8853\u8abf\u67fb\u4e8b\u52d9\u6240","boring_xml_url":0,"boring_view_url":0,"soilmap_view_url":66,"soiltest_xml_url":0,"soiltest_view_url":66},{"id":121881,"code":"B4KJ201801001-0130","latitude":"35.26404971","longitude":"136.918152","source_code":"PORT23001020096","project_name":"\u6e2f\u6e7e\u5c40","survey_name":"\u662d\u548c55\u5e74\u5ea6\u540d\u53e4\u5c4b\u7a7a\u6e2f\u571f\u8cea\u53ca\u3073\u8def\u5e8a\u8abf\u67fb\u5831\u544a\u66f8\u662d\u548c55\u5e741","client_name":"\u56fd\u571f\u4ea4\u901a\u7701\u4e2d\u90e8\u5730\u65b9\u6574\u5099\u5c40\u540d\u53e4\u5c4b\u6e2f\u6e7e\u7a7a\u6e2f\u6280\u8853\u8abf\u67fb\u4e8b\u52d9\u6240","boring_xml_url":0,"boring_view_url":0,"soilmap_view_url":66,"soiltest_xml_url":0,"soiltest_view_url":66},{"id":121880,"code":"B4KJ201801001-0129","latitude":"35.26516058","longitude":"136.9159298","source_code":"PORT23001020095","project_name":"\u6e2f\u6e7e\u5c40","survey_name":"\u662d\u548c55\u5e74\u5ea6\u540d\u53e4\u5c4b\u7a7a\u6e2f\u571f\u8cea\u53ca\u3073\u8def\u5e8a\u8abf\u67fb\u5831\u544a\u66f8\u662d\u548c55\u5e741","client_name":"\u56fd\u571f\u4ea4\u901a\u7701\u4e2d\u90e8\u5730\u65b9\u6574\u5099\u5c40\u540d\u53e4\u5c4b\u6e2f\u6e7e\u7a7a\u6e2f\u6280\u8853\u8abf\u67fb\u4e8b\u52d9\u6240","boring_xml_url":0,"boring_view_url":0,"soilmap_view_url":66,"soiltest_xml_url":0,"soiltest_view_url":66},{"id":121879,"code":"B4KJ201801001-0128","latitude":"35.26571605","longitude":"136.9159298","source_code":"PORT23001020094","project_name":"\u6e2f\u6e7e\u5c40","survey_name":"\u662d\u548c55\u5e74\u5ea6\u540d\u53e4\u5c4b\u7a7a\u6e2f\u571f\u8cea\u53ca\u3073\u8def\u5e8a\u8abf\u67fb\u5831\u544a\u66f8\u662d\u548c55\u5e741","client_name":"\u56fd\u571f\u4ea4\u901a\u7701\u4e2d\u90e8\u5730\u65b9\u6574\u5099\u5c40\u540d\u53e4\u5c4b\u6e2f\u6e7e\u7a7a\u6e2f\u6280\u8853\u8abf\u67fb\u4e8b\u52d9\u6240","boring_xml_url":0,"boring_view_url":0,"soilmap_view_url":66,"soiltest_xml_url":0,"soiltest_view_url":66},{"id":121878,"code":"B4KJ201801001-0127","latitude":"35.26627156","longitude":"136.9170408","source_code":"PORT23001020093","project_name":"\u6e2f\u6e7e\u5c40","survey_name":"\u662d\u548c55\u5e74\u5ea6\u540d\u53e4\u5c4b\u7a7a\u6e2f\u571f\u8cea\u53ca\u3073\u8def\u5e8a\u8abf\u67fb\u5831\u544a\u66f8\u662d\u548c55\u5e741","client_name":"\u56fd\u571f\u4ea4\u901a\u7701\u4e2d\u90e8\u5730\u65b9\u6574\u5099\u5c40\u540d\u53e4\u5c4b\u6e2f\u6e7e\u7a7a\u6e2f\u6280\u8853\u8abf\u67fb\u4e8b\u52d9\u6240","boring_xml_url":0,"boring_view_url":0,"soilmap_view_url":66,"soiltest_xml_url":0,"soiltest_view_url":66},{"id":121877,"code":"B4KJ201801001-0126","latitude":"35.25543976","longitude":"136.9195411","source_code":"PORT23001020092","project_name":"\u6e2f\u6e7e\u5c40","survey_name":"\u7a7a\u6e2f\u4eee\u8a2d\u9053\u8def\u571f\u8cea\u8abf\u67fb\u662d\u548c54\u5e743\u6708","client_name":"\u56fd\u571f\u4ea4\u901a\u7701\u4e2d\u90e8\u5730\u65b9\u6574\u5099\u5c40\u540d\u53e4\u5c4b\u6e2f\u6e7e\u7a7a\u6e2f\u6280\u8853\u8abf\u67fb\u4e8b\u52d9\u6240","boring_xml_url":0,"boring_view_url":0,"soilmap_view_url":66,"soiltest_xml_url":0,"soiltest_view_url":66},{"id":121876,"code":"B4KJ201801001-0125","latitude":"35.25571751","longitude":"136.9198188","source_code":"PORT23001020091","project_name":"\u6e2f\u6e7e\u5c40","survey_name":"\u7a7a\u6e2f\u4eee\u8a2d\u9053\u8def\u571f\u8cea\u8abf\u67fb\u662d\u548c54\u5e743\u6708","client_name":"\u56fd\u571f\u4ea4\u901a\u7701\u4e2d\u90e8\u5730\u65b9\u6574\u5099\u5c40\u540d\u53e4\u5c4b\u6e2f\u6e7e\u7a7a\u6e2f\u6280\u8853\u8abf\u67fb\u4e8b\u52d9\u6240","boring_xml_url":0,"boring_view_url":0,"soilmap_view_url":66,"soiltest_xml_url":0,"soiltest_view_url":66},{"id":121875,"code":"B4KJ201801001-0124","latitude":"35.25655076","longitude":"136.9206521","source_code":"PORT23001020090","project_name":"\u6e2f\u6e7e\u5c40","survey_name":"\u7a7a\u6e2f\u4eee\u8a2d\u9053\u8def\u571f\u8cea\u8abf\u67fb\u662d\u548c54\u5e743\u6708","client_name":"\u56fd\u571f\u4ea4\u901a\u7701\u4e2d\u90e8\u5730\u65b9\u6574\u5099\u5c40\u540d\u53e4\u5c4b\u6e2f\u6e7e\u7a7a\u6e2f\u6280\u8853\u8abf\u67fb\u4e8b\u52d9\u6240","boring_xml_url":0,"boring_view_url":0,"soilmap_view_url":66,"soiltest_xml_url":0,"soiltest_view_url":66},{"id":121874,"code":"B4KJ201801001-0123","latitude":"35.26596168","longitude":"136.9185855","source_code":"PORT23001020089","project_name":"\u6e2f\u6e7e\u5c40","survey_name":"\u662d\u548c53\u5e74\u5ea6\u540d\u53e4\u5c4b\u7a7a\u6e2f\u6392\u6c34\u8def\u571f\u8cea\u8abf\u67fb(\u305d\u306e2)\u662d\u548c54\u5e743","client_name":"\u56fd\u571f\u4ea4\u901a\u7701\u4e2d\u90e8\u5730\u65b9\u6574\u5099\u5c40\u540d\u53e4\u5c4b\u6e2f\u6e7e\u7a7a\u6e2f\u6280\u8853\u8abf\u67fb\u4e8b\u52d9\u6240","boring_xml_url":0,"boring_view_url":0,"soilmap_view_url":66,"soiltest_xml_url":0,"soiltest_view_url":66},{"id":121873,"code":"B4KJ201801001-0122","latitude":"35.26588367","longitude":"136.9180498","source_code":"PORT23001020088","project_name":"\u6e2f\u6e7e\u5c40","survey_name":"\u662d\u548c53\u5e74\u5ea6\u540d\u53e4\u5c4b\u7a7a\u6e2f\u6392\u6c34\u8def\u571f\u8cea\u8abf\u67fb(\u305d\u306e2)\u662d\u548c54\u5e743","client_name":"\u56fd\u571f\u4ea4\u901a\u7701\u4e2d\u90e8\u5730\u65b9\u6574\u5099\u5c40\u540d\u53e4\u5c4b\u6e2f\u6e7e\u7a7a\u6e2f\u6280\u8853\u8abf\u67fb\u4e8b\u52d9\u6240","boring_xml_url":0,"boring_view_url":0,"soilmap_view_url":66,"soiltest_xml_url":0,"soiltest_view_url":66},{"id":121872,"code":"B4KJ201801001-0121","latitude":"35.26605925","longitude":"136.9179402","source_code":"PORT23001020087","project_name":"\u6e2f\u6e7e\u5c40","survey_name":"\u662d\u548c53\u5e74\u5ea6\u540d\u53e4\u5c4b\u7a7a\u6e2f\u6392\u6c34\u8def\u571f\u8cea\u8abf\u67fb(\u305d\u306e2)\u662d\u548c54\u5e743","client_name":"\u56fd\u571f\u4ea4\u901a\u7701\u4e2d\u90e8\u5730\u65b9\u6574\u5099\u5c40\u540d\u53e4\u5c4b\u6e2f\u6e7e\u7a7a\u6e2f\u6280\u8853\u8abf\u67fb\u4e8b\u52d9\u6240","boring_xml_url":0,"boring_view_url":0,"soilmap_view_url":66,"soiltest_xml_url":0,"soiltest_view_url":66},{"id":121871,"code":"B4KJ201801001-0120","latitude":"35.26585442","longitude":"136.9177697","source_code":"PORT23001020086","project_name":"\u6e2f\u6e7e\u5c40","survey_name":"\u662d\u548c53\u5e74\u5ea6\u540d\u53e4\u5c4b\u7a7a\u6e2f\u6392\u6c34\u8def\u571f\u8cea\u8abf\u67fb(\u305d\u306e2)\u662d\u548c54\u5e743","client_name":"\u56fd\u571f\u4ea4\u901a\u7701\u4e2d\u90e8\u5730\u65b9\u6574\u5099\u5c40\u540d\u53e4\u5c4b\u6e2f\u6e7e\u7a7a\u6e2f\u6280\u8853\u8abf\u67fb\u4e8b\u52d9\u6240","boring_xml_url":0,"boring_view_url":0,"soilmap_view_url":66,"soiltest_xml_url":0,"soiltest_view_url":66},{"id":121870,"code":"B4KJ201801001-0119","latitude":"35.26560081","longitude":"136.9176602","source_code":"PORT23001020085","project_name":"\u6e2f\u6e7e\u5c40","survey_name":"\u662d\u548c53\u5e74\u5ea6\u540d\u53e4\u5c4b\u7a7a\u6e2f\u6392\u6c34\u8def\u571f\u8cea\u8abf\u67fb(\u305d\u306e2)\u662d\u548c54\u5e743","client_name":"\u56fd\u571f\u4ea4\u901a\u7701\u4e2d\u90e8\u5730\u65b9\u6574\u5099\u5c40\u540d\u53e4\u5c4b\u6e2f\u6e7e\u7a7a\u6e2f\u6280\u8853\u8abf\u67fb\u4e8b\u52d9\u6240","boring_xml_url":0,"boring_view_url":0,"soilmap_view_url":66,"soiltest_xml_url":0,"soiltest_view_url":66},{"id":121869,"code":"B4KJ201801001-0118","latitude":"35.26577639","longitude":"136.9175628","source_code":"PORT23001020084","project_name":"\u6e2f\u6e7e\u5c40","survey_name":"\u662d\u548c53\u5e74\u5ea6\u540d\u53e4\u5c4b\u7a7a\u6e2f\u6392\u6c34\u8def\u571f\u8cea\u8abf\u67fb(\u305d\u306e2)\u662d\u548c54\u5e743","client_name":"\u56fd\u571f\u4ea4\u901a\u7701\u4e2d\u90e8\u5730\u65b9\u6574\u5099\u5c40\u540d\u53e4\u5c4b\u6e2f\u6e7e\u7a7a\u6e2f\u6280\u8853\u8abf\u67fb\u4e8b\u52d9\u6240","boring_xml_url":0,"boring_view_url":0,"soilmap_view_url":66,"soiltest_xml_url":0,"soiltest_view_url":66},{"id":121868,"code":"B4KJ201801001-0117","latitude":"35.26541549","longitude":"136.9172706","source_code":"PORT23001020083","project_name":"\u6e2f\u6e7e\u5c40","survey_name":"\u662d\u548c53\u5e74\u5ea6\u540d\u53e4\u5c4b\u7a7a\u6e2f\u6392\u6c34\u8def\u571f\u8cea\u8abf\u67fb(\u305d\u306e2)\u662d\u548c54\u5e743","client_name":"\u56fd\u571f\u4ea4\u901a\u7701\u4e2d\u90e8\u5730\u65b9\u6574\u5099\u5c40\u540d\u53e4\u5c4b\u6e2f\u6e7e\u7a7a\u6e2f\u6280\u8853\u8abf\u67fb\u4e8b\u52d9\u6240","boring_xml_url":0,"boring_view_url":0,"soilmap_view_url":66,"soiltest_xml_url":0,"soiltest_view_url":66},{"id":121867,"code":"B4KJ201801001-0116","latitude":"35.2576429","longitude":"136.9189383","source_code":"PORT23001020082","project_name":"\u6e2f\u6e7e\u5c40","survey_name":"\u540d\u53e4\u5c4b\u7a7a\u6e2f\u6392\u6c34\u8def\u571f\u8cea\u8abf\u67fb\u5831\u544a\u66f8\u662d\u548c53\u5e7412\u6708","client_name":"\u56fd\u571f\u4ea4\u901a\u7701\u4e2d\u90e8\u5730\u65b9\u6574\u5099\u5c40\u540d\u53e4\u5c4b\u6e2f\u6e7e\u7a7a\u6e2f\u6280\u8853\u8abf\u67fb\u4e8b\u52d9\u6240","boring_xml_url":0,"boring_view_url":0,"soilmap_view_url":66,"soiltest_xml_url":0,"soiltest_view_url":66},{"id":121866,"code":"B4KJ201801001-0115","latitude":"35.25851409","longitude":"136.9184818","source_code":"PORT23001020081","project_name":"\u6e2f\u6e7e\u5c40","survey_name":"\u540d\u53e4\u5c4b\u7a7a\u6e2f\u6392\u6c34\u8def\u571f\u8cea\u8abf\u67fb\u5831\u544a\u66f8\u662d\u548c53\u5e7412\u6708","client_name":"\u56fd\u571f\u4ea4\u901a\u7701\u4e2d\u90e8\u5730\u65b9\u6574\u5099\u5c40\u540d\u53e4\u5c4b\u6e2f\u6e7e\u7a7a\u6e2f\u6280\u8853\u8abf\u67fb\u4e8b\u52d9\u6240","boring_xml_url":0,"boring_view_url":0,"soilmap_view_url":66,"soiltest_xml_url":0,"soiltest_view_url":66},{"id":121865,"code":"B4KJ201801001-0114","latitude":"35.25937652","longitude":"136.9180423","source_code":"PORT23001020080","project_name":"\u6e2f\u6e7e\u5c40","survey_name":"\u540d\u53e4\u5c4b\u7a7a\u6e2f\u6392\u6c34\u8def\u571f\u8cea\u8abf\u67fb\u5831\u544a\u66f8\u662d\u548c53\u5e7412\u6708","client_name":"\u56fd\u571f\u4ea4\u901a\u7701\u4e2d\u90e8\u5730\u65b9\u6574\u5099\u5c40\u540d\u53e4\u5c4b\u6e2f\u6e7e\u7a7a\u6e2f\u6280\u8853\u8abf\u67fb\u4e8b\u52d9\u6240","boring_xml_url":0,"boring_view_url":0,"soilmap_view_url":66,"soiltest_xml_url":0,"soiltest_view_url":66},{"id":121864,"code":"B4KJ201801001-0113","latitude":"35.26125209","longitude":"136.916732","source_code":"PORT23001020079","project_name":"\u6e2f\u6e7e\u5c40","survey_name":"\u540d\u53e4\u5c4b\u7a7a\u6e2f\u6392\u6c34\u8def\u571f\u8cea\u8abf\u67fb\u5831\u544a\u66f8\u662d\u548c53\u5e7412\u6708","client_name":"\u56fd\u571f\u4ea4\u901a\u7701\u4e2d\u90e8\u5730\u65b9\u6574\u5099\u5c40\u540d\u53e4\u5c4b\u6e2f\u6e7e\u7a7a\u6e2f\u6280\u8853\u8abf\u67fb\u4e8b\u52d9\u6240","boring_xml_url":0,"boring_view_url":0,"soilmap_view_url":66,"soiltest_xml_url":0,"soiltest_view_url":66},{"id":121863,"code":"B4KJ201801001-0112","latitude":"35.26224772","longitude":"136.9161994","source_code":"PORT23001020078","project_name":"\u6e2f\u6e7e\u5c40","survey_name":"\u540d\u53e4\u5c4b\u7a7a\u6e2f\u6392\u6c34\u8def\u571f\u8cea\u8abf\u67fb\u5831\u544a\u66f8\u662d\u548c53\u5e7412\u6708","client_name":"\u56fd\u571f\u4ea4\u901a\u7701\u4e2d\u90e8\u5730\u65b9\u6574\u5099\u5c40\u540d\u53e4\u5c4b\u6e2f\u6e7e\u7a7a\u6e2f\u6280\u8853\u8abf\u67fb\u4e8b\u52d9\u6240","boring_xml_url":0,"boring_view_url":0,"soilmap_view_url":66,"soiltest_xml_url":0,"soiltest_view_url":66},{"id":121862,"code":"B4KJ201801001-0111","latitude":"35.26311889","longitude":"136.9155146","source_code":"PORT23001020077","project_name":"\u6e2f\u6e7e\u5c40","survey_name":"\u540d\u53e4\u5c4b\u7a7a\u6e2f\u6392\u6c34\u8def\u571f\u8cea\u8abf\u67fb\u5831\u544a\u66f8\u662d\u548c53\u5e7412\u6708","client_name":"\u56fd\u571f\u4ea4\u901a\u7701\u4e2d\u90e8\u5730\u65b9\u6574\u5099\u5c40\u540d\u53e4\u5c4b\u6e2f\u6e7e\u7a7a\u6e2f\u6280\u8853\u8abf\u67fb\u4e8b\u52d9\u6240","boring_xml_url":0,"boring_view_url":0,"soilmap_view_url":66,"soiltest_xml_url":0,"soiltest_view_url":66},{"id":121861,"code":"B4KJ201801001-0110","latitude":"35.26392784","longitude":"136.9150581","source_code":"PORT23001020076","project_name":"\u6e2f\u6e7e\u5c40","survey_name":"\u540d\u53e4\u5c4b\u7a7a\u6e2f\u6392\u6c34\u8def\u571f\u8cea\u8abf\u67fb\u5831\u544a\u66f8\u662d\u548c53\u5e7412\u6708","client_name":"\u56fd\u571f\u4ea4\u901a\u7701\u4e2d\u90e8\u5730\u65b9\u6574\u5099\u5c40\u540d\u53e4\u5c4b\u6e2f\u6e7e\u7a7a\u6e2f\u6280\u8853\u8abf\u67fb\u4e8b\u52d9\u6240","boring_xml_url":0,"boring_view_url":0,"soilmap_view_url":66,"soiltest_xml_url":0,"soiltest_view_url":66},{"id":121860,"code":"B4KJ201801001-0109","latitude":"35.26567","longitude":"136.919928","source_code":"PORT23001020075","project_name":"\u6e2f\u6e7e\u5c40","survey_name":"\u540d\u53e4\u5c4b\u7a7a\u6e2f\u6392\u6c34\u8def\u571f\u8cea\u8abf\u67fb\u5831\u544a\u66f8\u662d\u548c53\u5e7412\u6708","client_name":"\u56fd\u571f\u4ea4\u901a\u7701\u4e2d\u90e8\u5730\u65b9\u6574\u5099\u5c40\u540d\u53e4\u5c4b\u6e2f\u6e7e\u7a7a\u6e2f\u6280\u8853\u8abf\u67fb\u4e8b\u52d9\u6240","boring_xml_url":0,"boring_view_url":0,"soilmap_view_url":66,"soiltest_xml_url":0,"soiltest_view_url":66},{"id":121859,"code":"B4KJ201801001-0108","latitude":"35.26654938","longitude":"136.9195407","source_code":"PORT23001020074","project_name":"\u6e2f\u6e7e\u5c40","survey_name":"\u540d\u53e4\u5c4b\u7a7a\u6e2f\u6392\u6c34\u8def\u571f\u8cea\u8abf\u67fb\u5831\u544a\u66f8\u662d\u548c53\u5e7412\u6708","client_name":"\u56fd\u571f\u4ea4\u901a\u7701\u4e2d\u90e8\u5730\u65b9\u6574\u5099\u5c40\u540d\u53e4\u5c4b\u6e2f\u6e7e\u7a7a\u6e2f\u6280\u8853\u8abf\u67fb\u4e8b\u52d9\u6240","boring_xml_url":0,"boring_view_url":0,"soilmap_view_url":66,"soiltest_xml_url":0,"soiltest_view_url":66},{"id":121858,"code":"B4KJ201801001-0107","latitude":"35.26691449","longitude":"136.9203847","source_code":"PORT23001020073","project_name":"\u6e2f\u6e7e\u5c40","survey_name":"\u540d\u53e4\u5c4b\u7a7a\u6e2f\u6392\u6c34\u8def\u571f\u8cea\u8abf\u67fb\u5831\u544a\u66f8\u662d\u548c53\u5e7412\u6708","client_name":"\u56fd\u571f\u4ea4\u901a\u7701\u4e2d\u90e8\u5730\u65b9\u6574\u5099\u5c40\u540d\u53e4\u5c4b\u6e2f\u6e7e\u7a7a\u6e2f\u6280\u8853\u8abf\u67fb\u4e8b\u52d9\u6240","boring_xml_url":0,"boring_view_url":0,"soilmap_view_url":66,"soiltest_xml_url":0,"soiltest_view_url":66},{"id":121857,"code":"B4KJ201801001-0106","latitude":"35.25377628","longitude":"136.9139268","source_code":"PORT23001020072","project_name":"\u6e2f\u6e7e\u5c40","survey_name":"\u540d\u53e4\u5c4b\u7a7a\u6e2f\u5834\u5916\u6392\u6c34\u65bd\u8a2d\u571f\u8cea\u8abf\u67fb\u662d\u548c53\u5e748\u6708","client_name":"\u56fd\u571f\u4ea4\u901a\u7701\u4e2d\u90e8\u5730\u65b9\u6574\u5099\u5c40\u540d\u53e4\u5c4b\u6e2f\u6e7e\u7a7a\u6e2f\u6280\u8853\u8abf\u67fb\u4e8b\u52d9\u6240","boring_xml_url":0,"boring_view_url":0,"soilmap_view_url":66,"soiltest_xml_url":0,"soiltest_view_url":66},{"id":121856,"code":"B4KJ201801001-0105","latitude":"35.25364845","longitude":"136.9146657","source_code":"PORT23001020071","project_name":"\u6e2f\u6e7e\u5c40","survey_name":"\u540d\u53e4\u5c4b\u7a7a\u6e2f\u5834\u5916\u6392\u6c34\u65bd\u8a2d\u571f\u8cea\u8abf\u67fb\u662d\u548c53\u5e748\u6708","client_name":"\u56fd\u571f\u4ea4\u901a\u7701\u4e2d\u90e8\u5730\u65b9\u6574\u5099\u5c40\u540d\u53e4\u5c4b\u6e2f\u6e7e\u7a7a\u6e2f\u6280\u8853\u8abf\u67fb\u4e8b\u52d9\u6240","boring_xml_url":0,"boring_view_url":0,"soilmap_view_url":66,"soiltest_xml_url":0,"soiltest_view_url":66}]}}