{"header":{"xyz":{"source":[],"mosaic":false},"page":6624,"raw":{"soiltest_result":"0","bbox":"57.598333,109.544722,1.933333,163.806111","page":"6624"},"conditions":{"soiltest_result":0,"north":57.598333,"west":109.544722,"south":1.933333,"east":163.806111},"success":true,"message":""},"data":{"meta":{"total":212844,"page":6624,"pages":7095,"count":30},"values":[{"id":121855,"code":"B4KJ201801001-0104","latitude":"35.25349776","longitude":"136.9152845","source_code":"PORT23001020070","project_name":"\u6e2f\u6e7e\u5c40","survey_name":"\u540d\u53e4\u5c4b\u7a7a\u6e2f\u5834\u5916\u6392\u6c34\u65bd\u8a2d\u571f\u8cea\u8abf\u67fb\u662d\u548c53\u5e748\u6708","client_name":"\u56fd\u571f\u4ea4\u901a\u7701\u4e2d\u90e8\u5730\u65b9\u6574\u5099\u5c40\u540d\u53e4\u5c4b\u6e2f\u6e7e\u7a7a\u6e2f\u6280\u8853\u8abf\u67fb\u4e8b\u52d9\u6240","boring_xml_url":0,"boring_view_url":0,"soilmap_view_url":66,"soiltest_xml_url":0,"soiltest_view_url":66},{"id":121854,"code":"B4KJ201801001-0103","latitude":"35.25238457","longitude":"136.9178746","source_code":"PORT23001020069","project_name":"\u6e2f\u6e7e\u5c40","survey_name":"\u540d\u53e4\u5c4b\u7a7a\u6e2f\u6392\u6c34\u8def\u571f\u8cea\u8abf\u67fb(\u305d\u306e2)\u662d\u548c53\u5e743\u6708","client_name":"\u56fd\u571f\u4ea4\u901a\u7701\u4e2d\u90e8\u5730\u65b9\u6574\u5099\u5c40\u540d\u53e4\u5c4b\u6e2f\u6e7e\u7a7a\u6e2f\u6280\u8853\u8abf\u67fb\u4e8b\u52d9\u6240","boring_xml_url":0,"boring_view_url":0,"soilmap_view_url":66,"soiltest_xml_url":0,"soiltest_view_url":66},{"id":121853,"code":"B4KJ201801001-0102","latitude":"35.25321779","longitude":"136.9170413","source_code":"PORT23001020068","project_name":"\u6e2f\u6e7e\u5c40","survey_name":"\u540d\u53e4\u5c4b\u7a7a\u6e2f\u6392\u6c34\u8def\u571f\u8cea\u8abf\u67fb(\u305d\u306e2)\u662d\u548c53\u5e743\u6708","client_name":"\u56fd\u571f\u4ea4\u901a\u7701\u4e2d\u90e8\u5730\u65b9\u6574\u5099\u5c40\u540d\u53e4\u5c4b\u6e2f\u6e7e\u7a7a\u6e2f\u6280\u8853\u8abf\u67fb\u4e8b\u52d9\u6240","boring_xml_url":0,"boring_view_url":0,"soilmap_view_url":66,"soiltest_xml_url":0,"soiltest_view_url":66},{"id":121852,"code":"B4KJ201801001-0101","latitude":"35.25988359","longitude":"136.9164856","source_code":"PORT23001020067","project_name":"\u6e2f\u6e7e\u5c40","survey_name":"\u540d\u53e4\u5c4b\u7a7a\u6e2f\u6392\u6c34\u8def\u571f\u8cea\u8abf\u67fb(\u305d\u306e2)\u662d\u548c53\u5e743\u6708","client_name":"\u56fd\u571f\u4ea4\u901a\u7701\u4e2d\u90e8\u5730\u65b9\u6574\u5099\u5c40\u540d\u53e4\u5c4b\u6e2f\u6e7e\u7a7a\u6e2f\u6280\u8853\u8abf\u67fb\u4e8b\u52d9\u6240","boring_xml_url":0,"boring_view_url":0,"soilmap_view_url":66,"soiltest_xml_url":0,"soiltest_view_url":66},{"id":121851,"code":"B4KJ201801001-0100","latitude":"35.26016138","longitude":"136.9178744","source_code":"PORT23001020066","project_name":"\u6e2f\u6e7e\u5c40","survey_name":"\u540d\u53e4\u5c4b\u7a7a\u6e2f\u6392\u6c34\u8def\u571f\u8cea\u8abf\u67fb(\u305d\u306e2)\u662d\u548c53\u5e743\u6708","client_name":"\u56fd\u571f\u4ea4\u901a\u7701\u4e2d\u90e8\u5730\u65b9\u6574\u5099\u5c40\u540d\u53e4\u5c4b\u6e2f\u6e7e\u7a7a\u6e2f\u6280\u8853\u8abf\u67fb\u4e8b\u52d9\u6240","boring_xml_url":0,"boring_view_url":0,"soilmap_view_url":66,"soiltest_xml_url":0,"soiltest_view_url":66},{"id":121850,"code":"B4KJ201801001-0099","latitude":"35.25988369","longitude":"136.9200965","source_code":"PORT23001020065","project_name":"\u6e2f\u6e7e\u5c40","survey_name":"\u540d\u53e4\u5c4b\u7a7a\u6e2f\u6392\u6c34\u8def\u571f\u8cea\u8abf\u67fb(\u305d\u306e2)\u662d\u548c53\u5e743\u6708","client_name":"\u56fd\u571f\u4ea4\u901a\u7701\u4e2d\u90e8\u5730\u65b9\u6574\u5099\u5c40\u540d\u53e4\u5c4b\u6e2f\u6e7e\u7a7a\u6e2f\u6280\u8853\u8abf\u67fb\u4e8b\u52d9\u6240","boring_xml_url":0,"boring_view_url":0,"soilmap_view_url":66,"soiltest_xml_url":0,"soiltest_view_url":66},{"id":121849,"code":"B4KJ201801001-0098","latitude":"35.26099466","longitude":"136.919541","source_code":"PORT23001020064","project_name":"\u6e2f\u6e7e\u5c40","survey_name":"\u540d\u53e4\u5c4b\u7a7a\u6e2f\u6392\u6c34\u8def\u571f\u8cea\u8abf\u67fb(\u305d\u306e2)\u662d\u548c53\u5e743\u6708","client_name":"\u56fd\u571f\u4ea4\u901a\u7701\u4e2d\u90e8\u5730\u65b9\u6574\u5099\u5c40\u540d\u53e4\u5c4b\u6e2f\u6e7e\u7a7a\u6e2f\u6280\u8853\u8abf\u67fb\u4e8b\u52d9\u6240","boring_xml_url":0,"boring_view_url":0,"soilmap_view_url":66,"soiltest_xml_url":0,"soiltest_view_url":66},{"id":121848,"code":"B4KJ201801001-0097","latitude":"35.25071789","longitude":"136.9287071","source_code":"PORT23001020063","project_name":"\u6e2f\u6e7e\u5c40","survey_name":"\u540d\u53e4\u5c4b\u7a7a\u6e2f\u6392\u6c34\u8def\u571f\u8cea\u8abf\u67fb(\u305d\u306e2)\u662d\u548c53\u5e743\u6708","client_name":"\u56fd\u571f\u4ea4\u901a\u7701\u4e2d\u90e8\u5730\u65b9\u6574\u5099\u5c40\u540d\u53e4\u5c4b\u6e2f\u6e7e\u7a7a\u6e2f\u6280\u8853\u8abf\u67fb\u4e8b\u52d9\u6240","boring_xml_url":0,"boring_view_url":0,"soilmap_view_url":66,"soiltest_xml_url":0,"soiltest_view_url":66},{"id":121847,"code":"B4KJ201801001-0096","latitude":"35.25210661","longitude":"136.9281515","source_code":"PORT23001020062","project_name":"\u6e2f\u6e7e\u5c40","survey_name":"\u540d\u53e4\u5c4b\u7a7a\u6e2f\u6392\u6c34\u8def\u571f\u8cea\u8abf\u67fb(\u305d\u306e2)\u662d\u548c53\u5e743\u6708","client_name":"\u56fd\u571f\u4ea4\u901a\u7701\u4e2d\u90e8\u5730\u65b9\u6574\u5099\u5c40\u540d\u53e4\u5c4b\u6e2f\u6e7e\u7a7a\u6e2f\u6280\u8853\u8abf\u67fb\u4e8b\u52d9\u6240","boring_xml_url":0,"boring_view_url":0,"soilmap_view_url":66,"soiltest_xml_url":0,"soiltest_view_url":66},{"id":121846,"code":"B4KJ201801001-0095","latitude":"35.25293986","longitude":"136.9273182","source_code":"PORT23001020061","project_name":"\u6e2f\u6e7e\u5c40","survey_name":"\u540d\u53e4\u5c4b\u7a7a\u6e2f\u6392\u6c34\u8def\u571f\u8cea\u8abf\u67fb(\u305d\u306e2)\u662d\u548c53\u5e743\u6708","client_name":"\u56fd\u571f\u4ea4\u901a\u7701\u4e2d\u90e8\u5730\u65b9\u6574\u5099\u5c40\u540d\u53e4\u5c4b\u6e2f\u6e7e\u7a7a\u6e2f\u6280\u8853\u8abf\u67fb\u4e8b\u52d9\u6240","boring_xml_url":0,"boring_view_url":0,"soilmap_view_url":66,"soiltest_xml_url":0,"soiltest_view_url":66},{"id":121845,"code":"B4KJ201801001-0094","latitude":"35.25405087","longitude":"136.926485","source_code":"PORT23001020060","project_name":"\u6e2f\u6e7e\u5c40","survey_name":"\u540d\u53e4\u5c4b\u7a7a\u6e2f\u6392\u6c34\u8def\u571f\u8cea\u8abf\u67fb(\u305d\u306e2)\u662d\u548c53\u5e743\u6708","client_name":"\u56fd\u571f\u4ea4\u901a\u7701\u4e2d\u90e8\u5730\u65b9\u6574\u5099\u5c40\u540d\u53e4\u5c4b\u6e2f\u6e7e\u7a7a\u6e2f\u6280\u8853\u8abf\u67fb\u4e8b\u52d9\u6240","boring_xml_url":0,"boring_view_url":0,"soilmap_view_url":66,"soiltest_xml_url":0,"soiltest_view_url":66},{"id":121844,"code":"B4KJ201801001-0093","latitude":"35.25543964","longitude":"136.9256517","source_code":"PORT23001020059","project_name":"\u6e2f\u6e7e\u5c40","survey_name":"\u540d\u53e4\u5c4b\u7a7a\u6e2f\u6392\u6c34\u8def\u571f\u8cea\u8abf\u67fb(\u305d\u306e2)\u662d\u548c53\u5e743\u6708","client_name":"\u56fd\u571f\u4ea4\u901a\u7701\u4e2d\u90e8\u5730\u65b9\u6574\u5099\u5c40\u540d\u53e4\u5c4b\u6e2f\u6e7e\u7a7a\u6e2f\u6280\u8853\u8abf\u67fb\u4e8b\u52d9\u6240","boring_xml_url":0,"boring_view_url":0,"soilmap_view_url":66,"soiltest_xml_url":0,"soiltest_view_url":66},{"id":121843,"code":"B4KJ201801001-0092","latitude":"35.25766168","longitude":"136.9239851","source_code":"PORT23001020058","project_name":"\u6e2f\u6e7e\u5c40","survey_name":"\u540d\u53e4\u5c4b\u7a7a\u6e2f\u6392\u6c34\u8def\u571f\u8cea\u8abf\u67fb(\u305d\u306e2)\u662d\u548c53\u5e743\u6708","client_name":"\u56fd\u571f\u4ea4\u901a\u7701\u4e2d\u90e8\u5730\u65b9\u6574\u5099\u5c40\u540d\u53e4\u5c4b\u6e2f\u6e7e\u7a7a\u6e2f\u6280\u8853\u8abf\u67fb\u4e8b\u52d9\u6240","boring_xml_url":0,"boring_view_url":0,"soilmap_view_url":66,"soiltest_xml_url":0,"soiltest_view_url":66},{"id":121842,"code":"B4KJ201801001-0091","latitude":"35.25932821","longitude":"136.9228741","source_code":"PORT23001020057","project_name":"\u6e2f\u6e7e\u5c40","survey_name":"\u540d\u53e4\u5c4b\u7a7a\u6e2f\u6392\u6c34\u8def\u571f\u8cea\u8abf\u67fb(\u305d\u306e2)\u662d\u548c53\u5e743\u6708","client_name":"\u56fd\u571f\u4ea4\u901a\u7701\u4e2d\u90e8\u5730\u65b9\u6574\u5099\u5c40\u540d\u53e4\u5c4b\u6e2f\u6e7e\u7a7a\u6e2f\u6280\u8853\u8abf\u67fb\u4e8b\u52d9\u6240","boring_xml_url":0,"boring_view_url":0,"soilmap_view_url":66,"soiltest_xml_url":0,"soiltest_view_url":66},{"id":121841,"code":"B4KJ201801001-0090","latitude":"35.2623834","longitude":"136.9209297","source_code":"PORT23001020056","project_name":"\u6e2f\u6e7e\u5c40","survey_name":"\u540d\u53e4\u5c4b\u7a7a\u6e2f\u6392\u6c34\u8def\u571f\u8cea\u8abf\u67fb(\u305d\u306e2)\u662d\u548c53\u5e743\u6708","client_name":"\u56fd\u571f\u4ea4\u901a\u7701\u4e2d\u90e8\u5730\u65b9\u6574\u5099\u5c40\u540d\u53e4\u5c4b\u6e2f\u6e7e\u7a7a\u6e2f\u6280\u8853\u8abf\u67fb\u4e8b\u52d9\u6240","boring_xml_url":0,"boring_view_url":0,"soilmap_view_url":66,"soiltest_xml_url":0,"soiltest_view_url":66},{"id":121840,"code":"B4KJ201801001-0089","latitude":"35.25349553","longitude":"136.9156525","source_code":"PORT23001020055","project_name":"\u6e2f\u6e7e\u5c40","survey_name":"\u540d\u53e4\u5c4b\u6e2f\u304a\u3088\u3073\u540d\u53e4\u5c4b\u7a7a\u6e2f\u571f\u8cea\u8abf\u67fb\u5831\u544a\u66f8\u662d\u548c53\u5e742\u6708","client_name":"\u56fd\u571f\u4ea4\u901a\u7701\u4e2d\u90e8\u5730\u65b9\u6574\u5099\u5c40\u540d\u53e4\u5c4b\u6e2f\u6e7e\u7a7a\u6e2f\u6280\u8853\u8abf\u67fb\u4e8b\u52d9\u6240","boring_xml_url":0,"boring_view_url":0,"soilmap_view_url":66,"soiltest_xml_url":0,"soiltest_view_url":66},{"id":121839,"code":"B4KJ201801001-0088","latitude":"35.25432876","longitude":"136.9167635","source_code":"PORT23001020054","project_name":"\u6e2f\u6e7e\u5c40","survey_name":"\u540d\u53e4\u5c4b\u6e2f\u304a\u3088\u3073\u540d\u53e4\u5c4b\u7a7a\u6e2f\u571f\u8cea\u8abf\u67fb\u5831\u544a\u66f8\u662d\u548c53\u5e742\u6708","client_name":"\u56fd\u571f\u4ea4\u901a\u7701\u4e2d\u90e8\u5730\u65b9\u6574\u5099\u5c40\u540d\u53e4\u5c4b\u6e2f\u6e7e\u7a7a\u6e2f\u6280\u8853\u8abf\u67fb\u4e8b\u52d9\u6240","boring_xml_url":0,"boring_view_url":0,"soilmap_view_url":66,"soiltest_xml_url":0,"soiltest_view_url":66},{"id":121838,"code":"B4KJ201801001-0087","latitude":"35.25516199","longitude":"136.9175967","source_code":"PORT23001020053","project_name":"\u6e2f\u6e7e\u5c40","survey_name":"\u540d\u53e4\u5c4b\u6e2f\u304a\u3088\u3073\u540d\u53e4\u5c4b\u7a7a\u6e2f\u571f\u8cea\u8abf\u67fb\u5831\u544a\u66f8\u662d\u548c53\u5e742\u6708","client_name":"\u56fd\u571f\u4ea4\u901a\u7701\u4e2d\u90e8\u5730\u65b9\u6574\u5099\u5c40\u540d\u53e4\u5c4b\u6e2f\u6e7e\u7a7a\u6e2f\u6280\u8853\u8abf\u67fb\u4e8b\u52d9\u6240","boring_xml_url":0,"boring_view_url":0,"soilmap_view_url":66,"soiltest_xml_url":0,"soiltest_view_url":66},{"id":121837,"code":"B4KJ201801001-0086","latitude":"35.25377329","longitude":"136.9187078","source_code":"PORT23001020052","project_name":"\u6e2f\u6e7e\u5c40","survey_name":"\u540d\u53e4\u5c4b\u6e2f\u304a\u3088\u3073\u540d\u53e4\u5c4b\u7a7a\u6e2f\u571f\u8cea\u8abf\u67fb\u5831\u544a\u66f8\u662d\u548c53\u5e742\u6708","client_name":"\u56fd\u571f\u4ea4\u901a\u7701\u4e2d\u90e8\u5730\u65b9\u6574\u5099\u5c40\u540d\u53e4\u5c4b\u6e2f\u6e7e\u7a7a\u6e2f\u6280\u8853\u8abf\u67fb\u4e8b\u52d9\u6240","boring_xml_url":0,"boring_view_url":0,"soilmap_view_url":66,"soiltest_xml_url":0,"soiltest_view_url":66},{"id":121836,"code":"B4KJ201801001-0085","latitude":"35.25377328","longitude":"136.9187078","source_code":"PORT23001020051","project_name":"\u6e2f\u6e7e\u5c40","survey_name":"\u540d\u53e4\u5c4b\u6e2f\u304a\u3088\u3073\u540d\u53e4\u5c4b\u7a7a\u6e2f\u571f\u8cea\u8abf\u67fb\u5831\u544a\u66f8\u662d\u548c53\u5e742\u6708","client_name":"\u56fd\u571f\u4ea4\u901a\u7701\u4e2d\u90e8\u5730\u65b9\u6574\u5099\u5c40\u540d\u53e4\u5c4b\u6e2f\u6e7e\u7a7a\u6e2f\u6280\u8853\u8abf\u67fb\u4e8b\u52d9\u6240","boring_xml_url":0,"boring_view_url":0,"soilmap_view_url":66,"soiltest_xml_url":0,"soiltest_view_url":66},{"id":121835,"code":"B4KJ201801001-0084","latitude":"35.25266232","longitude":"136.9192634","source_code":"PORT23001020050","project_name":"\u6e2f\u6e7e\u5c40","survey_name":"\u540d\u53e4\u5c4b\u6e2f\u304a\u3088\u3073\u540d\u53e4\u5c4b\u7a7a\u6e2f\u571f\u8cea\u8abf\u67fb\u5831\u544a\u66f8\u662d\u548c53\u5e742\u6708","client_name":"\u56fd\u571f\u4ea4\u901a\u7701\u4e2d\u90e8\u5730\u65b9\u6574\u5099\u5c40\u540d\u53e4\u5c4b\u6e2f\u6e7e\u7a7a\u6e2f\u6280\u8853\u8abf\u67fb\u4e8b\u52d9\u6240","boring_xml_url":0,"boring_view_url":0,"soilmap_view_url":66,"soiltest_xml_url":0,"soiltest_view_url":66},{"id":121834,"code":"B4KJ201801001-0083","latitude":"35.24988492","longitude":"136.922041","source_code":"PORT23001020049","project_name":"\u6e2f\u6e7e\u5c40","survey_name":"\u540d\u53e4\u5c4b\u6e2f\u304a\u3088\u3073\u540d\u53e4\u5c4b\u7a7a\u6e2f\u571f\u8cea\u8abf\u67fb\u5831\u544a\u66f8\u662d\u548c53\u5e742\u6708","client_name":"\u56fd\u571f\u4ea4\u901a\u7701\u4e2d\u90e8\u5730\u65b9\u6574\u5099\u5c40\u540d\u53e4\u5c4b\u6e2f\u6e7e\u7a7a\u6e2f\u6280\u8853\u8abf\u67fb\u4e8b\u52d9\u6240","boring_xml_url":0,"boring_view_url":0,"soilmap_view_url":66,"soiltest_xml_url":0,"soiltest_view_url":66},{"id":121833,"code":"B4KJ201801001-0082","latitude":"35.24794069","longitude":"136.9231521","source_code":"PORT23001020048","project_name":"\u6e2f\u6e7e\u5c40","survey_name":"\u540d\u53e4\u5c4b\u6e2f\u304a\u3088\u3073\u540d\u53e4\u5c4b\u7a7a\u6e2f\u571f\u8cea\u8abf\u67fb\u5831\u544a\u66f8\u662d\u548c53\u5e742\u6708","client_name":"\u56fd\u571f\u4ea4\u901a\u7701\u4e2d\u90e8\u5730\u65b9\u6574\u5099\u5c40\u540d\u53e4\u5c4b\u6e2f\u6e7e\u7a7a\u6e2f\u6280\u8853\u8abf\u67fb\u4e8b\u52d9\u6240","boring_xml_url":0,"boring_view_url":0,"soilmap_view_url":66,"soiltest_xml_url":0,"soiltest_view_url":66},{"id":121832,"code":"B4KJ201801001-0081","latitude":"35.25988358","longitude":"136.9159301","source_code":"PORT23001020047","project_name":"\u6e2f\u6e7e\u5c40","survey_name":"\u98db\u884c\u5834\u3068\u4ee3\u8a2d\u5730\u4f4d\u7f6e\u540d\u53e4\u5c4b\u7a7a\u6e2f\u5185","client_name":"\u56fd\u571f\u4ea4\u901a\u7701\u4e2d\u90e8\u5730\u65b9\u6574\u5099\u5c40\u540d\u53e4\u5c4b\u6e2f\u6e7e\u7a7a\u6e2f\u6280\u8853\u8abf\u67fb\u4e8b\u52d9\u6240","boring_xml_url":0,"boring_view_url":0,"soilmap_view_url":66,"soiltest_xml_url":0,"soiltest_view_url":66},{"id":121831,"code":"B4KJ201801001-0080","latitude":"35.25655073","longitude":"136.9189855","source_code":"PORT23001020046","project_name":"\u6e2f\u6e7e\u5c40","survey_name":"\u7a7a\u6e2f\u6392\u6c34\u8def\u571f\u8cea\u8abf\u67fb\u5831\u544a\u66f8_\u662d\u548c52\u5e746\u6708","client_name":"\u56fd\u571f\u4ea4\u901a\u7701\u4e2d\u90e8\u5730\u65b9\u6574\u5099\u5c40\u540d\u53e4\u5c4b\u6e2f\u6e7e\u7a7a\u6e2f\u6280\u8853\u8abf\u67fb\u4e8b\u52d9\u6240","boring_xml_url":0,"boring_view_url":0,"soilmap_view_url":66,"soiltest_xml_url":0,"soiltest_view_url":66},{"id":121830,"code":"B4KJ201801001-0079","latitude":"35.25738401","longitude":"136.9214854","source_code":"PORT23001020045","project_name":"\u6e2f\u6e7e\u5c40","survey_name":"\u7a7a\u6e2f\u6392\u6c34\u8def\u571f\u8cea\u8abf\u67fb\u5831\u544a\u66f8_\u662d\u548c52\u5e746\u6708","client_name":"\u56fd\u571f\u4ea4\u901a\u7701\u4e2d\u90e8\u5730\u65b9\u6574\u5099\u5c40\u540d\u53e4\u5c4b\u6e2f\u6e7e\u7a7a\u6e2f\u6280\u8853\u8abf\u67fb\u4e8b\u52d9\u6240","boring_xml_url":0,"boring_view_url":0,"soilmap_view_url":66,"soiltest_xml_url":0,"soiltest_view_url":66},{"id":121829,"code":"B4KJ201801001-0078","latitude":"35.2546065","longitude":"136.9231519","source_code":"PORT23001020044","project_name":"\u6e2f\u6e7e\u5c40","survey_name":"\u7a7a\u6e2f\u6392\u6c34\u8def\u571f\u8cea\u8abf\u67fb\u5831\u544a\u66f8_\u662d\u548c52\u5e746\u6708","client_name":"\u56fd\u571f\u4ea4\u901a\u7701\u4e2d\u90e8\u5730\u65b9\u6574\u5099\u5c40\u540d\u53e4\u5c4b\u6e2f\u6e7e\u7a7a\u6e2f\u6280\u8853\u8abf\u67fb\u4e8b\u52d9\u6240","boring_xml_url":0,"boring_view_url":0,"soilmap_view_url":66,"soiltest_xml_url":0,"soiltest_view_url":66},{"id":121828,"code":"B4KJ201801001-0077","latitude":"35.25599525","longitude":"136.9195411","source_code":"PORT23001020043","project_name":"\u6e2f\u6e7e\u5c40","survey_name":"\u540d\u53e4\u5c4b\u7a7a\u6e2f\u65b0\u8a2d\u30a8\u30d7\u30ed\u30f3\u540d\u53e4\u5c4b\u7a7a\u6e2f\u5185","client_name":"\u56fd\u571f\u4ea4\u901a\u7701\u4e2d\u90e8\u5730\u65b9\u6574\u5099\u5c40\u540d\u53e4\u5c4b\u6e2f\u6e7e\u7a7a\u6e2f\u6280\u8853\u8abf\u67fb\u4e8b\u52d9\u6240","boring_xml_url":0,"boring_view_url":0,"soilmap_view_url":66,"soiltest_xml_url":0,"soiltest_view_url":66},{"id":121827,"code":"B4KJ201801001-0076","latitude":"35.25627301","longitude":"136.9200966","source_code":"PORT23001020042","project_name":"\u6e2f\u6e7e\u5c40","survey_name":"\u540d\u53e4\u5c4b\u7a7a\u6e2f\u65b0\u8a2d\u30a8\u30d7\u30ed\u30f3\u540d\u53e4\u5c4b\u7a7a\u6e2f\u5185","client_name":"\u56fd\u571f\u4ea4\u901a\u7701\u4e2d\u90e8\u5730\u65b9\u6574\u5099\u5c40\u540d\u53e4\u5c4b\u6e2f\u6e7e\u7a7a\u6e2f\u6280\u8853\u8abf\u67fb\u4e8b\u52d9\u6240","boring_xml_url":0,"boring_view_url":0,"soilmap_view_url":66,"soiltest_xml_url":0,"soiltest_view_url":66},{"id":121826,"code":"B4KJ201801001-0075","latitude":"35.25655076","longitude":"136.9206521","source_code":"PORT23001020041","project_name":"\u6e2f\u6e7e\u5c40","survey_name":"\u540d\u53e4\u5c4b\u7a7a\u6e2f\u65b0\u8a2d\u30a8\u30d7\u30ed\u30f3\u540d\u53e4\u5c4b\u7a7a\u6e2f\u5185","client_name":"\u56fd\u571f\u4ea4\u901a\u7701\u4e2d\u90e8\u5730\u65b9\u6574\u5099\u5c40\u540d\u53e4\u5c4b\u6e2f\u6e7e\u7a7a\u6e2f\u6280\u8853\u8abf\u67fb\u4e8b\u52d9\u6240","boring_xml_url":0,"boring_view_url":0,"soilmap_view_url":66,"soiltest_xml_url":0,"soiltest_view_url":66}]}}