{"header":{"xyz":{"source":[],"mosaic":false},"page":6625,"raw":{"soiltest_result":"0","bbox":"57.598333,109.544722,1.933333,163.806111","page":"6625"},"conditions":{"soiltest_result":0,"north":57.598333,"west":109.544722,"south":1.933333,"east":163.806111},"success":true,"message":""},"data":{"meta":{"total":212844,"page":6625,"pages":7095,"count":30},"values":[{"id":121825,"code":"B4KJ201801001-0074","latitude":"35.25543977","longitude":"136.9198188","source_code":"PORT23001020040","project_name":"\u6e2f\u6e7e\u5c40","survey_name":"\u540d\u53e4\u5c4b\u7a7a\u6e2f\u65b0\u8a2d\u30a8\u30d7\u30ed\u30f3\u540d\u53e4\u5c4b\u7a7a\u6e2f\u5185","client_name":"\u56fd\u571f\u4ea4\u901a\u7701\u4e2d\u90e8\u5730\u65b9\u6574\u5099\u5c40\u540d\u53e4\u5c4b\u6e2f\u6e7e\u7a7a\u6e2f\u6280\u8853\u8abf\u67fb\u4e8b\u52d9\u6240","boring_xml_url":0,"boring_view_url":0,"soilmap_view_url":66,"soiltest_xml_url":0,"soiltest_view_url":66},{"id":121824,"code":"B4KJ201801001-0073","latitude":"35.25571751","longitude":"136.9200966","source_code":"PORT23001020039","project_name":"\u6e2f\u6e7e\u5c40","survey_name":"\u540d\u53e4\u5c4b\u7a7a\u6e2f\u65b0\u8a2d\u30a8\u30d7\u30ed\u30f3\u540d\u53e4\u5c4b\u7a7a\u6e2f\u5185","client_name":"\u56fd\u571f\u4ea4\u901a\u7701\u4e2d\u90e8\u5730\u65b9\u6574\u5099\u5c40\u540d\u53e4\u5c4b\u6e2f\u6e7e\u7a7a\u6e2f\u6280\u8853\u8abf\u67fb\u4e8b\u52d9\u6240","boring_xml_url":0,"boring_view_url":0,"soilmap_view_url":66,"soiltest_xml_url":0,"soiltest_view_url":66},{"id":121823,"code":"B4KJ201801001-0072","latitude":"35.25599527","longitude":"136.9209299","source_code":"PORT23001020038","project_name":"\u6e2f\u6e7e\u5c40","survey_name":"\u540d\u53e4\u5c4b\u7a7a\u6e2f\u65b0\u8a2d\u30a8\u30d7\u30ed\u30f3\u540d\u53e4\u5c4b\u7a7a\u6e2f\u5185","client_name":"\u56fd\u571f\u4ea4\u901a\u7701\u4e2d\u90e8\u5730\u65b9\u6574\u5099\u5c40\u540d\u53e4\u5c4b\u6e2f\u6e7e\u7a7a\u6e2f\u6280\u8853\u8abf\u67fb\u4e8b\u52d9\u6240","boring_xml_url":0,"boring_view_url":0,"soilmap_view_url":66,"soiltest_xml_url":0,"soiltest_view_url":66},{"id":121822,"code":"B4KJ201801001-0071","latitude":"35.25516203","longitude":"136.9200966","source_code":"PORT23001020037","project_name":"\u6e2f\u6e7e\u5c40","survey_name":"\u540d\u53e4\u5c4b\u7a7a\u6e2f\u65b0\u8a2d\u30a8\u30d7\u30ed\u30f3\u540d\u53e4\u5c4b\u7a7a\u6e2f\u5185","client_name":"\u56fd\u571f\u4ea4\u901a\u7701\u4e2d\u90e8\u5730\u65b9\u6574\u5099\u5c40\u540d\u53e4\u5c4b\u6e2f\u6e7e\u7a7a\u6e2f\u6280\u8853\u8abf\u67fb\u4e8b\u52d9\u6240","boring_xml_url":0,"boring_view_url":0,"soilmap_view_url":66,"soiltest_xml_url":0,"soiltest_view_url":66},{"id":121821,"code":"B4KJ201801001-0070","latitude":"35.25543978","longitude":"136.9206521","source_code":"PORT23001020036","project_name":"\u6e2f\u6e7e\u5c40","survey_name":"\u540d\u53e4\u5c4b\u7a7a\u6e2f\u65b0\u8a2d\u30a8\u30d7\u30ed\u30f3\u540d\u53e4\u5c4b\u7a7a\u6e2f\u5185","client_name":"\u56fd\u571f\u4ea4\u901a\u7701\u4e2d\u90e8\u5730\u65b9\u6574\u5099\u5c40\u540d\u53e4\u5c4b\u6e2f\u6e7e\u7a7a\u6e2f\u6280\u8853\u8abf\u67fb\u4e8b\u52d9\u6240","boring_xml_url":0,"boring_view_url":0,"soilmap_view_url":66,"soiltest_xml_url":0,"soiltest_view_url":66},{"id":121820,"code":"B4KJ201801001-0069","latitude":"35.25571753","longitude":"136.9212076","source_code":"PORT23001020035","project_name":"\u6e2f\u6e7e\u5c40","survey_name":"\u540d\u53e4\u5c4b\u7a7a\u6e2f\u65b0\u8a2d\u30a8\u30d7\u30ed\u30f3\u540d\u53e4\u5c4b\u7a7a\u6e2f\u5185","client_name":"\u56fd\u571f\u4ea4\u901a\u7701\u4e2d\u90e8\u5730\u65b9\u6574\u5099\u5c40\u540d\u53e4\u5c4b\u6e2f\u6e7e\u7a7a\u6e2f\u6280\u8853\u8abf\u67fb\u4e8b\u52d9\u6240","boring_xml_url":0,"boring_view_url":0,"soilmap_view_url":66,"soiltest_xml_url":0,"soiltest_view_url":66},{"id":121819,"code":"B4KJ201801001-0068","latitude":"35.25460653","longitude":"136.9200966","source_code":"PORT23001020034","project_name":"\u6e2f\u6e7e\u5c40","survey_name":"\u540d\u53e4\u5c4b\u7a7a\u6e2f\u65b0\u8a2d\u30a8\u30d7\u30ed\u30f3\u540d\u53e4\u5c4b\u7a7a\u6e2f\u5185","client_name":"\u56fd\u571f\u4ea4\u901a\u7701\u4e2d\u90e8\u5730\u65b9\u6574\u5099\u5c40\u540d\u53e4\u5c4b\u6e2f\u6e7e\u7a7a\u6e2f\u6280\u8853\u8abf\u67fb\u4e8b\u52d9\u6240","boring_xml_url":0,"boring_view_url":0,"soilmap_view_url":66,"soiltest_xml_url":0,"soiltest_view_url":66},{"id":121818,"code":"B4KJ201801001-0067","latitude":"35.25488429","longitude":"136.9206521","source_code":"PORT23001020033","project_name":"\u6e2f\u6e7e\u5c40","survey_name":"\u540d\u53e4\u5c4b\u7a7a\u6e2f\u65b0\u8a2d\u30a8\u30d7\u30ed\u30f3\u540d\u53e4\u5c4b\u7a7a\u6e2f\u5185","client_name":"\u56fd\u571f\u4ea4\u901a\u7701\u4e2d\u90e8\u5730\u65b9\u6574\u5099\u5c40\u540d\u53e4\u5c4b\u6e2f\u6e7e\u7a7a\u6e2f\u6280\u8853\u8abf\u67fb\u4e8b\u52d9\u6240","boring_xml_url":0,"boring_view_url":0,"soilmap_view_url":66,"soiltest_xml_url":0,"soiltest_view_url":66},{"id":121817,"code":"B4KJ201801001-0066","latitude":"35.25516204","longitude":"136.9214854","source_code":"PORT23001020032","project_name":"\u6e2f\u6e7e\u5c40","survey_name":"\u540d\u53e4\u5c4b\u7a7a\u6e2f\u65b0\u8a2d\u30a8\u30d7\u30ed\u30f3\u540d\u53e4\u5c4b\u7a7a\u6e2f\u5185","client_name":"\u56fd\u571f\u4ea4\u901a\u7701\u4e2d\u90e8\u5730\u65b9\u6574\u5099\u5c40\u540d\u53e4\u5c4b\u6e2f\u6e7e\u7a7a\u6e2f\u6280\u8853\u8abf\u67fb\u4e8b\u52d9\u6240","boring_xml_url":0,"boring_view_url":0,"soilmap_view_url":66,"soiltest_xml_url":0,"soiltest_view_url":66},{"id":121816,"code":"B4KJ201801001-0065","latitude":"35.25432879","longitude":"136.9206521","source_code":"PORT23001020031","project_name":"\u6e2f\u6e7e\u5c40","survey_name":"\u540d\u53e4\u5c4b\u7a7a\u6e2f\u65b0\u8a2d\u30a8\u30d7\u30ed\u30f3\u540d\u53e4\u5c4b\u7a7a\u6e2f\u5185","client_name":"\u56fd\u571f\u4ea4\u901a\u7701\u4e2d\u90e8\u5730\u65b9\u6574\u5099\u5c40\u540d\u53e4\u5c4b\u6e2f\u6e7e\u7a7a\u6e2f\u6280\u8853\u8abf\u67fb\u4e8b\u52d9\u6240","boring_xml_url":0,"boring_view_url":0,"soilmap_view_url":66,"soiltest_xml_url":0,"soiltest_view_url":66},{"id":121815,"code":"B4KJ201801001-0064","latitude":"35.25460654","longitude":"136.9209299","source_code":"PORT23001020030","project_name":"\u6e2f\u6e7e\u5c40","survey_name":"\u540d\u53e4\u5c4b\u7a7a\u6e2f\u65b0\u8a2d\u30a8\u30d7\u30ed\u30f3\u540d\u53e4\u5c4b\u7a7a\u6e2f\u5185","client_name":"\u56fd\u571f\u4ea4\u901a\u7701\u4e2d\u90e8\u5730\u65b9\u6574\u5099\u5c40\u540d\u53e4\u5c4b\u6e2f\u6e7e\u7a7a\u6e2f\u6280\u8853\u8abf\u67fb\u4e8b\u52d9\u6240","boring_xml_url":0,"boring_view_url":0,"soilmap_view_url":66,"soiltest_xml_url":0,"soiltest_view_url":66},{"id":121814,"code":"B4KJ201801001-0063","latitude":"35.25488429","longitude":"136.9214854","source_code":"PORT23001020029","project_name":"\u6e2f\u6e7e\u5c40","survey_name":"\u540d\u53e4\u5c4b\u7a7a\u6e2f\u65b0\u8a2d\u30a8\u30d7\u30ed\u30f3\u540d\u53e4\u5c4b\u7a7a\u6e2f\u5185","client_name":"\u56fd\u571f\u4ea4\u901a\u7701\u4e2d\u90e8\u5730\u65b9\u6574\u5099\u5c40\u540d\u53e4\u5c4b\u6e2f\u6e7e\u7a7a\u6e2f\u6280\u8853\u8abf\u67fb\u4e8b\u52d9\u6240","boring_xml_url":0,"boring_view_url":0,"soilmap_view_url":66,"soiltest_xml_url":0,"soiltest_view_url":66},{"id":121813,"code":"B4KJ201801001-0062","latitude":"35.2537733","longitude":"136.9203744","source_code":"PORT23001020028","project_name":"\u6e2f\u6e7e\u5c40","survey_name":"\u662d\u548c49\u5e74\u5ea6\u540d\u53e4\u5c4b\u7a7a\u6e2f\u571f\u8cea\u8abf\u67fb\u5831\u544a\u66f8\u662d\u548c50\u5e741\u6708","client_name":"\u56fd\u571f\u4ea4\u901a\u7701\u4e2d\u90e8\u5730\u65b9\u6574\u5099\u5c40\u540d\u53e4\u5c4b\u6e2f\u6e7e\u7a7a\u6e2f\u6280\u8853\u8abf\u67fb\u4e8b\u52d9\u6240","boring_xml_url":0,"boring_view_url":0,"soilmap_view_url":66,"soiltest_xml_url":0,"soiltest_view_url":66},{"id":121812,"code":"B4KJ201801001-0061","latitude":"35.25405105","longitude":"136.9209299","source_code":"PORT23001020026","project_name":"\u6e2f\u6e7e\u5c40","survey_name":"\u662d\u548c49\u5e74\u5ea6\u540d\u53e4\u5c4b\u7a7a\u6e2f\u571f\u8cea\u8abf\u67fb\u5831\u544a\u66f8\u662d\u548c50\u5e741\u6708","client_name":"\u56fd\u571f\u4ea4\u901a\u7701\u4e2d\u90e8\u5730\u65b9\u6574\u5099\u5c40\u540d\u53e4\u5c4b\u6e2f\u6e7e\u7a7a\u6e2f\u6280\u8853\u8abf\u67fb\u4e8b\u52d9\u6240","boring_xml_url":0,"boring_view_url":0,"soilmap_view_url":66,"soiltest_xml_url":0,"soiltest_view_url":66},{"id":121811,"code":"B4KJ201801001-0060","latitude":"35.2543288","longitude":"136.9214854","source_code":"PORT23001020025","project_name":"\u6e2f\u6e7e\u5c40","survey_name":"\u662d\u548c49\u5e74\u5ea6\u540d\u53e4\u5c4b\u7a7a\u6e2f\u571f\u8cea\u8abf\u67fb\u5831\u544a\u66f8\u662d\u548c50\u5e741\u6708","client_name":"\u56fd\u571f\u4ea4\u901a\u7701\u4e2d\u90e8\u5730\u65b9\u6574\u5099\u5c40\u540d\u53e4\u5c4b\u6e2f\u6e7e\u7a7a\u6e2f\u6280\u8853\u8abf\u67fb\u4e8b\u52d9\u6240","boring_xml_url":0,"boring_view_url":0,"soilmap_view_url":66,"soiltest_xml_url":0,"soiltest_view_url":66},{"id":121810,"code":"B4KJ201801001-0059","latitude":"35.25349556","longitude":"136.9212077","source_code":"PORT23001020024","project_name":"\u6e2f\u6e7e\u5c40","survey_name":"\u662d\u548c49\u5e74\u5ea6\u540d\u53e4\u5c4b\u7a7a\u6e2f\u571f\u8cea\u8abf\u67fb\u5831\u544a\u66f8\u662d\u548c50\u5e741\u6708","client_name":"\u56fd\u571f\u4ea4\u901a\u7701\u4e2d\u90e8\u5730\u65b9\u6574\u5099\u5c40\u540d\u53e4\u5c4b\u6e2f\u6e7e\u7a7a\u6e2f\u6280\u8853\u8abf\u67fb\u4e8b\u52d9\u6240","boring_xml_url":0,"boring_view_url":0,"soilmap_view_url":66,"soiltest_xml_url":0,"soiltest_view_url":66},{"id":121809,"code":"B4KJ201801001-0058","latitude":"35.25321782","longitude":"136.9214854","source_code":"PORT23001020022","project_name":"\u6e2f\u6e7e\u5c40","survey_name":"\u662d\u548c49\u5e74\u5ea6\u540d\u53e4\u5c4b\u7a7a\u6e2f\u571f\u8cea\u8abf\u67fb\u5831\u544a\u66f8\u662d\u548c50\u5e741\u6708","client_name":"\u56fd\u571f\u4ea4\u901a\u7701\u4e2d\u90e8\u5730\u65b9\u6574\u5099\u5c40\u540d\u53e4\u5c4b\u6e2f\u6e7e\u7a7a\u6e2f\u6280\u8853\u8abf\u67fb\u4e8b\u52d9\u6240","boring_xml_url":0,"boring_view_url":0,"soilmap_view_url":66,"soiltest_xml_url":0,"soiltest_view_url":66},{"id":121808,"code":"B4KJ201801001-0057","latitude":"35.25349557","longitude":"136.9220409","source_code":"PORT23001020021","project_name":"\u6e2f\u6e7e\u5c40","survey_name":"\u662d\u548c49\u5e74\u5ea6\u540d\u53e4\u5c4b\u7a7a\u6e2f\u571f\u8cea\u8abf\u67fb\u5831\u544a\u66f8\u662d\u548c50\u5e741\u6708","client_name":"\u56fd\u571f\u4ea4\u901a\u7701\u4e2d\u90e8\u5730\u65b9\u6574\u5099\u5c40\u540d\u53e4\u5c4b\u6e2f\u6e7e\u7a7a\u6e2f\u6280\u8853\u8abf\u67fb\u4e8b\u52d9\u6240","boring_xml_url":0,"boring_view_url":0,"soilmap_view_url":66,"soiltest_xml_url":0,"soiltest_view_url":66},{"id":121807,"code":"B4KJ201801001-0056","latitude":"35.25266233","longitude":"136.9212077","source_code":"PORT23001020020","project_name":"\u6e2f\u6e7e\u5c40","survey_name":"\u662d\u548c49\u5e74\u5ea6\u540d\u53e4\u5c4b\u7a7a\u6e2f\u571f\u8cea\u8abf\u67fb\u5831\u544a\u66f8\u662d\u548c50\u5e741\u6708","client_name":"\u56fd\u571f\u4ea4\u901a\u7701\u4e2d\u90e8\u5730\u65b9\u6574\u5099\u5c40\u540d\u53e4\u5c4b\u6e2f\u6e7e\u7a7a\u6e2f\u6280\u8853\u8abf\u67fb\u4e8b\u52d9\u6240","boring_xml_url":0,"boring_view_url":0,"soilmap_view_url":66,"soiltest_xml_url":0,"soiltest_view_url":66},{"id":121806,"code":"B4KJ201801001-0055","latitude":"35.25294008","longitude":"136.9217632","source_code":"PORT23001020019","project_name":"\u6e2f\u6e7e\u5c40","survey_name":"\u662d\u548c49\u5e74\u5ea6\u540d\u53e4\u5c4b\u7a7a\u6e2f\u571f\u8cea\u8abf\u67fb\u5831\u544a\u66f8\u662d\u548c50\u5e741\u6708","client_name":"\u56fd\u571f\u4ea4\u901a\u7701\u4e2d\u90e8\u5730\u65b9\u6574\u5099\u5c40\u540d\u53e4\u5c4b\u6e2f\u6e7e\u7a7a\u6e2f\u6280\u8853\u8abf\u67fb\u4e8b\u52d9\u6240","boring_xml_url":0,"boring_view_url":0,"soilmap_view_url":66,"soiltest_xml_url":0,"soiltest_view_url":66},{"id":121805,"code":"B4KJ201801001-0054","latitude":"35.25294007","longitude":"136.9223187","source_code":"PORT23001020018","project_name":"\u6e2f\u6e7e\u5c40","survey_name":"\u662d\u548c49\u5e74\u5ea6\u540d\u53e4\u5c4b\u7a7a\u6e2f\u571f\u8cea\u8abf\u67fb\u5831\u544a\u66f8\u662d\u548c50\u5e741\u6708","client_name":"\u56fd\u571f\u4ea4\u901a\u7701\u4e2d\u90e8\u5730\u65b9\u6574\u5099\u5c40\u540d\u53e4\u5c4b\u6e2f\u6e7e\u7a7a\u6e2f\u6280\u8853\u8abf\u67fb\u4e8b\u52d9\u6240","boring_xml_url":0,"boring_view_url":0,"soilmap_view_url":66,"soiltest_xml_url":0,"soiltest_view_url":66},{"id":121804,"code":"B4KJ201801001-0053","latitude":"35.26627161","longitude":"136.9189851","source_code":"PORT23001020017","project_name":"\u6e2f\u6e7e\u5c40","survey_name":"\u5730\u76e4\u8abf\u67fb\u5831\u544a\u66f8\u540d\u53e4\u5c4b\u7a7a\u6e2f\u571f\u8cea\u8abf\u67fb\u5de5\u4e8b\u662d\u548c48\u5e746\u6708","client_name":"\u56fd\u571f\u4ea4\u901a\u7701\u4e2d\u90e8\u5730\u65b9\u6574\u5099\u5c40\u540d\u53e4\u5c4b\u6e2f\u6e7e\u7a7a\u6e2f\u6280\u8853\u8abf\u67fb\u4e8b\u52d9\u6240","boring_xml_url":0,"boring_view_url":0,"soilmap_view_url":66,"soiltest_xml_url":0,"soiltest_view_url":66},{"id":121803,"code":"B4KJ201801001-0052","latitude":"35.26599386","longitude":"136.9181519","source_code":"PORT23001020016","project_name":"\u6e2f\u6e7e\u5c40","survey_name":"\u5730\u76e4\u8abf\u67fb\u5831\u544a\u66f8\u540d\u53e4\u5c4b\u7a7a\u6e2f\u571f\u8cea\u8abf\u67fb\u5de5\u4e8b\u662d\u548c48\u5e746\u6708","client_name":"\u56fd\u571f\u4ea4\u901a\u7701\u4e2d\u90e8\u5730\u65b9\u6574\u5099\u5c40\u540d\u53e4\u5c4b\u6e2f\u6e7e\u7a7a\u6e2f\u6280\u8853\u8abf\u67fb\u4e8b\u52d9\u6240","boring_xml_url":0,"boring_view_url":0,"soilmap_view_url":66,"soiltest_xml_url":0,"soiltest_view_url":66},{"id":121802,"code":"B4KJ201801001-0051","latitude":"35.26571609","longitude":"136.9170408","source_code":"PORT23001020015","project_name":"\u6e2f\u6e7e\u5c40","survey_name":"\u5730\u76e4\u8abf\u67fb\u5831\u544a\u66f8\u540d\u53e4\u5c4b\u7a7a\u6e2f\u571f\u8cea\u8abf\u67fb\u5de5\u4e8b\u662d\u548c48\u5e746\u6708","client_name":"\u56fd\u571f\u4ea4\u901a\u7701\u4e2d\u90e8\u5730\u65b9\u6574\u5099\u5c40\u540d\u53e4\u5c4b\u6e2f\u6e7e\u7a7a\u6e2f\u6280\u8853\u8abf\u67fb\u4e8b\u52d9\u6240","boring_xml_url":0,"boring_view_url":0,"soilmap_view_url":66,"soiltest_xml_url":0,"soiltest_view_url":66},{"id":121801,"code":"B4KJ201801001-0050","latitude":"35.26543831","longitude":"136.9156521","source_code":"PORT23001020014","project_name":"\u6e2f\u6e7e\u5c40","survey_name":"\u5730\u76e4\u8abf\u67fb\u5831\u544a\u66f8\u540d\u53e4\u5c4b\u7a7a\u6e2f\u571f\u8cea\u8abf\u67fb\u5de5\u4e8b\u662d\u548c48\u5e746\u6708","client_name":"\u56fd\u571f\u4ea4\u901a\u7701\u4e2d\u90e8\u5730\u65b9\u6574\u5099\u5c40\u540d\u53e4\u5c4b\u6e2f\u6e7e\u7a7a\u6e2f\u6280\u8853\u8abf\u67fb\u4e8b\u52d9\u6240","boring_xml_url":0,"boring_view_url":0,"soilmap_view_url":66,"soiltest_xml_url":0,"soiltest_view_url":66},{"id":121800,"code":"B4KJ201801001-0049","latitude":"35.26460508","longitude":"136.9150966","source_code":"PORT23001020013","project_name":"\u6e2f\u6e7e\u5c40","survey_name":"\u5730\u76e4\u8abf\u67fb\u5831\u544a\u66f8\u540d\u53e4\u5c4b\u7a7a\u6e2f\u571f\u8cea\u8abf\u67fb\u5de5\u4e8b\u662d\u548c48\u5e746\u6708","client_name":"\u56fd\u571f\u4ea4\u901a\u7701\u4e2d\u90e8\u5730\u65b9\u6574\u5099\u5c40\u540d\u53e4\u5c4b\u6e2f\u6e7e\u7a7a\u6e2f\u6280\u8853\u8abf\u67fb\u4e8b\u52d9\u6240","boring_xml_url":0,"boring_view_url":0,"soilmap_view_url":66,"soiltest_xml_url":0,"soiltest_view_url":66},{"id":121799,"code":"B4KJ201801001-0048","latitude":"35.26432753","longitude":"136.9206518","source_code":"PORT23001020012","project_name":"\u6e2f\u6e7e\u5c40","survey_name":"\u5730\u76e4\u8abf\u67fb\u5831\u544a\u66f8\u540d\u53e4\u5c4b\u7a7a\u6e2f\u571f\u8cea\u8abf\u67fb\u5de5\u4e8b\u662d\u548c48\u5e746\u6708","client_name":"\u56fd\u571f\u4ea4\u901a\u7701\u4e2d\u90e8\u5730\u65b9\u6574\u5099\u5c40\u540d\u53e4\u5c4b\u6e2f\u6e7e\u7a7a\u6e2f\u6280\u8853\u8abf\u67fb\u4e8b\u52d9\u6240","boring_xml_url":0,"boring_view_url":0,"soilmap_view_url":66,"soiltest_xml_url":0,"soiltest_view_url":66},{"id":121798,"code":"B4KJ201801001-0047","latitude":"35.26404981","longitude":"136.9209296","source_code":"PORT23001020011","project_name":"\u6e2f\u6e7e\u5c40","survey_name":"\u5730\u76e4\u8abf\u67fb\u5831\u544a\u66f8\u540d\u53e4\u5c4b\u7a7a\u6e2f\u571f\u8cea\u8abf\u67fb\u5de5\u4e8b\u662d\u548c48\u5e746\u6708","client_name":"\u56fd\u571f\u4ea4\u901a\u7701\u4e2d\u90e8\u5730\u65b9\u6574\u5099\u5c40\u540d\u53e4\u5c4b\u6e2f\u6e7e\u7a7a\u6e2f\u6280\u8853\u8abf\u67fb\u4e8b\u52d9\u6240","boring_xml_url":0,"boring_view_url":0,"soilmap_view_url":66,"soiltest_xml_url":0,"soiltest_view_url":66},{"id":121797,"code":"B4KJ201801001-0046","latitude":"35.26432751","longitude":"136.9200963","source_code":"PORT23001020010","project_name":"\u6e2f\u6e7e\u5c40","survey_name":"\u5730\u76e4\u8abf\u67fb\u5831\u544a\u66f8\u540d\u53e4\u5c4b\u7a7a\u6e2f\u571f\u8cea\u8abf\u67fb\u5de5\u4e8b\u662d\u548c48\u5e746\u6708","client_name":"\u56fd\u571f\u4ea4\u901a\u7701\u4e2d\u90e8\u5730\u65b9\u6574\u5099\u5c40\u540d\u53e4\u5c4b\u6e2f\u6e7e\u7a7a\u6e2f\u6280\u8853\u8abf\u67fb\u4e8b\u52d9\u6240","boring_xml_url":0,"boring_view_url":0,"soilmap_view_url":66,"soiltest_xml_url":0,"soiltest_view_url":66},{"id":121796,"code":"B4KJ201801001-0045","latitude":"35.26377205","longitude":"136.9203741","source_code":"PORT23001020009","project_name":"\u6e2f\u6e7e\u5c40","survey_name":"\u5730\u76e4\u8abf\u67fb\u5831\u544a\u66f8\u540d\u53e4\u5c4b\u7a7a\u6e2f\u571f\u8cea\u8abf\u67fb\u5de5\u4e8b\u662d\u548c48\u5e746\u6708","client_name":"\u56fd\u571f\u4ea4\u901a\u7701\u4e2d\u90e8\u5730\u65b9\u6574\u5099\u5c40\u540d\u53e4\u5c4b\u6e2f\u6e7e\u7a7a\u6e2f\u6280\u8853\u8abf\u67fb\u4e8b\u52d9\u6240","boring_xml_url":0,"boring_view_url":0,"soilmap_view_url":66,"soiltest_xml_url":0,"soiltest_view_url":66}]}}