{"header":{"xyz":{"source":[],"mosaic":false},"page":6626,"raw":{"soiltest_result":"0","bbox":"57.598333,109.544722,1.933333,163.806111","page":"6626"},"conditions":{"soiltest_result":0,"north":57.598333,"west":109.544722,"south":1.933333,"east":163.806111},"success":true,"message":""},"data":{"meta":{"total":212844,"page":6626,"pages":7095,"count":30},"values":[{"id":121795,"code":"B4KJ201801001-0044","latitude":"35.26404975","longitude":"136.919263","source_code":"PORT23001020008","project_name":"\u6e2f\u6e7e\u5c40","survey_name":"\u5730\u76e4\u8abf\u67fb\u5831\u544a\u66f8\u540d\u53e4\u5c4b\u7a7a\u6e2f\u571f\u8cea\u8abf\u67fb\u5de5\u4e8b\u662d\u548c48\u5e746\u6708","client_name":"\u56fd\u571f\u4ea4\u901a\u7701\u4e2d\u90e8\u5730\u65b9\u6574\u5099\u5c40\u540d\u53e4\u5c4b\u6e2f\u6e7e\u7a7a\u6e2f\u6280\u8853\u8abf\u67fb\u4e8b\u52d9\u6240","boring_xml_url":0,"boring_view_url":0,"soilmap_view_url":66,"soiltest_xml_url":0,"soiltest_view_url":66},{"id":121794,"code":"B4KJ201801001-0043","latitude":"35.26238328","longitude":"136.9173188","source_code":"PORT23001020007","project_name":"\u6e2f\u6e7e\u5c40","survey_name":"\u5730\u76e4\u8abf\u67fb\u5831\u544a\u66f8\u540d\u53e4\u5c4b\u7a7a\u6e2f\u571f\u8cea\u8abf\u67fb\u5de5\u4e8b\u662d\u548c48\u5e746\u6708","client_name":"\u56fd\u571f\u4ea4\u901a\u7701\u4e2d\u90e8\u5730\u65b9\u6574\u5099\u5c40\u540d\u53e4\u5c4b\u6e2f\u6e7e\u7a7a\u6e2f\u6280\u8853\u8abf\u67fb\u4e8b\u52d9\u6240","boring_xml_url":0,"boring_view_url":0,"soilmap_view_url":66,"soiltest_xml_url":0,"soiltest_view_url":66},{"id":121793,"code":"B4KJ201801001-0042","latitude":"35.26599387","longitude":"136.9184296","source_code":"PORT23001020006","project_name":"\u6e2f\u6e7e\u5c40","survey_name":"\u540d\u53e4\u5c4b\u7a7a\u6e2f\u6e2c\u91cf\u8abf\u67fb\u5de5\u4e8bTOYOYAMACHOAZATOYO","client_name":"\u56fd\u571f\u4ea4\u901a\u7701\u4e2d\u90e8\u5730\u65b9\u6574\u5099\u5c40\u540d\u53e4\u5c4b\u6e2f\u6e7e\u7a7a\u6e2f\u6280\u8853\u8abf\u67fb\u4e8b\u52d9\u6240","boring_xml_url":0,"boring_view_url":0,"soilmap_view_url":66,"soiltest_xml_url":0,"soiltest_view_url":66},{"id":121792,"code":"B4KJ201801001-0041","latitude":"35.26543834","longitude":"136.9167631","source_code":"PORT23001020005","project_name":"\u6e2f\u6e7e\u5c40","survey_name":"\u540d\u53e4\u5c4b\u7a7a\u6e2f\u6e2c\u91cf\u8abf\u67fb\u5de5\u4e8bTOYOYAMACHOAZATOYO","client_name":"\u56fd\u571f\u4ea4\u901a\u7701\u4e2d\u90e8\u5730\u65b9\u6574\u5099\u5c40\u540d\u53e4\u5c4b\u6e2f\u6e7e\u7a7a\u6e2f\u6280\u8853\u8abf\u67fb\u4e8b\u52d9\u6240","boring_xml_url":0,"boring_view_url":0,"soilmap_view_url":66,"soiltest_xml_url":0,"soiltest_view_url":66},{"id":121791,"code":"B4KJ201801001-0040","latitude":"35.26238328","longitude":"136.9173188","source_code":"PORT23001020004","project_name":"\u6e2f\u6e7e\u5c40","survey_name":"\u540d\u53e4\u5c4b\u7a7a\u6e2f\u6e2c\u91cf\u8abf\u67fb\u5de5\u4e8bTOYOYAMACHOAZATOYO","client_name":"\u56fd\u571f\u4ea4\u901a\u7701\u4e2d\u90e8\u5730\u65b9\u6574\u5099\u5c40\u540d\u53e4\u5c4b\u6e2f\u6e7e\u7a7a\u6e2f\u6280\u8853\u8abf\u67fb\u4e8b\u52d9\u6240","boring_xml_url":0,"boring_view_url":0,"soilmap_view_url":66,"soiltest_xml_url":0,"soiltest_view_url":66},{"id":121790,"code":"B4KJ201801001-0039","latitude":"35.26432751","longitude":"136.9200963","source_code":"PORT23001020003","project_name":"\u6e2f\u6e7e\u5c40","survey_name":"\u540d\u53e4\u5c4b\u7a7a\u6e2f\u6e2c\u91cf\u8abf\u67fb\u5de5\u4e8bTOYOYAMACHOAZATOYO","client_name":"\u56fd\u571f\u4ea4\u901a\u7701\u4e2d\u90e8\u5730\u65b9\u6574\u5099\u5c40\u540d\u53e4\u5c4b\u6e2f\u6e7e\u7a7a\u6e2f\u6280\u8853\u8abf\u67fb\u4e8b\u52d9\u6240","boring_xml_url":0,"boring_view_url":0,"soilmap_view_url":66,"soiltest_xml_url":0,"soiltest_view_url":66},{"id":121789,"code":"B4KJ201801001-0038","latitude":"35.2634943","longitude":"136.9198186","source_code":"PORT23001020002","project_name":"\u6e2f\u6e7e\u5c40","survey_name":"\u5730\u76e4\u8abf\u67fb\u5831\u544a\u66f8\u540d\u53e4\u5c4b\u7a7a\u6e2f\u5730\u8cea\u8abf\u67fb_\u662d\u548c47\u5e747\u6708","client_name":"\u56fd\u571f\u4ea4\u901a\u7701\u4e2d\u90e8\u5730\u65b9\u6574\u5099\u5c40\u540d\u53e4\u5c4b\u6e2f\u6e7e\u7a7a\u6e2f\u6280\u8853\u8abf\u67fb\u4e8b\u52d9\u6240","boring_xml_url":0,"boring_view_url":0,"soilmap_view_url":66,"soiltest_xml_url":0,"soiltest_view_url":66},{"id":121788,"code":"B4KJ201801001-0037","latitude":"35.26321652","longitude":"136.9184298","source_code":"PORT23001020001","project_name":"\u6e2f\u6e7e\u5c40","survey_name":"\u5730\u76e4\u8abf\u67fb\u5831\u544a\u66f8\u540d\u53e4\u5c4b\u7a7a\u6e2f\u5730\u8cea\u8abf\u67fb_\u662d\u548c47\u5e747\u6708","client_name":"\u56fd\u571f\u4ea4\u901a\u7701\u4e2d\u90e8\u5730\u65b9\u6574\u5099\u5c40\u540d\u53e4\u5c4b\u6e2f\u6e7e\u7a7a\u6e2f\u6280\u8853\u8abf\u67fb\u4e8b\u52d9\u6240","boring_xml_url":0,"boring_view_url":0,"soilmap_view_url":66,"soiltest_xml_url":0,"soiltest_view_url":66},{"id":121787,"code":"B4KJ201801001-0036","latitude":"35.26266106","longitude":"136.9187076","source_code":"PORT23001020000","project_name":"\u6e2f\u6e7e\u5c40","survey_name":"\u5730\u76e4\u8abf\u67fb\u5831\u544a\u66f8\u540d\u53e4\u5c4b\u7a7a\u6e2f\u5730\u8cea\u8abf\u67fb_\u662d\u548c47\u5e747\u6708","client_name":"\u56fd\u571f\u4ea4\u901a\u7701\u4e2d\u90e8\u5730\u65b9\u6574\u5099\u5c40\u540d\u53e4\u5c4b\u6e2f\u6e7e\u7a7a\u6e2f\u6280\u8853\u8abf\u67fb\u4e8b\u52d9\u6240","boring_xml_url":0,"boring_view_url":0,"soilmap_view_url":66,"soiltest_xml_url":0,"soiltest_view_url":66},{"id":121786,"code":"B4KJ201801001-0035","latitude":"35.01311478","longitude":"136.81279","source_code":"PORT23001011775","project_name":"\u6e2f\u6e7e\u5c40","survey_name":"\u6d5a\u6e2b\u571f\u7802\u6e1b\u5bb9\u5316\u6280\u8853\u691c\u8a0e\u571f\u8cea\u8abf\u67fb\u53ca\u3073\u6c88\u4e0b\u7ba1\u7406","client_name":"\u56fd\u571f\u4ea4\u901a\u7701\u4e2d\u90e8\u5730\u65b9\u6574\u5099\u5c40\u540d\u53e4\u5c4b\u6e2f\u6e7e\u7a7a\u6e2f\u6280\u8853\u8abf\u67fb\u4e8b\u52d9\u6240","boring_xml_url":0,"boring_view_url":0,"soilmap_view_url":66,"soiltest_xml_url":0,"soiltest_view_url":66},{"id":121785,"code":"B4KJ201801001-0034","latitude":"35.01345057","longitude":"136.812228","source_code":"PORT23001011774","project_name":"\u6e2f\u6e7e\u5c40","survey_name":"\u6d5a\u6e2b\u571f\u7802\u6e1b\u5bb9\u5316\u6280\u8853\u691c\u8a0e\u571f\u8cea\u8abf\u67fb\u53ca\u3073\u6c88\u4e0b\u7ba1\u7406","client_name":"\u56fd\u571f\u4ea4\u901a\u7701\u4e2d\u90e8\u5730\u65b9\u6574\u5099\u5c40\u540d\u53e4\u5c4b\u6e2f\u6e7e\u7a7a\u6e2f\u6280\u8853\u8abf\u67fb\u4e8b\u52d9\u6240","boring_xml_url":0,"boring_view_url":0,"soilmap_view_url":66,"soiltest_xml_url":0,"soiltest_view_url":0},{"id":121784,"code":"B4KJ201801001-0033","latitude":"35.01257007","longitude":"136.8117673","source_code":"PORT23001011773","project_name":"\u6e2f\u6e7e\u5c40","survey_name":"\u6d5a\u6e2b\u571f\u7802\u6e1b\u5bb9\u5316\u6280\u8853\u691c\u8a0e\u571f\u8cea\u8abf\u67fb\u53ca\u3073\u6c88\u4e0b\u7ba1\u7406","client_name":"\u56fd\u571f\u4ea4\u901a\u7701\u4e2d\u90e8\u5730\u65b9\u6574\u5099\u5c40\u540d\u53e4\u5c4b\u6e2f\u6e7e\u7a7a\u6e2f\u6280\u8853\u8abf\u67fb\u4e8b\u52d9\u6240","boring_xml_url":0,"boring_view_url":0,"soilmap_view_url":66,"soiltest_xml_url":0,"soiltest_view_url":0},{"id":121783,"code":"B4KJ201801001-0032","latitude":"35.01248566","longitude":"136.8128407","source_code":"PORT23001011772","project_name":"\u6e2f\u6e7e\u5c40","survey_name":"\u6d5a\u6e2b\u571f\u7802\u6e1b\u5bb9\u5316\u6280\u8853\u691c\u8a0e\u571f\u8cea\u8abf\u67fb\u53ca\u3073\u6c88\u4e0b\u7ba1\u7406","client_name":"\u56fd\u571f\u4ea4\u901a\u7701\u4e2d\u90e8\u5730\u65b9\u6574\u5099\u5c40\u540d\u53e4\u5c4b\u6e2f\u6e7e\u7a7a\u6e2f\u6280\u8853\u8abf\u67fb\u4e8b\u52d9\u6240","boring_xml_url":0,"boring_view_url":0,"soilmap_view_url":66,"soiltest_xml_url":0,"soiltest_view_url":0},{"id":121782,"code":"B4KJ201801001-0031","latitude":"35.01265334","longitude":"136.8129942","source_code":"PORT23001011771","project_name":"\u6e2f\u6e7e\u5c40","survey_name":"\u6d5a\u6e2b\u571f\u7802\u6e1b\u5bb9\u5316\u6280\u8853\u691c\u8a0e\u571f\u8cea\u8abf\u67fb\u53ca\u3073\u6c88\u4e0b\u7ba1\u7406","client_name":"\u56fd\u571f\u4ea4\u901a\u7701\u4e2d\u90e8\u5730\u65b9\u6574\u5099\u5c40\u540d\u53e4\u5c4b\u6e2f\u6e7e\u7a7a\u6e2f\u6280\u8853\u8abf\u67fb\u4e8b\u52d9\u6240","boring_xml_url":0,"boring_view_url":0,"soilmap_view_url":66,"soiltest_xml_url":0,"soiltest_view_url":0},{"id":121781,"code":"B4KJ201801001-0030","latitude":"35.01332512","longitude":"136.8114611","source_code":"PORT23001011770","project_name":"\u6e2f\u6e7e\u5c40","survey_name":"\u6d5a\u6e2b\u571f\u7802\u6e1b\u5bb9\u5316\u6280\u8853\u691c\u8a0e\u571f\u8cea\u8abf\u67fb\u53ca\u3073\u6c88\u4e0b\u7ba1\u7406","client_name":"\u56fd\u571f\u4ea4\u901a\u7701\u4e2d\u90e8\u5730\u65b9\u6574\u5099\u5c40\u540d\u53e4\u5c4b\u6e2f\u6e7e\u7a7a\u6e2f\u6280\u8853\u8abf\u67fb\u4e8b\u52d9\u6240","boring_xml_url":0,"boring_view_url":0,"soilmap_view_url":66,"soiltest_xml_url":0,"soiltest_view_url":0},{"id":121780,"code":"B4KJ201801001-0029","latitude":"35.01349281","longitude":"136.8116146","source_code":"PORT23001011769","project_name":"\u6e2f\u6e7e\u5c40","survey_name":"\u6d5a\u6e2b\u571f\u7802\u6e1b\u5bb9\u5316\u6280\u8853\u691c\u8a0e\u571f\u8cea\u8abf\u67fb\u53ca\u3073\u6c88\u4e0b\u7ba1\u7406","client_name":"\u56fd\u571f\u4ea4\u901a\u7701\u4e2d\u90e8\u5730\u65b9\u6574\u5099\u5c40\u540d\u53e4\u5c4b\u6e2f\u6e7e\u7a7a\u6e2f\u6280\u8853\u8abf\u67fb\u4e8b\u52d9\u6240","boring_xml_url":0,"boring_view_url":0,"soilmap_view_url":66,"soiltest_xml_url":0,"soiltest_view_url":0},{"id":121779,"code":"B4KJ201801001-0028","latitude":"35.02746283","longitude":"136.8237722","source_code":"PORT23001011768","project_name":"\u6e2f\u6e7e\u5c40","survey_name":"\u540d\u53e4\u5c4b\u6e2f\u897f4\u533a\u571f\u8cea\u8abf\u67fb","client_name":"\u56fd\u571f\u4ea4\u901a\u7701\u4e2d\u90e8\u5730\u65b9\u6574\u5099\u5c40\u540d\u53e4\u5c4b\u6e2f\u6e7e\u7a7a\u6e2f\u6280\u8853\u8abf\u67fb\u4e8b\u52d9\u6240","boring_xml_url":0,"boring_view_url":0,"soilmap_view_url":66,"soiltest_xml_url":0,"soiltest_view_url":66},{"id":121778,"code":"B4KJ201801001-0027","latitude":"35.02724483","longitude":"136.82383","source_code":"PORT23001011767","project_name":"\u6e2f\u6e7e\u5c40","survey_name":"\u540d\u53e4\u5c4b\u6e2f\u897f4\u533a\u571f\u8cea\u8abf\u67fb","client_name":"\u56fd\u571f\u4ea4\u901a\u7701\u4e2d\u90e8\u5730\u65b9\u6574\u5099\u5c40\u540d\u53e4\u5c4b\u6e2f\u6e7e\u7a7a\u6e2f\u6280\u8853\u8abf\u67fb\u4e8b\u52d9\u6240","boring_xml_url":0,"boring_view_url":0,"soilmap_view_url":66,"soiltest_xml_url":0,"soiltest_view_url":66},{"id":121777,"code":"B4KJ201801001-0026","latitude":"35.0273656","longitude":"136.8243811","source_code":"PORT23001011766","project_name":"\u6e2f\u6e7e\u5c40","survey_name":"\u540d\u53e4\u5c4b\u6e2f\u897f4\u533a\u571f\u8cea\u8abf\u67fb","client_name":"\u56fd\u571f\u4ea4\u901a\u7701\u4e2d\u90e8\u5730\u65b9\u6574\u5099\u5c40\u540d\u53e4\u5c4b\u6e2f\u6e7e\u7a7a\u6e2f\u6280\u8853\u8abf\u67fb\u4e8b\u52d9\u6240","boring_xml_url":0,"boring_view_url":0,"soilmap_view_url":66,"soiltest_xml_url":0,"soiltest_view_url":66},{"id":121776,"code":"B4KJ201801001-0025","latitude":"35.02746211","longitude":"136.8249902","source_code":"PORT23001011765","project_name":"\u6e2f\u6e7e\u5c40","survey_name":"\u540d\u53e4\u5c4b\u6e2f\u897f4\u533a\u571f\u8cea\u8abf\u67fb","client_name":"\u56fd\u571f\u4ea4\u901a\u7701\u4e2d\u90e8\u5730\u65b9\u6574\u5099\u5c40\u540d\u53e4\u5c4b\u6e2f\u6e7e\u7a7a\u6e2f\u6280\u8853\u8abf\u67fb\u4e8b\u52d9\u6240","boring_xml_url":0,"boring_view_url":0,"soilmap_view_url":66,"soiltest_xml_url":0,"soiltest_view_url":66},{"id":121775,"code":"B4KJ201801001-0024","latitude":"35.02758284","longitude":"136.8255993","source_code":"PORT23001011764","project_name":"\u6e2f\u6e7e\u5c40","survey_name":"\u540d\u53e4\u5c4b\u6e2f\u897f4\u533a\u571f\u8cea\u8abf\u67fb","client_name":"\u56fd\u571f\u4ea4\u901a\u7701\u4e2d\u90e8\u5730\u65b9\u6574\u5099\u5c40\u540d\u53e4\u5c4b\u6e2f\u6e7e\u7a7a\u6e2f\u6280\u8853\u8abf\u67fb\u4e8b\u52d9\u6240","boring_xml_url":0,"boring_view_url":0,"soilmap_view_url":66,"soiltest_xml_url":0,"soiltest_view_url":66},{"id":121774,"code":"B4KJ201801001-0023","latitude":"35.02916683","longitude":"136.8180556","source_code":"PORT23001011763","project_name":"\u6e2f\u6e7e\u5c40","survey_name":"\u5e73\u621018\u5e74\u5ea6\u540d\u53e4\u5c4b\u6e2f\u98db\u9ce5\u57e0\u982d\u5357\u571f\u8cea\u8abf\u67fb\u5831\u544a\u66f8","client_name":"\u56fd\u571f\u4ea4\u901a\u7701\u4e2d\u90e8\u5730\u65b9\u6574\u5099\u5c40\u540d\u53e4\u5c4b\u6e2f\u6e7e\u7a7a\u6e2f\u6280\u8853\u8abf\u67fb\u4e8b\u52d9\u6240","boring_xml_url":0,"boring_view_url":0,"soilmap_view_url":66,"soiltest_xml_url":0,"soiltest_view_url":66},{"id":121773,"code":"B4KJ201801001-0022","latitude":"35.02328021","longitude":"136.8282716","source_code":"PORT23001011762","project_name":"\u6e2f\u6e7e\u5c40","survey_name":"\u5e73\u621016\u5e74\u5ea6\u540d\u53e4\u5c4b\u98db\u9ce5\u5357\u57e0\u982d\u6cca\u5730\u571f\u8cea\u8abf\u67fb\u5831\u544a\u66f8","client_name":"\u56fd\u571f\u4ea4\u901a\u7701\u4e2d\u90e8\u5730\u65b9\u6574\u5099\u5c40\u540d\u53e4\u5c4b\u6e2f\u6e7e\u7a7a\u6e2f\u6280\u8853\u8abf\u67fb\u4e8b\u52d9\u6240","boring_xml_url":0,"boring_view_url":0,"soilmap_view_url":66,"soiltest_xml_url":0,"soiltest_view_url":66},{"id":121772,"code":"B4KJ201801001-0021","latitude":"35.02341936","longitude":"136.8247629","source_code":"PORT23001011761","project_name":"\u6e2f\u6e7e\u5c40","survey_name":"\u5e73\u621016\u5e74\u5ea6\u540d\u53e4\u5c4b\u98db\u9ce5\u5357\u57e0\u982d\u6cca\u5730\u571f\u8cea\u8abf\u67fb\u5831\u544a\u66f8","client_name":"\u56fd\u571f\u4ea4\u901a\u7701\u4e2d\u90e8\u5730\u65b9\u6574\u5099\u5c40\u540d\u53e4\u5c4b\u6e2f\u6e7e\u7a7a\u6e2f\u6280\u8853\u8abf\u67fb\u4e8b\u52d9\u6240","boring_xml_url":0,"boring_view_url":0,"soilmap_view_url":66,"soiltest_xml_url":0,"soiltest_view_url":66},{"id":121771,"code":"B4KJ201801001-0020","latitude":"34.99691367","longitude":"136.7830367","source_code":"PORT23001011760","project_name":"\u6e2f\u6e7e\u5c40","survey_name":"\u5e73\u62108\u5e74\u5ea6\u540d\u53e4\u5c4b\u6e2f\u897f\u822a\u8def\u571f\u8cea\u8abf\u67fb\u5831\u544a\u66f8","client_name":"\u56fd\u571f\u4ea4\u901a\u7701\u4e2d\u90e8\u5730\u65b9\u6574\u5099\u5c40\u540d\u53e4\u5c4b\u6e2f\u6e7e\u7a7a\u6e2f\u6280\u8853\u8abf\u67fb\u4e8b\u52d9\u6240","boring_xml_url":0,"boring_view_url":0,"soilmap_view_url":66,"soiltest_xml_url":0,"soiltest_view_url":66},{"id":121770,"code":"B4KJ201801001-0019","latitude":"35.00161536","longitude":"136.7875142","source_code":"PORT23001011759","project_name":"\u6e2f\u6e7e\u5c40","survey_name":"\u5e73\u62108\u5e74\u5ea6\u540d\u53e4\u5c4b\u6e2f\u897f\u822a\u8def\u571f\u8cea\u8abf\u67fb\u5831\u544a\u66f8","client_name":"\u56fd\u571f\u4ea4\u901a\u7701\u4e2d\u90e8\u5730\u65b9\u6574\u5099\u5c40\u540d\u53e4\u5c4b\u6e2f\u6e7e\u7a7a\u6e2f\u6280\u8853\u8abf\u67fb\u4e8b\u52d9\u6240","boring_xml_url":0,"boring_view_url":0,"soilmap_view_url":66,"soiltest_xml_url":0,"soiltest_view_url":66},{"id":121769,"code":"B4KJ201801001-0018","latitude":"35.00672567","longitude":"136.7924897","source_code":"PORT23001011758","project_name":"\u6e2f\u6e7e\u5c40","survey_name":"\u5e73\u62108\u5e74\u5ea6\u540d\u53e4\u5c4b\u6e2f\u897f\u822a\u8def\u571f\u8cea\u8abf\u67fb\u5831\u544a\u66f8","client_name":"\u56fd\u571f\u4ea4\u901a\u7701\u4e2d\u90e8\u5730\u65b9\u6574\u5099\u5c40\u540d\u53e4\u5c4b\u6e2f\u6e7e\u7a7a\u6e2f\u6280\u8853\u8abf\u67fb\u4e8b\u52d9\u6240","boring_xml_url":0,"boring_view_url":0,"soilmap_view_url":66,"soiltest_xml_url":0,"soiltest_view_url":66},{"id":121768,"code":"B4KJ201801001-0017","latitude":"35.00625303","longitude":"136.8203894","source_code":"PORT23001011757","project_name":"\u6e2f\u6e7e\u5c40","survey_name":"\u662d\u548c59\u5e74\u5ea6\u30dd\u30fc\u30c8\u30a2\u30a4\u30e9\u30f3\u30c9C\u5de5\u533a\u571f\u8cea\u8abf\u67fb\u5831\u544a\u66f8\u662d\u548c59\u5e745\u6708","client_name":"\u56fd\u571f\u4ea4\u901a\u7701\u4e2d\u90e8\u5730\u65b9\u6574\u5099\u5c40\u540d\u53e4\u5c4b\u6e2f\u6e7e\u7a7a\u6e2f\u6280\u8853\u8abf\u67fb\u4e8b\u52d9\u6240","boring_xml_url":0,"boring_view_url":0,"soilmap_view_url":66,"soiltest_xml_url":0,"soiltest_view_url":66},{"id":121767,"code":"B4KJ201801001-0016","latitude":"35.00435797","longitude":"136.8190667","source_code":"PORT23001011756","project_name":"\u6e2f\u6e7e\u5c40","survey_name":"\u662d\u548c59\u5e74\u5ea6\u30dd\u30fc\u30c8\u30a2\u30a4\u30e9\u30f3\u30c9C\u5de5\u533a\u571f\u8cea\u8abf\u67fb\u5831\u544a\u66f8\u662d\u548c59\u5e745\u6708","client_name":"\u56fd\u571f\u4ea4\u901a\u7701\u4e2d\u90e8\u5730\u65b9\u6574\u5099\u5c40\u540d\u53e4\u5c4b\u6e2f\u6e7e\u7a7a\u6e2f\u6280\u8853\u8abf\u67fb\u4e8b\u52d9\u6240","boring_xml_url":0,"boring_view_url":0,"soilmap_view_url":66,"soiltest_xml_url":0,"soiltest_view_url":66},{"id":121766,"code":"B4KJ201801001-0015","latitude":"35.04392972","longitude":"136.849776","source_code":"PORT23001011755","project_name":"\u6e2f\u6e7e\u5c40","survey_name":"\u662d\u548c58\u5e74\u5ea6\u540d\u53e4\u5c4b\u6e2f\u30fb\u91d1\u57ce\u6cca\u5730\u571f\u8cea\u8abf\u67fb\u5831\u544a\u66f8","client_name":"\u56fd\u571f\u4ea4\u901a\u7701\u4e2d\u90e8\u5730\u65b9\u6574\u5099\u5c40\u540d\u53e4\u5c4b\u6e2f\u6e7e\u7a7a\u6e2f\u6280\u8853\u8abf\u67fb\u4e8b\u52d9\u6240","boring_xml_url":0,"boring_view_url":0,"soilmap_view_url":66,"soiltest_xml_url":0,"soiltest_view_url":66}]}}