{"header":{"xyz":{"source":[],"mosaic":false},"page":6633,"raw":{"soiltest_result":"0","bbox":"57.598333,109.544722,1.933333,163.806111","page":"6633"},"conditions":{"soiltest_result":0,"north":57.598333,"west":109.544722,"south":1.933333,"east":163.806111},"success":true,"message":""},"data":{"meta":{"total":212844,"page":6633,"pages":7095,"count":30},"values":[{"id":121585,"code":"B4KJ201801000-9834","latitude":"35.02734452","longitude":"136.7883457","source_code":"PORT23001011544","project_name":"\u6e2f\u6e7e\u5c40","survey_name":"\u5e73\u621019\u5e74\u540d\u53e4\u5c4b\u6e2f\u6e2f\u5185\u571f\u8cea\u8abf\u67fb\u5831\u544a\u66f8\u5e73\u621020\u5e743\u6708","client_name":"\u56fd\u571f\u4ea4\u901a\u7701\u4e2d\u90e8\u5730\u65b9\u6574\u5099\u5c40\u540d\u53e4\u5c4b\u6e2f\u6e7e\u7a7a\u6e2f\u6280\u8853\u8abf\u67fb\u4e8b\u52d9\u6240","boring_xml_url":0,"boring_view_url":0,"soilmap_view_url":66,"soiltest_xml_url":0,"soiltest_view_url":66},{"id":121584,"code":"B4KJ201801000-9833","latitude":"35.02825556","longitude":"136.7879167","source_code":"PORT23001011543","project_name":"\u6e2f\u6e7e\u5c40","survey_name":"\u5e73\u621019\u5e74\u540d\u53e4\u5c4b\u6e2f\u6e2f\u5185\u571f\u8cea\u8abf\u67fb\u5831\u544a\u66f8\u5e73\u621020\u5e743\u6708","client_name":"\u56fd\u571f\u4ea4\u901a\u7701\u4e2d\u90e8\u5730\u65b9\u6574\u5099\u5c40\u540d\u53e4\u5c4b\u6e2f\u6e7e\u7a7a\u6e2f\u6280\u8853\u8abf\u67fb\u4e8b\u52d9\u6240","boring_xml_url":0,"boring_view_url":0,"soilmap_view_url":66,"soiltest_xml_url":0,"soiltest_view_url":66},{"id":121583,"code":"B4KJ201801000-9832","latitude":"35.02796944","longitude":"136.7883444","source_code":"PORT23001011542","project_name":"\u6e2f\u6e7e\u5c40","survey_name":"\u5e73\u621019\u5e74\u540d\u53e4\u5c4b\u6e2f\u6e2f\u5185\u571f\u8cea\u8abf\u67fb\u5831\u544a\u66f8\u5e73\u621020\u5e743\u6708","client_name":"\u56fd\u571f\u4ea4\u901a\u7701\u4e2d\u90e8\u5730\u65b9\u6574\u5099\u5c40\u540d\u53e4\u5c4b\u6e2f\u6e7e\u7a7a\u6e2f\u6280\u8853\u8abf\u67fb\u4e8b\u52d9\u6240","boring_xml_url":0,"boring_view_url":0,"soilmap_view_url":66,"soiltest_xml_url":0,"soiltest_view_url":66},{"id":121582,"code":"B4KJ201801000-9831","latitude":"35.02739444","longitude":"136.7891944","source_code":"PORT23001011541","project_name":"\u6e2f\u6e7e\u5c40","survey_name":"\u5e73\u621019\u5e74\u540d\u53e4\u5c4b\u6e2f\u6e2f\u5185\u571f\u8cea\u8abf\u67fb\u5831\u544a\u66f8\u5e73\u621020\u5e743\u6708","client_name":"\u56fd\u571f\u4ea4\u901a\u7701\u4e2d\u90e8\u5730\u65b9\u6574\u5099\u5c40\u540d\u53e4\u5c4b\u6e2f\u6e7e\u7a7a\u6e2f\u6280\u8853\u8abf\u67fb\u4e8b\u52d9\u6240","boring_xml_url":0,"boring_view_url":0,"soilmap_view_url":66,"soiltest_xml_url":0,"soiltest_view_url":66},{"id":121581,"code":"B4KJ201801000-9830","latitude":"35.02684444","longitude":"136.7899833","source_code":"PORT23001011540","project_name":"\u6e2f\u6e7e\u5c40","survey_name":"\u5e73\u621019\u5e74\u540d\u53e4\u5c4b\u6e2f\u6e2f\u5185\u571f\u8cea\u8abf\u67fb\u5831\u544a\u66f8\u5e73\u621020\u5e743\u6708","client_name":"\u56fd\u571f\u4ea4\u901a\u7701\u4e2d\u90e8\u5730\u65b9\u6574\u5099\u5c40\u540d\u53e4\u5c4b\u6e2f\u6e7e\u7a7a\u6e2f\u6280\u8853\u8abf\u67fb\u4e8b\u52d9\u6240","boring_xml_url":0,"boring_view_url":0,"soilmap_view_url":66,"soiltest_xml_url":0,"soiltest_view_url":66},{"id":121580,"code":"B4KJ201801000-9829","latitude":"35.01019444","longitude":"136.8147778","source_code":"PORT23001011539","project_name":"\u6e2f\u6e7e\u5c40","survey_name":"\u5e73\u621018\u5e74\u5ea6\u540d\u53e4\u5c4b\u6e2f\u7b2c1\u30dd\u30fc\u30c8\u30a2\u30a4\u30e9\u30f3\u30c9\u571f\u8cea\u8abf\u67fb\u5831\u544a\u66f8\u5e73","client_name":"\u56fd\u571f\u4ea4\u901a\u7701\u4e2d\u90e8\u5730\u65b9\u6574\u5099\u5c40\u540d\u53e4\u5c4b\u6e2f\u6e7e\u7a7a\u6e2f\u6280\u8853\u8abf\u67fb\u4e8b\u52d9\u6240","boring_xml_url":0,"boring_view_url":0,"soilmap_view_url":66,"soiltest_xml_url":0,"soiltest_view_url":66},{"id":121579,"code":"B4KJ201801000-9828","latitude":"35.00666667","longitude":"136.8079167","source_code":"PORT23001011538","project_name":"\u6e2f\u6e7e\u5c40","survey_name":"\u5e73\u621018\u5e74\u5ea6\u540d\u53e4\u5c4b\u6e2f\u7b2c1\u30dd\u30fc\u30c8\u30a2\u30a4\u30e9\u30f3\u30c9\u571f\u8cea\u8abf\u67fb\u5831\u544a\u66f8\u5e73","client_name":"\u56fd\u571f\u4ea4\u901a\u7701\u4e2d\u90e8\u5730\u65b9\u6574\u5099\u5c40\u540d\u53e4\u5c4b\u6e2f\u6e7e\u7a7a\u6e2f\u6280\u8853\u8abf\u67fb\u4e8b\u52d9\u6240","boring_xml_url":0,"boring_view_url":0,"soilmap_view_url":66,"soiltest_xml_url":0,"soiltest_view_url":66},{"id":121578,"code":"B4KJ201801000-9827","latitude":"35.01186111","longitude":"136.8121944","source_code":"PORT23001011537","project_name":"\u6e2f\u6e7e\u5c40","survey_name":"\u5e73\u621018\u5e74\u5ea6\u540d\u53e4\u5c4b\u6e2f\u7b2c1\u30dd\u30fc\u30c8\u30a2\u30a4\u30e9\u30f3\u30c9\u571f\u8cea\u8abf\u67fb\u5831\u544a\u66f8\u5e73","client_name":"\u56fd\u571f\u4ea4\u901a\u7701\u4e2d\u90e8\u5730\u65b9\u6574\u5099\u5c40\u540d\u53e4\u5c4b\u6e2f\u6e7e\u7a7a\u6e2f\u6280\u8853\u8abf\u67fb\u4e8b\u52d9\u6240","boring_xml_url":0,"boring_view_url":0,"soilmap_view_url":66,"soiltest_xml_url":0,"soiltest_view_url":66},{"id":121577,"code":"B4KJ201801000-9826","latitude":"35.01125","longitude":"136.8088056","source_code":"PORT23001011536","project_name":"\u6e2f\u6e7e\u5c40","survey_name":"\u5e73\u621018\u5e74\u5ea6\u540d\u53e4\u5c4b\u6e2f\u7b2c1\u30dd\u30fc\u30c8\u30a2\u30a4\u30e9\u30f3\u30c9\u571f\u8cea\u8abf\u67fb\u5831\u544a\u66f8\u5e73","client_name":"\u56fd\u571f\u4ea4\u901a\u7701\u4e2d\u90e8\u5730\u65b9\u6574\u5099\u5c40\u540d\u53e4\u5c4b\u6e2f\u6e7e\u7a7a\u6e2f\u6280\u8853\u8abf\u67fb\u4e8b\u52d9\u6240","boring_xml_url":0,"boring_view_url":0,"soilmap_view_url":66,"soiltest_xml_url":0,"soiltest_view_url":66},{"id":121576,"code":"B4KJ201801000-9825","latitude":"35.00911111","longitude":"136.8067778","source_code":"PORT23001011535","project_name":"\u6e2f\u6e7e\u5c40","survey_name":"\u5e73\u621018\u5e74\u5ea6\u540d\u53e4\u5c4b\u6e2f\u7b2c1\u30dd\u30fc\u30c8\u30a2\u30a4\u30e9\u30f3\u30c9\u571f\u8cea\u8abf\u67fb\u5831\u544a\u66f8\u5e73","client_name":"\u56fd\u571f\u4ea4\u901a\u7701\u4e2d\u90e8\u5730\u65b9\u6574\u5099\u5c40\u540d\u53e4\u5c4b\u6e2f\u6e7e\u7a7a\u6e2f\u6280\u8853\u8abf\u67fb\u4e8b\u52d9\u6240","boring_xml_url":0,"boring_view_url":0,"soilmap_view_url":66,"soiltest_xml_url":0,"soiltest_view_url":66},{"id":121575,"code":"B4KJ201801000-9824","latitude":"34.98758333","longitude":"136.8353611","source_code":"PORT23001011534","project_name":"\u6e2f\u6e7e\u5c40","survey_name":"\u5e73\u621018\u5e74\u5ea6\u540d\u53e4\u5c4b\u6e2f\u9ad8\u6f6e\u9632\u6ce2\u5824\u571f\u8cea\u8abf\u67fb\u5831\u544a\u66f8\u5e73\u621019\u5e741\u6708","client_name":"\u56fd\u571f\u4ea4\u901a\u7701\u4e2d\u90e8\u5730\u65b9\u6574\u5099\u5c40\u540d\u53e4\u5c4b\u6e2f\u6e7e\u7a7a\u6e2f\u6280\u8853\u8abf\u67fb\u4e8b\u52d9\u6240","boring_xml_url":0,"boring_view_url":0,"soilmap_view_url":66,"soiltest_xml_url":0,"soiltest_view_url":66},{"id":121574,"code":"B4KJ201801000-9823","latitude":"34.98925","longitude":"136.8328056","source_code":"PORT23001011533","project_name":"\u6e2f\u6e7e\u5c40","survey_name":"\u5e73\u621018\u5e74\u5ea6\u540d\u53e4\u5c4b\u6e2f\u9ad8\u6f6e\u9632\u6ce2\u5824\u571f\u8cea\u8abf\u67fb\u5831\u544a\u66f8\u5e73\u621019\u5e741\u6708","client_name":"\u56fd\u571f\u4ea4\u901a\u7701\u4e2d\u90e8\u5730\u65b9\u6574\u5099\u5c40\u540d\u53e4\u5c4b\u6e2f\u6e7e\u7a7a\u6e2f\u6280\u8853\u8abf\u67fb\u4e8b\u52d9\u6240","boring_xml_url":0,"boring_view_url":0,"soilmap_view_url":66,"soiltest_xml_url":0,"soiltest_view_url":66},{"id":121573,"code":"B4KJ201801000-9822","latitude":"34.99019444","longitude":"136.8313333","source_code":"PORT23001011532","project_name":"\u6e2f\u6e7e\u5c40","survey_name":"\u5e73\u621018\u5e74\u5ea6\u540d\u53e4\u5c4b\u6e2f\u9ad8\u6f6e\u9632\u6ce2\u5824\u571f\u8cea\u8abf\u67fb\u5831\u544a\u66f8\u5e73\u621019\u5e741\u6708","client_name":"\u56fd\u571f\u4ea4\u901a\u7701\u4e2d\u90e8\u5730\u65b9\u6574\u5099\u5c40\u540d\u53e4\u5c4b\u6e2f\u6e7e\u7a7a\u6e2f\u6280\u8853\u8abf\u67fb\u4e8b\u52d9\u6240","boring_xml_url":0,"boring_view_url":0,"soilmap_view_url":66,"soiltest_xml_url":0,"soiltest_view_url":66},{"id":121572,"code":"B4KJ201801000-9821","latitude":"34.99216667","longitude":"136.8283333","source_code":"PORT23001011531","project_name":"\u6e2f\u6e7e\u5c40","survey_name":"\u5e73\u621018\u5e74\u5ea6\u540d\u53e4\u5c4b\u6e2f\u9ad8\u6f6e\u9632\u6ce2\u5824\u571f\u8cea\u8abf\u67fb\u5831\u544a\u66f8\u5e73\u621019\u5e741\u6708","client_name":"\u56fd\u571f\u4ea4\u901a\u7701\u4e2d\u90e8\u5730\u65b9\u6574\u5099\u5c40\u540d\u53e4\u5c4b\u6e2f\u6e7e\u7a7a\u6e2f\u6280\u8853\u8abf\u67fb\u4e8b\u52d9\u6240","boring_xml_url":0,"boring_view_url":0,"soilmap_view_url":66,"soiltest_xml_url":0,"soiltest_view_url":66},{"id":121571,"code":"B4KJ201801000-9820","latitude":"35.0145","longitude":"136.8204722","source_code":"PORT23001011530","project_name":"\u6e2f\u6e7e\u5c40","survey_name":"\u5e73\u621020\u5e74\u5ea6\u540d\u53e4\u5c4b\u6e2f\u7b2c2\u30dd\u30fc\u30c8\u30a2\u30a4\u30e9\u30f3\u30c9\u571f\u8cea\u8abf\u67fb\u5831\u544a\u66f8","client_name":"\u56fd\u571f\u4ea4\u901a\u7701\u4e2d\u90e8\u5730\u65b9\u6574\u5099\u5c40\u540d\u53e4\u5c4b\u6e2f\u6e7e\u7a7a\u6e2f\u6280\u8853\u8abf\u67fb\u4e8b\u52d9\u6240","boring_xml_url":0,"boring_view_url":0,"soilmap_view_url":66,"soiltest_xml_url":0,"soiltest_view_url":66},{"id":121570,"code":"B4KJ201801000-9819","latitude":"35.01536111","longitude":"136.81575","source_code":"PORT23001011529","project_name":"\u6e2f\u6e7e\u5c40","survey_name":"\u5e73\u621020\u5e74\u5ea6\u540d\u53e4\u5c4b\u6e2f\u7b2c2\u30dd\u30fc\u30c8\u30a2\u30a4\u30e9\u30f3\u30c9\u571f\u8cea\u8abf\u67fb\u5831\u544a\u66f8","client_name":"\u56fd\u571f\u4ea4\u901a\u7701\u4e2d\u90e8\u5730\u65b9\u6574\u5099\u5c40\u540d\u53e4\u5c4b\u6e2f\u6e7e\u7a7a\u6e2f\u6280\u8853\u8abf\u67fb\u4e8b\u52d9\u6240","boring_xml_url":0,"boring_view_url":0,"soilmap_view_url":66,"soiltest_xml_url":0,"soiltest_view_url":66},{"id":121569,"code":"B4KJ201801000-9818","latitude":"35.00997222","longitude":"136.81975","source_code":"PORT23001011528","project_name":"\u6e2f\u6e7e\u5c40","survey_name":"\u5e73\u621020\u5e74\u5ea6\u540d\u53e4\u5c4b\u6e2f\u7b2c2\u30dd\u30fc\u30c8\u30a2\u30a4\u30e9\u30f3\u30c9\u571f\u8cea\u8abf\u67fb\u5831\u544a\u66f8","client_name":"\u56fd\u571f\u4ea4\u901a\u7701\u4e2d\u90e8\u5730\u65b9\u6574\u5099\u5c40\u540d\u53e4\u5c4b\u6e2f\u6e7e\u7a7a\u6e2f\u6280\u8853\u8abf\u67fb\u4e8b\u52d9\u6240","boring_xml_url":0,"boring_view_url":0,"soilmap_view_url":66,"soiltest_xml_url":0,"soiltest_view_url":66},{"id":121568,"code":"B4KJ201801000-9817","latitude":"35.01358333","longitude":"136.8201667","source_code":"PORT23001011527","project_name":"\u6e2f\u6e7e\u5c40","survey_name":"\u5e73\u621020\u5e74\u5ea6\u540d\u53e4\u5c4b\u6e2f\u7b2c2\u30dd\u30fc\u30c8\u30a2\u30a4\u30e9\u30f3\u30c9\u571f\u8cea\u8abf\u67fb\u5831\u544a\u66f8","client_name":"\u56fd\u571f\u4ea4\u901a\u7701\u4e2d\u90e8\u5730\u65b9\u6574\u5099\u5c40\u540d\u53e4\u5c4b\u6e2f\u6e7e\u7a7a\u6e2f\u6280\u8853\u8abf\u67fb\u4e8b\u52d9\u6240","boring_xml_url":0,"boring_view_url":0,"soilmap_view_url":66,"soiltest_xml_url":0,"soiltest_view_url":66},{"id":121567,"code":"B4KJ201801000-9816","latitude":"35.01608333","longitude":"136.8191111","source_code":"PORT23001011526","project_name":"\u6e2f\u6e7e\u5c40","survey_name":"\u5e73\u621020\u5e74\u5ea6\u540d\u53e4\u5c4b\u6e2f\u7b2c2\u30dd\u30fc\u30c8\u30a2\u30a4\u30e9\u30f3\u30c9\u571f\u8cea\u8abf\u67fb\u5831\u544a\u66f8","client_name":"\u56fd\u571f\u4ea4\u901a\u7701\u4e2d\u90e8\u5730\u65b9\u6574\u5099\u5c40\u540d\u53e4\u5c4b\u6e2f\u6e7e\u7a7a\u6e2f\u6280\u8853\u8abf\u67fb\u4e8b\u52d9\u6240","boring_xml_url":0,"boring_view_url":0,"soilmap_view_url":66,"soiltest_xml_url":0,"soiltest_view_url":66},{"id":121566,"code":"B4KJ201801000-9815","latitude":"35.01463889","longitude":"136.815","source_code":"PORT23001011525","project_name":"\u6e2f\u6e7e\u5c40","survey_name":"\u5e73\u621020\u5e74\u5ea6\u540d\u53e4\u5c4b\u6e2f\u7b2c2\u30dd\u30fc\u30c8\u30a2\u30a4\u30e9\u30f3\u30c9\u571f\u8cea\u8abf\u67fb\u5831\u544a\u66f8","client_name":"\u56fd\u571f\u4ea4\u901a\u7701\u4e2d\u90e8\u5730\u65b9\u6574\u5099\u5c40\u540d\u53e4\u5c4b\u6e2f\u6e7e\u7a7a\u6e2f\u6280\u8853\u8abf\u67fb\u4e8b\u52d9\u6240","boring_xml_url":0,"boring_view_url":0,"soilmap_view_url":66,"soiltest_xml_url":0,"soiltest_view_url":66},{"id":121565,"code":"B4KJ201801000-9814","latitude":"35.01325","longitude":"136.8140833","source_code":"PORT23001011524","project_name":"\u6e2f\u6e7e\u5c40","survey_name":"\u5e73\u621020\u5e74\u5ea6\u540d\u53e4\u5c4b\u6e2f\u7b2c2\u30dd\u30fc\u30c8\u30a2\u30a4\u30e9\u30f3\u30c9\u571f\u8cea\u8abf\u67fb\u5831\u544a\u66f8","client_name":"\u56fd\u571f\u4ea4\u901a\u7701\u4e2d\u90e8\u5730\u65b9\u6574\u5099\u5c40\u540d\u53e4\u5c4b\u6e2f\u6e7e\u7a7a\u6e2f\u6280\u8853\u8abf\u67fb\u4e8b\u52d9\u6240","boring_xml_url":0,"boring_view_url":0,"soilmap_view_url":66,"soiltest_xml_url":0,"soiltest_view_url":66},{"id":121564,"code":"B4KJ201801000-9813","latitude":"35.02876111","longitude":"136.8278428","source_code":"PORT23001011523","project_name":"\u6e2f\u6e7e\u5c40","survey_name":"\u5e73\u621019\u5e74\u5ea6\u540d\u53e4\u5c4b\u6e2f\u98db\u5cf6\u57e0\u982d\u5357\u571f\u8cea\u8abf\u67fb\u5831\u544a\u66f8\u5e73\u621020\u5e74","client_name":"\u56fd\u571f\u4ea4\u901a\u7701\u4e2d\u90e8\u5730\u65b9\u6574\u5099\u5c40\u540d\u53e4\u5c4b\u6e2f\u6e7e\u7a7a\u6e2f\u6280\u8853\u8abf\u67fb\u4e8b\u52d9\u6240","boring_xml_url":0,"boring_view_url":0,"soilmap_view_url":66,"soiltest_xml_url":0,"soiltest_view_url":66},{"id":121563,"code":"B4KJ201801000-9812","latitude":"35.02827917","longitude":"136.8280969","source_code":"PORT23001011522","project_name":"\u6e2f\u6e7e\u5c40","survey_name":"\u5e73\u621019\u5e74\u5ea6\u540d\u53e4\u5c4b\u6e2f\u98db\u5cf6\u57e0\u982d\u5357\u571f\u8cea\u8abf\u67fb\u5831\u544a\u66f8\u5e73\u621020\u5e74","client_name":"\u56fd\u571f\u4ea4\u901a\u7701\u4e2d\u90e8\u5730\u65b9\u6574\u5099\u5c40\u540d\u53e4\u5c4b\u6e2f\u6e7e\u7a7a\u6e2f\u6280\u8853\u8abf\u67fb\u4e8b\u52d9\u6240","boring_xml_url":0,"boring_view_url":0,"soilmap_view_url":66,"soiltest_xml_url":0,"soiltest_view_url":66},{"id":121562,"code":"B4KJ201801000-9811","latitude":"35.02840876","longitude":"136.8286774","source_code":"PORT23001011521","project_name":"\u6e2f\u6e7e\u5c40","survey_name":"\u5e73\u621019\u5e74\u5ea6\u540d\u53e4\u5c4b\u6e2f\u98db\u5cf6\u57e0\u982d\u5357\u571f\u8cea\u8abf\u67fb\u5831\u544a\u66f8\u5e73\u621020\u5e74","client_name":"\u56fd\u571f\u4ea4\u901a\u7701\u4e2d\u90e8\u5730\u65b9\u6574\u5099\u5c40\u540d\u53e4\u5c4b\u6e2f\u6e7e\u7a7a\u6e2f\u6280\u8853\u8abf\u67fb\u4e8b\u52d9\u6240","boring_xml_url":0,"boring_view_url":0,"soilmap_view_url":66,"soiltest_xml_url":0,"soiltest_view_url":66},{"id":121561,"code":"B4KJ201801000-9810","latitude":"35.02810306","longitude":"136.8281539","source_code":"PORT23001011520","project_name":"\u6e2f\u6e7e\u5c40","survey_name":"\u5e73\u621019\u5e74\u5ea6\u540d\u53e4\u5c4b\u6e2f\u98db\u5cf6\u57e0\u982d\u5357\u571f\u8cea\u8abf\u67fb\u5831\u544a\u66f8\u5e73\u621020\u5e74","client_name":"\u56fd\u571f\u4ea4\u901a\u7701\u4e2d\u90e8\u5730\u65b9\u6574\u5099\u5c40\u540d\u53e4\u5c4b\u6e2f\u6e7e\u7a7a\u6e2f\u6280\u8853\u8abf\u67fb\u4e8b\u52d9\u6240","boring_xml_url":0,"boring_view_url":0,"soilmap_view_url":66,"soiltest_xml_url":0,"soiltest_view_url":66},{"id":121560,"code":"B4KJ201801000-9809","latitude":"35.02801194","longitude":"136.8276778","source_code":"PORT23001011519","project_name":"\u6e2f\u6e7e\u5c40","survey_name":"\u5e73\u621019\u5e74\u5ea6\u540d\u53e4\u5c4b\u6e2f\u98db\u5cf6\u57e0\u982d\u5357\u571f\u8cea\u8abf\u67fb\u5831\u544a\u66f8\u5e73\u621020\u5e74","client_name":"\u56fd\u571f\u4ea4\u901a\u7701\u4e2d\u90e8\u5730\u65b9\u6574\u5099\u5c40\u540d\u53e4\u5c4b\u6e2f\u6e7e\u7a7a\u6e2f\u6280\u8853\u8abf\u67fb\u4e8b\u52d9\u6240","boring_xml_url":0,"boring_view_url":0,"soilmap_view_url":66,"soiltest_xml_url":0,"soiltest_view_url":66},{"id":121559,"code":"B4KJ201801000-9808","latitude":"35.02875731","longitude":"136.8269212","source_code":"PORT23001011518","project_name":"\u6e2f\u6e7e\u5c40","survey_name":"\u5e73\u621018\u5e74\u5ea6\u540d\u53e4\u5c4b\u6e2f\u98db\u5cf6\u57e0\u982d\u5357\u571f\u8cea\u8abf\u67fb(\u305d\u306e2)\u5831\u544a\u66f8\u5e73","client_name":"\u56fd\u571f\u4ea4\u901a\u7701\u4e2d\u90e8\u5730\u65b9\u6574\u5099\u5c40\u540d\u53e4\u5c4b\u6e2f\u6e7e\u7a7a\u6e2f\u6280\u8853\u8abf\u67fb\u4e8b\u52d9\u6240","boring_xml_url":0,"boring_view_url":0,"soilmap_view_url":66,"soiltest_xml_url":0,"soiltest_view_url":66},{"id":121558,"code":"B4KJ201801000-9807","latitude":"35.02851674","longitude":"136.8270262","source_code":"PORT23001011517","project_name":"\u6e2f\u6e7e\u5c40","survey_name":"\u5e73\u621018\u5e74\u5ea6\u540d\u53e4\u5c4b\u6e2f\u98db\u5cf6\u57e0\u982d\u5357\u571f\u8cea\u8abf\u67fb(\u305d\u306e2)\u5831\u544a\u66f8\u5e73","client_name":"\u56fd\u571f\u4ea4\u901a\u7701\u4e2d\u90e8\u5730\u65b9\u6574\u5099\u5c40\u540d\u53e4\u5c4b\u6e2f\u6e7e\u7a7a\u6e2f\u6280\u8853\u8abf\u67fb\u4e8b\u52d9\u6240","boring_xml_url":0,"boring_view_url":0,"soilmap_view_url":66,"soiltest_xml_url":0,"soiltest_view_url":66},{"id":121557,"code":"B4KJ201801000-9806","latitude":"35.0288212","longitude":"136.8296567","source_code":"PORT23001011516","project_name":"\u6e2f\u6e7e\u5c40","survey_name":"\u5e73\u621018\u5e74\u5ea6\u540d\u53e4\u5c4b\u6e2f\u98db\u5cf6\u57e0\u982d\u5357\u571f\u8cea\u8abf\u67fb(\u305d\u306e2)\u5831\u544a\u66f8\u5e73","client_name":"\u56fd\u571f\u4ea4\u901a\u7701\u4e2d\u90e8\u5730\u65b9\u6574\u5099\u5c40\u540d\u53e4\u5c4b\u6e2f\u6e7e\u7a7a\u6e2f\u6280\u8853\u8abf\u67fb\u4e8b\u52d9\u6240","boring_xml_url":0,"boring_view_url":0,"soilmap_view_url":66,"soiltest_xml_url":0,"soiltest_view_url":66},{"id":121556,"code":"B4KJ201801000-9805","latitude":"35.02838553","longitude":"136.8270787","source_code":"PORT23001011515","project_name":"\u6e2f\u6e7e\u5c40","survey_name":"\u5e73\u621018\u5e74\u5ea6\u540d\u53e4\u5c4b\u6e2f\u98db\u5cf6\u57e0\u982d\u5357\u571f\u8cea\u8abf\u67fb(\u305d\u306e2)\u5831\u544a\u66f8\u5e73","client_name":"\u56fd\u571f\u4ea4\u901a\u7701\u4e2d\u90e8\u5730\u65b9\u6574\u5099\u5c40\u540d\u53e4\u5c4b\u6e2f\u6e7e\u7a7a\u6e2f\u6280\u8853\u8abf\u67fb\u4e8b\u52d9\u6240","boring_xml_url":0,"boring_view_url":0,"soilmap_view_url":66,"soiltest_xml_url":0,"soiltest_view_url":66}]}}