{"header":{"xyz":{"source":[],"mosaic":false},"page":6653,"raw":{"soiltest_result":"0","bbox":"57.598333,109.544722,1.933333,163.806111","page":"6653"},"conditions":{"soiltest_result":0,"north":57.598333,"west":109.544722,"south":1.933333,"east":163.806111},"success":true,"message":""},"data":{"meta":{"total":212844,"page":6653,"pages":7095,"count":30},"values":[{"id":120985,"code":"B4KJ201801000-9234","latitude":"34.99868372","longitude":"138.4977273","source_code":"PORT22001011618","project_name":"\u6e2f\u6e7e\u5c40","survey_name":"\u6e05\u6c34\u6e2f\u6751\u677e\u5730\u533a\u5730\u8cea\u8abf\u67fb","client_name":"\u56fd\u571f\u4ea4\u901a\u7701\u4e2d\u90e8\u5730\u65b9\u6574\u5099\u5c40\u540d\u53e4\u5c4b\u6e2f\u6e7e\u7a7a\u6e2f\u6280\u8853\u8abf\u67fb\u4e8b\u52d9\u6240","boring_xml_url":0,"boring_view_url":0,"soilmap_view_url":66,"soiltest_xml_url":0,"soiltest_view_url":66},{"id":120984,"code":"B4KJ201801000-9233","latitude":"34.99895236","longitude":"138.4979345","source_code":"PORT22001011617","project_name":"\u6e2f\u6e7e\u5c40","survey_name":"\u6e05\u6c34\u6e2f\u6751\u677e\u5730\u533a\u5730\u8cea\u8abf\u67fb","client_name":"\u56fd\u571f\u4ea4\u901a\u7701\u4e2d\u90e8\u5730\u65b9\u6574\u5099\u5c40\u540d\u53e4\u5c4b\u6e2f\u6e7e\u7a7a\u6e2f\u6280\u8853\u8abf\u67fb\u4e8b\u52d9\u6240","boring_xml_url":0,"boring_view_url":0,"soilmap_view_url":66,"soiltest_xml_url":0,"soiltest_view_url":66},{"id":120983,"code":"B4KJ201801000-9232","latitude":"34.99895236","longitude":"138.4977273","source_code":"PORT22001011616","project_name":"\u6e2f\u6e7e\u5c40","survey_name":"\u6e05\u6c34\u6e2f\u6751\u677e\u5730\u533a\u5730\u8cea\u8abf\u67fb","client_name":"\u56fd\u571f\u4ea4\u901a\u7701\u4e2d\u90e8\u5730\u65b9\u6574\u5099\u5c40\u540d\u53e4\u5c4b\u6e2f\u6e7e\u7a7a\u6e2f\u6280\u8853\u8abf\u67fb\u4e8b\u52d9\u6240","boring_xml_url":0,"boring_view_url":0,"soilmap_view_url":66,"soiltest_xml_url":0,"soiltest_view_url":66},{"id":120982,"code":"B4KJ201801000-9231","latitude":"34.99894119","longitude":"138.4974924","source_code":"PORT22001011615","project_name":"\u6e2f\u6e7e\u5c40","survey_name":"\u6e05\u6c34\u6e2f\u6751\u677e\u5730\u533a\u5730\u8cea\u8abf\u67fb","client_name":"\u56fd\u571f\u4ea4\u901a\u7701\u4e2d\u90e8\u5730\u65b9\u6574\u5099\u5c40\u540d\u53e4\u5c4b\u6e2f\u6e7e\u7a7a\u6e2f\u6280\u8853\u8abf\u67fb\u4e8b\u52d9\u6240","boring_xml_url":0,"boring_view_url":0,"soilmap_view_url":66,"soiltest_xml_url":0,"soiltest_view_url":66},{"id":120981,"code":"B4KJ201801000-9230","latitude":"34.99920983","longitude":"138.4977273","source_code":"PORT22001011614","project_name":"\u6e2f\u6e7e\u5c40","survey_name":"\u6e05\u6c34\u6e2f\u6751\u677e\u5730\u533a\u5730\u8cea\u8abf\u67fb","client_name":"\u56fd\u571f\u4ea4\u901a\u7701\u4e2d\u90e8\u5730\u65b9\u6574\u5099\u5c40\u540d\u53e4\u5c4b\u6e2f\u6e7e\u7a7a\u6e2f\u6280\u8853\u8abf\u67fb\u4e8b\u52d9\u6240","boring_xml_url":0,"boring_view_url":0,"soilmap_view_url":66,"soiltest_xml_url":0,"soiltest_view_url":66},{"id":120980,"code":"B4KJ201801000-9229","latitude":"34.99943369","longitude":"138.4979069","source_code":"PORT22001011613","project_name":"\u6e2f\u6e7e\u5c40","survey_name":"\u6e05\u6c34\u6e2f\u6751\u677e\u5730\u533a\u5730\u8cea\u8abf\u67fb","client_name":"\u56fd\u571f\u4ea4\u901a\u7701\u4e2d\u90e8\u5730\u65b9\u6574\u5099\u5c40\u540d\u53e4\u5c4b\u6e2f\u6e7e\u7a7a\u6e2f\u6280\u8853\u8abf\u67fb\u4e8b\u52d9\u6240","boring_xml_url":0,"boring_view_url":0,"soilmap_view_url":66,"soiltest_xml_url":0,"soiltest_view_url":66},{"id":120979,"code":"B4KJ201801000-9228","latitude":"34.99943372","longitude":"138.4975063","source_code":"PORT22001011612","project_name":"\u6e2f\u6e7e\u5c40","survey_name":"\u6e05\u6c34\u6e2f\u6751\u677e\u5730\u533a\u5730\u8cea\u8abf\u67fb","client_name":"\u56fd\u571f\u4ea4\u901a\u7701\u4e2d\u90e8\u5730\u65b9\u6574\u5099\u5c40\u540d\u53e4\u5c4b\u6e2f\u6e7e\u7a7a\u6e2f\u6280\u8853\u8abf\u67fb\u4e8b\u52d9\u6240","boring_xml_url":0,"boring_view_url":0,"soilmap_view_url":66,"soiltest_xml_url":0,"soiltest_view_url":66},{"id":120978,"code":"B4KJ201801000-9227","latitude":"35.00934622","longitude":"138.5181123","source_code":"PORT22001011611","project_name":"\u6e2f\u6e7e\u5c40","survey_name":"\u4e09\u4fdd\u51fd\u584a\u88fd\u4f5c\u5834\u7bc9\u9020\u5de5\u4e8b\u5730\u8cea\u8abf\u67fb\u5831\u544a\u66f8","client_name":"\u56fd\u571f\u4ea4\u901a\u7701\u4e2d\u90e8\u5730\u65b9\u6574\u5099\u5c40\u540d\u53e4\u5c4b\u6e2f\u6e7e\u7a7a\u6e2f\u6280\u8853\u8abf\u67fb\u4e8b\u52d9\u6240","boring_xml_url":0,"boring_view_url":0,"soilmap_view_url":66,"soiltest_xml_url":0,"soiltest_view_url":66},{"id":120977,"code":"B4KJ201801000-9226","latitude":"35.00966096","longitude":"138.5185004","source_code":"PORT22001011610","project_name":"\u6e2f\u6e7e\u5c40","survey_name":"\u4e09\u4fdd\u51fd\u584a\u88fd\u4f5c\u5834\u7bc9\u9020\u5de5\u4e8b\u5730\u8cea\u8abf\u67fb\u5831\u544a\u66f8","client_name":"\u56fd\u571f\u4ea4\u901a\u7701\u4e2d\u90e8\u5730\u65b9\u6574\u5099\u5c40\u540d\u53e4\u5c4b\u6e2f\u6e7e\u7a7a\u6e2f\u6280\u8853\u8abf\u67fb\u4e8b\u52d9\u6240","boring_xml_url":0,"boring_view_url":0,"soilmap_view_url":66,"soiltest_xml_url":0,"soiltest_view_url":66},{"id":120976,"code":"B4KJ201801000-9225","latitude":"35.03975","longitude":"138.5180556","source_code":"PORT22001011608","project_name":"\u6e2f\u6e7e\u5c40","survey_name":"\u5e73\u621019\u5e74\u5ea6\u6e05\u6c34\u6e2f\u30b9\u30e9\u30b0\u786c\u5316\u7279\u6027\u628a\u63e1\u8abf\u67fb","client_name":"\u56fd\u571f\u4ea4\u901a\u7701\u4e2d\u90e8\u5730\u65b9\u6574\u5099\u5c40\u540d\u53e4\u5c4b\u6e2f\u6e7e\u7a7a\u6e2f\u6280\u8853\u8abf\u67fb\u4e8b\u52d9\u6240","boring_xml_url":0,"boring_view_url":0,"soilmap_view_url":66,"soiltest_xml_url":0,"soiltest_view_url":66},{"id":120975,"code":"B4KJ201801000-9224","latitude":"35.00933333","longitude":"138.4981667","source_code":"PORT22001011607","project_name":"\u6e2f\u6e7e\u5c40","survey_name":"\u5e73\u621018\u5e74\u5ea6\u6e05\u6c34\u6e2f\u65e5\u306e\u51fa\u5cb8\u58c1\u571f\u8cea\u8abf\u67fb\u5831\u544a\u66f8\u5e73\u621019\u5e743\u6708","client_name":"\u56fd\u571f\u4ea4\u901a\u7701\u4e2d\u90e8\u5730\u65b9\u6574\u5099\u5c40\u540d\u53e4\u5c4b\u6e2f\u6e7e\u7a7a\u6e2f\u6280\u8853\u8abf\u67fb\u4e8b\u52d9\u6240","boring_xml_url":0,"boring_view_url":0,"soilmap_view_url":66,"soiltest_xml_url":0,"soiltest_view_url":66},{"id":120974,"code":"B4KJ201801000-9223","latitude":"35.00833333","longitude":"138.4981667","source_code":"PORT22001011606","project_name":"\u6e2f\u6e7e\u5c40","survey_name":"\u5e73\u621018\u5e74\u5ea6\u6e05\u6c34\u6e2f\u65e5\u306e\u51fa\u5cb8\u58c1\u571f\u8cea\u8abf\u67fb\u5831\u544a\u66f8\u5e73\u621019\u5e743\u6708","client_name":"\u56fd\u571f\u4ea4\u901a\u7701\u4e2d\u90e8\u5730\u65b9\u6574\u5099\u5c40\u540d\u53e4\u5c4b\u6e2f\u6e7e\u7a7a\u6e2f\u6280\u8853\u8abf\u67fb\u4e8b\u52d9\u6240","boring_xml_url":0,"boring_view_url":0,"soilmap_view_url":66,"soiltest_xml_url":0,"soiltest_view_url":66},{"id":120973,"code":"B4KJ201801000-9222","latitude":"35.00736043","longitude":"138.4981646","source_code":"PORT22001011605","project_name":"\u6e2f\u6e7e\u5c40","survey_name":"\u5e73\u621018\u5e74\u5ea6\u6e05\u6c34\u6e2f\u65e5\u306e\u51fa\u5cb8\u58c1\u571f\u8cea\u8abf\u67fb\u5831\u544a\u66f8\u5e73\u621019\u5e743\u6708","client_name":"\u56fd\u571f\u4ea4\u901a\u7701\u4e2d\u90e8\u5730\u65b9\u6574\u5099\u5c40\u540d\u53e4\u5c4b\u6e2f\u6e7e\u7a7a\u6e2f\u6280\u8853\u8abf\u67fb\u4e8b\u52d9\u6240","boring_xml_url":0,"boring_view_url":0,"soilmap_view_url":66,"soiltest_xml_url":0,"soiltest_view_url":66},{"id":120972,"code":"B4KJ201801000-9221","latitude":"35.00630556","longitude":"138.4981667","source_code":"PORT22001011604","project_name":"\u6e2f\u6e7e\u5c40","survey_name":"\u5e73\u621018\u5e74\u5ea6\u6e05\u6c34\u6e2f\u65e5\u306e\u51fa\u5cb8\u58c1\u571f\u8cea\u8abf\u67fb\u5831\u544a\u66f8\u5e73\u621019\u5e743\u6708","client_name":"\u56fd\u571f\u4ea4\u901a\u7701\u4e2d\u90e8\u5730\u65b9\u6574\u5099\u5c40\u540d\u53e4\u5c4b\u6e2f\u6e7e\u7a7a\u6e2f\u6280\u8853\u8abf\u67fb\u4e8b\u52d9\u6240","boring_xml_url":0,"boring_view_url":0,"soilmap_view_url":66,"soiltest_xml_url":0,"soiltest_view_url":66},{"id":120971,"code":"B4KJ201801000-9220","latitude":"35.03194444","longitude":"138.5061111","source_code":"PORT22001011603","project_name":"\u6e2f\u6e7e\u5c40","survey_name":"\u5e73\u621018\u5e74\u5ea6\u6e05\u6c34\u6e2f\u5730\u76e4\u6027\u72b6\u8abf\u67fb","client_name":"\u56fd\u571f\u4ea4\u901a\u7701\u4e2d\u90e8\u5730\u65b9\u6574\u5099\u5c40\u540d\u53e4\u5c4b\u6e2f\u6e7e\u7a7a\u6e2f\u6280\u8853\u8abf\u67fb\u4e8b\u52d9\u6240","boring_xml_url":0,"boring_view_url":0,"soilmap_view_url":66,"soiltest_xml_url":0,"soiltest_view_url":66},{"id":120970,"code":"B4KJ201801000-9219","latitude":"35.04032468","longitude":"138.5264558","source_code":"PORT22001011602","project_name":"\u6e2f\u6e7e\u5c40","survey_name":"\u5e73\u621016\u5e74\u5ea6\u6e05\u6c34\u6e2f\u9632\u6ce2\u5824\u571f\u8cea\u8abf\u67fb\u5831\u544a\u66f8\u5e73\u621017\u5e741\u6708","client_name":"\u56fd\u571f\u4ea4\u901a\u7701\u4e2d\u90e8\u5730\u65b9\u6574\u5099\u5c40\u540d\u53e4\u5c4b\u6e2f\u6e7e\u7a7a\u6e2f\u6280\u8853\u8abf\u67fb\u4e8b\u52d9\u6240","boring_xml_url":0,"boring_view_url":0,"soilmap_view_url":66,"soiltest_xml_url":0,"soiltest_view_url":66},{"id":120969,"code":"B4KJ201801000-9218","latitude":"35.04102778","longitude":"138.5275","source_code":"PORT22001011601","project_name":"\u6e2f\u6e7e\u5c40","survey_name":"\u5e73\u621016\u5e74\u5ea6\u6e05\u6c34\u6e2f\u9632\u6ce2\u5824\u571f\u8cea\u8abf\u67fb\u5831\u544a\u66f8\u5e73\u621017\u5e741\u6708","client_name":"\u56fd\u571f\u4ea4\u901a\u7701\u4e2d\u90e8\u5730\u65b9\u6574\u5099\u5c40\u540d\u53e4\u5c4b\u6e2f\u6e7e\u7a7a\u6e2f\u6280\u8853\u8abf\u67fb\u4e8b\u52d9\u6240","boring_xml_url":0,"boring_view_url":0,"soilmap_view_url":66,"soiltest_xml_url":0,"soiltest_view_url":66},{"id":120968,"code":"B4KJ201801000-9217","latitude":"35.00662717","longitude":"138.4960682","source_code":"PORT22001010166","project_name":"\u6e2f\u6e7e\u5c40","survey_name":"\u5e73\u621011\u5e74\u5ea6\u6e05\u6c34\u6e2f\u5e81\u820e\u571f\u8cea\u8abf\u67fb","client_name":"\u56fd\u571f\u4ea4\u901a\u7701\u4e2d\u90e8\u5730\u65b9\u6574\u5099\u5c40\u540d\u53e4\u5c4b\u6e2f\u6e7e\u7a7a\u6e2f\u6280\u8853\u8abf\u67fb\u4e8b\u52d9\u6240","boring_xml_url":0,"boring_view_url":0,"soilmap_view_url":66,"soiltest_xml_url":0,"soiltest_view_url":66},{"id":120967,"code":"B4KJ201801000-9216","latitude":"35.03356864","longitude":"138.5182877","source_code":"PORT22001010164","project_name":"\u6e2f\u6e7e\u5c40","survey_name":"\u5e73\u621011\u5e74\u5ea6\u6e05\u6c34\u6e2f\u65b0\u8208\u6d25\u6cca\u5730(-15m)\u571f\u8cea\u8abf\u67fb\u5831\u544a\u66f8","client_name":"\u56fd\u571f\u4ea4\u901a\u7701\u4e2d\u90e8\u5730\u65b9\u6574\u5099\u5c40\u540d\u53e4\u5c4b\u6e2f\u6e7e\u7a7a\u6e2f\u6280\u8853\u8abf\u67fb\u4e8b\u52d9\u6240","boring_xml_url":0,"boring_view_url":0,"soilmap_view_url":66,"soiltest_xml_url":0,"soiltest_view_url":66},{"id":120966,"code":"B4KJ201801000-9215","latitude":"35.03801257","longitude":"138.5199541","source_code":"PORT22001010163","project_name":"\u6e2f\u6e7e\u5c40","survey_name":"\u5e73\u621011\u5e74\u5ea6\u6e05\u6c34\u6e2f\u65b0\u8208\u6d25\u6cca\u5730(-15m)\u571f\u8cea\u8abf\u67fb\u5831\u544a\u66f8","client_name":"\u56fd\u571f\u4ea4\u901a\u7701\u4e2d\u90e8\u5730\u65b9\u6574\u5099\u5c40\u540d\u53e4\u5c4b\u6e2f\u6e7e\u7a7a\u6e2f\u6280\u8853\u8abf\u67fb\u4e8b\u52d9\u6240","boring_xml_url":0,"boring_view_url":0,"soilmap_view_url":66,"soiltest_xml_url":0,"soiltest_view_url":66},{"id":120965,"code":"B4KJ201801000-9214","latitude":"35.04079001","longitude":"138.5202318","source_code":"PORT22001010162","project_name":"\u6e2f\u6e7e\u5c40","survey_name":"\u5e73\u621011\u5e74\u5ea6\u6e05\u6c34\u6e2f\u65b0\u8208\u6d25\u5cb8\u58c1(-15m)\u571f\u8cea\u8abf\u67fb\u5831\u544a\u66f8\u5e73","client_name":"\u56fd\u571f\u4ea4\u901a\u7701\u4e2d\u90e8\u5730\u65b9\u6574\u5099\u5c40\u540d\u53e4\u5c4b\u6e2f\u6e7e\u7a7a\u6e2f\u6280\u8853\u8abf\u67fb\u4e8b\u52d9\u6240","boring_xml_url":0,"boring_view_url":0,"soilmap_view_url":66,"soiltest_xml_url":0,"soiltest_view_url":66},{"id":120964,"code":"B4KJ201801000-9213","latitude":"35.03995677","longitude":"138.5193986","source_code":"PORT22001010161","project_name":"\u6e2f\u6e7e\u5c40","survey_name":"\u5e73\u621011\u5e74\u5ea6\u6e05\u6c34\u6e2f\u65b0\u8208\u6d25\u5cb8\u58c1(-15m)\u571f\u8cea\u8abf\u67fb\u5831\u544a\u66f8\u5e73","client_name":"\u56fd\u571f\u4ea4\u901a\u7701\u4e2d\u90e8\u5730\u65b9\u6574\u5099\u5c40\u540d\u53e4\u5c4b\u6e2f\u6e7e\u7a7a\u6e2f\u6280\u8853\u8abf\u67fb\u4e8b\u52d9\u6240","boring_xml_url":0,"boring_view_url":0,"soilmap_view_url":66,"soiltest_xml_url":0,"soiltest_view_url":66},{"id":120963,"code":"B4KJ201801000-9212","latitude":"35.039679","longitude":"138.5180099","source_code":"PORT22001010160","project_name":"\u6e2f\u6e7e\u5c40","survey_name":"\u5e73\u621011\u5e74\u5ea6\u6e05\u6c34\u6e2f\u65b0\u8208\u6d25\u5cb8\u58c1(-15m)\u571f\u8cea\u8abf\u67fb\u5831\u544a\u66f8\u5e73","client_name":"\u56fd\u571f\u4ea4\u901a\u7701\u4e2d\u90e8\u5730\u65b9\u6574\u5099\u5c40\u540d\u53e4\u5c4b\u6e2f\u6e7e\u7a7a\u6e2f\u6280\u8853\u8abf\u67fb\u4e8b\u52d9\u6240","boring_xml_url":0,"boring_view_url":0,"soilmap_view_url":66,"soiltest_xml_url":0,"soiltest_view_url":66},{"id":120962,"code":"B4KJ201801000-9211","latitude":"35.03912353","longitude":"138.5188431","source_code":"PORT22001010159","project_name":"\u6e2f\u6e7e\u5c40","survey_name":"\u5e73\u621011\u5e74\u5ea6\u6e05\u6c34\u6e2f\u65b0\u8208\u6d25\u5cb8\u58c1(-15m)\u571f\u8cea\u8abf\u67fb\u5831\u544a\u66f8\u5e73","client_name":"\u56fd\u571f\u4ea4\u901a\u7701\u4e2d\u90e8\u5730\u65b9\u6574\u5099\u5c40\u540d\u53e4\u5c4b\u6e2f\u6e7e\u7a7a\u6e2f\u6280\u8853\u8abf\u67fb\u4e8b\u52d9\u6240","boring_xml_url":0,"boring_view_url":0,"soilmap_view_url":66,"soiltest_xml_url":0,"soiltest_view_url":66},{"id":120961,"code":"B4KJ201801000-9210","latitude":"35.03884575","longitude":"138.5174544","source_code":"PORT22001010158","project_name":"\u6e2f\u6e7e\u5c40","survey_name":"\u5e73\u621011\u5e74\u5ea6\u6e05\u6c34\u6e2f\u65b0\u8208\u6d25\u5cb8\u58c1(-15m)\u571f\u8cea\u8abf\u67fb\u5831\u544a\u66f8\u5e73","client_name":"\u56fd\u571f\u4ea4\u901a\u7701\u4e2d\u90e8\u5730\u65b9\u6574\u5099\u5c40\u540d\u53e4\u5c4b\u6e2f\u6e7e\u7a7a\u6e2f\u6280\u8853\u8abf\u67fb\u4e8b\u52d9\u6240","boring_xml_url":0,"boring_view_url":0,"soilmap_view_url":66,"soiltest_xml_url":0,"soiltest_view_url":66},{"id":120960,"code":"B4KJ201801000-9209","latitude":"35.01495961","longitude":"138.5055116","source_code":"PORT22001010157","project_name":"\u6e2f\u6e7e\u5c40","survey_name":"\u5e73\u621010\u5e74\u5ea6\u6e05\u6c34\u6e2f\u571f\u8cea\u8abf\u67fb\u5831\u544a\u66f8\u5e73\u621011\u5e743\u6708","client_name":"\u56fd\u571f\u4ea4\u901a\u7701\u4e2d\u90e8\u5730\u65b9\u6574\u5099\u5c40\u540d\u53e4\u5c4b\u6e2f\u6e7e\u7a7a\u6e2f\u6280\u8853\u8abf\u67fb\u4e8b\u52d9\u6240","boring_xml_url":0,"boring_view_url":0,"soilmap_view_url":66,"soiltest_xml_url":0,"soiltest_view_url":66},{"id":120959,"code":"B4KJ201801000-9208","latitude":"35.01495961","longitude":"138.5049561","source_code":"PORT22001010156","project_name":"\u6e2f\u6e7e\u5c40","survey_name":"\u5e73\u621010\u5e74\u5ea6\u6e05\u6c34\u6e2f\u571f\u8cea\u8abf\u67fb\u5831\u544a\u66f8\u5e73\u621011\u5e743\u6708","client_name":"\u56fd\u571f\u4ea4\u901a\u7701\u4e2d\u90e8\u5730\u65b9\u6574\u5099\u5c40\u540d\u53e4\u5c4b\u6e2f\u6e7e\u7a7a\u6e2f\u6280\u8853\u8abf\u67fb\u4e8b\u52d9\u6240","boring_xml_url":0,"boring_view_url":0,"soilmap_view_url":66,"soiltest_xml_url":0,"soiltest_view_url":66},{"id":120958,"code":"B4KJ201801000-9207","latitude":"35.01414463","longitude":"138.5176736","source_code":"PORT22001010155","project_name":"\u6e2f\u6e7e\u5c40","survey_name":"\u5e73\u621010\u5e74\u5ea6\u6e05\u6c34\u6e2f\u4e09\u4fdd\u30b1\u30fc\u30bd\u30f3\u88fd\u4f5c\u5834\u571f\u8cea\u8abf\u67fb\u5831\u544a\u66f8\u5e73\u62101","client_name":"\u56fd\u571f\u4ea4\u901a\u7701\u4e2d\u90e8\u5730\u65b9\u6574\u5099\u5c40\u540d\u53e4\u5c4b\u6e2f\u6e7e\u7a7a\u6e2f\u6280\u8853\u8abf\u67fb\u4e8b\u52d9\u6240","boring_xml_url":0,"boring_view_url":0,"soilmap_view_url":66,"soiltest_xml_url":0,"soiltest_view_url":66},{"id":120957,"code":"B4KJ201801000-9206","latitude":"35.01414466","longitude":"138.5175259","source_code":"PORT22001010154","project_name":"\u6e2f\u6e7e\u5c40","survey_name":"\u5e73\u621010\u5e74\u5ea6\u6e05\u6c34\u6e2f\u4e09\u4fdd\u30b1\u30fc\u30bd\u30f3\u88fd\u4f5c\u5834\u571f\u8cea\u8abf\u67fb\u5831\u544a\u66f8\u5e73\u62101","client_name":"\u56fd\u571f\u4ea4\u901a\u7701\u4e2d\u90e8\u5730\u65b9\u6574\u5099\u5c40\u540d\u53e4\u5c4b\u6e2f\u6e7e\u7a7a\u6e2f\u6280\u8853\u8abf\u67fb\u4e8b\u52d9\u6240","boring_xml_url":0,"boring_view_url":0,"soilmap_view_url":66,"soiltest_xml_url":0,"soiltest_view_url":66},{"id":120956,"code":"B4KJ201801000-9205","latitude":"35.01414471","longitude":"138.5172798","source_code":"PORT22001010153","project_name":"\u6e2f\u6e7e\u5c40","survey_name":"\u5e73\u621010\u5e74\u5ea6\u6e05\u6c34\u6e2f\u4e09\u4fdd\u30b1\u30fc\u30bd\u30f3\u88fd\u4f5c\u5834\u571f\u8cea\u8abf\u67fb\u5831\u544a\u66f8\u5e73\u62101","client_name":"\u56fd\u571f\u4ea4\u901a\u7701\u4e2d\u90e8\u5730\u65b9\u6574\u5099\u5c40\u540d\u53e4\u5c4b\u6e2f\u6e7e\u7a7a\u6e2f\u6280\u8853\u8abf\u67fb\u4e8b\u52d9\u6240","boring_xml_url":0,"boring_view_url":0,"soilmap_view_url":66,"soiltest_xml_url":0,"soiltest_view_url":66}]}}