{"header":{"xyz":{"source":[],"mosaic":false},"page":6668,"raw":{"soiltest_result":"0","bbox":"57.598333,109.544722,1.933333,163.806111","page":"6668"},"conditions":{"soiltest_result":0,"north":57.598333,"west":109.544722,"south":1.933333,"east":163.806111},"success":true,"message":""},"data":{"meta":{"total":212844,"page":6668,"pages":7095,"count":30},"values":[{"id":120535,"code":"B4KJ201801000-8784","latitude":"35.49798236","longitude":"139.7756614","source_code":"PORT14002010338","project_name":"\u6e2f\u6e7e\u5c40","survey_name":"\u662d\u548c63\u5e74\u5ea6\u5ddd\u5d0e\u6e2f\u6771\u6247\u5cf6\u5730\u533a\u5cb8\u58c1(-12m)\u571f\u8cea\u8abf\u67fb","client_name":"\u56fd\u571f\u4ea4\u901a\u7701\u95a2\u6771\u5730\u65b9\u6574\u5099\u5c40\u6a2a\u6d5c\u6e2f\u6e7e\u7a7a\u6e2f\u6280\u8853\u8abf\u67fb\u4e8b\u52d9\u6240","boring_xml_url":0,"boring_view_url":0,"soilmap_view_url":66,"soiltest_xml_url":0,"soiltest_view_url":66},{"id":120534,"code":"B4KJ201801000-8783","latitude":"35.49770459","longitude":"139.7748282","source_code":"PORT14002010337","project_name":"\u6e2f\u6e7e\u5c40","survey_name":"\u662d\u548c63\u5e74\u5ea6\u5ddd\u5d0e\u6e2f\u6771\u6247\u5cf6\u5730\u533a\u5cb8\u58c1(-12m)\u571f\u8cea\u8abf\u67fb","client_name":"\u56fd\u571f\u4ea4\u901a\u7701\u95a2\u6771\u5730\u65b9\u6574\u5099\u5c40\u6a2a\u6d5c\u6e2f\u6e7e\u7a7a\u6e2f\u6280\u8853\u8abf\u67fb\u4e8b\u52d9\u6240","boring_xml_url":0,"boring_view_url":0,"soilmap_view_url":66,"soiltest_xml_url":0,"soiltest_view_url":66},{"id":120533,"code":"B4KJ201801000-8782","latitude":"35.49714907","longitude":"139.7739949","source_code":"PORT14002010336","project_name":"\u6e2f\u6e7e\u5c40","survey_name":"\u662d\u548c63\u5e74\u5ea6\u5ddd\u5d0e\u6e2f\u6771\u6247\u5cf6\u5730\u533a\u5cb8\u58c1(-12m)\u571f\u8cea\u8abf\u67fb","client_name":"\u56fd\u571f\u4ea4\u901a\u7701\u95a2\u6771\u5730\u65b9\u6574\u5099\u5c40\u6a2a\u6d5c\u6e2f\u6e7e\u7a7a\u6e2f\u6280\u8853\u8abf\u67fb\u4e8b\u52d9\u6240","boring_xml_url":0,"boring_view_url":0,"soilmap_view_url":66,"soiltest_xml_url":0,"soiltest_view_url":66},{"id":120532,"code":"B4KJ201801000-8781","latitude":"35.49798234","longitude":"139.7751059","source_code":"PORT14002010335","project_name":"\u6e2f\u6e7e\u5c40","survey_name":"\u662d\u548c63\u5e74\u5ea6\u5ddd\u5d0e\u6e2f\u6771\u6247\u5cf6\u5730\u533a\u5cb8\u58c1(-12m)\u571f\u8cea\u8abf\u67fb","client_name":"\u56fd\u571f\u4ea4\u901a\u7701\u95a2\u6771\u5730\u65b9\u6574\u5099\u5c40\u6a2a\u6d5c\u6e2f\u6e7e\u7a7a\u6e2f\u6280\u8853\u8abf\u67fb\u4e8b\u52d9\u6240","boring_xml_url":0,"boring_view_url":0,"soilmap_view_url":66,"soiltest_xml_url":0,"soiltest_view_url":66},{"id":120531,"code":"B4KJ201801000-8780","latitude":"35.49770457","longitude":"139.7742727","source_code":"PORT14002010334","project_name":"\u6e2f\u6e7e\u5c40","survey_name":"\u662d\u548c63\u5e74\u5ea6\u5ddd\u5d0e\u6e2f\u6771\u6247\u5cf6\u5730\u533a\u5cb8\u58c1(-12m)\u571f\u8cea\u8abf\u67fb","client_name":"\u56fd\u571f\u4ea4\u901a\u7701\u95a2\u6771\u5730\u65b9\u6574\u5099\u5c40\u6a2a\u6d5c\u6e2f\u6e7e\u7a7a\u6e2f\u6280\u8853\u8abf\u67fb\u4e8b\u52d9\u6240","boring_xml_url":0,"boring_view_url":0,"soilmap_view_url":66,"soiltest_xml_url":0,"soiltest_view_url":66},{"id":120530,"code":"B4KJ201801000-8779","latitude":"35.49714905","longitude":"139.7731617","source_code":"PORT14002010333","project_name":"\u6e2f\u6e7e\u5c40","survey_name":"\u662d\u548c63\u5e74\u5ea6\u5ddd\u5d0e\u6e2f\u6771\u6247\u5cf6\u5730\u533a\u5cb8\u58c1(-12m)\u571f\u8cea\u8abf\u67fb","client_name":"\u56fd\u571f\u4ea4\u901a\u7701\u95a2\u6771\u5730\u65b9\u6574\u5099\u5c40\u6a2a\u6d5c\u6e2f\u6e7e\u7a7a\u6e2f\u6280\u8853\u8abf\u67fb\u4e8b\u52d9\u6240","boring_xml_url":0,"boring_view_url":0,"soilmap_view_url":66,"soiltest_xml_url":0,"soiltest_view_url":66},{"id":120529,"code":"B4KJ201801000-8778","latitude":"35.51131354","longitude":"139.7512185","source_code":"PORT14002010332","project_name":"\u6e2f\u6e7e\u5c40","survey_name":"\u662d\u548c61\u5e74\u5ea6\u5ddd\u5d0e\u6e2f\u5343\u9ce5\u753a\u5730\u533a\u5cb8\u58c1(-10m)\u571f\u8cea\u8abf\u67fb(\u305d\u306e2)","client_name":"\u56fd\u571f\u4ea4\u901a\u7701\u95a2\u6771\u5730\u65b9\u6574\u5099\u5c40\u6a2a\u6d5c\u6e2f\u6e7e\u7a7a\u6e2f\u6280\u8853\u8abf\u67fb\u4e8b\u52d9\u6240","boring_xml_url":0,"boring_view_url":0,"soilmap_view_url":66,"soiltest_xml_url":0,"soiltest_view_url":66},{"id":120528,"code":"B4KJ201801000-8777","latitude":"35.51298","longitude":"139.7506629","source_code":"PORT14002010331","project_name":"\u6e2f\u6e7e\u5c40","survey_name":"\u662d\u548c61\u5e74\u5ea6\u5ddd\u5d0e\u6e2f\u5343\u9ce5\u753a\u5730\u533a\u5cb8\u58c1(-10m)\u571f\u8cea\u8abf\u67fb(\u305d\u306e2)","client_name":"\u56fd\u571f\u4ea4\u901a\u7701\u95a2\u6771\u5730\u65b9\u6574\u5099\u5c40\u6a2a\u6d5c\u6e2f\u6e7e\u7a7a\u6e2f\u6280\u8853\u8abf\u67fb\u4e8b\u52d9\u6240","boring_xml_url":0,"boring_view_url":0,"soilmap_view_url":66,"soiltest_xml_url":0,"soiltest_view_url":66},{"id":120527,"code":"B4KJ201801000-8776","latitude":"35.51131353","longitude":"139.7509407","source_code":"PORT14002010330","project_name":"\u6e2f\u6e7e\u5c40","survey_name":"\u662d\u548c61\u5e74\u5ea6\u5ddd\u5d0e\u6e2f\u5343\u9ce5\u753a\u5730\u533a\u5cb8\u58c1(-10m)\u571f\u8cea\u8abf\u67fb(\u305d\u306e2)","client_name":"\u56fd\u571f\u4ea4\u901a\u7701\u95a2\u6771\u5730\u65b9\u6574\u5099\u5c40\u6a2a\u6d5c\u6e2f\u6e7e\u7a7a\u6e2f\u6280\u8853\u8abf\u67fb\u4e8b\u52d9\u6240","boring_xml_url":0,"boring_view_url":0,"soilmap_view_url":66,"soiltest_xml_url":0,"soiltest_view_url":66},{"id":120526,"code":"B4KJ201801000-8775","latitude":"35.51186903","longitude":"139.7509407","source_code":"PORT14002010329","project_name":"\u6e2f\u6e7e\u5c40","survey_name":"\u662d\u548c61\u5e74\u5ea6\u5ddd\u5d0e\u6e2f\u5343\u9ce5\u753a\u5730\u533a\u5cb8\u58c1(-10m)\u571f\u8cea\u8abf\u67fb(\u305d\u306e2)","client_name":"\u56fd\u571f\u4ea4\u901a\u7701\u95a2\u6771\u5730\u65b9\u6574\u5099\u5c40\u6a2a\u6d5c\u6e2f\u6e7e\u7a7a\u6e2f\u6280\u8853\u8abf\u67fb\u4e8b\u52d9\u6240","boring_xml_url":0,"boring_view_url":0,"soilmap_view_url":66,"soiltest_xml_url":0,"soiltest_view_url":66},{"id":120525,"code":"B4KJ201801000-8774","latitude":"35.51242451","longitude":"139.7506629","source_code":"PORT14002010328","project_name":"\u6e2f\u6e7e\u5c40","survey_name":"\u662d\u548c61\u5e74\u5ea6\u5ddd\u5d0e\u6e2f\u5343\u9ce5\u753a\u5730\u533a\u5cb8\u58c1(-10m)\u571f\u8cea\u8abf\u67fb(\u305d\u306e2)","client_name":"\u56fd\u571f\u4ea4\u901a\u7701\u95a2\u6771\u5730\u65b9\u6574\u5099\u5c40\u6a2a\u6d5c\u6e2f\u6e7e\u7a7a\u6e2f\u6280\u8853\u8abf\u67fb\u4e8b\u52d9\u6240","boring_xml_url":0,"boring_view_url":0,"soilmap_view_url":66,"soiltest_xml_url":0,"soiltest_view_url":66},{"id":120524,"code":"B4KJ201801000-8773","latitude":"35.51298","longitude":"139.7503852","source_code":"PORT14002010327","project_name":"\u6e2f\u6e7e\u5c40","survey_name":"\u662d\u548c61\u5e74\u5ea6\u5ddd\u5d0e\u6e2f\u5343\u9ce5\u753a\u5730\u533a\u5cb8\u58c1(-10m)\u571f\u8cea\u8abf\u67fb(\u305d\u306e2)","client_name":"\u56fd\u571f\u4ea4\u901a\u7701\u95a2\u6771\u5730\u65b9\u6574\u5099\u5c40\u6a2a\u6d5c\u6e2f\u6e7e\u7a7a\u6e2f\u6280\u8853\u8abf\u67fb\u4e8b\u52d9\u6240","boring_xml_url":0,"boring_view_url":0,"soilmap_view_url":66,"soiltest_xml_url":0,"soiltest_view_url":66},{"id":120523,"code":"B4KJ201801000-8772","latitude":"35.50909166","longitude":"139.7545516","source_code":"PORT14002010326","project_name":"\u6e2f\u6e7e\u5c40","survey_name":"\u662d\u548c61\u5e74\u5ea6\u5ddd\u5d0e\u6e2f\u5343\u9ce5\u753a\u5730\u533a\u5cb8\u58c1(-10m)\u571f\u8cea\u8abf\u67fb","client_name":"\u56fd\u571f\u4ea4\u901a\u7701\u95a2\u6771\u5730\u65b9\u6574\u5099\u5c40\u6a2a\u6d5c\u6e2f\u6e7e\u7a7a\u6e2f\u6280\u8853\u8abf\u67fb\u4e8b\u52d9\u6240","boring_xml_url":0,"boring_view_url":0,"soilmap_view_url":66,"soiltest_xml_url":0,"soiltest_view_url":66},{"id":120522,"code":"B4KJ201801000-8771","latitude":"35.50909169","longitude":"139.7559404","source_code":"PORT14002010325","project_name":"\u6e2f\u6e7e\u5c40","survey_name":"\u662d\u548c61\u5e74\u5ea6\u5ddd\u5d0e\u6e2f\u5343\u9ce5\u753a\u5730\u533a\u5cb8\u58c1(-10m)\u571f\u8cea\u8abf\u67fb","client_name":"\u56fd\u571f\u4ea4\u901a\u7701\u95a2\u6771\u5730\u65b9\u6574\u5099\u5c40\u6a2a\u6d5c\u6e2f\u6e7e\u7a7a\u6e2f\u6280\u8853\u8abf\u67fb\u4e8b\u52d9\u6240","boring_xml_url":0,"boring_view_url":0,"soilmap_view_url":66,"soiltest_xml_url":0,"soiltest_view_url":66},{"id":120521,"code":"B4KJ201801000-8770","latitude":"35.50909168","longitude":"139.7553849","source_code":"PORT14002010324","project_name":"\u6e2f\u6e7e\u5c40","survey_name":"\u662d\u548c61\u5e74\u5ea6\u5ddd\u5d0e\u6e2f\u5343\u9ce5\u753a\u5730\u533a\u5cb8\u58c1(-10m)\u571f\u8cea\u8abf\u67fb","client_name":"\u56fd\u571f\u4ea4\u901a\u7701\u95a2\u6771\u5730\u65b9\u6574\u5099\u5c40\u6a2a\u6d5c\u6e2f\u6e7e\u7a7a\u6e2f\u6280\u8853\u8abf\u67fb\u4e8b\u52d9\u6240","boring_xml_url":0,"boring_view_url":0,"soilmap_view_url":66,"soiltest_xml_url":0,"soiltest_view_url":66},{"id":120520,"code":"B4KJ201801000-8769","latitude":"35.50881392","longitude":"139.7548294","source_code":"PORT14002010323","project_name":"\u6e2f\u6e7e\u5c40","survey_name":"\u662d\u548c61\u5e74\u5ea6\u5ddd\u5d0e\u6e2f\u5343\u9ce5\u753a\u5730\u533a\u5cb8\u58c1(-10m)\u571f\u8cea\u8abf\u67fb","client_name":"\u56fd\u571f\u4ea4\u901a\u7701\u95a2\u6771\u5730\u65b9\u6574\u5099\u5c40\u6a2a\u6d5c\u6e2f\u6e7e\u7a7a\u6e2f\u6280\u8853\u8abf\u67fb\u4e8b\u52d9\u6240","boring_xml_url":0,"boring_view_url":0,"soilmap_view_url":66,"soiltest_xml_url":0,"soiltest_view_url":66},{"id":120519,"code":"B4KJ201801000-8768","latitude":"35.50853615","longitude":"139.7539962","source_code":"PORT14002010322","project_name":"\u6e2f\u6e7e\u5c40","survey_name":"\u662d\u548c61\u5e74\u5ea6\u5ddd\u5d0e\u6e2f\u5343\u9ce5\u753a\u5730\u533a\u5cb8\u58c1(-10m)\u571f\u8cea\u8abf\u67fb","client_name":"\u56fd\u571f\u4ea4\u901a\u7701\u95a2\u6771\u5730\u65b9\u6574\u5099\u5c40\u6a2a\u6d5c\u6e2f\u6e7e\u7a7a\u6e2f\u6280\u8853\u8abf\u67fb\u4e8b\u52d9\u6240","boring_xml_url":0,"boring_view_url":0,"soilmap_view_url":66,"soiltest_xml_url":0,"soiltest_view_url":66},{"id":120518,"code":"B4KJ201801000-8767","latitude":"35.49687127","longitude":"139.7720507","source_code":"PORT14002010321","project_name":"\u6e2f\u6e7e\u5c40","survey_name":"\u662d\u548c59\u5e74\u5ea6\u5ddd\u5d0e\u6e2f\u6247\u5cf6-12m\u5cb8\u58c1\u571f\u8cea\u8abf\u67fb","client_name":"\u56fd\u571f\u4ea4\u901a\u7701\u95a2\u6771\u5730\u65b9\u6574\u5099\u5c40\u6a2a\u6d5c\u6e2f\u6e7e\u7a7a\u6e2f\u6280\u8853\u8abf\u67fb\u4e8b\u52d9\u6240","boring_xml_url":0,"boring_view_url":0,"soilmap_view_url":66,"soiltest_xml_url":0,"soiltest_view_url":66},{"id":120517,"code":"B4KJ201801000-8766","latitude":"35.49687131","longitude":"139.7734394","source_code":"PORT14002010320","project_name":"\u6e2f\u6e7e\u5c40","survey_name":"\u662d\u548c59\u5e74\u5ea6\u5ddd\u5d0e\u6e2f\u6247\u5cf6-12m\u5cb8\u58c1\u571f\u8cea\u8abf\u67fb","client_name":"\u56fd\u571f\u4ea4\u901a\u7701\u95a2\u6771\u5730\u65b9\u6574\u5099\u5c40\u6a2a\u6d5c\u6e2f\u6e7e\u7a7a\u6e2f\u6280\u8853\u8abf\u67fb\u4e8b\u52d9\u6240","boring_xml_url":0,"boring_view_url":0,"soilmap_view_url":66,"soiltest_xml_url":0,"soiltest_view_url":66},{"id":120516,"code":"B4KJ201801000-8765","latitude":"35.4968713","longitude":"139.7731617","source_code":"PORT14002010319","project_name":"\u6e2f\u6e7e\u5c40","survey_name":"\u662d\u548c59\u5e74\u5ea6\u5ddd\u5d0e\u6e2f\u6247\u5cf6-12m\u5cb8\u58c1\u571f\u8cea\u8abf\u67fb","client_name":"\u56fd\u571f\u4ea4\u901a\u7701\u95a2\u6771\u5730\u65b9\u6574\u5099\u5c40\u6a2a\u6d5c\u6e2f\u6e7e\u7a7a\u6e2f\u6280\u8853\u8abf\u67fb\u4e8b\u52d9\u6240","boring_xml_url":0,"boring_view_url":0,"soilmap_view_url":66,"soiltest_xml_url":0,"soiltest_view_url":66},{"id":120515,"code":"B4KJ201801000-8764","latitude":"35.49631579","longitude":"139.7723284","source_code":"PORT14002010318","project_name":"\u6e2f\u6e7e\u5c40","survey_name":"\u662d\u548c59\u5e74\u5ea6\u5ddd\u5d0e\u6e2f\u6247\u5cf6-12m\u5cb8\u58c1\u571f\u8cea\u8abf\u67fb","client_name":"\u56fd\u571f\u4ea4\u901a\u7701\u95a2\u6771\u5730\u65b9\u6574\u5099\u5c40\u6a2a\u6d5c\u6e2f\u6e7e\u7a7a\u6e2f\u6280\u8853\u8abf\u67fb\u4e8b\u52d9\u6240","boring_xml_url":0,"boring_view_url":0,"soilmap_view_url":66,"soiltest_xml_url":0,"soiltest_view_url":66},{"id":120514,"code":"B4KJ201801000-8763","latitude":"35.49659353","longitude":"139.7723284","source_code":"PORT14002010317","project_name":"\u6e2f\u6e7e\u5c40","survey_name":"\u662d\u548c59\u5e74\u5ea6\u5ddd\u5d0e\u6e2f\u6247\u5cf6-12m\u5cb8\u58c1\u571f\u8cea\u8abf\u67fb","client_name":"\u56fd\u571f\u4ea4\u901a\u7701\u95a2\u6771\u5730\u65b9\u6574\u5099\u5c40\u6a2a\u6d5c\u6e2f\u6e7e\u7a7a\u6e2f\u6280\u8853\u8abf\u67fb\u4e8b\u52d9\u6240","boring_xml_url":0,"boring_view_url":0,"soilmap_view_url":66,"soiltest_xml_url":0,"soiltest_view_url":66},{"id":120513,"code":"B4KJ201801000-8762","latitude":"35.49603802","longitude":"139.7714952","source_code":"PORT14002010316","project_name":"\u6e2f\u6e7e\u5c40","survey_name":"\u662d\u548c59\u5e74\u5ea6\u5ddd\u5d0e\u6e2f\u6247\u5cf6-12m\u5cb8\u58c1\u571f\u8cea\u8abf\u67fb","client_name":"\u56fd\u571f\u4ea4\u901a\u7701\u95a2\u6771\u5730\u65b9\u6574\u5099\u5c40\u6a2a\u6d5c\u6e2f\u6e7e\u7a7a\u6e2f\u6280\u8853\u8abf\u67fb\u4e8b\u52d9\u6240","boring_xml_url":0,"boring_view_url":0,"soilmap_view_url":66,"soiltest_xml_url":0,"soiltest_view_url":66},{"id":120512,"code":"B4KJ201801000-8761","latitude":"35.49603801","longitude":"139.7712174","source_code":"PORT14002010315","project_name":"\u6e2f\u6e7e\u5c40","survey_name":"\u662d\u548c59\u5e74\u5ea6\u5ddd\u5d0e\u6e2f\u6247\u5cf6-12m\u5cb8\u58c1\u571f\u8cea\u8abf\u67fb","client_name":"\u56fd\u571f\u4ea4\u901a\u7701\u95a2\u6771\u5730\u65b9\u6574\u5099\u5c40\u6a2a\u6d5c\u6e2f\u6e7e\u7a7a\u6e2f\u6280\u8853\u8abf\u67fb\u4e8b\u52d9\u6240","boring_xml_url":0,"boring_view_url":0,"soilmap_view_url":66,"soiltest_xml_url":0,"soiltest_view_url":66},{"id":120511,"code":"B4KJ201801000-8760","latitude":"35.49437141","longitude":"139.7667734","source_code":"PORT14002010314","project_name":"\u6e2f\u6e7e\u5c40","survey_name":"\u662d\u548c58\u5e74\u5ea6\u5ddd\u5d0e\u6e2f\u6247\u5cf6-12m\u5cb8\u58c1\u571f\u8cea\u8abf\u67fb(\u305d\u306e2)","client_name":"\u56fd\u571f\u4ea4\u901a\u7701\u95a2\u6771\u5730\u65b9\u6574\u5099\u5c40\u6a2a\u6d5c\u6e2f\u6e7e\u7a7a\u6e2f\u6280\u8853\u8abf\u67fb\u4e8b\u52d9\u6240","boring_xml_url":0,"boring_view_url":0,"soilmap_view_url":66,"soiltest_xml_url":0,"soiltest_view_url":66},{"id":120510,"code":"B4KJ201801000-8759","latitude":"35.49409366","longitude":"139.7667734","source_code":"PORT14002010313","project_name":"\u6e2f\u6e7e\u5c40","survey_name":"\u662d\u548c58\u5e74\u5ea6\u5ddd\u5d0e\u6e2f\u6247\u5cf6-12m\u5cb8\u58c1\u571f\u8cea\u8abf\u67fb(\u305d\u306e1)","client_name":"\u56fd\u571f\u4ea4\u901a\u7701\u95a2\u6771\u5730\u65b9\u6574\u5099\u5c40\u6a2a\u6d5c\u6e2f\u6e7e\u7a7a\u6e2f\u6280\u8853\u8abf\u67fb\u4e8b\u52d9\u6240","boring_xml_url":0,"boring_view_url":0,"soilmap_view_url":66,"soiltest_xml_url":0,"soiltest_view_url":66},{"id":120509,"code":"B4KJ201801000-8758","latitude":"35.4938159","longitude":"139.7662179","source_code":"PORT14002010312","project_name":"\u6e2f\u6e7e\u5c40","survey_name":"\u662d\u548c57\u5e74\u5ea6\u5ddd\u5d0e\u6e2f\u6247\u5cf6-12m\u5cb8\u58c1\u571f\u8cea\u8abf\u67fb(\u305d\u306e2)","client_name":"\u56fd\u571f\u4ea4\u901a\u7701\u95a2\u6771\u5730\u65b9\u6574\u5099\u5c40\u6a2a\u6d5c\u6e2f\u6e7e\u7a7a\u6e2f\u6280\u8853\u8abf\u67fb\u4e8b\u52d9\u6240","boring_xml_url":0,"boring_view_url":0,"soilmap_view_url":66,"soiltest_xml_url":0,"soiltest_view_url":0},{"id":120508,"code":"B4KJ201801000-8757","latitude":"35.49381589","longitude":"139.7656624","source_code":"PORT14002010311","project_name":"\u6e2f\u6e7e\u5c40","survey_name":"\u662d\u548c57\u5e74\u5ea6\u5ddd\u5d0e\u6e2f\u6247\u5cf6-12m\u5cb8\u58c1\u571f\u8cea\u8abf\u67fb(\u305d\u306e2)","client_name":"\u56fd\u571f\u4ea4\u901a\u7701\u95a2\u6771\u5730\u65b9\u6574\u5099\u5c40\u6a2a\u6d5c\u6e2f\u6e7e\u7a7a\u6e2f\u6280\u8853\u8abf\u67fb\u4e8b\u52d9\u6240","boring_xml_url":0,"boring_view_url":0,"soilmap_view_url":66,"soiltest_xml_url":0,"soiltest_view_url":0},{"id":120507,"code":"B4KJ201801000-8756","latitude":"35.49353813","longitude":"139.7653847","source_code":"PORT14002010310","project_name":"\u6e2f\u6e7e\u5c40","survey_name":"\u662d\u548c57\u5e74\u5ea6\u5ddd\u5d0e\u6e2f\u6247\u5cf6-12m\u5cb8\u58c1\u571f\u8cea\u8abf\u67fb(\u305d\u306e2)","client_name":"\u56fd\u571f\u4ea4\u901a\u7701\u95a2\u6771\u5730\u65b9\u6574\u5099\u5c40\u6a2a\u6d5c\u6e2f\u6e7e\u7a7a\u6e2f\u6280\u8853\u8abf\u67fb\u4e8b\u52d9\u6240","boring_xml_url":0,"boring_view_url":0,"soilmap_view_url":66,"soiltest_xml_url":0,"soiltest_view_url":0},{"id":120506,"code":"B4KJ201801000-8755","latitude":"35.49326037","longitude":"139.7648292","source_code":"PORT14002010309","project_name":"\u6e2f\u6e7e\u5c40","survey_name":"\u662d\u548c57\u5e74\u5ea6\u5ddd\u5d0e\u6e2f\u6247\u5cf6-12m\u5cb8\u58c1\u571f\u8cea\u8abf\u67fb(\u305d\u306e2)","client_name":"\u56fd\u571f\u4ea4\u901a\u7701\u95a2\u6771\u5730\u65b9\u6574\u5099\u5c40\u6a2a\u6d5c\u6e2f\u6e7e\u7a7a\u6e2f\u6280\u8853\u8abf\u67fb\u4e8b\u52d9\u6240","boring_xml_url":0,"boring_view_url":0,"soilmap_view_url":66,"soiltest_xml_url":0,"soiltest_view_url":0}]}}