{"header":{"xyz":{"source":[],"mosaic":false},"page":6675,"raw":{"soiltest_result":"0","bbox":"57.598333,109.544722,1.933333,163.806111","page":"6675"},"conditions":{"soiltest_result":0,"north":57.598333,"west":109.544722,"south":1.933333,"east":163.806111},"success":true,"message":""},"data":{"meta":{"total":212844,"page":6675,"pages":7095,"count":30},"values":[{"id":120325,"code":"B4KJ201801000-8574","latitude":"35.50992501","longitude":"139.7589957","source_code":"PORT14002010127","project_name":"\u6e2f\u6e7e\u5c40","survey_name":"\u662d\u548c48\u5e74\u5ea6\u5ddd\u5d0e\u6e2f\u6d77\u5e95\u30c8\u30f3\u30cd\u30eb\u65ad\u5c64\u8abf\u67fb\u691c\u8a0e\u7528\u571f\u8cea\u8abf\u67fb\u5de5\u4e8b","client_name":"\u56fd\u571f\u4ea4\u901a\u7701\u95a2\u6771\u5730\u65b9\u6574\u5099\u5c40\u6a2a\u6d5c\u6e2f\u6e7e\u7a7a\u6e2f\u6280\u8853\u8abf\u67fb\u4e8b\u52d9\u6240","boring_xml_url":0,"boring_view_url":0,"soilmap_view_url":66,"soiltest_xml_url":0,"soiltest_view_url":66},{"id":120324,"code":"B4KJ201801000-8573","latitude":"35.51048051","longitude":"139.7589957","source_code":"PORT14002010126","project_name":"\u6e2f\u6e7e\u5c40","survey_name":"\u662d\u548c47\u5e74\u5ea6\u5ddd\u5d0e\u6e2f\u6d77\u5e95\u30c8\u30f3\u30cd\u30eb\u65ad\u5c64\u8abf\u67fb\u691c\u8a0e\u7528\u571f\u8cea\u8abf\u67fb\u5de5\u4e8b","client_name":"\u56fd\u571f\u4ea4\u901a\u7701\u95a2\u6771\u5730\u65b9\u6574\u5099\u5c40\u6a2a\u6d5c\u6e2f\u6e7e\u7a7a\u6e2f\u6280\u8853\u8abf\u67fb\u4e8b\u52d9\u6240","boring_xml_url":0,"boring_view_url":0,"soilmap_view_url":66,"soiltest_xml_url":0,"soiltest_view_url":66},{"id":120323,"code":"B4KJ201801000-8572","latitude":"35.48576114","longitude":"139.7620519","source_code":"PORT14002010125","project_name":"\u6e2f\u6e7e\u5c40","survey_name":"\u662d\u548c47\u5e74\u5ea6\u5ddd\u5d0e\u6e2f\u6247\u5cf6\u6771\u9632\u6ce2\u5824\u7b2c5\u6b21\u571f\u8cea\u8abf\u67fb\u5de5\u4e8b","client_name":"\u56fd\u571f\u4ea4\u901a\u7701\u95a2\u6771\u5730\u65b9\u6574\u5099\u5c40\u6a2a\u6d5c\u6e2f\u6e7e\u7a7a\u6e2f\u6280\u8853\u8abf\u67fb\u4e8b\u52d9\u6240","boring_xml_url":0,"boring_view_url":0,"soilmap_view_url":66,"soiltest_xml_url":0,"soiltest_view_url":66},{"id":120322,"code":"B4KJ201801000-8571","latitude":"35.48548338","longitude":"139.7614964","source_code":"PORT14002010124","project_name":"\u6e2f\u6e7e\u5c40","survey_name":"\u662d\u548c47\u5e74\u5ea6\u5ddd\u5d0e\u6e2f\u6247\u5cf6\u6771\u9632\u6ce2\u5824\u7b2c5\u6b21\u571f\u8cea\u8abf\u67fb\u5de5\u4e8b","client_name":"\u56fd\u571f\u4ea4\u901a\u7701\u95a2\u6771\u5730\u65b9\u6574\u5099\u5c40\u6a2a\u6d5c\u6e2f\u6e7e\u7a7a\u6e2f\u6280\u8853\u8abf\u67fb\u4e8b\u52d9\u6240","boring_xml_url":0,"boring_view_url":0,"soilmap_view_url":66,"soiltest_xml_url":0,"soiltest_view_url":66},{"id":120321,"code":"B4KJ201801000-8570","latitude":"35.48576113","longitude":"139.7614964","source_code":"PORT14002010123","project_name":"\u6e2f\u6e7e\u5c40","survey_name":"\u662d\u548c47\u5e74\u5ea6\u5ddd\u5d0e\u6e2f\u6247\u5cf6\u6771\u9632\u6ce2\u5824\u7b2c5\u6b21\u571f\u8cea\u8abf\u67fb\u5de5\u4e8b","client_name":"\u56fd\u571f\u4ea4\u901a\u7701\u95a2\u6771\u5730\u65b9\u6574\u5099\u5c40\u6a2a\u6d5c\u6e2f\u6e7e\u7a7a\u6e2f\u6280\u8853\u8abf\u67fb\u4e8b\u52d9\u6240","boring_xml_url":0,"boring_view_url":0,"soilmap_view_url":66,"soiltest_xml_url":0,"soiltest_view_url":66},{"id":120320,"code":"B4KJ201801000-8569","latitude":"35.48576113","longitude":"139.7614964","source_code":"PORT14002010122","project_name":"\u6e2f\u6e7e\u5c40","survey_name":"\u662d\u548c47\u5e74\u5ea6\u5ddd\u5d0e\u6e2f\u6247\u5cf6\u6771\u9632\u6ce2\u5824\u7b2c5\u6b21\u571f\u8cea\u8abf\u67fb\u5de5\u4e8b","client_name":"\u56fd\u571f\u4ea4\u901a\u7701\u95a2\u6771\u5730\u65b9\u6574\u5099\u5c40\u6a2a\u6d5c\u6e2f\u6e7e\u7a7a\u6e2f\u6280\u8853\u8abf\u67fb\u4e8b\u52d9\u6240","boring_xml_url":0,"boring_view_url":0,"soilmap_view_url":66,"soiltest_xml_url":0,"soiltest_view_url":66},{"id":120319,"code":"B4KJ201801000-8568","latitude":"35.48548336","longitude":"139.7609409","source_code":"PORT14002010121","project_name":"\u6e2f\u6e7e\u5c40","survey_name":"\u662d\u548c47\u5e74\u5ea6\u5ddd\u5d0e\u6e2f\u6247\u5cf6\u6771\u9632\u6ce2\u5824\u7b2c5\u6b21\u571f\u8cea\u8abf\u67fb\u5de5\u4e8b","client_name":"\u56fd\u571f\u4ea4\u901a\u7701\u95a2\u6771\u5730\u65b9\u6574\u5099\u5c40\u6a2a\u6d5c\u6e2f\u6e7e\u7a7a\u6e2f\u6280\u8853\u8abf\u67fb\u4e8b\u52d9\u6240","boring_xml_url":0,"boring_view_url":0,"soilmap_view_url":66,"soiltest_xml_url":0,"soiltest_view_url":66},{"id":120318,"code":"B4KJ201801000-8567","latitude":"35.4840946","longitude":"139.75983","source_code":"PORT14002010120","project_name":"\u6e2f\u6e7e\u5c40","survey_name":"\u662d\u548c47\u5e74\u5ea6\u5ddd\u5d0e\u6e2f\u6247\u5cf6\u6771\u9632\u6ce2\u5824\u7b2c5\u6b21\u571f\u8cea\u8abf\u67fb\u5de5\u4e8b","client_name":"\u56fd\u571f\u4ea4\u901a\u7701\u95a2\u6771\u5730\u65b9\u6574\u5099\u5c40\u6a2a\u6d5c\u6e2f\u6e7e\u7a7a\u6e2f\u6280\u8853\u8abf\u67fb\u4e8b\u52d9\u6240","boring_xml_url":0,"boring_view_url":0,"soilmap_view_url":66,"soiltest_xml_url":0,"soiltest_view_url":66},{"id":120317,"code":"B4KJ201801000-8566","latitude":"35.48548331","longitude":"139.7589967","source_code":"PORT14002010119","project_name":"\u6e2f\u6e7e\u5c40","survey_name":"\u662d\u548c47\u5e74\u5ea6\u5ddd\u5d0e\u6e2f\u6247\u5cf6\u6771\u9632\u6ce2\u5824\u7b2c5\u6b21\u571f\u8cea\u8abf\u67fb\u5de5\u4e8b","client_name":"\u56fd\u571f\u4ea4\u901a\u7701\u95a2\u6771\u5730\u65b9\u6574\u5099\u5c40\u6a2a\u6d5c\u6e2f\u6e7e\u7a7a\u6e2f\u6280\u8853\u8abf\u67fb\u4e8b\u52d9\u6240","boring_xml_url":0,"boring_view_url":0,"soilmap_view_url":66,"soiltest_xml_url":0,"soiltest_view_url":66},{"id":120316,"code":"B4KJ201801000-8565","latitude":"35.48465007","longitude":"139.7589967","source_code":"PORT14002010118","project_name":"\u6e2f\u6e7e\u5c40","survey_name":"\u662d\u548c47\u5e74\u5ea6\u5ddd\u5d0e\u6e2f\u6247\u5cf6\u6771\u9632\u6ce2\u5824\u7b2c5\u6b21\u571f\u8cea\u8abf\u67fb\u5de5\u4e8b","client_name":"\u56fd\u571f\u4ea4\u901a\u7701\u95a2\u6771\u5730\u65b9\u6574\u5099\u5c40\u6a2a\u6d5c\u6e2f\u6e7e\u7a7a\u6e2f\u6280\u8853\u8abf\u67fb\u4e8b\u52d9\u6240","boring_xml_url":0,"boring_view_url":0,"soilmap_view_url":66,"soiltest_xml_url":0,"soiltest_view_url":66},{"id":120315,"code":"B4KJ201801000-8564","latitude":"35.48437231","longitude":"139.7584412","source_code":"PORT14002010117","project_name":"\u6e2f\u6e7e\u5c40","survey_name":"\u662d\u548c47\u5e74\u5ea6\u5ddd\u5d0e\u6e2f\u6247\u5cf6\u6771\u9632\u6ce2\u5824\u7b2c5\u6b21\u571f\u8cea\u8abf\u67fb\u5de5\u4e8b","client_name":"\u56fd\u571f\u4ea4\u901a\u7701\u95a2\u6771\u5730\u65b9\u6574\u5099\u5c40\u6a2a\u6d5c\u6e2f\u6e7e\u7a7a\u6e2f\u6280\u8853\u8abf\u67fb\u4e8b\u52d9\u6240","boring_xml_url":0,"boring_view_url":0,"soilmap_view_url":66,"soiltest_xml_url":0,"soiltest_view_url":66},{"id":120314,"code":"B4KJ201801000-8563","latitude":"35.48409456","longitude":"139.7581634","source_code":"PORT14002010116","project_name":"\u6e2f\u6e7e\u5c40","survey_name":"\u662d\u548c47\u5e74\u5ea6\u5ddd\u5d0e\u6e2f\u6247\u5cf6\u6771\u9632\u6ce2\u5824\u7b2c5\u6b21\u571f\u8cea\u8abf\u67fb\u5de5\u4e8b","client_name":"\u56fd\u571f\u4ea4\u901a\u7701\u95a2\u6771\u5730\u65b9\u6574\u5099\u5c40\u6a2a\u6d5c\u6e2f\u6e7e\u7a7a\u6e2f\u6280\u8853\u8abf\u67fb\u4e8b\u52d9\u6240","boring_xml_url":0,"boring_view_url":0,"soilmap_view_url":66,"soiltest_xml_url":0,"soiltest_view_url":66},{"id":120313,"code":"B4KJ201801000-8562","latitude":"35.48242807","longitude":"139.7578858","source_code":"PORT14002010115","project_name":"\u6e2f\u6e7e\u5c40","survey_name":"\u662d\u548c47\u5e74\u5ea6\u5ddd\u5d0e\u6e2f\u6247\u5cf6\u6771\u9632\u6ce2\u5824\u7b2c5\u6b21\u571f\u8cea\u8abf\u67fb\u5de5\u4e8b","client_name":"\u56fd\u571f\u4ea4\u901a\u7701\u95a2\u6771\u5730\u65b9\u6574\u5099\u5c40\u6a2a\u6d5c\u6e2f\u6e7e\u7a7a\u6e2f\u6280\u8853\u8abf\u67fb\u4e8b\u52d9\u6240","boring_xml_url":0,"boring_view_url":0,"soilmap_view_url":66,"soiltest_xml_url":0,"soiltest_view_url":66},{"id":120312,"code":"B4KJ201801000-8561","latitude":"35.48298355","longitude":"139.757608","source_code":"PORT14002010114","project_name":"\u6e2f\u6e7e\u5c40","survey_name":"\u662d\u548c47\u5e74\u5ea6\u5ddd\u5d0e\u6e2f\u6247\u5cf6\u6771\u9632\u6ce2\u5824\u7b2c5\u6b21\u571f\u8cea\u8abf\u67fb\u5de5\u4e8b","client_name":"\u56fd\u571f\u4ea4\u901a\u7701\u95a2\u6771\u5730\u65b9\u6574\u5099\u5c40\u6a2a\u6d5c\u6e2f\u6e7e\u7a7a\u6e2f\u6280\u8853\u8abf\u67fb\u4e8b\u52d9\u6240","boring_xml_url":0,"boring_view_url":0,"soilmap_view_url":66,"soiltest_xml_url":0,"soiltest_view_url":66},{"id":120311,"code":"B4KJ201801000-8560","latitude":"35.48298355","longitude":"139.757608","source_code":"PORT14002010113","project_name":"\u6e2f\u6e7e\u5c40","survey_name":"\u662d\u548c47\u5e74\u5ea6\u5ddd\u5d0e\u6e2f\u6247\u5cf6\u6771\u9632\u6ce2\u5824\u7b2c5\u6b21\u571f\u8cea\u8abf\u67fb\u5de5\u4e8b","client_name":"\u56fd\u571f\u4ea4\u901a\u7701\u95a2\u6771\u5730\u65b9\u6574\u5099\u5c40\u6a2a\u6d5c\u6e2f\u6e7e\u7a7a\u6e2f\u6280\u8853\u8abf\u67fb\u4e8b\u52d9\u6240","boring_xml_url":0,"boring_view_url":0,"soilmap_view_url":66,"soiltest_xml_url":0,"soiltest_view_url":66},{"id":120310,"code":"B4KJ201801000-8559","latitude":"35.48437226","longitude":"139.7567747","source_code":"PORT14002010112","project_name":"\u6e2f\u6e7e\u5c40","survey_name":"\u662d\u548c47\u5e74\u5ea6\u5ddd\u5d0e\u6e2f\u6247\u5cf6\u6771\u9632\u6ce2\u5824\u7b2c5\u6b21\u571f\u8cea\u8abf\u67fb\u5de5\u4e8b","client_name":"\u56fd\u571f\u4ea4\u901a\u7701\u95a2\u6771\u5730\u65b9\u6574\u5099\u5c40\u6a2a\u6d5c\u6e2f\u6e7e\u7a7a\u6e2f\u6280\u8853\u8abf\u67fb\u4e8b\u52d9\u6240","boring_xml_url":0,"boring_view_url":0,"soilmap_view_url":66,"soiltest_xml_url":0,"soiltest_view_url":66},{"id":120309,"code":"B4KJ201801000-8558","latitude":"35.48492774","longitude":"139.7562191","source_code":"PORT14002010111","project_name":"\u6e2f\u6e7e\u5c40","survey_name":"\u662d\u548c47\u5e74\u5ea6\u5ddd\u5d0e\u6e2f\u6247\u5cf6\u6771\u9632\u6ce2\u5824\u7b2c5\u6b21\u571f\u8cea\u8abf\u67fb\u5de5\u4e8b","client_name":"\u56fd\u571f\u4ea4\u901a\u7701\u95a2\u6771\u5730\u65b9\u6574\u5099\u5c40\u6a2a\u6d5c\u6e2f\u6e7e\u7a7a\u6e2f\u6280\u8853\u8abf\u67fb\u4e8b\u52d9\u6240","boring_xml_url":0,"boring_view_url":0,"soilmap_view_url":66,"soiltest_xml_url":0,"soiltest_view_url":66},{"id":120308,"code":"B4KJ201801000-8557","latitude":"35.48353902","longitude":"139.7564969","source_code":"PORT14002010110","project_name":"\u6e2f\u6e7e\u5c40","survey_name":"\u662d\u548c47\u5e74\u5ea6\u5ddd\u5d0e\u6e2f\u6247\u5cf6\u6771\u9632\u6ce2\u5824\u7b2c5\u6b21\u571f\u8cea\u8abf\u67fb\u5de5\u4e8b","client_name":"\u56fd\u571f\u4ea4\u901a\u7701\u95a2\u6771\u5730\u65b9\u6574\u5099\u5c40\u6a2a\u6d5c\u6e2f\u6e7e\u7a7a\u6e2f\u6280\u8853\u8abf\u67fb\u4e8b\u52d9\u6240","boring_xml_url":0,"boring_view_url":0,"soilmap_view_url":66,"soiltest_xml_url":0,"soiltest_view_url":66},{"id":120307,"code":"B4KJ201801000-8556","latitude":"35.48326126","longitude":"139.7562192","source_code":"PORT14002010109","project_name":"\u6e2f\u6e7e\u5c40","survey_name":"\u662d\u548c47\u5e74\u5ea6\u5ddd\u5d0e\u6e2f\u6247\u5cf6\u6771\u9632\u6ce2\u5824\u7b2c5\u6b21\u571f\u8cea\u8abf\u67fb\u5de5\u4e8b","client_name":"\u56fd\u571f\u4ea4\u901a\u7701\u95a2\u6771\u5730\u65b9\u6574\u5099\u5c40\u6a2a\u6d5c\u6e2f\u6e7e\u7a7a\u6e2f\u6280\u8853\u8abf\u67fb\u4e8b\u52d9\u6240","boring_xml_url":0,"boring_view_url":0,"soilmap_view_url":66,"soiltest_xml_url":0,"soiltest_view_url":66},{"id":120306,"code":"B4KJ201801000-8555","latitude":"35.48270574","longitude":"139.7551082","source_code":"PORT14002010108","project_name":"\u6e2f\u6e7e\u5c40","survey_name":"\u662d\u548c47\u5e74\u5ea6\u5ddd\u5d0e\u6e2f\u6247\u5cf6\u6771\u9632\u6ce2\u5824\u7b2c5\u6b21\u571f\u8cea\u8abf\u67fb\u5de5\u4e8b","client_name":"\u56fd\u571f\u4ea4\u901a\u7701\u95a2\u6771\u5730\u65b9\u6574\u5099\u5c40\u6a2a\u6d5c\u6e2f\u6e7e\u7a7a\u6e2f\u6280\u8853\u8abf\u67fb\u4e8b\u52d9\u6240","boring_xml_url":0,"boring_view_url":0,"soilmap_view_url":66,"soiltest_xml_url":0,"soiltest_view_url":66},{"id":120305,"code":"B4KJ201801000-8554","latitude":"35.48215025","longitude":"139.7551082","source_code":"PORT14002010107","project_name":"\u6e2f\u6e7e\u5c40","survey_name":"\u662d\u548c47\u5e74\u5ea6\u5ddd\u5d0e\u6e2f\u6247\u5cf6\u6771\u9632\u6ce2\u5824\u7b2c5\u6b21\u571f\u8cea\u8abf\u67fb\u5de5\u4e8b","client_name":"\u56fd\u571f\u4ea4\u901a\u7701\u95a2\u6771\u5730\u65b9\u6574\u5099\u5c40\u6a2a\u6d5c\u6e2f\u6e7e\u7a7a\u6e2f\u6280\u8853\u8abf\u67fb\u4e8b\u52d9\u6240","boring_xml_url":0,"boring_view_url":0,"soilmap_view_url":66,"soiltest_xml_url":0,"soiltest_view_url":66},{"id":120304,"code":"B4KJ201801000-8553","latitude":"35.48270573","longitude":"139.7545527","source_code":"PORT14002010106","project_name":"\u6e2f\u6e7e\u5c40","survey_name":"\u662d\u548c47\u5e74\u5ea6\u5ddd\u5d0e\u6e2f\u6247\u5cf6\u6771\u9632\u6ce2\u5824\u7b2c5\u6b21\u571f\u8cea\u8abf\u67fb\u5de5\u4e8b","client_name":"\u56fd\u571f\u4ea4\u901a\u7701\u95a2\u6771\u5730\u65b9\u6574\u5099\u5c40\u6a2a\u6d5c\u6e2f\u6e7e\u7a7a\u6e2f\u6280\u8853\u8abf\u67fb\u4e8b\u52d9\u6240","boring_xml_url":0,"boring_view_url":0,"soilmap_view_url":66,"soiltest_xml_url":0,"soiltest_view_url":66},{"id":120303,"code":"B4KJ201801000-8552","latitude":"35.48326121","longitude":"139.7542749","source_code":"PORT14002010105","project_name":"\u6e2f\u6e7e\u5c40","survey_name":"\u662d\u548c47\u5e74\u5ea6\u5ddd\u5d0e\u6e2f\u6247\u5cf6\u6771\u9632\u6ce2\u5824\u7b2c5\u6b21\u571f\u8cea\u8abf\u67fb\u5de5\u4e8b","client_name":"\u56fd\u571f\u4ea4\u901a\u7701\u95a2\u6771\u5730\u65b9\u6574\u5099\u5c40\u6a2a\u6d5c\u6e2f\u6e7e\u7a7a\u6e2f\u6280\u8853\u8abf\u67fb\u4e8b\u52d9\u6240","boring_xml_url":0,"boring_view_url":0,"soilmap_view_url":66,"soiltest_xml_url":0,"soiltest_view_url":66},{"id":120302,"code":"B4KJ201801000-8551","latitude":"35.48242797","longitude":"139.754275","source_code":"PORT14002010104","project_name":"\u6e2f\u6e7e\u5c40","survey_name":"\u662d\u548c47\u5e74\u5ea6\u5ddd\u5d0e\u6e2f\u6247\u5cf6\u6771\u9632\u6ce2\u5824\u7b2c5\u6b21\u571f\u8cea\u8abf\u67fb\u5de5\u4e8b","client_name":"\u56fd\u571f\u4ea4\u901a\u7701\u95a2\u6771\u5730\u65b9\u6574\u5099\u5c40\u6a2a\u6d5c\u6e2f\u6e7e\u7a7a\u6e2f\u6280\u8853\u8abf\u67fb\u4e8b\u52d9\u6240","boring_xml_url":0,"boring_view_url":0,"soilmap_view_url":66,"soiltest_xml_url":0,"soiltest_view_url":66},{"id":120301,"code":"B4KJ201801000-8550","latitude":"35.49326073","longitude":"139.7781614","source_code":"PORT14002010103","project_name":"\u6e2f\u6e7e\u5c40","survey_name":"\u662d\u548c47\u5e74\u5ea6\u5ddd\u5d0e\u6e2f\u6247\u5cf6\u6771\u9632\u6ce2\u5824\u7b2c5\u6b21\u571f\u8cea\u8abf\u67fb\u5de5\u4e8b","client_name":"\u56fd\u571f\u4ea4\u901a\u7701\u95a2\u6771\u5730\u65b9\u6574\u5099\u5c40\u6a2a\u6d5c\u6e2f\u6e7e\u7a7a\u6e2f\u6280\u8853\u8abf\u67fb\u4e8b\u52d9\u6240","boring_xml_url":0,"boring_view_url":0,"soilmap_view_url":66,"soiltest_xml_url":0,"soiltest_view_url":66},{"id":120300,"code":"B4KJ201801000-8549","latitude":"35.49298298","longitude":"139.7781614","source_code":"PORT14002010102","project_name":"\u6e2f\u6e7e\u5c40","survey_name":"\u662d\u548c47\u5e74\u5ea6\u5ddd\u5d0e\u6e2f\u6247\u5cf6\u6771\u9632\u6ce2\u5824\u7b2c5\u6b21\u571f\u8cea\u8abf\u67fb\u5de5\u4e8b","client_name":"\u56fd\u571f\u4ea4\u901a\u7701\u95a2\u6771\u5730\u65b9\u6574\u5099\u5c40\u6a2a\u6d5c\u6e2f\u6e7e\u7a7a\u6e2f\u6280\u8853\u8abf\u67fb\u4e8b\u52d9\u6240","boring_xml_url":0,"boring_view_url":0,"soilmap_view_url":66,"soiltest_xml_url":0,"soiltest_view_url":66},{"id":120299,"code":"B4KJ201801000-8548","latitude":"35.49159425","longitude":"139.7781615","source_code":"PORT14002010101","project_name":"\u6e2f\u6e7e\u5c40","survey_name":"\u662d\u548c47\u5e74\u5ea6\u5ddd\u5d0e\u6e2f\u6247\u5cf6\u6771\u9632\u6ce2\u5824\u7b2c5\u6b21\u571f\u8cea\u8abf\u67fb\u5de5\u4e8b","client_name":"\u56fd\u571f\u4ea4\u901a\u7701\u95a2\u6771\u5730\u65b9\u6574\u5099\u5c40\u6a2a\u6d5c\u6e2f\u6e7e\u7a7a\u6e2f\u6280\u8853\u8abf\u67fb\u4e8b\u52d9\u6240","boring_xml_url":0,"boring_view_url":0,"soilmap_view_url":66,"soiltest_xml_url":0,"soiltest_view_url":66},{"id":120298,"code":"B4KJ201801000-8547","latitude":"35.49214973","longitude":"139.7778837","source_code":"PORT14002010100","project_name":"\u6e2f\u6e7e\u5c40","survey_name":"\u662d\u548c47\u5e74\u5ea6\u5ddd\u5d0e\u6e2f\u6247\u5cf6\u6771\u9632\u6ce2\u5824\u7b2c5\u6b21\u571f\u8cea\u8abf\u67fb\u5de5\u4e8b","client_name":"\u56fd\u571f\u4ea4\u901a\u7701\u95a2\u6771\u5730\u65b9\u6574\u5099\u5c40\u6a2a\u6d5c\u6e2f\u6e7e\u7a7a\u6e2f\u6280\u8853\u8abf\u67fb\u4e8b\u52d9\u6240","boring_xml_url":0,"boring_view_url":0,"soilmap_view_url":66,"soiltest_xml_url":0,"soiltest_view_url":66},{"id":120297,"code":"B4KJ201801000-8546","latitude":"35.49270521","longitude":"139.7773281","source_code":"PORT14002010099","project_name":"\u6e2f\u6e7e\u5c40","survey_name":"\u662d\u548c47\u5e74\u5ea6\u5ddd\u5d0e\u6e2f\u6247\u5cf6\u6771\u9632\u6ce2\u5824\u7b2c5\u6b21\u571f\u8cea\u8abf\u67fb\u5de5\u4e8b","client_name":"\u56fd\u571f\u4ea4\u901a\u7701\u95a2\u6771\u5730\u65b9\u6574\u5099\u5c40\u6a2a\u6d5c\u6e2f\u6e7e\u7a7a\u6e2f\u6280\u8853\u8abf\u67fb\u4e8b\u52d9\u6240","boring_xml_url":0,"boring_view_url":0,"soilmap_view_url":66,"soiltest_xml_url":0,"soiltest_view_url":66},{"id":120296,"code":"B4KJ201801000-8545","latitude":"35.4932607","longitude":"139.7770504","source_code":"PORT14002010098","project_name":"\u6e2f\u6e7e\u5c40","survey_name":"\u662d\u548c47\u5e74\u5ea6\u5ddd\u5d0e\u6e2f\u6247\u5cf6\u6771\u9632\u6ce2\u5824\u7b2c5\u6b21\u571f\u8cea\u8abf\u67fb\u5de5\u4e8b","client_name":"\u56fd\u571f\u4ea4\u901a\u7701\u95a2\u6771\u5730\u65b9\u6574\u5099\u5c40\u6a2a\u6d5c\u6e2f\u6e7e\u7a7a\u6e2f\u6280\u8853\u8abf\u67fb\u4e8b\u52d9\u6240","boring_xml_url":0,"boring_view_url":0,"soilmap_view_url":66,"soiltest_xml_url":0,"soiltest_view_url":66}]}}