{"header":{"xyz":{"source":[],"mosaic":false},"page":6678,"raw":{"soiltest_result":"0","bbox":"57.598333,109.544722,1.933333,163.806111","page":"6678"},"conditions":{"soiltest_result":0,"north":57.598333,"west":109.544722,"south":1.933333,"east":163.806111},"success":true,"message":""},"data":{"meta":{"total":212844,"page":6678,"pages":7095,"count":30},"values":[{"id":120235,"code":"B4KJ201801000-8484","latitude":"35.50964727","longitude":"139.7589957","source_code":"PORT14002010037","project_name":"\u6e2f\u6e7e\u5c40","survey_name":"\u662d\u548c42\u5e74\u5ea6\u4eac\u6d5c\u6e2f\u571f\u8cea\u8abf\u67fb","client_name":"\u56fd\u571f\u4ea4\u901a\u7701\u95a2\u6771\u5730\u65b9\u6574\u5099\u5c40\u6a2a\u6d5c\u6e2f\u6e7e\u7a7a\u6e2f\u6280\u8853\u8abf\u67fb\u4e8b\u52d9\u6240","boring_xml_url":0,"boring_view_url":0,"soilmap_view_url":66,"soiltest_xml_url":0,"soiltest_view_url":0},{"id":120234,"code":"B4KJ201801000-8483","latitude":"35.50964727","longitude":"139.7589957","source_code":"PORT14002010036","project_name":"\u6e2f\u6e7e\u5c40","survey_name":"\u662d\u548c42\u5e74\u5ea6\u4eac\u6d5c\u6e2f\u571f\u8cea\u8abf\u67fb","client_name":"\u56fd\u571f\u4ea4\u901a\u7701\u95a2\u6771\u5730\u65b9\u6574\u5099\u5c40\u6a2a\u6d5c\u6e2f\u6e7e\u7a7a\u6e2f\u6280\u8853\u8abf\u67fb\u4e8b\u52d9\u6240","boring_xml_url":0,"boring_view_url":0,"soilmap_view_url":66,"soiltest_xml_url":0,"soiltest_view_url":0},{"id":120233,"code":"B4KJ201801000-8482","latitude":"35.49992648","longitude":"139.7720505","source_code":"PORT14002010035","project_name":"\u6e2f\u6e7e\u5c40","survey_name":"\u662d\u548c39\u5e74\u5ea6\u5ddd\u5d0e\u6e2f\u5824\u5916\u5730\u8cea\u8abf\u67fb","client_name":"\u56fd\u571f\u4ea4\u901a\u7701\u95a2\u6771\u5730\u65b9\u6574\u5099\u5c40\u6a2a\u6d5c\u6e2f\u6e7e\u7a7a\u6e2f\u6280\u8853\u8abf\u67fb\u4e8b\u52d9\u6240","boring_xml_url":0,"boring_view_url":0,"soilmap_view_url":66,"soiltest_xml_url":0,"soiltest_view_url":66},{"id":120232,"code":"B4KJ201801000-8481","latitude":"35.50409262","longitude":"139.7695506","source_code":"PORT14002010034","project_name":"\u6e2f\u6e7e\u5c40","survey_name":"\u662d\u548c39\u5e74\u5ea6\u5ddd\u5d0e\u6e2f\u5824\u5916\u5730\u8cea\u8abf\u67fb","client_name":"\u56fd\u571f\u4ea4\u901a\u7701\u95a2\u6771\u5730\u65b9\u6574\u5099\u5c40\u6a2a\u6d5c\u6e2f\u6e7e\u7a7a\u6e2f\u6280\u8853\u8abf\u67fb\u4e8b\u52d9\u6240","boring_xml_url":0,"boring_view_url":0,"soilmap_view_url":66,"soiltest_xml_url":0,"soiltest_view_url":66},{"id":120231,"code":"B4KJ201801000-8480","latitude":"35.49576003","longitude":"139.7623293","source_code":"PORT14002010033","project_name":"\u6e2f\u6e7e\u5c40","survey_name":"\u662d\u548c39\u5e74\u5ea6\u5ddd\u5d0e\u6e2f\u5824\u5916\u5730\u8cea\u8abf\u67fb","client_name":"\u56fd\u571f\u4ea4\u901a\u7701\u95a2\u6771\u5730\u65b9\u6574\u5099\u5c40\u6a2a\u6d5c\u6e2f\u6e7e\u7a7a\u6e2f\u6280\u8853\u8abf\u67fb\u4e8b\u52d9\u6240","boring_xml_url":0,"boring_view_url":0,"soilmap_view_url":66,"soiltest_xml_url":0,"soiltest_view_url":66},{"id":120230,"code":"B4KJ201801000-8479","latitude":"35.49964841","longitude":"139.7598294","source_code":"PORT14002010032","project_name":"\u6e2f\u6e7e\u5c40","survey_name":"\u662d\u548c39\u5e74\u5ea6\u5ddd\u5d0e\u6e2f\u5824\u5916\u5730\u8cea\u8abf\u67fb","client_name":"\u56fd\u571f\u4ea4\u901a\u7701\u95a2\u6771\u5730\u65b9\u6574\u5099\u5c40\u6a2a\u6d5c\u6e2f\u6e7e\u7a7a\u6e2f\u6280\u8853\u8abf\u67fb\u4e8b\u52d9\u6240","boring_xml_url":0,"boring_view_url":0,"soilmap_view_url":66,"soiltest_xml_url":0,"soiltest_view_url":66},{"id":120229,"code":"B4KJ201801000-8478","latitude":"35.49548195","longitude":"139.7501081","source_code":"PORT14002010031","project_name":"\u6e2f\u6e7e\u5c40","survey_name":"\u662d\u548c39\u5e74\u5ea6\u5ddd\u5d0e\u6e2f\u5824\u5916\u5730\u8cea\u8abf\u67fb","client_name":"\u56fd\u571f\u4ea4\u901a\u7701\u95a2\u6771\u5730\u65b9\u6574\u5099\u5c40\u6a2a\u6d5c\u6e2f\u6e7e\u7a7a\u6e2f\u6280\u8853\u8abf\u67fb\u4e8b\u52d9\u6240","boring_xml_url":0,"boring_view_url":0,"soilmap_view_url":66,"soiltest_xml_url":0,"soiltest_view_url":66},{"id":120228,"code":"B4KJ201801000-8477","latitude":"35.49103774","longitude":"139.7403869","source_code":"PORT14002010030","project_name":"\u6e2f\u6e7e\u5c40","survey_name":"\u662d\u548c39\u5e74\u5ea6\u5ddd\u5d0e\u6e2f\u5824\u5916\u5730\u8cea\u8abf\u67fb","client_name":"\u56fd\u571f\u4ea4\u901a\u7701\u95a2\u6771\u5730\u65b9\u6574\u5099\u5c40\u6a2a\u6d5c\u6e2f\u6e7e\u7a7a\u6e2f\u6280\u8853\u8abf\u67fb\u4e8b\u52d9\u6240","boring_xml_url":0,"boring_view_url":0,"soilmap_view_url":66,"soiltest_xml_url":0,"soiltest_view_url":66},{"id":120227,"code":"B4KJ201801000-8476","latitude":"35.51714721","longitude":"139.7881596","source_code":"PORT14002010029","project_name":"\u6e2f\u6e7e\u5c40","survey_name":"\u5ddd\u5d0e\u5e02\u539f\u6cb9\u8377\u5f79\u8a2d\u5099\u57fa\u790e\u5730\u8cea\u8abf\u67fb","client_name":"\u56fd\u571f\u4ea4\u901a\u7701\u95a2\u6771\u5730\u65b9\u6574\u5099\u5c40\u6a2a\u6d5c\u6e2f\u6e7e\u7a7a\u6e2f\u6280\u8853\u8abf\u67fb\u4e8b\u52d9\u6240","boring_xml_url":0,"boring_view_url":0,"soilmap_view_url":66,"soiltest_xml_url":0,"soiltest_view_url":0},{"id":120226,"code":"B4KJ201801000-8475","latitude":"35.51492523","longitude":"139.7881597","source_code":"PORT14002010028","project_name":"\u6e2f\u6e7e\u5c40","survey_name":"\u5ddd\u5d0e\u5e02\u539f\u6cb9\u8377\u5f79\u8a2d\u5099\u57fa\u790e\u5730\u8cea\u8abf\u67fb","client_name":"\u56fd\u571f\u4ea4\u901a\u7701\u95a2\u6771\u5730\u65b9\u6574\u5099\u5c40\u6a2a\u6d5c\u6e2f\u6e7e\u7a7a\u6e2f\u6280\u8853\u8abf\u67fb\u4e8b\u52d9\u6240","boring_xml_url":0,"boring_view_url":0,"soilmap_view_url":66,"soiltest_xml_url":0,"soiltest_view_url":0},{"id":120225,"code":"B4KJ201801000-8474","latitude":"35.51242551","longitude":"139.7881598","source_code":"PORT14002010027","project_name":"\u6e2f\u6e7e\u5c40","survey_name":"\u5ddd\u5d0e\u5e02\u539f\u6cb9\u8377\u5f79\u8a2d\u5099\u57fa\u790e\u5730\u8cea\u8abf\u67fb","client_name":"\u56fd\u571f\u4ea4\u901a\u7701\u95a2\u6771\u5730\u65b9\u6574\u5099\u5c40\u6a2a\u6d5c\u6e2f\u6e7e\u7a7a\u6e2f\u6280\u8853\u8abf\u67fb\u4e8b\u52d9\u6240","boring_xml_url":0,"boring_view_url":0,"soilmap_view_url":66,"soiltest_xml_url":0,"soiltest_view_url":0},{"id":120224,"code":"B4KJ201801000-8473","latitude":"35.51159231","longitude":"139.7895486","source_code":"PORT14002010026","project_name":"\u6e2f\u6e7e\u5c40","survey_name":"\u5ddd\u5d0e\u5e02\u539f\u6cb9\u8377\u5f79\u8a2d\u5099\u57fa\u790e\u5730\u8cea\u8abf\u67fb","client_name":"\u56fd\u571f\u4ea4\u901a\u7701\u95a2\u6771\u5730\u65b9\u6574\u5099\u5c40\u6a2a\u6d5c\u6e2f\u6e7e\u7a7a\u6e2f\u6280\u8853\u8abf\u67fb\u4e8b\u52d9\u6240","boring_xml_url":0,"boring_view_url":0,"soilmap_view_url":66,"soiltest_xml_url":0,"soiltest_view_url":66},{"id":120223,"code":"B4KJ201801000-8472","latitude":"35.51048129","longitude":"139.7884376","source_code":"PORT14002010025","project_name":"\u6e2f\u6e7e\u5c40","survey_name":"\u5ddd\u5d0e\u5e02\u539f\u6cb9\u8377\u5f79\u8a2d\u5099\u57fa\u790e\u5730\u8cea\u8abf\u67fb","client_name":"\u56fd\u571f\u4ea4\u901a\u7701\u95a2\u6771\u5730\u65b9\u6574\u5099\u5c40\u6a2a\u6d5c\u6e2f\u6e7e\u7a7a\u6e2f\u6280\u8853\u8abf\u67fb\u4e8b\u52d9\u6240","boring_xml_url":0,"boring_view_url":0,"soilmap_view_url":66,"soiltest_xml_url":0,"soiltest_view_url":66},{"id":120222,"code":"B4KJ201801000-8471","latitude":"35.51020354","longitude":"139.7881599","source_code":"PORT14002010024","project_name":"\u6e2f\u6e7e\u5c40","survey_name":"\u5ddd\u5d0e\u5e02\u539f\u6cb9\u8377\u5f79\u8a2d\u5099\u57fa\u790e\u5730\u8cea\u8abf\u67fb","client_name":"\u56fd\u571f\u4ea4\u901a\u7701\u95a2\u6771\u5730\u65b9\u6574\u5099\u5c40\u6a2a\u6d5c\u6e2f\u6e7e\u7a7a\u6e2f\u6280\u8853\u8abf\u67fb\u4e8b\u52d9\u6240","boring_xml_url":0,"boring_view_url":0,"soilmap_view_url":66,"soiltest_xml_url":0,"soiltest_view_url":0},{"id":120221,"code":"B4KJ201801000-8470","latitude":"35.50992579","longitude":"139.7878821","source_code":"PORT14002010023","project_name":"\u6e2f\u6e7e\u5c40","survey_name":"\u5ddd\u5d0e\u5e02\u539f\u6cb9\u8377\u5f79\u8a2d\u5099\u57fa\u790e\u5730\u8cea\u8abf\u67fb","client_name":"\u56fd\u571f\u4ea4\u901a\u7701\u95a2\u6771\u5730\u65b9\u6574\u5099\u5c40\u6a2a\u6d5c\u6e2f\u6e7e\u7a7a\u6e2f\u6280\u8853\u8abf\u67fb\u4e8b\u52d9\u6240","boring_xml_url":0,"boring_view_url":0,"soilmap_view_url":66,"soiltest_xml_url":0,"soiltest_view_url":66},{"id":120220,"code":"B4KJ201801000-8469","latitude":"35.50881477","longitude":"139.7867712","source_code":"PORT14002010022","project_name":"\u6e2f\u6e7e\u5c40","survey_name":"\u5ddd\u5d0e\u5e02\u539f\u6cb9\u8377\u5f79\u8a2d\u5099\u57fa\u790e\u5730\u8cea\u8abf\u67fb","client_name":"\u56fd\u571f\u4ea4\u901a\u7701\u95a2\u6771\u5730\u65b9\u6574\u5099\u5c40\u6a2a\u6d5c\u6e2f\u6e7e\u7a7a\u6e2f\u6280\u8853\u8abf\u67fb\u4e8b\u52d9\u6240","boring_xml_url":0,"boring_view_url":0,"soilmap_view_url":66,"soiltest_xml_url":0,"soiltest_view_url":66},{"id":120219,"code":"B4KJ201801000-8468","latitude":"35.48937168","longitude":"139.7556634","source_code":"PORT14002010021","project_name":"\u6e2f\u6e7e\u5c40","survey_name":"\u5e73\u62103\u5e74\u5ea6\u5ddd\u5d0e\u6e2f\u6771\u6247\u5cf6\u5730\u533a\u5cb8\u58c1(-14m)\u571f\u8cea\u8abf\u67fb(\u305d\u306e2)","client_name":"\u56fd\u571f\u4ea4\u901a\u7701\u95a2\u6771\u5730\u65b9\u6574\u5099\u5c40\u6a2a\u6d5c\u6e2f\u6e7e\u7a7a\u6e2f\u6280\u8853\u8abf\u67fb\u4e8b\u52d9\u6240","boring_xml_url":0,"boring_view_url":0,"soilmap_view_url":66,"soiltest_xml_url":0,"soiltest_view_url":66},{"id":120218,"code":"B4KJ201801000-8467","latitude":"35.4890939","longitude":"139.7545524","source_code":"PORT14002010020","project_name":"\u6e2f\u6e7e\u5c40","survey_name":"\u5e73\u62103\u5e74\u5ea6\u5ddd\u5d0e\u6e2f\u6771\u6247\u5cf6\u5730\u533a\u5cb8\u58c1(-14m)\u571f\u8cea\u8abf\u67fb(\u305d\u306e2)","client_name":"\u56fd\u571f\u4ea4\u901a\u7701\u95a2\u6771\u5730\u65b9\u6574\u5099\u5c40\u6a2a\u6d5c\u6e2f\u6e7e\u7a7a\u6e2f\u6280\u8853\u8abf\u67fb\u4e8b\u52d9\u6240","boring_xml_url":0,"boring_view_url":0,"soilmap_view_url":66,"soiltest_xml_url":0,"soiltest_view_url":66},{"id":120217,"code":"B4KJ201801000-8466","latitude":"35.48853838","longitude":"139.7537192","source_code":"PORT14002010019","project_name":"\u6e2f\u6e7e\u5c40","survey_name":"\u5e73\u62103\u5e74\u5ea6\u5ddd\u5d0e\u6e2f\u6771\u6247\u5cf6\u5730\u533a\u5cb8\u58c1(-14m)\u571f\u8cea\u8abf\u67fb(\u305d\u306e2)","client_name":"\u56fd\u571f\u4ea4\u901a\u7701\u95a2\u6771\u5730\u65b9\u6574\u5099\u5c40\u6a2a\u6d5c\u6e2f\u6e7e\u7a7a\u6e2f\u6280\u8853\u8abf\u67fb\u4e8b\u52d9\u6240","boring_xml_url":0,"boring_view_url":0,"soilmap_view_url":66,"soiltest_xml_url":0,"soiltest_view_url":66},{"id":120216,"code":"B4KJ201801000-8465","latitude":"35.48798286","longitude":"139.7526082","source_code":"PORT14002010018","project_name":"\u6e2f\u6e7e\u5c40","survey_name":"\u5e73\u62103\u5e74\u5ea6\u5ddd\u5d0e\u6e2f\u6771\u6247\u5cf6\u5730\u533a\u5cb8\u58c1(-14m)\u571f\u8cea\u8abf\u67fb(\u305d\u306e2)","client_name":"\u56fd\u571f\u4ea4\u901a\u7701\u95a2\u6771\u5730\u65b9\u6574\u5099\u5c40\u6a2a\u6d5c\u6e2f\u6e7e\u7a7a\u6e2f\u6280\u8853\u8abf\u67fb\u4e8b\u52d9\u6240","boring_xml_url":0,"boring_view_url":0,"soilmap_view_url":66,"soiltest_xml_url":0,"soiltest_view_url":66},{"id":120215,"code":"B4KJ201801000-8464","latitude":"35.4893717","longitude":"139.7564967","source_code":"PORT14002010017","project_name":"\u6e2f\u6e7e\u5c40","survey_name":"\u5e73\u62103\u5e74\u5ea6\u5ddd\u5d0e\u6e2f\u6771\u6247\u5cf6\u5730\u533a\u5cb8\u58c1(-14m)\u571f\u8cea\u8abf\u67fb","client_name":"\u56fd\u571f\u4ea4\u901a\u7701\u95a2\u6771\u5730\u65b9\u6574\u5099\u5c40\u6a2a\u6d5c\u6e2f\u6e7e\u7a7a\u6e2f\u6280\u8853\u8abf\u67fb\u4e8b\u52d9\u6240","boring_xml_url":0,"boring_view_url":0,"soilmap_view_url":66,"soiltest_xml_url":0,"soiltest_view_url":66},{"id":120214,"code":"B4KJ201801000-8463","latitude":"35.48964944","longitude":"139.7562189","source_code":"PORT14002010016","project_name":"\u6e2f\u6e7e\u5c40","survey_name":"\u5e73\u62103\u5e74\u5ea6\u5ddd\u5d0e\u6e2f\u6771\u6247\u5cf6\u5730\u533a\u5cb8\u58c1(-14m)\u571f\u8cea\u8abf\u67fb","client_name":"\u56fd\u571f\u4ea4\u901a\u7701\u95a2\u6771\u5730\u65b9\u6574\u5099\u5c40\u6a2a\u6d5c\u6e2f\u6e7e\u7a7a\u6e2f\u6280\u8853\u8abf\u67fb\u4e8b\u52d9\u6240","boring_xml_url":0,"boring_view_url":0,"soilmap_view_url":66,"soiltest_xml_url":0,"soiltest_view_url":66},{"id":120213,"code":"B4KJ201801000-8462","latitude":"35.48937168","longitude":"139.7556634","source_code":"PORT14002010015","project_name":"\u6e2f\u6e7e\u5c40","survey_name":"\u5e73\u62103\u5e74\u5ea6\u5ddd\u5d0e\u6e2f\u6771\u6247\u5cf6\u5730\u533a\u5cb8\u58c1(-14m)\u571f\u8cea\u8abf\u67fb","client_name":"\u56fd\u571f\u4ea4\u901a\u7701\u95a2\u6771\u5730\u65b9\u6574\u5099\u5c40\u6a2a\u6d5c\u6e2f\u6e7e\u7a7a\u6e2f\u6280\u8853\u8abf\u67fb\u4e8b\u52d9\u6240","boring_xml_url":0,"boring_view_url":0,"soilmap_view_url":66,"soiltest_xml_url":0,"soiltest_view_url":66},{"id":120212,"code":"B4KJ201801000-8461","latitude":"35.48909393","longitude":"139.7556635","source_code":"PORT14002010014","project_name":"\u6e2f\u6e7e\u5c40","survey_name":"\u5e73\u62103\u5e74\u5ea6\u5ddd\u5d0e\u6e2f\u6771\u6247\u5cf6\u5730\u533a\u5cb8\u58c1(-14m)\u571f\u8cea\u8abf\u67fb","client_name":"\u56fd\u571f\u4ea4\u901a\u7701\u95a2\u6771\u5730\u65b9\u6574\u5099\u5c40\u6a2a\u6d5c\u6e2f\u6e7e\u7a7a\u6e2f\u6280\u8853\u8abf\u67fb\u4e8b\u52d9\u6240","boring_xml_url":0,"boring_view_url":0,"soilmap_view_url":66,"soiltest_xml_url":0,"soiltest_view_url":66},{"id":120211,"code":"B4KJ201801000-8460","latitude":"35.48909392","longitude":"139.7553857","source_code":"PORT14002010013","project_name":"\u6e2f\u6e7e\u5c40","survey_name":"\u5e73\u62103\u5e74\u5ea6\u5ddd\u5d0e\u6e2f\u6771\u6247\u5cf6\u5730\u533a\u5cb8\u58c1(-14m)\u571f\u8cea\u8abf\u67fb","client_name":"\u56fd\u571f\u4ea4\u901a\u7701\u95a2\u6771\u5730\u65b9\u6574\u5099\u5c40\u6a2a\u6d5c\u6e2f\u6e7e\u7a7a\u6e2f\u6280\u8853\u8abf\u67fb\u4e8b\u52d9\u6240","boring_xml_url":0,"boring_view_url":0,"soilmap_view_url":66,"soiltest_xml_url":0,"soiltest_view_url":66},{"id":120210,"code":"B4KJ201801000-8459","latitude":"35.48881616","longitude":"139.7548302","source_code":"PORT14002010012","project_name":"\u6e2f\u6e7e\u5c40","survey_name":"\u5e73\u62103\u5e74\u5ea6\u5ddd\u5d0e\u6e2f\u6771\u6247\u5cf6\u5730\u533a\u5cb8\u58c1(-14m)\u571f\u8cea\u8abf\u67fb","client_name":"\u56fd\u571f\u4ea4\u901a\u7701\u95a2\u6771\u5730\u65b9\u6574\u5099\u5c40\u6a2a\u6d5c\u6e2f\u6e7e\u7a7a\u6e2f\u6280\u8853\u8abf\u67fb\u4e8b\u52d9\u6240","boring_xml_url":0,"boring_view_url":0,"soilmap_view_url":66,"soiltest_xml_url":0,"soiltest_view_url":66},{"id":120209,"code":"B4KJ201801000-8458","latitude":"35.48853841","longitude":"139.7545525","source_code":"PORT14002010011","project_name":"\u6e2f\u6e7e\u5c40","survey_name":"\u5e73\u62103\u5e74\u5ea6\u5ddd\u5d0e\u6e2f\u6771\u6247\u5cf6\u5730\u533a\u5cb8\u58c1(-14m)\u571f\u8cea\u8abf\u67fb","client_name":"\u56fd\u571f\u4ea4\u901a\u7701\u95a2\u6771\u5730\u65b9\u6574\u5099\u5c40\u6a2a\u6d5c\u6e2f\u6e7e\u7a7a\u6e2f\u6280\u8853\u8abf\u67fb\u4e8b\u52d9\u6240","boring_xml_url":0,"boring_view_url":0,"soilmap_view_url":66,"soiltest_xml_url":0,"soiltest_view_url":66},{"id":120208,"code":"B4KJ201801000-8457","latitude":"35.4885384","longitude":"139.7542747","source_code":"PORT14002010010","project_name":"\u6e2f\u6e7e\u5c40","survey_name":"\u5e73\u62103\u5e74\u5ea6\u5ddd\u5d0e\u6e2f\u6771\u6247\u5cf6\u5730\u533a\u5cb8\u58c1(-14m)\u571f\u8cea\u8abf\u67fb","client_name":"\u56fd\u571f\u4ea4\u901a\u7701\u95a2\u6771\u5730\u65b9\u6574\u5099\u5c40\u6a2a\u6d5c\u6e2f\u6e7e\u7a7a\u6e2f\u6280\u8853\u8abf\u67fb\u4e8b\u52d9\u6240","boring_xml_url":0,"boring_view_url":0,"soilmap_view_url":66,"soiltest_xml_url":0,"soiltest_view_url":66},{"id":120207,"code":"B4KJ201801000-8456","latitude":"35.48853838","longitude":"139.7537192","source_code":"PORT14002010009","project_name":"\u6e2f\u6e7e\u5c40","survey_name":"\u5e73\u62103\u5e74\u5ea6\u5ddd\u5d0e\u6e2f\u6771\u6247\u5cf6\u5730\u533a\u5cb8\u58c1(-14m)\u571f\u8cea\u8abf\u67fb","client_name":"\u56fd\u571f\u4ea4\u901a\u7701\u95a2\u6771\u5730\u65b9\u6574\u5099\u5c40\u6a2a\u6d5c\u6e2f\u6e7e\u7a7a\u6e2f\u6280\u8853\u8abf\u67fb\u4e8b\u52d9\u6240","boring_xml_url":0,"boring_view_url":0,"soilmap_view_url":66,"soiltest_xml_url":0,"soiltest_view_url":66},{"id":120206,"code":"B4KJ201801000-8455","latitude":"35.48826064","longitude":"139.7537192","source_code":"PORT14002010008","project_name":"\u6e2f\u6e7e\u5c40","survey_name":"\u5e73\u62103\u5e74\u5ea6\u5ddd\u5d0e\u6e2f\u6771\u6247\u5cf6\u5730\u533a\u5cb8\u58c1(-14m)\u571f\u8cea\u8abf\u67fb","client_name":"\u56fd\u571f\u4ea4\u901a\u7701\u95a2\u6771\u5730\u65b9\u6574\u5099\u5c40\u6a2a\u6d5c\u6e2f\u6e7e\u7a7a\u6e2f\u6280\u8853\u8abf\u67fb\u4e8b\u52d9\u6240","boring_xml_url":0,"boring_view_url":0,"soilmap_view_url":66,"soiltest_xml_url":0,"soiltest_view_url":66}]}}