{"header":{"xyz":{"source":[],"mosaic":false},"page":6679,"raw":{"soiltest_result":"0","bbox":"57.598333,109.544722,1.933333,163.806111","page":"6679"},"conditions":{"soiltest_result":0,"north":57.598333,"west":109.544722,"south":1.933333,"east":163.806111},"success":true,"message":""},"data":{"meta":{"total":212844,"page":6679,"pages":7095,"count":30},"values":[{"id":120205,"code":"B4KJ201801000-8454","latitude":"35.48826063","longitude":"139.7534415","source_code":"PORT14002010007","project_name":"\u6e2f\u6e7e\u5c40","survey_name":"\u5e73\u62103\u5e74\u5ea6\u5ddd\u5d0e\u6e2f\u6771\u6247\u5cf6\u5730\u533a\u5cb8\u58c1(-14m)\u571f\u8cea\u8abf\u67fb","client_name":"\u56fd\u571f\u4ea4\u901a\u7701\u95a2\u6771\u5730\u65b9\u6574\u5099\u5c40\u6a2a\u6d5c\u6e2f\u6e7e\u7a7a\u6e2f\u6280\u8853\u8abf\u67fb\u4e8b\u52d9\u6240","boring_xml_url":0,"boring_view_url":0,"soilmap_view_url":66,"soiltest_xml_url":0,"soiltest_view_url":66},{"id":120204,"code":"B4KJ201801000-8453","latitude":"35.48798287","longitude":"139.752886","source_code":"PORT14002010006","project_name":"\u6e2f\u6e7e\u5c40","survey_name":"\u5e73\u62103\u5e74\u5ea6\u5ddd\u5d0e\u6e2f\u6771\u6247\u5cf6\u5730\u533a\u5cb8\u58c1(-14m)\u571f\u8cea\u8abf\u67fb","client_name":"\u56fd\u571f\u4ea4\u901a\u7701\u95a2\u6771\u5730\u65b9\u6574\u5099\u5c40\u6a2a\u6d5c\u6e2f\u6e7e\u7a7a\u6e2f\u6280\u8853\u8abf\u67fb\u4e8b\u52d9\u6240","boring_xml_url":0,"boring_view_url":0,"soilmap_view_url":66,"soiltest_xml_url":0,"soiltest_view_url":66},{"id":120203,"code":"B4KJ201801000-8452","latitude":"35.48770511","longitude":"139.7526082","source_code":"PORT14002010005","project_name":"\u6e2f\u6e7e\u5c40","survey_name":"\u5e73\u62103\u5e74\u5ea6\u5ddd\u5d0e\u6e2f\u6771\u6247\u5cf6\u5730\u533a\u5cb8\u58c1(-14m)\u571f\u8cea\u8abf\u67fb","client_name":"\u56fd\u571f\u4ea4\u901a\u7701\u95a2\u6771\u5730\u65b9\u6574\u5099\u5c40\u6a2a\u6d5c\u6e2f\u6e7e\u7a7a\u6e2f\u6280\u8853\u8abf\u67fb\u4e8b\u52d9\u6240","boring_xml_url":0,"boring_view_url":0,"soilmap_view_url":66,"soiltest_xml_url":0,"soiltest_view_url":66},{"id":120202,"code":"B4KJ201801000-8451","latitude":"35.49853781","longitude":"139.7742726","source_code":"PORT14002010004","project_name":"\u6e2f\u6e7e\u5c40","survey_name":"\u662d\u548c46\u5e74\u5ea6\u6a2a\u6d5c\u6e2f\u5927\u9ed2\u753a\u5730\u5148\u7b2c3\u6b21\u571f\u8cea\u8abf\u67fb(\u5927\u9ed2\u753a\u5730\u5148\u53ca\u3073\u6247\u5cf6\u6771\u9632\u6ce2\u5824\u5730\u8cea\u8abf\u67fb)","client_name":"\u56fd\u571f\u4ea4\u901a\u7701\u95a2\u6771\u5730\u65b9\u6574\u5099\u5c40\u6a2a\u6d5c\u6e2f\u6e7e\u7a7a\u6e2f\u6280\u8853\u8abf\u67fb\u4e8b\u52d9\u6240","boring_xml_url":0,"boring_view_url":0,"soilmap_view_url":66,"soiltest_xml_url":0,"soiltest_view_url":0},{"id":120201,"code":"B4KJ201801000-8450","latitude":"35.50020418","longitude":"139.7701062","source_code":"PORT14002010003","project_name":"\u6e2f\u6e7e\u5c40","survey_name":"\u662d\u548c46\u5e74\u5ea6\u6a2a\u6d5c\u6e2f\u5927\u9ed2\u753a\u5730\u5148\u7b2c3\u6b21\u571f\u8cea\u8abf\u67fb(\u5927\u9ed2\u753a\u5730\u5148\u53ca\u3073\u6247\u5cf6\u6771\u9632\u6ce2\u5824\u5730\u8cea\u8abf\u67fb)","client_name":"\u56fd\u571f\u4ea4\u901a\u7701\u95a2\u6771\u5730\u65b9\u6574\u5099\u5c40\u6a2a\u6d5c\u6e2f\u6e7e\u7a7a\u6e2f\u6280\u8853\u8abf\u67fb\u4e8b\u52d9\u6240","boring_xml_url":0,"boring_view_url":0,"soilmap_view_url":66,"soiltest_xml_url":0,"soiltest_view_url":0},{"id":120200,"code":"B4KJ201801000-8449","latitude":"35.50187056","longitude":"139.7662176","source_code":"PORT14002010002","project_name":"\u6e2f\u6e7e\u5c40","survey_name":"\u662d\u548c46\u5e74\u5ea6\u6a2a\u6d5c\u6e2f\u5927\u9ed2\u753a\u5730\u5148\u7b2c3\u6b21\u571f\u8cea\u8abf\u67fb(\u5927\u9ed2\u753a\u5730\u5148\u53ca\u3073\u6247\u5cf6\u6771\u9632\u6ce2\u5824\u5730\u8cea\u8abf\u67fb)","client_name":"\u56fd\u571f\u4ea4\u901a\u7701\u95a2\u6771\u5730\u65b9\u6574\u5099\u5c40\u6a2a\u6d5c\u6e2f\u6e7e\u7a7a\u6e2f\u6280\u8853\u8abf\u67fb\u4e8b\u52d9\u6240","boring_xml_url":0,"boring_view_url":0,"soilmap_view_url":66,"soiltest_xml_url":0,"soiltest_view_url":0},{"id":120199,"code":"B4KJ201801000-8448","latitude":"35.47215146","longitude":"139.7584417","source_code":"PORT14002010001","project_name":"\u6e2f\u6e7e\u5c40","survey_name":"\u662d\u548c46\u5e74\u5ea6\u6a2a\u6d5c\u6e2f\u5927\u9ed2\u753a\u5730\u5148\u7b2c3\u6b21\u571f\u8cea\u8abf\u67fb(\u5927\u9ed2\u753a\u5730\u5148\u53ca\u3073\u6247\u5cf6\u6771\u9632\u6ce2\u5824\u5730\u8cea\u8abf\u67fb)","client_name":"\u56fd\u571f\u4ea4\u901a\u7701\u95a2\u6771\u5730\u65b9\u6574\u5099\u5c40\u6a2a\u6d5c\u6e2f\u6e7e\u7a7a\u6e2f\u6280\u8853\u8abf\u67fb\u4e8b\u52d9\u6240","boring_xml_url":0,"boring_view_url":0,"soilmap_view_url":66,"soiltest_xml_url":0,"soiltest_view_url":0},{"id":120198,"code":"B4KJ201801000-8447","latitude":"35.47548421","longitude":"139.7506644","source_code":"PORT14002010000","project_name":"\u6e2f\u6e7e\u5c40","survey_name":"\u662d\u548c46\u5e74\u5ea6\u6a2a\u6d5c\u6e2f\u5927\u9ed2\u753a\u5730\u5148\u7b2c3\u6b21\u571f\u8cea\u8abf\u67fb(\u5927\u9ed2\u753a\u5730\u5148\u53ca\u3073\u6247\u5cf6\u6771\u9632\u6ce2\u5824\u5730\u8cea\u8abf\u67fb)","client_name":"\u56fd\u571f\u4ea4\u901a\u7701\u95a2\u6771\u5730\u65b9\u6574\u5099\u5c40\u6a2a\u6d5c\u6e2f\u6e7e\u7a7a\u6e2f\u6280\u8853\u8abf\u67fb\u4e8b\u52d9\u6240","boring_xml_url":0,"boring_view_url":0,"soilmap_view_url":66,"soiltest_xml_url":0,"soiltest_view_url":0},{"id":120197,"code":"B4KJ201801000-8446","latitude":"35.47908094","longitude":"139.6526109","source_code":"PORT14001011404","project_name":"\u6e2f\u6e7e\u5c40","survey_name":"\u6a2a\u6d5c\u6e2f\u795e\u5948\u5ddd\u5730\u533a\u571f\u8cea\u8abf\u67fb","client_name":"\u56fd\u571f\u4ea4\u901a\u7701\u95a2\u6771\u5730\u65b9\u6574\u5099\u5c40\u6a2a\u6d5c\u6e2f\u6e7e\u7a7a\u6e2f\u6280\u8853\u8abf\u67fb\u4e8b\u52d9\u6240","boring_xml_url":0,"boring_view_url":0,"soilmap_view_url":66,"soiltest_xml_url":0,"soiltest_view_url":66},{"id":120196,"code":"B4KJ201801000-8445","latitude":"35.47894204","longitude":"139.6526665","source_code":"PORT14001011403","project_name":"\u6e2f\u6e7e\u5c40","survey_name":"\u6a2a\u6d5c\u6e2f\u795e\u5948\u5ddd\u5730\u533a\u571f\u8cea\u8abf\u67fb","client_name":"\u56fd\u571f\u4ea4\u901a\u7701\u95a2\u6771\u5730\u65b9\u6574\u5099\u5c40\u6a2a\u6d5c\u6e2f\u6e7e\u7a7a\u6e2f\u6280\u8853\u8abf\u67fb\u4e8b\u52d9\u6240","boring_xml_url":0,"boring_view_url":0,"soilmap_view_url":66,"soiltest_xml_url":0,"soiltest_view_url":66},{"id":120195,"code":"B4KJ201801000-8444","latitude":"35.47958096","longitude":"139.6521943","source_code":"PORT14001011402","project_name":"\u6e2f\u6e7e\u5c40","survey_name":"\u6a2a\u6d5c\u6e2f\u795e\u5948\u5ddd\u5730\u533a\u571f\u8cea\u8abf\u67fb","client_name":"\u56fd\u571f\u4ea4\u901a\u7701\u95a2\u6771\u5730\u65b9\u6574\u5099\u5c40\u6a2a\u6d5c\u6e2f\u6e7e\u7a7a\u6e2f\u6280\u8853\u8abf\u67fb\u4e8b\u52d9\u6240","boring_xml_url":0,"boring_view_url":0,"soilmap_view_url":66,"soiltest_xml_url":0,"soiltest_view_url":66},{"id":120194,"code":"B4KJ201801000-8443","latitude":"35.48024762","longitude":"139.6517498","source_code":"PORT14001011401","project_name":"\u6e2f\u6e7e\u5c40","survey_name":"\u6a2a\u6d5c\u6e2f\u795e\u5948\u5ddd\u5730\u533a\u571f\u8cea\u8abf\u67fb","client_name":"\u56fd\u571f\u4ea4\u901a\u7701\u95a2\u6771\u5730\u65b9\u6574\u5099\u5c40\u6a2a\u6d5c\u6e2f\u6e7e\u7a7a\u6e2f\u6280\u8853\u8abf\u67fb\u4e8b\u52d9\u6240","boring_xml_url":0,"boring_view_url":0,"soilmap_view_url":66,"soiltest_xml_url":0,"soiltest_view_url":66},{"id":120193,"code":"B4KJ201801000-8442","latitude":"35.37327084","longitude":"139.652899","source_code":"PORT14001011138","project_name":"\u6e2f\u6e7e\u5c40","survey_name":"\u5e73\u62109\u5e74\u5ea6\u6a2a\u6d5c\u6e2f\u91d1\u6ca2\u5730\u533a\u5cb8\u58c1(-10m)\u571f\u8cea\u8abf\u67fb","client_name":"\u56fd\u571f\u4ea4\u901a\u7701\u95a2\u6771\u5730\u65b9\u6574\u5099\u5c40\u6a2a\u6d5c\u6e2f\u6e7e\u7a7a\u6e2f\u6280\u8853\u8abf\u67fb\u4e8b\u52d9\u6240","boring_xml_url":0,"boring_view_url":0,"soilmap_view_url":66,"soiltest_xml_url":0,"soiltest_view_url":66},{"id":120192,"code":"B4KJ201801000-8441","latitude":"35.37410408","longitude":"139.6531767","source_code":"PORT14001011137","project_name":"\u6e2f\u6e7e\u5c40","survey_name":"\u5e73\u62109\u5e74\u5ea6\u6a2a\u6d5c\u6e2f\u91d1\u6ca2\u5730\u533a\u5cb8\u58c1(-10m)\u571f\u8cea\u8abf\u67fb","client_name":"\u56fd\u571f\u4ea4\u901a\u7701\u95a2\u6771\u5730\u65b9\u6574\u5099\u5c40\u6a2a\u6d5c\u6e2f\u6e7e\u7a7a\u6e2f\u6280\u8853\u8abf\u67fb\u4e8b\u52d9\u6240","boring_xml_url":0,"boring_view_url":0,"soilmap_view_url":66,"soiltest_xml_url":0,"soiltest_view_url":66},{"id":120191,"code":"B4KJ201801000-8440","latitude":"35.37382632","longitude":"139.6526212","source_code":"PORT14001011136","project_name":"\u6e2f\u6e7e\u5c40","survey_name":"\u5e73\u62109\u5e74\u5ea6\u6a2a\u6d5c\u6e2f\u91d1\u6ca2\u5730\u533a\u5cb8\u58c1(-10m)\u571f\u8cea\u8abf\u67fb","client_name":"\u56fd\u571f\u4ea4\u901a\u7701\u95a2\u6771\u5730\u65b9\u6574\u5099\u5c40\u6a2a\u6d5c\u6e2f\u6e7e\u7a7a\u6e2f\u6280\u8853\u8abf\u67fb\u4e8b\u52d9\u6240","boring_xml_url":0,"boring_view_url":0,"soilmap_view_url":66,"soiltest_xml_url":0,"soiltest_view_url":66},{"id":120190,"code":"B4KJ201801000-8439","latitude":"35.37327081","longitude":"139.6520657","source_code":"PORT14001011135","project_name":"\u6e2f\u6e7e\u5c40","survey_name":"\u5e73\u62109\u5e74\u5ea6\u6a2a\u6d5c\u6e2f\u91d1\u6ca2\u5730\u533a\u5cb8\u58c1(-10m)\u571f\u8cea\u8abf\u67fb","client_name":"\u56fd\u571f\u4ea4\u901a\u7701\u95a2\u6771\u5730\u65b9\u6574\u5099\u5c40\u6a2a\u6d5c\u6e2f\u6e7e\u7a7a\u6e2f\u6280\u8853\u8abf\u67fb\u4e8b\u52d9\u6240","boring_xml_url":0,"boring_view_url":0,"soilmap_view_url":66,"soiltest_xml_url":0,"soiltest_view_url":66},{"id":120189,"code":"B4KJ201801000-8438","latitude":"35.43937538","longitude":"139.6842826","source_code":"PORT14001011133","project_name":"\u6e2f\u6e7e\u5c40","survey_name":"\u5e73\u62108\u5e74\u5ea6\u6a2a\u6d5c\u6e2f\u571f\u8cea\u8abf\u67fb(\u305d\u306e2)","client_name":"\u56fd\u571f\u4ea4\u901a\u7701\u95a2\u6771\u5730\u65b9\u6574\u5099\u5c40\u6a2a\u6d5c\u6e2f\u6e7e\u7a7a\u6e2f\u6280\u8853\u8abf\u67fb\u4e8b\u52d9\u6240","boring_xml_url":0,"boring_view_url":0,"soilmap_view_url":66,"soiltest_xml_url":0,"soiltest_view_url":66},{"id":120188,"code":"B4KJ201801000-8437","latitude":"35.43937536","longitude":"139.6837271","source_code":"PORT14001011132","project_name":"\u6e2f\u6e7e\u5c40","survey_name":"\u5e73\u62108\u5e74\u5ea6\u6a2a\u6d5c\u6e2f\u571f\u8cea\u8abf\u67fb(\u305d\u306e2)","client_name":"\u56fd\u571f\u4ea4\u901a\u7701\u95a2\u6771\u5730\u65b9\u6574\u5099\u5c40\u6a2a\u6d5c\u6e2f\u6e7e\u7a7a\u6e2f\u6280\u8853\u8abf\u67fb\u4e8b\u52d9\u6240","boring_xml_url":0,"boring_view_url":0,"soilmap_view_url":66,"soiltest_xml_url":0,"soiltest_view_url":66},{"id":120187,"code":"B4KJ201801000-8436","latitude":"35.44159738","longitude":"139.6856713","source_code":"PORT14001011131","project_name":"\u6e2f\u6e7e\u5c40","survey_name":"\u5e73\u62108\u5e74\u5ea6\u6a2a\u6d5c\u6e2f\u571f\u8cea\u8abf\u67fb(\u305d\u306e2)","client_name":"\u56fd\u571f\u4ea4\u901a\u7701\u95a2\u6771\u5730\u65b9\u6574\u5099\u5c40\u6a2a\u6d5c\u6e2f\u6e7e\u7a7a\u6e2f\u6280\u8853\u8abf\u67fb\u4e8b\u52d9\u6240","boring_xml_url":0,"boring_view_url":0,"soilmap_view_url":66,"soiltest_xml_url":0,"soiltest_view_url":66},{"id":120186,"code":"B4KJ201801000-8435","latitude":"35.44187512","longitude":"139.6851158","source_code":"PORT14001011130","project_name":"\u6e2f\u6e7e\u5c40","survey_name":"\u5e73\u62108\u5e74\u5ea6\u6a2a\u6d5c\u6e2f\u571f\u8cea\u8abf\u67fb(\u305d\u306e2)","client_name":"\u56fd\u571f\u4ea4\u901a\u7701\u95a2\u6771\u5730\u65b9\u6574\u5099\u5c40\u6a2a\u6d5c\u6e2f\u6e7e\u7a7a\u6e2f\u6280\u8853\u8abf\u67fb\u4e8b\u52d9\u6240","boring_xml_url":0,"boring_view_url":0,"soilmap_view_url":66,"soiltest_xml_url":0,"soiltest_view_url":66},{"id":120185,"code":"B4KJ201801000-8434","latitude":"35.46353806","longitude":"139.6365079","source_code":"PORT14001011129","project_name":"\u6e2f\u6e7e\u5c40","survey_name":"\u5e73\u62108\u5e74\u5ea6\u6a2a\u6d5c\u6e2f\u571f\u8cea\u8abf\u67fb","client_name":"\u56fd\u571f\u4ea4\u901a\u7701\u95a2\u6771\u5730\u65b9\u6574\u5099\u5c40\u6a2a\u6d5c\u6e2f\u6e7e\u7a7a\u6e2f\u6280\u8853\u8abf\u67fb\u4e8b\u52d9\u6240","boring_xml_url":0,"boring_view_url":0,"soilmap_view_url":66,"soiltest_xml_url":0,"soiltest_view_url":66},{"id":120184,"code":"B4KJ201801000-8433","latitude":"35.46353804","longitude":"139.6359524","source_code":"PORT14001011128","project_name":"\u6e2f\u6e7e\u5c40","survey_name":"\u5e73\u62108\u5e74\u5ea6\u6a2a\u6d5c\u6e2f\u571f\u8cea\u8abf\u67fb","client_name":"\u56fd\u571f\u4ea4\u901a\u7701\u95a2\u6771\u5730\u65b9\u6574\u5099\u5c40\u6a2a\u6d5c\u6e2f\u6e7e\u7a7a\u6e2f\u6280\u8853\u8abf\u67fb\u4e8b\u52d9\u6240","boring_xml_url":0,"boring_view_url":0,"soilmap_view_url":66,"soiltest_xml_url":0,"soiltest_view_url":66},{"id":120183,"code":"B4KJ201801000-8432","latitude":"35.46353802","longitude":"139.6351191","source_code":"PORT14001011127","project_name":"\u6e2f\u6e7e\u5c40","survey_name":"\u5e73\u62108\u5e74\u5ea6\u6a2a\u6d5c\u6e2f\u571f\u8cea\u8abf\u67fb","client_name":"\u56fd\u571f\u4ea4\u901a\u7701\u95a2\u6771\u5730\u65b9\u6574\u5099\u5c40\u6a2a\u6d5c\u6e2f\u6e7e\u7a7a\u6e2f\u6280\u8853\u8abf\u67fb\u4e8b\u52d9\u6240","boring_xml_url":0,"boring_view_url":0,"soilmap_view_url":66,"soiltest_xml_url":0,"soiltest_view_url":66},{"id":120182,"code":"B4KJ201801000-8431","latitude":"35.46381581","longitude":"139.6365079","source_code":"PORT14001011126","project_name":"\u6e2f\u6e7e\u5c40","survey_name":"\u5e73\u62108\u5e74\u5ea6\u6a2a\u6d5c\u6e2f\u571f\u8cea\u8abf\u67fb","client_name":"\u56fd\u571f\u4ea4\u901a\u7701\u95a2\u6771\u5730\u65b9\u6574\u5099\u5c40\u6a2a\u6d5c\u6e2f\u6e7e\u7a7a\u6e2f\u6280\u8853\u8abf\u67fb\u4e8b\u52d9\u6240","boring_xml_url":0,"boring_view_url":0,"soilmap_view_url":66,"soiltest_xml_url":0,"soiltest_view_url":66},{"id":120181,"code":"B4KJ201801000-8430","latitude":"35.46381577","longitude":"139.6351191","source_code":"PORT14001011124","project_name":"\u6e2f\u6e7e\u5c40","survey_name":"\u5e73\u62108\u5e74\u5ea6\u6a2a\u6d5c\u6e2f\u571f\u8cea\u8abf\u67fb","client_name":"\u56fd\u571f\u4ea4\u901a\u7701\u95a2\u6771\u5730\u65b9\u6574\u5099\u5c40\u6a2a\u6d5c\u6e2f\u6e7e\u7a7a\u6e2f\u6280\u8853\u8abf\u67fb\u4e8b\u52d9\u6240","boring_xml_url":0,"boring_view_url":0,"soilmap_view_url":66,"soiltest_xml_url":0,"soiltest_view_url":66},{"id":120180,"code":"B4KJ201801000-8429","latitude":"35.45687229","longitude":"139.6420632","source_code":"PORT14001011123","project_name":"\u6e2f\u6e7e\u5c40","survey_name":"\u5e73\u62108\u5e74\u5ea6\u6a2a\u6d5c\u6e2f\u65b0\u6e2f\u5730\u533a\u5cb8\u58c1(-7.5m)\u571f\u8cea\u8abf\u67fb","client_name":"\u56fd\u571f\u4ea4\u901a\u7701\u95a2\u6771\u5730\u65b9\u6574\u5099\u5c40\u6a2a\u6d5c\u6e2f\u6e7e\u7a7a\u6e2f\u6280\u8853\u8abf\u67fb\u4e8b\u52d9\u6240","boring_xml_url":0,"boring_view_url":0,"soilmap_view_url":66,"soiltest_xml_url":0,"soiltest_view_url":66},{"id":120179,"code":"B4KJ201801000-8428","latitude":"35.45687229","longitude":"139.6420632","source_code":"PORT14001011122","project_name":"\u6e2f\u6e7e\u5c40","survey_name":"\u5e73\u62108\u5e74\u5ea6\u6a2a\u6d5c\u6e2f\u65b0\u6e2f\u5730\u533a\u5cb8\u58c1(-7.5m)\u571f\u8cea\u8abf\u67fb","client_name":"\u56fd\u571f\u4ea4\u901a\u7701\u95a2\u6771\u5730\u65b9\u6574\u5099\u5c40\u6a2a\u6d5c\u6e2f\u6e7e\u7a7a\u6e2f\u6280\u8853\u8abf\u67fb\u4e8b\u52d9\u6240","boring_xml_url":0,"boring_view_url":0,"soilmap_view_url":66,"soiltest_xml_url":0,"soiltest_view_url":66},{"id":120178,"code":"B4KJ201801000-8427","latitude":"35.45687229","longitude":"139.6420632","source_code":"PORT14001011121","project_name":"\u6e2f\u6e7e\u5c40","survey_name":"\u5e73\u62108\u5e74\u5ea6\u6a2a\u6d5c\u6e2f\u65b0\u6e2f\u5730\u533a\u5cb8\u58c1(-7.5m)\u571f\u8cea\u8abf\u67fb","client_name":"\u56fd\u571f\u4ea4\u901a\u7701\u95a2\u6771\u5730\u65b9\u6574\u5099\u5c40\u6a2a\u6d5c\u6e2f\u6e7e\u7a7a\u6e2f\u6280\u8853\u8abf\u67fb\u4e8b\u52d9\u6240","boring_xml_url":0,"boring_view_url":0,"soilmap_view_url":66,"soiltest_xml_url":0,"soiltest_view_url":66},{"id":120177,"code":"B4KJ201801000-8426","latitude":"35.45798328","longitude":"139.6420632","source_code":"PORT14001011120","project_name":"\u6e2f\u6e7e\u5c40","survey_name":"\u5e73\u62108\u5e74\u5ea6\u6a2a\u6d5c\u6e2f\u65b0\u6e2f\u5730\u533a\u5cb8\u58c1(-7.5m)\u571f\u8cea\u8abf\u67fb","client_name":"\u56fd\u571f\u4ea4\u901a\u7701\u95a2\u6771\u5730\u65b9\u6574\u5099\u5c40\u6a2a\u6d5c\u6e2f\u6e7e\u7a7a\u6e2f\u6280\u8853\u8abf\u67fb\u4e8b\u52d9\u6240","boring_xml_url":0,"boring_view_url":0,"soilmap_view_url":66,"soiltest_xml_url":0,"soiltest_view_url":66},{"id":120176,"code":"B4KJ201801000-8425","latitude":"35.45687229","longitude":"139.6420632","source_code":"PORT14001011119","project_name":"\u6e2f\u6e7e\u5c40","survey_name":"\u5e73\u62108\u5e74\u5ea6\u6a2a\u6d5c\u6e2f\u65b0\u6e2f\u5730\u533a\u5cb8\u58c1(-7.5m)\u571f\u8cea\u8abf\u67fb","client_name":"\u56fd\u571f\u4ea4\u901a\u7701\u95a2\u6771\u5730\u65b9\u6574\u5099\u5c40\u6a2a\u6d5c\u6e2f\u6e7e\u7a7a\u6e2f\u6280\u8853\u8abf\u67fb\u4e8b\u52d9\u6240","boring_xml_url":0,"boring_view_url":0,"soilmap_view_url":66,"soiltest_xml_url":0,"soiltest_view_url":66}]}}