{"header":{"xyz":{"source":[],"mosaic":false},"page":6685,"raw":{"soiltest_result":"0","bbox":"57.598333,109.544722,1.933333,163.806111","page":"6685"},"conditions":{"soiltest_result":0,"north":57.598333,"west":109.544722,"south":1.933333,"east":163.806111},"success":true,"message":""},"data":{"meta":{"total":212844,"page":6685,"pages":7095,"count":30},"values":[{"id":120025,"code":"B4KJ201801000-8274","latitude":"35.44687415","longitude":"139.6698391","source_code":"PORT14001010874","project_name":"\u6e2f\u6e7e\u5c40","survey_name":"\u662d\u548c41\u5e74\u5ea6\u6a2a\u6d5c\u6e2f\u672c\u7267\u57e0\u982d\u7b2c24\u6b21\u571f\u8cea\u8abf\u67fb\u5de5\u4e8b","client_name":"\u56fd\u571f\u4ea4\u901a\u7701\u95a2\u6771\u5730\u65b9\u6574\u5099\u5c40\u6a2a\u6d5c\u6e2f\u6e7e\u7a7a\u6e2f\u6280\u8853\u8abf\u67fb\u4e8b\u52d9\u6240","boring_xml_url":0,"boring_view_url":0,"soilmap_view_url":66,"soiltest_xml_url":0,"soiltest_view_url":0},{"id":120024,"code":"B4KJ201801000-8273","latitude":"35.44576315","longitude":"139.6692836","source_code":"PORT14001010873","project_name":"\u6e2f\u6e7e\u5c40","survey_name":"\u662d\u548c41\u5e74\u5ea6\u6a2a\u6d5c\u6e2f\u672c\u7267\u57e0\u982d\u7b2c24\u6b21\u571f\u8cea\u8abf\u67fb\u5de5\u4e8b","client_name":"\u56fd\u571f\u4ea4\u901a\u7701\u95a2\u6771\u5730\u65b9\u6574\u5099\u5c40\u6a2a\u6d5c\u6e2f\u6e7e\u7a7a\u6e2f\u6280\u8853\u8abf\u67fb\u4e8b\u52d9\u6240","boring_xml_url":0,"boring_view_url":0,"soilmap_view_url":66,"soiltest_xml_url":0,"soiltest_view_url":0},{"id":120023,"code":"B4KJ201801000-8272","latitude":"35.44492989","longitude":"139.6687281","source_code":"PORT14001010872","project_name":"\u6e2f\u6e7e\u5c40","survey_name":"\u662d\u548c41\u5e74\u5ea6\u6a2a\u6d5c\u6e2f\u672c\u7267\u57e0\u982d\u7b2c24\u6b21\u571f\u8cea\u8abf\u67fb\u5de5\u4e8b","client_name":"\u56fd\u571f\u4ea4\u901a\u7701\u95a2\u6771\u5730\u65b9\u6574\u5099\u5c40\u6a2a\u6d5c\u6e2f\u6e7e\u7a7a\u6e2f\u6280\u8853\u8abf\u67fb\u4e8b\u52d9\u6240","boring_xml_url":0,"boring_view_url":0,"soilmap_view_url":66,"soiltest_xml_url":0,"soiltest_view_url":0},{"id":120022,"code":"B4KJ201801000-8271","latitude":"35.44187463","longitude":"139.666784","source_code":"PORT14001010871","project_name":"\u6e2f\u6e7e\u5c40","survey_name":"\u662d\u548c41\u5e74\u5ea6\u6a2a\u6d5c\u6e2f\u672c\u7267\u57e0\u982d\u7b2c24\u6b21\u571f\u8cea\u8abf\u67fb\u5de5\u4e8b","client_name":"\u56fd\u571f\u4ea4\u901a\u7701\u95a2\u6771\u5730\u65b9\u6574\u5099\u5c40\u6a2a\u6d5c\u6e2f\u6e7e\u7a7a\u6e2f\u6280\u8853\u8abf\u67fb\u4e8b\u52d9\u6240","boring_xml_url":0,"boring_view_url":0,"soilmap_view_url":66,"soiltest_xml_url":0,"soiltest_view_url":0},{"id":120021,"code":"B4KJ201801000-8270","latitude":"35.44965164","longitude":"139.6706722","source_code":"PORT14001010870","project_name":"\u6e2f\u6e7e\u5c40","survey_name":"\u662d\u548c41\u5e74\u5ea6\u6a2a\u6d5c\u6e2f\u672c\u7267\u57e0\u982d\u7b2c24\u6b21\u571f\u8cea\u8abf\u67fb\u5de5\u4e8b","client_name":"\u56fd\u571f\u4ea4\u901a\u7701\u95a2\u6771\u5730\u65b9\u6574\u5099\u5c40\u6a2a\u6d5c\u6e2f\u6e7e\u7a7a\u6e2f\u6280\u8853\u8abf\u67fb\u4e8b\u52d9\u6240","boring_xml_url":0,"boring_view_url":0,"soilmap_view_url":66,"soiltest_xml_url":0,"soiltest_view_url":66},{"id":120020,"code":"B4KJ201801000-8269","latitude":"35.44992936","longitude":"139.6698389","source_code":"PORT14001010869","project_name":"\u6e2f\u6e7e\u5c40","survey_name":"\u662d\u548c41\u5e74\u5ea6\u6a2a\u6d5c\u6e2f\u672c\u7267\u57e0\u982d\u7b2c24\u6b21\u571f\u8cea\u8abf\u67fb\u5de5\u4e8b","client_name":"\u56fd\u571f\u4ea4\u901a\u7701\u95a2\u6771\u5730\u65b9\u6574\u5099\u5c40\u6a2a\u6d5c\u6e2f\u6e7e\u7a7a\u6e2f\u6280\u8853\u8abf\u67fb\u4e8b\u52d9\u6240","boring_xml_url":0,"boring_view_url":0,"soilmap_view_url":66,"soiltest_xml_url":0,"soiltest_view_url":66},{"id":120019,"code":"B4KJ201801000-8268","latitude":"35.45020709","longitude":"139.6690057","source_code":"PORT14001010868","project_name":"\u6e2f\u6e7e\u5c40","survey_name":"\u662d\u548c41\u5e74\u5ea6\u6a2a\u6d5c\u6e2f\u672c\u7267\u57e0\u982d\u7b2c24\u6b21\u571f\u8cea\u8abf\u67fb\u5de5\u4e8b","client_name":"\u56fd\u571f\u4ea4\u901a\u7701\u95a2\u6771\u5730\u65b9\u6574\u5099\u5c40\u6a2a\u6d5c\u6e2f\u6e7e\u7a7a\u6e2f\u6280\u8853\u8abf\u67fb\u4e8b\u52d9\u6240","boring_xml_url":0,"boring_view_url":0,"soilmap_view_url":66,"soiltest_xml_url":0,"soiltest_view_url":66},{"id":120018,"code":"B4KJ201801000-8267","latitude":"35.44965159","longitude":"139.6687279","source_code":"PORT14001010867","project_name":"\u6e2f\u6e7e\u5c40","survey_name":"\u662d\u548c41\u5e74\u5ea6\u6a2a\u6d5c\u6e2f\u672c\u7267\u57e0\u982d\u7b2c24\u6b21\u571f\u8cea\u8abf\u67fb\u5de5\u4e8b","client_name":"\u56fd\u571f\u4ea4\u901a\u7701\u95a2\u6771\u5730\u65b9\u6574\u5099\u5c40\u6a2a\u6d5c\u6e2f\u6e7e\u7a7a\u6e2f\u6280\u8853\u8abf\u67fb\u4e8b\u52d9\u6240","boring_xml_url":0,"boring_view_url":0,"soilmap_view_url":66,"soiltest_xml_url":0,"soiltest_view_url":66},{"id":120017,"code":"B4KJ201801000-8266","latitude":"35.44937383","longitude":"139.6684502","source_code":"PORT14001010866","project_name":"\u6e2f\u6e7e\u5c40","survey_name":"\u662d\u548c41\u5e74\u5ea6\u6a2a\u6d5c\u6e2f\u672c\u7267\u57e0\u982d\u7b2c24\u6b21\u571f\u8cea\u8abf\u67fb\u5de5\u4e8b","client_name":"\u56fd\u571f\u4ea4\u901a\u7701\u95a2\u6771\u5730\u65b9\u6574\u5099\u5c40\u6a2a\u6d5c\u6e2f\u6e7e\u7a7a\u6e2f\u6280\u8853\u8abf\u67fb\u4e8b\u52d9\u6240","boring_xml_url":0,"boring_view_url":0,"soilmap_view_url":66,"soiltest_xml_url":0,"soiltest_view_url":66},{"id":120016,"code":"B4KJ201801000-8265","latitude":"35.44881833","longitude":"139.6681725","source_code":"PORT14001010865","project_name":"\u6e2f\u6e7e\u5c40","survey_name":"\u662d\u548c41\u5e74\u5ea6\u6a2a\u6d5c\u6e2f\u672c\u7267\u57e0\u982d\u7b2c24\u6b21\u571f\u8cea\u8abf\u67fb\u5de5\u4e8b","client_name":"\u56fd\u571f\u4ea4\u901a\u7701\u95a2\u6771\u5730\u65b9\u6574\u5099\u5c40\u6a2a\u6d5c\u6e2f\u6e7e\u7a7a\u6e2f\u6280\u8853\u8abf\u67fb\u4e8b\u52d9\u6240","boring_xml_url":0,"boring_view_url":0,"soilmap_view_url":66,"soiltest_xml_url":0,"soiltest_view_url":66},{"id":120015,"code":"B4KJ201801000-8264","latitude":"35.44826283","longitude":"139.6678947","source_code":"PORT14001010864","project_name":"\u6e2f\u6e7e\u5c40","survey_name":"\u662d\u548c41\u5e74\u5ea6\u6a2a\u6d5c\u6e2f\u672c\u7267\u57e0\u982d\u7b2c24\u6b21\u571f\u8cea\u8abf\u67fb\u5de5\u4e8b","client_name":"\u56fd\u571f\u4ea4\u901a\u7701\u95a2\u6771\u5730\u65b9\u6574\u5099\u5c40\u6a2a\u6d5c\u6e2f\u6e7e\u7a7a\u6e2f\u6280\u8853\u8abf\u67fb\u4e8b\u52d9\u6240","boring_xml_url":0,"boring_view_url":0,"soilmap_view_url":66,"soiltest_xml_url":0,"soiltest_view_url":66},{"id":120014,"code":"B4KJ201801000-8263","latitude":"35.44770733","longitude":"139.667617","source_code":"PORT14001010863","project_name":"\u6e2f\u6e7e\u5c40","survey_name":"\u662d\u548c41\u5e74\u5ea6\u6a2a\u6d5c\u6e2f\u672c\u7267\u57e0\u982d\u7b2c24\u6b21\u571f\u8cea\u8abf\u67fb\u5de5\u4e8b","client_name":"\u56fd\u571f\u4ea4\u901a\u7701\u95a2\u6771\u5730\u65b9\u6574\u5099\u5c40\u6a2a\u6d5c\u6e2f\u6e7e\u7a7a\u6e2f\u6280\u8853\u8abf\u67fb\u4e8b\u52d9\u6240","boring_xml_url":0,"boring_view_url":0,"soilmap_view_url":66,"soiltest_xml_url":0,"soiltest_view_url":66},{"id":120013,"code":"B4KJ201801000-8262","latitude":"35.44687408","longitude":"139.6673393","source_code":"PORT14001010862","project_name":"\u6e2f\u6e7e\u5c40","survey_name":"\u662d\u548c41\u5e74\u5ea6\u6a2a\u6d5c\u6e2f\u672c\u7267\u57e0\u982d\u7b2c24\u6b21\u571f\u8cea\u8abf\u67fb\u5de5\u4e8b","client_name":"\u56fd\u571f\u4ea4\u901a\u7701\u95a2\u6771\u5730\u65b9\u6574\u5099\u5c40\u6a2a\u6d5c\u6e2f\u6e7e\u7a7a\u6e2f\u6280\u8853\u8abf\u67fb\u4e8b\u52d9\u6240","boring_xml_url":0,"boring_view_url":0,"soilmap_view_url":66,"soiltest_xml_url":0,"soiltest_view_url":66},{"id":120012,"code":"B4KJ201801000-8261","latitude":"35.44604083","longitude":"139.6667838","source_code":"PORT14001010861","project_name":"\u6e2f\u6e7e\u5c40","survey_name":"\u662d\u548c41\u5e74\u5ea6\u6a2a\u6d5c\u6e2f\u672c\u7267\u57e0\u982d\u7b2c24\u6b21\u571f\u8cea\u8abf\u67fb\u5de5\u4e8b","client_name":"\u56fd\u571f\u4ea4\u901a\u7701\u95a2\u6771\u5730\u65b9\u6574\u5099\u5c40\u6a2a\u6d5c\u6e2f\u6e7e\u7a7a\u6e2f\u6280\u8853\u8abf\u67fb\u4e8b\u52d9\u6240","boring_xml_url":0,"boring_view_url":0,"soilmap_view_url":66,"soiltest_xml_url":0,"soiltest_view_url":0},{"id":120011,"code":"B4KJ201801000-8260","latitude":"35.44548532","longitude":"139.6662283","source_code":"PORT14001010860","project_name":"\u6e2f\u6e7e\u5c40","survey_name":"\u662d\u548c41\u5e74\u5ea6\u6a2a\u6d5c\u6e2f\u672c\u7267\u57e0\u982d\u7b2c24\u6b21\u571f\u8cea\u8abf\u67fb\u5de5\u4e8b","client_name":"\u56fd\u571f\u4ea4\u901a\u7701\u95a2\u6771\u5730\u65b9\u6574\u5099\u5c40\u6a2a\u6d5c\u6e2f\u6e7e\u7a7a\u6e2f\u6280\u8853\u8abf\u67fb\u4e8b\u52d9\u6240","boring_xml_url":0,"boring_view_url":0,"soilmap_view_url":66,"soiltest_xml_url":0,"soiltest_view_url":0},{"id":120010,"code":"B4KJ201801000-8259","latitude":"35.44854072","longitude":"139.6731721","source_code":"PORT14001010847","project_name":"\u6e2f\u6e7e\u5c40","survey_name":"\u662d\u548c40\u5e74\u5ea6\u6a2a\u6d5c\u6e2f\u672c\u7267\u57e0\u982d\u7b2c7\u6b21\u571f\u8cea\u8abf\u67fb\u5de5\u4e8b","client_name":"\u56fd\u571f\u4ea4\u901a\u7701\u95a2\u6771\u5730\u65b9\u6574\u5099\u5c40\u6a2a\u6d5c\u6e2f\u6e7e\u7a7a\u6e2f\u6280\u8853\u8abf\u67fb\u4e8b\u52d9\u6240","boring_xml_url":0,"boring_view_url":0,"soilmap_view_url":66,"soiltest_xml_url":0,"soiltest_view_url":0},{"id":120009,"code":"B4KJ201801000-8258","latitude":"35.43770846","longitude":"139.6678952","source_code":"PORT14001010789","project_name":"\u6e2f\u6e7e\u5c40","survey_name":"\u662d\u548c39\u5e74\u5ea6\u6a2a\u6d5c\u6e2f\u672c\u7267\u57e0\u982d\u7b2c8\u6b21\u571f\u8cea\u8abf\u67fb\u5de5\u4e8b","client_name":"\u56fd\u571f\u4ea4\u901a\u7701\u95a2\u6771\u5730\u65b9\u6574\u5099\u5c40\u6a2a\u6d5c\u6e2f\u6e7e\u7a7a\u6e2f\u6280\u8853\u8abf\u67fb\u4e8b\u52d9\u6240","boring_xml_url":0,"boring_view_url":0,"soilmap_view_url":66,"soiltest_xml_url":0,"soiltest_view_url":0},{"id":120008,"code":"B4KJ201801000-8257","latitude":"35.44048594","longitude":"139.6684505","source_code":"PORT14001010788","project_name":"\u6e2f\u6e7e\u5c40","survey_name":"\u662d\u548c39\u5e74\u5ea6\u6a2a\u6d5c\u6e2f\u672c\u7267\u57e0\u982d\u7b2c8\u6b21\u571f\u8cea\u8abf\u67fb\u5de5\u4e8b","client_name":"\u56fd\u571f\u4ea4\u901a\u7701\u95a2\u6771\u5730\u65b9\u6574\u5099\u5c40\u6a2a\u6d5c\u6e2f\u6e7e\u7a7a\u6e2f\u6280\u8853\u8abf\u67fb\u4e8b\u52d9\u6240","boring_xml_url":0,"boring_view_url":0,"soilmap_view_url":66,"soiltest_xml_url":0,"soiltest_view_url":0},{"id":120007,"code":"B4KJ201801000-8256","latitude":"35.44159695","longitude":"139.6692838","source_code":"PORT14001010787","project_name":"\u6e2f\u6e7e\u5c40","survey_name":"\u662d\u548c39\u5e74\u5ea6\u6a2a\u6d5c\u6e2f\u672c\u7267\u57e0\u982d\u7b2c8\u6b21\u571f\u8cea\u8abf\u67fb\u5de5\u4e8b","client_name":"\u56fd\u571f\u4ea4\u901a\u7701\u95a2\u6771\u5730\u65b9\u6574\u5099\u5c40\u6a2a\u6d5c\u6e2f\u6e7e\u7a7a\u6e2f\u6280\u8853\u8abf\u67fb\u4e8b\u52d9\u6240","boring_xml_url":0,"boring_view_url":0,"soilmap_view_url":66,"soiltest_xml_url":0,"soiltest_view_url":0},{"id":120006,"code":"B4KJ201801000-8255","latitude":"35.44298569","longitude":"139.6698392","source_code":"PORT14001010786","project_name":"\u6e2f\u6e7e\u5c40","survey_name":"\u662d\u548c39\u5e74\u5ea6\u6a2a\u6d5c\u6e2f\u672c\u7267\u57e0\u982d\u7b2c8\u6b21\u571f\u8cea\u8abf\u67fb\u5de5\u4e8b","client_name":"\u56fd\u571f\u4ea4\u901a\u7701\u95a2\u6771\u5730\u65b9\u6574\u5099\u5c40\u6a2a\u6d5c\u6e2f\u6e7e\u7a7a\u6e2f\u6280\u8853\u8abf\u67fb\u4e8b\u52d9\u6240","boring_xml_url":0,"boring_view_url":0,"soilmap_view_url":66,"soiltest_xml_url":0,"soiltest_view_url":0},{"id":120005,"code":"B4KJ201801000-8254","latitude":"35.44520771","longitude":"139.6715057","source_code":"PORT14001010785","project_name":"\u6e2f\u6e7e\u5c40","survey_name":"\u662d\u548c39\u5e74\u5ea6\u6a2a\u6d5c\u6e2f\u672c\u7267\u57e0\u982d\u7b2c8\u6b21\u571f\u8cea\u8abf\u67fb\u5de5\u4e8b","client_name":"\u56fd\u571f\u4ea4\u901a\u7701\u95a2\u6771\u5730\u65b9\u6574\u5099\u5c40\u6a2a\u6d5c\u6e2f\u6e7e\u7a7a\u6e2f\u6280\u8853\u8abf\u67fb\u4e8b\u52d9\u6240","boring_xml_url":0,"boring_view_url":0,"soilmap_view_url":66,"soiltest_xml_url":0,"soiltest_view_url":0},{"id":120004,"code":"B4KJ201801000-8253","latitude":"35.44604096","longitude":"139.6717834","source_code":"PORT14001010784","project_name":"\u6e2f\u6e7e\u5c40","survey_name":"\u662d\u548c39\u5e74\u5ea6\u6a2a\u6d5c\u6e2f\u672c\u7267\u57e0\u982d\u7b2c8\u6b21\u571f\u8cea\u8abf\u67fb\u5de5\u4e8b","client_name":"\u56fd\u571f\u4ea4\u901a\u7701\u95a2\u6771\u5730\u65b9\u6574\u5099\u5c40\u6a2a\u6d5c\u6e2f\u6e7e\u7a7a\u6e2f\u6280\u8853\u8abf\u67fb\u4e8b\u52d9\u6240","boring_xml_url":0,"boring_view_url":0,"soilmap_view_url":66,"soiltest_xml_url":0,"soiltest_view_url":0},{"id":120003,"code":"B4KJ201801000-8252","latitude":"35.44659648","longitude":"139.6728944","source_code":"PORT14001010783","project_name":"\u6e2f\u6e7e\u5c40","survey_name":"\u662d\u548c39\u5e74\u5ea6\u6a2a\u6d5c\u6e2f\u672c\u7267\u57e0\u982d\u7b2c8\u6b21\u571f\u8cea\u8abf\u67fb\u5de5\u4e8b","client_name":"\u56fd\u571f\u4ea4\u901a\u7701\u95a2\u6771\u5730\u65b9\u6574\u5099\u5c40\u6a2a\u6d5c\u6e2f\u6e7e\u7a7a\u6e2f\u6280\u8853\u8abf\u67fb\u4e8b\u52d9\u6240","boring_xml_url":0,"boring_view_url":0,"soilmap_view_url":66,"soiltest_xml_url":0,"soiltest_view_url":0},{"id":120002,"code":"B4KJ201801000-8251","latitude":"35.44687421","longitude":"139.6723389","source_code":"PORT14001010782","project_name":"\u6e2f\u6e7e\u5c40","survey_name":"\u662d\u548c39\u5e74\u5ea6\u6a2a\u6d5c\u6e2f\u672c\u7267\u57e0\u982d\u7b2c8\u6b21\u571f\u8cea\u8abf\u67fb\u5de5\u4e8b","client_name":"\u56fd\u571f\u4ea4\u901a\u7701\u95a2\u6771\u5730\u65b9\u6574\u5099\u5c40\u6a2a\u6d5c\u6e2f\u6e7e\u7a7a\u6e2f\u6280\u8853\u8abf\u67fb\u4e8b\u52d9\u6240","boring_xml_url":0,"boring_view_url":0,"soilmap_view_url":66,"soiltest_xml_url":0,"soiltest_view_url":0},{"id":120001,"code":"B4KJ201801000-8250","latitude":"35.44715195","longitude":"139.6717833","source_code":"PORT14001010781","project_name":"\u6e2f\u6e7e\u5c40","survey_name":"\u662d\u548c39\u5e74\u5ea6\u6a2a\u6d5c\u6e2f\u672c\u7267\u57e0\u982d\u7b2c8\u6b21\u571f\u8cea\u8abf\u67fb\u5de5\u4e8b","client_name":"\u56fd\u571f\u4ea4\u901a\u7701\u95a2\u6771\u5730\u65b9\u6574\u5099\u5c40\u6a2a\u6d5c\u6e2f\u6e7e\u7a7a\u6e2f\u6280\u8853\u8abf\u67fb\u4e8b\u52d9\u6240","boring_xml_url":0,"boring_view_url":0,"soilmap_view_url":66,"soiltest_xml_url":0,"soiltest_view_url":0},{"id":120000,"code":"B4KJ201801000-8249","latitude":"35.44770747","longitude":"139.6728943","source_code":"PORT14001010780","project_name":"\u6e2f\u6e7e\u5c40","survey_name":"\u662d\u548c39\u5e74\u5ea6\u6a2a\u6d5c\u6e2f\u672c\u7267\u57e0\u982d\u7b2c8\u6b21\u571f\u8cea\u8abf\u67fb\u5de5\u4e8b","client_name":"\u56fd\u571f\u4ea4\u901a\u7701\u95a2\u6771\u5730\u65b9\u6574\u5099\u5c40\u6a2a\u6d5c\u6e2f\u6e7e\u7a7a\u6e2f\u6280\u8853\u8abf\u67fb\u4e8b\u52d9\u6240","boring_xml_url":0,"boring_view_url":0,"soilmap_view_url":66,"soiltest_xml_url":0,"soiltest_view_url":0},{"id":119999,"code":"B4KJ201801000-8248","latitude":"35.44826299","longitude":"139.6737276","source_code":"PORT14001010779","project_name":"\u6e2f\u6e7e\u5c40","survey_name":"\u662d\u548c39\u5e74\u5ea6\u6a2a\u6d5c\u6e2f\u672c\u7267\u57e0\u982d\u7b2c8\u6b21\u571f\u8cea\u8abf\u67fb\u5de5\u4e8b","client_name":"\u56fd\u571f\u4ea4\u901a\u7701\u95a2\u6771\u5730\u65b9\u6574\u5099\u5c40\u6a2a\u6d5c\u6e2f\u6e7e\u7a7a\u6e2f\u6280\u8853\u8abf\u67fb\u4e8b\u52d9\u6240","boring_xml_url":0,"boring_view_url":0,"soilmap_view_url":66,"soiltest_xml_url":0,"soiltest_view_url":0},{"id":119998,"code":"B4KJ201801000-8247","latitude":"35.44881845","longitude":"139.6726165","source_code":"PORT14001010778","project_name":"\u6e2f\u6e7e\u5c40","survey_name":"\u662d\u548c39\u5e74\u5ea6\u6a2a\u6d5c\u6e2f\u672c\u7267\u57e0\u982d\u7b2c8\u6b21\u571f\u8cea\u8abf\u67fb\u5de5\u4e8b","client_name":"\u56fd\u571f\u4ea4\u901a\u7701\u95a2\u6771\u5730\u65b9\u6574\u5099\u5c40\u6a2a\u6d5c\u6e2f\u6e7e\u7a7a\u6e2f\u6280\u8853\u8abf\u67fb\u4e8b\u52d9\u6240","boring_xml_url":0,"boring_view_url":0,"soilmap_view_url":66,"soiltest_xml_url":0,"soiltest_view_url":0},{"id":119997,"code":"B4KJ201801000-8246","latitude":"35.44909618","longitude":"139.672061","source_code":"PORT14001010777","project_name":"\u6e2f\u6e7e\u5c40","survey_name":"\u662d\u548c39\u5e74\u5ea6\u6a2a\u6d5c\u6e2f\u672c\u7267\u57e0\u982d\u7b2c8\u6b21\u571f\u8cea\u8abf\u67fb\u5de5\u4e8b","client_name":"\u56fd\u571f\u4ea4\u901a\u7701\u95a2\u6771\u5730\u65b9\u6574\u5099\u5c40\u6a2a\u6d5c\u6e2f\u6e7e\u7a7a\u6e2f\u6280\u8853\u8abf\u67fb\u4e8b\u52d9\u6240","boring_xml_url":0,"boring_view_url":0,"soilmap_view_url":66,"soiltest_xml_url":0,"soiltest_view_url":0},{"id":119996,"code":"B4KJ201801000-8245","latitude":"35.44909617","longitude":"139.6717833","source_code":"PORT14001010776","project_name":"\u6e2f\u6e7e\u5c40","survey_name":"\u662d\u548c39\u5e74\u5ea6\u6a2a\u6d5c\u6e2f\u672c\u7267\u57e0\u982d\u7b2c8\u6b21\u571f\u8cea\u8abf\u67fb\u5de5\u4e8b","client_name":"\u56fd\u571f\u4ea4\u901a\u7701\u95a2\u6771\u5730\u65b9\u6574\u5099\u5c40\u6a2a\u6d5c\u6e2f\u6e7e\u7a7a\u6e2f\u6280\u8853\u8abf\u67fb\u4e8b\u52d9\u6240","boring_xml_url":0,"boring_view_url":0,"soilmap_view_url":66,"soiltest_xml_url":0,"soiltest_view_url":0}]}}