{"header":{"xyz":{"source":[],"mosaic":false},"page":6691,"raw":{"soiltest_result":"0","bbox":"57.598333,109.544722,1.933333,163.806111","page":"6691"},"conditions":{"soiltest_result":0,"north":57.598333,"west":109.544722,"south":1.933333,"east":163.806111},"success":true,"message":""},"data":{"meta":{"total":212844,"page":6691,"pages":7095,"count":30},"values":[{"id":119845,"code":"B4KJ201801000-8094","latitude":"35.46353808","longitude":"139.6373412","source_code":"PORT14001010526","project_name":"\u6e2f\u6e7e\u5c40","survey_name":"\u662d\u548c62\u5e74\u5ea6\u6a2a\u6d5c\u6e2f\u4e2d\u592e\u5730\u533a\u5cb8\u58c1(-7.5m)\u571f\u8cea\u8abf\u67fb","client_name":"\u56fd\u571f\u4ea4\u901a\u7701\u95a2\u6771\u5730\u65b9\u6574\u5099\u5c40\u6a2a\u6d5c\u6e2f\u6e7e\u7a7a\u6e2f\u6280\u8853\u8abf\u67fb\u4e8b\u52d9\u6240","boring_xml_url":0,"boring_view_url":0,"soilmap_view_url":66,"soiltest_xml_url":0,"soiltest_view_url":66},{"id":119844,"code":"B4KJ201801000-8093","latitude":"35.46381583","longitude":"139.6373411","source_code":"PORT14001010525","project_name":"\u6e2f\u6e7e\u5c40","survey_name":"\u662d\u548c62\u5e74\u5ea6\u6a2a\u6d5c\u6e2f\u4e2d\u592e\u5730\u533a\u5cb8\u58c1(-7.5m)\u571f\u8cea\u8abf\u67fb","client_name":"\u56fd\u571f\u4ea4\u901a\u7701\u95a2\u6771\u5730\u65b9\u6574\u5099\u5c40\u6a2a\u6d5c\u6e2f\u6e7e\u7a7a\u6e2f\u6280\u8853\u8abf\u67fb\u4e8b\u52d9\u6240","boring_xml_url":0,"boring_view_url":0,"soilmap_view_url":66,"soiltest_xml_url":0,"soiltest_view_url":66},{"id":119843,"code":"B4KJ201801000-8092","latitude":"35.46353805","longitude":"139.6362301","source_code":"PORT14001010524","project_name":"\u6e2f\u6e7e\u5c40","survey_name":"\u662d\u548c62\u5e74\u5ea6\u6a2a\u6d5c\u6e2f\u4e2d\u592e\u5730\u533a\u5cb8\u58c1(-7.5m)\u571f\u8cea\u8abf\u67fb","client_name":"\u56fd\u571f\u4ea4\u901a\u7701\u95a2\u6771\u5730\u65b9\u6574\u5099\u5c40\u6a2a\u6d5c\u6e2f\u6e7e\u7a7a\u6e2f\u6280\u8853\u8abf\u67fb\u4e8b\u52d9\u6240","boring_xml_url":0,"boring_view_url":0,"soilmap_view_url":66,"soiltest_xml_url":0,"soiltest_view_url":66},{"id":119842,"code":"B4KJ201801000-8091","latitude":"35.46353805","longitude":"139.6362301","source_code":"PORT14001010523","project_name":"\u6e2f\u6e7e\u5c40","survey_name":"\u662d\u548c62\u5e74\u5ea6\u6a2a\u6d5c\u6e2f\u4e2d\u592e\u5730\u533a\u5cb8\u58c1(-7.5m)\u571f\u8cea\u8abf\u67fb","client_name":"\u56fd\u571f\u4ea4\u901a\u7701\u95a2\u6771\u5730\u65b9\u6574\u5099\u5c40\u6a2a\u6d5c\u6e2f\u6e7e\u7a7a\u6e2f\u6280\u8853\u8abf\u67fb\u4e8b\u52d9\u6240","boring_xml_url":0,"boring_view_url":0,"soilmap_view_url":66,"soiltest_xml_url":0,"soiltest_view_url":66},{"id":119841,"code":"B4KJ201801000-8090","latitude":"35.4638158","longitude":"139.6362301","source_code":"PORT14001010522","project_name":"\u6e2f\u6e7e\u5c40","survey_name":"\u662d\u548c62\u5e74\u5ea6\u6a2a\u6d5c\u6e2f\u4e2d\u592e\u5730\u533a\u5cb8\u58c1(-7.5m)\u571f\u8cea\u8abf\u67fb","client_name":"\u56fd\u571f\u4ea4\u901a\u7701\u95a2\u6771\u5730\u65b9\u6574\u5099\u5c40\u6a2a\u6d5c\u6e2f\u6e7e\u7a7a\u6e2f\u6280\u8853\u8abf\u67fb\u4e8b\u52d9\u6240","boring_xml_url":0,"boring_view_url":0,"soilmap_view_url":66,"soiltest_xml_url":0,"soiltest_view_url":66},{"id":119840,"code":"B4KJ201801000-8089","latitude":"35.46353802","longitude":"139.6351191","source_code":"PORT14001010521","project_name":"\u6e2f\u6e7e\u5c40","survey_name":"\u662d\u548c62\u5e74\u5ea6\u6a2a\u6d5c\u6e2f\u4e2d\u592e\u5730\u533a\u5cb8\u58c1(-7.5m)\u571f\u8cea\u8abf\u67fb","client_name":"\u56fd\u571f\u4ea4\u901a\u7701\u95a2\u6771\u5730\u65b9\u6574\u5099\u5c40\u6a2a\u6d5c\u6e2f\u6e7e\u7a7a\u6e2f\u6280\u8853\u8abf\u67fb\u4e8b\u52d9\u6240","boring_xml_url":0,"boring_view_url":0,"soilmap_view_url":66,"soiltest_xml_url":0,"soiltest_view_url":66},{"id":119839,"code":"B4KJ201801000-8088","latitude":"35.46353802","longitude":"139.6351191","source_code":"PORT14001010520","project_name":"\u6e2f\u6e7e\u5c40","survey_name":"\u662d\u548c62\u5e74\u5ea6\u6a2a\u6d5c\u6e2f\u4e2d\u592e\u5730\u533a\u5cb8\u58c1(-7.5m)\u571f\u8cea\u8abf\u67fb","client_name":"\u56fd\u571f\u4ea4\u901a\u7701\u95a2\u6771\u5730\u65b9\u6574\u5099\u5c40\u6a2a\u6d5c\u6e2f\u6e7e\u7a7a\u6e2f\u6280\u8853\u8abf\u67fb\u4e8b\u52d9\u6240","boring_xml_url":0,"boring_view_url":0,"soilmap_view_url":66,"soiltest_xml_url":0,"soiltest_view_url":66},{"id":119838,"code":"B4KJ201801000-8087","latitude":"35.46381577","longitude":"139.6351191","source_code":"PORT14001010519","project_name":"\u6e2f\u6e7e\u5c40","survey_name":"\u662d\u548c62\u5e74\u5ea6\u6a2a\u6d5c\u6e2f\u4e2d\u592e\u5730\u533a\u5cb8\u58c1(-7.5m)\u571f\u8cea\u8abf\u67fb","client_name":"\u56fd\u571f\u4ea4\u901a\u7701\u95a2\u6771\u5730\u65b9\u6574\u5099\u5c40\u6a2a\u6d5c\u6e2f\u6e7e\u7a7a\u6e2f\u6280\u8853\u8abf\u67fb\u4e8b\u52d9\u6240","boring_xml_url":0,"boring_view_url":0,"soilmap_view_url":66,"soiltest_xml_url":0,"soiltest_view_url":66},{"id":119837,"code":"B4KJ201801000-8086","latitude":"35.46353809","longitude":"139.6376189","source_code":"PORT14001010518","project_name":"\u6e2f\u6e7e\u5c40","survey_name":"\u662d\u548c61\u5e74\u5ea6\u6a2a\u6d5c\u6e2f\u4e2d\u592e\u5730\u533a\u5cb8\u58c1(-7.5m)\u571f\u8cea\u8abf\u67fb","client_name":"\u56fd\u571f\u4ea4\u901a\u7701\u95a2\u6771\u5730\u65b9\u6574\u5099\u5c40\u6a2a\u6d5c\u6e2f\u6e7e\u7a7a\u6e2f\u6280\u8853\u8abf\u67fb\u4e8b\u52d9\u6240","boring_xml_url":0,"boring_view_url":0,"soilmap_view_url":66,"soiltest_xml_url":0,"soiltest_view_url":0},{"id":119836,"code":"B4KJ201801000-8085","latitude":"35.46353807","longitude":"139.6370634","source_code":"PORT14001010517","project_name":"\u6e2f\u6e7e\u5c40","survey_name":"\u662d\u548c61\u5e74\u5ea6\u6a2a\u6d5c\u6e2f\u4e2d\u592e\u5730\u533a\u5cb8\u58c1(-7.5m)\u571f\u8cea\u8abf\u67fb","client_name":"\u56fd\u571f\u4ea4\u901a\u7701\u95a2\u6771\u5730\u65b9\u6574\u5099\u5c40\u6a2a\u6d5c\u6e2f\u6e7e\u7a7a\u6e2f\u6280\u8853\u8abf\u67fb\u4e8b\u52d9\u6240","boring_xml_url":0,"boring_view_url":0,"soilmap_view_url":66,"soiltest_xml_url":0,"soiltest_view_url":0},{"id":119835,"code":"B4KJ201801000-8084","latitude":"35.46353806","longitude":"139.6365079","source_code":"PORT14001010516","project_name":"\u6e2f\u6e7e\u5c40","survey_name":"\u662d\u548c61\u5e74\u5ea6\u6a2a\u6d5c\u6e2f\u4e2d\u592e\u5730\u533a\u5cb8\u58c1(-7.5m)\u571f\u8cea\u8abf\u67fb","client_name":"\u56fd\u571f\u4ea4\u901a\u7701\u95a2\u6771\u5730\u65b9\u6574\u5099\u5c40\u6a2a\u6d5c\u6e2f\u6e7e\u7a7a\u6e2f\u6280\u8853\u8abf\u67fb\u4e8b\u52d9\u6240","boring_xml_url":0,"boring_view_url":0,"soilmap_view_url":66,"soiltest_xml_url":0,"soiltest_view_url":0},{"id":119834,"code":"B4KJ201801000-8083","latitude":"35.46353805","longitude":"139.6362301","source_code":"PORT14001010515","project_name":"\u6e2f\u6e7e\u5c40","survey_name":"\u662d\u548c61\u5e74\u5ea6\u6a2a\u6d5c\u6e2f\u4e2d\u592e\u5730\u533a\u5cb8\u58c1(-7.5m)\u571f\u8cea\u8abf\u67fb","client_name":"\u56fd\u571f\u4ea4\u901a\u7701\u95a2\u6771\u5730\u65b9\u6574\u5099\u5c40\u6a2a\u6d5c\u6e2f\u6e7e\u7a7a\u6e2f\u6280\u8853\u8abf\u67fb\u4e8b\u52d9\u6240","boring_xml_url":0,"boring_view_url":0,"soilmap_view_url":66,"soiltest_xml_url":0,"soiltest_view_url":0},{"id":119833,"code":"B4KJ201801000-8082","latitude":"35.46353804","longitude":"139.6356746","source_code":"PORT14001010514","project_name":"\u6e2f\u6e7e\u5c40","survey_name":"\u662d\u548c61\u5e74\u5ea6\u6a2a\u6d5c\u6e2f\u4e2d\u592e\u5730\u533a\u5cb8\u58c1(-7.5m)\u571f\u8cea\u8abf\u67fb","client_name":"\u56fd\u571f\u4ea4\u901a\u7701\u95a2\u6771\u5730\u65b9\u6574\u5099\u5c40\u6a2a\u6d5c\u6e2f\u6e7e\u7a7a\u6e2f\u6280\u8853\u8abf\u67fb\u4e8b\u52d9\u6240","boring_xml_url":0,"boring_view_url":0,"soilmap_view_url":66,"soiltest_xml_url":0,"soiltest_view_url":0},{"id":119832,"code":"B4KJ201801000-8081","latitude":"35.46353802","longitude":"139.6351191","source_code":"PORT14001010513","project_name":"\u6e2f\u6e7e\u5c40","survey_name":"\u662d\u548c61\u5e74\u5ea6\u6a2a\u6d5c\u6e2f\u4e2d\u592e\u5730\u533a\u5cb8\u58c1(-7.5m)\u571f\u8cea\u8abf\u67fb","client_name":"\u56fd\u571f\u4ea4\u901a\u7701\u95a2\u6771\u5730\u65b9\u6574\u5099\u5c40\u6a2a\u6d5c\u6e2f\u6e7e\u7a7a\u6e2f\u6280\u8853\u8abf\u67fb\u4e8b\u52d9\u6240","boring_xml_url":0,"boring_view_url":0,"soilmap_view_url":66,"soiltest_xml_url":0,"soiltest_view_url":0},{"id":119831,"code":"B4KJ201801000-8080","latitude":"35.46377341","longitude":"139.6343766","source_code":"PORT14001010512","project_name":"\u6e2f\u6e7e\u5c40","survey_name":"\u662d\u548c60\u5e74\u5ea6\u6a2a\u6d5c\u6e2f\u4e2d\u592e\u5730\u533a\u5cb8\u58c1(-7.5m)(\u305d\u306e2)\u571f\u8cea\u8abf\u67fb","client_name":"\u56fd\u571f\u4ea4\u901a\u7701\u95a2\u6771\u5730\u65b9\u6574\u5099\u5c40\u6a2a\u6d5c\u6e2f\u6e7e\u7a7a\u6e2f\u6280\u8853\u8abf\u67fb\u4e8b\u52d9\u6240","boring_xml_url":0,"boring_view_url":0,"soilmap_view_url":66,"soiltest_xml_url":0,"soiltest_view_url":0},{"id":119830,"code":"B4KJ201801000-8079","latitude":"35.463779","longitude":"139.6377922","source_code":"PORT14001010511","project_name":"\u6e2f\u6e7e\u5c40","survey_name":"\u662d\u548c60\u5e74\u5ea6\u6a2a\u6d5c\u6e2f\u4e2d\u592e\u5730\u533a\u5cb8\u58c1(-7.5m)(\u305d\u306e2)\u571f\u8cea\u8abf\u67fb","client_name":"\u56fd\u571f\u4ea4\u901a\u7701\u95a2\u6771\u5730\u65b9\u6574\u5099\u5c40\u6a2a\u6d5c\u6e2f\u6e7e\u7a7a\u6e2f\u6280\u8853\u8abf\u67fb\u4e8b\u52d9\u6240","boring_xml_url":0,"boring_view_url":0,"soilmap_view_url":66,"soiltest_xml_url":0,"soiltest_view_url":66},{"id":119829,"code":"B4KJ201801000-8078","latitude":"35.46332525","longitude":"139.6359202","source_code":"PORT14001010510","project_name":"\u6e2f\u6e7e\u5c40","survey_name":"\u662d\u548c60\u5e74\u5ea6\u6a2a\u6d5c\u6e2f\u4e2d\u592e\u5730\u533a\u5cb8\u58c1(-7.5m)\u571f\u8cea\u8abf\u67fb","client_name":"\u56fd\u571f\u4ea4\u901a\u7701\u95a2\u6771\u5730\u65b9\u6574\u5099\u5c40\u6a2a\u6d5c\u6e2f\u6e7e\u7a7a\u6e2f\u6280\u8853\u8abf\u67fb\u4e8b\u52d9\u6240","boring_xml_url":0,"boring_view_url":0,"soilmap_view_url":66,"soiltest_xml_url":0,"soiltest_view_url":66},{"id":119828,"code":"B4KJ201801000-8077","latitude":"35.46377739","longitude":"139.6368005","source_code":"PORT14001010508","project_name":"\u6e2f\u6e7e\u5c40","survey_name":"\u662d\u548c60\u5e74\u5ea6\u6a2a\u6d5c\u6e2f\u4e2d\u592e\u5730\u533a\u5cb8\u58c1(-7.5m)\u571f\u8cea\u8abf\u67fb","client_name":"\u56fd\u571f\u4ea4\u901a\u7701\u95a2\u6771\u5730\u65b9\u6574\u5099\u5c40\u6a2a\u6d5c\u6e2f\u6e7e\u7a7a\u6e2f\u6280\u8853\u8abf\u67fb\u4e8b\u52d9\u6240","boring_xml_url":0,"boring_view_url":0,"soilmap_view_url":66,"soiltest_xml_url":0,"soiltest_view_url":66},{"id":119827,"code":"B4KJ201801000-8076","latitude":"35.46377595","longitude":"139.6359191","source_code":"PORT14001010507","project_name":"\u6e2f\u6e7e\u5c40","survey_name":"\u662d\u548c60\u5e74\u5ea6\u6a2a\u6d5c\u6e2f\u4e2d\u592e\u5730\u533a\u5cb8\u58c1(-7.5m)\u571f\u8cea\u8abf\u67fb","client_name":"\u56fd\u571f\u4ea4\u901a\u7701\u95a2\u6771\u5730\u65b9\u6574\u5099\u5c40\u6a2a\u6d5c\u6e2f\u6e7e\u7a7a\u6e2f\u6280\u8853\u8abf\u67fb\u4e8b\u52d9\u6240","boring_xml_url":0,"boring_view_url":0,"soilmap_view_url":66,"soiltest_xml_url":0,"soiltest_view_url":66},{"id":119826,"code":"B4KJ201801000-8075","latitude":"35.46377432","longitude":"139.6349275","source_code":"PORT14001010506","project_name":"\u6e2f\u6e7e\u5c40","survey_name":"\u662d\u548c60\u5e74\u5ea6\u6a2a\u6d5c\u6e2f\u4e2d\u592e\u5730\u533a\u5cb8\u58c1(-7.5m)\u571f\u8cea\u8abf\u67fb","client_name":"\u56fd\u571f\u4ea4\u901a\u7701\u95a2\u6771\u5730\u65b9\u6574\u5099\u5c40\u6a2a\u6d5c\u6e2f\u6e7e\u7a7a\u6e2f\u6280\u8853\u8abf\u67fb\u4e8b\u52d9\u6240","boring_xml_url":0,"boring_view_url":0,"soilmap_view_url":66,"soiltest_xml_url":0,"soiltest_view_url":66},{"id":119825,"code":"B4KJ201801000-8074","latitude":"35.46048345","longitude":"139.6592839","source_code":"PORT14001010505","project_name":"\u6e2f\u6e7e\u5c40","survey_name":"\u662d\u548c48\u5e74\u5ea6\u6a2a\u6d5c\u6e2f\u7b2c3\u533a\u571f\u8cea\u8abf\u67fb\u5de5\u4e8b(\u305d\u306e4)","client_name":"\u56fd\u571f\u4ea4\u901a\u7701\u95a2\u6771\u5730\u65b9\u6574\u5099\u5c40\u6a2a\u6d5c\u6e2f\u6e7e\u7a7a\u6e2f\u6280\u8853\u8abf\u67fb\u4e8b\u52d9\u6240","boring_xml_url":0,"boring_view_url":0,"soilmap_view_url":66,"soiltest_xml_url":0,"soiltest_view_url":66},{"id":119824,"code":"B4KJ201801000-8073","latitude":"35.4618722","longitude":"139.6598393","source_code":"PORT14001010504","project_name":"\u6e2f\u6e7e\u5c40","survey_name":"\u662d\u548c48\u5e74\u5ea6\u6a2a\u6d5c\u6e2f\u7b2c3\u533a\u571f\u8cea\u8abf\u67fb\u5de5\u4e8b(\u305d\u306e4)","client_name":"\u56fd\u571f\u4ea4\u901a\u7701\u95a2\u6771\u5730\u65b9\u6574\u5099\u5c40\u6a2a\u6d5c\u6e2f\u6e7e\u7a7a\u6e2f\u6280\u8853\u8abf\u67fb\u4e8b\u52d9\u6240","boring_xml_url":0,"boring_view_url":0,"soilmap_view_url":66,"soiltest_xml_url":0,"soiltest_view_url":66},{"id":119823,"code":"B4KJ201801000-8072","latitude":"35.46381639","longitude":"139.6584505","source_code":"PORT14001010503","project_name":"\u6e2f\u6e7e\u5c40","survey_name":"\u662d\u548c48\u5e74\u5ea6\u6a2a\u6d5c\u6e2f\u7b2c3\u533a\u571f\u8cea\u8abf\u67fb\u5de5\u4e8b(\u305d\u306e4)","client_name":"\u56fd\u571f\u4ea4\u901a\u7701\u95a2\u6771\u5730\u65b9\u6574\u5099\u5c40\u6a2a\u6d5c\u6e2f\u6e7e\u7a7a\u6e2f\u6280\u8853\u8abf\u67fb\u4e8b\u52d9\u6240","boring_xml_url":0,"boring_view_url":0,"soilmap_view_url":66,"soiltest_xml_url":0,"soiltest_view_url":66},{"id":119822,"code":"B4KJ201801000-8071","latitude":"35.4621499","longitude":"139.6581728","source_code":"PORT14001010502","project_name":"\u6e2f\u6e7e\u5c40","survey_name":"\u662d\u548c48\u5e74\u5ea6\u6a2a\u6d5c\u6e2f\u7b2c3\u533a\u571f\u8cea\u8abf\u67fb\u5de5\u4e8b(\u305d\u306e4)","client_name":"\u56fd\u571f\u4ea4\u901a\u7701\u95a2\u6771\u5730\u65b9\u6574\u5099\u5c40\u6a2a\u6d5c\u6e2f\u6e7e\u7a7a\u6e2f\u6280\u8853\u8abf\u67fb\u4e8b\u52d9\u6240","boring_xml_url":0,"boring_view_url":0,"soilmap_view_url":66,"soiltest_xml_url":0,"soiltest_view_url":66},{"id":119821,"code":"B4KJ201801000-8070","latitude":"35.46548286","longitude":"139.6578949","source_code":"PORT14001010501","project_name":"\u6e2f\u6e7e\u5c40","survey_name":"\u662d\u548c48\u5e74\u5ea6\u6a2a\u6d5c\u6e2f\u7b2c3\u533a\u571f\u8cea\u8abf\u67fb\u5de5\u4e8b(\u305d\u306e4)","client_name":"\u56fd\u571f\u4ea4\u901a\u7701\u95a2\u6771\u5730\u65b9\u6574\u5099\u5c40\u6a2a\u6d5c\u6e2f\u6e7e\u7a7a\u6e2f\u6280\u8853\u8abf\u67fb\u4e8b\u52d9\u6240","boring_xml_url":0,"boring_view_url":0,"soilmap_view_url":66,"soiltest_xml_url":0,"soiltest_view_url":0},{"id":119820,"code":"B4KJ201801000-8069","latitude":"35.46742707","longitude":"139.6576171","source_code":"PORT14001010500","project_name":"\u6e2f\u6e7e\u5c40","survey_name":"\u662d\u548c48\u5e74\u5ea6\u6a2a\u6d5c\u6e2f\u7b2c3\u533a\u571f\u8cea\u8abf\u67fb\u5de5\u4e8b(\u305d\u306e4)","client_name":"\u56fd\u571f\u4ea4\u901a\u7701\u95a2\u6771\u5730\u65b9\u6574\u5099\u5c40\u6a2a\u6d5c\u6e2f\u6e7e\u7a7a\u6e2f\u6280\u8853\u8abf\u67fb\u4e8b\u52d9\u6240","boring_xml_url":0,"boring_view_url":0,"soilmap_view_url":66,"soiltest_xml_url":0,"soiltest_view_url":0},{"id":119819,"code":"B4KJ201801000-8068","latitude":"35.46631604","longitude":"139.6559506","source_code":"PORT14001010499","project_name":"\u6e2f\u6e7e\u5c40","survey_name":"\u662d\u548c48\u5e74\u5ea6\u6a2a\u6d5c\u6e2f\u7b2c3\u533a\u571f\u8cea\u8abf\u67fb\u5de5\u4e8b(\u305d\u306e4)","client_name":"\u56fd\u571f\u4ea4\u901a\u7701\u95a2\u6771\u5730\u65b9\u6574\u5099\u5c40\u6a2a\u6d5c\u6e2f\u6e7e\u7a7a\u6e2f\u6280\u8853\u8abf\u67fb\u4e8b\u52d9\u6240","boring_xml_url":0,"boring_view_url":0,"soilmap_view_url":66,"soiltest_xml_url":0,"soiltest_view_url":0},{"id":119818,"code":"B4KJ201801000-8067","latitude":"35.46937123","longitude":"139.6548394","source_code":"PORT14001010498","project_name":"\u6e2f\u6e7e\u5c40","survey_name":"\u662d\u548c48\u5e74\u5ea6\u6a2a\u6d5c\u6e2f\u7b2c3\u533a\u571f\u8cea\u8abf\u67fb\u5de5\u4e8b(\u305d\u306e4)","client_name":"\u56fd\u571f\u4ea4\u901a\u7701\u95a2\u6771\u5730\u65b9\u6574\u5099\u5c40\u6a2a\u6d5c\u6e2f\u6e7e\u7a7a\u6e2f\u6280\u8853\u8abf\u67fb\u4e8b\u52d9\u6240","boring_xml_url":0,"boring_view_url":0,"soilmap_view_url":66,"soiltest_xml_url":0,"soiltest_view_url":0},{"id":119817,"code":"B4KJ201801000-8066","latitude":"35.46492732","longitude":"139.6562284","source_code":"PORT14001010497","project_name":"\u6e2f\u6e7e\u5c40","survey_name":"\u662d\u548c48\u5e74\u5ea6\u6a2a\u6d5c\u6e2f\u7b2c3\u533a\u571f\u8cea\u8abf\u67fb\u5de5\u4e8b(\u305d\u306e4)","client_name":"\u56fd\u571f\u4ea4\u901a\u7701\u95a2\u6771\u5730\u65b9\u6574\u5099\u5c40\u6a2a\u6d5c\u6e2f\u6e7e\u7a7a\u6e2f\u6280\u8853\u8abf\u67fb\u4e8b\u52d9\u6240","boring_xml_url":0,"boring_view_url":0,"soilmap_view_url":66,"soiltest_xml_url":0,"soiltest_view_url":0},{"id":119816,"code":"B4KJ201801000-8065","latitude":"35.47103765","longitude":"139.6528951","source_code":"PORT14001010496","project_name":"\u6e2f\u6e7e\u5c40","survey_name":"\u662d\u548c48\u5e74\u5ea6\u6a2a\u6d5c\u6e2f\u7b2c3\u533a\u571f\u8cea\u8abf\u67fb\u5de5\u4e8b(\u305d\u306e4)","client_name":"\u56fd\u571f\u4ea4\u901a\u7701\u95a2\u6771\u5730\u65b9\u6574\u5099\u5c40\u6a2a\u6d5c\u6e2f\u6e7e\u7a7a\u6e2f\u6280\u8853\u8abf\u67fb\u4e8b\u52d9\u6240","boring_xml_url":0,"boring_view_url":0,"soilmap_view_url":66,"soiltest_xml_url":0,"soiltest_view_url":66}]}}