{"header":{"xyz":{"source":[],"mosaic":false},"page":67,"raw":{"soiltest_result":"0","bbox":"57.598333,109.544722,1.933333,163.806111","page":"67"},"conditions":{"soiltest_result":0,"north":57.598333,"west":109.544722,"south":1.933333,"east":163.806111},"success":true,"message":""},"data":{"meta":{"total":212844,"page":67,"pages":7095,"count":30},"values":[{"id":696954,"code":"NGIC202304482-0008","latitude":"36.864675611111","longitude":"138.63319794444","source_code":"","project_name":"","survey_name":"\u4ee4\u548c4\u5e74\u5ea6\u6e6f\u6ca2\u7802\u9632\u4e8b\u52d9\u6240\u7ba1\u5185\u5730\u8cea\u8abf\u67fb\u305d\u306e4\u696d\u52d9","client_name":"\u56fd\u571f\u4ea4\u901a\u7701\u5317\u9678\u5730\u65b9\u6574\u5099\u5c40\u6e6f\u6ca2\u7802\u9632\u4e8b\u52d9\u6240","boring_xml_url":47,"boring_view_url":1,"soilmap_view_url":null,"soiltest_xml_url":0,"soiltest_view_url":0},{"id":696953,"code":"NGIC202304482-0007","latitude":"36.864851638889","longitude":"138.6329475","source_code":"","project_name":"","survey_name":"\u4ee4\u548c4\u5e74\u5ea6\u6e6f\u6ca2\u7802\u9632\u4e8b\u52d9\u6240\u7ba1\u5185\u5730\u8cea\u8abf\u67fb\u305d\u306e4\u696d\u52d9","client_name":"\u56fd\u571f\u4ea4\u901a\u7701\u5317\u9678\u5730\u65b9\u6574\u5099\u5c40\u6e6f\u6ca2\u7802\u9632\u4e8b\u52d9\u6240","boring_xml_url":47,"boring_view_url":1,"soilmap_view_url":null,"soiltest_xml_url":0,"soiltest_view_url":0},{"id":696952,"code":"NGIC202304482-0006","latitude":"36.915567083333","longitude":"138.94133841667","source_code":"","project_name":"","survey_name":"\u4ee4\u548c4\u5e74\u5ea6\u6e6f\u6ca2\u7802\u9632\u4e8b\u52d9\u6240\u7ba1\u5185\u5730\u8cea\u8abf\u67fb\u305d\u306e4\u696d\u52d9","client_name":"\u56fd\u571f\u4ea4\u901a\u7701\u5317\u9678\u5730\u65b9\u6574\u5099\u5c40\u6e6f\u6ca2\u7802\u9632\u4e8b\u52d9\u6240","boring_xml_url":47,"boring_view_url":1,"soilmap_view_url":null,"soiltest_xml_url":0,"soiltest_view_url":0},{"id":696951,"code":"NGIC202304482-0005","latitude":"36.915471","longitude":"138.9411885","source_code":"","project_name":"","survey_name":"\u4ee4\u548c4\u5e74\u5ea6\u6e6f\u6ca2\u7802\u9632\u4e8b\u52d9\u6240\u7ba1\u5185\u5730\u8cea\u8abf\u67fb\u305d\u306e4\u696d\u52d9","client_name":"\u56fd\u571f\u4ea4\u901a\u7701\u5317\u9678\u5730\u65b9\u6574\u5099\u5c40\u6e6f\u6ca2\u7802\u9632\u4e8b\u52d9\u6240","boring_xml_url":47,"boring_view_url":1,"soilmap_view_url":null,"soiltest_xml_url":0,"soiltest_view_url":0},{"id":696950,"code":"NGIC202304482-0004","latitude":"36.862025638889","longitude":"138.63621413889","source_code":"","project_name":"","survey_name":"\u4ee4\u548c4\u5e74\u5ea6\u6e6f\u6ca2\u7802\u9632\u4e8b\u52d9\u6240\u7ba1\u5185\u5730\u8cea\u8abf\u67fb\u305d\u306e4\u696d\u52d9","client_name":"\u56fd\u571f\u4ea4\u901a\u7701\u5317\u9678\u5730\u65b9\u6574\u5099\u5c40\u6e6f\u6ca2\u7802\u9632\u4e8b\u52d9\u6240","boring_xml_url":47,"boring_view_url":1,"soilmap_view_url":null,"soiltest_xml_url":0,"soiltest_view_url":0},{"id":696949,"code":"NGIC202304482-0003","latitude":"36.861864083333","longitude":"138.63602975","source_code":"","project_name":"","survey_name":"\u4ee4\u548c4\u5e74\u5ea6\u6e6f\u6ca2\u7802\u9632\u4e8b\u52d9\u6240\u7ba1\u5185\u5730\u8cea\u8abf\u67fb\u305d\u306e4\u696d\u52d9","client_name":"\u56fd\u571f\u4ea4\u901a\u7701\u5317\u9678\u5730\u65b9\u6574\u5099\u5c40\u6e6f\u6ca2\u7802\u9632\u4e8b\u52d9\u6240","boring_xml_url":47,"boring_view_url":1,"soilmap_view_url":null,"soiltest_xml_url":0,"soiltest_view_url":0},{"id":696948,"code":"NGIC202304482-0002","latitude":"36.862063638889","longitude":"138.63644708333","source_code":"","project_name":"","survey_name":"\u4ee4\u548c4\u5e74\u5ea6\u6e6f\u6ca2\u7802\u9632\u4e8b\u52d9\u6240\u7ba1\u5185\u5730\u8cea\u8abf\u67fb\u305d\u306e4\u696d\u52d9","client_name":"\u56fd\u571f\u4ea4\u901a\u7701\u5317\u9678\u5730\u65b9\u6574\u5099\u5c40\u6e6f\u6ca2\u7802\u9632\u4e8b\u52d9\u6240","boring_xml_url":47,"boring_view_url":1,"soilmap_view_url":null,"soiltest_xml_url":0,"soiltest_view_url":0},{"id":696947,"code":"NGIC202304482-0001","latitude":"36.861985305556","longitude":"138.63628322222","source_code":"","project_name":"","survey_name":"\u4ee4\u548c4\u5e74\u5ea6\u6e6f\u6ca2\u7802\u9632\u4e8b\u52d9\u6240\u7ba1\u5185\u5730\u8cea\u8abf\u67fb\u305d\u306e4\u696d\u52d9","client_name":"\u56fd\u571f\u4ea4\u901a\u7701\u5317\u9678\u5730\u65b9\u6574\u5099\u5c40\u6e6f\u6ca2\u7802\u9632\u4e8b\u52d9\u6240","boring_xml_url":47,"boring_view_url":1,"soilmap_view_url":null,"soiltest_xml_url":0,"soiltest_view_url":0},{"id":696910,"code":"NGIC202304877-0002","latitude":"35.431083333333","longitude":"137.13725","source_code":"","project_name":"","survey_name":"\u4ee4\u548c4\u5e74\u5ea6 \u591a\u6cbb\u898b\u56fd\u905321\u53f7\u4e2d\u5730\u533a\u4e9c\u70ad\u5751\u5145\u586b\u5de5\u4e8b","client_name":"\u56fd\u571f\u4ea4\u901a\u7701\u4e2d\u90e8\u5730\u65b9\u6574\u5099\u5c40\u591a\u6cbb\u898b\u7802\u9632\u56fd\u9053\u4e8b\u52d9\u6240","boring_xml_url":47,"boring_view_url":1,"soilmap_view_url":null,"soiltest_xml_url":47,"soiltest_view_url":47},{"id":696909,"code":"NGIC202304877-0001","latitude":"35.434111111111","longitude":"137.12427777778","source_code":"","project_name":"","survey_name":"\u4ee4\u548c4\u5e74\u5ea6 \u591a\u6cbb\u898b\u56fd\u905321\u53f7\u4e2d\u5730\u533a\u4e9c\u70ad\u5751\u5145\u586b\u5de5\u4e8b","client_name":"\u56fd\u571f\u4ea4\u901a\u7701\u4e2d\u90e8\u5730\u65b9\u6574\u5099\u5c40\u591a\u6cbb\u898b\u7802\u9632\u56fd\u9053\u4e8b\u52d9\u6240","boring_xml_url":47,"boring_view_url":1,"soilmap_view_url":null,"soiltest_xml_url":47,"soiltest_view_url":47},{"id":696907,"code":"NGIC202304872-0008","latitude":"35.646426972222","longitude":"139.37824188889","source_code":"","project_name":"","survey_name":"R4\u591a\u6469\u5ddd\u5e73\u5c71\u5730\u533a\u5916\u5730\u8cea\u8abf\u67fb\u696d\u52d9","client_name":"\u56fd\u571f\u4ea4\u901a\u7701\u95a2\u6771\u5730\u65b9\u6574\u5099\u5c40\u4eac\u6d5c\u6cb3\u5ddd\u4e8b\u52d9\u6240","boring_xml_url":47,"boring_view_url":1,"soilmap_view_url":null,"soiltest_xml_url":47,"soiltest_view_url":47},{"id":696906,"code":"NGIC202304872-0007","latitude":"35.646559611111","longitude":"139.37837011111","source_code":"","project_name":"","survey_name":"R4\u591a\u6469\u5ddd\u5e73\u5c71\u5730\u533a\u5916\u5730\u8cea\u8abf\u67fb\u696d\u52d9","client_name":"\u56fd\u571f\u4ea4\u901a\u7701\u95a2\u6771\u5730\u65b9\u6574\u5099\u5c40\u4eac\u6d5c\u6cb3\u5ddd\u4e8b\u52d9\u6240","boring_xml_url":47,"boring_view_url":1,"soilmap_view_url":null,"soiltest_xml_url":47,"soiltest_view_url":47},{"id":696905,"code":"NGIC202304872-0006","latitude":"35.759611888889","longitude":"139.29918541667","source_code":"","project_name":"","survey_name":"R4\u591a\u6469\u5ddd\u5e73\u5c71\u5730\u533a\u5916\u5730\u8cea\u8abf\u67fb\u696d\u52d9","client_name":"\u56fd\u571f\u4ea4\u901a\u7701\u95a2\u6771\u5730\u65b9\u6574\u5099\u5c40\u4eac\u6d5c\u6cb3\u5ddd\u4e8b\u52d9\u6240","boring_xml_url":47,"boring_view_url":1,"soilmap_view_url":null,"soiltest_xml_url":47,"soiltest_view_url":47},{"id":696904,"code":"NGIC202304872-0005","latitude":"35.760680666667","longitude":"139.29838252778","source_code":"","project_name":"","survey_name":"R4\u591a\u6469\u5ddd\u5e73\u5c71\u5730\u533a\u5916\u5730\u8cea\u8abf\u67fb\u696d\u52d9","client_name":"\u56fd\u571f\u4ea4\u901a\u7701\u95a2\u6771\u5730\u65b9\u6574\u5099\u5c40\u4eac\u6d5c\u6cb3\u5ddd\u4e8b\u52d9\u6240","boring_xml_url":47,"boring_view_url":1,"soilmap_view_url":null,"soiltest_xml_url":47,"soiltest_view_url":47},{"id":696903,"code":"NGIC202304872-0004","latitude":"35.762406027778","longitude":"139.29771388889","source_code":"","project_name":"","survey_name":"R4\u591a\u6469\u5ddd\u5e73\u5c71\u5730\u533a\u5916\u5730\u8cea\u8abf\u67fb\u696d\u52d9","client_name":"\u56fd\u571f\u4ea4\u901a\u7701\u95a2\u6771\u5730\u65b9\u6574\u5099\u5c40\u4eac\u6d5c\u6cb3\u5ddd\u4e8b\u52d9\u6240","boring_xml_url":47,"boring_view_url":1,"soilmap_view_url":null,"soiltest_xml_url":47,"soiltest_view_url":47},{"id":696902,"code":"NGIC202304872-0003","latitude":"35.692825","longitude":"139.35815555556","source_code":"","project_name":"","survey_name":"R4\u591a\u6469\u5ddd\u5e73\u5c71\u5730\u533a\u5916\u5730\u8cea\u8abf\u67fb\u696d\u52d9","client_name":"\u56fd\u571f\u4ea4\u901a\u7701\u95a2\u6771\u5730\u65b9\u6574\u5099\u5c40\u4eac\u6d5c\u6cb3\u5ddd\u4e8b\u52d9\u6240","boring_xml_url":47,"boring_view_url":1,"soilmap_view_url":null,"soiltest_xml_url":0,"soiltest_view_url":0},{"id":696901,"code":"NGIC202304872-0002","latitude":"35.611087416667","longitude":"139.61601063889","source_code":"","project_name":"","survey_name":"R4\u591a\u6469\u5ddd\u5e73\u5c71\u5730\u533a\u5916\u5730\u8cea\u8abf\u67fb\u696d\u52d9","client_name":"\u56fd\u571f\u4ea4\u901a\u7701\u95a2\u6771\u5730\u65b9\u6574\u5099\u5c40\u4eac\u6d5c\u6cb3\u5ddd\u4e8b\u52d9\u6240","boring_xml_url":47,"boring_view_url":1,"soilmap_view_url":null,"soiltest_xml_url":47,"soiltest_view_url":47},{"id":696900,"code":"NGIC202304872-0001","latitude":"35.611277583333","longitude":"139.61567586111","source_code":"","project_name":"","survey_name":"R4\u591a\u6469\u5ddd\u5e73\u5c71\u5730\u533a\u5916\u5730\u8cea\u8abf\u67fb\u696d\u52d9","client_name":"\u56fd\u571f\u4ea4\u901a\u7701\u95a2\u6771\u5730\u65b9\u6574\u5099\u5c40\u4eac\u6d5c\u6cb3\u5ddd\u4e8b\u52d9\u6240","boring_xml_url":47,"boring_view_url":1,"soilmap_view_url":null,"soiltest_xml_url":47,"soiltest_view_url":47},{"id":696890,"code":"NGIC202304515-0003","latitude":"33.515057194444","longitude":"134.17813988889","source_code":"","project_name":"","survey_name":"\u4ee4\u548c5\u5e74\u5ea6 \u91ce\u6839\u5b89\u5009\u9053\u8def\uff08\u56db\u90ce\u30f6\u91ce\u30c8\u30f3\u30cd\u30eb\uff09\u5730\u8cea\u8abf\u67fb\u696d\u52d9","client_name":"\u56fd\u571f\u4ea4\u901a\u7701\u56db\u56fd\u5730\u65b9\u6574\u5099\u5c40\u571f\u4f50\u56fd\u9053\u4e8b\u52d9\u6240","boring_xml_url":47,"boring_view_url":1,"soilmap_view_url":null,"soiltest_xml_url":0,"soiltest_view_url":0},{"id":696889,"code":"NGIC202304515-0002","latitude":"33.508275361111","longitude":"134.22559297222","source_code":"","project_name":"","survey_name":"\u4ee4\u548c5\u5e74\u5ea6 \u91ce\u6839\u5b89\u5009\u9053\u8def\uff08\u56db\u90ce\u30f6\u91ce\u30c8\u30f3\u30cd\u30eb\uff09\u5730\u8cea\u8abf\u67fb\u696d\u52d9","client_name":"\u56fd\u571f\u4ea4\u901a\u7701\u56db\u56fd\u5730\u65b9\u6574\u5099\u5c40\u571f\u4f50\u56fd\u9053\u4e8b\u52d9\u6240","boring_xml_url":47,"boring_view_url":1,"soilmap_view_url":null,"soiltest_xml_url":0,"soiltest_view_url":0},{"id":696888,"code":"NGIC202304515-0001","latitude":"33.508275416667","longitude":"134.22615363889","source_code":"","project_name":"","survey_name":"\u4ee4\u548c5\u5e74\u5ea6 \u91ce\u6839\u5b89\u5009\u9053\u8def\uff08\u56db\u90ce\u30f6\u91ce\u30c8\u30f3\u30cd\u30eb\uff09\u5730\u8cea\u8abf\u67fb\u696d\u52d9","client_name":"\u56fd\u571f\u4ea4\u901a\u7701\u56db\u56fd\u5730\u65b9\u6574\u5099\u5c40\u571f\u4f50\u56fd\u9053\u4e8b\u52d9\u6240","boring_xml_url":47,"boring_view_url":1,"soilmap_view_url":null,"soiltest_xml_url":47,"soiltest_view_url":47},{"id":696864,"code":"NGIC202304741-0018","latitude":"36.749376333333","longitude":"138.32641369444","source_code":"","project_name":"\u4fe1\u6fc3\u5ddd\u6c34\u7cfb\u5343\u66f2\u5ddd\u904a\u6c34\u5730\u4e8b\u696d","survey_name":"\u4ee4\u548c5\u5e74\u5ea6\u5343\u66f2\u5ddd\u904a\u6c34\u5730\u5730\u8cea\u8abf\u67fb\u696d\u52d9","client_name":"\u56fd\u571f\u4ea4\u901a\u7701\u5317\u9678\u5730\u65b9\u6574\u5099\u5c40\u5343\u66f2\u5ddd\u6cb3\u5ddd\u4e8b\u52d9\u6240","boring_xml_url":47,"boring_view_url":1,"soilmap_view_url":null,"soiltest_xml_url":47,"soiltest_view_url":47},{"id":696863,"code":"NGIC202304741-0017","latitude":"36.507891055556","longitude":"138.11237908333","source_code":"","project_name":"\u4fe1\u6fc3\u5ddd\u6c34\u7cfb\u5343\u66f2\u5ddd\u904a\u6c34\u5730\u4e8b\u696d","survey_name":"\u4ee4\u548c5\u5e74\u5ea6\u5343\u66f2\u5ddd\u904a\u6c34\u5730\u5730\u8cea\u8abf\u67fb\u696d\u52d9","client_name":"\u56fd\u571f\u4ea4\u901a\u7701\u5317\u9678\u5730\u65b9\u6574\u5099\u5c40\u5343\u66f2\u5ddd\u6cb3\u5ddd\u4e8b\u52d9\u6240","boring_xml_url":47,"boring_view_url":1,"soilmap_view_url":null,"soiltest_xml_url":47,"soiltest_view_url":47},{"id":696862,"code":"NGIC202304741-0016","latitude":"36.508848111111","longitude":"138.11056536111","source_code":"","project_name":"\u4fe1\u6fc3\u5ddd\u6c34\u7cfb\u5343\u66f2\u5ddd\u904a\u6c34\u5730\u4e8b\u696d","survey_name":"\u4ee4\u548c5\u5e74\u5ea6\u5343\u66f2\u5ddd\u904a\u6c34\u5730\u5730\u8cea\u8abf\u67fb\u696d\u52d9","client_name":"\u56fd\u571f\u4ea4\u901a\u7701\u5317\u9678\u5730\u65b9\u6574\u5099\u5c40\u5343\u66f2\u5ddd\u6cb3\u5ddd\u4e8b\u52d9\u6240","boring_xml_url":47,"boring_view_url":1,"soilmap_view_url":null,"soiltest_xml_url":47,"soiltest_view_url":47},{"id":696861,"code":"NGIC202304741-0015","latitude":"36.511183388889","longitude":"138.11055722222","source_code":"","project_name":"\u4fe1\u6fc3\u5ddd\u6c34\u7cfb\u5343\u66f2\u5ddd\u904a\u6c34\u5730\u4e8b\u696d","survey_name":"\u4ee4\u548c5\u5e74\u5ea6\u5343\u66f2\u5ddd\u904a\u6c34\u5730\u5730\u8cea\u8abf\u67fb\u696d\u52d9","client_name":"\u56fd\u571f\u4ea4\u901a\u7701\u5317\u9678\u5730\u65b9\u6574\u5099\u5c40\u5343\u66f2\u5ddd\u6cb3\u5ddd\u4e8b\u52d9\u6240","boring_xml_url":47,"boring_view_url":1,"soilmap_view_url":null,"soiltest_xml_url":47,"soiltest_view_url":47},{"id":696860,"code":"NGIC202304741-0014","latitude":"36.52052875","longitude":"138.11476741667","source_code":"","project_name":"\u4fe1\u6fc3\u5ddd\u6c34\u7cfb\u5343\u66f2\u5ddd\u904a\u6c34\u5730\u4e8b\u696d","survey_name":"\u4ee4\u548c5\u5e74\u5ea6\u5343\u66f2\u5ddd\u904a\u6c34\u5730\u5730\u8cea\u8abf\u67fb\u696d\u52d9","client_name":"\u56fd\u571f\u4ea4\u901a\u7701\u5317\u9678\u5730\u65b9\u6574\u5099\u5c40\u5343\u66f2\u5ddd\u6cb3\u5ddd\u4e8b\u52d9\u6240","boring_xml_url":47,"boring_view_url":1,"soilmap_view_url":null,"soiltest_xml_url":47,"soiltest_view_url":47},{"id":696859,"code":"NGIC202304741-0013","latitude":"36.547901138889","longitude":"138.11914680556","source_code":"","project_name":"\u4fe1\u6fc3\u5ddd\u6c34\u7cfb\u5343\u66f2\u5ddd\u904a\u6c34\u5730\u4e8b\u696d","survey_name":"\u4ee4\u548c5\u5e74\u5ea6\u5343\u66f2\u5ddd\u904a\u6c34\u5730\u5730\u8cea\u8abf\u67fb\u696d\u52d9","client_name":"\u56fd\u571f\u4ea4\u901a\u7701\u5317\u9678\u5730\u65b9\u6574\u5099\u5c40\u5343\u66f2\u5ddd\u6cb3\u5ddd\u4e8b\u52d9\u6240","boring_xml_url":47,"boring_view_url":1,"soilmap_view_url":null,"soiltest_xml_url":47,"soiltest_view_url":47},{"id":696858,"code":"NGIC202304741-0012","latitude":"36.545640138889","longitude":"138.11546272222","source_code":"","project_name":"\u4fe1\u6fc3\u5ddd\u6c34\u7cfb\u5343\u66f2\u5ddd\u904a\u6c34\u5730\u4e8b\u696d","survey_name":"\u4ee4\u548c5\u5e74\u5ea6\u5343\u66f2\u5ddd\u904a\u6c34\u5730\u5730\u8cea\u8abf\u67fb\u696d\u52d9","client_name":"\u56fd\u571f\u4ea4\u901a\u7701\u5317\u9678\u5730\u65b9\u6574\u5099\u5c40\u5343\u66f2\u5ddd\u6cb3\u5ddd\u4e8b\u52d9\u6240","boring_xml_url":47,"boring_view_url":1,"soilmap_view_url":null,"soiltest_xml_url":47,"soiltest_view_url":47},{"id":696857,"code":"NGIC202304741-0011","latitude":"36.549157388889","longitude":"138.11813913889","source_code":"","project_name":"\u4fe1\u6fc3\u5ddd\u6c34\u7cfb\u5343\u66f2\u5ddd\u904a\u6c34\u5730\u4e8b\u696d","survey_name":"\u4ee4\u548c5\u5e74\u5ea6\u5343\u66f2\u5ddd\u904a\u6c34\u5730\u5730\u8cea\u8abf\u67fb\u696d\u52d9","client_name":"\u56fd\u571f\u4ea4\u901a\u7701\u5317\u9678\u5730\u65b9\u6574\u5099\u5c40\u5343\u66f2\u5ddd\u6cb3\u5ddd\u4e8b\u52d9\u6240","boring_xml_url":47,"boring_view_url":1,"soilmap_view_url":null,"soiltest_xml_url":47,"soiltest_view_url":47},{"id":696856,"code":"NGIC202304741-0010","latitude":"36.552619277778","longitude":"138.12114058333","source_code":"","project_name":"\u4fe1\u6fc3\u5ddd\u6c34\u7cfb\u5343\u66f2\u5ddd\u904a\u6c34\u5730\u4e8b\u696d","survey_name":"\u4ee4\u548c5\u5e74\u5ea6\u5343\u66f2\u5ddd\u904a\u6c34\u5730\u5730\u8cea\u8abf\u67fb\u696d\u52d9","client_name":"\u56fd\u571f\u4ea4\u901a\u7701\u5317\u9678\u5730\u65b9\u6574\u5099\u5c40\u5343\u66f2\u5ddd\u6cb3\u5ddd\u4e8b\u52d9\u6240","boring_xml_url":47,"boring_view_url":1,"soilmap_view_url":null,"soiltest_xml_url":47,"soiltest_view_url":47}]}}