{"header":{"xyz":{"source":[],"mosaic":false},"page":6708,"raw":{"soiltest_result":"0","bbox":"57.598333,109.544722,1.933333,163.806111","page":"6708"},"conditions":{"soiltest_result":0,"north":57.598333,"west":109.544722,"south":1.933333,"east":163.806111},"success":true,"message":""},"data":{"meta":{"total":212844,"page":6708,"pages":7095,"count":30},"values":[{"id":119335,"code":"B4KJ201801000-7584","latitude":"35.5500285","longitude":"139.7714757","source_code":"PORT1300A016213","project_name":"\u6e2f\u6e7e\u5c40","survey_name":"\u6771\u4eac\u56fd\u969b\u7a7a\u6e2f\u65e7\u7a7a\u6e2f\u8de1\u5730\u533a\u571f\u8cea\u8abf\u67fb","client_name":"\u56fd\u571f\u4ea4\u901a\u7701\u95a2\u6771\u5730\u65b9\u6574\u5099\u5c40\u6a2a\u6d5c\u6e2f\u6e7e\u7a7a\u6e2f\u6280\u8853\u8abf\u67fb\u4e8b\u52d9\u6240","boring_xml_url":0,"boring_view_url":0,"soilmap_view_url":66,"soiltest_xml_url":0,"soiltest_view_url":66},{"id":119334,"code":"B4KJ201801000-7583","latitude":"35.54996136","longitude":"139.7678895","source_code":"PORT1300A016212","project_name":"\u6e2f\u6e7e\u5c40","survey_name":"\u6771\u4eac\u56fd\u969b\u7a7a\u6e2f\u65e7\u7a7a\u6e2f\u8de1\u5730\u533a\u571f\u8cea\u8abf\u67fb","client_name":"\u56fd\u571f\u4ea4\u901a\u7701\u95a2\u6771\u5730\u65b9\u6574\u5099\u5c40\u6a2a\u6d5c\u6e2f\u6e7e\u7a7a\u6e2f\u6280\u8853\u8abf\u67fb\u4e8b\u52d9\u6240","boring_xml_url":0,"boring_view_url":0,"soilmap_view_url":66,"soiltest_xml_url":0,"soiltest_view_url":66},{"id":119333,"code":"B4KJ201801000-7582","latitude":"35.55109217","longitude":"139.7702743","source_code":"PORT1300A016211","project_name":"\u6e2f\u6e7e\u5c40","survey_name":"\u6771\u4eac\u56fd\u969b\u7a7a\u6e2f\u65e7\u7a7a\u6e2f\u8de1\u5730\u533a\u571f\u8cea\u8abf\u67fb","client_name":"\u56fd\u571f\u4ea4\u901a\u7701\u95a2\u6771\u5730\u65b9\u6574\u5099\u5c40\u6a2a\u6d5c\u6e2f\u6e7e\u7a7a\u6e2f\u6280\u8853\u8abf\u67fb\u4e8b\u52d9\u6240","boring_xml_url":0,"boring_view_url":0,"soilmap_view_url":66,"soiltest_xml_url":0,"soiltest_view_url":66},{"id":119332,"code":"B4KJ201801000-7581","latitude":"35.55160633","longitude":"139.7673591","source_code":"PORT1300A016210","project_name":"\u6e2f\u6e7e\u5c40","survey_name":"\u5e73\u621017\u5e74\u5ea6\u6771\u4eac\u56fd\u969b\u7a7a\u6e2fM\u8a98\u5c0e\u8def\u571f\u8cea\u8abf\u67fb","client_name":"\u56fd\u571f\u4ea4\u901a\u7701\u95a2\u6771\u5730\u65b9\u6574\u5099\u5c40\u6a2a\u6d5c\u6e2f\u6e7e\u7a7a\u6e2f\u6280\u8853\u8abf\u67fb\u4e8b\u52d9\u6240","boring_xml_url":0,"boring_view_url":0,"soilmap_view_url":66,"soiltest_xml_url":0,"soiltest_view_url":66},{"id":119331,"code":"B4KJ201801000-7580","latitude":"35.55187025","longitude":"139.7677838","source_code":"PORT1300A016209","project_name":"\u6e2f\u6e7e\u5c40","survey_name":"\u5e73\u621017\u5e74\u5ea6\u6771\u4eac\u56fd\u969b\u7a7a\u6e2fM\u8a98\u5c0e\u8def\u571f\u8cea\u8abf\u67fb","client_name":"\u56fd\u571f\u4ea4\u901a\u7701\u95a2\u6771\u5730\u65b9\u6574\u5099\u5c40\u6a2a\u6d5c\u6e2f\u6e7e\u7a7a\u6e2f\u6280\u8853\u8abf\u67fb\u4e8b\u52d9\u6240","boring_xml_url":0,"boring_view_url":0,"soilmap_view_url":66,"soiltest_xml_url":0,"soiltest_view_url":66},{"id":119330,"code":"B4KJ201801000-7579","latitude":"35.55209642","longitude":"139.7682607","source_code":"PORT1300A016208","project_name":"\u6e2f\u6e7e\u5c40","survey_name":"\u5e73\u621017\u5e74\u5ea6\u6771\u4eac\u56fd\u969b\u7a7a\u6e2fM\u8a98\u5c0e\u8def\u571f\u8cea\u8abf\u67fb","client_name":"\u56fd\u571f\u4ea4\u901a\u7701\u95a2\u6771\u5730\u65b9\u6574\u5099\u5c40\u6a2a\u6d5c\u6e2f\u6e7e\u7a7a\u6e2f\u6280\u8853\u8abf\u67fb\u4e8b\u52d9\u6240","boring_xml_url":0,"boring_view_url":0,"soilmap_view_url":66,"soiltest_xml_url":0,"soiltest_view_url":66},{"id":119329,"code":"B4KJ201801000-7578","latitude":"35.55232256","longitude":"139.7687377","source_code":"PORT1300A016207","project_name":"\u6e2f\u6e7e\u5c40","survey_name":"\u5e73\u621017\u5e74\u5ea6\u6771\u4eac\u56fd\u969b\u7a7a\u6e2fM\u8a98\u5c0e\u8def\u571f\u8cea\u8abf\u67fb","client_name":"\u56fd\u571f\u4ea4\u901a\u7701\u95a2\u6771\u5730\u65b9\u6574\u5099\u5c40\u6a2a\u6d5c\u6e2f\u6e7e\u7a7a\u6e2f\u6280\u8853\u8abf\u67fb\u4e8b\u52d9\u6240","boring_xml_url":0,"boring_view_url":0,"soilmap_view_url":66,"soiltest_xml_url":0,"soiltest_view_url":66},{"id":119328,"code":"B4KJ201801000-7577","latitude":"35.55281994","longitude":"139.7697867","source_code":"PORT1300A016206","project_name":"\u6e2f\u6e7e\u5c40","survey_name":"\u5e73\u621017\u5e74\u5ea6\u6771\u4eac\u56fd\u969b\u7a7a\u6e2fM\u8a98\u5c0e\u8def\u571f\u8cea\u8abf\u67fb","client_name":"\u56fd\u571f\u4ea4\u901a\u7701\u95a2\u6771\u5730\u65b9\u6574\u5099\u5c40\u6a2a\u6d5c\u6e2f\u6e7e\u7a7a\u6e2f\u6280\u8853\u8abf\u67fb\u4e8b\u52d9\u6240","boring_xml_url":0,"boring_view_url":0,"soilmap_view_url":66,"soiltest_xml_url":0,"soiltest_view_url":66},{"id":119327,"code":"B4KJ201801000-7576","latitude":"35.54302778","longitude":"139.785","source_code":"PORT1300A016205","project_name":"\u6e2f\u6e7e\u5c40","survey_name":"\u6771\u4eac\u56fd\u969b\u7a7a\u6e2f\u8a98\u5c0e\u8def\u571f\u8cea\u8abf\u67fb","client_name":"\u56fd\u571f\u4ea4\u901a\u7701\u95a2\u6771\u5730\u65b9\u6574\u5099\u5c40\u6a2a\u6d5c\u6e2f\u6e7e\u7a7a\u6e2f\u6280\u8853\u8abf\u67fb\u4e8b\u52d9\u6240","boring_xml_url":0,"boring_view_url":0,"soilmap_view_url":66,"soiltest_xml_url":0,"soiltest_view_url":66},{"id":119326,"code":"B4KJ201801000-7575","latitude":"35.54263889","longitude":"139.7852778","source_code":"PORT1300A016204","project_name":"\u6e2f\u6e7e\u5c40","survey_name":"\u6771\u4eac\u56fd\u969b\u7a7a\u6e2f\u8a98\u5c0e\u8def\u571f\u8cea\u8abf\u67fb","client_name":"\u56fd\u571f\u4ea4\u901a\u7701\u95a2\u6771\u5730\u65b9\u6574\u5099\u5c40\u6a2a\u6d5c\u6e2f\u6e7e\u7a7a\u6e2f\u6280\u8853\u8abf\u67fb\u4e8b\u52d9\u6240","boring_xml_url":0,"boring_view_url":0,"soilmap_view_url":66,"soiltest_xml_url":0,"soiltest_view_url":66},{"id":119325,"code":"B4KJ201801000-7574","latitude":"35.54241667","longitude":"139.7848056","source_code":"PORT1300A016203","project_name":"\u6e2f\u6e7e\u5c40","survey_name":"\u6771\u4eac\u56fd\u969b\u7a7a\u6e2f\u8a98\u5c0e\u8def\u571f\u8cea\u8abf\u67fb","client_name":"\u56fd\u571f\u4ea4\u901a\u7701\u95a2\u6771\u5730\u65b9\u6574\u5099\u5c40\u6a2a\u6d5c\u6e2f\u6e7e\u7a7a\u6e2f\u6280\u8853\u8abf\u67fb\u4e8b\u52d9\u6240","boring_xml_url":0,"boring_view_url":0,"soilmap_view_url":66,"soiltest_xml_url":0,"soiltest_view_url":66},{"id":119324,"code":"B4KJ201801000-7573","latitude":"35.54219444","longitude":"139.7843333","source_code":"PORT1300A016202","project_name":"\u6e2f\u6e7e\u5c40","survey_name":"\u6771\u4eac\u56fd\u969b\u7a7a\u6e2f\u8a98\u5c0e\u8def\u571f\u8cea\u8abf\u67fb","client_name":"\u56fd\u571f\u4ea4\u901a\u7701\u95a2\u6771\u5730\u65b9\u6574\u5099\u5c40\u6a2a\u6d5c\u6e2f\u6e7e\u7a7a\u6e2f\u6280\u8853\u8abf\u67fb\u4e8b\u52d9\u6240","boring_xml_url":0,"boring_view_url":0,"soilmap_view_url":66,"soiltest_xml_url":0,"soiltest_view_url":66},{"id":119323,"code":"B4KJ201801000-7572","latitude":"35.54194444","longitude":"139.7838056","source_code":"PORT1300A016201","project_name":"\u6e2f\u6e7e\u5c40","survey_name":"\u6771\u4eac\u56fd\u969b\u7a7a\u6e2f\u8a98\u5c0e\u8def\u571f\u8cea\u8abf\u67fb","client_name":"\u56fd\u571f\u4ea4\u901a\u7701\u95a2\u6771\u5730\u65b9\u6574\u5099\u5c40\u6a2a\u6d5c\u6e2f\u6e7e\u7a7a\u6e2f\u6280\u8853\u8abf\u67fb\u4e8b\u52d9\u6240","boring_xml_url":0,"boring_view_url":0,"soilmap_view_url":66,"soiltest_xml_url":0,"soiltest_view_url":66},{"id":119322,"code":"B4KJ201801000-7571","latitude":"35.54166667","longitude":"139.7833333","source_code":"PORT1300A016200","project_name":"\u6e2f\u6e7e\u5c40","survey_name":"\u6771\u4eac\u56fd\u969b\u7a7a\u6e2f\u8a98\u5c0e\u8def\u571f\u8cea\u8abf\u67fb","client_name":"\u56fd\u571f\u4ea4\u901a\u7701\u95a2\u6771\u5730\u65b9\u6574\u5099\u5c40\u6a2a\u6d5c\u6e2f\u6e7e\u7a7a\u6e2f\u6280\u8853\u8abf\u67fb\u4e8b\u52d9\u6240","boring_xml_url":0,"boring_view_url":0,"soilmap_view_url":66,"soiltest_xml_url":0,"soiltest_view_url":66},{"id":119321,"code":"B4KJ201801000-7570","latitude":"35.54152778","longitude":"139.7828889","source_code":"PORT1300A016199","project_name":"\u6e2f\u6e7e\u5c40","survey_name":"\u6771\u4eac\u56fd\u969b\u7a7a\u6e2f\u8a98\u5c0e\u8def\u571f\u8cea\u8abf\u67fb","client_name":"\u56fd\u571f\u4ea4\u901a\u7701\u95a2\u6771\u5730\u65b9\u6574\u5099\u5c40\u6a2a\u6d5c\u6e2f\u6e7e\u7a7a\u6e2f\u6280\u8853\u8abf\u67fb\u4e8b\u52d9\u6240","boring_xml_url":0,"boring_view_url":0,"soilmap_view_url":66,"soiltest_xml_url":0,"soiltest_view_url":66},{"id":119320,"code":"B4KJ201801000-7569","latitude":"35.54047222","longitude":"139.7824167","source_code":"PORT1300A016198","project_name":"\u6e2f\u6e7e\u5c40","survey_name":"\u6771\u4eac\u56fd\u969b\u7a7a\u6e2f\u8a98\u5c0e\u8def\u571f\u8cea\u8abf\u67fb","client_name":"\u56fd\u571f\u4ea4\u901a\u7701\u95a2\u6771\u5730\u65b9\u6574\u5099\u5c40\u6a2a\u6d5c\u6e2f\u6e7e\u7a7a\u6e2f\u6280\u8853\u8abf\u67fb\u4e8b\u52d9\u6240","boring_xml_url":0,"boring_view_url":0,"soilmap_view_url":66,"soiltest_xml_url":0,"soiltest_view_url":66},{"id":119319,"code":"B4KJ201801000-7568","latitude":"35.54055556","longitude":"139.8013333","source_code":"PORT1300A016196","project_name":"\u6e2f\u6e7e\u5c40","survey_name":"\u6771\u4eac\u56fd\u969b\u7a7a\u6e2f\u518d\u62e1\u5f35\u53d6\u4ed8\u8a98\u5c0e\u8def\u571f\u8cea\u8abf\u67fb","client_name":"\u56fd\u571f\u4ea4\u901a\u7701\u95a2\u6771\u5730\u65b9\u6574\u5099\u5c40\u6a2a\u6d5c\u6e2f\u6e7e\u7a7a\u6e2f\u6280\u8853\u8abf\u67fb\u4e8b\u52d9\u6240","boring_xml_url":0,"boring_view_url":0,"soilmap_view_url":66,"soiltest_xml_url":0,"soiltest_view_url":66},{"id":119318,"code":"B4KJ201801000-7567","latitude":"35.54063889","longitude":"139.8018611","source_code":"PORT1300A016195","project_name":"\u6e2f\u6e7e\u5c40","survey_name":"\u6771\u4eac\u56fd\u969b\u7a7a\u6e2f\u518d\u62e1\u5f35\u53d6\u4ed8\u8a98\u5c0e\u8def\u571f\u8cea\u8abf\u67fb","client_name":"\u56fd\u571f\u4ea4\u901a\u7701\u95a2\u6771\u5730\u65b9\u6574\u5099\u5c40\u6a2a\u6d5c\u6e2f\u6e7e\u7a7a\u6e2f\u6280\u8853\u8abf\u67fb\u4e8b\u52d9\u6240","boring_xml_url":0,"boring_view_url":0,"soilmap_view_url":66,"soiltest_xml_url":0,"soiltest_view_url":66},{"id":119317,"code":"B4KJ201801000-7566","latitude":"35.54102778","longitude":"139.80125","source_code":"PORT1300A016194","project_name":"\u6e2f\u6e7e\u5c40","survey_name":"\u6771\u4eac\u56fd\u969b\u7a7a\u6e2f\u518d\u62e1\u5f35\u53d6\u4ed8\u8a98\u5c0e\u8def\u571f\u8cea\u8abf\u67fb","client_name":"\u56fd\u571f\u4ea4\u901a\u7701\u95a2\u6771\u5730\u65b9\u6574\u5099\u5c40\u6a2a\u6d5c\u6e2f\u6e7e\u7a7a\u6e2f\u6280\u8853\u8abf\u67fb\u4e8b\u52d9\u6240","boring_xml_url":0,"boring_view_url":0,"soilmap_view_url":66,"soiltest_xml_url":0,"soiltest_view_url":66},{"id":119316,"code":"B4KJ201801000-7565","latitude":"35.54422222","longitude":"139.7709444","source_code":"PORT1300A016193","project_name":"\u6e2f\u6e7e\u5c40","survey_name":"\u5e73\u621016\u5e74\u5ea6\u6771\u4eac\u56fd\u969b\u7a7a\u6e2f\u65e7\u7a7a\u6e2f\u8de1\u5730\u533a\u571f\u8cea\u8abf\u67fb(\u305d\u306e3)","client_name":"\u56fd\u571f\u4ea4\u901a\u7701\u95a2\u6771\u5730\u65b9\u6574\u5099\u5c40\u6a2a\u6d5c\u6e2f\u6e7e\u7a7a\u6e2f\u6280\u8853\u8abf\u67fb\u4e8b\u52d9\u6240","boring_xml_url":0,"boring_view_url":0,"soilmap_view_url":66,"soiltest_xml_url":0,"soiltest_view_url":0},{"id":119315,"code":"B4KJ201801000-7564","latitude":"35.54419444","longitude":"139.7709444","source_code":"PORT1300A016192","project_name":"\u6e2f\u6e7e\u5c40","survey_name":"\u5e73\u621016\u5e74\u5ea6\u6771\u4eac\u56fd\u969b\u7a7a\u6e2f\u65e7\u7a7a\u6e2f\u8de1\u5730\u533a\u571f\u8cea\u8abf\u67fb(\u305d\u306e3)","client_name":"\u56fd\u571f\u4ea4\u901a\u7701\u95a2\u6771\u5730\u65b9\u6574\u5099\u5c40\u6a2a\u6d5c\u6e2f\u6e7e\u7a7a\u6e2f\u6280\u8853\u8abf\u67fb\u4e8b\u52d9\u6240","boring_xml_url":0,"boring_view_url":0,"soilmap_view_url":66,"soiltest_xml_url":0,"soiltest_view_url":66},{"id":119314,"code":"B4KJ201801000-7563","latitude":"35.54422222","longitude":"139.7709444","source_code":"PORT1300A016191","project_name":"\u6e2f\u6e7e\u5c40","survey_name":"\u5e73\u621016\u5e74\u5ea6\u6771\u4eac\u56fd\u969b\u7a7a\u6e2f\u65e7\u7a7a\u6e2f\u8de1\u5730\u533a\u571f\u8cea\u8abf\u67fb(\u305d\u306e3)","client_name":"\u56fd\u571f\u4ea4\u901a\u7701\u95a2\u6771\u5730\u65b9\u6574\u5099\u5c40\u6a2a\u6d5c\u6e2f\u6e7e\u7a7a\u6e2f\u6280\u8853\u8abf\u67fb\u4e8b\u52d9\u6240","boring_xml_url":0,"boring_view_url":0,"soilmap_view_url":66,"soiltest_xml_url":0,"soiltest_view_url":66},{"id":119313,"code":"B4KJ201801000-7562","latitude":"35.54419444","longitude":"139.7733889","source_code":"PORT1300A016190","project_name":"\u6e2f\u6e7e\u5c40","survey_name":"\u5e73\u621016\u5e74\u5ea6\u6771\u4eac\u56fd\u969b\u7a7a\u6e2f\u65e7\u7a7a\u6e2f\u8de1\u5730\u533a\u571f\u8cea\u8abf\u67fb(\u305d\u306e3)","client_name":"\u56fd\u571f\u4ea4\u901a\u7701\u95a2\u6771\u5730\u65b9\u6574\u5099\u5c40\u6a2a\u6d5c\u6e2f\u6e7e\u7a7a\u6e2f\u6280\u8853\u8abf\u67fb\u4e8b\u52d9\u6240","boring_xml_url":0,"boring_view_url":0,"soilmap_view_url":66,"soiltest_xml_url":0,"soiltest_view_url":0},{"id":119312,"code":"B4KJ201801000-7561","latitude":"35.54422222","longitude":"139.7733889","source_code":"PORT1300A016189","project_name":"\u6e2f\u6e7e\u5c40","survey_name":"\u5e73\u621016\u5e74\u5ea6\u6771\u4eac\u56fd\u969b\u7a7a\u6e2f\u65e7\u7a7a\u6e2f\u8de1\u5730\u533a\u571f\u8cea\u8abf\u67fb(\u305d\u306e3)","client_name":"\u56fd\u571f\u4ea4\u901a\u7701\u95a2\u6771\u5730\u65b9\u6574\u5099\u5c40\u6a2a\u6d5c\u6e2f\u6e7e\u7a7a\u6e2f\u6280\u8853\u8abf\u67fb\u4e8b\u52d9\u6240","boring_xml_url":0,"boring_view_url":0,"soilmap_view_url":66,"soiltest_xml_url":0,"soiltest_view_url":66},{"id":119311,"code":"B4KJ201801000-7560","latitude":"35.54422222","longitude":"139.7733611","source_code":"PORT1300A016188","project_name":"\u6e2f\u6e7e\u5c40","survey_name":"\u5e73\u621016\u5e74\u5ea6\u6771\u4eac\u56fd\u969b\u7a7a\u6e2f\u65e7\u7a7a\u6e2f\u8de1\u5730\u533a\u571f\u8cea\u8abf\u67fb(\u305d\u306e3)","client_name":"\u56fd\u571f\u4ea4\u901a\u7701\u95a2\u6771\u5730\u65b9\u6574\u5099\u5c40\u6a2a\u6d5c\u6e2f\u6e7e\u7a7a\u6e2f\u6280\u8853\u8abf\u67fb\u4e8b\u52d9\u6240","boring_xml_url":0,"boring_view_url":0,"soilmap_view_url":66,"soiltest_xml_url":0,"soiltest_view_url":66},{"id":119310,"code":"B4KJ201801000-7559","latitude":"35.54527778","longitude":"139.7755278","source_code":"PORT1300A016187","project_name":"\u6e2f\u6e7e\u5c40","survey_name":"\u5e73\u621016\u5e74\u5ea6\u6771\u4eac\u56fd\u969b\u7a7a\u6e2f\u65e7\u7a7a\u6e2f\u8de1\u5730\u533a\u571f\u8cea\u8abf\u67fb(\u305d\u306e3)","client_name":"\u56fd\u571f\u4ea4\u901a\u7701\u95a2\u6771\u5730\u65b9\u6574\u5099\u5c40\u6a2a\u6d5c\u6e2f\u6e7e\u7a7a\u6e2f\u6280\u8853\u8abf\u67fb\u4e8b\u52d9\u6240","boring_xml_url":0,"boring_view_url":0,"soilmap_view_url":66,"soiltest_xml_url":0,"soiltest_view_url":0},{"id":119309,"code":"B4KJ201801000-7558","latitude":"35.54522222","longitude":"139.7755833","source_code":"PORT1300A016186","project_name":"\u6e2f\u6e7e\u5c40","survey_name":"\u5e73\u621016\u5e74\u5ea6\u6771\u4eac\u56fd\u969b\u7a7a\u6e2f\u65e7\u7a7a\u6e2f\u8de1\u5730\u533a\u571f\u8cea\u8abf\u67fb(\u305d\u306e3)","client_name":"\u56fd\u571f\u4ea4\u901a\u7701\u95a2\u6771\u5730\u65b9\u6574\u5099\u5c40\u6a2a\u6d5c\u6e2f\u6e7e\u7a7a\u6e2f\u6280\u8853\u8abf\u67fb\u4e8b\u52d9\u6240","boring_xml_url":0,"boring_view_url":0,"soilmap_view_url":66,"soiltest_xml_url":0,"soiltest_view_url":66},{"id":119308,"code":"B4KJ201801000-7557","latitude":"35.54525","longitude":"139.7755556","source_code":"PORT1300A016185","project_name":"\u6e2f\u6e7e\u5c40","survey_name":"\u5e73\u621016\u5e74\u5ea6\u6771\u4eac\u56fd\u969b\u7a7a\u6e2f\u65e7\u7a7a\u6e2f\u8de1\u5730\u533a\u571f\u8cea\u8abf\u67fb(\u305d\u306e3)","client_name":"\u56fd\u571f\u4ea4\u901a\u7701\u95a2\u6771\u5730\u65b9\u6574\u5099\u5c40\u6a2a\u6d5c\u6e2f\u6e7e\u7a7a\u6e2f\u6280\u8853\u8abf\u67fb\u4e8b\u52d9\u6240","boring_xml_url":0,"boring_view_url":0,"soilmap_view_url":66,"soiltest_xml_url":0,"soiltest_view_url":66},{"id":119307,"code":"B4KJ201801000-7556","latitude":"35.54036111","longitude":"139.7746944","source_code":"PORT1300A016184","project_name":"\u6e2f\u6e7e\u5c40","survey_name":"\u5e73\u621016\u5e74\u5ea6\u6771\u4eac\u56fd\u969b\u7a7a\u6e2f\u65e7\u7a7a\u6e2f\u8de1\u5730\u533a\u571f\u8cea\u8abf\u67fb(\u305d\u306e3)","client_name":"\u56fd\u571f\u4ea4\u901a\u7701\u95a2\u6771\u5730\u65b9\u6574\u5099\u5c40\u6a2a\u6d5c\u6e2f\u6e7e\u7a7a\u6e2f\u6280\u8853\u8abf\u67fb\u4e8b\u52d9\u6240","boring_xml_url":0,"boring_view_url":0,"soilmap_view_url":66,"soiltest_xml_url":0,"soiltest_view_url":66},{"id":119306,"code":"B4KJ201801000-7555","latitude":"35.54036111","longitude":"139.7746944","source_code":"PORT1300A016183","project_name":"\u6e2f\u6e7e\u5c40","survey_name":"\u5e73\u621016\u5e74\u5ea6\u6771\u4eac\u56fd\u969b\u7a7a\u6e2f\u65e7\u7a7a\u6e2f\u8de1\u5730\u533a\u5730\u571f\u8cea\u67fb(\u305d\u306e3)","client_name":"\u56fd\u571f\u4ea4\u901a\u7701\u95a2\u6771\u5730\u65b9\u6574\u5099\u5c40\u6a2a\u6d5c\u6e2f\u6e7e\u7a7a\u6e2f\u6280\u8853\u8abf\u67fb\u4e8b\u52d9\u6240","boring_xml_url":0,"boring_view_url":0,"soilmap_view_url":66,"soiltest_xml_url":0,"soiltest_view_url":66}]}}