{"header":{"xyz":{"source":[],"mosaic":false},"page":6728,"raw":{"soiltest_result":"0","bbox":"57.598333,109.544722,1.933333,163.806111","page":"6728"},"conditions":{"soiltest_result":0,"north":57.598333,"west":109.544722,"south":1.933333,"east":163.806111},"success":true,"message":""},"data":{"meta":{"total":212844,"page":6728,"pages":7095,"count":30},"values":[{"id":118735,"code":"B4KJ201801000-6984","latitude":"35.53797828","longitude":"139.7909363","source_code":"PORT1300A013218","project_name":"\u6e2f\u6e7e\u5c40","survey_name":"\u662d\u548c62\u5e74\u5ea6\u6771\u4eac\u7a7a\u6e2f\u5c64\u539a\u8abf\u67fb(\u305d\u306e11)","client_name":"\u56fd\u571f\u4ea4\u901a\u7701\u95a2\u6771\u5730\u65b9\u6574\u5099\u5c40\u6a2a\u6d5c\u6e2f\u6e7e\u7a7a\u6e2f\u6280\u8853\u8abf\u67fb\u4e8b\u52d9\u6240","boring_xml_url":0,"boring_view_url":0,"soilmap_view_url":66,"soiltest_xml_url":0,"soiltest_view_url":66},{"id":118734,"code":"B4KJ201801000-6983","latitude":"35.53547863","longitude":"139.7934362","source_code":"PORT1300A013217","project_name":"\u6e2f\u6e7e\u5c40","survey_name":"\u662d\u548c62\u5e74\u5ea6\u6771\u4eac\u7a7a\u6e2f\u5c64\u539a\u8abf\u67fb(\u305d\u306e11)","client_name":"\u56fd\u571f\u4ea4\u901a\u7701\u95a2\u6771\u5730\u65b9\u6574\u5099\u5c40\u6a2a\u6d5c\u6e2f\u6e7e\u7a7a\u6e2f\u6280\u8853\u8abf\u67fb\u4e8b\u52d9\u6240","boring_xml_url":0,"boring_view_url":0,"soilmap_view_url":66,"soiltest_xml_url":0,"soiltest_view_url":66},{"id":118733,"code":"B4KJ201801000-6982","latitude":"35.53603411","longitude":"139.7931584","source_code":"PORT1300A013216","project_name":"\u6e2f\u6e7e\u5c40","survey_name":"\u662d\u548c62\u5e74\u5ea6\u6771\u4eac\u7a7a\u6e2f\u5c64\u539a\u8abf\u67fb(\u305d\u306e11)","client_name":"\u56fd\u571f\u4ea4\u901a\u7701\u95a2\u6771\u5730\u65b9\u6574\u5099\u5c40\u6a2a\u6d5c\u6e2f\u6e7e\u7a7a\u6e2f\u6280\u8853\u8abf\u67fb\u4e8b\u52d9\u6240","boring_xml_url":0,"boring_view_url":0,"soilmap_view_url":66,"soiltest_xml_url":0,"soiltest_view_url":66},{"id":118732,"code":"B4KJ201801000-6981","latitude":"35.53631185","longitude":"139.7928806","source_code":"PORT1300A013215","project_name":"\u6e2f\u6e7e\u5c40","survey_name":"\u662d\u548c62\u5e74\u5ea6\u6771\u4eac\u7a7a\u6e2f\u5c64\u539a\u8abf\u67fb(\u305d\u306e11)","client_name":"\u56fd\u571f\u4ea4\u901a\u7701\u95a2\u6771\u5730\u65b9\u6574\u5099\u5c40\u6a2a\u6d5c\u6e2f\u6e7e\u7a7a\u6e2f\u6280\u8853\u8abf\u67fb\u4e8b\u52d9\u6240","boring_xml_url":0,"boring_view_url":0,"soilmap_view_url":66,"soiltest_xml_url":0,"soiltest_view_url":66},{"id":118731,"code":"B4KJ201801000-6980","latitude":"35.53686734","longitude":"139.7926029","source_code":"PORT1300A013214","project_name":"\u6e2f\u6e7e\u5c40","survey_name":"\u662d\u548c62\u5e74\u5ea6\u6771\u4eac\u7a7a\u6e2f\u5c64\u539a\u8abf\u67fb(\u305d\u306e11)","client_name":"\u56fd\u571f\u4ea4\u901a\u7701\u95a2\u6771\u5730\u65b9\u6574\u5099\u5c40\u6a2a\u6d5c\u6e2f\u6e7e\u7a7a\u6e2f\u6280\u8853\u8abf\u67fb\u4e8b\u52d9\u6240","boring_xml_url":0,"boring_view_url":0,"soilmap_view_url":66,"soiltest_xml_url":0,"soiltest_view_url":66},{"id":118730,"code":"B4KJ201801000-6979","latitude":"35.53714508","longitude":"139.7923251","source_code":"PORT1300A013213","project_name":"\u6e2f\u6e7e\u5c40","survey_name":"\u662d\u548c62\u5e74\u5ea6\u6771\u4eac\u7a7a\u6e2f\u5c64\u539a\u8abf\u67fb(\u305d\u306e11)","client_name":"\u56fd\u571f\u4ea4\u901a\u7701\u95a2\u6771\u5730\u65b9\u6574\u5099\u5c40\u6a2a\u6d5c\u6e2f\u6e7e\u7a7a\u6e2f\u6280\u8853\u8abf\u67fb\u4e8b\u52d9\u6240","boring_xml_url":0,"boring_view_url":0,"soilmap_view_url":66,"soiltest_xml_url":0,"soiltest_view_url":66},{"id":118729,"code":"B4KJ201801000-6978","latitude":"35.53742281","longitude":"139.7920473","source_code":"PORT1300A013212","project_name":"\u6e2f\u6e7e\u5c40","survey_name":"\u662d\u548c62\u5e74\u5ea6\u6771\u4eac\u7a7a\u6e2f\u5c64\u539a\u8abf\u67fb(\u305d\u306e11)","client_name":"\u56fd\u571f\u4ea4\u901a\u7701\u95a2\u6771\u5730\u65b9\u6574\u5099\u5c40\u6a2a\u6d5c\u6e2f\u6e7e\u7a7a\u6e2f\u6280\u8853\u8abf\u67fb\u4e8b\u52d9\u6240","boring_xml_url":0,"boring_view_url":0,"soilmap_view_url":66,"soiltest_xml_url":0,"soiltest_view_url":66},{"id":118728,"code":"B4KJ201801000-6977","latitude":"35.5379783","longitude":"139.7917696","source_code":"PORT1300A013211","project_name":"\u6e2f\u6e7e\u5c40","survey_name":"\u662d\u548c62\u5e74\u5ea6\u6771\u4eac\u7a7a\u6e2f\u5c64\u539a\u8abf\u67fb(\u305d\u306e11)","client_name":"\u56fd\u571f\u4ea4\u901a\u7701\u95a2\u6771\u5730\u65b9\u6574\u5099\u5c40\u6a2a\u6d5c\u6e2f\u6e7e\u7a7a\u6e2f\u6280\u8853\u8abf\u67fb\u4e8b\u52d9\u6240","boring_xml_url":0,"boring_view_url":0,"soilmap_view_url":66,"soiltest_xml_url":0,"soiltest_view_url":66},{"id":118727,"code":"B4KJ201801000-6976","latitude":"35.53825604","longitude":"139.7914918","source_code":"PORT1300A013210","project_name":"\u6e2f\u6e7e\u5c40","survey_name":"\u662d\u548c62\u5e74\u5ea6\u6771\u4eac\u7a7a\u6e2f\u5c64\u539a\u8abf\u67fb(\u305d\u306e11)","client_name":"\u56fd\u571f\u4ea4\u901a\u7701\u95a2\u6771\u5730\u65b9\u6574\u5099\u5c40\u6a2a\u6d5c\u6e2f\u6e7e\u7a7a\u6e2f\u6280\u8853\u8abf\u67fb\u4e8b\u52d9\u6240","boring_xml_url":0,"boring_view_url":0,"soilmap_view_url":66,"soiltest_xml_url":0,"soiltest_view_url":66},{"id":118726,"code":"B4KJ201801000-6975","latitude":"35.53575639","longitude":"139.7939917","source_code":"PORT1300A013209","project_name":"\u6e2f\u6e7e\u5c40","survey_name":"\u662d\u548c62\u5e74\u5ea6\u6771\u4eac\u7a7a\u6e2f\u5c64\u539a\u8abf\u67fb(\u305d\u306e11)","client_name":"\u56fd\u571f\u4ea4\u901a\u7701\u95a2\u6771\u5730\u65b9\u6574\u5099\u5c40\u6a2a\u6d5c\u6e2f\u6e7e\u7a7a\u6e2f\u6280\u8853\u8abf\u67fb\u4e8b\u52d9\u6240","boring_xml_url":0,"boring_view_url":0,"soilmap_view_url":66,"soiltest_xml_url":0,"soiltest_view_url":66},{"id":118725,"code":"B4KJ201801000-6974","latitude":"35.53631187","longitude":"139.7937139","source_code":"PORT1300A013208","project_name":"\u6e2f\u6e7e\u5c40","survey_name":"\u662d\u548c62\u5e74\u5ea6\u6771\u4eac\u7a7a\u6e2f\u5c64\u539a\u8abf\u67fb(\u305d\u306e11)","client_name":"\u56fd\u571f\u4ea4\u901a\u7701\u95a2\u6771\u5730\u65b9\u6574\u5099\u5c40\u6a2a\u6d5c\u6e2f\u6e7e\u7a7a\u6e2f\u6280\u8853\u8abf\u67fb\u4e8b\u52d9\u6240","boring_xml_url":0,"boring_view_url":0,"soilmap_view_url":66,"soiltest_xml_url":0,"soiltest_view_url":66},{"id":118724,"code":"B4KJ201801000-6973","latitude":"35.53658961","longitude":"139.7934361","source_code":"PORT1300A013207","project_name":"\u6e2f\u6e7e\u5c40","survey_name":"\u662d\u548c62\u5e74\u5ea6\u6771\u4eac\u7a7a\u6e2f\u5c64\u539a\u8abf\u67fb(\u305d\u306e11)","client_name":"\u56fd\u571f\u4ea4\u901a\u7701\u95a2\u6771\u5730\u65b9\u6574\u5099\u5c40\u6a2a\u6d5c\u6e2f\u6e7e\u7a7a\u6e2f\u6280\u8853\u8abf\u67fb\u4e8b\u52d9\u6240","boring_xml_url":0,"boring_view_url":0,"soilmap_view_url":66,"soiltest_xml_url":0,"soiltest_view_url":0},{"id":118723,"code":"B4KJ201801000-6972","latitude":"35.53686735","longitude":"139.7931584","source_code":"PORT1300A013206","project_name":"\u6e2f\u6e7e\u5c40","survey_name":"\u662d\u548c62\u5e74\u5ea6\u6771\u4eac\u7a7a\u6e2f\u5c64\u539a\u8abf\u67fb(\u305d\u306e11)","client_name":"\u56fd\u571f\u4ea4\u901a\u7701\u95a2\u6771\u5730\u65b9\u6574\u5099\u5c40\u6a2a\u6d5c\u6e2f\u6e7e\u7a7a\u6e2f\u6280\u8853\u8abf\u67fb\u4e8b\u52d9\u6240","boring_xml_url":0,"boring_view_url":0,"soilmap_view_url":66,"soiltest_xml_url":0,"soiltest_view_url":66},{"id":118722,"code":"B4KJ201801000-6971","latitude":"35.53742284","longitude":"139.7928806","source_code":"PORT1300A013205","project_name":"\u6e2f\u6e7e\u5c40","survey_name":"\u662d\u548c62\u5e74\u5ea6\u6771\u4eac\u7a7a\u6e2f\u5c64\u539a\u8abf\u67fb(\u305d\u306e11)","client_name":"\u56fd\u571f\u4ea4\u901a\u7701\u95a2\u6771\u5730\u65b9\u6574\u5099\u5c40\u6a2a\u6d5c\u6e2f\u6e7e\u7a7a\u6e2f\u6280\u8853\u8abf\u67fb\u4e8b\u52d9\u6240","boring_xml_url":0,"boring_view_url":0,"soilmap_view_url":66,"soiltest_xml_url":0,"soiltest_view_url":66},{"id":118721,"code":"B4KJ201801000-6970","latitude":"35.53770058","longitude":"139.7926028","source_code":"PORT1300A013204","project_name":"\u6e2f\u6e7e\u5c40","survey_name":"\u662d\u548c62\u5e74\u5ea6\u6771\u4eac\u7a7a\u6e2f\u5c64\u539a\u8abf\u67fb(\u305d\u306e11)","client_name":"\u56fd\u571f\u4ea4\u901a\u7701\u95a2\u6771\u5730\u65b9\u6574\u5099\u5c40\u6a2a\u6d5c\u6e2f\u6e7e\u7a7a\u6e2f\u6280\u8853\u8abf\u67fb\u4e8b\u52d9\u6240","boring_xml_url":0,"boring_view_url":0,"soilmap_view_url":66,"soiltest_xml_url":0,"soiltest_view_url":66},{"id":118720,"code":"B4KJ201801000-6969","latitude":"35.53825606","longitude":"139.7923251","source_code":"PORT1300A013203","project_name":"\u6e2f\u6e7e\u5c40","survey_name":"\u662d\u548c62\u5e74\u5ea6\u6771\u4eac\u7a7a\u6e2f\u5c64\u539a\u8abf\u67fb(\u305d\u306e11)","client_name":"\u56fd\u571f\u4ea4\u901a\u7701\u95a2\u6771\u5730\u65b9\u6574\u5099\u5c40\u6a2a\u6d5c\u6e2f\u6e7e\u7a7a\u6e2f\u6280\u8853\u8abf\u67fb\u4e8b\u52d9\u6240","boring_xml_url":0,"boring_view_url":0,"soilmap_view_url":66,"soiltest_xml_url":0,"soiltest_view_url":66},{"id":118719,"code":"B4KJ201801000-6968","latitude":"35.5385338","longitude":"139.7920473","source_code":"PORT1300A013202","project_name":"\u6e2f\u6e7e\u5c40","survey_name":"\u662d\u548c62\u5e74\u5ea6\u6771\u4eac\u7a7a\u6e2f\u5c64\u539a\u8abf\u67fb(\u305d\u306e11)","client_name":"\u56fd\u571f\u4ea4\u901a\u7701\u95a2\u6771\u5730\u65b9\u6574\u5099\u5c40\u6a2a\u6d5c\u6e2f\u6e7e\u7a7a\u6e2f\u6280\u8853\u8abf\u67fb\u4e8b\u52d9\u6240","boring_xml_url":0,"boring_view_url":0,"soilmap_view_url":66,"soiltest_xml_url":0,"soiltest_view_url":66},{"id":118718,"code":"B4KJ201801000-6967","latitude":"35.53770049","longitude":"139.7892698","source_code":"PORT1300A012388","project_name":"\u6e2f\u6e7e\u5c40","survey_name":"\u662d\u548c62\u5e74\u5ea6\u6771\u4eac\u7a7a\u6e2f\u5c64\u539a\u8abf\u67fb(\u305d\u306e10)","client_name":"\u56fd\u571f\u4ea4\u901a\u7701\u95a2\u6771\u5730\u65b9\u6574\u5099\u5c40\u6a2a\u6d5c\u6e2f\u6e7e\u7a7a\u6e2f\u6280\u8853\u8abf\u67fb\u4e8b\u52d9\u6240","boring_xml_url":0,"boring_view_url":0,"soilmap_view_url":66,"soiltest_xml_url":0,"soiltest_view_url":66},{"id":118717,"code":"B4KJ201801000-6966","latitude":"35.53825597","longitude":"139.788992","source_code":"PORT1300A012387","project_name":"\u6e2f\u6e7e\u5c40","survey_name":"\u662d\u548c62\u5e74\u5ea6\u6771\u4eac\u7a7a\u6e2f\u5c64\u539a\u8abf\u67fb(\u305d\u306e10)","client_name":"\u56fd\u571f\u4ea4\u901a\u7701\u95a2\u6771\u5730\u65b9\u6574\u5099\u5c40\u6a2a\u6d5c\u6e2f\u6e7e\u7a7a\u6e2f\u6280\u8853\u8abf\u67fb\u4e8b\u52d9\u6240","boring_xml_url":0,"boring_view_url":0,"soilmap_view_url":66,"soiltest_xml_url":0,"soiltest_view_url":66},{"id":118716,"code":"B4KJ201801000-6965","latitude":"35.53853371","longitude":"139.7887142","source_code":"PORT1300A012386","project_name":"\u6e2f\u6e7e\u5c40","survey_name":"\u662d\u548c62\u5e74\u5ea6\u6771\u4eac\u7a7a\u6e2f\u5c64\u539a\u8abf\u67fb(\u305d\u306e10)","client_name":"\u56fd\u571f\u4ea4\u901a\u7701\u95a2\u6771\u5730\u65b9\u6574\u5099\u5c40\u6a2a\u6d5c\u6e2f\u6e7e\u7a7a\u6e2f\u6280\u8853\u8abf\u67fb\u4e8b\u52d9\u6240","boring_xml_url":0,"boring_view_url":0,"soilmap_view_url":66,"soiltest_xml_url":0,"soiltest_view_url":66},{"id":118715,"code":"B4KJ201801000-6964","latitude":"35.5390892","longitude":"139.7884365","source_code":"PORT1300A012385","project_name":"\u6e2f\u6e7e\u5c40","survey_name":"\u662d\u548c62\u5e74\u5ea6\u6771\u4eac\u7a7a\u6e2f\u5c64\u539a\u8abf\u67fb(\u305d\u306e10)","client_name":"\u56fd\u571f\u4ea4\u901a\u7701\u95a2\u6771\u5730\u65b9\u6574\u5099\u5c40\u6a2a\u6d5c\u6e2f\u6e7e\u7a7a\u6e2f\u6280\u8853\u8abf\u67fb\u4e8b\u52d9\u6240","boring_xml_url":0,"boring_view_url":0,"soilmap_view_url":66,"soiltest_xml_url":0,"soiltest_view_url":66},{"id":118714,"code":"B4KJ201801000-6963","latitude":"35.53936694","longitude":"139.7881587","source_code":"PORT1300A012384","project_name":"\u6e2f\u6e7e\u5c40","survey_name":"\u662d\u548c62\u5e74\u5ea6\u6771\u4eac\u7a7a\u6e2f\u5c64\u539a\u8abf\u67fb(\u305d\u306e10)","client_name":"\u56fd\u571f\u4ea4\u901a\u7701\u95a2\u6771\u5730\u65b9\u6574\u5099\u5c40\u6a2a\u6d5c\u6e2f\u6e7e\u7a7a\u6e2f\u6280\u8853\u8abf\u67fb\u4e8b\u52d9\u6240","boring_xml_url":0,"boring_view_url":0,"soilmap_view_url":66,"soiltest_xml_url":0,"soiltest_view_url":66},{"id":118713,"code":"B4KJ201801000-6962","latitude":"35.53964468","longitude":"139.7878809","source_code":"PORT1300A012383","project_name":"\u6e2f\u6e7e\u5c40","survey_name":"\u662d\u548c62\u5e74\u5ea6\u6771\u4eac\u7a7a\u6e2f\u5c64\u539a\u8abf\u67fb(\u305d\u306e10)","client_name":"\u56fd\u571f\u4ea4\u901a\u7701\u95a2\u6771\u5730\u65b9\u6574\u5099\u5c40\u6a2a\u6d5c\u6e2f\u6e7e\u7a7a\u6e2f\u6280\u8853\u8abf\u67fb\u4e8b\u52d9\u6240","boring_xml_url":0,"boring_view_url":0,"soilmap_view_url":66,"soiltest_xml_url":0,"soiltest_view_url":66},{"id":118712,"code":"B4KJ201801000-6961","latitude":"35.5404779","longitude":"139.7873254","source_code":"PORT1300A012382","project_name":"\u6e2f\u6e7e\u5c40","survey_name":"\u662d\u548c62\u5e74\u5ea6\u6771\u4eac\u7a7a\u6e2f\u5c64\u539a\u8abf\u67fb(\u305d\u306e10)","client_name":"\u56fd\u571f\u4ea4\u901a\u7701\u95a2\u6771\u5730\u65b9\u6574\u5099\u5c40\u6a2a\u6d5c\u6e2f\u6e7e\u7a7a\u6e2f\u6280\u8853\u8abf\u67fb\u4e8b\u52d9\u6240","boring_xml_url":0,"boring_view_url":0,"soilmap_view_url":66,"soiltest_xml_url":0,"soiltest_view_url":66},{"id":118711,"code":"B4KJ201801000-6960","latitude":"35.54103339","longitude":"139.7870476","source_code":"PORT1300A012381","project_name":"\u6e2f\u6e7e\u5c40","survey_name":"\u662d\u548c62\u5e74\u5ea6\u6771\u4eac\u7a7a\u6e2f\u5c64\u539a\u8abf\u67fb(\u305d\u306e10)","client_name":"\u56fd\u571f\u4ea4\u901a\u7701\u95a2\u6771\u5730\u65b9\u6574\u5099\u5c40\u6a2a\u6d5c\u6e2f\u6e7e\u7a7a\u6e2f\u6280\u8853\u8abf\u67fb\u4e8b\u52d9\u6240","boring_xml_url":0,"boring_view_url":0,"soilmap_view_url":66,"soiltest_xml_url":0,"soiltest_view_url":66},{"id":118710,"code":"B4KJ201801000-6959","latitude":"35.54131113","longitude":"139.7867698","source_code":"PORT1300A012380","project_name":"\u6e2f\u6e7e\u5c40","survey_name":"\u662d\u548c62\u5e74\u5ea6\u6771\u4eac\u7a7a\u6e2f\u5c64\u539a\u8abf\u67fb(\u305d\u306e10)","client_name":"\u56fd\u571f\u4ea4\u901a\u7701\u95a2\u6771\u5730\u65b9\u6574\u5099\u5c40\u6a2a\u6d5c\u6e2f\u6e7e\u7a7a\u6e2f\u6280\u8853\u8abf\u67fb\u4e8b\u52d9\u6240","boring_xml_url":0,"boring_view_url":0,"soilmap_view_url":66,"soiltest_xml_url":0,"soiltest_view_url":66},{"id":118709,"code":"B4KJ201801000-6958","latitude":"35.53797825","longitude":"139.7898253","source_code":"PORT1300A012379","project_name":"\u6e2f\u6e7e\u5c40","survey_name":"\u662d\u548c62\u5e74\u5ea6\u6771\u4eac\u7a7a\u6e2f\u5c64\u539a\u8abf\u67fb(\u305d\u306e10)","client_name":"\u56fd\u571f\u4ea4\u901a\u7701\u95a2\u6771\u5730\u65b9\u6574\u5099\u5c40\u6a2a\u6d5c\u6e2f\u6e7e\u7a7a\u6e2f\u6280\u8853\u8abf\u67fb\u4e8b\u52d9\u6240","boring_xml_url":0,"boring_view_url":0,"soilmap_view_url":66,"soiltest_xml_url":0,"soiltest_view_url":66},{"id":118708,"code":"B4KJ201801000-6957","latitude":"35.53853373","longitude":"139.7895475","source_code":"PORT1300A012378","project_name":"\u6e2f\u6e7e\u5c40","survey_name":"\u662d\u548c62\u5e74\u5ea6\u6771\u4eac\u7a7a\u6e2f\u5c64\u539a\u8abf\u67fb(\u305d\u306e10)","client_name":"\u56fd\u571f\u4ea4\u901a\u7701\u95a2\u6771\u5730\u65b9\u6574\u5099\u5c40\u6a2a\u6d5c\u6e2f\u6e7e\u7a7a\u6e2f\u6280\u8853\u8abf\u67fb\u4e8b\u52d9\u6240","boring_xml_url":0,"boring_view_url":0,"soilmap_view_url":66,"soiltest_xml_url":0,"soiltest_view_url":66},{"id":118707,"code":"B4KJ201801000-6956","latitude":"35.53881147","longitude":"139.7892697","source_code":"PORT1300A012377","project_name":"\u6e2f\u6e7e\u5c40","survey_name":"\u662d\u548c62\u5e74\u5ea6\u6771\u4eac\u7a7a\u6e2f\u5c64\u539a\u8abf\u67fb(\u305d\u306e10)","client_name":"\u56fd\u571f\u4ea4\u901a\u7701\u95a2\u6771\u5730\u65b9\u6574\u5099\u5c40\u6a2a\u6d5c\u6e2f\u6e7e\u7a7a\u6e2f\u6280\u8853\u8abf\u67fb\u4e8b\u52d9\u6240","boring_xml_url":0,"boring_view_url":0,"soilmap_view_url":66,"soiltest_xml_url":0,"soiltest_view_url":66},{"id":118706,"code":"B4KJ201801000-6955","latitude":"35.53908921","longitude":"139.788992","source_code":"PORT1300A012376","project_name":"\u6e2f\u6e7e\u5c40","survey_name":"\u662d\u548c62\u5e74\u5ea6\u6771\u4eac\u7a7a\u6e2f\u5c64\u539a\u8abf\u67fb(\u305d\u306e10)","client_name":"\u56fd\u571f\u4ea4\u901a\u7701\u95a2\u6771\u5730\u65b9\u6574\u5099\u5c40\u6a2a\u6d5c\u6e2f\u6e7e\u7a7a\u6e2f\u6280\u8853\u8abf\u67fb\u4e8b\u52d9\u6240","boring_xml_url":0,"boring_view_url":0,"soilmap_view_url":66,"soiltest_xml_url":0,"soiltest_view_url":66}]}}