{"header":{"xyz":{"source":[],"mosaic":false},"page":6736,"raw":{"soiltest_result":"0","bbox":"57.598333,109.544722,1.933333,163.806111","page":"6736"},"conditions":{"soiltest_result":0,"north":57.598333,"west":109.544722,"south":1.933333,"east":163.806111},"success":true,"message":""},"data":{"meta":{"total":212844,"page":6736,"pages":7095,"count":30},"values":[{"id":118495,"code":"B4KJ201801000-6744","latitude":"35.54658823","longitude":"139.7837143","source_code":"PORT1300A012165","project_name":"\u6e2f\u6e7e\u5c40","survey_name":"\u662d\u548c62\u5e74\u5ea6\u6771\u4eac\u7a7a\u6e2f\u5c64\u539a\u8abf\u67fb(\u305d\u306e6)","client_name":"\u56fd\u571f\u4ea4\u901a\u7701\u95a2\u6771\u5730\u65b9\u6574\u5099\u5c40\u6a2a\u6d5c\u6e2f\u6e7e\u7a7a\u6e2f\u6280\u8853\u8abf\u67fb\u4e8b\u52d9\u6240","boring_xml_url":0,"boring_view_url":0,"soilmap_view_url":66,"soiltest_xml_url":0,"soiltest_view_url":66},{"id":118494,"code":"B4KJ201801000-6743","latitude":"35.54686599","longitude":"139.7842698","source_code":"PORT1300A012164","project_name":"\u6e2f\u6e7e\u5c40","survey_name":"\u662d\u548c62\u5e74\u5ea6\u6771\u4eac\u7a7a\u6e2f\u5c64\u539a\u8abf\u67fb(\u305d\u306e6)","client_name":"\u56fd\u571f\u4ea4\u901a\u7701\u95a2\u6771\u5730\u65b9\u6574\u5099\u5c40\u6a2a\u6d5c\u6e2f\u6e7e\u7a7a\u6e2f\u6280\u8853\u8abf\u67fb\u4e8b\u52d9\u6240","boring_xml_url":0,"boring_view_url":0,"soilmap_view_url":66,"soiltest_xml_url":0,"soiltest_view_url":66},{"id":118493,"code":"B4KJ201801000-6742","latitude":"35.54714374","longitude":"139.7845476","source_code":"PORT1300A012163","project_name":"\u6e2f\u6e7e\u5c40","survey_name":"\u662d\u548c62\u5e74\u5ea6\u6771\u4eac\u7a7a\u6e2f\u5c64\u539a\u8abf\u67fb(\u305d\u306e6)","client_name":"\u56fd\u571f\u4ea4\u901a\u7701\u95a2\u6771\u5730\u65b9\u6574\u5099\u5c40\u6a2a\u6d5c\u6e2f\u6e7e\u7a7a\u6e2f\u6280\u8853\u8abf\u67fb\u4e8b\u52d9\u6240","boring_xml_url":0,"boring_view_url":0,"soilmap_view_url":66,"soiltest_xml_url":0,"soiltest_view_url":66},{"id":118492,"code":"B4KJ201801000-6741","latitude":"35.54686596","longitude":"139.7828811","source_code":"PORT1300A012162","project_name":"\u6e2f\u6e7e\u5c40","survey_name":"\u662d\u548c62\u5e74\u5ea6\u6771\u4eac\u7a7a\u6e2f\u5c64\u539a\u8abf\u67fb(\u305d\u306e6)","client_name":"\u56fd\u571f\u4ea4\u901a\u7701\u95a2\u6771\u5730\u65b9\u6574\u5099\u5c40\u6a2a\u6d5c\u6e2f\u6e7e\u7a7a\u6e2f\u6280\u8853\u8abf\u67fb\u4e8b\u52d9\u6240","boring_xml_url":0,"boring_view_url":0,"soilmap_view_url":66,"soiltest_xml_url":0,"soiltest_view_url":66},{"id":118491,"code":"B4KJ201801000-6740","latitude":"35.54686597","longitude":"139.7834366","source_code":"PORT1300A012161","project_name":"\u6e2f\u6e7e\u5c40","survey_name":"\u662d\u548c62\u5e74\u5ea6\u6771\u4eac\u7a7a\u6e2f\u5c64\u539a\u8abf\u67fb(\u305d\u306e6)","client_name":"\u56fd\u571f\u4ea4\u901a\u7701\u95a2\u6771\u5730\u65b9\u6574\u5099\u5c40\u6a2a\u6d5c\u6e2f\u6e7e\u7a7a\u6e2f\u6280\u8853\u8abf\u67fb\u4e8b\u52d9\u6240","boring_xml_url":0,"boring_view_url":0,"soilmap_view_url":66,"soiltest_xml_url":0,"soiltest_view_url":66},{"id":118490,"code":"B4KJ201801000-6739","latitude":"35.54714373","longitude":"139.7839921","source_code":"PORT1300A012160","project_name":"\u6e2f\u6e7e\u5c40","survey_name":"\u662d\u548c62\u5e74\u5ea6\u6771\u4eac\u7a7a\u6e2f\u5c64\u539a\u8abf\u67fb(\u305d\u306e6)","client_name":"\u56fd\u571f\u4ea4\u901a\u7701\u95a2\u6771\u5730\u65b9\u6574\u5099\u5c40\u6a2a\u6d5c\u6e2f\u6e7e\u7a7a\u6e2f\u6280\u8853\u8abf\u67fb\u4e8b\u52d9\u6240","boring_xml_url":0,"boring_view_url":0,"soilmap_view_url":66,"soiltest_xml_url":0,"soiltest_view_url":66},{"id":118489,"code":"B4KJ201801000-6738","latitude":"35.54742148","longitude":"139.7842698","source_code":"PORT1300A012159","project_name":"\u6e2f\u6e7e\u5c40","survey_name":"\u662d\u548c62\u5e74\u5ea6\u6771\u4eac\u7a7a\u6e2f\u5c64\u539a\u8abf\u67fb(\u305d\u306e6)","client_name":"\u56fd\u571f\u4ea4\u901a\u7701\u95a2\u6771\u5730\u65b9\u6574\u5099\u5c40\u6a2a\u6d5c\u6e2f\u6e7e\u7a7a\u6e2f\u6280\u8853\u8abf\u67fb\u4e8b\u52d9\u6240","boring_xml_url":0,"boring_view_url":0,"soilmap_view_url":66,"soiltest_xml_url":0,"soiltest_view_url":66},{"id":118488,"code":"B4KJ201801000-6737","latitude":"35.54714369","longitude":"139.7826033","source_code":"PORT1300A012158","project_name":"\u6e2f\u6e7e\u5c40","survey_name":"\u662d\u548c62\u5e74\u5ea6\u6771\u4eac\u7a7a\u6e2f\u5c64\u539a\u8abf\u67fb(\u305d\u306e6)","client_name":"\u56fd\u571f\u4ea4\u901a\u7701\u95a2\u6771\u5730\u65b9\u6574\u5099\u5c40\u6a2a\u6d5c\u6e2f\u6e7e\u7a7a\u6e2f\u6280\u8853\u8abf\u67fb\u4e8b\u52d9\u6240","boring_xml_url":0,"boring_view_url":0,"soilmap_view_url":66,"soiltest_xml_url":0,"soiltest_view_url":66},{"id":118487,"code":"B4KJ201801000-6736","latitude":"35.54742146","longitude":"139.7831588","source_code":"PORT1300A012157","project_name":"\u6e2f\u6e7e\u5c40","survey_name":"\u662d\u548c62\u5e74\u5ea6\u6771\u4eac\u7a7a\u6e2f\u5c64\u539a\u8abf\u67fb(\u305d\u306e6)","client_name":"\u56fd\u571f\u4ea4\u901a\u7701\u95a2\u6771\u5730\u65b9\u6574\u5099\u5c40\u6a2a\u6d5c\u6e2f\u6e7e\u7a7a\u6e2f\u6280\u8853\u8abf\u67fb\u4e8b\u52d9\u6240","boring_xml_url":0,"boring_view_url":0,"soilmap_view_url":66,"soiltest_xml_url":0,"soiltest_view_url":66},{"id":118486,"code":"B4KJ201801000-6735","latitude":"35.54769922","longitude":"139.7837143","source_code":"PORT1300A012156","project_name":"\u6e2f\u6e7e\u5c40","survey_name":"\u662d\u548c62\u5e74\u5ea6\u6771\u4eac\u7a7a\u6e2f\u5c64\u539a\u8abf\u67fb(\u305d\u306e6)","client_name":"\u56fd\u571f\u4ea4\u901a\u7701\u95a2\u6771\u5730\u65b9\u6574\u5099\u5c40\u6a2a\u6d5c\u6e2f\u6e7e\u7a7a\u6e2f\u6280\u8853\u8abf\u67fb\u4e8b\u52d9\u6240","boring_xml_url":0,"boring_view_url":0,"soilmap_view_url":66,"soiltest_xml_url":0,"soiltest_view_url":66},{"id":118485,"code":"B4KJ201801000-6734","latitude":"35.54769923","longitude":"139.783992","source_code":"PORT1300A012155","project_name":"\u6e2f\u6e7e\u5c40","survey_name":"\u662d\u548c62\u5e74\u5ea6\u6771\u4eac\u7a7a\u6e2f\u5c64\u539a\u8abf\u67fb(\u305d\u306e6)","client_name":"\u56fd\u571f\u4ea4\u901a\u7701\u95a2\u6771\u5730\u65b9\u6574\u5099\u5c40\u6a2a\u6d5c\u6e2f\u6e7e\u7a7a\u6e2f\u6280\u8853\u8abf\u67fb\u4e8b\u52d9\u6240","boring_xml_url":0,"boring_view_url":0,"soilmap_view_url":66,"soiltest_xml_url":0,"soiltest_view_url":66},{"id":118484,"code":"B4KJ201801000-6733","latitude":"35.55519829","longitude":"139.7806587","source_code":"PORT1300A011339","project_name":"\u6e2f\u6e7e\u5c40","survey_name":"\u662d\u548c62\u5e74\u5ea6\u6771\u4eac\u7a7a\u6e2f\u5c64\u539a\u8abf\u67fb(\u305d\u306e5)","client_name":"\u56fd\u571f\u4ea4\u901a\u7701\u95a2\u6771\u5730\u65b9\u6574\u5099\u5c40\u6a2a\u6d5c\u6e2f\u6e7e\u7a7a\u6e2f\u6280\u8853\u8abf\u67fb\u4e8b\u52d9\u6240","boring_xml_url":0,"boring_view_url":0,"soilmap_view_url":66,"soiltest_xml_url":0,"soiltest_view_url":66},{"id":118483,"code":"B4KJ201801000-6732","latitude":"35.55658711","longitude":"139.7837139","source_code":"PORT1300A011338","project_name":"\u6e2f\u6e7e\u5c40","survey_name":"\u662d\u548c62\u5e74\u5ea6\u6771\u4eac\u7a7a\u6e2f\u5c64\u539a\u8abf\u67fb(\u305d\u306e5)","client_name":"\u56fd\u571f\u4ea4\u901a\u7701\u95a2\u6771\u5730\u65b9\u6574\u5099\u5c40\u6a2a\u6d5c\u6e2f\u6e7e\u7a7a\u6e2f\u6280\u8853\u8abf\u67fb\u4e8b\u52d9\u6240","boring_xml_url":0,"boring_view_url":0,"soilmap_view_url":66,"soiltest_xml_url":0,"soiltest_view_url":66},{"id":118482,"code":"B4KJ201801000-6731","latitude":"35.55658712","longitude":"139.7842694","source_code":"PORT1300A011337","project_name":"\u6e2f\u6e7e\u5c40","survey_name":"\u662d\u548c62\u5e74\u5ea6\u6771\u4eac\u7a7a\u6e2f\u5c64\u539a\u8abf\u67fb(\u305d\u306e5)","client_name":"\u56fd\u571f\u4ea4\u901a\u7701\u95a2\u6771\u5730\u65b9\u6574\u5099\u5c40\u6a2a\u6d5c\u6e2f\u6e7e\u7a7a\u6e2f\u6280\u8853\u8abf\u67fb\u4e8b\u52d9\u6240","boring_xml_url":0,"boring_view_url":0,"soilmap_view_url":66,"soiltest_xml_url":0,"soiltest_view_url":66},{"id":118481,"code":"B4KJ201801000-6730","latitude":"35.55547603","longitude":"139.7803809","source_code":"PORT1300A011336","project_name":"\u6e2f\u6e7e\u5c40","survey_name":"\u662d\u548c62\u5e74\u5ea6\u6771\u4eac\u7a7a\u6e2f\u5c64\u539a\u8abf\u67fb(\u305d\u306e5)","client_name":"\u56fd\u571f\u4ea4\u901a\u7701\u95a2\u6771\u5730\u65b9\u6574\u5099\u5c40\u6a2a\u6d5c\u6e2f\u6e7e\u7a7a\u6e2f\u6280\u8853\u8abf\u67fb\u4e8b\u52d9\u6240","boring_xml_url":0,"boring_view_url":0,"soilmap_view_url":66,"soiltest_xml_url":0,"soiltest_view_url":66},{"id":118480,"code":"B4KJ201801000-6729","latitude":"35.55575379","longitude":"139.7809364","source_code":"PORT1300A011335","project_name":"\u6e2f\u6e7e\u5c40","survey_name":"\u662d\u548c62\u5e74\u5ea6\u6771\u4eac\u7a7a\u6e2f\u5c64\u539a\u8abf\u67fb(\u305d\u306e5)","client_name":"\u56fd\u571f\u4ea4\u901a\u7701\u95a2\u6771\u5730\u65b9\u6574\u5099\u5c40\u6a2a\u6d5c\u6e2f\u6e7e\u7a7a\u6e2f\u6280\u8853\u8abf\u67fb\u4e8b\u52d9\u6240","boring_xml_url":0,"boring_view_url":0,"soilmap_view_url":66,"soiltest_xml_url":0,"soiltest_view_url":66},{"id":118479,"code":"B4KJ201801000-6728","latitude":"35.55658709","longitude":"139.7828807","source_code":"PORT1300A011334","project_name":"\u6e2f\u6e7e\u5c40","survey_name":"\u662d\u548c62\u5e74\u5ea6\u6771\u4eac\u7a7a\u6e2f\u5c64\u539a\u8abf\u67fb(\u305d\u306e5)","client_name":"\u56fd\u571f\u4ea4\u901a\u7701\u95a2\u6771\u5730\u65b9\u6574\u5099\u5c40\u6a2a\u6d5c\u6e2f\u6e7e\u7a7a\u6e2f\u6280\u8853\u8abf\u67fb\u4e8b\u52d9\u6240","boring_xml_url":0,"boring_view_url":0,"soilmap_view_url":66,"soiltest_xml_url":0,"soiltest_view_url":66},{"id":118478,"code":"B4KJ201801000-6727","latitude":"35.55686485","longitude":"139.7834362","source_code":"PORT1300A011333","project_name":"\u6e2f\u6e7e\u5c40","survey_name":"\u662d\u548c62\u5e74\u5ea6\u6771\u4eac\u7a7a\u6e2f\u5c64\u539a\u8abf\u67fb(\u305d\u306e5)","client_name":"\u56fd\u571f\u4ea4\u901a\u7701\u95a2\u6771\u5730\u65b9\u6574\u5099\u5c40\u6a2a\u6d5c\u6e2f\u6e7e\u7a7a\u6e2f\u6280\u8853\u8abf\u67fb\u4e8b\u52d9\u6240","boring_xml_url":0,"boring_view_url":0,"soilmap_view_url":66,"soiltest_xml_url":0,"soiltest_view_url":66},{"id":118477,"code":"B4KJ201801000-6726","latitude":"35.55714261","longitude":"139.7839917","source_code":"PORT1300A011332","project_name":"\u6e2f\u6e7e\u5c40","survey_name":"\u662d\u548c62\u5e74\u5ea6\u6771\u4eac\u7a7a\u6e2f\u5c64\u539a\u8abf\u67fb(\u305d\u306e5)","client_name":"\u56fd\u571f\u4ea4\u901a\u7701\u95a2\u6771\u5730\u65b9\u6574\u5099\u5c40\u6a2a\u6d5c\u6e2f\u6e7e\u7a7a\u6e2f\u6280\u8853\u8abf\u67fb\u4e8b\u52d9\u6240","boring_xml_url":0,"boring_view_url":0,"soilmap_view_url":66,"soiltest_xml_url":0,"soiltest_view_url":66},{"id":118476,"code":"B4KJ201801000-6725","latitude":"35.55603152","longitude":"139.7801032","source_code":"PORT1300A011331","project_name":"\u6e2f\u6e7e\u5c40","survey_name":"\u662d\u548c62\u5e74\u5ea6\u6771\u4eac\u7a7a\u6e2f\u5c64\u539a\u8abf\u67fb(\u305d\u306e5)","client_name":"\u56fd\u571f\u4ea4\u901a\u7701\u95a2\u6771\u5730\u65b9\u6574\u5099\u5c40\u6a2a\u6d5c\u6e2f\u6e7e\u7a7a\u6e2f\u6280\u8853\u8abf\u67fb\u4e8b\u52d9\u6240","boring_xml_url":0,"boring_view_url":0,"soilmap_view_url":66,"soiltest_xml_url":0,"soiltest_view_url":66},{"id":118475,"code":"B4KJ201801000-6724","latitude":"35.55603153","longitude":"139.7806587","source_code":"PORT1300A011330","project_name":"\u6e2f\u6e7e\u5c40","survey_name":"\u662d\u548c62\u5e74\u5ea6\u6771\u4eac\u7a7a\u6e2f\u5c64\u539a\u8abf\u67fb(\u305d\u306e5)","client_name":"\u56fd\u571f\u4ea4\u901a\u7701\u95a2\u6771\u5730\u65b9\u6574\u5099\u5c40\u6a2a\u6d5c\u6e2f\u6e7e\u7a7a\u6e2f\u6280\u8853\u8abf\u67fb\u4e8b\u52d9\u6240","boring_xml_url":0,"boring_view_url":0,"soilmap_view_url":66,"soiltest_xml_url":0,"soiltest_view_url":66},{"id":118474,"code":"B4KJ201801000-6723","latitude":"35.55714257","longitude":"139.7826029","source_code":"PORT1300A011329","project_name":"\u6e2f\u6e7e\u5c40","survey_name":"\u662d\u548c62\u5e74\u5ea6\u6771\u4eac\u7a7a\u6e2f\u5c64\u539a\u8abf\u67fb(\u305d\u306e5)","client_name":"\u56fd\u571f\u4ea4\u901a\u7701\u95a2\u6771\u5730\u65b9\u6574\u5099\u5c40\u6a2a\u6d5c\u6e2f\u6e7e\u7a7a\u6e2f\u6280\u8853\u8abf\u67fb\u4e8b\u52d9\u6240","boring_xml_url":0,"boring_view_url":0,"soilmap_view_url":66,"soiltest_xml_url":0,"soiltest_view_url":66},{"id":118473,"code":"B4KJ201801000-6722","latitude":"35.55630926","longitude":"139.7801031","source_code":"PORT1300A011328","project_name":"\u6e2f\u6e7e\u5c40","survey_name":"\u662d\u548c62\u5e74\u5ea6\u6771\u4eac\u7a7a\u6e2f\u5c64\u539a\u8abf\u67fb(\u305d\u306e5)","client_name":"\u56fd\u571f\u4ea4\u901a\u7701\u95a2\u6771\u5730\u65b9\u6574\u5099\u5c40\u6a2a\u6d5c\u6e2f\u6e7e\u7a7a\u6e2f\u6280\u8853\u8abf\u67fb\u4e8b\u52d9\u6240","boring_xml_url":0,"boring_view_url":0,"soilmap_view_url":66,"soiltest_xml_url":0,"soiltest_view_url":66},{"id":118472,"code":"B4KJ201801000-6721","latitude":"35.55658702","longitude":"139.7803809","source_code":"PORT1300A011327","project_name":"\u6e2f\u6e7e\u5c40","survey_name":"\u662d\u548c62\u5e74\u5ea6\u6771\u4eac\u7a7a\u6e2f\u5c64\u539a\u8abf\u67fb(\u305d\u306e5)","client_name":"\u56fd\u571f\u4ea4\u901a\u7701\u95a2\u6771\u5730\u65b9\u6574\u5099\u5c40\u6a2a\u6d5c\u6e2f\u6e7e\u7a7a\u6e2f\u6280\u8853\u8abf\u67fb\u4e8b\u52d9\u6240","boring_xml_url":0,"boring_view_url":0,"soilmap_view_url":66,"soiltest_xml_url":0,"soiltest_view_url":66},{"id":118471,"code":"B4KJ201801000-6720","latitude":"35.55714255","longitude":"139.7817696","source_code":"PORT1300A011326","project_name":"\u6e2f\u6e7e\u5c40","survey_name":"\u662d\u548c62\u5e74\u5ea6\u6771\u4eac\u7a7a\u6e2f\u5c64\u539a\u8abf\u67fb(\u305d\u306e5)","client_name":"\u56fd\u571f\u4ea4\u901a\u7701\u95a2\u6771\u5730\u65b9\u6574\u5099\u5c40\u6a2a\u6d5c\u6e2f\u6e7e\u7a7a\u6e2f\u6280\u8853\u8abf\u67fb\u4e8b\u52d9\u6240","boring_xml_url":0,"boring_view_url":0,"soilmap_view_url":66,"soiltest_xml_url":0,"soiltest_view_url":66},{"id":118470,"code":"B4KJ201801000-6719","latitude":"35.55742031","longitude":"139.7823251","source_code":"PORT1300A011325","project_name":"\u6e2f\u6e7e\u5c40","survey_name":"\u662d\u548c62\u5e74\u5ea6\u6771\u4eac\u7a7a\u6e2f\u5c64\u539a\u8abf\u67fb(\u305d\u306e5)","client_name":"\u56fd\u571f\u4ea4\u901a\u7701\u95a2\u6771\u5730\u65b9\u6574\u5099\u5c40\u6a2a\u6d5c\u6e2f\u6e7e\u7a7a\u6e2f\u6280\u8853\u8abf\u67fb\u4e8b\u52d9\u6240","boring_xml_url":0,"boring_view_url":0,"soilmap_view_url":66,"soiltest_xml_url":0,"soiltest_view_url":66},{"id":118469,"code":"B4KJ201801000-6718","latitude":"35.556587","longitude":"139.7798254","source_code":"PORT1300A011324","project_name":"\u6e2f\u6e7e\u5c40","survey_name":"\u662d\u548c62\u5e74\u5ea6\u6771\u4eac\u7a7a\u6e2f\u5c64\u539a\u8abf\u67fb(\u305d\u306e5)","client_name":"\u56fd\u571f\u4ea4\u901a\u7701\u95a2\u6771\u5730\u65b9\u6574\u5099\u5c40\u6a2a\u6d5c\u6e2f\u6e7e\u7a7a\u6e2f\u6280\u8853\u8abf\u67fb\u4e8b\u52d9\u6240","boring_xml_url":0,"boring_view_url":0,"soilmap_view_url":66,"soiltest_xml_url":0,"soiltest_view_url":66},{"id":118468,"code":"B4KJ201801000-6717","latitude":"35.55769804","longitude":"139.7814919","source_code":"PORT1300A011323","project_name":"\u6e2f\u6e7e\u5c40","survey_name":"\u662d\u548c62\u5e74\u5ea6\u6771\u4eac\u7a7a\u6e2f\u5c64\u539a\u8abf\u67fb(\u305d\u306e5)","client_name":"\u56fd\u571f\u4ea4\u901a\u7701\u95a2\u6771\u5730\u65b9\u6574\u5099\u5c40\u6a2a\u6d5c\u6e2f\u6e7e\u7a7a\u6e2f\u6280\u8853\u8abf\u67fb\u4e8b\u52d9\u6240","boring_xml_url":0,"boring_view_url":0,"soilmap_view_url":66,"soiltest_xml_url":0,"soiltest_view_url":66},{"id":118467,"code":"B4KJ201801000-6716","latitude":"35.55714249","longitude":"139.7795476","source_code":"PORT1300A011322","project_name":"\u6e2f\u6e7e\u5c40","survey_name":"\u662d\u548c62\u5e74\u5ea6\u6771\u4eac\u7a7a\u6e2f\u5c64\u539a\u8abf\u67fb(\u305d\u306e5)","client_name":"\u56fd\u571f\u4ea4\u901a\u7701\u95a2\u6771\u5730\u65b9\u6574\u5099\u5c40\u6a2a\u6d5c\u6e2f\u6e7e\u7a7a\u6e2f\u6280\u8853\u8abf\u67fb\u4e8b\u52d9\u6240","boring_xml_url":0,"boring_view_url":0,"soilmap_view_url":66,"soiltest_xml_url":0,"soiltest_view_url":66},{"id":118466,"code":"B4KJ201801000-6715","latitude":"35.55742024","longitude":"139.7798253","source_code":"PORT1300A011321","project_name":"\u6e2f\u6e7e\u5c40","survey_name":"\u662d\u548c62\u5e74\u5ea6\u6771\u4eac\u7a7a\u6e2f\u5c64\u539a\u8abf\u67fb(\u305d\u306e5)","client_name":"\u56fd\u571f\u4ea4\u901a\u7701\u95a2\u6771\u5730\u65b9\u6574\u5099\u5c40\u6a2a\u6d5c\u6e2f\u6e7e\u7a7a\u6e2f\u6280\u8853\u8abf\u67fb\u4e8b\u52d9\u6240","boring_xml_url":0,"boring_view_url":0,"soilmap_view_url":66,"soiltest_xml_url":0,"soiltest_view_url":66}]}}