{"header":{"xyz":{"source":[],"mosaic":false},"page":6747,"raw":{"soiltest_result":"0","bbox":"57.598333,109.544722,1.933333,163.806111","page":"6747"},"conditions":{"soiltest_result":0,"north":57.598333,"west":109.544722,"south":1.933333,"east":163.806111},"success":true,"message":""},"data":{"meta":{"total":212844,"page":6747,"pages":7095,"count":30},"values":[{"id":118165,"code":"B4KJ201801000-6414","latitude":"35.55964232","longitude":"139.7837138","source_code":"PORT1300A011008","project_name":"\u6e2f\u6e7e\u5c40","survey_name":"\u5e73\u62102\u5e74\u5ea6\u6771\u4eac\u7a7a\u6e2f\u571f\u8cea\u8abf\u67fb(\u305d\u306e6)","client_name":"\u56fd\u571f\u4ea4\u901a\u7701\u95a2\u6771\u5730\u65b9\u6574\u5099\u5c40\u6a2a\u6d5c\u6e2f\u6e7e\u7a7a\u6e2f\u6280\u8853\u8abf\u67fb\u4e8b\u52d9\u6240","boring_xml_url":0,"boring_view_url":0,"soilmap_view_url":66,"soiltest_xml_url":0,"soiltest_view_url":66},{"id":118164,"code":"B4KJ201801000-6413","latitude":"35.55797593","longitude":"139.7870469","source_code":"PORT1300A011007","project_name":"\u6e2f\u6e7e\u5c40","survey_name":"\u5e73\u62102\u5e74\u5ea6\u6771\u4eac\u7a7a\u6e2f\u571f\u8cea\u8abf\u67fb(\u305d\u306e5)","client_name":"\u56fd\u571f\u4ea4\u901a\u7701\u95a2\u6771\u5730\u65b9\u6574\u5099\u5c40\u6a2a\u6d5c\u6e2f\u6e7e\u7a7a\u6e2f\u6280\u8853\u8abf\u67fb\u4e8b\u52d9\u6240","boring_xml_url":0,"boring_view_url":0,"soilmap_view_url":66,"soiltest_xml_url":0,"soiltest_view_url":66},{"id":118163,"code":"B4KJ201801000-6412","latitude":"35.55964238","longitude":"139.7859359","source_code":"PORT1300A011006","project_name":"\u6e2f\u6e7e\u5c40","survey_name":"\u5e73\u62102\u5e74\u5ea6\u6771\u4eac\u7a7a\u6e2f\u571f\u8cea\u8abf\u67fb(\u305d\u306e5)","client_name":"\u56fd\u571f\u4ea4\u901a\u7701\u95a2\u6771\u5730\u65b9\u6574\u5099\u5c40\u6a2a\u6d5c\u6e2f\u6e7e\u7a7a\u6e2f\u6280\u8853\u8abf\u67fb\u4e8b\u52d9\u6240","boring_xml_url":0,"boring_view_url":0,"soilmap_view_url":66,"soiltest_xml_url":0,"soiltest_view_url":66},{"id":118162,"code":"B4KJ201801000-6411","latitude":"35.56130883","longitude":"139.7848248","source_code":"PORT1300A011005","project_name":"\u6e2f\u6e7e\u5c40","survey_name":"\u5e73\u62102\u5e74\u5ea6\u6771\u4eac\u7a7a\u6e2f\u571f\u8cea\u8abf\u67fb(\u305d\u306e5)","client_name":"\u56fd\u571f\u4ea4\u901a\u7701\u95a2\u6771\u5730\u65b9\u6574\u5099\u5c40\u6a2a\u6d5c\u6e2f\u6e7e\u7a7a\u6e2f\u6280\u8853\u8abf\u67fb\u4e8b\u52d9\u6240","boring_xml_url":0,"boring_view_url":0,"soilmap_view_url":66,"soiltest_xml_url":0,"soiltest_view_url":66},{"id":118161,"code":"B4KJ201801000-6410","latitude":"35.53714516","longitude":"139.7956582","source_code":"PORT1300A011004","project_name":"\u6e2f\u6e7e\u5c40","survey_name":"\u5e73\u62102\u5e74\u5ea6\u6771\u4eac\u56fd\u969b\u7a7a\u6e2f\u5730\u76e4\u6539\u826f\u571f\u8cea\u8abf\u67fb(\u305d\u306e10)","client_name":"\u56fd\u571f\u4ea4\u901a\u7701\u95a2\u6771\u5730\u65b9\u6574\u5099\u5c40\u6a2a\u6d5c\u6e2f\u6e7e\u7a7a\u6e2f\u6280\u8853\u8abf\u67fb\u4e8b\u52d9\u6240","boring_xml_url":0,"boring_view_url":0,"soilmap_view_url":66,"soiltest_xml_url":0,"soiltest_view_url":66},{"id":118160,"code":"B4KJ201801000-6409","latitude":"35.53714516","longitude":"139.7953804","source_code":"PORT1300A011003","project_name":"\u6e2f\u6e7e\u5c40","survey_name":"\u5e73\u62102\u5e74\u5ea6\u6771\u4eac\u56fd\u969b\u7a7a\u6e2f\u5730\u76e4\u6539\u826f\u571f\u8cea\u8abf\u67fb(\u305d\u306e10)","client_name":"\u56fd\u571f\u4ea4\u901a\u7701\u95a2\u6771\u5730\u65b9\u6574\u5099\u5c40\u6a2a\u6d5c\u6e2f\u6e7e\u7a7a\u6e2f\u6280\u8853\u8abf\u67fb\u4e8b\u52d9\u6240","boring_xml_url":0,"boring_view_url":0,"soilmap_view_url":66,"soiltest_xml_url":0,"soiltest_view_url":66},{"id":118159,"code":"B4KJ201801000-6408","latitude":"35.53825614","longitude":"139.7951026","source_code":"PORT1300A011002","project_name":"\u6e2f\u6e7e\u5c40","survey_name":"\u5e73\u62102\u5e74\u5ea6\u6771\u4eac\u56fd\u969b\u7a7a\u6e2f\u5730\u76e4\u6539\u826f\u571f\u8cea\u8abf\u67fb(\u305d\u306e10)","client_name":"\u56fd\u571f\u4ea4\u901a\u7701\u95a2\u6771\u5730\u65b9\u6574\u5099\u5c40\u6a2a\u6d5c\u6e2f\u6e7e\u7a7a\u6e2f\u6280\u8853\u8abf\u67fb\u4e8b\u52d9\u6240","boring_xml_url":0,"boring_view_url":0,"soilmap_view_url":66,"soiltest_xml_url":0,"soiltest_view_url":66},{"id":118158,"code":"B4KJ201801000-6407","latitude":"35.53825614","longitude":"139.7951026","source_code":"PORT1300A011001","project_name":"\u6e2f\u6e7e\u5c40","survey_name":"\u5e73\u62102\u5e74\u5ea6\u6771\u4eac\u56fd\u969b\u7a7a\u6e2f\u5730\u76e4\u6539\u826f\u571f\u8cea\u8abf\u67fb(\u305d\u306e10)","client_name":"\u56fd\u571f\u4ea4\u901a\u7701\u95a2\u6771\u5730\u65b9\u6574\u5099\u5c40\u6a2a\u6d5c\u6e2f\u6e7e\u7a7a\u6e2f\u6280\u8853\u8abf\u67fb\u4e8b\u52d9\u6240","boring_xml_url":0,"boring_view_url":0,"soilmap_view_url":66,"soiltest_xml_url":0,"soiltest_view_url":66},{"id":118157,"code":"B4KJ201801000-6406","latitude":"35.53908936","longitude":"139.7945471","source_code":"PORT1300A011000","project_name":"\u6e2f\u6e7e\u5c40","survey_name":"\u5e73\u62102\u5e74\u5ea6\u6771\u4eac\u56fd\u969b\u7a7a\u6e2f\u5730\u76e4\u6539\u826f\u571f\u8cea\u8abf\u67fb(\u305d\u306e10)","client_name":"\u56fd\u571f\u4ea4\u901a\u7701\u95a2\u6771\u5730\u65b9\u6574\u5099\u5c40\u6a2a\u6d5c\u6e2f\u6e7e\u7a7a\u6e2f\u6280\u8853\u8abf\u67fb\u4e8b\u52d9\u6240","boring_xml_url":0,"boring_view_url":0,"soilmap_view_url":66,"soiltest_xml_url":0,"soiltest_view_url":66},{"id":118156,"code":"B4KJ201801000-6405","latitude":"35.53908936","longitude":"139.7945471","source_code":"PORT1300A010999","project_name":"\u6e2f\u6e7e\u5c40","survey_name":"\u5e73\u62102\u5e74\u5ea6\u6771\u4eac\u56fd\u969b\u7a7a\u6e2f\u5730\u76e4\u6539\u826f\u571f\u8cea\u8abf\u67fb(\u305d\u306e10)","client_name":"\u56fd\u571f\u4ea4\u901a\u7701\u95a2\u6771\u5730\u65b9\u6574\u5099\u5c40\u6a2a\u6d5c\u6e2f\u6e7e\u7a7a\u6e2f\u6280\u8853\u8abf\u67fb\u4e8b\u52d9\u6240","boring_xml_url":0,"boring_view_url":0,"soilmap_view_url":66,"soiltest_xml_url":0,"soiltest_view_url":66},{"id":118155,"code":"B4KJ201801000-6404","latitude":"35.53992259","longitude":"139.7942693","source_code":"PORT1300A010998","project_name":"\u6e2f\u6e7e\u5c40","survey_name":"\u5e73\u62102\u5e74\u5ea6\u6771\u4eac\u56fd\u969b\u7a7a\u6e2f\u5730\u76e4\u6539\u826f\u571f\u8cea\u8abf\u67fb(\u305d\u306e10)","client_name":"\u56fd\u571f\u4ea4\u901a\u7701\u95a2\u6771\u5730\u65b9\u6574\u5099\u5c40\u6a2a\u6d5c\u6e2f\u6e7e\u7a7a\u6e2f\u6280\u8853\u8abf\u67fb\u4e8b\u52d9\u6240","boring_xml_url":0,"boring_view_url":0,"soilmap_view_url":66,"soiltest_xml_url":0,"soiltest_view_url":66},{"id":118154,"code":"B4KJ201801000-6403","latitude":"35.53992259","longitude":"139.7942693","source_code":"PORT1300A010997","project_name":"\u6e2f\u6e7e\u5c40","survey_name":"\u5e73\u62102\u5e74\u5ea6\u6771\u4eac\u56fd\u969b\u7a7a\u6e2f\u5730\u76e4\u6539\u826f\u571f\u8cea\u8abf\u67fb(\u305d\u306e10)","client_name":"\u56fd\u571f\u4ea4\u901a\u7701\u95a2\u6771\u5730\u65b9\u6574\u5099\u5c40\u6a2a\u6d5c\u6e2f\u6e7e\u7a7a\u6e2f\u6280\u8853\u8abf\u67fb\u4e8b\u52d9\u6240","boring_xml_url":0,"boring_view_url":0,"soilmap_view_url":66,"soiltest_xml_url":0,"soiltest_view_url":66},{"id":118153,"code":"B4KJ201801000-6402","latitude":"35.54020055","longitude":"139.8020464","source_code":"PORT1300A010996","project_name":"\u6e2f\u6e7e\u5c40","survey_name":"\u5e73\u62102\u5e74\u5ea6\u6771\u4eac\u56fd\u969b\u7a7a\u6e2f\u571f\u8cea\u8abf\u67fb(\u305d\u306e4)","client_name":"\u56fd\u571f\u4ea4\u901a\u7701\u95a2\u6771\u5730\u65b9\u6574\u5099\u5c40\u6a2a\u6d5c\u6e2f\u6e7e\u7a7a\u6e2f\u6280\u8853\u8abf\u67fb\u4e8b\u52d9\u6240","boring_xml_url":0,"boring_view_url":0,"soilmap_view_url":66,"soiltest_xml_url":0,"soiltest_view_url":66},{"id":118152,"code":"B4KJ201801000-6401","latitude":"35.54020055","longitude":"139.8020464","source_code":"PORT1300A010995","project_name":"\u6e2f\u6e7e\u5c40","survey_name":"\u5e73\u62102\u5e74\u5ea6\u6771\u4eac\u56fd\u969b\u7a7a\u6e2f\u571f\u8cea\u8abf\u67fb(\u305d\u306e4)","client_name":"\u56fd\u571f\u4ea4\u901a\u7701\u95a2\u6771\u5730\u65b9\u6574\u5099\u5c40\u6a2a\u6d5c\u6e2f\u6e7e\u7a7a\u6e2f\u6280\u8853\u8abf\u67fb\u4e8b\u52d9\u6240","boring_xml_url":0,"boring_view_url":0,"soilmap_view_url":66,"soiltest_xml_url":0,"soiltest_view_url":66},{"id":118151,"code":"B4KJ201801000-6400","latitude":"35.53714516","longitude":"139.7956582","source_code":"PORT1300A010980","project_name":"\u6e2f\u6e7e\u5c40","survey_name":"\u5e73\u62102\u5e74\u5ea6\u6771\u4eac\u56fd\u969b\u7a7a\u6e2f\u5730\u76e4\u6539\u826f\u571f\u8cea\u8abf\u67fb(\u305d\u306e8)","client_name":"\u56fd\u571f\u4ea4\u901a\u7701\u95a2\u6771\u5730\u65b9\u6574\u5099\u5c40\u6a2a\u6d5c\u6e2f\u6e7e\u7a7a\u6e2f\u6280\u8853\u8abf\u67fb\u4e8b\u52d9\u6240","boring_xml_url":0,"boring_view_url":0,"soilmap_view_url":66,"soiltest_xml_url":0,"soiltest_view_url":66},{"id":118150,"code":"B4KJ201801000-6399","latitude":"35.53742291","longitude":"139.7956581","source_code":"PORT1300A010979","project_name":"\u6e2f\u6e7e\u5c40","survey_name":"\u5e73\u62102\u5e74\u5ea6\u6771\u4eac\u56fd\u969b\u7a7a\u6e2f\u5730\u76e4\u6539\u826f\u571f\u8cea\u8abf\u67fb(\u305d\u306e8)","client_name":"\u56fd\u571f\u4ea4\u901a\u7701\u95a2\u6771\u5730\u65b9\u6574\u5099\u5c40\u6a2a\u6d5c\u6e2f\u6e7e\u7a7a\u6e2f\u6280\u8853\u8abf\u67fb\u4e8b\u52d9\u6240","boring_xml_url":0,"boring_view_url":0,"soilmap_view_url":66,"soiltest_xml_url":0,"soiltest_view_url":66},{"id":118149,"code":"B4KJ201801000-6398","latitude":"35.53825614","longitude":"139.7953804","source_code":"PORT1300A010978","project_name":"\u6e2f\u6e7e\u5c40","survey_name":"\u5e73\u62102\u5e74\u5ea6\u6771\u4eac\u56fd\u969b\u7a7a\u6e2f\u5730\u76e4\u6539\u826f\u571f\u8cea\u8abf\u67fb(\u305d\u306e8)","client_name":"\u56fd\u571f\u4ea4\u901a\u7701\u95a2\u6771\u5730\u65b9\u6574\u5099\u5c40\u6a2a\u6d5c\u6e2f\u6e7e\u7a7a\u6e2f\u6280\u8853\u8abf\u67fb\u4e8b\u52d9\u6240","boring_xml_url":0,"boring_view_url":0,"soilmap_view_url":66,"soiltest_xml_url":0,"soiltest_view_url":66},{"id":118148,"code":"B4KJ201801000-6397","latitude":"35.53853388","longitude":"139.7951026","source_code":"PORT1300A010977","project_name":"\u6e2f\u6e7e\u5c40","survey_name":"\u5e73\u62102\u5e74\u5ea6\u6771\u4eac\u56fd\u969b\u7a7a\u6e2f\u5730\u76e4\u6539\u826f\u571f\u8cea\u8abf\u67fb(\u305d\u306e8)","client_name":"\u56fd\u571f\u4ea4\u901a\u7701\u95a2\u6771\u5730\u65b9\u6574\u5099\u5c40\u6a2a\u6d5c\u6e2f\u6e7e\u7a7a\u6e2f\u6280\u8853\u8abf\u67fb\u4e8b\u52d9\u6240","boring_xml_url":0,"boring_view_url":0,"soilmap_view_url":66,"soiltest_xml_url":0,"soiltest_view_url":66},{"id":118147,"code":"B4KJ201801000-6396","latitude":"35.53908937","longitude":"139.7948248","source_code":"PORT1300A010976","project_name":"\u6e2f\u6e7e\u5c40","survey_name":"\u5e73\u62102\u5e74\u5ea6\u6771\u4eac\u56fd\u969b\u7a7a\u6e2f\u5730\u76e4\u6539\u826f\u571f\u8cea\u8abf\u67fb(\u305d\u306e8)","client_name":"\u56fd\u571f\u4ea4\u901a\u7701\u95a2\u6771\u5730\u65b9\u6574\u5099\u5c40\u6a2a\u6d5c\u6e2f\u6e7e\u7a7a\u6e2f\u6280\u8853\u8abf\u67fb\u4e8b\u52d9\u6240","boring_xml_url":0,"boring_view_url":0,"soilmap_view_url":66,"soiltest_xml_url":0,"soiltest_view_url":66},{"id":118146,"code":"B4KJ201801000-6395","latitude":"35.53936712","longitude":"139.7948248","source_code":"PORT1300A010975","project_name":"\u6e2f\u6e7e\u5c40","survey_name":"\u5e73\u62102\u5e74\u5ea6\u6771\u4eac\u56fd\u969b\u7a7a\u6e2f\u5730\u76e4\u6539\u826f\u571f\u8cea\u8abf\u67fb(\u305d\u306e8)","client_name":"\u56fd\u571f\u4ea4\u901a\u7701\u95a2\u6771\u5730\u65b9\u6574\u5099\u5c40\u6a2a\u6d5c\u6e2f\u6e7e\u7a7a\u6e2f\u6280\u8853\u8abf\u67fb\u4e8b\u52d9\u6240","boring_xml_url":0,"boring_view_url":0,"soilmap_view_url":66,"soiltest_xml_url":0,"soiltest_view_url":66},{"id":118145,"code":"B4KJ201801000-6394","latitude":"35.5399226","longitude":"139.794547","source_code":"PORT1300A010974","project_name":"\u6e2f\u6e7e\u5c40","survey_name":"\u5e73\u62102\u5e74\u5ea6\u6771\u4eac\u56fd\u969b\u7a7a\u6e2f\u5730\u76e4\u6539\u826f\u571f\u8cea\u8abf\u67fb(\u305d\u306e8)","client_name":"\u56fd\u571f\u4ea4\u901a\u7701\u95a2\u6771\u5730\u65b9\u6574\u5099\u5c40\u6a2a\u6d5c\u6e2f\u6e7e\u7a7a\u6e2f\u6280\u8853\u8abf\u67fb\u4e8b\u52d9\u6240","boring_xml_url":0,"boring_view_url":0,"soilmap_view_url":66,"soiltest_xml_url":0,"soiltest_view_url":66},{"id":118144,"code":"B4KJ201801000-6393","latitude":"35.54020034","longitude":"139.7942693","source_code":"PORT1300A010973","project_name":"\u6e2f\u6e7e\u5c40","survey_name":"\u5e73\u62102\u5e74\u5ea6\u6771\u4eac\u56fd\u969b\u7a7a\u6e2f\u5730\u76e4\u6539\u826f\u571f\u8cea\u8abf\u67fb(\u305d\u306e8)","client_name":"\u56fd\u571f\u4ea4\u901a\u7701\u95a2\u6771\u5730\u65b9\u6574\u5099\u5c40\u6a2a\u6d5c\u6e2f\u6e7e\u7a7a\u6e2f\u6280\u8853\u8abf\u67fb\u4e8b\u52d9\u6240","boring_xml_url":0,"boring_view_url":0,"soilmap_view_url":66,"soiltest_xml_url":0,"soiltest_view_url":66},{"id":118143,"code":"B4KJ201801000-6392","latitude":"35.5465883","longitude":"139.7862141","source_code":"PORT1300A010972","project_name":"\u6e2f\u6e7e\u5c40","survey_name":"\u5e73\u6210\u5143\u5e74\u5ea6\u6771\u4eac\u56fd\u969b\u7a7a\u6e2f\u6a4b\u811a\u652f\u6301\u5c64\u571f\u8cea\u8abf\u67fb(\u305d\u306e2)","client_name":"\u56fd\u571f\u4ea4\u901a\u7701\u95a2\u6771\u5730\u65b9\u6574\u5099\u5c40\u6a2a\u6d5c\u6e2f\u6e7e\u7a7a\u6e2f\u6280\u8853\u8abf\u67fb\u4e8b\u52d9\u6240","boring_xml_url":0,"boring_view_url":0,"soilmap_view_url":66,"soiltest_xml_url":0,"soiltest_view_url":66},{"id":118142,"code":"B4KJ201801000-6391","latitude":"35.54992128","longitude":"139.7870473","source_code":"PORT1300A010971","project_name":"\u6e2f\u6e7e\u5c40","survey_name":"\u5e73\u6210\u5143\u5e74\u5ea6\u6771\u4eac\u56fd\u969b\u7a7a\u6e2f\u6a4b\u811a\u652f\u6301\u5c64\u571f\u8cea\u8abf\u67fb(\u305d\u306e2)","client_name":"\u56fd\u571f\u4ea4\u901a\u7701\u95a2\u6771\u5730\u65b9\u6574\u5099\u5c40\u6a2a\u6d5c\u6e2f\u6e7e\u7a7a\u6e2f\u6280\u8853\u8abf\u67fb\u4e8b\u52d9\u6240","boring_xml_url":0,"boring_view_url":0,"soilmap_view_url":66,"soiltest_xml_url":0,"soiltest_view_url":66},{"id":118141,"code":"B4KJ201801000-6390","latitude":"35.54936576","longitude":"139.786214","source_code":"PORT1300A010970","project_name":"\u6e2f\u6e7e\u5c40","survey_name":"\u5e73\u6210\u5143\u5e74\u5ea6\u6771\u4eac\u56fd\u969b\u7a7a\u6e2f\u6a4b\u811a\u652f\u6301\u5c64\u571f\u8cea\u8abf\u67fb(\u305d\u306e2)","client_name":"\u56fd\u571f\u4ea4\u901a\u7701\u95a2\u6771\u5730\u65b9\u6574\u5099\u5c40\u6a2a\u6d5c\u6e2f\u6e7e\u7a7a\u6e2f\u6280\u8853\u8abf\u67fb\u4e8b\u52d9\u6240","boring_xml_url":0,"boring_view_url":0,"soilmap_view_url":66,"soiltest_xml_url":0,"soiltest_view_url":66},{"id":118140,"code":"B4KJ201801000-6389","latitude":"35.55214316","longitude":"139.7834364","source_code":"PORT1300A010969","project_name":"\u6e2f\u6e7e\u5c40","survey_name":"\u5e73\u6210\u5143\u5e74\u5ea6\u6771\u4eac\u56fd\u969b\u7a7a\u6e2f\u6a4b\u811a\u652f\u6301\u5c64\u571f\u8cea\u8abf\u67fb(\u305d\u306e2)","client_name":"\u56fd\u571f\u4ea4\u901a\u7701\u95a2\u6771\u5730\u65b9\u6574\u5099\u5c40\u6a2a\u6d5c\u6e2f\u6e7e\u7a7a\u6e2f\u6280\u8853\u8abf\u67fb\u4e8b\u52d9\u6240","boring_xml_url":0,"boring_view_url":0,"soilmap_view_url":66,"soiltest_xml_url":0,"soiltest_view_url":66},{"id":118139,"code":"B4KJ201801000-6388","latitude":"35.55186539","longitude":"139.7828809","source_code":"PORT1300A010968","project_name":"\u6e2f\u6e7e\u5c40","survey_name":"\u5e73\u6210\u5143\u5e74\u5ea6\u6771\u4eac\u56fd\u969b\u7a7a\u6e2f\u6a4b\u811a\u652f\u6301\u5c64\u571f\u8cea\u8abf\u67fb(\u305d\u306e2)","client_name":"\u56fd\u571f\u4ea4\u901a\u7701\u95a2\u6771\u5730\u65b9\u6574\u5099\u5c40\u6a2a\u6d5c\u6e2f\u6e7e\u7a7a\u6e2f\u6280\u8853\u8abf\u67fb\u4e8b\u52d9\u6240","boring_xml_url":0,"boring_view_url":0,"soilmap_view_url":66,"soiltest_xml_url":0,"soiltest_view_url":66},{"id":118138,"code":"B4KJ201801000-6387","latitude":"35.55325419","longitude":"139.7851028","source_code":"PORT1300A010967","project_name":"\u6e2f\u6e7e\u5c40","survey_name":"\u5e73\u6210\u5143\u5e74\u5ea6\u6771\u4eac\u56fd\u969b\u7a7a\u6e2f\u6a4b\u811a\u652f\u6301\u5c64\u571f\u8cea\u8abf\u67fb(\u305d\u306e2)","client_name":"\u56fd\u571f\u4ea4\u901a\u7701\u95a2\u6771\u5730\u65b9\u6574\u5099\u5c40\u6a2a\u6d5c\u6e2f\u6e7e\u7a7a\u6e2f\u6280\u8853\u8abf\u67fb\u4e8b\u52d9\u6240","boring_xml_url":0,"boring_view_url":0,"soilmap_view_url":66,"soiltest_xml_url":0,"soiltest_view_url":66},{"id":118137,"code":"B4KJ201801000-6386","latitude":"35.55297643","longitude":"139.7845473","source_code":"PORT1300A010966","project_name":"\u6e2f\u6e7e\u5c40","survey_name":"\u5e73\u6210\u5143\u5e74\u5ea6\u6771\u4eac\u56fd\u969b\u7a7a\u6e2f\u6a4b\u811a\u652f\u6301\u5c64\u571f\u8cea\u8abf\u67fb(\u305d\u306e2)","client_name":"\u56fd\u571f\u4ea4\u901a\u7701\u95a2\u6771\u5730\u65b9\u6574\u5099\u5c40\u6a2a\u6d5c\u6e2f\u6e7e\u7a7a\u6e2f\u6280\u8853\u8abf\u67fb\u4e8b\u52d9\u6240","boring_xml_url":0,"boring_view_url":0,"soilmap_view_url":66,"soiltest_xml_url":0,"soiltest_view_url":66},{"id":118136,"code":"B4KJ201801000-6385","latitude":"35.536312","longitude":"139.7984357","source_code":"PORT1300A010965","project_name":"\u6e2f\u6e7e\u5c40","survey_name":"\u5e73\u6210\u5143\u5e74\u5ea6\u6771\u4eac\u56fd\u969b\u7a7a\u6e2f\u5357\u9023\u7d61\u8a98\u5c0e\u8def\u90e8\u571f\u8cea\u8abf\u67fb(\u305d\u306e2)","client_name":"\u56fd\u571f\u4ea4\u901a\u7701\u95a2\u6771\u5730\u65b9\u6574\u5099\u5c40\u6a2a\u6d5c\u6e2f\u6e7e\u7a7a\u6e2f\u6280\u8853\u8abf\u67fb\u4e8b\u52d9\u6240","boring_xml_url":0,"boring_view_url":0,"soilmap_view_url":66,"soiltest_xml_url":0,"soiltest_view_url":66}]}}