{"header":{"xyz":{"source":[],"mosaic":false},"page":675,"raw":{"soiltest_result":"0","bbox":"57.598333,109.544722,1.933333,163.806111","page":"675"},"conditions":{"soiltest_result":0,"north":57.598333,"west":109.544722,"south":1.933333,"east":163.806111},"success":true,"message":""},"data":{"meta":{"total":212844,"page":675,"pages":7095,"count":30},"values":[{"id":525168,"code":"B4KJ202201002-7704","latitude":"33.936353","longitude":"133.57076","source_code":"068875602000260001","project_name":"\u67f3\u702c\u30c0\u30e0\u5830\u5824\u6539\u826f\u4e8b\u696d","survey_name":"\"\u5e73\u621018\u5e74\u5ea6 \u67f3\u702c\u30c0\u30e0\u5468\u8fba\u5730\u8cea\u8abf\u67fb\u696d\u52d9\"","client_name":"\"\u56fd\u571f\u4ea4\u901a\u7701 \u56db\u56fd\u5730\u65b9\u6574\u5099\u5c40 \u5409\u91ce\u5ddd\u30c0\u30e0\u7d71\u5408\u7ba1\u7406\u4e8b\u52d9\u6240\"","boring_xml_url":64,"boring_view_url":1,"soilmap_view_url":null,"soiltest_xml_url":0,"soiltest_view_url":0},{"id":525167,"code":"B4KJ202201002-7703","latitude":"33.554222","longitude":"133.668583","source_code":"068862612000200005","project_name":"\u5e73\u621018\u5e74\u5ea6\u3000\u9ad8\u77e5\u5357\u56fd\u9053\u8def\u5916\u5730\u8cea\u8abf\u67fb\u696d\u52d9","survey_name":"\u5e73\u621018\u5e74\u5ea6\u3000\u9ad8\u77e5\u5357\u56fd\u9053\u8def\u5916\u5730\u8cea\u8abf\u67fb\u696d\u52d9","client_name":"\u56fd\u571f\u4ea4\u901a\u7701\u56db\u56fd\u5730\u65b9\u6574\u5099\u5c40\u571f\u4f50\u56fd\u9053\u4e8b\u52d9\u6240","boring_xml_url":64,"boring_view_url":1,"soilmap_view_url":null,"soiltest_xml_url":0,"soiltest_view_url":0},{"id":525166,"code":"B4KJ202201002-7702","latitude":"33.553778","longitude":"133.674889","source_code":"068862612000200004","project_name":"\u5e73\u621018\u5e74\u5ea6\u3000\u9ad8\u77e5\u5357\u56fd\u9053\u8def\u5916\u5730\u8cea\u8abf\u67fb\u696d\u52d9","survey_name":"\u5e73\u621018\u5e74\u5ea6\u3000\u9ad8\u77e5\u5357\u56fd\u9053\u8def\u5916\u5730\u8cea\u8abf\u67fb\u696d\u52d9","client_name":"\u56fd\u571f\u4ea4\u901a\u7701\u56db\u56fd\u5730\u65b9\u6574\u5099\u5c40\u571f\u4f50\u56fd\u9053\u4e8b\u52d9\u6240","boring_xml_url":64,"boring_view_url":1,"soilmap_view_url":null,"soiltest_xml_url":0,"soiltest_view_url":0},{"id":525165,"code":"B4KJ202201002-7701","latitude":"33.5535","longitude":"133.674583","source_code":"068862612000200003","project_name":"\u5e73\u621018\u5e74\u5ea6\u3000\u9ad8\u77e5\u5357\u56fd\u9053\u8def\u5916\u5730\u8cea\u8abf\u67fb\u696d\u52d9","survey_name":"\u5e73\u621018\u5e74\u5ea6\u3000\u9ad8\u77e5\u5357\u56fd\u9053\u8def\u5916\u5730\u8cea\u8abf\u67fb\u696d\u52d9","client_name":"\u56fd\u571f\u4ea4\u901a\u7701\u56db\u56fd\u5730\u65b9\u6574\u5099\u5c40\u571f\u4f50\u56fd\u9053\u4e8b\u52d9\u6240","boring_xml_url":64,"boring_view_url":1,"soilmap_view_url":null,"soiltest_xml_url":0,"soiltest_view_url":0},{"id":525164,"code":"B4KJ202201002-7700","latitude":"33.553833","longitude":"133.674306","source_code":"068862612000200002","project_name":"\u5e73\u621018\u5e74\u5ea6\u3000\u9ad8\u77e5\u5357\u56fd\u9053\u8def\u5916\u5730\u8cea\u8abf\u67fb\u696d\u52d9","survey_name":"\u5e73\u621018\u5e74\u5ea6\u3000\u9ad8\u77e5\u5357\u56fd\u9053\u8def\u5916\u5730\u8cea\u8abf\u67fb\u696d\u52d9","client_name":"\u56fd\u571f\u4ea4\u901a\u7701\u56db\u56fd\u5730\u65b9\u6574\u5099\u5c40\u571f\u4f50\u56fd\u9053\u4e8b\u52d9\u6240","boring_xml_url":64,"boring_view_url":1,"soilmap_view_url":null,"soiltest_xml_url":0,"soiltest_view_url":0},{"id":525163,"code":"B4KJ202201002-7699","latitude":"33.553528","longitude":"133.674139","source_code":"068862612000200001","project_name":"\u5e73\u621018\u5e74\u5ea6\u3000\u9ad8\u77e5\u5357\u56fd\u9053\u8def\u5916\u5730\u8cea\u8abf\u67fb\u696d\u52d9","survey_name":"\u5e73\u621018\u5e74\u5ea6\u3000\u9ad8\u77e5\u5357\u56fd\u9053\u8def\u5916\u5730\u8cea\u8abf\u67fb\u696d\u52d9","client_name":"\u56fd\u571f\u4ea4\u901a\u7701\u56db\u56fd\u5730\u65b9\u6574\u5099\u5c40\u571f\u4f50\u56fd\u9053\u4e8b\u52d9\u6240","boring_xml_url":64,"boring_view_url":1,"soilmap_view_url":null,"soiltest_xml_url":0,"soiltest_view_url":0},{"id":525162,"code":"B4KJ202201002-7698","latitude":"33.333372","longitude":"133.208292","source_code":"068862602000330006","project_name":"","survey_name":"\u5e73\u621018\u5e74\u5ea6\u9053\u30ce\u5ddd\u5730\u533a\u5916\u5730\u8cea\u8abf\u67fb\u696d\u52d9","client_name":"\u56fd\u571f\u4ea4\u901a\u7701\u56db\u56fd\u5730\u65b9\u6574\u5099\u5c40\u571f\u4f50\u56fd\u9053\u4e8b\u52d9\u6240","boring_xml_url":64,"boring_view_url":1,"soilmap_view_url":null,"soiltest_xml_url":0,"soiltest_view_url":0},{"id":525161,"code":"B4KJ202201002-7697","latitude":"33.368428","longitude":"133.249278","source_code":"068862602000330004","project_name":"","survey_name":"\"\u5e73\u621018\u5e74\u5ea6 \u9053\u30ce\u5ddd\u5730\u533a\u5916 \u5730\u8cea\u8abf\u67fb\u696d\u52d9\"","client_name":"\u56fd\u571f\u4ea4\u901a\u7701\u56db\u56fd\u5730\u65b9\u6574\u5099\u5c40\u571f\u4f50\u56fd\u9053\u4e8b\u52d9\u6240","boring_xml_url":64,"boring_view_url":1,"soilmap_view_url":null,"soiltest_xml_url":0,"soiltest_view_url":0},{"id":525160,"code":"B4KJ202201002-7696","latitude":"33.36845","longitude":"133.249028","source_code":"068862602000330003","project_name":"","survey_name":"\u5e73\u621018\u5e74\u5ea6\u9053\u30ce\u5ddd\u5730\u533a\u5916\u5730\u8cea\u8abf\u67fb\u696d\u52d9","client_name":"\u56fd\u571f\u4ea4\u901a\u7701\u56db\u56fd\u5730\u65b9\u6574\u5099\u5c40\u571f\u4f50\u56fd\u9053\u4e8b\u52d9\u6240","boring_xml_url":64,"boring_view_url":1,"soilmap_view_url":null,"soiltest_xml_url":0,"soiltest_view_url":0},{"id":525159,"code":"B4KJ202201002-7695","latitude":"33.368242","longitude":"133.249283","source_code":"068862602000330002","project_name":"","survey_name":"\u5e73\u621018\u5e74\u5ea6\u9053\u30ce\u5ddd\u5730\u533a\u5916\u5730\u8cea\u8abf\u67fb\u696d\u52d9","client_name":"\u56fd\u571f\u4ea4\u901a\u7701\u56db\u56fd\u5730\u65b9\u6574\u5099\u5c40\u571f\u4f50\u56fd\u9053\u4e8b\u52d9\u6240","boring_xml_url":64,"boring_view_url":1,"soilmap_view_url":null,"soiltest_xml_url":0,"soiltest_view_url":0},{"id":525158,"code":"B4KJ202201002-7694","latitude":"33.368333","longitude":"133.249181","source_code":"068862602000330001","project_name":"","survey_name":"\"\u5e73\u621018\u5e74\u5ea6 \u9053\u30ce\u5ddd\u5730\u533a\u5916 \u5730\u8cea\u8abf\u67fb\u696d\u52d9\"","client_name":"\u56fd\u571f\u4ea4\u901a\u7701\u56db\u56fd\u5730\u65b9\u6574\u5099\u5c40\u571f\u4f50\u56fd\u9053\u4e8b\u52d9\u6240","boring_xml_url":64,"boring_view_url":1,"soilmap_view_url":null,"soiltest_xml_url":0,"soiltest_view_url":0},{"id":525157,"code":"B4KJ202201002-7693","latitude":"33.14125","longitude":"133.126444","source_code":"068861612000240017","project_name":"\u5e73\u621018\u5e74\u5ea6\u3000\u62f3\u30ce\u5ddd\u5730\u533a\u5730\u8cea\u8abf\u67fb\u696d\u52d9","survey_name":"\u5e73\u621018\u5e74\u5ea6\u3000\u62f3\u30ce\u5ddd\u5730\u533a\u5730\u8cea\u8abf\u67fb\u696d\u52d9","client_name":"\u56fd\u571f\u4ea4\u901a\u7701\u56db\u56fd\u5730\u65b9\u6574\u5099\u5c40\u4e2d\u6751\u6cb3\u5ddd\u56fd\u9053\u4e8b\u52d9\u6240","boring_xml_url":64,"boring_view_url":1,"soilmap_view_url":null,"soiltest_xml_url":0,"soiltest_view_url":0},{"id":525156,"code":"B4KJ202201002-7692","latitude":"33.141417","longitude":"133.126472","source_code":"068861612000240016","project_name":"\u5e73\u621018\u5e74\u5ea6\u3000\u62f3\u30ce\u5ddd\u5730\u533a\u5730\u8cea\u8abf\u67fb\u696d\u52d9","survey_name":"\u5e73\u621018\u5e74\u5ea6\u3000\u62f3\u30ce\u5ddd\u5730\u533a\u5730\u8cea\u8abf\u67fb\u696d\u52d9","client_name":"\u56fd\u571f\u4ea4\u901a\u7701\u56db\u56fd\u5730\u65b9\u6574\u5099\u5c40\u4e2d\u6751\u6cb3\u5ddd\u56fd\u9053\u4e8b\u52d9\u6240","boring_xml_url":64,"boring_view_url":1,"soilmap_view_url":null,"soiltest_xml_url":0,"soiltest_view_url":0},{"id":525155,"code":"B4KJ202201002-7691","latitude":"33.069556","longitude":"133.106222","source_code":"068861612000240015","project_name":"\u5e73\u621018\u5e74\u5ea6\u3000\u62f3\u30ce\u5ddd\u5730\u533a\u5730\u8cea\u8abf\u67fb\u696d\u52d9","survey_name":"\u5e73\u621018\u5e74\u5ea6\u3000\u62f3\u30ce\u5ddd\u5730\u533a\u5730\u8cea\u8abf\u67fb\u696d\u52d9","client_name":"\u56fd\u571f\u4ea4\u901a\u7701\u56db\u56fd\u5730\u65b9\u6574\u5099\u5c40\u4e2d\u6751\u6cb3\u5ddd\u56fd\u9053\u4e8b\u52d9\u6240","boring_xml_url":64,"boring_view_url":1,"soilmap_view_url":null,"soiltest_xml_url":0,"soiltest_view_url":0},{"id":525154,"code":"B4KJ202201002-7690","latitude":"33.069583","longitude":"133.106194","source_code":"068861612000240014","project_name":"\u5e73\u621018\u5e74\u5ea6\u3000\u62f3\u30ce\u5ddd\u5730\u533a\u5730\u8cea\u8abf\u67fb\u696d\u52d9","survey_name":"\u5e73\u621018\u5e74\u5ea6\u3000\u62f3\u30ce\u5ddd\u5730\u533a\u5730\u8cea\u8abf\u67fb\u696d\u52d9","client_name":"\u56fd\u571f\u4ea4\u901a\u7701\u56db\u56fd\u5730\u65b9\u6574\u5099\u5c40\u4e2d\u6751\u6cb3\u5ddd\u56fd\u9053\u4e8b\u52d9\u6240","boring_xml_url":64,"boring_view_url":1,"soilmap_view_url":null,"soiltest_xml_url":0,"soiltest_view_url":0},{"id":525153,"code":"B4KJ202201002-7689","latitude":"33.069694","longitude":"133.106056","source_code":"068861612000240013","project_name":"\u5e73\u621018\u5e74\u5ea6\u3000\u62f3\u30ce\u5ddd\u5730\u533a\u5730\u8cea\u8abf\u67fb\u696d\u52d9","survey_name":"\u5e73\u621018\u5e74\u5ea6\u3000\u62f3\u30ce\u5ddd\u5730\u533a\u5730\u8cea\u8abf\u67fb\u696d\u52d9","client_name":"\u56fd\u571f\u4ea4\u901a\u7701\u56db\u56fd\u5730\u65b9\u6574\u5099\u5c40\u4e2d\u6751\u6cb3\u5ddd\u56fd\u9053\u4e8b\u52d9\u6240","boring_xml_url":64,"boring_view_url":1,"soilmap_view_url":null,"soiltest_xml_url":0,"soiltest_view_url":0},{"id":525152,"code":"B4KJ202201002-7688","latitude":"33.069778","longitude":"133.105972","source_code":"068861612000240012","project_name":"\u5e73\u621018\u5e74\u5ea6\u3000\u62f3\u30ce\u5ddd\u5730\u533a\u5730\u8cea\u8abf\u67fb\u696d\u52d9","survey_name":"\u5e73\u621018\u5e74\u5ea6\u3000\u62f3\u30ce\u5ddd\u5730\u533a\u5730\u8cea\u8abf\u67fb\u696d\u52d9","client_name":"\u56fd\u571f\u4ea4\u901a\u7701\u56db\u56fd\u5730\u65b9\u6574\u5099\u5c40\u4e2d\u6751\u6cb3\u5ddd\u56fd\u9053\u4e8b\u52d9\u6240","boring_xml_url":64,"boring_view_url":1,"soilmap_view_url":null,"soiltest_xml_url":0,"soiltest_view_url":0},{"id":525151,"code":"B4KJ202201002-7687","latitude":"32.96375","longitude":"132.890444","source_code":"068861612000240011","project_name":"\u5e73\u621018\u5e74\u5ea6\u3000\u62f3\u30ce\u5ddd\u5730\u533a\u5730\u8cea\u8abf\u67fb\u696d\u52d9","survey_name":"\u5e73\u621018\u5e74\u5ea6\u3000\u62f3\u30ce\u5ddd\u5730\u533a\u5730\u8cea\u8abf\u67fb\u696d\u52d9","client_name":"\u56fd\u571f\u4ea4\u901a\u7701\u56db\u56fd\u5730\u65b9\u6574\u5099\u5c40\u4e2d\u6751\u6cb3\u5ddd\u56fd\u9053\u4e8b\u52d9\u6240","boring_xml_url":64,"boring_view_url":1,"soilmap_view_url":null,"soiltest_xml_url":0,"soiltest_view_url":0},{"id":525150,"code":"B4KJ202201002-7686","latitude":"32.963917","longitude":"132.890611","source_code":"068861612000240010","project_name":"\u5e73\u621018\u5e74\u5ea6\u3000\u62f3\u30ce\u5ddd\u5730\u533a\u5730\u8cea\u8abf\u67fb\u696d\u52d9","survey_name":"\u5e73\u621018\u5e74\u5ea6\u3000\u62f3\u30ce\u5ddd\u5730\u533a\u5730\u8cea\u8abf\u67fb\u696d\u52d9","client_name":"\u56fd\u571f\u4ea4\u901a\u7701\u56db\u56fd\u5730\u65b9\u6574\u5099\u5c40\u4e2d\u6751\u6cb3\u5ddd\u56fd\u9053\u4e8b\u52d9\u6240","boring_xml_url":64,"boring_view_url":1,"soilmap_view_url":null,"soiltest_xml_url":0,"soiltest_view_url":0},{"id":525149,"code":"B4KJ202201002-7685","latitude":"32.961833","longitude":"132.797833","source_code":"068861612000240009","project_name":"\u5e73\u621018\u5e74\u5ea6\u3000\u62f3\u30ce\u5ddd\u5730\u533a\u5730\u8cea\u8abf\u67fb\u696d\u52d9","survey_name":"\u5e73\u621018\u5e74\u5ea6\u3000\u62f3\u30ce\u5ddd\u5730\u533a\u5730\u8cea\u8abf\u67fb\u696d\u52d9","client_name":"\u56fd\u571f\u4ea4\u901a\u7701\u56db\u56fd\u5730\u65b9\u6574\u5099\u5c40\u4e2d\u6751\u6cb3\u5ddd\u56fd\u9053\u4e8b\u52d9\u6240","boring_xml_url":64,"boring_view_url":1,"soilmap_view_url":null,"soiltest_xml_url":0,"soiltest_view_url":0},{"id":525148,"code":"B4KJ202201002-7684","latitude":"33.1495","longitude":"133.132361","source_code":"068861612000240008","project_name":"\u5e73\u621018\u5e74\u5ea6\u3000\u62f3\u30ce\u5ddd\u5730\u533a\u5730\u8cea\u8abf\u67fb\u696d\u52d9","survey_name":"\u5e73\u621018\u5e74\u5ea6\u3000\u62f3\u30ce\u5ddd\u5730\u533a\u5730\u8cea\u8abf\u67fb\u696d\u52d9","client_name":"\u56fd\u571f\u4ea4\u901a\u7701\u56db\u56fd\u5730\u65b9\u6574\u5099\u5c40\u4e2d\u6751\u6cb3\u5ddd\u56fd\u9053\u4e8b\u52d9\u6240","boring_xml_url":64,"boring_view_url":1,"soilmap_view_url":null,"soiltest_xml_url":0,"soiltest_view_url":0},{"id":525147,"code":"B4KJ202201002-7683","latitude":"33.149583","longitude":"133.132139","source_code":"068861612000240007","project_name":"\u5e73\u621018\u5e74\u5ea6\u3000\u62f3\u30ce\u5ddd\u5730\u533a\u5730\u8cea\u8abf\u67fb\u696d\u52d9","survey_name":"\u5e73\u621018\u5e74\u5ea6\u3000\u62f3\u30ce\u5ddd\u5730\u533a\u5730\u8cea\u8abf\u67fb\u696d\u52d9","client_name":"\u56fd\u571f\u4ea4\u901a\u7701\u56db\u56fd\u5730\u65b9\u6574\u5099\u5c40\u4e2d\u6751\u6cb3\u5ddd\u56fd\u9053\u4e8b\u52d9\u6240","boring_xml_url":64,"boring_view_url":1,"soilmap_view_url":null,"soiltest_xml_url":0,"soiltest_view_url":0},{"id":525146,"code":"B4KJ202201002-7682","latitude":"33.140111","longitude":"133.128833","source_code":"068861612000240006","project_name":"\u5e73\u621018\u5e74\u5ea6\u3000\u62f3\u30ce\u5ddd\u5730\u533a\u5730\u8cea\u8abf\u67fb\u696d\u52d9","survey_name":"\u5e73\u621018\u5e74\u5ea6\u3000\u62f3\u30ce\u5ddd\u5730\u533a\u5730\u8cea\u8abf\u67fb\u696d\u52d9","client_name":"\u56fd\u571f\u4ea4\u901a\u7701\u56db\u56fd\u5730\u65b9\u6574\u5099\u5c40\u4e2d\u6751\u6cb3\u5ddd\u56fd\u9053\u4e8b\u52d9\u6240","boring_xml_url":64,"boring_view_url":1,"soilmap_view_url":null,"soiltest_xml_url":0,"soiltest_view_url":0},{"id":525145,"code":"B4KJ202201002-7681","latitude":"33.139639","longitude":"133.125694","source_code":"068861612000240005","project_name":"\u5e73\u621018\u5e74\u5ea6\u3000\u62f3\u30ce\u5ddd\u5730\u533a\u5730\u8cea\u8abf\u67fb\u696d\u52d9","survey_name":"\u5e73\u621018\u5e74\u5ea6\u3000\u62f3\u30ce\u5ddd\u5730\u533a\u5730\u8cea\u8abf\u67fb\u696d\u52d9","client_name":"\u56fd\u571f\u4ea4\u901a\u7701\u56db\u56fd\u5730\u65b9\u6574\u5099\u5c40\u4e2d\u6751\u6cb3\u5ddd\u56fd\u9053\u4e8b\u52d9\u6240","boring_xml_url":64,"boring_view_url":1,"soilmap_view_url":null,"soiltest_xml_url":0,"soiltest_view_url":0},{"id":525144,"code":"B4KJ202201002-7680","latitude":"33.14025","longitude":"133.126556","source_code":"068861612000240004","project_name":"\u5e73\u621018\u5e74\u5ea6\u3000\u62f3\u30ce\u5ddd\u5730\u533a\u5730\u8cea\u8abf\u67fb\u696d\u52d9","survey_name":"\u5e73\u621018\u5e74\u5ea6\u3000\u62f3\u30ce\u5ddd\u5730\u533a\u5730\u8cea\u8abf\u67fb\u696d\u52d9","client_name":"\u56fd\u571f\u4ea4\u901a\u7701\u56db\u56fd\u5730\u65b9\u6574\u5099\u5c40\u4e2d\u6751\u6cb3\u5ddd\u56fd\u9053\u4e8b\u52d9\u6240","boring_xml_url":64,"boring_view_url":1,"soilmap_view_url":null,"soiltest_xml_url":0,"soiltest_view_url":0},{"id":525143,"code":"B4KJ202201002-7679","latitude":"33.140083","longitude":"133.12725","source_code":"068861612000240003","project_name":"\u5e73\u621018\u5e74\u5ea6\u3000\u62f3\u30ce\u5ddd\u5730\u533a\u5730\u8cea\u8abf\u67fb\u696d\u52d9","survey_name":"\u5e73\u621018\u5e74\u5ea6\u3000\u62f3\u30ce\u5ddd\u5730\u533a\u5730\u8cea\u8abf\u67fb\u696d\u52d9","client_name":"\u56fd\u571f\u4ea4\u901a\u7701\u56db\u56fd\u5730\u65b9\u6574\u5099\u5c40\u4e2d\u6751\u6cb3\u5ddd\u56fd\u9053\u4e8b\u52d9\u6240","boring_xml_url":64,"boring_view_url":1,"soilmap_view_url":null,"soiltest_xml_url":0,"soiltest_view_url":0},{"id":525142,"code":"B4KJ202201002-7678","latitude":"33.14","longitude":"133.126583","source_code":"068861612000240002","project_name":"\u5e73\u621018\u5e74\u5ea6\u3000\u62f3\u30ce\u5ddd\u5730\u533a\u5730\u8cea\u8abf\u67fb\u696d\u52d9","survey_name":"\u5e73\u621018\u5e74\u5ea6\u3000\u62f3\u30ce\u5ddd\u5730\u533a\u5730\u8cea\u8abf\u67fb\u696d\u52d9","client_name":"\u56fd\u571f\u4ea4\u901a\u7701\u56db\u56fd\u5730\u65b9\u6574\u5099\u5c40\u4e2d\u6751\u6cb3\u5ddd\u56fd\u9053\u4e8b\u52d9\u6240","boring_xml_url":64,"boring_view_url":1,"soilmap_view_url":null,"soiltest_xml_url":0,"soiltest_view_url":0},{"id":525141,"code":"B4KJ202201002-7677","latitude":"33.140222","longitude":"133.128111","source_code":"068861612000240001","project_name":"\u5e73\u621018\u5e74\u5ea6\u3000\u62f3\u30ce\u5ddd\u5730\u533a\u5730\u8cea\u8abf\u67fb\u696d\u52d9","survey_name":"\u5e73\u621018\u5e74\u5ea6\u3000\u62f3\u30ce\u5ddd\u5730\u533a\u5730\u8cea\u8abf\u67fb\u696d\u52d9","client_name":"\u56fd\u571f\u4ea4\u901a\u7701\u56db\u56fd\u5730\u65b9\u6574\u5099\u5c40\u4e2d\u6751\u6cb3\u5ddd\u56fd\u9053\u4e8b\u52d9\u6240","boring_xml_url":64,"boring_view_url":1,"soilmap_view_url":null,"soiltest_xml_url":0,"soiltest_view_url":0},{"id":525140,"code":"B4KJ202201002-7676","latitude":"33.228889","longitude":"133.156111","source_code":"068861612000070016","project_name":"","survey_name":"\u5e73\u621018\u5e74\u5ea6\u3000\u7247\u5742\u30d0\u30a4\u30d1\u30b9\u5916(\u305d\u306e1)\u5730\u8cea\u8abf\u67fb\u696d\u52d9","client_name":"\"\u56fd\u571f\u4ea4\u901a\u7701 \u56db\u56fd\u5730\u65b9\u6574\u5099\u5c40 \u4e2d\u6751\u6cb3\u5ddd\u56fd\u9053\u4e8b\u52d9\u6240\"","boring_xml_url":64,"boring_view_url":1,"soilmap_view_url":null,"soiltest_xml_url":0,"soiltest_view_url":0},{"id":525139,"code":"B4KJ202201002-7675","latitude":"33.229444","longitude":"133.153611","source_code":"068861612000070015","project_name":"","survey_name":"\u5e73\u621018\u5e74\u5ea6\u3000\u7247\u5742\u30d0\u30a4\u30d1\u30b9\u5916(\u305d\u306e1)\u5730\u8cea\u8abf\u67fb\u696d\u52d9","client_name":"\"\u56fd\u571f\u4ea4\u901a\u7701 \u56db\u56fd\u5730\u65b9\u6574\u5099\u5c40 \u4e2d\u6751\u6cb3\u5ddd\u56fd\u9053\u4e8b\u52d9\u6240\"","boring_xml_url":64,"boring_view_url":1,"soilmap_view_url":null,"soiltest_xml_url":0,"soiltest_view_url":0}]}}