{"header":{"xyz":{"source":[],"mosaic":false},"page":677,"raw":{"soiltest_result":"0","bbox":"57.598333,109.544722,1.933333,163.806111","page":"677"},"conditions":{"soiltest_result":0,"north":57.598333,"west":109.544722,"south":1.933333,"east":163.806111},"success":true,"message":""},"data":{"meta":{"total":212844,"page":677,"pages":7095,"count":30},"values":[{"id":525108,"code":"B4KJ202201002-7644","latitude":"33.453194","longitude":"132.697906","source_code":"068855402000150020","project_name":"","survey_name":"\"\u5e73\u621018\u5e74\u5ea6 \u770c\u9053\u4ed8\u66ff\u5730\u8cea\u8abf\u67fb\u696d\u52d9\"","client_name":"\u56fd\u571f\u4ea4\u901a\u7701\u56db\u56fd\u5730\u65b9\u6574\u5099\u5c40\u5c71\u9ce5\u5742\u30c0\u30e0\u5de5\u4e8b\u4e8b\u52d9\u6240","boring_xml_url":64,"boring_view_url":1,"soilmap_view_url":null,"soiltest_xml_url":0,"soiltest_view_url":0},{"id":525107,"code":"B4KJ202201002-7643","latitude":"33.453267","longitude":"132.696969","source_code":"068855402000150019","project_name":"","survey_name":"\"\u5e73\u621018\u5e74\u5ea6 \u770c\u9053\u4ed8\u66ff\u5730\u8cea\u8abf\u67fb\u696d\u52d9\"","client_name":"\u56fd\u571f\u4ea4\u901a\u7701\u56db\u56fd\u5730\u65b9\u6574\u5099\u5c40\u5c71\u9ce5\u5742\u30c0\u30e0\u5de5\u4e8b\u4e8b\u52d9\u6240","boring_xml_url":64,"boring_view_url":1,"soilmap_view_url":null,"soiltest_xml_url":0,"soiltest_view_url":0},{"id":525106,"code":"B4KJ202201002-7642","latitude":"33.453292","longitude":"132.696219","source_code":"068855402000150018","project_name":"","survey_name":"\"\u5e73\u621018\u5e74\u5ea6 \u770c\u9053\u4ed8\u66ff\u5730\u8cea\u8abf\u67fb\u696d\u52d9\"","client_name":"\u56fd\u571f\u4ea4\u901a\u7701\u56db\u56fd\u5730\u65b9\u6574\u5099\u5c40\u5c71\u9ce5\u5742\u30c0\u30e0\u5de5\u4e8b\u4e8b\u52d9\u6240","boring_xml_url":64,"boring_view_url":1,"soilmap_view_url":null,"soiltest_xml_url":0,"soiltest_view_url":0},{"id":525105,"code":"B4KJ202201002-7641","latitude":"33.453156","longitude":"132.695483","source_code":"068855402000150017","project_name":"","survey_name":"H18\u5e74\u5ea6\u3000\u4ed8\u66ff\u770c\u9053\u5730\u8cea\u8abf\u67fb\u696d\u52d9","client_name":"\u56fd\u571f\u4ea4\u901a\u7701\u56db\u56fd\u5730\u65b9\u6574\u5099\u5c40\u5c71\u9ce5\u5742\u30c0\u30e0\u5de5\u4e8b\u4e8b\u52d9\u6240","boring_xml_url":64,"boring_view_url":1,"soilmap_view_url":null,"soiltest_xml_url":0,"soiltest_view_url":0},{"id":525104,"code":"B4KJ202201002-7640","latitude":"33.453267","longitude":"132.694497","source_code":"068855402000150016","project_name":"","survey_name":"\"\u5e73\u621018\u5e74\u5ea6 \u4ed8\u66ff\u770c\u9053\u5730\u8cea\u8abf\u67fb\u696d\u52d9\"","client_name":"\u56fd\u571f\u4ea4\u901a\u7701\u56db\u56fd\u5730\u65b9\u6574\u5099\u5c40\u5c71\u9ce5\u5742\u30c0\u30e0\u5de5\u4e8b\u4e8b\u52d9\u6240","boring_xml_url":64,"boring_view_url":1,"soilmap_view_url":null,"soiltest_xml_url":0,"soiltest_view_url":0},{"id":525103,"code":"B4KJ202201002-7639","latitude":"33.453367","longitude":"132.693817","source_code":"068855402000150015","project_name":"","survey_name":"\"\u5e73\u621018\u5e74\u5ea6 \u4ed8\u66ff\u770c\u9053\u5730\u8cea\u8abf\u67fb\u696d\u52d9\"","client_name":"\u56fd\u571f\u4ea4\u901a\u7701\u56db\u56fd\u5730\u65b9\u6574\u5099\u5c40\u5c71\u9ce5\u5742\u30c0\u30e0\u5de5\u4e8b\u4e8b\u52d9\u6240","boring_xml_url":64,"boring_view_url":1,"soilmap_view_url":null,"soiltest_xml_url":0,"soiltest_view_url":0},{"id":525102,"code":"B4KJ202201002-7638","latitude":"33.454925","longitude":"132.693769","source_code":"068855402000150014","project_name":"","survey_name":"\u5e73\u621018\u5e74\u5ea6\u770c\u9053\u4ed8\u66ff\u5730\u8cea\u8abf\u67fb\u696d\u52d9","client_name":"\u56fd\u571f\u4ea4\u901a\u7701\u56db\u56fd\u5730\u65b9\u6574\u5099\u5c40\u5c71\u9ce5\u5742\u30c0\u30e0\u5de5\u4e8b\u4e8b\u52d9\u6240","boring_xml_url":64,"boring_view_url":1,"soilmap_view_url":null,"soiltest_xml_url":0,"soiltest_view_url":0},{"id":525101,"code":"B4KJ202201002-7637","latitude":"33.455533","longitude":"132.694928","source_code":"068855402000150013","project_name":"","survey_name":"\"\u5e73\u621018\u5e74\u5ea6 \u4ed8\u66ff\u770c\u9053\u5730\u8cea\u8abf\u67fb\u696d\u52d9\"","client_name":"\u56fd\u571f\u4ea4\u901a\u7701\u56db\u56fd\u5730\u65b9\u6574\u5099\u5c40\u5c71\u9ce5\u5742\u30c0\u30e0\u5de5\u4e8b\u4e8b\u52d9\u6240","boring_xml_url":64,"boring_view_url":1,"soilmap_view_url":null,"soiltest_xml_url":0,"soiltest_view_url":0},{"id":525100,"code":"B4KJ202201002-7636","latitude":"33.455878","longitude":"132.694942","source_code":"068855402000150012","project_name":"","survey_name":"\"\u5e73\u621018\u5e74\u5ea6 \u770c\u9053\u4ed8\u66ff\u5730\u8cea\u8abf\u67fb\u696d\u52d9\"","client_name":"\u56fd\u571f\u4ea4\u901a\u7701\u56db\u56fd\u5730\u65b9\u6574\u5099\u5c40\u5c71\u9ce5\u5742\u30c0\u30e0\u5de5\u4e8b\u4e8b\u52d9\u6240","boring_xml_url":64,"boring_view_url":1,"soilmap_view_url":null,"soiltest_xml_url":0,"soiltest_view_url":0},{"id":525099,"code":"B4KJ202201002-7635","latitude":"33.455428","longitude":"132.695392","source_code":"068855402000150011","project_name":"","survey_name":"\"\u5e73\u621018\u5e74\u5ea6 \u4ed8\u66ff\u770c\u9053\u5730\u8cea\u8abf\u67fb\u696d\u52d9\"","client_name":"\u56fd\u571f\u4ea4\u901a\u7701\u56db\u56fd\u5730\u65b9\u6574\u5099\u5c40\u5c71\u9ce5\u5742\u30c0\u30e0\u5de5\u4e8b\u4e8b\u52d9\u6240","boring_xml_url":64,"boring_view_url":1,"soilmap_view_url":null,"soiltest_xml_url":0,"soiltest_view_url":0},{"id":525098,"code":"B4KJ202201002-7634","latitude":"33.455131","longitude":"132.695808","source_code":"068855402000150010","project_name":"","survey_name":"\"\u5e73\u621018\u5e74\u5ea6 \u4ed8\u66ff\u770c\u9053\u5730\u8cea\u8abf\u67fb\u696d\u52d9\"","client_name":"\u56fd\u571f\u4ea4\u901a\u7701\u56db\u56fd\u5730\u65b9\u6574\u5099\u5c40\u5c71\u9ce5\u5742\u30c0\u30e0\u5de5\u4e8b\u4e8b\u52d9\u6240","boring_xml_url":64,"boring_view_url":1,"soilmap_view_url":null,"soiltest_xml_url":0,"soiltest_view_url":0},{"id":525097,"code":"B4KJ202201002-7633","latitude":"33.455044","longitude":"132.696525","source_code":"068855402000150009","project_name":"","survey_name":"\"\u5e73\u621018\u5e74\u5ea6 \u4ed8\u66ff\u770c\u9053\u5730\u8cea\u8abf\u67fb\u696d\u52d9\"","client_name":"\u56fd\u571f\u4ea4\u901a\u7701\u56db\u56fd\u5730\u65b9\u6574\u5099\u5c40\u5c71\u9ce5\u5742\u30c0\u30e0\u5de5\u4e8b\u4e8b\u52d9\u6240","boring_xml_url":64,"boring_view_url":1,"soilmap_view_url":null,"soiltest_xml_url":0,"soiltest_view_url":0},{"id":525096,"code":"B4KJ202201002-7632","latitude":"33.455481","longitude":"132.696733","source_code":"068855402000150008","project_name":"","survey_name":"\"\u5e73\u621018\u5e74\u5ea6 \u4ed8\u66ff\u770c\u9053\u5730\u8cea\u8abf\u67fb\u696d\u52d9\"","client_name":"\u56fd\u571f\u4ea4\u901a\u7701\u56db\u56fd\u5730\u65b9\u6574\u5099\u5c40\u5c71\u9ce5\u5742\u30c0\u30e0\u5de5\u4e8b\u4e8b\u52d9\u6240","boring_xml_url":64,"boring_view_url":1,"soilmap_view_url":null,"soiltest_xml_url":0,"soiltest_view_url":0},{"id":525095,"code":"B4KJ202201002-7631","latitude":"33.455992","longitude":"132.696761","source_code":"068855402000150007","project_name":"","survey_name":"\"\u5e73\u621018\u5e74\u5ea6 \u4ed8\u66ff\u770c\u9053\u5730\u8cea\u8abf\u67fb\u696d\u52d9\"","client_name":"\u56fd\u571f\u4ea4\u901a\u7701\u56db\u56fd\u5730\u65b9\u6574\u5099\u5c40\u5c71\u9ce5\u5742\u30c0\u30e0\u5de5\u4e8b\u4e8b\u52d9\u6240","boring_xml_url":64,"boring_view_url":1,"soilmap_view_url":null,"soiltest_xml_url":0,"soiltest_view_url":0},{"id":525094,"code":"B4KJ202201002-7630","latitude":"33.456808","longitude":"132.697647","source_code":"068855402000150006","project_name":"","survey_name":"\"\u5e73\u621018\u5e74\u5ea6 \u4ed8\u66ff\u770c\u9053\u5730\u8cea\u8abf\u67fb\u696d\u52d9\"","client_name":"\u56fd\u571f\u4ea4\u901a\u7701\u56db\u56fd\u5730\u65b9\u6574\u5099\u5c40\u5c71\u9ce5\u5742\u30c0\u30e0\u5de5\u4e8b\u4e8b\u52d9\u6240","boring_xml_url":64,"boring_view_url":1,"soilmap_view_url":null,"soiltest_xml_url":0,"soiltest_view_url":0},{"id":525093,"code":"B4KJ202201002-7629","latitude":"33.456833","longitude":"132.697581","source_code":"068855402000150005","project_name":"","survey_name":"\"\u5e73\u621018\u5e74\u5ea6 \u770c\u9053\u4ed8\u66ff\u5730\u8cea\u8abf\u67fb\u696d\u52d9\"","client_name":"\u56fd\u571f\u4ea4\u901a\u7701\u56db\u56fd\u5730\u65b9\u6574\u5099\u5c40\u5c71\u9ce5\u5742\u30c0\u30e0\u5de5\u4e8b\u4e8b\u52d9\u6240","boring_xml_url":64,"boring_view_url":1,"soilmap_view_url":null,"soiltest_xml_url":0,"soiltest_view_url":0},{"id":525092,"code":"B4KJ202201002-7628","latitude":"33.462419","longitude":"132.703911","source_code":"068855402000150004","project_name":"","survey_name":"H18\u5e74\u5ea6\u3000\u4ed8\u66ff\u770c\u9053\u5730\u8cea\u8abf\u67fb\u696d\u52d9","client_name":"\u56fd\u571f\u4ea4\u901a\u7701\u56db\u56fd\u5730\u65b9\u6574\u5099\u5c40\u5c71\u9ce5\u5742\u30c0\u30e0\u5de5\u4e8b\u4e8b\u52d9\u6240","boring_xml_url":64,"boring_view_url":1,"soilmap_view_url":null,"soiltest_xml_url":0,"soiltest_view_url":0},{"id":525091,"code":"B4KJ202201002-7627","latitude":"33.462303","longitude":"132.704236","source_code":"068855402000150003","project_name":"","survey_name":"\"\u5e73\u621018\u5e74\u5ea6 \u4ed8\u66ff\u770c\u9053\u5730\u8cea\u8abf\u67fb\u696d\u52d9\"","client_name":"\u56fd\u571f\u4ea4\u901a\u7701\u56db\u56fd\u5730\u65b9\u6574\u5099\u5c40\u5c71\u9ce5\u5742\u30c0\u30e0\u5de5\u4e8b\u4e8b\u52d9\u6240","boring_xml_url":64,"boring_view_url":1,"soilmap_view_url":null,"soiltest_xml_url":0,"soiltest_view_url":0},{"id":525090,"code":"B4KJ202201002-7626","latitude":"33.462103","longitude":"132.704933","source_code":"068855402000150002","project_name":"","survey_name":"\"\u5e73\u621018\u5e74\u5ea6 \u4ed8\u66ff\u770c\u9053\u5730\u8cea\u8abf\u67fb\u696d\u52d9\"","client_name":"\u56fd\u571f\u4ea4\u901a\u7701\u56db\u56fd\u5730\u65b9\u6574\u5099\u5c40\u5c71\u9ce5\u5742\u30c0\u30e0\u5de5\u4e8b\u4e8b\u52d9\u6240","boring_xml_url":64,"boring_view_url":1,"soilmap_view_url":null,"soiltest_xml_url":0,"soiltest_view_url":0},{"id":525089,"code":"B4KJ202201002-7625","latitude":"33.462108","longitude":"132.705478","source_code":"068855402000150001","project_name":"","survey_name":"\"\u5e73\u621018\u5e74\u5ea6 \u4ed8\u66ff\u770c\u9053\u5730\u8cea\u8abf\u67fb\u696d\u52d9\"","client_name":"\u56fd\u571f\u4ea4\u901a\u7701\u56db\u56fd\u5730\u65b9\u6574\u5099\u5c40\u5c71\u9ce5\u5742\u30c0\u30e0\u5de5\u4e8b\u4e8b\u52d9\u6240","boring_xml_url":64,"boring_view_url":1,"soilmap_view_url":null,"soiltest_xml_url":0,"soiltest_view_url":0},{"id":525088,"code":"B4KJ202201002-7624","latitude":"33.469989","longitude":"132.714956","source_code":"068855402000070011","project_name":"","survey_name":"\"\u5e73\u621018\u5e74\u5ea6 \u4e0b\u6577\u6c34\u5730\u8cea\u8abf\u67fb\u696d\u52d9\"","client_name":"\u56fd\u571f\u4ea4\u901a\u7701\u56db\u56fd\u5730\u65b9\u5efa\u8a2d\u5c40\u5c71\u9ce5\u5742\u30c0\u30e0\u5de5\u4e8b\u4e8b\u52d9\u6240","boring_xml_url":64,"boring_view_url":1,"soilmap_view_url":null,"soiltest_xml_url":0,"soiltest_view_url":0},{"id":525087,"code":"B4KJ202201002-7623","latitude":"33.471594","longitude":"132.716306","source_code":"068855402000070010","project_name":"","survey_name":"\"\u5e73\u621018\u5e74\u5ea6 \u4e0b\u6577\u6c34\u5730\u8cea\u8abf\u67fb\u696d\u52d9\"","client_name":"\u56fd\u571f\u4ea4\u901a\u7701\u56db\u56fd\u5730\u65b9\u5efa\u8a2d\u5c40\u5c71\u9ce5\u5742\u30c0\u30e0\u5de5\u4e8b\u4e8b\u52d9\u6240","boring_xml_url":64,"boring_view_url":1,"soilmap_view_url":null,"soiltest_xml_url":0,"soiltest_view_url":0},{"id":525086,"code":"B4KJ202201002-7622","latitude":"33.467892","longitude":"132.713936","source_code":"068855402000070009","project_name":"","survey_name":"\"\u5e73\u621018\u5e74\u5ea6 \u4e0b\u6577\u6c34\u5730\u8cea\u8abf\u67fb\u696d\u52d9\"","client_name":"\u56fd\u571f\u4ea4\u901a\u7701\u56db\u56fd\u5730\u65b9\u5efa\u8a2d\u5c40\u5c71\u9ce5\u5742\u30c0\u30e0\u5de5\u4e8b\u4e8b\u52d9\u6240","boring_xml_url":64,"boring_view_url":1,"soilmap_view_url":null,"soiltest_xml_url":0,"soiltest_view_url":0},{"id":525085,"code":"B4KJ202201002-7621","latitude":"33.468472","longitude":"132.714108","source_code":"068855402000070008","project_name":"","survey_name":"\"\u5e73\u621018\u5e74\u5ea6 \u4e0b\u6577\u6c34\u5730\u8cea\u8abf\u67fb\u696d\u52d9\"","client_name":"\u56fd\u571f\u4ea4\u901a\u7701\u56db\u56fd\u5730\u65b9\u5efa\u8a2d\u5c40\u5c71\u9ce5\u5742\u30c0\u30e0\u5de5\u4e8b\u4e8b\u52d9\u6240","boring_xml_url":64,"boring_view_url":1,"soilmap_view_url":null,"soiltest_xml_url":0,"soiltest_view_url":0},{"id":525084,"code":"B4KJ202201002-7620","latitude":"33.470306","longitude":"132.714556","source_code":"068855402000070007","project_name":"","survey_name":"\"\u5e73\u621018\u5e74\u5ea6 \u4e0b\u6577\u6c34\u5730\u8cea\u8abf\u67fb\u696d\u52d9\"","client_name":"\u56fd\u571f\u4ea4\u901a\u7701\u56db\u56fd\u5730\u65b9\u5efa\u8a2d\u5c40\u5c71\u9ce5\u5742\u30c0\u30e0\u5de5\u4e8b\u4e8b\u52d9\u6240","boring_xml_url":64,"boring_view_url":1,"soilmap_view_url":null,"soiltest_xml_url":0,"soiltest_view_url":0},{"id":525083,"code":"B4KJ202201002-7619","latitude":"33.470817","longitude":"132.714586","source_code":"068855402000070006","project_name":"","survey_name":"\"\u5e73\u621018\u5e74\u5ea6 \u4e0b\u6577\u6c34\u5730\u8cea\u8abf\u67fb\u696d\u52d9\"","client_name":"\u56fd\u571f\u4ea4\u901a\u7701\u56db\u56fd\u5730\u65b9\u5efa\u8a2d\u5c40\u5c71\u9ce5\u5742\u30c0\u30e0\u5de5\u4e8b\u4e8b\u52d9\u6240","boring_xml_url":64,"boring_view_url":1,"soilmap_view_url":null,"soiltest_xml_url":0,"soiltest_view_url":0},{"id":525082,"code":"B4KJ202201002-7618","latitude":"33.471331","longitude":"132.714575","source_code":"068855402000070005","project_name":"","survey_name":"\"\u5e73\u621018\u5e74\u5ea6 \u4e0b\u6577\u6c34\u5730\u8cea\u8abf\u67fb\u696d\u52d9\"","client_name":"\u56fd\u571f\u4ea4\u901a\u7701\u56db\u56fd\u5730\u65b9\u5efa\u8a2d\u5c40\u5c71\u9ce5\u5742\u30c0\u30e0\u5de5\u4e8b\u4e8b\u52d9\u6240","boring_xml_url":64,"boring_view_url":1,"soilmap_view_url":null,"soiltest_xml_url":0,"soiltest_view_url":0},{"id":525081,"code":"B4KJ202201002-7617","latitude":"33.471214","longitude":"132.715114","source_code":"068855402000070004","project_name":"","survey_name":"\"\u5e73\u621018\u5e74\u5ea6 \u4e0b\u6577\u6c34\u5730\u8cea\u8abf\u67fb\u696d\u52d9\"","client_name":"\u56fd\u571f\u4ea4\u901a\u7701\u56db\u56fd\u5730\u65b9\u5efa\u8a2d\u5c40\u5c71\u9ce5\u5742\u30c0\u30e0\u5de5\u4e8b\u4e8b\u52d9\u6240","boring_xml_url":64,"boring_view_url":1,"soilmap_view_url":null,"soiltest_xml_url":0,"soiltest_view_url":0},{"id":525080,"code":"B4KJ202201002-7616","latitude":"33.471133","longitude":"132.715669","source_code":"068855402000070003","project_name":"","survey_name":"\"\u5e73\u621018\u5e74\u5ea6 \u4e0b\u6577\u6c34\u5730\u8cea\u8abf\u67fb\u696d\u52d9\"","client_name":"\u56fd\u571f\u4ea4\u901a\u7701\u56db\u56fd\u5730\u65b9\u5efa\u8a2d\u5c40\u5c71\u9ce5\u5742\u30c0\u30e0\u5de5\u4e8b\u4e8b\u52d9\u6240","boring_xml_url":64,"boring_view_url":1,"soilmap_view_url":null,"soiltest_xml_url":0,"soiltest_view_url":0},{"id":525079,"code":"B4KJ202201002-7615","latitude":"33.47195","longitude":"132.716272","source_code":"068855402000070002","project_name":"","survey_name":"\"\u5e73\u621018\u5e74\u5ea6 \u4e0b\u6577\u6c34\u5730\u8cea\u8abf\u67fb\u696d\u52d9\"","client_name":"\u56fd\u571f\u4ea4\u901a\u7701\u56db\u56fd\u5730\u65b9\u5efa\u8a2d\u5c40\u5c71\u9ce5\u5742\u30c0\u30e0\u5de5\u4e8b\u4e8b\u52d9\u6240","boring_xml_url":64,"boring_view_url":1,"soilmap_view_url":null,"soiltest_xml_url":0,"soiltest_view_url":0}]}}