{"header":{"xyz":{"source":[],"mosaic":false},"page":6772,"raw":{"soiltest_result":"0","bbox":"57.598333,109.544722,1.933333,163.806111","page":"6772"},"conditions":{"soiltest_result":0,"north":57.598333,"west":109.544722,"south":1.933333,"east":163.806111},"success":true,"message":""},"data":{"meta":{"total":212844,"page":6772,"pages":7095,"count":30},"values":[{"id":117415,"code":"B4KJ201801000-5664","latitude":"35.55825339","longitude":"139.7764923","source_code":"PORT1300A010135","project_name":"\u6e2f\u6e7e\u5c40","survey_name":"\u662d\u548c61\u5e74\u5ea6\u6771\u4eac\u7a7a\u6e2f\u5c64\u539a\u8abf\u67fb(\u305d\u306e7)","client_name":"\u56fd\u571f\u4ea4\u901a\u7701\u95a2\u6771\u5730\u65b9\u6574\u5099\u5c40\u6a2a\u6d5c\u6e2f\u6e7e\u7a7a\u6e2f\u6280\u8853\u8abf\u67fb\u4e8b\u52d9\u6240","boring_xml_url":0,"boring_view_url":0,"soilmap_view_url":66,"soiltest_xml_url":0,"soiltest_view_url":66},{"id":117414,"code":"B4KJ201801000-5663","latitude":"35.55880888","longitude":"139.7762145","source_code":"PORT1300A010134","project_name":"\u6e2f\u6e7e\u5c40","survey_name":"\u662d\u548c61\u5e74\u5ea6\u6771\u4eac\u7a7a\u6e2f\u5c64\u539a\u8abf\u67fb(\u305d\u306e7)","client_name":"\u56fd\u571f\u4ea4\u901a\u7701\u95a2\u6771\u5730\u65b9\u6574\u5099\u5c40\u6a2a\u6d5c\u6e2f\u6e7e\u7a7a\u6e2f\u6280\u8853\u8abf\u67fb\u4e8b\u52d9\u6240","boring_xml_url":0,"boring_view_url":0,"soilmap_view_url":66,"soiltest_xml_url":0,"soiltest_view_url":66},{"id":117413,"code":"B4KJ201801000-5662","latitude":"35.55964211","longitude":"139.7756589","source_code":"PORT1300A010133","project_name":"\u6e2f\u6e7e\u5c40","survey_name":"\u662d\u548c61\u5e74\u5ea6\u6771\u4eac\u7a7a\u6e2f\u5c64\u539a\u8abf\u67fb(\u305d\u306e7)","client_name":"\u56fd\u571f\u4ea4\u901a\u7701\u95a2\u6771\u5730\u65b9\u6574\u5099\u5c40\u6a2a\u6d5c\u6e2f\u6e7e\u7a7a\u6e2f\u6280\u8853\u8abf\u67fb\u4e8b\u52d9\u6240","boring_xml_url":0,"boring_view_url":0,"soilmap_view_url":66,"soiltest_xml_url":0,"soiltest_view_url":66},{"id":117412,"code":"B4KJ201801000-5661","latitude":"35.55991984","longitude":"139.7753812","source_code":"PORT1300A010132","project_name":"\u6e2f\u6e7e\u5c40","survey_name":"\u662d\u548c61\u5e74\u5ea6\u6771\u4eac\u7a7a\u6e2f\u5c64\u539a\u8abf\u67fb(\u305d\u306e7)","client_name":"\u56fd\u571f\u4ea4\u901a\u7701\u95a2\u6771\u5730\u65b9\u6574\u5099\u5c40\u6a2a\u6d5c\u6e2f\u6e7e\u7a7a\u6e2f\u6280\u8853\u8abf\u67fb\u4e8b\u52d9\u6240","boring_xml_url":0,"boring_view_url":0,"soilmap_view_url":66,"soiltest_xml_url":0,"soiltest_view_url":66},{"id":117411,"code":"B4KJ201801000-5660","latitude":"35.56019758","longitude":"139.7751034","source_code":"PORT1300A010131","project_name":"\u6e2f\u6e7e\u5c40","survey_name":"\u662d\u548c61\u5e74\u5ea6\u6771\u4eac\u7a7a\u6e2f\u5c64\u539a\u8abf\u67fb(\u305d\u306e7)","client_name":"\u56fd\u571f\u4ea4\u901a\u7701\u95a2\u6771\u5730\u65b9\u6574\u5099\u5c40\u6a2a\u6d5c\u6e2f\u6e7e\u7a7a\u6e2f\u6280\u8853\u8abf\u67fb\u4e8b\u52d9\u6240","boring_xml_url":0,"boring_view_url":0,"soilmap_view_url":66,"soiltest_xml_url":0,"soiltest_view_url":66},{"id":117410,"code":"B4KJ201801000-5659","latitude":"35.55380952","longitude":"139.7789922","source_code":"PORT1300A010130","project_name":"\u6e2f\u6e7e\u5c40","survey_name":"\u662d\u548c61\u5e74\u5ea6\u6771\u4eac\u7a7a\u6e2f\u5c64\u539a\u8abf\u67fb(\u305d\u306e7)","client_name":"\u56fd\u571f\u4ea4\u901a\u7701\u95a2\u6771\u5730\u65b9\u6574\u5099\u5c40\u6a2a\u6d5c\u6e2f\u6e7e\u7a7a\u6e2f\u6280\u8853\u8abf\u67fb\u4e8b\u52d9\u6240","boring_xml_url":0,"boring_view_url":0,"soilmap_view_url":66,"soiltest_xml_url":0,"soiltest_view_url":66},{"id":117409,"code":"B4KJ201801000-5658","latitude":"35.55408726","longitude":"139.7787145","source_code":"PORT1300A010129","project_name":"\u6e2f\u6e7e\u5c40","survey_name":"\u662d\u548c61\u5e74\u5ea6\u6771\u4eac\u7a7a\u6e2f\u5c64\u539a\u8abf\u67fb(\u305d\u306e7)","client_name":"\u56fd\u571f\u4ea4\u901a\u7701\u95a2\u6771\u5730\u65b9\u6574\u5099\u5c40\u6a2a\u6d5c\u6e2f\u6e7e\u7a7a\u6e2f\u6280\u8853\u8abf\u67fb\u4e8b\u52d9\u6240","boring_xml_url":0,"boring_view_url":0,"soilmap_view_url":66,"soiltest_xml_url":0,"soiltest_view_url":66},{"id":117408,"code":"B4KJ201801000-5657","latitude":"35.55464274","longitude":"139.7784367","source_code":"PORT1300A010128","project_name":"\u6e2f\u6e7e\u5c40","survey_name":"\u662d\u548c61\u5e74\u5ea6\u6771\u4eac\u7a7a\u6e2f\u5c64\u539a\u8abf\u67fb(\u305d\u306e7)","client_name":"\u56fd\u571f\u4ea4\u901a\u7701\u95a2\u6771\u5730\u65b9\u6574\u5099\u5c40\u6a2a\u6d5c\u6e2f\u6e7e\u7a7a\u6e2f\u6280\u8853\u8abf\u67fb\u4e8b\u52d9\u6240","boring_xml_url":0,"boring_view_url":0,"soilmap_view_url":66,"soiltest_xml_url":0,"soiltest_view_url":66},{"id":117407,"code":"B4KJ201801000-5656","latitude":"35.55492048","longitude":"139.7781589","source_code":"PORT1300A010127","project_name":"\u6e2f\u6e7e\u5c40","survey_name":"\u662d\u548c61\u5e74\u5ea6\u6771\u4eac\u7a7a\u6e2f\u5c64\u539a\u8abf\u67fb(\u305d\u306e7)","client_name":"\u56fd\u571f\u4ea4\u901a\u7701\u95a2\u6771\u5730\u65b9\u6574\u5099\u5c40\u6a2a\u6d5c\u6e2f\u6e7e\u7a7a\u6e2f\u6280\u8853\u8abf\u67fb\u4e8b\u52d9\u6240","boring_xml_url":0,"boring_view_url":0,"soilmap_view_url":66,"soiltest_xml_url":0,"soiltest_view_url":66},{"id":117406,"code":"B4KJ201801000-5655","latitude":"35.55547597","longitude":"139.7778811","source_code":"PORT1300A010126","project_name":"\u6e2f\u6e7e\u5c40","survey_name":"\u662d\u548c61\u5e74\u5ea6\u6771\u4eac\u7a7a\u6e2f\u5c64\u539a\u8abf\u67fb(\u305d\u306e7)","client_name":"\u56fd\u571f\u4ea4\u901a\u7701\u95a2\u6771\u5730\u65b9\u6574\u5099\u5c40\u6a2a\u6d5c\u6e2f\u6e7e\u7a7a\u6e2f\u6280\u8853\u8abf\u67fb\u4e8b\u52d9\u6240","boring_xml_url":0,"boring_view_url":0,"soilmap_view_url":66,"soiltest_xml_url":0,"soiltest_view_url":66},{"id":117405,"code":"B4KJ201801000-5654","latitude":"35.55575371","longitude":"139.7776034","source_code":"PORT1300A010125","project_name":"\u6e2f\u6e7e\u5c40","survey_name":"\u662d\u548c61\u5e74\u5ea6\u6771\u4eac\u7a7a\u6e2f\u5c64\u539a\u8abf\u67fb(\u305d\u306e7)","client_name":"\u56fd\u571f\u4ea4\u901a\u7701\u95a2\u6771\u5730\u65b9\u6574\u5099\u5c40\u6a2a\u6d5c\u6e2f\u6e7e\u7a7a\u6e2f\u6280\u8853\u8abf\u67fb\u4e8b\u52d9\u6240","boring_xml_url":0,"boring_view_url":0,"soilmap_view_url":66,"soiltest_xml_url":0,"soiltest_view_url":66},{"id":117404,"code":"B4KJ201801000-5653","latitude":"35.55603144","longitude":"139.7773256","source_code":"PORT1300A010124","project_name":"\u6e2f\u6e7e\u5c40","survey_name":"\u662d\u548c61\u5e74\u5ea6\u6771\u4eac\u7a7a\u6e2f\u5c64\u539a\u8abf\u67fb(\u305d\u306e7)","client_name":"\u56fd\u571f\u4ea4\u901a\u7701\u95a2\u6771\u5730\u65b9\u6574\u5099\u5c40\u6a2a\u6d5c\u6e2f\u6e7e\u7a7a\u6e2f\u6280\u8853\u8abf\u67fb\u4e8b\u52d9\u6240","boring_xml_url":0,"boring_view_url":0,"soilmap_view_url":66,"soiltest_xml_url":0,"soiltest_view_url":66},{"id":117403,"code":"B4KJ201801000-5652","latitude":"35.55658693","longitude":"139.7770478","source_code":"PORT1300A010123","project_name":"\u6e2f\u6e7e\u5c40","survey_name":"\u662d\u548c61\u5e74\u5ea6\u6771\u4eac\u7a7a\u6e2f\u5c64\u539a\u8abf\u67fb(\u305d\u306e7)","client_name":"\u56fd\u571f\u4ea4\u901a\u7701\u95a2\u6771\u5730\u65b9\u6574\u5099\u5c40\u6a2a\u6d5c\u6e2f\u6e7e\u7a7a\u6e2f\u6280\u8853\u8abf\u67fb\u4e8b\u52d9\u6240","boring_xml_url":0,"boring_view_url":0,"soilmap_view_url":66,"soiltest_xml_url":0,"soiltest_view_url":66},{"id":117402,"code":"B4KJ201801000-5651","latitude":"35.55686468","longitude":"139.7770478","source_code":"PORT1300A010122","project_name":"\u6e2f\u6e7e\u5c40","survey_name":"\u662d\u548c61\u5e74\u5ea6\u6771\u4eac\u7a7a\u6e2f\u5c64\u539a\u8abf\u67fb(\u305d\u306e7)","client_name":"\u56fd\u571f\u4ea4\u901a\u7701\u95a2\u6771\u5730\u65b9\u6574\u5099\u5c40\u6a2a\u6d5c\u6e2f\u6e7e\u7a7a\u6e2f\u6280\u8853\u8abf\u67fb\u4e8b\u52d9\u6240","boring_xml_url":0,"boring_view_url":0,"soilmap_view_url":66,"soiltest_xml_url":0,"soiltest_view_url":66},{"id":117401,"code":"B4KJ201801000-5650","latitude":"35.55742016","longitude":"139.77677","source_code":"PORT1300A010121","project_name":"\u6e2f\u6e7e\u5c40","survey_name":"\u662d\u548c61\u5e74\u5ea6\u6771\u4eac\u7a7a\u6e2f\u5c64\u539a\u8abf\u67fb(\u305d\u306e7)","client_name":"\u56fd\u571f\u4ea4\u901a\u7701\u95a2\u6771\u5730\u65b9\u6574\u5099\u5c40\u6a2a\u6d5c\u6e2f\u6e7e\u7a7a\u6e2f\u6280\u8853\u8abf\u67fb\u4e8b\u52d9\u6240","boring_xml_url":0,"boring_view_url":0,"soilmap_view_url":66,"soiltest_xml_url":0,"soiltest_view_url":66},{"id":117400,"code":"B4KJ201801000-5649","latitude":"35.5576979","longitude":"139.7764923","source_code":"PORT1300A010120","project_name":"\u6e2f\u6e7e\u5c40","survey_name":"\u662d\u548c61\u5e74\u5ea6\u6771\u4eac\u7a7a\u6e2f\u5c64\u539a\u8abf\u67fb(\u305d\u306e7)","client_name":"\u56fd\u571f\u4ea4\u901a\u7701\u95a2\u6771\u5730\u65b9\u6574\u5099\u5c40\u6a2a\u6d5c\u6e2f\u6e7e\u7a7a\u6e2f\u6280\u8853\u8abf\u67fb\u4e8b\u52d9\u6240","boring_xml_url":0,"boring_view_url":0,"soilmap_view_url":66,"soiltest_xml_url":0,"soiltest_view_url":66},{"id":117399,"code":"B4KJ201801000-5648","latitude":"35.55825339","longitude":"139.7762145","source_code":"PORT1300A010119","project_name":"\u6e2f\u6e7e\u5c40","survey_name":"\u662d\u548c61\u5e74\u5ea6\u6771\u4eac\u7a7a\u6e2f\u5c64\u539a\u8abf\u67fb(\u305d\u306e7)","client_name":"\u56fd\u571f\u4ea4\u901a\u7701\u95a2\u6771\u5730\u65b9\u6574\u5099\u5c40\u6a2a\u6d5c\u6e2f\u6e7e\u7a7a\u6e2f\u6280\u8853\u8abf\u67fb\u4e8b\u52d9\u6240","boring_xml_url":0,"boring_view_url":0,"soilmap_view_url":66,"soiltest_xml_url":0,"soiltest_view_url":66},{"id":117398,"code":"B4KJ201801000-5647","latitude":"35.55853113","longitude":"139.7759367","source_code":"PORT1300A010118","project_name":"\u6e2f\u6e7e\u5c40","survey_name":"\u662d\u548c61\u5e74\u5ea6\u6771\u4eac\u7a7a\u6e2f\u5c64\u539a\u8abf\u67fb(\u305d\u306e7)","client_name":"\u56fd\u571f\u4ea4\u901a\u7701\u95a2\u6771\u5730\u65b9\u6574\u5099\u5c40\u6a2a\u6d5c\u6e2f\u6e7e\u7a7a\u6e2f\u6280\u8853\u8abf\u67fb\u4e8b\u52d9\u6240","boring_xml_url":0,"boring_view_url":0,"soilmap_view_url":66,"soiltest_xml_url":0,"soiltest_view_url":66},{"id":117397,"code":"B4KJ201801000-5646","latitude":"35.55880886","longitude":"139.775659","source_code":"PORT1300A010117","project_name":"\u6e2f\u6e7e\u5c40","survey_name":"\u662d\u548c61\u5e74\u5ea6\u6771\u4eac\u7a7a\u6e2f\u5c64\u539a\u8abf\u67fb(\u305d\u306e7)","client_name":"\u56fd\u571f\u4ea4\u901a\u7701\u95a2\u6771\u5730\u65b9\u6574\u5099\u5c40\u6a2a\u6d5c\u6e2f\u6e7e\u7a7a\u6e2f\u6280\u8853\u8abf\u67fb\u4e8b\u52d9\u6240","boring_xml_url":0,"boring_view_url":0,"soilmap_view_url":66,"soiltest_xml_url":0,"soiltest_view_url":66},{"id":117396,"code":"B4KJ201801000-5645","latitude":"35.55936435","longitude":"139.7753812","source_code":"PORT1300A010116","project_name":"\u6e2f\u6e7e\u5c40","survey_name":"\u662d\u548c61\u5e74\u5ea6\u6771\u4eac\u7a7a\u6e2f\u5c64\u539a\u8abf\u67fb(\u305d\u306e7)","client_name":"\u56fd\u571f\u4ea4\u901a\u7701\u95a2\u6771\u5730\u65b9\u6574\u5099\u5c40\u6a2a\u6d5c\u6e2f\u6e7e\u7a7a\u6e2f\u6280\u8853\u8abf\u67fb\u4e8b\u52d9\u6240","boring_xml_url":0,"boring_view_url":0,"soilmap_view_url":66,"soiltest_xml_url":0,"soiltest_view_url":66},{"id":117395,"code":"B4KJ201801000-5644","latitude":"35.55964209","longitude":"139.7751034","source_code":"PORT1300A010115","project_name":"\u6e2f\u6e7e\u5c40","survey_name":"\u662d\u548c61\u5e74\u5ea6\u6771\u4eac\u7a7a\u6e2f\u5c64\u539a\u8abf\u67fb(\u305d\u306e7)","client_name":"\u56fd\u571f\u4ea4\u901a\u7701\u95a2\u6771\u5730\u65b9\u6574\u5099\u5c40\u6a2a\u6d5c\u6e2f\u6e7e\u7a7a\u6e2f\u6280\u8853\u8abf\u67fb\u4e8b\u52d9\u6240","boring_xml_url":0,"boring_view_url":0,"soilmap_view_url":66,"soiltest_xml_url":0,"soiltest_view_url":66},{"id":117394,"code":"B4KJ201801000-5643","latitude":"35.56019758","longitude":"139.7748257","source_code":"PORT1300A010114","project_name":"\u6e2f\u6e7e\u5c40","survey_name":"\u662d\u548c61\u5e74\u5ea6\u6771\u4eac\u7a7a\u6e2f\u5c64\u539a\u8abf\u67fb(\u305d\u306e7)","client_name":"\u56fd\u571f\u4ea4\u901a\u7701\u95a2\u6771\u5730\u65b9\u6574\u5099\u5c40\u6a2a\u6d5c\u6e2f\u6e7e\u7a7a\u6e2f\u6280\u8853\u8abf\u67fb\u4e8b\u52d9\u6240","boring_xml_url":0,"boring_view_url":0,"soilmap_view_url":66,"soiltest_xml_url":0,"soiltest_view_url":66},{"id":117393,"code":"B4KJ201801000-5642","latitude":"35.55353176","longitude":"139.7787145","source_code":"PORT1300A010113","project_name":"\u6e2f\u6e7e\u5c40","survey_name":"\u662d\u548c61\u5e74\u5ea6\u6771\u4eac\u7a7a\u6e2f\u5c64\u539a\u8abf\u67fb(\u305d\u306e7)","client_name":"\u56fd\u571f\u4ea4\u901a\u7701\u95a2\u6771\u5730\u65b9\u6574\u5099\u5c40\u6a2a\u6d5c\u6e2f\u6e7e\u7a7a\u6e2f\u6280\u8853\u8abf\u67fb\u4e8b\u52d9\u6240","boring_xml_url":0,"boring_view_url":0,"soilmap_view_url":66,"soiltest_xml_url":0,"soiltest_view_url":66},{"id":117392,"code":"B4KJ201801000-5641","latitude":"35.55408725","longitude":"139.7784367","source_code":"PORT1300A010112","project_name":"\u6e2f\u6e7e\u5c40","survey_name":"\u662d\u548c61\u5e74\u5ea6\u6771\u4eac\u7a7a\u6e2f\u5c64\u539a\u8abf\u67fb(\u305d\u306e7)","client_name":"\u56fd\u571f\u4ea4\u901a\u7701\u95a2\u6771\u5730\u65b9\u6574\u5099\u5c40\u6a2a\u6d5c\u6e2f\u6e7e\u7a7a\u6e2f\u6280\u8853\u8abf\u67fb\u4e8b\u52d9\u6240","boring_xml_url":0,"boring_view_url":0,"soilmap_view_url":66,"soiltest_xml_url":0,"soiltest_view_url":66},{"id":117391,"code":"B4KJ201801000-5640","latitude":"35.55436499","longitude":"139.7781589","source_code":"PORT1300A010111","project_name":"\u6e2f\u6e7e\u5c40","survey_name":"\u662d\u548c61\u5e74\u5ea6\u6771\u4eac\u7a7a\u6e2f\u5c64\u539a\u8abf\u67fb(\u305d\u306e7)","client_name":"\u56fd\u571f\u4ea4\u901a\u7701\u95a2\u6771\u5730\u65b9\u6574\u5099\u5c40\u6a2a\u6d5c\u6e2f\u6e7e\u7a7a\u6e2f\u6280\u8853\u8abf\u67fb\u4e8b\u52d9\u6240","boring_xml_url":0,"boring_view_url":0,"soilmap_view_url":66,"soiltest_xml_url":0,"soiltest_view_url":66},{"id":117390,"code":"B4KJ201801000-5639","latitude":"35.55464273","longitude":"139.7778812","source_code":"PORT1300A010110","project_name":"\u6e2f\u6e7e\u5c40","survey_name":"\u662d\u548c61\u5e74\u5ea6\u6771\u4eac\u7a7a\u6e2f\u5c64\u539a\u8abf\u67fb(\u305d\u306e7)","client_name":"\u56fd\u571f\u4ea4\u901a\u7701\u95a2\u6771\u5730\u65b9\u6574\u5099\u5c40\u6a2a\u6d5c\u6e2f\u6e7e\u7a7a\u6e2f\u6280\u8853\u8abf\u67fb\u4e8b\u52d9\u6240","boring_xml_url":0,"boring_view_url":0,"soilmap_view_url":66,"soiltest_xml_url":0,"soiltest_view_url":66},{"id":117389,"code":"B4KJ201801000-5638","latitude":"35.55519821","longitude":"139.7776034","source_code":"PORT1300A010109","project_name":"\u6e2f\u6e7e\u5c40","survey_name":"\u662d\u548c61\u5e74\u5ea6\u6771\u4eac\u7a7a\u6e2f\u5c64\u539a\u8abf\u67fb(\u305d\u306e7)","client_name":"\u56fd\u571f\u4ea4\u901a\u7701\u95a2\u6771\u5730\u65b9\u6574\u5099\u5c40\u6a2a\u6d5c\u6e2f\u6e7e\u7a7a\u6e2f\u6280\u8853\u8abf\u67fb\u4e8b\u52d9\u6240","boring_xml_url":0,"boring_view_url":0,"soilmap_view_url":66,"soiltest_xml_url":0,"soiltest_view_url":66},{"id":117388,"code":"B4KJ201801000-5637","latitude":"35.55547595","longitude":"139.7773256","source_code":"PORT1300A010108","project_name":"\u6e2f\u6e7e\u5c40","survey_name":"\u662d\u548c61\u5e74\u5ea6\u6771\u4eac\u7a7a\u6e2f\u5c64\u539a\u8abf\u67fb(\u305d\u306e7)","client_name":"\u56fd\u571f\u4ea4\u901a\u7701\u95a2\u6771\u5730\u65b9\u6574\u5099\u5c40\u6a2a\u6d5c\u6e2f\u6e7e\u7a7a\u6e2f\u6280\u8853\u8abf\u67fb\u4e8b\u52d9\u6240","boring_xml_url":0,"boring_view_url":0,"soilmap_view_url":66,"soiltest_xml_url":0,"soiltest_view_url":66},{"id":117387,"code":"B4KJ201801000-5636","latitude":"35.55603144","longitude":"139.7770479","source_code":"PORT1300A010107","project_name":"\u6e2f\u6e7e\u5c40","survey_name":"\u662d\u548c61\u5e74\u5ea6\u6771\u4eac\u7a7a\u6e2f\u5c64\u539a\u8abf\u67fb(\u305d\u306e7)","client_name":"\u56fd\u571f\u4ea4\u901a\u7701\u95a2\u6771\u5730\u65b9\u6574\u5099\u5c40\u6a2a\u6d5c\u6e2f\u6e7e\u7a7a\u6e2f\u6280\u8853\u8abf\u67fb\u4e8b\u52d9\u6240","boring_xml_url":0,"boring_view_url":0,"soilmap_view_url":66,"soiltest_xml_url":0,"soiltest_view_url":66},{"id":117386,"code":"B4KJ201801000-5635","latitude":"35.55630918","longitude":"139.7767701","source_code":"PORT1300A010106","project_name":"\u6e2f\u6e7e\u5c40","survey_name":"\u662d\u548c61\u5e74\u5ea6\u6771\u4eac\u7a7a\u6e2f\u5c64\u539a\u8abf\u67fb(\u305d\u306e7)","client_name":"\u56fd\u571f\u4ea4\u901a\u7701\u95a2\u6771\u5730\u65b9\u6574\u5099\u5c40\u6a2a\u6d5c\u6e2f\u6e7e\u7a7a\u6e2f\u6280\u8853\u8abf\u67fb\u4e8b\u52d9\u6240","boring_xml_url":0,"boring_view_url":0,"soilmap_view_url":66,"soiltest_xml_url":0,"soiltest_view_url":66}]}}