{"header":{"xyz":{"source":[],"mosaic":false},"page":6778,"raw":{"soiltest_result":"0","bbox":"57.598333,109.544722,1.933333,163.806111","page":"6778"},"conditions":{"soiltest_result":0,"north":57.598333,"west":109.544722,"south":1.933333,"east":163.806111},"success":true,"message":""},"data":{"meta":{"total":212844,"page":6778,"pages":7095,"count":30},"values":[{"id":117235,"code":"B4KJ201801000-5484","latitude":"35.67352363","longitude":"139.9770262","source_code":"PORT12001010009","project_name":"\u6e2f\u6e7e\u5c40","survey_name":"\u5e73\u62102\u5e74\u5ea6\u5343\u8449\u6e2f\u8239\u6a4b\u897f\u90e8\u5730\u533a\u5cb8\u58c1(-10m)(\u6539\u826f)\u571f\u8cea\u8abf\u67fb","client_name":"\u56fd\u571f\u4ea4\u901a\u7701\u95a2\u6771\u5730\u65b9\u6574\u5099\u5c40\u6a2a\u6d5c\u6e2f\u6e7e\u7a7a\u6e2f\u6280\u8853\u8abf\u67fb\u4e8b\u52d9\u6240","boring_xml_url":0,"boring_view_url":0,"soilmap_view_url":66,"soiltest_xml_url":0,"soiltest_view_url":66},{"id":117234,"code":"B4KJ201801000-5483","latitude":"35.59464672","longitude":"140.092853","source_code":"PORT12001010008","project_name":"\u6e2f\u6e7e\u5c40","survey_name":"\u5e73\u6210\u5143\u5e74\u5ea6\u5343\u8449\u6e2f\u5343\u8449\u4e2d\u592e\u5730\u533a\u5cb8\u58c1(-12m)(\u6539\u826f)\u571f\u8cea\u8abf\u67fb","client_name":"\u56fd\u571f\u4ea4\u901a\u7701\u95a2\u6771\u5730\u65b9\u6574\u5099\u5c40\u6a2a\u6d5c\u6e2f\u6e7e\u7a7a\u6e2f\u6280\u8853\u8abf\u67fb\u4e8b\u52d9\u6240","boring_xml_url":0,"boring_view_url":0,"soilmap_view_url":66,"soiltest_xml_url":0,"soiltest_view_url":66},{"id":117233,"code":"B4KJ201801000-5482","latitude":"35.59464675","longitude":"140.093964","source_code":"PORT12001010007","project_name":"\u6e2f\u6e7e\u5c40","survey_name":"\u5e73\u6210\u5143\u5e74\u5ea6\u5343\u8449\u6e2f\u5343\u8449\u4e2d\u592e\u5730\u533a\u5cb8\u58c1(-12m)(\u6539\u826f)\u571f\u8cea\u8abf\u67fb","client_name":"\u56fd\u571f\u4ea4\u901a\u7701\u95a2\u6771\u5730\u65b9\u6574\u5099\u5c40\u6a2a\u6d5c\u6e2f\u6e7e\u7a7a\u6e2f\u6280\u8853\u8abf\u67fb\u4e8b\u52d9\u6240","boring_xml_url":0,"boring_view_url":0,"soilmap_view_url":66,"soiltest_xml_url":0,"soiltest_view_url":66},{"id":117232,"code":"B4KJ201801000-5481","latitude":"35.59464678","longitude":"140.0953528","source_code":"PORT12001010006","project_name":"\u6e2f\u6e7e\u5c40","survey_name":"\u5e73\u6210\u5143\u5e74\u5ea6\u5343\u8449\u6e2f\u5343\u8449\u4e2d\u592e\u5730\u533a\u5cb8\u58c1(-12m)(\u6539\u826f)\u571f\u8cea\u8abf\u67fb","client_name":"\u56fd\u571f\u4ea4\u901a\u7701\u95a2\u6771\u5730\u65b9\u6574\u5099\u5c40\u6a2a\u6d5c\u6e2f\u6e7e\u7a7a\u6e2f\u6280\u8853\u8abf\u67fb\u4e8b\u52d9\u6240","boring_xml_url":0,"boring_view_url":0,"soilmap_view_url":66,"soiltest_xml_url":0,"soiltest_view_url":66},{"id":117231,"code":"B4KJ201801000-5480","latitude":"35.59464681","longitude":"140.0964638","source_code":"PORT12001010005","project_name":"\u6e2f\u6e7e\u5c40","survey_name":"\u5e73\u6210\u5143\u5e74\u5ea6\u5343\u8449\u6e2f\u5343\u8449\u4e2d\u592e\u5730\u533a\u5cb8\u58c1(-12m)(\u6539\u826f)\u571f\u8cea\u8abf\u67fb","client_name":"\u56fd\u571f\u4ea4\u901a\u7701\u95a2\u6771\u5730\u65b9\u6574\u5099\u5c40\u6a2a\u6d5c\u6e2f\u6e7e\u7a7a\u6e2f\u6280\u8853\u8abf\u67fb\u4e8b\u52d9\u6240","boring_xml_url":0,"boring_view_url":0,"soilmap_view_url":66,"soiltest_xml_url":0,"soiltest_view_url":66},{"id":117230,"code":"B4KJ201801000-5479","latitude":"35.59492436","longitude":"140.0889644","source_code":"PORT12001010004","project_name":"\u6e2f\u6e7e\u5c40","survey_name":"\u5e73\u6210\u5143\u5e74\u5ea6\u5343\u8449\u6e2f\u5343\u8449\u4e2d\u592e\u5730\u533a\u5cb8\u58c1(-12m)(\u6539\u826f)\u571f\u8cea\u8abf\u67fb","client_name":"\u56fd\u571f\u4ea4\u901a\u7701\u95a2\u6771\u5730\u65b9\u6574\u5099\u5c40\u6a2a\u6d5c\u6e2f\u6e7e\u7a7a\u6e2f\u6280\u8853\u8abf\u67fb\u4e8b\u52d9\u6240","boring_xml_url":0,"boring_view_url":0,"soilmap_view_url":66,"soiltest_xml_url":0,"soiltest_view_url":66},{"id":117229,"code":"B4KJ201801000-5478","latitude":"35.59492436","longitude":"140.0889644","source_code":"PORT12001010003","project_name":"\u6e2f\u6e7e\u5c40","survey_name":"\u5e73\u6210\u5143\u5e74\u5ea6\u5343\u8449\u6e2f\u5343\u8449\u4e2d\u592e\u5730\u533a\u5cb8\u58c1(-12m)(\u6539\u826f)\u571f\u8cea\u8abf\u67fb","client_name":"\u56fd\u571f\u4ea4\u901a\u7701\u95a2\u6771\u5730\u65b9\u6574\u5099\u5c40\u6a2a\u6d5c\u6e2f\u6e7e\u7a7a\u6e2f\u6280\u8853\u8abf\u67fb\u4e8b\u52d9\u6240","boring_xml_url":0,"boring_view_url":0,"soilmap_view_url":66,"soiltest_xml_url":0,"soiltest_view_url":66},{"id":117228,"code":"B4KJ201801000-5477","latitude":"35.5949244","longitude":"140.0903532","source_code":"PORT12001010002","project_name":"\u6e2f\u6e7e\u5c40","survey_name":"\u5e73\u6210\u5143\u5e74\u5ea6\u5343\u8449\u6e2f\u5343\u8449\u4e2d\u592e\u5730\u533a\u5cb8\u58c1(-12m)(\u6539\u826f)\u571f\u8cea\u8abf\u67fb","client_name":"\u56fd\u571f\u4ea4\u901a\u7701\u95a2\u6771\u5730\u65b9\u6574\u5099\u5c40\u6a2a\u6d5c\u6e2f\u6e7e\u7a7a\u6e2f\u6280\u8853\u8abf\u67fb\u4e8b\u52d9\u6240","boring_xml_url":0,"boring_view_url":0,"soilmap_view_url":66,"soiltest_xml_url":0,"soiltest_view_url":66},{"id":117227,"code":"B4KJ201801000-5476","latitude":"35.59492443","longitude":"140.0914642","source_code":"PORT12001010000","project_name":"\u6e2f\u6e7e\u5c40","survey_name":"\u5e73\u6210\u5143\u5e74\u5ea6\u5343\u8449\u6e2f\u5343\u8449\u4e2d\u592e\u5730\u533a\u5cb8\u58c1(-12m)(\u6539\u826f)\u571f\u8cea\u8abf\u67fb","client_name":"\u56fd\u571f\u4ea4\u901a\u7701\u95a2\u6771\u5730\u65b9\u6574\u5099\u5c40\u6a2a\u6d5c\u6e2f\u6e7e\u7a7a\u6e2f\u6280\u8853\u8abf\u67fb\u4e8b\u52d9\u6240","boring_xml_url":0,"boring_view_url":0,"soilmap_view_url":66,"soiltest_xml_url":0,"soiltest_view_url":66},{"id":117226,"code":"B4KJ201801000-5475","latitude":"36.39234986","longitude":"140.6413845","source_code":"PORT08009010135","project_name":"\u6e2f\u6e7e\u5c40","survey_name":"\u5e73\u621010\u5e74\u5ea6\u5e38\u9678\u90a3\u73c2\u6e2f\u571f\u8cea\u8abf\u67fb(\u305d\u306e3)","client_name":"\u56fd\u571f\u4ea4\u901a\u7701\u95a2\u6771\u5730\u65b9\u6574\u5099\u5c40\u6a2a\u6d5c\u6e2f\u6e7e\u7a7a\u6e2f\u6280\u8853\u8abf\u67fb\u4e8b\u52d9\u6240","boring_xml_url":0,"boring_view_url":0,"soilmap_view_url":66,"soiltest_xml_url":0,"soiltest_view_url":0},{"id":117225,"code":"B4KJ201801000-5474","latitude":"36.42206837","longitude":"140.6286066","source_code":"PORT08009010134","project_name":"\u6e2f\u6e7e\u5c40","survey_name":"\u5e73\u621010\u5e74\u5ea6\u5e38\u9678\u90a3\u73c2\u6e2f\u571f\u8cea\u8abf\u67fb(\u305d\u306e3)","client_name":"\u56fd\u571f\u4ea4\u901a\u7701\u95a2\u6771\u5730\u65b9\u6574\u5099\u5c40\u6a2a\u6d5c\u6e2f\u6e7e\u7a7a\u6e2f\u6280\u8853\u8abf\u67fb\u4e8b\u52d9\u6240","boring_xml_url":0,"boring_view_url":0,"soilmap_view_url":66,"soiltest_xml_url":0,"soiltest_view_url":0},{"id":117224,"code":"B4KJ201801000-5473","latitude":"36.42206833","longitude":"140.6272178","source_code":"PORT08009010133","project_name":"\u6e2f\u6e7e\u5c40","survey_name":"\u5e73\u621010\u5e74\u5ea6\u5e38\u9678\u90a3\u73c2\u6e2f\u571f\u8cea\u8abf\u67fb(\u305d\u306e3)","client_name":"\u56fd\u571f\u4ea4\u901a\u7701\u95a2\u6771\u5730\u65b9\u6574\u5099\u5c40\u6a2a\u6d5c\u6e2f\u6e7e\u7a7a\u6e2f\u6280\u8853\u8abf\u67fb\u4e8b\u52d9\u6240","boring_xml_url":0,"boring_view_url":0,"soilmap_view_url":66,"soiltest_xml_url":0,"soiltest_view_url":0},{"id":117223,"code":"B4KJ201801000-5472","latitude":"36.42734548","longitude":"140.6261066","source_code":"PORT08009010128","project_name":"\u6e2f\u6e7e\u5c40","survey_name":"\u5e73\u62109\u5e74\u5ea6\u5e38\u9678\u90a3\u73c2\u6e2f\u571f\u8cea\u8abf\u67fb","client_name":"\u56fd\u571f\u4ea4\u901a\u7701\u95a2\u6771\u5730\u65b9\u6574\u5099\u5c40\u6a2a\u6d5c\u6e2f\u6e7e\u7a7a\u6e2f\u6280\u8853\u8abf\u67fb\u4e8b\u52d9\u6240","boring_xml_url":0,"boring_view_url":0,"soilmap_view_url":66,"soiltest_xml_url":0,"soiltest_view_url":0},{"id":117222,"code":"B4KJ201801000-5471","latitude":"36.42734542","longitude":"140.6238845","source_code":"PORT08009010127","project_name":"\u6e2f\u6e7e\u5c40","survey_name":"\u5e73\u62109\u5e74\u5ea6\u5e38\u9678\u90a3\u73c2\u6e2f\u571f\u8cea\u8abf\u67fb","client_name":"\u56fd\u571f\u4ea4\u901a\u7701\u95a2\u6771\u5730\u65b9\u6574\u5099\u5c40\u6a2a\u6d5c\u6e2f\u6e7e\u7a7a\u6e2f\u6280\u8853\u8abf\u67fb\u4e8b\u52d9\u6240","boring_xml_url":0,"boring_view_url":0,"soilmap_view_url":66,"soiltest_xml_url":0,"soiltest_view_url":66},{"id":117221,"code":"B4KJ201801000-5470","latitude":"36.42734536","longitude":"140.6216625","source_code":"PORT08009010126","project_name":"\u6e2f\u6e7e\u5c40","survey_name":"\u5e73\u62109\u5e74\u5ea6\u5e38\u9678\u90a3\u73c2\u6e2f\u571f\u8cea\u8abf\u67fb","client_name":"\u56fd\u571f\u4ea4\u901a\u7701\u95a2\u6771\u5730\u65b9\u6574\u5099\u5c40\u6a2a\u6d5c\u6e2f\u6e7e\u7a7a\u6e2f\u6280\u8853\u8abf\u67fb\u4e8b\u52d9\u6240","boring_xml_url":0,"boring_view_url":0,"soilmap_view_url":66,"soiltest_xml_url":0,"soiltest_view_url":0},{"id":117220,"code":"B4KJ201801000-5469","latitude":"36.4273453","longitude":"140.6194404","source_code":"PORT08009010125","project_name":"\u6e2f\u6e7e\u5c40","survey_name":"\u5e73\u62109\u5e74\u5ea6\u5e38\u9678\u90a3\u73c2\u6e2f\u571f\u8cea\u8abf\u67fb","client_name":"\u56fd\u571f\u4ea4\u901a\u7701\u95a2\u6771\u5730\u65b9\u6574\u5099\u5c40\u6a2a\u6d5c\u6e2f\u6e7e\u7a7a\u6e2f\u6280\u8853\u8abf\u67fb\u4e8b\u52d9\u6240","boring_xml_url":0,"boring_view_url":0,"soilmap_view_url":66,"soiltest_xml_url":0,"soiltest_view_url":66},{"id":117219,"code":"B4KJ201801000-5468","latitude":"36.44095526","longitude":"140.6333276","source_code":"PORT08009010124","project_name":"\u6e2f\u6e7e\u5c40","survey_name":"\u5e73\u62108\u5e74\u5ea6\u5e38\u9678\u90a3\u6e2f\u571f\u8cea\u8abf\u67fb","client_name":"\u56fd\u571f\u4ea4\u901a\u7701\u95a2\u6771\u5730\u65b9\u6574\u5099\u5c40\u6a2a\u6d5c\u6e2f\u6e7e\u7a7a\u6e2f\u6280\u8853\u8abf\u67fb\u4e8b\u52d9\u6240","boring_xml_url":0,"boring_view_url":0,"soilmap_view_url":66,"soiltest_xml_url":0,"soiltest_view_url":66},{"id":117218,"code":"B4KJ201801000-5467","latitude":"36.44039973","longitude":"140.6319388","source_code":"PORT08009010123","project_name":"\u6e2f\u6e7e\u5c40","survey_name":"\u5e73\u62108\u5e74\u5ea6\u5e38\u9678\u90a3\u6e2f\u571f\u8cea\u8abf\u67fb","client_name":"\u56fd\u571f\u4ea4\u901a\u7701\u95a2\u6771\u5730\u65b9\u6574\u5099\u5c40\u6a2a\u6d5c\u6e2f\u6e7e\u7a7a\u6e2f\u6280\u8853\u8abf\u67fb\u4e8b\u52d9\u6240","boring_xml_url":0,"boring_view_url":0,"soilmap_view_url":66,"soiltest_xml_url":0,"soiltest_view_url":66},{"id":117217,"code":"B4KJ201801000-5466","latitude":"36.44095522","longitude":"140.6319388","source_code":"PORT08009010122","project_name":"\u6e2f\u6e7e\u5c40","survey_name":"\u5e73\u62108\u5e74\u5ea6\u5e38\u9678\u90a3\u6e2f\u571f\u8cea\u8abf\u67fb","client_name":"\u56fd\u571f\u4ea4\u901a\u7701\u95a2\u6771\u5730\u65b9\u6574\u5099\u5c40\u6a2a\u6d5c\u6e2f\u6e7e\u7a7a\u6e2f\u6280\u8853\u8abf\u67fb\u4e8b\u52d9\u6240","boring_xml_url":0,"boring_view_url":0,"soilmap_view_url":66,"soiltest_xml_url":0,"soiltest_view_url":66},{"id":117216,"code":"B4KJ201801000-5465","latitude":"36.44151071","longitude":"140.6319388","source_code":"PORT08009010121","project_name":"\u6e2f\u6e7e\u5c40","survey_name":"\u5e73\u62108\u5e74\u5ea6\u5e38\u9678\u90a3\u6e2f\u571f\u8cea\u8abf\u67fb","client_name":"\u56fd\u571f\u4ea4\u901a\u7701\u95a2\u6771\u5730\u65b9\u6574\u5099\u5c40\u6a2a\u6d5c\u6e2f\u6e7e\u7a7a\u6e2f\u6280\u8853\u8abf\u67fb\u4e8b\u52d9\u6240","boring_xml_url":0,"boring_view_url":0,"soilmap_view_url":66,"soiltest_xml_url":0,"soiltest_view_url":66},{"id":117215,"code":"B4KJ201801000-5464","latitude":"36.44095514","longitude":"140.6291613","source_code":"PORT08009010120","project_name":"\u6e2f\u6e7e\u5c40","survey_name":"\u5e73\u62108\u5e74\u5ea6\u5e38\u9678\u90a3\u6e2f\u571f\u8cea\u8abf\u67fb","client_name":"\u56fd\u571f\u4ea4\u901a\u7701\u95a2\u6771\u5730\u65b9\u6574\u5099\u5c40\u6a2a\u6d5c\u6e2f\u6e7e\u7a7a\u6e2f\u6280\u8853\u8abf\u67fb\u4e8b\u52d9\u6240","boring_xml_url":0,"boring_view_url":0,"soilmap_view_url":66,"soiltest_xml_url":0,"soiltest_view_url":66},{"id":117214,"code":"B4KJ201801000-5463","latitude":"36.4306782","longitude":"140.617496","source_code":"PORT08009010119","project_name":"\u6e2f\u6e7e\u5c40","survey_name":"\u5e73\u62105\u5e74\u5ea6\u5e38\u9678\u90a3\u73c2\u6e2f\u7b2c4\u3075\u982d\u5730\u533a\u5cb8\u58c1(-12m)\u571f\u8cea\u8abf\u67fb","client_name":"\u56fd\u571f\u4ea4\u901a\u7701\u95a2\u6771\u5730\u65b9\u6574\u5099\u5c40\u6a2a\u6d5c\u6e2f\u6e7e\u7a7a\u6e2f\u6280\u8853\u8abf\u67fb\u4e8b\u52d9\u6240","boring_xml_url":0,"boring_view_url":0,"soilmap_view_url":66,"soiltest_xml_url":0,"soiltest_view_url":66},{"id":117213,"code":"B4KJ201801000-5462","latitude":"36.43067822","longitude":"140.6183293","source_code":"PORT08009010118","project_name":"\u6e2f\u6e7e\u5c40","survey_name":"\u5e73\u62105\u5e74\u5ea6\u5e38\u9678\u90a3\u73c2\u6e2f\u7b2c4\u3075\u982d\u5730\u533a\u5cb8\u58c1(-12m)\u571f\u8cea\u8abf\u67fb","client_name":"\u56fd\u571f\u4ea4\u901a\u7701\u95a2\u6771\u5730\u65b9\u6574\u5099\u5c40\u6a2a\u6d5c\u6e2f\u6e7e\u7a7a\u6e2f\u6280\u8853\u8abf\u67fb\u4e8b\u52d9\u6240","boring_xml_url":0,"boring_view_url":0,"soilmap_view_url":66,"soiltest_xml_url":0,"soiltest_view_url":66},{"id":117212,"code":"B4KJ201801000-5461","latitude":"36.43067824","longitude":"140.6188848","source_code":"PORT08009010117","project_name":"\u6e2f\u6e7e\u5c40","survey_name":"\u5e73\u62105\u5e74\u5ea6\u5e38\u9678\u90a3\u73c2\u6e2f\u7b2c4\u3075\u982d\u5730\u533a\u5cb8\u58c1(-12m)\u571f\u8cea\u8abf\u67fb","client_name":"\u56fd\u571f\u4ea4\u901a\u7701\u95a2\u6771\u5730\u65b9\u6574\u5099\u5c40\u6a2a\u6d5c\u6e2f\u6e7e\u7a7a\u6e2f\u6280\u8853\u8abf\u67fb\u4e8b\u52d9\u6240","boring_xml_url":0,"boring_view_url":0,"soilmap_view_url":66,"soiltest_xml_url":0,"soiltest_view_url":66},{"id":117211,"code":"B4KJ201801000-5460","latitude":"36.43067826","longitude":"140.6194403","source_code":"PORT08009010116","project_name":"\u6e2f\u6e7e\u5c40","survey_name":"\u5e73\u62105\u5e74\u5ea6\u5e38\u9678\u90a3\u73c2\u6e2f\u7b2c4\u3075\u982d\u5730\u533a\u5cb8\u58c1(-12m)\u571f\u8cea\u8abf\u67fb","client_name":"\u56fd\u571f\u4ea4\u901a\u7701\u95a2\u6771\u5730\u65b9\u6574\u5099\u5c40\u6a2a\u6d5c\u6e2f\u6e7e\u7a7a\u6e2f\u6280\u8853\u8abf\u67fb\u4e8b\u52d9\u6240","boring_xml_url":0,"boring_view_url":0,"soilmap_view_url":66,"soiltest_xml_url":0,"soiltest_view_url":66},{"id":117210,"code":"B4KJ201801000-5459","latitude":"36.43095612","longitude":"140.6236066","source_code":"PORT08009010115","project_name":"\u6e2f\u6e7e\u5c40","survey_name":"\u5e73\u62104\u5e74\u5ea6\u5e38\u9678\u90a3\u73c2\u6e2f\u7b2c4\u3075\u982d\u5730\u533a\u5cb8\u58c1(-14m)\u571f\u8cea\u8abf\u67fb","client_name":"\u56fd\u571f\u4ea4\u901a\u7701\u95a2\u6771\u5730\u65b9\u6574\u5099\u5c40\u6a2a\u6d5c\u6e2f\u6e7e\u7a7a\u6e2f\u6280\u8853\u8abf\u67fb\u4e8b\u52d9\u6240","boring_xml_url":0,"boring_view_url":0,"soilmap_view_url":66,"soiltest_xml_url":0,"soiltest_view_url":66},{"id":117209,"code":"B4KJ201801000-5458","latitude":"36.43095616","longitude":"140.6249954","source_code":"PORT08009010114","project_name":"\u6e2f\u6e7e\u5c40","survey_name":"\u5e73\u62104\u5e74\u5ea6\u5e38\u9678\u90a3\u73c2\u6e2f\u7b2c4\u3075\u982d\u5730\u533a\u5cb8\u58c1(-14m)\u571f\u8cea\u8abf\u67fb","client_name":"\u56fd\u571f\u4ea4\u901a\u7701\u95a2\u6771\u5730\u65b9\u6574\u5099\u5c40\u6a2a\u6d5c\u6e2f\u6e7e\u7a7a\u6e2f\u6280\u8853\u8abf\u67fb\u4e8b\u52d9\u6240","boring_xml_url":0,"boring_view_url":0,"soilmap_view_url":66,"soiltest_xml_url":0,"soiltest_view_url":0},{"id":117208,"code":"B4KJ201801000-5457","latitude":"36.43095619","longitude":"140.6261064","source_code":"PORT08009010113","project_name":"\u6e2f\u6e7e\u5c40","survey_name":"\u5e73\u62104\u5e74\u5ea6\u5e38\u9678\u90a3\u73c2\u6e2f\u7b2c4\u3075\u982d\u5730\u533a\u5cb8\u58c1(-14m)\u571f\u8cea\u8abf\u67fb","client_name":"\u56fd\u571f\u4ea4\u901a\u7701\u95a2\u6771\u5730\u65b9\u6574\u5099\u5c40\u6a2a\u6d5c\u6e2f\u6e7e\u7a7a\u6e2f\u6280\u8853\u8abf\u67fb\u4e8b\u52d9\u6240","boring_xml_url":0,"boring_view_url":0,"soilmap_view_url":66,"soiltest_xml_url":0,"soiltest_view_url":66},{"id":117207,"code":"B4KJ201801000-5456","latitude":"36.43095623","longitude":"140.6277729","source_code":"PORT08009010112","project_name":"\u6e2f\u6e7e\u5c40","survey_name":"\u5e73\u62104\u5e74\u5ea6\u5e38\u9678\u90a3\u73c2\u6e2f\u7b2c4\u3075\u982d\u5730\u533a\u5cb8\u58c1(-14m)\u571f\u8cea\u8abf\u67fb","client_name":"\u56fd\u571f\u4ea4\u901a\u7701\u95a2\u6771\u5730\u65b9\u6574\u5099\u5c40\u6a2a\u6d5c\u6e2f\u6e7e\u7a7a\u6e2f\u6280\u8853\u8abf\u67fb\u4e8b\u52d9\u6240","boring_xml_url":0,"boring_view_url":0,"soilmap_view_url":66,"soiltest_xml_url":0,"soiltest_view_url":66},{"id":117206,"code":"B4KJ201801000-5455","latitude":"36.43984438","longitude":"140.6372162","source_code":"PORT08009010107","project_name":"\u6e2f\u6e7e\u5c40","survey_name":"\u5e73\u62103\u5e74\u5ea6\u5e38\u9678\u90a3\u73c2\u6e2f\u6771\u9632\u6ce2\u5824\u571f\u8cea\u8abf\u67fb","client_name":"\u56fd\u571f\u4ea4\u901a\u7701\u95a2\u6771\u5730\u65b9\u6574\u5099\u5c40\u6a2a\u6d5c\u6e2f\u6e7e\u7a7a\u6e2f\u6280\u8853\u8abf\u67fb\u4e8b\u52d9\u6240","boring_xml_url":0,"boring_view_url":0,"soilmap_view_url":66,"soiltest_xml_url":0,"soiltest_view_url":66}]}}