{"header":{"xyz":{"source":[],"mosaic":false},"page":6788,"raw":{"soiltest_result":"0","bbox":"57.598333,109.544722,1.933333,163.806111","page":"6788"},"conditions":{"soiltest_result":0,"north":57.598333,"west":109.544722,"south":1.933333,"east":163.806111},"success":true,"message":""},"data":{"meta":{"total":212844,"page":6788,"pages":7095,"count":30},"values":[{"id":116935,"code":"B4KJ201801000-5184","latitude":"36.21669609","longitude":"136.1395598","source_code":"PORT18005010055","project_name":"\u6e2f\u6e7e\u5c40","survey_name":"\u798f\u4e95\u6e2f\u6a4b\u6881\u53ca\u3073\u9053\u8def\u571f\u8cea\u8abf\u67fb","client_name":"\u56fd\u571f\u4ea4\u901a\u7701\u5317\u9678\u5730\u65b9\u6574\u5099\u5c40\u65b0\u6f5f\u6e2f\u6e7e\u7a7a\u6e2f\u6280\u8853\u8abf\u67fb\u4e8b\u52d9\u6240","boring_xml_url":0,"boring_view_url":0,"soilmap_view_url":66,"soiltest_xml_url":0,"soiltest_view_url":66},{"id":116934,"code":"B4KJ201801000-5183","latitude":"36.21419634","longitude":"136.1378933","source_code":"PORT18005010054","project_name":"\u6e2f\u6e7e\u5c40","survey_name":"\u798f\u4e95\u6e2f\u6a4b\u6881\u53ca\u3073\u9053\u8def\u571f\u8cea\u8abf\u67fb","client_name":"\u56fd\u571f\u4ea4\u901a\u7701\u5317\u9678\u5730\u65b9\u6574\u5099\u5c40\u65b0\u6f5f\u6e2f\u6e7e\u7a7a\u6e2f\u6280\u8853\u8abf\u67fb\u4e8b\u52d9\u6240","boring_xml_url":0,"boring_view_url":0,"soilmap_view_url":66,"soiltest_xml_url":0,"soiltest_view_url":66},{"id":116933,"code":"B4KJ201801000-5182","latitude":"36.21058565","longitude":"136.1378935","source_code":"PORT18005010053","project_name":"\u6e2f\u6e7e\u5c40","survey_name":"\u798f\u4e95\u6e2f\u6a4b\u6881\u53ca\u3073\u9053\u8def\u571f\u8cea\u8abf\u67fb","client_name":"\u56fd\u571f\u4ea4\u901a\u7701\u5317\u9678\u5730\u65b9\u6574\u5099\u5c40\u65b0\u6f5f\u6e2f\u6e7e\u7a7a\u6e2f\u6280\u8853\u8abf\u67fb\u4e8b\u52d9\u6240","boring_xml_url":0,"boring_view_url":0,"soilmap_view_url":66,"soiltest_xml_url":0,"soiltest_view_url":66},{"id":116932,"code":"B4KJ201801000-5181","latitude":"36.21641833","longitude":"136.1387265","source_code":"PORT18005010052","project_name":"\u6e2f\u6e7e\u5c40","survey_name":"\u798f\u4e95\u6e2f(\u4e09\u56fd\u5730\u533a)\u6a4b\u6881\u571f\u8cea\u8abf\u67fb(\u305d\u306e2)4-6","client_name":"\u56fd\u571f\u4ea4\u901a\u7701\u5317\u9678\u5730\u65b9\u6574\u5099\u5c40\u65b0\u6f5f\u6e2f\u6e7e\u7a7a\u6e2f\u6280\u8853\u8abf\u67fb\u4e8b\u52d9\u6240","boring_xml_url":0,"boring_view_url":0,"soilmap_view_url":66,"soiltest_xml_url":0,"soiltest_view_url":66},{"id":116931,"code":"B4KJ201801000-5180","latitude":"36.21947358","longitude":"136.1406707","source_code":"PORT18005010050","project_name":"\u6e2f\u6e7e\u5c40","survey_name":"\u798f\u4e95\u6e2f(\u4e09\u56fd\u5730\u533a)\u6a4b\u6881\u571f\u8cea\u8abf\u67fb(\u305d\u306e2)4-4","client_name":"\u56fd\u571f\u4ea4\u901a\u7701\u5317\u9678\u5730\u65b9\u6574\u5099\u5c40\u65b0\u6f5f\u6e2f\u6e7e\u7a7a\u6e2f\u6280\u8853\u8abf\u67fb\u4e8b\u52d9\u6240","boring_xml_url":0,"boring_view_url":0,"soilmap_view_url":66,"soiltest_xml_url":0,"soiltest_view_url":66},{"id":116930,"code":"B4KJ201801000-5179","latitude":"36.21780708","longitude":"136.1395597","source_code":"PORT18005010049","project_name":"\u6e2f\u6e7e\u5c40","survey_name":"\u798f\u4e95\u6e2f(\u4e09\u56fd\u5730\u533a)\u6a4b\u6881\u571f\u8cea\u8abf\u67fb(\u305d\u306e2)4-3","client_name":"\u56fd\u571f\u4ea4\u901a\u7701\u5317\u9678\u5730\u65b9\u6574\u5099\u5c40\u65b0\u6f5f\u6e2f\u6e7e\u7a7a\u6e2f\u6280\u8853\u8abf\u67fb\u4e8b\u52d9\u6240","boring_xml_url":0,"boring_view_url":0,"soilmap_view_url":66,"soiltest_xml_url":0,"soiltest_view_url":66},{"id":116929,"code":"B4KJ201801000-5178","latitude":"36.21641833","longitude":"136.1387265","source_code":"PORT18005010048","project_name":"\u6e2f\u6e7e\u5c40","survey_name":"\u798f\u4e95\u6e2f(\u4e09\u56fd\u5730\u533a)\u6a4b\u6881\u571f\u8cea\u8abf\u67fb(\u305d\u306e2)4-2","client_name":"\u56fd\u571f\u4ea4\u901a\u7701\u5317\u9678\u5730\u65b9\u6574\u5099\u5c40\u65b0\u6f5f\u6e2f\u6e7e\u7a7a\u6e2f\u6280\u8853\u8abf\u67fb\u4e8b\u52d9\u6240","boring_xml_url":0,"boring_view_url":0,"soilmap_view_url":66,"soiltest_xml_url":0,"soiltest_view_url":66},{"id":116928,"code":"B4KJ201801000-5177","latitude":"36.21586282","longitude":"136.138171","source_code":"PORT18005010047","project_name":"\u6e2f\u6e7e\u5c40","survey_name":"\u798f\u4e95\u6e2f(\u4e09\u56fd\u5730\u533a)\u6a4b\u6881\u571f\u8cea\u8abf\u67fb(\u305d\u306e2)4-1","client_name":"\u56fd\u571f\u4ea4\u901a\u7701\u5317\u9678\u5730\u65b9\u6574\u5099\u5c40\u65b0\u6f5f\u6e2f\u6e7e\u7a7a\u6e2f\u6280\u8853\u8abf\u67fb\u4e8b\u52d9\u6240","boring_xml_url":0,"boring_view_url":0,"soilmap_view_url":66,"soiltest_xml_url":0,"soiltest_view_url":66},{"id":116927,"code":"B4KJ201801000-5176","latitude":"36.21919583","longitude":"136.1406707","source_code":"PORT18005010046","project_name":"\u6e2f\u6e7e\u5c40","survey_name":"\u798f\u4e95\u6e2f\u6a4b\u68813\u5e74","client_name":"\u56fd\u571f\u4ea4\u901a\u7701\u5317\u9678\u5730\u65b9\u6574\u5099\u5c40\u65b0\u6f5f\u6e2f\u6e7e\u7a7a\u6e2f\u6280\u8853\u8abf\u67fb\u4e8b\u52d9\u6240","boring_xml_url":0,"boring_view_url":0,"soilmap_view_url":66,"soiltest_xml_url":0,"soiltest_view_url":66},{"id":116926,"code":"B4KJ201801000-5175","latitude":"36.21808482","longitude":"136.1395597","source_code":"PORT18005010045","project_name":"\u6e2f\u6e7e\u5c40","survey_name":"\u798f\u4e95\u6e2f\u6a4b\u68813\u5e74","client_name":"\u56fd\u571f\u4ea4\u901a\u7701\u5317\u9678\u5730\u65b9\u6574\u5099\u5c40\u65b0\u6f5f\u6e2f\u6e7e\u7a7a\u6e2f\u6280\u8853\u8abf\u67fb\u4e8b\u52d9\u6240","boring_xml_url":0,"boring_view_url":0,"soilmap_view_url":66,"soiltest_xml_url":0,"soiltest_view_url":66},{"id":116925,"code":"B4KJ201801000-5174","latitude":"36.21641831","longitude":"136.138171","source_code":"PORT18005010044","project_name":"\u6e2f\u6e7e\u5c40","survey_name":"\u798f\u4e95\u6e2f\u6a4b\u68813\u5e74","client_name":"\u56fd\u571f\u4ea4\u901a\u7701\u5317\u9678\u5730\u65b9\u6574\u5099\u5c40\u65b0\u6f5f\u6e2f\u6e7e\u7a7a\u6e2f\u6280\u8853\u8abf\u67fb\u4e8b\u52d9\u6240","boring_xml_url":0,"boring_view_url":0,"soilmap_view_url":66,"soiltest_xml_url":0,"soiltest_view_url":66},{"id":116924,"code":"B4KJ201801000-5173","latitude":"36.19919786","longitude":"136.1292836","source_code":"PORT18005010042","project_name":"\u6e2f\u6e7e\u5c40","survey_name":"\u798f\u4e95\u6e2f\u5cb8\u58c1(-10M)\u571f\u8cea\u798f\u4e95\u6e2f\u5317\u5cb8\u58c1(","client_name":"\u56fd\u571f\u4ea4\u901a\u7701\u5317\u9678\u5730\u65b9\u6574\u5099\u5c40\u65b0\u6f5f\u6e2f\u6e7e\u7a7a\u6e2f\u6280\u8853\u8abf\u67fb\u4e8b\u52d9\u6240","boring_xml_url":0,"boring_view_url":0,"soilmap_view_url":66,"soiltest_xml_url":0,"soiltest_view_url":66},{"id":116923,"code":"B4KJ201801000-5172","latitude":"36.19919786","longitude":"136.1292836","source_code":"PORT18005010041","project_name":"\u6e2f\u6e7e\u5c40","survey_name":"\u798f\u4e95\u6e2f\u5cb8\u58c1(-10M)\u571f\u8cea\u798f\u4e95\u6e2f\u5317\u5cb8\u58c1(","client_name":"\u56fd\u571f\u4ea4\u901a\u7701\u5317\u9678\u5730\u65b9\u6574\u5099\u5c40\u65b0\u6f5f\u6e2f\u6e7e\u7a7a\u6e2f\u6280\u8853\u8abf\u67fb\u4e8b\u52d9\u6240","boring_xml_url":0,"boring_view_url":0,"soilmap_view_url":66,"soiltest_xml_url":0,"soiltest_view_url":66},{"id":116922,"code":"B4KJ201801000-5171","latitude":"36.19447614","longitude":"136.1276172","source_code":"PORT18005010038","project_name":"\u6e2f\u6e7e\u5c40","survey_name":"\u798f\u4e95\u6e2f\u53171\u53f7\u5cb8\u58c1","client_name":"\u56fd\u571f\u4ea4\u901a\u7701\u5317\u9678\u5730\u65b9\u6574\u5099\u5c40\u65b0\u6f5f\u6e2f\u6e7e\u7a7a\u6e2f\u6280\u8853\u8abf\u67fb\u4e8b\u52d9\u6240","boring_xml_url":0,"boring_view_url":0,"soilmap_view_url":66,"soiltest_xml_url":0,"soiltest_view_url":66},{"id":116921,"code":"B4KJ201801000-5170","latitude":"36.20225276","longitude":"136.1170623","source_code":"PORT18005010037","project_name":"\u6e2f\u6e7e\u5c40","survey_name":"\u798f\u4e95\u6e2f\u822a\u8def\u6cca\u5730","client_name":"\u56fd\u571f\u4ea4\u901a\u7701\u5317\u9678\u5730\u65b9\u6574\u5099\u5c40\u65b0\u6f5f\u6e2f\u6e7e\u7a7a\u6e2f\u6280\u8853\u8abf\u67fb\u4e8b\u52d9\u6240","boring_xml_url":0,"boring_view_url":0,"soilmap_view_url":66,"soiltest_xml_url":0,"soiltest_view_url":66},{"id":116920,"code":"B4KJ201801000-5169","latitude":"36.20086404","longitude":"136.1173401","source_code":"PORT18005010036","project_name":"\u6e2f\u6e7e\u5c40","survey_name":"\u798f\u4e95\u6e2f\u822a\u8def\u6cca\u5730","client_name":"\u56fd\u571f\u4ea4\u901a\u7701\u5317\u9678\u5730\u65b9\u6574\u5099\u5c40\u65b0\u6f5f\u6e2f\u6e7e\u7a7a\u6e2f\u6280\u8853\u8abf\u67fb\u4e8b\u52d9\u6240","boring_xml_url":0,"boring_view_url":0,"soilmap_view_url":66,"soiltest_xml_url":0,"soiltest_view_url":66},{"id":116919,"code":"B4KJ201801000-5168","latitude":"36.18975434","longitude":"136.1226178","source_code":"PORT18005010035","project_name":"\u6e2f\u6e7e\u5c40","survey_name":"\u798f\u4e95\u6e2f\u5357-\u6c34\u8def\u6d5a\u6e2b","client_name":"\u56fd\u571f\u4ea4\u901a\u7701\u5317\u9678\u5730\u65b9\u6574\u5099\u5c40\u65b0\u6f5f\u6e2f\u6e7e\u7a7a\u6e2f\u6280\u8853\u8abf\u67fb\u4e8b\u52d9\u6240","boring_xml_url":0,"boring_view_url":0,"soilmap_view_url":66,"soiltest_xml_url":0,"soiltest_view_url":66},{"id":116918,"code":"B4KJ201801000-5167","latitude":"36.18864333","longitude":"136.1212291","source_code":"PORT18005010034","project_name":"\u6e2f\u6e7e\u5c40","survey_name":"\u798f\u4e95\u6e2f\u5357-\u6c34\u8def\u6d5a\u6e2b","client_name":"\u56fd\u571f\u4ea4\u901a\u7701\u5317\u9678\u5730\u65b9\u6574\u5099\u5c40\u65b0\u6f5f\u6e2f\u6e7e\u7a7a\u6e2f\u6280\u8853\u8abf\u67fb\u4e8b\u52d9\u6240","boring_xml_url":0,"boring_view_url":0,"soilmap_view_url":66,"soiltest_xml_url":0,"soiltest_view_url":66},{"id":116917,"code":"B4KJ201801000-5166","latitude":"36.18753232","longitude":"136.1203959","source_code":"PORT18005010033","project_name":"\u6e2f\u6e7e\u5c40","survey_name":"\u798f\u4e95\u6e2f\u5357-\u6c34\u8def\u6d5a\u6e2b","client_name":"\u56fd\u571f\u4ea4\u901a\u7701\u5317\u9678\u5730\u65b9\u6574\u5099\u5c40\u65b0\u6f5f\u6e2f\u6e7e\u7a7a\u6e2f\u6280\u8853\u8abf\u67fb\u4e8b\u52d9\u6240","boring_xml_url":0,"boring_view_url":0,"soilmap_view_url":66,"soiltest_xml_url":0,"soiltest_view_url":66},{"id":116916,"code":"B4KJ201801000-5165","latitude":"36.18642132","longitude":"136.1195627","source_code":"PORT18005010032","project_name":"\u6e2f\u6e7e\u5c40","survey_name":"\u798f\u4e95\u6e2f\u5357-\u6c34\u8def\u6d5a\u6e2b","client_name":"\u56fd\u571f\u4ea4\u901a\u7701\u5317\u9678\u5730\u65b9\u6574\u5099\u5c40\u65b0\u6f5f\u6e2f\u6e7e\u7a7a\u6e2f\u6280\u8853\u8abf\u67fb\u4e8b\u52d9\u6240","boring_xml_url":0,"boring_view_url":0,"soilmap_view_url":66,"soiltest_xml_url":0,"soiltest_view_url":66},{"id":116915,"code":"B4KJ201801000-5164","latitude":"36.18531031","longitude":"136.1187295","source_code":"PORT18005010031","project_name":"\u6e2f\u6e7e\u5c40","survey_name":"\u798f\u4e95\u6e2f\u5357-\u6c34\u8def\u6d5a\u6e2b","client_name":"\u56fd\u571f\u4ea4\u901a\u7701\u5317\u9678\u5730\u65b9\u6574\u5099\u5c40\u65b0\u6f5f\u6e2f\u6e7e\u7a7a\u6e2f\u6280\u8853\u8abf\u67fb\u4e8b\u52d9\u6240","boring_xml_url":0,"boring_view_url":0,"soilmap_view_url":66,"soiltest_xml_url":0,"soiltest_view_url":66},{"id":116914,"code":"B4KJ201801000-5163","latitude":"36.20669659","longitude":"136.1126181","source_code":"PORT18005010030","project_name":"\u6e2f\u6e7e\u5c40","survey_name":"\u798f\u4e95\u6e2f\u9632\u6ce2\u5824","client_name":"\u56fd\u571f\u4ea4\u901a\u7701\u5317\u9678\u5730\u65b9\u6574\u5099\u5c40\u65b0\u6f5f\u6e2f\u6e7e\u7a7a\u6e2f\u6280\u8853\u8abf\u67fb\u4e8b\u52d9\u6240","boring_xml_url":0,"boring_view_url":0,"soilmap_view_url":66,"soiltest_xml_url":0,"soiltest_view_url":66},{"id":116913,"code":"B4KJ201801000-5162","latitude":"36.19003209","longitude":"136.1228956","source_code":"PORT18005010029","project_name":"\u6e2f\u6e7e\u5c40","survey_name":"\u798f\u4e95\u6e2f\u5317\u6c34\u8def-\u6d5a\u6e2b","client_name":"\u56fd\u571f\u4ea4\u901a\u7701\u5317\u9678\u5730\u65b9\u6574\u5099\u5c40\u65b0\u6f5f\u6e2f\u6e7e\u7a7a\u6e2f\u6280\u8853\u8abf\u67fb\u4e8b\u52d9\u6240","boring_xml_url":0,"boring_view_url":0,"soilmap_view_url":66,"soiltest_xml_url":0,"soiltest_view_url":66},{"id":116912,"code":"B4KJ201801000-5161","latitude":"36.19780911","longitude":"136.1284503","source_code":"PORT18005010028","project_name":"\u6e2f\u6e7e\u5c40","survey_name":"\u798f\u4e95\u6e2f\u5317\u6c34\u8def-\u6d5a\u6e2b","client_name":"\u56fd\u571f\u4ea4\u901a\u7701\u5317\u9678\u5730\u65b9\u6574\u5099\u5c40\u65b0\u6f5f\u6e2f\u6e7e\u7a7a\u6e2f\u6280\u8853\u8abf\u67fb\u4e8b\u52d9\u6240","boring_xml_url":0,"boring_view_url":0,"soilmap_view_url":66,"soiltest_xml_url":0,"soiltest_view_url":66},{"id":116911,"code":"B4KJ201801000-5160","latitude":"36.19864237","longitude":"136.1292836","source_code":"PORT18005010027","project_name":"\u6e2f\u6e7e\u5c40","survey_name":"\u798f\u4e95\u6e2f\u5317\u6c34\u8def-\u6d5a\u6e2b","client_name":"\u56fd\u571f\u4ea4\u901a\u7701\u5317\u9678\u5730\u65b9\u6574\u5099\u5c40\u65b0\u6f5f\u6e2f\u6e7e\u7a7a\u6e2f\u6280\u8853\u8abf\u67fb\u4e8b\u52d9\u6240","boring_xml_url":0,"boring_view_url":0,"soilmap_view_url":66,"soiltest_xml_url":0,"soiltest_view_url":66},{"id":116910,"code":"B4KJ201801000-5159","latitude":"36.19530914","longitude":"136.1178958","source_code":"PORT18005010026","project_name":"\u6e2f\u6e7e\u5c40","survey_name":"\u798f\u4e95\u6e2f(\u672c\u6e2f\u5730\u533a)\u6cca\u5730","client_name":"\u56fd\u571f\u4ea4\u901a\u7701\u5317\u9678\u5730\u65b9\u6574\u5099\u5c40\u65b0\u6f5f\u6e2f\u6e7e\u7a7a\u6e2f\u6280\u8853\u8abf\u67fb\u4e8b\u52d9\u6240","boring_xml_url":0,"boring_view_url":0,"soilmap_view_url":66,"soiltest_xml_url":0,"soiltest_view_url":66},{"id":116909,"code":"B4KJ201801000-5158","latitude":"36.19253175","longitude":"136.1206735","source_code":"PORT18005010025","project_name":"\u6e2f\u6e7e\u5c40","survey_name":"\u798f\u4e95\u6e2f(\u672c\u6e2f\u5730\u533a)\u6cca\u5730","client_name":"\u56fd\u571f\u4ea4\u901a\u7701\u5317\u9678\u5730\u65b9\u6574\u5099\u5c40\u65b0\u6f5f\u6e2f\u6e7e\u7a7a\u6e2f\u6280\u8853\u8abf\u67fb\u4e8b\u52d9\u6240","boring_xml_url":0,"boring_view_url":0,"soilmap_view_url":66,"soiltest_xml_url":0,"soiltest_view_url":66},{"id":116908,"code":"B4KJ201801000-5157","latitude":"36.194476","longitude":"136.1217844","source_code":"PORT18005010024","project_name":"\u6e2f\u6e7e\u5c40","survey_name":"\u798f\u4e95\u6e2f(\u672c\u6e2f\u5730\u533a)\u6cca\u5730","client_name":"\u56fd\u571f\u4ea4\u901a\u7701\u5317\u9678\u5730\u65b9\u6574\u5099\u5c40\u65b0\u6f5f\u6e2f\u6e7e\u7a7a\u6e2f\u6280\u8853\u8abf\u67fb\u4e8b\u52d9\u6240","boring_xml_url":0,"boring_view_url":0,"soilmap_view_url":66,"soiltest_xml_url":0,"soiltest_view_url":66},{"id":116907,"code":"B4KJ201801000-5156","latitude":"36.19697563","longitude":"136.1184513","source_code":"PORT18005010023","project_name":"\u6e2f\u6e7e\u5c40","survey_name":"\u798f\u4e95\u6e2f\u6cca\u5730","client_name":"\u56fd\u571f\u4ea4\u901a\u7701\u5317\u9678\u5730\u65b9\u6574\u5099\u5c40\u65b0\u6f5f\u6e2f\u6e7e\u7a7a\u6e2f\u6280\u8853\u8abf\u67fb\u4e8b\u52d9\u6240","boring_xml_url":0,"boring_view_url":0,"soilmap_view_url":66,"soiltest_xml_url":0,"soiltest_view_url":66},{"id":116906,"code":"B4KJ201801000-5155","latitude":"36.19530924","longitude":"136.1217844","source_code":"PORT18005010022","project_name":"\u6e2f\u6e7e\u5c40","survey_name":"\u798f\u4e95\u6e2f\u6cca\u5730","client_name":"\u56fd\u571f\u4ea4\u901a\u7701\u5317\u9678\u5730\u65b9\u6574\u5099\u5c40\u65b0\u6f5f\u6e2f\u6e7e\u7a7a\u6e2f\u6280\u8853\u8abf\u67fb\u4e8b\u52d9\u6240","boring_xml_url":0,"boring_view_url":0,"soilmap_view_url":66,"soiltest_xml_url":0,"soiltest_view_url":66}]}}