{"header":{"xyz":{"source":[],"mosaic":false},"page":6791,"raw":{"soiltest_result":"0","bbox":"57.598333,109.544722,1.933333,163.806111","page":"6791"},"conditions":{"soiltest_result":0,"north":57.598333,"west":109.544722,"south":1.933333,"east":163.806111},"success":true,"message":""},"data":{"meta":{"total":212844,"page":6791,"pages":7095,"count":30},"values":[{"id":116845,"code":"B4KJ201801000-5094","latitude":"35.67925624","longitude":"136.0706968","source_code":"PORT18001010115","project_name":"\u6e2f\u6e7e\u5c40","survey_name":"\u6566\u8cc0\u6e2f(\u97a0\u5c71\u5730\u533a)\u9632\u6ce2\u5824","client_name":"\u56fd\u571f\u4ea4\u901a\u7701\u5317\u9678\u5730\u65b9\u6574\u5099\u5c40\u65b0\u6f5f\u6e2f\u6e7e\u7a7a\u6e2f\u6280\u8853\u8abf\u67fb\u4e8b\u52d9\u6240","boring_xml_url":0,"boring_view_url":0,"soilmap_view_url":66,"soiltest_xml_url":0,"soiltest_view_url":66},{"id":116844,"code":"B4KJ201801000-5093","latitude":"35.67925629","longitude":"136.0726411","source_code":"PORT18001010114","project_name":"\u6e2f\u6e7e\u5c40","survey_name":"\u6566\u8cc0\u6e2f(\u97a0\u5c71\u5730\u533a)\u9632\u6ce2\u5824","client_name":"\u56fd\u571f\u4ea4\u901a\u7701\u5317\u9678\u5730\u65b9\u6574\u5099\u5c40\u65b0\u6f5f\u6e2f\u6e7e\u7a7a\u6e2f\u6280\u8853\u8abf\u67fb\u4e8b\u52d9\u6240","boring_xml_url":0,"boring_view_url":0,"soilmap_view_url":66,"soiltest_xml_url":0,"soiltest_view_url":66},{"id":116843,"code":"B4KJ201801000-5092","latitude":"35.67925628","longitude":"136.0720856","source_code":"PORT18001010113","project_name":"\u6e2f\u6e7e\u5c40","survey_name":"\u6566\u8cc0\u6e2f(\u97a0\u5c71\u5730\u533a)\u9632\u6ce2\u5824","client_name":"\u56fd\u571f\u4ea4\u901a\u7701\u5317\u9678\u5730\u65b9\u6574\u5099\u5c40\u65b0\u6f5f\u6e2f\u6e7e\u7a7a\u6e2f\u6280\u8853\u8abf\u67fb\u4e8b\u52d9\u6240","boring_xml_url":0,"boring_view_url":0,"soilmap_view_url":66,"soiltest_xml_url":0,"soiltest_view_url":66},{"id":116842,"code":"B4KJ201801000-5091","latitude":"35.6792563","longitude":"136.0731966","source_code":"PORT18001010112","project_name":"\u6e2f\u6e7e\u5c40","survey_name":"\u6566\u8cc0\u6e2f(\u97a0\u5c71\u5730\u533a)\u9632\u6ce2\u5824","client_name":"\u56fd\u571f\u4ea4\u901a\u7701\u5317\u9678\u5730\u65b9\u6574\u5099\u5c40\u65b0\u6f5f\u6e2f\u6e7e\u7a7a\u6e2f\u6280\u8853\u8abf\u67fb\u4e8b\u52d9\u6240","boring_xml_url":0,"boring_view_url":0,"soilmap_view_url":66,"soiltest_xml_url":0,"soiltest_view_url":66},{"id":116841,"code":"B4KJ201801000-5090","latitude":"35.67870078","longitude":"136.0720856","source_code":"PORT18001010111","project_name":"\u6e2f\u6e7e\u5c40","survey_name":"\u6566\u8cc0\u6e2f(\u97a0\u5c71\u5730\u533a)\u9632\u6ce2\u5824","client_name":"\u56fd\u571f\u4ea4\u901a\u7701\u5317\u9678\u5730\u65b9\u6574\u5099\u5c40\u65b0\u6f5f\u6e2f\u6e7e\u7a7a\u6e2f\u6280\u8853\u8abf\u67fb\u4e8b\u52d9\u6240","boring_xml_url":0,"boring_view_url":0,"soilmap_view_url":66,"soiltest_xml_url":0,"soiltest_view_url":66},{"id":116840,"code":"B4KJ201801000-5089","latitude":"35.6787008","longitude":"136.0726411","source_code":"PORT18001010110","project_name":"\u6e2f\u6e7e\u5c40","survey_name":"\u6566\u8cc0\u6e2f(\u97a0\u5c71\u5730\u533a)\u9632\u6ce2\u5824","client_name":"\u56fd\u571f\u4ea4\u901a\u7701\u5317\u9678\u5730\u65b9\u6574\u5099\u5c40\u65b0\u6f5f\u6e2f\u6e7e\u7a7a\u6e2f\u6280\u8853\u8abf\u67fb\u4e8b\u52d9\u6240","boring_xml_url":0,"boring_view_url":0,"soilmap_view_url":66,"soiltest_xml_url":0,"soiltest_view_url":66},{"id":116839,"code":"B4KJ201801000-5088","latitude":"35.67870082","longitude":"136.0737521","source_code":"PORT18001010109","project_name":"\u6e2f\u6e7e\u5c40","survey_name":"\u6566\u8cc0\u6e2f(\u97a0\u5c71\u5730\u533a)\u9632\u6ce2\u5824","client_name":"\u56fd\u571f\u4ea4\u901a\u7701\u5317\u9678\u5730\u65b9\u6574\u5099\u5c40\u65b0\u6f5f\u6e2f\u6e7e\u7a7a\u6e2f\u6280\u8853\u8abf\u67fb\u4e8b\u52d9\u6240","boring_xml_url":0,"boring_view_url":0,"soilmap_view_url":66,"soiltest_xml_url":0,"soiltest_view_url":66},{"id":116838,"code":"B4KJ201801000-5087","latitude":"35.66370231","longitude":"136.064309","source_code":"PORT18001010108","project_name":"\u6e2f\u6e7e\u5c40","survey_name":"\u6566\u8cc0\u6e2f(\u5ddd\u5d0e\u677e\u5742)\u9632\u6ce2\u5824","client_name":"\u56fd\u571f\u4ea4\u901a\u7701\u5317\u9678\u5730\u65b9\u6574\u5099\u5c40\u65b0\u6f5f\u6e2f\u6e7e\u7a7a\u6e2f\u6280\u8853\u8abf\u67fb\u4e8b\u52d9\u6240","boring_xml_url":0,"boring_view_url":0,"soilmap_view_url":66,"soiltest_xml_url":0,"soiltest_view_url":66},{"id":116837,"code":"B4KJ201801000-5086","latitude":"35.66425791","longitude":"136.0684753","source_code":"PORT18001010107","project_name":"\u6e2f\u6e7e\u5c40","survey_name":"\u6566\u8cc0\u6e2f(\u5ddd\u5d0e\u677e\u5742)\u9632\u6ce2\u5824","client_name":"\u56fd\u571f\u4ea4\u901a\u7701\u5317\u9678\u5730\u65b9\u6574\u5099\u5c40\u65b0\u6f5f\u6e2f\u6e7e\u7a7a\u6e2f\u6280\u8853\u8abf\u67fb\u4e8b\u52d9\u6240","boring_xml_url":0,"boring_view_url":0,"soilmap_view_url":66,"soiltest_xml_url":0,"soiltest_view_url":66},{"id":116836,"code":"B4KJ201801000-5085","latitude":"35.66064708","longitude":"136.0629204","source_code":"PORT18001010106","project_name":"\u6e2f\u6e7e\u5c40","survey_name":"\u6566\u8cc0\u6e2f(\u677e\u962a)-10M\u5cb8\u58c1","client_name":"\u56fd\u571f\u4ea4\u901a\u7701\u5317\u9678\u5730\u65b9\u6574\u5099\u5c40\u65b0\u6f5f\u6e2f\u6e7e\u7a7a\u6e2f\u6280\u8853\u8abf\u67fb\u4e8b\u52d9\u6240","boring_xml_url":0,"boring_view_url":0,"soilmap_view_url":66,"soiltest_xml_url":0,"soiltest_view_url":66},{"id":116835,"code":"B4KJ201801000-5084","latitude":"35.66064709","longitude":"136.0634759","source_code":"PORT18001010105","project_name":"\u6e2f\u6e7e\u5c40","survey_name":"\u6566\u8cc0\u6e2f(\u677e\u962a)-10M\u5cb8\u58c1","client_name":"\u56fd\u571f\u4ea4\u901a\u7701\u5317\u9678\u5730\u65b9\u6574\u5099\u5c40\u65b0\u6f5f\u6e2f\u6e7e\u7a7a\u6e2f\u6280\u8853\u8abf\u67fb\u4e8b\u52d9\u6240","boring_xml_url":0,"boring_view_url":0,"soilmap_view_url":66,"soiltest_xml_url":0,"soiltest_view_url":66},{"id":116834,"code":"B4KJ201801000-5083","latitude":"35.66120258","longitude":"136.0631981","source_code":"PORT18001010104","project_name":"\u6e2f\u6e7e\u5c40","survey_name":"\u6566\u8cc0\u6e2f\u57cb\u7acb\u3066","client_name":"\u56fd\u571f\u4ea4\u901a\u7701\u5317\u9678\u5730\u65b9\u6574\u5099\u5c40\u65b0\u6f5f\u6e2f\u6e7e\u7a7a\u6e2f\u6280\u8853\u8abf\u67fb\u4e8b\u52d9\u6240","boring_xml_url":0,"boring_view_url":0,"soilmap_view_url":66,"soiltest_xml_url":0,"soiltest_view_url":66},{"id":116833,"code":"B4KJ201801000-5082","latitude":"35.66092481","longitude":"136.0626426","source_code":"PORT18001010103","project_name":"\u6e2f\u6e7e\u5c40","survey_name":"\u6566\u8cc0\u6e2f\u57cb\u7acb\u3066","client_name":"\u56fd\u571f\u4ea4\u901a\u7701\u5317\u9678\u5730\u65b9\u6574\u5099\u5c40\u65b0\u6f5f\u6e2f\u6e7e\u7a7a\u6e2f\u6280\u8853\u8abf\u67fb\u4e8b\u52d9\u6240","boring_xml_url":0,"boring_view_url":0,"soilmap_view_url":66,"soiltest_xml_url":0,"soiltest_view_url":66},{"id":116832,"code":"B4KJ201801000-5081","latitude":"35.66092481","longitude":"136.0623649","source_code":"PORT18001010102","project_name":"\u6e2f\u6e7e\u5c40","survey_name":"\u6566\u8cc0\u6e2f\u57cb\u7acb\u3066","client_name":"\u56fd\u571f\u4ea4\u901a\u7701\u5317\u9678\u5730\u65b9\u6574\u5099\u5c40\u65b0\u6f5f\u6e2f\u6e7e\u7a7a\u6e2f\u6280\u8853\u8abf\u67fb\u4e8b\u52d9\u6240","boring_xml_url":0,"boring_view_url":0,"soilmap_view_url":66,"soiltest_xml_url":0,"soiltest_view_url":66},{"id":116831,"code":"B4KJ201801000-5080","latitude":"35.6600915","longitude":"136.0595874","source_code":"PORT18001010101","project_name":"\u6e2f\u6e7e\u5c40","survey_name":"\u6566\u8cc0\u6e2f\u57cb\u7acb\u3066","client_name":"\u56fd\u571f\u4ea4\u901a\u7701\u5317\u9678\u5730\u65b9\u6574\u5099\u5c40\u65b0\u6f5f\u6e2f\u6e7e\u7a7a\u6e2f\u6280\u8853\u8abf\u67fb\u4e8b\u52d9\u6240","boring_xml_url":0,"boring_view_url":0,"soilmap_view_url":66,"soiltest_xml_url":0,"soiltest_view_url":66},{"id":116830,"code":"B4KJ201801000-5079","latitude":"35.66036925","longitude":"136.0595873","source_code":"PORT18001010100","project_name":"\u6e2f\u6e7e\u5c40","survey_name":"\u6566\u8cc0\u6e2f\u57cb\u7acb\u3066","client_name":"\u56fd\u571f\u4ea4\u901a\u7701\u5317\u9678\u5730\u65b9\u6574\u5099\u5c40\u65b0\u6f5f\u6e2f\u6e7e\u7a7a\u6e2f\u6280\u8853\u8abf\u67fb\u4e8b\u52d9\u6240","boring_xml_url":0,"boring_view_url":0,"soilmap_view_url":66,"soiltest_xml_url":0,"soiltest_view_url":66},{"id":116829,"code":"B4KJ201801000-5078","latitude":"35.66036924","longitude":"136.0593096","source_code":"PORT18001010099","project_name":"\u6e2f\u6e7e\u5c40","survey_name":"\u6566\u8cc0\u6e2f\u57cb\u7acb\u3066","client_name":"\u56fd\u571f\u4ea4\u901a\u7701\u5317\u9678\u5730\u65b9\u6574\u5099\u5c40\u65b0\u6f5f\u6e2f\u6e7e\u7a7a\u6e2f\u6280\u8853\u8abf\u67fb\u4e8b\u52d9\u6240","boring_xml_url":0,"boring_view_url":0,"soilmap_view_url":66,"soiltest_xml_url":0,"soiltest_view_url":66},{"id":116828,"code":"B4KJ201801000-5077","latitude":"35.66036924","longitude":"136.0593096","source_code":"PORT18001010098","project_name":"\u6e2f\u6e7e\u5c40","survey_name":"\u6566\u8cc0\u6e2f\u57cb\u7acb\u3066","client_name":"\u56fd\u571f\u4ea4\u901a\u7701\u5317\u9678\u5730\u65b9\u6574\u5099\u5c40\u65b0\u6f5f\u6e2f\u6e7e\u7a7a\u6e2f\u6280\u8853\u8abf\u67fb\u4e8b\u52d9\u6240","boring_xml_url":0,"boring_view_url":0,"soilmap_view_url":66,"soiltest_xml_url":0,"soiltest_view_url":66},{"id":116827,"code":"B4KJ201801000-5076","latitude":"35.66064699","longitude":"136.0595873","source_code":"PORT18001010097","project_name":"\u6e2f\u6e7e\u5c40","survey_name":"\u6566\u8cc0\u6e2f\u57cb\u7acb\u3066","client_name":"\u56fd\u571f\u4ea4\u901a\u7701\u5317\u9678\u5730\u65b9\u6574\u5099\u5c40\u65b0\u6f5f\u6e2f\u6e7e\u7a7a\u6e2f\u6280\u8853\u8abf\u67fb\u4e8b\u52d9\u6240","boring_xml_url":0,"boring_view_url":0,"soilmap_view_url":66,"soiltest_xml_url":0,"soiltest_view_url":66},{"id":116826,"code":"B4KJ201801000-5075","latitude":"35.66092474","longitude":"136.0595873","source_code":"PORT18001010096","project_name":"\u6e2f\u6e7e\u5c40","survey_name":"\u6566\u8cc0\u6e2f\u57cb\u7acb\u3066","client_name":"\u56fd\u571f\u4ea4\u901a\u7701\u5317\u9678\u5730\u65b9\u6574\u5099\u5c40\u65b0\u6f5f\u6e2f\u6e7e\u7a7a\u6e2f\u6280\u8853\u8abf\u67fb\u4e8b\u52d9\u6240","boring_xml_url":0,"boring_view_url":0,"soilmap_view_url":66,"soiltest_xml_url":0,"soiltest_view_url":66},{"id":116825,"code":"B4KJ201801000-5074","latitude":"35.66092474","longitude":"136.0595873","source_code":"PORT18001010095","project_name":"\u6e2f\u6e7e\u5c40","survey_name":"\u6566\u8cc0\u6e2f\u57cb\u7acb\u3066","client_name":"\u56fd\u571f\u4ea4\u901a\u7701\u5317\u9678\u5730\u65b9\u6574\u5099\u5c40\u65b0\u6f5f\u6e2f\u6e7e\u7a7a\u6e2f\u6280\u8853\u8abf\u67fb\u4e8b\u52d9\u6240","boring_xml_url":0,"boring_view_url":0,"soilmap_view_url":66,"soiltest_xml_url":0,"soiltest_view_url":66},{"id":116824,"code":"B4KJ201801000-5073","latitude":"35.66092476","longitude":"136.0601428","source_code":"PORT18001010094","project_name":"\u6e2f\u6e7e\u5c40","survey_name":"\u6566\u8cc0\u6e2f\u57cb\u7acb\u3066","client_name":"\u56fd\u571f\u4ea4\u901a\u7701\u5317\u9678\u5730\u65b9\u6574\u5099\u5c40\u65b0\u6f5f\u6e2f\u6e7e\u7a7a\u6e2f\u6280\u8853\u8abf\u67fb\u4e8b\u52d9\u6240","boring_xml_url":0,"boring_view_url":0,"soilmap_view_url":66,"soiltest_xml_url":0,"soiltest_view_url":66},{"id":116823,"code":"B4KJ201801000-5072","latitude":"35.66064702","longitude":"136.0606984","source_code":"PORT18001010093","project_name":"\u6e2f\u6e7e\u5c40","survey_name":"\u6566\u8cc0\u6e2f\u57cb\u7acb\u3066","client_name":"\u56fd\u571f\u4ea4\u901a\u7701\u5317\u9678\u5730\u65b9\u6574\u5099\u5c40\u65b0\u6f5f\u6e2f\u6e7e\u7a7a\u6e2f\u6280\u8853\u8abf\u67fb\u4e8b\u52d9\u6240","boring_xml_url":0,"boring_view_url":0,"soilmap_view_url":66,"soiltest_xml_url":0,"soiltest_view_url":66},{"id":116822,"code":"B4KJ201801000-5071","latitude":"35.66092477","longitude":"136.0606983","source_code":"PORT18001010092","project_name":"\u6e2f\u6e7e\u5c40","survey_name":"\u6566\u8cc0\u6e2f\u57cb\u7acb\u3066","client_name":"\u56fd\u571f\u4ea4\u901a\u7701\u5317\u9678\u5730\u65b9\u6574\u5099\u5c40\u65b0\u6f5f\u6e2f\u6e7e\u7a7a\u6e2f\u6280\u8853\u8abf\u67fb\u4e8b\u52d9\u6240","boring_xml_url":0,"boring_view_url":0,"soilmap_view_url":66,"soiltest_xml_url":0,"soiltest_view_url":66},{"id":116821,"code":"B4KJ201801000-5070","latitude":"35.66120251","longitude":"136.0606983","source_code":"PORT18001010091","project_name":"\u6e2f\u6e7e\u5c40","survey_name":"\u6566\u8cc0\u6e2f\u57cb\u7acb\u3066","client_name":"\u56fd\u571f\u4ea4\u901a\u7701\u5317\u9678\u5730\u65b9\u6574\u5099\u5c40\u65b0\u6f5f\u6e2f\u6e7e\u7a7a\u6e2f\u6280\u8853\u8abf\u67fb\u4e8b\u52d9\u6240","boring_xml_url":0,"boring_view_url":0,"soilmap_view_url":66,"soiltest_xml_url":0,"soiltest_view_url":66},{"id":116820,"code":"B4KJ201801000-5069","latitude":"35.66092478","longitude":"136.0609761","source_code":"PORT18001010090","project_name":"\u6e2f\u6e7e\u5c40","survey_name":"\u6566\u8cc0\u6e2f\u57cb\u7acb\u3066","client_name":"\u56fd\u571f\u4ea4\u901a\u7701\u5317\u9678\u5730\u65b9\u6574\u5099\u5c40\u65b0\u6f5f\u6e2f\u6e7e\u7a7a\u6e2f\u6280\u8853\u8abf\u67fb\u4e8b\u52d9\u6240","boring_xml_url":0,"boring_view_url":0,"soilmap_view_url":66,"soiltest_xml_url":0,"soiltest_view_url":66},{"id":116819,"code":"B4KJ201801000-5068","latitude":"35.66036932","longitude":"136.0623649","source_code":"PORT18001010089","project_name":"\u6e2f\u6e7e\u5c40","survey_name":"\u6566\u8cc0\u6e2f-10M\u5cb8\u58c1","client_name":"\u56fd\u571f\u4ea4\u901a\u7701\u5317\u9678\u5730\u65b9\u6574\u5099\u5c40\u65b0\u6f5f\u6e2f\u6e7e\u7a7a\u6e2f\u6280\u8853\u8abf\u67fb\u4e8b\u52d9\u6240","boring_xml_url":0,"boring_view_url":0,"soilmap_view_url":66,"soiltest_xml_url":0,"soiltest_view_url":66},{"id":116818,"code":"B4KJ201801000-5067","latitude":"35.66092481","longitude":"136.0623649","source_code":"PORT18001010088","project_name":"\u6e2f\u6e7e\u5c40","survey_name":"\u6566\u8cc0\u6e2f-10M\u5cb8\u58c1","client_name":"\u56fd\u571f\u4ea4\u901a\u7701\u5317\u9678\u5730\u65b9\u6574\u5099\u5c40\u65b0\u6f5f\u6e2f\u6e7e\u7a7a\u6e2f\u6280\u8853\u8abf\u67fb\u4e8b\u52d9\u6240","boring_xml_url":0,"boring_view_url":0,"soilmap_view_url":66,"soiltest_xml_url":0,"soiltest_view_url":66},{"id":116817,"code":"B4KJ201801000-5066","latitude":"35.66092484","longitude":"136.0637536","source_code":"PORT18001010087","project_name":"\u6e2f\u6e7e\u5c40","survey_name":"\u6566\u8cc0\u6e2f-10M\u5cb8\u58c1","client_name":"\u56fd\u571f\u4ea4\u901a\u7701\u5317\u9678\u5730\u65b9\u6574\u5099\u5c40\u65b0\u6f5f\u6e2f\u6e7e\u7a7a\u6e2f\u6280\u8853\u8abf\u67fb\u4e8b\u52d9\u6240","boring_xml_url":0,"boring_view_url":0,"soilmap_view_url":66,"soiltest_xml_url":0,"soiltest_view_url":66},{"id":116816,"code":"B4KJ201801000-5065","latitude":"35.66009156","longitude":"136.0620871","source_code":"PORT18001010086","project_name":"\u6e2f\u6e7e\u5c40","survey_name":"\u6566\u8cc0\u6e2f-10M\u5cb8\u58c1","client_name":"\u56fd\u571f\u4ea4\u901a\u7701\u5317\u9678\u5730\u65b9\u6574\u5099\u5c40\u65b0\u6f5f\u6e2f\u6e7e\u7a7a\u6e2f\u6280\u8853\u8abf\u67fb\u4e8b\u52d9\u6240","boring_xml_url":0,"boring_view_url":0,"soilmap_view_url":66,"soiltest_xml_url":0,"soiltest_view_url":66}]}}