{"header":{"xyz":{"source":[],"mosaic":false},"page":6795,"raw":{"soiltest_result":"0","bbox":"57.598333,109.544722,1.933333,163.806111","page":"6795"},"conditions":{"soiltest_result":0,"north":57.598333,"west":109.544722,"south":1.933333,"east":163.806111},"success":true,"message":""},"data":{"meta":{"total":212844,"page":6795,"pages":7095,"count":30},"values":[{"id":116725,"code":"B4KJ201801000-4974","latitude":"37.39713397","longitude":"136.9041679","source_code":"PORT17007010006","project_name":"\u6e2f\u6e7e\u5c40","survey_name":"\u8f2a\u5cf6\u6e2f\u9632\u6ce2\u5824","client_name":"\u56fd\u571f\u4ea4\u901a\u7701\u5317\u9678\u5730\u65b9\u6574\u5099\u5c40\u65b0\u6f5f\u6e2f\u6e7e\u7a7a\u6e2f\u6280\u8853\u8abf\u67fb\u4e8b\u52d9\u6240","boring_xml_url":0,"boring_view_url":0,"soilmap_view_url":66,"soiltest_xml_url":0,"soiltest_view_url":66},{"id":116724,"code":"B4KJ201801000-4973","latitude":"37.39768943","longitude":"136.9030568","source_code":"PORT17007010005","project_name":"\u6e2f\u6e7e\u5c40","survey_name":"\u8f2a\u5cf6\u6e2f\u9632\u6ce2\u5824","client_name":"\u56fd\u571f\u4ea4\u901a\u7701\u5317\u9678\u5730\u65b9\u6574\u5099\u5c40\u65b0\u6f5f\u6e2f\u6e7e\u7a7a\u6e2f\u6280\u8853\u8abf\u67fb\u4e8b\u52d9\u6240","boring_xml_url":0,"boring_view_url":0,"soilmap_view_url":66,"soiltest_xml_url":0,"soiltest_view_url":66},{"id":116723,"code":"B4KJ201801000-4972","latitude":"37.39824492","longitude":"136.9030568","source_code":"PORT17007010004","project_name":"\u6e2f\u6e7e\u5c40","survey_name":"\u8f2a\u5cf6\u6e2f\u9632\u6ce2\u5824","client_name":"\u56fd\u571f\u4ea4\u901a\u7701\u5317\u9678\u5730\u65b9\u6574\u5099\u5c40\u65b0\u6f5f\u6e2f\u6e7e\u7a7a\u6e2f\u6280\u8853\u8abf\u67fb\u4e8b\u52d9\u6240","boring_xml_url":0,"boring_view_url":0,"soilmap_view_url":66,"soiltest_xml_url":0,"soiltest_view_url":66},{"id":116722,"code":"B4KJ201801000-4971","latitude":"37.39907816","longitude":"136.9030568","source_code":"PORT17007010003","project_name":"\u6e2f\u6e7e\u5c40","survey_name":"\u8f2a\u5cf6\u6e2f\u9632\u6ce2\u5824","client_name":"\u56fd\u571f\u4ea4\u901a\u7701\u5317\u9678\u5730\u65b9\u6574\u5099\u5c40\u65b0\u6f5f\u6e2f\u6e7e\u7a7a\u6e2f\u6280\u8853\u8abf\u67fb\u4e8b\u52d9\u6240","boring_xml_url":0,"boring_view_url":0,"soilmap_view_url":66,"soiltest_xml_url":0,"soiltest_view_url":66},{"id":116721,"code":"B4KJ201801000-4970","latitude":"37.39907819","longitude":"136.9041678","source_code":"PORT17007010002","project_name":"\u6e2f\u6e7e\u5c40","survey_name":"\u8f2a\u5cf6\u6e2f\u9632\u6ce2\u5824","client_name":"\u56fd\u571f\u4ea4\u901a\u7701\u5317\u9678\u5730\u65b9\u6574\u5099\u5c40\u65b0\u6f5f\u6e2f\u6e7e\u7a7a\u6e2f\u6280\u8853\u8abf\u67fb\u4e8b\u52d9\u6240","boring_xml_url":0,"boring_view_url":0,"soilmap_view_url":66,"soiltest_xml_url":0,"soiltest_view_url":66},{"id":116720,"code":"B4KJ201801000-4969","latitude":"37.40935482","longitude":"136.9063894","source_code":"PORT17007010001","project_name":"\u6e2f\u6e7e\u5c40","survey_name":"\u8f2a\u5cf6\u6e2f\u9632\u6ce2\u5824","client_name":"\u56fd\u571f\u4ea4\u901a\u7701\u5317\u9678\u5730\u65b9\u6574\u5099\u5c40\u65b0\u6f5f\u6e2f\u6e7e\u7a7a\u6e2f\u6280\u8853\u8abf\u67fb\u4e8b\u52d9\u6240","boring_xml_url":0,"boring_view_url":0,"soilmap_view_url":66,"soiltest_xml_url":0,"soiltest_view_url":0},{"id":116719,"code":"B4KJ201801000-4968","latitude":"37.40852153","longitude":"136.9041674","source_code":"PORT17007010000","project_name":"\u6e2f\u6e7e\u5c40","survey_name":"\u8f2a\u5cf6\u6e2f\u9632\u6ce2\u5824","client_name":"\u56fd\u571f\u4ea4\u901a\u7701\u5317\u9678\u5730\u65b9\u6574\u5099\u5c40\u65b0\u6f5f\u6e2f\u6e7e\u7a7a\u6e2f\u6280\u8853\u8abf\u67fb\u4e8b\u52d9\u6240","boring_xml_url":0,"boring_view_url":0,"soilmap_view_url":66,"soiltest_xml_url":0,"soiltest_view_url":0},{"id":116718,"code":"B4KJ201801000-4967","latitude":"36.62263889","longitude":"136.6077778","source_code":"PORT17002011805","project_name":"\u6e2f\u6e7e\u5c40","survey_name":"\u5e73\u621018\u5e74\u5ea6\u91d1\u6ca2\u6e2f(\u5927\u91ce\u5730\u533a)\u6cca\u5730(\u8b77\u5cb8)\u571f\u8cea\u8abf\u67fb","client_name":"\u56fd\u571f\u4ea4\u901a\u7701\u5317\u9678\u5730\u65b9\u6574\u5099\u5c40\u65b0\u6f5f\u6e2f\u6e7e\u7a7a\u6e2f\u6280\u8853\u8abf\u67fb\u4e8b\u52d9\u6240","boring_xml_url":0,"boring_view_url":0,"soilmap_view_url":66,"soiltest_xml_url":0,"soiltest_view_url":66},{"id":116717,"code":"B4KJ201801000-4966","latitude":"36.62319444","longitude":"136.6084722","source_code":"PORT17002011804","project_name":"\u6e2f\u6e7e\u5c40","survey_name":"\u5e73\u621018\u5e74\u5ea6\u91d1\u6ca2\u6e2f(\u5927\u91ce\u5730\u533a)\u6cca\u5730(\u8b77\u5cb8)\u571f\u8cea\u8abf\u67fb","client_name":"\u56fd\u571f\u4ea4\u901a\u7701\u5317\u9678\u5730\u65b9\u6574\u5099\u5c40\u65b0\u6f5f\u6e2f\u6e7e\u7a7a\u6e2f\u6280\u8853\u8abf\u67fb\u4e8b\u52d9\u6240","boring_xml_url":0,"boring_view_url":0,"soilmap_view_url":66,"soiltest_xml_url":0,"soiltest_view_url":66},{"id":116716,"code":"B4KJ201801000-4965","latitude":"36.62385781","longitude":"136.606023","source_code":"PORT17002011803","project_name":"\u6e2f\u6e7e\u5c40","survey_name":"\u5e73\u621018\u5e74\u5ea6\u91d1\u6ca2\u6e2f\u571f\u8cea\u8abf\u67fb","client_name":"\u56fd\u571f\u4ea4\u901a\u7701\u5317\u9678\u5730\u65b9\u6574\u5099\u5c40\u65b0\u6f5f\u6e2f\u6e7e\u7a7a\u6e2f\u6280\u8853\u8abf\u67fb\u4e8b\u52d9\u6240","boring_xml_url":0,"boring_view_url":0,"soilmap_view_url":66,"soiltest_xml_url":0,"soiltest_view_url":66},{"id":116715,"code":"B4KJ201801000-4964","latitude":"36.62341556","longitude":"136.6081016","source_code":"PORT17002011802","project_name":"\u6e2f\u6e7e\u5c40","survey_name":"\u5e73\u621018\u5e74\u5ea6\u91d1\u6ca2\u6e2f\u571f\u8cea\u8abf\u67fb","client_name":"\u56fd\u571f\u4ea4\u901a\u7701\u5317\u9678\u5730\u65b9\u6574\u5099\u5c40\u65b0\u6f5f\u6e2f\u6e7e\u7a7a\u6e2f\u6280\u8853\u8abf\u67fb\u4e8b\u52d9\u6240","boring_xml_url":0,"boring_view_url":0,"soilmap_view_url":66,"soiltest_xml_url":0,"soiltest_view_url":66},{"id":116714,"code":"B4KJ201801000-4963","latitude":"36.62414672","longitude":"136.6087552","source_code":"PORT17002011801","project_name":"\u6e2f\u6e7e\u5c40","survey_name":"\u5e73\u621018\u5e74\u5ea6\u91d1\u6ca2\u6e2f\u571f\u8cea\u8abf\u67fb","client_name":"\u56fd\u571f\u4ea4\u901a\u7701\u5317\u9678\u5730\u65b9\u6574\u5099\u5c40\u65b0\u6f5f\u6e2f\u6e7e\u7a7a\u6e2f\u6280\u8853\u8abf\u67fb\u4e8b\u52d9\u6240","boring_xml_url":0,"boring_view_url":0,"soilmap_view_url":66,"soiltest_xml_url":0,"soiltest_view_url":66},{"id":116713,"code":"B4KJ201801000-4962","latitude":"36.62686111","longitude":"136.6052778","source_code":"PORT17002011708","project_name":"\u6e2f\u6e7e\u5c40","survey_name":"\u91d1\u6ca2\u6e2f\u770c\u5358\u6539\u826f\u5de5\u4e8b(\u8abf\u67fb)\u696d\u52d9\u59d4\u8a17(\u305d\u306e6)","client_name":"\u56fd\u571f\u4ea4\u901a\u7701\u5317\u9678\u5730\u65b9\u6574\u5099\u5c40\u65b0\u6f5f\u6e2f\u6e7e\u7a7a\u6e2f\u6280\u8853\u8abf\u67fb\u4e8b\u52d9\u6240","boring_xml_url":0,"boring_view_url":0,"soilmap_view_url":66,"soiltest_xml_url":0,"soiltest_view_url":66},{"id":116712,"code":"B4KJ201801000-4961","latitude":"36.62597222","longitude":"136.6077722","source_code":"PORT17002011707","project_name":"\u6e2f\u6e7e\u5c40","survey_name":"\u91d1\u6ca2\u6e2f\u770c\u5358\u6e2f\u6e7e\u6539\u826f\u5de5\u4e8b(\u8abf\u67fb)\u696d\u52d9\u59d4\u8a17(\u305d\u306e5)","client_name":"\u56fd\u571f\u4ea4\u901a\u7701\u5317\u9678\u5730\u65b9\u6574\u5099\u5c40\u65b0\u6f5f\u6e2f\u6e7e\u7a7a\u6e2f\u6280\u8853\u8abf\u67fb\u4e8b\u52d9\u6240","boring_xml_url":0,"boring_view_url":0,"soilmap_view_url":66,"soiltest_xml_url":0,"soiltest_view_url":66},{"id":116711,"code":"B4KJ201801000-4960","latitude":"36.62661111","longitude":"136.6066944","source_code":"PORT17002011706","project_name":"\u6e2f\u6e7e\u5c40","survey_name":"\u91d1\u6ca2\u6e2f\u770c\u5358\u6e2f\u6e7e\u6539\u826f\u5de5\u4e8b(\u8abf\u67fb)\u696d\u52d9\u59d4\u8a17(\u305d\u306e5)","client_name":"\u56fd\u571f\u4ea4\u901a\u7701\u5317\u9678\u5730\u65b9\u6574\u5099\u5c40\u65b0\u6f5f\u6e2f\u6e7e\u7a7a\u6e2f\u6280\u8853\u8abf\u67fb\u4e8b\u52d9\u6240","boring_xml_url":0,"boring_view_url":0,"soilmap_view_url":66,"soiltest_xml_url":0,"soiltest_view_url":66},{"id":116710,"code":"B4KJ201801000-4959","latitude":"36.62544444","longitude":"136.6073056","source_code":"PORT17002011705","project_name":"\u6e2f\u6e7e\u5c40","survey_name":"\u91d1\u6ca2\u6e2f\u770c\u5358\u6539\u826f\u5de5\u4e8b(\u8abf\u67fb)\u696d\u52d9\u59d4\u8a17(\u305d\u306e6)","client_name":"\u56fd\u571f\u4ea4\u901a\u7701\u5317\u9678\u5730\u65b9\u6574\u5099\u5c40\u65b0\u6f5f\u6e2f\u6e7e\u7a7a\u6e2f\u6280\u8853\u8abf\u67fb\u4e8b\u52d9\u6240","boring_xml_url":0,"boring_view_url":0,"soilmap_view_url":66,"soiltest_xml_url":0,"soiltest_view_url":66},{"id":116709,"code":"B4KJ201801000-4958","latitude":"36.62608333","longitude":"136.6062222","source_code":"PORT17002011704","project_name":"\u6e2f\u6e7e\u5c40","survey_name":"\u91d1\u6ca2\u6e2f\u770c\u5358\u6e2f\u6e7e\u6539\u826f\u5de5\u4e8b(\u8abf\u67fb)\u696d\u52d9\u59d4\u8a17(\u305d\u306e5)","client_name":"\u56fd\u571f\u4ea4\u901a\u7701\u5317\u9678\u5730\u65b9\u6574\u5099\u5c40\u65b0\u6f5f\u6e2f\u6e7e\u7a7a\u6e2f\u6280\u8853\u8abf\u67fb\u4e8b\u52d9\u6240","boring_xml_url":0,"boring_view_url":0,"soilmap_view_url":66,"soiltest_xml_url":0,"soiltest_view_url":66},{"id":116708,"code":"B4KJ201801000-4957","latitude":"36.62527778","longitude":"136.608","source_code":"PORT17002011703","project_name":"\u6e2f\u6e7e\u5c40","survey_name":"\u91d1\u6ca2\u6e2f\u770c\u5358\u6539\u826f\u5de5\u4e8b(\u8abf\u67fb)\u696d\u52d9\u59d4\u8a17(\u305d\u306e6)","client_name":"\u56fd\u571f\u4ea4\u901a\u7701\u5317\u9678\u5730\u65b9\u6574\u5099\u5c40\u65b0\u6f5f\u6e2f\u6e7e\u7a7a\u6e2f\u6280\u8853\u8abf\u67fb\u4e8b\u52d9\u6240","boring_xml_url":0,"boring_view_url":0,"soilmap_view_url":66,"soiltest_xml_url":0,"soiltest_view_url":66},{"id":116707,"code":"B4KJ201801000-4956","latitude":"36.62561111","longitude":"136.6074444","source_code":"PORT17002011702","project_name":"\u6e2f\u6e7e\u5c40","survey_name":"\u91d1\u6ca2\u6e2f\u770c\u5358\u6539\u826f\u5de5\u4e8b(\u8abf\u67fb)\u696d\u52d9\u59d4\u8a17(\u305d\u306e6)","client_name":"\u56fd\u571f\u4ea4\u901a\u7701\u5317\u9678\u5730\u65b9\u6574\u5099\u5c40\u65b0\u6f5f\u6e2f\u6e7e\u7a7a\u6e2f\u6280\u8853\u8abf\u67fb\u4e8b\u52d9\u6240","boring_xml_url":0,"boring_view_url":0,"soilmap_view_url":66,"soiltest_xml_url":0,"soiltest_view_url":66},{"id":116706,"code":"B4KJ201801000-4955","latitude":"36.62622222","longitude":"136.6063611","source_code":"PORT17002011701","project_name":"\u6e2f\u6e7e\u5c40","survey_name":"\u91d1\u6ca2\u6e2f\u770c\u5358\u6e2f\u6e7e\u6539\u826f\u5de5\u4e8b(\u8abf\u67fb)\u696d\u52d9\u59d4\u8a17(\u305d\u306e5)","client_name":"\u56fd\u571f\u4ea4\u901a\u7701\u5317\u9678\u5730\u65b9\u6574\u5099\u5c40\u65b0\u6f5f\u6e2f\u6e7e\u7a7a\u6e2f\u6280\u8853\u8abf\u67fb\u4e8b\u52d9\u6240","boring_xml_url":0,"boring_view_url":0,"soilmap_view_url":66,"soiltest_xml_url":0,"soiltest_view_url":66},{"id":116705,"code":"B4KJ201801000-4954","latitude":"36.62261111","longitude":"136.6069444","source_code":"PORT17002010146","project_name":"\u6e2f\u6e7e\u5c40","survey_name":"\u91d1\u6ca2\u6e2f\u571f\u8cea\u8abf\u67fb\u305d\u306e2","client_name":"\u56fd\u571f\u4ea4\u901a\u7701\u5317\u9678\u5730\u65b9\u6574\u5099\u5c40\u65b0\u6f5f\u6e2f\u6e7e\u7a7a\u6e2f\u6280\u8853\u8abf\u67fb\u4e8b\u52d9\u6240","boring_xml_url":0,"boring_view_url":0,"soilmap_view_url":66,"soiltest_xml_url":0,"soiltest_view_url":66},{"id":116704,"code":"B4KJ201801000-4953","latitude":"36.62616667","longitude":"136.6036667","source_code":"PORT17002010145","project_name":"\u6e2f\u6e7e\u5c40","survey_name":"\u91d1\u6ca2\u6e2f\u571f\u8cea\u8abf\u67fb\u305d\u306e2","client_name":"\u56fd\u571f\u4ea4\u901a\u7701\u5317\u9678\u5730\u65b9\u6574\u5099\u5c40\u65b0\u6f5f\u6e2f\u6e7e\u7a7a\u6e2f\u6280\u8853\u8abf\u67fb\u4e8b\u52d9\u6240","boring_xml_url":0,"boring_view_url":0,"soilmap_view_url":66,"soiltest_xml_url":0,"soiltest_view_url":66},{"id":116703,"code":"B4KJ201801000-4952","latitude":"36.61499519","longitude":"136.6136692","source_code":"PORT17002010124","project_name":"\u6e2f\u6e7e\u5c40","survey_name":"\u91d1\u6ca2\u6e2f\u5927\u91ce\u5730\u533a\u822a\u8def08\u5e74NO.8-5","client_name":"\u56fd\u571f\u4ea4\u901a\u7701\u5317\u9678\u5730\u65b9\u6574\u5099\u5c40\u65b0\u6f5f\u6e2f\u6e7e\u7a7a\u6e2f\u6280\u8853\u8abf\u67fb\u4e8b\u52d9\u6240","boring_xml_url":0,"boring_view_url":0,"soilmap_view_url":66,"soiltest_xml_url":0,"soiltest_view_url":66},{"id":116702,"code":"B4KJ201801000-4951","latitude":"36.61471745","longitude":"136.613947","source_code":"PORT17002010123","project_name":"\u6e2f\u6e7e\u5c40","survey_name":"\u91d1\u6ca2\u6e2f\u5927\u91ce\u5730\u533a\u822a\u8def08\u5e74NO.8-4","client_name":"\u56fd\u571f\u4ea4\u901a\u7701\u5317\u9678\u5730\u65b9\u6574\u5099\u5c40\u65b0\u6f5f\u6e2f\u6e7e\u7a7a\u6e2f\u6280\u8853\u8abf\u67fb\u4e8b\u52d9\u6240","boring_xml_url":0,"boring_view_url":0,"soilmap_view_url":66,"soiltest_xml_url":0,"soiltest_view_url":66},{"id":116701,"code":"B4KJ201801000-4950","latitude":"36.61443971","longitude":"136.6142247","source_code":"PORT17002010122","project_name":"\u6e2f\u6e7e\u5c40","survey_name":"\u91d1\u6ca2\u6e2f\u5927\u91ce\u5730\u533a\u822a\u8def08\u5e74NO.8-3","client_name":"\u56fd\u571f\u4ea4\u901a\u7701\u5317\u9678\u5730\u65b9\u6574\u5099\u5c40\u65b0\u6f5f\u6e2f\u6e7e\u7a7a\u6e2f\u6280\u8853\u8abf\u67fb\u4e8b\u52d9\u6240","boring_xml_url":0,"boring_view_url":0,"soilmap_view_url":66,"soiltest_xml_url":0,"soiltest_view_url":66},{"id":116700,"code":"B4KJ201801000-4949","latitude":"36.61443973","longitude":"136.6147802","source_code":"PORT17002010121","project_name":"\u6e2f\u6e7e\u5c40","survey_name":"\u91d1\u6ca2\u6e2f\u5927\u91ce\u5730\u533a\u822a\u8def08\u5e74NO.8-2","client_name":"\u56fd\u571f\u4ea4\u901a\u7701\u5317\u9678\u5730\u65b9\u6574\u5099\u5c40\u65b0\u6f5f\u6e2f\u6e7e\u7a7a\u6e2f\u6280\u8853\u8abf\u67fb\u4e8b\u52d9\u6240","boring_xml_url":0,"boring_view_url":0,"soilmap_view_url":66,"soiltest_xml_url":0,"soiltest_view_url":66},{"id":116699,"code":"B4KJ201801000-4948","latitude":"36.61443974","longitude":"136.6153357","source_code":"PORT17002010120","project_name":"\u6e2f\u6e7e\u5c40","survey_name":"\u91d1\u6ca2\u6e2f\u5927\u91ce\u5730\u533a\u822a\u8def08\u5e74NO.8-1","client_name":"\u56fd\u571f\u4ea4\u901a\u7701\u5317\u9678\u5730\u65b9\u6574\u5099\u5c40\u65b0\u6f5f\u6e2f\u6e7e\u7a7a\u6e2f\u6280\u8853\u8abf\u67fb\u4e8b\u52d9\u6240","boring_xml_url":0,"boring_view_url":0,"soilmap_view_url":66,"soiltest_xml_url":0,"soiltest_view_url":66},{"id":116698,"code":"B4KJ201801000-4947","latitude":"36.6127735","longitude":"136.6245017","source_code":"PORT17002010119","project_name":"\u6e2f\u6e7e\u5c40","survey_name":"\u91d1\u6ca2\u6e2f\u5cb8\u58c1(-10m)(\u5fa1\u4f9b\u7530)","client_name":"\u56fd\u571f\u4ea4\u901a\u7701\u5317\u9678\u5730\u65b9\u6574\u5099\u5c40\u65b0\u6f5f\u6e2f\u6e7e\u7a7a\u6e2f\u6280\u8853\u8abf\u67fb\u4e8b\u52d9\u6240","boring_xml_url":0,"boring_view_url":0,"soilmap_view_url":66,"soiltest_xml_url":0,"soiltest_view_url":66},{"id":116697,"code":"B4KJ201801000-4946","latitude":"36.61249574","longitude":"136.6239462","source_code":"PORT17002010118","project_name":"\u6e2f\u6e7e\u5c40","survey_name":"\u91d1\u6ca2\u6e2f\u5cb8\u58c1(-10m)(\u5fa1\u4f9b\u7530)","client_name":"\u56fd\u571f\u4ea4\u901a\u7701\u5317\u9678\u5730\u65b9\u6574\u5099\u5c40\u65b0\u6f5f\u6e2f\u6e7e\u7a7a\u6e2f\u6280\u8853\u8abf\u67fb\u4e8b\u52d9\u6240","boring_xml_url":0,"boring_view_url":0,"soilmap_view_url":66,"soiltest_xml_url":0,"soiltest_view_url":66},{"id":116696,"code":"B4KJ201801000-4945","latitude":"36.61194026","longitude":"136.6242239","source_code":"PORT17002010117","project_name":"\u6e2f\u6e7e\u5c40","survey_name":"\u91d1\u6ca2\u6e2f\u5cb8\u58c1(-10m)(\u5fa1\u4f9b\u7530)","client_name":"\u56fd\u571f\u4ea4\u901a\u7701\u5317\u9678\u5730\u65b9\u6574\u5099\u5c40\u65b0\u6f5f\u6e2f\u6e7e\u7a7a\u6e2f\u6280\u8853\u8abf\u67fb\u4e8b\u52d9\u6240","boring_xml_url":0,"boring_view_url":0,"soilmap_view_url":66,"soiltest_xml_url":0,"soiltest_view_url":66}]}}