{"header":{"xyz":{"source":[],"mosaic":false},"page":6796,"raw":{"soiltest_result":"0","bbox":"57.598333,109.544722,1.933333,163.806111","page":"6796"},"conditions":{"soiltest_result":0,"north":57.598333,"west":109.544722,"south":1.933333,"east":163.806111},"success":true,"message":""},"data":{"meta":{"total":212844,"page":6796,"pages":7095,"count":30},"values":[{"id":116695,"code":"B4KJ201801000-4944","latitude":"36.61332899","longitude":"136.6245016","source_code":"PORT17002010116","project_name":"\u6e2f\u6e7e\u5c40","survey_name":"\u91d1\u6ca2\u6e2f\u5cb8\u58c1(-10m)(\u5fa1\u4f9b\u7530)","client_name":"\u56fd\u571f\u4ea4\u901a\u7701\u5317\u9678\u5730\u65b9\u6574\u5099\u5c40\u65b0\u6f5f\u6e2f\u6e7e\u7a7a\u6e2f\u6280\u8853\u8abf\u67fb\u4e8b\u52d9\u6240","boring_xml_url":0,"boring_view_url":0,"soilmap_view_url":66,"soiltest_xml_url":0,"soiltest_view_url":66},{"id":116694,"code":"B4KJ201801000-4943","latitude":"36.61277349","longitude":"136.6242239","source_code":"PORT17002010115","project_name":"\u6e2f\u6e7e\u5c40","survey_name":"\u91d1\u6ca2\u6e2f\u5cb8\u58c1(-10m)(\u5fa1\u4f9b\u7530)","client_name":"\u56fd\u571f\u4ea4\u901a\u7701\u5317\u9678\u5730\u65b9\u6574\u5099\u5c40\u65b0\u6f5f\u6e2f\u6e7e\u7a7a\u6e2f\u6280\u8853\u8abf\u67fb\u4e8b\u52d9\u6240","boring_xml_url":0,"boring_view_url":0,"soilmap_view_url":66,"soiltest_xml_url":0,"soiltest_view_url":66},{"id":116693,"code":"B4KJ201801000-4942","latitude":"36.61249574","longitude":"136.6239462","source_code":"PORT17002010114","project_name":"\u6e2f\u6e7e\u5c40","survey_name":"\u91d1\u6ca2\u6e2f\u5cb8\u58c1(-10m)(\u5fa1\u4f9b\u7530)","client_name":"\u56fd\u571f\u4ea4\u901a\u7701\u5317\u9678\u5730\u65b9\u6574\u5099\u5c40\u65b0\u6f5f\u6e2f\u6e7e\u7a7a\u6e2f\u6280\u8853\u8abf\u67fb\u4e8b\u52d9\u6240","boring_xml_url":0,"boring_view_url":0,"soilmap_view_url":66,"soiltest_xml_url":0,"soiltest_view_url":66},{"id":116692,"code":"B4KJ201801000-4941","latitude":"36.61194024","longitude":"136.6236684","source_code":"PORT17002010113","project_name":"\u6e2f\u6e7e\u5c40","survey_name":"\u91d1\u6ca2\u6e2f\u5cb8\u58c1(-10m)(\u5fa1\u4f9b\u7530)","client_name":"\u56fd\u571f\u4ea4\u901a\u7701\u5317\u9678\u5730\u65b9\u6574\u5099\u5c40\u65b0\u6f5f\u6e2f\u6e7e\u7a7a\u6e2f\u6280\u8853\u8abf\u67fb\u4e8b\u52d9\u6240","boring_xml_url":0,"boring_view_url":0,"soilmap_view_url":66,"soiltest_xml_url":0,"soiltest_view_url":66},{"id":116691,"code":"B4KJ201801000-4940","latitude":"36.61138474","longitude":"136.6233907","source_code":"PORT17002010112","project_name":"\u6e2f\u6e7e\u5c40","survey_name":"\u91d1\u6ca2\u6e2f\u5cb8\u58c1(-10m)(\u5fa1\u4f9b\u7530)","client_name":"\u56fd\u571f\u4ea4\u901a\u7701\u5317\u9678\u5730\u65b9\u6574\u5099\u5c40\u65b0\u6f5f\u6e2f\u6e7e\u7a7a\u6e2f\u6280\u8853\u8abf\u67fb\u4e8b\u52d9\u6240","boring_xml_url":0,"boring_view_url":0,"soilmap_view_url":66,"soiltest_xml_url":0,"soiltest_view_url":66},{"id":116690,"code":"B4KJ201801000-4939","latitude":"36.60888496","longitude":"136.6203355","source_code":"PORT17002010111","project_name":"\u6e2f\u6e7e\u5c40","survey_name":"\u91d1\u6ca2\u6e2f(\u5927\u91ce\u5730\u533a)GANNPEKI(-10m)(\u6539\u826f)\u571f\u8cea\u8abf\u67fb","client_name":"\u56fd\u571f\u4ea4\u901a\u7701\u5317\u9678\u5730\u65b9\u6574\u5099\u5c40\u65b0\u6f5f\u6e2f\u6e7e\u7a7a\u6e2f\u6280\u8853\u8abf\u67fb\u4e8b\u52d9\u6240","boring_xml_url":0,"boring_view_url":0,"soilmap_view_url":66,"soiltest_xml_url":0,"soiltest_view_url":66},{"id":116689,"code":"B4KJ201801000-4938","latitude":"36.61874052","longitude":"136.6033067","source_code":"PORT17002010109","project_name":"\u6e2f\u6e7e\u5c40","survey_name":"\u91d1\u6ca2\u6e2f\u4f5c\u696d\u65bd\u8a2d","client_name":"\u56fd\u571f\u4ea4\u901a\u7701\u5317\u9678\u5730\u65b9\u6574\u5099\u5c40\u65b0\u6f5f\u6e2f\u6e7e\u7a7a\u6e2f\u6280\u8853\u8abf\u67fb\u4e8b\u52d9\u6240","boring_xml_url":0,"boring_view_url":0,"soilmap_view_url":66,"soiltest_xml_url":0,"soiltest_view_url":66},{"id":116688,"code":"B4KJ201801000-4937","latitude":"36.64082545","longitude":"136.6100574","source_code":"PORT17002010108","project_name":"\u6e2f\u6e7e\u5c40","survey_name":"\u91d1\u6ca2\u6e2f\u5927\u91ce\u5730\u533a\u9632\u6ce2\u5824","client_name":"\u56fd\u571f\u4ea4\u901a\u7701\u5317\u9678\u5730\u65b9\u6574\u5099\u5c40\u65b0\u6f5f\u6e2f\u6e7e\u7a7a\u6e2f\u6280\u8853\u8abf\u67fb\u4e8b\u52d9\u6240","boring_xml_url":0,"boring_view_url":0,"soilmap_view_url":66,"soiltest_xml_url":0,"soiltest_view_url":66},{"id":116687,"code":"B4KJ201801000-4936","latitude":"36.64026998","longitude":"136.6108907","source_code":"PORT17002010107","project_name":"\u6e2f\u6e7e\u5c40","survey_name":"\u91d1\u6ca2\u6e2f\u5927\u91ce\u5730\u533a\u9632\u6ce2\u5824","client_name":"\u56fd\u571f\u4ea4\u901a\u7701\u5317\u9678\u5730\u65b9\u6574\u5099\u5c40\u65b0\u6f5f\u6e2f\u6e7e\u7a7a\u6e2f\u6280\u8853\u8abf\u67fb\u4e8b\u52d9\u6240","boring_xml_url":0,"boring_view_url":0,"soilmap_view_url":66,"soiltest_xml_url":0,"soiltest_view_url":66},{"id":116686,"code":"B4KJ201801000-4935","latitude":"36.63971451","longitude":"136.6120017","source_code":"PORT17002010106","project_name":"\u6e2f\u6e7e\u5c40","survey_name":"\u91d1\u6ca2\u6e2f\u5927\u91ce\u5730\u533a\u9632\u6ce2\u5824","client_name":"\u56fd\u571f\u4ea4\u901a\u7701\u5317\u9678\u5730\u65b9\u6574\u5099\u5c40\u65b0\u6f5f\u6e2f\u6e7e\u7a7a\u6e2f\u6280\u8853\u8abf\u67fb\u4e8b\u52d9\u6240","boring_xml_url":0,"boring_view_url":0,"soilmap_view_url":66,"soiltest_xml_url":0,"soiltest_view_url":66},{"id":116685,"code":"B4KJ201801000-4934","latitude":"36.63915904","longitude":"136.612835","source_code":"PORT17002010105","project_name":"\u6e2f\u6e7e\u5c40","survey_name":"\u91d1\u6ca2\u6e2f\u5927\u91ce\u5730\u533a\u9632\u6ce2\u5824","client_name":"\u56fd\u571f\u4ea4\u901a\u7701\u5317\u9678\u5730\u65b9\u6574\u5099\u5c40\u65b0\u6f5f\u6e2f\u6e7e\u7a7a\u6e2f\u6280\u8853\u8abf\u67fb\u4e8b\u52d9\u6240","boring_xml_url":0,"boring_view_url":0,"soilmap_view_url":66,"soiltest_xml_url":0,"soiltest_view_url":66},{"id":116684,"code":"B4KJ201801000-4933","latitude":"36.60916271","longitude":"136.6206133","source_code":"PORT17002010104","project_name":"\u6e2f\u6e7e\u5c40","survey_name":"\u91d1\u6ca2\u6e2f\u5927\u91ce-\u5730\u533a\u5cb8\u58c1","client_name":"\u56fd\u571f\u4ea4\u901a\u7701\u5317\u9678\u5730\u65b9\u6574\u5099\u5c40\u65b0\u6f5f\u6e2f\u6e7e\u7a7a\u6e2f\u6280\u8853\u8abf\u67fb\u4e8b\u52d9\u6240","boring_xml_url":0,"boring_view_url":0,"soilmap_view_url":66,"soiltest_xml_url":0,"soiltest_view_url":66},{"id":116683,"code":"B4KJ201801000-4932","latitude":"36.60944046","longitude":"136.620891","source_code":"PORT17002010103","project_name":"\u6e2f\u6e7e\u5c40","survey_name":"\u91d1\u6ca2\u6e2f\u5927\u91ce-\u5730\u533a\u5cb8\u58c1","client_name":"\u56fd\u571f\u4ea4\u901a\u7701\u5317\u9678\u5730\u65b9\u6574\u5099\u5c40\u65b0\u6f5f\u6e2f\u6e7e\u7a7a\u6e2f\u6280\u8853\u8abf\u67fb\u4e8b\u52d9\u6240","boring_xml_url":0,"boring_view_url":0,"soilmap_view_url":66,"soiltest_xml_url":0,"soiltest_view_url":66},{"id":116682,"code":"B4KJ201801000-4931","latitude":"36.60944046","longitude":"136.620891","source_code":"PORT17002010102","project_name":"\u6e2f\u6e7e\u5c40","survey_name":"\u91d1\u6ca2\u6e2f\u5927\u91ce-\u5730\u533a\u5cb8\u58c1","client_name":"\u56fd\u571f\u4ea4\u901a\u7701\u5317\u9678\u5730\u65b9\u6574\u5099\u5c40\u65b0\u6f5f\u6e2f\u6e7e\u7a7a\u6e2f\u6280\u8853\u8abf\u67fb\u4e8b\u52d9\u6240","boring_xml_url":0,"boring_view_url":0,"soilmap_view_url":66,"soiltest_xml_url":0,"soiltest_view_url":66},{"id":116681,"code":"B4KJ201801000-4930","latitude":"36.60971821","longitude":"136.6211687","source_code":"PORT17002010101","project_name":"\u6e2f\u6e7e\u5c40","survey_name":"\u91d1\u6ca2\u6e2f\u5927\u91ce-\u5730\u533a\u5927\u578b\u5cb8\u58c1","client_name":"\u56fd\u571f\u4ea4\u901a\u7701\u5317\u9678\u5730\u65b9\u6574\u5099\u5c40\u65b0\u6f5f\u6e2f\u6e7e\u7a7a\u6e2f\u6280\u8853\u8abf\u67fb\u4e8b\u52d9\u6240","boring_xml_url":0,"boring_view_url":0,"soilmap_view_url":66,"soiltest_xml_url":0,"soiltest_view_url":66},{"id":116680,"code":"B4KJ201801000-4929","latitude":"36.60888493","longitude":"136.6192245","source_code":"PORT17002010100","project_name":"\u6e2f\u6e7e\u5c40","survey_name":"\u91d1\u6ca2\u6e2f\u5927\u91ce-\u5730\u533a\u5927\u578b\u5cb8\u58c1","client_name":"\u56fd\u571f\u4ea4\u901a\u7701\u5317\u9678\u5730\u65b9\u6574\u5099\u5c40\u65b0\u6f5f\u6e2f\u6e7e\u7a7a\u6e2f\u6280\u8853\u8abf\u67fb\u4e8b\u52d9\u6240","boring_xml_url":0,"boring_view_url":0,"soilmap_view_url":66,"soiltest_xml_url":0,"soiltest_view_url":66},{"id":116679,"code":"B4KJ201801000-4928","latitude":"36.60916248","longitude":"136.6114474","source_code":"PORT17002010099","project_name":"\u6e2f\u6e7e\u5c40","survey_name":"\u91d1\u6ca2\u6e2f\u5927\u91ce-\u5730\u533a\u5927\u578b\u5cb8\u58c1","client_name":"\u56fd\u571f\u4ea4\u901a\u7701\u5317\u9678\u5730\u65b9\u6574\u5099\u5c40\u65b0\u6f5f\u6e2f\u6e7e\u7a7a\u6e2f\u6280\u8853\u8abf\u67fb\u4e8b\u52d9\u6240","boring_xml_url":0,"boring_view_url":0,"soilmap_view_url":66,"soiltest_xml_url":0,"soiltest_view_url":66},{"id":116678,"code":"B4KJ201801000-4927","latitude":"36.61138474","longitude":"136.6233907","source_code":"PORT17002010098","project_name":"\u6e2f\u6e7e\u5c40","survey_name":"\u91d1\u6ca2\u6e2f\u5927\u91ce-\u5730\u533a\u5cb8\u58c1","client_name":"\u56fd\u571f\u4ea4\u901a\u7701\u5317\u9678\u5730\u65b9\u6574\u5099\u5c40\u65b0\u6f5f\u6e2f\u6e7e\u7a7a\u6e2f\u6280\u8853\u8abf\u67fb\u4e8b\u52d9\u6240","boring_xml_url":0,"boring_view_url":0,"soilmap_view_url":66,"soiltest_xml_url":0,"soiltest_view_url":66},{"id":116677,"code":"B4KJ201801000-4926","latitude":"36.61110696","longitude":"136.6220019","source_code":"PORT17002010097","project_name":"\u6e2f\u6e7e\u5c40","survey_name":"\u91d1\u6ca2\u6e2f\u5927\u91ce-\u5730\u533a\u5cb8\u58c1","client_name":"\u56fd\u571f\u4ea4\u901a\u7701\u5317\u9678\u5730\u65b9\u6574\u5099\u5c40\u65b0\u6f5f\u6e2f\u6e7e\u7a7a\u6e2f\u6280\u8853\u8abf\u67fb\u4e8b\u52d9\u6240","boring_xml_url":0,"boring_view_url":0,"soilmap_view_url":66,"soiltest_xml_url":0,"soiltest_view_url":66},{"id":116676,"code":"B4KJ201801000-4925","latitude":"36.61166248","longitude":"136.6228352","source_code":"PORT17002010096","project_name":"\u6e2f\u6e7e\u5c40","survey_name":"\u91d1\u6ca2\u6e2f\u5927\u91ce-\u5730\u533a\u5cb8\u58c1","client_name":"\u56fd\u571f\u4ea4\u901a\u7701\u5317\u9678\u5730\u65b9\u6574\u5099\u5c40\u65b0\u6f5f\u6e2f\u6e7e\u7a7a\u6e2f\u6280\u8853\u8abf\u67fb\u4e8b\u52d9\u6240","boring_xml_url":0,"boring_view_url":0,"soilmap_view_url":66,"soiltest_xml_url":0,"soiltest_view_url":66},{"id":116675,"code":"B4KJ201801000-4924","latitude":"36.61082923","longitude":"136.6222797","source_code":"PORT17002010095","project_name":"\u6e2f\u6e7e\u5c40","survey_name":"\u91d1\u6ca2\u6e2f\u5927\u91ce-\u5730\u533a\u5cb8\u58c1","client_name":"\u56fd\u571f\u4ea4\u901a\u7701\u5317\u9678\u5730\u65b9\u6574\u5099\u5c40\u65b0\u6f5f\u6e2f\u6e7e\u7a7a\u6e2f\u6280\u8853\u8abf\u67fb\u4e8b\u52d9\u6240","boring_xml_url":0,"boring_view_url":0,"soilmap_view_url":66,"soiltest_xml_url":0,"soiltest_view_url":66},{"id":116674,"code":"B4KJ201801000-4923","latitude":"36.64332489","longitude":"136.5995027","source_code":"PORT17002010094","project_name":"\u6e2f\u6e7e\u5c40","survey_name":"\u91d1\u6ca2\u6e2f\u91d1\u77f3\u5730\u533a\u897f\u9632\u6ce2\u5824","client_name":"\u56fd\u571f\u4ea4\u901a\u7701\u5317\u9678\u5730\u65b9\u6574\u5099\u5c40\u65b0\u6f5f\u6e2f\u6e7e\u7a7a\u6e2f\u6280\u8853\u8abf\u67fb\u4e8b\u52d9\u6240","boring_xml_url":0,"boring_view_url":0,"soilmap_view_url":66,"soiltest_xml_url":0,"soiltest_view_url":66},{"id":116673,"code":"B4KJ201801000-4922","latitude":"36.60888396","longitude":"136.5808946","source_code":"PORT17002010093","project_name":"\u6e2f\u6e7e\u5c40","survey_name":"\u91d1\u6ca2\u6e2f\u91d1\u77f3\u5730\u533a\u897f\u9632\u6ce2\u5824","client_name":"\u56fd\u571f\u4ea4\u901a\u7701\u5317\u9678\u5730\u65b9\u6574\u5099\u5c40\u65b0\u6f5f\u6e2f\u6e7e\u7a7a\u6e2f\u6280\u8853\u8abf\u67fb\u4e8b\u52d9\u6240","boring_xml_url":0,"boring_view_url":0,"soilmap_view_url":66,"soiltest_xml_url":0,"soiltest_view_url":66},{"id":116672,"code":"B4KJ201801000-4921","latitude":"36.60777298","longitude":"136.5808946","source_code":"PORT17002010092","project_name":"\u6e2f\u6e7e\u5c40","survey_name":"\u91d1\u6ca2\u6e2f\u91d1\u77f3\u5730\u533a\u897f\u9632\u6ce2\u5824","client_name":"\u56fd\u571f\u4ea4\u901a\u7701\u5317\u9678\u5730\u65b9\u6574\u5099\u5c40\u65b0\u6f5f\u6e2f\u6e7e\u7a7a\u6e2f\u6280\u8853\u8abf\u67fb\u4e8b\u52d9\u6240","boring_xml_url":0,"boring_view_url":0,"soilmap_view_url":66,"soiltest_xml_url":0,"soiltest_view_url":66},{"id":116671,"code":"B4KJ201801000-4920","latitude":"36.60693974","longitude":"136.5808946","source_code":"PORT17002010091","project_name":"\u6e2f\u6e7e\u5c40","survey_name":"\u91d1\u6ca2\u6e2f\u91d1\u77f3\u5730\u533a\u897f\u9632\u6ce2\u5824","client_name":"\u56fd\u571f\u4ea4\u901a\u7701\u5317\u9678\u5730\u65b9\u6574\u5099\u5c40\u65b0\u6f5f\u6e2f\u6e7e\u7a7a\u6e2f\u6280\u8853\u8abf\u67fb\u4e8b\u52d9\u6240","boring_xml_url":0,"boring_view_url":0,"soilmap_view_url":66,"soiltest_xml_url":0,"soiltest_view_url":66},{"id":116670,"code":"B4KJ201801000-4919","latitude":"36.61416206","longitude":"136.6178355","source_code":"PORT17002010090","project_name":"\u6e2f\u6e7e\u5c40","survey_name":"\u91d1\u6ca2\u6e2f\u5927\u91ce\u5730\u533a\u5cb8\u58c1","client_name":"\u56fd\u571f\u4ea4\u901a\u7701\u5317\u9678\u5730\u65b9\u6574\u5099\u5c40\u65b0\u6f5f\u6e2f\u6e7e\u7a7a\u6e2f\u6280\u8853\u8abf\u67fb\u4e8b\u52d9\u6240","boring_xml_url":0,"boring_view_url":0,"soilmap_view_url":66,"soiltest_xml_url":0,"soiltest_view_url":66},{"id":116669,"code":"B4KJ201801000-4918","latitude":"36.61416202","longitude":"136.616169","source_code":"PORT17002010089","project_name":"\u6e2f\u6e7e\u5c40","survey_name":"\u91d1\u6ca2\u6e2f\u5927\u91ce\u5730\u533a\u5cb8\u58c1","client_name":"\u56fd\u571f\u4ea4\u901a\u7701\u5317\u9678\u5730\u65b9\u6574\u5099\u5c40\u65b0\u6f5f\u6e2f\u6e7e\u7a7a\u6e2f\u6280\u8853\u8abf\u67fb\u4e8b\u52d9\u6240","boring_xml_url":0,"boring_view_url":0,"soilmap_view_url":66,"soiltest_xml_url":0,"soiltest_view_url":66},{"id":116668,"code":"B4KJ201801000-4917","latitude":"36.61443982","longitude":"136.618391","source_code":"PORT17002010088","project_name":"\u6e2f\u6e7e\u5c40","survey_name":"\u91d1\u6ca2\u6e2f(\u5927\u91ce\u5730\u533a)\u5cb8\u58c1","client_name":"\u56fd\u571f\u4ea4\u901a\u7701\u5317\u9678\u5730\u65b9\u6574\u5099\u5c40\u65b0\u6f5f\u6e2f\u6e7e\u7a7a\u6e2f\u6280\u8853\u8abf\u67fb\u4e8b\u52d9\u6240","boring_xml_url":0,"boring_view_url":0,"soilmap_view_url":66,"soiltest_xml_url":0,"soiltest_view_url":66},{"id":116667,"code":"B4KJ201801000-4916","latitude":"36.61443978","longitude":"136.6167245","source_code":"PORT17002010087","project_name":"\u6e2f\u6e7e\u5c40","survey_name":"\u91d1\u6ca2\u6e2f(\u5927\u91ce\u5730\u533a)\u5cb8\u58c1","client_name":"\u56fd\u571f\u4ea4\u901a\u7701\u5317\u9678\u5730\u65b9\u6574\u5099\u5c40\u65b0\u6f5f\u6e2f\u6e7e\u7a7a\u6e2f\u6280\u8853\u8abf\u67fb\u4e8b\u52d9\u6240","boring_xml_url":0,"boring_view_url":0,"soilmap_view_url":66,"soiltest_xml_url":0,"soiltest_view_url":66},{"id":116666,"code":"B4KJ201801000-4915","latitude":"36.61416208","longitude":"136.618391","source_code":"PORT17002010086","project_name":"\u6e2f\u6e7e\u5c40","survey_name":"\u91d1\u6ca2\u6e2f(\u5927\u91ce\u5730\u533a)\u5cb8\u58c1","client_name":"\u56fd\u571f\u4ea4\u901a\u7701\u5317\u9678\u5730\u65b9\u6574\u5099\u5c40\u65b0\u6f5f\u6e2f\u6e7e\u7a7a\u6e2f\u6280\u8853\u8abf\u67fb\u4e8b\u52d9\u6240","boring_xml_url":0,"boring_view_url":0,"soilmap_view_url":66,"soiltest_xml_url":0,"soiltest_view_url":66}]}}