{"header":{"xyz":{"source":[],"mosaic":false},"page":6799,"raw":{"soiltest_result":"0","bbox":"57.598333,109.544722,1.933333,163.806111","page":"6799"},"conditions":{"soiltest_result":0,"north":57.598333,"west":109.544722,"south":1.933333,"east":163.806111},"success":true,"message":""},"data":{"meta":{"total":212844,"page":6799,"pages":7095,"count":30},"values":[{"id":116605,"code":"B4KJ201801000-4854","latitude":"36.61332853","longitude":"136.6061699","source_code":"PORT17002010013","project_name":"\u6e2f\u6e7e\u5c40","survey_name":"\u91d1\u6ca2\u6e2f\u571f\u8cea\u4e00\u89a7\u8868","client_name":"\u56fd\u571f\u4ea4\u901a\u7701\u5317\u9678\u5730\u65b9\u6574\u5099\u5c40\u65b0\u6f5f\u6e2f\u6e7e\u7a7a\u6e2f\u6280\u8853\u8abf\u67fb\u4e8b\u52d9\u6240","boring_xml_url":0,"boring_view_url":0,"soilmap_view_url":66,"soiltest_xml_url":0,"soiltest_view_url":66},{"id":116604,"code":"B4KJ201801000-4853","latitude":"36.61832789","longitude":"136.60367","source_code":"PORT17002010012","project_name":"\u6e2f\u6e7e\u5c40","survey_name":"\u91d1\u6ca2\u6e2f\u571f\u8cea\u4e00\u89a7\u8868","client_name":"\u56fd\u571f\u4ea4\u901a\u7701\u5317\u9678\u5730\u65b9\u6574\u5099\u5c40\u65b0\u6f5f\u6e2f\u6e7e\u7a7a\u6e2f\u6280\u8853\u8abf\u67fb\u4e8b\u52d9\u6240","boring_xml_url":0,"boring_view_url":0,"soilmap_view_url":66,"soiltest_xml_url":0,"soiltest_view_url":66},{"id":116603,"code":"B4KJ201801000-4852","latitude":"36.61832788","longitude":"136.6033922","source_code":"PORT17002010011","project_name":"\u6e2f\u6e7e\u5c40","survey_name":"\u91d1\u6ca2\u6e2f\u571f\u8cea\u4e00\u89a7\u8868","client_name":"\u56fd\u571f\u4ea4\u901a\u7701\u5317\u9678\u5730\u65b9\u6574\u5099\u5c40\u65b0\u6f5f\u6e2f\u6e7e\u7a7a\u6e2f\u6280\u8853\u8abf\u67fb\u4e8b\u52d9\u6240","boring_xml_url":0,"boring_view_url":0,"soilmap_view_url":66,"soiltest_xml_url":0,"soiltest_view_url":66},{"id":116602,"code":"B4KJ201801000-4851","latitude":"36.60888493","longitude":"136.6192245","source_code":"PORT17002010010","project_name":"\u6e2f\u6e7e\u5c40","survey_name":"\u91d1\u6ca2\u6e2f-10M\u5cb8\u58c1","client_name":"\u56fd\u571f\u4ea4\u901a\u7701\u5317\u9678\u5730\u65b9\u6574\u5099\u5c40\u65b0\u6f5f\u6e2f\u6e7e\u7a7a\u6e2f\u6280\u8853\u8abf\u67fb\u4e8b\u52d9\u6240","boring_xml_url":0,"boring_view_url":0,"soilmap_view_url":66,"soiltest_xml_url":0,"soiltest_view_url":66},{"id":116601,"code":"B4KJ201801000-4850","latitude":"36.60860716","longitude":"136.6181135","source_code":"PORT17002010009","project_name":"\u6e2f\u6e7e\u5c40","survey_name":"\u91d1\u6ca2\u6e2f-10M\u5cb8\u58c1","client_name":"\u56fd\u571f\u4ea4\u901a\u7701\u5317\u9678\u5730\u65b9\u6574\u5099\u5c40\u65b0\u6f5f\u6e2f\u6e7e\u7a7a\u6e2f\u6280\u8853\u8abf\u67fb\u4e8b\u52d9\u6240","boring_xml_url":0,"boring_view_url":0,"soilmap_view_url":66,"soiltest_xml_url":0,"soiltest_view_url":66},{"id":116600,"code":"B4KJ201801000-4849","latitude":"36.60888494","longitude":"136.61978","source_code":"PORT17002010008","project_name":"\u6e2f\u6e7e\u5c40","survey_name":"\u91d1\u6ca2\u6e2f\u5927\u91ce\u5730\u533a\u5cb8\u58c1","client_name":"\u56fd\u571f\u4ea4\u901a\u7701\u5317\u9678\u5730\u65b9\u6574\u5099\u5c40\u65b0\u6f5f\u6e2f\u6e7e\u7a7a\u6e2f\u6280\u8853\u8abf\u67fb\u4e8b\u52d9\u6240","boring_xml_url":0,"boring_view_url":0,"soilmap_view_url":66,"soiltest_xml_url":0,"soiltest_view_url":66},{"id":116599,"code":"B4KJ201801000-4848","latitude":"36.60888491","longitude":"136.618669","source_code":"PORT17002010007","project_name":"\u6e2f\u6e7e\u5c40","survey_name":"\u91d1\u6ca2\u6e2f\u5927\u91ce\u5730\u533a\u5cb8\u58c1","client_name":"\u56fd\u571f\u4ea4\u901a\u7701\u5317\u9678\u5730\u65b9\u6574\u5099\u5c40\u65b0\u6f5f\u6e2f\u6e7e\u7a7a\u6e2f\u6280\u8853\u8abf\u67fb\u4e8b\u52d9\u6240","boring_xml_url":0,"boring_view_url":0,"soilmap_view_url":66,"soiltest_xml_url":0,"soiltest_view_url":66},{"id":116598,"code":"B4KJ201801000-4847","latitude":"36.60860714","longitude":"136.617558","source_code":"PORT17002010006","project_name":"\u6e2f\u6e7e\u5c40","survey_name":"\u91d1\u6ca2\u6e2f\u5927\u91ce\u5730\u533a\u5cb8\u58c1","client_name":"\u56fd\u571f\u4ea4\u901a\u7701\u5317\u9678\u5730\u65b9\u6574\u5099\u5c40\u65b0\u6f5f\u6e2f\u6e7e\u7a7a\u6e2f\u6280\u8853\u8abf\u67fb\u4e8b\u52d9\u6240","boring_xml_url":0,"boring_view_url":0,"soilmap_view_url":66,"soiltest_xml_url":0,"soiltest_view_url":66},{"id":116597,"code":"B4KJ201801000-4846","latitude":"36.61027361","longitude":"136.6172802","source_code":"PORT17002010005","project_name":"\u6e2f\u6e7e\u5c40","survey_name":"\u91d1\u6ca2\u6e2f\u5927\u91ce\u5730\u533a\u6cca\u5730","client_name":"\u56fd\u571f\u4ea4\u901a\u7701\u5317\u9678\u5730\u65b9\u6574\u5099\u5c40\u65b0\u6f5f\u6e2f\u6e7e\u7a7a\u6e2f\u6280\u8853\u8abf\u67fb\u4e8b\u52d9\u6240","boring_xml_url":0,"boring_view_url":0,"soilmap_view_url":66,"soiltest_xml_url":0,"soiltest_view_url":66},{"id":116596,"code":"B4KJ201801000-4845","latitude":"36.61221782","longitude":"136.6170023","source_code":"PORT17002010004","project_name":"\u6e2f\u6e7e\u5c40","survey_name":"\u91d1\u6ca2\u6e2f\u5927\u91ce\u5730\u533a\u6cca\u5730","client_name":"\u56fd\u571f\u4ea4\u901a\u7701\u5317\u9678\u5730\u65b9\u6574\u5099\u5c40\u65b0\u6f5f\u6e2f\u6e7e\u7a7a\u6e2f\u6280\u8853\u8abf\u67fb\u4e8b\u52d9\u6240","boring_xml_url":0,"boring_view_url":0,"soilmap_view_url":66,"soiltest_xml_url":0,"soiltest_view_url":66},{"id":116595,"code":"B4KJ201801000-4844","latitude":"36.61166227","longitude":"136.6145026","source_code":"PORT17002010003","project_name":"\u6e2f\u6e7e\u5c40","survey_name":"\u91d1\u6ca2\u6e2f\u5927\u91ce\u5730\u533a\u6cca\u5730","client_name":"\u56fd\u571f\u4ea4\u901a\u7701\u5317\u9678\u5730\u65b9\u6574\u5099\u5c40\u65b0\u6f5f\u6e2f\u6e7e\u7a7a\u6e2f\u6280\u8853\u8abf\u67fb\u4e8b\u52d9\u6240","boring_xml_url":0,"boring_view_url":0,"soilmap_view_url":66,"soiltest_xml_url":0,"soiltest_view_url":66},{"id":116594,"code":"B4KJ201801000-4843","latitude":"36.60943997","longitude":"136.6014483","source_code":"PORT17002010002","project_name":"\u6e2f\u6e7e\u5c40","survey_name":"\u91d1\u6ca2\u6e2f\u91d1\u6ca2\u7b2c1SHU","client_name":"\u56fd\u571f\u4ea4\u901a\u7701\u5317\u9678\u5730\u65b9\u6574\u5099\u5c40\u65b0\u6f5f\u6e2f\u6e7e\u7a7a\u6e2f\u6280\u8853\u8abf\u67fb\u4e8b\u52d9\u6240","boring_xml_url":0,"boring_view_url":0,"soilmap_view_url":66,"soiltest_xml_url":0,"soiltest_view_url":66},{"id":116593,"code":"B4KJ201801000-4842","latitude":"36.60943999","longitude":"136.6020038","source_code":"PORT17002010001","project_name":"\u6e2f\u6e7e\u5c40","survey_name":"\u91d1\u6ca2\u6e2f\u91d1\u6ca2\u7b2c1SHU","client_name":"\u56fd\u571f\u4ea4\u901a\u7701\u5317\u9678\u5730\u65b9\u6574\u5099\u5c40\u65b0\u6f5f\u6e2f\u6e7e\u7a7a\u6e2f\u6280\u8853\u8abf\u67fb\u4e8b\u52d9\u6240","boring_xml_url":0,"boring_view_url":0,"soilmap_view_url":66,"soiltest_xml_url":0,"soiltest_view_url":66},{"id":116592,"code":"B4KJ201801000-4841","latitude":"36.64887988","longitude":"136.6025578","source_code":"PORT17002010000","project_name":"\u6e2f\u6e7e\u5c40","survey_name":"\u91d1\u6ca2\u6e2f\u5927\u91ce\u5cb8\u58c1-10M\u5fa1\u4f9b\u7530","client_name":"\u56fd\u571f\u4ea4\u901a\u7701\u5317\u9678\u5730\u65b9\u6574\u5099\u5c40\u65b0\u6f5f\u6e2f\u6e7e\u7a7a\u6e2f\u6280\u8853\u8abf\u67fb\u4e8b\u52d9\u6240","boring_xml_url":0,"boring_view_url":0,"soilmap_view_url":66,"soiltest_xml_url":0,"soiltest_view_url":66},{"id":116591,"code":"B4KJ201801000-4840","latitude":"37.05622222","longitude":"136.9890278","source_code":"PORT17001011702","project_name":"\u6e2f\u6e7e\u5c40","survey_name":"\u4e03\u5c3e\u6e7e(\u5927\u7530\u5730\u533a)\u5cb8\u58c1(-13m)\u571f\u8cea\u8abf\u67fb","client_name":"\u56fd\u571f\u4ea4\u901a\u7701\u5317\u9678\u5730\u65b9\u6574\u5099\u5c40\u65b0\u6f5f\u6e2f\u6e7e\u7a7a\u6e2f\u6280\u8853\u8abf\u67fb\u4e8b\u52d9\u6240","boring_xml_url":0,"boring_view_url":0,"soilmap_view_url":66,"soiltest_xml_url":0,"soiltest_view_url":66},{"id":116590,"code":"B4KJ201801000-4839","latitude":"37.05725","longitude":"136.9910278","source_code":"PORT17001011701","project_name":"\u6e2f\u6e7e\u5c40","survey_name":"\u4e03\u5c3e\u6e2f(\u5927\u7530\u5730\u533a)\u5cb8\u58c1(-13m)\u571f\u8cea\u8abf\u67fb","client_name":"\u56fd\u571f\u4ea4\u901a\u7701\u5317\u9678\u5730\u65b9\u6574\u5099\u5c40\u65b0\u6f5f\u6e2f\u6e7e\u7a7a\u6e2f\u6280\u8853\u8abf\u67fb\u4e8b\u52d9\u6240","boring_xml_url":0,"boring_view_url":0,"soilmap_view_url":66,"soiltest_xml_url":0,"soiltest_view_url":66},{"id":116589,"code":"B4KJ201801000-4838","latitude":"37.06745244","longitude":"136.9944509","source_code":"PORT17001010243","project_name":"\u6e2f\u6e7e\u5c40","survey_name":"\u5e73\u621011\u5e74\u5ea6\u4e03\u5c3e\u6e2f\u571f\u8cea\u8abf\u67fb","client_name":"\u56fd\u571f\u4ea4\u901a\u7701\u5317\u9678\u5730\u65b9\u6574\u5099\u5c40\u65b0\u6f5f\u6e2f\u6e7e\u7a7a\u6e2f\u6280\u8853\u8abf\u67fb\u4e8b\u52d9\u6240","boring_xml_url":0,"boring_view_url":0,"soilmap_view_url":66,"soiltest_xml_url":0,"soiltest_view_url":66},{"id":116588,"code":"B4KJ201801000-4837","latitude":"37.06106418","longitude":"136.9900071","source_code":"PORT17001010242","project_name":"\u6e2f\u6e7e\u5c40","survey_name":"\u5e73\u621011\u5e74\u5ea6\u4e03\u5c3e\u6e2f\u571f\u8cea\u8abf\u67fb","client_name":"\u56fd\u571f\u4ea4\u901a\u7701\u5317\u9678\u5730\u65b9\u6574\u5099\u5c40\u65b0\u6f5f\u6e2f\u6e7e\u7a7a\u6e2f\u6280\u8853\u8abf\u67fb\u4e8b\u52d9\u6240","boring_xml_url":0,"boring_view_url":0,"soilmap_view_url":66,"soiltest_xml_url":0,"soiltest_view_url":66},{"id":116587,"code":"B4KJ201801000-4836","latitude":"37.05884214","longitude":"136.9872297","source_code":"PORT17001010241","project_name":"\u6e2f\u6e7e\u5c40","survey_name":"\u5e73\u621011\u5e74\u5ea6\u4e03\u5c3e\u6e2f\u571f\u8cea\u8abf\u67fb","client_name":"\u56fd\u571f\u4ea4\u901a\u7701\u5317\u9678\u5730\u65b9\u6574\u5099\u5c40\u65b0\u6f5f\u6e2f\u6e7e\u7a7a\u6e2f\u6280\u8853\u8abf\u67fb\u4e8b\u52d9\u6240","boring_xml_url":0,"boring_view_url":0,"soilmap_view_url":66,"soiltest_xml_url":0,"soiltest_view_url":66},{"id":116586,"code":"B4KJ201801000-4835","latitude":"37.05745345","longitude":"136.9886185","source_code":"PORT17001010240","project_name":"\u6e2f\u6e7e\u5c40","survey_name":"\u5e73\u621011\u5e74\u5ea6\u4e03\u5c3e\u6e2f\u571f\u8cea\u8abf\u67fb","client_name":"\u56fd\u571f\u4ea4\u901a\u7701\u5317\u9678\u5730\u65b9\u6574\u5099\u5c40\u65b0\u6f5f\u6e2f\u6e7e\u7a7a\u6e2f\u6280\u8853\u8abf\u67fb\u4e8b\u52d9\u6240","boring_xml_url":0,"boring_view_url":0,"soilmap_view_url":66,"soiltest_xml_url":0,"soiltest_view_url":66},{"id":116585,"code":"B4KJ201801000-4834","latitude":"37.06439709","longitude":"136.9886182","source_code":"PORT17001010239","project_name":"\u6e2f\u6e7e\u5c40","survey_name":"\u5e73\u62104\u5e74\u5ea6\u4e03\u5c3e\u6e2f(\u5927\u7530\u5730\u533a)\u5cb8\u58c1(-13m)\u571f\u8cea\u8abf\u67fb","client_name":"\u56fd\u571f\u4ea4\u901a\u7701\u5317\u9678\u5730\u65b9\u6574\u5099\u5c40\u65b0\u6f5f\u6e2f\u6e7e\u7a7a\u6e2f\u6280\u8853\u8abf\u67fb\u4e8b\u52d9\u6240","boring_xml_url":0,"boring_view_url":0,"soilmap_view_url":66,"soiltest_xml_url":0,"soiltest_view_url":66},{"id":116584,"code":"B4KJ201801000-4833","latitude":"37.06189663","longitude":"136.959732","source_code":"PORT17001010238","project_name":"\u6e2f\u6e7e\u5c40","survey_name":"\u5e73\u62104\u5e74\u5ea6\u4e03\u5c3e\u6e2f\u571f\u8cea\u8abf\u67fb\u5cb8\u58c1(-13m)\u4f5c\u696d\u30e4\u30fc\u30c9","client_name":"\u56fd\u571f\u4ea4\u901a\u7701\u5317\u9678\u5730\u65b9\u6574\u5099\u5c40\u65b0\u6f5f\u6e2f\u6e7e\u7a7a\u6e2f\u6280\u8853\u8abf\u67fb\u4e8b\u52d9\u6240","boring_xml_url":0,"boring_view_url":0,"soilmap_view_url":66,"soiltest_xml_url":0,"soiltest_view_url":66},{"id":116583,"code":"B4KJ201801000-4832","latitude":"37.06134114","longitude":"136.9594542","source_code":"PORT17001010237","project_name":"\u6e2f\u6e7e\u5c40","survey_name":"\u5e73\u62104\u5e74\u5ea6\u4e03\u5c3e\u6e2f\u571f\u8cea\u8abf\u67fb\u5cb8\u58c1(-13m)\u4f5c\u696d\u30e4\u30fc\u30c9","client_name":"\u56fd\u571f\u4ea4\u901a\u7701\u5317\u9678\u5730\u65b9\u6574\u5099\u5c40\u65b0\u6f5f\u6e2f\u6e7e\u7a7a\u6e2f\u6280\u8853\u8abf\u67fb\u4e8b\u52d9\u6240","boring_xml_url":0,"boring_view_url":0,"soilmap_view_url":66,"soiltest_xml_url":0,"soiltest_view_url":66},{"id":116582,"code":"B4KJ201801000-4831","latitude":"37.05622872","longitude":"136.9886182","source_code":"PORT17001010236","project_name":"\u6e2f\u6e7e\u5c40","survey_name":"\u4e03\u5c3e\u6e2f\u5927\u7530\u5730\u533a\u5cb8\u58c1(-13m)","client_name":"\u56fd\u571f\u4ea4\u901a\u7701\u5317\u9678\u5730\u65b9\u6574\u5099\u5c40\u65b0\u6f5f\u6e2f\u6e7e\u7a7a\u6e2f\u6280\u8853\u8abf\u67fb\u4e8b\u52d9\u6240","boring_xml_url":0,"boring_view_url":0,"soilmap_view_url":66,"soiltest_xml_url":0,"soiltest_view_url":66},{"id":116581,"code":"B4KJ201801000-4830","latitude":"37.05638173","longitude":"136.9884975","source_code":"PORT17001010235","project_name":"\u6e2f\u6e7e\u5c40","survey_name":"\u4e03\u5c3e\u6e2f\u5927\u7530\u5730\u533a\u5cb8\u58c1(-13m)","client_name":"\u56fd\u571f\u4ea4\u901a\u7701\u5317\u9678\u5730\u65b9\u6574\u5099\u5c40\u65b0\u6f5f\u6e2f\u6e7e\u7a7a\u6e2f\u6280\u8853\u8abf\u67fb\u4e8b\u52d9\u6240","boring_xml_url":0,"boring_view_url":0,"soilmap_view_url":66,"soiltest_xml_url":0,"soiltest_view_url":66},{"id":116580,"code":"B4KJ201801000-4829","latitude":"37.05652934","longitude":"136.9883723","source_code":"PORT17001010234","project_name":"\u6e2f\u6e7e\u5c40","survey_name":"\u4e03\u5c3e\u6e2f\u5927\u7530\u5730\u533a\u5cb8\u58c1(-13m)","client_name":"\u56fd\u571f\u4ea4\u901a\u7701\u5317\u9678\u5730\u65b9\u6574\u5099\u5c40\u65b0\u6f5f\u6e2f\u6e7e\u7a7a\u6e2f\u6280\u8853\u8abf\u67fb\u4e8b\u52d9\u6240","boring_xml_url":0,"boring_view_url":0,"soilmap_view_url":66,"soiltest_xml_url":0,"soiltest_view_url":66},{"id":116579,"code":"B4KJ201801000-4828","latitude":"37.05665015","longitude":"136.989013","source_code":"PORT17001010233","project_name":"\u6e2f\u6e7e\u5c40","survey_name":"\u4e03\u5c3e\u6e2f\u5927\u7530\u5730\u533a\u5cb8\u58c1(-13m)","client_name":"\u56fd\u571f\u4ea4\u901a\u7701\u5317\u9678\u5730\u65b9\u6574\u5099\u5c40\u65b0\u6f5f\u6e2f\u6e7e\u7a7a\u6e2f\u6280\u8853\u8abf\u67fb\u4e8b\u52d9\u6240","boring_xml_url":0,"boring_view_url":0,"soilmap_view_url":66,"soiltest_xml_url":0,"soiltest_view_url":66},{"id":116578,"code":"B4KJ201801000-4827","latitude":"37.05691947","longitude":"136.9895307","source_code":"PORT17001010232","project_name":"\u6e2f\u6e7e\u5c40","survey_name":"\u4e03\u5c3e\u6e2f\u5927\u7530\u5730\u533a\u5cb8\u58c1(-13m)","client_name":"\u56fd\u571f\u4ea4\u901a\u7701\u5317\u9678\u5730\u65b9\u6574\u5099\u5c40\u65b0\u6f5f\u6e2f\u6e7e\u7a7a\u6e2f\u6280\u8853\u8abf\u67fb\u4e8b\u52d9\u6240","boring_xml_url":0,"boring_view_url":0,"soilmap_view_url":66,"soiltest_xml_url":0,"soiltest_view_url":66},{"id":116577,"code":"B4KJ201801000-4826","latitude":"37.05706287","longitude":"136.9902151","source_code":"PORT17001010231","project_name":"\u6e2f\u6e7e\u5c40","survey_name":"\u4e03\u5c3e\u6e2f\u5927\u7530\u5730\u533a\u5cb8\u58c1(-13m)","client_name":"\u56fd\u571f\u4ea4\u901a\u7701\u5317\u9678\u5730\u65b9\u6574\u5099\u5c40\u65b0\u6f5f\u6e2f\u6e7e\u7a7a\u6e2f\u6280\u8853\u8abf\u67fb\u4e8b\u52d9\u6240","boring_xml_url":0,"boring_view_url":0,"soilmap_view_url":66,"soiltest_xml_url":0,"soiltest_view_url":66},{"id":116576,"code":"B4KJ201801000-4825","latitude":"37.05721498","longitude":"136.9900922","source_code":"PORT17001010230","project_name":"\u6e2f\u6e7e\u5c40","survey_name":"\u4e03\u5c3e\u6e2f\u5927\u7530\u5730\u533a\u5cb8\u58c1(-13m)","client_name":"\u56fd\u571f\u4ea4\u901a\u7701\u5317\u9678\u5730\u65b9\u6574\u5099\u5c40\u65b0\u6f5f\u6e2f\u6e7e\u7a7a\u6e2f\u6280\u8853\u8abf\u67fb\u4e8b\u52d9\u6240","boring_xml_url":0,"boring_view_url":0,"soilmap_view_url":66,"soiltest_xml_url":0,"soiltest_view_url":66}]}}