{"header":{"xyz":{"source":[],"mosaic":false},"page":6804,"raw":{"soiltest_result":"0","bbox":"57.598333,109.544722,1.933333,163.806111","page":"6804"},"conditions":{"soiltest_result":0,"north":57.598333,"west":109.544722,"south":1.933333,"east":163.806111},"success":true,"message":""},"data":{"meta":{"total":212844,"page":6804,"pages":7095,"count":30},"values":[{"id":116455,"code":"B4KJ201801000-4704","latitude":"37.04800977","longitude":"136.9758422","source_code":"PORT17001010059","project_name":"\u6e2f\u6e7e\u5c40","survey_name":"\u4e03\u5c3e\u6e2f\u7269\u63da\u5834","client_name":"\u56fd\u571f\u4ea4\u901a\u7701\u5317\u9678\u5730\u65b9\u6574\u5099\u5c40\u65b0\u6f5f\u6e2f\u6e7e\u7a7a\u6e2f\u6280\u8853\u8abf\u67fb\u4e8b\u52d9\u6240","boring_xml_url":0,"boring_view_url":0,"soilmap_view_url":66,"soiltest_xml_url":0,"soiltest_view_url":66},{"id":116454,"code":"B4KJ201801000-4703","latitude":"37.04800978","longitude":"136.97612","source_code":"PORT17001010058","project_name":"\u6e2f\u6e7e\u5c40","survey_name":"\u4e03\u5c3e\u6e2f\u7269\u63da\u5834","client_name":"\u56fd\u571f\u4ea4\u901a\u7701\u5317\u9678\u5730\u65b9\u6574\u5099\u5c40\u65b0\u6f5f\u6e2f\u6e7e\u7a7a\u6e2f\u6280\u8853\u8abf\u67fb\u4e8b\u52d9\u6240","boring_xml_url":0,"boring_view_url":0,"soilmap_view_url":66,"soiltest_xml_url":0,"soiltest_view_url":66},{"id":116453,"code":"B4KJ201801000-4702","latitude":"37.04828752","longitude":"136.97612","source_code":"PORT17001010057","project_name":"\u6e2f\u6e7e\u5c40","survey_name":"\u4e03\u5c3e\u6e2f\u6e4a\u753a\u7269\u63da\u5834","client_name":"\u56fd\u571f\u4ea4\u901a\u7701\u5317\u9678\u5730\u65b9\u6574\u5099\u5c40\u65b0\u6f5f\u6e2f\u6e7e\u7a7a\u6e2f\u6280\u8853\u8abf\u67fb\u4e8b\u52d9\u6240","boring_xml_url":0,"boring_view_url":0,"soilmap_view_url":66,"soiltest_xml_url":0,"soiltest_view_url":66},{"id":116452,"code":"B4KJ201801000-4701","latitude":"37.04773201","longitude":"136.9752867","source_code":"PORT17001010056","project_name":"\u6e2f\u6e7e\u5c40","survey_name":"\u4e03\u5c3e\u6e2f\u6e4a\u753a\u7269\u63da\u5834","client_name":"\u56fd\u571f\u4ea4\u901a\u7701\u5317\u9678\u5730\u65b9\u6574\u5099\u5c40\u65b0\u6f5f\u6e2f\u6e7e\u7a7a\u6e2f\u6280\u8853\u8abf\u67fb\u4e8b\u52d9\u6240","boring_xml_url":0,"boring_view_url":0,"soilmap_view_url":66,"soiltest_xml_url":0,"soiltest_view_url":66},{"id":116451,"code":"B4KJ201801000-4700","latitude":"37.04745425","longitude":"136.9747312","source_code":"PORT17001010055","project_name":"\u6e2f\u6e7e\u5c40","survey_name":"\u4e03\u5c3e\u6e2f\u6e4a\u753a\u7269\u63da\u5834","client_name":"\u56fd\u571f\u4ea4\u901a\u7701\u5317\u9678\u5730\u65b9\u6574\u5099\u5c40\u65b0\u6f5f\u6e2f\u6e7e\u7a7a\u6e2f\u6280\u8853\u8abf\u67fb\u4e8b\u52d9\u6240","boring_xml_url":0,"boring_view_url":0,"soilmap_view_url":66,"soiltest_xml_url":0,"soiltest_view_url":66},{"id":116450,"code":"B4KJ201801000-4699","latitude":"37.04717648","longitude":"136.973898","source_code":"PORT17001010054","project_name":"\u6e2f\u6e7e\u5c40","survey_name":"\u4e03\u5c3e\u6e2f\u6e4a\u753a\u7269\u63da\u5834","client_name":"\u56fd\u571f\u4ea4\u901a\u7701\u5317\u9678\u5730\u65b9\u6574\u5099\u5c40\u65b0\u6f5f\u6e2f\u6e7e\u7a7a\u6e2f\u6280\u8853\u8abf\u67fb\u4e8b\u52d9\u6240","boring_xml_url":0,"boring_view_url":0,"soilmap_view_url":66,"soiltest_xml_url":0,"soiltest_view_url":66},{"id":116449,"code":"B4KJ201801000-4698","latitude":"37.04717647","longitude":"136.9733425","source_code":"PORT17001010053","project_name":"\u6e2f\u6e7e\u5c40","survey_name":"\u4e03\u5c3e\u6e2f\u6e4a\u753a\u7269\u63da\u5834","client_name":"\u56fd\u571f\u4ea4\u901a\u7701\u5317\u9678\u5730\u65b9\u6574\u5099\u5c40\u65b0\u6f5f\u6e2f\u6e7e\u7a7a\u6e2f\u6280\u8853\u8abf\u67fb\u4e8b\u52d9\u6240","boring_xml_url":0,"boring_view_url":0,"soilmap_view_url":66,"soiltest_xml_url":0,"soiltest_view_url":66},{"id":116448,"code":"B4KJ201801000-4697","latitude":"37.0532867","longitude":"136.9666761","source_code":"PORT17001010052","project_name":"\u6e2f\u6e7e\u5c40","survey_name":"\u4e03\u5c3e\u6e2f\u5bff\u753a\u9632\u6ce2\u5824","client_name":"\u56fd\u571f\u4ea4\u901a\u7701\u5317\u9678\u5730\u65b9\u6574\u5099\u5c40\u65b0\u6f5f\u6e2f\u6e7e\u7a7a\u6e2f\u6280\u8853\u8abf\u67fb\u4e8b\u52d9\u6240","boring_xml_url":0,"boring_view_url":0,"soilmap_view_url":66,"soiltest_xml_url":0,"soiltest_view_url":66},{"id":116447,"code":"B4KJ201801000-4696","latitude":"37.05356445","longitude":"136.9669539","source_code":"PORT17001010051","project_name":"\u6e2f\u6e7e\u5c40","survey_name":"\u4e03\u5c3e\u6e2f\u5bff\u753a\u9632\u6ce2\u5824","client_name":"\u56fd\u571f\u4ea4\u901a\u7701\u5317\u9678\u5730\u65b9\u6574\u5099\u5c40\u65b0\u6f5f\u6e2f\u6e7e\u7a7a\u6e2f\u6280\u8853\u8abf\u67fb\u4e8b\u52d9\u6240","boring_xml_url":0,"boring_view_url":0,"soilmap_view_url":66,"soiltest_xml_url":0,"soiltest_view_url":66},{"id":116446,"code":"B4KJ201801000-4695","latitude":"37.05439763","longitude":"136.9647318","source_code":"PORT17001010050","project_name":"\u6e2f\u6e7e\u5c40","survey_name":"\u4e03\u5c3e\u6e2f\u5bff\u753a\u9632\u6ce2\u5824","client_name":"\u56fd\u571f\u4ea4\u901a\u7701\u5317\u9678\u5730\u65b9\u6574\u5099\u5c40\u65b0\u6f5f\u6e2f\u6e7e\u7a7a\u6e2f\u6280\u8853\u8abf\u67fb\u4e8b\u52d9\u6240","boring_xml_url":0,"boring_view_url":0,"soilmap_view_url":66,"soiltest_xml_url":0,"soiltest_view_url":66},{"id":116445,"code":"B4KJ201801000-4694","latitude":"37.05467539","longitude":"136.9650096","source_code":"PORT17001010049","project_name":"\u6e2f\u6e7e\u5c40","survey_name":"\u4e03\u5c3e\u6e2f\u5bff\u753a\u9632\u6ce2\u5824","client_name":"\u56fd\u571f\u4ea4\u901a\u7701\u5317\u9678\u5730\u65b9\u6574\u5099\u5c40\u65b0\u6f5f\u6e2f\u6e7e\u7a7a\u6e2f\u6280\u8853\u8abf\u67fb\u4e8b\u52d9\u6240","boring_xml_url":0,"boring_view_url":0,"soilmap_view_url":66,"soiltest_xml_url":0,"soiltest_view_url":66},{"id":116444,"code":"B4KJ201801000-4693","latitude":"37.05273124","longitude":"136.9680649","source_code":"PORT17001010048","project_name":"\u6e2f\u6e7e\u5c40","survey_name":"\u4e03\u5c3e\u6e2f\u5bff\u753a\u9632\u6ce2\u5824","client_name":"\u56fd\u571f\u4ea4\u901a\u7701\u5317\u9678\u5730\u65b9\u6574\u5099\u5c40\u65b0\u6f5f\u6e2f\u6e7e\u7a7a\u6e2f\u6280\u8853\u8abf\u67fb\u4e8b\u52d9\u6240","boring_xml_url":0,"boring_view_url":0,"soilmap_view_url":66,"soiltest_xml_url":0,"soiltest_view_url":66},{"id":116443,"code":"B4KJ201801000-4692","latitude":"37.05300898","longitude":"136.9677872","source_code":"PORT17001010047","project_name":"\u6e2f\u6e7e\u5c40","survey_name":"\u4e03\u5c3e\u6e2f\u5bff\u753a\u9632\u6ce2\u5824","client_name":"\u56fd\u571f\u4ea4\u901a\u7701\u5317\u9678\u5730\u65b9\u6574\u5099\u5c40\u65b0\u6f5f\u6e2f\u6e7e\u7a7a\u6e2f\u6280\u8853\u8abf\u67fb\u4e8b\u52d9\u6240","boring_xml_url":0,"boring_view_url":0,"soilmap_view_url":66,"soiltest_xml_url":0,"soiltest_view_url":66},{"id":116442,"code":"B4KJ201801000-4691","latitude":"37.05328671","longitude":"136.9672317","source_code":"PORT17001010046","project_name":"\u6e2f\u6e7e\u5c40","survey_name":"\u4e03\u5c3e\u6e2f\u5bff\u753a\u9632\u6ce2\u5824","client_name":"\u56fd\u571f\u4ea4\u901a\u7701\u5317\u9678\u5730\u65b9\u6574\u5099\u5c40\u65b0\u6f5f\u6e2f\u6e7e\u7a7a\u6e2f\u6280\u8853\u8abf\u67fb\u4e8b\u52d9\u6240","boring_xml_url":0,"boring_view_url":0,"soilmap_view_url":66,"soiltest_xml_url":0,"soiltest_view_url":66},{"id":116441,"code":"B4KJ201801000-4690","latitude":"37.05356445","longitude":"136.9666761","source_code":"PORT17001010045","project_name":"\u6e2f\u6e7e\u5c40","survey_name":"\u4e03\u5c3e\u6e2f\u5bff\u753a\u9632\u6ce2\u5824","client_name":"\u56fd\u571f\u4ea4\u901a\u7701\u5317\u9678\u5730\u65b9\u6574\u5099\u5c40\u65b0\u6f5f\u6e2f\u6e7e\u7a7a\u6e2f\u6280\u8853\u8abf\u67fb\u4e8b\u52d9\u6240","boring_xml_url":0,"boring_view_url":0,"soilmap_view_url":66,"soiltest_xml_url":0,"soiltest_view_url":66},{"id":116440,"code":"B4KJ201801000-4689","latitude":"37.05411992","longitude":"136.9658429","source_code":"PORT17001010044","project_name":"\u6e2f\u6e7e\u5c40","survey_name":"\u4e03\u5c3e\u6e2f\u5bff\u753a\u9632\u6ce2\u5824","client_name":"\u56fd\u571f\u4ea4\u901a\u7701\u5317\u9678\u5730\u65b9\u6574\u5099\u5c40\u65b0\u6f5f\u6e2f\u6e7e\u7a7a\u6e2f\u6280\u8853\u8abf\u67fb\u4e8b\u52d9\u6240","boring_xml_url":0,"boring_view_url":0,"soilmap_view_url":66,"soiltest_xml_url":0,"soiltest_view_url":66},{"id":116439,"code":"B4KJ201801000-4688","latitude":"37.0541199","longitude":"136.9652874","source_code":"PORT17001010043","project_name":"\u6e2f\u6e7e\u5c40","survey_name":"\u4e03\u5c3e\u6e2f\u5bff\u753a\u9632\u6ce2\u5824","client_name":"\u56fd\u571f\u4ea4\u901a\u7701\u5317\u9678\u5730\u65b9\u6574\u5099\u5c40\u65b0\u6f5f\u6e2f\u6e7e\u7a7a\u6e2f\u6280\u8853\u8abf\u67fb\u4e8b\u52d9\u6240","boring_xml_url":0,"boring_view_url":0,"soilmap_view_url":66,"soiltest_xml_url":0,"soiltest_view_url":66},{"id":116438,"code":"B4KJ201801000-4687","latitude":"37.05439763","longitude":"136.9647318","source_code":"PORT17001010042","project_name":"\u6e2f\u6e7e\u5c40","survey_name":"\u4e03\u5c3e\u6e2f\u5bff\u753a\u9632\u6ce2\u5824","client_name":"\u56fd\u571f\u4ea4\u901a\u7701\u5317\u9678\u5730\u65b9\u6574\u5099\u5c40\u65b0\u6f5f\u6e2f\u6e7e\u7a7a\u6e2f\u6280\u8853\u8abf\u67fb\u4e8b\u52d9\u6240","boring_xml_url":0,"boring_view_url":0,"soilmap_view_url":66,"soiltest_xml_url":0,"soiltest_view_url":66},{"id":116437,"code":"B4KJ201801000-4686","latitude":"37.0549531","longitude":"136.9638986","source_code":"PORT17001010041","project_name":"\u6e2f\u6e7e\u5c40","survey_name":"\u4e03\u5c3e\u6e2f\u5bff\u753a\u9632\u6ce2\u5824","client_name":"\u56fd\u571f\u4ea4\u901a\u7701\u5317\u9678\u5730\u65b9\u6574\u5099\u5c40\u65b0\u6f5f\u6e2f\u6e7e\u7a7a\u6e2f\u6280\u8853\u8abf\u67fb\u4e8b\u52d9\u6240","boring_xml_url":0,"boring_view_url":0,"soilmap_view_url":66,"soiltest_xml_url":0,"soiltest_view_url":66},{"id":116436,"code":"B4KJ201801000-4685","latitude":"37.04745424","longitude":"136.9744535","source_code":"PORT17001010040","project_name":"\u6e2f\u6e7e\u5c40","survey_name":"\u4e03\u5c3e\u6e2f\u6e4a\u753a\u5730\u533a\u7269\u63da\u5834","client_name":"\u56fd\u571f\u4ea4\u901a\u7701\u5317\u9678\u5730\u65b9\u6574\u5099\u5c40\u65b0\u6f5f\u6e2f\u6e7e\u7a7a\u6e2f\u6280\u8853\u8abf\u67fb\u4e8b\u52d9\u6240","boring_xml_url":0,"boring_view_url":0,"soilmap_view_url":66,"soiltest_xml_url":0,"soiltest_view_url":66},{"id":116435,"code":"B4KJ201801000-4684","latitude":"37.05356445","longitude":"136.9666761","source_code":"PORT17001010039","project_name":"\u6e2f\u6e7e\u5c40","survey_name":"\u4e03\u5c3e\u6e2f\u5bff\u753a\u5730\u533a\u9632\u6ce2\u5824","client_name":"\u56fd\u571f\u4ea4\u901a\u7701\u5317\u9678\u5730\u65b9\u6574\u5099\u5c40\u65b0\u6f5f\u6e2f\u6e7e\u7a7a\u6e2f\u6280\u8853\u8abf\u67fb\u4e8b\u52d9\u6240","boring_xml_url":0,"boring_view_url":0,"soilmap_view_url":66,"soiltest_xml_url":0,"soiltest_view_url":66},{"id":116434,"code":"B4KJ201801000-4683","latitude":"37.05467538","longitude":"136.9647318","source_code":"PORT17001010038","project_name":"\u6e2f\u6e7e\u5c40","survey_name":"\u4e03\u5c3e\u6e2f\u5bff\u753a\u5730\u533a\u9632\u6ce2\u5824","client_name":"\u56fd\u571f\u4ea4\u901a\u7701\u5317\u9678\u5730\u65b9\u6574\u5099\u5c40\u65b0\u6f5f\u6e2f\u6e7e\u7a7a\u6e2f\u6280\u8853\u8abf\u67fb\u4e8b\u52d9\u6240","boring_xml_url":0,"boring_view_url":0,"soilmap_view_url":66,"soiltest_xml_url":0,"soiltest_view_url":66},{"id":116433,"code":"B4KJ201801000-4682","latitude":"37.0485652","longitude":"136.9733424","source_code":"PORT17001010037","project_name":"\u6e2f\u6e7e\u5c40","survey_name":"\u4e03\u5c3e\u6e2f\u6e4a\u753a\u9632\u6ce2\u5824","client_name":"\u56fd\u571f\u4ea4\u901a\u7701\u5317\u9678\u5730\u65b9\u6574\u5099\u5c40\u65b0\u6f5f\u6e2f\u6e7e\u7a7a\u6e2f\u6280\u8853\u8abf\u67fb\u4e8b\u52d9\u6240","boring_xml_url":0,"boring_view_url":0,"soilmap_view_url":66,"soiltest_xml_url":0,"soiltest_view_url":66},{"id":116432,"code":"B4KJ201801000-4681","latitude":"37.04967617","longitude":"136.9730646","source_code":"PORT17001010036","project_name":"\u6e2f\u6e7e\u5c40","survey_name":"\u4e03\u5c3e\u6e2f\u6e4a\u753a\u9632\u6ce2\u5824","client_name":"\u56fd\u571f\u4ea4\u901a\u7701\u5317\u9678\u5730\u65b9\u6574\u5099\u5c40\u65b0\u6f5f\u6e2f\u6e7e\u7a7a\u6e2f\u6280\u8853\u8abf\u67fb\u4e8b\u52d9\u6240","boring_xml_url":0,"boring_view_url":0,"soilmap_view_url":66,"soiltest_xml_url":0,"soiltest_view_url":66},{"id":116431,"code":"B4KJ201801000-4680","latitude":"37.04967612","longitude":"136.9708426","source_code":"PORT17001010035","project_name":"\u6e2f\u6e7e\u5c40","survey_name":"\u4e03\u5c3e\u6e2f\u6e4a\u753a\u9632\u6ce2\u5824","client_name":"\u56fd\u571f\u4ea4\u901a\u7701\u5317\u9678\u5730\u65b9\u6574\u5099\u5c40\u65b0\u6f5f\u6e2f\u6e7e\u7a7a\u6e2f\u6280\u8853\u8abf\u67fb\u4e8b\u52d9\u6240","boring_xml_url":0,"boring_view_url":0,"soilmap_view_url":66,"soiltest_xml_url":0,"soiltest_view_url":66},{"id":116430,"code":"B4KJ201801000-4679","latitude":"37.04884288","longitude":"136.9708426","source_code":"PORT17001010034","project_name":"\u6e2f\u6e7e\u5c40","survey_name":"\u4e03\u5c3e\u6e2f\u6e4a\u753a\u9632\u6ce2\u5824","client_name":"\u56fd\u571f\u4ea4\u901a\u7701\u5317\u9678\u5730\u65b9\u6574\u5099\u5c40\u65b0\u6f5f\u6e2f\u6e7e\u7a7a\u6e2f\u6280\u8853\u8abf\u67fb\u4e8b\u52d9\u6240","boring_xml_url":0,"boring_view_url":0,"soilmap_view_url":66,"soiltest_xml_url":0,"soiltest_view_url":66},{"id":116429,"code":"B4KJ201801000-4678","latitude":"37.04967615","longitude":"136.9722314","source_code":"PORT17001010033","project_name":"\u6e2f\u6e7e\u5c40","survey_name":"\u4e03\u5c3e\u6e2f\u6e4a\u753a\u9632\u6ce2\u5824","client_name":"\u56fd\u571f\u4ea4\u901a\u7701\u5317\u9678\u5730\u65b9\u6574\u5099\u5c40\u65b0\u6f5f\u6e2f\u6e7e\u7a7a\u6e2f\u6280\u8853\u8abf\u67fb\u4e8b\u52d9\u6240","boring_xml_url":0,"boring_view_url":0,"soilmap_view_url":66,"soiltest_xml_url":0,"soiltest_view_url":66},{"id":116428,"code":"B4KJ201801000-4677","latitude":"37.04884291","longitude":"136.9719536","source_code":"PORT17001010032","project_name":"\u6e2f\u6e7e\u5c40","survey_name":"\u4e03\u5c3e\u6e2f\u6e4a\u753a\u9632\u6ce2\u5824","client_name":"\u56fd\u571f\u4ea4\u901a\u7701\u5317\u9678\u5730\u65b9\u6574\u5099\u5c40\u65b0\u6f5f\u6e2f\u6e7e\u7a7a\u6e2f\u6280\u8853\u8abf\u67fb\u4e8b\u52d9\u6240","boring_xml_url":0,"boring_view_url":0,"soilmap_view_url":66,"soiltest_xml_url":0,"soiltest_view_url":66},{"id":116427,"code":"B4KJ201801000-4676","latitude":"37.04884291","longitude":"136.9722314","source_code":"PORT17001010031","project_name":"\u6e2f\u6e7e\u5c40","survey_name":"\u4e03\u5c3e\u6e2f\u6e4a\u753a\u9632\u6ce2\u5824","client_name":"\u56fd\u571f\u4ea4\u901a\u7701\u5317\u9678\u5730\u65b9\u6574\u5099\u5c40\u65b0\u6f5f\u6e2f\u6e7e\u7a7a\u6e2f\u6280\u8853\u8abf\u67fb\u4e8b\u52d9\u6240","boring_xml_url":0,"boring_view_url":0,"soilmap_view_url":66,"soiltest_xml_url":0,"soiltest_view_url":66},{"id":116426,"code":"B4KJ201801000-4675","latitude":"37.04967612","longitude":"136.9708426","source_code":"PORT17001010030","project_name":"\u6e2f\u6e7e\u5c40","survey_name":"\u4e03\u5c3e\u6e2f\u6e4a\u753a\u9632\u6ce2\u5824","client_name":"\u56fd\u571f\u4ea4\u901a\u7701\u5317\u9678\u5730\u65b9\u6574\u5099\u5c40\u65b0\u6f5f\u6e2f\u6e7e\u7a7a\u6e2f\u6280\u8853\u8abf\u67fb\u4e8b\u52d9\u6240","boring_xml_url":0,"boring_view_url":0,"soilmap_view_url":66,"soiltest_xml_url":0,"soiltest_view_url":66}]}}