{"header":{"xyz":{"source":[],"mosaic":false},"page":6806,"raw":{"soiltest_result":"0","bbox":"57.598333,109.544722,1.933333,163.806111","page":"6806"},"conditions":{"soiltest_result":0,"north":57.598333,"west":109.544722,"south":1.933333,"east":163.806111},"success":true,"message":""},"data":{"meta":{"total":212844,"page":6806,"pages":7095,"count":30},"values":[{"id":116395,"code":"B4KJ201801000-4644","latitude":"36.77797347","longitude":"137.1089743","source_code":"PORT1600A010524","project_name":"\u6e2f\u6e7e\u5c40","survey_name":"\u4f0f\u6728\u5bcc\u5c71\u6e2f(\u65b0\u6e4a\u5730\u533a)\u9053\u8def(\u6771\u897f\u7dda)\u571f\u8cea\u8abf\u67fb(\u305d\u306e3)","client_name":"\u56fd\u571f\u4ea4\u901a\u7701\u5317\u9678\u5730\u65b9\u6574\u5099\u5c40\u65b0\u6f5f\u6e2f\u6e7e\u7a7a\u6e2f\u6280\u8853\u8abf\u67fb\u4e8b\u52d9\u6240","boring_xml_url":0,"boring_view_url":0,"soilmap_view_url":66,"soiltest_xml_url":0,"soiltest_view_url":66},{"id":116394,"code":"B4KJ201801000-4643","latitude":"36.77911894","longitude":"137.1067861","source_code":"PORT1600A010523","project_name":"\u6e2f\u6e7e\u5c40","survey_name":"\u4f0f\u6728\u5bcc\u5c71\u6e2f(\u65b0\u6e4a\u5730\u533a)\u9053\u8def(\u6771\u897f\u7dda)\u571f\u8cea\u8abf\u67fb(\u305d\u306e3)","client_name":"\u56fd\u571f\u4ea4\u901a\u7701\u5317\u9678\u5730\u65b9\u6574\u5099\u5c40\u65b0\u6f5f\u6e2f\u6e7e\u7a7a\u6e2f\u6280\u8853\u8abf\u67fb\u4e8b\u52d9\u6240","boring_xml_url":0,"boring_view_url":0,"soilmap_view_url":66,"soiltest_xml_url":0,"soiltest_view_url":66},{"id":116393,"code":"B4KJ201801000-4642","latitude":"36.77945853","longitude":"137.1055681","source_code":"PORT1600A010522","project_name":"\u6e2f\u6e7e\u5c40","survey_name":"\u4f0f\u6728\u5bcc\u5c71\u6e2f(\u65b0\u6e4a\u5730\u533a)\u9053\u8def(\u6771\u897f\u7dda)\u571f\u8cea\u8abf\u67fb(\u305d\u306e3)","client_name":"\u56fd\u571f\u4ea4\u901a\u7701\u5317\u9678\u5730\u65b9\u6574\u5099\u5c40\u65b0\u6f5f\u6e2f\u6e7e\u7a7a\u6e2f\u6280\u8853\u8abf\u67fb\u4e8b\u52d9\u6240","boring_xml_url":0,"boring_view_url":0,"soilmap_view_url":66,"soiltest_xml_url":0,"soiltest_view_url":66},{"id":116392,"code":"B4KJ201801000-4641","latitude":"36.78010292","longitude":"137.1040621","source_code":"PORT1600A010521","project_name":"\u6e2f\u6e7e\u5c40","survey_name":"\u4f0f\u6728\u5bcc\u5c71\u6e2f(\u65b0\u6e4a\u5730\u533a)\u9053\u8def(\u6771\u897f\u7dda)\u571f\u8cea\u8abf\u67fb(\u305d\u306e3)","client_name":"\u56fd\u571f\u4ea4\u901a\u7701\u5317\u9678\u5730\u65b9\u6574\u5099\u5c40\u65b0\u6f5f\u6e2f\u6e7e\u7a7a\u6e2f\u6280\u8853\u8abf\u67fb\u4e8b\u52d9\u6240","boring_xml_url":0,"boring_view_url":0,"soilmap_view_url":66,"soiltest_xml_url":0,"soiltest_view_url":66},{"id":116391,"code":"B4KJ201801000-4640","latitude":"36.78010292","longitude":"137.1042713","source_code":"PORT1600A010520","project_name":"\u6e2f\u6e7e\u5c40","survey_name":"\u4f0f\u6728\u5bcc\u5c71\u6e2f(\u65b0\u6e4a\u5730\u533a)\u9053\u8def(\u6771\u897f\u7dda)\u571f\u8cea\u8abf\u67fb(\u305d\u306e3)","client_name":"\u56fd\u571f\u4ea4\u901a\u7701\u5317\u9678\u5730\u65b9\u6574\u5099\u5c40\u65b0\u6f5f\u6e2f\u6e7e\u7a7a\u6e2f\u6280\u8853\u8abf\u67fb\u4e8b\u52d9\u6240","boring_xml_url":0,"boring_view_url":0,"soilmap_view_url":66,"soiltest_xml_url":0,"soiltest_view_url":66},{"id":116390,"code":"B4KJ201801000-4639","latitude":"36.78148981","longitude":"137.1044988","source_code":"PORT1600A010519","project_name":"\u6e2f\u6e7e\u5c40","survey_name":"\u4f0f\u6728\u5bcc\u5c71\u6e2f(\u65b0\u6e4a\u5730\u533a)\u9053\u8def(\u6771\u897f\u7dda)\u571f\u8cea\u8abf\u67fb(\u305d\u306e3)","client_name":"\u56fd\u571f\u4ea4\u901a\u7701\u5317\u9678\u5730\u65b9\u6574\u5099\u5c40\u65b0\u6f5f\u6e2f\u6e7e\u7a7a\u6e2f\u6280\u8853\u8abf\u67fb\u4e8b\u52d9\u6240","boring_xml_url":0,"boring_view_url":0,"soilmap_view_url":66,"soiltest_xml_url":0,"soiltest_view_url":66},{"id":116389,"code":"B4KJ201801000-4638","latitude":"36.77512839","longitude":"137.1187571","source_code":"PORT1600A010518","project_name":"\u6e2f\u6e7e\u5c40","survey_name":"\u4f0f\u6728\u5bcc\u5c71\u6e2f(\u65b0\u6e4a\u5730\u533a)\u9053\u8def(\u6771\u897f\u7dda)\u571f\u8cea\u8abf\u67fb(\u305d\u306e2)","client_name":"\u56fd\u571f\u4ea4\u901a\u7701\u5317\u9678\u5730\u65b9\u6574\u5099\u5c40\u65b0\u6f5f\u6e2f\u6e7e\u7a7a\u6e2f\u6280\u8853\u8abf\u67fb\u4e8b\u52d9\u6240","boring_xml_url":0,"boring_view_url":0,"soilmap_view_url":66,"soiltest_xml_url":0,"soiltest_view_url":66},{"id":116388,"code":"B4KJ201801000-4637","latitude":"36.77526724","longitude":"137.1180904","source_code":"PORT1600A010517","project_name":"\u6e2f\u6e7e\u5c40","survey_name":"\u4f0f\u6728\u5bcc\u5c71\u6e2f(\u65b0\u6e4a\u5730\u533a)\u9053\u8def(\u6771\u897f\u7dda)\u571f\u8cea\u8abf\u67fb(\u305d\u306e2)","client_name":"\u56fd\u571f\u4ea4\u901a\u7701\u5317\u9678\u5730\u65b9\u6574\u5099\u5c40\u65b0\u6f5f\u6e2f\u6e7e\u7a7a\u6e2f\u6280\u8853\u8abf\u67fb\u4e8b\u52d9\u6240","boring_xml_url":0,"boring_view_url":0,"soilmap_view_url":66,"soiltest_xml_url":0,"soiltest_view_url":66},{"id":116387,"code":"B4KJ201801000-4636","latitude":"36.77523945","longitude":"137.1175349","source_code":"PORT1600A010516","project_name":"\u6e2f\u6e7e\u5c40","survey_name":"\u4f0f\u6728\u5bcc\u5c71\u6e2f(\u65b0\u6e4a\u5730\u533a)\u9053\u8def(\u6771\u897f\u7dda)\u571f\u8cea\u8abf\u67fb(\u305d\u306e2)","client_name":"\u56fd\u571f\u4ea4\u901a\u7701\u5317\u9678\u5730\u65b9\u6574\u5099\u5c40\u65b0\u6f5f\u6e2f\u6e7e\u7a7a\u6e2f\u6280\u8853\u8abf\u67fb\u4e8b\u52d9\u6240","boring_xml_url":0,"boring_view_url":0,"soilmap_view_url":66,"soiltest_xml_url":0,"soiltest_view_url":66},{"id":116386,"code":"B4KJ201801000-4635","latitude":"36.7755172","longitude":"137.1174516","source_code":"PORT1600A010515","project_name":"\u6e2f\u6e7e\u5c40","survey_name":"\u4f0f\u6728\u5bcc\u5c71\u6e2f(\u65b0\u6e4a\u5730\u533a)\u9053\u8def(\u6771\u897f\u7dda)\u571f\u8cea\u8abf\u67fb(\u305d\u306e2)","client_name":"\u56fd\u571f\u4ea4\u901a\u7701\u5317\u9678\u5730\u65b9\u6574\u5099\u5c40\u65b0\u6f5f\u6e2f\u6e7e\u7a7a\u6e2f\u6280\u8853\u8abf\u67fb\u4e8b\u52d9\u6240","boring_xml_url":0,"boring_view_url":0,"soilmap_view_url":66,"soiltest_xml_url":0,"soiltest_view_url":66},{"id":116385,"code":"B4KJ201801000-4634","latitude":"36.77623922","longitude":"137.1129242","source_code":"PORT1600A010514","project_name":"\u6e2f\u6e7e\u5c40","survey_name":"\u5e73\u621014\u5e74\u5ea6\u4f0f\u6728\u5bcc\u5c71\u6e2f(\u65b0\u594f\u5730\u533a)\u9053\u8def(\u6771\u897f\u7dda)\u571f\u8cea\u8abf\u67fb(\u305d\u306e1)","client_name":"\u56fd\u571f\u4ea4\u901a\u7701\u5317\u9678\u5730\u65b9\u6574\u5099\u5c40\u65b0\u6f5f\u6e2f\u6e7e\u7a7a\u6e2f\u6280\u8853\u8abf\u67fb\u4e8b\u52d9\u6240","boring_xml_url":0,"boring_view_url":0,"soilmap_view_url":66,"soiltest_xml_url":0,"soiltest_view_url":66},{"id":116384,"code":"B4KJ201801000-4633","latitude":"36.77690576","longitude":"137.111091","source_code":"PORT1600A010513","project_name":"\u6e2f\u6e7e\u5c40","survey_name":"\u5e73\u621014\u5e74\u5ea6\u4f0f\u6728\u5bcc\u5c71\u6e2f(\u65b0\u6e4a\u5730\u533a)\u9053\u8def(\u6771\u897f\u7dda)\u571f\u8cea\u8abf\u67fb(\u305d\u306e1)","client_name":"\u56fd\u571f\u4ea4\u901a\u7701\u5317\u9678\u5730\u65b9\u6574\u5099\u5c40\u65b0\u6f5f\u6e2f\u6e7e\u7a7a\u6e2f\u6280\u8853\u8abf\u67fb\u4e8b\u52d9\u6240","boring_xml_url":0,"boring_view_url":0,"soilmap_view_url":66,"soiltest_xml_url":0,"soiltest_view_url":66},{"id":116383,"code":"B4KJ201801000-4632","latitude":"36.77610036","longitude":"137.1133408","source_code":"PORT1600A010512","project_name":"\u6e2f\u6e7e\u5c40","survey_name":"\u4f0f\u6728\u5bcc\u5c71\u6e2f(\u65b0\u6e4a\u5730\u533a)\u571f\u8cea\u8abf\u67fb(\u305d\u306e2)","client_name":"\u56fd\u571f\u4ea4\u901a\u7701\u5317\u9678\u5730\u65b9\u6574\u5099\u5c40\u65b0\u6f5f\u6e2f\u6e7e\u7a7a\u6e2f\u6280\u8853\u8abf\u67fb\u4e8b\u52d9\u6240","boring_xml_url":0,"boring_view_url":0,"soilmap_view_url":66,"soiltest_xml_url":0,"soiltest_view_url":66},{"id":116382,"code":"B4KJ201801000-4631","latitude":"36.77637809","longitude":"137.1127853","source_code":"PORT1600A010511","project_name":"\u6e2f\u6e7e\u5c40","survey_name":"\u4f0f\u6728\u5bcc\u5c71\u6e2f(\u65b0\u6e4a\u5730\u533a)\u571f\u8cea\u8abf\u67fb(\u305d\u306e2)","client_name":"\u56fd\u571f\u4ea4\u901a\u7701\u5317\u9678\u5730\u65b9\u6574\u5099\u5c40\u65b0\u6f5f\u6e2f\u6e7e\u7a7a\u6e2f\u6280\u8853\u8abf\u67fb\u4e8b\u52d9\u6240","boring_xml_url":0,"boring_view_url":0,"soilmap_view_url":66,"soiltest_xml_url":0,"soiltest_view_url":66},{"id":116381,"code":"B4KJ201801000-4630","latitude":"36.77360073","longitude":"137.116674","source_code":"PORT1600A010510","project_name":"\u6e2f\u6e7e\u5c40","survey_name":"\u5e73\u621013\u5e74\u5ea6\u4f0f\u6728\u5bcc\u5c71\u6e2f(\u65b0\u6e4a\u5730\u533a)\u571f\u8cea\u8abf\u67fb(\u305d\u306e1)","client_name":"\u56fd\u571f\u4ea4\u901a\u7701\u5317\u9678\u5730\u65b9\u6574\u5099\u5c40\u65b0\u6f5f\u6e2f\u6e7e\u7a7a\u6e2f\u6280\u8853\u8abf\u67fb\u4e8b\u52d9\u6240","boring_xml_url":0,"boring_view_url":0,"soilmap_view_url":66,"soiltest_xml_url":0,"soiltest_view_url":66},{"id":116380,"code":"B4KJ201801000-4629","latitude":"36.77415622","longitude":"137.1166739","source_code":"PORT1600A010509","project_name":"\u6e2f\u6e7e\u5c40","survey_name":"\u5e73\u621013\u5e74\u5ea6\u4f0f\u6728\u5bcc\u5c71\u6e2f(\u65b0\u6e4a\u5730\u533a)\u571f\u8cea\u8abf\u67fb(\u305d\u306e1)","client_name":"\u56fd\u571f\u4ea4\u901a\u7701\u5317\u9678\u5730\u65b9\u6574\u5099\u5c40\u65b0\u6f5f\u6e2f\u6e7e\u7a7a\u6e2f\u6280\u8853\u8abf\u67fb\u4e8b\u52d9\u6240","boring_xml_url":0,"boring_view_url":0,"soilmap_view_url":66,"soiltest_xml_url":0,"soiltest_view_url":66},{"id":116379,"code":"B4KJ201801000-4628","latitude":"36.77592913","longitude":"137.1174791","source_code":"PORT1600A010508","project_name":"\u6e2f\u6e7e\u5c40","survey_name":"\u4f0f\u6728\u5bcc\u5c71\u6e2f(\u65b0\u6e4a\u5730\u533a)\u571f\u8cea\u8abf\u67fb04","client_name":"\u56fd\u571f\u4ea4\u901a\u7701\u5317\u9678\u5730\u65b9\u6574\u5099\u5c40\u65b0\u6f5f\u6e2f\u6e7e\u7a7a\u6e2f\u6280\u8853\u8abf\u67fb\u4e8b\u52d9\u6240","boring_xml_url":0,"boring_view_url":0,"soilmap_view_url":66,"soiltest_xml_url":0,"soiltest_view_url":66},{"id":116378,"code":"B4KJ201801000-4627","latitude":"36.77638277","longitude":"137.1101264","source_code":"PORT1600A010507","project_name":"\u6e2f\u6e7e\u5c40","survey_name":"\u4f0f\u6728\u5bcc\u5c71\u6e2f(\u65b0\u6e4a\u5730\u533a)\u571f\u8cea\u8abf\u67fb04","client_name":"\u56fd\u571f\u4ea4\u901a\u7701\u5317\u9678\u5730\u65b9\u6574\u5099\u5c40\u65b0\u6f5f\u6e2f\u6e7e\u7a7a\u6e2f\u6280\u8853\u8abf\u67fb\u4e8b\u52d9\u6240","boring_xml_url":0,"boring_view_url":0,"soilmap_view_url":66,"soiltest_xml_url":0,"soiltest_view_url":66},{"id":116377,"code":"B4KJ201801000-4626","latitude":"36.77859993","longitude":"137.1080634","source_code":"PORT1600A010506","project_name":"\u6e2f\u6e7e\u5c40","survey_name":"\u4f0f\u6728\u5bcc\u5c71\u6e2f(\u65b0\u6e4a\u5730\u533a)\u571f\u8cea\u8abf\u67fb(\u305d\u306e3)","client_name":"\u56fd\u571f\u4ea4\u901a\u7701\u5317\u9678\u5730\u65b9\u6574\u5099\u5c40\u65b0\u6f5f\u6e2f\u6e7e\u7a7a\u6e2f\u6280\u8853\u8abf\u67fb\u4e8b\u52d9\u6240","boring_xml_url":0,"boring_view_url":0,"soilmap_view_url":66,"soiltest_xml_url":0,"soiltest_view_url":66},{"id":116376,"code":"B4KJ201801000-4625","latitude":"36.77998851","longitude":"137.1022306","source_code":"PORT1600A010505","project_name":"\u6e2f\u6e7e\u5c40","survey_name":"\u4f0f\u6728\u5bcc\u5c71\u6e2f(\u65b0\u6e4a\u5730\u533a)\u571f\u8cea\u8abf\u67fb(\u305d\u306e3)","client_name":"\u56fd\u571f\u4ea4\u901a\u7701\u5317\u9678\u5730\u65b9\u6574\u5099\u5c40\u65b0\u6f5f\u6e2f\u6e7e\u7a7a\u6e2f\u6280\u8853\u8abf\u67fb\u4e8b\u52d9\u6240","boring_xml_url":0,"boring_view_url":0,"soilmap_view_url":66,"soiltest_xml_url":0,"soiltest_view_url":66},{"id":116375,"code":"B4KJ201801000-4624","latitude":"36.77526726","longitude":"137.1188959","source_code":"PORT1600A010500","project_name":"\u6e2f\u6e7e\u5c40","survey_name":"\u5e73\u621012\u5e74\u5ea6\u4f0f\u6728\u5bcc\u5c71\u6e2f(\u65b0\u6e4a\u5730\u533a)\u571f\u8cea\u8abf\u67fb","client_name":"\u56fd\u571f\u4ea4\u901a\u7701\u5317\u9678\u5730\u65b9\u6574\u5099\u5c40\u65b0\u6f5f\u6e2f\u6e7e\u7a7a\u6e2f\u6280\u8853\u8abf\u67fb\u4e8b\u52d9\u6240","boring_xml_url":0,"boring_view_url":0,"soilmap_view_url":66,"soiltest_xml_url":0,"soiltest_view_url":66},{"id":116374,"code":"B4KJ201801000-4623","latitude":"36.77637807","longitude":"137.1119521","source_code":"PORT1600A010499","project_name":"\u6e2f\u6e7e\u5c40","survey_name":"\u5e73\u621012\u5e74\u5ea6\u4f0f\u6728\u5bcc\u5c71\u6e2f(\u65b0\u6e4a\u5730\u533a)\u571f\u8cea\u8abf\u67fb","client_name":"\u56fd\u571f\u4ea4\u901a\u7701\u5317\u9678\u5730\u65b9\u6574\u5099\u5c40\u65b0\u6f5f\u6e2f\u6e7e\u7a7a\u6e2f\u6280\u8853\u8abf\u67fb\u4e8b\u52d9\u6240","boring_xml_url":0,"boring_view_url":0,"soilmap_view_url":66,"soiltest_xml_url":0,"soiltest_view_url":66},{"id":116373,"code":"B4KJ201801000-4622","latitude":"36.77402354","longitude":"137.104218","source_code":"PORT1600A010498","project_name":"\u6e2f\u6e7e\u5c40","survey_name":"\u4f0f\u6728\u5bcc\u5c71\u6e2f(\u65b0\u6e4a\u5730\u533a)\u5cb8\u58c1(-14m)(\u5317)\u571f\u8cea\u8abf\u67fb","client_name":"\u56fd\u571f\u4ea4\u901a\u7701\u5317\u9678\u5730\u65b9\u6574\u5099\u5c40\u65b0\u6f5f\u6e2f\u6e7e\u7a7a\u6e2f\u6280\u8853\u8abf\u67fb\u4e8b\u52d9\u6240","boring_xml_url":0,"boring_view_url":0,"soilmap_view_url":66,"soiltest_xml_url":0,"soiltest_view_url":66},{"id":116372,"code":"B4KJ201801000-4621","latitude":"36.77355728","longitude":"137.1056463","source_code":"PORT1600A010497","project_name":"\u6e2f\u6e7e\u5c40","survey_name":"\u4f0f\u6728\u5bcc\u5c71\u6e2f(\u65b0\u6e4a\u5730\u533a)\u5cb8\u58c1(-14m)(\u5317)\u571f\u8cea\u8abf\u67fb","client_name":"\u56fd\u571f\u4ea4\u901a\u7701\u5317\u9678\u5730\u65b9\u6574\u5099\u5c40\u65b0\u6f5f\u6e2f\u6e7e\u7a7a\u6e2f\u6280\u8853\u8abf\u67fb\u4e8b\u52d9\u6240","boring_xml_url":0,"boring_view_url":0,"soilmap_view_url":66,"soiltest_xml_url":0,"soiltest_view_url":66},{"id":116371,"code":"B4KJ201801000-4620","latitude":"36.77379995","longitude":"137.1045558","source_code":"PORT1600A010496","project_name":"\u6e2f\u6e7e\u5c40","survey_name":"\u4f0f\u6728\u5bcc\u5c71\u6e2f(\u65b0\u6e4a\u5730\u533a)\u5cb8\u58c1(-14m)(\u5317)\u571f\u8cea\u8abf\u67fb","client_name":"\u56fd\u571f\u4ea4\u901a\u7701\u5317\u9678\u5730\u65b9\u6574\u5099\u5c40\u65b0\u6f5f\u6e2f\u6e7e\u7a7a\u6e2f\u6280\u8853\u8abf\u67fb\u4e8b\u52d9\u6240","boring_xml_url":0,"boring_view_url":0,"soilmap_view_url":66,"soiltest_xml_url":0,"soiltest_view_url":66},{"id":116370,"code":"B4KJ201801000-4619","latitude":"36.77412333","longitude":"137.1037463","source_code":"PORT1600A010495","project_name":"\u6e2f\u6e7e\u5c40","survey_name":"\u4f0f\u6728\u5bcc\u5c71\u6e2f(\u65b0\u6e4a\u5730\u533a)\u5cb8\u58c1(-14m)(\u5317)\u571f\u8cea\u8abf\u67fb","client_name":"\u56fd\u571f\u4ea4\u901a\u7701\u5317\u9678\u5730\u65b9\u6574\u5099\u5c40\u65b0\u6f5f\u6e2f\u6e7e\u7a7a\u6e2f\u6280\u8853\u8abf\u67fb\u4e8b\u52d9\u6240","boring_xml_url":0,"boring_view_url":0,"soilmap_view_url":66,"soiltest_xml_url":0,"soiltest_view_url":66},{"id":116369,"code":"B4KJ201801000-4618","latitude":"36.77410099","longitude":"137.1037643","source_code":"PORT1600A010494","project_name":"\u6e2f\u6e7e\u5c40","survey_name":"\u4f0f\u6728\u5bcc\u5c71\u6e2f(\u65b0\u6e4a\u5730\u533a)\u5cb8\u58c1(-14m)(\u5317)\u571f\u8cea\u8abf\u67fb","client_name":"\u56fd\u571f\u4ea4\u901a\u7701\u5317\u9678\u5730\u65b9\u6574\u5099\u5c40\u65b0\u6f5f\u6e2f\u6e7e\u7a7a\u6e2f\u6280\u8853\u8abf\u67fb\u4e8b\u52d9\u6240","boring_xml_url":0,"boring_view_url":0,"soilmap_view_url":66,"soiltest_xml_url":0,"soiltest_view_url":66},{"id":116368,"code":"B4KJ201801000-4617","latitude":"36.77971116","longitude":"137.117507","source_code":"PORT1600A010493","project_name":"\u6e2f\u6e7e\u5c40","survey_name":"\u4f0f\u6728\u5bcc\u5c71\u6e2f(\u65b0\u6e4a\u5730\u533a)\u822a\u8def(-14m)(\u62e1\u5e45)","client_name":"\u56fd\u571f\u4ea4\u901a\u7701\u5317\u9678\u5730\u65b9\u6574\u5099\u5c40\u65b0\u6f5f\u6e2f\u6e7e\u7a7a\u6e2f\u6280\u8853\u8abf\u67fb\u4e8b\u52d9\u6240","boring_xml_url":0,"boring_view_url":0,"soilmap_view_url":66,"soiltest_xml_url":0,"soiltest_view_url":66},{"id":116367,"code":"B4KJ201801000-4616","latitude":"36.78082215","longitude":"137.1177847","source_code":"PORT1600A010492","project_name":"\u6e2f\u6e7e\u5c40","survey_name":"\u4f0f\u6728\u5bcc\u5c71\u6e2f(\u65b0\u6e4a\u5730\u533a)\u822a\u8def(-14m)(\u62e1\u5e45)","client_name":"\u56fd\u571f\u4ea4\u901a\u7701\u5317\u9678\u5730\u65b9\u6574\u5099\u5c40\u65b0\u6f5f\u6e2f\u6e7e\u7a7a\u6e2f\u6280\u8853\u8abf\u67fb\u4e8b\u52d9\u6240","boring_xml_url":0,"boring_view_url":0,"soilmap_view_url":66,"soiltest_xml_url":0,"soiltest_view_url":66},{"id":116366,"code":"B4KJ201801000-4615","latitude":"36.77137853","longitude":"137.1075082","source_code":"PORT1600A010472","project_name":"\u6e2f\u6e7e\u5c40","survey_name":"H7\u4f0f\u6728\u5bcc\u5c71\u6e2f(\u65b0\u6e4a\u5730\u533a)\u6cca\u5730(-14m)(\u5317)","client_name":"\u56fd\u571f\u4ea4\u901a\u7701\u5317\u9678\u5730\u65b9\u6574\u5099\u5c40\u65b0\u6f5f\u6e2f\u6e7e\u7a7a\u6e2f\u6280\u8853\u8abf\u67fb\u4e8b\u52d9\u6240","boring_xml_url":0,"boring_view_url":0,"soilmap_view_url":66,"soiltest_xml_url":0,"soiltest_view_url":66}]}}