{"header":{"xyz":{"source":[],"mosaic":false},"page":6809,"raw":{"soiltest_result":"0","bbox":"57.598333,109.544722,1.933333,163.806111","page":"6809"},"conditions":{"soiltest_result":0,"north":57.598333,"west":109.544722,"south":1.933333,"east":163.806111},"success":true,"message":""},"data":{"meta":{"total":212844,"page":6809,"pages":7095,"count":30},"values":[{"id":116305,"code":"B4KJ201801000-4554","latitude":"36.75749177","longitude":"137.1277847","source_code":"PORT1600A010297","project_name":"\u6e2f\u6e7e\u5c40","survey_name":"\u4f0f\u6728-\u5bcc\u5c71\u6e2f\u65b0\u6e4a\u6771-\u5cb8\u58c1","client_name":"\u56fd\u571f\u4ea4\u901a\u7701\u5317\u9678\u5730\u65b9\u6574\u5099\u5c40\u65b0\u6f5f\u6e2f\u6e7e\u7a7a\u6e2f\u6280\u8853\u8abf\u67fb\u4e8b\u52d9\u6240","boring_xml_url":0,"boring_view_url":0,"soilmap_view_url":66,"soiltest_xml_url":0,"soiltest_view_url":66},{"id":116304,"code":"B4KJ201801000-4553","latitude":"36.77026739","longitude":"137.1011199","source_code":"PORT1600A010296","project_name":"\u6e2f\u6e7e\u5c40","survey_name":"\u4f0f\u6728-\u5bcc\u5c71\u6e2f\u65b0\u6e4a6-\u53f7\u5cb8\u58c1","client_name":"\u56fd\u571f\u4ea4\u901a\u7701\u5317\u9678\u5730\u65b9\u6574\u5099\u5c40\u65b0\u6f5f\u6e2f\u6e7e\u7a7a\u6e2f\u6280\u8853\u8abf\u67fb\u4e8b\u52d9\u6240","boring_xml_url":0,"boring_view_url":0,"soilmap_view_url":66,"soiltest_xml_url":0,"soiltest_view_url":66},{"id":116303,"code":"B4KJ201801000-4552","latitude":"36.76971193","longitude":"137.1025087","source_code":"PORT1600A010295","project_name":"\u6e2f\u6e7e\u5c40","survey_name":"\u4f0f\u6728-\u5bcc\u5c71\u6e2f\u65b0\u6e4a5-\u53f7\u5cb8\u58c1","client_name":"\u56fd\u571f\u4ea4\u901a\u7701\u5317\u9678\u5730\u65b9\u6574\u5099\u5c40\u65b0\u6f5f\u6e2f\u6e7e\u7a7a\u6e2f\u6280\u8853\u8abf\u67fb\u4e8b\u52d9\u6240","boring_xml_url":0,"boring_view_url":0,"soilmap_view_url":66,"soiltest_xml_url":0,"soiltest_view_url":66},{"id":116302,"code":"B4KJ201801000-4551","latitude":"36.76915654","longitude":"137.1063973","source_code":"PORT1600A010294","project_name":"\u6e2f\u6e7e\u5c40","survey_name":"\u4f0f\u6728-\u5bcc\u5c71\u6e2f\u65b0\u6e4a3-\u53f7\u5cb8\u58c1","client_name":"\u56fd\u571f\u4ea4\u901a\u7701\u5317\u9678\u5730\u65b9\u6574\u5099\u5c40\u65b0\u6f5f\u6e2f\u6e7e\u7a7a\u6e2f\u6280\u8853\u8abf\u67fb\u4e8b\u52d9\u6240","boring_xml_url":0,"boring_view_url":0,"soilmap_view_url":66,"soiltest_xml_url":0,"soiltest_view_url":66},{"id":116301,"code":"B4KJ201801000-4550","latitude":"36.7683234","longitude":"137.1102859","source_code":"PORT1600A010293","project_name":"\u6e2f\u6e7e\u5c40","survey_name":"\u4f0f\u6728-\u5bcc\u5c71\u6e2f\u65b0\u6e4a1-\u53f7\u5cb8\u58c1","client_name":"\u56fd\u571f\u4ea4\u901a\u7701\u5317\u9678\u5730\u65b9\u6574\u5099\u5c40\u65b0\u6f5f\u6e2f\u6e7e\u7a7a\u6e2f\u6280\u8853\u8abf\u67fb\u4e8b\u52d9\u6240","boring_xml_url":0,"boring_view_url":0,"soilmap_view_url":66,"soiltest_xml_url":0,"soiltest_view_url":66},{"id":116300,"code":"B4KJ201801000-4549","latitude":"36.76804568","longitude":"137.1113969","source_code":"PORT1600A010292","project_name":"\u6e2f\u6e7e\u5c40","survey_name":"\u4f0f\u6728-\u5bcc\u5c71\u6e2f\u65b0\u6e4a1-\u53f7\u5cb8\u58c1","client_name":"\u56fd\u571f\u4ea4\u901a\u7701\u5317\u9678\u5730\u65b9\u6574\u5099\u5c40\u65b0\u6f5f\u6e2f\u6e7e\u7a7a\u6e2f\u6280\u8853\u8abf\u67fb\u4e8b\u52d9\u6240","boring_xml_url":0,"boring_view_url":0,"soilmap_view_url":66,"soiltest_xml_url":0,"soiltest_view_url":66},{"id":116299,"code":"B4KJ201801000-4548","latitude":"36.76887887","longitude":"137.1094526","source_code":"PORT1600A010291","project_name":"\u6e2f\u6e7e\u5c40","survey_name":"\u4f0f\u6728-\u5bcc\u5c71\u6e2f\u65b0\u6e4a2-\u53f7\u5cb8\u58c1","client_name":"\u56fd\u571f\u4ea4\u901a\u7701\u5317\u9678\u5730\u65b9\u6574\u5099\u5c40\u65b0\u6f5f\u6e2f\u6e7e\u7a7a\u6e2f\u6280\u8853\u8abf\u67fb\u4e8b\u52d9\u6240","boring_xml_url":0,"boring_view_url":0,"soilmap_view_url":66,"soiltest_xml_url":0,"soiltest_view_url":66},{"id":116298,"code":"B4KJ201801000-4547","latitude":"36.76832341","longitude":"137.1108414","source_code":"PORT1600A010290","project_name":"\u6e2f\u6e7e\u5c40","survey_name":"\u4f0f\u6728-\u5bcc\u5c71\u6e2f\u65b0\u6e4a1-\u53f7\u5cb8\u58c1","client_name":"\u56fd\u571f\u4ea4\u901a\u7701\u5317\u9678\u5730\u65b9\u6574\u5099\u5c40\u65b0\u6f5f\u6e2f\u6e7e\u7a7a\u6e2f\u6280\u8853\u8abf\u67fb\u4e8b\u52d9\u6240","boring_xml_url":0,"boring_view_url":0,"soilmap_view_url":66,"soiltest_xml_url":0,"soiltest_view_url":66},{"id":116297,"code":"B4KJ201801000-4546","latitude":"36.77971126","longitude":"137.1213955","source_code":"PORT1600A010271","project_name":"\u6e2f\u6e7e\u5c40","survey_name":"\u4f0f\u6728\u5bcc\u5c71\u6e2f(\u65b0\u6e4a)\u4e8c\u6b21\u6392\u6ce5\u65b0\u8a2d","client_name":"\u56fd\u571f\u4ea4\u901a\u7701\u5317\u9678\u5730\u65b9\u6574\u5099\u5c40\u65b0\u6f5f\u6e2f\u6e7e\u7a7a\u6e2f\u6280\u8853\u8abf\u67fb\u4e8b\u52d9\u6240","boring_xml_url":0,"boring_view_url":0,"soilmap_view_url":66,"soiltest_xml_url":0,"soiltest_view_url":66},{"id":116296,"code":"B4KJ201801000-4545","latitude":"36.78054444","longitude":"137.1191735","source_code":"PORT1600A010270","project_name":"\u6e2f\u6e7e\u5c40","survey_name":"\u4f0f\u6728\u5bcc\u5c71\u6e2f(\u65b0\u6e4a)\u4e8c\u6b21\u6392\u6ce5\u65b0\u8a2d","client_name":"\u56fd\u571f\u4ea4\u901a\u7701\u5317\u9678\u5730\u65b9\u6574\u5099\u5c40\u65b0\u6f5f\u6e2f\u6e7e\u7a7a\u6e2f\u6280\u8853\u8abf\u67fb\u4e8b\u52d9\u6240","boring_xml_url":0,"boring_view_url":0,"soilmap_view_url":66,"soiltest_xml_url":0,"soiltest_view_url":66},{"id":116295,"code":"B4KJ201801000-4544","latitude":"36.77387811","longitude":"137.1025085","source_code":"PORT1600A010269","project_name":"\u6e2f\u6e7e\u5c40","survey_name":"\u4f0f\u6728\u5bcc\u5c71\u6e2f(\u65b0\u6e4a)\u5cb8\u58c1","client_name":"\u56fd\u571f\u4ea4\u901a\u7701\u5317\u9678\u5730\u65b9\u6574\u5099\u5c40\u65b0\u6f5f\u6e2f\u6e7e\u7a7a\u6e2f\u6280\u8853\u8abf\u67fb\u4e8b\u52d9\u6240","boring_xml_url":0,"boring_view_url":0,"soilmap_view_url":66,"soiltest_xml_url":0,"soiltest_view_url":66},{"id":116294,"code":"B4KJ201801000-4543","latitude":"36.77360035","longitude":"137.1016753","source_code":"PORT1600A010268","project_name":"\u6e2f\u6e7e\u5c40","survey_name":"\u4f0f\u6728\u5bcc\u5c71\u6e2f(\u65b0\u6e4a)\u5cb8\u58c1","client_name":"\u56fd\u571f\u4ea4\u901a\u7701\u5317\u9678\u5730\u65b9\u6574\u5099\u5c40\u65b0\u6f5f\u6e2f\u6e7e\u7a7a\u6e2f\u6280\u8853\u8abf\u67fb\u4e8b\u52d9\u6240","boring_xml_url":0,"boring_view_url":0,"soilmap_view_url":66,"soiltest_xml_url":0,"soiltest_view_url":66},{"id":116293,"code":"B4KJ201801000-4542","latitude":"36.77387813","longitude":"137.1030641","source_code":"PORT1600A010267","project_name":"\u6e2f\u6e7e\u5c40","survey_name":"\u4f0f\u6728\u5bcc\u5c71\u6e2f(\u65b0\u6e4a)\u5cb8\u58c1","client_name":"\u56fd\u571f\u4ea4\u901a\u7701\u5317\u9678\u5730\u65b9\u6574\u5099\u5c40\u65b0\u6f5f\u6e2f\u6e7e\u7a7a\u6e2f\u6280\u8853\u8abf\u67fb\u4e8b\u52d9\u6240","boring_xml_url":0,"boring_view_url":0,"soilmap_view_url":66,"soiltest_xml_url":0,"soiltest_view_url":66},{"id":116292,"code":"B4KJ201801000-4541","latitude":"36.77387812","longitude":"137.1027863","source_code":"PORT1600A010266","project_name":"\u6e2f\u6e7e\u5c40","survey_name":"\u4f0f\u6728\u5bcc\u5c71\u6e2f(\u65b0\u6e4a)\u5cb8\u58c1","client_name":"\u56fd\u571f\u4ea4\u901a\u7701\u5317\u9678\u5730\u65b9\u6574\u5099\u5c40\u65b0\u6f5f\u6e2f\u6e7e\u7a7a\u6e2f\u6280\u8853\u8abf\u67fb\u4e8b\u52d9\u6240","boring_xml_url":0,"boring_view_url":0,"soilmap_view_url":66,"soiltest_xml_url":0,"soiltest_view_url":66},{"id":116291,"code":"B4KJ201801000-4540","latitude":"36.77360036","longitude":"137.1022308","source_code":"PORT1600A010265","project_name":"\u6e2f\u6e7e\u5c40","survey_name":"\u4f0f\u6728\u5bcc\u5c71\u6e2f(\u65b0\u6e4a)\u5cb8\u58c1","client_name":"\u56fd\u571f\u4ea4\u901a\u7701\u5317\u9678\u5730\u65b9\u6574\u5099\u5c40\u65b0\u6f5f\u6e2f\u6e7e\u7a7a\u6e2f\u6280\u8853\u8abf\u67fb\u4e8b\u52d9\u6240","boring_xml_url":0,"boring_view_url":0,"soilmap_view_url":66,"soiltest_xml_url":0,"soiltest_view_url":66},{"id":116290,"code":"B4KJ201801000-4539","latitude":"36.77360035","longitude":"137.1016753","source_code":"PORT1600A010264","project_name":"\u6e2f\u6e7e\u5c40","survey_name":"\u4f0f\u6728\u5bcc\u5c71\u6e2f(\u65b0\u6e4a)\u5cb8\u58c1","client_name":"\u56fd\u571f\u4ea4\u901a\u7701\u5317\u9678\u5730\u65b9\u6574\u5099\u5c40\u65b0\u6f5f\u6e2f\u6e7e\u7a7a\u6e2f\u6280\u8853\u8abf\u67fb\u4e8b\u52d9\u6240","boring_xml_url":0,"boring_view_url":0,"soilmap_view_url":66,"soiltest_xml_url":0,"soiltest_view_url":66},{"id":116289,"code":"B4KJ201801000-4538","latitude":"36.77332259","longitude":"137.1013976","source_code":"PORT1600A010263","project_name":"\u6e2f\u6e7e\u5c40","survey_name":"\u4f0f\u6728\u5bcc\u5c71\u6e2f(\u65b0\u6e4a)\u5cb8\u58c1","client_name":"\u56fd\u571f\u4ea4\u901a\u7701\u5317\u9678\u5730\u65b9\u6574\u5099\u5c40\u65b0\u6f5f\u6e2f\u6e7e\u7a7a\u6e2f\u6280\u8853\u8abf\u67fb\u4e8b\u52d9\u6240","boring_xml_url":0,"boring_view_url":0,"soilmap_view_url":66,"soiltest_xml_url":0,"soiltest_view_url":66},{"id":116288,"code":"B4KJ201801000-4537","latitude":"36.77360033","longitude":"137.100842","source_code":"PORT1600A010262","project_name":"\u6e2f\u6e7e\u5c40","survey_name":"\u4f0f\u6728\u5bcc\u5c71\u6e2f(\u65b0\u6e4a)\u5cb8\u58c1","client_name":"\u56fd\u571f\u4ea4\u901a\u7701\u5317\u9678\u5730\u65b9\u6574\u5099\u5c40\u65b0\u6f5f\u6e2f\u6e7e\u7a7a\u6e2f\u6280\u8853\u8abf\u67fb\u4e8b\u52d9\u6240","boring_xml_url":0,"boring_view_url":0,"soilmap_view_url":66,"soiltest_xml_url":0,"soiltest_view_url":66},{"id":116287,"code":"B4KJ201801000-4536","latitude":"36.77998848","longitude":"137.1011195","source_code":"PORT1600A010261","project_name":"\u6e2f\u6e7e\u5c40","survey_name":"\u4f0f\u6728\u5bcc\u5c71\u6e2f\u65b0\u6e4aE-\u30dd\u30f3\u30c9\u57cb\u7acb\u3066\u5730","client_name":"\u56fd\u571f\u4ea4\u901a\u7701\u5317\u9678\u5730\u65b9\u6574\u5099\u5c40\u65b0\u6f5f\u6e2f\u6e7e\u7a7a\u6e2f\u6280\u8853\u8abf\u67fb\u4e8b\u52d9\u6240","boring_xml_url":0,"boring_view_url":0,"soilmap_view_url":66,"soiltest_xml_url":0,"soiltest_view_url":66},{"id":116286,"code":"B4KJ201801000-4535","latitude":"36.78054393","longitude":"137.0991752","source_code":"PORT1600A010260","project_name":"\u6e2f\u6e7e\u5c40","survey_name":"\u4f0f\u6728\u5bcc\u5c71\u6e2f\u65b0\u6e4aE-\u30dd\u30f3\u30c9\u57cb\u7acb\u3066\u5730","client_name":"\u56fd\u571f\u4ea4\u901a\u7701\u5317\u9678\u5730\u65b9\u6574\u5099\u5c40\u65b0\u6f5f\u6e2f\u6e7e\u7a7a\u6e2f\u6280\u8853\u8abf\u67fb\u4e8b\u52d9\u6240","boring_xml_url":0,"boring_view_url":0,"soilmap_view_url":66,"soiltest_xml_url":0,"soiltest_view_url":66},{"id":116285,"code":"B4KJ201801000-4534","latitude":"36.78109947","longitude":"137.1013972","source_code":"PORT1600A010259","project_name":"\u6e2f\u6e7e\u5c40","survey_name":"\u4f0f\u6728\u5bcc\u5c71\u6e2f\u65b0\u6e4aE-\u30dd\u30f3\u30c9\u57cb\u7acb\u3066\u5730","client_name":"\u56fd\u571f\u4ea4\u901a\u7701\u5317\u9678\u5730\u65b9\u6574\u5099\u5c40\u65b0\u6f5f\u6e2f\u6e7e\u7a7a\u6e2f\u6280\u8853\u8abf\u67fb\u4e8b\u52d9\u6240","boring_xml_url":0,"boring_view_url":0,"soilmap_view_url":66,"soiltest_xml_url":0,"soiltest_view_url":66},{"id":116284,"code":"B4KJ201801000-4533","latitude":"36.78193269","longitude":"137.100564","source_code":"PORT1600A010258","project_name":"\u6e2f\u6e7e\u5c40","survey_name":"\u4f0f\u6728\u5bcc\u5c71\u6e2f\u65b0\u6e4aE-\u30dd\u30f3\u30c9\u57cb\u7acb\u3066\u5730","client_name":"\u56fd\u571f\u4ea4\u901a\u7701\u5317\u9678\u5730\u65b9\u6574\u5099\u5c40\u65b0\u6f5f\u6e2f\u6e7e\u7a7a\u6e2f\u6280\u8853\u8abf\u67fb\u4e8b\u52d9\u6240","boring_xml_url":0,"boring_view_url":0,"soilmap_view_url":66,"soiltest_xml_url":0,"soiltest_view_url":66},{"id":116283,"code":"B4KJ201801000-4532","latitude":"36.76471283","longitude":"137.1150078","source_code":"PORT1600A010257","project_name":"\u6e2f\u6e7e\u5c40","survey_name":"\u4f0f\u6728\u5bcc\u5c71\u6e2f(\u65b0\u6e4a)\u6d88\u6ce2\u5de5","client_name":"\u56fd\u571f\u4ea4\u901a\u7701\u5317\u9678\u5730\u65b9\u6574\u5099\u5c40\u65b0\u6f5f\u6e2f\u6e7e\u7a7a\u6e2f\u6280\u8853\u8abf\u67fb\u4e8b\u52d9\u6240","boring_xml_url":0,"boring_view_url":0,"soilmap_view_url":66,"soiltest_xml_url":0,"soiltest_view_url":66},{"id":116282,"code":"B4KJ201801000-4531","latitude":"36.76499056","longitude":"137.1144523","source_code":"PORT1600A010256","project_name":"\u6e2f\u6e7e\u5c40","survey_name":"\u4f0f\u6728\u5bcc\u5c71\u6e2f(\u65b0\u6e4a)\u6d88\u6ce2\u5de5","client_name":"\u56fd\u571f\u4ea4\u901a\u7701\u5317\u9678\u5730\u65b9\u6574\u5099\u5c40\u65b0\u6f5f\u6e2f\u6e7e\u7a7a\u6e2f\u6280\u8853\u8abf\u67fb\u4e8b\u52d9\u6240","boring_xml_url":0,"boring_view_url":0,"soilmap_view_url":66,"soiltest_xml_url":0,"soiltest_view_url":66},{"id":116281,"code":"B4KJ201801000-4530","latitude":"36.77887761","longitude":"137.1055636","source_code":"PORT1600A010232","project_name":"\u6e2f\u6e7e\u5c40","survey_name":"\u4f0f\u6728\u5bcc\u5c71\u6e2f(\u65b0\u6e4a)\u57cb\u7acb\u3066\u5730","client_name":"\u56fd\u571f\u4ea4\u901a\u7701\u5317\u9678\u5730\u65b9\u6574\u5099\u5c40\u65b0\u6f5f\u6e2f\u6e7e\u7a7a\u6e2f\u6280\u8853\u8abf\u67fb\u4e8b\u52d9\u6240","boring_xml_url":0,"boring_view_url":0,"soilmap_view_url":66,"soiltest_xml_url":0,"soiltest_view_url":66},{"id":116280,"code":"B4KJ201801000-4529","latitude":"36.77943311","longitude":"137.1055636","source_code":"PORT1600A010231","project_name":"\u6e2f\u6e7e\u5c40","survey_name":"\u4f0f\u6728\u5bcc\u5c71\u6e2f(\u65b0\u6e4a)\u57cb\u7acb\u3066\u5730","client_name":"\u56fd\u571f\u4ea4\u901a\u7701\u5317\u9678\u5730\u65b9\u6574\u5099\u5c40\u65b0\u6f5f\u6e2f\u6e7e\u7a7a\u6e2f\u6280\u8853\u8abf\u67fb\u4e8b\u52d9\u6240","boring_xml_url":0,"boring_view_url":0,"soilmap_view_url":66,"soiltest_xml_url":0,"soiltest_view_url":66},{"id":116279,"code":"B4KJ201801000-4528","latitude":"36.7805441","longitude":"137.1061191","source_code":"PORT1600A010230","project_name":"\u6e2f\u6e7e\u5c40","survey_name":"\u4f0f\u6728\u5bcc\u5c71\u6e2f(\u65b0\u6e4a)\u57cb\u7acb\u3066\u5730","client_name":"\u56fd\u571f\u4ea4\u901a\u7701\u5317\u9678\u5730\u65b9\u6574\u5099\u5c40\u65b0\u6f5f\u6e2f\u6e7e\u7a7a\u6e2f\u6280\u8853\u8abf\u67fb\u4e8b\u52d9\u6240","boring_xml_url":0,"boring_view_url":0,"soilmap_view_url":66,"soiltest_xml_url":0,"soiltest_view_url":66},{"id":116278,"code":"B4KJ201801000-4527","latitude":"36.77804441","longitude":"137.1069524","source_code":"PORT1600A010229","project_name":"\u6e2f\u6e7e\u5c40","survey_name":"\u4f0f\u6728\u5bcc\u5c71\u6e2f(\u65b0\u6e4a)\u57cb\u7acb\u3066\u5730","client_name":"\u56fd\u571f\u4ea4\u901a\u7701\u5317\u9678\u5730\u65b9\u6574\u5099\u5c40\u65b0\u6f5f\u6e2f\u6e7e\u7a7a\u6e2f\u6280\u8853\u8abf\u67fb\u4e8b\u52d9\u6240","boring_xml_url":0,"boring_view_url":0,"soilmap_view_url":66,"soiltest_xml_url":0,"soiltest_view_url":66},{"id":116277,"code":"B4KJ201801000-4526","latitude":"36.77915542","longitude":"137.1077856","source_code":"PORT1600A010228","project_name":"\u6e2f\u6e7e\u5c40","survey_name":"\u4f0f\u6728\u5bcc\u5c71\u6e2f(\u65b0\u6e4a)\u57cb\u7acb\u3066\u5730","client_name":"\u56fd\u571f\u4ea4\u901a\u7701\u5317\u9678\u5730\u65b9\u6574\u5099\u5c40\u65b0\u6f5f\u6e2f\u6e7e\u7a7a\u6e2f\u6280\u8853\u8abf\u67fb\u4e8b\u52d9\u6240","boring_xml_url":0,"boring_view_url":0,"soilmap_view_url":66,"soiltest_xml_url":0,"soiltest_view_url":66},{"id":116276,"code":"B4KJ201801000-4525","latitude":"36.77971092","longitude":"137.1083411","source_code":"PORT1600A010227","project_name":"\u6e2f\u6e7e\u5c40","survey_name":"\u4f0f\u6728\u5bcc\u5c71\u6e2f(\u65b0\u6e4a)\u57cb\u7acb\u3066\u5730","client_name":"\u56fd\u571f\u4ea4\u901a\u7701\u5317\u9678\u5730\u65b9\u6574\u5099\u5c40\u65b0\u6f5f\u6e2f\u6e7e\u7a7a\u6e2f\u6280\u8853\u8abf\u67fb\u4e8b\u52d9\u6240","boring_xml_url":0,"boring_view_url":0,"soilmap_view_url":66,"soiltest_xml_url":0,"soiltest_view_url":66}]}}