{"header":{"xyz":{"source":[],"mosaic":false},"page":681,"raw":{"soiltest_result":"0","bbox":"57.598333,109.544722,1.933333,163.806111","page":"681"},"conditions":{"soiltest_result":0,"north":57.598333,"west":109.544722,"south":1.933333,"east":163.806111},"success":true,"message":""},"data":{"meta":{"total":212844,"page":681,"pages":7095,"count":30},"values":[{"id":524988,"code":"B4KJ202201002-7524","latitude":"33.985639","longitude":"134.572028","source_code":"068830612000140004","project_name":"","survey_name":"\u5e73\u621018\u5e74\u5ea6\u3000\u65b0\u5c45\u898b\u30c8\u30f3\u30cd\u30eb\u5730\u8cea\u8abf\u67fb\u696d\u52d9","client_name":"\u56fd\u571f\u4ea4\u901a\u7701\u3000\u56db\u56fd\u5730\u65b9\u6574\u5099\u5c40\u3000\u5fb3\u5cf6\u6cb3\u5ddd\u56fd\u9053\u4e8b\u52d9\u6240\u3000\u9053\u8def\u8abf\u67fb\u7b2c\u4e8c\u8ab2","boring_xml_url":64,"boring_view_url":1,"soilmap_view_url":null,"soiltest_xml_url":0,"soiltest_view_url":0},{"id":524987,"code":"B4KJ202201002-7523","latitude":"33.988611","longitude":"134.568361","source_code":"068830612000140003","project_name":"","survey_name":"\u5e73\u621018\u5e74\u5ea6\u3000\u65b0\u5c45\u898b\u30c8\u30f3\u30cd\u30eb\u5730\u8cea\u8abf\u67fb\u696d\u52d9","client_name":"\u56fd\u571f\u4ea4\u901a\u7701\u3000\u56db\u56fd\u5730\u65b9\u6574\u5099\u5c40\u3000\u5fb3\u5cf6\u6cb3\u5ddd\u56fd\u9053\u4e8b\u52d9\u6240\u3000\u9053\u8def\u8abf\u67fb\u7b2c\u4e8c\u8ab2","boring_xml_url":64,"boring_view_url":1,"soilmap_view_url":null,"soiltest_xml_url":0,"soiltest_view_url":0},{"id":524986,"code":"B4KJ202201002-7522","latitude":"33.990278","longitude":"134.566583","source_code":"068830612000140002","project_name":"","survey_name":"\u5e73\u621018\u5e74\u5ea6\u3000\u65b0\u5c45\u898b\u30c8\u30f3\u30cd\u30eb\u5730\u8cea\u8abf\u67fb\u696d\u52d9","client_name":"\u56fd\u571f\u4ea4\u901a\u7701\u3000\u56db\u56fd\u5730\u65b9\u6574\u5099\u5c40\u3000\u5fb3\u5cf6\u6cb3\u5ddd\u56fd\u9053\u4e8b\u52d9\u6240\u3000\u9053\u8def\u8abf\u67fb\u7b2c\u4e8c\u8ab2","boring_xml_url":64,"boring_view_url":1,"soilmap_view_url":null,"soiltest_xml_url":0,"soiltest_view_url":0},{"id":524985,"code":"B4KJ202201002-7521","latitude":"33.996139","longitude":"133.789639","source_code":"068830562000070014","project_name":"\"\u5e73\u621018\u5e74\u5ea6 \u7ba1\u5185\u5730\u8cea\u8abf\u67fb\u696d\u52d9\"","survey_name":"\"\u5e73\u621018\u5e74\u5ea6 \u7ba1\u5185\u5730\u8cea\u8abf\u67fb\u696d\u52d9\"","client_name":"\"\u56fd\u571f\u4ea4\u901a\u7701 \u56db\u56fd\u5730\u65b9\u6574\u5099\u5c40 \u5fb3\u5cf6\u6cb3\u5ddd\u56fd\u9053\u4e8b\u52d9\u6240\"","boring_xml_url":64,"boring_view_url":1,"soilmap_view_url":null,"soiltest_xml_url":0,"soiltest_view_url":0},{"id":524984,"code":"B4KJ202201002-7520","latitude":"33.996444","longitude":"133.789417","source_code":"068830562000070013","project_name":"\"\u5e73\u621018\u5e74\u5ea6 \u7ba1\u5185\u5730\u8cea\u8abf\u67fb\u696d\u52d9\"","survey_name":"\"\u5e73\u621018\u5e74\u5ea6 \u7ba1\u5185\u5730\u8cea\u8abf\u67fb\u696d\u52d9\"","client_name":"\"\u56fd\u571f\u4ea4\u901a\u7701 \u56db\u56fd\u5730\u65b9\u6574\u5099\u5c40 \u5fb3\u5cf6\u6cb3\u5ddd\u56fd\u9053\u4e8b\u52d9\u6240\"","boring_xml_url":64,"boring_view_url":1,"soilmap_view_url":null,"soiltest_xml_url":0,"soiltest_view_url":0},{"id":524983,"code":"B4KJ202201002-7519","latitude":"33.9965","longitude":"133.789361","source_code":"068830562000070012","project_name":"\"\u5e73\u621018\u5e74\u5ea6 \u7ba1\u5185\u5730\u8cea\u8abf\u67fb\u696d\u52d9\"","survey_name":"\"\u5e73\u621018\u5e74\u5ea6 \u7ba1\u5185\u5730\u8cea\u8abf\u67fb\u696d\u52d9\"","client_name":"\"\u56fd\u571f\u4ea4\u901a\u7701 \u56db\u56fd\u5730\u65b9\u6574\u5099\u5c40 \u5fb3\u5cf6\u6cb3\u5ddd\u56fd\u9053\u4e8b\u52d9\u6240\"","boring_xml_url":64,"boring_view_url":1,"soilmap_view_url":null,"soiltest_xml_url":0,"soiltest_view_url":0},{"id":524982,"code":"B4KJ202201002-7518","latitude":"33.996861","longitude":"133.789278","source_code":"068830562000070011","project_name":"\"\u5e73\u621018\u5e74\u5ea6 \u7ba1\u5185\u5730\u8cea\u8abf\u67fb\u696d\u52d9\"","survey_name":"\"\u5e73\u621018\u5e74\u5ea6 \u7ba1\u5185\u5730\u8cea\u8abf\u67fb\u696d\u52d9\"","client_name":"\"\u56fd\u571f\u4ea4\u901a\u7701 \u56db\u56fd\u5730\u65b9\u6574\u5099\u5c40 \u5fb3\u5cf6\u6cb3\u5ddd\u56fd\u9053\u4e8b\u52d9\u6240\"","boring_xml_url":64,"boring_view_url":1,"soilmap_view_url":null,"soiltest_xml_url":0,"soiltest_view_url":0},{"id":524981,"code":"B4KJ202201002-7517","latitude":"33.997139","longitude":"133.78925","source_code":"068830562000070010","project_name":"\"\u5e73\u621018\u5e74\u5ea6 \u7ba1\u5185\u5730\u8cea\u8abf\u67fb\u696d\u52d9\"","survey_name":"\"\u5e73\u621018\u5e74\u5ea6 \u7ba1\u5185\u5730\u8cea\u8abf\u67fb\u696d\u52d9\"","client_name":"\"\u56fd\u571f\u4ea4\u901a\u7701 \u56db\u56fd\u5730\u65b9\u6574\u5099\u5c40 \u5fb3\u5cf6\u6cb3\u5ddd\u56fd\u9053\u4e8b\u52d9\u6240\"","boring_xml_url":64,"boring_view_url":1,"soilmap_view_url":null,"soiltest_xml_url":0,"soiltest_view_url":0},{"id":524980,"code":"B4KJ202201002-7516","latitude":"33.997306","longitude":"133.789139","source_code":"068830562000070009","project_name":"\"\u5e73\u621018\u5e74\u5ea6 \u7ba1\u5185\u5730\u8cea\u8abf\u67fb\u696d\u52d9\"","survey_name":"\"\u5e73\u621018\u5e74\u5ea6 \u7ba1\u5185\u5730\u8cea\u8abf\u67fb\u696d\u52d9\"","client_name":"\"\u56fd\u571f\u4ea4\u901a\u7701 \u56db\u56fd\u5730\u65b9\u6574\u5099\u5c40 \u5fb3\u5cf6\u6cb3\u5ddd\u56fd\u9053\u4e8b\u52d9\u6240\"","boring_xml_url":64,"boring_view_url":1,"soilmap_view_url":null,"soiltest_xml_url":0,"soiltest_view_url":0},{"id":524979,"code":"B4KJ202201002-7515","latitude":"33.725417","longitude":"134.530889","source_code":"068830562000070008","project_name":"\u5e73\u621018\u5e74\u5ea6\u3000\u7ba1\u5185\u5730\u8cea\u8abf\u67fb\u696d\u52d9","survey_name":"\u5e73\u621018\u5e74\u5ea6\u3000\u7ba1\u5185\u5730\u8cea\u8abf\u67fb\u696d\u52d9","client_name":"\"\u56fd\u571f\u4ea4\u901a\u7701 \u56db\u56fd\u5730\u65b9\u6574\u5099\u5c40 \u5fb3\u5cf6\u6cb3\u5ddd\u56fd\u9053\u4e8b\u52d9\u6240\"","boring_xml_url":64,"boring_view_url":1,"soilmap_view_url":null,"soiltest_xml_url":0,"soiltest_view_url":0},{"id":524978,"code":"B4KJ202201002-7514","latitude":"34.039306","longitude":"134.052944","source_code":"068830562000070007","project_name":"\"\u5e73\u621018\u5e74\u5ea6 \u7ba1\u5185\u5730\u8cea\u8abf\u67fb\u696d\u52d9\"","survey_name":"\"\u5e73\u621018\u5e74\u5ea6 \u7ba1\u5185\u5730\u8cea\u8abf\u67fb\u696d\u52d9\"","client_name":"\"\u56fd\u571f\u4ea4\u901a\u7701 \u56db\u56fd\u5730\u65b9\u6574\u5099\u5c40 \u5fb3\u5cf6\u6cb3\u5ddd\u56fd\u9053\u4e8b\u52d9\u6240\"","boring_xml_url":64,"boring_view_url":1,"soilmap_view_url":null,"soiltest_xml_url":0,"soiltest_view_url":0},{"id":524977,"code":"B4KJ202201002-7513","latitude":"34.03925","longitude":"134.053472","source_code":"068830562000070006","project_name":"\u5e73\u621018\u5e74\u5ea6\u3000\u7ba1\u5185\u5730\u8cea\u8abf\u67fb\u696d\u52d9","survey_name":"\u5e73\u621018\u5e74\u5ea6\u3000\u7ba1\u5185\u5730\u8cea\u8abf\u67fb\u696d\u52d9","client_name":"\"\u56fd\u571f\u4ea4\u901a\u7701 \u56db\u56fd\u5730\u65b9\u6574\u5099\u5c40 \u5fb3\u5cf6\u6cb3\u5ddd\u56fd\u9053\u4e8b\u52d9\u6240\"","boring_xml_url":64,"boring_view_url":1,"soilmap_view_url":null,"soiltest_xml_url":0,"soiltest_view_url":0},{"id":524976,"code":"B4KJ202201002-7512","latitude":"34.03925","longitude":"134.053167","source_code":"068830562000070005","project_name":"\u5e73\u621018\u5e74\u5ea6\u3000\u7ba1\u5185\u5730\u8cea\u8abf\u67fb\u696d\u52d9","survey_name":"\u5e73\u621018\u5e74\u5ea6\u3000\u7ba1\u5185\u5730\u8cea\u8abf\u67fb\u696d\u52d9","client_name":"\"\u56fd\u571f\u4ea4\u901a\u7701 \u56db\u56fd\u5730\u65b9\u6574\u5099\u5c40 \u5fb3\u5cf6\u6cb3\u5ddd\u56fd\u9053\u4e8b\u52d9\u6240\"","boring_xml_url":64,"boring_view_url":1,"soilmap_view_url":null,"soiltest_xml_url":0,"soiltest_view_url":0},{"id":524975,"code":"B4KJ202201002-7511","latitude":"33.968517","longitude":"134.591414","source_code":"068830482000020016","project_name":"\u5e73\u621018\u5e74\u5ea6\u3000\u7acb\u6c5f\u30c8\u30f3\u30cd\u30eb\u5916","survey_name":"\u5730\u8cea\u8abf\u67fb\u696d\u52d9","client_name":"\u56fd\u571f\u4ea4\u901a\u7701\u3000\u5fb3\u5cf6\u6cb3\u5ddd\u56fd\u9053\u4e8b\u52d9\u6240\u8abf\u67fb\u7b2c\u4e8c\u8ab2","boring_xml_url":64,"boring_view_url":1,"soilmap_view_url":null,"soiltest_xml_url":0,"soiltest_view_url":0},{"id":524974,"code":"B4KJ202201002-7510","latitude":"33.970194","longitude":"134.588533","source_code":"068830482000020015","project_name":"\u5e73\u621018\u5e74\u5ea6\u3000\u7acb\u6c5f\u30c8\u30f3\u30cd\u30eb\u5916","survey_name":"\u5730\u8cea\u8abf\u67fb\u696d\u52d9","client_name":"\u56fd\u571f\u4ea4\u901a\u7701\u3000\u5fb3\u5cf6\u6cb3\u5ddd\u56fd\u9053\u4e8b\u52d9\u6240\u8abf\u67fb\u7b2c\u4e8c\u8ab2","boring_xml_url":64,"boring_view_url":1,"soilmap_view_url":null,"soiltest_xml_url":0,"soiltest_view_url":0},{"id":524973,"code":"B4KJ202201002-7509","latitude":"33.970703","longitude":"134.588589","source_code":"068830482000020010","project_name":"\u5e73\u621018\u5e74\u5ea6\u3000\u7acb\u6c5f\u30c8\u30f3\u30cd\u30eb\u5916","survey_name":"\u5730\u8cea\u8abf\u67fb\u696d\u52d9","client_name":"\u56fd\u571f\u4ea4\u901a\u7701\u3000\u5fb3\u5cf6\u6cb3\u5ddd\u56fd\u9053\u4e8b\u52d9\u6240\u8abf\u67fb\u7b2c\u4e8c\u8ab2","boring_xml_url":64,"boring_view_url":1,"soilmap_view_url":null,"soiltest_xml_url":0,"soiltest_view_url":0},{"id":524972,"code":"B4KJ202201002-7508","latitude":"33.970636","longitude":"134.588511","source_code":"068830482000020009","project_name":"\u5e73\u621018\u5e74\u5ea6\u3000\u7acb\u6c5f\u30c8\u30f3\u30cd\u30eb\u5916","survey_name":"\u5730\u8cea\u8abf\u67fb\u696d\u52d9","client_name":"\u56fd\u571f\u4ea4\u901a\u7701\u3000\u5fb3\u5cf6\u6cb3\u5ddd\u56fd\u9053\u4e8b\u52d9\u6240\u8abf\u67fb\u7b2c\u4e8c\u8ab2","boring_xml_url":64,"boring_view_url":1,"soilmap_view_url":null,"soiltest_xml_url":0,"soiltest_view_url":0},{"id":524971,"code":"B4KJ202201002-7507","latitude":"33.969167","longitude":"134.590025","source_code":"068830482000020008","project_name":"\u5e73\u621018\u5e74\u5ea6\u3000\u7acb\u6c5f\u30c8\u30f3\u30cd\u30eb\u5916","survey_name":"\u5730\u8cea\u8abf\u67fb\u696d\u52d9","client_name":"\u56fd\u571f\u4ea4\u901a\u7701\u3000\u5fb3\u5cf6\u6cb3\u5ddd\u56fd\u9053\u4e8b\u52d9\u6240\u8abf\u67fb\u7b2c\u4e8c\u8ab2","boring_xml_url":64,"boring_view_url":1,"soilmap_view_url":null,"soiltest_xml_url":0,"soiltest_view_url":0},{"id":524970,"code":"B4KJ202201002-7506","latitude":"33.967883","longitude":"134.591028","source_code":"068830482000020007","project_name":"\u5e73\u621018\u5e74\u5ea6\u3000\u7acb\u6c5f\u30c8\u30f3\u30cd\u30eb\u5916","survey_name":"\u5730\u8cea\u8abf\u67fb\u696d\u52d9","client_name":"\u56fd\u571f\u4ea4\u901a\u7701\u3000\u5fb3\u5cf6\u6cb3\u5ddd\u56fd\u9053\u4e8b\u52d9\u6240\u8abf\u67fb\u7b2c\u4e8c\u8ab2","boring_xml_url":64,"boring_view_url":1,"soilmap_view_url":null,"soiltest_xml_url":0,"soiltest_view_url":0},{"id":524969,"code":"B4KJ202201002-7505","latitude":"33.963886","longitude":"134.594111","source_code":"068830482000020006","project_name":"\u5e73\u621018\u5e74\u5ea6\u3000\u7acb\u6c5f\u30c8\u30f3\u30cd\u30eb\u5916","survey_name":"\u5730\u8cea\u8abf\u67fb\u696d\u52d9","client_name":"\u56fd\u571f\u4ea4\u901a\u7701\u3000\u5fb3\u5cf6\u6cb3\u5ddd\u56fd\u9053\u4e8b\u52d9\u6240\u8abf\u67fb\u7b2c\u4e8c\u8ab2","boring_xml_url":64,"boring_view_url":1,"soilmap_view_url":null,"soiltest_xml_url":0,"soiltest_view_url":0},{"id":524968,"code":"B4KJ202201002-7504","latitude":"33.963886","longitude":"134.594111","source_code":"068830482000020005","project_name":"\u5e73\u621018\u5e74\u5ea6\u3000\u7acb\u6c5f\u30c8\u30f3\u30cd\u30eb\u5916","survey_name":"\u5730\u8cea\u8abf\u67fb\u696d\u52d9","client_name":"\u56fd\u571f\u4ea4\u901a\u7701\u3000\u5fb3\u5cf6\u6cb3\u5ddd\u56fd\u9053\u4e8b\u52d9\u6240\u8abf\u67fb\u7b2c\u4e8c\u8ab2","boring_xml_url":64,"boring_view_url":1,"soilmap_view_url":null,"soiltest_xml_url":0,"soiltest_view_url":0},{"id":524967,"code":"B4KJ202201002-7503","latitude":"33.975097","longitude":"134.583381","source_code":"068830482000010022","project_name":"\u5e73\u621018\u5e74\u5ea6\u3000\u7530\u91ce\u30c8\u30f3\u30cd\u30eb\u5916\u5730\u8cea\u8abf\u67fb\u696d\u52d9","survey_name":"\u5e73\u621018\u5e74\u5ea6\u3000\u7530\u91ce\u30c8\u30f3\u30cd\u30eb\u5916\u5730\u8cea\u8abf\u67fb\u696d\u52d9","client_name":"\u56fd\u571f\u4ea4\u901a\u7701\u56db\u56fd\u5730\u65b9\u6574\u5099\u5c40\u5fb3\u5cf6\u6cb3\u5ddd\u56fd\u9053\u4e8b\u52d9\u6240","boring_xml_url":64,"boring_view_url":1,"soilmap_view_url":null,"soiltest_xml_url":0,"soiltest_view_url":0},{"id":524966,"code":"B4KJ202201002-7502","latitude":"33.9748","longitude":"134.58373","source_code":"068830482000010021","project_name":"\u5e73\u621018\u5e74\u5ea6\u3000\u7530\u91ce\u30c8\u30f3\u30cd\u30eb\u5916\u5730\u8cea\u8abf\u67fb\u696d\u52d9","survey_name":"\u5e73\u621018\u5e74\u5ea6\u3000\u7530\u91ce\u30c8\u30f3\u30cd\u30eb\u5916\u5730\u8cea\u8abf\u67fb\u696d\u52d9","client_name":"\u56fd\u571f\u4ea4\u901a\u7701\u56db\u56fd\u5730\u65b9\u6574\u5099\u5c40\u5fb3\u5cf6\u6cb3\u5ddd\u56fd\u9053\u4e8b\u52d9\u6240","boring_xml_url":64,"boring_view_url":1,"soilmap_view_url":null,"soiltest_xml_url":0,"soiltest_view_url":0},{"id":524965,"code":"B4KJ202201002-7501","latitude":"33.974603","longitude":"134.584666","source_code":"068830482000010020","project_name":"\u5e73\u621018\u5e74\u5ea6\u3000\u7530\u91ce\u30c8\u30f3\u30cd\u30eb\u5916\u5730\u8cea\u8abf\u67fb\u696d\u52d9","survey_name":"\u5e73\u621018\u5e74\u5ea6\u3000\u7530\u91ce\u30c8\u30f3\u30cd\u30eb\u5916\u5730\u8cea\u8abf\u67fb\u696d\u52d9","client_name":"\u56fd\u571f\u4ea4\u901a\u7701\u56db\u56fd\u5730\u65b9\u6574\u5099\u5c40\u5fb3\u5cf6\u6cb3\u5ddd\u56fd\u9053\u4e8b\u52d9\u6240","boring_xml_url":64,"boring_view_url":1,"soilmap_view_url":null,"soiltest_xml_url":0,"soiltest_view_url":0},{"id":524964,"code":"B4KJ202201002-7500","latitude":"33.941005","longitude":"134.610911","source_code":"068830482000010015","project_name":"\u5e73\u621018\u5e74\u5ea6\u7530\u91ce\u30c8\u30f3\u30cd\u30eb\u5916\u5730\u8cea\u8abf\u67fb\u696d\u52d9","survey_name":"\u5e73\u621018\u5e74\u5ea6\u7530\u91ce\u30c8\u30f3\u30cd\u30eb\u5916\u5730\u8cea\u8abf\u67fb\u696d\u52d9","client_name":"\u56fd\u571f\u4ea4\u901a\u7701\u56db\u56fd\u5730\u65b9\u6574\u5099\u5c40\u5fb3\u5cf6\u6cb3\u5ddd\u56fd\u9053\u4e8b\u52d9\u6240","boring_xml_url":64,"boring_view_url":1,"soilmap_view_url":null,"soiltest_xml_url":0,"soiltest_view_url":0},{"id":524963,"code":"B4KJ202201002-7499","latitude":"33.938083","longitude":"134.611073","source_code":"068830482000010014","project_name":"\u5e73\u621018\u5e74\u5ea6\u7530\u91ce\u30c8\u30f3\u30cd\u30eb\u5916\u5730\u8cea\u8abf\u67fb\u696d\u52d9","survey_name":"\u5e73\u621018\u5e74\u5ea6\u7530\u91ce\u30c8\u30f3\u30cd\u30eb\u5916\u5730\u8cea\u8abf\u67fb\u696d\u52d9","client_name":"\u56fd\u571f\u4ea4\u901a\u7701\u56db\u56fd\u5730\u65b9\u6574\u5099\u5c40\u5fb3\u5cf6\u6cb3\u5ddd\u56fd\u9053\u4e8b\u52d9\u6240","boring_xml_url":64,"boring_view_url":1,"soilmap_view_url":null,"soiltest_xml_url":0,"soiltest_view_url":0},{"id":524962,"code":"B4KJ202201002-7498","latitude":"33.97445","longitude":"134.584086","source_code":"068830482000010013","project_name":"\u5e73\u621018\u5e74\u5ea6\u3000\u7530\u91ce\u30c8\u30f3\u30cd\u30eb\u5916\u5730\u8cea\u8abf\u67fb\u696d\u52d9","survey_name":"\u5e73\u621018\u5e74\u5ea6\u3000\u7530\u91ce\u30c8\u30f3\u30cd\u30eb\u5916\u5730\u8cea\u8abf\u67fb\u696d\u52d9","client_name":"\u56fd\u571f\u4ea4\u901a\u7701\u56db\u56fd\u5730\u65b9\u6574\u5099\u5c40\u5fb3\u5cf6\u6cb3\u5ddd\u56fd\u9053\u4e8b\u52d9\u6240","boring_xml_url":64,"boring_view_url":1,"soilmap_view_url":null,"soiltest_xml_url":0,"soiltest_view_url":0},{"id":524961,"code":"B4KJ202201002-7497","latitude":"33.974789","longitude":"134.584689","source_code":"068830482000010012","project_name":"\u5e73\u621018\u5e74\u5ea6\u3000\u7530\u91ce\u30c8\u30f3\u30cd\u30eb\u5916\u5730\u8cea\u8abf\u67fb\u696d\u52d9","survey_name":"\u5e73\u621018\u5e74\u5ea6\u3000\u7530\u91ce\u30c8\u30f3\u30cd\u30eb\u5916\u5730\u8cea\u8abf\u67fb\u696d\u52d9","client_name":"\u56fd\u571f\u4ea4\u901a\u7701\u56db\u56fd\u5730\u65b9\u6574\u5099\u5c40\u5fb3\u5cf6\u6cb3\u5ddd\u56fd\u9053\u4e8b\u52d9\u6240","boring_xml_url":64,"boring_view_url":1,"soilmap_view_url":null,"soiltest_xml_url":0,"soiltest_view_url":0},{"id":524960,"code":"B4KJ202201002-7496","latitude":"33.979042","longitude":"134.580231","source_code":"068830482000010011","project_name":"\u5e73\u621018\u5e74\u5ea6\u3000\u7530\u91ce\u30c8\u30f3\u30cd\u30eb\u5916\u5730\u8cea\u8abf\u67fb\u696d\u52d9","survey_name":"\u5e73\u621018\u5e74\u5ea6\u3000\u7530\u91ce\u30c8\u30f3\u30cd\u30eb\u5916\u5730\u8cea\u8abf\u67fb\u696d\u52d9","client_name":"\u56fd\u571f\u4ea4\u901a\u7701\u56db\u56fd\u5730\u65b9\u6574\u5099\u5c40\u5fb3\u5cf6\u6cb3\u5ddd\u56fd\u9053\u4e8b\u52d9\u6240","boring_xml_url":64,"boring_view_url":1,"soilmap_view_url":null,"soiltest_xml_url":0,"soiltest_view_url":0},{"id":524959,"code":"B4KJ202201002-7495","latitude":"33.977169","longitude":"134.582117","source_code":"068830482000010009","project_name":"\u5e73\u621018\u5e74\u5ea6\u3000\u7530\u91ce\u30c8\u30f3\u30cd\u30eb\u5916\u5730\u8cea\u8abf\u67fb\u696d\u52d9","survey_name":"\u5e73\u621018\u5e74\u5ea6\u3000\u7530\u91ce\u30c8\u30f3\u30cd\u30eb\u5916\u5730\u8cea\u8abf\u67fb\u696d\u52d9","client_name":"\u56fd\u571f\u4ea4\u901a\u7701\u56db\u56fd\u5730\u65b9\u6574\u5099\u5c40\u5fb3\u5cf6\u6cb3\u5ddd\u56fd\u9053\u4e8b\u52d9\u6240","boring_xml_url":64,"boring_view_url":1,"soilmap_view_url":null,"soiltest_xml_url":0,"soiltest_view_url":0}]}}