{"header":{"xyz":{"source":[],"mosaic":false},"page":6810,"raw":{"soiltest_result":"0","bbox":"57.598333,109.544722,1.933333,163.806111","page":"6810"},"conditions":{"soiltest_result":0,"north":57.598333,"west":109.544722,"south":1.933333,"east":163.806111},"success":true,"message":""},"data":{"meta":{"total":212844,"page":6810,"pages":7095,"count":30},"values":[{"id":116275,"code":"B4KJ201801000-4524","latitude":"36.7611023","longitude":"137.1213963","source_code":"PORT1600A010223","project_name":"\u6e2f\u6e7e\u5c40","survey_name":"\u4f0f\u6728\u5bcc\u5c71\u6e2f(\u65b0\u6e4a)\u822a\u8def\u8b77\u5cb8","client_name":"\u56fd\u571f\u4ea4\u901a\u7701\u5317\u9678\u5730\u65b9\u6574\u5099\u5c40\u65b0\u6f5f\u6e2f\u6e7e\u7a7a\u6e2f\u6280\u8853\u8abf\u67fb\u4e8b\u52d9\u6240","boring_xml_url":0,"boring_view_url":0,"soilmap_view_url":66,"soiltest_xml_url":0,"soiltest_view_url":66},{"id":116274,"code":"B4KJ201801000-4523","latitude":"36.76138002","longitude":"137.120563","source_code":"PORT1600A010222","project_name":"\u6e2f\u6e7e\u5c40","survey_name":"\u4f0f\u6728\u5bcc\u5c71\u6e2f(\u65b0\u6e4a)\u822a\u8def\u8b77\u5cb8","client_name":"\u56fd\u571f\u4ea4\u901a\u7701\u5317\u9678\u5730\u65b9\u6574\u5099\u5c40\u65b0\u6f5f\u6e2f\u6e7e\u7a7a\u6e2f\u6280\u8853\u8abf\u67fb\u4e8b\u52d9\u6240","boring_xml_url":0,"boring_view_url":0,"soilmap_view_url":66,"soiltest_xml_url":0,"soiltest_view_url":66},{"id":116273,"code":"B4KJ201801000-4522","latitude":"36.7619355","longitude":"137.1200075","source_code":"PORT1600A010221","project_name":"\u6e2f\u6e7e\u5c40","survey_name":"\u4f0f\u6728\u5bcc\u5c71\u6e2f(\u65b0\u6e4a)\u822a\u8def\u8b77\u5cb8","client_name":"\u56fd\u571f\u4ea4\u901a\u7701\u5317\u9678\u5730\u65b9\u6574\u5099\u5c40\u65b0\u6f5f\u6e2f\u6e7e\u7a7a\u6e2f\u6280\u8853\u8abf\u67fb\u4e8b\u52d9\u6240","boring_xml_url":0,"boring_view_url":0,"soilmap_view_url":66,"soiltest_xml_url":0,"soiltest_view_url":66},{"id":116272,"code":"B4KJ201801000-4521","latitude":"36.76221322","longitude":"137.1191742","source_code":"PORT1600A010220","project_name":"\u6e2f\u6e7e\u5c40","survey_name":"\u4f0f\u6728\u5bcc\u5c71\u6e2f(\u65b0\u6e4a)\u822a\u8def\u8b77\u5cb8","client_name":"\u56fd\u571f\u4ea4\u901a\u7701\u5317\u9678\u5730\u65b9\u6574\u5099\u5c40\u65b0\u6f5f\u6e2f\u6e7e\u7a7a\u6e2f\u6280\u8853\u8abf\u67fb\u4e8b\u52d9\u6240","boring_xml_url":0,"boring_view_url":0,"soilmap_view_url":66,"soiltest_xml_url":0,"soiltest_view_url":66},{"id":116271,"code":"B4KJ201801000-4520","latitude":"36.76249096","longitude":"137.1186187","source_code":"PORT1600A010219","project_name":"\u6e2f\u6e7e\u5c40","survey_name":"\u4f0f\u6728\u5bcc\u5c71\u6e2f(\u65b0\u6e4a)\u822a\u8def\u8b77\u5cb8","client_name":"\u56fd\u571f\u4ea4\u901a\u7701\u5317\u9678\u5730\u65b9\u6574\u5099\u5c40\u65b0\u6f5f\u6e2f\u6e7e\u7a7a\u6e2f\u6280\u8853\u8abf\u67fb\u4e8b\u52d9\u6240","boring_xml_url":0,"boring_view_url":0,"soilmap_view_url":66,"soiltest_xml_url":0,"soiltest_view_url":66},{"id":116270,"code":"B4KJ201801000-4519","latitude":"36.76304643","longitude":"137.1180632","source_code":"PORT1600A010218","project_name":"\u6e2f\u6e7e\u5c40","survey_name":"\u4f0f\u6728\u5bcc\u5c71\u6e2f(\u65b0\u6e4a)\u822a\u8def\u8b77\u5cb8","client_name":"\u56fd\u571f\u4ea4\u901a\u7701\u5317\u9678\u5730\u65b9\u6574\u5099\u5c40\u65b0\u6f5f\u6e2f\u6e7e\u7a7a\u6e2f\u6280\u8853\u8abf\u67fb\u4e8b\u52d9\u6240","boring_xml_url":0,"boring_view_url":0,"soilmap_view_url":66,"soiltest_xml_url":0,"soiltest_view_url":66},{"id":116269,"code":"B4KJ201801000-4518","latitude":"36.76332416","longitude":"137.1172299","source_code":"PORT1600A010217","project_name":"\u6e2f\u6e7e\u5c40","survey_name":"\u4f0f\u6728\u5bcc\u5c71\u6e2f(\u65b0\u6e4a)\u822a\u8def\u8b77\u5cb8","client_name":"\u56fd\u571f\u4ea4\u901a\u7701\u5317\u9678\u5730\u65b9\u6574\u5099\u5c40\u65b0\u6f5f\u6e2f\u6e7e\u7a7a\u6e2f\u6280\u8853\u8abf\u67fb\u4e8b\u52d9\u6240","boring_xml_url":0,"boring_view_url":0,"soilmap_view_url":66,"soiltest_xml_url":0,"soiltest_view_url":66},{"id":116268,"code":"B4KJ201801000-4517","latitude":"36.76360189","longitude":"137.1166744","source_code":"PORT1600A010216","project_name":"\u6e2f\u6e7e\u5c40","survey_name":"\u4f0f\u6728\u5bcc\u5c71\u6e2f(\u65b0\u6e4a)\u822a\u8def\u8b77\u5cb8","client_name":"\u56fd\u571f\u4ea4\u901a\u7701\u5317\u9678\u5730\u65b9\u6574\u5099\u5c40\u65b0\u6f5f\u6e2f\u6e7e\u7a7a\u6e2f\u6280\u8853\u8abf\u67fb\u4e8b\u52d9\u6240","boring_xml_url":0,"boring_view_url":0,"soilmap_view_url":66,"soiltest_xml_url":0,"soiltest_view_url":66},{"id":116267,"code":"B4KJ201801000-4516","latitude":"36.76387962","longitude":"137.1161188","source_code":"PORT1600A010215","project_name":"\u6e2f\u6e7e\u5c40","survey_name":"\u4f0f\u6728\u5bcc\u5c71\u6e2f(\u65b0\u6e4a)\u822a\u8def\u8b77\u5cb8","client_name":"\u56fd\u571f\u4ea4\u901a\u7701\u5317\u9678\u5730\u65b9\u6574\u5099\u5c40\u65b0\u6f5f\u6e2f\u6e7e\u7a7a\u6e2f\u6280\u8853\u8abf\u67fb\u4e8b\u52d9\u6240","boring_xml_url":0,"boring_view_url":0,"soilmap_view_url":66,"soiltest_xml_url":0,"soiltest_view_url":66},{"id":116266,"code":"B4KJ201801000-4515","latitude":"36.76443508","longitude":"137.1150078","source_code":"PORT1600A010214","project_name":"\u6e2f\u6e7e\u5c40","survey_name":"\u4f0f\u6728\u5bcc\u5c71\u6e2f(\u65b0\u6e4a)\u822a\u8def\u8b77\u5cb8","client_name":"\u56fd\u571f\u4ea4\u901a\u7701\u5317\u9678\u5730\u65b9\u6574\u5099\u5c40\u65b0\u6f5f\u6e2f\u6e7e\u7a7a\u6e2f\u6280\u8853\u8abf\u67fb\u4e8b\u52d9\u6240","boring_xml_url":0,"boring_view_url":0,"soilmap_view_url":66,"soiltest_xml_url":0,"soiltest_view_url":66},{"id":116265,"code":"B4KJ201801000-4514","latitude":"36.77832226","longitude":"137.110841","source_code":"PORT1600A010213","project_name":"\u6e2f\u6e7e\u5c40","survey_name":"\u4f0f\u6728-\u5bcc\u5c71\u6e2f\u65b0\u6e4a\u57cb\u7acb\u3066\u5730","client_name":"\u56fd\u571f\u4ea4\u901a\u7701\u5317\u9678\u5730\u65b9\u6574\u5099\u5c40\u65b0\u6f5f\u6e2f\u6e7e\u7a7a\u6e2f\u6280\u8853\u8abf\u67fb\u4e8b\u52d9\u6240","boring_xml_url":0,"boring_view_url":0,"soilmap_view_url":66,"soiltest_xml_url":0,"soiltest_view_url":66},{"id":116264,"code":"B4KJ201801000-4513","latitude":"36.77832224","longitude":"137.1100077","source_code":"PORT1600A010212","project_name":"\u6e2f\u6e7e\u5c40","survey_name":"\u4f0f\u6728-\u5bcc\u5c71\u6e2f\u65b0\u6e4a\u57cb\u7acb\u3066\u5730","client_name":"\u56fd\u571f\u4ea4\u901a\u7701\u5317\u9678\u5730\u65b9\u6574\u5099\u5c40\u65b0\u6f5f\u6e2f\u6e7e\u7a7a\u6e2f\u6280\u8853\u8abf\u67fb\u4e8b\u52d9\u6240","boring_xml_url":0,"boring_view_url":0,"soilmap_view_url":66,"soiltest_xml_url":0,"soiltest_view_url":66},{"id":116263,"code":"B4KJ201801000-4512","latitude":"36.77887776","longitude":"137.1111187","source_code":"PORT1600A010211","project_name":"\u6e2f\u6e7e\u5c40","survey_name":"\u4f0f\u6728-\u5bcc\u5c71\u6e2f\u65b0\u6e4a\u57cb\u7acb\u3066\u5730","client_name":"\u56fd\u571f\u4ea4\u901a\u7701\u5317\u9678\u5730\u65b9\u6574\u5099\u5c40\u65b0\u6f5f\u6e2f\u6e7e\u7a7a\u6e2f\u6280\u8853\u8abf\u67fb\u4e8b\u52d9\u6240","boring_xml_url":0,"boring_view_url":0,"soilmap_view_url":66,"soiltest_xml_url":0,"soiltest_view_url":66},{"id":116262,"code":"B4KJ201801000-4511","latitude":"36.77915548","longitude":"137.1102854","source_code":"PORT1600A010210","project_name":"\u6e2f\u6e7e\u5c40","survey_name":"\u4f0f\u6728-\u5bcc\u5c71\u6e2f\u65b0\u6e4a\u57cb\u7acb\u3066\u5730","client_name":"\u56fd\u571f\u4ea4\u901a\u7701\u5317\u9678\u5730\u65b9\u6574\u5099\u5c40\u65b0\u6f5f\u6e2f\u6e7e\u7a7a\u6e2f\u6280\u8853\u8abf\u67fb\u4e8b\u52d9\u6240","boring_xml_url":0,"boring_view_url":0,"soilmap_view_url":66,"soiltest_xml_url":0,"soiltest_view_url":66},{"id":116261,"code":"B4KJ201801000-4510","latitude":"36.77943321","longitude":"137.1097299","source_code":"PORT1600A010209","project_name":"\u6e2f\u6e7e\u5c40","survey_name":"\u4f0f\u6728-\u5bcc\u5c71\u6e2f\u65b0\u6e4a\u57cb\u7acb\u3066\u5730","client_name":"\u56fd\u571f\u4ea4\u901a\u7701\u5317\u9678\u5730\u65b9\u6574\u5099\u5c40\u65b0\u6f5f\u6e2f\u6e7e\u7a7a\u6e2f\u6280\u8853\u8abf\u67fb\u4e8b\u52d9\u6240","boring_xml_url":0,"boring_view_url":0,"soilmap_view_url":66,"soiltest_xml_url":0,"soiltest_view_url":66},{"id":116260,"code":"B4KJ201801000-4509","latitude":"36.77804441","longitude":"137.1069524","source_code":"PORT1600A010208","project_name":"\u6e2f\u6e7e\u5c40","survey_name":"\u4f0f\u6728-\u5bcc\u5c71\u6e2f\u65b0\u6e4a\u57cb\u7acb\u3066\u5730","client_name":"\u56fd\u571f\u4ea4\u901a\u7701\u5317\u9678\u5730\u65b9\u6574\u5099\u5c40\u65b0\u6f5f\u6e2f\u6e7e\u7a7a\u6e2f\u6280\u8853\u8abf\u67fb\u4e8b\u52d9\u6240","boring_xml_url":0,"boring_view_url":0,"soilmap_view_url":66,"soiltest_xml_url":0,"soiltest_view_url":66},{"id":116259,"code":"B4KJ201801000-4508","latitude":"36.77859988","longitude":"137.1058414","source_code":"PORT1600A010207","project_name":"\u6e2f\u6e7e\u5c40","survey_name":"\u4f0f\u6728-\u5bcc\u5c71\u6e2f\u65b0\u6e4a\u57cb\u7acb\u3066\u5730","client_name":"\u56fd\u571f\u4ea4\u901a\u7701\u5317\u9678\u5730\u65b9\u6574\u5099\u5c40\u65b0\u6f5f\u6e2f\u6e7e\u7a7a\u6e2f\u6280\u8853\u8abf\u67fb\u4e8b\u52d9\u6240","boring_xml_url":0,"boring_view_url":0,"soilmap_view_url":66,"soiltest_xml_url":0,"soiltest_view_url":66},{"id":116258,"code":"B4KJ201801000-4507","latitude":"36.77915532","longitude":"137.1038971","source_code":"PORT1600A010206","project_name":"\u6e2f\u6e7e\u5c40","survey_name":"\u4f0f\u6728-\u5bcc\u5c71\u6e2f\u65b0\u6e4a\u57cb\u7acb\u3066\u5730","client_name":"\u56fd\u571f\u4ea4\u901a\u7701\u5317\u9678\u5730\u65b9\u6574\u5099\u5c40\u65b0\u6f5f\u6e2f\u6e7e\u7a7a\u6e2f\u6280\u8853\u8abf\u67fb\u4e8b\u52d9\u6240","boring_xml_url":0,"boring_view_url":0,"soilmap_view_url":66,"soiltest_xml_url":0,"soiltest_view_url":66},{"id":116257,"code":"B4KJ201801000-4506","latitude":"36.77915542","longitude":"137.1077856","source_code":"PORT1600A010205","project_name":"\u6e2f\u6e7e\u5c40","survey_name":"\u4f0f\u6728-\u5bcc\u5c71\u6e2f\u65b0\u6e4a\u57cb\u7acb\u3066\u5730","client_name":"\u56fd\u571f\u4ea4\u901a\u7701\u5317\u9678\u5730\u65b9\u6574\u5099\u5c40\u65b0\u6f5f\u6e2f\u6e7e\u7a7a\u6e2f\u6280\u8853\u8abf\u67fb\u4e8b\u52d9\u6240","boring_xml_url":0,"boring_view_url":0,"soilmap_view_url":66,"soiltest_xml_url":0,"soiltest_view_url":66},{"id":116256,"code":"B4KJ201801000-4505","latitude":"36.77915537","longitude":"137.1058414","source_code":"PORT1600A010204","project_name":"\u6e2f\u6e7e\u5c40","survey_name":"\u4f0f\u6728-\u5bcc\u5c71\u6e2f\u65b0\u6e4a\u57cb\u7acb\u3066\u5730","client_name":"\u56fd\u571f\u4ea4\u901a\u7701\u5317\u9678\u5730\u65b9\u6574\u5099\u5c40\u65b0\u6f5f\u6e2f\u6e7e\u7a7a\u6e2f\u6280\u8853\u8abf\u67fb\u4e8b\u52d9\u6240","boring_xml_url":0,"boring_view_url":0,"soilmap_view_url":66,"soiltest_xml_url":0,"soiltest_view_url":66},{"id":116255,"code":"B4KJ201801000-4504","latitude":"36.77998857","longitude":"137.1044526","source_code":"PORT1600A010203","project_name":"\u6e2f\u6e7e\u5c40","survey_name":"\u4f0f\u6728-\u5bcc\u5c71\u6e2f\u65b0\u6e4a\u57cb\u7acb\u3066\u5730","client_name":"\u56fd\u571f\u4ea4\u901a\u7701\u5317\u9678\u5730\u65b9\u6574\u5099\u5c40\u65b0\u6f5f\u6e2f\u6e7e\u7a7a\u6e2f\u6280\u8853\u8abf\u67fb\u4e8b\u52d9\u6240","boring_xml_url":0,"boring_view_url":0,"soilmap_view_url":66,"soiltest_xml_url":0,"soiltest_view_url":66},{"id":116254,"code":"B4KJ201801000-4503","latitude":"36.77971092","longitude":"137.1083411","source_code":"PORT1600A010202","project_name":"\u6e2f\u6e7e\u5c40","survey_name":"\u4f0f\u6728-\u5bcc\u5c71\u6e2f\u65b0\u6e4a\u57cb\u7acb\u3066\u5730","client_name":"\u56fd\u571f\u4ea4\u901a\u7701\u5317\u9678\u5730\u65b9\u6574\u5099\u5c40\u65b0\u6f5f\u6e2f\u6e7e\u7a7a\u6e2f\u6280\u8853\u8abf\u67fb\u4e8b\u52d9\u6240","boring_xml_url":0,"boring_view_url":0,"soilmap_view_url":66,"soiltest_xml_url":0,"soiltest_view_url":66},{"id":116253,"code":"B4KJ201801000-4502","latitude":"36.7805441","longitude":"137.1061191","source_code":"PORT1600A010201","project_name":"\u6e2f\u6e7e\u5c40","survey_name":"\u4f0f\u6728-\u5bcc\u5c71\u6e2f\u65b0\u6e4a\u57cb\u7acb\u3066\u5730","client_name":"\u56fd\u571f\u4ea4\u901a\u7701\u5317\u9678\u5730\u65b9\u6574\u5099\u5c40\u65b0\u6f5f\u6e2f\u6e7e\u7a7a\u6e2f\u6280\u8853\u8abf\u67fb\u4e8b\u52d9\u6240","boring_xml_url":0,"boring_view_url":0,"soilmap_view_url":66,"soiltest_xml_url":0,"soiltest_view_url":66},{"id":116252,"code":"B4KJ201801000-4501","latitude":"36.78082181","longitude":"137.1047303","source_code":"PORT1600A010200","project_name":"\u6e2f\u6e7e\u5c40","survey_name":"\u4f0f\u6728-\u5bcc\u5c71\u6e2f\u65b0\u6e4a\u57cb\u7acb\u3066\u5730","client_name":"\u56fd\u571f\u4ea4\u901a\u7701\u5317\u9678\u5730\u65b9\u6574\u5099\u5c40\u65b0\u6f5f\u6e2f\u6e7e\u7a7a\u6e2f\u6280\u8853\u8abf\u67fb\u4e8b\u52d9\u6240","boring_xml_url":0,"boring_view_url":0,"soilmap_view_url":66,"soiltest_xml_url":0,"soiltest_view_url":66},{"id":116251,"code":"B4KJ201801000-4500","latitude":"36.77971076","longitude":"137.1019528","source_code":"PORT1600A010199","project_name":"\u6e2f\u6e7e\u5c40","survey_name":"\u4f0f\u6728\u5bcc\u5c71\u6e2f(\u65b0\u6e4a)\u57cb\u7acb\u3066\u5730","client_name":"\u56fd\u571f\u4ea4\u901a\u7701\u5317\u9678\u5730\u65b9\u6574\u5099\u5c40\u65b0\u6f5f\u6e2f\u6e7e\u7a7a\u6e2f\u6280\u8853\u8abf\u67fb\u4e8b\u52d9\u6240","boring_xml_url":0,"boring_view_url":0,"soilmap_view_url":66,"soiltest_xml_url":0,"soiltest_view_url":66},{"id":116250,"code":"B4KJ201801000-4499","latitude":"36.7802662","longitude":"137.1000085","source_code":"PORT1600A010198","project_name":"\u6e2f\u6e7e\u5c40","survey_name":"\u4f0f\u6728\u5bcc\u5c71\u6e2f(\u65b0\u6e4a)\u57cb\u7acb\u3066\u5730","client_name":"\u56fd\u571f\u4ea4\u901a\u7701\u5317\u9678\u5730\u65b9\u6574\u5099\u5c40\u65b0\u6f5f\u6e2f\u6e7e\u7a7a\u6e2f\u6280\u8853\u8abf\u67fb\u4e8b\u52d9\u6240","boring_xml_url":0,"boring_view_url":0,"soilmap_view_url":66,"soiltest_xml_url":0,"soiltest_view_url":66},{"id":116249,"code":"B4KJ201801000-4498","latitude":"36.78054401","longitude":"137.1025083","source_code":"PORT1600A010197","project_name":"\u6e2f\u6e7e\u5c40","survey_name":"\u4f0f\u6728\u5bcc\u5c71\u6e2f(\u65b0\u6e4a)\u57cb\u7acb\u3066\u5730","client_name":"\u56fd\u571f\u4ea4\u901a\u7701\u5317\u9678\u5730\u65b9\u6574\u5099\u5c40\u65b0\u6f5f\u6e2f\u6e7e\u7a7a\u6e2f\u6280\u8853\u8abf\u67fb\u4e8b\u52d9\u6240","boring_xml_url":0,"boring_view_url":0,"soilmap_view_url":66,"soiltest_xml_url":0,"soiltest_view_url":66},{"id":116248,"code":"B4KJ201801000-4497","latitude":"36.78109944","longitude":"137.1002862","source_code":"PORT1600A010196","project_name":"\u6e2f\u6e7e\u5c40","survey_name":"\u4f0f\u6728\u5bcc\u5c71\u6e2f(\u65b0\u6e4a)\u57cb\u7acb\u3066\u5730","client_name":"\u56fd\u571f\u4ea4\u901a\u7701\u5317\u9678\u5730\u65b9\u6574\u5099\u5c40\u65b0\u6f5f\u6e2f\u6e7e\u7a7a\u6e2f\u6280\u8853\u8abf\u67fb\u4e8b\u52d9\u6240","boring_xml_url":0,"boring_view_url":0,"soilmap_view_url":66,"soiltest_xml_url":0,"soiltest_view_url":66},{"id":116247,"code":"B4KJ201801000-4496","latitude":"36.78054418","longitude":"137.1088966","source_code":"PORT1600A010195","project_name":"\u6e2f\u6e7e\u5c40","survey_name":"\u4f0f\u6728\u5bcc\u5c71\u6e2f(\u65b0\u6e4a)\u57cb\u7acb\u3066\u5730","client_name":"\u56fd\u571f\u4ea4\u901a\u7701\u5317\u9678\u5730\u65b9\u6574\u5099\u5c40\u65b0\u6f5f\u6e2f\u6e7e\u7a7a\u6e2f\u6280\u8853\u8abf\u67fb\u4e8b\u52d9\u6240","boring_xml_url":0,"boring_view_url":0,"soilmap_view_url":66,"soiltest_xml_url":0,"soiltest_view_url":66},{"id":116246,"code":"B4KJ201801000-4495","latitude":"36.78082191","longitude":"137.1083411","source_code":"PORT1600A010194","project_name":"\u6e2f\u6e7e\u5c40","survey_name":"\u4f0f\u6728\u5bcc\u5c71\u6e2f(\u65b0\u6e4a)\u57cb\u7acb\u3066\u5730","client_name":"\u56fd\u571f\u4ea4\u901a\u7701\u5317\u9678\u5730\u65b9\u6574\u5099\u5c40\u65b0\u6f5f\u6e2f\u6e7e\u7a7a\u6e2f\u6280\u8853\u8abf\u67fb\u4e8b\u52d9\u6240","boring_xml_url":0,"boring_view_url":0,"soilmap_view_url":66,"soiltest_xml_url":0,"soiltest_view_url":66}]}}