{"header":{"xyz":{"source":[],"mosaic":false},"page":6815,"raw":{"soiltest_result":"0","bbox":"57.598333,109.544722,1.933333,163.806111","page":"6815"},"conditions":{"soiltest_result":0,"north":57.598333,"west":109.544722,"south":1.933333,"east":163.806111},"success":true,"message":""},"data":{"meta":{"total":212844,"page":6815,"pages":7095,"count":30},"values":[{"id":116125,"code":"B4KJ201801000-4374","latitude":"36.80304044","longitude":"137.064733","source_code":"PORT16001020479","project_name":"\u6e2f\u6e7e\u5c40","survey_name":"\u4f0f\u6728\u5bcc\u5c71\u4f0f\u6728\u5e73\u62108\u5e74\u5cb8\u58c1(-10m)(\u5916\u6e2f3\u53f7)","client_name":"\u56fd\u571f\u4ea4\u901a\u7701\u5317\u9678\u5730\u65b9\u6574\u5099\u5c40\u65b0\u6f5f\u6e2f\u6e7e\u7a7a\u6e2f\u6280\u8853\u8abf\u67fb\u4e8b\u52d9\u6240","boring_xml_url":0,"boring_view_url":0,"soilmap_view_url":66,"soiltest_xml_url":0,"soiltest_view_url":66},{"id":116124,"code":"B4KJ201801000-4373","latitude":"36.80331817","longitude":"137.0641774","source_code":"PORT16001020478","project_name":"\u6e2f\u6e7e\u5c40","survey_name":"\u4f0f\u6728\u5bcc\u5c71\u4f0f\u6728\u5e73\u62108\u5e74\u5cb8\u58c1(-10m)(\u5916\u6e2f3\u53f7)","client_name":"\u56fd\u571f\u4ea4\u901a\u7701\u5317\u9678\u5730\u65b9\u6574\u5099\u5c40\u65b0\u6f5f\u6e2f\u6e7e\u7a7a\u6e2f\u6280\u8853\u8abf\u67fb\u4e8b\u52d9\u6240","boring_xml_url":0,"boring_view_url":0,"soilmap_view_url":66,"soiltest_xml_url":0,"soiltest_view_url":66},{"id":116123,"code":"B4KJ201801000-4372","latitude":"36.80359593","longitude":"137.0644552","source_code":"PORT16001020477","project_name":"\u6e2f\u6e7e\u5c40","survey_name":"\u4f0f\u6728\u5bcc\u5c71\u4f0f\u6728\u5e73\u62108\u5e74\u5cb8\u58c1(-10m)(\u5916\u6e2f3\u53f7)","client_name":"\u56fd\u571f\u4ea4\u901a\u7701\u5317\u9678\u5730\u65b9\u6574\u5099\u5c40\u65b0\u6f5f\u6e2f\u6e7e\u7a7a\u6e2f\u6280\u8853\u8abf\u67fb\u4e8b\u52d9\u6240","boring_xml_url":0,"boring_view_url":0,"soilmap_view_url":66,"soiltest_xml_url":0,"soiltest_view_url":66},{"id":116122,"code":"B4KJ201801000-4371","latitude":"36.80359593","longitude":"137.0647329","source_code":"PORT16001020476","project_name":"\u6e2f\u6e7e\u5c40","survey_name":"\u4f0f\u6728\u5bcc\u5c71\u4f0f\u6728\u5e73\u62108\u5e74\u5cb8\u58c1(-10m)(\u5916\u6e2f3\u53f7)","client_name":"\u56fd\u571f\u4ea4\u901a\u7701\u5317\u9678\u5730\u65b9\u6574\u5099\u5c40\u65b0\u6f5f\u6e2f\u6e7e\u7a7a\u6e2f\u6280\u8853\u8abf\u67fb\u4e8b\u52d9\u6240","boring_xml_url":0,"boring_view_url":0,"soilmap_view_url":66,"soiltest_xml_url":0,"soiltest_view_url":66},{"id":116121,"code":"B4KJ201801000-4370","latitude":"36.80387366","longitude":"137.0641774","source_code":"PORT16001020475","project_name":"\u6e2f\u6e7e\u5c40","survey_name":"\u4f0f\u6728\u5bcc\u5c71\u4f0f\u6728\u5e73\u62108\u5e74\u5cb8\u58c1(-10m)(\u5916\u6e2f3\u53f7)","client_name":"\u56fd\u571f\u4ea4\u901a\u7701\u5317\u9678\u5730\u65b9\u6574\u5099\u5c40\u65b0\u6f5f\u6e2f\u6e7e\u7a7a\u6e2f\u6280\u8853\u8abf\u67fb\u4e8b\u52d9\u6240","boring_xml_url":0,"boring_view_url":0,"soilmap_view_url":66,"soiltest_xml_url":0,"soiltest_view_url":66},{"id":116120,"code":"B4KJ201801000-4369","latitude":"36.80415139","longitude":"137.0636219","source_code":"PORT16001020474","project_name":"\u6e2f\u6e7e\u5c40","survey_name":"\u4f0f\u6728\u5bcc\u5c71\u4f0f\u6728\u5e73\u62108\u5e74\u5cb8\u58c1(-10m)(\u5916\u6e2f3\u53f7)","client_name":"\u56fd\u571f\u4ea4\u901a\u7701\u5317\u9678\u5730\u65b9\u6574\u5099\u5c40\u65b0\u6f5f\u6e2f\u6e7e\u7a7a\u6e2f\u6280\u8853\u8abf\u67fb\u4e8b\u52d9\u6240","boring_xml_url":0,"boring_view_url":0,"soilmap_view_url":66,"soiltest_xml_url":0,"soiltest_view_url":66},{"id":116119,"code":"B4KJ201801000-4368","latitude":"36.80276277","longitude":"137.0675105","source_code":"PORT16001020469","project_name":"\u6e2f\u6e7e\u5c40","survey_name":"\u5e73\u62106\u5e74\u5ea6\u4f0f\u6728\u5730\u533a\u6cca\u5730-10","client_name":"\u56fd\u571f\u4ea4\u901a\u7701\u5317\u9678\u5730\u65b9\u6574\u5099\u5c40\u65b0\u6f5f\u6e2f\u6e7e\u7a7a\u6e2f\u6280\u8853\u8abf\u67fb\u4e8b\u52d9\u6240","boring_xml_url":0,"boring_view_url":0,"soilmap_view_url":66,"soiltest_xml_url":0,"soiltest_view_url":66},{"id":116118,"code":"B4KJ201801000-4367","latitude":"36.80442929","longitude":"137.0694547","source_code":"PORT16001020468","project_name":"\u6e2f\u6e7e\u5c40","survey_name":"\u5e73\u62106\u5e74\u5ea6\u4f0f\u6728\u5730\u533a\u6cca\u5730-10","client_name":"\u56fd\u571f\u4ea4\u901a\u7701\u5317\u9678\u5730\u65b9\u6574\u5099\u5c40\u65b0\u6f5f\u6e2f\u6e7e\u7a7a\u6e2f\u6280\u8853\u8abf\u67fb\u4e8b\u52d9\u6240","boring_xml_url":0,"boring_view_url":0,"soilmap_view_url":66,"soiltest_xml_url":0,"soiltest_view_url":66},{"id":116117,"code":"B4KJ201801000-4366","latitude":"36.80220725","longitude":"137.0663995","source_code":"PORT16001020433","project_name":"\u6e2f\u6e7e\u5c40","survey_name":"\u5e73\u62104\u5e74\u5ea6\u4f0f\u6728\u5bcc\u5c71\u6e2f\u4f0f\u6728\u5730\u533a\u5cb8\u58c1-10M","client_name":"\u56fd\u571f\u4ea4\u901a\u7701\u5317\u9678\u5730\u65b9\u6574\u5099\u5c40\u65b0\u6f5f\u6e2f\u6e7e\u7a7a\u6e2f\u6280\u8853\u8abf\u67fb\u4e8b\u52d9\u6240","boring_xml_url":0,"boring_view_url":0,"soilmap_view_url":66,"soiltest_xml_url":0,"soiltest_view_url":66},{"id":116116,"code":"B4KJ201801000-4365","latitude":"36.80220723","longitude":"137.065844","source_code":"PORT16001020432","project_name":"\u6e2f\u6e7e\u5c40","survey_name":"\u5e73\u62104\u5e74\u5ea6\u4f0f\u6728\u5bcc\u5c71\u6e2f\u4f0f\u6728\u5730\u533a\u5cb8\u58c1-10M","client_name":"\u56fd\u571f\u4ea4\u901a\u7701\u5317\u9678\u5730\u65b9\u6574\u5099\u5c40\u65b0\u6f5f\u6e2f\u6e7e\u7a7a\u6e2f\u6280\u8853\u8abf\u67fb\u4e8b\u52d9\u6240","boring_xml_url":0,"boring_view_url":0,"soilmap_view_url":66,"soiltest_xml_url":0,"soiltest_view_url":66},{"id":116115,"code":"B4KJ201801000-4364","latitude":"36.80248498","longitude":"137.0661217","source_code":"PORT16001020431","project_name":"\u6e2f\u6e7e\u5c40","survey_name":"\u5e73\u62104\u5e74\u5ea6\u4f0f\u6728\u5bcc\u5c71\u6e2f\u4f0f\u6728\u5730\u533a\u5cb8\u58c1-10M","client_name":"\u56fd\u571f\u4ea4\u901a\u7701\u5317\u9678\u5730\u65b9\u6574\u5099\u5c40\u65b0\u6f5f\u6e2f\u6e7e\u7a7a\u6e2f\u6280\u8853\u8abf\u67fb\u4e8b\u52d9\u6240","boring_xml_url":0,"boring_view_url":0,"soilmap_view_url":66,"soiltest_xml_url":0,"soiltest_view_url":66},{"id":116114,"code":"B4KJ201801000-4363","latitude":"36.80248498","longitude":"137.0661217","source_code":"PORT16001020430","project_name":"\u6e2f\u6e7e\u5c40","survey_name":"\u5e73\u62104\u5e74\u5ea6\u4f0f\u6728\u5bcc\u5c71\u6e2f\u4f0f\u6728\u5730\u533a\u5cb8\u58c1-10M","client_name":"\u56fd\u571f\u4ea4\u901a\u7701\u5317\u9678\u5730\u65b9\u6574\u5099\u5c40\u65b0\u6f5f\u6e2f\u6e7e\u7a7a\u6e2f\u6280\u8853\u8abf\u67fb\u4e8b\u52d9\u6240","boring_xml_url":0,"boring_view_url":0,"soilmap_view_url":66,"soiltest_xml_url":0,"soiltest_view_url":66},{"id":116113,"code":"B4KJ201801000-4362","latitude":"36.80276272","longitude":"137.065844","source_code":"PORT16001020429","project_name":"\u6e2f\u6e7e\u5c40","survey_name":"\u5e73\u62104\u5e74\u5ea6\u4f0f\u6728\u5bcc\u5c71\u6e2f\u4f0f\u6728\u5730\u533a\u5cb8\u58c1-10M","client_name":"\u56fd\u571f\u4ea4\u901a\u7701\u5317\u9678\u5730\u65b9\u6574\u5099\u5c40\u65b0\u6f5f\u6e2f\u6e7e\u7a7a\u6e2f\u6280\u8853\u8abf\u67fb\u4e8b\u52d9\u6240","boring_xml_url":0,"boring_view_url":0,"soilmap_view_url":66,"soiltest_xml_url":0,"soiltest_view_url":66},{"id":116112,"code":"B4KJ201801000-4361","latitude":"36.80276271","longitude":"137.0652885","source_code":"PORT16001020428","project_name":"\u6e2f\u6e7e\u5c40","survey_name":"\u5e73\u62104\u5e74\u5ea6FISIKI\u5bcc\u5c71\u6e2f\u4f0f\u6728\u5730\u533a\u5cb8\u58c1-10M","client_name":"\u56fd\u571f\u4ea4\u901a\u7701\u5317\u9678\u5730\u65b9\u6574\u5099\u5c40\u65b0\u6f5f\u6e2f\u6e7e\u7a7a\u6e2f\u6280\u8853\u8abf\u67fb\u4e8b\u52d9\u6240","boring_xml_url":0,"boring_view_url":0,"soilmap_view_url":66,"soiltest_xml_url":0,"soiltest_view_url":66},{"id":116111,"code":"B4KJ201801000-4360","latitude":"36.80304046","longitude":"137.0652885","source_code":"PORT16001020427","project_name":"\u6e2f\u6e7e\u5c40","survey_name":"\u5e73\u62104\u5e74\u5ea6\u4f0f\u6728\u5bcc\u5c71\u6e2f\u4f0f\u6728\u5730\u533a\u5cb8\u58c1-10M","client_name":"\u56fd\u571f\u4ea4\u901a\u7701\u5317\u9678\u5730\u65b9\u6574\u5099\u5c40\u65b0\u6f5f\u6e2f\u6e7e\u7a7a\u6e2f\u6280\u8853\u8abf\u67fb\u4e8b\u52d9\u6240","boring_xml_url":0,"boring_view_url":0,"soilmap_view_url":66,"soiltest_xml_url":0,"soiltest_view_url":66},{"id":116110,"code":"B4KJ201801000-4359","latitude":"36.80304046","longitude":"137.0655662","source_code":"PORT16001020426","project_name":"\u6e2f\u6e7e\u5c40","survey_name":"\u5e73\u62104\u5e74\u5ea6\u4f0f\u6728\u5bcc\u5c71\u6e2f\u4f0f\u6728\u5730\u533a\u5cb8\u58c1-10M","client_name":"\u56fd\u571f\u4ea4\u901a\u7701\u5317\u9678\u5730\u65b9\u6574\u5099\u5c40\u65b0\u6f5f\u6e2f\u6e7e\u7a7a\u6e2f\u6280\u8853\u8abf\u67fb\u4e8b\u52d9\u6240","boring_xml_url":0,"boring_view_url":0,"soilmap_view_url":66,"soiltest_xml_url":0,"soiltest_view_url":66},{"id":116109,"code":"B4KJ201801000-4358","latitude":"36.80081855","longitude":"137.0675106","source_code":"PORT16001020420","project_name":"\u6e2f\u6e7e\u5c40","survey_name":"\u5e73\u62103\u5e74\u5ea6\u4f0f\u6728\u5bcc\u5c71\u6e2f(\u4f0f\u6728\u5730\u533a)\u5cb8\u58c1(-7.5M)","client_name":"\u56fd\u571f\u4ea4\u901a\u7701\u5317\u9678\u5730\u65b9\u6574\u5099\u5c40\u65b0\u6f5f\u6e2f\u6e7e\u7a7a\u6e2f\u6280\u8853\u8abf\u67fb\u4e8b\u52d9\u6240","boring_xml_url":0,"boring_view_url":0,"soilmap_view_url":66,"soiltest_xml_url":0,"soiltest_view_url":66},{"id":116108,"code":"B4KJ201801000-4357","latitude":"36.8010963","longitude":"137.0677883","source_code":"PORT16001020419","project_name":"\u6e2f\u6e7e\u5c40","survey_name":"\u5e73\u62103\u5e74\u5ea6\u4f0f\u6728\u5bcc\u5c71\u6e2f(\u4f0f\u6728\u5730\u533a)\u5cb8\u58c1(-7.5M)","client_name":"\u56fd\u571f\u4ea4\u901a\u7701\u5317\u9678\u5730\u65b9\u6574\u5099\u5c40\u65b0\u6f5f\u6e2f\u6e7e\u7a7a\u6e2f\u6280\u8853\u8abf\u67fb\u4e8b\u52d9\u6240","boring_xml_url":0,"boring_view_url":0,"soilmap_view_url":66,"soiltest_xml_url":0,"soiltest_view_url":66},{"id":116107,"code":"B4KJ201801000-4356","latitude":"36.8010963","longitude":"137.0677883","source_code":"PORT16001020418","project_name":"\u6e2f\u6e7e\u5c40","survey_name":"\u5e73\u62103\u5e74\u5ea6\u4f0f\u6728\u5bcc\u5c71\u6e2f(\u4f0f\u6728\u5730\u533a)\u5cb8\u58c1(-7.5M)","client_name":"\u56fd\u571f\u4ea4\u901a\u7701\u5317\u9678\u5730\u65b9\u6574\u5099\u5c40\u65b0\u6f5f\u6e2f\u6e7e\u7a7a\u6e2f\u6280\u8853\u8abf\u67fb\u4e8b\u52d9\u6240","boring_xml_url":0,"boring_view_url":0,"soilmap_view_url":66,"soiltest_xml_url":0,"soiltest_view_url":66},{"id":116106,"code":"B4KJ201801000-4355","latitude":"36.80137403","longitude":"137.0672328","source_code":"PORT16001020417","project_name":"\u6e2f\u6e7e\u5c40","survey_name":"\u5e73\u62103\u5e74\u5ea6\u4f0f\u6728\u5bcc\u5c71\u6e2f(\u4f0f\u6728\u5730\u533a)\u5cb8\u58c1(-7.5M)","client_name":"\u56fd\u571f\u4ea4\u901a\u7701\u5317\u9678\u5730\u65b9\u6574\u5099\u5c40\u65b0\u6f5f\u6e2f\u6e7e\u7a7a\u6e2f\u6280\u8853\u8abf\u67fb\u4e8b\u52d9\u6240","boring_xml_url":0,"boring_view_url":0,"soilmap_view_url":66,"soiltest_xml_url":0,"soiltest_view_url":66},{"id":116105,"code":"B4KJ201801000-4354","latitude":"36.80165176","longitude":"137.0666773","source_code":"PORT16001020416","project_name":"\u6e2f\u6e7e\u5c40","survey_name":"\u5e73\u62103\u5e74\u5ea6\u4f0f\u6728\u5bcc\u5c71\u6e2f(\u4f0f\u6728\u5730\u533a)\u5cb8\u58c1(-7.5M)","client_name":"\u56fd\u571f\u4ea4\u901a\u7701\u5317\u9678\u5730\u65b9\u6574\u5099\u5c40\u65b0\u6f5f\u6e2f\u6e7e\u7a7a\u6e2f\u6280\u8853\u8abf\u67fb\u4e8b\u52d9\u6240","boring_xml_url":0,"boring_view_url":0,"soilmap_view_url":66,"soiltest_xml_url":0,"soiltest_view_url":66},{"id":116104,"code":"B4KJ201801000-4353","latitude":"36.80165177","longitude":"137.066955","source_code":"PORT16001020415","project_name":"\u6e2f\u6e7e\u5c40","survey_name":"\u5e73\u62103\u5e74\u5ea6FUSHI\u5bcc\u5c71\u6e2f(\u4f0f\u6728\u5730\u533a)\u5cb8\u58c1(-7.5M)","client_name":"\u56fd\u571f\u4ea4\u901a\u7701\u5317\u9678\u5730\u65b9\u6574\u5099\u5c40\u65b0\u6f5f\u6e2f\u6e7e\u7a7a\u6e2f\u6280\u8853\u8abf\u67fb\u4e8b\u52d9\u6240","boring_xml_url":0,"boring_view_url":0,"soilmap_view_url":66,"soiltest_xml_url":0,"soiltest_view_url":66},{"id":116103,"code":"B4KJ201801000-4352","latitude":"36.80192952","longitude":"137.0672328","source_code":"PORT16001020414","project_name":"\u6e2f\u6e7e\u5c40","survey_name":"\u5e73\u62103\u5e74\u5ea6\u4f0f\u6728\u5bcc\u5c71\u6e2f(\u4f0f\u6728\u5730\u533a)\u5cb8\u58c1(-7.5M)","client_name":"\u56fd\u571f\u4ea4\u901a\u7701\u5317\u9678\u5730\u65b9\u6574\u5099\u5c40\u65b0\u6f5f\u6e2f\u6e7e\u7a7a\u6e2f\u6280\u8853\u8abf\u67fb\u4e8b\u52d9\u6240","boring_xml_url":0,"boring_view_url":0,"soilmap_view_url":66,"soiltest_xml_url":0,"soiltest_view_url":66},{"id":116102,"code":"B4KJ201801000-4351","latitude":"36.80868729","longitude":"137.0674228","source_code":"PORT16001020347","project_name":"\u6e2f\u6e7e\u5c40","survey_name":"\u4f0f\u6728\u5bcc\u5c71\u6e2f\u9632\u6ce2\u5824.KITA","client_name":"\u56fd\u571f\u4ea4\u901a\u7701\u5317\u9678\u5730\u65b9\u6574\u5099\u5c40\u65b0\u6f5f\u6e2f\u6e7e\u7a7a\u6e2f\u6280\u8853\u8abf\u67fb\u4e8b\u52d9\u6240","boring_xml_url":0,"boring_view_url":0,"soilmap_view_url":66,"soiltest_xml_url":0,"soiltest_view_url":66},{"id":116101,"code":"B4KJ201801000-4350","latitude":"36.80803963","longitude":"137.0682022","source_code":"PORT16001020346","project_name":"\u6e2f\u6e7e\u5c40","survey_name":"\u4f0f\u6728\u5bcc\u5c71\u6e2f\u9632\u6ce2\u5824.KITA","client_name":"\u56fd\u571f\u4ea4\u901a\u7701\u5317\u9678\u5730\u65b9\u6574\u5099\u5c40\u65b0\u6f5f\u6e2f\u6e7e\u7a7a\u6e2f\u6280\u8853\u8abf\u67fb\u4e8b\u52d9\u6240","boring_xml_url":0,"boring_view_url":0,"soilmap_view_url":66,"soiltest_xml_url":0,"soiltest_view_url":66},{"id":116100,"code":"B4KJ201801000-4349","latitude":"36.80739204","longitude":"137.0689815","source_code":"PORT16001020345","project_name":"\u6e2f\u6e7e\u5c40","survey_name":"\u4f0f\u6728\u5bcc\u5c71\u6e2f\u9632\u6ce2\u5824.KITA","client_name":"\u56fd\u571f\u4ea4\u901a\u7701\u5317\u9678\u5730\u65b9\u6574\u5099\u5c40\u65b0\u6f5f\u6e2f\u6e7e\u7a7a\u6e2f\u6280\u8853\u8abf\u67fb\u4e8b\u52d9\u6240","boring_xml_url":0,"boring_view_url":0,"soilmap_view_url":66,"soiltest_xml_url":0,"soiltest_view_url":66},{"id":116099,"code":"B4KJ201801000-4348","latitude":"36.80674445","longitude":"137.069761","source_code":"PORT16001020344","project_name":"\u6e2f\u6e7e\u5c40","survey_name":"\u4f0f\u6728\u5bcc\u5c71\u6e2f\u9632\u6ce2\u5824.KITA","client_name":"\u56fd\u571f\u4ea4\u901a\u7701\u5317\u9678\u5730\u65b9\u6574\u5099\u5c40\u65b0\u6f5f\u6e2f\u6e7e\u7a7a\u6e2f\u6280\u8853\u8abf\u67fb\u4e8b\u52d9\u6240","boring_xml_url":0,"boring_view_url":0,"soilmap_view_url":66,"soiltest_xml_url":0,"soiltest_view_url":66},{"id":116098,"code":"B4KJ201801000-4347","latitude":"36.80609676","longitude":"137.0705401","source_code":"PORT16001020343","project_name":"\u6e2f\u6e7e\u5c40","survey_name":"\u4f0f\u6728\u5bcc\u5c71\u6e2f\u9632\u6ce2\u5824.KITA","client_name":"\u56fd\u571f\u4ea4\u901a\u7701\u5317\u9678\u5730\u65b9\u6574\u5099\u5c40\u65b0\u6f5f\u6e2f\u6e7e\u7a7a\u6e2f\u6280\u8853\u8abf\u67fb\u4e8b\u52d9\u6240","boring_xml_url":0,"boring_view_url":0,"soilmap_view_url":66,"soiltest_xml_url":0,"soiltest_view_url":66},{"id":116097,"code":"B4KJ201801000-4346","latitude":"36.78943082","longitude":"137.0614005","source_code":"PORT16001020323","project_name":"\u6e2f\u6e7e\u5c40","survey_name":"\u4f0f\u6728\u5bcc\u5c71\u6e2f(\u4f0f\u6728)\u5cb8\u58c1(EKIJYOKATENK","client_name":"\u56fd\u571f\u4ea4\u901a\u7701\u5317\u9678\u5730\u65b9\u6574\u5099\u5c40\u65b0\u6f5f\u6e2f\u6e7e\u7a7a\u6e2f\u6280\u8853\u8abf\u67fb\u4e8b\u52d9\u6240","boring_xml_url":0,"boring_view_url":0,"soilmap_view_url":66,"soiltest_xml_url":0,"soiltest_view_url":66},{"id":116096,"code":"B4KJ201801000-4345","latitude":"36.78915307","longitude":"137.0614005","source_code":"PORT16001020301","project_name":"\u6e2f\u6e7e\u5c40","survey_name":"\u4f0f\u6728-\u5bcc\u5c71\u6e2f\u4f0f\u6728-\u5730\u533a\u5cb85-\u53f7\u5cb8\u58c1","client_name":"\u56fd\u571f\u4ea4\u901a\u7701\u5317\u9678\u5730\u65b9\u6574\u5099\u5c40\u65b0\u6f5f\u6e2f\u6e7e\u7a7a\u6e2f\u6280\u8853\u8abf\u67fb\u4e8b\u52d9\u6240","boring_xml_url":0,"boring_view_url":0,"soilmap_view_url":66,"soiltest_xml_url":0,"soiltest_view_url":66}]}}