{"header":{"xyz":{"source":[],"mosaic":false},"page":6824,"raw":{"soiltest_result":"0","bbox":"57.598333,109.544722,1.933333,163.806111","page":"6824"},"conditions":{"soiltest_result":0,"north":57.598333,"west":109.544722,"south":1.933333,"east":163.806111},"success":true,"message":""},"data":{"meta":{"total":212844,"page":6824,"pages":7095,"count":30},"values":[{"id":115855,"code":"B4KJ201801000-4104","latitude":"37.97851782","longitude":"139.2325479","source_code":"PORT15001020183","project_name":"\u6e2f\u6e7e\u5c40","survey_name":"\u65b0\u6f5f\u6771\u6e2f\u6771\u6c34\u8def","client_name":"\u56fd\u571f\u4ea4\u901a\u7701\u5317\u9678\u5730\u65b9\u6574\u5099\u5c40\u65b0\u6f5f\u6e2f\u6e7e\u7a7a\u6e2f\u6280\u8853\u8abf\u67fb\u4e8b\u52d9\u6240","boring_xml_url":0,"boring_view_url":0,"soilmap_view_url":66,"soiltest_xml_url":0,"soiltest_view_url":66},{"id":115854,"code":"B4KJ201801000-4103","latitude":"37.97990654","longitude":"139.2325478","source_code":"PORT15001020182","project_name":"\u6e2f\u6e7e\u5c40","survey_name":"\u65b0\u6f5f\u6771\u6e2f\u6771\u6c34\u8def","client_name":"\u56fd\u571f\u4ea4\u901a\u7701\u5317\u9678\u5730\u65b9\u6574\u5099\u5c40\u65b0\u6f5f\u6e2f\u6e7e\u7a7a\u6e2f\u6280\u8853\u8abf\u67fb\u4e8b\u52d9\u6240","boring_xml_url":0,"boring_view_url":0,"soilmap_view_url":66,"soiltest_xml_url":0,"soiltest_view_url":66},{"id":115853,"code":"B4KJ201801000-4102","latitude":"37.98018425","longitude":"139.231159","source_code":"PORT15001020181","project_name":"\u6e2f\u6e7e\u5c40","survey_name":"\u65b0\u6f5f\u6771\u6e2f\u6771\u6c34\u8def","client_name":"\u56fd\u571f\u4ea4\u901a\u7701\u5317\u9678\u5730\u65b9\u6574\u5099\u5c40\u65b0\u6f5f\u6e2f\u6e7e\u7a7a\u6e2f\u6280\u8853\u8abf\u67fb\u4e8b\u52d9\u6240","boring_xml_url":0,"boring_view_url":0,"soilmap_view_url":66,"soiltest_xml_url":0,"soiltest_view_url":66},{"id":115852,"code":"B4KJ201801000-4101","latitude":"38.01823538","longitude":"139.2306018","source_code":"PORT15001020140","project_name":"\u6e2f\u6e7e\u5c40","survey_name":"\u65b0\u6f5f\u6e2f\u6771\u6e2f\u897f\u9632\u6ce2\u5824","client_name":"\u56fd\u571f\u4ea4\u901a\u7701\u5317\u9678\u5730\u65b9\u6574\u5099\u5c40\u65b0\u6f5f\u6e2f\u6e7e\u7a7a\u6e2f\u6280\u8853\u8abf\u67fb\u4e8b\u52d9\u6240","boring_xml_url":0,"boring_view_url":0,"soilmap_view_url":66,"soiltest_xml_url":0,"soiltest_view_url":66},{"id":115851,"code":"B4KJ201801000-4100","latitude":"38.01767988","longitude":"139.2303241","source_code":"PORT15001020139","project_name":"\u6e2f\u6e7e\u5c40","survey_name":"\u65b0\u6f5f\u6e2f\u6771\u6e2f\u897f\u9632\u6ce2\u5824","client_name":"\u56fd\u571f\u4ea4\u901a\u7701\u5317\u9678\u5730\u65b9\u6574\u5099\u5c40\u65b0\u6f5f\u6e2f\u6e7e\u7a7a\u6e2f\u6280\u8853\u8abf\u67fb\u4e8b\u52d9\u6240","boring_xml_url":0,"boring_view_url":0,"soilmap_view_url":66,"soiltest_xml_url":0,"soiltest_view_url":66},{"id":115850,"code":"B4KJ201801000-4099","latitude":"38.01712439","longitude":"139.2306019","source_code":"PORT15001020138","project_name":"\u6e2f\u6e7e\u5c40","survey_name":"\u65b0\u6f5f\u6e2f\u6771\u6e2f\u897f\u9632\u6ce2\u5824","client_name":"\u56fd\u571f\u4ea4\u901a\u7701\u5317\u9678\u5730\u65b9\u6574\u5099\u5c40\u65b0\u6f5f\u6e2f\u6e7e\u7a7a\u6e2f\u6280\u8853\u8abf\u67fb\u4e8b\u52d9\u6240","boring_xml_url":0,"boring_view_url":0,"soilmap_view_url":66,"soiltest_xml_url":0,"soiltest_view_url":66},{"id":115849,"code":"B4KJ201801000-4098","latitude":"38.01656889","longitude":"139.2303241","source_code":"PORT15001020137","project_name":"\u6e2f\u6e7e\u5c40","survey_name":"\u65b0\u6f5f\u6e2f\u6771\u6e2f\u897f\u9632\u6ce2\u5824","client_name":"\u56fd\u571f\u4ea4\u901a\u7701\u5317\u9678\u5730\u65b9\u6574\u5099\u5c40\u65b0\u6f5f\u6e2f\u6e7e\u7a7a\u6e2f\u6280\u8853\u8abf\u67fb\u4e8b\u52d9\u6240","boring_xml_url":0,"boring_view_url":0,"soilmap_view_url":66,"soiltest_xml_url":0,"soiltest_view_url":66},{"id":115848,"code":"B4KJ201801000-4097","latitude":"38.01656886","longitude":"139.2289354","source_code":"PORT15001020129","project_name":"\u6e2f\u6e7e\u5c40","survey_name":"\u65b0\u6f5f\u6e2f\u6771\u6e2f\u9632\u6ce2\u5824","client_name":"\u56fd\u571f\u4ea4\u901a\u7701\u5317\u9678\u5730\u65b9\u6574\u5099\u5c40\u65b0\u6f5f\u6e2f\u6e7e\u7a7a\u6e2f\u6280\u8853\u8abf\u67fb\u4e8b\u52d9\u6240","boring_xml_url":0,"boring_view_url":0,"soilmap_view_url":66,"soiltest_xml_url":0,"soiltest_view_url":66},{"id":115847,"code":"B4KJ201801000-4096","latitude":"38.01462462","longitude":"139.2283799","source_code":"PORT15001020128","project_name":"\u6e2f\u6e7e\u5c40","survey_name":"\u65b0\u6f5f\u6e2f\u6771\u6e2f\u9632\u6ce2\u5824","client_name":"\u56fd\u571f\u4ea4\u901a\u7701\u5317\u9678\u5730\u65b9\u6574\u5099\u5c40\u65b0\u6f5f\u6e2f\u6e7e\u7a7a\u6e2f\u6280\u8853\u8abf\u67fb\u4e8b\u52d9\u6240","boring_xml_url":0,"boring_view_url":0,"soilmap_view_url":66,"soiltest_xml_url":0,"soiltest_view_url":66},{"id":115846,"code":"B4KJ201801000-4095","latitude":"38.01795761","longitude":"139.2300463","source_code":"PORT15001020101","project_name":"\u6e2f\u6e7e\u5c40","survey_name":"\u65b0\u6f5f\u6e2f\u897f\u6e2f\u6771\u6e2f\u9632\u6ce2\u5824","client_name":"\u56fd\u571f\u4ea4\u901a\u7701\u5317\u9678\u5730\u65b9\u6574\u5099\u5c40\u65b0\u6f5f\u6e2f\u6e7e\u7a7a\u6e2f\u6280\u8853\u8abf\u67fb\u4e8b\u52d9\u6240","boring_xml_url":0,"boring_view_url":0,"soilmap_view_url":66,"soiltest_xml_url":0,"soiltest_view_url":66},{"id":115845,"code":"B4KJ201801000-4094","latitude":"38.01656888","longitude":"139.2297686","source_code":"PORT15001020100","project_name":"\u6e2f\u6e7e\u5c40","survey_name":"\u65b0\u6f5f\u6e2f\u897f\u6e2f\u6771\u6e2f\u9632\u6ce2\u5824","client_name":"\u56fd\u571f\u4ea4\u901a\u7701\u5317\u9678\u5730\u65b9\u6574\u5099\u5c40\u65b0\u6f5f\u6e2f\u6e7e\u7a7a\u6e2f\u6280\u8853\u8abf\u67fb\u4e8b\u52d9\u6240","boring_xml_url":0,"boring_view_url":0,"soilmap_view_url":66,"soiltest_xml_url":0,"soiltest_view_url":66},{"id":115844,"code":"B4KJ201801000-4093","latitude":"37.99795976","longitude":"139.2239366","source_code":"PORT15001020094","project_name":"\u6e2f\u6e7e\u5c40","survey_name":"\u65b0\u6f5f\u6e2f\u6771\u6e2f\u822a\u8def\u822a\u8def\u6cca\u5730","client_name":"\u56fd\u571f\u4ea4\u901a\u7701\u5317\u9678\u5730\u65b9\u6574\u5099\u5c40\u65b0\u6f5f\u6e2f\u6e7e\u7a7a\u6e2f\u6280\u8853\u8abf\u67fb\u4e8b\u52d9\u6240","boring_xml_url":0,"boring_view_url":0,"soilmap_view_url":66,"soiltest_xml_url":0,"soiltest_view_url":66},{"id":115843,"code":"B4KJ201801000-4092","latitude":"37.99407135","longitude":"139.2247701","source_code":"PORT15001020093","project_name":"\u6e2f\u6e7e\u5c40","survey_name":"\u65b0\u6f5f\u6e2f\u6771\u6e2f\u822a\u8def\u822a\u8def\u6cca\u5730","client_name":"\u56fd\u571f\u4ea4\u901a\u7701\u5317\u9678\u5730\u65b9\u6574\u5099\u5c40\u65b0\u6f5f\u6e2f\u6e7e\u7a7a\u6e2f\u6280\u8853\u8abf\u67fb\u4e8b\u52d9\u6240","boring_xml_url":0,"boring_view_url":0,"soilmap_view_url":66,"soiltest_xml_url":0,"soiltest_view_url":66},{"id":115842,"code":"B4KJ201801000-4091","latitude":"37.99518238","longitude":"139.2264365","source_code":"PORT15001020092","project_name":"\u6e2f\u6e7e\u5c40","survey_name":"\u65b0\u6f5f\u6e2f\u6771\u6e2f\u822a\u8def\u822a\u8def\u6cca\u5730","client_name":"\u56fd\u571f\u4ea4\u901a\u7701\u5317\u9678\u5730\u65b9\u6574\u5099\u5c40\u65b0\u6f5f\u6e2f\u6e7e\u7a7a\u6e2f\u6280\u8853\u8abf\u67fb\u4e8b\u52d9\u6240","boring_xml_url":0,"boring_view_url":0,"soilmap_view_url":66,"soiltest_xml_url":0,"soiltest_view_url":66},{"id":115841,"code":"B4KJ201801000-4090","latitude":"37.99879301","longitude":"139.2242144","source_code":"PORT15001020084","project_name":"\u6e2f\u6e7e\u5c40","survey_name":"\u65b0\u6f5f\u6771\u6e2f-13m\u822a\u8def\u822a\u8def\u6cca\u5730SH","client_name":"\u56fd\u571f\u4ea4\u901a\u7701\u5317\u9678\u5730\u65b9\u6574\u5099\u5c40\u65b0\u6f5f\u6e2f\u6e7e\u7a7a\u6e2f\u6280\u8853\u8abf\u67fb\u4e8b\u52d9\u6240","boring_xml_url":0,"boring_view_url":0,"soilmap_view_url":66,"soiltest_xml_url":0,"soiltest_view_url":66},{"id":115840,"code":"B4KJ201801000-4089","latitude":"37.99434907","longitude":"139.2239368","source_code":"PORT15001020083","project_name":"\u6e2f\u6e7e\u5c40","survey_name":"\u65b0\u6f5f\u6771\u6e2f-13m\u822a\u8def\u822a\u8def\u6cca\u5730SH","client_name":"\u56fd\u571f\u4ea4\u901a\u7701\u5317\u9678\u5730\u65b9\u6574\u5099\u5c40\u65b0\u6f5f\u6e2f\u6e7e\u7a7a\u6e2f\u6280\u8853\u8abf\u67fb\u4e8b\u52d9\u6240","boring_xml_url":0,"boring_view_url":0,"soilmap_view_url":66,"soiltest_xml_url":0,"soiltest_view_url":66},{"id":115839,"code":"B4KJ201801000-4088","latitude":"37.9951824","longitude":"139.2272698","source_code":"PORT15001020082","project_name":"\u6e2f\u6e7e\u5c40","survey_name":"\u65b0\u6f5f\u6771\u6e2f-13m\u822a\u8def\u822a\u8def\u6cca\u5730SH","client_name":"\u56fd\u571f\u4ea4\u901a\u7701\u5317\u9678\u5730\u65b9\u6574\u5099\u5c40\u65b0\u6f5f\u6e2f\u6e7e\u7a7a\u6e2f\u6280\u8853\u8abf\u67fb\u4e8b\u52d9\u6240","boring_xml_url":0,"boring_view_url":0,"soilmap_view_url":66,"soiltest_xml_url":0,"soiltest_view_url":66},{"id":115838,"code":"B4KJ201801000-4087","latitude":"37.97101876","longitude":"139.235048","source_code":"PORT15001020081","project_name":"\u6e2f\u6e7e\u5c40","survey_name":"\u65b0\u6f5f\u6771\u6e2f-10m\u5cb8\u58c1","client_name":"\u56fd\u571f\u4ea4\u901a\u7701\u5317\u9678\u5730\u65b9\u6574\u5099\u5c40\u65b0\u6f5f\u6e2f\u6e7e\u7a7a\u6e2f\u6280\u8853\u8abf\u67fb\u4e8b\u52d9\u6240","boring_xml_url":0,"boring_view_url":0,"soilmap_view_url":66,"soiltest_xml_url":0,"soiltest_view_url":66},{"id":115837,"code":"B4KJ201801000-4086","latitude":"37.96796344","longitude":"139.2308818","source_code":"PORT15001020080","project_name":"\u6e2f\u6e7e\u5c40","survey_name":"\u65b0\u6f5f\u6771\u6e2f-10m\u5cb8\u58c1","client_name":"\u56fd\u571f\u4ea4\u901a\u7701\u5317\u9678\u5730\u65b9\u6574\u5099\u5c40\u65b0\u6f5f\u6e2f\u6e7e\u7a7a\u6e2f\u6280\u8853\u8abf\u67fb\u4e8b\u52d9\u6240","boring_xml_url":0,"boring_view_url":0,"soilmap_view_url":66,"soiltest_xml_url":0,"soiltest_view_url":66},{"id":115836,"code":"B4KJ201801000-4085","latitude":"37.96657472","longitude":"139.2311596","source_code":"PORT15001020079","project_name":"\u6e2f\u6e7e\u5c40","survey_name":"\u65b0\u6f5f\u6771\u6e2f-10m\u5cb8\u58c1","client_name":"\u56fd\u571f\u4ea4\u901a\u7701\u5317\u9678\u5730\u65b9\u6574\u5099\u5c40\u65b0\u6f5f\u6e2f\u6e7e\u7a7a\u6e2f\u6280\u8853\u8abf\u67fb\u4e8b\u52d9\u6240","boring_xml_url":0,"boring_view_url":0,"soilmap_view_url":66,"soiltest_xml_url":0,"soiltest_view_url":66},{"id":115835,"code":"B4KJ201801000-4084","latitude":"37.96574149","longitude":"139.2314374","source_code":"PORT15001020078","project_name":"\u6e2f\u6e7e\u5c40","survey_name":"\u65b0\u6f5f\u6771\u6e2f-10m\u5cb8\u58c1","client_name":"\u56fd\u571f\u4ea4\u901a\u7701\u5317\u9678\u5730\u65b9\u6574\u5099\u5c40\u65b0\u6f5f\u6e2f\u6e7e\u7a7a\u6e2f\u6280\u8853\u8abf\u67fb\u4e8b\u52d9\u6240","boring_xml_url":0,"boring_view_url":0,"soilmap_view_url":66,"soiltest_xml_url":0,"soiltest_view_url":66},{"id":115834,"code":"B4KJ201801000-4083","latitude":"37.96685247","longitude":"139.2314374","source_code":"PORT15001020077","project_name":"\u6e2f\u6e7e\u5c40","survey_name":"\u65b0\u6f5f\u6771\u6e2f-10m\u5cb8\u58c1","client_name":"\u56fd\u571f\u4ea4\u901a\u7701\u5317\u9678\u5730\u65b9\u6574\u5099\u5c40\u65b0\u6f5f\u6e2f\u6e7e\u7a7a\u6e2f\u6280\u8853\u8abf\u67fb\u4e8b\u52d9\u6240","boring_xml_url":0,"boring_view_url":0,"soilmap_view_url":66,"soiltest_xml_url":0,"soiltest_view_url":66},{"id":115833,"code":"B4KJ201801000-4082","latitude":"37.96601924","longitude":"139.2317152","source_code":"PORT15001020076","project_name":"\u6e2f\u6e7e\u5c40","survey_name":"\u65b0\u6f5f\u6771\u6e2f-10m\u5cb8\u58c1","client_name":"\u56fd\u571f\u4ea4\u901a\u7701\u5317\u9678\u5730\u65b9\u6574\u5099\u5c40\u65b0\u6f5f\u6e2f\u6e7e\u7a7a\u6e2f\u6280\u8853\u8abf\u67fb\u4e8b\u52d9\u6240","boring_xml_url":0,"boring_view_url":0,"soilmap_view_url":66,"soiltest_xml_url":0,"soiltest_view_url":66},{"id":115832,"code":"B4KJ201801000-4081","latitude":"37.96546376","longitude":"139.2319929","source_code":"PORT15001020075","project_name":"\u6e2f\u6e7e\u5c40","survey_name":"\u65b0\u6f5f\u6771\u6e2f-10m\u5cb8\u58c1","client_name":"\u56fd\u571f\u4ea4\u901a\u7701\u5317\u9678\u5730\u65b9\u6574\u5099\u5c40\u65b0\u6f5f\u6e2f\u6e7e\u7a7a\u6e2f\u6280\u8853\u8abf\u67fb\u4e8b\u52d9\u6240","boring_xml_url":0,"boring_view_url":0,"soilmap_view_url":66,"soiltest_xml_url":0,"soiltest_view_url":66},{"id":115831,"code":"B4KJ201801000-4080","latitude":"37.97129652","longitude":"139.2356035","source_code":"PORT15001020072","project_name":"\u6e2f\u6e7e\u5c40","survey_name":"\u65b0\u6f5f\u6771\u6e2f(2)-10m\u5cb8\u58c1","client_name":"\u56fd\u571f\u4ea4\u901a\u7701\u5317\u9678\u5730\u65b9\u6574\u5099\u5c40\u65b0\u6f5f\u6e2f\u6e7e\u7a7a\u6e2f\u6280\u8853\u8abf\u67fb\u4e8b\u52d9\u6240","boring_xml_url":0,"boring_view_url":0,"soilmap_view_url":66,"soiltest_xml_url":0,"soiltest_view_url":66},{"id":115830,"code":"B4KJ201801000-4079","latitude":"37.97129649","longitude":"139.2344925","source_code":"PORT15001020071","project_name":"\u6e2f\u6e7e\u5c40","survey_name":"\u65b0\u6f5f\u6771\u6e2f(2)-10m\u5cb8\u58c1","client_name":"\u56fd\u571f\u4ea4\u901a\u7701\u5317\u9678\u5730\u65b9\u6574\u5099\u5c40\u65b0\u6f5f\u6e2f\u6e7e\u7a7a\u6e2f\u6280\u8853\u8abf\u67fb\u4e8b\u52d9\u6240","boring_xml_url":0,"boring_view_url":0,"soilmap_view_url":66,"soiltest_xml_url":0,"soiltest_view_url":66},{"id":115829,"code":"B4KJ201801000-4078","latitude":"37.97185199","longitude":"139.2347702","source_code":"PORT15001020070","project_name":"\u6e2f\u6e7e\u5c40","survey_name":"\u65b0\u6f5f\u6771\u6e2f(2)-10m\u5cb8\u58c1","client_name":"\u56fd\u571f\u4ea4\u901a\u7701\u5317\u9678\u5730\u65b9\u6574\u5099\u5c40\u65b0\u6f5f\u6e2f\u6e7e\u7a7a\u6e2f\u6280\u8853\u8abf\u67fb\u4e8b\u52d9\u6240","boring_xml_url":0,"boring_view_url":0,"soilmap_view_url":66,"soiltest_xml_url":0,"soiltest_view_url":66},{"id":115828,"code":"B4KJ201801000-4077","latitude":"37.97185196","longitude":"139.2339369","source_code":"PORT15001020069","project_name":"\u6e2f\u6e7e\u5c40","survey_name":"\u65b0\u6f5f\u6771\u6e2f(2)-10m\u5cb8\u58c1","client_name":"\u56fd\u571f\u4ea4\u901a\u7701\u5317\u9678\u5730\u65b9\u6574\u5099\u5c40\u65b0\u6f5f\u6e2f\u6e7e\u7a7a\u6e2f\u6280\u8853\u8abf\u67fb\u4e8b\u52d9\u6240","boring_xml_url":0,"boring_view_url":0,"soilmap_view_url":66,"soiltest_xml_url":0,"soiltest_view_url":66},{"id":115827,"code":"B4KJ201801000-4076","latitude":"37.97129658","longitude":"139.2378255","source_code":"PORT15001020068","project_name":"\u6e2f\u6e7e\u5c40","survey_name":"\u65b0\u6f5f\u6771\u6e2f-10m\u5cb8\u58c1","client_name":"\u56fd\u571f\u4ea4\u901a\u7701\u5317\u9678\u5730\u65b9\u6574\u5099\u5c40\u65b0\u6f5f\u6e2f\u6e7e\u7a7a\u6e2f\u6280\u8853\u8abf\u67fb\u4e8b\u52d9\u6240","boring_xml_url":0,"boring_view_url":0,"soilmap_view_url":66,"soiltest_xml_url":0,"soiltest_view_url":66},{"id":115826,"code":"B4KJ201801000-4075","latitude":"37.97129656","longitude":"139.2369922","source_code":"PORT15001020067","project_name":"\u6e2f\u6e7e\u5c40","survey_name":"\u65b0\u6f5f\u6771\u6e2f-10m\u5cb8\u58c1","client_name":"\u56fd\u571f\u4ea4\u901a\u7701\u5317\u9678\u5730\u65b9\u6574\u5099\u5c40\u65b0\u6f5f\u6e2f\u6e7e\u7a7a\u6e2f\u6280\u8853\u8abf\u67fb\u4e8b\u52d9\u6240","boring_xml_url":0,"boring_view_url":0,"soilmap_view_url":66,"soiltest_xml_url":0,"soiltest_view_url":66}]}}