{"header":{"xyz":{"source":[],"mosaic":false},"page":6825,"raw":{"soiltest_result":"0","bbox":"57.598333,109.544722,1.933333,163.806111","page":"6825"},"conditions":{"soiltest_result":0,"north":57.598333,"west":109.544722,"south":1.933333,"east":163.806111},"success":true,"message":""},"data":{"meta":{"total":212844,"page":6825,"pages":7095,"count":30},"values":[{"id":115825,"code":"B4KJ201801000-4074","latitude":"37.97185209","longitude":"139.238381","source_code":"PORT15001020066","project_name":"\u6e2f\u6e7e\u5c40","survey_name":"\u65b0\u6f5f\u6771\u6e2f-10m\u5cb8\u58c1","client_name":"\u56fd\u571f\u4ea4\u901a\u7701\u5317\u9678\u5730\u65b9\u6574\u5099\u5c40\u65b0\u6f5f\u6e2f\u6e7e\u7a7a\u6e2f\u6280\u8853\u8abf\u67fb\u4e8b\u52d9\u6240","boring_xml_url":0,"boring_view_url":0,"soilmap_view_url":66,"soiltest_xml_url":0,"soiltest_view_url":66},{"id":115824,"code":"B4KJ201801000-4073","latitude":"37.97185202","longitude":"139.2358812","source_code":"PORT15001020065","project_name":"\u6e2f\u6e7e\u5c40","survey_name":"\u65b0\u6f5f\u6771\u6e2f-10m\u5cb8\u58c1","client_name":"\u56fd\u571f\u4ea4\u901a\u7701\u5317\u9678\u5730\u65b9\u6574\u5099\u5c40\u65b0\u6f5f\u6e2f\u6e7e\u7a7a\u6e2f\u6280\u8853\u8abf\u67fb\u4e8b\u52d9\u6240","boring_xml_url":0,"boring_view_url":0,"soilmap_view_url":66,"soiltest_xml_url":0,"soiltest_view_url":66},{"id":115823,"code":"B4KJ201801000-4072","latitude":"37.97185202","longitude":"139.2358812","source_code":"PORT15001020064","project_name":"\u6e2f\u6e7e\u5c40","survey_name":"\u65b0\u6f5f\u6771\u6e2f-10m\u5cb8\u58c1","client_name":"\u56fd\u571f\u4ea4\u901a\u7701\u5317\u9678\u5730\u65b9\u6574\u5099\u5c40\u65b0\u6f5f\u6e2f\u6e7e\u7a7a\u6e2f\u6280\u8853\u8abf\u67fb\u4e8b\u52d9\u6240","boring_xml_url":0,"boring_view_url":0,"soilmap_view_url":66,"soiltest_xml_url":0,"soiltest_view_url":66},{"id":115822,"code":"B4KJ201801000-4071","latitude":"37.97157411","longitude":"139.2300484","source_code":"PORT15001020063","project_name":"\u6e2f\u6e7e\u5c40","survey_name":"\u65b0\u6f5f\u6e2f\u6771\u6e2f\u6a2a\u571f\u5c45\u5730\u533a","client_name":"\u56fd\u571f\u4ea4\u901a\u7701\u5317\u9678\u5730\u65b9\u6574\u5099\u5c40\u65b0\u6f5f\u6e2f\u6e7e\u7a7a\u6e2f\u6280\u8853\u8abf\u67fb\u4e8b\u52d9\u6240","boring_xml_url":0,"boring_view_url":0,"soilmap_view_url":66,"soiltest_xml_url":0,"soiltest_view_url":66},{"id":115821,"code":"B4KJ201801000-4070","latitude":"37.96935224","longitude":"139.2336593","source_code":"PORT15001020061","project_name":"\u6e2f\u6e7e\u5c40","survey_name":"\u65b0\u6f5f\u6e2f\u6771\u6e2f\u5cb8\u58c1","client_name":"\u56fd\u571f\u4ea4\u901a\u7701\u5317\u9678\u5730\u65b9\u6574\u5099\u5c40\u65b0\u6f5f\u6e2f\u6e7e\u7a7a\u6e2f\u6280\u8853\u8abf\u67fb\u4e8b\u52d9\u6240","boring_xml_url":0,"boring_view_url":0,"soilmap_view_url":66,"soiltest_xml_url":0,"soiltest_view_url":66},{"id":115820,"code":"B4KJ201801000-4069","latitude":"37.96851902","longitude":"139.2339371","source_code":"PORT15001020060","project_name":"\u6e2f\u6e7e\u5c40","survey_name":"\u65b0\u6f5f\u6e2f\u6771\u6e2f\u5cb8\u58c1","client_name":"\u56fd\u571f\u4ea4\u901a\u7701\u5317\u9678\u5730\u65b9\u6574\u5099\u5c40\u65b0\u6f5f\u6e2f\u6e7e\u7a7a\u6e2f\u6280\u8853\u8abf\u67fb\u4e8b\u52d9\u6240","boring_xml_url":0,"boring_view_url":0,"soilmap_view_url":66,"soiltest_xml_url":0,"soiltest_view_url":66},{"id":115819,"code":"B4KJ201801000-4068","latitude":"37.96935224","longitude":"139.2336593","source_code":"PORT15001020059","project_name":"\u6e2f\u6e7e\u5c40","survey_name":"\u65b0\u6f5f\u6e2f\u6771\u6e2f\u5cb8\u58c1","client_name":"\u56fd\u571f\u4ea4\u901a\u7701\u5317\u9678\u5730\u65b9\u6574\u5099\u5c40\u65b0\u6f5f\u6e2f\u6e7e\u7a7a\u6e2f\u6280\u8853\u8abf\u67fb\u4e8b\u52d9\u6240","boring_xml_url":0,"boring_view_url":0,"soilmap_view_url":66,"soiltest_xml_url":0,"soiltest_view_url":66},{"id":115818,"code":"B4KJ201801000-4067","latitude":"37.96935224","longitude":"139.2336593","source_code":"PORT15001020058","project_name":"\u6e2f\u6e7e\u5c40","survey_name":"\u65b0\u6f5f\u6e2f\u6771\u6e2f\u5cb8\u58c1","client_name":"\u56fd\u571f\u4ea4\u901a\u7701\u5317\u9678\u5730\u65b9\u6574\u5099\u5c40\u65b0\u6f5f\u6e2f\u6e7e\u7a7a\u6e2f\u6280\u8853\u8abf\u67fb\u4e8b\u52d9\u6240","boring_xml_url":0,"boring_view_url":0,"soilmap_view_url":66,"soiltest_xml_url":0,"soiltest_view_url":66},{"id":115817,"code":"B4KJ201801000-4066","latitude":"37.96962994","longitude":"139.231715","source_code":"PORT15001020049","project_name":"\u6e2f\u6e7e\u5c40","survey_name":"\u65b0\u6f5f\u6e2f\u6771\u6e2f\u6cca\u5730","client_name":"\u56fd\u571f\u4ea4\u901a\u7701\u5317\u9678\u5730\u65b9\u6574\u5099\u5c40\u65b0\u6f5f\u6e2f\u6e7e\u7a7a\u6e2f\u6280\u8853\u8abf\u67fb\u4e8b\u52d9\u6240","boring_xml_url":0,"boring_view_url":0,"soilmap_view_url":66,"soiltest_xml_url":0,"soiltest_view_url":66},{"id":115816,"code":"B4KJ201801000-4065","latitude":"37.97240741","longitude":"139.2322704","source_code":"PORT15001020048","project_name":"\u6e2f\u6e7e\u5c40","survey_name":"\u65b0\u6f5f\u6e2f\u6771\u6e2f\u4e2d\u592e\u6c34\u8def","client_name":"\u56fd\u571f\u4ea4\u901a\u7701\u5317\u9678\u5730\u65b9\u6574\u5099\u5c40\u65b0\u6f5f\u6e2f\u6e7e\u7a7a\u6e2f\u6280\u8853\u8abf\u67fb\u4e8b\u52d9\u6240","boring_xml_url":0,"boring_view_url":0,"soilmap_view_url":66,"soiltest_xml_url":0,"soiltest_view_url":66},{"id":115815,"code":"B4KJ201801000-4064","latitude":"37.97379611","longitude":"139.2311593","source_code":"PORT15001020047","project_name":"\u6e2f\u6e7e\u5c40","survey_name":"\u65b0\u6f5f\u6e2f\u6771\u6e2f\u4e2d\u592e\u6c34\u8def","client_name":"\u56fd\u571f\u4ea4\u901a\u7701\u5317\u9678\u5730\u65b9\u6574\u5099\u5c40\u65b0\u6f5f\u6e2f\u6e7e\u7a7a\u6e2f\u6280\u8853\u8abf\u67fb\u4e8b\u52d9\u6240","boring_xml_url":0,"boring_view_url":0,"soilmap_view_url":66,"soiltest_xml_url":0,"soiltest_view_url":66},{"id":115814,"code":"B4KJ201801000-4063","latitude":"37.9757403","longitude":"139.230326","source_code":"PORT15001020046","project_name":"\u6e2f\u6e7e\u5c40","survey_name":"\u65b0\u6f5f\u6e2f\u6771\u6e2f\u4e2d\u592e\u6c34\u8def","client_name":"\u56fd\u571f\u4ea4\u901a\u7701\u5317\u9678\u5730\u65b9\u6574\u5099\u5c40\u65b0\u6f5f\u6e2f\u6e7e\u7a7a\u6e2f\u6280\u8853\u8abf\u67fb\u4e8b\u52d9\u6240","boring_xml_url":0,"boring_view_url":0,"soilmap_view_url":66,"soiltest_xml_url":0,"soiltest_view_url":66},{"id":115813,"code":"B4KJ201801000-4062","latitude":"37.98101744","longitude":"139.2294925","source_code":"PORT15001020045","project_name":"\u6e2f\u6e7e\u5c40","survey_name":"\u65b0\u6f5f\u6e2f\u6771\u6e2f\u4e2d\u592e\u6c34\u8def","client_name":"\u56fd\u571f\u4ea4\u901a\u7701\u5317\u9678\u5730\u65b9\u6574\u5099\u5c40\u65b0\u6f5f\u6e2f\u6e7e\u7a7a\u6e2f\u6280\u8853\u8abf\u67fb\u4e8b\u52d9\u6240","boring_xml_url":0,"boring_view_url":0,"soilmap_view_url":66,"soiltest_xml_url":0,"soiltest_view_url":66},{"id":115812,"code":"B4KJ201801000-4061","latitude":"37.98101744","longitude":"139.2294925","source_code":"PORT15001020044","project_name":"\u6e2f\u6e7e\u5c40","survey_name":"\u65b0\u6f5f\u6e2f\u6771\u6e2f\u4e2d\u592e\u6c34\u8def","client_name":"\u56fd\u571f\u4ea4\u901a\u7701\u5317\u9678\u5730\u65b9\u6574\u5099\u5c40\u65b0\u6f5f\u6e2f\u6e7e\u7a7a\u6e2f\u6280\u8853\u8abf\u67fb\u4e8b\u52d9\u6240","boring_xml_url":0,"boring_view_url":0,"soilmap_view_url":66,"soiltest_xml_url":0,"soiltest_view_url":66},{"id":115811,"code":"B4KJ201801000-4060","latitude":"37.98323926","longitude":"139.224215","source_code":"PORT15001020043","project_name":"\u6e2f\u6e7e\u5c40","survey_name":"\u65b0\u6f5f\u6e2f\u6771\u6e2f\u5cb8\u58c1","client_name":"\u56fd\u571f\u4ea4\u901a\u7701\u5317\u9678\u5730\u65b9\u6574\u5099\u5c40\u65b0\u6f5f\u6e2f\u6e7e\u7a7a\u6e2f\u6280\u8853\u8abf\u67fb\u4e8b\u52d9\u6240","boring_xml_url":0,"boring_view_url":0,"soilmap_view_url":66,"soiltest_xml_url":0,"soiltest_view_url":66},{"id":115810,"code":"B4KJ201801000-4059","latitude":"37.98323926","longitude":"139.224215","source_code":"PORT15001020042","project_name":"\u6e2f\u6e7e\u5c40","survey_name":"\u65b0\u6f5f\u6e2f\u6771\u6e2f\u5cb8\u58c1","client_name":"\u56fd\u571f\u4ea4\u901a\u7701\u5317\u9678\u5730\u65b9\u6574\u5099\u5c40\u65b0\u6f5f\u6e2f\u6e7e\u7a7a\u6e2f\u6280\u8853\u8abf\u67fb\u4e8b\u52d9\u6240","boring_xml_url":0,"boring_view_url":0,"soilmap_view_url":66,"soiltest_xml_url":0,"soiltest_view_url":66},{"id":115809,"code":"B4KJ201801000-4058","latitude":"37.98240602","longitude":"139.2242151","source_code":"PORT15001020039","project_name":"\u6e2f\u6e7e\u5c40","survey_name":"\u65b0\u6f5f\u6e2f\u6771\u6e2f\u4e2d\u592e\u6c34\u8def","client_name":"\u56fd\u571f\u4ea4\u901a\u7701\u5317\u9678\u5730\u65b9\u6574\u5099\u5c40\u65b0\u6f5f\u6e2f\u6e7e\u7a7a\u6e2f\u6280\u8853\u8abf\u67fb\u4e8b\u52d9\u6240","boring_xml_url":0,"boring_view_url":0,"soilmap_view_url":66,"soiltest_xml_url":0,"soiltest_view_url":66},{"id":115808,"code":"B4KJ201801000-4057","latitude":"37.98157281","longitude":"139.2250484","source_code":"PORT15001020038","project_name":"\u6e2f\u6e7e\u5c40","survey_name":"\u65b0\u6f5f\u6e2f\u6771\u6e2f\u4e2d\u592e\u6c34\u8def","client_name":"\u56fd\u571f\u4ea4\u901a\u7701\u5317\u9678\u5730\u65b9\u6574\u5099\u5c40\u65b0\u6f5f\u6e2f\u6e7e\u7a7a\u6e2f\u6280\u8853\u8abf\u67fb\u4e8b\u52d9\u6240","boring_xml_url":0,"boring_view_url":0,"soilmap_view_url":66,"soiltest_xml_url":0,"soiltest_view_url":66},{"id":115807,"code":"B4KJ201801000-4056","latitude":"37.98240604","longitude":"139.2247706","source_code":"PORT15001020037","project_name":"\u6e2f\u6e7e\u5c40","survey_name":"\u65b0\u6f5f\u6e2f\u6771\u6e2f\u4e2d\u592e\u6c34\u8def","client_name":"\u56fd\u571f\u4ea4\u901a\u7701\u5317\u9678\u5730\u65b9\u6574\u5099\u5c40\u65b0\u6f5f\u6e2f\u6e7e\u7a7a\u6e2f\u6280\u8853\u8abf\u67fb\u4e8b\u52d9\u6240","boring_xml_url":0,"boring_view_url":0,"soilmap_view_url":66,"soiltest_xml_url":0,"soiltest_view_url":66},{"id":115806,"code":"B4KJ201801000-4055","latitude":"37.98323926","longitude":"139.224215","source_code":"PORT15001020036","project_name":"\u6e2f\u6e7e\u5c40","survey_name":"\u65b0\u6f5f\u6e2f\u6771\u6e2f\u4e2d\u592e\u6c34\u8def","client_name":"\u56fd\u571f\u4ea4\u901a\u7701\u5317\u9678\u5730\u65b9\u6574\u5099\u5c40\u65b0\u6f5f\u6e2f\u6e7e\u7a7a\u6e2f\u6280\u8853\u8abf\u67fb\u4e8b\u52d9\u6240","boring_xml_url":0,"boring_view_url":0,"soilmap_view_url":66,"soiltest_xml_url":0,"soiltest_view_url":66},{"id":115805,"code":"B4KJ201801000-4054","latitude":"37.98268379","longitude":"139.2250483","source_code":"PORT15001020035","project_name":"\u6e2f\u6e7e\u5c40","survey_name":"\u65b0\u6f5f\u6e2f\u6771\u6e2f\u4e2d\u592e\u6c34\u8def","client_name":"\u56fd\u571f\u4ea4\u901a\u7701\u5317\u9678\u5730\u65b9\u6574\u5099\u5c40\u65b0\u6f5f\u6e2f\u6e7e\u7a7a\u6e2f\u6280\u8853\u8abf\u67fb\u4e8b\u52d9\u6240","boring_xml_url":0,"boring_view_url":0,"soilmap_view_url":66,"soiltest_xml_url":0,"soiltest_view_url":66},{"id":115804,"code":"B4KJ201801000-4053","latitude":"37.99323803","longitude":"139.2217148","source_code":"PORT15001020034","project_name":"\u6e2f\u6e7e\u5c40","survey_name":"\u65b0\u6f5f\u6e2f\u6771\u6e2f\u822a\u8def","client_name":"\u56fd\u571f\u4ea4\u901a\u7701\u5317\u9678\u5730\u65b9\u6574\u5099\u5c40\u65b0\u6f5f\u6e2f\u6e7e\u7a7a\u6e2f\u6280\u8853\u8abf\u67fb\u4e8b\u52d9\u6240","boring_xml_url":0,"boring_view_url":0,"soilmap_view_url":66,"soiltest_xml_url":0,"soiltest_view_url":66},{"id":115803,"code":"B4KJ201801000-4052","latitude":"37.99184933","longitude":"139.2225481","source_code":"PORT15001020033","project_name":"\u6e2f\u6e7e\u5c40","survey_name":"\u65b0\u6f5f\u6e2f\u6771\u6e2f\u4e2d\u592e\u6c34\u8def","client_name":"\u56fd\u571f\u4ea4\u901a\u7701\u5317\u9678\u5730\u65b9\u6574\u5099\u5c40\u65b0\u6f5f\u6e2f\u6e7e\u7a7a\u6e2f\u6280\u8853\u8abf\u67fb\u4e8b\u52d9\u6240","boring_xml_url":0,"boring_view_url":0,"soilmap_view_url":66,"soiltest_xml_url":0,"soiltest_view_url":66},{"id":115802,"code":"B4KJ201801000-4051","latitude":"37.99129384","longitude":"139.2228259","source_code":"PORT15001020032","project_name":"\u6e2f\u6e7e\u5c40","survey_name":"\u65b0\u6f5f\u6e2f\u6771\u6e2f\u4e2d\u592e\u6c34\u8def","client_name":"\u56fd\u571f\u4ea4\u901a\u7701\u5317\u9678\u5730\u65b9\u6574\u5099\u5c40\u65b0\u6f5f\u6e2f\u6e7e\u7a7a\u6e2f\u6280\u8853\u8abf\u67fb\u4e8b\u52d9\u6240","boring_xml_url":0,"boring_view_url":0,"soilmap_view_url":66,"soiltest_xml_url":0,"soiltest_view_url":66},{"id":115801,"code":"B4KJ201801000-4050","latitude":"37.98435032","longitude":"139.2269925","source_code":"PORT15001020031","project_name":"\u6e2f\u6e7e\u5c40","survey_name":"\u65b0\u6f5f\u6e2f\u6771\u6e2f\u4e2d\u592e\u6c34\u8def","client_name":"\u56fd\u571f\u4ea4\u901a\u7701\u5317\u9678\u5730\u65b9\u6574\u5099\u5c40\u65b0\u6f5f\u6e2f\u6e7e\u7a7a\u6e2f\u6280\u8853\u8abf\u67fb\u4e8b\u52d9\u6240","boring_xml_url":0,"boring_view_url":0,"soilmap_view_url":66,"soiltest_xml_url":0,"soiltest_view_url":66},{"id":115800,"code":"B4KJ201801000-4049","latitude":"37.98129516","longitude":"139.2286592","source_code":"PORT15001020030","project_name":"\u6e2f\u6e7e\u5c40","survey_name":"\u65b0\u6f5f\u6e2f\u6771\u6e2f\u4e2d\u592e\u6c34\u8def","client_name":"\u56fd\u571f\u4ea4\u901a\u7701\u5317\u9678\u5730\u65b9\u6574\u5099\u5c40\u65b0\u6f5f\u6e2f\u6e7e\u7a7a\u6e2f\u6280\u8853\u8abf\u67fb\u4e8b\u52d9\u6240","boring_xml_url":0,"boring_view_url":0,"soilmap_view_url":66,"soiltest_xml_url":0,"soiltest_view_url":66},{"id":115799,"code":"B4KJ201801000-4048","latitude":"37.97502778","longitude":"139.07625","source_code":"PORT15001010436","project_name":"\u6e2f\u6e7e\u5c40","survey_name":"\u5e73\u621019\u5e74\u65b0\u6f5f\u6e2f(\u897f\u6e2f\u5730\u533a)\u9632\u6ce2\u5824(\u7b2c\u4e8c\u897f)\u571f\u8cea\u8abf\u67fb","client_name":"\u56fd\u571f\u4ea4\u901a\u7701\u5317\u9678\u5730\u65b9\u6574\u5099\u5c40\u65b0\u6f5f\u6e2f\u6e7e\u7a7a\u6e2f\u6280\u8853\u8abf\u67fb\u4e8b\u52d9\u6240","boring_xml_url":0,"boring_view_url":0,"soilmap_view_url":66,"soiltest_xml_url":0,"soiltest_view_url":66},{"id":115798,"code":"B4KJ201801000-4047","latitude":"37.952635","longitude":"139.111704","source_code":"PORT15001010435","project_name":"\u6e2f\u6e7e\u5c40","survey_name":"\u65b0\u6f5f\u7a7a\u6e2f\u571f\u8cea\u8abf\u67fb","client_name":"\u56fd\u571f\u4ea4\u901a\u7701\u5317\u9678\u5730\u65b9\u6574\u5099\u5c40\u65b0\u6f5f\u6e2f\u6e7e\u7a7a\u6e2f\u6280\u8853\u8abf\u67fb\u4e8b\u52d9\u6240","boring_xml_url":0,"boring_view_url":0,"soilmap_view_url":66,"soiltest_xml_url":0,"soiltest_view_url":66},{"id":115797,"code":"B4KJ201801000-4046","latitude":"37.95258642","longitude":"139.111936","source_code":"PORT15001010434","project_name":"\u6e2f\u6e7e\u5c40","survey_name":"\u65b0\u6f5f\u7a7a\u6e2f\u571f\u8cea\u8abf\u67fb","client_name":"\u56fd\u571f\u4ea4\u901a\u7701\u5317\u9678\u5730\u65b9\u6574\u5099\u5c40\u65b0\u6f5f\u6e2f\u6e7e\u7a7a\u6e2f\u6280\u8853\u8abf\u67fb\u4e8b\u52d9\u6240","boring_xml_url":0,"boring_view_url":0,"soilmap_view_url":66,"soiltest_xml_url":0,"soiltest_view_url":66},{"id":115796,"code":"B4KJ201801000-4045","latitude":"37.95770017","longitude":"139.0929055","source_code":"PORT15001010433","project_name":"\u6e2f\u6e7e\u5c40","survey_name":"\u65b0\u6f5f\u7a7a\u6e2f\u571f\u8cea\u8abf\u67fb","client_name":"\u56fd\u571f\u4ea4\u901a\u7701\u5317\u9678\u5730\u65b9\u6574\u5099\u5c40\u65b0\u6f5f\u6e2f\u6e7e\u7a7a\u6e2f\u6280\u8853\u8abf\u67fb\u4e8b\u52d9\u6240","boring_xml_url":0,"boring_view_url":0,"soilmap_view_url":66,"soiltest_xml_url":0,"soiltest_view_url":66}]}}