{"header":{"xyz":{"source":[],"mosaic":false},"page":6836,"raw":{"soiltest_result":"0","bbox":"57.598333,109.544722,1.933333,163.806111","page":"6836"},"conditions":{"soiltest_result":0,"north":57.598333,"west":109.544722,"south":1.933333,"east":163.806111},"success":true,"message":""},"data":{"meta":{"total":212844,"page":6836,"pages":7095,"count":30},"values":[{"id":115495,"code":"B4KJ201801000-3744","latitude":"37.86024754","longitude":"140.9637917","source_code":"PORT07008010036","project_name":"\u6e2f\u6e7e\u5c40","survey_name":"\u662d\u548c60\u5e74\u5ea6\u76f8\u99ac\u6e2f\u571f\u8cea\u8abf\u67fb","client_name":"\u56fd\u571f\u4ea4\u901a\u7701\u6771\u5317\u5730\u65b9\u6574\u5099\u5c40\u4ed9\u53f0\u6e2f\u6e7e\u7a7a\u6e2f\u6280\u8853\u8abf\u67fb\u4e8b\u52d9\u6240","boring_xml_url":0,"boring_view_url":0,"soilmap_view_url":66,"soiltest_xml_url":0,"soiltest_view_url":0},{"id":115494,"code":"B4KJ201801000-3743","latitude":"37.86080303","longitude":"140.9635139","source_code":"PORT07008010035","project_name":"\u6e2f\u6e7e\u5c40","survey_name":"\u662d\u548c60\u5e74\u5ea6\u76f8\u99ac\u6e2f\u571f\u8cea\u8abf\u67fb","client_name":"\u56fd\u571f\u4ea4\u901a\u7701\u6771\u5317\u5730\u65b9\u6574\u5099\u5c40\u4ed9\u53f0\u6e2f\u6e7e\u7a7a\u6e2f\u6280\u8853\u8abf\u67fb\u4e8b\u52d9\u6240","boring_xml_url":0,"boring_view_url":0,"soilmap_view_url":66,"soiltest_xml_url":0,"soiltest_view_url":66},{"id":115493,"code":"B4KJ201801000-3742","latitude":"37.86108073","longitude":"140.9621251","source_code":"PORT07008010034","project_name":"\u6e2f\u6e7e\u5c40","survey_name":"\u662d\u548c60\u5e74\u5ea6\u76f8\u99ac\u6e2f\u571f\u8cea\u8abf\u67fb","client_name":"\u56fd\u571f\u4ea4\u901a\u7701\u6771\u5317\u5730\u65b9\u6574\u5099\u5c40\u4ed9\u53f0\u6e2f\u6e7e\u7a7a\u6e2f\u6280\u8853\u8abf\u67fb\u4e8b\u52d9\u6240","boring_xml_url":0,"boring_view_url":0,"soilmap_view_url":66,"soiltest_xml_url":0,"soiltest_view_url":66},{"id":115492,"code":"B4KJ201801000-3741","latitude":"37.86052517","longitude":"140.9599031","source_code":"PORT07008010033","project_name":"\u6e2f\u6e7e\u5c40","survey_name":"\u662d\u548c60\u5e74\u5ea6\u76f8\u99ac\u6e2f\u571f\u8cea\u8abf\u67fb","client_name":"\u56fd\u571f\u4ea4\u901a\u7701\u6771\u5317\u5730\u65b9\u6574\u5099\u5c40\u4ed9\u53f0\u6e2f\u6e7e\u7a7a\u6e2f\u6280\u8853\u8abf\u67fb\u4e8b\u52d9\u6240","boring_xml_url":0,"boring_view_url":0,"soilmap_view_url":66,"soiltest_xml_url":0,"soiltest_view_url":66},{"id":115491,"code":"B4KJ201801000-3740","latitude":"37.86080289","longitude":"140.9587921","source_code":"PORT07008010032","project_name":"\u6e2f\u6e7e\u5c40","survey_name":"\u662d\u548c60\u5e74\u5ea6\u76f8\u99ac\u6e2f\u571f\u8cea\u8abf\u67fb","client_name":"\u56fd\u571f\u4ea4\u901a\u7701\u6771\u5317\u5730\u65b9\u6574\u5099\u5c40\u4ed9\u53f0\u6e2f\u6e7e\u7a7a\u6e2f\u6280\u8853\u8abf\u67fb\u4e8b\u52d9\u6240","boring_xml_url":0,"boring_view_url":0,"soilmap_view_url":66,"soiltest_xml_url":0,"soiltest_view_url":66},{"id":115490,"code":"B4KJ201801000-3739","latitude":"37.86052511","longitude":"140.9576811","source_code":"PORT07008010031","project_name":"\u6e2f\u6e7e\u5c40","survey_name":"\u662d\u548c60\u5e74\u5ea6\u76f8\u99ac\u6e2f\u571f\u8cea\u8abf\u67fb","client_name":"\u56fd\u571f\u4ea4\u901a\u7701\u6771\u5317\u5730\u65b9\u6574\u5099\u5c40\u4ed9\u53f0\u6e2f\u6e7e\u7a7a\u6e2f\u6280\u8853\u8abf\u67fb\u4e8b\u52d9\u6240","boring_xml_url":0,"boring_view_url":0,"soilmap_view_url":66,"soiltest_xml_url":0,"soiltest_view_url":66},{"id":115489,"code":"B4KJ201801000-3738","latitude":"37.8605251","longitude":"140.9574033","source_code":"PORT07008010030","project_name":"\u6e2f\u6e7e\u5c40","survey_name":"\u662d\u548c60\u5e74\u5ea6\u76f8\u99ac\u6e2f\u571f\u8cea\u8abf\u67fb","client_name":"\u56fd\u571f\u4ea4\u901a\u7701\u6771\u5317\u5730\u65b9\u6574\u5099\u5c40\u4ed9\u53f0\u6e2f\u6e7e\u7a7a\u6e2f\u6280\u8853\u8abf\u67fb\u4e8b\u52d9\u6240","boring_xml_url":0,"boring_view_url":0,"soilmap_view_url":66,"soiltest_xml_url":0,"soiltest_view_url":66},{"id":115488,"code":"B4KJ201801000-3737","latitude":"37.8594141","longitude":"140.9568479","source_code":"PORT07008010029","project_name":"\u6e2f\u6e7e\u5c40","survey_name":"\u662d\u548c60\u5e74\u5ea6\u76f8\u99ac\u6e2f\u571f\u8cea\u8abf\u67fb","client_name":"\u56fd\u571f\u4ea4\u901a\u7701\u6771\u5317\u5730\u65b9\u6574\u5099\u5c40\u4ed9\u53f0\u6e2f\u6e7e\u7a7a\u6e2f\u6280\u8853\u8abf\u67fb\u4e8b\u52d9\u6240","boring_xml_url":0,"boring_view_url":0,"soilmap_view_url":66,"soiltest_xml_url":0,"soiltest_view_url":66},{"id":115487,"code":"B4KJ201801000-3736","latitude":"37.85996958","longitude":"140.9565701","source_code":"PORT07008010028","project_name":"\u6e2f\u6e7e\u5c40","survey_name":"\u662d\u548c60\u5e74\u5ea6\u76f8\u99ac\u6e2f\u571f\u8cea\u8abf\u67fb","client_name":"\u56fd\u571f\u4ea4\u901a\u7701\u6771\u5317\u5730\u65b9\u6574\u5099\u5c40\u4ed9\u53f0\u6e2f\u6e7e\u7a7a\u6e2f\u6280\u8853\u8abf\u67fb\u4e8b\u52d9\u6240","boring_xml_url":0,"boring_view_url":0,"soilmap_view_url":66,"soiltest_xml_url":0,"soiltest_view_url":66},{"id":115486,"code":"B4KJ201801000-3735","latitude":"37.86052508","longitude":"140.9565701","source_code":"PORT07008010027","project_name":"\u6e2f\u6e7e\u5c40","survey_name":"\u662d\u548c60\u5e74\u5ea6\u76f8\u99ac\u6e2f\u571f\u8cea\u8abf\u67fb","client_name":"\u56fd\u571f\u4ea4\u901a\u7701\u6771\u5317\u5730\u65b9\u6574\u5099\u5c40\u4ed9\u53f0\u6e2f\u6e7e\u7a7a\u6e2f\u6280\u8853\u8abf\u67fb\u4e8b\u52d9\u6240","boring_xml_url":0,"boring_view_url":0,"soilmap_view_url":66,"soiltest_xml_url":0,"soiltest_view_url":0},{"id":115485,"code":"B4KJ201801000-3734","latitude":"37.85719256","longitude":"140.9715689","source_code":"PORT07008010026","project_name":"\u6e2f\u6e7e\u5c40","survey_name":"\u662d\u548c59\u5e74\u5ea6\u76f8\u99ac\u6e2f\u571f\u8cea\u8abf\u67fb(\u305d\u306e2)","client_name":"\u56fd\u571f\u4ea4\u901a\u7701\u6771\u5317\u5730\u65b9\u6574\u5099\u5c40\u4ed9\u53f0\u6e2f\u6e7e\u7a7a\u6e2f\u6280\u8853\u8abf\u67fb\u4e8b\u52d9\u6240","boring_xml_url":0,"boring_view_url":0,"soilmap_view_url":66,"soiltest_xml_url":0,"soiltest_view_url":66},{"id":115484,"code":"B4KJ201801000-3733","latitude":"37.85747029","longitude":"140.9710134","source_code":"PORT07008010025","project_name":"\u6e2f\u6e7e\u5c40","survey_name":"\u662d\u548c59\u5e74\u5ea6\u76f8\u99ac\u6e2f\u571f\u8cea\u8abf\u67fb(\u305d\u306e2)","client_name":"\u56fd\u571f\u4ea4\u901a\u7701\u6771\u5317\u5730\u65b9\u6574\u5099\u5c40\u4ed9\u53f0\u6e2f\u6e7e\u7a7a\u6e2f\u6280\u8853\u8abf\u67fb\u4e8b\u52d9\u6240","boring_xml_url":0,"boring_view_url":0,"soilmap_view_url":66,"soiltest_xml_url":0,"soiltest_view_url":66},{"id":115483,"code":"B4KJ201801000-3732","latitude":"37.85719255","longitude":"140.9712912","source_code":"PORT07008010024","project_name":"\u6e2f\u6e7e\u5c40","survey_name":"\u662d\u548c59\u5e74\u5ea6\u76f8\u99ac\u6e2f\u571f\u8cea\u8abf\u67fb(\u305d\u306e2)","client_name":"\u56fd\u571f\u4ea4\u901a\u7701\u6771\u5317\u5730\u65b9\u6574\u5099\u5c40\u4ed9\u53f0\u6e2f\u6e7e\u7a7a\u6e2f\u6280\u8853\u8abf\u67fb\u4e8b\u52d9\u6240","boring_xml_url":0,"boring_view_url":0,"soilmap_view_url":66,"soiltest_xml_url":0,"soiltest_view_url":66},{"id":115482,"code":"B4KJ201801000-3731","latitude":"37.85691481","longitude":"140.9712912","source_code":"PORT07008010023","project_name":"\u6e2f\u6e7e\u5c40","survey_name":"\u662d\u548c59\u5e74\u5ea6\u76f8\u99ac\u6e2f\u571f\u8cea\u8abf\u67fb(\u305d\u306e2)","client_name":"\u56fd\u571f\u4ea4\u901a\u7701\u6771\u5317\u5730\u65b9\u6574\u5099\u5c40\u4ed9\u53f0\u6e2f\u6e7e\u7a7a\u6e2f\u6280\u8853\u8abf\u67fb\u4e8b\u52d9\u6240","boring_xml_url":0,"boring_view_url":0,"soilmap_view_url":66,"soiltest_xml_url":0,"soiltest_view_url":66},{"id":115481,"code":"B4KJ201801000-3730","latitude":"37.86774703","longitude":"140.9757348","source_code":"PORT07008010022","project_name":"\u6e2f\u6e7e\u5c40","survey_name":"\u662d\u548c59\u5e74\u5ea6\u76f8\u99ac\u6e2f\u571f\u8cea\u8abf\u67fb(\u305d\u306e2)","client_name":"\u56fd\u571f\u4ea4\u901a\u7701\u6771\u5317\u5730\u65b9\u6574\u5099\u5c40\u4ed9\u53f0\u6e2f\u6e7e\u7a7a\u6e2f\u6280\u8853\u8abf\u67fb\u4e8b\u52d9\u6240","boring_xml_url":0,"boring_view_url":0,"soilmap_view_url":66,"soiltest_xml_url":0,"soiltest_view_url":66},{"id":115480,"code":"B4KJ201801000-3729","latitude":"37.86413629","longitude":"140.9743462","source_code":"PORT07008010021","project_name":"\u6e2f\u6e7e\u5c40","survey_name":"\u662d\u548c59\u5e74\u5ea6\u76f8\u99ac\u6e2f\u571f\u8cea\u8abf\u67fb(\u305d\u306e2)","client_name":"\u56fd\u571f\u4ea4\u901a\u7701\u6771\u5317\u5730\u65b9\u6574\u5099\u5c40\u4ed9\u53f0\u6e2f\u6e7e\u7a7a\u6e2f\u6280\u8853\u8abf\u67fb\u4e8b\u52d9\u6240","boring_xml_url":0,"boring_view_url":0,"soilmap_view_url":66,"soiltest_xml_url":0,"soiltest_view_url":66},{"id":115479,"code":"B4KJ201801000-3728","latitude":"37.86163654","longitude":"140.9732353","source_code":"PORT07008010020","project_name":"\u6e2f\u6e7e\u5c40","survey_name":"\u662d\u548c59\u5e74\u5ea6\u76f8\u99ac\u6e2f\u571f\u8cea\u8abf\u67fb(\u305d\u306e2)","client_name":"\u56fd\u571f\u4ea4\u901a\u7701\u6771\u5317\u5730\u65b9\u6574\u5099\u5c40\u4ed9\u53f0\u6e2f\u6e7e\u7a7a\u6e2f\u6280\u8853\u8abf\u67fb\u4e8b\u52d9\u6240","boring_xml_url":0,"boring_view_url":0,"soilmap_view_url":66,"soiltest_xml_url":0,"soiltest_view_url":66},{"id":115478,"code":"B4KJ201801000-3727","latitude":"37.8608033","longitude":"140.9729575","source_code":"PORT07008010019","project_name":"\u6e2f\u6e7e\u5c40","survey_name":"\u662d\u548c59\u5e74\u5ea6\u76f8\u99ac\u6e2f\u571f\u8cea\u8abf\u67fb(\u305d\u306e2)","client_name":"\u56fd\u571f\u4ea4\u901a\u7701\u6771\u5317\u5730\u65b9\u6574\u5099\u5c40\u4ed9\u53f0\u6e2f\u6e7e\u7a7a\u6e2f\u6280\u8853\u8abf\u67fb\u4e8b\u52d9\u6240","boring_xml_url":0,"boring_view_url":0,"soilmap_view_url":66,"soiltest_xml_url":0,"soiltest_view_url":66},{"id":115477,"code":"B4KJ201801000-3726","latitude":"37.85997004","longitude":"140.9724021","source_code":"PORT07008010018","project_name":"\u6e2f\u6e7e\u5c40","survey_name":"\u662d\u548c59\u5e74\u5ea6\u76f8\u99ac\u6e2f\u571f\u8cea\u8abf\u67fb(\u305d\u306e2)","client_name":"\u56fd\u571f\u4ea4\u901a\u7701\u6771\u5317\u5730\u65b9\u6574\u5099\u5c40\u4ed9\u53f0\u6e2f\u6e7e\u7a7a\u6e2f\u6280\u8853\u8abf\u67fb\u4e8b\u52d9\u6240","boring_xml_url":0,"boring_view_url":0,"soilmap_view_url":66,"soiltest_xml_url":0,"soiltest_view_url":66},{"id":115476,"code":"B4KJ201801000-3725","latitude":"37.85913682","longitude":"140.9726799","source_code":"PORT07008010017","project_name":"\u6e2f\u6e7e\u5c40","survey_name":"\u662d\u548c59\u5e74\u5ea6\u76f8\u99ac\u6e2f\u571f\u8cea\u8abf\u67fb","client_name":"\u56fd\u571f\u4ea4\u901a\u7701\u6771\u5317\u5730\u65b9\u6574\u5099\u5c40\u4ed9\u53f0\u6e2f\u6e7e\u7a7a\u6e2f\u6280\u8853\u8abf\u67fb\u4e8b\u52d9\u6240","boring_xml_url":0,"boring_view_url":0,"soilmap_view_url":66,"soiltest_xml_url":0,"soiltest_view_url":66},{"id":115475,"code":"B4KJ201801000-3724","latitude":"37.85747032","longitude":"140.9720133","source_code":"PORT07008010016","project_name":"\u6e2f\u6e7e\u5c40","survey_name":"\u662d\u548c59\u5e74\u5ea6\u76f8\u99ac\u6e2f\u571f\u8cea\u8abf\u67fb","client_name":"\u56fd\u571f\u4ea4\u901a\u7701\u6771\u5317\u5730\u65b9\u6574\u5099\u5c40\u4ed9\u53f0\u6e2f\u6e7e\u7a7a\u6e2f\u6280\u8853\u8abf\u67fb\u4e8b\u52d9\u6240","boring_xml_url":0,"boring_view_url":0,"soilmap_view_url":66,"soiltest_xml_url":0,"soiltest_view_url":66},{"id":115474,"code":"B4KJ201801000-3723","latitude":"37.83051878","longitude":"140.9599141","source_code":"PORT07008010015","project_name":"\u6e2f\u6e7e\u5c40","survey_name":"\u662d\u548c58\u5e74\u5ea6\u76f8\u99ac\u6e2f\u5de5\u5834\u69cb\u5185\u5730\u76e4\u8abf\u67fb","client_name":"\u56fd\u571f\u4ea4\u901a\u7701\u6771\u5317\u5730\u65b9\u6574\u5099\u5c40\u4ed9\u53f0\u6e2f\u6e7e\u7a7a\u6e2f\u6280\u8853\u8abf\u67fb\u4e8b\u52d9\u6240","boring_xml_url":0,"boring_view_url":0,"soilmap_view_url":66,"soiltest_xml_url":0,"soiltest_view_url":66},{"id":115473,"code":"B4KJ201801000-3722","latitude":"37.85802582","longitude":"140.9724022","source_code":"PORT07008010014","project_name":"\u6e2f\u6e7e\u5c40","survey_name":"\u662d\u548c58\u5e74\u5ea6\u76f8\u99ac\u6e2f\u571f\u8cea\u8abf\u67fb(\u305d\u306e2)","client_name":"\u56fd\u571f\u4ea4\u901a\u7701\u6771\u5317\u5730\u65b9\u6574\u5099\u5c40\u4ed9\u53f0\u6e2f\u6e7e\u7a7a\u6e2f\u6280\u8853\u8abf\u67fb\u4e8b\u52d9\u6240","boring_xml_url":0,"boring_view_url":0,"soilmap_view_url":66,"soiltest_xml_url":0,"soiltest_view_url":66},{"id":115472,"code":"B4KJ201801000-3721","latitude":"37.85719257","longitude":"140.9718467","source_code":"PORT07008010013","project_name":"\u6e2f\u6e7e\u5c40","survey_name":"\u662d\u548c58\u5e74\u5ea6\u76f8\u99ac\u6e2f\u571f\u8cea\u8abf\u67fb(\u305d\u306e2)","client_name":"\u56fd\u571f\u4ea4\u901a\u7701\u6771\u5317\u5730\u65b9\u6574\u5099\u5c40\u4ed9\u53f0\u6e2f\u6e7e\u7a7a\u6e2f\u6280\u8853\u8abf\u67fb\u4e8b\u52d9\u6240","boring_xml_url":0,"boring_view_url":0,"soilmap_view_url":66,"soiltest_xml_url":0,"soiltest_view_url":66},{"id":115471,"code":"B4KJ201801000-3720","latitude":"37.85635932","longitude":"140.9715412","source_code":"PORT07008010012","project_name":"\u6e2f\u6e7e\u5c40","survey_name":"\u662d\u548c58\u5e74\u5ea6\u76f8\u99ac\u6e2f\u571f\u8cea\u8abf\u67fb(\u305d\u306e2)","client_name":"\u56fd\u571f\u4ea4\u901a\u7701\u6771\u5317\u5730\u65b9\u6574\u5099\u5c40\u4ed9\u53f0\u6e2f\u6e7e\u7a7a\u6e2f\u6280\u8853\u8abf\u67fb\u4e8b\u52d9\u6240","boring_xml_url":0,"boring_view_url":0,"soilmap_view_url":66,"soiltest_xml_url":0,"soiltest_view_url":0},{"id":115470,"code":"B4KJ201801000-3719","latitude":"37.85552608","longitude":"140.9711802","source_code":"PORT07008010011","project_name":"\u6e2f\u6e7e\u5c40","survey_name":"\u662d\u548c58\u5e74\u5ea6\u76f8\u99ac\u6e2f\u571f\u8cea\u8abf\u67fb(\u305d\u306e2)","client_name":"\u56fd\u571f\u4ea4\u901a\u7701\u6771\u5317\u5730\u65b9\u6574\u5099\u5c40\u4ed9\u53f0\u6e2f\u6e7e\u7a7a\u6e2f\u6280\u8853\u8abf\u67fb\u4e8b\u52d9\u6240","boring_xml_url":0,"boring_view_url":0,"soilmap_view_url":66,"soiltest_xml_url":0,"soiltest_view_url":0},{"id":115469,"code":"B4KJ201801000-3718","latitude":"37.85469283","longitude":"140.9707358","source_code":"PORT07008010010","project_name":"\u6e2f\u6e7e\u5c40","survey_name":"\u662d\u548c58\u5e74\u5ea6\u76f8\u99ac\u6e2f\u571f\u8cea\u8abf\u67fb","client_name":"\u56fd\u571f\u4ea4\u901a\u7701\u6771\u5317\u5730\u65b9\u6574\u5099\u5c40\u4ed9\u53f0\u6e2f\u6e7e\u7a7a\u6e2f\u6280\u8853\u8abf\u67fb\u4e8b\u52d9\u6240","boring_xml_url":0,"boring_view_url":0,"soilmap_view_url":66,"soiltest_xml_url":0,"soiltest_view_url":66},{"id":115468,"code":"B4KJ201801000-3717","latitude":"37.84941573","longitude":"140.9734025","source_code":"PORT07008010009","project_name":"\u6e2f\u6e7e\u5c40","survey_name":"\u662d\u548c58\u5e74\u5ea6\u76f8\u99ac\u6e2f\u571f\u8cea\u8abf\u67fb","client_name":"\u56fd\u571f\u4ea4\u901a\u7701\u6771\u5317\u5730\u65b9\u6574\u5099\u5c40\u4ed9\u53f0\u6e2f\u6e7e\u7a7a\u6e2f\u6280\u8853\u8abf\u67fb\u4e8b\u52d9\u6240","boring_xml_url":0,"boring_view_url":0,"soilmap_view_url":66,"soiltest_xml_url":0,"soiltest_view_url":66},{"id":115467,"code":"B4KJ201801000-3716","latitude":"37.83024113","longitude":"140.9624139","source_code":"PORT07008010008","project_name":"\u6e2f\u6e7e\u5c40","survey_name":"\u76f8\u99ac\u6e2f\u30b1\u30fc\u30bd\u30f3\u30e4\u30fc\u30c9\u4ea4\u5dee\u90e8\u57fa\u76e4\u8abf\u67fb","client_name":"\u56fd\u571f\u4ea4\u901a\u7701\u6771\u5317\u5730\u65b9\u6574\u5099\u5c40\u4ed9\u53f0\u6e2f\u6e7e\u7a7a\u6e2f\u6280\u8853\u8abf\u67fb\u4e8b\u52d9\u6240","boring_xml_url":0,"boring_view_url":0,"soilmap_view_url":66,"soiltest_xml_url":0,"soiltest_view_url":0},{"id":115466,"code":"B4KJ201801000-3715","latitude":"37.8305189","longitude":"140.9629694","source_code":"PORT07008010007","project_name":"\u6e2f\u6e7e\u5c40","survey_name":"\u76f8\u99ac\u6e2f\u30b1\u30fc\u30bd\u30f3\u30e4\u30fc\u30c9\u57fa\u76e4\u8abf\u67fb","client_name":"\u56fd\u571f\u4ea4\u901a\u7701\u6771\u5317\u5730\u65b9\u6574\u5099\u5c40\u4ed9\u53f0\u6e2f\u6e7e\u7a7a\u6e2f\u6280\u8853\u8abf\u67fb\u4e8b\u52d9\u6240","boring_xml_url":0,"boring_view_url":0,"soilmap_view_url":66,"soiltest_xml_url":0,"soiltest_view_url":0}]}}