{"header":{"xyz":{"source":[],"mosaic":false},"page":6858,"raw":{"soiltest_result":"0","bbox":"57.598333,109.544722,1.933333,163.806111","page":"6858"},"conditions":{"soiltest_result":0,"north":57.598333,"west":109.544722,"south":1.933333,"east":163.806111},"success":true,"message":""},"data":{"meta":{"total":212844,"page":6858,"pages":7095,"count":30},"values":[{"id":114835,"code":"B4KJ201801000-3084","latitude":"36.94228332","longitude":"140.8960619","source_code":"PORT07001010011","project_name":"\u6e2f\u6e7e\u5c40","survey_name":"\u662d\u548c63\u5e74\u5ea6\u5c0f\u540d\u6d5c\u6e2f3\u53f7\u57e0\u982d\u5cb8\u58c1(-10m)3\u30fb4\u30d0\u30fc\u30b9\u571f\u8cea\u8abf\u67fb","client_name":"\u56fd\u571f\u4ea4\u901a\u7701\u6771\u5317\u5730\u65b9\u6574\u5099\u5c40\u4ed9\u53f0\u6e2f\u6e7e\u7a7a\u6e2f\u6280\u8853\u8abf\u67fb\u4e8b\u52d9\u6240","boring_xml_url":0,"boring_view_url":0,"soilmap_view_url":66,"soiltest_xml_url":0,"soiltest_view_url":66},{"id":114834,"code":"B4KJ201801000-3083","latitude":"36.94117231","longitude":"140.8957843","source_code":"PORT07001010010","project_name":"\u6e2f\u6e7e\u5c40","survey_name":"\u662d\u548c63\u5e74\u5ea6\u5c0f\u540d\u6d5c\u6e2f3\u53f7\u57e0\u982d\u5cb8\u58c1(-10m)3\u30fb4\u30d0\u30fc\u30b9\u571f\u8cea\u8abf\u67fb","client_name":"\u56fd\u571f\u4ea4\u901a\u7701\u6771\u5317\u5730\u65b9\u6574\u5099\u5c40\u4ed9\u53f0\u6e2f\u6e7e\u7a7a\u6e2f\u6280\u8853\u8abf\u67fb\u4e8b\u52d9\u6240","boring_xml_url":0,"boring_view_url":0,"soilmap_view_url":66,"soiltest_xml_url":0,"soiltest_view_url":66},{"id":114833,"code":"B4KJ201801000-3082","latitude":"36.93978355","longitude":"140.8955067","source_code":"PORT07001010009","project_name":"\u6e2f\u6e7e\u5c40","survey_name":"\u662d\u548c63\u5e74\u5ea6\u5c0f\u540d\u6d5c\u6e2f3\u53f7\u57e0\u982d\u5cb8\u58c1(-10m)3\u30fb4\u30d0\u30fc\u30b9\u571f\u8cea\u8abf\u67fb","client_name":"\u56fd\u571f\u4ea4\u901a\u7701\u6771\u5317\u5730\u65b9\u6574\u5099\u5c40\u4ed9\u53f0\u6e2f\u6e7e\u7a7a\u6e2f\u6280\u8853\u8abf\u67fb\u4e8b\u52d9\u6240","boring_xml_url":0,"boring_view_url":0,"soilmap_view_url":66,"soiltest_xml_url":0,"soiltest_view_url":66},{"id":114832,"code":"B4KJ201801000-3081","latitude":"36.91693029","longitude":"140.9086091","source_code":"PORT07001010008","project_name":"\u6e2f\u6e7e\u5c40","survey_name":"\u662d\u548c60\u5e74\u5ea6\u5c0f\u540d\u6d5c\u6e2f\u571f\u8cea\u8abf\u67fb","client_name":"\u56fd\u571f\u4ea4\u901a\u7701\u6771\u5317\u5730\u65b9\u6574\u5099\u5c40\u4ed9\u53f0\u6e2f\u6e7e\u7a7a\u6e2f\u6280\u8853\u8abf\u67fb\u4e8b\u52d9\u6240","boring_xml_url":0,"boring_view_url":0,"soilmap_view_url":66,"soiltest_xml_url":0,"soiltest_view_url":66},{"id":114831,"code":"B4KJ201801000-3080","latitude":"36.91663165","longitude":"140.9075503","source_code":"PORT07001010007","project_name":"\u6e2f\u6e7e\u5c40","survey_name":"\u662d\u548c60\u5e74\u5ea6\u5c0f\u540d\u6d5c\u6e2f\u571f\u8cea\u8abf\u67fb","client_name":"\u56fd\u571f\u4ea4\u901a\u7701\u6771\u5317\u5730\u65b9\u6574\u5099\u5c40\u4ed9\u53f0\u6e2f\u6e7e\u7a7a\u6e2f\u6280\u8853\u8abf\u67fb\u4e8b\u52d9\u6240","boring_xml_url":0,"boring_view_url":0,"soilmap_view_url":66,"soiltest_xml_url":0,"soiltest_view_url":66},{"id":114830,"code":"B4KJ201801000-3079","latitude":"36.91633302","longitude":"140.9064916","source_code":"PORT07001010006","project_name":"\u6e2f\u6e7e\u5c40","survey_name":"\u662d\u548c60\u5e74\u5ea6\u5c0f\u540d\u6d5c\u6e2f\u571f\u8cea\u8abf\u67fb","client_name":"\u56fd\u571f\u4ea4\u901a\u7701\u6771\u5317\u5730\u65b9\u6574\u5099\u5c40\u4ed9\u53f0\u6e2f\u6e7e\u7a7a\u6e2f\u6280\u8853\u8abf\u67fb\u4e8b\u52d9\u6240","boring_xml_url":0,"boring_view_url":0,"soilmap_view_url":66,"soiltest_xml_url":0,"soiltest_view_url":66},{"id":114829,"code":"B4KJ201801000-3078","latitude":"36.91603436","longitude":"140.9054328","source_code":"PORT07001010005","project_name":"\u6e2f\u6e7e\u5c40","survey_name":"\u662d\u548c60\u5e74\u5ea6\u5c0f\u540d\u6d5c\u6e2f\u571f\u8cea\u8abf\u67fb","client_name":"\u56fd\u571f\u4ea4\u901a\u7701\u6771\u5317\u5730\u65b9\u6574\u5099\u5c40\u4ed9\u53f0\u6e2f\u6e7e\u7a7a\u6e2f\u6280\u8853\u8abf\u67fb\u4e8b\u52d9\u6240","boring_xml_url":0,"boring_view_url":0,"soilmap_view_url":66,"soiltest_xml_url":0,"soiltest_view_url":66},{"id":114828,"code":"B4KJ201801000-3077","latitude":"36.91573572","longitude":"140.904374","source_code":"PORT07001010004","project_name":"\u6e2f\u6e7e\u5c40","survey_name":"\u662d\u548c60\u5e74\u5ea6\u5c0f\u540d\u6d5c\u6e2f\u571f\u8cea\u8abf\u67fb","client_name":"\u56fd\u571f\u4ea4\u901a\u7701\u6771\u5317\u5730\u65b9\u6574\u5099\u5c40\u4ed9\u53f0\u6e2f\u6e7e\u7a7a\u6e2f\u6280\u8853\u8abf\u67fb\u4e8b\u52d9\u6240","boring_xml_url":0,"boring_view_url":0,"soilmap_view_url":66,"soiltest_xml_url":0,"soiltest_view_url":66},{"id":114827,"code":"B4KJ201801000-3076","latitude":"36.91543706","longitude":"140.9033161","source_code":"PORT07001010003","project_name":"\u6e2f\u6e7e\u5c40","survey_name":"\u662d\u548c60\u5e74\u5ea6\u5c0f\u540d\u6d5c\u6e2f\u571f\u8cea\u8abf\u67fb","client_name":"\u56fd\u571f\u4ea4\u901a\u7701\u6771\u5317\u5730\u65b9\u6574\u5099\u5c40\u4ed9\u53f0\u6e2f\u6e7e\u7a7a\u6e2f\u6280\u8853\u8abf\u67fb\u4e8b\u52d9\u6240","boring_xml_url":0,"boring_view_url":0,"soilmap_view_url":66,"soiltest_xml_url":0,"soiltest_view_url":66},{"id":114826,"code":"B4KJ201801000-3075","latitude":"36.91513837","longitude":"140.9022565","source_code":"PORT07001010002","project_name":"\u6e2f\u6e7e\u5c40","survey_name":"\u662d\u548c60\u5e74\u5ea6\u5c0f\u540d\u6d5c\u6e2f\u571f\u8cea\u8abf\u67fb","client_name":"\u56fd\u571f\u4ea4\u901a\u7701\u6771\u5317\u5730\u65b9\u6574\u5099\u5c40\u4ed9\u53f0\u6e2f\u6e7e\u7a7a\u6e2f\u6280\u8853\u8abf\u67fb\u4e8b\u52d9\u6240","boring_xml_url":0,"boring_view_url":0,"soilmap_view_url":66,"soiltest_xml_url":0,"soiltest_view_url":66},{"id":114825,"code":"B4KJ201801000-3074","latitude":"36.90718306","longitude":"140.9006688","source_code":"PORT07001010001","project_name":"\u6e2f\u6e7e\u5c40","survey_name":"\u662d\u548c60\u5e74\u5ea6\u5c0f\u540d\u6d5c\u6e2f\u571f\u8cea\u8abf\u67fb","client_name":"\u56fd\u571f\u4ea4\u901a\u7701\u6771\u5317\u5730\u65b9\u6574\u5099\u5c40\u4ed9\u53f0\u6e2f\u6e7e\u7a7a\u6e2f\u6280\u8853\u8abf\u67fb\u4e8b\u52d9\u6240","boring_xml_url":0,"boring_view_url":0,"soilmap_view_url":66,"soiltest_xml_url":0,"soiltest_view_url":66},{"id":114824,"code":"B4KJ201801000-3073","latitude":"36.91439165","longitude":"140.8996097","source_code":"PORT07001010000","project_name":"\u6e2f\u6e7e\u5c40","survey_name":"\u662d\u548c60\u5e74\u5ea6\u5c0f\u540d\u6d5c\u6e2f\u571f\u8cea\u8abf\u67fb","client_name":"\u56fd\u571f\u4ea4\u901a\u7701\u6771\u5317\u5730\u65b9\u6574\u5099\u5c40\u4ed9\u53f0\u6e2f\u6e7e\u7a7a\u6e2f\u6280\u8853\u8abf\u67fb\u4e8b\u52d9\u6240","boring_xml_url":0,"boring_view_url":0,"soilmap_view_url":66,"soiltest_xml_url":0,"soiltest_view_url":66},{"id":114823,"code":"B4KJ201801000-3072","latitude":"38.93930556","longitude":"139.7885556","source_code":"PORT06001010366","project_name":"\u6e2f\u6e7e\u5c40","survey_name":"\u5e73\u621016\u5e74\u5ea6\u9152\u7530\u6e2f\u5317\u6e2f\u5730\u533a\u9632\u6ce2\u5824(\u5317)(\u7b2c\u4e8c)\u571f\u8cea\u8abf\u67fb","client_name":"\u56fd\u571f\u4ea4\u901a\u7701\u6771\u5317\u5730\u65b9\u6574\u5099\u5c40\u4ed9\u53f0\u6e2f\u6e7e\u7a7a\u6e2f\u6280\u8853\u8abf\u67fb\u4e8b\u52d9\u6240","boring_xml_url":0,"boring_view_url":0,"soilmap_view_url":66,"soiltest_xml_url":0,"soiltest_view_url":66},{"id":114822,"code":"B4KJ201801000-3071","latitude":"38.94022222","longitude":"139.7898333","source_code":"PORT06001010365","project_name":"\u6e2f\u6e7e\u5c40","survey_name":"\u5e73\u621016\u5e74\u5ea6\u9152\u7530\u6e2f\u5317\u6e2f\u5730\u533a\u9632\u6ce2\u5824(\u5317)(\u7b2c\u4e8c)\u571f\u8cea\u8abf\u67fb","client_name":"\u56fd\u571f\u4ea4\u901a\u7701\u6771\u5317\u5730\u65b9\u6574\u5099\u5c40\u4ed9\u53f0\u6e2f\u6e7e\u7a7a\u6e2f\u6280\u8853\u8abf\u67fb\u4e8b\u52d9\u6240","boring_xml_url":0,"boring_view_url":0,"soilmap_view_url":66,"soiltest_xml_url":0,"soiltest_view_url":66},{"id":114821,"code":"B4KJ201801000-3070","latitude":"38.95897651","longitude":"139.8329636","source_code":"PORT06001010364","project_name":"\u6e2f\u6e7e\u5c40","survey_name":"\u9152\u7530\u6e2f(\u5317\u6e2f\u5730\u533a)\u6cca\u5730(-10m)\u571f\u8cea\u8abf\u67fb\u5831\u544a\u66f8\u5e73\u621011\u5e7411\u6708\u5e73\u621011\u5e74\u5ea6","client_name":"\u56fd\u571f\u4ea4\u901a\u7701\u6771\u5317\u5730\u65b9\u6574\u5099\u5c40\u4ed9\u53f0\u6e2f\u6e7e\u7a7a\u6e2f\u6280\u8853\u8abf\u67fb\u4e8b\u52d9\u6240","boring_xml_url":0,"boring_view_url":0,"soilmap_view_url":66,"soiltest_xml_url":0,"soiltest_view_url":66},{"id":114820,"code":"B4KJ201801000-3069","latitude":"38.95981905","longitude":"139.8333716","source_code":"PORT06001010363","project_name":"\u6e2f\u6e7e\u5c40","survey_name":"\u9152\u7530\u6e2f(\u5317\u6e2f\u5730\u533a)\u6cca\u5730(-10m)\u571f\u8cea\u8abf\u67fb\u5831\u544a\u66f8\u5e73\u621011\u5e7411\u6708\u5e73\u621011\u5e74\u5ea6","client_name":"\u56fd\u571f\u4ea4\u901a\u7701\u6771\u5317\u5730\u65b9\u6574\u5099\u5c40\u4ed9\u53f0\u6e2f\u6e7e\u7a7a\u6e2f\u6280\u8853\u8abf\u67fb\u4e8b\u52d9\u6240","boring_xml_url":0,"boring_view_url":0,"soilmap_view_url":66,"soiltest_xml_url":0,"soiltest_view_url":66},{"id":114819,"code":"B4KJ201801000-3068","latitude":"38.93503771","longitude":"139.8104196","source_code":"PORT06001010346","project_name":"\u6e2f\u6e7e\u5c40","survey_name":"\u9152\u7530\u6e2f\u571f\u8cea\u8abf\u67fb\u5de5\u4e8b\u5831\u544a\u66f8\u662d\u548c38\u5e7410\u6708","client_name":"\u56fd\u571f\u4ea4\u901a\u7701\u6771\u5317\u5730\u65b9\u6574\u5099\u5c40\u4ed9\u53f0\u6e2f\u6e7e\u7a7a\u6e2f\u6280\u8853\u8abf\u67fb\u4e8b\u52d9\u6240","boring_xml_url":0,"boring_view_url":0,"soilmap_view_url":66,"soiltest_xml_url":0,"soiltest_view_url":66},{"id":114818,"code":"B4KJ201801000-3067","latitude":"38.93598082","longitude":"139.8112559","source_code":"PORT06001010345","project_name":"\u6e2f\u6e7e\u5c40","survey_name":"\u9152\u7530\u6e2f\u571f\u8cea\u8abf\u67fb\u5de5\u4e8b\u5831\u544a\u66f8\u662d\u548c38\u5e7410\u6708","client_name":"\u56fd\u571f\u4ea4\u901a\u7701\u6771\u5317\u5730\u65b9\u6574\u5099\u5c40\u4ed9\u53f0\u6e2f\u6e7e\u7a7a\u6e2f\u6280\u8853\u8abf\u67fb\u4e8b\u52d9\u6240","boring_xml_url":0,"boring_view_url":0,"soilmap_view_url":66,"soiltest_xml_url":0,"soiltest_view_url":66},{"id":114817,"code":"B4KJ201801000-3066","latitude":"38.94459673","longitude":"139.8143081","source_code":"PORT06001010344","project_name":"\u6e2f\u6e7e\u5c40","survey_name":"\u9152\u7530\u6e2f\u571f\u8cea\u8abf\u67fb\u5de5\u4e8b\u5831\u544a\u66f8\u662d\u548c38\u5e7410\u6708","client_name":"\u56fd\u571f\u4ea4\u901a\u7701\u6771\u5317\u5730\u65b9\u6574\u5099\u5c40\u4ed9\u53f0\u6e2f\u6e7e\u7a7a\u6e2f\u6280\u8853\u8abf\u67fb\u4e8b\u52d9\u6240","boring_xml_url":0,"boring_view_url":0,"soilmap_view_url":66,"soiltest_xml_url":0,"soiltest_view_url":66},{"id":114816,"code":"B4KJ201801000-3065","latitude":"38.94318782","longitude":"139.8115484","source_code":"PORT06001010343","project_name":"\u6e2f\u6e7e\u5c40","survey_name":"\u9152\u7530\u6e2f\u571f\u8cea\u8abf\u67fb\u5de5\u4e8b\u5831\u544a\u66f8\u662d\u548c38\u5e7410\u6708","client_name":"\u56fd\u571f\u4ea4\u901a\u7701\u6771\u5317\u5730\u65b9\u6574\u5099\u5c40\u4ed9\u53f0\u6e2f\u6e7e\u7a7a\u6e2f\u6280\u8853\u8abf\u67fb\u4e8b\u52d9\u6240","boring_xml_url":0,"boring_view_url":0,"soilmap_view_url":66,"soiltest_xml_url":0,"soiltest_view_url":66},{"id":114815,"code":"B4KJ201801000-3064","latitude":"38.91915693","longitude":"139.8205811","source_code":"PORT06001010340","project_name":"\u6e2f\u6e7e\u5c40","survey_name":"\u9152\u7530\u6e2f\u571f\u8cea\u8abf\u67fb\u5de5\u4e8b\u5831\u544a\u66f8\u662d\u548c39\u5e7410\u6708","client_name":"\u56fd\u571f\u4ea4\u901a\u7701\u6771\u5317\u5730\u65b9\u6574\u5099\u5c40\u4ed9\u53f0\u6e2f\u6e7e\u7a7a\u6e2f\u6280\u8853\u8abf\u67fb\u4e8b\u52d9\u6240","boring_xml_url":0,"boring_view_url":0,"soilmap_view_url":66,"soiltest_xml_url":0,"soiltest_view_url":0},{"id":114814,"code":"B4KJ201801000-3063","latitude":"38.91943637","longitude":"139.820372","source_code":"PORT06001010339","project_name":"\u6e2f\u6e7e\u5c40","survey_name":"\u9152\u7530\u6e2f\u571f\u8cea\u8abf\u67fb\u5de5\u4e8b\u5831\u544a\u66f8\u662d\u548c39\u5e7410\u6708","client_name":"\u56fd\u571f\u4ea4\u901a\u7701\u6771\u5317\u5730\u65b9\u6574\u5099\u5c40\u4ed9\u53f0\u6e2f\u6e7e\u7a7a\u6e2f\u6280\u8853\u8abf\u67fb\u4e8b\u52d9\u6240","boring_xml_url":0,"boring_view_url":0,"soilmap_view_url":66,"soiltest_xml_url":0,"soiltest_view_url":0},{"id":114813,"code":"B4KJ201801000-3062","latitude":"38.91966923","longitude":"139.820163","source_code":"PORT06001010338","project_name":"\u6e2f\u6e7e\u5c40","survey_name":"\u9152\u7530\u6e2f\u571f\u8cea\u8abf\u67fb\u5de5\u4e8b\u5831\u544a\u66f8\u662d\u548c39\u5e7410\u6708","client_name":"\u56fd\u571f\u4ea4\u901a\u7701\u6771\u5317\u5730\u65b9\u6574\u5099\u5c40\u4ed9\u53f0\u6e2f\u6e7e\u7a7a\u6e2f\u6280\u8853\u8abf\u67fb\u4e8b\u52d9\u6240","boring_xml_url":0,"boring_view_url":0,"soilmap_view_url":66,"soiltest_xml_url":0,"soiltest_view_url":0},{"id":114812,"code":"B4KJ201801000-3061","latitude":"38.91998359","longitude":"139.819912","source_code":"PORT06001010337","project_name":"\u6e2f\u6e7e\u5c40","survey_name":"\u9152\u7530\u6e2f\u571f\u8cea\u8abf\u67fb\u5de5\u4e8b\u5831\u544a\u66f8\u662d\u548c39\u5e7410\u6708","client_name":"\u56fd\u571f\u4ea4\u901a\u7701\u6771\u5317\u5730\u65b9\u6574\u5099\u5c40\u4ed9\u53f0\u6e2f\u6e7e\u7a7a\u6e2f\u6280\u8853\u8abf\u67fb\u4e8b\u52d9\u6240","boring_xml_url":0,"boring_view_url":0,"soilmap_view_url":66,"soiltest_xml_url":0,"soiltest_view_url":0},{"id":114811,"code":"B4KJ201801000-3060","latitude":"38.92919293","longitude":"139.8106985","source_code":"PORT06001010336","project_name":"\u6e2f\u6e7e\u5c40","survey_name":"\u9152\u7530\u6e2f\u571f\u8cea\u8abf\u67fb\u5de5\u4e8b\u5831\u544a\u66f8\u662d\u548c40\u5e743\u6708","client_name":"\u56fd\u571f\u4ea4\u901a\u7701\u6771\u5317\u5730\u65b9\u6574\u5099\u5c40\u4ed9\u53f0\u6e2f\u6e7e\u7a7a\u6e2f\u6280\u8853\u8abf\u67fb\u4e8b\u52d9\u6240","boring_xml_url":0,"boring_view_url":0,"soilmap_view_url":66,"soiltest_xml_url":0,"soiltest_view_url":66},{"id":114810,"code":"B4KJ201801000-3059","latitude":"38.92430267","longitude":"139.7985494","source_code":"PORT06001010335","project_name":"\u6e2f\u6e7e\u5c40","survey_name":"\u9152\u7530\u6e2f\u571f\u8cea\u8abf\u67fb\u5de5\u4e8b\u5831\u544a\u66f8\u662d\u548c40\u5e743\u6708","client_name":"\u56fd\u571f\u4ea4\u901a\u7701\u6771\u5317\u5730\u65b9\u6574\u5099\u5c40\u4ed9\u53f0\u6e2f\u6e7e\u7a7a\u6e2f\u6280\u8853\u8abf\u67fb\u4e8b\u52d9\u6240","boring_xml_url":0,"boring_view_url":0,"soilmap_view_url":66,"soiltest_xml_url":0,"soiltest_view_url":66},{"id":114809,"code":"B4KJ201801000-3058","latitude":"38.93605501","longitude":"139.8200928","source_code":"PORT06001010334","project_name":"\u6e2f\u6e7e\u5c40","survey_name":"\u9152\u7530\u6e2f\u571f\u8cea\u8abf\u67fb\u5de5\u4e8b\u5831\u544a\u66f8\u662d\u548c40\u5e743\u6708","client_name":"\u56fd\u571f\u4ea4\u901a\u7701\u6771\u5317\u5730\u65b9\u6574\u5099\u5c40\u4ed9\u53f0\u6e2f\u6e7e\u7a7a\u6e2f\u6280\u8853\u8abf\u67fb\u4e8b\u52d9\u6240","boring_xml_url":0,"boring_view_url":0,"soilmap_view_url":66,"soiltest_xml_url":0,"soiltest_view_url":66},{"id":114808,"code":"B4KJ201801000-3057","latitude":"38.91881929","longitude":"139.8204836","source_code":"PORT06001010333","project_name":"\u6e2f\u6e7e\u5c40","survey_name":"\u9152\u7530\u6e2f\u571f\u8cea\u8abf\u67fb\u5de5\u4e8b\u5831\u544a\u66f8\u662d\u548c40\u5e743\u6708","client_name":"\u56fd\u571f\u4ea4\u901a\u7701\u6771\u5317\u5730\u65b9\u6574\u5099\u5c40\u4ed9\u53f0\u6e2f\u6e7e\u7a7a\u6e2f\u6280\u8853\u8abf\u67fb\u4e8b\u52d9\u6240","boring_xml_url":0,"boring_view_url":0,"soilmap_view_url":66,"soiltest_xml_url":0,"soiltest_view_url":66},{"id":114807,"code":"B4KJ201801000-3056","latitude":"38.92858799","longitude":"139.8276198","source_code":"PORT06001010332","project_name":"\u6e2f\u6e7e\u5c40","survey_name":"\u9152\u7530\u6e2f\u571f\u8cea\u8abf\u67fb\u5de5\u4e8b\u5831\u544a\u66f8\u662d\u548c47\u5e747\u6708","client_name":"\u56fd\u571f\u4ea4\u901a\u7701\u6771\u5317\u5730\u65b9\u6574\u5099\u5c40\u4ed9\u53f0\u6e2f\u6e7e\u7a7a\u6e2f\u6280\u8853\u8abf\u67fb\u4e8b\u52d9\u6240","boring_xml_url":0,"boring_view_url":0,"soilmap_view_url":66,"soiltest_xml_url":0,"soiltest_view_url":0},{"id":114806,"code":"B4KJ201801000-3055","latitude":"38.92890235","longitude":"139.827578","source_code":"PORT06001010331","project_name":"\u6e2f\u6e7e\u5c40","survey_name":"\u9152\u7530\u6e2f\u571f\u8cea\u8abf\u67fb\u5de5\u4e8b\u5831\u544a\u66f8\u662d\u548c47\u5e747\u6708","client_name":"\u56fd\u571f\u4ea4\u901a\u7701\u6771\u5317\u5730\u65b9\u6574\u5099\u5c40\u4ed9\u53f0\u6e2f\u6e7e\u7a7a\u6e2f\u6280\u8853\u8abf\u67fb\u4e8b\u52d9\u6240","boring_xml_url":0,"boring_view_url":0,"soilmap_view_url":66,"soiltest_xml_url":0,"soiltest_view_url":66}]}}