{"header":{"xyz":{"source":[],"mosaic":false},"page":6859,"raw":{"soiltest_result":"0","bbox":"57.598333,109.544722,1.933333,163.806111","page":"6859"},"conditions":{"soiltest_result":0,"north":57.598333,"west":109.544722,"south":1.933333,"east":163.806111},"success":true,"message":""},"data":{"meta":{"total":212844,"page":6859,"pages":7095,"count":30},"values":[{"id":114805,"code":"B4KJ201801000-3054","latitude":"38.92746972","longitude":"139.8084963","source_code":"PORT06001010318","project_name":"\u6e2f\u6e7e\u5c40","survey_name":"\u9152\u7530\u6e2f(\u672c\u6e2f\u5730\u533a)\u571f\u8cea\u8abf\u67fb\u5831\u544a\u66f8\u662d\u548c59\u5e749\u6708","client_name":"\u56fd\u571f\u4ea4\u901a\u7701\u6771\u5317\u5730\u65b9\u6574\u5099\u5c40\u4ed9\u53f0\u6e2f\u6e7e\u7a7a\u6e2f\u6280\u8853\u8abf\u67fb\u4e8b\u52d9\u6240","boring_xml_url":0,"boring_view_url":0,"soilmap_view_url":66,"soiltest_xml_url":0,"soiltest_view_url":66},{"id":114804,"code":"B4KJ201801000-3053","latitude":"38.95130319","longitude":"139.8181271","source_code":"PORT06001010317","project_name":"\u6e2f\u6e7e\u5c40","survey_name":"\u662d\u548c61\u5e74\u5ea6\u9152\u7530\u6e2f(\u5317\u6e2f\u5730\u533a)\u571f\u8cea\u8abf\u67fb","client_name":"\u56fd\u571f\u4ea4\u901a\u7701\u6771\u5317\u5730\u65b9\u6574\u5099\u5c40\u4ed9\u53f0\u6e2f\u6e7e\u7a7a\u6e2f\u6280\u8853\u8abf\u67fb\u4e8b\u52d9\u6240","boring_xml_url":0,"boring_view_url":0,"soilmap_view_url":66,"soiltest_xml_url":0,"soiltest_view_url":0},{"id":114803,"code":"B4KJ201801000-3052","latitude":"38.94987107","longitude":"139.8173884","source_code":"PORT06001010316","project_name":"\u6e2f\u6e7e\u5c40","survey_name":"\u662d\u548c61\u5e74\u5ea6\u9152\u7530\u6e2f(\u5317\u6e2f\u5730\u533a)\u571f\u8cea\u8abf\u67fb","client_name":"\u56fd\u571f\u4ea4\u901a\u7701\u6771\u5317\u5730\u65b9\u6574\u5099\u5c40\u4ed9\u53f0\u6e2f\u6e7e\u7a7a\u6e2f\u6280\u8853\u8abf\u67fb\u4e8b\u52d9\u6240","boring_xml_url":0,"boring_view_url":0,"soilmap_view_url":66,"soiltest_xml_url":0,"soiltest_view_url":0},{"id":114802,"code":"B4KJ201801000-3051","latitude":"38.95178049","longitude":"139.8168865","source_code":"PORT06001010315","project_name":"\u6e2f\u6e7e\u5c40","survey_name":"\u662d\u548c61\u5e74\u5ea6\u9152\u7530\u6e2f(\u5317\u6e2f\u5730\u533a)\u571f\u8cea\u8abf\u67fb","client_name":"\u56fd\u571f\u4ea4\u901a\u7701\u6771\u5317\u5730\u65b9\u6574\u5099\u5c40\u4ed9\u53f0\u6e2f\u6e7e\u7a7a\u6e2f\u6280\u8853\u8abf\u67fb\u4e8b\u52d9\u6240","boring_xml_url":0,"boring_view_url":0,"soilmap_view_url":66,"soiltest_xml_url":0,"soiltest_view_url":0},{"id":114801,"code":"B4KJ201801000-3050","latitude":"38.95059287","longitude":"139.8153115","source_code":"PORT06001010314","project_name":"\u6e2f\u6e7e\u5c40","survey_name":"\u662d\u548c61\u5e74\u5ea6\u9152\u7530\u6e2f(\u5317\u6e2f\u5730\u533a)\u571f\u8cea\u8abf\u67fb","client_name":"\u56fd\u571f\u4ea4\u901a\u7701\u6771\u5317\u5730\u65b9\u6574\u5099\u5c40\u4ed9\u53f0\u6e2f\u6e7e\u7a7a\u6e2f\u6280\u8853\u8abf\u67fb\u4e8b\u52d9\u6240","boring_xml_url":0,"boring_view_url":0,"soilmap_view_url":66,"soiltest_xml_url":0,"soiltest_view_url":0},{"id":114800,"code":"B4KJ201801000-3049","latitude":"38.95161742","longitude":"139.8148376","source_code":"PORT06001010313","project_name":"\u6e2f\u6e7e\u5c40","survey_name":"\u662d\u548c61\u5e74\u5ea6\u9152\u7530\u6e2f(\u5317\u6e2f\u5730\u533a)\u571f\u8cea\u8abf\u67fb","client_name":"\u56fd\u571f\u4ea4\u901a\u7701\u6771\u5317\u5730\u65b9\u6574\u5099\u5c40\u4ed9\u53f0\u6e2f\u6e7e\u7a7a\u6e2f\u6280\u8853\u8abf\u67fb\u4e8b\u52d9\u6240","boring_xml_url":0,"boring_view_url":0,"soilmap_view_url":66,"soiltest_xml_url":0,"soiltest_view_url":0},{"id":114799,"code":"B4KJ201801000-3048","latitude":"38.95117493","longitude":"139.8132486","source_code":"PORT06001010312","project_name":"\u6e2f\u6e7e\u5c40","survey_name":"\u662d\u548c61\u5e74\u5ea6\u9152\u7530\u6e2f(\u5317\u6e2f\u5730\u533a)\u571f\u8cea\u8abf\u67fb","client_name":"\u56fd\u571f\u4ea4\u901a\u7701\u6771\u5317\u5730\u65b9\u6574\u5099\u5c40\u4ed9\u53f0\u6e2f\u6e7e\u7a7a\u6e2f\u6280\u8853\u8abf\u67fb\u4e8b\u52d9\u6240","boring_xml_url":0,"boring_view_url":0,"soilmap_view_url":66,"soiltest_xml_url":0,"soiltest_view_url":0},{"id":114798,"code":"B4KJ201801000-3047","latitude":"38.95219946","longitude":"139.8124959","source_code":"PORT06001010311","project_name":"\u6e2f\u6e7e\u5c40","survey_name":"\u662d\u548c61\u5e74\u5ea6\u9152\u7530\u6e2f(\u5317\u6e2f\u5730\u533a)\u571f\u8cea\u8abf\u67fb","client_name":"\u56fd\u571f\u4ea4\u901a\u7701\u6771\u5317\u5730\u65b9\u6574\u5099\u5c40\u4ed9\u53f0\u6e2f\u6e7e\u7a7a\u6e2f\u6280\u8853\u8abf\u67fb\u4e8b\u52d9\u6240","boring_xml_url":0,"boring_view_url":0,"soilmap_view_url":66,"soiltest_xml_url":0,"soiltest_view_url":0},{"id":114797,"code":"B4KJ201801000-3046","latitude":"38.95143103","longitude":"139.8121475","source_code":"PORT06001010310","project_name":"\u6e2f\u6e7e\u5c40","survey_name":"\u662d\u548c61\u5e74\u5ea6\u9152\u7530\u6e2f(\u5317\u6e2f\u5730\u533a)\u571f\u8cea\u8abf\u67fb","client_name":"\u56fd\u571f\u4ea4\u901a\u7701\u6771\u5317\u5730\u65b9\u6574\u5099\u5c40\u4ed9\u53f0\u6e2f\u6e7e\u7a7a\u6e2f\u6280\u8853\u8abf\u67fb\u4e8b\u52d9\u6240","boring_xml_url":0,"boring_view_url":0,"soilmap_view_url":66,"soiltest_xml_url":0,"soiltest_view_url":0},{"id":114796,"code":"B4KJ201801000-3045","latitude":"38.92752806","longitude":"139.8134305","source_code":"PORT06001010309","project_name":"\u6e2f\u6e7e\u5c40","survey_name":"\u5e73\u62103\u5e74\u5ea6\u9152\u7530\u6e2f(\u672c\u6e2f\u5730\u533a)\u5cb8\u58c1(-10m)\u571f\u8cea\u8abf\u67fb","client_name":"\u56fd\u571f\u4ea4\u901a\u7701\u6771\u5317\u5730\u65b9\u6574\u5099\u5c40\u4ed9\u53f0\u6e2f\u6e7e\u7a7a\u6e2f\u6280\u8853\u8abf\u67fb\u4e8b\u52d9\u6240","boring_xml_url":0,"boring_view_url":0,"soilmap_view_url":66,"soiltest_xml_url":0,"soiltest_view_url":0},{"id":114795,"code":"B4KJ201801000-3044","latitude":"38.92767943","longitude":"139.8140159","source_code":"PORT06001010308","project_name":"\u6e2f\u6e7e\u5c40","survey_name":"\u5e73\u62103\u5e74\u5ea6\u9152\u7530\u6e2f(\u672c\u6e2f\u5730\u533a)\u5cb8\u58c1(-10m)\u571f\u8cea\u8abf\u67fb","client_name":"\u56fd\u571f\u4ea4\u901a\u7701\u6771\u5317\u5730\u65b9\u6574\u5099\u5c40\u4ed9\u53f0\u6e2f\u6e7e\u7a7a\u6e2f\u6280\u8853\u8abf\u67fb\u4e8b\u52d9\u6240","boring_xml_url":0,"boring_view_url":0,"soilmap_view_url":66,"soiltest_xml_url":0,"soiltest_view_url":0},{"id":114794,"code":"B4KJ201801000-3043","latitude":"38.92781918","longitude":"139.8145734","source_code":"PORT06001010307","project_name":"\u6e2f\u6e7e\u5c40","survey_name":"\u5e73\u62103\u5e74\u5ea6\u9152\u7530\u6e2f(\u672c\u6e2f\u5730\u533a)\u5cb8\u58c1(-10m)\u571f\u8cea\u8abf\u67fb","client_name":"\u56fd\u571f\u4ea4\u901a\u7701\u6771\u5317\u5730\u65b9\u6574\u5099\u5c40\u4ed9\u53f0\u6e2f\u6e7e\u7a7a\u6e2f\u6280\u8853\u8abf\u67fb\u4e8b\u52d9\u6240","boring_xml_url":0,"boring_view_url":0,"soilmap_view_url":66,"soiltest_xml_url":0,"soiltest_view_url":0},{"id":114793,"code":"B4KJ201801000-3042","latitude":"38.95374805","longitude":"139.8146703","source_code":"PORT06001010306","project_name":"\u6e2f\u6e7e\u5c40","survey_name":"\u5e73\u621010\u5e74\u5ea6\u9152\u7530\u6e2f(\u5916\u6e2f\u5730\u533a)\u5cb8\u58c1(-14m)\u571f\u8cea\u8abf\u67fb","client_name":"\u56fd\u571f\u4ea4\u901a\u7701\u6771\u5317\u5730\u65b9\u6574\u5099\u5c40\u4ed9\u53f0\u6e2f\u6e7e\u7a7a\u6e2f\u6280\u8853\u8abf\u67fb\u4e8b\u52d9\u6240","boring_xml_url":0,"boring_view_url":0,"soilmap_view_url":66,"soiltest_xml_url":0,"soiltest_view_url":66},{"id":114792,"code":"B4KJ201801000-3041","latitude":"38.95318927","longitude":"139.8162453","source_code":"PORT06001010305","project_name":"\u6e2f\u6e7e\u5c40","survey_name":"\u5e73\u621010\u5e74\u5ea6\u9152\u7530\u6e2f(\u5916\u6e2f\u5730\u533a)\u5cb8\u58c1(-14m)\u571f\u8cea\u8abf\u67fb","client_name":"\u56fd\u571f\u4ea4\u901a\u7701\u6771\u5317\u5730\u65b9\u6574\u5099\u5c40\u4ed9\u53f0\u6e2f\u6e7e\u7a7a\u6e2f\u6280\u8853\u8abf\u67fb\u4e8b\u52d9\u6240","boring_xml_url":0,"boring_view_url":0,"soilmap_view_url":66,"soiltest_xml_url":0,"soiltest_view_url":66},{"id":114791,"code":"B4KJ201801000-3040","latitude":"38.95273523","longitude":"139.817458","source_code":"PORT06001010304","project_name":"\u6e2f\u6e7e\u5c40","survey_name":"\u5e73\u621010\u5e74\u5ea6\u9152\u7530\u6e2f(\u5916\u6e2f\u5730\u533a)\u5cb8\u58c1(-14m)\u571f\u8cea\u8abf\u67fb","client_name":"\u56fd\u571f\u4ea4\u901a\u7701\u6771\u5317\u5730\u65b9\u6574\u5099\u5c40\u4ed9\u53f0\u6e2f\u6e7e\u7a7a\u6e2f\u6280\u8853\u8abf\u67fb\u4e8b\u52d9\u6240","boring_xml_url":0,"boring_view_url":0,"soilmap_view_url":66,"soiltest_xml_url":0,"soiltest_view_url":66},{"id":114790,"code":"B4KJ201801000-3039","latitude":"38.95374805","longitude":"139.8146703","source_code":"PORT06001010303","project_name":"\u6e2f\u6e7e\u5c40","survey_name":"\u5e73\u621011\u5e74\u5ea6\u9152\u7530\u6e2f(\u5916\u6e2f\u5730\u533a)\u5cb8\u58c1(-14m)\u571f\u8cea\u8abf\u67fb","client_name":"\u56fd\u571f\u4ea4\u901a\u7701\u6771\u5317\u5730\u65b9\u6574\u5099\u5c40\u4ed9\u53f0\u6e2f\u6e7e\u7a7a\u6e2f\u6280\u8853\u8abf\u67fb\u4e8b\u52d9\u6240","boring_xml_url":0,"boring_view_url":0,"soilmap_view_url":66,"soiltest_xml_url":0,"soiltest_view_url":66},{"id":114789,"code":"B4KJ201801000-3038","latitude":"38.95318927","longitude":"139.8162453","source_code":"PORT06001010302","project_name":"\u6e2f\u6e7e\u5c40","survey_name":"\u5e73\u621011\u5e74\u5ea6\u9152\u7530\u6e2f(\u5916\u6e2f\u5730\u533a)\u5cb8\u58c1(-14m)\u571f\u8cea\u8abf\u67fb","client_name":"\u56fd\u571f\u4ea4\u901a\u7701\u6771\u5317\u5730\u65b9\u6574\u5099\u5c40\u4ed9\u53f0\u6e2f\u6e7e\u7a7a\u6e2f\u6280\u8853\u8abf\u67fb\u4e8b\u52d9\u6240","boring_xml_url":0,"boring_view_url":0,"soilmap_view_url":66,"soiltest_xml_url":0,"soiltest_view_url":66},{"id":114788,"code":"B4KJ201801000-3037","latitude":"38.95273523","longitude":"139.817458","source_code":"PORT06001010301","project_name":"\u6e2f\u6e7e\u5c40","survey_name":"\u5e73\u621011\u5e74\u5ea6\u9152\u7530\u6e2f(\u5916\u6e2f\u5730\u533a)\u5cb8\u58c1(-14m)\u571f\u8cea\u8abf\u67fb","client_name":"\u56fd\u571f\u4ea4\u901a\u7701\u6771\u5317\u5730\u65b9\u6574\u5099\u5c40\u4ed9\u53f0\u6e2f\u6e7e\u7a7a\u6e2f\u6280\u8853\u8abf\u67fb\u4e8b\u52d9\u6240","boring_xml_url":0,"boring_view_url":0,"soilmap_view_url":66,"soiltest_xml_url":0,"soiltest_view_url":66},{"id":114787,"code":"B4KJ201801000-3036","latitude":"38.93591844","longitude":"139.7927486","source_code":"PORT06001010254","project_name":"\u6e2f\u6e7e\u5c40","survey_name":"\u5e73\u62108\u5e74\u5ea6\u9152\u7530\u6e2f(\u672c\u6e2f\u5730\u533a)\u9632\u6ce2\u5824(\u5357)\u571f\u8cea\u8abf\u67fb","client_name":"\u56fd\u571f\u4ea4\u901a\u7701\u6771\u5317\u5730\u65b9\u6574\u5099\u5c40\u4ed9\u53f0\u6e2f\u6e7e\u7a7a\u6e2f\u6280\u8853\u8abf\u67fb\u4e8b\u52d9\u6240","boring_xml_url":0,"boring_view_url":0,"soilmap_view_url":66,"soiltest_xml_url":0,"soiltest_view_url":66},{"id":114786,"code":"B4KJ201801000-3035","latitude":"38.93536298","longitude":"139.7944151","source_code":"PORT06001010253","project_name":"\u6e2f\u6e7e\u5c40","survey_name":"\u5e73\u62108\u5e74\u5ea6\u9152\u7530\u6e2f(\u672c\u6e2f\u5730\u533a)\u9632\u6ce2\u5824(\u5357)\u571f\u8cea\u8abf\u67fb","client_name":"\u56fd\u571f\u4ea4\u901a\u7701\u6771\u5317\u5730\u65b9\u6574\u5099\u5c40\u4ed9\u53f0\u6e2f\u6e7e\u7a7a\u6e2f\u6280\u8853\u8abf\u67fb\u4e8b\u52d9\u6240","boring_xml_url":0,"boring_view_url":0,"soilmap_view_url":66,"soiltest_xml_url":0,"soiltest_view_url":66},{"id":114785,"code":"B4KJ201801000-3034","latitude":"38.95786176","longitude":"139.8352444","source_code":"PORT06001010152","project_name":"\u6e2f\u6e7e\u5c40","survey_name":"\u5e73\u62108\u5e74\u5ea6\u9152\u7530\u6e2f(\u5317\u6e2f\u5730\u533a)\u5cb8\u58c1(-10m)\u571f\u8cea\u8abf\u67fb","client_name":"\u56fd\u571f\u4ea4\u901a\u7701\u6771\u5317\u5730\u65b9\u6574\u5099\u5c40\u4ed9\u53f0\u6e2f\u6e7e\u7a7a\u6e2f\u6280\u8853\u8abf\u67fb\u4e8b\u52d9\u6240","boring_xml_url":0,"boring_view_url":0,"soilmap_view_url":66,"soiltest_xml_url":0,"soiltest_view_url":66},{"id":114784,"code":"B4KJ201801000-3033","latitude":"38.95786175","longitude":"139.8346889","source_code":"PORT06001010151","project_name":"\u6e2f\u6e7e\u5c40","survey_name":"\u5e73\u62108\u5e74\u5ea6\u9152\u7530\u6e2f(\u5317\u6e2f\u5730\u533a)\u5cb8\u58c1(-10m)\u571f\u8cea\u8abf\u67fb","client_name":"\u56fd\u571f\u4ea4\u901a\u7701\u6771\u5317\u5730\u65b9\u6574\u5099\u5c40\u4ed9\u53f0\u6e2f\u6e7e\u7a7a\u6e2f\u6280\u8853\u8abf\u67fb\u4e8b\u52d9\u6240","boring_xml_url":0,"boring_view_url":0,"soilmap_view_url":66,"soiltest_xml_url":0,"soiltest_view_url":66},{"id":114783,"code":"B4KJ201801000-3032","latitude":"38.958695","longitude":"139.8357999","source_code":"PORT06001010150","project_name":"\u6e2f\u6e7e\u5c40","survey_name":"\u5e73\u62108\u5e74\u5ea6\u9152\u7530\u6e2f(\u5317\u6e2f\u5730\u533a)\u5cb8\u58c1(-10m)\u571f\u8cea\u8abf\u67fb","client_name":"\u56fd\u571f\u4ea4\u901a\u7701\u6771\u5317\u5730\u65b9\u6574\u5099\u5c40\u4ed9\u53f0\u6e2f\u6e7e\u7a7a\u6e2f\u6280\u8853\u8abf\u67fb\u4e8b\u52d9\u6240","boring_xml_url":0,"boring_view_url":0,"soilmap_view_url":66,"soiltest_xml_url":0,"soiltest_view_url":66},{"id":114782,"code":"B4KJ201801000-3031","latitude":"38.95869499","longitude":"139.8352444","source_code":"PORT06001010149","project_name":"\u6e2f\u6e7e\u5c40","survey_name":"\u5e73\u62108\u5e74\u5ea6\u9152\u7530\u6e2f(\u5317\u6e2f\u5730\u533a)\u5cb8\u58c1(-10m)\u571f\u8cea\u8abf\u67fb","client_name":"\u56fd\u571f\u4ea4\u901a\u7701\u6771\u5317\u5730\u65b9\u6574\u5099\u5c40\u4ed9\u53f0\u6e2f\u6e7e\u7a7a\u6e2f\u6280\u8853\u8abf\u67fb\u4e8b\u52d9\u6240","boring_xml_url":0,"boring_view_url":0,"soilmap_view_url":66,"soiltest_xml_url":0,"soiltest_view_url":66},{"id":114781,"code":"B4KJ201801000-3030","latitude":"38.957584","longitude":"139.8346889","source_code":"PORT06001010148","project_name":"\u6e2f\u6e7e\u5c40","survey_name":"\u5e73\u62108\u5e74\u5ea6\u9152\u7530\u6e2f(\u5317\u6e2f\u5730\u533a)\u5cb8\u58c1(-10m)\u571f\u8cea\u8abf\u67fb","client_name":"\u56fd\u571f\u4ea4\u901a\u7701\u6771\u5317\u5730\u65b9\u6574\u5099\u5c40\u4ed9\u53f0\u6e2f\u6e7e\u7a7a\u6e2f\u6280\u8853\u8abf\u67fb\u4e8b\u52d9\u6240","boring_xml_url":0,"boring_view_url":0,"soilmap_view_url":66,"soiltest_xml_url":0,"soiltest_view_url":66},{"id":114780,"code":"B4KJ201801000-3029","latitude":"38.95786175","longitude":"139.8349666","source_code":"PORT06001010147","project_name":"\u6e2f\u6e7e\u5c40","survey_name":"\u5e73\u62108\u5e74\u5ea6\u9152\u7530\u6e2f(\u5317\u6e2f\u5730\u533a)\u5cb8\u58c1(-10m)\u571f\u8cea\u8abf\u67fb","client_name":"\u56fd\u571f\u4ea4\u901a\u7701\u6771\u5317\u5730\u65b9\u6574\u5099\u5c40\u4ed9\u53f0\u6e2f\u6e7e\u7a7a\u6e2f\u6280\u8853\u8abf\u67fb\u4e8b\u52d9\u6240","boring_xml_url":0,"boring_view_url":0,"soilmap_view_url":66,"soiltest_xml_url":0,"soiltest_view_url":66},{"id":114779,"code":"B4KJ201801000-3028","latitude":"38.95841725","longitude":"139.8352444","source_code":"PORT06001010146","project_name":"\u6e2f\u6e7e\u5c40","survey_name":"\u5e73\u62108\u5e74\u5ea6\u9152\u7530\u6e2f(\u5317\u6e2f\u5730\u533a)\u5cb8\u58c1(-10m)\u571f\u8cea\u8abf\u67fb","client_name":"\u56fd\u571f\u4ea4\u901a\u7701\u6771\u5317\u5730\u65b9\u6574\u5099\u5c40\u4ed9\u53f0\u6e2f\u6e7e\u7a7a\u6e2f\u6280\u8853\u8abf\u67fb\u4e8b\u52d9\u6240","boring_xml_url":0,"boring_view_url":0,"soilmap_view_url":66,"soiltest_xml_url":0,"soiltest_view_url":66},{"id":114778,"code":"B4KJ201801000-3027","latitude":"38.958695","longitude":"139.8355221","source_code":"PORT06001010145","project_name":"\u6e2f\u6e7e\u5c40","survey_name":"\u5e73\u62108\u5e74\u5ea6\u9152\u7530\u6e2f(\u5317\u6e2f\u5730\u533a)\u5cb8\u58c1(-10m)\u571f\u8cea\u8abf\u67fb","client_name":"\u56fd\u571f\u4ea4\u901a\u7701\u6771\u5317\u5730\u65b9\u6574\u5099\u5c40\u4ed9\u53f0\u6e2f\u6e7e\u7a7a\u6e2f\u6280\u8853\u8abf\u67fb\u4e8b\u52d9\u6240","boring_xml_url":0,"boring_view_url":0,"soilmap_view_url":66,"soiltest_xml_url":0,"soiltest_view_url":66},{"id":114777,"code":"B4KJ201801000-3026","latitude":"38.95925049","longitude":"139.8357998","source_code":"PORT06001010144","project_name":"\u6e2f\u6e7e\u5c40","survey_name":"\u5e73\u62108\u5e74\u5ea6\u9152\u7530\u6e2f(\u5317\u6e2f\u5730\u533a)\u5cb8\u58c1(-10m)\u571f\u8cea\u8abf\u67fb","client_name":"\u56fd\u571f\u4ea4\u901a\u7701\u6771\u5317\u5730\u65b9\u6574\u5099\u5c40\u4ed9\u53f0\u6e2f\u6e7e\u7a7a\u6e2f\u6280\u8853\u8abf\u67fb\u4e8b\u52d9\u6240","boring_xml_url":0,"boring_view_url":0,"soilmap_view_url":66,"soiltest_xml_url":0,"soiltest_view_url":66},{"id":114776,"code":"B4KJ201801000-3025","latitude":"38.9517511","longitude":"139.8196903","source_code":"PORT06001010143","project_name":"\u6e2f\u6e7e\u5c40","survey_name":"\u9152\u7530\u6e2f\u5916\u6e2f\u5730\u533a\u571f\u8cea\u8abf\u67fb","client_name":"\u56fd\u571f\u4ea4\u901a\u7701\u6771\u5317\u5730\u65b9\u6574\u5099\u5c40\u4ed9\u53f0\u6e2f\u6e7e\u7a7a\u6e2f\u6280\u8853\u8abf\u67fb\u4e8b\u52d9\u6240","boring_xml_url":0,"boring_view_url":0,"soilmap_view_url":66,"soiltest_xml_url":0,"soiltest_view_url":66}]}}