{"header":{"xyz":{"source":[],"mosaic":false},"page":6895,"raw":{"soiltest_result":"0","bbox":"57.598333,109.544722,1.933333,163.806111","page":"6895"},"conditions":{"soiltest_result":0,"north":57.598333,"west":109.544722,"south":1.933333,"east":163.806111},"success":true,"message":""},"data":{"meta":{"total":212844,"page":6895,"pages":7095,"count":30},"values":[{"id":113725,"code":"B4KJ201801000-1974","latitude":"38.27159068","longitude":"141.0173789","source_code":"PORT04001010212","project_name":"\u6e2f\u6e7e\u5c40","survey_name":"(\u662d\u548c46\u5e74\u5ea6)\u5869\u91dc\u6e2f\u4ed9\u53f0\u6e2f\u533a\u571f\u8cea\u8abf\u67fb\u53ca\u3073\u8a66\u9a13\u5de5\u4e8b","client_name":"\u56fd\u571f\u4ea4\u901a\u7701\u6771\u5317\u5730\u65b9\u6574\u5099\u5c40\u4ed9\u53f0\u6e2f\u6e7e\u7a7a\u6e2f\u6280\u8853\u8abf\u67fb\u4e8b\u52d9\u6240","boring_xml_url":0,"boring_view_url":0,"soilmap_view_url":66,"soiltest_xml_url":0,"soiltest_view_url":66},{"id":113724,"code":"B4KJ201801000-1973","latitude":"38.27159066","longitude":"141.0168234","source_code":"PORT04001010211","project_name":"\u6e2f\u6e7e\u5c40","survey_name":"(\u662d\u548c46\u5e74\u5ea6)\u5869\u91dc\u6e2f\u4ed9\u53f0\u6e2f\u533a\u571f\u8cea\u8abf\u67fb\u53ca\u3073\u8a66\u9a13\u5de5\u4e8b","client_name":"\u56fd\u571f\u4ea4\u901a\u7701\u6771\u5317\u5730\u65b9\u6574\u5099\u5c40\u4ed9\u53f0\u6e2f\u6e7e\u7a7a\u6e2f\u6280\u8853\u8abf\u67fb\u4e8b\u52d9\u6240","boring_xml_url":0,"boring_view_url":0,"soilmap_view_url":66,"soiltest_xml_url":0,"soiltest_view_url":66},{"id":113723,"code":"B4KJ201801000-1972","latitude":"38.27186838","longitude":"141.0157124","source_code":"PORT04001010210","project_name":"\u6e2f\u6e7e\u5c40","survey_name":"(\u662d\u548c46\u5e74\u5ea6)\u5869\u91dc\u6e2f\u4ed9\u53f0\u6e2f\u533a\u571f\u8cea\u8abf\u67fb\u53ca\u3073\u8a66\u9a13\u5de5\u4e8b","client_name":"\u56fd\u571f\u4ea4\u901a\u7701\u6771\u5317\u5730\u65b9\u6574\u5099\u5c40\u4ed9\u53f0\u6e2f\u6e7e\u7a7a\u6e2f\u6280\u8853\u8abf\u67fb\u4e8b\u52d9\u6240","boring_xml_url":0,"boring_view_url":0,"soilmap_view_url":66,"soiltest_xml_url":0,"soiltest_view_url":66},{"id":113722,"code":"B4KJ201801000-1971","latitude":"38.27186836","longitude":"141.0151569","source_code":"PORT04001010209","project_name":"\u6e2f\u6e7e\u5c40","survey_name":"(\u662d\u548c46\u5e74\u5ea6)\u5869\u91dc\u6e2f\u4ed9\u53f0\u6e2f\u533a\u571f\u8cea\u8abf\u67fb\u53ca\u3073\u8a66\u9a13\u5de5\u4e8b","client_name":"\u56fd\u571f\u4ea4\u901a\u7701\u6771\u5317\u5730\u65b9\u6574\u5099\u5c40\u4ed9\u53f0\u6e2f\u6e7e\u7a7a\u6e2f\u6280\u8853\u8abf\u67fb\u4e8b\u52d9\u6240","boring_xml_url":0,"boring_view_url":0,"soilmap_view_url":66,"soiltest_xml_url":0,"soiltest_view_url":0},{"id":113721,"code":"B4KJ201801000-1970","latitude":"38.27186834","longitude":"141.0146014","source_code":"PORT04001010208","project_name":"\u6e2f\u6e7e\u5c40","survey_name":"(\u662d\u548c46\u5e74\u5ea6)\u5869\u91dc\u6e2f\u4ed9\u53f0\u6e2f\u533a\u571f\u8cea\u8abf\u67fb\u53ca\u3073\u8a66\u9a13\u5de5\u4e8b","client_name":"\u56fd\u571f\u4ea4\u901a\u7701\u6771\u5317\u5730\u65b9\u6574\u5099\u5c40\u4ed9\u53f0\u6e2f\u6e7e\u7a7a\u6e2f\u6280\u8853\u8abf\u67fb\u4e8b\u52d9\u6240","boring_xml_url":0,"boring_view_url":0,"soilmap_view_url":66,"soiltest_xml_url":0,"soiltest_view_url":66},{"id":113720,"code":"B4KJ201801000-1969","latitude":"38.27186833","longitude":"141.0140458","source_code":"PORT04001010207","project_name":"\u6e2f\u6e7e\u5c40","survey_name":"(\u662d\u548c46\u5e74\u5ea6)\u5869\u91dc\u6e2f\u4ed9\u53f0\u6e2f\u533a\u571f\u8cea\u8abf\u67fb\u53ca\u3073\u8a66\u9a13\u5de5\u4e8b","client_name":"\u56fd\u571f\u4ea4\u901a\u7701\u6771\u5317\u5730\u65b9\u6574\u5099\u5c40\u4ed9\u53f0\u6e2f\u6e7e\u7a7a\u6e2f\u6280\u8853\u8abf\u67fb\u4e8b\u52d9\u6240","boring_xml_url":0,"boring_view_url":0,"soilmap_view_url":66,"soiltest_xml_url":0,"soiltest_view_url":0},{"id":113719,"code":"B4KJ201801000-1968","latitude":"38.27214616","longitude":"141.0171011","source_code":"PORT04001010206","project_name":"\u6e2f\u6e7e\u5c40","survey_name":"(\u662d\u548c46\u5e74\u5ea6)\u5869\u91dc\u6e2f\u4ed9\u53f0\u6e2f\u533a\u571f\u8cea\u8abf\u67fb\u53ca\u3073\u8a66\u9a13\u5de5\u4e8b","client_name":"\u56fd\u571f\u4ea4\u901a\u7701\u6771\u5317\u5730\u65b9\u6574\u5099\u5c40\u4ed9\u53f0\u6e2f\u6e7e\u7a7a\u6e2f\u6280\u8853\u8abf\u67fb\u4e8b\u52d9\u6240","boring_xml_url":0,"boring_view_url":0,"soilmap_view_url":66,"soiltest_xml_url":0,"soiltest_view_url":66},{"id":113718,"code":"B4KJ201801000-1967","latitude":"38.27214612","longitude":"141.0157124","source_code":"PORT04001010205","project_name":"\u6e2f\u6e7e\u5c40","survey_name":"(\u662d\u548c46\u5e74\u5ea6)\u5869\u91dc\u6e2f\u4ed9\u53f0\u6e2f\u533a\u571f\u8cea\u8abf\u67fb\u53ca\u3073\u8a66\u9a13\u5de5\u4e8b","client_name":"\u56fd\u571f\u4ea4\u901a\u7701\u6771\u5317\u5730\u65b9\u6574\u5099\u5c40\u4ed9\u53f0\u6e2f\u6e7e\u7a7a\u6e2f\u6280\u8853\u8abf\u67fb\u4e8b\u52d9\u6240","boring_xml_url":0,"boring_view_url":0,"soilmap_view_url":66,"soiltest_xml_url":0,"soiltest_view_url":0},{"id":113717,"code":"B4KJ201801000-1966","latitude":"38.27242383","longitude":"141.0146013","source_code":"PORT04001010204","project_name":"\u6e2f\u6e7e\u5c40","survey_name":"(\u662d\u548c46\u5e74\u5ea6)\u5869\u91dc\u6e2f\u4ed9\u53f0\u6e2f\u533a\u571f\u8cea\u8abf\u67fb\u53ca\u3073\u8a66\u9a13\u5de5\u4e8b","client_name":"\u56fd\u571f\u4ea4\u901a\u7701\u6771\u5317\u5730\u65b9\u6574\u5099\u5c40\u4ed9\u53f0\u6e2f\u6e7e\u7a7a\u6e2f\u6280\u8853\u8abf\u67fb\u4e8b\u52d9\u6240","boring_xml_url":0,"boring_view_url":0,"soilmap_view_url":66,"soiltest_xml_url":0,"soiltest_view_url":66},{"id":113716,"code":"B4KJ201801000-1965","latitude":"38.27159069","longitude":"141.0179344","source_code":"PORT04001010196","project_name":"\u6e2f\u6e7e\u5c40","survey_name":"\u662d\u548c45\u5e74\u5ea6\u5869\u91dc\u6e2f\u4ed9\u53f0\u65b0\u6e2f\u571f\u8cea\u8abf\u67fb\u53ca\u3073\u8a66\u9a13\u5de5\u4e8b","client_name":"\u56fd\u571f\u4ea4\u901a\u7701\u6771\u5317\u5730\u65b9\u6574\u5099\u5c40\u4ed9\u53f0\u6e2f\u6e7e\u7a7a\u6e2f\u6280\u8853\u8abf\u67fb\u4e8b\u52d9\u6240","boring_xml_url":0,"boring_view_url":0,"soilmap_view_url":66,"soiltest_xml_url":0,"soiltest_view_url":0},{"id":113715,"code":"B4KJ201801000-1964","latitude":"38.27131296","longitude":"141.0184899","source_code":"PORT04001010195","project_name":"\u6e2f\u6e7e\u5c40","survey_name":"\u662d\u548c45\u5e74\u5ea6\u5869\u91dc\u6e2f\u4ed9\u53f0\u65b0\u6e2f\u571f\u8cea\u8abf\u67fb\u53ca\u3073\u8a66\u9a13\u5de5\u4e8b","client_name":"\u56fd\u571f\u4ea4\u901a\u7701\u6771\u5317\u5730\u65b9\u6574\u5099\u5c40\u4ed9\u53f0\u6e2f\u6e7e\u7a7a\u6e2f\u6280\u8853\u8abf\u67fb\u4e8b\u52d9\u6240","boring_xml_url":0,"boring_view_url":0,"soilmap_view_url":66,"soiltest_xml_url":0,"soiltest_view_url":66},{"id":113714,"code":"B4KJ201801000-1963","latitude":"38.27131298","longitude":"141.0190454","source_code":"PORT04001010194","project_name":"\u6e2f\u6e7e\u5c40","survey_name":"\u662d\u548c45\u5e74\u5ea6\u5869\u91dc\u6e2f\u4ed9\u53f0\u65b0\u6e2f\u571f\u8cea\u8abf\u67fb\u53ca\u3073\u8a66\u9a13\u5de5\u4e8b","client_name":"\u56fd\u571f\u4ea4\u901a\u7701\u6771\u5317\u5730\u65b9\u6574\u5099\u5c40\u4ed9\u53f0\u6e2f\u6e7e\u7a7a\u6e2f\u6280\u8853\u8abf\u67fb\u4e8b\u52d9\u6240","boring_xml_url":0,"boring_view_url":0,"soilmap_view_url":66,"soiltest_xml_url":0,"soiltest_view_url":66},{"id":113713,"code":"B4KJ201801000-1962","latitude":"38.271313","longitude":"141.0196009","source_code":"PORT04001010193","project_name":"\u6e2f\u6e7e\u5c40","survey_name":"\u662d\u548c45\u5e74\u5ea6\u5869\u91dc\u6e2f\u4ed9\u53f0\u65b0\u6e2f\u571f\u8cea\u8abf\u67fb\u53ca\u3073\u8a66\u9a13\u5de5\u4e8b","client_name":"\u56fd\u571f\u4ea4\u901a\u7701\u6771\u5317\u5730\u65b9\u6574\u5099\u5c40\u4ed9\u53f0\u6e2f\u6e7e\u7a7a\u6e2f\u6280\u8853\u8abf\u67fb\u4e8b\u52d9\u6240","boring_xml_url":0,"boring_view_url":0,"soilmap_view_url":66,"soiltest_xml_url":0,"soiltest_view_url":0},{"id":113712,"code":"B4KJ201801000-1961","latitude":"38.27131301","longitude":"141.0201565","source_code":"PORT04001010192","project_name":"\u6e2f\u6e7e\u5c40","survey_name":"\u662d\u548c45\u5e74\u5ea6\u5869\u91dc\u6e2f\u4ed9\u53f0\u65b0\u6e2f\u571f\u8cea\u8abf\u67fb\u53ca\u3073\u8a66\u9a13\u5de5\u4e8b","client_name":"\u56fd\u571f\u4ea4\u901a\u7701\u6771\u5317\u5730\u65b9\u6574\u5099\u5c40\u4ed9\u53f0\u6e2f\u6e7e\u7a7a\u6e2f\u6280\u8853\u8abf\u67fb\u4e8b\u52d9\u6240","boring_xml_url":0,"boring_view_url":0,"soilmap_view_url":66,"soiltest_xml_url":0,"soiltest_view_url":0},{"id":113711,"code":"B4KJ201801000-1960","latitude":"38.27131303","longitude":"141.020712","source_code":"PORT04001010191","project_name":"\u6e2f\u6e7e\u5c40","survey_name":"\u662d\u548c45\u5e74\u5ea6\u5869\u91dc\u6e2f\u4ed9\u53f0\u65b0\u6e2f\u571f\u8cea\u8abf\u67fb\u53ca\u3073\u8a66\u9a13\u5de5\u4e8b","client_name":"\u56fd\u571f\u4ea4\u901a\u7701\u6771\u5317\u5730\u65b9\u6574\u5099\u5c40\u4ed9\u53f0\u6e2f\u6e7e\u7a7a\u6e2f\u6280\u8853\u8abf\u67fb\u4e8b\u52d9\u6240","boring_xml_url":0,"boring_view_url":0,"soilmap_view_url":66,"soiltest_xml_url":0,"soiltest_view_url":0},{"id":113710,"code":"B4KJ201801000-1959","latitude":"38.27131305","longitude":"141.0212675","source_code":"PORT04001010190","project_name":"\u6e2f\u6e7e\u5c40","survey_name":"\u662d\u548c45\u5e74\u5ea6\u5869\u91dc\u6e2f\u4ed9\u53f0\u65b0\u6e2f\u571f\u8cea\u8abf\u67fb\u53ca\u3073\u8a66\u9a13\u5de5\u4e8b","client_name":"\u56fd\u571f\u4ea4\u901a\u7701\u6771\u5317\u5730\u65b9\u6574\u5099\u5c40\u4ed9\u53f0\u6e2f\u6e7e\u7a7a\u6e2f\u6280\u8853\u8abf\u67fb\u4e8b\u52d9\u6240","boring_xml_url":0,"boring_view_url":0,"soilmap_view_url":66,"soiltest_xml_url":0,"soiltest_view_url":66},{"id":113709,"code":"B4KJ201801000-1958","latitude":"38.26464791","longitude":"141.0470989","source_code":"PORT04001010189","project_name":"\u6e2f\u6e7e\u5c40","survey_name":"\u662d\u548c45\u5e74\u5ea6\u5869\u91dc\u6e2f\u4ed9\u53f0\u65b0\u6e2f\u571f\u8cea\u8abf\u67fb\u53ca\u3073\u8a66\u9a13\u5de5\u4e8b","client_name":"\u56fd\u571f\u4ea4\u901a\u7701\u6771\u5317\u5730\u65b9\u6574\u5099\u5c40\u4ed9\u53f0\u6e2f\u6e7e\u7a7a\u6e2f\u6280\u8853\u8abf\u67fb\u4e8b\u52d9\u6240","boring_xml_url":0,"boring_view_url":0,"soilmap_view_url":66,"soiltest_xml_url":0,"soiltest_view_url":0},{"id":113708,"code":"B4KJ201801000-1957","latitude":"38.26492564","longitude":"141.0465434","source_code":"PORT04001010188","project_name":"\u6e2f\u6e7e\u5c40","survey_name":"\u662d\u548c45\u5e74\u5ea6\u5869\u91dc\u6e2f\u4ed9\u53f0\u65b0\u6e2f\u571f\u8cea\u8abf\u67fb\u53ca\u3073\u8a66\u9a13\u5de5\u4e8b","client_name":"\u56fd\u571f\u4ea4\u901a\u7701\u6771\u5317\u5730\u65b9\u6574\u5099\u5c40\u4ed9\u53f0\u6e2f\u6e7e\u7a7a\u6e2f\u6280\u8853\u8abf\u67fb\u4e8b\u52d9\u6240","boring_xml_url":0,"boring_view_url":0,"soilmap_view_url":66,"soiltest_xml_url":0,"soiltest_view_url":66},{"id":113707,"code":"B4KJ201801000-1956","latitude":"38.26492561","longitude":"141.0457101","source_code":"PORT04001010187","project_name":"\u6e2f\u6e7e\u5c40","survey_name":"\u662d\u548c45\u5e74\u5ea6\u5869\u91dc\u6e2f\u4ed9\u53f0\u65b0\u6e2f\u571f\u8cea\u8abf\u67fb\u53ca\u3073\u8a66\u9a13\u5de5\u4e8b","client_name":"\u56fd\u571f\u4ea4\u901a\u7701\u6771\u5317\u5730\u65b9\u6574\u5099\u5c40\u4ed9\u53f0\u6e2f\u6e7e\u7a7a\u6e2f\u6280\u8853\u8abf\u67fb\u4e8b\u52d9\u6240","boring_xml_url":0,"boring_view_url":0,"soilmap_view_url":66,"soiltest_xml_url":0,"soiltest_view_url":66},{"id":113706,"code":"B4KJ201801000-1955","latitude":"38.2649256","longitude":"141.0451546","source_code":"PORT04001010186","project_name":"\u6e2f\u6e7e\u5c40","survey_name":"\u662d\u548c45\u5e74\u5ea6\u5869\u91dc\u6e2f\u4ed9\u53f0\u65b0\u6e2f\u571f\u8cea\u8abf\u67fb\u53ca\u3073\u8a66\u9a13\u5de5\u4e8b","client_name":"\u56fd\u571f\u4ea4\u901a\u7701\u6771\u5317\u5730\u65b9\u6574\u5099\u5c40\u4ed9\u53f0\u6e2f\u6e7e\u7a7a\u6e2f\u6280\u8853\u8abf\u67fb\u4e8b\u52d9\u6240","boring_xml_url":0,"boring_view_url":0,"soilmap_view_url":66,"soiltest_xml_url":0,"soiltest_view_url":66},{"id":113705,"code":"B4KJ201801000-1954","latitude":"38.26492558","longitude":"141.0445991","source_code":"PORT04001010185","project_name":"\u6e2f\u6e7e\u5c40","survey_name":"\u662d\u548c45\u5e74\u5ea6\u5869\u91dc\u6e2f\u4ed9\u53f0\u65b0\u6e2f\u571f\u8cea\u8abf\u67fb\u53ca\u3073\u8a66\u9a13\u5de5\u4e8b","client_name":"\u56fd\u571f\u4ea4\u901a\u7701\u6771\u5317\u5730\u65b9\u6574\u5099\u5c40\u4ed9\u53f0\u6e2f\u6e7e\u7a7a\u6e2f\u6280\u8853\u8abf\u67fb\u4e8b\u52d9\u6240","boring_xml_url":0,"boring_view_url":0,"soilmap_view_url":66,"soiltest_xml_url":0,"soiltest_view_url":66},{"id":113704,"code":"B4KJ201801000-1953","latitude":"38.26492556","longitude":"141.0440436","source_code":"PORT04001010184","project_name":"\u6e2f\u6e7e\u5c40","survey_name":"\u662d\u548c45\u5e74\u5ea6\u5869\u91dc\u6e2f\u4ed9\u53f0\u65b0\u6e2f\u571f\u8cea\u8abf\u67fb\u53ca\u3073\u8a66\u9a13\u5de5\u4e8b","client_name":"\u56fd\u571f\u4ea4\u901a\u7701\u6771\u5317\u5730\u65b9\u6574\u5099\u5c40\u4ed9\u53f0\u6e2f\u6e7e\u7a7a\u6e2f\u6280\u8853\u8abf\u67fb\u4e8b\u52d9\u6240","boring_xml_url":0,"boring_view_url":0,"soilmap_view_url":66,"soiltest_xml_url":0,"soiltest_view_url":66},{"id":113703,"code":"B4KJ201801000-1952","latitude":"38.26520329","longitude":"141.0434881","source_code":"PORT04001010183","project_name":"\u6e2f\u6e7e\u5c40","survey_name":"\u662d\u548c45\u5e74\u5ea6\u5869\u91dc\u6e2f\u4ed9\u53f0\u65b0\u6e2f\u571f\u8cea\u8abf\u67fb\u53ca\u3073\u8a66\u9a13\u5de5\u4e8b","client_name":"\u56fd\u571f\u4ea4\u901a\u7701\u6771\u5317\u5730\u65b9\u6574\u5099\u5c40\u4ed9\u53f0\u6e2f\u6e7e\u7a7a\u6e2f\u6280\u8853\u8abf\u67fb\u4e8b\u52d9\u6240","boring_xml_url":0,"boring_view_url":0,"soilmap_view_url":66,"soiltest_xml_url":0,"soiltest_view_url":0},{"id":113702,"code":"B4KJ201801000-1951","latitude":"38.26520328","longitude":"141.0429326","source_code":"PORT04001010182","project_name":"\u6e2f\u6e7e\u5c40","survey_name":"\u662d\u548c45\u5e74\u5ea6\u5869\u91dc\u6e2f\u4ed9\u53f0\u65b0\u6e2f\u571f\u8cea\u8abf\u67fb\u53ca\u3073\u8a66\u9a13\u5de5\u4e8b","client_name":"\u56fd\u571f\u4ea4\u901a\u7701\u6771\u5317\u5730\u65b9\u6574\u5099\u5c40\u4ed9\u53f0\u6e2f\u6e7e\u7a7a\u6e2f\u6280\u8853\u8abf\u67fb\u4e8b\u52d9\u6240","boring_xml_url":0,"boring_view_url":0,"soilmap_view_url":66,"soiltest_xml_url":0,"soiltest_view_url":66},{"id":113701,"code":"B4KJ201801000-1950","latitude":"38.27075814","longitude":"141.0412658","source_code":"PORT04001010163","project_name":"\u6e2f\u6e7e\u5c40","survey_name":"(\u662d\u548c44\u5e74\u5ea6)\u5869\u91dc\u6e2f\u4ed9\u53f0\u65b0\u6e2f\u571f\u8cea\u8abf\u67fb\u53ca\u3073\u8a66\u9a13\u305d\u306e2\u5de5\u4e8b","client_name":"\u56fd\u571f\u4ea4\u901a\u7701\u6771\u5317\u5730\u65b9\u6574\u5099\u5c40\u4ed9\u53f0\u6e2f\u6e7e\u7a7a\u6e2f\u6280\u8853\u8abf\u67fb\u4e8b\u52d9\u6240","boring_xml_url":0,"boring_view_url":0,"soilmap_view_url":66,"soiltest_xml_url":0,"soiltest_view_url":0},{"id":113700,"code":"B4KJ201801000-1949","latitude":"38.27103588","longitude":"141.040988","source_code":"PORT04001010162","project_name":"\u6e2f\u6e7e\u5c40","survey_name":"(\u662d\u548c44\u5e74\u5ea6)\u5869\u91dc\u6e2f\u4ed9\u53f0\u65b0\u6e2f\u571f\u8cea\u8abf\u67fb\u53ca\u3073\u8a66\u9a13\u305d\u306e2\u5de5\u4e8b","client_name":"\u56fd\u571f\u4ea4\u901a\u7701\u6771\u5317\u5730\u65b9\u6574\u5099\u5c40\u4ed9\u53f0\u6e2f\u6e7e\u7a7a\u6e2f\u6280\u8853\u8abf\u67fb\u4e8b\u52d9\u6240","boring_xml_url":0,"boring_view_url":0,"soilmap_view_url":66,"soiltest_xml_url":0,"soiltest_view_url":0},{"id":113699,"code":"B4KJ201801000-1948","latitude":"38.27159137","longitude":"141.040988","source_code":"PORT04001010161","project_name":"\u6e2f\u6e7e\u5c40","survey_name":"(\u662d\u548c44\u5e74\u5ea6)\u5869\u91dc\u6e2f\u4ed9\u53f0\u65b0\u6e2f\u571f\u8cea\u8abf\u67fb\u53ca\u3073\u8a66\u9a13\u305d\u306e2\u5de5\u4e8b","client_name":"\u56fd\u571f\u4ea4\u901a\u7701\u6771\u5317\u5730\u65b9\u6574\u5099\u5c40\u4ed9\u53f0\u6e2f\u6e7e\u7a7a\u6e2f\u6280\u8853\u8abf\u67fb\u4e8b\u52d9\u6240","boring_xml_url":0,"boring_view_url":0,"soilmap_view_url":66,"soiltest_xml_url":0,"soiltest_view_url":0},{"id":113698,"code":"B4KJ201801000-1947","latitude":"38.27186911","longitude":"141.0407102","source_code":"PORT04001010160","project_name":"\u6e2f\u6e7e\u5c40","survey_name":"(\u662d\u548c44\u5e74\u5ea6)\u5869\u91dc\u6e2f\u4ed9\u53f0\u65b0\u6e2f\u571f\u8cea\u8abf\u67fb\u53ca\u3073\u8a66\u9a13\u305d\u306e2\u5de5\u4e8b","client_name":"\u56fd\u571f\u4ea4\u901a\u7701\u6771\u5317\u5730\u65b9\u6574\u5099\u5c40\u4ed9\u53f0\u6e2f\u6e7e\u7a7a\u6e2f\u6280\u8853\u8abf\u67fb\u4e8b\u52d9\u6240","boring_xml_url":0,"boring_view_url":0,"soilmap_view_url":66,"soiltest_xml_url":0,"soiltest_view_url":0},{"id":113697,"code":"B4KJ201801000-1946","latitude":"38.27242459","longitude":"141.0404324","source_code":"PORT04001010159","project_name":"\u6e2f\u6e7e\u5c40","survey_name":"(\u662d\u548c44\u5e74\u5ea6)\u5869\u91dc\u6e2f\u4ed9\u53f0\u65b0\u6e2f\u571f\u8cea\u8abf\u67fb\u53ca\u3073\u8a66\u9a13\u305d\u306e2\u5de5\u4e8b","client_name":"\u56fd\u571f\u4ea4\u901a\u7701\u6771\u5317\u5730\u65b9\u6574\u5099\u5c40\u4ed9\u53f0\u6e2f\u6e7e\u7a7a\u6e2f\u6280\u8853\u8abf\u67fb\u4e8b\u52d9\u6240","boring_xml_url":0,"boring_view_url":0,"soilmap_view_url":66,"soiltest_xml_url":0,"soiltest_view_url":0},{"id":113696,"code":"B4KJ201801000-1945","latitude":"38.27270233","longitude":"141.0401547","source_code":"PORT04001010158","project_name":"\u6e2f\u6e7e\u5c40","survey_name":"(\u662d\u548c44\u5e74\u5ea6)\u5869\u91dc\u6e2f\u4ed9\u53f0\u65b0\u6e2f\u571f\u8cea\u8abf\u67fb\u53ca\u3073\u8a66\u9a13\u305d\u306e2\u5de5\u4e8b","client_name":"\u56fd\u571f\u4ea4\u901a\u7701\u6771\u5317\u5730\u65b9\u6574\u5099\u5c40\u4ed9\u53f0\u6e2f\u6e7e\u7a7a\u6e2f\u6280\u8853\u8abf\u67fb\u4e8b\u52d9\u6240","boring_xml_url":0,"boring_view_url":0,"soilmap_view_url":66,"soiltest_xml_url":0,"soiltest_view_url":0}]}}