{"header":{"xyz":{"source":[],"mosaic":false},"page":6898,"raw":{"soiltest_result":"0","bbox":"57.598333,109.544722,1.933333,163.806111","page":"6898"},"conditions":{"soiltest_result":0,"north":57.598333,"west":109.544722,"south":1.933333,"east":163.806111},"success":true,"message":""},"data":{"meta":{"total":212844,"page":6898,"pages":7095,"count":30},"values":[{"id":113635,"code":"B4KJ201801000-1884","latitude":"38.27909078","longitude":"141.0501535","source_code":"PORT04001010031","project_name":"\u6e2f\u6e7e\u5c40","survey_name":"(\u662d\u548c41\u5e74\u5ea6)\u4ed9\u53f0\u6e7e\u5730\u8cea\u8abf\u67fb\u5de5\u4e8b","client_name":"\u56fd\u571f\u4ea4\u901a\u7701\u6771\u5317\u5730\u65b9\u6574\u5099\u5c40\u4ed9\u53f0\u6e2f\u6e7e\u7a7a\u6e2f\u6280\u8853\u8abf\u67fb\u4e8b\u52d9\u6240","boring_xml_url":0,"boring_view_url":0,"soilmap_view_url":66,"soiltest_xml_url":0,"soiltest_view_url":0},{"id":113634,"code":"B4KJ201801000-1883","latitude":"38.27936854","longitude":"141.050709","source_code":"PORT04001010030","project_name":"\u6e2f\u6e7e\u5c40","survey_name":"(\u662d\u548c41\u5e74\u5ea6)\u4ed9\u53f0\u6e7e\u5730\u8cea\u8abf\u67fb\u5de5\u4e8b","client_name":"\u56fd\u571f\u4ea4\u901a\u7701\u6771\u5317\u5730\u65b9\u6574\u5099\u5c40\u4ed9\u53f0\u6e2f\u6e7e\u7a7a\u6e2f\u6280\u8853\u8abf\u67fb\u4e8b\u52d9\u6240","boring_xml_url":0,"boring_view_url":0,"soilmap_view_url":66,"soiltest_xml_url":0,"soiltest_view_url":0},{"id":113633,"code":"B4KJ201801000-1882","latitude":"38.27936855","longitude":"141.0509867","source_code":"PORT04001010029","project_name":"\u6e2f\u6e7e\u5c40","survey_name":"(\u662d\u548c41\u5e74\u5ea6)\u4ed9\u53f0\u6e7e\u5730\u8cea\u8abf\u67fb\u5de5\u4e8b","client_name":"\u56fd\u571f\u4ea4\u901a\u7701\u6771\u5317\u5730\u65b9\u6574\u5099\u5c40\u4ed9\u53f0\u6e2f\u6e7e\u7a7a\u6e2f\u6280\u8853\u8abf\u67fb\u4e8b\u52d9\u6240","boring_xml_url":0,"boring_view_url":0,"soilmap_view_url":66,"soiltest_xml_url":0,"soiltest_view_url":0},{"id":113632,"code":"B4KJ201801000-1881","latitude":"38.27936856","longitude":"141.0515423","source_code":"PORT04001010028","project_name":"\u6e2f\u6e7e\u5c40","survey_name":"(\u662d\u548c41\u5e74\u5ea6)\u4ed9\u53f0\u6e7e\u5730\u8cea\u8abf\u67fb\u5de5\u4e8b","client_name":"\u56fd\u571f\u4ea4\u901a\u7701\u6771\u5317\u5730\u65b9\u6574\u5099\u5c40\u4ed9\u53f0\u6e2f\u6e7e\u7a7a\u6e2f\u6280\u8853\u8abf\u67fb\u4e8b\u52d9\u6240","boring_xml_url":0,"boring_view_url":0,"soilmap_view_url":66,"soiltest_xml_url":0,"soiltest_view_url":0},{"id":113631,"code":"B4KJ201801000-1880","latitude":"38.27881303","longitude":"141.0498758","source_code":"PORT04001010027","project_name":"\u6e2f\u6e7e\u5c40","survey_name":"(\u662d\u548c41\u5e74\u5ea6)\u4ed9\u53f0\u6e7e\u5730\u8cea\u8abf\u67fb\u5de5\u4e8b","client_name":"\u56fd\u571f\u4ea4\u901a\u7701\u6771\u5317\u5730\u65b9\u6574\u5099\u5c40\u4ed9\u53f0\u6e2f\u6e7e\u7a7a\u6e2f\u6280\u8853\u8abf\u67fb\u4e8b\u52d9\u6240","boring_xml_url":0,"boring_view_url":0,"soilmap_view_url":66,"soiltest_xml_url":0,"soiltest_view_url":0},{"id":113630,"code":"B4KJ201801000-1879","latitude":"38.27909079","longitude":"141.050709","source_code":"PORT04001010026","project_name":"\u6e2f\u6e7e\u5c40","survey_name":"(\u662d\u548c41\u5e74\u5ea6)\u4ed9\u53f0\u6e7e\u5730\u8cea\u8abf\u67fb\u5de5\u4e8b","client_name":"\u56fd\u571f\u4ea4\u901a\u7701\u6771\u5317\u5730\u65b9\u6574\u5099\u5c40\u4ed9\u53f0\u6e2f\u6e7e\u7a7a\u6e2f\u6280\u8853\u8abf\u67fb\u4e8b\u52d9\u6240","boring_xml_url":0,"boring_view_url":0,"soilmap_view_url":66,"soiltest_xml_url":0,"soiltest_view_url":0},{"id":113629,"code":"B4KJ201801000-1878","latitude":"38.27909078","longitude":"141.0501535","source_code":"PORT04001010025","project_name":"\u6e2f\u6e7e\u5c40","survey_name":"(\u662d\u548c41\u5e74\u5ea6)\u4ed9\u53f0\u6e7e\u5730\u8cea\u8abf\u67fb\u5de5\u4e8b","client_name":"\u56fd\u571f\u4ea4\u901a\u7701\u6771\u5317\u5730\u65b9\u6574\u5099\u5c40\u4ed9\u53f0\u6e2f\u6e7e\u7a7a\u6e2f\u6280\u8853\u8abf\u67fb\u4e8b\u52d9\u6240","boring_xml_url":0,"boring_view_url":0,"soilmap_view_url":66,"soiltest_xml_url":0,"soiltest_view_url":0},{"id":113628,"code":"B4KJ201801000-1877","latitude":"38.2790908","longitude":"141.0509868","source_code":"PORT04001010024","project_name":"\u6e2f\u6e7e\u5c40","survey_name":"(\u662d\u548c41\u5e74\u5ea6)\u4ed9\u53f0\u6e7e\u5730\u8cea\u8abf\u67fb\u5de5\u4e8b","client_name":"\u56fd\u571f\u4ea4\u901a\u7701\u6771\u5317\u5730\u65b9\u6574\u5099\u5c40\u4ed9\u53f0\u6e2f\u6e7e\u7a7a\u6e2f\u6280\u8853\u8abf\u67fb\u4e8b\u52d9\u6240","boring_xml_url":0,"boring_view_url":0,"soilmap_view_url":66,"soiltest_xml_url":0,"soiltest_view_url":0},{"id":113627,"code":"B4KJ201801000-1876","latitude":"38.27936856","longitude":"141.0515423","source_code":"PORT04001010023","project_name":"\u6e2f\u6e7e\u5c40","survey_name":"(\u662d\u548c41\u5e74\u5ea6)\u4ed9\u53f0\u6e7e\u5730\u8cea\u8abf\u67fb\u5de5\u4e8b","client_name":"\u56fd\u571f\u4ea4\u901a\u7701\u6771\u5317\u5730\u65b9\u6574\u5099\u5c40\u4ed9\u53f0\u6e2f\u6e7e\u7a7a\u6e2f\u6280\u8853\u8abf\u67fb\u4e8b\u52d9\u6240","boring_xml_url":0,"boring_view_url":0,"soilmap_view_url":66,"soiltest_xml_url":0,"soiltest_view_url":0},{"id":113626,"code":"B4KJ201801000-1875","latitude":"38.26659172","longitude":"141.0332111","source_code":"PORT04001010016","project_name":"\u6e2f\u6e7e\u5c40","survey_name":"\u5e73\u6210\u5143\u5e74\u5ea6\u5869\u91dc\u6e2f\u4ed9\u53f0\u6e2f\u533a\u5cb8\u58c1(-12m)\u571f\u8cea\u8abf\u67fb","client_name":"\u56fd\u571f\u4ea4\u901a\u7701\u6771\u5317\u5730\u65b9\u6574\u5099\u5c40\u4ed9\u53f0\u6e2f\u6e7e\u7a7a\u6e2f\u6280\u8853\u8abf\u67fb\u4e8b\u52d9\u6240","boring_xml_url":0,"boring_view_url":0,"soilmap_view_url":66,"soiltest_xml_url":0,"soiltest_view_url":66},{"id":113625,"code":"B4KJ201801000-1874","latitude":"38.2665917","longitude":"141.0326556","source_code":"PORT04001010015","project_name":"\u6e2f\u6e7e\u5c40","survey_name":"\u5e73\u6210\u5143\u5e74\u5ea6\u5869\u91dc\u6e2f\u4ed9\u53f0\u6e2f\u533a\u5cb8\u58c1(-12m)\u571f\u8cea\u8abf\u67fb","client_name":"\u56fd\u571f\u4ea4\u901a\u7701\u6771\u5317\u5730\u65b9\u6574\u5099\u5c40\u4ed9\u53f0\u6e2f\u6e7e\u7a7a\u6e2f\u6280\u8853\u8abf\u67fb\u4e8b\u52d9\u6240","boring_xml_url":0,"boring_view_url":0,"soilmap_view_url":66,"soiltest_xml_url":0,"soiltest_view_url":66},{"id":113624,"code":"B4KJ201801000-1873","latitude":"38.2665917","longitude":"141.0326556","source_code":"PORT04001010014","project_name":"\u6e2f\u6e7e\u5c40","survey_name":"\u5e73\u6210\u5143\u5e74\u5ea6\u5869\u91dc\u6e2f\u4ed9\u53f0\u6e2f\u533a\u5cb8\u58c1(-12m)\u571f\u8cea\u8abf\u67fb","client_name":"\u56fd\u571f\u4ea4\u901a\u7701\u6771\u5317\u5730\u65b9\u6574\u5099\u5c40\u4ed9\u53f0\u6e2f\u6e7e\u7a7a\u6e2f\u6280\u8853\u8abf\u67fb\u4e8b\u52d9\u6240","boring_xml_url":0,"boring_view_url":0,"soilmap_view_url":66,"soiltest_xml_url":0,"soiltest_view_url":66},{"id":113623,"code":"B4KJ201801000-1872","latitude":"38.26659169","longitude":"141.0321001","source_code":"PORT04001010013","project_name":"\u6e2f\u6e7e\u5c40","survey_name":"\u5e73\u6210\u5143\u5e74\u5ea6\u5869\u91dc\u6e2f\u4ed9\u53f0\u6e2f\u533a\u5cb8\u58c1(-12m)\u571f\u8cea\u8abf\u67fb","client_name":"\u56fd\u571f\u4ea4\u901a\u7701\u6771\u5317\u5730\u65b9\u6574\u5099\u5c40\u4ed9\u53f0\u6e2f\u6e7e\u7a7a\u6e2f\u6280\u8853\u8abf\u67fb\u4e8b\u52d9\u6240","boring_xml_url":0,"boring_view_url":0,"soilmap_view_url":66,"soiltest_xml_url":0,"soiltest_view_url":66},{"id":113622,"code":"B4KJ201801000-1871","latitude":"38.26659167","longitude":"141.0315446","source_code":"PORT04001010012","project_name":"\u6e2f\u6e7e\u5c40","survey_name":"\u5e73\u6210\u5143\u5e74\u5ea6\u5869\u91dc\u6e2f\u4ed9\u53f0\u6e2f\u533a\u5cb8\u58c1(-12m)\u571f\u8cea\u8abf\u67fb","client_name":"\u56fd\u571f\u4ea4\u901a\u7701\u6771\u5317\u5730\u65b9\u6574\u5099\u5c40\u4ed9\u53f0\u6e2f\u6e7e\u7a7a\u6e2f\u6280\u8853\u8abf\u67fb\u4e8b\u52d9\u6240","boring_xml_url":0,"boring_view_url":0,"soilmap_view_url":66,"soiltest_xml_url":0,"soiltest_view_url":66},{"id":113621,"code":"B4KJ201801000-1870","latitude":"38.26686942","longitude":"141.0315446","source_code":"PORT04001010011","project_name":"\u6e2f\u6e7e\u5c40","survey_name":"\u5e73\u6210\u5143\u5e74\u5ea6\u5869\u91dc\u6e2f\u4ed9\u53f0\u6e2f\u533a\u5cb8\u58c1(-12m)\u571f\u8cea\u8abf\u67fb","client_name":"\u56fd\u571f\u4ea4\u901a\u7701\u6771\u5317\u5730\u65b9\u6574\u5099\u5c40\u4ed9\u53f0\u6e2f\u6e7e\u7a7a\u6e2f\u6280\u8853\u8abf\u67fb\u4e8b\u52d9\u6240","boring_xml_url":0,"boring_view_url":0,"soilmap_view_url":66,"soiltest_xml_url":0,"soiltest_view_url":66},{"id":113620,"code":"B4KJ201801000-1869","latitude":"38.26686942","longitude":"141.0315446","source_code":"PORT04001010010","project_name":"\u6e2f\u6e7e\u5c40","survey_name":"\u5e73\u6210\u5143\u5e74\u5ea6\u5869\u91dc\u6e2f\u4ed9\u53f0\u6e2f\u533a\u5cb8\u58c1(-12m)\u571f\u8cea\u8abf\u67fb","client_name":"\u56fd\u571f\u4ea4\u901a\u7701\u6771\u5317\u5730\u65b9\u6574\u5099\u5c40\u4ed9\u53f0\u6e2f\u6e7e\u7a7a\u6e2f\u6280\u8853\u8abf\u67fb\u4e8b\u52d9\u6240","boring_xml_url":0,"boring_view_url":0,"soilmap_view_url":66,"soiltest_xml_url":0,"soiltest_view_url":66},{"id":113619,"code":"B4KJ201801000-1868","latitude":"38.2668694","longitude":"141.0309891","source_code":"PORT04001010009","project_name":"\u6e2f\u6e7e\u5c40","survey_name":"\u5e73\u6210\u5143\u5e74\u5ea6\u5869\u91dc\u6e2f\u4ed9\u53f0\u6e2f\u533a\u5cb8\u58c1(-12m)\u571f\u8cea\u8abf\u67fb","client_name":"\u56fd\u571f\u4ea4\u901a\u7701\u6771\u5317\u5730\u65b9\u6574\u5099\u5c40\u4ed9\u53f0\u6e2f\u6e7e\u7a7a\u6e2f\u6280\u8853\u8abf\u67fb\u4e8b\u52d9\u6240","boring_xml_url":0,"boring_view_url":0,"soilmap_view_url":66,"soiltest_xml_url":0,"soiltest_view_url":66},{"id":113618,"code":"B4KJ201801000-1867","latitude":"38.26659164","longitude":"141.0304336","source_code":"PORT04001010008","project_name":"\u6e2f\u6e7e\u5c40","survey_name":"\u5e73\u6210\u5143\u5e74\u5ea6\u5869\u91dc\u6e2f\u4ed9\u53f0\u6e2f\u533a\u5cb8\u58c1(-12m)\u571f\u8cea\u8abf\u67fb","client_name":"\u56fd\u571f\u4ea4\u901a\u7701\u6771\u5317\u5730\u65b9\u6574\u5099\u5c40\u4ed9\u53f0\u6e2f\u6e7e\u7a7a\u6e2f\u6280\u8853\u8abf\u67fb\u4e8b\u52d9\u6240","boring_xml_url":0,"boring_view_url":0,"soilmap_view_url":66,"soiltest_xml_url":0,"soiltest_view_url":66},{"id":113617,"code":"B4KJ201801000-1866","latitude":"38.26686938","longitude":"141.0304336","source_code":"PORT04001010007","project_name":"\u6e2f\u6e7e\u5c40","survey_name":"\u5e73\u6210\u5143\u5e74\u5ea6\u5869\u91dc\u6e2f\u4ed9\u53f0\u6e2f\u533a\u5cb8\u58c1(-12m)\u571f\u8cea\u8abf\u67fb","client_name":"\u56fd\u571f\u4ea4\u901a\u7701\u6771\u5317\u5730\u65b9\u6574\u5099\u5c40\u4ed9\u53f0\u6e2f\u6e7e\u7a7a\u6e2f\u6280\u8853\u8abf\u67fb\u4e8b\u52d9\u6240","boring_xml_url":0,"boring_view_url":0,"soilmap_view_url":66,"soiltest_xml_url":0,"soiltest_view_url":66},{"id":113616,"code":"B4KJ201801000-1865","latitude":"38.26686936","longitude":"141.0296003","source_code":"PORT04001010006","project_name":"\u6e2f\u6e7e\u5c40","survey_name":"\u5e73\u6210\u5143\u5e74\u5ea6\u5869\u91dc\u6e2f\u4ed9\u53f0\u6e2f\u533a\u5cb8\u58c1(-12m)\u571f\u8cea\u8abf\u67fb","client_name":"\u56fd\u571f\u4ea4\u901a\u7701\u6771\u5317\u5730\u65b9\u6574\u5099\u5c40\u4ed9\u53f0\u6e2f\u6e7e\u7a7a\u6e2f\u6280\u8853\u8abf\u67fb\u4e8b\u52d9\u6240","boring_xml_url":0,"boring_view_url":0,"soilmap_view_url":66,"soiltest_xml_url":0,"soiltest_view_url":66},{"id":113615,"code":"B4KJ201801000-1864","latitude":"38.25798222","longitude":"141.0543208","source_code":"PORT04001010005","project_name":"\u6e2f\u6e7e\u5c40","survey_name":"\u5e73\u6210\u5143\u5e74\u5ea6\u5869\u91dc\u6e2f\u4ed9\u53f0\u6e2f\u6c96\u9632\u6ce2\u5824\u571f\u8cea\u8abf\u67fb","client_name":"\u56fd\u571f\u4ea4\u901a\u7701\u6771\u5317\u5730\u65b9\u6574\u5099\u5c40\u4ed9\u53f0\u6e2f\u6e7e\u7a7a\u6e2f\u6280\u8853\u8abf\u67fb\u4e8b\u52d9\u6240","boring_xml_url":0,"boring_view_url":0,"soilmap_view_url":66,"soiltest_xml_url":0,"soiltest_view_url":66},{"id":113614,"code":"B4KJ201801000-1863","latitude":"38.2577045","longitude":"141.0551541","source_code":"PORT04001010004","project_name":"\u6e2f\u6e7e\u5c40","survey_name":"\u5e73\u6210\u5143\u5e74\u5ea6\u5869\u91dc\u6e2f\u4ed9\u53f0\u6e2f\u6c96\u9632\u6ce2\u5824\u571f\u8cea\u8abf\u67fb","client_name":"\u56fd\u571f\u4ea4\u901a\u7701\u6771\u5317\u5730\u65b9\u6574\u5099\u5c40\u4ed9\u53f0\u6e2f\u6e7e\u7a7a\u6e2f\u6280\u8853\u8abf\u67fb\u4e8b\u52d9\u6240","boring_xml_url":0,"boring_view_url":0,"soilmap_view_url":66,"soiltest_xml_url":0,"soiltest_view_url":66},{"id":113613,"code":"B4KJ201801000-1862","latitude":"38.25853772","longitude":"141.0545985","source_code":"PORT04001010003","project_name":"\u6e2f\u6e7e\u5c40","survey_name":"\u5e73\u6210\u5143\u5e74\u5ea6\u5869\u91dc\u6e2f\u4ed9\u53f0\u6e2f\u6c96\u9632\u6ce2\u5824\u571f\u8cea\u8abf\u67fb","client_name":"\u56fd\u571f\u4ea4\u901a\u7701\u6771\u5317\u5730\u65b9\u6574\u5099\u5c40\u4ed9\u53f0\u6e2f\u6e7e\u7a7a\u6e2f\u6280\u8853\u8abf\u67fb\u4e8b\u52d9\u6240","boring_xml_url":0,"boring_view_url":0,"soilmap_view_url":66,"soiltest_xml_url":0,"soiltest_view_url":66},{"id":113612,"code":"B4KJ201801000-1861","latitude":"38.25798224","longitude":"141.0548763","source_code":"PORT04001010002","project_name":"\u6e2f\u6e7e\u5c40","survey_name":"\u5e73\u6210\u5143\u5e74\u5ea6\u5869\u91dc\u6e2f\u4ed9\u53f0\u6e2f\u6c96\u9632\u6ce2\u5824\u571f\u8cea\u8abf\u67fb","client_name":"\u56fd\u571f\u4ea4\u901a\u7701\u6771\u5317\u5730\u65b9\u6574\u5099\u5c40\u4ed9\u53f0\u6e2f\u6e7e\u7a7a\u6e2f\u6280\u8853\u8abf\u67fb\u4e8b\u52d9\u6240","boring_xml_url":0,"boring_view_url":0,"soilmap_view_url":66,"soiltest_xml_url":0,"soiltest_view_url":66},{"id":113611,"code":"B4KJ201801000-1860","latitude":"38.25798226","longitude":"141.0554318","source_code":"PORT04001010001","project_name":"\u6e2f\u6e7e\u5c40","survey_name":"\u5e73\u6210\u5143\u5e74\u5ea6\u5869\u91dc\u6e2f\u4ed9\u53f0\u6e2f\u6c96\u9632\u6ce2\u5824\u571f\u8cea\u8abf\u67fb","client_name":"\u56fd\u571f\u4ea4\u901a\u7701\u6771\u5317\u5730\u65b9\u6574\u5099\u5c40\u4ed9\u53f0\u6e2f\u6e7e\u7a7a\u6e2f\u6280\u8853\u8abf\u67fb\u4e8b\u52d9\u6240","boring_xml_url":0,"boring_view_url":0,"soilmap_view_url":66,"soiltest_xml_url":0,"soiltest_view_url":66},{"id":113610,"code":"B4KJ201801000-1859","latitude":"38.25853778","longitude":"141.056559","source_code":"PORT04001010000","project_name":"\u6e2f\u6e7e\u5c40","survey_name":"\u5e73\u6210\u5143\u5e74\u5ea6\u5869\u91dc\u6e2f\u4ed9\u53f0\u6e2f\u6c96\u9632\u6ce2\u5824\u571f\u8cea\u8abf\u67fb","client_name":"\u56fd\u571f\u4ea4\u901a\u7701\u6771\u5317\u5730\u65b9\u6574\u5099\u5c40\u4ed9\u53f0\u6e2f\u6e7e\u7a7a\u6e2f\u6280\u8853\u8abf\u67fb\u4e8b\u52d9\u6240","boring_xml_url":0,"boring_view_url":0,"soilmap_view_url":66,"soiltest_xml_url":0,"soiltest_view_url":66},{"id":113609,"code":"B4KJ201801000-1858","latitude":"40.21481017","longitude":"141.8171828","source_code":"PORT03006010126","project_name":"\u6e2f\u6e7e\u5c40","survey_name":"\u4e45\u6148\u6e2f\u534a\u5d0e\u5730\u533a\u6ce2\u9664\u571f\u8cea\u8abf\u67fb","client_name":"\u56fd\u571f\u4ea4\u901a\u7701\u6771\u5317\u5730\u65b9\u6574\u5099\u5c40\u4ed9\u53f0\u6e2f\u6e7e\u7a7a\u6e2f\u6280\u8853\u8abf\u67fb\u4e8b\u52d9\u6240","boring_xml_url":0,"boring_view_url":0,"soilmap_view_url":66,"soiltest_xml_url":0,"soiltest_view_url":66},{"id":113608,"code":"B4KJ201801000-1857","latitude":"40.19861254","longitude":"141.8058246","source_code":"PORT03006010028","project_name":"\u6e2f\u6e7e\u5c40","survey_name":"\u5e73\u62103\u5e74\u5ea6\u4e45\u6148\u6e2f\u6e7e\u53e3\u5730\u533a\u571f\u8cea\u8abf\u67fb","client_name":"\u56fd\u571f\u4ea4\u901a\u7701\u6771\u5317\u5730\u65b9\u6574\u5099\u5c40\u4ed9\u53f0\u6e2f\u6e7e\u7a7a\u6e2f\u6280\u8853\u8abf\u67fb\u4e8b\u52d9\u6240","boring_xml_url":0,"boring_view_url":0,"soilmap_view_url":66,"soiltest_xml_url":0,"soiltest_view_url":66},{"id":113607,"code":"B4KJ201801000-1856","latitude":"39.25797179","longitude":"141.9341653","source_code":"PORT03003010222","project_name":"\u6e2f\u6e7e\u5c40","survey_name":"\u662d\u548c56\u5e74\u5ea6\u91dc\u77f3\u6e2f\u632f\u52d5\u4e09\u8ef8\u8a66\u9a13\u5831\u544a\u66f8","client_name":"\u56fd\u571f\u4ea4\u901a\u7701\u6771\u5317\u5730\u65b9\u6574\u5099\u5c40\u4ed9\u53f0\u6e2f\u6e7e\u7a7a\u6e2f\u6280\u8853\u8abf\u67fb\u4e8b\u52d9\u6240","boring_xml_url":0,"boring_view_url":0,"soilmap_view_url":66,"soiltest_xml_url":0,"soiltest_view_url":66},{"id":113606,"code":"B4KJ201801000-1855","latitude":"39.25983382","longitude":"141.9369865","source_code":"PORT03003010221","project_name":"\u6e2f\u6e7e\u5c40","survey_name":"\u662d\u548c56\u5e74\u5ea6\u91dc\u77f3\u6e2f\u632f\u52d5\u4e09\u8ef8\u8a66\u9a13\u5831\u544a\u66f8","client_name":"\u56fd\u571f\u4ea4\u901a\u7701\u6771\u5317\u5730\u65b9\u6574\u5099\u5c40\u4ed9\u53f0\u6e2f\u6e7e\u7a7a\u6e2f\u6280\u8853\u8abf\u67fb\u4e8b\u52d9\u6240","boring_xml_url":0,"boring_view_url":0,"soilmap_view_url":66,"soiltest_xml_url":0,"soiltest_view_url":66}]}}