{"header":{"xyz":{"source":[],"mosaic":false},"page":690,"raw":{"soiltest_result":"0","bbox":"57.598333,109.544722,1.933333,163.806111","page":"690"},"conditions":{"soiltest_result":0,"north":57.598333,"west":109.544722,"south":1.933333,"east":163.806111},"success":true,"message":""},"data":{"meta":{"total":212844,"page":690,"pages":7095,"count":30},"values":[{"id":524718,"code":"B4KJ202201002-7254","latitude":"34.043453","longitude":"134.489211","source_code":"048830612000340019","project_name":"\u5fb3\u5cf6\u5357\u74b0\u72b6\u9053\u8def","survey_name":"\u5e73\u621016\u5e74\u5ea6\u3000\u5fb3\u5cf6\u5357\u74b0\u72b6\u9053\u8def\u50e7\u6d25\u5730\u533a\u5730\u8cea\u8abf\u67fb\u696d\u52d9","client_name":"\u56fd\u571f\u4ea4\u901a\u7701\u56db\u56fd\u5730\u65b9\u6574\u5099\u5c40\u5fb3\u5cf6\u6cb3\u5ddd\u56fd\u9053\u4e8b\u52d9\u6240","boring_xml_url":64,"boring_view_url":1,"soilmap_view_url":null,"soiltest_xml_url":0,"soiltest_view_url":0},{"id":524717,"code":"B4KJ202201002-7253","latitude":"34.044328","longitude":"134.489161","source_code":"048830612000340018","project_name":"\u5fb3\u5cf6\u5357\u74b0\u72b6\u9053\u8def","survey_name":"\u5e73\u621016\u5e74\u5ea6\u3000\u5fb3\u5cf6\u5357\u74b0\u72b6\u9053\u8def\u50e7\u6d25\u5730\u533a\u5730\u8cea\u8abf\u67fb\u696d\u52d9","client_name":"\u56fd\u571f\u4ea4\u901a\u7701\u56db\u56fd\u5730\u65b9\u6574\u5099\u5c40\u5fb3\u5cf6\u6cb3\u5ddd\u56fd\u9053\u4e8b\u52d9\u6240","boring_xml_url":64,"boring_view_url":1,"soilmap_view_url":null,"soiltest_xml_url":0,"soiltest_view_url":0},{"id":524716,"code":"B4KJ202201002-7252","latitude":"34.044467","longitude":"134.489025","source_code":"048830612000340017","project_name":"\u5fb3\u5cf6\u5357\u74b0\u72b6\u9053\u8def","survey_name":"\u5e73\u621016\u5e74\u5ea6\u3000\u5fb3\u5cf6\u5357\u74b0\u72b6\u9053\u8def\u50e7\u6d25\u5730\u533a\u5730\u8cea\u8abf\u67fb\u696d\u52d9","client_name":"\u56fd\u571f\u4ea4\u901a\u7701\u56db\u56fd\u5730\u65b9\u6574\u5099\u5c40\u5fb3\u5cf6\u6cb3\u5ddd\u56fd\u9053\u4e8b\u52d9\u6240","boring_xml_url":64,"boring_view_url":1,"soilmap_view_url":null,"soiltest_xml_url":0,"soiltest_view_url":0},{"id":524715,"code":"B4KJ202201002-7251","latitude":"34.044744","longitude":"134.489192","source_code":"048830612000340016","project_name":"\u5fb3\u5cf6\u5357\u74b0\u72b6\u9053\u8def","survey_name":"\u5e73\u621016\u5e74\u5ea6\u3000\u5fb3\u5cf6\u5357\u74b0\u72b6\u9053\u8def\u50e7\u6d25\u5730\u533a\u5730\u8cea\u8abf\u67fb\u696d\u52d9","client_name":"\u56fd\u571f\u4ea4\u901a\u7701\u56db\u56fd\u5730\u65b9\u6574\u5099\u5c40\u5fb3\u5cf6\u6cb3\u5ddd\u56fd\u9053\u4e8b\u52d9\u6240","boring_xml_url":64,"boring_view_url":1,"soilmap_view_url":null,"soiltest_xml_url":0,"soiltest_view_url":0},{"id":524714,"code":"B4KJ202201002-7250","latitude":"34.042281","longitude":"134.488628","source_code":"048830612000340015","project_name":"\u5fb3\u5cf6\u5357\u74b0\u72b6\u9053\u8def","survey_name":"\u5e73\u621016\u5e74\u5ea6\u3000\u5fb3\u5cf6\u5357\u74b0\u72b6\u9053\u8def\u50e7\u6d25\u5730\u533a\u5730\u8cea\u8abf\u67fb\u696d\u52d9","client_name":"\u56fd\u571f\u4ea4\u901a\u7701\u56db\u56fd\u5730\u65b9\u5c40\u5fb3\u5cf6\u6cb3\u5ddd\u56fd\u9053\u4e8b\u52d9\u6240","boring_xml_url":64,"boring_view_url":1,"soilmap_view_url":null,"soiltest_xml_url":0,"soiltest_view_url":0},{"id":524713,"code":"B4KJ202201002-7249","latitude":"34.042467","longitude":"134.488586","source_code":"048830612000340014","project_name":"\u5fb3\u5cf6\u5357\u74b0\u72b6\u9053\u8def","survey_name":"\u5e73\u621016\u5e74\u5ea6\u3000\u5fb3\u5cf6\u5357\u74b0\u72b6\u9053\u8def\u50e7\u6d25\u5730\u533a\u5730\u8cea\u8abf\u67fb\u696d\u52d9","client_name":"\u56fd\u571f\u4ea4\u901a\u7701\u56db\u56fd\u5730\u65b9\u5c40\u5fb3\u5cf6\u6cb3\u5ddd\u56fd\u9053\u4e8b\u52d9\u6240","boring_xml_url":64,"boring_view_url":1,"soilmap_view_url":null,"soiltest_xml_url":0,"soiltest_view_url":0},{"id":524712,"code":"B4KJ202201002-7248","latitude":"34.042353","longitude":"134.488611","source_code":"048830612000340013","project_name":"\u5fb3\u5cf6\u5357\u74b0\u72b6\u9053\u8def","survey_name":"\u5e73\u621016\u5e74\u5ea6\u3000\u5fb3\u5cf6\u5357\u74b0\u72b6\u9053\u8def\u50e7\u6d25\u5730\u533a\u5730\u8cea\u8abf\u67fb\u696d\u52d9","client_name":"\u56fd\u571f\u4ea4\u901a\u7701\u56db\u56fd\u5730\u65b9\u6574\u5099\u5c40\u5fb3\u5cf6\u6cb3\u5ddd\u56fd\u9053\u4e8b\u52d9\u6240","boring_xml_url":64,"boring_view_url":1,"soilmap_view_url":null,"soiltest_xml_url":0,"soiltest_view_url":0},{"id":524711,"code":"B4KJ202201002-7247","latitude":"34.042692","longitude":"134.489019","source_code":"048830612000340012","project_name":"\u5fb3\u5cf6\u5357\u74b0\u72b6\u9053\u8def","survey_name":"\u5e73\u621016\u5e74\u5ea6\u3000\u5fb3\u5cf6\u5357\u74b0\u72b6\u9053\u8def\u50e7\u6d25\u5730\u533a\u5730\u8cea\u8abf\u67fb\u696d\u52d9","client_name":"\u56fd\u571f\u4ea4\u901a\u7701\u56db\u56fd\u5730\u65b9\u6574\u5099\u5c40\u5fb3\u5cf6\u6cb3\u5ddd\u56fd\u9053\u4e8b\u52d9\u6240","boring_xml_url":64,"boring_view_url":1,"soilmap_view_url":null,"soiltest_xml_url":0,"soiltest_view_url":0},{"id":524710,"code":"B4KJ202201002-7246","latitude":"34.042944","longitude":"134.489061","source_code":"048830612000340011","project_name":"\u5fb3\u5cf6\u5357\u74b0\u72b6\u9053\u8def","survey_name":"\u5e73\u621016\u5e74\u5ea6\u3000\u5fb3\u5cf6\u5357\u74b0\u72b6\u9053\u8def\u50e7\u6d25\u5730\u533a\u5730\u8cea\u8abf\u67fb\u696d\u52d9","client_name":"\u56fd\u571f\u4ea4\u901a\u7701\u56db\u56fd\u5730\u65b9\u6574\u5099\u5c40\u5fb3\u5cf6\u6cb3\u5ddd\u56fd\u9053\u4e8b\u52d9\u6240","boring_xml_url":64,"boring_view_url":1,"soilmap_view_url":null,"soiltest_xml_url":0,"soiltest_view_url":0},{"id":524709,"code":"B4KJ202201002-7245","latitude":"34.042861","longitude":"134.489833","source_code":"048830612000340010","project_name":"\u5fb3\u5cf6\u5357\u74b0\u72b6\u9053\u8def","survey_name":"\u5e73\u621016\u5e74\u5ea6\u3000\u5fb3\u5cf6\u5357\u74b0\u72b6\u9053\u8def\u50e7\u6d25\u5730\u533a\u5730\u8cea\u8abf\u67fb\u696d\u52d9","client_name":"\u56fd\u571f\u4ea4\u901a\u7701\u56db\u56fd\u5730\u65b9\u6574\u5099\u5c40\u5fb3\u5cf6\u6cb3\u5ddd\u56fd\u9053\u4e8b\u52d9\u6240","boring_xml_url":64,"boring_view_url":1,"soilmap_view_url":null,"soiltest_xml_url":0,"soiltest_view_url":0},{"id":524708,"code":"B4KJ202201002-7244","latitude":"34.043161","longitude":"134.488969","source_code":"048830612000340009","project_name":"\u5fb3\u5cf6\u5357\u74b0\u72b6\u9053\u8def","survey_name":"\u5e73\u621016\u5e74\u5ea6\u3000\u5fb3\u5cf6\u5357\u74b0\u72b6\u9053\u8def\u50e7\u6d25\u5730\u533a\u5730\u8cea\u8abf\u67fb\u696d\u52d9","client_name":"\u56fd\u571f\u4ea4\u901a\u7701\u56db\u56fd\u5730\u65b9\u6574\u5099\u5c40\u5fb3\u5cf6\u6cb3\u5ddd\u56fd\u9053\u4e8b\u52d9\u6240","boring_xml_url":64,"boring_view_url":1,"soilmap_view_url":null,"soiltest_xml_url":0,"soiltest_view_url":0},{"id":524707,"code":"B4KJ202201002-7243","latitude":"34.043086","longitude":"134.488856","source_code":"048830612000340008","project_name":"\u5fb3\u5cf6\u5357\u74b0\u72b6\u9053\u8def","survey_name":"\u5e73\u621016\u5e74\u5ea6\u3000\u5fb3\u5cf6\u5357\u74b0\u72b6\u9053\u8def\u50e7\u6d25\u5730\u533a\u5730\u8cea\u8abf\u67fb\u696d\u52d9","client_name":"\u56fd\u571f\u4ea4\u901a\u7701\u56db\u56fd\u5730\u65b9\u6574\u5099\u5c40\u5fb3\u5cf6\u6cb3\u5ddd\u56fd\u9053\u4e8b\u52d9\u6240","boring_xml_url":64,"boring_view_url":1,"soilmap_view_url":null,"soiltest_xml_url":0,"soiltest_view_url":0},{"id":524706,"code":"B4KJ202201002-7242","latitude":"34.043692","longitude":"134.488272","source_code":"048830612000340007","project_name":"\u5fb3\u5cf6\u5357\u74b0\u72b6\u9053\u8def","survey_name":"\u5e73\u621016\u5e74\u5ea6\u3000\u5fb3\u5cf6\u5357\u74b0\u72b6\u9053\u8def\u50e7\u6d25\u5730\u533a\u5730\u8cea\u8abf\u67fb\u696d\u52d9","client_name":"\u56fd\u571f\u4ea4\u901a\u7701\u56db\u56fd\u5730\u65b9\u6574\u5099\u5c40\u5fb3\u5cf6\u6cb3\u5ddd\u56fd\u9053\u4e8b\u52d9\u6240","boring_xml_url":64,"boring_view_url":1,"soilmap_view_url":null,"soiltest_xml_url":0,"soiltest_view_url":0},{"id":524705,"code":"B4KJ202201002-7241","latitude":"34.043597","longitude":"134.488106","source_code":"048830612000340006","project_name":"\u5fb3\u5cf6\u5357\u74b0\u72b6\u9053\u8def","survey_name":"\u5e73\u621016\u5e74\u5ea6\u3000\u5fb3\u5cf6\u5357\u74b0\u72b6\u9053\u8def\u50e7\u6d25\u5730\u533a\u5730\u8cea\u8abf\u67fb\u696d\u52d9","client_name":"\u56fd\u571f\u4ea4\u901a\u7701\u56db\u56fd\u5730\u65b9\u6574\u5099\u5c40\u5fb3\u5cf6\u6cb3\u5ddd\u56fd\u9053\u4e8b\u52d9\u6240","boring_xml_url":64,"boring_view_url":1,"soilmap_view_url":null,"soiltest_xml_url":0,"soiltest_view_url":0},{"id":524704,"code":"B4KJ202201002-7240","latitude":"34.043839","longitude":"134.487758","source_code":"048830612000340005","project_name":"\u5fb3\u5cf6\u5357\u74b0\u72b6\u9053\u8def","survey_name":"\u5e73\u621016\u5e74\u5ea6\u3000\u5fb3\u5cf6\u5357\u74b0\u72b6\u9053\u8def\u50e7\u6d25\u5730\u533a\u5730\u8cea\u8abf\u67fb\u696d\u52d9","client_name":"\u56fd\u571f\u4ea4\u901a\u7701\u56db\u56fd\u5730\u65b9\u6574\u5099\u5c40\u5fb3\u5cf6\u6cb3\u5ddd\u56fd\u9053\u4e8b\u52d9\u6240","boring_xml_url":64,"boring_view_url":1,"soilmap_view_url":null,"soiltest_xml_url":0,"soiltest_view_url":0},{"id":524703,"code":"B4KJ202201002-7239","latitude":"34.044514","longitude":"134.486939","source_code":"048830612000340004","project_name":"\u5fb3\u5cf6\u5357\u74b0\u72b6\u9053\u8def","survey_name":"\u5e73\u621016\u5e74\u5ea6\u3000\u5fb3\u5cf6\u5357\u74b0\u72b6\u9053\u8def\u50e7\u6d25\u5730\u533a\u5730\u8cea\u8abf\u67fb\u696d\u52d9","client_name":"\u56fd\u571f\u4ea4\u901a\u7701\u56db\u56fd\u5730\u65b9\u6574\u5099\u5c40\u5fb3\u5cf6\u6cb3\u5ddd\u56fd\u9053\u4e8b\u52d9\u6240","boring_xml_url":64,"boring_view_url":1,"soilmap_view_url":null,"soiltest_xml_url":0,"soiltest_view_url":0},{"id":524702,"code":"B4KJ202201002-7238","latitude":"34.044283","longitude":"134.488061","source_code":"048830612000340003","project_name":"\u5fb3\u5cf6\u5357\u74b0\u72b6\u9053\u8def","survey_name":"\u5e73\u621016\u5e74\u5ea6\u3000\u5fb3\u5cf6\u5357\u74b0\u72b6\u9053\u8def\u50e7\u6d25\u5730\u533a\u5730\u8cea\u8abf\u67fb\u696d\u52d9","client_name":"\u56fd\u571f\u4ea4\u901a\u7701\u56db\u56fd\u5730\u65b9\u6574\u5099\u5c40\u5fb3\u5cf6\u6cb3\u5ddd\u56fd\u9053\u4e8b\u52d9\u6240","boring_xml_url":64,"boring_view_url":1,"soilmap_view_url":null,"soiltest_xml_url":0,"soiltest_view_url":0},{"id":524701,"code":"B4KJ202201002-7237","latitude":"34.044186","longitude":"134.487897","source_code":"048830612000340002","project_name":"\u5fb3\u5cf6\u5357\u74b0\u72b6\u9053\u8def","survey_name":"\u5e73\u621016\u5e74\u5ea6\u3000\u5fb3\u5cf6\u5357\u74b0\u72b6\u9053\u8def\u50e7\u6d25\u5730\u533a\u5730\u8cea\u8abf\u67fb\u696d\u52d9","client_name":"\u56fd\u571f\u4ea4\u901a\u7701\u56db\u56fd\u5730\u65b9\u6574\u5099\u5c40\u5fb3\u5cf6\u6cb3\u5ddd\u56fd\u9053\u4e8b\u52d9\u6240","boring_xml_url":64,"boring_view_url":1,"soilmap_view_url":null,"soiltest_xml_url":0,"soiltest_view_url":0},{"id":524700,"code":"B4KJ202201002-7236","latitude":"34.046056","longitude":"134.485269","source_code":"048830612000340001","project_name":"\u5fb3\u5cf6\u5357\u74b0\u72b6\u9053\u8def","survey_name":"\u5e73\u621016\u5e74\u5ea6\u3000\u5fb3\u5cf6\u5357\u74b0\u72b6\u9053\u8def\u50e7\u6d25\u5730\u533a\u5730\u8cea\u8abf\u67fb\u696d\u52d9","client_name":"\u56fd\u571f\u4ea4\u901a\u7701\u56db\u56fd\u5730\u65b9\u6574\u5099\u5c40\u5fb3\u5cf6\u6cb3\u5ddd\u56fd\u9053\u4e8b\u52d9\u6240","boring_xml_url":64,"boring_view_url":1,"soilmap_view_url":null,"soiltest_xml_url":0,"soiltest_view_url":0},{"id":524699,"code":"B4KJ202201002-7235","latitude":"34.128333","longitude":"134.573333","source_code":"048830402000310007","project_name":"","survey_name":"\u5e73\u621016-17\u5e74\u5ea6\u5824\u9632\u5730\u8cea\u8abf\u67fb\u696d\u52d9","client_name":"\u56fd\u571f\u4ea4\u901a\u7701\u56db\u56fd\u5730\u65b9\u6574\u5099\u5c40\u5fb3\u5cf6\u6cb3\u5ddd\u56fd\u9053\u4e8b\u52d9\u6240","boring_xml_url":64,"boring_view_url":1,"soilmap_view_url":null,"soiltest_xml_url":0,"soiltest_view_url":0},{"id":524698,"code":"B4KJ202201002-7234","latitude":"34.151111","longitude":"134.59","source_code":"048830402000310006","project_name":"","survey_name":"\u5e73\u621016-17\u5e74\u5ea6\u5824\u9632\u5730\u8cea\u8abf\u67fb\u696d\u52d9","client_name":"\u56fd\u571f\u4ea4\u901a\u7701\u56db\u56fd\u5730\u65b9\u6574\u5099\u5c40\u5fb3\u5cf6\u6cb3\u5ddd\u56fd\u9053\u4e8b\u52d9\u6240","boring_xml_url":64,"boring_view_url":1,"soilmap_view_url":null,"soiltest_xml_url":0,"soiltest_view_url":0},{"id":524697,"code":"B4KJ202201002-7233","latitude":"34.152222","longitude":"134.589722","source_code":"048830402000310005","project_name":"","survey_name":"\u5e73\u621016-17\u5e74\u5ea6\u5824\u9632\u5730\u8cea\u8abf\u67fb\u696d\u52d9","client_name":"\u56fd\u571f\u4ea4\u901a\u7701\u56db\u56fd\u5730\u65b9\u6574\u5099\u5c40\u5fb3\u5cf6\u6cb3\u5ddd\u56fd\u9053\u4e8b\u52d9\u6240","boring_xml_url":64,"boring_view_url":1,"soilmap_view_url":null,"soiltest_xml_url":0,"soiltest_view_url":0},{"id":524696,"code":"B4KJ202201002-7232","latitude":"34.151389","longitude":"134.591111","source_code":"048830402000310004","project_name":"","survey_name":"\u5e73\u621016-17\u5e74\u5ea6\u5824\u9632\u5730\u8cea\u8abf\u67fb\u696d\u52d9","client_name":"\u56fd\u571f\u4ea4\u901a\u7701\u56db\u56fd\u5730\u65b9\u6574\u5099\u5c40\u5fb3\u5cf6\u6cb3\u5ddd\u56fd\u9053\u4e8b\u52d9\u6240","boring_xml_url":64,"boring_view_url":1,"soilmap_view_url":null,"soiltest_xml_url":0,"soiltest_view_url":0},{"id":524695,"code":"B4KJ202201002-7231","latitude":"34.085278","longitude":"134.596944","source_code":"048830402000310002","project_name":"","survey_name":"\u5e73\u621016-17\u5e74\u5ea6\u5824\u9632\u5730\u8cea\u8abf\u67fb\u696d\u52d9","client_name":"\u56fd\u571f\u4ea4\u901a\u7701\u56db\u56fd\u5730\u65b9\u6574\u5099\u5c40\u5fb3\u5cf6\u6cb3\u5ddd\u56fd\u9053\u4e8b\u52d9\u6240","boring_xml_url":64,"boring_view_url":1,"soilmap_view_url":null,"soiltest_xml_url":0,"soiltest_view_url":0},{"id":524694,"code":"B4KJ202201002-7230","latitude":"33.033222","longitude":"132.869389","source_code":"048861612000320006","project_name":"\u5e73\u621016\u5e74\u5ea6\u548c\u7530\u30c8\u30f3\u30cd\u30eb","survey_name":"\u5730\u8cea\u8abf\u67fb\u696d\u52d9","client_name":"\u56fd\u571f\u4ea4\u901a\u7701\u56db\u56fd\u5730\u65b9\u6574\u5099\u5c40\u4e2d\u6751\u6cb3\u5ddd\u56fd\u9053\u4e8b\u52d9\u6240","boring_xml_url":64,"boring_view_url":1,"soilmap_view_url":null,"soiltest_xml_url":0,"soiltest_view_url":0},{"id":524693,"code":"B4KJ202201002-7229","latitude":"33.876667","longitude":"133.833056","source_code":"048837602000290007","project_name":"\u5e73\u621016\u5e74\u5ea6\u3000\u5584\u5fb3\u5730\u3059\u3079\u308a\u5730\u8cea\u8abf\u67fb\u696d\u52d9(\u305d\u306e2)","survey_name":"\u5e73\u621016\u5e74\u5ea6\u3000\u5584\u5fb3\u5730\u3059\u3079\u308a\u5730\u8cea\u8abf\u67fb\u696d\u52d9(\u305d\u306e2)","client_name":"\u56fd\u571f\u4ea4\u901a\u7701\u56db\u56fd\u5730\u65b9\u6574\u5099\u5c40\u56db\u56fd\u5c71\u5730\u7802\u9632\u4e8b\u52d9\u6240","boring_xml_url":64,"boring_view_url":1,"soilmap_view_url":null,"soiltest_xml_url":0,"soiltest_view_url":0},{"id":524692,"code":"B4KJ202201002-7228","latitude":"33.878056","longitude":"133.829722","source_code":"048837602000290001","project_name":"\u5e73\u621016\u5e74\u5ea6\u3000\u5584\u5fb3\u5730\u3059\u3079\u308a\u5730\u8cea\u8abf\u67fb\u696d\u52d9(\u305d\u306e2)","survey_name":"\u5e73\u621016\u5e74\u5ea6\u3000\u5584\u5fb3\u5730\u3059\u3079\u308a\u5730\u8cea\u8abf\u67fb\u696d\u52d9(\u305d\u306e2)","client_name":"\u56fd\u571f\u4ea4\u901a\u7701\u56db\u56fd\u5730\u65b9\u6574\u5099\u5c40\u56db\u56fd\u5c71\u5730\u7802\u9632\u4e8b\u52d9\u6240","boring_xml_url":64,"boring_view_url":1,"soilmap_view_url":null,"soiltest_xml_url":0,"soiltest_view_url":0},{"id":524691,"code":"B4KJ202201002-7227","latitude":"33.784769","longitude":"133.484567","source_code":"048837402000090006","project_name":"\u5e73\u621016\u5e74\u5ea6\u3000\u9234\u30f6\u8c37\u5830\u5824\u6e2c\u91cf\u8a2d\u8a08\u696d\u52d9\u59d4\u8a17","survey_name":"\u5e73\u621016\u5e74\u5ea6\u3000\u9234\u30f6\u8c37\u5830\u5824\u6e2c\u91cf\u8a2d\u8a08\u696d\u52d9\u59d4\u8a17","client_name":"\u56fd\u571f\u4ea4\u901a\u7701\u3000\u56db\u56fd\u5c71\u5730\u7802\u9632\u4e8b\u52d9\u6240","boring_xml_url":64,"boring_view_url":1,"soilmap_view_url":null,"soiltest_xml_url":0,"soiltest_view_url":0},{"id":524690,"code":"B4KJ202201002-7226","latitude":"33.785039","longitude":"133.484181","source_code":"048837402000090005","project_name":"\u5e73\u621016\u5e74\u5ea6\u3000\u9234\u30f6\u8c37\u5830\u5824\u6e2c\u91cf\u8a2d\u8a08\u696d\u52d9\u59d4\u8a17","survey_name":"\u5e73\u621016\u5e74\u5ea6\u3000\u9234\u30f6\u8c37\u5830\u5824\u6e2c\u91cf\u8a2d\u8a08\u696d\u52d9\u59d4\u8a17","client_name":"\u56fd\u571f\u4ea4\u901a\u7701\u3000\u56db\u56fd\u5c71\u5730\u7802\u9632\u4e8b\u52d9\u6240","boring_xml_url":64,"boring_view_url":1,"soilmap_view_url":null,"soiltest_xml_url":0,"soiltest_view_url":0},{"id":524689,"code":"B4KJ202201002-7225","latitude":"33.78555","longitude":"133.484383","source_code":"048837402000090004","project_name":"\u5e73\u621016\u5e74\u5ea6\u3000\u9234\u30f6\u8c37\u5830\u5824\u6e2c\u91cf\u8a2d\u8a08\u696d\u52d9\u59d4\u8a17","survey_name":"\u5e73\u621016\u5e74\u5ea6\u3000\u9234\u30f6\u8c37\u5830\u5824\u6e2c\u91cf\u8a2d\u8a08\u696d\u52d9\u59d4\u8a17","client_name":"\u56fd\u571f\u4ea4\u901a\u7701\u3000\u56db\u56fd\u5c71\u5730\u7802\u9632\u4e8b\u52d9\u6240","boring_xml_url":64,"boring_view_url":1,"soilmap_view_url":null,"soiltest_xml_url":0,"soiltest_view_url":0}]}}