{"header":{"xyz":{"source":[],"mosaic":false},"page":6906,"raw":{"soiltest_result":"0","bbox":"57.598333,109.544722,1.933333,163.806111","page":"6906"},"conditions":{"soiltest_result":0,"north":57.598333,"west":109.544722,"south":1.933333,"east":163.806111},"success":true,"message":""},"data":{"meta":{"total":212844,"page":6906,"pages":7095,"count":30},"values":[{"id":113395,"code":"B4KJ201801000-1644","latitude":"39.6292325","longitude":"141.9689108","source_code":"PORT03001010113","project_name":"\u6e2f\u6e7e\u5c40","survey_name":"(\u662d\u548c52\u5e74\u5ea6)\u5bae\u53e4\u6e2f\u5cb8\u58c1(-10m)\u571f\u8cea\u8abf\u67fb(\u305d\u306e2)","client_name":"\u56fd\u571f\u4ea4\u901a\u7701\u6771\u5317\u5730\u65b9\u6574\u5099\u5c40\u4ed9\u53f0\u6e2f\u6e7e\u7a7a\u6e2f\u6280\u8853\u8abf\u67fb\u4e8b\u52d9\u6240","boring_xml_url":0,"boring_view_url":0,"soilmap_view_url":66,"soiltest_xml_url":0,"soiltest_view_url":66},{"id":113394,"code":"B4KJ201801000-1643","latitude":"39.62951025","longitude":"141.9694663","source_code":"PORT03001010112","project_name":"\u6e2f\u6e7e\u5c40","survey_name":"(\u662d\u548c52\u5e74\u5ea6)\u5bae\u53e4\u6e2f\u5cb8\u58c1(-10m)\u571f\u8cea\u8abf\u67fb(\u305d\u306e2)","client_name":"\u56fd\u571f\u4ea4\u901a\u7701\u6771\u5317\u5730\u65b9\u6574\u5099\u5c40\u4ed9\u53f0\u6e2f\u6e7e\u7a7a\u6e2f\u6280\u8853\u8abf\u67fb\u4e8b\u52d9\u6240","boring_xml_url":0,"boring_view_url":0,"soilmap_view_url":66,"soiltest_xml_url":0,"soiltest_view_url":66},{"id":113393,"code":"B4KJ201801000-1642","latitude":"39.63034345","longitude":"141.9683553","source_code":"PORT03001010111","project_name":"\u6e2f\u6e7e\u5c40","survey_name":"(\u662d\u548c52\u5e74\u5ea6)\u5bae\u53e4\u6e2f\u5cb8\u58c1(-10m)\u571f\u8cea\u8abf\u67fb(\u305d\u306e2)","client_name":"\u56fd\u571f\u4ea4\u901a\u7701\u6771\u5317\u5730\u65b9\u6574\u5099\u5c40\u4ed9\u53f0\u6e2f\u6e7e\u7a7a\u6e2f\u6280\u8853\u8abf\u67fb\u4e8b\u52d9\u6240","boring_xml_url":0,"boring_view_url":0,"soilmap_view_url":66,"soiltest_xml_url":0,"soiltest_view_url":66},{"id":113392,"code":"B4KJ201801000-1641","latitude":"39.63034346","longitude":"141.9689108","source_code":"PORT03001010110","project_name":"\u6e2f\u6e7e\u5c40","survey_name":"(\u662d\u548c52\u5e74\u5ea6)\u5bae\u53e4\u6e2f\u5cb8\u58c1(-10m)\u571f\u8cea\u8abf\u67fb(\u305d\u306e2)","client_name":"\u56fd\u571f\u4ea4\u901a\u7701\u6771\u5317\u5730\u65b9\u6574\u5099\u5c40\u4ed9\u53f0\u6e2f\u6e7e\u7a7a\u6e2f\u6280\u8853\u8abf\u67fb\u4e8b\u52d9\u6240","boring_xml_url":0,"boring_view_url":0,"soilmap_view_url":66,"soiltest_xml_url":0,"soiltest_view_url":66},{"id":113391,"code":"B4KJ201801000-1640","latitude":"39.62895477","longitude":"141.9694663","source_code":"PORT03001010109","project_name":"\u6e2f\u6e7e\u5c40","survey_name":"(\u662d\u548c52\u5e74\u5ea6)\u5bae\u53e4\u6e2f\u5cb8\u58c1(-10m)\u571f\u8cea\u8abf\u67fb","client_name":"\u56fd\u571f\u4ea4\u901a\u7701\u6771\u5317\u5730\u65b9\u6574\u5099\u5c40\u4ed9\u53f0\u6e2f\u6e7e\u7a7a\u6e2f\u6280\u8853\u8abf\u67fb\u4e8b\u52d9\u6240","boring_xml_url":0,"boring_view_url":0,"soilmap_view_url":66,"soiltest_xml_url":0,"soiltest_view_url":66},{"id":113390,"code":"B4KJ201801000-1639","latitude":"39.62951024","longitude":"141.9691886","source_code":"PORT03001010108","project_name":"\u6e2f\u6e7e\u5c40","survey_name":"(\u662d\u548c52\u5e74\u5ea6)\u5bae\u53e4\u6e2f\u5cb8\u58c1(-10m)\u571f\u8cea\u8abf\u67fb","client_name":"\u56fd\u571f\u4ea4\u901a\u7701\u6771\u5317\u5730\u65b9\u6574\u5099\u5c40\u4ed9\u53f0\u6e2f\u6e7e\u7a7a\u6e2f\u6280\u8853\u8abf\u67fb\u4e8b\u52d9\u6240","boring_xml_url":0,"boring_view_url":0,"soilmap_view_url":66,"soiltest_xml_url":0,"soiltest_view_url":66},{"id":113389,"code":"B4KJ201801000-1638","latitude":"39.62978798","longitude":"141.9689108","source_code":"PORT03001010107","project_name":"\u6e2f\u6e7e\u5c40","survey_name":"(\u662d\u548c52\u5e74\u5ea6)\u5bae\u53e4\u6e2f\u5cb8\u58c1(-10m)\u571f\u8cea\u8abf\u67fb","client_name":"\u56fd\u571f\u4ea4\u901a\u7701\u6771\u5317\u5730\u65b9\u6574\u5099\u5c40\u4ed9\u53f0\u6e2f\u6e7e\u7a7a\u6e2f\u6280\u8853\u8abf\u67fb\u4e8b\u52d9\u6240","boring_xml_url":0,"boring_view_url":0,"soilmap_view_url":66,"soiltest_xml_url":0,"soiltest_view_url":66},{"id":113388,"code":"B4KJ201801000-1637","latitude":"39.63034346","longitude":"141.9689108","source_code":"PORT03001010106","project_name":"\u6e2f\u6e7e\u5c40","survey_name":"(\u662d\u548c52\u5e74\u5ea6)\u5bae\u53e4\u6e2f\u5cb8\u58c1(-10m)\u571f\u8cea\u8abf\u67fb","client_name":"\u56fd\u571f\u4ea4\u901a\u7701\u6771\u5317\u5730\u65b9\u6574\u5099\u5c40\u4ed9\u53f0\u6e2f\u6e7e\u7a7a\u6e2f\u6280\u8853\u8abf\u67fb\u4e8b\u52d9\u6240","boring_xml_url":0,"boring_view_url":0,"soilmap_view_url":66,"soiltest_xml_url":0,"soiltest_view_url":66},{"id":113387,"code":"B4KJ201801000-1636","latitude":"39.62839936","longitude":"141.9725216","source_code":"PORT03001010105","project_name":"\u6e2f\u6e7e\u5c40","survey_name":"\u5bae\u53e4\u6e2f\u822a\u8def\u6cca\u5730(-12m)\u571f\u8cea\u8abf\u67fb","client_name":"\u56fd\u571f\u4ea4\u901a\u7701\u6771\u5317\u5730\u65b9\u6574\u5099\u5c40\u4ed9\u53f0\u6e2f\u6e7e\u7a7a\u6e2f\u6280\u8853\u8abf\u67fb\u4e8b\u52d9\u6240","boring_xml_url":0,"boring_view_url":0,"soilmap_view_url":66,"soiltest_xml_url":0,"soiltest_view_url":66},{"id":113386,"code":"B4KJ201801000-1635","latitude":"39.62923254","longitude":"141.9708551","source_code":"PORT03001010104","project_name":"\u6e2f\u6e7e\u5c40","survey_name":"\u5bae\u53e4\u6e2f\u822a\u8def\u6cca\u5730(-12m)\u571f\u8cea\u8abf\u67fb","client_name":"\u56fd\u571f\u4ea4\u901a\u7701\u6771\u5317\u5730\u65b9\u6574\u5099\u5c40\u4ed9\u53f0\u6e2f\u6e7e\u7a7a\u6e2f\u6280\u8853\u8abf\u67fb\u4e8b\u52d9\u6240","boring_xml_url":0,"boring_view_url":0,"soilmap_view_url":66,"soiltest_xml_url":0,"soiltest_view_url":66},{"id":113385,"code":"B4KJ201801000-1634","latitude":"39.63006574","longitude":"141.9697441","source_code":"PORT03001010103","project_name":"\u6e2f\u6e7e\u5c40","survey_name":"\u5bae\u53e4\u6e2f\u822a\u8def\u6cca\u5730(-12m)\u571f\u8cea\u8abf\u67fb","client_name":"\u56fd\u571f\u4ea4\u901a\u7701\u6771\u5317\u5730\u65b9\u6574\u5099\u5c40\u4ed9\u53f0\u6e2f\u6e7e\u7a7a\u6e2f\u6280\u8853\u8abf\u67fb\u4e8b\u52d9\u6240","boring_xml_url":0,"boring_view_url":0,"soilmap_view_url":66,"soiltest_xml_url":0,"soiltest_view_url":66},{"id":113384,"code":"B4KJ201801000-1633","latitude":"39.63034348","longitude":"141.969744","source_code":"PORT03001010102","project_name":"\u6e2f\u6e7e\u5c40","survey_name":"\u662d\u548c50\u5e74\u5ea6\u5bae\u53e4\u6e2f\u5cb8\u58c1(-10.0m)\u571f\u8cea\u8abf\u67fb","client_name":"\u56fd\u571f\u4ea4\u901a\u7701\u6771\u5317\u5730\u65b9\u6574\u5099\u5c40\u4ed9\u53f0\u6e2f\u6e7e\u7a7a\u6e2f\u6280\u8853\u8abf\u67fb\u4e8b\u52d9\u6240","boring_xml_url":0,"boring_view_url":0,"soilmap_view_url":66,"soiltest_xml_url":0,"soiltest_view_url":66},{"id":113383,"code":"B4KJ201801000-1632","latitude":"39.63062122","longitude":"141.969744","source_code":"PORT03001010101","project_name":"\u6e2f\u6e7e\u5c40","survey_name":"\u662d\u548c50\u5e74\u5ea6\u5bae\u53e4\u6e2f\u5cb8\u58c1(-10.0m)\u571f\u8cea\u8abf\u67fb","client_name":"\u56fd\u571f\u4ea4\u901a\u7701\u6771\u5317\u5730\u65b9\u6574\u5099\u5c40\u4ed9\u53f0\u6e2f\u6e7e\u7a7a\u6e2f\u6280\u8853\u8abf\u67fb\u4e8b\u52d9\u6240","boring_xml_url":0,"boring_view_url":0,"soilmap_view_url":66,"soiltest_xml_url":0,"soiltest_view_url":66},{"id":113382,"code":"B4KJ201801000-1631","latitude":"39.6311767","longitude":"141.969744","source_code":"PORT03001010100","project_name":"\u6e2f\u6e7e\u5c40","survey_name":"\u662d\u548c50\u5e74\u5ea6\u5bae\u53e4\u6e2f\u5cb8\u58c1(-10.0m)\u571f\u8cea\u8abf\u67fb","client_name":"\u56fd\u571f\u4ea4\u901a\u7701\u6771\u5317\u5730\u65b9\u6574\u5099\u5c40\u4ed9\u53f0\u6e2f\u6e7e\u7a7a\u6e2f\u6280\u8853\u8abf\u67fb\u4e8b\u52d9\u6240","boring_xml_url":0,"boring_view_url":0,"soilmap_view_url":66,"soiltest_xml_url":0,"soiltest_view_url":66},{"id":113381,"code":"B4KJ201801000-1630","latitude":"39.63173218","longitude":"141.9694663","source_code":"PORT03001010099","project_name":"\u6e2f\u6e7e\u5c40","survey_name":"\u662d\u548c50\u5e74\u5ea6\u5bae\u53e4\u6e2f\u5cb8\u58c1(-10.0m)\u571f\u8cea\u8abf\u67fb","client_name":"\u56fd\u571f\u4ea4\u901a\u7701\u6771\u5317\u5730\u65b9\u6574\u5099\u5c40\u4ed9\u53f0\u6e2f\u6e7e\u7a7a\u6e2f\u6280\u8853\u8abf\u67fb\u4e8b\u52d9\u6240","boring_xml_url":0,"boring_view_url":0,"soilmap_view_url":66,"soiltest_xml_url":0,"soiltest_view_url":66},{"id":113380,"code":"B4KJ201801000-1629","latitude":"39.63200991","longitude":"141.9694663","source_code":"PORT03001010098","project_name":"\u6e2f\u6e7e\u5c40","survey_name":"\u662d\u548c50\u5e74\u5ea6\u5bae\u53e4\u6e2f\u5cb8\u58c1(-10.0m)\u571f\u8cea\u8abf\u67fb","client_name":"\u56fd\u571f\u4ea4\u901a\u7701\u6771\u5317\u5730\u65b9\u6574\u5099\u5c40\u4ed9\u53f0\u6e2f\u6e7e\u7a7a\u6e2f\u6280\u8853\u8abf\u67fb\u4e8b\u52d9\u6240","boring_xml_url":0,"boring_view_url":0,"soilmap_view_url":66,"soiltest_xml_url":0,"soiltest_view_url":66},{"id":113379,"code":"B4KJ201801000-1628","latitude":"39.63423184","longitude":"141.9694662","source_code":"PORT03001010097","project_name":"\u6e2f\u6e7e\u5c40","survey_name":"\u662d\u548c50\u5e74\u5ea6\u5bae\u53e4\u6e2f\u5cb8\u58c1(-12m)\u5730\u8cea\u8abf\u67fb\u5de5\u4e8b","client_name":"\u56fd\u571f\u4ea4\u901a\u7701\u6771\u5317\u5730\u65b9\u6574\u5099\u5c40\u4ed9\u53f0\u6e2f\u6e7e\u7a7a\u6e2f\u6280\u8853\u8abf\u67fb\u4e8b\u52d9\u6240","boring_xml_url":0,"boring_view_url":0,"soilmap_view_url":66,"soiltest_xml_url":0,"soiltest_view_url":66},{"id":113378,"code":"B4KJ201801000-1627","latitude":"39.63478731","longitude":"141.9689107","source_code":"PORT03001010096","project_name":"\u6e2f\u6e7e\u5c40","survey_name":"\u662d\u548c50\u5e74\u5ea6\u5bae\u53e4\u6e2f\u5cb8\u58c1(-12m)\u5730\u8cea\u8abf\u67fb\u5de5\u4e8b","client_name":"\u56fd\u571f\u4ea4\u901a\u7701\u6771\u5317\u5730\u65b9\u6574\u5099\u5c40\u4ed9\u53f0\u6e2f\u6e7e\u7a7a\u6e2f\u6280\u8853\u8abf\u67fb\u4e8b\u52d9\u6240","boring_xml_url":0,"boring_view_url":0,"soilmap_view_url":66,"soiltest_xml_url":0,"soiltest_view_url":66},{"id":113377,"code":"B4KJ201801000-1626","latitude":"39.63256549","longitude":"141.9736325","source_code":"PORT03001010095","project_name":"\u6e2f\u6e7e\u5c40","survey_name":"(\u662d\u548c49\u5e74\u5ea6)\u5bae\u53e4\u6e2f\u5730\u8cea\u8abf\u67fb\u5de5\u4e8b(\u305d\u306e3)","client_name":"\u56fd\u571f\u4ea4\u901a\u7701\u6771\u5317\u5730\u65b9\u6574\u5099\u5c40\u4ed9\u53f0\u6e2f\u6e7e\u7a7a\u6e2f\u6280\u8853\u8abf\u67fb\u4e8b\u52d9\u6240","boring_xml_url":0,"boring_view_url":0,"soilmap_view_url":66,"soiltest_xml_url":0,"soiltest_view_url":66},{"id":113376,"code":"B4KJ201801000-1625","latitude":"39.6333987","longitude":"141.973077","source_code":"PORT03001010094","project_name":"\u6e2f\u6e7e\u5c40","survey_name":"(\u662d\u548c49\u5e74\u5ea6)\u5bae\u53e4\u6e2f\u5730\u8cea\u8abf\u67fb\u5de5\u4e8b(\u305d\u306e3)","client_name":"\u56fd\u571f\u4ea4\u901a\u7701\u6771\u5317\u5730\u65b9\u6574\u5099\u5c40\u4ed9\u53f0\u6e2f\u6e7e\u7a7a\u6e2f\u6280\u8853\u8abf\u67fb\u4e8b\u52d9\u6240","boring_xml_url":0,"boring_view_url":0,"soilmap_view_url":66,"soiltest_xml_url":0,"soiltest_view_url":66},{"id":113375,"code":"B4KJ201801000-1624","latitude":"39.63423191","longitude":"141.9725214","source_code":"PORT03001010093","project_name":"\u6e2f\u6e7e\u5c40","survey_name":"(\u662d\u548c49\u5e74\u5ea6)\u5bae\u53e4\u6e2f\u5730\u8cea\u8abf\u67fb\u5de5\u4e8b(\u305d\u306e3)","client_name":"\u56fd\u571f\u4ea4\u901a\u7701\u6771\u5317\u5730\u65b9\u6574\u5099\u5c40\u4ed9\u53f0\u6e2f\u6e7e\u7a7a\u6e2f\u6280\u8853\u8abf\u67fb\u4e8b\u52d9\u6240","boring_xml_url":0,"boring_view_url":0,"soilmap_view_url":66,"soiltest_xml_url":0,"soiltest_view_url":66},{"id":113374,"code":"B4KJ201801000-1623","latitude":"39.6417308","longitude":"141.9680773","source_code":"PORT03001010092","project_name":"\u6e2f\u6e7e\u5c40","survey_name":"(\u662d\u548c49\u5e74\u5ea6)\u5bae\u53e4\u6e2f\u5730\u8cea\u8abf\u67fb\u5de5\u4e8b(\u305d\u306e3)","client_name":"\u56fd\u571f\u4ea4\u901a\u7701\u6771\u5317\u5730\u65b9\u6574\u5099\u5c40\u4ed9\u53f0\u6e2f\u6e7e\u7a7a\u6e2f\u6280\u8853\u8abf\u67fb\u4e8b\u52d9\u6240","boring_xml_url":0,"boring_view_url":0,"soilmap_view_url":66,"soiltest_xml_url":0,"soiltest_view_url":66},{"id":113373,"code":"B4KJ201801000-1622","latitude":"39.64200854","longitude":"141.9680773","source_code":"PORT03001010091","project_name":"\u6e2f\u6e7e\u5c40","survey_name":"(\u662d\u548c49\u5e74\u5ea6)\u5bae\u53e4\u6e2f\u5730\u8cea\u8abf\u67fb\u5de5\u4e8b(\u305d\u306e3)","client_name":"\u56fd\u571f\u4ea4\u901a\u7701\u6771\u5317\u5730\u65b9\u6574\u5099\u5c40\u4ed9\u53f0\u6e2f\u6e7e\u7a7a\u6e2f\u6280\u8853\u8abf\u67fb\u4e8b\u52d9\u6240","boring_xml_url":0,"boring_view_url":0,"soilmap_view_url":66,"soiltest_xml_url":0,"soiltest_view_url":66},{"id":113372,"code":"B4KJ201801000-1621","latitude":"39.64228628","longitude":"141.9680773","source_code":"PORT03001010090","project_name":"\u6e2f\u6e7e\u5c40","survey_name":"(\u662d\u548c49\u5e74\u5ea6)\u5bae\u53e4\u6e2f\u5730\u8cea\u8abf\u67fb\u5de5\u4e8b(\u305d\u306e3)","client_name":"\u56fd\u571f\u4ea4\u901a\u7701\u6771\u5317\u5730\u65b9\u6574\u5099\u5c40\u4ed9\u53f0\u6e2f\u6e7e\u7a7a\u6e2f\u6280\u8853\u8abf\u67fb\u4e8b\u52d9\u6240","boring_xml_url":0,"boring_view_url":0,"soilmap_view_url":66,"soiltest_xml_url":0,"soiltest_view_url":66},{"id":113371,"code":"B4KJ201801000-1620","latitude":"39.64173081","longitude":"141.968355","source_code":"PORT03001010089","project_name":"\u6e2f\u6e7e\u5c40","survey_name":"(\u662d\u548c49\u5e74\u5ea6)\u5bae\u53e4\u6e2f\u5730\u8cea\u8abf\u67fb\u5de5\u4e8b(\u305d\u306e3)","client_name":"\u56fd\u571f\u4ea4\u901a\u7701\u6771\u5317\u5730\u65b9\u6574\u5099\u5c40\u4ed9\u53f0\u6e2f\u6e7e\u7a7a\u6e2f\u6280\u8853\u8abf\u67fb\u4e8b\u52d9\u6240","boring_xml_url":0,"boring_view_url":0,"soilmap_view_url":66,"soiltest_xml_url":0,"soiltest_view_url":66},{"id":113370,"code":"B4KJ201801000-1619","latitude":"39.64200854","longitude":"141.968355","source_code":"PORT03001010088","project_name":"\u6e2f\u6e7e\u5c40","survey_name":"(\u662d\u548c49\u5e74\u5ea6)\u5bae\u53e4\u6e2f\u5730\u8cea\u8abf\u67fb\u5de5\u4e8b(\u305d\u306e3)","client_name":"\u56fd\u571f\u4ea4\u901a\u7701\u6771\u5317\u5730\u65b9\u6574\u5099\u5c40\u4ed9\u53f0\u6e2f\u6e7e\u7a7a\u6e2f\u6280\u8853\u8abf\u67fb\u4e8b\u52d9\u6240","boring_xml_url":0,"boring_view_url":0,"soilmap_view_url":66,"soiltest_xml_url":0,"soiltest_view_url":66},{"id":113369,"code":"B4KJ201801000-1618","latitude":"39.64395273","longitude":"141.9686327","source_code":"PORT03001010087","project_name":"\u6e2f\u6e7e\u5c40","survey_name":"(\u662d\u548c49\u5e74\u5ea6)\u5bae\u53e4\u6e2f\u5730\u8cea\u8abf\u67fb\u5de5\u4e8b(\u305d\u306e2)","client_name":"\u56fd\u571f\u4ea4\u901a\u7701\u6771\u5317\u5730\u65b9\u6574\u5099\u5c40\u4ed9\u53f0\u6e2f\u6e7e\u7a7a\u6e2f\u6280\u8853\u8abf\u67fb\u4e8b\u52d9\u6240","boring_xml_url":0,"boring_view_url":0,"soilmap_view_url":66,"soiltest_xml_url":0,"soiltest_view_url":0},{"id":113368,"code":"B4KJ201801000-1617","latitude":"39.64311951","longitude":"141.968355","source_code":"PORT03001010086","project_name":"\u6e2f\u6e7e\u5c40","survey_name":"(\u662d\u548c49\u5e74\u5ea6)\u5bae\u53e4\u6e2f\u5730\u8cea\u8abf\u67fb\u5de5\u4e8b(\u305d\u306e2)","client_name":"\u56fd\u571f\u4ea4\u901a\u7701\u6771\u5317\u5730\u65b9\u6574\u5099\u5c40\u4ed9\u53f0\u6e2f\u6e7e\u7a7a\u6e2f\u6280\u8853\u8abf\u67fb\u4e8b\u52d9\u6240","boring_xml_url":0,"boring_view_url":0,"soilmap_view_url":66,"soiltest_xml_url":0,"soiltest_view_url":0},{"id":113367,"code":"B4KJ201801000-1616","latitude":"39.63700916","longitude":"141.9644666","source_code":"PORT03001010085","project_name":"\u6e2f\u6e7e\u5c40","survey_name":"(\u662d\u548c49\u5e74\u5ea6)\u5bae\u53e4\u6e2f\u5730\u8cea\u8abf\u67fb\u5de5\u4e8b(\u305d\u306e2)","client_name":"\u56fd\u571f\u4ea4\u901a\u7701\u6771\u5317\u5730\u65b9\u6574\u5099\u5c40\u4ed9\u53f0\u6e2f\u6e7e\u7a7a\u6e2f\u6280\u8853\u8abf\u67fb\u4e8b\u52d9\u6240","boring_xml_url":0,"boring_view_url":0,"soilmap_view_url":66,"soiltest_xml_url":0,"soiltest_view_url":66},{"id":113366,"code":"B4KJ201801000-1615","latitude":"39.63700917","longitude":"141.9652999","source_code":"PORT03001010084","project_name":"\u6e2f\u6e7e\u5c40","survey_name":"(\u662d\u548c49\u5e74\u5ea6)\u5bae\u53e4\u6e2f\u5730\u8cea\u8abf\u67fb\u5de5\u4e8b(\u305d\u306e2)","client_name":"\u56fd\u571f\u4ea4\u901a\u7701\u6771\u5317\u5730\u65b9\u6574\u5099\u5c40\u4ed9\u53f0\u6e2f\u6e7e\u7a7a\u6e2f\u6280\u8853\u8abf\u67fb\u4e8b\u52d9\u6240","boring_xml_url":0,"boring_view_url":0,"soilmap_view_url":66,"soiltest_xml_url":0,"soiltest_view_url":66}]}}