{"header":{"xyz":{"source":[],"mosaic":false},"page":6910,"raw":{"soiltest_result":"0","bbox":"57.598333,109.544722,1.933333,163.806111","page":"6910"},"conditions":{"soiltest_result":0,"north":57.598333,"west":109.544722,"south":1.933333,"east":163.806111},"success":true,"message":""},"data":{"meta":{"total":212844,"page":6910,"pages":7095,"count":30},"values":[{"id":113275,"code":"B4KJ201801000-1524","latitude":"40.93055556","longitude":"141.3927778","source_code":"PORT02012010632","project_name":"\u6e2f\u6e7e\u5c40","survey_name":"\u5e73\u62106\u5e74\u5ea6\u3080\u3064\u5c0f\u5ddd\u539f\u6e2f\u9df9\u67b6\u5730\u533a\u822a\u8def\u6cca\u5730(-14m)\u571f\u8cea\u8abf\u67fb","client_name":"\u56fd\u571f\u4ea4\u901a\u7701\u6771\u5317\u5730\u65b9\u6574\u5099\u5c40\u4ed9\u53f0\u6e2f\u6e7e\u7a7a\u6e2f\u6280\u8853\u8abf\u67fb\u4e8b\u52d9\u6240","boring_xml_url":0,"boring_view_url":0,"soilmap_view_url":66,"soiltest_xml_url":0,"soiltest_view_url":0},{"id":113274,"code":"B4KJ201801000-1523","latitude":"40.93","longitude":"141.3886111","source_code":"PORT02012010631","project_name":"\u6e2f\u6e7e\u5c40","survey_name":"\u5e73\u62106\u5e74\u5ea6\u3080\u3064\u5c0f\u5ddd\u539f\u6e2f\u9df9\u67b6\u5730\u533a\u822a\u8def\u6cca\u5730(-14m)\u571f\u8cea\u8abf\u67fb","client_name":"\u56fd\u571f\u4ea4\u901a\u7701\u6771\u5317\u5730\u65b9\u6574\u5099\u5c40\u4ed9\u53f0\u6e2f\u6e7e\u7a7a\u6e2f\u6280\u8853\u8abf\u67fb\u4e8b\u52d9\u6240","boring_xml_url":0,"boring_view_url":0,"soilmap_view_url":66,"soiltest_xml_url":0,"soiltest_view_url":0},{"id":113273,"code":"B4KJ201801000-1522","latitude":"40.93","longitude":"141.3858333","source_code":"PORT02012010630","project_name":"\u6e2f\u6e7e\u5c40","survey_name":"\u5e73\u62106\u5e74\u5ea6\u3080\u3064\u5c0f\u5ddd\u539f\u6e2f\u9df9\u67b6\u5730\u533a\u822a\u8def\u6cca\u5730(-14m)\u571f\u8cea\u8abf\u67fb","client_name":"\u56fd\u571f\u4ea4\u901a\u7701\u6771\u5317\u5730\u65b9\u6574\u5099\u5c40\u4ed9\u53f0\u6e2f\u6e7e\u7a7a\u6e2f\u6280\u8853\u8abf\u67fb\u4e8b\u52d9\u6240","boring_xml_url":0,"boring_view_url":0,"soilmap_view_url":66,"soiltest_xml_url":0,"soiltest_view_url":0},{"id":113272,"code":"B4KJ201801000-1521","latitude":"40.94126261","longitude":"141.3493895","source_code":"PORT02012010629","project_name":"\u6e2f\u6e7e\u5c40","survey_name":"\u5e73\u62105\u5e74\u5ea6\u3080\u3064\u5c0f\u5ddd\u539f\u6e2f\u571f\u8cea\u8abf\u67fb","client_name":"\u56fd\u571f\u4ea4\u901a\u7701\u6771\u5317\u5730\u65b9\u6574\u5099\u5c40\u4ed9\u53f0\u6e2f\u6e7e\u7a7a\u6e2f\u6280\u8853\u8abf\u67fb\u4e8b\u52d9\u6240","boring_xml_url":0,"boring_view_url":0,"soilmap_view_url":66,"soiltest_xml_url":0,"soiltest_view_url":66},{"id":113271,"code":"B4KJ201801000-1520","latitude":"40.94169555","longitude":"141.3498546","source_code":"PORT02012010628","project_name":"\u6e2f\u6e7e\u5c40","survey_name":"\u5e73\u62105\u5e74\u5ea6\u3080\u3064\u5c0f\u5ddd\u539f\u6e2f\u571f\u8cea\u8abf\u67fb","client_name":"\u56fd\u571f\u4ea4\u901a\u7701\u6771\u5317\u5730\u65b9\u6574\u5099\u5c40\u4ed9\u53f0\u6e2f\u6e7e\u7a7a\u6e2f\u6280\u8853\u8abf\u67fb\u4e8b\u52d9\u6240","boring_xml_url":0,"boring_view_url":0,"soilmap_view_url":66,"soiltest_xml_url":0,"soiltest_view_url":66},{"id":113270,"code":"B4KJ201801000-1519","latitude":"40.9325","longitude":"141.3905556","source_code":"PORT02012010626","project_name":"\u6e2f\u6e7e\u5c40","survey_name":"\u5e73\u6210\u5143\u5e74\u5ea6\u3080\u3064\u5c0f\u5ddd\u539f\u6e2f\u9df9\u67b6\u5730\u533a\u822a\u8def\u6cca\u5730(-10m)\u5ca9\u76e4\u8abf\u67fb","client_name":"\u56fd\u571f\u4ea4\u901a\u7701\u6771\u5317\u5730\u65b9\u6574\u5099\u5c40\u4ed9\u53f0\u6e2f\u6e7e\u7a7a\u6e2f\u6280\u8853\u8abf\u67fb\u4e8b\u52d9\u6240","boring_xml_url":0,"boring_view_url":0,"soilmap_view_url":66,"soiltest_xml_url":0,"soiltest_view_url":0},{"id":113269,"code":"B4KJ201801000-1518","latitude":"40.93194444","longitude":"141.3913889","source_code":"PORT02012010625","project_name":"\u6e2f\u6e7e\u5c40","survey_name":"\u5e73\u6210\u5143\u5e74\u5ea6\u3080\u3064\u5c0f\u5ddd\u539f\u6e2f\u9df9\u67b6\u5730\u533a\u822a\u8def\u6cca\u5730(-10m)\u5ca9\u76e4\u8abf\u67fb","client_name":"\u56fd\u571f\u4ea4\u901a\u7701\u6771\u5317\u5730\u65b9\u6574\u5099\u5c40\u4ed9\u53f0\u6e2f\u6e7e\u7a7a\u6e2f\u6280\u8853\u8abf\u67fb\u4e8b\u52d9\u6240","boring_xml_url":0,"boring_view_url":0,"soilmap_view_url":66,"soiltest_xml_url":0,"soiltest_view_url":0},{"id":113268,"code":"B4KJ201801000-1517","latitude":"40.93194444","longitude":"141.3922222","source_code":"PORT02012010624","project_name":"\u6e2f\u6e7e\u5c40","survey_name":"\u5e73\u6210\u5143\u5e74\u5ea6\u3080\u3064\u5c0f\u5ddd\u539f\u6e2f\u9df9\u67b6\u5730\u533a\u822a\u8def\u6cca\u5730(-10m)\u5ca9\u76e4\u8abf\u67fb","client_name":"\u56fd\u571f\u4ea4\u901a\u7701\u6771\u5317\u5730\u65b9\u6574\u5099\u5c40\u4ed9\u53f0\u6e2f\u6e7e\u7a7a\u6e2f\u6280\u8853\u8abf\u67fb\u4e8b\u52d9\u6240","boring_xml_url":0,"boring_view_url":0,"soilmap_view_url":66,"soiltest_xml_url":0,"soiltest_view_url":0},{"id":113267,"code":"B4KJ201801000-1516","latitude":"40.93","longitude":"141.3927778","source_code":"PORT02012010623","project_name":"\u6e2f\u6e7e\u5c40","survey_name":"\u5e73\u6210\u5143\u5e74\u5ea6\u3080\u3064\u5c0f\u5ddd\u539f\u6e2f\u9df9\u67b6\u5730\u533a\u822a\u8def\u6cca\u5730(-10m)\u5ca9\u76e4\u8abf\u67fb","client_name":"\u56fd\u571f\u4ea4\u901a\u7701\u6771\u5317\u5730\u65b9\u6574\u5099\u5c40\u4ed9\u53f0\u6e2f\u6e7e\u7a7a\u6e2f\u6280\u8853\u8abf\u67fb\u4e8b\u52d9\u6240","boring_xml_url":0,"boring_view_url":0,"soilmap_view_url":66,"soiltest_xml_url":0,"soiltest_view_url":0},{"id":113266,"code":"B4KJ201801000-1515","latitude":"40.92972222","longitude":"141.3905556","source_code":"PORT02012010622","project_name":"\u6e2f\u6e7e\u5c40","survey_name":"\u5e73\u6210\u5143\u5e74\u5ea6\u3080\u3064\u5c0f\u5ddd\u539f\u6e2f\u9df9\u67b6\u5730\u533a\u822a\u8def\u6cca\u5730(-10m)\u5ca9\u76e4\u8abf\u67fb","client_name":"\u56fd\u571f\u4ea4\u901a\u7701\u6771\u5317\u5730\u65b9\u6574\u5099\u5c40\u4ed9\u53f0\u6e2f\u6e7e\u7a7a\u6e2f\u6280\u8853\u8abf\u67fb\u4e8b\u52d9\u6240","boring_xml_url":0,"boring_view_url":0,"soilmap_view_url":66,"soiltest_xml_url":0,"soiltest_view_url":0},{"id":113265,"code":"B4KJ201801000-1514","latitude":"40.92861111","longitude":"141.3875","source_code":"PORT02012010621","project_name":"\u6e2f\u6e7e\u5c40","survey_name":"\u5e73\u6210\u5143\u5e74\u5ea6\u3080\u3064\u5c0f\u5ddd\u539f\u6e2f\u9df9\u67b6\u5730\u533a\u822a\u8def\u6cca\u5730(-10m)\u5ca9\u76e4\u8abf\u67fb","client_name":"\u56fd\u571f\u4ea4\u901a\u7701\u6771\u5317\u5730\u65b9\u6574\u5099\u5c40\u4ed9\u53f0\u6e2f\u6e7e\u7a7a\u6e2f\u6280\u8853\u8abf\u67fb\u4e8b\u52d9\u6240","boring_xml_url":0,"boring_view_url":0,"soilmap_view_url":66,"soiltest_xml_url":0,"soiltest_view_url":0},{"id":113264,"code":"B4KJ201801000-1513","latitude":"40.93","longitude":"141.3977778","source_code":"PORT02012010620","project_name":"\u6e2f\u6e7e\u5c40","survey_name":"\u662d\u548c63\u5e74\u5ea6\u3080\u3064\u5c0f\u5ddd\u539f\u6e2f\u822a\u8def\u6cca\u5730(-10m)\u571f\u8cea\u8abf\u67fb","client_name":"\u56fd\u571f\u4ea4\u901a\u7701\u6771\u5317\u5730\u65b9\u6574\u5099\u5c40\u4ed9\u53f0\u6e2f\u6e7e\u7a7a\u6e2f\u6280\u8853\u8abf\u67fb\u4e8b\u52d9\u6240","boring_xml_url":0,"boring_view_url":0,"soilmap_view_url":66,"soiltest_xml_url":0,"soiltest_view_url":66},{"id":113263,"code":"B4KJ201801000-1512","latitude":"40.93055556","longitude":"141.3961111","source_code":"PORT02012010619","project_name":"\u6e2f\u6e7e\u5c40","survey_name":"\u662d\u548c63\u5e74\u5ea6\u3080\u3064\u5c0f\u5ddd\u539f\u6e2f\u822a\u8def\u6cca\u5730(-10m)\u571f\u8cea\u8abf\u67fb","client_name":"\u56fd\u571f\u4ea4\u901a\u7701\u6771\u5317\u5730\u65b9\u6574\u5099\u5c40\u4ed9\u53f0\u6e2f\u6e7e\u7a7a\u6e2f\u6280\u8853\u8abf\u67fb\u4e8b\u52d9\u6240","boring_xml_url":0,"boring_view_url":0,"soilmap_view_url":66,"soiltest_xml_url":0,"soiltest_view_url":66},{"id":113262,"code":"B4KJ201801000-1511","latitude":"40.93111111","longitude":"141.3944444","source_code":"PORT02012010618","project_name":"\u6e2f\u6e7e\u5c40","survey_name":"\u662d\u548c63\u5e74\u5ea6\u3080\u3064\u5c0f\u5ddd\u539f\u6e2f\u822a\u8def\u6cca\u5730(-10m)\u571f\u8cea\u8abf\u67fb","client_name":"\u56fd\u571f\u4ea4\u901a\u7701\u6771\u5317\u5730\u65b9\u6574\u5099\u5c40\u4ed9\u53f0\u6e2f\u6e7e\u7a7a\u6e2f\u6280\u8853\u8abf\u67fb\u4e8b\u52d9\u6240","boring_xml_url":0,"boring_view_url":0,"soilmap_view_url":66,"soiltest_xml_url":0,"soiltest_view_url":66},{"id":113261,"code":"B4KJ201801000-1510","latitude":"40.93111111","longitude":"141.3927778","source_code":"PORT02012010617","project_name":"\u6e2f\u6e7e\u5c40","survey_name":"\u662d\u548c63\u5e74\u5ea6\u3080\u3064\u5c0f\u5ddd\u539f\u6e2f\u822a\u8def\u6cca\u5730(-10m)\u571f\u8cea\u8abf\u67fb","client_name":"\u56fd\u571f\u4ea4\u901a\u7701\u6771\u5317\u5730\u65b9\u6574\u5099\u5c40\u4ed9\u53f0\u6e2f\u6e7e\u7a7a\u6e2f\u6280\u8853\u8abf\u67fb\u4e8b\u52d9\u6240","boring_xml_url":0,"boring_view_url":0,"soilmap_view_url":66,"soiltest_xml_url":0,"soiltest_view_url":66},{"id":113260,"code":"B4KJ201801000-1509","latitude":"40.93416667","longitude":"141.3944444","source_code":"PORT02012010616","project_name":"\u6e2f\u6e7e\u5c40","survey_name":"\u662d\u548c62\u5e74\u5ea6\u3080\u3064\u5c0f\u5ddd\u539f\u6e2f\u9632\u7802\u5824\u571f\u8cea\u8abf\u67fb","client_name":"\u56fd\u571f\u4ea4\u901a\u7701\u6771\u5317\u5730\u65b9\u6574\u5099\u5c40\u4ed9\u53f0\u6e2f\u6e7e\u7a7a\u6e2f\u6280\u8853\u8abf\u67fb\u4e8b\u52d9\u6240","boring_xml_url":0,"boring_view_url":0,"soilmap_view_url":66,"soiltest_xml_url":0,"soiltest_view_url":66},{"id":113259,"code":"B4KJ201801000-1508","latitude":"40.93416667","longitude":"141.3922222","source_code":"PORT02012010615","project_name":"\u6e2f\u6e7e\u5c40","survey_name":"\u662d\u548c62\u5e74\u5ea6\u3080\u3064\u5c0f\u5ddd\u539f\u6e2f\u9632\u7802\u5824\u571f\u8cea\u8abf\u67fb","client_name":"\u56fd\u571f\u4ea4\u901a\u7701\u6771\u5317\u5730\u65b9\u6574\u5099\u5c40\u4ed9\u53f0\u6e2f\u6e7e\u7a7a\u6e2f\u6280\u8853\u8abf\u67fb\u4e8b\u52d9\u6240","boring_xml_url":0,"boring_view_url":0,"soilmap_view_url":66,"soiltest_xml_url":0,"soiltest_view_url":66},{"id":113258,"code":"B4KJ201801000-1507","latitude":"40.93277778","longitude":"141.3797222","source_code":"PORT02012010614","project_name":"\u6e2f\u6e7e\u5c40","survey_name":"\u662d\u548c61\u5e74\u5ea6\u3080\u3064\u5c0f\u5ddd\u539f\u6e2f\u571f\u8cea\u8abf\u67fb(\u305d\u306e2)","client_name":"\u56fd\u571f\u4ea4\u901a\u7701\u6771\u5317\u5730\u65b9\u6574\u5099\u5c40\u4ed9\u53f0\u6e2f\u6e7e\u7a7a\u6e2f\u6280\u8853\u8abf\u67fb\u4e8b\u52d9\u6240","boring_xml_url":0,"boring_view_url":0,"soilmap_view_url":66,"soiltest_xml_url":0,"soiltest_view_url":66},{"id":113257,"code":"B4KJ201801000-1506","latitude":"40.93277778","longitude":"141.3813889","source_code":"PORT02012010613","project_name":"\u6e2f\u6e7e\u5c40","survey_name":"\u662d\u548c61\u5e74\u5ea6\u3080\u3064\u5c0f\u5ddd\u539f\u6e2f\u571f\u8cea\u8abf\u67fb(\u305d\u306e2)","client_name":"\u56fd\u571f\u4ea4\u901a\u7701\u6771\u5317\u5730\u65b9\u6574\u5099\u5c40\u4ed9\u53f0\u6e2f\u6e7e\u7a7a\u6e2f\u6280\u8853\u8abf\u67fb\u4e8b\u52d9\u6240","boring_xml_url":0,"boring_view_url":0,"soilmap_view_url":66,"soiltest_xml_url":0,"soiltest_view_url":66},{"id":113256,"code":"B4KJ201801000-1505","latitude":"40.93277778","longitude":"141.3833333","source_code":"PORT02012010612","project_name":"\u6e2f\u6e7e\u5c40","survey_name":"\u662d\u548c61\u5e74\u5ea6\u3080\u3064\u5c0f\u5ddd\u539f\u6e2f\u571f\u8cea\u8abf\u67fb(\u305d\u306e2)","client_name":"\u56fd\u571f\u4ea4\u901a\u7701\u6771\u5317\u5730\u65b9\u6574\u5099\u5c40\u4ed9\u53f0\u6e2f\u6e7e\u7a7a\u6e2f\u6280\u8853\u8abf\u67fb\u4e8b\u52d9\u6240","boring_xml_url":0,"boring_view_url":0,"soilmap_view_url":66,"soiltest_xml_url":0,"soiltest_view_url":66},{"id":113255,"code":"B4KJ201801000-1504","latitude":"40.9325","longitude":"141.385","source_code":"PORT02012010611","project_name":"\u6e2f\u6e7e\u5c40","survey_name":"\u662d\u548c61\u5e74\u5ea6\u3080\u3064\u5c0f\u5ddd\u539f\u6e2f\u571f\u8cea\u8abf\u67fb(\u305d\u306e2)","client_name":"\u56fd\u571f\u4ea4\u901a\u7701\u6771\u5317\u5730\u65b9\u6574\u5099\u5c40\u4ed9\u53f0\u6e2f\u6e7e\u7a7a\u6e2f\u6280\u8853\u8abf\u67fb\u4e8b\u52d9\u6240","boring_xml_url":0,"boring_view_url":0,"soilmap_view_url":66,"soiltest_xml_url":0,"soiltest_view_url":66},{"id":113254,"code":"B4KJ201801000-1503","latitude":"40.93222222","longitude":"141.3866667","source_code":"PORT02012010610","project_name":"\u6e2f\u6e7e\u5c40","survey_name":"\u662d\u548c61\u5e74\u5ea6\u3080\u3064\u5c0f\u5ddd\u539f\u6e2f\u571f\u8cea\u8abf\u67fb","client_name":"\u56fd\u571f\u4ea4\u901a\u7701\u6771\u5317\u5730\u65b9\u6574\u5099\u5c40\u4ed9\u53f0\u6e2f\u6e7e\u7a7a\u6e2f\u6280\u8853\u8abf\u67fb\u4e8b\u52d9\u6240","boring_xml_url":0,"boring_view_url":0,"soilmap_view_url":66,"soiltest_xml_url":0,"soiltest_view_url":66},{"id":113253,"code":"B4KJ201801000-1502","latitude":"40.93166667","longitude":"141.3883333","source_code":"PORT02012010609","project_name":"\u6e2f\u6e7e\u5c40","survey_name":"\u662d\u548c61\u5e74\u5ea6\u3080\u3064\u5c0f\u5ddd\u539f\u6e2f\u571f\u8cea\u8abf\u67fb","client_name":"\u56fd\u571f\u4ea4\u901a\u7701\u6771\u5317\u5730\u65b9\u6574\u5099\u5c40\u4ed9\u53f0\u6e2f\u6e7e\u7a7a\u6e2f\u6280\u8853\u8abf\u67fb\u4e8b\u52d9\u6240","boring_xml_url":0,"boring_view_url":0,"soilmap_view_url":66,"soiltest_xml_url":0,"soiltest_view_url":66},{"id":113252,"code":"B4KJ201801000-1501","latitude":"40.93111111","longitude":"141.3897222","source_code":"PORT02012010608","project_name":"\u6e2f\u6e7e\u5c40","survey_name":"\u662d\u548c61\u5e74\u5ea6\u3080\u3064\u5c0f\u5ddd\u539f\u6e2f\u571f\u8cea\u8abf\u67fb","client_name":"\u56fd\u571f\u4ea4\u901a\u7701\u6771\u5317\u5730\u65b9\u6574\u5099\u5c40\u4ed9\u53f0\u6e2f\u6e7e\u7a7a\u6e2f\u6280\u8853\u8abf\u67fb\u4e8b\u52d9\u6240","boring_xml_url":0,"boring_view_url":0,"soilmap_view_url":66,"soiltest_xml_url":0,"soiltest_view_url":66},{"id":113251,"code":"B4KJ201801000-1500","latitude":"40.93055556","longitude":"141.3916667","source_code":"PORT02012010607","project_name":"\u6e2f\u6e7e\u5c40","survey_name":"\u662d\u548c61\u5e74\u5ea6\u3080\u3064\u5c0f\u5ddd\u539f\u6e2f\u571f\u8cea\u8abf\u67fb","client_name":"\u56fd\u571f\u4ea4\u901a\u7701\u6771\u5317\u5730\u65b9\u6574\u5099\u5c40\u4ed9\u53f0\u6e2f\u6e7e\u7a7a\u6e2f\u6280\u8853\u8abf\u67fb\u4e8b\u52d9\u6240","boring_xml_url":0,"boring_view_url":0,"soilmap_view_url":66,"soiltest_xml_url":0,"soiltest_view_url":66},{"id":113250,"code":"B4KJ201801000-1499","latitude":"40.94361111","longitude":"141.3927778","source_code":"PORT02012010606","project_name":"\u6e2f\u6e7e\u5c40","survey_name":"\u662d\u548c58\u5e74\u5ea6\u3080\u3064\u5c0f\u5ddd\u539f\u6e2f\u571f\u8cea\u8abf\u67fb","client_name":"\u56fd\u571f\u4ea4\u901a\u7701\u6771\u5317\u5730\u65b9\u6574\u5099\u5c40\u4ed9\u53f0\u6e2f\u6e7e\u7a7a\u6e2f\u6280\u8853\u8abf\u67fb\u4e8b\u52d9\u6240","boring_xml_url":0,"boring_view_url":0,"soilmap_view_url":66,"soiltest_xml_url":0,"soiltest_view_url":66},{"id":113249,"code":"B4KJ201801000-1498","latitude":"40.94388889","longitude":"141.3911111","source_code":"PORT02012010605","project_name":"\u6e2f\u6e7e\u5c40","survey_name":"\u662d\u548c58\u5e74\u5ea6\u3080\u3064\u5c0f\u5ddd\u539f\u6e2f\u571f\u8cea\u8abf\u67fb","client_name":"\u56fd\u571f\u4ea4\u901a\u7701\u6771\u5317\u5730\u65b9\u6574\u5099\u5c40\u4ed9\u53f0\u6e2f\u6e7e\u7a7a\u6e2f\u6280\u8853\u8abf\u67fb\u4e8b\u52d9\u6240","boring_xml_url":0,"boring_view_url":0,"soilmap_view_url":66,"soiltest_xml_url":0,"soiltest_view_url":66},{"id":113248,"code":"B4KJ201801000-1497","latitude":"40.93111111","longitude":"141.3908333","source_code":"PORT02012010604","project_name":"\u6e2f\u6e7e\u5c40","survey_name":"\u662d\u548c53\u5e74\u5ea6\u3080\u3064\u5c0f\u5ddd\u539f\u6e2f\u571f\u8cea\u8abf\u67fb","client_name":"\u56fd\u571f\u4ea4\u901a\u7701\u6771\u5317\u5730\u65b9\u6574\u5099\u5c40\u4ed9\u53f0\u6e2f\u6e7e\u7a7a\u6e2f\u6280\u8853\u8abf\u67fb\u4e8b\u52d9\u6240","boring_xml_url":0,"boring_view_url":0,"soilmap_view_url":66,"soiltest_xml_url":0,"soiltest_view_url":66},{"id":113247,"code":"B4KJ201801000-1496","latitude":"40.935","longitude":"141.3538889","source_code":"PORT02012010603","project_name":"\u6e2f\u6e7e\u5c40","survey_name":"\u662d\u548c50\u5e74\u516b\u6238\u6e2f\u5c0f\u5ddd\u539f\u5730\u533a\u571f\u8cea\u8abf\u67fb","client_name":"\u56fd\u571f\u4ea4\u901a\u7701\u6771\u5317\u5730\u65b9\u6574\u5099\u5c40\u4ed9\u53f0\u6e2f\u6e7e\u7a7a\u6e2f\u6280\u8853\u8abf\u67fb\u4e8b\u52d9\u6240","boring_xml_url":0,"boring_view_url":0,"soilmap_view_url":66,"soiltest_xml_url":0,"soiltest_view_url":66},{"id":113246,"code":"B4KJ201801000-1495","latitude":"40.93138889","longitude":"141.3377778","source_code":"PORT02012010602","project_name":"\u6e2f\u6e7e\u5c40","survey_name":"\u662d\u548c50\u5e74\u516b\u6238\u6e2f\u5c0f\u5ddd\u539f\u5730\u533a\u571f\u8cea\u8abf\u67fb","client_name":"\u56fd\u571f\u4ea4\u901a\u7701\u6771\u5317\u5730\u65b9\u6574\u5099\u5c40\u4ed9\u53f0\u6e2f\u6e7e\u7a7a\u6e2f\u6280\u8853\u8abf\u67fb\u4e8b\u52d9\u6240","boring_xml_url":0,"boring_view_url":0,"soilmap_view_url":66,"soiltest_xml_url":0,"soiltest_view_url":66}]}}