{"header":{"xyz":{"source":[],"mosaic":false},"page":6924,"raw":{"soiltest_result":"0","bbox":"57.598333,109.544722,1.933333,163.806111","page":"6924"},"conditions":{"soiltest_result":0,"north":57.598333,"west":109.544722,"south":1.933333,"east":163.806111},"success":true,"message":""},"data":{"meta":{"total":212844,"page":6924,"pages":7095,"count":30},"values":[{"id":112855,"code":"B4KJ201801000-1104","latitude":"40.54916512","longitude":"141.5462128","source_code":"PORT02002010224","project_name":"\u6e2f\u6e7e\u5c40","survey_name":"\u5e73\u62104\u5e74\u5ea6\u516b\u6238\u6e2f\u5916\u6e2f\u5730\u533a\u4e2d\u592e\u9632\u6ce2\u5824\u571f\u8cea\u8abf\u67fb(\u305d\u306e2)","client_name":"\u56fd\u571f\u4ea4\u901a\u7701\u6771\u5317\u5730\u65b9\u6574\u5099\u5c40\u4ed9\u53f0\u6e2f\u6e7e\u7a7a\u6e2f\u6280\u8853\u8abf\u67fb\u4e8b\u52d9\u6240","boring_xml_url":0,"boring_view_url":0,"soilmap_view_url":66,"soiltest_xml_url":0,"soiltest_view_url":66},{"id":112854,"code":"B4KJ201801000-1103","latitude":"40.54987567","longitude":"141.5430579","source_code":"PORT02002010223","project_name":"\u6e2f\u6e7e\u5c40","survey_name":"\u5e73\u62104\u5e74\u5ea6\u516b\u6238\u6e2f\u5916\u6e2f\u5730\u533a\u4e2d\u592e\u9632\u6ce2\u5824\u571f\u8cea\u8abf\u67fb(\u305d\u306e2)","client_name":"\u56fd\u571f\u4ea4\u901a\u7701\u6771\u5317\u5730\u65b9\u6574\u5099\u5c40\u4ed9\u53f0\u6e2f\u6e7e\u7a7a\u6e2f\u6280\u8853\u8abf\u67fb\u4e8b\u52d9\u6240","boring_xml_url":0,"boring_view_url":0,"soilmap_view_url":66,"soiltest_xml_url":0,"soiltest_view_url":66},{"id":112853,"code":"B4KJ201801000-1102","latitude":"40.5421664","longitude":"141.5186416","source_code":"PORT02002010219","project_name":"\u6e2f\u6e7e\u5c40","survey_name":"\u5e73\u62103\u5e74\u5ea6\u516b\u6238\u6e2f\u571f\u8cea\u8abf\u67fb","client_name":"\u56fd\u571f\u4ea4\u901a\u7701\u6771\u5317\u5730\u65b9\u6574\u5099\u5c40\u4ed9\u53f0\u6e2f\u6e7e\u7a7a\u6e2f\u6280\u8853\u8abf\u67fb\u4e8b\u52d9\u6240","boring_xml_url":0,"boring_view_url":0,"soilmap_view_url":66,"soiltest_xml_url":0,"soiltest_view_url":66},{"id":112852,"code":"B4KJ201801000-1101","latitude":"40.54327733","longitude":"141.5166973","source_code":"PORT02002010218","project_name":"\u6e2f\u6e7e\u5c40","survey_name":"\u5e73\u62103\u5e74\u5ea6\u516b\u6238\u6e2f\u571f\u8cea\u8abf\u67fb","client_name":"\u56fd\u571f\u4ea4\u901a\u7701\u6771\u5317\u5730\u65b9\u6574\u5099\u5c40\u4ed9\u53f0\u6e2f\u6e7e\u7a7a\u6e2f\u6280\u8853\u8abf\u67fb\u4e8b\u52d9\u6240","boring_xml_url":0,"boring_view_url":0,"soilmap_view_url":66,"soiltest_xml_url":0,"soiltest_view_url":66},{"id":112851,"code":"B4KJ201801000-1100","latitude":"40.56299644","longitude":"141.4872555","source_code":"PORT02002010217","project_name":"\u6e2f\u6e7e\u5c40","survey_name":"\u5e73\u62103\u5e74\u5ea6\u516b\u6238\u6e2f\u516b\u592a\u90ce\u5730\u533a\u5cb8\u58c1(-12m)\u571f\u8cea\u8abf\u67fb","client_name":"\u56fd\u571f\u4ea4\u901a\u7701\u6771\u5317\u5730\u65b9\u6574\u5099\u5c40\u4ed9\u53f0\u6e2f\u6e7e\u7a7a\u6e2f\u6280\u8853\u8abf\u67fb\u4e8b\u52d9\u6240","boring_xml_url":0,"boring_view_url":0,"soilmap_view_url":66,"soiltest_xml_url":0,"soiltest_view_url":66},{"id":112850,"code":"B4KJ201801000-1099","latitude":"40.56299644","longitude":"141.4872555","source_code":"PORT02002010216","project_name":"\u6e2f\u6e7e\u5c40","survey_name":"\u5e73\u62103\u5e74\u5ea6\u516b\u6238\u6e2f\u516b\u592a\u90ce\u5730\u533a\u5cb8\u58c1(-12m)\u571f\u8cea\u8abf\u67fb","client_name":"\u56fd\u571f\u4ea4\u901a\u7701\u6771\u5317\u5730\u65b9\u6574\u5099\u5c40\u4ed9\u53f0\u6e2f\u6e7e\u7a7a\u6e2f\u6280\u8853\u8abf\u67fb\u4e8b\u52d9\u6240","boring_xml_url":0,"boring_view_url":0,"soilmap_view_url":66,"soiltest_xml_url":0,"soiltest_view_url":66},{"id":112849,"code":"B4KJ201801000-1098","latitude":"40.56299644","longitude":"141.4872555","source_code":"PORT02002010215","project_name":"\u6e2f\u6e7e\u5c40","survey_name":"\u5e73\u62103\u5e74\u5ea6\u516b\u6238\u6e2f\u516b\u592a\u90ce\u5730\u533a\u5cb8\u58c1(-12m)\u571f\u8cea\u8abf\u67fb","client_name":"\u56fd\u571f\u4ea4\u901a\u7701\u6771\u5317\u5730\u65b9\u6574\u5099\u5c40\u4ed9\u53f0\u6e2f\u6e7e\u7a7a\u6e2f\u6280\u8853\u8abf\u67fb\u4e8b\u52d9\u6240","boring_xml_url":0,"boring_view_url":0,"soilmap_view_url":66,"soiltest_xml_url":0,"soiltest_view_url":66},{"id":112848,"code":"B4KJ201801000-1097","latitude":"40.56299644","longitude":"141.4872555","source_code":"PORT02002010214","project_name":"\u6e2f\u6e7e\u5c40","survey_name":"\u5e73\u62103\u5e74\u5ea6\u516b\u6238\u6e2f\u516b\u592a\u90ce\u5730\u533a\u5cb8\u58c1(-12m)\u571f\u8cea\u8abf\u67fb","client_name":"\u56fd\u571f\u4ea4\u901a\u7701\u6771\u5317\u5730\u65b9\u6574\u5099\u5c40\u4ed9\u53f0\u6e2f\u6e7e\u7a7a\u6e2f\u6280\u8853\u8abf\u67fb\u4e8b\u52d9\u6240","boring_xml_url":0,"boring_view_url":0,"soilmap_view_url":66,"soiltest_xml_url":0,"soiltest_view_url":66},{"id":112847,"code":"B4KJ201801000-1096","latitude":"40.56299644","longitude":"141.4872555","source_code":"PORT02002010213","project_name":"\u6e2f\u6e7e\u5c40","survey_name":"\u5e73\u62103\u5e74\u5ea6\u516b\u6238\u6e2f\u516b\u592a\u90ce\u5730\u533a\u5cb8\u58c1(-12m)\u571f\u8cea\u8abf\u67fb","client_name":"\u56fd\u571f\u4ea4\u901a\u7701\u6771\u5317\u5730\u65b9\u6574\u5099\u5c40\u4ed9\u53f0\u6e2f\u6e7e\u7a7a\u6e2f\u6280\u8853\u8abf\u67fb\u4e8b\u52d9\u6240","boring_xml_url":0,"boring_view_url":0,"soilmap_view_url":66,"soiltest_xml_url":0,"soiltest_view_url":66},{"id":112846,"code":"B4KJ201801000-1095","latitude":"40.56299644","longitude":"141.4872555","source_code":"PORT02002010212","project_name":"\u6e2f\u6e7e\u5c40","survey_name":"\u5e73\u62103\u5e74\u5ea6\u516b\u6238\u6e2f\u516b\u592a\u90ce\u5730\u533a\u5cb8\u58c1(-12m)\u571f\u8cea\u8abf\u67fb","client_name":"\u56fd\u571f\u4ea4\u901a\u7701\u6771\u5317\u5730\u65b9\u6574\u5099\u5c40\u4ed9\u53f0\u6e2f\u6e7e\u7a7a\u6e2f\u6280\u8853\u8abf\u67fb\u4e8b\u52d9\u6240","boring_xml_url":0,"boring_view_url":0,"soilmap_view_url":66,"soiltest_xml_url":0,"soiltest_view_url":66},{"id":112845,"code":"B4KJ201801000-1094","latitude":"40.54161085","longitude":"141.5155864","source_code":"PORT02002010211","project_name":"\u6e2f\u6e7e\u5c40","survey_name":"\u516b\u6238\u6e2f\u571f\u8cea\u8abf\u67fb","client_name":"\u56fd\u571f\u4ea4\u901a\u7701\u6771\u5317\u5730\u65b9\u6574\u5099\u5c40\u4ed9\u53f0\u6e2f\u6e7e\u7a7a\u6e2f\u6280\u8853\u8abf\u67fb\u4e8b\u52d9\u6240","boring_xml_url":0,"boring_view_url":0,"soilmap_view_url":66,"soiltest_xml_url":0,"soiltest_view_url":66},{"id":112844,"code":"B4KJ201801000-1093","latitude":"40.54216633","longitude":"141.5153086","source_code":"PORT02002010210","project_name":"\u6e2f\u6e7e\u5c40","survey_name":"\u516b\u6238\u6e2f\u571f\u8cea\u8abf\u67fb","client_name":"\u56fd\u571f\u4ea4\u901a\u7701\u6771\u5317\u5730\u65b9\u6574\u5099\u5c40\u4ed9\u53f0\u6e2f\u6e7e\u7a7a\u6e2f\u6280\u8853\u8abf\u67fb\u4e8b\u52d9\u6240","boring_xml_url":0,"boring_view_url":0,"soilmap_view_url":66,"soiltest_xml_url":0,"soiltest_view_url":66},{"id":112843,"code":"B4KJ201801000-1092","latitude":"40.5418886","longitude":"141.5161418","source_code":"PORT02002010209","project_name":"\u6e2f\u6e7e\u5c40","survey_name":"\u516b\u6238\u6e2f\u571f\u8cea\u8abf\u67fb","client_name":"\u56fd\u571f\u4ea4\u901a\u7701\u6771\u5317\u5730\u65b9\u6574\u5099\u5c40\u4ed9\u53f0\u6e2f\u6e7e\u7a7a\u6e2f\u6280\u8853\u8abf\u67fb\u4e8b\u52d9\u6240","boring_xml_url":0,"boring_view_url":0,"soilmap_view_url":66,"soiltest_xml_url":0,"soiltest_view_url":66},{"id":112842,"code":"B4KJ201801000-1091","latitude":"40.54161085","longitude":"141.5158641","source_code":"PORT02002010208","project_name":"\u6e2f\u6e7e\u5c40","survey_name":"\u5e73\u62102\u5e74\u5ea6\u516b\u6238\u6e2f\u571f\u8cea\u8abf\u67fb(\u305d\u306e2)","client_name":"\u56fd\u571f\u4ea4\u901a\u7701\u6771\u5317\u5730\u65b9\u6574\u5099\u5c40\u4ed9\u53f0\u6e2f\u6e7e\u7a7a\u6e2f\u6280\u8853\u8abf\u67fb\u4e8b\u52d9\u6240","boring_xml_url":0,"boring_view_url":0,"soilmap_view_url":66,"soiltest_xml_url":0,"soiltest_view_url":66},{"id":112841,"code":"B4KJ201801000-1090","latitude":"40.54105539","longitude":"141.5166974","source_code":"PORT02002010207","project_name":"\u6e2f\u6e7e\u5c40","survey_name":"\u5e73\u62102\u5e74\u5ea6\u516b\u6238\u6e2f\u571f\u8cea\u8abf\u67fb(\u305d\u306e2)","client_name":"\u56fd\u571f\u4ea4\u901a\u7701\u6771\u5317\u5730\u65b9\u6574\u5099\u5c40\u4ed9\u53f0\u6e2f\u6e7e\u7a7a\u6e2f\u6280\u8853\u8abf\u67fb\u4e8b\u52d9\u6240","boring_xml_url":0,"boring_view_url":0,"soilmap_view_url":66,"soiltest_xml_url":0,"soiltest_view_url":66},{"id":112840,"code":"B4KJ201801000-1089","latitude":"40.54022217","longitude":"141.5172529","source_code":"PORT02002010206","project_name":"\u6e2f\u6e7e\u5c40","survey_name":"\u5e73\u62102\u5e74\u5ea6\u516b\u6238\u6e2f\u571f\u8cea\u8abf\u67fb","client_name":"\u56fd\u571f\u4ea4\u901a\u7701\u6771\u5317\u5730\u65b9\u6574\u5099\u5c40\u4ed9\u53f0\u6e2f\u6e7e\u7a7a\u6e2f\u6280\u8853\u8abf\u67fb\u4e8b\u52d9\u6240","boring_xml_url":0,"boring_view_url":0,"soilmap_view_url":66,"soiltest_xml_url":0,"soiltest_view_url":66},{"id":112839,"code":"B4KJ201801000-1088","latitude":"40.54049992","longitude":"141.5175306","source_code":"PORT02002010205","project_name":"\u6e2f\u6e7e\u5c40","survey_name":"\u5e73\u62102\u5e74\u5ea6\u516b\u6238\u6e2f\u571f\u8cea\u8abf\u67fb","client_name":"\u56fd\u571f\u4ea4\u901a\u7701\u6771\u5317\u5730\u65b9\u6574\u5099\u5c40\u4ed9\u53f0\u6e2f\u6e7e\u7a7a\u6e2f\u6280\u8853\u8abf\u67fb\u4e8b\u52d9\u6240","boring_xml_url":0,"boring_view_url":0,"soilmap_view_url":66,"soiltest_xml_url":0,"soiltest_view_url":66},{"id":112838,"code":"B4KJ201801000-1087","latitude":"40.54049993","longitude":"141.5178084","source_code":"PORT02002010204","project_name":"\u6e2f\u6e7e\u5c40","survey_name":"\u5e73\u62102\u5e74\u5ea6\u516b\u6238\u6e2f\u571f\u8cea\u8abf\u67fb","client_name":"\u56fd\u571f\u4ea4\u901a\u7701\u6771\u5317\u5730\u65b9\u6574\u5099\u5c40\u4ed9\u53f0\u6e2f\u6e7e\u7a7a\u6e2f\u6280\u8853\u8abf\u67fb\u4e8b\u52d9\u6240","boring_xml_url":0,"boring_view_url":0,"soilmap_view_url":66,"soiltest_xml_url":0,"soiltest_view_url":66},{"id":112837,"code":"B4KJ201801000-1086","latitude":"40.55522008","longitude":"141.5075313","source_code":"PORT02002010202","project_name":"\u6e2f\u6e7e\u5c40","survey_name":"\u5e73\u6210\u5143\u5e74\u5ea6\u516b\u6238\u6e2f\u516b\u592a\u90ce\u5730\u533a\u822a\u8def\u6cca\u5730(-13m)\u5916\u571f\u8cea\u8abf\u67fb","client_name":"\u56fd\u571f\u4ea4\u901a\u7701\u6771\u5317\u5730\u65b9\u6574\u5099\u5c40\u4ed9\u53f0\u6e2f\u6e7e\u7a7a\u6e2f\u6280\u8853\u8abf\u67fb\u4e8b\u52d9\u6240","boring_xml_url":0,"boring_view_url":0,"soilmap_view_url":66,"soiltest_xml_url":0,"soiltest_view_url":66},{"id":112836,"code":"B4KJ201801000-1085","latitude":"40.55633095","longitude":"141.5030873","source_code":"PORT02002010201","project_name":"\u6e2f\u6e7e\u5c40","survey_name":"\u5e73\u6210\u5143\u5e74\u5ea6\u516b\u6238\u6e2f\u516b\u592a\u90ce\u5730\u533a\u822a\u8def\u6cca\u5730(-13m)\u5916\u571f\u8cea\u8abf\u67fb","client_name":"\u56fd\u571f\u4ea4\u901a\u7701\u6771\u5317\u5730\u65b9\u6574\u5099\u5c40\u4ed9\u53f0\u6e2f\u6e7e\u7a7a\u6e2f\u6280\u8853\u8abf\u67fb\u4e8b\u52d9\u6240","boring_xml_url":0,"boring_view_url":0,"soilmap_view_url":66,"soiltest_xml_url":0,"soiltest_view_url":66},{"id":112835,"code":"B4KJ201801000-1084","latitude":"40.56188562","longitude":"141.4941992","source_code":"PORT02002010200","project_name":"\u6e2f\u6e7e\u5c40","survey_name":"\u5e73\u6210\u5143\u5e74\u5ea6\u516b\u6238\u6e2f\u516b\u592a\u90ce\u5730\u533a\u822a\u8def\u6cca\u5730(-13m)\u5916\u571f\u8cea\u8abf\u67fb","client_name":"\u56fd\u571f\u4ea4\u901a\u7701\u6771\u5317\u5730\u65b9\u6574\u5099\u5c40\u4ed9\u53f0\u6e2f\u6e7e\u7a7a\u6e2f\u6280\u8853\u8abf\u67fb\u4e8b\u52d9\u6240","boring_xml_url":0,"boring_view_url":0,"soilmap_view_url":66,"soiltest_xml_url":0,"soiltest_view_url":66},{"id":112834,"code":"B4KJ201801000-1083","latitude":"40.5627189","longitude":"141.4961434","source_code":"PORT02002010199","project_name":"\u6e2f\u6e7e\u5c40","survey_name":"\u5e73\u6210\u5143\u5e74\u5ea6\u516b\u6238\u6e2f\u516b\u592a\u90ce\u5730\u533a\u822a\u8def\u6cca\u5730(-13m)\u5916\u571f\u8cea\u8abf\u67fb","client_name":"\u56fd\u571f\u4ea4\u901a\u7701\u6771\u5317\u5730\u65b9\u6574\u5099\u5c40\u4ed9\u53f0\u6e2f\u6e7e\u7a7a\u6e2f\u6280\u8853\u8abf\u67fb\u4e8b\u52d9\u6240","boring_xml_url":0,"boring_view_url":0,"soilmap_view_url":66,"soiltest_xml_url":0,"soiltest_view_url":66},{"id":112833,"code":"B4KJ201801000-1082","latitude":"40.56299655","longitude":"141.4919772","source_code":"PORT02002010198","project_name":"\u6e2f\u6e7e\u5c40","survey_name":"\u5e73\u6210\u5143\u5e74\u5ea6\u516b\u6238\u6e2f\u516b\u592a\u90ce\u5730\u533a\u822a\u8def\u6cca\u5730(-13m)\u5916\u571f\u8cea\u8abf\u67fb","client_name":"\u56fd\u571f\u4ea4\u901a\u7701\u6771\u5317\u5730\u65b9\u6574\u5099\u5c40\u4ed9\u53f0\u6e2f\u6e7e\u7a7a\u6e2f\u6280\u8853\u8abf\u67fb\u4e8b\u52d9\u6240","boring_xml_url":0,"boring_view_url":0,"soilmap_view_url":66,"soiltest_xml_url":0,"soiltest_view_url":66},{"id":112832,"code":"B4KJ201801000-1081","latitude":"40.56355208","longitude":"141.4941992","source_code":"PORT02002010197","project_name":"\u6e2f\u6e7e\u5c40","survey_name":"\u5e73\u6210\u5143\u5e74\u5ea6\u516b\u6238\u6e2f\u516b\u592a\u90ce\u5730\u533a\u822a\u8def\u6cca\u5730(-13m)\u5916\u571f\u8cea\u8abf\u67fb","client_name":"\u56fd\u571f\u4ea4\u901a\u7701\u6771\u5317\u5730\u65b9\u6574\u5099\u5c40\u4ed9\u53f0\u6e2f\u6e7e\u7a7a\u6e2f\u6280\u8853\u8abf\u67fb\u4e8b\u52d9\u6240","boring_xml_url":0,"boring_view_url":0,"soilmap_view_url":66,"soiltest_xml_url":0,"soiltest_view_url":66},{"id":112831,"code":"B4KJ201801000-1080","latitude":"40.55022978","longitude":"141.5494395","source_code":"PORT02002010196","project_name":"\u6e2f\u6e7e\u5c40","survey_name":"\u5e73\u6210\u5143\u5e74\u5ea6\u516b\u6238\u6e2f\u5916\u6e2f\u5730\u533a\u7b2c2\u4e2d\u592e\u9632\u6ce2\u5824\u571f\u8cea\u8abf\u67fb","client_name":"\u56fd\u571f\u4ea4\u901a\u7701\u6771\u5317\u5730\u65b9\u6574\u5099\u5c40\u4ed9\u53f0\u6e2f\u6e7e\u7a7a\u6e2f\u6280\u8853\u8abf\u67fb\u4e8b\u52d9\u6240","boring_xml_url":0,"boring_view_url":0,"soilmap_view_url":66,"soiltest_xml_url":0,"soiltest_view_url":66},{"id":112830,"code":"B4KJ201801000-1079","latitude":"40.55106301","longitude":"141.5494394","source_code":"PORT02002010195","project_name":"\u6e2f\u6e7e\u5c40","survey_name":"\u5e73\u6210\u5143\u5e74\u5ea6\u516b\u6238\u6e2f\u5916\u6e2f\u5730\u533a\u7b2c2\u4e2d\u592e\u9632\u6ce2\u5824\u571f\u8cea\u8abf\u67fb","client_name":"\u56fd\u571f\u4ea4\u901a\u7701\u6771\u5317\u5730\u65b9\u6574\u5099\u5c40\u4ed9\u53f0\u6e2f\u6e7e\u7a7a\u6e2f\u6280\u8853\u8abf\u67fb\u4e8b\u52d9\u6240","boring_xml_url":0,"boring_view_url":0,"soilmap_view_url":66,"soiltest_xml_url":0,"soiltest_view_url":66},{"id":112829,"code":"B4KJ201801000-1078","latitude":"40.55217399","longitude":"141.5494394","source_code":"PORT02002010194","project_name":"\u6e2f\u6e7e\u5c40","survey_name":"\u5e73\u6210\u5143\u5e74\u5ea6\u516b\u6238\u6e2f\u5916\u6e2f\u5730\u533a\u7b2c2\u4e2d\u592e\u9632\u6ce2\u5824\u571f\u8cea\u8abf\u67fb","client_name":"\u56fd\u571f\u4ea4\u901a\u7701\u6771\u5317\u5730\u65b9\u6574\u5099\u5c40\u4ed9\u53f0\u6e2f\u6e7e\u7a7a\u6e2f\u6280\u8853\u8abf\u67fb\u4e8b\u52d9\u6240","boring_xml_url":0,"boring_view_url":0,"soilmap_view_url":66,"soiltest_xml_url":0,"soiltest_view_url":66},{"id":112828,"code":"B4KJ201801000-1077","latitude":"40.55772816","longitude":"141.5261078","source_code":"PORT02002010193","project_name":"\u6e2f\u6e7e\u5c40","survey_name":"\u5e73\u62102\u5e74\u5ea6\u516b\u6238\u6e2f\u516b\u592a\u90ce\u5730\u533a\u5317\u9632\u6ce2\u5824\u571f\u8cea\u8abf\u67fb","client_name":"\u56fd\u571f\u4ea4\u901a\u7701\u6771\u5317\u5730\u65b9\u6574\u5099\u5c40\u4ed9\u53f0\u6e2f\u6e7e\u7a7a\u6e2f\u6280\u8853\u8abf\u67fb\u4e8b\u52d9\u6240","boring_xml_url":0,"boring_view_url":0,"soilmap_view_url":66,"soiltest_xml_url":0,"soiltest_view_url":66},{"id":112827,"code":"B4KJ201801000-1076","latitude":"40.55828368","longitude":"141.5269411","source_code":"PORT02002010192","project_name":"\u6e2f\u6e7e\u5c40","survey_name":"\u5e73\u62102\u5e74\u5ea6\u516b\u6238\u6e2f\u516b\u592a\u90ce\u5730\u533a\u5317\u9632\u6ce2\u5824\u571f\u8cea\u8abf\u67fb","client_name":"\u56fd\u571f\u4ea4\u901a\u7701\u6771\u5317\u5730\u65b9\u6574\u5099\u5c40\u4ed9\u53f0\u6e2f\u6e7e\u7a7a\u6e2f\u6280\u8853\u8abf\u67fb\u4e8b\u52d9\u6240","boring_xml_url":0,"boring_view_url":0,"soilmap_view_url":66,"soiltest_xml_url":0,"soiltest_view_url":66},{"id":112826,"code":"B4KJ201801000-1075","latitude":"40.55883921","longitude":"141.528052","source_code":"PORT02002010191","project_name":"\u6e2f\u6e7e\u5c40","survey_name":"\u5e73\u62102\u5e74\u5ea6\u516b\u6238\u6e2f\u516b\u592a\u90ce\u5730\u533a\u5317\u9632\u6ce2\u5824\u571f\u8cea\u8abf\u67fb","client_name":"\u56fd\u571f\u4ea4\u901a\u7701\u6771\u5317\u5730\u65b9\u6574\u5099\u5c40\u4ed9\u53f0\u6e2f\u6e7e\u7a7a\u6e2f\u6280\u8853\u8abf\u67fb\u4e8b\u52d9\u6240","boring_xml_url":0,"boring_view_url":0,"soilmap_view_url":66,"soiltest_xml_url":0,"soiltest_view_url":66}]}}