{"header":{"xyz":{"source":[],"mosaic":false},"page":6929,"raw":{"soiltest_result":"0","bbox":"57.598333,109.544722,1.933333,163.806111","page":"6929"},"conditions":{"soiltest_result":0,"north":57.598333,"west":109.544722,"south":1.933333,"east":163.806111},"success":true,"message":""},"data":{"meta":{"total":212844,"page":6929,"pages":7095,"count":30},"values":[{"id":112705,"code":"B4KJ201801000-0954","latitude":"40.55466443","longitude":"141.5003099","source_code":"PORT02002010070","project_name":"\u6e2f\u6e7e\u5c40","survey_name":"\u662d\u548c44\u5e74\u5ea6\u516b\u6238\u6e2f\u516b\u592a\u90ce\u5730\u533a\u5730\u8cea\u8abf\u67fb\u5de5\u4e8b","client_name":"\u56fd\u571f\u4ea4\u901a\u7701\u6771\u5317\u5730\u65b9\u6574\u5099\u5c40\u4ed9\u53f0\u6e2f\u6e7e\u7a7a\u6e2f\u6280\u8853\u8abf\u67fb\u4e8b\u52d9\u6240","boring_xml_url":0,"boring_view_url":0,"soilmap_view_url":66,"soiltest_xml_url":0,"soiltest_view_url":0},{"id":112704,"code":"B4KJ201801000-0953","latitude":"40.55910799","longitude":"141.4853114","source_code":"PORT02002010069","project_name":"\u6e2f\u6e7e\u5c40","survey_name":"\u662d\u548c44\u5e74\u5ea6\u516b\u6238\u6e2f\u516b\u592a\u90ce\u5730\u533a\u5730\u8cea\u8abf\u67fb\u5de5\u4e8b(\u305d\u306e2)","client_name":"\u56fd\u571f\u4ea4\u901a\u7701\u6771\u5317\u5730\u65b9\u6574\u5099\u5c40\u4ed9\u53f0\u6e2f\u6e7e\u7a7a\u6e2f\u6280\u8853\u8abf\u67fb\u4e8b\u52d9\u6240","boring_xml_url":0,"boring_view_url":0,"soilmap_view_url":66,"soiltest_xml_url":0,"soiltest_view_url":66},{"id":112703,"code":"B4KJ201801000-0952","latitude":"40.5549422","longitude":"141.5014208","source_code":"PORT02002010068","project_name":"\u6e2f\u6e7e\u5c40","survey_name":"\u662d\u548c44\u5e74\u5ea6\u516b\u6238\u6e2f\u516b\u592a\u90ce\u5730\u533a\u5730\u8cea\u8abf\u67fb\u5de5\u4e8b","client_name":"\u56fd\u571f\u4ea4\u901a\u7701\u6771\u5317\u5730\u65b9\u6574\u5099\u5c40\u4ed9\u53f0\u6e2f\u6e7e\u7a7a\u6e2f\u6280\u8853\u8abf\u67fb\u4e8b\u52d9\u6240","boring_xml_url":0,"boring_view_url":0,"soilmap_view_url":66,"soiltest_xml_url":0,"soiltest_view_url":0},{"id":112702,"code":"B4KJ201801000-0951","latitude":"40.55910799","longitude":"141.4853114","source_code":"PORT02002010067","project_name":"\u6e2f\u6e7e\u5c40","survey_name":"\u662d\u548c44\u5e74\u5ea6\u516b\u6238\u6e2f\u516b\u592a\u90ce\u5730\u533a\u5730\u8cea\u8abf\u67fb\u5de5\u4e8b(\u305d\u306e2)","client_name":"\u56fd\u571f\u4ea4\u901a\u7701\u6771\u5317\u5730\u65b9\u6574\u5099\u5c40\u4ed9\u53f0\u6e2f\u6e7e\u7a7a\u6e2f\u6280\u8853\u8abf\u67fb\u4e8b\u52d9\u6240","boring_xml_url":0,"boring_view_url":0,"soilmap_view_url":66,"soiltest_xml_url":0,"soiltest_view_url":66},{"id":112701,"code":"B4KJ201801000-0950","latitude":"40.55577541","longitude":"141.5005876","source_code":"PORT02002010066","project_name":"\u6e2f\u6e7e\u5c40","survey_name":"\u662d\u548c44\u5e74\u5ea6\u516b\u6238\u6e2f\u516b\u592a\u90ce\u5730\u533a\u5730\u8cea\u8abf\u67fb\u5de5\u4e8b","client_name":"\u56fd\u571f\u4ea4\u901a\u7701\u6771\u5317\u5730\u65b9\u6574\u5099\u5c40\u4ed9\u53f0\u6e2f\u6e7e\u7a7a\u6e2f\u6280\u8853\u8abf\u67fb\u4e8b\u52d9\u6240","boring_xml_url":0,"boring_view_url":0,"soilmap_view_url":66,"soiltest_xml_url":0,"soiltest_view_url":0},{"id":112700,"code":"B4KJ201801000-0949","latitude":"40.55938573","longitude":"141.4850336","source_code":"PORT02002010065","project_name":"\u6e2f\u6e7e\u5c40","survey_name":"\u662d\u548c44\u5e74\u5ea6\u516b\u6238\u6e2f\u516b\u592a\u90ce\u5730\u533a\u5730\u8cea\u8abf\u67fb\u5de5\u4e8b(\u305d\u306e2)","client_name":"\u56fd\u571f\u4ea4\u901a\u7701\u6771\u5317\u5730\u65b9\u6574\u5099\u5c40\u4ed9\u53f0\u6e2f\u6e7e\u7a7a\u6e2f\u6280\u8853\u8abf\u67fb\u4e8b\u52d9\u6240","boring_xml_url":0,"boring_view_url":0,"soilmap_view_url":66,"soiltest_xml_url":0,"soiltest_view_url":66},{"id":112699,"code":"B4KJ201801000-0948","latitude":"40.55660856","longitude":"141.4972546","source_code":"PORT02002010064","project_name":"\u6e2f\u6e7e\u5c40","survey_name":"\u662d\u548c44\u5e74\u5ea6\u516b\u6238\u6e2f\u516b\u592a\u90ce\u5730\u533a\u5730\u8cea\u8abf\u67fb\u5de5\u4e8b","client_name":"\u56fd\u571f\u4ea4\u901a\u7701\u6771\u5317\u5730\u65b9\u6574\u5099\u5c40\u4ed9\u53f0\u6e2f\u6e7e\u7a7a\u6e2f\u6280\u8853\u8abf\u67fb\u4e8b\u52d9\u6240","boring_xml_url":0,"boring_view_url":0,"soilmap_view_url":66,"soiltest_xml_url":0,"soiltest_view_url":0},{"id":112698,"code":"B4KJ201801000-0947","latitude":"40.55966347","longitude":"141.4850336","source_code":"PORT02002010063","project_name":"\u6e2f\u6e7e\u5c40","survey_name":"\u662d\u548c44\u5e74\u5ea6\u516b\u6238\u6e2f\u516b\u592a\u90ce\u5730\u533a\u5730\u8cea\u8abf\u67fb\u5de5\u4e8b(\u305d\u306e2)","client_name":"\u56fd\u571f\u4ea4\u901a\u7701\u6771\u5317\u5730\u65b9\u6574\u5099\u5c40\u4ed9\u53f0\u6e2f\u6e7e\u7a7a\u6e2f\u6280\u8853\u8abf\u67fb\u4e8b\u52d9\u6240","boring_xml_url":0,"boring_view_url":0,"soilmap_view_url":66,"soiltest_xml_url":0,"soiltest_view_url":66},{"id":112697,"code":"B4KJ201801000-0946","latitude":"40.55688634","longitude":"141.4989211","source_code":"PORT02002010062","project_name":"\u6e2f\u6e7e\u5c40","survey_name":"\u662d\u548c44\u5e74\u5ea6\u516b\u6238\u6e2f\u516b\u592a\u90ce\u5730\u533a\u5730\u8cea\u8abf\u67fb\u5de5\u4e8b","client_name":"\u56fd\u571f\u4ea4\u901a\u7701\u6771\u5317\u5730\u65b9\u6574\u5099\u5c40\u4ed9\u53f0\u6e2f\u6e7e\u7a7a\u6e2f\u6280\u8853\u8abf\u67fb\u4e8b\u52d9\u6240","boring_xml_url":0,"boring_view_url":0,"soilmap_view_url":66,"soiltest_xml_url":0,"soiltest_view_url":0},{"id":112696,"code":"B4KJ201801000-0945","latitude":"40.55883025","longitude":"141.4853114","source_code":"PORT02002010061","project_name":"\u6e2f\u6e7e\u5c40","survey_name":"\u662d\u548c44\u5e74\u5ea6\u516b\u6238\u6e2f\u516b\u592a\u90ce\u5730\u533a\u5730\u8cea\u8abf\u67fb\u5de5\u4e8b(\u305d\u306e2)","client_name":"\u56fd\u571f\u4ea4\u901a\u7701\u6771\u5317\u5730\u65b9\u6574\u5099\u5c40\u4ed9\u53f0\u6e2f\u6e7e\u7a7a\u6e2f\u6280\u8853\u8abf\u67fb\u4e8b\u52d9\u6240","boring_xml_url":0,"boring_view_url":0,"soilmap_view_url":66,"soiltest_xml_url":0,"soiltest_view_url":66},{"id":112695,"code":"B4KJ201801000-0944","latitude":"40.55716406","longitude":"141.4978101","source_code":"PORT02002010060","project_name":"\u6e2f\u6e7e\u5c40","survey_name":"\u662d\u548c44\u5e74\u5ea6\u516b\u6238\u6e2f\u516b\u592a\u90ce\u5730\u533a\u5730\u8cea\u8abf\u67fb\u5de5\u4e8b","client_name":"\u56fd\u571f\u4ea4\u901a\u7701\u6771\u5317\u5730\u65b9\u6574\u5099\u5c40\u4ed9\u53f0\u6e2f\u6e7e\u7a7a\u6e2f\u6280\u8853\u8abf\u67fb\u4e8b\u52d9\u6240","boring_xml_url":0,"boring_view_url":0,"soilmap_view_url":66,"soiltest_xml_url":0,"soiltest_view_url":0},{"id":112694,"code":"B4KJ201801000-0943","latitude":"40.55910798","longitude":"141.4850336","source_code":"PORT02002010059","project_name":"\u6e2f\u6e7e\u5c40","survey_name":"\u662d\u548c44\u5e74\u5ea6\u516b\u6238\u6e2f\u516b\u592a\u90ce\u5730\u533a\u5730\u8cea\u8abf\u67fb\u5de5\u4e8b(\u305d\u306e2)","client_name":"\u56fd\u571f\u4ea4\u901a\u7701\u6771\u5317\u5730\u65b9\u6574\u5099\u5c40\u4ed9\u53f0\u6e2f\u6e7e\u7a7a\u6e2f\u6280\u8853\u8abf\u67fb\u4e8b\u52d9\u6240","boring_xml_url":0,"boring_view_url":0,"soilmap_view_url":66,"soiltest_xml_url":0,"soiltest_view_url":66},{"id":112693,"code":"B4KJ201801000-0942","latitude":"40.55744178","longitude":"141.4966991","source_code":"PORT02002010058","project_name":"\u6e2f\u6e7e\u5c40","survey_name":"\u662d\u548c44\u5e74\u5ea6\u516b\u6238\u6e2f\u516b\u592a\u90ce\u5730\u533a\u5730\u8cea\u8abf\u67fb\u5de5\u4e8b","client_name":"\u56fd\u571f\u4ea4\u901a\u7701\u6771\u5317\u5730\u65b9\u6574\u5099\u5c40\u4ed9\u53f0\u6e2f\u6e7e\u7a7a\u6e2f\u6280\u8853\u8abf\u67fb\u4e8b\u52d9\u6240","boring_xml_url":0,"boring_view_url":0,"soilmap_view_url":66,"soiltest_xml_url":0,"soiltest_view_url":0},{"id":112692,"code":"B4KJ201801000-0941","latitude":"40.55938572","longitude":"141.4847559","source_code":"PORT02002010057","project_name":"\u6e2f\u6e7e\u5c40","survey_name":"\u662d\u548c44\u5e74\u5ea6\u516b\u6238\u6e2f\u516b\u592a\u90ce\u5730\u533a\u5730\u8cea\u8abf\u67fb\u5de5\u4e8b(\u305d\u306e2)","client_name":"\u56fd\u571f\u4ea4\u901a\u7701\u6771\u5317\u5730\u65b9\u6574\u5099\u5c40\u4ed9\u53f0\u6e2f\u6e7e\u7a7a\u6e2f\u6280\u8853\u8abf\u67fb\u4e8b\u52d9\u6240","boring_xml_url":0,"boring_view_url":0,"soilmap_view_url":66,"soiltest_xml_url":0,"soiltest_view_url":66},{"id":112691,"code":"B4KJ201801000-0940","latitude":"40.55744176","longitude":"141.4955881","source_code":"PORT02002010056","project_name":"\u6e2f\u6e7e\u5c40","survey_name":"\u662d\u548c44\u5e74\u5ea6\u516b\u6238\u6e2f\u516b\u592a\u90ce\u5730\u533a\u5730\u8cea\u8abf\u67fb\u5de5\u4e8b","client_name":"\u56fd\u571f\u4ea4\u901a\u7701\u6771\u5317\u5730\u65b9\u6574\u5099\u5c40\u4ed9\u53f0\u6e2f\u6e7e\u7a7a\u6e2f\u6280\u8853\u8abf\u67fb\u4e8b\u52d9\u6240","boring_xml_url":0,"boring_view_url":0,"soilmap_view_url":66,"soiltest_xml_url":0,"soiltest_view_url":0},{"id":112690,"code":"B4KJ201801000-0939","latitude":"40.55966347","longitude":"141.4847559","source_code":"PORT02002010055","project_name":"\u6e2f\u6e7e\u5c40","survey_name":"\u662d\u548c44\u5e74\u5ea6\u516b\u6238\u6e2f\u516b\u592a\u90ce\u5730\u533a\u5730\u8cea\u8abf\u67fb\u5de5\u4e8b(\u305d\u306e2)","client_name":"\u56fd\u571f\u4ea4\u901a\u7701\u6771\u5317\u5730\u65b9\u6574\u5099\u5c40\u4ed9\u53f0\u6e2f\u6e7e\u7a7a\u6e2f\u6280\u8853\u8abf\u67fb\u4e8b\u52d9\u6240","boring_xml_url":0,"boring_view_url":0,"soilmap_view_url":66,"soiltest_xml_url":0,"soiltest_view_url":66},{"id":112689,"code":"B4KJ201801000-0938","latitude":"40.55771948","longitude":"141.4944771","source_code":"PORT02002010054","project_name":"\u6e2f\u6e7e\u5c40","survey_name":"\u662d\u548c44\u5e74\u5ea6\u516b\u6238\u6e2f\u516b\u592a\u90ce\u5730\u533a\u5730\u8cea\u8abf\u67fb\u5de5\u4e8b","client_name":"\u56fd\u571f\u4ea4\u901a\u7701\u6771\u5317\u5730\u65b9\u6574\u5099\u5c40\u4ed9\u53f0\u6e2f\u6e7e\u7a7a\u6e2f\u6280\u8853\u8abf\u67fb\u4e8b\u52d9\u6240","boring_xml_url":0,"boring_view_url":0,"soilmap_view_url":66,"soiltest_xml_url":0,"soiltest_view_url":0},{"id":112688,"code":"B4KJ201801000-0937","latitude":"40.55689455","longitude":"141.5138867","source_code":"PORT02002010053","project_name":"\u6e2f\u6e7e\u5c40","survey_name":"\u662d\u548c44\u5e74\u5ea6\u516b\u6238\u6e2f\u516b\u592a\u90ce\u5730\u533a\u5730\u8cea\u8abf\u67fb\u5de5\u4e8b(\u305d\u306e2)","client_name":"\u56fd\u571f\u4ea4\u901a\u7701\u6771\u5317\u5730\u65b9\u6574\u5099\u5c40\u4ed9\u53f0\u6e2f\u6e7e\u7a7a\u6e2f\u6280\u8853\u8abf\u67fb\u4e8b\u52d9\u6240","boring_xml_url":0,"boring_view_url":0,"soilmap_view_url":66,"soiltest_xml_url":0,"soiltest_view_url":0},{"id":112687,"code":"B4KJ201801000-0936","latitude":"40.55772768","longitude":"141.5105536","source_code":"PORT02002010052","project_name":"\u6e2f\u6e7e\u5c40","survey_name":"\u662d\u548c44\u5e74\u5ea6\u516b\u6238\u6e2f\u516b\u592a\u90ce\u5730\u533a\u5730\u8cea\u8abf\u67fb\u5de5\u4e8b","client_name":"\u56fd\u571f\u4ea4\u901a\u7701\u6771\u5317\u5730\u65b9\u6574\u5099\u5c40\u4ed9\u53f0\u6e2f\u6e7e\u7a7a\u6e2f\u6280\u8853\u8abf\u67fb\u4e8b\u52d9\u6240","boring_xml_url":0,"boring_view_url":0,"soilmap_view_url":66,"soiltest_xml_url":0,"soiltest_view_url":0},{"id":112686,"code":"B4KJ201801000-0935","latitude":"40.55717226","longitude":"141.5127757","source_code":"PORT02002010051","project_name":"\u6e2f\u6e7e\u5c40","survey_name":"\u662d\u548c44\u5e74\u5ea6\u516b\u6238\u6e2f\u516b\u592a\u90ce\u5730\u533a\u5730\u8cea\u8abf\u67fb\u5de5\u4e8b(\u305d\u306e2)","client_name":"\u56fd\u571f\u4ea4\u901a\u7701\u6771\u5317\u5730\u65b9\u6574\u5099\u5c40\u4ed9\u53f0\u6e2f\u6e7e\u7a7a\u6e2f\u6280\u8853\u8abf\u67fb\u4e8b\u52d9\u6240","boring_xml_url":0,"boring_view_url":0,"soilmap_view_url":66,"soiltest_xml_url":0,"soiltest_view_url":0},{"id":112685,"code":"B4KJ201801000-0934","latitude":"40.55800539","longitude":"141.5094426","source_code":"PORT02002010050","project_name":"\u6e2f\u6e7e\u5c40","survey_name":"\u662d\u548c44\u5e74\u5ea6\u516b\u6238\u6e2f\u516b\u592a\u90ce\u5730\u533a\u5730\u8cea\u8abf\u67fb\u5de5\u4e8b","client_name":"\u56fd\u571f\u4ea4\u901a\u7701\u6771\u5317\u5730\u65b9\u6574\u5099\u5c40\u4ed9\u53f0\u6e2f\u6e7e\u7a7a\u6e2f\u6280\u8853\u8abf\u67fb\u4e8b\u52d9\u6240","boring_xml_url":0,"boring_view_url":0,"soilmap_view_url":66,"soiltest_xml_url":0,"soiltest_view_url":0},{"id":112684,"code":"B4KJ201801000-0933","latitude":"40.55772771","longitude":"141.5116647","source_code":"PORT02002010049","project_name":"\u6e2f\u6e7e\u5c40","survey_name":"\u662d\u548c44\u5e74\u5ea6\u516b\u6238\u6e2f\u516b\u592a\u90ce\u5730\u533a\u5730\u8cea\u8abf\u67fb\u5de5\u4e8b(\u305d\u306e2)","client_name":"\u56fd\u571f\u4ea4\u901a\u7701\u6771\u5317\u5730\u65b9\u6574\u5099\u5c40\u4ed9\u53f0\u6e2f\u6e7e\u7a7a\u6e2f\u6280\u8853\u8abf\u67fb\u4e8b\u52d9\u6240","boring_xml_url":0,"boring_view_url":0,"soilmap_view_url":66,"soiltest_xml_url":0,"soiltest_view_url":0},{"id":112683,"code":"B4KJ201801000-0932","latitude":"40.55827527","longitude":"141.5080867","source_code":"PORT02002010048","project_name":"\u6e2f\u6e7e\u5c40","survey_name":"\u662d\u548c44\u5e74\u5ea6\u516b\u6238\u6e2f\u516b\u592a\u90ce\u5730\u533a\u5730\u8cea\u8abf\u67fb\u5de5\u4e8b","client_name":"\u56fd\u571f\u4ea4\u901a\u7701\u6771\u5317\u5730\u65b9\u6574\u5099\u5c40\u4ed9\u53f0\u6e2f\u6e7e\u7a7a\u6e2f\u6280\u8853\u8abf\u67fb\u4e8b\u52d9\u6240","boring_xml_url":0,"boring_view_url":0,"soilmap_view_url":66,"soiltest_xml_url":0,"soiltest_view_url":0},{"id":112682,"code":"B4KJ201801000-0931","latitude":"40.53105712","longitude":"141.5433614","source_code":"PORT02002010037","project_name":"\u6e2f\u6e7e\u5c40","survey_name":"\u662d\u548c43\u5e74\u5ea6\u516b\u592a\u90ce\u5730\u533a\u6cb3\u539f\u6728\u5730\u533a\u767d\u9280\u5730\u533a\u5730\u8cea\u8abf\u67fb\u5de5\u4e8b","client_name":"\u56fd\u571f\u4ea4\u901a\u7701\u6771\u5317\u5730\u65b9\u6574\u5099\u5c40\u4ed9\u53f0\u6e2f\u6e7e\u7a7a\u6e2f\u6280\u8853\u8abf\u67fb\u4e8b\u52d9\u6240","boring_xml_url":0,"boring_view_url":0,"soilmap_view_url":66,"soiltest_xml_url":0,"soiltest_view_url":0},{"id":112681,"code":"B4KJ201801000-0930","latitude":"40.53050163","longitude":"141.5433614","source_code":"PORT02002010035","project_name":"\u6e2f\u6e7e\u5c40","survey_name":"\u662d\u548c43\u5e74\u5ea6\u516b\u592a\u90ce\u5730\u533a\u6cb3\u539f\u6728\u5730\u533a\u767d\u9280\u5730\u533a\u5730\u8cea\u8abf\u67fb\u5de5\u4e8b","client_name":"\u56fd\u571f\u4ea4\u901a\u7701\u6771\u5317\u5730\u65b9\u6574\u5099\u5c40\u4ed9\u53f0\u6e2f\u6e7e\u7a7a\u6e2f\u6280\u8853\u8abf\u67fb\u4e8b\u52d9\u6240","boring_xml_url":0,"boring_view_url":0,"soilmap_view_url":66,"soiltest_xml_url":0,"soiltest_view_url":0},{"id":112680,"code":"B4KJ201801000-0929","latitude":"40.53022389","longitude":"141.5433614","source_code":"PORT02002010033","project_name":"\u6e2f\u6e7e\u5c40","survey_name":"\u662d\u548c43\u5e74\u5ea6\u516b\u592a\u90ce\u5730\u533a\u6cb3\u539f\u6728\u5730\u533a\u767d\u9280\u5730\u533a\u5730\u8cea\u8abf\u67fb\u5de5\u4e8b","client_name":"\u56fd\u571f\u4ea4\u901a\u7701\u6771\u5317\u5730\u65b9\u6574\u5099\u5c40\u4ed9\u53f0\u6e2f\u6e7e\u7a7a\u6e2f\u6280\u8853\u8abf\u67fb\u4e8b\u52d9\u6240","boring_xml_url":0,"boring_view_url":0,"soilmap_view_url":66,"soiltest_xml_url":0,"soiltest_view_url":0},{"id":112679,"code":"B4KJ201801000-0928","latitude":"40.52994615","longitude":"141.5433614","source_code":"PORT02002010031","project_name":"\u6e2f\u6e7e\u5c40","survey_name":"\u662d\u548c43\u5e74\u5ea6\u516b\u592a\u90ce\u5730\u533a\u6cb3\u539f\u6728\u5730\u533a\u767d\u9280\u5730\u533a\u5730\u8cea\u8abf\u67fb\u5de5\u4e8b","client_name":"\u56fd\u571f\u4ea4\u901a\u7701\u6771\u5317\u5730\u65b9\u6574\u5099\u5c40\u4ed9\u53f0\u6e2f\u6e7e\u7a7a\u6e2f\u6280\u8853\u8abf\u67fb\u4e8b\u52d9\u6240","boring_xml_url":0,"boring_view_url":0,"soilmap_view_url":66,"soiltest_xml_url":0,"soiltest_view_url":0},{"id":112678,"code":"B4KJ201801000-0927","latitude":"40.5296684","longitude":"141.5433614","source_code":"PORT02002010029","project_name":"\u6e2f\u6e7e\u5c40","survey_name":"\u662d\u548c43\u5e74\u5ea6\u516b\u592a\u90ce\u5730\u533a\u6cb3\u539f\u6728\u5730\u533a\u767d\u9280\u5730\u533a\u5730\u8cea\u8abf\u67fb\u5de5\u4e8b","client_name":"\u56fd\u571f\u4ea4\u901a\u7701\u6771\u5317\u5730\u65b9\u6574\u5099\u5c40\u4ed9\u53f0\u6e2f\u6e7e\u7a7a\u6e2f\u6280\u8853\u8abf\u67fb\u4e8b\u52d9\u6240","boring_xml_url":0,"boring_view_url":0,"soilmap_view_url":66,"soiltest_xml_url":0,"soiltest_view_url":0},{"id":112677,"code":"B4KJ201801000-0926","latitude":"40.53633391","longitude":"141.523919","source_code":"PORT02002010027","project_name":"\u6e2f\u6e7e\u5c40","survey_name":"\u662d\u548c43\u5e74\u5ea6\u516b\u592a\u90ce\u5730\u533a\u6cb3\u539f\u6728\u5730\u533a\u767d\u9280\u5730\u533a\u5730\u8cea\u8abf\u67fb\u5de5\u4e8b","client_name":"\u56fd\u571f\u4ea4\u901a\u7701\u6771\u5317\u5730\u65b9\u6574\u5099\u5c40\u4ed9\u53f0\u6e2f\u6e7e\u7a7a\u6e2f\u6280\u8853\u8abf\u67fb\u4e8b\u52d9\u6240","boring_xml_url":0,"boring_view_url":0,"soilmap_view_url":66,"soiltest_xml_url":0,"soiltest_view_url":0},{"id":112676,"code":"B4KJ201801000-0925","latitude":"40.53550071","longitude":"141.5253078","source_code":"PORT02002010025","project_name":"\u6e2f\u6e7e\u5c40","survey_name":"\u662d\u548c43\u5e74\u5ea6\u516b\u592a\u90ce\u5730\u533a\u6cb3\u539f\u6728\u5730\u533a\u767d\u9280\u5730\u533a\u5730\u8cea\u8abf\u67fb\u5de5\u4e8b","client_name":"\u56fd\u571f\u4ea4\u901a\u7701\u6771\u5317\u5730\u65b9\u6574\u5099\u5c40\u4ed9\u53f0\u6e2f\u6e7e\u7a7a\u6e2f\u6280\u8853\u8abf\u67fb\u4e8b\u52d9\u6240","boring_xml_url":0,"boring_view_url":0,"soilmap_view_url":66,"soiltest_xml_url":0,"soiltest_view_url":0}]}}