{"header":{"xyz":{"source":[],"mosaic":false},"page":6932,"raw":{"soiltest_result":"0","bbox":"57.598333,109.544722,1.933333,163.806111","page":"6932"},"conditions":{"soiltest_result":0,"north":57.598333,"west":109.544722,"south":1.933333,"east":163.806111},"success":true,"message":""},"data":{"meta":{"total":212844,"page":6932,"pages":7095,"count":30},"values":[{"id":112615,"code":"B4KJ201801000-0864","latitude":"40.83777868","longitude":"140.7564139","source_code":"PORT02001010519","project_name":"\u6e2f\u6e7e\u5c40","survey_name":"\u662d\u548c57\u5e74\u5ea6\u9752\u68ee\u6e2f\u672c\u6e2f\u5730\u533a-10M\u5cb8\u58c1\u571f\u8cea\u8abf\u67fb","client_name":"\u56fd\u571f\u4ea4\u901a\u7701\u6771\u5317\u5730\u65b9\u6574\u5099\u5c40\u4ed9\u53f0\u6e2f\u6e7e\u7a7a\u6e2f\u6280\u8853\u8abf\u67fb\u4e8b\u52d9\u6240","boring_xml_url":0,"boring_view_url":0,"soilmap_view_url":66,"soiltest_xml_url":0,"soiltest_view_url":0},{"id":112614,"code":"B4KJ201801000-0863","latitude":"40.83884884","longitude":"140.7403166","source_code":"PORT02001010518","project_name":"\u6e2f\u6e7e\u5c40","survey_name":"(\u662d\u548c45\u5e74\u5ea6)\u9752\u68ee\u6e2f\u672c\u6e2f\u5730\u533a\u5317\u9632\u6ce2\u5824\u571f\u8cea\u8abf\u67fb\u5de5\u4e8b","client_name":"\u56fd\u571f\u4ea4\u901a\u7701\u6771\u5317\u5730\u65b9\u6574\u5099\u5c40\u4ed9\u53f0\u6e2f\u6e7e\u7a7a\u6e2f\u6280\u8853\u8abf\u67fb\u4e8b\u52d9\u6240","boring_xml_url":0,"boring_view_url":0,"soilmap_view_url":66,"soiltest_xml_url":0,"soiltest_view_url":66},{"id":112613,"code":"B4KJ201801000-0862","latitude":"40.83875436","longitude":"140.7407364","source_code":"PORT02001010517","project_name":"\u6e2f\u6e7e\u5c40","survey_name":"(\u662d\u548c45\u5e74\u5ea6)\u9752\u68ee\u6e2f\u672c\u6e2f\u5730\u533a\u5317\u9632\u6ce2\u5824\u571f\u8cea\u8abf\u67fb\u5de5\u4e8b","client_name":"\u56fd\u571f\u4ea4\u901a\u7701\u6771\u5317\u5730\u65b9\u6574\u5099\u5c40\u4ed9\u53f0\u6e2f\u6e7e\u7a7a\u6e2f\u6280\u8853\u8abf\u67fb\u4e8b\u52d9\u6240","boring_xml_url":0,"boring_view_url":0,"soilmap_view_url":66,"soiltest_xml_url":0,"soiltest_view_url":66},{"id":112612,"code":"B4KJ201801000-0861","latitude":"40.83845523","longitude":"140.7407364","source_code":"PORT02001010516","project_name":"\u6e2f\u6e7e\u5c40","survey_name":"(\u662d\u548c45\u5e74\u5ea6)\u9752\u68ee\u6e2f\u672c\u6e2f\u5730\u533a\u5317\u9632\u6ce2\u5824\u571f\u8cea\u8abf\u67fb\u5de5\u4e8b","client_name":"\u56fd\u571f\u4ea4\u901a\u7701\u6771\u5317\u5730\u65b9\u6574\u5099\u5c40\u4ed9\u53f0\u6e2f\u6e7e\u7a7a\u6e2f\u6280\u8853\u8abf\u67fb\u4e8b\u52d9\u6240","boring_xml_url":0,"boring_view_url":0,"soilmap_view_url":66,"soiltest_xml_url":0,"soiltest_view_url":0},{"id":112611,"code":"B4KJ201801000-0860","latitude":"40.84232629","longitude":"140.7212091","source_code":"PORT02001010515","project_name":"\u6e2f\u6e7e\u5c40","survey_name":"\u5e73\u62108\u5e74\u5ea6\u9752\u68ee\u6e2f\u571f\u8cea\u8abf\u67fb","client_name":"\u56fd\u571f\u4ea4\u901a\u7701\u6771\u5317\u5730\u65b9\u6574\u5099\u5c40\u4ed9\u53f0\u6e2f\u6e7e\u7a7a\u6e2f\u6280\u8853\u8abf\u67fb\u4e8b\u52d9\u6240","boring_xml_url":0,"boring_view_url":0,"soilmap_view_url":66,"soiltest_xml_url":0,"soiltest_view_url":0},{"id":112610,"code":"B4KJ201801000-0859","latitude":"40.83319726","longitude":"140.7588749","source_code":"PORT02001010514","project_name":"\u6e2f\u6e7e\u5c40","survey_name":"\u5e73\u62106\u5e74\u5ea6\u9752\u68ee\u6e2f\u672c\u6e2f\u5730\u533a\u571f\u8cea\u8abf\u67fb","client_name":"\u56fd\u571f\u4ea4\u901a\u7701\u6771\u5317\u5730\u65b9\u6574\u5099\u5c40\u4ed9\u53f0\u6e2f\u6e7e\u7a7a\u6e2f\u6280\u8853\u8abf\u67fb\u4e8b\u52d9\u6240","boring_xml_url":0,"boring_view_url":0,"soilmap_view_url":66,"soiltest_xml_url":0,"soiltest_view_url":66},{"id":112609,"code":"B4KJ201801000-0858","latitude":"40.83387983","longitude":"140.7593312","source_code":"PORT02001010513","project_name":"\u6e2f\u6e7e\u5c40","survey_name":"\u5e73\u62106\u5e74\u5ea6\u9752\u68ee\u6e2f\u672c\u6e2f\u5730\u533a\u571f\u8cea\u8abf\u67fb","client_name":"\u56fd\u571f\u4ea4\u901a\u7701\u6771\u5317\u5730\u65b9\u6574\u5099\u5c40\u4ed9\u53f0\u6e2f\u6e7e\u7a7a\u6e2f\u6280\u8853\u8abf\u67fb\u4e8b\u52d9\u6240","boring_xml_url":0,"boring_view_url":0,"soilmap_view_url":66,"soiltest_xml_url":0,"soiltest_view_url":66},{"id":112608,"code":"B4KJ201801000-0857","latitude":"40.84308275","longitude":"140.7203499","source_code":"PORT02001010511","project_name":"\u6e2f\u6e7e\u5c40","survey_name":"\u662d\u548c62\u5e74\u5ea6\u9752\u68ee\u6e2f\u6c96\u9928\u5730\u533a\u5cb8\u58c1(-13m)\u571f\u8cea\u8abf\u67fb","client_name":"\u56fd\u571f\u4ea4\u901a\u7701\u6771\u5317\u5730\u65b9\u6574\u5099\u5c40\u4ed9\u53f0\u6e2f\u6e7e\u7a7a\u6e2f\u6280\u8853\u8abf\u67fb\u4e8b\u52d9\u6240","boring_xml_url":0,"boring_view_url":0,"soilmap_view_url":66,"soiltest_xml_url":0,"soiltest_view_url":66},{"id":112607,"code":"B4KJ201801000-0856","latitude":"40.84319296","longitude":"140.7202449","source_code":"PORT02001010510","project_name":"\u6e2f\u6e7e\u5c40","survey_name":"\u662d\u548c62\u5e74\u5ea6\u9752\u68ee\u6e2f\u6c96\u9928\u5730\u533a\u5cb8\u58c1(-13m)\u571f\u8cea\u8abf\u67fb","client_name":"\u56fd\u571f\u4ea4\u901a\u7701\u6771\u5317\u5730\u65b9\u6574\u5099\u5c40\u4ed9\u53f0\u6e2f\u6e7e\u7a7a\u6e2f\u6280\u8853\u8abf\u67fb\u4e8b\u52d9\u6240","boring_xml_url":0,"boring_view_url":0,"soilmap_view_url":66,"soiltest_xml_url":0,"soiltest_view_url":0},{"id":112606,"code":"B4KJ201801000-0855","latitude":"40.84547591","longitude":"140.7173276","source_code":"PORT02001010503","project_name":"\u6e2f\u6e7e\u5c40","survey_name":"\u662d\u548c60\u5e74\u5ea6\u9752\u68ee\u6e2f\u571f\u8cea\u8abf\u67fb","client_name":"\u56fd\u571f\u4ea4\u901a\u7701\u6771\u5317\u5730\u65b9\u6574\u5099\u5c40\u4ed9\u53f0\u6e2f\u6e7e\u7a7a\u6e2f\u6280\u8853\u8abf\u67fb\u4e8b\u52d9\u6240","boring_xml_url":0,"boring_view_url":0,"soilmap_view_url":66,"soiltest_xml_url":0,"soiltest_view_url":66},{"id":112605,"code":"B4KJ201801000-0854","latitude":"40.84560187","longitude":"140.7175164","source_code":"PORT02001010502","project_name":"\u6e2f\u6e7e\u5c40","survey_name":"\u662d\u548c60\u5e74\u5ea6\u9752\u68ee\u6e2f\u571f\u8cea\u8abf\u67fb","client_name":"\u56fd\u571f\u4ea4\u901a\u7701\u6771\u5317\u5730\u65b9\u6574\u5099\u5c40\u4ed9\u53f0\u6e2f\u6e7e\u7a7a\u6e2f\u6280\u8853\u8abf\u67fb\u4e8b\u52d9\u6240","boring_xml_url":0,"boring_view_url":0,"soilmap_view_url":66,"soiltest_xml_url":0,"soiltest_view_url":66},{"id":112604,"code":"B4KJ201801000-0853","latitude":"40.84373795","longitude":"140.7287587","source_code":"PORT02001010500","project_name":"\u6e2f\u6e7e\u5c40","survey_name":"\u662d\u548c60\u5e74\u5ea6\u9752\u68ee\u6e2f\u6c96\u9928\u5730\u533a\u6771\u9632\u6ce2\u5824\u53ca\u3073\u672c\u6e2f\u5730\u533a\u5317\u9632\u6ce2\u5824\u571f\u8cea\u8abf\u67fb","client_name":"\u56fd\u571f\u4ea4\u901a\u7701\u6771\u5317\u5730\u65b9\u6574\u5099\u5c40\u4ed9\u53f0\u6e2f\u6e7e\u7a7a\u6e2f\u6280\u8853\u8abf\u67fb\u4e8b\u52d9\u6240","boring_xml_url":0,"boring_view_url":0,"soilmap_view_url":66,"soiltest_xml_url":0,"soiltest_view_url":0},{"id":112603,"code":"B4KJ201801000-0852","latitude":"40.84398456","longitude":"140.7284866","source_code":"PORT02001010499","project_name":"\u6e2f\u6e7e\u5c40","survey_name":"\u662d\u548c60\u5e74\u5ea6\u9752\u68ee\u6e2f\u6c96\u9928\u5730\u533a\u6771\u9632\u6ce2\u5824\u53ca\u3073\u672c\u6e2f\u5730\u533a\u5317\u9632\u6ce2\u5824\u571f\u8cea\u8abf\u67fb","client_name":"\u56fd\u571f\u4ea4\u901a\u7701\u6771\u5317\u5730\u65b9\u6574\u5099\u5c40\u4ed9\u53f0\u6e2f\u6e7e\u7a7a\u6e2f\u6280\u8853\u8abf\u67fb\u4e8b\u52d9\u6240","boring_xml_url":0,"boring_view_url":0,"soilmap_view_url":66,"soiltest_xml_url":0,"soiltest_view_url":0},{"id":112602,"code":"B4KJ201801000-0851","latitude":"40.84450614","longitude":"140.7277364","source_code":"PORT02001010498","project_name":"\u6e2f\u6e7e\u5c40","survey_name":"\u662d\u548c59\u5e74\u5ea6\u9752\u68ee\u6e2f\u6c96\u9928\u5730\u533a\u6771\u9632\u6ce2\u5824\u571f\u8cea\u8abf\u67fb(\u305d\u306e2)","client_name":"\u56fd\u571f\u4ea4\u901a\u7701\u6771\u5317\u5730\u65b9\u6574\u5099\u5c40\u4ed9\u53f0\u6e2f\u6e7e\u7a7a\u6e2f\u6280\u8853\u8abf\u67fb\u4e8b\u52d9\u6240","boring_xml_url":0,"boring_view_url":0,"soilmap_view_url":66,"soiltest_xml_url":0,"soiltest_view_url":0},{"id":112601,"code":"B4KJ201801000-0850","latitude":"40.84461788","longitude":"140.7279022","source_code":"PORT02001010497","project_name":"\u6e2f\u6e7e\u5c40","survey_name":"\u662d\u548c59\u5e74\u5ea6\u9752\u68ee\u6e2f\u6c96\u9928\u5730\u533a\u6771\u9632\u6ce2\u5824\u571f\u8cea\u8abf\u67fb(\u305d\u306e2)","client_name":"\u56fd\u571f\u4ea4\u901a\u7701\u6771\u5317\u5730\u65b9\u6574\u5099\u5c40\u4ed9\u53f0\u6e2f\u6e7e\u7a7a\u6e2f\u6280\u8853\u8abf\u67fb\u4e8b\u52d9\u6240","boring_xml_url":0,"boring_view_url":0,"soilmap_view_url":66,"soiltest_xml_url":0,"soiltest_view_url":0},{"id":112600,"code":"B4KJ201801000-0849","latitude":"40.84523913","longitude":"140.7268802","source_code":"PORT02001010496","project_name":"\u6e2f\u6e7e\u5c40","survey_name":"\u662d\u548c59\u5e74\u5ea6\u9752\u68ee\u6e2f\u6c96\u9928\u5730\u533a\u6771\u9632\u6ce2\u5824\u571f\u8cea\u8abf\u67fb(\u305d\u306e2)","client_name":"\u56fd\u571f\u4ea4\u901a\u7701\u6771\u5317\u5730\u65b9\u6574\u5099\u5c40\u4ed9\u53f0\u6e2f\u6e7e\u7a7a\u6e2f\u6280\u8853\u8abf\u67fb\u4e8b\u52d9\u6240","boring_xml_url":0,"boring_view_url":0,"soilmap_view_url":66,"soiltest_xml_url":0,"soiltest_view_url":0},{"id":112599,"code":"B4KJ201801000-0848","latitude":"40.84535088","longitude":"140.7270461","source_code":"PORT02001010495","project_name":"\u6e2f\u6e7e\u5c40","survey_name":"\u662d\u548c59\u5e74\u5ea6\u9752\u68ee\u6e2f\u6c96\u9928\u5730\u533a\u6771\u9632\u6ce2\u5824\u571f\u8cea\u8abf\u67fb(\u305d\u306e2)","client_name":"\u56fd\u571f\u4ea4\u901a\u7701\u6771\u5317\u5730\u65b9\u6574\u5099\u5c40\u4ed9\u53f0\u6e2f\u6e7e\u7a7a\u6e2f\u6280\u8853\u8abf\u67fb\u4e8b\u52d9\u6240","boring_xml_url":0,"boring_view_url":0,"soilmap_view_url":66,"soiltest_xml_url":0,"soiltest_view_url":0},{"id":112598,"code":"B4KJ201801000-0847","latitude":"40.84250018","longitude":"140.7204758","source_code":"PORT02001010494","project_name":"\u6e2f\u6e7e\u5c40","survey_name":"\u662d\u548c58\u5e74\u5ea6\u9752\u68ee\u6e2f\u6c96\u9928\u5730\u533a-10m\u5cb8\u58c1\u571f\u8cea\u8abf\u67fb","client_name":"\u56fd\u571f\u4ea4\u901a\u7701\u6771\u5317\u5730\u65b9\u6574\u5099\u5c40\u4ed9\u53f0\u6e2f\u6e7e\u7a7a\u6e2f\u6280\u8853\u8abf\u67fb\u4e8b\u52d9\u6240","boring_xml_url":0,"boring_view_url":0,"soilmap_view_url":66,"soiltest_xml_url":0,"soiltest_view_url":0},{"id":112597,"code":"B4KJ201801000-0846","latitude":"40.84328741","longitude":"140.7193215","source_code":"PORT02001010493","project_name":"\u6e2f\u6e7e\u5c40","survey_name":"\u662d\u548c58\u5e74\u5ea6\u9752\u68ee\u6e2f\u6c96\u9928\u5730\u533a-10m\u5cb8\u58c1\u571f\u8cea\u8abf\u67fb","client_name":"\u56fd\u571f\u4ea4\u901a\u7701\u6771\u5317\u5730\u65b9\u6574\u5099\u5c40\u4ed9\u53f0\u6e2f\u6e7e\u7a7a\u6e2f\u6280\u8853\u8abf\u67fb\u4e8b\u52d9\u6240","boring_xml_url":0,"boring_view_url":0,"soilmap_view_url":66,"soiltest_xml_url":0,"soiltest_view_url":0},{"id":112596,"code":"B4KJ201801000-0845","latitude":"40.8428938","longitude":"140.7202869","source_code":"PORT02001010492","project_name":"\u6e2f\u6e7e\u5c40","survey_name":"\u662d\u548c58\u5e74\u5ea6\u9752\u68ee\u6e2f\u6c96\u9928\u5730\u533a-10m\u5cb8\u58c1\u571f\u8cea\u8abf\u67fb","client_name":"\u56fd\u571f\u4ea4\u901a\u7701\u6771\u5317\u5730\u65b9\u6574\u5099\u5c40\u4ed9\u53f0\u6e2f\u6e7e\u7a7a\u6e2f\u6280\u8853\u8abf\u67fb\u4e8b\u52d9\u6240","boring_xml_url":0,"boring_view_url":0,"soilmap_view_url":66,"soiltest_xml_url":0,"soiltest_view_url":0},{"id":112595,"code":"B4KJ201801000-0844","latitude":"40.84375976","longitude":"140.7191536","source_code":"PORT02001010491","project_name":"\u6e2f\u6e7e\u5c40","survey_name":"\u662d\u548c58\u5e74\u5ea6\u9752\u68ee\u6e2f\u6c96\u9928\u5730\u533a-10m\u5cb8\u58c1\u571f\u8cea\u8abf\u67fb","client_name":"\u56fd\u571f\u4ea4\u901a\u7701\u6771\u5317\u5730\u65b9\u6574\u5099\u5c40\u4ed9\u53f0\u6e2f\u6e7e\u7a7a\u6e2f\u6280\u8853\u8abf\u67fb\u4e8b\u52d9\u6240","boring_xml_url":0,"boring_view_url":0,"soilmap_view_url":66,"soiltest_xml_url":0,"soiltest_view_url":0},{"id":112594,"code":"B4KJ201801000-0843","latitude":"40.84350786","longitude":"140.7201819","source_code":"PORT02001010490","project_name":"\u6e2f\u6e7e\u5c40","survey_name":"\u662d\u548c58\u5e74\u5ea6\u9752\u68ee\u6e2f\u6c96\u9928\u5730\u533a-10m\u5cb8\u58c1\u571f\u8cea\u8abf\u67fb","client_name":"\u56fd\u571f\u4ea4\u901a\u7701\u6771\u5317\u5730\u65b9\u6574\u5099\u5c40\u4ed9\u53f0\u6e2f\u6e7e\u7a7a\u6e2f\u6280\u8853\u8abf\u67fb\u4e8b\u52d9\u6240","boring_xml_url":0,"boring_view_url":0,"soilmap_view_url":66,"soiltest_xml_url":0,"soiltest_view_url":0},{"id":112593,"code":"B4KJ201801000-0842","latitude":"40.83749531","longitude":"140.7576521","source_code":"PORT02001010489","project_name":"\u6e2f\u6e7e\u5c40","survey_name":"\u662d\u548c58\u5e74\u5ea6\u9752\u68ee\u6e2f\u672c\u6e2f\u5730\u533a-10M\u5cb8\u58c1\u571f\u8cea\u8abf\u67fb","client_name":"\u56fd\u571f\u4ea4\u901a\u7701\u6771\u5317\u5730\u65b9\u6574\u5099\u5c40\u4ed9\u53f0\u6e2f\u6e7e\u7a7a\u6e2f\u6280\u8853\u8abf\u67fb\u4e8b\u52d9\u6240","boring_xml_url":0,"boring_view_url":0,"soilmap_view_url":66,"soiltest_xml_url":0,"soiltest_view_url":0},{"id":112592,"code":"B4KJ201801000-0841","latitude":"40.83774718","longitude":"140.7563299","source_code":"PORT02001010488","project_name":"\u6e2f\u6e7e\u5c40","survey_name":"\u662d\u548c58\u5e74\u5ea6\u9752\u68ee\u6e2f\u672c\u6e2f\u5730\u533a-10M\u5cb8\u58c1\u571f\u8cea\u8abf\u67fb","client_name":"\u56fd\u571f\u4ea4\u901a\u7701\u6771\u5317\u5730\u65b9\u6574\u5099\u5c40\u4ed9\u53f0\u6e2f\u6e7e\u7a7a\u6e2f\u6280\u8853\u8abf\u67fb\u4e8b\u52d9\u6240","boring_xml_url":0,"boring_view_url":0,"soilmap_view_url":66,"soiltest_xml_url":0,"soiltest_view_url":0},{"id":112591,"code":"B4KJ201801000-0840","latitude":"40.83740078","longitude":"140.7561621","source_code":"PORT02001010487","project_name":"\u6e2f\u6e7e\u5c40","survey_name":"\u662d\u548c58\u5e74\u5ea6\u9752\u68ee\u6e2f\u672c\u6e2f\u5730\u533a-10M\u5cb8\u58c1\u571f\u8cea\u8abf\u67fb","client_name":"\u56fd\u571f\u4ea4\u901a\u7701\u6771\u5317\u5730\u65b9\u6574\u5099\u5c40\u4ed9\u53f0\u6e2f\u6e7e\u7a7a\u6e2f\u6280\u8853\u8abf\u67fb\u4e8b\u52d9\u6240","boring_xml_url":0,"boring_view_url":0,"soilmap_view_url":66,"soiltest_xml_url":0,"soiltest_view_url":0},{"id":112590,"code":"B4KJ201801000-0839","latitude":"40.83730631","longitude":"140.7561201","source_code":"PORT02001010486","project_name":"\u6e2f\u6e7e\u5c40","survey_name":"\u662d\u548c58\u5e74\u5ea6\u9752\u68ee\u6e2f\u672c\u6e2f\u5730\u533a-10M\u5cb8\u58c1\u571f\u8cea\u8abf\u67fb","client_name":"\u56fd\u571f\u4ea4\u901a\u7701\u6771\u5317\u5730\u65b9\u6574\u5099\u5c40\u4ed9\u53f0\u6e2f\u6e7e\u7a7a\u6e2f\u6280\u8853\u8abf\u67fb\u4e8b\u52d9\u6240","boring_xml_url":0,"boring_view_url":0,"soilmap_view_url":66,"soiltest_xml_url":0,"soiltest_view_url":0},{"id":112589,"code":"B4KJ201801000-0838","latitude":"40.83744802","longitude":"140.7560991","source_code":"PORT02001010485","project_name":"\u6e2f\u6e7e\u5c40","survey_name":"\u662d\u548c58\u5e74\u5ea6\u9752\u68ee\u6e2f\u672c\u6e2f\u5730\u533a-10M\u5cb8\u58c1\u571f\u8cea\u8abf\u67fb","client_name":"\u56fd\u571f\u4ea4\u901a\u7701\u6771\u5317\u5730\u65b9\u6574\u5099\u5c40\u4ed9\u53f0\u6e2f\u6e7e\u7a7a\u6e2f\u6280\u8853\u8abf\u67fb\u4e8b\u52d9\u6240","boring_xml_url":0,"boring_view_url":0,"soilmap_view_url":66,"soiltest_xml_url":0,"soiltest_view_url":0},{"id":112588,"code":"B4KJ201801000-0837","latitude":"40.8373693","longitude":"140.7559942","source_code":"PORT02001010484","project_name":"\u6e2f\u6e7e\u5c40","survey_name":"\u662d\u548c58\u5e74\u5ea6\u9752\u68ee\u6e2f\u672c\u6e2f\u5730\u533a-10M\u5cb8\u58c1\u571f\u8cea\u8abf\u67fb","client_name":"\u56fd\u571f\u4ea4\u901a\u7701\u6771\u5317\u5730\u65b9\u6574\u5099\u5c40\u4ed9\u53f0\u6e2f\u6e7e\u7a7a\u6e2f\u6280\u8853\u8abf\u67fb\u4e8b\u52d9\u6240","boring_xml_url":0,"boring_view_url":0,"soilmap_view_url":66,"soiltest_xml_url":0,"soiltest_view_url":0},{"id":112587,"code":"B4KJ201801000-0836","latitude":"40.84067569","longitude":"140.7550915","source_code":"PORT02001010483","project_name":"\u6e2f\u6e7e\u5c40","survey_name":"\u662d\u548c58\u5e74\u5ea6\u9752\u68ee\u6e2f\u672c\u6e2f\u5730\u533a\u5317\u9632\u6ce2\u5824\u571f\u8cea\u8abf\u67fb","client_name":"\u56fd\u571f\u4ea4\u901a\u7701\u6771\u5317\u5730\u65b9\u6574\u5099\u5c40\u4ed9\u53f0\u6e2f\u6e7e\u7a7a\u6e2f\u6280\u8853\u8abf\u67fb\u4e8b\u52d9\u6240","boring_xml_url":0,"boring_view_url":0,"soilmap_view_url":66,"soiltest_xml_url":0,"soiltest_view_url":0},{"id":112586,"code":"B4KJ201801000-0835","latitude":"40.84091188","longitude":"140.7550076","source_code":"PORT02001010482","project_name":"\u6e2f\u6e7e\u5c40","survey_name":"\u662d\u548c58\u5e74\u5ea6\u9752\u68ee\u6e2f\u672c\u6e2f\u5730\u533a\u5317\u9632\u6ce2\u5824\u571f\u8cea\u8abf\u67fb","client_name":"\u56fd\u571f\u4ea4\u901a\u7701\u6771\u5317\u5730\u65b9\u6574\u5099\u5c40\u4ed9\u53f0\u6e2f\u6e7e\u7a7a\u6e2f\u6280\u8853\u8abf\u67fb\u4e8b\u52d9\u6240","boring_xml_url":0,"boring_view_url":0,"soilmap_view_url":66,"soiltest_xml_url":0,"soiltest_view_url":0}]}}