{"header":{"xyz":{"source":[],"mosaic":false},"page":6948,"raw":{"soiltest_result":"0","bbox":"57.598333,109.544722,1.933333,163.806111","page":"6948"},"conditions":{"soiltest_result":0,"north":57.598333,"west":109.544722,"south":1.933333,"east":163.806111},"success":true,"message":""},"data":{"meta":{"total":212844,"page":6948,"pages":7095,"count":30},"values":[{"id":112135,"code":"B4KJ201801000-0384","latitude":"42.51486111","longitude":"141.3104444","source_code":"PORT01049011705","project_name":"\u6e2f\u6e7e\u5c40","survey_name":"\u767d\u8001\u6e2f\u5730\u8cea\u8abf\u67fb\u696d\u52d9","client_name":"\u56fd\u571f\u4ea4\u901a\u7701\u5317\u6d77\u9053\u958b\u767a\u5c40\u6e2f\u6e7e\u7a7a\u6e2f\u90e8","boring_xml_url":0,"boring_view_url":0,"soilmap_view_url":66,"soiltest_xml_url":0,"soiltest_view_url":66},{"id":112134,"code":"B4KJ201801000-0383","latitude":"42.51558333","longitude":"141.3096944","source_code":"PORT01049011704","project_name":"\u6e2f\u6e7e\u5c40","survey_name":"\u767d\u8001\u6e2f\u5730\u8cea\u8abf\u67fb\u696d\u52d9","client_name":"\u56fd\u571f\u4ea4\u901a\u7701\u5317\u6d77\u9053\u958b\u767a\u5c40\u6e2f\u6e7e\u7a7a\u6e2f\u90e8","boring_xml_url":0,"boring_view_url":0,"soilmap_view_url":66,"soiltest_xml_url":0,"soiltest_view_url":66},{"id":112133,"code":"B4KJ201801000-0382","latitude":"42.51627778","longitude":"141.3089167","source_code":"PORT01049011703","project_name":"\u6e2f\u6e7e\u5c40","survey_name":"\u767d\u8001\u6e2f\u5730\u8cea\u8abf\u67fb\u696d\u52d9","client_name":"\u56fd\u571f\u4ea4\u901a\u7701\u5317\u6d77\u9053\u958b\u767a\u5c40\u6e2f\u6e7e\u7a7a\u6e2f\u90e8","boring_xml_url":0,"boring_view_url":0,"soilmap_view_url":66,"soiltest_xml_url":0,"soiltest_view_url":66},{"id":112132,"code":"B4KJ201801000-0381","latitude":"42.51697222","longitude":"141.3081667","source_code":"PORT01049011702","project_name":"\u6e2f\u6e7e\u5c40","survey_name":"\u767d\u8001\u6e2f\u5730\u8cea\u8abf\u67fb\u696d\u52d9","client_name":"\u56fd\u571f\u4ea4\u901a\u7701\u5317\u6d77\u9053\u958b\u767a\u5c40\u6e2f\u6e7e\u7a7a\u6e2f\u90e8","boring_xml_url":0,"boring_view_url":0,"soilmap_view_url":66,"soiltest_xml_url":0,"soiltest_view_url":66},{"id":112131,"code":"B4KJ201801000-0380","latitude":"44.35313889","longitude":"143.3574444","source_code":"PORT01048016312","project_name":"\u6e2f\u6e7e\u5c40","survey_name":"\u7d0b\u5225\u6e2f\u5730\u8cea\u8abf\u67fb\u696d\u52d9","client_name":"\u56fd\u571f\u4ea4\u901a\u7701\u5317\u6d77\u9053\u958b\u767a\u5c40\u6e2f\u6e7e\u7a7a\u6e2f\u90e8","boring_xml_url":0,"boring_view_url":0,"soilmap_view_url":66,"soiltest_xml_url":0,"soiltest_view_url":66},{"id":112130,"code":"B4KJ201801000-0379","latitude":"44.35358333","longitude":"143.3577778","source_code":"PORT01048016311","project_name":"\u6e2f\u6e7e\u5c40","survey_name":"\u7d0b\u5225\u6e2f\u5730\u8cea\u8abf\u67fb\u696d\u52d9","client_name":"\u56fd\u571f\u4ea4\u901a\u7701\u5317\u6d77\u9053\u958b\u767a\u5c40\u6e2f\u6e7e\u7a7a\u6e2f\u90e8","boring_xml_url":0,"boring_view_url":0,"soilmap_view_url":66,"soiltest_xml_url":0,"soiltest_view_url":66},{"id":112129,"code":"B4KJ201801000-0378","latitude":"44.35416667","longitude":"143.3581944","source_code":"PORT01048016310","project_name":"\u6e2f\u6e7e\u5c40","survey_name":"\u7d0b\u5225\u6e2f\u5730\u8cea\u8abf\u67fb\u696d\u52d9","client_name":"\u56fd\u571f\u4ea4\u901a\u7701\u5317\u6d77\u9053\u958b\u767a\u5c40\u6e2f\u6e7e\u7a7a\u6e2f\u90e8","boring_xml_url":0,"boring_view_url":0,"soilmap_view_url":66,"soiltest_xml_url":0,"soiltest_view_url":66},{"id":112128,"code":"B4KJ201801000-0377","latitude":"43.1894075","longitude":"141.293584","source_code":"PORT01046016363","project_name":"\u6e2f\u6e7e\u5c40","survey_name":"\u5e73\u621019\u5e74\u5ea6\u77f3\u72e9\u6e7e\u65b0\u6e2f\u5730\u8cea\u8abf\u67fb\u696d\u52d9","client_name":"\u56fd\u571f\u4ea4\u901a\u7701\u5317\u6d77\u9053\u958b\u767a\u5c40\u6e2f\u6e7e\u7a7a\u6e2f\u90e8","boring_xml_url":0,"boring_view_url":0,"soilmap_view_url":66,"soiltest_xml_url":0,"soiltest_view_url":66},{"id":112127,"code":"B4KJ201801000-0376","latitude":"43.18925586","longitude":"141.2927479","source_code":"PORT01046016362","project_name":"\u6e2f\u6e7e\u5c40","survey_name":"\u5e73\u621018\u5e74\u5ea6\u77f3\u72e9\u6e7e\u65b0\u6e2f-10m\u5cb8\u58c1\u5730\u8cea\u8abf\u67fb\u696d\u52d9","client_name":"\u56fd\u571f\u4ea4\u901a\u7701\u5317\u6d77\u9053\u958b\u767a\u5c40\u6e2f\u6e7e\u7a7a\u6e2f\u90e8","boring_xml_url":0,"boring_view_url":0,"soilmap_view_url":66,"soiltest_xml_url":0,"soiltest_view_url":66},{"id":112126,"code":"B4KJ201801000-0375","latitude":"43.18938969","longitude":"141.2935894","source_code":"PORT01046016359","project_name":"\u6e2f\u6e7e\u5c40","survey_name":"\u5e73\u621018\u5e74\u5ea6\u77f3\u72e9\u6e7e\u65b0\u6e2f-10m\u5cb8\u58c1\u5730\u8cea\u8abf\u67fb\u696d\u52d9","client_name":"\u56fd\u571f\u4ea4\u901a\u7701\u5317\u6d77\u9053\u958b\u767a\u5c40\u6e2f\u6e7e\u7a7a\u6e2f\u90e8","boring_xml_url":0,"boring_view_url":0,"soilmap_view_url":66,"soiltest_xml_url":0,"soiltest_view_url":66},{"id":112125,"code":"B4KJ201801000-0374","latitude":"43.19143506","longitude":"141.2932622","source_code":"PORT01046016358","project_name":"\u6e2f\u6e7e\u5c40","survey_name":"\u5e73\u621018\u5e74\u5ea6\u77f3\u72e9\u6e7e\u65b0\u6e2f-10m\u5cb8\u58c1\u5730\u8cea\u8abf\u67fb\u696d\u52d9","client_name":"\u56fd\u571f\u4ea4\u901a\u7701\u5317\u6d77\u9053\u958b\u767a\u5c40\u6e2f\u6e7e\u7a7a\u6e2f\u90e8","boring_xml_url":0,"boring_view_url":0,"soilmap_view_url":66,"soiltest_xml_url":0,"soiltest_view_url":66},{"id":112124,"code":"B4KJ201801000-0373","latitude":"43.18763047","longitude":"141.2941119","source_code":"PORT01046016357","project_name":"\u6e2f\u6e7e\u5c40","survey_name":"\u5e73\u621018\u5e74\u5ea6\u77f3\u72e9\u6e7e\u65b0\u6e2f-10m\u5cb8\u58c1\u5730\u8cea\u8abf\u67fb\u696d\u52d9","client_name":"\u56fd\u571f\u4ea4\u901a\u7701\u5317\u6d77\u9053\u958b\u767a\u5c40\u6e2f\u6e7e\u7a7a\u6e2f\u90e8","boring_xml_url":0,"boring_view_url":0,"soilmap_view_url":66,"soiltest_xml_url":0,"soiltest_view_url":66},{"id":112123,"code":"B4KJ201801000-0372","latitude":"43.19960122","longitude":"141.2799768","source_code":"PORT01046016346","project_name":"\u6e2f\u6e7e\u5c40","survey_name":"\u77f3\u72e9\u6e7e\u65b0\u6e2f-14m\u5cb8\u58c1\u5730\u8cea\u8abf\u67fb\u696d\u52d9","client_name":"\u56fd\u571f\u4ea4\u901a\u7701\u5317\u6d77\u9053\u958b\u767a\u5c40\u6e2f\u6e7e\u7a7a\u6e2f\u90e8","boring_xml_url":0,"boring_view_url":0,"soilmap_view_url":66,"soiltest_xml_url":0,"soiltest_view_url":0},{"id":112122,"code":"B4KJ201801000-0371","latitude":"43.19935917","longitude":"141.2814417","source_code":"PORT01046016345","project_name":"\u6e2f\u6e7e\u5c40","survey_name":"\u77f3\u72e9\u6e7e\u65b0\u6e2f-14m\u5cb8\u58c1\u5730\u8cea\u8abf\u67fb\u696d\u52d9","client_name":"\u56fd\u571f\u4ea4\u901a\u7701\u5317\u6d77\u9053\u958b\u767a\u5c40\u6e2f\u6e7e\u7a7a\u6e2f\u90e8","boring_xml_url":0,"boring_view_url":0,"soilmap_view_url":66,"soiltest_xml_url":0,"soiltest_view_url":0},{"id":112121,"code":"B4KJ201801000-0370","latitude":"43.20002511","longitude":"141.2806139","source_code":"PORT01046016344","project_name":"\u6e2f\u6e7e\u5c40","survey_name":"\u77f3\u72e9\u6e7e\u65b0\u6e2f-14m\u5cb8\u58c1\u5730\u8cea\u8abf\u67fb\u696d\u52d9","client_name":"\u56fd\u571f\u4ea4\u901a\u7701\u5317\u6d77\u9053\u958b\u767a\u5c40\u6e2f\u6e7e\u7a7a\u6e2f\u90e8","boring_xml_url":0,"boring_view_url":0,"soilmap_view_url":66,"soiltest_xml_url":0,"soiltest_view_url":0},{"id":112120,"code":"B4KJ201801000-0369","latitude":"43.19850547","longitude":"141.2821701","source_code":"PORT01046016343","project_name":"\u6e2f\u6e7e\u5c40","survey_name":"\u77f3\u72e9\u6e7e\u65b0\u6e2f-14m\u5cb8\u58c1\u5730\u8cea\u8abf\u67fb\u696d\u52d9","client_name":"\u56fd\u571f\u4ea4\u901a\u7701\u5317\u6d77\u9053\u958b\u767a\u5c40\u6e2f\u6e7e\u7a7a\u6e2f\u90e8","boring_xml_url":0,"boring_view_url":0,"soilmap_view_url":66,"soiltest_xml_url":0,"soiltest_view_url":0},{"id":112119,"code":"B4KJ201801000-0368","latitude":"43.20057","longitude":"141.2796042","source_code":"PORT01046016342","project_name":"\u6e2f\u6e7e\u5c40","survey_name":"\u77f3\u72e9\u6e7e\u65b0\u6e2f-14m\u5cb8\u58c1\u5730\u8cea\u8abf\u67fb\u696d\u52d9","client_name":"\u56fd\u571f\u4ea4\u901a\u7701\u5317\u6d77\u9053\u958b\u767a\u5c40\u6e2f\u6e7e\u7a7a\u6e2f\u90e8","boring_xml_url":0,"boring_view_url":0,"soilmap_view_url":66,"soiltest_xml_url":0,"soiltest_view_url":0},{"id":112118,"code":"B4KJ201801000-0367","latitude":"43.19893525","longitude":"141.2808046","source_code":"PORT01046016341","project_name":"\u6e2f\u6e7e\u5c40","survey_name":"\u77f3\u72e9\u6e7e\u65b0\u6e2f-14m\u5cb8\u58c1\u5730\u8cea\u8abf\u67fb\u696d\u52d9","client_name":"\u56fd\u571f\u4ea4\u901a\u7701\u5317\u6d77\u9053\u958b\u767a\u5c40\u6e2f\u6e7e\u7a7a\u6e2f\u90e8","boring_xml_url":0,"boring_view_url":0,"soilmap_view_url":66,"soiltest_xml_url":0,"soiltest_view_url":66},{"id":112117,"code":"B4KJ201801000-0366","latitude":"43.19960122","longitude":"141.2799768","source_code":"PORT01046016340","project_name":"\u6e2f\u6e7e\u5c40","survey_name":"\u77f3\u72e9\u6e7e\u65b0\u6e2f-14m\u5cb8\u58c1\u5730\u8cea\u8abf\u67fb\u696d\u52d9","client_name":"\u56fd\u571f\u4ea4\u901a\u7701\u5317\u6d77\u9053\u958b\u767a\u5c40\u6e2f\u6e7e\u7a7a\u6e2f\u90e8","boring_xml_url":0,"boring_view_url":0,"soilmap_view_url":66,"soiltest_xml_url":0,"soiltest_view_url":66},{"id":112116,"code":"B4KJ201801000-0365","latitude":"43.19935917","longitude":"141.2814417","source_code":"PORT01046016339","project_name":"\u6e2f\u6e7e\u5c40","survey_name":"\u77f3\u72e9\u6e7e\u65b0\u6e2f-14m\u5cb8\u58c1\u5730\u8cea\u8abf\u67fb\u696d\u52d9","client_name":"\u56fd\u571f\u4ea4\u901a\u7701\u5317\u6d77\u9053\u958b\u767a\u5c40\u6e2f\u6e7e\u7a7a\u6e2f\u90e8","boring_xml_url":0,"boring_view_url":0,"soilmap_view_url":66,"soiltest_xml_url":0,"soiltest_view_url":66},{"id":112115,"code":"B4KJ201801000-0364","latitude":"43.19789994","longitude":"141.2812598","source_code":"PORT01046016337","project_name":"\u6e2f\u6e7e\u5c40","survey_name":"\u77f3\u72e9\u6e7e\u65b0\u6e2f-14m\u5cb8\u58c1\u5730\u8cea\u8abf\u67fb\u696d\u52d9","client_name":"\u56fd\u571f\u4ea4\u901a\u7701\u5317\u6d77\u9053\u958b\u767a\u5c40\u6e2f\u6e7e\u7a7a\u6e2f\u90e8","boring_xml_url":0,"boring_view_url":0,"soilmap_view_url":66,"soiltest_xml_url":0,"soiltest_view_url":66},{"id":112114,"code":"B4KJ201801000-0363","latitude":"43.19850547","longitude":"141.2821701","source_code":"PORT01046016336","project_name":"\u6e2f\u6e7e\u5c40","survey_name":"\u77f3\u72e9\u6e7e\u65b0\u6e2f-14m\u5cb8\u58c1\u5730\u8cea\u8abf\u67fb\u696d\u52d9","client_name":"\u56fd\u571f\u4ea4\u901a\u7701\u5317\u6d77\u9053\u958b\u767a\u5c40\u6e2f\u6e7e\u7a7a\u6e2f\u90e8","boring_xml_url":0,"boring_view_url":0,"soilmap_view_url":66,"soiltest_xml_url":0,"soiltest_view_url":66},{"id":112113,"code":"B4KJ201801000-0362","latitude":"43.19923806","longitude":"141.2812597","source_code":"PORT01046016335","project_name":"\u6e2f\u6e7e\u5c40","survey_name":"\u77f3\u72e9\u6e7e\u65b0\u6e2f-14m\u5cb8\u58c1\u5730\u8cea\u8abf\u67fb\u696d\u52d9","client_name":"\u56fd\u571f\u4ea4\u901a\u7701\u5317\u6d77\u9053\u958b\u767a\u5c40\u6e2f\u6e7e\u7a7a\u6e2f\u90e8","boring_xml_url":0,"boring_view_url":0,"soilmap_view_url":66,"soiltest_xml_url":0,"soiltest_view_url":66},{"id":112112,"code":"B4KJ201801000-0361","latitude":"43.19990403","longitude":"141.2804319","source_code":"PORT01046016334","project_name":"\u6e2f\u6e7e\u5c40","survey_name":"\u77f3\u72e9\u6e7e\u65b0\u6e2f-14m\u5cb8\u58c1\u5730\u8cea\u8abf\u67fb\u696d\u52d9","client_name":"\u56fd\u571f\u4ea4\u901a\u7701\u5317\u6d77\u9053\u958b\u767a\u5c40\u6e2f\u6e7e\u7a7a\u6e2f\u90e8","boring_xml_url":0,"boring_view_url":0,"soilmap_view_url":66,"soiltest_xml_url":0,"soiltest_view_url":66},{"id":112111,"code":"B4KJ201801000-0360","latitude":"43.19996433","longitude":"141.2786939","source_code":"PORT01046016332","project_name":"\u6e2f\u6e7e\u5c40","survey_name":"\u77f3\u72e9\u6e7e\u65b0\u6e2f-14m\u5cb8\u58c1\u5730\u8cea\u8abf\u67fb\u696d\u52d9","client_name":"\u56fd\u571f\u4ea4\u901a\u7701\u5317\u6d77\u9053\u958b\u767a\u5c40\u6e2f\u6e7e\u7a7a\u6e2f\u90e8","boring_xml_url":0,"boring_view_url":0,"soilmap_view_url":66,"soiltest_xml_url":0,"soiltest_view_url":66},{"id":112110,"code":"B4KJ201801000-0359","latitude":"43.19893525","longitude":"141.2808046","source_code":"PORT01046016331","project_name":"\u6e2f\u6e7e\u5c40","survey_name":"\u77f3\u72e9\u6e7e\u65b0\u6e2f-14m\u5cb8\u58c1\u5730\u8cea\u8abf\u67fb\u696d\u52d9","client_name":"\u56fd\u571f\u4ea4\u901a\u7701\u5317\u6d77\u9053\u958b\u767a\u5c40\u6e2f\u6e7e\u7a7a\u6e2f\u90e8","boring_xml_url":0,"boring_view_url":0,"soilmap_view_url":66,"soiltest_xml_url":0,"soiltest_view_url":0},{"id":112109,"code":"B4KJ201801000-0358","latitude":"42.2824708","longitude":"143.3225159","source_code":"PORT01035011401","project_name":"\u6e2f\u6e7e\u5c40","survey_name":"\u5e73\u621014\u5e74\u5ea6+\u52dd\u6e2f\u5730\u8cea\u8abf\u67fb\u696d\u52d9","client_name":"\u56fd\u571f\u4ea4\u901a\u7701\u5317\u6d77\u9053\u958b\u767a\u5c40\u6e2f\u6e7e\u7a7a\u6e2f\u90e8","boring_xml_url":0,"boring_view_url":0,"soilmap_view_url":66,"soiltest_xml_url":0,"soiltest_view_url":66},{"id":112108,"code":"B4KJ201801000-0357","latitude":"42.28331481","longitude":"143.3262352","source_code":"PORT01035011302","project_name":"\u6e2f\u6e7e\u5c40","survey_name":"+\u52dd\u6e2f\u5730\u8cea\u8abf\u67fb\u696d\u52d9","client_name":"\u56fd\u571f\u4ea4\u901a\u7701\u5317\u6d77\u9053\u958b\u767a\u5c40\u6e2f\u6e7e\u7a7a\u6e2f\u90e8","boring_xml_url":0,"boring_view_url":0,"soilmap_view_url":66,"soiltest_xml_url":0,"soiltest_view_url":66},{"id":112107,"code":"B4KJ201801000-0356","latitude":"42.28280331","longitude":"143.3252375","source_code":"PORT01035011301","project_name":"\u6e2f\u6e7e\u5c40","survey_name":"+\u52dd\u6e2f\u5730\u8cea\u8abf\u67fb\u696d\u52d9","client_name":"\u56fd\u571f\u4ea4\u901a\u7701\u5317\u6d77\u9053\u958b\u767a\u5c40\u6e2f\u6e7e\u7a7a\u6e2f\u90e8","boring_xml_url":0,"boring_view_url":0,"soilmap_view_url":66,"soiltest_xml_url":0,"soiltest_view_url":66},{"id":112106,"code":"B4KJ201801000-0355","latitude":"42.28229408","longitude":"143.3242414","source_code":"PORT01035011203","project_name":"\u6e2f\u6e7e\u5c40","survey_name":"+\u52dd\u6e2f\u5730\u8cea\u8abf\u67fb\u696d\u52d9","client_name":"\u56fd\u571f\u4ea4\u901a\u7701\u5317\u6d77\u9053\u958b\u767a\u5c40\u6e2f\u6e7e\u7a7a\u6e2f\u90e8","boring_xml_url":0,"boring_view_url":0,"soilmap_view_url":66,"soiltest_xml_url":0,"soiltest_view_url":66}]}}