{"header":{"xyz":{"source":[],"mosaic":false},"page":6951,"raw":{"soiltest_result":"0","bbox":"57.598333,109.544722,1.933333,163.806111","page":"6951"},"conditions":{"soiltest_result":0,"north":57.598333,"west":109.544722,"south":1.933333,"east":163.806111},"success":true,"message":""},"data":{"meta":{"total":212844,"page":6951,"pages":7095,"count":30},"values":[{"id":112045,"code":"B4KJ201801000-0294","latitude":"44.00916667","longitude":"144.2886111","source_code":"PORT01030011703","project_name":"\u6e2f\u6e7e\u5c40","survey_name":"\u7db2\u8d70\u6e2f\u5730\u8cea\u8abf\u67fb\u696d\u52d9","client_name":"\u56fd\u571f\u4ea4\u901a\u7701\u5317\u6d77\u9053\u958b\u767a\u5c40\u6e2f\u6e7e\u7a7a\u6e2f\u90e8","boring_xml_url":0,"boring_view_url":0,"soilmap_view_url":66,"soiltest_xml_url":0,"soiltest_view_url":66},{"id":112044,"code":"B4KJ201801000-0293","latitude":"44.00888889","longitude":"144.2888889","source_code":"PORT01030011702","project_name":"\u6e2f\u6e7e\u5c40","survey_name":"\u7db2\u8d70\u6e2f\u5730\u8cea\u8abf\u67fb\u696d\u52d9","client_name":"\u56fd\u571f\u4ea4\u901a\u7701\u5317\u6d77\u9053\u958b\u767a\u5c40\u6e2f\u6e7e\u7a7a\u6e2f\u90e8","boring_xml_url":0,"boring_view_url":0,"soilmap_view_url":66,"soiltest_xml_url":0,"soiltest_view_url":66},{"id":112043,"code":"B4KJ201801000-0292","latitude":"44.00833333","longitude":"144.2891667","source_code":"PORT01030011701","project_name":"\u6e2f\u6e7e\u5c40","survey_name":"\u7db2\u8d70\u6e2f\u5730\u8cea\u8abf\u67fb\u696d\u52d9","client_name":"\u56fd\u571f\u4ea4\u901a\u7701\u5317\u6d77\u9053\u958b\u767a\u5c40\u6e2f\u6e7e\u7a7a\u6e2f\u90e8","boring_xml_url":0,"boring_view_url":0,"soilmap_view_url":66,"soiltest_xml_url":0,"soiltest_view_url":66},{"id":112042,"code":"B4KJ201801000-0291","latitude":"45.18944444","longitude":"141.1336111","source_code":"PORT01029011409","project_name":"\u6e2f\u6e7e\u5c40","survey_name":"\u6c93\u5f62\u6e2f\u5730\u8cea\u8abf\u67fb\u696d\u52d9","client_name":"\u56fd\u571f\u4ea4\u901a\u7701\u5317\u6d77\u9053\u958b\u767a\u5c40\u6e2f\u6e7e\u7a7a\u6e2f\u90e8","boring_xml_url":0,"boring_view_url":0,"soilmap_view_url":66,"soiltest_xml_url":0,"soiltest_view_url":0},{"id":112041,"code":"B4KJ201801000-0290","latitude":"45.18916667","longitude":"141.1336111","source_code":"PORT01029011408","project_name":"\u6e2f\u6e7e\u5c40","survey_name":"\u6c93\u5f62\u6e2f\u5730\u8cea\u8abf\u67fb\u696d\u52d9","client_name":"\u56fd\u571f\u4ea4\u901a\u7701\u5317\u6d77\u9053\u958b\u767a\u5c40\u6e2f\u6e7e\u7a7a\u6e2f\u90e8","boring_xml_url":0,"boring_view_url":0,"soilmap_view_url":66,"soiltest_xml_url":0,"soiltest_view_url":66},{"id":112040,"code":"B4KJ201801000-0289","latitude":"45.18833333","longitude":"141.1336111","source_code":"PORT01029011407","project_name":"\u6e2f\u6e7e\u5c40","survey_name":"\u6c93\u5f62\u6e2f\u5730\u8cea\u8abf\u67fb\u696d\u52d9","client_name":"\u56fd\u571f\u4ea4\u901a\u7701\u5317\u6d77\u9053\u958b\u767a\u5c40\u6e2f\u6e7e\u7a7a\u6e2f\u90e8","boring_xml_url":0,"boring_view_url":0,"soilmap_view_url":66,"soiltest_xml_url":0,"soiltest_view_url":0},{"id":112039,"code":"B4KJ201801000-0288","latitude":"45.18861111","longitude":"141.1330556","source_code":"PORT01029011406","project_name":"\u6e2f\u6e7e\u5c40","survey_name":"\u6c93\u5f62\u6e2f\u5730\u8cea\u8abf\u67fb\u696d\u52d9","client_name":"\u56fd\u571f\u4ea4\u901a\u7701\u5317\u6d77\u9053\u958b\u767a\u5c40\u6e2f\u6e7e\u7a7a\u6e2f\u90e8","boring_xml_url":0,"boring_view_url":0,"soilmap_view_url":66,"soiltest_xml_url":0,"soiltest_view_url":0},{"id":112038,"code":"B4KJ201801000-0287","latitude":"45.18833333","longitude":"141.1327778","source_code":"PORT01029011405","project_name":"\u6e2f\u6e7e\u5c40","survey_name":"\u6c93\u5f62\u6e2f\u5730\u8cea\u8abf\u67fb\u696d\u52d9","client_name":"\u56fd\u571f\u4ea4\u901a\u7701\u5317\u6d77\u9053\u958b\u767a\u5c40\u6e2f\u6e7e\u7a7a\u6e2f\u90e8","boring_xml_url":0,"boring_view_url":0,"soilmap_view_url":66,"soiltest_xml_url":0,"soiltest_view_url":0},{"id":112037,"code":"B4KJ201801000-0286","latitude":"45.18805556","longitude":"141.1327778","source_code":"PORT01029011404","project_name":"\u6e2f\u6e7e\u5c40","survey_name":"\u6c93\u5f62\u6e2f\u5730\u8cea\u8abf\u67fb\u696d\u52d9","client_name":"\u56fd\u571f\u4ea4\u901a\u7701\u5317\u6d77\u9053\u958b\u767a\u5c40\u6e2f\u6e7e\u7a7a\u6e2f\u90e8","boring_xml_url":0,"boring_view_url":0,"soilmap_view_url":66,"soiltest_xml_url":0,"soiltest_view_url":0},{"id":112036,"code":"B4KJ201801000-0285","latitude":"45.18777778","longitude":"141.1327778","source_code":"PORT01029011403","project_name":"\u6e2f\u6e7e\u5c40","survey_name":"\u6c93\u5f62\u6e2f\u5730\u8cea\u8abf\u67fb\u696d\u52d9","client_name":"\u56fd\u571f\u4ea4\u901a\u7701\u5317\u6d77\u9053\u958b\u767a\u5c40\u6e2f\u6e7e\u7a7a\u6e2f\u90e8","boring_xml_url":0,"boring_view_url":0,"soilmap_view_url":66,"soiltest_xml_url":0,"soiltest_view_url":66},{"id":112035,"code":"B4KJ201801000-0284","latitude":"45.18805556","longitude":"141.1325","source_code":"PORT01029011402","project_name":"\u6e2f\u6e7e\u5c40","survey_name":"\u6c93\u5f62\u6e2f\u5730\u8cea\u8abf\u67fb\u696d\u52d9","client_name":"\u56fd\u571f\u4ea4\u901a\u7701\u5317\u6d77\u9053\u958b\u767a\u5c40\u6e2f\u6e7e\u7a7a\u6e2f\u90e8","boring_xml_url":0,"boring_view_url":0,"soilmap_view_url":66,"soiltest_xml_url":0,"soiltest_view_url":0},{"id":112034,"code":"B4KJ201801000-0283","latitude":"45.18777778","longitude":"141.1322222","source_code":"PORT01029011401","project_name":"\u6e2f\u6e7e\u5c40","survey_name":"\u6c93\u5f62\u6e2f\u5730\u8cea\u8abf\u67fb\u696d\u52d9","client_name":"\u56fd\u571f\u4ea4\u901a\u7701\u5317\u6d77\u9053\u958b\u767a\u5c40\u6e2f\u6e7e\u7a7a\u6e2f\u90e8","boring_xml_url":0,"boring_view_url":0,"soilmap_view_url":66,"soiltest_xml_url":0,"soiltest_view_url":66},{"id":112033,"code":"B4KJ201801000-0282","latitude":"45.1875","longitude":"141.135","source_code":"PORT01029010013","project_name":"\u6e2f\u6e7e\u5c40","survey_name":"\u5e73\u62102\u5e74\u5ea6\u6c93\u5f62\u6e2f\u5730\u8cea\u8abf\u67fb\u696d\u52d9\u5831\u544a\u66f8","client_name":"\u56fd\u571f\u4ea4\u901a\u7701\u5317\u6d77\u9053\u958b\u767a\u5c40\u6e2f\u6e7e\u7a7a\u6e2f\u90e8","boring_xml_url":0,"boring_view_url":0,"soilmap_view_url":66,"soiltest_xml_url":0,"soiltest_view_url":66},{"id":112032,"code":"B4KJ201801000-0281","latitude":"45.1875","longitude":"141.1358333","source_code":"PORT01029010012","project_name":"\u6e2f\u6e7e\u5c40","survey_name":"\u5e73\u62102\u5e74\u5ea6\u6c93\u5f62\u6e2f\u5730\u8cea\u8abf\u67fb\u696d\u52d9\u5831\u544a\u66f8","client_name":"\u56fd\u571f\u4ea4\u901a\u7701\u5317\u6d77\u9053\u958b\u767a\u5c40\u6e2f\u6e7e\u7a7a\u6e2f\u90e8","boring_xml_url":0,"boring_view_url":0,"soilmap_view_url":66,"soiltest_xml_url":0,"soiltest_view_url":66},{"id":112031,"code":"B4KJ201801000-0280","latitude":"45.18777778","longitude":"141.1363889","source_code":"PORT01029010011","project_name":"\u6e2f\u6e7e\u5c40","survey_name":"\u5e73\u62102\u5e74\u5ea6\u6c93\u5f62\u6e2f\u5730\u8cea\u8abf\u67fb\u696d\u52d9\u5831\u544a\u66f8","client_name":"\u56fd\u571f\u4ea4\u901a\u7701\u5317\u6d77\u9053\u958b\u767a\u5c40\u6e2f\u6e7e\u7a7a\u6e2f\u90e8","boring_xml_url":0,"boring_view_url":0,"soilmap_view_url":66,"soiltest_xml_url":0,"soiltest_view_url":66},{"id":112030,"code":"B4KJ201801000-0279","latitude":"45.30085972","longitude":"141.0502447","source_code":"PORT01028010010","project_name":"\u6e2f\u6e7e\u5c40","survey_name":"\u9999\u6df1\u6e2f\u5730\u8cea\u8abf\u67fb\u5916\u4e00\u9023\u696d\u52d9\u5831\u544a\u66f8","client_name":"\u56fd\u571f\u4ea4\u901a\u7701\u5317\u6d77\u9053\u958b\u767a\u5c40\u6e2f\u6e7e\u7a7a\u6e2f\u90e8","boring_xml_url":0,"boring_view_url":0,"soilmap_view_url":66,"soiltest_xml_url":0,"soiltest_view_url":0},{"id":112029,"code":"B4KJ201801000-0278","latitude":"45.30026927","longitude":"141.0503298","source_code":"PORT01028010009","project_name":"\u6e2f\u6e7e\u5c40","survey_name":"\u9999\u6df1\u6e2f\u5730\u8cea\u8abf\u67fb\u5916\u4e00\u9023\u696d\u52d9\u5831\u544a\u66f8","client_name":"\u56fd\u571f\u4ea4\u901a\u7701\u5317\u6d77\u9053\u958b\u767a\u5c40\u6e2f\u6e7e\u7a7a\u6e2f\u90e8","boring_xml_url":0,"boring_view_url":0,"soilmap_view_url":66,"soiltest_xml_url":0,"soiltest_view_url":0},{"id":112028,"code":"B4KJ201801000-0277","latitude":"45.2996535","longitude":"141.0504518","source_code":"PORT01028010008","project_name":"\u6e2f\u6e7e\u5c40","survey_name":"\u9999\u6df1\u6e2f\u5730\u8cea\u8abf\u67fb\u5916\u4e00\u9023\u696d\u52d9\u5831\u544a\u66f8","client_name":"\u56fd\u571f\u4ea4\u901a\u7701\u5317\u6d77\u9053\u958b\u767a\u5c40\u6e2f\u6e7e\u7a7a\u6e2f\u90e8","boring_xml_url":0,"boring_view_url":0,"soilmap_view_url":66,"soiltest_xml_url":0,"soiltest_view_url":0},{"id":112027,"code":"B4KJ201801000-0276","latitude":"45.29899918","longitude":"141.0505746","source_code":"PORT01028010007","project_name":"\u6e2f\u6e7e\u5c40","survey_name":"\u9999\u6df1\u6e2f\u5730\u8cea\u8abf\u67fb\u5916\u4e00\u9023\u696d\u52d9\u5831\u544a\u66f8","client_name":"\u56fd\u571f\u4ea4\u901a\u7701\u5317\u6d77\u9053\u958b\u767a\u5c40\u6e2f\u6e7e\u7a7a\u6e2f\u90e8","boring_xml_url":0,"boring_view_url":0,"soilmap_view_url":66,"soiltest_xml_url":0,"soiltest_view_url":0},{"id":112026,"code":"B4KJ201801000-0275","latitude":"45.30090438","longitude":"141.0508251","source_code":"PORT01028010006","project_name":"\u6e2f\u6e7e\u5c40","survey_name":"\u9999\u6df1\u6e2f\u5730\u8cea\u8abf\u67fb\u5916\u4e00\u9023\u696d\u52d9\u5831\u544a\u66f8","client_name":"\u56fd\u571f\u4ea4\u901a\u7701\u5317\u6d77\u9053\u958b\u767a\u5c40\u6e2f\u6e7e\u7a7a\u6e2f\u90e8","boring_xml_url":0,"boring_view_url":0,"soilmap_view_url":66,"soiltest_xml_url":0,"soiltest_view_url":0},{"id":112025,"code":"B4KJ201801000-0274","latitude":"45.30084992","longitude":"141.0505356","source_code":"PORT01028010005","project_name":"\u6e2f\u6e7e\u5c40","survey_name":"\u9999\u6df1\u6e2f\u5730\u8cea\u8abf\u67fb\u5916\u4e00\u9023\u696d\u52d9\u5831\u544a\u66f8","client_name":"\u56fd\u571f\u4ea4\u901a\u7701\u5317\u6d77\u9053\u958b\u767a\u5c40\u6e2f\u6e7e\u7a7a\u6e2f\u90e8","boring_xml_url":0,"boring_view_url":0,"soilmap_view_url":66,"soiltest_xml_url":0,"soiltest_view_url":0},{"id":112024,"code":"B4KJ201801000-0273","latitude":"45.30035249","longitude":"141.0509093","source_code":"PORT01028010004","project_name":"\u6e2f\u6e7e\u5c40","survey_name":"\u9999\u6df1\u6e2f\u5730\u8cea\u8abf\u67fb\u5916\u4e00\u9023\u696d\u52d9\u5831\u544a\u66f8","client_name":"\u56fd\u571f\u4ea4\u901a\u7701\u5317\u6d77\u9053\u958b\u767a\u5c40\u6e2f\u6e7e\u7a7a\u6e2f\u90e8","boring_xml_url":0,"boring_view_url":0,"soilmap_view_url":66,"soiltest_xml_url":0,"soiltest_view_url":0},{"id":112023,"code":"B4KJ201801000-0272","latitude":"45.30029803","longitude":"141.0506199","source_code":"PORT01028010003","project_name":"\u6e2f\u6e7e\u5c40","survey_name":"\u9999\u6df1\u6e2f\u5730\u8cea\u8abf\u67fb\u5916\u4e00\u9023\u696d\u52d9\u5831\u544a\u66f8","client_name":"\u56fd\u571f\u4ea4\u901a\u7701\u5317\u6d77\u9053\u958b\u767a\u5c40\u6e2f\u6e7e\u7a7a\u6e2f\u90e8","boring_xml_url":0,"boring_view_url":0,"soilmap_view_url":66,"soiltest_xml_url":0,"soiltest_view_url":0},{"id":112022,"code":"B4KJ201801000-0271","latitude":"45.29965617","longitude":"141.0507061","source_code":"PORT01028010002","project_name":"\u6e2f\u6e7e\u5c40","survey_name":"\u9999\u6df1\u6e2f\u5730\u8cea\u8abf\u67fb\u5916\u4e00\u9023\u696d\u52d9\u5831\u544a\u66f8","client_name":"\u56fd\u571f\u4ea4\u901a\u7701\u5317\u6d77\u9053\u958b\u767a\u5c40\u6e2f\u6e7e\u7a7a\u6e2f\u90e8","boring_xml_url":0,"boring_view_url":0,"soilmap_view_url":66,"soiltest_xml_url":0,"soiltest_view_url":0},{"id":112021,"code":"B4KJ201801000-0270","latitude":"45.2990147","longitude":"141.0508286","source_code":"PORT01028010001","project_name":"\u6e2f\u6e7e\u5c40","survey_name":"\u9999\u6df1\u6e2f\u5730\u8cea\u8abf\u67fb\u5916\u4e00\u9023\u696d\u52d9\u5831\u544a\u66f8","client_name":"\u56fd\u571f\u4ea4\u901a\u7701\u5317\u6d77\u9053\u958b\u767a\u5c40\u6e2f\u6e7e\u7a7a\u6e2f\u90e8","boring_xml_url":0,"boring_view_url":0,"soilmap_view_url":66,"soiltest_xml_url":0,"soiltest_view_url":0},{"id":112020,"code":"B4KJ201801000-0269","latitude":"45.45170964","longitude":"141.0327234","source_code":"PORT01027010003","project_name":"\u6e2f\u6e7e\u5c40","survey_name":"\u9999\u6df1\u6e2f\u5730\u8cea\u8abf\u67fb\u5916\u4e00\u9023\u696d\u52d9\u5831\u544a\u66f8","client_name":"\u56fd\u571f\u4ea4\u901a\u7701\u5317\u6d77\u9053\u958b\u767a\u5c40\u6e2f\u6e7e\u7a7a\u6e2f\u90e8","boring_xml_url":0,"boring_view_url":0,"soilmap_view_url":66,"soiltest_xml_url":0,"soiltest_view_url":0},{"id":112019,"code":"B4KJ201801000-0268","latitude":"45.45216361","longitude":"141.0326815","source_code":"PORT01027010002","project_name":"\u6e2f\u6e7e\u5c40","survey_name":"\u9999\u6df1\u6e2f\u5730\u8cea\u8abf\u67fb\u5916\u4e00\u9023\u696d\u52d9\u5831\u544a\u66f8","client_name":"\u56fd\u571f\u4ea4\u901a\u7701\u5317\u6d77\u9053\u958b\u767a\u5c40\u6e2f\u6e7e\u7a7a\u6e2f\u90e8","boring_xml_url":0,"boring_view_url":0,"soilmap_view_url":66,"soiltest_xml_url":0,"soiltest_view_url":0},{"id":112018,"code":"B4KJ201801000-0267","latitude":"45.45220921","longitude":"141.0326965","source_code":"PORT01027010001","project_name":"\u6e2f\u6e7e\u5c40","survey_name":"\u9999\u6df1\u6e2f\u5730\u8cea\u8abf\u67fb\u5916\u4e00\u9023\u696d\u52d9\u5831\u544a\u66f8","client_name":"\u56fd\u571f\u4ea4\u901a\u7701\u5317\u6d77\u9053\u958b\u767a\u5c40\u6e2f\u6e7e\u7a7a\u6e2f\u90e8","boring_xml_url":0,"boring_view_url":0,"soilmap_view_url":66,"soiltest_xml_url":0,"soiltest_view_url":0},{"id":112017,"code":"B4KJ201801000-0266","latitude":"44.93684875","longitude":"142.5883412","source_code":"PORT01026010037","project_name":"\u6e2f\u6e7e\u5c40","survey_name":"\u679d\u5e78\u6e2f\u5730\u8cea\u8abf\u67fb\u696d\u52d9","client_name":"\u56fd\u571f\u4ea4\u901a\u7701\u5317\u6d77\u9053\u958b\u767a\u5c40\u6e2f\u6e7e\u7a7a\u6e2f\u90e8","boring_xml_url":0,"boring_view_url":0,"soilmap_view_url":66,"soiltest_xml_url":0,"soiltest_view_url":0},{"id":112016,"code":"B4KJ201801000-0265","latitude":"44.93695978","longitude":"142.5879255","source_code":"PORT01026010036","project_name":"\u6e2f\u6e7e\u5c40","survey_name":"\u679d\u5e78\u6e2f\u5730\u8cea\u8abf\u67fb\u696d\u52d9","client_name":"\u56fd\u571f\u4ea4\u901a\u7701\u5317\u6d77\u9053\u958b\u767a\u5c40\u6e2f\u6e7e\u7a7a\u6e2f\u90e8","boring_xml_url":0,"boring_view_url":0,"soilmap_view_url":66,"soiltest_xml_url":0,"soiltest_view_url":0}]}}