{"header":{"xyz":{"source":[],"mosaic":false},"page":6956,"raw":{"soiltest_result":"0","bbox":"57.598333,109.544722,1.933333,163.806111","page":"6956"},"conditions":{"soiltest_result":0,"north":57.598333,"west":109.544722,"south":1.933333,"east":163.806111},"success":true,"message":""},"data":{"meta":{"total":212844,"page":6956,"pages":7095,"count":30},"values":[{"id":111895,"code":"B4KJ201801000-0144","latitude":"42.98018594","longitude":"144.3738086","source_code":"PORT01006021812","project_name":"\u6e2f\u6e7e\u5c40","survey_name":"\u91e7\u8def\u6e2f\u6771\u6e2f\u533a\u6cca\u5730(-9m)\u5916\u5730\u8cea\u8abf\u67fb\u696d\u52d9","client_name":"\u56fd\u571f\u4ea4\u901a\u7701\u5317\u6d77\u9053\u958b\u767a\u5c40\u6e2f\u6e7e\u7a7a\u6e2f\u90e8","boring_xml_url":0,"boring_view_url":0,"soilmap_view_url":66,"soiltest_xml_url":0,"soiltest_view_url":66},{"id":111894,"code":"B4KJ201801000-0143","latitude":"42.98057978","longitude":"144.3762014","source_code":"PORT01006021811","project_name":"\u6e2f\u6e7e\u5c40","survey_name":"\u91e7\u8def\u6e2f\u6771\u6e2f\u533a\u6cca\u5730(-9m)\u5916\u5730\u8cea\u8abf\u67fb\u696d\u52d9","client_name":"\u56fd\u571f\u4ea4\u901a\u7701\u5317\u6d77\u9053\u958b\u767a\u5c40\u6e2f\u6e7e\u7a7a\u6e2f\u90e8","boring_xml_url":0,"boring_view_url":0,"soilmap_view_url":66,"soiltest_xml_url":0,"soiltest_view_url":66},{"id":111893,"code":"B4KJ201801000-0142","latitude":"42.98097358","longitude":"144.3785943","source_code":"PORT01006021810","project_name":"\u6e2f\u6e7e\u5c40","survey_name":"\u91e7\u8def\u6e2f\u6771\u6e2f\u533a\u6cca\u5730(-9m)\u5916\u5730\u8cea\u8abf\u67fb\u696d\u52d9","client_name":"\u56fd\u571f\u4ea4\u901a\u7701\u5317\u6d77\u9053\u958b\u767a\u5c40\u6e2f\u6e7e\u7a7a\u6e2f\u90e8","boring_xml_url":0,"boring_view_url":0,"soilmap_view_url":66,"soiltest_xml_url":0,"soiltest_view_url":66},{"id":111892,"code":"B4KJ201801000-0141","latitude":"42.97980869","longitude":"144.3806545","source_code":"PORT01006021809","project_name":"\u6e2f\u6e7e\u5c40","survey_name":"\u91e7\u8def\u6e2f\u6771\u6e2f\u533a\u6cca\u5730(-9m)\u5916\u5730\u8cea\u8abf\u67fb\u696d\u52d9","client_name":"\u56fd\u571f\u4ea4\u901a\u7701\u5317\u6d77\u9053\u958b\u767a\u5c40\u6e2f\u6e7e\u7a7a\u6e2f\u90e8","boring_xml_url":0,"boring_view_url":0,"soilmap_view_url":66,"soiltest_xml_url":0,"soiltest_view_url":66},{"id":111891,"code":"B4KJ201801000-0140","latitude":"42.97990753","longitude":"144.3811006","source_code":"PORT01006021808","project_name":"\u6e2f\u6e7e\u5c40","survey_name":"\u91e7\u8def\u6e2f\u6771\u6e2f\u533a\u6cca\u5730(-9m)\u5916\u5730\u8cea\u8abf\u67fb\u696d\u52d9","client_name":"\u56fd\u571f\u4ea4\u901a\u7701\u5317\u6d77\u9053\u958b\u767a\u5c40\u6e2f\u6e7e\u7a7a\u6e2f\u90e8","boring_xml_url":0,"boring_view_url":0,"soilmap_view_url":66,"soiltest_xml_url":0,"soiltest_view_url":66},{"id":111890,"code":"B4KJ201801000-0139","latitude":"42.98000633","longitude":"144.3815466","source_code":"PORT01006021807","project_name":"\u6e2f\u6e7e\u5c40","survey_name":"\u91e7\u8def\u6e2f\u6771\u6e2f\u533a\u6cca\u5730(-9m)\u5916\u5730\u8cea\u8abf\u67fb\u696d\u52d9","client_name":"\u56fd\u571f\u4ea4\u901a\u7701\u5317\u6d77\u9053\u958b\u767a\u5c40\u6e2f\u6e7e\u7a7a\u6e2f\u90e8","boring_xml_url":0,"boring_view_url":0,"soilmap_view_url":66,"soiltest_xml_url":0,"soiltest_view_url":66},{"id":111889,"code":"B4KJ201801000-0138","latitude":"42.98010514","longitude":"144.3819927","source_code":"PORT01006021806","project_name":"\u6e2f\u6e7e\u5c40","survey_name":"\u91e7\u8def\u6e2f\u6771\u6e2f\u533a\u6cca\u5730(-9m)\u5916\u5730\u8cea\u8abf\u67fb\u696d\u52d9","client_name":"\u56fd\u571f\u4ea4\u901a\u7701\u5317\u6d77\u9053\u958b\u767a\u5c40\u6e2f\u6e7e\u7a7a\u6e2f\u90e8","boring_xml_url":0,"boring_view_url":0,"soilmap_view_url":66,"soiltest_xml_url":0,"soiltest_view_url":66},{"id":111888,"code":"B4KJ201801000-0137","latitude":"42.97554619","longitude":"144.3724007","source_code":"PORT01006021805","project_name":"\u6e2f\u6e7e\u5c40","survey_name":"\u91e7\u8def\u6e2f\u6771\u6e2f\u533a\u6cca\u5730(-9m)\u5916\u5730\u8cea\u8abf\u67fb\u696d\u52d9","client_name":"\u56fd\u571f\u4ea4\u901a\u7701\u5317\u6d77\u9053\u958b\u767a\u5c40\u6e2f\u6e7e\u7a7a\u6e2f\u90e8","boring_xml_url":0,"boring_view_url":0,"soilmap_view_url":66,"soiltest_xml_url":0,"soiltest_view_url":66},{"id":111887,"code":"B4KJ201801000-0136","latitude":"42.97641758","longitude":"144.372682","source_code":"PORT01006021804","project_name":"\u6e2f\u6e7e\u5c40","survey_name":"\u91e7\u8def\u6e2f\u6771\u6e2f\u533a\u6cca\u5730(-9m)\u5916\u5730\u8cea\u8abf\u67fb\u696d\u52d9","client_name":"\u56fd\u571f\u4ea4\u901a\u7701\u5317\u6d77\u9053\u958b\u767a\u5c40\u6e2f\u6e7e\u7a7a\u6e2f\u90e8","boring_xml_url":0,"boring_view_url":0,"soilmap_view_url":66,"soiltest_xml_url":0,"soiltest_view_url":66},{"id":111886,"code":"B4KJ201801000-0135","latitude":"42.98018594","longitude":"144.3738086","source_code":"PORT01006021803","project_name":"\u6e2f\u6e7e\u5c40","survey_name":"\u91e7\u8def\u6e2f\u6771\u6e2f\u533a\u6cca\u5730(-9m)\u5916\u5730\u8cea\u8abf\u67fb\u696d\u52d9","client_name":"\u56fd\u571f\u4ea4\u901a\u7701\u5317\u6d77\u9053\u958b\u767a\u5c40\u6e2f\u6e7e\u7a7a\u6e2f\u90e8","boring_xml_url":0,"boring_view_url":0,"soilmap_view_url":66,"soiltest_xml_url":0,"soiltest_view_url":66},{"id":111885,"code":"B4KJ201801000-0134","latitude":"42.98057978","longitude":"144.3762014","source_code":"PORT01006021802","project_name":"\u6e2f\u6e7e\u5c40","survey_name":"\u91e7\u8def\u6e2f\u6771\u6e2f\u533a\u6cca\u5730(-9m)\u5916\u5730\u8cea\u8abf\u67fb\u696d\u52d9","client_name":"\u56fd\u571f\u4ea4\u901a\u7701\u5317\u6d77\u9053\u958b\u767a\u5c40\u6e2f\u6e7e\u7a7a\u6e2f\u90e8","boring_xml_url":0,"boring_view_url":0,"soilmap_view_url":66,"soiltest_xml_url":0,"soiltest_view_url":66},{"id":111884,"code":"B4KJ201801000-0133","latitude":"42.98097358","longitude":"144.3785943","source_code":"PORT01006021801","project_name":"\u6e2f\u6e7e\u5c40","survey_name":"\u91e7\u8def\u6e2f\u6771\u6e2f\u533a\u6cca\u5730(-9m)\u5916\u5730\u8cea\u8abf\u67fb\u696d\u52d9","client_name":"\u56fd\u571f\u4ea4\u901a\u7701\u5317\u6d77\u9053\u958b\u767a\u5c40\u6e2f\u6e7e\u7a7a\u6e2f\u90e8","boring_xml_url":0,"boring_view_url":0,"soilmap_view_url":66,"soiltest_xml_url":0,"soiltest_view_url":66},{"id":111883,"code":"B4KJ201801000-0132","latitude":"42.97589092","longitude":"144.3718843","source_code":"PORT01006020909","project_name":"\u6e2f\u6e7e\u5c40","survey_name":"\u91e7\u8def\u6e2f\u6e2f\u753a\u5730\u533a\u5730\u8cea\u8abf\u67fb\u696d\u52d9","client_name":"\u56fd\u571f\u4ea4\u901a\u7701\u5317\u6d77\u9053\u958b\u767a\u5c40\u6e2f\u6e7e\u7a7a\u6e2f\u90e8","boring_xml_url":0,"boring_view_url":0,"soilmap_view_url":66,"soiltest_xml_url":0,"soiltest_view_url":66},{"id":111882,"code":"B4KJ201801000-0131","latitude":"42.97672417","longitude":"144.3718842","source_code":"PORT01006020908","project_name":"\u6e2f\u6e7e\u5c40","survey_name":"\u91e7\u8def\u6e2f\u6e2f\u753a\u5730\u533a\u5730\u8cea\u8abf\u67fb\u696d\u52d9","client_name":"\u56fd\u571f\u4ea4\u901a\u7701\u5317\u6d77\u9053\u958b\u767a\u5c40\u6e2f\u6e7e\u7a7a\u6e2f\u90e8","boring_xml_url":0,"boring_view_url":0,"soilmap_view_url":66,"soiltest_xml_url":0,"soiltest_view_url":66},{"id":111881,"code":"B4KJ201801000-0130","latitude":"42.98089039","longitude":"144.3738282","source_code":"PORT01006020205","project_name":"\u6e2f\u6e7e\u5c40","survey_name":"\u91e7\u8def\u6e2f\u5730\u8cea\u8abf\u67fb\u305d\u306e1\u696d\u52d9","client_name":"\u56fd\u571f\u4ea4\u901a\u7701\u5317\u6d77\u9053\u958b\u767a\u5c40\u6e2f\u6e7e\u7a7a\u6e2f\u90e8","boring_xml_url":0,"boring_view_url":0,"soilmap_view_url":66,"soiltest_xml_url":0,"soiltest_view_url":0},{"id":111880,"code":"B4KJ201801000-0129","latitude":"42.98089042","longitude":"144.3754947","source_code":"PORT01006020204","project_name":"\u6e2f\u6e7e\u5c40","survey_name":"\u91e7\u8def\u6e2f\u5730\u8cea\u8abf\u67fb\u305d\u306e1\u696d\u52d9","client_name":"\u56fd\u571f\u4ea4\u901a\u7701\u5317\u6d77\u9053\u958b\u767a\u5c40\u6e2f\u6e7e\u7a7a\u6e2f\u90e8","boring_xml_url":0,"boring_view_url":0,"soilmap_view_url":66,"soiltest_xml_url":0,"soiltest_view_url":66},{"id":111879,"code":"B4KJ201801000-0128","latitude":"42.98116814","longitude":"144.3746614","source_code":"PORT01006020203","project_name":"\u6e2f\u6e7e\u5c40","survey_name":"\u91e7\u8def\u6e2f\u5730\u8cea\u8abf\u67fb\u305d\u306e1\u696d\u52d9","client_name":"\u56fd\u571f\u4ea4\u901a\u7701\u5317\u6d77\u9053\u958b\u767a\u5c40\u6e2f\u6e7e\u7a7a\u6e2f\u90e8","boring_xml_url":0,"boring_view_url":0,"soilmap_view_url":66,"soiltest_xml_url":0,"soiltest_view_url":66},{"id":111878,"code":"B4KJ201801000-0127","latitude":"42.98116814","longitude":"144.3741059","source_code":"PORT01006020202","project_name":"\u6e2f\u6e7e\u5c40","survey_name":"\u91e7\u8def\u6e2f\u5730\u8cea\u8abf\u67fb\u305d\u306e1\u696d\u52d9","client_name":"\u56fd\u571f\u4ea4\u901a\u7701\u5317\u6d77\u9053\u958b\u767a\u5c40\u6e2f\u6e7e\u7a7a\u6e2f\u90e8","boring_xml_url":0,"boring_view_url":0,"soilmap_view_url":66,"soiltest_xml_url":0,"soiltest_view_url":66},{"id":111877,"code":"B4KJ201801000-0126","latitude":"42.98116814","longitude":"144.3735504","source_code":"PORT01006020201","project_name":"\u6e2f\u6e7e\u5c40","survey_name":"\u91e7\u8def\u6e2f\u5730\u8cea\u8abf\u67fb\u305d\u306e1\u696d\u52d9","client_name":"\u56fd\u571f\u4ea4\u901a\u7701\u5317\u6d77\u9053\u958b\u767a\u5c40\u6e2f\u6e7e\u7a7a\u6e2f\u90e8","boring_xml_url":0,"boring_view_url":0,"soilmap_view_url":66,"soiltest_xml_url":0,"soiltest_view_url":66},{"id":111876,"code":"B4KJ201801000-0125","latitude":"43.20951736","longitude":"141.0147925","source_code":"PORT01005011335","project_name":"\u6e2f\u6e7e\u5c40","survey_name":"\u5c0f\u6a3d\u6e2f\u5317\u9632\u6ce2\u5824\u5730\u8cea\u8abf\u67fb\u696d\u52d9","client_name":"\u56fd\u571f\u4ea4\u901a\u7701\u5317\u6d77\u9053\u958b\u767a\u5c40\u6e2f\u6e7e\u7a7a\u6e2f\u90e8","boring_xml_url":0,"boring_view_url":0,"soilmap_view_url":66,"soiltest_xml_url":0,"soiltest_view_url":66},{"id":111875,"code":"B4KJ201801000-0124","latitude":"43.20281097","longitude":"141.020875","source_code":"PORT01005011334","project_name":"\u6e2f\u6e7e\u5c40","survey_name":"\u5c0f\u6a3d\u6e2f\u5317\u9632\u6ce2\u5824\u5730\u8cea\u8abf\u67fb\u696d\u52d9","client_name":"\u56fd\u571f\u4ea4\u901a\u7701\u5317\u6d77\u9053\u958b\u767a\u5c40\u6e2f\u6e7e\u7a7a\u6e2f\u90e8","boring_xml_url":0,"boring_view_url":0,"soilmap_view_url":66,"soiltest_xml_url":0,"soiltest_view_url":66},{"id":111874,"code":"B4KJ201801000-0123","latitude":"43.19745856","longitude":"141.013057","source_code":"PORT01005011250","project_name":"\u6e2f\u6e7e\u5c40","survey_name":"\u5c0f\u6a3d\u6e2f\u4e2d\u592e\u5730\u533a\u5730\u8cea\u8abf\u67fb\u696d\u52d9","client_name":"\u56fd\u571f\u4ea4\u901a\u7701\u5317\u6d77\u9053\u958b\u767a\u5c40\u6e2f\u6e7e\u7a7a\u6e2f\u90e8","boring_xml_url":0,"boring_view_url":0,"soilmap_view_url":66,"soiltest_xml_url":0,"soiltest_view_url":66},{"id":111873,"code":"B4KJ201801000-0122","latitude":"41.78196111","longitude":"140.7220306","source_code":"PORT01004010610","project_name":"\u6e2f\u6e7e\u5c40","survey_name":"\u51fd\u9928\u6e2f\u4e2d\u592e\u3075\u982d\u5730\u8cea\u8abf\u67fb\u696d\u52d9","client_name":"\u56fd\u571f\u4ea4\u901a\u7701\u5317\u6d77\u9053\u958b\u767a\u5c40\u6e2f\u6e7e\u7a7a\u6e2f\u90e8","boring_xml_url":0,"boring_view_url":0,"soilmap_view_url":66,"soiltest_xml_url":0,"soiltest_view_url":66},{"id":111872,"code":"B4KJ201801000-0121","latitude":"41.78290556","longitude":"140.7220361","source_code":"PORT01004010608","project_name":"\u6e2f\u6e7e\u5c40","survey_name":"\u51fd\u9928\u6e2f\u4e2d\u592e\u3075\u982d\u5730\u8cea\u8abf\u67fb\u696d\u52d9","client_name":"\u56fd\u571f\u4ea4\u901a\u7701\u5317\u6d77\u9053\u958b\u767a\u5c40\u6e2f\u6e7e\u7a7a\u6e2f\u90e8","boring_xml_url":0,"boring_view_url":0,"soilmap_view_url":66,"soiltest_xml_url":0,"soiltest_view_url":66},{"id":111871,"code":"B4KJ201801000-0120","latitude":"41.78337778","longitude":"140.7220417","source_code":"PORT01004010607","project_name":"\u6e2f\u6e7e\u5c40","survey_name":"\u51fd\u9928\u6e2f\u4e2d\u592e\u3075\u982d\u5730\u8cea\u8abf\u67fb\u696d\u52d9","client_name":"\u56fd\u571f\u4ea4\u901a\u7701\u5317\u6d77\u9053\u958b\u767a\u5c40\u6e2f\u6e7e\u7a7a\u6e2f\u90e8","boring_xml_url":0,"boring_view_url":0,"soilmap_view_url":66,"soiltest_xml_url":0,"soiltest_view_url":66},{"id":111870,"code":"B4KJ201801000-0119","latitude":"41.78329167","longitude":"140.7242611","source_code":"PORT01004010606","project_name":"\u6e2f\u6e7e\u5c40","survey_name":"\u51fd\u9928\u6e2f\u4e2d\u592e\u3075\u982d\u5730\u8cea\u8abf\u67fb\u696d\u52d9","client_name":"\u56fd\u571f\u4ea4\u901a\u7701\u5317\u6d77\u9053\u958b\u767a\u5c40\u6e2f\u6e7e\u7a7a\u6e2f\u90e8","boring_xml_url":0,"boring_view_url":0,"soilmap_view_url":66,"soiltest_xml_url":0,"soiltest_view_url":66},{"id":111869,"code":"B4KJ201801000-0118","latitude":"41.78344444","longitude":"140.7244139","source_code":"PORT01004010605","project_name":"\u6e2f\u6e7e\u5c40","survey_name":"\u51fd\u9928\u6e2f\u4e2d\u592e\u3075\u982d\u5730\u8cea\u8abf\u67fb\u696d\u52d9","client_name":"\u56fd\u571f\u4ea4\u901a\u7701\u5317\u6d77\u9053\u958b\u767a\u5c40\u6e2f\u6e7e\u7a7a\u6e2f\u90e8","boring_xml_url":0,"boring_view_url":0,"soilmap_view_url":66,"soiltest_xml_url":0,"soiltest_view_url":66},{"id":111868,"code":"B4KJ201801000-0117","latitude":"41.78373889","longitude":"140.7250222","source_code":"PORT01004010604","project_name":"\u6e2f\u6e7e\u5c40","survey_name":"\u51fd\u9928\u6e2f\u4e2d\u592e\u3075\u982d\u5730\u8cea\u8abf\u67fb\u696d\u52d9","client_name":"\u56fd\u571f\u4ea4\u901a\u7701\u5317\u6d77\u9053\u958b\u767a\u5c40\u6e2f\u6e7e\u7a7a\u6e2f\u90e8","boring_xml_url":0,"boring_view_url":0,"soilmap_view_url":66,"soiltest_xml_url":0,"soiltest_view_url":66},{"id":111867,"code":"B4KJ201801000-0116","latitude":"41.78393889","longitude":"140.7254222","source_code":"PORT01004010603","project_name":"\u6e2f\u6e7e\u5c40","survey_name":"\u51fd\u9928\u6e2f\u4e2d\u592e\u3075\u982d\u5730\u8cea\u8abf\u67fb\u696d\u52d9","client_name":"\u56fd\u571f\u4ea4\u901a\u7701\u5317\u6d77\u9053\u958b\u767a\u5c40\u6e2f\u6e7e\u7a7a\u6e2f\u90e8","boring_xml_url":0,"boring_view_url":0,"soilmap_view_url":66,"soiltest_xml_url":0,"soiltest_view_url":0},{"id":111866,"code":"B4KJ201801000-0115","latitude":"41.78403889","longitude":"140.7256222","source_code":"PORT01004010602","project_name":"\u6e2f\u6e7e\u5c40","survey_name":"\u51fd\u9928\u6e2f\u4e2d\u592e\u3075\u982d\u5730\u8cea\u8abf\u67fb\u696d\u52d9","client_name":"\u56fd\u571f\u4ea4\u901a\u7701\u5317\u6d77\u9053\u958b\u767a\u5c40\u6e2f\u6e7e\u7a7a\u6e2f\u90e8","boring_xml_url":0,"boring_view_url":0,"soilmap_view_url":66,"soiltest_xml_url":0,"soiltest_view_url":66}]}}