{"header":{"xyz":{"source":[],"mosaic":false},"page":6963,"raw":{"soiltest_result":"0","bbox":"57.598333,109.544722,1.933333,163.806111","page":"6963"},"conditions":{"soiltest_result":0,"north":57.598333,"west":109.544722,"south":1.933333,"east":163.806111},"success":true,"message":""},"data":{"meta":{"total":212844,"page":6963,"pages":7095,"count":30},"values":[{"id":111646,"code":"NGIC201800504-0008","latitude":"39.344501277778","longitude":"140.08521538889","source_code":"","project_name":"","survey_name":"\u5b50\u5409\u5ddd\u5730\u8cea\u8abf\u67fb","client_name":"\u56fd\u571f\u4ea4\u901a\u7701\u6771\u5317\u5730\u65b9\u6574\u5099\u5c40\u79cb\u7530\u6cb3\u5ddd\u56fd\u9053\u4e8b\u52d9\u6240","boring_xml_url":47,"boring_view_url":1,"soilmap_view_url":null,"soiltest_xml_url":0,"soiltest_view_url":0},{"id":111645,"code":"NGIC201800504-0007","latitude":"39.342602277778","longitude":"140.07103519444","source_code":"","project_name":"","survey_name":"\u5b50\u5409\u5ddd\u5730\u8cea\u8abf\u67fb","client_name":"\u56fd\u571f\u4ea4\u901a\u7701\u6771\u5317\u5730\u65b9\u6574\u5099\u5c40\u79cb\u7530\u6cb3\u5ddd\u56fd\u9053\u4e8b\u52d9\u6240","boring_xml_url":47,"boring_view_url":1,"soilmap_view_url":null,"soiltest_xml_url":47,"soiltest_view_url":47},{"id":111644,"code":"NGIC201800504-0006","latitude":"39.342660388889","longitude":"140.07107808333","source_code":"","project_name":"","survey_name":"\u5b50\u5409\u5ddd\u5730\u8cea\u8abf\u67fb","client_name":"\u56fd\u571f\u4ea4\u901a\u7701\u6771\u5317\u5730\u65b9\u6574\u5099\u5c40\u79cb\u7530\u6cb3\u5ddd\u56fd\u9053\u4e8b\u52d9\u6240","boring_xml_url":47,"boring_view_url":1,"soilmap_view_url":null,"soiltest_xml_url":0,"soiltest_view_url":0},{"id":111643,"code":"NGIC201800504-0005","latitude":"39.342826277778","longitude":"140.07117469444","source_code":"","project_name":"","survey_name":"\u5b50\u5409\u5ddd\u5730\u8cea\u8abf\u67fb","client_name":"\u56fd\u571f\u4ea4\u901a\u7701\u6771\u5317\u5730\u65b9\u6574\u5099\u5c40\u79cb\u7530\u6cb3\u5ddd\u56fd\u9053\u4e8b\u52d9\u6240","boring_xml_url":47,"boring_view_url":1,"soilmap_view_url":null,"soiltest_xml_url":0,"soiltest_view_url":0},{"id":111642,"code":"NGIC201800504-0004","latitude":"39.302671694444","longitude":"140.10722719444","source_code":"","project_name":"","survey_name":"\u5b50\u5409\u5ddd\u5730\u8cea\u8abf\u67fb","client_name":"\u56fd\u571f\u4ea4\u901a\u7701\u6771\u5317\u5730\u65b9\u6574\u5099\u5c40\u79cb\u7530\u6cb3\u5ddd\u56fd\u9053\u4e8b\u52d9\u6240","boring_xml_url":47,"boring_view_url":1,"soilmap_view_url":null,"soiltest_xml_url":47,"soiltest_view_url":47},{"id":111641,"code":"NGIC201800504-0003","latitude":"39.302700694444","longitude":"140.10692138889","source_code":"","project_name":"","survey_name":"\u5b50\u5409\u5ddd\u5730\u8cea\u8abf\u67fb","client_name":"\u56fd\u571f\u4ea4\u901a\u7701\u6771\u5317\u5730\u65b9\u6574\u5099\u5c40\u79cb\u7530\u6cb3\u5ddd\u56fd\u9053\u4e8b\u52d9\u6240","boring_xml_url":47,"boring_view_url":1,"soilmap_view_url":null,"soiltest_xml_url":0,"soiltest_view_url":0},{"id":111640,"code":"NGIC201800504-0002","latitude":"39.388953777778","longitude":"140.0282165","source_code":"","project_name":"","survey_name":"\u5b50\u5409\u5ddd\u5730\u8cea\u8abf\u67fb","client_name":"\u56fd\u571f\u4ea4\u901a\u7701\u6771\u5317\u5730\u65b9\u6574\u5099\u5c40\u79cb\u7530\u6cb3\u5ddd\u56fd\u9053\u4e8b\u52d9\u6240","boring_xml_url":47,"boring_view_url":1,"soilmap_view_url":null,"soiltest_xml_url":47,"soiltest_view_url":47},{"id":111639,"code":"NGIC201800504-0001","latitude":"39.388775583333","longitude":"140.02822177778","source_code":"","project_name":"","survey_name":"\u5b50\u5409\u5ddd\u5730\u8cea\u8abf\u67fb","client_name":"\u56fd\u571f\u4ea4\u901a\u7701\u6771\u5317\u5730\u65b9\u6574\u5099\u5c40\u79cb\u7530\u6cb3\u5ddd\u56fd\u9053\u4e8b\u52d9\u6240","boring_xml_url":47,"boring_view_url":1,"soilmap_view_url":null,"soiltest_xml_url":47,"soiltest_view_url":47},{"id":111638,"code":"NGIC201800510-0001","latitude":"38.500097222222","longitude":"140.37055555556","source_code":"","project_name":"\u5e73\u621029\u5e74\u5ea6 \u897f\u90f7\u5730\u533a\u4e0b\u90e8\u5de5\u5de5\u4e8b","survey_name":"\u5e73\u621029\u5e74\u5ea6 \u897f\u90f7\u5730\u533a\u4e0b\u90e8\u5de5\u5de5\u4e8b","client_name":"\u56fd\u571f\u4ea4\u901a\u7701\u6771\u5317\u5730\u65b9\u6574\u5099\u5c40\u5c71\u5f62\u6cb3\u5ddd\u56fd\u9053\u4e8b\u52d9\u6240","boring_xml_url":47,"boring_view_url":1,"soilmap_view_url":null,"soiltest_xml_url":0,"soiltest_view_url":0},{"id":111637,"code":"NGIC201800515-0001","latitude":"35.498694444444","longitude":"139.74716666667","source_code":"","project_name":"","survey_name":"\u5e73\u621030\u5e74\u5ea6\u5ddd\u5d0e\u6e2f\u81e8\u6e2f\u9053\u8def\u6771\u6247\u5cf6\u6c34\u6c5f\u753a\u7dda\u6771\u6247\u5cf6\u571f\u8cea\u8abf\u67fb","client_name":"\u56fd\u571f\u4ea4\u901a\u7701\u95a2\u6771\u5730\u65b9\u6574\u5099\u5c40\u4eac\u6d5c\u6e2f\u6e7e\u4e8b\u52d9\u6240","boring_xml_url":47,"boring_view_url":1,"soilmap_view_url":71,"soiltest_xml_url":47,"soiltest_view_url":47},{"id":111636,"code":"NGIC201800499-0009","latitude":"42.741445888889","longitude":"141.99339791667","source_code":"","project_name":"","survey_name":"\u539a\u771f\u5ddd\u6c34\u7cfb\u65e5\u9ad8\u5e4c\u5185\u5ddd\u5916\u659c\u9762\u5d29\u58ca\u5730\u8cea\u8abf\u67fb\u89e3\u6790\u305d\u306e6\u696d\u52d9","client_name":"\u56fd\u571f\u4ea4\u901a\u7701\u5317\u6d77\u9053\u958b\u767a\u5c40\u5ba4\u862d\u958b\u767a\u5efa\u8a2d\u90e8\u539a\u771f\u5ddd\u6c34\u7cfb\u571f\u7802\u707d\u5bb3\u5fa9\u65e7\u4e8b\u52d9\u6240","boring_xml_url":47,"boring_view_url":1,"soilmap_view_url":null,"soiltest_xml_url":0,"soiltest_view_url":0},{"id":111635,"code":"NGIC201800499-0008","latitude":"42.741457416667","longitude":"141.99390994444","source_code":"","project_name":"","survey_name":"\u539a\u771f\u5ddd\u6c34\u7cfb\u65e5\u9ad8\u5e4c\u5185\u5ddd\u5916\u659c\u9762\u5d29\u58ca\u5730\u8cea\u8abf\u67fb\u89e3\u6790\u305d\u306e6\u696d\u52d9","client_name":"\u56fd\u571f\u4ea4\u901a\u7701\u5317\u6d77\u9053\u958b\u767a\u5c40\u5ba4\u862d\u958b\u767a\u5efa\u8a2d\u90e8\u539a\u771f\u5ddd\u6c34\u7cfb\u571f\u7802\u707d\u5bb3\u5fa9\u65e7\u4e8b\u52d9\u6240","boring_xml_url":47,"boring_view_url":1,"soilmap_view_url":null,"soiltest_xml_url":0,"soiltest_view_url":0},{"id":111634,"code":"NGIC201800499-0007","latitude":"42.741828388889","longitude":"141.99437266667","source_code":"","project_name":"","survey_name":"\u539a\u771f\u5ddd\u6c34\u7cfb\u65e5\u9ad8\u5e4c\u5185\u5ddd\u5916\u659c\u9762\u5d29\u58ca\u5730\u8cea\u8abf\u67fb\u89e3\u6790\u305d\u306e6\u696d\u52d9","client_name":"\u56fd\u571f\u4ea4\u901a\u7701\u5317\u6d77\u9053\u958b\u767a\u5c40\u5ba4\u862d\u958b\u767a\u5efa\u8a2d\u90e8\u539a\u771f\u5ddd\u6c34\u7cfb\u571f\u7802\u707d\u5bb3\u5fa9\u65e7\u4e8b\u52d9\u6240","boring_xml_url":47,"boring_view_url":1,"soilmap_view_url":null,"soiltest_xml_url":0,"soiltest_view_url":0},{"id":111633,"code":"NGIC201800499-0006","latitude":"42.733539444444","longitude":"142.00611108333","source_code":"","project_name":"","survey_name":"\u539a\u771f\u5ddd\u6c34\u7cfb\u65e5\u9ad8\u5e4c\u5185\u5ddd\u5916\u659c\u9762\u5d29\u58ca\u5730\u8cea\u8abf\u67fb\u89e3\u6790\u305d\u306e6\u696d\u52d9","client_name":"\u56fd\u571f\u4ea4\u901a\u7701\u5317\u6d77\u9053\u958b\u767a\u5c40\u5ba4\u862d\u958b\u767a\u5efa\u8a2d\u90e8\u539a\u771f\u5ddd\u6c34\u7cfb\u571f\u7802\u707d\u5bb3\u5fa9\u65e7\u4e8b\u52d9\u6240","boring_xml_url":47,"boring_view_url":1,"soilmap_view_url":null,"soiltest_xml_url":0,"soiltest_view_url":0},{"id":111632,"code":"NGIC201800499-0005","latitude":"42.733534305556","longitude":"142.00608930556","source_code":"","project_name":"","survey_name":"\u539a\u771f\u5ddd\u6c34\u7cfb\u65e5\u9ad8\u5e4c\u5185\u5ddd\u5916\u659c\u9762\u5d29\u58ca\u5730\u8cea\u8abf\u67fb\u89e3\u6790\u305d\u306e6\u696d\u52d9","client_name":"\u56fd\u571f\u4ea4\u901a\u7701\u5317\u6d77\u9053\u958b\u767a\u5c40\u5ba4\u862d\u958b\u767a\u5efa\u8a2d\u90e8\u539a\u771f\u5ddd\u6c34\u7cfb\u571f\u7802\u707d\u5bb3\u5fa9\u65e7\u4e8b\u52d9\u6240","boring_xml_url":47,"boring_view_url":1,"soilmap_view_url":null,"soiltest_xml_url":0,"soiltest_view_url":0},{"id":111631,"code":"NGIC201800499-0004","latitude":"42.73710375","longitude":"142.00560580556","source_code":"","project_name":"","survey_name":"\u539a\u771f\u5ddd\u6c34\u7cfb\u65e5\u9ad8\u5e4c\u5185\u5ddd\u5916\u659c\u9762\u5d29\u58ca\u5730\u8cea\u8abf\u67fb\u89e3\u6790\u305d\u306e6\u696d\u52d9","client_name":"\u56fd\u571f\u4ea4\u901a\u7701\u5317\u6d77\u9053\u958b\u767a\u5c40\u5ba4\u862d\u958b\u767a\u5efa\u8a2d\u90e8\u539a\u771f\u5ddd\u6c34\u7cfb\u571f\u7802\u707d\u5bb3\u5fa9\u65e7\u4e8b\u52d9\u6240","boring_xml_url":47,"boring_view_url":1,"soilmap_view_url":null,"soiltest_xml_url":0,"soiltest_view_url":0},{"id":111630,"code":"NGIC201800499-0003","latitude":"42.737088194444","longitude":"142.00561216667","source_code":"","project_name":"","survey_name":"\u539a\u771f\u5ddd\u6c34\u7cfb\u65e5\u9ad8\u5e4c\u5185\u5ddd\u5916\u659c\u9762\u5d29\u58ca\u5730\u8cea\u8abf\u67fb\u89e3\u6790\u305d\u306e6\u696d\u52d9","client_name":"\u56fd\u571f\u4ea4\u901a\u7701\u5317\u6d77\u9053\u958b\u767a\u5c40\u5ba4\u862d\u958b\u767a\u5efa\u8a2d\u90e8\u539a\u771f\u5ddd\u6c34\u7cfb\u571f\u7802\u707d\u5bb3\u5fa9\u65e7\u4e8b\u52d9\u6240","boring_xml_url":47,"boring_view_url":1,"soilmap_view_url":null,"soiltest_xml_url":0,"soiltest_view_url":0},{"id":111629,"code":"NGIC201800499-0002","latitude":"42.733103777778","longitude":"142.00583380556","source_code":"","project_name":"","survey_name":"\u539a\u771f\u5ddd\u6c34\u7cfb\u65e5\u9ad8\u5e4c\u5185\u5ddd\u5916\u659c\u9762\u5d29\u58ca\u5730\u8cea\u8abf\u67fb\u89e3\u6790\u305d\u306e6\u696d\u52d9","client_name":"\u56fd\u571f\u4ea4\u901a\u7701\u5317\u6d77\u9053\u958b\u767a\u5c40\u5ba4\u862d\u958b\u767a\u5efa\u8a2d\u90e8\u539a\u771f\u5ddd\u6c34\u7cfb\u571f\u7802\u707d\u5bb3\u5fa9\u65e7\u4e8b\u52d9\u6240","boring_xml_url":47,"boring_view_url":1,"soilmap_view_url":null,"soiltest_xml_url":0,"soiltest_view_url":0},{"id":111628,"code":"NGIC201800499-0001","latitude":"42.733100833333","longitude":"142.00582444444","source_code":"","project_name":"","survey_name":"\u539a\u771f\u5ddd\u6c34\u7cfb\u65e5\u9ad8\u5e4c\u5185\u5ddd\u5916\u659c\u9762\u5d29\u58ca\u5730\u8cea\u8abf\u67fb\u89e3\u6790\u305d\u306e6\u696d\u52d9","client_name":"\u56fd\u571f\u4ea4\u901a\u7701\u5317\u6d77\u9053\u958b\u767a\u5c40\u5ba4\u862d\u958b\u767a\u5efa\u8a2d\u90e8\u539a\u771f\u5ddd\u6c34\u7cfb\u571f\u7802\u707d\u5bb3\u5fa9\u65e7\u4e8b\u52d9\u6240","boring_xml_url":47,"boring_view_url":1,"soilmap_view_url":null,"soiltest_xml_url":0,"soiltest_view_url":0},{"id":111621,"code":"NGIC201800489-0003","latitude":"43.107497222222","longitude":"141.22104722222","source_code":"","project_name":"\u5927\u898f\u6a21\u571f\u7802\u79fb\u52d5\u5730\u8cea\u8abf\u67fb\u696d\u52d9","survey_name":"\u5927\u898f\u6a21\u571f\u7802\u79fb\u52d5\u5730\u8cea\u8abf\u67fb\u696d\u52d9","client_name":"\u56fd\u571f\u4ea4\u901a\u7701\u5317\u6d77\u9053\u958b\u767a\u5c40\u672d\u5e4c\u958b\u767a\u5efa\u8a2d\u90e8\u672c\u90e8","boring_xml_url":47,"boring_view_url":1,"soilmap_view_url":null,"soiltest_xml_url":0,"soiltest_view_url":0},{"id":111620,"code":"NGIC201800489-0002","latitude":"43.107733333333","longitude":"141.21921944444","source_code":"","project_name":"\u5927\u898f\u6a21\u571f\u7802\u79fb\u52d5\u5730\u8cea\u8abf\u67fb\u696d\u52d9","survey_name":"\u5927\u898f\u6a21\u571f\u7802\u79fb\u52d5\u5730\u8cea\u8abf\u67fb\u696d\u52d9","client_name":"\u56fd\u571f\u4ea4\u901a\u7701\u5317\u6d77\u9053\u958b\u767a\u5c40\u672d\u5e4c\u958b\u767a\u5efa\u8a2d\u90e8\u672c\u90e8","boring_xml_url":47,"boring_view_url":1,"soilmap_view_url":null,"soiltest_xml_url":0,"soiltest_view_url":0},{"id":111619,"code":"NGIC201800489-0001","latitude":"43.107733333333","longitude":"141.21921944444","source_code":"","project_name":"\u5927\u898f\u6a21\u571f\u7802\u79fb\u52d5\u5730\u8cea\u8abf\u67fb\u696d\u52d9","survey_name":"\u5927\u898f\u6a21\u571f\u7802\u79fb\u52d5\u5730\u8cea\u8abf\u67fb\u696d\u52d9","client_name":"\u56fd\u571f\u4ea4\u901a\u7701\u5317\u6d77\u9053\u958b\u767a\u5c40\u672d\u5e4c\u958b\u767a\u5efa\u8a2d\u90e8\u672c\u90e8","boring_xml_url":47,"boring_view_url":1,"soilmap_view_url":null,"soiltest_xml_url":0,"soiltest_view_url":0},{"id":111618,"code":"NGIC201800487-0038","latitude":"33.389041027778","longitude":"130.83929508333","source_code":"","project_name":"","survey_name":"\u5e73\u621030\u5e74\u5ea6\u8d64\u8c37\u5ddd\u6d41\u57df\u5730\u8cea\u8abf\u67fb(\u305d\u306e2)\u696d\u52d9","client_name":"\u56fd\u571f\u4ea4\u901a\u7701\u4e5d\u5dde\u5730\u65b9\u6574\u5099\u5c40\u7b51\u5f8c\u5ddd\u6cb3\u5ddd\u4e8b\u52d9\u6240 \u4e5d\u5dde\u5317\u90e8\u8c6a\u96e8\u5fa9\u8208\u51fa\u5f35\u6240","boring_xml_url":47,"boring_view_url":1,"soilmap_view_url":null,"soiltest_xml_url":0,"soiltest_view_url":0},{"id":111617,"code":"NGIC201800487-0037","latitude":"33.389063","longitude":"130.839155","source_code":"","project_name":"","survey_name":"\u5e73\u621030\u5e74\u5ea6\u8d64\u8c37\u5ddd\u6d41\u57df\u5730\u8cea\u8abf\u67fb(\u305d\u306e2)\u696d\u52d9","client_name":"\u56fd\u571f\u4ea4\u901a\u7701\u4e5d\u5dde\u5730\u65b9\u6574\u5099\u5c40\u7b51\u5f8c\u5ddd\u6cb3\u5ddd\u4e8b\u52d9\u6240 \u4e5d\u5dde\u5317\u90e8\u8c6a\u96e8\u5fa9\u8208\u51fa\u5f35\u6240","boring_xml_url":47,"boring_view_url":1,"soilmap_view_url":null,"soiltest_xml_url":0,"soiltest_view_url":0},{"id":111616,"code":"NGIC201800487-0036","latitude":"33.389107555556","longitude":"130.83896622222","source_code":"","project_name":"","survey_name":"\u5e73\u621030\u5e74\u5ea6\u8d64\u8c37\u5ddd\u6d41\u57df\u5730\u8cea\u8abf\u67fb(\u305d\u306e2)\u696d\u52d9","client_name":"\u56fd\u571f\u4ea4\u901a\u7701\u4e5d\u5dde\u5730\u65b9\u6574\u5099\u5c40\u7b51\u5f8c\u5ddd\u6cb3\u5ddd\u4e8b\u52d9\u6240 \u4e5d\u5dde\u5317\u90e8\u8c6a\u96e8\u5fa9\u8208\u51fa\u5f35\u6240","boring_xml_url":47,"boring_view_url":1,"soilmap_view_url":null,"soiltest_xml_url":0,"soiltest_view_url":0},{"id":111615,"code":"NGIC201800487-0035","latitude":"33.390493805556","longitude":"130.83704138889","source_code":"","project_name":"","survey_name":"\u5e73\u621030\u5e74\u5ea6\u8d64\u8c37\u5ddd\u6d41\u57df\u5730\u8cea\u8abf\u67fb(\u305d\u306e2)\u696d\u52d9","client_name":"\u56fd\u571f\u4ea4\u901a\u7701\u4e5d\u5dde\u5730\u65b9\u6574\u5099\u5c40\u7b51\u5f8c\u5ddd\u6cb3\u5ddd\u4e8b\u52d9\u6240 \u4e5d\u5dde\u5317\u90e8\u8c6a\u96e8\u5fa9\u8208\u51fa\u5f35\u6240","boring_xml_url":47,"boring_view_url":1,"soilmap_view_url":null,"soiltest_xml_url":0,"soiltest_view_url":0},{"id":111614,"code":"NGIC201800487-0034","latitude":"33.390665027778","longitude":"130.83733969444","source_code":"","project_name":"","survey_name":"\u5e73\u621030\u5e74\u5ea6\u8d64\u8c37\u5ddd\u6d41\u57df\u5730\u8cea\u8abf\u67fb(\u305d\u306e2)\u696d\u52d9","client_name":"\u56fd\u571f\u4ea4\u901a\u7701\u4e5d\u5dde\u5730\u65b9\u6574\u5099\u5c40\u7b51\u5f8c\u5ddd\u6cb3\u5ddd\u4e8b\u52d9\u6240 \u4e5d\u5dde\u5317\u90e8\u8c6a\u96e8\u5fa9\u8208\u51fa\u5f35\u6240","boring_xml_url":47,"boring_view_url":1,"soilmap_view_url":null,"soiltest_xml_url":0,"soiltest_view_url":0},{"id":111613,"code":"NGIC201800487-0033","latitude":"33.390732416667","longitude":"130.83719336111","source_code":"","project_name":"","survey_name":"\u5e73\u621030\u5e74\u5ea6\u8d64\u8c37\u5ddd\u6d41\u57df\u5730\u8cea\u8abf\u67fb(\u305d\u306e2)\u696d\u52d9","client_name":"\u56fd\u571f\u4ea4\u901a\u7701\u4e5d\u5dde\u5730\u65b9\u6574\u5099\u5c40\u7b51\u5f8c\u5ddd\u6cb3\u5ddd\u4e8b\u52d9\u6240 \u4e5d\u5dde\u5317\u90e8\u8c6a\u96e8\u5fa9\u8208\u51fa\u5f35\u6240","boring_xml_url":47,"boring_view_url":1,"soilmap_view_url":null,"soiltest_xml_url":0,"soiltest_view_url":0},{"id":111612,"code":"NGIC201800487-0032","latitude":"33.390789861111","longitude":"130.83706919444","source_code":"","project_name":"","survey_name":"\u5e73\u621030\u5e74\u5ea6\u8d64\u8c37\u5ddd\u6d41\u57df\u5730\u8cea\u8abf\u67fb(\u305d\u306e2)\u696d\u52d9","client_name":"\u56fd\u571f\u4ea4\u901a\u7701\u4e5d\u5dde\u5730\u65b9\u6574\u5099\u5c40\u7b51\u5f8c\u5ddd\u6cb3\u5ddd\u4e8b\u52d9\u6240 \u4e5d\u5dde\u5317\u90e8\u8c6a\u96e8\u5fa9\u8208\u51fa\u5f35\u6240","boring_xml_url":47,"boring_view_url":1,"soilmap_view_url":null,"soiltest_xml_url":0,"soiltest_view_url":0},{"id":111611,"code":"NGIC201800487-0031","latitude":"33.398508083333","longitude":"130.82421625","source_code":"","project_name":"","survey_name":"\u5e73\u621030\u5e74\u5ea6\u8d64\u8c37\u5ddd\u6d41\u57df\u5730\u8cea\u8abf\u67fb(\u305d\u306e2)\u696d\u52d9","client_name":"\u56fd\u571f\u4ea4\u901a\u7701\u4e5d\u5dde\u5730\u65b9\u6574\u5099\u5c40\u7b51\u5f8c\u5ddd\u6cb3\u5ddd\u4e8b\u52d9\u6240 \u4e5d\u5dde\u5317\u90e8\u8c6a\u96e8\u5fa9\u8208\u51fa\u5f35\u6240","boring_xml_url":47,"boring_view_url":1,"soilmap_view_url":null,"soiltest_xml_url":0,"soiltest_view_url":0}]}}