{"header":{"xyz":{"source":[],"mosaic":false},"page":6972,"raw":{"soiltest_result":"0","bbox":"57.598333,109.544722,1.933333,163.806111","page":"6972"},"conditions":{"soiltest_result":0,"north":57.598333,"west":109.544722,"south":1.933333,"east":163.806111},"success":true,"message":""},"data":{"meta":{"total":212844,"page":6972,"pages":7095,"count":30},"values":[{"id":111370,"code":"NGIC201800486-0007","latitude":"35.028195833333","longitude":"135.99824944444","source_code":"","project_name":"","survey_name":"\u91ce\u6d32\u6817\u6771\u30d0\u30a4\u30d1\u30b9\u624b\u539f\u5730\u533a\u5730\u8cea\u8abf\u67fb\u696d\u52d9","client_name":"\u56fd\u571f\u4ea4\u901a\u7701\u8fd1\u757f\u5730\u65b9\u6574\u5099\u5c40\u6ecb\u8cc0\u56fd\u9053\u4e8b\u52d9\u6240","boring_xml_url":47,"boring_view_url":1,"soilmap_view_url":null,"soiltest_xml_url":47,"soiltest_view_url":47},{"id":111369,"code":"NGIC201800486-0006","latitude":"35.028365","longitude":"135.99861638889","source_code":"","project_name":"","survey_name":"\u91ce\u6d32\u6817\u6771\u30d0\u30a4\u30d1\u30b9\u624b\u539f\u5730\u533a\u5730\u8cea\u8abf\u67fb\u696d\u52d9","client_name":"\u56fd\u571f\u4ea4\u901a\u7701\u8fd1\u757f\u5730\u65b9\u6574\u5099\u5c40\u6ecb\u8cc0\u56fd\u9053\u4e8b\u52d9\u6240","boring_xml_url":47,"boring_view_url":1,"soilmap_view_url":null,"soiltest_xml_url":47,"soiltest_view_url":47},{"id":111368,"code":"NGIC201800486-0005","latitude":"35.028536666667","longitude":"135.99899555556","source_code":"","project_name":"","survey_name":"\u91ce\u6d32\u6817\u6771\u30d0\u30a4\u30d1\u30b9\u624b\u539f\u5730\u533a\u5730\u8cea\u8abf\u67fb\u696d\u52d9","client_name":"\u56fd\u571f\u4ea4\u901a\u7701\u8fd1\u757f\u5730\u65b9\u6574\u5099\u5c40\u6ecb\u8cc0\u56fd\u9053\u4e8b\u52d9\u6240","boring_xml_url":47,"boring_view_url":1,"soilmap_view_url":null,"soiltest_xml_url":47,"soiltest_view_url":47},{"id":111367,"code":"NGIC201800486-0004","latitude":"35.028832222222","longitude":"135.99942638889","source_code":"","project_name":"","survey_name":"\u91ce\u6d32\u6817\u6771\u30d0\u30a4\u30d1\u30b9\u624b\u539f\u5730\u533a\u5730\u8cea\u8abf\u67fb\u696d\u52d9","client_name":"\u56fd\u571f\u4ea4\u901a\u7701\u8fd1\u757f\u5730\u65b9\u6574\u5099\u5c40\u6ecb\u8cc0\u56fd\u9053\u4e8b\u52d9\u6240","boring_xml_url":47,"boring_view_url":1,"soilmap_view_url":null,"soiltest_xml_url":47,"soiltest_view_url":47},{"id":111366,"code":"NGIC201800486-0003","latitude":"35.029026666667","longitude":"135.99966888889","source_code":"","project_name":"","survey_name":"\u91ce\u6d32\u6817\u6771\u30d0\u30a4\u30d1\u30b9\u624b\u539f\u5730\u533a\u5730\u8cea\u8abf\u67fb\u696d\u52d9","client_name":"\u56fd\u571f\u4ea4\u901a\u7701\u8fd1\u757f\u5730\u65b9\u6574\u5099\u5c40\u6ecb\u8cc0\u56fd\u9053\u4e8b\u52d9\u6240","boring_xml_url":47,"boring_view_url":1,"soilmap_view_url":null,"soiltest_xml_url":47,"soiltest_view_url":47},{"id":111365,"code":"NGIC201800486-0002","latitude":"35.029268333333","longitude":"135.99991694444","source_code":"","project_name":"","survey_name":"\u91ce\u6d32\u6817\u6771\u30d0\u30a4\u30d1\u30b9\u624b\u539f\u5730\u533a\u5730\u8cea\u8abf\u67fb\u696d\u52d9","client_name":"\u56fd\u571f\u4ea4\u901a\u7701\u8fd1\u757f\u5730\u65b9\u6574\u5099\u5c40\u6ecb\u8cc0\u56fd\u9053\u4e8b\u52d9\u6240","boring_xml_url":47,"boring_view_url":1,"soilmap_view_url":null,"soiltest_xml_url":47,"soiltest_view_url":47},{"id":111364,"code":"NGIC201800486-0001","latitude":"35.030460833333","longitude":"136.00110416667","source_code":"","project_name":"","survey_name":"\u91ce\u6d32\u6817\u6771\u30d0\u30a4\u30d1\u30b9\u624b\u539f\u5730\u533a\u5730\u8cea\u8abf\u67fb\u696d\u52d9","client_name":"\u56fd\u571f\u4ea4\u901a\u7701\u8fd1\u757f\u5730\u65b9\u6574\u5099\u5c40\u6ecb\u8cc0\u56fd\u9053\u4e8b\u52d9\u6240","boring_xml_url":47,"boring_view_url":1,"soilmap_view_url":null,"soiltest_xml_url":47,"soiltest_view_url":47},{"id":111363,"code":"NGIC201800457-0016","latitude":"33.0767375","longitude":"132.50289405556","source_code":"","project_name":"","survey_name":"\u5e73\u621030\u5e74\u5ea6\u6d25\u5cf6\u9053\u8def\u5730\u8cea\u8abf\u67fb\u696d\u52d9","client_name":"\u56fd\u571f\u4ea4\u901a\u7701\u56db\u56fd\u5730\u65b9\u6574\u5099\u5c40\u5927\u6d32\u6cb3\u5ddd\u56fd\u9053\u4e8b\u52d9\u6240","boring_xml_url":47,"boring_view_url":1,"soilmap_view_url":null,"soiltest_xml_url":0,"soiltest_view_url":0},{"id":111362,"code":"NGIC201800457-0015","latitude":"33.109951388889","longitude":"132.51532827778","source_code":"","project_name":"","survey_name":"\u5e73\u621030\u5e74\u5ea6\u6d25\u5cf6\u9053\u8def\u5730\u8cea\u8abf\u67fb\u696d\u52d9","client_name":"\u56fd\u571f\u4ea4\u901a\u7701\u56db\u56fd\u5730\u65b9\u6574\u5099\u5c40\u5927\u6d32\u6cb3\u5ddd\u56fd\u9053\u4e8b\u52d9\u6240","boring_xml_url":47,"boring_view_url":1,"soilmap_view_url":null,"soiltest_xml_url":0,"soiltest_view_url":0},{"id":111361,"code":"NGIC201800457-0014","latitude":"33.108792555556","longitude":"132.51532127778","source_code":"","project_name":"","survey_name":"\u5e73\u621030\u5e74\u5ea6\u6d25\u5cf6\u9053\u8def\u5730\u8cea\u8abf\u67fb\u696d\u52d9","client_name":"\u56fd\u571f\u4ea4\u901a\u7701\u56db\u56fd\u5730\u65b9\u6574\u5099\u5c40\u5927\u6d32\u6cb3\u5ddd\u56fd\u9053\u4e8b\u52d9\u6240","boring_xml_url":47,"boring_view_url":1,"soilmap_view_url":null,"soiltest_xml_url":0,"soiltest_view_url":0},{"id":111360,"code":"NGIC201800457-0013","latitude":"33.015787972222","longitude":"132.49737011111","source_code":"","project_name":"","survey_name":"\u5e73\u621030\u5e74\u5ea6\u6d25\u5cf6\u9053\u8def\u5730\u8cea\u8abf\u67fb\u696d\u52d9","client_name":"\u56fd\u571f\u4ea4\u901a\u7701\u56db\u56fd\u5730\u65b9\u6574\u5099\u5c40\u5927\u6d32\u6cb3\u5ddd\u56fd\u9053\u4e8b\u52d9\u6240","boring_xml_url":47,"boring_view_url":1,"soilmap_view_url":null,"soiltest_xml_url":0,"soiltest_view_url":0},{"id":111359,"code":"NGIC201800457-0012","latitude":"33.023397138889","longitude":"132.50328041667","source_code":"","project_name":"","survey_name":"\u5e73\u621030\u5e74\u5ea6\u6d25\u5cf6\u9053\u8def\u5730\u8cea\u8abf\u67fb\u696d\u52d9","client_name":"\u56fd\u571f\u4ea4\u901a\u7701\u56db\u56fd\u5730\u65b9\u6574\u5099\u5c40\u5927\u6d32\u6cb3\u5ddd\u56fd\u9053\u4e8b\u52d9\u6240","boring_xml_url":47,"boring_view_url":1,"soilmap_view_url":null,"soiltest_xml_url":0,"soiltest_view_url":0},{"id":111358,"code":"NGIC201800457-0011","latitude":"33.023045277778","longitude":"132.50316438889","source_code":"","project_name":"","survey_name":"\u5e73\u621030\u5e74\u5ea6\u6d25\u5cf6\u9053\u8def\u5730\u8cea\u8abf\u67fb\u696d\u52d9","client_name":"\u56fd\u571f\u4ea4\u901a\u7701\u56db\u56fd\u5730\u65b9\u6574\u5099\u5c40\u5927\u6d32\u6cb3\u5ddd\u56fd\u9053\u4e8b\u52d9\u6240","boring_xml_url":47,"boring_view_url":1,"soilmap_view_url":null,"soiltest_xml_url":0,"soiltest_view_url":0},{"id":111357,"code":"NGIC201800457-0010","latitude":"33.070902194444","longitude":"132.50847497222","source_code":"","project_name":"","survey_name":"\u5e73\u621030\u5e74\u5ea6\u6d25\u5cf6\u9053\u8def\u5730\u8cea\u8abf\u67fb\u696d\u52d9","client_name":"\u56fd\u571f\u4ea4\u901a\u7701\u56db\u56fd\u5730\u65b9\u6574\u5099\u5c40\u5927\u6d32\u6cb3\u5ddd\u56fd\u9053\u4e8b\u52d9\u6240","boring_xml_url":47,"boring_view_url":1,"soilmap_view_url":null,"soiltest_xml_url":0,"soiltest_view_url":0},{"id":111356,"code":"NGIC201800457-0009","latitude":"33.078024638889","longitude":"132.50304333333","source_code":"","project_name":"","survey_name":"\u5e73\u621030\u5e74\u5ea6\u6d25\u5cf6\u9053\u8def\u5730\u8cea\u8abf\u67fb\u696d\u52d9","client_name":"\u56fd\u571f\u4ea4\u901a\u7701\u56db\u56fd\u5730\u65b9\u6574\u5099\u5c40\u5927\u6d32\u6cb3\u5ddd\u56fd\u9053\u4e8b\u52d9\u6240","boring_xml_url":47,"boring_view_url":1,"soilmap_view_url":null,"soiltest_xml_url":0,"soiltest_view_url":0},{"id":111355,"code":"NGIC201800457-0008","latitude":"33.079927722222","longitude":"132.50501963889","source_code":"","project_name":"","survey_name":"\u5e73\u621030\u5e74\u5ea6\u6d25\u5cf6\u9053\u8def\u5730\u8cea\u8abf\u67fb\u696d\u52d9","client_name":"\u56fd\u571f\u4ea4\u901a\u7701\u56db\u56fd\u5730\u65b9\u6574\u5099\u5c40\u5927\u6d32\u6cb3\u5ddd\u56fd\u9053\u4e8b\u52d9\u6240","boring_xml_url":47,"boring_view_url":1,"soilmap_view_url":null,"soiltest_xml_url":0,"soiltest_view_url":0},{"id":111354,"code":"NGIC201800457-0007","latitude":"33.081332166667","longitude":"132.50724791667","source_code":"","project_name":"","survey_name":"\u5e73\u621030\u5e74\u5ea6\u6d25\u5cf6\u9053\u8def\u5730\u8cea\u8abf\u67fb\u696d\u52d9","client_name":"\u56fd\u571f\u4ea4\u901a\u7701\u56db\u56fd\u5730\u65b9\u6574\u5099\u5c40\u5927\u6d32\u6cb3\u5ddd\u56fd\u9053\u4e8b\u52d9\u6240","boring_xml_url":47,"boring_view_url":1,"soilmap_view_url":null,"soiltest_xml_url":0,"soiltest_view_url":0},{"id":111353,"code":"NGIC201800457-0006","latitude":"33.073256194444","longitude":"132.50382341667","source_code":"","project_name":"","survey_name":"\u5e73\u621030\u5e74\u5ea6\u6d25\u5cf6\u9053\u8def\u5730\u8cea\u8abf\u67fb\u696d\u52d9","client_name":"\u56fd\u571f\u4ea4\u901a\u7701\u56db\u56fd\u5730\u65b9\u6574\u5099\u5c40\u5927\u6d32\u6cb3\u5ddd\u56fd\u9053\u4e8b\u52d9\u6240","boring_xml_url":47,"boring_view_url":1,"soilmap_view_url":null,"soiltest_xml_url":0,"soiltest_view_url":0},{"id":111352,"code":"NGIC201800457-0005","latitude":"33.073189","longitude":"132.50363597222","source_code":"","project_name":"","survey_name":"\u5e73\u621030\u5e74\u5ea6\u6d25\u5cf6\u9053\u8def\u5730\u8cea\u8abf\u67fb\u696d\u52d9","client_name":"\u56fd\u571f\u4ea4\u901a\u7701\u56db\u56fd\u5730\u65b9\u6574\u5099\u5c40\u5927\u6d32\u6cb3\u5ddd\u56fd\u9053\u4e8b\u52d9\u6240","boring_xml_url":47,"boring_view_url":1,"soilmap_view_url":null,"soiltest_xml_url":0,"soiltest_view_url":0},{"id":111351,"code":"NGIC201800457-0004","latitude":"33.064878472222","longitude":"132.51026938889","source_code":"","project_name":"","survey_name":"\u5e73\u621030\u5e74\u5ea6\u6d25\u5cf6\u9053\u8def\u5730\u8cea\u8abf\u67fb\u696d\u52d9","client_name":"\u56fd\u571f\u4ea4\u901a\u7701\u56db\u56fd\u5730\u65b9\u6574\u5099\u5c40\u5927\u6d32\u6cb3\u5ddd\u56fd\u9053\u4e8b\u52d9\u6240","boring_xml_url":47,"boring_view_url":1,"soilmap_view_url":null,"soiltest_xml_url":0,"soiltest_view_url":0},{"id":111350,"code":"NGIC201800457-0003","latitude":"33.06478325","longitude":"132.51008752778","source_code":"","project_name":"","survey_name":"\u5e73\u621030\u5e74\u5ea6\u6d25\u5cf6\u9053\u8def\u5730\u8cea\u8abf\u67fb\u696d\u52d9","client_name":"\u56fd\u571f\u4ea4\u901a\u7701\u56db\u56fd\u5730\u65b9\u6574\u5099\u5c40\u5927\u6d32\u6cb3\u5ddd\u56fd\u9053\u4e8b\u52d9\u6240","boring_xml_url":47,"boring_view_url":1,"soilmap_view_url":null,"soiltest_xml_url":0,"soiltest_view_url":0},{"id":111349,"code":"NGIC201800457-0002","latitude":"33.05994","longitude":"132.51146055556","source_code":"","project_name":"","survey_name":"\u5e73\u621030\u5e74\u5ea6\u6d25\u5cf6\u9053\u8def\u5730\u8cea\u8abf\u67fb\u696d\u52d9","client_name":"\u56fd\u571f\u4ea4\u901a\u7701\u56db\u56fd\u5730\u65b9\u6574\u5099\u5c40\u5927\u6d32\u6cb3\u5ddd\u56fd\u9053\u4e8b\u52d9\u6240","boring_xml_url":47,"boring_view_url":1,"soilmap_view_url":null,"soiltest_xml_url":0,"soiltest_view_url":0},{"id":111348,"code":"NGIC201800457-0001","latitude":"33.059925083333","longitude":"132.51124716667","source_code":"","project_name":"","survey_name":"\u5e73\u621030\u5e74\u5ea6\u6d25\u5cf6\u9053\u8def\u5730\u8cea\u8abf\u67fb\u696d\u52d9","client_name":"\u56fd\u571f\u4ea4\u901a\u7701\u56db\u56fd\u5730\u65b9\u6574\u5099\u5c40\u5927\u6d32\u6cb3\u5ddd\u56fd\u9053\u4e8b\u52d9\u6240","boring_xml_url":47,"boring_view_url":1,"soilmap_view_url":null,"soiltest_xml_url":0,"soiltest_view_url":0},{"id":111347,"code":"NGIC201800493-0002","latitude":"34.428611111111","longitude":"132.64055555556","source_code":"","project_name":"","survey_name":"\u5b89\u82b8\u30d0\u30a4\u30d1\u30b9\uff08\u4e0a\u702c\u91ce\u5730\u533a\uff09\u5229\u6c34\u8abf\u67fb\u696d\u52d9","client_name":"\u56fd\u571f\u4ea4\u901a\u7701\u4e2d\u56fd\u5730\u65b9\u6574\u5099\u5c40\u5e83\u5cf6\u56fd\u9053\u5de5\u4e8b\u4e8b\u52d9\u6240","boring_xml_url":47,"boring_view_url":1,"soilmap_view_url":null,"soiltest_xml_url":0,"soiltest_view_url":0},{"id":111346,"code":"NGIC201800493-0001","latitude":"34.428055555556","longitude":"132.63888888889","source_code":"","project_name":"","survey_name":"\u5b89\u82b8\u30d0\u30a4\u30d1\u30b9\uff08\u4e0a\u702c\u91ce\u5730\u533a\uff09\u5229\u6c34\u8abf\u67fb\u696d\u52d9","client_name":"\u56fd\u571f\u4ea4\u901a\u7701\u4e2d\u56fd\u5730\u65b9\u6574\u5099\u5c40\u5e83\u5cf6\u56fd\u9053\u5de5\u4e8b\u4e8b\u52d9\u6240","boring_xml_url":47,"boring_view_url":1,"soilmap_view_url":null,"soiltest_xml_url":0,"soiltest_view_url":0},{"id":111345,"code":"NGIC201800454-0016","latitude":"34.745138777778","longitude":"131.87423658333","source_code":"","project_name":"","survey_name":"\u4e09\u9685\u30fb\u76ca\u7530\u9053\u8def\u5916\u5730\u8cea\u8abf\u67fb\u696d\u52d9","client_name":"\u56fd\u571f\u4ea4\u901a\u7701\u4e2d\u56fd\u5730\u65b9\u6574\u5099\u5c40\u6d5c\u7530\u6cb3\u5ddd\u56fd\u9053\u4e8b\u52d9\u6240","boring_xml_url":47,"boring_view_url":1,"soilmap_view_url":null,"soiltest_xml_url":0,"soiltest_view_url":0},{"id":111344,"code":"NGIC201800454-0015","latitude":"34.744902388889","longitude":"131.87489691667","source_code":"","project_name":"","survey_name":"\u4e09\u9685\u30fb\u76ca\u7530\u9053\u8def\u5916\u5730\u8cea\u8abf\u67fb\u696d\u52d9","client_name":"\u56fd\u571f\u4ea4\u901a\u7701\u4e2d\u56fd\u5730\u65b9\u6574\u5099\u5c40\u6d5c\u7530\u6cb3\u5ddd\u56fd\u9053\u4e8b\u52d9\u6240","boring_xml_url":47,"boring_view_url":1,"soilmap_view_url":null,"soiltest_xml_url":0,"soiltest_view_url":0},{"id":111343,"code":"NGIC201800454-0014","latitude":"34.741993","longitude":"131.87737113889","source_code":"","project_name":"","survey_name":"\u4e09\u9685\u30fb\u76ca\u7530\u9053\u8def\u5916\u5730\u8cea\u8abf\u67fb\u696d\u52d9","client_name":"\u56fd\u571f\u4ea4\u901a\u7701\u4e2d\u56fd\u5730\u65b9\u6574\u5099\u5c40\u6d5c\u7530\u6cb3\u5ddd\u56fd\u9053\u4e8b\u52d9\u6240","boring_xml_url":47,"boring_view_url":1,"soilmap_view_url":null,"soiltest_xml_url":0,"soiltest_view_url":0},{"id":111342,"code":"NGIC201800454-0013","latitude":"34.742065083333","longitude":"131.87736866667","source_code":"","project_name":"","survey_name":"\u4e09\u9685\u30fb\u76ca\u7530\u9053\u8def\u5916\u5730\u8cea\u8abf\u67fb\u696d\u52d9","client_name":"\u56fd\u571f\u4ea4\u901a\u7701\u4e2d\u56fd\u5730\u65b9\u6574\u5099\u5c40\u6d5c\u7530\u6cb3\u5ddd\u56fd\u9053\u4e8b\u52d9\u6240","boring_xml_url":47,"boring_view_url":1,"soilmap_view_url":null,"soiltest_xml_url":0,"soiltest_view_url":0},{"id":111341,"code":"NGIC201800454-0012","latitude":"34.742315583333","longitude":"131.87734211111","source_code":"","project_name":"","survey_name":"\u4e09\u9685\u30fb\u76ca\u7530\u9053\u8def\u5916\u5730\u8cea\u8abf\u67fb\u696d\u52d9","client_name":"\u56fd\u571f\u4ea4\u901a\u7701\u4e2d\u56fd\u5730\u65b9\u6574\u5099\u5c40\u6d5c\u7530\u6cb3\u5ddd\u56fd\u9053\u4e8b\u52d9\u6240","boring_xml_url":47,"boring_view_url":1,"soilmap_view_url":null,"soiltest_xml_url":0,"soiltest_view_url":0}]}}