{"header":{"xyz":{"source":[],"mosaic":false},"page":698,"raw":{"soiltest_result":"0","bbox":"57.598333,109.544722,1.933333,163.806111","page":"698"},"conditions":{"soiltest_result":0,"north":57.598333,"west":109.544722,"south":1.933333,"east":163.806111},"success":true,"message":""},"data":{"meta":{"total":212844,"page":698,"pages":7095,"count":30},"values":[{"id":524478,"code":"B4KJ202201002-7014","latitude":"33.54255","longitude":"133.449883","source_code":"038862602000050004","project_name":"","survey_name":"\"\u5e73\u621015\u5e74\u5ea6 \u9ad8\u77e5\u897f\u30d0\u30a4\u30d1\u30b9\u5730\u8cea\u8abf\u67fb\u696d\u52d9\"","client_name":"\u56fd\u571f\u4ea4\u901a\u7701\u56db\u56fd\u5730\u65b9\u6574\u5099\u5c40\u571f\u4f50\u56fd\u9053\u4e8b\u52d9\u6240","boring_xml_url":64,"boring_view_url":1,"soilmap_view_url":null,"soiltest_xml_url":0,"soiltest_view_url":0},{"id":524477,"code":"B4KJ202201002-7013","latitude":"33.543969","longitude":"133.456822","source_code":"038862602000050003","project_name":"","survey_name":"\"\u5e73\u621015\u5e74\u5ea6 \u9ad8\u77e5\u897f\u30d0\u30a4\u30d1\u30b9\u5730\u8cea\u8abf\u67fb\u696d\u52d9\"","client_name":"\u56fd\u571f\u4ea4\u901a\u7701\u56db\u56fd\u5730\u65b9\u6574\u5099\u5c40\u571f\u4f50\u56fd\u9053\u4e8b\u52d9\u6240","boring_xml_url":64,"boring_view_url":1,"soilmap_view_url":null,"soiltest_xml_url":0,"soiltest_view_url":0},{"id":524476,"code":"B4KJ202201002-7012","latitude":"33.545047","longitude":"133.456381","source_code":"038862602000050002","project_name":"","survey_name":"\"\u5e73\u621015\u5e74\u5ea6 \u9ad8\u77e5\u897f\u30d0\u30a4\u30d1\u30b9\u5730\u8cea\u8abf\u67fb\u696d\u52d9\"","client_name":"\u56fd\u571f\u4ea4\u901a\u7701\u56db\u56fd\u5730\u65b9\u6574\u5099\u5c40\u571f\u4f50\u56fd\u9053\u4e8b\u52d9\u6240","boring_xml_url":64,"boring_view_url":1,"soilmap_view_url":null,"soiltest_xml_url":0,"soiltest_view_url":0},{"id":524475,"code":"B4KJ202201002-7011","latitude":"33.556433","longitude":"133.472458","source_code":"038862602000050001","project_name":"","survey_name":"\u5e73\u621015\u5e74\u5ea6\u3000\u9ad8\u77e5\u897f\u30d0\u30a4\u30d1\u30b9\u5730\u8cea\u8abf\u67fb\u696d\u52d9","client_name":"\u56fd\u571f\u4ea4\u901a\u7701\u56db\u56fd\u5730\u65b9\u6574\u5099\u5c40\u571f\u4f50\u56fd\u9053\u4e8b\u52d9\u6240","boring_xml_url":64,"boring_view_url":1,"soilmap_view_url":null,"soiltest_xml_url":0,"soiltest_view_url":0},{"id":524474,"code":"B4KJ202201002-7010","latitude":"33.574181","longitude":"133.62241","source_code":"038862602000040014","project_name":"\u5e73\u621015\u5e74\u5ea6\u3000\u9ad8\u77e5\u6771\u9053\u8def\u59161\u4ef6\u5730\u8cea\u8abf\u67fb\u696d\u52d9","survey_name":"\u5e73\u621015\u5e74\u5ea6\u3000\u9ad8\u77e5\u6771\u9053\u8def\u59161\u4ef6\u5730\u8cea\u8abf\u67fb\u696d\u52d9","client_name":"\u56fd\u571f\u4ea4\u901a\u7701\u56db\u56fd\u5730\u65b9\u6574\u5099\u5c40\u571f\u4f50\u56fd\u9053\u4e8b\u52d9\u6240","boring_xml_url":64,"boring_view_url":1,"soilmap_view_url":null,"soiltest_xml_url":0,"soiltest_view_url":0},{"id":524473,"code":"B4KJ202201002-7009","latitude":"33.575082","longitude":"133.62245","source_code":"038862602000040013","project_name":"\u5e73\u621015\u5e74\u5ea6\u3000\u9ad8\u77e5\u6771\u9053\u8def\u59161\u4ef6\u5730\u8cea\u8abf\u67fb\u696d\u52d9","survey_name":"\u5e73\u621015\u5e74\u5ea6\u3000\u9ad8\u77e5\u6771\u9053\u8def\u59161\u4ef6\u5730\u8cea\u8abf\u67fb\u696d\u52d9","client_name":"\u56fd\u571f\u4ea4\u901a\u7701\u56db\u56fd\u5730\u65b9\u6574\u5099\u5c40\u571f\u4f50\u56fd\u9053\u4e8b\u52d9\u6240","boring_xml_url":64,"boring_view_url":1,"soilmap_view_url":null,"soiltest_xml_url":0,"soiltest_view_url":0},{"id":524472,"code":"B4KJ202201002-7008","latitude":"33.578957","longitude":"133.622625","source_code":"038862602000040011","project_name":"\u5e73\u621015\u5e74\u5ea6\u3000\u9ad8\u77e5\u6771\u9053\u8def\u59161\u4ef6\u5730\u8cea\u8abf\u67fb\u696d\u52d9","survey_name":"\u5e73\u621015\u5e74\u5ea6\u3000\u9ad8\u77e5\u6771\u9053\u8def\u59161\u4ef6\u5730\u8cea\u8abf\u67fb\u696d\u52d9","client_name":"\u56fd\u571f\u4ea4\u901a\u7701\u56db\u56fd\u5730\u65b9\u6574\u5099\u5c40\u571f\u4f50\u56fd\u9053\u4e8b\u52d9\u6240","boring_xml_url":64,"boring_view_url":1,"soilmap_view_url":null,"soiltest_xml_url":0,"soiltest_view_url":0},{"id":524471,"code":"B4KJ202201002-7007","latitude":"33.580668","longitude":"133.622719","source_code":"038862602000040010","project_name":"\u5e73\u621015\u5e74\u5ea6\u3000\u9ad8\u77e5\u6771\u9053\u8def\u59161\u4ef6\u5730\u8cea\u8abf\u67fb\u696d\u52d9","survey_name":"\u5e73\u621015\u5e74\u5ea6\u3000\u9ad8\u77e5\u6771\u9053\u8def\u59161\u4ef6\u5730\u8cea\u8abf\u67fb\u696d\u52d9","client_name":"\u56fd\u571f\u4ea4\u901a\u7701\u56db\u56fd\u5730\u65b9\u6574\u5099\u5c40\u571f\u4f50\u56fd\u9053\u4e8b\u52d9\u6240","boring_xml_url":64,"boring_view_url":1,"soilmap_view_url":null,"soiltest_xml_url":0,"soiltest_view_url":0},{"id":524470,"code":"B4KJ202201002-7006","latitude":"33.580668","longitude":"133.622719","source_code":"038862602000040009","project_name":"\u5e73\u621015\u5e74\u5ea6\u3000\u9ad8\u77e5\u6771\u9053\u8def\u59161\u4ef6\u5730\u8cea\u8abf\u67fb\u696d\u52d9","survey_name":"\u5e73\u621015\u5e74\u5ea6\u3000\u9ad8\u77e5\u6771\u9053\u8def\u59161\u4ef6\u5730\u8cea\u8abf\u67fb\u696d\u52d9","client_name":"\u56fd\u571f\u4ea4\u901a\u7701\u56db\u56fd\u5730\u65b9\u6574\u5099\u5c40\u571f\u4f50\u56fd\u9053\u4e8b\u52d9\u6240","boring_xml_url":64,"boring_view_url":1,"soilmap_view_url":null,"soiltest_xml_url":0,"soiltest_view_url":0},{"id":524469,"code":"B4KJ202201002-7005","latitude":"33.733206","longitude":"133.678045","source_code":"038862602000010014","project_name":"\u5e73\u621015\u5e74\u5ea6\u3000\u677f\u6728\u91ce\u9632\u707d\u5730\u8cea\u8abf\u67fb\u696d\u52d9","survey_name":"\u5e73\u621015\u5e74\u5ea6\u3000\u677f\u6728\u91ce\u9632\u707d\u5730\u8cea\u8abf\u67fb\u696d\u52d9","client_name":"\u56fd\u571f\u4ea4\u901a\u7701\u3000\u56db\u56fd\u5730\u65b9\u6574\u5099\u5c40\u3000\u571f\u4f50\u56fd\u9053\u4e8b\u52d9\u6240","boring_xml_url":64,"boring_view_url":1,"soilmap_view_url":null,"soiltest_xml_url":0,"soiltest_view_url":0},{"id":524468,"code":"B4KJ202201002-7004","latitude":"33.582936","longitude":"133.177064","source_code":"028862602000250003","project_name":"\u6a58\u9632\u707d\u4e8b\u696d","survey_name":"\u5e73\u621014\u5e74\u5ea6\u3000\u6a58\u9632\u707d\u6c34\u6587\u8abf\u67fb\u696d\u52d9","client_name":"\u56fd\u571f\u4ea4\u901a\u7701\u3000\u56db\u56fd\u5730\u65b9\u6574\u5099\u5c40\u3000\u571f\u4f50\u56fd\u9053\u4e8b\u52d9\u6240","boring_xml_url":64,"boring_view_url":1,"soilmap_view_url":null,"soiltest_xml_url":0,"soiltest_view_url":0},{"id":524467,"code":"B4KJ202201002-7003","latitude":"32.945184","longitude":"132.747861","source_code":"038861612000320010","project_name":"","survey_name":"\u5e73\u621015\u5e74\u5ea6\u548c\u7530\u5730\u533a\u5730\u8cea\u8abf\u67fb\u696d\u52d9","client_name":"\u56fd\u571f\u4ea4\u901a\u7701\u56db\u56fd\u5730\u65b9\u6574\u5099\u5c40\u4e2d\u6751\u6cb3\u5ddd\u56fd\u9053\u4e8b\u52d9\u6240","boring_xml_url":64,"boring_view_url":1,"soilmap_view_url":null,"soiltest_xml_url":0,"soiltest_view_url":0},{"id":524466,"code":"B4KJ202201002-7002","latitude":"32.958347","longitude":"132.771458","source_code":"038861612000240007","project_name":"","survey_name":"\u5e73\u621015\u5e74\u5ea6\u5bfa\u5c71\u30c8\u30f3\u30cd\u30eb\u5730\u8cea\u8abf\u67fb\u696d\u52d9","client_name":"\u56fd\u571f\u4ea4\u901a\u7701\u3000\u56db\u56fd\u5730\u65b9\u6574\u5099\u5c40\u3000\u4e2d\u6751\u6cb3\u5ddd\u56fd\u9053\u4e8b\u52d9\u6240","boring_xml_url":64,"boring_view_url":1,"soilmap_view_url":null,"soiltest_xml_url":0,"soiltest_view_url":0},{"id":524465,"code":"B4KJ202201002-7001","latitude":"32.958372","longitude":"132.771606","source_code":"038861612000240005","project_name":"","survey_name":"\u5e73\u621015\u5e74\u5ea6\u5bfa\u5c71\u30c8\u30f3\u30cd\u30eb\u5730\u8cea\u8abf\u67fb\u696d\u52d9","client_name":"\u56fd\u571f\u4ea4\u901a\u7701\u3000\u56db\u56fd\u5730\u65b9\u6574\u5099\u5c40\u3000\u4e2d\u6751\u6cb3\u5ddd\u56fd\u9053\u4e8b\u52d9\u6240","boring_xml_url":64,"boring_view_url":1,"soilmap_view_url":null,"soiltest_xml_url":0,"soiltest_view_url":0},{"id":524464,"code":"B4KJ202201002-7000","latitude":"33.232411","longitude":"133.151208","source_code":"038861612000140007","project_name":"\u7aaa\u5dddIC\u53d6\u308a\u4ed8\u3051\u9053\u8def","survey_name":"\u5e73\u621015\u5e74\u5ea6\u3000\u5bfa\u5c71\u7b2c2\u9ad8\u67b6\u6a4b\u59162\u4ef6\u5730\u8cea\u8abf\u67fb\u696d\u52d9","client_name":"\u56fd\u571f\u4ea4\u901a\u7701\u56db\u56fd\u5730\u65b9\u6574\u5099\u5c40\u4e2d\u6751\u6cb3\u5ddd\u56fd\u9053\u4e8b\u52d9\u6240","boring_xml_url":64,"boring_view_url":1,"soilmap_view_url":null,"soiltest_xml_url":0,"soiltest_view_url":0},{"id":524463,"code":"B4KJ202201002-6999","latitude":"32.957594","longitude":"132.769272","source_code":"038861612000140004","project_name":"\u4e00\u822c\u56fd\u905356\u53f7","survey_name":"\u5e73\u621015\u5e74\u5ea6\u3000\u5bfa\u5c71\u7b2c2\u9ad8\u67b6\u6a4b\u59162\u4ef6\u5730\u8cea\u8abf\u67fb\u696d\u52d9","client_name":"\u56fd\u571f\u4ea4\u901a\u7701\u56db\u56fd\u5730\u65b9\u6574\u5099\u5c40\u3000\u4e2d\u6751\u6cb3\u5ddd\u56fd\u9053\u4e8b\u52d9\u6240","boring_xml_url":64,"boring_view_url":1,"soilmap_view_url":null,"soiltest_xml_url":0,"soiltest_view_url":0},{"id":524462,"code":"B4KJ202201002-6998","latitude":"32.955186","longitude":"132.770961","source_code":"038861612000140001","project_name":"\u4e00\u822c\u56fd\u905356\u53f7","survey_name":"\u5e73\u621015\u5e74\u5ea6\u3000\u5bfa\u5c71\u7b2c2\u9ad8\u67b6\u6a4b\u59162\u4ef6\u5730\u8cea\u8abf\u67fb\u696d\u52d9","client_name":"\u56fd\u571f\u4ea4\u901a\u7701\u56db\u56fd\u5730\u65b9\u6574\u5099\u5c40\u4e2d\u6751\u6cb3\u5ddd\u56fd\u9053\u4e8b\u52d9\u6240","boring_xml_url":64,"boring_view_url":1,"soilmap_view_url":null,"soiltest_xml_url":0,"soiltest_view_url":0},{"id":524461,"code":"B4KJ202201002-6997","latitude":"32.987168","longitude":"132.945046","source_code":"038861612000130012","project_name":"\u5e73\u621015\u5e74\u5ea6\u53f3\u5c71\u5730\u533a\u5730\u8cea\u8abf\u67fb\u696d\u52d9","survey_name":"\u5e73\u621015\u5e74\u5ea6\u53f3\u5c71\u5730\u533a\u5730\u8cea\u8abf\u67fb\u696d\u52d9","client_name":"\u56fd\u571f\u4ea4\u901a\u7701\u56db\u56fd\u5730\u65b9\u6574\u5099\u5c40\u3000\u4e2d\u6751\u6cb3\u5ddd\u56fd\u9053\u4e8b\u52d9\u6240","boring_xml_url":64,"boring_view_url":1,"soilmap_view_url":null,"soiltest_xml_url":0,"soiltest_view_url":0},{"id":524460,"code":"B4KJ202201002-6996","latitude":"32.980279","longitude":"132.939518","source_code":"038861612000130010","project_name":"\u5e73\u621015\u5e74\u5ea6\u53f3\u5c71\u5730\u533a\u5730\u8cea\u8abf\u67fb\u696d\u52d9","survey_name":"\u5e73\u621015\u5e74\u5ea6\u53f3\u5c71\u5730\u533a\u5730\u8cea\u8abf\u67fb\u696d\u52d9","client_name":"\u56fd\u571f\u4ea4\u901a\u7701\u56db\u56fd\u5730\u65b9\u6574\u5099\u5c40\u3000\u4e2d\u6751\u6cb3\u5ddd\u56fd\u9053\u4e8b\u52d9\u6240","boring_xml_url":64,"boring_view_url":1,"soilmap_view_url":null,"soiltest_xml_url":0,"soiltest_view_url":0},{"id":524459,"code":"B4KJ202201002-6995","latitude":"32.979002","longitude":"132.940852","source_code":"038861612000130009","project_name":"\u5e73\u621015\u5e74\u5ea6\u53f3\u5c71\u5730\u533a\u5730\u8cea\u8abf\u67fb\u696d\u52d9","survey_name":"\u5e73\u621015\u5e74\u5ea6\u53f3\u5c71\u5730\u533a\u5730\u8cea\u8abf\u67fb\u696d\u52d9","client_name":"\u56fd\u571f\u4ea4\u901a\u7701\u56db\u56fd\u5730\u65b9\u6574\u5099\u5c40\u3000\u4e2d\u6751\u6cb3\u5ddd\u56fd\u9053\u4e8b\u52d9\u6240","boring_xml_url":64,"boring_view_url":1,"soilmap_view_url":null,"soiltest_xml_url":0,"soiltest_view_url":0},{"id":524458,"code":"B4KJ202201002-6994","latitude":"32.979863","longitude":"132.940685","source_code":"038861612000130008","project_name":"\u5e73\u621015\u5e74\u5ea6\u53f3\u5c71\u5730\u533a\u5730\u8cea\u8abf\u67fb\u696d\u52d9","survey_name":"\u5e73\u621015\u5e74\u5ea6\u53f3\u5c71\u5730\u533a\u5730\u8cea\u8abf\u67fb\u696d\u52d9","client_name":"\u56fd\u571f\u4ea4\u901a\u7701\u56db\u56fd\u5730\u65b9\u6574\u5099\u5c40\u3000\u4e2d\u6751\u6cb3\u5ddd\u56fd\u9053\u4e8b\u52d9\u6240","boring_xml_url":64,"boring_view_url":1,"soilmap_view_url":null,"soiltest_xml_url":0,"soiltest_view_url":0},{"id":524457,"code":"B4KJ202201002-6993","latitude":"32.980668","longitude":"132.938435","source_code":"038861612000130007","project_name":"\u5e73\u621015\u5e74\u5ea6\u53f3\u5c71\u5730\u533a\u5730\u8cea\u8abf\u67fb\u696d\u52d9","survey_name":"\u5e73\u621015\u5e74\u5ea6\u53f3\u5c71\u5730\u533a\u5730\u8cea\u8abf\u67fb\u696d\u52d9","client_name":"\u56fd\u571f\u4ea4\u901a\u7701\u56db\u56fd\u5730\u65b9\u6574\u5099\u5c40\u3000\u4e2d\u6751\u6cb3\u5ddd\u56fd\u9053\u4e8b\u52d9\u6240","boring_xml_url":64,"boring_view_url":1,"soilmap_view_url":null,"soiltest_xml_url":0,"soiltest_view_url":0},{"id":524456,"code":"B4KJ202201002-6992","latitude":"32.981446","longitude":"132.938102","source_code":"038861612000130006","project_name":"\"\u5e73\u621015\u5e74\u5ea6 \u53f3\u5c71\u5730\u533a\u5730\u8cea\u8abf\u67fb\u696d\u52d9\"","survey_name":"\"\u5e73\u621015\u5e74\u5ea6 \u53f3\u5c71\u5730\u533a\u5730\u8cea\u8abf\u67fb\u696d\u52d9\"","client_name":"\u56fd\u571f\u4ea4\u901a\u7701\u56db\u56fd\u5730\u65b9\u6574\u5099\u5c40\u4e2d\u6751\u6cb3\u5ddd\u56fd\u9053\u4e8b\u52d9\u6240","boring_xml_url":64,"boring_view_url":1,"soilmap_view_url":null,"soiltest_xml_url":0,"soiltest_view_url":0},{"id":524455,"code":"B4KJ202201002-6991","latitude":"32.979779","longitude":"132.940991","source_code":"038861612000130005","project_name":"\"\u5e73\u621015\u5e74\u5ea6 \u53f3\u5c71\u5730\u533a\u5730\u8cea\u8abf\u67fb\u696d\u52d9\"","survey_name":"\"\u5e73\u621015\u5e74\u5ea6 \u53f3\u5c71\u5730\u533a\u5730\u8cea\u8abf\u67fb\u696d\u52d9\"","client_name":"\u56fd\u571f\u4ea4\u901a\u7701\u56db\u56fd\u5730\u65b9\u6574\u5099\u5c40\u4e2d\u6751\u6cb3\u5ddd\u56fd\u9053\u4e8b\u52d9\u6240","boring_xml_url":64,"boring_view_url":1,"soilmap_view_url":null,"soiltest_xml_url":0,"soiltest_view_url":0},{"id":524454,"code":"B4KJ202201002-6990","latitude":"32.979391","longitude":"132.941324","source_code":"038861612000130004","project_name":"\"\u5e73\u621015\u5e74\u5ea6 \u53f3\u5c71\u5730\u533a\u5730\u8cea\u8abf\u67fb\u696d\u52d9\"","survey_name":"\"\u5e73\u621015\u5e74\u5ea6 \u53f3\u5c71\u5730\u533a\u5730\u8cea\u8abf\u67fb\u696d\u52d9\"","client_name":"\u56fd\u571f\u4ea4\u901a\u7701\u56db\u56fd\u5730\u65b9\u6574\u5099\u5c40\u4e2d\u6751\u6cb3\u5ddd\u56fd\u9053\u4e8b\u52d9\u6240","boring_xml_url":64,"boring_view_url":1,"soilmap_view_url":null,"soiltest_xml_url":0,"soiltest_view_url":0},{"id":524453,"code":"B4KJ202201002-6989","latitude":"32.979168","longitude":"132.941546","source_code":"038861612000130003","project_name":"\"\u5e73\u621015\u5e74\u5ea6 \u53f3\u5c71\u5730\u533a\u5730\u8cea\u8abf\u67fb\u696d\u52d9\"","survey_name":"\"\u5e73\u621015\u5e74\u5ea6 \u53f3\u5c71\u5730\u533a\u5730\u8cea\u8abf\u67fb\u696d\u52d9\"","client_name":"\u56fd\u571f\u4ea4\u901a\u7701\u56db\u56fd\u5730\u65b9\u6574\u5099\u5c40\u4e2d\u6751\u6cb3\u5ddd\u56fd\u9053\u4e8b\u52d9\u6240","boring_xml_url":64,"boring_view_url":1,"soilmap_view_url":null,"soiltest_xml_url":0,"soiltest_view_url":0},{"id":524452,"code":"B4KJ202201002-6988","latitude":"32.979529","longitude":"132.941852","source_code":"038861612000130002","project_name":"\"\u5e73\u621015\u5e74\u5ea6 \u53f3\u5c71\u5730\u533a\u5730\u8cea\u8abf\u67fb\u696d\u52d9\"","survey_name":"\"\u5e73\u621015\u5e74\u5ea6 \u53f3\u5c71\u5730\u533a\u5730\u8cea\u8abf\u67fb\u696d\u52d9\"","client_name":"\u56fd\u571f\u4ea4\u901a\u7701\u56db\u56fd\u5730\u65b9\u6574\u5099\u5c40\u4e2d\u6751\u6cb3\u5ddd\u56fd\u9053\u4e8b\u52d9\u6240","boring_xml_url":64,"boring_view_url":1,"soilmap_view_url":null,"soiltest_xml_url":0,"soiltest_view_url":0},{"id":524451,"code":"B4KJ202201002-6987","latitude":"32.979391","longitude":"132.942324","source_code":"038861612000130001","project_name":"\"\u5e73\u621015\u5e74\u5ea6 \u53f3\u5c71\u5730\u533a\u5730\u8cea\u8abf\u67fb\u696d\u52d9\"","survey_name":"\"\u5e73\u621015\u5e74\u5ea6 \u53f3\u5c71\u5730\u533a\u5730\u8cea\u8abf\u67fb\u696d\u52d9\"","client_name":"\u56fd\u571f\u4ea4\u901a\u7701\u56db\u56fd\u5730\u65b9\u6574\u5099\u5c40\u4e2d\u6751\u6cb3\u5ddd\u56fd\u9053\u4e8b\u52d9\u6240","boring_xml_url":64,"boring_view_url":1,"soilmap_view_url":null,"soiltest_xml_url":0,"soiltest_view_url":0},{"id":524450,"code":"B4KJ202201002-6986","latitude":"33.438494","longitude":"132.947203","source_code":"038861612000120009","project_name":"\u5730\u82b3\u9053\u8def","survey_name":"\u5e73\u621015\u5e74\u5ea6\u3000\u5927\u65b9\u6539\u826f\u59161\u4ef6\u5730\u8cea\u8abf\u67fb\u696d\u52d9","client_name":"\u56fd\u571f\u4ea4\u901a\u7701\u56db\u56fd\u5730\u65b9\u5c40\u4e2d\u6751\u6cb3\u5ddd\u56fd\u9053\u4e8b\u52d9\u6240","boring_xml_url":64,"boring_view_url":1,"soilmap_view_url":null,"soiltest_xml_url":0,"soiltest_view_url":0},{"id":524449,"code":"B4KJ202201002-6985","latitude":"33.023756","longitude":"133.004578","source_code":"038861612000120008","project_name":"\u5165\u91ce\u8de8\u9053\u6a4b\u57fa\u790e\u8abf\u67fb","survey_name":"\u5e73\u621015\u5e74\u5ea6\u3000\u5927\u65b9\u6539\u826f\u59161\u4ef6\u5730\u8cea\u8abf\u67fb\u696d\u52d9","client_name":"\u56fd\u571f\u4ea4\u901a\u7701\u56db\u56fd\u5730\u65b9\u5c40\u4e2d\u6751\u6cb3\u5ddd\u56fd\u9053\u4e8b\u52d9\u6240","boring_xml_url":64,"boring_view_url":1,"soilmap_view_url":null,"soiltest_xml_url":0,"soiltest_view_url":0}]}}