{"header":{"xyz":{"source":[],"mosaic":false},"page":6980,"raw":{"soiltest_result":"0","bbox":"57.598333,109.544722,1.933333,163.806111","page":"6980"},"conditions":{"soiltest_result":0,"north":57.598333,"west":109.544722,"south":1.933333,"east":163.806111},"success":true,"message":""},"data":{"meta":{"total":212844,"page":6980,"pages":7095,"count":30},"values":[{"id":111121,"code":"NGIC201800418-0002","latitude":"33.404061111111","longitude":"130.82071944444","source_code":"","project_name":"","survey_name":"\u5e73\u621030\u5e74\u5ea6\u8d64\u8c37\u5ddd\u6d41\u57df\u659c\u9762\u5b89\u5168\u5ea6\u8a55\u4fa1\u53ca\u3073\u6982\u7565\u5bfe\u7b56\u5de5\u691c\u8a0e\u696d\u52d9","client_name":"\u56fd\u571f\u4ea4\u901a\u7701\u4e5d\u5dde\u5730\u65b9\u6574\u5099\u5c40\u7b51\u5f8c\u5ddd\u6cb3\u5ddd\u4e8b\u52d9\u6240\u4e5d\u5dde\u5317\u90e8\u8c6a\u96e8\u5fa9\u8208\u51fa\u5f35\u6240","boring_xml_url":47,"boring_view_url":1,"soilmap_view_url":null,"soiltest_xml_url":0,"soiltest_view_url":0},{"id":111120,"code":"NGIC201800418-0001","latitude":"33.403294444444","longitude":"130.82056111111","source_code":"","project_name":"","survey_name":"\u5e73\u621030\u5e74\u5ea6\u8d64\u8c37\u5ddd\u6d41\u57df\u659c\u9762\u5b89\u5168\u5ea6\u8a55\u4fa1\u53ca\u3073\u6982\u7565\u5bfe\u7b56\u5de5\u691c\u8a0e\u696d\u52d9","client_name":"\u56fd\u571f\u4ea4\u901a\u7701\u4e5d\u5dde\u5730\u65b9\u6574\u5099\u5c40\u7b51\u5f8c\u5ddd\u6cb3\u5ddd\u4e8b\u52d9\u6240\u4e5d\u5dde\u5317\u90e8\u8c6a\u96e8\u5fa9\u8208\u51fa\u5f35\u6240","boring_xml_url":47,"boring_view_url":1,"soilmap_view_url":null,"soiltest_xml_url":0,"soiltest_view_url":0},{"id":111119,"code":"NGIC201800436-0034","latitude":"35.395056861111","longitude":"137.28438619444","source_code":"","project_name":"","survey_name":"\u5e73\u621030\u5e74\u5ea6\u745e\u6d6a\u6075\u90a3\u9053\u8def\u897f\u90e8\u5730\u533a\u5730\u8cea\u8abf\u67fb\u696d\u52d9","client_name":"\u56fd\u571f\u4ea4\u901a\u7701\u4e2d\u90e8\u5730\u65b9\u6574\u5099\u5c40\u591a\u6cbb\u898b\u7802\u9632\u56fd\u9053\u4e8b\u52d9\u6240","boring_xml_url":47,"boring_view_url":1,"soilmap_view_url":null,"soiltest_xml_url":0,"soiltest_view_url":0},{"id":111118,"code":"NGIC201800436-0033","latitude":"35.394088138889","longitude":"137.27952955556","source_code":"","project_name":"","survey_name":"\u5e73\u621030\u5e74\u5ea6\u745e\u6d6a\u6075\u90a3\u9053\u8def\u897f\u90e8\u5730\u533a\u5730\u8cea\u8abf\u67fb\u696d\u52d9","client_name":"\u56fd\u571f\u4ea4\u901a\u7701\u4e2d\u90e8\u5730\u65b9\u6574\u5099\u5c40\u591a\u6cbb\u898b\u7802\u9632\u56fd\u9053\u4e8b\u52d9\u6240","boring_xml_url":47,"boring_view_url":1,"soilmap_view_url":null,"soiltest_xml_url":0,"soiltest_view_url":0},{"id":111117,"code":"NGIC201800436-0032","latitude":"35.393980388889","longitude":"137.27955863889","source_code":"","project_name":"","survey_name":"\u5e73\u621030\u5e74\u5ea6\u745e\u6d6a\u6075\u90a3\u9053\u8def\u897f\u90e8\u5730\u533a\u5730\u8cea\u8abf\u67fb\u696d\u52d9","client_name":"\u56fd\u571f\u4ea4\u901a\u7701\u4e2d\u90e8\u5730\u65b9\u6574\u5099\u5c40\u591a\u6cbb\u898b\u7802\u9632\u56fd\u9053\u4e8b\u52d9\u6240","boring_xml_url":47,"boring_view_url":1,"soilmap_view_url":null,"soiltest_xml_url":0,"soiltest_view_url":0},{"id":111116,"code":"NGIC201800436-0031","latitude":"35.403359527778","longitude":"137.29900266667","source_code":"","project_name":"","survey_name":"\u5e73\u621030\u5e74\u5ea6\u745e\u6d6a\u6075\u90a3\u9053\u8def\u897f\u90e8\u5730\u533a\u5730\u8cea\u8abf\u67fb\u696d\u52d9","client_name":"\u56fd\u571f\u4ea4\u901a\u7701\u4e2d\u90e8\u5730\u65b9\u6574\u5099\u5c40\u591a\u6cbb\u898b\u7802\u9632\u56fd\u9053\u4e8b\u52d9\u6240","boring_xml_url":47,"boring_view_url":1,"soilmap_view_url":null,"soiltest_xml_url":0,"soiltest_view_url":0},{"id":111115,"code":"NGIC201800436-0030","latitude":"35.403556444444","longitude":"137.29867163889","source_code":"","project_name":"","survey_name":"\u5e73\u621030\u5e74\u5ea6\u745e\u6d6a\u6075\u90a3\u9053\u8def\u897f\u90e8\u5730\u533a\u5730\u8cea\u8abf\u67fb\u696d\u52d9","client_name":"\u56fd\u571f\u4ea4\u901a\u7701\u4e2d\u90e8\u5730\u65b9\u6574\u5099\u5c40\u591a\u6cbb\u898b\u7802\u9632\u56fd\u9053\u4e8b\u52d9\u6240","boring_xml_url":47,"boring_view_url":1,"soilmap_view_url":null,"soiltest_xml_url":47,"soiltest_view_url":47},{"id":111114,"code":"NGIC201800436-0029","latitude":"35.405543611111","longitude":"137.30345263889","source_code":"","project_name":"","survey_name":"\u5e73\u621030\u5e74\u5ea6\u745e\u6d6a\u6075\u90a3\u9053\u8def\u897f\u90e8\u5730\u533a\u5730\u8cea\u8abf\u67fb\u696d\u52d9","client_name":"\u56fd\u571f\u4ea4\u901a\u7701\u4e2d\u90e8\u5730\u65b9\u6574\u5099\u5c40\u591a\u6cbb\u898b\u7802\u9632\u56fd\u9053\u4e8b\u52d9\u6240","boring_xml_url":47,"boring_view_url":1,"soilmap_view_url":null,"soiltest_xml_url":0,"soiltest_view_url":0},{"id":111113,"code":"NGIC201800436-0028","latitude":"35.404948","longitude":"137.30183291667","source_code":"","project_name":"","survey_name":"\u5e73\u621030\u5e74\u5ea6\u745e\u6d6a\u6075\u90a3\u9053\u8def\u897f\u90e8\u5730\u533a\u5730\u8cea\u8abf\u67fb\u696d\u52d9","client_name":"\u56fd\u571f\u4ea4\u901a\u7701\u4e2d\u90e8\u5730\u65b9\u6574\u5099\u5c40\u591a\u6cbb\u898b\u7802\u9632\u56fd\u9053\u4e8b\u52d9\u6240","boring_xml_url":47,"boring_view_url":1,"soilmap_view_url":null,"soiltest_xml_url":0,"soiltest_view_url":0},{"id":111112,"code":"NGIC201800436-0027","latitude":"35.401014888889","longitude":"137.29659822222","source_code":"","project_name":"","survey_name":"\u5e73\u621030\u5e74\u5ea6\u745e\u6d6a\u6075\u90a3\u9053\u8def\u897f\u90e8\u5730\u533a\u5730\u8cea\u8abf\u67fb\u696d\u52d9","client_name":"\u56fd\u571f\u4ea4\u901a\u7701\u4e2d\u90e8\u5730\u65b9\u6574\u5099\u5c40\u591a\u6cbb\u898b\u7802\u9632\u56fd\u9053\u4e8b\u52d9\u6240","boring_xml_url":47,"boring_view_url":1,"soilmap_view_url":null,"soiltest_xml_url":0,"soiltest_view_url":0},{"id":111111,"code":"NGIC201800436-0026","latitude":"35.400754527778","longitude":"137.29630766667","source_code":"","project_name":"","survey_name":"\u5e73\u621030\u5e74\u5ea6\u745e\u6d6a\u6075\u90a3\u9053\u8def\u897f\u90e8\u5730\u533a\u5730\u8cea\u8abf\u67fb\u696d\u52d9","client_name":"\u56fd\u571f\u4ea4\u901a\u7701\u4e2d\u90e8\u5730\u65b9\u6574\u5099\u5c40\u591a\u6cbb\u898b\u7802\u9632\u56fd\u9053\u4e8b\u52d9\u6240","boring_xml_url":47,"boring_view_url":1,"soilmap_view_url":null,"soiltest_xml_url":0,"soiltest_view_url":0},{"id":111110,"code":"NGIC201800436-0025","latitude":"35.397277444444","longitude":"137.28720827778","source_code":"","project_name":"","survey_name":"\u5e73\u621030\u5e74\u5ea6\u745e\u6d6a\u6075\u90a3\u9053\u8def\u897f\u90e8\u5730\u533a\u5730\u8cea\u8abf\u67fb\u696d\u52d9","client_name":"\u56fd\u571f\u4ea4\u901a\u7701\u4e2d\u90e8\u5730\u65b9\u6574\u5099\u5c40\u591a\u6cbb\u898b\u7802\u9632\u56fd\u9053\u4e8b\u52d9\u6240","boring_xml_url":47,"boring_view_url":1,"soilmap_view_url":null,"soiltest_xml_url":0,"soiltest_view_url":0},{"id":111109,"code":"NGIC201800436-0024","latitude":"35.416924805556","longitude":"137.31908719444","source_code":"","project_name":"","survey_name":"\u5e73\u621030\u5e74\u5ea6\u745e\u6d6a\u6075\u90a3\u9053\u8def\u897f\u90e8\u5730\u533a\u5730\u8cea\u8abf\u67fb\u696d\u52d9","client_name":"\u56fd\u571f\u4ea4\u901a\u7701\u4e2d\u90e8\u5730\u65b9\u6574\u5099\u5c40\u591a\u6cbb\u898b\u7802\u9632\u56fd\u9053\u4e8b\u52d9\u6240","boring_xml_url":47,"boring_view_url":1,"soilmap_view_url":null,"soiltest_xml_url":0,"soiltest_view_url":0},{"id":111108,"code":"NGIC201800436-0023","latitude":"35.416246638889","longitude":"137.31781263889","source_code":"","project_name":"","survey_name":"\u5e73\u621030\u5e74\u5ea6\u745e\u6d6a\u6075\u90a3\u9053\u8def\u897f\u90e8\u5730\u533a\u5730\u8cea\u8abf\u67fb\u696d\u52d9","client_name":"\u56fd\u571f\u4ea4\u901a\u7701\u4e2d\u90e8\u5730\u65b9\u6574\u5099\u5c40\u591a\u6cbb\u898b\u7802\u9632\u56fd\u9053\u4e8b\u52d9\u6240","boring_xml_url":47,"boring_view_url":1,"soilmap_view_url":null,"soiltest_xml_url":0,"soiltest_view_url":0},{"id":111107,"code":"NGIC201800436-0022","latitude":"35.414673","longitude":"137.31449175","source_code":"","project_name":"","survey_name":"\u5e73\u621030\u5e74\u5ea6\u745e\u6d6a\u6075\u90a3\u9053\u8def\u897f\u90e8\u5730\u533a\u5730\u8cea\u8abf\u67fb\u696d\u52d9","client_name":"\u56fd\u571f\u4ea4\u901a\u7701\u4e2d\u90e8\u5730\u65b9\u6574\u5099\u5c40\u591a\u6cbb\u898b\u7802\u9632\u56fd\u9053\u4e8b\u52d9\u6240","boring_xml_url":47,"boring_view_url":1,"soilmap_view_url":null,"soiltest_xml_url":0,"soiltest_view_url":0},{"id":111106,"code":"NGIC201800436-0021","latitude":"35.414240722222","longitude":"137.31392358333","source_code":"","project_name":"","survey_name":"\u5e73\u621030\u5e74\u5ea6\u745e\u6d6a\u6075\u90a3\u9053\u8def\u897f\u90e8\u5730\u533a\u5730\u8cea\u8abf\u67fb\u696d\u52d9","client_name":"\u56fd\u571f\u4ea4\u901a\u7701\u4e2d\u90e8\u5730\u65b9\u6574\u5099\u5c40\u591a\u6cbb\u898b\u7802\u9632\u56fd\u9053\u4e8b\u52d9\u6240","boring_xml_url":47,"boring_view_url":1,"soilmap_view_url":null,"soiltest_xml_url":0,"soiltest_view_url":0},{"id":111105,"code":"NGIC201800436-0020","latitude":"35.413853611111","longitude":"137.31357786111","source_code":"","project_name":"","survey_name":"\u5e73\u621030\u5e74\u5ea6\u745e\u6d6a\u6075\u90a3\u9053\u8def\u897f\u90e8\u5730\u533a\u5730\u8cea\u8abf\u67fb\u696d\u52d9","client_name":"\u56fd\u571f\u4ea4\u901a\u7701\u4e2d\u90e8\u5730\u65b9\u6574\u5099\u5c40\u591a\u6cbb\u898b\u7802\u9632\u56fd\u9053\u4e8b\u52d9\u6240","boring_xml_url":47,"boring_view_url":1,"soilmap_view_url":null,"soiltest_xml_url":47,"soiltest_view_url":47},{"id":111104,"code":"NGIC201800436-0019","latitude":"35.411269638889","longitude":"137.30961188889","source_code":"","project_name":"","survey_name":"\u5e73\u621030\u5e74\u5ea6\u745e\u6d6a\u6075\u90a3\u9053\u8def\u897f\u90e8\u5730\u533a\u5730\u8cea\u8abf\u67fb\u696d\u52d9","client_name":"\u56fd\u571f\u4ea4\u901a\u7701\u4e2d\u90e8\u5730\u65b9\u6574\u5099\u5c40\u591a\u6cbb\u898b\u7802\u9632\u56fd\u9053\u4e8b\u52d9\u6240","boring_xml_url":47,"boring_view_url":1,"soilmap_view_url":null,"soiltest_xml_url":0,"soiltest_view_url":0},{"id":111103,"code":"NGIC201800436-0018","latitude":"35.409876333333","longitude":"137.30803508333","source_code":"","project_name":"","survey_name":"\u5e73\u621030\u5e74\u5ea6\u745e\u6d6a\u6075\u90a3\u9053\u8def\u897f\u90e8\u5730\u533a\u5730\u8cea\u8abf\u67fb\u696d\u52d9","client_name":"\u56fd\u571f\u4ea4\u901a\u7701\u4e2d\u90e8\u5730\u65b9\u6574\u5099\u5c40\u591a\u6cbb\u898b\u7802\u9632\u56fd\u9053\u4e8b\u52d9\u6240","boring_xml_url":47,"boring_view_url":1,"soilmap_view_url":null,"soiltest_xml_url":0,"soiltest_view_url":0},{"id":111102,"code":"NGIC201800436-0017","latitude":"35.408685416667","longitude":"137.30772338889","source_code":"","project_name":"","survey_name":"\u5e73\u621030\u5e74\u5ea6\u745e\u6d6a\u6075\u90a3\u9053\u8def\u897f\u90e8\u5730\u533a\u5730\u8cea\u8abf\u67fb\u696d\u52d9","client_name":"\u56fd\u571f\u4ea4\u901a\u7701\u4e2d\u90e8\u5730\u65b9\u6574\u5099\u5c40\u591a\u6cbb\u898b\u7802\u9632\u56fd\u9053\u4e8b\u52d9\u6240","boring_xml_url":47,"boring_view_url":1,"soilmap_view_url":null,"soiltest_xml_url":0,"soiltest_view_url":0},{"id":111101,"code":"NGIC201800436-0016","latitude":"35.407559138889","longitude":"137.30597002778","source_code":"","project_name":"","survey_name":"\u5e73\u621030\u5e74\u5ea6\u745e\u6d6a\u6075\u90a3\u9053\u8def\u897f\u90e8\u5730\u533a\u5730\u8cea\u8abf\u67fb\u696d\u52d9","client_name":"\u56fd\u571f\u4ea4\u901a\u7701\u4e2d\u90e8\u5730\u65b9\u6574\u5099\u5c40\u591a\u6cbb\u898b\u7802\u9632\u56fd\u9053\u4e8b\u52d9\u6240","boring_xml_url":47,"boring_view_url":1,"soilmap_view_url":null,"soiltest_xml_url":0,"soiltest_view_url":0},{"id":111100,"code":"NGIC201800436-0015","latitude":"35.406625944444","longitude":"137.30467005556","source_code":"","project_name":"","survey_name":"\u5e73\u621030\u5e74\u5ea6\u745e\u6d6a\u6075\u90a3\u9053\u8def\u897f\u90e8\u5730\u533a\u5730\u8cea\u8abf\u67fb\u696d\u52d9","client_name":"\u56fd\u571f\u4ea4\u901a\u7701\u4e2d\u90e8\u5730\u65b9\u6574\u5099\u5c40\u591a\u6cbb\u898b\u7802\u9632\u56fd\u9053\u4e8b\u52d9\u6240","boring_xml_url":47,"boring_view_url":1,"soilmap_view_url":null,"soiltest_xml_url":0,"soiltest_view_url":0},{"id":111099,"code":"NGIC201800436-0014","latitude":"35.404125722222","longitude":"137.30057208333","source_code":"","project_name":"","survey_name":"\u5e73\u621030\u5e74\u5ea6\u745e\u6d6a\u6075\u90a3\u9053\u8def\u897f\u90e8\u5730\u533a\u5730\u8cea\u8abf\u67fb\u696d\u52d9","client_name":"\u56fd\u571f\u4ea4\u901a\u7701\u4e2d\u90e8\u5730\u65b9\u6574\u5099\u5c40\u591a\u6cbb\u898b\u7802\u9632\u56fd\u9053\u4e8b\u52d9\u6240","boring_xml_url":47,"boring_view_url":1,"soilmap_view_url":null,"soiltest_xml_url":0,"soiltest_view_url":0},{"id":111098,"code":"NGIC201800436-0013","latitude":"35.404393333333","longitude":"137.30038277778","source_code":"","project_name":"","survey_name":"\u5e73\u621030\u5e74\u5ea6\u745e\u6d6a\u6075\u90a3\u9053\u8def\u897f\u90e8\u5730\u533a\u5730\u8cea\u8abf\u67fb\u696d\u52d9","client_name":"\u56fd\u571f\u4ea4\u901a\u7701\u4e2d\u90e8\u5730\u65b9\u6574\u5099\u5c40\u591a\u6cbb\u898b\u7802\u9632\u56fd\u9053\u4e8b\u52d9\u6240","boring_xml_url":47,"boring_view_url":1,"soilmap_view_url":null,"soiltest_xml_url":0,"soiltest_view_url":0},{"id":111097,"code":"NGIC201800436-0012","latitude":"35.400541944444","longitude":"137.29580769444","source_code":"","project_name":"","survey_name":"\u5e73\u621030\u5e74\u5ea6\u745e\u6d6a\u6075\u90a3\u9053\u8def\u897f\u90e8\u5730\u533a\u5730\u8cea\u8abf\u67fb\u696d\u52d9","client_name":"\u56fd\u571f\u4ea4\u901a\u7701\u4e2d\u90e8\u5730\u65b9\u6574\u5099\u5c40\u591a\u6cbb\u898b\u7802\u9632\u56fd\u9053\u4e8b\u52d9\u6240","boring_xml_url":47,"boring_view_url":1,"soilmap_view_url":null,"soiltest_xml_url":0,"soiltest_view_url":0},{"id":111096,"code":"NGIC201800436-0011","latitude":"35.400242388889","longitude":"137.29612911111","source_code":"","project_name":"","survey_name":"\u5e73\u621030\u5e74\u5ea6\u745e\u6d6a\u6075\u90a3\u9053\u8def\u897f\u90e8\u5730\u533a\u5730\u8cea\u8abf\u67fb\u696d\u52d9","client_name":"\u56fd\u571f\u4ea4\u901a\u7701\u4e2d\u90e8\u5730\u65b9\u6574\u5099\u5c40\u591a\u6cbb\u898b\u7802\u9632\u56fd\u9053\u4e8b\u52d9\u6240","boring_xml_url":47,"boring_view_url":1,"soilmap_view_url":null,"soiltest_xml_url":0,"soiltest_view_url":0},{"id":111095,"code":"NGIC201800436-0010","latitude":"35.399740555556","longitude":"137.29515419444","source_code":"","project_name":"","survey_name":"\u5e73\u621030\u5e74\u5ea6\u745e\u6d6a\u6075\u90a3\u9053\u8def\u897f\u90e8\u5730\u533a\u5730\u8cea\u8abf\u67fb\u696d\u52d9","client_name":"\u56fd\u571f\u4ea4\u901a\u7701\u4e2d\u90e8\u5730\u65b9\u6574\u5099\u5c40\u591a\u6cbb\u898b\u7802\u9632\u56fd\u9053\u4e8b\u52d9\u6240","boring_xml_url":47,"boring_view_url":1,"soilmap_view_url":null,"soiltest_xml_url":0,"soiltest_view_url":0},{"id":111094,"code":"NGIC201800436-0009","latitude":"35.399878194444","longitude":"137.29505386111","source_code":"","project_name":"","survey_name":"\u5e73\u621030\u5e74\u5ea6\u745e\u6d6a\u6075\u90a3\u9053\u8def\u897f\u90e8\u5730\u533a\u5730\u8cea\u8abf\u67fb\u696d\u52d9","client_name":"\u56fd\u571f\u4ea4\u901a\u7701\u4e2d\u90e8\u5730\u65b9\u6574\u5099\u5c40\u591a\u6cbb\u898b\u7802\u9632\u56fd\u9053\u4e8b\u52d9\u6240","boring_xml_url":47,"boring_view_url":1,"soilmap_view_url":null,"soiltest_xml_url":0,"soiltest_view_url":0},{"id":111093,"code":"NGIC201800436-0008","latitude":"35.398521888889","longitude":"137.29213205556","source_code":"","project_name":"","survey_name":"\u5e73\u621030\u5e74\u5ea6\u745e\u6d6a\u6075\u90a3\u9053\u8def\u897f\u90e8\u5730\u533a\u5730\u8cea\u8abf\u67fb\u696d\u52d9","client_name":"\u56fd\u571f\u4ea4\u901a\u7701\u4e2d\u90e8\u5730\u65b9\u6574\u5099\u5c40\u591a\u6cbb\u898b\u7802\u9632\u56fd\u9053\u4e8b\u52d9\u6240","boring_xml_url":47,"boring_view_url":1,"soilmap_view_url":null,"soiltest_xml_url":0,"soiltest_view_url":0},{"id":111092,"code":"NGIC201800436-0007","latitude":"35.397920027778","longitude":"137.2897755","source_code":"","project_name":"","survey_name":"\u5e73\u621030\u5e74\u5ea6\u745e\u6d6a\u6075\u90a3\u9053\u8def\u897f\u90e8\u5730\u533a\u5730\u8cea\u8abf\u67fb\u696d\u52d9","client_name":"\u56fd\u571f\u4ea4\u901a\u7701\u4e2d\u90e8\u5730\u65b9\u6574\u5099\u5c40\u591a\u6cbb\u898b\u7802\u9632\u56fd\u9053\u4e8b\u52d9\u6240","boring_xml_url":47,"boring_view_url":1,"soilmap_view_url":null,"soiltest_xml_url":0,"soiltest_view_url":0}]}}