{"header":{"xyz":{"source":[],"mosaic":false},"page":6981,"raw":{"soiltest_result":"0","bbox":"57.598333,109.544722,1.933333,163.806111","page":"6981"},"conditions":{"soiltest_result":0,"north":57.598333,"west":109.544722,"south":1.933333,"east":163.806111},"success":true,"message":""},"data":{"meta":{"total":212844,"page":6981,"pages":7095,"count":30},"values":[{"id":111091,"code":"NGIC201800436-0006","latitude":"35.39701975","longitude":"137.285378","source_code":"","project_name":"","survey_name":"\u5e73\u621030\u5e74\u5ea6\u745e\u6d6a\u6075\u90a3\u9053\u8def\u897f\u90e8\u5730\u533a\u5730\u8cea\u8abf\u67fb\u696d\u52d9","client_name":"\u56fd\u571f\u4ea4\u901a\u7701\u4e2d\u90e8\u5730\u65b9\u6574\u5099\u5c40\u591a\u6cbb\u898b\u7802\u9632\u56fd\u9053\u4e8b\u52d9\u6240","boring_xml_url":47,"boring_view_url":1,"soilmap_view_url":null,"soiltest_xml_url":0,"soiltest_view_url":0},{"id":111090,"code":"NGIC201800436-0005","latitude":"35.395747805556","longitude":"137.28370266667","source_code":"","project_name":"","survey_name":"\u5e73\u621030\u5e74\u5ea6\u745e\u6d6a\u6075\u90a3\u9053\u8def\u897f\u90e8\u5730\u533a\u5730\u8cea\u8abf\u67fb\u696d\u52d9","client_name":"\u56fd\u571f\u4ea4\u901a\u7701\u4e2d\u90e8\u5730\u65b9\u6574\u5099\u5c40\u591a\u6cbb\u898b\u7802\u9632\u56fd\u9053\u4e8b\u52d9\u6240","boring_xml_url":47,"boring_view_url":1,"soilmap_view_url":null,"soiltest_xml_url":0,"soiltest_view_url":0},{"id":111089,"code":"NGIC201800436-0004","latitude":"35.395579527778","longitude":"137.28387916667","source_code":"","project_name":"","survey_name":"\u5e73\u621030\u5e74\u5ea6\u745e\u6d6a\u6075\u90a3\u9053\u8def\u897f\u90e8\u5730\u533a\u5730\u8cea\u8abf\u67fb\u696d\u52d9","client_name":"\u56fd\u571f\u4ea4\u901a\u7701\u4e2d\u90e8\u5730\u65b9\u6574\u5099\u5c40\u591a\u6cbb\u898b\u7802\u9632\u56fd\u9053\u4e8b\u52d9\u6240","boring_xml_url":47,"boring_view_url":1,"soilmap_view_url":null,"soiltest_xml_url":0,"soiltest_view_url":0},{"id":111088,"code":"NGIC201800436-0003","latitude":"35.393405611111","longitude":"137.28023491667","source_code":"","project_name":"","survey_name":"\u5e73\u621030\u5e74\u5ea6\u745e\u6d6a\u6075\u90a3\u9053\u8def\u897f\u90e8\u5730\u533a\u5730\u8cea\u8abf\u67fb\u696d\u52d9","client_name":"\u56fd\u571f\u4ea4\u901a\u7701\u4e2d\u90e8\u5730\u65b9\u6574\u5099\u5c40\u591a\u6cbb\u898b\u7802\u9632\u56fd\u9053\u4e8b\u52d9\u6240","boring_xml_url":47,"boring_view_url":1,"soilmap_view_url":null,"soiltest_xml_url":0,"soiltest_view_url":0},{"id":111087,"code":"NGIC201800436-0002","latitude":"35.393498111111","longitude":"137.27935336111","source_code":"","project_name":"","survey_name":"\u5e73\u621030\u5e74\u5ea6\u745e\u6d6a\u6075\u90a3\u9053\u8def\u897f\u90e8\u5730\u533a\u5730\u8cea\u8abf\u67fb\u696d\u52d9","client_name":"\u56fd\u571f\u4ea4\u901a\u7701\u4e2d\u90e8\u5730\u65b9\u6574\u5099\u5c40\u591a\u6cbb\u898b\u7802\u9632\u56fd\u9053\u4e8b\u52d9\u6240","boring_xml_url":47,"boring_view_url":1,"soilmap_view_url":null,"soiltest_xml_url":0,"soiltest_view_url":0},{"id":111086,"code":"NGIC201800436-0001","latitude":"35.392939611111","longitude":"137.27942538889","source_code":"","project_name":"","survey_name":"\u5e73\u621030\u5e74\u5ea6\u745e\u6d6a\u6075\u90a3\u9053\u8def\u897f\u90e8\u5730\u533a\u5730\u8cea\u8abf\u67fb\u696d\u52d9","client_name":"\u56fd\u571f\u4ea4\u901a\u7701\u4e2d\u90e8\u5730\u65b9\u6574\u5099\u5c40\u591a\u6cbb\u898b\u7802\u9632\u56fd\u9053\u4e8b\u52d9\u6240","boring_xml_url":47,"boring_view_url":1,"soilmap_view_url":null,"soiltest_xml_url":0,"soiltest_view_url":0},{"id":111085,"code":"NGIC201800443-0004","latitude":"33.711416666667","longitude":"135.41383333333","source_code":"","project_name":"","survey_name":"\u3059\u3055\u307f\u4e32\u672c\u9053\u8def\u6c34\u6587\u7b49\u8abf\u67fb\u696d\u52d9","client_name":"\u56fd\u571f\u4ea4\u901a\u7701\u8fd1\u757f\u5730\u65b9\u6574\u5099\u5c40\u7d00\u5357\u6cb3\u5ddd\u56fd\u9053\u4e8b\u52d9\u6240\u3000\u5de5\u52d9\u7b2c\u4e09\u8ab2","boring_xml_url":47,"boring_view_url":1,"soilmap_view_url":null,"soiltest_xml_url":0,"soiltest_view_url":0},{"id":111084,"code":"NGIC201800443-0003","latitude":"33.4909","longitude":"135.73752222222","source_code":"","project_name":"","survey_name":"\u3059\u3055\u307f\u4e32\u672c\u9053\u8def\u6c34\u6587\u7b49\u8abf\u67fb\u696d\u52d9","client_name":"\u56fd\u571f\u4ea4\u901a\u7701\u8fd1\u757f\u5730\u65b9\u6574\u5099\u5c40\u7d00\u5357\u6cb3\u5ddd\u56fd\u9053\u4e8b\u52d9\u6240\u3000\u5de5\u52d9\u7b2c\u4e09\u8ab2","boring_xml_url":47,"boring_view_url":1,"soilmap_view_url":null,"soiltest_xml_url":0,"soiltest_view_url":0},{"id":111083,"code":"NGIC201800443-0002","latitude":"33.491158333333","longitude":"135.73671111111","source_code":"","project_name":"","survey_name":"\u3059\u3055\u307f\u4e32\u672c\u9053\u8def\u6c34\u6587\u7b49\u8abf\u67fb\u696d\u52d9","client_name":"\u56fd\u571f\u4ea4\u901a\u7701\u8fd1\u757f\u5730\u65b9\u6574\u5099\u5c40\u7d00\u5357\u6cb3\u5ddd\u56fd\u9053\u4e8b\u52d9\u6240\u3000\u5de5\u52d9\u7b2c\u4e09\u8ab2","boring_xml_url":47,"boring_view_url":1,"soilmap_view_url":null,"soiltest_xml_url":47,"soiltest_view_url":47},{"id":111082,"code":"NGIC201800443-0001","latitude":"33.491663888889","longitude":"135.73586388889","source_code":"","project_name":"","survey_name":"\u3059\u3055\u307f\u4e32\u672c\u9053\u8def\u6c34\u6587\u7b49\u8abf\u67fb\u696d\u52d9","client_name":"\u56fd\u571f\u4ea4\u901a\u7701\u8fd1\u757f\u5730\u65b9\u6574\u5099\u5c40\u7d00\u5357\u6cb3\u5ddd\u56fd\u9053\u4e8b\u52d9\u6240\u3000\u5de5\u52d9\u7b2c\u4e09\u8ab2","boring_xml_url":47,"boring_view_url":1,"soilmap_view_url":null,"soiltest_xml_url":47,"soiltest_view_url":47},{"id":111081,"code":"NGIC201800438-0005","latitude":"33.286908333333","longitude":"134.13659722222","source_code":"","project_name":"","survey_name":"\u5ba4\u6d25\u6e2f\u5ba4\u6d25\u5730\u533a\u571f\u8cea\u8abf\u67fb\uff08\u305d\u306e\uff081\uff09\uff09","client_name":"\u56fd\u571f\u4ea4\u901a\u7701\u56db\u56fd\u5730\u65b9\u6574\u5099\u5c40\u9ad8\u77e5\u6e2f\u6e7e\u30fb\u7a7a\u6e2f\u6574\u5099\u4e8b\u52d9\u6240","boring_xml_url":47,"boring_view_url":1,"soilmap_view_url":71,"soiltest_xml_url":47,"soiltest_view_url":47},{"id":111080,"code":"NGIC201800438-0004","latitude":"33.287811111111","longitude":"134.136575","source_code":"","project_name":"","survey_name":"\u5ba4\u6d25\u6e2f\u5ba4\u6d25\u5730\u533a\u571f\u8cea\u8abf\u67fb\uff08\u305d\u306e\uff081\uff09\uff09","client_name":"\u56fd\u571f\u4ea4\u901a\u7701\u56db\u56fd\u5730\u65b9\u6574\u5099\u5c40\u9ad8\u77e5\u6e2f\u6e7e\u30fb\u7a7a\u6e2f\u6574\u5099\u4e8b\u52d9\u6240","boring_xml_url":47,"boring_view_url":1,"soilmap_view_url":71,"soiltest_xml_url":47,"soiltest_view_url":47},{"id":111079,"code":"NGIC201800438-0003","latitude":"33.288716666667","longitude":"134.13656111111","source_code":"","project_name":"","survey_name":"\u5ba4\u6d25\u6e2f\u5ba4\u6d25\u5730\u533a\u571f\u8cea\u8abf\u67fb\uff08\u305d\u306e\uff081\uff09\uff09","client_name":"\u56fd\u571f\u4ea4\u901a\u7701\u56db\u56fd\u5730\u65b9\u6574\u5099\u5c40\u9ad8\u77e5\u6e2f\u6e7e\u30fb\u7a7a\u6e2f\u6574\u5099\u4e8b\u52d9\u6240","boring_xml_url":47,"boring_view_url":1,"soilmap_view_url":71,"soiltest_xml_url":47,"soiltest_view_url":47},{"id":111078,"code":"NGIC201800438-0002","latitude":"33.289611111111","longitude":"134.13653888889","source_code":"","project_name":"","survey_name":"\u5ba4\u6d25\u6e2f\u5ba4\u6d25\u5730\u533a\u571f\u8cea\u8abf\u67fb\uff08\u305d\u306e\uff081\uff09\uff09","client_name":"\u56fd\u571f\u4ea4\u901a\u7701\u56db\u56fd\u5730\u65b9\u6574\u5099\u5c40\u9ad8\u77e5\u6e2f\u6e7e\u30fb\u7a7a\u6e2f\u6574\u5099\u4e8b\u52d9\u6240","boring_xml_url":47,"boring_view_url":1,"soilmap_view_url":71,"soiltest_xml_url":47,"soiltest_view_url":47},{"id":111077,"code":"NGIC201800438-0001","latitude":"33.290519444444","longitude":"134.13651388889","source_code":"","project_name":"","survey_name":"\u5ba4\u6d25\u6e2f\u5ba4\u6d25\u5730\u533a\u571f\u8cea\u8abf\u67fb\uff08\u305d\u306e\uff081\uff09\uff09","client_name":"\u56fd\u571f\u4ea4\u901a\u7701\u56db\u56fd\u5730\u65b9\u6574\u5099\u5c40\u9ad8\u77e5\u6e2f\u6e7e\u30fb\u7a7a\u6e2f\u6574\u5099\u4e8b\u52d9\u6240","boring_xml_url":47,"boring_view_url":1,"soilmap_view_url":71,"soiltest_xml_url":47,"soiltest_view_url":47},{"id":111076,"code":"NGIC201800430-0017","latitude":"35.315573527778","longitude":"133.91488402778","source_code":"","project_name":"","survey_name":"\u5929\u795e\u5ddd\u77e2\u9001\u7802\u9632\u5830\u5824\u5916\u5730\u8cea\u8abf\u67fb\u696d\u52d9","client_name":"\u56fd\u571f\u4ea4\u901a\u7701\u4e2d\u56fd\u5730\u65b9\u6574\u5099\u5c40\u5009\u5409\u6cb3\u5ddd\u56fd\u9053\u4e8b\u52d9\u6240\u5de5\u52d9\u7b2c\u4e00\u8ab2","boring_xml_url":47,"boring_view_url":1,"soilmap_view_url":null,"soiltest_xml_url":0,"soiltest_view_url":0},{"id":111075,"code":"NGIC201800430-0016","latitude":"35.315745666667","longitude":"133.91452425","source_code":"","project_name":"","survey_name":"\u5929\u795e\u5ddd\u77e2\u9001\u7802\u9632\u5830\u5824\u5916\u5730\u8cea\u8abf\u67fb\u696d\u52d9","client_name":"\u56fd\u571f\u4ea4\u901a\u7701\u4e2d\u56fd\u5730\u65b9\u6574\u5099\u5c40\u5009\u5409\u6cb3\u5ddd\u56fd\u9053\u4e8b\u52d9\u6240\u5de5\u52d9\u7b2c\u4e00\u8ab2","boring_xml_url":47,"boring_view_url":1,"soilmap_view_url":null,"soiltest_xml_url":0,"soiltest_view_url":0},{"id":111074,"code":"NGIC201800430-0015","latitude":"35.315665277778","longitude":"133.91573008333","source_code":"","project_name":"","survey_name":"\u5929\u795e\u5ddd\u77e2\u9001\u7802\u9632\u5830\u5824\u5916\u5730\u8cea\u8abf\u67fb\u696d\u52d9","client_name":"\u56fd\u571f\u4ea4\u901a\u7701\u4e2d\u56fd\u5730\u65b9\u6574\u5099\u5c40\u5009\u5409\u6cb3\u5ddd\u56fd\u9053\u4e8b\u52d9\u6240\u5de5\u52d9\u7b2c\u4e00\u8ab2","boring_xml_url":47,"boring_view_url":1,"soilmap_view_url":null,"soiltest_xml_url":0,"soiltest_view_url":0},{"id":111073,"code":"NGIC201800430-0014","latitude":"35.315696333333","longitude":"133.91526422222","source_code":"","project_name":"","survey_name":"\u5929\u795e\u5ddd\u77e2\u9001\u7802\u9632\u5830\u5824\u5916\u5730\u8cea\u8abf\u67fb\u696d\u52d9","client_name":"\u56fd\u571f\u4ea4\u901a\u7701\u4e2d\u56fd\u5730\u65b9\u6574\u5099\u5c40\u5009\u5409\u6cb3\u5ddd\u56fd\u9053\u4e8b\u52d9\u6240\u5de5\u52d9\u7b2c\u4e00\u8ab2","boring_xml_url":47,"boring_view_url":1,"soilmap_view_url":null,"soiltest_xml_url":0,"soiltest_view_url":0},{"id":111072,"code":"NGIC201800430-0013","latitude":"35.315720444444","longitude":"133.9149025","source_code":"","project_name":"","survey_name":"\u5929\u795e\u5ddd\u77e2\u9001\u7802\u9632\u5830\u5824\u5916\u5730\u8cea\u8abf\u67fb\u696d\u52d9","client_name":"\u56fd\u571f\u4ea4\u901a\u7701\u4e2d\u56fd\u5730\u65b9\u6574\u5099\u5c40\u5009\u5409\u6cb3\u5ddd\u56fd\u9053\u4e8b\u52d9\u6240\u5de5\u52d9\u7b2c\u4e00\u8ab2","boring_xml_url":47,"boring_view_url":1,"soilmap_view_url":null,"soiltest_xml_url":0,"soiltest_view_url":0},{"id":111071,"code":"NGIC201800430-0012","latitude":"35.359940916667","longitude":"133.84149622222","source_code":"","project_name":"","survey_name":"\u5929\u795e\u5ddd\u77e2\u9001\u7802\u9632\u5830\u5824\u5916\u5730\u8cea\u8abf\u67fb\u696d\u52d9","client_name":"\u56fd\u571f\u4ea4\u901a\u7701\u4e2d\u56fd\u5730\u65b9\u6574\u5099\u5c40\u5009\u5409\u6cb3\u5ddd\u56fd\u9053\u4e8b\u52d9\u6240\u5de5\u52d9\u7b2c\u4e00\u8ab2","boring_xml_url":47,"boring_view_url":1,"soilmap_view_url":null,"soiltest_xml_url":0,"soiltest_view_url":0},{"id":111070,"code":"NGIC201800430-0011","latitude":"35.359850138889","longitude":"133.84082558333","source_code":"","project_name":"","survey_name":"\u5929\u795e\u5ddd\u77e2\u9001\u7802\u9632\u5830\u5824\u5916\u5730\u8cea\u8abf\u67fb\u696d\u52d9","client_name":"\u56fd\u571f\u4ea4\u901a\u7701\u4e2d\u56fd\u5730\u65b9\u6574\u5099\u5c40\u5009\u5409\u6cb3\u5ddd\u56fd\u9053\u4e8b\u52d9\u6240\u5de5\u52d9\u7b2c\u4e00\u8ab2","boring_xml_url":47,"boring_view_url":1,"soilmap_view_url":null,"soiltest_xml_url":0,"soiltest_view_url":0},{"id":111069,"code":"NGIC201800430-0010","latitude":"35.36040575","longitude":"133.84035452778","source_code":"","project_name":"","survey_name":"\u5929\u795e\u5ddd\u77e2\u9001\u7802\u9632\u5830\u5824\u5916\u5730\u8cea\u8abf\u67fb\u696d\u52d9","client_name":"\u56fd\u571f\u4ea4\u901a\u7701\u4e2d\u56fd\u5730\u65b9\u6574\u5099\u5c40\u5009\u5409\u6cb3\u5ddd\u56fd\u9053\u4e8b\u52d9\u6240\u5de5\u52d9\u7b2c\u4e00\u8ab2","boring_xml_url":47,"boring_view_url":1,"soilmap_view_url":null,"soiltest_xml_url":0,"soiltest_view_url":0},{"id":111068,"code":"NGIC201800430-0009","latitude":"35.360913555556","longitude":"133.84000447222","source_code":"","project_name":"","survey_name":"\u5929\u795e\u5ddd\u77e2\u9001\u7802\u9632\u5830\u5824\u5916\u5730\u8cea\u8abf\u67fb\u696d\u52d9","client_name":"\u56fd\u571f\u4ea4\u901a\u7701\u4e2d\u56fd\u5730\u65b9\u6574\u5099\u5c40\u5009\u5409\u6cb3\u5ddd\u56fd\u9053\u4e8b\u52d9\u6240\u5de5\u52d9\u7b2c\u4e00\u8ab2","boring_xml_url":47,"boring_view_url":1,"soilmap_view_url":null,"soiltest_xml_url":0,"soiltest_view_url":0},{"id":111067,"code":"NGIC201800430-0008","latitude":"35.360636888889","longitude":"133.83971647222","source_code":"","project_name":"","survey_name":"\u5929\u795e\u5ddd\u77e2\u9001\u7802\u9632\u5830\u5824\u5916\u5730\u8cea\u8abf\u67fb\u696d\u52d9","client_name":"\u56fd\u571f\u4ea4\u901a\u7701\u4e2d\u56fd\u5730\u65b9\u6574\u5099\u5c40\u5009\u5409\u6cb3\u5ddd\u56fd\u9053\u4e8b\u52d9\u6240\u5de5\u52d9\u7b2c\u4e00\u8ab2","boring_xml_url":47,"boring_view_url":1,"soilmap_view_url":null,"soiltest_xml_url":0,"soiltest_view_url":0},{"id":111066,"code":"NGIC201800430-0007","latitude":"35.361246333333","longitude":"133.83975430556","source_code":"","project_name":"","survey_name":"\u5929\u795e\u5ddd\u77e2\u9001\u7802\u9632\u5830\u5824\u5916\u5730\u8cea\u8abf\u67fb\u696d\u52d9","client_name":"\u56fd\u571f\u4ea4\u901a\u7701\u4e2d\u56fd\u5730\u65b9\u6574\u5099\u5c40\u5009\u5409\u6cb3\u5ddd\u56fd\u9053\u4e8b\u52d9\u6240\u5de5\u52d9\u7b2c\u4e00\u8ab2","boring_xml_url":47,"boring_view_url":1,"soilmap_view_url":null,"soiltest_xml_url":0,"soiltest_view_url":0},{"id":111065,"code":"NGIC201800430-0006","latitude":"35.36092225","longitude":"133.83973419444","source_code":"","project_name":"","survey_name":"\u5929\u795e\u5ddd\u77e2\u9001\u7802\u9632\u5830\u5824\u5916\u5730\u8cea\u8abf\u67fb\u696d\u52d9","client_name":"\u56fd\u571f\u4ea4\u901a\u7701\u4e2d\u56fd\u5730\u65b9\u6574\u5099\u5c40\u5009\u5409\u6cb3\u5ddd\u56fd\u9053\u4e8b\u52d9\u6240\u5de5\u52d9\u7b2c\u4e00\u8ab2","boring_xml_url":47,"boring_view_url":1,"soilmap_view_url":null,"soiltest_xml_url":0,"soiltest_view_url":0},{"id":111064,"code":"NGIC201800430-0005","latitude":"35.328629916667","longitude":"133.72950130556","source_code":"","project_name":"","survey_name":"\u5929\u795e\u5ddd\u77e2\u9001\u7802\u9632\u5830\u5824\u5916\u5730\u8cea\u8abf\u67fb\u696d\u52d9","client_name":"\u56fd\u571f\u4ea4\u901a\u7701\u4e2d\u56fd\u5730\u65b9\u6574\u5099\u5c40\u5009\u5409\u6cb3\u5ddd\u56fd\u9053\u4e8b\u52d9\u6240\u5de5\u52d9\u7b2c\u4e00\u8ab2","boring_xml_url":47,"boring_view_url":1,"soilmap_view_url":null,"soiltest_xml_url":0,"soiltest_view_url":0},{"id":111063,"code":"NGIC201800430-0004","latitude":"35.328704194444","longitude":"133.73049547222","source_code":"","project_name":"","survey_name":"\u5929\u795e\u5ddd\u77e2\u9001\u7802\u9632\u5830\u5824\u5916\u5730\u8cea\u8abf\u67fb\u696d\u52d9","client_name":"\u56fd\u571f\u4ea4\u901a\u7701\u4e2d\u56fd\u5730\u65b9\u6574\u5099\u5c40\u5009\u5409\u6cb3\u5ddd\u56fd\u9053\u4e8b\u52d9\u6240\u5de5\u52d9\u7b2c\u4e00\u8ab2","boring_xml_url":47,"boring_view_url":1,"soilmap_view_url":null,"soiltest_xml_url":0,"soiltest_view_url":0},{"id":111062,"code":"NGIC201800430-0003","latitude":"35.328603305556","longitude":"133.73017577778","source_code":"","project_name":"","survey_name":"\u5929\u795e\u5ddd\u77e2\u9001\u7802\u9632\u5830\u5824\u5916\u5730\u8cea\u8abf\u67fb\u696d\u52d9","client_name":"\u56fd\u571f\u4ea4\u901a\u7701\u4e2d\u56fd\u5730\u65b9\u6574\u5099\u5c40\u5009\u5409\u6cb3\u5ddd\u56fd\u9053\u4e8b\u52d9\u6240\u5de5\u52d9\u7b2c\u4e00\u8ab2","boring_xml_url":47,"boring_view_url":1,"soilmap_view_url":null,"soiltest_xml_url":47,"soiltest_view_url":47}]}}