{"header":{"xyz":{"source":[],"mosaic":false},"page":6984,"raw":{"soiltest_result":"0","bbox":"57.598333,109.544722,1.933333,163.806111","page":"6984"},"conditions":{"soiltest_result":0,"north":57.598333,"west":109.544722,"south":1.933333,"east":163.806111},"success":true,"message":""},"data":{"meta":{"total":212844,"page":6984,"pages":7095,"count":30},"values":[{"id":110992,"code":"NGIC201800406-0011","latitude":"34.448911805556","longitude":"132.49593111111","source_code":"","project_name":"\u5e83\u5cf6\u897f\u90e8\u5c71\u7cfb\u5730\u8cea\u8abf\u67fb\u696d\u52d9","survey_name":"\u5e83\u5cf6\u897f\u90e8\u5c71\u7cfb\u5730\u8cea\u8abf\u67fb\u696d\u52d9","client_name":"\u56fd\u571f\u4ea4\u901a\u7701\u4e2d\u56fd\u5730\u65b9\u6574\u5099\u5c40\u592a\u7530\u5ddd\u6cb3\u5ddd\u4e8b\u52d9\u6240","boring_xml_url":47,"boring_view_url":1,"soilmap_view_url":null,"soiltest_xml_url":0,"soiltest_view_url":0},{"id":110991,"code":"NGIC201800406-0010","latitude":"34.448849305556","longitude":"132.49576980556","source_code":"","project_name":"\u5e83\u5cf6\u897f\u90e8\u5c71\u7cfb\u5730\u8cea\u8abf\u67fb\u696d\u52d9","survey_name":"\u5e83\u5cf6\u897f\u90e8\u5c71\u7cfb\u5730\u8cea\u8abf\u67fb\u696d\u52d9","client_name":"\u56fd\u571f\u4ea4\u901a\u7701\u4e2d\u56fd\u5730\u65b9\u6574\u5099\u5c40\u592a\u7530\u5ddd\u6cb3\u5ddd\u4e8b\u52d9\u6240","boring_xml_url":47,"boring_view_url":1,"soilmap_view_url":null,"soiltest_xml_url":0,"soiltest_view_url":0},{"id":110990,"code":"NGIC201800406-0009","latitude":"34.44878825","longitude":"132.49561208333","source_code":"","project_name":"\u4e95\u53e3\u53f0_H30-No.3","survey_name":"\u5e83\u5cf6\u897f\u90e8\u5c71\u7cfb\u5730\u8cea\u8abf\u67fb\u696d\u52d9","client_name":"\u56fd\u571f\u4ea4\u901a\u7701\u4e2d\u56fd\u5730\u65b9\u6574\u5099\u5c40\u592a\u7530\u5ddd\u6cb3\u5ddd\u4e8b\u52d9\u6240","boring_xml_url":47,"boring_view_url":1,"soilmap_view_url":null,"soiltest_xml_url":0,"soiltest_view_url":0},{"id":110989,"code":"NGIC201800406-0008","latitude":"34.381285166667","longitude":"132.38328594444","source_code":"","project_name":"\u5e83\u5cf6\u897f\u90e8\u5c71\u7cfb\u5730\u8cea\u8abf\u67fb\u696d\u52d9","survey_name":"\u5e83\u5cf6\u897f\u90e8\u5c71\u7cfb\u5730\u8cea\u8abf\u67fb\u696d\u52d9","client_name":"\u56fd\u571f\u4ea4\u901a\u7701\u4e2d\u56fd\u5730\u65b9\u6574\u5099\u5c40\u592a\u7530\u5ddd\u6cb3\u5ddd\u4e8b\u52d9\u6240","boring_xml_url":47,"boring_view_url":1,"soilmap_view_url":null,"soiltest_xml_url":0,"soiltest_view_url":0},{"id":110988,"code":"NGIC201800406-0007","latitude":"34.381404916667","longitude":"132.383347","source_code":"","project_name":"\u5e83\u5cf6\u897f\u90e8\u5c71\u7cfb\u5730\u8cea\u8abf\u67fb\u696d\u52d9","survey_name":"\u5e83\u5cf6\u897f\u90e8\u5c71\u7cfb\u5730\u8cea\u8abf\u67fb\u696d\u52d9","client_name":"\u56fd\u571f\u4ea4\u901a\u7701\u4e2d\u56fd\u5730\u65b9\u6574\u5099\u5c40\u592a\u7530\u5ddd\u6cb3\u5ddd\u4e8b\u52d9\u6240","boring_xml_url":47,"boring_view_url":1,"soilmap_view_url":null,"soiltest_xml_url":0,"soiltest_view_url":0},{"id":110987,"code":"NGIC201800406-0006","latitude":"34.380668472222","longitude":"132.3844365","source_code":"","project_name":"\u5e83\u5cf6\u897f\u90e8\u5c71\u7cfb\u5730\u8cea\u8abf\u67fb\u696d\u52d9","survey_name":"\u5e83\u5cf6\u897f\u90e8\u5c71\u7cfb\u5730\u8cea\u8abf\u67fb\u696d\u52d9","client_name":"\u56fd\u571f\u4ea4\u901a\u7701\u4e2d\u56fd\u5730\u65b9\u6574\u5099\u5c40\u592a\u7530\u5ddd\u6cb3\u5ddd\u4e8b\u52d9\u6240","boring_xml_url":47,"boring_view_url":1,"soilmap_view_url":null,"soiltest_xml_url":0,"soiltest_view_url":0},{"id":110986,"code":"NGIC201800406-0005","latitude":"34.380839166667","longitude":"132.38446905556","source_code":"","project_name":"\u5e83\u5cf6\u897f\u90e8\u5c71\u7cfb\u5730\u8cea\u8abf\u67fb\u696d\u52d9","survey_name":"\u5e83\u5cf6\u897f\u90e8\u5c71\u7cfb\u5730\u8cea\u8abf\u67fb\u696d\u52d9","client_name":"\u56fd\u571f\u4ea4\u901a\u7701\u4e2d\u56fd\u5730\u65b9\u6574\u5099\u5c40\u592a\u7530\u5ddd\u6cb3\u5ddd\u4e8b\u52d9\u6240","boring_xml_url":47,"boring_view_url":1,"soilmap_view_url":null,"soiltest_xml_url":0,"soiltest_view_url":0},{"id":110985,"code":"NGIC201800406-0004","latitude":"34.450643527778","longitude":"132.50199827778","source_code":"","project_name":"\u5e83\u5cf6\u897f\u90e8\u5c71\u7cfb\u5730\u8cea\u8abf\u67fb\u696d\u52d9","survey_name":"\u5e83\u5cf6\u897f\u90e8\u5c71\u7cfb\u5730\u8cea\u8abf\u67fb\u696d\u52d9","client_name":"\u56fd\u571f\u4ea4\u901a\u7701\u4e2d\u56fd\u5730\u65b9\u6574\u5099\u5c40\u592a\u7530\u5ddd\u6cb3\u5ddd\u4e8b\u52d9\u6240","boring_xml_url":47,"boring_view_url":1,"soilmap_view_url":null,"soiltest_xml_url":0,"soiltest_view_url":0},{"id":110984,"code":"NGIC201800406-0003","latitude":"34.450453138889","longitude":"132.50182577778","source_code":"","project_name":"\u5e83\u5cf6\u897f\u90e8\u5c71\u7cfb\u5730\u8cea\u8abf\u67fb\u696d\u52d9","survey_name":"\u5e83\u5cf6\u897f\u90e8\u5c71\u7cfb\u5730\u8cea\u8abf\u67fb\u696d\u52d9","client_name":"\u56fd\u571f\u4ea4\u901a\u7701\u4e2d\u56fd\u5730\u65b9\u6574\u5099\u5c40\u592a\u7530\u5ddd\u6cb3\u5ddd\u4e8b\u52d9\u6240","boring_xml_url":47,"boring_view_url":1,"soilmap_view_url":null,"soiltest_xml_url":0,"soiltest_view_url":0},{"id":110983,"code":"NGIC201800406-0002","latitude":"34.45045525","longitude":"132.50216861111","source_code":"","project_name":"\u5e83\u5cf6\u897f\u90e8\u5c71\u7cfb\u5730\u8cea\u8abf\u67fb\u696d\u52d9","survey_name":"\u5e83\u5cf6\u897f\u90e8\u5c71\u7cfb\u5730\u8cea\u8abf\u67fb\u696d\u52d9","client_name":"\u56fd\u571f\u4ea4\u901a\u7701\u4e2d\u56fd\u5730\u65b9\u6574\u5099\u5c40\u592a\u7530\u5ddd\u6cb3\u5ddd\u4e8b\u52d9\u6240","boring_xml_url":47,"boring_view_url":1,"soilmap_view_url":null,"soiltest_xml_url":0,"soiltest_view_url":0},{"id":110982,"code":"NGIC201800406-0001","latitude":"34.450454194444","longitude":"132.50199991667","source_code":"","project_name":"\u5e83\u5cf6\u897f\u90e8\u5c71\u7cfb\u5730\u8cea\u8abf\u67fb\u696d\u52d9","survey_name":"\u5e83\u5cf6\u897f\u90e8\u5c71\u7cfb\u5730\u8cea\u8abf\u67fb\u696d\u52d9","client_name":"\u56fd\u571f\u4ea4\u901a\u7701\u4e2d\u56fd\u5730\u65b9\u6574\u5099\u5c40\u592a\u7530\u5ddd\u6cb3\u5ddd\u4e8b\u52d9\u6240","boring_xml_url":47,"boring_view_url":1,"soilmap_view_url":null,"soiltest_xml_url":0,"soiltest_view_url":0},{"id":110981,"code":"NGIC201800386-0003","latitude":"34.739166916667","longitude":"135.23490530556","source_code":"","project_name":"\u4e00\u30f6\u8c37\u5730\u533a\u659c\u9762\u5bfe\u7b56\u8a2d\u8a08\u696d\u52d9","survey_name":"\u4e00\u30f6\u8c37\u5730\u533a\u659c\u9762\u5bfe\u7b56\u8a2d\u8a08\u696d\u52d9","client_name":"\u56fd\u571f\u4ea4\u901a\u7701\u8fd1\u757f\u5730\u65b9\u6574\u5099\u5c40\u516d\u7532\u7802\u9632\u4e8b\u52d9\u6240","boring_xml_url":47,"boring_view_url":1,"soilmap_view_url":null,"soiltest_xml_url":0,"soiltest_view_url":0},{"id":110980,"code":"NGIC201800386-0002","latitude":"34.739090388889","longitude":"135.23501133333","source_code":"","project_name":"\u4e00\u30f6\u8c37\u5730\u533a\u659c\u9762\u5bfe\u7b56\u8a2d\u8a08\u696d\u52d9","survey_name":"\u4e00\u30f6\u8c37\u5730\u533a\u659c\u9762\u5bfe\u7b56\u8a2d\u8a08\u696d\u52d9","client_name":"\u56fd\u571f\u4ea4\u901a\u7701\u8fd1\u757f\u5730\u65b9\u6574\u5099\u5c40\u516d\u7532\u7802\u9632\u4e8b\u52d9\u6240","boring_xml_url":47,"boring_view_url":1,"soilmap_view_url":null,"soiltest_xml_url":0,"soiltest_view_url":0},{"id":110979,"code":"NGIC201800386-0001","latitude":"34.739003305556","longitude":"135.23509894444","source_code":"","project_name":"\u4e00\u30f6\u8c37\u5730\u533a\u659c\u9762\u5bfe\u7b56\u8a2d\u8a08\u696d\u52d9","survey_name":"\u4e00\u30f6\u8c37\u5730\u533a\u659c\u9762\u5bfe\u7b56\u8a2d\u8a08\u696d\u52d9","client_name":"\u56fd\u571f\u4ea4\u901a\u7701\u8fd1\u757f\u5730\u65b9\u6574\u5099\u5c40\u516d\u7532\u7802\u9632\u4e8b\u52d9\u6240","boring_xml_url":47,"boring_view_url":1,"soilmap_view_url":null,"soiltest_xml_url":0,"soiltest_view_url":0},{"id":110978,"code":"NGIC201800422-0011","latitude":"35.997672222222","longitude":"139.50807777778","source_code":"","project_name":"","survey_name":"H30\u8352\u5ddd\u7b2c\u4e09\u8abf\u7bc0\u6c60\u5730\u8cea\u8abf\u67fb(\u305d\u306e2)\u696d\u52d9","client_name":"\u56fd\u571f\u4ea4\u901a\u7701\u95a2\u6771\u5730\u65b9\u6574\u5099\u5c40\u8352\u5ddd\u4e0a\u6d41\u6cb3\u5ddd\u4e8b\u52d9\u6240","boring_xml_url":47,"boring_view_url":1,"soilmap_view_url":null,"soiltest_xml_url":47,"soiltest_view_url":47},{"id":110977,"code":"NGIC201800422-0010","latitude":"35.962419444444","longitude":"139.53986388889","source_code":"","project_name":"","survey_name":"H30\u8352\u5ddd\u7b2c\u4e09\u8abf\u7bc0\u6c60\u5730\u8cea\u8abf\u67fb(\u305d\u306e2)\u696d\u52d9","client_name":"\u56fd\u571f\u4ea4\u901a\u7701\u95a2\u6771\u5730\u65b9\u6574\u5099\u5c40\u8352\u5ddd\u4e0a\u6d41\u6cb3\u5ddd\u4e8b\u52d9\u6240","boring_xml_url":47,"boring_view_url":1,"soilmap_view_url":null,"soiltest_xml_url":47,"soiltest_view_url":47},{"id":110976,"code":"NGIC201800422-0009","latitude":"35.952636111111","longitude":"139.54529166667","source_code":"","project_name":"","survey_name":"H30\u8352\u5ddd\u7b2c\u4e09\u8abf\u7bc0\u6c60\u5730\u8cea\u8abf\u67fb(\u305d\u306e2)\u696d\u52d9","client_name":"\u56fd\u571f\u4ea4\u901a\u7701\u95a2\u6771\u5730\u65b9\u6574\u5099\u5c40\u8352\u5ddd\u4e0a\u6d41\u6cb3\u5ddd\u4e8b\u52d9\u6240","boring_xml_url":47,"boring_view_url":1,"soilmap_view_url":null,"soiltest_xml_url":47,"soiltest_view_url":47},{"id":110975,"code":"NGIC201800422-0008","latitude":"35.951844444444","longitude":"139.53190555556","source_code":"","project_name":"","survey_name":"H30\u8352\u5ddd\u7b2c\u4e09\u8abf\u7bc0\u6c60\u5730\u8cea\u8abf\u67fb(\u305d\u306e2)\u696d\u52d9","client_name":"\u56fd\u571f\u4ea4\u901a\u7701\u95a2\u6771\u5730\u65b9\u6574\u5099\u5c40\u8352\u5ddd\u4e0a\u6d41\u6cb3\u5ddd\u4e8b\u52d9\u6240","boring_xml_url":47,"boring_view_url":1,"soilmap_view_url":null,"soiltest_xml_url":47,"soiltest_view_url":47},{"id":110974,"code":"NGIC201800422-0007","latitude":"35.949197222222","longitude":"139.53343333333","source_code":"","project_name":"","survey_name":"H30\u8352\u5ddd\u7b2c\u4e09\u8abf\u7bc0\u6c60\u5730\u8cea\u8abf\u67fb(\u305d\u306e2)\u696d\u52d9","client_name":"\u56fd\u571f\u4ea4\u901a\u7701\u95a2\u6771\u5730\u65b9\u6574\u5099\u5c40\u8352\u5ddd\u4e0a\u6d41\u6cb3\u5ddd\u4e8b\u52d9\u6240","boring_xml_url":47,"boring_view_url":1,"soilmap_view_url":null,"soiltest_xml_url":47,"soiltest_view_url":47},{"id":110973,"code":"NGIC201800422-0006","latitude":"35.943430555556","longitude":"139.53618611111","source_code":"","project_name":"","survey_name":"H30\u8352\u5ddd\u7b2c\u4e09\u8abf\u7bc0\u6c60\u5730\u8cea\u8abf\u67fb(\u305d\u306e2)\u696d\u52d9","client_name":"\u56fd\u571f\u4ea4\u901a\u7701\u95a2\u6771\u5730\u65b9\u6574\u5099\u5c40\u8352\u5ddd\u4e0a\u6d41\u6cb3\u5ddd\u4e8b\u52d9\u6240","boring_xml_url":47,"boring_view_url":1,"soilmap_view_url":null,"soiltest_xml_url":47,"soiltest_view_url":47},{"id":110972,"code":"NGIC201800422-0005","latitude":"35.933027777778","longitude":"139.53815","source_code":"","project_name":"","survey_name":"H30\u8352\u5ddd\u7b2c\u4e09\u8abf\u7bc0\u6c60\u5730\u8cea\u8abf\u67fb(\u305d\u306e2)\u696d\u52d9","client_name":"\u56fd\u571f\u4ea4\u901a\u7701\u95a2\u6771\u5730\u65b9\u6574\u5099\u5c40\u8352\u5ddd\u4e0a\u6d41\u6cb3\u5ddd\u4e8b\u52d9\u6240","boring_xml_url":47,"boring_view_url":1,"soilmap_view_url":null,"soiltest_xml_url":47,"soiltest_view_url":47},{"id":110971,"code":"NGIC201800422-0004","latitude":"35.928519444444","longitude":"139.53869722222","source_code":"","project_name":"","survey_name":"H30\u8352\u5ddd\u7b2c\u4e09\u8abf\u7bc0\u6c60\u5730\u8cea\u8abf\u67fb(\u305d\u306e2)\u696d\u52d9","client_name":"\u56fd\u571f\u4ea4\u901a\u7701\u95a2\u6771\u5730\u65b9\u6574\u5099\u5c40\u8352\u5ddd\u4e0a\u6d41\u6cb3\u5ddd\u4e8b\u52d9\u6240","boring_xml_url":47,"boring_view_url":1,"soilmap_view_url":null,"soiltest_xml_url":47,"soiltest_view_url":47},{"id":110970,"code":"NGIC201800422-0003","latitude":"35.930972222222","longitude":"139.543775","source_code":"","project_name":"","survey_name":"H30\u8352\u5ddd\u7b2c\u4e09\u8abf\u7bc0\u6c60\u5730\u8cea\u8abf\u67fb(\u305d\u306e2)\u696d\u52d9","client_name":"\u56fd\u571f\u4ea4\u901a\u7701\u95a2\u6771\u5730\u65b9\u6574\u5099\u5c40\u8352\u5ddd\u4e0a\u6d41\u6cb3\u5ddd\u4e8b\u52d9\u6240","boring_xml_url":47,"boring_view_url":1,"soilmap_view_url":null,"soiltest_xml_url":47,"soiltest_view_url":47},{"id":110969,"code":"NGIC201800422-0002","latitude":"35.927063888889","longitude":"139.54387777778","source_code":"","project_name":"","survey_name":"H30\u8352\u5ddd\u7b2c\u4e09\u8abf\u7bc0\u6c60\u5730\u8cea\u8abf\u67fb(\u305d\u306e2)\u696d\u52d9","client_name":"\u56fd\u571f\u4ea4\u901a\u7701\u95a2\u6771\u5730\u65b9\u6574\u5099\u5c40\u8352\u5ddd\u4e0a\u6d41\u6cb3\u5ddd\u4e8b\u52d9\u6240","boring_xml_url":47,"boring_view_url":1,"soilmap_view_url":null,"soiltest_xml_url":47,"soiltest_view_url":47},{"id":110968,"code":"NGIC201800422-0001","latitude":"35.923438888889","longitude":"139.54474444444","source_code":"","project_name":"","survey_name":"H30\u8352\u5ddd\u7b2c\u4e09\u8abf\u7bc0\u6c60\u5730\u8cea\u8abf\u67fb(\u305d\u306e2)\u696d\u52d9","client_name":"\u56fd\u571f\u4ea4\u901a\u7701\u95a2\u6771\u5730\u65b9\u6574\u5099\u5c40\u8352\u5ddd\u4e0a\u6d41\u6cb3\u5ddd\u4e8b\u52d9\u6240","boring_xml_url":47,"boring_view_url":1,"soilmap_view_url":null,"soiltest_xml_url":47,"soiltest_view_url":47},{"id":110967,"code":"NGIC201800420-0004","latitude":"35.212891666667","longitude":"136.97863888889","source_code":"","project_name":"","survey_name":"\u5e73\u621030\u5e74\u5ea6302\u53f7\u6771\u5317\u90e8\u5730\u8cea\u8abf\u67fb\u696d\u52d9","client_name":"\u56fd\u571f\u4ea4\u901a\u7701\u4e2d\u90e8\u5730\u65b9\u6574\u5099\u5c40\u611b\u77e5\u56fd\u9053\u4e8b\u52d9\u6240","boring_xml_url":47,"boring_view_url":1,"soilmap_view_url":null,"soiltest_xml_url":47,"soiltest_view_url":47},{"id":110966,"code":"NGIC201800420-0003","latitude":"35.220066666667","longitude":"136.97267777778","source_code":"","project_name":"","survey_name":"\u5e73\u621030\u5e74\u5ea6302\u53f7\u6771\u5317\u90e8\u5730\u8cea\u8abf\u67fb\u696d\u52d9","client_name":"\u56fd\u571f\u4ea4\u901a\u7701\u4e2d\u90e8\u5730\u65b9\u6574\u5099\u5c40\u611b\u77e5\u56fd\u9053\u4e8b\u52d9\u6240","boring_xml_url":47,"boring_view_url":1,"soilmap_view_url":null,"soiltest_xml_url":47,"soiltest_view_url":47},{"id":110965,"code":"NGIC201800420-0002","latitude":"35.219880555556","longitude":"136.97288055556","source_code":"","project_name":"","survey_name":"\u5e73\u621030\u5e74\u5ea6302\u53f7\u6771\u5317\u90e8\u5730\u8cea\u8abf\u67fb\u696d\u52d9","client_name":"\u56fd\u571f\u4ea4\u901a\u7701\u4e2d\u90e8\u5730\u65b9\u6574\u5099\u5c40\u611b\u77e5\u56fd\u9053\u4e8b\u52d9\u6240","boring_xml_url":47,"boring_view_url":1,"soilmap_view_url":null,"soiltest_xml_url":47,"soiltest_view_url":47},{"id":110964,"code":"NGIC201800420-0001","latitude":"35.220522222222","longitude":"136.97236388889","source_code":"","project_name":"","survey_name":"\u5e73\u621030\u5e74\u5ea6302\u53f7\u6771\u5317\u90e8\u5730\u8cea\u8abf\u67fb\u696d\u52d9","client_name":"\u56fd\u571f\u4ea4\u901a\u7701\u4e2d\u90e8\u5730\u65b9\u6574\u5099\u5c40\u611b\u77e5\u56fd\u9053\u4e8b\u52d9\u6240","boring_xml_url":47,"boring_view_url":1,"soilmap_view_url":null,"soiltest_xml_url":47,"soiltest_view_url":47},{"id":110954,"code":"NGIC201800421-0009","latitude":"35.738694444444","longitude":"138.08147222222","source_code":"","project_name":"\u5e73\u621030\u5e74\u5ea6\u5929\u7adc\u5ddd\u6c34\u7cfb\u4e09\u5cf0\u5ddd\u7802\u9632\u7ba1\u5185\u5730\u8cea\u8abf\u67fb\u696d\u52d9","survey_name":"\u5e73\u621030\u5e74\u5ea6\u5929\u7adc\u5ddd\u6c34\u7cfb\u4e09\u5cf0\u5ddd\u7802\u9632\u7ba1\u5185\u5730\u8cea\u8abf\u67fb\u696d\u52d9","client_name":"\u56fd\u571f\u4ea4\u901a\u7701\u4e2d\u90e8\u5730\u65b9\u6574\u5099\u5c40\u5929\u7adc\u5ddd\u4e0a\u6d41\u6cb3\u5ddd\u4e8b\u52d9\u6240","boring_xml_url":47,"boring_view_url":1,"soilmap_view_url":null,"soiltest_xml_url":0,"soiltest_view_url":0}]}}