{"header":{"xyz":{"source":[],"mosaic":false},"page":6988,"raw":{"soiltest_result":"0","bbox":"57.598333,109.544722,1.933333,163.806111","page":"6988"},"conditions":{"soiltest_result":0,"north":57.598333,"west":109.544722,"south":1.933333,"east":163.806111},"success":true,"message":""},"data":{"meta":{"total":212844,"page":6988,"pages":7095,"count":30},"values":[{"id":110863,"code":"NGIC201800394-0006","latitude":"34.70128625","longitude":"138.93764222222","source_code":"","project_name":"","survey_name":"\u5e73\u621030\u5e74\u5ea6\u6cb3\u6d25\u4e0b\u7530\u9053\u8def1\u671f\u5317\u90e8\u5730\u8cea\u8abf\u67fb\u696d\u52d9","client_name":"\u56fd\u571f\u4ea4\u901a\u7701\u4e2d\u90e8\u5730\u65b9\u6574\u5099\u5c40\u6cbc\u6d25\u6cb3\u5ddd\u56fd\u9053\u4e8b\u52d9\u6240","boring_xml_url":47,"boring_view_url":1,"soilmap_view_url":null,"soiltest_xml_url":0,"soiltest_view_url":0},{"id":110862,"code":"NGIC201800394-0005","latitude":"34.701414388889","longitude":"138.937011","source_code":"","project_name":"","survey_name":"\u5e73\u621030\u5e74\u5ea6\u6cb3\u6d25\u4e0b\u7530\u9053\u8def1\u671f\u5317\u90e8\u5730\u8cea\u8abf\u67fb\u696d\u52d9","client_name":"\u56fd\u571f\u4ea4\u901a\u7701\u4e2d\u90e8\u5730\u65b9\u6574\u5099\u5c40\u6cbc\u6d25\u6cb3\u5ddd\u56fd\u9053\u4e8b\u52d9\u6240","boring_xml_url":47,"boring_view_url":1,"soilmap_view_url":null,"soiltest_xml_url":0,"soiltest_view_url":0},{"id":110861,"code":"NGIC201800394-0004","latitude":"34.702537388889","longitude":"138.93637747222","source_code":"","project_name":"","survey_name":"\u5e73\u621030\u5e74\u5ea6\u6cb3\u6d25\u4e0b\u7530\u9053\u8def1\u671f\u5317\u90e8\u5730\u8cea\u8abf\u67fb\u696d\u52d9","client_name":"\u56fd\u571f\u4ea4\u901a\u7701\u4e2d\u90e8\u5730\u65b9\u6574\u5099\u5c40\u6cbc\u6d25\u6cb3\u5ddd\u56fd\u9053\u4e8b\u52d9\u6240","boring_xml_url":47,"boring_view_url":1,"soilmap_view_url":null,"soiltest_xml_url":0,"soiltest_view_url":0},{"id":110860,"code":"NGIC201800394-0003","latitude":"34.702314472222","longitude":"138.93710027778","source_code":"","project_name":"","survey_name":"\u5e73\u621030\u5e74\u5ea6\u6cb3\u6d25\u4e0b\u7530\u9053\u8def1\u671f\u5317\u90e8\u5730\u8cea\u8abf\u67fb\u696d\u52d9","client_name":"\u56fd\u571f\u4ea4\u901a\u7701\u4e2d\u90e8\u5730\u65b9\u6574\u5099\u5c40\u6cbc\u6d25\u6cb3\u5ddd\u56fd\u9053\u4e8b\u52d9\u6240","boring_xml_url":47,"boring_view_url":1,"soilmap_view_url":null,"soiltest_xml_url":0,"soiltest_view_url":0},{"id":110859,"code":"NGIC201800394-0002","latitude":"34.704448583333","longitude":"138.93789908333","source_code":"","project_name":"","survey_name":"\u5e73\u621030\u5e74\u5ea6\u6cb3\u6d25\u4e0b\u7530\u9053\u8def1\u671f\u5317\u90e8\u5730\u8cea\u8abf\u67fb\u696d\u52d9","client_name":"\u56fd\u571f\u4ea4\u901a\u7701\u4e2d\u90e8\u5730\u65b9\u6574\u5099\u5c40\u6cbc\u6d25\u6cb3\u5ddd\u56fd\u9053\u4e8b\u52d9\u6240","boring_xml_url":47,"boring_view_url":1,"soilmap_view_url":null,"soiltest_xml_url":0,"soiltest_view_url":0},{"id":110858,"code":"NGIC201800394-0001","latitude":"34.705372694444","longitude":"138.93697958333","source_code":"","project_name":"","survey_name":"\u5e73\u621030\u5e74\u5ea6\u6cb3\u6d25\u4e0b\u7530\u9053\u8def1\u671f\u5317\u90e8\u5730\u8cea\u8abf\u67fb\u696d\u52d9","client_name":"\u56fd\u571f\u4ea4\u901a\u7701\u4e2d\u90e8\u5730\u65b9\u6574\u5099\u5c40\u6cbc\u6d25\u6cb3\u5ddd\u56fd\u9053\u4e8b\u52d9\u6240","boring_xml_url":47,"boring_view_url":1,"soilmap_view_url":null,"soiltest_xml_url":0,"soiltest_view_url":0},{"id":110857,"code":"NGIC201800403-0006","latitude":"35.913211361111","longitude":"139.53933813889","source_code":"","project_name":"\u8352\u5ddd\u76f4\u8f44\u6cb3\u5ddd\u6539\u4fee\u4e8b\u696d","survey_name":"H30\u8352\u5ddd\u7b2c\u4e09\u8abf\u7bc0\u6c60\u5730\u8cea\u8abf\u67fb\uff08\u305d\u306e1\uff09\u696d\u52d9\uff08\u53e4\u8c37\u6a0b\u7ba1\u5730\u8cea\u8abf\u67fb\uff09","client_name":"\u56fd\u571f\u4ea4\u901a\u7701\u95a2\u6771\u5730\u65b9\u6574\u5099\u5c40\u8352\u5ddd\u4e0a\u6d41\u6cb3\u5ddd\u4e8b\u52d9\u6240","boring_xml_url":47,"boring_view_url":1,"soilmap_view_url":null,"soiltest_xml_url":47,"soiltest_view_url":47},{"id":110856,"code":"NGIC201800403-0005","latitude":"35.913727805556","longitude":"139.53952830556","source_code":"","project_name":"\u8352\u5ddd\u76f4\u8f44\u6cb3\u5ddd\u6539\u4fee\u4e8b\u696d","survey_name":"H30\u8352\u5ddd\u7b2c\u4e09\u8abf\u7bc0\u6c60\u5730\u8cea\u8abf\u67fb\uff08\u305d\u306e1\uff09\u696d\u52d9\uff08\u53e4\u8c37\u6a0b\u7ba1\u5730\u8cea\u8abf\u67fb\uff09","client_name":"\u56fd\u571f\u4ea4\u901a\u7701\u95a2\u6771\u5730\u65b9\u6574\u5099\u5c40\u8352\u5ddd\u4e0a\u6d41\u6cb3\u5ddd\u4e8b\u52d9\u6240","boring_xml_url":47,"boring_view_url":1,"soilmap_view_url":null,"soiltest_xml_url":47,"soiltest_view_url":47},{"id":110855,"code":"NGIC201800403-0004","latitude":"35.914190611111","longitude":"139.53897375","source_code":"","project_name":"\u8352\u5ddd\u76f4\u8f44\u6cb3\u5ddd\u6539\u4fee\u4e8b\u696d","survey_name":"H30\u8352\u5ddd\u7b2c\u4e09\u8abf\u7bc0\u6c60\u5730\u8cea\u8abf\u67fb\uff08\u305d\u306e1\uff09\u696d\u52d9\uff08\u53e4\u8c37\u6a0b\u7ba1\u5730\u8cea\u8abf\u67fb\uff09","client_name":"\u56fd\u571f\u4ea4\u901a\u7701\u95a2\u6771\u5730\u65b9\u6574\u5099\u5c40\u8352\u5ddd\u4e0a\u6d41\u6cb3\u5ddd\u4e8b\u52d9\u6240","boring_xml_url":47,"boring_view_url":1,"soilmap_view_url":null,"soiltest_xml_url":47,"soiltest_view_url":47},{"id":110854,"code":"NGIC201800403-0003","latitude":"35.913474027778","longitude":"139.53900788889","source_code":"","project_name":"\u8352\u5ddd\u76f4\u8f44\u6cb3\u5ddd\u6539\u4fee\u4e8b\u696d","survey_name":"H30\u8352\u5ddd\u7b2c\u4e09\u8abf\u7bc0\u6c60\u5730\u8cea\u8abf\u67fb\uff08\u305d\u306e1\uff09\u696d\u52d9\uff08\u53e4\u8c37\u6a0b\u7ba1\u5730\u8cea\u8abf\u67fb\uff09","client_name":"\u56fd\u571f\u4ea4\u901a\u7701\u95a2\u6771\u5730\u65b9\u6574\u5099\u5c40\u8352\u5ddd\u4e0a\u6d41\u6cb3\u5ddd\u4e8b\u52d9\u6240","boring_xml_url":47,"boring_view_url":1,"soilmap_view_url":null,"soiltest_xml_url":47,"soiltest_view_url":47},{"id":110853,"code":"NGIC201800403-0002","latitude":"35.913444666667","longitude":"139.53842175","source_code":"","project_name":"\u8352\u5ddd\u76f4\u8f44\u6cb3\u5ddd\u6539\u4fee\u4e8b\u696d","survey_name":"H30\u8352\u5ddd\u7b2c\u4e09\u8abf\u7bc0\u6c60\u5730\u8cea\u8abf\u67fb\uff08\u305d\u306e1\uff09\u696d\u52d9\uff08\u53e4\u8c37\u6a0b\u7ba1\u5730\u8cea\u8abf\u67fb\uff09","client_name":"\u56fd\u571f\u4ea4\u901a\u7701\u95a2\u6771\u5730\u65b9\u6574\u5099\u5c40\u8352\u5ddd\u4e0a\u6d41\u6cb3\u5ddd\u4e8b\u52d9\u6240","boring_xml_url":47,"boring_view_url":1,"soilmap_view_url":null,"soiltest_xml_url":47,"soiltest_view_url":47},{"id":110852,"code":"NGIC201800403-0001","latitude":"35.913372861111","longitude":"139.53816208333","source_code":"","project_name":"\u8352\u5ddd\u76f4\u8f44\u6cb3\u5ddd\u6539\u4fee\u4e8b\u696d","survey_name":"H30\u8352\u5ddd\u7b2c\u4e09\u8abf\u7bc0\u6c60\u5730\u8cea\u8abf\u67fb\uff08\u305d\u306e1\uff09\u696d\u52d9\uff08\u53e4\u8c37\u6a0b\u7ba1\u5730\u8cea\u8abf\u67fb\uff09","client_name":"\u56fd\u571f\u4ea4\u901a\u7701\u95a2\u6771\u5730\u65b9\u6574\u5099\u5c40\u8352\u5ddd\u4e0a\u6d41\u6cb3\u5ddd\u4e8b\u52d9\u6240","boring_xml_url":47,"boring_view_url":1,"soilmap_view_url":null,"soiltest_xml_url":47,"soiltest_view_url":47},{"id":110851,"code":"NGIC201800402-0011","latitude":"35.918470416667","longitude":"139.54671819444","source_code":"","project_name":"\u8352\u5ddd\u76f4\u8f44\u6cb3\u5ddd\u6539\u4fee\u4e8b\u696d","survey_name":"H30\u8352\u5ddd\u7b2c\u4e09\u8abf\u7bc0\u6c60\u5730\u8cea\u8abf\u67fb\uff08\u305d\u306e1\uff09\u696d\u52d9","client_name":"\u56fd\u571f\u4ea4\u901a\u7701\u95a2\u6771\u5730\u65b9\u6574\u5099\u5c40\u8352\u5ddd\u4e0a\u6d41\u6cb3\u5ddd\u4e8b\u52d9\u6240","boring_xml_url":47,"boring_view_url":1,"soilmap_view_url":null,"soiltest_xml_url":47,"soiltest_view_url":47},{"id":110850,"code":"NGIC201800402-0010","latitude":"35.919138583333","longitude":"139.54867827778","source_code":"","project_name":"\u8352\u5ddd\u76f4\u8f44\u6cb3\u5ddd\u6539\u4fee\u4e8b\u696d","survey_name":"H30\u8352\u5ddd\u7b2c\u4e09\u8abf\u7bc0\u6c60\u5730\u8cea\u8abf\u67fb\uff08\u305d\u306e1\uff09\u696d\u52d9","client_name":"\u56fd\u571f\u4ea4\u901a\u7701\u95a2\u6771\u5730\u65b9\u6574\u5099\u5c40\u8352\u5ddd\u4e0a\u6d41\u6cb3\u5ddd\u4e8b\u52d9\u6240","boring_xml_url":47,"boring_view_url":1,"soilmap_view_url":null,"soiltest_xml_url":47,"soiltest_view_url":47},{"id":110849,"code":"NGIC201800402-0009","latitude":"35.919639861111","longitude":"139.5509285","source_code":"","project_name":"\u8352\u5ddd\u76f4\u8f44\u6cb3\u5ddd\u6539\u4fee\u4e8b\u696d","survey_name":"H30\u8352\u5ddd\u7b2c\u4e09\u8abf\u7bc0\u6c60\u5730\u8cea\u8abf\u67fb\uff08\u305d\u306e1\uff09\u696d\u52d9","client_name":"\u56fd\u571f\u4ea4\u901a\u7701\u95a2\u6771\u5730\u65b9\u6574\u5099\u5c40\u8352\u5ddd\u4e0a\u6d41\u6cb3\u5ddd\u4e8b\u52d9\u6240","boring_xml_url":47,"boring_view_url":1,"soilmap_view_url":null,"soiltest_xml_url":47,"soiltest_view_url":47},{"id":110848,"code":"NGIC201800402-0008","latitude":"35.920981416667","longitude":"139.55286383333","source_code":"","project_name":"\u8352\u5ddd\u76f4\u8f44\u6cb3\u5ddd\u6539\u4fee\u4e8b\u696d","survey_name":"H30\u8352\u5ddd\u7b2c\u4e09\u8abf\u7bc0\u6c60\u5730\u8cea\u8abf\u67fb\uff08\u305d\u306e1\uff09\u696d\u52d9","client_name":"\u56fd\u571f\u4ea4\u901a\u7701\u95a2\u6771\u5730\u65b9\u6574\u5099\u5c40\u8352\u5ddd\u4e0a\u6d41\u6cb3\u5ddd\u4e8b\u52d9\u6240","boring_xml_url":47,"boring_view_url":1,"soilmap_view_url":null,"soiltest_xml_url":0,"soiltest_view_url":0},{"id":110847,"code":"NGIC201800402-0007","latitude":"35.915737416667","longitude":"139.54811936111","source_code":"","project_name":"\u8352\u5ddd\u76f4\u8f44\u6cb3\u5ddd\u6539\u4fee\u4e8b\u696d","survey_name":"H30\u8352\u5ddd\u7b2c\u4e09\u8abf\u7bc0\u6c60\u5730\u8cea\u8abf\u67fb\uff08\u305d\u306e1\uff09\u696d\u52d9","client_name":"\u56fd\u571f\u4ea4\u901a\u7701\u95a2\u6771\u5730\u65b9\u6574\u5099\u5c40\u8352\u5ddd\u4e0a\u6d41\u6cb3\u5ddd\u4e8b\u52d9\u6240","boring_xml_url":47,"boring_view_url":1,"soilmap_view_url":null,"soiltest_xml_url":47,"soiltest_view_url":47},{"id":110846,"code":"NGIC201800402-0006","latitude":"35.916553305556","longitude":"139.55042341667","source_code":"","project_name":"\u8352\u5ddd\u76f4\u8f44\u6cb3\u5ddd\u6539\u4fee\u4e8b\u696d","survey_name":"H30\u8352\u5ddd\u7b2c\u4e09\u8abf\u7bc0\u6c60\u5730\u8cea\u8abf\u67fb\uff08\u305d\u306e1\uff09\u696d\u52d9","client_name":"\u56fd\u571f\u4ea4\u901a\u7701\u95a2\u6771\u5730\u65b9\u6574\u5099\u5c40\u8352\u5ddd\u4e0a\u6d41\u6cb3\u5ddd\u4e8b\u52d9\u6240","boring_xml_url":47,"boring_view_url":1,"soilmap_view_url":null,"soiltest_xml_url":47,"soiltest_view_url":47},{"id":110845,"code":"NGIC201800402-0005","latitude":"35.917973722222","longitude":"139.55175986111","source_code":"","project_name":"\u8352\u5ddd\u76f4\u8f44\u6cb3\u5ddd\u6539\u4fee\u4e8b\u696d","survey_name":"H30\u8352\u5ddd\u7b2c\u4e09\u8abf\u7bc0\u6c60\u5730\u8cea\u8abf\u67fb\uff08\u305d\u306e1\uff09\u696d\u52d9","client_name":"\u56fd\u571f\u4ea4\u901a\u7701\u95a2\u6771\u5730\u65b9\u6574\u5099\u5c40\u8352\u5ddd\u4e0a\u6d41\u6cb3\u5ddd\u4e8b\u52d9\u6240","boring_xml_url":47,"boring_view_url":1,"soilmap_view_url":null,"soiltest_xml_url":47,"soiltest_view_url":47},{"id":110844,"code":"NGIC201800402-0004","latitude":"35.918236222222","longitude":"139.55386288889","source_code":"","project_name":"\u8352\u5ddd\u76f4\u8f44\u6cb3\u5ddd\u6539\u4fee\u4e8b\u696d","survey_name":"H30\u8352\u5ddd\u7b2c\u4e09\u8abf\u7bc0\u6c60\u5730\u8cea\u8abf\u67fb\uff08\u305d\u306e1\uff09\u696d\u52d9","client_name":"\u56fd\u571f\u4ea4\u901a\u7701\u95a2\u6771\u5730\u65b9\u6574\u5099\u5c40\u8352\u5ddd\u4e0a\u6d41\u6cb3\u5ddd\u4e8b\u52d9\u6240","boring_xml_url":47,"boring_view_url":1,"soilmap_view_url":null,"soiltest_xml_url":47,"soiltest_view_url":47},{"id":110843,"code":"NGIC201800402-0003","latitude":"35.917564694444","longitude":"139.55470977778","source_code":"","project_name":"\u8352\u5ddd\u76f4\u8f44\u6cb3\u5ddd\u6539\u4fee\u4e8b\u696d","survey_name":"H30\u8352\u5ddd\u7b2c\u4e09\u8abf\u7bc0\u6c60\u5730\u8cea\u8abf\u67fb\uff08\u305d\u306e1\uff09\u696d\u52d9","client_name":"\u56fd\u571f\u4ea4\u901a\u7701\u95a2\u6771\u5730\u65b9\u6574\u5099\u5c40\u8352\u5ddd\u4e0a\u6d41\u6cb3\u5ddd\u4e8b\u52d9\u6240","boring_xml_url":47,"boring_view_url":1,"soilmap_view_url":null,"soiltest_xml_url":47,"soiltest_view_url":47},{"id":110842,"code":"NGIC201800402-0002","latitude":"35.916073444444","longitude":"139.55582405556","source_code":"","project_name":"\u8352\u5ddd\u76f4\u8f44\u6cb3\u5ddd\u6539\u4fee\u4e8b\u696d","survey_name":"H30\u8352\u5ddd\u7b2c\u4e09\u8abf\u7bc0\u6c60\u5730\u8cea\u8abf\u67fb\uff08\u305d\u306e1\uff09\u696d\u52d9","client_name":"\u56fd\u571f\u4ea4\u901a\u7701\u95a2\u6771\u5730\u65b9\u6574\u5099\u5c40\u8352\u5ddd\u4e0a\u6d41\u6cb3\u5ddd\u4e8b\u52d9\u6240","boring_xml_url":47,"boring_view_url":1,"soilmap_view_url":null,"soiltest_xml_url":47,"soiltest_view_url":47},{"id":110841,"code":"NGIC201800402-0001","latitude":"35.914664222222","longitude":"139.557664","source_code":"","project_name":"\u8352\u5ddd\u76f4\u8f44\u6cb3\u5ddd\u6539\u4fee\u4e8b\u696d","survey_name":"H30\u8352\u5ddd\u7b2c\u4e09\u8abf\u7bc0\u6c60\u5730\u8cea\u8abf\u67fb\uff08\u305d\u306e1\uff09\u696d\u52d9","client_name":"\u56fd\u571f\u4ea4\u901a\u7701\u95a2\u6771\u5730\u65b9\u6574\u5099\u5c40\u8352\u5ddd\u4e0a\u6d41\u6cb3\u5ddd\u4e8b\u52d9\u6240","boring_xml_url":47,"boring_view_url":1,"soilmap_view_url":null,"soiltest_xml_url":0,"soiltest_view_url":0},{"id":110840,"code":"NGIC201800425-0002","latitude":"41.805022222222","longitude":"140.79874722222","source_code":"","project_name":"","survey_name":"\u51fd\u9928\u65b0\u5916\u74b0\u72b6\u9053\u8def \u51fd\u9928\u5e02 \u7a7a\u6e2f\u9053\u8def\u5730\u8cea\u8abf\u67fb\u696d\u52d9","client_name":"\u56fd\u571f\u4ea4\u901a\u7701\u5317\u6d77\u9053\u958b\u767a\u5c40\u51fd\u9928\u958b\u767a\u5efa\u8a2d\u90e8\u51fd\u9928\u9053\u8def\u4e8b\u52d9\u6240","boring_xml_url":47,"boring_view_url":1,"soilmap_view_url":null,"soiltest_xml_url":0,"soiltest_view_url":0},{"id":110839,"code":"NGIC201800425-0001","latitude":"41.804894444444","longitude":"140.79828888889","source_code":"","project_name":"","survey_name":"\u51fd\u9928\u65b0\u5916\u74b0\u72b6\u9053\u8def \u51fd\u9928\u5e02 \u7a7a\u6e2f\u9053\u8def\u5730\u8cea\u8abf\u67fb\u696d\u52d9","client_name":"\u56fd\u571f\u4ea4\u901a\u7701\u5317\u6d77\u9053\u958b\u767a\u5c40\u51fd\u9928\u958b\u767a\u5efa\u8a2d\u90e8\u51fd\u9928\u9053\u8def\u4e8b\u52d9\u6240","boring_xml_url":47,"boring_view_url":1,"soilmap_view_url":null,"soiltest_xml_url":0,"soiltest_view_url":0},{"id":110838,"code":"NGIC201800414-0001","latitude":"35.085833333333","longitude":"136.7","source_code":"","project_name":"","survey_name":"\u5e73\u621030\u5e74\u5ea61\u53f7\u6851\u540d\u6771\u90e8\u9577\u5cf6\u5730\u533a\u6539\u826f\u5de5\u4e8b","client_name":"\u56fd\u571f\u4ea4\u901a\u7701\u4e2d\u90e8\u5730\u65b9\u6574\u5099\u5c40\u5317\u52e2\u56fd\u9053\u4e8b\u52d9\u6240","boring_xml_url":47,"boring_view_url":1,"soilmap_view_url":null,"soiltest_xml_url":0,"soiltest_view_url":0},{"id":110837,"code":"NGIC201800392-0012","latitude":"34.6891375","longitude":"135.25333305556","source_code":"","project_name":"","survey_name":"\u5927\u962a\u6e7e\u5cb8\u9053\u8def\u897f\u4f38\u90e8\u516d\u7532\u30a2\u30a4\u30e9\u30f3\u30c9\u897f\u90e8\u5730\u533a\u5730\u8cea\u8abf\u67fb\u696d\u52d9","client_name":"\u56fd\u571f\u4ea4\u901a\u7701\u8fd1\u757f\u5730\u65b9\u6574\u5099\u5c40\u6d6a\u901f\u56fd\u9053\u4e8b\u52d9\u6240","boring_xml_url":47,"boring_view_url":1,"soilmap_view_url":null,"soiltest_xml_url":47,"soiltest_view_url":47},{"id":110836,"code":"NGIC201800392-0011","latitude":"34.689526944444","longitude":"135.25376472222","source_code":"","project_name":"","survey_name":"\u5927\u962a\u6e7e\u5cb8\u9053\u8def\u897f\u4f38\u90e8\u516d\u7532\u30a2\u30a4\u30e9\u30f3\u30c9\u897f\u90e8\u5730\u533a\u5730\u8cea\u8abf\u67fb\u696d\u52d9","client_name":"\u56fd\u571f\u4ea4\u901a\u7701\u8fd1\u757f\u5730\u65b9\u6574\u5099\u5c40\u6d6a\u901f\u56fd\u9053\u4e8b\u52d9\u6240","boring_xml_url":47,"boring_view_url":1,"soilmap_view_url":null,"soiltest_xml_url":47,"soiltest_view_url":47},{"id":110835,"code":"NGIC201800392-0010","latitude":"34.689258055556","longitude":"135.25411472222","source_code":"","project_name":"","survey_name":"\u5927\u962a\u6e7e\u5cb8\u9053\u8def\u897f\u4f38\u90e8\u516d\u7532\u30a2\u30a4\u30e9\u30f3\u30c9\u897f\u90e8\u5730\u533a\u5730\u8cea\u8abf\u67fb\u696d\u52d9","client_name":"\u56fd\u571f\u4ea4\u901a\u7701\u8fd1\u757f\u5730\u65b9\u6574\u5099\u5c40\u6d6a\u901f\u56fd\u9053\u4e8b\u52d9\u6240","boring_xml_url":47,"boring_view_url":1,"soilmap_view_url":null,"soiltest_xml_url":47,"soiltest_view_url":47},{"id":110834,"code":"NGIC201800392-0009","latitude":"34.689894166667","longitude":"135.25463","source_code":"","project_name":"","survey_name":"\u5927\u962a\u6e7e\u5cb8\u9053\u8def\u897f\u4f38\u90e8\u516d\u7532\u30a2\u30a4\u30e9\u30f3\u30c9\u897f\u90e8\u5730\u533a\u5730\u8cea\u8abf\u67fb\u696d\u52d9","client_name":"\u56fd\u571f\u4ea4\u901a\u7701\u8fd1\u757f\u5730\u65b9\u6574\u5099\u5c40\u6d6a\u901f\u56fd\u9053\u4e8b\u52d9\u6240","boring_xml_url":47,"boring_view_url":1,"soilmap_view_url":null,"soiltest_xml_url":47,"soiltest_view_url":47}]}}