{"header":{"xyz":{"source":[],"mosaic":false},"page":6993,"raw":{"soiltest_result":"0","bbox":"57.598333,109.544722,1.933333,163.806111","page":"6993"},"conditions":{"soiltest_result":0,"north":57.598333,"west":109.544722,"south":1.933333,"east":163.806111},"success":true,"message":""},"data":{"meta":{"total":212844,"page":6993,"pages":7095,"count":30},"values":[{"id":110713,"code":"NGIC201800383-0032","latitude":"35.9893","longitude":"136.52697972222","source_code":"","project_name":"","survey_name":"\u5927\u91ce\u6cb9\u5742\u9053\u8def\u5927\u91ce\u30fb\u5927\u91ce\u6771\u533a\u9593\u5730\u8cea\u8abf\u67fb\u696d\u52d9","client_name":"\u56fd\u571f\u4ea4\u901a\u7701\u8fd1\u757f\u5730\u65b9\u6574\u5099\u5c40\u798f\u4e95\u6cb3\u5ddd\u56fd\u9053\u4e8b\u52d9\u6240","boring_xml_url":47,"boring_view_url":1,"soilmap_view_url":null,"soiltest_xml_url":47,"soiltest_view_url":47},{"id":110712,"code":"NGIC201800383-0031","latitude":"35.990265555556","longitude":"136.52552916667","source_code":"","project_name":"","survey_name":"\u5927\u91ce\u6cb9\u5742\u9053\u8def\u5927\u91ce\u30fb\u5927\u91ce\u6771\u533a\u9593\u5730\u8cea\u8abf\u67fb\u696d\u52d9","client_name":"\u56fd\u571f\u4ea4\u901a\u7701\u8fd1\u757f\u5730\u65b9\u6574\u5099\u5c40\u798f\u4e95\u6cb3\u5ddd\u56fd\u9053\u4e8b\u52d9\u6240","boring_xml_url":47,"boring_view_url":1,"soilmap_view_url":null,"soiltest_xml_url":47,"soiltest_view_url":47},{"id":110711,"code":"NGIC201800383-0030","latitude":"35.991056944444","longitude":"136.52552916667","source_code":"","project_name":"","survey_name":"\u5927\u91ce\u6cb9\u5742\u9053\u8def\u5927\u91ce\u30fb\u5927\u91ce\u6771\u533a\u9593\u5730\u8cea\u8abf\u67fb\u696d\u52d9","client_name":"\u56fd\u571f\u4ea4\u901a\u7701\u8fd1\u757f\u5730\u65b9\u6574\u5099\u5c40\u798f\u4e95\u6cb3\u5ddd\u56fd\u9053\u4e8b\u52d9\u6240","boring_xml_url":47,"boring_view_url":1,"soilmap_view_url":null,"soiltest_xml_url":47,"soiltest_view_url":47},{"id":110710,"code":"NGIC201800383-0029","latitude":"35.991225833333","longitude":"136.52387277778","source_code":"","project_name":"","survey_name":"\u5927\u91ce\u6cb9\u5742\u9053\u8def\u5927\u91ce\u30fb\u5927\u91ce\u6771\u533a\u9593\u5730\u8cea\u8abf\u67fb\u696d\u52d9","client_name":"\u56fd\u571f\u4ea4\u901a\u7701\u8fd1\u757f\u5730\u65b9\u6574\u5099\u5c40\u798f\u4e95\u6cb3\u5ddd\u56fd\u9053\u4e8b\u52d9\u6240","boring_xml_url":47,"boring_view_url":1,"soilmap_view_url":null,"soiltest_xml_url":47,"soiltest_view_url":47},{"id":110709,"code":"NGIC201800383-0028","latitude":"35.991931944444","longitude":"136.52263472222","source_code":"","project_name":"","survey_name":"\u5927\u91ce\u6cb9\u5742\u9053\u8def\u5927\u91ce\u30fb\u5927\u91ce\u6771\u533a\u9593\u5730\u8cea\u8abf\u67fb\u696d\u52d9","client_name":"\u56fd\u571f\u4ea4\u901a\u7701\u8fd1\u757f\u5730\u65b9\u6574\u5099\u5c40\u798f\u4e95\u6cb3\u5ddd\u56fd\u9053\u4e8b\u52d9\u6240","boring_xml_url":47,"boring_view_url":1,"soilmap_view_url":null,"soiltest_xml_url":47,"soiltest_view_url":47},{"id":110708,"code":"NGIC201800383-0027","latitude":"35.992145","longitude":"136.52256722222","source_code":"","project_name":"","survey_name":"\u5927\u91ce\u6cb9\u5742\u9053\u8def\u5927\u91ce\u30fb\u5927\u91ce\u6771\u533a\u9593\u5730\u8cea\u8abf\u67fb\u696d\u52d9","client_name":"\u56fd\u571f\u4ea4\u901a\u7701\u8fd1\u757f\u5730\u65b9\u6574\u5099\u5c40\u798f\u4e95\u6cb3\u5ddd\u56fd\u9053\u4e8b\u52d9\u6240","boring_xml_url":47,"boring_view_url":1,"soilmap_view_url":null,"soiltest_xml_url":47,"soiltest_view_url":47},{"id":110707,"code":"NGIC201800383-0026","latitude":"35.992417777778","longitude":"136.52206138889","source_code":"","project_name":"","survey_name":"\u5927\u91ce\u6cb9\u5742\u9053\u8def\u5927\u91ce\u30fb\u5927\u91ce\u6771\u533a\u9593\u5730\u8cea\u8abf\u67fb\u696d\u52d9","client_name":"\u56fd\u571f\u4ea4\u901a\u7701\u8fd1\u757f\u5730\u65b9\u6574\u5099\u5c40\u798f\u4e95\u6cb3\u5ddd\u56fd\u9053\u4e8b\u52d9\u6240","boring_xml_url":47,"boring_view_url":1,"soilmap_view_url":null,"soiltest_xml_url":47,"soiltest_view_url":47},{"id":110706,"code":"NGIC201800383-0025","latitude":"35.993084722222","longitude":"136.520735","source_code":"","project_name":"","survey_name":"\u5927\u91ce\u6cb9\u5742\u9053\u8def\u5927\u91ce\u30fb\u5927\u91ce\u6771\u533a\u9593\u5730\u8cea\u8abf\u67fb\u696d\u52d9","client_name":"\u56fd\u571f\u4ea4\u901a\u7701\u8fd1\u757f\u5730\u65b9\u6574\u5099\u5c40\u798f\u4e95\u6cb3\u5ddd\u56fd\u9053\u4e8b\u52d9\u6240","boring_xml_url":47,"boring_view_url":1,"soilmap_view_url":null,"soiltest_xml_url":47,"soiltest_view_url":47},{"id":110705,"code":"NGIC201800383-0024","latitude":"35.994394722222","longitude":"136.51918805556","source_code":"","project_name":"","survey_name":"\u5927\u91ce\u6cb9\u5742\u9053\u8def\u5927\u91ce\u30fb\u5927\u91ce\u6771\u533a\u9593\u5730\u8cea\u8abf\u67fb\u696d\u52d9","client_name":"\u56fd\u571f\u4ea4\u901a\u7701\u8fd1\u757f\u5730\u65b9\u6574\u5099\u5c40\u798f\u4e95\u6cb3\u5ddd\u56fd\u9053\u4e8b\u52d9\u6240","boring_xml_url":47,"boring_view_url":1,"soilmap_view_url":null,"soiltest_xml_url":47,"soiltest_view_url":47},{"id":110704,"code":"NGIC201800383-0023","latitude":"35.995610277778","longitude":"136.51644166667","source_code":"","project_name":"","survey_name":"\u5927\u91ce\u6cb9\u5742\u9053\u8def\u5927\u91ce\u30fb\u5927\u91ce\u6771\u533a\u9593\u5730\u8cea\u8abf\u67fb\u696d\u52d9","client_name":"\u56fd\u571f\u4ea4\u901a\u7701\u8fd1\u757f\u5730\u65b9\u6574\u5099\u5c40\u798f\u4e95\u6cb3\u5ddd\u56fd\u9053\u4e8b\u52d9\u6240","boring_xml_url":47,"boring_view_url":1,"soilmap_view_url":null,"soiltest_xml_url":47,"soiltest_view_url":47},{"id":110703,"code":"NGIC201800383-0022","latitude":"35.995782222222","longitude":"136.51604472222","source_code":"","project_name":"","survey_name":"\u5927\u91ce\u6cb9\u5742\u9053\u8def\u5927\u91ce\u30fb\u5927\u91ce\u6771\u533a\u9593\u5730\u8cea\u8abf\u67fb\u696d\u52d9","client_name":"\u56fd\u571f\u4ea4\u901a\u7701\u8fd1\u757f\u5730\u65b9\u6574\u5099\u5c40\u798f\u4e95\u6cb3\u5ddd\u56fd\u9053\u4e8b\u52d9\u6240","boring_xml_url":47,"boring_view_url":1,"soilmap_view_url":null,"soiltest_xml_url":47,"soiltest_view_url":47},{"id":110702,"code":"NGIC201800383-0021","latitude":"35.995964166667","longitude":"136.51559472222","source_code":"","project_name":"","survey_name":"\u5927\u91ce\u6cb9\u5742\u9053\u8def\u5927\u91ce\u30fb\u5927\u91ce\u6771\u533a\u9593\u5730\u8cea\u8abf\u67fb\u696d\u52d9","client_name":"\u56fd\u571f\u4ea4\u901a\u7701\u8fd1\u757f\u5730\u65b9\u6574\u5099\u5c40\u798f\u4e95\u6cb3\u5ddd\u56fd\u9053\u4e8b\u52d9\u6240","boring_xml_url":47,"boring_view_url":1,"soilmap_view_url":null,"soiltest_xml_url":47,"soiltest_view_url":47},{"id":110701,"code":"NGIC201800383-0020","latitude":"35.996053333333","longitude":"136.51509805556","source_code":"","project_name":"","survey_name":"\u5927\u91ce\u6cb9\u5742\u9053\u8def\u5927\u91ce\u30fb\u5927\u91ce\u6771\u533a\u9593\u5730\u8cea\u8abf\u67fb\u696d\u52d9","client_name":"\u56fd\u571f\u4ea4\u901a\u7701\u8fd1\u757f\u5730\u65b9\u6574\u5099\u5c40\u798f\u4e95\u6cb3\u5ddd\u56fd\u9053\u4e8b\u52d9\u6240","boring_xml_url":47,"boring_view_url":1,"soilmap_view_url":null,"soiltest_xml_url":47,"soiltest_view_url":47},{"id":110700,"code":"NGIC201800383-0019","latitude":"35.996231666667","longitude":"136.51460527778","source_code":"","project_name":"","survey_name":"\u5927\u91ce\u6cb9\u5742\u9053\u8def\u5927\u91ce\u30fb\u5927\u91ce\u6771\u533a\u9593\u5730\u8cea\u8abf\u67fb\u696d\u52d9","client_name":"\u56fd\u571f\u4ea4\u901a\u7701\u8fd1\u757f\u5730\u65b9\u6574\u5099\u5c40\u798f\u4e95\u6cb3\u5ddd\u56fd\u9053\u4e8b\u52d9\u6240","boring_xml_url":47,"boring_view_url":1,"soilmap_view_url":null,"soiltest_xml_url":47,"soiltest_view_url":47},{"id":110699,"code":"NGIC201800383-0018","latitude":"35.996312222222","longitude":"136.51413416667","source_code":"","project_name":"","survey_name":"\u5927\u91ce\u6cb9\u5742\u9053\u8def\u5927\u91ce\u30fb\u5927\u91ce\u6771\u533a\u9593\u5730\u8cea\u8abf\u67fb\u696d\u52d9","client_name":"\u56fd\u571f\u4ea4\u901a\u7701\u8fd1\u757f\u5730\u65b9\u6574\u5099\u5c40\u798f\u4e95\u6cb3\u5ddd\u56fd\u9053\u4e8b\u52d9\u6240","boring_xml_url":47,"boring_view_url":1,"soilmap_view_url":null,"soiltest_xml_url":47,"soiltest_view_url":47},{"id":110698,"code":"NGIC201800383-0017","latitude":"35.996464444444","longitude":"136.51366638889","source_code":"","project_name":"","survey_name":"\u5927\u91ce\u6cb9\u5742\u9053\u8def\u5927\u91ce\u30fb\u5927\u91ce\u6771\u533a\u9593\u5730\u8cea\u8abf\u67fb\u696d\u52d9","client_name":"\u56fd\u571f\u4ea4\u901a\u7701\u8fd1\u757f\u5730\u65b9\u6574\u5099\u5c40\u798f\u4e95\u6cb3\u5ddd\u56fd\u9053\u4e8b\u52d9\u6240","boring_xml_url":47,"boring_view_url":1,"soilmap_view_url":null,"soiltest_xml_url":47,"soiltest_view_url":47},{"id":110697,"code":"NGIC201800383-0016","latitude":"35.998092222222","longitude":"136.50925527778","source_code":"","project_name":"","survey_name":"\u5927\u91ce\u6cb9\u5742\u9053\u8def\u5927\u91ce\u30fb\u5927\u91ce\u6771\u533a\u9593\u5730\u8cea\u8abf\u67fb\u696d\u52d9","client_name":"\u56fd\u571f\u4ea4\u901a\u7701\u8fd1\u757f\u5730\u65b9\u6574\u5099\u5c40\u798f\u4e95\u6cb3\u5ddd\u56fd\u9053\u4e8b\u52d9\u6240","boring_xml_url":47,"boring_view_url":1,"soilmap_view_url":null,"soiltest_xml_url":47,"soiltest_view_url":47},{"id":110696,"code":"NGIC201800383-0015","latitude":"35.998332777778","longitude":"136.50880638889","source_code":"","project_name":"","survey_name":"\u5927\u91ce\u6cb9\u5742\u9053\u8def\u5927\u91ce\u30fb\u5927\u91ce\u6771\u533a\u9593\u5730\u8cea\u8abf\u67fb\u696d\u52d9","client_name":"\u56fd\u571f\u4ea4\u901a\u7701\u8fd1\u757f\u5730\u65b9\u6574\u5099\u5c40\u798f\u4e95\u6cb3\u5ddd\u56fd\u9053\u4e8b\u52d9\u6240","boring_xml_url":47,"boring_view_url":1,"soilmap_view_url":null,"soiltest_xml_url":47,"soiltest_view_url":47},{"id":110695,"code":"NGIC201800383-0014","latitude":"35.999693055556","longitude":"136.50513722222","source_code":"","project_name":"","survey_name":"\u5927\u91ce\u6cb9\u5742\u9053\u8def\u5927\u91ce\u30fb\u5927\u91ce\u6771\u533a\u9593\u5730\u8cea\u8abf\u67fb\u696d\u52d9","client_name":"\u56fd\u571f\u4ea4\u901a\u7701\u8fd1\u757f\u5730\u65b9\u6574\u5099\u5c40\u798f\u4e95\u6cb3\u5ddd\u56fd\u9053\u4e8b\u52d9\u6240","boring_xml_url":47,"boring_view_url":1,"soilmap_view_url":null,"soiltest_xml_url":47,"soiltest_view_url":47},{"id":110694,"code":"NGIC201800383-0013","latitude":"36.000018055556","longitude":"136.50409","source_code":"","project_name":"","survey_name":"\u5927\u91ce\u6cb9\u5742\u9053\u8def\u5927\u91ce\u30fb\u5927\u91ce\u6771\u533a\u9593\u5730\u8cea\u8abf\u67fb\u696d\u52d9","client_name":"\u56fd\u571f\u4ea4\u901a\u7701\u8fd1\u757f\u5730\u65b9\u6574\u5099\u5c40\u798f\u4e95\u6cb3\u5ddd\u56fd\u9053\u4e8b\u52d9\u6240","boring_xml_url":47,"boring_view_url":1,"soilmap_view_url":null,"soiltest_xml_url":47,"soiltest_view_url":47},{"id":110693,"code":"NGIC201800383-0012","latitude":"36.000184444444","longitude":"136.50402861111","source_code":"","project_name":"","survey_name":"\u5927\u91ce\u6cb9\u5742\u9053\u8def\u5927\u91ce\u30fb\u5927\u91ce\u6771\u533a\u9593\u5730\u8cea\u8abf\u67fb\u696d\u52d9","client_name":"\u56fd\u571f\u4ea4\u901a\u7701\u8fd1\u757f\u5730\u65b9\u6574\u5099\u5c40\u798f\u4e95\u6cb3\u5ddd\u56fd\u9053\u4e8b\u52d9\u6240","boring_xml_url":47,"boring_view_url":1,"soilmap_view_url":null,"soiltest_xml_url":47,"soiltest_view_url":47},{"id":110692,"code":"NGIC201800383-0011","latitude":"36.000198055556","longitude":"136.50337277778","source_code":"","project_name":"","survey_name":"\u5927\u91ce\u6cb9\u5742\u9053\u8def\u5927\u91ce\u30fb\u5927\u91ce\u6771\u533a\u9593\u5730\u8cea\u8abf\u67fb\u696d\u52d9","client_name":"\u56fd\u571f\u4ea4\u901a\u7701\u8fd1\u757f\u5730\u65b9\u6574\u5099\u5c40\u798f\u4e95\u6cb3\u5ddd\u56fd\u9053\u4e8b\u52d9\u6240","boring_xml_url":47,"boring_view_url":1,"soilmap_view_url":null,"soiltest_xml_url":47,"soiltest_view_url":47},{"id":110691,"code":"NGIC201800383-0010","latitude":"36.000498888889","longitude":"136.50330083333","source_code":"","project_name":"","survey_name":"\u5927\u91ce\u6cb9\u5742\u9053\u8def\u5927\u91ce\u30fb\u5927\u91ce\u6771\u533a\u9593\u5730\u8cea\u8abf\u67fb\u696d\u52d9","client_name":"\u56fd\u571f\u4ea4\u901a\u7701\u8fd1\u757f\u5730\u65b9\u6574\u5099\u5c40\u798f\u4e95\u6cb3\u5ddd\u56fd\u9053\u4e8b\u52d9\u6240","boring_xml_url":47,"boring_view_url":1,"soilmap_view_url":null,"soiltest_xml_url":47,"soiltest_view_url":47},{"id":110690,"code":"NGIC201800383-0009","latitude":"36.002034166667","longitude":"136.50027888889","source_code":"","project_name":"","survey_name":"\u5927\u91ce\u6cb9\u5742\u9053\u8def\u5927\u91ce\u30fb\u5927\u91ce\u6771\u533a\u9593\u5730\u8cea\u8abf\u67fb\u696d\u52d9","client_name":"\u56fd\u571f\u4ea4\u901a\u7701\u8fd1\u757f\u5730\u65b9\u6574\u5099\u5c40\u798f\u4e95\u6cb3\u5ddd\u56fd\u9053\u4e8b\u52d9\u6240","boring_xml_url":47,"boring_view_url":1,"soilmap_view_url":null,"soiltest_xml_url":47,"soiltest_view_url":47},{"id":110689,"code":"NGIC201800383-0008","latitude":"36.002223611111","longitude":"136.49994305556","source_code":"","project_name":"","survey_name":"\u5927\u91ce\u6cb9\u5742\u9053\u8def\u5927\u91ce\u30fb\u5927\u91ce\u6771\u533a\u9593\u5730\u8cea\u8abf\u67fb\u696d\u52d9","client_name":"\u56fd\u571f\u4ea4\u901a\u7701\u8fd1\u757f\u5730\u65b9\u6574\u5099\u5c40\u798f\u4e95\u6cb3\u5ddd\u56fd\u9053\u4e8b\u52d9\u6240","boring_xml_url":47,"boring_view_url":1,"soilmap_view_url":null,"soiltest_xml_url":47,"soiltest_view_url":47},{"id":110688,"code":"NGIC201800383-0007","latitude":"36.002505277778","longitude":"136.49962444444","source_code":"","project_name":"","survey_name":"\u5927\u91ce\u6cb9\u5742\u9053\u8def\u5927\u91ce\u30fb\u5927\u91ce\u6771\u533a\u9593\u5730\u8cea\u8abf\u67fb\u696d\u52d9","client_name":"\u56fd\u571f\u4ea4\u901a\u7701\u8fd1\u757f\u5730\u65b9\u6574\u5099\u5c40\u798f\u4e95\u6cb3\u5ddd\u56fd\u9053\u4e8b\u52d9\u6240","boring_xml_url":47,"boring_view_url":1,"soilmap_view_url":null,"soiltest_xml_url":47,"soiltest_view_url":47},{"id":110687,"code":"NGIC201800383-0006","latitude":"36.002760833333","longitude":"136.49930972222","source_code":"","project_name":"","survey_name":"\u5927\u91ce\u6cb9\u5742\u9053\u8def\u5927\u91ce\u30fb\u5927\u91ce\u6771\u533a\u9593\u5730\u8cea\u8abf\u67fb\u696d\u52d9","client_name":"\u56fd\u571f\u4ea4\u901a\u7701\u8fd1\u757f\u5730\u65b9\u6574\u5099\u5c40\u798f\u4e95\u6cb3\u5ddd\u56fd\u9053\u4e8b\u52d9\u6240","boring_xml_url":47,"boring_view_url":1,"soilmap_view_url":null,"soiltest_xml_url":47,"soiltest_view_url":47},{"id":110686,"code":"NGIC201800383-0005","latitude":"36.002996666667","longitude":"136.49904","source_code":"","project_name":"","survey_name":"\u5927\u91ce\u6cb9\u5742\u9053\u8def\u5927\u91ce\u30fb\u5927\u91ce\u6771\u533a\u9593\u5730\u8cea\u8abf\u67fb\u696d\u52d9","client_name":"\u56fd\u571f\u4ea4\u901a\u7701\u8fd1\u757f\u5730\u65b9\u6574\u5099\u5c40\u798f\u4e95\u6cb3\u5ddd\u56fd\u9053\u4e8b\u52d9\u6240","boring_xml_url":47,"boring_view_url":1,"soilmap_view_url":null,"soiltest_xml_url":47,"soiltest_view_url":47},{"id":110685,"code":"NGIC201800383-0004","latitude":"36.00315","longitude":"136.49886972222","source_code":"","project_name":"","survey_name":"\u5927\u91ce\u6cb9\u5742\u9053\u8def\u5927\u91ce\u30fb\u5927\u91ce\u6771\u533a\u9593\u5730\u8cea\u8abf\u67fb\u696d\u52d9","client_name":"\u56fd\u571f\u4ea4\u901a\u7701\u8fd1\u757f\u5730\u65b9\u6574\u5099\u5c40\u798f\u4e95\u6cb3\u5ddd\u56fd\u9053\u4e8b\u52d9\u6240","boring_xml_url":47,"boring_view_url":1,"soilmap_view_url":null,"soiltest_xml_url":47,"soiltest_view_url":47},{"id":110684,"code":"NGIC201800383-0003","latitude":"36.0030725","longitude":"136.4986525","source_code":"","project_name":"","survey_name":"\u5927\u91ce\u6cb9\u5742\u9053\u8def\u5927\u91ce\u30fb\u5927\u91ce\u6771\u533a\u9593\u5730\u8cea\u8abf\u67fb\u696d\u52d9","client_name":"\u56fd\u571f\u4ea4\u901a\u7701\u8fd1\u757f\u5730\u65b9\u6574\u5099\u5c40\u798f\u4e95\u6cb3\u5ddd\u56fd\u9053\u4e8b\u52d9\u6240","boring_xml_url":47,"boring_view_url":1,"soilmap_view_url":null,"soiltest_xml_url":47,"soiltest_view_url":47}]}}