{"header":{"xyz":{"source":[],"mosaic":false},"page":7002,"raw":{"soiltest_result":"0","bbox":"57.598333,109.544722,1.933333,163.806111","page":"7002"},"conditions":{"soiltest_result":0,"north":57.598333,"west":109.544722,"south":1.933333,"east":163.806111},"success":true,"message":""},"data":{"meta":{"total":212844,"page":7002,"pages":7095,"count":30},"values":[{"id":110432,"code":"NGIC201800378-0010","latitude":"33.493394583333","longitude":"135.73136488889","source_code":"","project_name":"","survey_name":"\u3059\u3055\u307f\u4e32\u672c\u9053\u8def\u9ad8\u5bcc\u5730\u533a\u4ed6\u5730\u8cea\u8abf\u67fb\u696d\u52d9","client_name":"\u56fd\u571f\u4ea4\u901a\u7701\u8fd1\u757f\u5730\u65b9\u6574\u5099\u5c40\u7d00\u5357\u6cb3\u5ddd\u56fd\u9053\u4e8b\u52d9\u6240","boring_xml_url":47,"boring_view_url":1,"soilmap_view_url":null,"soiltest_xml_url":47,"soiltest_view_url":47},{"id":110431,"code":"NGIC201800378-0009","latitude":"33.493430555556","longitude":"135.73091458333","source_code":"","project_name":"","survey_name":"\u3059\u3055\u307f\u4e32\u672c\u9053\u8def\u9ad8\u5bcc\u5730\u533a\u4ed6\u5730\u8cea\u8abf\u67fb\u696d\u52d9","client_name":"\u56fd\u571f\u4ea4\u901a\u7701\u8fd1\u757f\u5730\u65b9\u6574\u5099\u5c40\u7d00\u5357\u6cb3\u5ddd\u56fd\u9053\u4e8b\u52d9\u6240","boring_xml_url":47,"boring_view_url":1,"soilmap_view_url":null,"soiltest_xml_url":47,"soiltest_view_url":47},{"id":110430,"code":"NGIC201800378-0008","latitude":"33.4936125","longitude":"135.73020627778","source_code":"","project_name":"","survey_name":"\u3059\u3055\u307f\u4e32\u672c\u9053\u8def\u9ad8\u5bcc\u5730\u533a\u4ed6\u5730\u8cea\u8abf\u67fb\u696d\u52d9","client_name":"\u56fd\u571f\u4ea4\u901a\u7701\u8fd1\u757f\u5730\u65b9\u6574\u5099\u5c40\u7d00\u5357\u6cb3\u5ddd\u56fd\u9053\u4e8b\u52d9\u6240","boring_xml_url":47,"boring_view_url":1,"soilmap_view_url":null,"soiltest_xml_url":0,"soiltest_view_url":0},{"id":110429,"code":"NGIC201800378-0007","latitude":"33.493745833333","longitude":"135.73017775","source_code":"","project_name":"","survey_name":"\u3059\u3055\u307f\u4e32\u672c\u9053\u8def\u9ad8\u5bcc\u5730\u533a\u4ed6\u5730\u8cea\u8abf\u67fb\u696d\u52d9","client_name":"\u56fd\u571f\u4ea4\u901a\u7701\u8fd1\u757f\u5730\u65b9\u6574\u5099\u5c40\u7d00\u5357\u6cb3\u5ddd\u56fd\u9053\u4e8b\u52d9\u6240","boring_xml_url":47,"boring_view_url":1,"soilmap_view_url":null,"soiltest_xml_url":0,"soiltest_view_url":0},{"id":110428,"code":"NGIC201800378-0006","latitude":"33.492881638889","longitude":"135.68505808333","source_code":"","project_name":"","survey_name":"\u3059\u3055\u307f\u4e32\u672c\u9053\u8def\u9ad8\u5bcc\u5730\u533a\u4ed6\u5730\u8cea\u8abf\u67fb\u696d\u52d9","client_name":"\u56fd\u571f\u4ea4\u901a\u7701\u8fd1\u757f\u5730\u65b9\u6574\u5099\u5c40\u7d00\u5357\u6cb3\u5ddd\u56fd\u9053\u4e8b\u52d9\u6240","boring_xml_url":47,"boring_view_url":1,"soilmap_view_url":null,"soiltest_xml_url":0,"soiltest_view_url":0},{"id":110427,"code":"NGIC201800378-0005","latitude":"33.492987833333","longitude":"135.68499161111","source_code":"","project_name":"","survey_name":"\u3059\u3055\u307f\u4e32\u672c\u9053\u8def\u9ad8\u5bcc\u5730\u533a\u4ed6\u5730\u8cea\u8abf\u67fb\u696d\u52d9","client_name":"\u56fd\u571f\u4ea4\u901a\u7701\u8fd1\u757f\u5730\u65b9\u6574\u5099\u5c40\u7d00\u5357\u6cb3\u5ddd\u56fd\u9053\u4e8b\u52d9\u6240","boring_xml_url":47,"boring_view_url":1,"soilmap_view_url":null,"soiltest_xml_url":0,"soiltest_view_url":0},{"id":110426,"code":"NGIC201800378-0004","latitude":"33.492955194444","longitude":"135.68451394444","source_code":"","project_name":"","survey_name":"\u3059\u3055\u307f\u4e32\u672c\u9053\u8def\u9ad8\u5bcc\u5730\u533a\u4ed6\u5730\u8cea\u8abf\u67fb\u696d\u52d9","client_name":"\u56fd\u571f\u4ea4\u901a\u7701\u8fd1\u757f\u5730\u65b9\u6574\u5099\u5c40\u7d00\u5357\u6cb3\u5ddd\u56fd\u9053\u4e8b\u52d9\u6240","boring_xml_url":47,"boring_view_url":1,"soilmap_view_url":null,"soiltest_xml_url":0,"soiltest_view_url":0},{"id":110425,"code":"NGIC201800378-0003","latitude":"33.492837805556","longitude":"135.68450536111","source_code":"","project_name":"","survey_name":"\u3059\u3055\u307f\u4e32\u672c\u9053\u8def\u9ad8\u5bcc\u5730\u533a\u4ed6\u5730\u8cea\u8abf\u67fb\u696d\u52d9","client_name":"\u56fd\u571f\u4ea4\u901a\u7701\u8fd1\u757f\u5730\u65b9\u6574\u5099\u5c40\u7d00\u5357\u6cb3\u5ddd\u56fd\u9053\u4e8b\u52d9\u6240","boring_xml_url":47,"boring_view_url":1,"soilmap_view_url":null,"soiltest_xml_url":0,"soiltest_view_url":0},{"id":110424,"code":"NGIC201800378-0002","latitude":"33.492995305556","longitude":"135.68338422222","source_code":"","project_name":"","survey_name":"\u3059\u3055\u307f\u4e32\u672c\u9053\u8def\u9ad8\u5bcc\u5730\u533a\u4ed6\u5730\u8cea\u8abf\u67fb\u696d\u52d9","client_name":"\u56fd\u571f\u4ea4\u901a\u7701\u8fd1\u757f\u5730\u65b9\u6574\u5099\u5c40\u7d00\u5357\u6cb3\u5ddd\u56fd\u9053\u4e8b\u52d9\u6240","boring_xml_url":47,"boring_view_url":1,"soilmap_view_url":null,"soiltest_xml_url":47,"soiltest_view_url":47},{"id":110423,"code":"NGIC201800378-0001","latitude":"33.492843","longitude":"135.68312286111","source_code":"","project_name":"","survey_name":"\u3059\u3055\u307f\u4e32\u672c\u9053\u8def\u9ad8\u5bcc\u5730\u533a\u4ed6\u5730\u8cea\u8abf\u67fb\u696d\u52d9","client_name":"\u56fd\u571f\u4ea4\u901a\u7701\u8fd1\u757f\u5730\u65b9\u6574\u5099\u5c40\u7d00\u5357\u6cb3\u5ddd\u56fd\u9053\u4e8b\u52d9\u6240","boring_xml_url":47,"boring_view_url":1,"soilmap_view_url":null,"soiltest_xml_url":0,"soiltest_view_url":0},{"id":110422,"code":"NGIC201800341-0003","latitude":"33.505572222222","longitude":"132.55180277778","source_code":"","project_name":"","survey_name":"\u5e73\u621030\u5e74\u5ea6\u80b1\u5ddd\u7ba1\u5185\u5730\u8cea\u8abf\u67fb(\u305d\u306e3)\u696d\u52d9","client_name":"\u56fd\u571f\u4ea4\u901a\u7701\u56db\u56fd\u5730\u65b9\u6574\u5099\u5c40\u5927\u6d32\u6cb3\u5ddd\u56fd\u9053\u4e8b\u52d9\u6240","boring_xml_url":47,"boring_view_url":1,"soilmap_view_url":null,"soiltest_xml_url":47,"soiltest_view_url":47},{"id":110421,"code":"NGIC201800341-0002","latitude":"33.515083333333","longitude":"132.53895555556","source_code":"","project_name":"","survey_name":"\u5e73\u621030\u5e74\u5ea6\u80b1\u5ddd\u7ba1\u5185\u5730\u8cea\u8abf\u67fb(\u305d\u306e3)\u696d\u52d9","client_name":"\u56fd\u571f\u4ea4\u901a\u7701\u56db\u56fd\u5730\u65b9\u6574\u5099\u5c40\u5927\u6d32\u6cb3\u5ddd\u56fd\u9053\u4e8b\u52d9\u6240","boring_xml_url":47,"boring_view_url":1,"soilmap_view_url":null,"soiltest_xml_url":0,"soiltest_view_url":0},{"id":110420,"code":"NGIC201800341-0001","latitude":"33.519230555556","longitude":"132.53998611111","source_code":"","project_name":"","survey_name":"\u5e73\u621030\u5e74\u5ea6\u80b1\u5ddd\u7ba1\u5185\u5730\u8cea\u8abf\u67fb(\u305d\u306e3)\u696d\u52d9","client_name":"\u56fd\u571f\u4ea4\u901a\u7701\u56db\u56fd\u5730\u65b9\u6574\u5099\u5c40\u5927\u6d32\u6cb3\u5ddd\u56fd\u9053\u4e8b\u52d9\u6240","boring_xml_url":47,"boring_view_url":1,"soilmap_view_url":null,"soiltest_xml_url":47,"soiltest_view_url":47},{"id":110419,"code":"NGIC201800371-0019","latitude":"35.852491666667","longitude":"139.58544722222","source_code":"","project_name":"","survey_name":"H30\u8352\u5ddd\u7b2c\u4e8c\u8abf\u7bc0\u6c60\u5730\u8cea\u8abf\u67fb(\u305d\u306e1)\u696d\u52d9","client_name":"\u56fd\u571f\u4ea4\u901a\u7701\u95a2\u6771\u5730\u65b9\u6574\u5099\u5c40\u8352\u5ddd\u4e0a\u6d41\u6cb3\u5ddd\u4e8b\u52d9\u6240","boring_xml_url":47,"boring_view_url":1,"soilmap_view_url":null,"soiltest_xml_url":47,"soiltest_view_url":47},{"id":110418,"code":"NGIC201800371-0018","latitude":"35.852802777778","longitude":"139.58571388889","source_code":"","project_name":"","survey_name":"H30\u8352\u5ddd\u7b2c\u4e8c\u8abf\u7bc0\u6c60\u5730\u8cea\u8abf\u67fb(\u305d\u306e1)\u696d\u52d9","client_name":"\u56fd\u571f\u4ea4\u901a\u7701\u95a2\u6771\u5730\u65b9\u6574\u5099\u5c40\u8352\u5ddd\u4e0a\u6d41\u6cb3\u5ddd\u4e8b\u52d9\u6240","boring_xml_url":47,"boring_view_url":1,"soilmap_view_url":null,"soiltest_xml_url":47,"soiltest_view_url":47},{"id":110417,"code":"NGIC201800371-0017","latitude":"35.866466666667","longitude":"139.58488055556","source_code":"","project_name":"","survey_name":"H30\u8352\u5ddd\u7b2c\u4e8c\u8abf\u7bc0\u6c60\u5730\u8cea\u8abf\u67fb(\u305d\u306e1)\u696d\u52d9","client_name":"\u56fd\u571f\u4ea4\u901a\u7701\u95a2\u6771\u5730\u65b9\u6574\u5099\u5c40\u8352\u5ddd\u4e0a\u6d41\u6cb3\u5ddd\u4e8b\u52d9\u6240","boring_xml_url":47,"boring_view_url":1,"soilmap_view_url":null,"soiltest_xml_url":47,"soiltest_view_url":47},{"id":110416,"code":"NGIC201800371-0016","latitude":"35.867466666667","longitude":"139.58656111111","source_code":"","project_name":"","survey_name":"H30\u8352\u5ddd\u7b2c\u4e8c\u8abf\u7bc0\u6c60\u5730\u8cea\u8abf\u67fb(\u305d\u306e1)\u696d\u52d9","client_name":"\u56fd\u571f\u4ea4\u901a\u7701\u95a2\u6771\u5730\u65b9\u6574\u5099\u5c40\u8352\u5ddd\u4e0a\u6d41\u6cb3\u5ddd\u4e8b\u52d9\u6240","boring_xml_url":47,"boring_view_url":1,"soilmap_view_url":null,"soiltest_xml_url":47,"soiltest_view_url":47},{"id":110415,"code":"NGIC201800371-0015","latitude":"35.865108333333","longitude":"139.58551111111","source_code":"","project_name":"","survey_name":"H30\u8352\u5ddd\u7b2c\u4e8c\u8abf\u7bc0\u6c60\u5730\u8cea\u8abf\u67fb(\u305d\u306e1)\u696d\u52d9","client_name":"\u56fd\u571f\u4ea4\u901a\u7701\u95a2\u6771\u5730\u65b9\u6574\u5099\u5c40\u8352\u5ddd\u4e0a\u6d41\u6cb3\u5ddd\u4e8b\u52d9\u6240","boring_xml_url":47,"boring_view_url":1,"soilmap_view_url":null,"soiltest_xml_url":47,"soiltest_view_url":47},{"id":110414,"code":"NGIC201800371-0014","latitude":"35.865413888889","longitude":"139.58802222222","source_code":"","project_name":"","survey_name":"H30\u8352\u5ddd\u7b2c\u4e8c\u8abf\u7bc0\u6c60\u5730\u8cea\u8abf\u67fb(\u305d\u306e1)\u696d\u52d9","client_name":"\u56fd\u571f\u4ea4\u901a\u7701\u95a2\u6771\u5730\u65b9\u6574\u5099\u5c40\u8352\u5ddd\u4e0a\u6d41\u6cb3\u5ddd\u4e8b\u52d9\u6240","boring_xml_url":47,"boring_view_url":1,"soilmap_view_url":null,"soiltest_xml_url":47,"soiltest_view_url":47},{"id":110413,"code":"NGIC201800371-0013","latitude":"35.866813888889","longitude":"139.58985","source_code":"","project_name":"","survey_name":"H30\u8352\u5ddd\u7b2c\u4e8c\u8abf\u7bc0\u6c60\u5730\u8cea\u8abf\u67fb(\u305d\u306e1)\u696d\u52d9","client_name":"\u56fd\u571f\u4ea4\u901a\u7701\u95a2\u6771\u5730\u65b9\u6574\u5099\u5c40\u8352\u5ddd\u4e0a\u6d41\u6cb3\u5ddd\u4e8b\u52d9\u6240","boring_xml_url":47,"boring_view_url":1,"soilmap_view_url":null,"soiltest_xml_url":0,"soiltest_view_url":0},{"id":110412,"code":"NGIC201800371-0012","latitude":"35.863166666667","longitude":"139.58738333333","source_code":"","project_name":"","survey_name":"H30\u8352\u5ddd\u7b2c\u4e8c\u8abf\u7bc0\u6c60\u5730\u8cea\u8abf\u67fb(\u305d\u306e1)\u696d\u52d9","client_name":"\u56fd\u571f\u4ea4\u901a\u7701\u95a2\u6771\u5730\u65b9\u6574\u5099\u5c40\u8352\u5ddd\u4e0a\u6d41\u6cb3\u5ddd\u4e8b\u52d9\u6240","boring_xml_url":47,"boring_view_url":1,"soilmap_view_url":null,"soiltest_xml_url":47,"soiltest_view_url":47},{"id":110411,"code":"NGIC201800371-0011","latitude":"35.864255555556","longitude":"139.58880277778","source_code":"","project_name":"","survey_name":"H30\u8352\u5ddd\u7b2c\u4e8c\u8abf\u7bc0\u6c60\u5730\u8cea\u8abf\u67fb(\u305d\u306e1)\u696d\u52d9","client_name":"\u56fd\u571f\u4ea4\u901a\u7701\u95a2\u6771\u5730\u65b9\u6574\u5099\u5c40\u8352\u5ddd\u4e0a\u6d41\u6cb3\u5ddd\u4e8b\u52d9\u6240","boring_xml_url":47,"boring_view_url":1,"soilmap_view_url":null,"soiltest_xml_url":47,"soiltest_view_url":47},{"id":110410,"code":"NGIC201800371-0010","latitude":"35.865772222222","longitude":"139.591125","source_code":"","project_name":"","survey_name":"H30\u8352\u5ddd\u7b2c\u4e8c\u8abf\u7bc0\u6c60\u5730\u8cea\u8abf\u67fb(\u305d\u306e1)\u696d\u52d9","client_name":"\u56fd\u571f\u4ea4\u901a\u7701\u95a2\u6771\u5730\u65b9\u6574\u5099\u5c40\u8352\u5ddd\u4e0a\u6d41\u6cb3\u5ddd\u4e8b\u52d9\u6240","boring_xml_url":47,"boring_view_url":1,"soilmap_view_url":null,"soiltest_xml_url":0,"soiltest_view_url":0},{"id":110409,"code":"NGIC201800371-0009","latitude":"35.862077777778","longitude":"139.58905833333","source_code":"","project_name":"","survey_name":"H30\u8352\u5ddd\u7b2c\u4e8c\u8abf\u7bc0\u6c60\u5730\u8cea\u8abf\u67fb(\u305d\u306e1)\u696d\u52d9","client_name":"\u56fd\u571f\u4ea4\u901a\u7701\u95a2\u6771\u5730\u65b9\u6574\u5099\u5c40\u8352\u5ddd\u4e0a\u6d41\u6cb3\u5ddd\u4e8b\u52d9\u6240","boring_xml_url":47,"boring_view_url":1,"soilmap_view_url":null,"soiltest_xml_url":47,"soiltest_view_url":47},{"id":110408,"code":"NGIC201800371-0008","latitude":"35.862838888889","longitude":"139.59038333333","source_code":"","project_name":"","survey_name":"H30\u8352\u5ddd\u7b2c\u4e8c\u8abf\u7bc0\u6c60\u5730\u8cea\u8abf\u67fb(\u305d\u306e1)\u696d\u52d9","client_name":"\u56fd\u571f\u4ea4\u901a\u7701\u95a2\u6771\u5730\u65b9\u6574\u5099\u5c40\u8352\u5ddd\u4e0a\u6d41\u6cb3\u5ddd\u4e8b\u52d9\u6240","boring_xml_url":47,"boring_view_url":1,"soilmap_view_url":null,"soiltest_xml_url":47,"soiltest_view_url":47},{"id":110407,"code":"NGIC201800371-0007","latitude":"35.863894444444","longitude":"139.59285277778","source_code":"","project_name":"","survey_name":"H30\u8352\u5ddd\u7b2c\u4e8c\u8abf\u7bc0\u6c60\u5730\u8cea\u8abf\u67fb(\u305d\u306e1)\u696d\u52d9","client_name":"\u56fd\u571f\u4ea4\u901a\u7701\u95a2\u6771\u5730\u65b9\u6574\u5099\u5c40\u8352\u5ddd\u4e0a\u6d41\u6cb3\u5ddd\u4e8b\u52d9\u6240","boring_xml_url":47,"boring_view_url":1,"soilmap_view_url":null,"soiltest_xml_url":0,"soiltest_view_url":0},{"id":110406,"code":"NGIC201800371-0006","latitude":"35.860416666667","longitude":"139.589675","source_code":"","project_name":"","survey_name":"H30\u8352\u5ddd\u7b2c\u4e8c\u8abf\u7bc0\u6c60\u5730\u8cea\u8abf\u67fb(\u305d\u306e1)\u696d\u52d9","client_name":"\u56fd\u571f\u4ea4\u901a\u7701\u95a2\u6771\u5730\u65b9\u6574\u5099\u5c40\u8352\u5ddd\u4e0a\u6d41\u6cb3\u5ddd\u4e8b\u52d9\u6240","boring_xml_url":47,"boring_view_url":1,"soilmap_view_url":null,"soiltest_xml_url":47,"soiltest_view_url":47},{"id":110405,"code":"NGIC201800371-0005","latitude":"35.861441666667","longitude":"139.59155555556","source_code":"","project_name":"","survey_name":"H30\u8352\u5ddd\u7b2c\u4e8c\u8abf\u7bc0\u6c60\u5730\u8cea\u8abf\u67fb(\u305d\u306e1)\u696d\u52d9","client_name":"\u56fd\u571f\u4ea4\u901a\u7701\u95a2\u6771\u5730\u65b9\u6574\u5099\u5c40\u8352\u5ddd\u4e0a\u6d41\u6cb3\u5ddd\u4e8b\u52d9\u6240","boring_xml_url":47,"boring_view_url":1,"soilmap_view_url":null,"soiltest_xml_url":47,"soiltest_view_url":47},{"id":110404,"code":"NGIC201800371-0004","latitude":"35.862780555556","longitude":"139.59351388889","source_code":"","project_name":"","survey_name":"H30\u8352\u5ddd\u7b2c\u4e8c\u8abf\u7bc0\u6c60\u5730\u8cea\u8abf\u67fb(\u305d\u306e1)\u696d\u52d9","client_name":"\u56fd\u571f\u4ea4\u901a\u7701\u95a2\u6771\u5730\u65b9\u6574\u5099\u5c40\u8352\u5ddd\u4e0a\u6d41\u6cb3\u5ddd\u4e8b\u52d9\u6240","boring_xml_url":47,"boring_view_url":1,"soilmap_view_url":null,"soiltest_xml_url":0,"soiltest_view_url":0},{"id":110403,"code":"NGIC201800371-0003","latitude":"35.858363888889","longitude":"139.59076666667","source_code":"","project_name":"","survey_name":"H30\u8352\u5ddd\u7b2c\u4e8c\u8abf\u7bc0\u6c60\u5730\u8cea\u8abf\u67fb(\u305d\u306e1)\u696d\u52d9","client_name":"\u56fd\u571f\u4ea4\u901a\u7701\u95a2\u6771\u5730\u65b9\u6574\u5099\u5c40\u8352\u5ddd\u4e0a\u6d41\u6cb3\u5ddd\u4e8b\u52d9\u6240","boring_xml_url":47,"boring_view_url":1,"soilmap_view_url":null,"soiltest_xml_url":47,"soiltest_view_url":47}]}}