{"header":{"xyz":{"source":[],"mosaic":false},"page":7017,"raw":{"soiltest_result":"0","bbox":"57.598333,109.544722,1.933333,163.806111","page":"7017"},"conditions":{"soiltest_result":0,"north":57.598333,"west":109.544722,"south":1.933333,"east":163.806111},"success":true,"message":""},"data":{"meta":{"total":212844,"page":7017,"pages":7095,"count":30},"values":[{"id":109907,"code":"NGIC201800307-0001","latitude":"33.310893333333","longitude":"129.64489055556","source_code":"","project_name":"\u5e73\u621030\u5e74\u5ea6\u677e\u6d66\u4f50\u3005\u9053\u8def\u6c5f\u8fce\u4f50\u3005\u5730\u533a\u5730\u8cea\u8abf\u67fb\u696d\u52d9","survey_name":"\u5e73\u621030\u5e74\u5ea6\u677e\u6d66\u4f50\u3005\u9053\u8def\u6c5f\u8fce\u4f50\u3005\u5730\u533a\u5730\u8cea\u8abf\u67fb\u696d\u52d9","client_name":"\u56fd\u571f\u4ea4\u901a\u7701\u4e5d\u5dde\u5730\u65b9\u6574\u5099\u5c40\u9577\u5d0e\u6cb3\u5ddd\u56fd\u9053\u4e8b\u52d9\u6240","boring_xml_url":47,"boring_view_url":1,"soilmap_view_url":null,"soiltest_xml_url":47,"soiltest_view_url":47},{"id":109906,"code":"NGIC201800304-0011","latitude":"33.287805555556","longitude":"130.17382777778","source_code":"","project_name":"\u5e73\u621030\u5e74\u5ea6\u591a\u4e45\u4f50\u8cc0\u9053\u8def\uff081\u671f\uff09\u5225\u5e9c\u301c\u6817\u539f\u5730\u533a\u5730\u8cea\u8abf\u67fb\u696d\u52d9","survey_name":"\u5e73\u621030\u5e74\u5ea6\u591a\u4e45\u4f50\u8cc0\u9053\u8def\uff081\u671f\uff09\u5225\u5e9c\u301c\u6817\u539f\u5730\u533a\u5730\u8cea\u8abf\u67fb\u696d\u52d9","client_name":"\u56fd\u571f\u4ea4\u901a\u7701\u4e5d\u5dde\u5730\u65b9\u6574\u5099\u5c40\u4f50\u8cc0\u56fd\u9053\u4e8b\u52d9\u6240","boring_xml_url":47,"boring_view_url":1,"soilmap_view_url":null,"soiltest_xml_url":47,"soiltest_view_url":47},{"id":109905,"code":"NGIC201800304-0010","latitude":"33.287644444444","longitude":"130.17371111111","source_code":"","project_name":"\u5e73\u621030\u5e74\u5ea6\u591a\u4e45\u4f50\u8cc0\u9053\u8def\uff081\u671f\uff09\u5225\u5e9c\u301c\u6817\u539f\u5730\u533a\u5730\u8cea\u8abf\u67fb\u696d\u52d9","survey_name":"\u5e73\u621030\u5e74\u5ea6\u591a\u4e45\u4f50\u8cc0\u9053\u8def\uff081\u671f\uff09\u5225\u5e9c\u301c\u6817\u539f\u5730\u533a\u5730\u8cea\u8abf\u67fb\u696d\u52d9","client_name":"\u56fd\u571f\u4ea4\u901a\u7701\u4e5d\u5dde\u5730\u65b9\u6574\u5099\u5c40\u4f50\u8cc0\u56fd\u9053\u4e8b\u52d9\u6240","boring_xml_url":47,"boring_view_url":1,"soilmap_view_url":null,"soiltest_xml_url":47,"soiltest_view_url":47},{"id":109904,"code":"NGIC201800304-0009","latitude":"33.287494444444","longitude":"130.1736","source_code":"","project_name":"\u5e73\u621030\u5e74\u5ea6\u591a\u4e45\u4f50\u8cc0\u9053\u8def\uff081\u671f\uff09\u5225\u5e9c\u301c\u6817\u539f\u5730\u533a\u5730\u8cea\u8abf\u67fb\u696d\u52d9","survey_name":"\u5e73\u621030\u5e74\u5ea6\u591a\u4e45\u4f50\u8cc0\u9053\u8def\uff081\u671f\uff09\u5225\u5e9c\u301c\u6817\u539f\u5730\u533a\u5730\u8cea\u8abf\u67fb\u696d\u52d9","client_name":"\u56fd\u571f\u4ea4\u901a\u7701\u4e5d\u5dde\u5730\u65b9\u6574\u5099\u5c40\u4f50\u8cc0\u56fd\u9053\u4e8b\u52d9\u6240","boring_xml_url":47,"boring_view_url":1,"soilmap_view_url":null,"soiltest_xml_url":47,"soiltest_view_url":47},{"id":109903,"code":"NGIC201800304-0008","latitude":"33.288583333333","longitude":"130.17231111111","source_code":"","project_name":"\u5e73\u621030\u5e74\u5ea6\u591a\u4e45\u4f50\u8cc0\u9053\u8def\uff081\u671f\uff09\u5225\u5e9c\u301c\u6817\u539f\u5730\u533a\u5730\u8cea\u8abf\u67fb\u696d\u52d9","survey_name":"\u5e73\u621030\u5e74\u5ea6\u591a\u4e45\u4f50\u8cc0\u9053\u8def\uff081\u671f\uff09\u5225\u5e9c\u301c\u6817\u539f\u5730\u533a\u5730\u8cea\u8abf\u67fb\u696d\u52d9","client_name":"\u56fd\u571f\u4ea4\u901a\u7701\u4e5d\u5dde\u5730\u65b9\u6574\u5099\u5c40\u4f50\u8cc0\u56fd\u9053\u4e8b\u52d9\u6240","boring_xml_url":47,"boring_view_url":1,"soilmap_view_url":null,"soiltest_xml_url":47,"soiltest_view_url":47},{"id":109902,"code":"NGIC201800304-0007","latitude":"33.288777777778","longitude":"130.17120833333","source_code":"","project_name":"\u5e73\u621030\u5e74\u5ea6\u591a\u4e45\u4f50\u8cc0\u9053\u8def\uff081\u671f\uff09\u5225\u5e9c\u301c\u6817\u539f\u5730\u533a\u5730\u8cea\u8abf\u67fb\u696d\u52d9","survey_name":"\u5e73\u621030\u5e74\u5ea6\u591a\u4e45\u4f50\u8cc0\u9053\u8def\uff081\u671f\uff09\u5225\u5e9c\u301c\u6817\u539f\u5730\u533a\u5730\u8cea\u8abf\u67fb\u696d\u52d9","client_name":"\u56fd\u571f\u4ea4\u901a\u7701\u4e5d\u5dde\u5730\u65b9\u6574\u5099\u5c40\u4f50\u8cc0\u56fd\u9053\u4e8b\u52d9\u6240","boring_xml_url":47,"boring_view_url":1,"soilmap_view_url":null,"soiltest_xml_url":47,"soiltest_view_url":47},{"id":109901,"code":"NGIC201800304-0006","latitude":"33.289244444444","longitude":"130.16903333333","source_code":"","project_name":"\u5e73\u621030\u5e74\u5ea6\u591a\u4e45\u4f50\u8cc0\u9053\u8def\uff081\u671f\uff09\u5225\u5e9c\u301c\u6817\u539f\u5730\u533a\u5730\u8cea\u8abf\u67fb\u696d\u52d9","survey_name":"\u5e73\u621030\u5e74\u5ea6\u591a\u4e45\u4f50\u8cc0\u9053\u8def\uff081\u671f\uff09\u5225\u5e9c\u301c\u6817\u539f\u5730\u533a\u5730\u8cea\u8abf\u67fb\u696d\u52d9","client_name":"\u56fd\u571f\u4ea4\u901a\u7701\u4e5d\u5dde\u5730\u65b9\u6574\u5099\u5c40\u4f50\u8cc0\u56fd\u9053\u4e8b\u52d9\u6240","boring_xml_url":47,"boring_view_url":1,"soilmap_view_url":null,"soiltest_xml_url":47,"soiltest_view_url":47},{"id":109900,"code":"NGIC201800304-0005","latitude":"33.289855555556","longitude":"130.16846666667","source_code":"","project_name":"\u5e73\u621030\u5e74\u5ea6\u591a\u4e45\u4f50\u8cc0\u9053\u8def\uff081\u671f\uff09\u5225\u5e9c\u301c\u6817\u539f\u5730\u533a\u5730\u8cea\u8abf\u67fb\u696d\u52d9","survey_name":"\u5e73\u621030\u5e74\u5ea6\u591a\u4e45\u4f50\u8cc0\u9053\u8def\uff081\u671f\uff09\u5225\u5e9c\u301c\u6817\u539f\u5730\u533a\u5730\u8cea\u8abf\u67fb\u696d\u52d9","client_name":"\u56fd\u571f\u4ea4\u901a\u7701\u4e5d\u5dde\u5730\u65b9\u6574\u5099\u5c40\u4f50\u8cc0\u56fd\u9053\u4e8b\u52d9\u6240","boring_xml_url":47,"boring_view_url":1,"soilmap_view_url":null,"soiltest_xml_url":47,"soiltest_view_url":47},{"id":109899,"code":"NGIC201800304-0004","latitude":"33.289541666667","longitude":"130.16631944444","source_code":"","project_name":"\u5e73\u621030\u5e74\u5ea6\u591a\u4e45\u4f50\u8cc0\u9053\u8def\uff081\u671f\uff09\u5225\u5e9c\u301c\u6817\u539f\u5730\u533a\u5730\u8cea\u8abf\u67fb\u696d\u52d9","survey_name":"\u5e73\u621030\u5e74\u5ea6\u591a\u4e45\u4f50\u8cc0\u9053\u8def\uff081\u671f\uff09\u5225\u5e9c\u301c\u6817\u539f\u5730\u533a\u5730\u8cea\u8abf\u67fb\u696d\u52d9","client_name":"\u56fd\u571f\u4ea4\u901a\u7701\u4e5d\u5dde\u5730\u65b9\u6574\u5099\u5c40\u4f50\u8cc0\u56fd\u9053\u4e8b\u52d9\u6240","boring_xml_url":47,"boring_view_url":1,"soilmap_view_url":null,"soiltest_xml_url":0,"soiltest_view_url":0},{"id":109898,"code":"NGIC201800304-0003","latitude":"33.289155555556","longitude":"130.16511944444","source_code":"","project_name":"\u5e73\u621030\u5e74\u5ea6\u591a\u4e45\u4f50\u8cc0\u9053\u8def\uff081\u671f\uff09\u5225\u5e9c\u301c\u6817\u539f\u5730\u533a\u5730\u8cea\u8abf\u67fb\u696d\u52d9","survey_name":"\u5e73\u621030\u5e74\u5ea6\u591a\u4e45\u4f50\u8cc0\u9053\u8def\uff081\u671f\uff09\u5225\u5e9c\u301c\u6817\u539f\u5730\u533a\u5730\u8cea\u8abf\u67fb\u696d\u52d9","client_name":"\u56fd\u571f\u4ea4\u901a\u7701\u4e5d\u5dde\u5730\u65b9\u6574\u5099\u5c40\u4f50\u8cc0\u56fd\u9053\u4e8b\u52d9\u6240","boring_xml_url":47,"boring_view_url":1,"soilmap_view_url":null,"soiltest_xml_url":47,"soiltest_view_url":47},{"id":109897,"code":"NGIC201800304-0002","latitude":"33.288902777778","longitude":"130.16523055556","source_code":"","project_name":"\u5e73\u621030\u5e74\u5ea6\u591a\u4e45\u4f50\u8cc0\u9053\u8def\uff081\u671f\uff09\u5225\u5e9c\u301c\u6817\u539f\u5730\u533a\u5730\u8cea\u8abf\u67fb\u696d\u52d9","survey_name":"\u5e73\u621030\u5e74\u5ea6\u591a\u4e45\u4f50\u8cc0\u9053\u8def\uff081\u671f\uff09\u5225\u5e9c\u301c\u6817\u539f\u5730\u533a\u5730\u8cea\u8abf\u67fb\u696d\u52d9","client_name":"\u56fd\u571f\u4ea4\u901a\u7701\u4e5d\u5dde\u5730\u65b9\u6574\u5099\u5c40\u4f50\u8cc0\u56fd\u9053\u4e8b\u52d9\u6240","boring_xml_url":47,"boring_view_url":1,"soilmap_view_url":null,"soiltest_xml_url":47,"soiltest_view_url":47},{"id":109896,"code":"NGIC201800304-0001","latitude":"33.289452777778","longitude":"130.16499722222","source_code":"","project_name":"\u5e73\u621030\u5e74\u5ea6\u591a\u4e45\u4f50\u8cc0\u9053\u8def\uff081\u671f\uff09\u5225\u5e9c\u301c\u6817\u539f\u5730\u533a\u5730\u8cea\u8abf\u67fb\u696d\u52d9","survey_name":"\u5e73\u621030\u5e74\u5ea6\u591a\u4e45\u4f50\u8cc0\u9053\u8def\uff081\u671f\uff09\u5225\u5e9c\u301c\u6817\u539f\u5730\u533a\u5730\u8cea\u8abf\u67fb\u696d\u52d9","client_name":"\u56fd\u571f\u4ea4\u901a\u7701\u4e5d\u5dde\u5730\u65b9\u6574\u5099\u5c40\u4f50\u8cc0\u56fd\u9053\u4e8b\u52d9\u6240","boring_xml_url":47,"boring_view_url":1,"soilmap_view_url":null,"soiltest_xml_url":47,"soiltest_view_url":47},{"id":109895,"code":"NGIC201800321-0031","latitude":"35.978469444444","longitude":"139.97285277778","source_code":"","project_name":"","survey_name":"H30\u4e0b\u9928\u7ba1\u5185\u5730\u8cea\u8abf\u67fb\u696d\u52d9","client_name":"\u56fd\u571f\u4ea4\u901a\u7701\u6771\u5317\u5730\u65b9\u6574\u5099\u5c40\u4e0b\u9928\u6cb3\u5ddd\u4e8b\u52d9\u6240","boring_xml_url":47,"boring_view_url":1,"soilmap_view_url":null,"soiltest_xml_url":0,"soiltest_view_url":0},{"id":109894,"code":"NGIC201800321-0030","latitude":"35.978469444444","longitude":"139.97285277778","source_code":"","project_name":"","survey_name":"H30\u4e0b\u9928\u7ba1\u5185\u5730\u8cea\u8abf\u67fb\u696d\u52d9","client_name":"\u56fd\u571f\u4ea4\u901a\u7701\u6771\u5317\u5730\u65b9\u6574\u5099\u5c40\u4e0b\u9928\u6cb3\u5ddd\u4e8b\u52d9\u6240","boring_xml_url":47,"boring_view_url":1,"soilmap_view_url":null,"soiltest_xml_url":0,"soiltest_view_url":0},{"id":109893,"code":"NGIC201800321-0029","latitude":"35.978469444444","longitude":"139.97285277778","source_code":"","project_name":"","survey_name":"H30\u4e0b\u9928\u7ba1\u5185\u5730\u8cea\u8abf\u67fb\u696d\u52d9","client_name":"\u56fd\u571f\u4ea4\u901a\u7701\u6771\u5317\u5730\u65b9\u6574\u5099\u5c40\u4e0b\u9928\u6cb3\u5ddd\u4e8b\u52d9\u6240","boring_xml_url":47,"boring_view_url":1,"soilmap_view_url":null,"soiltest_xml_url":0,"soiltest_view_url":0},{"id":109892,"code":"NGIC201800321-0028","latitude":"35.978469444444","longitude":"139.97285277778","source_code":"","project_name":"","survey_name":"H30\u4e0b\u9928\u7ba1\u5185\u5730\u8cea\u8abf\u67fb\u696d\u52d9","client_name":"\u56fd\u571f\u4ea4\u901a\u7701\u6771\u5317\u5730\u65b9\u6574\u5099\u5c40\u4e0b\u9928\u6cb3\u5ddd\u4e8b\u52d9\u6240","boring_xml_url":47,"boring_view_url":1,"soilmap_view_url":null,"soiltest_xml_url":47,"soiltest_view_url":47},{"id":109891,"code":"NGIC201800321-0027","latitude":"35.97875","longitude":"139.97304722222","source_code":"","project_name":"","survey_name":"H30\u4e0b\u9928\u7ba1\u5185\u5730\u8cea\u8abf\u67fb\u696d\u52d9","client_name":"\u56fd\u571f\u4ea4\u901a\u7701\u6771\u5317\u5730\u65b9\u6574\u5099\u5c40\u4e0b\u9928\u6cb3\u5ddd\u4e8b\u52d9\u6240","boring_xml_url":47,"boring_view_url":1,"soilmap_view_url":null,"soiltest_xml_url":0,"soiltest_view_url":0},{"id":109890,"code":"NGIC201800321-0026","latitude":"35.97875","longitude":"139.97304722222","source_code":"","project_name":"","survey_name":"H30\u4e0b\u9928\u7ba1\u5185\u5730\u8cea\u8abf\u67fb\u696d\u52d9","client_name":"\u56fd\u571f\u4ea4\u901a\u7701\u6771\u5317\u5730\u65b9\u6574\u5099\u5c40\u4e0b\u9928\u6cb3\u5ddd\u4e8b\u52d9\u6240","boring_xml_url":47,"boring_view_url":1,"soilmap_view_url":null,"soiltest_xml_url":47,"soiltest_view_url":47},{"id":109889,"code":"NGIC201800321-0025","latitude":"35.979413888889","longitude":"139.97364444444","source_code":"","project_name":"","survey_name":"H30\u4e0b\u9928\u7ba1\u5185\u5730\u8cea\u8abf\u67fb\u696d\u52d9","client_name":"\u56fd\u571f\u4ea4\u901a\u7701\u6771\u5317\u5730\u65b9\u6574\u5099\u5c40\u4e0b\u9928\u6cb3\u5ddd\u4e8b\u52d9\u6240","boring_xml_url":47,"boring_view_url":1,"soilmap_view_url":null,"soiltest_xml_url":47,"soiltest_view_url":47},{"id":109888,"code":"NGIC201800321-0024","latitude":"35.979969444444","longitude":"139.97391388889","source_code":"","project_name":"","survey_name":"H30\u4e0b\u9928\u7ba1\u5185\u5730\u8cea\u8abf\u67fb\u696d\u52d9","client_name":"\u56fd\u571f\u4ea4\u901a\u7701\u6771\u5317\u5730\u65b9\u6574\u5099\u5c40\u4e0b\u9928\u6cb3\u5ddd\u4e8b\u52d9\u6240","boring_xml_url":47,"boring_view_url":1,"soilmap_view_url":null,"soiltest_xml_url":0,"soiltest_view_url":0},{"id":109887,"code":"NGIC201800321-0023","latitude":"35.979969444444","longitude":"139.97391388889","source_code":"","project_name":"","survey_name":"H30\u4e0b\u9928\u7ba1\u5185\u5730\u8cea\u8abf\u67fb\u696d\u52d9","client_name":"\u56fd\u571f\u4ea4\u901a\u7701\u6771\u5317\u5730\u65b9\u6574\u5099\u5c40\u4e0b\u9928\u6cb3\u5ddd\u4e8b\u52d9\u6240","boring_xml_url":47,"boring_view_url":1,"soilmap_view_url":null,"soiltest_xml_url":0,"soiltest_view_url":0},{"id":109886,"code":"NGIC201800321-0022","latitude":"35.979969444444","longitude":"139.97391388889","source_code":"","project_name":"","survey_name":"H30\u4e0b\u9928\u7ba1\u5185\u5730\u8cea\u8abf\u67fb\u696d\u52d9","client_name":"\u56fd\u571f\u4ea4\u901a\u7701\u6771\u5317\u5730\u65b9\u6574\u5099\u5c40\u4e0b\u9928\u6cb3\u5ddd\u4e8b\u52d9\u6240","boring_xml_url":47,"boring_view_url":1,"soilmap_view_url":null,"soiltest_xml_url":47,"soiltest_view_url":47},{"id":109885,"code":"NGIC201800321-0021","latitude":"36.194936111111","longitude":"139.99135","source_code":"","project_name":"","survey_name":"H30\u4e0b\u9928\u7ba1\u5185\u5730\u8cea\u8abf\u67fb\u696d\u52d9","client_name":"\u56fd\u571f\u4ea4\u901a\u7701\u6771\u5317\u5730\u65b9\u6574\u5099\u5c40\u4e0b\u9928\u6cb3\u5ddd\u4e8b\u52d9\u6240","boring_xml_url":47,"boring_view_url":1,"soilmap_view_url":null,"soiltest_xml_url":47,"soiltest_view_url":47},{"id":109884,"code":"NGIC201800321-0020","latitude":"36.192797222222","longitude":"139.990825","source_code":"","project_name":"","survey_name":"H30\u4e0b\u9928\u7ba1\u5185\u5730\u8cea\u8abf\u67fb\u696d\u52d9","client_name":"\u56fd\u571f\u4ea4\u901a\u7701\u6771\u5317\u5730\u65b9\u6574\u5099\u5c40\u4e0b\u9928\u6cb3\u5ddd\u4e8b\u52d9\u6240","boring_xml_url":47,"boring_view_url":1,"soilmap_view_url":null,"soiltest_xml_url":47,"soiltest_view_url":47},{"id":109883,"code":"NGIC201800321-0019","latitude":"36.192761111111","longitude":"139.98933888889","source_code":"","project_name":"","survey_name":"H30\u4e0b\u9928\u7ba1\u5185\u5730\u8cea\u8abf\u67fb\u696d\u52d9","client_name":"\u56fd\u571f\u4ea4\u901a\u7701\u6771\u5317\u5730\u65b9\u6574\u5099\u5c40\u4e0b\u9928\u6cb3\u5ddd\u4e8b\u52d9\u6240","boring_xml_url":47,"boring_view_url":1,"soilmap_view_url":null,"soiltest_xml_url":47,"soiltest_view_url":47},{"id":109882,"code":"NGIC201800321-0018","latitude":"36.193647222222","longitude":"139.98928611111","source_code":"","project_name":"","survey_name":"H30\u4e0b\u9928\u7ba1\u5185\u5730\u8cea\u8abf\u67fb\u696d\u52d9","client_name":"\u56fd\u571f\u4ea4\u901a\u7701\u6771\u5317\u5730\u65b9\u6574\u5099\u5c40\u4e0b\u9928\u6cb3\u5ddd\u4e8b\u52d9\u6240","boring_xml_url":47,"boring_view_url":1,"soilmap_view_url":null,"soiltest_xml_url":47,"soiltest_view_url":47},{"id":109881,"code":"NGIC201800321-0017","latitude":"36.195088888889","longitude":"139.98815833333","source_code":"","project_name":"","survey_name":"H30\u4e0b\u9928\u7ba1\u5185\u5730\u8cea\u8abf\u67fb\u696d\u52d9","client_name":"\u56fd\u571f\u4ea4\u901a\u7701\u6771\u5317\u5730\u65b9\u6574\u5099\u5c40\u4e0b\u9928\u6cb3\u5ddd\u4e8b\u52d9\u6240","boring_xml_url":47,"boring_view_url":1,"soilmap_view_url":null,"soiltest_xml_url":47,"soiltest_view_url":47},{"id":109880,"code":"NGIC201800321-0016","latitude":"36.037713888889","longitude":"139.98092222222","source_code":"","project_name":"","survey_name":"H30\u4e0b\u9928\u7ba1\u5185\u5730\u8cea\u8abf\u67fb\u696d\u52d9","client_name":"\u56fd\u571f\u4ea4\u901a\u7701\u6771\u5317\u5730\u65b9\u6574\u5099\u5c40\u4e0b\u9928\u6cb3\u5ddd\u4e8b\u52d9\u6240","boring_xml_url":47,"boring_view_url":1,"soilmap_view_url":null,"soiltest_xml_url":0,"soiltest_view_url":0},{"id":109879,"code":"NGIC201800321-0015","latitude":"36.0376","longitude":"139.98112777778","source_code":"","project_name":"","survey_name":"H30\u4e0b\u9928\u7ba1\u5185\u5730\u8cea\u8abf\u67fb\u696d\u52d9","client_name":"\u56fd\u571f\u4ea4\u901a\u7701\u6771\u5317\u5730\u65b9\u6574\u5099\u5c40\u4e0b\u9928\u6cb3\u5ddd\u4e8b\u52d9\u6240","boring_xml_url":47,"boring_view_url":1,"soilmap_view_url":null,"soiltest_xml_url":47,"soiltest_view_url":47},{"id":109878,"code":"NGIC201800321-0014","latitude":"35.975030555556","longitude":"139.96544722222","source_code":"","project_name":"","survey_name":"H30\u4e0b\u9928\u7ba1\u5185\u5730\u8cea\u8abf\u67fb\u696d\u52d9","client_name":"\u56fd\u571f\u4ea4\u901a\u7701\u6771\u5317\u5730\u65b9\u6574\u5099\u5c40\u4e0b\u9928\u6cb3\u5ddd\u4e8b\u52d9\u6240","boring_xml_url":47,"boring_view_url":1,"soilmap_view_url":null,"soiltest_xml_url":47,"soiltest_view_url":47}]}}