{"header":{"xyz":{"source":[],"mosaic":false},"page":7023,"raw":{"soiltest_result":"0","bbox":"57.598333,109.544722,1.933333,163.806111","page":"7023"},"conditions":{"soiltest_result":0,"north":57.598333,"west":109.544722,"south":1.933333,"east":163.806111},"success":true,"message":""},"data":{"meta":{"total":212844,"page":7023,"pages":7095,"count":30},"values":[{"id":109713,"code":"NGIC201800303-0010","latitude":"34.481516666667","longitude":"133.52402222222","source_code":"","project_name":"\u5e73\u621030\u5e74\u5ea6\u7b20\u5ca1\u30d0\u30a4\u30d1\u30b9\u5165\u6c5f\u9ad8\u67b6\u6a4b\u5730\u8cea\u8abf\u67fb\u696d\u52d9","survey_name":"\u5e73\u621030\u5e74\u5ea6\u7b20\u5ca1\u30d0\u30a4\u30d1\u30b9\u5165\u6c5f\u9ad8\u67b6\u6a4b\u5730\u8cea\u8abf\u67fb\u696d\u52d9","client_name":"\u56fd\u571f\u4ea4\u901a\u7701\u4e2d\u56fd\u5730\u65b9\u6574\u5099\u5c40\u5ca1\u5c71\u56fd\u9053\u4e8b\u52d9\u6240","boring_xml_url":47,"boring_view_url":1,"soilmap_view_url":null,"soiltest_xml_url":47,"soiltest_view_url":47},{"id":109712,"code":"NGIC201800303-0009","latitude":"34.481413888889","longitude":"133.524325","source_code":"","project_name":"\u5e73\u621030\u5e74\u5ea6\u7b20\u5ca1\u30d0\u30a4\u30d1\u30b9\u5165\u6c5f\u9ad8\u67b6\u6a4b\u5730\u8cea\u8abf\u67fb\u696d\u52d9","survey_name":"\u5e73\u621030\u5e74\u5ea6\u7b20\u5ca1\u30d0\u30a4\u30d1\u30b9\u5165\u6c5f\u9ad8\u67b6\u6a4b\u5730\u8cea\u8abf\u67fb\u696d\u52d9","client_name":"\u56fd\u571f\u4ea4\u901a\u7701\u4e2d\u56fd\u5730\u65b9\u6574\u5099\u5c40\u5ca1\u5c71\u56fd\u9053\u4e8b\u52d9\u6240","boring_xml_url":47,"boring_view_url":1,"soilmap_view_url":null,"soiltest_xml_url":47,"soiltest_view_url":47},{"id":109711,"code":"NGIC201800303-0008","latitude":"34.481555555556","longitude":"133.52436944444","source_code":"","project_name":"\u5e73\u621030\u5e74\u5ea6\u7b20\u5ca1\u30d0\u30a4\u30d1\u30b9\u5165\u6c5f\u9ad8\u67b6\u6a4b\u5730\u8cea\u8abf\u67fb\u696d\u52d9","survey_name":"\u5e73\u621030\u5e74\u5ea6\u7b20\u5ca1\u30d0\u30a4\u30d1\u30b9\u5165\u6c5f\u9ad8\u67b6\u6a4b\u5730\u8cea\u8abf\u67fb\u696d\u52d9","client_name":"\u56fd\u571f\u4ea4\u901a\u7701\u4e2d\u56fd\u5730\u65b9\u6574\u5099\u5c40\u5ca1\u5c71\u56fd\u9053\u4e8b\u52d9\u6240","boring_xml_url":47,"boring_view_url":1,"soilmap_view_url":null,"soiltest_xml_url":47,"soiltest_view_url":47},{"id":109710,"code":"NGIC201800303-0007","latitude":"34.481472222222","longitude":"133.52459444444","source_code":"","project_name":"\u5e73\u621030\u5e74\u5ea6\u7b20\u5ca1\u30d0\u30a4\u30d1\u30b9\u5165\u6c5f\u9ad8\u67b6\u6a4b\u5730\u8cea\u8abf\u67fb\u696d\u52d9","survey_name":"\u5e73\u621030\u5e74\u5ea6\u7b20\u5ca1\u30d0\u30a4\u30d1\u30b9\u5165\u6c5f\u9ad8\u67b6\u6a4b\u5730\u8cea\u8abf\u67fb\u696d\u52d9","client_name":"\u56fd\u571f\u4ea4\u901a\u7701\u4e2d\u56fd\u5730\u65b9\u6574\u5099\u5c40\u5ca1\u5c71\u56fd\u9053\u4e8b\u52d9\u6240","boring_xml_url":47,"boring_view_url":1,"soilmap_view_url":null,"soiltest_xml_url":47,"soiltest_view_url":47},{"id":109709,"code":"NGIC201800303-0006","latitude":"34.481627777778","longitude":"133.52466111111","source_code":"","project_name":"\u5e73\u621030\u5e74\u5ea6\u7b20\u5ca1\u30d0\u30a4\u30d1\u30b9\u5165\u6c5f\u9ad8\u67b6\u6a4b\u5730\u8cea\u8abf\u67fb\u696d\u52d9","survey_name":"\u5e73\u621030\u5e74\u5ea6\u7b20\u5ca1\u30d0\u30a4\u30d1\u30b9\u5165\u6c5f\u9ad8\u67b6\u6a4b\u5730\u8cea\u8abf\u67fb\u696d\u52d9","client_name":"\u56fd\u571f\u4ea4\u901a\u7701\u4e2d\u56fd\u5730\u65b9\u6574\u5099\u5c40\u5ca1\u5c71\u56fd\u9053\u4e8b\u52d9\u6240","boring_xml_url":47,"boring_view_url":1,"soilmap_view_url":null,"soiltest_xml_url":47,"soiltest_view_url":47},{"id":109708,"code":"NGIC201800303-0005","latitude":"34.481519444444","longitude":"133.52509444444","source_code":"","project_name":"\u5e73\u621030\u5e74\u5ea6\u7b20\u5ca1\u30d0\u30a4\u30d1\u30b9\u5165\u6c5f\u9ad8\u67b6\u6a4b\u5730\u8cea\u8abf\u67fb\u696d\u52d9","survey_name":"\u5e73\u621030\u5e74\u5ea6\u7b20\u5ca1\u30d0\u30a4\u30d1\u30b9\u5165\u6c5f\u9ad8\u67b6\u6a4b\u5730\u8cea\u8abf\u67fb\u696d\u52d9","client_name":"\u56fd\u571f\u4ea4\u901a\u7701\u4e2d\u56fd\u5730\u65b9\u6574\u5099\u5c40\u5ca1\u5c71\u56fd\u9053\u4e8b\u52d9\u6240","boring_xml_url":47,"boring_view_url":1,"soilmap_view_url":null,"soiltest_xml_url":47,"soiltest_view_url":47},{"id":109707,"code":"NGIC201800303-0004","latitude":"34.481683333333","longitude":"133.52507222222","source_code":"","project_name":"\u5e73\u621030\u5e74\u5ea6\u7b20\u5ca1\u30d0\u30a4\u30d1\u30b9\u5165\u6c5f\u9ad8\u67b6\u6a4b\u5730\u8cea\u8abf\u67fb\u696d\u52d9","survey_name":"\u5e73\u621030\u5e74\u5ea6\u7b20\u5ca1\u30d0\u30a4\u30d1\u30b9\u5165\u6c5f\u9ad8\u67b6\u6a4b\u5730\u8cea\u8abf\u67fb\u696d\u52d9","client_name":"\u56fd\u571f\u4ea4\u901a\u7701\u4e2d\u56fd\u5730\u65b9\u6574\u5099\u5c40\u5ca1\u5c71\u56fd\u9053\u4e8b\u52d9\u6240","boring_xml_url":47,"boring_view_url":1,"soilmap_view_url":null,"soiltest_xml_url":47,"soiltest_view_url":47},{"id":109706,"code":"NGIC201800303-0003","latitude":"34.481591666667","longitude":"133.52538888889","source_code":"","project_name":"\u5e73\u621030\u5e74\u5ea6\u7b20\u5ca1\u30d0\u30a4\u30d1\u30b9\u5165\u6c5f\u9ad8\u67b6\u6a4b\u5730\u8cea\u8abf\u67fb\u696d\u52d9","survey_name":"\u5e73\u621030\u5e74\u5ea6\u7b20\u5ca1\u30d0\u30a4\u30d1\u30b9\u5165\u6c5f\u9ad8\u67b6\u6a4b\u5730\u8cea\u8abf\u67fb\u696d\u52d9","client_name":"\u56fd\u571f\u4ea4\u901a\u7701\u4e2d\u56fd\u5730\u65b9\u6574\u5099\u5c40\u5ca1\u5c71\u56fd\u9053\u4e8b\u52d9\u6240","boring_xml_url":47,"boring_view_url":1,"soilmap_view_url":null,"soiltest_xml_url":47,"soiltest_view_url":47},{"id":109705,"code":"NGIC201800303-0002","latitude":"34.481719444444","longitude":"133.52534444444","source_code":"","project_name":"\u5e73\u621030\u5e74\u5ea6\u7b20\u5ca1\u30d0\u30a4\u30d1\u30b9\u5165\u6c5f\u9ad8\u67b6\u6a4b\u5730\u8cea\u8abf\u67fb\u696d\u52d9","survey_name":"\u5e73\u621030\u5e74\u5ea6\u7b20\u5ca1\u30d0\u30a4\u30d1\u30b9\u5165\u6c5f\u9ad8\u67b6\u6a4b\u5730\u8cea\u8abf\u67fb\u696d\u52d9","client_name":"\u56fd\u571f\u4ea4\u901a\u7701\u4e2d\u56fd\u5730\u65b9\u6574\u5099\u5c40\u5ca1\u5c71\u56fd\u9053\u4e8b\u52d9\u6240","boring_xml_url":47,"boring_view_url":1,"soilmap_view_url":null,"soiltest_xml_url":47,"soiltest_view_url":47},{"id":109704,"code":"NGIC201800303-0001","latitude":"34.481711111111","longitude":"133.52576666667","source_code":"","project_name":"\u5e73\u621030\u5e74\u5ea6\u7b20\u5ca1\u30d0\u30a4\u30d1\u30b9\u5165\u6c5f\u9ad8\u67b6\u6a4b\u5730\u8cea\u8abf\u67fb\u696d\u52d9","survey_name":"\u5e73\u621030\u5e74\u5ea6\u7b20\u5ca1\u30d0\u30a4\u30d1\u30b9\u5165\u6c5f\u9ad8\u67b6\u6a4b\u5730\u8cea\u8abf\u67fb\u696d\u52d9","client_name":"\u56fd\u571f\u4ea4\u901a\u7701\u4e2d\u56fd\u5730\u65b9\u6574\u5099\u5c40\u5ca1\u5c71\u56fd\u9053\u4e8b\u52d9\u6240","boring_xml_url":47,"boring_view_url":1,"soilmap_view_url":null,"soiltest_xml_url":47,"soiltest_view_url":47},{"id":109703,"code":"NGIC201800298-0019","latitude":"34.288568694444","longitude":"132.52625616667","source_code":"","project_name":"","survey_name":"\u5e73\u621030\u5e74\u5ea6 \u5e83\u5cf6\u5b89\u82b8\u5357\u90e8\u5c71\u7cfb\u5929\u5fdc\u5730\u533a\u8c6a\u96e8\u707d\u5bb3\u7dca\u6025\u8abf\u67fb\u696d\u52d9","client_name":"\u56fd\u571f\u4ea4\u901a\u7701\u4e2d\u56fd\u5730\u65b9\u6574\u5099\u5c40\u592a\u7530\u5ddd\u6cb3\u5ddd\u4e8b\u52d9\u6240","boring_xml_url":47,"boring_view_url":1,"soilmap_view_url":null,"soiltest_xml_url":0,"soiltest_view_url":0},{"id":109702,"code":"NGIC201800298-0018","latitude":"34.288886833333","longitude":"132.52643380556","source_code":"","project_name":"","survey_name":"\u5e73\u621030\u5e74\u5ea6 \u5e83\u5cf6\u5b89\u82b8\u5357\u90e8\u5c71\u7cfb\u5929\u5fdc\u5730\u533a\u8c6a\u96e8\u707d\u5bb3\u7dca\u6025\u8abf\u67fb\u696d\u52d9","client_name":"\u56fd\u571f\u4ea4\u901a\u7701\u4e2d\u56fd\u5730\u65b9\u6574\u5099\u5c40\u592a\u7530\u5ddd\u6cb3\u5ddd\u4e8b\u52d9\u6240","boring_xml_url":47,"boring_view_url":1,"soilmap_view_url":null,"soiltest_xml_url":0,"soiltest_view_url":0},{"id":109701,"code":"NGIC201800298-0017","latitude":"34.28890775","longitude":"132.52667375","source_code":"","project_name":"","survey_name":"\u5e73\u621030\u5e74\u5ea6 \u5e83\u5cf6\u5b89\u82b8\u5357\u90e8\u5c71\u7cfb\u5929\u5fdc\u5730\u533a\u8c6a\u96e8\u707d\u5bb3\u7dca\u6025\u8abf\u67fb\u696d\u52d9","client_name":"\u56fd\u571f\u4ea4\u901a\u7701\u4e2d\u56fd\u5730\u65b9\u6574\u5099\u5c40\u592a\u7530\u5ddd\u6cb3\u5ddd\u4e8b\u52d9\u6240","boring_xml_url":47,"boring_view_url":1,"soilmap_view_url":null,"soiltest_xml_url":0,"soiltest_view_url":0},{"id":109700,"code":"NGIC201800298-0016","latitude":"34.29224975","longitude":"132.53106613889","source_code":"","project_name":"","survey_name":"\u5e73\u621030\u5e74\u5ea6 \u5e83\u5cf6\u5b89\u82b8\u5357\u90e8\u5c71\u7cfb\u5929\u5fdc\u5730\u533a\u8c6a\u96e8\u707d\u5bb3\u7dca\u6025\u8abf\u67fb\u696d\u52d9","client_name":"\u56fd\u571f\u4ea4\u901a\u7701\u4e2d\u56fd\u5730\u65b9\u6574\u5099\u5c40\u592a\u7530\u5ddd\u6cb3\u5ddd\u4e8b\u52d9\u6240","boring_xml_url":47,"boring_view_url":1,"soilmap_view_url":null,"soiltest_xml_url":0,"soiltest_view_url":0},{"id":109699,"code":"NGIC201800298-0015","latitude":"34.292096833333","longitude":"132.5309565","source_code":"","project_name":"","survey_name":"\u5e73\u621030\u5e74\u5ea6 \u5e83\u5cf6\u5b89\u82b8\u5357\u90e8\u5c71\u7cfb\u5929\u5fdc\u5730\u533a\u8c6a\u96e8\u707d\u5bb3\u7dca\u6025\u8abf\u67fb\u696d\u52d9","client_name":"\u56fd\u571f\u4ea4\u901a\u7701\u4e2d\u56fd\u5730\u65b9\u6574\u5099\u5c40\u592a\u7530\u5ddd\u6cb3\u5ddd\u4e8b\u52d9\u6240","boring_xml_url":47,"boring_view_url":1,"soilmap_view_url":null,"soiltest_xml_url":0,"soiltest_view_url":0},{"id":109698,"code":"NGIC201800298-0014","latitude":"34.292132805556","longitude":"132.53110677778","source_code":"","project_name":"","survey_name":"\u5e73\u621030\u5e74\u5ea6 \u5e83\u5cf6\u5b89\u82b8\u5357\u90e8\u5c71\u7cfb\u5929\u5fdc\u5730\u533a\u8c6a\u96e8\u707d\u5bb3\u7dca\u6025\u8abf\u67fb\u696d\u52d9","client_name":"\u56fd\u571f\u4ea4\u901a\u7701\u4e2d\u56fd\u5730\u65b9\u6574\u5099\u5c40\u592a\u7530\u5ddd\u6cb3\u5ddd\u4e8b\u52d9\u6240","boring_xml_url":47,"boring_view_url":1,"soilmap_view_url":null,"soiltest_xml_url":0,"soiltest_view_url":0},{"id":109697,"code":"NGIC201800298-0013","latitude":"34.292169027778","longitude":"132.53125811111","source_code":"","project_name":"","survey_name":"\u5e73\u621030\u5e74\u5ea6 \u5e83\u5cf6\u5b89\u82b8\u5357\u90e8\u5c71\u7cfb\u5929\u5fdc\u5730\u533a\u8c6a\u96e8\u707d\u5bb3\u7dca\u6025\u8abf\u67fb\u696d\u52d9","client_name":"\u56fd\u571f\u4ea4\u901a\u7701\u4e2d\u56fd\u5730\u65b9\u6574\u5099\u5c40\u592a\u7530\u5ddd\u6cb3\u5ddd\u4e8b\u52d9\u6240","boring_xml_url":47,"boring_view_url":1,"soilmap_view_url":null,"soiltest_xml_url":0,"soiltest_view_url":0},{"id":109696,"code":"NGIC201800298-0012","latitude":"34.297981055556","longitude":"132.53879461111","source_code":"","project_name":"","survey_name":"\u5e73\u621030\u5e74\u5ea6 \u5e83\u5cf6\u5b89\u82b8\u5357\u90e8\u5c71\u7cfb\u5929\u5fdc\u5730\u533a\u8c6a\u96e8\u707d\u5bb3\u7dca\u6025\u8abf\u67fb\u696d\u52d9","client_name":"\u56fd\u571f\u4ea4\u901a\u7701\u4e2d\u56fd\u5730\u65b9\u6574\u5099\u5c40\u592a\u7530\u5ddd\u6cb3\u5ddd\u4e8b\u52d9\u6240","boring_xml_url":47,"boring_view_url":1,"soilmap_view_url":null,"soiltest_xml_url":0,"soiltest_view_url":0},{"id":109695,"code":"NGIC201800298-0011","latitude":"34.297849055556","longitude":"132.53910044444","source_code":"","project_name":"","survey_name":"\u5e73\u621030\u5e74\u5ea6 \u5e83\u5cf6\u5b89\u82b8\u5357\u90e8\u5c71\u7cfb\u5929\u5fdc\u5730\u533a\u8c6a\u96e8\u707d\u5bb3\u7dca\u6025\u8abf\u67fb\u696d\u52d9","client_name":"\u56fd\u571f\u4ea4\u901a\u7701\u4e2d\u56fd\u5730\u65b9\u6574\u5099\u5c40\u592a\u7530\u5ddd\u6cb3\u5ddd\u4e8b\u52d9\u6240","boring_xml_url":47,"boring_view_url":1,"soilmap_view_url":null,"soiltest_xml_url":0,"soiltest_view_url":0},{"id":109694,"code":"NGIC201800298-0010","latitude":"34.298036166667","longitude":"132.53892616667","source_code":"","project_name":"","survey_name":"\u5e73\u621030\u5e74\u5ea6 \u5e83\u5cf6\u5b89\u82b8\u5357\u90e8\u5c71\u7cfb\u5929\u5fdc\u5730\u533a\u8c6a\u96e8\u707d\u5bb3\u7dca\u6025\u8abf\u67fb\u696d\u52d9","client_name":"\u56fd\u571f\u4ea4\u901a\u7701\u4e2d\u56fd\u5730\u65b9\u6574\u5099\u5c40\u592a\u7530\u5ddd\u6cb3\u5ddd\u4e8b\u52d9\u6240","boring_xml_url":47,"boring_view_url":1,"soilmap_view_url":null,"soiltest_xml_url":0,"soiltest_view_url":0},{"id":109693,"code":"NGIC201800298-0009","latitude":"34.298178416667","longitude":"132.53879530556","source_code":"","project_name":"","survey_name":"\u5e73\u621030\u5e74\u5ea6 \u5e83\u5cf6\u5b89\u82b8\u5357\u90e8\u5c71\u7cfb\u5929\u5fdc\u5730\u533a\u8c6a\u96e8\u707d\u5bb3\u7dca\u6025\u8abf\u67fb\u696d\u52d9","client_name":"\u56fd\u571f\u4ea4\u901a\u7701\u4e2d\u56fd\u5730\u65b9\u6574\u5099\u5c40\u592a\u7530\u5ddd\u6cb3\u5ddd\u4e8b\u52d9\u6240","boring_xml_url":47,"boring_view_url":1,"soilmap_view_url":null,"soiltest_xml_url":0,"soiltest_view_url":0},{"id":109692,"code":"NGIC201800298-0008","latitude":"34.2938915","longitude":"132.52434475","source_code":"","project_name":"","survey_name":"\u5e73\u621030\u5e74\u5ea6\u5e83\u5cf6\u5b89\u82b8\u5357\u90e8\u5c71\u7cfb\u5929\u5fdc\u5730\u533a\u8c6a\u96e8\u707d\u5bb3\u7dca\u6025\u8abf\u67fb\u696d\u52d9","client_name":"\u56fd\u571f\u4ea4\u901a\u7701\u4e2d\u56fd\u5730\u65b9\u6574\u5099\u5c40\u592a\u7530\u5ddd\u6cb3\u5ddd\u4e8b\u52d9\u6240","boring_xml_url":47,"boring_view_url":1,"soilmap_view_url":null,"soiltest_xml_url":0,"soiltest_view_url":0},{"id":109691,"code":"NGIC201800298-0007","latitude":"34.293756361111","longitude":"132.52464727778","source_code":"","project_name":"","survey_name":"\u5e73\u621030\u5e74\u5ea6\u5e83\u5cf6\u5b89\u82b8\u5357\u90e8\u5c71\u7cfb\u5929\u5fdc\u5730\u533a\u8c6a\u96e8\u707d\u5bb3\u7dca\u6025\u8abf\u67fb\u696d\u52d9","client_name":"\u56fd\u571f\u4ea4\u901a\u7701\u4e2d\u56fd\u5730\u65b9\u6574\u5099\u5c40\u592a\u7530\u5ddd\u6cb3\u5ddd\u4e8b\u52d9\u6240","boring_xml_url":47,"boring_view_url":1,"soilmap_view_url":null,"soiltest_xml_url":0,"soiltest_view_url":0},{"id":109690,"code":"NGIC201800298-0006","latitude":"34.293970055556","longitude":"132.52450911111","source_code":"","project_name":"","survey_name":"\u5e73\u621030\u5e74\u5ea6\u5e83\u5cf6\u5b89\u82b8\u5357\u90e8\u5c71\u7cfb\u5929\u5fdc\u5730\u533a\u8c6a\u96e8\u707d\u5bb3\u7dca\u6025\u8abf\u67fb\u696d\u52d9","client_name":"\u56fd\u571f\u4ea4\u901a\u7701\u4e2d\u56fd\u5730\u65b9\u6574\u5099\u5c40\u592a\u7530\u5ddd\u6cb3\u5ddd\u4e8b\u52d9\u6240","boring_xml_url":47,"boring_view_url":1,"soilmap_view_url":null,"soiltest_xml_url":0,"soiltest_view_url":0},{"id":109689,"code":"NGIC201800298-0005","latitude":"34.294159111111","longitude":"132.52438683333","source_code":"","project_name":"","survey_name":"\u5e73\u621030\u5e74\u5ea6\u5e83\u5cf6\u5b89\u82b8\u5357\u90e8\u5c71\u7cfb\u5929\u5fdc\u5730\u533a\u8c6a\u96e8\u707d\u5bb3\u7dca\u6025\u8abf\u67fb\u696d\u52d9","client_name":"\u56fd\u571f\u4ea4\u901a\u7701\u4e2d\u56fd\u5730\u65b9\u6574\u5099\u5c40\u592a\u7530\u5ddd\u6cb3\u5ddd\u4e8b\u52d9\u6240","boring_xml_url":47,"boring_view_url":1,"soilmap_view_url":null,"soiltest_xml_url":0,"soiltest_view_url":0},{"id":109688,"code":"NGIC201800298-0004","latitude":"34.292230277778","longitude":"132.52364588889","source_code":"","project_name":"","survey_name":"\u5e73\u621030\u5e74\u5ea6\u5e83\u5cf6\u5b89\u82b8\u5357\u90e8\u5c71\u7cfb\u5929\u5fdc\u5730\u533a\u8c6a\u96e8\u707d\u5bb3\u7dca\u6025\u8abf\u67fb\u696d\u52d9","client_name":"\u56fd\u571f\u4ea4\u901a\u7701\u4e2d\u56fd\u5730\u65b9\u6574\u5099\u5c40\u592a\u7530\u5ddd\u6cb3\u5ddd\u4e8b\u52d9\u6240","boring_xml_url":47,"boring_view_url":1,"soilmap_view_url":null,"soiltest_xml_url":0,"soiltest_view_url":0},{"id":109687,"code":"NGIC201800298-0003","latitude":"34.29206975","longitude":"132.52378811111","source_code":"","project_name":"","survey_name":"\u5e73\u621030\u5e74\u5ea6\u5e83\u5cf6\u5b89\u82b8\u5357\u90e8\u5c71\u7cfb\u5929\u5fdc\u5730\u533a\u8c6a\u96e8\u707d\u5bb3\u7dca\u6025\u8abf\u67fb\u696d\u52d9","client_name":"\u56fd\u571f\u4ea4\u901a\u7701\u4e2d\u56fd\u5730\u65b9\u6574\u5099\u5c40\u592a\u7530\u5ddd\u6cb3\u5ddd\u4e8b\u52d9\u6240","boring_xml_url":47,"boring_view_url":1,"soilmap_view_url":null,"soiltest_xml_url":0,"soiltest_view_url":0},{"id":109686,"code":"NGIC201800298-0002","latitude":"34.292227472222","longitude":"132.52379247222","source_code":"","project_name":"","survey_name":"\u5e73\u621030\u5e74\u5ea6\u5e83\u5cf6\u5b89\u82b8\u5357\u90e8\u5c71\u7cfb\u5929\u5fdc\u5730\u533a\u8c6a\u96e8\u707d\u5bb3\u7dca\u6025\u8abf\u67fb\u696d\u52d9","client_name":"\u56fd\u571f\u4ea4\u901a\u7701\u4e2d\u56fd\u5730\u65b9\u6574\u5099\u5c40\u592a\u7530\u5ddd\u6cb3\u5ddd\u4e8b\u52d9\u6240","boring_xml_url":47,"boring_view_url":1,"soilmap_view_url":null,"soiltest_xml_url":0,"soiltest_view_url":0},{"id":109685,"code":"NGIC201800298-0001","latitude":"34.29241675","longitude":"132.52379772222","source_code":"","project_name":"","survey_name":"\u5e73\u621030\u5e74\u5ea6\u5e83\u5cf6\u5b89\u82b8\u5357\u90e8\u5c71\u7cfb\u5929\u5fdc\u5730\u533a\u8c6a\u96e8\u707d\u5bb3\u7dca\u6025\u8abf\u67fb\u696d\u52d9","client_name":"\u56fd\u571f\u4ea4\u901a\u7701\u4e2d\u56fd\u5730\u65b9\u6574\u5099\u5c40\u592a\u7530\u5ddd\u6cb3\u5ddd\u4e8b\u52d9\u6240","boring_xml_url":47,"boring_view_url":1,"soilmap_view_url":null,"soiltest_xml_url":0,"soiltest_view_url":0},{"id":109684,"code":"NGIC201800296-0010","latitude":"33.28875","longitude":"130.16319444444","source_code":"","project_name":"\u591a\u4e45\u4f50\u8cc0\u9053\u8def\uff081\u671f\uff09","survey_name":"\u5e73\u621030\u5e74\u5ea6\u591a\u4e45\u4f50\u8cc0\u9053\u8def\uff081\u671f\uff09\u5225\u5e9c\u5730\u533a\u5730\u8cea\u8abf\u67fb\u696d\u52d9","client_name":"\u56fd\u571f\u4ea4\u901a\u7701\u4e5d\u5dde\u5730\u65b9\u6574\u5099\u5c40\u4f50\u8cc0\u56fd\u9053\u4e8b\u52d9\u6240","boring_xml_url":47,"boring_view_url":1,"soilmap_view_url":null,"soiltest_xml_url":0,"soiltest_view_url":0}]}}