{"header":{"xyz":{"source":[],"mosaic":false},"page":7024,"raw":{"soiltest_result":"0","bbox":"57.598333,109.544722,1.933333,163.806111","page":"7024"},"conditions":{"soiltest_result":0,"north":57.598333,"west":109.544722,"south":1.933333,"east":163.806111},"success":true,"message":""},"data":{"meta":{"total":212844,"page":7024,"pages":7095,"count":30},"values":[{"id":109683,"code":"NGIC201800296-0009","latitude":"33.288305555556","longitude":"130.16352777778","source_code":"","project_name":"\u591a\u4e45\u4f50\u8cc0\u9053\u8def\uff081\u671f\uff09","survey_name":"\u5e73\u621030\u5e74\u5ea6\u591a\u4e45\u4f50\u8cc0\u9053\u8def\uff081\u671f\uff09\u5225\u5e9c\u5730\u533a\u5730\u8cea\u8abf\u67fb\u696d\u52d9","client_name":"\u56fd\u571f\u4ea4\u901a\u7701\u4e5d\u5dde\u5730\u65b9\u6574\u5099\u5c40\u4f50\u8cc0\u56fd\u9053\u4e8b\u52d9\u6240","boring_xml_url":47,"boring_view_url":1,"soilmap_view_url":null,"soiltest_xml_url":0,"soiltest_view_url":0},{"id":109682,"code":"NGIC201800296-0008","latitude":"33.288138888889","longitude":"130.16361111111","source_code":"","project_name":"\u591a\u4e45\u4f50\u8cc0\u9053\u8def\uff081\u671f\uff09","survey_name":"\u5e73\u621030\u5e74\u5ea6\u591a\u4e45\u4f50\u8cc0\u9053\u8def\uff081\u671f\uff09\u5225\u5e9c\u5730\u533a\u5730\u8cea\u8abf\u67fb\u696d\u52d9","client_name":"\u56fd\u571f\u4ea4\u901a\u7701\u4e5d\u5dde\u5730\u65b9\u6574\u5099\u5c40\u4f50\u8cc0\u56fd\u9053\u4e8b\u52d9\u6240","boring_xml_url":47,"boring_view_url":1,"soilmap_view_url":null,"soiltest_xml_url":0,"soiltest_view_url":0},{"id":109681,"code":"NGIC201800296-0007","latitude":"33.288277777778","longitude":"130.16283333333","source_code":"","project_name":"\u591a\u4e45\u4f50\u8cc0\u9053\u8def\uff081\u671f\uff09","survey_name":"\u5e73\u621030\u5e74\u5ea6\u591a\u4e45\u4f50\u8cc0\u9053\u8def\uff081\u671f\uff09\u5225\u5e9c\u5730\u533a\u5730\u8cea\u8abf\u67fb\u696d\u52d9","client_name":"\u56fd\u571f\u4ea4\u901a\u7701\u4e5d\u5dde\u5730\u65b9\u6574\u5099\u5c40\u4f50\u8cc0\u56fd\u9053\u4e8b\u52d9\u6240","boring_xml_url":47,"boring_view_url":1,"soilmap_view_url":null,"soiltest_xml_url":0,"soiltest_view_url":0},{"id":109680,"code":"NGIC201800296-0006","latitude":"33.288305555556","longitude":"130.16327777778","source_code":"","project_name":"\u591a\u4e45\u4f50\u8cc0\u9053\u8def\uff081\u671f\uff09","survey_name":"\u5e73\u621030\u5e74\u5ea6\u591a\u4e45\u4f50\u8cc0\u9053\u8def\uff081\u671f\uff09\u5225\u5e9c\u5730\u533a\u5730\u8cea\u8abf\u67fb\u696d\u52d9","client_name":"\u56fd\u571f\u4ea4\u901a\u7701\u4e5d\u5dde\u5730\u65b9\u6574\u5099\u5c40\u4f50\u8cc0\u56fd\u9053\u4e8b\u52d9\u6240","boring_xml_url":47,"boring_view_url":1,"soilmap_view_url":null,"soiltest_xml_url":0,"soiltest_view_url":0},{"id":109679,"code":"NGIC201800296-0005","latitude":"33.288194444444","longitude":"130.16236111111","source_code":"","project_name":"\u591a\u4e45\u4f50\u8cc0\u9053\u8def\uff081\u671f\uff09","survey_name":"\u5e73\u621030\u5e74\u5ea6\u591a\u4e45\u4f50\u8cc0\u9053\u8def\uff081\u671f\uff09\u5225\u5e9c\u5730\u533a\u5730\u8cea\u8abf\u67fb\u696d\u52d9","client_name":"\u56fd\u571f\u4ea4\u901a\u7701\u4e5d\u5dde\u5730\u65b9\u6574\u5099\u5c40\u4f50\u8cc0\u56fd\u9053\u4e8b\u52d9\u6240","boring_xml_url":47,"boring_view_url":1,"soilmap_view_url":null,"soiltest_xml_url":0,"soiltest_view_url":0},{"id":109678,"code":"NGIC201800296-0004","latitude":"33.287888888889","longitude":"130.16213888889","source_code":"","project_name":"\u591a\u4e45\u4f50\u8cc0\u9053\u8def\uff081\u671f\uff09","survey_name":"\u5e73\u621030\u5e74\u5ea6\u591a\u4e45\u4f50\u8cc0\u9053\u8def\uff081\u671f\uff09\u5225\u5e9c\u5730\u533a\u5730\u8cea\u8abf\u67fb\u696d\u52d9","client_name":"\u56fd\u571f\u4ea4\u901a\u7701\u4e5d\u5dde\u5730\u65b9\u6574\u5099\u5c40\u4f50\u8cc0\u56fd\u9053\u4e8b\u52d9\u6240","boring_xml_url":47,"boring_view_url":1,"soilmap_view_url":null,"soiltest_xml_url":47,"soiltest_view_url":47},{"id":109677,"code":"NGIC201800296-0003","latitude":"33.287333333333","longitude":"130.16155555556","source_code":"","project_name":"\u591a\u4e45\u4f50\u8cc0\u9053\u8def\uff081\u671f\uff09","survey_name":"\u5e73\u621030\u5e74\u5ea6\u591a\u4e45\u4f50\u8cc0\u9053\u8def\uff081\u671f\uff09\u5225\u5e9c\u5730\u533a\u5730\u8cea\u8abf\u67fb\u696d\u52d9","client_name":"\u56fd\u571f\u4ea4\u901a\u7701\u4e5d\u5dde\u5730\u65b9\u6574\u5099\u5c40\u4f50\u8cc0\u56fd\u9053\u4e8b\u52d9\u6240","boring_xml_url":47,"boring_view_url":1,"soilmap_view_url":null,"soiltest_xml_url":47,"soiltest_view_url":47},{"id":109676,"code":"NGIC201800296-0002","latitude":"33.287416666667","longitude":"130.16122222222","source_code":"","project_name":"\u591a\u4e45\u4f50\u8cc0\u9053\u8def\uff081\u671f\uff09","survey_name":"\u5e73\u621030\u5e74\u5ea6\u591a\u4e45\u4f50\u8cc0\u9053\u8def\uff081\u671f\uff09\u5225\u5e9c\u5730\u533a\u5730\u8cea\u8abf\u67fb\u696d\u52d9","client_name":"\u56fd\u571f\u4ea4\u901a\u7701\u4e5d\u5dde\u5730\u65b9\u6574\u5099\u5c40\u4f50\u8cc0\u56fd\u9053\u4e8b\u52d9\u6240","boring_xml_url":47,"boring_view_url":1,"soilmap_view_url":null,"soiltest_xml_url":47,"soiltest_view_url":47},{"id":109675,"code":"NGIC201800296-0001","latitude":"33.287222222222","longitude":"130.16105555556","source_code":"","project_name":"\u591a\u4e45\u4f50\u8cc0\u9053\u8def\uff081\u671f\uff09","survey_name":"\u5e73\u621030\u5e74\u5ea6\u591a\u4e45\u4f50\u8cc0\u9053\u8def\uff081\u671f\uff09\u5225\u5e9c\u5730\u533a\u5730\u8cea\u8abf\u67fb\u696d\u52d9","client_name":"\u56fd\u571f\u4ea4\u901a\u7701\u4e5d\u5dde\u5730\u65b9\u6574\u5099\u5c40\u4f50\u8cc0\u56fd\u9053\u4e8b\u52d9\u6240","boring_xml_url":47,"boring_view_url":1,"soilmap_view_url":null,"soiltest_xml_url":47,"soiltest_view_url":47},{"id":109663,"code":"NGIC201800289-0013","latitude":"34.325473583333","longitude":"132.84547072222","source_code":"","project_name":"\n      ","survey_name":"\u5b89\u82b8\u6d25\u30d0\u30a4\u30d1\u30b9\u5730\u8cea\u8abf\u67fb\u305d\u306e1\u696d\u52d9","client_name":"\u56fd\u571f\u4ea4\u901a\u7701\u4e2d\u56fd\u5730\u65b9\u6574\u5099\u5c40\u5e83\u5cf6\u56fd\u9053\u4e8b\u52d9\u6240","boring_xml_url":47,"boring_view_url":1,"soilmap_view_url":null,"soiltest_xml_url":0,"soiltest_view_url":0},{"id":109662,"code":"NGIC201800289-0012","latitude":"34.325562722222","longitude":"132.84559411111","source_code":"","project_name":"\n      ","survey_name":"\u5b89\u82b8\u6d25\u30d0\u30a4\u30d1\u30b9\u5730\u8cea\u8abf\u67fb\u305d\u306e1\u696d\u52d9","client_name":"\u56fd\u571f\u4ea4\u901a\u7701\u4e2d\u56fd\u5730\u65b9\u6574\u5099\u5c40\u5e83\u5cf6\u56fd\u9053\u4e8b\u52d9\u6240","boring_xml_url":47,"boring_view_url":1,"soilmap_view_url":null,"soiltest_xml_url":0,"soiltest_view_url":0},{"id":109661,"code":"NGIC201800289-0011","latitude":"34.325525555556","longitude":"132.84530147222","source_code":"","project_name":"\n      ","survey_name":"\u5b89\u82b8\u6d25\u30d0\u30a4\u30d1\u30b9\u5730\u8cea\u8abf\u67fb\u305d\u306e1\u696d\u52d9","client_name":"\u56fd\u571f\u4ea4\u901a\u7701\u4e2d\u56fd\u5730\u65b9\u6574\u5099\u5c40\u5e83\u5cf6\u56fd\u9053\u4e8b\u52d9\u6240","boring_xml_url":47,"boring_view_url":1,"soilmap_view_url":null,"soiltest_xml_url":0,"soiltest_view_url":0},{"id":109660,"code":"NGIC201800289-0010","latitude":"34.325732527778","longitude":"132.84529122222","source_code":"","project_name":"\n      ","survey_name":"\u5b89\u82b8\u6d25\u30d0\u30a4\u30d1\u30b9\u5730\u8cea\u8abf\u67fb\u305d\u306e1\u696d\u52d9","client_name":"\u56fd\u571f\u4ea4\u901a\u7701\u4e2d\u56fd\u5730\u65b9\u6574\u5099\u5c40\u5e83\u5cf6\u56fd\u9053\u4e8b\u52d9\u6240","boring_xml_url":47,"boring_view_url":1,"soilmap_view_url":null,"soiltest_xml_url":0,"soiltest_view_url":0},{"id":109659,"code":"NGIC201800289-0009","latitude":"34.32708475","longitude":"132.84227630556","source_code":"","project_name":"\n      ","survey_name":"\u5b89\u82b8\u6d25\u30d0\u30a4\u30d1\u30b9\u5730\u8cea\u8abf\u67fb\u305d\u306e1\u696d\u52d9","client_name":"\u56fd\u571f\u4ea4\u901a\u7701\u4e2d\u56fd\u5730\u65b9\u6574\u5099\u5c40\u5e83\u5cf6\u56fd\u9053\u4e8b\u52d9\u6240","boring_xml_url":47,"boring_view_url":1,"soilmap_view_url":null,"soiltest_xml_url":0,"soiltest_view_url":0},{"id":109658,"code":"NGIC201800289-0008","latitude":"34.326877666667","longitude":"132.84232252778","source_code":"","project_name":"\n      ","survey_name":"\u5b89\u82b8\u6d25\u30d0\u30a4\u30d1\u30b9\u5730\u8cea\u8abf\u67fb\u305d\u306e1\u696d\u52d9","client_name":"\u56fd\u571f\u4ea4\u901a\u7701\u4e2d\u56fd\u5730\u65b9\u6574\u5099\u5c40\u5e83\u5cf6\u56fd\u9053\u4e8b\u52d9\u6240","boring_xml_url":47,"boring_view_url":1,"soilmap_view_url":null,"soiltest_xml_url":0,"soiltest_view_url":0},{"id":109657,"code":"NGIC201800289-0007","latitude":"34.327039722222","longitude":"132.84210811111","source_code":"","project_name":"\n      ","survey_name":"\u5b89\u82b8\u6d25\u30d0\u30a4\u30d1\u30b9\u5730\u8cea\u8abf\u67fb\u305d\u306e1\u696d\u52d9","client_name":"\u56fd\u571f\u4ea4\u901a\u7701\u4e2d\u56fd\u5730\u65b9\u6574\u5099\u5c40\u5e83\u5cf6\u56fd\u9053\u4e8b\u52d9\u6240","boring_xml_url":47,"boring_view_url":1,"soilmap_view_url":null,"soiltest_xml_url":0,"soiltest_view_url":0},{"id":109656,"code":"NGIC201800289-0006","latitude":"34.326904166667","longitude":"132.84205922222","source_code":"","project_name":"\n      ","survey_name":"\u5b89\u82b8\u6d25\u30d0\u30a4\u30d1\u30b9\u5730\u8cea\u8abf\u67fb\u305d\u306e1\u696d\u52d9","client_name":"\u56fd\u571f\u4ea4\u901a\u7701\u4e2d\u56fd\u5730\u65b9\u6574\u5099\u5c40\u5e83\u5cf6\u56fd\u9053\u4e8b\u52d9\u6240","boring_xml_url":47,"boring_view_url":1,"soilmap_view_url":null,"soiltest_xml_url":0,"soiltest_view_url":0},{"id":109655,"code":"NGIC201800289-0005","latitude":"34.317135055556","longitude":"132.80533630556","source_code":"","project_name":"\n      ","survey_name":"\u5b89\u82b8\u6d25\u30d0\u30a4\u30d1\u30b9\u5730\u8cea\u8abf\u67fb\u305d\u306e1\u696d\u52d9","client_name":"\u56fd\u571f\u4ea4\u901a\u7701\u4e2d\u56fd\u5730\u65b9\u6574\u5099\u5c40\u5e83\u5cf6\u56fd\u9053\u4e8b\u52d9\u6240","boring_xml_url":47,"boring_view_url":1,"soilmap_view_url":null,"soiltest_xml_url":0,"soiltest_view_url":0},{"id":109654,"code":"NGIC201800289-0004","latitude":"34.316891777778","longitude":"132.80534255556","source_code":"","project_name":"\n      ","survey_name":"\u5b89\u82b8\u6d25\u30d0\u30a4\u30d1\u30b9\u5730\u8cea\u8abf\u67fb\u305d\u306e1\u696d\u52d9","client_name":"\u56fd\u571f\u4ea4\u901a\u7701\u4e2d\u56fd\u5730\u65b9\u6574\u5099\u5c40\u5e83\u5cf6\u56fd\u9053\u4e8b\u52d9\u6240","boring_xml_url":47,"boring_view_url":1,"soilmap_view_url":null,"soiltest_xml_url":0,"soiltest_view_url":0},{"id":109653,"code":"NGIC201800289-0003","latitude":"34.316632166667","longitude":"132.80515963889","source_code":"","project_name":"\n      ","survey_name":"\u5b89\u82b8\u6d25\u30d0\u30a4\u30d1\u30b9\u5730\u8cea\u8abf\u67fb\u305d\u306e1\u696d\u52d9","client_name":"\u56fd\u571f\u4ea4\u901a\u7701\u4e2d\u56fd\u5730\u65b9\u6574\u5099\u5c40\u5e83\u5cf6\u56fd\u9053\u4e8b\u52d9\u6240","boring_xml_url":47,"boring_view_url":1,"soilmap_view_url":null,"soiltest_xml_url":47,"soiltest_view_url":47},{"id":109652,"code":"NGIC201800289-0002","latitude":"34.316050333333","longitude":"132.80491586111","source_code":"","project_name":"\n      ","survey_name":"\u5b89\u82b8\u6d25\u30d0\u30a4\u30d1\u30b9\u5730\u8cea\u8abf\u67fb\u305d\u306e1\u696d\u52d9","client_name":"\u56fd\u571f\u4ea4\u901a\u7701\u4e2d\u56fd\u5730\u65b9\u6574\u5099\u5c40\u5e83\u5cf6\u56fd\u9053\u4e8b\u52d9\u6240","boring_xml_url":47,"boring_view_url":1,"soilmap_view_url":null,"soiltest_xml_url":47,"soiltest_view_url":47},{"id":109651,"code":"NGIC201800289-0001","latitude":"34.315868138889","longitude":"132.80480508333","source_code":"","project_name":"\n      ","survey_name":"\u5b89\u82b8\u6d25\u30d0\u30a4\u30d1\u30b9\u5730\u8cea\u8abf\u67fb\u305d\u306e1\u696d\u52d9","client_name":"\u56fd\u571f\u4ea4\u901a\u7701\u4e2d\u56fd\u5730\u65b9\u6574\u5099\u5c40\u5e83\u5cf6\u56fd\u9053\u4e8b\u52d9\u6240","boring_xml_url":47,"boring_view_url":1,"soilmap_view_url":null,"soiltest_xml_url":47,"soiltest_view_url":47},{"id":109650,"code":"NGIC201800280-0003","latitude":"43.262662805556","longitude":"142.92580638889","source_code":"","project_name":"","survey_name":"\u5e73\u621030\u5e74\u5ea6 \u5341\u52dd\u30c0\u30e0\u8010\u9707\u5bfe\u7b56\u8a73\u7d30\u8a2d\u8a08\u5916\u696d\u52d9","client_name":"\u56fd\u571f\u4ea4\u901a\u7701\u5317\u6d77\u9053\u958b\u767a\u5c40\u5e2f\u5e83\u958b\u767a\u5efa\u8a2d\u90e8","boring_xml_url":47,"boring_view_url":1,"soilmap_view_url":null,"soiltest_xml_url":0,"soiltest_view_url":0},{"id":109649,"code":"NGIC201800280-0002","latitude":"43.262710472222","longitude":"142.92581983333","source_code":"","project_name":"","survey_name":"\u5e73\u621030\u5e74\u5ea6 \u5341\u52dd\u30c0\u30e0\u8010\u9707\u5bfe\u7b56\u8a73\u7d30\u8a2d\u8a08\u5916\u696d\u52d9","client_name":"\u56fd\u571f\u4ea4\u901a\u7701\u5317\u6d77\u9053\u958b\u767a\u5c40\u5e2f\u5e83\u958b\u767a\u5efa\u8a2d\u90e8","boring_xml_url":47,"boring_view_url":1,"soilmap_view_url":null,"soiltest_xml_url":0,"soiltest_view_url":0},{"id":109648,"code":"NGIC201800280-0001","latitude":"43.26269875","longitude":"142.92618052778","source_code":"","project_name":"","survey_name":"\u5e73\u621030\u5e74\u5ea6 \u5341\u52dd\u30c0\u30e0\u8010\u9707\u5bfe\u7b56\u8a73\u7d30\u8a2d\u8a08\u5916\u696d\u52d9","client_name":"\u56fd\u571f\u4ea4\u901a\u7701\u5317\u6d77\u9053\u958b\u767a\u5c40\u5e2f\u5e83\u958b\u767a\u5efa\u8a2d\u90e8","boring_xml_url":47,"boring_view_url":1,"soilmap_view_url":null,"soiltest_xml_url":0,"soiltest_view_url":0},{"id":109647,"code":"NGIC201800292-0011","latitude":"34.692758833333","longitude":"135.26066141667","source_code":"","project_name":"\u5927\u962a\u6e7e\u5cb8\u9053\u8def\u897f\u4f38\u90e8\u516d\u7532\u30a2\u30a4\u30e9\u30f3\u30c9\u6771\u90e8\u5730\u533a\u5730\u8cea\u8abf\u67fb\u696d\u52d9","survey_name":"\u5927\u962a\u6e7e\u5cb8\u9053\u8def\u897f\u4f38\u90e8\u516d\u7532\u30a2\u30a4\u30e9\u30f3\u30c9\u6771\u90e8\u5730\u533a\u5730\u8cea\u8abf\u67fb\u696d\u52d9","client_name":"\u56fd\u571f\u4ea4\u901a\u7701\u8fd1\u757f\u5730\u65b9\u6574\u5099\u5c40\u6d6a\u901f\u56fd\u9053\u4e8b\u52d9\u6240","boring_xml_url":47,"boring_view_url":1,"soilmap_view_url":null,"soiltest_xml_url":47,"soiltest_view_url":47},{"id":109646,"code":"NGIC201800292-0010","latitude":"34.692904666667","longitude":"135.26119252778","source_code":"","project_name":"\u5927\u962a\u6e7e\u5cb8\u9053\u8def\u897f\u4f38\u90e8\u516d\u7532\u30a2\u30a4\u30e9\u30f3\u30c9\u6771\u90e8\u5730\u533a\u5730\u8cea\u8abf\u67fb\u696d\u52d9","survey_name":"\u5927\u962a\u6e7e\u5cb8\u9053\u8def\u897f\u4f38\u90e8\u516d\u7532\u30a2\u30a4\u30e9\u30f3\u30c9\u6771\u90e8\u5730\u533a\u5730\u8cea\u8abf\u67fb\u696d\u52d9","client_name":"\u56fd\u571f\u4ea4\u901a\u7701\u8fd1\u757f\u5730\u65b9\u6574\u5099\u5c40\u6d6a\u901f\u56fd\u9053\u4e8b\u52d9\u6240","boring_xml_url":47,"boring_view_url":1,"soilmap_view_url":null,"soiltest_xml_url":47,"soiltest_view_url":47},{"id":109645,"code":"NGIC201800292-0009","latitude":"34.693159222222","longitude":"135.26251427778","source_code":"","project_name":"\u5927\u962a\u6e7e\u5cb8\u9053\u8def\u897f\u4f38\u90e8\u516d\u7532\u30a2\u30a4\u30e9\u30f3\u30c9\u6771\u90e8\u5730\u533a\u5730\u8cea\u8abf\u67fb\u696d\u52d9","survey_name":"\u5927\u962a\u6e7e\u5cb8\u9053\u8def\u897f\u4f38\u90e8\u516d\u7532\u30a2\u30a4\u30e9\u30f3\u30c9\u6771\u90e8\u5730\u533a\u5730\u8cea\u8abf\u67fb\u696d\u52d9","client_name":"\u56fd\u571f\u4ea4\u901a\u7701\u8fd1\u757f\u5730\u65b9\u6574\u5099\u5c40\u6d6a\u901f\u56fd\u9053\u4e8b\u52d9\u6240","boring_xml_url":47,"boring_view_url":1,"soilmap_view_url":null,"soiltest_xml_url":47,"soiltest_view_url":47},{"id":109644,"code":"NGIC201800292-0008","latitude":"34.693236666667","longitude":"135.26316233333","source_code":"","project_name":"\u5927\u962a\u6e7e\u5cb8\u9053\u8def\u897f\u4f38\u90e8\u516d\u7532\u30a2\u30a4\u30e9\u30f3\u30c9\u6771\u90e8\u5730\u533a\u5730\u8cea\u8abf\u67fb\u696d\u52d9","survey_name":"\u5927\u962a\u6e7e\u5cb8\u9053\u8def\u897f\u4f38\u90e8\u516d\u7532\u30a2\u30a4\u30e9\u30f3\u30c9\u6771\u90e8\u5730\u533a\u5730\u8cea\u8abf\u67fb\u696d\u52d9","client_name":"\u56fd\u571f\u4ea4\u901a\u7701\u8fd1\u757f\u5730\u65b9\u6574\u5099\u5c40\u6d6a\u901f\u56fd\u9053\u4e8b\u52d9\u6240","boring_xml_url":47,"boring_view_url":1,"soilmap_view_url":null,"soiltest_xml_url":47,"soiltest_view_url":47},{"id":109643,"code":"NGIC201800292-0007","latitude":"34.693259083333","longitude":"135.26389097222","source_code":"","project_name":"\u5927\u962a\u6e7e\u5cb8\u9053\u8def\u897f\u4f38\u90e8\u516d\u7532\u30a2\u30a4\u30e9\u30f3\u30c9\u6771\u90e8\u5730\u533a\u5730\u8cea\u8abf\u67fb\u696d\u52d9","survey_name":"\u5927\u962a\u6e7e\u5cb8\u9053\u8def\u897f\u4f38\u90e8\u516d\u7532\u30a2\u30a4\u30e9\u30f3\u30c9\u6771\u90e8\u5730\u533a\u5730\u8cea\u8abf\u67fb\u696d\u52d9","client_name":"\u56fd\u571f\u4ea4\u901a\u7701\u8fd1\u757f\u5730\u65b9\u6574\u5099\u5c40\u6d6a\u901f\u56fd\u9053\u4e8b\u52d9\u6240","boring_xml_url":47,"boring_view_url":1,"soilmap_view_url":null,"soiltest_xml_url":0,"soiltest_view_url":0}]}}