{"header":{"xyz":{"source":[],"mosaic":false},"page":7027,"raw":{"soiltest_result":"0","bbox":"57.598333,109.544722,1.933333,163.806111","page":"7027"},"conditions":{"soiltest_result":0,"north":57.598333,"west":109.544722,"south":1.933333,"east":163.806111},"success":true,"message":""},"data":{"meta":{"total":212844,"page":7027,"pages":7095,"count":30},"values":[{"id":109582,"code":"NGIC201800279-0002","latitude":"33.280013888889","longitude":"130.18633333333","source_code":"","project_name":"","survey_name":"\u5e73\u621030\u5e74\u5ea6 \u591a\u4e45\u4f50\u8cc0\u9053\u8def(1 \u671f)\u8239\u7530\u301c\u7551\u7530\u5730\u533a\u5730\u8cea\u8abf\u67fb\u696d\u52d9","client_name":"\u56fd\u571f\u4ea4\u901a\u7701\u4e5d\u5dde\u5730\u65b9\u6574\u5099\u5c40\u4f50\u8cc0\u56fd\u9053\u4e8b\u52d9\u6240","boring_xml_url":47,"boring_view_url":1,"soilmap_view_url":null,"soiltest_xml_url":47,"soiltest_view_url":47},{"id":109581,"code":"NGIC201800279-0001","latitude":"33.280463888889","longitude":"130.18535277778","source_code":"","project_name":"","survey_name":"\u5e73\u621030\u5e74\u5ea6 \u591a\u4e45\u4f50\u8cc0\u9053\u8def(1 \u671f)\u8239\u7530\u301c\u7551\u7530\u5730\u533a\u5730\u8cea\u8abf\u67fb\u696d\u52d9","client_name":"\u56fd\u571f\u4ea4\u901a\u7701\u4e5d\u5dde\u5730\u65b9\u6574\u5099\u5c40\u4f50\u8cc0\u56fd\u9053\u4e8b\u52d9\u6240","boring_xml_url":47,"boring_view_url":1,"soilmap_view_url":null,"soiltest_xml_url":47,"soiltest_view_url":47},{"id":109580,"code":"NGIC201800144-0020","latitude":"33.037802777778","longitude":"133.02179166667","source_code":"","project_name":"","survey_name":"\u5e73\u621030\u5e74\u5ea6\u4f50\u8cc0\u5927\u65b9\u9053\u8def\uff08\u6d6e\u97ad\u5730\u533a\u5916\uff09\u5730\u8cea\u8abf\u67fb\u696d\u52d9","client_name":"\u56fd\u571f\u4ea4\u901a\u7701\u56db\u56fd\u5730\u65b9\u6574\u5099\u5c40\u4e2d\u6751\u6cb3\u5ddd\u56fd\u9053\u4e8b\u52d9\u6240","boring_xml_url":47,"boring_view_url":1,"soilmap_view_url":null,"soiltest_xml_url":0,"soiltest_view_url":0},{"id":109579,"code":"NGIC201800144-0019","latitude":"33.038841666667","longitude":"133.02330277778","source_code":"","project_name":"","survey_name":"\u5e73\u621030\u5e74\u5ea6\u4f50\u8cc0\u5927\u65b9\u9053\u8def\uff08\u6d6e\u97ad\u5730\u533a\u5916\uff09\u5730\u8cea\u8abf\u67fb\u696d\u52d9","client_name":"\u56fd\u571f\u4ea4\u901a\u7701\u56db\u56fd\u5730\u65b9\u6574\u5099\u5c40\u4e2d\u6751\u6cb3\u5ddd\u56fd\u9053\u4e8b\u52d9\u6240","boring_xml_url":47,"boring_view_url":1,"soilmap_view_url":null,"soiltest_xml_url":0,"soiltest_view_url":0},{"id":109578,"code":"NGIC201800144-0018","latitude":"33.039061111111","longitude":"133.02381388889","source_code":"","project_name":"","survey_name":"\u5e73\u621030\u5e74\u5ea6\u4f50\u8cc0\u5927\u65b9\u9053\u8def\uff08\u6d6e\u97ad\u5730\u533a\u5916\uff09\u5730\u8cea\u8abf\u67fb\u696d\u52d9","client_name":"\u56fd\u571f\u4ea4\u901a\u7701\u56db\u56fd\u5730\u65b9\u6574\u5099\u5c40\u4e2d\u6751\u6cb3\u5ddd\u56fd\u9053\u4e8b\u52d9\u6240","boring_xml_url":47,"boring_view_url":1,"soilmap_view_url":null,"soiltest_xml_url":0,"soiltest_view_url":0},{"id":109577,"code":"NGIC201800144-0017","latitude":"33.040488888889","longitude":"133.02715555556","source_code":"","project_name":"","survey_name":"\u5e73\u621030\u5e74\u5ea6\u4f50\u8cc0\u5927\u65b9\u9053\u8def\uff08\u6d6e\u97ad\u5730\u533a\u5916\uff09\u5730\u8cea\u8abf\u67fb\u696d\u52d9","client_name":"\u56fd\u571f\u4ea4\u901a\u7701\u56db\u56fd\u5730\u65b9\u6574\u5099\u5c40\u4e2d\u6751\u6cb3\u5ddd\u56fd\u9053\u4e8b\u52d9\u6240","boring_xml_url":47,"boring_view_url":1,"soilmap_view_url":null,"soiltest_xml_url":0,"soiltest_view_url":0},{"id":109576,"code":"NGIC201800144-0016","latitude":"33.041066666667","longitude":"133.02905","source_code":"","project_name":"","survey_name":"\u5e73\u621030\u5e74\u5ea6\u4f50\u8cc0\u5927\u65b9\u9053\u8def\uff08\u6d6e\u97ad\u5730\u533a\u5916\uff09\u5730\u8cea\u8abf\u67fb\u696d\u52d9","client_name":"\u56fd\u571f\u4ea4\u901a\u7701\u56db\u56fd\u5730\u65b9\u6574\u5099\u5c40\u4e2d\u6751\u6cb3\u5ddd\u56fd\u9053\u4e8b\u52d9\u6240","boring_xml_url":47,"boring_view_url":1,"soilmap_view_url":null,"soiltest_xml_url":47,"soiltest_view_url":47},{"id":109575,"code":"NGIC201800144-0015","latitude":"33.041336111111","longitude":"133.03103888889","source_code":"","project_name":"","survey_name":"\u5e73\u621030\u5e74\u5ea6\u4f50\u8cc0\u5927\u65b9\u9053\u8def\uff08\u6d6e\u97ad\u5730\u533a\u5916\uff09\u5730\u8cea\u8abf\u67fb\u696d\u52d9","client_name":"\u56fd\u571f\u4ea4\u901a\u7701\u56db\u56fd\u5730\u65b9\u6574\u5099\u5c40\u4e2d\u6751\u6cb3\u5ddd\u56fd\u9053\u4e8b\u52d9\u6240","boring_xml_url":47,"boring_view_url":1,"soilmap_view_url":null,"soiltest_xml_url":47,"soiltest_view_url":47},{"id":109574,"code":"NGIC201800144-0014","latitude":"33.041322222222","longitude":"133.03120555556","source_code":"","project_name":"","survey_name":"\u5e73\u621030\u5e74\u5ea6\u4f50\u8cc0\u5927\u65b9\u9053\u8def\uff08\u6d6e\u97ad\u5730\u533a\u5916\uff09\u5730\u8cea\u8abf\u67fb\u696d\u52d9","client_name":"\u56fd\u571f\u4ea4\u901a\u7701\u56db\u56fd\u5730\u65b9\u6574\u5099\u5c40\u4e2d\u6751\u6cb3\u5ddd\u56fd\u9053\u4e8b\u52d9\u6240","boring_xml_url":47,"boring_view_url":1,"soilmap_view_url":null,"soiltest_xml_url":0,"soiltest_view_url":0},{"id":109573,"code":"NGIC201800144-0013","latitude":"33.041375","longitude":"133.03210555556","source_code":"","project_name":"","survey_name":"\u5e73\u621030\u5e74\u5ea6\u4f50\u8cc0\u5927\u65b9\u9053\u8def\uff08\u6d6e\u97ad\u5730\u533a\u5916\uff09\u5730\u8cea\u8abf\u67fb\u696d\u52d9","client_name":"\u56fd\u571f\u4ea4\u901a\u7701\u56db\u56fd\u5730\u65b9\u6574\u5099\u5c40\u4e2d\u6751\u6cb3\u5ddd\u56fd\u9053\u4e8b\u52d9\u6240","boring_xml_url":47,"boring_view_url":1,"soilmap_view_url":null,"soiltest_xml_url":0,"soiltest_view_url":0},{"id":109572,"code":"NGIC201800144-0012","latitude":"33.041375","longitude":"133.03454166667","source_code":"","project_name":"","survey_name":"\u5e73\u621030\u5e74\u5ea6\u4f50\u8cc0\u5927\u65b9\u9053\u8def\uff08\u6d6e\u97ad\u5730\u533a\u5916\uff09\u5730\u8cea\u8abf\u67fb\u696d\u52d9","client_name":"\u56fd\u571f\u4ea4\u901a\u7701\u56db\u56fd\u5730\u65b9\u6574\u5099\u5c40\u4e2d\u6751\u6cb3\u5ddd\u56fd\u9053\u4e8b\u52d9\u6240","boring_xml_url":47,"boring_view_url":1,"soilmap_view_url":null,"soiltest_xml_url":0,"soiltest_view_url":0},{"id":109571,"code":"NGIC201800144-0011","latitude":"33.040797222222","longitude":"133.03437222222","source_code":"","project_name":"","survey_name":"\u5e73\u621030\u5e74\u5ea6\u4f50\u8cc0\u5927\u65b9\u9053\u8def\uff08\u6d6e\u97ad\u5730\u533a\u5916\uff09\u5730\u8cea\u8abf\u67fb\u696d\u52d9","client_name":"\u56fd\u571f\u4ea4\u901a\u7701\u56db\u56fd\u5730\u65b9\u6574\u5099\u5c40\u4e2d\u6751\u6cb3\u5ddd\u56fd\u9053\u4e8b\u52d9\u6240","boring_xml_url":47,"boring_view_url":1,"soilmap_view_url":null,"soiltest_xml_url":0,"soiltest_view_url":0},{"id":109570,"code":"NGIC201800144-0010","latitude":"33.040552777778","longitude":"133.03787777778","source_code":"","project_name":"","survey_name":"\u5e73\u621030\u5e74\u5ea6\u4f50\u8cc0\u5927\u65b9\u9053\u8def\uff08\u6d6e\u97ad\u5730\u533a\u5916\uff09\u5730\u8cea\u8abf\u67fb\u696d\u52d9","client_name":"\u56fd\u571f\u4ea4\u901a\u7701\u56db\u56fd\u5730\u65b9\u6574\u5099\u5c40\u4e2d\u6751\u6cb3\u5ddd\u56fd\u9053\u4e8b\u52d9\u6240","boring_xml_url":47,"boring_view_url":1,"soilmap_view_url":null,"soiltest_xml_url":0,"soiltest_view_url":0},{"id":109569,"code":"NGIC201800144-0009","latitude":"33.040463888889","longitude":"133.03843611111","source_code":"","project_name":"","survey_name":"\u5e73\u621030\u5e74\u5ea6\u4f50\u8cc0\u5927\u65b9\u9053\u8def\uff08\u6d6e\u97ad\u5730\u533a\u5916\uff09\u5730\u8cea\u8abf\u67fb\u696d\u52d9","client_name":"\u56fd\u571f\u4ea4\u901a\u7701\u56db\u56fd\u5730\u65b9\u6574\u5099\u5c40\u4e2d\u6751\u6cb3\u5ddd\u56fd\u9053\u4e8b\u52d9\u6240","boring_xml_url":47,"boring_view_url":1,"soilmap_view_url":null,"soiltest_xml_url":0,"soiltest_view_url":0},{"id":109568,"code":"NGIC201800144-0008","latitude":"33.040361111111","longitude":"133.039175","source_code":"","project_name":"","survey_name":"\u5e73\u621030\u5e74\u5ea6\u4f50\u8cc0\u5927\u65b9\u9053\u8def\uff08\u6d6e\u97ad\u5730\u533a\u5916\uff09\u5730\u8cea\u8abf\u67fb\u696d\u52d9","client_name":"\u56fd\u571f\u4ea4\u901a\u7701\u56db\u56fd\u5730\u65b9\u6574\u5099\u5c40\u4e2d\u6751\u6cb3\u5ddd\u56fd\u9053\u4e8b\u52d9\u6240","boring_xml_url":47,"boring_view_url":1,"soilmap_view_url":null,"soiltest_xml_url":0,"soiltest_view_url":0},{"id":109567,"code":"NGIC201800144-0007","latitude":"33.040291666667","longitude":"133.03954444444","source_code":"","project_name":"","survey_name":"\u5e73\u621030\u5e74\u5ea6\u4f50\u8cc0\u5927\u65b9\u9053\u8def\uff08\u6d6e\u97ad\u5730\u533a\u5916\uff09\u5730\u8cea\u8abf\u67fb\u696d\u52d9","client_name":"\u56fd\u571f\u4ea4\u901a\u7701\u56db\u56fd\u5730\u65b9\u6574\u5099\u5c40\u4e2d\u6751\u6cb3\u5ddd\u56fd\u9053\u4e8b\u52d9\u6240","boring_xml_url":47,"boring_view_url":1,"soilmap_view_url":null,"soiltest_xml_url":0,"soiltest_view_url":0},{"id":109566,"code":"NGIC201800144-0006","latitude":"33.040022222222","longitude":"133.04055","source_code":"","project_name":"","survey_name":"\u5e73\u621030\u5e74\u5ea6\u4f50\u8cc0\u5927\u65b9\u9053\u8def\uff08\u6d6e\u97ad\u5730\u533a\u5916\uff09\u5730\u8cea\u8abf\u67fb\u696d\u52d9","client_name":"\u56fd\u571f\u4ea4\u901a\u7701\u56db\u56fd\u5730\u65b9\u6574\u5099\u5c40\u4e2d\u6751\u6cb3\u5ddd\u56fd\u9053\u4e8b\u52d9\u6240","boring_xml_url":47,"boring_view_url":1,"soilmap_view_url":null,"soiltest_xml_url":0,"soiltest_view_url":0},{"id":109565,"code":"NGIC201800144-0005","latitude":"33.040241666667","longitude":"133.04133333333","source_code":"","project_name":"","survey_name":"\u5e73\u621030\u5e74\u5ea6\u4f50\u8cc0\u5927\u65b9\u9053\u8def\uff08\u6d6e\u97ad\u5730\u533a\u5916\uff09\u5730\u8cea\u8abf\u67fb\u696d\u52d9","client_name":"\u56fd\u571f\u4ea4\u901a\u7701\u56db\u56fd\u5730\u65b9\u6574\u5099\u5c40\u4e2d\u6751\u6cb3\u5ddd\u56fd\u9053\u4e8b\u52d9\u6240","boring_xml_url":47,"boring_view_url":1,"soilmap_view_url":null,"soiltest_xml_url":0,"soiltest_view_url":0},{"id":109564,"code":"NGIC201800144-0004","latitude":"33.040569444444","longitude":"133.04313333333","source_code":"","project_name":"","survey_name":"\u5e73\u621030\u5e74\u5ea6\u4f50\u8cc0\u5927\u65b9\u9053\u8def\uff08\u6d6e\u97ad\u5730\u533a\u5916\uff09\u5730\u8cea\u8abf\u67fb\u696d\u52d9","client_name":"\u56fd\u571f\u4ea4\u901a\u7701\u56db\u56fd\u5730\u65b9\u6574\u5099\u5c40\u4e2d\u6751\u6cb3\u5ddd\u56fd\u9053\u4e8b\u52d9\u6240","boring_xml_url":47,"boring_view_url":1,"soilmap_view_url":null,"soiltest_xml_url":0,"soiltest_view_url":0},{"id":109563,"code":"NGIC201800144-0003","latitude":"33.040925","longitude":"133.044225","source_code":"","project_name":"","survey_name":"\u5e73\u621030\u5e74\u5ea6\u4f50\u8cc0\u5927\u65b9\u9053\u8def\uff08\u6d6e\u97ad\u5730\u533a\u5916\uff09\u5730\u8cea\u8abf\u67fb\u696d\u52d9","client_name":"\u56fd\u571f\u4ea4\u901a\u7701\u56db\u56fd\u5730\u65b9\u6574\u5099\u5c40\u4e2d\u6751\u6cb3\u5ddd\u56fd\u9053\u4e8b\u52d9\u6240","boring_xml_url":47,"boring_view_url":1,"soilmap_view_url":null,"soiltest_xml_url":0,"soiltest_view_url":0},{"id":109562,"code":"NGIC201800144-0002","latitude":"33.042777777778","longitude":"133.04924166667","source_code":"","project_name":"","survey_name":"\u5e73\u621030\u5e74\u5ea6\u4f50\u8cc0\u5927\u65b9\u9053\u8def\uff08\u6d6e\u97ad\u5730\u533a\u5916\uff09\u5730\u8cea\u8abf\u67fb\u696d\u52d9","client_name":"\u56fd\u571f\u4ea4\u901a\u7701\u56db\u56fd\u5730\u65b9\u6574\u5099\u5c40\u4e2d\u6751\u6cb3\u5ddd\u56fd\u9053\u4e8b\u52d9\u6240","boring_xml_url":47,"boring_view_url":1,"soilmap_view_url":null,"soiltest_xml_url":0,"soiltest_view_url":0},{"id":109561,"code":"NGIC201800144-0001","latitude":"33.042444444444","longitude":"133.04946666667","source_code":"","project_name":"","survey_name":"\u5e73\u621030\u5e74\u5ea6\u4f50\u8cc0\u5927\u65b9\u9053\u8def\uff08\u6d6e\u97ad\u5730\u533a\u5916\uff09\u5730\u8cea\u8abf\u67fb\u696d\u52d9","client_name":"\u56fd\u571f\u4ea4\u901a\u7701\u56db\u56fd\u5730\u65b9\u6574\u5099\u5c40\u4e2d\u6751\u6cb3\u5ddd\u56fd\u9053\u4e8b\u52d9\u6240","boring_xml_url":47,"boring_view_url":1,"soilmap_view_url":null,"soiltest_xml_url":0,"soiltest_view_url":0},{"id":109560,"code":"NGIC201800273-0010","latitude":"35.009647222222","longitude":"136.01076944444","source_code":"","project_name":"\u6817\u6771\u6c34\u53e3\u9053\u8def\u4e0a\u7825\u5c71\u5730\u533a\u5730\u8cea\u8abf\u67fb\u696d\u52d9","survey_name":"\u6817\u6771\u6c34\u53e3\u9053\u8def\u4e0a\u7825\u5c71\u5730\u533a\u5730\u8cea\u8abf\u67fb\u696d\u52d9","client_name":"\u56fd\u571f\u4ea4\u901a\u7701\u8fd1\u757f\u5730\u65b9\u6574\u5099\u5c40\u6ecb\u8cc0\u56fd\u9053\u4e8b\u52d9\u6240\u3000\u5de5\u52d9\u8ab2","boring_xml_url":47,"boring_view_url":1,"soilmap_view_url":null,"soiltest_xml_url":0,"soiltest_view_url":0},{"id":109559,"code":"NGIC201800273-0009","latitude":"35.009944444444","longitude":"136.01118333333","source_code":"","project_name":"\u6817\u6771\u6c34\u53e3\u9053\u8def\u4e0a\u7825\u5c71\u5730\u533a\u5730\u8cea\u8abf\u67fb\u696d\u52d9","survey_name":"\u6817\u6771\u6c34\u53e3\u9053\u8def\u4e0a\u7825\u5c71\u5730\u533a\u5730\u8cea\u8abf\u67fb\u696d\u52d9","client_name":"\u56fd\u571f\u4ea4\u901a\u7701\u8fd1\u757f\u5730\u65b9\u6574\u5099\u5c40\u6ecb\u8cc0\u56fd\u9053\u4e8b\u52d9\u6240\u3000\u5de5\u52d9\u8ab2","boring_xml_url":47,"boring_view_url":1,"soilmap_view_url":null,"soiltest_xml_url":0,"soiltest_view_url":0},{"id":109558,"code":"NGIC201800273-0008","latitude":"35.008441666667","longitude":"136.008775","source_code":"","project_name":"\u6817\u6771\u6c34\u53e3\u9053\u8def\u4e0a\u7825\u5c71\u5730\u533a\u5730\u8cea\u8abf\u67fb\u696d\u52d9","survey_name":"\u6817\u6771\u6c34\u53e3\u9053\u8def\u4e0a\u7825\u5c71\u5730\u533a\u5730\u8cea\u8abf\u67fb\u696d\u52d9","client_name":"\u56fd\u571f\u4ea4\u901a\u7701\u8fd1\u757f\u5730\u65b9\u6574\u5099\u5c40\u6ecb\u8cc0\u56fd\u9053\u4e8b\u52d9\u6240\u3000\u5de5\u52d9\u8ab2","boring_xml_url":47,"boring_view_url":1,"soilmap_view_url":null,"soiltest_xml_url":47,"soiltest_view_url":47},{"id":109557,"code":"NGIC201800273-0007","latitude":"35.008686111111","longitude":"136.00918888889","source_code":"","project_name":"\u6817\u6771\u6c34\u53e3\u9053\u8def\u4e0a\u7825\u5c71\u5730\u533a\u5730\u8cea\u8abf\u67fb\u696d\u52d9","survey_name":"\u6817\u6771\u6c34\u53e3\u9053\u8def\u4e0a\u7825\u5c71\u5730\u533a\u5730\u8cea\u8abf\u67fb\u696d\u52d9","client_name":"\u56fd\u571f\u4ea4\u901a\u7701\u8fd1\u757f\u5730\u65b9\u6574\u5099\u5c40\u6ecb\u8cc0\u56fd\u9053\u4e8b\u52d9\u6240\u3000\u5de5\u52d9\u8ab2","boring_xml_url":47,"boring_view_url":1,"soilmap_view_url":null,"soiltest_xml_url":47,"soiltest_view_url":47},{"id":109556,"code":"NGIC201800273-0006","latitude":"35.008927777778","longitude":"136.00960277778","source_code":"","project_name":"\u6817\u6771\u6c34\u53e3\u9053\u8def\u4e0a\u7825\u5c71\u5730\u533a\u5730\u8cea\u8abf\u67fb\u696d\u52d9","survey_name":"\u6817\u6771\u6c34\u53e3\u9053\u8def\u4e0a\u7825\u5c71\u5730\u533a\u5730\u8cea\u8abf\u67fb\u696d\u52d9","client_name":"\u56fd\u571f\u4ea4\u901a\u7701\u8fd1\u757f\u5730\u65b9\u6574\u5099\u5c40\u6ecb\u8cc0\u56fd\u9053\u4e8b\u52d9\u6240\u3000\u5de5\u52d9\u8ab2","boring_xml_url":47,"boring_view_url":1,"soilmap_view_url":null,"soiltest_xml_url":47,"soiltest_view_url":47},{"id":109555,"code":"NGIC201800273-0005","latitude":"35.009163888889","longitude":"136.01002222222","source_code":"","project_name":"\u6817\u6771\u6c34\u53e3\u9053\u8def\u4e0a\u7825\u5c71\u5730\u533a\u5730\u8cea\u8abf\u67fb\u696d\u52d9","survey_name":"\u6817\u6771\u6c34\u53e3\u9053\u8def\u4e0a\u7825\u5c71\u5730\u533a\u5730\u8cea\u8abf\u67fb\u696d\u52d9","client_name":"\u56fd\u571f\u4ea4\u901a\u7701\u8fd1\u757f\u5730\u65b9\u6574\u5099\u5c40\u6ecb\u8cc0\u56fd\u9053\u4e8b\u52d9\u6240\u3000\u5de5\u52d9\u8ab2","boring_xml_url":47,"boring_view_url":1,"soilmap_view_url":null,"soiltest_xml_url":47,"soiltest_view_url":47},{"id":109554,"code":"NGIC201800273-0004","latitude":"35.00935","longitude":"136.01043333333","source_code":"","project_name":"\u6817\u6771\u6c34\u53e3\u9053\u8def\u4e0a\u7825\u5c71\u5730\u533a\u5730\u8cea\u8abf\u67fb\u696d\u52d9","survey_name":"\u6817\u6771\u6c34\u53e3\u9053\u8def\u4e0a\u7825\u5c71\u5730\u533a\u5730\u8cea\u8abf\u67fb\u696d\u52d9","client_name":"\u56fd\u571f\u4ea4\u901a\u7701\u8fd1\u757f\u5730\u65b9\u6574\u5099\u5c40\u6ecb\u8cc0\u56fd\u9053\u4e8b\u52d9\u6240\u3000\u5de5\u52d9\u8ab2","boring_xml_url":47,"boring_view_url":1,"soilmap_view_url":null,"soiltest_xml_url":47,"soiltest_view_url":47},{"id":109553,"code":"NGIC201800273-0003","latitude":"35.009655555556","longitude":"136.01085","source_code":"","project_name":"\u6817\u6771\u6c34\u53e3\u9053\u8def\u4e0a\u7825\u5c71\u5730\u533a\u5730\u8cea\u8abf\u67fb\u696d\u52d9","survey_name":"\u6817\u6771\u6c34\u53e3\u9053\u8def\u4e0a\u7825\u5c71\u5730\u533a\u5730\u8cea\u8abf\u67fb\u696d\u52d9","client_name":"\u56fd\u571f\u4ea4\u901a\u7701\u8fd1\u757f\u5730\u65b9\u6574\u5099\u5c40\u6ecb\u8cc0\u56fd\u9053\u4e8b\u52d9\u6240\u3000\u5de5\u52d9\u8ab2","boring_xml_url":47,"boring_view_url":1,"soilmap_view_url":null,"soiltest_xml_url":47,"soiltest_view_url":47}]}}