{"header":{"xyz":{"source":[],"mosaic":false},"page":7028,"raw":{"soiltest_result":"0","bbox":"57.598333,109.544722,1.933333,163.806111","page":"7028"},"conditions":{"soiltest_result":0,"north":57.598333,"west":109.544722,"south":1.933333,"east":163.806111},"success":true,"message":""},"data":{"meta":{"total":212844,"page":7028,"pages":7095,"count":30},"values":[{"id":109552,"code":"NGIC201800273-0002","latitude":"35.009930555556","longitude":"136.01107222222","source_code":"","project_name":"\u6817\u6771\u6c34\u53e3\u9053\u8def\u4e0a\u7825\u5c71\u5730\u533a\u5730\u8cea\u8abf\u67fb\u696d\u52d9","survey_name":"\u6817\u6771\u6c34\u53e3\u9053\u8def\u4e0a\u7825\u5c71\u5730\u533a\u5730\u8cea\u8abf\u67fb\u696d\u52d9","client_name":"\u56fd\u571f\u4ea4\u901a\u7701\u8fd1\u757f\u5730\u65b9\u6574\u5099\u5c40\u6ecb\u8cc0\u56fd\u9053\u4e8b\u52d9\u6240\u3000\u5de5\u52d9\u8ab2","boring_xml_url":47,"boring_view_url":1,"soilmap_view_url":null,"soiltest_xml_url":47,"soiltest_view_url":47},{"id":109551,"code":"NGIC201800273-0001","latitude":"35.009969444444","longitude":"136.01118333333","source_code":"","project_name":"\u6817\u6771\u6c34\u53e3\u9053\u8def\u4e0a\u7825\u5c71\u5730\u533a\u5730\u8cea\u8abf\u67fb\u696d\u52d9","survey_name":"\u6817\u6771\u6c34\u53e3\u9053\u8def\u4e0a\u7825\u5c71\u5730\u533a\u5730\u8cea\u8abf\u67fb\u696d\u52d9","client_name":"\u56fd\u571f\u4ea4\u901a\u7701\u8fd1\u757f\u5730\u65b9\u6574\u5099\u5c40\u6ecb\u8cc0\u56fd\u9053\u4e8b\u52d9\u6240\u3000\u5de5\u52d9\u8ab2","boring_xml_url":47,"boring_view_url":1,"soilmap_view_url":null,"soiltest_xml_url":47,"soiltest_view_url":47},{"id":109550,"code":"NGIC201800276-0014","latitude":"33.360810666667","longitude":"130.82293122222","source_code":"","project_name":"","survey_name":"\u8d64\u8c37\u5ddd\u6d41\u57df\u6e2c\u91cf\u8a2d\u8a08\u5916\u696d\u52d9","client_name":"\u56fd\u571f\u4ea4\u901a\u7701\u4e5d\u5dde\u5730\u65b9\u6574\u5099\u5c40\u7b51\u5f8c\u5ddd\u6cb3\u5ddd\u4e8b\u52d9\u6240","boring_xml_url":47,"boring_view_url":1,"soilmap_view_url":null,"soiltest_xml_url":0,"soiltest_view_url":0},{"id":109549,"code":"NGIC201800276-0013","latitude":"33.360821027778","longitude":"130.82294777778","source_code":"","project_name":"","survey_name":"\u8d64\u8c37\u5ddd\u6d41\u57df\u6e2c\u91cf\u8a2d\u8a08\u5916\u696d\u52d9","client_name":"\u56fd\u571f\u4ea4\u901a\u7701\u4e5d\u5dde\u5730\u65b9\u6574\u5099\u5c40\u7b51\u5f8c\u5ddd\u6cb3\u5ddd\u4e8b\u52d9\u6240","boring_xml_url":47,"boring_view_url":1,"soilmap_view_url":null,"soiltest_xml_url":0,"soiltest_view_url":0},{"id":109548,"code":"NGIC201800276-0012","latitude":"33.362358972222","longitude":"130.82576277778","source_code":"","project_name":"","survey_name":"\u8d64\u8c37\u5ddd\u6d41\u57df\u6e2c\u91cf\u8a2d\u8a08\u5916\u696d\u52d9","client_name":"\u56fd\u571f\u4ea4\u901a\u7701\u4e5d\u5dde\u5730\u65b9\u6574\u5099\u5c40\u7b51\u5f8c\u5ddd\u6cb3\u5ddd\u4e8b\u52d9\u6240","boring_xml_url":47,"boring_view_url":1,"soilmap_view_url":null,"soiltest_xml_url":0,"soiltest_view_url":0},{"id":109547,"code":"NGIC201800276-0011","latitude":"33.362357027778","longitude":"130.82574577778","source_code":"","project_name":"","survey_name":"\u8d64\u8c37\u5ddd\u6d41\u57df\u6e2c\u91cf\u8a2d\u8a08\u5916\u696d\u52d9","client_name":"\u56fd\u571f\u4ea4\u901a\u7701\u4e5d\u5dde\u5730\u65b9\u6574\u5099\u5c40\u7b51\u5f8c\u5ddd\u6cb3\u5ddd\u4e8b\u52d9\u6240","boring_xml_url":47,"boring_view_url":1,"soilmap_view_url":null,"soiltest_xml_url":0,"soiltest_view_url":0},{"id":109546,"code":"NGIC201800276-0010","latitude":"33.360799472222","longitude":"130.82536138889","source_code":"","project_name":"","survey_name":"\u8d64\u8c37\u5ddd\u6d41\u57df\u6e2c\u91cf\u8a2d\u8a08\u5916\u696d\u52d9","client_name":"\u56fd\u571f\u4ea4\u901a\u7701\u4e5d\u5dde\u5730\u65b9\u6574\u5099\u5c40\u7b51\u5f8c\u5ddd\u6cb3\u5ddd\u4e8b\u52d9\u6240","boring_xml_url":47,"boring_view_url":1,"soilmap_view_url":null,"soiltest_xml_url":0,"soiltest_view_url":0},{"id":109545,"code":"NGIC201800276-0009","latitude":"33.360809138889","longitude":"130.82536927778","source_code":"","project_name":"","survey_name":"\u8d64\u8c37\u5ddd\u6d41\u57df\u6e2c\u91cf\u8a2d\u8a08\u5916\u696d\u52d9","client_name":"\u56fd\u571f\u4ea4\u901a\u7701\u4e5d\u5dde\u5730\u65b9\u6574\u5099\u5c40\u7b51\u5f8c\u5ddd\u6cb3\u5ddd\u4e8b\u52d9\u6240","boring_xml_url":47,"boring_view_url":1,"soilmap_view_url":null,"soiltest_xml_url":0,"soiltest_view_url":0},{"id":109544,"code":"NGIC201800276-0008","latitude":"33.360269027778","longitude":"130.82389836111","source_code":"","project_name":"","survey_name":"\u8d64\u8c37\u5ddd\u6d41\u57df\u6e2c\u91cf\u8a2d\u8a08\u5916\u696d\u52d9","client_name":"\u56fd\u571f\u4ea4\u901a\u7701\u4e5d\u5dde\u5730\u65b9\u6574\u5099\u5c40\u7b51\u5f8c\u5ddd\u6cb3\u5ddd\u4e8b\u52d9\u6240","boring_xml_url":47,"boring_view_url":1,"soilmap_view_url":null,"soiltest_xml_url":0,"soiltest_view_url":0},{"id":109543,"code":"NGIC201800276-0007","latitude":"33.360263555556","longitude":"130.82390666667","source_code":"","project_name":"","survey_name":"\u8d64\u8c37\u5ddd\u6d41\u57df\u6e2c\u91cf\u8a2d\u8a08\u5916\u696d\u52d9","client_name":"\u56fd\u571f\u4ea4\u901a\u7701\u4e5d\u5dde\u5730\u65b9\u6574\u5099\u5c40\u7b51\u5f8c\u5ddd\u6cb3\u5ddd\u4e8b\u52d9\u6240","boring_xml_url":47,"boring_view_url":1,"soilmap_view_url":null,"soiltest_xml_url":0,"soiltest_view_url":0},{"id":109542,"code":"NGIC201800276-0006","latitude":"33.356700166667","longitude":"130.82289841667","source_code":"","project_name":"","survey_name":"\u8d64\u8c37\u5ddd\u6d41\u57df\u6e2c\u91cf\u8a2d\u8a08\u5916\u696d\u52d9","client_name":"\u56fd\u571f\u4ea4\u901a\u7701\u4e5d\u5dde\u5730\u65b9\u6574\u5099\u5c40\u7b51\u5f8c\u5ddd\u6cb3\u5ddd\u4e8b\u52d9\u6240","boring_xml_url":47,"boring_view_url":1,"soilmap_view_url":null,"soiltest_xml_url":0,"soiltest_view_url":0},{"id":109541,"code":"NGIC201800276-0005","latitude":"33.3567025","longitude":"130.82292569444","source_code":"","project_name":"","survey_name":"\u8d64\u8c37\u5ddd\u6d41\u57df\u6e2c\u91cf\u8a2d\u8a08\u5916\u696d\u52d9","client_name":"\u56fd\u571f\u4ea4\u901a\u7701\u4e5d\u5dde\u5730\u65b9\u6574\u5099\u5c40\u7b51\u5f8c\u5ddd\u6cb3\u5ddd\u4e8b\u52d9\u6240","boring_xml_url":47,"boring_view_url":1,"soilmap_view_url":null,"soiltest_xml_url":0,"soiltest_view_url":0},{"id":109540,"code":"NGIC201800276-0004","latitude":"33.35892625","longitude":"130.82309086111","source_code":"","project_name":"","survey_name":"\u8d64\u8c37\u5ddd\u6d41\u57df\u6e2c\u91cf\u8a2d\u8a08\u5916\u696d\u52d9","client_name":"\u56fd\u571f\u4ea4\u901a\u7701\u4e5d\u5dde\u5730\u65b9\u6574\u5099\u5c40\u7b51\u5f8c\u5ddd\u6cb3\u5ddd\u4e8b\u52d9\u6240","boring_xml_url":47,"boring_view_url":1,"soilmap_view_url":null,"soiltest_xml_url":0,"soiltest_view_url":0},{"id":109539,"code":"NGIC201800276-0003","latitude":"33.358914694444","longitude":"130.82308525","source_code":"","project_name":"","survey_name":"\u8d64\u8c37\u5ddd\u6d41\u57df\u6e2c\u91cf\u8a2d\u8a08\u5916\u696d\u52d9","client_name":"\u56fd\u571f\u4ea4\u901a\u7701\u4e5d\u5dde\u5730\u65b9\u6574\u5099\u5c40\u7b51\u5f8c\u5ddd\u6cb3\u5ddd\u4e8b\u52d9\u6240","boring_xml_url":47,"boring_view_url":1,"soilmap_view_url":null,"soiltest_xml_url":0,"soiltest_view_url":0},{"id":109538,"code":"NGIC201800276-0002","latitude":"33.356412555556","longitude":"130.82413794444","source_code":"","project_name":"","survey_name":"\u8d64\u8c37\u5ddd\u6d41\u57df\u6e2c\u91cf\u8a2d\u8a08\u5916\u696d\u52d9","client_name":"\u56fd\u571f\u4ea4\u901a\u7701\u4e5d\u5dde\u5730\u65b9\u6574\u5099\u5c40\u7b51\u5f8c\u5ddd\u6cb3\u5ddd\u4e8b\u52d9\u6240","boring_xml_url":47,"boring_view_url":1,"soilmap_view_url":null,"soiltest_xml_url":0,"soiltest_view_url":0},{"id":109537,"code":"NGIC201800276-0001","latitude":"33.356400388889","longitude":"130.82413575","source_code":"","project_name":"","survey_name":"\u8d64\u8c37\u5ddd\u6d41\u57df\u6e2c\u91cf\u8a2d\u8a08\u5916\u696d\u52d9","client_name":"\u56fd\u571f\u4ea4\u901a\u7701\u4e5d\u5dde\u5730\u65b9\u6574\u5099\u5c40\u7b51\u5f8c\u5ddd\u6cb3\u5ddd\u4e8b\u52d9\u6240","boring_xml_url":47,"boring_view_url":1,"soilmap_view_url":null,"soiltest_xml_url":0,"soiltest_view_url":0},{"id":109536,"code":"NGIC201800275-0011","latitude":"43.822844444444","longitude":"142.38343055556","source_code":"","project_name":"","survey_name":"\u65ed\u5ddd\u9053\u8def\u4e8b\u52d9\u6240\u7ba1\u5185\u5730\u8cea\u8abf\u67fb\u696d\u52d9","client_name":"\u56fd\u571f\u4ea4\u901a\u7701\u5317\u6d77\u9053\u958b\u767a\u5c40\u65ed\u5ddd\u958b\u767a\u5efa\u8a2d\u90e8\u65ed\u5ddd\u9053\u8def\u4e8b\u52d9\u6240","boring_xml_url":47,"boring_view_url":1,"soilmap_view_url":null,"soiltest_xml_url":0,"soiltest_view_url":0},{"id":109535,"code":"NGIC201800275-0010","latitude":"43.822769444444","longitude":"142.38380277778","source_code":"","project_name":"","survey_name":"\u65ed\u5ddd\u9053\u8def\u4e8b\u52d9\u6240\u7ba1\u5185\u5730\u8cea\u8abf\u67fb\u696d\u52d9","client_name":"\u56fd\u571f\u4ea4\u901a\u7701\u5317\u6d77\u9053\u958b\u767a\u5c40\u65ed\u5ddd\u958b\u767a\u5efa\u8a2d\u90e8\u65ed\u5ddd\u9053\u8def\u4e8b\u52d9\u6240","boring_xml_url":47,"boring_view_url":1,"soilmap_view_url":null,"soiltest_xml_url":0,"soiltest_view_url":0},{"id":109534,"code":"NGIC201800275-0009","latitude":"43.822775","longitude":"142.38381111111","source_code":"","project_name":"","survey_name":"\u65ed\u5ddd\u9053\u8def\u4e8b\u52d9\u6240\u7ba1\u5185\u5730\u8cea\u8abf\u67fb\u696d\u52d9","client_name":"\u56fd\u571f\u4ea4\u901a\u7701\u5317\u6d77\u9053\u958b\u767a\u5c40\u65ed\u5ddd\u958b\u767a\u5efa\u8a2d\u90e8\u65ed\u5ddd\u9053\u8def\u4e8b\u52d9\u6240","boring_xml_url":47,"boring_view_url":1,"soilmap_view_url":null,"soiltest_xml_url":0,"soiltest_view_url":0},{"id":109533,"code":"NGIC201800275-0008","latitude":"43.822569444444","longitude":"142.38375277778","source_code":"","project_name":"","survey_name":"\u65ed\u5ddd\u9053\u8def\u4e8b\u52d9\u6240\u7ba1\u5185\u5730\u8cea\u8abf\u67fb\u696d\u52d9","client_name":"\u56fd\u571f\u4ea4\u901a\u7701\u5317\u6d77\u9053\u958b\u767a\u5c40\u65ed\u5ddd\u958b\u767a\u5efa\u8a2d\u90e8\u65ed\u5ddd\u9053\u8def\u4e8b\u52d9\u6240","boring_xml_url":47,"boring_view_url":1,"soilmap_view_url":null,"soiltest_xml_url":0,"soiltest_view_url":0},{"id":109532,"code":"NGIC201800275-0007","latitude":"43.822563888889","longitude":"142.38374444444","source_code":"","project_name":"","survey_name":"\u65ed\u5ddd\u9053\u8def\u4e8b\u52d9\u6240\u7ba1\u5185\u5730\u8cea\u8abf\u67fb\u696d\u52d9","client_name":"\u56fd\u571f\u4ea4\u901a\u7701\u5317\u6d77\u9053\u958b\u767a\u5c40\u65ed\u5ddd\u958b\u767a\u5efa\u8a2d\u90e8\u65ed\u5ddd\u9053\u8def\u4e8b\u52d9\u6240","boring_xml_url":47,"boring_view_url":1,"soilmap_view_url":null,"soiltest_xml_url":0,"soiltest_view_url":0},{"id":109531,"code":"NGIC201800275-0006","latitude":"43.859044444444","longitude":"142.86806666667","source_code":"","project_name":"","survey_name":"\u65ed\u5ddd\u9053\u8def\u4e8b\u52d9\u6240\u7ba1\u5185\u5730\u8cea\u8abf\u67fb\u696d\u52d9","client_name":"\u56fd\u571f\u4ea4\u901a\u7701\u5317\u6d77\u9053\u958b\u767a\u5c40\u65ed\u5ddd\u958b\u767a\u5efa\u8a2d\u90e8\u65ed\u5ddd\u9053\u8def\u4e8b\u52d9\u6240","boring_xml_url":47,"boring_view_url":1,"soilmap_view_url":null,"soiltest_xml_url":0,"soiltest_view_url":0},{"id":109530,"code":"NGIC201800275-0005","latitude":"43.613638888889","longitude":"143.07111111111","source_code":"","project_name":"","survey_name":"\u65ed\u5ddd\u9053\u8def\u4e8b\u52d9\u6240\u7ba1\u5185\u5730\u8cea\u8abf\u67fb\u696d\u52d9","client_name":"\u56fd\u571f\u4ea4\u901a\u7701\u5317\u6d77\u9053\u958b\u767a\u5c40\u65ed\u5ddd\u958b\u767a\u5efa\u8a2d\u90e8\u65ed\u5ddd\u9053\u8def\u4e8b\u52d9\u6240","boring_xml_url":47,"boring_view_url":1,"soilmap_view_url":null,"soiltest_xml_url":0,"soiltest_view_url":0},{"id":109529,"code":"NGIC201800275-0004","latitude":"43.613694444444","longitude":"143.07135277778","source_code":"","project_name":"","survey_name":"\u65ed\u5ddd\u9053\u8def\u4e8b\u52d9\u6240\u7ba1\u5185\u5730\u8cea\u8abf\u67fb\u696d\u52d9","client_name":"\u56fd\u571f\u4ea4\u901a\u7701\u5317\u6d77\u9053\u958b\u767a\u5c40\u65ed\u5ddd\u958b\u767a\u5efa\u8a2d\u90e8\u65ed\u5ddd\u9053\u8def\u4e8b\u52d9\u6240","boring_xml_url":47,"boring_view_url":1,"soilmap_view_url":null,"soiltest_xml_url":0,"soiltest_view_url":0},{"id":109528,"code":"NGIC201800275-0003","latitude":"43.613675","longitude":"143.07169722222","source_code":"","project_name":"","survey_name":"\u65ed\u5ddd\u9053\u8def\u4e8b\u52d9\u6240\u7ba1\u5185\u5730\u8cea\u8abf\u67fb\u696d\u52d9","client_name":"\u56fd\u571f\u4ea4\u901a\u7701\u5317\u6d77\u9053\u958b\u767a\u5c40\u65ed\u5ddd\u958b\u767a\u5efa\u8a2d\u90e8\u65ed\u5ddd\u9053\u8def\u4e8b\u52d9\u6240","boring_xml_url":47,"boring_view_url":1,"soilmap_view_url":null,"soiltest_xml_url":0,"soiltest_view_url":0},{"id":109527,"code":"NGIC201800275-0002","latitude":"43.613763888889","longitude":"143.07223333333","source_code":"","project_name":"","survey_name":"\u65ed\u5ddd\u9053\u8def\u4e8b\u52d9\u6240\u7ba1\u5185\u5730\u8cea\u8abf\u67fb\u696d\u52d9","client_name":"\u56fd\u571f\u4ea4\u901a\u7701\u5317\u6d77\u9053\u958b\u767a\u5c40\u65ed\u5ddd\u958b\u767a\u5efa\u8a2d\u90e8\u65ed\u5ddd\u9053\u8def\u4e8b\u52d9\u6240","boring_xml_url":47,"boring_view_url":1,"soilmap_view_url":null,"soiltest_xml_url":0,"soiltest_view_url":0},{"id":109526,"code":"NGIC201800275-0001","latitude":"43.613730555556","longitude":"143.07269722222","source_code":"","project_name":"","survey_name":"\u65ed\u5ddd\u9053\u8def\u4e8b\u52d9\u6240\u7ba1\u5185\u5730\u8cea\u8abf\u67fb\u696d\u52d9","client_name":"\u56fd\u571f\u4ea4\u901a\u7701\u5317\u6d77\u9053\u958b\u767a\u5c40\u65ed\u5ddd\u958b\u767a\u5efa\u8a2d\u90e8\u65ed\u5ddd\u9053\u8def\u4e8b\u52d9\u6240","boring_xml_url":47,"boring_view_url":1,"soilmap_view_url":null,"soiltest_xml_url":0,"soiltest_view_url":0},{"id":109525,"code":"NGIC201800254-0005","latitude":"38.394166666667","longitude":"139.56583333333","source_code":"","project_name":"\u671d\u65e5\u6e29\u6d77\u9053\u8def\u4e8b\u696d","survey_name":"\u5e73\u621030\u5e74\u5ea6\u671d\u65e5\u6e29\u6d77\u9053\u8def\u5730\u8cea\u8abf\u67fb\u305d\u306e5\u696d\u52d9","client_name":"\u56fd\u571f\u4ea4\u901a\u7701\u5317\u9678\u5730\u65b9\u6574\u5099\u5c40\u65b0\u6f5f\u56fd\u9053\u4e8b\u52d9\u6240","boring_xml_url":47,"boring_view_url":1,"soilmap_view_url":null,"soiltest_xml_url":0,"soiltest_view_url":0},{"id":109524,"code":"NGIC201800254-0004","latitude":"38.395555555556","longitude":"139.56666666667","source_code":"","project_name":"\u671d\u65e5\u6e29\u6d77\u9053\u8def\u4e8b\u696d","survey_name":"\u5e73\u621030\u5e74\u5ea6\u671d\u65e5\u6e29\u6d77\u9053\u8def\u5730\u8cea\u8abf\u67fb\u305d\u306e5\u696d\u52d9","client_name":"\u56fd\u571f\u4ea4\u901a\u7701\u5317\u9678\u5730\u65b9\u6574\u5099\u5c40\u65b0\u6f5f\u56fd\u9053\u4e8b\u52d9\u6240","boring_xml_url":47,"boring_view_url":1,"soilmap_view_url":null,"soiltest_xml_url":0,"soiltest_view_url":0},{"id":109523,"code":"NGIC201800254-0003","latitude":"38.393888888889","longitude":"139.56666666667","source_code":"","project_name":"\u671d\u65e5\u6e29\u6d77\u9053\u8def\u4e8b\u696d","survey_name":"\u5e73\u621030\u5e74\u5ea6\u671d\u65e5\u6e29\u6d77\u9053\u8def\u5730\u8cea\u8abf\u67fb\u305d\u306e5\u696d\u52d9","client_name":"\u56fd\u571f\u4ea4\u901a\u7701\u5317\u9678\u5730\u65b9\u6574\u5099\u5c40\u65b0\u6f5f\u56fd\u9053\u4e8b\u52d9\u6240","boring_xml_url":47,"boring_view_url":1,"soilmap_view_url":null,"soiltest_xml_url":0,"soiltest_view_url":0}]}}