{"header":{"xyz":{"source":[],"mosaic":false},"page":703,"raw":{"soiltest_result":"0","bbox":"57.598333,109.544722,1.933333,163.806111","page":"703"},"conditions":{"soiltest_result":0,"north":57.598333,"west":109.544722,"south":1.933333,"east":163.806111},"success":true,"message":""},"data":{"meta":{"total":212844,"page":703,"pages":7095,"count":30},"values":[{"id":524328,"code":"B4KJ202201002-6864","latitude":"33.796453","longitude":"134.592389","source_code":"028830612000330005","project_name":"\u65e5\u548c\u4f50\u9053\u8def","survey_name":"\u5e73\u621014\u5e74\u5ea6\u3000\u65e5\u548c\u4f50\u9053\u8def\u5730\u8cea\u8abf\u67fb\u696d\u52d9","client_name":"\u56fd\u571f\u4ea4\u901a\u7701\u56db\u56fd\u5730\u65b9\u6574\u5099\u5c40\u5fb3\u5cf6\u6cb3\u5ddd\u56fd\u9053\u4e8b\u52d9\u6240\u8abf\u67fb\u7b2c\u4e8c\u8ab2","boring_xml_url":64,"boring_view_url":1,"soilmap_view_url":null,"soiltest_xml_url":0,"soiltest_view_url":0},{"id":524327,"code":"B4KJ202201002-6863","latitude":"33.797294","longitude":"134.592528","source_code":"028830612000330004","project_name":"\u65e5\u548c\u4f50\u9053\u8def","survey_name":"\u5e73\u621014\u5e74\u5ea6\u3000\u65e5\u548c\u4f50\u9053\u8def\u5730\u8cea\u8abf\u67fb\u696d\u52d9","client_name":"\u56fd\u571f\u4ea4\u901a\u7701\u56db\u56fd\u5730\u65b9\u6574\u5099\u5c40\u5fb3\u5cf6\u6cb3\u5ddd\u56fd\u9053\u4e8b\u52d9\u6240\u8abf\u67fb\u7b2c\u4e8c\u8ab2","boring_xml_url":64,"boring_view_url":1,"soilmap_view_url":null,"soiltest_xml_url":0,"soiltest_view_url":0},{"id":524326,"code":"B4KJ202201002-6862","latitude":"33.797364","longitude":"134.59245","source_code":"028830612000330003","project_name":"\u65e5\u548c\u4f50\u9053\u8def","survey_name":"\u5e73\u621014\u5e74\u5ea6\u3000\u65e5\u548c\u4f50\u9053\u8def\u5730\u8cea\u8abf\u67fb\u696d\u52d9","client_name":"\u56fd\u571f\u4ea4\u901a\u7701\u56db\u56fd\u5730\u65b9\u6574\u5099\u5c40\u5fb3\u5cf6\u6cb3\u5ddd\u56fd\u9053\u4e8b\u52d9\u6240\u8abf\u67fb\u7b2c\u4e8c\u8ab2","boring_xml_url":64,"boring_view_url":1,"soilmap_view_url":null,"soiltest_xml_url":0,"soiltest_view_url":0},{"id":524325,"code":"B4KJ202201002-6861","latitude":"33.797614","longitude":"134.592483","source_code":"028830612000330002","project_name":"\u65e5\u548c\u4f50\u9053\u8def","survey_name":"\u5e73\u621014\u5e74\u5ea6\u3000\u65e5\u548c\u4f50\u9053\u8def\u5730\u8cea\u8abf\u67fb\u696d\u52d9","client_name":"\u56fd\u571f\u4ea4\u901a\u7701\u56db\u56fd\u5730\u65b9\u6574\u5099\u5c40\u5fb3\u5cf6\u6cb3\u5ddd\u56fd\u9053\u4e8b\u52d9\u6240\u8abf\u67fb\u7b2c\u4e8c\u8ab2","boring_xml_url":64,"boring_view_url":1,"soilmap_view_url":null,"soiltest_xml_url":0,"soiltest_view_url":0},{"id":524324,"code":"B4KJ202201002-6860","latitude":"33.797653","longitude":"134.592653","source_code":"028830612000330001","project_name":"\u65e5\u548c\u4f50\u9053\u8def","survey_name":"\u5e73\u621014\u5e74\u5ea6\u65e5\u548c\u4f50\u9053\u8def\u5730\u8cea\u8abf\u67fb\u696d\u52d9","client_name":"\u56fd\u571f\u4ea4\u901a\u7701\u56db\u56fd\u5730\u65b9\u6574\u5099\u5c40\u5fb3\u5cf6\u6cb3\u5ddd\u56fd\u9053\u4e8b\u52d9\u6240\u8abf\u67fb\u7b2c\u4e8c\u8ab2","boring_xml_url":64,"boring_view_url":1,"soilmap_view_url":null,"soiltest_xml_url":0,"soiltest_view_url":0},{"id":524323,"code":"B4KJ202201002-6859","latitude":"33.874711","longitude":"134.634783","source_code":"028830612000320009","project_name":"\u4e00\u822c\u56fd\u905355\u53f7\u3000\u963f\u5357\u9053\u8def","survey_name":"\u5e73\u621014\u5e74\u5ea6\u3000\u963f\u5357\u9053\u8def9\u5de5\u533a\u5730\u8cea\u8abf\u67fb\u696d\u52d9","client_name":"\u56fd\u571f\u4ea4\u901a\u7701\u56db\u56fd\u5730\u65b9\u6574\u5099\u5c40\u3000\u5fb3\u5cf6\u6cb3\u5ddd\u56fd\u9053\u4e8b\u52d9\u6240","boring_xml_url":64,"boring_view_url":1,"soilmap_view_url":null,"soiltest_xml_url":0,"soiltest_view_url":0},{"id":524322,"code":"B4KJ202201002-6858","latitude":"33.888","longitude":"134.652861","source_code":"028830612000320007","project_name":"\u4e00\u822c\u56fd\u905355\u53f7\u3000\u963f\u5357\u9053\u8def","survey_name":"\u5e73\u621014\u5e74\u5ea6\u3000\u963f\u5357\u9053\u8def9\u5de5\u533a\u5730\u8cea\u8abf\u67fb\u696d\u52d9","client_name":"\u56fd\u571f\u4ea4\u901a\u7701\u56db\u56fd\u5730\u65b9\u6574\u5099\u5c40\u3000\u5fb3\u5cf6\u6cb3\u5ddd\u56fd\u9053\u4e8b\u52d9\u6240","boring_xml_url":64,"boring_view_url":1,"soilmap_view_url":null,"soiltest_xml_url":0,"soiltest_view_url":0},{"id":524321,"code":"B4KJ202201002-6857","latitude":"33.871333","longitude":"134.631306","source_code":"028830612000320006","project_name":"\u4e00\u822c\u56fd\u905355\u53f7\u3000\u963f\u5357\u9053\u8def","survey_name":"\u5e73\u621014\u5e74\u5ea6\u3000\u963f\u5357\u9053\u8def9\u5de5\u533a\u5730\u8cea\u8abf\u67fb\u696d\u52d9","client_name":"\u56fd\u571f\u4ea4\u901a\u7701\u56db\u56fd\u5730\u65b9\u6574\u5099\u5c40\u3000\u5fb3\u5cf6\u6cb3\u5ddd\u56fd\u9053\u4e8b\u52d9\u6240","boring_xml_url":64,"boring_view_url":1,"soilmap_view_url":null,"soiltest_xml_url":0,"soiltest_view_url":0},{"id":524320,"code":"B4KJ202201002-6856","latitude":"33.887639","longitude":"134.652667","source_code":"028830612000320001","project_name":"\u4e00\u822c\u56fd\u905355\u53f7\u3000\u963f\u5357\u9053\u8def","survey_name":"\u5e73\u621014\u5e74\u5ea6\u3000\u963f\u5357\u9053\u8def9\u5de5\u533a\u5730\u8cea\u8abf\u67fb\u696d\u52d9","client_name":"\u56fd\u571f\u4ea4\u901a\u7701\u56db\u56fd\u5730\u65b9\u6574\u5099\u5c40\u3000\u5fb3\u5cf6\u6cb3\u5ddd\u56fd\u9053\u4e8b\u52d9\u6240","boring_xml_url":64,"boring_view_url":1,"soilmap_view_url":null,"soiltest_xml_url":0,"soiltest_view_url":0},{"id":524319,"code":"B4KJ202201002-6855","latitude":"34.048444","longitude":"134.059889","source_code":"028830602000270017","project_name":"","survey_name":"\"\u5e73\u621014\u5e74\u5ea6 \u5409\u91ce\u5ddd\u4e0a\u6d41\u5824\u9632\u8abf\u67fb\u696d\u52d9\"","client_name":"\"\u56fd\u571f\u4ea4\u901a\u7701\u3000\u56db\u56fd\u5730\u65b9\u6574\u5099\u5c40 \u5fb3\u5cf6\u6cb3\u5ddd\u56fd\u9053\u4e8b\u52d9\u6240\"","boring_xml_url":64,"boring_view_url":1,"soilmap_view_url":null,"soiltest_xml_url":0,"soiltest_view_url":0},{"id":524318,"code":"B4KJ202201002-6854","latitude":"34.0485","longitude":"134.059861","source_code":"028830602000270016","project_name":"","survey_name":"\"\u5e73\u621014\u5e74\u5ea6 \u5409\u91ce\u5ddd\u4e0a\u6d41\u5824\u9632\u8abf\u67fb\u696d\u52d9\"","client_name":"\"\u56fd\u571f\u4ea4\u901a\u7701\u3000\u56db\u56fd\u5730\u65b9\u6574\u5099\u5c40 \u5fb3\u5cf6\u6cb3\u5ddd\u56fd\u9053\u4e8b\u52d9\u6240\"","boring_xml_url":64,"boring_view_url":1,"soilmap_view_url":null,"soiltest_xml_url":0,"soiltest_view_url":0},{"id":524317,"code":"B4KJ202201002-6853","latitude":"34.052167","longitude":"134.0785","source_code":"028830602000270015","project_name":"","survey_name":"\"\u5e73\u621014\u5e74\u5ea6 \u5409\u91ce\u5ddd\u4e0a\u6d41\u5824\u9632\u8abf\u67fb\u696d\u52d9\"","client_name":"\"\u56fd\u571f\u4ea4\u901a\u7701\u3000\u56db\u56fd\u5730\u65b9\u6574\u5099\u5c40 \u5fb3\u5cf6\u6cb3\u5ddd\u56fd\u9053\u4e8b\u52d9\u6240\"","boring_xml_url":64,"boring_view_url":1,"soilmap_view_url":null,"soiltest_xml_url":0,"soiltest_view_url":0},{"id":524316,"code":"B4KJ202201002-6852","latitude":"34.052028","longitude":"134.078556","source_code":"028830602000270014","project_name":"","survey_name":"\"\u5e73\u621014\u5e74\u5ea6 \u5409\u91ce\u5ddd\u4e0a\u6d41\u5824\u9632\u8abf\u67fb\u696d\u52d9\"","client_name":"\"\u56fd\u571f\u4ea4\u901a\u7701\u3000\u56db\u56fd\u5730\u65b9\u6574\u5099\u5c40 \u5fb3\u5cf6\u6cb3\u5ddd\u56fd\u9053\u4e8b\u52d9\u6240\"","boring_xml_url":64,"boring_view_url":1,"soilmap_view_url":null,"soiltest_xml_url":0,"soiltest_view_url":0},{"id":524315,"code":"B4KJ202201002-6851","latitude":"34.0665","longitude":"134.146778","source_code":"028830602000270012","project_name":"","survey_name":"\"\u5e73\u621014\u5e74\u5ea6 \u5409\u91ce\u5ddd\u4e0a\u6d41\u5824\u9632\u8abf\u67fb\u696d\u52d9\"","client_name":"\"\u56fd\u571f\u4ea4\u901a\u7701\u3000\u56db\u56fd\u5730\u65b9\u6574\u5099\u5c40 \u5fb3\u5cf6\u6cb3\u5ddd\u56fd\u9053\u4e8b\u52d9\u6240\"","boring_xml_url":64,"boring_view_url":1,"soilmap_view_url":null,"soiltest_xml_url":0,"soiltest_view_url":0},{"id":524314,"code":"B4KJ202201002-6850","latitude":"34.066306","longitude":"134.146694","source_code":"028830602000270011","project_name":"","survey_name":"\"\u5e73\u621014\u5e74\u5ea6 \u5409\u91ce\u5ddd\u4e0a\u6d41\u5824\u9632\u8abf\u67fb\u696d\u52d9\"","client_name":"\"\u56fd\u571f\u4ea4\u901a\u7701\u3000\u56db\u56fd\u5730\u65b9\u6574\u5099\u5c40 \u5fb3\u5cf6\u6cb3\u5ddd\u56fd\u9053\u4e8b\u52d9\u6240\"","boring_xml_url":64,"boring_view_url":1,"soilmap_view_url":null,"soiltest_xml_url":0,"soiltest_view_url":0},{"id":524313,"code":"B4KJ202201002-6849","latitude":"34.066444","longitude":"134.14675","source_code":"028830602000270010","project_name":"","survey_name":"\"\u5e73\u621014\u5e74\u5ea6 \u5409\u91ce\u5ddd\u4e0a\u6d41\u5824\u9632\u8abf\u67fb\u696d\u52d9\"","client_name":"\"\u56fd\u571f\u4ea4\u901a\u7701\u3000\u56db\u56fd\u5730\u65b9\u6574\u5099\u5c40 \u5fb3\u5cf6\u6cb3\u5ddd\u56fd\u9053\u4e8b\u52d9\u6240\"","boring_xml_url":64,"boring_view_url":1,"soilmap_view_url":null,"soiltest_xml_url":0,"soiltest_view_url":0},{"id":524312,"code":"B4KJ202201002-6848","latitude":"34.060861","longitude":"134.175861","source_code":"028830602000270009","project_name":"","survey_name":"\"\u5e73\u621014\u5e74\u5ea6 \u5409\u91ce\u5ddd\u4e0a\u6d41\u5824\u9632\u8abf\u67fb\u696d\u52d9\"","client_name":"\u56fd\u571f\u4ea4\u901a\u7701\u3000\u56db\u56fd\u5730\u65b9\u6574\u5099\u5c40\u3000\u5fb3\u5cf6\u6cb3\u5ddd\u56fd\u9053\u4e8b\u52d9\u6240","boring_xml_url":64,"boring_view_url":1,"soilmap_view_url":null,"soiltest_xml_url":0,"soiltest_view_url":0},{"id":524311,"code":"B4KJ202201002-6847","latitude":"34.060667","longitude":"134.175917","source_code":"028830602000270008","project_name":"","survey_name":"\"\u5e73\u621014\u5e74\u5ea6 \u5409\u91ce\u5ddd\u4e0a\u6d41\u5824\u9632\u8abf\u67fb\u696d\u52d9\"","client_name":"\u56fd\u571f\u4ea4\u901a\u7701\u3000\u56db\u56fd\u5730\u65b9\u6574\u5099\u5c40\u3000\u5fb3\u5cf6\u6cb3\u5ddd\u56fd\u9053\u4e8b\u52d9\u6240","boring_xml_url":64,"boring_view_url":1,"soilmap_view_url":null,"soiltest_xml_url":0,"soiltest_view_url":0},{"id":524310,"code":"B4KJ202201002-6846","latitude":"34.073972","longitude":"134.243806","source_code":"028830602000270006","project_name":"","survey_name":"\"\u5e73\u621014\u5e74\u5ea6 \u5409\u91ce\u5ddd\u4e0a\u6d41\u5824\u9632\u8abf\u67fb\u696d\u52d9\"","client_name":"\"\u56fd\u571f\u4ea4\u901a\u7701\u3000\u56db\u56fd\u5730\u65b9\u6574\u5099\u5c40 \u5fb3\u5cf6\u6cb3\u5ddd\u56fd\u9053\u4e8b\u52d9\u6240\"","boring_xml_url":64,"boring_view_url":1,"soilmap_view_url":null,"soiltest_xml_url":0,"soiltest_view_url":0},{"id":524309,"code":"B4KJ202201002-6845","latitude":"34.073889","longitude":"134.243833","source_code":"028830602000270005","project_name":"","survey_name":"\"\u5e73\u621014\u5e74\u5ea6 \u5409\u91ce\u5ddd\u4e0a\u6d41\u5824\u9632\u8abf\u67fb\u696d\u52d9\"","client_name":"\"\u56fd\u571f\u4ea4\u901a\u7701\u3000\u56db\u56fd\u5730\u65b9\u6574\u5099\u5c40 \u5fb3\u5cf6\u6cb3\u5ddd\u56fd\u9053\u4e8b\u52d9\u6240\"","boring_xml_url":64,"boring_view_url":1,"soilmap_view_url":null,"soiltest_xml_url":0,"soiltest_view_url":0},{"id":524308,"code":"B4KJ202201002-6844","latitude":"34.073917","longitude":"134.243833","source_code":"028830602000270004","project_name":"","survey_name":"\"\u5e73\u621014\u5e74\u5ea6 \u5409\u91ce\u5ddd\u4e0a\u6d41\u5824\u9632\u8abf\u67fb\u696d\u52d9\"","client_name":"\"\u56fd\u571f\u4ea4\u901a\u7701\u3000\u56db\u56fd\u5730\u65b9\u6574\u5099\u5c40 \u5fb3\u5cf6\u6cb3\u5ddd\u56fd\u9053\u4e8b\u52d9\u6240\"","boring_xml_url":64,"boring_view_url":1,"soilmap_view_url":null,"soiltest_xml_url":0,"soiltest_view_url":0},{"id":524307,"code":"B4KJ202201002-6843","latitude":"34.074833","longitude":"134.249694","source_code":"028830602000270001","project_name":"","survey_name":"\"\u5e73\u621014\u5e74\u5ea6 \u5409\u91ce\u5ddd\u4e0a\u6d41\u5824\u9632\u8abf\u67fb\u696d\u52d9\"","client_name":"\u56fd\u571f\u4ea4\u901a\u7701\u3000\u56db\u56fd\u5730\u65b9\u6574\u5099\u5c40\u3000\u5fb3\u5cf6\u6cb3\u5ddd\u56fd\u9053\u4e8b\u52d9\u6240","boring_xml_url":64,"boring_view_url":1,"soilmap_view_url":null,"soiltest_xml_url":0,"soiltest_view_url":0},{"id":524306,"code":"B4KJ202201002-6842","latitude":"34.040613","longitude":"133.970679","source_code":"028830402000080004","project_name":"\"\u5e73\u621014\u5e74\u5ea6 \u829d\u751f\u7b2c\u4e00\u5de5\u533a\u6a0b\u9580\u8a73\u7d30\u8a2d\u8a08\u696d\u52d9\u59d4\u8a17\"","survey_name":"\"\u5e73\u621014\u5e74\u5ea6 \u829d\u751f\u7b2c\u4e00\u5de5\u533a\u6a0b\u9580\u8a73\u7d30\u8a2d\u8a08\u696d\u52d9\u59d4\u8a17\"","client_name":"\u56fd\u571f\u4ea4\u901a\u7701\u56db\u56fd\u5730\u65b9\u6574\u5099\u5c40\u5fb3\u5cf6\u5de5\u4e8b\u4e8b\u52d9\u6240","boring_xml_url":64,"boring_view_url":1,"soilmap_view_url":null,"soiltest_xml_url":0,"soiltest_view_url":0},{"id":524305,"code":"B4KJ202201002-6841","latitude":"34.040835","longitude":"133.970679","source_code":"028830402000080003","project_name":"\"\u5e73\u621014\u5e74\u5ea6 \u829d\u751f\u7b2c\u4e00\u5de5\u533a\u6a0b\u9580\u8a73\u7d30\u8a2d\u8a08\u696d\u52d9\u59d4\u8a17\"","survey_name":"\"\u5e73\u621014\u5e74\u5ea6 \u829d\u751f\u7b2c\u4e00\u5de5\u533a\u6a0b\u9580\u8a73\u7d30\u8a2d\u8a08\u696d\u52d9\u59d4\u8a17\"","client_name":"\u56fd\u571f\u4ea4\u901a\u7701\u56db\u56fd\u5730\u65b9\u6574\u5099\u5c40\u5fb3\u5cf6\u5de5\u4e8b\u4e8b\u52d9\u6240","boring_xml_url":64,"boring_view_url":1,"soilmap_view_url":null,"soiltest_xml_url":0,"soiltest_view_url":0},{"id":524304,"code":"B4KJ202201002-6840","latitude":"34.040752","longitude":"133.973151","source_code":"028830402000080002","project_name":"\"\u5e73\u621014\u5e74\u5ea6 \u829d\u751f\u7b2c\u4e00\u5de5\u533a\u6a0b\u9580\u8a73\u7d30\u8a2d\u8a08\u696d\u52d9\u59d4\u8a17\"","survey_name":"\"\u5e73\u621014\u5e74\u5ea6 \u829d\u751f\u7b2c\u4e00\u5de5\u533a\u6a0b\u9580\u8a73\u7d30\u8a2d\u8a08\u696d\u52d9\u59d4\u8a17\"","client_name":"\u56fd\u571f\u4ea4\u901a\u7701\u56db\u56fd\u5730\u65b9\u6574\u5099\u5c40\u5fb3\u5cf6\u5de5\u4e8b\u4e8b\u52d9\u6240","boring_xml_url":64,"boring_view_url":1,"soilmap_view_url":null,"soiltest_xml_url":0,"soiltest_view_url":0},{"id":524303,"code":"B4KJ202201002-6839","latitude":"34.041085","longitude":"133.973095","source_code":"028830402000080001","project_name":"\"\u5e73\u621014\u5e74\u5ea6 \u829d\u751f\u7b2c\u4e00\u5de5\u533a\u6a0b\u9580\u8a73\u7d30\u8a2d\u8a08\u696d\u52d9\u59d4\u8a17\"","survey_name":"\"\u5e73\u621014\u5e74\u5ea6 \u829d\u751f\u7b2c\u4e00\u5de5\u533a\u6a0b\u9580\u8a73\u7d30\u8a2d\u8a08\u696d\u52d9\u59d4\u8a17\"","client_name":"\u56fd\u571f\u4ea4\u901a\u7701\u56db\u56fd\u5730\u65b9\u6574\u5099\u5c40\u5fb3\u5cf6\u5de5\u4e8b\u4e8b\u52d9\u6240","boring_xml_url":64,"boring_view_url":1,"soilmap_view_url":null,"soiltest_xml_url":0,"soiltest_view_url":0},{"id":524302,"code":"B4KJ202201002-6838","latitude":"33.973869","longitude":"133.529057","source_code":"038850622000150004","project_name":"","survey_name":"\u5e73\u621015\u5e74\u5ea6\u3000\u5ddd\u4e4b\u6c5f\u4e09\u5cf6BP\u6a2a\u65ad\u6b69\u9053\u6a4b\u5b9f\u65bd\u8a2d\u8a08\u696d\u52d9\u59d4\u8a17","client_name":"\u56fd\u571f\u4ea4\u901a\u7701\u56db\u56fd\u5730\u65b9\u6574\u5099\u5c40\u677e\u5c71\u6cb3\u5ddd\u56fd\u9053\u4e8b\u52d9\u6240","boring_xml_url":64,"boring_view_url":1,"soilmap_view_url":null,"soiltest_xml_url":0,"soiltest_view_url":0},{"id":524301,"code":"B4KJ202201002-6837","latitude":"33.973591","longitude":"133.529335","source_code":"038850622000150003","project_name":"","survey_name":"\u5e73\u621015\u5e74\u5ea6\u3000\u5ddd\u4e4b\u6c5f\u4e09\u5cf6BP\u6a2a\u65ad\u6b69\u9053\u6a4b\u5b9f\u65bd\u8a2d\u8a08\u696d\u52d9\u59d4\u8a17","client_name":"\u56fd\u571f\u4ea4\u901a\u7701\u56db\u56fd\u5730\u65b9\u6574\u5099\u5c40\u677e\u5c71\u6cb3\u5ddd\u56fd\u9053\u4e8b\u52d9\u6240","boring_xml_url":64,"boring_view_url":1,"soilmap_view_url":null,"soiltest_xml_url":0,"soiltest_view_url":0},{"id":524300,"code":"B4KJ202201002-6836","latitude":"33.973591","longitude":"133.533224","source_code":"038850622000150002","project_name":"","survey_name":"\u5e73\u621015\u5e74\u5ea6\u3000\u5ddd\u4e4b\u6c5f\u4e09\u5cf6BP\u6a2a\u65ad\u6b69\u9053\u6a4b\u5b9f\u65bd\u8a2d\u8a08\u696d\u52d9\u59d4\u8a17","client_name":"\u56fd\u571f\u4ea4\u901a\u7701\u56db\u56fd\u5730\u65b9\u6574\u5099\u5c40\u677e\u5c71\u6cb3\u5ddd\u56fd\u9053\u4e8b\u52d9\u6240","boring_xml_url":64,"boring_view_url":1,"soilmap_view_url":null,"soiltest_xml_url":0,"soiltest_view_url":0},{"id":524299,"code":"B4KJ202201002-6835","latitude":"33.973036","longitude":"133.533224","source_code":"038850622000150001","project_name":"","survey_name":"\u5e73\u621015\u5e74\u5ea6\u3000\u5ddd\u4e4b\u6c5f\u4e09\u5cf6BP\u6a2a\u65ad\u6b69\u9053\u6a4b\u5b9f\u65bd\u8a2d\u8a08\u696d\u52d9\u59d4\u8a17","client_name":"\u56fd\u571f\u4ea4\u901a\u7701\u56db\u56fd\u5730\u65b9\u6574\u5099\u5c40\u677e\u5c71\u6cb3\u5ddd\u56fd\u9053\u4e8b\u52d9\u6240","boring_xml_url":64,"boring_view_url":1,"soilmap_view_url":null,"soiltest_xml_url":0,"soiltest_view_url":0}]}}