{"header":{"xyz":{"source":[],"mosaic":false},"page":7036,"raw":{"soiltest_result":"0","bbox":"57.598333,109.544722,1.933333,163.806111","page":"7036"},"conditions":{"soiltest_result":0,"north":57.598333,"west":109.544722,"south":1.933333,"east":163.806111},"success":true,"message":""},"data":{"meta":{"total":212844,"page":7036,"pages":7095,"count":30},"values":[{"id":109284,"code":"NGIC201800247-0054","latitude":"35.562972222222","longitude":"139.78233333333","source_code":"","project_name":"","survey_name":"\u5e73\u621029\u5e74\u5ea6 \u6771\u4eac\u56fd\u969b\u7a7a\u6e2fJ\u8a98\u5c0e\u8def\u4ed6\u571f\u8cea\u8abf\u67fb","client_name":"\u56fd\u571f\u4ea4\u901a\u7701\u95a2\u6771\u5730\u65b9\u6574\u5099\u5c40\u6771\u4eac\u7a7a\u6e2f\u6574\u5099\u4e8b\u52d9\u6240","boring_xml_url":47,"boring_view_url":1,"soilmap_view_url":71,"soiltest_xml_url":47,"soiltest_view_url":47},{"id":109283,"code":"NGIC201800247-0053","latitude":"35.562944444444","longitude":"139.78233333333","source_code":"","project_name":"","survey_name":"\u5e73\u621029\u5e74\u5ea6 \u6771\u4eac\u56fd\u969b\u7a7a\u6e2fJ\u8a98\u5c0e\u8def\u4ed6\u571f\u8cea\u8abf\u67fb","client_name":"\u56fd\u571f\u4ea4\u901a\u7701\u95a2\u6771\u5730\u65b9\u6574\u5099\u5c40\u6771\u4eac\u7a7a\u6e2f\u6574\u5099\u4e8b\u52d9\u6240","boring_xml_url":47,"boring_view_url":1,"soilmap_view_url":71,"soiltest_xml_url":47,"soiltest_view_url":47},{"id":109282,"code":"NGIC201800247-0052","latitude":"35.564194444444","longitude":"139.78383333333","source_code":"","project_name":"","survey_name":"\u5e73\u621029\u5e74\u5ea6 \u6771\u4eac\u56fd\u969b\u7a7a\u6e2fJ\u8a98\u5c0e\u8def\u4ed6\u571f\u8cea\u8abf\u67fb","client_name":"\u56fd\u571f\u4ea4\u901a\u7701\u95a2\u6771\u5730\u65b9\u6574\u5099\u5c40\u6771\u4eac\u7a7a\u6e2f\u6574\u5099\u4e8b\u52d9\u6240","boring_xml_url":47,"boring_view_url":1,"soilmap_view_url":71,"soiltest_xml_url":47,"soiltest_view_url":47},{"id":109281,"code":"NGIC201800247-0051","latitude":"35.564166666667","longitude":"139.78411111111","source_code":"","project_name":"","survey_name":"\u5e73\u621029\u5e74\u5ea6 \u6771\u4eac\u56fd\u969b\u7a7a\u6e2fJ\u8a98\u5c0e\u8def\u4ed6\u571f\u8cea\u8abf\u67fb","client_name":"\u56fd\u571f\u4ea4\u901a\u7701\u95a2\u6771\u5730\u65b9\u6574\u5099\u5c40\u6771\u4eac\u7a7a\u6e2f\u6574\u5099\u4e8b\u52d9\u6240","boring_xml_url":47,"boring_view_url":1,"soilmap_view_url":71,"soiltest_xml_url":47,"soiltest_view_url":47},{"id":109280,"code":"NGIC201800247-0050","latitude":"35.564","longitude":"139.78411111111","source_code":"","project_name":"","survey_name":"\u5e73\u621029\u5e74\u5ea6 \u6771\u4eac\u56fd\u969b\u7a7a\u6e2fJ\u8a98\u5c0e\u8def\u4ed6\u571f\u8cea\u8abf\u67fb","client_name":"\u56fd\u571f\u4ea4\u901a\u7701\u95a2\u6771\u5730\u65b9\u6574\u5099\u5c40\u6771\u4eac\u7a7a\u6e2f\u6574\u5099\u4e8b\u52d9\u6240","boring_xml_url":47,"boring_view_url":1,"soilmap_view_url":71,"soiltest_xml_url":47,"soiltest_view_url":47},{"id":109279,"code":"NGIC201800247-0049","latitude":"35.564022222222","longitude":"139.78414722222","source_code":"","project_name":"","survey_name":"\u5e73\u621029\u5e74\u5ea6 \u6771\u4eac\u56fd\u969b\u7a7a\u6e2fJ\u8a98\u5c0e\u8def\u4ed6\u571f\u8cea\u8abf\u67fb","client_name":"\u56fd\u571f\u4ea4\u901a\u7701\u95a2\u6771\u5730\u65b9\u6574\u5099\u5c40\u6771\u4eac\u7a7a\u6e2f\u6574\u5099\u4e8b\u52d9\u6240","boring_xml_url":47,"boring_view_url":1,"soilmap_view_url":71,"soiltest_xml_url":47,"soiltest_view_url":47},{"id":109278,"code":"NGIC201800247-0048","latitude":"35.563805555556","longitude":"139.78411111111","source_code":"","project_name":"","survey_name":"\u5e73\u621029\u5e74\u5ea6 \u6771\u4eac\u56fd\u969b\u7a7a\u6e2fJ\u8a98\u5c0e\u8def\u4ed6\u571f\u8cea\u8abf\u67fb","client_name":"\u56fd\u571f\u4ea4\u901a\u7701\u95a2\u6771\u5730\u65b9\u6574\u5099\u5c40\u6771\u4eac\u7a7a\u6e2f\u6574\u5099\u4e8b\u52d9\u6240","boring_xml_url":47,"boring_view_url":1,"soilmap_view_url":71,"soiltest_xml_url":47,"soiltest_view_url":47},{"id":109277,"code":"NGIC201800247-0047","latitude":"35.563777777778","longitude":"139.78411111111","source_code":"","project_name":"","survey_name":"\u5e73\u621029\u5e74\u5ea6 \u6771\u4eac\u56fd\u969b\u7a7a\u6e2fJ\u8a98\u5c0e\u8def\u4ed6\u571f\u8cea\u8abf\u67fb","client_name":"\u56fd\u571f\u4ea4\u901a\u7701\u95a2\u6771\u5730\u65b9\u6574\u5099\u5c40\u6771\u4eac\u7a7a\u6e2f\u6574\u5099\u4e8b\u52d9\u6240","boring_xml_url":47,"boring_view_url":1,"soilmap_view_url":71,"soiltest_xml_url":47,"soiltest_view_url":47},{"id":109276,"code":"NGIC201800247-0046","latitude":"35.561388888889","longitude":"139.77977777778","source_code":"","project_name":"","survey_name":"\u5e73\u621029\u5e74\u5ea6 \u6771\u4eac\u56fd\u969b\u7a7a\u6e2fJ\u8a98\u5c0e\u8def\u4ed6\u571f\u8cea\u8abf\u67fb","client_name":"\u56fd\u571f\u4ea4\u901a\u7701\u95a2\u6771\u5730\u65b9\u6574\u5099\u5c40\u6771\u4eac\u7a7a\u6e2f\u6574\u5099\u4e8b\u52d9\u6240","boring_xml_url":47,"boring_view_url":1,"soilmap_view_url":71,"soiltest_xml_url":47,"soiltest_view_url":47},{"id":109275,"code":"NGIC201800247-0045","latitude":"35.561388888889","longitude":"139.77975","source_code":"","project_name":"","survey_name":"\u5e73\u621029\u5e74\u5ea6 \u6771\u4eac\u56fd\u969b\u7a7a\u6e2fJ\u8a98\u5c0e\u8def\u4ed6\u571f\u8cea\u8abf\u67fb","client_name":"\u56fd\u571f\u4ea4\u901a\u7701\u95a2\u6771\u5730\u65b9\u6574\u5099\u5c40\u6771\u4eac\u7a7a\u6e2f\u6574\u5099\u4e8b\u52d9\u6240","boring_xml_url":47,"boring_view_url":1,"soilmap_view_url":71,"soiltest_xml_url":47,"soiltest_view_url":47},{"id":109274,"code":"NGIC201800247-0044","latitude":"35.561666666667","longitude":"139.77988888889","source_code":"","project_name":"","survey_name":"\u5e73\u621029\u5e74\u5ea6 \u6771\u4eac\u56fd\u969b\u7a7a\u6e2fJ\u8a98\u5c0e\u8def\u4ed6\u571f\u8cea\u8abf\u67fb","client_name":"\u56fd\u571f\u4ea4\u901a\u7701\u95a2\u6771\u5730\u65b9\u6574\u5099\u5c40\u6771\u4eac\u7a7a\u6e2f\u6574\u5099\u4e8b\u52d9\u6240","boring_xml_url":47,"boring_view_url":1,"soilmap_view_url":71,"soiltest_xml_url":47,"soiltest_view_url":47},{"id":109273,"code":"NGIC201800247-0043","latitude":"35.561638888889","longitude":"139.77991666667","source_code":"","project_name":"","survey_name":"\u5e73\u621029\u5e74\u5ea6 \u6771\u4eac\u56fd\u969b\u7a7a\u6e2fJ\u8a98\u5c0e\u8def\u4ed6\u571f\u8cea\u8abf\u67fb","client_name":"\u56fd\u571f\u4ea4\u901a\u7701\u95a2\u6771\u5730\u65b9\u6574\u5099\u5c40\u6771\u4eac\u7a7a\u6e2f\u6574\u5099\u4e8b\u52d9\u6240","boring_xml_url":47,"boring_view_url":1,"soilmap_view_url":71,"soiltest_xml_url":47,"soiltest_view_url":47},{"id":109272,"code":"NGIC201800247-0042","latitude":"35.561611111111","longitude":"139.78025","source_code":"","project_name":"","survey_name":"\u5e73\u621029\u5e74\u5ea6 \u6771\u4eac\u56fd\u969b\u7a7a\u6e2fJ\u8a98\u5c0e\u8def\u4ed6\u571f\u8cea\u8abf\u67fb","client_name":"\u56fd\u571f\u4ea4\u901a\u7701\u95a2\u6771\u5730\u65b9\u6574\u5099\u5c40\u6771\u4eac\u7a7a\u6e2f\u6574\u5099\u4e8b\u52d9\u6240","boring_xml_url":47,"boring_view_url":1,"soilmap_view_url":71,"soiltest_xml_url":47,"soiltest_view_url":47},{"id":109271,"code":"NGIC201800247-0041","latitude":"35.561638888889","longitude":"139.78025","source_code":"","project_name":"","survey_name":"\u5e73\u621029\u5e74\u5ea6 \u6771\u4eac\u56fd\u969b\u7a7a\u6e2fJ\u8a98\u5c0e\u8def\u4ed6\u571f\u8cea\u8abf\u67fb","client_name":"\u56fd\u571f\u4ea4\u901a\u7701\u95a2\u6771\u5730\u65b9\u6574\u5099\u5c40\u6771\u4eac\u7a7a\u6e2f\u6574\u5099\u4e8b\u52d9\u6240","boring_xml_url":47,"boring_view_url":1,"soilmap_view_url":71,"soiltest_xml_url":47,"soiltest_view_url":47},{"id":109270,"code":"NGIC201800247-0040","latitude":"35.561888888889","longitude":"139.78038888889","source_code":"","project_name":"","survey_name":"\u5e73\u621029\u5e74\u5ea6 \u6771\u4eac\u56fd\u969b\u7a7a\u6e2fJ\u8a98\u5c0e\u8def\u4ed6\u571f\u8cea\u8abf\u67fb","client_name":"\u56fd\u571f\u4ea4\u901a\u7701\u95a2\u6771\u5730\u65b9\u6574\u5099\u5c40\u6771\u4eac\u7a7a\u6e2f\u6574\u5099\u4e8b\u52d9\u6240","boring_xml_url":47,"boring_view_url":1,"soilmap_view_url":71,"soiltest_xml_url":47,"soiltest_view_url":47},{"id":109269,"code":"NGIC201800247-0039","latitude":"35.561861111111","longitude":"139.78038888889","source_code":"","project_name":"","survey_name":"\u5e73\u621029\u5e74\u5ea6 \u6771\u4eac\u56fd\u969b\u7a7a\u6e2fJ\u8a98\u5c0e\u8def\u4ed6\u571f\u8cea\u8abf\u67fb","client_name":"\u56fd\u571f\u4ea4\u901a\u7701\u95a2\u6771\u5730\u65b9\u6574\u5099\u5c40\u6771\u4eac\u7a7a\u6e2f\u6574\u5099\u4e8b\u52d9\u6240","boring_xml_url":47,"boring_view_url":1,"soilmap_view_url":71,"soiltest_xml_url":47,"soiltest_view_url":47},{"id":109268,"code":"NGIC201800247-0038","latitude":"35.561833333333","longitude":"139.78072222222","source_code":"","project_name":"","survey_name":"\u5e73\u621029\u5e74\u5ea6 \u6771\u4eac\u56fd\u969b\u7a7a\u6e2fJ\u8a98\u5c0e\u8def\u4ed6\u571f\u8cea\u8abf\u67fb","client_name":"\u56fd\u571f\u4ea4\u901a\u7701\u95a2\u6771\u5730\u65b9\u6574\u5099\u5c40\u6771\u4eac\u7a7a\u6e2f\u6574\u5099\u4e8b\u52d9\u6240","boring_xml_url":47,"boring_view_url":1,"soilmap_view_url":71,"soiltest_xml_url":47,"soiltest_view_url":47},{"id":109267,"code":"NGIC201800247-0037","latitude":"35.561861111111","longitude":"139.78072222222","source_code":"","project_name":"","survey_name":"\u5e73\u621029\u5e74\u5ea6 \u6771\u4eac\u56fd\u969b\u7a7a\u6e2fJ\u8a98\u5c0e\u8def\u4ed6\u571f\u8cea\u8abf\u67fb","client_name":"\u56fd\u571f\u4ea4\u901a\u7701\u95a2\u6771\u5730\u65b9\u6574\u5099\u5c40\u6771\u4eac\u7a7a\u6e2f\u6574\u5099\u4e8b\u52d9\u6240","boring_xml_url":47,"boring_view_url":1,"soilmap_view_url":71,"soiltest_xml_url":47,"soiltest_view_url":47},{"id":109266,"code":"NGIC201800247-0036","latitude":"35.562111111111","longitude":"139.78086111111","source_code":"","project_name":"","survey_name":"\u5e73\u621029\u5e74\u5ea6 \u6771\u4eac\u56fd\u969b\u7a7a\u6e2fJ\u8a98\u5c0e\u8def\u4ed6\u571f\u8cea\u8abf\u67fb","client_name":"\u56fd\u571f\u4ea4\u901a\u7701\u95a2\u6771\u5730\u65b9\u6574\u5099\u5c40\u6771\u4eac\u7a7a\u6e2f\u6574\u5099\u4e8b\u52d9\u6240","boring_xml_url":47,"boring_view_url":1,"soilmap_view_url":71,"soiltest_xml_url":47,"soiltest_view_url":47},{"id":109265,"code":"NGIC201800247-0035","latitude":"35.562083333333","longitude":"139.78086111111","source_code":"","project_name":"","survey_name":"\u5e73\u621029\u5e74\u5ea6 \u6771\u4eac\u56fd\u969b\u7a7a\u6e2fJ\u8a98\u5c0e\u8def\u4ed6\u571f\u8cea\u8abf\u67fb","client_name":"\u56fd\u571f\u4ea4\u901a\u7701\u95a2\u6771\u5730\u65b9\u6574\u5099\u5c40\u6771\u4eac\u7a7a\u6e2f\u6574\u5099\u4e8b\u52d9\u6240","boring_xml_url":47,"boring_view_url":1,"soilmap_view_url":71,"soiltest_xml_url":47,"soiltest_view_url":47},{"id":109264,"code":"NGIC201800247-0034","latitude":"35.562083333333","longitude":"139.78127777778","source_code":"","project_name":"","survey_name":"\u5e73\u621029\u5e74\u5ea6 \u6771\u4eac\u56fd\u969b\u7a7a\u6e2fJ\u8a98\u5c0e\u8def\u4ed6\u571f\u8cea\u8abf\u67fb","client_name":"\u56fd\u571f\u4ea4\u901a\u7701\u95a2\u6771\u5730\u65b9\u6574\u5099\u5c40\u6771\u4eac\u7a7a\u6e2f\u6574\u5099\u4e8b\u52d9\u6240","boring_xml_url":47,"boring_view_url":1,"soilmap_view_url":71,"soiltest_xml_url":47,"soiltest_view_url":47},{"id":109263,"code":"NGIC201800247-0033","latitude":"35.562111111111","longitude":"139.78125","source_code":"","project_name":"","survey_name":"\u5e73\u621029\u5e74\u5ea6 \u6771\u4eac\u56fd\u969b\u7a7a\u6e2fJ\u8a98\u5c0e\u8def\u4ed6\u571f\u8cea\u8abf\u67fb","client_name":"\u56fd\u571f\u4ea4\u901a\u7701\u95a2\u6771\u5730\u65b9\u6574\u5099\u5c40\u6771\u4eac\u7a7a\u6e2f\u6574\u5099\u4e8b\u52d9\u6240","boring_xml_url":47,"boring_view_url":1,"soilmap_view_url":71,"soiltest_xml_url":47,"soiltest_view_url":47},{"id":109262,"code":"NGIC201800247-0032","latitude":"35.562333333333","longitude":"139.78133333333","source_code":"","project_name":"","survey_name":"\u5e73\u621029\u5e74\u5ea6 \u6771\u4eac\u56fd\u969b\u7a7a\u6e2fJ\u8a98\u5c0e\u8def\u4ed6\u571f\u8cea\u8abf\u67fb","client_name":"\u56fd\u571f\u4ea4\u901a\u7701\u95a2\u6771\u5730\u65b9\u6574\u5099\u5c40\u6771\u4eac\u7a7a\u6e2f\u6574\u5099\u4e8b\u52d9\u6240","boring_xml_url":47,"boring_view_url":1,"soilmap_view_url":71,"soiltest_xml_url":47,"soiltest_view_url":47},{"id":109261,"code":"NGIC201800247-0031","latitude":"35.562305555556","longitude":"139.78133333333","source_code":"","project_name":"","survey_name":"\u5e73\u621029\u5e74\u5ea6 \u6771\u4eac\u56fd\u969b\u7a7a\u6e2fJ\u8a98\u5c0e\u8def\u4ed6\u571f\u8cea\u8abf\u67fb","client_name":"\u56fd\u571f\u4ea4\u901a\u7701\u95a2\u6771\u5730\u65b9\u6574\u5099\u5c40\u6771\u4eac\u7a7a\u6e2f\u6574\u5099\u4e8b\u52d9\u6240","boring_xml_url":47,"boring_view_url":1,"soilmap_view_url":71,"soiltest_xml_url":47,"soiltest_view_url":47},{"id":109260,"code":"NGIC201800247-0030","latitude":"35.56225","longitude":"139.78163888889","source_code":"","project_name":"","survey_name":"\u5e73\u621029\u5e74\u5ea6 \u6771\u4eac\u56fd\u969b\u7a7a\u6e2fJ\u8a98\u5c0e\u8def\u4ed6\u571f\u8cea\u8abf\u67fb","client_name":"\u56fd\u571f\u4ea4\u901a\u7701\u95a2\u6771\u5730\u65b9\u6574\u5099\u5c40\u6771\u4eac\u7a7a\u6e2f\u6574\u5099\u4e8b\u52d9\u6240","boring_xml_url":47,"boring_view_url":1,"soilmap_view_url":71,"soiltest_xml_url":47,"soiltest_view_url":47},{"id":109259,"code":"NGIC201800247-0029","latitude":"35.562277777778","longitude":"139.78163888889","source_code":"","project_name":"","survey_name":"\u5e73\u621029\u5e74\u5ea6 \u6771\u4eac\u56fd\u969b\u7a7a\u6e2fJ\u8a98\u5c0e\u8def\u4ed6\u571f\u8cea\u8abf\u67fb","client_name":"\u56fd\u571f\u4ea4\u901a\u7701\u95a2\u6771\u5730\u65b9\u6574\u5099\u5c40\u6771\u4eac\u7a7a\u6e2f\u6574\u5099\u4e8b\u52d9\u6240","boring_xml_url":47,"boring_view_url":1,"soilmap_view_url":71,"soiltest_xml_url":47,"soiltest_view_url":47},{"id":109258,"code":"NGIC201800247-0028","latitude":"35.562555555556","longitude":"139.78180555556","source_code":"","project_name":"","survey_name":"\u5e73\u621029\u5e74\u5ea6 \u6771\u4eac\u56fd\u969b\u7a7a\u6e2fJ\u8a98\u5c0e\u8def\u4ed6\u571f\u8cea\u8abf\u67fb","client_name":"\u56fd\u571f\u4ea4\u901a\u7701\u95a2\u6771\u5730\u65b9\u6574\u5099\u5c40\u6771\u4eac\u7a7a\u6e2f\u6574\u5099\u4e8b\u52d9\u6240","boring_xml_url":47,"boring_view_url":1,"soilmap_view_url":71,"soiltest_xml_url":47,"soiltest_view_url":47},{"id":109257,"code":"NGIC201800247-0027","latitude":"35.562527777778","longitude":"139.78183333333","source_code":"","project_name":"","survey_name":"\u5e73\u621029\u5e74\u5ea6 \u6771\u4eac\u56fd\u969b\u7a7a\u6e2fJ\u8a98\u5c0e\u8def\u4ed6\u571f\u8cea\u8abf\u67fb","client_name":"\u56fd\u571f\u4ea4\u901a\u7701\u95a2\u6771\u5730\u65b9\u6574\u5099\u5c40\u6771\u4eac\u7a7a\u6e2f\u6574\u5099\u4e8b\u52d9\u6240","boring_xml_url":47,"boring_view_url":1,"soilmap_view_url":71,"soiltest_xml_url":47,"soiltest_view_url":47},{"id":109256,"code":"NGIC201800247-0026","latitude":"35.5625","longitude":"139.78216666667","source_code":"","project_name":"","survey_name":"\u5e73\u621029\u5e74\u5ea6 \u6771\u4eac\u56fd\u969b\u7a7a\u6e2fJ\u8a98\u5c0e\u8def\u4ed6\u571f\u8cea\u8abf\u67fb","client_name":"\u56fd\u571f\u4ea4\u901a\u7701\u95a2\u6771\u5730\u65b9\u6574\u5099\u5c40\u6771\u4eac\u7a7a\u6e2f\u6574\u5099\u4e8b\u52d9\u6240","boring_xml_url":47,"boring_view_url":1,"soilmap_view_url":71,"soiltest_xml_url":47,"soiltest_view_url":47},{"id":109255,"code":"NGIC201800247-0025","latitude":"35.562527777778","longitude":"139.78213888889","source_code":"","project_name":"","survey_name":"\u5e73\u621029\u5e74\u5ea6 \u6771\u4eac\u56fd\u969b\u7a7a\u6e2fJ\u8a98\u5c0e\u8def\u4ed6\u571f\u8cea\u8abf\u67fb","client_name":"\u56fd\u571f\u4ea4\u901a\u7701\u95a2\u6771\u5730\u65b9\u6574\u5099\u5c40\u6771\u4eac\u7a7a\u6e2f\u6574\u5099\u4e8b\u52d9\u6240","boring_xml_url":47,"boring_view_url":1,"soilmap_view_url":71,"soiltest_xml_url":47,"soiltest_view_url":47}]}}