{"header":{"xyz":{"source":[],"mosaic":false},"page":704,"raw":{"soiltest_result":"0","bbox":"57.598333,109.544722,1.933333,163.806111","page":"704"},"conditions":{"soiltest_result":0,"north":57.598333,"west":109.544722,"south":1.933333,"east":163.806111},"success":true,"message":""},"data":{"meta":{"total":212844,"page":704,"pages":7095,"count":30},"values":[{"id":524298,"code":"B4KJ202201002-6834","latitude":"33.488803","longitude":"132.944867","source_code":"038850622000090004","project_name":"","survey_name":"\u5e73\u621015\u5e74\u5ea6\u5730\u82b3\u9053\u8def\u5730\u8cea\u8abf\u67fb\u696d\u52d9","client_name":"\u56fd\u571f\u4ea4\u901a\u7701\u56db\u56fd\u5730\u65b9\u6574\u5099\u5c40\u677e\u5c71\u6cb3\u5ddd\u56fd\u9053\u4e8b\u52d9\u6240","boring_xml_url":64,"boring_view_url":1,"soilmap_view_url":null,"soiltest_xml_url":0,"soiltest_view_url":0},{"id":524297,"code":"B4KJ202201002-6833","latitude":"33.488914","longitude":"132.94459","source_code":"038850622000090003","project_name":"","survey_name":"\u5e73\u621015\u5e74\u5ea6\u5730\u82b3\u9053\u8def\u5730\u8cea\u8abf\u67fb\u696d\u52d9","client_name":"\u56fd\u571f\u4ea4\u901a\u7701\u56db\u56fd\u5730\u65b9\u6574\u5099\u5c40\u677e\u5c71\u6cb3\u5ddd\u56fd\u9053\u4e8b\u52d9\u6240","boring_xml_url":64,"boring_view_url":1,"soilmap_view_url":null,"soiltest_xml_url":0,"soiltest_view_url":0},{"id":524296,"code":"B4KJ202201002-6832","latitude":"33.489137","longitude":"132.944451","source_code":"038850622000090002","project_name":"","survey_name":"\u5e73\u621015\u5e74\u5ea6\u5730\u82b3\u9053\u8def\u5730\u8cea\u8abf\u67fb\u696d\u52d9","client_name":"\u56fd\u571f\u4ea4\u901a\u7701\u56db\u56fd\u5730\u65b9\u6574\u5099\u5c40\u677e\u5c71\u6cb3\u5ddd\u56fd\u9053\u4e8b\u52d9\u6240","boring_xml_url":64,"boring_view_url":1,"soilmap_view_url":null,"soiltest_xml_url":0,"soiltest_view_url":0},{"id":524295,"code":"B4KJ202201002-6831","latitude":"33.489025","longitude":"132.944728","source_code":"038850622000090001","project_name":"","survey_name":"\u5e73\u621015\u5e74\u5ea6\u5730\u82b3\u9053\u8def\u5730\u8cea\u8abf\u67fb\u696d\u52d9","client_name":"\u56fd\u571f\u4ea4\u901a\u7701\u56db\u56fd\u5730\u65b9\u6574\u5099\u5c40\u677e\u5c71\u6cb3\u5ddd\u56fd\u9053\u4e8b\u52d9\u6240","boring_xml_url":64,"boring_view_url":1,"soilmap_view_url":null,"soiltest_xml_url":0,"soiltest_view_url":0},{"id":524294,"code":"B4KJ202201002-6830","latitude":"33.911914","longitude":"132.760533","source_code":"038850542000160002","project_name":"\u5e73\u621015\u5e74\u5ea6\u3000\u5927\u8c37\u30c8\u30f3\u30cd\u30eb\u59161\u8abf\u67fb\u8a2d\u8a08\u696d\u52d9\u59d4\u8a17","survey_name":"\u5e73\u621015\u5e74\u5ea6\u3000\u5927\u8c37\u30c8\u30f3\u30cd\u30eb\u59161\u8abf\u67fb\u8a2d\u8a08\u696d\u52d9\u59d4\u8a17","client_name":"\"\u56fd\u571f\u4ea4\u901a\u7701 \u56db\u56fd\u5730\u65b9\u6574\u5099\u5c40 \u677e\u5c71\u6cb3\u5ddd\u56fd\u9053\u4e8b\u52d9\u6240\"","boring_xml_url":64,"boring_view_url":1,"soilmap_view_url":null,"soiltest_xml_url":0,"soiltest_view_url":0},{"id":524293,"code":"B4KJ202201002-6829","latitude":"33.911011","longitude":"132.760286","source_code":"038850542000160001","project_name":"\u5e73\u621015\u5e74\u5ea6\u3000\u5927\u8c37\u30c8\u30f3\u30cd\u30eb\u59161\u8abf\u67fb\u8a2d\u8a08\u696d\u52d9\u59d4\u8a17","survey_name":"\u5e73\u621015\u5e74\u5ea6\u3000\u5927\u8c37\u30c8\u30f3\u30cd\u30eb\u59161\u8abf\u67fb\u8a2d\u8a08\u696d\u52d9\u59d4\u8a17","client_name":"\"\u56fd\u571f\u4ea4\u901a\u7701 \u56db\u56fd\u5730\u65b9\u6574\u5099\u5c40 \u677e\u5c71\u6cb3\u5ddd\u56fd\u9053\u4e8b\u52d9\u6240\"","boring_xml_url":64,"boring_view_url":1,"soilmap_view_url":null,"soiltest_xml_url":0,"soiltest_view_url":0},{"id":524292,"code":"B4KJ202201002-6828","latitude":"33.492636","longitude":"132.951589","source_code":"028850622000360004","project_name":"","survey_name":"\u5e73\u621014\u5e74\u5ea6\u53e4\u5473\u9ad8\u67b6\u6a4b\u4e88\u5099\u8a2d\u8a08\u696d\u52d9\u59d4\u8a17","client_name":"\u56fd\u571f\u4ea4\u901a\u7701\u56db\u56fd\u5730\u65b9\u6574\u5099\u5c40\u3000\u677e\u5c71\u5de5\u4e8b\u4e8b\u52d9\u6240\u8abf\u67fb\u7b2c2\u8ab2","boring_xml_url":64,"boring_view_url":1,"soilmap_view_url":null,"soiltest_xml_url":0,"soiltest_view_url":0},{"id":524291,"code":"B4KJ202201002-6827","latitude":"33.494053","longitude":"132.951839","source_code":"028850622000360003","project_name":"","survey_name":"\u5e73\u621014\u5e74\u5ea6\u53e4\u5473\u9ad8\u67b6\u6a4b\u4e88\u5099\u8a2d\u8a08\u696d\u52d9\u59d4\u8a17","client_name":"\u56fd\u571f\u4ea4\u901a\u7701\u56db\u56fd\u5730\u65b9\u6574\u5099\u5c40\u3000\u677e\u5c71\u5de5\u4e8b\u4e8b\u52d9\u6240\u8abf\u67fb\u7b2c2\u8ab2","boring_xml_url":64,"boring_view_url":1,"soilmap_view_url":null,"soiltest_xml_url":0,"soiltest_view_url":0},{"id":524290,"code":"B4KJ202201002-6826","latitude":"33.492414","longitude":"132.951978","source_code":"028850622000360002","project_name":"","survey_name":"\u5e73\u621014\u5e74\u5ea6\u3000\u53e4\u5473\u9ad8\u67b6\u6a4b\u4e88\u5099\u8a2d\u8a08\u696d\u52d9\u59d4\u8a17","client_name":"\u56fd\u571f\u4ea4\u901a\u7701\u3000\u56db\u56fd\u5730\u65b9\u6574\u5099\u5c40\u3000\u677e\u5c71\u5de5\u4e8b\u4e8b\u52d9\u6240\u3000\u8abf\u67fb\u7b2c2\u8ab2","boring_xml_url":64,"boring_view_url":1,"soilmap_view_url":null,"soiltest_xml_url":0,"soiltest_view_url":0},{"id":524289,"code":"B4KJ202201002-6825","latitude":"33.492414","longitude":"132.952061","source_code":"028850622000360001","project_name":"","survey_name":"\u5e73\u621014\u5e74\u5ea6\u53e4\u5473\u9ad8\u67b6\u6a4b\u4e88\u5099\u8a2d\u8a08\u696d\u52d9\u59d4\u8a17","client_name":"\u56fd\u571f\u4ea4\u901a\u7701\u56db\u56fd\u5730\u65b9\u6574\u5099\u5c40\u3000\u677e\u5c71\u5de5\u4e8b\u4e8b\u52d9\u6240\u8abf\u67fb\u7b2c2\u8ab2","boring_xml_url":64,"boring_view_url":1,"soilmap_view_url":null,"soiltest_xml_url":0,"soiltest_view_url":0},{"id":524288,"code":"B4KJ202201002-6824","latitude":"33.901896","longitude":"133.090292","source_code":"028850622000330001","project_name":"\u5e73\u621014\u5e74\u5ea6\u90fd\u8c37\u5ddd\u53ef\u52d5\u5830\u5b9f\u65bd\u8a2d\u8a08\u696d\u52d9","survey_name":"\u5e73\u621014\u5e74\u5ea6\u3000\u90fd\u8c37\u5ddd\u53ef\u52d5\u5830\u5b9f\u65bd\u8a2d\u8a08\u696d\u52d9\u59d4\u8a17","client_name":"\u56fd\u571f\u4ea4\u901a\u7701\u677e\u5c71\u5de5\u4e8b\u4e8b\u52d9\u6240","boring_xml_url":64,"boring_view_url":1,"soilmap_view_url":null,"soiltest_xml_url":0,"soiltest_view_url":0},{"id":524287,"code":"B4KJ202201002-6823","latitude":"33.898202","longitude":"133.092986","source_code":"028850622000220002","project_name":"","survey_name":"\u5e73\u621014\u5e74\u5ea6\u3000\u65b0\u90fd\u8c37\u5ddd\u6a4b\u59161\u6a4b\u5b9f\u65bd\u8a2d\u8a08\u696d\u52d9\u59d4\u8a17","client_name":"\u56fd\u571f\u4ea4\u901a\u7701\u56db\u56fd\u5730\u65b9\u6574\u5099\u5c40\u677e\u5c71\u5de5\u4e8b\u4e8b\u52d9\u6240","boring_xml_url":64,"boring_view_url":1,"soilmap_view_url":null,"soiltest_xml_url":0,"soiltest_view_url":0},{"id":524286,"code":"B4KJ202201002-6822","latitude":"33.898396","longitude":"133.092736","source_code":"028850622000220001","project_name":"","survey_name":"\u5e73\u621014\u5e74\u5ea6\u3000\u65b0\u90fd\u8c37\u5ddd\u6a4b\u59161\u6a4b\u5b9f\u65bd\u8a2d\u8a08\u696d\u52d9\u59d4\u8a17","client_name":"\u56fd\u571f\u4ea4\u901a\u7701\u56db\u56fd\u5730\u65b9\u6574\u5099\u5c40\u677e\u5c71\u5de5\u4e8b\u4e8b\u52d9\u6240","boring_xml_url":64,"boring_view_url":1,"soilmap_view_url":null,"soiltest_xml_url":0,"soiltest_view_url":0},{"id":524285,"code":"B4KJ202201002-6821","latitude":"33.75835","longitude":"134.560902","source_code":"028830612000280001","project_name":"\"\u5317\u767d\u6d5c2\u53f7\u6a4b A1\u6a4b\u53f0\u53d6\u5408\u90e8 \u5730\u8cea\u8abf\u67fb\"","survey_name":"\"\u5e73\u621014\u5e74\u5ea6 \u65e5\u548c\u4f50\u9053\u8def\u69cb\u9020\u7269\u8a2d\u8a08\u696d\u52d9\u59d4\u8a17\"","client_name":"\"\u56fd\u571f\u4ea4\u901a\u7701 \u56db\u56fd\u5730\u65b9\u6574\u5099\u5c40\"","boring_xml_url":64,"boring_view_url":1,"soilmap_view_url":null,"soiltest_xml_url":0,"soiltest_view_url":0},{"id":524284,"code":"B4KJ202201002-6820","latitude":"33.546724","longitude":"133.431014","source_code":"028862602000040011","project_name":"","survey_name":"\u5e73\u621014\u5e74\u5ea6\u3000\u9ad8\u77e5\u897f\u30d0\u30a4\u30d1\u30b9\u5730\u8cea\u8abf\u67fb\u696d\u52d9\uff08\u305d\u306e1\uff09","client_name":"\u56fd\u571f\u4ea4\u901a\u7701\u56db\u56fd\u5730\u65b9\u6574\u5099\u5c40\u571f\u4f50\u56fd\u9053\u5de5\u4e8b\u4e8b\u52d9\u6240","boring_xml_url":64,"boring_view_url":1,"soilmap_view_url":null,"soiltest_xml_url":0,"soiltest_view_url":0},{"id":524283,"code":"B4KJ202201002-6819","latitude":"33.546807","longitude":"133.431319","source_code":"028862602000040010","project_name":"","survey_name":"\u5e73\u621014\u5e74\u5ea6\u3000\u9ad8\u77e5\u897f\u30d0\u30a4\u30d1\u30b9\u5730\u8cea\u8abf\u67fb\u696d\u52d9\uff08\u305d\u306e1\uff09","client_name":"\u56fd\u571f\u4ea4\u901a\u7701\u56db\u56fd\u5730\u65b9\u6574\u5099\u5c40\u571f\u4f50\u56fd\u9053\u5de5\u4e8b\u4e8b\u52d9\u6240","boring_xml_url":64,"boring_view_url":1,"soilmap_view_url":null,"soiltest_xml_url":0,"soiltest_view_url":0},{"id":524282,"code":"B4KJ202201002-6818","latitude":"33.546502","longitude":"133.430736","source_code":"028862602000040009","project_name":"","survey_name":"\u5e73\u621014\u5e74\u5ea6\u3000\u9ad8\u77e5\u897f\u30d0\u30a4\u30d1\u30b9\u5730\u8cea\u8abf\u67fb\u696d\u52d9\uff08\u305d\u306e1\uff09","client_name":"\u56fd\u571f\u4ea4\u901a\u7701\u56db\u56fd\u5730\u65b9\u6574\u5099\u5c40\u571f\u4f50\u56fd\u9053\u5de5\u4e8b\u4e8b\u52d9\u6240","boring_xml_url":64,"boring_view_url":1,"soilmap_view_url":null,"soiltest_xml_url":0,"soiltest_view_url":0},{"id":524281,"code":"B4KJ202201002-6817","latitude":"33.547029","longitude":"133.431569","source_code":"028862602000040008","project_name":"","survey_name":"\u5e73\u621014\u5e74\u5ea6\u3000\u9ad8\u77e5\u897f\u30d0\u30a4\u30d1\u30b9\u5730\u8cea\u8abf\u67fb\u696d\u52d9\uff08\u305d\u306e1\uff09","client_name":"\u56fd\u571f\u4ea4\u901a\u7701\u56db\u56fd\u5730\u65b9\u6574\u5099\u5c40\u571f\u4f50\u56fd\u9053\u5de5\u4e8b\u4e8b\u52d9\u6240","boring_xml_url":64,"boring_view_url":1,"soilmap_view_url":null,"soiltest_xml_url":0,"soiltest_view_url":0},{"id":524280,"code":"B4KJ202201002-6816","latitude":"33.547807","longitude":"133.432986","source_code":"028862602000040007","project_name":"","survey_name":"\u5e73\u621014\u5e74\u5ea6\u3000\u9ad8\u77e5\u897f\u30d0\u30a4\u30d1\u30b9\u5730\u8cea\u8abf\u67fb\u696d\u52d9\uff08\u305d\u306e1\uff09","client_name":"\u56fd\u571f\u4ea4\u901a\u7701\u56db\u56fd\u5730\u65b9\u6574\u5099\u5c40\u571f\u4f50\u56fd\u9053\u5de5\u4e8b\u4e8b\u52d9\u6240","boring_xml_url":64,"boring_view_url":1,"soilmap_view_url":null,"soiltest_xml_url":0,"soiltest_view_url":0},{"id":524279,"code":"B4KJ202201002-6815","latitude":"33.54803","longitude":"133.439485","source_code":"028862602000040006","project_name":"","survey_name":"\u5e73\u621014\u5e74\u5ea6\u3000\u9ad8\u77e5\u897f\u30d0\u30a4\u30d1\u30b9\u5730\u8cea\u8abf\u67fb\u696d\u52d9\uff08\u305d\u306e1\uff09","client_name":"\u56fd\u571f\u4ea4\u901a\u7701\u56db\u56fd\u5730\u65b9\u6574\u5099\u5c40\u571f\u4f50\u56fd\u9053\u5de5\u4e8b\u4e8b\u52d9\u6240","boring_xml_url":64,"boring_view_url":1,"soilmap_view_url":null,"soiltest_xml_url":0,"soiltest_view_url":0},{"id":524278,"code":"B4KJ202201002-6814","latitude":"33.546724","longitude":"133.431014","source_code":"028862602000040005","project_name":"","survey_name":"\u5e73\u621014\u5e74\u5ea6\u3000\u9ad8\u77e5\u897f\u30d0\u30a4\u30d1\u30b9\u5730\u8cea\u8abf\u67fb\u696d\u52d9\uff08\u305d\u306e1\uff09","client_name":"\u56fd\u571f\u4ea4\u901a\u7701\u56db\u56fd\u5730\u65b9\u6574\u5099\u5c40\u571f\u4f50\u56fd\u9053\u5de5\u4e8b\u4e8b\u52d9\u6240","boring_xml_url":64,"boring_view_url":1,"soilmap_view_url":null,"soiltest_xml_url":0,"soiltest_view_url":0},{"id":524277,"code":"B4KJ202201002-6813","latitude":"33.546807","longitude":"133.431319","source_code":"028862602000040004","project_name":"","survey_name":"\u5e73\u621014\u5e74\u5ea6\u3000\u9ad8\u77e5\u897f\u30d0\u30a4\u30d1\u30b9\u5730\u8cea\u8abf\u67fb\u696d\u52d9\uff08\u305d\u306e1\uff09","client_name":"\u56fd\u571f\u4ea4\u901a\u7701\u56db\u56fd\u5730\u65b9\u6574\u5099\u5c40\u571f\u4f50\u56fd\u9053\u5de5\u4e8b\u4e8b\u52d9\u6240","boring_xml_url":64,"boring_view_url":1,"soilmap_view_url":null,"soiltest_xml_url":0,"soiltest_view_url":0},{"id":524276,"code":"B4KJ202201002-6812","latitude":"33.547807","longitude":"133.432958","source_code":"028862602000040003","project_name":"","survey_name":"\u5e73\u621014\u5e74\u5ea6\u9ad8\u77e5\u897f\u30d0\u30a4\u30d1\u30b9\u5730\u8cea\u8abf\u67fb\u696d\u52d9\uff08\u305d\u306e1\uff09","client_name":"\u56fd\u571f\u4ea4\u901a\u7701\u56db\u56fd\u5730\u65b9\u6574\u5099\u5c40\u571f\u4f50\u56fd\u9053\u5de5\u4e8b\u4e8b\u52d9\u6240","boring_xml_url":64,"boring_view_url":1,"soilmap_view_url":null,"soiltest_xml_url":0,"soiltest_view_url":0},{"id":524275,"code":"B4KJ202201002-6811","latitude":"33.547918","longitude":"133.433208","source_code":"028862602000040002","project_name":"","survey_name":"\u5e73\u621014\u5e74\u5ea6\u3000\u9ad8\u77e5\u897f\u30d0\u30a4\u30d1\u30b9\u5730\u8cea\u8abf\u67fb\u696d\u52d9\uff08\u305d\u306e1\uff09","client_name":"\u56fd\u571f\u4ea4\u901a\u7701\u56db\u56fd\u5730\u65b9\u6574\u5099\u5c40\u571f\u4f50\u56fd\u9053\u5de5\u4e8b\u4e8b\u52d9\u6240","boring_xml_url":64,"boring_view_url":1,"soilmap_view_url":null,"soiltest_xml_url":0,"soiltest_view_url":0},{"id":524274,"code":"B4KJ202201002-6810","latitude":"33.566667","longitude":"133.45615","source_code":"028862602000040001","project_name":"","survey_name":"\u5e73\u621014\u5e74\u5ea6\u3000\u9ad8\u77e5\u897f\u30d0\u30a4\u30d1\u30b9\u5730\u8cea\u8abf\u67fb\u696d\u52d9\uff08\u305d\u306e1\uff09","client_name":"\u56fd\u571f\u4ea4\u901a\u7701\u56db\u56fd\u5730\u65b9\u6574\u5099\u5c40\u571f\u4f50\u56fd\u9053\u5de5\u4e8b\u4e8b\u52d9\u6240","boring_xml_url":64,"boring_view_url":1,"soilmap_view_url":null,"soiltest_xml_url":0,"soiltest_view_url":0},{"id":524273,"code":"B4KJ202201002-6809","latitude":"34.023322","longitude":"133.590133","source_code":"038830402000170001","project_name":"","survey_name":"\u5e73\u621015-16\u5e74\u5ea6\u3000\u6edd\u8c37\u5ddd\u6a0b\u9580\u6e2c\u91cf\u8a2d\u8a08\u696d\u52d9\u59d4\u8a17","client_name":"\u56fd\u571f\u4ea4\u901a\u7701\u3000\u5fb3\u5cf6\u6cb3\u5ddd\u56fd\u9053\u4e8b\u52d9\u6240","boring_xml_url":64,"boring_view_url":1,"soilmap_view_url":null,"soiltest_xml_url":0,"soiltest_view_url":0},{"id":524272,"code":"B4KJ202201002-6808","latitude":"33.93069","longitude":"134.670805","source_code":"028834502000040009","project_name":"\u5e73\u621014\u5e74\u5ea6\u3000\u6a0b\u9580\u7b49\u69cb\u9020\u7269\u5468\u8fba\u5824\u9632\u70b9\u691c\u696d\u52d9","survey_name":"\u5e73\u621014\u5e74\u5ea6\u3000\u6a0b\u9580\u7b49\u69cb\u9020\u7269\u5468\u8fba\u5824\u9632\u70b9\u691c\u696d\u52d9","client_name":"\u56fd\u571f\u4ea4\u901a\u7701\u3000\u56db\u56fd\u5730\u65b9\u6574\u5099\u5c40\u3000\u90a3\u8cc0\u5ddd\u5de5\u4e8b\u4e8b\u52d9\u6240","boring_xml_url":64,"boring_view_url":1,"soilmap_view_url":null,"soiltest_xml_url":0,"soiltest_view_url":0},{"id":524271,"code":"B4KJ202201002-6807","latitude":"33.930801","longitude":"134.670778","source_code":"028834502000040008","project_name":"\u5e73\u621014\u5e74\u5ea6\u3000\u6a0b\u9580\u7b49\u69cb\u9020\u7269\u5468\u8fba\u5824\u9632\u70b9\u691c\u696d\u52d9","survey_name":"\u5e73\u621014\u5e74\u5ea6\u3000\u6a0b\u9580\u7b49\u69cb\u9020\u7269\u5468\u8fba\u5824\u9632\u70b9\u691c\u696d\u52d9","client_name":"\u56fd\u571f\u4ea4\u901a\u7701\u3000\u56db\u56fd\u5730\u65b9\u6574\u5099\u5c40\u3000\u90a3\u8cc0\u5ddd\u5de5\u4e8b\u4e8b\u52d9\u6240","boring_xml_url":64,"boring_view_url":1,"soilmap_view_url":null,"soiltest_xml_url":0,"soiltest_view_url":0},{"id":524270,"code":"B4KJ202201002-6806","latitude":"33.930885","longitude":"134.670778","source_code":"028834502000040007","project_name":"\u5e73\u621014\u5e74\u5ea6\u3000\u6a0b\u9580\u7b49\u69cb\u9020\u7269\u5468\u8fba\u5824\u9632\u70b9\u691c\u696d\u52d9","survey_name":"\u5e73\u621014\u5e74\u5ea6\u3000\u6a0b\u9580\u7b49\u69cb\u9020\u7269\u5468\u8fba\u5824\u9632\u70b9\u691c\u696d\u52d9","client_name":"\u56fd\u571f\u4ea4\u901a\u7701\u3000\u56db\u56fd\u5730\u65b9\u6574\u5099\u5c40\u3000\u90a3\u8cc0\u5ddd\u5de5\u4e8b\u4e8b\u52d9\u6240","boring_xml_url":64,"boring_view_url":1,"soilmap_view_url":null,"soiltest_xml_url":0,"soiltest_view_url":0},{"id":524269,"code":"B4KJ202201002-6805","latitude":"33.930913","longitude":"134.670722","source_code":"028834502000040006","project_name":"\u5e73\u621014\u5e74\u5ea6\u3000\u6a0b\u9580\u7b49\u69cb\u9020\u7269\u5468\u8fba\u5824\u9632\u70b9\u691c\u696d\u52d9","survey_name":"\u5e73\u621014\u5e74\u5ea6\u3000\u6a0b\u9580\u7b49\u69cb\u9020\u7269\u5468\u8fba\u5824\u9632\u70b9\u691c\u696d\u52d9","client_name":"\u56fd\u571f\u4ea4\u901a\u7701\u3000\u56db\u56fd\u5730\u65b9\u6574\u5099\u5c40\u3000\u90a3\u8cc0\u5ddd\u5de5\u4e8b\u4e8b\u52d9\u6240","boring_xml_url":64,"boring_view_url":1,"soilmap_view_url":null,"soiltest_xml_url":0,"soiltest_view_url":0}]}}