{"header":{"xyz":{"source":[],"mosaic":false},"page":7057,"raw":{"soiltest_result":"0","bbox":"57.598333,109.544722,1.933333,163.806111","page":"7057"},"conditions":{"soiltest_result":0,"north":57.598333,"west":109.544722,"south":1.933333,"east":163.806111},"success":true,"message":""},"data":{"meta":{"total":212844,"page":7057,"pages":7095,"count":30},"values":[{"id":108625,"code":"NGIC201800194-0011","latitude":"33.391338888889","longitude":"130.84919166667","source_code":"","project_name":"\u7b51\u5f8c\u5ddd\u6c34\u7cfb\u8d64\u8c37\u5ddd\u6d41\u57df\u7802\u9632\u5730\u8cea\u8abf\u67fb\u696d\u52d9","survey_name":"\u7b51\u5f8c\u5ddd\u6c34\u7cfb\u8d64\u8c37\u5ddd\u6d41\u57df\u7802\u9632\u5730\u8cea\u8abf\u67fb\u696d\u52d9","client_name":"\u56fd\u571f\u4ea4\u901a\u7701\u4e5d\u5dde\u5730\u65b9\u6574\u5099\u5c40\u7b51\u5f8c\u5ddd\u6cb3\u5ddd\u4e8b\u52d9\u6240\u3000\u4e5d\u5dde\u5317\u90e8\u8c6a\u96e8\u5fa9\u8208\u51fa\u5f35\u6240","boring_xml_url":47,"boring_view_url":1,"soilmap_view_url":null,"soiltest_xml_url":0,"soiltest_view_url":0},{"id":108624,"code":"NGIC201800194-0010","latitude":"33.391575","longitude":"130.84929444444","source_code":"","project_name":"\u7b51\u5f8c\u5ddd\u6c34\u7cfb\u8d64\u8c37\u5ddd\u6d41\u57df\u7802\u9632\u5730\u8cea\u8abf\u67fb\u696d\u52d9","survey_name":"\u7b51\u5f8c\u5ddd\u6c34\u7cfb\u8d64\u8c37\u5ddd\u6d41\u57df\u7802\u9632\u5730\u8cea\u8abf\u67fb\u696d\u52d9","client_name":"\u56fd\u571f\u4ea4\u901a\u7701\u4e5d\u5dde\u5730\u65b9\u6574\u5099\u5c40\u7b51\u5f8c\u5ddd\u6cb3\u5ddd\u4e8b\u52d9\u6240\u3000\u4e5d\u5dde\u5317\u90e8\u8c6a\u96e8\u5fa9\u8208\u51fa\u5f35\u6240","boring_xml_url":47,"boring_view_url":1,"soilmap_view_url":null,"soiltest_xml_url":0,"soiltest_view_url":0},{"id":108623,"code":"NGIC201800194-0009","latitude":"33.391875","longitude":"130.84949166667","source_code":"","project_name":"\u7b51\u5f8c\u5ddd\u6c34\u7cfb\u8d64\u8c37\u5ddd\u6d41\u57df\u7802\u9632\u5730\u8cea\u8abf\u67fb\u696d\u52d9","survey_name":"\u7b51\u5f8c\u5ddd\u6c34\u7cfb\u8d64\u8c37\u5ddd\u6d41\u57df\u7802\u9632\u5730\u8cea\u8abf\u67fb\u696d\u52d9","client_name":"\u56fd\u571f\u4ea4\u901a\u7701\u4e5d\u5dde\u5730\u65b9\u6574\u5099\u5c40\u7b51\u5f8c\u5ddd\u6cb3\u5ddd\u4e8b\u52d9\u6240\u3000\u4e5d\u5dde\u5317\u90e8\u8c6a\u96e8\u5fa9\u8208\u51fa\u5f35\u6240","boring_xml_url":47,"boring_view_url":1,"soilmap_view_url":null,"soiltest_xml_url":0,"soiltest_view_url":0},{"id":108622,"code":"NGIC201800194-0008","latitude":"33.380386111111","longitude":"130.83231388889","source_code":"","project_name":"\u7b51\u5f8c\u5ddd\u6c34\u7cfb\u8d64\u8c37\u5ddd\u6d41\u57df\u7802\u9632\u5730\u8cea\u8abf\u67fb\u696d\u52d9","survey_name":"\u7b51\u5f8c\u5ddd\u6c34\u7cfb\u8d64\u8c37\u5ddd\u6d41\u57df\u7802\u9632\u5730\u8cea\u8abf\u67fb\u696d\u52d9","client_name":"\u56fd\u571f\u4ea4\u901a\u7701\u4e5d\u5dde\u5730\u65b9\u6574\u5099\u5c40\u7b51\u5f8c\u5ddd\u6cb3\u5ddd\u4e8b\u52d9\u6240\u3000\u4e5d\u5dde\u5317\u90e8\u8c6a\u96e8\u5fa9\u8208\u51fa\u5f35\u6240","boring_xml_url":47,"boring_view_url":1,"soilmap_view_url":null,"soiltest_xml_url":0,"soiltest_view_url":0},{"id":108621,"code":"NGIC201800194-0007","latitude":"33.380316666667","longitude":"130.83203333333","source_code":"","project_name":"\u7b51\u5f8c\u5ddd\u6c34\u7cfb\u8d64\u8c37\u5ddd\u6d41\u57df\u7802\u9632\u5730\u8cea\u8abf\u67fb\u696d\u52d9","survey_name":"\u7b51\u5f8c\u5ddd\u6c34\u7cfb\u8d64\u8c37\u5ddd\u6d41\u57df\u7802\u9632\u5730\u8cea\u8abf\u67fb\u696d\u52d9","client_name":"\u56fd\u571f\u4ea4\u901a\u7701\u4e5d\u5dde\u5730\u65b9\u6574\u5099\u5c40\u7b51\u5f8c\u5ddd\u6cb3\u5ddd\u4e8b\u52d9\u6240\u3000\u4e5d\u5dde\u5317\u90e8\u8c6a\u96e8\u5fa9\u8208\u51fa\u5f35\u6240","boring_xml_url":47,"boring_view_url":1,"soilmap_view_url":null,"soiltest_xml_url":0,"soiltest_view_url":0},{"id":108620,"code":"NGIC201800194-0006","latitude":"33.380286111111","longitude":"130.83176111111","source_code":"","project_name":"\u7b51\u5f8c\u5ddd\u6c34\u7cfb\u8d64\u8c37\u5ddd\u6d41\u57df\u7802\u9632\u5730\u8cea\u8abf\u67fb\u696d\u52d9","survey_name":"\u7b51\u5f8c\u5ddd\u6c34\u7cfb\u8d64\u8c37\u5ddd\u6d41\u57df\u7802\u9632\u5730\u8cea\u8abf\u67fb\u696d\u52d9","client_name":"\u56fd\u571f\u4ea4\u901a\u7701\u4e5d\u5dde\u5730\u65b9\u6574\u5099\u5c40\u7b51\u5f8c\u5ddd\u6cb3\u5ddd\u4e8b\u52d9\u6240\u3000\u4e5d\u5dde\u5317\u90e8\u8c6a\u96e8\u5fa9\u8208\u51fa\u5f35\u6240","boring_xml_url":47,"boring_view_url":1,"soilmap_view_url":null,"soiltest_xml_url":0,"soiltest_view_url":0},{"id":108619,"code":"NGIC201800194-0005","latitude":"33.391722222222","longitude":"130.84703611111","source_code":"","project_name":"\u7b51\u5f8c\u5ddd\u6c34\u7cfb\u8d64\u8c37\u5ddd\u6d41\u57df\u7802\u9632\u5730\u8cea\u8abf\u67fb\u696d\u52d9","survey_name":"\u7b51\u5f8c\u5ddd\u6c34\u7cfb\u8d64\u8c37\u5ddd\u6d41\u57df\u7802\u9632\u5730\u8cea\u8abf\u67fb\u696d\u52d9","client_name":"\u56fd\u571f\u4ea4\u901a\u7701\u4e5d\u5dde\u5730\u65b9\u6574\u5099\u5c40\u7b51\u5f8c\u5ddd\u6cb3\u5ddd\u4e8b\u52d9\u6240\u3000\u4e5d\u5dde\u5317\u90e8\u8c6a\u96e8\u5fa9\u8208\u51fa\u5f35\u6240","boring_xml_url":47,"boring_view_url":1,"soilmap_view_url":null,"soiltest_xml_url":0,"soiltest_view_url":0},{"id":108618,"code":"NGIC201800194-0004","latitude":"33.391819444444","longitude":"130.84655555556","source_code":"","project_name":"\u7b51\u5f8c\u5ddd\u6c34\u7cfb\u8d64\u8c37\u5ddd\u6d41\u57df\u7802\u9632\u5730\u8cea\u8abf\u67fb\u696d\u52d9","survey_name":"\u7b51\u5f8c\u5ddd\u6c34\u7cfb\u8d64\u8c37\u5ddd\u6d41\u57df\u7802\u9632\u5730\u8cea\u8abf\u67fb\u696d\u52d9","client_name":"\u56fd\u571f\u4ea4\u901a\u7701\u4e5d\u5dde\u5730\u65b9\u6574\u5099\u5c40\u7b51\u5f8c\u5ddd\u6cb3\u5ddd\u4e8b\u52d9\u6240\u3000\u4e5d\u5dde\u5317\u90e8\u8c6a\u96e8\u5fa9\u8208\u51fa\u5f35\u6240","boring_xml_url":47,"boring_view_url":1,"soilmap_view_url":null,"soiltest_xml_url":0,"soiltest_view_url":0},{"id":108617,"code":"NGIC201800194-0003","latitude":"33.392163888889","longitude":"130.84700277778","source_code":"","project_name":"\u7b51\u5f8c\u5ddd\u6c34\u7cfb\u8d64\u8c37\u5ddd\u6d41\u57df\u7802\u9632\u5730\u8cea\u8abf\u67fb\u696d\u52d9","survey_name":"\u7b51\u5f8c\u5ddd\u6c34\u7cfb\u8d64\u8c37\u5ddd\u6d41\u57df\u7802\u9632\u5730\u8cea\u8abf\u67fb\u696d\u52d9","client_name":"\u56fd\u571f\u4ea4\u901a\u7701\u4e5d\u5dde\u5730\u65b9\u6574\u5099\u5c40\u7b51\u5f8c\u5ddd\u6cb3\u5ddd\u4e8b\u52d9\u6240\u3000\u4e5d\u5dde\u5317\u90e8\u8c6a\u96e8\u5fa9\u8208\u51fa\u5f35\u6240","boring_xml_url":47,"boring_view_url":1,"soilmap_view_url":null,"soiltest_xml_url":0,"soiltest_view_url":0},{"id":108616,"code":"NGIC201800194-0002","latitude":"33.392138888889","longitude":"130.84653333333","source_code":"","project_name":"\u7b51\u5f8c\u5ddd\u6c34\u7cfb\u8d64\u8c37\u5ddd\u6d41\u57df\u7802\u9632\u5730\u8cea\u8abf\u67fb\u696d\u52d9","survey_name":"\u7b51\u5f8c\u5ddd\u6c34\u7cfb\u8d64\u8c37\u5ddd\u6d41\u57df\u7802\u9632\u5730\u8cea\u8abf\u67fb\u696d\u52d9","client_name":"\u56fd\u571f\u4ea4\u901a\u7701\u4e5d\u5dde\u5730\u65b9\u6574\u5099\u5c40\u7b51\u5f8c\u5ddd\u6cb3\u5ddd\u4e8b\u52d9\u6240\u3000\u4e5d\u5dde\u5317\u90e8\u8c6a\u96e8\u5fa9\u8208\u51fa\u5f35\u6240","boring_xml_url":47,"boring_view_url":1,"soilmap_view_url":null,"soiltest_xml_url":0,"soiltest_view_url":0},{"id":108615,"code":"NGIC201800194-0001","latitude":"33.392116666667","longitude":"130.8461","source_code":"","project_name":"\u7b51\u5f8c\u5ddd\u6c34\u7cfb\u8d64\u8c37\u5ddd\u6d41\u57df\u7802\u9632\u5730\u8cea\u8abf\u67fb\u696d\u52d9","survey_name":"\u7b51\u5f8c\u5ddd\u6c34\u7cfb\u8d64\u8c37\u5ddd\u6d41\u57df\u7802\u9632\u5730\u8cea\u8abf\u67fb\u696d\u52d9","client_name":"\u56fd\u571f\u4ea4\u901a\u7701\u4e5d\u5dde\u5730\u65b9\u6574\u5099\u5c40\u7b51\u5f8c\u5ddd\u6cb3\u5ddd\u4e8b\u52d9\u6240\u3000\u4e5d\u5dde\u5317\u90e8\u8c6a\u96e8\u5fa9\u8208\u51fa\u5f35\u6240","boring_xml_url":47,"boring_view_url":1,"soilmap_view_url":null,"soiltest_xml_url":0,"soiltest_view_url":0},{"id":108614,"code":"NGIC201800186-0008","latitude":"33.877333333333","longitude":"130.99444444444","source_code":"","project_name":"\u65b0\u9580\u53f8\u6c96\u571f\u7802\u51e6\u5206\u5834","survey_name":"\u5e73\u621030\u5e74\u5ea6\u65b0\u9580\u53f8\u6c96\u571f\u7802\u51e6\u5206\u5834(2\u671f)\u571f\u8cea\u8abf\u67fb","client_name":"\u56fd\u571f\u4ea4\u901a\u7701\u4e5d\u5dde\u5730\u65b9\u6574\u5099\u5c40\u5317\u4e5d\u5dde\u6e2f\u6e7e\u30fb\u7a7a\u6e2f\u6574\u5099\u4e8b\u52d9\u6240","boring_xml_url":47,"boring_view_url":1,"soilmap_view_url":71,"soiltest_xml_url":47,"soiltest_view_url":47},{"id":108613,"code":"NGIC201800186-0007","latitude":"33.876583333333","longitude":"130.99452777778","source_code":"","project_name":"\u65b0\u9580\u53f8\u6c96\u571f\u7802\u51e6\u5206\u5834","survey_name":"\u5e73\u621030\u5e74\u5ea6\u65b0\u9580\u53f8\u6c96\u571f\u7802\u51e6\u5206\u5834(2\u671f)\u571f\u8cea\u8abf\u67fb","client_name":"\u56fd\u571f\u4ea4\u901a\u7701\u4e5d\u5dde\u5730\u65b9\u6574\u5099\u5c40\u5317\u4e5d\u5dde\u6e2f\u6e7e\u30fb\u7a7a\u6e2f\u6574\u5099\u4e8b\u52d9\u6240","boring_xml_url":47,"boring_view_url":1,"soilmap_view_url":71,"soiltest_xml_url":47,"soiltest_view_url":47},{"id":108612,"code":"NGIC201800186-0006","latitude":"33.875638888889","longitude":"130.9945","source_code":"","project_name":"\u65b0\u9580\u53f8\u6c96\u571f\u7802\u51e6\u5206\u5834","survey_name":"\u5e73\u621030\u5e74\u5ea6\u65b0\u9580\u53f8\u6c96\u571f\u7802\u51e6\u5206\u5834(2\u671f)\u571f\u8cea\u8abf\u67fb","client_name":"\u56fd\u571f\u4ea4\u901a\u7701\u4e5d\u5dde\u5730\u65b9\u6574\u5099\u5c40\u5317\u4e5d\u5dde\u6e2f\u6e7e\u30fb\u7a7a\u6e2f\u6574\u5099\u4e8b\u52d9\u6240","boring_xml_url":47,"boring_view_url":1,"soilmap_view_url":71,"soiltest_xml_url":47,"soiltest_view_url":47},{"id":108611,"code":"NGIC201800186-0005","latitude":"33.826388888889","longitude":"131.04075","source_code":"","project_name":"\u65b0\u9580\u53f8\u6c96\u571f\u7802\u51e6\u5206\u5834","survey_name":"\u5e73\u621030\u5e74\u5ea6\u65b0\u9580\u53f8\u6c96\u571f\u7802\u51e6\u5206\u5834(2\u671f)\u571f\u8cea\u8abf\u67fb","client_name":"\u56fd\u571f\u4ea4\u901a\u7701\u4e5d\u5dde\u5730\u65b9\u6574\u5099\u5c40\u5317\u4e5d\u5dde\u6e2f\u6e7e\u30fb\u7a7a\u6e2f\u6574\u5099\u4e8b\u52d9\u6240","boring_xml_url":47,"boring_view_url":1,"soilmap_view_url":71,"soiltest_xml_url":47,"soiltest_view_url":47},{"id":108610,"code":"NGIC201800186-0004","latitude":"33.826194444444","longitude":"131.04077777778","source_code":"","project_name":"\u65b0\u9580\u53f8\u6c96\u571f\u7802\u51e6\u5206\u5834","survey_name":"\u5e73\u621030\u5e74\u5ea6\u65b0\u9580\u53f8\u6c96\u571f\u7802\u51e6\u5206\u5834(2\u671f)\u571f\u8cea\u8abf\u67fb","client_name":"\u56fd\u571f\u4ea4\u901a\u7701\u4e5d\u5dde\u5730\u65b9\u6574\u5099\u5c40\u5317\u4e5d\u5dde\u6e2f\u6e7e\u30fb\u7a7a\u6e2f\u6574\u5099\u4e8b\u52d9\u6240","boring_xml_url":47,"boring_view_url":1,"soilmap_view_url":71,"soiltest_xml_url":47,"soiltest_view_url":47},{"id":108609,"code":"NGIC201800186-0003","latitude":"33.835888888889","longitude":"131.04125","source_code":"","project_name":"\u65b0\u9580\u53f8\u6c96\u571f\u7802\u51e6\u5206\u5834","survey_name":"\u5e73\u621030\u5e74\u5ea6\u65b0\u9580\u53f8\u6c96\u571f\u7802\u51e6\u5206\u5834(2\u671f)\u571f\u8cea\u8abf\u67fb","client_name":"\u56fd\u571f\u4ea4\u901a\u7701\u4e5d\u5dde\u5730\u65b9\u6574\u5099\u5c40\u5317\u4e5d\u5dde\u6e2f\u6e7e\u30fb\u7a7a\u6e2f\u6574\u5099\u4e8b\u52d9\u6240","boring_xml_url":47,"boring_view_url":1,"soilmap_view_url":71,"soiltest_xml_url":47,"soiltest_view_url":47},{"id":108608,"code":"NGIC201800186-0002","latitude":"33.836222222222","longitude":"131.04366666667","source_code":"","project_name":"\u65b0\u9580\u53f8\u6c96\u571f\u7802\u51e6\u5206\u5834","survey_name":"\u5e73\u621030\u5e74\u5ea6\u65b0\u9580\u53f8\u6c96\u571f\u7802\u51e6\u5206\u5834(2\u671f)\u571f\u8cea\u8abf\u67fb","client_name":"\u56fd\u571f\u4ea4\u901a\u7701\u4e5d\u5dde\u5730\u65b9\u6574\u5099\u5c40\u5317\u4e5d\u5dde\u6e2f\u6e7e\u30fb\u7a7a\u6e2f\u6574\u5099\u4e8b\u52d9\u6240","boring_xml_url":47,"boring_view_url":1,"soilmap_view_url":71,"soiltest_xml_url":47,"soiltest_view_url":47},{"id":108607,"code":"NGIC201800186-0001","latitude":"33.836555555556","longitude":"131.04605555556","source_code":"","project_name":"\u65b0\u9580\u53f8\u6c96\u571f\u7802\u51e6\u5206\u5834","survey_name":"\u5e73\u621030\u5e74\u5ea6\u65b0\u9580\u53f8\u6c96\u571f\u7802\u51e6\u5206\u5834(2\u671f)\u571f\u8cea\u8abf\u67fb","client_name":"\u56fd\u571f\u4ea4\u901a\u7701\u4e5d\u5dde\u5730\u65b9\u6574\u5099\u5c40\u5317\u4e5d\u5dde\u6e2f\u6e7e\u30fb\u7a7a\u6e2f\u6574\u5099\u4e8b\u52d9\u6240","boring_xml_url":47,"boring_view_url":1,"soilmap_view_url":71,"soiltest_xml_url":47,"soiltest_view_url":47},{"id":108606,"code":"NGIC201800183-0008","latitude":"32.942297222222","longitude":"131.13509444444","source_code":"","project_name":"","survey_name":"\u5e73\u621030\u5e74\u5ea6\u6edd\u5ba4\u5742\u9053\u8def\u5730\u8cea\u8abf\u67fb\uff08\u798f\u539f\u5730\u533a\u5916\uff09\u696d\u52d9","client_name":"\u56fd\u571f\u4ea4\u901a\u7701\u4e5d\u5dde\u5730\u65b9\u6574\u5099\u5c40\u718a\u672c\u6cb3\u5ddd\u56fd\u9053\u4e8b\u52d9\u6240","boring_xml_url":47,"boring_view_url":1,"soilmap_view_url":null,"soiltest_xml_url":0,"soiltest_view_url":0},{"id":108605,"code":"NGIC201800183-0007","latitude":"32.942386111111","longitude":"131.13524444444","source_code":"","project_name":"","survey_name":"\u5e73\u621030\u5e74\u5ea6\u6edd\u5ba4\u5742\u9053\u8def\u5730\u8cea\u8abf\u67fb\uff08\u798f\u539f\u5730\u533a\u5916\uff09\u696d\u52d9","client_name":"\u56fd\u571f\u4ea4\u901a\u7701\u4e5d\u5dde\u5730\u65b9\u6574\u5099\u5c40\u718a\u672c\u6cb3\u5ddd\u56fd\u9053\u4e8b\u52d9\u6240","boring_xml_url":47,"boring_view_url":1,"soilmap_view_url":null,"soiltest_xml_url":0,"soiltest_view_url":0},{"id":108604,"code":"NGIC201800183-0006","latitude":"32.942716666667","longitude":"131.13619166667","source_code":"","project_name":"","survey_name":"\u5e73\u621030\u5e74\u5ea6\u6edd\u5ba4\u5742\u9053\u8def\u5730\u8cea\u8abf\u67fb\uff08\u798f\u539f\u5730\u533a\u5916\uff09\u696d\u52d9","client_name":"\u56fd\u571f\u4ea4\u901a\u7701\u4e5d\u5dde\u5730\u65b9\u6574\u5099\u5c40\u718a\u672c\u6cb3\u5ddd\u56fd\u9053\u4e8b\u52d9\u6240","boring_xml_url":47,"boring_view_url":1,"soilmap_view_url":null,"soiltest_xml_url":0,"soiltest_view_url":0},{"id":108603,"code":"NGIC201800183-0005","latitude":"32.942813888889","longitude":"131.13609166667","source_code":"","project_name":"","survey_name":"\u5e73\u621030\u5e74\u5ea6\u6edd\u5ba4\u5742\u9053\u8def\u5730\u8cea\u8abf\u67fb\uff08\u798f\u539f\u5730\u533a\u5916\uff09\u696d\u52d9","client_name":"\u56fd\u571f\u4ea4\u901a\u7701\u4e5d\u5dde\u5730\u65b9\u6574\u5099\u5c40\u718a\u672c\u6cb3\u5ddd\u56fd\u9053\u4e8b\u52d9\u6240","boring_xml_url":47,"boring_view_url":1,"soilmap_view_url":null,"soiltest_xml_url":0,"soiltest_view_url":0},{"id":108602,"code":"NGIC201800183-0004","latitude":"32.944152777778","longitude":"131.13556666667","source_code":"","project_name":"","survey_name":"\u5e73\u621030\u5e74\u5ea6\u6edd\u5ba4\u5742\u9053\u8def\u5730\u8cea\u8abf\u67fb\uff08\u798f\u539f\u5730\u533a\u5916\uff09\u696d\u52d9","client_name":"\u56fd\u571f\u4ea4\u901a\u7701\u4e5d\u5dde\u5730\u65b9\u6574\u5099\u5c40\u718a\u672c\u6cb3\u5ddd\u56fd\u9053\u4e8b\u52d9\u6240","boring_xml_url":47,"boring_view_url":1,"soilmap_view_url":null,"soiltest_xml_url":0,"soiltest_view_url":0},{"id":108601,"code":"NGIC201800183-0003","latitude":"32.944255555556","longitude":"131.13610833333","source_code":"","project_name":"","survey_name":"\u5e73\u621030\u5e74\u5ea6\u6edd\u5ba4\u5742\u9053\u8def\u5730\u8cea\u8abf\u67fb\uff08\u798f\u539f\u5730\u533a\u5916\uff09\u696d\u52d9","client_name":"\u56fd\u571f\u4ea4\u901a\u7701\u4e5d\u5dde\u5730\u65b9\u6574\u5099\u5c40\u718a\u672c\u6cb3\u5ddd\u56fd\u9053\u4e8b\u52d9\u6240","boring_xml_url":47,"boring_view_url":1,"soilmap_view_url":null,"soiltest_xml_url":47,"soiltest_view_url":47},{"id":108600,"code":"NGIC201800183-0002","latitude":"32.944636111111","longitude":"131.13598888889","source_code":"","project_name":"","survey_name":"\u5e73\u621030\u5e74\u5ea6\u6edd\u5ba4\u5742\u9053\u8def\u5730\u8cea\u8abf\u67fb\uff08\u798f\u539f\u5730\u533a\u5916\uff09\u696d\u52d9","client_name":"\u56fd\u571f\u4ea4\u901a\u7701\u4e5d\u5dde\u5730\u65b9\u6574\u5099\u5c40\u718a\u672c\u6cb3\u5ddd\u56fd\u9053\u4e8b\u52d9\u6240","boring_xml_url":47,"boring_view_url":1,"soilmap_view_url":null,"soiltest_xml_url":0,"soiltest_view_url":0},{"id":108599,"code":"NGIC201800183-0001","latitude":"32.944905555556","longitude":"131.13598333333","source_code":"","project_name":"","survey_name":"\u5e73\u621030\u5e74\u5ea6\u6edd\u5ba4\u5742\u9053\u8def\u5730\u8cea\u8abf\u67fb\uff08\u798f\u539f\u5730\u533a\u5916\uff09\u696d\u52d9","client_name":"\u56fd\u571f\u4ea4\u901a\u7701\u4e5d\u5dde\u5730\u65b9\u6574\u5099\u5c40\u718a\u672c\u6cb3\u5ddd\u56fd\u9053\u4e8b\u52d9\u6240","boring_xml_url":47,"boring_view_url":1,"soilmap_view_url":null,"soiltest_xml_url":47,"soiltest_view_url":47},{"id":108598,"code":"NGIC201800167-0007","latitude":"33.479638888889","longitude":"135.77070277778","source_code":"","project_name":"\u56fd\u905342\u53f7\u4e32\u672c\u753a\u888b\u5730\u533a\u4ed6\u5730\u8cea\u8abf\u67fb\u696d\u52d9","survey_name":"\u56fd\u905342\u53f7\u4e32\u672c\u753a\u888b\u5730\u533a\u4ed6\u5730\u8cea\u8abf\u67fb\u696d\u52d9","client_name":"\u56fd\u571f\u4ea4\u901a\u7701\u8fd1\u757f\u5730\u65b9\u6574\u5099\u5c40\u7d00\u5357\u6cb3\u5ddd\u56fd\u9053\u4e8b\u52d9\u6240","boring_xml_url":47,"boring_view_url":1,"soilmap_view_url":null,"soiltest_xml_url":0,"soiltest_view_url":0},{"id":108597,"code":"NGIC201800167-0006","latitude":"33.477011111111","longitude":"135.77513611111","source_code":"","project_name":"\u56fd\u905342\u53f7\u4e32\u672c\u753a\u888b\u5730\u533a\u4ed6\u5730\u8cea\u8abf\u67fb\u696d\u52d9","survey_name":"\u56fd\u905342\u53f7\u4e32\u672c\u753a\u888b\u5730\u533a\u4ed6\u5730\u8cea\u8abf\u67fb\u696d\u52d9","client_name":"\u56fd\u571f\u4ea4\u901a\u7701\u8fd1\u757f\u5730\u65b9\u6574\u5099\u5c40\u7d00\u5357\u6cb3\u5ddd\u56fd\u9053\u4e8b\u52d9\u6240","boring_xml_url":47,"boring_view_url":1,"soilmap_view_url":null,"soiltest_xml_url":0,"soiltest_view_url":0},{"id":108596,"code":"NGIC201800167-0005","latitude":"33.474636111111","longitude":"135.77459722222","source_code":"","project_name":"\u56fd\u905342\u53f7\u4e32\u672c\u753a\u888b\u5730\u533a\u4ed6\u5730\u8cea\u8abf\u67fb\u696d\u52d9","survey_name":"\u56fd\u905342\u53f7\u4e32\u672c\u753a\u888b\u5730\u533a\u4ed6\u5730\u8cea\u8abf\u67fb\u696d\u52d9","client_name":"\u56fd\u571f\u4ea4\u901a\u7701\u8fd1\u757f\u5730\u65b9\u6574\u5099\u5c40\u7d00\u5357\u6cb3\u5ddd\u56fd\u9053\u4e8b\u52d9\u6240","boring_xml_url":47,"boring_view_url":1,"soilmap_view_url":null,"soiltest_xml_url":0,"soiltest_view_url":0}]}}