{"header":{"xyz":{"source":[],"mosaic":false},"page":706,"raw":{"soiltest_result":"0","bbox":"57.598333,109.544722,1.933333,163.806111","page":"706"},"conditions":{"soiltest_result":0,"north":57.598333,"west":109.544722,"south":1.933333,"east":163.806111},"success":true,"message":""},"data":{"meta":{"total":212844,"page":706,"pages":7095,"count":30},"values":[{"id":524238,"code":"B4KJ202201002-6774","latitude":"34.036129","longitude":"132.975969","source_code":"028850622000290006","project_name":"\u4eca\u6cbb\u9053\u8def","survey_name":"\u5e73\u621014\u5e74\u5ea6\u4eca\u6cbb\u9053\u8def\u5730\u8cea\u8abf\u67fb\uff08\u305d\u306e3\uff09\u696d\u52d9","client_name":"\u56fd\u571f\u4ea4\u901a\u7701\u56db\u56fd\u5730\u65b9\u6574\u5099\u5c40\u677e\u5c71\u5de5\u4e8b\u4e8b\u52d9\u6240","boring_xml_url":64,"boring_view_url":1,"soilmap_view_url":null,"soiltest_xml_url":0,"soiltest_view_url":0},{"id":524237,"code":"B4KJ202201002-6773","latitude":"34.037517","longitude":"132.974997","source_code":"028850622000290005","project_name":"\u4eca\u6cbb\u9053\u8def","survey_name":"\u5e73\u621014\u5e74\u5ea6\u4eca\u6cbb\u9053\u8def\u5730\u8cea\u8abf\u67fb\uff08\u305d\u306e3\uff09\u696d\u52d9","client_name":"\u56fd\u571f\u4ea4\u901a\u7701\u56db\u56fd\u5730\u65b9\u6574\u5099\u5c40\u677e\u5c71\u5de5\u4e8b\u4e8b\u52d9\u6240","boring_xml_url":64,"boring_view_url":1,"soilmap_view_url":null,"soiltest_xml_url":0,"soiltest_view_url":0},{"id":524236,"code":"B4KJ202201002-6772","latitude":"34.039489","longitude":"132.973941","source_code":"028850622000290004","project_name":"\u4eca\u6cbb\u9053\u8def","survey_name":"\u5e73\u621014\u5e74\u5ea6\u4eca\u6cbb\u9053\u8def\u5730\u8cea\u8abf\u67fb\uff08\u305d\u306e3\uff09\u696d\u52d9","client_name":"\u56fd\u571f\u4ea4\u901a\u7701\u56db\u56fd\u5730\u65b9\u6574\u5099\u5c40\u677e\u5c71\u5de5\u4e8b\u4e8b\u52d9\u6240","boring_xml_url":64,"boring_view_url":1,"soilmap_view_url":null,"soiltest_xml_url":0,"soiltest_view_url":0},{"id":524235,"code":"B4KJ202201002-6771","latitude":"34.042183","longitude":"132.972997","source_code":"028850622000290003","project_name":"\u4eca\u6cbb\u9053\u8def","survey_name":"\u5e73\u621014\u5e74\u5ea6\u4eca\u6cbb\u9053\u8def\u5730\u8cea\u8abf\u67fb\uff08\u305d\u306e3\uff09\u696d\u52d9","client_name":"\u56fd\u571f\u4ea4\u901a\u7701\u56db\u56fd\u5730\u65b9\u6574\u5099\u5c40\u677e\u5c71\u5de5\u4e8b\u4e8b\u52d9\u6240","boring_xml_url":64,"boring_view_url":1,"soilmap_view_url":null,"soiltest_xml_url":0,"soiltest_view_url":0},{"id":524234,"code":"B4KJ202201002-6770","latitude":"34.044655","longitude":"132.97197","source_code":"028850622000290002","project_name":"\u4eca\u6cbb\u9053\u8def","survey_name":"\u5e73\u621014\u5e74\u5ea6\u4eca\u6cbb\u9053\u8def\u5730\u8cea\u8abf\u67fb\uff08\u305d\u306e3\uff09\u696d\u52d9","client_name":"\u56fd\u571f\u4ea4\u901a\u7701\u56db\u56fd\u5730\u65b9\u6574\u5099\u5c40\u677e\u5c71\u5de5\u4e8b\u4e8b\u52d9\u6240","boring_xml_url":64,"boring_view_url":1,"soilmap_view_url":null,"soiltest_xml_url":0,"soiltest_view_url":0},{"id":524233,"code":"B4KJ202201002-6769","latitude":"34.047432","longitude":"132.971359","source_code":"028850622000290001","project_name":"\u4eca\u6cbb\u9053\u8def","survey_name":"\u5e73\u621014\u5e74\u5ea6\u4eca\u6cbb\u9053\u8def\u5730\u8cea\u8abf\u67fb\uff08\u305d\u306e3\uff09\u696d\u52d9","client_name":"\u56fd\u571f\u4ea4\u901a\u7701\u56db\u56fd\u5730\u65b9\u6574\u5099\u5c40\u677e\u5c71\u5de5\u4e8b\u4e8b\u52d9\u6240","boring_xml_url":64,"boring_view_url":1,"soilmap_view_url":null,"soiltest_xml_url":0,"soiltest_view_url":0},{"id":524232,"code":"B4KJ202201002-6768","latitude":"34.006939","longitude":"133.009494","source_code":"028850622000270012","project_name":"\u5e73\u621014\u5e74\u5ea6\u3000\u4eca\u6cbb\u9053\u8def\u5730\u8cea\u8abf\u67fb\uff08\u305d\u306e1\uff09\u696d\u52d9","survey_name":"\u4eca\u6cbb\u9053\u8def","client_name":"\u56fd\u571f\u4ea4\u901a\u7701\u56db\u56fd\u5730\u65b9\u6574\u5099\u5c40\u677e\u5c71\u5de5\u4e8b\u4e8b\u52d9\u6240","boring_xml_url":64,"boring_view_url":1,"soilmap_view_url":null,"soiltest_xml_url":0,"soiltest_view_url":0},{"id":524231,"code":"B4KJ202201002-6767","latitude":"33.99508","longitude":"133.030381","source_code":"028850622000270011","project_name":"\u5e73\u621014\u5e74\u5ea6\u3000\u4eca\u6cbb\u9053\u8def\u5730\u8cea\u8abf\u67fb\uff08\u305d\u306e1\uff09\u696d\u52d9","survey_name":"\u4eca\u6cbb\u9053\u8def","client_name":"\u56fd\u571f\u4ea4\u901a\u7701\u56db\u56fd\u5730\u65b9\u6574\u5099\u5c40\u677e\u5c71\u5de5\u4e8b\u4e8b\u52d9\u6240","boring_xml_url":64,"boring_view_url":1,"soilmap_view_url":null,"soiltest_xml_url":0,"soiltest_view_url":0},{"id":524230,"code":"B4KJ202201002-6766","latitude":"33.997524","longitude":"133.025409","source_code":"028850622000270010","project_name":"\u5e73\u621014\u5e74\u5ea6\u3000\u4eca\u6cbb\u9053\u8def\u5730\u8cea\u8abf\u67fb\uff08\u305d\u306e1\uff09\u696d\u52d9","survey_name":"\u4eca\u6cbb\u9053\u8def","client_name":"\u56fd\u571f\u4ea4\u901a\u7701\u56db\u56fd\u5730\u65b9\u6574\u5099\u5c40\u677e\u5c71\u5de5\u4e8b\u4e8b\u52d9\u6240","boring_xml_url":64,"boring_view_url":1,"soilmap_view_url":null,"soiltest_xml_url":0,"soiltest_view_url":0},{"id":524229,"code":"B4KJ202201002-6765","latitude":"34.000357","longitude":"133.018909","source_code":"028850622000270009","project_name":"\u5e73\u621014\u5e74\u5ea6\u3000\u4eca\u6cbb\u9053\u8def\u5730\u8cea\u8abf\u67fb\uff08\u305d\u306e1\uff09\u696d\u52d9","survey_name":"\u4eca\u6cbb\u9053\u8def","client_name":"\u56fd\u571f\u4ea4\u901a\u7701\u56db\u56fd\u5730\u65b9\u6574\u5099\u5c40\u677e\u5c71\u5de5\u4e8b\u4e8b\u52d9\u6240","boring_xml_url":64,"boring_view_url":1,"soilmap_view_url":null,"soiltest_xml_url":0,"soiltest_view_url":0},{"id":524228,"code":"B4KJ202201002-6764","latitude":"34.002162","longitude":"133.017382","source_code":"028850622000270008","project_name":"\u5e73\u621014\u5e74\u5ea6\u3000\u4eca\u6cbb\u9053\u8def\u5730\u8cea\u8abf\u67fb\uff08\u305d\u306e1\uff09\u696d\u52d9","survey_name":"\u4eca\u6cbb\u9053\u8def","client_name":"\u56fd\u571f\u4ea4\u901a\u7701\u56db\u56fd\u5730\u65b9\u6574\u5099\u5c40\u677e\u5c71\u5de5\u4e8b\u4e8b\u52d9\u6240","boring_xml_url":64,"boring_view_url":1,"soilmap_view_url":null,"soiltest_xml_url":0,"soiltest_view_url":0},{"id":524227,"code":"B4KJ202201002-6763","latitude":"34.004634","longitude":"133.014021","source_code":"028850622000270007","project_name":"\u5e73\u621014\u5e74\u5ea6\u3000\u4eca\u6cbb\u9053\u8def\u5730\u8cea\u8abf\u67fb\uff08\u305d\u306e1\uff09\u696d\u52d9","survey_name":"\u4eca\u6cbb\u9053\u8def","client_name":"\u56fd\u571f\u4ea4\u901a\u7701\u56db\u56fd\u5730\u65b9\u6574\u5099\u5c40\u677e\u5c71\u5de5\u4e8b\u4e8b\u52d9\u6240","boring_xml_url":64,"boring_view_url":1,"soilmap_view_url":null,"soiltest_xml_url":0,"soiltest_view_url":0},{"id":524226,"code":"B4KJ202201002-6762","latitude":"34.006106","longitude":"133.010827","source_code":"028850622000270006","project_name":"\u5e73\u621014\u5e74\u5ea6\u3000\u4eca\u6cbb\u9053\u8def\u5730\u8cea\u8abf\u67fb\uff08\u305d\u306e1\uff09\u696d\u52d9","survey_name":"\u4eca\u6cbb\u9053\u8def","client_name":"\u56fd\u571f\u4ea4\u901a\u7701\u56db\u56fd\u5730\u65b9\u6574\u5099\u5c40\u677e\u5c71\u5de5\u4e8b\u4e8b\u52d9\u6240","boring_xml_url":64,"boring_view_url":1,"soilmap_view_url":null,"soiltest_xml_url":0,"soiltest_view_url":0},{"id":524225,"code":"B4KJ202201002-6761","latitude":"34.006717","longitude":"133.009216","source_code":"028850622000270005","project_name":"\u5e73\u621014\u5e74\u5ea6\u3000\u4eca\u6cbb\u9053\u8def\u5730\u8cea\u8abf\u67fb\uff08\u305d\u306e1\uff09\u696d\u52d9","survey_name":"\u4eca\u6cbb\u9053\u8def","client_name":"\u56fd\u571f\u4ea4\u901a\u7701\u56db\u56fd\u5730\u65b9\u6574\u5099\u5c40\u677e\u5c71\u5de5\u4e8b\u4e8b\u52d9\u6240","boring_xml_url":64,"boring_view_url":1,"soilmap_view_url":null,"soiltest_xml_url":0,"soiltest_view_url":0},{"id":524224,"code":"B4KJ202201002-6760","latitude":"33.997274","longitude":"133.027103","source_code":"028850622000270004","project_name":"\u5e73\u621014\u5e74\u5ea6\u3000\u4eca\u6cbb\u9053\u8def\u5730\u8cea\u8abf\u67fb\uff08\u305d\u306e1\uff09\u696d\u52d9","survey_name":"\u4eca\u6cbb\u9053\u8def","client_name":"\u56fd\u571f\u4ea4\u901a\u7701\u56db\u56fd\u5730\u65b9\u6574\u5099\u5c40\u677e\u5c71\u5de5\u4e8b\u4e8b\u52d9\u6240","boring_xml_url":64,"boring_view_url":1,"soilmap_view_url":null,"soiltest_xml_url":0,"soiltest_view_url":0},{"id":524223,"code":"B4KJ202201002-6759","latitude":"33.999468","longitude":"133.022965","source_code":"028850622000270003","project_name":"\u5e73\u621014\u5e74\u5ea6\u3000\u4eca\u6cbb\u9053\u8def\u5730\u8cea\u8abf\u67fb\uff08\u305d\u306e1\uff09\u696d\u52d9","survey_name":"\u4eca\u6cbb\u9053\u8def","client_name":"\u56fd\u571f\u4ea4\u901a\u7701\u56db\u56fd\u5730\u65b9\u6574\u5099\u5c40\u677e\u5c71\u5de5\u4e8b\u4e8b\u52d9\u6240","boring_xml_url":64,"boring_view_url":1,"soilmap_view_url":null,"soiltest_xml_url":0,"soiltest_view_url":0},{"id":524222,"code":"B4KJ202201002-6758","latitude":"33.999246","longitude":"133.021687","source_code":"028850622000270002","project_name":"\u5e73\u621014\u5e74\u5ea6\u3000\u4eca\u6cbb\u9053\u8def\u5730\u8cea\u8abf\u67fb\uff08\u305d\u306e1\uff09\u696d\u52d9","survey_name":"\u4eca\u6cbb\u9053\u8def","client_name":"\u56fd\u571f\u4ea4\u901a\u7701\u56db\u56fd\u5730\u65b9\u6574\u5099\u5c40\u677e\u5c71\u5de5\u4e8b\u4e8b\u52d9\u6240","boring_xml_url":64,"boring_view_url":1,"soilmap_view_url":null,"soiltest_xml_url":0,"soiltest_view_url":0},{"id":524221,"code":"B4KJ202201002-6757","latitude":"34.003801","longitude":"133.015604","source_code":"028850622000270001","project_name":"\u5e73\u621014\u5e74\u5ea6\u3000\u4eca\u6cbb\u9053\u8def\u5730\u8cea\u8abf\u67fb\uff08\u305d\u306e1\uff09\u696d\u52d9","survey_name":"\u4eca\u6cbb\u9053\u8def","client_name":"\u56fd\u571f\u4ea4\u901a\u7701\u56db\u56fd\u5730\u65b9\u6574\u5099\u5c40\u677e\u5c71\u5de5\u4e8b\u4e8b\u52d9\u6240","boring_xml_url":64,"boring_view_url":1,"soilmap_view_url":null,"soiltest_xml_url":0,"soiltest_view_url":0},{"id":524220,"code":"B4KJ202201002-6756","latitude":"33.704802","longitude":"132.834207","source_code":"028850612000140020","project_name":"\u56fd\u905333\u53f7\u5efa\u8a2d\u4e8b\u696d","survey_name":"\u5e73\u621014\u5e74\u5ea6\u4e09\u5742\u9053\u8def\uff08\u3064\u3065\u3089\u5ddd\u5730\u533a\uff09\u5730\u8cea\u8abf\u67fb\u696d\u52d9\uff08\u305d\u306e1\uff09","client_name":"\u56fd\u571f\u4ea4\u901a\u7701\u56db\u56fd\u5730\u65b9\u6574\u5099\u5c40\u677e\u5c71\u5de5\u4e8b\u4e8b\u52d9\u6240","boring_xml_url":64,"boring_view_url":1,"soilmap_view_url":null,"soiltest_xml_url":0,"soiltest_view_url":0},{"id":524219,"code":"B4KJ202201002-6755","latitude":"33.704663","longitude":"132.83404","source_code":"028850612000140019","project_name":"\u56fd\u905333\u53f7\u5efa\u8a2d\u4e8b\u696d","survey_name":"\u5e73\u621014\u5e74\u5ea6\u4e09\u5742\u9053\u8def\uff08\u3064\u3065\u3089\u5ddd\u5730\u533a\uff09\u5730\u8cea\u8abf\u67fb\u696d\u52d9\uff08\u305d\u306e1\uff09","client_name":"\u56fd\u571f\u4ea4\u901a\u7701\u56db\u56fd\u5730\u65b9\u6574\u5099\u5c40\u677e\u5c71\u5de5\u4e8b\u4e8b\u52d9\u6240","boring_xml_url":64,"boring_view_url":1,"soilmap_view_url":null,"soiltest_xml_url":0,"soiltest_view_url":0},{"id":524218,"code":"B4KJ202201002-6754","latitude":"33.704774","longitude":"132.834457","source_code":"028850612000140018","project_name":"\u56fd\u905333\u53f7\u5efa\u8a2d\u4e8b\u696d","survey_name":"\u5e73\u621014\u5e74\u5ea6\uff08\u3064\u3065\u3089\u5ddd\u5730\u533a\uff09\u5730\u8cea\u8abf\u67fb\u696d\u52d9\uff08\u305d\u306e1\uff09","client_name":"\u56fd\u571f\u4ea4\u901a\u7701\u56db\u56fd\u5730\u65b9\u6574\u5099\u5c40\u677e\u5c71\u5de5\u4e8b\u4e8b\u52d9\u6240","boring_xml_url":64,"boring_view_url":1,"soilmap_view_url":null,"soiltest_xml_url":0,"soiltest_view_url":0},{"id":524217,"code":"B4KJ202201002-6753","latitude":"33.704607","longitude":"132.834346","source_code":"028850612000140017","project_name":"\u56fd\u905333\u53f7\u5efa\u8a2d\u4e8b\u696d","survey_name":"\u5e73\u621014\u5e74\u5ea6\u4e09\u5742\u9053\u8def\uff08\u3064\u3065\u3089\u5ddd\u5730\u533a\uff09\u5730\u8cea\u8abf\u67fb\u696d\u52d9\uff08\u305d\u306e1\uff09","client_name":"\u56fd\u571f\u4ea4\u901a\u7701\u56db\u56fd\u5730\u65b9\u6574\u5099\u5c40\u677e\u5c71\u5de5\u4e8b\u4e8b\u52d9\u6240","boring_xml_url":64,"boring_view_url":1,"soilmap_view_url":null,"soiltest_xml_url":0,"soiltest_view_url":0},{"id":524216,"code":"B4KJ202201002-6752","latitude":"33.704496","longitude":"132.834984","source_code":"028850612000140016","project_name":"\u56fd\u905333\u53f7\u5efa\u8a2d\u4e8b\u696d","survey_name":"\u5e73\u621014\u5e74\u5ea6\u4e09\u5742\u9053\u8def\uff08\u3064\u3065\u3089\u5ddd\u5730\u533a\uff09\u5730\u8cea\u8abf\u67fb\u696d\u52d9\uff08\u305d\u306e1\uff09","client_name":"\u56fd\u571f\u4ea4\u901a\u7701\u56db\u56fd\u5730\u65b9\u6574\u5099\u5c40\u677e\u5c71\u5de5\u4e8b\u4e8b\u52d9\u6240","boring_xml_url":64,"boring_view_url":1,"soilmap_view_url":null,"soiltest_xml_url":0,"soiltest_view_url":0},{"id":524215,"code":"B4KJ202201002-6751","latitude":"33.704663","longitude":"132.83504","source_code":"028850612000140015","project_name":"\u56fd\u905333\u53f7\u5efa\u8a2d\u4e8b\u696d","survey_name":"\u5e73\u621014\u5e74\u5ea6\u4e09\u5742\u9053\u8def\uff08\u3064\u3065\u3089\u5ddd\u5730\u533a\uff09\u5730\u8cea\u8abf\u67fb\u696d\u52d9\uff08\u305d\u306e1\uff09","client_name":"\u56fd\u571f\u4ea4\u901a\u7701\u56db\u56fd\u5730\u65b9\u6574\u5099\u5c40\u677e\u5c71\u5de5\u4e8b\u4e8b\u52d9\u6240","boring_xml_url":64,"boring_view_url":1,"soilmap_view_url":null,"soiltest_xml_url":0,"soiltest_view_url":0},{"id":524214,"code":"B4KJ202201002-6750","latitude":"33.704552","longitude":"132.835096","source_code":"028850612000140014","project_name":"\u56fd\u905333\u53f7\u5efa\u8a2d\u4e8b\u696d","survey_name":"\u5e73\u621014\u5e74\u5ea6\u4e09\u5742\u9053\u8def\uff08\u3064\u3065\u3089\u5ddd\u5730\u533a\uff09\u5730\u8cea\u8abf\u67fb\u696d\u52d9\uff08\u305d\u306e1\uff09","client_name":"\u56fd\u571f\u4ea4\u901a\u7701\u56db\u56fd\u5730\u65b9\u6574\u5099\u5c40\u677e\u5c71\u5de5\u4e8b\u4e8b\u52d9\u6240","boring_xml_url":64,"boring_view_url":1,"soilmap_view_url":null,"soiltest_xml_url":0,"soiltest_view_url":0},{"id":524213,"code":"B4KJ202201002-6749","latitude":"33.703635","longitude":"132.837318","source_code":"028850612000140013","project_name":"\u56fd\u905333\u53f7\u5efa\u8a2d\u4e8b\u696d","survey_name":"\u5e73\u621014\u5e74\u5ea6\u4e09\u5742\u9053\u8def\uff08\u3064\u3065\u3089\u5ddd\u5730\u533a\uff09\u5730\u8cea\u8abf\u67fb\u696d\u52d9\uff08\u305d\u306e1\uff09","client_name":"\u56fd\u571f\u4ea4\u901a\u7701\u56db\u56fd\u5730\u65b9\u6574\u5099\u5c40\u677e\u5c71\u5de5\u4e8b\u4e8b\u52d9\u6240","boring_xml_url":64,"boring_view_url":1,"soilmap_view_url":null,"soiltest_xml_url":0,"soiltest_view_url":0},{"id":524212,"code":"B4KJ202201002-6748","latitude":"33.703441","longitude":"132.837734","source_code":"028850612000140012","project_name":"\u56fd\u905333\u53f7\u5efa\u8a2d\u4e8b\u696d","survey_name":"\u5e73\u621014\u5e74\u5ea6\u4e09\u5742\u9053\u8def\uff08\u3064\u3065\u3089\u5ddd\u5730\u533a\uff09\u5730\u8cea\u8abf\u67fb\u696d\u52d9\uff08\u305d\u306e1\uff09","client_name":"\u56fd\u571f\u4ea4\u901a\u7701\u56db\u56fd\u5730\u65b9\u6574\u5099\u5c40\u677e\u5c71\u5de5\u4e8b\u4e8b\u52d9\u6240","boring_xml_url":64,"boring_view_url":1,"soilmap_view_url":null,"soiltest_xml_url":0,"soiltest_view_url":0},{"id":524211,"code":"B4KJ202201002-6747","latitude":"33.704274","longitude":"132.836179","source_code":"028850612000140011","project_name":"\u56fd\u905333\u53f7\u5efa\u8a2d\u4e8b\u696d","survey_name":"\u5e73\u621014\u5e74\u5ea6\u4e09\u5742\u9053\u8def\uff08\u3064\u3065\u3089\u5ddd\u5730\u533a\uff09\u5730\u8cea\u8abf\u67fb\u696d\u52d9\uff08\u305d\u306e1\uff09","client_name":"\u56fd\u571f\u4ea4\u901a\u7701\u56db\u56fd\u5730\u65b9\u6574\u5099\u5c40\u677e\u5c71\u5de5\u4e8b\u4e8b\u52d9\u6240","boring_xml_url":64,"boring_view_url":1,"soilmap_view_url":null,"soiltest_xml_url":0,"soiltest_view_url":0},{"id":524210,"code":"B4KJ202201002-6746","latitude":"33.704108","longitude":"132.836095","source_code":"028850612000140010","project_name":"\u56fd\u905333\u53f7\u5efa\u8a2d\u4e8b\u696d","survey_name":"\u5e73\u621014\u5e74\u5ea6\u4e09\u5742\u9053\u8def\uff08\u3064\u3065\u3089\u5ddd\u5730\u533a\uff09\u5730\u8cea\u8abf\u67fb\u696d\u52d9\uff08\u305d\u306e1\uff09","client_name":"\u56fd\u571f\u4ea4\u901a\u7701\u56db\u56fd\u5730\u65b9\u6574\u5099\u5c40\u677e\u5c71\u5de5\u4e8b\u4e8b\u52d9\u6240","boring_xml_url":64,"boring_view_url":1,"soilmap_view_url":null,"soiltest_xml_url":0,"soiltest_view_url":0},{"id":524209,"code":"B4KJ202201002-6745","latitude":"33.703941","longitude":"132.836484","source_code":"028850612000140009","project_name":"\u56fd\u905333\u53f7\u5efa\u8a2d\u4e8b\u696d","survey_name":"\u5e73\u621014\u5e74\u5ea6\u4e09\u5742\u9053\u8def\uff08\u3064\u3065\u3089\u5ddd\u5730\u533a\uff09\u5730\u8cea\u8abf\u67fb\u696d\u52d9\uff08\u305d\u306e1\uff09","client_name":"\u56fd\u571f\u4ea4\u901a\u7701\u56db\u56fd\u5730\u65b9\u6574\u5099\u5c40\u677e\u5c71\u5de5\u4e8b\u4e8b\u52d9\u6240","boring_xml_url":64,"boring_view_url":1,"soilmap_view_url":null,"soiltest_xml_url":0,"soiltest_view_url":0}]}}