{"header":{"xyz":{"source":[],"mosaic":false},"page":7062,"raw":{"soiltest_result":"0","bbox":"57.598333,109.544722,1.933333,163.806111","page":"7062"},"conditions":{"soiltest_result":0,"north":57.598333,"west":109.544722,"south":1.933333,"east":163.806111},"success":true,"message":""},"data":{"meta":{"total":212844,"page":7062,"pages":7095,"count":30},"values":[{"id":108475,"code":"NGIC201800179-0029","latitude":"37.367356388889","longitude":"136.910275","source_code":"","project_name":"\u4e00\u822c\u56fd\u9053470\u53f7 \u80fd\u8d8a\u81ea\u52d5\u8eca\u9053 \u8f2a\u5cf6\u9053\u8def\uff08II\u671f\uff09","survey_name":"\u5e73\u621029\u5e74\u5ea6 \u8f2a\u5cf6\u9053\u8def\uff082\u671f\uff09\u5730\u8cea\u8abf\u67fb\u696d\u52d9","client_name":"\u56fd\u571f\u4ea4\u901a\u7701\u5317\u9678\u5730\u65b9\u6574\u5099\u5c40\u91d1\u6ca2\u6cb3\u5ddd\u56fd\u9053\u4e8b\u52d9\u6240","boring_xml_url":47,"boring_view_url":1,"soilmap_view_url":null,"soiltest_xml_url":47,"soiltest_view_url":47},{"id":108474,"code":"NGIC201800179-0028","latitude":"37.369353333333","longitude":"136.91131944444","source_code":"","project_name":"\u4e00\u822c\u56fd\u9053470\u53f7 \u80fd\u8d8a\u81ea\u52d5\u8eca\u9053 \u8f2a\u5cf6\u9053\u8def\uff08II\u671f\uff09","survey_name":"\u5e73\u621029\u5e74\u5ea6 \u8f2a\u5cf6\u9053\u8def\uff082\u671f\uff09\u5730\u8cea\u8abf\u67fb\u696d\u52d9","client_name":"\u56fd\u571f\u4ea4\u901a\u7701\u5317\u9678\u5730\u65b9\u6574\u5099\u5c40\u91d1\u6ca2\u6cb3\u5ddd\u56fd\u9053\u4e8b\u52d9\u6240","boring_xml_url":47,"boring_view_url":1,"soilmap_view_url":null,"soiltest_xml_url":47,"soiltest_view_url":47},{"id":108473,"code":"NGIC201800179-0027","latitude":"37.369123888889","longitude":"136.91078388889","source_code":"","project_name":"\u4e00\u822c\u56fd\u9053470\u53f7 \u80fd\u8d8a\u81ea\u52d5\u8eca\u9053 \u8f2a\u5cf6\u9053\u8def\uff08II\u671f\uff09","survey_name":"\u5e73\u621029\u5e74\u5ea6 \u8f2a\u5cf6\u9053\u8def\uff082\u671f\uff09\u5730\u8cea\u8abf\u67fb\u696d\u52d9","client_name":"\u56fd\u571f\u4ea4\u901a\u7701\u5317\u9678\u5730\u65b9\u6574\u5099\u5c40\u91d1\u6ca2\u6cb3\u5ddd\u56fd\u9053\u4e8b\u52d9\u6240","boring_xml_url":47,"boring_view_url":1,"soilmap_view_url":null,"soiltest_xml_url":47,"soiltest_view_url":47},{"id":108472,"code":"NGIC201800179-0026","latitude":"37.369395833333","longitude":"136.91054527778","source_code":"","project_name":"\u4e00\u822c\u56fd\u9053470\u53f7 \u80fd\u8d8a\u81ea\u52d5\u8eca\u9053 \u8f2a\u5cf6\u9053\u8def\uff08II\u671f\uff09","survey_name":"\u5e73\u621029\u5e74\u5ea6 \u8f2a\u5cf6\u9053\u8def\uff082\u671f\uff09\u5730\u8cea\u8abf\u67fb\u696d\u52d9","client_name":"\u56fd\u571f\u4ea4\u901a\u7701\u5317\u9678\u5730\u65b9\u6574\u5099\u5c40\u91d1\u6ca2\u6cb3\u5ddd\u56fd\u9053\u4e8b\u52d9\u6240","boring_xml_url":47,"boring_view_url":1,"soilmap_view_url":null,"soiltest_xml_url":47,"soiltest_view_url":47},{"id":108471,"code":"NGIC201800179-0025","latitude":"37.369615555556","longitude":"136.91061833333","source_code":"","project_name":"\u4e00\u822c\u56fd\u9053470\u53f7 \u80fd\u8d8a\u81ea\u52d5\u8eca\u9053 \u8f2a\u5cf6\u9053\u8def\uff08II\u671f\uff09","survey_name":"\u5e73\u621029\u5e74\u5ea6 \u8f2a\u5cf6\u9053\u8def\uff082\u671f\uff09\u5730\u8cea\u8abf\u67fb\u696d\u52d9","client_name":"\u56fd\u571f\u4ea4\u901a\u7701\u5317\u9678\u5730\u65b9\u6574\u5099\u5c40\u91d1\u6ca2\u6cb3\u5ddd\u56fd\u9053\u4e8b\u52d9\u6240","boring_xml_url":47,"boring_view_url":1,"soilmap_view_url":null,"soiltest_xml_url":0,"soiltest_view_url":0},{"id":108470,"code":"NGIC201800179-0024","latitude":"37.369891944444","longitude":"136.91097888889","source_code":"","project_name":"\u4e00\u822c\u56fd\u9053470\u53f7 \u80fd\u8d8a\u81ea\u52d5\u8eca\u9053 \u8f2a\u5cf6\u9053\u8def\uff08II\u671f\uff09","survey_name":"\u5e73\u621029\u5e74\u5ea6 \u8f2a\u5cf6\u9053\u8def\uff082\u671f\uff09\u5730\u8cea\u8abf\u67fb\u696d\u52d9","client_name":"\u56fd\u571f\u4ea4\u901a\u7701\u5317\u9678\u5730\u65b9\u6574\u5099\u5c40\u91d1\u6ca2\u6cb3\u5ddd\u56fd\u9053\u4e8b\u52d9\u6240","boring_xml_url":47,"boring_view_url":1,"soilmap_view_url":null,"soiltest_xml_url":0,"soiltest_view_url":0},{"id":108469,"code":"NGIC201800179-0023","latitude":"37.370563055556","longitude":"136.91031805556","source_code":"","project_name":"\u4e00\u822c\u56fd\u9053470\u53f7 \u80fd\u8d8a\u81ea\u52d5\u8eca\u9053 \u8f2a\u5cf6\u9053\u8def\uff08II\u671f\uff09","survey_name":"\u5e73\u621029\u5e74\u5ea6 \u8f2a\u5cf6\u9053\u8def\uff082\u671f\uff09\u5730\u8cea\u8abf\u67fb\u696d\u52d9","client_name":"\u56fd\u571f\u4ea4\u901a\u7701\u5317\u9678\u5730\u65b9\u6574\u5099\u5c40\u91d1\u6ca2\u6cb3\u5ddd\u56fd\u9053\u4e8b\u52d9\u6240","boring_xml_url":47,"boring_view_url":1,"soilmap_view_url":null,"soiltest_xml_url":0,"soiltest_view_url":0},{"id":108468,"code":"NGIC201800179-0022","latitude":"37.371062777778","longitude":"136.90962222222","source_code":"","project_name":"\u4e00\u822c\u56fd\u9053470\u53f7 \u80fd\u8d8a\u81ea\u52d5\u8eca\u9053 \u8f2a\u5cf6\u9053\u8def\uff08II\u671f\uff09","survey_name":"\u5e73\u621029\u5e74\u5ea6 \u8f2a\u5cf6\u9053\u8def\uff082\u671f\uff09\u5730\u8cea\u8abf\u67fb\u696d\u52d9","client_name":"\u56fd\u571f\u4ea4\u901a\u7701\u5317\u9678\u5730\u65b9\u6574\u5099\u5c40\u91d1\u6ca2\u6cb3\u5ddd\u56fd\u9053\u4e8b\u52d9\u6240","boring_xml_url":47,"boring_view_url":1,"soilmap_view_url":null,"soiltest_xml_url":0,"soiltest_view_url":0},{"id":108467,"code":"NGIC201800179-0021","latitude":"37.370974444444","longitude":"136.90979972222","source_code":"","project_name":"\u4e00\u822c\u56fd\u9053470\u53f7 \u80fd\u8d8a\u81ea\u52d5\u8eca\u9053 \u8f2a\u5cf6\u9053\u8def\uff08II\u671f\uff09","survey_name":"\u5e73\u621029\u5e74\u5ea6 \u8f2a\u5cf6\u9053\u8def\uff082\u671f\uff09\u5730\u8cea\u8abf\u67fb\u696d\u52d9","client_name":"\u56fd\u571f\u4ea4\u901a\u7701\u5317\u9678\u5730\u65b9\u6574\u5099\u5c40\u91d1\u6ca2\u6cb3\u5ddd\u56fd\u9053\u4e8b\u52d9\u6240","boring_xml_url":47,"boring_view_url":1,"soilmap_view_url":null,"soiltest_xml_url":0,"soiltest_view_url":0},{"id":108466,"code":"NGIC201800179-0020","latitude":"37.370938333333","longitude":"136.90976111111","source_code":"","project_name":"\u4e00\u822c\u56fd\u9053470\u53f7 \u80fd\u8d8a\u81ea\u52d5\u8eca\u9053 \u8f2a\u5cf6\u9053\u8def\uff08II\u671f\uff09","survey_name":"\u5e73\u621029\u5e74\u5ea6 \u8f2a\u5cf6\u9053\u8def\uff082\u671f\uff09\u5730\u8cea\u8abf\u67fb\u696d\u52d9","client_name":"\u56fd\u571f\u4ea4\u901a\u7701\u5317\u9678\u5730\u65b9\u6574\u5099\u5c40\u91d1\u6ca2\u6cb3\u5ddd\u56fd\u9053\u4e8b\u52d9\u6240","boring_xml_url":47,"boring_view_url":1,"soilmap_view_url":null,"soiltest_xml_url":0,"soiltest_view_url":0},{"id":108465,"code":"NGIC201800179-0019","latitude":"37.370895","longitude":"136.91005444444","source_code":"","project_name":"\u4e00\u822c\u56fd\u9053470\u53f7 \u80fd\u8d8a\u81ea\u52d5\u8eca\u9053 \u8f2a\u5cf6\u9053\u8def\uff08II\u671f\uff09","survey_name":"\u5e73\u621029\u5e74\u5ea6 \u8f2a\u5cf6\u9053\u8def\uff082\u671f\uff09\u5730\u8cea\u8abf\u67fb\u696d\u52d9","client_name":"\u56fd\u571f\u4ea4\u901a\u7701\u5317\u9678\u5730\u65b9\u6574\u5099\u5c40\u91d1\u6ca2\u6cb3\u5ddd\u56fd\u9053\u4e8b\u52d9\u6240","boring_xml_url":47,"boring_view_url":1,"soilmap_view_url":null,"soiltest_xml_url":0,"soiltest_view_url":0},{"id":108464,"code":"NGIC201800179-0018","latitude":"37.370806388889","longitude":"136.910105","source_code":"","project_name":"\u4e00\u822c\u56fd\u9053470\u53f7 \u80fd\u8d8a\u81ea\u52d5\u8eca\u9053 \u8f2a\u5cf6\u9053\u8def\uff08II\u671f\uff09","survey_name":"\u5e73\u621029\u5e74\u5ea6 \u8f2a\u5cf6\u9053\u8def\uff082\u671f\uff09\u5730\u8cea\u8abf\u67fb\u696d\u52d9","client_name":"\u56fd\u571f\u4ea4\u901a\u7701\u5317\u9678\u5730\u65b9\u6574\u5099\u5c40\u91d1\u6ca2\u6cb3\u5ddd\u56fd\u9053\u4e8b\u52d9\u6240","boring_xml_url":47,"boring_view_url":1,"soilmap_view_url":null,"soiltest_xml_url":0,"soiltest_view_url":0},{"id":108463,"code":"NGIC201800179-0017","latitude":"37.370558888889","longitude":"136.91062111111","source_code":"","project_name":"\u4e00\u822c\u56fd\u9053470\u53f7 \u80fd\u8d8a\u81ea\u52d5\u8eca\u9053 \u8f2a\u5cf6\u9053\u8def\uff08II\u671f\uff09","survey_name":"\u5e73\u621029\u5e74\u5ea6 \u8f2a\u5cf6\u9053\u8def\uff082\u671f\uff09\u5730\u8cea\u8abf\u67fb\u696d\u52d9","client_name":"\u56fd\u571f\u4ea4\u901a\u7701\u5317\u9678\u5730\u65b9\u6574\u5099\u5c40\u91d1\u6ca2\u6cb3\u5ddd\u56fd\u9053\u4e8b\u52d9\u6240","boring_xml_url":47,"boring_view_url":1,"soilmap_view_url":null,"soiltest_xml_url":0,"soiltest_view_url":0},{"id":108462,"code":"NGIC201800179-0016","latitude":"37.370748055556","longitude":"136.91044611111","source_code":"","project_name":"\u4e00\u822c\u56fd\u9053470\u53f7 \u80fd\u8d8a\u81ea\u52d5\u8eca\u9053 \u8f2a\u5cf6\u9053\u8def\uff08II\u671f\uff09","survey_name":"\u5e73\u621029\u5e74\u5ea6 \u8f2a\u5cf6\u9053\u8def\uff082\u671f\uff09\u5730\u8cea\u8abf\u67fb\u696d\u52d9","client_name":"\u56fd\u571f\u4ea4\u901a\u7701\u5317\u9678\u5730\u65b9\u6574\u5099\u5c40\u91d1\u6ca2\u6cb3\u5ddd\u56fd\u9053\u4e8b\u52d9\u6240","boring_xml_url":47,"boring_view_url":1,"soilmap_view_url":null,"soiltest_xml_url":0,"soiltest_view_url":0},{"id":108461,"code":"NGIC201800179-0015","latitude":"37.370701666667","longitude":"136.91007277778","source_code":"","project_name":"\u4e00\u822c\u56fd\u9053470\u53f7 \u80fd\u8d8a\u81ea\u52d5\u8eca\u9053 \u8f2a\u5cf6\u9053\u8def\uff08II\u671f\uff09","survey_name":"\u5e73\u621029\u5e74\u5ea6 \u8f2a\u5cf6\u9053\u8def\uff082\u671f\uff09\u5730\u8cea\u8abf\u67fb\u696d\u52d9","client_name":"\u56fd\u571f\u4ea4\u901a\u7701\u5317\u9678\u5730\u65b9\u6574\u5099\u5c40\u91d1\u6ca2\u6cb3\u5ddd\u56fd\u9053\u4e8b\u52d9\u6240","boring_xml_url":47,"boring_view_url":1,"soilmap_view_url":null,"soiltest_xml_url":0,"soiltest_view_url":0},{"id":108460,"code":"NGIC201800179-0014","latitude":"37.370828055556","longitude":"136.91001388889","source_code":"","project_name":"\u4e00\u822c\u56fd\u9053470\u53f7 \u80fd\u8d8a\u81ea\u52d5\u8eca\u9053 \u8f2a\u5cf6\u9053\u8def\uff08II\u671f\uff09","survey_name":"\u5e73\u621029\u5e74\u5ea6 \u8f2a\u5cf6\u9053\u8def\uff082\u671f\uff09\u5730\u8cea\u8abf\u67fb\u696d\u52d9","client_name":"\u56fd\u571f\u4ea4\u901a\u7701\u5317\u9678\u5730\u65b9\u6574\u5099\u5c40\u91d1\u6ca2\u6cb3\u5ddd\u56fd\u9053\u4e8b\u52d9\u6240","boring_xml_url":47,"boring_view_url":1,"soilmap_view_url":null,"soiltest_xml_url":0,"soiltest_view_url":0},{"id":108459,"code":"NGIC201800179-0013","latitude":"37.3705875","longitude":"136.91040194444","source_code":"","project_name":"\u4e00\u822c\u56fd\u9053470\u53f7 \u80fd\u8d8a\u81ea\u52d5\u8eca\u9053 \u8f2a\u5cf6\u9053\u8def\uff08II\u671f\uff09","survey_name":"\u5e73\u621029\u5e74\u5ea6 \u8f2a\u5cf6\u9053\u8def\uff082\u671f\uff09\u5730\u8cea\u8abf\u67fb\u696d\u52d9","client_name":"\u56fd\u571f\u4ea4\u901a\u7701\u5317\u9678\u5730\u65b9\u6574\u5099\u5c40\u91d1\u6ca2\u6cb3\u5ddd\u56fd\u9053\u4e8b\u52d9\u6240","boring_xml_url":47,"boring_view_url":1,"soilmap_view_url":null,"soiltest_xml_url":0,"soiltest_view_url":0},{"id":108458,"code":"NGIC201800179-0012","latitude":"37.370899444444","longitude":"136.910285","source_code":"","project_name":"\u4e00\u822c\u56fd\u9053470\u53f7 \u80fd\u8d8a\u81ea\u52d5\u8eca\u9053 \u8f2a\u5cf6\u9053\u8def\uff08II\u671f\uff09","survey_name":"\u5e73\u621029\u5e74\u5ea6 \u8f2a\u5cf6\u9053\u8def\uff082\u671f\uff09\u5730\u8cea\u8abf\u67fb\u696d\u52d9","client_name":"\u56fd\u571f\u4ea4\u901a\u7701\u5317\u9678\u5730\u65b9\u6574\u5099\u5c40\u91d1\u6ca2\u6cb3\u5ddd\u56fd\u9053\u4e8b\u52d9\u6240","boring_xml_url":47,"boring_view_url":1,"soilmap_view_url":null,"soiltest_xml_url":0,"soiltest_view_url":0},{"id":108457,"code":"NGIC201800179-0011","latitude":"37.371261388889","longitude":"136.90960638889","source_code":"","project_name":"\u4e00\u822c\u56fd\u9053470\u53f7 \u80fd\u8d8a\u81ea\u52d5\u8eca\u9053 \u8f2a\u5cf6\u9053\u8def\uff08II\u671f\uff09","survey_name":"\u5e73\u621029\u5e74\u5ea6 \u8f2a\u5cf6\u9053\u8def\uff082\u671f\uff09\u5730\u8cea\u8abf\u67fb\u696d\u52d9","client_name":"\u56fd\u571f\u4ea4\u901a\u7701\u5317\u9678\u5730\u65b9\u6574\u5099\u5c40\u91d1\u6ca2\u6cb3\u5ddd\u56fd\u9053\u4e8b\u52d9\u6240","boring_xml_url":47,"boring_view_url":1,"soilmap_view_url":null,"soiltest_xml_url":0,"soiltest_view_url":0},{"id":108456,"code":"NGIC201800179-0010","latitude":"37.371135","longitude":"136.90961916667","source_code":"","project_name":"\u4e00\u822c\u56fd\u9053470\u53f7 \u80fd\u8d8a\u81ea\u52d5\u8eca\u9053 \u8f2a\u5cf6\u9053\u8def\uff08II\u671f\uff09","survey_name":"\u5e73\u621029\u5e74\u5ea6 \u8f2a\u5cf6\u9053\u8def\uff082\u671f\uff09\u5730\u8cea\u8abf\u67fb\u696d\u52d9","client_name":"\u56fd\u571f\u4ea4\u901a\u7701\u5317\u9678\u5730\u65b9\u6574\u5099\u5c40\u91d1\u6ca2\u6cb3\u5ddd\u56fd\u9053\u4e8b\u52d9\u6240","boring_xml_url":47,"boring_view_url":1,"soilmap_view_url":null,"soiltest_xml_url":0,"soiltest_view_url":0},{"id":108455,"code":"NGIC201800179-0009","latitude":"37.370736111111","longitude":"136.91070166667","source_code":"","project_name":"\u4e00\u822c\u56fd\u9053470\u53f7 \u80fd\u8d8a\u81ea\u52d5\u8eca\u9053 \u8f2a\u5cf6\u9053\u8def\uff08II\u671f\uff09","survey_name":"\u5e73\u621029\u5e74\u5ea6 \u8f2a\u5cf6\u9053\u8def\uff082\u671f\uff09\u5730\u8cea\u8abf\u67fb\u696d\u52d9","client_name":"\u56fd\u571f\u4ea4\u901a\u7701\u5317\u9678\u5730\u65b9\u6574\u5099\u5c40\u91d1\u6ca2\u6cb3\u5ddd\u56fd\u9053\u4e8b\u52d9\u6240","boring_xml_url":47,"boring_view_url":1,"soilmap_view_url":null,"soiltest_xml_url":0,"soiltest_view_url":0},{"id":108454,"code":"NGIC201800179-0008","latitude":"37.370956388889","longitude":"136.91040388889","source_code":"","project_name":"\u4e00\u822c\u56fd\u9053470\u53f7 \u80fd\u8d8a\u81ea\u52d5\u8eca\u9053 \u8f2a\u5cf6\u9053\u8def\uff08II\u671f\uff09","survey_name":"\u5e73\u621029\u5e74\u5ea6 \u8f2a\u5cf6\u9053\u8def\uff082\u671f\uff09\u5730\u8cea\u8abf\u67fb\u696d\u52d9","client_name":"\u56fd\u571f\u4ea4\u901a\u7701\u5317\u9678\u5730\u65b9\u6574\u5099\u5c40\u91d1\u6ca2\u6cb3\u5ddd\u56fd\u9053\u4e8b\u52d9\u6240","boring_xml_url":47,"boring_view_url":1,"soilmap_view_url":null,"soiltest_xml_url":0,"soiltest_view_url":0},{"id":108453,"code":"NGIC201800179-0007","latitude":"37.371053611111","longitude":"136.90990777778","source_code":"","project_name":"\u4e00\u822c\u56fd\u9053470\u53f7 \u80fd\u8d8a\u81ea\u52d5\u8eca\u9053 \u8f2a\u5cf6\u9053\u8def\uff08II\u671f\uff09","survey_name":"\u5e73\u621029\u5e74\u5ea6 \u8f2a\u5cf6\u9053\u8def\uff082\u671f\uff09\u5730\u8cea\u8abf\u67fb\u696d\u52d9","client_name":"\u56fd\u571f\u4ea4\u901a\u7701\u5317\u9678\u5730\u65b9\u6574\u5099\u5c40\u91d1\u6ca2\u6cb3\u5ddd\u56fd\u9053\u4e8b\u52d9\u6240","boring_xml_url":47,"boring_view_url":1,"soilmap_view_url":null,"soiltest_xml_url":0,"soiltest_view_url":0},{"id":108452,"code":"NGIC201800179-0006","latitude":"37.371191388889","longitude":"136.9098275","source_code":"","project_name":"\u4e00\u822c\u56fd\u9053470\u53f7 \u80fd\u8d8a\u81ea\u52d5\u8eca\u9053 \u8f2a\u5cf6\u9053\u8def\uff08II\u671f\uff09","survey_name":"\u5e73\u621029\u5e74\u5ea6 \u8f2a\u5cf6\u9053\u8def\uff082\u671f\uff09\u5730\u8cea\u8abf\u67fb\u696d\u52d9","client_name":"\u56fd\u571f\u4ea4\u901a\u7701\u5317\u9678\u5730\u65b9\u6574\u5099\u5c40\u91d1\u6ca2\u6cb3\u5ddd\u56fd\u9053\u4e8b\u52d9\u6240","boring_xml_url":47,"boring_view_url":1,"soilmap_view_url":null,"soiltest_xml_url":0,"soiltest_view_url":0},{"id":108451,"code":"NGIC201800179-0005","latitude":"37.371320555556","longitude":"136.90974555556","source_code":"","project_name":"\u4e00\u822c\u56fd\u9053470\u53f7 \u80fd\u8d8a\u81ea\u52d5\u8eca\u9053 \u8f2a\u5cf6\u9053\u8def\uff08II\u671f\uff09","survey_name":"\u5e73\u621029\u5e74\u5ea6 \u8f2a\u5cf6\u9053\u8def\uff082\u671f\uff09\u5730\u8cea\u8abf\u67fb\u696d\u52d9","client_name":"\u56fd\u571f\u4ea4\u901a\u7701\u5317\u9678\u5730\u65b9\u6574\u5099\u5c40\u91d1\u6ca2\u6cb3\u5ddd\u56fd\u9053\u4e8b\u52d9\u6240","boring_xml_url":47,"boring_view_url":1,"soilmap_view_url":null,"soiltest_xml_url":0,"soiltest_view_url":0},{"id":108450,"code":"NGIC201800179-0004","latitude":"37.371229444444","longitude":"136.91010583333","source_code":"","project_name":"\u4e00\u822c\u56fd\u9053470\u53f7 \u80fd\u8d8a\u81ea\u52d5\u8eca\u9053 \u8f2a\u5cf6\u9053\u8def\uff08II\u671f\uff09","survey_name":"\u5e73\u621029\u5e74\u5ea6 \u8f2a\u5cf6\u9053\u8def\uff082\u671f\uff09\u5730\u8cea\u8abf\u67fb\u696d\u52d9","client_name":"\u56fd\u571f\u4ea4\u901a\u7701\u5317\u9678\u5730\u65b9\u6574\u5099\u5c40\u91d1\u6ca2\u6cb3\u5ddd\u56fd\u9053\u4e8b\u52d9\u6240","boring_xml_url":47,"boring_view_url":1,"soilmap_view_url":null,"soiltest_xml_url":0,"soiltest_view_url":0},{"id":108449,"code":"NGIC201800179-0003","latitude":"37.371476666667","longitude":"136.90996888889","source_code":"","project_name":"\u4e00\u822c\u56fd\u9053470\u53f7 \u80fd\u8d8a\u81ea\u52d5\u8eca\u9053 \u8f2a\u5cf6\u9053\u8def\uff08II\u671f\uff09","survey_name":"\u5e73\u621029\u5e74\u5ea6 \u8f2a\u5cf6\u9053\u8def\uff082\u671f\uff09\u5730\u8cea\u8abf\u67fb\u696d\u52d9","client_name":"\u56fd\u571f\u4ea4\u901a\u7701\u5317\u9678\u5730\u65b9\u6574\u5099\u5c40\u91d1\u6ca2\u6cb3\u5ddd\u56fd\u9053\u4e8b\u52d9\u6240","boring_xml_url":47,"boring_view_url":1,"soilmap_view_url":null,"soiltest_xml_url":0,"soiltest_view_url":0},{"id":108448,"code":"NGIC201800179-0002","latitude":"37.371915833333","longitude":"136.91009666667","source_code":"","project_name":"\u4e00\u822c\u56fd\u9053470\u53f7 \u80fd\u8d8a\u81ea\u52d5\u8eca\u9053 \u8f2a\u5cf6\u9053\u8def\uff08II\u671f\uff09","survey_name":"\u5e73\u621029\u5e74\u5ea6 \u8f2a\u5cf6\u9053\u8def\uff082\u671f\uff09\u5730\u8cea\u8abf\u67fb\u696d\u52d9","client_name":"\u56fd\u571f\u4ea4\u901a\u7701\u5317\u9678\u5730\u65b9\u6574\u5099\u5c40\u91d1\u6ca2\u6cb3\u5ddd\u56fd\u9053\u4e8b\u52d9\u6240","boring_xml_url":47,"boring_view_url":1,"soilmap_view_url":null,"soiltest_xml_url":0,"soiltest_view_url":0},{"id":108447,"code":"NGIC201800179-0001","latitude":"37.372055555556","longitude":"136.90937583333","source_code":"","project_name":"\u4e00\u822c\u56fd\u9053470\u53f7 \u80fd\u8d8a\u81ea\u52d5\u8eca\u9053 \u8f2a\u5cf6\u9053\u8def\uff08II\u671f\uff09","survey_name":"\u5e73\u621029\u5e74\u5ea6 \u8f2a\u5cf6\u9053\u8def\uff082\u671f\uff09\u5730\u8cea\u8abf\u67fb\u696d\u52d9","client_name":"\u56fd\u571f\u4ea4\u901a\u7701\u5317\u9678\u5730\u65b9\u6574\u5099\u5c40\u91d1\u6ca2\u6cb3\u5ddd\u56fd\u9053\u4e8b\u52d9\u6240","boring_xml_url":47,"boring_view_url":1,"soilmap_view_url":null,"soiltest_xml_url":0,"soiltest_view_url":0},{"id":108446,"code":"NGIC201800189-0004","latitude":"33.848619444444","longitude":"132.69598333333","source_code":"","project_name":"\u677e\u5c71\u6e2f\u5916\u6e2f\u5730\u533a\u571f\u8cea\u8abf\u67fb","survey_name":"\u677e\u5c71\u6e2f\u5916\u6e2f\u5730\u533a\u571f\u8cea\u8abf\u67fb","client_name":"\u56fd\u571f\u4ea4\u901a\u7701\u56db\u56fd\u5730\u65b9\u6574\u5099\u5c40\u677e\u5c71\u6e2f\u6e7e\u30fb\u7a7a\u6e2f\u6574\u5099\u4e8b\u52d9\u6240","boring_xml_url":47,"boring_view_url":1,"soilmap_view_url":71,"soiltest_xml_url":47,"soiltest_view_url":47}]}}