{"header":{"xyz":{"source":[],"mosaic":false},"page":7077,"raw":{"soiltest_result":"0","bbox":"57.598333,109.544722,1.933333,163.806111","page":"7077"},"conditions":{"soiltest_result":0,"north":57.598333,"west":109.544722,"south":1.933333,"east":163.806111},"success":true,"message":""},"data":{"meta":{"total":212844,"page":7077,"pages":7095,"count":30},"values":[{"id":107889,"code":"NGIC201800091-0001","latitude":"42.410791666667","longitude":"140.05591944444","source_code":"","project_name":"\u5e73\u621029\u5e74\u5ea6\u65bd\u884c \u4eca\u91d1\u5317\u5730\u533a","survey_name":"\u5e73\u621029\u5e74\u5ea6\u65bd\u884c \u4eca\u91d1\u5317\u5730\u533a \u91d1\u53c8\u5de5\u533a\u7528\u6c34\u65bd\u8a2d\u8a2d\u8a08\u7b49\u696d\u52d9","client_name":"\u56fd\u571f\u4ea4\u901a\u7701\u5317\u6d77\u9053\u958b\u767a\u5c40\u51fd\u9928\u958b\u767a\u5efa\u8a2d\u90e8","boring_xml_url":47,"boring_view_url":1,"soilmap_view_url":null,"soiltest_xml_url":47,"soiltest_view_url":47},{"id":107888,"code":"NGIC201800106-0005","latitude":"43.713602777778","longitude":"142.04728888889","source_code":"","project_name":"\u77f3\u72e9\u5ddd\u5de6\u5cb8\u6df1\u5ddd\u5e02\u5e83\u91cc\u753a\u5730\u5148\u707d\u5bb3\u5fa9\u65e7\u5de5\u4e8b","survey_name":"\u77f3\u72e9\u5ddd\u65b0\u5341\u6d25\u5ddd\u753a\u82b1\u6708\u5730\u5148\u5916\u5730\u8cea\u8abf\u67fb\u696d\u52d9","client_name":"\u56fd\u571f\u4ea4\u901a\u7701\u5317\u6d77\u9053\u958b\u767a\u5c40\u672d\u5e4c\u958b\u767a\u5efa\u8a2d\u90e8\u6edd\u5ddd\u6cb3\u5ddd\u4e8b\u52d9\u6240","boring_xml_url":47,"boring_view_url":1,"soilmap_view_url":null,"soiltest_xml_url":0,"soiltest_view_url":0},{"id":107887,"code":"NGIC201800106-0004","latitude":"43.667538888889","longitude":"141.92752222222","source_code":"","project_name":"\u77f3\u72e9\u5ddd\u53f3\u5cb8\u59b9\u80cc\u725b\u753a\u59b9\u80cc\u725b\u5148\u707d\u5bb3\u5fa9\u65e7\u5916\u5de5\u4e8b","survey_name":"\u77f3\u72e9\u5ddd\u65b0\u5341\u6d25\u5ddd\u753a\u82b1\u6708\u5730\u5148\u5916\u5730\u8cea\u8abf\u67fb\u696d\u52d9","client_name":"\u56fd\u571f\u4ea4\u901a\u7701\u5317\u6d77\u9053\u958b\u767a\u5c40\u672d\u5e4c\u958b\u767a\u5efa\u8a2d\u90e8\u6edd\u5ddd\u6cb3\u5ddd\u4e8b\u52d9\u6240","boring_xml_url":47,"boring_view_url":1,"soilmap_view_url":null,"soiltest_xml_url":0,"soiltest_view_url":0},{"id":107886,"code":"NGIC201800106-0003","latitude":"43.666008333333","longitude":"141.92456388889","source_code":"","project_name":"\u77f3\u72e9\u5ddd\u53f3\u5cb8\u59b9\u80cc\u725b\u753a\u59b9\u80cc\u725b\u5148\u707d\u5bb3\u5fa9\u65e7\u5916\u5de5\u4e8b","survey_name":"\u77f3\u72e9\u5ddd\u65b0\u5341\u6d25\u5ddd\u753a\u82b1\u6708\u5730\u5148\u5916\u5730\u8cea\u8abf\u67fb\u696d\u52d9","client_name":"\u56fd\u571f\u4ea4\u901a\u7701\u5317\u6d77\u9053\u958b\u767a\u5c40\u672d\u5e4c\u958b\u767a\u5efa\u8a2d\u90e8\u6edd\u5ddd\u6cb3\u5ddd\u4e8b\u52d9\u6240","boring_xml_url":47,"boring_view_url":1,"soilmap_view_url":null,"soiltest_xml_url":0,"soiltest_view_url":0},{"id":107885,"code":"NGIC201800106-0002","latitude":"43.468586111111","longitude":"141.86920277778","source_code":"","project_name":"\u77f3\u72e9\u5ddd\u53f3\u5cb8\u65b0\u5341\u6d25\u5ddd\u753a\u82b1\u6708\u5730\u5148\u707d\u5bb3\u5fa9\u65e7\u5de5\u4e8b","survey_name":"\u77f3\u72e9\u5ddd\u65b0\u5341\u6d25\u5ddd\u753a\u82b1\u6708\u5730\u5148\u5916\u5730\u8cea\u8abf\u67fb\u696d\u52d9","client_name":"\u56fd\u571f\u4ea4\u901a\u7701\u5317\u6d77\u9053\u958b\u767a\u5c40\u672d\u5e4c\u958b\u767a\u5efa\u8a2d\u90e8\u6edd\u5ddd\u6cb3\u5ddd\u4e8b\u52d9\u6240","boring_xml_url":47,"boring_view_url":1,"soilmap_view_url":null,"soiltest_xml_url":0,"soiltest_view_url":0},{"id":107884,"code":"NGIC201800106-0001","latitude":"43.467483333333","longitude":"141.86968333333","source_code":"","project_name":"\u77f3\u72e9\u5ddd\u53f3\u5cb8\u65b0\u5341\u6d25\u5ddd\u753a\u82b1\u6708\u5730\u5148\u707d\u5bb3\u5fa9\u65e7\u5de5\u4e8b","survey_name":"\u77f3\u72e9\u5ddd\u65b0\u5341\u6d25\u5ddd\u753a\u82b1\u6708\u5730\u5148\u5916\u5730\u8cea\u8abf\u67fb\u696d\u52d9","client_name":"\u56fd\u571f\u4ea4\u901a\u7701\u5317\u6d77\u9053\u958b\u767a\u5c40\u672d\u5e4c\u958b\u767a\u5efa\u8a2d\u90e8\u6edd\u5ddd\u6cb3\u5ddd\u4e8b\u52d9\u6240","boring_xml_url":47,"boring_view_url":1,"soilmap_view_url":null,"soiltest_xml_url":0,"soiltest_view_url":0},{"id":107883,"code":"NGIC201800104-0002","latitude":"43.615055555556","longitude":"141.93633055556","source_code":"","project_name":"\u4e00\u822c\u56fd\u905312\u53f7 \u6edd\u5ddd\u5e02 \u5317\u6edd\u306e\u5ddd\u5730\u8cea\u8abf\u67fb\u696d\u52d9","survey_name":"\u4e00\u822c\u56fd\u905312\u53f7 \u6edd\u5ddd\u5e02 \u5317\u6edd\u306e\u5ddd\u5730\u8cea\u8abf\u67fb\u696d\u52d9","client_name":"\u56fd\u571f\u4ea4\u901a\u7701\u5317\u6d77\u9053\u958b\u767a\u5c40\u672d\u5e4c\u958b\u767a\u5efa\u8a2d\u90e8\u3000\u6edd\u5ddd\u9053\u8def\u4e8b\u52d9\u6240","boring_xml_url":47,"boring_view_url":1,"soilmap_view_url":null,"soiltest_xml_url":47,"soiltest_view_url":47},{"id":107882,"code":"NGIC201800104-0001","latitude":"43.615091666667","longitude":"141.93599722222","source_code":"","project_name":"\u4e00\u822c\u56fd\u905312\u53f7 \u6edd\u5ddd\u5e02 \u5317\u6edd\u306e\u5ddd\u5730\u8cea\u8abf\u67fb\u696d\u52d9","survey_name":"\u4e00\u822c\u56fd\u905312\u53f7 \u6edd\u5ddd\u5e02 \u5317\u6edd\u306e\u5ddd\u5730\u8cea\u8abf\u67fb\u696d\u52d9","client_name":"\u56fd\u571f\u4ea4\u901a\u7701\u5317\u6d77\u9053\u958b\u767a\u5c40\u672d\u5e4c\u958b\u767a\u5efa\u8a2d\u90e8\u3000\u6edd\u5ddd\u9053\u8def\u4e8b\u52d9\u6240","boring_xml_url":47,"boring_view_url":1,"soilmap_view_url":null,"soiltest_xml_url":47,"soiltest_view_url":47},{"id":107881,"code":"NGIC201800095-0005","latitude":"34.582715","longitude":"135.67995944444","source_code":"","project_name":"","survey_name":"\u4e80\u306e\u702c\u5730\u533a\u5730\u8cea\u8abf\u67fb\u4ed6\u696d\u52d9","client_name":"\u56fd\u571f\u4ea4\u901a\u7701\u8fd1\u757f\u5730\u65b9\u6574\u5099\u5c40\u5927\u548c\u5ddd\u6cb3\u5ddd\u4e8b\u52d9\u6240","boring_xml_url":47,"boring_view_url":1,"soilmap_view_url":null,"soiltest_xml_url":0,"soiltest_view_url":0},{"id":107880,"code":"NGIC201800095-0004","latitude":"34.582893611111","longitude":"135.68027555556","source_code":"","project_name":"","survey_name":"\u4e80\u306e\u702c\u5730\u533a\u5730\u8cea\u8abf\u67fb\u4ed6\u696d\u52d9","client_name":"\u56fd\u571f\u4ea4\u901a\u7701\u8fd1\u757f\u5730\u65b9\u6574\u5099\u5c40\u5927\u548c\u5ddd\u6cb3\u5ddd\u4e8b\u52d9\u6240","boring_xml_url":47,"boring_view_url":1,"soilmap_view_url":null,"soiltest_xml_url":0,"soiltest_view_url":0},{"id":107879,"code":"NGIC201800095-0003","latitude":"34.583051944444","longitude":"135.68051444444","source_code":"","project_name":"","survey_name":"\u4e80\u306e\u702c\u5730\u533a\u5730\u8cea\u8abf\u67fb\u4ed6\u696d\u52d9","client_name":"\u56fd\u571f\u4ea4\u901a\u7701\u8fd1\u757f\u5730\u65b9\u6574\u5099\u5c40\u5927\u548c\u5ddd\u6cb3\u5ddd\u4e8b\u52d9\u6240","boring_xml_url":47,"boring_view_url":1,"soilmap_view_url":null,"soiltest_xml_url":0,"soiltest_view_url":0},{"id":107878,"code":"NGIC201800095-0002","latitude":"34.583230555556","longitude":"135.68011861111","source_code":"","project_name":"","survey_name":"\u4e80\u306e\u702c\u5730\u533a\u5730\u8cea\u8abf\u67fb\u4ed6\u696d\u52d9","client_name":"\u56fd\u571f\u4ea4\u901a\u7701\u8fd1\u757f\u5730\u65b9\u6574\u5099\u5c40\u5927\u548c\u5ddd\u6cb3\u5ddd\u4e8b\u52d9\u6240","boring_xml_url":47,"boring_view_url":1,"soilmap_view_url":null,"soiltest_xml_url":0,"soiltest_view_url":0},{"id":107877,"code":"NGIC201800095-0001","latitude":"34.583509444444","longitude":"135.6794775","source_code":"","project_name":"","survey_name":"\u4e80\u306e\u702c\u5730\u533a\u5730\u8cea\u8abf\u67fb\u4ed6\u696d\u52d9","client_name":"\u56fd\u571f\u4ea4\u901a\u7701\u8fd1\u757f\u5730\u65b9\u6574\u5099\u5c40\u5927\u548c\u5ddd\u6cb3\u5ddd\u4e8b\u52d9\u6240","boring_xml_url":47,"boring_view_url":1,"soilmap_view_url":null,"soiltest_xml_url":0,"soiltest_view_url":0},{"id":107876,"code":"NGIC201800101-0017","latitude":"36.144138888889","longitude":"137.62025","source_code":"","project_name":"\u6e6f\u5ddd\u7b2c4\u53f7\u7802\u9632\u5830\u5824\u5de5\u4e8b\u7528\u9053\u8def\u5730\u76e4\u8abf\u67fb","survey_name":"\u5e73\u621030\u5e74\u5ea6\u4fe1\u6fc3\u5ddd\u4e0a\u6d41\u57df\u5730\u8cea\u8abf\u67fb\u696d\u52d9","client_name":"\u56fd\u571f\u4ea4\u901a\u7701\u5317\u9678\u5730\u65b9\u6574\u5099\u5c40\u677e\u672c\u7802\u9632\u4e8b\u52d9\u6240","boring_xml_url":47,"boring_view_url":1,"soilmap_view_url":null,"soiltest_xml_url":0,"soiltest_view_url":0},{"id":107875,"code":"NGIC201800101-0016","latitude":"36.143805555556","longitude":"137.62008333333","source_code":"","project_name":"\u6e6f\u5ddd\u7b2c4\u53f7\u7802\u9632\u5830\u5824\u5de5\u4e8b\u7528\u9053\u8def\u5730\u76e4\u8abf\u67fb","survey_name":"\u5e73\u621030\u5e74\u5ea6\u4fe1\u6fc3\u5ddd\u4e0a\u6d41\u57df\u5730\u8cea\u8abf\u67fb\u696d\u52d9","client_name":"\u56fd\u571f\u4ea4\u901a\u7701\u5317\u9678\u5730\u65b9\u6574\u5099\u5c40\u677e\u672c\u7802\u9632\u4e8b\u52d9\u6240","boring_xml_url":47,"boring_view_url":1,"soilmap_view_url":null,"soiltest_xml_url":0,"soiltest_view_url":0},{"id":107874,"code":"NGIC201800101-0015","latitude":"36.145305555556","longitude":"137.62291666667","source_code":"","project_name":"\u6e6f\u5ddd\u7b2c4\u53f7\u7802\u9632\u5830\u5824\u5de5\u4e8b\u7528\u9053\u8def\u5730\u76e4\u8abf\u67fb","survey_name":"\u5e73\u621030\u5e74\u5ea6\u4fe1\u6fc3\u5ddd\u4e0a\u6d41\u57df\u5730\u8cea\u8abf\u67fb\u696d\u52d9","client_name":"\u56fd\u571f\u4ea4\u901a\u7701\u5317\u9678\u5730\u65b9\u6574\u5099\u5c40\u677e\u672c\u7802\u9632\u4e8b\u52d9\u6240","boring_xml_url":47,"boring_view_url":1,"soilmap_view_url":null,"soiltest_xml_url":0,"soiltest_view_url":0},{"id":107873,"code":"NGIC201800101-0014","latitude":"36.046805555556","longitude":"137.66280555556","source_code":"","project_name":"\u4e8c\u30ce\u6ca2\u7802\u9632\u5830\u5824\u57fa\u790e\u5730\u76e4\u8abf\u67fb","survey_name":"\u5e73\u621030\u5e74\u5ea6\u4fe1\u6fc3\u5ddd\u4e0a\u6d41\u57df\u5730\u8cea\u8abf\u67fb\u696d\u52d9","client_name":"\u56fd\u571f\u4ea4\u901a\u7701\u5317\u9678\u5730\u65b9\u6574\u5099\u5c40\u677e\u672c\u7802\u9632\u4e8b\u52d9\u6240","boring_xml_url":47,"boring_view_url":1,"soilmap_view_url":null,"soiltest_xml_url":0,"soiltest_view_url":0},{"id":107872,"code":"NGIC201800101-0013","latitude":"36.047138888889","longitude":"137.66305555556","source_code":"","project_name":"\u4e8c\u30ce\u6ca2\u7802\u9632\u5830\u5824\u57fa\u790e\u5730\u76e4\u8abf\u67fb","survey_name":"\u5e73\u621030\u5e74\u5ea6\u4fe1\u6fc3\u5ddd\u4e0a\u6d41\u57df\u5730\u8cea\u8abf\u67fb\u696d\u52d9","client_name":"\u56fd\u571f\u4ea4\u901a\u7701\u5317\u9678\u5730\u65b9\u6574\u5099\u5c40\u677e\u672c\u7802\u9632\u4e8b\u52d9\u6240","boring_xml_url":47,"boring_view_url":1,"soilmap_view_url":null,"soiltest_xml_url":0,"soiltest_view_url":0},{"id":107871,"code":"NGIC201800101-0012","latitude":"36.047111111111","longitude":"137.66288888889","source_code":"","project_name":"\u4e8c\u30ce\u6ca2\u7802\u9632\u5830\u5824\u57fa\u790e\u5730\u76e4\u8abf\u67fb","survey_name":"\u5e73\u621030\u5e74\u5ea6\u4fe1\u6fc3\u5ddd\u4e0a\u6d41\u57df\u5730\u8cea\u8abf\u67fb\u696d\u52d9","client_name":"\u56fd\u571f\u4ea4\u901a\u7701\u5317\u9678\u5730\u65b9\u6574\u5099\u5c40\u677e\u672c\u7802\u9632\u4e8b\u52d9\u6240","boring_xml_url":47,"boring_view_url":1,"soilmap_view_url":null,"soiltest_xml_url":0,"soiltest_view_url":0},{"id":107870,"code":"NGIC201800101-0011","latitude":"36.047","longitude":"137.66247222222","source_code":"","project_name":"\u4e8c\u30ce\u6ca2\u7802\u9632\u5830\u5824\u57fa\u790e\u5730\u76e4\u8abf\u67fb","survey_name":"\u5e73\u621030\u5e74\u5ea6\u4fe1\u6fc3\u5ddd\u4e0a\u6d41\u57df\u5730\u8cea\u8abf\u67fb\u696d\u52d9","client_name":"\u56fd\u571f\u4ea4\u901a\u7701\u5317\u9678\u5730\u65b9\u6574\u5099\u5c40\u677e\u672c\u7802\u9632\u4e8b\u52d9\u6240","boring_xml_url":47,"boring_view_url":1,"soilmap_view_url":null,"soiltest_xml_url":0,"soiltest_view_url":0},{"id":107869,"code":"NGIC201800101-0010","latitude":"36.047055555556","longitude":"137.66266666667","source_code":"","project_name":"\u4e8c\u30ce\u6ca2\u7802\u9632\u5830\u5824\u57fa\u790e\u5730\u76e4\u8abf\u67fb","survey_name":"\u5e73\u621030\u5e74\u5ea6\u4fe1\u6fc3\u5ddd\u4e0a\u6d41\u57df\u5730\u8cea\u8abf\u67fb\u696d\u52d9","client_name":"\u56fd\u571f\u4ea4\u901a\u7701\u5317\u9678\u5730\u65b9\u6574\u5099\u5c40\u677e\u672c\u7802\u9632\u4e8b\u52d9\u6240","boring_xml_url":47,"boring_view_url":1,"soilmap_view_url":null,"soiltest_xml_url":0,"soiltest_view_url":0},{"id":107868,"code":"NGIC201800101-0009","latitude":"36.056305555556","longitude":"137.6815","source_code":"","project_name":"\u5929\u30f6\u6ca2\u7802\u9632\u5830\u5824\u57fa\u790e\u5730\u76e4\u8abf\u67fb","survey_name":"\u5e73\u621030\u5e74\u5ea6\u4fe1\u6fc3\u5ddd\u4e0a\u6d41\u57df\u5730\u8cea\u8abf\u67fb\u696d\u52d9","client_name":"\u56fd\u571f\u4ea4\u901a\u7701\u5317\u9678\u5730\u65b9\u6574\u5099\u5c40\u677e\u672c\u7802\u9632\u4e8b\u52d9\u6240","boring_xml_url":47,"boring_view_url":1,"soilmap_view_url":null,"soiltest_xml_url":0,"soiltest_view_url":0},{"id":107867,"code":"NGIC201800101-0008","latitude":"36.055888888889","longitude":"137.68938888889","source_code":"","project_name":"\u5c0f\u6ca2\u7802\u9632\u5830\u5824\u57fa\u790e\u5730\u76e4\u8abf\u67fb","survey_name":"\u5e73\u621030\u5e74\u5ea6\u4fe1\u6fc3\u5ddd\u4e0a\u6d41\u57df\u5730\u8cea\u8abf\u67fb\u696d\u52d9","client_name":"\u56fd\u571f\u4ea4\u901a\u7701\u5317\u9678\u5730\u65b9\u6574\u5099\u5c40\u677e\u672c\u7802\u9632\u4e8b\u52d9\u6240","boring_xml_url":47,"boring_view_url":1,"soilmap_view_url":null,"soiltest_xml_url":0,"soiltest_view_url":0},{"id":107866,"code":"NGIC201800101-0007","latitude":"36.055638888889","longitude":"137.68969444444","source_code":"","project_name":"\u5c0f\u6ca2\u7802\u9632\u5830\u5824","survey_name":"\u5e73\u621030\u5e74\u5ea6\u4fe1\u6fc3\u5ddd\u4e0a\u6d41\u57df\u5730\u8cea\u8abf\u67fb\u696d\u52d9","client_name":"\u56fd\u571f\u4ea4\u901a\u7701\u5317\u9678\u5730\u65b9\u6574\u5099\u5c40\u677e\u672c\u7802\u9632\u4e8b\u52d9\u6240","boring_xml_url":47,"boring_view_url":1,"soilmap_view_url":null,"soiltest_xml_url":0,"soiltest_view_url":0},{"id":107865,"code":"NGIC201800101-0006","latitude":"36.056083333333","longitude":"137.69","source_code":"","project_name":"\u5c0f\u6ca2\u7802\u9632\u5830\u5824\u57fa\u790e\u5730\u76e4\u8abf\u67fb","survey_name":"\u5e73\u621030\u5e74\u5ea6\u4fe1\u6fc3\u5ddd\u4e0a\u6d41\u57df\u5730\u8cea\u8abf\u67fb\u696d\u52d9","client_name":"\u56fd\u571f\u4ea4\u901a\u7701\u5317\u9678\u5730\u65b9\u6574\u5099\u5c40\u677e\u672c\u7802\u9632\u4e8b\u52d9\u6240","boring_xml_url":47,"boring_view_url":1,"soilmap_view_url":null,"soiltest_xml_url":0,"soiltest_view_url":0},{"id":107864,"code":"NGIC201800101-0005","latitude":"36.055833333333","longitude":"137.68983333333","source_code":"","project_name":"\u5c0f\u6ca2\u7802\u9632\u5830\u5824\u57fa\u790e\u5730\u76e4\u8abf\u67fb","survey_name":"\u5e73\u621030\u5e74\u5ea6\u4fe1\u6fc3\u5ddd\u4e0a\u6d41\u57df\u5730\u8cea\u8abf\u67fb\u696d\u52d9","client_name":"\u56fd\u571f\u4ea4\u901a\u7701\u5317\u9678\u5730\u65b9\u6574\u5099\u5c40\u677e\u672c\u7802\u9632\u4e8b\u52d9\u6240","boring_xml_url":47,"boring_view_url":1,"soilmap_view_url":null,"soiltest_xml_url":0,"soiltest_view_url":0},{"id":107863,"code":"NGIC201800101-0004","latitude":"36.603777777778","longitude":"137.79283333333","source_code":"","project_name":"\u5927\u51b7\u4e0a\u6d41\u7802\u9632\u5830\u5824\u57fa\u790e\u5730\u76e4\u8abf\u67fb","survey_name":"\u5e73\u621030\u5e74\u5ea6\u4fe1\u6fc3\u5ddd\u4e0a\u6d41\u57df\u5730\u8cea\u8abf\u67fb\u696d\u52d9","client_name":"\u56fd\u571f\u4ea4\u901a\u7701\u5317\u9678\u5730\u65b9\u6574\u5099\u5c40\u677e\u672c\u7802\u9632\u4e8b\u52d9\u6240","boring_xml_url":47,"boring_view_url":1,"soilmap_view_url":null,"soiltest_xml_url":0,"soiltest_view_url":0},{"id":107862,"code":"NGIC201800101-0003","latitude":"36.604638888889","longitude":"137.79344444444","source_code":"","project_name":"\u5927\u51b7\u4e0a\u6d41\u7802\u9632\u5830\u5824\u57fa\u790e\u5730\u76e4\u8abf\u67fb","survey_name":"\u5e73\u621030\u5e74\u5ea6\u4fe1\u6fc3\u5ddd\u4e0a\u6d41\u57df\u5730\u8cea\u8abf\u67fb\u696d\u52d9","client_name":"\u56fd\u571f\u4ea4\u901a\u7701\u5317\u9678\u5730\u65b9\u6574\u5099\u5c40\u677e\u672c\u7802\u9632\u4e8b\u52d9\u6240","boring_xml_url":47,"boring_view_url":1,"soilmap_view_url":null,"soiltest_xml_url":0,"soiltest_view_url":0},{"id":107861,"code":"NGIC201800101-0002","latitude":"36.603861111111","longitude":"137.79291666667","source_code":"","project_name":"\u5927\u51b7\u4e0a\u6d41\u7802\u9632\u5830\u5824\u57fa\u790e\u5730\u76e4\u8abf\u67fb","survey_name":"\u5e73\u621030\u5e74\u5ea6\u4fe1\u6fc3\u5ddd\u4e0a\u6d41\u57df\u5730\u8cea\u8abf\u67fb\u696d\u52d9","client_name":"\u56fd\u571f\u4ea4\u901a\u7701\u5317\u9678\u5730\u65b9\u6574\u5099\u5c40\u677e\u672c\u7802\u9632\u4e8b\u52d9\u6240","boring_xml_url":47,"boring_view_url":1,"soilmap_view_url":null,"soiltest_xml_url":0,"soiltest_view_url":0},{"id":107860,"code":"NGIC201800101-0001","latitude":"36.604194444444","longitude":"137.79313888889","source_code":"","project_name":"\u5927\u51b7\u4e0a\u6d41\u7802\u9632\u5830\u5824\u57fa\u790e\u5730\u76e4\u8abf\u67fb","survey_name":"\u5e73\u621030\u5e74\u5ea6\u4fe1\u6fc3\u5ddd\u4e0a\u6d41\u57df\u5730\u8cea\u8abf\u67fb\u696d\u52d9","client_name":"\u56fd\u571f\u4ea4\u901a\u7701\u5317\u9678\u5730\u65b9\u6574\u5099\u5c40\u677e\u672c\u7802\u9632\u4e8b\u52d9\u6240","boring_xml_url":47,"boring_view_url":1,"soilmap_view_url":null,"soiltest_xml_url":0,"soiltest_view_url":0}]}}