{"header":{"xyz":{"source":[],"mosaic":false},"page":708,"raw":{"soiltest_result":"0","bbox":"57.598333,109.544722,1.933333,163.806111","page":"708"},"conditions":{"soiltest_result":0,"north":57.598333,"west":109.544722,"south":1.933333,"east":163.806111},"success":true,"message":""},"data":{"meta":{"total":212844,"page":708,"pages":7095,"count":30},"values":[{"id":524178,"code":"B4KJ202201002-6714","latitude":"33.858584","longitude":"133.782546","source_code":"018830612000500002","project_name":"\u5e73\u621013\u5e74\u5ea6\u3000\u5927\u6b69\u5371\u5730\u533a\u59161\u4ef6\u5730\u8cea\u8abf\u67fb\u696d\u52d9","survey_name":"\u5e73\u621013\u5e74\u5ea6\u3000\u5927\u6b69\u5371\u5730\u533a\u59161\u4ef6\u5730\u8cea\u8abf\u67fb\u696d\u52d9","client_name":"\u56fd\u571f\u4ea4\u901a\u7701\u3000\u56db\u56fd\u5730\u65b9\u6574\u5099\u5c40\u3000\u5fb3\u5cf6\u5de5\u4e8b\u4e8b\u52d9\u6240","boring_xml_url":64,"boring_view_url":1,"soilmap_view_url":null,"soiltest_xml_url":0,"soiltest_view_url":0},{"id":524177,"code":"B4KJ202201002-6713","latitude":"33.858417","longitude":"133.782454","source_code":"018830612000500001","project_name":"\u5e73\u621013\u5e74\u5ea6\u3000\u5927\u6b69\u5371\u5730\u533a\u59161\u4ef6\u5730\u8cea\u8abf\u67fb\u696d\u52d9","survey_name":"\u5e73\u621013\u5e74\u5ea6\u3000\u5927\u6b69\u5371\u5730\u533a\u59161\u4ef6\u5730\u8cea\u8abf\u67fb\u696d\u52d9","client_name":"\u56fd\u571f\u4ea4\u901a\u7701\u3000\u56db\u56fd\u5730\u65b9\u6574\u5099\u5c40\u3000\u5fb3\u5cf6\u5de5\u4e8b\u4e8b\u52d9\u6240","boring_xml_url":64,"boring_view_url":1,"soilmap_view_url":null,"soiltest_xml_url":0,"soiltest_view_url":0},{"id":524176,"code":"B4KJ202201002-6712","latitude":"33.774148","longitude":"134.581403","source_code":"018830612000450017","project_name":"\u65e5\u548c\u4f50\u9053\u8def","survey_name":"\u5e73\u621013\u5e74\u5ea6\u3000\u65e5\u548c\u4f50\u9053\u8def\u5730\u8cea\u8abf\u67fb\u305d\u306e3\u696d\u52d9","client_name":"\u56fd\u571f\u4ea4\u901a\u7701\u3000\u56db\u56fd\u5730\u65b9\u6574\u5099\u5c40\u3000\u5fb3\u5cf6\u5de5\u4e8b\u4e8b\u52d9\u6240","boring_xml_url":64,"boring_view_url":1,"soilmap_view_url":null,"soiltest_xml_url":0,"soiltest_view_url":0},{"id":524175,"code":"B4KJ202201002-6711","latitude":"33.774029","longitude":"134.581376","source_code":"018830612000450016","project_name":"\u65e5\u548c\u4f50\u9053\u8def","survey_name":"\u5e73\u621013\u5e74\u5ea6\u3000\u65e5\u548c\u4f50\u9053\u8def\u5730\u8cea\u8abf\u67fb\u305d\u306e3\u696d\u52d9","client_name":"\u56fd\u571f\u4ea4\u901a\u7701\u3000\u56db\u56fd\u5730\u65b9\u6574\u5099\u5c40\u3000\u5fb3\u5cf6\u5de5\u4e8b\u4e8b\u52d9\u6240","boring_xml_url":64,"boring_view_url":1,"soilmap_view_url":null,"soiltest_xml_url":0,"soiltest_view_url":0},{"id":524174,"code":"B4KJ202201002-6710","latitude":"33.79736","longitude":"134.592536","source_code":"018830612000450015","project_name":"\u65e5\u548c\u4f50\u9053\u8def","survey_name":"\u5e73\u621013\u5e74\u5ea6\u3000\u65e5\u548c\u4f50\u9053\u8def\u5730\u8cea\u8abf\u67fb\u305d\u306e3\u696d\u52d9","client_name":"\u56fd\u571f\u4ea4\u901a\u7701\u3000\u56db\u56fd\u5730\u65b9\u6574\u5099\u5c40\u3000\u5fb3\u5cf6\u5de5\u4e8b\u4e8b\u52d9\u6240","boring_xml_url":64,"boring_view_url":1,"soilmap_view_url":null,"soiltest_xml_url":0,"soiltest_view_url":0},{"id":524173,"code":"B4KJ202201002-6709","latitude":"33.79764","longitude":"134.592552","source_code":"018830612000450014","project_name":"\u65e5\u548c\u4f50\u9053\u8def","survey_name":"\u5e73\u621013\u5e74\u5ea6\u3000\u65e5\u548c\u4f50\u9053\u8def\u5730\u8cea\u8abf\u67fb\u305d\u306e3\u696d\u52d9","client_name":"\u56fd\u571f\u4ea4\u901a\u7701\u3000\u56db\u56fd\u5730\u65b9\u6574\u5099\u5c40\u3000\u5fb3\u5cf6\u5de5\u4e8b\u4e8b\u52d9\u6240","boring_xml_url":64,"boring_view_url":1,"soilmap_view_url":null,"soiltest_xml_url":0,"soiltest_view_url":0},{"id":524172,"code":"B4KJ202201002-6708","latitude":"33.77583","longitude":"134.583735","source_code":"018830612000450013","project_name":"\u65e5\u548c\u4f50\u9053\u8def","survey_name":"\u5e73\u621013\u5e74\u5ea6\u3000\u65e5\u548c\u4f50\u9053\u8def\u5730\u8cea\u8abf\u67fb\u305d\u306e3\u696d\u52d9","client_name":"\u56fd\u571f\u4ea4\u901a\u7701\u3000\u56db\u56fd\u5730\u65b9\u6574\u5099\u5c40\u3000\u5fb3\u5cf6\u5de5\u4e8b\u4e8b\u52d9\u6240","boring_xml_url":64,"boring_view_url":1,"soilmap_view_url":null,"soiltest_xml_url":0,"soiltest_view_url":0},{"id":524171,"code":"B4KJ202201002-6707","latitude":"33.745611","longitude":"134.537275","source_code":"018830612000450012","project_name":"\u65e5\u548c\u4f50\u9053\u8def","survey_name":"\u5e73\u621013\u5e74\u5ea6\u3000\u65e5\u548c\u4f50\u9053\u8def\u5730\u8cea\u8abf\u67fb\u305d\u306e3\u696d\u52d9","client_name":"\u56fd\u571f\u4ea4\u901a\u7701\u3000\u56db\u56fd\u5730\u65b9\u6574\u5099\u5c40\u3000\u5fb3\u5cf6\u5de5\u4e8b\u4e8b\u52d9\u6240","boring_xml_url":64,"boring_view_url":1,"soilmap_view_url":null,"soiltest_xml_url":0,"soiltest_view_url":0},{"id":524170,"code":"B4KJ202201002-6706","latitude":"33.745689","longitude":"134.537185","source_code":"018830612000450011","project_name":"\u65e5\u548c\u4f50\u9053\u8def","survey_name":"\u5e73\u621013\u5e74\u5ea6\u3000\u65e5\u548c\u4f50\u9053\u8def\u5730\u8cea\u8abf\u67fb\u305d\u306e3\u696d\u52d9","client_name":"\u56fd\u571f\u4ea4\u901a\u7701\u3000\u56db\u56fd\u5730\u65b9\u6574\u5099\u5c40\u3000\u5fb3\u5cf6\u5de5\u4e8b\u4e8b\u52d9\u6240","boring_xml_url":64,"boring_view_url":1,"soilmap_view_url":null,"soiltest_xml_url":0,"soiltest_view_url":0},{"id":524169,"code":"B4KJ202201002-6705","latitude":"33.746104","longitude":"134.537796","source_code":"018830612000450010","project_name":"\u65e5\u548c\u4f50\u9053\u8def\u5730\u8cea\u8abf\u67fb","survey_name":"\u5e73\u621013\u5e74\u5ea6\u3000\u65e5\u548c\u4f50\u9053\u8def\u5730\u8cea\u8abf\u67fb\u305d\u306e3\u696d\u52d9","client_name":"\u56fd\u571f\u4ea4\u901a\u7701\u3000\u56db\u56fd\u5730\u65b9\u6574\u5099\u5c40\u3000\u5fb3\u5cf6\u5de5\u4e8b\u4e8b\u52d9\u6240","boring_xml_url":64,"boring_view_url":1,"soilmap_view_url":null,"soiltest_xml_url":0,"soiltest_view_url":0},{"id":524168,"code":"B4KJ202201002-6704","latitude":"33.746183","longitude":"134.537706","source_code":"018830612000450009","project_name":"\u65e5\u548c\u4f50\u9053\u8def\u5730\u8cea\u8abf","survey_name":"\u5e73\u621013\u5e74\u5ea6\u3000\u65e5\u548c\u4f50\u9053\u8def\u5730\u8cea\u8abf\u67fb\u305d\u306e3\u696d\u52d9","client_name":"\u56fd\u571f\u4ea4\u901a\u7701\u3000\u56db\u56fd\u5730\u65b9\u6574\u5099\u5c40\u3000\u5fb3\u5cf6\u5de5\u4e8b\u4e8b\u52d9\u6240","boring_xml_url":64,"boring_view_url":1,"soilmap_view_url":null,"soiltest_xml_url":0,"soiltest_view_url":0},{"id":524167,"code":"B4KJ202201002-6703","latitude":"33.779429","longitude":"134.586552","source_code":"018830612000450008","project_name":"\u65e5\u548c\u4f50\u9053\u8def","survey_name":"\u5e73\u621013\u5e74\u5ea6\u3000\u65e5\u548c\u4f50\u9053\u8def\u5730\u8cea\u8abf\u67fb\u305d\u306e3\u696d\u52d9","client_name":"\u56fd\u571f\u4ea4\u901a\u7701\u3000\u56db\u56fd\u5730\u65b9\u6574\u5099\u5c40\u3000\u5fb3\u5cf6\u5de5\u4e8b\u4e8b\u52d9\u6240","boring_xml_url":64,"boring_view_url":1,"soilmap_view_url":null,"soiltest_xml_url":0,"soiltest_view_url":0},{"id":524166,"code":"B4KJ202201002-6702","latitude":"33.779423","longitude":"134.58676","source_code":"018830612000450007","project_name":"\u65e5\u548c\u4f50\u9053\u8def","survey_name":"\u5e73\u621013\u5e74\u5ea6\u3000\u65e5\u548c\u4f50\u9053\u8def\u5730\u8cea\u8abf\u67fb\u305d\u306e3\u696d\u52d9","client_name":"\u56fd\u571f\u4ea4\u901a\u7701\u3000\u56db\u56fd\u5730\u65b9\u6574\u5099\u5c40\u3000\u5fb3\u5cf6\u5de5\u4e8b\u4e8b\u52d9\u6240","boring_xml_url":64,"boring_view_url":1,"soilmap_view_url":null,"soiltest_xml_url":0,"soiltest_view_url":0},{"id":524165,"code":"B4KJ202201002-6701","latitude":"33.779735","longitude":"134.58678","source_code":"018830612000450006","project_name":"\u65e5\u548c\u4f50\u9053\u8def","survey_name":"\u5e73\u621013\u5e74\u5ea6\u3000\u65e5\u548c\u4f50\u9053\u8def\u5730\u8cea\u8abf\u67fb\u305d\u306e3\u696d\u52d9","client_name":"\u56fd\u571f\u4ea4\u901a\u7701\u3000\u56db\u56fd\u5730\u65b9\u6574\u5099\u5c40\u3000\u5fb3\u5cf6\u5de5\u4e8b\u4e8b\u52d9\u6240","boring_xml_url":64,"boring_view_url":1,"soilmap_view_url":null,"soiltest_xml_url":0,"soiltest_view_url":0},{"id":524164,"code":"B4KJ202201002-6700","latitude":"33.779766","longitude":"134.586936","source_code":"018830612000450005","project_name":"\u65e5\u548c\u4f50\u9053\u8def","survey_name":"\u5e73\u621013\u5e74\u5ea6\u3000\u65e5\u548c\u4f50\u9053\u8def\u5730\u8cea\u8abf\u67fb\u305d\u306e3\u696d\u52d9","client_name":"\u56fd\u571f\u4ea4\u901a\u7701\u3000\u56db\u56fd\u5730\u65b9\u6574\u5099\u5c40\u3000\u5fb3\u5cf6\u5de5\u4e8b\u4e8b\u52d9\u6240","boring_xml_url":64,"boring_view_url":1,"soilmap_view_url":null,"soiltest_xml_url":0,"soiltest_view_url":0},{"id":524163,"code":"B4KJ202201002-6699","latitude":"33.780258","longitude":"134.587116","source_code":"018830612000450004","project_name":"\u65e5\u548c\u4f50\u9053\u8def","survey_name":"\u5e73\u621013\u5e74\u5ea6\u3000\u65e5\u548c\u4f50\u9053\u8def\u5730\u8cea\u8abf\u67fb\u305d\u306e3\u696d\u52d9","client_name":"\u56fd\u571f\u4ea4\u901a\u7701\u3000\u56db\u56fd\u5730\u65b9\u6574\u5099\u5c40\u3000\u5fb3\u5cf6\u5de5\u4e8b\u4e8b\u52d9\u6240","boring_xml_url":64,"boring_view_url":1,"soilmap_view_url":null,"soiltest_xml_url":0,"soiltest_view_url":0},{"id":524162,"code":"B4KJ202201002-6698","latitude":"33.780541","longitude":"134.58728","source_code":"018830612000450003","project_name":"\u65e5\u548c\u4f50\u9053\u8def","survey_name":"\u5e73\u621013\u5e74\u5ea6\u3000\u65e5\u548c\u4f50\u9053\u8def\u5730\u8cea\u8abf\u67fb\u305d\u306e3\u696d\u52d9","client_name":"\u56fd\u571f\u4ea4\u901a\u7701\u3000\u56db\u56fd\u5730\u65b9\u6574\u5099\u5c40\u3000\u5fb3\u5cf6\u5de5\u4e8b\u4e8b\u52d9\u6240","boring_xml_url":64,"boring_view_url":1,"soilmap_view_url":null,"soiltest_xml_url":0,"soiltest_view_url":0},{"id":524161,"code":"B4KJ202201002-6697","latitude":"33.780492","longitude":"134.58742","source_code":"018830612000450002","project_name":"\u65e5\u548c\u4f50\u9053\u8def","survey_name":"\u5e73\u621013\u5e74\u5ea6\u3000\u65e5\u548c\u4f50\u9053\u8def\u5730\u8cea\u8abf\u67fb\u305d\u306e3\u696d\u52d9","client_name":"\u56fd\u571f\u4ea4\u901a\u7701\u3000\u56db\u56fd\u5730\u65b9\u6574\u5099\u5c40\u3000\u5fb3\u5cf6\u5de5\u4e8b\u4e8b\u52d9\u6240","boring_xml_url":64,"boring_view_url":1,"soilmap_view_url":null,"soiltest_xml_url":0,"soiltest_view_url":0},{"id":524160,"code":"B4KJ202201002-6696","latitude":"33.780605","longitude":"134.58732","source_code":"018830612000450001","project_name":"\u65e5\u548c\u4f50\u9053\u8def","survey_name":"\u5e73\u621013\u5e74\u5ea6\u3000\u65e5\u548c\u4f50\u9053\u8def\u5730\u8cea\u8abf\u67fb\u305d\u306e3\u696d\u52d9","client_name":"\u56fd\u571f\u4ea4\u901a\u7701\u3000\u56db\u56fd\u5730\u65b9\u6574\u5099\u5c40\u3000\u5fb3\u5cf6\u5de5\u4e8b\u4e8b\u52d9\u6240","boring_xml_url":64,"boring_view_url":1,"soilmap_view_url":null,"soiltest_xml_url":0,"soiltest_view_url":0},{"id":524159,"code":"B4KJ202201002-6695","latitude":"33.915031","longitude":"134.637379","source_code":"018834402000090002","project_name":"\u5e73\u621013\u5e74\u5ea6\u3000\u6238\u5d0e\u6a0b\u9580\u8a2d\u8a08\u696d\u52d9\u59d4\u8a17","survey_name":"\u5e73\u621013\u5e74\u5ea6\u3000\u6238\u5d0e\u6a0b\u9580\u8a2d\u8a08\u696d\u52d9\u59d4\u8a17","client_name":"\u56fd\u571f\u4ea4\u901a\u7701\u3000\u90a3\u8cc0\u5ddd\u5de5\u4e8b\u4e8b\u52d9\u6240","boring_xml_url":64,"boring_view_url":1,"soilmap_view_url":null,"soiltest_xml_url":0,"soiltest_view_url":0},{"id":524158,"code":"B4KJ202201002-6694","latitude":"33.915129","longitude":"134.637329","source_code":"018834402000090001","project_name":"\u5e73\u621013\u5e74\u5ea6\u3000\u6238\u5d0e\u6a0b\u9580\u8a2d\u8a08\u696d\u52d9\u59d4\u8a17","survey_name":"\u5e73\u621013\u5e74\u5ea6\u3000\u6238\u5d0e\u6a0b\u9580\u8a2d\u8a08\u696d\u52d9\u59d4\u8a17","client_name":"\u56fd\u571f\u4ea4\u901a\u7701\u3000\u90a3\u8cc0\u5ddd\u5de5\u4e8b\u4e8b\u52d9\u6240","boring_xml_url":64,"boring_view_url":1,"soilmap_view_url":null,"soiltest_xml_url":0,"soiltest_view_url":0},{"id":524157,"code":"B4KJ202201002-6693","latitude":"33.011121","longitude":"132.814341","source_code":"028864402000060015","project_name":"","survey_name":"\u5e73\u621014\u5e74\u5ea6\u3000\u6a2a\u702c\u5ddd\u30c0\u30e0\u4ed8\u66ff\u9053\u8def\u5730\u8cea\u8abf\u67fb\u696d\u52d9","client_name":"\u56fd\u571f\u4ea4\u901a\u7701\u56db\u56fd\u5730\u65b9\u6574\u5099\u5c40\u4e2d\u7b4b\u5ddd\u7dcf\u5408\u958b\u767a\u5de5\u4e8b\u4e8b\u52d9\u6240","boring_xml_url":64,"boring_view_url":1,"soilmap_view_url":null,"soiltest_xml_url":0,"soiltest_view_url":0},{"id":524156,"code":"B4KJ202201002-6692","latitude":"33.001567","longitude":"132.828896","source_code":"028864402000060013","project_name":"","survey_name":"\u5e73\u621014\u5e74\u5ea6\u3000\u6a2a\u702c\u5ddd\u30c0\u30e0\u4ed8\u66ff\u9053\u8def\u5730\u8cea\u8abf\u67fb\u696d\u52d9","client_name":"\u56fd\u571f\u4ea4\u901a\u7701\u56db\u56fd\u5730\u65b9\u6574\u5099\u5c40\u4e2d\u7b4b\u5ddd\u7dcf\u5408\u958b\u767a\u5de5\u4e8b\u4e8b\u52d9\u6240","boring_xml_url":64,"boring_view_url":1,"soilmap_view_url":null,"soiltest_xml_url":0,"soiltest_view_url":0},{"id":524155,"code":"B4KJ202201002-6691","latitude":"33.011693","longitude":"132.812305","source_code":"028864402000060011","project_name":"","survey_name":"\u5e73\u621014\u5e74\u5ea6\u3000\u6a2a\u702c\u5ddd\u30c0\u30e0\u4ed8\u66ff\u9053\u8def\u5730\u8cea\u8abf\u67fb\u696d\u52d9","client_name":"\u56fd\u571f\u4ea4\u901a\u7701\u56db\u56fd\u5730\u65b9\u6574\u5099\u5c40\u4e2d\u7b4b\u5ddd\u7dcf\u5408\u958b\u767a\u5de5\u4e8b\u4e8b\u52d9\u6240","boring_xml_url":64,"boring_view_url":1,"soilmap_view_url":null,"soiltest_xml_url":0,"soiltest_view_url":0},{"id":524154,"code":"B4KJ202201002-6690","latitude":"33.011455","longitude":"132.81332","source_code":"028864402000060010","project_name":"","survey_name":"\u5e73\u621014\u5e74\u5ea6\u3000\u6a2a\u702c\u5ddd\u30c0\u30e0\u4ed8\u66ff\u9053\u8def\u5730\u8cea\u8abf\u67fb\u696d\u52d9","client_name":"\u56fd\u571f\u4ea4\u901a\u7701\u56db\u56fd\u5730\u65b9\u6574\u5099\u5c40\u4e2d\u7b4b\u5ddd\u7dcf\u5408\u958b\u767a\u5de5\u4e8b\u4e8b\u52d9\u6240","boring_xml_url":64,"boring_view_url":1,"soilmap_view_url":null,"soiltest_xml_url":0,"soiltest_view_url":0},{"id":524153,"code":"B4KJ202201002-6689","latitude":"33.009766","longitude":"132.817445","source_code":"028864402000060009","project_name":"","survey_name":"\u5e73\u621014\u5e74\u5ea6\u3000\u6a2a\u702c\u5ddd\u30c0\u30e0\u4ed8\u66ff\u9053\u8def\u5730\u8cea\u8abf\u67fb\u696d\u52d9","client_name":"\u56fd\u571f\u4ea4\u901a\u7701\u56db\u56fd\u5730\u65b9\u6574\u5099\u5c40\u4e2d\u7b4b\u5ddd\u7dcf\u5408\u958b\u767a\u5de5\u4e8b\u4e8b\u52d9\u6240","boring_xml_url":64,"boring_view_url":1,"soilmap_view_url":null,"soiltest_xml_url":0,"soiltest_view_url":0},{"id":524152,"code":"B4KJ202201002-6688","latitude":"33.009848","longitude":"132.820096","source_code":"028864402000060008","project_name":"","survey_name":"\u5e73\u621014\u5e74\u5ea6\u3000\u6a2a\u702c\u5ddd\u30c0\u30e0\u4ed8\u66ff\u9053\u8def\u5730\u8cea\u8abf\u67fb\u696d\u52d9","client_name":"\u56fd\u571f\u4ea4\u901a\u7701\u56db\u56fd\u5730\u65b9\u6574\u5099\u5c40\u4e2d\u7b4b\u5ddd\u7dcf\u5408\u958b\u767a\u5de5\u4e8b\u4e8b\u52d9\u6240","boring_xml_url":64,"boring_view_url":1,"soilmap_view_url":null,"soiltest_xml_url":0,"soiltest_view_url":0},{"id":524151,"code":"B4KJ202201002-6687","latitude":"33.009335","longitude":"132.821181","source_code":"028864402000060007","project_name":"","survey_name":"\u5e73\u621014\u5e74\u5ea6\u3000\u6a2a\u702c\u5ddd\u30c0\u30e0\u4ed8\u66ff\u9053\u8def\u5730\u8cea\u8abf\u67fb\u696d\u52d9","client_name":"\u56fd\u571f\u4ea4\u901a\u7701\u56db\u56fd\u5730\u65b9\u6574\u5099\u5c40\u4e2d\u7b4b\u5ddd\u7dcf\u5408\u958b\u767a\u5de5\u4e8b\u4e8b\u52d9\u6240","boring_xml_url":64,"boring_view_url":1,"soilmap_view_url":null,"soiltest_xml_url":0,"soiltest_view_url":0},{"id":524150,"code":"B4KJ202201002-6686","latitude":"33.99802","longitude":"132.827268","source_code":"028864402000060001","project_name":"","survey_name":"\u5e73\u621014\u5e74\u5ea6\u3000\u6a2a\u702c\u5ddd\u30c0\u30e0\u4ed8\u66ff\u9053\u8def\u5730\u8cea\u8abf\u67fb\u696d\u52d9","client_name":"\u56fd\u571f\u4ea4\u901a\u7701\u56db\u56fd\u5730\u65b9\u6574\u5099\u5c40\u4e2d\u7b4b\u5ddd\u7dcf\u5408\u958b\u767a\u5de5\u4e8b\u4e8b\u52d9\u6240","boring_xml_url":64,"boring_view_url":1,"soilmap_view_url":null,"soiltest_xml_url":0,"soiltest_view_url":0},{"id":524149,"code":"B4KJ202201002-6685","latitude":"33.495097","longitude":"132.545573","source_code":"028851612000230006","project_name":"","survey_name":"\u5e73\u621014\u5e74\u5ea6\u3000\u5927\u6d32\u9053\u8def\u5730\u8cea\u8abf\u67fb\u53ca\u3073\u6e2c\u91cf\u696d\u52d9","client_name":"\u56fd\u571f\u4ea4\u901a\u7701\u56db\u56fd\u5730\u65b9\u6574\u5099\u5c40\u5927\u6d32\u5de5\u4e8b\u4e8b\u52d9\u6240","boring_xml_url":64,"boring_view_url":1,"soilmap_view_url":null,"soiltest_xml_url":0,"soiltest_view_url":0}]}}