{"header":{"xyz":{"source":[],"mosaic":false},"page":712,"raw":{"soiltest_result":"0","bbox":"57.598333,109.544722,1.933333,163.806111","page":"712"},"conditions":{"soiltest_result":0,"north":57.598333,"west":109.544722,"south":1.933333,"east":163.806111},"success":true,"message":""},"data":{"meta":{"total":212844,"page":712,"pages":7095,"count":30},"values":[{"id":524058,"code":"B4KJ202201002-6594","latitude":"34.2474","longitude":"131.091264","source_code":"CG188760420200270023","project_name":"","survey_name":"\u91d1\u30ce\u53e3\u5730\u533a\u5916\u5730\u8cea\u8abf\u67fb\u696d\u52d9","client_name":"\u56fd\u571f\u4ea4\u901a\u7701\u4e2d\u56fd\u5730\u65b9\u6574\u5099\u5c40\u5c71\u53e3\u6cb3\u5ddd\u56fd\u9053\u4e8b\u52d9\u6240","boring_xml_url":68,"boring_view_url":1,"soilmap_view_url":null,"soiltest_xml_url":0,"soiltest_view_url":0},{"id":524057,"code":"B4KJ202201002-6593","latitude":"34.245428","longitude":"131.091219","source_code":"CG188760420200270022","project_name":"","survey_name":"\u91d1\u30ce\u53e3\u5730\u533a\u5916\u5730\u8cea\u8abf\u67fb\u696d\u52d9","client_name":"\u56fd\u571f\u4ea4\u901a\u7701\u4e2d\u56fd\u5730\u65b9\u6574\u5099\u5c40\u5c71\u53e3\u6cb3\u5ddd\u56fd\u9053\u4e8b\u52d9\u6240","boring_xml_url":68,"boring_view_url":1,"soilmap_view_url":null,"soiltest_xml_url":0,"soiltest_view_url":0},{"id":524056,"code":"B4KJ202201002-6592","latitude":"34.243208","longitude":"131.090808","source_code":"CG188760420200270021","project_name":"","survey_name":"\u91d1\u30ce\u53e3\u5730\u533a\u5916\u5730\u8cea\u8abf\u67fb\u696d\u52d9","client_name":"\u56fd\u571f\u4ea4\u901a\u7701\u4e2d\u56fd\u5730\u65b9\u6574\u5099\u5c40\u5c71\u53e3\u6cb3\u5ddd\u56fd\u9053\u4e8b\u52d9\u6240","boring_xml_url":68,"boring_view_url":1,"soilmap_view_url":null,"soiltest_xml_url":0,"soiltest_view_url":0},{"id":524055,"code":"B4KJ202201002-6591","latitude":"34.243164","longitude":"131.091156","source_code":"CG188760420200270020","project_name":"","survey_name":"\u91d1\u30ce\u53e3\u5730\u533a\u5916\u5730\u8cea\u8abf\u67fb\u696d\u52d9","client_name":"\u56fd\u571f\u4ea4\u901a\u7701\u4e2d\u56fd\u5730\u65b9\u6574\u5099\u5c40\u5c71\u53e3\u6cb3\u5ddd\u56fd\u9053\u4e8b\u52d9\u6240","boring_xml_url":68,"boring_view_url":1,"soilmap_view_url":null,"soiltest_xml_url":0,"soiltest_view_url":0},{"id":524054,"code":"B4KJ202201002-6590","latitude":"34.238261","longitude":"131.090475","source_code":"CG188760420200270019","project_name":"","survey_name":"\u91d1\u30ce\u53e3\u5730\u533a\u5916\u5730\u8cea\u8abf\u67fb\u696d\u52d9","client_name":"\u56fd\u571f\u4ea4\u901a\u7701\u4e2d\u56fd\u5730\u65b9\u6574\u5099\u5c40\u5c71\u53e3\u6cb3\u5ddd\u56fd\u9053\u4e8b\u52d9\u6240","boring_xml_url":68,"boring_view_url":1,"soilmap_view_url":null,"soiltest_xml_url":0,"soiltest_view_url":0},{"id":524053,"code":"B4KJ202201002-6589","latitude":"34.238406","longitude":"131.090494","source_code":"CG188760420200270018","project_name":"","survey_name":"\u91d1\u30ce\u53e3\u5730\u533a\u5916\u5730\u8cea\u8abf\u67fb\u696d\u52d9","client_name":"\u56fd\u571f\u4ea4\u901a\u7701\u4e2d\u56fd\u5730\u65b9\u6574\u5099\u5c40\u5c71\u53e3\u6cb3\u5ddd\u56fd\u9053\u4e8b\u52d9\u6240","boring_xml_url":68,"boring_view_url":1,"soilmap_view_url":null,"soiltest_xml_url":0,"soiltest_view_url":0},{"id":524052,"code":"B4KJ202201002-6588","latitude":"34.238044","longitude":"131.089928","source_code":"CG188760420200270017","project_name":"","survey_name":"\u91d1\u30ce\u53e3\u5730\u533a\u5916\u5730\u8cea\u8abf\u67fb\u696d\u52d9","client_name":"\u56fd\u571f\u4ea4\u901a\u7701\u4e2d\u56fd\u5730\u65b9\u6574\u5099\u5c40\u5c71\u53e3\u6cb3\u5ddd\u56fd\u9053\u4e8b\u52d9\u6240","boring_xml_url":68,"boring_view_url":1,"soilmap_view_url":null,"soiltest_xml_url":0,"soiltest_view_url":0},{"id":524051,"code":"B4KJ202201002-6587","latitude":"34.237931","longitude":"131.090719","source_code":"CG188760420200270016","project_name":"","survey_name":"\u91d1\u30ce\u53e3\u5730\u533a\u5916\u5730\u8cea\u8abf\u67fb\u696d\u52d9","client_name":"\u56fd\u571f\u4ea4\u901a\u7701\u4e2d\u56fd\u5730\u65b9\u6574\u5099\u5c40\u5c71\u53e3\u6cb3\u5ddd\u56fd\u9053\u4e8b\u52d9\u6240","boring_xml_url":68,"boring_view_url":1,"soilmap_view_url":null,"soiltest_xml_url":0,"soiltest_view_url":0},{"id":524050,"code":"B4KJ202201002-6586","latitude":"34.236047","longitude":"131.08975","source_code":"CG188760420200270015","project_name":"","survey_name":"\u91d1\u30ce\u53e3\u5730\u533a\u5916\u5730\u8cea\u8abf\u67fb\u696d\u52d9","client_name":"\u56fd\u571f\u4ea4\u901a\u7701\u4e2d\u56fd\u5730\u65b9\u6574\u5099\u5c40\u5c71\u53e3\u6cb3\u5ddd\u56fd\u9053\u4e8b\u52d9\u6240","boring_xml_url":68,"boring_view_url":1,"soilmap_view_url":null,"soiltest_xml_url":0,"soiltest_view_url":0},{"id":524049,"code":"B4KJ202201002-6585","latitude":"34.233869","longitude":"131.088228","source_code":"CG188760420200270014","project_name":"","survey_name":"\u91d1\u30ce\u53e3\u5730\u533a\u5916\u5730\u8cea\u8abf\u67fb\u696d\u52d9","client_name":"\u56fd\u571f\u4ea4\u901a\u7701\u4e2d\u56fd\u5730\u65b9\u6574\u5099\u5c40\u5c71\u53e3\u6cb3\u5ddd\u56fd\u9053\u4e8b\u52d9\u6240","boring_xml_url":68,"boring_view_url":1,"soilmap_view_url":null,"soiltest_xml_url":0,"soiltest_view_url":0},{"id":524048,"code":"B4KJ202201002-6584","latitude":"34.230089","longitude":"131.084197","source_code":"CG188760420200270013","project_name":"","survey_name":"\u91d1\u30ce\u53e3\u5730\u533a\u5916\u5730\u8cea\u8abf\u67fb\u696d\u52d9","client_name":"\u56fd\u571f\u4ea4\u901a\u7701\u4e2d\u56fd\u5730\u65b9\u6574\u5099\u5c40\u5c71\u53e3\u6cb3\u5ddd\u56fd\u9053\u4e8b\u52d9\u6240","boring_xml_url":68,"boring_view_url":1,"soilmap_view_url":null,"soiltest_xml_url":0,"soiltest_view_url":0},{"id":524047,"code":"B4KJ202201002-6583","latitude":"34.229978","longitude":"131.084694","source_code":"CG188760420200270012","project_name":"","survey_name":"\u91d1\u30ce\u53e3\u5730\u533a\u5916\u5730\u8cea\u8abf\u67fb\u696d\u52d9","client_name":"\u56fd\u571f\u4ea4\u901a\u7701\u4e2d\u56fd\u5730\u65b9\u6574\u5099\u5c40\u5c71\u53e3\u6cb3\u5ddd\u56fd\u9053\u4e8b\u52d9\u6240","boring_xml_url":68,"boring_view_url":1,"soilmap_view_url":null,"soiltest_xml_url":0,"soiltest_view_url":0},{"id":524046,"code":"B4KJ202201002-6582","latitude":"34.226897","longitude":"131.080717","source_code":"CG188760420200270011","project_name":"","survey_name":"\u91d1\u30ce\u53e3\u5730\u533a\u5916\u5730\u8cea\u8abf\u67fb\u696d\u52d9","client_name":"\u56fd\u571f\u4ea4\u901a\u7701\u4e2d\u56fd\u5730\u65b9\u6574\u5099\u5c40\u5c71\u53e3\u6cb3\u5ddd\u56fd\u9053\u4e8b\u52d9\u6240","boring_xml_url":68,"boring_view_url":1,"soilmap_view_url":null,"soiltest_xml_url":0,"soiltest_view_url":0},{"id":524045,"code":"B4KJ202201002-6581","latitude":"34.226614","longitude":"131.080708","source_code":"CG188760420200270010","project_name":"","survey_name":"\u91d1\u30ce\u53e3\u5730\u533a\u5916\u5730\u8cea\u8abf\u67fb\u696d\u52d9","client_name":"\u56fd\u571f\u4ea4\u901a\u7701\u4e2d\u56fd\u5730\u65b9\u6574\u5099\u5c40\u5c71\u53e3\u6cb3\u5ddd\u56fd\u9053\u4e8b\u52d9\u6240","boring_xml_url":68,"boring_view_url":1,"soilmap_view_url":null,"soiltest_xml_url":0,"soiltest_view_url":0},{"id":524044,"code":"B4KJ202201002-6580","latitude":"34.285975","longitude":"131.104944","source_code":"CG188760420200270009","project_name":"","survey_name":"\u91d1\u30ce\u53e3\u5730\u533a\u5916\u5730\u8cea\u8abf\u67fb\u696d\u52d9","client_name":"\u56fd\u571f\u4ea4\u901a\u7701\u4e2d\u56fd\u5730\u65b9\u6574\u5099\u5c40\u5c71\u53e3\u6cb3\u5ddd\u56fd\u9053\u4e8b\u52d9\u6240","boring_xml_url":68,"boring_view_url":1,"soilmap_view_url":null,"soiltest_xml_url":0,"soiltest_view_url":0},{"id":524043,"code":"B4KJ202201002-6579","latitude":"34.285828","longitude":"131.105506","source_code":"CG188760420200270008","project_name":"","survey_name":"\u91d1\u30ce\u53e3\u5730\u533a\u5916\u5730\u8cea\u8abf\u67fb\u696d\u52d9","client_name":"\u56fd\u571f\u4ea4\u901a\u7701\u4e2d\u56fd\u5730\u65b9\u6574\u5099\u5c40\u5c71\u53e3\u6cb3\u5ddd\u56fd\u9053\u4e8b\u52d9\u6240","boring_xml_url":68,"boring_view_url":1,"soilmap_view_url":null,"soiltest_xml_url":0,"soiltest_view_url":0},{"id":524042,"code":"B4KJ202201002-6578","latitude":"34.285969","longitude":"131.105614","source_code":"CG188760420200270007","project_name":"","survey_name":"\u91d1\u30ce\u53e3\u5730\u533a\u5916\u5730\u8cea\u8abf\u67fb\u696d\u52d9","client_name":"\u56fd\u571f\u4ea4\u901a\u7701\u4e2d\u56fd\u5730\u65b9\u6574\u5099\u5c40\u5c71\u53e3\u6cb3\u5ddd\u56fd\u9053\u4e8b\u52d9\u6240","boring_xml_url":68,"boring_view_url":1,"soilmap_view_url":null,"soiltest_xml_url":0,"soiltest_view_url":0},{"id":524041,"code":"B4KJ202201002-6577","latitude":"34.2861","longitude":"131.105692","source_code":"CG188760420200270006","project_name":"","survey_name":"\u91d1\u30ce\u53e3\u5730\u533a\u5916\u5730\u8cea\u8abf\u67fb\u696d\u52d9","client_name":"\u56fd\u571f\u4ea4\u901a\u7701\u4e2d\u56fd\u5730\u65b9\u6574\u5099\u5c40\u5c71\u53e3\u6cb3\u5ddd\u56fd\u9053\u4e8b\u52d9\u6240","boring_xml_url":68,"boring_view_url":1,"soilmap_view_url":null,"soiltest_xml_url":0,"soiltest_view_url":0},{"id":524040,"code":"B4KJ202201002-6576","latitude":"34.286042","longitude":"131.106056","source_code":"CG188760420200270005","project_name":"","survey_name":"\u91d1\u30ce\u53e3\u5730\u533a\u5916\u5730\u8cea\u8abf\u67fb\u696d\u52d9","client_name":"\u56fd\u571f\u4ea4\u901a\u7701\u4e2d\u56fd\u5730\u65b9\u6574\u5099\u5c40\u5c71\u53e3\u6cb3\u5ddd\u56fd\u9053\u4e8b\u52d9\u6240","boring_xml_url":68,"boring_view_url":1,"soilmap_view_url":null,"soiltest_xml_url":0,"soiltest_view_url":0},{"id":524039,"code":"B4KJ202201002-6575","latitude":"34.277192","longitude":"131.100358","source_code":"CG188760420200270004","project_name":"","survey_name":"\u91d1\u30ce\u53e3\u5730\u533a\u5916\u5730\u8cea\u8abf\u67fb\u696d\u52d9","client_name":"\u56fd\u571f\u4ea4\u901a\u7701\u4e2d\u56fd\u5730\u65b9\u6574\u5099\u5c40\u5c71\u53e3\u6cb3\u5ddd\u56fd\u9053\u4e8b\u52d9\u6240","boring_xml_url":68,"boring_view_url":1,"soilmap_view_url":null,"soiltest_xml_url":0,"soiltest_view_url":0},{"id":524038,"code":"B4KJ202201002-6574","latitude":"34.277192","longitude":"131.100358","source_code":"CG188760420200270003","project_name":"","survey_name":"\u91d1\u30ce\u53e3\u5730\u533a\u5916\u5730\u8cea\u8abf\u67fb\u696d\u52d9","client_name":"\u56fd\u571f\u4ea4\u901a\u7701\u4e2d\u56fd\u5730\u65b9\u6574\u5099\u5c40\u5c71\u53e3\u6cb3\u5ddd\u56fd\u9053\u4e8b\u52d9\u6240","boring_xml_url":68,"boring_view_url":1,"soilmap_view_url":null,"soiltest_xml_url":0,"soiltest_view_url":0},{"id":524037,"code":"B4KJ202201002-6573","latitude":"34.276967","longitude":"131.101047","source_code":"CG188760420200270002","project_name":"","survey_name":"\u91d1\u30ce\u53e3\u5730\u533a\u5916\u5730\u8cea\u8abf\u67fb\u696d\u52d9","client_name":"\u56fd\u571f\u4ea4\u901a\u7701\u4e2d\u56fd\u5730\u65b9\u6574\u5099\u5c40\u5c71\u53e3\u6cb3\u5ddd\u56fd\u9053\u4e8b\u52d9\u6240","boring_xml_url":68,"boring_view_url":1,"soilmap_view_url":null,"soiltest_xml_url":0,"soiltest_view_url":0},{"id":524036,"code":"B4KJ202201002-6572","latitude":"34.276967","longitude":"131.101047","source_code":"CG188760420200270001","project_name":"","survey_name":"\u91d1\u30ce\u53e3\u5730\u533a\u5916\u5730\u8cea\u8abf\u67fb\u696d\u52d9","client_name":"\u56fd\u571f\u4ea4\u901a\u7701\u4e2d\u56fd\u5730\u65b9\u6574\u5099\u5c40\u5c71\u53e3\u6cb3\u5ddd\u56fd\u9053\u4e8b\u52d9\u6240","boring_xml_url":68,"boring_view_url":1,"soilmap_view_url":null,"soiltest_xml_url":0,"soiltest_view_url":0},{"id":524035,"code":"B4KJ202201002-6571","latitude":"34.528614","longitude":"131.496581","source_code":"CG188760420200220036","project_name":"","survey_name":"\u6728\u4e0e\u9632\u707d\u5730\u8cea\u89e3\u6790\u8abf\u67fb\u696d\u52d9","client_name":"\u56fd\u571f\u4ea4\u901a\u7701\u4e2d\u56fd\u5730\u65b9\u6574\u5099\u5c40\u5c71\u53e3\u6cb3\u5ddd\u56fd\u9053\u4e8b\u52d9\u6240","boring_xml_url":68,"boring_view_url":1,"soilmap_view_url":null,"soiltest_xml_url":0,"soiltest_view_url":0},{"id":524034,"code":"B4KJ202201002-6570","latitude":"34.536903","longitude":"131.507714","source_code":"CG188760420200220035","project_name":"","survey_name":"\u6728\u4e0e\u9632\u707d\u5730\u8cea\u89e3\u6790\u8abf\u67fb\u696d\u52d9","client_name":"\u56fd\u571f\u4ea4\u901a\u7701\u4e2d\u56fd\u5730\u65b9\u6574\u5099\u5c40\u5c71\u53e3\u6cb3\u5ddd\u56fd\u9053\u4e8b\u52d9\u6240","boring_xml_url":68,"boring_view_url":1,"soilmap_view_url":null,"soiltest_xml_url":0,"soiltest_view_url":0},{"id":524033,"code":"B4KJ202201002-6569","latitude":"34.536586","longitude":"131.514689","source_code":"CG188760420200220034","project_name":"","survey_name":"\u6728\u4e0e\u9632\u707d\u5730\u8cea\u89e3\u6790\u8abf\u67fb\u696d\u52d9","client_name":"\u56fd\u571f\u4ea4\u901a\u7701\u4e2d\u56fd\u5730\u65b9\u6574\u5099\u5c40\u5c71\u53e3\u6cb3\u5ddd\u56fd\u9053\u4e8b\u52d9\u6240","boring_xml_url":68,"boring_view_url":1,"soilmap_view_url":null,"soiltest_xml_url":0,"soiltest_view_url":0},{"id":524032,"code":"B4KJ202201002-6568","latitude":"34.5384","longitude":"131.506567","source_code":"CG188760420200220033","project_name":"","survey_name":"\u6728\u4e0e\u9632\u707d\u5730\u8cea\u89e3\u6790\u8abf\u67fb\u696d\u52d9","client_name":"\u56fd\u571f\u4ea4\u901a\u7701\u4e2d\u56fd\u5730\u65b9\u6574\u5099\u5c40\u5c71\u53e3\u6cb3\u5ddd\u56fd\u9053\u4e8b\u52d9\u6240","boring_xml_url":68,"boring_view_url":1,"soilmap_view_url":null,"soiltest_xml_url":0,"soiltest_view_url":0},{"id":524031,"code":"B4KJ202201002-6567","latitude":"34.553869","longitude":"131.520494","source_code":"CG188760420200220032","project_name":"","survey_name":"\u6728\u4e0e\u9632\u707d\u5730\u8cea\u89e3\u6790\u8abf\u67fb\u696d\u52d9","client_name":"\u56fd\u571f\u4ea4\u901a\u7701\u4e2d\u56fd\u5730\u65b9\u6574\u5099\u5c40\u5c71\u53e3\u6cb3\u5ddd\u56fd\u9053\u4e8b\u52d9\u6240","boring_xml_url":68,"boring_view_url":1,"soilmap_view_url":null,"soiltest_xml_url":0,"soiltest_view_url":0},{"id":524030,"code":"B4KJ202201002-6566","latitude":"34.551658","longitude":"131.525883","source_code":"CG188760420200220031","project_name":"","survey_name":"\u6728\u4e0e\u9632\u707d\u5730\u8cea\u89e3\u6790\u8abf\u67fb\u696d\u52d9","client_name":"\u56fd\u571f\u4ea4\u901a\u7701\u4e2d\u56fd\u5730\u65b9\u6574\u5099\u5c40\u5c71\u53e3\u6cb3\u5ddd\u56fd\u9053\u4e8b\u52d9\u6240","boring_xml_url":68,"boring_view_url":1,"soilmap_view_url":null,"soiltest_xml_url":0,"soiltest_view_url":0},{"id":524029,"code":"B4KJ202201002-6565","latitude":"34.551342","longitude":"131.526164","source_code":"CG188760420200220030","project_name":"","survey_name":"\u6728\u4e0e\u9632\u707d\u5730\u8cea\u89e3\u6790\u8abf\u67fb\u696d\u52d9","client_name":"\u56fd\u571f\u4ea4\u901a\u7701\u4e2d\u56fd\u5730\u65b9\u6574\u5099\u5c40\u5c71\u53e3\u6cb3\u5ddd\u56fd\u9053\u4e8b\u52d9\u6240","boring_xml_url":68,"boring_view_url":1,"soilmap_view_url":null,"soiltest_xml_url":0,"soiltest_view_url":0}]}}