{"header":{"xyz":{"source":[],"mosaic":false},"page":722,"raw":{"soiltest_result":"0","bbox":"57.598333,109.544722,1.933333,163.806111","page":"722"},"conditions":{"soiltest_result":0,"north":57.598333,"west":109.544722,"south":1.933333,"east":163.806111},"success":true,"message":""},"data":{"meta":{"total":212844,"page":722,"pages":7095,"count":30},"values":[{"id":523758,"code":"B4KJ202201002-6294","latitude":"34.742269","longitude":"131.877542","source_code":"CG188737390200120009","project_name":"","survey_name":"\u4e09\u9685\u30fb\u76ca\u7530\u9053\u8def\u5916\u5730\u8cea\u8abf\u67fb\u696d\u52d9","client_name":"\u56fd\u571f\u4ea4\u901a\u7701\u3000\u4e2d\u56fd\u5730\u65b9\u6574\u5099\u5c40\u3000\u6d5c\u7530\u6cb3\u5ddd\u56fd\u9053\u4e8b\u52d9\u6240","boring_xml_url":68,"boring_view_url":1,"soilmap_view_url":null,"soiltest_xml_url":0,"soiltest_view_url":0},{"id":523757,"code":"B4KJ202201002-6293","latitude":"34.742539","longitude":"131.877532","source_code":"CG188737390200120008","project_name":"","survey_name":"\u4e09\u9685\u30fb\u76ca\u7530\u9053\u8def\u5916\u5730\u8cea\u8abf\u67fb\u696d\u52d9","client_name":"\u56fd\u571f\u4ea4\u901a\u7701\u3000\u4e2d\u56fd\u5730\u65b9\u6574\u5099\u5c40\u3000\u6d5c\u7530\u6cb3\u5ddd\u56fd\u9053\u4e8b\u52d9\u6240","boring_xml_url":68,"boring_view_url":1,"soilmap_view_url":null,"soiltest_xml_url":0,"soiltest_view_url":0},{"id":523756,"code":"B4KJ202201002-6292","latitude":"34.741662","longitude":"131.877388","source_code":"CG188737390200120007","project_name":"","survey_name":"\u4e09\u9685\u30fb\u76ca\u7530\u9053\u8def\u5916\u5730\u8cea\u8abf\u67fb\u696d\u52d9","client_name":"\u56fd\u571f\u4ea4\u901a\u7701\u3000\u4e2d\u56fd\u5730\u65b9\u6574\u5099\u5c40\u3000\u6d5c\u7530\u6cb3\u5ddd\u56fd\u9053\u4e8b\u52d9\u6240","boring_xml_url":68,"boring_view_url":1,"soilmap_view_url":null,"soiltest_xml_url":0,"soiltest_view_url":0},{"id":523755,"code":"B4KJ202201002-6291","latitude":"34.74169","longitude":"131.877478","source_code":"CG188737390200120006","project_name":"","survey_name":"\u4e09\u9685\u30fb\u76ca\u7530\u9053\u8def\u5916\u5730\u8cea\u8abf\u67fb\u696d\u52d9","client_name":"\u56fd\u571f\u4ea4\u901a\u7701\u3000\u4e2d\u56fd\u5730\u65b9\u6574\u5099\u5c40\u3000\u6d5c\u7530\u6cb3\u5ddd\u56fd\u9053\u4e8b\u52d9\u6240","boring_xml_url":68,"boring_view_url":1,"soilmap_view_url":null,"soiltest_xml_url":0,"soiltest_view_url":0},{"id":523754,"code":"B4KJ202201002-6290","latitude":"34.741313","longitude":"131.87758","source_code":"CG188737390200120005","project_name":"","survey_name":"\u4e09\u9685\u30fb\u76ca\u7530\u9053\u8def\u5916\u5730\u8cea\u8abf\u67fb\u696d\u52d9","client_name":"\u56fd\u571f\u4ea4\u901a\u7701\u3000\u4e2d\u56fd\u5730\u65b9\u6574\u5099\u5c40\u3000\u6d5c\u7530\u6cb3\u5ddd\u56fd\u9053\u4e8b\u52d9\u6240","boring_xml_url":68,"boring_view_url":1,"soilmap_view_url":null,"soiltest_xml_url":0,"soiltest_view_url":0},{"id":523753,"code":"B4KJ202201002-6289","latitude":"34.74153","longitude":"131.877571","source_code":"CG188737390200120004","project_name":"","survey_name":"\u4e09\u9685\u30fb\u76ca\u7530\u9053\u8def\u5916\u5730\u8cea\u8abf\u67fb\u696d\u52d9","client_name":"\u56fd\u571f\u4ea4\u901a\u7701\u3000\u4e2d\u56fd\u5730\u65b9\u6574\u5099\u5c40\u3000\u6d5c\u7530\u6cb3\u5ddd\u56fd\u9053\u4e8b\u52d9\u6240","boring_xml_url":68,"boring_view_url":1,"soilmap_view_url":null,"soiltest_xml_url":0,"soiltest_view_url":0},{"id":523752,"code":"B4KJ202201002-6288","latitude":"34.741816","longitude":"131.877473","source_code":"CG188737390200120003","project_name":"","survey_name":"\u4e09\u9685\u30fb\u76ca\u7530\u9053\u8def\u5916\u5730\u8cea\u8abf\u67fb\u696d\u52d9","client_name":"\u56fd\u571f\u4ea4\u901a\u7701\u3000\u4e2d\u56fd\u5730\u65b9\u6574\u5099\u5c40\u3000\u6d5c\u7530\u6cb3\u5ddd\u56fd\u9053\u4e8b\u52d9\u6240","boring_xml_url":68,"boring_view_url":1,"soilmap_view_url":null,"soiltest_xml_url":0,"soiltest_view_url":0},{"id":523751,"code":"B4KJ202201002-6287","latitude":"34.741962","longitude":"131.877554","source_code":"CG188737390200120002","project_name":"","survey_name":"\u4e09\u9685\u30fb\u76ca\u7530\u9053\u8def\u5916\u5730\u8cea\u8abf\u67fb\u696d\u52d9","client_name":"\u56fd\u571f\u4ea4\u901a\u7701\u3000\u4e2d\u56fd\u5730\u65b9\u6574\u5099\u5c40\u3000\u6d5c\u7530\u6cb3\u5ddd\u56fd\u9053\u4e8b\u52d9\u6240","boring_xml_url":68,"boring_view_url":1,"soilmap_view_url":null,"soiltest_xml_url":0,"soiltest_view_url":0},{"id":523750,"code":"B4KJ202201002-6286","latitude":"34.74988","longitude":"131.881362","source_code":"CG188737390200120001","project_name":"","survey_name":"\u4e09\u9685\u30fb\u76ca\u7530\u9053\u8def\u5916\u5730\u8cea\u8abf\u67fb\u696d\u52d9","client_name":"\u56fd\u571f\u4ea4\u901a\u7701\u3000\u4e2d\u56fd\u5730\u65b9\u6574\u5099\u5c40\u3000\u6d5c\u7530\u6cb3\u5ddd\u56fd\u9053\u4e8b\u52d9\u6240","boring_xml_url":68,"boring_view_url":1,"soilmap_view_url":null,"soiltest_xml_url":0,"soiltest_view_url":0},{"id":523749,"code":"B4KJ202201002-6285","latitude":"35.500131","longitude":"133.760797","source_code":"CG188731610200110008","project_name":"","survey_name":"\u5317\u6761\u9053\u8def\u5730\u8cea\u8abf\u67fb\u305d\u306e4\u696d\u52d9","client_name":"\u56fd\u571f\u4ea4\u901a\u7701\u3000\u4e2d\u56fd\u5730\u65b9\u6574\u5099\u5c40\u3000\u5009\u5409\u6cb3\u5ddd\u56fd\u9053\u4e8b\u52d9\u6240","boring_xml_url":68,"boring_view_url":1,"soilmap_view_url":null,"soiltest_xml_url":0,"soiltest_view_url":0},{"id":523748,"code":"B4KJ202201002-6284","latitude":"35.499694","longitude":"133.761015","source_code":"CG188731610200110007","project_name":"","survey_name":"\u5317\u6761\u9053\u8def\u5730\u8cea\u8abf\u67fb\u305d\u306e4\u696d\u52d9","client_name":"\u56fd\u571f\u4ea4\u901a\u7701\u3000\u4e2d\u56fd\u5730\u65b9\u6574\u5099\u5c40\u3000\u5009\u5409\u6cb3\u5ddd\u56fd\u9053\u4e8b\u52d9\u6240","boring_xml_url":68,"boring_view_url":1,"soilmap_view_url":null,"soiltest_xml_url":0,"soiltest_view_url":0},{"id":523747,"code":"B4KJ202201002-6283","latitude":"35.499594","longitude":"133.762582","source_code":"CG188731610200110006","project_name":"","survey_name":"\u5317\u6761\u9053\u8def\u5730\u8cea\u8abf\u67fb\u305d\u306e4\u696d\u52d9","client_name":"\u56fd\u571f\u4ea4\u901a\u7701\u3000\u4e2d\u56fd\u5730\u65b9\u6574\u5099\u5c40\u3000\u5009\u5409\u6cb3\u5ddd\u56fd\u9053\u4e8b\u52d9\u6240","boring_xml_url":68,"boring_view_url":1,"soilmap_view_url":null,"soiltest_xml_url":0,"soiltest_view_url":0},{"id":523746,"code":"B4KJ202201002-6282","latitude":"35.499344","longitude":"133.763304","source_code":"CG188731610200110005","project_name":"","survey_name":"\u5317\u6761\u9053\u8def\u5730\u8cea\u8abf\u67fb\u305d\u306e4\u696d\u52d9","client_name":"\u56fd\u571f\u4ea4\u901a\u7701\u3000\u4e2d\u56fd\u5730\u65b9\u6574\u5099\u5c40\u3000\u5009\u5409\u6cb3\u5ddd\u56fd\u9053\u4e8b\u52d9\u6240","boring_xml_url":68,"boring_view_url":1,"soilmap_view_url":null,"soiltest_xml_url":0,"soiltest_view_url":0},{"id":523745,"code":"B4KJ202201002-6281","latitude":"35.499256","longitude":"133.764507","source_code":"CG188731610200110004","project_name":"","survey_name":"\u5317\u6761\u9053\u8def\u5730\u8cea\u8abf\u67fb\u305d\u306e4\u696d\u52d9","client_name":"\u56fd\u571f\u4ea4\u901a\u7701\u3000\u4e2d\u56fd\u5730\u65b9\u6574\u5099\u5c40\u3000\u5009\u5409\u6cb3\u5ddd\u56fd\u9053\u4e8b\u52d9\u6240","boring_xml_url":68,"boring_view_url":1,"soilmap_view_url":null,"soiltest_xml_url":0,"soiltest_view_url":0},{"id":523744,"code":"B4KJ202201002-6280","latitude":"35.499643","longitude":"133.765093","source_code":"CG188731610200110003","project_name":"","survey_name":"\u5317\u6761\u9053\u8def\u5730\u8cea\u8abf\u67fb\u305d\u306e4\u696d\u52d9","client_name":"\u56fd\u571f\u4ea4\u901a\u7701\u3000\u4e2d\u56fd\u5730\u65b9\u6574\u5099\u5c40\u3000\u5009\u5409\u6cb3\u5ddd\u56fd\u9053\u4e8b\u52d9\u6240","boring_xml_url":68,"boring_view_url":1,"soilmap_view_url":null,"soiltest_xml_url":0,"soiltest_view_url":0},{"id":523743,"code":"B4KJ202201002-6279","latitude":"35.499421","longitude":"133.765415","source_code":"CG188731610200110002","project_name":"","survey_name":"\u5317\u6761\u9053\u8def\u5730\u8cea\u8abf\u67fb\u305d\u306e4\u696d\u52d9","client_name":"\u56fd\u571f\u4ea4\u901a\u7701\u3000\u4e2d\u56fd\u5730\u65b9\u6574\u5099\u5c40\u3000\u5009\u5409\u6cb3\u5ddd\u56fd\u9053\u4e8b\u52d9\u6240","boring_xml_url":68,"boring_view_url":1,"soilmap_view_url":null,"soiltest_xml_url":0,"soiltest_view_url":0},{"id":523742,"code":"B4KJ202201002-6278","latitude":"35.499608","longitude":"133.766607","source_code":"CG188731610200110001","project_name":"","survey_name":"\u5317\u6761\u9053\u8def\u5730\u8cea\u8abf\u67fb\u305d\u306e4\u696d\u52d9","client_name":"\u56fd\u571f\u4ea4\u901a\u7701\u3000\u4e2d\u56fd\u5730\u65b9\u6574\u5099\u5c40\u3000\u5009\u5409\u6cb3\u5ddd\u56fd\u9053\u4e8b\u52d9\u6240","boring_xml_url":68,"boring_view_url":1,"soilmap_view_url":null,"soiltest_xml_url":0,"soiltest_view_url":0},{"id":523741,"code":"B4KJ202201002-6277","latitude":"35.498976","longitude":"133.800621","source_code":"CG188731610200100009","project_name":"","survey_name":"\u5317\u6761\u9053\u8def\u5730\u8cea\u8abf\u67fb\u305d\u306e2\u696d\u52d9","client_name":"\u56fd\u571f\u4ea4\u901a\u7701\u4e2d\u56fd\u5730\u65b9\u6574\u5099\u5c40\u5009\u5409\u6cb3\u5ddd\u56fd\u9053\u4e8b\u52d9\u6240","boring_xml_url":68,"boring_view_url":1,"soilmap_view_url":null,"soiltest_xml_url":0,"soiltest_view_url":0},{"id":523740,"code":"B4KJ202201002-6276","latitude":"35.498996","longitude":"133.801724","source_code":"CG188731610200100008","project_name":"","survey_name":"\u5317\u6761\u9053\u8def\u5730\u8cea\u8abf\u67fb\u305d\u306e2\u696d\u52d9","client_name":"\u56fd\u571f\u4ea4\u901a\u7701\u4e2d\u56fd\u5730\u65b9\u6574\u5099\u5c40\u5009\u5409\u6cb3\u5ddd\u56fd\u9053\u4e8b\u52d9\u6240","boring_xml_url":68,"boring_view_url":1,"soilmap_view_url":null,"soiltest_xml_url":0,"soiltest_view_url":0},{"id":523739,"code":"B4KJ202201002-6275","latitude":"35.499016","longitude":"133.802826","source_code":"CG188731610200100007","project_name":"","survey_name":"\u5317\u6761\u9053\u8def\u5730\u8cea\u8abf\u67fb\u305d\u306e2\u696d\u52d9","client_name":"\u56fd\u571f\u4ea4\u901a\u7701\u4e2d\u56fd\u5730\u65b9\u6574\u5099\u5c40\u5009\u5409\u6cb3\u5ddd\u56fd\u9053\u4e8b\u52d9\u6240","boring_xml_url":68,"boring_view_url":1,"soilmap_view_url":null,"soiltest_xml_url":0,"soiltest_view_url":0},{"id":523738,"code":"B4KJ202201002-6274","latitude":"35.498569","longitude":"133.784359","source_code":"CG188731610200100006","project_name":"","survey_name":"\u5317\u6761\u9053\u8def\u5730\u8cea\u8abf\u67fb\u305d\u306e2\u696d\u52d9","client_name":"\u56fd\u571f\u4ea4\u901a\u7701\u4e2d\u56fd\u5730\u65b9\u6574\u5099\u5c40\u5009\u5409\u6cb3\u5ddd\u56fd\u9053\u4e8b\u52d9\u6240","boring_xml_url":68,"boring_view_url":1,"soilmap_view_url":null,"soiltest_xml_url":0,"soiltest_view_url":0},{"id":523737,"code":"B4KJ202201002-6273","latitude":"35.498579","longitude":"133.787595","source_code":"CG188731610200100005","project_name":"","survey_name":"\u5317\u6761\u9053\u8def\u5730\u8cea\u8abf\u67fb\u305d\u306e2\u696d\u52d9","client_name":"\u56fd\u571f\u4ea4\u901a\u7701\u4e2d\u56fd\u5730\u65b9\u6574\u5099\u5c40\u5009\u5409\u6cb3\u5ddd\u56fd\u9053\u4e8b\u52d9\u6240","boring_xml_url":68,"boring_view_url":1,"soilmap_view_url":null,"soiltest_xml_url":0,"soiltest_view_url":0},{"id":523736,"code":"B4KJ202201002-6272","latitude":"35.498586","longitude":"133.787958","source_code":"CG188731610200100004","project_name":"","survey_name":"\u5317\u6761\u9053\u8def\u5730\u8cea\u8abf\u67fb\u305d\u306e2\u696d\u52d9","client_name":"\u56fd\u571f\u4ea4\u901a\u7701\u4e2d\u56fd\u5730\u65b9\u6574\u5099\u5c40\u5009\u5409\u6cb3\u5ddd\u56fd\u9053\u4e8b\u52d9\u6240","boring_xml_url":68,"boring_view_url":1,"soilmap_view_url":null,"soiltest_xml_url":0,"soiltest_view_url":0},{"id":523735,"code":"B4KJ202201002-6271","latitude":"35.498814","longitude":"133.796253","source_code":"CG188731610200100003","project_name":"","survey_name":"\u5317\u6761\u9053\u8def\u5730\u8cea\u8abf\u67fb\u305d\u306e2\u696d\u52d9","client_name":"\u56fd\u571f\u4ea4\u901a\u7701\u4e2d\u56fd\u5730\u65b9\u6574\u5099\u5c40\u5009\u5409\u6cb3\u5ddd\u56fd\u9053\u4e8b\u52d9\u6240","boring_xml_url":68,"boring_view_url":1,"soilmap_view_url":null,"soiltest_xml_url":0,"soiltest_view_url":0},{"id":523734,"code":"B4KJ202201002-6270","latitude":"35.498943","longitude":"133.798813","source_code":"CG188731610200100002","project_name":"","survey_name":"\u5317\u6761\u9053\u8def\u5730\u8cea\u8abf\u67fb\u305d\u306e2\u696d\u52d9","client_name":"\u56fd\u571f\u4ea4\u901a\u7701\u4e2d\u56fd\u5730\u65b9\u6574\u5099\u5c40\u5009\u5409\u6cb3\u5ddd\u56fd\u9053\u4e8b\u52d9\u6240","boring_xml_url":68,"boring_view_url":1,"soilmap_view_url":null,"soiltest_xml_url":0,"soiltest_view_url":0},{"id":523733,"code":"B4KJ202201002-6269","latitude":"35.498956","longitude":"133.799519","source_code":"CG188731610200100001","project_name":"","survey_name":"\u5317\u6761\u9053\u8def\u5730\u8cea\u8abf\u67fb\u305d\u306e2\u696d\u52d9","client_name":"\u56fd\u571f\u4ea4\u901a\u7701\u4e2d\u56fd\u5730\u65b9\u6574\u5099\u5c40\u5009\u5409\u6cb3\u5ddd\u56fd\u9053\u4e8b\u52d9\u6240","boring_xml_url":68,"boring_view_url":1,"soilmap_view_url":null,"soiltest_xml_url":0,"soiltest_view_url":0},{"id":523732,"code":"B4KJ202201002-6268","latitude":"35.495742","longitude":"133.845085","source_code":"CG188731610200090006","project_name":"","survey_name":"\u5317\u6761\u9053\u8def\u5730\u8cea\u8abf\u67fb\u305d\u306e1\u696d\u52d9","client_name":"\"\u56fd\u571f\u4ea4\u901a\u7701 \u4e2d\u56fd\u5730\u65b9\u6574\u5099\u5c40 \u5009\u5409\u6cb3\u5ddd\u56fd\u9053\u4e8b\u52d9\u6240\"","boring_xml_url":68,"boring_view_url":1,"soilmap_view_url":null,"soiltest_xml_url":0,"soiltest_view_url":0},{"id":523731,"code":"B4KJ202201002-6267","latitude":"35.495553","longitude":"133.849929","source_code":"CG188731610200090005","project_name":"","survey_name":"\u5317\u6761\u9053\u8def\u5730\u8cea\u8abf\u67fb\u305d\u306e1\u696d\u52d9","client_name":"\"\u56fd\u571f\u4ea4\u901a\u7701 \u4e2d\u56fd\u5730\u65b9\u6574\u5099\u5c40 \u5009\u5409\u6cb3\u5ddd\u56fd\u9053\u4e8b\u52d9\u6240\"","boring_xml_url":68,"boring_view_url":1,"soilmap_view_url":null,"soiltest_xml_url":0,"soiltest_view_url":0},{"id":523730,"code":"B4KJ202201002-6266","latitude":"35.497135","longitude":"133.83353","source_code":"CG188731610200090004","project_name":"","survey_name":"\u5317\u6761\u9053\u8def\u5730\u8cea\u8abf\u67fb\u305d\u306e1\u696d\u52d9","client_name":"\"\u56fd\u571f\u4ea4\u901a\u7701 \u4e2d\u56fd\u5730\u65b9\u6574\u5099\u5c40 \u5009\u5409\u6cb3\u5ddd\u56fd\u9053\u4e8b\u52d9\u6240\"","boring_xml_url":68,"boring_view_url":1,"soilmap_view_url":null,"soiltest_xml_url":0,"soiltest_view_url":0},{"id":523729,"code":"B4KJ202201002-6265","latitude":"35.496978","longitude":"133.834672","source_code":"CG188731610200090003","project_name":"","survey_name":"\u5317\u6761\u9053\u8def\u5730\u8cea\u8abf\u67fb\u305d\u306e1\u696d\u52d9","client_name":"\"\u56fd\u571f\u4ea4\u901a\u7701 \u4e2d\u56fd\u5730\u65b9\u6574\u5099\u5c40 \u5009\u5409\u6cb3\u5ddd\u56fd\u9053\u4e8b\u52d9\u6240\"","boring_xml_url":68,"boring_view_url":1,"soilmap_view_url":null,"soiltest_xml_url":0,"soiltest_view_url":0}]}}