{"header":{"xyz":{"source":[],"mosaic":false},"page":733,"raw":{"soiltest_result":"0","bbox":"57.598333,109.544722,1.933333,163.806111","page":"733"},"conditions":{"soiltest_result":0,"north":57.598333,"west":109.544722,"south":1.933333,"east":163.806111},"success":true,"message":""},"data":{"meta":{"total":212844,"page":733,"pages":7095,"count":30},"values":[{"id":523428,"code":"B4KJ202201002-5964","latitude":"34.298178","longitude":"132.538795","source_code":"CG188753640200270009","project_name":"","survey_name":"\"\u5e73\u621030\u5e74\u5ea6 \u5e83\u5cf6\u5b89\u82b8\u5357\u90e8\u5c71\u7cfb\u5929\u5fdc\u5730\u533a\u8c6a\u96e8\u707d\u5bb3\u7dca\u6025\u8abf\u67fb\u696d\u52d9\"","client_name":"\"\u56fd\u571f\u4ea4\u901a\u7701 \u4e2d\u56fd\u5730\u65b9\u6574\u5099\u5c40 \u592a\u7530\u5ddd\u6cb3\u5ddd\u4e8b\u52d9\u6240\"","boring_xml_url":68,"boring_view_url":1,"soilmap_view_url":null,"soiltest_xml_url":0,"soiltest_view_url":0},{"id":523427,"code":"B4KJ202201002-5963","latitude":"34.293892","longitude":"132.524345","source_code":"CG188753640200270008","project_name":"","survey_name":"\u5e73\u621030\u5e74\u5ea6\u3000\u5e83\u5cf6\u5b89\u82b8\u5357\u90e8\u5c71\u7cfb\u5929\u5fdc\u5730\u533a\u8c6a\u96e8\u707d\u5bb3\u7dca\u6025\u8abf\u67fb\u696d\u52d9","client_name":"\"\u56fd\u571f\u4ea4\u901a\u7701 \u4e2d\u56fd\u5730\u65b9\u6574\u5099\u5c40 \u592a\u7530\u5ddd\u6cb3\u5ddd\u4e8b\u52d9\u6240\"","boring_xml_url":68,"boring_view_url":1,"soilmap_view_url":null,"soiltest_xml_url":0,"soiltest_view_url":0},{"id":523426,"code":"B4KJ202201002-5962","latitude":"34.293756","longitude":"132.524647","source_code":"CG188753640200270007","project_name":"","survey_name":"\u5e73\u621030\u5e74\u5ea6\u3000\u5e83\u5cf6\u5b89\u82b8\u5357\u90e8\u5c71\u7cfb\u5929\u5fdc\u5730\u533a\u8c6a\u96e8\u707d\u5bb3\u7dca\u6025\u8abf\u67fb\u696d\u52d9","client_name":"\"\u56fd\u571f\u4ea4\u901a\u7701 \u4e2d\u56fd\u5730\u65b9\u6574\u5099\u5c40 \u592a\u7530\u5ddd\u6cb3\u5ddd\u4e8b\u52d9\u6240\"","boring_xml_url":68,"boring_view_url":1,"soilmap_view_url":null,"soiltest_xml_url":0,"soiltest_view_url":0},{"id":523425,"code":"B4KJ202201002-5961","latitude":"34.29397","longitude":"132.524509","source_code":"CG188753640200270006","project_name":"","survey_name":"\u5e73\u621030\u5e74\u5ea6\u3000\u5e83\u5cf6\u5b89\u82b8\u5357\u90e8\u5c71\u7cfb\u5929\u5fdc\u5730\u533a\u8c6a\u96e8\u707d\u5bb3\u7dca\u6025\u8abf\u67fb\u696d\u52d9","client_name":"\"\u56fd\u571f\u4ea4\u901a\u7701 \u4e2d\u56fd\u5730\u65b9\u6574\u5099\u5c40 \u592a\u7530\u5ddd\u6cb3\u5ddd\u4e8b\u52d9\u6240\"","boring_xml_url":68,"boring_view_url":1,"soilmap_view_url":null,"soiltest_xml_url":0,"soiltest_view_url":0},{"id":523424,"code":"B4KJ202201002-5960","latitude":"34.294159","longitude":"132.524387","source_code":"CG188753640200270005","project_name":"","survey_name":"\u5e73\u621030\u5e74\u5ea6\u3000\u5e83\u5cf6\u5b89\u82b8\u5357\u90e8\u5c71\u7cfb\u5929\u5fdc\u5730\u533a\u8c6a\u96e8\u707d\u5bb3\u7dca\u6025\u8abf\u67fb\u696d\u52d9","client_name":"\"\u56fd\u571f\u4ea4\u901a\u7701 \u4e2d\u56fd\u5730\u65b9\u6574\u5099\u5c40 \u592a\u7530\u5ddd\u6cb3\u5ddd\u4e8b\u52d9\u6240\"","boring_xml_url":68,"boring_view_url":1,"soilmap_view_url":null,"soiltest_xml_url":0,"soiltest_view_url":0},{"id":523423,"code":"B4KJ202201002-5959","latitude":"34.29223","longitude":"132.523646","source_code":"CG188753640200270004","project_name":"","survey_name":"\u5e73\u621030\u5e74\u5ea6\u3000\u5e83\u5cf6\u5b89\u82b8\u5357\u90e8\u5c71\u7cfb\u5929\u5fdc\u5730\u533a\u8c6a\u96e8\u707d\u5bb3\u7dca\u6025\u8abf\u67fb\u696d\u52d9","client_name":"\"\u56fd\u571f\u4ea4\u901a\u7701 \u4e2d\u56fd\u5730\u65b9\u6574\u5099\u5c40 \u592a\u7530\u5ddd\u6cb3\u5ddd\u4e8b\u52d9\u6240\"","boring_xml_url":68,"boring_view_url":1,"soilmap_view_url":null,"soiltest_xml_url":0,"soiltest_view_url":0},{"id":523422,"code":"B4KJ202201002-5958","latitude":"34.29207","longitude":"132.523788","source_code":"CG188753640200270003","project_name":"","survey_name":"\u5e73\u621030\u5e74\u5ea6\u3000\u5e83\u5cf6\u5b89\u82b8\u5357\u90e8\u5c71\u7cfb\u5929\u5fdc\u5730\u533a\u8c6a\u96e8\u707d\u5bb3\u7dca\u6025\u8abf\u67fb\u696d\u52d9","client_name":"\"\u56fd\u571f\u4ea4\u901a\u7701 \u4e2d\u56fd\u5730\u65b9\u6574\u5099\u5c40 \u592a\u7530\u5ddd\u6cb3\u5ddd\u4e8b\u52d9\u6240\"","boring_xml_url":68,"boring_view_url":1,"soilmap_view_url":null,"soiltest_xml_url":0,"soiltest_view_url":0},{"id":523421,"code":"B4KJ202201002-5957","latitude":"34.292227","longitude":"132.523792","source_code":"CG188753640200270002","project_name":"","survey_name":"\u5e73\u621030\u5e74\u5ea6\u3000\u5e83\u5cf6\u5b89\u82b8\u5357\u90e8\u5c71\u7cfb\u5929\u5fdc\u5730\u533a\u8c6a\u96e8\u707d\u5bb3\u7dca\u6025\u8abf\u67fb\u696d\u52d9","client_name":"\"\u56fd\u571f\u4ea4\u901a\u7701 \u4e2d\u56fd\u5730\u65b9\u6574\u5099\u5c40 \u592a\u7530\u5ddd\u6cb3\u5ddd\u4e8b\u52d9\u6240\"","boring_xml_url":68,"boring_view_url":1,"soilmap_view_url":null,"soiltest_xml_url":0,"soiltest_view_url":0},{"id":523420,"code":"B4KJ202201002-5956","latitude":"34.292417","longitude":"132.523798","source_code":"CG188753640200270001","project_name":"","survey_name":"\u5e73\u621030\u5e74\u5ea6\u3000\u5e83\u5cf6\u5b89\u82b8\u5357\u90e8\u5c71\u7cfb\u5929\u5fdc\u5730\u533a\u8c6a\u96e8\u707d\u5bb3\u7dca\u6025\u8abf\u67fb\u696d\u52d9","client_name":"\"\u56fd\u571f\u4ea4\u901a\u7701 \u4e2d\u56fd\u5730\u65b9\u6574\u5099\u5c40 \u592a\u7530\u5ddd\u6cb3\u5ddd\u4e8b\u52d9\u6240\"","boring_xml_url":68,"boring_view_url":1,"soilmap_view_url":null,"soiltest_xml_url":0,"soiltest_view_url":0},{"id":523419,"code":"B4KJ202201002-5955","latitude":"34.337681","longitude":"132.544411","source_code":"CG188753640200240019","project_name":"","survey_name":"\u5e83\u5cf6\u5b89\u82b8\u5357\u90e8\u5c71\u7cfb\u77e2\u91ce\u6771\u5730\u533a\u8c6a\u96e8\u707d\u5bb3\u7dca\u6025\u8abf\u67fb\u696d\u52d9","client_name":"\"\u56fd\u571f\u4ea4\u901a\u7701 \u4e2d\u56fd\u5730\u65b9\u6574\u5099\u5c40 \u592a\u7530\u5ddd\u6cb3\u5ddd\u4e8b\u52d9\u6240\"","boring_xml_url":68,"boring_view_url":1,"soilmap_view_url":null,"soiltest_xml_url":0,"soiltest_view_url":0},{"id":523418,"code":"B4KJ202201002-5954","latitude":"34.337948","longitude":"132.544586","source_code":"CG188753640200240018","project_name":"","survey_name":"\u5e83\u5cf6\u5b89\u82b8\u5357\u90e8\u5c71\u7cfb\u77e2\u91ce\u6771\u5730\u533a\u8c6a\u96e8\u707d\u5bb3\u7dca\u6025\u8abf\u67fb\u696d\u52d9","client_name":"\"\u56fd\u571f\u4ea4\u901a\u7701 \u4e2d\u56fd\u5730\u65b9\u6574\u5099\u5c40 \u592a\u7530\u5ddd\u6cb3\u5ddd\u4e8b\u52d9\u6240\"","boring_xml_url":68,"boring_view_url":1,"soilmap_view_url":null,"soiltest_xml_url":0,"soiltest_view_url":0},{"id":523417,"code":"B4KJ202201002-5953","latitude":"34.337801","longitude":"132.544579","source_code":"CG188753640200240017","project_name":"","survey_name":"\u5e83\u5cf6\u5b89\u82b8\u5357\u90e8\u5c71\u7cfb\u77e2\u91ce\u6771\u5730\u533a\u8c6a\u96e8\u707d\u5bb3\u7dca\u6025\u8abf\u67fb\u696d\u52d9","client_name":"\"\u56fd\u571f\u4ea4\u901a\u7701 \u4e2d\u56fd\u5730\u65b9\u6574\u5099\u5c40 \u592a\u7530\u5ddd\u6cb3\u5ddd\u4e8b\u52d9\u6240\"","boring_xml_url":68,"boring_view_url":1,"soilmap_view_url":null,"soiltest_xml_url":0,"soiltest_view_url":0},{"id":523416,"code":"B4KJ202201002-5952","latitude":"34.337544","longitude":"132.544568","source_code":"CG188753640200240016","project_name":"","survey_name":"\u5e83\u5cf6\u5b89\u82b8\u5357\u90e8\u5c71\u7cfb\u77e2\u91ce\u6771\u5730\u533a\u8c6a\u96e8\u707d\u5bb3\u7dca\u6025\u8abf\u67fb\u696d\u52d9","client_name":"\"\u56fd\u571f\u4ea4\u901a\u7701 \u4e2d\u56fd\u5730\u65b9\u6574\u5099\u5c40 \u592a\u7530\u5ddd\u6cb3\u5ddd\u4e8b\u52d9\u6240\"","boring_xml_url":68,"boring_view_url":1,"soilmap_view_url":null,"soiltest_xml_url":0,"soiltest_view_url":0},{"id":523415,"code":"B4KJ202201002-5951","latitude":"34.337653","longitude":"132.544573","source_code":"CG188753640200240015","project_name":"","survey_name":"\u5e83\u5cf6\u5b89\u82b8\u5357\u90e8\u5c71\u7cfb\u77e2\u91ce\u6771\u5730\u533a\u8c6a\u96e8\u707d\u5bb3\u7dca\u6025\u8abf\u67fb\u696d\u52d9","client_name":"\"\u56fd\u571f\u4ea4\u901a\u7701 \u4e2d\u56fd\u5730\u65b9\u6574\u5099\u5c40 \u592a\u7530\u5ddd\u6cb3\u5ddd\u4e8b\u52d9\u6240\"","boring_xml_url":68,"boring_view_url":1,"soilmap_view_url":null,"soiltest_xml_url":0,"soiltest_view_url":0},{"id":523414,"code":"B4KJ202201002-5950","latitude":"34.334746","longitude":"132.546305","source_code":"CG188753640200240014","project_name":"","survey_name":"\u5e83\u5cf6\u5b89\u82b8\u5357\u90e8\u5c71\u7cfb\u77e2\u91ce\u6771\u5730\u533a\u8c6a\u96e8\u707d\u5bb3\u7dca\u6025\u8abf\u67fb\u696d\u52d9","client_name":"\"\u56fd\u571f\u4ea4\u901a\u7701 \u4e2d\u56fd\u5730\u65b9\u6574\u5099\u5c40 \u592a\u7530\u5ddd\u6cb3\u5ddd\u4e8b\u52d9\u6240\"","boring_xml_url":68,"boring_view_url":1,"soilmap_view_url":null,"soiltest_xml_url":0,"soiltest_view_url":0},{"id":523413,"code":"B4KJ202201002-5949","latitude":"34.335013","longitude":"132.546438","source_code":"CG188753640200240013","project_name":"","survey_name":"\u5e83\u5cf6\u5b89\u82b8\u5357\u90e8\u5c71\u7cfb\u77e2\u91ce\u6771\u5730\u533a\u8c6a\u96e8\u707d\u5bb3\u7dca\u6025\u8abf\u67fb\u696d\u52d9","client_name":"\"\u56fd\u571f\u4ea4\u901a\u7701 \u4e2d\u56fd\u5730\u65b9\u6574\u5099\u5c40 \u592a\u7530\u5ddd\u6cb3\u5ddd\u4e8b\u52d9\u6240\"","boring_xml_url":68,"boring_view_url":1,"soilmap_view_url":null,"soiltest_xml_url":0,"soiltest_view_url":0},{"id":523412,"code":"B4KJ202201002-5948","latitude":"34.334924","longitude":"132.546416","source_code":"CG188753640200240012","project_name":"","survey_name":"\u5e83\u5cf6\u5b89\u82b8\u5357\u90e8\u5c71\u7cfb\u77e2\u91ce\u6771\u5730\u533a\u8c6a\u96e8\u707d\u5bb3\u7dca\u6025\u8abf\u67fb\u696d\u52d9","client_name":"\"\u56fd\u571f\u4ea4\u901a\u7701 \u4e2d\u56fd\u5730\u65b9\u6574\u5099\u5c40 \u592a\u7530\u5ddd\u6cb3\u5ddd\u4e8b\u52d9\u6240\"","boring_xml_url":68,"boring_view_url":1,"soilmap_view_url":null,"soiltest_xml_url":0,"soiltest_view_url":0},{"id":523411,"code":"B4KJ202201002-5947","latitude":"34.334687","longitude":"132.546607","source_code":"CG188753640200240011","project_name":"","survey_name":"\u5e83\u5cf6\u5b89\u82b8\u5357\u90e8\u5c71\u7cfb\u77e2\u91ce\u6771\u5730\u533a\u8c6a\u96e8\u707d\u5bb3\u7dca\u6025\u8abf\u67fb\u696d\u52d9","client_name":"\"\u56fd\u571f\u4ea4\u901a\u7701 \u4e2d\u56fd\u5730\u65b9\u6574\u5099\u5c40 \u592a\u7530\u5ddd\u6cb3\u5ddd\u4e8b\u52d9\u6240\"","boring_xml_url":68,"boring_view_url":1,"soilmap_view_url":null,"soiltest_xml_url":0,"soiltest_view_url":0},{"id":523410,"code":"B4KJ202201002-5946","latitude":"34.334834","longitude":"132.546489","source_code":"CG188753640200240010","project_name":"","survey_name":"\u5e83\u5cf6\u5b89\u82b8\u5357\u90e8\u5c71\u7cfb\u77e2\u91ce\u6771\u5730\u533a\u8c6a\u96e8\u707d\u5bb3\u7dca\u6025\u8abf\u67fb\u696d\u52d9","client_name":"\"\u56fd\u571f\u4ea4\u901a\u7701 \u4e2d\u56fd\u5730\u65b9\u6574\u5099\u5c40 \u592a\u7530\u5ddd\u6cb3\u5ddd\u4e8b\u52d9\u6240\"","boring_xml_url":68,"boring_view_url":1,"soilmap_view_url":null,"soiltest_xml_url":0,"soiltest_view_url":0},{"id":523409,"code":"B4KJ202201002-5945","latitude":"34.336491","longitude":"132.545339","source_code":"CG188753640200240009","project_name":"","survey_name":"\u5e83\u5cf6\u5b89\u82b8\u5357\u90e8\u5c71\u7cfb\u77e2\u91ce\u6771\u5730\u533a\u8c6a\u96e8\u707d\u5bb3\u7dca\u6025\u8abf\u67fb\u696d\u52d9","client_name":"\"\u56fd\u571f\u4ea4\u901a\u7701 \u4e2d\u56fd\u5730\u65b9\u6574\u5099\u5c40 \u592a\u7530\u5ddd\u6cb3\u5ddd\u4e8b\u52d9\u6240\"","boring_xml_url":68,"boring_view_url":1,"soilmap_view_url":null,"soiltest_xml_url":0,"soiltest_view_url":0},{"id":523408,"code":"B4KJ202201002-5944","latitude":"34.336669","longitude":"132.545546","source_code":"CG188753640200240008","project_name":"","survey_name":"\u5e83\u5cf6\u5b89\u82b8\u5357\u90e8\u5c71\u7cfb\u77e2\u91ce\u6771\u5730\u533a\u8c6a\u96e8\u707d\u5bb3\u7dca\u6025\u8abf\u67fb\u696d\u52d9","client_name":"\"\u56fd\u571f\u4ea4\u901a\u7701 \u4e2d\u56fd\u5730\u65b9\u6574\u5099\u5c40 \u592a\u7530\u5ddd\u6cb3\u5ddd\u4e8b\u52d9\u6240\"","boring_xml_url":68,"boring_view_url":1,"soilmap_view_url":null,"soiltest_xml_url":0,"soiltest_view_url":0},{"id":523407,"code":"B4KJ202201002-5943","latitude":"34.336351","longitude":"132.545545","source_code":"CG188753640200240007","project_name":"","survey_name":"\u5e83\u5cf6\u5b89\u82b8\u5357\u90e8\u5c71\u7cfb\u77e2\u91ce\u6771\u5730\u533a\u8c6a\u96e8\u707d\u5bb3\u7dca\u6025\u8abf\u67fb\u696d\u52d9","client_name":"\"\u56fd\u571f\u4ea4\u901a\u7701 \u4e2d\u56fd\u5730\u65b9\u6574\u5099\u5c40 \u592a\u7530\u5ddd\u6cb3\u5ddd\u4e8b\u52d9\u6240\"","boring_xml_url":68,"boring_view_url":1,"soilmap_view_url":null,"soiltest_xml_url":0,"soiltest_view_url":0},{"id":523406,"code":"B4KJ202201002-5942","latitude":"34.336507","longitude":"132.545546","source_code":"CG188753640200240006","project_name":"","survey_name":"\u5e83\u5cf6\u5b89\u82b8\u5357\u90e8\u5c71\u7cfb\u77e2\u91ce\u6771\u5730\u533a\u8c6a\u96e8\u707d\u5bb3\u7dca\u6025\u8abf\u67fb\u696d\u52d9","client_name":"\"\u56fd\u571f\u4ea4\u901a\u7701 \u4e2d\u56fd\u5730\u65b9\u6574\u5099\u5c40 \u592a\u7530\u5ddd\u6cb3\u5ddd\u4e8b\u52d9\u6240\"","boring_xml_url":68,"boring_view_url":1,"soilmap_view_url":null,"soiltest_xml_url":0,"soiltest_view_url":0},{"id":523405,"code":"B4KJ202201002-5941","latitude":"34.339249","longitude":"132.544188","source_code":"CG188753640200240005","project_name":"","survey_name":"\u5e83\u5cf6\u5b89\u82b8\u5357\u90e8\u5c71\u7cfb\u77e2\u91ce\u6771\u5730\u533a\u8c6a\u96e8\u707d\u5bb3\u7dca\u6025\u8abf\u67fb\u696d\u52d9","client_name":"\"\u56fd\u571f\u4ea4\u901a\u7701 \u4e2d\u56fd\u5730\u65b9\u6574\u5099\u5c40 \u592a\u7530\u5ddd\u6cb3\u5ddd\u4e8b\u52d9\u6240\"","boring_xml_url":68,"boring_view_url":1,"soilmap_view_url":null,"soiltest_xml_url":0,"soiltest_view_url":0},{"id":523404,"code":"B4KJ202201002-5940","latitude":"34.339577","longitude":"132.544391","source_code":"CG188753640200240004","project_name":"","survey_name":"\u5e83\u5cf6\u5b89\u82b8\u5357\u90e8\u5c71\u7cfb\u77e2\u91ce\u6771\u5730\u533a\u8c6a\u96e8\u707d\u5bb3\u7dca\u6025\u8abf\u67fb\u696d\u52d9","client_name":"\"\u56fd\u571f\u4ea4\u901a\u7701 \u4e2d\u56fd\u5730\u65b9\u6574\u5099\u5c40 \u592a\u7530\u5ddd\u6cb3\u5ddd\u4e8b\u52d9\u6240\"","boring_xml_url":68,"boring_view_url":1,"soilmap_view_url":null,"soiltest_xml_url":0,"soiltest_view_url":0},{"id":523403,"code":"B4KJ202201002-5939","latitude":"34.339406","longitude":"132.544374","source_code":"CG188753640200240003","project_name":"","survey_name":"\u5e83\u5cf6\u5b89\u82b8\u5357\u90e8\u5c71\u7cfb\u77e2\u91ce\u6771\u5730\u533a\u8c6a\u96e8\u707d\u5bb3\u7dca\u6025\u8abf\u67fb\u696d\u52d9","client_name":"\"\u56fd\u571f\u4ea4\u901a\u7701 \u4e2d\u56fd\u5730\u65b9\u6574\u5099\u5c40 \u592a\u7530\u5ddd\u6cb3\u5ddd\u4e8b\u52d9\u6240\"","boring_xml_url":68,"boring_view_url":1,"soilmap_view_url":null,"soiltest_xml_url":0,"soiltest_view_url":0},{"id":523402,"code":"B4KJ202201002-5938","latitude":"34.339057","longitude":"132.54434","source_code":"CG188753640200240002","project_name":"","survey_name":"\u5e83\u5cf6\u5b89\u82b8\u5357\u90e8\u5c71\u7cfb\u77e2\u91ce\u6771\u5730\u533a\u8c6a\u96e8\u707d\u5bb3\u7dca\u6025\u8abf\u67fb\u696d\u52d9","client_name":"\"\u56fd\u571f\u4ea4\u901a\u7701 \u4e2d\u56fd\u5730\u65b9\u6574\u5099\u5c40 \u592a\u7530\u5ddd\u6cb3\u5ddd\u4e8b\u52d9\u6240\"","boring_xml_url":68,"boring_view_url":1,"soilmap_view_url":null,"soiltest_xml_url":0,"soiltest_view_url":0},{"id":523401,"code":"B4KJ202201002-5937","latitude":"34.339235","longitude":"132.544358","source_code":"CG188753640200240001","project_name":"","survey_name":"\u5e83\u5cf6\u5b89\u82b8\u5357\u90e8\u5c71\u7cfb\u77e2\u91ce\u6771\u5730\u533a\u8c6a\u96e8\u707d\u5bb3\u7dca\u6025\u8abf\u67fb\u696d\u52d9","client_name":"\"\u56fd\u571f\u4ea4\u901a\u7701 \u4e2d\u56fd\u5730\u65b9\u6574\u5099\u5c40 \u592a\u7530\u5ddd\u6cb3\u5ddd\u4e8b\u52d9\u6240\"","boring_xml_url":68,"boring_view_url":1,"soilmap_view_url":null,"soiltest_xml_url":0,"soiltest_view_url":0},{"id":523400,"code":"B4KJ202201002-5936","latitude":"34.438972","longitude":"132.660053","source_code":"CG188753640200220011","project_name":"\u4e0a\u702c\u91ce(\u5927\u5143\u8c37\u5ddd)\u6e13\u6d41","survey_name":"\u5e83\u5cf6\u5b89\u82b8\u5357\u90e8\u5c71\u7cfb\u4e0a\u702c\u91ce\u5730\u533a\u5916\u8c6a\u96e8\u707d\u5bb3\u7dca\u6025\u8abf\u67fb\u696d\u52d9","client_name":"\u56fd\u571f\u4ea4\u901a\u7701\u4e2d\u56fd\u5730\u65b9\u6574\u5099\u5c40\u592a\u7530\u5ddd\u6cb3\u5ddd\u4e8b\u52d9\u6240","boring_xml_url":68,"boring_view_url":1,"soilmap_view_url":null,"soiltest_xml_url":0,"soiltest_view_url":0},{"id":523399,"code":"B4KJ202201002-5935","latitude":"34.438692","longitude":"132.66035","source_code":"CG188753640200220010","project_name":"\u4e0a\u702c\u91ce(\u5927\u5143\u8c37\u5ddd)\u6e13\u6d41","survey_name":"\u5e83\u5cf6\u5b89\u82b8\u5357\u90e8\u5c71\u7cfb\u4e0a\u702c\u91ce\u5730\u533a\u5916\u8c6a\u96e8\u707d\u5bb3\u7dca\u6025\u8abf\u67fb\u696d\u52d9","client_name":"\u56fd\u571f\u4ea4\u901a\u7701\u4e2d\u56fd\u5730\u65b9\u6574\u5099\u5c40\u592a\u7530\u5ddd\u6cb3\u5ddd\u4e8b\u52d9\u6240","boring_xml_url":68,"boring_view_url":1,"soilmap_view_url":null,"soiltest_xml_url":0,"soiltest_view_url":0}]}}