{"header":{"xyz":{"source":[],"mosaic":false},"page":734,"raw":{"soiltest_result":"0","bbox":"57.598333,109.544722,1.933333,163.806111","page":"734"},"conditions":{"soiltest_result":0,"north":57.598333,"west":109.544722,"south":1.933333,"east":163.806111},"success":true,"message":""},"data":{"meta":{"total":212844,"page":734,"pages":7095,"count":30},"values":[{"id":523398,"code":"B4KJ202201002-5934","latitude":"34.439331","longitude":"132.660086","source_code":"CG188753640200220009","project_name":"\u4e0a\u702c\u91ce(\u5927\u5143\u8c37\u5ddd)\u6e13\u6d41","survey_name":"\u5e83\u5cf6\u5b89\u82b8\u5357\u90e8\u5c71\u7cfb\u4e0a\u702c\u91ce\u5730\u533a\u5916\u8c6a\u96e8\u707d\u5bb3\u7dca\u6025\u8abf\u67fb\u696d\u52d9","client_name":"\u56fd\u571f\u4ea4\u901a\u7701\u4e2d\u56fd\u5730\u65b9\u6574\u5099\u5c40\u592a\u7530\u5ddd\u6cb3\u5ddd\u4e8b\u52d9\u6240","boring_xml_url":68,"boring_view_url":1,"soilmap_view_url":null,"soiltest_xml_url":0,"soiltest_view_url":0},{"id":523397,"code":"B4KJ202201002-5933","latitude":"34.439031","longitude":"132.660203","source_code":"CG188753640200220008","project_name":"\u4e0a\u702c\u91ce(\u5927\u5143\u8c37\u5ddd)\u6e13\u6d41","survey_name":"\u5e83\u5cf6\u5b89\u82b8\u5357\u90e8\u5c71\u7cfb\u4e0a\u702c\u91ce\u5730\u533a\u5916\u8c6a\u96e8\u707d\u5bb3\u7dca\u6025\u8abf\u67fb\u696d\u52d9","client_name":"\u56fd\u571f\u4ea4\u901a\u7701\u4e2d\u56fd\u5730\u65b9\u6574\u5099\u5c40\u592a\u7530\u5ddd\u6cb3\u5ddd\u4e8b\u52d9\u6240","boring_xml_url":68,"boring_view_url":1,"soilmap_view_url":null,"soiltest_xml_url":0,"soiltest_view_url":0},{"id":523396,"code":"B4KJ202201002-5932","latitude":"34.448978","longitude":"132.507206","source_code":"CG188753640200220007","project_name":"\u53e3\u7530\u5357\uff081-9-279-2\uff09\u6e13\u6d41","survey_name":"\u5e83\u5cf6\u5b89\u82b8\u5357\u90e8\u5c71\u7cfb\u4e0a\u702c\u91ce\u5730\u533a\u5916\u8c6a\u96e8\u707d\u5bb3\u7dca\u6025\u8abf\u67fb\u696d\u52d9","client_name":"\u56fd\u571f\u4ea4\u901a\u7701\u4e2d\u56fd\u5730\u65b9\u6574\u5099\u5c40\u592a\u7530\u5ddd\u6cb3\u5ddd\u4e8b\u52d9\u6240","boring_xml_url":68,"boring_view_url":1,"soilmap_view_url":null,"soiltest_xml_url":0,"soiltest_view_url":0},{"id":523395,"code":"B4KJ202201002-5931","latitude":"34.448817","longitude":"132.507267","source_code":"CG188753640200220006","project_name":"\u53e3\u7530\u5357\uff081-9-279-2\uff09\u6e13\u6d41","survey_name":"\u5e83\u5cf6\u5b89\u82b8\u5357\u90e8\u5c71\u7cfb\u4e0a\u702c\u91ce\u5730\u533a\u5916\u8c6a\u96e8\u707d\u5bb3\u7dca\u6025\u8abf\u67fb\u696d\u52d9","client_name":"\u56fd\u571f\u4ea4\u901a\u7701\u4e2d\u56fd\u5730\u65b9\u6574\u5099\u5c40\u592a\u7530\u5ddd\u6cb3\u5ddd\u4e8b\u52d9\u6240","boring_xml_url":68,"boring_view_url":1,"soilmap_view_url":null,"soiltest_xml_url":0,"soiltest_view_url":0},{"id":523394,"code":"B4KJ202201002-5930","latitude":"34.449014","longitude":"132.507075","source_code":"CG188753640200220005","project_name":"\u53e3\u7530\u5357\uff081-9-279-2\uff09\u6e13\u6d41","survey_name":"\u5e83\u5cf6\u5b89\u82b8\u5357\u90e8\u5c71\u7cfb\u4e0a\u702c\u91ce\u5730\u533a\u5916\u8c6a\u96e8\u707d\u5bb3\u7dca\u6025\u8abf\u67fb\u696d\u52d9","client_name":"\u56fd\u571f\u4ea4\u901a\u7701\u4e2d\u56fd\u5730\u65b9\u6574\u5099\u5c40\u592a\u7530\u5ddd\u6cb3\u5ddd\u4e8b\u52d9\u6240","boring_xml_url":68,"boring_view_url":1,"soilmap_view_url":null,"soiltest_xml_url":0,"soiltest_view_url":0},{"id":523393,"code":"B4KJ202201002-5929","latitude":"34.448933","longitude":"132.507139","source_code":"CG188753640200220004","project_name":"\u53e3\u7530\u5357\uff081-9-279-2\uff09\u6e13\u6d41","survey_name":"\u5e83\u5cf6\u5b89\u82b8\u5357\u90e8\u5c71\u7cfb\u4e0a\u702c\u91ce\u5730\u533a\u5916\u8c6a\u96e8\u707d\u5bb3\u7dca\u6025\u8abf\u67fb\u696d\u52d9","client_name":"\u56fd\u571f\u4ea4\u901a\u7701\u4e2d\u56fd\u5730\u65b9\u6574\u5099\u5c40\u592a\u7530\u5ddd\u6cb3\u5ddd\u4e8b\u52d9\u6240","boring_xml_url":68,"boring_view_url":1,"soilmap_view_url":null,"soiltest_xml_url":0,"soiltest_view_url":0},{"id":523392,"code":"B4KJ202201002-5928","latitude":"34.447244","longitude":"132.508006","source_code":"CG188753640200220003","project_name":"\u53e3\u7530\u5357\uff081-9-279-1\uff09\u6e13\u6d41","survey_name":"\u5e83\u5cf6\u5b89\u82b8\u5357\u90e8\u5c71\u7cfb\u4e0a\u702c\u91ce\u5730\u533a\u5916\u8c6a\u96e8\u707d\u5bb3\u7dca\u6025\u8abf\u67fb\u696d\u52d9","client_name":"\u56fd\u571f\u4ea4\u901a\u7701\u4e2d\u56fd\u5730\u65b9\u6574\u5099\u5c40\u592a\u7530\u5ddd\u6cb3\u5ddd\u4e8b\u52d9\u6240","boring_xml_url":68,"boring_view_url":1,"soilmap_view_url":null,"soiltest_xml_url":0,"soiltest_view_url":0},{"id":523391,"code":"B4KJ202201002-5927","latitude":"34.447036","longitude":"132.507964","source_code":"CG188753640200220002","project_name":"\u53e3\u7530\u5357\uff081-9-279-1\uff09\u6e13\u6d41","survey_name":"\u5e83\u5cf6\u5b89\u82b8\u5357\u90e8\u5c71\u7cfb\u4e0a\u702c\u91ce\u5730\u533a\u5916\u8c6a\u96e8\u707d\u5bb3\u7dca\u6025\u8abf\u67fb\u696d\u52d9","client_name":"\u56fd\u571f\u4ea4\u901a\u7701\u4e2d\u56fd\u5730\u65b9\u6574\u5099\u5c40\u592a\u7530\u5ddd\u6cb3\u5ddd\u4e8b\u52d9\u6240","boring_xml_url":68,"boring_view_url":1,"soilmap_view_url":null,"soiltest_xml_url":0,"soiltest_view_url":0},{"id":523390,"code":"B4KJ202201002-5926","latitude":"34.447194","longitude":"132.508094","source_code":"CG188753640200220001","project_name":"\u53e3\u7530\u5357\uff081-9-279-1\uff09\u6e13\u6d41","survey_name":"\u5e83\u5cf6\u5b89\u82b8\u5357\u90e8\u5c71\u7cfb\u4e0a\u702c\u91ce\u5730\u533a\u5916\u8c6a\u96e8\u707d\u5bb3\u7dca\u6025\u8abf\u67fb\u696d\u52d9","client_name":"\u56fd\u571f\u4ea4\u901a\u7701\u4e2d\u56fd\u5730\u65b9\u6574\u5099\u5c40\u592a\u7530\u5ddd\u6cb3\u5ddd\u4e8b\u52d9\u6240","boring_xml_url":68,"boring_view_url":1,"soilmap_view_url":null,"soiltest_xml_url":0,"soiltest_view_url":0},{"id":523389,"code":"B4KJ202201002-5925","latitude":"34.447112","longitude":"132.532916","source_code":"CG188753640200180010","project_name":"","survey_name":"\"\u5e73\u621030\u5e74\u5ea6 \u5e83\u5cf6\u897f\u90e8\u5c71\u7cfb\u8c6a\u96e8\u707d\u5bb3\u7dca\u6025\u8abf\u67fb\uff08\u305d\u306e1\uff09\u696d\u52d9\"","client_name":"\"\u56fd\u571f\u4ea4\u901a\u7701 \u4e2d\u56fd\u5730\u65b9\u6574\u5099\u5c40 \u592a\u7530\u5ddd\u6cb3\u5ddd\u4e8b\u52d9\u6240\"","boring_xml_url":68,"boring_view_url":1,"soilmap_view_url":null,"soiltest_xml_url":0,"soiltest_view_url":0},{"id":523388,"code":"B4KJ202201002-5924","latitude":"34.449403","longitude":"132.532166","source_code":"CG188753640200180009","project_name":"","survey_name":"\"\u5e73\u621030\u5e74\u5ea6 \u5e83\u5cf6\u897f\u90e8\u5c71\u7cfb\u8c6a\u96e8\u707d\u5bb3\u7dca\u6025\u8abf\u67fb\uff08\u305d\u306e1\uff09\u696d\u52d9\"","client_name":"\"\u56fd\u571f\u4ea4\u901a\u7701 \u4e2d\u56fd\u5730\u65b9\u6574\u5099\u5c40 \u592a\u7530\u5ddd\u6cb3\u5ddd\u4e8b\u52d9\u6240\"","boring_xml_url":68,"boring_view_url":1,"soilmap_view_url":null,"soiltest_xml_url":0,"soiltest_view_url":0},{"id":523387,"code":"B4KJ202201002-5923","latitude":"34.449236","longitude":"132.531991","source_code":"CG188753640200180008","project_name":"","survey_name":"\"\u5e73\u621030\u5e74\u5ea6 \u5e83\u5cf6\u897f\u90e8\u5c71\u7cfb\u8c6a\u96e8\u707d\u5bb3\u7dca\u6025\u8abf\u67fb\uff08\u305d\u306e1\uff09\u696d\u52d9\"","client_name":"\"\u56fd\u571f\u4ea4\u901a\u7701 \u4e2d\u56fd\u5730\u65b9\u6574\u5099\u5c40 \u592a\u7530\u5ddd\u6cb3\u5ddd\u4e8b\u52d9\u6240\"","boring_xml_url":68,"boring_view_url":1,"soilmap_view_url":null,"soiltest_xml_url":0,"soiltest_view_url":0},{"id":523386,"code":"B4KJ202201002-5922","latitude":"34.449407","longitude":"132.531998","source_code":"CG188753640200180007","project_name":"","survey_name":"\"\u5e73\u621030\u5e74\u5ea6 \u5e83\u5cf6\u897f\u90e8\u5c71\u7cfb\u8c6a\u96e8\u707d\u5bb3\u7dca\u6025\u8abf\u67fb\uff08\u305d\u306e1\uff09\u696d\u52d9\"","client_name":"\"\u56fd\u571f\u4ea4\u901a\u7701 \u4e2d\u56fd\u5730\u65b9\u6574\u5099\u5c40 \u592a\u7530\u5ddd\u6cb3\u5ddd\u4e8b\u52d9\u6240\"","boring_xml_url":68,"boring_view_url":1,"soilmap_view_url":null,"soiltest_xml_url":0,"soiltest_view_url":0},{"id":523385,"code":"B4KJ202201002-5921","latitude":"34.449615","longitude":"132.532005","source_code":"CG188753640200180006","project_name":"","survey_name":"\"\u5e73\u621030\u5e74\u5ea6 \u5e83\u5cf6\u897f\u90e8\u5c71\u7cfb\u8c6a\u96e8\u707d\u5bb3\u7dca\u6025\u8abf\u67fb\uff08\u305d\u306e1\uff09\u696d\u52d9\"","client_name":"\"\u56fd\u571f\u4ea4\u901a\u7701 \u4e2d\u56fd\u5730\u65b9\u6574\u5099\u5c40 \u592a\u7530\u5ddd\u6cb3\u5ddd\u4e8b\u52d9\u6240\"","boring_xml_url":68,"boring_view_url":1,"soilmap_view_url":null,"soiltest_xml_url":0,"soiltest_view_url":0},{"id":523384,"code":"B4KJ202201002-5920","latitude":"34.434182","longitude":"132.543293","source_code":"CG188753640200180005","project_name":"","survey_name":"\"\u5e73\u621030\u5e74\u5ea6 \u5e83\u5cf6\u897f\u90e8\u5c71\u7cfb\u8c6a\u96e8\u707d\u5bb3\u7dca\u6025\u8abf\u67fb\uff08\u305d\u306e1\uff09\u696d\u52d9\"","client_name":"\"\u56fd\u571f\u4ea4\u901a\u7701 \u4e2d\u56fd\u5730\u65b9\u6574\u5099\u5c40 \u592a\u7530\u5ddd\u6cb3\u5ddd\u4e8b\u52d9\u6240\"","boring_xml_url":68,"boring_view_url":1,"soilmap_view_url":null,"soiltest_xml_url":0,"soiltest_view_url":0},{"id":523383,"code":"B4KJ202201002-5919","latitude":"34.433607","longitude":"132.543655","source_code":"CG188753640200180004","project_name":"","survey_name":"\"\u5e73\u621030\u5e74\u5ea6 \u5e83\u5cf6\u897f\u90e8\u5c71\u7cfb\u8c6a\u96e8\u707d\u5bb3\u7dca\u6025\u8abf\u67fb\uff08\u305d\u306e1\uff09\u696d\u52d9\"","client_name":"\"\u56fd\u571f\u4ea4\u901a\u7701 \u4e2d\u56fd\u5730\u65b9\u6574\u5099\u5c40 \u592a\u7530\u5ddd\u6cb3\u5ddd\u4e8b\u52d9\u6240\"","boring_xml_url":68,"boring_view_url":1,"soilmap_view_url":null,"soiltest_xml_url":0,"soiltest_view_url":0},{"id":523382,"code":"B4KJ202201002-5918","latitude":"34.433951","longitude":"132.543373","source_code":"CG188753640200180003","project_name":"","survey_name":"\"\u5e73\u621030\u5e74\u5ea6 \u5e83\u5cf6\u897f\u90e8\u5c71\u7cfb\u8c6a\u96e8\u707d\u5bb3\u7dca\u6025\u8abf\u67fb\uff08\u305d\u306e1\uff09\u696d\u52d9\"","client_name":"\"\u56fd\u571f\u4ea4\u901a\u7701 \u4e2d\u56fd\u5730\u65b9\u6574\u5099\u5c40 \u592a\u7530\u5ddd\u6cb3\u5ddd\u4e8b\u52d9\u6240\"","boring_xml_url":68,"boring_view_url":1,"soilmap_view_url":null,"soiltest_xml_url":0,"soiltest_view_url":0},{"id":523381,"code":"B4KJ202201002-5917","latitude":"34.434049","longitude":"132.543513","source_code":"CG188753640200180002","project_name":"","survey_name":"\"\u5e73\u621030\u5e74\u5ea6 \u5e83\u5cf6\u897f\u90e8\u5c71\u7cfb\u8c6a\u96e8\u707d\u5bb3\u7dca\u6025\u8abf\u67fb\uff08\u305d\u306e1\uff09\u696d\u52d9\"","client_name":"\"\u56fd\u571f\u4ea4\u901a\u7701 \u4e2d\u56fd\u5730\u65b9\u6574\u5099\u5c40 \u592a\u7530\u5ddd\u6cb3\u5ddd\u4e8b\u52d9\u6240\"","boring_xml_url":68,"boring_view_url":1,"soilmap_view_url":null,"soiltest_xml_url":0,"soiltest_view_url":0},{"id":523380,"code":"B4KJ202201002-5916","latitude":"34.434319","longitude":"132.543694","source_code":"CG188753640200180001","project_name":"","survey_name":"\"\u5e73\u621030\u5e74\u5ea6 \u5e83\u5cf6\u897f\u90e8\u5c71\u7cfb\u8c6a\u96e8\u707d\u5bb3\u7dca\u6025\u8abf\u67fb\uff08\u305d\u306e1\uff09\u696d\u52d9\"","client_name":"\"\u56fd\u571f\u4ea4\u901a\u7701 \u4e2d\u56fd\u5730\u65b9\u6574\u5099\u5c40 \u592a\u7530\u5ddd\u6cb3\u5ddd\u4e8b\u52d9\u6240\"","boring_xml_url":68,"boring_view_url":1,"soilmap_view_url":null,"soiltest_xml_url":0,"soiltest_view_url":0},{"id":523379,"code":"B4KJ202201002-5915","latitude":"34.448997","longitude":"132.495495","source_code":"CG188753640200090013","project_name":"\u5e83\u5cf6\u897f\u90e8\u5c71\u7cfb\u5730\u8cea\u8abf\u67fb\u696d\u52d9","survey_name":"\u5e83\u5cf6\u897f\u90e8\u5c71\u7cfb\u5730\u8cea\u8abf\u67fb\u696d\u52d9","client_name":"\u56fd\u571f\u4ea4\u901a\u7701\u3000\u4e2d\u56fd\u5730\u65b9\u6574\u5099\u5c40\u3000\u592a\u7530\u5ddd\u6cb3\u5ddd\u4e8b\u52d9\u6240","boring_xml_url":68,"boring_view_url":1,"soilmap_view_url":null,"soiltest_xml_url":0,"soiltest_view_url":0},{"id":523378,"code":"B4KJ202201002-5914","latitude":"34.448707","longitude":"132.495402","source_code":"CG188753640200090012","project_name":"\u5e83\u5cf6\u897f\u90e8\u5c71\u7cfb\u5730\u8cea\u8abf\u67fb\u696d\u52d9","survey_name":"\u5e83\u5cf6\u897f\u90e8\u5c71\u7cfb\u5730\u8cea\u8abf\u67fb\u696d\u52d9","client_name":"\u56fd\u571f\u4ea4\u901a\u7701\u3000\u4e2d\u56fd\u5730\u65b9\u6574\u5099\u5c40\u3000\u592a\u7530\u5ddd\u6cb3\u5ddd\u4e8b\u52d9\u6240","boring_xml_url":68,"boring_view_url":1,"soilmap_view_url":null,"soiltest_xml_url":0,"soiltest_view_url":0},{"id":523377,"code":"B4KJ202201002-5913","latitude":"34.448912","longitude":"132.495931","source_code":"CG188753640200090011","project_name":"\u5e83\u5cf6\u897f\u90e8\u5c71\u7cfb\u5730\u8cea\u8abf\u67fb\u696d\u52d9","survey_name":"\u5e83\u5cf6\u897f\u90e8\u5c71\u7cfb\u5730\u8cea\u8abf\u67fb\u696d\u52d9","client_name":"\u56fd\u571f\u4ea4\u901a\u7701\u3000\u4e2d\u56fd\u5730\u65b9\u6574\u5099\u5c40\u3000\u592a\u7530\u5ddd\u6cb3\u5ddd\u4e8b\u52d9\u6240","boring_xml_url":68,"boring_view_url":1,"soilmap_view_url":null,"soiltest_xml_url":0,"soiltest_view_url":0},{"id":523376,"code":"B4KJ202201002-5912","latitude":"34.448849","longitude":"132.49577","source_code":"CG188753640200090010","project_name":"\u5e83\u5cf6\u897f\u90e8\u5c71\u7cfb\u5730\u8cea\u8abf\u67fb\u696d\u52d9","survey_name":"\u5e83\u5cf6\u897f\u90e8\u5c71\u7cfb\u5730\u8cea\u8abf\u67fb\u696d\u52d9","client_name":"\u56fd\u571f\u4ea4\u901a\u7701\u3000\u4e2d\u56fd\u5730\u65b9\u6574\u5099\u5c40\u3000\u592a\u7530\u5ddd\u6cb3\u5ddd\u4e8b\u52d9\u6240","boring_xml_url":68,"boring_view_url":1,"soilmap_view_url":null,"soiltest_xml_url":0,"soiltest_view_url":0},{"id":523375,"code":"B4KJ202201002-5911","latitude":"34.448788","longitude":"132.495612","source_code":"CG188753640200090009","project_name":"\u4e95\u53e3\u53f0_H30-No.3","survey_name":"\u5e83\u5cf6\u897f\u90e8\u5c71\u7cfb\u5730\u8cea\u8abf\u67fb\u696d\u52d9","client_name":"\u56fd\u571f\u4ea4\u901a\u7701\u3000\u4e2d\u56fd\u5730\u65b9\u6574\u5099\u5c40\u3000\u592a\u7530\u5ddd\u6cb3\u5ddd\u4e8b\u52d9\u6240","boring_xml_url":68,"boring_view_url":1,"soilmap_view_url":null,"soiltest_xml_url":0,"soiltest_view_url":0},{"id":523374,"code":"B4KJ202201002-5910","latitude":"34.381285","longitude":"132.383286","source_code":"CG188753640200090008","project_name":"\u5e83\u5cf6\u897f\u90e8\u5c71\u7cfb\u5730\u8cea\u8abf\u67fb\u696d\u52d9","survey_name":"\u5e83\u5cf6\u897f\u90e8\u5c71\u7cfb\u5730\u8cea\u8abf\u67fb\u696d\u52d9","client_name":"\u56fd\u571f\u4ea4\u901a\u7701\u3000\u4e2d\u56fd\u5730\u65b9\u6574\u5099\u5c40\u3000\u592a\u7530\u5ddd\u6cb3\u5ddd\u4e8b\u52d9\u6240","boring_xml_url":68,"boring_view_url":1,"soilmap_view_url":null,"soiltest_xml_url":0,"soiltest_view_url":0},{"id":523373,"code":"B4KJ202201002-5909","latitude":"34.381405","longitude":"132.383347","source_code":"CG188753640200090007","project_name":"\u5e83\u5cf6\u897f\u90e8\u5c71\u7cfb\u5730\u8cea\u8abf\u67fb\u696d\u52d9","survey_name":"\u5e83\u5cf6\u897f\u90e8\u5c71\u7cfb\u5730\u8cea\u8abf\u67fb\u696d\u52d9","client_name":"\u56fd\u571f\u4ea4\u901a\u7701\u3000\u4e2d\u56fd\u5730\u65b9\u6574\u5099\u5c40\u3000\u592a\u7530\u5ddd\u6cb3\u5ddd\u4e8b\u52d9\u6240","boring_xml_url":68,"boring_view_url":1,"soilmap_view_url":null,"soiltest_xml_url":0,"soiltest_view_url":0},{"id":523372,"code":"B4KJ202201002-5908","latitude":"34.380668","longitude":"132.384437","source_code":"CG188753640200090006","project_name":"\u5e83\u5cf6\u897f\u90e8\u5c71\u7cfb\u5730\u8cea\u8abf\u67fb\u696d\u52d9","survey_name":"\u5e83\u5cf6\u897f\u90e8\u5c71\u7cfb\u5730\u8cea\u8abf\u67fb\u696d\u52d9","client_name":"\u56fd\u571f\u4ea4\u901a\u7701\u3000\u4e2d\u56fd\u5730\u65b9\u6574\u5099\u5c40\u3000\u592a\u7530\u5ddd\u6cb3\u5ddd\u4e8b\u52d9\u6240","boring_xml_url":68,"boring_view_url":1,"soilmap_view_url":null,"soiltest_xml_url":0,"soiltest_view_url":0},{"id":523371,"code":"B4KJ202201002-5907","latitude":"34.380839","longitude":"132.384469","source_code":"CG188753640200090005","project_name":"\u5e83\u5cf6\u897f\u90e8\u5c71\u7cfb\u5730\u8cea\u8abf\u67fb\u696d\u52d9","survey_name":"\u5e83\u5cf6\u897f\u90e8\u5c71\u7cfb\u5730\u8cea\u8abf\u67fb\u696d\u52d9","client_name":"\u56fd\u571f\u4ea4\u901a\u7701\u3000\u4e2d\u56fd\u5730\u65b9\u6574\u5099\u5c40\u3000\u592a\u7530\u5ddd\u6cb3\u5ddd\u4e8b\u52d9\u6240","boring_xml_url":68,"boring_view_url":1,"soilmap_view_url":null,"soiltest_xml_url":0,"soiltest_view_url":0},{"id":523370,"code":"B4KJ202201002-5906","latitude":"34.450644","longitude":"132.501998","source_code":"CG188753640200090004","project_name":"\u5e83\u5cf6\u897f\u90e8\u5c71\u7cfb\u5730\u8cea\u8abf\u67fb\u696d\u52d9","survey_name":"\u5e83\u5cf6\u897f\u90e8\u5c71\u7cfb\u5730\u8cea\u8abf\u67fb\u696d\u52d9","client_name":"\u56fd\u571f\u4ea4\u901a\u7701\u3000\u4e2d\u56fd\u5730\u65b9\u6574\u5099\u5c40\u3000\u592a\u7530\u5ddd\u6cb3\u5ddd\u4e8b\u52d9\u6240","boring_xml_url":68,"boring_view_url":1,"soilmap_view_url":null,"soiltest_xml_url":0,"soiltest_view_url":0},{"id":523369,"code":"B4KJ202201002-5905","latitude":"34.450453","longitude":"132.501826","source_code":"CG188753640200090003","project_name":"\u5e83\u5cf6\u897f\u90e8\u5c71\u7cfb\u5730\u8cea\u8abf\u67fb\u696d\u52d9","survey_name":"\u5e83\u5cf6\u897f\u90e8\u5c71\u7cfb\u5730\u8cea\u8abf\u67fb\u696d\u52d9","client_name":"\u56fd\u571f\u4ea4\u901a\u7701\u3000\u4e2d\u56fd\u5730\u65b9\u6574\u5099\u5c40\u3000\u592a\u7530\u5ddd\u6cb3\u5ddd\u4e8b\u52d9\u6240","boring_xml_url":68,"boring_view_url":1,"soilmap_view_url":null,"soiltest_xml_url":0,"soiltest_view_url":0}]}}