{"header":{"xyz":{"source":[],"mosaic":false},"page":735,"raw":{"soiltest_result":"0","bbox":"57.598333,109.544722,1.933333,163.806111","page":"735"},"conditions":{"soiltest_result":0,"north":57.598333,"west":109.544722,"south":1.933333,"east":163.806111},"success":true,"message":""},"data":{"meta":{"total":212844,"page":735,"pages":7095,"count":30},"values":[{"id":523368,"code":"B4KJ202201002-5904","latitude":"34.450455","longitude":"132.502169","source_code":"CG188753640200090002","project_name":"\u5e83\u5cf6\u897f\u90e8\u5c71\u7cfb\u5730\u8cea\u8abf\u67fb\u696d\u52d9","survey_name":"\u5e83\u5cf6\u897f\u90e8\u5c71\u7cfb\u5730\u8cea\u8abf\u67fb\u696d\u52d9","client_name":"\u56fd\u571f\u4ea4\u901a\u7701\u3000\u4e2d\u56fd\u5730\u65b9\u6574\u5099\u5c40\u3000\u592a\u7530\u5ddd\u6cb3\u5ddd\u4e8b\u52d9\u6240","boring_xml_url":68,"boring_view_url":1,"soilmap_view_url":null,"soiltest_xml_url":0,"soiltest_view_url":0},{"id":523367,"code":"B4KJ202201002-5903","latitude":"34.450454","longitude":"132.502","source_code":"CG188753640200090001","project_name":"\u5e83\u5cf6\u897f\u90e8\u5c71\u7cfb\u5730\u8cea\u8abf\u67fb\u696d\u52d9","survey_name":"\u5e83\u5cf6\u897f\u90e8\u5c71\u7cfb\u5730\u8cea\u8abf\u67fb\u696d\u52d9","client_name":"\u56fd\u571f\u4ea4\u901a\u7701\u3000\u4e2d\u56fd\u5730\u65b9\u6574\u5099\u5c40\u3000\u592a\u7530\u5ddd\u6cb3\u5ddd\u4e8b\u52d9\u6240","boring_xml_url":68,"boring_view_url":1,"soilmap_view_url":null,"soiltest_xml_url":0,"soiltest_view_url":0},{"id":523366,"code":"B4KJ202201002-5902","latitude":"34.227778","longitude":"132.183333","source_code":"CG188753410200090002","project_name":"","survey_name":"\u5c0f\u702c\u5ddd\u5c0f\u5ddd\u6d25\u6a0b\u9580\u5916\u8a73\u7d30\u8a2d\u8a08\u696d\u52d9","client_name":"\u56fd\u571f\u4ea4\u901a\u7701\u3000\u4e2d\u56fd\u5730\u65b9\u6574\u5099\u5c40\u3000\u592a\u7530\u5ddd\u6cb3\u5ddd\u4e8b\u52d9\u6240","boring_xml_url":68,"boring_view_url":1,"soilmap_view_url":null,"soiltest_xml_url":0,"soiltest_view_url":0},{"id":523365,"code":"B4KJ202201002-5901","latitude":"34.227778","longitude":"132.183333","source_code":"CG188753410200090001","project_name":"","survey_name":"\u5c0f\u702c\u5ddd\u5c0f\u5ddd\u6d25\u6a0b\u9580\u5916\u8a73\u7d30\u8a2d\u8a08\u696d\u52d9","client_name":"\u56fd\u571f\u4ea4\u901a\u7701\u3000\u4e2d\u56fd\u5730\u65b9\u6574\u5099\u5c40\u3000\u592a\u7530\u5ddd\u6cb3\u5ddd\u4e8b\u52d9\u6240","boring_xml_url":68,"boring_view_url":1,"soilmap_view_url":null,"soiltest_xml_url":0,"soiltest_view_url":0},{"id":523364,"code":"B4KJ202201002-5900","latitude":"34.615393","longitude":"133.723975","source_code":"CG188740450200040002","project_name":"","survey_name":"\u5e73\u621030\u5e74\u5ea6\u3000\u5c0f\u7530\u5ddd\u4ed8\u66ff\u5730\u8cea\u8abf\u67fb\u696d\u52d9","client_name":"\u56fd\u571f\u4ea4\u901a\u7701\u5ca1\u5c71\u6cb3\u5ddd\u4e8b\u52d9\u6240\u8a08\u753b\u8ab2","boring_xml_url":68,"boring_view_url":1,"soilmap_view_url":null,"soiltest_xml_url":0,"soiltest_view_url":0},{"id":523363,"code":"B4KJ202201002-5899","latitude":"34.669953","longitude":"133.976327","source_code":"CG188740450200040001","project_name":"","survey_name":"\u5e73\u621030\u5e74\u5ea6\u3000\u5c0f\u7530\u5ddd\u4ed8\u66ff\u5730\u8cea\u8abf\u67fb\u696d\u52d9","client_name":"\u56fd\u571f\u4ea4\u901a\u7701\u5ca1\u5c71\u6cb3\u5ddd\u4e8b\u52d9\u6240\u8a08\u753b\u8ab2","boring_xml_url":68,"boring_view_url":1,"soilmap_view_url":null,"soiltest_xml_url":0,"soiltest_view_url":0},{"id":523362,"code":"B4KJ202201002-5898","latitude":"35.461438","longitude":"133.100694","source_code":"CG188736600200060003","project_name":"","survey_name":"\u5927\u6a4b\u5ddd\u5730\u8cea\u8abf\u67fb\u696d\u52d9","client_name":"\u56fd\u571f\u4ea4\u901a\u7701\u4e2d\u56fd\u5730\u65b9\u6574\u5099\u5c40\u51fa\u96f2\u6cb3\u5ddd\u4e8b\u52d9\u6240","boring_xml_url":68,"boring_view_url":1,"soilmap_view_url":null,"soiltest_xml_url":0,"soiltest_view_url":0},{"id":523361,"code":"B4KJ202201002-5897","latitude":"35.468512","longitude":"133.059992","source_code":"CG188736600200060002","project_name":"","survey_name":"\u5927\u6a4b\u5ddd\u5730\u8cea\u8abf\u67fb\u696d\u52d9","client_name":"\u56fd\u571f\u4ea4\u901a\u7701\u4e2d\u56fd\u5730\u65b9\u6574\u5099\u5c40\u51fa\u96f2\u6cb3\u5ddd\u4e8b\u52d9\u6240","boring_xml_url":68,"boring_view_url":1,"soilmap_view_url":null,"soiltest_xml_url":0,"soiltest_view_url":0},{"id":523360,"code":"B4KJ202201002-5896","latitude":"35.46847","longitude":"133.060638","source_code":"CG188736600200060001","project_name":"","survey_name":"\u5927\u6a4b\u5ddd\u5730\u8cea\u8abf\u67fb\u696d\u52d9","client_name":"\u56fd\u571f\u4ea4\u901a\u7701\u4e2d\u56fd\u5730\u65b9\u6574\u5099\u5c40\u51fa\u96f2\u6cb3\u5ddd\u4e8b\u52d9\u6240","boring_xml_url":68,"boring_view_url":1,"soilmap_view_url":null,"soiltest_xml_url":0,"soiltest_view_url":0},{"id":523359,"code":"B4KJ202201002-5895","latitude":"35.457747","longitude":"133.101997","source_code":"CG188736600200040002","project_name":"\u5927\u6a4b\u5ddd\u6e2c\u91cf\u8a2d\u8a08\u305d\u306e2\u696d\u52d9","survey_name":"\u5927\u6a4b\u5ddd\u6e2c\u91cf\u8a2d\u8a08\u305d\u306e2\u696d\u52d9","client_name":"\"\u56fd\u571f\u4ea4\u901a\u7701 \u4e2d\u56fd\u5730\u65b9\u6574\u5099\u5c40 \u51fa\u96f2\u6cb3\u5ddd\u4e8b\u52d9\u6240\"","boring_xml_url":68,"boring_view_url":1,"soilmap_view_url":null,"soiltest_xml_url":0,"soiltest_view_url":0},{"id":523358,"code":"B4KJ202201002-5894","latitude":"35.456986","longitude":"133.101711","source_code":"CG188736600200040001","project_name":"\u5927\u6a4b\u5ddd\u6e2c\u91cf\u8a2d\u8a08\u305d\u306e2\u696d\u52d9","survey_name":"\u5927\u6a4b\u5ddd\u6e2c\u91cf\u8a2d\u8a08\u305d\u306e2\u696d\u52d9","client_name":"\"\u56fd\u571f\u4ea4\u901a\u7701 \u4e2d\u56fd\u5730\u65b9\u6574\u5099\u5c40 \u51fa\u96f2\u6cb3\u5ddd\u4e8b\u52d9\u6240\"","boring_xml_url":68,"boring_view_url":1,"soilmap_view_url":null,"soiltest_xml_url":0,"soiltest_view_url":0},{"id":523357,"code":"B4KJ202201002-5893","latitude":"35.342385","longitude":"132.702569","source_code":"CG188736510200090005","project_name":"","survey_name":"\u795e\u6238\u5ddd\u5916\u5730\u8cea\u8abf\u67fb\u696d\u52d9","client_name":"\"\u56fd\u571f\u4ea4\u901a\u7701 \u4e2d\u56fd\u5730\u65b9\u6574\u5099\u5c40 \u51fa\u96f2\u6cb3\u5ddd\u4e8b\u52d9\u6240\"","boring_xml_url":68,"boring_view_url":1,"soilmap_view_url":null,"soiltest_xml_url":0,"soiltest_view_url":0},{"id":523356,"code":"B4KJ202201002-5892","latitude":"35.342389","longitude":"132.702579","source_code":"CG188736510200090004","project_name":"","survey_name":"\u795e\u6238\u5ddd\u5916\u5730\u8cea\u8abf\u67fb\u696d\u52d9","client_name":"\"\u56fd\u571f\u4ea4\u901a\u7701 \u4e2d\u56fd\u5730\u65b9\u6574\u5099\u5c40 \u51fa\u96f2\u6cb3\u5ddd\u4e8b\u52d9\u6240\"","boring_xml_url":68,"boring_view_url":1,"soilmap_view_url":null,"soiltest_xml_url":0,"soiltest_view_url":0},{"id":523355,"code":"B4KJ202201002-5891","latitude":"35.348109","longitude":"132.710171","source_code":"CG188736510200090003","project_name":"","survey_name":"\u795e\u6238\u5ddd\u5916\u5730\u8cea\u8abf\u67fb\u696d\u52d9","client_name":"\"\u56fd\u571f\u4ea4\u901a\u7701 \u4e2d\u56fd\u5730\u65b9\u6574\u5099\u5c40 \u51fa\u96f2\u6cb3\u5ddd\u4e8b\u52d9\u6240\"","boring_xml_url":68,"boring_view_url":1,"soilmap_view_url":null,"soiltest_xml_url":0,"soiltest_view_url":0},{"id":523354,"code":"B4KJ202201002-5890","latitude":"35.34811","longitude":"132.710174","source_code":"CG188736510200090002","project_name":"","survey_name":"\u795e\u6238\u5ddd\u5916\u5730\u8cea\u8abf\u67fb\u696d\u52d9","client_name":"\u56fd\u571f\u4ea4\u901a\u7701\u4e2d\u56fd\u5730\u65b9\u6574\u5099\u5c40\u51fa\u96f2\u6cb3\u5ddd\u4e8b\u52d9\u6240","boring_xml_url":68,"boring_view_url":1,"soilmap_view_url":null,"soiltest_xml_url":0,"soiltest_view_url":0},{"id":523353,"code":"B4KJ202201002-5889","latitude":"35.346762","longitude":"132.690701","source_code":"CG188736510200090001","project_name":"","survey_name":"\u795e\u6238\u5ddd\u5916\u5730\u8cea\u8abf\u67fb\u696d\u52d9","client_name":"\"\u56fd\u571f\u4ea4\u901a\u7701 \u4e2d\u56fd\u5730\u65b9\u6574\u5099\u5c40 \u51fa\u96f2\u6cb3\u5ddd\u4e8b\u52d9\u6240\"","boring_xml_url":68,"boring_view_url":1,"soilmap_view_url":null,"soiltest_xml_url":0,"soiltest_view_url":0},{"id":523352,"code":"B4KJ202201002-5888","latitude":"34.619811","longitude":"131.601551","source_code":"CG178760550200050007","project_name":"\u5c71\u53e3\u7ba1\u5185\u5730\u8cea\u8abf\u67fb\u696d\u52d9\u3000(\u4fdd\u6728\u30fb\u5343\u675f\u30fb\u5fb3\u4f50\u30fb\u9808\u4f50)","survey_name":"\u5c71\u53e3\u7ba1\u5185\u5730\u8cea\u8abf\u67fb\u696d\u52d9","client_name":"\"\u56fd\u571f\u4ea4\u901a\u7701 \u4e2d\u56fd\u5730\u65b9\u6574\u5099\u5c40 \u5c71\u53e3\u6cb3\u5ddd\u56fd\u9053\u4e8b\u52d9\u6240\"","boring_xml_url":68,"boring_view_url":1,"soilmap_view_url":null,"soiltest_xml_url":0,"soiltest_view_url":0},{"id":523351,"code":"B4KJ202201002-5887","latitude":"34.619828","longitude":"131.601608","source_code":"CG178760550200050006","project_name":"\u5c71\u53e3\u7ba1\u5185\u5730\u8cea\u8abf\u67fb\u696d\u52d9\u3000(\u4fdd\u6728\u30fb\u5343\u675f\u30fb\u5fb3\u4f50\u30fb\u9808\u4f50)","survey_name":"\u5c71\u53e3\u7ba1\u5185\u5730\u8cea\u8abf\u67fb\u696d\u52d9","client_name":"\"\u56fd\u571f\u4ea4\u901a\u7701 \u4e2d\u56fd\u5730\u65b9\u6574\u5099\u5c40 \u5c71\u53e3\u6cb3\u5ddd\u56fd\u9053\u4e8b\u52d9\u6240\"","boring_xml_url":68,"boring_view_url":1,"soilmap_view_url":null,"soiltest_xml_url":0,"soiltest_view_url":0},{"id":523350,"code":"B4KJ202201002-5886","latitude":"34.434453","longitude":"131.769993","source_code":"CG178760550200050005","project_name":"\u5c71\u53e3\u7ba1\u5185\u5730\u8cea\u8abf\u67fb\u696d\u52d9\u3000(\u4fdd\u6728\u30fb\u5343\u675f\u30fb\u5fb3\u4f50\u30fb\u9808\u4f50)","survey_name":"\u5c71\u53e3\u7ba1\u5185\u5730\u8cea\u8abf\u67fb\u696d\u52d9","client_name":"\"\u56fd\u571f\u4ea4\u901a\u7701 \u4e2d\u56fd\u5730\u65b9\u6574\u5099\u5c40 \u5c71\u53e3\u6cb3\u5ddd\u56fd\u9053\u4e8b\u52d9\u6240\"","boring_xml_url":68,"boring_view_url":1,"soilmap_view_url":null,"soiltest_xml_url":0,"soiltest_view_url":0},{"id":523349,"code":"B4KJ202201002-5885","latitude":"34.091787","longitude":"132.061","source_code":"CG178760550200050004","project_name":"\u5c71\u53e3\u7ba1\u5185\u5730\u8cea\u8abf\u67fb\u696d\u52d9\u3000(\u4fdd\u6728\u30fb\u5343\u675f\u30fb\u5fb3\u4f50\u30fb\u9808\u4f50)","survey_name":"\u5c71\u53e3\u7ba1\u5185\u5730\u8cea\u8abf\u67fb\u696d\u52d9","client_name":"\"\u56fd\u571f\u4ea4\u901a\u7701 \u4e2d\u56fd\u5730\u65b9\u6574\u5099\u5c40 \u5c71\u53e3\u6cb3\u5ddd\u56fd\u9053\u4e8b\u52d9\u6240\"","boring_xml_url":68,"boring_view_url":1,"soilmap_view_url":null,"soiltest_xml_url":0,"soiltest_view_url":0},{"id":523348,"code":"B4KJ202201002-5884","latitude":"34.091994","longitude":"132.060878","source_code":"CG178760550200050003","project_name":"\u5c71\u53e3\u7ba1\u5185\u5730\u8cea\u8abf\u67fb\u696d\u52d9\u3000(\u4fdd\u6728\u30fb\u5343\u675f\u30fb\u5fb3\u4f50\u30fb\u9808\u4f50)","survey_name":"\u5c71\u53e3\u7ba1\u5185\u5730\u8cea\u8abf\u67fb\u696d\u52d9","client_name":"\"\u56fd\u571f\u4ea4\u901a\u7701 \u4e2d\u56fd\u5730\u65b9\u6574\u5099\u5c40 \u5c71\u53e3\u6cb3\u5ddd\u56fd\u9053\u4e8b\u52d9\u6240\"","boring_xml_url":68,"boring_view_url":1,"soilmap_view_url":null,"soiltest_xml_url":0,"soiltest_view_url":0},{"id":523347,"code":"B4KJ202201002-5883","latitude":"34.172611","longitude":"132.113835","source_code":"CG178760550200050002","project_name":"\u5c71\u53e3\u7ba1\u5185\u5730\u8cea\u8abf\u67fb\u696d\u52d9\u3000(\u4fdd\u6728\u30fb\u5343\u675f\u30fb\u5fb3\u4f50\u30fb\u9808\u4f50)","survey_name":"\u5c71\u53e3\u7ba1\u5185\u5730\u8cea\u8abf\u67fb\u696d\u52d9","client_name":"\"\u56fd\u571f\u4ea4\u901a\u7701 \u4e2d\u56fd\u5730\u65b9\u6574\u5099\u5c40 \u5c71\u53e3\u6cb3\u5ddd\u56fd\u9053\u4e8b\u52d9\u6240\"","boring_xml_url":68,"boring_view_url":1,"soilmap_view_url":null,"soiltest_xml_url":0,"soiltest_view_url":0},{"id":523346,"code":"B4KJ202201002-5882","latitude":"34.172611","longitude":"132.113835","source_code":"CG178760550200050001","project_name":"\u5c71\u53e3\u7ba1\u5185\u5730\u8cea\u8abf\u67fb\u696d\u52d9\u3000(\u4fdd\u6728\u30fb\u5343\u675f\u30fb\u5fb3\u4f50\u30fb\u9808\u4f50)","survey_name":"\u5c71\u53e3\u7ba1\u5185\u5730\u8cea\u8abf\u67fb\u696d\u52d9","client_name":"\"\u56fd\u571f\u4ea4\u901a\u7701 \u4e2d\u56fd\u5730\u65b9\u6574\u5099\u5c40 \u5c71\u53e3\u6cb3\u5ddd\u56fd\u9053\u4e8b\u52d9\u6240\"","boring_xml_url":68,"boring_view_url":1,"soilmap_view_url":null,"soiltest_xml_url":0,"soiltest_view_url":0},{"id":523345,"code":"B4KJ202201002-5881","latitude":"34.110627","longitude":"131.400902","source_code":"CG178760540200060003","project_name":"","survey_name":"\u5c71\u53e3\u30fb\u5b87\u90e8\u5730\u533a\u4fee\u7e55\u8a2d\u8a08\u4ed6\u696d\u52d9","client_name":"\u56fd\u571f\u4ea4\u901a\u7701\u4e2d\u56fd\u5730\u65b9\u6574\u5099\u5c40\u3000\u5c71\u53e3\u6cb3\u5ddd\u56fd\u9053\u4e8b\u52d9\u6240","boring_xml_url":68,"boring_view_url":1,"soilmap_view_url":null,"soiltest_xml_url":0,"soiltest_view_url":0},{"id":523344,"code":"B4KJ202201002-5880","latitude":"34.044525","longitude":"131.110293","source_code":"CG178760540200060002","project_name":"","survey_name":"\u5c71\u53e3\u30fb\u5b87\u90e8\u5730\u533a\u4fee\u7e55\u8a2d\u8a08\u4ed6\u696d\u52d9","client_name":"\u56fd\u571f\u4ea4\u901a\u7701\u4e2d\u56fd\u5730\u65b9\u6574\u5099\u5c40\u3000\u5c71\u53e3\u6cb3\u5ddd\u56fd\u9053\u4e8b\u52d9\u6240","boring_xml_url":68,"boring_view_url":1,"soilmap_view_url":null,"soiltest_xml_url":0,"soiltest_view_url":0},{"id":523343,"code":"B4KJ202201002-5879","latitude":"34.044417","longitude":"131.110281","source_code":"CG178760540200060001","project_name":"","survey_name":"\u5c71\u53e3\u30fb\u5b87\u90e8\u5730\u533a\u4fee\u7e55\u8a2d\u8a08\u4ed6\u696d\u52d9","client_name":"\u56fd\u571f\u4ea4\u901a\u7701\u4e2d\u56fd\u5730\u65b9\u6574\u5099\u5c40\u3000\u5c71\u53e3\u6cb3\u5ddd\u56fd\u9053\u4e8b\u52d9\u6240","boring_xml_url":68,"boring_view_url":1,"soilmap_view_url":null,"soiltest_xml_url":0,"soiltest_view_url":0},{"id":523342,"code":"B4KJ202201002-5878","latitude":"34.535216","longitude":"131.511736","source_code":"CG178760420200330007","project_name":"","survey_name":"\u7530\u90e8\u5730\u533a\u5730\u8cea\u89e3\u6790\u8abf\u67fb\u696d\u52d9","client_name":"\u56fd\u571f\u4ea4\u901a\u7701\u3000\u4e2d\u56fd\u5730\u65b9\u6574\u5099\u5c40\u3000\u5c71\u53e3\u6cb3\u5ddd\u56fd\u9053\u4e8b\u52d9\u6240","boring_xml_url":68,"boring_view_url":1,"soilmap_view_url":null,"soiltest_xml_url":0,"soiltest_view_url":0},{"id":523341,"code":"B4KJ202201002-5877","latitude":"34.535256","longitude":"131.511763","source_code":"CG178760420200330006","project_name":"","survey_name":"\u7530\u90e8\u5730\u533a\u5730\u8cea\u89e3\u6790\u8abf\u67fb\u696d\u52d9","client_name":"\u56fd\u571f\u4ea4\u901a\u7701\u3000\u4e2d\u56fd\u5730\u65b9\u6574\u5099\u5c40\u3000\u5c71\u53e3\u6cb3\u5ddd\u56fd\u9053\u4e8b\u52d9\u6240","boring_xml_url":68,"boring_view_url":1,"soilmap_view_url":null,"soiltest_xml_url":0,"soiltest_view_url":0},{"id":523340,"code":"B4KJ202201002-5876","latitude":"34.537258","longitude":"131.514148","source_code":"CG178760420200330005","project_name":"","survey_name":"\u7530\u90e8\u5730\u533a\u5730\u8cea\u89e3\u6790\u8abf\u67fb\u696d\u52d9","client_name":"\u56fd\u571f\u4ea4\u901a\u7701\u3000\u4e2d\u56fd\u5730\u65b9\u6574\u5099\u5c40\u3000\u5c71\u53e3\u6cb3\u5ddd\u56fd\u9053\u4e8b\u52d9\u6240","boring_xml_url":68,"boring_view_url":1,"soilmap_view_url":null,"soiltest_xml_url":0,"soiltest_view_url":0},{"id":523339,"code":"B4KJ202201002-5875","latitude":"34.548796","longitude":"131.523164","source_code":"CG178760420200330004","project_name":"","survey_name":"\u7530\u90e8\u5730\u533a\u5730\u8cea\u89e3\u6790\u8abf\u67fb\u696d\u52d9","client_name":"\u56fd\u571f\u4ea4\u901a\u7701\u3000\u4e2d\u56fd\u5730\u65b9\u6574\u5099\u5c40\u3000\u5c71\u53e3\u6cb3\u5ddd\u56fd\u9053\u4e8b\u52d9\u6240","boring_xml_url":68,"boring_view_url":1,"soilmap_view_url":null,"soiltest_xml_url":0,"soiltest_view_url":0}]}}