{"header":{"xyz":{"source":[],"mosaic":false},"page":741,"raw":{"soiltest_result":"0","bbox":"57.598333,109.544722,1.933333,163.806111","page":"741"},"conditions":{"soiltest_result":0,"north":57.598333,"west":109.544722,"south":1.933333,"east":163.806111},"success":true,"message":""},"data":{"meta":{"total":212844,"page":741,"pages":7095,"count":30},"values":[{"id":523188,"code":"B4KJ202201002-5724","latitude":"35.497861","longitude":"134.048556","source_code":"CG178730540200110008","project_name":"\u9ce5\u53d6\u7ba1\u5185\u5730\u8cea\u8abf\u67fb\u696d\u52d9","survey_name":"\u9ce5\u53d6\u7ba1\u5185\u5730\u8cea\u8abf\u67fb\u696d\u52d9","client_name":"\u56fd\u571f\u4ea4\u901a\u7701\u4e2d\u56fd\u5730\u65b9\u6574\u5099\u5c40\u9ce5\u53d6\u6cb3\u5ddd\u56fd\u9053\u4e8b\u52d9\u6240","boring_xml_url":68,"boring_view_url":1,"soilmap_view_url":null,"soiltest_xml_url":0,"soiltest_view_url":0},{"id":523187,"code":"B4KJ202201002-5723","latitude":"35.497806","longitude":"134.046778","source_code":"CG178730540200110007","project_name":"\u9ce5\u53d6\u7ba1\u5185\u5730\u8cea\u8abf\u67fb\u696d\u52d9","survey_name":"\u9ce5\u53d6\u7ba1\u5185\u5730\u8cea\u8abf\u67fb\u696d\u52d9","client_name":"\u56fd\u571f\u4ea4\u901a\u7701\u4e2d\u56fd\u5730\u65b9\u6574\u5099\u5c40\u9ce5\u53d6\u6cb3\u5ddd\u56fd\u9053\u4e8b\u52d9\u6240","boring_xml_url":68,"boring_view_url":1,"soilmap_view_url":null,"soiltest_xml_url":0,"soiltest_view_url":0},{"id":523186,"code":"B4KJ202201002-5722","latitude":"35.498806","longitude":"134.047861","source_code":"CG178730540200110006","project_name":"\u9ce5\u53d6\u7ba1\u5185\u5730\u8cea\u8abf\u67fb\u696d\u52d9","survey_name":"\u9ce5\u53d6\u7ba1\u5185\u5730\u8cea\u8abf\u67fb\u696d\u52d9","client_name":"\u56fd\u571f\u4ea4\u901a\u7701\u4e2d\u56fd\u5730\u65b9\u6574\u5099\u5c40\u9ce5\u53d6\u6cb3\u5ddd\u56fd\u9053\u4e8b\u52d9\u6240","boring_xml_url":68,"boring_view_url":1,"soilmap_view_url":null,"soiltest_xml_url":0,"soiltest_view_url":0},{"id":523185,"code":"B4KJ202201002-5721","latitude":"35.506139","longitude":"134.090833","source_code":"CG178730540200110005","project_name":"\u9ce5\u53d6\u7ba1\u5185\u5730\u8cea\u8abf\u67fb\u696d\u52d9","survey_name":"\u9ce5\u53d6\u7ba1\u5185\u5730\u8cea\u8abf\u67fb\u696d\u52d9","client_name":"\u56fd\u571f\u4ea4\u901a\u7701\u4e2d\u56fd\u5730\u65b9\u6574\u5099\u5c40\u9ce5\u53d6\u6cb3\u5ddd\u56fd\u9053\u4e8b\u52d9\u6240","boring_xml_url":68,"boring_view_url":1,"soilmap_view_url":null,"soiltest_xml_url":0,"soiltest_view_url":0},{"id":523184,"code":"B4KJ202201002-5720","latitude":"35.506778","longitude":"134.091722","source_code":"CG178730540200110004","project_name":"\u9ce5\u53d6\u7ba1\u5185\u5730\u8cea\u8abf\u67fb\u696d\u52d9","survey_name":"\u9ce5\u53d6\u7ba1\u5185\u5730\u8cea\u8abf\u67fb\u696d\u52d9","client_name":"\u56fd\u571f\u4ea4\u901a\u7701\u4e2d\u56fd\u5730\u65b9\u6574\u5099\u5c40\u9ce5\u53d6\u6cb3\u5ddd\u56fd\u9053\u4e8b\u52d9\u6240","boring_xml_url":68,"boring_view_url":1,"soilmap_view_url":null,"soiltest_xml_url":0,"soiltest_view_url":0},{"id":523183,"code":"B4KJ202201002-5719","latitude":"35.296114","longitude":"134.471583","source_code":"CG178730540200110003","project_name":"\u9ce5\u53d6\u7ba1\u5185\u5730\u8cea\u8abf\u67fb\u696d\u52d9","survey_name":"\u9ce5\u53d6\u7ba1\u5185\u5730\u8cea\u8abf\u67fb\u696d\u52d9","client_name":"\"\u56fd\u571f\u4ea4\u901a\u7701 \u9ce5\u53d6\u6cb3\u5ddd\u56fd\u9053\u4e8b\u52d9\u6240\"","boring_xml_url":68,"boring_view_url":1,"soilmap_view_url":null,"soiltest_xml_url":0,"soiltest_view_url":0},{"id":523182,"code":"B4KJ202201002-5718","latitude":"35.291417","longitude":"134.225444","source_code":"CG178730540200110002","project_name":"\u9ce5\u53d6\u7ba1\u5185\u5730\u8cea\u8abf\u67fb\u696d\u52d9","survey_name":"\u9ce5\u53d6\u7ba1\u5185\u5730\u8cea\u8abf\u67fb\u696d\u52d9","client_name":"\u56fd\u571f\u4ea4\u901a\u7701\u4e2d\u56fd\u5730\u65b9\u6574\u5099\u5c40\u9ce5\u53d6\u6cb3\u5ddd\u56fd\u9053\u4e8b\u52d9\u6240","boring_xml_url":68,"boring_view_url":1,"soilmap_view_url":null,"soiltest_xml_url":0,"soiltest_view_url":0},{"id":523181,"code":"B4KJ202201002-5717","latitude":"35.29125","longitude":"134.225333","source_code":"CG178730540200110001","project_name":"\u9ce5\u53d6\u7ba1\u5185\u5730\u8cea\u8abf\u67fb\u696d\u52d9","survey_name":"\u9ce5\u53d6\u7ba1\u5185\u5730\u8cea\u8abf\u67fb\u696d\u52d9","client_name":"\u56fd\u571f\u4ea4\u901a\u7701\u4e2d\u56fd\u5730\u65b9\u6574\u5099\u5c40\u9ce5\u53d6\u6cb3\u5ddd\u56fd\u9053\u4e8b\u52d9\u6240","boring_xml_url":68,"boring_view_url":1,"soilmap_view_url":null,"soiltest_xml_url":0,"soiltest_view_url":0},{"id":523180,"code":"B4KJ202201002-5716","latitude":"35.381028","longitude":"134.200722","source_code":"CG178730400200030002","project_name":"\u5343\u4ee3\u5ddd\u6c34\u7cfb\u6e2c\u91cf\u8a2d\u8a08\u696d\u52d9","survey_name":"\u5343\u4ee3\u5ddd\u6c34\u7cfb\u6e2c\u91cf\u8a2d\u8a08\u696d\u52d9","client_name":"\u56fd\u571f\u4ea4\u901a\u7701\u3000\u9ce5\u53d6\u6cb3\u5ddd\u56fd\u9053\u4e8b\u52d9\u6240","boring_xml_url":68,"boring_view_url":1,"soilmap_view_url":null,"soiltest_xml_url":0,"soiltest_view_url":0},{"id":523179,"code":"B4KJ202201002-5715","latitude":"35.380972","longitude":"134.200694","source_code":"CG178730400200030001","project_name":"\u5343\u4ee3\u5ddd\u6c34\u7cfb\u6e2c\u91cf\u8a2d\u8a08\u696d\u52d9","survey_name":"\u5343\u4ee3\u5ddd\u6c34\u7cfb\u6e2c\u91cf\u8a2d\u8a08\u696d\u52d9","client_name":"\u56fd\u571f\u4ea4\u901a\u7701\u3000\u9ce5\u53d6\u6cb3\u5ddd\u56fd\u9053\u4e8b\u52d9\u6240","boring_xml_url":68,"boring_view_url":1,"soilmap_view_url":null,"soiltest_xml_url":0,"soiltest_view_url":0},{"id":523178,"code":"B4KJ202201002-5714","latitude":"34.358186","longitude":"132.522983","source_code":"CG178755600200160011","project_name":"\u5e83\u5cf6\u5357\u9053\u8def\uff08\u5357\u660e\u795e\u753a\u5730\u533a\uff09\u5730\u8cea\u8abf\u67fb\u305d\u306e2\u696d\u52d9","survey_name":"\u5e83\u5cf6\u5357\u9053\u8def\uff08\u5357\u660e\u795e\u753a\u5730\u533a\uff09\u5730\u8cea\u8abf\u67fb\u305d\u306e2\u696d\u52d9","client_name":"\"\u56fd\u571f\u4ea4\u901a\u7701 \u4e2d\u56fd\u5730\u65b9\u6574\u5099\u5c40 \u5e83\u5cf6\u56fd\u9053\u4e8b\u52d9\u6240\"","boring_xml_url":68,"boring_view_url":1,"soilmap_view_url":null,"soiltest_xml_url":0,"soiltest_view_url":0},{"id":523177,"code":"B4KJ202201002-5713","latitude":"34.358383","longitude":"132.522764","source_code":"CG178755600200160010","project_name":"\u5e83\u5cf6\u5357\u9053\u8def\uff08\u5357\u660e\u795e\u753a\u5730\u533a\uff09\u5730\u8cea\u8abf\u67fb\u305d\u306e2\u696d\u52d9","survey_name":"\u5e83\u5cf6\u5357\u9053\u8def\uff08\u5357\u660e\u795e\u753a\u5730\u533a\uff09\u5730\u8cea\u8abf\u67fb\u305d\u306e2\u696d\u52d9","client_name":"\"\u56fd\u571f\u4ea4\u901a\u7701 \u4e2d\u56fd\u5730\u65b9\u6574\u5099\u5c40 \u5e83\u5cf6\u56fd\u9053\u4e8b\u52d9\u6240\"","boring_xml_url":68,"boring_view_url":1,"soilmap_view_url":null,"soiltest_xml_url":0,"soiltest_view_url":0},{"id":523176,"code":"B4KJ202201002-5712","latitude":"34.358494","longitude":"132.523122","source_code":"CG178755600200160009","project_name":"\u5e83\u5cf6\u5357\u9053\u8def\uff08\u5357\u660e\u795e\u753a\u5730\u533a\uff09\u5730\u8cea\u8abf\u67fb\u305d\u306e2\u696d\u52d9","survey_name":"\u5e83\u5cf6\u5357\u9053\u8def\uff08\u5357\u660e\u795e\u753a\u5730\u533a\uff09\u5730\u8cea\u8abf\u67fb\u305d\u306e2\u696d\u52d9","client_name":"\"\u56fd\u571f\u4ea4\u901a\u7701 \u4e2d\u56fd\u5730\u65b9\u6574\u5099\u5c40 \u5e83\u5cf6\u56fd\u9053\u4e8b\u52d9\u6240\"","boring_xml_url":68,"boring_view_url":1,"soilmap_view_url":null,"soiltest_xml_url":0,"soiltest_view_url":0},{"id":523175,"code":"B4KJ202201002-5711","latitude":"34.360156","longitude":"132.525086","source_code":"CG178755600200160008","project_name":"\u5e83\u5cf6\u5357\u9053\u8def\uff08\u5357\u660e\u795e\u753a\u5730\u533a\uff09\u5730\u8cea\u8abf\u67fb\u305d\u306e2\u696d\u52d9","survey_name":"\u5e83\u5cf6\u5357\u9053\u8def\uff08\u5357\u660e\u795e\u753a\u5730\u533a\uff09\u5730\u8cea\u8abf\u67fb\u305d\u306e2\u696d\u52d9","client_name":"\"\u56fd\u571f\u4ea4\u901a\u7701 \u4e2d\u56fd\u5730\u65b9\u6574\u5099\u5c40 \u5e83\u5cf6\u56fd\u9053\u4e8b\u52d9\u6240\"","boring_xml_url":68,"boring_view_url":1,"soilmap_view_url":null,"soiltest_xml_url":0,"soiltest_view_url":0},{"id":523174,"code":"B4KJ202201002-5710","latitude":"34.360156","longitude":"132.525086","source_code":"CG178755600200160007","project_name":"\u5e83\u5cf6\u5357\u9053\u8def\uff08\u5357\u660e\u795e\u753a\u5730\u533a\uff09\u5730\u8cea\u8abf\u67fb\u305d\u306e2\u696d\u52d9","survey_name":"\u5e83\u5cf6\u5357\u9053\u8def\uff08\u5357\u660e\u795e\u753a\u5730\u533a\uff09\u5730\u8cea\u8abf\u67fb\u305d\u306e2\u696d\u52d9","client_name":"\"\u56fd\u571f\u4ea4\u901a\u7701 \u4e2d\u56fd\u5730\u65b9\u6574\u5099\u5c40 \u5e83\u5cf6\u56fd\u9053\u4e8b\u52d9\u6240\"","boring_xml_url":68,"boring_view_url":1,"soilmap_view_url":null,"soiltest_xml_url":0,"soiltest_view_url":0},{"id":523173,"code":"B4KJ202201002-5709","latitude":"34.360389","longitude":"132.525317","source_code":"CG178755600200160006","project_name":"\u5e83\u5cf6\u5357\u9053\u8def\uff08\u5357\u660e\u795e\u753a\u5730\u533a\uff09\u5730\u8cea\u8abf\u67fb\u305d\u306e2\u696d\u52d9","survey_name":"\u5e83\u5cf6\u5357\u9053\u8def\uff08\u5357\u660e\u795e\u753a\u5730\u533a\uff09\u5730\u8cea\u8abf\u67fb\u305d\u306e2\u696d\u52d9","client_name":"\"\u56fd\u571f\u4ea4\u901a\u7701 \u4e2d\u56fd\u5730\u65b9\u6574\u5099\u5c40 \u5e83\u5cf6\u56fd\u9053\u4e8b\u52d9\u6240\"","boring_xml_url":68,"boring_view_url":1,"soilmap_view_url":null,"soiltest_xml_url":0,"soiltest_view_url":0},{"id":523172,"code":"B4KJ202201002-5708","latitude":"34.360542","longitude":"132.525622","source_code":"CG178755600200160005","project_name":"\u5e83\u5cf6\u5357\u9053\u8def\uff08\u5357\u660e\u795e\u753a\u5730\u533a\uff09\u5730\u8cea\u8abf\u67fb\u305d\u306e2\u696d\u52d9","survey_name":"\u5e83\u5cf6\u5357\u9053\u8def\uff08\u5357\u660e\u795e\u753a\u5730\u533a\uff09\u5730\u8cea\u8abf\u67fb\u305d\u306e2\u696d\u52d9","client_name":"\"\u56fd\u571f\u4ea4\u901a\u7701 \u4e2d\u56fd\u5730\u65b9\u6574\u5099\u5c40 \u5e83\u5cf6\u56fd\u9053\u4e8b\u52d9\u6240\"","boring_xml_url":68,"boring_view_url":1,"soilmap_view_url":null,"soiltest_xml_url":0,"soiltest_view_url":0},{"id":523171,"code":"B4KJ202201002-5707","latitude":"34.360681","longitude":"132.525969","source_code":"CG178755600200160004","project_name":"\u5e83\u5cf6\u5357\u9053\u8def\uff08\u5357\u660e\u795e\u753a\u5730\u533a\uff09\u5730\u8cea\u8abf\u67fb\u305d\u306e2\u696d\u52d9","survey_name":"\u5e83\u5cf6\u5357\u9053\u8def\uff08\u5357\u660e\u795e\u753a\u5730\u533a\uff09\u5730\u8cea\u8abf\u67fb\u305d\u306e2\u696d\u52d9","client_name":"\"\u56fd\u571f\u4ea4\u901a\u7701 \u4e2d\u56fd\u5730\u65b9\u6574\u5099\u5c40 \u5e83\u5cf6\u56fd\u9053\u4e8b\u52d9\u6240\"","boring_xml_url":68,"boring_view_url":1,"soilmap_view_url":null,"soiltest_xml_url":0,"soiltest_view_url":0},{"id":523170,"code":"B4KJ202201002-5706","latitude":"34.360842","longitude":"132.526236","source_code":"CG178755600200160003","project_name":"\u5e83\u5cf6\u5357\u9053\u8def\uff08\u5357\u660e\u795e\u753a\u5730\u533a\uff09\u5730\u8cea\u8abf\u67fb\u305d\u306e2\u696d\u52d9","survey_name":"\u5e83\u5cf6\u5357\u9053\u8def\uff08\u5357\u660e\u795e\u753a\u5730\u533a\uff09\u5730\u8cea\u8abf\u67fb\u305d\u306e2\u696d\u52d9","client_name":"\u56fd\u571f\u4ea4\u901a\u7701\u3000\u4e2d\u56fd\u5730\u65b9\u6574\u5099\u5c40\u3000\u5e83\u5cf6\u56fd\u9053\u4e8b\u52d9\u6240","boring_xml_url":68,"boring_view_url":1,"soilmap_view_url":null,"soiltest_xml_url":0,"soiltest_view_url":0},{"id":523169,"code":"B4KJ202201002-5705","latitude":"34.361003","longitude":"132.526583","source_code":"CG178755600200160002","project_name":"\u5e83\u5cf6\u5357\u9053\u8def\uff08\u5357\u660e\u795e\u753a\u5730\u533a\uff09\u5730\u8cea\u8abf\u67fb\u305d\u306e2\u696d\u52d9","survey_name":"\u5e83\u5cf6\u5357\u9053\u8def\uff08\u5357\u660e\u795e\u753a\u5730\u533a\uff09\u5730\u8cea\u8abf\u67fb\u305d\u306e2\u696d\u52d9","client_name":"\u56fd\u571f\u4ea4\u901a\u7701\u3000\u4e2d\u56fd\u5730\u65b9\u6574\u5099\u5c40\u3000\u5e83\u5cf6\u56fd\u9053\u4e8b\u52d9\u6240","boring_xml_url":68,"boring_view_url":1,"soilmap_view_url":null,"soiltest_xml_url":0,"soiltest_view_url":0},{"id":523168,"code":"B4KJ202201002-5704","latitude":"34.361186","longitude":"132.527019","source_code":"CG178755600200160001","project_name":"\u5e83\u5cf6\u5357\u9053\u8def\uff08\u5357\u660e\u795e\u753a\u5730\u533a\uff09\u5730\u8cea\u8abf\u67fb\u305d\u306e2\u696d\u52d9","survey_name":"\u5e83\u5cf6\u5357\u9053\u8def\uff08\u5357\u660e\u795e\u753a\u5730\u533a\uff09\u5730\u8cea\u8abf\u67fb\u305d\u306e2\u696d\u52d9","client_name":"\u56fd\u571f\u4ea4\u901a\u7701\u3000\u4e2d\u56fd\u5730\u65b9\u6574\u5099\u5c40\u3000\u5e83\u5cf6\u56fd\u9053\u4e8b\u52d9\u6240","boring_xml_url":68,"boring_view_url":1,"soilmap_view_url":null,"soiltest_xml_url":0,"soiltest_view_url":0},{"id":523167,"code":"B4KJ202201002-5703","latitude":"34.36135","longitude":"132.527364","source_code":"CG178755600200150005","project_name":"","survey_name":"\u5e83\u5cf6\u5357\u9053\u8def\uff08\u5357\u660e\u795e\u753a\u5730\u533a\uff09\u5730\u8cea\u8abf\u67fb\u305d\u306e1\u696d\u52d9","client_name":"\u56fd\u571f\u4ea4\u901a\u7701\u4e2d\u56fd\u5730\u65b9\u6574\u5099\u5c40\u5e83\u5cf6\u56fd\u9053\u4e8b\u52d9\u6240","boring_xml_url":68,"boring_view_url":1,"soilmap_view_url":null,"soiltest_xml_url":0,"soiltest_view_url":0},{"id":523166,"code":"B4KJ202201002-5702","latitude":"34.361508","longitude":"132.527694","source_code":"CG178755600200150004","project_name":"","survey_name":"\u5e83\u5cf6\u5357\u9053\u8def\uff08\u5357\u660e\u795e\u753a\u5730\u533a\uff09\u5730\u8cea\u8abf\u67fb\u305d\u306e1\u696d\u52d9","client_name":"\"\u56fd\u571f\u4ea4\u901a\u7701 \u4e2d\u56fd\u5730\u65b9\u6574\u5099\u5c40 \u5e83\u5cf6\u56fd\u9053\u4e8b\u52d9\u6240\"","boring_xml_url":68,"boring_view_url":1,"soilmap_view_url":null,"soiltest_xml_url":0,"soiltest_view_url":0},{"id":523165,"code":"B4KJ202201002-5701","latitude":"34.361667","longitude":"132.528028","source_code":"CG178755600200150003","project_name":"","survey_name":"\u5e83\u5cf6\u5357\u9053\u8def\uff08\u5357\u660e\u795e\u753a\u5730\u533a\uff09\u5730\u8cea\u8abf\u67fb\u305d\u306e1\u696d\u52d9","client_name":"\u56fd\u571f\u4ea4\u901a\u7701\u4e2d\u56fd\u5730\u65b9\u6574\u5099\u5c40\u5e83\u5cf6\u56fd\u9053\u4e8b\u52d9\u6240","boring_xml_url":68,"boring_view_url":1,"soilmap_view_url":null,"soiltest_xml_url":0,"soiltest_view_url":0},{"id":523164,"code":"B4KJ202201002-5700","latitude":"34.361856","longitude":"132.528419","source_code":"CG178755600200150002","project_name":"","survey_name":"\u5e83\u5cf6\u5357\u9053\u8def\uff08\u5357\u660e\u795e\u753a\u5730\u533a\uff09\u5730\u8cea\u8abf\u67fb\u305d\u306e1\u696d\u52d9","client_name":"\u56fd\u571f\u4ea4\u901a\u7701\u4e2d\u56fd\u5730\u65b9\u6574\u5099\u5c40\u5e83\u5cf6\u56fd\u9053\u4e8b\u52d9\u6240","boring_xml_url":68,"boring_view_url":1,"soilmap_view_url":null,"soiltest_xml_url":0,"soiltest_view_url":0},{"id":523163,"code":"B4KJ202201002-5699","latitude":"34.362025","longitude":"132.528778","source_code":"CG178755600200150001","project_name":"","survey_name":"\u5e83\u5cf6\u5357\u9053\u8def\uff08\u5357\u660e\u795e\u753a\u5730\u533a\uff09\u5730\u8cea\u8abf\u67fb\u305d\u306e1\u696d\u52d9","client_name":"\u56fd\u571f\u4ea4\u901a\u7701\u4e2d\u56fd\u5730\u65b9\u6574\u5099\u5c40\u5e83\u5cf6\u56fd\u9053\u4e8b\u52d9\u6240","boring_xml_url":68,"boring_view_url":1,"soilmap_view_url":null,"soiltest_xml_url":0,"soiltest_view_url":0},{"id":523162,"code":"B4KJ202201002-5698","latitude":"34.424919","longitude":"132.628365","source_code":"CG178755600200020001","project_name":"","survey_name":"\u5b89\u82b8\u30d0\u30a4\u30d1\u30b9\uff08\u5bfa\u5206\u5730\u533a\uff09\u5916\u6e2c\u91cf\u8a2d\u8a08\u696d\u52d9","client_name":"\u56fd\u571f\u4ea4\u901a\u7701\u3000\u4e2d\u56fd\u5730\u65b9\u6574\u5099\u5c40\u3000\u5e83\u5cf6\u56fd\u9053\u4e8b\u52d9\u6240","boring_xml_url":68,"boring_view_url":1,"soilmap_view_url":null,"soiltest_xml_url":0,"soiltest_view_url":0},{"id":523161,"code":"B4KJ202201002-5697","latitude":"34.6095","longitude":"133.895694","source_code":"CG178742420200160017","project_name":"\u5e73\u621029\u5e74\u5ea6\u7389\u5cf6\u7b20\u5ca1\u9053\u8def\u5916\u5730\u8cea\u8abf\u67fb\u696d\u52d9","survey_name":"\u5e73\u621029\u5e74\u5ea6\u7389\u5cf6\u7b20\u5ca1\u9053\u8def\u5916\u5730\u8cea\u8abf\u67fb\u696d\u52d9","client_name":"\"\u56fd\u571f\u4ea4\u901a\u7701 \u5ca1\u5c71\u56fd\u9053\u4e8b\u52d9\u6240 \u8a08\u753b\u8ab2\"","boring_xml_url":68,"boring_view_url":1,"soilmap_view_url":null,"soiltest_xml_url":0,"soiltest_view_url":0},{"id":523160,"code":"B4KJ202201002-5696","latitude":"34.482528","longitude":"133.528806","source_code":"CG178742420200160016","project_name":"\u5e73\u621029\u5e74\u5ea6\u7389\u5cf6\u7b20\u5ca1\u9053\u8def\u5916\u5730\u8cea\u8abf\u67fb\u696d\u52d9","survey_name":"\u5e73\u621029\u5e74\u5ea6\u7389\u5cf6\u7b20\u5ca1\u9053\u8def\u5916\u5730\u8cea\u8abf\u67fb\u696d\u52d9","client_name":"\"\u56fd\u571f\u4ea4\u901a\u7701 \u5ca1\u5c71\u56fd\u9053\u4e8b\u52d9\u6240 \u8a08\u753b\u8ab2\"","boring_xml_url":68,"boring_view_url":1,"soilmap_view_url":null,"soiltest_xml_url":0,"soiltest_view_url":0},{"id":523159,"code":"B4KJ202201002-5695","latitude":"34.482139","longitude":"133.528861","source_code":"CG178742420200160015","project_name":"\u5e73\u621029\u5e74\u5ea6\u7389\u5cf6\u7b20\u5ca1\u9053\u8def\u5916\u5730\u8cea\u8abf\u67fb\u696d\u52d9","survey_name":"\u5e73\u621029\u5e74\u5ea6\u7389\u5cf6\u7b20\u5ca1\u9053\u8def\u5916\u5730\u8cea\u8abf\u67fb\u696d\u52d9","client_name":"\"\u56fd\u571f\u4ea4\u901a\u7701 \u5ca1\u5c71\u56fd\u9053\u4e8b\u52d9\u6240 \u8a08\u753b\u8ab2\"","boring_xml_url":68,"boring_view_url":1,"soilmap_view_url":null,"soiltest_xml_url":0,"soiltest_view_url":0}]}}