{"header":{"xyz":{"source":[],"mosaic":false},"page":748,"raw":{"soiltest_result":"0","bbox":"57.598333,109.544722,1.933333,163.806111","page":"748"},"conditions":{"soiltest_result":0,"north":57.598333,"west":109.544722,"south":1.933333,"east":163.806111},"success":true,"message":""},"data":{"meta":{"total":212844,"page":748,"pages":7095,"count":30},"values":[{"id":522978,"code":"B4KJ202201002-5514","latitude":"34.543944","longitude":"133.293528","source_code":"CG188750520100060001","project_name":"\u82a6\u7530\u5ddd\u6238\u624b\u5730\u533a\u5916\u707d\u5bb3\u5fa9\u65e7\u5de5\u4e8b","survey_name":"\u82a6\u7530\u5ddd\u6238\u624b\u5730\u533a\u5916\u707d\u5bb3\u5fa9\u65e7\u5de5\u4e8b","client_name":"\u4e2d\u56fd\u5730\u65b9\u6574\u5099\u5c40\u3000\u798f\u5c71\u6cb3\u5ddd\u56fd\u9053\u4e8b\u52d9\u6240","boring_xml_url":68,"boring_view_url":1,"soilmap_view_url":null,"soiltest_xml_url":0,"soiltest_view_url":0},{"id":522977,"code":"B4KJ202201002-5513","latitude":"35.502286","longitude":"134.094897","source_code":"CG158730410100250002","project_name":"","survey_name":"\u9ce5\u53d6\u897f\u9053\u8def\u6c17\u9ad8\u7b2c1\u30c8\u30f3\u30cd\u30eb\u6771\u5de5\u4e8b\u3000\u30dc\u30fc\u30ea\u30f3\u30b0\u8abf\u67fb","client_name":"\"\u56fd\u571f\u56fd\u4ea4\u7701\u4e2d\u56fd\u5730\u65b9\u6574\u5099\u5c40 \u9ce5\u53d6\u6cb3\u5ddd\u56fd\u9053\u4e8b\u52d9\u6240\"","boring_xml_url":68,"boring_view_url":1,"soilmap_view_url":null,"soiltest_xml_url":0,"soiltest_view_url":0},{"id":522976,"code":"B4KJ202201002-5512","latitude":"35.5024","longitude":"134.095111","source_code":"CG158730410100250001","project_name":"","survey_name":"\u9ce5\u53d6\u897f\u9053\u8def\u6c17\u9ad8\u7b2c1\u30c8\u30f3\u30cd\u30eb\u6771\u5de5\u4e8b\u3000\u30dc\u30fc\u30ea\u30f3\u30b0\u8abf\u67fb","client_name":"\"\u56fd\u571f\u56fd\u4ea4\u7701\u4e2d\u56fd\u5730\u65b9\u6574\u5099\u5c40 \u9ce5\u53d6\u6cb3\u5ddd\u56fd\u9053\u4e8b\u52d9\u6240\"","boring_xml_url":68,"boring_view_url":1,"soilmap_view_url":null,"soiltest_xml_url":0,"soiltest_view_url":0},{"id":522975,"code":"B4KJ202201002-5511","latitude":"35.495639","longitude":"133.864019","source_code":"CG168731410100070002","project_name":"\u56fd\u90539\u53f7\u9577\u702c\u6a4b\u4e0b\u90e8\u5de5\u4e8b","survey_name":"\u56fd\u90539\u53f7\u9577\u702c\u6a4b\u4e0b\u90e8\u5de5\u4e8b","client_name":"\"\u682a\u5f0f\u4f1a\u793e \u91cd\u9053\u7d44\"","boring_xml_url":68,"boring_view_url":1,"soilmap_view_url":null,"soiltest_xml_url":0,"soiltest_view_url":0},{"id":522974,"code":"B4KJ202201002-5510","latitude":"35.495594","longitude":"133.863522","source_code":"CG168731410100070001","project_name":"\u56fd\u90539\u53f7\u9577\u702c\u6a4b\u4e0b\u90e8\u5de5\u4e8b","survey_name":"\u56fd\u90539\u53f7\u9577\u702c\u6a4b\u4e0b\u90e8\u5de5\u4e8b","client_name":"\"\u682a\u5f0f\u4f1a\u793e \u91cd\u9053\u7d44\"","boring_xml_url":68,"boring_view_url":1,"soilmap_view_url":null,"soiltest_xml_url":0,"soiltest_view_url":0},{"id":522973,"code":"B4KJ202201002-5509","latitude":"35.492778","longitude":"134.141694","source_code":"CG168730410100510004","project_name":"\u9ce5\u53d6\u897f\u9053\u8def\u677e\u539f\u7b2c12\u6539\u826f\u5de5\u4e8b","survey_name":"\u9ce5\u53d6\u897f\u9053\u8def\u677e\u539f\u7b2c12\u6539\u826f\u5de5\u4e8b","client_name":"\u56fd\u571f\u4ea4\u901a\u7701\u4e2d\u56fd\u5730\u65b9\u6574\u5099\u5c40\u9ce5\u53d6\u6cb3\u5ddd\u56fd\u9053\u4e8b\u52d9\u6240","boring_xml_url":68,"boring_view_url":1,"soilmap_view_url":null,"soiltest_xml_url":0,"soiltest_view_url":0},{"id":522972,"code":"B4KJ202201002-5508","latitude":"35.492778","longitude":"134.141139","source_code":"CG168730410100510003","project_name":"\u9ce5\u53d6\u897f\u9053\u8def\u677e\u539f\u7b2c12\u6539\u826f\u5de5\u4e8b","survey_name":"\u9ce5\u53d6\u897f\u9053\u8def\u677e\u539f\u7b2c12\u6539\u826f\u5de5\u4e8b","client_name":"\u56fd\u571f\u4ea4\u901a\u7701\u4e2d\u56fd\u5730\u65b9\u6574\u5099\u5c40\u9ce5\u53d6\u6cb3\u5ddd\u56fd\u9053\u4e8b\u52d9\u6240","boring_xml_url":68,"boring_view_url":1,"soilmap_view_url":null,"soiltest_xml_url":0,"soiltest_view_url":0},{"id":522971,"code":"B4KJ202201002-5507","latitude":"35.492806","longitude":"134.141417","source_code":"CG168730410100510002","project_name":"\u9ce5\u53d6\u897f\u9053\u8def\u677e\u539f\u7b2c12\u6539\u826f\u5de5\u4e8b","survey_name":"\u9ce5\u53d6\u897f\u9053\u8def\u677e\u539f\u7b2c12\u6539\u826f\u5de5\u4e8b","client_name":"\u56fd\u571f\u4ea4\u901a\u7701\u4e2d\u56fd\u5730\u65b9\u6574\u5099\u5c40\u9ce5\u53d6\u6cb3\u5ddd\u56fd\u9053\u4e8b\u52d9\u6240","boring_xml_url":68,"boring_view_url":1,"soilmap_view_url":null,"soiltest_xml_url":0,"soiltest_view_url":0},{"id":522970,"code":"B4KJ202201002-5506","latitude":"35.492722","longitude":"134.141417","source_code":"CG168730410100510001","project_name":"\u9ce5\u53d6\u897f\u9053\u8def\u677e\u539f\u7b2c12\u6539\u826f\u5de5\u4e8b","survey_name":"\u9ce5\u53d6\u897f\u9053\u8def\u677e\u539f\u7b2c12\u6539\u826f\u5de5\u4e8b","client_name":"\u56fd\u571f\u4ea4\u901a\u7701\u4e2d\u56fd\u5730\u65b9\u6574\u5099\u5c40\u9ce5\u53d6\u6cb3\u5ddd\u56fd\u9053\u4e8b\u52d9\u6240","boring_xml_url":68,"boring_view_url":1,"soilmap_view_url":null,"soiltest_xml_url":0,"soiltest_view_url":0},{"id":522969,"code":"B4KJ202201002-5505","latitude":"35.283333","longitude":"132.640556","source_code":"CG168735400100290001","project_name":"\u591a\u4f0e\u671d\u5c71\u9053\u8def\u591a\u5c90\u5730\u533a\u6539\u826f\u7b2c9\u5de5\u4e8b","survey_name":"\u591a\u4f0e\u671d\u5c71\u9053\u8def\u591a\u5c90\u5730\u533a\u6539\u826f\u7b2c9\u5de5\u4e8b","client_name":"\u56fd\u571f\u4ea4\u901a\u7701\u4e2d\u56fd\u5730\u65b9\u6574\u5099\u5c40\u677e\u6c5f\u56fd\u9053\u4e8b\u52d9\u6240","boring_xml_url":68,"boring_view_url":1,"soilmap_view_url":null,"soiltest_xml_url":0,"soiltest_view_url":0},{"id":522968,"code":"B4KJ202201002-5504","latitude":"34.420038","longitude":"132.612826","source_code":"CG158755400100260003","project_name":"","survey_name":"\u5b89\u82b8\u30d0\u30a4\u30d1\u30b9\u795e\u539f\u9ad8\u67b6\u6a4b\u5e8a\u7248\u5916\u5de5\u4e8b","client_name":"\u56fd\u571f\u4ea4\u901a\u7701\u3000\u4e2d\u56fd\u5730\u65b9\u6574\u5099\u5c40\u3000\u5e83\u5cf6\u56fd\u9053\u4e8b\u52d9\u6240","boring_xml_url":68,"boring_view_url":1,"soilmap_view_url":null,"soiltest_xml_url":0,"soiltest_view_url":0},{"id":522967,"code":"B4KJ202201002-5503","latitude":"34.419988","longitude":"132.612939","source_code":"CG158755400100260002","project_name":"","survey_name":"\u5b89\u82b8\u30d0\u30a4\u30d1\u30b9\u795e\u539f\u9ad8\u67b6\u6a4b\u5e8a\u7248\u5916\u5de5\u4e8b","client_name":"\u56fd\u571f\u4ea4\u901a\u7701\u3000\u4e2d\u56fd\u5730\u65b9\u6574\u5099\u5c40\u3000\u5e83\u5cf6\u56fd\u9053\u4e8b\u52d9\u6240","boring_xml_url":68,"boring_view_url":1,"soilmap_view_url":null,"soiltest_xml_url":0,"soiltest_view_url":0},{"id":522966,"code":"B4KJ202201002-5502","latitude":"34.419962","longitude":"132.613129","source_code":"CG158755400100260001","project_name":"","survey_name":"\u5b89\u82b8\u30d0\u30a4\u30d1\u30b9\u795e\u539f\u9ad8\u67b6\u6a4b\u5e8a\u7248\u5916\u5de5\u4e8b","client_name":"\u56fd\u571f\u4ea4\u901a\u7701\u3000\u4e2d\u56fd\u5730\u65b9\u6574\u5099\u5c40\u3000\u5e83\u5cf6\u56fd\u9053\u4e8b\u52d9\u6240","boring_xml_url":68,"boring_view_url":1,"soilmap_view_url":null,"soiltest_xml_url":0,"soiltest_view_url":0},{"id":522965,"code":"B4KJ202201002-5501","latitude":"35.296533","longitude":"132.674859","source_code":"CG158735600100100002","project_name":"\u6e56\u9675\u591a\u4f0e\u9053\u8def\u4e8c\u90e8\u5730\u533a\u6539\u826f\u7b2c2\u5de5\u4e8b","survey_name":"\u6e56\u9675\u591a\u4f0e\u9053\u8def\u4e8c\u90e8\u5730\u533a\u6539\u826f\u7b2c2\u5de5\u4e8b","client_name":"\u56fd\u571f\u4ea4\u901a\u7701\u4e2d\u56fd\u5730\u65b9\u6574\u5099\u5c40\u677e\u6c5f\u56fd\u9053\u4e8b\u52d9\u6240","boring_xml_url":68,"boring_view_url":1,"soilmap_view_url":null,"soiltest_xml_url":0,"soiltest_view_url":0},{"id":522964,"code":"B4KJ202201002-5500","latitude":"35.292758","longitude":"132.675113","source_code":"CG158735600100100001","project_name":"\u6e56\u9675\u591a\u4f0e\u9053\u8def\u4e8c\u90e8\u5730\u533a\u6539\u826f\u7b2c2\u5de5\u4e8b","survey_name":"\u6e56\u9675\u591a\u4f0e\u9053\u8def\u4e8c\u90e8\u5730\u533a\u6539\u826f\u7b2c2\u5de5\u4e8b","client_name":"\u56fd\u571f\u4ea4\u901a\u7701\u4e2d\u56fd\u5730\u65b9\u6574\u5099\u5c40\u677e\u6c5f\u56fd\u9053\u4e8b\u52d9\u6240","boring_xml_url":68,"boring_view_url":1,"soilmap_view_url":null,"soiltest_xml_url":0,"soiltest_view_url":0},{"id":522963,"code":"B4KJ202201002-5499","latitude":"35.231541","longitude":"132.536649","source_code":"CG158735400100820003","project_name":"","survey_name":"\u671d\u5c71\u5927\u7530\u9053\u8def\u6ce2\u6839\u5730\u533a\u6539\u826f\u7b2c11\u5de5\u4e8b","client_name":"\u56fd\u571f\u4ea4\u901a\u7701\u4e2d\u56fd\u5730\u65b9\u6574\u5099\u5c40\u677e\u6c5f\u56fd\u9053\u4e8b\u52d9\u6240","boring_xml_url":68,"boring_view_url":1,"soilmap_view_url":null,"soiltest_xml_url":0,"soiltest_view_url":0},{"id":522962,"code":"B4KJ202201002-5498","latitude":"35.231696","longitude":"132.536521","source_code":"CG158735400100820002","project_name":"","survey_name":"\u671d\u5c71\u5927\u7530\u9053\u8def\u6ce2\u6839\u5730\u533a\u6539\u826f\u7b2c11\u5de5\u4e8b","client_name":"\u56fd\u571f\u4ea4\u901a\u7701\u4e2d\u56fd\u5730\u65b9\u6574\u5099\u5c40\u677e\u6c5f\u56fd\u9053\u4e8b\u52d9\u6240","boring_xml_url":68,"boring_view_url":1,"soilmap_view_url":null,"soiltest_xml_url":0,"soiltest_view_url":0},{"id":522961,"code":"B4KJ202201002-5497","latitude":"35.231854","longitude":"132.536496","source_code":"CG158735400100820001","project_name":"","survey_name":"\u671d\u5c71\u5927\u7530\u9053\u8def\u6ce2\u6839\u5730\u533a\u6539\u826f\u7b2c11\u5de5\u4e8b","client_name":"\u56fd\u571f\u4ea4\u901a\u7701\u4e2d\u56fd\u5730\u65b9\u6574\u5099\u5c40\u677e\u6c5f\u56fd\u9053\u4e8b\u52d9\u6240","boring_xml_url":68,"boring_view_url":1,"soilmap_view_url":null,"soiltest_xml_url":0,"soiltest_view_url":0},{"id":522960,"code":"B4KJ202201002-5496","latitude":"34.727528","longitude":"134.100194","source_code":"CG188740400100290001","project_name":"","survey_name":"\u5409\u4e95\u5ddd\u5927\u5185\u5730\u533a\u707d\u5bb3\u5fa9\u65e7\u5de5\u4e8b","client_name":"\u56fd\u571f\u4ea4\u901a\u7701\u4e2d\u56fd\u5730\u65b9\u6574\u5099\u5c40\u5ca1\u5c71\u6cb3\u5ddd\u4e8b\u52d9\u6240","boring_xml_url":68,"boring_view_url":1,"soilmap_view_url":null,"soiltest_xml_url":0,"soiltest_view_url":0},{"id":522959,"code":"B4KJ202201002-5495","latitude":"34.727661","longitude":"134.115245","source_code":"CG188742550200060002","project_name":"","survey_name":"\u5e73\u621030\u5e74\u5ea6\u3000\u9999\u767b\u897f\u5730\u533a\u5916\u4ea4\u5b89\u6e2c\u91cf\u8a2d\u8a08\u696d\u52d9","client_name":"\u56fd\u571f\u4ea4\u901a\u7701\u5ca1\u5c71\u56fd\u9053\u4e8b\u52d9\u6240","boring_xml_url":68,"boring_view_url":1,"soilmap_view_url":null,"soiltest_xml_url":0,"soiltest_view_url":0},{"id":522958,"code":"B4KJ202201002-5494","latitude":"34.729539","longitude":"134.123612","source_code":"CG188742550200060001","project_name":"","survey_name":"\u5e73\u621030\u5e74\u5ea6\u3000\u9999\u767b\u897f\u5730\u533a\u5916\u4ea4\u5b89\u6e2c\u91cf\u8a2d\u8a08\u696d\u52d9","client_name":"\u56fd\u571f\u4ea4\u901a\u7701\u5ca1\u5c71\u56fd\u9053\u4e8b\u52d9\u6240","boring_xml_url":68,"boring_view_url":1,"soilmap_view_url":null,"soiltest_xml_url":0,"soiltest_view_url":0},{"id":522957,"code":"B4KJ202201002-5493","latitude":"35.206344","longitude":"132.490559","source_code":"CG188735400200170015","project_name":"","survey_name":"\u5927\u7530\u9759\u9593\u9053\u8def\u5730\u8cea\u8abf\u67fb\u696d\u52d9","client_name":"\u56fd\u571f\u4ea4\u901a\u7701\u3000\u4e2d\u56fd\u5730\u65b9\u6574\u5099\u5c40\u3000\u677e\u6c5f\u56fd\u9053\u4e8b\u52d9\u6240","boring_xml_url":68,"boring_view_url":1,"soilmap_view_url":null,"soiltest_xml_url":0,"soiltest_view_url":0},{"id":522956,"code":"B4KJ202201002-5492","latitude":"35.2063","longitude":"132.490894","source_code":"CG188735400200170014","project_name":"","survey_name":"\u5927\u7530\u9759\u9593\u9053\u8def\u5730\u8cea\u8abf\u67fb\u696d\u52d9","client_name":"\u56fd\u571f\u4ea4\u901a\u7701\u3000\u4e2d\u56fd\u5730\u65b9\u6574\u5099\u5c40\u3000\u677e\u6c5f\u56fd\u9053\u4e8b\u52d9\u6240","boring_xml_url":68,"boring_view_url":1,"soilmap_view_url":null,"soiltest_xml_url":0,"soiltest_view_url":0},{"id":522955,"code":"B4KJ202201002-5491","latitude":"35.206274","longitude":"132.491019","source_code":"CG188735400200170013","project_name":"","survey_name":"\u5927\u7530\u9759\u9593\u9053\u8def\u5730\u8cea\u8abf\u67fb\u696d\u52d9","client_name":"\u56fd\u571f\u4ea4\u901a\u7701\u3000\u4e2d\u56fd\u5730\u65b9\u6574\u5099\u5c40\u3000\u677e\u6c5f\u56fd\u9053\u4e8b\u52d9\u6240","boring_xml_url":68,"boring_view_url":1,"soilmap_view_url":null,"soiltest_xml_url":0,"soiltest_view_url":0},{"id":522954,"code":"B4KJ202201002-5490","latitude":"35.206204","longitude":"132.473933","source_code":"CG188735400200170012","project_name":"","survey_name":"\u5927\u7530\u9759\u9593\u9053\u8def\u5730\u8cea\u8abf\u67fb\u696d\u52d9","client_name":"\u56fd\u571f\u4ea4\u901a\u7701\u3000\u4e2d\u56fd\u5730\u65b9\u6574\u5099\u5c40\u3000\u677e\u6c5f\u56fd\u9053\u4e8b\u52d9\u6240","boring_xml_url":68,"boring_view_url":1,"soilmap_view_url":null,"soiltest_xml_url":0,"soiltest_view_url":0},{"id":522953,"code":"B4KJ202201002-5489","latitude":"35.211169","longitude":"132.502586","source_code":"CG188735400200170011","project_name":"","survey_name":"\u5927\u7530\u9759\u9593\u9053\u8def\u5730\u8cea\u8abf\u67fb\u696d\u52d9","client_name":"\u56fd\u571f\u4ea4\u901a\u7701\u3000\u4e2d\u56fd\u5730\u65b9\u6574\u5099\u5c40\u3000\u677e\u6c5f\u56fd\u9053\u4e8b\u52d9\u6240","boring_xml_url":68,"boring_view_url":1,"soilmap_view_url":null,"soiltest_xml_url":0,"soiltest_view_url":0},{"id":522952,"code":"B4KJ202201002-5488","latitude":"35.21074","longitude":"132.502788","source_code":"CG188735400200170010","project_name":"","survey_name":"\u5927\u7530\u9759\u9593\u9053\u8def\u5730\u8cea\u8abf\u67fb\u696d\u52d9","client_name":"\u56fd\u571f\u4ea4\u901a\u7701\u3000\u4e2d\u56fd\u5730\u65b9\u6574\u5099\u5c40\u3000\u677e\u6c5f\u56fd\u9053\u4e8b\u52d9\u6240","boring_xml_url":68,"boring_view_url":1,"soilmap_view_url":null,"soiltest_xml_url":0,"soiltest_view_url":0},{"id":522951,"code":"B4KJ202201002-5487","latitude":"35.211143","longitude":"132.503921","source_code":"CG188735400200170009","project_name":"","survey_name":"\u5927\u7530\u9759\u9593\u9053\u8def\u5730\u8cea\u8abf\u67fb\u696d\u52d9","client_name":"\u56fd\u571f\u4ea4\u901a\u7701\u3000\u4e2d\u56fd\u5730\u65b9\u6574\u5099\u5c40\u3000\u677e\u6c5f\u56fd\u9053\u4e8b\u52d9\u6240","boring_xml_url":68,"boring_view_url":1,"soilmap_view_url":null,"soiltest_xml_url":0,"soiltest_view_url":0},{"id":522950,"code":"B4KJ202201002-5486","latitude":"35.210957","longitude":"132.50346","source_code":"CG188735400200170008","project_name":"","survey_name":"\u5927\u7530\u9759\u9593\u9053\u8def\u5730\u8cea\u8abf\u67fb\u696d\u52d9","client_name":"\u56fd\u571f\u4ea4\u901a\u7701\u3000\u4e2d\u56fd\u5730\u65b9\u6574\u5099\u5c40\u3000\u677e\u6c5f\u56fd\u9053\u4e8b\u52d9\u6240","boring_xml_url":68,"boring_view_url":1,"soilmap_view_url":null,"soiltest_xml_url":0,"soiltest_view_url":0},{"id":522949,"code":"B4KJ202201002-5485","latitude":"35.206381","longitude":"132.472359","source_code":"CG188735400200170007","project_name":"","survey_name":"\u5927\u7530\u9759\u9593\u9053\u8def\u5730\u8cea\u8abf\u67fb\u696d\u52d9","client_name":"\u56fd\u571f\u4ea4\u901a\u7701\u3000\u4e2d\u56fd\u5730\u65b9\u6574\u5099\u5c40\u3000\u677e\u6c5f\u56fd\u9053\u4e8b\u52d9\u6240","boring_xml_url":68,"boring_view_url":1,"soilmap_view_url":null,"soiltest_xml_url":0,"soiltest_view_url":0}]}}