{"header":{"xyz":{"source":[],"mosaic":false},"page":749,"raw":{"soiltest_result":"0","bbox":"57.598333,109.544722,1.933333,163.806111","page":"749"},"conditions":{"soiltest_result":0,"north":57.598333,"west":109.544722,"south":1.933333,"east":163.806111},"success":true,"message":""},"data":{"meta":{"total":212844,"page":749,"pages":7095,"count":30},"values":[{"id":522948,"code":"B4KJ202201002-5484","latitude":"35.206507","longitude":"132.472997","source_code":"CG188735400200170006","project_name":"","survey_name":"\u5927\u7530\u9759\u9593\u9053\u8def\u5730\u8cea\u8abf\u67fb\u696d\u52d9","client_name":"\u56fd\u571f\u4ea4\u901a\u7701\u3000\u4e2d\u56fd\u5730\u65b9\u6574\u5099\u5c40\u3000\u677e\u6c5f\u56fd\u9053\u4e8b\u52d9\u6240","boring_xml_url":68,"boring_view_url":1,"soilmap_view_url":null,"soiltest_xml_url":0,"soiltest_view_url":0},{"id":522947,"code":"B4KJ202201002-5483","latitude":"35.206628","longitude":"132.473644","source_code":"CG188735400200170005","project_name":"","survey_name":"\u5927\u7530\u9759\u9593\u9053\u8def\u5730\u8cea\u8abf\u67fb\u696d\u52d9","client_name":"\u56fd\u571f\u4ea4\u901a\u7701\u3000\u4e2d\u56fd\u5730\u65b9\u6574\u5099\u5c40\u3000\u677e\u6c5f\u56fd\u9053\u4e8b\u52d9\u6240","boring_xml_url":68,"boring_view_url":1,"soilmap_view_url":null,"soiltest_xml_url":0,"soiltest_view_url":0},{"id":522946,"code":"B4KJ202201002-5482","latitude":"35.206647","longitude":"132.474315","source_code":"CG188735400200170004","project_name":"","survey_name":"\u5927\u7530\u9759\u9593\u9053\u8def\u5730\u8cea\u8abf\u67fb\u696d\u52d9","client_name":"\u56fd\u571f\u4ea4\u901a\u7701\u3000\u4e2d\u56fd\u5730\u65b9\u6574\u5099\u5c40\u3000\u677e\u6c5f\u56fd\u9053\u4e8b\u52d9\u6240","boring_xml_url":68,"boring_view_url":1,"soilmap_view_url":null,"soiltest_xml_url":0,"soiltest_view_url":0},{"id":522945,"code":"B4KJ202201002-5481","latitude":"35.206442","longitude":"132.472673","source_code":"CG188735400200170003","project_name":"","survey_name":"\u5927\u7530\u9759\u9593\u9053\u8def\u5730\u8cea\u8abf\u67fb\u696d\u52d9","client_name":"\u56fd\u571f\u4ea4\u901a\u7701\u3000\u4e2d\u56fd\u5730\u65b9\u6574\u5099\u5c40\u3000\u677e\u6c5f\u56fd\u9053\u4e8b\u52d9\u6240","boring_xml_url":68,"boring_view_url":1,"soilmap_view_url":null,"soiltest_xml_url":0,"soiltest_view_url":0},{"id":522944,"code":"B4KJ202201002-5480","latitude":"35.206585","longitude":"132.473994","source_code":"CG188735400200170002","project_name":"","survey_name":"\u5927\u7530\u9759\u9593\u9053\u8def\u5730\u8cea\u8abf\u67fb\u696d\u52d9","client_name":"\u56fd\u571f\u4ea4\u901a\u7701\u3000\u4e2d\u56fd\u5730\u65b9\u6574\u5099\u5c40\u3000\u677e\u6c5f\u56fd\u9053\u4e8b\u52d9\u6240","boring_xml_url":68,"boring_view_url":1,"soilmap_view_url":null,"soiltest_xml_url":0,"soiltest_view_url":0},{"id":522943,"code":"B4KJ202201002-5479","latitude":"35.20671","longitude":"132.49083","source_code":"CG188735400200170001","project_name":"","survey_name":"\u5927\u7530\u9759\u9593\u9053\u8def\u5730\u8cea\u8abf\u67fb\u696d\u52d9","client_name":"\u56fd\u571f\u4ea4\u901a\u7701\u3000\u4e2d\u56fd\u5730\u65b9\u6574\u5099\u5c40\u3000\u677e\u6c5f\u56fd\u9053\u4e8b\u52d9\u6240","boring_xml_url":68,"boring_view_url":1,"soilmap_view_url":null,"soiltest_xml_url":0,"soiltest_view_url":0},{"id":522942,"code":"B4KJ202201002-5478","latitude":"34.754605","longitude":"132.79904","source_code":"CG178752520200110006","project_name":"","survey_name":"\u6c5f\u306e\u5ddd\u4e0a\u6d41\u5730\u8cea\u8abf\u67fb\u696d\u52d9","client_name":"\u56fd\u571f\u4ea4\u901a\u7701\u4e09\u6b21\u6cb3\u5ddd\u56fd\u9053\u4e8b\u52d9\u6240","boring_xml_url":68,"boring_view_url":1,"soilmap_view_url":null,"soiltest_xml_url":0,"soiltest_view_url":0},{"id":522941,"code":"B4KJ202201002-5477","latitude":"34.755969","longitude":"132.800915","source_code":"CG178752520200110005","project_name":"","survey_name":"\u6c5f\u306e\u5ddd\u4e0a\u6d41\u5730\u8cea\u8abf\u67fb\u696d\u52d9","client_name":"\u56fd\u571f\u4ea4\u901a\u7701\u4e09\u6b21\u6cb3\u5ddd\u56fd\u9053\u4e8b\u52d9\u6240","boring_xml_url":68,"boring_view_url":1,"soilmap_view_url":null,"soiltest_xml_url":0,"soiltest_view_url":0},{"id":522940,"code":"B4KJ202201002-5476","latitude":"34.756138","longitude":"132.800718","source_code":"CG178752520200110004","project_name":"","survey_name":"\u6c5f\u306e\u5ddd\u4e0a\u6d41\u5730\u8cea\u8abf\u67fb\u696d\u52d9","client_name":"\u56fd\u571f\u4ea4\u901a\u7701\u4e09\u6b21\u6cb3\u5ddd\u56fd\u9053\u4e8b\u52d9\u6240","boring_xml_url":68,"boring_view_url":1,"soilmap_view_url":null,"soiltest_xml_url":0,"soiltest_view_url":0},{"id":522939,"code":"B4KJ202201002-5475","latitude":"34.757126","longitude":"132.802439","source_code":"CG178752520200110003","project_name":"","survey_name":"\u6c5f\u306e\u5ddd\u4e0a\u6d41\u5730\u8cea\u8abf\u67fb\u696d\u52d9","client_name":"\u56fd\u571f\u4ea4\u901a\u7701\u4e09\u6b21\u6cb3\u5ddd\u56fd\u9053\u4e8b\u52d9\u6240","boring_xml_url":68,"boring_view_url":1,"soilmap_view_url":null,"soiltest_xml_url":0,"soiltest_view_url":0},{"id":522938,"code":"B4KJ202201002-5474","latitude":"34.756985","longitude":"132.802556","source_code":"CG178752520200110002","project_name":"","survey_name":"\u6c5f\u306e\u5ddd\u4e0a\u6d41\u5730\u8cea\u8abf\u67fb\u696d\u52d9","client_name":"\u56fd\u571f\u4ea4\u901a\u7701\u4e09\u6b21\u6cb3\u5ddd\u56fd\u9053\u4e8b\u52d9\u6240","boring_xml_url":68,"boring_view_url":1,"soilmap_view_url":null,"soiltest_xml_url":0,"soiltest_view_url":0},{"id":522937,"code":"B4KJ202201002-5473","latitude":"34.757245","longitude":"132.802352","source_code":"CG178752520200110001","project_name":"","survey_name":"\u6c5f\u306e\u5ddd\u4e0a\u6d41\u5730\u8cea\u8abf\u67fb\u696d\u52d9","client_name":"\u56fd\u571f\u4ea4\u901a\u7701\u4e09\u6b21\u6cb3\u5ddd\u56fd\u9053\u4e8b\u52d9\u6240","boring_xml_url":68,"boring_view_url":1,"soilmap_view_url":null,"soiltest_xml_url":0,"soiltest_view_url":0},{"id":522936,"code":"B4KJ202201002-5472","latitude":"35.094811","longitude":"133.189547","source_code":"CG168752400200230002","project_name":"","survey_name":"\u96fb\u5b50\u6210\u679c\u9375\u639b\u5ce0\u9053\u8def\u4e09\u5742\u5730\u533a\u5916\u6e2c\u91cf\u8a2d\u8a08\u696d\u52d9","client_name":"\u56fd\u571f\u4ea4\u901a\u7701\u4e2d\u56fd\u5730\u65b9\u6574\u5099\u5c40\u4e09\u6b21\u6cb3\u5ddd\u56fd\u9053\u4e8b\u52d9\u6240","boring_xml_url":68,"boring_view_url":1,"soilmap_view_url":null,"soiltest_xml_url":0,"soiltest_view_url":0},{"id":522935,"code":"B4KJ202201002-5471","latitude":"35.094814","longitude":"133.189413","source_code":"CG168752400200230001","project_name":"","survey_name":"\u96fb\u5b50\u6210\u679c\u9375\u639b\u5ce0\u9053\u8def\u4e09\u5742\u5730\u533a\u5916\u6e2c\u91cf\u8a2d\u8a08\u696d\u52d9","client_name":"\u56fd\u571f\u4ea4\u901a\u7701\u4e2d\u56fd\u5730\u65b9\u6574\u5099\u5c40\u4e09\u6b21\u6cb3\u5ddd\u56fd\u9053\u4e8b\u52d9\u6240","boring_xml_url":68,"boring_view_url":1,"soilmap_view_url":null,"soiltest_xml_url":0,"soiltest_view_url":0},{"id":522934,"code":"B4KJ202201002-5470","latitude":"34.533656","longitude":"133.318522","source_code":"CG178750520200030004","project_name":"","survey_name":"\u82a6\u7530\u5ddd\u5730\u8cea\u8abf\u67fb\u5916\u696d\u52d9","client_name":"\u56fd\u571f\u4ea4\u901a\u7701\u4e2d\u56fd\u5730\u65b9\u6574\u5099\u5c40\u798f\u5c71\u6cb3\u5ddd\u56fd\u9053\u4e8b\u52d9\u6240","boring_xml_url":68,"boring_view_url":1,"soilmap_view_url":null,"soiltest_xml_url":0,"soiltest_view_url":0},{"id":522933,"code":"B4KJ202201002-5469","latitude":"34.475139","longitude":"133.356432","source_code":"CG178750520200030003","project_name":"","survey_name":"\u82a6\u7530\u5ddd\u5730\u8cea\u8abf\u67fb\u5916\u696d\u52d9","client_name":"\u56fd\u571f\u4ea4\u901a\u7701\u4e2d\u56fd\u5730\u65b9\u6574\u5099\u5c40\u798f\u5c71\u6cb3\u5ddd\u56fd\u9053\u4e8b\u52d9\u6240","boring_xml_url":68,"boring_view_url":1,"soilmap_view_url":null,"soiltest_xml_url":0,"soiltest_view_url":0},{"id":522932,"code":"B4KJ202201002-5468","latitude":"34.552249","longitude":"133.26866","source_code":"CG178750520200030002","project_name":"","survey_name":"\u82a6\u7530\u5ddd\u5730\u8cea\u8abf\u67fb\u5916\u696d\u52d9","client_name":"\u56fd\u571f\u4ea4\u901a\u7701\u4e2d\u56fd\u5730\u65b9\u6574\u5099\u5c40\u798f\u5c71\u6cb3\u5ddd\u56fd\u9053\u4e8b\u52d9\u6240","boring_xml_url":68,"boring_view_url":1,"soilmap_view_url":null,"soiltest_xml_url":0,"soiltest_view_url":0},{"id":522931,"code":"B4KJ202201002-5467","latitude":"34.545316","longitude":"133.384862","source_code":"CG178750520200030001","project_name":"","survey_name":"\u82a6\u7530\u5ddd\u5730\u8cea\u8abf\u67fb\u5916\u696d\u52d9","client_name":"\u56fd\u571f\u4ea4\u901a\u7701\u4e2d\u56fd\u5730\u65b9\u6574\u5099\u5c40\u798f\u5c71\u6cb3\u5ddd\u56fd\u9053\u4e8b\u52d9\u6240","boring_xml_url":68,"boring_view_url":1,"soilmap_view_url":null,"soiltest_xml_url":0,"soiltest_view_url":0},{"id":522930,"code":"B4KJ202201002-5466","latitude":"34.397967","longitude":"133.157894","source_code":"CG178750400200130002","project_name":"","survey_name":"\"\u5e73\u621029\u5e74\u5ea6 \u798f\u5730\u5730\u533a\u5916\u6e2c\u91cf\u8a2d\u8a08\u696d\u52d9\"","client_name":"\"\u56fd\u571f\u4ea4\u901a\u7701 \u4e2d\u56fd\u5730\u65b9\u6574\u5099\u5c40 \u798f\u5c71\u6cb3\u5ddd\u56fd\u9053\u4e8b\u52d9\u6240\"","boring_xml_url":68,"boring_view_url":1,"soilmap_view_url":null,"soiltest_xml_url":0,"soiltest_view_url":0},{"id":522929,"code":"B4KJ202201002-5465","latitude":"34.397817","longitude":"133.157617","source_code":"CG178750400200130001","project_name":"","survey_name":"\"\u5e73\u621029\u5e74\u5ea6 \u798f\u5730\u5730\u533a\u5916\u6e2c\u91cf\u8a2d\u8a08\u696d\u52d9\"","client_name":"\"\u56fd\u571f\u4ea4\u901a\u7701 \u4e2d\u56fd\u5730\u65b9\u6574\u5099\u5c40 \u798f\u5c71\u6cb3\u5ddd\u56fd\u9053\u4e8b\u52d9\u6240\"","boring_xml_url":68,"boring_view_url":1,"soilmap_view_url":null,"soiltest_xml_url":0,"soiltest_view_url":0},{"id":522928,"code":"B4KJ202201002-5464","latitude":"34.396389","longitude":"133.1525","source_code":"CG168750610200130001","project_name":"","survey_name":"\u6728\u539f\u9053\u8def\u5185\u7560\u9ad8\u67b6\u6a4b\u8a73\u7d30\u8a2d\u8a08\u696d\u52d9\uff08\u5730\u8cea\u8abf\u67fb\uff09","client_name":"\u56fd\u571f\u4ea4\u901a\u7701\u4e2d\u56fd\u5730\u65b9\u6574\u5099\u5c40\u3000\u798f\u5c71\u6cb3\u5ddd\u56fd\u9053\u4e8b\u52d9\u6240","boring_xml_url":68,"boring_view_url":1,"soilmap_view_url":null,"soiltest_xml_url":0,"soiltest_view_url":0},{"id":522927,"code":"B4KJ202201002-5463","latitude":"34.237605","longitude":"132.214892","source_code":"CG168755600200200007","project_name":"\u5ca9\u56fd\u5927\u7af9\u9053\u8def\u5fa1\u5712\u5730\u533a\u5730\u8cea\u8abf\u67fb\u696d\u52d9","survey_name":"H29\u5927\u7af9\u5730\u8cea\u8abf\u67fb","client_name":"\"\u56fd\u571f\u4ea4\u901a\u7701\u3000\u4e2d\u56fd\u5730\u65b9\u6574\u5099\u5c40 \u5e83\u5cf6\u56fd\u9053\u4e8b\u52d9\u6240\"","boring_xml_url":68,"boring_view_url":1,"soilmap_view_url":null,"soiltest_xml_url":0,"soiltest_view_url":0},{"id":522926,"code":"B4KJ202201002-5462","latitude":"34.235714","longitude":"132.214097","source_code":"CG168755600200200006","project_name":"\u5ca9\u56fd\u5927\u7af9\u9053\u8def\u5fa1\u5712\u5730\u533a\u5730\u8cea\u8abf\u67fb\u696d\u52d9","survey_name":"H29\u5927\u7af9\u5730\u8cea\u8abf\u67fb","client_name":"\"\u56fd\u571f\u4ea4\u901a\u7701\u3000\u4e2d\u56fd\u5730\u65b9\u6574\u5099\u5c40 \u5e83\u5cf6\u56fd\u9053\u4e8b\u52d9\u6240\"","boring_xml_url":68,"boring_view_url":1,"soilmap_view_url":null,"soiltest_xml_url":0,"soiltest_view_url":0},{"id":522925,"code":"B4KJ202201002-5461","latitude":"34.237639","longitude":"132.214836","source_code":"CG168755600200200005","project_name":"\u5ca9\u56fd\u5927\u7af9\u9053\u8def\u5fa1\u5712\u5730\u533a\u5730\u8cea\u8abf\u67fb\u696d\u52d9","survey_name":"H29\u5927\u7af9\u5730\u8cea\u8abf\u67fb","client_name":"\"\u56fd\u571f\u4ea4\u901a\u7701\u3000\u4e2d\u56fd\u5730\u65b9\u6574\u5099\u5c40 \u5e83\u5cf6\u56fd\u9053\u4e8b\u52d9\u6240\"","boring_xml_url":68,"boring_view_url":1,"soilmap_view_url":null,"soiltest_xml_url":0,"soiltest_view_url":0},{"id":522924,"code":"B4KJ202201002-5460","latitude":"34.237503","longitude":"132.214733","source_code":"CG168755600200200004","project_name":"\u5ca9\u56fd\u5927\u7af9\u9053\u8def\u5fa1\u5712\u5730\u533a\u5730\u8cea\u8abf\u67fb\u696d\u52d9","survey_name":"H29\u5927\u7af9\u5730\u8cea\u8abf\u67fb","client_name":"\"\u56fd\u571f\u4ea4\u901a\u7701\u3000\u4e2d\u56fd\u5730\u65b9\u6574\u5099\u5c40 \u5e83\u5cf6\u56fd\u9053\u4e8b\u52d9\u6240\"","boring_xml_url":68,"boring_view_url":1,"soilmap_view_url":null,"soiltest_xml_url":0,"soiltest_view_url":0},{"id":522923,"code":"B4KJ202201002-5459","latitude":"34.23764","longitude":"132.214735","source_code":"CG168755600200200003","project_name":"\u5ca9\u56fd\u5927\u7af9\u9053\u8def\u5fa1\u5712\u5730\u533a\u5730\u8cea\u8abf\u67fb\u696d\u52d9","survey_name":"H29\u5927\u7af9\u5730\u8cea\u8abf\u67fb","client_name":"\"\u56fd\u571f\u4ea4\u901a\u7701\u3000\u4e2d\u56fd\u5730\u65b9\u6574\u5099\u5c40 \u5e83\u5cf6\u56fd\u9053\u4e8b\u52d9\u6240\"","boring_xml_url":68,"boring_view_url":1,"soilmap_view_url":null,"soiltest_xml_url":0,"soiltest_view_url":0},{"id":522922,"code":"B4KJ202201002-5458","latitude":"34.235201","longitude":"132.214507","source_code":"CG168755600200200002","project_name":"\u5ca9\u56fd\u5927\u7af9\u9053\u8def\u5fa1\u5712\u5730\u533a\u5730\u8cea\u8abf\u67fb\u696d\u52d9","survey_name":"H29\u5927\u7af9\u5730\u8cea\u8abf\u67fb","client_name":"\"\u56fd\u571f\u4ea4\u901a\u7701\u3000\u4e2d\u56fd\u5730\u65b9\u6574\u5099\u5c40 \u5e83\u5cf6\u56fd\u9053\u4e8b\u52d9\u6240\"","boring_xml_url":68,"boring_view_url":1,"soilmap_view_url":null,"soiltest_xml_url":0,"soiltest_view_url":0},{"id":522921,"code":"B4KJ202201002-5457","latitude":"34.235531","longitude":"132.214044","source_code":"CG168755600200200001","project_name":"\u5ca9\u56fd\u5927\u7af9\u9053\u8def\u5fa1\u5712\u5730\u533a\u5730\u8cea\u8abf\u67fb\u696d\u52d9","survey_name":"H29\u5927\u7af9\u5730\u8cea\u8abf\u67fb","client_name":"\"\u56fd\u571f\u4ea4\u901a\u7701\u3000\u4e2d\u56fd\u5730\u65b9\u6574\u5099\u5c40 \u5e83\u5cf6\u56fd\u9053\u4e8b\u52d9\u6240\"","boring_xml_url":68,"boring_view_url":1,"soilmap_view_url":null,"soiltest_xml_url":0,"soiltest_view_url":0},{"id":522920,"code":"B4KJ202201002-5456","latitude":"34.57805","longitude":"133.702736","source_code":"CG168742400200160012","project_name":"\u7b20\u5ca1\u30d0\u30a4\u30d1\u30b9\u5916\u5730\u8cea\u8abf\u67fb\u696d\u52d9","survey_name":"\u56fd\u90532\u53f7","client_name":"\u56fd\u571f\u4ea4\u901a\u7701\u4e2d\u56fd\u5730\u65b9\u6574\u5099\u5c40","boring_xml_url":68,"boring_view_url":1,"soilmap_view_url":null,"soiltest_xml_url":0,"soiltest_view_url":0},{"id":522919,"code":"B4KJ202201002-5455","latitude":"34.468014","longitude":"133.492869","source_code":"CG168742400200160011","project_name":"\u7b20\u5ca1\u30d0\u30a4\u30d1\u30b9\u5916\u5730\u8cea\u8abf\u67fb\u696d\u52d9","survey_name":"\u56fd\u90532\u53f7","client_name":"\u56fd\u571f\u4ea4\u901a\u7701\u4e2d\u56fd\u5730\u65b9\u6574\u5099\u5c40","boring_xml_url":68,"boring_view_url":1,"soilmap_view_url":null,"soiltest_xml_url":0,"soiltest_view_url":0}]}}