{"header":{"xyz":{"source":[],"mosaic":false},"page":754,"raw":{"soiltest_result":"0","bbox":"57.598333,109.544722,1.933333,163.806111","page":"754"},"conditions":{"soiltest_result":0,"north":57.598333,"west":109.544722,"south":1.933333,"east":163.806111},"success":true,"message":""},"data":{"meta":{"total":212844,"page":754,"pages":7095,"count":30},"values":[{"id":522798,"code":"B4KJ202201002-5334","latitude":"34.434438","longitude":"132.703644","source_code":"CG168755550200070002","project_name":"\u5e83\u5cf6\u56fd\u9053\u7ba1\u5185\u4ea4\u901a\u5b89\u5168\u5730\u8cea\u8abf\u67fb\u696d\u52d9","survey_name":"\u5e83\u5cf6\u56fd\u9053\u7ba1\u5185\u4ea4\u901a\u5b89\u5168\u5730\u8cea\u8abf\u67fb\u696d\u52d9","client_name":"\u4e2d\u56fd\u5730\u65b9\u6574\u5099\u5c40\u3000\u5e83\u5cf6\u56fd\u9053\u4e8b\u52d9\u6240\u3000\u4ea4\u901a\u5bfe\u7b56\u8ab2","boring_xml_url":68,"boring_view_url":1,"soilmap_view_url":null,"soiltest_xml_url":0,"soiltest_view_url":0},{"id":522797,"code":"B4KJ202201002-5333","latitude":"34.434558","longitude":"132.703302","source_code":"CG168755550200070001","project_name":"\u5e83\u5cf6\u56fd\u9053\u7ba1\u5185\u4ea4\u901a\u5b89\u5168\u5730\u8cea\u8abf\u67fb\u696d\u52d9","survey_name":"\u5e83\u5cf6\u56fd\u9053\u7ba1\u5185\u4ea4\u901a\u5b89\u5168\u5730\u8cea\u8abf\u67fb\u696d\u52d9","client_name":"\u4e2d\u56fd\u5730\u65b9\u6574\u5099\u5c40\u3000\u5e83\u5cf6\u56fd\u9053\u4e8b\u52d9\u6240\u3000\u4ea4\u901a\u5bfe\u7b56\u8ab2","boring_xml_url":68,"boring_view_url":1,"soilmap_view_url":null,"soiltest_xml_url":0,"soiltest_view_url":0},{"id":522796,"code":"B4KJ202201002-5332","latitude":"35.171806","longitude":"134.333422","source_code":"CG168742400200040001","project_name":"","survey_name":"\"\u7dcf\u793e\u4e00\u5bae\u30d0\u30a4\u30d1\u30b9\u5916\u9053\u8def\u8a2d\u8a08\u696d\u52d9 \u9ce5\u53d6\u81ea\u52d5\u8eca\u9053\u6cd5\u9762\u8abf\u67fb\"","client_name":"\"\u56fd\u571f\u4ea4\u901a\u7701 \u4e2d\u56fd\u5730\u65b9\u6574\u5099\u5c40 \u5ca1\u5c71\u56fd\u9053\u4e8b\u52d9\u6240\"","boring_xml_url":68,"boring_view_url":1,"soilmap_view_url":null,"soiltest_xml_url":0,"soiltest_view_url":0},{"id":522795,"code":"B4KJ202201002-5331","latitude":"35.277389","longitude":"132.630639","source_code":"CG168735400200200006","project_name":"","survey_name":"\u51fa\u96f2\u5730\u533a\u6cd5\u9762\u5bfe\u7b56\u691c\u8a0e\u696d\u52d9","client_name":"\u677e\u6c5f\u56fd\u9053\u4e8b\u52d9\u6240","boring_xml_url":68,"boring_view_url":1,"soilmap_view_url":null,"soiltest_xml_url":0,"soiltest_view_url":0},{"id":522794,"code":"B4KJ202201002-5330","latitude":"35.29098","longitude":"132.654202","source_code":"CG168735400200200005","project_name":"","survey_name":"\u51fa\u96f2\u5730\u533a\u6cd5\u9762\u5bfe\u7b56\u691c\u8a0e\u696d\u52d9","client_name":"\u677e\u6c5f\u56fd\u9053\u4e8b\u52d9\u6240","boring_xml_url":68,"boring_view_url":1,"soilmap_view_url":null,"soiltest_xml_url":0,"soiltest_view_url":0},{"id":522793,"code":"B4KJ202201002-5329","latitude":"35.298326","longitude":"132.675919","source_code":"CG168735400200200004","project_name":"","survey_name":"\u51fa\u96f2\u5730\u533a\u6cd5\u9762\u5bfe\u7b56\u691c\u8a0e\u696d\u52d9","client_name":"\u677e\u6c5f\u56fd\u9053\u4e8b\u52d9\u6240","boring_xml_url":68,"boring_view_url":1,"soilmap_view_url":null,"soiltest_xml_url":0,"soiltest_view_url":0},{"id":522792,"code":"B4KJ202201002-5328","latitude":"35.302793","longitude":"132.686643","source_code":"CG168735400200200003","project_name":"","survey_name":"\u51fa\u96f2\u5730\u533a\u6cd5\u9762\u5bfe\u7b56\u691c\u8a0e\u696d\u52d9","client_name":"\u677e\u6c5f\u56fd\u9053\u4e8b\u52d9\u6240","boring_xml_url":68,"boring_view_url":1,"soilmap_view_url":null,"soiltest_xml_url":0,"soiltest_view_url":0},{"id":522791,"code":"B4KJ202201002-5327","latitude":"35.303006","longitude":"132.687486","source_code":"CG168735400200200002","project_name":"","survey_name":"\u51fa\u96f2\u5730\u533a\u6cd5\u9762\u5bfe\u7b56\u691c\u8a0e\u696d\u52d9","client_name":"\u677e\u6c5f\u56fd\u9053\u4e8b\u52d9\u6240","boring_xml_url":68,"boring_view_url":1,"soilmap_view_url":null,"soiltest_xml_url":0,"soiltest_view_url":0},{"id":522790,"code":"B4KJ202201002-5326","latitude":"35.30321","longitude":"132.687487","source_code":"CG168735400200200001","project_name":"","survey_name":"\u51fa\u96f2\u5730\u533a\u6cd5\u9762\u5bfe\u7b56\u691c\u8a0e\u696d\u52d9","client_name":"\u677e\u6c5f\u56fd\u9053\u4e8b\u52d9\u6240","boring_xml_url":68,"boring_view_url":1,"soilmap_view_url":null,"soiltest_xml_url":0,"soiltest_view_url":0},{"id":522789,"code":"B4KJ202201002-5325","latitude":"35.118837","longitude":"132.382614","source_code":"CG168735400200190001","project_name":"","survey_name":"\u9759\u9593\u4ec1\u6469\u9053\u8def\u6e2c\u91cf\u8a2d\u8a08\u696d\u52d9","client_name":"\"\u56fd\u571f\u4ea4\u901a\u7701 \u4e2d\u56fd\u5730\u65b9\u6574\u5099\u5c40 \u677e\u6c5f\u56fd\u9053\u4e8b\u52d9\u6240\"","boring_xml_url":68,"boring_view_url":1,"soilmap_view_url":null,"soiltest_xml_url":0,"soiltest_view_url":0},{"id":522788,"code":"B4KJ202201002-5324","latitude":"34.386414","longitude":"132.450717","source_code":"CG168753410200060004","project_name":"","survey_name":"\u5143\u5b89\u5ddd\u9ad8\u6f6e\u5824\u9632\u8a73\u7d30\u8a2d\u8a08\u696d\u52d9","client_name":"\u56fd\u571f\u4ea4\u901a\u7701\u3000\u4e2d\u56fd\u5730\u65b9\u6574\u5099\u5c40\u3000\u592a\u7530\u5ddd\u6cb3\u5ddd\u4e8b\u52d9\u6240","boring_xml_url":68,"boring_view_url":1,"soilmap_view_url":null,"soiltest_xml_url":0,"soiltest_view_url":0},{"id":522787,"code":"B4KJ202201002-5323","latitude":"34.386414","longitude":"132.450717","source_code":"CG168753410200060003","project_name":"","survey_name":"\u5143\u5b89\u5ddd\u9ad8\u6f6e\u5824\u9632\u8a73\u7d30\u8a2d\u8a08\u696d\u52d9","client_name":"\u56fd\u571f\u4ea4\u901a\u7701\u3000\u4e2d\u56fd\u5730\u65b9\u6574\u5099\u5c40\u3000\u592a\u7530\u5ddd\u6cb3\u5ddd\u4e8b\u52d9\u6240","boring_xml_url":68,"boring_view_url":1,"soilmap_view_url":null,"soiltest_xml_url":0,"soiltest_view_url":0},{"id":522786,"code":"B4KJ202201002-5322","latitude":"34.386657","longitude":"132.449792","source_code":"CG168753410200060002","project_name":"","survey_name":"\u5143\u5b89\u5ddd\u9ad8\u6f6e\u5824\u9632\u8a73\u7d30\u8a2d\u8a08\u696d\u52d9","client_name":"\u56fd\u571f\u4ea4\u901a\u7701\u3000\u4e2d\u56fd\u5730\u65b9\u6574\u5099\u5c40\u3000\u592a\u7530\u5ddd\u6cb3\u5ddd\u4e8b\u52d9\u6240","boring_xml_url":68,"boring_view_url":1,"soilmap_view_url":null,"soiltest_xml_url":0,"soiltest_view_url":0},{"id":522785,"code":"B4KJ202201002-5321","latitude":"34.386657","longitude":"132.449792","source_code":"CG168753410200060001","project_name":"","survey_name":"\u5143\u5b89\u5ddd\u9ad8\u6f6e\u5824\u9632\u8a73\u7d30\u8a2d\u8a08\u696d\u52d9","client_name":"\u56fd\u571f\u4ea4\u901a\u7701\u3000\u4e2d\u56fd\u5730\u65b9\u6574\u5099\u5c40\u3000\u592a\u7530\u5ddd\u6cb3\u5ddd\u4e8b\u52d9\u6240","boring_xml_url":68,"boring_view_url":1,"soilmap_view_url":null,"soiltest_xml_url":0,"soiltest_view_url":0},{"id":522784,"code":"B4KJ202201002-5320","latitude":"35.451056","longitude":"133.127028","source_code":"CG168736600200060003","project_name":"\u5927\u6a4b\u5ddd\u6e2c\u91cf\u8a2d\u8a08\u305d\u306e3\u696d\u52d9","survey_name":"\u5927\u6a4b\u5ddd\u6e2c\u91cf\u8a2d\u8a08\u305d\u306e3\u696d\u52d9","client_name":"\u56fd\u571f\u4ea4\u901a\u7701\u4e2d\u56fd\u5730\u65b9\u6574\u5099\u5c40\u51fa\u96f2\u6cb3\u5ddd\u4e8b\u52d9\u6240","boring_xml_url":68,"boring_view_url":1,"soilmap_view_url":null,"soiltest_xml_url":0,"soiltest_view_url":0},{"id":522783,"code":"B4KJ202201002-5319","latitude":"35.450028","longitude":"133.121806","source_code":"CG168736600200060002","project_name":"\u5927\u6a4b\u5ddd\u6e2c\u91cf\u8a2d\u8a08\u305d\u306e3\u696d\u52d9","survey_name":"\u5927\u6a4b\u5ddd\u6e2c\u91cf\u8a2d\u8a08\u305d\u306e3\u696d\u52d9","client_name":"\u56fd\u571f\u4ea4\u901a\u7701\u4e2d\u56fd\u5730\u65b9\u6574\u5099\u5c40\u51fa\u96f2\u6cb3\u5ddd\u4e8b\u52d9\u6240","boring_xml_url":68,"boring_view_url":1,"soilmap_view_url":null,"soiltest_xml_url":0,"soiltest_view_url":0},{"id":522782,"code":"B4KJ202201002-5318","latitude":"35.448583","longitude":"133.116972","source_code":"CG168736600200060001","project_name":"\u5927\u6a4b\u5ddd\u6e2c\u91cf\u8a2d\u8a08\u305d\u306e3\u696d\u52d9","survey_name":"\u5927\u6a4b\u5ddd\u6e2c\u91cf\u8a2d\u8a08\u305d\u306e3\u696d\u52d9","client_name":"\u56fd\u571f\u4ea4\u901a\u7701\u4e2d\u56fd\u5730\u65b9\u6574\u5099\u5c40\u51fa\u96f2\u6cb3\u5ddd\u4e8b\u52d9\u6240","boring_xml_url":68,"boring_view_url":1,"soilmap_view_url":null,"soiltest_xml_url":0,"soiltest_view_url":0},{"id":522781,"code":"B4KJ202201002-5317","latitude":"34.287319","longitude":"132.517097","source_code":"CG158755550200030002","project_name":"","survey_name":"\u5e83\u5cf6\u56fd\u9053\u7ba1\u5185\u4ea4\u901a\u5b89\u5168\u6a4b\u6881\u8a73\u7d30\u8a2d\u8a08\u696d\u52d9","client_name":"\"\u56fd\u571f\u4ea4\u901a\u7701 \u4e2d\u56fd\u5730\u65b9\u6574\u5099\u5c40 \u5e83\u5cf6\u56fd\u9053\u4e8b\u52d9\u6240\"","boring_xml_url":68,"boring_view_url":1,"soilmap_view_url":null,"soiltest_xml_url":0,"soiltest_view_url":0},{"id":522780,"code":"B4KJ202201002-5316","latitude":"34.287375","longitude":"132.517069","source_code":"CG158755550200030001","project_name":"","survey_name":"\u5e83\u5cf6\u56fd\u9053\u7ba1\u5185\u4ea4\u901a\u5b89\u5168\u6a4b\u6881\u8a73\u7d30\u8a2d\u8a08\u696d\u52d9","client_name":"\"\u56fd\u571f\u4ea4\u901a\u7701 \u4e2d\u56fd\u5730\u65b9\u6574\u5099\u5c40 \u5e83\u5cf6\u56fd\u9053\u4e8b\u52d9\u6240\"","boring_xml_url":68,"boring_view_url":1,"soilmap_view_url":null,"soiltest_xml_url":0,"soiltest_view_url":0},{"id":522779,"code":"B4KJ202201002-5315","latitude":"35.246278","longitude":"132.570444","source_code":"CG168735400200100004","project_name":"","survey_name":"\u671d\u5c71\u5730\u533a\u5730\u4e0b\u6c34\u89b3\u6e2c\u5b54\u8a2d\u7f6e\u696d\u52d9","client_name":"\u56fd\u571f\u4ea4\u901a\u7701\u3000\u4e2d\u56fd\u5730\u65b9\u6574\u5099\u5c40\u3000\u677e\u6c5f\u56fd\u9053\u4e8b\u52d9\u6240","boring_xml_url":68,"boring_view_url":1,"soilmap_view_url":null,"soiltest_xml_url":0,"soiltest_view_url":0},{"id":522778,"code":"B4KJ202201002-5314","latitude":"35.246153","longitude":"132.569361","source_code":"CG168735400200100003","project_name":"","survey_name":"\u671d\u5c71\u5730\u533a\u5730\u4e0b\u6c34\u89b3\u6e2c\u5b54\u8a2d\u7f6e\u696d\u52d9","client_name":"\u56fd\u571f\u4ea4\u901a\u7701\u3000\u4e2d\u56fd\u5730\u65b9\u6574\u5099\u5c40\u3000\u677e\u6c5f\u56fd\u9053\u4e8b\u52d9\u6240","boring_xml_url":68,"boring_view_url":1,"soilmap_view_url":null,"soiltest_xml_url":0,"soiltest_view_url":0},{"id":522777,"code":"B4KJ202201002-5313","latitude":"35.246972","longitude":"132.569028","source_code":"CG168735400200100002","project_name":"","survey_name":"\u671d\u5c71\u5730\u533a\u5730\u4e0b\u6c34\u89b3\u6e2c\u5b54\u8a2d\u7f6e\u696d\u52d9","client_name":"\u56fd\u571f\u4ea4\u901a\u7701\u3000\u4e2d\u56fd\u5730\u65b9\u6574\u5099\u5c40\u3000\u677e\u6c5f\u56fd\u9053\u4e8b\u52d9\u6240","boring_xml_url":68,"boring_view_url":1,"soilmap_view_url":null,"soiltest_xml_url":0,"soiltest_view_url":0},{"id":522776,"code":"B4KJ202201002-5312","latitude":"35.247056","longitude":"132.569778","source_code":"CG168735400200100001","project_name":"","survey_name":"\u671d\u5c71\u5730\u533a\u5730\u4e0b\u6c34\u89b3\u6e2c\u5b54\u8a2d\u7f6e\u696d\u52d9","client_name":"\u56fd\u571f\u4ea4\u901a\u7701\u3000\u4e2d\u56fd\u5730\u65b9\u6574\u5099\u5c40\u3000\u677e\u6c5f\u56fd\u9053\u4e8b\u52d9\u6240","boring_xml_url":68,"boring_view_url":1,"soilmap_view_url":null,"soiltest_xml_url":0,"soiltest_view_url":0},{"id":522775,"code":"B4KJ202201002-5311","latitude":"34.23775","longitude":"132.607639","source_code":"CG158755400200190011","project_name":"","survey_name":"\u963f\u8cc0\u5730\u533a\u5730\u8cea\u8abf\u67fb\u696d\u52d9","client_name":"\u56fd\u571f\u4ea4\u901a\u7701\u4e2d\u56fd\u5730\u65b9\u6574\u5099\u5c40\u5e83\u5cf6\u56fd\u9053\u4e8b\u52d9\u6240","boring_xml_url":68,"boring_view_url":1,"soilmap_view_url":null,"soiltest_xml_url":0,"soiltest_view_url":0},{"id":522774,"code":"B4KJ202201002-5310","latitude":"34.235806","longitude":"132.606806","source_code":"CG158755400200190010","project_name":"","survey_name":"\u963f\u8cc0\u5730\u533a\u5730\u8cea\u8abf\u67fb\u696d\u52d9","client_name":"\u56fd\u571f\u4ea4\u901a\u7701\u4e2d\u56fd\u5730\u65b9\u6574\u5099\u5c40\u5e83\u5cf6\u56fd\u9053\u4e8b\u52d9\u6240","boring_xml_url":68,"boring_view_url":1,"soilmap_view_url":null,"soiltest_xml_url":0,"soiltest_view_url":0},{"id":522773,"code":"B4KJ202201002-5309","latitude":"34.2355","longitude":"132.606306","source_code":"CG158755400200190009","project_name":"","survey_name":"\u963f\u8cc0\u5730\u533a\u5730\u8cea\u8abf\u67fb\u696d\u52d9","client_name":"\u56fd\u571f\u4ea4\u901a\u7701\u4e2d\u56fd\u5730\u65b9\u6574\u5099\u5c40\u5e83\u5cf6\u56fd\u9053\u4e8b\u52d9\u6240","boring_xml_url":68,"boring_view_url":1,"soilmap_view_url":null,"soiltest_xml_url":0,"soiltest_view_url":0},{"id":522772,"code":"B4KJ202201002-5308","latitude":"34.235444","longitude":"132.606333","source_code":"CG158755400200190008","project_name":"","survey_name":"\u963f\u8cc0\u5730\u533a\u5730\u8cea\u8abf\u67fb\u696d\u52d9","client_name":"\u56fd\u571f\u4ea4\u901a\u7701\u4e2d\u56fd\u5730\u65b9\u6574\u5099\u5c40\u5e83\u5cf6\u56fd\u9053\u4e8b\u52d9\u6240","boring_xml_url":68,"boring_view_url":1,"soilmap_view_url":null,"soiltest_xml_url":0,"soiltest_view_url":0},{"id":522771,"code":"B4KJ202201002-5307","latitude":"34.235444","longitude":"132.605333","source_code":"CG158755400200190007","project_name":"","survey_name":"\u963f\u8cc0\u5730\u533a\u5730\u8cea\u8abf\u67fb\u696d\u52d9","client_name":"\u56fd\u571f\u4ea4\u901a\u7701\u4e2d\u56fd\u5730\u65b9\u6574\u5099\u5c40\u5e83\u5cf6\u56fd\u9053\u4e8b\u52d9\u6240","boring_xml_url":68,"boring_view_url":1,"soilmap_view_url":null,"soiltest_xml_url":0,"soiltest_view_url":0},{"id":522770,"code":"B4KJ202201002-5306","latitude":"34.23575","longitude":"132.6045","source_code":"CG158755400200190006","project_name":"","survey_name":"\u963f\u8cc0\u5730\u533a\u5730\u8cea\u8abf\u67fb\u696d\u52d9","client_name":"\u56fd\u571f\u4ea4\u901a\u7701\u4e2d\u56fd\u5730\u65b9\u6574\u5099\u5c40\u5e83\u5cf6\u56fd\u9053\u4e8b\u52d9\u6240","boring_xml_url":68,"boring_view_url":1,"soilmap_view_url":null,"soiltest_xml_url":0,"soiltest_view_url":0},{"id":522769,"code":"B4KJ202201002-5305","latitude":"34.236861","longitude":"132.607417","source_code":"CG158755400200190005","project_name":"","survey_name":"\u963f\u8cc0\u5730\u533a\u5730\u8cea\u8abf\u67fb\u696d\u52d9","client_name":"\u56fd\u571f\u4ea4\u901a\u7701\u4e2d\u56fd\u5730\u65b9\u6574\u5099\u5c40\u5e83\u5cf6\u56fd\u9053\u4e8b\u52d9\u6240","boring_xml_url":68,"boring_view_url":1,"soilmap_view_url":null,"soiltest_xml_url":0,"soiltest_view_url":0}]}}