{"header":{"xyz":{"source":[],"mosaic":false},"page":758,"raw":{"soiltest_result":"0","bbox":"57.598333,109.544722,1.933333,163.806111","page":"758"},"conditions":{"soiltest_result":0,"north":57.598333,"west":109.544722,"south":1.933333,"east":163.806111},"success":true,"message":""},"data":{"meta":{"total":212844,"page":758,"pages":7095,"count":30},"values":[{"id":522678,"code":"B4KJ202201002-5214","latitude":"34.528651","longitude":"133.624413","source_code":"CG118742400200180004","project_name":"\u5927\u8c37\u897f\u5730\u533a","survey_name":"\u7389\u5cf6\u7b20\u5ca1\u5730\u533a\u5354\u8b70\u8cc7\u6599\u7b49\u4f5c\u6210\u696d\u52d9","client_name":"\u56fd\u571f\u4ea4\u901a\u7701\u4e2d\u56fd\u5730\u65b9\u6574\u5099\u5c40\u5ca1\u5c71\u56fd\u9053\u4e8b\u52d9\u6240","boring_xml_url":68,"boring_view_url":1,"soilmap_view_url":null,"soiltest_xml_url":0,"soiltest_view_url":0},{"id":522677,"code":"B4KJ202201002-5213","latitude":"34.528962","longitude":"133.62495","source_code":"CG118742400200180003","project_name":"\u5927\u8c37\u897f\u5730\u533a","survey_name":"\u7389\u5cf6\u7b20\u5ca1\u5730\u533a\u5354\u8b70\u8cc7\u6599\u7b49\u4f5c\u6210\u696d\u52d9","client_name":"\u56fd\u571f\u4ea4\u901a\u7701\u4e2d\u56fd\u5730\u65b9\u6574\u5099\u5c40\u5ca1\u5c71\u56fd\u9053\u4e8b\u52d9\u6240","boring_xml_url":68,"boring_view_url":1,"soilmap_view_url":null,"soiltest_xml_url":0,"soiltest_view_url":0},{"id":522676,"code":"B4KJ202201002-5212","latitude":"34.525243","longitude":"133.625243","source_code":"CG118742400200180002","project_name":"\u5927\u8c37\u897f\u5730\u533a","survey_name":"\u7389\u5cf6\u7b20\u5ca1\u5730\u533a\u5354\u8b70\u8cc7\u6599\u7b49\u4f5c\u6210\u696d\u52d9","client_name":"\u56fd\u571f\u4ea4\u901a\u7701\u4e2d\u56fd\u5730\u65b9\u6574\u5099\u5c40\u5ca1\u5c71\u56fd\u9053\u4e8b\u52d9\u6240","boring_xml_url":68,"boring_view_url":1,"soilmap_view_url":null,"soiltest_xml_url":0,"soiltest_view_url":0},{"id":522675,"code":"B4KJ202201002-5211","latitude":"34.529151","longitude":"133.625361","source_code":"CG118742400200180001","project_name":"\u5927\u8c37\u897f\u5730\u533a","survey_name":"\u7389\u5cf6\u7b20\u5ca1\u5730\u533a\u5354\u8b70\u8cc7\u6599\u7b49\u4f5c\u6210\u696d\u52d9","client_name":"\u56fd\u571f\u4ea4\u901a\u7701\u4e2d\u56fd\u5730\u65b9\u6574\u5099\u5c40\u5ca1\u5c71\u56fd\u9053\u4e8b\u52d9\u6240","boring_xml_url":68,"boring_view_url":1,"soilmap_view_url":null,"soiltest_xml_url":0,"soiltest_view_url":0},{"id":522674,"code":"B4KJ202201002-5210","latitude":"34.685481","longitude":"133.76685","source_code":"CG118742400200170001","project_name":"\u7dcf\u793e\u30fb\u4e00\u5bae\u30d0\u30a4\u30d1\u30b9\u7dcf\u793e\u5730\u533a\u8edf\u5f31\u5730\u76e4\u89e3\u6790\u691c\u8a0e\u696d\u52d9","survey_name":"\u7dcf\u793e\u30fb\u4e00\u5bae\u30d0\u30a4\u30d1\u30b9\u7dcf\u793e\u5730\u533a\u8edf\u5f31\u5730\u76e4\u89e3\u6790\u691c\u8a0e\u696d\u52d9","client_name":"\u56fd\u571f\u4ea4\u901a\u7701\u4e2d\u56fd\u5730\u65b9\u6574\u5099\u5c40\u3000\u5ca1\u5c71\u56fd\u9053\u4e8b\u52d9\u6240\u5de5\u52d9\u8ab2","boring_xml_url":68,"boring_view_url":1,"soilmap_view_url":null,"soiltest_xml_url":0,"soiltest_view_url":0},{"id":522673,"code":"B4KJ202201002-5209","latitude":"34.689111","longitude":"133.874944","source_code":"CG118742400200130008","project_name":"","survey_name":"\u7dcf\u793e\u30fb\u4e00\u5bae\u30d0\u30a4\u30d1\u30b9\u4eca\u5ca1\u5730\u533a\u5730\u8cea\u8abf\u67fb\u696d\u52d9","client_name":"\u56fd\u571f\u4ea4\u901a\u7701\u3000\u5ca1\u5c71\u56fd\u9053\u4e8b\u52d9\u6240","boring_xml_url":68,"boring_view_url":1,"soilmap_view_url":null,"soiltest_xml_url":0,"soiltest_view_url":0},{"id":522672,"code":"B4KJ202201002-5208","latitude":"34.688833","longitude":"133.875222","source_code":"CG118742400200130007","project_name":"","survey_name":"\u7dcf\u793e\u30fb\u4e00\u5bae\u30d0\u30a4\u30d1\u30b9\u4eca\u5ca1\u5730\u533a\u5730\u8cea\u8abf\u67fb\u696d\u52d9","client_name":"\u56fd\u571f\u4ea4\u901a\u7701\u3000\u5ca1\u5c71\u56fd\u9053\u4e8b\u52d9\u6240","boring_xml_url":68,"boring_view_url":1,"soilmap_view_url":null,"soiltest_xml_url":0,"soiltest_view_url":0},{"id":522671,"code":"B4KJ202201002-5207","latitude":"34.688639","longitude":"133.875306","source_code":"CG118742400200130006","project_name":"","survey_name":"\u7dcf\u793e\u30fb\u4e00\u5bae\u30d0\u30a4\u30d1\u30b9\u4eca\u5ca1\u5730\u533a\u5730\u8cea\u8abf\u67fb\u696d\u52d9","client_name":"\u56fd\u571f\u4ea4\u901a\u7701\u3000\u5ca1\u5c71\u56fd\u9053\u4e8b\u52d9\u6240","boring_xml_url":68,"boring_view_url":1,"soilmap_view_url":null,"soiltest_xml_url":0,"soiltest_view_url":0},{"id":522670,"code":"B4KJ202201002-5206","latitude":"34.688361","longitude":"133.875528","source_code":"CG118742400200130005","project_name":"","survey_name":"\u7dcf\u793e\u30fb\u4e00\u5bae\u30d0\u30a4\u30d1\u30b9\u4eca\u5ca1\u5730\u533a\u5730\u8cea\u8abf\u67fb\u696d\u52d9","client_name":"\u56fd\u571f\u4ea4\u901a\u7701\u3000\u5ca1\u5c71\u56fd\u9053\u4e8b\u52d9\u6240","boring_xml_url":68,"boring_view_url":1,"soilmap_view_url":null,"soiltest_xml_url":0,"soiltest_view_url":0},{"id":522669,"code":"B4KJ202201002-5205","latitude":"34.688083","longitude":"133.875639","source_code":"CG118742400200130004","project_name":"","survey_name":"\u7dcf\u793e\u30fb\u4e00\u5bae\u30d0\u30a4\u30d1\u30b9\u4eca\u5ca1\u5730\u533a\u5730\u8cea\u8abf\u67fb\u696d\u52d9","client_name":"\u56fd\u571f\u4ea4\u901a\u7701\u3000\u5ca1\u5c71\u56fd\u9053\u4e8b\u52d9\u6240","boring_xml_url":68,"boring_view_url":1,"soilmap_view_url":null,"soiltest_xml_url":0,"soiltest_view_url":0},{"id":522668,"code":"B4KJ202201002-5204","latitude":"34.687806","longitude":"133.875778","source_code":"CG118742400200130003","project_name":"","survey_name":"\u7dcf\u793e\u30fb\u4e00\u5bae\u30d0\u30a4\u30d1\u30b9\u4eca\u5ca1\u5730\u533a\u5730\u8cea\u8abf\u67fb\u696d\u52d9","client_name":"\u56fd\u571f\u4ea4\u901a\u7701\u3000\u5ca1\u5c71\u56fd\u9053\u4e8b\u52d9\u6240","boring_xml_url":68,"boring_view_url":1,"soilmap_view_url":null,"soiltest_xml_url":0,"soiltest_view_url":0},{"id":522667,"code":"B4KJ202201002-5203","latitude":"34.687528","longitude":"133.875778","source_code":"CG118742400200130002","project_name":"","survey_name":"\u7dcf\u793e\u30fb\u4e00\u5bae\u30d0\u30a4\u30d1\u30b9\u4eca\u5ca1\u5730\u533a\u5730\u8cea\u8abf\u67fb\u696d\u52d9","client_name":"\u56fd\u571f\u4ea4\u901a\u7701\u3000\u5ca1\u5c71\u56fd\u9053\u4e8b\u52d9\u6240","boring_xml_url":68,"boring_view_url":1,"soilmap_view_url":null,"soiltest_xml_url":0,"soiltest_view_url":0},{"id":522666,"code":"B4KJ202201002-5202","latitude":"34.687194","longitude":"133.875889","source_code":"CG118742400200130001","project_name":"","survey_name":"\u7dcf\u793e\u30fb\u4e00\u5bae\u30d0\u30a4\u30d1\u30b9\u4eca\u5ca1\u5730\u533a\u5730\u8cea\u8abf\u67fb\u696d\u52d9","client_name":"\u56fd\u571f\u4ea4\u901a\u7701\u3000\u5ca1\u5c71\u56fd\u9053\u4e8b\u52d9\u6240","boring_xml_url":68,"boring_view_url":1,"soilmap_view_url":null,"soiltest_xml_url":0,"soiltest_view_url":0},{"id":522665,"code":"B4KJ202201002-5201","latitude":"34.520464","longitude":"133.611538","source_code":"CG118742400200100019","project_name":"\u7389\u5cf6\u7b20\u5ca1\u9053\u8def\u516d\u6761\u9662\u6771\u5730\u533a\u5916\u5730\u8cea\u8abf\u67fb\u696d\u52d9","survey_name":"\u7389\u5cf6\u7b20\u5ca1\u9053\u8def\u516d\u6761\u9662\u6771\u5730\u533a\u5916\u5730\u8cea\u8abf\u67fb\u696d\u52d9","client_name":"\u56fd\u571f\u4ea4\u901a\u7701\u5ca1\u5c71\u56fd\u9053\u4e8b\u52d9\u6240\u5de5\u52d9\u8ab2","boring_xml_url":68,"boring_view_url":1,"soilmap_view_url":null,"soiltest_xml_url":0,"soiltest_view_url":0},{"id":522664,"code":"B4KJ202201002-5200","latitude":"34.519325","longitude":"133.601381","source_code":"CG118742400200100018","project_name":"\u7389\u5cf6\u7b20\u5ca1\u9053\u8def\u516d\u6761\u9662\u6771\u5730\u533a\u5916\u5730\u8cea\u8abf\u67fb\u696d\u52d9","survey_name":"\u7389\u5cf6\u7b20\u5ca1\u9053\u8def\u516d\u6761\u9662\u6771\u5730\u533a\u5916\u5730\u8cea\u8abf\u67fb\u696d\u52d9","client_name":"\u56fd\u571f\u4ea4\u901a\u7701\u5ca1\u5c71\u56fd\u9053\u4e8b\u52d9\u6240\u5de5\u52d9\u8ab2","boring_xml_url":68,"boring_view_url":1,"soilmap_view_url":null,"soiltest_xml_url":0,"soiltest_view_url":0},{"id":522663,"code":"B4KJ202201002-5199","latitude":"34.519481","longitude":"133.601884","source_code":"CG118742400200100017","project_name":"\u7389\u5cf6\u7b20\u5ca1\u9053\u8def\u516d\u6761\u9662\u6771\u5730\u533a\u5916\u5730\u8cea\u8abf\u67fb\u696d\u52d9","survey_name":"\u7389\u5cf6\u7b20\u5ca1\u9053\u8def\u516d\u6761\u9662\u6771\u5730\u533a\u5916\u5730\u8cea\u8abf\u67fb\u696d\u52d9","client_name":"\u56fd\u571f\u4ea4\u901a\u7701\u5ca1\u5c71\u56fd\u9053\u4e8b\u52d9\u6240\u5de5\u52d9\u8ab2","boring_xml_url":68,"boring_view_url":1,"soilmap_view_url":null,"soiltest_xml_url":0,"soiltest_view_url":0},{"id":522662,"code":"B4KJ202201002-5198","latitude":"34.519387","longitude":"133.602053","source_code":"CG118742400200100016","project_name":"\u7389\u5cf6\u7b20\u5ca1\u9053\u8def\u516d\u6761\u9662\u6771\u5730\u533a\u5916\u5730\u8cea\u8abf\u67fb\u696d\u52d9","survey_name":"\u7389\u5cf6\u7b20\u5ca1\u9053\u8def\u516d\u6761\u9662\u6771\u5730\u533a\u5916\u5730\u8cea\u8abf\u67fb\u696d\u52d9","client_name":"\u56fd\u571f\u4ea4\u901a\u7701\u5ca1\u5c71\u56fd\u9053\u4e8b\u52d9\u6240\u5de5\u52d9\u8ab2","boring_xml_url":68,"boring_view_url":1,"soilmap_view_url":null,"soiltest_xml_url":0,"soiltest_view_url":0},{"id":522661,"code":"B4KJ202201002-5197","latitude":"34.519584","longitude":"133.602931","source_code":"CG118742400200100015","project_name":"\u7389\u5cf6\u7b20\u5ca1\u9053\u8def\u516d\u6761\u9662\u6771\u5730\u533a\u5916\u5730\u8cea\u8abf\u67fb\u696d\u52d9","survey_name":"\u7389\u5cf6\u7b20\u5ca1\u9053\u8def\u516d\u6761\u9662\u6771\u5730\u533a\u5916\u5730\u8cea\u8abf\u67fb\u696d\u52d9","client_name":"\u56fd\u571f\u4ea4\u901a\u7701\u5ca1\u5c71\u56fd\u9053\u4e8b\u52d9\u6240\u5de5\u52d9\u8ab2","boring_xml_url":68,"boring_view_url":1,"soilmap_view_url":null,"soiltest_xml_url":0,"soiltest_view_url":0},{"id":522660,"code":"B4KJ202201002-5196","latitude":"34.519648","longitude":"133.603414","source_code":"CG118742400200100014","project_name":"\u7389\u5cf6\u7b20\u5ca1\u9053\u8def\u516d\u6761\u9662\u6771\u5730\u533a\u5916\u5730\u8cea\u8abf\u67fb\u696d\u52d9","survey_name":"\u7389\u5cf6\u7b20\u5ca1\u9053\u8def\u516d\u6761\u9662\u6771\u5730\u533a\u5916\u5730\u8cea\u8abf\u67fb\u696d\u52d9","client_name":"\u56fd\u571f\u4ea4\u901a\u7701\u5ca1\u5c71\u56fd\u9053\u4e8b\u52d9\u6240\u5de5\u52d9\u8ab2","boring_xml_url":68,"boring_view_url":1,"soilmap_view_url":null,"soiltest_xml_url":0,"soiltest_view_url":0},{"id":522659,"code":"B4KJ202201002-5195","latitude":"34.519639","longitude":"133.603719","source_code":"CG118742400200100013","project_name":"\u7389\u5cf6\u7b20\u5ca1\u9053\u8def\u516d\u6761\u9662\u6771\u5730\u533a\u5916\u5730\u8cea\u8abf\u67fb\u696d\u52d9","survey_name":"\u7389\u5cf6\u7b20\u5ca1\u9053\u8def\u516d\u6761\u9662\u6771\u5730\u533a\u5916\u5730\u8cea\u8abf\u67fb\u696d\u52d9","client_name":"\u56fd\u571f\u4ea4\u901a\u7701\u5ca1\u5c71\u56fd\u9053\u4e8b\u52d9\u6240\u5de5\u52d9\u8ab2","boring_xml_url":68,"boring_view_url":1,"soilmap_view_url":null,"soiltest_xml_url":0,"soiltest_view_url":0},{"id":522658,"code":"B4KJ202201002-5194","latitude":"34.519734","longitude":"133.603803","source_code":"CG118742400200100012","project_name":"\u7389\u5cf6\u7b20\u5ca1\u9053\u8def\u516d\u6761\u9662\u6771\u5730\u533a\u5916\u5730\u8cea\u8abf\u67fb\u696d\u52d9","survey_name":"\u7389\u5cf6\u7b20\u5ca1\u9053\u8def\u516d\u6761\u9662\u6771\u5730\u533a\u5916\u5730\u8cea\u8abf\u67fb\u696d\u52d9","client_name":"\u56fd\u571f\u4ea4\u901a\u7701\u5ca1\u5c71\u56fd\u9053\u4e8b\u52d9\u6240\u5de5\u52d9\u8ab2","boring_xml_url":68,"boring_view_url":1,"soilmap_view_url":null,"soiltest_xml_url":0,"soiltest_view_url":0},{"id":522657,"code":"B4KJ202201002-5193","latitude":"34.519687","longitude":"133.604178","source_code":"CG118742400200100011","project_name":"\u7389\u5cf6\u7b20\u5ca1\u9053\u8def\u516d\u6761\u9662\u6771\u5730\u533a\u5916\u5730\u8cea\u8abf\u67fb\u696d\u52d9","survey_name":"\u7389\u5cf6\u7b20\u5ca1\u9053\u8def\u516d\u6761\u9662\u6771\u5730\u533a\u5916\u5730\u8cea\u8abf\u67fb\u696d\u52d9","client_name":"\u56fd\u571f\u4ea4\u901a\u7701\u5ca1\u5c71\u56fd\u9053\u4e8b\u52d9\u6240\u5de5\u52d9\u8ab2","boring_xml_url":68,"boring_view_url":1,"soilmap_view_url":null,"soiltest_xml_url":0,"soiltest_view_url":0},{"id":522656,"code":"B4KJ202201002-5192","latitude":"34.519781","longitude":"133.604258","source_code":"CG118742400200100010","project_name":"\u7389\u5cf6\u7b20\u5ca1\u9053\u8def\u516d\u6761\u9662\u6771\u5730\u533a\u5916\u5730\u8cea\u8abf\u67fb\u696d\u52d9","survey_name":"\u7389\u5cf6\u7b20\u5ca1\u9053\u8def\u516d\u6761\u9662\u6771\u5730\u533a\u5916\u5730\u8cea\u8abf\u67fb\u696d\u52d9","client_name":"\u56fd\u571f\u4ea4\u901a\u7701\u5ca1\u5c71\u56fd\u9053\u4e8b\u52d9\u6240\u5de5\u52d9\u8ab2","boring_xml_url":68,"boring_view_url":1,"soilmap_view_url":null,"soiltest_xml_url":0,"soiltest_view_url":0},{"id":522655,"code":"B4KJ202201002-5191","latitude":"34.521159","longitude":"133.611538","source_code":"CG118742400200100009","project_name":"\u7389\u5cf6\u7b20\u5ca1\u9053\u8def\u516d\u6761\u9662\u6771\u5730\u533a\u5916\u5730\u8cea\u8abf\u67fb\u696d\u52d9","survey_name":"\u7389\u5cf6\u7b20\u5ca1\u9053\u8def\u516d\u6761\u9662\u6771\u5730\u533a\u5916\u5730\u8cea\u8abf\u67fb\u696d\u52d9","client_name":"\u56fd\u571f\u4ea4\u901a\u7701\u5ca1\u5c71\u56fd\u9053\u4e8b\u52d9\u6240\u5de5\u52d9\u8ab2","boring_xml_url":68,"boring_view_url":1,"soilmap_view_url":null,"soiltest_xml_url":0,"soiltest_view_url":0},{"id":522654,"code":"B4KJ202201002-5190","latitude":"34.521297","longitude":"133.611983","source_code":"CG118742400200100008","project_name":"\u7389\u5cf6\u7b20\u5ca1\u9053\u8def\u516d\u6761\u9662\u6771\u5730\u533a\u5916\u5730\u8cea\u8abf\u67fb\u696d\u52d9","survey_name":"\u7389\u5cf6\u7b20\u5ca1\u9053\u8def\u516d\u6761\u9662\u6771\u5730\u533a\u5916\u5730\u8cea\u8abf\u67fb\u696d\u52d9","client_name":"\u56fd\u571f\u4ea4\u901a\u7701\u5ca1\u5c71\u56fd\u9053\u4e8b\u52d9\u6240\u5de5\u52d9\u8ab2","boring_xml_url":68,"boring_view_url":1,"soilmap_view_url":null,"soiltest_xml_url":0,"soiltest_view_url":0},{"id":522653,"code":"B4KJ202201002-5189","latitude":"34.52152","longitude":"133.612455","source_code":"CG118742400200100007","project_name":"\u7389\u5cf6\u7b20\u5ca1\u9053\u8def\u516d\u6761\u9662\u6771\u5730\u533a\u5916\u5730\u8cea\u8abf\u67fb\u696d\u52d9","survey_name":"\u7389\u5cf6\u7b20\u5ca1\u9053\u8def\u516d\u6761\u9662\u6771\u5730\u533a\u5916\u5730\u8cea\u8abf\u67fb\u696d\u52d9","client_name":"\u56fd\u571f\u4ea4\u901a\u7701\u5ca1\u5c71\u56fd\u9053\u4e8b\u52d9\u6240\u5de5\u52d9\u8ab2","boring_xml_url":68,"boring_view_url":1,"soilmap_view_url":null,"soiltest_xml_url":0,"soiltest_view_url":0},{"id":522652,"code":"B4KJ202201002-5188","latitude":"34.521742","longitude":"133.613038","source_code":"CG118742400200100006","project_name":"\u7389\u5cf6\u7b20\u5ca1\u9053\u8def\u516d\u6761\u9662\u6771\u5730\u533a\u5916\u5730\u8cea\u8abf\u67fb\u696d\u52d9","survey_name":"\u7389\u5cf6\u7b20\u5ca1\u9053\u8def\u516d\u6761\u9662\u6771\u5730\u533a\u5916\u5730\u8cea\u8abf\u67fb\u696d\u52d9","client_name":"\u56fd\u571f\u4ea4\u901a\u7701\u5ca1\u5c71\u56fd\u9053\u4e8b\u52d9\u6240\u5de5\u52d9\u8ab2","boring_xml_url":68,"boring_view_url":1,"soilmap_view_url":null,"soiltest_xml_url":0,"soiltest_view_url":0},{"id":522651,"code":"B4KJ202201002-5187","latitude":"34.522325","longitude":"133.614066","source_code":"CG118742400200100005","project_name":"\u7389\u5cf6\u7b20\u5ca1\u9053\u8def\u516d\u6761\u9662\u6771\u5730\u533a\u5916\u5730\u8cea\u8abf\u67fb\u696d\u52d9","survey_name":"\u7389\u5cf6\u7b20\u5ca1\u9053\u8def\u516d\u6761\u9662\u6771\u5730\u533a\u5916\u5730\u8cea\u8abf\u67fb\u696d\u52d9","client_name":"\u56fd\u571f\u4ea4\u901a\u7701\u5ca1\u5c71\u56fd\u9053\u4e8b\u52d9\u6240\u5de5\u52d9\u8ab2","boring_xml_url":68,"boring_view_url":1,"soilmap_view_url":null,"soiltest_xml_url":0,"soiltest_view_url":0},{"id":522650,"code":"B4KJ202201002-5186","latitude":"34.522703","longitude":"133.614613","source_code":"CG118742400200100004","project_name":"\u7389\u5cf6\u7b20\u5ca1\u9053\u8def\u516d\u6761\u9662\u6771\u5730\u533a\u5916\u5730\u8cea\u8abf\u67fb\u696d\u52d9","survey_name":"\u7389\u5cf6\u7b20\u5ca1\u9053\u8def\u516d\u6761\u9662\u6771\u5730\u533a\u5916\u5730\u8cea\u8abf\u67fb\u696d\u52d9","client_name":"\u56fd\u571f\u4ea4\u901a\u7701\u5ca1\u5c71\u56fd\u9053\u4e8b\u52d9\u6240\u5de5\u52d9\u8ab2","boring_xml_url":68,"boring_view_url":1,"soilmap_view_url":null,"soiltest_xml_url":0,"soiltest_view_url":0},{"id":522649,"code":"B4KJ202201002-5185","latitude":"34.5226","longitude":"133.614582","source_code":"CG118742400200100003","project_name":"\u7389\u5cf6\u7b20\u5ca1\u9053\u8def\u516d\u6761\u9662\u6771\u5730\u533a\u5916\u5730\u8cea\u8abf\u67fb\u696d\u52d9","survey_name":"\u7389\u5cf6\u7b20\u5ca1\u9053\u8def\u516d\u6761\u9662\u6771\u5730\u533a\u5916\u5730\u8cea\u8abf\u67fb\u696d\u52d9","client_name":"\u56fd\u571f\u4ea4\u901a\u7701\u5ca1\u5c71\u56fd\u9053\u4e8b\u52d9\u6240\u5de5\u52d9\u8ab2","boring_xml_url":68,"boring_view_url":1,"soilmap_view_url":null,"soiltest_xml_url":0,"soiltest_view_url":0}]}}