{"header":{"xyz":{"source":[],"mosaic":false},"page":76,"raw":{"soiltest_result":"0","bbox":"57.598333,109.544722,1.933333,163.806111","page":"76"},"conditions":{"soiltest_result":0,"north":57.598333,"west":109.544722,"south":1.933333,"east":163.806111},"success":true,"message":""},"data":{"meta":{"total":212844,"page":76,"pages":7095,"count":30},"values":[{"id":695882,"code":"NGIC202304591-0007","latitude":"42.321698333333","longitude":"142.41112211111","source_code":"","project_name":"","survey_name":"\u4ee4\u548c5\u5e74\u5ea6 \u65e5\u9ad8\u81ea\u52d5\u8eca\u9053 \u65b0\u3072\u3060\u304b\u753a \u30dd\u30f3\u30a6\u30bb\u30ca\u30a4\u5ddd\u6a4b\u5730\u8cea\u8abf\u67fb\u5916\u4e00\u9023\u696d\u52d9","client_name":"\u56fd\u571f\u4ea4\u901a\u7701\u5317\u6d77\u9053\u958b\u767a\u5c40\u5ba4\u862d\u958b\u767a\u5efa\u8a2d\u90e8\u672c\u90e8","boring_xml_url":47,"boring_view_url":1,"soilmap_view_url":null,"soiltest_xml_url":47,"soiltest_view_url":47},{"id":695881,"code":"NGIC202304591-0006","latitude":"42.322023111111","longitude":"142.41161458333","source_code":"","project_name":"","survey_name":"\u4ee4\u548c5\u5e74\u5ea6 \u65e5\u9ad8\u81ea\u52d5\u8eca\u9053 \u65b0\u3072\u3060\u304b\u753a \u30dd\u30f3\u30a6\u30bb\u30ca\u30a4\u5ddd\u6a4b\u5730\u8cea\u8abf\u67fb\u5916\u4e00\u9023\u696d\u52d9","client_name":"\u56fd\u571f\u4ea4\u901a\u7701\u5317\u6d77\u9053\u958b\u767a\u5c40\u5ba4\u862d\u958b\u767a\u5efa\u8a2d\u90e8\u672c\u90e8","boring_xml_url":47,"boring_view_url":1,"soilmap_view_url":null,"soiltest_xml_url":47,"soiltest_view_url":47},{"id":695880,"code":"NGIC202304591-0005","latitude":"42.322837583333","longitude":"142.41172547222","source_code":"","project_name":"","survey_name":"\u4ee4\u548c5\u5e74\u5ea6 \u65e5\u9ad8\u81ea\u52d5\u8eca\u9053 \u65b0\u3072\u3060\u304b\u753a \u30dd\u30f3\u30a6\u30bb\u30ca\u30a4\u5ddd\u6a4b\u5730\u8cea\u8abf\u67fb\u5916\u4e00\u9023\u696d\u52d9","client_name":"\u56fd\u571f\u4ea4\u901a\u7701\u5317\u6d77\u9053\u958b\u767a\u5c40\u5ba4\u862d\u958b\u767a\u5efa\u8a2d\u90e8\u672c\u90e8","boring_xml_url":47,"boring_view_url":1,"soilmap_view_url":null,"soiltest_xml_url":47,"soiltest_view_url":47},{"id":695879,"code":"NGIC202304591-0004","latitude":"42.322224527778","longitude":"142.41045922222","source_code":"","project_name":"","survey_name":"\u4ee4\u548c5\u5e74\u5ea6 \u65e5\u9ad8\u81ea\u52d5\u8eca\u9053 \u65b0\u3072\u3060\u304b\u753a \u30dd\u30f3\u30a6\u30bb\u30ca\u30a4\u5ddd\u6a4b\u5730\u8cea\u8abf\u67fb\u5916\u4e00\u9023\u696d\u52d9","client_name":"\u56fd\u571f\u4ea4\u901a\u7701\u5317\u6d77\u9053\u958b\u767a\u5c40\u5ba4\u862d\u958b\u767a\u5efa\u8a2d\u90e8\u672c\u90e8","boring_xml_url":47,"boring_view_url":1,"soilmap_view_url":null,"soiltest_xml_url":47,"soiltest_view_url":47},{"id":695878,"code":"NGIC202304591-0003","latitude":"42.32430075","longitude":"142.40956619444","source_code":"","project_name":"","survey_name":"\u4ee4\u548c5\u5e74\u5ea6 \u65e5\u9ad8\u81ea\u52d5\u8eca\u9053 \u65b0\u3072\u3060\u304b\u753a \u30dd\u30f3\u30a6\u30bb\u30ca\u30a4\u5ddd\u6a4b\u5730\u8cea\u8abf\u67fb\u5916\u4e00\u9023\u696d\u52d9","client_name":"\u56fd\u571f\u4ea4\u901a\u7701\u5317\u6d77\u9053\u958b\u767a\u5c40\u5ba4\u862d\u958b\u767a\u5efa\u8a2d\u90e8\u672c\u90e8","boring_xml_url":47,"boring_view_url":1,"soilmap_view_url":null,"soiltest_xml_url":47,"soiltest_view_url":47},{"id":695877,"code":"NGIC202304591-0002","latitude":"42.32549525","longitude":"142.40756138889","source_code":"","project_name":"","survey_name":"\u4ee4\u548c5\u5e74\u5ea6 \u65e5\u9ad8\u81ea\u52d5\u8eca\u9053 \u65b0\u3072\u3060\u304b\u753a \u30dd\u30f3\u30a6\u30bb\u30ca\u30a4\u5ddd\u6a4b\u5730\u8cea\u8abf\u67fb\u5916\u4e00\u9023\u696d\u52d9","client_name":"\u56fd\u571f\u4ea4\u901a\u7701\u5317\u6d77\u9053\u958b\u767a\u5c40\u5ba4\u862d\u958b\u767a\u5efa\u8a2d\u90e8\u672c\u90e8","boring_xml_url":47,"boring_view_url":1,"soilmap_view_url":null,"soiltest_xml_url":0,"soiltest_view_url":0},{"id":695876,"code":"NGIC202304591-0001","latitude":"42.3279375","longitude":"142.40536875","source_code":"","project_name":"","survey_name":"\u4ee4\u548c5\u5e74\u5ea6 \u65e5\u9ad8\u81ea\u52d5\u8eca\u9053 \u65b0\u3072\u3060\u304b\u753a \u30dd\u30f3\u30a6\u30bb\u30ca\u30a4\u5ddd\u6a4b\u5730\u8cea\u8abf\u67fb\u5916\u4e00\u9023\u696d\u52d9","client_name":"\u56fd\u571f\u4ea4\u901a\u7701\u5317\u6d77\u9053\u958b\u767a\u5c40\u5ba4\u862d\u958b\u767a\u5efa\u8a2d\u90e8\u672c\u90e8","boring_xml_url":47,"boring_view_url":1,"soilmap_view_url":null,"soiltest_xml_url":0,"soiltest_view_url":0},{"id":695862,"code":"NGIC202304567-0013","latitude":"42.587217583333","longitude":"142.92500469444","source_code":"","project_name":"\u5927\u898f\u6a21\u69cb\u9020\u7269\u5730\u8cea\u8abf\u67fb\u696d\u52d9","survey_name":"\u5927\u898f\u6a21\u69cb\u9020\u7269\u5730\u8cea\u8abf\u67fb\u696d\u52d9","client_name":"\u56fd\u571f\u4ea4\u901a\u7701\u5317\u6d77\u9053\u958b\u767a\u5c40\u5e2f\u5e83\u958b\u767a\u5efa\u8a2d\u90e8\u5e2f\u5e83\u6cb3\u5ddd\u4e8b\u52d9\u6240","boring_xml_url":47,"boring_view_url":1,"soilmap_view_url":null,"soiltest_xml_url":0,"soiltest_view_url":0},{"id":695861,"code":"NGIC202304567-0012","latitude":"42.58740775","longitude":"142.92473908333","source_code":"","project_name":"\u5927\u898f\u6a21\u69cb\u9020\u7269\u5730\u8cea\u8abf\u67fb\u696d\u52d9","survey_name":"\u5927\u898f\u6a21\u69cb\u9020\u7269\u5730\u8cea\u8abf\u67fb\u696d\u52d9","client_name":"\u56fd\u571f\u4ea4\u901a\u7701\u5317\u6d77\u9053\u958b\u767a\u5c40\u5e2f\u5e83\u958b\u767a\u5efa\u8a2d\u90e8\u5e2f\u5e83\u6cb3\u5ddd\u4e8b\u52d9\u6240","boring_xml_url":47,"boring_view_url":1,"soilmap_view_url":null,"soiltest_xml_url":0,"soiltest_view_url":0},{"id":695860,"code":"NGIC202304567-0011","latitude":"42.587563416667","longitude":"142.92452069444","source_code":"","project_name":"\u5927\u898f\u6a21\u69cb\u9020\u7269\u5730\u8cea\u8abf\u67fb\u696d\u52d9","survey_name":"\u5927\u898f\u6a21\u69cb\u9020\u7269\u5730\u8cea\u8abf\u67fb\u696d\u52d9","client_name":"\u56fd\u571f\u4ea4\u901a\u7701\u5317\u6d77\u9053\u958b\u767a\u5c40\u5e2f\u5e83\u958b\u767a\u5efa\u8a2d\u90e8\u5e2f\u5e83\u6cb3\u5ddd\u4e8b\u52d9\u6240","boring_xml_url":47,"boring_view_url":1,"soilmap_view_url":null,"soiltest_xml_url":0,"soiltest_view_url":0},{"id":695859,"code":"NGIC202304567-0010","latitude":"42.587719527778","longitude":"142.92430383333","source_code":"","project_name":"\u5927\u898f\u6a21\u69cb\u9020\u7269\u5730\u8cea\u8abf\u67fb\u696d\u52d9","survey_name":"\u5927\u898f\u6a21\u69cb\u9020\u7269\u5730\u8cea\u8abf\u67fb\u696d\u52d9","client_name":"\u56fd\u571f\u4ea4\u901a\u7701\u5317\u6d77\u9053\u958b\u767a\u5c40\u5e2f\u5e83\u958b\u767a\u5efa\u8a2d\u90e8\u5e2f\u5e83\u6cb3\u5ddd\u4e8b\u52d9\u6240","boring_xml_url":47,"boring_view_url":1,"soilmap_view_url":null,"soiltest_xml_url":0,"soiltest_view_url":0},{"id":695858,"code":"NGIC202304567-0009","latitude":"42.587055972222","longitude":"142.92479269444","source_code":"","project_name":"\u5927\u898f\u6a21\u69cb\u9020\u7269\u5730\u8cea\u8abf\u67fb\u696d\u52d9","survey_name":"\u5927\u898f\u6a21\u69cb\u9020\u7269\u5730\u8cea\u8abf\u67fb\u696d\u52d9","client_name":"\u56fd\u571f\u4ea4\u901a\u7701\u5317\u6d77\u9053\u958b\u767a\u5c40\u5e2f\u5e83\u958b\u767a\u5efa\u8a2d\u90e8\u5e2f\u5e83\u6cb3\u5ddd\u4e8b\u52d9\u6240","boring_xml_url":47,"boring_view_url":1,"soilmap_view_url":null,"soiltest_xml_url":0,"soiltest_view_url":0},{"id":695857,"code":"NGIC202304567-0008","latitude":"42.587401833333","longitude":"142.92430875","source_code":"","project_name":"\u5927\u898f\u6a21\u69cb\u9020\u7269\u5730\u8cea\u8abf\u67fb\u696d\u52d9","survey_name":"\u5927\u898f\u6a21\u69cb\u9020\u7269\u5730\u8cea\u8abf\u67fb\u696d\u52d9","client_name":"\u56fd\u571f\u4ea4\u901a\u7701\u5317\u6d77\u9053\u958b\u767a\u5c40\u5e2f\u5e83\u958b\u767a\u5efa\u8a2d\u90e8\u5e2f\u5e83\u6cb3\u5ddd\u4e8b\u52d9\u6240","boring_xml_url":47,"boring_view_url":1,"soilmap_view_url":null,"soiltest_xml_url":0,"soiltest_view_url":0},{"id":695856,"code":"NGIC202304567-0007","latitude":"42.587558861111","longitude":"142.92409058333","source_code":"","project_name":"\u5927\u898f\u6a21\u69cb\u9020\u7269\u5730\u8cea\u8abf\u67fb\u696d\u52d9","survey_name":"\u5927\u898f\u6a21\u69cb\u9020\u7269\u5730\u8cea\u8abf\u67fb\u696d\u52d9","client_name":"\u56fd\u571f\u4ea4\u901a\u7701\u5317\u6d77\u9053\u958b\u767a\u5c40\u5e2f\u5e83\u958b\u767a\u5efa\u8a2d\u90e8\u5e2f\u5e83\u6cb3\u5ddd\u4e8b\u52d9\u6240","boring_xml_url":47,"boring_view_url":1,"soilmap_view_url":null,"soiltest_xml_url":0,"soiltest_view_url":0},{"id":695855,"code":"NGIC202304567-0006","latitude":"42.588048666667","longitude":"142.92395388889","source_code":"","project_name":"\u5927\u898f\u6a21\u69cb\u9020\u7269\u5730\u8cea\u8abf\u67fb\u696d\u52d9","survey_name":"\u5927\u898f\u6a21\u69cb\u9020\u7269\u5730\u8cea\u8abf\u67fb\u696d\u52d9","client_name":"\u56fd\u571f\u4ea4\u901a\u7701\u5317\u6d77\u9053\u958b\u767a\u5c40\u5e2f\u5e83\u958b\u767a\u5efa\u8a2d\u90e8\u5e2f\u5e83\u6cb3\u5ddd\u4e8b\u52d9\u6240","boring_xml_url":47,"boring_view_url":1,"soilmap_view_url":null,"soiltest_xml_url":0,"soiltest_view_url":0},{"id":695854,"code":"NGIC202304567-0005","latitude":"42.588302777778","longitude":"142.92393","source_code":"","project_name":"\u5927\u898f\u6a21\u69cb\u9020\u7269\u5730\u8cea\u8abf\u67fb\u696d\u52d9","survey_name":"\u5927\u898f\u6a21\u69cb\u9020\u7269\u5730\u8cea\u8abf\u67fb\u696d\u52d9","client_name":"\u56fd\u571f\u4ea4\u901a\u7701\u5317\u6d77\u9053\u958b\u767a\u5c40\u5e2f\u5e83\u958b\u767a\u5efa\u8a2d\u90e8\u5e2f\u5e83\u6cb3\u5ddd\u4e8b\u52d9\u6240","boring_xml_url":47,"boring_view_url":1,"soilmap_view_url":null,"soiltest_xml_url":0,"soiltest_view_url":0},{"id":695853,"code":"NGIC202304567-0004","latitude":"42.587245583333","longitude":"142.92452791667","source_code":"","project_name":"\u5927\u898f\u6a21\u69cb\u9020\u7269\u5730\u8cea\u8abf\u67fb\u696d\u52d9","survey_name":"\u5927\u898f\u6a21\u69cb\u9020\u7269\u5730\u8cea\u8abf\u67fb\u696d\u52d9","client_name":"\u56fd\u571f\u4ea4\u901a\u7701\u5317\u6d77\u9053\u958b\u767a\u5c40\u5e2f\u5e83\u958b\u767a\u5efa\u8a2d\u90e8\u5e2f\u5e83\u6cb3\u5ddd\u4e8b\u52d9\u6240","boring_xml_url":47,"boring_view_url":1,"soilmap_view_url":null,"soiltest_xml_url":0,"soiltest_view_url":0},{"id":695852,"code":"NGIC202304567-0003","latitude":"42.58847925","longitude":"142.92370283333","source_code":"","project_name":"\u5927\u898f\u6a21\u69cb\u9020\u7269\u5730\u8cea\u8abf\u67fb\u696d\u52d9","survey_name":"\u5927\u898f\u6a21\u69cb\u9020\u7269\u5730\u8cea\u8abf\u67fb\u696d\u52d9","client_name":"\u56fd\u571f\u4ea4\u901a\u7701\u5317\u6d77\u9053\u958b\u767a\u5c40\u5e2f\u5e83\u958b\u767a\u5efa\u8a2d\u90e8\u5e2f\u5e83\u6cb3\u5ddd\u4e8b\u52d9\u6240","boring_xml_url":47,"boring_view_url":1,"soilmap_view_url":null,"soiltest_xml_url":0,"soiltest_view_url":0},{"id":695851,"code":"NGIC202304567-0002","latitude":"42.588485694444","longitude":"142.92370344444","source_code":"","project_name":"\u5927\u898f\u6a21\u69cb\u9020\u7269\u5730\u8cea\u8abf\u67fb\u696d\u52d9","survey_name":"\u5927\u898f\u6a21\u69cb\u9020\u7269\u5730\u8cea\u8abf\u67fb\u696d\u52d9","client_name":"\u56fd\u571f\u4ea4\u901a\u7701\u5317\u6d77\u9053\u958b\u767a\u5c40\u5e2f\u5e83\u958b\u767a\u5efa\u8a2d\u90e8\u5e2f\u5e83\u6cb3\u5ddd\u4e8b\u52d9\u6240","boring_xml_url":47,"boring_view_url":1,"soilmap_view_url":null,"soiltest_xml_url":0,"soiltest_view_url":0},{"id":695850,"code":"NGIC202304567-0001","latitude":"42.588492138889","longitude":"142.92371188889","source_code":"","project_name":"\u5927\u898f\u6a21\u69cb\u9020\u7269\u5730\u8cea\u8abf\u67fb\u696d\u52d9","survey_name":"\u5927\u898f\u6a21\u69cb\u9020\u7269\u5730\u8cea\u8abf\u67fb\u696d\u52d9","client_name":"\u56fd\u571f\u4ea4\u901a\u7701\u5317\u6d77\u9053\u958b\u767a\u5c40\u5e2f\u5e83\u958b\u767a\u5efa\u8a2d\u90e8\u5e2f\u5e83\u6cb3\u5ddd\u4e8b\u52d9\u6240","boring_xml_url":47,"boring_view_url":1,"soilmap_view_url":null,"soiltest_xml_url":0,"soiltest_view_url":0},{"id":695849,"code":"NGIC202304563-0001","latitude":"36.97375","longitude":"138.80019444444","source_code":"","project_name":"R5\u9577\u5ca1\u56fd\u9053\u7ba1\u5185\u5730\u8cea\u8abf\u67fb\u696d\u52d9","survey_name":"\u7ba1\u4e8c\u7b2c4\u53f7\u95a2\u5c71\u30b9\u30ce\u30fc\u30b7\u30a7\u30c3\u30c9\u9632\u96ea\u65bd\u8a2d\u5730\u8cea\u8abf\u67fb","client_name":"\u56fd\u571f\u4ea4\u901a\u7701\u5317\u9678\u5730\u65b9\u6574\u5099\u5c40\u9577\u5ca1\u56fd\u9053\u4e8b\u52d9\u6240","boring_xml_url":47,"boring_view_url":1,"soilmap_view_url":null,"soiltest_xml_url":0,"soiltest_view_url":0},{"id":695781,"code":"NGIC202304422-0002","latitude":"34.011883333333","longitude":"131.00016666667","source_code":"","project_name":"","survey_name":"\u4ee4\u548c5\u5e74\u5ea6\u4e0b\u95a2\u6e2f\u6e7e\u4e8b\u52d9\u6240\u7ba1\u5185\u6d77\u5cb8\u65bd\u8a2d\u5b9f\u65bd\u8a2d\u8a08\u5916\u696d\u52d9","client_name":"\u56fd\u571f\u4ea4\u901a\u7701\u4e5d\u5dde\u5730\u65b9\u6574\u5099\u5c40\u4e0b\u95a2\u6e2f\u6e7e\u4e8b\u52d9\u6240","boring_xml_url":47,"boring_view_url":1,"soilmap_view_url":null,"soiltest_xml_url":0,"soiltest_view_url":0},{"id":695780,"code":"NGIC202304422-0001","latitude":"34.010705555556","longitude":"130.99926388889","source_code":"","project_name":"","survey_name":"\u4ee4\u548c5\u5e74\u5ea6\u4e0b\u95a2\u6e2f\u6e7e\u4e8b\u52d9\u6240\u7ba1\u5185\u6d77\u5cb8\u65bd\u8a2d\u5b9f\u65bd\u8a2d\u8a08\u5916\u696d\u52d9","client_name":"\u56fd\u571f\u4ea4\u901a\u7701\u4e5d\u5dde\u5730\u65b9\u6574\u5099\u5c40\u4e0b\u95a2\u6e2f\u6e7e\u4e8b\u52d9\u6240","boring_xml_url":47,"boring_view_url":1,"soilmap_view_url":null,"soiltest_xml_url":0,"soiltest_view_url":0},{"id":695776,"code":"NGIC202304469-0021","latitude":"35.476096305556","longitude":"137.26756769444","source_code":"","project_name":"","survey_name":"\u4ee4\u548c5\u5e74\u5ea6\u65b0\u4e38\u5c71\u30c0\u30e0\u8caf\u6c34\u6c60\u5730\u8cea\u8abf\u67fb\u696d\u52d9","client_name":"\u56fd\u571f\u4ea4\u901a\u7701\u4e2d\u90e8\u5730\u65b9\u6574\u5099\u5c40\u65b0\u4e38\u5c71\u30c0\u30e0\u5de5\u4e8b\u4e8b\u52d9\u6240","boring_xml_url":47,"boring_view_url":1,"soilmap_view_url":null,"soiltest_xml_url":0,"soiltest_view_url":0},{"id":695775,"code":"NGIC202304469-0020","latitude":"35.475740222222","longitude":"137.26632136111","source_code":"","project_name":"","survey_name":"\u4ee4\u548c5\u5e74\u5ea6\u65b0\u4e38\u5c71\u30c0\u30e0\u8caf\u6c34\u6c60\u5730\u8cea\u8abf\u67fb\u696d\u52d9","client_name":"\u56fd\u571f\u4ea4\u901a\u7701\u4e2d\u90e8\u5730\u65b9\u6574\u5099\u5c40\u65b0\u4e38\u5c71\u30c0\u30e0\u5de5\u4e8b\u4e8b\u52d9\u6240","boring_xml_url":47,"boring_view_url":1,"soilmap_view_url":null,"soiltest_xml_url":0,"soiltest_view_url":0},{"id":695774,"code":"NGIC202304469-0019","latitude":"35.465392611111","longitude":"137.24188655556","source_code":"","project_name":"","survey_name":"\u4ee4\u548c5\u5e74\u5ea6\u65b0\u4e38\u5c71\u30c0\u30e0\u8caf\u6c34\u6c60\u5730\u8cea\u8abf\u67fb\u696d\u52d9","client_name":"\u56fd\u571f\u4ea4\u901a\u7701\u4e2d\u90e8\u5730\u65b9\u6574\u5099\u5c40\u65b0\u4e38\u5c71\u30c0\u30e0\u5de5\u4e8b\u4e8b\u52d9\u6240","boring_xml_url":47,"boring_view_url":1,"soilmap_view_url":null,"soiltest_xml_url":0,"soiltest_view_url":0},{"id":695773,"code":"NGIC202304469-0018","latitude":"35.464409111111","longitude":"137.24017466667","source_code":"","project_name":"","survey_name":"\u4ee4\u548c5\u5e74\u5ea6\u65b0\u4e38\u5c71\u30c0\u30e0\u8caf\u6c34\u6c60\u5730\u8cea\u8abf\u67fb\u696d\u52d9","client_name":"\u56fd\u571f\u4ea4\u901a\u7701\u4e2d\u90e8\u5730\u65b9\u6574\u5099\u5c40\u65b0\u4e38\u5c71\u30c0\u30e0\u5de5\u4e8b\u4e8b\u52d9\u6240","boring_xml_url":47,"boring_view_url":1,"soilmap_view_url":null,"soiltest_xml_url":0,"soiltest_view_url":0},{"id":695772,"code":"NGIC202304469-0017","latitude":"35.463001083333","longitude":"137.23833630556","source_code":"","project_name":"","survey_name":"\u4ee4\u548c5\u5e74\u5ea6\u65b0\u4e38\u5c71\u30c0\u30e0\u8caf\u6c34\u6c60\u5730\u8cea\u8abf\u67fb\u696d\u52d9","client_name":"\u56fd\u571f\u4ea4\u901a\u7701\u4e2d\u90e8\u5730\u65b9\u6574\u5099\u5c40\u65b0\u4e38\u5c71\u30c0\u30e0\u5de5\u4e8b\u4e8b\u52d9\u6240","boring_xml_url":47,"boring_view_url":1,"soilmap_view_url":null,"soiltest_xml_url":0,"soiltest_view_url":0},{"id":695771,"code":"NGIC202304469-0016","latitude":"35.462973166667","longitude":"137.23874405556","source_code":"","project_name":"","survey_name":"\u4ee4\u548c5\u5e74\u5ea6\u65b0\u4e38\u5c71\u30c0\u30e0\u8caf\u6c34\u6c60\u5730\u8cea\u8abf\u67fb\u696d\u52d9","client_name":"\u56fd\u571f\u4ea4\u901a\u7701\u4e2d\u90e8\u5730\u65b9\u6574\u5099\u5c40\u65b0\u4e38\u5c71\u30c0\u30e0\u5de5\u4e8b\u4e8b\u52d9\u6240","boring_xml_url":47,"boring_view_url":1,"soilmap_view_url":null,"soiltest_xml_url":0,"soiltest_view_url":0},{"id":695770,"code":"NGIC202304469-0015","latitude":"35.463075361111","longitude":"137.23995422222","source_code":"","project_name":"","survey_name":"\u4ee4\u548c5\u5e74\u5ea6\u65b0\u4e38\u5c71\u30c0\u30e0\u8caf\u6c34\u6c60\u5730\u8cea\u8abf\u67fb\u696d\u52d9","client_name":"\u56fd\u571f\u4ea4\u901a\u7701\u4e2d\u90e8\u5730\u65b9\u6574\u5099\u5c40\u65b0\u4e38\u5c71\u30c0\u30e0\u5de5\u4e8b\u4e8b\u52d9\u6240","boring_xml_url":47,"boring_view_url":1,"soilmap_view_url":null,"soiltest_xml_url":0,"soiltest_view_url":0}]}}