{"header":{"xyz":{"source":[],"mosaic":false},"page":775,"raw":{"soiltest_result":"0","bbox":"57.598333,109.544722,1.933333,163.806111","page":"775"},"conditions":{"soiltest_result":0,"north":57.598333,"west":109.544722,"south":1.933333,"east":163.806111},"success":true,"message":""},"data":{"meta":{"total":212844,"page":775,"pages":7095,"count":30},"values":[{"id":522168,"code":"B4KJ202201002-4704","latitude":"34.330278","longitude":"132.646333","source_code":"CG048755620200330002","project_name":"\u6771\u5e83\u5cf6\u30fb\u5449\u9053\u8def\u5916\u5730\u8cea\u8abf\u67fb\u696d\u52d9","survey_name":"\u6771\u5e83\u5cf6\u30fb\u5449\u9053\u8def\u5916\u5730\u8cea\u8abf\u67fb\u696d\u52d9","client_name":"\u56fd\u571f\u4ea4\u901a\u7701\u3000\u4e2d\u56fd\u5730\u65b9\u6574\u5099\u5c40\u3000\u5e83\u5cf6\u56fd\u9053\u4e8b\u52d9\u6240","boring_xml_url":68,"boring_view_url":1,"soilmap_view_url":null,"soiltest_xml_url":0,"soiltest_view_url":0},{"id":522167,"code":"B4KJ202201002-4703","latitude":"34.330667","longitude":"132.646028","source_code":"CG048755620200330001","project_name":"\u6771\u5e83\u5cf6\u30fb\u5449\u9053\u8def\u5916\u5730\u8cea\u8abf\u67fb\u696d\u52d9","survey_name":"\u6771\u5e83\u5cf6\u30fb\u5449\u9053\u8def\u5916\u5730\u8cea\u8abf\u67fb\u696d\u52d9","client_name":"\u56fd\u571f\u4ea4\u901a\u7701\u3000\u4e2d\u56fd\u5730\u65b9\u6574\u5099\u5c40\u3000\u5e83\u5cf6\u56fd\u9053\u4e8b\u52d9\u6240","boring_xml_url":68,"boring_view_url":1,"soilmap_view_url":null,"soiltest_xml_url":0,"soiltest_view_url":0},{"id":522166,"code":"B4KJ202201002-4702","latitude":"34.339333","longitude":"132.518444","source_code":"CG048755550200060016","project_name":"\u56fd\u90532\u53f7\u5730\u8cea\u8abf\u67fb\u696d\u52d9","survey_name":"\u56fd\u90532\u53f7\u5730\u8cea\u8abf\u67fb\u696d\u52d9","client_name":"\"\u56fd\u571f\u4ea4\u901a\u7701 \u4e2d\u56fd\u5730\u65b9\u6574\u5099\u5c40 \u5e83\u5cf6\u56fd\u9053\u4e8b\u52d9\u6240\"","boring_xml_url":68,"boring_view_url":1,"soilmap_view_url":null,"soiltest_xml_url":0,"soiltest_view_url":0},{"id":522165,"code":"B4KJ202201002-4701","latitude":"34.388583","longitude":"132.568389","source_code":"CG048755550200060014","project_name":"\u56fd\u90532\u53f7\u5730\u8cea\u8abf\u67fb\u696d\u52d9","survey_name":"\u56fd\u90532\u53f7\u5730\u8cea\u8abf\u67fb\u696d\u52d9","client_name":"\"\u56fd\u571f\u4ea4\u901a\u7701 \u4e2d\u56fd\u5730\u65b9\u6574\u5099\u5c40 \u5e83\u5cf6\u56fd\u9053\u4e8b\u52d9\u6240\"","boring_xml_url":68,"boring_view_url":1,"soilmap_view_url":null,"soiltest_xml_url":0,"soiltest_view_url":0},{"id":522164,"code":"B4KJ202201002-4700","latitude":"34.388667","longitude":"132.568528","source_code":"CG048755550200060013","project_name":"\u56fd\u90532\u53f7\u5730\u8cea\u8abf\u67fb\u696d\u52d9","survey_name":"\u56fd\u90532\u53f7\u5730\u8cea\u8abf\u67fb\u696d\u52d9","client_name":"\"\u56fd\u571f\u4ea4\u901a\u7701 \u4e2d\u56fd\u5730\u65b9\u6574\u5099\u5c40 \u5e83\u5cf6\u56fd\u9053\u4e8b\u52d9\u6240\"","boring_xml_url":68,"boring_view_url":1,"soilmap_view_url":null,"soiltest_xml_url":0,"soiltest_view_url":0},{"id":522163,"code":"B4KJ202201002-4699","latitude":"34.388806","longitude":"132.568306","source_code":"CG048755550200060012","project_name":"\u56fd\u90532\u53f7\u5730\u8cea\u8abf\u67fb\u696d\u52d9","survey_name":"\u56fd\u90532\u53f7\u5730\u8cea\u8abf\u67fb\u696d\u52d9","client_name":"\"\u56fd\u571f\u4ea4\u901a\u7701 \u4e2d\u56fd\u5730\u65b9\u6574\u5099\u5c40 \u5e83\u5cf6\u56fd\u9053\u4e8b\u52d9\u6240\"","boring_xml_url":68,"boring_view_url":1,"soilmap_view_url":null,"soiltest_xml_url":0,"soiltest_view_url":0},{"id":522162,"code":"B4KJ202201002-4698","latitude":"34.388917","longitude":"132.568417","source_code":"CG048755550200060011","project_name":"\u56fd\u90532\u53f7\u5730\u8cea\u8abf\u67fb\u696d\u52d9","survey_name":"\u56fd\u90532\u53f7\u5730\u8cea\u8abf\u67fb\u696d\u52d9","client_name":"\"\u56fd\u571f\u4ea4\u901a\u7701 \u4e2d\u56fd\u5730\u65b9\u6574\u5099\u5c40 \u5e83\u5cf6\u56fd\u9053\u4e8b\u52d9\u6240\"","boring_xml_url":68,"boring_view_url":1,"soilmap_view_url":null,"soiltest_xml_url":0,"soiltest_view_url":0},{"id":522161,"code":"B4KJ202201002-4697","latitude":"34.43175","longitude":"132.637806","source_code":"CG048755550200060010","project_name":"\u56fd\u90532\u53f7\u5730\u8cea\u8abf\u67fb\u696d\u52d9","survey_name":"\u56fd\u90532\u53f7\u5730\u8cea\u8abf\u67fb\u696d\u52d9","client_name":"\"\u56fd\u571f\u4ea4\u901a\u7701 \u4e2d\u56fd\u5730\u65b9\u6574\u5099\u5c40 \u5e83\u5cf6\u56fd\u9053\u4e8b\u52d9\u6240\"","boring_xml_url":68,"boring_view_url":1,"soilmap_view_url":null,"soiltest_xml_url":0,"soiltest_view_url":0},{"id":522160,"code":"B4KJ202201002-4696","latitude":"34.431611","longitude":"132.639389","source_code":"CG048755550200060009","project_name":"\u56fd\u90532\u53f7\u5730\u8cea\u8abf\u67fb\u696d\u52d9","survey_name":"\u56fd\u90532\u53f7\u5730\u8cea\u8abf\u67fb\u696d\u52d9","client_name":"\"\u56fd\u571f\u4ea4\u901a\u7701 \u4e2d\u56fd\u5730\u65b9\u6574\u5099\u5c40 \u5e83\u5cf6\u56fd\u9053\u4e8b\u52d9\u6240\"","boring_xml_url":68,"boring_view_url":1,"soilmap_view_url":null,"soiltest_xml_url":0,"soiltest_view_url":0},{"id":522159,"code":"B4KJ202201002-4695","latitude":"34.431722","longitude":"132.640083","source_code":"CG048755550200060008","project_name":"\u56fd\u90532\u53f7\u5730\u8cea\u8abf\u67fb\u696d\u52d9","survey_name":"\u56fd\u90532\u53f7\u5730\u8cea\u8abf\u67fb\u696d\u52d9","client_name":"\"\u56fd\u571f\u4ea4\u901a\u7701 \u4e2d\u56fd\u5730\u65b9\u6574\u5099\u5c40 \u5e83\u5cf6\u56fd\u9053\u4e8b\u52d9\u6240\"","boring_xml_url":68,"boring_view_url":1,"soilmap_view_url":null,"soiltest_xml_url":0,"soiltest_view_url":0},{"id":522158,"code":"B4KJ202201002-4694","latitude":"34.433056","longitude":"132.641667","source_code":"CG048755550200060007","project_name":"\u56fd\u90532\u53f7\u5730\u8cea\u8abf\u67fb\u696d\u52d9","survey_name":"\u56fd\u90532\u53f7\u5730\u8cea\u8abf\u67fb\u696d\u52d9","client_name":"\"\u56fd\u571f\u4ea4\u901a\u7701 \u4e2d\u56fd\u5730\u65b9\u6574\u5099\u5c40 \u5e83\u5cf6\u56fd\u9053\u4e8b\u52d9\u6240\"","boring_xml_url":68,"boring_view_url":1,"soilmap_view_url":null,"soiltest_xml_url":0,"soiltest_view_url":0},{"id":522157,"code":"B4KJ202201002-4693","latitude":"34.433222","longitude":"132.643139","source_code":"CG048755550200060006","project_name":"\u56fd\u90532\u53f7\u5730\u8cea\u8abf\u67fb\u696d\u52d9","survey_name":"\u56fd\u90532\u53f7\u5730\u8cea\u8abf\u67fb\u696d\u52d9","client_name":"\"\u56fd\u571f\u4ea4\u901a\u7701 \u4e2d\u56fd\u5730\u65b9\u6574\u5099\u5c40 \u5e83\u5cf6\u56fd\u9053\u4e8b\u52d9\u6240\"","boring_xml_url":68,"boring_view_url":1,"soilmap_view_url":null,"soiltest_xml_url":0,"soiltest_view_url":0},{"id":522156,"code":"B4KJ202201002-4692","latitude":"34.431278","longitude":"132.645194","source_code":"CG048755550200060004","project_name":"\u56fd\u90532\u53f7\u5730\u8cea\u8abf\u67fb\u696d\u52d9","survey_name":"\u56fd\u90532\u53f7\u5730\u8cea\u8abf\u67fb\u696d\u52d9","client_name":"\"\u56fd\u571f\u4ea4\u901a\u7701 \u4e2d\u56fd\u5730\u65b9\u6574\u5099\u5c40 \u5e83\u5cf6\u56fd\u9053\u4e8b\u52d9\u6240\"","boring_xml_url":68,"boring_view_url":1,"soilmap_view_url":null,"soiltest_xml_url":0,"soiltest_view_url":0},{"id":522155,"code":"B4KJ202201002-4691","latitude":"34.430944","longitude":"132.646417","source_code":"CG048755550200060003","project_name":"\u56fd\u90532\u53f7\u5730\u8cea\u8abf\u67fb\u696d\u52d9","survey_name":"\u56fd\u90532\u53f7\u5730\u8cea\u8abf\u67fb\u696d\u52d9","client_name":"\"\u56fd\u571f\u4ea4\u901a\u7701 \u4e2d\u56fd\u5730\u65b9\u6574\u5099\u5c40 \u5e83\u5cf6\u56fd\u9053\u4e8b\u52d9\u6240\"","boring_xml_url":68,"boring_view_url":1,"soilmap_view_url":null,"soiltest_xml_url":0,"soiltest_view_url":0},{"id":522154,"code":"B4KJ202201002-4690","latitude":"34.430972","longitude":"132.647528","source_code":"CG048755550200060002","project_name":"\u56fd\u90532\u53f7\u5730\u8cea\u8abf\u67fb\u696d\u52d9","survey_name":"\u56fd\u90532\u53f7\u5730\u8cea\u8abf\u67fb\u696d\u52d9","client_name":"\"\u56fd\u571f\u4ea4\u901a\u7701 \u4e2d\u56fd\u5730\u65b9\u6574\u5099\u5c40 \u5e83\u5cf6\u56fd\u9053\u4e8b\u52d9\u6240\"","boring_xml_url":68,"boring_view_url":1,"soilmap_view_url":null,"soiltest_xml_url":0,"soiltest_view_url":0},{"id":522153,"code":"B4KJ202201002-4689","latitude":"34.431528","longitude":"132.648389","source_code":"CG048755550200060001","project_name":"\u56fd\u90532\u53f7\u5730\u8cea\u8abf\u67fb\u696d\u52d9","survey_name":"\u56fd\u90532\u53f7\u5730\u8cea\u8abf\u67fb\u696d\u52d9","client_name":"\"\u56fd\u571f\u4ea4\u901a\u7701 \u4e2d\u56fd\u5730\u65b9\u6574\u5099\u5c40 \u5e83\u5cf6\u56fd\u9053\u4e8b\u52d9\u6240\"","boring_xml_url":68,"boring_view_url":1,"soilmap_view_url":null,"soiltest_xml_url":0,"soiltest_view_url":0},{"id":522152,"code":"B4KJ202201002-4688","latitude":"34.249119","longitude":"132.225026","source_code":"CG038755510200170002","project_name":"\u7ba1\u5185\u9632\u707d\u6e2c\u91cf\u8a2d\u8a08\u696d\u52d9","survey_name":"\u7ba1\u5185\u9632\u707d\u6e2c\u91cf\u8a2d\u8a08\u696d\u52d9","client_name":"\u56fd\u571f\u4ea4\u901a\u7701\u4e2d\u56fd\u5730\u65b9\u6574\u5099\u5c40\u5e83\u5cf6\u56fd\u9053\u4e8b\u52d9\u6240","boring_xml_url":68,"boring_view_url":1,"soilmap_view_url":null,"soiltest_xml_url":0,"soiltest_view_url":0},{"id":522151,"code":"B4KJ202201002-4687","latitude":"34.765411","longitude":"132.988981","source_code":"CG048754600200240004","project_name":"","survey_name":"\u7070\u585a\u30c0\u30e0\u978d\u90e8\u5730\u8cea\u8abf\u67fb\u696d\u52d9","client_name":"\u56fd\u571f\u4ea4\u901a\u7701\u4e2d\u56fd\u5730\u65b9\u6574\u5099\u5c40\u6c5f\u306e\u5ddd\u7dcf\u5408\u958b\u767a\u5de5\u4e8b\u4e8b\u52d9\u6240","boring_xml_url":68,"boring_view_url":1,"soilmap_view_url":null,"soiltest_xml_url":0,"soiltest_view_url":0},{"id":522150,"code":"B4KJ202201002-4686","latitude":"34.778203","longitude":"132.972814","source_code":"CG048754600200240003","project_name":"","survey_name":"\u7070\u585a\u30c0\u30e0\u978d\u90e8\u5730\u8cea\u8abf\u67fb\u696d\u52d9","client_name":"\u56fd\u571f\u4ea4\u901a\u7701\u4e2d\u56fd\u5730\u65b9\u6574\u5099\u5c40\u6c5f\u306e\u5ddd\u7dcf\u5408\u958b\u767a\u5de5\u4e8b\u4e8b\u52d9\u6240","boring_xml_url":68,"boring_view_url":1,"soilmap_view_url":null,"soiltest_xml_url":0,"soiltest_view_url":0},{"id":522149,"code":"B4KJ202201002-4685","latitude":"34.765961","longitude":"132.988206","source_code":"CG048754600200240002","project_name":"","survey_name":"\u7070\u585a\u30c0\u30e0\u978d\u90e8\u5730\u8cea\u8abf\u67fb\u696d\u52d9","client_name":"\u56fd\u571f\u4ea4\u901a\u7701\u4e2d\u56fd\u5730\u65b9\u6574\u5099\u5c40\u6c5f\u306e\u5ddd\u7dcf\u5408\u958b\u767a\u5de5\u4e8b\u4e8b\u52d9\u6240","boring_xml_url":68,"boring_view_url":1,"soilmap_view_url":null,"soiltest_xml_url":0,"soiltest_view_url":0},{"id":522148,"code":"B4KJ202201002-4684","latitude":"34.778203","longitude":"132.972814","source_code":"CG048754600200240001","project_name":"","survey_name":"\u7070\u585a\u30c0\u30e0\u978d\u90e8\u5730\u8cea\u8abf\u67fb\u696d\u52d9","client_name":"\u56fd\u571f\u4ea4\u901a\u7701\u4e2d\u56fd\u5730\u65b9\u6574\u5099\u5c40\u6c5f\u306e\u5ddd\u7dcf\u5408\u958b\u767a\u5de5\u4e8b\u4e8b\u52d9\u6240","boring_xml_url":68,"boring_view_url":1,"soilmap_view_url":null,"soiltest_xml_url":0,"soiltest_view_url":0},{"id":522147,"code":"B4KJ202201002-4683","latitude":"34.762361","longitude":"133.023167","source_code":"CG048754600200200003","project_name":"\"\u5e73\u621016\u5e74\u5ea6 \u7070\u585a\u30c0\u30e0\u8caf\u6c34\u6c60\u5185\u659c\u9762\u89b3\u6e2c\u5b54\u8a2d\u7f6e\u5916\u696d\u52d9\"","survey_name":"\"\u5e73\u621016\u5e74\u5ea6 \u7070\u585a\u30c0\u30e0\u8caf\u6c34\u6c60\u5185\u659c\u9762\u89b3\u6e2c\u5b54\u8a2d\u7f6e\u5916\u696d\u52d9\"","client_name":"\u56fd\u571f\u4ea4\u901a\u7701\u4e2d\u56fd\u5730\u65b9\u6574\u5099\u5c40\u3000\u6c5f\u306e\u5ddd\u7dcf\u5408\u958b\u767a\u5de5\u4e8b\u4e8b\u52d9\u6240","boring_xml_url":68,"boring_view_url":1,"soilmap_view_url":null,"soiltest_xml_url":0,"soiltest_view_url":0},{"id":522146,"code":"B4KJ202201002-4682","latitude":"34.761472","longitude":"133.027111","source_code":"CG048754600200200002","project_name":"\"\u5e73\u621016\u5e74\u5ea6 \u7070\u585a\u30c0\u30e0\u8caf\u6c34\u6c60\u5185\u659c\u9762\u89b3\u6e2c\u5b54\u8a2d\u7f6e\u5916\u696d\u52d9\"","survey_name":"\"\u5e73\u621016\u5e74\u5ea6 \u7070\u585a\u30c0\u30e0\u8caf\u6c34\u6c60\u5185\u659c\u9762\u89b3\u6e2c\u5b54\u8a2d\u7f6e\u5916\u696d\u52d9\"","client_name":"\u56fd\u571f\u4ea4\u901a\u7701\u4e2d\u56fd\u5730\u65b9\u6574\u5099\u5c40\u3000\u6c5f\u306e\u5ddd\u7dcf\u5408\u958b\u767a\u5de5\u4e8b\u4e8b\u52d9\u6240","boring_xml_url":68,"boring_view_url":1,"soilmap_view_url":null,"soiltest_xml_url":0,"soiltest_view_url":0},{"id":522145,"code":"B4KJ202201002-4681","latitude":"34.761472","longitude":"133.027111","source_code":"CG048754600200200001","project_name":"\"\u5e73\u621016\u5e74\u5ea6 \u7070\u585a\u30c0\u30e0\u8caf\u6c34\u6c60\u5185\u659c\u9762\u89b3\u6e2c\u5b54\u8a2d\u7f6e\u5916\u696d\u52d9\"","survey_name":"\"\u5e73\u621016\u5e74\u5ea6 \u7070\u585a\u30c0\u30e0\u8caf\u6c34\u6c60\u5185\u659c\u9762\u89b3\u6e2c\u5b54\u8a2d\u7f6e\u5916\u696d\u52d9\"","client_name":"\u56fd\u571f\u4ea4\u901a\u7701\u4e2d\u56fd\u5730\u65b9\u6574\u5099\u5c40\u3000\u6c5f\u306e\u5ddd\u7dcf\u5408\u958b\u767a\u5de5\u4e8b\u4e8b\u52d9\u6240","boring_xml_url":68,"boring_view_url":1,"soilmap_view_url":null,"soiltest_xml_url":0,"soiltest_view_url":0},{"id":522144,"code":"B4KJ202201002-4680","latitude":"34.561922","longitude":"132.545052","source_code":"CG048752600200020014","project_name":"","survey_name":"\u53ef\u90e8\u30d0\u30a4\u30d1\u30b9\u4e95\u6238\u8abf\u67fb\u696d\u52d9","client_name":"\u56fd\u571f\u4ea4\u901a\u7701\u4e2d\u56fd\u5730\u65b9\u6574\u5099\u5c40\u4e09\u6b21\u6cb3\u5ddd\u56fd\u9053\u4e8b\u52d9\u6240","boring_xml_url":68,"boring_view_url":1,"soilmap_view_url":null,"soiltest_xml_url":0,"soiltest_view_url":0},{"id":522143,"code":"B4KJ202201002-4679","latitude":"34.560672","longitude":"132.543747","source_code":"CG048752600200020013","project_name":"","survey_name":"\u53ef\u90e8\u30d0\u30a4\u30d1\u30b9\u4e95\u6238\u8abf\u67fb\u696d\u52d9","client_name":"\u56fd\u571f\u4ea4\u901a\u7701\u4e2d\u56fd\u5730\u65b9\u6574\u5099\u5c40\u4e09\u6b21\u6cb3\u5ddd\u56fd\u9053\u4e8b\u52d9\u6240","boring_xml_url":68,"boring_view_url":1,"soilmap_view_url":null,"soiltest_xml_url":0,"soiltest_view_url":0},{"id":522142,"code":"B4KJ202201002-4678","latitude":"34.554811","longitude":"132.538691","source_code":"CG048752600200020012","project_name":"","survey_name":"\u53ef\u90e8\u30d0\u30a4\u30d1\u30b9\u4e95\u6238\u8abf\u67fb\u696d\u52d9","client_name":"\u56fd\u571f\u4ea4\u901a\u7701\u4e2d\u56fd\u5730\u65b9\u6574\u5099\u5c40\u4e09\u6b21\u6cb3\u5ddd\u56fd\u9053\u4e8b\u52d9\u6240","boring_xml_url":68,"boring_view_url":1,"soilmap_view_url":null,"soiltest_xml_url":0,"soiltest_view_url":0},{"id":522141,"code":"B4KJ202201002-4677","latitude":"34.556172","longitude":"132.538608","source_code":"CG048752600200020011","project_name":"","survey_name":"\u53ef\u90e8\u30d0\u30a4\u30d1\u30b9\u4e95\u6238\u8abf\u67fb\u696d\u52d9","client_name":"\u56fd\u571f\u4ea4\u901a\u7701\u4e2d\u56fd\u5730\u65b9\u6574\u5099\u5c40\u4e09\u6b21\u6cb3\u5ddd\u56fd\u9053\u4e8b\u52d9\u6240","boring_xml_url":68,"boring_view_url":1,"soilmap_view_url":null,"soiltest_xml_url":0,"soiltest_view_url":0},{"id":522140,"code":"B4KJ202201002-4676","latitude":"34.555006","longitude":"132.537441","source_code":"CG048752600200020010","project_name":"","survey_name":"\u53ef\u90e8\u30d0\u30a4\u30d1\u30b9\u4e95\u6238\u8abf\u67fb\u696d\u52d9","client_name":"\u56fd\u571f\u4ea4\u901a\u7701\u4e2d\u56fd\u5730\u65b9\u6574\u5099\u5c40\u4e09\u6b21\u6cb3\u5ddd\u56fd\u9053\u4e8b\u52d9\u6240","boring_xml_url":68,"boring_view_url":1,"soilmap_view_url":null,"soiltest_xml_url":0,"soiltest_view_url":0},{"id":522139,"code":"B4KJ202201002-4675","latitude":"34.554145","longitude":"132.535219","source_code":"CG048752600200020009","project_name":"","survey_name":"\u53ef\u90e8\u30d0\u30a4\u30d1\u30b9\u4e95\u6238\u8abf\u67fb\u696d\u52d9","client_name":"\u56fd\u571f\u4ea4\u901a\u7701\u4e2d\u56fd\u5730\u65b9\u6574\u5099\u5c40\u4e09\u6b21\u6cb3\u5ddd\u56fd\u9053\u4e8b\u52d9\u6240","boring_xml_url":68,"boring_view_url":1,"soilmap_view_url":null,"soiltest_xml_url":0,"soiltest_view_url":0}]}}