{"header":{"xyz":{"source":[],"mosaic":false},"page":780,"raw":{"soiltest_result":"0","bbox":"57.598333,109.544722,1.933333,163.806111","page":"780"},"conditions":{"soiltest_result":0,"north":57.598333,"west":109.544722,"south":1.933333,"east":163.806111},"success":true,"message":""},"data":{"meta":{"total":212844,"page":780,"pages":7095,"count":30},"values":[{"id":522018,"code":"B4KJ202201002-4554","latitude":"35.318051","longitude":"133.83816","source_code":"CG048731400200090002","project_name":"\u5929\u795e\u5ddd\u4e0b\u7551\u7802\u9632\u5830\u5824\u5916\u5730\u8cea\u8abf\u67fb\u696d\u52d9","survey_name":"\u5929\u795e\u5ddd\u4e0b\u7551\u7802\u9632\u5830\u5824\u5916\u5730\u8cea\u8abf\u67fb\u696d\u52d9","client_name":"\u4e2d\u56fd\u5730\u65b9\u6574\u5099\u5c40\u3000\u5009\u5409\u6cb3\u5ddd\u56fd\u9053\u4e8b\u52d9\u6240\u3000\uff08\u5de5\u52d9\u7b2c\u4e00\u8ab2\uff09","boring_xml_url":68,"boring_view_url":1,"soilmap_view_url":null,"soiltest_xml_url":0,"soiltest_view_url":0},{"id":522017,"code":"B4KJ202201002-4553","latitude":"35.318106","longitude":"133.838715","source_code":"CG048731400200090001","project_name":"\u5929\u795e\u5ddd\u4e0b\u7551\u7802\u9632\u5830\u5824\u5916\u5730\u8cea\u8abf\u67fb\u696d\u52d9","survey_name":"\u5929\u795e\u5ddd\u4e0b\u7551\u7802\u9632\u5830\u5824\u5916\u5730\u8cea\u8abf\u67fb\u696d\u52d9","client_name":"\u4e2d\u56fd\u5730\u65b9\u6574\u5099\u5c40\u3000\u5009\u5409\u6cb3\u5ddd\u56fd\u9053\u4e8b\u52d9\u6240\u3000\uff08\u5de5\u52d9\u7b2c\u4e00\u8ab2\uff09","boring_xml_url":68,"boring_view_url":1,"soilmap_view_url":null,"soiltest_xml_url":0,"soiltest_view_url":0},{"id":522016,"code":"B4KJ202201002-4552","latitude":"35.458217","longitude":"134.350129","source_code":"CG038732400200050004","project_name":"\u6bbf\u30c0\u30e0\u53e4\u795e\u8b77\u5730\u533a\u5916\u5730\u8cea\u8abf\u67fb\u696d\u52d9","survey_name":"\u6bbf\u30c0\u30e0\u53e4\u795e\u8b77\u5730\u533a\u5916\u5730\u8cea\u8abf\u67fb\u696d\u52d9","client_name":"\u56fd\u571f\u4ea4\u901a\u7701\u3000\u4e2d\u56fd\u5730\u65b9\u6574\u5099\u5c40\u3000\u6bbf\u30c0\u30e0\u5de5\u4e8b\u4e8b\u52d9\u6240","boring_xml_url":68,"boring_view_url":1,"soilmap_view_url":null,"soiltest_xml_url":0,"soiltest_view_url":0},{"id":522015,"code":"B4KJ202201002-4551","latitude":"35.458367","longitude":"134.349729","source_code":"CG038732400200050003","project_name":"\u6bbf\u30c0\u30e0\u53e4\u795e\u8b77\u5730\u533a\u5916\u5730\u8cea\u8abf\u67fb\u696d\u52d9","survey_name":"\u6bbf\u30c0\u30e0\u53e4\u795e\u8b77\u5730\u533a\u5916\u5730\u8cea\u8abf\u67fb\u696d\u52d9","client_name":"\u56fd\u571f\u4ea4\u901a\u7701\u3000\u4e2d\u56fd\u5730\u65b9\u6574\u5099\u5c40\u3000\u6bbf\u30c0\u30e0\u5de5\u4e8b\u4e8b\u52d9\u6240","boring_xml_url":68,"boring_view_url":1,"soilmap_view_url":null,"soiltest_xml_url":0,"soiltest_view_url":0},{"id":522014,"code":"B4KJ202201002-4550","latitude":"35.45853","longitude":"134.349296","source_code":"CG038732400200050002","project_name":"\u6bbf\u30c0\u30e0\u53e4\u795e\u8b77\u5730\u533a\u5916\u5730\u8cea\u8abf\u67fb\u696d\u52d9","survey_name":"\u6bbf\u30c0\u30e0\u53e4\u795e\u8b77\u5730\u533a\u5916\u5730\u8cea\u8abf\u67fb\u696d\u52d9","client_name":"\u56fd\u571f\u4ea4\u901a\u7701\u3000\u4e2d\u56fd\u5730\u65b9\u6574\u5099\u5c40\u3000\u6bbf\u30c0\u30e0\u5de5\u4e8b\u4e8b\u52d9\u6240","boring_xml_url":68,"boring_view_url":1,"soilmap_view_url":null,"soiltest_xml_url":0,"soiltest_view_url":0},{"id":522013,"code":"B4KJ202201002-4549","latitude":"35.458611","longitude":"134.349868","source_code":"CG038732400200050001","project_name":"\u6bbf\u30c0\u30e0\u53e4\u795e\u8b77\u5730\u533a\u5916\u5730\u8cea\u8abf\u67fb\u696d\u52d9","survey_name":"\u6bbf\u30c0\u30e0\u53e4\u795e\u8b77\u5730\u533a\u5916\u5730\u8cea\u8abf\u67fb\u696d\u52d9","client_name":"\u56fd\u571f\u4ea4\u901a\u7701\u3000\u4e2d\u56fd\u5730\u65b9\u6574\u5099\u5c40\u3000\u6bbf\u30c0\u30e0\u5de5\u4e8b\u4e8b\u52d9\u6240","boring_xml_url":68,"boring_view_url":1,"soilmap_view_url":null,"soiltest_xml_url":0,"soiltest_view_url":0},{"id":522012,"code":"B4KJ202201002-4548","latitude":"34.64684","longitude":"131.664066","source_code":"CG028760540200310007","project_name":"\u56fd\u9053191\u53f7\u5efa\u8a2d\u4e8b\u696d","survey_name":"\u897f\u90e8\u7ba1\u5185\u5730\u8cea\u8abf\u67fb\u696d\u52d9","client_name":"\u56fd\u571f\u4ea4\u901a\u7701\u4e2d\u56fd\u5730\u65b9\u6574\u5099\u5c40\u6cb3\u5ddd\u56fd\u9053\u4e8b\u52d9\u6240","boring_xml_url":68,"boring_view_url":1,"soilmap_view_url":null,"soiltest_xml_url":0,"soiltest_view_url":0},{"id":522011,"code":"B4KJ202201002-4547","latitude":"34.646507","longitude":"131.662816","source_code":"CG028760540200310006","project_name":"\u56fd\u9053191\u53f7\u5efa\u8a2d\u4e8b\u696d","survey_name":"\u897f\u90e8\u7ba1\u5185\u5730\u8cea\u8abf\u67fb\u696d\u52d9","client_name":"\u56fd\u571f\u4ea4\u901a\u7701\u4e2d\u56fd\u5730\u65b9\u6574\u5099\u5c40\u6cb3\u5ddd\u56fd\u9053\u4e8b\u52d9\u6240","boring_xml_url":68,"boring_view_url":1,"soilmap_view_url":null,"soiltest_xml_url":0,"soiltest_view_url":0},{"id":522010,"code":"B4KJ202201002-4546","latitude":"34.465552","longitude":"131.435037","source_code":"CG028760540200310005","project_name":"\u56fd\u9053191\u53f7\u5efa\u8a2d\u4e8b\u696d","survey_name":"\u897f\u90e8\u7ba1\u5185\u5730\u8cea\u8abf\u67fb\u696d\u52d9","client_name":"\u56fd\u571f\u4ea4\u901a\u7701\u4e2d\u56fd\u5730\u65b9\u6574\u5099\u5c40\u6cb3\u5ddd\u56fd\u9053\u4e8b\u52d9\u6240","boring_xml_url":68,"boring_view_url":1,"soilmap_view_url":null,"soiltest_xml_url":0,"soiltest_view_url":0},{"id":522009,"code":"B4KJ202201002-4545","latitude":"34.46533","longitude":"131.435314","source_code":"CG028760540200310004","project_name":"\u56fd\u9053191\u53f7\u5efa\u8a2d\u4e8b\u696d","survey_name":"\u897f\u90e8\u7ba1\u5185\u5730\u8cea\u8abf\u67fb\u696d\u52d9","client_name":"\u56fd\u571f\u4ea4\u901a\u7701\u4e2d\u56fd\u5730\u65b9\u6574\u5099\u5c40\u6cb3\u5ddd\u56fd\u9053\u4e8b\u52d9\u6240","boring_xml_url":68,"boring_view_url":1,"soilmap_view_url":null,"soiltest_xml_url":0,"soiltest_view_url":0},{"id":522008,"code":"B4KJ202201002-4544","latitude":"34.452275","longitude":"131.420482","source_code":"CG028760540200310003","project_name":"\u56fd\u9053191\u53f7\u5efa\u8a2d\u4e8b\u696d","survey_name":"\u897f\u90e8\u7ba1\u5185\u5730\u8cea\u8abf\u67fb\u696d\u52d9","client_name":"\u56fd\u571f\u4ea4\u901a\u7701\u4e2d\u56fd\u5730\u65b9\u6574\u5099\u5c40\u6cb3\u5ddd\u56fd\u9053\u4e8b\u52d9\u6240","boring_xml_url":68,"boring_view_url":1,"soilmap_view_url":null,"soiltest_xml_url":0,"soiltest_view_url":0},{"id":522007,"code":"B4KJ202201002-4543","latitude":"34.452053","longitude":"131.420482","source_code":"CG028760540200310002","project_name":"\u56fd\u9053191\u53f7\u5efa\u8a2d\u4e8b\u696d","survey_name":"\u897f\u90e8\u7ba1\u5185\u5730\u8cea\u8abf\u67fb\u696d\u52d9","client_name":"\u56fd\u571f\u4ea4\u901a\u7701\u4e2d\u56fd\u5730\u65b9\u6574\u5099\u5c40\u6cb3\u5ddd\u56fd\u9053\u4e8b\u52d9\u6240","boring_xml_url":68,"boring_view_url":1,"soilmap_view_url":null,"soiltest_xml_url":0,"soiltest_view_url":0},{"id":522006,"code":"B4KJ202201002-4542","latitude":"34.38978","longitude":"131.364126","source_code":"CG028760540200310001","project_name":"\u56fd\u9053191\u53f7\u5efa\u8a2d\u4e8b\u696d","survey_name":"\u897f\u90e8\u7ba1\u5185\u5730\u8cea\u8abf\u67fb\u696d\u52d9","client_name":"\u56fd\u571f\u4ea4\u901a\u7701\u4e2d\u56fd\u5730\u65b9\u6574\u5099\u5c40\u6cb3\u5ddd\u56fd\u9053\u4e8b\u52d9\u6240","boring_xml_url":68,"boring_view_url":1,"soilmap_view_url":null,"soiltest_xml_url":0,"soiltest_view_url":0},{"id":522005,"code":"B4KJ202201002-4541","latitude":"35.485641","longitude":"133.483956","source_code":"CG028731610200420015","project_name":"","survey_name":"\u8d64\u7895\u5730\u8cea\u8abf\u67fb\u696d\u52d9","client_name":"\u4e2d\u56fd\u5730\u65b9\u6574\u5099\u5c40\u3000\u5009\u5409\u6cb3\u5ddd\u56fd\u9053\u4e8b\u52d9\u6240\u3000\u8abf\u67fb\u8a2d\u8a08\u7b2c\u4e8c\u8ab2","boring_xml_url":68,"boring_view_url":1,"soilmap_view_url":null,"soiltest_xml_url":0,"soiltest_view_url":0},{"id":522004,"code":"B4KJ202201002-4540","latitude":"35.491341","longitude":"133.49359","source_code":"CG028731610200420014","project_name":"","survey_name":"\u8d64\u7895\u5730\u8cea\u8abf\u67fb\u696d\u52d9","client_name":"\u4e2d\u56fd\u5730\u65b9\u6574\u5099\u5c40\u3000\u5009\u5409\u6cb3\u5ddd\u56fd\u9053\u4e8b\u52d9\u6240\u3000\u8abf\u67fb\u8a2d\u8a08\u7b2c\u4e8c\u8ab2","boring_xml_url":68,"boring_view_url":1,"soilmap_view_url":null,"soiltest_xml_url":0,"soiltest_view_url":0},{"id":522003,"code":"B4KJ202201002-4539","latitude":"35.491556","longitude":"133.493831","source_code":"CG028731610200420013","project_name":"","survey_name":"\u8d64\u7895\u5730\u8cea\u8abf\u67fb\u696d\u52d9","client_name":"\u4e2d\u56fd\u5730\u65b9\u6574\u5099\u5c40\u3000\u5009\u5409\u6cb3\u5ddd\u56fd\u9053\u4e8b\u52d9\u6240\u3000\u8abf\u67fb\u8a2d\u8a08\u7b2c\u4e8c\u8ab2","boring_xml_url":68,"boring_view_url":1,"soilmap_view_url":null,"soiltest_xml_url":0,"soiltest_view_url":0},{"id":522002,"code":"B4KJ202201002-4538","latitude":"35.507602","longitude":"133.619692","source_code":"CG028731610200420012","project_name":"","survey_name":"\u8d64\u7895\u5730\u8cea\u8abf\u67fb\u696d\u52d9","client_name":"\u4e2d\u56fd\u5730\u65b9\u6574\u5099\u5c40\u3000\u5009\u5409\u6cb3\u5ddd\u56fd\u9053\u4e8b\u52d9\u6240\u3000\u8abf\u67fb\u8a2d\u8a08\u7b2c\u4e8c\u8ab2","boring_xml_url":68,"boring_view_url":1,"soilmap_view_url":null,"soiltest_xml_url":0,"soiltest_view_url":0},{"id":522001,"code":"B4KJ202201002-4537","latitude":"35.507645","longitude":"133.620129","source_code":"CG028731610200420011","project_name":"","survey_name":"\u8d64\u7895\u5730\u8cea\u8abf\u67fb\u696d\u52d9","client_name":"\u4e2d\u56fd\u5730\u65b9\u6574\u5099\u5c40\u3000\u5009\u5409\u6cb3\u5ddd\u56fd\u9053\u4e8b\u52d9\u6240\u3000\u8abf\u67fb\u8a2d\u8a08\u7b2c\u4e8c\u8ab2","boring_xml_url":68,"boring_view_url":1,"soilmap_view_url":null,"soiltest_xml_url":0,"soiltest_view_url":0},{"id":522000,"code":"B4KJ202201002-4536","latitude":"35.507691","longitude":"133.620567","source_code":"CG028731610200420010","project_name":"","survey_name":"\u8d64\u7895\u5730\u8cea\u8abf\u67fb\u696d\u52d9","client_name":"\u4e2d\u56fd\u5730\u65b9\u6574\u5099\u5c40\u3000\u5009\u5409\u6cb3\u5ddd\u56fd\u9053\u4e8b\u52d9\u6240\u3000\u8abf\u67fb\u8a2d\u8a08\u7b2c\u4e8c\u8ab2","boring_xml_url":68,"boring_view_url":1,"soilmap_view_url":null,"soiltest_xml_url":0,"soiltest_view_url":0},{"id":521999,"code":"B4KJ202201002-4535","latitude":"35.507741","longitude":"133.621004","source_code":"CG028731610200420009","project_name":"","survey_name":"\u8d64\u7895\u5730\u8cea\u8abf\u67fb\u696d\u52d9","client_name":"\u4e2d\u56fd\u5730\u65b9\u6574\u5099\u5c40\u3000\u5009\u5409\u6cb3\u5ddd\u56fd\u9053\u4e8b\u52d9\u6240\u3000\u8abf\u67fb\u8a2d\u8a08\u7b2c\u4e8c\u8ab2","boring_xml_url":68,"boring_view_url":1,"soilmap_view_url":null,"soiltest_xml_url":0,"soiltest_view_url":0},{"id":521998,"code":"B4KJ202201002-4534","latitude":"35.508699","longitude":"133.62796","source_code":"CG028731610200420008","project_name":"","survey_name":"\u8d64\u7895\u5730\u8cea\u8abf\u67fb\u696d\u52d9","client_name":"\u4e2d\u56fd\u5730\u65b9\u6574\u5099\u5c40\u3000\u5009\u5409\u6cb3\u5ddd\u56fd\u9053\u4e8b\u52d9\u6240\u3000\u8abf\u67fb\u8a2d\u8a08\u7b2c\u4e8c\u8ab2","boring_xml_url":68,"boring_view_url":1,"soilmap_view_url":null,"soiltest_xml_url":0,"soiltest_view_url":0},{"id":521997,"code":"B4KJ202201002-4533","latitude":"35.508862","longitude":"133.629268","source_code":"CG028731610200420007","project_name":"","survey_name":"\u8d64\u7895\u5730\u8cea\u8abf\u67fb\u696d\u52d9","client_name":"\u4e2d\u56fd\u5730\u65b9\u6574\u5099\u5c40\u3000\u5009\u5409\u6cb3\u5ddd\u56fd\u9053\u4e8b\u52d9\u6240\u3000\u8abf\u67fb\u8a2d\u8a08\u7b2c\u4e8c\u8ab2","boring_xml_url":68,"boring_view_url":1,"soilmap_view_url":null,"soiltest_xml_url":0,"soiltest_view_url":0},{"id":521996,"code":"B4KJ202201002-4532","latitude":"35.509054","longitude":"133.63146","source_code":"CG028731610200420006","project_name":"","survey_name":"\u8d64\u7895\u5730\u8cea\u8abf\u67fb\u696d\u52d9","client_name":"\u4e2d\u56fd\u5730\u65b9\u6574\u5099\u5c40\u3000\u5009\u5409\u6cb3\u5ddd\u56fd\u9053\u4e8b\u52d9\u6240\u3000\u8abf\u67fb\u8a2d\u8a08\u7b2c\u4e8c\u8ab2","boring_xml_url":68,"boring_view_url":1,"soilmap_view_url":null,"soiltest_xml_url":0,"soiltest_view_url":0},{"id":521995,"code":"B4KJ202201002-4531","latitude":"35.509095","longitude":"133.633133","source_code":"CG028731610200420005","project_name":"","survey_name":"\u8d64\u7895\u5730\u8cea\u8abf\u67fb\u696d\u52d9","client_name":"\u4e2d\u56fd\u5730\u65b9\u6574\u5099\u5c40\u3000\u5009\u5409\u6cb3\u5ddd\u56fd\u9053\u4e8b\u52d9\u6240\u3000\u8abf\u67fb\u8a2d\u8a08\u7b2c\u4e8c\u8ab2","boring_xml_url":68,"boring_view_url":1,"soilmap_view_url":null,"soiltest_xml_url":0,"soiltest_view_url":0},{"id":521994,"code":"B4KJ202201002-4530","latitude":"35.509118","longitude":"133.63377","source_code":"CG028731610200420004","project_name":"","survey_name":"\u8d64\u7895\u5730\u8cea\u8abf\u67fb\u696d\u52d9","client_name":"\u4e2d\u56fd\u5730\u65b9\u6574\u5099\u5c40\u3000\u5009\u5409\u6cb3\u5ddd\u56fd\u9053\u4e8b\u52d9\u6240\u3000\u8abf\u67fb\u8a2d\u8a08\u7b2c\u4e8c\u8ab2","boring_xml_url":68,"boring_view_url":1,"soilmap_view_url":null,"soiltest_xml_url":0,"soiltest_view_url":0},{"id":521993,"code":"B4KJ202201002-4529","latitude":"35.509221","longitude":"133.634901","source_code":"CG028731610200420003","project_name":"","survey_name":"\u8d64\u7895\u5730\u8cea\u8abf\u67fb\u696d\u52d9","client_name":"\u4e2d\u56fd\u5730\u65b9\u6574\u5099\u5c40\u3000\u5009\u5409\u6cb3\u5ddd\u56fd\u9053\u4e8b\u52d9\u6240\u3000\u8abf\u67fb\u8a2d\u8a08\u7b2c\u4e8c\u8ab2","boring_xml_url":68,"boring_view_url":1,"soilmap_view_url":null,"soiltest_xml_url":0,"soiltest_view_url":0},{"id":521992,"code":"B4KJ202201002-4528","latitude":"35.508981","longitude":"133.630361","source_code":"CG028731610200420002","project_name":"","survey_name":"\u8d64\u7895\u5730\u8cea\u8abf\u67fb\u696d\u52d9","client_name":"\u4e2d\u56fd\u5730\u65b9\u6574\u5099\u5c40\u3000\u5009\u5409\u6cb3\u5ddd\u56fd\u9053\u4e8b\u52d9\u6240\u3000\u8abf\u67fb\u8a2d\u8a08\u7b2c\u4e8c\u8ab2","boring_xml_url":68,"boring_view_url":1,"soilmap_view_url":null,"soiltest_xml_url":0,"soiltest_view_url":0},{"id":521991,"code":"B4KJ202201002-4527","latitude":"35.509221","longitude":"133.634537","source_code":"CG028731610200420001","project_name":"","survey_name":"\u8d64\u7895\u5730\u8cea\u8abf\u67fb\u696d\u52d9","client_name":"\u4e2d\u56fd\u5730\u65b9\u6574\u5099\u5c40\u3000\u5009\u5409\u6cb3\u5ddd\u56fd\u9053\u4e8b\u52d9\u6240\u3000\u8abf\u67fb\u8a2d\u8a08\u7b2c\u4e8c\u8ab2","boring_xml_url":68,"boring_view_url":1,"soilmap_view_url":null,"soiltest_xml_url":0,"soiltest_view_url":0},{"id":521990,"code":"B4KJ202201002-4526","latitude":"34.046226","longitude":"131.078549","source_code":"CG018760600200460014","project_name":"\u4e00\u822c\u56fd\u90532\u53f7(\u57f4\u751f\u30d0\u30a4\u30d1\u30b9)","survey_name":"\u57f4\u751f\u5730\u533a\u5730\u8cea\u8abf\u67fb\u696d\u52d9","client_name":"\u56fd\u571f\u4ea4\u901a\u7701\u4e2d\u56fd\u5730\u65b9\u6574\u5099\u5c40\u5c71\u53e3\u5de5\u4e8b\u4e8b\u52d9\u6240\u8abf\u67fb\u8a2d\u8a08\u8ab2","boring_xml_url":68,"boring_view_url":1,"soilmap_view_url":null,"soiltest_xml_url":0,"soiltest_view_url":0},{"id":521989,"code":"B4KJ202201002-4525","latitude":"34.04617","longitude":"131.078077","source_code":"CG018760600200460013","project_name":"\u4e00\u822c\u56fd\u90532\u53f7(\u57f4\u751f\u30d0\u30a4\u30d1\u30b9)","survey_name":"\u57f4\u751f\u5730\u533a\u5730\u8cea\u8abf\u67fb\u696d\u52d9","client_name":"\u56fd\u571f\u4ea4\u901a\u7701\u4e2d\u56fd\u5730\u65b9\u6574\u5099\u5c40\u5c71\u53e3\u5de5\u4e8b\u4e8b\u52d9\u6240\u8abf\u67fb\u8a2d\u8a08\u8ab2","boring_xml_url":68,"boring_view_url":1,"soilmap_view_url":null,"soiltest_xml_url":0,"soiltest_view_url":0}]}}