{"header":{"xyz":{"source":[],"mosaic":false},"page":784,"raw":{"soiltest_result":"0","bbox":"57.598333,109.544722,1.933333,163.806111","page":"784"},"conditions":{"soiltest_result":0,"north":57.598333,"west":109.544722,"south":1.933333,"east":163.806111},"success":true,"message":""},"data":{"meta":{"total":212844,"page":784,"pages":7095,"count":30},"values":[{"id":521898,"code":"B4KJ202201002-4434","latitude":"35.22443","longitude":"132.952827","source_code":"CG028738610200140001","project_name":"","survey_name":"\u5c3e\u539f\u30c0\u30e0\u30b5\u30a4\u30c8\u5730\u8cea\u8abf\u67fb(\u305d\u306e1)\u696d\u52d9","client_name":"\u56fd\u571f\u4ea4\u901a\u7701\u3000\u4e2d\u56fd\u5730\u65b9\u6574\u5099\u5c40\u3000\u6590\u4f0a\u5ddd\u30fb\u795e\u6238\u5ddd\u7dcf\u5408\u958b\u767a\u5de5\u4e8b\u4e8b\u52d9\u6240","boring_xml_url":68,"boring_view_url":1,"soilmap_view_url":null,"soiltest_xml_url":0,"soiltest_view_url":0},{"id":521897,"code":"B4KJ202201002-4433","latitude":"35.243424","longitude":"132.683267","source_code":"CG028738400200080004","project_name":"","survey_name":"\u5fd7\u6d25\u898b\u30c0\u30e0\u30c0\u30e0\u30b5\u30a4\u30c8\u5de6\u5cb8\u5730\u8cea\u8abf\u67fb\u696d\u52d9","client_name":"\u56fd\u571f\u4ea4\u901a\u7701\u4e2d\u56fd\u5730\u65b9\u6574\u5099\u5c40\u6590\u4f0a\u5ddd\u795e\u6238\u5ddd\u7dcf\u5408\u958b\u767a\u5de5\u4e8b\u4e8b\u52d9\u6240","boring_xml_url":68,"boring_view_url":1,"soilmap_view_url":null,"soiltest_xml_url":0,"soiltest_view_url":0},{"id":521896,"code":"B4KJ202201002-4432","latitude":"35.243147","longitude":"132.683545","source_code":"CG028738400200080003","project_name":"","survey_name":"\u5fd7\u6d25\u898b\u30c0\u30e0\u30c0\u30e0\u30b5\u30a4\u30c8\u5de6\u5cb8\u5730\u8cea\u8abf\u67fb\u696d\u52d9","client_name":"\u56fd\u571f\u4ea4\u901a\u7701\u4e2d\u56fd\u5730\u65b9\u6574\u5099\u5c40\u6590\u4f0a\u5ddd\u795e\u6238\u5ddd\u7dcf\u5408\u958b\u767a\u5de5\u4e8b\u4e8b\u52d9\u6240","boring_xml_url":68,"boring_view_url":1,"soilmap_view_url":null,"soiltest_xml_url":0,"soiltest_view_url":0},{"id":521895,"code":"B4KJ202201002-4431","latitude":"35.137605","longitude":"132.688272","source_code":"CG028738400200080002","project_name":"","survey_name":"\u5fd7\u6d25\u898b\u30c0\u30e0\u30c0\u30e0\u30b5\u30a4\u30c8\u5de6\u5cb8\u5730\u8cea\u8abf\u67fb\u696d\u52d9","client_name":"\u56fd\u571f\u4ea4\u901a\u7701\u4e2d\u56fd\u5730\u65b9\u6574\u5099\u5c40\u6590\u4f0a\u5ddd\u795e\u6238\u5ddd\u7dcf\u5408\u958b\u767a\u5de5\u4e8b\u4e8b\u52d9\u6240","boring_xml_url":68,"boring_view_url":1,"soilmap_view_url":null,"soiltest_xml_url":0,"soiltest_view_url":0},{"id":521894,"code":"B4KJ202201002-4430","latitude":"35.13705","longitude":"132.68855","source_code":"CG028738400200080001","project_name":"","survey_name":"\u5fd7\u6d25\u898b\u30c0\u30e0\u30c0\u30e0\u30b5\u30a4\u30c8\u5de6\u5cb8\u5730\u8cea\u8abf\u67fb\u696d\u52d9","client_name":"\u56fd\u571f\u4ea4\u901a\u7701\u4e2d\u56fd\u5730\u65b9\u6574\u5099\u5c40\u6590\u4f0a\u5ddd\u795e\u6238\u5ddd\u7dcf\u5408\u958b\u767a\u5de5\u4e8b\u4e8b\u52d9\u6240","boring_xml_url":68,"boring_view_url":1,"soilmap_view_url":null,"soiltest_xml_url":0,"soiltest_view_url":0},{"id":521893,"code":"B4KJ202201002-4429","latitude":"35.455333","longitude":"133.372336","source_code":"CG028733400200120004","project_name":"\u65e5\u91ce\u5ddd\u5916\u6a0b\u9580\u7b49\u5468\u8fba\u5824\u9632\u70b9\u691c\u696d\u52d9","survey_name":"\u65e5\u91ce\u5ddd\u5916\u6a0b\u9580\u7b49\u5468\u8fba\u5824\u9632\u70b9\u691c\u696d\u52d9","client_name":"\u4e2d\u56fd\u5730\u65b9\u6574\u5099\u5c40\u3000\u65e5\u91ce\u5ddd\u5de5\u4e8b\u4e8b\u52d9\u6240","boring_xml_url":68,"boring_view_url":1,"soilmap_view_url":null,"soiltest_xml_url":0,"soiltest_view_url":0},{"id":521892,"code":"B4KJ202201002-4428","latitude":"35.455305","longitude":"133.372169","source_code":"CG028733400200120003","project_name":"\u65e5\u91ce\u5ddd\u5916\u6a0b\u9580\u7b49\u5468\u8fba\u5824\u9632\u70b9\u691c\u696d\u52d9","survey_name":"\u65e5\u91ce\u5ddd\u5916\u6a0b\u9580\u7b49\u5468\u8fba\u5824\u9632\u70b9\u691c\u696d\u52d9","client_name":"\u4e2d\u56fd\u5730\u65b9\u6574\u5099\u5c40\u3000\u65e5\u91ce\u5ddd\u5de5\u4e8b\u4e8b\u52d9\u6240","boring_xml_url":68,"boring_view_url":1,"soilmap_view_url":null,"soiltest_xml_url":0,"soiltest_view_url":0},{"id":521891,"code":"B4KJ202201002-4427","latitude":"35.45525","longitude":"133.371891","source_code":"CG028733400200120002","project_name":"\u65e5\u91ce\u5ddd\u5916\u6a0b\u9580\u7b49\u5468\u8fba\u5824\u9632\u70b9\u691c\u696d\u52d9","survey_name":"\u65e5\u91ce\u5ddd\u5916\u6a0b\u9580\u7b49\u5468\u8fba\u5824\u9632\u70b9\u691c\u696d\u52d9","client_name":"\u4e2d\u56fd\u5730\u65b9\u6574\u5099\u5c40\u3000\u65e5\u91ce\u5ddd\u5de5\u4e8b\u4e8b\u52d9\u6240","boring_xml_url":68,"boring_view_url":1,"soilmap_view_url":null,"soiltest_xml_url":0,"soiltest_view_url":0},{"id":521890,"code":"B4KJ202201002-4426","latitude":"35.455194","longitude":"133.371669","source_code":"CG028733400200120001","project_name":"\u65e5\u91ce\u5ddd\u5916\u6a0b\u9580\u7b49\u5468\u8fba\u5824\u9632\u70b9\u691c\u696d\u52d9","survey_name":"\u65e5\u91ce\u5ddd\u5916\u6a0b\u9580\u7b49\u5468\u8fba\u5824\u9632\u70b9\u691c\u696d\u52d9","client_name":"\u4e2d\u56fd\u5730\u65b9\u6574\u5099\u5c40\u3000\u65e5\u91ce\u5ddd\u5de5\u4e8b\u4e8b\u52d9\u6240","boring_xml_url":68,"boring_view_url":1,"soilmap_view_url":null,"soiltest_xml_url":0,"soiltest_view_url":0},{"id":521889,"code":"B4KJ202201002-4425","latitude":"35.49564","longitude":"133.664562","source_code":"CG028731610200350015","project_name":"","survey_name":"\u6771\u4f2f\u5730\u533a\u4ed6\u5730\u8cea\u8abf\u67fb\u696d\u52d9","client_name":"\u56fd\u571f\u4ea4\u901a\u7701\u4e2d\u56fd\u5730\u65b9\u6574\u5099\u5c40\u5009\u5409\u5de5\u4e8b\u4e8b\u52d9\u6240","boring_xml_url":68,"boring_view_url":1,"soilmap_view_url":null,"soiltest_xml_url":0,"soiltest_view_url":0},{"id":521888,"code":"B4KJ202201002-4424","latitude":"35.502862","longitude":"133.656507","source_code":"CG028731610200350014","project_name":"","survey_name":"\u6771\u4f2f\u5730\u533a\u4ed6\u5730\u8cea\u8abf\u67fb\u696d\u52d9","client_name":"\u56fd\u571f\u4ea4\u901a\u7701\u4e2d\u56fd\u5730\u65b9\u6574\u5099\u5c40\u5009\u5409\u5de5\u4e8b\u4e8b\u52d9\u6240","boring_xml_url":68,"boring_view_url":1,"soilmap_view_url":null,"soiltest_xml_url":0,"soiltest_view_url":0},{"id":521887,"code":"B4KJ202201002-4423","latitude":"35.50314","longitude":"133.654007","source_code":"CG028731610200350013","project_name":"","survey_name":"\u6771\u4f2f\u5730\u533a\u4ed6\u5730\u8cea\u8abf\u67fb\u696d\u52d9","client_name":"\u56fd\u571f\u4ea4\u901a\u7701\u4e2d\u56fd\u5730\u65b9\u6574\u5099\u5c40\u5009\u5409\u5de5\u4e8b\u4e8b\u52d9\u6240","boring_xml_url":68,"boring_view_url":1,"soilmap_view_url":null,"soiltest_xml_url":0,"soiltest_view_url":0},{"id":521886,"code":"B4KJ202201002-4422","latitude":"35.503695","longitude":"133.654562","source_code":"CG028731610200350012","project_name":"","survey_name":"\u6771\u4f2f\u5730\u533a\u4ed6\u5730\u8cea\u8abf\u67fb\u696d\u52d9","client_name":"\u56fd\u571f\u4ea4\u901a\u7701\u4e2d\u56fd\u5730\u65b9\u6574\u5099\u5c40\u5009\u5409\u5de5\u4e8b\u4e8b\u52d9\u6240","boring_xml_url":68,"boring_view_url":1,"soilmap_view_url":null,"soiltest_xml_url":0,"soiltest_view_url":0},{"id":521885,"code":"B4KJ202201002-4421","latitude":"35.502584","longitude":"133.655396","source_code":"CG028731610200350011","project_name":"","survey_name":"\u6771\u4f2f\u5730\u533a\u4ed6\u5730\u8cea\u8abf\u67fb\u696d\u52d9","client_name":"\u56fd\u571f\u4ea4\u901a\u7701\u4e2d\u56fd\u5730\u65b9\u6574\u5099\u5c40\u5009\u5409\u5de5\u4e8b\u4e8b\u52d9\u6240","boring_xml_url":68,"boring_view_url":1,"soilmap_view_url":null,"soiltest_xml_url":0,"soiltest_view_url":0},{"id":521884,"code":"B4KJ202201002-4420","latitude":"35.502862","longitude":"133.655951","source_code":"CG028731610200350010","project_name":"","survey_name":"\u6771\u4f2f\u5730\u533a\u4ed6\u5730\u8cea\u8abf\u67fb\u696d\u52d9","client_name":"\u56fd\u571f\u4ea4\u901a\u7701\u4e2d\u56fd\u5730\u65b9\u6574\u5099\u5c40\u5009\u5409\u5de5\u4e8b\u4e8b\u52d9\u6240","boring_xml_url":68,"boring_view_url":1,"soilmap_view_url":null,"soiltest_xml_url":0,"soiltest_view_url":0},{"id":521883,"code":"B4KJ202201002-4419","latitude":"35.502306","longitude":"133.656229","source_code":"CG028731610200350009","project_name":"","survey_name":"\u6771\u4f2f\u5730\u533a\u4ed6\u5730\u8cea\u8abf\u67fb\u696d\u52d9","client_name":"\u56fd\u571f\u4ea4\u901a\u7701\u4e2d\u56fd\u5730\u65b9\u6574\u5099\u5c40\u5009\u5409\u5de5\u4e8b\u4e8b\u52d9\u6240","boring_xml_url":68,"boring_view_url":1,"soilmap_view_url":null,"soiltest_xml_url":0,"soiltest_view_url":0},{"id":521882,"code":"B4KJ202201002-4418","latitude":"35.502584","longitude":"133.655951","source_code":"CG028731610200350008","project_name":"","survey_name":"\u6771\u4f2f\u5730\u533a\u4ed6\u5730\u8cea\u8abf\u67fb\u696d\u52d9","client_name":"\u56fd\u571f\u4ea4\u901a\u7701\u4e2d\u56fd\u5730\u65b9\u6574\u5099\u5c40\u5009\u5409\u5de5\u4e8b\u4e8b\u52d9\u6240","boring_xml_url":68,"boring_view_url":1,"soilmap_view_url":null,"soiltest_xml_url":0,"soiltest_view_url":0},{"id":521881,"code":"B4KJ202201002-4417","latitude":"35.499806","longitude":"133.659006","source_code":"CG028731610200350007","project_name":"","survey_name":"\u6771\u4f2f\u5730\u533a\u4ed6\u5730\u8cea\u8abf\u67fb\u696d\u52d9","client_name":"\u56fd\u571f\u4ea4\u901a\u7701\u4e2d\u56fd\u5730\u65b9\u6574\u5099\u5c40\u5009\u5409\u5de5\u4e8b\u4e8b\u52d9\u6240","boring_xml_url":68,"boring_view_url":1,"soilmap_view_url":null,"soiltest_xml_url":0,"soiltest_view_url":0},{"id":521880,"code":"B4KJ202201002-4416","latitude":"35.500084","longitude":"133.659562","source_code":"CG028731610200350006","project_name":"","survey_name":"\u6771\u4f2f\u5730\u533a\u4ed6\u5730\u8cea\u8abf\u67fb\u696d\u52d9","client_name":"\u56fd\u571f\u4ea4\u901a\u7701\u4e2d\u56fd\u5730\u65b9\u6574\u5099\u5c40\u5009\u5409\u5de5\u4e8b\u4e8b\u52d9\u6240","boring_xml_url":68,"boring_view_url":1,"soilmap_view_url":null,"soiltest_xml_url":0,"soiltest_view_url":0},{"id":521879,"code":"B4KJ202201002-4415","latitude":"35.489251","longitude":"133.70678","source_code":"CG028731610200350005","project_name":"","survey_name":"\u6771\u4f2f\u5730\u533a\u4ed6\u5730\u8cea\u8abf\u67fb\u696d\u52d9","client_name":"\u56fd\u571f\u4ea4\u901a\u7701\u4e2d\u56fd\u5730\u65b9\u6574\u5099\u5c40\u5009\u5409\u5de5\u4e8b\u4e8b\u52d9\u6240","boring_xml_url":68,"boring_view_url":1,"soilmap_view_url":null,"soiltest_xml_url":0,"soiltest_view_url":0},{"id":521878,"code":"B4KJ202201002-4414","latitude":"35.493417","longitude":"133.710112","source_code":"CG028731610200350004","project_name":"","survey_name":"\u6771\u4f2f\u5730\u533a\u4ed6\u5730\u8cea\u8abf\u67fb\u696d\u52d9","client_name":"\u56fd\u571f\u4ea4\u901a\u7701\u4e2d\u56fd\u5730\u65b9\u6574\u5099\u5c40\u5009\u5409\u5de5\u4e8b\u4e8b\u52d9\u6240","boring_xml_url":68,"boring_view_url":1,"soilmap_view_url":null,"soiltest_xml_url":0,"soiltest_view_url":0},{"id":521877,"code":"B4KJ202201002-4413","latitude":"35.494528","longitude":"133.710668","source_code":"CG028731610200350003","project_name":"","survey_name":"\u6771\u4f2f\u5730\u533a\u4ed6\u5730\u8cea\u8abf\u67fb\u696d\u52d9","client_name":"\u56fd\u571f\u4ea4\u901a\u7701\u4e2d\u56fd\u5730\u65b9\u6574\u5099\u5c40\u5009\u5409\u5de5\u4e8b\u4e8b\u52d9\u6240","boring_xml_url":68,"boring_view_url":1,"soilmap_view_url":null,"soiltest_xml_url":0,"soiltest_view_url":0},{"id":521876,"code":"B4KJ202201002-4412","latitude":"35.495917","longitude":"133.712056","source_code":"CG028731610200350002","project_name":"","survey_name":"\u6771\u4f2f\u5730\u533a\u4ed6\u5730\u8cea\u8abf\u67fb\u696d\u52d9","client_name":"\u56fd\u571f\u4ea4\u901a\u7701\u4e2d\u56fd\u5730\u65b9\u6574\u5099\u5c40\u5009\u5409\u5de5\u4e8b\u4e8b\u52d9\u6240","boring_xml_url":68,"boring_view_url":1,"soilmap_view_url":null,"soiltest_xml_url":0,"soiltest_view_url":0},{"id":521875,"code":"B4KJ202201002-4411","latitude":"35.496472","longitude":"133.712612","source_code":"CG028731610200350001","project_name":"","survey_name":"\u6771\u4f2f\u5730\u533a\u4ed6\u5730\u8cea\u8abf\u67fb\u696d\u52d9","client_name":"\u56fd\u571f\u4ea4\u901a\u7701\u4e2d\u56fd\u5730\u65b9\u6574\u5099\u5c40\u5009\u5409\u5de5\u4e8b\u4e8b\u52d9\u6240","boring_xml_url":68,"boring_view_url":1,"soilmap_view_url":null,"soiltest_xml_url":0,"soiltest_view_url":0},{"id":521874,"code":"B4KJ202201002-4410","latitude":"35.494529","longitude":"133.665395","source_code":"CG028731610200080013","project_name":"\u8d64\u7895\u5730\u533a\u6a4b\u6881\u5730\u8cea\u8abf\u67fb\u696d\u52d9","survey_name":"\u8d64\u7895\u5730\u533a\u6a4b\u6881\u5730\u8cea\u8abf\u67fb\u696d\u52d9","client_name":"\u56fd\u571f\u4ea4\u901a\u7701\u4e2d\u56fd\u5730\u65b9\u6574\u5099\u5c40\u5009\u5409\u5de5\u4e8b\u4e8b\u52d9\u6240","boring_xml_url":68,"boring_view_url":1,"soilmap_view_url":null,"soiltest_xml_url":0,"soiltest_view_url":0},{"id":521873,"code":"B4KJ202201002-4409","latitude":"35.494529","longitude":"133.665673","source_code":"CG028731610200080012","project_name":"\u8d64\u7895\u5730\u533a\u6a4b\u6881\u5730\u8cea\u8abf\u67fb\u696d\u52d9","survey_name":"\u8d64\u7895\u5730\u533a\u6a4b\u6881\u5730\u8cea\u8abf\u67fb\u696d\u52d9","client_name":"\u56fd\u571f\u4ea4\u901a\u7701\u4e2d\u56fd\u5730\u65b9\u6574\u5099\u5c40\u5009\u5409\u5de5\u4e8b\u4e8b\u52d9\u6240","boring_xml_url":68,"boring_view_url":1,"soilmap_view_url":null,"soiltest_xml_url":0,"soiltest_view_url":0},{"id":521872,"code":"B4KJ202201002-4408","latitude":"35.493973","longitude":"133.666506","source_code":"CG028731610200080011","project_name":"\u8d64\u7895\u5730\u533a\u6a4b\u6881\u5730\u8cea\u8abf\u67fb\u696d\u52d9","survey_name":"\u8d64\u7895\u5730\u533a\u6a4b\u6881\u5730\u8cea\u8abf\u67fb\u696d\u52d9","client_name":"\u56fd\u571f\u4ea4\u901a\u7701\u4e2d\u56fd\u5730\u65b9\u6574\u5099\u5c40\u5009\u5409\u5de5\u4e8b\u4e8b\u52d9\u6240","boring_xml_url":68,"boring_view_url":1,"soilmap_view_url":null,"soiltest_xml_url":0,"soiltest_view_url":0},{"id":521871,"code":"B4KJ202201002-4407","latitude":"35.493973","longitude":"133.666784","source_code":"CG028731610200080010","project_name":"\u8d64\u7895\u5730\u533a\u6a4b\u6881\u5730\u8cea\u8abf\u67fb\u696d\u52d9","survey_name":"\u8d64\u7895\u5730\u533a\u6a4b\u6881\u5730\u8cea\u8abf\u67fb\u696d\u52d9","client_name":"\u56fd\u571f\u4ea4\u901a\u7701\u4e2d\u56fd\u5730\u65b9\u6574\u5099\u5c40\u5009\u5409\u5de5\u4e8b\u4e8b\u52d9\u6240","boring_xml_url":68,"boring_view_url":1,"soilmap_view_url":null,"soiltest_xml_url":0,"soiltest_view_url":0},{"id":521870,"code":"B4KJ202201002-4406","latitude":"35.505973","longitude":"133.649618","source_code":"CG028731610200080009","project_name":"\u8d64\u7895\u5730\u533a\u6a4b\u6881\u5730\u8cea\u8abf\u67fb\u696d\u52d9","survey_name":"\u8d64\u7895\u5730\u533a\u6a4b\u6881\u5730\u8cea\u8abf\u67fb\u696d\u52d9","client_name":"\u56fd\u571f\u4ea4\u901a\u7701\u4e2d\u56fd\u5730\u65b9\u6574\u5099\u5c40\u5009\u5409\u5de5\u4e8b\u4e8b\u52d9\u6240","boring_xml_url":68,"boring_view_url":1,"soilmap_view_url":null,"soiltest_xml_url":0,"soiltest_view_url":0},{"id":521869,"code":"B4KJ202201002-4405","latitude":"35.505945","longitude":"133.649591","source_code":"CG028731610200080008","project_name":"\u8d64\u7895\u5730\u533a\u6a4b\u6881\u5730\u8cea\u8abf\u67fb\u696d\u52d9","survey_name":"\u8d64\u7895\u5730\u533a\u6a4b\u6881\u5730\u8cea\u8abf\u67fb\u696d\u52d9","client_name":"\u56fd\u571f\u4ea4\u901a\u7701\u4e2d\u56fd\u5730\u65b9\u6574\u5099\u5c40\u5009\u5409\u5de5\u4e8b\u4e8b\u52d9\u6240","boring_xml_url":68,"boring_view_url":1,"soilmap_view_url":null,"soiltest_xml_url":0,"soiltest_view_url":0}]}}