{"header":{"xyz":{"source":[],"mosaic":false},"page":787,"raw":{"soiltest_result":"0","bbox":"57.598333,109.544722,1.933333,163.806111","page":"787"},"conditions":{"soiltest_result":0,"north":57.598333,"west":109.544722,"south":1.933333,"east":163.806111},"success":true,"message":""},"data":{"meta":{"total":212844,"page":787,"pages":7095,"count":30},"values":[{"id":521808,"code":"B4KJ202201002-4344","latitude":"34.661107","longitude":"133.87974","source_code":"CG018742600200510004","project_name":"","survey_name":"\u5ca1\u5c71\u897f\u30d0\u30a4\u30d1\u30b9\u91ce\u6bbf\u5730\u533a\u5730\u8cea\u8abf\u67fb\u696d\u52d9","client_name":"\u56fd\u571f\u4ea4\u901a\u7701\u4e2d\u56fd\u5730\u65b9\u6574\u5099\u5c40\u5ca1\u5c71\u56fd\u9053\u5de5\u4e8b\u4e8b\u52d9\u6240","boring_xml_url":68,"boring_view_url":1,"soilmap_view_url":null,"soiltest_xml_url":0,"soiltest_view_url":0},{"id":521807,"code":"B4KJ202201002-4343","latitude":"34.661101","longitude":"133.879412","source_code":"CG018742600200510003","project_name":"","survey_name":"\u5ca1\u5c71\u897f\u30d0\u30a4\u30d1\u30b9\u91ce\u6bbf\u5730\u533a\u5730\u8cea\u8abf\u67fb\u696d\u52d9","client_name":"\u56fd\u571f\u4ea4\u901a\u7701\u4e2d\u56fd\u5730\u65b9\u6574\u5099\u5c40\u5ca1\u5c71\u56fd\u9053\u5de5\u4e8b\u4e8b\u52d9\u6240","boring_xml_url":68,"boring_view_url":1,"soilmap_view_url":null,"soiltest_xml_url":0,"soiltest_view_url":0},{"id":521806,"code":"B4KJ202201002-4342","latitude":"34.659754","longitude":"133.87977","source_code":"CG018742600200510002","project_name":"","survey_name":"\u5ca1\u5c71\u897f\u30d0\u30a4\u30d1\u30b9\u91ce\u6bbf\u5730\u533a\u5730\u8cea\u8abf\u67fb\u696d\u52d9","client_name":"\u56fd\u571f\u4ea4\u901a\u7701\u4e2d\u56fd\u5730\u65b9\u6574\u5099\u5c40\u5ca1\u5c71\u56fd\u9053\u5de5\u4e8b\u4e8b\u52d9\u6240","boring_xml_url":68,"boring_view_url":1,"soilmap_view_url":null,"soiltest_xml_url":0,"soiltest_view_url":0},{"id":521805,"code":"B4KJ202201002-4341","latitude":"34.659749","longitude":"133.879443","source_code":"CG018742600200510001","project_name":"","survey_name":"\u5ca1\u5c71\u897f\u30d0\u30a4\u30d1\u30b9\u91ce\u6bbf\u5730\u533a\u5730\u8cea\u8abf\u67fb\u696d\u52d9","client_name":"\u56fd\u571f\u4ea4\u901a\u7701\u4e2d\u56fd\u5730\u65b9\u6574\u5099\u5c40\u5ca1\u5c71\u56fd\u9053\u5de5\u4e8b\u4e8b\u52d9\u6240","boring_xml_url":68,"boring_view_url":1,"soilmap_view_url":null,"soiltest_xml_url":0,"soiltest_view_url":0},{"id":521804,"code":"B4KJ202201002-4340","latitude":"35.168826","longitude":"132.675869","source_code":"CG018738400200060008","project_name":"","survey_name":"\u5fd7\u6d25\u898b\u30c0\u30e0\u30c0\u30e0\u30b5\u30a4\u30c8\u5de6\u5cb8\u4ed6\u5730\u8cea\u8abf\u67fb\u696d\u52d9","client_name":"\u56fd\u571f\u4ea4\u901a\u7701\u4e2d\u56fd\u5730\u65b9\u6574\u5099\u5c40\u6590\u4f0a\u5ddd\u795e\u6238\u5ddd\u7dcf\u5408\u958b\u767a\u5de5\u4e8b\u4e8b\u52d9\u6240","boring_xml_url":68,"boring_view_url":1,"soilmap_view_url":null,"soiltest_xml_url":0,"soiltest_view_url":0},{"id":521803,"code":"B4KJ202201002-4339","latitude":"35.169765","longitude":"132.67638","source_code":"CG018738400200060007","project_name":"","survey_name":"\u5fd7\u6d25\u898b\u30c0\u30e0\u30c0\u30e0\u30b5\u30a4\u30c8\u5de6\u5cb8\u4ed6\u5730\u8cea\u8abf\u67fb\u696d\u52d9","client_name":"\u56fd\u571f\u4ea4\u901a\u7701\u4e2d\u56fd\u5730\u65b9\u6574\u5099\u5c40\u6590\u4f0a\u5ddd\u795e\u6238\u5ddd\u7dcf\u5408\u958b\u767a\u5de5\u4e8b\u4e8b\u52d9\u6240","boring_xml_url":68,"boring_view_url":1,"soilmap_view_url":null,"soiltest_xml_url":0,"soiltest_view_url":0},{"id":521802,"code":"B4KJ202201002-4338","latitude":"35.020308","longitude":"132.676573","source_code":"CG018738400200060006","project_name":"","survey_name":"\u5fd7\u6d25\u898b\u30c0\u30e0\u30c0\u30e0\u30b5\u30a4\u30c8\u5de6\u5cb8\u4ed6\u5730\u8cea\u8abf\u67fb\u696d\u52d9","client_name":"\u56fd\u571f\u4ea4\u901a\u7701\u4e2d\u56fd\u5730\u65b9\u6574\u5099\u5c40\u6590\u4f0a\u5ddd\u795e\u6238\u5ddd\u7dcf\u5408\u958b\u767a\u5de5\u4e8b\u4e8b\u52d9\u6240","boring_xml_url":68,"boring_view_url":1,"soilmap_view_url":null,"soiltest_xml_url":0,"soiltest_view_url":0},{"id":521801,"code":"B4KJ202201002-4337","latitude":"35.16904","longitude":"132.675405","source_code":"CG018738400200060005","project_name":"","survey_name":"\u5fd7\u6d25\u898b\u30c0\u30e0\u30c0\u30e0\u30b5\u30a4\u30c8\u5de6\u5cb8\u4ed6\u5730\u8cea\u8abf\u67fb\u696d\u52d9","client_name":"\u56fd\u571f\u4ea4\u901a\u7701\u4e2d\u56fd\u5730\u65b9\u6574\u5099\u5c40\u6590\u4f0a\u5ddd\u795e\u6238\u5ddd\u7dcf\u5408\u958b\u767a\u5de5\u4e8b\u4e8b\u52d9\u6240","boring_xml_url":68,"boring_view_url":1,"soilmap_view_url":null,"soiltest_xml_url":0,"soiltest_view_url":0},{"id":521800,"code":"B4KJ202201002-4336","latitude":"35.169859","longitude":"132.676002","source_code":"CG018738400200060004","project_name":"","survey_name":"\u5fd7\u6d25\u898b\u30c0\u30e0\u30c0\u30e0\u30b5\u30a4\u30c8\u5de6\u5cb8\u4ed6\u5730\u8cea\u8abf\u67fb\u696d\u52d9","client_name":"\u56fd\u571f\u4ea4\u901a\u7701\u4e2d\u56fd\u5730\u65b9\u6574\u5099\u5c40\u6590\u4f0a\u5ddd\u795e\u6238\u5ddd\u7dcf\u5408\u958b\u767a\u5de5\u4e8b\u4e8b\u52d9\u6240","boring_xml_url":68,"boring_view_url":1,"soilmap_view_url":null,"soiltest_xml_url":0,"soiltest_view_url":0},{"id":521799,"code":"B4KJ202201002-4335","latitude":"35.170428","longitude":"132.675969","source_code":"CG018738400200060003","project_name":"","survey_name":"\u5fd7\u6d25\u898b\u30c0\u30e0\u30c0\u30e0\u30b5\u30a4\u30c8\u5de6\u5cb8\u4ed6\u5730\u8cea\u8abf\u67fb\u696d\u52d9","client_name":"\u56fd\u571f\u4ea4\u901a\u7701\u4e2d\u56fd\u5730\u65b9\u6574\u5099\u5c40\u6590\u4f0a\u5ddd\u795e\u6238\u5ddd\u7dcf\u5408\u958b\u767a\u5de5\u4e8b\u4e8b\u52d9\u6240","boring_xml_url":68,"boring_view_url":1,"soilmap_view_url":null,"soiltest_xml_url":0,"soiltest_view_url":0},{"id":521798,"code":"B4KJ202201002-4334","latitude":"35.132698","longitude":"132.69241","source_code":"CG018738400200060002","project_name":"","survey_name":"\u5fd7\u6d25\u898b\u30c0\u30e0\u30c0\u30e0\u30b5\u30a4\u30c8\u5de6\u5cb8\u4ed6\u5730\u8cea\u8abf\u67fb\u696d\u52d9","client_name":"\u56fd\u571f\u4ea4\u901a\u7701\u4e2d\u56fd\u5730\u65b9\u6574\u5099\u5c40\u6590\u4f0a\u5ddd\u795e\u6238\u5ddd\u7dcf\u5408\u958b\u767a\u5de5\u4e8b\u4e8b\u52d9\u6240","boring_xml_url":68,"boring_view_url":1,"soilmap_view_url":null,"soiltest_xml_url":0,"soiltest_view_url":0},{"id":521797,"code":"B4KJ202201002-4333","latitude":"35.13287","longitude":"132.69223","source_code":"CG018738400200060001","project_name":"","survey_name":"\u5fd7\u6d25\u898b\u30c0\u30e0\u30c0\u30e0\u30b5\u30a4\u30c8\u5de6\u5cb8\u4ed6\u5730\u8cea\u8abf\u67fb\u696d\u52d9","client_name":"\u56fd\u571f\u4ea4\u901a\u7701\u4e2d\u56fd\u5730\u65b9\u6574\u5099\u5c40\u6590\u4f0a\u5ddd\u795e\u6238\u5ddd\u7dcf\u5408\u958b\u767a\u5de5\u4e8b\u4e8b\u52d9\u6240","boring_xml_url":68,"boring_view_url":1,"soilmap_view_url":null,"soiltest_xml_url":0,"soiltest_view_url":0},{"id":521796,"code":"B4KJ202201002-4332","latitude":"35.208047","longitude":"132.989069","source_code":"CG018733400200330018","project_name":"","survey_name":"\u5c3e\u539f\u30c0\u30e0\u4ed8\u66ff\u9053\u8def\u5730\u8cea\u8abf\u67fb\u696d\u52d9","client_name":"\u56fd\u571f\u4ea4\u901a\u7701\u4e2d\u56fd\u5730\u65b9\u6574\u5099\u5c40\u6590\u4f0a\u5ddd\u795e\u6238\u5ddd\u7dcf\u5408\u958b\u767a\u5de5\u4e8b\u4e8b\u52d9\u6240\u5de5\u52d92\u8ab2","boring_xml_url":68,"boring_view_url":1,"soilmap_view_url":null,"soiltest_xml_url":0,"soiltest_view_url":0},{"id":521795,"code":"B4KJ202201002-4331","latitude":"35.237402","longitude":"132.952684","source_code":"CG018733400200330017","project_name":"","survey_name":"\u5c3e\u539f\u30c0\u30e0\u4ed8\u66ff\u9053\u8def\u5730\u8cea\u8abf\u67fb\u696d\u52d9","client_name":"\u56fd\u571f\u4ea4\u901a\u7701\u4e2d\u56fd\u5730\u65b9\u6574\u5099\u5c40\u6590\u4f0a\u5ddd\u795e\u6238\u5ddd\u7dcf\u5408\u958b\u767a\u5de5\u4e8b\u4e8b\u52d9\u6240\u5de5\u52d92\u8ab2","boring_xml_url":68,"boring_view_url":1,"soilmap_view_url":null,"soiltest_xml_url":0,"soiltest_view_url":0},{"id":521794,"code":"B4KJ202201002-4330","latitude":"35.237791","longitude":"132.953711","source_code":"CG018733400200330016","project_name":"","survey_name":"\u5c3e\u539f\u30c0\u30e0\u4ed8\u66ff\u9053\u8def\u5730\u8cea\u8abf\u67fb\u696d\u52d9","client_name":"\u56fd\u571f\u4ea4\u901a\u7701\u4e2d\u56fd\u5730\u65b9\u6574\u5099\u5c40\u6590\u4f0a\u5ddd\u795e\u6238\u5ddd\u7dcf\u5408\u958b\u767a\u5de5\u4e8b\u4e8b\u52d9\u6240\u5de5\u52d92\u8ab2","boring_xml_url":68,"boring_view_url":1,"soilmap_view_url":null,"soiltest_xml_url":0,"soiltest_view_url":0},{"id":521793,"code":"B4KJ202201002-4329","latitude":"35.239791","longitude":"132.945545","source_code":"CG018733400200330015","project_name":"","survey_name":"\u5c3e\u539f\u30c0\u30e0\u4ed8\u66ff\u9053\u8def\u5730\u8cea\u8abf\u67fb\u696d\u52d9","client_name":"\u56fd\u571f\u4ea4\u901a\u7701\u4e2d\u56fd\u5730\u65b9\u6574\u5099\u5c40\u6590\u4f0a\u5ddd\u795e\u6238\u5ddd\u7dcf\u5408\u958b\u767a\u5de5\u4e8b\u4e8b\u52d9\u6240\u5de5\u52d92\u8ab2","boring_xml_url":68,"boring_view_url":1,"soilmap_view_url":null,"soiltest_xml_url":0,"soiltest_view_url":0},{"id":521792,"code":"B4KJ202201002-4328","latitude":"35.240152","longitude":"132.945934","source_code":"CG018733400200330014","project_name":"","survey_name":"\u5c3e\u539f\u30c0\u30e0\u4ed8\u66ff\u9053\u8def\u5730\u8cea\u8abf\u67fb\u696d\u52d9","client_name":"\u56fd\u571f\u4ea4\u901a\u7701\u4e2d\u56fd\u5730\u65b9\u6574\u5099\u5c40\u6590\u4f0a\u5ddd\u795e\u6238\u5ddd\u7dcf\u5408\u958b\u767a\u5de5\u4e8b\u4e8b\u52d9\u6240\u5de5\u52d92\u8ab2","boring_xml_url":68,"boring_view_url":1,"soilmap_view_url":null,"soiltest_xml_url":0,"soiltest_view_url":0},{"id":521791,"code":"B4KJ202201002-4327","latitude":"35.234486","longitude":"132.953045","source_code":"CG018733400200330013","project_name":"","survey_name":"\u5c3e\u539f\u30c0\u30e0\u4ed8\u66ff\u9053\u8def\u5730\u8cea\u8abf\u67fb\u696d\u52d9","client_name":"\u56fd\u571f\u4ea4\u901a\u7701\u4e2d\u56fd\u5730\u65b9\u6574\u5099\u5c40\u6590\u4f0a\u5ddd\u795e\u6238\u5ddd\u7dcf\u5408\u958b\u767a\u5de5\u4e8b\u4e8b\u52d9\u6240\u5de5\u52d92\u8ab2","boring_xml_url":68,"boring_view_url":1,"soilmap_view_url":null,"soiltest_xml_url":0,"soiltest_view_url":0},{"id":521790,"code":"B4KJ202201002-4326","latitude":"35.238263","longitude":"132.953461","source_code":"CG018733400200330012","project_name":"","survey_name":"\u5c3e\u539f\u30c0\u30e0\u4ed8\u66ff\u9053\u8def\u5730\u8cea\u8abf\u67fb\u696d\u52d9","client_name":"\u56fd\u571f\u4ea4\u901a\u7701\u4e2d\u56fd\u5730\u65b9\u6574\u5099\u5c40\u6590\u4f0a\u5ddd\u795e\u6238\u5ddd\u7dcf\u5408\u958b\u767a\u5de5\u4e8b\u4e8b\u52d9\u6240\u5de5\u52d92\u8ab2","boring_xml_url":68,"boring_view_url":1,"soilmap_view_url":null,"soiltest_xml_url":0,"soiltest_view_url":0},{"id":521789,"code":"B4KJ202201002-4325","latitude":"35.231431","longitude":"132.959211","source_code":"CG018733400200330011","project_name":"","survey_name":"\u5c3e\u539f\u30c0\u30e0\u4ed8\u66ff\u9053\u8def\u5730\u8cea\u8abf\u67fb\u696d\u52d9","client_name":"\u56fd\u571f\u4ea4\u901a\u7701\u4e2d\u56fd\u5730\u65b9\u6574\u5099\u5c40\u6590\u4f0a\u5ddd\u795e\u6238\u5ddd\u7dcf\u5408\u958b\u767a\u5de5\u4e8b\u4e8b\u52d9\u6240\u5de5\u52d92\u8ab2","boring_xml_url":68,"boring_view_url":1,"soilmap_view_url":null,"soiltest_xml_url":0,"soiltest_view_url":0},{"id":521788,"code":"B4KJ202201002-4324","latitude":"35.231376","longitude":"132.958961","source_code":"CG018733400200330010","project_name":"","survey_name":"\u5c3e\u539f\u30c0\u30e0\u4ed8\u66ff\u9053\u8def\u5730\u8cea\u8abf\u67fb\u696d\u52d9","client_name":"\u56fd\u571f\u4ea4\u901a\u7701\u4e2d\u56fd\u5730\u65b9\u6574\u5099\u5c40\u6590\u4f0a\u5ddd\u795e\u6238\u5ddd\u7dcf\u5408\u958b\u767a\u5de5\u4e8b\u4e8b\u52d9\u6240\u5de5\u52d92\u8ab2","boring_xml_url":68,"boring_view_url":1,"soilmap_view_url":null,"soiltest_xml_url":0,"soiltest_view_url":0},{"id":521787,"code":"B4KJ202201002-4323","latitude":"35.235373","longitude":"132.882553","source_code":"CG018733400200330009","project_name":"","survey_name":"\u5c3e\u539f\u30c0\u30e0\u4ed8\u66ff\u9053\u8def\u5730\u8cea\u8abf\u67fb\u696d\u52d9","client_name":"\u56fd\u571f\u4ea4\u901a\u7701\u4e2d\u56fd\u5730\u65b9\u6574\u5099\u5c40\u6590\u4f0a\u5ddd\u795e\u6238\u5ddd\u7dcf\u5408\u958b\u767a\u5de5\u4e8b\u4e8b\u52d9\u6240\u5de5\u52d92\u8ab2","boring_xml_url":68,"boring_view_url":1,"soilmap_view_url":null,"soiltest_xml_url":0,"soiltest_view_url":0},{"id":521786,"code":"B4KJ202201002-4322","latitude":"35.235373","longitude":"132.88158","source_code":"CG018733400200330008","project_name":"","survey_name":"\u5c3e\u539f\u30c0\u30e0\u4ed8\u66ff\u9053\u8def\u5730\u8cea\u8abf\u67fb\u696d\u52d9","client_name":"\u56fd\u571f\u4ea4\u901a\u7701\u4e2d\u56fd\u5730\u65b9\u6574\u5099\u5c40\u6590\u4f0a\u5ddd\u795e\u6238\u5ddd\u7dcf\u5408\u958b\u767a\u5de5\u4e8b\u4e8b\u52d9\u6240\u5de5\u52d92\u8ab2","boring_xml_url":68,"boring_view_url":1,"soilmap_view_url":null,"soiltest_xml_url":0,"soiltest_view_url":0},{"id":521785,"code":"B4KJ202201002-4321","latitude":"35.234818","longitude":"132.882553","source_code":"CG018733400200330007","project_name":"","survey_name":"\u5c3e\u539f\u30c0\u30e0\u4ed8\u66ff\u9053\u8def\u5730\u8cea\u8abf\u67fb\u696d\u52d9","client_name":"\u56fd\u571f\u4ea4\u901a\u7701\u4e2d\u56fd\u5730\u65b9\u6574\u5099\u5c40\u6590\u4f0a\u5ddd\u795e\u6238\u5ddd\u7dcf\u5408\u958b\u767a\u5de5\u4e8b\u4e8b\u52d9\u6240\u5de5\u52d92\u8ab2","boring_xml_url":68,"boring_view_url":1,"soilmap_view_url":null,"soiltest_xml_url":0,"soiltest_view_url":0},{"id":521784,"code":"B4KJ202201002-4320","latitude":"35.234818","longitude":"132.88158","source_code":"CG018733400200330006","project_name":"","survey_name":"\u5c3e\u539f\u30c0\u30e0\u4ed8\u66ff\u9053\u8def\u5730\u8cea\u8abf\u67fb\u696d\u52d9","client_name":"\u56fd\u571f\u4ea4\u901a\u7701\u4e2d\u56fd\u5730\u65b9\u6574\u5099\u5c40\u6590\u4f0a\u5ddd\u795e\u6238\u5ddd\u7dcf\u5408\u958b\u767a\u5de5\u4e8b\u4e8b\u52d9\u6240\u5de5\u52d92\u8ab2","boring_xml_url":68,"boring_view_url":1,"soilmap_view_url":null,"soiltest_xml_url":0,"soiltest_view_url":0},{"id":521783,"code":"B4KJ202201002-4319","latitude":"35.219265","longitude":"132.881025","source_code":"CG018733400200330005","project_name":"","survey_name":"\u5c3e\u539f\u30c0\u30e0\u4ed8\u66ff\u9053\u8def\u5730\u8cea\u8abf\u67fb\u696d\u52d9","client_name":"\u56fd\u571f\u4ea4\u901a\u7701\u4e2d\u56fd\u5730\u65b9\u6574\u5099\u5c40\u6590\u4f0a\u5ddd\u795e\u6238\u5ddd\u7dcf\u5408\u958b\u767a\u5de5\u4e8b\u4e8b\u52d9\u6240\u5de5\u52d9\u7b2c2\u8ab2","boring_xml_url":68,"boring_view_url":1,"soilmap_view_url":null,"soiltest_xml_url":0,"soiltest_view_url":0},{"id":521782,"code":"B4KJ202201002-4318","latitude":"35.219265","longitude":"132.881442","source_code":"CG018733400200330004","project_name":"","survey_name":"\u5c3e\u539f\u30c0\u30e0\u4ed8\u66ff\u9053\u8def\u5730\u8cea\u8abf\u67fb\u696d\u52d9","client_name":"\u56fd\u571f\u4ea4\u901a\u7701\u4e2d\u56fd\u5730\u65b9\u6574\u5099\u5c40\u6590\u4f0a\u5ddd\u795e\u6238\u5ddd\u7dcf\u5408\u958b\u767a\u5de5\u4e8b\u4e8b\u52d9\u6240\u5de5\u52d9\u7b2c2\u8ab2","boring_xml_url":68,"boring_view_url":1,"soilmap_view_url":null,"soiltest_xml_url":0,"soiltest_view_url":0},{"id":521781,"code":"B4KJ202201002-4317","latitude":"35.219959","longitude":"132.881025","source_code":"CG018733400200330003","project_name":"","survey_name":"\u5c3e\u539f\u30c0\u30e0\u4ed8\u66ff\u9053\u8def\u5730\u8cea\u8abf\u67fb\u696d\u52d9","client_name":"\u56fd\u571f\u4ea4\u901a\u7701\u4e2d\u56fd\u5730\u65b9\u6574\u5099\u5c40\u6590\u4f0a\u5ddd\u795e\u6238\u5ddd\u7dcf\u5408\u958b\u767a\u5de5\u4e8b\u4e8b\u52d9\u6240\u5de5\u52d9\u7b2c2\u8ab2","boring_xml_url":68,"boring_view_url":1,"soilmap_view_url":null,"soiltest_xml_url":0,"soiltest_view_url":0},{"id":521780,"code":"B4KJ202201002-4316","latitude":"35.219959","longitude":"132.881719","source_code":"CG018733400200330002","project_name":"","survey_name":"\u5c3e\u539f\u30c0\u30e0\u4ed8\u66ff\u9053\u8def\u5730\u8cea\u8abf\u67fb\u696d\u52d9","client_name":"\u56fd\u571f\u4ea4\u901a\u7701\u4e2d\u56fd\u5730\u65b9\u6574\u5099\u5c40\u6590\u4f0a\u5ddd\u795e\u6238\u5ddd\u7dcf\u5408\u958b\u767a\u5de5\u4e8b\u4e8b\u52d9\u6240\u5de5\u52d9\u7b2c2\u8ab2","boring_xml_url":68,"boring_view_url":1,"soilmap_view_url":null,"soiltest_xml_url":0,"soiltest_view_url":0},{"id":521779,"code":"B4KJ202201002-4315","latitude":"35.219681","longitude":"132.882136","source_code":"CG018733400200330001","project_name":"","survey_name":"\u5c3e\u539f\u30c0\u30e0\u4ed8\u66ff\u9053\u8def\u5730\u8cea\u8abf\u67fb\u696d\u52d9","client_name":"\u56fd\u571f\u4ea4\u901a\u7701\u4e2d\u56fd\u5730\u65b9\u6574\u5099\u5c40\u6590\u4f0a\u5ddd\u795e\u6238\u5ddd\u7dcf\u5408\u958b\u767a\u5de5\u4e8b\u4e8b\u52d9\u6240\u5de5\u52d9\u7b2c2\u8ab2","boring_xml_url":71,"boring_view_url":1,"soilmap_view_url":null,"soiltest_xml_url":0,"soiltest_view_url":0}]}}