{"header":{"xyz":{"source":[],"mosaic":false},"page":793,"raw":{"soiltest_result":"0","bbox":"57.598333,109.544722,1.933333,163.806111","page":"793"},"conditions":{"soiltest_result":0,"north":57.598333,"west":109.544722,"south":1.933333,"east":163.806111},"success":true,"message":""},"data":{"meta":{"total":212844,"page":793,"pages":7095,"count":30},"values":[{"id":521628,"code":"B4KJ202201002-4164","latitude":"35.47885","longitude":"133.466658","source_code":"CG048731610200020003","project_name":"","survey_name":"\u8d64\u7895\u5730\u533a\u4ed6\u5730\u8cea\u8abf\u67fb\u696d\u52d9","client_name":"\u56fd\u571f\u4ea4\u901a\u7701\u4e2d\u56fd\u5730\u65b9\u6574\u5099\u5c40\u5009\u5409\u6cb3\u5ddd\u56fd\u9053\u4e8b\u52d9\u6240","boring_xml_url":68,"boring_view_url":1,"soilmap_view_url":null,"soiltest_xml_url":0,"soiltest_view_url":0},{"id":521627,"code":"B4KJ202201002-4163","latitude":"35.478742","longitude":"133.467697","source_code":"CG048731610200020002","project_name":"","survey_name":"\u8d64\u7895\u5730\u533a\u4ed6\u5730\u8cea\u8abf\u67fb\u696d\u52d9","client_name":"\u56fd\u571f\u4ea4\u901a\u7701\u4e2d\u56fd\u5730\u65b9\u6574\u5099\u5c40\u5009\u5409\u6cb3\u5ddd\u56fd\u9053\u4e8b\u52d9\u6240","boring_xml_url":68,"boring_view_url":1,"soilmap_view_url":null,"soiltest_xml_url":0,"soiltest_view_url":0},{"id":521626,"code":"B4KJ202201002-4162","latitude":"35.479133","longitude":"133.467472","source_code":"CG048731610200020001","project_name":"","survey_name":"\u8d64\u7895\u5730\u533a\u4ed6\u5730\u8cea\u8abf\u67fb\u696d\u52d9","client_name":"\u56fd\u571f\u4ea4\u901a\u7701\u4e2d\u56fd\u5730\u65b9\u6574\u5099\u5c40\u5009\u5409\u6cb3\u5ddd\u56fd\u9053\u4e8b\u52d9\u6240","boring_xml_url":68,"boring_view_url":1,"soilmap_view_url":null,"soiltest_xml_url":0,"soiltest_view_url":0},{"id":521625,"code":"B4KJ202201002-4161","latitude":"35.487631","longitude":"133.704885","source_code":"CG038731610200300001","project_name":"\u6e2c\u70b9No14\uff0b28\uff0cL5.8","survey_name":"\u4e2d\u90e8\u5730\u533a\u6e2c\u91cf\u8a2d\u8a08\u696d\u52d9","client_name":"\u56fd\u571f\u4ea4\u901a\u7701\u4e2d\u56fd\u5730\u65b9\u5efa\u8a2d\u5c40\u3000\u5009\u5409\u6cb3\u5ddd\u56fd\u9053\u4e8b\u52d9\u6240","boring_xml_url":68,"boring_view_url":1,"soilmap_view_url":null,"soiltest_xml_url":0,"soiltest_view_url":0},{"id":521624,"code":"B4KJ202201002-4160","latitude":"34.233925","longitude":"132.214403","source_code":"CG038760600200270004","project_name":"","survey_name":"\u5927\u7af9\u5730\u533a\u5730\u8cea\u8abf\u67fb\u696d\u52d9","client_name":"\u56fd\u571f\u4ea4\u901a\u7701\u3000\u4e2d\u56fd\u5730\u65b9\u6574\u5099\u5c40\u3000\u5c71\u53e3\u6cb3\u5ddd\u56fd\u9053\u4e8b\u52d9\u6240","boring_xml_url":68,"boring_view_url":1,"soilmap_view_url":null,"soiltest_xml_url":0,"soiltest_view_url":0},{"id":521623,"code":"B4KJ202201002-4159","latitude":"34.23408","longitude":"132.214785","source_code":"CG038760600200270003","project_name":"","survey_name":"\u5927\u7af9\u5730\u533a\u5730\u8cea\u8abf\u67fb\u696d\u52d9","client_name":"\u56fd\u571f\u4ea4\u901a\u7701\u3000\u4e2d\u56fd\u5730\u65b9\u6574\u5099\u5c40\u3000\u5c71\u53e3\u6cb3\u5ddd\u56fd\u9053\u4e8b\u52d9\u6240","boring_xml_url":68,"boring_view_url":1,"soilmap_view_url":null,"soiltest_xml_url":0,"soiltest_view_url":0},{"id":521622,"code":"B4KJ202201002-4158","latitude":"34.23425","longitude":"132.214511","source_code":"CG038760600200270002","project_name":"","survey_name":"\u5927\u7af9\u5730\u533a\u5730\u8cea\u8abf\u67fb\u696d\u52d9","client_name":"\u56fd\u571f\u4ea4\u901a\u7701\u3000\u4e2d\u56fd\u5730\u65b9\u6574\u5099\u5c40\u3000\u5c71\u53e3\u6cb3\u5ddd\u56fd\u9053\u4e8b\u52d9\u6240","boring_xml_url":68,"boring_view_url":1,"soilmap_view_url":null,"soiltest_xml_url":0,"soiltest_view_url":0},{"id":521621,"code":"B4KJ202201002-4157","latitude":"34.240572","longitude":"132.220522","source_code":"CG038760600200270001","project_name":"","survey_name":"\u5927\u7af9\u5730\u533a\u5730\u8cea\u8abf\u67fb\u696d\u52d9","client_name":"\u56fd\u571f\u4ea4\u901a\u7701\u3000\u4e2d\u56fd\u5730\u65b9\u6574\u5099\u5c40\u3000\u5c71\u53e3\u6cb3\u5ddd\u56fd\u9053\u4e8b\u52d9\u6240","boring_xml_url":68,"boring_view_url":1,"soilmap_view_url":null,"soiltest_xml_url":0,"soiltest_view_url":0},{"id":521620,"code":"B4KJ202201002-4156","latitude":"34.073097","longitude":"131.674914","source_code":"CG038760600200210005","project_name":"\"\u4e00\u822c\u56fd\u90532\u53f7 \u6238\u7530\u62e1\u5e45\u4e8b\u696d\"","survey_name":"\u6238\u7530\u5730\u533a\u5730\u8cea\u8abf\u67fb\u696d\u52d9","client_name":"\u56fd\u571f\u4ea4\u901a\u7701\u4e2d\u56fd\u5730\u65b9\u6574\u5099\u5c40\u5c71\u53e3\u6cb3\u5ddd\u56fd\u9053\u4e8b\u52d9\u6240","boring_xml_url":68,"boring_view_url":1,"soilmap_view_url":null,"soiltest_xml_url":0,"soiltest_view_url":0},{"id":521619,"code":"B4KJ202201002-4155","latitude":"34.069708","longitude":"131.671831","source_code":"CG038760600200210004","project_name":"\"\u4e00\u822c\u56fd\u90532\u53f7 \u6238\u7530\u62e1\u5e45\u4e8b\u696d\"","survey_name":"\u6238\u7530\u5730\u533a\u5730\u8cea\u8abf\u67fb\u696d\u52d9","client_name":"\u56fd\u571f\u4ea4\u901a\u7701\u4e2d\u56fd\u5730\u65b9\u6574\u5099\u5c40\u5c71\u53e3\u6cb3\u5ddd\u56fd\u9053\u4e8b\u52d9\u6240","boring_xml_url":68,"boring_view_url":1,"soilmap_view_url":null,"soiltest_xml_url":0,"soiltest_view_url":0},{"id":521618,"code":"B4KJ202201002-4154","latitude":"34.069958","longitude":"131.671692","source_code":"CG038760600200210003","project_name":"\"\u4e00\u822c\u56fd\u90532\u53f7 \u6238\u7530\u62e1\u5e45\u4e8b\u696d\"","survey_name":"\u6238\u7530\u5730\u533a\u5730\u8cea\u8abf\u67fb\u696d\u52d9","client_name":"\u56fd\u571f\u4ea4\u901a\u7701\u4e2d\u56fd\u5730\u65b9\u6574\u5099\u5c40\u5c71\u53e3\u6cb3\u5ddd\u56fd\u9053\u4e8b\u52d9\u6240","boring_xml_url":68,"boring_view_url":1,"soilmap_view_url":null,"soiltest_xml_url":0,"soiltest_view_url":0},{"id":521617,"code":"B4KJ202201002-4153","latitude":"34.070403","longitude":"131.672498","source_code":"CG038760600200210002","project_name":"\"\u4e00\u822c\u56fd\u90532\u53f7 \u6238\u7530\u62e1\u5e45\u4e8b\u696d\"","survey_name":"\u6238\u7530\u5730\u533a\u5730\u8cea\u8abf\u67fb\u696d\u52d9","client_name":"\u56fd\u571f\u4ea4\u901a\u7701\u4e2d\u56fd\u5730\u65b9\u6574\u5099\u5c40\u5c71\u53e3\u6cb3\u5ddd\u56fd\u9053\u4e8b\u52d9\u6240","boring_xml_url":68,"boring_view_url":1,"soilmap_view_url":null,"soiltest_xml_url":0,"soiltest_view_url":0},{"id":521616,"code":"B4KJ202201002-4152","latitude":"34.075792","longitude":"131.684219","source_code":"CG038760600200210001","project_name":"\"\u4e00\u822c\u56fd\u90532\u53f7 \u6238\u7530\u62e1\u5e45\u4e8b\u696d\"","survey_name":"\u6238\u7530\u5730\u533a\u5730\u8cea\u8abf\u67fb\u696d\u52d9","client_name":"\u56fd\u571f\u4ea4\u901a\u7701\u4e2d\u56fd\u5730\u65b9\u6574\u5099\u5c40\u5c71\u53e3\u6cb3\u5ddd\u56fd\u9053\u4e8b\u52d9\u6240","boring_xml_url":68,"boring_view_url":1,"soilmap_view_url":null,"soiltest_xml_url":0,"soiltest_view_url":0},{"id":521615,"code":"B4KJ202201002-4151","latitude":"34.107785","longitude":"131.585755","source_code":"CG038760520200200016","project_name":"\u4f50\u6ce2\u5ddd\u5cea\u5830\u6539\u7bc9\u4e8b\u696d","survey_name":"\u4f50\u6ce2\u5ddd\u5948\u7f8e\u5730\u533a\u5916\u5730\u8cea\u8abf\u67fb\u696d\u52d9","client_name":"\u56fd\u571f\u4ea4\u901a\u7701\u3000\u4e2d\u56fd\u5730\u65b9\u6574\u5099\u5c40\u3000\u5c71\u53e3\u6cb3\u5ddd\u56fd\u9053\u4e8b\u52d9\u6240","boring_xml_url":68,"boring_view_url":1,"soilmap_view_url":null,"soiltest_xml_url":0,"soiltest_view_url":0},{"id":521614,"code":"B4KJ202201002-4150","latitude":"34.108785","longitude":"131.59256","source_code":"CG038760520200200015","project_name":"\u7766\u7f8e\u6a4b\u6539\u7bc9\u5de5\u4e8b","survey_name":"\u4f50\u6ce2\u5ddd\u5948\u7f8e\u5730\u533a\u5916\u5730\u8cea\u8abf\u67fb\u696d\u52d9","client_name":"\u56fd\u571f\u4ea4\u901a\u7701\u3000\u4e2d\u56fd\u5730\u65b9\u6574\u5099\u5c40\u3000\u5c71\u53e3\u6cb3\u5ddd\u56fd\u9053\u4e8b\u52d9\u6240","boring_xml_url":68,"boring_view_url":1,"soilmap_view_url":null,"soiltest_xml_url":0,"soiltest_view_url":0},{"id":521613,"code":"B4KJ202201002-4149","latitude":"34.108563","longitude":"131.592643","source_code":"CG038760520200200014","project_name":"\u7766\u7f8e\u6a4b\u6539\u7bc9\u5de5\u4e8b","survey_name":"\u4f50\u6ce2\u5ddd\u5948\u7f8e\u5730\u533a\u5916\u5730\u8cea\u8abf\u67fb\u696d\u52d9","client_name":"\u56fd\u571f\u4ea4\u901a\u7701\u3000\u4e2d\u56fd\u5730\u65b9\u6574\u5099\u5c40\u3000\u5c71\u53e3\u6cb3\u5ddd\u56fd\u9053\u4e8b\u52d9\u6240","boring_xml_url":68,"boring_view_url":1,"soilmap_view_url":null,"soiltest_xml_url":0,"soiltest_view_url":0},{"id":521612,"code":"B4KJ202201002-4148","latitude":"34.108201","longitude":"131.592615","source_code":"CG038760520200200013","project_name":"\u7766\u7f8e\u6a4b\u6539\u7bc9\u5de5\u4e8b","survey_name":"\u4f50\u6ce2\u5ddd\u5948\u7f8e\u5730\u533a\u5916\u5730\u8cea\u8abf\u67fb\u696d\u52d9","client_name":"\u56fd\u571f\u4ea4\u901a\u7701\u3000\u4e2d\u56fd\u5730\u65b9\u6574\u5099\u5c40\u3000\u5c71\u53e3\u6cb3\u5ddd\u56fd\u9053\u4e8b\u52d9\u6240","boring_xml_url":68,"boring_view_url":1,"soilmap_view_url":null,"soiltest_xml_url":0,"soiltest_view_url":0},{"id":521611,"code":"B4KJ202201002-4147","latitude":"34.107868","longitude":"131.592532","source_code":"CG038760520200200012","project_name":"\u7766\u7f8e\u6a4b\u6539\u7bc9\u5de5\u4e8b","survey_name":"\u4f50\u6ce2\u5ddd\u5948\u7f8e\u5730\u533a\u5916\u5730\u8cea\u8abf\u67fb\u696d\u52d9","client_name":"\u56fd\u571f\u4ea4\u901a\u7701\u3000\u4e2d\u56fd\u5730\u65b9\u6574\u5099\u5c40\u3000\u5c71\u53e3\u6cb3\u5ddd\u56fd\u9053\u4e8b\u52d9\u6240","boring_xml_url":68,"boring_view_url":1,"soilmap_view_url":null,"soiltest_xml_url":0,"soiltest_view_url":0},{"id":521610,"code":"B4KJ202201002-4146","latitude":"34.107535","longitude":"131.592421","source_code":"CG038760520200200011","project_name":"\u7766\u7f8e\u6a4b\u6539\u7bc9\u5de5\u4e8b","survey_name":"\u4f50\u6ce2\u5ddd\u5948\u7f8e\u5730\u533a\u5916\u5730\u8cea\u8abf\u67fb\u696d\u52d9","client_name":"\u56fd\u571f\u4ea4\u901a\u7701\u3000\u4e2d\u56fd\u5730\u65b9\u6574\u5099\u5c40\u3000\u5c71\u53e3\u6cb3\u5ddd\u56fd\u9053\u4e8b\u52d9\u6240","boring_xml_url":68,"boring_view_url":1,"soilmap_view_url":null,"soiltest_xml_url":0,"soiltest_view_url":0},{"id":521609,"code":"B4KJ202201002-4145","latitude":"34.107368","longitude":"131.592393","source_code":"CG038760520200200010","project_name":"\u7766\u7f8e\u6a4b\u6539\u7bc9\u5de5\u4e8b","survey_name":"\u4f50\u6ce2\u5ddd\u5948\u7f8e\u5730\u533a\u5916\u5730\u8cea\u8abf\u67fb\u696d\u52d9","client_name":"\u56fd\u571f\u4ea4\u901a\u7701\u3000\u4e2d\u56fd\u5730\u65b9\u6574\u5099\u5c40\u3000\u5c71\u53e3\u6cb3\u5ddd\u56fd\u9053\u4e8b\u52d9\u6240","boring_xml_url":68,"boring_view_url":1,"soilmap_view_url":null,"soiltest_xml_url":0,"soiltest_view_url":0},{"id":521608,"code":"B4KJ202201002-4144","latitude":"34.105229","longitude":"131.584144","source_code":"CG038760520200200009","project_name":"\u4f50\u6ce2\u5ddd\u5cea\u5830\u6539\u7bc9\u4e8b\u696d","survey_name":"\u4f50\u6ce2\u5ddd\u5948\u7f8e\u5730\u533a\u5916\u5730\u8cea\u8abf\u67fb\u696d\u52d9","client_name":"\u56fd\u571f\u4ea4\u901a\u7701\u3000\u4e2d\u56fd\u5730\u65b9\u6574\u5099\u5c40\u3000\u5c71\u53e3\u6cb3\u5ddd\u56fd\u9053\u4e8b\u52d9\u6240","boring_xml_url":68,"boring_view_url":1,"soilmap_view_url":null,"soiltest_xml_url":0,"soiltest_view_url":0},{"id":521607,"code":"B4KJ202201002-4143","latitude":"34.104951","longitude":"131.584116","source_code":"CG038760520200200008","project_name":"\u4f50\u6ce2\u5ddd\u5cea\u5830\u6539\u7bc9\u4e8b\u696d","survey_name":"\u4f50\u6ce2\u5ddd\u5948\u7f8e\u5730\u533a\u5916\u5730\u8cea\u8abf\u67fb\u696d\u52d9","client_name":"\u56fd\u571f\u4ea4\u901a\u7701\u3000\u4e2d\u56fd\u5730\u65b9\u6574\u5099\u5c40\u3000\u5c71\u53e3\u6cb3\u5ddd\u56fd\u9053\u4e8b\u52d9\u6240","boring_xml_url":68,"boring_view_url":1,"soilmap_view_url":null,"soiltest_xml_url":0,"soiltest_view_url":0},{"id":521606,"code":"B4KJ202201002-4142","latitude":"34.104951","longitude":"131.583977","source_code":"CG038760520200200007","project_name":"\u4f50\u6ce2\u5ddd\u5cea\u5830\u6539\u7bc9\u4e8b\u696d","survey_name":"\u4f50\u6ce2\u5ddd\u5948\u7f8e\u5730\u533a\u5916\u5730\u8cea\u8abf\u67fb\u696d\u52d9","client_name":"\u56fd\u571f\u4ea4\u901a\u7701\u3000\u4e2d\u56fd\u5730\u65b9\u6574\u5099\u5c40\u3000\u5c71\u53e3\u6cb3\u5ddd\u56fd\u9053\u4e8b\u52d9\u6240","boring_xml_url":68,"boring_view_url":1,"soilmap_view_url":null,"soiltest_xml_url":0,"soiltest_view_url":0},{"id":521605,"code":"B4KJ202201002-4141","latitude":"34.101341","longitude":"131.582116","source_code":"CG038760520200200006","project_name":"\u4f50\u6ce2\u5ddd\u5cea\u5830\u6539\u7bc9\u4e8b\u696d","survey_name":"\u4f50\u6ce2\u5ddd\u5948\u7f8e\u5730\u533a\u5916\u5730\u8cea\u8abf\u67fb\u696d\u52d9","client_name":"\u56fd\u571f\u4ea4\u901a\u7701\u3000\u4e2d\u56fd\u5730\u65b9\u6574\u5099\u5c40\u3000\u5c71\u53e3\u6cb3\u5ddd\u56fd\u9053\u4e8b\u52d9\u6240","boring_xml_url":68,"boring_view_url":1,"soilmap_view_url":null,"soiltest_xml_url":0,"soiltest_view_url":0},{"id":521604,"code":"B4KJ202201002-4140","latitude":"34.099146","longitude":"131.5797","source_code":"CG038760520200200005","project_name":"\u4f50\u6ce2\u5ddd\u5cea\u5830\u6539\u7bc9\u4e8b\u696d","survey_name":"\u4f50\u6ce2\u5ddd\u5948\u7f8e\u5730\u533a\u5916\u5730\u8cea\u8abf\u67fb\u696d\u52d9","client_name":"\u56fd\u571f\u4ea4\u901a\u7701\u3000\u4e2d\u56fd\u5730\u65b9\u6574\u5099\u5c40\u3000\u5c71\u53e3\u6cb3\u5ddd\u56fd\u9053\u4e8b\u52d9\u6240","boring_xml_url":68,"boring_view_url":1,"soilmap_view_url":null,"soiltest_xml_url":0,"soiltest_view_url":0},{"id":521603,"code":"B4KJ202201002-4139","latitude":"34.095952","longitude":"131.577395","source_code":"CG038760520200200004","project_name":"\u4f50\u6ce2\u5ddd\u5cea\u5830\u6539\u7bc9\u4e8b\u696d","survey_name":"\u4f50\u6ce2\u5ddd\u5948\u7f8e\u5730\u533a\u5916\u5730\u8cea\u8abf\u67fb\u696d\u52d9","client_name":"\u56fd\u571f\u4ea4\u901a\u7701\u3000\u4e2d\u56fd\u5730\u65b9\u6574\u5099\u5c40\u3000\u5c71\u53e3\u6cb3\u5ddd\u56fd\u9053\u4e8b\u52d9\u6240","boring_xml_url":68,"boring_view_url":1,"soilmap_view_url":null,"soiltest_xml_url":0,"soiltest_view_url":0},{"id":521602,"code":"B4KJ202201002-4138","latitude":"34.095785","longitude":"131.577395","source_code":"CG038760520200200003","project_name":"\u4f50\u6ce2\u5ddd\u5cea\u5830\u6539\u7bc9\u4e8b\u696d","survey_name":"\u4f50\u6ce2\u5ddd\u5948\u7f8e\u5730\u533a\u5916\u5730\u8cea\u8abf\u67fb\u696d\u52d9","client_name":"\u56fd\u571f\u4ea4\u901a\u7701\u3000\u4e2d\u56fd\u5730\u65b9\u6574\u5099\u5c40\u3000\u5c71\u53e3\u6cb3\u5ddd\u56fd\u9053\u4e8b\u52d9\u6240","boring_xml_url":68,"boring_view_url":1,"soilmap_view_url":null,"soiltest_xml_url":0,"soiltest_view_url":0},{"id":521601,"code":"B4KJ202201002-4137","latitude":"34.096868","longitude":"131.576728","source_code":"CG038760520200200002","project_name":"\u4f50\u6ce2\u5ddd\u5cea\u5830\u6539\u7bc9\u4e8b\u696d","survey_name":"\u4f50\u6ce2\u5ddd\u5948\u7f8e\u5730\u533a\u5916\u5730\u8cea\u8abf\u67fb\u696d\u52d9","client_name":"\u56fd\u571f\u4ea4\u901a\u7701\u3000\u4e2d\u56fd\u5730\u65b9\u6574\u5099\u5c40\u3000\u5c71\u53e3\u6cb3\u5ddd\u56fd\u9053\u4e8b\u52d9\u6240","boring_xml_url":68,"boring_view_url":1,"soilmap_view_url":null,"soiltest_xml_url":0,"soiltest_view_url":0},{"id":521600,"code":"B4KJ202201002-4136","latitude":"34.096841","longitude":"131.576506","source_code":"CG038760520200200001","project_name":"\u4f50\u6ce2\u5ddd\u5cea\u5830\u6539\u7bc9\u4e8b\u696d","survey_name":"\u4f50\u6ce2\u5ddd\u5948\u7f8e\u5730\u533a\u5916\u5730\u8cea\u8abf\u67fb\u696d\u52d9","client_name":"\u56fd\u571f\u4ea4\u901a\u7701\u3000\u4e2d\u56fd\u5730\u65b9\u6574\u5099\u5c40\u3000\u5c71\u53e3\u6cb3\u5ddd\u56fd\u9053\u4e8b\u52d9\u6240","boring_xml_url":68,"boring_view_url":1,"soilmap_view_url":null,"soiltest_xml_url":0,"soiltest_view_url":0},{"id":521599,"code":"B4KJ202201002-4135","latitude":"34.376403","longitude":"131.279097","source_code":"CG038760400200230015","project_name":"\u8429\u4e09\u9685\u9053\u8def","survey_name":"\u5e73\u621015\u5e74\u5ea6\u3000\u5c71\u53e3\u897f\u90e8\u5730\u533a\u5730\u8cea\u8abf\u67fb\u696d\u52d9","client_name":"\u56fd\u571f\u4ea4\u901a\u7701\u3000\u4e2d\u56fd\u5730\u65b9\u6574\u5099\u5c40\u3000\u5c71\u53e3\u6cb3\u5ddd\u56fd\u9053\u4e8b\u52d9\u6240","boring_xml_url":68,"boring_view_url":1,"soilmap_view_url":null,"soiltest_xml_url":0,"soiltest_view_url":0}]}}