{"header":{"xyz":{"source":[],"mosaic":false},"page":795,"raw":{"soiltest_result":"0","bbox":"57.598333,109.544722,1.933333,163.806111","page":"795"},"conditions":{"soiltest_result":0,"north":57.598333,"west":109.544722,"south":1.933333,"east":163.806111},"success":true,"message":""},"data":{"meta":{"total":212844,"page":795,"pages":7095,"count":30},"values":[{"id":521568,"code":"B4KJ202201002-4104","latitude":"34.099833","longitude":"131.5835","source_code":"CG028760520200340019","project_name":"\u4f50\u6ce2\u5ddd\u548c\u7530\u5730\u533a\u5730\u8cea\u8abf\u67fb\u696d\u52d9","survey_name":"\u4f50\u6ce2\u5ddd\u548c\u7530\u5730\u533a\u5730\u8cea\u8abf\u67fb\u696d\u52d9","client_name":"\u56fd\u571f\u4ea4\u901a\u7701\u3000\u4e2d\u56fd\u5730\u65b9\u6574\u5099\u5c40\u3000\u5c71\u53e3\u6cb3\u5ddd\u56fd\u9053\u4e8b\u52d9\u6240","boring_xml_url":68,"boring_view_url":1,"soilmap_view_url":null,"soiltest_xml_url":0,"soiltest_view_url":0},{"id":521567,"code":"B4KJ202201002-4103","latitude":"34.101694","longitude":"131.585778","source_code":"CG028760520200340018","project_name":"\u4f50\u6ce2\u5ddd\u548c\u7530\u5730\u533a\u5730\u8cea\u8abf\u67fb\u696d\u52d9","survey_name":"\u4f50\u6ce2\u5ddd\u548c\u7530\u5730\u533a\u5730\u8cea\u8abf\u67fb\u696d\u52d9","client_name":"\u56fd\u571f\u4ea4\u901a\u7701\u3000\u4e2d\u56fd\u5730\u65b9\u6574\u5099\u5c40\u3000\u5c71\u53e3\u6cb3\u5ddd\u56fd\u9053\u4e8b\u52d9\u6240","boring_xml_url":68,"boring_view_url":1,"soilmap_view_url":null,"soiltest_xml_url":0,"soiltest_view_url":0},{"id":521566,"code":"B4KJ202201002-4102","latitude":"34.10275","longitude":"131.586028","source_code":"CG028760520200340017","project_name":"\u4f50\u6ce2\u5ddd\u548c\u7530\u5730\u533a\u5730\u8cea\u8abf\u67fb\u696d\u52d9","survey_name":"\u4f50\u6ce2\u5ddd\u548c\u7530\u5730\u533a\u5730\u8cea\u8abf\u67fb\u696d\u52d9","client_name":"\u56fd\u571f\u4ea4\u901a\u7701\u3000\u4e2d\u56fd\u5730\u65b9\u6574\u5099\u5c40\u3000\u5c71\u53e3\u6cb3\u5ddd\u56fd\u9053\u4e8b\u52d9\u6240","boring_xml_url":68,"boring_view_url":1,"soilmap_view_url":null,"soiltest_xml_url":0,"soiltest_view_url":0},{"id":521565,"code":"B4KJ202201002-4101","latitude":"34.088306","longitude":"131.581083","source_code":"CG028760520200340016","project_name":"\u4f50\u6ce2\u5ddd\u548c\u7530\u5730\u533a\u5730\u8cea\u8abf\u67fb\u696d\u52d9","survey_name":"\u4f50\u6ce2\u5ddd\u548c\u7530\u5730\u533a\u5730\u8cea\u8abf\u67fb\u696d\u52d9","client_name":"\u56fd\u571f\u4ea4\u901a\u7701\u3000\u4e2d\u56fd\u5730\u65b9\u6574\u5099\u5c40\u3000\u5c71\u53e3\u6cb3\u5ddd\u56fd\u9053\u4e8b\u52d9\u6240","boring_xml_url":68,"boring_view_url":1,"soilmap_view_url":null,"soiltest_xml_url":0,"soiltest_view_url":0},{"id":521564,"code":"B4KJ202201002-4100","latitude":"34.090694","longitude":"131.58075","source_code":"CG028760520200340015","project_name":"\u4f50\u6ce2\u5ddd\u548c\u7530\u5730\u533a\u5730\u8cea\u8abf\u67fb\u696d\u52d9","survey_name":"\u4f50\u6ce2\u5ddd\u548c\u7530\u5730\u533a\u5730\u8cea\u8abf\u67fb\u696d\u52d9","client_name":"\u56fd\u571f\u4ea4\u901a\u7701\u3000\u4e2d\u56fd\u5730\u65b9\u6574\u5099\u5c40\u3000\u5c71\u53e3\u6cb3\u5ddd\u56fd\u9053\u4e8b\u52d9\u6240","boring_xml_url":68,"boring_view_url":1,"soilmap_view_url":null,"soiltest_xml_url":0,"soiltest_view_url":0},{"id":521563,"code":"B4KJ202201002-4099","latitude":"34.092889","longitude":"131.582389","source_code":"CG028760520200340014","project_name":"\u4f50\u6ce2\u5ddd\u548c\u7530\u5730\u533a\u5730\u8cea\u8abf\u67fb\u696d\u52d9","survey_name":"\u4f50\u6ce2\u5ddd\u548c\u7530\u5730\u533a\u5730\u8cea\u8abf\u67fb\u696d\u52d9","client_name":"\u56fd\u571f\u4ea4\u901a\u7701\u3000\u4e2d\u56fd\u5730\u65b9\u6574\u5099\u5c40\u3000\u5c71\u53e3\u6cb3\u5ddd\u56fd\u9053\u4e8b\u52d9\u6240","boring_xml_url":68,"boring_view_url":1,"soilmap_view_url":null,"soiltest_xml_url":0,"soiltest_view_url":0},{"id":521562,"code":"B4KJ202201002-4098","latitude":"34.094694","longitude":"131.584167","source_code":"CG028760520200340013","project_name":"\u4f50\u6ce2\u5ddd\u548c\u7530\u5730\u533a\u5730\u8cea\u8abf\u67fb\u696d\u52d9","survey_name":"\u4f50\u6ce2\u5ddd\u548c\u7530\u5730\u533a\u5730\u8cea\u8abf\u67fb\u696d\u52d9","client_name":"\u56fd\u571f\u4ea4\u901a\u7701\u3000\u4e2d\u56fd\u5730\u65b9\u6574\u5099\u5c40\u3000\u5c71\u53e3\u6cb3\u5ddd\u56fd\u9053\u4e8b\u52d9\u6240","boring_xml_url":68,"boring_view_url":1,"soilmap_view_url":null,"soiltest_xml_url":0,"soiltest_view_url":0},{"id":521561,"code":"B4KJ202201002-4097","latitude":"34.096972","longitude":"131.586333","source_code":"CG028760520200340012","project_name":"\u4f50\u6ce2\u5ddd\u548c\u7530\u5730\u533a\u5730\u8cea\u8abf\u67fb\u696d\u52d9","survey_name":"\u4f50\u6ce2\u5ddd\u548c\u7530\u5730\u533a\u5730\u8cea\u8abf\u67fb\u696d\u52d9","client_name":"\u56fd\u571f\u4ea4\u901a\u7701\u3000\u4e2d\u56fd\u5730\u65b9\u6574\u5099\u5c40\u3000\u5c71\u53e3\u6cb3\u5ddd\u56fd\u9053\u4e8b\u52d9\u6240","boring_xml_url":68,"boring_view_url":1,"soilmap_view_url":null,"soiltest_xml_url":0,"soiltest_view_url":0},{"id":521560,"code":"B4KJ202201002-4096","latitude":"34.099611","longitude":"131.587611","source_code":"CG028760520200340011","project_name":"\u4f50\u6ce2\u5ddd\u548c\u7530\u5730\u533a\u5730\u8cea\u8abf\u67fb\u696d\u52d9","survey_name":"\u4f50\u6ce2\u5ddd\u548c\u7530\u5730\u533a\u5730\u8cea\u8abf\u67fb\u696d\u52d9","client_name":"\u56fd\u571f\u4ea4\u901a\u7701\u3000\u4e2d\u56fd\u5730\u65b9\u6574\u5099\u5c40\u3000\u5c71\u53e3\u6cb3\u5ddd\u56fd\u9053\u4e8b\u52d9\u6240","boring_xml_url":68,"boring_view_url":1,"soilmap_view_url":null,"soiltest_xml_url":0,"soiltest_view_url":0},{"id":521559,"code":"B4KJ202201002-4095","latitude":"34.097111","longitude":"131.588889","source_code":"CG028760520200340010","project_name":"\u4f50\u6ce2\u5ddd\u548c\u7530\u5730\u533a\u5730\u8cea\u8abf\u67fb\u696d\u52d9","survey_name":"\u4f50\u6ce2\u5ddd\u548c\u7530\u5730\u533a\u5730\u8cea\u8abf\u67fb\u696d\u52d9","client_name":"\u56fd\u571f\u4ea4\u901a\u7701\u3000\u4e2d\u56fd\u5730\u65b9\u6574\u5099\u5c40\u3000\u5c71\u53e3\u6cb3\u5ddd\u56fd\u9053\u4e8b\u52d9\u6240","boring_xml_url":68,"boring_view_url":1,"soilmap_view_url":null,"soiltest_xml_url":0,"soiltest_view_url":0},{"id":521558,"code":"B4KJ202201002-4094","latitude":"34.100417","longitude":"131.589472","source_code":"CG028760520200340009","project_name":"\u4f50\u6ce2\u5ddd\u548c\u7530\u5730\u533a\u5730\u8cea\u8abf\u67fb\u696d\u52d9","survey_name":"\u4f50\u6ce2\u5ddd\u548c\u7530\u5730\u533a\u5730\u8cea\u8abf\u67fb\u696d\u52d9","client_name":"\u56fd\u571f\u4ea4\u901a\u7701\u3000\u4e2d\u56fd\u5730\u65b9\u6574\u5099\u5c40\u3000\u5c71\u53e3\u6cb3\u5ddd\u56fd\u9053\u4e8b\u52d9\u6240","boring_xml_url":68,"boring_view_url":1,"soilmap_view_url":null,"soiltest_xml_url":0,"soiltest_view_url":0},{"id":521557,"code":"B4KJ202201002-4093","latitude":"34.099333","longitude":"131.59025","source_code":"CG028760520200340008","project_name":"\u4f50\u6ce2\u5ddd\u548c\u7530\u5730\u533a\u5730\u8cea\u8abf\u67fb\u696d\u52d9","survey_name":"\u4f50\u6ce2\u5ddd\u548c\u7530\u5730\u533a\u5730\u8cea\u8abf\u67fb\u696d\u52d9","client_name":"\u56fd\u571f\u4ea4\u901a\u7701\u3000\u4e2d\u56fd\u5730\u65b9\u6574\u5099\u5c40\u3000\u5c71\u53e3\u6cb3\u5ddd\u56fd\u9053\u4e8b\u52d9\u6240","boring_xml_url":68,"boring_view_url":1,"soilmap_view_url":null,"soiltest_xml_url":0,"soiltest_view_url":0},{"id":521556,"code":"B4KJ202201002-4092","latitude":"34.102306","longitude":"131.589472","source_code":"CG028760520200340007","project_name":"\u4f50\u6ce2\u5ddd\u548c\u7530\u5730\u533a\u5730\u8cea\u8abf\u67fb\u696d\u52d9","survey_name":"\u4f50\u6ce2\u5ddd\u548c\u7530\u5730\u533a\u5730\u8cea\u8abf\u67fb\u696d\u52d9","client_name":"\u56fd\u571f\u4ea4\u901a\u7701\u3000\u4e2d\u56fd\u5730\u65b9\u6574\u5099\u5c40\u3000\u5c71\u53e3\u6cb3\u5ddd\u56fd\u9053\u4e8b\u52d9\u6240","boring_xml_url":68,"boring_view_url":1,"soilmap_view_url":null,"soiltest_xml_url":0,"soiltest_view_url":0},{"id":521555,"code":"B4KJ202201002-4091","latitude":"34.101278","longitude":"131.591139","source_code":"CG028760520200340006","project_name":"\u4f50\u6ce2\u5ddd\u548c\u7530\u5730\u533a\u5730\u8cea\u8abf\u67fb\u696d\u52d9","survey_name":"\u4f50\u6ce2\u5ddd\u548c\u7530\u5730\u533a\u5730\u8cea\u8abf\u67fb\u696d\u52d9","client_name":"\u56fd\u571f\u4ea4\u901a\u7701\u3000\u4e2d\u56fd\u5730\u65b9\u6574\u5099\u5c40\u3000\u5c71\u53e3\u6cb3\u5ddd\u56fd\u9053\u4e8b\u52d9\u6240","boring_xml_url":68,"boring_view_url":1,"soilmap_view_url":null,"soiltest_xml_url":0,"soiltest_view_url":0},{"id":521554,"code":"B4KJ202201002-4090","latitude":"34.104333","longitude":"131.591222","source_code":"CG028760520200340005","project_name":"\u4f50\u6ce2\u5ddd\u548c\u7530\u5730\u533a\u5730\u8cea\u8abf\u67fb\u696d\u52d9","survey_name":"\u4f50\u6ce2\u5ddd\u548c\u7530\u5730\u533a\u5730\u8cea\u8abf\u67fb\u696d\u52d9","client_name":"\u56fd\u571f\u4ea4\u901a\u7701\u3000\u4e2d\u56fd\u5730\u65b9\u6574\u5099\u5c40\u3000\u5c71\u53e3\u6cb3\u5ddd\u56fd\u9053\u4e8b\u52d9\u6240","boring_xml_url":68,"boring_view_url":1,"soilmap_view_url":null,"soiltest_xml_url":0,"soiltest_view_url":0},{"id":521553,"code":"B4KJ202201002-4089","latitude":"34.103611","longitude":"131.592861","source_code":"CG028760520200340004","project_name":"\u4f50\u6ce2\u5ddd\u548c\u7530\u5730\u533a\u5730\u8cea\u8abf\u67fb\u696d\u52d9","survey_name":"\u4f50\u6ce2\u5ddd\u548c\u7530\u5730\u533a\u5730\u8cea\u8abf\u67fb\u696d\u52d9","client_name":"\u56fd\u571f\u4ea4\u901a\u7701\u3000\u4e2d\u56fd\u5730\u65b9\u6574\u5099\u5c40\u3000\u5c71\u53e3\u6cb3\u5ddd\u56fd\u9053\u4e8b\u52d9\u6240","boring_xml_url":68,"boring_view_url":1,"soilmap_view_url":null,"soiltest_xml_url":0,"soiltest_view_url":0},{"id":521552,"code":"B4KJ202201002-4088","latitude":"34.106139","longitude":"131.59025","source_code":"CG028760520200340003","project_name":"\u4f50\u6ce2\u5ddd\u548c\u7530\u5730\u533a\u5730\u8cea\u8abf\u67fb\u696d\u52d9","survey_name":"\u4f50\u6ce2\u5ddd\u548c\u7530\u5730\u533a\u5730\u8cea\u8abf\u67fb\u696d\u52d9","client_name":"\u56fd\u571f\u4ea4\u901a\u7701\u3000\u4e2d\u56fd\u5730\u65b9\u6574\u5099\u5c40\u3000\u5c71\u53e3\u6cb3\u5ddd\u56fd\u9053\u4e8b\u52d9\u6240","boring_xml_url":68,"boring_view_url":1,"soilmap_view_url":null,"soiltest_xml_url":0,"soiltest_view_url":0},{"id":521551,"code":"B4KJ202201002-4087","latitude":"34.107806","longitude":"131.591528","source_code":"CG028760520200340002","project_name":"\u4f50\u6ce2\u5ddd\u548c\u7530\u5730\u533a\u5730\u8cea\u8abf\u67fb\u696d\u52d9","survey_name":"\u4f50\u6ce2\u5ddd\u548c\u7530\u5730\u533a\u5730\u8cea\u8abf\u67fb\u696d\u52d9","client_name":"\u56fd\u571f\u4ea4\u901a\u7701\u3000\u4e2d\u56fd\u5730\u65b9\u6574\u5099\u5c40\u3000\u5c71\u53e3\u6cb3\u5ddd\u56fd\u9053\u4e8b\u52d9\u6240","boring_xml_url":68,"boring_view_url":1,"soilmap_view_url":null,"soiltest_xml_url":0,"soiltest_view_url":0},{"id":521550,"code":"B4KJ202201002-4086","latitude":"34.10675","longitude":"131.594111","source_code":"CG028760520200340001","project_name":"\u4f50\u6ce2\u5ddd\u548c\u7530\u5730\u533a\u5730\u8cea\u8abf\u67fb\u696d\u52d9","survey_name":"\u4f50\u6ce2\u5ddd\u548c\u7530\u5730\u533a\u5730\u8cea\u8abf\u67fb\u696d\u52d9","client_name":"\u56fd\u571f\u4ea4\u901a\u7701\u3000\u4e2d\u56fd\u5730\u65b9\u6574\u5099\u5c40\u3000\u5c71\u53e3\u6cb3\u5ddd\u56fd\u9053\u4e8b\u52d9\u6240","boring_xml_url":68,"boring_view_url":1,"soilmap_view_url":null,"soiltest_xml_url":0,"soiltest_view_url":0},{"id":521549,"code":"B4KJ202201002-4085","latitude":"34.090199","longitude":"131.391191","source_code":"CG028760400200840012","project_name":"\u5c0f\u90e1\u6539\u826f\u5c0f\u90e1\u9ad8\u67b6\u6a4b\u8a73\u7d30\u8a2d\u8a08\u305d\u306e3\u696d\u52d9","survey_name":"\u5c0f\u90e1\u6539\u826f\u5c0f\u90e1\u9ad8\u67b6\u6a4b\u8a73\u7d30\u8a2d\u8a08\u305d\u306e3\u696d\u52d9","client_name":"\u56fd\u571f\u4ea4\u901a\u7701\u4e2d\u56fd\u5730\u65b9\u6574\u5099\u5c40\u5c71\u53e3\u6cb3\u5ddd\u56fd\u9053\u4e8b\u52d9\u6240","boring_xml_url":68,"boring_view_url":1,"soilmap_view_url":null,"soiltest_xml_url":0,"soiltest_view_url":0},{"id":521548,"code":"B4KJ202201002-4084","latitude":"34.090866","longitude":"131.390913","source_code":"CG028760400200840011","project_name":"\u5c0f\u90e1\u6539\u826f\u5c0f\u90e1\u9ad8\u67b6\u6a4b\u8a73\u7d30\u8a2d\u8a08\u305d\u306e3\u696d\u52d9","survey_name":"\u5c0f\u90e1\u6539\u826f\u5c0f\u90e1\u9ad8\u67b6\u6a4b\u8a73\u7d30\u8a2d\u8a08\u305d\u306e3\u696d\u52d9","client_name":"\u56fd\u571f\u4ea4\u901a\u7701\u4e2d\u56fd\u5730\u65b9\u6574\u5099\u5c40\u5c71\u53e3\u6cb3\u5ddd\u56fd\u9053\u4e8b\u52d9\u6240","boring_xml_url":68,"boring_view_url":1,"soilmap_view_url":null,"soiltest_xml_url":0,"soiltest_view_url":0},{"id":521547,"code":"B4KJ202201002-4083","latitude":"34.088949","longitude":"131.392968","source_code":"CG028760400200840009","project_name":"\u5c0f\u90e1\u6539\u826f\u5c0f\u90e1\u9ad8\u67b6\u6a4b\u8a73\u7d30\u8a2d\u8a08\u305d\u306e3\u696d\u52d9","survey_name":"\u5c0f\u90e1\u6539\u826f\u5c0f\u90e1\u9ad8\u67b6\u6a4b\u8a73\u7d30\u8a2d\u8a08\u305d\u306e3\u696d\u52d9","client_name":"\u56fd\u571f\u4ea4\u901a\u7701\u4e2d\u56fd\u5730\u65b9\u6574\u5099\u5c40\u5c71\u53e3\u6cb3\u5ddd\u56fd\u9053\u4e8b\u52d9\u6240","boring_xml_url":68,"boring_view_url":1,"soilmap_view_url":null,"soiltest_xml_url":0,"soiltest_view_url":0},{"id":521546,"code":"B4KJ202201002-4082","latitude":"34.089116","longitude":"131.392829","source_code":"CG028760400200840008","project_name":"\u5c0f\u90e1\u6539\u826f\u5c0f\u90e1\u9ad8\u67b6\u6a4b\u8a73\u7d30\u8a2d\u8a08\u305d\u306e3\u696d\u52d9","survey_name":"\u5c0f\u90e1\u6539\u826f\u5c0f\u90e1\u9ad8\u67b6\u6a4b\u8a73\u7d30\u8a2d\u8a08\u305d\u306e3\u696d\u52d9","client_name":"\u56fd\u571f\u4ea4\u901a\u7701\u4e2d\u56fd\u5730\u65b9\u6574\u5099\u5c40\u5c71\u53e3\u6cb3\u5ddd\u56fd\u9053\u4e8b\u52d9\u6240","boring_xml_url":68,"boring_view_url":1,"soilmap_view_url":null,"soiltest_xml_url":0,"soiltest_view_url":0},{"id":521545,"code":"B4KJ202201002-4081","latitude":"34.089283","longitude":"131.392691","source_code":"CG028760400200840007","project_name":"\u5c0f\u90e1\u6539\u826f\u5c0f\u90e1\u9ad8\u67b6\u6a4b\u8a73\u7d30\u8a2d\u8a08\u305d\u306e3\u696d\u52d9","survey_name":"\u5c0f\u90e1\u6539\u826f\u5c0f\u90e1\u9ad8\u67b6\u6a4b\u8a73\u7d30\u8a2d\u8a08\u305d\u306e3\u696d\u52d9","client_name":"\u56fd\u571f\u4ea4\u901a\u7701\u4e2d\u56fd\u5730\u65b9\u6574\u5099\u5c40\u5c71\u53e3\u6cb3\u5ddd\u56fd\u9053\u4e8b\u52d9\u6240","boring_xml_url":68,"boring_view_url":1,"soilmap_view_url":null,"soiltest_xml_url":0,"soiltest_view_url":0},{"id":521544,"code":"B4KJ202201002-4080","latitude":"34.089616","longitude":"131.392274","source_code":"CG028760400200840006","project_name":"\u5c0f\u90e1\u6539\u826f\u5c0f\u90e1\u9ad8\u67b6\u6a4b\u8a73\u7d30\u8a2d\u8a08\u305d\u306e3\u696d\u52d9","survey_name":"\u5c0f\u90e1\u6539\u826f\u5c0f\u90e1\u9ad8\u67b6\u6a4b\u8a73\u7d30\u8a2d\u8a08\u305d\u306e3\u696d\u52d9","client_name":"\u56fd\u571f\u4ea4\u901a\u7701\u4e2d\u56fd\u5730\u65b9\u6574\u5099\u5c40\u5c71\u53e3\u6cb3\u5ddd\u56fd\u9053\u4e8b\u52d9\u6240","boring_xml_url":68,"boring_view_url":1,"soilmap_view_url":null,"soiltest_xml_url":0,"soiltest_view_url":0},{"id":521543,"code":"B4KJ202201002-4079","latitude":"34.089866","longitude":"131.391885","source_code":"CG028760400200840005","project_name":"\u5c0f\u90e1\u6539\u826f\u5c0f\u90e1\u9ad8\u67b6\u6a4b\u8a73\u7d30\u8a2d\u8a08\u305d\u306e3\u696d\u52d9","survey_name":"\u5c0f\u90e1\u6539\u826f\u5c0f\u90e1\u9ad8\u67b6\u6a4b\u8a73\u7d30\u8a2d\u8a08\u305d\u306e3\u696d\u52d9","client_name":"\u56fd\u571f\u4ea4\u901a\u7701\u4e2d\u56fd\u5730\u65b9\u6574\u5099\u5c40\u5c71\u53e3\u6cb3\u5ddd\u56fd\u9053\u4e8b\u52d9\u6240","boring_xml_url":68,"boring_view_url":1,"soilmap_view_url":null,"soiltest_xml_url":0,"soiltest_view_url":0},{"id":521542,"code":"B4KJ202201002-4078","latitude":"34.090227","longitude":"131.391607","source_code":"CG028760400200840004","project_name":"\u5c0f\u90e1\u6539\u826f\u5c0f\u90e1\u9ad8\u67b6\u6a4b\u8a73\u7d30\u8a2d\u8a08\u305d\u306e3\u696d\u52d9","survey_name":"\u5c0f\u90e1\u6539\u826f\u5c0f\u90e1\u9ad8\u67b6\u6a4b\u8a73\u7d30\u8a2d\u8a08\u305d\u306e3\u696d\u52d9","client_name":"\u56fd\u571f\u4ea4\u901a\u7701\u4e2d\u56fd\u5730\u65b9\u6574\u5099\u5c40\u5c71\u53e3\u6cb3\u5ddd\u56fd\u9053\u4e8b\u52d9\u6240","boring_xml_url":68,"boring_view_url":1,"soilmap_view_url":null,"soiltest_xml_url":0,"soiltest_view_url":0},{"id":521541,"code":"B4KJ202201002-4077","latitude":"34.090422","longitude":"131.39133","source_code":"CG028760400200840003","project_name":"\u5c0f\u90e1\u6539\u826f\u5c0f\u90e1\u9ad8\u67b6\u6a4b\u8a73\u7d30\u8a2d\u8a08\u305d\u306e3\u696d\u52d9","survey_name":"\u5c0f\u90e1\u6539\u826f\u5c0f\u90e1\u9ad8\u67b6\u6a4b\u8a73\u7d30\u8a2d\u8a08\u305d\u306e3\u696d\u52d9","client_name":"\u56fd\u571f\u4ea4\u901a\u7701\u4e2d\u56fd\u5730\u65b9\u6574\u5099\u5c40\u5c71\u53e3\u6cb3\u5ddd\u56fd\u9053\u4e8b\u52d9\u6240","boring_xml_url":68,"boring_view_url":1,"soilmap_view_url":null,"soiltest_xml_url":0,"soiltest_view_url":0},{"id":521540,"code":"B4KJ202201002-4076","latitude":"34.090699","longitude":"131.391191","source_code":"CG028760400200840002","project_name":"\u5c0f\u90e1\u6539\u826f\u5c0f\u90e1\u9ad8\u67b6\u6a4b\u8a73\u7d30\u8a2d\u8a08\u305d\u306e3\u696d\u52d9","survey_name":"\u5c0f\u90e1\u6539\u826f\u5c0f\u90e1\u9ad8\u67b6\u6a4b\u8a73\u7d30\u8a2d\u8a08\u305d\u306e3\u696d\u52d9","client_name":"\u56fd\u571f\u4ea4\u901a\u7701\u4e2d\u56fd\u5730\u65b9\u6574\u5099\u5c40\u5c71\u53e3\u6cb3\u5ddd\u56fd\u9053\u4e8b\u52d9\u6240","boring_xml_url":68,"boring_view_url":1,"soilmap_view_url":null,"soiltest_xml_url":0,"soiltest_view_url":0},{"id":521539,"code":"B4KJ202201002-4075","latitude":"34.090921","longitude":"131.390913","source_code":"CG028760400200840001","project_name":"\u5c0f\u90e1\u6539\u826f\u5c0f\u90e1\u9ad8\u67b6\u6a4b\u8a73\u7d30\u8a2d\u8a08\u305d\u306e3\u696d\u52d9","survey_name":"\u5c0f\u90e1\u6539\u826f\u5c0f\u90e1\u9ad8\u67b6\u6a4b\u8a73\u7d30\u8a2d\u8a08\u305d\u306e3\u696d\u52d9","client_name":"\u56fd\u571f\u4ea4\u901a\u7701\u4e2d\u56fd\u5730\u65b9\u6574\u5099\u5c40\u5c71\u53e3\u6cb3\u5ddd\u56fd\u9053\u4e8b\u52d9\u6240","boring_xml_url":68,"boring_view_url":1,"soilmap_view_url":null,"soiltest_xml_url":0,"soiltest_view_url":0}]}}