{"header":{"xyz":{"source":[],"mosaic":false},"page":80,"raw":{"soiltest_result":"0","bbox":"57.598333,109.544722,1.933333,163.806111","page":"80"},"conditions":{"soiltest_result":0,"north":57.598333,"west":109.544722,"south":1.933333,"east":163.806111},"success":true,"message":""},"data":{"meta":{"total":212844,"page":80,"pages":7095,"count":30},"values":[{"id":695537,"code":"NGIC202304388-0012","latitude":"33.562086111111","longitude":"134.29171666667","source_code":"","project_name":"","survey_name":"\u4ee4\u548c5\u5e74\u5ea6\u6d77\u90e8\u91ce\u6839\u9053\u8def\uff08\u65e5\u6bd4\u539f\u5730\u533a\u5916\uff09\u5730\u8cea\u8abf\u67fb\u696d\u52d9","client_name":"\u56fd\u571f\u4ea4\u901a\u7701\u56db\u56fd\u5730\u65b9\u6574\u5099\u5c40\u5fb3\u5cf6\u6cb3\u5ddd\u56fd\u9053\u4e8b\u52d9\u6240","boring_xml_url":47,"boring_view_url":1,"soilmap_view_url":null,"soiltest_xml_url":47,"soiltest_view_url":47},{"id":695536,"code":"NGIC202304388-0011","latitude":"33.565413888889","longitude":"134.294075","source_code":"","project_name":"","survey_name":"\u4ee4\u548c5\u5e74\u5ea6\u6d77\u90e8\u91ce\u6839\u9053\u8def\uff08\u65e5\u6bd4\u539f\u5730\u533a\u5916\uff09\u5730\u8cea\u8abf\u67fb\u696d\u52d9","client_name":"\u56fd\u571f\u4ea4\u901a\u7701\u56db\u56fd\u5730\u65b9\u6574\u5099\u5c40\u5fb3\u5cf6\u6cb3\u5ddd\u56fd\u9053\u4e8b\u52d9\u6240","boring_xml_url":47,"boring_view_url":1,"soilmap_view_url":null,"soiltest_xml_url":47,"soiltest_view_url":47},{"id":695535,"code":"NGIC202304388-0010","latitude":"33.565413888889","longitude":"134.29409166667","source_code":"","project_name":"","survey_name":"\u4ee4\u548c5\u5e74\u5ea6\u6d77\u90e8\u91ce\u6839\u9053\u8def\uff08\u65e5\u6bd4\u539f\u5730\u533a\u5916\uff09\u5730\u8cea\u8abf\u67fb\u696d\u52d9","client_name":"\u56fd\u571f\u4ea4\u901a\u7701\u56db\u56fd\u5730\u65b9\u6574\u5099\u5c40\u5fb3\u5cf6\u6cb3\u5ddd\u56fd\u9053\u4e8b\u52d9\u6240","boring_xml_url":47,"boring_view_url":1,"soilmap_view_url":null,"soiltest_xml_url":47,"soiltest_view_url":47},{"id":695534,"code":"NGIC202304388-0009","latitude":"33.565391666667","longitude":"134.29446111111","source_code":"","project_name":"","survey_name":"\u4ee4\u548c5\u5e74\u5ea6\u6d77\u90e8\u91ce\u6839\u9053\u8def\uff08\u65e5\u6bd4\u539f\u5730\u533a\u5916\uff09\u5730\u8cea\u8abf\u67fb\u696d\u52d9","client_name":"\u56fd\u571f\u4ea4\u901a\u7701\u56db\u56fd\u5730\u65b9\u6574\u5099\u5c40\u5fb3\u5cf6\u6cb3\u5ddd\u56fd\u9053\u4e8b\u52d9\u6240","boring_xml_url":47,"boring_view_url":1,"soilmap_view_url":null,"soiltest_xml_url":47,"soiltest_view_url":47},{"id":695533,"code":"NGIC202304388-0008","latitude":"33.566377777778","longitude":"134.29481666667","source_code":"","project_name":"","survey_name":"\u4ee4\u548c5\u5e74\u5ea6\u6d77\u90e8\u91ce\u6839\u9053\u8def\uff08\u65e5\u6bd4\u539f\u5730\u533a\u5916\uff09\u5730\u8cea\u8abf\u67fb\u696d\u52d9","client_name":"\u56fd\u571f\u4ea4\u901a\u7701\u56db\u56fd\u5730\u65b9\u6574\u5099\u5c40\u5fb3\u5cf6\u6cb3\u5ddd\u56fd\u9053\u4e8b\u52d9\u6240","boring_xml_url":47,"boring_view_url":1,"soilmap_view_url":null,"soiltest_xml_url":47,"soiltest_view_url":47},{"id":695532,"code":"NGIC202304388-0007","latitude":"33.566383333333","longitude":"134.29480277778","source_code":"","project_name":"","survey_name":"\u4ee4\u548c5\u5e74\u5ea6\u6d77\u90e8\u91ce\u6839\u9053\u8def\uff08\u65e5\u6bd4\u539f\u5730\u533a\u5916\uff09\u5730\u8cea\u8abf\u67fb\u696d\u52d9","client_name":"\u56fd\u571f\u4ea4\u901a\u7701\u56db\u56fd\u5730\u65b9\u6574\u5099\u5c40\u5fb3\u5cf6\u6cb3\u5ddd\u56fd\u9053\u4e8b\u52d9\u6240","boring_xml_url":47,"boring_view_url":1,"soilmap_view_url":null,"soiltest_xml_url":47,"soiltest_view_url":47},{"id":695531,"code":"NGIC202304388-0006","latitude":"33.56605","longitude":"134.29534166667","source_code":"","project_name":"","survey_name":"\u4ee4\u548c5\u5e74\u5ea6\u6d77\u90e8\u91ce\u6839\u9053\u8def\uff08\u65e5\u6bd4\u539f\u5730\u533a\u5916\uff09\u5730\u8cea\u8abf\u67fb\u696d\u52d9","client_name":"\u56fd\u571f\u4ea4\u901a\u7701\u56db\u56fd\u5730\u65b9\u6574\u5099\u5c40\u5fb3\u5cf6\u6cb3\u5ddd\u56fd\u9053\u4e8b\u52d9\u6240","boring_xml_url":47,"boring_view_url":1,"soilmap_view_url":null,"soiltest_xml_url":47,"soiltest_view_url":47},{"id":695530,"code":"NGIC202304388-0005","latitude":"33.567991666667","longitude":"134.296375","source_code":"","project_name":"","survey_name":"\u4ee4\u548c5\u5e74\u5ea6\u6d77\u90e8\u91ce\u6839\u9053\u8def\uff08\u65e5\u6bd4\u539f\u5730\u533a\u5916\uff09\u5730\u8cea\u8abf\u67fb\u696d\u52d9","client_name":"\u56fd\u571f\u4ea4\u901a\u7701\u56db\u56fd\u5730\u65b9\u6574\u5099\u5c40\u5fb3\u5cf6\u6cb3\u5ddd\u56fd\u9053\u4e8b\u52d9\u6240","boring_xml_url":47,"boring_view_url":1,"soilmap_view_url":null,"soiltest_xml_url":47,"soiltest_view_url":47},{"id":695529,"code":"NGIC202304388-0004","latitude":"33.568002777778","longitude":"134.29638333333","source_code":"","project_name":"","survey_name":"\u4ee4\u548c5\u5e74\u5ea6\u6d77\u90e8\u91ce\u6839\u9053\u8def\uff08\u65e5\u6bd4\u539f\u5730\u533a\u5916\uff09\u5730\u8cea\u8abf\u67fb\u696d\u52d9","client_name":"\u56fd\u571f\u4ea4\u901a\u7701\u56db\u56fd\u5730\u65b9\u6574\u5099\u5c40\u5fb3\u5cf6\u6cb3\u5ddd\u56fd\u9053\u4e8b\u52d9\u6240","boring_xml_url":47,"boring_view_url":1,"soilmap_view_url":null,"soiltest_xml_url":47,"soiltest_view_url":47},{"id":695528,"code":"NGIC202304388-0003","latitude":"33.567563888889","longitude":"134.29701666667","source_code":"","project_name":"","survey_name":"\u4ee4\u548c5\u5e74\u5ea6\u6d77\u90e8\u91ce\u6839\u9053\u8def\uff08\u65e5\u6bd4\u539f\u5730\u533a\u5916\uff09\u5730\u8cea\u8abf\u67fb\u696d\u52d9","client_name":"\u56fd\u571f\u4ea4\u901a\u7701\u56db\u56fd\u5730\u65b9\u6574\u5099\u5c40\u5fb3\u5cf6\u6cb3\u5ddd\u56fd\u9053\u4e8b\u52d9\u6240","boring_xml_url":47,"boring_view_url":1,"soilmap_view_url":null,"soiltest_xml_url":47,"soiltest_view_url":47},{"id":695527,"code":"NGIC202304388-0002","latitude":"33.567575","longitude":"134.297025","source_code":"","project_name":"","survey_name":"\u4ee4\u548c5\u5e74\u5ea6\u6d77\u90e8\u91ce\u6839\u9053\u8def\uff08\u65e5\u6bd4\u539f\u5730\u533a\u5916\uff09\u5730\u8cea\u8abf\u67fb\u696d\u52d9","client_name":"\u56fd\u571f\u4ea4\u901a\u7701\u56db\u56fd\u5730\u65b9\u6574\u5099\u5c40\u5fb3\u5cf6\u6cb3\u5ddd\u56fd\u9053\u4e8b\u52d9\u6240","boring_xml_url":47,"boring_view_url":1,"soilmap_view_url":null,"soiltest_xml_url":47,"soiltest_view_url":47},{"id":695526,"code":"NGIC202304388-0001","latitude":"33.571452777778","longitude":"134.30085","source_code":"","project_name":"","survey_name":"\u4ee4\u548c5\u5e74\u5ea6\u6d77\u90e8\u91ce\u6839\u9053\u8def\uff08\u65e5\u6bd4\u539f\u5730\u533a\u5916\uff09\u5730\u8cea\u8abf\u67fb\u696d\u52d9","client_name":"\u56fd\u571f\u4ea4\u901a\u7701\u56db\u56fd\u5730\u65b9\u6574\u5099\u5c40\u5fb3\u5cf6\u6cb3\u5ddd\u56fd\u9053\u4e8b\u52d9\u6240","boring_xml_url":47,"boring_view_url":1,"soilmap_view_url":null,"soiltest_xml_url":0,"soiltest_view_url":0},{"id":695517,"code":"NGIC202304370-0005","latitude":"34.985505027778","longitude":"132.49333291667","source_code":"","project_name":"","survey_name":"\u4ee4\u548c5\u5e74\u5ea6 \u6c5f\u306e\u5ddd\u7ba1\u5185\u5730\u8cea\u8abf\u67fb \u305d\u306e2\u696d\u52d9","client_name":"\u56fd\u571f\u4ea4\u901a\u7701\u4e2d\u56fd\u5730\u65b9\u6574\u5099\u5c40\u6d5c\u7530\u6cb3\u5ddd\u56fd\u9053\u4e8b\u52d9\u6240","boring_xml_url":47,"boring_view_url":1,"soilmap_view_url":null,"soiltest_xml_url":47,"soiltest_view_url":47},{"id":695516,"code":"NGIC202304370-0004","latitude":"34.985200972222","longitude":"132.49308277778","source_code":"","project_name":"","survey_name":"\u4ee4\u548c5\u5e74\u5ea6 \u6c5f\u306e\u5ddd\u7ba1\u5185\u5730\u8cea\u8abf\u67fb \u305d\u306e2\u696d\u52d9","client_name":"\u56fd\u571f\u4ea4\u901a\u7701\u4e2d\u56fd\u5730\u65b9\u6574\u5099\u5c40\u6d5c\u7530\u6cb3\u5ddd\u56fd\u9053\u4e8b\u52d9\u6240","boring_xml_url":47,"boring_view_url":1,"soilmap_view_url":null,"soiltest_xml_url":47,"soiltest_view_url":47},{"id":695515,"code":"NGIC202304370-0003","latitude":"34.986242388889","longitude":"132.49214388889","source_code":"","project_name":"","survey_name":"\u4ee4\u548c5\u5e74\u5ea6 \u6c5f\u306e\u5ddd\u7ba1\u5185\u5730\u8cea\u8abf\u67fb \u305d\u306e2\u696d\u52d9","client_name":"\u56fd\u571f\u4ea4\u901a\u7701\u4e2d\u56fd\u5730\u65b9\u6574\u5099\u5c40\u6d5c\u7530\u6cb3\u5ddd\u56fd\u9053\u4e8b\u52d9\u6240","boring_xml_url":47,"boring_view_url":1,"soilmap_view_url":null,"soiltest_xml_url":47,"soiltest_view_url":47},{"id":695514,"code":"NGIC202304370-0002","latitude":"34.986045972222","longitude":"132.49254372222","source_code":"","project_name":"","survey_name":"\u4ee4\u548c5\u5e74\u5ea6 \u6c5f\u306e\u5ddd\u7ba1\u5185\u5730\u8cea\u8abf\u67fb \u305d\u306e2\u696d\u52d9","client_name":"\u56fd\u571f\u4ea4\u901a\u7701\u4e2d\u56fd\u5730\u65b9\u6574\u5099\u5c40\u6d5c\u7530\u6cb3\u5ddd\u56fd\u9053\u4e8b\u52d9\u6240","boring_xml_url":47,"boring_view_url":1,"soilmap_view_url":null,"soiltest_xml_url":47,"soiltest_view_url":47},{"id":695513,"code":"NGIC202304370-0001","latitude":"34.985077111111","longitude":"132.49260583333","source_code":"","project_name":"","survey_name":"\u4ee4\u548c5\u5e74\u5ea6 \u6c5f\u306e\u5ddd\u7ba1\u5185\u5730\u8cea\u8abf\u67fb \u305d\u306e2\u696d\u52d9","client_name":"\u56fd\u571f\u4ea4\u901a\u7701\u4e2d\u56fd\u5730\u65b9\u6574\u5099\u5c40\u6d5c\u7530\u6cb3\u5ddd\u56fd\u9053\u4e8b\u52d9\u6240","boring_xml_url":47,"boring_view_url":1,"soilmap_view_url":null,"soiltest_xml_url":47,"soiltest_view_url":47},{"id":695512,"code":"NGIC202304485-0010","latitude":"35.524280555556","longitude":"138.08468611111","source_code":"","project_name":"\u91dc\u6ca2\u7b2c3\u7802\u9632\u5830\u5824\u7ba1\u7406\u7528\u9053\u8def","survey_name":"\u4ee4\u548c5\u5e74\u5ea6 \u5929\u7adc\u5ddd\u6c34\u7cfb\u4e0b\u4f0a\u90a3\u7ba1\u5185\u5730\u8cea\u8abf\u67fb\u696d\u52d9","client_name":"\u56fd\u571f\u4ea4\u901a\u7701\u4e2d\u90e8\u5730\u65b9\u6574\u5099\u5c40\u5929\u7adc\u5ddd\u4e0a\u6d41\u6cb3\u5ddd\u4e8b\u52d9\u6240","boring_xml_url":47,"boring_view_url":1,"soilmap_view_url":null,"soiltest_xml_url":0,"soiltest_view_url":0},{"id":695511,"code":"NGIC202304485-0009","latitude":"35.524425","longitude":"138.08443611111","source_code":"","project_name":"\u91dc\u6ca2\u7b2c3\u7802\u9632\u5830\u5824\u7ba1\u7406\u7528\u9053\u8def","survey_name":"\u4ee4\u548c5\u5e74\u5ea6 \u5929\u7adc\u5ddd\u6c34\u7cfb\u4e0b\u4f0a\u90a3\u7ba1\u5185\u5730\u8cea\u8abf\u67fb\u696d\u52d9","client_name":"\u56fd\u571f\u4ea4\u901a\u7701\u4e2d\u90e8\u5730\u65b9\u6574\u5099\u5c40\u5929\u7adc\u5ddd\u4e0a\u6d41\u6cb3\u5ddd\u4e8b\u52d9\u6240","boring_xml_url":47,"boring_view_url":1,"soilmap_view_url":null,"soiltest_xml_url":0,"soiltest_view_url":0},{"id":695510,"code":"NGIC202304485-0008","latitude":"35.525166666667","longitude":"138.08331111111","source_code":"","project_name":"\u91dc\u6ca2\u7b2c3\u7802\u9632\u5830\u5824\u7ba1\u7406\u7528\u9053\u8def","survey_name":"\u4ee4\u548c5\u5e74\u5ea6 \u5929\u7adc\u5ddd\u6c34\u7cfb\u4e0b\u4f0a\u90a3\u7ba1\u5185\u5730\u8cea\u8abf\u67fb\u696d\u52d9","client_name":"\u56fd\u571f\u4ea4\u901a\u7701\u4e2d\u90e8\u5730\u65b9\u6574\u5099\u5c40\u5929\u7adc\u5ddd\u4e0a\u6d41\u6cb3\u5ddd\u4e8b\u52d9\u6240","boring_xml_url":47,"boring_view_url":1,"soilmap_view_url":null,"soiltest_xml_url":0,"soiltest_view_url":0},{"id":695509,"code":"NGIC202304485-0007","latitude":"35.525633333333","longitude":"138.08363888889","source_code":"","project_name":"\u91dc\u6ca2\u7b2c3\u7802\u9632\u5830\u5824\u7ba1\u7406\u7528\u9053\u8def","survey_name":"\u4ee4\u548c5\u5e74\u5ea6 \u5929\u7adc\u5ddd\u6c34\u7cfb\u4e0b\u4f0a\u90a3\u7ba1\u5185\u5730\u8cea\u8abf\u67fb\u696d\u52d9","client_name":"\u56fd\u571f\u4ea4\u901a\u7701\u4e2d\u90e8\u5730\u65b9\u6574\u5099\u5c40\u5929\u7adc\u5ddd\u4e0a\u6d41\u6cb3\u5ddd\u4e8b\u52d9\u6240","boring_xml_url":47,"boring_view_url":1,"soilmap_view_url":null,"soiltest_xml_url":0,"soiltest_view_url":0},{"id":695508,"code":"NGIC202304485-0006","latitude":"35.524511111111","longitude":"138.08339166667","source_code":"","project_name":"\u91dc\u6ca2\u7b2c3\u7802\u9632\u5830\u5824\u7ba1\u7406\u7528\u9053\u8def","survey_name":"\u4ee4\u548c5\u5e74\u5ea6 \u5929\u7adc\u5ddd\u6c34\u7cfb\u4e0b\u4f0a\u90a3\u7ba1\u5185\u5730\u8cea\u8abf\u67fb\u696d\u52d9","client_name":"\u56fd\u571f\u4ea4\u901a\u7701\u4e2d\u90e8\u5730\u65b9\u6574\u5099\u5c40\u5929\u7adc\u5ddd\u4e0a\u6d41\u6cb3\u5ddd\u4e8b\u52d9\u6240","boring_xml_url":47,"boring_view_url":1,"soilmap_view_url":null,"soiltest_xml_url":0,"soiltest_view_url":0},{"id":695507,"code":"NGIC202304485-0005","latitude":"35.524955555556","longitude":"138.08397777778","source_code":"","project_name":"\u91dc\u6ca2\u7b2c3\u7802\u9632\u5830\u5824\u7ba1\u7406\u7528\u9053\u8def","survey_name":"\u4ee4\u548c5\u5e74\u5ea6 \u5929\u7adc\u5ddd\u6c34\u7cfb\u4e0b\u4f0a\u90a3\u7ba1\u5185\u5730\u8cea\u8abf\u67fb\u696d\u52d9","client_name":"\u56fd\u571f\u4ea4\u901a\u7701\u4e2d\u90e8\u5730\u65b9\u6574\u5099\u5c40\u5929\u7adc\u5ddd\u4e0a\u6d41\u6cb3\u5ddd\u4e8b\u52d9\u6240","boring_xml_url":47,"boring_view_url":1,"soilmap_view_url":null,"soiltest_xml_url":0,"soiltest_view_url":0},{"id":695506,"code":"NGIC202304485-0004","latitude":"35.525494444444","longitude":"138.08438055556","source_code":"","project_name":"\u91dc\u6ca2\u7b2c3\u7802\u9632\u5830\u5824\u7ba1\u7406\u7528\u9053\u8def","survey_name":"\u4ee4\u548c5\u5e74\u5ea6 \u5929\u7adc\u5ddd\u6c34\u7cfb\u4e0b\u4f0a\u90a3\u7ba1\u5185\u5730\u8cea\u8abf\u67fb\u696d\u52d9","client_name":"\u56fd\u571f\u4ea4\u901a\u7701\u4e2d\u90e8\u5730\u65b9\u6574\u5099\u5c40\u5929\u7adc\u5ddd\u4e0a\u6d41\u6cb3\u5ddd\u4e8b\u52d9\u6240","boring_xml_url":47,"boring_view_url":1,"soilmap_view_url":null,"soiltest_xml_url":0,"soiltest_view_url":0},{"id":695505,"code":"NGIC202304485-0003","latitude":"35.437758333333","longitude":"137.99373055556","source_code":"","project_name":"\u5c0f\u6ca2\u5ddd\u7802\u9632\u5830\u5824\u5de5\u4e8b\u7528\u9053\u8def","survey_name":"\u4ee4\u548c5\u5e74\u5ea6 \u5929\u7adc\u5ddd\u6c34\u7cfb\u4e0b\u4f0a\u90a3\u7ba1\u5185\u5730\u8cea\u8abf\u67fb\u696d\u52d9","client_name":"\u56fd\u571f\u4ea4\u901a\u7701\u4e2d\u90e8\u5730\u65b9\u6574\u5099\u5c40\u5929\u7adc\u5ddd\u4e0a\u6d41\u6cb3\u5ddd\u4e8b\u52d9\u6240","boring_xml_url":47,"boring_view_url":1,"soilmap_view_url":null,"soiltest_xml_url":0,"soiltest_view_url":0},{"id":695504,"code":"NGIC202304485-0002","latitude":"35.438097222222","longitude":"137.99337777778","source_code":"","project_name":"\u5c0f\u6ca2\u5ddd\u7802\u9632\u5830\u5824\u5de5\u4e8b\u7528\u9053\u8def","survey_name":"\u4ee4\u548c5\u5e74\u5ea6 \u5929\u7adc\u5ddd\u6c34\u7cfb\u4e0b\u4f0a\u90a3\u7ba1\u5185\u5730\u8cea\u8abf\u67fb\u696d\u52d9","client_name":"\u56fd\u571f\u4ea4\u901a\u7701\u4e2d\u90e8\u5730\u65b9\u6574\u5099\u5c40\u5929\u7adc\u5ddd\u4e0a\u6d41\u6cb3\u5ddd\u4e8b\u52d9\u6240","boring_xml_url":47,"boring_view_url":1,"soilmap_view_url":null,"soiltest_xml_url":0,"soiltest_view_url":0},{"id":695503,"code":"NGIC202304485-0001","latitude":"35.438544444444","longitude":"137.99284444444","source_code":"","project_name":"\u5c0f\u6ca2\u5ddd\u7802\u9632\u5830\u5824\u5de5\u4e8b\u7528\u9053\u8def","survey_name":"\u4ee4\u548c5\u5e74\u5ea6 \u5929\u7adc\u5ddd\u6c34\u7cfb\u4e0b\u4f0a\u90a3\u7ba1\u5185\u5730\u8cea\u8abf\u67fb\u696d\u52d9","client_name":"\u56fd\u571f\u4ea4\u901a\u7701\u4e2d\u90e8\u5730\u65b9\u6574\u5099\u5c40\u5929\u7adc\u5ddd\u4e0a\u6d41\u6cb3\u5ddd\u4e8b\u52d9\u6240","boring_xml_url":47,"boring_view_url":1,"soilmap_view_url":null,"soiltest_xml_url":0,"soiltest_view_url":0},{"id":695496,"code":"NGIC202304248-0008","latitude":"31.718611638889","longitude":"131.45974691667","source_code":"","project_name":"","survey_name":"\u4ee4\u548c5\u5e74\u5ea6\u65e5\u5357\u9632\u707d\u5730\u8cea\u8abf\u67fb\u696d\u52d9","client_name":"\u56fd\u571f\u4ea4\u901a\u7701\u4e5d\u5dde\u5730\u65b9\u6574\u5099\u5c40\u5bae\u5d0e\u6cb3\u5ddd\u56fd\u9053\u4e8b\u52d9\u6240","boring_xml_url":47,"boring_view_url":1,"soilmap_view_url":null,"soiltest_xml_url":0,"soiltest_view_url":0},{"id":695495,"code":"NGIC202304248-0007","latitude":"31.718933666667","longitude":"131.45984075","source_code":"","project_name":"","survey_name":"\u4ee4\u548c5\u5e74\u5ea6\u65e5\u5357\u9632\u707d\u5730\u8cea\u8abf\u67fb\u696d\u52d9","client_name":"\u56fd\u571f\u4ea4\u901a\u7701\u4e5d\u5dde\u5730\u65b9\u6574\u5099\u5c40\u5bae\u5d0e\u6cb3\u5ddd\u56fd\u9053\u4e8b\u52d9\u6240","boring_xml_url":47,"boring_view_url":1,"soilmap_view_url":null,"soiltest_xml_url":0,"soiltest_view_url":0},{"id":695494,"code":"NGIC202304248-0006","latitude":"31.667626416667","longitude":"131.45128544444","source_code":"","project_name":"","survey_name":"\u4ee4\u548c5\u5e74\u5ea6\u65e5\u5357\u9632\u707d\u5730\u8cea\u8abf\u67fb\u696d\u52d9","client_name":"\u56fd\u571f\u4ea4\u901a\u7701\u4e5d\u5dde\u5730\u65b9\u6574\u5099\u5c40\u5bae\u5d0e\u6cb3\u5ddd\u56fd\u9053\u4e8b\u52d9\u6240","boring_xml_url":47,"boring_view_url":1,"soilmap_view_url":null,"soiltest_xml_url":0,"soiltest_view_url":0}]}}