{"header":{"xyz":{"source":[],"mosaic":false},"page":801,"raw":{"soiltest_result":"0","bbox":"57.598333,109.544722,1.933333,163.806111","page":"801"},"conditions":{"soiltest_result":0,"north":57.598333,"west":109.544722,"south":1.933333,"east":163.806111},"success":true,"message":""},"data":{"meta":{"total":212844,"page":801,"pages":7095,"count":30},"values":[{"id":521388,"code":"B4KJ202201002-3924","latitude":"34.388875","longitude":"132.445239","source_code":"CG038753410200320004","project_name":"\u5929\u6e80\u5ddd\u821f\u5165\u30fb\u6771\u89b3\u97f3\u5730\u533a\u9ad8\u6f6e\u5824\u9632\u8a73\u7d30\u8a2d\u8a08\u696d\u52d9","survey_name":"\u5929\u6e80\u5ddd\u821f\u5165\u30fb\u6771\u89b3\u97f3\u5730\u533a\u9ad8\u6f6e\u5824\u9632\u8a73\u7d30\u8a2d\u8a08\u696d\u52d9","client_name":"\u56fd\u571f\u4ea4\u901a\u7701\u4e2d\u56fd\u5730\u65b9\u6574\u5099\u5c40\u592a\u7530\u5ddd\u6cb3\u5ddd\u4e8b\u52d9\u6240","boring_xml_url":68,"boring_view_url":1,"soilmap_view_url":null,"soiltest_xml_url":0,"soiltest_view_url":0},{"id":521387,"code":"B4KJ202201002-3923","latitude":"34.388763","longitude":"132.446177","source_code":"CG038753410200320003","project_name":"\u5929\u6e80\u5ddd\u821f\u5165\u30fb\u6771\u89b3\u97f3\u5730\u533a\u9ad8\u6f6e\u5824\u9632\u8a73\u7d30\u8a2d\u8a08\u696d\u52d9","survey_name":"\u5929\u6e80\u5ddd\u821f\u5165\u30fb\u6771\u89b3\u97f3\u5730\u533a\u9ad8\u6f6e\u5824\u9632\u8a73\u7d30\u8a2d\u8a08\u696d\u52d9","client_name":"\u56fd\u571f\u4ea4\u901a\u7701\u4e2d\u56fd\u5730\u65b9\u6574\u5099\u5c40\u592a\u7530\u5ddd\u6cb3\u5ddd\u4e8b\u52d9\u6240","boring_xml_url":68,"boring_view_url":1,"soilmap_view_url":null,"soiltest_xml_url":0,"soiltest_view_url":0},{"id":521386,"code":"B4KJ202201002-3922","latitude":"34.387172","longitude":"132.444878","source_code":"CG038753410200320002","project_name":"\u5929\u6e80\u5ddd\u821f\u5165\u30fb\u6771\u89b3\u97f3\u5730\u533a\u9ad8\u6f6e\u5824\u9632\u8a73\u7d30\u8a2d\u8a08\u696d\u52d9","survey_name":"\u5929\u6e80\u5ddd\u821f\u5165\u30fb\u6771\u89b3\u97f3\u5730\u533a\u9ad8\u6f6e\u5824\u9632\u8a73\u7d30\u8a2d\u8a08\u696d\u52d9","client_name":"\u56fd\u571f\u4ea4\u901a\u7701\u4e2d\u56fd\u5730\u65b9\u6574\u5099\u5c40\u592a\u7530\u5ddd\u6cb3\u5ddd\u4e8b\u52d9\u6240","boring_xml_url":68,"boring_view_url":1,"soilmap_view_url":null,"soiltest_xml_url":0,"soiltest_view_url":0},{"id":521385,"code":"B4KJ202201002-3921","latitude":"34.375189","longitude":"132.429983","source_code":"CG038753410200280003","project_name":"","survey_name":"\u592a\u7530\u5ddd\u5e02\u5185\u6d3e\u5ddd\u8abf\u67fb\u8a2d\u8a08\u696d\u52d9","client_name":"\u56fd\u571f\u4ea4\u901a\u7701\u4e2d\u56fd\u5730\u65b9\u6574\u5099\u5c40\u592a\u7530\u5ddd\u6cb3\u5ddd\u4e8b\u52d9\u6240","boring_xml_url":68,"boring_view_url":1,"soilmap_view_url":null,"soiltest_xml_url":0,"soiltest_view_url":0},{"id":521384,"code":"B4KJ202201002-3920","latitude":"34.394076","longitude":"132.447481","source_code":"CG038753410200280002","project_name":"","survey_name":"\u592a\u7530\u5ddd\u5e02\u5185\u6d3e\u5ddd\u8abf\u67fb\u8a2d\u8a08\u696d\u52d9","client_name":"\u56fd\u571f\u4ea4\u901a\u7701\u4e2d\u56fd\u5730\u65b9\u6574\u5099\u5c40\u592a\u7530\u5ddd\u6cb3\u5ddd\u4e8b\u52d9\u6240","boring_xml_url":68,"boring_view_url":1,"soilmap_view_url":null,"soiltest_xml_url":0,"soiltest_view_url":0},{"id":521383,"code":"B4KJ202201002-3919","latitude":"34.569613","longitude":"132.449698","source_code":"CG038753410200280001","project_name":"","survey_name":"\u592a\u7530\u5ddd\u5e02\u5185\u6d3e\u5ddd\u8abf\u67fb\u8a2d\u8a08\u696d\u52d9","client_name":"\u56fd\u571f\u4ea4\u901a\u7701\u4e2d\u56fd\u5730\u65b9\u6574\u5099\u5c40\u592a\u7530\u5ddd\u6cb3\u5ddd\u4e8b\u52d9\u6240","boring_xml_url":68,"boring_view_url":1,"soilmap_view_url":null,"soiltest_xml_url":0,"soiltest_view_url":0},{"id":521382,"code":"B4KJ202201002-3918","latitude":"34.392111","longitude":"132.431167","source_code":"CG038753410200150004","project_name":"\u516b\u5e61\u5ddd","survey_name":"\u592a\u7530\u5ddd\u5df1\u6590\u4ed6\u5730\u8cea\u8abf\u67fb\u696d\u52d9","client_name":"\u56fd\u571f\u4ea4\u901a\u7701\u4e2d\u56fd\u5730\u65b9\u6574\u5099\u5c40\u592a\u7530\u5ddd\u6cb3\u5ddd\u4e8b\u52d9\u6240","boring_xml_url":68,"boring_view_url":1,"soilmap_view_url":null,"soiltest_xml_url":0,"soiltest_view_url":0},{"id":521381,"code":"B4KJ202201002-3917","latitude":"34.392222","longitude":"132.43125","source_code":"CG038753410200150003","project_name":"\u516b\u5e61\u5ddd","survey_name":"\u592a\u7530\u5ddd\u5df1\u6590\u4ed6\u5730\u8cea\u8abf\u67fb\u696d\u52d9","client_name":"\u56fd\u571f\u4ea4\u901a\u7701\u4e2d\u56fd\u5730\u65b9\u6574\u5099\u5c40\u592a\u7530\u5ddd\u6cb3\u5ddd\u4e8b\u52d9\u6240","boring_xml_url":68,"boring_view_url":1,"soilmap_view_url":null,"soiltest_xml_url":0,"soiltest_view_url":0},{"id":521380,"code":"B4KJ202201002-3916","latitude":"34.399111","longitude":"132.436056","source_code":"CG038753410200150002","project_name":"\u516b\u5e61\u5ddd","survey_name":"\u592a\u7530\u5ddd\u5df1\u6590\u4ed6\u5730\u8cea\u8abf\u67fb\u696d\u52d9","client_name":"\u56fd\u571f\u4ea4\u901a\u7701\u4e2d\u56fd\u5730\u65b9\u6574\u5099\u5c40\u592a\u7530\u5ddd\u6cb3\u5ddd\u4e8b\u52d9\u6240","boring_xml_url":68,"boring_view_url":1,"soilmap_view_url":null,"soiltest_xml_url":0,"soiltest_view_url":0},{"id":521379,"code":"B4KJ202201002-3915","latitude":"34.399194","longitude":"132.436139","source_code":"CG038753410200150001","project_name":"\u516b\u5e61\u5ddd","survey_name":"\u592a\u7530\u5ddd\u5df1\u6590\u4ed6\u5730\u8cea\u8abf\u67fb\u696d\u52d9","client_name":"\u56fd\u571f\u4ea4\u901a\u7701\u4e2d\u56fd\u5730\u65b9\u6574\u5099\u5c40\u592a\u7530\u5ddd\u6cb3\u5ddd\u4e8b\u52d9\u6240","boring_xml_url":68,"boring_view_url":1,"soilmap_view_url":null,"soiltest_xml_url":0,"soiltest_view_url":0},{"id":521378,"code":"B4KJ202201002-3914","latitude":"34.366944","longitude":"132.445278","source_code":"CG028753500200150020","project_name":"\u592a\u7530\u5ddd\u6a0b\u9580\u7a7a\u6d1e\u5316\u8abf\u67fb\u691c\u8a0e\u696d\u52d9","survey_name":"\u592a\u7530\u5ddd\u6a0b\u9580\u7a7a\u6d1e\u5316\u8abf\u67fb\u691c\u8a0e\u696d\u52d9","client_name":"\u56fd\u571f\u4ea4\u901a\u7701\u4e2d\u56fd\u5730\u65b9\u6574\u5099\u5c40\u592a\u7530\u5ddd\u6cb3\u5ddd\u4e8b\u52d9\u6240","boring_xml_url":68,"boring_view_url":1,"soilmap_view_url":null,"soiltest_xml_url":0,"soiltest_view_url":0},{"id":521377,"code":"B4KJ202201002-3913","latitude":"34.366944","longitude":"132.445278","source_code":"CG028753500200150019","project_name":"\u592a\u7530\u5ddd\u6a0b\u9580\u7a7a\u6d1e\u5316\u8abf\u67fb\u691c\u8a0e\u696d\u52d9","survey_name":"\u592a\u7530\u5ddd\u6a0b\u9580\u7a7a\u6d1e\u5316\u8abf\u67fb\u691c\u8a0e\u696d\u52d9","client_name":"\u56fd\u571f\u4ea4\u901a\u7701\u4e2d\u56fd\u5730\u65b9\u6574\u5099\u5c40\u592a\u7530\u5ddd\u6cb3\u5ddd\u4e8b\u52d9\u6240","boring_xml_url":68,"boring_view_url":1,"soilmap_view_url":null,"soiltest_xml_url":0,"soiltest_view_url":0},{"id":521376,"code":"B4KJ202201002-3912","latitude":"34.366944","longitude":"132.445278","source_code":"CG028753500200150018","project_name":"\u592a\u7530\u5ddd\u6a0b\u9580\u7a7a\u6d1e\u5316\u8abf\u67fb\u691c\u8a0e\u696d\u52d9","survey_name":"\u592a\u7530\u5ddd\u6a0b\u9580\u7a7a\u6d1e\u5316\u8abf\u67fb\u691c\u8a0e\u696d\u52d9","client_name":"\u56fd\u571f\u4ea4\u901a\u7701\u4e2d\u56fd\u5730\u65b9\u6574\u5099\u5c40\u592a\u7530\u5ddd\u6cb3\u5ddd\u4e8b\u52d9\u6240","boring_xml_url":68,"boring_view_url":1,"soilmap_view_url":null,"soiltest_xml_url":0,"soiltest_view_url":0},{"id":521375,"code":"B4KJ202201002-3911","latitude":"34.404444","longitude":"132.446944","source_code":"CG028753500200150017","project_name":"\u592a\u7530\u5ddd\u6a0b\u9580\u7a7a\u6d1e\u5316\u8abf\u67fb\u691c\u8a0e\u696d\u52d9","survey_name":"\u592a\u7530\u5ddd\u6a0b\u9580\u7a7a\u6d1e\u5316\u8abf\u67fb\u691c\u8a0e\u696d\u52d9","client_name":"\u56fd\u571f\u4ea4\u901a\u7701\u4e2d\u56fd\u5730\u65b9\u6574\u5099\u5c40\u592a\u7530\u5ddd\u6cb3\u5ddd\u4e8b\u52d9\u6240","boring_xml_url":68,"boring_view_url":1,"soilmap_view_url":null,"soiltest_xml_url":0,"soiltest_view_url":0},{"id":521374,"code":"B4KJ202201002-3910","latitude":"34.404444","longitude":"132.446944","source_code":"CG028753500200150016","project_name":"\u592a\u7530\u5ddd\u6a0b\u9580\u7a7a\u6d1e\u5316\u8abf\u67fb\u691c\u8a0e\u696d\u52d9","survey_name":"\u592a\u7530\u5ddd\u6a0b\u9580\u7a7a\u6d1e\u5316\u8abf\u67fb\u691c\u8a0e\u696d\u52d9","client_name":"\u56fd\u571f\u4ea4\u901a\u7701\u4e2d\u56fd\u5730\u65b9\u6574\u5099\u5c40\u592a\u7530\u5ddd\u6cb3\u5ddd\u4e8b\u52d9\u6240","boring_xml_url":68,"boring_view_url":1,"soilmap_view_url":null,"soiltest_xml_url":0,"soiltest_view_url":0},{"id":521373,"code":"B4KJ202201002-3909","latitude":"34.404444","longitude":"132.446944","source_code":"CG028753500200150015","project_name":"\u592a\u7530\u5ddd\u6a0b\u9580\u7a7a\u6d1e\u5316\u8abf\u67fb\u691c\u8a0e\u696d\u52d9","survey_name":"\u592a\u7530\u5ddd\u6a0b\u9580\u7a7a\u6d1e\u5316\u8abf\u67fb\u691c\u8a0e\u696d\u52d9","client_name":"\u56fd\u571f\u4ea4\u901a\u7701\u4e2d\u56fd\u5730\u65b9\u6574\u5099\u5c40\u592a\u7530\u5ddd\u6cb3\u5ddd\u4e8b\u52d9\u6240","boring_xml_url":68,"boring_view_url":1,"soilmap_view_url":null,"soiltest_xml_url":0,"soiltest_view_url":0},{"id":521372,"code":"B4KJ202201002-3908","latitude":"34.364167","longitude":"132.41","source_code":"CG028753500200150014","project_name":"\u592a\u7530\u5ddd\u6a0b\u9580\u7a7a\u6d1e\u5316\u8abf\u67fb\u691c\u8a0e\u696d\u52d9","survey_name":"\u592a\u7530\u5ddd\u6a0b\u9580\u7a7a\u6d1e\u5316\u8abf\u67fb\u691c\u8a0e\u696d\u52d9","client_name":"\u56fd\u571f\u4ea4\u901a\u7701\u4e2d\u56fd\u5730\u65b9\u6574\u5099\u5c40\u592a\u7530\u5ddd\u6cb3\u5ddd\u4e8b\u52d9\u6240","boring_xml_url":68,"boring_view_url":1,"soilmap_view_url":null,"soiltest_xml_url":0,"soiltest_view_url":0},{"id":521371,"code":"B4KJ202201002-3907","latitude":"34.364167","longitude":"132.41","source_code":"CG028753500200150013","project_name":"\u592a\u7530\u5ddd\u6a0b\u9580\u7a7a\u6d1e\u5316\u8abf\u67fb\u691c\u8a0e\u696d\u52d9","survey_name":"\u592a\u7530\u5ddd\u6a0b\u9580\u7a7a\u6d1e\u5316\u8abf\u67fb\u691c\u8a0e\u696d\u52d9","client_name":"\u56fd\u571f\u4ea4\u901a\u7701\u4e2d\u56fd\u5730\u65b9\u6574\u5099\u5c40\u592a\u7530\u5ddd\u6cb3\u5ddd\u4e8b\u52d9\u6240","boring_xml_url":68,"boring_view_url":1,"soilmap_view_url":null,"soiltest_xml_url":0,"soiltest_view_url":0},{"id":521370,"code":"B4KJ202201002-3906","latitude":"34.364167","longitude":"132.41","source_code":"CG028753500200150012","project_name":"\u592a\u7530\u5ddd\u6a0b\u9580\u7a7a\u6d1e\u5316\u8abf\u67fb\u691c\u8a0e\u696d\u52d9","survey_name":"\u592a\u7530\u5ddd\u6a0b\u9580\u7a7a\u6d1e\u5316\u8abf\u67fb\u691c\u8a0e\u696d\u52d9","client_name":"\u56fd\u571f\u4ea4\u901a\u7701\u4e2d\u56fd\u5730\u65b9\u6574\u5099\u5c40\u592a\u7530\u5ddd\u6cb3\u5ddd\u4e8b\u52d9\u6240","boring_xml_url":68,"boring_view_url":1,"soilmap_view_url":null,"soiltest_xml_url":0,"soiltest_view_url":0},{"id":521369,"code":"B4KJ202201002-3905","latitude":"34.225556","longitude":"132.199167","source_code":"CG028753500200150011","project_name":"\u592a\u7530\u5ddd\u6a0b\u9580\u7a7a\u6d1e\u5316\u8abf\u67fb\u691c\u8a0e\u696d\u52d9","survey_name":"\u592a\u7530\u5ddd\u6a0b\u9580\u7a7a\u6d1e\u5316\u8abf\u67fb\u691c\u8a0e\u696d\u52d9","client_name":"\u56fd\u571f\u4ea4\u901a\u7701\u4e2d\u56fd\u5730\u65b9\u6574\u5099\u5c40\u592a\u7530\u5ddd\u6cb3\u5ddd\u4e8b\u52d9\u6240","boring_xml_url":68,"boring_view_url":1,"soilmap_view_url":null,"soiltest_xml_url":0,"soiltest_view_url":0},{"id":521368,"code":"B4KJ202201002-3904","latitude":"34.225556","longitude":"132.199167","source_code":"CG028753500200150010","project_name":"\u592a\u7530\u5ddd\u6a0b\u9580\u7a7a\u6d1e\u5316\u8abf\u67fb\u691c\u8a0e\u696d\u52d9","survey_name":"\u592a\u7530\u5ddd\u6a0b\u9580\u7a7a\u6d1e\u5316\u8abf\u67fb\u691c\u8a0e\u696d\u52d9","client_name":"\u56fd\u571f\u4ea4\u901a\u7701\u4e2d\u56fd\u5730\u65b9\u6574\u5099\u5c40\u592a\u7530\u5ddd\u6cb3\u5ddd\u4e8b\u52d9\u6240","boring_xml_url":68,"boring_view_url":1,"soilmap_view_url":null,"soiltest_xml_url":0,"soiltest_view_url":0},{"id":521367,"code":"B4KJ202201002-3903","latitude":"34.449167","longitude":"132.475278","source_code":"CG028753500200150009","project_name":"\u592a\u7530\u5ddd\u6a0b\u9580\u7a7a\u6d1e\u5316\u8abf\u67fb\u691c\u8a0e\u696d\u52d9","survey_name":"\u592a\u7530\u5ddd\u6a0b\u9580\u7a7a\u6d1e\u5316\u8abf\u67fb\u691c\u8a0e\u696d\u52d9","client_name":"\u56fd\u571f\u4ea4\u901a\u7701\u4e2d\u56fd\u5730\u65b9\u6574\u5099\u5c40\u592a\u7530\u5ddd\u6cb3\u5ddd\u4e8b\u52d9\u6240","boring_xml_url":68,"boring_view_url":1,"soilmap_view_url":null,"soiltest_xml_url":0,"soiltest_view_url":0},{"id":521366,"code":"B4KJ202201002-3902","latitude":"34.4325","longitude":"132.475278","source_code":"CG028753500200150008","project_name":"\u592a\u7530\u5ddd\u6a0b\u9580\u7a7a\u6d1e\u5316\u8abf\u67fb\u691c\u8a0e\u696d\u52d9","survey_name":"\u592a\u7530\u5ddd\u6a0b\u9580\u7a7a\u6d1e\u5316\u8abf\u67fb\u691c\u8a0e\u696d\u52d9","client_name":"\u56fd\u571f\u4ea4\u901a\u7701\u4e2d\u56fd\u5730\u65b9\u6574\u5099\u5c40\u592a\u7530\u5ddd\u6cb3\u5ddd\u4e8b\u52d9\u6240","boring_xml_url":68,"boring_view_url":1,"soilmap_view_url":null,"soiltest_xml_url":0,"soiltest_view_url":0},{"id":521365,"code":"B4KJ202201002-3901","latitude":"34.449167","longitude":"132.475278","source_code":"CG028753500200150007","project_name":"\u592a\u7530\u5ddd\u6a0b\u9580\u7a7a\u6d1e\u5316\u8abf\u67fb\u691c\u8a0e\u696d\u52d9","survey_name":"\u592a\u7530\u5ddd\u6a0b\u9580\u7a7a\u6d1e\u5316\u8abf\u67fb\u691c\u8a0e\u696d\u52d9","client_name":"\u56fd\u571f\u4ea4\u901a\u7701\u4e2d\u56fd\u5730\u65b9\u6574\u5099\u5c40\u592a\u7530\u5ddd\u6cb3\u5ddd\u4e8b\u52d9\u6240","boring_xml_url":68,"boring_view_url":1,"soilmap_view_url":null,"soiltest_xml_url":0,"soiltest_view_url":0},{"id":521364,"code":"B4KJ202201002-3900","latitude":"34.423333","longitude":"132.459444","source_code":"CG028753500200150006","project_name":"\u592a\u7530\u5ddd\u6a0b\u9580\u7a7a\u6d1e\u5316\u8abf\u67fb\u691c\u8a0e\u696d\u52d9","survey_name":"\u592a\u7530\u5ddd\u6a0b\u9580\u7a7a\u6d1e\u5316\u8abf\u67fb\u691c\u8a0e\u696d\u52d9","client_name":"\u56fd\u571f\u4ea4\u901a\u7701\u4e2d\u56fd\u5730\u65b9\u6574\u5099\u5c40\u592a\u7530\u5ddd\u6cb3\u5ddd\u4e8b\u52d9\u6240","boring_xml_url":68,"boring_view_url":1,"soilmap_view_url":null,"soiltest_xml_url":0,"soiltest_view_url":0},{"id":521363,"code":"B4KJ202201002-3899","latitude":"34.423333","longitude":"132.459444","source_code":"CG028753500200150005","project_name":"\u592a\u7530\u5ddd\u6a0b\u9580\u7a7a\u6d1e\u5316\u8abf\u67fb\u691c\u8a0e\u696d\u52d9","survey_name":"\u592a\u7530\u5ddd\u6a0b\u9580\u7a7a\u6d1e\u5316\u8abf\u67fb\u691c\u8a0e\u696d\u52d9","client_name":"\u56fd\u571f\u4ea4\u901a\u7701\u4e2d\u56fd\u5730\u65b9\u6574\u5099\u5c40\u592a\u7530\u5ddd\u6cb3\u5ddd\u4e8b\u52d9\u6240","boring_xml_url":68,"boring_view_url":1,"soilmap_view_url":null,"soiltest_xml_url":0,"soiltest_view_url":0},{"id":521362,"code":"B4KJ202201002-3898","latitude":"34.423333","longitude":"132.459444","source_code":"CG028753500200150004","project_name":"\u592a\u7530\u5ddd\u6a0b\u9580\u7a7a\u6d1e\u5316\u8abf\u67fb\u691c\u8a0e\u696d\u52d9","survey_name":"\u592a\u7530\u5ddd\u6a0b\u9580\u7a7a\u6d1e\u5316\u8abf\u67fb\u691c\u8a0e\u696d\u52d9","client_name":"\u56fd\u571f\u4ea4\u901a\u7701\u4e2d\u56fd\u5730\u65b9\u6574\u5099\u5c40\u592a\u7530\u5ddd\u6cb3\u5ddd\u4e8b\u52d9\u6240","boring_xml_url":68,"boring_view_url":1,"soilmap_view_url":null,"soiltest_xml_url":0,"soiltest_view_url":0},{"id":521361,"code":"B4KJ202201002-3897","latitude":"34.423333","longitude":"132.459444","source_code":"CG028753500200150003","project_name":"\u592a\u7530\u5ddd\u6a0b\u9580\u7a7a\u6d1e\u5316\u8abf\u67fb\u691c\u8a0e\u696d\u52d9","survey_name":"\u592a\u7530\u5ddd\u6a0b\u9580\u7a7a\u6d1e\u5316\u8abf\u67fb\u691c\u8a0e\u696d\u52d9","client_name":"\u56fd\u571f\u4ea4\u901a\u7701\u4e2d\u56fd\u5730\u65b9\u6574\u5099\u5c40\u592a\u7530\u5ddd\u6cb3\u5ddd\u4e8b\u52d9\u6240","boring_xml_url":68,"boring_view_url":1,"soilmap_view_url":null,"soiltest_xml_url":0,"soiltest_view_url":0},{"id":521360,"code":"B4KJ202201002-3896","latitude":"34.43945","longitude":"132.486","source_code":"CG028753500200150002","project_name":"\u592a\u7530\u5ddd\u6a0b\u9580\u7a7a\u6d1e\u5316\u8abf\u67fb\u691c\u8a0e\u696d\u52d9","survey_name":"\u592a\u7530\u5ddd\u6a0b\u9580\u7a7a\u6d1e\u5316\u8abf\u67fb\u691c\u8a0e\u696d\u52d9","client_name":"\u56fd\u571f\u4ea4\u901a\u7701\u4e2d\u56fd\u5730\u65b9\u6574\u5099\u5c40\u592a\u7530\u5ddd\u6cb3\u5ddd\u4e8b\u52d9\u6240","boring_xml_url":68,"boring_view_url":1,"soilmap_view_url":null,"soiltest_xml_url":0,"soiltest_view_url":0},{"id":521359,"code":"B4KJ202201002-3895","latitude":"34.439483","longitude":"132.485983","source_code":"CG028753500200150001","project_name":"\u592a\u7530\u5ddd\u6a0b\u9580\u7a7a\u6d1e\u5316\u8abf\u67fb\u691c\u8a0e\u696d\u52d9","survey_name":"\u592a\u7530\u5ddd\u6a0b\u9580\u7a7a\u6d1e\u5316\u8abf\u67fb\u691c\u8a0e\u696d\u52d9","client_name":"\u56fd\u571f\u4ea4\u901a\u7701\u4e2d\u56fd\u5730\u65b9\u6574\u5099\u5c40\u592a\u7530\u5ddd\u6cb3\u5ddd\u4e8b\u52d9\u6240","boring_xml_url":68,"boring_view_url":1,"soilmap_view_url":null,"soiltest_xml_url":0,"soiltest_view_url":0}]}}