{"header":{"xyz":{"source":[],"mosaic":false},"page":809,"raw":{"soiltest_result":"0","bbox":"57.598333,109.544722,1.933333,163.806111","page":"809"},"conditions":{"soiltest_result":0,"north":57.598333,"west":109.544722,"south":1.933333,"east":163.806111},"success":true,"message":""},"data":{"meta":{"total":212844,"page":809,"pages":7095,"count":30},"values":[{"id":521148,"code":"B4KJ202201002-3684","latitude":"35.345635","longitude":"132.766588","source_code":"CG038736400200090004","project_name":"","survey_name":"\u653e\u6c34\u8def\u5730\u8cea\u8abf\u67fb\u696d\u52d9","client_name":"\u56fd\u571f\u4ea4\u901a\u7701\u4e2d\u56fd\u5730\u65b9\u6574\u5099\u5c40\u51fa\u96f2\u6cb3\u5ddd\u4e8b\u52d9\u6240","boring_xml_url":68,"boring_view_url":1,"soilmap_view_url":null,"soiltest_xml_url":0,"soiltest_view_url":0},{"id":521147,"code":"B4KJ202201002-3683","latitude":"35.345635","longitude":"132.766588","source_code":"CG038736400200090003","project_name":"","survey_name":"\u653e\u6c34\u8def\u5730\u8cea\u8abf\u67fb\u696d\u52d9","client_name":"\u56fd\u571f\u4ea4\u901a\u7701\u4e2d\u56fd\u5730\u65b9\u6574\u5099\u5c40\u51fa\u96f2\u6cb3\u5ddd\u4e8b\u52d9\u6240","boring_xml_url":68,"boring_view_url":1,"soilmap_view_url":null,"soiltest_xml_url":0,"soiltest_view_url":0},{"id":521146,"code":"B4KJ202201002-3682","latitude":"35.345635","longitude":"132.766588","source_code":"CG038736400200090002","project_name":"","survey_name":"\u653e\u6c34\u8def\u5730\u8cea\u8abf\u67fb\u696d\u52d9","client_name":"\u56fd\u571f\u4ea4\u901a\u7701\u4e2d\u56fd\u5730\u65b9\u6574\u5099\u5c40\u51fa\u96f2\u6cb3\u5ddd\u4e8b\u52d9\u6240","boring_xml_url":68,"boring_view_url":1,"soilmap_view_url":null,"soiltest_xml_url":0,"soiltest_view_url":0},{"id":521145,"code":"B4KJ202201002-3681","latitude":"35.345635","longitude":"132.766588","source_code":"CG038736400200090001","project_name":"","survey_name":"\u653e\u6c34\u8def\u5730\u8cea\u8abf\u67fb\u696d\u52d9","client_name":"\u56fd\u571f\u4ea4\u901a\u7701\u4e2d\u56fd\u5730\u65b9\u6574\u5099\u5c40\u51fa\u96f2\u6cb3\u5ddd\u4e8b\u52d9\u6240","boring_xml_url":68,"boring_view_url":1,"soilmap_view_url":null,"soiltest_xml_url":0,"soiltest_view_url":0},{"id":521144,"code":"B4KJ202201002-3680","latitude":"35.264532","longitude":"132.576614","source_code":"CG760001","project_name":"","survey_name":"\u4ed9\u5c71\u5ce0\u5fdc\u6025\u5fa9\u65e7(\u305d\u306e2)\u696d\u52d9","client_name":"\u56fd\u571f\u4ea4\u901a\u7701\u4e2d\u56fd\u5730\u65b9\u6574\u5099\u5c40\u677e\u6c5f\u56fd\u9053\u5de5\u4e8b\u4e8b\u52d9\u6240","boring_xml_url":44,"boring_view_url":1,"soilmap_view_url":null,"soiltest_xml_url":0,"soiltest_view_url":0},{"id":521143,"code":"B4KJ202201002-3679","latitude":"35.281024","longitude":"132.862278","source_code":"CG038735600200300007","project_name":"","survey_name":"\u4e09\u5200\u5c4b\u5730\u533a\u5730\u8cea\u8abf\u67fb\u696d\u52d9","client_name":"\u56fd\u571f\u4ea4\u901a\u7701\u4e2d\u56fd\u5730\u65b9\u6574\u5099\u5c40\u677e\u6c5f\u56fd\u9053\u4e8b\u52d9\u6240","boring_xml_url":68,"boring_view_url":1,"soilmap_view_url":null,"soiltest_xml_url":0,"soiltest_view_url":0},{"id":521142,"code":"B4KJ202201002-3678","latitude":"35.280781","longitude":"132.861601","source_code":"CG038735600200300006","project_name":"","survey_name":"\u4e09\u5200\u5c4b\u5730\u533a\u5730\u8cea\u8abf\u67fb\u696d\u52d9","client_name":"\u56fd\u571f\u4ea4\u901a\u7701\u4e2d\u56fd\u5730\u65b9\u6574\u5099\u5c40\u677e\u6c5f\u56fd\u9053\u4e8b\u52d9\u6240","boring_xml_url":68,"boring_view_url":1,"soilmap_view_url":null,"soiltest_xml_url":0,"soiltest_view_url":0},{"id":521141,"code":"B4KJ202201002-3677","latitude":"35.283138","longitude":"132.865839","source_code":"CG038735600200300005","project_name":"","survey_name":"\u4e09\u5200\u5c4b\u5730\u533a\u5730\u8cea\u8abf\u67fb\u696d\u52d9","client_name":"\u56fd\u571f\u4ea4\u901a\u7701\u4e2d\u56fd\u5730\u65b9\u6574\u5099\u5c40\u677e\u6c5f\u56fd\u9053\u4e8b\u52d9\u6240","boring_xml_url":68,"boring_view_url":1,"soilmap_view_url":null,"soiltest_xml_url":0,"soiltest_view_url":0},{"id":521140,"code":"B4KJ202201002-3676","latitude":"35.282878","longitude":"132.865502","source_code":"CG038735600200300004","project_name":"","survey_name":"\u4e09\u5200\u5c4b\u5730\u533a\u5730\u8cea\u8abf\u67fb\u696d\u52d9","client_name":"\u56fd\u571f\u4ea4\u901a\u7701\u4e2d\u56fd\u5730\u65b9\u6574\u5099\u5c40\u677e\u6c5f\u56fd\u9053\u4e8b\u52d9\u6240","boring_xml_url":68,"boring_view_url":1,"soilmap_view_url":null,"soiltest_xml_url":0,"soiltest_view_url":0},{"id":521139,"code":"B4KJ202201002-3675","latitude":"35.282655","longitude":"132.865322","source_code":"CG038735600200300003","project_name":"","survey_name":"\u4e09\u5200\u5c4b\u5730\u533a\u5730\u8cea\u8abf\u67fb\u696d\u52d9","client_name":"\u56fd\u571f\u4ea4\u901a\u7701\u4e2d\u56fd\u5730\u65b9\u6574\u5099\u5c40\u677e\u6c5f\u56fd\u9053\u4e8b\u52d9\u6240","boring_xml_url":68,"boring_view_url":1,"soilmap_view_url":null,"soiltest_xml_url":0,"soiltest_view_url":0},{"id":521138,"code":"B4KJ202201002-3674","latitude":"35.281495","longitude":"132.863139","source_code":"CG038735600200300002","project_name":"","survey_name":"\u4e09\u5200\u5c4b\u5730\u533a\u5730\u8cea\u8abf\u67fb\u696d\u52d9","client_name":"\u56fd\u571f\u4ea4\u901a\u7701\u4e2d\u56fd\u5730\u65b9\u6574\u5099\u5c40\u677e\u6c5f\u56fd\u9053\u4e8b\u52d9\u6240","boring_xml_url":68,"boring_view_url":1,"soilmap_view_url":null,"soiltest_xml_url":0,"soiltest_view_url":0},{"id":521137,"code":"B4KJ202201002-3673","latitude":"35.281309","longitude":"132.862788","source_code":"CG038735600200300001","project_name":"","survey_name":"\u4e09\u5200\u5c4b\u5730\u533a\u5730\u8cea\u8abf\u67fb\u696d\u52d9","client_name":"\u56fd\u571f\u4ea4\u901a\u7701\u4e2d\u56fd\u5730\u65b9\u6574\u5099\u5c40\u677e\u6c5f\u56fd\u9053\u4e8b\u52d9\u6240","boring_xml_url":68,"boring_view_url":1,"soilmap_view_url":null,"soiltest_xml_url":0,"soiltest_view_url":0},{"id":521136,"code":"B4KJ202201002-3672","latitude":"35.264809","longitude":"132.576892","source_code":"CG038735510200170002","project_name":"\u4ed9\u5c71\u5ce0\u5fdc\u6025\u5fa9\u65e7","survey_name":"\u4ed9\u5c71\u5ce0\u5fdc\u6025\u5fa9\u65e7\uff08\u305d\u306e3\uff09\u696d\u52d9","client_name":"\u56fd\u571f\u4ea4\u901a\u7701\u3000\u4e2d\u56fd\u5730\u65b9\u6574\u5099\u5c40\u3000\u677e\u6c5f\u56fd\u9053\u4e8b\u52d9\u6240","boring_xml_url":68,"boring_view_url":1,"soilmap_view_url":null,"soiltest_xml_url":0,"soiltest_view_url":0},{"id":521135,"code":"B4KJ202201002-3671","latitude":"35.264809","longitude":"132.576614","source_code":"CG038735510200170001","project_name":"\u4ed9\u5c71\u5ce0\u5fdc\u6025\u5fa9\u65e7","survey_name":"\u4ed9\u5c71\u5ce0\u5fdc\u6025\u5fa9\u65e7\uff08\u305d\u306e3\uff09\u696d\u52d9","client_name":"\u56fd\u571f\u4ea4\u901a\u7701\u3000\u4e2d\u56fd\u5730\u65b9\u6574\u5099\u5c40\u3000\u677e\u6c5f\u56fd\u9053\u4e8b\u52d9\u6240","boring_xml_url":68,"boring_view_url":1,"soilmap_view_url":null,"soiltest_xml_url":0,"soiltest_view_url":0},{"id":521134,"code":"B4KJ202201002-3670","latitude":"35.436056","longitude":"133.048222","source_code":"CG038735400200340025","project_name":"\u4e00\u822c\u56fd\u90539\u53f7\u677e\u6c5f\u9053\u8def","survey_name":"\u677e\u6c5f\u9053\u8def\u4e0a\u4e43\u6728\u5730\u533a\u5730\u8cea\u8abf\u67fb\u5916\u696d\u52d9","client_name":"\u56fd\u571f\u4ea4\u901a\u7701\u3000\u4e2d\u56fd\u5730\u65b9\u6574\u5099\u5c40\u3000\u677e\u6c5f\u56fd\u9053\u4e8b\u52d9\u6240","boring_xml_url":68,"boring_view_url":1,"soilmap_view_url":null,"soiltest_xml_url":0,"soiltest_view_url":0},{"id":521133,"code":"B4KJ202201002-3669","latitude":"35.4365","longitude":"133.048944","source_code":"CG038735400200340024","project_name":"\u4e00\u822c\u56fd\u90539\u53f7\u677e\u6c5f\u9053\u8def","survey_name":"\u677e\u6c5f\u9053\u8def\u4e0a\u4e43\u6728\u5730\u533a\u5730\u8cea\u8abf\u67fb\u5916\u696d\u52d9","client_name":"\u56fd\u571f\u4ea4\u901a\u7701\u3000\u4e2d\u56fd\u5730\u65b9\u6574\u5099\u5c40\u3000\u677e\u6c5f\u56fd\u9053\u4e8b\u52d9\u6240","boring_xml_url":68,"boring_view_url":1,"soilmap_view_url":null,"soiltest_xml_url":0,"soiltest_view_url":0},{"id":521132,"code":"B4KJ202201002-3668","latitude":"35.438722","longitude":"133.052889","source_code":"CG038735400200340023","project_name":"\u4e00\u822c\u56fd\u90539\u53f7\u677e\u6c5f\u9053\u8def","survey_name":"\u677e\u6c5f\u9053\u8def\u4e0a\u4e43\u6728\u5730\u533a\u5730\u8cea\u8abf\u67fb\u5916\u696d\u52d9","client_name":"\u56fd\u571f\u4ea4\u901a\u7701\u3000\u4e2d\u56fd\u5730\u65b9\u6574\u5099\u5c40\u3000\u677e\u6c5f\u56fd\u9053\u4e8b\u52d9\u6240","boring_xml_url":68,"boring_view_url":1,"soilmap_view_url":null,"soiltest_xml_url":0,"soiltest_view_url":0},{"id":521131,"code":"B4KJ202201002-3667","latitude":"35.441194","longitude":"133.058333","source_code":"CG038735400200340021","project_name":"\u4e00\u822c\u56fd\u90539\u53f7\u677e\u6c5f\u9053\u8def","survey_name":"\u677e\u6c5f\u9053\u8def\u4e0a\u4e43\u6728\u5730\u533a\u5730\u8cea\u8abf\u67fb\u5916\u696d\u52d9","client_name":"\u56fd\u571f\u4ea4\u901a\u7701\u3000\u4e2d\u56fd\u5730\u65b9\u6574\u5099\u5c40\u3000\u677e\u6c5f\u56fd\u9053\u4e8b\u52d9\u6240","boring_xml_url":68,"boring_view_url":1,"soilmap_view_url":null,"soiltest_xml_url":0,"soiltest_view_url":0},{"id":521130,"code":"B4KJ202201002-3666","latitude":"35.441306","longitude":"133.058556","source_code":"CG038735400200340020","project_name":"\u4e00\u822c\u56fd\u90539\u53f7\u677e\u6c5f\u9053\u8def","survey_name":"\u677e\u6c5f\u9053\u8def\u4e0a\u4e43\u6728\u5730\u533a\u5730\u8cea\u8abf\u67fb\u5916\u696d\u52d9","client_name":"\u56fd\u571f\u4ea4\u901a\u7701\u3000\u4e2d\u56fd\u5730\u65b9\u6574\u5099\u5c40\u3000\u677e\u6c5f\u56fd\u9053\u4e8b\u52d9\u6240","boring_xml_url":68,"boring_view_url":1,"soilmap_view_url":null,"soiltest_xml_url":0,"soiltest_view_url":0},{"id":521129,"code":"B4KJ202201002-3665","latitude":"35.4415","longitude":"133.058972","source_code":"CG038735400200340019","project_name":"\u4e00\u822c\u56fd\u90539\u53f7\u677e\u6c5f\u9053\u8def","survey_name":"\u677e\u6c5f\u9053\u8def\u4e0a\u4e43\u6728\u5730\u533a\u5730\u8cea\u8abf\u67fb\u5916\u696d\u52d9","client_name":"\u56fd\u571f\u4ea4\u901a\u7701\u3000\u4e2d\u56fd\u5730\u65b9\u6574\u5099\u5c40\u3000\u677e\u6c5f\u56fd\u9053\u4e8b\u52d9\u6240","boring_xml_url":68,"boring_view_url":1,"soilmap_view_url":null,"soiltest_xml_url":0,"soiltest_view_url":0},{"id":521128,"code":"B4KJ202201002-3664","latitude":"35.441667","longitude":"133.059389","source_code":"CG038735400200340018","project_name":"\u4e00\u822c\u56fd\u90539\u53f7\u677e\u6c5f\u9053\u8def","survey_name":"\u677e\u6c5f\u9053\u8def\u4e0a\u4e43\u6728\u5730\u533a\u5730\u8cea\u8abf\u67fb\u5916\u696d\u52d9","client_name":"\u56fd\u571f\u4ea4\u901a\u7701\u3000\u4e2d\u56fd\u5730\u65b9\u6574\u5099\u5c40\u3000\u677e\u6c5f\u56fd\u9053\u4e8b\u52d9\u6240","boring_xml_url":68,"boring_view_url":1,"soilmap_view_url":null,"soiltest_xml_url":0,"soiltest_view_url":0},{"id":521127,"code":"B4KJ202201002-3663","latitude":"35.441861","longitude":"133.059778","source_code":"CG038735400200340017","project_name":"\u4e00\u822c\u56fd\u90539\u53f7\u677e\u6c5f\u9053\u8def","survey_name":"\u677e\u6c5f\u9053\u8def\u4e0a\u4e43\u6728\u5730\u533a\u5730\u8cea\u8abf\u67fb\u5916\u696d\u52d9","client_name":"\u56fd\u571f\u4ea4\u901a\u7701\u3000\u4e2d\u56fd\u5730\u65b9\u6574\u5099\u5c40\u3000\u677e\u6c5f\u56fd\u9053\u4e8b\u52d9\u6240","boring_xml_url":68,"boring_view_url":1,"soilmap_view_url":null,"soiltest_xml_url":0,"soiltest_view_url":0},{"id":521126,"code":"B4KJ202201002-3662","latitude":"35.442139","longitude":"133.060528","source_code":"CG038735400200340016","project_name":"\u4e00\u822c\u56fd\u90539\u53f7\u677e\u6c5f\u9053\u8def","survey_name":"\u677e\u6c5f\u9053\u8def\u4e0a\u4e43\u6728\u5730\u533a\u5730\u8cea\u8abf\u67fb\u5916\u696d\u52d9","client_name":"\u56fd\u571f\u4ea4\u901a\u7701\u3000\u4e2d\u56fd\u5730\u65b9\u6574\u5099\u5c40\u3000\u677e\u6c5f\u56fd\u9053\u4e8b\u52d9\u6240","boring_xml_url":68,"boring_view_url":1,"soilmap_view_url":null,"soiltest_xml_url":0,"soiltest_view_url":0},{"id":521125,"code":"B4KJ202201002-3661","latitude":"35.442278","longitude":"133.060944","source_code":"CG038735400200340015","project_name":"\u4e00\u822c\u56fd\u90539\u53f7\u677e\u6c5f\u9053\u8def","survey_name":"\u677e\u6c5f\u9053\u8def\u4e0a\u4e43\u6728\u5730\u533a\u5730\u8cea\u8abf\u67fb\u5916\u696d\u52d9","client_name":"\u56fd\u571f\u4ea4\u901a\u7701\u3000\u4e2d\u56fd\u5730\u65b9\u6574\u5099\u5c40\u3000\u677e\u6c5f\u56fd\u9053\u4e8b\u52d9\u6240","boring_xml_url":68,"boring_view_url":1,"soilmap_view_url":null,"soiltest_xml_url":0,"soiltest_view_url":0},{"id":521124,"code":"B4KJ202201002-3660","latitude":"35.442444","longitude":"133.061361","source_code":"CG038735400200340014","project_name":"\u4e00\u822c\u56fd\u90539\u53f7\u677e\u6c5f\u9053\u8def","survey_name":"\u677e\u6c5f\u9053\u8def\u4e0a\u4e43\u6728\u5730\u533a\u5730\u8cea\u8abf\u67fb\u5916\u696d\u52d9","client_name":"\u56fd\u571f\u4ea4\u901a\u7701\u3000\u4e2d\u56fd\u5730\u65b9\u6574\u5099\u5c40\u3000\u677e\u6c5f\u56fd\u9053\u4e8b\u52d9\u6240","boring_xml_url":68,"boring_view_url":1,"soilmap_view_url":null,"soiltest_xml_url":0,"soiltest_view_url":0},{"id":521123,"code":"B4KJ202201002-3659","latitude":"35.442611","longitude":"133.061778","source_code":"CG038735400200340013","project_name":"\u4e00\u822c\u56fd\u90539\u53f7\u677e\u6c5f\u9053\u8def","survey_name":"\u677e\u6c5f\u9053\u8def\u4e0a\u4e43\u6728\u5730\u533a\u5730\u8cea\u8abf\u67fb\u5916\u696d\u52d9","client_name":"\u56fd\u571f\u4ea4\u901a\u7701\u3000\u4e2d\u56fd\u5730\u65b9\u6574\u5099\u5c40\u3000\u677e\u6c5f\u56fd\u9053\u4e8b\u52d9\u6240","boring_xml_url":68,"boring_view_url":1,"soilmap_view_url":null,"soiltest_xml_url":0,"soiltest_view_url":0},{"id":521122,"code":"B4KJ202201002-3658","latitude":"35.442806","longitude":"133.062194","source_code":"CG038735400200340012","project_name":"\u4e00\u822c\u56fd\u90539\u53f7\u677e\u6c5f\u9053\u8def","survey_name":"\u677e\u6c5f\u9053\u8def\u4e0a\u4e43\u6728\u5730\u533a\u5730\u8cea\u8abf\u67fb\u5916\u696d\u52d9","client_name":"\u56fd\u571f\u4ea4\u901a\u7701\u3000\u4e2d\u56fd\u5730\u65b9\u6574\u5099\u5c40\u3000\u677e\u6c5f\u56fd\u9053\u4e8b\u52d9\u6240","boring_xml_url":68,"boring_view_url":1,"soilmap_view_url":null,"soiltest_xml_url":0,"soiltest_view_url":0},{"id":521121,"code":"B4KJ202201002-3657","latitude":"35.442944","longitude":"133.062611","source_code":"CG038735400200340011","project_name":"\u4e00\u822c\u56fd\u90539\u53f7\u677e\u6c5f\u9053\u8def","survey_name":"\u677e\u6c5f\u9053\u8def\u4e0a\u4e43\u6728\u5730\u533a\u5730\u8cea\u8abf\u67fb\u5916\u696d\u52d9","client_name":"\u56fd\u571f\u4ea4\u901a\u7701\u3000\u4e2d\u56fd\u5730\u65b9\u6574\u5099\u5c40\u3000\u677e\u6c5f\u56fd\u9053\u4e8b\u52d9\u6240","boring_xml_url":68,"boring_view_url":1,"soilmap_view_url":null,"soiltest_xml_url":0,"soiltest_view_url":0},{"id":521120,"code":"B4KJ202201002-3656","latitude":"35.443056","longitude":"133.063056","source_code":"CG038735400200340010","project_name":"\u4e00\u822c\u56fd\u90539\u53f7\u677e\u6c5f\u9053\u8def","survey_name":"\u677e\u6c5f\u9053\u8def\u4e0a\u4e43\u6728\u5730\u533a\u5730\u8cea\u8abf\u67fb\u5916\u696d\u52d9","client_name":"\u56fd\u571f\u4ea4\u901a\u7701\u3000\u4e2d\u56fd\u5730\u65b9\u6574\u5099\u5c40\u3000\u677e\u6c5f\u56fd\u9053\u4e8b\u52d9\u6240","boring_xml_url":68,"boring_view_url":1,"soilmap_view_url":null,"soiltest_xml_url":0,"soiltest_view_url":0},{"id":521119,"code":"B4KJ202201002-3655","latitude":"35.443167","longitude":"133.0635","source_code":"CG038735400200340009","project_name":"\u4e00\u822c\u56fd\u90539\u53f7\u677e\u6c5f\u9053\u8def","survey_name":"\u677e\u6c5f\u9053\u8def\u4e0a\u4e43\u6728\u5730\u533a\u5730\u8cea\u8abf\u67fb\u5916\u696d\u52d9","client_name":"\u56fd\u571f\u4ea4\u901a\u7701\u3000\u4e2d\u56fd\u5730\u65b9\u6574\u5099\u5c40\u3000\u677e\u6c5f\u56fd\u9053\u4e8b\u52d9\u6240","boring_xml_url":68,"boring_view_url":1,"soilmap_view_url":null,"soiltest_xml_url":0,"soiltest_view_url":0}]}}