{"header":{"xyz":{"source":[],"mosaic":false},"page":81,"raw":{"soiltest_result":"0","bbox":"57.598333,109.544722,1.933333,163.806111","page":"81"},"conditions":{"soiltest_result":0,"north":57.598333,"west":109.544722,"south":1.933333,"east":163.806111},"success":true,"message":""},"data":{"meta":{"total":212844,"page":81,"pages":7095,"count":30},"values":[{"id":695493,"code":"NGIC202304248-0005","latitude":"31.667890888889","longitude":"131.4512985","source_code":"","project_name":"","survey_name":"\u4ee4\u548c5\u5e74\u5ea6\u65e5\u5357\u9632\u707d\u5730\u8cea\u8abf\u67fb\u696d\u52d9","client_name":"\u56fd\u571f\u4ea4\u901a\u7701\u4e5d\u5dde\u5730\u65b9\u6574\u5099\u5c40\u5bae\u5d0e\u6cb3\u5ddd\u56fd\u9053\u4e8b\u52d9\u6240","boring_xml_url":47,"boring_view_url":1,"soilmap_view_url":null,"soiltest_xml_url":0,"soiltest_view_url":0},{"id":695492,"code":"NGIC202304248-0004","latitude":"31.6689575","longitude":"131.45076736111","source_code":"","project_name":"","survey_name":"\u4ee4\u548c5\u5e74\u5ea6\u65e5\u5357\u9632\u707d\u5730\u8cea\u8abf\u67fb\u696d\u52d9","client_name":"\u56fd\u571f\u4ea4\u901a\u7701\u4e5d\u5dde\u5730\u65b9\u6574\u5099\u5c40\u5bae\u5d0e\u6cb3\u5ddd\u56fd\u9053\u4e8b\u52d9\u6240","boring_xml_url":47,"boring_view_url":1,"soilmap_view_url":null,"soiltest_xml_url":0,"soiltest_view_url":0},{"id":695491,"code":"NGIC202304248-0003","latitude":"31.6691225","longitude":"131.45069936111","source_code":"","project_name":"","survey_name":"\u4ee4\u548c5\u5e74\u5ea6\u65e5\u5357\u9632\u707d\u5730\u8cea\u8abf\u67fb\u696d\u52d9","client_name":"\u56fd\u571f\u4ea4\u901a\u7701\u4e5d\u5dde\u5730\u65b9\u6574\u5099\u5c40\u5bae\u5d0e\u6cb3\u5ddd\u56fd\u9053\u4e8b\u52d9\u6240","boring_xml_url":47,"boring_view_url":1,"soilmap_view_url":null,"soiltest_xml_url":0,"soiltest_view_url":0},{"id":695490,"code":"NGIC202304248-0002","latitude":"31.668910666667","longitude":"131.45112394444","source_code":"","project_name":"","survey_name":"\u4ee4\u548c5\u5e74\u5ea6 \u65e5\u5357\u9632\u707d\u5730\u8cea\u8abf\u67fb\u696d\u52d9","client_name":"\u56fd\u571f\u4ea4\u901a\u7701\u4e5d\u5dde\u5730\u65b9\u6574\u5099\u5c40\u5bae\u5d0e\u6cb3\u5ddd\u56fd\u9053\u4e8b\u52d9\u6240","boring_xml_url":47,"boring_view_url":1,"soilmap_view_url":null,"soiltest_xml_url":47,"soiltest_view_url":47},{"id":695489,"code":"NGIC202304248-0001","latitude":"31.669200833333","longitude":"131.45100463889","source_code":"","project_name":"","survey_name":"\u4ee4\u548c5\u5e74\u5ea6\u65e5\u5357\u9632\u707d\u5730\u8cea\u8abf\u67fb\u696d\u52d9","client_name":"\u56fd\u571f\u4ea4\u901a\u7701\u4e5d\u5dde\u5730\u65b9\u6574\u5099\u5c40\u5bae\u5d0e\u6cb3\u5ddd\u56fd\u9053\u4e8b\u52d9\u6240","boring_xml_url":47,"boring_view_url":1,"soilmap_view_url":null,"soiltest_xml_url":0,"soiltest_view_url":0},{"id":695487,"code":"NGIC202304463-0011","latitude":"35.105372861111","longitude":"138.56469772222","source_code":"","project_name":"","survey_name":"\u4ee4\u548c5\u5e74\u5ea6\u9759\u5ca1\u56fd\u9053\u7ba1\u5185\u5730\u8cea\u8abf\u67fb\u696d\u52d9","client_name":"\u56fd\u571f\u4ea4\u901a\u7701\u4e2d\u90e8\u5730\u65b9\u6574\u5099\u5c40\u9759\u5ca1\u56fd\u9053\u4e8b\u52d9\u6240","boring_xml_url":47,"boring_view_url":1,"soilmap_view_url":null,"soiltest_xml_url":47,"soiltest_view_url":47},{"id":695486,"code":"NGIC202304463-0010","latitude":"35.105294388889","longitude":"138.56513169444","source_code":"","project_name":"","survey_name":"\u4ee4\u548c5\u5e74\u5ea6\u9759\u5ca1\u56fd\u9053\u7ba1\u5185\u5730\u8cea\u8abf\u67fb\u696d\u52d9","client_name":"\u56fd\u571f\u4ea4\u901a\u7701\u4e2d\u90e8\u5730\u65b9\u6574\u5099\u5c40\u9759\u5ca1\u56fd\u9053\u4e8b\u52d9\u6240","boring_xml_url":47,"boring_view_url":1,"soilmap_view_url":null,"soiltest_xml_url":0,"soiltest_view_url":0},{"id":695485,"code":"NGIC202304463-0009","latitude":"35.10546375","longitude":"138.56552105556","source_code":"","project_name":"","survey_name":"\u4ee4\u548c5\u5e74\u5ea6\u9759\u5ca1\u56fd\u9053\u7ba1\u5185\u5730\u8cea\u8abf\u67fb\u696d\u52d9","client_name":"\u56fd\u571f\u4ea4\u901a\u7701\u4e2d\u90e8\u5730\u65b9\u6574\u5099\u5c40\u9759\u5ca1\u56fd\u9053\u4e8b\u52d9\u6240","boring_xml_url":47,"boring_view_url":1,"soilmap_view_url":null,"soiltest_xml_url":0,"soiltest_view_url":0},{"id":695484,"code":"NGIC202304463-0008","latitude":"35.105854083333","longitude":"138.56580369444","source_code":"","project_name":"","survey_name":"\u4ee4\u548c5\u5e74\u5ea6\u9759\u5ca1\u56fd\u9053\u7ba1\u5185\u5730\u8cea\u8abf\u67fb\u696d\u52d9","client_name":"\u56fd\u571f\u4ea4\u901a\u7701\u4e2d\u90e8\u5730\u65b9\u6574\u5099\u5c40\u9759\u5ca1\u56fd\u9053\u4e8b\u52d9\u6240","boring_xml_url":47,"boring_view_url":1,"soilmap_view_url":null,"soiltest_xml_url":0,"soiltest_view_url":0},{"id":695483,"code":"NGIC202304463-0007","latitude":"34.940465277778","longitude":"138.32180194444","source_code":"","project_name":"","survey_name":"\u4ee4\u548c5\u5e74\u5ea6\u9759\u5ca1\u56fd\u9053\u7ba1\u5185\u5730\u8cea\u8abf\u67fb\u696d\u52d9","client_name":"\u56fd\u571f\u4ea4\u901a\u7701\u4e2d\u90e8\u5730\u65b9\u6574\u5099\u5c40\u9759\u5ca1\u56fd\u9053\u4e8b\u52d9\u6240","boring_xml_url":47,"boring_view_url":1,"soilmap_view_url":null,"soiltest_xml_url":0,"soiltest_view_url":0},{"id":695482,"code":"NGIC202304463-0006","latitude":"34.940508055556","longitude":"138.32164861111","source_code":"","project_name":"","survey_name":"\u4ee4\u548c5\u5e74\u5ea6\u9759\u5ca1\u56fd\u9053\u7ba1\u5185\u5730\u8cea\u8abf\u67fb\u696d\u52d9","client_name":"\u56fd\u571f\u4ea4\u901a\u7701\u4e2d\u90e8\u5730\u65b9\u6574\u5099\u5c40\u9759\u5ca1\u56fd\u9053\u4e8b\u52d9\u6240","boring_xml_url":47,"boring_view_url":1,"soilmap_view_url":null,"soiltest_xml_url":0,"soiltest_view_url":0},{"id":695481,"code":"NGIC202304463-0005","latitude":"34.880010611111","longitude":"138.23677930556","source_code":"","project_name":"","survey_name":"\u4ee4\u548c5\u5e74\u5ea6\u9759\u5ca1\u56fd\u9053\u7ba1\u5185\u5730\u8cea\u8abf\u67fb\u696d\u52d9","client_name":"\u56fd\u571f\u4ea4\u901a\u7701\u4e2d\u90e8\u5730\u65b9\u6574\u5099\u5c40\u9759\u5ca1\u56fd\u9053\u4e8b\u52d9\u6240","boring_xml_url":47,"boring_view_url":1,"soilmap_view_url":null,"soiltest_xml_url":47,"soiltest_view_url":47},{"id":695480,"code":"NGIC202304463-0004","latitude":"34.878880388889","longitude":"138.23509083333","source_code":"","project_name":"","survey_name":"\u4ee4\u548c5\u5e74\u5ea6\u9759\u5ca1\u56fd\u9053\u7ba1\u5185\u5730\u8cea\u8abf\u67fb\u696d\u52d9","client_name":"\u56fd\u571f\u4ea4\u901a\u7701\u4e2d\u90e8\u5730\u65b9\u6574\u5099\u5c40\u9759\u5ca1\u56fd\u9053\u4e8b\u52d9\u6240","boring_xml_url":47,"boring_view_url":1,"soilmap_view_url":null,"soiltest_xml_url":0,"soiltest_view_url":0},{"id":695479,"code":"NGIC202304463-0003","latitude":"34.878823277778","longitude":"138.23516244444","source_code":"","project_name":"","survey_name":"\u4ee4\u548c5\u5e74\u5ea6\u9759\u5ca1\u56fd\u9053\u7ba1\u5185\u5730\u8cea\u8abf\u67fb\u696d\u52d9","client_name":"\u56fd\u571f\u4ea4\u901a\u7701\u4e2d\u90e8\u5730\u65b9\u6574\u5099\u5c40\u9759\u5ca1\u56fd\u9053\u4e8b\u52d9\u6240","boring_xml_url":47,"boring_view_url":1,"soilmap_view_url":null,"soiltest_xml_url":0,"soiltest_view_url":0},{"id":695478,"code":"NGIC202304463-0002","latitude":"34.879515888889","longitude":"138.23586502778","source_code":"","project_name":"","survey_name":"\u4ee4\u548c5\u5e74\u5ea6\u9759\u5ca1\u56fd\u9053\u7ba1\u5185\u5730\u8cea\u8abf\u67fb\u696d\u52d9","client_name":"\u56fd\u571f\u4ea4\u901a\u7701\u4e2d\u90e8\u5730\u65b9\u6574\u5099\u5c40\u9759\u5ca1\u56fd\u9053\u4e8b\u52d9\u6240","boring_xml_url":47,"boring_view_url":1,"soilmap_view_url":null,"soiltest_xml_url":0,"soiltest_view_url":0},{"id":695477,"code":"NGIC202304463-0001","latitude":"34.879442777778","longitude":"138.23594205556","source_code":"","project_name":"","survey_name":"\u4ee4\u548c5\u5e74\u5ea6\u9759\u5ca1\u56fd\u9053\u7ba1\u5185\u5730\u8cea\u8abf\u67fb\u696d\u52d9","client_name":"\u56fd\u571f\u4ea4\u901a\u7701\u4e2d\u90e8\u5730\u65b9\u6574\u5099\u5c40\u9759\u5ca1\u56fd\u9053\u4e8b\u52d9\u6240","boring_xml_url":47,"boring_view_url":1,"soilmap_view_url":null,"soiltest_xml_url":0,"soiltest_view_url":0},{"id":695476,"code":"NGIC202304380-0002","latitude":"43.939400444444","longitude":"144.14617977778","source_code":"","project_name":"\u56fd\u55b6\u304b\u3093\u304c\u3044\u6392\u6c34\u4e8b\u696d","survey_name":"\u4ee4\u548c5\u5e74\u5ea6\u65bd\u884c\u7db2\u8d70\u5ddd\u8c4a\u4f4f\u5730\u533a\u8c4a\u4f4f\u6392\u6c34\u8def\u8a2d\u8a08\u7b49\u696d\u52d9","client_name":"\u56fd\u571f\u4ea4\u901a\u7701\u5317\u6d77\u9053\u958b\u767a\u5c40\u7db2\u8d70\u958b\u767a\u5efa\u8a2d\u90e8\u3000\u7db2\u8d70\u8fb2\u696d\u4e8b\u52d9\u6240","boring_xml_url":47,"boring_view_url":1,"soilmap_view_url":null,"soiltest_xml_url":47,"soiltest_view_url":47},{"id":695475,"code":"NGIC202304380-0001","latitude":"43.939400444444","longitude":"144.14618338889","source_code":"","project_name":"\u56fd\u55b6\u304b\u3093\u304c\u3044\u6392\u6c34\u4e8b\u696d","survey_name":"\u4ee4\u548c5\u5e74\u5ea6\u65bd\u884c\u7db2\u8d70\u5ddd\u8c4a\u4f4f\u5730\u533a\u8c4a\u4f4f\u6392\u6c34\u8def\u8a2d\u8a08\u7b49\u696d\u52d9","client_name":"\u56fd\u571f\u4ea4\u901a\u7701\u5317\u6d77\u9053\u958b\u767a\u5c40\u7db2\u8d70\u958b\u767a\u5efa\u8a2d\u90e8\u3000\u7db2\u8d70\u8fb2\u696d\u4e8b\u52d9\u6240","boring_xml_url":47,"boring_view_url":1,"soilmap_view_url":null,"soiltest_xml_url":47,"soiltest_view_url":47},{"id":695449,"code":"NGIC202304313-0023","latitude":"34.069831805556","longitude":"132.20319619444","source_code":"","project_name":"\u85e4\u751f\u9577\u91ce\u30d0\u30a4\u30d1\u30b9","survey_name":"\u4ee4\u548c5\u5e74\u5ea6\u85e4\u751f\u9577\u91ce\u30d0\u30a4\u30d1\u30b9\u5730\u8cea\u8abf\u67fb\u305d\u306e2\u696d\u52d9","client_name":"\u56fd\u571f\u4ea4\u901a\u7701\u4e2d\u56fd\u5730\u65b9\u6574\u5099\u5c40\u5c71\u53e3\u6cb3\u5ddd\u56fd\u9053\u4e8b\u52d9\u6240","boring_xml_url":47,"boring_view_url":1,"soilmap_view_url":null,"soiltest_xml_url":0,"soiltest_view_url":0},{"id":695448,"code":"NGIC202304313-0022","latitude":"34.070201916667","longitude":"132.20301316667","source_code":"","project_name":"\u85e4\u751f\u9577\u91ce\u30d0\u30a4\u30d1\u30b9","survey_name":"\u4ee4\u548c5\u5e74\u5ea6\u85e4\u751f\u9577\u91ce\u30d0\u30a4\u30d1\u30b9\u5730\u8cea\u8abf\u67fb\u305d\u306e2\u696d\u52d9","client_name":"\u56fd\u571f\u4ea4\u901a\u7701\u4e2d\u56fd\u5730\u65b9\u6574\u5099\u5c40\u5c71\u53e3\u6cb3\u5ddd\u56fd\u9053\u4e8b\u52d9\u6240","boring_xml_url":47,"boring_view_url":1,"soilmap_view_url":null,"soiltest_xml_url":0,"soiltest_view_url":0},{"id":695447,"code":"NGIC202304313-0021","latitude":"34.070247305556","longitude":"132.20305341667","source_code":"","project_name":"\u85e4\u751f\u9577\u91ce\u30d0\u30a4\u30d1\u30b9","survey_name":"\u4ee4\u548c5\u5e74\u5ea6\u85e4\u751f\u9577\u91ce\u30d0\u30a4\u30d1\u30b9\u5730\u8cea\u8abf\u67fb\u305d\u306e2\u696d\u52d9","client_name":"\u56fd\u571f\u4ea4\u901a\u7701\u4e2d\u56fd\u5730\u65b9\u6574\u5099\u5c40\u5c71\u53e3\u6cb3\u5ddd\u56fd\u9053\u4e8b\u52d9\u6240","boring_xml_url":47,"boring_view_url":1,"soilmap_view_url":null,"soiltest_xml_url":0,"soiltest_view_url":0},{"id":695446,"code":"NGIC202304313-0020","latitude":"34.070276833333","longitude":"132.20298561111","source_code":"","project_name":"\u85e4\u751f\u9577\u91ce\u30d0\u30a4\u30d1\u30b9","survey_name":"\u4ee4\u548c5\u5e74\u5ea6\u85e4\u751f\u9577\u91ce\u30d0\u30a4\u30d1\u30b9\u5730\u8cea\u8abf\u67fb\u305d\u306e2\u696d\u52d9","client_name":"\u56fd\u571f\u4ea4\u901a\u7701\u4e2d\u56fd\u5730\u65b9\u6574\u5099\u5c40\u5c71\u53e3\u6cb3\u5ddd\u56fd\u9053\u4e8b\u52d9\u6240","boring_xml_url":47,"boring_view_url":1,"soilmap_view_url":null,"soiltest_xml_url":0,"soiltest_view_url":0},{"id":695445,"code":"NGIC202304313-0019","latitude":"34.070292666667","longitude":"132.20309363889","source_code":"","project_name":"\u85e4\u751f\u9577\u91ce\u30d0\u30a4\u30d1\u30b9","survey_name":"\u4ee4\u548c5\u5e74\u5ea6\u85e4\u751f\u9577\u91ce\u30d0\u30a4\u30d1\u30b9\u5730\u8cea\u8abf\u67fb\u305d\u306e2\u696d\u52d9","client_name":"\u56fd\u571f\u4ea4\u901a\u7701\u4e2d\u56fd\u5730\u65b9\u6574\u5099\u5c40\u5c71\u53e3\u6cb3\u5ddd\u56fd\u9053\u4e8b\u52d9\u6240","boring_xml_url":47,"boring_view_url":1,"soilmap_view_url":null,"soiltest_xml_url":0,"soiltest_view_url":0},{"id":695444,"code":"NGIC202304313-0018","latitude":"34.070472611111","longitude":"132.20301097222","source_code":"","project_name":"\u85e4\u751f\u9577\u91ce\u30d0\u30a4\u30d1\u30b9","survey_name":"\u4ee4\u548c5\u5e74\u5ea6\u85e4\u751f\u9577\u91ce\u30d0\u30a4\u30d1\u30b9\u5730\u8cea\u8abf\u67fb\u305d\u306e2\u696d\u52d9","client_name":"\u56fd\u571f\u4ea4\u901a\u7701\u4e2d\u56fd\u5730\u65b9\u6574\u5099\u5c40\u5c71\u53e3\u6cb3\u5ddd\u56fd\u9053\u4e8b\u52d9\u6240","boring_xml_url":47,"boring_view_url":1,"soilmap_view_url":null,"soiltest_xml_url":0,"soiltest_view_url":0},{"id":695443,"code":"NGIC202304313-0017","latitude":"34.070484083333","longitude":"132.20294463889","source_code":"","project_name":"\u85e4\u751f\u9577\u91ce\u30d0\u30a4\u30d1\u30b9","survey_name":"\u4ee4\u548c5\u5e74\u5ea6\u85e4\u751f\u9577\u91ce\u30d0\u30a4\u30d1\u30b9\u5730\u8cea\u8abf\u67fb\u305d\u306e2\u696d\u52d9","client_name":"\u56fd\u571f\u4ea4\u901a\u7701\u4e2d\u56fd\u5730\u65b9\u6574\u5099\u5c40\u5c71\u53e3\u6cb3\u5ddd\u56fd\u9053\u4e8b\u52d9\u6240","boring_xml_url":47,"boring_view_url":1,"soilmap_view_url":null,"soiltest_xml_url":0,"soiltest_view_url":0},{"id":695442,"code":"NGIC202304313-0016","latitude":"34.070691861111","longitude":"132.20293141667","source_code":"","project_name":"\u85e4\u751f\u9577\u91ce\u30d0\u30a4\u30d1\u30b9","survey_name":"\u4ee4\u548c5\u5e74\u5ea6\u85e4\u751f\u9577\u91ce\u30d0\u30a4\u30d1\u30b9\u5730\u8cea\u8abf\u67fb\u305d\u306e2\u696d\u52d9","client_name":"\u56fd\u571f\u4ea4\u901a\u7701\u4e2d\u56fd\u5730\u65b9\u6574\u5099\u5c40\u5c71\u53e3\u6cb3\u5ddd\u56fd\u9053\u4e8b\u52d9\u6240","boring_xml_url":47,"boring_view_url":1,"soilmap_view_url":null,"soiltest_xml_url":0,"soiltest_view_url":0},{"id":695441,"code":"NGIC202304313-0015","latitude":"34.073705055556","longitude":"132.20064186111","source_code":"","project_name":"\u85e4\u751f\u9577\u91ce\u30d0\u30a4\u30d1\u30b9","survey_name":"\u4ee4\u548c5\u5e74\u5ea6\u85e4\u751f\u9577\u91ce\u30d0\u30a4\u30d1\u30b9\u5730\u8cea\u8abf\u67fb\u305d\u306e2\u696d\u52d9","client_name":"\u56fd\u571f\u4ea4\u901a\u7701\u4e2d\u56fd\u5730\u65b9\u6574\u5099\u5c40\u5c71\u53e3\u6cb3\u5ddd\u56fd\u9053\u4e8b\u52d9\u6240","boring_xml_url":47,"boring_view_url":1,"soilmap_view_url":null,"soiltest_xml_url":0,"soiltest_view_url":0},{"id":695440,"code":"NGIC202304313-0014","latitude":"34.073599","longitude":"132.20030686111","source_code":"","project_name":"\u85e4\u751f\u9577\u91ce\u30d0\u30a4\u30d1\u30b9","survey_name":"\u4ee4\u548c5\u5e74\u5ea6\u85e4\u751f\u9577\u91ce\u30d0\u30a4\u30d1\u30b9\u5730\u8cea\u8abf\u67fb\u305d\u306e2\u696d\u52d9","client_name":"\u56fd\u571f\u4ea4\u901a\u7701\u4e2d\u56fd\u5730\u65b9\u6574\u5099\u5c40\u5c71\u53e3\u6cb3\u5ddd\u56fd\u9053\u4e8b\u52d9\u6240","boring_xml_url":47,"boring_view_url":1,"soilmap_view_url":null,"soiltest_xml_url":0,"soiltest_view_url":0},{"id":695439,"code":"NGIC202304313-0013","latitude":"34.073474166667","longitude":"132.19991169444","source_code":"","project_name":"\u85e4\u751f\u9577\u91ce\u30d0\u30a4\u30d1\u30b9","survey_name":"\u4ee4\u548c5\u5e74\u5ea6\u85e4\u751f\u9577\u91ce\u30d0\u30a4\u30d1\u30b9\u5730\u8cea\u8abf\u67fb\u305d\u306e2\u696d\u52d9","client_name":"\u56fd\u571f\u4ea4\u901a\u7701\u4e2d\u56fd\u5730\u65b9\u6574\u5099\u5c40\u5c71\u53e3\u6cb3\u5ddd\u56fd\u9053\u4e8b\u52d9\u6240","boring_xml_url":47,"boring_view_url":1,"soilmap_view_url":null,"soiltest_xml_url":0,"soiltest_view_url":0},{"id":695438,"code":"NGIC202304313-0012","latitude":"34.074314694444","longitude":"132.20108761111","source_code":"","project_name":"\u85e4\u751f\u9577\u91ce\u30d0\u30a4\u30d1\u30b9","survey_name":"\u4ee4\u548c5\u5e74\u5ea6\u85e4\u751f\u9577\u91ce\u30d0\u30a4\u30d1\u30b9\u5730\u8cea\u8abf\u67fb\u305d\u306e2\u696d\u52d9","client_name":"\u56fd\u571f\u4ea4\u901a\u7701\u4e2d\u56fd\u5730\u65b9\u6574\u5099\u5c40\u5c71\u53e3\u6cb3\u5ddd\u56fd\u9053\u4e8b\u52d9\u6240","boring_xml_url":47,"boring_view_url":1,"soilmap_view_url":null,"soiltest_xml_url":47,"soiltest_view_url":47}]}}