{"header":{"xyz":{"source":[],"mosaic":false},"page":814,"raw":{"soiltest_result":"0","bbox":"57.598333,109.544722,1.933333,163.806111","page":"814"},"conditions":{"soiltest_result":0,"north":57.598333,"west":109.544722,"south":1.933333,"east":163.806111},"success":true,"message":""},"data":{"meta":{"total":212844,"page":814,"pages":7095,"count":30},"values":[{"id":520998,"code":"B4KJ202201002-3534","latitude":"34.128255","longitude":"131.607836","source_code":"CG028760520200130011","project_name":"\u5948\u7f8e\u5730\u533a\u6539\u7bc9\u5de5\u4e8b","survey_name":"\u4f50\u6ce2\u5ddd\u5948\u7f8e\u5730\u533a\u5730\u8cea\u8abf\u67fb\u696d\u52d9","client_name":"\u56fd\u571f\u4ea4\u901a\u7701\u4e2d\u56fd\u5730\u65b9\u6574\u5099\u5c40\u5c71\u53e3\u5de5\u4e8b\u4e8b\u52d9\u6240","boring_xml_url":68,"boring_view_url":1,"soilmap_view_url":null,"soiltest_xml_url":0,"soiltest_view_url":0},{"id":520997,"code":"B4KJ202201002-3533","latitude":"34.1277","longitude":"131.607836","source_code":"CG028760520200130010","project_name":"\u5948\u7f8e\u5730\u533a\u6539\u7bc9\u5de5\u4e8b","survey_name":"\u4f50\u6ce2\u5ddd\u5948\u7f8e\u5730\u533a\u5730\u8cea\u8abf\u67fb\u696d\u52d9","client_name":"\u56fd\u571f\u4ea4\u901a\u7701\u4e2d\u56fd\u5730\u65b9\u6574\u5099\u5c40\u5c71\u53e3\u5de5\u4e8b\u4e8b\u52d9\u6240","boring_xml_url":68,"boring_view_url":1,"soilmap_view_url":null,"soiltest_xml_url":0,"soiltest_view_url":0},{"id":520996,"code":"B4KJ202201002-3532","latitude":"34.128255","longitude":"131.607558","source_code":"CG028760520200130009","project_name":"\u5948\u7f8e\u5730\u533a\u6539\u7bc9\u5de5\u4e8b","survey_name":"\u4f50\u6ce2\u5ddd\u5948\u7f8e\u5730\u533a\u5730\u8cea\u8abf\u67fb\u696d\u52d9","client_name":"\u56fd\u571f\u4ea4\u901a\u7701\u4e2d\u56fd\u5730\u65b9\u6574\u5099\u5c40\u5c71\u53e3\u5de5\u4e8b\u4e8b\u52d9\u6240","boring_xml_url":68,"boring_view_url":1,"soilmap_view_url":null,"soiltest_xml_url":0,"soiltest_view_url":0},{"id":520995,"code":"B4KJ202201002-3531","latitude":"34.128533","longitude":"131.607836","source_code":"CG028760520200130008","project_name":"\u5948\u7f8e\u5730\u533a\u6539\u7bc9\u5de5\u4e8b","survey_name":"\u4f50\u6ce2\u5ddd\u5948\u7f8e\u5730\u533a\u5730\u8cea\u8abf\u67fb\u696d\u52d9","client_name":"\u56fd\u571f\u4ea4\u901a\u7701\u4e2d\u56fd\u5730\u65b9\u6574\u5099\u5c40\u5c71\u53e3\u5de5\u4e8b\u4e8b\u52d9\u6240","boring_xml_url":68,"boring_view_url":1,"soilmap_view_url":null,"soiltest_xml_url":0,"soiltest_view_url":0},{"id":520994,"code":"B4KJ202201002-3530","latitude":"34.128533","longitude":"131.608113","source_code":"CG028760520200130007","project_name":"\u5948\u7f8e\u5730\u533a\u6539\u7bc9\u5de5\u4e8b","survey_name":"\u4f50\u6ce2\u5ddd\u5948\u7f8e\u5730\u533a\u5730\u8cea\u8abf\u67fb\u696d\u52d9","client_name":"\u56fd\u571f\u4ea4\u901a\u7701\u4e2d\u56fd\u5730\u65b9\u6574\u5099\u5c40\u5c71\u53e3\u5de5\u4e8b\u4e8b\u52d9\u6240","boring_xml_url":68,"boring_view_url":1,"soilmap_view_url":null,"soiltest_xml_url":0,"soiltest_view_url":0},{"id":520993,"code":"B4KJ202201002-3529","latitude":"34.124923","longitude":"131.60728","source_code":"CG028760520200130006","project_name":"\u5948\u7f8e\u5730\u533a\u6539\u7bc9\u5de5\u4e8b","survey_name":"\u4f50\u6ce2\u5ddd\u5948\u7f8e\u5730\u533a\u5730\u8cea\u8abf\u67fb\u696d\u52d9","client_name":"\u56fd\u571f\u4ea4\u901a\u7701\u4e2d\u56fd\u5730\u65b9\u6574\u5099\u5c40\u5c71\u53e3\u5de5\u4e8b\u4e8b\u52d9\u6240","boring_xml_url":68,"boring_view_url":1,"soilmap_view_url":null,"soiltest_xml_url":0,"soiltest_view_url":0},{"id":520992,"code":"B4KJ202201002-3528","latitude":"34.1252","longitude":"131.60728","source_code":"CG028760520200130005","project_name":"\u5948\u7f8e\u5730\u533a\u6539\u7bc9\u5de5\u4e8b","survey_name":"\u4f50\u6ce2\u5ddd\u5948\u7f8e\u5730\u533a\u5730\u8cea\u8abf\u67fb\u696d\u52d9","client_name":"\u56fd\u571f\u4ea4\u901a\u7701\u4e2d\u56fd\u5730\u65b9\u6574\u5099\u5c40\u5c71\u53e3\u5de5\u4e8b\u4e8b\u52d9\u6240","boring_xml_url":68,"boring_view_url":1,"soilmap_view_url":null,"soiltest_xml_url":0,"soiltest_view_url":0},{"id":520991,"code":"B4KJ202201002-3527","latitude":"34.124645","longitude":"131.607002","source_code":"CG028760520200130004","project_name":"\u5948\u7f8e\u5730\u533a\u6539\u7bc9\u5de5\u4e8b","survey_name":"\u4f50\u6ce2\u5ddd\u5948\u7f8e\u5730\u533a\u5730\u8cea\u8abf\u67fb\u696d\u52d9","client_name":"\u56fd\u571f\u4ea4\u901a\u7701\u4e2d\u56fd\u5730\u65b9\u6574\u5099\u5c40\u5c71\u53e3\u5de5\u4e8b\u4e8b\u52d9\u6240","boring_xml_url":68,"boring_view_url":1,"soilmap_view_url":null,"soiltest_xml_url":0,"soiltest_view_url":0},{"id":520990,"code":"B4KJ202201002-3526","latitude":"34.1252","longitude":"131.607002","source_code":"CG028760520200130003","project_name":"\u5948\u7f8e\u5730\u533a\u6539\u7bc9\u5de5\u4e8b","survey_name":"\u4f50\u6ce2\u5ddd\u5948\u7f8e\u5730\u533a\u5730\u8cea\u8abf\u67fb\u696d\u52d9","client_name":"\u56fd\u571f\u4ea4\u901a\u7701\u4e2d\u56fd\u5730\u65b9\u6574\u5099\u5c40\u5c71\u53e3\u5de5\u4e8b\u4e8b\u52d9\u6240","boring_xml_url":68,"boring_view_url":1,"soilmap_view_url":null,"soiltest_xml_url":0,"soiltest_view_url":0},{"id":520989,"code":"B4KJ202201002-3525","latitude":"34.123811","longitude":"131.606725","source_code":"CG028760520200130002","project_name":"\u5948\u7f8e\u5730\u533a\u6539\u7bc9\u5de5\u4e8b","survey_name":"\u4f50\u6ce2\u5ddd\u5948\u7f8e\u5730\u533a\u5730\u8cea\u8abf\u67fb\u696d\u52d9","client_name":"\u56fd\u571f\u4ea4\u901a\u7701\u4e2d\u56fd\u5730\u65b9\u6574\u5099\u5c40\u5c71\u53e3\u5de5\u4e8b\u4e8b\u52d9\u6240","boring_xml_url":68,"boring_view_url":1,"soilmap_view_url":null,"soiltest_xml_url":0,"soiltest_view_url":0},{"id":520988,"code":"B4KJ202201002-3524","latitude":"34.123534","longitude":"131.60728","source_code":"CG028760520200130001","project_name":"\u5948\u7f8e\u5730\u533a\u6539\u7bc9\u5de5\u4e8b","survey_name":"\u4f50\u6ce2\u5ddd\u5948\u7f8e\u5730\u533a\u5730\u8cea\u8abf\u67fb\u696d\u52d9","client_name":"\u56fd\u571f\u4ea4\u901a\u7701\u4e2d\u56fd\u5730\u65b9\u6574\u5099\u5c40\u5c71\u53e3\u5de5\u4e8b\u4e8b\u52d9\u6240","boring_xml_url":68,"boring_view_url":1,"soilmap_view_url":null,"soiltest_xml_url":0,"soiltest_view_url":0},{"id":520987,"code":"B4KJ202201002-3523","latitude":"34.355082","longitude":"132.518949","source_code":"CG028755600200310014","project_name":"\u4e00\u822c\u56fd\u90532\u53f7\u5e83\u5cf6\u5357\u9053\u8def","survey_name":"\u5e83\u5cf6\u5357\u9053\u8def\uff08\u660e\u795e\u5730\u533a\uff09\u5730\u8cea\u8abf\u67fb\u696d\u52d9","client_name":"\u56fd\u571f\u4ea4\u901a\u7701\u4e2d\u56fd\u5730\u65b9\u6574\u5099\u5c40\u5e83\u5cf6\u56fd\u9053\u5de5\u4e8b\u4e8b\u52d9\u6240","boring_xml_url":68,"boring_view_url":1,"soilmap_view_url":null,"soiltest_xml_url":0,"soiltest_view_url":0},{"id":520986,"code":"B4KJ202201002-3522","latitude":"34.35486","longitude":"132.518393","source_code":"CG028755600200310013","project_name":"\u4e00\u822c\u56fd\u90532\u53f7\u5e83\u5cf6\u5357\u9053\u8def","survey_name":"\u5e83\u5cf6\u5357\u9053\u8def\uff08\u660e\u795e\u5730\u533a\uff09\u5730\u8cea\u8abf\u67fb\u696d\u52d9","client_name":"\u56fd\u571f\u4ea4\u901a\u7701\u4e2d\u56fd\u5730\u65b9\u6574\u5099\u5c40\u5e83\u5cf6\u56fd\u9053\u5de5\u4e8b\u4e8b\u52d9\u6240","boring_xml_url":68,"boring_view_url":1,"soilmap_view_url":null,"soiltest_xml_url":0,"soiltest_view_url":0},{"id":520985,"code":"B4KJ202201002-3521","latitude":"34.239639","longitude":"132.607611","source_code":"CG018755600200800009","project_name":"\u6771\u5e83\u5cf6\u5449\u81ea\u52d5\u8eca\u9053","survey_name":"\u63da\u5c71\u5730\u8cea\u8abf\u67fb\u696d\u52d9","client_name":"\"\u56fd\u571f\u4ea4\u901a\u7701 \u4e2d\u56fd\u5730\u65b9\u6574\u5099\u5c40 \u5e83\u5cf6\u56fd\u9053\u5de5\u4e8b\u4e8b\u52d9\u6240\"","boring_xml_url":68,"boring_view_url":1,"soilmap_view_url":null,"soiltest_xml_url":0,"soiltest_view_url":0},{"id":520984,"code":"B4KJ202201002-3520","latitude":"34.268444","longitude":"132.627667","source_code":"CG018755600200800008","project_name":"\u6771\u5e83\u5cf6\u5449\u81ea\u52d5\u8eca\u9053","survey_name":"\u63da\u5c71\u5730\u8cea\u8abf\u67fb\u696d\u52d9","client_name":"\"\u56fd\u571f\u4ea4\u901a\u7701 \u4e2d\u56fd\u5730\u65b9\u6574\u5099\u5c40 \u5e83\u5cf6\u56fd\u9053\u5de5\u4e8b\u4e8b\u52d9\u6240\"","boring_xml_url":68,"boring_view_url":1,"soilmap_view_url":null,"soiltest_xml_url":0,"soiltest_view_url":0},{"id":520983,"code":"B4KJ202201002-3519","latitude":"34.267806","longitude":"132.627194","source_code":"CG018755600200800007","project_name":"\u6771\u5e83\u5cf6\u5449\u81ea\u52d5\u8eca\u9053","survey_name":"\u63da\u5c71\u5730\u8cea\u8abf\u67fb\u696d\u52d9","client_name":"\"\u56fd\u571f\u4ea4\u901a\u7701 \u4e2d\u56fd\u5730\u65b9\u6574\u5099\u5c40 \u5e83\u5cf6\u56fd\u9053\u5de5\u4e8b\u4e8b\u52d9\u6240\"","boring_xml_url":68,"boring_view_url":1,"soilmap_view_url":null,"soiltest_xml_url":0,"soiltest_view_url":0},{"id":520982,"code":"B4KJ202201002-3518","latitude":"34.267361","longitude":"132.626833","source_code":"CG018755600200800006","project_name":"\u6771\u5e83\u5cf6\u5449\u81ea\u52d5\u8eca\u9053","survey_name":"\u63da\u5c71\u5730\u8cea\u8abf\u67fb\u696d\u52d9","client_name":"\"\u56fd\u571f\u4ea4\u901a\u7701 \u4e2d\u56fd\u5730\u65b9\u6574\u5099\u5c40 \u5e83\u5cf6\u56fd\u9053\u5de5\u4e8b\u4e8b\u52d9\u6240\"","boring_xml_url":68,"boring_view_url":1,"soilmap_view_url":null,"soiltest_xml_url":0,"soiltest_view_url":0},{"id":520981,"code":"B4KJ202201002-3517","latitude":"34.259444","longitude":"132.619528","source_code":"CG018755600200800005","project_name":"\u6771\u5e83\u5cf6\u5449\u81ea\u52d5\u8eca\u9053","survey_name":"\u63da\u5c71\u5730\u8cea\u8abf\u67fb\u696d\u52d9","client_name":"\"\u56fd\u571f\u4ea4\u901a\u7701 \u4e2d\u56fd\u5730\u65b9\u6574\u5099\u5c40 \u5e83\u5cf6\u56fd\u9053\u5de5\u4e8b\u4e8b\u52d9\u6240\"","boring_xml_url":68,"boring_view_url":1,"soilmap_view_url":null,"soiltest_xml_url":0,"soiltest_view_url":0},{"id":520980,"code":"B4KJ202201002-3516","latitude":"34.259167","longitude":"132.61975","source_code":"CG018755600200800004","project_name":"\u6771\u5e83\u5cf6\u5449\u81ea\u52d5\u8eca\u9053","survey_name":"\u63da\u5c71\u5730\u8cea\u8abf\u67fb\u696d\u52d9","client_name":"\"\u56fd\u571f\u4ea4\u901a\u7701 \u4e2d\u56fd\u5730\u65b9\u6574\u5099\u5c40 \u5e83\u5cf6\u56fd\u9053\u5de5\u4e8b\u4e8b\u52d9\u6240\"","boring_xml_url":68,"boring_view_url":1,"soilmap_view_url":null,"soiltest_xml_url":0,"soiltest_view_url":0},{"id":520979,"code":"B4KJ202201002-3515","latitude":"34.267361","longitude":"132.626389","source_code":"CG018755600200800003","project_name":"\u6771\u5e83\u5cf6\u5449\u81ea\u52d5\u8eca\u9053","survey_name":"\u63da\u5c71\u5730\u8cea\u8abf\u67fb\u696d\u52d9","client_name":"\"\u56fd\u571f\u4ea4\u901a\u7701 \u4e2d\u56fd\u5730\u65b9\u6574\u5099\u5c40 \u5e83\u5cf6\u56fd\u9053\u5de5\u4e8b\u4e8b\u52d9\u6240\"","boring_xml_url":68,"boring_view_url":1,"soilmap_view_url":null,"soiltest_xml_url":0,"soiltest_view_url":0},{"id":520978,"code":"B4KJ202201002-3514","latitude":"34.266806","longitude":"132.626472","source_code":"CG018755600200800002","project_name":"\u6771\u5e83\u5cf6\u5449\u81ea\u52d5\u8eca\u9053","survey_name":"\u63da\u5c71\u5730\u8cea\u8abf\u67fb\u696d\u52d9","client_name":"\"\u56fd\u571f\u4ea4\u901a\u7701 \u4e2d\u56fd\u5730\u65b9\u6574\u5099\u5c40 \u5e83\u5cf6\u56fd\u9053\u5de5\u4e8b\u4e8b\u52d9\u6240\"","boring_xml_url":68,"boring_view_url":1,"soilmap_view_url":null,"soiltest_xml_url":0,"soiltest_view_url":0},{"id":520977,"code":"B4KJ202201002-3513","latitude":"34.266889","longitude":"132.626556","source_code":"CG018755600200800001","project_name":"\u6771\u5e83\u5cf6\u5449\u81ea\u52d5\u8eca\u9053","survey_name":"\u63da\u5c71\u5730\u8cea\u8abf\u67fb\u696d\u52d9","client_name":"\"\u56fd\u571f\u4ea4\u901a\u7701 \u4e2d\u56fd\u5730\u65b9\u6574\u5099\u5c40 \u5e83\u5cf6\u56fd\u9053\u5de5\u4e8b\u4e8b\u52d9\u6240\"","boring_xml_url":68,"boring_view_url":1,"soilmap_view_url":null,"soiltest_xml_url":0,"soiltest_view_url":0},{"id":520976,"code":"B4KJ202201002-3512","latitude":"34.352436","longitude":"132.292048","source_code":"CG028753420200210016","project_name":"","survey_name":"\u5e83\u5cf6\u897f\u90e8\u5c71\u7cfb\u5bae\u5712\u30fb\u56db\u5b63\u304c\u4e18\u5730\u533a\u5730\u8cea\u8abf\u67fb(\u305d\u306e3)\u696d\u52d9","client_name":"\u56fd\u571f\u4ea4\u901a\u7701\u3000\u4e2d\u56fd\u5730\u65b9\u6574\u5099\u5c40\u3000\u592a\u7530\u5ddd\u4e8b\u52d9\u6240","boring_xml_url":68,"boring_view_url":1,"soilmap_view_url":null,"soiltest_xml_url":0,"soiltest_view_url":0},{"id":520975,"code":"B4KJ202201002-3511","latitude":"34.352604","longitude":"132.29179","source_code":"CG028753420200210015","project_name":"","survey_name":"\u5e83\u5cf6\u897f\u90e8\u5c71\u7cfb\u5bae\u5712\u30fb\u56db\u5b63\u304c\u4e18\u5730\u533a\u5730\u8cea\u8abf\u67fb(\u305d\u306e3)\u696d\u52d9","client_name":"\u56fd\u571f\u4ea4\u901a\u7701\u3000\u4e2d\u56fd\u5730\u65b9\u6574\u5099\u5c40\u3000\u592a\u7530\u5ddd\u4e8b\u52d9\u6240","boring_xml_url":68,"boring_view_url":1,"soilmap_view_url":null,"soiltest_xml_url":0,"soiltest_view_url":0},{"id":520974,"code":"B4KJ202201002-3510","latitude":"34.352647","longitude":"132.291981","source_code":"CG028753420200210014","project_name":"","survey_name":"\u5e83\u5cf6\u897f\u90e8\u5c71\u7cfb\u5bae\u5712\u30fb\u56db\u5b63\u304c\u4e18\u5730\u533a\u5730\u8cea\u8abf\u67fb(\u305d\u306e3)\u696d\u52d9","client_name":"\u56fd\u571f\u4ea4\u901a\u7701\u3000\u4e2d\u56fd\u5730\u65b9\u6574\u5099\u5c40\u3000\u592a\u7530\u5ddd\u4e8b\u52d9\u6240","boring_xml_url":68,"boring_view_url":1,"soilmap_view_url":null,"soiltest_xml_url":0,"soiltest_view_url":0},{"id":520973,"code":"B4KJ202201002-3509","latitude":"34.352462","longitude":"132.291808","source_code":"CG028753420200210013","project_name":"","survey_name":"\u5e83\u5cf6\u897f\u90e8\u5c71\u7cfb\u5bae\u5712\u30fb\u56db\u5b63\u304c\u4e18\u5730\u533a\u5730\u8cea\u8abf\u67fb(\u305d\u306e3)\u696d\u52d9","client_name":"\u56fd\u571f\u4ea4\u901a\u7701\u3000\u4e2d\u56fd\u5730\u65b9\u6574\u5099\u5c40\u3000\u592a\u7530\u5ddd\u4e8b\u52d9\u6240","boring_xml_url":68,"boring_view_url":1,"soilmap_view_url":null,"soiltest_xml_url":0,"soiltest_view_url":0},{"id":520972,"code":"B4KJ202201002-3508","latitude":"34.352544","longitude":"132.291884","source_code":"CG028753420200210012","project_name":"","survey_name":"\u5e83\u5cf6\u897f\u90e8\u5c71\u7cfb\u5bae\u5712\u30fb\u56db\u5b63\u304c\u4e18\u5730\u533a\u5730\u8cea\u8abf\u67fb(\u305d\u306e3)\u696d\u52d9","client_name":"\u56fd\u571f\u4ea4\u901a\u7701\u3000\u4e2d\u56fd\u5730\u65b9\u6574\u5099\u5c40\u3000\u592a\u7530\u5ddd\u4e8b\u52d9\u6240","boring_xml_url":68,"boring_view_url":1,"soilmap_view_url":null,"soiltest_xml_url":0,"soiltest_view_url":0},{"id":520971,"code":"B4KJ202201002-3507","latitude":"34.353413","longitude":"132.293102","source_code":"CG028753420200210011","project_name":"","survey_name":"\u5e83\u5cf6\u897f\u90e8\u5c71\u7cfb\u5bae\u5712\u30fb\u56db\u5b63\u304c\u4e18\u5730\u533a\u5730\u8cea\u8abf\u67fb(\u305d\u306e3)\u696d\u52d9","client_name":"\u56fd\u571f\u4ea4\u901a\u7701\u3000\u4e2d\u56fd\u5730\u65b9\u6574\u5099\u5c40\u3000\u592a\u7530\u5ddd\u4e8b\u52d9\u6240","boring_xml_url":68,"boring_view_url":1,"soilmap_view_url":null,"soiltest_xml_url":0,"soiltest_view_url":0},{"id":520970,"code":"B4KJ202201002-3506","latitude":"34.35352","longitude":"132.292829","source_code":"CG028753420200210010","project_name":"","survey_name":"\u5e83\u5cf6\u897f\u90e8\u5c71\u7cfb\u5bae\u5712\u30fb\u56db\u5b63\u304c\u4e18\u5730\u533a\u5730\u8cea\u8abf\u67fb(\u305d\u306e3)\u696d\u52d9","client_name":"\u56fd\u571f\u4ea4\u901a\u7701\u3000\u4e2d\u56fd\u5730\u65b9\u6574\u5099\u5c40\u3000\u592a\u7530\u5ddd\u4e8b\u52d9\u6240","boring_xml_url":68,"boring_view_url":1,"soilmap_view_url":null,"soiltest_xml_url":0,"soiltest_view_url":0},{"id":520969,"code":"B4KJ202201002-3505","latitude":"34.353604","longitude":"132.292997","source_code":"CG028753420200210009","project_name":"","survey_name":"\u5e83\u5cf6\u897f\u90e8\u5c71\u7cfb\u5bae\u5712\u30fb\u56db\u5b63\u304c\u4e18\u5730\u533a\u5730\u8cea\u8abf\u67fb(\u305d\u306e3)\u696d\u52d9","client_name":"\u56fd\u571f\u4ea4\u901a\u7701\u3000\u4e2d\u56fd\u5730\u65b9\u6574\u5099\u5c40\u3000\u592a\u7530\u5ddd\u4e8b\u52d9\u6240","boring_xml_url":68,"boring_view_url":1,"soilmap_view_url":null,"soiltest_xml_url":0,"soiltest_view_url":0}]}}