{"header":{"xyz":{"source":[],"mosaic":false},"page":818,"raw":{"soiltest_result":"0","bbox":"57.598333,109.544722,1.933333,163.806111","page":"818"},"conditions":{"soiltest_result":0,"north":57.598333,"west":109.544722,"south":1.933333,"east":163.806111},"success":true,"message":""},"data":{"meta":{"total":212844,"page":818,"pages":7095,"count":30},"values":[{"id":520878,"code":"B4KJ202201002-3414","latitude":"34.159376","longitude":"132.207507","source_code":"CG018760600200250014","project_name":"","survey_name":"\u9580\u524d\u5ddd\u6a4b\u4ed6\u5730\u8cea\u8abf\u67fb\u696d\u52d9","client_name":"\u56fd\u571f\u4ea4\u901a\u7701\u3000\u4e2d\u56fd\u5730\u65b9\u6574\u5099\u5c40\u3000\u5c71\u53e3\u5de5\u4e8b\u4e8b\u52d9\u6240","boring_xml_url":68,"boring_view_url":1,"soilmap_view_url":null,"soiltest_xml_url":0,"soiltest_view_url":0},{"id":520877,"code":"B4KJ202201002-3413","latitude":"34.159098","longitude":"132.207784","source_code":"CG018760600200250013","project_name":"","survey_name":"\u9580\u524d\u5ddd\u6a4b\u4ed6\u5730\u8cea\u8abf\u67fb\u696d\u52d9","client_name":"\u56fd\u571f\u4ea4\u901a\u7701\u3000\u4e2d\u56fd\u5730\u65b9\u6574\u5099\u5c40\u3000\u5c71\u53e3\u5de5\u4e8b\u4e8b\u52d9\u6240","boring_xml_url":68,"boring_view_url":1,"soilmap_view_url":null,"soiltest_xml_url":0,"soiltest_view_url":0},{"id":520876,"code":"B4KJ202201002-3412","latitude":"34.15882","longitude":"132.207784","source_code":"CG018760600200250012","project_name":"","survey_name":"\u9580\u524d\u5ddd\u6a4b\u4ed6\u5730\u8cea\u8abf\u67fb\u696d\u52d9","client_name":"\u56fd\u571f\u4ea4\u901a\u7701\u3000\u4e2d\u56fd\u5730\u65b9\u6574\u5099\u5c40\u3000\u5c71\u53e3\u5de5\u4e8b\u4e8b\u52d9\u6240","boring_xml_url":68,"boring_view_url":1,"soilmap_view_url":null,"soiltest_xml_url":0,"soiltest_view_url":0},{"id":520875,"code":"B4KJ202201002-3411","latitude":"34.158265","longitude":"132.207784","source_code":"CG018760600200250011","project_name":"","survey_name":"\u9580\u524d\u5ddd\u6a4b\u4ed6\u5730\u8cea\u8abf\u67fb\u696d\u52d9","client_name":"\u56fd\u571f\u4ea4\u901a\u7701\u3000\u4e2d\u56fd\u5730\u65b9\u6574\u5099\u5c40\u3000\u5c71\u53e3\u5de5\u4e8b\u4e8b\u52d9\u6240","boring_xml_url":68,"boring_view_url":1,"soilmap_view_url":null,"soiltest_xml_url":0,"soiltest_view_url":0},{"id":520874,"code":"B4KJ202201002-3410","latitude":"34.157987","longitude":"132.207784","source_code":"CG018760600200250010","project_name":"","survey_name":"\u9580\u524d\u5ddd\u6a4b\u4ed6\u5730\u8cea\u8abf\u67fb\u696d\u52d9","client_name":"\u56fd\u571f\u4ea4\u901a\u7701\u3000\u4e2d\u56fd\u5730\u65b9\u6574\u5099\u5c40\u3000\u5c71\u53e3\u5de5\u4e8b\u4e8b\u52d9\u6240","boring_xml_url":68,"boring_view_url":1,"soilmap_view_url":null,"soiltest_xml_url":0,"soiltest_view_url":0},{"id":520873,"code":"B4KJ202201002-3409","latitude":"34.157709","longitude":"132.207784","source_code":"CG018760600200250009","project_name":"","survey_name":"\u9580\u524d\u5ddd\u6a4b\u4ed6\u5730\u8cea\u8abf\u67fb\u696d\u52d9","client_name":"\u56fd\u571f\u4ea4\u901a\u7701\u3000\u4e2d\u56fd\u5730\u65b9\u6574\u5099\u5c40\u3000\u5c71\u53e3\u5de5\u4e8b\u4e8b\u52d9\u6240","boring_xml_url":68,"boring_view_url":1,"soilmap_view_url":null,"soiltest_xml_url":0,"soiltest_view_url":0},{"id":520872,"code":"B4KJ202201002-3408","latitude":"34.154932","longitude":"132.207229","source_code":"CG018760600200250008","project_name":"","survey_name":"\u9580\u524d\u5ddd\u6a4b\u4ed6\u5730\u8cea\u8abf\u67fb\u696d\u52d9","client_name":"\u56fd\u571f\u4ea4\u901a\u7701\u3000\u4e2d\u56fd\u5730\u65b9\u6574\u5099\u5c40\u3000\u5c71\u53e3\u5de5\u4e8b\u4e8b\u52d9\u6240","boring_xml_url":68,"boring_view_url":1,"soilmap_view_url":null,"soiltest_xml_url":0,"soiltest_view_url":0},{"id":520871,"code":"B4KJ202201002-3407","latitude":"34.154654","longitude":"132.207229","source_code":"CG018760600200250007","project_name":"","survey_name":"\u9580\u524d\u5ddd\u6a4b\u4ed6\u5730\u8cea\u8abf\u67fb\u696d\u52d9","client_name":"\u56fd\u571f\u4ea4\u901a\u7701\u3000\u4e2d\u56fd\u5730\u65b9\u6574\u5099\u5c40\u3000\u5c71\u53e3\u5de5\u4e8b\u4e8b\u52d9\u6240","boring_xml_url":68,"boring_view_url":1,"soilmap_view_url":null,"soiltest_xml_url":0,"soiltest_view_url":0},{"id":520870,"code":"B4KJ202201002-3406","latitude":"34.154376","longitude":"132.207229","source_code":"CG018760600200250006","project_name":"","survey_name":"\u9580\u524d\u5ddd\u6a4b\u4ed6\u5730\u8cea\u8abf\u67fb\u696d\u52d9","client_name":"\u56fd\u571f\u4ea4\u901a\u7701\u3000\u4e2d\u56fd\u5730\u65b9\u6574\u5099\u5c40\u3000\u5c71\u53e3\u5de5\u4e8b\u4e8b\u52d9\u6240","boring_xml_url":68,"boring_view_url":1,"soilmap_view_url":null,"soiltest_xml_url":0,"soiltest_view_url":0},{"id":520869,"code":"B4KJ202201002-3405","latitude":"34.153821","longitude":"132.206951","source_code":"CG018760600200250005","project_name":"","survey_name":"\u9580\u524d\u5ddd\u6a4b\u4ed6\u5730\u8cea\u8abf\u67fb\u696d\u52d9","client_name":"\u56fd\u571f\u4ea4\u901a\u7701\u3000\u4e2d\u56fd\u5730\u65b9\u6574\u5099\u5c40\u3000\u5c71\u53e3\u5de5\u4e8b\u4e8b\u52d9\u6240","boring_xml_url":68,"boring_view_url":1,"soilmap_view_url":null,"soiltest_xml_url":0,"soiltest_view_url":0},{"id":520868,"code":"B4KJ202201002-3404","latitude":"34.153543","longitude":"132.206673","source_code":"CG018760600200250004","project_name":"","survey_name":"\u9580\u524d\u5ddd\u6a4b\u4ed6\u5730\u8cea\u8abf\u67fb\u696d\u52d9","client_name":"\u56fd\u571f\u4ea4\u901a\u7701\u3000\u4e2d\u56fd\u5730\u65b9\u6574\u5099\u5c40\u3000\u5c71\u53e3\u5de5\u4e8b\u4e8b\u52d9\u6240","boring_xml_url":68,"boring_view_url":1,"soilmap_view_url":null,"soiltest_xml_url":0,"soiltest_view_url":0},{"id":520867,"code":"B4KJ202201002-3403","latitude":"34.149722","longitude":"132.208889","source_code":"CG018760600200250003","project_name":"","survey_name":"\u9580\u524d\u5ddd\u6a4b\u4ed6\u5730\u8cea\u8abf\u67fb\u696d\u52d9","client_name":"\u56fd\u571f\u4ea4\u901a\u7701\u3000\u4e2d\u56fd\u5730\u65b9\u6574\u5099\u5c40\u3000\u5c71\u53e3\u5de5\u4e8b\u4e8b\u52d9\u6240","boring_xml_url":68,"boring_view_url":1,"soilmap_view_url":null,"soiltest_xml_url":0,"soiltest_view_url":0},{"id":520866,"code":"B4KJ202201002-3402","latitude":"34.15271","longitude":"132.206396","source_code":"CG018760600200250002","project_name":"","survey_name":"\u9580\u524d\u5ddd\u6a4b\u4ed6\u5730\u8cea\u8abf\u67fb\u696d\u52d9","client_name":"\u56fd\u571f\u4ea4\u901a\u7701\u3000\u4e2d\u56fd\u5730\u65b9\u6574\u5099\u5c40\u3000\u5c71\u53e3\u5de5\u4e8b\u4e8b\u52d9\u6240","boring_xml_url":68,"boring_view_url":1,"soilmap_view_url":null,"soiltest_xml_url":0,"soiltest_view_url":0},{"id":520865,"code":"B4KJ202201002-3401","latitude":"34.152432","longitude":"132.206396","source_code":"CG018760600200250001","project_name":"","survey_name":"\u9580\u524d\u5ddd\u6a4b\u4ed6\u5730\u8cea\u8abf\u67fb\u696d\u52d9","client_name":"\u56fd\u571f\u4ea4\u901a\u7701\u3000\u4e2d\u56fd\u5730\u65b9\u6574\u5099\u5c40\u3000\u5c71\u53e3\u5de5\u4e8b\u4e8b\u52d9\u6240","boring_xml_url":68,"boring_view_url":1,"soilmap_view_url":null,"soiltest_xml_url":0,"soiltest_view_url":0},{"id":520864,"code":"B4KJ202201002-3400","latitude":"34.377741","longitude":"132.55611","source_code":"CG018755600200460019","project_name":"\u5b89\u82b8\u30d0\u30a4\u30d1\u30b9\uff08\u4e0a\u702c\u91ce\u5730\u533a\uff09\u4ed6\u5730\u8cea\u8abf\u67fb\u696d\u52d9","survey_name":"\u5b89\u82b8\u30d0\u30a4\u30d1\u30b9\uff08\u4e0a\u702c\u91ce\u5730\u533a\uff09\u4ed6\u5730\u8cea\u8abf\u67fb\u696d\u52d9","client_name":"\u56fd\u571f\u4ea4\u901a\u7701\u4e2d\u56fd\u5730\u65b9\u6574\u5099\u5c40\u5e83\u5cf6\u56fd\u9053\u5de5\u4e8b\u4e8b\u52d9\u6240","boring_xml_url":68,"boring_view_url":1,"soilmap_view_url":null,"soiltest_xml_url":0,"soiltest_view_url":0},{"id":520863,"code":"B4KJ202201002-3399","latitude":"34.378327","longitude":"132.556173","source_code":"CG018755600200460018","project_name":"\u5b89\u82b8\u30d0\u30a4\u30d1\u30b9\uff08\u4e0a\u702c\u91ce\u5730\u533a\uff09\u4ed6\u5730\u8cea\u8abf\u67fb\u696d\u52d9","survey_name":"\u5b89\u82b8\u30d0\u30a4\u30d1\u30b9\uff08\u4e0a\u702c\u91ce\u5730\u533a\uff09\u4ed6\u5730\u8cea\u8abf\u67fb\u696d\u52d9","client_name":"\u56fd\u571f\u4ea4\u901a\u7701\u4e2d\u56fd\u5730\u65b9\u6574\u5099\u5c40\u5e83\u5cf6\u56fd\u9053\u5de5\u4e8b\u4e8b\u52d9\u6240","boring_xml_url":68,"boring_view_url":1,"soilmap_view_url":null,"soiltest_xml_url":0,"soiltest_view_url":0},{"id":520862,"code":"B4KJ202201002-3398","latitude":"34.436021","longitude":"132.654129","source_code":"CG018755600200460017","project_name":"\u5b89\u82b8\u30d0\u30a4\u30d1\u30b9\uff08\u4e0a\u702c\u91ce\u5730\u533a\uff09\u4ed6\u5730\u8cea\u8abf\u67fb\u696d\u52d9","survey_name":"\u5b89\u82b8\u30d0\u30a4\u30d1\u30b9\uff08\u4e0a\u702c\u91ce\u5730\u533a\uff09\u4ed6\u5730\u8cea\u8abf\u67fb\u696d\u52d9","client_name":"\u56fd\u571f\u4ea4\u901a\u7701\u4e2d\u56fd\u5730\u65b9\u6574\u5099\u5c40\u5e83\u5cf6\u56fd\u9053\u5de5\u4e8b\u4e8b\u52d9\u6240","boring_xml_url":68,"boring_view_url":1,"soilmap_view_url":null,"soiltest_xml_url":0,"soiltest_view_url":0},{"id":520861,"code":"B4KJ202201002-3397","latitude":"34.43691","longitude":"132.654851","source_code":"CG018755600200460016","project_name":"\u5b89\u82b8\u30d0\u30a4\u30d1\u30b9\uff08\u4e0a\u702c\u91ce\u5730\u533a\uff09\u4ed6\u5730\u8cea\u8abf\u67fb\u696d\u52d9","survey_name":"\u5b89\u82b8\u30d0\u30a4\u30d1\u30b9\uff08\u4e0a\u702c\u91ce\u5730\u533a\uff09\u4ed6\u5730\u8cea\u8abf\u67fb\u696d\u52d9","client_name":"\u56fd\u571f\u4ea4\u901a\u7701\u4e2d\u56fd\u5730\u65b9\u6574\u5099\u5c40\u5e83\u5cf6\u56fd\u9053\u5de5\u4e8b\u4e8b\u52d9\u6240","boring_xml_url":68,"boring_view_url":1,"soilmap_view_url":null,"soiltest_xml_url":0,"soiltest_view_url":0},{"id":520860,"code":"B4KJ202201002-3396","latitude":"34.437354","longitude":"132.655295","source_code":"CG018755600200460015","project_name":"\u5b89\u82b8\u30d0\u30a4\u30d1\u30b9\uff08\u4e0a\u702c\u91ce\u5730\u533a\uff09\u4ed6\u5730\u8cea\u8abf\u67fb\u696d\u52d9","survey_name":"\u5b89\u82b8\u30d0\u30a4\u30d1\u30b9\uff08\u4e0a\u702c\u91ce\u5730\u533a\uff09\u4ed6\u5730\u8cea\u8abf\u67fb\u696d\u52d9","client_name":"\u56fd\u571f\u4ea4\u901a\u7701\u4e2d\u56fd\u5730\u65b9\u6574\u5099\u5c40\u5e83\u5cf6\u56fd\u9053\u5de5\u4e8b\u4e8b\u52d9\u6240","boring_xml_url":68,"boring_view_url":1,"soilmap_view_url":null,"soiltest_xml_url":0,"soiltest_view_url":0},{"id":520859,"code":"B4KJ202201002-3395","latitude":"34.437549","longitude":"132.655545","source_code":"CG018755600200460014","project_name":"\u5b89\u82b8\u30d0\u30a4\u30d1\u30b9\uff08\u4e0a\u702c\u91ce\u5730\u533a\uff09\u4ed6\u5730\u8cea\u8abf\u67fb\u696d\u52d9","survey_name":"\u5b89\u82b8\u30d0\u30a4\u30d1\u30b9\uff08\u4e0a\u702c\u91ce\u5730\u533a\uff09\u4ed6\u5730\u8cea\u8abf\u67fb\u696d\u52d9","client_name":"\u56fd\u571f\u4ea4\u901a\u7701\u4e2d\u56fd\u5730\u65b9\u6574\u5099\u5c40\u5e83\u5cf6\u56fd\u9053\u5de5\u4e8b\u4e8b\u52d9\u6240","boring_xml_url":68,"boring_view_url":1,"soilmap_view_url":null,"soiltest_xml_url":0,"soiltest_view_url":0},{"id":520858,"code":"B4KJ202201002-3394","latitude":"34.437966","longitude":"132.656073","source_code":"CG018755600200460013","project_name":"\u5b89\u82b8\u30d0\u30a4\u30d1\u30b9\uff08\u4e0a\u702c\u91ce\u5730\u533a\uff09\u4ed6\u5730\u8cea\u8abf\u67fb\u696d\u52d9","survey_name":"\u5b89\u82b8\u30d0\u30a4\u30d1\u30b9\uff08\u4e0a\u702c\u91ce\u5730\u533a\uff09\u4ed6\u5730\u8cea\u8abf\u67fb\u696d\u52d9","client_name":"\u56fd\u571f\u4ea4\u901a\u7701\u4e2d\u56fd\u5730\u65b9\u6574\u5099\u5c40\u5e83\u5cf6\u56fd\u9053\u5de5\u4e8b\u4e8b\u52d9\u6240","boring_xml_url":68,"boring_view_url":1,"soilmap_view_url":null,"soiltest_xml_url":0,"soiltest_view_url":0},{"id":520857,"code":"B4KJ202201002-3393","latitude":"34.438521","longitude":"132.656906","source_code":"CG018755600200460012","project_name":"\u5b89\u82b8\u30d0\u30a4\u30d1\u30b9\uff08\u4e0a\u702c\u91ce\u5730\u533a\uff09\u4ed6\u5730\u8cea\u8abf\u67fb\u696d\u52d9","survey_name":"\u5b89\u82b8\u30d0\u30a4\u30d1\u30b9\uff08\u4e0a\u702c\u91ce\u5730\u533a\uff09\u4ed6\u5730\u8cea\u8abf\u67fb\u696d\u52d9","client_name":"\u56fd\u571f\u4ea4\u901a\u7701\u4e2d\u56fd\u5730\u65b9\u6574\u5099\u5c40\u5e83\u5cf6\u56fd\u9053\u5de5\u4e8b\u4e8b\u52d9\u6240","boring_xml_url":68,"boring_view_url":1,"soilmap_view_url":null,"soiltest_xml_url":0,"soiltest_view_url":0},{"id":520856,"code":"B4KJ202201002-3392","latitude":"34.433105","longitude":"132.650296","source_code":"CG018755600200460011","project_name":"\u5b89\u82b8\u30d0\u30a4\u30d1\u30b9\uff08\u4e0a\u702c\u91ce\u5730\u533a\uff09\u4ed6\u5730\u8cea\u8abf\u67fb\u696d\u52d9","survey_name":"\u5b89\u82b8\u30d0\u30a4\u30d1\u30b9\uff08\u4e0a\u702c\u91ce\u5730\u533a\uff09\u4ed6\u5730\u8cea\u8abf\u67fb\u696d\u52d9","client_name":"\u56fd\u571f\u4ea4\u901a\u7701\u4e2d\u56fd\u5730\u65b9\u6574\u5099\u5c40\u5e83\u5cf6\u56fd\u9053\u5de5\u4e8b\u4e8b\u52d9\u6240","boring_xml_url":68,"boring_view_url":1,"soilmap_view_url":null,"soiltest_xml_url":0,"soiltest_view_url":0},{"id":520855,"code":"B4KJ202201002-3391","latitude":"34.433327","longitude":"132.650685","source_code":"CG018755600200460010","project_name":"\u5b89\u82b8\u30d0\u30a4\u30d1\u30b9\uff08\u4e0a\u702c\u91ce\u5730\u533a\uff09\u4ed6\u5730\u8cea\u8abf\u67fb\u696d\u52d9","survey_name":"\u5b89\u82b8\u30d0\u30a4\u30d1\u30b9\uff08\u4e0a\u702c\u91ce\u5730\u533a\uff09\u4ed6\u5730\u8cea\u8abf\u67fb\u696d\u52d9","client_name":"\u56fd\u571f\u4ea4\u901a\u7701\u4e2d\u56fd\u5730\u65b9\u6574\u5099\u5c40\u5e83\u5cf6\u56fd\u9053\u5de5\u4e8b\u4e8b\u52d9\u6240","boring_xml_url":68,"boring_view_url":1,"soilmap_view_url":null,"soiltest_xml_url":0,"soiltest_view_url":0},{"id":520854,"code":"B4KJ202201002-3390","latitude":"34.433105","longitude":"132.650296","source_code":"CG018755600200460009","project_name":"\u5b89\u82b8\u30d0\u30a4\u30d1\u30b9\uff08\u4e0a\u702c\u91ce\u5730\u533a\uff09\u4ed6\u5730\u8cea\u8abf\u67fb\u696d\u52d9","survey_name":"\u5b89\u82b8\u30d0\u30a4\u30d1\u30b9\uff08\u4e0a\u702c\u91ce\u5730\u533a\uff09\u4ed6\u5730\u8cea\u8abf\u67fb\u696d\u52d9","client_name":"\u56fd\u571f\u4ea4\u901a\u7701\u4e2d\u56fd\u5730\u65b9\u6574\u5099\u5c40\u5e83\u5cf6\u56fd\u9053\u5de5\u4e8b\u4e8b\u52d9\u6240","boring_xml_url":68,"boring_view_url":1,"soilmap_view_url":null,"soiltest_xml_url":0,"soiltest_view_url":0},{"id":520853,"code":"B4KJ202201002-3389","latitude":"34.431577","longitude":"132.644963","source_code":"CG018755600200460008","project_name":"\u5b89\u82b8\u30d0\u30a4\u30d1\u30b9\uff08\u4e0a\u702c\u91ce\u5730\u533a\uff09\u4ed6\u5730\u8cea\u8abf\u67fb\u696d\u52d9","survey_name":"\u5b89\u82b8\u30d0\u30a4\u30d1\u30b9\uff08\u4e0a\u702c\u91ce\u5730\u533a\uff09\u4ed6\u5730\u8cea\u8abf\u67fb\u696d\u52d9","client_name":"\u56fd\u571f\u4ea4\u901a\u7701\u4e2d\u56fd\u5730\u65b9\u6574\u5099\u5c40\u5e83\u5cf6\u56fd\u9053\u5de5\u4e8b\u4e8b\u52d9\u6240","boring_xml_url":68,"boring_view_url":1,"soilmap_view_url":null,"soiltest_xml_url":0,"soiltest_view_url":0},{"id":520852,"code":"B4KJ202201002-3388","latitude":"34.431299","longitude":"132.645241","source_code":"CG018755600200460007","project_name":"\u5b89\u82b8\u30d0\u30a4\u30d1\u30b9\uff08\u4e0a\u702c\u91ce\u5730\u533a\uff09\u4ed6\u5730\u8cea\u8abf\u67fb\u696d\u52d9","survey_name":"\u5b89\u82b8\u30d0\u30a4\u30d1\u30b9\uff08\u4e0a\u702c\u91ce\u5730\u533a\uff09\u4ed6\u5730\u8cea\u8abf\u67fb\u696d\u52d9","client_name":"\u56fd\u571f\u4ea4\u901a\u7701\u4e2d\u56fd\u5730\u65b9\u6574\u5099\u5c40\u5e83\u5cf6\u56fd\u9053\u5de5\u4e8b\u4e8b\u52d9\u6240","boring_xml_url":68,"boring_view_url":1,"soilmap_view_url":null,"soiltest_xml_url":0,"soiltest_view_url":0},{"id":520851,"code":"B4KJ202201002-3387","latitude":"34.431855","longitude":"132.646074","source_code":"CG018755600200460006","project_name":"\u5b89\u82b8\u30d0\u30a4\u30d1\u30b9\uff08\u4e0a\u702c\u91ce\u5730\u533a\uff09\u4ed6\u5730\u8cea\u8abf\u67fb\u696d\u52d9","survey_name":"\u5b89\u82b8\u30d0\u30a4\u30d1\u30b9\uff08\u4e0a\u702c\u91ce\u5730\u533a\uff09\u4ed6\u5730\u8cea\u8abf\u67fb\u696d\u52d9","client_name":"\u56fd\u571f\u4ea4\u901a\u7701\u4e2d\u56fd\u5730\u65b9\u6574\u5099\u5c40\u5e83\u5cf6\u56fd\u9053\u5de5\u4e8b\u4e8b\u52d9\u6240","boring_xml_url":68,"boring_view_url":1,"soilmap_view_url":null,"soiltest_xml_url":0,"soiltest_view_url":0},{"id":520850,"code":"B4KJ202201002-3386","latitude":"34.431577","longitude":"132.646352","source_code":"CG018755600200460005","project_name":"\u5b89\u82b8\u30d0\u30a4\u30d1\u30b9\uff08\u4e0a\u702c\u91ce\u5730\u533a\uff09\u4ed6\u5730\u8cea\u8abf\u67fb\u696d\u52d9","survey_name":"\u5b89\u82b8\u30d0\u30a4\u30d1\u30b9\uff08\u4e0a\u702c\u91ce\u5730\u533a\uff09\u4ed6\u5730\u8cea\u8abf\u67fb\u696d\u52d9","client_name":"\u56fd\u571f\u4ea4\u901a\u7701\u4e2d\u56fd\u5730\u65b9\u6574\u5099\u5c40\u5e83\u5cf6\u56fd\u9053\u5de5\u4e8b\u4e8b\u52d9\u6240","boring_xml_url":68,"boring_view_url":1,"soilmap_view_url":null,"soiltest_xml_url":0,"soiltest_view_url":0},{"id":520849,"code":"B4KJ202201002-3385","latitude":"34.432244","longitude":"132.646629","source_code":"CG018755600200460004","project_name":"\u5b89\u82b8\u30d0\u30a4\u30d1\u30b9\uff08\u4e0a\u702c\u91ce\u5730\u533a\uff09\u4ed6\u5730\u8cea\u8abf\u67fb\u696d\u52d9","survey_name":"\u5b89\u82b8\u30d0\u30a4\u30d1\u30b9\uff08\u4e0a\u702c\u91ce\u5730\u533a\uff09\u4ed6\u5730\u8cea\u8abf\u67fb\u696d\u52d9","client_name":"\u56fd\u571f\u4ea4\u901a\u7701\u4e2d\u56fd\u5730\u65b9\u6574\u5099\u5c40\u5e83\u5cf6\u56fd\u9053\u5de5\u4e8b\u4e8b\u52d9\u6240","boring_xml_url":68,"boring_view_url":1,"soilmap_view_url":null,"soiltest_xml_url":0,"soiltest_view_url":0}]}}