{"header":{"xyz":{"source":[],"mosaic":false},"page":838,"raw":{"soiltest_result":"0","bbox":"57.598333,109.544722,1.933333,163.806111","page":"838"},"conditions":{"soiltest_result":0,"north":57.598333,"west":109.544722,"south":1.933333,"east":163.806111},"success":true,"message":""},"data":{"meta":{"total":212844,"page":838,"pages":7095,"count":30},"values":[{"id":520278,"code":"B4KJ202201002-2814","latitude":"34.963128","longitude":"132.465243","source_code":"CG018737400200260002","project_name":"","survey_name":"\u6c5f\u306e\u5ddd\u5c3e\u539f\u5730\u533a\u7b2c2\u6a0b\u9580\u8a73\u7d30\u8a2d\u8a08\u696d\u52d9","client_name":"\"\u56fd\u571f\u4ea4\u901a\u7701 \u4e2d\u56fd\u5730\u65b9\u6574\u5099\u5c40 \u6d5c\u7530\u5de5\u4e8b\u4e8b\u52d9\u6240 \u5de5\u52d9\u7b2c1\u8ab2\"","boring_xml_url":68,"boring_view_url":1,"soilmap_view_url":null,"soiltest_xml_url":0,"soiltest_view_url":0},{"id":520277,"code":"B4KJ202201002-2813","latitude":"34.963309","longitude":"132.465045","source_code":"CG018737400200260001","project_name":"","survey_name":"\u6c5f\u306e\u5ddd\u5c3e\u539f\u5730\u533a\u7b2c2\u6a0b\u9580\u8a73\u7d30\u8a2d\u8a08\u696d\u52d9","client_name":"\"\u56fd\u571f\u4ea4\u901a\u7701 \u4e2d\u56fd\u5730\u65b9\u6574\u5099\u5c40 \u6d5c\u7530\u5de5\u4e8b\u4e8b\u52d9\u6240 \u5de5\u52d9\u7b2c1\u8ab2\"","boring_xml_url":68,"boring_view_url":1,"soilmap_view_url":null,"soiltest_xml_url":0,"soiltest_view_url":0},{"id":520276,"code":"B4KJ202201002-2812","latitude":"35.224266","longitude":"132.953795","source_code":"CG018738610200020011","project_name":"\u5c3e\u539f\u30c0\u30e0\u30b5\u30a4\u30c8\u5730\u8cea\u8abf\u67fb\u696d\u52d9","survey_name":"\u5c3e\u539f\u30c0\u30e0\u30b5\u30a4\u30c8\u5730\u8cea\u8abf\u67fb\u696d\u52d9","client_name":"\u56fd\u571f\u4ea4\u901a\u7701\u3000\u4e2d\u56fd\u5730\u65b9\u6574\u5099\u5c40\u3000\u6590\u4f0a\u5ddd\u30fb\u795e\u6238\u5ddd\u7dcf\u5408\u958b\u767a","boring_xml_url":68,"boring_view_url":1,"soilmap_view_url":null,"soiltest_xml_url":0,"soiltest_view_url":0},{"id":520275,"code":"B4KJ202201002-2811","latitude":"35.224266","longitude":"132.95185","source_code":"CG018738610200020010","project_name":"\u5c3e\u539f\u30c0\u30e0\u30b5\u30a4\u30c8\u5730\u8cea\u8abf\u67fb\u696d\u52d9","survey_name":"\u5c3e\u539f\u30c0\u30e0\u30b5\u30a4\u30c8\u5730\u8cea\u8abf\u67fb\u696d\u52d9","client_name":"\u56fd\u571f\u4ea4\u901a\u7701\u3000\u4e2d\u56fd\u5730\u65b9\u6574\u5099\u5c40\u3000\u6590\u4f0a\u5ddd\u30fb\u795e\u6238\u5ddd\u7dcf\u5408\u958b\u767a","boring_xml_url":68,"boring_view_url":1,"soilmap_view_url":null,"soiltest_xml_url":0,"soiltest_view_url":0},{"id":520274,"code":"B4KJ202201002-2810","latitude":"35.223988","longitude":"132.954072","source_code":"CG018738610200020009","project_name":"\u5c3e\u539f\u30c0\u30e0\u30b5\u30a4\u30c8\u5730\u8cea\u8abf\u67fb\u696d\u52d9","survey_name":"\u5c3e\u539f\u30c0\u30e0\u30b5\u30a4\u30c8\u5730\u8cea\u8abf\u67fb\u696d\u52d9","client_name":"\u56fd\u571f\u4ea4\u901a\u7701\u3000\u4e2d\u56fd\u5730\u65b9\u6574\u5099\u5c40\u3000\u6590\u4f0a\u5ddd\u30fb\u795e\u6238\u5ddd\u7dcf\u5408\u958b\u767a","boring_xml_url":68,"boring_view_url":1,"soilmap_view_url":null,"soiltest_xml_url":0,"soiltest_view_url":0},{"id":520273,"code":"B4KJ202201002-2809","latitude":"35.223988","longitude":"132.954628","source_code":"CG018738610200020008","project_name":"\u5c3e\u539f\u30c0\u30e0\u30b5\u30a4\u30c8\u5730\u8cea\u8abf\u67fb\u696d\u52d9","survey_name":"\u5c3e\u539f\u30c0\u30e0\u30b5\u30a4\u30c8\u5730\u8cea\u8abf\u67fb\u696d\u52d9","client_name":"\u56fd\u571f\u4ea4\u901a\u7701\u3000\u4e2d\u56fd\u5730\u65b9\u6574\u5099\u5c40\u3000\u6590\u4f0a\u5ddd\u30fb\u795e\u6238\u5ddd\u7dcf\u5408\u958b\u767a","boring_xml_url":68,"boring_view_url":1,"soilmap_view_url":null,"soiltest_xml_url":0,"soiltest_view_url":0},{"id":520272,"code":"B4KJ202201002-2808","latitude":"35.223988","longitude":"132.951573","source_code":"CG018738610200020007","project_name":"\u5c3e\u539f\u30c0\u30e0\u30b5\u30a4\u30c8\u5730\u8cea\u8abf\u67fb\u696d\u52d9","survey_name":"\u5c3e\u539f\u30c0\u30e0\u30b5\u30a4\u30c8\u5730\u8cea\u8abf\u67fb\u696d\u52d9","client_name":"\u56fd\u571f\u4ea4\u901a\u7701\u3000\u4e2d\u56fd\u5730\u65b9\u6574\u5099\u5c40\u3000\u6590\u4f0a\u5ddd\u30fb\u795e\u6238\u5ddd\u7dcf\u5408\u958b\u767a","boring_xml_url":68,"boring_view_url":1,"soilmap_view_url":null,"soiltest_xml_url":0,"soiltest_view_url":0},{"id":520271,"code":"B4KJ202201002-2807","latitude":"35.223988","longitude":"132.952128","source_code":"CG018738610200020006","project_name":"\u5c3e\u539f\u30c0\u30e0\u30b5\u30a4\u30c8\u5730\u8cea\u8abf\u67fb\u696d\u52d9","survey_name":"\u5c3e\u539f\u30c0\u30e0\u30b5\u30a4\u30c8\u5730\u8cea\u8abf\u67fb\u696d\u52d9","client_name":"\u56fd\u571f\u4ea4\u901a\u7701\u3000\u4e2d\u56fd\u5730\u65b9\u6574\u5099\u5c40\u3000\u6590\u4f0a\u5ddd\u30fb\u795e\u6238\u5ddd\u7dcf\u5408\u958b\u767a","boring_xml_url":68,"boring_view_url":1,"soilmap_view_url":null,"soiltest_xml_url":0,"soiltest_view_url":0},{"id":520270,"code":"B4KJ202201002-2806","latitude":"35.223988","longitude":"132.952128","source_code":"CG018738610200020005","project_name":"\u5c3e\u539f\u30c0\u30e0\u30b5\u30a4\u30c8\u5730\u8cea\u8abf\u67fb\u696d\u52d9","survey_name":"\u5c3e\u539f\u30c0\u30e0\u30b5\u30a4\u30c8\u5730\u8cea\u8abf\u67fb\u696d\u52d9","client_name":"\u56fd\u571f\u4ea4\u901a\u7701\u3000\u4e2d\u56fd\u5730\u65b9\u6574\u5099\u5c40\u3000\u6590\u4f0a\u5ddd\u30fb\u795e\u6238\u5ddd\u7dcf\u5408\u958b\u767a","boring_xml_url":68,"boring_view_url":1,"soilmap_view_url":null,"soiltest_xml_url":0,"soiltest_view_url":0},{"id":520269,"code":"B4KJ202201002-2805","latitude":"35.224266","longitude":"132.953239","source_code":"CG018738610200020004","project_name":"\u5c3e\u539f\u30c0\u30e0\u30b5\u30a4\u30c8\u5730\u8cea\u8abf\u67fb\u696d\u52d9","survey_name":"\u5c3e\u539f\u30c0\u30e0\u30b5\u30a4\u30c8\u5730\u8cea\u8abf\u67fb\u696d\u52d9","client_name":"\u56fd\u571f\u4ea4\u901a\u7701\u3000\u4e2d\u56fd\u5730\u65b9\u6574\u5099\u5c40\u3000\u6590\u4f0a\u5ddd\u30fb\u795e\u6238\u5ddd\u7dcf\u5408\u958b\u767a","boring_xml_url":68,"boring_view_url":1,"soilmap_view_url":null,"soiltest_xml_url":0,"soiltest_view_url":0},{"id":520268,"code":"B4KJ202201002-2804","latitude":"35.224266","longitude":"132.953239","source_code":"CG018738610200020003","project_name":"\u5c3e\u539f\u30c0\u30e0\u30b5\u30a4\u30c8\u5730\u8cea\u8abf\u67fb\u696d\u52d9","survey_name":"\u5c3e\u539f\u30c0\u30e0\u30b5\u30a4\u30c8\u5730\u8cea\u8abf\u67fb\u696d\u52d9","client_name":"\u56fd\u571f\u4ea4\u901a\u7701\u3000\u4e2d\u56fd\u5730\u65b9\u6574\u5099\u5c40\u3000\u6590\u4f0a\u5ddd\u30fb\u795e\u6238\u5ddd\u7dcf\u5408\u958b\u767a\u5de5\u4e8b\u4e8b\u52d9\u6240","boring_xml_url":68,"boring_view_url":1,"soilmap_view_url":null,"soiltest_xml_url":0,"soiltest_view_url":0},{"id":520267,"code":"B4KJ202201002-2803","latitude":"35.224543","longitude":"132.952961","source_code":"CG018738610200020002","project_name":"\u5c3e\u539f\u30c0\u30e0\u30b5\u30a4\u30c8\u5730\u8cea\u8abf\u67fb\u696d\u52d9","survey_name":"\u5c3e\u539f\u30c0\u30e0\u30b5\u30a4\u30c8\u5730\u8cea\u8abf\u67fb\u696d\u52d9","client_name":"\u56fd\u571f\u4ea4\u901a\u7701\u3000\u4e2d\u56fd\u5730\u65b9\u6574\u5099\u5c40\u3000\u6590\u4f0a\u5ddd\u30fb\u795e\u6238\u5ddd\u7dcf\u5408\u958b\u767a","boring_xml_url":68,"boring_view_url":1,"soilmap_view_url":null,"soiltest_xml_url":0,"soiltest_view_url":0},{"id":520266,"code":"B4KJ202201002-2802","latitude":"35.224543","longitude":"132.951295","source_code":"CG018738610200020001","project_name":"\u5c3e\u539f\u30c0\u30e0\u30b5\u30a4\u30c8\u5730\u8cea\u8abf\u67fb\u696d\u52d9","survey_name":"\u5c3e\u539f\u30c0\u30e0\u30b5\u30a4\u30c8\u5730\u8cea\u8abf\u67fb\u696d\u52d9","client_name":"\u56fd\u571f\u4ea4\u901a\u7701\u3000\u4e2d\u56fd\u5730\u65b9\u6574\u5099\u5c40\u3000\u6590\u4f0a\u5ddd\u30fb\u795e\u6238\u5ddd\u7dcf\u5408\u958b\u767a\u5de5\u4e8b\u4e8b\u52d9\u6240","boring_xml_url":68,"boring_view_url":1,"soilmap_view_url":null,"soiltest_xml_url":0,"soiltest_view_url":0},{"id":520265,"code":"B4KJ202201002-2801","latitude":"35.232118","longitude":"132.953736","source_code":"CG018738410200330009","project_name":"","survey_name":"\u5c3e\u539f\u30c0\u30e0\u5e73\u7530\u4f50\u767d\u7dda\u6a4b\u6881\u5730\u8cea\u8abf\u67fb\u696d\u52d9","client_name":"\u56fd\u571f\u4ea4\u901a\u7701\u3000\u6590\u4f0a\u5ddd\u30fb\u795e\u6238\u5ddd\u7dcf\u5408\u958b\u767a\u5de5\u4e8b\u4e8b\u52d9\u6240","boring_xml_url":68,"boring_view_url":1,"soilmap_view_url":null,"soiltest_xml_url":0,"soiltest_view_url":0},{"id":520264,"code":"B4KJ202201002-2800","latitude":"35.232694","longitude":"132.954509","source_code":"CG018738410200330008","project_name":"","survey_name":"\u5c3e\u539f\u30c0\u30e0\u5e73\u7530\u4f50\u767d\u7dda\u6a4b\u6881\u5730\u8cea\u8abf\u67fb\u696d\u52d9","client_name":"\u56fd\u571f\u4ea4\u901a\u7701\u3000\u6590\u4f0a\u5ddd\u30fb\u795e\u6238\u5ddd\u7dcf\u5408\u958b\u767a\u5de5\u4e8b\u4e8b\u52d9\u6240","boring_xml_url":68,"boring_view_url":1,"soilmap_view_url":null,"soiltest_xml_url":0,"soiltest_view_url":0},{"id":520263,"code":"B4KJ202201002-2799","latitude":"35.232358","longitude":"132.954065","source_code":"CG018738410200330007","project_name":"","survey_name":"\u5c3e\u539f\u30c0\u30e0\u5e73\u7530\u4f50\u767d\u7dda\u6a4b\u6881\u5730\u8cea\u8abf\u67fb\u696d\u52d9","client_name":"\u56fd\u571f\u4ea4\u901a\u7701\u3000\u6590\u4f0a\u5ddd\u30fb\u795e\u6238\u5ddd\u7dcf\u5408\u958b\u767a\u5de5\u4e8b\u4e8b\u52d9\u6240","boring_xml_url":68,"boring_view_url":1,"soilmap_view_url":null,"soiltest_xml_url":0,"soiltest_view_url":0},{"id":520262,"code":"B4KJ202201002-2798","latitude":"35.231637","longitude":"132.953098","source_code":"CG018738410200330006","project_name":"","survey_name":"\u5c3e\u539f\u30c0\u30e0\u5e73\u7530\u4f50\u767d\u7dda\u6a4b\u6881\u5730\u8cea\u8abf\u67fb\u696d\u52d9","client_name":"\u56fd\u571f\u4ea4\u901a\u7701\u3000\u6590\u4f0a\u5ddd\u30fb\u795e\u6238\u5ddd\u7dcf\u5408\u958b\u767a\u5de5\u4e8b\u4e8b\u52d9\u6240","boring_xml_url":68,"boring_view_url":1,"soilmap_view_url":null,"soiltest_xml_url":0,"soiltest_view_url":0},{"id":520261,"code":"B4KJ202201002-2797","latitude":"35.231318","longitude":"132.95262","source_code":"CG018738410200330005","project_name":"","survey_name":"\u5c3e\u539f\u30c0\u30e0\u5e73\u7530\u4f50\u767d\u7dda\u6a4b\u6881\u5730\u8cea\u8abf\u67fb\u696d\u52d9","client_name":"\u56fd\u571f\u4ea4\u901a\u7701\u3000\u6590\u4f0a\u5ddd\u30fb\u795e\u6238\u5ddd\u7dcf\u5408\u958b\u767a\u5de5\u4e8b\u4e8b\u52d9\u6240","boring_xml_url":68,"boring_view_url":1,"soilmap_view_url":null,"soiltest_xml_url":0,"soiltest_view_url":0},{"id":520260,"code":"B4KJ202201002-2796","latitude":"35.230362","longitude":"132.950438","source_code":"CG018738410200330004","project_name":"","survey_name":"\u5c3e\u539f\u30c0\u30e0\u5e73\u7530\u4f50\u767d\u7dda\u6a4b\u6881\u5730\u8cea\u8abf\u67fb\u696d\u52d9","client_name":"\u56fd\u571f\u4ea4\u901a\u7701\u3000\u6590\u4f0a\u5ddd\u30fb\u795e\u6238\u5ddd\u7dcf\u5408\u958b\u767a\u5de5\u4e8b\u4e8b\u52d9\u6240","boring_xml_url":68,"boring_view_url":1,"soilmap_view_url":null,"soiltest_xml_url":0,"soiltest_view_url":0},{"id":520259,"code":"B4KJ202201002-2795","latitude":"35.230439","longitude":"132.950335","source_code":"CG018738410200330003","project_name":"","survey_name":"\u5c3e\u539f\u30c0\u30e0\u5e73\u7530\u4f50\u767d\u7dda\u6a4b\u6881\u5730\u8cea\u8abf\u67fb\u696d\u52d9","client_name":"\u56fd\u571f\u4ea4\u901a\u7701\u3000\u6590\u4f0a\u5ddd\u30fb\u795e\u6238\u5ddd\u7dcf\u5408\u958b\u767a\u5de5\u4e8b\u4e8b\u52d9\u6240","boring_xml_url":68,"boring_view_url":1,"soilmap_view_url":null,"soiltest_xml_url":0,"soiltest_view_url":0},{"id":520258,"code":"B4KJ202201002-2794","latitude":"35.230177","longitude":"132.949989","source_code":"CG018738410200330002","project_name":"","survey_name":"\u5c3e\u539f\u30c0\u30e0\u5e73\u7530\u4f50\u767d\u7dda\u6a4b\u6881\u5730\u8cea\u8abf\u67fb\u696d\u52d9","client_name":"\u56fd\u571f\u4ea4\u901a\u7701\u3000\u6590\u4f0a\u5ddd\u30fb\u795e\u6238\u5ddd\u7dcf\u5408\u958b\u767a\u5de5\u4e8b\u4e8b\u52d9\u6240","boring_xml_url":68,"boring_view_url":1,"soilmap_view_url":null,"soiltest_xml_url":0,"soiltest_view_url":0},{"id":520257,"code":"B4KJ202201002-2793","latitude":"35.230265","longitude":"132.94992","source_code":"CG018738410200330001","project_name":"","survey_name":"\u5c3e\u539f\u30c0\u30e0\u5e73\u7530\u4f50\u767d\u7dda\u6a4b\u6881\u5730\u8cea\u8abf\u67fb\u696d\u52d9","client_name":"\u56fd\u571f\u4ea4\u901a\u7701\u3000\u6590\u4f0a\u5ddd\u30fb\u795e\u6238\u5ddd\u7dcf\u5408\u958b\u767a\u5de5\u4e8b\u4e8b\u52d9\u6240","boring_xml_url":68,"boring_view_url":1,"soilmap_view_url":null,"soiltest_xml_url":0,"soiltest_view_url":0},{"id":520256,"code":"B4KJ202201002-2792","latitude":"35.219883","longitude":"132.967021","source_code":"CG018738410200080013","project_name":"","survey_name":"\u5c3e\u539f\u30c0\u30e0\u5e73\u7530\u4f50\u767d\u7dda\u4ed6\u5730\u8cea\u8abf\u67fb\u696d\u52d9","client_name":"\u56fd\u571f\u4ea4\u901a\u7701\u3000\u4e2d\u56fd\u5730\u65b9\u6574\u5099\u5c40\u3000\u6590\u4f0a\u5ddd\u30fb\u795e\u6238\u5ddd\u7dcf\u5408\u958b\u767a\u5de5\u4e8b\u4e8b\u52d9\u6240\u3000\u5de5\u52d9\u7b2c2\u8ab2","boring_xml_url":68,"boring_view_url":1,"soilmap_view_url":null,"soiltest_xml_url":0,"soiltest_view_url":0},{"id":520255,"code":"B4KJ202201002-2791","latitude":"35.219923","longitude":"132.967246","source_code":"CG018738410200080012","project_name":"","survey_name":"\u5c3e\u539f\u30c0\u30e0\u5e73\u7530\u4f50\u767d\u7dda\u4ed6\u5730\u8cea\u8abf\u67fb\u696d\u52d9","client_name":"\u56fd\u571f\u4ea4\u901a\u7701\u3000\u4e2d\u56fd\u5730\u65b9\u6574\u5099\u5c40\u3000\u6590\u4f0a\u5ddd\u30fb\u795e\u6238\u5ddd\u7dcf\u5408\u958b\u767a\u5de5\u4e8b\u4e8b\u52d9\u6240\u3000\u5de5\u52d9\u7b2c2\u8ab2","boring_xml_url":68,"boring_view_url":1,"soilmap_view_url":null,"soiltest_xml_url":0,"soiltest_view_url":0},{"id":520254,"code":"B4KJ202201002-2790","latitude":"35.219831","longitude":"132.966734","source_code":"CG018738410200080011","project_name":"","survey_name":"\u5c3e\u539f\u30c0\u30e0\u5e73\u7530\u4f50\u767d\u7dda\u4ed6\u5730\u8cea\u8abf\u67fb\u696d\u52d9","client_name":"\u56fd\u571f\u4ea4\u901a\u7701\u3000\u4e2d\u56fd\u5730\u65b9\u6574\u5099\u5c40\u3000\u6590\u4f0a\u5ddd\u30fb\u795e\u6238\u5ddd\u7dcf\u5408\u958b\u767a\u5de5\u4e8b\u4e8b\u52d9\u6240\u3000\u5de5\u52d9\u7b2c2\u8ab2","boring_xml_url":68,"boring_view_url":1,"soilmap_view_url":null,"soiltest_xml_url":0,"soiltest_view_url":0},{"id":520253,"code":"B4KJ202201002-2789","latitude":"35.227995","longitude":"132.938049","source_code":"CG018738410200080010","project_name":"","survey_name":"\u5c3e\u539f\u30c0\u30e0\u5e73\u7530\u4f50\u767d\u7dda\u4ed6\u5730\u8cea\u8abf\u67fb\u696d\u52d9","client_name":"\u56fd\u571f\u4ea4\u901a\u7701\u3000\u4e2d\u56fd\u5730\u65b9\u6574\u5099\u5c40\u3000\u6590\u4f0a\u5ddd\u30fb\u795e\u6238\u5ddd\u7dcf\u5408\u958b\u767a\u5de5\u4e8b\u4e8b\u52d9\u6240","boring_xml_url":68,"boring_view_url":1,"soilmap_view_url":null,"soiltest_xml_url":0,"soiltest_view_url":0},{"id":520252,"code":"B4KJ202201002-2788","latitude":"35.231012","longitude":"132.935327","source_code":"CG018738410200080009","project_name":"","survey_name":"\u5c3e\u539f\u30c0\u30e0\u5e73\u7530\u4f50\u767d\u7dda\u4ed6\u5730\u8cea\u8abf\u67fb\u696d\u52d9","client_name":"\u56fd\u571f\u4ea4\u901a\u7701\u3000\u4e2d\u56fd\u5730\u65b9\u6574\u5099\u5c40\u3000\u6590\u4f0a\u5ddd\u30fb\u795e\u6238\u5ddd\u7dcf\u5408\u958b\u767a\u5de5\u4e8b\u4e8b\u52d9\u6240","boring_xml_url":68,"boring_view_url":1,"soilmap_view_url":null,"soiltest_xml_url":0,"soiltest_view_url":0},{"id":520251,"code":"B4KJ202201002-2787","latitude":"35.231032","longitude":"132.935611","source_code":"CG018738410200080008","project_name":"","survey_name":"\u5c3e\u539f\u30c0\u30e0\u5e73\u7530\u4f50\u767d\u7dda\u4ed6\u5730\u8cea\u8abf\u67fb\u696d\u52d9","client_name":"\u56fd\u571f\u4ea4\u901a\u7701\u3000\u4e2d\u56fd\u5730\u65b9\u6574\u5099\u5c40\u3000\u6590\u4f0a\u5ddd\u30fb\u795e\u6238\u5ddd\u7dcf\u5408\u958b\u767a\u5de5\u4e8b\u4e8b\u52d9\u6240","boring_xml_url":68,"boring_view_url":1,"soilmap_view_url":null,"soiltest_xml_url":0,"soiltest_view_url":0},{"id":520250,"code":"B4KJ202201002-2786","latitude":"35.231744","longitude":"132.960655","source_code":"CG018738410200080007","project_name":"","survey_name":"\u5c3e\u539f\u30c0\u30e0\u5e73\u7530\u4f50\u767d\u7dda\u4ed6\u5730\u8cea\u8abf\u67fb\u696d\u52d9","client_name":"\u56fd\u571f\u4ea4\u901a\u7701\u3000\u4e2d\u56fd\u5730\u65b9\u6574\u5099\u5c40\u3000\u6590\u4f0a\u5ddd\u30fb\u795e\u6238\u5ddd\u7dcf\u5408\u958b\u767a\u5de5\u4e8b\u4e8b\u52d9\u6240","boring_xml_url":68,"boring_view_url":1,"soilmap_view_url":null,"soiltest_xml_url":0,"soiltest_view_url":0},{"id":520249,"code":"B4KJ202201002-2785","latitude":"35.23163","longitude":"132.960595","source_code":"CG018738410200080006","project_name":"","survey_name":"\u5c3e\u539f\u30c0\u30e0\u5e73\u7530\u4f50\u767d\u7dda\u4ed6\u5730\u8cea\u8abf\u67fb\u696d\u52d9","client_name":"\u56fd\u571f\u4ea4\u901a\u7701\u3000\u4e2d\u56fd\u5730\u65b9\u6574\u5099\u5c40\u3000\u6590\u4f0a\u5ddd\u30fb\u795e\u6238\u5ddd\u7dcf\u5408\u958b\u767a\u5de5\u4e8b\u4e8b\u52d9\u6240","boring_xml_url":68,"boring_view_url":1,"soilmap_view_url":null,"soiltest_xml_url":0,"soiltest_view_url":0}]}}