{"header":{"xyz":{"source":[],"mosaic":false},"page":857,"raw":{"soiltest_result":"0","bbox":"57.598333,109.544722,1.933333,163.806111","page":"857"},"conditions":{"soiltest_result":0,"north":57.598333,"west":109.544722,"south":1.933333,"east":163.806111},"success":true,"message":""},"data":{"meta":{"total":212844,"page":857,"pages":7095,"count":30},"values":[{"id":519708,"code":"B4KJ202201002-2244","latitude":"35.986508","longitude":"136.532173","source_code":"KK188670220400050035","project_name":"","survey_name":"\u5927\u91ce\u6cb9\u5742\u9053\u8def\u5927\u91ce\u30fb\u5927\u91ce\u6771\u533a\u9593\u5730\u8cea\u8abf\u67fb\u696d\u52d9","client_name":"\u56fd\u571f\u4ea4\u901a\u7701\u8fd1\u757f\u5730\u65b9\u6574\u5099\u5c40\u798f\u4e95\u6cb3\u5ddd\u56fd\u9053\u4e8b\u52d9\u6240","boring_xml_url":68,"boring_view_url":1,"soilmap_view_url":null,"soiltest_xml_url":0,"soiltest_view_url":0},{"id":519707,"code":"B4KJ202201002-2243","latitude":"35.988943","longitude":"136.527704","source_code":"KK188670220400050034","project_name":"","survey_name":"\u5927\u91ce\u6cb9\u5742\u9053\u8def\u5927\u91ce\u30fb\u5927\u91ce\u6771\u533a\u9593\u5730\u8cea\u8abf\u67fb\u696d\u52d9","client_name":"\u56fd\u571f\u4ea4\u901a\u7701\u8fd1\u757f\u5730\u65b9\u6574\u5099\u5c40\u798f\u4e95\u6cb3\u5ddd\u56fd\u9053\u4e8b\u52d9\u6240","boring_xml_url":68,"boring_view_url":1,"soilmap_view_url":null,"soiltest_xml_url":0,"soiltest_view_url":0},{"id":519706,"code":"B4KJ202201002-2242","latitude":"35.989103","longitude":"136.527096","source_code":"KK188670220400050033","project_name":"","survey_name":"\u5927\u91ce\u6cb9\u5742\u9053\u8def\u5927\u91ce\u30fb\u5927\u91ce\u6771\u533a\u9593\u5730\u8cea\u8abf\u67fb\u696d\u52d9","client_name":"\u56fd\u571f\u4ea4\u901a\u7701\u8fd1\u757f\u5730\u65b9\u6574\u5099\u5c40\u798f\u4e95\u6cb3\u5ddd\u56fd\u9053\u4e8b\u52d9\u6240","boring_xml_url":68,"boring_view_url":1,"soilmap_view_url":null,"soiltest_xml_url":0,"soiltest_view_url":0},{"id":519705,"code":"B4KJ202201002-2241","latitude":"35.9893","longitude":"136.52698","source_code":"KK188670220400050032","project_name":"","survey_name":"\u5927\u91ce\u6cb9\u5742\u9053\u8def\u5927\u91ce\u30fb\u5927\u91ce\u6771\u533a\u9593\u5730\u8cea\u8abf\u67fb\u696d\u52d9","client_name":"\u56fd\u571f\u4ea4\u901a\u7701\u8fd1\u757f\u5730\u65b9\u6574\u5099\u5c40\u798f\u4e95\u6cb3\u5ddd\u56fd\u9053\u4e8b\u52d9\u6240","boring_xml_url":68,"boring_view_url":1,"soilmap_view_url":null,"soiltest_xml_url":0,"soiltest_view_url":0},{"id":519704,"code":"B4KJ202201002-2240","latitude":"35.990266","longitude":"136.525529","source_code":"KK188670220400050031","project_name":"","survey_name":"\u5927\u91ce\u6cb9\u5742\u9053\u8def\u5927\u91ce\u30fb\u5927\u91ce\u6771\u533a\u9593\u5730\u8cea\u8abf\u67fb\u696d\u52d9","client_name":"\u56fd\u571f\u4ea4\u901a\u7701\u8fd1\u757f\u5730\u65b9\u6574\u5099\u5c40\u798f\u4e95\u6cb3\u5ddd\u56fd\u9053\u4e8b\u52d9\u6240","boring_xml_url":68,"boring_view_url":1,"soilmap_view_url":null,"soiltest_xml_url":0,"soiltest_view_url":0},{"id":519703,"code":"B4KJ202201002-2239","latitude":"35.991057","longitude":"136.525529","source_code":"KK188670220400050030","project_name":"","survey_name":"\u5927\u91ce\u6cb9\u5742\u9053\u8def\u5927\u91ce\u30fb\u5927\u91ce\u6771\u533a\u9593\u5730\u8cea\u8abf\u67fb\u696d\u52d9","client_name":"\u56fd\u571f\u4ea4\u901a\u7701\u8fd1\u757f\u5730\u65b9\u6574\u5099\u5c40\u798f\u4e95\u6cb3\u5ddd\u56fd\u9053\u4e8b\u52d9\u6240","boring_xml_url":68,"boring_view_url":1,"soilmap_view_url":null,"soiltest_xml_url":0,"soiltest_view_url":0},{"id":519702,"code":"B4KJ202201002-2238","latitude":"35.991226","longitude":"136.523873","source_code":"KK188670220400050029","project_name":"","survey_name":"\u5927\u91ce\u6cb9\u5742\u9053\u8def\u5927\u91ce\u30fb\u5927\u91ce\u6771\u533a\u9593\u5730\u8cea\u8abf\u67fb\u696d\u52d9","client_name":"\u56fd\u571f\u4ea4\u901a\u7701\u8fd1\u757f\u5730\u65b9\u6574\u5099\u5c40\u798f\u4e95\u6cb3\u5ddd\u56fd\u9053\u4e8b\u52d9\u6240","boring_xml_url":68,"boring_view_url":1,"soilmap_view_url":null,"soiltest_xml_url":0,"soiltest_view_url":0},{"id":519701,"code":"B4KJ202201002-2237","latitude":"35.991932","longitude":"136.522635","source_code":"KK188670220400050028","project_name":"","survey_name":"\u5927\u91ce\u6cb9\u5742\u9053\u8def\u5927\u91ce\u30fb\u5927\u91ce\u6771\u533a\u9593\u5730\u8cea\u8abf\u67fb\u696d\u52d9","client_name":"\u56fd\u571f\u4ea4\u901a\u7701\u8fd1\u757f\u5730\u65b9\u6574\u5099\u5c40\u798f\u4e95\u6cb3\u5ddd\u56fd\u9053\u4e8b\u52d9\u6240","boring_xml_url":68,"boring_view_url":1,"soilmap_view_url":null,"soiltest_xml_url":0,"soiltest_view_url":0},{"id":519700,"code":"B4KJ202201002-2236","latitude":"35.992145","longitude":"136.522567","source_code":"KK188670220400050027","project_name":"","survey_name":"\u5927\u91ce\u6cb9\u5742\u9053\u8def\u5927\u91ce\u30fb\u5927\u91ce\u6771\u533a\u9593\u5730\u8cea\u8abf\u67fb\u696d\u52d9","client_name":"\u56fd\u571f\u4ea4\u901a\u7701\u8fd1\u757f\u5730\u65b9\u6574\u5099\u5c40\u798f\u4e95\u6cb3\u5ddd\u56fd\u9053\u4e8b\u52d9\u6240","boring_xml_url":68,"boring_view_url":1,"soilmap_view_url":null,"soiltest_xml_url":0,"soiltest_view_url":0},{"id":519699,"code":"B4KJ202201002-2235","latitude":"35.992418","longitude":"136.522061","source_code":"KK188670220400050026","project_name":"","survey_name":"\u5927\u91ce\u6cb9\u5742\u9053\u8def\u5927\u91ce\u30fb\u5927\u91ce\u6771\u533a\u9593\u5730\u8cea\u8abf\u67fb\u696d\u52d9","client_name":"\u56fd\u571f\u4ea4\u901a\u7701\u8fd1\u757f\u5730\u65b9\u6574\u5099\u5c40\u798f\u4e95\u6cb3\u5ddd\u56fd\u9053\u4e8b\u52d9\u6240","boring_xml_url":68,"boring_view_url":1,"soilmap_view_url":null,"soiltest_xml_url":0,"soiltest_view_url":0},{"id":519698,"code":"B4KJ202201002-2234","latitude":"35.993085","longitude":"136.520735","source_code":"KK188670220400050025","project_name":"","survey_name":"\u5927\u91ce\u6cb9\u5742\u9053\u8def\u5927\u91ce\u30fb\u5927\u91ce\u6771\u533a\u9593\u5730\u8cea\u8abf\u67fb\u696d\u52d9","client_name":"\u56fd\u571f\u4ea4\u901a\u7701\u8fd1\u757f\u5730\u65b9\u6574\u5099\u5c40\u798f\u4e95\u6cb3\u5ddd\u56fd\u9053\u4e8b\u52d9\u6240","boring_xml_url":68,"boring_view_url":1,"soilmap_view_url":null,"soiltest_xml_url":0,"soiltest_view_url":0},{"id":519697,"code":"B4KJ202201002-2233","latitude":"35.994395","longitude":"136.519188","source_code":"KK188670220400050024","project_name":"","survey_name":"\u5927\u91ce\u6cb9\u5742\u9053\u8def\u5927\u91ce\u30fb\u5927\u91ce\u6771\u533a\u9593\u5730\u8cea\u8abf\u67fb\u696d\u52d9","client_name":"\u56fd\u571f\u4ea4\u901a\u7701\u8fd1\u757f\u5730\u65b9\u6574\u5099\u5c40\u798f\u4e95\u6cb3\u5ddd\u56fd\u9053\u4e8b\u52d9\u6240","boring_xml_url":68,"boring_view_url":1,"soilmap_view_url":null,"soiltest_xml_url":0,"soiltest_view_url":0},{"id":519696,"code":"B4KJ202201002-2232","latitude":"35.99561","longitude":"136.516442","source_code":"KK188670220400050023","project_name":"","survey_name":"\u5927\u91ce\u6cb9\u5742\u9053\u8def\u5927\u91ce\u30fb\u5927\u91ce\u6771\u533a\u9593\u5730\u8cea\u8abf\u67fb\u696d\u52d9","client_name":"\u56fd\u571f\u4ea4\u901a\u7701\u8fd1\u757f\u5730\u65b9\u6574\u5099\u5c40\u798f\u4e95\u6cb3\u5ddd\u56fd\u9053\u4e8b\u52d9\u6240","boring_xml_url":68,"boring_view_url":1,"soilmap_view_url":null,"soiltest_xml_url":0,"soiltest_view_url":0},{"id":519695,"code":"B4KJ202201002-2231","latitude":"35.995782","longitude":"136.516045","source_code":"KK188670220400050022","project_name":"","survey_name":"\u5927\u91ce\u6cb9\u5742\u9053\u8def\u5927\u91ce\u30fb\u5927\u91ce\u6771\u533a\u9593\u5730\u8cea\u8abf\u67fb\u696d\u52d9","client_name":"\u56fd\u571f\u4ea4\u901a\u7701\u8fd1\u757f\u5730\u65b9\u6574\u5099\u5c40\u798f\u4e95\u6cb3\u5ddd\u56fd\u9053\u4e8b\u52d9\u6240","boring_xml_url":68,"boring_view_url":1,"soilmap_view_url":null,"soiltest_xml_url":0,"soiltest_view_url":0},{"id":519694,"code":"B4KJ202201002-2230","latitude":"35.995964","longitude":"136.515595","source_code":"KK188670220400050021","project_name":"","survey_name":"\u5927\u91ce\u6cb9\u5742\u9053\u8def\u5927\u91ce\u30fb\u5927\u91ce\u6771\u533a\u9593\u5730\u8cea\u8abf\u67fb\u696d\u52d9","client_name":"\u56fd\u571f\u4ea4\u901a\u7701\u8fd1\u757f\u5730\u65b9\u6574\u5099\u5c40\u798f\u4e95\u6cb3\u5ddd\u56fd\u9053\u4e8b\u52d9\u6240","boring_xml_url":68,"boring_view_url":1,"soilmap_view_url":null,"soiltest_xml_url":0,"soiltest_view_url":0},{"id":519693,"code":"B4KJ202201002-2229","latitude":"35.996053","longitude":"136.515098","source_code":"KK188670220400050020","project_name":"","survey_name":"\u5927\u91ce\u6cb9\u5742\u9053\u8def\u5927\u91ce\u30fb\u5927\u91ce\u6771\u533a\u9593\u5730\u8cea\u8abf\u67fb\u696d\u52d9","client_name":"\u56fd\u571f\u4ea4\u901a\u7701\u8fd1\u757f\u5730\u65b9\u6574\u5099\u5c40\u798f\u4e95\u6cb3\u5ddd\u56fd\u9053\u4e8b\u52d9\u6240","boring_xml_url":68,"boring_view_url":1,"soilmap_view_url":null,"soiltest_xml_url":0,"soiltest_view_url":0},{"id":519692,"code":"B4KJ202201002-2228","latitude":"35.996232","longitude":"136.514605","source_code":"KK188670220400050019","project_name":"","survey_name":"\u5927\u91ce\u6cb9\u5742\u9053\u8def\u5927\u91ce\u30fb\u5927\u91ce\u6771\u533a\u9593\u5730\u8cea\u8abf\u67fb\u696d\u52d9","client_name":"\u56fd\u571f\u4ea4\u901a\u7701\u8fd1\u757f\u5730\u65b9\u6574\u5099\u5c40\u798f\u4e95\u6cb3\u5ddd\u56fd\u9053\u4e8b\u52d9\u6240","boring_xml_url":68,"boring_view_url":1,"soilmap_view_url":null,"soiltest_xml_url":0,"soiltest_view_url":0},{"id":519691,"code":"B4KJ202201002-2227","latitude":"35.996312","longitude":"136.514134","source_code":"KK188670220400050018","project_name":"","survey_name":"\u5927\u91ce\u6cb9\u5742\u9053\u8def\u5927\u91ce\u30fb\u5927\u91ce\u6771\u533a\u9593\u5730\u8cea\u8abf\u67fb\u696d\u52d9","client_name":"\u56fd\u571f\u4ea4\u901a\u7701\u8fd1\u757f\u5730\u65b9\u6574\u5099\u5c40\u798f\u4e95\u6cb3\u5ddd\u56fd\u9053\u4e8b\u52d9\u6240","boring_xml_url":68,"boring_view_url":1,"soilmap_view_url":null,"soiltest_xml_url":0,"soiltest_view_url":0},{"id":519690,"code":"B4KJ202201002-2226","latitude":"35.996464","longitude":"136.513666","source_code":"KK188670220400050017","project_name":"","survey_name":"\u5927\u91ce\u6cb9\u5742\u9053\u8def\u5927\u91ce\u30fb\u5927\u91ce\u6771\u533a\u9593\u5730\u8cea\u8abf\u67fb\u696d\u52d9","client_name":"\u56fd\u571f\u4ea4\u901a\u7701\u8fd1\u757f\u5730\u65b9\u6574\u5099\u5c40\u798f\u4e95\u6cb3\u5ddd\u56fd\u9053\u4e8b\u52d9\u6240","boring_xml_url":68,"boring_view_url":1,"soilmap_view_url":null,"soiltest_xml_url":0,"soiltest_view_url":0},{"id":519689,"code":"B4KJ202201002-2225","latitude":"35.998092","longitude":"136.509255","source_code":"KK188670220400050016","project_name":"","survey_name":"\u5927\u91ce\u6cb9\u5742\u9053\u8def\u5927\u91ce\u30fb\u5927\u91ce\u6771\u533a\u9593\u5730\u8cea\u8abf\u67fb\u696d\u52d9","client_name":"\u56fd\u571f\u4ea4\u901a\u7701\u8fd1\u757f\u5730\u65b9\u6574\u5099\u5c40\u798f\u4e95\u6cb3\u5ddd\u56fd\u9053\u4e8b\u52d9\u6240","boring_xml_url":68,"boring_view_url":1,"soilmap_view_url":null,"soiltest_xml_url":0,"soiltest_view_url":0},{"id":519688,"code":"B4KJ202201002-2224","latitude":"35.998333","longitude":"136.508806","source_code":"KK188670220400050015","project_name":"","survey_name":"\u5927\u91ce\u6cb9\u5742\u9053\u8def\u5927\u91ce\u30fb\u5927\u91ce\u6771\u533a\u9593\u5730\u8cea\u8abf\u67fb\u696d\u52d9","client_name":"\u56fd\u571f\u4ea4\u901a\u7701\u8fd1\u757f\u5730\u65b9\u6574\u5099\u5c40\u798f\u4e95\u6cb3\u5ddd\u56fd\u9053\u4e8b\u52d9\u6240","boring_xml_url":68,"boring_view_url":1,"soilmap_view_url":null,"soiltest_xml_url":0,"soiltest_view_url":0},{"id":519687,"code":"B4KJ202201002-2223","latitude":"35.999693","longitude":"136.505137","source_code":"KK188670220400050014","project_name":"","survey_name":"\u5927\u91ce\u6cb9\u5742\u9053\u8def\u5927\u91ce\u30fb\u5927\u91ce\u6771\u533a\u9593\u5730\u8cea\u8abf\u67fb\u696d\u52d9","client_name":"\u56fd\u571f\u4ea4\u901a\u7701\u8fd1\u757f\u5730\u65b9\u6574\u5099\u5c40\u798f\u4e95\u6cb3\u5ddd\u56fd\u9053\u4e8b\u52d9\u6240","boring_xml_url":68,"boring_view_url":1,"soilmap_view_url":null,"soiltest_xml_url":0,"soiltest_view_url":0},{"id":519686,"code":"B4KJ202201002-2222","latitude":"36.000018","longitude":"136.50409","source_code":"KK188670220400050013","project_name":"","survey_name":"\u5927\u91ce\u6cb9\u5742\u9053\u8def\u5927\u91ce\u30fb\u5927\u91ce\u6771\u533a\u9593\u5730\u8cea\u8abf\u67fb\u696d\u52d9","client_name":"\u56fd\u571f\u4ea4\u901a\u7701\u8fd1\u757f\u5730\u65b9\u6574\u5099\u5c40\u798f\u4e95\u6cb3\u5ddd\u56fd\u9053\u4e8b\u52d9\u6240","boring_xml_url":68,"boring_view_url":1,"soilmap_view_url":null,"soiltest_xml_url":0,"soiltest_view_url":0},{"id":519685,"code":"B4KJ202201002-2221","latitude":"36.000184","longitude":"136.504029","source_code":"KK188670220400050012","project_name":"","survey_name":"\u5927\u91ce\u6cb9\u5742\u9053\u8def\u5927\u91ce\u30fb\u5927\u91ce\u6771\u533a\u9593\u5730\u8cea\u8abf\u67fb\u696d\u52d9","client_name":"\u56fd\u571f\u4ea4\u901a\u7701\u8fd1\u757f\u5730\u65b9\u6574\u5099\u5c40\u798f\u4e95\u6cb3\u5ddd\u56fd\u9053\u4e8b\u52d9\u6240","boring_xml_url":68,"boring_view_url":1,"soilmap_view_url":null,"soiltest_xml_url":0,"soiltest_view_url":0},{"id":519684,"code":"B4KJ202201002-2220","latitude":"36.000198","longitude":"136.503373","source_code":"KK188670220400050011","project_name":"","survey_name":"\u5927\u91ce\u6cb9\u5742\u9053\u8def\u5927\u91ce\u30fb\u5927\u91ce\u6771\u533a\u9593\u5730\u8cea\u8abf\u67fb\u696d\u52d9","client_name":"\u56fd\u571f\u4ea4\u901a\u7701\u8fd1\u757f\u5730\u65b9\u6574\u5099\u5c40\u798f\u4e95\u6cb3\u5ddd\u56fd\u9053\u4e8b\u52d9\u6240","boring_xml_url":68,"boring_view_url":1,"soilmap_view_url":null,"soiltest_xml_url":0,"soiltest_view_url":0},{"id":519683,"code":"B4KJ202201002-2219","latitude":"36.000499","longitude":"136.503301","source_code":"KK188670220400050010","project_name":"","survey_name":"\u5927\u91ce\u6cb9\u5742\u9053\u8def\u5927\u91ce\u30fb\u5927\u91ce\u6771\u533a\u9593\u5730\u8cea\u8abf\u67fb\u696d\u52d9","client_name":"\u56fd\u571f\u4ea4\u901a\u7701\u8fd1\u757f\u5730\u65b9\u6574\u5099\u5c40\u798f\u4e95\u6cb3\u5ddd\u56fd\u9053\u4e8b\u52d9\u6240","boring_xml_url":68,"boring_view_url":1,"soilmap_view_url":null,"soiltest_xml_url":0,"soiltest_view_url":0},{"id":519682,"code":"B4KJ202201002-2218","latitude":"36.002034","longitude":"136.500279","source_code":"KK188670220400050009","project_name":"","survey_name":"\u5927\u91ce\u6cb9\u5742\u9053\u8def\u5927\u91ce\u30fb\u5927\u91ce\u6771\u533a\u9593\u5730\u8cea\u8abf\u67fb\u696d\u52d9","client_name":"\u56fd\u571f\u4ea4\u901a\u7701\u8fd1\u757f\u5730\u65b9\u6574\u5099\u5c40\u798f\u4e95\u6cb3\u5ddd\u56fd\u9053\u4e8b\u52d9\u6240","boring_xml_url":68,"boring_view_url":1,"soilmap_view_url":null,"soiltest_xml_url":0,"soiltest_view_url":0},{"id":519681,"code":"B4KJ202201002-2217","latitude":"36.002224","longitude":"136.499943","source_code":"KK188670220400050008","project_name":"","survey_name":"\u5927\u91ce\u6cb9\u5742\u9053\u8def\u5927\u91ce\u30fb\u5927\u91ce\u6771\u533a\u9593\u5730\u8cea\u8abf\u67fb\u696d\u52d9","client_name":"\u56fd\u571f\u4ea4\u901a\u7701\u8fd1\u757f\u5730\u65b9\u6574\u5099\u5c40\u798f\u4e95\u6cb3\u5ddd\u56fd\u9053\u4e8b\u52d9\u6240","boring_xml_url":68,"boring_view_url":1,"soilmap_view_url":null,"soiltest_xml_url":0,"soiltest_view_url":0},{"id":519680,"code":"B4KJ202201002-2216","latitude":"36.002505","longitude":"136.499624","source_code":"KK188670220400050007","project_name":"","survey_name":"\u5927\u91ce\u6cb9\u5742\u9053\u8def\u5927\u91ce\u30fb\u5927\u91ce\u6771\u533a\u9593\u5730\u8cea\u8abf\u67fb\u696d\u52d9","client_name":"\u56fd\u571f\u4ea4\u901a\u7701\u8fd1\u757f\u5730\u65b9\u6574\u5099\u5c40\u798f\u4e95\u6cb3\u5ddd\u56fd\u9053\u4e8b\u52d9\u6240","boring_xml_url":68,"boring_view_url":1,"soilmap_view_url":null,"soiltest_xml_url":0,"soiltest_view_url":0},{"id":519679,"code":"B4KJ202201002-2215","latitude":"36.002761","longitude":"136.49931","source_code":"KK188670220400050006","project_name":"","survey_name":"\u5927\u91ce\u6cb9\u5742\u9053\u8def\u5927\u91ce\u30fb\u5927\u91ce\u6771\u533a\u9593\u5730\u8cea\u8abf\u67fb\u696d\u52d9","client_name":"\u56fd\u571f\u4ea4\u901a\u7701\u8fd1\u757f\u5730\u65b9\u6574\u5099\u5c40\u798f\u4e95\u6cb3\u5ddd\u56fd\u9053\u4e8b\u52d9\u6240","boring_xml_url":68,"boring_view_url":1,"soilmap_view_url":null,"soiltest_xml_url":0,"soiltest_view_url":0}]}}