{"header":{"xyz":{"source":[],"mosaic":false},"page":860,"raw":{"soiltest_result":"0","bbox":"57.598333,109.544722,1.933333,163.806111","page":"860"},"conditions":{"soiltest_result":0,"north":57.598333,"west":109.544722,"south":1.933333,"east":163.806111},"success":true,"message":""},"data":{"meta":{"total":212844,"page":860,"pages":7095,"count":30},"values":[{"id":519618,"code":"B4KJ202201002-2154","latitude":"33.486218","longitude":"135.75547","source_code":"KK188666230400460017","project_name":"","survey_name":"\u3059\u3055\u307f\u4e32\u672c\u9053\u8def\u548c\u6df1\u6709\u7530\u5730\u533a\u4ed6\u5730\u8cea\u8abf\u67fb\u696d\u52d9","client_name":"\"\u56fd\u571f\u4ea4\u901a\u7701 \u8fd1\u757f\u5730\u65b9\u6574\u5099\u5c40 \u7d00\u5357\u6cb3\u5ddd\u56fd\u9053\u4e8b\u52d9\u6240\"","boring_xml_url":68,"boring_view_url":1,"soilmap_view_url":null,"soiltest_xml_url":0,"soiltest_view_url":0},{"id":519617,"code":"B4KJ202201002-2153","latitude":"33.486318","longitude":"135.755612","source_code":"KK188666230400460016","project_name":"","survey_name":"\u3059\u3055\u307f\u4e32\u672c\u9053\u8def\u548c\u6df1\u6709\u7530\u5730\u533a\u4ed6\u5730\u8cea\u8abf\u67fb\u696d\u52d9","client_name":"\"\u56fd\u571f\u4ea4\u901a\u7701 \u8fd1\u757f\u5730\u65b9\u6574\u5099\u5c40 \u7d00\u5357\u6cb3\u5ddd\u56fd\u9053\u4e8b\u52d9\u6240\"","boring_xml_url":68,"boring_view_url":1,"soilmap_view_url":null,"soiltest_xml_url":0,"soiltest_view_url":0},{"id":519616,"code":"B4KJ202201002-2152","latitude":"33.486442","longitude":"135.755708","source_code":"KK188666230400460015","project_name":"","survey_name":"\u3059\u3055\u307f\u4e32\u672c\u9053\u8def\u548c\u6df1\u6709\u7530\u5730\u533a\u4ed6\u5730\u8cea\u8abf\u67fb\u696d\u52d9","client_name":"\"\u56fd\u571f\u4ea4\u901a\u7701 \u8fd1\u757f\u5730\u65b9\u6574\u5099\u5c40 \u7d00\u5357\u6cb3\u5ddd\u56fd\u9053\u4e8b\u52d9\u6240\"","boring_xml_url":68,"boring_view_url":1,"soilmap_view_url":null,"soiltest_xml_url":0,"soiltest_view_url":0},{"id":519615,"code":"B4KJ202201002-2151","latitude":"33.485871","longitude":"135.752648","source_code":"KK188666230400460014","project_name":"","survey_name":"\u3059\u3055\u307f\u4e32\u672c\u9053\u8def\u548c\u6df1\u6709\u7530\u5730\u533a\u4ed6\u5730\u8cea\u8abf\u67fb\u696d\u52d9","client_name":"\"\u56fd\u571f\u4ea4\u901a\u7701 \u8fd1\u757f\u5730\u65b9\u6574\u5099\u5c40 \u7d00\u5357\u6cb3\u5ddd\u56fd\u9053\u4e8b\u52d9\u6240\"","boring_xml_url":68,"boring_view_url":1,"soilmap_view_url":null,"soiltest_xml_url":0,"soiltest_view_url":0},{"id":519614,"code":"B4KJ202201002-2150","latitude":"33.486154","longitude":"135.752095","source_code":"KK188666230400460013","project_name":"","survey_name":"\u3059\u3055\u307f\u4e32\u672c\u9053\u8def\u548c\u6df1\u6709\u7530\u5730\u533a\u4ed6\u5730\u8cea\u8abf\u67fb\u696d\u52d9","client_name":"\"\u56fd\u571f\u4ea4\u901a\u7701 \u8fd1\u757f\u5730\u65b9\u6574\u5099\u5c40 \u7d00\u5357\u6cb3\u5ddd\u56fd\u9053\u4e8b\u52d9\u6240\"","boring_xml_url":68,"boring_view_url":1,"soilmap_view_url":null,"soiltest_xml_url":0,"soiltest_view_url":0},{"id":519613,"code":"B4KJ202201002-2149","latitude":"33.485962","longitude":"135.752056","source_code":"KK188666230400460012","project_name":"","survey_name":"\u3059\u3055\u307f\u4e32\u672c\u9053\u8def\u548c\u6df1\u6709\u7530\u5730\u533a\u4ed6\u5730\u8cea\u8abf\u67fb\u696d\u52d9","client_name":"\"\u56fd\u571f\u4ea4\u901a\u7701 \u8fd1\u757f\u5730\u65b9\u6574\u5099\u5c40 \u7d00\u5357\u6cb3\u5ddd\u56fd\u9053\u4e8b\u52d9\u6240\"","boring_xml_url":68,"boring_view_url":1,"soilmap_view_url":null,"soiltest_xml_url":0,"soiltest_view_url":0},{"id":519612,"code":"B4KJ202201002-2148","latitude":"33.486066","longitude":"135.75195","source_code":"KK188666230400460011","project_name":"","survey_name":"\u3059\u3055\u307f\u4e32\u672c\u9053\u8def\u548c\u6df1\u6709\u7530\u5730\u533a\u4ed6\u5730\u8cea\u8abf\u67fb\u696d\u52d9","client_name":"\"\u56fd\u571f\u4ea4\u901a\u7701 \u8fd1\u757f\u5730\u65b9\u6574\u5099\u5c40 \u7d00\u5357\u6cb3\u5ddd\u56fd\u9053\u4e8b\u52d9\u6240\"","boring_xml_url":68,"boring_view_url":1,"soilmap_view_url":null,"soiltest_xml_url":0,"soiltest_view_url":0},{"id":519611,"code":"B4KJ202201002-2147","latitude":"33.487805","longitude":"135.742188","source_code":"KK188666230400460010","project_name":"","survey_name":"\u3059\u3055\u307f\u4e32\u672c\u9053\u8def\u548c\u6df1\u6709\u7530\u5730\u533a\u4ed6\u5730\u8cea\u8abf\u67fb\u696d\u52d9","client_name":"\"\u56fd\u571f\u4ea4\u901a\u7701 \u8fd1\u757f\u5730\u65b9\u6574\u5099\u5c40 \u7d00\u5357\u6cb3\u5ddd\u56fd\u9053\u4e8b\u52d9\u6240\"","boring_xml_url":68,"boring_view_url":1,"soilmap_view_url":null,"soiltest_xml_url":0,"soiltest_view_url":0},{"id":519610,"code":"B4KJ202201002-2146","latitude":"33.488008","longitude":"135.741855","source_code":"KK188666230400460009","project_name":"","survey_name":"\u3059\u3055\u307f\u4e32\u672c\u9053\u8def\u548c\u6df1\u6709\u7530\u5730\u533a\u4ed6\u5730\u8cea\u8abf\u67fb\u696d\u52d9","client_name":"\"\u56fd\u571f\u4ea4\u901a\u7701 \u8fd1\u757f\u5730\u65b9\u6574\u5099\u5c40 \u7d00\u5357\u6cb3\u5ddd\u56fd\u9053\u4e8b\u52d9\u6240\"","boring_xml_url":68,"boring_view_url":1,"soilmap_view_url":null,"soiltest_xml_url":0,"soiltest_view_url":0},{"id":519609,"code":"B4KJ202201002-2145","latitude":"33.487729","longitude":"135.742375","source_code":"KK188666230400460008","project_name":"","survey_name":"\u3059\u3055\u307f\u4e32\u672c\u9053\u8def\u548c\u6df1\u6709\u7530\u5730\u533a\u4ed6\u5730\u8cea\u8abf\u67fb\u696d\u52d9","client_name":"\"\u56fd\u571f\u4ea4\u901a\u7701 \u8fd1\u757f\u5730\u65b9\u6574\u5099\u5c40 \u7d00\u5357\u6cb3\u5ddd\u56fd\u9053\u4e8b\u52d9\u6240\"","boring_xml_url":68,"boring_view_url":1,"soilmap_view_url":null,"soiltest_xml_url":0,"soiltest_view_url":0},{"id":519608,"code":"B4KJ202201002-2144","latitude":"33.487861","longitude":"135.74242","source_code":"KK188666230400460007","project_name":"","survey_name":"\u3059\u3055\u307f\u4e32\u672c\u9053\u8def\u548c\u6df1\u6709\u7530\u5730\u533a\u4ed6\u5730\u8cea\u8abf\u67fb\u696d\u52d9","client_name":"\"\u56fd\u571f\u4ea4\u901a\u7701 \u8fd1\u757f\u5730\u65b9\u6574\u5099\u5c40 \u7d00\u5357\u6cb3\u5ddd\u56fd\u9053\u4e8b\u52d9\u6240\"","boring_xml_url":68,"boring_view_url":1,"soilmap_view_url":null,"soiltest_xml_url":0,"soiltest_view_url":0},{"id":519607,"code":"B4KJ202201002-2143","latitude":"33.488128","longitude":"135.74174","source_code":"KK188666230400460006","project_name":"","survey_name":"\u3059\u3055\u307f\u4e32\u672c\u9053\u8def\u548c\u6df1\u6709\u7530\u5730\u533a\u4ed6\u5730\u8cea\u8abf\u67fb\u696d\u52d9","client_name":"\"\u56fd\u571f\u4ea4\u901a\u7701 \u8fd1\u757f\u5730\u65b9\u6574\u5099\u5c40 \u7d00\u5357\u6cb3\u5ddd\u56fd\u9053\u4e8b\u52d9\u6240\"","boring_xml_url":68,"boring_view_url":1,"soilmap_view_url":null,"soiltest_xml_url":0,"soiltest_view_url":0},{"id":519606,"code":"B4KJ202201002-2142","latitude":"33.488265","longitude":"135.741743","source_code":"KK188666230400460005","project_name":"","survey_name":"\u3059\u3055\u307f\u4e32\u672c\u9053\u8def\u548c\u6df1\u6709\u7530\u5730\u533a\u4ed6\u5730\u8cea\u8abf\u67fb\u696d\u52d9","client_name":"\u56fd\u571f\u4ea4\u901a\u7701\u8fd1\u757f\u5730\u65b9\u6574\u5099\u5c40\u7d00\u5357\u6cb3\u5ddd\u56fd\u9053\u4e8b\u52d9\u6240","boring_xml_url":68,"boring_view_url":1,"soilmap_view_url":null,"soiltest_xml_url":0,"soiltest_view_url":0},{"id":519605,"code":"B4KJ202201002-2141","latitude":"33.492074","longitude":"135.735637","source_code":"KK188666230400460004","project_name":"","survey_name":"\u3059\u3055\u307f\u4e32\u672c\u9053\u8def\u548c\u6df1\u6709\u7530\u5730\u533a\u4ed6\u5730\u8cea\u8abf\u67fb\u696d\u52d9","client_name":"\"\u56fd\u571f\u4ea4\u901a\u7701 \u8fd1\u757f\u5730\u65b9\u6574\u5099\u5c40 \u7d00\u5357\u6cb3\u5ddd\u56fd\u9053\u4e8b\u52d9\u6240\"","boring_xml_url":68,"boring_view_url":1,"soilmap_view_url":null,"soiltest_xml_url":0,"soiltest_view_url":0},{"id":519604,"code":"B4KJ202201002-2140","latitude":"33.490932","longitude":"135.737427","source_code":"KK188666230400460003","project_name":"","survey_name":"\u3059\u3055\u307f\u4e32\u672c\u9053\u8def\u548c\u6df1\u6709\u7530\u5730\u533a\u4ed6\u5730\u8cea\u8abf\u67fb\u696d\u52d9","client_name":"\"\u56fd\u571f\u4ea4\u901a\u7701 \u8fd1\u757f\u5730\u65b9\u6574\u5099\u5c40 \u7d00\u5357\u6cb3\u5ddd\u56fd\u9053\u4e8b\u52d9\u6240\"","boring_xml_url":68,"boring_view_url":1,"soilmap_view_url":null,"soiltest_xml_url":0,"soiltest_view_url":0},{"id":519603,"code":"B4KJ202201002-2139","latitude":"33.490828","longitude":"135.737401","source_code":"KK188666230400460002","project_name":"","survey_name":"\u3059\u3055\u307f\u4e32\u672c\u9053\u8def\u548c\u6df1\u6709\u7530\u5730\u533a\u4ed6\u5730\u8cea\u8abf\u67fb\u696d\u52d9","client_name":"\"\u56fd\u571f\u4ea4\u901a\u7701 \u8fd1\u757f\u5730\u65b9\u6574\u5099\u5c40 \u7d00\u5357\u6cb3\u5ddd\u56fd\u9053\u4e8b\u52d9\u6240\"","boring_xml_url":68,"boring_view_url":1,"soilmap_view_url":null,"soiltest_xml_url":0,"soiltest_view_url":0},{"id":519602,"code":"B4KJ202201002-2138","latitude":"33.491944","longitude":"135.735219","source_code":"KK188666230400460001","project_name":"","survey_name":"\u3059\u3055\u307f\u4e32\u672c\u9053\u8def\u548c\u6df1\u6709\u7530\u5730\u533a\u4ed6\u5730\u8cea\u8abf\u67fb\u696d\u52d9","client_name":"\u56fd\u571f\u4ea4\u901a\u7701\u8fd1\u757f\u5730\u65b9\u6574\u5099\u5c40\u7d00\u5357\u6cb3\u5ddd\u56fd\u9053\u4e8b\u52d9\u6240","boring_xml_url":68,"boring_view_url":1,"soilmap_view_url":null,"soiltest_xml_url":0,"soiltest_view_url":0},{"id":519601,"code":"B4KJ202201002-2137","latitude":"33.4864","longitude":"135.760683","source_code":"KK188666230400420022","project_name":"","survey_name":"\u3059\u3055\u307f\u4e32\u672c\u9053\u8def\u7530\u4e26\u5730\u533a\u4ed6\u5730\u8cea\u8abf\u67fb\u696d\u52d9","client_name":"\u56fd\u571f\u4ea4\u901a\u7701\u8fd1\u757f\u5730\u65b9\u6574\u5099\u5c40\u7d00\u5357\u6cb3\u5ddd\u56fd\u9053\u4e8b\u52d9\u6240","boring_xml_url":68,"boring_view_url":1,"soilmap_view_url":null,"soiltest_xml_url":0,"soiltest_view_url":0},{"id":519600,"code":"B4KJ202201002-2136","latitude":"33.486394","longitude":"135.759492","source_code":"KK188666230400420021","project_name":"","survey_name":"\u3059\u3055\u307f\u4e32\u672c\u9053\u8def\u7530\u4e26\u5730\u533a\u4ed6\u5730\u8cea\u8abf\u67fb\u696d\u52d9","client_name":"\u56fd\u571f\u4ea4\u901a\u7701\u8fd1\u757f\u5730\u65b9\u6574\u5099\u5c40\u7d00\u5357\u6cb3\u5ddd\u56fd\u9053\u4e8b\u52d9\u6240","boring_xml_url":68,"boring_view_url":1,"soilmap_view_url":null,"soiltest_xml_url":0,"soiltest_view_url":0},{"id":519599,"code":"B4KJ202201002-2135","latitude":"33.486564","longitude":"135.760869","source_code":"KK188666230400420020","project_name":"","survey_name":"\u3059\u3055\u307f\u4e32\u672c\u9053\u8def\u7530\u4e26\u5730\u533a\u4ed6\u5730\u8cea\u8abf\u67fb\u696d\u52d9","client_name":"\u56fd\u571f\u4ea4\u901a\u7701\u8fd1\u757f\u5730\u65b9\u6574\u5099\u5c40\u7d00\u5357\u6cb3\u5ddd\u56fd\u9053\u4e8b\u52d9\u6240","boring_xml_url":68,"boring_view_url":1,"soilmap_view_url":null,"soiltest_xml_url":0,"soiltest_view_url":0},{"id":519598,"code":"B4KJ202201002-2134","latitude":"33.486608","longitude":"135.760367","source_code":"KK188666230400420019","project_name":"","survey_name":"\u3059\u3055\u307f\u4e32\u672c\u9053\u8def\u7530\u4e26\u5730\u533a\u4ed6\u5730\u8cea\u8abf\u67fb\u696d\u52d9","client_name":"\u56fd\u571f\u4ea4\u901a\u7701\u8fd1\u757f\u5730\u65b9\u6574\u5099\u5c40\u7d00\u5357\u6cb3\u5ddd\u56fd\u9053\u4e8b\u52d9\u6240","boring_xml_url":68,"boring_view_url":1,"soilmap_view_url":null,"soiltest_xml_url":0,"soiltest_view_url":0},{"id":519597,"code":"B4KJ202201002-2133","latitude":"33.486525","longitude":"135.759769","source_code":"KK188666230400420018","project_name":"","survey_name":"\u3059\u3055\u307f\u4e32\u672c\u9053\u8def\u7530\u4e26\u5730\u533a\u4ed6\u5730\u8cea\u8abf\u67fb\u696d\u52d9","client_name":"\u56fd\u571f\u4ea4\u901a\u7701\u8fd1\u757f\u5730\u65b9\u6574\u5099\u5c40\u7d00\u5357\u6cb3\u5ddd\u56fd\u9053\u4e8b\u52d9\u6240","boring_xml_url":68,"boring_view_url":1,"soilmap_view_url":null,"soiltest_xml_url":0,"soiltest_view_url":0},{"id":519596,"code":"B4KJ202201002-2132","latitude":"33.486569","longitude":"135.759258","source_code":"KK188666230400420017","project_name":"","survey_name":"\u3059\u3055\u307f\u4e32\u672c\u9053\u8def\u7530\u4e26\u5730\u533a\u4ed6\u5730\u8cea\u8abf\u67fb\u696d\u52d9","client_name":"\u56fd\u571f\u4ea4\u901a\u7701\u8fd1\u757f\u5730\u65b9\u6574\u5099\u5c40\u7d00\u5357\u6cb3\u5ddd\u56fd\u9053\u4e8b\u52d9\u6240","boring_xml_url":68,"boring_view_url":1,"soilmap_view_url":null,"soiltest_xml_url":0,"soiltest_view_url":0},{"id":519595,"code":"B4KJ202201002-2131","latitude":"33.486308","longitude":"135.782297","source_code":"KK188666230400420016","project_name":"","survey_name":"\u3059\u3055\u307f\u4e32\u672c\u9053\u8def\u7530\u4e26\u5730\u533a\u4ed6\u5730\u8cea\u8abf\u67fb\u696d\u52d9","client_name":"\u56fd\u571f\u4ea4\u901a\u7701\u8fd1\u757f\u5730\u65b9\u6574\u5099\u5c40\u7d00\u5357\u6cb3\u5ddd\u56fd\u9053\u4e8b\u52d9\u6240","boring_xml_url":68,"boring_view_url":1,"soilmap_view_url":null,"soiltest_xml_url":0,"soiltest_view_url":0},{"id":519594,"code":"B4KJ202201002-2130","latitude":"33.486408","longitude":"135.782158","source_code":"KK188666230400420015","project_name":"","survey_name":"\u3059\u3055\u307f\u4e32\u672c\u9053\u8def\u7530\u4e26\u5730\u533a\u4ed6\u5730\u8cea\u8abf\u67fb\u696d\u52d9","client_name":"\u56fd\u571f\u4ea4\u901a\u7701\u8fd1\u757f\u5730\u65b9\u6574\u5099\u5c40\u7d00\u5357\u6cb3\u5ddd\u56fd\u9053\u4e8b\u52d9\u6240","boring_xml_url":68,"boring_view_url":1,"soilmap_view_url":null,"soiltest_xml_url":0,"soiltest_view_url":0},{"id":519593,"code":"B4KJ202201002-2129","latitude":"33.486244","longitude":"135.781761","source_code":"KK188666230400420014","project_name":"","survey_name":"\u3059\u3055\u307f\u4e32\u672c\u9053\u8def\u7530\u4e26\u5730\u533a\u4ed6\u5730\u8cea\u8abf\u67fb\u696d\u52d9","client_name":"\u56fd\u571f\u4ea4\u901a\u7701\u8fd1\u757f\u5730\u65b9\u6574\u5099\u5c40\u7d00\u5357\u6cb3\u5ddd\u56fd\u9053\u4e8b\u52d9\u6240","boring_xml_url":68,"boring_view_url":1,"soilmap_view_url":null,"soiltest_xml_url":0,"soiltest_view_url":0},{"id":519592,"code":"B4KJ202201002-2128","latitude":"33.48635","longitude":"135.781544","source_code":"KK188666230400420013","project_name":"","survey_name":"\u3059\u3055\u307f\u4e32\u672c\u9053\u8def\u7530\u4e26\u5730\u533a\u4ed6\u5730\u8cea\u8abf\u67fb\u696d\u52d9","client_name":"\u56fd\u571f\u4ea4\u901a\u7701\u8fd1\u757f\u5730\u65b9\u6574\u5099\u5c40\u7d00\u5357\u6cb3\u5ddd\u56fd\u9053\u4e8b\u52d9\u6240","boring_xml_url":68,"boring_view_url":1,"soilmap_view_url":null,"soiltest_xml_url":0,"soiltest_view_url":0},{"id":519591,"code":"B4KJ202201002-2127","latitude":"33.486267","longitude":"135.780767","source_code":"KK188666230400420012","project_name":"","survey_name":"\u3059\u3055\u307f\u4e32\u672c\u9053\u8def\u7530\u4e26\u5730\u533a\u4ed6\u5730\u8cea\u8abf\u67fb\u696d\u52d9","client_name":"\u56fd\u571f\u4ea4\u901a\u7701\u8fd1\u757f\u5730\u65b9\u6574\u5099\u5c40\u7d00\u5357\u6cb3\u5ddd\u56fd\u9053\u4e8b\u52d9\u6240","boring_xml_url":68,"boring_view_url":1,"soilmap_view_url":null,"soiltest_xml_url":0,"soiltest_view_url":0},{"id":519590,"code":"B4KJ202201002-2126","latitude":"33.486181","longitude":"135.779897","source_code":"KK188666230400420011","project_name":"","survey_name":"\u3059\u3055\u307f\u4e32\u672c\u9053\u8def\u7530\u4e26\u5730\u533a\u4ed6\u5730\u8cea\u8abf\u67fb\u696d\u52d9","client_name":"\u56fd\u571f\u4ea4\u901a\u7701\u8fd1\u757f\u5730\u65b9\u6574\u5099\u5c40\u7d00\u5357\u6cb3\u5ddd\u56fd\u9053\u4e8b\u52d9\u6240","boring_xml_url":68,"boring_view_url":1,"soilmap_view_url":null,"soiltest_xml_url":0,"soiltest_view_url":0},{"id":519589,"code":"B4KJ202201002-2125","latitude":"33.486056","longitude":"135.779806","source_code":"KK188666230400420010","project_name":"","survey_name":"\u3059\u3055\u307f\u4e32\u672c\u9053\u8def\u7530\u4e26\u5730\u533a\u4ed6\u5730\u8cea\u8abf\u67fb\u696d\u52d9","client_name":"\u56fd\u571f\u4ea4\u901a\u7701\u8fd1\u757f\u5730\u65b9\u6574\u5099\u5c40\u7d00\u5357\u6cb3\u5ddd\u56fd\u9053\u4e8b\u52d9\u6240","boring_xml_url":68,"boring_view_url":1,"soilmap_view_url":null,"soiltest_xml_url":0,"soiltest_view_url":0}]}}