{"header":{"xyz":{"source":[],"mosaic":false},"page":871,"raw":{"soiltest_result":"0","bbox":"57.598333,109.544722,1.933333,163.806111","page":"871"},"conditions":{"soiltest_result":0,"north":57.598333,"west":109.544722,"south":1.933333,"east":163.806111},"success":true,"message":""},"data":{"meta":{"total":212844,"page":871,"pages":7095,"count":30},"values":[{"id":519288,"code":"B4KJ202201002-1824","latitude":"34.513664","longitude":"135.773068","source_code":"KK178661290400120029","project_name":"\u5927\u548c\u5fa1\u6240\u9053\u8def\u66fd\u6211\u5730\u533a\u4ed6","survey_name":"\u5927\u548c\u5fa1\u6240\u9053\u8def\u66fd\u6211\u5730\u533a\u4ed6\u5730\u8cea\u8abf\u67fb\u696d\u52d9","client_name":"\u56fd\u571f\u4ea4\u901a\u7701\u8fd1\u757f\u5730\u65b9\u6574\u5099\u5c40\u3000\u5948\u826f\u56fd\u9053\u4e8b\u52d9\u6240","boring_xml_url":68,"boring_view_url":1,"soilmap_view_url":null,"soiltest_xml_url":0,"soiltest_view_url":0},{"id":519287,"code":"B4KJ202201002-1823","latitude":"34.513645","longitude":"135.77285","source_code":"KK178661290400120028","project_name":"\u5927\u548c\u5fa1\u6240\u9053\u8def\u66fd\u6211\u5730\u533a\u4ed6","survey_name":"\u5927\u548c\u5fa1\u6240\u9053\u8def\u66fd\u6211\u5730\u533a\u4ed6\u5730\u8cea\u8abf\u67fb\u696d\u52d9","client_name":"\u56fd\u571f\u4ea4\u901a\u7701\u8fd1\u757f\u5730\u65b9\u6574\u5099\u5c40\u3000\u5948\u826f\u56fd\u9053\u4e8b\u52d9\u6240","boring_xml_url":68,"boring_view_url":1,"soilmap_view_url":null,"soiltest_xml_url":0,"soiltest_view_url":0},{"id":519286,"code":"B4KJ202201002-1822","latitude":"34.513687","longitude":"135.77332","source_code":"KK178661290400120027","project_name":"\u5927\u548c\u5fa1\u6240\u9053\u8def\u66fd\u6211\u5730\u533a\u4ed6","survey_name":"\u5927\u548c\u5fa1\u6240\u9053\u8def\u66fd\u6211\u5730\u533a\u4ed6\u5730\u8cea\u8abf\u67fb\u696d\u52d9","client_name":"\u56fd\u571f\u4ea4\u901a\u7701\u8fd1\u757f\u5730\u65b9\u6574\u5099\u5c40\u3000\u5948\u826f\u56fd\u9053\u4e8b\u52d9\u6240","boring_xml_url":68,"boring_view_url":1,"soilmap_view_url":null,"soiltest_xml_url":0,"soiltest_view_url":0},{"id":519285,"code":"B4KJ202201002-1821","latitude":"34.508941","longitude":"135.770093","source_code":"KK178661290400120026","project_name":"\u5927\u548c\u5fa1\u6240\u9053\u8def\u66fd\u6211\u5730\u533a\u4ed6","survey_name":"\u5927\u548c\u5fa1\u6240\u9053\u8def\u66fd\u6211\u5730\u533a\u4ed6\u5730\u8cea\u8abf\u67fb\u696d\u52d9","client_name":"\u56fd\u571f\u4ea4\u901a\u7701\u8fd1\u757f\u5730\u65b9\u6574\u5099\u5c40\u3000\u5948\u826f\u56fd\u9053\u4e8b\u52d9\u6240","boring_xml_url":68,"boring_view_url":1,"soilmap_view_url":null,"soiltest_xml_url":0,"soiltest_view_url":0},{"id":519284,"code":"B4KJ202201002-1820","latitude":"34.509453","longitude":"135.770707","source_code":"KK178661290400120025","project_name":"\u5927\u548c\u5fa1\u6240\u9053\u8def\u66fd\u6211\u5730\u533a\u4ed6","survey_name":"\u5927\u548c\u5fa1\u6240\u9053\u8def\u66fd\u6211\u5730\u533a\u4ed6\u5730\u8cea\u8abf\u67fb\u696d\u52d9","client_name":"\u56fd\u571f\u4ea4\u901a\u7701\u8fd1\u757f\u5730\u65b9\u6574\u5099\u5c40\u3000\u5948\u826f\u56fd\u9053\u4e8b\u52d9\u6240","boring_xml_url":68,"boring_view_url":1,"soilmap_view_url":null,"soiltest_xml_url":0,"soiltest_view_url":0},{"id":519283,"code":"B4KJ202201002-1819","latitude":"34.509884","longitude":"135.771085","source_code":"KK178661290400120024","project_name":"\u5927\u548c\u5fa1\u6240\u9053\u8def\u66fd\u6211\u5730\u533a\u4ed6","survey_name":"\u5927\u548c\u5fa1\u6240\u9053\u8def\u66fd\u6211\u5730\u533a\u4ed6\u5730\u8cea\u8abf\u67fb\u696d\u52d9","client_name":"\u56fd\u571f\u4ea4\u901a\u7701\u8fd1\u757f\u5730\u65b9\u6574\u5099\u5c40\u3000\u5948\u826f\u56fd\u9053\u4e8b\u52d9\u6240","boring_xml_url":68,"boring_view_url":1,"soilmap_view_url":null,"soiltest_xml_url":0,"soiltest_view_url":0},{"id":519282,"code":"B4KJ202201002-1818","latitude":"34.510189","longitude":"135.771373","source_code":"KK178661290400120023","project_name":"\u5927\u548c\u5fa1\u6240\u9053\u8def\u66fd\u6211\u5730\u533a\u4ed6","survey_name":"\u5927\u548c\u5fa1\u6240\u9053\u8def\u66fd\u6211\u5730\u533a\u4ed6\u5730\u8cea\u8abf\u67fb\u696d\u52d9","client_name":"\u56fd\u571f\u4ea4\u901a\u7701\u8fd1\u757f\u5730\u65b9\u6574\u5099\u5c40\u3000\u5948\u826f\u56fd\u9053\u4e8b\u52d9\u6240","boring_xml_url":68,"boring_view_url":1,"soilmap_view_url":null,"soiltest_xml_url":0,"soiltest_view_url":0},{"id":519281,"code":"B4KJ202201002-1817","latitude":"34.507368","longitude":"135.774686","source_code":"KK178661290400120022","project_name":"\u5927\u548c\u5fa1\u6240\u9053\u8def\u66fd\u6211\u5730\u533a\u4ed6","survey_name":"\u5927\u548c\u5fa1\u6240\u9053\u8def\u66fd\u6211\u5730\u533a\u4ed6\u5730\u8cea\u8abf\u67fb\u696d\u52d9","client_name":"\u56fd\u571f\u4ea4\u901a\u7701\u8fd1\u757f\u5730\u65b9\u6574\u5099\u5c40\u3000\u5948\u826f\u56fd\u9053\u4e8b\u52d9\u6240","boring_xml_url":68,"boring_view_url":1,"soilmap_view_url":null,"soiltest_xml_url":0,"soiltest_view_url":0},{"id":519280,"code":"B4KJ202201002-1816","latitude":"34.507892","longitude":"135.775017","source_code":"KK178661290400120021","project_name":"\u5927\u548c\u5fa1\u6240\u9053\u8def\u66fd\u6211\u5730\u533a\u4ed6","survey_name":"\u5927\u548c\u5fa1\u6240\u9053\u8def\u66fd\u6211\u5730\u533a\u4ed6\u5730\u8cea\u8abf\u67fb\u696d\u52d9","client_name":"\u56fd\u571f\u4ea4\u901a\u7701\u8fd1\u757f\u5730\u65b9\u6574\u5099\u5c40\u3000\u5948\u826f\u56fd\u9053\u4e8b\u52d9\u6240","boring_xml_url":68,"boring_view_url":1,"soilmap_view_url":null,"soiltest_xml_url":0,"soiltest_view_url":0},{"id":519279,"code":"B4KJ202201002-1815","latitude":"34.508218","longitude":"135.775438","source_code":"KK178661290400120020","project_name":"\u5927\u548c\u5fa1\u6240\u9053\u8def\u66fd\u6211\u5730\u533a\u4ed6","survey_name":"\u5927\u548c\u5fa1\u6240\u9053\u8def\u66fd\u6211\u5730\u533a\u4ed6\u5730\u8cea\u8abf\u67fb\u696d\u52d9","client_name":"\u56fd\u571f\u4ea4\u901a\u7701\u8fd1\u757f\u5730\u65b9\u6574\u5099\u5c40\u3000\u5948\u826f\u56fd\u9053\u4e8b\u52d9\u6240","boring_xml_url":68,"boring_view_url":1,"soilmap_view_url":null,"soiltest_xml_url":0,"soiltest_view_url":0},{"id":519278,"code":"B4KJ202201002-1814","latitude":"34.508486","longitude":"135.775692","source_code":"KK178661290400120019","project_name":"\u5927\u548c\u5fa1\u6240\u9053\u8def\u66fd\u6211\u5730\u533a\u4ed6","survey_name":"\u5927\u548c\u5fa1\u6240\u9053\u8def\u66fd\u6211\u5730\u533a\u4ed6\u5730\u8cea\u8abf\u67fb\u696d\u52d9","client_name":"\u56fd\u571f\u4ea4\u901a\u7701\u8fd1\u757f\u5730\u65b9\u6574\u5099\u5c40\u3000\u5948\u826f\u56fd\u9053\u4e8b\u52d9\u6240","boring_xml_url":68,"boring_view_url":1,"soilmap_view_url":null,"soiltest_xml_url":0,"soiltest_view_url":0},{"id":519277,"code":"B4KJ202201002-1813","latitude":"34.512024","longitude":"135.773129","source_code":"KK178661290400120018","project_name":"\u5927\u548c\u5fa1\u6240\u9053\u8def\u66fd\u6211\u5730\u533a\u4ed6","survey_name":"\u5927\u548c\u5fa1\u6240\u9053\u8def\u66fd\u6211\u5730\u533a\u4ed6\u5730\u8cea\u8abf\u67fb\u696d\u52d9","client_name":"\u56fd\u571f\u4ea4\u901a\u7701\u8fd1\u757f\u5730\u65b9\u6574\u5099\u5c40\u3000\u5948\u826f\u56fd\u9053\u4e8b\u52d9\u6240","boring_xml_url":68,"boring_view_url":1,"soilmap_view_url":null,"soiltest_xml_url":0,"soiltest_view_url":0},{"id":519276,"code":"B4KJ202201002-1812","latitude":"34.51277","longitude":"135.773817","source_code":"KK178661290400120017","project_name":"\u5927\u548c\u5fa1\u6240\u9053\u8def\u66fd\u6211\u5730\u533a\u4ed6","survey_name":"\u5927\u548c\u5fa1\u6240\u9053\u8def\u66fd\u6211\u5730\u533a\u4ed6\u5730\u8cea\u8abf\u67fb\u696d\u52d9","client_name":"\u56fd\u571f\u4ea4\u901a\u7701\u8fd1\u757f\u5730\u65b9\u6574\u5099\u5c40\u3000\u5948\u826f\u56fd\u9053\u4e8b\u52d9\u6240","boring_xml_url":68,"boring_view_url":1,"soilmap_view_url":null,"soiltest_xml_url":0,"soiltest_view_url":0},{"id":519275,"code":"B4KJ202201002-1811","latitude":"34.512926","longitude":"135.773973","source_code":"KK178661290400120016","project_name":"\u5927\u548c\u5fa1\u6240\u9053\u8def\u66fd\u6211\u5730\u533a\u4ed6\u5730","survey_name":"\u5927\u548c\u5fa1\u6240\u9053\u8def\u66fd\u6211\u5730\u533a\u4ed6\u5730\u8cea\u8abf\u67fb\u696d\u52d9","client_name":"\u56fd\u571f\u4ea4\u901a\u7701\u8fd1\u757f\u5730\u65b9\u6574\u5099\u5c40\u3000\u5948\u826f\u56fd\u9053\u4e8b\u52d9\u6240","boring_xml_url":68,"boring_view_url":1,"soilmap_view_url":null,"soiltest_xml_url":0,"soiltest_view_url":0},{"id":519274,"code":"B4KJ202201002-1810","latitude":"34.513086","longitude":"135.774124","source_code":"KK178661290400120015","project_name":"\u5927\u548c\u5fa1\u6240\u9053\u8def\u66fd\u6211\u5730\u533a\u4ed6","survey_name":"\u5927\u548c\u5fa1\u6240\u9053\u8def\u66fd\u6211\u5730\u533a\u4ed6\u5730\u8cea\u8abf\u67fb\u696d\u52d9","client_name":"\u56fd\u571f\u4ea4\u901a\u7701\u8fd1\u757f\u5730\u65b9\u6574\u5099\u5c40\u3000\u5948\u826f\u56fd\u9053\u4e8b\u52d9\u6240","boring_xml_url":68,"boring_view_url":1,"soilmap_view_url":null,"soiltest_xml_url":0,"soiltest_view_url":0},{"id":519273,"code":"B4KJ202201002-1809","latitude":"34.513246","longitude":"135.774275","source_code":"KK178661290400120014","project_name":"\u5927\u548c\u5fa1\u6240\u9053\u8def\u66fd\u6211\u5730\u533a\u4ed6","survey_name":"\u5927\u548c\u5fa1\u6240\u9053\u8def\u66fd\u6211\u5730\u533a\u4ed6\u5730\u8cea\u8abf\u67fb\u696d\u52d9","client_name":"\u56fd\u571f\u4ea4\u901a\u7701\u8fd1\u757f\u5730\u65b9\u6574\u5099\u5c40\u3000\u5948\u826f\u56fd\u9053\u4e8b\u52d9\u6240","boring_xml_url":68,"boring_view_url":1,"soilmap_view_url":null,"soiltest_xml_url":0,"soiltest_view_url":0},{"id":519272,"code":"B4KJ202201002-1808","latitude":"34.513411","longitude":"135.774443","source_code":"KK178661290400120013","project_name":"\u5927\u548c\u5fa1\u6240\u9053\u8def\u66fd\u6211\u5730\u533a\u4ed6","survey_name":"\u5927\u548c\u5fa1\u6240\u9053\u8def\u66fd\u6211\u5730\u533a\u4ed6\u5730\u8cea\u8abf\u67fb\u696d\u52d9","client_name":"\u56fd\u571f\u4ea4\u901a\u7701\u8fd1\u757f\u5730\u65b9\u6574\u5099\u5c40\u3000\u5948\u826f\u56fd\u9053\u4e8b\u52d9\u6240","boring_xml_url":68,"boring_view_url":1,"soilmap_view_url":null,"soiltest_xml_url":0,"soiltest_view_url":0},{"id":519271,"code":"B4KJ202201002-1807","latitude":"34.509103","longitude":"135.76988","source_code":"KK178661290400120012","project_name":"\u5927\u548c\u5fa1\u6240\u9053\u8def\u66fd\u6211\u5730\u533a\u4ed6","survey_name":"\u5927\u548c\u5fa1\u6240\u9053\u8def\u66fd\u6211\u5730\u533a\u4ed6\u5730\u8cea\u8abf\u67fb\u696d\u52d9","client_name":"\u56fd\u571f\u4ea4\u901a\u7701\u8fd1\u757f\u5730\u65b9\u6574\u5099\u5c40\u3000\u5948\u826f\u56fd\u9053\u4e8b\u52d9\u6240","boring_xml_url":68,"boring_view_url":1,"soilmap_view_url":null,"soiltest_xml_url":0,"soiltest_view_url":0},{"id":519270,"code":"B4KJ202201002-1806","latitude":"34.509701","longitude":"135.770326","source_code":"KK178661290400120011","project_name":"\u5927\u548c\u5fa1\u6240\u9053\u8def\u66fd\u6211\u5730\u533a\u4ed6","survey_name":"\u5927\u548c\u5fa1\u6240\u9053\u8def\u66fd\u6211\u5730\u533a\u4ed6\u5730\u8cea\u8abf\u67fb\u696d\u52d9","client_name":"\u56fd\u571f\u4ea4\u901a\u7701\u8fd1\u757f\u5730\u65b9\u6574\u5099\u5c40\u3000\u5948\u826f\u56fd\u9053\u4e8b\u52d9\u6240","boring_xml_url":68,"boring_view_url":1,"soilmap_view_url":null,"soiltest_xml_url":0,"soiltest_view_url":0},{"id":519269,"code":"B4KJ202201002-1805","latitude":"34.507146","longitude":"135.773843","source_code":"KK178661290400120010","project_name":"\u5927\u548c\u5fa1\u6240\u9053\u8def\u66fd\u6211\u5730\u533a\u4ed6","survey_name":"\u5927\u548c\u5fa1\u6240\u9053\u8def\u66fd\u6211\u5730\u533a\u4ed6\u5730\u8cea\u8abf\u67fb\u696d\u52d9","client_name":"\u56fd\u571f\u4ea4\u901a\u7701\u8fd1\u757f\u5730\u65b9\u6574\u5099\u5c40\u3000\u5948\u826f\u56fd\u9053\u4e8b\u52d9\u6240","boring_xml_url":68,"boring_view_url":1,"soilmap_view_url":null,"soiltest_xml_url":0,"soiltest_view_url":0},{"id":519268,"code":"B4KJ202201002-1804","latitude":"34.5076","longitude":"135.774255","source_code":"KK178661290400120009","project_name":"\u5927\u548c\u5fa1\u6240\u9053\u8def\u66fd\u6211\u5730\u533a\u4ed6","survey_name":"\u5927\u548c\u5fa1\u6240\u9053\u8def\u66fd\u6211\u5730\u533a\u4ed6\u5730\u8cea\u8abf\u67fb\u696d\u52d9","client_name":"\u56fd\u571f\u4ea4\u901a\u7701\u8fd1\u757f\u5730\u65b9\u6574\u5099\u5c40\u3000\u5948\u826f\u56fd\u9053\u4e8b\u52d9\u6240","boring_xml_url":68,"boring_view_url":1,"soilmap_view_url":null,"soiltest_xml_url":0,"soiltest_view_url":0},{"id":519267,"code":"B4KJ202201002-1803","latitude":"34.508211","longitude":"135.774856","source_code":"KK178661290400120008","project_name":"\u5927\u548c\u5fa1\u6240\u9053\u8def\u66fd\u6211\u5730\u533a\u4ed6","survey_name":"\u5927\u548c\u5fa1\u6240\u9053\u8def\u66fd\u6211\u5730\u533a\u4ed6\u5730\u8cea\u8abf\u67fb\u696d\u52d9","client_name":"\u56fd\u571f\u4ea4\u901a\u7701\u8fd1\u757f\u5730\u65b9\u6574\u5099\u5c40\u3000\u5948\u826f\u56fd\u9053\u4e8b\u52d9\u6240","boring_xml_url":68,"boring_view_url":1,"soilmap_view_url":null,"soiltest_xml_url":0,"soiltest_view_url":0},{"id":519266,"code":"B4KJ202201002-1802","latitude":"34.508484","longitude":"135.775125","source_code":"KK178661290400120007","project_name":"\u5927\u548c\u5fa1\u6240\u9053\u8def\u66fd\u6211\u5730\u533a\u4ed6","survey_name":"\u5927\u548c\u5fa1\u6240\u9053\u8def\u66fd\u6211\u5730\u533a\u4ed6\u5730\u8cea\u8abf\u67fb\u696d\u52d9","client_name":"\u56fd\u571f\u4ea4\u901a\u7701\u8fd1\u757f\u5730\u65b9\u6574\u5099\u5c40\u3000\u5948\u826f\u56fd\u9053\u4e8b\u52d9\u6240","boring_xml_url":68,"boring_view_url":1,"soilmap_view_url":null,"soiltest_xml_url":0,"soiltest_view_url":0},{"id":519265,"code":"B4KJ202201002-1801","latitude":"34.508802","longitude":"135.775395","source_code":"KK178661290400120006","project_name":"\u5927\u548c\u5fa1\u6240\u9053\u8def\u66fd\u6211\u5730\u533a\u4ed6","survey_name":"\u5927\u548c\u5fa1\u6240\u9053\u8def\u66fd\u6211\u5730\u533a\u4ed6\u5730\u8cea\u8abf\u67fb\u696d\u52d9","client_name":"\u56fd\u571f\u4ea4\u901a\u7701\u8fd1\u757f\u5730\u65b9\u6574\u5099\u5c40\u3000\u5948\u826f\u56fd\u9053\u4e8b\u52d9\u6240","boring_xml_url":68,"boring_view_url":1,"soilmap_view_url":null,"soiltest_xml_url":0,"soiltest_view_url":0},{"id":519264,"code":"B4KJ202201002-1800","latitude":"34.512499","longitude":"135.772956","source_code":"KK178661290400120005","project_name":"\u5927\u548c\u5fa1\u6240\u9053\u8def\u66fd\u6211\u5730\u533a\u4ed6","survey_name":"\u5927\u548c\u5fa1\u6240\u9053\u8def\u66fd\u6211\u5730\u533a\u4ed6\u5730\u8cea\u8abf\u67fb\u696d\u52d9","client_name":"\u56fd\u571f\u4ea4\u901a\u7701\u8fd1\u757f\u5730\u65b9\u6574\u5099\u5c40\u3000\u5948\u826f\u56fd\u9053\u4e8b\u52d9\u6240","boring_xml_url":68,"boring_view_url":1,"soilmap_view_url":null,"soiltest_xml_url":0,"soiltest_view_url":0},{"id":519263,"code":"B4KJ202201002-1799","latitude":"34.512915","longitude":"135.773452","source_code":"KK178661290400120004","project_name":"\u5927\u548c\u5fa1\u6240\u9053\u8def\u66fd\u6211\u5730\u533a\u4ed6","survey_name":"\u5927\u548c\u5fa1\u6240\u9053\u8def\u66fd\u6211\u5730\u533a\u4ed6\u5730\u8cea\u8abf\u67fb\u696d\u52d9","client_name":"\u56fd\u571f\u4ea4\u901a\u7701\u8fd1\u757f\u5730\u65b9\u6574\u5099\u5c40\u3000\u5948\u826f\u56fd\u9053\u4e8b\u52d9\u6240","boring_xml_url":68,"boring_view_url":1,"soilmap_view_url":null,"soiltest_xml_url":0,"soiltest_view_url":0},{"id":519262,"code":"B4KJ202201002-1798","latitude":"34.51331","longitude":"135.773684","source_code":"KK178661290400120003","project_name":"\u5927\u548c\u5fa1\u6240\u9053\u8def\u66fd\u6211\u5730\u533a\u4ed6","survey_name":"\u5927\u548c\u5fa1\u6240\u9053\u8def\u66fd\u6211\u5730\u533a\u4ed6\u5730\u8cea\u8abf\u67fb\u696d\u52d9","client_name":"\u56fd\u571f\u4ea4\u901a\u7701\u8fd1\u757f\u5730\u65b9\u6574\u5099\u5c40\u3000\u5948\u826f\u56fd\u9053\u4e8b\u52d9\u6240","boring_xml_url":68,"boring_view_url":1,"soilmap_view_url":null,"soiltest_xml_url":0,"soiltest_view_url":0},{"id":519261,"code":"B4KJ202201002-1797","latitude":"34.513488","longitude":"135.773852","source_code":"KK178661290400120002","project_name":"\u5927\u548c\u5fa1\u6240\u9053\u8def\u66fd\u6211\u5730\u533a\u4ed6","survey_name":"\u5927\u548c\u5fa1\u6240\u9053\u8def\u66fd\u6211\u5730\u533a\u4ed6\u5730\u8cea\u8abf\u67fb\u696d\u52d9","client_name":"\u56fd\u571f\u4ea4\u901a\u7701\u8fd1\u757f\u5730\u65b9\u6574\u5099\u5c40\u3000\u5948\u826f\u56fd\u9053\u4e8b\u52d9\u6240","boring_xml_url":68,"boring_view_url":1,"soilmap_view_url":null,"soiltest_xml_url":0,"soiltest_view_url":0},{"id":519260,"code":"B4KJ202201002-1796","latitude":"34.513766","longitude":"135.77412","source_code":"KK178661290400120001","project_name":"\u5927\u548c\u5fa1\u6240\u9053\u8def\u66fd\u6211\u5730\u533a\u4ed6","survey_name":"\u5927\u548c\u5fa1\u6240\u9053\u8def\u66fd\u6211\u5730\u533a\u4ed6\u5730\u8cea\u8abf\u67fb\u696d\u52d9","client_name":"\u56fd\u571f\u4ea4\u901a\u7701\u8fd1\u757f\u5730\u65b9\u6574\u5099\u5c40\u3000\u5948\u826f\u56fd\u9053\u4e8b\u52d9\u6240","boring_xml_url":68,"boring_view_url":1,"soilmap_view_url":null,"soiltest_xml_url":0,"soiltest_view_url":0},{"id":519259,"code":"B4KJ202201002-1795","latitude":"34.497417","longitude":"135.75874","source_code":"KK178661290400040027","project_name":"A\u30e9\u30f3\u30d7AP17(ANo.34+14.50-R-0.75)","survey_name":"\u5927\u548c\u5fa1\u6240\u9053\u8def\u6771\u574a\u57ce\u5730\u533a\u4ed6\u5730\u8cea\u8abf\u67fb\u696d\u52d9","client_name":"\u56fd\u571f\u4ea4\u901a\u7701\u8fd1\u757f\u5730\u65b9\u6574\u5099\u5c40\u5948\u826f\u56fd\u9053\u4e8b\u52d9\u6240","boring_xml_url":68,"boring_view_url":1,"soilmap_view_url":null,"soiltest_xml_url":0,"soiltest_view_url":0}]}}