{"header":{"xyz":{"source":[],"mosaic":false},"page":873,"raw":{"soiltest_result":"0","bbox":"57.598333,109.544722,1.933333,163.806111","page":"873"},"conditions":{"soiltest_result":0,"north":57.598333,"west":109.544722,"south":1.933333,"east":163.806111},"success":true,"message":""},"data":{"meta":{"total":212844,"page":873,"pages":7095,"count":30},"values":[{"id":519228,"code":"B4KJ202201002-1764","latitude":"34.142976","longitude":"135.749604","source_code":"KK168661200400210006","project_name":"","survey_name":"\u9577\u6bbf\u9053\u8def\u5730\u8cea\u8abf\u67fb\u4ed6\u696d\u52d9","client_name":"\u56fd\u571f\u4ea4\u901a\u7701\u3000\u8fd1\u757f\u5730\u65b9\u6574\u5099\u5c40\u3000\u5948\u826f\u56fd\u9053\u4e8b\u52d9\u6240","boring_xml_url":68,"boring_view_url":1,"soilmap_view_url":null,"soiltest_xml_url":0,"soiltest_view_url":0},{"id":519227,"code":"B4KJ202201002-1763","latitude":"34.143168","longitude":"135.749293","source_code":"KK168661200400210005","project_name":"","survey_name":"\u9577\u6bbf\u9053\u8def\u5730\u8cea\u8abf\u67fb\u4ed6\u696d\u52d9","client_name":"\u56fd\u571f\u4ea4\u901a\u7701\u8fd1\u757f\u5730\u65b9\u6574\u5099\u5c40\u3000\u5948\u826f\u56fd\u9053\u4e8b\u52d9\u6240","boring_xml_url":68,"boring_view_url":1,"soilmap_view_url":null,"soiltest_xml_url":0,"soiltest_view_url":0},{"id":519226,"code":"B4KJ202201002-1762","latitude":"34.142837","longitude":"135.74958","source_code":"KK168661200400210004","project_name":"","survey_name":"\u9577\u6bbf\u9053\u8def\u5730\u8cea\u8abf\u67fb\u4ed6\u696d\u52d9","client_name":"\u56fd\u571f\u4ea4\u901a\u7701\u8fd1\u757f\u5730\u65b9\u6574\u5099\u5c40\u3000\u5948\u826f\u56fd\u9053\u4e8b\u52d9\u6240","boring_xml_url":68,"boring_view_url":1,"soilmap_view_url":null,"soiltest_xml_url":0,"soiltest_view_url":0},{"id":519225,"code":"B4KJ202201002-1761","latitude":"34.142189","longitude":"135.749744","source_code":"KK168661200400210003","project_name":"","survey_name":"\u9577\u6bbf\u9053\u8def\u5730\u8cea\u8abf\u67fb\u4ed6\u696d\u52d9","client_name":"\u56fd\u571f\u4ea4\u901a\u7701\u8fd1\u757f\u5730\u65b9\u6574\u5099\u5c40\u3000\u5948\u826f\u56fd\u9053\u4e8b\u52d9\u6240","boring_xml_url":68,"boring_view_url":1,"soilmap_view_url":null,"soiltest_xml_url":0,"soiltest_view_url":0},{"id":519224,"code":"B4KJ202201002-1760","latitude":"34.141619","longitude":"135.7497","source_code":"KK168661200400210002","project_name":"","survey_name":"\u9577\u6bbf\u9053\u8def\u5730\u8cea\u8abf\u67fb\u4ed6\u696d\u52d9","client_name":"\u56fd\u571f\u4ea4\u901a\u7701\u8fd1\u757f\u5730\u65b9\u6574\u5099\u5c40\u3000\u5948\u826f\u56fd\u9053\u4e8b\u52d9\u6240","boring_xml_url":68,"boring_view_url":1,"soilmap_view_url":null,"soiltest_xml_url":0,"soiltest_view_url":0},{"id":519223,"code":"B4KJ202201002-1759","latitude":"34.141597","longitude":"135.749612","source_code":"KK168661200400210001","project_name":"","survey_name":"\u9577\u6bbf\u9053\u8def\u5730\u8cea\u8abf\u67fb\u4ed6\u696d\u52d9","client_name":"\u56fd\u571f\u4ea4\u901a\u7701\u8fd1\u757f\u5730\u65b9\u6574\u5099\u5c40\u3000\u7d00\u4f0a\u5c71\u5730\u7802\u9632\u4e8b\u52d9\u6240","boring_xml_url":68,"boring_view_url":1,"soilmap_view_url":null,"soiltest_xml_url":0,"soiltest_view_url":0},{"id":519222,"code":"B4KJ202201002-1758","latitude":"34.128213","longitude":"135.766375","source_code":"KK168661200400200001","project_name":"","survey_name":"\u9577\u6bbf\u9053\u8def1\u53f7\u6a4b\u6881\u4ed6\u8a2d\u8a08\u696d\u52d9","client_name":"\u56fd\u571f\u4ea4\u901a\u7701\u8fd1\u757f\u5730\u65b9\u6574\u5099\u5c40\u5948\u826f\u56fd\u9053\u4e8b\u52d9\u6240","boring_xml_url":68,"boring_view_url":1,"soilmap_view_url":null,"soiltest_xml_url":0,"soiltest_view_url":0},{"id":519221,"code":"B4KJ202201002-1757","latitude":"34.647212","longitude":"135.154542","source_code":"KK178643290400060014","project_name":"","survey_name":"\u5927\u962a\u6e7e\u5cb8\u9053\u8def\u897f\u4f38\u90e8\u795e\u6238\u897f\u90e8\u5730\u533a\u5730\u8cea\u8abf\u67fb\u696d\u52d9","client_name":"\u56fd\u571f\u4ea4\u901a\u7701\u8fd1\u757f\u5730\u65b9\u6574\u5099\u5c40\u6d6a\u901f\u56fd\u9053\u4e8b\u52d9\u6240","boring_xml_url":68,"boring_view_url":1,"soilmap_view_url":null,"soiltest_xml_url":0,"soiltest_view_url":0},{"id":519220,"code":"B4KJ202201002-1756","latitude":"34.648912","longitude":"135.174604","source_code":"KK178643290400060013","project_name":"","survey_name":"\u5927\u962a\u6e7e\u5cb8\u9053\u8def\u897f\u4f38\u90e8\u795e\u6238\u897f\u90e8\u5730\u533a\u5730\u8cea\u8abf\u67fb\u696d\u52d9","client_name":"\u56fd\u571f\u4ea4\u901a\u7701\u8fd1\u757f\u5730\u65b9\u6574\u5099\u5c40\u6d6a\u901f\u56fd\u9053\u4e8b\u52d9\u6240","boring_xml_url":68,"boring_view_url":1,"soilmap_view_url":null,"soiltest_xml_url":0,"soiltest_view_url":0},{"id":519219,"code":"B4KJ202201002-1755","latitude":"34.649582","longitude":"135.181098","source_code":"KK178643290400060012","project_name":"","survey_name":"\u5927\u962a\u6e7e\u5cb8\u9053\u8def\u897f\u4f38\u90e8\u795e\u6238\u897f\u90e8\u5730\u533a\u5730\u8cea\u8abf\u67fb\u696d\u52d9","client_name":"\u56fd\u571f\u4ea4\u901a\u7701\u3000\u8fd1\u757f\u5730\u65b9\u6574\u5099\u5c40\u3000\u6d6a\u901f\u56fd\u9053\u4e8b\u52d9\u6240","boring_xml_url":68,"boring_view_url":1,"soilmap_view_url":null,"soiltest_xml_url":0,"soiltest_view_url":0},{"id":519218,"code":"B4KJ202201002-1754","latitude":"34.649188","longitude":"135.153322","source_code":"KK178643290400060011","project_name":"","survey_name":"\u5927\u962a\u6e7e\u5cb8\u9053\u8def\u897f\u4f38\u90e8\u795e\u6238\u897f\u90e8\u5730\u533a\u5730\u8cea\u8abf\u67fb\u696d\u52d9","client_name":"\u56fd\u571f\u4ea4\u901a\u7701\u3000\u8fd1\u757f\u5730\u65b9\u6574\u5099\u5c40\u3000\u6d6a\u901f\u56fd\u9053\u4e8b\u52d9\u6240","boring_xml_url":68,"boring_view_url":1,"soilmap_view_url":null,"soiltest_xml_url":0,"soiltest_view_url":0},{"id":519217,"code":"B4KJ202201002-1753","latitude":"34.647212","longitude":"135.154542","source_code":"KK178643290400060010","project_name":"","survey_name":"\u5927\u962a\u6e7e\u5cb8\u9053\u8def\u897f\u4f38\u90e8\u795e\u6238\u897f\u90e8\u5730\u533a\u5730\u8cea\u8abf\u67fb\u696d\u52d9","client_name":"\u56fd\u571f\u4ea4\u901a\u7701\u8fd1\u757f\u5730\u65b9\u6574\u5099\u5c40\u6d6a\u901f\u56fd\u9053\u4e8b\u52d9\u6240","boring_xml_url":68,"boring_view_url":1,"soilmap_view_url":null,"soiltest_xml_url":0,"soiltest_view_url":0},{"id":519216,"code":"B4KJ202201002-1752","latitude":"34.647075","longitude":"135.158596","source_code":"KK178643290400060009","project_name":"","survey_name":"\u5927\u962a\u6e7e\u5cb8\u9053\u8def\u897f\u4f38\u90e8\u795e\u6238\u897f\u90e8\u5730\u533a\u5730\u8cea\u8abf\u67fb\u696d\u52d9","client_name":"\u56fd\u571f\u4ea4\u901a\u7701\u3000\u8fd1\u757f\u5730\u65b9\u6574\u5099\u5c40\u3000\u6d6a\u901f\u56fd\u9053\u4e8b\u52d9\u6240","boring_xml_url":68,"boring_view_url":1,"soilmap_view_url":null,"soiltest_xml_url":0,"soiltest_view_url":0},{"id":519215,"code":"B4KJ202201002-1751","latitude":"34.647456","longitude":"135.162152","source_code":"KK178643290400060008","project_name":"","survey_name":"\u5927\u962a\u6e7e\u5cb8\u9053\u8def\u897f\u4f38\u90e8\u795e\u6238\u897f\u90e8\u5730\u533a\u5730\u8cea\u8abf\u67fb\u696d\u52d9","client_name":"\u56fd\u571f\u4ea4\u901a\u7701\u3000\u8fd1\u757f\u5730\u65b9\u6574\u5099\u5c40\u3000\u6d6a\u901f\u56fd\u9053\u4e8b\u52d9\u6240","boring_xml_url":68,"boring_view_url":1,"soilmap_view_url":null,"soiltest_xml_url":0,"soiltest_view_url":0},{"id":519214,"code":"B4KJ202201002-1750","latitude":"34.647815","longitude":"135.165532","source_code":"KK178643290400060007","project_name":"","survey_name":"\u5927\u962a\u6e7e\u5cb8\u9053\u8def\u897f\u4f38\u90e8\u795e\u6238\u897f\u90e8\u5730\u533a\u5730\u8cea\u8abf\u67fb\u696d\u52d9","client_name":"\u56fd\u571f\u4ea4\u901a\u7701\u3000\u8fd1\u757f\u5730\u65b9\u6574\u5099\u5c40\u3000\u6d6a\u901f\u56fd\u9053\u4e8b\u52d9\u6240","boring_xml_url":68,"boring_view_url":1,"soilmap_view_url":null,"soiltest_xml_url":0,"soiltest_view_url":0},{"id":519213,"code":"B4KJ202201002-1749","latitude":"34.648243","longitude":"135.169415","source_code":"KK178643290400060006","project_name":"","survey_name":"\u5927\u962a\u6e7e\u5cb8\u9053\u8def\u897f\u4f38\u90e8\u795e\u6238\u897f\u90e8\u5730\u533a\u5730\u8cea\u8abf\u67fb\u696d\u52d9","client_name":"\u56fd\u571f\u4ea4\u901a\u7701\u3000\u8fd1\u757f\u5730\u65b9\u6574\u5099\u5c40\u3000\u6d6a\u901f\u56fd\u9053\u4e8b\u52d9\u6240","boring_xml_url":68,"boring_view_url":1,"soilmap_view_url":null,"soiltest_xml_url":0,"soiltest_view_url":0},{"id":519212,"code":"B4KJ202201002-1748","latitude":"34.648776","longitude":"135.172837","source_code":"KK178643290400060005","project_name":"","survey_name":"\u5927\u962a\u6e7e\u5cb8\u9053\u8def\u897f\u4f38\u90e8\u795e\u6238\u897f\u90e8\u5730\u533a\u5730\u8cea\u8abf\u67fb\u696d\u52d9","client_name":"\u56fd\u571f\u4ea4\u901a\u7701\u3000\u8fd1\u757f\u5730\u65b9\u6574\u5099\u5c40\u3000\u6d6a\u901f\u56fd\u9053\u4e8b\u52d9\u6240","boring_xml_url":68,"boring_view_url":1,"soilmap_view_url":null,"soiltest_xml_url":0,"soiltest_view_url":0},{"id":519211,"code":"B4KJ202201002-1747","latitude":"34.648912","longitude":"135.174604","source_code":"KK178643290400060004","project_name":"","survey_name":"\u5927\u962a\u6e7e\u5cb8\u9053\u8def\u897f\u4f38\u90e8\u795e\u6238\u897f\u90e8\u5730\u533a\u5730\u8cea\u8abf\u67fb\u696d\u52d9","client_name":"\u56fd\u571f\u4ea4\u901a\u7701\u3000\u8fd1\u757f\u5730\u65b9\u6574\u5099\u5c40\u3000\u6d6a\u901f\u56fd\u9053\u4e8b\u52d9\u6240","boring_xml_url":68,"boring_view_url":1,"soilmap_view_url":null,"soiltest_xml_url":0,"soiltest_view_url":0},{"id":519210,"code":"B4KJ202201002-1746","latitude":"34.649157","longitude":"135.177002","source_code":"KK178643290400060003","project_name":"","survey_name":"\u5927\u962a\u6e7e\u5cb8\u9053\u8def\u897f\u4f38\u90e8\u795e\u6238\u897f\u90e8\u5730\u533a\u5730\u8cea\u8abf\u67fb\u696d\u52d9","client_name":"\u56fd\u571f\u4ea4\u901a\u7701\u3000\u8fd1\u757f\u5730\u65b9\u6574\u5099\u5c40\u3000\u6d6a\u901f\u56fd\u9053\u4e8b\u52d9\u6240","boring_xml_url":68,"boring_view_url":1,"soilmap_view_url":null,"soiltest_xml_url":0,"soiltest_view_url":0},{"id":519209,"code":"B4KJ202201002-1745","latitude":"34.649406","longitude":"135.179415","source_code":"KK178643290400060002","project_name":"","survey_name":"\u5927\u962a\u6e7e\u5cb8\u9053\u8def\u897f\u4f38\u90e8\u795e\u6238\u897f\u90e8\u5730\u533a\u5730\u8cea\u8abf\u67fb\u696d\u52d9","client_name":"\u56fd\u571f\u4ea4\u901a\u7701\u3000\u8fd1\u757f\u5730\u65b9\u6574\u5099\u5c40\u3000\u6d6a\u901f\u56fd\u9053\u4e8b\u52d9\u6240","boring_xml_url":68,"boring_view_url":1,"soilmap_view_url":null,"soiltest_xml_url":0,"soiltest_view_url":0},{"id":519208,"code":"B4KJ202201002-1744","latitude":"34.649758","longitude":"135.18283","source_code":"KK178643290400060001","project_name":"","survey_name":"\u5927\u962a\u6e7e\u5cb8\u9053\u8def\u897f\u4f38\u90e8\u795e\u6238\u897f\u90e8\u5730\u533a\u5730\u8cea\u8abf\u67fb\u696d\u52d9","client_name":"\u56fd\u571f\u4ea4\u901a\u7701\u3000\u8fd1\u757f\u5730\u65b9\u6574\u5099\u5c40\u3000\u6d6a\u901f\u56fd\u9053\u4e8b\u52d9\u6240","boring_xml_url":68,"boring_view_url":1,"soilmap_view_url":null,"soiltest_xml_url":0,"soiltest_view_url":0},{"id":519207,"code":"B4KJ202201002-1743","latitude":"34.729167","longitude":"135.753056","source_code":"KK178643200400250022","project_name":"\u6e05\u6edd\u751f\u99d2\u9053\u8def\u751f\u99d2\u533a\u9593\u5730\u8cea\u8abf\u67fb\u696d\u52d9","survey_name":"\u6e05\u6edd\u751f\u99d2\u9053\u8def\u751f\u99d2\u533a\u9593\u5730\u8cea\u8abf\u67fb\u696d\u52d9","client_name":"\u56fd\u571f\u4ea4\u901a\u7701\u3000\u8fd1\u757f\u5730\u65b9\u6574\u5099\u5c40\u3000\u6d6a\u901f\u56fd\u9053\u4e8b\u52d9\u6240","boring_xml_url":68,"boring_view_url":1,"soilmap_view_url":null,"soiltest_xml_url":0,"soiltest_view_url":0},{"id":519206,"code":"B4KJ202201002-1742","latitude":"34.728056","longitude":"135.739167","source_code":"KK178643200400250021","project_name":"\u6e05\u6edd\u751f\u99d2\u9053\u8def\u751f\u99d2\u533a\u9593\u5730\u8cea\u8abf\u67fb\u696d\u52d9","survey_name":"\u6e05\u6edd\u751f\u99d2\u9053\u8def\u751f\u99d2\u533a\u9593\u5730\u8cea\u8abf\u67fb\u696d\u52d9","client_name":"\u56fd\u571f\u4ea4\u901a\u7701\u3000\u8fd1\u757f\u5730\u65b9\u6574\u5099\u5c40\u3000\u6d6a\u901f\u56fd\u9053\u4e8b\u52d9\u6240","boring_xml_url":68,"boring_view_url":1,"soilmap_view_url":null,"soiltest_xml_url":0,"soiltest_view_url":0},{"id":519205,"code":"B4KJ202201002-1741","latitude":"34.728333","longitude":"135.739167","source_code":"KK178643200400250020","project_name":"\u6e05\u6edd\u751f\u99d2\u9053\u8def\u751f\u99d2\u533a\u9593\u5730\u8cea\u8abf\u67fb\u696d\u52d9","survey_name":"\u6e05\u6edd\u751f\u99d2\u9053\u8def\u751f\u99d2\u533a\u9593\u5730\u8cea\u8abf\u67fb\u696d\u52d9","client_name":"\u56fd\u571f\u4ea4\u901a\u7701\u3000\u8fd1\u757f\u5730\u65b9\u6574\u5099\u5c40\u3000\u6d6a\u901f\u56fd\u9053\u4e8b\u52d9\u6240","boring_xml_url":68,"boring_view_url":1,"soilmap_view_url":null,"soiltest_xml_url":0,"soiltest_view_url":0},{"id":519204,"code":"B4KJ202201002-1740","latitude":"34.729167","longitude":"135.736944","source_code":"KK178643200400250019","project_name":"\u6e05\u6edd\u751f\u99d2\u9053\u8def\u751f\u99d2\u533a\u9593\u5730\u8cea\u8abf\u67fb\u696d\u52d9","survey_name":"\u6e05\u6edd\u751f\u99d2\u9053\u8def\u751f\u99d2\u533a\u9593\u5730\u8cea\u8abf\u67fb\u696d\u52d9","client_name":"\u56fd\u571f\u4ea4\u901a\u7701\u3000\u8fd1\u757f\u5730\u65b9\u6574\u5099\u5c40\u3000\u6d6a\u901f\u56fd\u9053\u4e8b\u52d9\u6240","boring_xml_url":68,"boring_view_url":1,"soilmap_view_url":null,"soiltest_xml_url":0,"soiltest_view_url":0},{"id":519203,"code":"B4KJ202201002-1739","latitude":"34.729167","longitude":"135.736944","source_code":"KK178643200400250018","project_name":"\u6e05\u6edd\u751f\u99d2\u9053\u8def\u751f\u99d2\u533a\u9593\u5730\u8cea\u8abf\u67fb\u696d\u52d9","survey_name":"\u6e05\u6edd\u751f\u99d2\u9053\u8def\u751f\u99d2\u533a\u9593\u5730\u8cea\u8abf\u67fb\u696d\u52d9","client_name":"\u56fd\u571f\u4ea4\u901a\u7701\u3000\u8fd1\u757f\u5730\u65b9\u6574\u5099\u5c40\u3000\u6d6a\u901f\u56fd\u9053\u4e8b\u52d9\u6240","boring_xml_url":68,"boring_view_url":1,"soilmap_view_url":null,"soiltest_xml_url":0,"soiltest_view_url":0},{"id":519202,"code":"B4KJ202201002-1738","latitude":"34.729444","longitude":"135.735","source_code":"KK178643200400250017","project_name":"\u6e05\u6edd\u751f\u99d2\u9053\u8def\u751f\u99d2\u533a\u9593\u5730\u8cea\u8abf\u67fb\u696d\u52d9","survey_name":"\u6e05\u6edd\u751f\u99d2\u9053\u8def\u751f\u99d2\u533a\u9593\u5730\u8cea\u8abf\u67fb\u696d\u52d9","client_name":"\u56fd\u571f\u4ea4\u901a\u7701\u3000\u8fd1\u757f\u5730\u65b9\u6574\u5099\u5c40\u3000\u6d6a\u901f\u56fd\u9053\u4e8b\u52d9\u6240","boring_xml_url":68,"boring_view_url":1,"soilmap_view_url":null,"soiltest_xml_url":0,"soiltest_view_url":0},{"id":519201,"code":"B4KJ202201002-1737","latitude":"34.729444","longitude":"135.735","source_code":"KK178643200400250016","project_name":"\u6e05\u6edd\u751f\u99d2\u9053\u8def\u751f\u99d2\u533a\u9593\u5730\u8cea\u8abf\u67fb\u696d\u52d9","survey_name":"\u6e05\u6edd\u751f\u99d2\u9053\u8def\u751f\u99d2\u533a\u9593\u5730\u8cea\u8abf\u67fb\u696d\u52d9","client_name":"\u56fd\u571f\u4ea4\u901a\u7701\u3000\u8fd1\u757f\u5730\u65b9\u6574\u5099\u5c40\u3000\u6d6a\u901f\u56fd\u9053\u4e8b\u52d9\u6240","boring_xml_url":68,"boring_view_url":1,"soilmap_view_url":null,"soiltest_xml_url":0,"soiltest_view_url":0},{"id":519200,"code":"B4KJ202201002-1736","latitude":"34.729444","longitude":"135.734444","source_code":"KK178643200400250015","project_name":"\u6e05\u6edd\u751f\u99d2\u9053\u8def\u751f\u99d2\u533a\u9593\u5730\u8cea\u8abf\u67fb\u696d\u52d9","survey_name":"\u6e05\u6edd\u751f\u99d2\u9053\u8def\u751f\u99d2\u533a\u9593\u5730\u8cea\u8abf\u67fb\u696d\u52d9","client_name":"\u56fd\u571f\u4ea4\u901a\u7701\u3000\u8fd1\u757f\u5730\u65b9\u6574\u5099\u5c40\u3000\u6d6a\u901f\u56fd\u9053\u4e8b\u52d9\u6240","boring_xml_url":68,"boring_view_url":1,"soilmap_view_url":null,"soiltest_xml_url":0,"soiltest_view_url":0},{"id":519199,"code":"B4KJ202201002-1735","latitude":"34.731389","longitude":"135.722222","source_code":"KK178643200400250014","project_name":"\u6e05\u6edd\u751f\u99d2\u9053\u8def\u751f\u99d2\u533a\u9593\u5730\u8cea\u8abf\u67fb\u696d\u52d9","survey_name":"\u6e05\u6edd\u751f\u99d2\u9053\u8def\u751f\u99d2\u533a\u9593\u5730\u8cea\u8abf\u67fb\u696d\u52d9","client_name":"\u56fd\u571f\u4ea4\u901a\u7701\u3000\u8fd1\u757f\u5730\u65b9\u6574\u5099\u5c40\u3000\u6d6a\u901f\u56fd\u9053\u4e8b\u52d9\u6240","boring_xml_url":68,"boring_view_url":1,"soilmap_view_url":null,"soiltest_xml_url":0,"soiltest_view_url":0}]}}