{"header":{"xyz":{"source":[],"mosaic":false},"page":899,"raw":{"soiltest_result":"0","bbox":"57.598333,109.544722,1.933333,163.806111","page":"899"},"conditions":{"soiltest_result":0,"north":57.598333,"west":109.544722,"south":1.933333,"east":163.806111},"success":true,"message":""},"data":{"meta":{"total":212844,"page":899,"pages":7095,"count":30},"values":[{"id":518448,"code":"B4KJ202201002-0984","latitude":"34.07646","longitude":"135.82749","source_code":"KK128657000400180007","project_name":"\u5e73\u621024\u5e74\u5ea6\u6817\u5e73\u5730\u533a\u5929\u7136\u30c0\u30e0\u5bfe\u7b56\u7802\u9632\u65bd\u8a2d\u8a2d\u8a08\u696d\u52d9","survey_name":"\u5e73\u621024\u5e74\u5ea6\u6817\u5e73\u5730\u533a\u5929\u7136\u30c0\u30e0\u5bfe\u7b56\u7802\u9632\u65bd\u8a2d\u8a2d\u8a08\u696d\u52d9","client_name":"\u56fd\u571f\u4ea4\u901a\u7701\u8fd1\u757f\u5730\u65b9\u6574\u5099\u5c40\u7d00\u4f0a\u5c71\u5730\u7802\u9632\u4e8b\u52d9\u6240","boring_xml_url":68,"boring_view_url":1,"soilmap_view_url":null,"soiltest_xml_url":0,"soiltest_view_url":0},{"id":518447,"code":"B4KJ202201002-0983","latitude":"34.076417","longitude":"135.82836","source_code":"KK128657000400180006","project_name":"\u5e73\u621024\u5e74\u5ea6\u6817\u5e73\u5730\u533a\u5929\u7136\u30c0\u30e0\u5bfe\u7b56\u7802\u9632\u65bd\u8a2d\u8a2d\u8a08\u696d\u52d9","survey_name":"\u5e73\u621024\u5e74\u5ea6\u6817\u5e73\u5730\u533a\u5929\u7136\u30c0\u30e0\u5bfe\u7b56\u7802\u9632\u65bd\u8a2d\u8a2d\u8a08\u696d\u52d9","client_name":"\u56fd\u571f\u4ea4\u901a\u7701\u8fd1\u757f\u5730\u65b9\u6574\u5099\u5c40\u7d00\u4f0a\u5c71\u5730\u7802\u9632\u4e8b\u52d9\u6240","boring_xml_url":68,"boring_view_url":1,"soilmap_view_url":null,"soiltest_xml_url":0,"soiltest_view_url":0},{"id":518446,"code":"B4KJ202201002-0982","latitude":"34.076588","longitude":"135.828008","source_code":"KK128657000400180005","project_name":"\u5e73\u621024\u5e74\u5ea6\u6817\u5e73\u5730\u533a\u5929\u7136\u30c0\u30e0\u5bfe\u7b56\u7802\u9632\u65bd\u8a2d\u8a2d\u8a08\u696d\u52d9","survey_name":"\u5e73\u621024\u5e74\u5ea6\u6817\u5e73\u5730\u533a\u5929\u7136\u30c0\u30e0\u5bfe\u7b56\u7802\u9632\u65bd\u8a2d\u8a2d\u8a08\u696d\u52d9","client_name":"\u56fd\u571f\u4ea4\u901a\u7701\u8fd1\u757f\u5730\u65b9\u6574\u5099\u5c40\u7d00\u4f0a\u5c71\u5730\u7802\u9632\u4e8b\u52d9\u6240","boring_xml_url":68,"boring_view_url":1,"soilmap_view_url":null,"soiltest_xml_url":0,"soiltest_view_url":0},{"id":518445,"code":"B4KJ202201002-0981","latitude":"34.076418","longitude":"135.828054","source_code":"KK128657000400180004","project_name":"\u5e73\u621024\u5e74\u5ea6\u6817\u5e73\u5730\u533a\u5929\u7136\u30c0\u30e0\u5bfe\u7b56\u7802\u9632\u65bd\u8a2d\u8a2d\u8a08\u696d\u52d9","survey_name":"\u5e73\u621024\u5e74\u5ea6\u6817\u5e73\u5730\u533a\u5929\u7136\u30c0\u30e0\u5bfe\u7b56\u7802\u9632\u65bd\u8a2d\u8a2d\u8a08\u696d\u52d9","client_name":"\u56fd\u571f\u4ea4\u901a\u7701\u8fd1\u757f\u5730\u65b9\u6574\u5099\u5c40\u7d00\u4f0a\u5c71\u5730\u7802\u9632\u4e8b\u52d9\u6240","boring_xml_url":68,"boring_view_url":1,"soilmap_view_url":null,"soiltest_xml_url":0,"soiltest_view_url":0},{"id":518444,"code":"B4KJ202201002-0980","latitude":"34.076201","longitude":"135.828044","source_code":"KK128657000400180003","project_name":"\u5e73\u621024\u5e74\u5ea6\u6817\u5e73\u5730\u533a\u5929\u7136\u30c0\u30e0\u5bfe\u7b56\u7802\u9632\u65bd\u8a2d\u8a2d\u8a08\u696d\u52d9","survey_name":"\u5e73\u621024\u5e74\u5ea6\u6817\u5e73\u5730\u533a\u5929\u7136\u30c0\u30e0\u5bfe\u7b56\u7802\u9632\u65bd\u8a2d\u8a2d\u8a08\u696d\u52d9","client_name":"\u56fd\u571f\u4ea4\u901a\u7701\u8fd1\u757f\u5730\u65b9\u6574\u5099\u5c40\u7d00\u4f0a\u5c71\u5730\u7802\u9632\u4e8b\u52d9\u6240","boring_xml_url":68,"boring_view_url":1,"soilmap_view_url":null,"soiltest_xml_url":0,"soiltest_view_url":0},{"id":518443,"code":"B4KJ202201002-0979","latitude":"34.078721","longitude":"135.830626","source_code":"KK128657000400180002","project_name":"\u6817\u5e73\u5730\u533a\u5929\u7136\u30c0\u30e0\u5bfe\u7b56\u7802\u9632\u65bd\u8a2d\u8a2d\u8a08\u696d\u52d9","survey_name":"\u6817\u5e73\u5730\u533a\u5929\u7136\u30c0\u30e0\u5bfe\u7b56\u7802\u9632\u65bd\u8a2d\u8a2d\u8a08\u696d\u52d9","client_name":"\u56fd\u571f\u4ea4\u901a\u7701\u8fd1\u757f\u5730\u65b9\u6574\u5099\u5c40\u7d00\u4f0a\u5c71\u5730\u7802\u9632\u4e8b\u52d9\u6240","boring_xml_url":68,"boring_view_url":1,"soilmap_view_url":null,"soiltest_xml_url":0,"soiltest_view_url":0},{"id":518442,"code":"B4KJ202201002-0978","latitude":"34.078286","longitude":"135.830699","source_code":"KK128657000400180001","project_name":"\u6817\u5e73\u5730\u533a\u5929\u7136\u30c0\u30e0\u5bfe\u7b56\u7802\u9632\u65bd\u8a2d\u8a2d\u8a08\u696d\u52d9","survey_name":"\u6817\u5e73\u5730\u533a\u5929\u7136\u30c0\u30e0\u5bfe\u7b56\u7802\u9632\u65bd\u8a2d\u8a2d\u8a08\u696d\u52d9","client_name":"\u56fd\u571f\u4ea4\u901a\u7701\u8fd1\u757f\u5730\u65b9\u6574\u5099\u5c40\u7d00\u4f0a\u5c71\u5730\u7802\u9632\u4e8b\u52d9\u6240","boring_xml_url":68,"boring_view_url":1,"soilmap_view_url":null,"soiltest_xml_url":0,"soiltest_view_url":0},{"id":518441,"code":"B4KJ202201002-0977","latitude":"34.142361","longitude":"135.741528","source_code":"KK128657000400170005","project_name":"\u9577\u6bbf\u5730\u533a\u5929\u7136\u30c0\u30e0\u5bfe\u7b56\u7802\u9632\u65bd\u8a2d\u8a2d\u8a08\u696d\u52d9","survey_name":"\u9577\u6bbf\u5730\u533a\u5929\u7136\u30c0\u30e0\u5bfe\u7b56\u7802\u9632\u65bd\u8a2d\u8a2d\u8a08\u696d\u52d9","client_name":"\"\u56fd\u571f\u4ea4\u901a\u7701 \u8fd1\u757f\u5730\u65b9\u6574\u5099\u5c40 \u7d00\u4f0a\u5c71\u5730\u7802\u9632\u4e8b\u52d9\u6240\"","boring_xml_url":68,"boring_view_url":1,"soilmap_view_url":null,"soiltest_xml_url":0,"soiltest_view_url":0},{"id":518440,"code":"B4KJ202201002-0976","latitude":"34.133472","longitude":"135.753","source_code":"KK128657000400170004","project_name":"\u9577\u6bbf\u5730\u533a\u5929\u7136\u30c0\u30e0\u5bfe\u7b56\u7802\u9632\u65bd\u8a2d\u8a2d\u8a08\u696d\u52d9","survey_name":"\u9577\u6bbf\u5730\u533a\u5929\u7136\u30c0\u30e0\u5bfe\u7b56\u7802\u9632\u65bd\u8a2d\u8a2d\u8a08\u696d\u52d9","client_name":"\"\u56fd\u571f\u4ea4\u901a\u7701 \u8fd1\u757f\u5730\u65b9\u6574\u5099\u5c40 \u7d00\u4f0a\u5c71\u5730\u7802\u9632\u4e8b\u52d9\u6240\"","boring_xml_url":68,"boring_view_url":1,"soilmap_view_url":null,"soiltest_xml_url":0,"soiltest_view_url":0},{"id":518439,"code":"B4KJ202201002-0975","latitude":"34.133639","longitude":"135.752556","source_code":"KK128657000400170003","project_name":"\u9577\u6bbf\u5730\u533a\u5929\u7136\u30c0\u30e0\u5bfe\u7b56\u7802\u9632\u65bd\u8a2d\u8a2d\u8a08\u696d\u52d9","survey_name":"\u9577\u6bbf\u5730\u533a\u5929\u7136\u30c0\u30e0\u5bfe\u7b56\u7802\u9632\u65bd\u8a2d\u8a2d\u8a08\u696d\u52d9","client_name":"\"\u56fd\u571f\u4ea4\u901a\u7701 \u8fd1\u757f\u5730\u65b9\u6574\u5099\u5c40 \u7d00\u4f0a\u5c71\u5730\u7802\u9632\u4e8b\u52d9\u6240\"","boring_xml_url":68,"boring_view_url":1,"soilmap_view_url":null,"soiltest_xml_url":0,"soiltest_view_url":0},{"id":518438,"code":"B4KJ202201002-0974","latitude":"34.133167","longitude":"135.752917","source_code":"KK128657000400170002","project_name":"\u9577\u6bbf\u5730\u533a\u5929\u7136\u30c0\u30e0\u5bfe\u7b56\u7802\u9632\u65bd\u8a2d\u8a2d\u8a08\u696d\u52d9","survey_name":"\u9577\u6bbf\u5730\u533a\u5929\u7136\u30c0\u30e0\u5bfe\u7b56\u7802\u9632\u65bd\u8a2d\u8a2d\u8a08\u696d\u52d9","client_name":"\"\u56fd\u571f\u4ea4\u901a\u7701 \u8fd1\u757f\u5730\u65b9\u6574\u5099\u5c40 \u7d00\u4f0a\u5c71\u5730\u7802\u9632\u4e8b\u52d9\u6240\"","boring_xml_url":68,"boring_view_url":1,"soilmap_view_url":null,"soiltest_xml_url":0,"soiltest_view_url":0},{"id":518437,"code":"B4KJ202201002-0973","latitude":"34.133417","longitude":"135.75275","source_code":"KK128657000400170001","project_name":"\u9577\u6bbf\u5730\u533a\u5929\u7136\u30c0\u30e0\u5bfe\u7b56\u7802\u9632\u65bd\u8a2d\u8a2d\u8a08\u696d\u52d9","survey_name":"\u9577\u6bbf\u5730\u533a\u5929\u7136\u30c0\u30e0\u5bfe\u7b56\u7802\u9632\u65bd\u8a2d\u8a2d\u8a08\u696d\u52d9","client_name":"\"\u56fd\u571f\u4ea4\u901a\u7701 \u8fd1\u757f\u5730\u65b9\u6574\u5099\u5c40 \u7d00\u4f0a\u5c71\u5730\u7802\u9632\u4e8b\u52d9\u6240\"","boring_xml_url":68,"boring_view_url":1,"soilmap_view_url":null,"soiltest_xml_url":0,"soiltest_view_url":0},{"id":518436,"code":"B4KJ202201002-0972","latitude":"34.143611","longitude":"135.641389","source_code":"KK128657000400120008","project_name":"\u5317\u80a1\u5730\u533a\u5730\u8cea\u8abf\u67fb\u696d\u52d9","survey_name":"\u5317\u80a1\u5730\u533a\u5730\u8cea\u8abf\u67fb\u696d\u52d9","client_name":"\u56fd\u571f\u4ea4\u901a\u7701\u8fd1\u757f\u5730\u65b9\u6574\u5099\u5c40\uff08\u5efa\u8a2d\uff09","boring_xml_url":68,"boring_view_url":1,"soilmap_view_url":null,"soiltest_xml_url":0,"soiltest_view_url":0},{"id":518435,"code":"B4KJ202201002-0971","latitude":"34.142778","longitude":"135.643056","source_code":"KK128657000400120007","project_name":"\u5317\u80a1\u5730\u533a\u5730\u8cea\u8abf\u67fb\u696d\u52d9","survey_name":"\u5317\u80a1\u5730\u533a\u5730\u8cea\u8abf\u67fb\u696d\u52d9","client_name":"\u56fd\u571f\u4ea4\u901a\u7701\u8fd1\u757f\u5730\u65b9\u6574\u5099\u5c40\uff08\u5efa\u8a2d\uff09","boring_xml_url":68,"boring_view_url":1,"soilmap_view_url":null,"soiltest_xml_url":0,"soiltest_view_url":0},{"id":518434,"code":"B4KJ202201002-0970","latitude":"34.142778","longitude":"135.643056","source_code":"KK128657000400120006","project_name":"\u5317\u80a1\u5730\u533a\u5730\u8cea\u8abf\u67fb\u696d\u52d9","survey_name":"\u5317\u80a1\u5730\u533a\u5730\u8cea\u8abf\u67fb\u696d\u52d9","client_name":"\u56fd\u571f\u4ea4\u901a\u7701\u8fd1\u757f\u5730\u65b9\u6574\u5099\u5c40\uff08\u5efa\u8a2d\uff09","boring_xml_url":68,"boring_view_url":1,"soilmap_view_url":null,"soiltest_xml_url":0,"soiltest_view_url":0},{"id":518433,"code":"B4KJ202201002-0969","latitude":"34.143889","longitude":"135.643333","source_code":"KK128657000400120005","project_name":"\u5317\u80a1\u5730\u533a\u5730\u8cea\u8abf\u67fb\u696d\u52d9","survey_name":"\u5317\u80a1\u5730\u533a\u5730\u8cea\u8abf\u67fb\u696d\u52d9","client_name":"\u56fd\u571f\u4ea4\u901a\u7701\u8fd1\u757f\u5730\u65b9\u6574\u5099\u5c40\uff08\u5efa\u8a2d\uff09","boring_xml_url":68,"boring_view_url":1,"soilmap_view_url":null,"soiltest_xml_url":0,"soiltest_view_url":0},{"id":518432,"code":"B4KJ202201002-0968","latitude":"34.145","longitude":"135.644444","source_code":"KK128657000400120004","project_name":"\u5317\u80a1\u5730\u533a\u5730\u8cea\u8abf\u67fb\u696d\u52d9","survey_name":"\u5317\u80a1\u5730\u533a\u5730\u8cea\u8abf\u67fb\u696d\u52d9","client_name":"\u56fd\u571f\u4ea4\u901a\u7701\u8fd1\u757f\u5730\u65b9\u6574\u5099\u5c40\uff08\u5efa\u8a2d\uff09","boring_xml_url":68,"boring_view_url":1,"soilmap_view_url":null,"soiltest_xml_url":0,"soiltest_view_url":0},{"id":518431,"code":"B4KJ202201002-0967","latitude":"34.145","longitude":"135.644444","source_code":"KK128657000400120003","project_name":"\u5317\u80a1\u5730\u533a\u5730\u8cea\u8abf\u67fb\u696d\u52d9","survey_name":"\u5317\u80a1\u5730\u533a\u5730\u8cea\u8abf\u67fb\u696d\u52d9","client_name":"\u56fd\u571f\u4ea4\u901a\u7701\u8fd1\u757f\u5730\u65b9\u6574\u5099\u5c40\uff08\u5efa\u8a2d\uff09","boring_xml_url":68,"boring_view_url":1,"soilmap_view_url":null,"soiltest_xml_url":0,"soiltest_view_url":0},{"id":518430,"code":"B4KJ202201002-0966","latitude":"34.145","longitude":"135.644444","source_code":"KK128657000400120002","project_name":"\u5317\u80a1\u5730\u533a\u5730\u8cea\u8abf\u67fb\u696d\u52d9","survey_name":"\u5317\u80a1\u5730\u533a\u5730\u8cea\u8abf\u67fb\u696d\u52d9","client_name":"\u56fd\u571f\u4ea4\u901a\u7701\u8fd1\u757f\u5730\u65b9\u6574\u5099\u5c40\uff08\u5efa\u8a2d\uff09","boring_xml_url":68,"boring_view_url":1,"soilmap_view_url":null,"soiltest_xml_url":0,"soiltest_view_url":0},{"id":518429,"code":"B4KJ202201002-0965","latitude":"34.145833","longitude":"135.645","source_code":"KK128657000400120001","project_name":"\u5317\u80a1\u5730\u533a\u5730\u8cea\u8abf\u67fb\u696d\u52d9","survey_name":"\u5317\u80a1\u5730\u533a\u5730\u8cea\u8abf\u67fb\u696d\u52d9","client_name":"\u56fd\u571f\u4ea4\u901a\u7701\u8fd1\u757f\u5730\u65b9\u6574\u5099\u5c40\uff08\u5efa\u8a2d\uff09","boring_xml_url":68,"boring_view_url":1,"soilmap_view_url":null,"soiltest_xml_url":0,"soiltest_view_url":0},{"id":518428,"code":"B4KJ202201002-0964","latitude":"34.128204","longitude":"135.722114","source_code":"KK128657000400090010","project_name":"","survey_name":"\u8d64\u8c37\u5730\u533a\u5730\u8cea\u8abf\u67fb\u696d\u52d9","client_name":"\u56fd\u571f\u4ea4\u901a\u7701\u8fd1\u757f\u5730\u65b9\u6574\u5099\u5c40\u7d00\u4f0a\u5c71\u5730\u7802\u9632\u4e8b\u52d9\u6240","boring_xml_url":68,"boring_view_url":1,"soilmap_view_url":null,"soiltest_xml_url":0,"soiltest_view_url":0},{"id":518427,"code":"B4KJ202201002-0963","latitude":"34.128204","longitude":"135.722114","source_code":"KK128657000400090009","project_name":"","survey_name":"\u8d64\u8c37\u5730\u533a\u5730\u8cea\u8abf\u67fb\u696d\u52d9","client_name":"\u56fd\u571f\u4ea4\u901a\u7701\u8fd1\u757f\u5730\u65b9\u6574\u5099\u5c40\u7d00\u4f0a\u5c71\u5730\u7802\u9632\u4e8b\u52d9\u6240","boring_xml_url":68,"boring_view_url":1,"soilmap_view_url":null,"soiltest_xml_url":0,"soiltest_view_url":0},{"id":518426,"code":"B4KJ202201002-0962","latitude":"34.127687","longitude":"135.724391","source_code":"KK128657000400090008","project_name":"","survey_name":"\u8d64\u8c37\u5730\u533a\u5730\u8cea\u8abf\u67fb\u696d\u52d9","client_name":"\u56fd\u571f\u4ea4\u901a\u7701\u8fd1\u757f\u5730\u65b9\u6574\u5099\u5c40\u7d00\u4f0a\u5c71\u5730\u7802\u9632\u4e8b\u52d9\u6240","boring_xml_url":68,"boring_view_url":1,"soilmap_view_url":null,"soiltest_xml_url":0,"soiltest_view_url":0},{"id":518425,"code":"B4KJ202201002-0961","latitude":"34.124989","longitude":"135.727642","source_code":"KK128657000400090007","project_name":"","survey_name":"\u8d64\u8c37\u5730\u533a\u5730\u8cea\u8abf\u67fb\u696d\u52d9","client_name":"\u56fd\u571f\u4ea4\u901a\u7701\u8fd1\u757f\u5730\u65b9\u6574\u5099\u5c40\u7d00\u4f0a\u5c71\u5730\u7802\u9632\u4e8b\u52d9\u6240","boring_xml_url":68,"boring_view_url":1,"soilmap_view_url":null,"soiltest_xml_url":0,"soiltest_view_url":0},{"id":518424,"code":"B4KJ202201002-0960","latitude":"34.12386","longitude":"135.729582","source_code":"KK128657000400090006","project_name":"","survey_name":"\u8d64\u8c37\u5730\u533a\u5730\u8cea\u8abf\u67fb\u696d\u52d9","client_name":"\u56fd\u571f\u4ea4\u901a\u7701\u8fd1\u757f\u5730\u65b9\u6574\u5099\u5c40\u7d00\u4f0a\u5c71\u5730\u7802\u9632\u4e8b\u52d9\u6240","boring_xml_url":68,"boring_view_url":1,"soilmap_view_url":null,"soiltest_xml_url":0,"soiltest_view_url":0},{"id":518423,"code":"B4KJ202201002-0959","latitude":"34.133069","longitude":"135.718621","source_code":"KK128657000400090005","project_name":"","survey_name":"\u8d64\u8c37\u5730\u533a\u5730\u8cea\u8abf\u67fb\u696d\u52d9","client_name":"\u56fd\u571f\u4ea4\u901a\u7701\u8fd1\u757f\u5730\u65b9\u6574\u5099\u5c40\u7d00\u4f0a\u5c71\u5730\u7802\u9632\u4e8b\u52d9\u6240","boring_xml_url":68,"boring_view_url":1,"soilmap_view_url":null,"soiltest_xml_url":0,"soiltest_view_url":0},{"id":518422,"code":"B4KJ202201002-0958","latitude":"34.129018","longitude":"135.72059","source_code":"KK128657000400090004","project_name":"","survey_name":"\u8d64\u8c37\u5730\u533a\u5730\u8cea\u8abf\u67fb\u696d\u52d9","client_name":"\u56fd\u571f\u4ea4\u901a\u7701\u8fd1\u757f\u5730\u65b9\u6574\u5099\u5c40\u7d00\u4f0a\u5c71\u5730\u7802\u9632\u4e8b\u52d9\u6240","boring_xml_url":68,"boring_view_url":1,"soilmap_view_url":null,"soiltest_xml_url":0,"soiltest_view_url":0},{"id":518421,"code":"B4KJ202201002-0957","latitude":"34.134122","longitude":"135.718986","source_code":"KK128657000400090003","project_name":"","survey_name":"\u8d64\u8c37\u5730\u533a\u5730\u8cea\u8abf\u67fb\u696d\u52d9","client_name":"\u56fd\u571f\u4ea4\u901a\u7701\u8fd1\u757f\u5730\u65b9\u6574\u5099\u5c40\u6cb3\u5ddd\u90e8","boring_xml_url":68,"boring_view_url":1,"soilmap_view_url":null,"soiltest_xml_url":0,"soiltest_view_url":0},{"id":518420,"code":"B4KJ202201002-0956","latitude":"34.133069","longitude":"135.718621","source_code":"KK128657000400090002","project_name":"","survey_name":"\u8d64\u8c37\u5730\u533a\u5730\u8cea\u8abf\u67fb\u696d\u52d9","client_name":"\u56fd\u571f\u4ea4\u901a\u7701\u8fd1\u757f\u5730\u65b9\u6574\u5099\u5c40\u7d00\u4f0a\u5c71\u5730\u7802\u9632\u4e8b\u52d9\u6240","boring_xml_url":68,"boring_view_url":1,"soilmap_view_url":null,"soiltest_xml_url":0,"soiltest_view_url":0},{"id":518419,"code":"B4KJ202201002-0955","latitude":"34.131878","longitude":"135.718229","source_code":"KK128657000400090001","project_name":"","survey_name":"\u8d64\u8c37\u5730\u533a\u5730\u8cea\u8abf\u67fb\u696d\u52d9","client_name":"\u56fd\u571f\u4ea4\u901a\u7701\u8fd1\u757f\u5730\u65b9\u6574\u5099\u5c40\u7d00\u4f0a\u5c71\u5730\u7802\u9632\u4e8b\u52d9\u6240","boring_xml_url":68,"boring_view_url":1,"soilmap_view_url":null,"soiltest_xml_url":0,"soiltest_view_url":0}]}}