{"header":{"xyz":{"source":[],"mosaic":false},"page":900,"raw":{"soiltest_result":"0","bbox":"57.598333,109.544722,1.933333,163.806111","page":"900"},"conditions":{"soiltest_result":0,"north":57.598333,"west":109.544722,"south":1.933333,"east":163.806111},"success":true,"message":""},"data":{"meta":{"total":212844,"page":900,"pages":7095,"count":30},"values":[{"id":518418,"code":"B4KJ202201002-0954","latitude":"34.15401","longitude":"135.74178","source_code":"KK128657000400080006","project_name":"","survey_name":"\u5b87\u4e95\u5730\u533a\u5730\u8cea\u8abf\u67fb\u696d\u52d9","client_name":"\u56fd\u571f\u4ea4\u901a\u7701\u8fd1\u757f\u5730\u65b9\u6574\u5099\u5c40\u7d00\u4f0a\u5c71\u5730\u7802\u9632\u4e8b\u52d9\u6240","boring_xml_url":68,"boring_view_url":1,"soilmap_view_url":null,"soiltest_xml_url":0,"soiltest_view_url":0},{"id":518417,"code":"B4KJ202201002-0953","latitude":"34.154287","longitude":"135.742548","source_code":"KK128657000400080005","project_name":"","survey_name":"\u5b87\u4e95\u5730\u533a\u5730\u8cea\u8abf\u67fb\u696d\u52d9","client_name":"\u56fd\u571f\u4ea4\u901a\u7701\u8fd1\u757f\u5730\u65b9\u6574\u5099\u5c40\u7d00\u4f0a\u5c71\u5730\u7802\u9632\u4e8b\u52d9\u6240","boring_xml_url":68,"boring_view_url":1,"soilmap_view_url":null,"soiltest_xml_url":0,"soiltest_view_url":0},{"id":518416,"code":"B4KJ202201002-0952","latitude":"34.154644","longitude":"135.740267","source_code":"KK128657000400080004","project_name":"","survey_name":"\u5b87\u4e95\u5730\u533a\u5730\u8cea\u8abf\u67fb\u696d\u52d9","client_name":"\u56fd\u571f\u4ea4\u901a\u7701\u8fd1\u757f\u5730\u65b9\u6574\u5099\u5c40\u7d00\u4f0a\u5c71\u5730\u7802\u9632\u4e8b\u52d9\u6240","boring_xml_url":68,"boring_view_url":1,"soilmap_view_url":null,"soiltest_xml_url":0,"soiltest_view_url":0},{"id":518415,"code":"B4KJ202201002-0951","latitude":"34.154866","longitude":"135.740882","source_code":"KK128657000400080003","project_name":"","survey_name":"\u5b87\u4e95\u5730\u533a\u5730\u8cea\u8abf\u67fb\u696d\u52d9","client_name":"\u56fd\u571f\u4ea4\u901a\u7701\u8fd1\u757f\u5730\u65b9\u6574\u5099\u5c40\u7d00\u4f0a\u5c71\u5730\u7802\u9632\u4e8b\u52d9\u6240","boring_xml_url":68,"boring_view_url":1,"soilmap_view_url":null,"soiltest_xml_url":0,"soiltest_view_url":0},{"id":518414,"code":"B4KJ202201002-0950","latitude":"34.155092","longitude":"135.741509","source_code":"KK128657000400080002","project_name":"","survey_name":"\u5b87\u4e95\u5730\u533a\u5730\u8cea\u8abf\u67fb\u696d\u52d9","client_name":"\u56fd\u571f\u4ea4\u901a\u7701\u8fd1\u757f\u5730\u65b9\u6574\u5099\u5c40\u7d00\u4f0a\u5c71\u5730\u7802\u9632\u4e8b\u52d9\u6240","boring_xml_url":68,"boring_view_url":1,"soilmap_view_url":null,"soiltest_xml_url":0,"soiltest_view_url":0},{"id":518413,"code":"B4KJ202201002-0949","latitude":"34.15532","longitude":"135.742141","source_code":"KK128657000400080001","project_name":"","survey_name":"\u5b87\u4e95\u5730\u533a\u5730\u8cea\u8abf\u67fb\u696d\u52d9","client_name":"\u56fd\u571f\u4ea4\u901a\u7701\u8fd1\u757f\u5730\u65b9\u6574\u5099\u5c40\u7d00\u4f0a\u5c71\u5730\u7802\u9632\u4e8b\u52d9\u6240","boring_xml_url":68,"boring_view_url":1,"soilmap_view_url":null,"soiltest_xml_url":0,"soiltest_view_url":0},{"id":518412,"code":"B4KJ202201002-0948","latitude":"34.131825","longitude":"135.75093","source_code":"KK128657000400050006","project_name":"\u9577\u6bbf\u5730\u533a\u5730\u8cea\u8abf\u67fb\u696d\u52d9","survey_name":"\u9577\u6bbf\u5730\u533a\u5730\u8cea\u8abf\u67fb\u696d\u52d9","client_name":"\u56fd\u571f\u4ea4\u901a\u7701\u3000\u8fd1\u757f\u5730\u65b9\u6574\u5099\u5c40\u3000\u7d00\u4f0a\u5c71\u5730\u7802\u9632\u4e8b\u52d9\u6240","boring_xml_url":68,"boring_view_url":1,"soilmap_view_url":null,"soiltest_xml_url":0,"soiltest_view_url":0},{"id":518411,"code":"B4KJ202201002-0947","latitude":"34.130949","longitude":"135.750541","source_code":"KK128657000400050005","project_name":"\u9577\u6bbf\u5730\u533a\u5730\u8cea\u8abf\u67fb\u696d\u52d9","survey_name":"\u9577\u6bbf\u5730\u533a\u5730\u8cea\u8abf\u67fb\u696d\u52d9","client_name":"\u56fd\u571f\u4ea4\u901a\u7701\u3000\u8fd1\u757f\u5730\u65b9\u6574\u5099\u5c40\u3000\u7d00\u4f0a\u5c71\u5730\u7802\u9632\u4e8b\u52d9\u6240","boring_xml_url":68,"boring_view_url":1,"soilmap_view_url":null,"soiltest_xml_url":0,"soiltest_view_url":0},{"id":518410,"code":"B4KJ202201002-0946","latitude":"34.130112","longitude":"135.750151","source_code":"KK128657000400050004","project_name":"\u9577\u6bbf\u5730\u533a\u5730\u8cea\u8abf\u67fb\u696d\u52d9","survey_name":"\u9577\u6bbf\u5730\u533a\u5730\u8cea\u8abf\u67fb\u696d\u52d9","client_name":"\u56fd\u571f\u4ea4\u901a\u7701\u3000\u8fd1\u757f\u5730\u65b9\u6574\u5099\u5c40\u3000\u7d00\u4f0a\u5c71\u5730\u7802\u9632\u4e8b\u52d9\u6240","boring_xml_url":68,"boring_view_url":1,"soilmap_view_url":null,"soiltest_xml_url":0,"soiltest_view_url":0},{"id":518409,"code":"B4KJ202201002-0945","latitude":"34.130153","longitude":"135.751954","source_code":"KK128657000400050003","project_name":"\u9577\u6bbf\u5730\u533a\u5730\u8cea\u8abf\u67fb\u696d\u52d9","survey_name":"\u9577\u6bbf\u5730\u533a\u5730\u8cea\u8abf\u67fb\u696d\u52d9","client_name":"\u56fd\u571f\u4ea4\u901a\u7701\u3000\u8fd1\u757f\u5730\u65b9\u6574\u5099\u5c40\u3000\u7d00\u4f0a\u5c71\u5730\u7802\u9632\u4e8b\u52d9\u6240","boring_xml_url":68,"boring_view_url":1,"soilmap_view_url":null,"soiltest_xml_url":0,"soiltest_view_url":0},{"id":518408,"code":"B4KJ202201002-0944","latitude":"34.129604","longitude":"135.752968","source_code":"KK128657000400050002","project_name":"\u9577\u6bbf\u5730\u533a\u5730\u8cea\u8abf\u67fb\u696d\u52d9","survey_name":"\u9577\u6bbf\u5730\u533a\u5730\u8cea\u8abf\u67fb\u696d\u52d9","client_name":"\u56fd\u571f\u4ea4\u901a\u7701\u3000\u8fd1\u757f\u5730\u65b9\u6574\u5099\u5c40\u3000\u7d00\u4f0a\u5c71\u5730\u7802\u9632\u4e8b\u52d9\u6240","boring_xml_url":68,"boring_view_url":1,"soilmap_view_url":null,"soiltest_xml_url":0,"soiltest_view_url":0},{"id":518407,"code":"B4KJ202201002-0943","latitude":"34.129219","longitude":"135.756405","source_code":"KK128657000400050001","project_name":"\u9577\u6bbf\u5730\u533a\u5730\u8cea\u8abf\u67fb\u696d\u52d9","survey_name":"\u9577\u6bbf\u5730\u533a\u5730\u8cea\u8abf\u67fb\u696d\u52d9","client_name":"\u56fd\u571f\u4ea4\u901a\u7701\u3000\u8fd1\u757f\u5730\u65b9\u6574\u5099\u5c40\u3000\u7d00\u4f0a\u5c71\u5730\u7802\u9632\u4e8b\u52d9\u6240","boring_xml_url":68,"boring_view_url":1,"soilmap_view_url":null,"soiltest_xml_url":0,"soiltest_view_url":0},{"id":518406,"code":"B4KJ202201002-0942","latitude":"34.131487","longitude":"135.721765","source_code":"KK128623250400010007","project_name":"","survey_name":"\u8d64\u8c37\u5730\u533a\u5929\u7136\u30c0\u30e0\u5bfe\u7b56\u7802\u9632\u65bd\u8a2d\u8a2d\u8a08\u696d\u52d9","client_name":"\u56fd\u571f\u4ea4\u901a\u7701\u3000\u8fd1\u757f\u5730\u65b9\u6574\u5099\u5c40\u3000\u7d00\u4f0a\u5c71\u5730\u7802\u9632\u4e8b\u52d9\u6240","boring_xml_url":68,"boring_view_url":1,"soilmap_view_url":null,"soiltest_xml_url":0,"soiltest_view_url":0},{"id":518405,"code":"B4KJ202201002-0941","latitude":"34.130496","longitude":"135.721703","source_code":"KK128623250400010006","project_name":"","survey_name":"\u8d64\u8c37\u5730\u533a\u5929\u7136\u30c0\u30e0\u5bfe\u7b56\u7802\u9632\u65bd\u8a2d\u8a2d\u8a08\u696d\u52d9","client_name":"\u56fd\u571f\u4ea4\u901a\u7701\u3000\u8fd1\u757f\u5730\u65b9\u6574\u5099\u5c40\u3000\u7d00\u4f0a\u5c71\u5730\u7802\u9632\u4e8b\u52d9\u6240","boring_xml_url":68,"boring_view_url":1,"soilmap_view_url":null,"soiltest_xml_url":0,"soiltest_view_url":0},{"id":518404,"code":"B4KJ202201002-0940","latitude":"34.130481","longitude":"135.722288","source_code":"KK128623250400010005","project_name":"","survey_name":"\u8d64\u8c37\u5730\u533a\u5929\u7136\u30c0\u30e0\u5bfe\u7b56\u7802\u9632\u65bd\u8a2d\u8a2d\u8a08\u696d\u52d9","client_name":"\u56fd\u571f\u4ea4\u901a\u7701\u3000\u8fd1\u757f\u5730\u65b9\u6574\u5099\u5c40\u3000\u7d00\u4f0a\u5c71\u5730\u7802\u9632\u4e8b\u52d9\u6240","boring_xml_url":68,"boring_view_url":1,"soilmap_view_url":null,"soiltest_xml_url":0,"soiltest_view_url":0},{"id":518403,"code":"B4KJ202201002-0939","latitude":"34.131285","longitude":"135.721783","source_code":"KK128623250400010004","project_name":"","survey_name":"\u8d64\u8c37\u5730\u533a\u5929\u7136\u30c0\u30e0\u5bfe\u7b56\u7802\u9632\u65bd\u8a2d\u8a2d\u8a08\u696d\u52d9","client_name":"\u56fd\u571f\u4ea4\u901a\u7701\u3000\u8fd1\u757f\u5730\u65b9\u6574\u5099\u5c40\u3000\u7d00\u4f0a\u5c71\u5730\u7802\u9632\u4e8b\u52d9\u6240","boring_xml_url":68,"boring_view_url":1,"soilmap_view_url":null,"soiltest_xml_url":0,"soiltest_view_url":0},{"id":518402,"code":"B4KJ202201002-0938","latitude":"34.131041","longitude":"135.721582","source_code":"KK128623250400010003","project_name":"","survey_name":"\u8d64\u8c37\u5730\u533a\u5929\u7136\u30c0\u30e0\u5bfe\u7b56\u7802\u9632\u65bd\u8a2d\u8a2d\u8a08\u696d\u52d9","client_name":"\u56fd\u571f\u4ea4\u901a\u7701\u3000\u8fd1\u757f\u5730\u65b9\u6574\u5099\u5c40\u3000\u7d00\u4f0a\u5c71\u5730\u7802\u9632\u4e8b\u52d9\u6240","boring_xml_url":68,"boring_view_url":1,"soilmap_view_url":null,"soiltest_xml_url":0,"soiltest_view_url":0},{"id":518401,"code":"B4KJ202201002-0937","latitude":"34.13103","longitude":"135.721961","source_code":"KK128623250400010002","project_name":"","survey_name":"\u8d64\u8c37\u5730\u533a\u5929\u7136\u30c0\u30e0\u5bfe\u7b56\u7802\u9632\u65bd\u8a2d\u8a2d\u8a08\u696d\u52d9","client_name":"\u56fd\u571f\u4ea4\u901a\u7701\u3000\u8fd1\u757f\u5730\u65b9\u6574\u5099\u5c40\u3000\u7d00\u4f0a\u5c71\u5730\u7802\u9632\u4e8b\u52d9\u6240","boring_xml_url":68,"boring_view_url":1,"soilmap_view_url":null,"soiltest_xml_url":0,"soiltest_view_url":0},{"id":518400,"code":"B4KJ202201002-0936","latitude":"34.131035","longitude":"135.722157","source_code":"KK128623250400010001","project_name":"","survey_name":"\u8d64\u8c37\u5730\u533a\u5929\u7136\u30c0\u30e0\u5bfe\u7b56\u7802\u9632\u65bd\u8a2d\u8a2d\u8a08\u696d\u52d9","client_name":"\u56fd\u571f\u4ea4\u901a\u7701\u3000\u8fd1\u757f\u5730\u65b9\u6574\u5099\u5c40\u3000\u7d00\u4f0a\u5c71\u5730\u7802\u9632\u4e8b\u52d9\u6240","boring_xml_url":68,"boring_view_url":1,"soilmap_view_url":null,"soiltest_xml_url":0,"soiltest_view_url":0},{"id":518399,"code":"B4KJ202201002-0935","latitude":"34.209482","longitude":"135.819809","source_code":"KK148657200400210006","project_name":"","survey_name":"\u6df1\u5c64\u5d29\u58ca\u5bfe\u7b56\u5de5\u6cd5\u8abf\u67fb\u696d\u52d9","client_name":"\u56fd\u571f\u4ea4\u901a\u7701\u8fd1\u757f\u5730\u65b9\u6574\u5099\u5c40\u7d00\u4f0a\u5c71\u5730\u7802\u9632\u4e8b\u52d9\u6240","boring_xml_url":68,"boring_view_url":1,"soilmap_view_url":null,"soiltest_xml_url":0,"soiltest_view_url":0},{"id":518398,"code":"B4KJ202201002-0934","latitude":"34.208451","longitude":"135.821024","source_code":"KK148657200400210005","project_name":"","survey_name":"\u6df1\u5c64\u5d29\u58ca\u5bfe\u7b56\u5de5\u6cd5\u8abf\u67fb\u696d\u52d9","client_name":"\u56fd\u571f\u4ea4\u901a\u7701\u8fd1\u757f\u5730\u65b9\u6574\u5099\u5c40\u7d00\u4f0a\u5c71\u5730\u7802\u9632\u4e8b\u52d9\u6240","boring_xml_url":68,"boring_view_url":1,"soilmap_view_url":null,"soiltest_xml_url":0,"soiltest_view_url":0},{"id":518397,"code":"B4KJ202201002-0933","latitude":"34.207075","longitude":"135.821518","source_code":"KK148657200400210004","project_name":"","survey_name":"\u6df1\u5c64\u5d29\u58ca\u5bfe\u7b56\u5de5\u6cd5\u8abf\u67fb\u696d\u52d9","client_name":"\u56fd\u571f\u4ea4\u901a\u7701\u8fd1\u757f\u5730\u65b9\u6574\u5099\u5c40\u7d00\u4f0a\u5c71\u5730\u7802\u9632\u4e8b\u52d9\u6240","boring_xml_url":68,"boring_view_url":1,"soilmap_view_url":null,"soiltest_xml_url":0,"soiltest_view_url":0},{"id":518396,"code":"B4KJ202201002-0932","latitude":"34.20792","longitude":"135.818603","source_code":"KK148657200400210003","project_name":"","survey_name":"\u6df1\u5c64\u5d29\u58ca\u5bfe\u7b56\u5de5\u6cd5\u8abf\u67fb\u696d\u52d9","client_name":"\u56fd\u571f\u4ea4\u901a\u7701\u8fd1\u757f\u5730\u65b9\u6574\u5099\u5c40\u7d00\u4f0a\u5c71\u5730\u7802\u9632\u4e8b\u52d9\u6240","boring_xml_url":68,"boring_view_url":1,"soilmap_view_url":null,"soiltest_xml_url":0,"soiltest_view_url":0},{"id":518395,"code":"B4KJ202201002-0931","latitude":"34.207085","longitude":"135.819969","source_code":"KK148657200400210002","project_name":"","survey_name":"\u6df1\u5c64\u5d29\u58ca\u5bfe\u7b56\u5de5\u6cd5\u8abf\u67fb\u696d\u52d9","client_name":"\u56fd\u571f\u4ea4\u901a\u7701\u8fd1\u757f\u5730\u65b9\u6574\u5099\u5c40\u7d00\u4f0a\u5c71\u5730\u7802\u9632\u4e8b\u52d9\u6240","boring_xml_url":68,"boring_view_url":1,"soilmap_view_url":null,"soiltest_xml_url":0,"soiltest_view_url":0},{"id":518394,"code":"B4KJ202201002-0930","latitude":"34.206325","longitude":"135.821394","source_code":"KK148657200400210001","project_name":"","survey_name":"\u6df1\u5c64\u5d29\u58ca\u5bfe\u7b56\u5de5\u6cd5\u8abf\u67fb\u696d\u52d9","client_name":"\u56fd\u571f\u4ea4\u901a\u7701\u8fd1\u757f\u5730\u65b9\u6574\u5099\u5c40\u7d00\u4f0a\u5c71\u5730\u7802\u9632\u4e8b\u52d9\u6240","boring_xml_url":68,"boring_view_url":1,"soilmap_view_url":null,"soiltest_xml_url":0,"soiltest_view_url":0},{"id":518393,"code":"B4KJ202201002-0929","latitude":"34.128694","longitude":"135.751333","source_code":"KK148657200400170004","project_name":"","survey_name":"\u9577\u6bbf\u5730\u533a\u65bd\u8a2d\u8a2d\u8a08\u696d\u52d9","client_name":"\u56fd\u571f\u4ea4\u901a\u7701\u3000\u8fd1\u757f\u5730\u65b9\u6574\u5099\u5c40\u3000\u7d00\u4f0a\u5c71\u5730\u7802\u9632\u4e8b\u52d9\u6240","boring_xml_url":68,"boring_view_url":1,"soilmap_view_url":null,"soiltest_xml_url":0,"soiltest_view_url":0},{"id":518392,"code":"B4KJ202201002-0928","latitude":"34.128611","longitude":"135.751333","source_code":"KK148657200400170003","project_name":"","survey_name":"\u9577\u6bbf\u5730\u533a\u65bd\u8a2d\u8a2d\u8a08\u696d\u52d9","client_name":"\u56fd\u571f\u4ea4\u901a\u7701\u3000\u8fd1\u757f\u5730\u65b9\u6574\u5099\u5c40\u3000\u7d00\u4f0a\u5c71\u5730\u7802\u9632\u4e8b\u52d9\u6240","boring_xml_url":68,"boring_view_url":1,"soilmap_view_url":null,"soiltest_xml_url":0,"soiltest_view_url":0},{"id":518391,"code":"B4KJ202201002-0927","latitude":"34.128639","longitude":"135.751361","source_code":"KK148657200400170002","project_name":"","survey_name":"\u9577\u6bbf\u5730\u533a\u65bd\u8a2d\u8a2d\u8a08\u696d\u52d9","client_name":"\u56fd\u571f\u4ea4\u901a\u7701\u3000\u8fd1\u757f\u5730\u65b9\u6574\u5099\u5c40\u3000\u7d00\u4f0a\u5c71\u5730\u7802\u9632\u4e8b\u52d9\u6240","boring_xml_url":68,"boring_view_url":1,"soilmap_view_url":null,"soiltest_xml_url":0,"soiltest_view_url":0},{"id":518390,"code":"B4KJ202201002-0926","latitude":"34.128667","longitude":"135.751444","source_code":"KK148657200400170001","project_name":"","survey_name":"\u9577\u6bbf\u5730\u533a\u65bd\u8a2d\u8a2d\u8a08\u696d\u52d9","client_name":"\u56fd\u571f\u4ea4\u901a\u7701\u3000\u8fd1\u757f\u5730\u65b9\u6574\u5099\u5c40\u3000\u7d00\u4f0a\u5c71\u5730\u7802\u9632\u4e8b\u52d9\u6240","boring_xml_url":68,"boring_view_url":1,"soilmap_view_url":null,"soiltest_xml_url":0,"soiltest_view_url":0},{"id":518389,"code":"B4KJ202201002-0925","latitude":"34.750017","longitude":"134.807489","source_code":"KK148651530400060004","project_name":"","survey_name":"\u59eb\u8def\u7ba1\u5185\u6a0b\u9580\u7b49\u8010\u9707\u6027\u80fd\u7167\u67fb\u696d\u52d9","client_name":"\"\u56fd\u571f\u4ea4\u901a\u7701 \u8fd1\u757f\u5730\u65b9\u6574\u5099\u5c40 \u59eb\u8def\u6cb3\u5ddd\u56fd\u9053\u4e8b\u52d9\u6240\"","boring_xml_url":68,"boring_view_url":1,"soilmap_view_url":null,"soiltest_xml_url":0,"soiltest_view_url":0}]}}