{"header":{"xyz":{"source":[],"mosaic":false},"page":902,"raw":{"soiltest_result":"0","bbox":"57.598333,109.544722,1.933333,163.806111","page":"902"},"conditions":{"soiltest_result":0,"north":57.598333,"west":109.544722,"south":1.933333,"east":163.806111},"success":true,"message":""},"data":{"meta":{"total":212844,"page":902,"pages":7095,"count":30},"values":[{"id":518358,"code":"B4KJ202201002-0894","latitude":"34.497214","longitude":"135.75825","source_code":"KK168661330400360024","project_name":"\u5927\u548c\u5fa1\u6240\u9053\u8def\u6a7f\u539f\u5e02\u57df\u5730\u8cea\u8abf\u67fb\u696d\u52d9","survey_name":"\u5927\u548c\u5fa1\u6240\u9053\u8def\u6a7f\u539f\u5e02\u57df\u5730\u8cea\u8abf\u67fb\u696d\u52d9","client_name":"\u56fd\u571f\u4ea4\u901a\u7701\u8fd1\u757f\u5730\u65b9\u6574\u5099\u5c40\u5948\u826f\u56fd\u9053\u4e8b\u52d9\u6240","boring_xml_url":68,"boring_view_url":1,"soilmap_view_url":null,"soiltest_xml_url":0,"soiltest_view_url":0},{"id":518357,"code":"B4KJ202201002-0893","latitude":"34.497308","longitude":"135.758611","source_code":"KK168661330400360023","project_name":"\u5927\u548c\u5fa1\u6240\u9053\u8def\u6a7f\u539f\u5e02\u57df\u5730\u8cea\u8abf\u67fb\u696d\u52d9","survey_name":"\u5927\u548c\u5fa1\u6240\u9053\u8def\u6a7f\u539f\u5e02\u57df\u5730\u8cea\u8abf\u67fb\u696d\u52d9","client_name":"\u56fd\u571f\u4ea4\u901a\u7701\u8fd1\u757f\u5730\u65b9\u6574\u5099\u5c40\u5948\u826f\u56fd\u9053\u4e8b\u52d9\u6240","boring_xml_url":68,"boring_view_url":1,"soilmap_view_url":null,"soiltest_xml_url":0,"soiltest_view_url":0},{"id":518356,"code":"B4KJ202201002-0892","latitude":"34.497406","longitude":"135.758969","source_code":"KK168661330400360022","project_name":"\u5927\u548c\u5fa1\u6240\u9053\u8def\u6a7f\u539f\u5e02\u57df\u5730\u8cea\u8abf\u67fb\u696d\u52d9","survey_name":"\u5927\u548c\u5fa1\u6240\u9053\u8def\u6a7f\u539f\u5e02\u57df\u5730\u8cea\u8abf\u67fb\u696d\u52d9","client_name":"\u56fd\u571f\u4ea4\u901a\u7701\u8fd1\u757f\u5730\u65b9\u6574\u5099\u5c40\u5948\u826f\u56fd\u9053\u4e8b\u52d9\u6240","boring_xml_url":68,"boring_view_url":1,"soilmap_view_url":null,"soiltest_xml_url":0,"soiltest_view_url":0},{"id":518355,"code":"B4KJ202201002-0891","latitude":"34.49675","longitude":"135.760858","source_code":"KK168661330400360021","project_name":"\u5927\u548c\u5fa1\u6240\u9053\u8def\u6a7f\u539f\u5e02\u57df\u5730\u8cea\u8abf\u67fb\u696d\u52d9","survey_name":"\u5927\u548c\u5fa1\u6240\u9053\u8def\u6a7f\u539f\u5e02\u57df\u5730\u8cea\u8abf\u67fb\u696d\u52d9","client_name":"\u56fd\u571f\u4ea4\u901a\u7701\u8fd1\u757f\u5730\u65b9\u6574\u5099\u5c40\u5948\u826f\u56fd\u9053\u4e8b\u52d9\u6240","boring_xml_url":68,"boring_view_url":1,"soilmap_view_url":null,"soiltest_xml_url":0,"soiltest_view_url":0},{"id":518354,"code":"B4KJ202201002-0890","latitude":"34.495789","longitude":"135.761275","source_code":"KK168661330400360020","project_name":"\u5927\u548c\u5fa1\u6240\u9053\u8def\u6a7f\u539f\u5e02\u57df\u5730\u8cea\u8abf\u67fb\u696d\u52d9","survey_name":"\u5927\u548c\u5fa1\u6240\u9053\u8def\u6a7f\u539f\u5e02\u57df\u5730\u8cea\u8abf\u67fb\u696d\u52d9","client_name":"\u56fd\u571f\u4ea4\u901a\u7701\u8fd1\u757f\u5730\u65b9\u6574\u5099\u5c40\u5948\u826f\u56fd\u9053\u4e8b\u52d9\u6240","boring_xml_url":68,"boring_view_url":1,"soilmap_view_url":null,"soiltest_xml_url":0,"soiltest_view_url":0},{"id":518353,"code":"B4KJ202201002-0889","latitude":"34.495383","longitude":"135.761286","source_code":"KK168661330400360019","project_name":"\u5927\u548c\u5fa1\u6240\u9053\u8def\u6a7f\u539f\u5e02\u57df\u5730\u8cea\u8abf\u67fb\u696d\u52d9","survey_name":"\u5927\u548c\u5fa1\u6240\u9053\u8def\u6a7f\u539f\u5e02\u57df\u5730\u8cea\u8abf\u67fb\u696d\u52d9","client_name":"\u56fd\u571f\u4ea4\u901a\u7701\u8fd1\u757f\u5730\u65b9\u6574\u5099\u5c40\u5948\u826f\u56fd\u9053\u4e8b\u52d9\u6240","boring_xml_url":68,"boring_view_url":1,"soilmap_view_url":null,"soiltest_xml_url":0,"soiltest_view_url":0},{"id":518352,"code":"B4KJ202201002-0888","latitude":"34.497089","longitude":"135.759939","source_code":"KK168661330400360018","project_name":"\u5927\u548c\u5fa1\u6240\u9053\u8def\u6a7f\u539f\u5e02\u57df\u5730\u8cea\u8abf\u67fb\u696d\u52d9","survey_name":"\u5927\u548c\u5fa1\u6240\u9053\u8def\u6a7f\u539f\u5e02\u57df\u5730\u8cea\u8abf\u67fb\u696d\u52d9","client_name":"\u56fd\u571f\u4ea4\u901a\u7701\u8fd1\u757f\u5730\u65b9\u6574\u5099\u5c40\u5948\u826f\u56fd\u9053\u4e8b\u52d9\u6240","boring_xml_url":68,"boring_view_url":1,"soilmap_view_url":null,"soiltest_xml_url":0,"soiltest_view_url":0},{"id":518351,"code":"B4KJ202201002-0887","latitude":"34.496953","longitude":"135.760372","source_code":"KK168661330400360017","project_name":"\u5927\u548c\u5fa1\u6240\u9053\u8def\u6a7f\u539f\u5e02\u57df\u5730\u8cea\u8abf\u67fb\u696d\u52d9","survey_name":"\u5927\u548c\u5fa1\u6240\u9053\u8def\u6a7f\u539f\u5e02\u57df\u5730\u8cea\u8abf\u67fb\u696d\u52d9","client_name":"\u56fd\u571f\u4ea4\u901a\u7701\u8fd1\u757f\u5730\u65b9\u6574\u5099\u5c40\u5948\u826f\u56fd\u9053\u4e8b\u52d9\u6240","boring_xml_url":68,"boring_view_url":1,"soilmap_view_url":null,"soiltest_xml_url":0,"soiltest_view_url":0},{"id":518350,"code":"B4KJ202201002-0886","latitude":"34.496647","longitude":"135.760656","source_code":"KK168661330400360016","project_name":"\u5927\u548c\u5fa1\u6240\u9053\u8def\u6a7f\u539f\u5e02\u57df\u5730\u8cea\u8abf\u67fb\u696d\u52d9","survey_name":"\u5927\u548c\u5fa1\u6240\u9053\u8def\u6a7f\u539f\u5e02\u57df\u5730\u8cea\u8abf\u67fb\u696d\u52d9","client_name":"\u56fd\u571f\u4ea4\u901a\u7701\u8fd1\u757f\u5730\u65b9\u6574\u5099\u5c40\u5948\u826f\u56fd\u9053\u4e8b\u52d9\u6240","boring_xml_url":68,"boring_view_url":1,"soilmap_view_url":null,"soiltest_xml_url":0,"soiltest_view_url":0},{"id":518349,"code":"B4KJ202201002-0885","latitude":"34.496267","longitude":"135.760744","source_code":"KK168661330400360015","project_name":"\u5927\u548c\u5fa1\u6240\u9053\u8def\u6a7f\u539f\u5e02\u57df\u5730\u8cea\u8abf\u67fb\u696d\u52d9","survey_name":"\u5927\u548c\u5fa1\u6240\u9053\u8def\u6a7f\u539f\u5e02\u57df\u5730\u8cea\u8abf\u67fb\u696d\u52d9","client_name":"\u56fd\u571f\u4ea4\u901a\u7701\u8fd1\u757f\u5730\u65b9\u6574\u5099\u5c40\u5948\u826f\u56fd\u9053\u4e8b\u52d9\u6240","boring_xml_url":68,"boring_view_url":1,"soilmap_view_url":null,"soiltest_xml_url":0,"soiltest_view_url":0},{"id":518348,"code":"B4KJ202201002-0884","latitude":"34.495942","longitude":"135.760747","source_code":"KK168661330400360014","project_name":"\u5927\u548c\u5fa1\u6240\u9053\u8def\u6a7f\u539f\u5e02\u57df\u5730\u8cea\u8abf\u67fb\u696d\u52d9","survey_name":"\u5927\u548c\u5fa1\u6240\u9053\u8def\u6a7f\u539f\u5e02\u57df\u5730\u8cea\u8abf\u67fb\u696d\u52d9","client_name":"\u56fd\u571f\u4ea4\u901a\u7701\u8fd1\u757f\u5730\u65b9\u6574\u5099\u5c40\u5948\u826f\u56fd\u9053\u4e8b\u52d9\u6240","boring_xml_url":68,"boring_view_url":1,"soilmap_view_url":null,"soiltest_xml_url":0,"soiltest_view_url":0},{"id":518347,"code":"B4KJ202201002-0883","latitude":"34.495614","longitude":"135.760728","source_code":"KK168661330400360013","project_name":"\u5927\u548c\u5fa1\u6240\u9053\u8def\u6a7f\u539f\u5e02\u57df\u5730\u8cea\u8abf\u67fb\u696d\u52d9","survey_name":"\u5927\u548c\u5fa1\u6240\u9053\u8def\u6a7f\u539f\u5e02\u57df\u5730\u8cea\u8abf\u67fb\u696d\u52d9","client_name":"\u56fd\u571f\u4ea4\u901a\u7701\u8fd1\u757f\u5730\u65b9\u6574\u5099\u5c40\u5948\u826f\u56fd\u9053\u4e8b\u52d9\u6240","boring_xml_url":68,"boring_view_url":1,"soilmap_view_url":null,"soiltest_xml_url":0,"soiltest_view_url":0},{"id":518346,"code":"B4KJ202201002-0882","latitude":"34.495236","longitude":"135.760731","source_code":"KK168661330400360012","project_name":"\u5927\u548c\u5fa1\u6240\u9053\u8def\u6a7f\u539f\u5e02\u57df\u5730\u8cea\u8abf\u67fb\u696d\u52d9","survey_name":"\u5927\u548c\u5fa1\u6240\u9053\u8def\u6a7f\u539f\u5e02\u57df\u5730\u8cea\u8abf\u67fb\u696d\u52d9","client_name":"\u56fd\u571f\u4ea4\u901a\u7701\u8fd1\u757f\u5730\u65b9\u6574\u5099\u5c40\u5948\u826f\u56fd\u9053\u4e8b\u52d9\u6240","boring_xml_url":68,"boring_view_url":1,"soilmap_view_url":null,"soiltest_xml_url":0,"soiltest_view_url":0},{"id":518345,"code":"B4KJ202201002-0881","latitude":"34.494925","longitude":"135.760733","source_code":"KK168661330400360011","project_name":"\u5927\u548c\u5fa1\u6240\u9053\u8def\u6a7f\u539f\u5e02\u57df\u5730\u8cea\u8abf\u67fb\u696d\u52d9","survey_name":"\u5927\u548c\u5fa1\u6240\u9053\u8def\u6a7f\u539f\u5e02\u57df\u5730\u8cea\u8abf\u67fb\u696d\u52d9","client_name":"\u56fd\u571f\u4ea4\u901a\u7701\u8fd1\u757f\u5730\u65b9\u6574\u5099\u5c40\u5948\u826f\u56fd\u9053\u4e8b\u52d9\u6240","boring_xml_url":68,"boring_view_url":1,"soilmap_view_url":null,"soiltest_xml_url":0,"soiltest_view_url":0},{"id":518344,"code":"B4KJ202201002-0880","latitude":"34.493714","longitude":"135.761219","source_code":"KK168661330400360010","project_name":"\u5927\u548c\u5fa1\u6240\u9053\u8def\u6a7f\u539f\u5e02\u57df\u5730\u8cea\u8abf\u67fb\u696d\u52d9","survey_name":"\u5927\u548c\u5fa1\u6240\u9053\u8def\u6a7f\u539f\u5e02\u57df\u5730\u8cea\u8abf\u67fb\u696d\u52d9","client_name":"\u56fd\u571f\u4ea4\u901a\u7701\u8fd1\u757f\u5730\u65b9\u6574\u5099\u5c40\u5948\u826f\u56fd\u9053\u4e8b\u52d9\u6240","boring_xml_url":68,"boring_view_url":1,"soilmap_view_url":null,"soiltest_xml_url":0,"soiltest_view_url":0},{"id":518343,"code":"B4KJ202201002-0879","latitude":"34.494114","longitude":"135.761081","source_code":"KK168661330400360009","project_name":"\u5927\u548c\u5fa1\u6240\u9053\u8def\u6a7f\u539f\u5e02\u57df\u5730\u8cea\u8abf\u67fb\u696d\u52d9","survey_name":"\u5927\u548c\u5fa1\u6240\u9053\u8def\u6a7f\u539f\u5e02\u57df\u5730\u8cea\u8abf\u67fb\u696d\u52d9","client_name":"\u56fd\u571f\u4ea4\u901a\u7701\u8fd1\u757f\u5730\u65b9\u6574\u5099\u5c40\u5948\u826f\u56fd\u9053\u4e8b\u52d9\u6240","boring_xml_url":68,"boring_view_url":1,"soilmap_view_url":null,"soiltest_xml_url":0,"soiltest_view_url":0},{"id":518342,"code":"B4KJ202201002-0878","latitude":"34.494119","longitude":"135.761247","source_code":"KK168661330400360008","project_name":"\u5927\u548c\u5fa1\u6240\u9053\u8def\u6a7f\u539f\u5e02\u57df\u5730\u8cea\u8abf\u67fb\u696d\u52d9","survey_name":"\u5927\u548c\u5fa1\u6240\u9053\u8def\u6a7f\u539f\u5e02\u57df\u5730\u8cea\u8abf\u67fb\u696d\u52d9","client_name":"\u56fd\u571f\u4ea4\u901a\u7701\u8fd1\u757f\u5730\u65b9\u6574\u5099\u5c40\u5948\u826f\u56fd\u9053\u4e8b\u52d9\u6240","boring_xml_url":68,"boring_view_url":1,"soilmap_view_url":null,"soiltest_xml_url":0,"soiltest_view_url":0},{"id":518341,"code":"B4KJ202201002-0877","latitude":"34.494547","longitude":"135.761211","source_code":"KK168661330400360007","project_name":"\u5927\u548c\u5fa1\u6240\u9053\u8def\u6a7f\u539f\u5e02\u57df\u5730\u8cea\u8abf\u67fb\u696d\u52d9","survey_name":"\u5927\u548c\u5fa1\u6240\u9053\u8def\u6a7f\u539f\u5e02\u57df\u5730\u8cea\u8abf\u67fb\u696d\u52d9","client_name":"\u56fd\u571f\u4ea4\u901a\u7701\u8fd1\u757f\u5730\u65b9\u6574\u5099\u5c40\u5948\u826f\u56fd\u9053\u4e8b\u52d9\u6240","boring_xml_url":68,"boring_view_url":1,"soilmap_view_url":null,"soiltest_xml_url":0,"soiltest_view_url":0},{"id":518340,"code":"B4KJ202201002-0876","latitude":"34.495031","longitude":"135.760981","source_code":"KK168661330400360006","project_name":"\u5927\u548c\u5fa1\u6240\u9053\u8def\u6a7f\u539f\u5e02\u57df\u5730\u8cea\u8abf\u67fb\u696d\u52d9","survey_name":"\u5927\u548c\u5fa1\u6240\u9053\u8def\u6a7f\u539f\u5e02\u57df\u5730\u8cea\u8abf\u67fb\u696d\u52d9","client_name":"\u56fd\u571f\u4ea4\u901a\u7701\u8fd1\u757f\u5730\u65b9\u6574\u5099\u5c40\u5948\u826f\u56fd\u9053\u4e8b\u52d9\u6240","boring_xml_url":68,"boring_view_url":1,"soilmap_view_url":null,"soiltest_xml_url":0,"soiltest_view_url":0},{"id":518339,"code":"B4KJ202201002-0875","latitude":"34.495031","longitude":"135.761186","source_code":"KK168661330400360005","project_name":"\u5927\u548c\u5fa1\u6240\u9053\u8def\u6a7f\u539f\u5e02\u57df\u5730\u8cea\u8abf\u67fb\u696d\u52d9","survey_name":"\u5927\u548c\u5fa1\u6240\u9053\u8def\u6a7f\u539f\u5e02\u57df\u5730\u8cea\u8abf\u67fb\u696d\u52d9","client_name":"\u56fd\u571f\u4ea4\u901a\u7701\u8fd1\u757f\u5730\u65b9\u6574\u5099\u5c40\u5948\u826f\u56fd\u9053\u4e8b\u52d9\u6240","boring_xml_url":68,"boring_view_url":1,"soilmap_view_url":null,"soiltest_xml_url":0,"soiltest_view_url":0},{"id":518338,"code":"B4KJ202201002-0874","latitude":"34.495514","longitude":"135.761206","source_code":"KK168661330400360004","project_name":"\u5927\u548c\u5fa1\u6240\u9053\u8def\u6a7f\u539f\u5e02\u57df\u5730\u8cea\u8abf\u67fb\u696d\u52d9","survey_name":"\u5927\u548c\u5fa1\u6240\u9053\u8def\u6a7f\u539f\u5e02\u57df\u5730\u8cea\u8abf\u67fb\u696d\u52d9","client_name":"\u56fd\u571f\u4ea4\u901a\u7701\u8fd1\u757f\u5730\u65b9\u6574\u5099\u5c40\u5948\u826f\u56fd\u9053\u4e8b\u52d9\u6240","boring_xml_url":68,"boring_view_url":1,"soilmap_view_url":null,"soiltest_xml_url":0,"soiltest_view_url":0},{"id":518337,"code":"B4KJ202201002-0873","latitude":"34.495992","longitude":"135.761189","source_code":"KK168661330400360003","project_name":"\u5927\u548c\u5fa1\u6240\u9053\u8def\u6a7f\u539f\u5e02\u57df\u5730\u8cea\u8abf\u67fb\u696d\u52d9","survey_name":"\u5927\u548c\u5fa1\u6240\u9053\u8def\u6a7f\u539f\u5e02\u57df\u5730\u8cea\u8abf\u67fb\u696d\u52d9","client_name":"\u56fd\u571f\u4ea4\u901a\u7701\u8fd1\u757f\u5730\u65b9\u6574\u5099\u5c40\u5948\u826f\u56fd\u9053\u4e8b\u52d9\u6240","boring_xml_url":68,"boring_view_url":1,"soilmap_view_url":null,"soiltest_xml_url":0,"soiltest_view_url":0},{"id":518336,"code":"B4KJ202201002-0872","latitude":"34.496511","longitude":"135.76085","source_code":"KK168661330400360002","project_name":"\u5927\u548c\u5fa1\u6240\u9053\u8def\u6a7f\u539f\u5e02\u57df\u5730\u8cea\u8abf\u67fb\u696d\u52d9","survey_name":"\u5927\u548c\u5fa1\u6240\u9053\u8def\u6a7f\u539f\u5e02\u57df\u5730\u8cea\u8abf\u67fb\u696d\u52d9","client_name":"\u56fd\u571f\u4ea4\u901a\u7701\u8fd1\u757f\u5730\u65b9\u6574\u5099\u5c40\u5948\u826f\u56fd\u9053\u4e8b\u52d9\u6240","boring_xml_url":68,"boring_view_url":1,"soilmap_view_url":null,"soiltest_xml_url":0,"soiltest_view_url":0},{"id":518335,"code":"B4KJ202201002-0871","latitude":"34.496503","longitude":"135.7612","source_code":"KK168661330400360001","project_name":"\u5927\u548c\u5fa1\u6240\u9053\u8def\u6a7f\u539f\u5e02\u57df\u5730\u8cea\u8abf\u67fb\u696d\u52d9","survey_name":"\u5927\u548c\u5fa1\u6240\u9053\u8def\u6a7f\u539f\u5e02\u57df\u5730\u8cea\u8abf\u67fb\u696d\u52d9","client_name":"\u56fd\u571f\u4ea4\u901a\u7701\u8fd1\u757f\u5730\u65b9\u6574\u5099\u5c40\u5948\u826f\u56fd\u9053\u4e8b\u52d9\u6240","boring_xml_url":68,"boring_view_url":1,"soilmap_view_url":null,"soiltest_xml_url":0,"soiltest_view_url":0},{"id":518334,"code":"B4KJ202201002-0870","latitude":"34.051428","longitude":"135.787792","source_code":"KK168661330400140005","project_name":"\u4e94\u689d\u65b0\u5bae\u9053\u8def\uff08\u98a8\u5c4b\u5ddd\u6d25\u5de5\u533a\uff09\u6d25\u8d8a\u702c\u5730\u533a\u5730\u8cea\u8abf\u67fb\u696d\u52d9","survey_name":"\u4e94\u689d\u65b0\u5bae\u9053\u8def\uff08\u98a8\u5c4b\u5ddd\u6d25\u5de5\u533a\uff09\u6d25\u8d8a\u702c\u5730\u533a\u5730\u8cea\u8abf\u67fb\u696d\u52d9","client_name":"\"\u56fd\u571f\u4ea4\u901a\u7701 \u8fd1\u757f\u5730\u65b9\u6574\u5099\u5c40 \u5948\u826f\u56fd\u9053\u4e8b\u52d9\u6240\"","boring_xml_url":68,"boring_view_url":1,"soilmap_view_url":null,"soiltest_xml_url":0,"soiltest_view_url":0},{"id":518333,"code":"B4KJ202201002-0869","latitude":"34.052142","longitude":"135.786525","source_code":"KK168661330400140004","project_name":"\u4e94\u689d\u65b0\u5bae\u9053\u8def\uff08\u98a8\u5c4b\u5ddd\u6d25\u5de5\u533a\uff09\u6d25\u8d8a\u702c\u5730\u533a\u5730\u8cea\u8abf\u67fb\u696d\u52d9","survey_name":"\u4e94\u689d\u65b0\u5bae\u9053\u8def\uff08\u98a8\u5c4b\u5ddd\u6d25\u5de5\u533a\uff09\u6d25\u8d8a\u702c\u5730\u533a\u5730\u8cea\u8abf\u67fb\u696d\u52d9","client_name":"\"\u56fd\u571f\u4ea4\u901a\u7701 \u8fd1\u757f\u5730\u65b9\u6574\u5099\u5c40 \u5948\u826f\u56fd\u9053\u4e8b\u52d9\u6240\"","boring_xml_url":68,"boring_view_url":1,"soilmap_view_url":null,"soiltest_xml_url":0,"soiltest_view_url":0},{"id":518332,"code":"B4KJ202201002-0868","latitude":"34.052414","longitude":"135.785997","source_code":"KK168661330400140003","project_name":"\u4e94\u689d\u65b0\u5bae\u9053\u8def\uff08\u98a8\u5c4b\u5ddd\u6d25\u5de5\u533a\uff09\u6d25\u8d8a\u702c\u5730\u533a\u5730\u8cea\u8abf\u67fb\u696d\u52d9","survey_name":"\u4e94\u689d\u65b0\u5bae\u9053\u8def\uff08\u98a8\u5c4b\u5ddd\u6d25\u5de5\u533a\uff09\u6d25\u8d8a\u702c\u5730\u533a\u5730\u8cea\u8abf\u67fb\u696d\u52d9","client_name":"\"\u56fd\u571f\u4ea4\u901a\u7701 \u8fd1\u757f\u5730\u65b9\u6574\u5099\u5c40 \u5948\u826f\u56fd\u9053\u4e8b\u52d9\u6240\"","boring_xml_url":68,"boring_view_url":1,"soilmap_view_url":null,"soiltest_xml_url":0,"soiltest_view_url":0},{"id":518331,"code":"B4KJ202201002-0867","latitude":"34.052631","longitude":"135.785461","source_code":"KK168661330400140002","project_name":"\u4e94\u689d\u65b0\u5bae\u9053\u8def\uff08\u98a8\u5c4b\u5ddd\u6d25\u5de5\u533a\uff09\u6d25\u8d8a\u702c\u5730\u533a\u5730\u8cea\u8abf\u67fb\u696d\u52d9","survey_name":"\u4e94\u689d\u65b0\u5bae\u9053\u8def\uff08\u98a8\u5c4b\u5ddd\u6d25\u5de5\u533a\uff09\u6d25\u8d8a\u702c\u5730\u533a\u5730\u8cea\u8abf\u67fb\u696d\u52d9","client_name":"\"\u56fd\u571f\u4ea4\u901a\u7701 \u8fd1\u757f\u5730\u65b9\u6574\u5099\u5c40 \u5948\u826f\u56fd\u9053\u4e8b\u52d9\u6240\"","boring_xml_url":68,"boring_view_url":1,"soilmap_view_url":null,"soiltest_xml_url":0,"soiltest_view_url":0},{"id":518330,"code":"B4KJ202201002-0866","latitude":"34.052731","longitude":"135.785269","source_code":"KK168661330400140001","project_name":"\u4e94\u689d\u65b0\u5bae\u9053\u8def\uff08\u98a8\u5c4b\u5ddd\u6d25\u5de5\u533a\uff09\u6d25\u8d8a\u702c\u5730\u533a\u5730\u8cea\u8abf\u67fb\u696d\u52d9","survey_name":"\u4e94\u689d\u65b0\u5bae\u9053\u8def\uff08\u98a8\u5c4b\u5ddd\u6d25\u5de5\u533a\uff09\u6d25\u8d8a\u702c\u5730\u533a\u5730\u8cea\u8abf\u67fb\u696d\u52d9","client_name":"\"\u56fd\u571f\u4ea4\u901a\u7701 \u8fd1\u757f\u5730\u65b9\u6574\u5099\u5c40 \u5948\u826f\u56fd\u9053\u4e8b\u52d9\u6240\"","boring_xml_url":68,"boring_view_url":1,"soilmap_view_url":null,"soiltest_xml_url":0,"soiltest_view_url":0},{"id":518329,"code":"B4KJ202201002-0865","latitude":"34.8511","longitude":"134.911219","source_code":"KK158651530400040012","project_name":"\u59eb\u8def\u7ba1\u5185\u6a0b\u9580\u7b49\u8010\u9707\u7167\u67fb\u696d\u52d9","survey_name":"\u59eb\u8def\u7ba1\u5185\u6a0b\u9580\u7b49\u8010\u9707\u7167\u67fb\u696d\u52d9","client_name":"\u56fd\u571f\u4ea4\u901a\u7701\u3000\u8fd1\u757f\u5730\u65b9\u6574\u5099\u5c40\u3000\u59eb\u8def\u6cb3\u5ddd\u56fd\u9053\u4e8b\u52d9\u6240","boring_xml_url":68,"boring_view_url":1,"soilmap_view_url":null,"soiltest_xml_url":0,"soiltest_view_url":0}]}}