{"header":{"xyz":{"source":[],"mosaic":false},"page":904,"raw":{"soiltest_result":"0","bbox":"57.598333,109.544722,1.933333,163.806111","page":"904"},"conditions":{"soiltest_result":0,"north":57.598333,"west":109.544722,"south":1.933333,"east":163.806111},"success":true,"message":""},"data":{"meta":{"total":212844,"page":904,"pages":7095,"count":30},"values":[{"id":518298,"code":"B4KJ202201002-0834","latitude":"34.978611","longitude":"135.714444","source_code":"KK168640210400070031","project_name":"\u6842\u5ddd\u5824\u9632\u6f0f\u6c34\u8abf\u67fb\u696d\u52d9","survey_name":"\u6842\u5ddd\u5824\u9632\u6f0f\u6c34\u8abf\u67fb\u696d\u52d9","client_name":"\u56fd\u571f\u4ea4\u901a\u7701\u8fd1\u757f\u5730\u65b9\u6574\u5099\u5c40\u6dc0\u5ddd\u6cb3\u5ddd\u4e8b\u52d9\u6240","boring_xml_url":68,"boring_view_url":1,"soilmap_view_url":null,"soiltest_xml_url":0,"soiltest_view_url":0},{"id":518297,"code":"B4KJ202201002-0833","latitude":"34.973611","longitude":"135.719167","source_code":"KK168640210400070030","project_name":"\u6842\u5ddd\u5824\u9632\u6f0f\u6c34\u8abf\u67fb\u696d\u52d9","survey_name":"\u6842\u5ddd\u5824\u9632\u6f0f\u6c34\u8abf\u67fb\u696d\u52d9","client_name":"\u56fd\u571f\u4ea4\u901a\u7701\u8fd1\u757f\u5730\u65b9\u6574\u5099\u5c40\u6dc0\u5ddd\u6cb3\u5ddd\u4e8b\u52d9\u6240","boring_xml_url":68,"boring_view_url":1,"soilmap_view_url":null,"soiltest_xml_url":0,"soiltest_view_url":0},{"id":518296,"code":"B4KJ202201002-0832","latitude":"34.973611","longitude":"135.719167","source_code":"KK168640210400070029","project_name":"\u6842\u5ddd\u5824\u9632\u6f0f\u6c34\u8abf\u67fb\u696d\u52d9","survey_name":"\u6842\u5ddd\u5824\u9632\u6f0f\u6c34\u8abf\u67fb\u696d\u52d9","client_name":"\u56fd\u571f\u4ea4\u901a\u7701\u8fd1\u757f\u5730\u65b9\u6574\u5099\u5c40\u6dc0\u5ddd\u6cb3\u5ddd\u4e8b\u52d9\u6240","boring_xml_url":68,"boring_view_url":1,"soilmap_view_url":null,"soiltest_xml_url":0,"soiltest_view_url":0},{"id":518295,"code":"B4KJ202201002-0831","latitude":"34.973333","longitude":"135.719167","source_code":"KK168640210400070028","project_name":"\u6842\u5ddd\u5824\u9632\u6f0f\u6c34\u8abf\u67fb\u696d\u52d9","survey_name":"\u6842\u5ddd\u5824\u9632\u6f0f\u6c34\u8abf\u67fb\u696d\u52d9","client_name":"\u56fd\u571f\u4ea4\u901a\u7701\u8fd1\u757f\u5730\u65b9\u6574\u5099\u5c40\u6dc0\u5ddd\u6cb3\u5ddd\u4e8b\u52d9\u6240","boring_xml_url":68,"boring_view_url":1,"soilmap_view_url":null,"soiltest_xml_url":0,"soiltest_view_url":0},{"id":518294,"code":"B4KJ202201002-0830","latitude":"34.968611","longitude":"135.719167","source_code":"KK168640210400070027","project_name":"\u6842\u5ddd\u5824\u9632\u6f0f\u6c34\u8abf\u67fb\u696d\u52d9","survey_name":"\u6842\u5ddd\u5824\u9632\u6f0f\u6c34\u8abf\u67fb\u696d\u52d9","client_name":"\u56fd\u571f\u4ea4\u901a\u7701\u8fd1\u757f\u5730\u65b9\u6574\u5099\u5c40\u6dc0\u5ddd\u6cb3\u5ddd\u4e8b\u52d9\u6240","boring_xml_url":68,"boring_view_url":1,"soilmap_view_url":null,"soiltest_xml_url":0,"soiltest_view_url":0},{"id":518293,"code":"B4KJ202201002-0829","latitude":"34.934722","longitude":"135.736389","source_code":"KK168640210400070026","project_name":"\u6842\u5ddd\u5824\u9632\u6f0f\u6c34\u8abf\u67fb\u696d\u52d9","survey_name":"\u6842\u5ddd\u5824\u9632\u6f0f\u6c34\u8abf\u67fb\u696d\u52d9","client_name":"\u56fd\u571f\u4ea4\u901a\u7701\u8fd1\u757f\u5730\u65b9\u6574\u5099\u5c40\u6dc0\u5ddd\u6cb3\u5ddd\u4e8b\u52d9\u6240","boring_xml_url":68,"boring_view_url":1,"soilmap_view_url":null,"soiltest_xml_url":0,"soiltest_view_url":0},{"id":518292,"code":"B4KJ202201002-0828","latitude":"34.927778","longitude":"135.729444","source_code":"KK168640210400070025","project_name":"\u6842\u5ddd\u5824\u9632\u6f0f\u6c34\u8abf\u67fb\u696d\u52d9","survey_name":"\u6842\u5ddd\u5824\u9632\u6f0f\u6c34\u8abf\u67fb\u696d\u52d9","client_name":"\u56fd\u571f\u4ea4\u901a\u7701\u8fd1\u757f\u5730\u65b9\u6574\u5099\u5c40\u6dc0\u5ddd\u6cb3\u5ddd\u4e8b\u52d9\u6240","boring_xml_url":68,"boring_view_url":1,"soilmap_view_url":null,"soiltest_xml_url":0,"soiltest_view_url":0},{"id":518291,"code":"B4KJ202201002-0827","latitude":"34.921944","longitude":"135.724722","source_code":"KK168640210400070024","project_name":"\u6842\u5ddd\u5824\u9632\u6f0f\u6c34\u8abf\u67fb\u696d\u52d9","survey_name":"\u6842\u5ddd\u5824\u9632\u6f0f\u6c34\u8abf\u67fb\u696d\u52d9","client_name":"\u56fd\u571f\u4ea4\u901a\u7701\u8fd1\u757f\u5730\u65b9\u6574\u5099\u5c40\u6dc0\u5ddd\u6cb3\u5ddd\u4e8b\u52d9\u6240","boring_xml_url":68,"boring_view_url":1,"soilmap_view_url":null,"soiltest_xml_url":0,"soiltest_view_url":0},{"id":518290,"code":"B4KJ202201002-0826","latitude":"34.918611","longitude":"135.722222","source_code":"KK168640210400070023","project_name":"\u6842\u5ddd\u5824\u9632\u6f0f\u6c34\u8abf\u67fb\u696d\u52d9","survey_name":"\u6842\u5ddd\u5824\u9632\u6f0f\u6c34\u8abf\u67fb\u696d\u52d9","client_name":"\u56fd\u571f\u4ea4\u901a\u7701\u8fd1\u757f\u5730\u65b9\u6574\u5099\u5c40\u6dc0\u5ddd\u6cb3\u5ddd\u4e8b\u52d9\u6240","boring_xml_url":68,"boring_view_url":1,"soilmap_view_url":null,"soiltest_xml_url":0,"soiltest_view_url":0},{"id":518289,"code":"B4KJ202201002-0825","latitude":"34.903611","longitude":"135.703333","source_code":"KK168640210400070022","project_name":"\u6842\u5ddd\u5824\u9632\u6f0f\u6c34\u8abf\u67fb\u696d\u52d9","survey_name":"\u6842\u5ddd\u5824\u9632\u6f0f\u6c34\u8abf\u67fb\u696d\u52d9","client_name":"\u56fd\u571f\u4ea4\u901a\u7701\u8fd1\u757f\u5730\u65b9\u6574\u5099\u5c40\u6dc0\u5ddd\u6cb3\u5ddd\u4e8b\u52d9\u6240","boring_xml_url":68,"boring_view_url":1,"soilmap_view_url":null,"soiltest_xml_url":0,"soiltest_view_url":0},{"id":518288,"code":"B4KJ202201002-0824","latitude":"34.896944","longitude":"135.695278","source_code":"KK168640210400070021","project_name":"\u6842\u5ddd\u5824\u9632\u6f0f\u6c34\u8abf\u67fb\u696d\u52d9","survey_name":"\u6842\u5ddd\u5824\u9632\u6f0f\u6c34\u8abf\u67fb\u696d\u52d9","client_name":"\u56fd\u571f\u4ea4\u901a\u7701\u8fd1\u757f\u5730\u65b9\u6574\u5099\u5c40\u6dc0\u5ddd\u6cb3\u5ddd\u4e8b\u52d9\u6240","boring_xml_url":68,"boring_view_url":1,"soilmap_view_url":null,"soiltest_xml_url":0,"soiltest_view_url":0},{"id":518287,"code":"B4KJ202201002-0823","latitude":"35.010833","longitude":"135.688889","source_code":"KK168640210400070020","project_name":"\u6842\u5ddd\u5824\u9632\u6f0f\u6c34\u8abf\u67fb\u696d\u52d9","survey_name":"\u6842\u5ddd\u5824\u9632\u6f0f\u6c34\u8abf\u67fb\u696d\u52d9","client_name":"\u56fd\u571f\u4ea4\u901a\u7701\u8fd1\u757f\u5730\u65b9\u6574\u5099\u5c40\u6dc0\u5ddd\u6cb3\u5ddd\u4e8b\u52d9\u6240","boring_xml_url":68,"boring_view_url":1,"soilmap_view_url":null,"soiltest_xml_url":0,"soiltest_view_url":0},{"id":518286,"code":"B4KJ202201002-0822","latitude":"34.995","longitude":"135.71","source_code":"KK168640210400070019","project_name":"\u6842\u5ddd\u5824\u9632\u6f0f\u6c34\u8abf\u67fb\u696d\u52d9","survey_name":"\u6842\u5ddd\u5824\u9632\u6f0f\u6c34\u8abf\u67fb\u696d\u52d9","client_name":"\u56fd\u571f\u4ea4\u901a\u7701\u8fd1\u757f\u5730\u65b9\u6574\u5099\u5c40\u6dc0\u5ddd\u6cb3\u5ddd\u4e8b\u52d9\u6240","boring_xml_url":68,"boring_view_url":1,"soilmap_view_url":null,"soiltest_xml_url":0,"soiltest_view_url":0},{"id":518285,"code":"B4KJ202201002-0821","latitude":"34.993333","longitude":"135.710833","source_code":"KK168640210400070018","project_name":"\u6842\u5ddd\u5824\u9632\u6f0f\u6c34\u8abf\u67fb\u696d\u52d9","survey_name":"\u6842\u5ddd\u5824\u9632\u6f0f\u6c34\u8abf\u67fb\u696d\u52d9","client_name":"\u56fd\u571f\u4ea4\u901a\u7701\u8fd1\u757f\u5730\u65b9\u6574\u5099\u5c40\u6dc0\u5ddd\u6cb3\u5ddd\u4e8b\u52d9\u6240","boring_xml_url":68,"boring_view_url":1,"soilmap_view_url":null,"soiltest_xml_url":0,"soiltest_view_url":0},{"id":518284,"code":"B4KJ202201002-0820","latitude":"34.993611","longitude":"135.710833","source_code":"KK168640210400070017","project_name":"\u6842\u5ddd\u5824\u9632\u6f0f\u6c34\u8abf\u67fb\u696d\u52d9","survey_name":"\u6842\u5ddd\u5824\u9632\u6f0f\u6c34\u8abf\u67fb\u696d\u52d9","client_name":"\u56fd\u571f\u4ea4\u901a\u7701\u8fd1\u757f\u5730\u65b9\u6574\u5099\u5c40\u6dc0\u5ddd\u6cb3\u5ddd\u4e8b\u52d9\u6240","boring_xml_url":68,"boring_view_url":1,"soilmap_view_url":null,"soiltest_xml_url":0,"soiltest_view_url":0},{"id":518283,"code":"B4KJ202201002-0819","latitude":"34.993611","longitude":"135.710833","source_code":"KK168640210400070016","project_name":"\u6842\u5ddd\u5824\u9632\u6f0f\u6c34\u8abf\u67fb\u696d\u52d9","survey_name":"\u6842\u5ddd\u5824\u9632\u6f0f\u6c34\u8abf\u67fb\u696d\u52d9","client_name":"\u56fd\u571f\u4ea4\u901a\u7701\u8fd1\u757f\u5730\u65b9\u6574\u5099\u5c40\u6dc0\u5ddd\u6cb3\u5ddd\u4e8b\u52d9\u6240","boring_xml_url":68,"boring_view_url":1,"soilmap_view_url":null,"soiltest_xml_url":0,"soiltest_view_url":0},{"id":518282,"code":"B4KJ202201002-0818","latitude":"34.985278","longitude":"135.714167","source_code":"KK168640210400070015","project_name":"\u6842\u5ddd\u5824\u9632\u6f0f\u6c34\u8abf\u67fb\u696d\u52d9","survey_name":"\u6842\u5ddd\u5824\u9632\u6f0f\u6c34\u8abf\u67fb\u696d\u52d9","client_name":"\u56fd\u571f\u4ea4\u901a\u7701\u8fd1\u757f\u5730\u65b9\u6574\u5099\u5c40\u6dc0\u5ddd\u6cb3\u5ddd\u4e8b\u52d9\u6240","boring_xml_url":68,"boring_view_url":1,"soilmap_view_url":null,"soiltest_xml_url":0,"soiltest_view_url":0},{"id":518281,"code":"B4KJ202201002-0817","latitude":"34.951111","longitude":"135.734722","source_code":"KK168640210400070014","project_name":"\u6842\u5ddd\u5824\u9632\u6f0f\u6c34\u8abf\u67fb\u696d\u52d9","survey_name":"\u6842\u5ddd\u5824\u9632\u6f0f\u6c34\u8abf\u67fb\u696d\u52d9","client_name":"\u56fd\u571f\u4ea4\u901a\u7701\u8fd1\u757f\u5730\u65b9\u6574\u5099\u5c40\u6dc0\u5ddd\u6cb3\u5ddd\u4e8b\u52d9\u6240","boring_xml_url":68,"boring_view_url":1,"soilmap_view_url":null,"soiltest_xml_url":0,"soiltest_view_url":0},{"id":518280,"code":"B4KJ202201002-0816","latitude":"34.951389","longitude":"135.734722","source_code":"KK168640210400070013","project_name":"\u6842\u5ddd\u5824\u9632\u6f0f\u6c34\u8abf\u67fb\u696d\u52d9","survey_name":"\u6842\u5ddd\u5824\u9632\u6f0f\u6c34\u8abf\u67fb\u696d\u52d9","client_name":"\u56fd\u571f\u4ea4\u901a\u7701\u8fd1\u757f\u5730\u65b9\u6574\u5099\u5c40\u6dc0\u5ddd\u6cb3\u5ddd\u4e8b\u52d9\u6240","boring_xml_url":68,"boring_view_url":1,"soilmap_view_url":null,"soiltest_xml_url":0,"soiltest_view_url":0},{"id":518279,"code":"B4KJ202201002-0815","latitude":"34.931111","longitude":"135.7375","source_code":"KK168640210400070012","project_name":"\u6842\u5ddd\u5824\u9632\u6f0f\u6c34\u8abf\u67fb\u696d\u52d9","survey_name":"\u6842\u5ddd\u5824\u9632\u6f0f\u6c34\u8abf\u67fb\u696d\u52d9","client_name":"\u56fd\u571f\u4ea4\u901a\u7701\u8fd1\u757f\u5730\u65b9\u6574\u5099\u5c40\u6dc0\u5ddd\u6cb3\u5ddd\u4e8b\u52d9\u6240","boring_xml_url":68,"boring_view_url":1,"soilmap_view_url":null,"soiltest_xml_url":0,"soiltest_view_url":0},{"id":518278,"code":"B4KJ202201002-0814","latitude":"34.931389","longitude":"135.738333","source_code":"KK168640210400070011","project_name":"\u6842\u5ddd\u5824\u9632\u6f0f\u6c34\u8abf\u67fb\u696d\u52d9","survey_name":"\u6842\u5ddd\u5824\u9632\u6f0f\u6c34\u8abf\u67fb\u696d\u52d9","client_name":"\u56fd\u571f\u4ea4\u901a\u7701\u8fd1\u757f\u5730\u65b9\u6574\u5099\u5c40\u6dc0\u5ddd\u6cb3\u5ddd\u4e8b\u52d9\u6240","boring_xml_url":68,"boring_view_url":1,"soilmap_view_url":null,"soiltest_xml_url":0,"soiltest_view_url":0},{"id":518277,"code":"B4KJ202201002-0813","latitude":"34.931389","longitude":"135.738333","source_code":"KK168640210400070010","project_name":"\u6842\u5ddd\u5824\u9632\u6f0f\u6c34\u8abf\u67fb\u696d\u52d9","survey_name":"\u6842\u5ddd\u5824\u9632\u6f0f\u6c34\u8abf\u67fb\u696d\u52d9","client_name":"\u56fd\u571f\u4ea4\u901a\u7701\u8fd1\u757f\u5730\u65b9\u6574\u5099\u5c40\u6dc0\u5ddd\u6cb3\u5ddd\u4e8b\u52d9\u6240","boring_xml_url":68,"boring_view_url":1,"soilmap_view_url":null,"soiltest_xml_url":0,"soiltest_view_url":0},{"id":518276,"code":"B4KJ202201002-0812","latitude":"34.9275","longitude":"135.733611","source_code":"KK168640210400070009","project_name":"\u6842\u5ddd\u5824\u9632\u6f0f\u6c34\u8abf\u67fb\u696d\u52d9","survey_name":"\u6842\u5ddd\u5824\u9632\u6f0f\u6c34\u8abf\u67fb\u696d\u52d9","client_name":"\u56fd\u571f\u4ea4\u901a\u7701\u8fd1\u757f\u5730\u65b9\u6574\u5099\u5c40\u6dc0\u5ddd\u6cb3\u5ddd\u4e8b\u52d9\u6240","boring_xml_url":68,"boring_view_url":1,"soilmap_view_url":null,"soiltest_xml_url":0,"soiltest_view_url":0},{"id":518275,"code":"B4KJ202201002-0811","latitude":"34.9275","longitude":"135.733333","source_code":"KK168640210400070008","project_name":"\u6842\u5ddd\u5824\u9632\u6f0f\u6c34\u8abf\u67fb\u696d\u52d9","survey_name":"\u6842\u5ddd\u5824\u9632\u6f0f\u6c34\u8abf\u67fb\u696d\u52d9","client_name":"\u56fd\u571f\u4ea4\u901a\u7701\u8fd1\u757f\u5730\u65b9\u6574\u5099\u5c40\u6dc0\u5ddd\u6cb3\u5ddd\u4e8b\u52d9\u6240","boring_xml_url":68,"boring_view_url":1,"soilmap_view_url":null,"soiltest_xml_url":0,"soiltest_view_url":0},{"id":518274,"code":"B4KJ202201002-0810","latitude":"34.921667","longitude":"135.729444","source_code":"KK168640210400070007","project_name":"\u6842\u5ddd\u5824\u9632\u6f0f\u6c34\u8abf\u67fb\u696d\u52d9","survey_name":"\u6842\u5ddd\u5824\u9632\u6f0f\u6c34\u8abf\u67fb\u696d\u52d9","client_name":"\u56fd\u571f\u4ea4\u901a\u7701\u8fd1\u757f\u5730\u65b9\u6574\u5099\u5c40\u6dc0\u5ddd\u6cb3\u5ddd\u4e8b\u52d9\u6240","boring_xml_url":68,"boring_view_url":1,"soilmap_view_url":null,"soiltest_xml_url":0,"soiltest_view_url":0},{"id":518273,"code":"B4KJ202201002-0809","latitude":"34.903056","longitude":"135.711944","source_code":"KK168640210400070006","project_name":"\u6842\u5ddd\u5824\u9632\u6f0f\u6c34\u8abf\u67fb\u696d\u52d9","survey_name":"\u6842\u5ddd\u5824\u9632\u6f0f\u6c34\u8abf\u67fb\u696d\u52d9","client_name":"\u56fd\u571f\u4ea4\u901a\u7701\u8fd1\u757f\u5730\u65b9\u6574\u5099\u5c40\u6dc0\u5ddd\u6cb3\u5ddd\u4e8b\u52d9\u6240","boring_xml_url":68,"boring_view_url":1,"soilmap_view_url":null,"soiltest_xml_url":0,"soiltest_view_url":0},{"id":518272,"code":"B4KJ202201002-0808","latitude":"34.899167","longitude":"135.705278","source_code":"KK168640210400070005","project_name":"\u6842\u5ddd\u5824\u9632\u6f0f\u6c34\u8abf\u67fb\u696d\u52d9","survey_name":"\u6842\u5ddd\u5824\u9632\u6f0f\u6c34\u8abf\u67fb\u696d\u52d9","client_name":"\u56fd\u571f\u4ea4\u901a\u7701\u8fd1\u757f\u5730\u65b9\u6574\u5099\u5c40\u6dc0\u5ddd\u6cb3\u5ddd\u4e8b\u52d9\u6240","boring_xml_url":68,"boring_view_url":1,"soilmap_view_url":null,"soiltest_xml_url":0,"soiltest_view_url":0},{"id":518271,"code":"B4KJ202201002-0807","latitude":"34.899167","longitude":"135.705556","source_code":"KK168640210400070004","project_name":"\u6842\u5ddd\u5824\u9632\u6f0f\u6c34\u8abf\u67fb\u696d\u52d9","survey_name":"\u6842\u5ddd\u5824\u9632\u6f0f\u6c34\u8abf\u67fb\u696d\u52d9","client_name":"\u56fd\u571f\u4ea4\u901a\u7701\u8fd1\u757f\u5730\u65b9\u6574\u5099\u5c40\u6dc0\u5ddd\u6cb3\u5ddd\u4e8b\u52d9\u6240","boring_xml_url":68,"boring_view_url":1,"soilmap_view_url":null,"soiltest_xml_url":0,"soiltest_view_url":0},{"id":518270,"code":"B4KJ202201002-0806","latitude":"34.895556","longitude":"135.701111","source_code":"KK168640210400070003","project_name":"\u6842\u5ddd\u5824\u9632\u6f0f\u6c34\u8abf\u67fb\u696d\u52d9","survey_name":"\u6842\u5ddd\u5824\u9632\u6f0f\u6c34\u8abf\u67fb\u696d\u52d9","client_name":"\u56fd\u571f\u4ea4\u901a\u7701\u8fd1\u757f\u5730\u65b9\u6574\u5099\u5c40\u6dc0\u5ddd\u6cb3\u5ddd\u4e8b\u52d9\u6240","boring_xml_url":68,"boring_view_url":1,"soilmap_view_url":null,"soiltest_xml_url":0,"soiltest_view_url":0},{"id":518269,"code":"B4KJ202201002-0805","latitude":"34.895556","longitude":"135.701389","source_code":"KK168640210400070002","project_name":"\u6842\u5ddd\u5824\u9632\u6f0f\u6c34\u8abf\u67fb\u696d\u52d9","survey_name":"\u6842\u5ddd\u5824\u9632\u6f0f\u6c34\u8abf\u67fb\u696d\u52d9","client_name":"\u56fd\u571f\u4ea4\u901a\u7701\u8fd1\u757f\u5730\u65b9\u6574\u5099\u5c40\u6dc0\u5ddd\u6cb3\u5ddd\u4e8b\u52d9\u6240","boring_xml_url":68,"boring_view_url":1,"soilmap_view_url":null,"soiltest_xml_url":0,"soiltest_view_url":0}]}}