{"header":{"xyz":{"source":[],"mosaic":false},"page":908,"raw":{"soiltest_result":"0","bbox":"57.598333,109.544722,1.933333,163.806111","page":"908"},"conditions":{"soiltest_result":0,"north":57.598333,"west":109.544722,"south":1.933333,"east":163.806111},"success":true,"message":""},"data":{"meta":{"total":212844,"page":908,"pages":7095,"count":30},"values":[{"id":518178,"code":"B4KJ202201002-0714","latitude":"35.935055","longitude":"136.374057","source_code":"KK168671270400010004","project_name":"","survey_name":"\u8db3\u7fbd\u5ddd\u30c0\u30e0\u6d2a\u6c34\u8abf\u7bc0\u5730\u5468\u8fba\u5730\u8cea\u8abf\u67fb\u696d\u52d9","client_name":"\"\u8fd1\u757f\u5730\u65b9\u6574\u5099\u5c40 \u8db3\u7fbd\u5ddd\u30c0\u30e0\u5de5\u4e8b\u4e8b\u52d9\u6240 \u5de5\u4e8b\u8ab2\"","boring_xml_url":68,"boring_view_url":1,"soilmap_view_url":null,"soiltest_xml_url":0,"soiltest_view_url":0},{"id":518177,"code":"B4KJ202201002-0713","latitude":"35.935639","longitude":"136.37389","source_code":"KK168671270400010003","project_name":"","survey_name":"\u8db3\u7fbd\u5ddd\u30c0\u30e0\u6d2a\u6c34\u8abf\u7bc0\u5730\u5468\u8fba\u5730\u8cea\u8abf\u67fb\u696d\u52d9","client_name":"\"\u8fd1\u757f\u5730\u65b9\u6574\u5099\u5c40 \u8db3\u7fbd\u5ddd\u30c0\u30e0\u5de5\u4e8b\u4e8b\u52d9\u6240 \u5de5\u4e8b\u8ab2\"","boring_xml_url":68,"boring_view_url":1,"soilmap_view_url":null,"soiltest_xml_url":0,"soiltest_view_url":0},{"id":518176,"code":"B4KJ202201002-0712","latitude":"35.93625","longitude":"136.372418","source_code":"KK168671270400010002","project_name":"","survey_name":"\u8db3\u7fbd\u5ddd\u30c0\u30e0\u6d2a\u6c34\u8abf\u7bc0\u5730\u5468\u8fba\u5730\u8cea\u8abf\u67fb\u696d\u52d9","client_name":"\"\u8fd1\u757f\u5730\u65b9\u6574\u5099\u5c40 \u8db3\u7fbd\u5ddd\u30c0\u30e0\u5de5\u4e8b\u4e8b\u52d9\u6240 \u5de5\u4e8b\u8ab2\"","boring_xml_url":68,"boring_view_url":1,"soilmap_view_url":null,"soiltest_xml_url":0,"soiltest_view_url":0},{"id":518175,"code":"B4KJ202201002-0711","latitude":"35.936389","longitude":"136.372807","source_code":"KK168671270400010001","project_name":"","survey_name":"\u8db3\u7fbd\u5ddd\u30c0\u30e0\u6d2a\u6c34\u8abf\u7bc0\u5730\u5468\u8fba\u5730\u8cea\u8abf\u67fb\u696d\u52d9","client_name":"\"\u8fd1\u757f\u5730\u65b9\u6574\u5099\u5c40 \u8db3\u7fbd\u5ddd\u30c0\u30e0\u5de5\u4e8b\u4e8b\u52d9\u6240 \u5de5\u4e8b\u8ab2\"","boring_xml_url":68,"boring_view_url":1,"soilmap_view_url":null,"soiltest_xml_url":0,"soiltest_view_url":0},{"id":518174,"code":"B4KJ202201002-0710","latitude":"35.056333","longitude":"136.017194","source_code":"KK168632330400230061","project_name":"\u91ce\u6d32\u6817\u6771\u30d0\u30a4\u30d1\u30b9\u5730\u8cea\u8abf\u67fb\u696d\u52d9","survey_name":"\u91ce\u6d32\u6817\u6771\u30d0\u30a4\u30d1\u30b9\u5730\u8cea\u8abf\u67fb\u696d\u52d9","client_name":"\u56fd\u571f\u4ea4\u901a\u7701\u8fd1\u757f\u5730\u65b9\u6574\u5099\u5c40\u6ecb\u8cc0\u56fd\u9053\u4e8b\u52d9\u6240","boring_xml_url":68,"boring_view_url":1,"soilmap_view_url":null,"soiltest_xml_url":0,"soiltest_view_url":0},{"id":518173,"code":"B4KJ202201002-0709","latitude":"35.044906","longitude":"136.00645","source_code":"KK168632330400230060","project_name":"\u91ce\u6d32\u6817\u6771\u30d0\u30a4\u30d1\u30b9\u5730\u8cea\u8abf\u67fb\u696d\u52d9","survey_name":"\u91ce\u6d32\u6817\u6771\u30d0\u30a4\u30d1\u30b9\u5730\u8cea\u8abf\u67fb\u696d\u52d9","client_name":"\u56fd\u571f\u4ea4\u901a\u7701\u8fd1\u757f\u5730\u65b9\u6574\u5099\u5c40\u6ecb\u8cc0\u56fd\u9053\u4e8b\u52d9\u6240","boring_xml_url":68,"boring_view_url":1,"soilmap_view_url":null,"soiltest_xml_url":0,"soiltest_view_url":0},{"id":518172,"code":"B4KJ202201002-0708","latitude":"35.046103","longitude":"136.007128","source_code":"KK168632330400230059","project_name":"\u91ce\u6d32\u6817\u6771\u30d0\u30a4\u30d1\u30b9\u5730\u8cea\u8abf\u67fb\u696d\u52d9","survey_name":"\u91ce\u6d32\u6817\u6771\u30d0\u30a4\u30d1\u30b9\u5730\u8cea\u8abf\u67fb\u696d\u52d9","client_name":"\u56fd\u571f\u4ea4\u901a\u7701\u8fd1\u757f\u5730\u65b9\u6574\u5099\u5c40\u6ecb\u8cc0\u56fd\u9053\u4e8b\u52d9\u6240","boring_xml_url":68,"boring_view_url":1,"soilmap_view_url":null,"soiltest_xml_url":0,"soiltest_view_url":0},{"id":518171,"code":"B4KJ202201002-0707","latitude":"35.046406","longitude":"136.007386","source_code":"KK168632330400230058","project_name":"\u91ce\u6d32\u6817\u6771\u30d0\u30a4\u30d1\u30b9\u5730\u8cea\u8abf\u67fb\u696d\u52d9","survey_name":"\u91ce\u6d32\u6817\u6771\u30d0\u30a4\u30d1\u30b9\u5730\u8cea\u8abf\u67fb\u696d\u52d9","client_name":"\u56fd\u571f\u4ea4\u901a\u7701\u8fd1\u757f\u5730\u65b9\u6574\u5099\u5c40\u6ecb\u8cc0\u56fd\u9053\u4e8b\u52d9\u6240","boring_xml_url":68,"boring_view_url":1,"soilmap_view_url":null,"soiltest_xml_url":0,"soiltest_view_url":0},{"id":518170,"code":"B4KJ202201002-0706","latitude":"35.046656","longitude":"136.007628","source_code":"KK168632330400230057","project_name":"\u91ce\u6d32\u6817\u6771\u30d0\u30a4\u30d1\u30b9\u5730\u8cea\u8abf\u67fb\u696d\u52d9","survey_name":"\u91ce\u6d32\u6817\u6771\u30d0\u30a4\u30d1\u30b9\u5730\u8cea\u8abf\u67fb\u696d\u52d9","client_name":"\u56fd\u571f\u4ea4\u901a\u7701\u8fd1\u757f\u5730\u65b9\u6574\u5099\u5c40\u6ecb\u8cc0\u56fd\u9053\u4e8b\u52d9\u6240","boring_xml_url":68,"boring_view_url":1,"soilmap_view_url":null,"soiltest_xml_url":0,"soiltest_view_url":0},{"id":518169,"code":"B4KJ202201002-0705","latitude":"35.046931","longitude":"136.007917","source_code":"KK168632330400230056","project_name":"\u91ce\u6d32\u6817\u6771\u30d0\u30a4\u30d1\u30b9\u5730\u8cea\u8abf\u67fb\u696d\u52d9","survey_name":"\u91ce\u6d32\u6817\u6771\u30d0\u30a4\u30d1\u30b9\u5730\u8cea\u8abf\u67fb\u696d\u52d9","client_name":"\u56fd\u571f\u4ea4\u901a\u7701\u8fd1\u757f\u5730\u65b9\u6574\u5099\u5c40\u6ecb\u8cc0\u56fd\u9053\u4e8b\u52d9\u6240","boring_xml_url":68,"boring_view_url":1,"soilmap_view_url":null,"soiltest_xml_url":0,"soiltest_view_url":0},{"id":518168,"code":"B4KJ202201002-0704","latitude":"35.047122","longitude":"136.007936","source_code":"KK168632330400230055","project_name":"\u91ce\u6d32\u6817\u6771\u30d0\u30a4\u30d1\u30b9\u5730\u8cea\u8abf\u67fb\u696d\u52d9","survey_name":"\u91ce\u6d32\u6817\u6771\u30d0\u30a4\u30d1\u30b9\u5730\u8cea\u8abf\u67fb\u696d\u52d9","client_name":"\u56fd\u571f\u4ea4\u901a\u7701\u8fd1\u757f\u5730\u65b9\u6574\u5099\u5c40\u6ecb\u8cc0\u56fd\u9053\u4e8b\u52d9\u6240","boring_xml_url":68,"boring_view_url":1,"soilmap_view_url":null,"soiltest_xml_url":0,"soiltest_view_url":0},{"id":518167,"code":"B4KJ202201002-0703","latitude":"35.047","longitude":"136.008164","source_code":"KK168632330400230054","project_name":"\u91ce\u6d32\u6817\u6771\u30d0\u30a4\u30d1\u30b9\u5730\u8cea\u8abf\u67fb\u696d\u52d9","survey_name":"\u91ce\u6d32\u6817\u6771\u30d0\u30a4\u30d1\u30b9\u5730\u8cea\u8abf\u67fb\u696d\u52d9","client_name":"\u56fd\u571f\u4ea4\u901a\u7701\u8fd1\u757f\u5730\u65b9\u6574\u5099\u5c40\u6ecb\u8cc0\u56fd\u9053\u4e8b\u52d9\u6240","boring_xml_url":68,"boring_view_url":1,"soilmap_view_url":null,"soiltest_xml_url":0,"soiltest_view_url":0},{"id":518166,"code":"B4KJ202201002-0702","latitude":"35.047225","longitude":"136.008242","source_code":"KK168632330400230053","project_name":"\u91ce\u6d32\u6817\u6771\u30d0\u30a4\u30d1\u30b9\u5730\u8cea\u8abf\u67fb\u696d\u52d9","survey_name":"\u91ce\u6d32\u6817\u6771\u30d0\u30a4\u30d1\u30b9\u5730\u8cea\u8abf\u67fb\u696d\u52d9","client_name":"\u56fd\u571f\u4ea4\u901a\u7701\u8fd1\u757f\u5730\u65b9\u6574\u5099\u5c40\u6ecb\u8cc0\u56fd\u9053\u4e8b\u52d9\u6240","boring_xml_url":68,"boring_view_url":1,"soilmap_view_url":null,"soiltest_xml_url":0,"soiltest_view_url":0},{"id":518165,"code":"B4KJ202201002-0701","latitude":"35.047411","longitude":"136.008264","source_code":"KK168632330400230052","project_name":"\u91ce\u6d32\u6817\u6771\u30d0\u30a4\u30d1\u30b9\u5730\u8cea\u8abf\u67fb\u696d\u52d9","survey_name":"\u91ce\u6d32\u6817\u6771\u30d0\u30a4\u30d1\u30b9\u5730\u8cea\u8abf\u67fb\u696d\u52d9","client_name":"\u56fd\u571f\u4ea4\u901a\u7701\u8fd1\u757f\u5730\u65b9\u6574\u5099\u5c40\u6ecb\u8cc0\u56fd\u9053\u4e8b\u52d9\u6240","boring_xml_url":68,"boring_view_url":1,"soilmap_view_url":null,"soiltest_xml_url":0,"soiltest_view_url":0},{"id":518164,"code":"B4KJ202201002-0700","latitude":"35.047306","longitude":"136.008519","source_code":"KK168632330400230051","project_name":"\u91ce\u6d32\u6817\u6771\u30d0\u30a4\u30d1\u30b9\u5730\u8cea\u8abf\u67fb\u696d\u52d9","survey_name":"\u91ce\u6d32\u6817\u6771\u30d0\u30a4\u30d1\u30b9\u5730\u8cea\u8abf\u67fb\u696d\u52d9","client_name":"\u56fd\u571f\u4ea4\u901a\u7701\u8fd1\u757f\u5730\u65b9\u6574\u5099\u5c40\u6ecb\u8cc0\u56fd\u9053\u4e8b\u52d9\u6240","boring_xml_url":68,"boring_view_url":1,"soilmap_view_url":null,"soiltest_xml_url":0,"soiltest_view_url":0},{"id":518163,"code":"B4KJ202201002-0699","latitude":"35.047489","longitude":"136.008539","source_code":"KK168632330400230050","project_name":"\u91ce\u6d32\u6817\u6771\u30d0\u30a4\u30d1\u30b9\u5730\u8cea\u8abf\u67fb\u696d\u52d9","survey_name":"\u91ce\u6d32\u6817\u6771\u30d0\u30a4\u30d1\u30b9\u5730\u8cea\u8abf\u67fb\u696d\u52d9","client_name":"\u56fd\u571f\u4ea4\u901a\u7701\u8fd1\u757f\u5730\u65b9\u6574\u5099\u5c40\u6ecb\u8cc0\u56fd\u9053\u4e8b\u52d9\u6240","boring_xml_url":68,"boring_view_url":1,"soilmap_view_url":null,"soiltest_xml_url":0,"soiltest_view_url":0},{"id":518162,"code":"B4KJ202201002-0698","latitude":"35.047722","longitude":"136.008611","source_code":"KK168632330400230049","project_name":"\u91ce\u6d32\u6817\u6771\u30d0\u30a4\u30d1\u30b9\u5730\u8cea\u8abf\u67fb\u696d\u52d9","survey_name":"\u91ce\u6d32\u6817\u6771\u30d0\u30a4\u30d1\u30b9\u5730\u8cea\u8abf\u67fb\u696d\u52d9","client_name":"\u56fd\u571f\u4ea4\u901a\u7701\u8fd1\u757f\u5730\u65b9\u6574\u5099\u5c40\u6ecb\u8cc0\u56fd\u9053\u4e8b\u52d9\u6240","boring_xml_url":68,"boring_view_url":1,"soilmap_view_url":null,"soiltest_xml_url":0,"soiltest_view_url":0},{"id":518161,"code":"B4KJ202201002-0697","latitude":"35.047569","longitude":"136.008828","source_code":"KK168632330400230048","project_name":"\u91ce\u6d32\u6817\u6771\u30d0\u30a4\u30d1\u30b9\u5730\u8cea\u8abf\u67fb\u696d\u52d9","survey_name":"\u91ce\u6d32\u6817\u6771\u30d0\u30a4\u30d1\u30b9\u5730\u8cea\u8abf\u67fb\u696d\u52d9","client_name":"\u56fd\u571f\u4ea4\u901a\u7701\u8fd1\u757f\u5730\u65b9\u6574\u5099\u5c40\u6ecb\u8cc0\u56fd\u9053\u4e8b\u52d9\u6240","boring_xml_url":68,"boring_view_url":1,"soilmap_view_url":null,"soiltest_xml_url":0,"soiltest_view_url":0},{"id":518160,"code":"B4KJ202201002-0696","latitude":"35.047756","longitude":"136.008839","source_code":"KK168632330400230047","project_name":"\u91ce\u6d32\u6817\u6771\u30d0\u30a4\u30d1\u30b9\u5730\u8cea\u8abf\u67fb\u696d\u52d9","survey_name":"\u91ce\u6d32\u6817\u6771\u30d0\u30a4\u30d1\u30b9\u5730\u8cea\u8abf\u67fb\u696d\u52d9","client_name":"\u56fd\u571f\u4ea4\u901a\u7701\u8fd1\u757f\u5730\u65b9\u6574\u5099\u5c40\u6ecb\u8cc0\u56fd\u9053\u4e8b\u52d9\u6240","boring_xml_url":68,"boring_view_url":1,"soilmap_view_url":null,"soiltest_xml_url":0,"soiltest_view_url":0},{"id":518159,"code":"B4KJ202201002-0695","latitude":"35.048006","longitude":"136.008931","source_code":"KK168632330400230046","project_name":"\u91ce\u6d32\u6817\u6771\u30d0\u30a4\u30d1\u30b9\u5730\u8cea\u8abf\u67fb\u696d\u52d9","survey_name":"\u91ce\u6d32\u6817\u6771\u30d0\u30a4\u30d1\u30b9\u5730\u8cea\u8abf\u67fb\u696d\u52d9","client_name":"\u56fd\u571f\u4ea4\u901a\u7701\u8fd1\u757f\u5730\u65b9\u6574\u5099\u5c40\u6ecb\u8cc0\u56fd\u9053\u4e8b\u52d9\u6240","boring_xml_url":68,"boring_view_url":1,"soilmap_view_url":null,"soiltest_xml_url":0,"soiltest_view_url":0},{"id":518158,"code":"B4KJ202201002-0694","latitude":"35.047825","longitude":"136.009131","source_code":"KK168632330400230045","project_name":"\u91ce\u6d32\u6817\u6771\u30d0\u30a4\u30d1\u30b9\u5730\u8cea\u8abf\u67fb\u696d\u52d9","survey_name":"\u91ce\u6d32\u6817\u6771\u30d0\u30a4\u30d1\u30b9\u5730\u8cea\u8abf\u67fb\u696d\u52d9","client_name":"\u56fd\u571f\u4ea4\u901a\u7701\u8fd1\u757f\u5730\u65b9\u6574\u5099\u5c40\u6ecb\u8cc0\u56fd\u9053\u4e8b\u52d9\u6240","boring_xml_url":68,"boring_view_url":1,"soilmap_view_url":null,"soiltest_xml_url":0,"soiltest_view_url":0},{"id":518157,"code":"B4KJ202201002-0693","latitude":"35.048019","longitude":"136.009136","source_code":"KK168632330400230044","project_name":"\u91ce\u6d32\u6817\u6771\u30d0\u30a4\u30d1\u30b9\u5730\u8cea\u8abf\u67fb\u696d\u52d9","survey_name":"\u91ce\u6d32\u6817\u6771\u30d0\u30a4\u30d1\u30b9\u5730\u8cea\u8abf\u67fb\u696d\u52d9","client_name":"\u56fd\u571f\u4ea4\u901a\u7701\u8fd1\u757f\u5730\u65b9\u6574\u5099\u5c40\u6ecb\u8cc0\u56fd\u9053\u4e8b\u52d9\u6240","boring_xml_url":68,"boring_view_url":1,"soilmap_view_url":null,"soiltest_xml_url":0,"soiltest_view_url":0},{"id":518156,"code":"B4KJ202201002-0692","latitude":"35.048225","longitude":"136.009181","source_code":"KK168632330400230043","project_name":"\u91ce\u6d32\u6817\u6771\u30d0\u30a4\u30d1\u30b9\u5730\u8cea\u8abf\u67fb\u696d\u52d9","survey_name":"\u91ce\u6d32\u6817\u6771\u30d0\u30a4\u30d1\u30b9\u5730\u8cea\u8abf\u67fb\u696d\u52d9","client_name":"\u56fd\u571f\u4ea4\u901a\u7701\u8fd1\u757f\u5730\u65b9\u6574\u5099\u5c40\u6ecb\u8cc0\u56fd\u9053\u4e8b\u52d9\u6240","boring_xml_url":68,"boring_view_url":1,"soilmap_view_url":null,"soiltest_xml_url":0,"soiltest_view_url":0},{"id":518155,"code":"B4KJ202201002-0691","latitude":"35.048111","longitude":"136.009458","source_code":"KK168632330400230042","project_name":"\u91ce\u6d32\u6817\u6771\u30d0\u30a4\u30d1\u30b9\u5730\u8cea\u8abf\u67fb\u696d\u52d9","survey_name":"\u91ce\u6d32\u6817\u6771\u30d0\u30a4\u30d1\u30b9\u5730\u8cea\u8abf\u67fb\u696d\u52d9","client_name":"\u56fd\u571f\u4ea4\u901a\u7701\u8fd1\u757f\u5730\u65b9\u6574\u5099\u5c40\u6ecb\u8cc0\u56fd\u9053\u4e8b\u52d9\u6240","boring_xml_url":68,"boring_view_url":1,"soilmap_view_url":null,"soiltest_xml_url":0,"soiltest_view_url":0},{"id":518154,"code":"B4KJ202201002-0690","latitude":"35.048503","longitude":"136.009675","source_code":"KK168632330400230041","project_name":"\u91ce\u6d32\u6817\u6771\u30d0\u30a4\u30d1\u30b9\u5730\u8cea\u8abf\u67fb\u696d\u52d9","survey_name":"\u91ce\u6d32\u6817\u6771\u30d0\u30a4\u30d1\u30b9\u5730\u8cea\u8abf\u67fb\u696d\u52d9","client_name":"\u56fd\u571f\u4ea4\u901a\u7701\u8fd1\u757f\u5730\u65b9\u6574\u5099\u5c40\u6ecb\u8cc0\u56fd\u9053\u4e8b\u52d9\u6240","boring_xml_url":68,"boring_view_url":1,"soilmap_view_url":null,"soiltest_xml_url":0,"soiltest_view_url":0},{"id":518153,"code":"B4KJ202201002-0689","latitude":"35.048775","longitude":"136.009853","source_code":"KK168632330400230040","project_name":"\u91ce\u6d32\u6817\u6771\u30d0\u30a4\u30d1\u30b9\u5730\u8cea\u8abf\u67fb\u696d\u52d9","survey_name":"\u91ce\u6d32\u6817\u6771\u30d0\u30a4\u30d1\u30b9\u5730\u8cea\u8abf\u67fb\u696d\u52d9","client_name":"\u56fd\u571f\u4ea4\u901a\u7701\u8fd1\u757f\u5730\u65b9\u6574\u5099\u5c40\u6ecb\u8cc0\u56fd\u9053\u4e8b\u52d9\u6240","boring_xml_url":68,"boring_view_url":1,"soilmap_view_url":null,"soiltest_xml_url":0,"soiltest_view_url":0},{"id":518152,"code":"B4KJ202201002-0688","latitude":"35.048756","longitude":"136.010106","source_code":"KK168632330400230039","project_name":"\u91ce\u6d32\u6817\u6771\u30d0\u30a4\u30d1\u30b9\u5730\u8cea\u8abf\u67fb\u696d\u52d9","survey_name":"\u91ce\u6d32\u6817\u6771\u30d0\u30a4\u30d1\u30b9\u5730\u8cea\u8abf\u67fb\u696d\u52d9","client_name":"\u56fd\u571f\u4ea4\u901a\u7701\u8fd1\u757f\u5730\u65b9\u6574\u5099\u5c40\u6ecb\u8cc0\u56fd\u9053\u4e8b\u52d9\u6240","boring_xml_url":68,"boring_view_url":1,"soilmap_view_url":null,"soiltest_xml_url":0,"soiltest_view_url":0},{"id":518151,"code":"B4KJ202201002-0687","latitude":"35.049967","longitude":"136.011317","source_code":"KK168632330400230038","project_name":"\u91ce\u6d32\u6817\u6771\u30d0\u30a4\u30d1\u30b9\u5730\u8cea\u8abf\u67fb\u696d\u52d9","survey_name":"\u91ce\u6d32\u6817\u6771\u30d0\u30a4\u30d1\u30b9\u5730\u8cea\u8abf\u67fb\u696d\u52d9","client_name":"\u56fd\u571f\u4ea4\u901a\u7701\u8fd1\u757f\u5730\u65b9\u6574\u5099\u5c40\u6ecb\u8cc0\u56fd\u9053\u4e8b\u52d9\u6240","boring_xml_url":68,"boring_view_url":1,"soilmap_view_url":null,"soiltest_xml_url":0,"soiltest_view_url":0},{"id":518150,"code":"B4KJ202201002-0686","latitude":"35.050325","longitude":"136.011722","source_code":"KK168632330400230037","project_name":"\u91ce\u6d32\u6817\u6771\u30d0\u30a4\u30d1\u30b9\u5730\u8cea\u8abf\u67fb\u696d\u52d9","survey_name":"\u91ce\u6d32\u6817\u6771\u30d0\u30a4\u30d1\u30b9\u5730\u8cea\u8abf\u67fb\u696d\u52d9","client_name":"\u56fd\u571f\u4ea4\u901a\u7701\u8fd1\u757f\u5730\u65b9\u6574\u5099\u5c40\u6ecb\u8cc0\u56fd\u9053\u4e8b\u52d9\u6240","boring_xml_url":68,"boring_view_url":1,"soilmap_view_url":null,"soiltest_xml_url":0,"soiltest_view_url":0},{"id":518149,"code":"B4KJ202201002-0685","latitude":"35.050692","longitude":"136.012133","source_code":"KK168632330400230036","project_name":"\u91ce\u6d32\u6817\u6771\u30d0\u30a4\u30d1\u30b9\u5730\u8cea\u8abf\u67fb\u696d\u52d9","survey_name":"\u91ce\u6d32\u6817\u6771\u30d0\u30a4\u30d1\u30b9\u5730\u8cea\u8abf\u67fb\u696d\u52d9","client_name":"\u56fd\u571f\u4ea4\u901a\u7701\u8fd1\u757f\u5730\u65b9\u6574\u5099\u5c40\u6ecb\u8cc0\u56fd\u9053\u4e8b\u52d9\u6240","boring_xml_url":68,"boring_view_url":1,"soilmap_view_url":null,"soiltest_xml_url":0,"soiltest_view_url":0}]}}