{"header":{"xyz":{"source":[],"mosaic":false},"page":909,"raw":{"soiltest_result":"0","bbox":"57.598333,109.544722,1.933333,163.806111","page":"909"},"conditions":{"soiltest_result":0,"north":57.598333,"west":109.544722,"south":1.933333,"east":163.806111},"success":true,"message":""},"data":{"meta":{"total":212844,"page":909,"pages":7095,"count":30},"values":[{"id":518148,"code":"B4KJ202201002-0684","latitude":"35.051075","longitude":"136.012572","source_code":"KK168632330400230035","project_name":"\u91ce\u6d32\u6817\u6771\u30d0\u30a4\u30d1\u30b9\u5730\u8cea\u8abf\u67fb\u696d\u52d9","survey_name":"\u91ce\u6d32\u6817\u6771\u30d0\u30a4\u30d1\u30b9\u5730\u8cea\u8abf\u67fb\u696d\u52d9","client_name":"\u56fd\u571f\u4ea4\u901a\u7701\u8fd1\u757f\u5730\u65b9\u6574\u5099\u5c40\u6ecb\u8cc0\u56fd\u9053\u4e8b\u52d9\u6240","boring_xml_url":68,"boring_view_url":1,"soilmap_view_url":null,"soiltest_xml_url":0,"soiltest_view_url":0},{"id":518147,"code":"B4KJ202201002-0683","latitude":"35.051461","longitude":"136.013025","source_code":"KK168632330400230034","project_name":"\u91ce\u6d32\u6817\u6771\u30d0\u30a4\u30d1\u30b9\u5730\u8cea\u8abf\u67fb\u696d\u52d9","survey_name":"\u91ce\u6d32\u6817\u6771\u30d0\u30a4\u30d1\u30b9\u5730\u8cea\u8abf\u67fb\u696d\u52d9","client_name":"\u56fd\u571f\u4ea4\u901a\u7701\u8fd1\u757f\u5730\u65b9\u6574\u5099\u5c40\u6ecb\u8cc0\u56fd\u9053\u4e8b\u52d9\u6240","boring_xml_url":68,"boring_view_url":1,"soilmap_view_url":null,"soiltest_xml_url":0,"soiltest_view_url":0},{"id":518146,"code":"B4KJ202201002-0682","latitude":"35.051847","longitude":"136.013486","source_code":"KK168632330400230033","project_name":"\u91ce\u6d32\u6817\u6771\u30d0\u30a4\u30d1\u30b9\u5730\u8cea\u8abf\u67fb\u696d\u52d9","survey_name":"\u91ce\u6d32\u6817\u6771\u30d0\u30a4\u30d1\u30b9\u5730\u8cea\u8abf\u67fb\u696d\u52d9","client_name":"\u56fd\u571f\u4ea4\u901a\u7701\u8fd1\u757f\u5730\u65b9\u6574\u5099\u5c40\u6ecb\u8cc0\u56fd\u9053\u4e8b\u52d9\u6240","boring_xml_url":68,"boring_view_url":1,"soilmap_view_url":null,"soiltest_xml_url":0,"soiltest_view_url":0},{"id":518145,"code":"B4KJ202201002-0681","latitude":"35.052219","longitude":"136.013944","source_code":"KK168632330400230032","project_name":"\u91ce\u6d32\u6817\u6771\u30d0\u30a4\u30d1\u30b9\u5730\u8cea\u8abf\u67fb\u696d\u52d9","survey_name":"\u91ce\u6d32\u6817\u6771\u30d0\u30a4\u30d1\u30b9\u5730\u8cea\u8abf\u67fb\u696d\u52d9","client_name":"\u56fd\u571f\u4ea4\u901a\u7701\u8fd1\u757f\u5730\u65b9\u6574\u5099\u5c40\u6ecb\u8cc0\u56fd\u9053\u4e8b\u52d9\u6240","boring_xml_url":68,"boring_view_url":1,"soilmap_view_url":null,"soiltest_xml_url":0,"soiltest_view_url":0},{"id":518144,"code":"B4KJ202201002-0680","latitude":"35.052586","longitude":"136.014406","source_code":"KK168632330400230031","project_name":"\u91ce\u6d32\u6817\u6771\u30d0\u30a4\u30d1\u30b9\u5730\u8cea\u8abf\u67fb\u696d\u52d9","survey_name":"\u91ce\u6d32\u6817\u6771\u30d0\u30a4\u30d1\u30b9\u5730\u8cea\u8abf\u67fb\u696d\u52d9","client_name":"\u56fd\u571f\u4ea4\u901a\u7701\u8fd1\u757f\u5730\u65b9\u6574\u5099\u5c40\u6ecb\u8cc0\u56fd\u9053\u4e8b\u52d9\u6240","boring_xml_url":68,"boring_view_url":1,"soilmap_view_url":null,"soiltest_xml_url":0,"soiltest_view_url":0},{"id":518143,"code":"B4KJ202201002-0679","latitude":"35.052953","longitude":"136.014878","source_code":"KK168632330400230030","project_name":"\u91ce\u6d32\u6817\u6771\u30d0\u30a4\u30d1\u30b9\u5730\u8cea\u8abf\u67fb\u696d\u52d9","survey_name":"\u91ce\u6d32\u6817\u6771\u30d0\u30a4\u30d1\u30b9\u5730\u8cea\u8abf\u67fb\u696d\u52d9","client_name":"\u56fd\u571f\u4ea4\u901a\u7701\u8fd1\u757f\u5730\u65b9\u6574\u5099\u5c40\u6ecb\u8cc0\u56fd\u9053\u4e8b\u52d9\u6240","boring_xml_url":68,"boring_view_url":1,"soilmap_view_url":null,"soiltest_xml_url":0,"soiltest_view_url":0},{"id":518142,"code":"B4KJ202201002-0678","latitude":"35.053486","longitude":"136.015583","source_code":"KK168632330400230029","project_name":"\u91ce\u6d32\u6817\u6771\u30d0\u30a4\u30d1\u30b9\u5730\u8cea\u8abf\u67fb\u696d\u52d9","survey_name":"\u91ce\u6d32\u6817\u6771\u30d0\u30a4\u30d1\u30b9\u5730\u8cea\u8abf\u67fb\u696d\u52d9","client_name":"\u56fd\u571f\u4ea4\u901a\u7701\u8fd1\u757f\u5730\u65b9\u6574\u5099\u5c40\u6ecb\u8cc0\u56fd\u9053\u4e8b\u52d9\u6240","boring_xml_url":68,"boring_view_url":1,"soilmap_view_url":null,"soiltest_xml_url":0,"soiltest_view_url":0},{"id":518141,"code":"B4KJ202201002-0677","latitude":"35.055525","longitude":"136.018367","source_code":"KK168632330400230028","project_name":"\u91ce\u6d32\u6817\u6771\u30d0\u30a4\u30d1\u30b9\u5730\u8cea\u8abf\u67fb\u696d\u52d9","survey_name":"\u91ce\u6d32\u6817\u6771\u30d0\u30a4\u30d1\u30b9\u5730\u8cea\u8abf\u67fb\u696d\u52d9","client_name":"\u56fd\u571f\u4ea4\u901a\u7701\u8fd1\u757f\u5730\u65b9\u6574\u5099\u5c40\u6ecb\u8cc0\u56fd\u9053\u4e8b\u52d9\u6240","boring_xml_url":68,"boring_view_url":1,"soilmap_view_url":null,"soiltest_xml_url":0,"soiltest_view_url":0},{"id":518140,"code":"B4KJ202201002-0676","latitude":"35.055589","longitude":"136.018844","source_code":"KK168632330400230027","project_name":"\u91ce\u6d32\u6817\u6771\u30d0\u30a4\u30d1\u30b9\u5730\u8cea\u8abf\u67fb\u696d\u52d9","survey_name":"\u91ce\u6d32\u6817\u6771\u30d0\u30a4\u30d1\u30b9\u5730\u8cea\u8abf\u67fb\u696d\u52d9","client_name":"\u56fd\u571f\u4ea4\u901a\u7701\u8fd1\u757f\u5730\u65b9\u6574\u5099\u5c40\u6ecb\u8cc0\u56fd\u9053\u4e8b\u52d9\u6240","boring_xml_url":68,"boring_view_url":1,"soilmap_view_url":null,"soiltest_xml_url":0,"soiltest_view_url":0},{"id":518139,"code":"B4KJ202201002-0675","latitude":"35.055761","longitude":"136.019172","source_code":"KK168632330400230026","project_name":"\u91ce\u6d32\u6817\u6771\u30d0\u30a4\u30d1\u30b9\u5730\u8cea\u8abf\u67fb\u696d\u52d9","survey_name":"\u91ce\u6d32\u6817\u6771\u30d0\u30a4\u30d1\u30b9\u5730\u8cea\u8abf\u67fb\u696d\u52d9","client_name":"\u56fd\u571f\u4ea4\u901a\u7701\u8fd1\u757f\u5730\u65b9\u6574\u5099\u5c40\u6ecb\u8cc0\u56fd\u9053\u4e8b\u52d9\u6240","boring_xml_url":68,"boring_view_url":1,"soilmap_view_url":null,"soiltest_xml_url":0,"soiltest_view_url":0},{"id":518138,"code":"B4KJ202201002-0674","latitude":"35.055928","longitude":"136.019506","source_code":"KK168632330400230025","project_name":"\u91ce\u6d32\u6817\u6771\u30d0\u30a4\u30d1\u30b9\u5730\u8cea\u8abf\u67fb\u696d\u52d9","survey_name":"\u91ce\u6d32\u6817\u6771\u30d0\u30a4\u30d1\u30b9\u5730\u8cea\u8abf\u67fb\u696d\u52d9","client_name":"\u56fd\u571f\u4ea4\u901a\u7701\u8fd1\u757f\u5730\u65b9\u6574\u5099\u5c40\u6ecb\u8cc0\u56fd\u9053\u4e8b\u52d9\u6240","boring_xml_url":68,"boring_view_url":1,"soilmap_view_url":null,"soiltest_xml_url":0,"soiltest_view_url":0},{"id":518137,"code":"B4KJ202201002-0673","latitude":"35.056119","longitude":"136.019819","source_code":"KK168632330400230024","project_name":"\u91ce\u6d32\u6817\u6771\u30d0\u30a4\u30d1\u30b9\u5730\u8cea\u8abf\u67fb\u696d\u52d9","survey_name":"\u91ce\u6d32\u6817\u6771\u30d0\u30a4\u30d1\u30b9\u5730\u8cea\u8abf\u67fb\u696d\u52d9","client_name":"\u56fd\u571f\u4ea4\u901a\u7701\u8fd1\u757f\u5730\u65b9\u6574\u5099\u5c40\u6ecb\u8cc0\u56fd\u9053\u4e8b\u52d9\u6240","boring_xml_url":68,"boring_view_url":1,"soilmap_view_url":null,"soiltest_xml_url":0,"soiltest_view_url":0},{"id":518136,"code":"B4KJ202201002-0672","latitude":"35.056242","longitude":"136.020183","source_code":"KK168632330400230023","project_name":"\u91ce\u6d32\u6817\u6771\u30d0\u30a4\u30d1\u30b9\u5730\u8cea\u8abf\u67fb\u696d\u52d9","survey_name":"\u91ce\u6d32\u6817\u6771\u30d0\u30a4\u30d1\u30b9\u5730\u8cea\u8abf\u67fb\u696d\u52d9","client_name":"\u56fd\u571f\u4ea4\u901a\u7701\u8fd1\u757f\u5730\u65b9\u6574\u5099\u5c40\u6ecb\u8cc0\u56fd\u9053\u4e8b\u52d9\u6240","boring_xml_url":68,"boring_view_url":1,"soilmap_view_url":null,"soiltest_xml_url":0,"soiltest_view_url":0},{"id":518135,"code":"B4KJ202201002-0671","latitude":"35.056378","longitude":"136.020475","source_code":"KK168632330400230022","project_name":"\u91ce\u6d32\u6817\u6771\u30d0\u30a4\u30d1\u30b9\u5730\u8cea\u8abf\u67fb\u696d\u52d9","survey_name":"\u91ce\u6d32\u6817\u6771\u30d0\u30a4\u30d1\u30b9\u5730\u8cea\u8abf\u67fb\u696d\u52d9","client_name":"\u56fd\u571f\u4ea4\u901a\u7701\u8fd1\u757f\u5730\u65b9\u6574\u5099\u5c40\u6ecb\u8cc0\u56fd\u9053\u4e8b\u52d9\u6240","boring_xml_url":68,"boring_view_url":1,"soilmap_view_url":null,"soiltest_xml_url":0,"soiltest_view_url":0},{"id":518134,"code":"B4KJ202201002-0670","latitude":"35.056506","longitude":"136.020769","source_code":"KK168632330400230021","project_name":"\u91ce\u6d32\u6817\u6771\u30d0\u30a4\u30d1\u30b9\u5730\u8cea\u8abf\u67fb\u696d\u52d9","survey_name":"\u91ce\u6d32\u6817\u6771\u30d0\u30a4\u30d1\u30b9\u5730\u8cea\u8abf\u67fb\u696d\u52d9","client_name":"\u56fd\u571f\u4ea4\u901a\u7701\u8fd1\u757f\u5730\u65b9\u6574\u5099\u5c40\u6ecb\u8cc0\u56fd\u9053\u4e8b\u52d9\u6240","boring_xml_url":68,"boring_view_url":1,"soilmap_view_url":null,"soiltest_xml_url":0,"soiltest_view_url":0},{"id":518133,"code":"B4KJ202201002-0669","latitude":"35.056617","longitude":"136.021039","source_code":"KK168632330400230020","project_name":"\u91ce\u6d32\u6817\u6771\u30d0\u30a4\u30d1\u30b9\u5730\u8cea\u8abf\u67fb\u696d\u52d9","survey_name":"\u91ce\u6d32\u6817\u6771\u30d0\u30a4\u30d1\u30b9\u5730\u8cea\u8abf\u67fb\u696d\u52d9","client_name":"\u56fd\u571f\u4ea4\u901a\u7701\u8fd1\u757f\u5730\u65b9\u6574\u5099\u5c40\u6ecb\u8cc0\u56fd\u9053\u4e8b\u52d9\u6240","boring_xml_url":68,"boring_view_url":1,"soilmap_view_url":null,"soiltest_xml_url":0,"soiltest_view_url":0},{"id":518132,"code":"B4KJ202201002-0668","latitude":"35.056728","longitude":"136.021303","source_code":"KK168632330400230019","project_name":"\u91ce\u6d32\u6817\u6771\u30d0\u30a4\u30d1\u30b9\u5730\u8cea\u8abf\u67fb\u696d\u52d9","survey_name":"\u91ce\u6d32\u6817\u6771\u30d0\u30a4\u30d1\u30b9\u5730\u8cea\u8abf\u67fb\u696d\u52d9","client_name":"\u56fd\u571f\u4ea4\u901a\u7701\u8fd1\u757f\u5730\u65b9\u6574\u5099\u5c40\u6ecb\u8cc0\u56fd\u9053\u4e8b\u52d9\u6240","boring_xml_url":68,"boring_view_url":1,"soilmap_view_url":null,"soiltest_xml_url":0,"soiltest_view_url":0},{"id":518131,"code":"B4KJ202201002-0667","latitude":"35.056836","longitude":"136.021567","source_code":"KK168632330400230018","project_name":"\u91ce\u6d32\u6817\u6771\u30d0\u30a4\u30d1\u30b9\u5730\u8cea\u8abf\u67fb\u696d\u52d9","survey_name":"\u91ce\u6d32\u6817\u6771\u30d0\u30a4\u30d1\u30b9\u5730\u8cea\u8abf\u67fb\u696d\u52d9","client_name":"\u56fd\u571f\u4ea4\u901a\u7701\u8fd1\u757f\u5730\u65b9\u6574\u5099\u5c40\u6ecb\u8cc0\u56fd\u9053\u4e8b\u52d9\u6240","boring_xml_url":68,"boring_view_url":1,"soilmap_view_url":null,"soiltest_xml_url":0,"soiltest_view_url":0},{"id":518130,"code":"B4KJ202201002-0666","latitude":"35.057056","longitude":"136.022078","source_code":"KK168632330400230017","project_name":"\u91ce\u6d32\u6817\u6771\u30d0\u30a4\u30d1\u30b9\u5730\u8cea\u8abf\u67fb\u696d\u52d9","survey_name":"\u91ce\u6d32\u6817\u6771\u30d0\u30a4\u30d1\u30b9\u5730\u8cea\u8abf\u67fb\u696d\u52d9","client_name":"\u56fd\u571f\u4ea4\u901a\u7701\u8fd1\u757f\u5730\u65b9\u6574\u5099\u5c40\u6ecb\u8cc0\u56fd\u9053\u4e8b\u52d9\u6240","boring_xml_url":68,"boring_view_url":1,"soilmap_view_url":null,"soiltest_xml_url":0,"soiltest_view_url":0},{"id":518129,"code":"B4KJ202201002-0665","latitude":"35.057286","longitude":"136.022581","source_code":"KK168632330400230016","project_name":"\u91ce\u6d32\u6817\u6771\u30d0\u30a4\u30d1\u30b9\u5730\u8cea\u8abf\u67fb\u696d\u52d9","survey_name":"\u91ce\u6d32\u6817\u6771\u30d0\u30a4\u30d1\u30b9\u5730\u8cea\u8abf\u67fb\u696d\u52d9","client_name":"\u56fd\u571f\u4ea4\u901a\u7701\u8fd1\u757f\u5730\u65b9\u6574\u5099\u5c40\u6ecb\u8cc0\u56fd\u9053\u4e8b\u52d9\u6240","boring_xml_url":68,"boring_view_url":1,"soilmap_view_url":null,"soiltest_xml_url":0,"soiltest_view_url":0},{"id":518128,"code":"B4KJ202201002-0664","latitude":"35.057533","longitude":"136.023089","source_code":"KK168632330400230015","project_name":"\u91ce\u6d32\u6817\u6771\u30d0\u30a4\u30d1\u30b9\u5730\u8cea\u8abf\u67fb\u696d\u52d9","survey_name":"\u91ce\u6d32\u6817\u6771\u30d0\u30a4\u30d1\u30b9\u5730\u8cea\u8abf\u67fb\u696d\u52d9","client_name":"\u56fd\u571f\u4ea4\u901a\u7701\u8fd1\u757f\u5730\u65b9\u6574\u5099\u5c40\u6ecb\u8cc0\u56fd\u9053\u4e8b\u52d9\u6240","boring_xml_url":68,"boring_view_url":1,"soilmap_view_url":null,"soiltest_xml_url":0,"soiltest_view_url":0},{"id":518127,"code":"B4KJ202201002-0663","latitude":"35.057739","longitude":"136.023489","source_code":"KK168632330400230014","project_name":"\u91ce\u6d32\u6817\u6771\u30d0\u30a4\u30d1\u30b9\u5730\u8cea\u8abf\u67fb\u696d\u52d9","survey_name":"\u91ce\u6d32\u6817\u6771\u30d0\u30a4\u30d1\u30b9\u5730\u8cea\u8abf\u67fb\u696d\u52d9","client_name":"\u56fd\u571f\u4ea4\u901a\u7701\u8fd1\u757f\u5730\u65b9\u6574\u5099\u5c40\u6ecb\u8cc0\u56fd\u9053\u4e8b\u52d9\u6240","boring_xml_url":68,"boring_view_url":1,"soilmap_view_url":null,"soiltest_xml_url":0,"soiltest_view_url":0},{"id":518126,"code":"B4KJ202201002-0662","latitude":"35.05795","longitude":"136.023886","source_code":"KK168632330400230013","project_name":"\u91ce\u6d32\u6817\u6771\u30d0\u30a4\u30d1\u30b9\u5730\u8cea\u8abf\u67fb\u696d\u52d9","survey_name":"\u91ce\u6d32\u6817\u6771\u30d0\u30a4\u30d1\u30b9\u5730\u8cea\u8abf\u67fb\u696d\u52d9","client_name":"\u56fd\u571f\u4ea4\u901a\u7701\u8fd1\u757f\u5730\u65b9\u6574\u5099\u5c40\u6ecb\u8cc0\u56fd\u9053\u4e8b\u52d9\u6240","boring_xml_url":68,"boring_view_url":1,"soilmap_view_url":null,"soiltest_xml_url":0,"soiltest_view_url":0},{"id":518125,"code":"B4KJ202201002-0661","latitude":"35.058092","longitude":"136.024139","source_code":"KK168632330400230012","project_name":"\u91ce\u6d32\u6817\u6771\u30d0\u30a4\u30d1\u30b9\u5730\u8cea\u8abf\u67fb\u696d\u52d9","survey_name":"\u91ce\u6d32\u6817\u6771\u30d0\u30a4\u30d1\u30b9\u5730\u8cea\u8abf\u67fb\u696d\u52d9","client_name":"\u56fd\u571f\u4ea4\u901a\u7701\u8fd1\u757f\u5730\u65b9\u6574\u5099\u5c40\u6ecb\u8cc0\u56fd\u9053\u4e8b\u52d9\u6240","boring_xml_url":68,"boring_view_url":1,"soilmap_view_url":null,"soiltest_xml_url":0,"soiltest_view_url":0},{"id":518124,"code":"B4KJ202201002-0660","latitude":"35.058236","longitude":"136.024389","source_code":"KK168632330400230011","project_name":"\u91ce\u6d32\u6817\u6771\u30d0\u30a4\u30d1\u30b9\u5730\u8cea\u8abf\u67fb\u696d\u52d9","survey_name":"\u91ce\u6d32\u6817\u6771\u30d0\u30a4\u30d1\u30b9\u5730\u8cea\u8abf\u67fb\u696d\u52d9","client_name":"\u56fd\u571f\u4ea4\u901a\u7701\u8fd1\u757f\u5730\u65b9\u6574\u5099\u5c40\u6ecb\u8cc0\u56fd\u9053\u4e8b\u52d9\u6240","boring_xml_url":68,"boring_view_url":1,"soilmap_view_url":null,"soiltest_xml_url":0,"soiltest_view_url":0},{"id":518123,"code":"B4KJ202201002-0659","latitude":"35.058383","longitude":"136.024639","source_code":"KK168632330400230010","project_name":"\u91ce\u6d32\u6817\u6771\u30d0\u30a4\u30d1\u30b9\u5730\u8cea\u8abf\u67fb\u696d\u52d9","survey_name":"\u91ce\u6d32\u6817\u6771\u30d0\u30a4\u30d1\u30b9\u5730\u8cea\u8abf\u67fb\u696d\u52d9","client_name":"\u56fd\u571f\u4ea4\u901a\u7701\u8fd1\u757f\u5730\u65b9\u6574\u5099\u5c40\u6ecb\u8cc0\u56fd\u9053\u4e8b\u52d9\u6240","boring_xml_url":68,"boring_view_url":1,"soilmap_view_url":null,"soiltest_xml_url":0,"soiltest_view_url":0},{"id":518122,"code":"B4KJ202201002-0658","latitude":"35.058536","longitude":"136.024886","source_code":"KK168632330400230009","project_name":"\u91ce\u6d32\u6817\u6771\u30d0\u30a4\u30d1\u30b9\u5730\u8cea\u8abf\u67fb\u696d\u52d9","survey_name":"\u91ce\u6d32\u6817\u6771\u30d0\u30a4\u30d1\u30b9\u5730\u8cea\u8abf\u67fb\u696d\u52d9","client_name":"\u56fd\u571f\u4ea4\u901a\u7701\u8fd1\u757f\u5730\u65b9\u6574\u5099\u5c40\u6ecb\u8cc0\u56fd\u9053\u4e8b\u52d9\u6240","boring_xml_url":68,"boring_view_url":1,"soilmap_view_url":null,"soiltest_xml_url":0,"soiltest_view_url":0},{"id":518121,"code":"B4KJ202201002-0657","latitude":"35.058725","longitude":"136.025094","source_code":"KK168632330400230008","project_name":"\u91ce\u6d32\u6817\u6771\u30d0\u30a4\u30d1\u30b9\u5730\u8cea\u8abf\u67fb\u696d\u52d9","survey_name":"\u91ce\u6d32\u6817\u6771\u30d0\u30a4\u30d1\u30b9\u5730\u8cea\u8abf\u67fb\u696d\u52d9","client_name":"\u56fd\u571f\u4ea4\u901a\u7701\u8fd1\u757f\u5730\u65b9\u6574\u5099\u5c40\u6ecb\u8cc0\u56fd\u9053\u4e8b\u52d9\u6240","boring_xml_url":68,"boring_view_url":1,"soilmap_view_url":null,"soiltest_xml_url":0,"soiltest_view_url":0},{"id":518120,"code":"B4KJ202201002-0656","latitude":"35.058836","longitude":"136.025378","source_code":"KK168632330400230007","project_name":"\u91ce\u6d32\u6817\u6771\u30d0\u30a4\u30d1\u30b9\u5730\u8cea\u8abf\u67fb\u696d\u52d9","survey_name":"\u91ce\u6d32\u6817\u6771\u30d0\u30a4\u30d1\u30b9\u5730\u8cea\u8abf\u67fb\u696d\u52d9","client_name":"\u56fd\u571f\u4ea4\u901a\u7701\u8fd1\u757f\u5730\u65b9\u6574\u5099\u5c40\u6ecb\u8cc0\u56fd\u9053\u4e8b\u52d9\u6240","boring_xml_url":68,"boring_view_url":1,"soilmap_view_url":null,"soiltest_xml_url":0,"soiltest_view_url":0},{"id":518119,"code":"B4KJ202201002-0655","latitude":"35.059003","longitude":"136.025608","source_code":"KK168632330400230006","project_name":"\u91ce\u6d32\u6817\u6771\u30d0\u30a4\u30d1\u30b9\u5730\u8cea\u8abf\u67fb\u696d\u52d9","survey_name":"\u91ce\u6d32\u6817\u6771\u30d0\u30a4\u30d1\u30b9\u5730\u8cea\u8abf\u67fb\u696d\u52d9","client_name":"\u56fd\u571f\u4ea4\u901a\u7701\u8fd1\u757f\u5730\u65b9\u6574\u5099\u5c40\u6ecb\u8cc0\u56fd\u9053\u4e8b\u52d9\u6240","boring_xml_url":68,"boring_view_url":1,"soilmap_view_url":null,"soiltest_xml_url":0,"soiltest_view_url":0}]}}