{"header":{"xyz":{"source":[],"mosaic":false},"page":91,"raw":{"soiltest_result":"0","bbox":"57.598333,109.544722,1.933333,163.806111","page":"91"},"conditions":{"soiltest_result":0,"north":57.598333,"west":109.544722,"south":1.933333,"east":163.806111},"success":true,"message":""},"data":{"meta":{"total":212844,"page":91,"pages":7095,"count":30},"values":[{"id":694208,"code":"NGIC202304184-0001","latitude":"39.120738194444","longitude":"140.20498652778","source_code":"","project_name":"","survey_name":"\u9ce5\u6d77\u30c0\u30e0\u8caf\u6c34\u6c60\u5730\u8cea\u8abf\u67fb\u696d\u52d9","client_name":"\u56fd\u571f\u4ea4\u901a\u7701\u6771\u5317\u5730\u65b9\u6574\u5099\u5c40\u9ce5\u6d77\u30c0\u30e0\u5de5\u4e8b\u4e8b\u52d9\u6240","boring_xml_url":47,"boring_view_url":1,"soilmap_view_url":null,"soiltest_xml_url":47,"soiltest_view_url":47},{"id":694201,"code":"NGIC202303865-0004","latitude":"35.530161166667","longitude":"134.20191847222","source_code":"","project_name":"","survey_name":"\u4ee4\u548c4\u5e74\u5ea6\u5343\u4ee3\u5ddd\u6c34\u7cfb\u6e2c\u91cf\u8a2d\u8a08\u696d\u52d9","client_name":"\u56fd\u571f\u4ea4\u901a\u7701\u4e2d\u56fd\u5730\u65b9\u6574\u5099\u5c40\u9ce5\u53d6\u6cb3\u5ddd\u56fd\u9053\u4e8b\u52d9\u6240","boring_xml_url":47,"boring_view_url":1,"soilmap_view_url":null,"soiltest_xml_url":47,"soiltest_view_url":47},{"id":694200,"code":"NGIC202303865-0003","latitude":"35.53169875","longitude":"134.20070952778","source_code":"","project_name":"","survey_name":"\u4ee4\u548c4\u5e74\u5ea6\u5343\u4ee3\u5ddd\u6c34\u7cfb\u6e2c\u91cf\u8a2d\u8a08\u696d\u52d9","client_name":"\u56fd\u571f\u4ea4\u901a\u7701\u4e2d\u56fd\u5730\u65b9\u6574\u5099\u5c40\u9ce5\u53d6\u6cb3\u5ddd\u56fd\u9053\u4e8b\u52d9\u6240","boring_xml_url":47,"boring_view_url":1,"soilmap_view_url":null,"soiltest_xml_url":47,"soiltest_view_url":47},{"id":694199,"code":"NGIC202303865-0002","latitude":"35.535412083333","longitude":"134.19968908333","source_code":"","project_name":"","survey_name":"\u4ee4\u548c4\u5e74\u5ea6\u5343\u4ee3\u5ddd\u6c34\u7cfb\u6e2c\u91cf\u8a2d\u8a08\u696d\u52d9","client_name":"\u56fd\u571f\u4ea4\u901a\u7701\u4e2d\u56fd\u5730\u65b9\u6574\u5099\u5c40\u9ce5\u53d6\u6cb3\u5ddd\u56fd\u9053\u4e8b\u52d9\u6240","boring_xml_url":47,"boring_view_url":1,"soilmap_view_url":null,"soiltest_xml_url":47,"soiltest_view_url":47},{"id":694198,"code":"NGIC202303865-0001","latitude":"35.541762361111","longitude":"134.19561136111","source_code":"","project_name":"","survey_name":"\u4ee4\u548c4\u5e74\u5ea6\u5343\u4ee3\u5ddd\u6c34\u7cfb\u6e2c\u91cf\u8a2d\u8a08\u696d\u52d9","client_name":"\u56fd\u571f\u4ea4\u901a\u7701\u4e2d\u56fd\u5730\u65b9\u6574\u5099\u5c40\u9ce5\u53d6\u6cb3\u5ddd\u56fd\u9053\u4e8b\u52d9\u6240","boring_xml_url":47,"boring_view_url":1,"soilmap_view_url":null,"soiltest_xml_url":47,"soiltest_view_url":47},{"id":694151,"code":"NGIC202303961-0002","latitude":"34.768416666667","longitude":"131.93436111111","source_code":"","project_name":"","survey_name":"\u4ee4\u548c5\u5e74\u5ea6\u6d5c\u7530\u6cb3\u5ddd\u56fd\u9053\u9053\u8def\u7ba1\u7406\u6e2c\u91cf\u8a2d\u8a08\u696d\u52d9","client_name":"\u56fd\u571f\u4ea4\u901a\u7701\u4e2d\u56fd\u5730\u65b9\u6574\u5099\u5c40\u6d5c\u7530\u6cb3\u5ddd\u56fd\u9053\u4e8b\u52d9\u6240","boring_xml_url":47,"boring_view_url":1,"soilmap_view_url":null,"soiltest_xml_url":0,"soiltest_view_url":0},{"id":694150,"code":"NGIC202303961-0001","latitude":"34.768555555556","longitude":"131.93477777778","source_code":"","project_name":"","survey_name":"\u4ee4\u548c5\u5e74\u5ea6\u6d5c\u7530\u6cb3\u5ddd\u56fd\u9053\u9053\u8def\u7ba1\u7406\u6e2c\u91cf\u8a2d\u8a08\u696d\u52d9","client_name":"\u56fd\u571f\u4ea4\u901a\u7701\u4e2d\u56fd\u5730\u65b9\u6574\u5099\u5c40\u6d5c\u7530\u6cb3\u5ddd\u56fd\u9053\u4e8b\u52d9\u6240","boring_xml_url":47,"boring_view_url":1,"soilmap_view_url":null,"soiltest_xml_url":0,"soiltest_view_url":0},{"id":694138,"code":"NGIC202303987-0003","latitude":"41.868876916667","longitude":"140.60093008333","source_code":"","project_name":"\u56fd\u55b6\u571f\u5730\u6539\u826f\u4e8b\u696d\u5730\u533a\u8abf\u67fb\u5317\u6597\u7528\u6c34\u5730\u533a","survey_name":"\u5317\u6597\u5730\u533a\u4e8b\u696d\u8a08\u753b\u7b56\u5b9a\u7b49\u696d\u52d9","client_name":"\u56fd\u571f\u4ea4\u901a\u7701\u5317\u6d77\u9053\u958b\u767a\u5c40\u51fd\u9928\u958b\u767a\u5efa\u8a2d\u90e8\u8fb2\u696d\u958b\u767a\u8ab2","boring_xml_url":47,"boring_view_url":1,"soilmap_view_url":null,"soiltest_xml_url":0,"soiltest_view_url":0},{"id":694137,"code":"NGIC202303987-0002","latitude":"41.875211888889","longitude":"140.60403266667","source_code":"","project_name":"\u56fd\u55b6\u571f\u5730\u6539\u826f\u4e8b\u696d\u5730\u533a\u8abf\u67fb\u5317\u6597\u7528\u6c34\u5730\u533a","survey_name":"\u5317\u6597\u5730\u533a\u4e8b\u696d\u8a08\u753b\u7b56\u5b9a\u7b49\u696d\u52d9","client_name":"\u56fd\u571f\u4ea4\u901a\u7701\u5317\u6d77\u9053\u958b\u767a\u5c40\u51fd\u9928\u958b\u767a\u5efa\u8a2d\u90e8\u8fb2\u696d\u958b\u767a\u8ab2","boring_xml_url":47,"boring_view_url":1,"soilmap_view_url":null,"soiltest_xml_url":0,"soiltest_view_url":0},{"id":694136,"code":"NGIC202303987-0001","latitude":"41.875963777778","longitude":"140.60595513889","source_code":"","project_name":"\u56fd\u55b6\u571f\u5730\u6539\u826f\u4e8b\u696d\u5730\u533a\u8abf\u67fb\u5317\u6597\u7528\u6c34\u5730\u533a","survey_name":"\u5317\u6597\u5730\u533a\u4e8b\u696d\u8a08\u753b\u7b56\u5b9a\u7b49\u696d\u52d9","client_name":"\u56fd\u571f\u4ea4\u901a\u7701\u5317\u6d77\u9053\u958b\u767a\u5c40\u51fd\u9928\u958b\u767a\u5efa\u8a2d\u90e8\u8fb2\u696d\u958b\u767a\u8ab2","boring_xml_url":47,"boring_view_url":1,"soilmap_view_url":null,"soiltest_xml_url":0,"soiltest_view_url":0},{"id":694135,"code":"NGIC202303984-0001","latitude":"42.912258333333","longitude":"141.91544166667","source_code":"","project_name":"","survey_name":"\u5915\u5f35\u5ddd\u5730\u57df \u5ddd\u7aef\u30c0\u30e0\u65bd\u8a2d\u8a08\u753b\u691c\u8a0e\u7b49\u696d\u52d9","client_name":"\u56fd\u571f\u4ea4\u901a\u7701\u5317\u6d77\u9053\u958b\u767a\u5c40\u672d\u5e4c\u958b\u767a\u5efa\u8a2d\u90e8\u672c\u90e8","boring_xml_url":47,"boring_view_url":1,"soilmap_view_url":null,"soiltest_xml_url":0,"soiltest_view_url":0},{"id":694066,"code":"NGIC202304124-0014","latitude":"43.036003888889","longitude":"144.31750916667","source_code":"","project_name":"","survey_name":"\u4e00\u822c\u56fd\u905344\u53f7\u539a\u5cb8\u753a\u5c3e\u5e4c\u7cf8\u9b5a\u6ca2\u9053\u8def\u5730\u8cea\u8abf\u67fb\u696d\u52d9","client_name":"\u56fd\u571f\u4ea4\u901a\u7701\u5317\u6d77\u9053\u958b\u767a\u5c40\u91e7\u8def\u958b\u767a\u5efa\u8a2d\u90e8\u672c\u90e8","boring_xml_url":47,"boring_view_url":1,"soilmap_view_url":null,"soiltest_xml_url":47,"soiltest_view_url":47},{"id":694065,"code":"NGIC202304124-0013","latitude":"43.109368333333","longitude":"144.90265222222","source_code":"","project_name":"","survey_name":"\u4e00\u822c\u56fd\u905344\u53f7\u539a\u5cb8\u753a\u5c3e\u5e4c\u7cf8\u9b5a\u6ca2\u9053\u8def\u5730\u8cea\u8abf\u67fb\u696d\u52d9","client_name":"\u56fd\u571f\u4ea4\u901a\u7701\u5317\u6d77\u9053\u958b\u767a\u5c40\u91e7\u8def\u958b\u767a\u5efa\u8a2d\u90e8\u672c\u90e8","boring_xml_url":47,"boring_view_url":1,"soilmap_view_url":null,"soiltest_xml_url":0,"soiltest_view_url":0},{"id":694064,"code":"NGIC202304124-0012","latitude":"43.102611944444","longitude":"144.86600666667","source_code":"","project_name":"","survey_name":"\u4e00\u822c\u56fd\u905344\u53f7 \u539a\u5cb8\u753a \u5c3e\u5e4c\u7cf8\u9b5a\u6ca2\u9053\u8def\u5730\u8cea\u8abf\u67fb\u696d\u52d9","client_name":"\u56fd\u571f\u4ea4\u901a\u7701\u5317\u6d77\u9053\u958b\u767a\u5c40\u91e7\u8def\u958b\u767a\u5efa\u8a2d\u90e8\u672c\u90e8","boring_xml_url":47,"boring_view_url":1,"soilmap_view_url":null,"soiltest_xml_url":0,"soiltest_view_url":0},{"id":694063,"code":"NGIC202304124-0011","latitude":"43.101592222222","longitude":"144.86444111111","source_code":"","project_name":"","survey_name":"\u4e00\u822c\u56fd\u905344\u53f7 \u539a\u5cb8\u753a \u5c3e\u5e4c\u7cf8\u9b5a\u6ca2\u9053\u8def\u5730\u8cea\u8abf\u67fb\u696d\u52d9","client_name":"\u56fd\u571f\u4ea4\u901a\u7701\u5317\u6d77\u9053\u958b\u767a\u5c40\u91e7\u8def\u958b\u767a\u5efa\u8a2d\u90e8\u672c\u90e8","boring_xml_url":47,"boring_view_url":1,"soilmap_view_url":null,"soiltest_xml_url":0,"soiltest_view_url":0},{"id":694062,"code":"NGIC202304124-0010","latitude":"43.100230277778","longitude":"144.86307833333","source_code":"","project_name":"","survey_name":"\u4e00\u822c\u56fd\u905344\u53f7 \u539a\u5cb8\u753a \u5c3e\u5e4c\u7cf8\u9b5a\u6ca2\u9053\u8def\u5730\u8cea\u8abf\u67fb\u696d\u52d9","client_name":"\u56fd\u571f\u4ea4\u901a\u7701\u5317\u6d77\u9053\u958b\u767a\u5c40\u91e7\u8def\u958b\u767a\u5efa\u8a2d\u90e8\u672c\u90e8","boring_xml_url":47,"boring_view_url":1,"soilmap_view_url":null,"soiltest_xml_url":0,"soiltest_view_url":0},{"id":694061,"code":"NGIC202304124-0009","latitude":"43.098336944444","longitude":"144.86005388889","source_code":"","project_name":"","survey_name":"\u4e00\u822c\u56fd\u905344\u53f7\u539a\u5cb8\u753a\u5c3e\u5e4c\u7cf8\u9b5a\u6ca2\u9053\u8def\u5730\u8cea\u8abf\u67fb\u696d\u52d9","client_name":"\u56fd\u571f\u4ea4\u901a\u7701\u5317\u6d77\u9053\u958b\u767a\u5c40\u91e7\u8def\u958b\u767a\u5efa\u8a2d\u90e8\u672c\u90e8","boring_xml_url":47,"boring_view_url":1,"soilmap_view_url":null,"soiltest_xml_url":0,"soiltest_view_url":0},{"id":694060,"code":"NGIC202304124-0008","latitude":"43.098341111111","longitude":"144.86040138889","source_code":"","project_name":"","survey_name":"\u4e00\u822c\u56fd\u905344\u53f7\u539a\u5cb8\u753a\u5c3e\u5e4c\u7cf8\u9b5a\u6ca2\u9053\u8def\u5730\u8cea\u8abf\u67fb\u696d\u52d9","client_name":"\u56fd\u571f\u4ea4\u901a\u7701\u5317\u6d77\u9053\u958b\u767a\u5c40\u91e7\u8def\u958b\u767a\u5efa\u8a2d\u90e8\u672c\u90e8","boring_xml_url":47,"boring_view_url":1,"soilmap_view_url":null,"soiltest_xml_url":0,"soiltest_view_url":0},{"id":694059,"code":"NGIC202304124-0007","latitude":"43.098328888889","longitude":"144.85991472222","source_code":"","project_name":"","survey_name":"\u4e00\u822c\u56fd\u905344\u53f7\u539a\u5cb8\u753a\u5c3e\u5e4c\u7cf8\u9b5a\u6ca2\u9053\u8def\u5730\u8cea\u8abf\u67fb\u696d\u52d9","client_name":"\u56fd\u571f\u4ea4\u901a\u7701\u5317\u6d77\u9053\u958b\u767a\u5c40\u91e7\u8def\u958b\u767a\u5efa\u8a2d\u90e8\u672c\u90e8","boring_xml_url":47,"boring_view_url":1,"soilmap_view_url":null,"soiltest_xml_url":0,"soiltest_view_url":0},{"id":694058,"code":"NGIC202304124-0006","latitude":"43.081220277778","longitude":"144.81095388889","source_code":"","project_name":"","survey_name":"\u4e00\u822c\u56fd\u905344\u53f7\u539a\u5cb8\u753a\u5c3e\u5e4c\u7cf8\u9b5a\u6ca2\u9053\u8def\u5730\u8cea\u8abf\u67fb\u696d\u52d9","client_name":"\u56fd\u571f\u4ea4\u901a\u7701\u5317\u6d77\u9053\u958b\u767a\u5c40\u91e7\u8def\u958b\u767a\u5efa\u8a2d\u90e8\u672c\u90e8","boring_xml_url":47,"boring_view_url":1,"soilmap_view_url":null,"soiltest_xml_url":0,"soiltest_view_url":0},{"id":694057,"code":"NGIC202304124-0005","latitude":"43.0806275","longitude":"144.81016583333","source_code":"","project_name":"","survey_name":"\u4e00\u822c\u56fd\u905344\u53f7\u539a\u5cb8\u753a\u5c3e\u5e4c\u7cf8\u9b5a\u6ca2\u9053\u8def\u5730\u8cea\u8abf\u67fb\u696d\u52d9","client_name":"\u56fd\u571f\u4ea4\u901a\u7701\u5317\u6d77\u9053\u958b\u767a\u5c40\u91e7\u8def\u958b\u767a\u5efa\u8a2d\u90e8\u672c\u90e8","boring_xml_url":47,"boring_view_url":1,"soilmap_view_url":null,"soiltest_xml_url":0,"soiltest_view_url":0},{"id":694056,"code":"NGIC202304124-0004","latitude":"43.0500925","longitude":"144.76383194444","source_code":"","project_name":"","survey_name":"\u4e00\u822c\u56fd\u905344\u53f7\u539a\u5cb8\u753a\u5c3e\u5e4c\u7cf8\u9b5a\u6ca2\u9053\u8def\u5730\u8cea\u8abf\u67fb\u696d\u52d9","client_name":"\u56fd\u571f\u4ea4\u901a\u7701\u5317\u6d77\u9053\u958b\u767a\u5c40\u91e7\u8def\u958b\u767a\u5efa\u8a2d\u90e8\u672c\u90e8","boring_xml_url":47,"boring_view_url":1,"soilmap_view_url":null,"soiltest_xml_url":0,"soiltest_view_url":0},{"id":694055,"code":"NGIC202304124-0003","latitude":"43.047022222222","longitude":"144.76095638889","source_code":"","project_name":"","survey_name":"\u4e00\u822c\u56fd\u905344\u53f7\u539a\u5cb8\u753a\u5c3e\u5e4c\u7cf8\u9b5a\u6ca2\u9053\u8def\u5730\u8cea\u8abf\u67fb\u696d\u52d9","client_name":"\u56fd\u571f\u4ea4\u901a\u7701\u5317\u6d77\u9053\u958b\u767a\u5c40\u91e7\u8def\u958b\u767a\u5efa\u8a2d\u90e8\u672c\u90e8","boring_xml_url":47,"boring_view_url":1,"soilmap_view_url":null,"soiltest_xml_url":0,"soiltest_view_url":0},{"id":694054,"code":"NGIC202304124-0002","latitude":"43.045785833333","longitude":"144.7589225","source_code":"","project_name":"","survey_name":"\u4e00\u822c\u56fd\u905344\u53f7\u539a\u5cb8\u753a\u5c3e\u5e4c\u7cf8\u9b5a\u6ca2\u9053\u8def\u5730\u8cea\u8abf\u67fb\u696d\u52d9","client_name":"\u56fd\u571f\u4ea4\u901a\u7701\u5317\u6d77\u9053\u958b\u767a\u5c40\u91e7\u8def\u958b\u767a\u5efa\u8a2d\u90e8\u672c\u90e8","boring_xml_url":47,"boring_view_url":1,"soilmap_view_url":null,"soiltest_xml_url":0,"soiltest_view_url":0},{"id":694053,"code":"NGIC202304124-0001","latitude":"43.025472222222","longitude":"144.73566666667","source_code":"","project_name":"","survey_name":"\u4e00\u822c\u56fd\u905344\u53f7\u539a\u5cb8\u753a\u5c3e\u5e4c\u7cf8\u9b5a\u6ca2\u9053\u8def\u5730\u8cea\u8abf\u67fb\u696d\u52d9","client_name":"\u56fd\u571f\u4ea4\u901a\u7701\u5317\u6d77\u9053\u958b\u767a\u5c40\u91e7\u8def\u958b\u767a\u5efa\u8a2d\u90e8\u672c\u90e8","boring_xml_url":47,"boring_view_url":1,"soilmap_view_url":null,"soiltest_xml_url":47,"soiltest_view_url":47},{"id":694040,"code":"NGIC202304064-0009","latitude":"38.737519444444","longitude":"140.12961388889","source_code":"","project_name":"","survey_name":"\u4ee4\u548c5\u5e74\u5ea6\u53e4\u53e3\u5730\u533a\u5730\u76e4\u8abf\u67fb\u696d\u52d9","client_name":"\u56fd\u571f\u4ea4\u901a\u7701\u6771\u5317\u5730\u65b9\u6574\u5099\u5c40\u5c71\u5f62\u6cb3\u5ddd\u56fd\u9053\u4e8b\u52d9\u6240","boring_xml_url":47,"boring_view_url":1,"soilmap_view_url":null,"soiltest_xml_url":0,"soiltest_view_url":0},{"id":694039,"code":"NGIC202304064-0008","latitude":"38.736469444444","longitude":"140.12941666667","source_code":"","project_name":"","survey_name":"\u4ee4\u548c5\u5e74\u5ea6\u53e4\u53e3\u5730\u533a\u5730\u76e4\u8abf\u67fb\u696d\u52d9","client_name":"\u56fd\u571f\u4ea4\u901a\u7701\u6771\u5317\u5730\u65b9\u6574\u5099\u5c40\u5c71\u5f62\u6cb3\u5ddd\u56fd\u9053\u4e8b\u52d9\u6240","boring_xml_url":47,"boring_view_url":1,"soilmap_view_url":null,"soiltest_xml_url":0,"soiltest_view_url":0},{"id":694038,"code":"NGIC202304064-0007","latitude":"38.745997222222","longitude":"140.11153333333","source_code":"","project_name":"","survey_name":"\u4ee4\u548c5\u5e74\u5ea6\u53e4\u53e3\u5730\u533a\u5730\u76e4\u8abf\u67fb\u696d\u52d9","client_name":"\u56fd\u571f\u4ea4\u901a\u7701\u6771\u5317\u5730\u65b9\u6574\u5099\u5c40\u5c71\u5f62\u6cb3\u5ddd\u56fd\u9053\u4e8b\u52d9\u6240","boring_xml_url":47,"boring_view_url":1,"soilmap_view_url":null,"soiltest_xml_url":0,"soiltest_view_url":0},{"id":694037,"code":"NGIC202304064-0006","latitude":"38.7461","longitude":"140.11164166667","source_code":"","project_name":"","survey_name":"\u4ee4\u548c5\u5e74\u5ea6\u53e4\u53e3\u5730\u533a\u5730\u76e4\u8abf\u67fb\u696d\u52d9","client_name":"\u56fd\u571f\u4ea4\u901a\u7701\u6771\u5317\u5730\u65b9\u6574\u5099\u5c40\u5c71\u5f62\u6cb3\u5ddd\u56fd\u9053\u4e8b\u52d9\u6240","boring_xml_url":47,"boring_view_url":1,"soilmap_view_url":null,"soiltest_xml_url":0,"soiltest_view_url":0},{"id":694036,"code":"NGIC202304064-0005","latitude":"38.745988888889","longitude":"140.11201944444","source_code":"","project_name":"","survey_name":"\u4ee4\u548c5\u5e74\u5ea6\u53e4\u53e3\u5730\u533a\u5730\u76e4\u8abf\u67fb\u696d\u52d9","client_name":"\u56fd\u571f\u4ea4\u901a\u7701\u6771\u5317\u5730\u65b9\u6574\u5099\u5c40\u5c71\u5f62\u6cb3\u5ddd\u56fd\u9053\u4e8b\u52d9\u6240","boring_xml_url":47,"boring_view_url":1,"soilmap_view_url":null,"soiltest_xml_url":0,"soiltest_view_url":0}]}}