{"header":{"xyz":{"source":[],"mosaic":false},"page":917,"raw":{"soiltest_result":"0","bbox":"57.598333,109.544722,1.933333,163.806111","page":"917"},"conditions":{"soiltest_result":0,"north":57.598333,"west":109.544722,"south":1.933333,"east":163.806111},"success":true,"message":""},"data":{"meta":{"total":212844,"page":917,"pages":7095,"count":30},"values":[{"id":517908,"code":"B4KJ202201002-0444","latitude":"33.48089","longitude":"135.776663","source_code":"KK178666220400130002","project_name":"\u3059\u3055\u307f\u4e32\u672c\u9053\u8def\u4e32\u672c\u5730\u533a\u4ed6\u5730\u8cea\u8abf\u67fb\u696d\u52d9","survey_name":"\u3059\u3055\u307f\u4e32\u672c\u9053\u8def\u4e32\u672c\u5730\u533a\u4ed6\u5730\u8cea\u8abf\u67fb\u696d\u52d9","client_name":"\u56fd\u571f\u4ea4\u901a\u7701\u3000\u8fd1\u757f\u5730\u65b9\u6574\u5099\u5c40\u3000\u7d00\u5357\u6cb3\u5ddd\u56fd\u9053\u4e8b\u52d9\u6240","boring_xml_url":68,"boring_view_url":1,"soilmap_view_url":null,"soiltest_xml_url":0,"soiltest_view_url":0},{"id":517907,"code":"B4KJ202201002-0443","latitude":"33.480737","longitude":"135.776381","source_code":"KK178666220400130001","project_name":"\u3059\u3055\u307f\u4e32\u672c\u9053\u8def\u4e32\u672c\u5730\u533a\u4ed6\u5730\u8cea\u8abf\u67fb\u696d\u52d9","survey_name":"\u3059\u3055\u307f\u4e32\u672c\u9053\u8def\u4e32\u672c\u5730\u533a\u4ed6\u5730\u8cea\u8abf\u67fb\u696d\u52d9","client_name":"\u56fd\u571f\u4ea4\u901a\u7701\u3000\u8fd1\u757f\u5730\u65b9\u6574\u5099\u5c40\u3000\u7d00\u5357\u6cb3\u5ddd\u56fd\u9053\u4e8b\u52d9\u6240","boring_xml_url":68,"boring_view_url":1,"soilmap_view_url":null,"soiltest_xml_url":0,"soiltest_view_url":0},{"id":517906,"code":"B4KJ202201002-0442","latitude":"33.486573","longitude":"135.761842","source_code":"KK178666220400120017","project_name":"\u3059\u3055\u307f\u4e32\u672c\u9053\u8def\u9ad8\u5bcc\u5730\u533a\u4ed6\u5730\u8cea\u8abf\u67fb\u696d\u52d9","survey_name":"\u3059\u3055\u307f\u4e32\u672c\u9053\u8def\u9ad8\u5bcc\u5730\u533a\u4ed6\u5730\u8cea\u8abf\u67fb\u696d\u52d9","client_name":"\u56fd\u571f\u4ea4\u901a\u7701\u3000\u8fd1\u757f\u5730\u65b9\u6574\u5099\u5c40\u3000\u7d00\u5357\u6cb3\u5ddd\u56fd\u9053\u4e8b\u52d9\u6240","boring_xml_url":68,"boring_view_url":1,"soilmap_view_url":null,"soiltest_xml_url":0,"soiltest_view_url":0},{"id":517905,"code":"B4KJ202201002-0441","latitude":"33.48681","longitude":"135.761815","source_code":"KK178666220400120016","project_name":"\u3059\u3055\u307f\u4e32\u672c\u9053\u8def\u9ad8\u5bcc\u5730\u533a\u4ed6\u5730\u8cea\u8abf\u67fb\u696d\u52d9","survey_name":"\u3059\u3055\u307f\u4e32\u672c\u9053\u8def\u9ad8\u5bcc\u5730\u533a\u4ed6\u5730\u8cea\u8abf\u67fb\u696d\u52d9","client_name":"\u56fd\u571f\u4ea4\u901a\u7701\u3000\u8fd1\u757f\u5730\u65b9\u6574\u5099\u5c40\u3000\u7d00\u5357\u6cb3\u5ddd\u56fd\u9053\u4e8b\u52d9\u6240","boring_xml_url":68,"boring_view_url":1,"soilmap_view_url":null,"soiltest_xml_url":0,"soiltest_view_url":0},{"id":517904,"code":"B4KJ202201002-0440","latitude":"33.486298","longitude":"135.758815","source_code":"KK178666220400120015","project_name":"\u3059\u3055\u307f\u4e32\u672c\u9053\u8def\u9ad8\u5bcc\u5730\u533a\u4ed6\u5730\u8cea\u8abf\u67fb\u696d\u52d9","survey_name":"\u3059\u3055\u307f\u4e32\u672c\u9053\u8def\u9ad8\u5bcc\u5730\u533a\u4ed6\u5730\u8cea\u8abf\u67fb\u696d\u52d9","client_name":"\u56fd\u571f\u4ea4\u901a\u7701\u3000\u8fd1\u757f\u5730\u65b9\u6574\u5099\u5c40\u3000\u7d00\u5357\u6cb3\u5ddd\u56fd\u9053\u4e8b\u52d9\u6240","boring_xml_url":68,"boring_view_url":1,"soilmap_view_url":null,"soiltest_xml_url":0,"soiltest_view_url":0},{"id":517903,"code":"B4KJ202201002-0439","latitude":"33.486509","longitude":"135.758807","source_code":"KK178666220400120014","project_name":"\u3059\u3055\u307f\u4e32\u672c\u9053\u8def\u9ad8\u5bcc\u5730\u533a\u4ed6\u5730\u8cea\u8abf\u67fb\u696d\u52d9","survey_name":"\u3059\u3055\u307f\u4e32\u672c\u9053\u8def\u9ad8\u5bcc\u5730\u533a\u4ed6\u5730\u8cea\u8abf\u67fb\u696d\u52d9","client_name":"\u56fd\u571f\u4ea4\u901a\u7701\u3000\u8fd1\u757f\u5730\u65b9\u6574\u5099\u5c40\u3000\u7d00\u5357\u6cb3\u5ddd\u56fd\u9053\u4e8b\u52d9\u6240","boring_xml_url":68,"boring_view_url":1,"soilmap_view_url":null,"soiltest_xml_url":0,"soiltest_view_url":0},{"id":517902,"code":"B4KJ202201002-0438","latitude":"33.48617","longitude":"135.757094","source_code":"KK178666220400120013","project_name":"\u3059\u3055\u307f\u4e32\u672c\u9053\u8def\u9ad8\u5bcc\u5730\u533a\u4ed6\u5730\u8cea\u8abf\u67fb\u696d\u52d9","survey_name":"\u3059\u3055\u307f\u4e32\u672c\u9053\u8def\u9ad8\u5bcc\u5730\u533a\u4ed6\u5730\u8cea\u8abf\u67fb\u696d\u52d9","client_name":"\u56fd\u571f\u4ea4\u901a\u7701\u3000\u8fd1\u757f\u5730\u65b9\u6574\u5099\u5c40\u3000\u7d00\u5357\u6cb3\u5ddd\u56fd\u9053\u4e8b\u52d9\u6240","boring_xml_url":68,"boring_view_url":1,"soilmap_view_url":null,"soiltest_xml_url":0,"soiltest_view_url":0},{"id":517901,"code":"B4KJ202201002-0437","latitude":"33.486511","longitude":"135.757079","source_code":"KK178666220400120012","project_name":"\u3059\u3055\u307f\u4e32\u672c\u9053\u8def\u9ad8\u5bcc\u5730\u533a\u4ed6\u5730\u8cea\u8abf\u67fb\u696d\u52d9","survey_name":"\u3059\u3055\u307f\u4e32\u672c\u9053\u8def\u9ad8\u5bcc\u5730\u533a\u4ed6\u5730\u8cea\u8abf\u67fb\u696d\u52d9","client_name":"\u56fd\u571f\u4ea4\u901a\u7701\u3000\u8fd1\u757f\u5730\u65b9\u6574\u5099\u5c40\u3000\u7d00\u5357\u6cb3\u5ddd\u56fd\u9053\u4e8b\u52d9\u6240","boring_xml_url":68,"boring_view_url":1,"soilmap_view_url":null,"soiltest_xml_url":0,"soiltest_view_url":0},{"id":517900,"code":"B4KJ202201002-0436","latitude":"33.486763","longitude":"135.757073","source_code":"KK178666220400120011","project_name":"\u3059\u3055\u307f\u4e32\u672c\u9053\u8def\u9ad8\u5bcc\u5730\u533a\u4ed6\u5730\u8cea\u8abf\u67fb\u696d\u52d9","survey_name":"\u3059\u3055\u307f\u4e32\u672c\u9053\u8def\u9ad8\u5bcc\u5730\u533a\u4ed6\u5730\u8cea\u8abf\u67fb\u696d\u52d9","client_name":"\u56fd\u571f\u4ea4\u901a\u7701\u3000\u8fd1\u757f\u5730\u65b9\u6574\u5099\u5c40\u3000\u7d00\u5357\u6cb3\u5ddd\u56fd\u9053\u4e8b\u52d9\u6240","boring_xml_url":68,"boring_view_url":1,"soilmap_view_url":null,"soiltest_xml_url":0,"soiltest_view_url":0},{"id":517899,"code":"B4KJ202201002-0435","latitude":"33.486418","longitude":"135.756258","source_code":"KK178666220400120010","project_name":"\u3059\u3055\u307f\u4e32\u672c\u9053\u8def\u9ad8\u5bcc\u5730\u533a\u4ed6\u5730\u8cea\u8abf\u67fb\u696d\u52d9","survey_name":"\u3059\u3055\u307f\u4e32\u672c\u9053\u8def\u9ad8\u5bcc\u5730\u533a\u4ed6\u5730\u8cea\u8abf\u67fb\u696d\u52d9","client_name":"\u56fd\u571f\u4ea4\u901a\u7701\u3000\u8fd1\u757f\u5730\u65b9\u6574\u5099\u5c40\u3000\u7d00\u5357\u6cb3\u5ddd\u56fd\u9053\u4e8b\u52d9\u6240","boring_xml_url":68,"boring_view_url":1,"soilmap_view_url":null,"soiltest_xml_url":0,"soiltest_view_url":0},{"id":517898,"code":"B4KJ202201002-0434","latitude":"33.486716","longitude":"135.756133","source_code":"KK178666220400120009","project_name":"\u3059\u3055\u307f\u4e32\u672c\u9053\u8def\u9ad8\u5bcc\u5730\u533a\u4ed6\u5730\u8cea\u8abf\u67fb\u696d\u52d9","survey_name":"\u3059\u3055\u307f\u4e32\u672c\u9053\u8def\u9ad8\u5bcc\u5730\u533a\u4ed6\u5730\u8cea\u8abf\u67fb\u696d\u52d9","client_name":"\u56fd\u571f\u4ea4\u901a\u7701\u3000\u8fd1\u757f\u5730\u65b9\u6574\u5099\u5c40\u3000\u7d00\u5357\u6cb3\u5ddd\u56fd\u9053\u4e8b\u52d9\u6240","boring_xml_url":68,"boring_view_url":1,"soilmap_view_url":null,"soiltest_xml_url":0,"soiltest_view_url":0},{"id":517897,"code":"B4KJ202201002-0433","latitude":"33.486063","longitude":"135.751103","source_code":"KK178666220400120008","project_name":"","survey_name":"\u3059\u3055\u307f\u4e32\u672c\u9053\u8def\u9ad8\u5bcc\u5730\u533a\u4ed6\u5730\u8cea\u8abf\u67fb\u696d\u52d9","client_name":"\u56fd\u571f\u4ea4\u901a\u7701\u3000\u8fd1\u757f\u5730\u65b9\u6574\u5099\u5c40\u3000\u7d00\u5357\u6cb3\u5ddd\u56fd\u9053\u4e8b\u52d9\u6240","boring_xml_url":68,"boring_view_url":1,"soilmap_view_url":null,"soiltest_xml_url":0,"soiltest_view_url":0},{"id":517896,"code":"B4KJ202201002-0432","latitude":"33.485914","longitude":"135.750068","source_code":"KK178666220400120007","project_name":"\u3059\u3055\u307f\u4e32\u672c\u9053\u8def\u9ad8\u5bcc\u5730\u533a\u4ed6\u5730\u8cea\u8abf\u67fb\u696d\u52d9","survey_name":"\u3059\u3055\u307f\u4e32\u672c\u9053\u8def\u9ad8\u5bcc\u5730\u533a\u4ed6\u5730\u8cea\u8abf\u67fb\u696d\u52d9","client_name":"\u56fd\u571f\u4ea4\u901a\u7701\u3000\u8fd1\u757f\u5730\u65b9\u6574\u5099\u5c40\u3000\u7d00\u5357\u6cb3\u5ddd\u56fd\u9053\u4e8b\u52d9\u6240","boring_xml_url":68,"boring_view_url":1,"soilmap_view_url":null,"soiltest_xml_url":0,"soiltest_view_url":0},{"id":517895,"code":"B4KJ202201002-0431","latitude":"33.486243","longitude":"135.75007","source_code":"KK178666220400120006","project_name":"\u3059\u3055\u307f\u4e32\u672c\u9053\u8def\u9ad8\u5bcc\u5730\u533a\u4ed6\u5730\u8cea\u8abf\u67fb\u696d\u52d9","survey_name":"\u3059\u3055\u307f\u4e32\u672c\u9053\u8def\u9ad8\u5bcc\u5730\u533a\u4ed6\u5730\u8cea\u8abf\u67fb\u696d\u52d9","client_name":"\u56fd\u571f\u4ea4\u901a\u7701\u3000\u8fd1\u757f\u5730\u65b9\u6574\u5099\u5c40\u3000\u7d00\u5357\u6cb3\u5ddd\u56fd\u9053\u4e8b\u52d9\u6240","boring_xml_url":68,"boring_view_url":1,"soilmap_view_url":null,"soiltest_xml_url":0,"soiltest_view_url":0},{"id":517894,"code":"B4KJ202201002-0430","latitude":"33.485945","longitude":"135.748829","source_code":"KK178666220400120005","project_name":"\u3059\u3055\u307f\u4e32\u672c\u9053\u8def\u9ad8\u5bcc\u5730\u533a\u4ed6\u5730\u8cea\u8abf\u67fb\u696d\u52d9","survey_name":"\u3059\u3055\u307f\u4e32\u672c\u9053\u8def\u9ad8\u5bcc\u5730\u533a\u4ed6\u5730\u8cea\u8abf\u67fb\u696d\u52d9","client_name":"\u56fd\u571f\u4ea4\u901a\u7701\u3000\u8fd1\u757f\u5730\u65b9\u6574\u5099\u5c40\u3000\u7d00\u5357\u6cb3\u5ddd\u56fd\u9053\u4e8b\u52d9\u6240","boring_xml_url":68,"boring_view_url":1,"soilmap_view_url":null,"soiltest_xml_url":0,"soiltest_view_url":0},{"id":517893,"code":"B4KJ202201002-0429","latitude":"33.486191","longitude":"135.748849","source_code":"KK178666220400120004","project_name":"\u3059\u3055\u307f\u4e32\u672c\u9053\u8def\u9ad8\u5bcc\u5730\u533a\u4ed6\u5730\u8cea\u8abf\u67fb\u696d\u52d9","survey_name":"\u3059\u3055\u307f\u4e32\u672c\u9053\u8def\u9ad8\u5bcc\u5730\u533a\u4ed6\u5730\u8cea\u8abf\u67fb\u696d\u52d9","client_name":"\u56fd\u571f\u4ea4\u901a\u7701\u3000\u8fd1\u757f\u5730\u65b9\u6574\u5099\u5c40\u3000\u7d00\u5357\u6cb3\u5ddd\u56fd\u9053\u4e8b\u52d9\u6240","boring_xml_url":68,"boring_view_url":1,"soilmap_view_url":null,"soiltest_xml_url":0,"soiltest_view_url":0},{"id":517892,"code":"B4KJ202201002-0428","latitude":"33.485247","longitude":"135.748008","source_code":"KK178666220400120003","project_name":"\u3059\u3055\u307f\u4e32\u672c\u9053\u8def\u9ad8\u5bcc\u5730\u533a\u4ed6\u5730\u8cea\u8abf\u67fb\u696d\u52d9","survey_name":"\u3059\u3055\u307f\u4e32\u672c\u9053\u8def\u9ad8\u5bcc\u5730\u533a\u4ed6\u5730\u8cea\u8abf\u67fb\u696d\u52d9","client_name":"\u56fd\u571f\u4ea4\u901a\u7701\u3000\u8fd1\u757f\u5730\u65b9\u6574\u5099\u5c40\u3000\u7d00\u5357\u6cb3\u5ddd\u56fd\u9053\u4e8b\u52d9\u6240","boring_xml_url":68,"boring_view_url":1,"soilmap_view_url":null,"soiltest_xml_url":0,"soiltest_view_url":0},{"id":517891,"code":"B4KJ202201002-0427","latitude":"33.485991","longitude":"135.747773","source_code":"KK178666220400120002","project_name":"\u3059\u3055\u307f\u4e32\u672c\u9053\u8def\u9ad8\u5bcc\u5730\u533a\u4ed6\u5730\u8cea\u8abf\u67fb\u696d\u52d9","survey_name":"\u3059\u3055\u307f\u4e32\u672c\u9053\u8def\u9ad8\u5bcc\u5730\u533a\u4ed6\u5730\u8cea\u8abf\u67fb\u696d\u52d9","client_name":"\u56fd\u571f\u4ea4\u901a\u7701\u3000\u8fd1\u757f\u5730\u65b9\u6574\u5099\u5c40\u3000\u7d00\u5357\u6cb3\u5ddd\u56fd\u9053\u4e8b\u52d9\u6240","boring_xml_url":68,"boring_view_url":1,"soilmap_view_url":null,"soiltest_xml_url":0,"soiltest_view_url":0},{"id":517890,"code":"B4KJ202201002-0426","latitude":"33.486462","longitude":"135.747888","source_code":"KK178666220400120001","project_name":"\u3059\u3055\u307f\u4e32\u672c\u9053\u8def\u9ad8\u5bcc\u5730\u533a\u4ed6\u5730\u8cea\u8abf\u67fb\u696d\u52d9","survey_name":"\u3059\u3055\u307f\u4e32\u672c\u9053\u8def\u9ad8\u5bcc\u5730\u533a\u4ed6\u5730\u8cea\u8abf\u67fb\u696d\u52d9","client_name":"\u56fd\u571f\u4ea4\u901a\u7701\u3000\u8fd1\u757f\u5730\u65b9\u6574\u5099\u5c40\u3000\u7d00\u5357\u6cb3\u5ddd\u56fd\u9053\u4e8b\u52d9\u6240","boring_xml_url":68,"boring_view_url":1,"soilmap_view_url":null,"soiltest_xml_url":0,"soiltest_view_url":0},{"id":517889,"code":"B4KJ202201002-0425","latitude":"33.491067","longitude":"135.717017","source_code":"KK178666220400110016","project_name":"\u3059\u3055\u307f\u4e32\u672c\u9053\u8def\u7530\u4e26\u5730\u533a\u5730\u8cea\u8abf\u67fb\u696d\u52d9","survey_name":"\u3059\u3055\u307f\u4e32\u672c\u9053\u8def\u7530\u4e26\u5730\u533a\u5730\u8cea\u8abf\u67fb\u696d\u52d9","client_name":"\u56fd\u571f\u4ea4\u901a\u7701\u3000\u8fd1\u757f\u5730\u65b9\u6574\u5099\u5c40\u3000\u7d00\u5357\u6cb3\u5ddd\u56fd\u9053\u4e8b\u52d9\u6240","boring_xml_url":68,"boring_view_url":1,"soilmap_view_url":null,"soiltest_xml_url":0,"soiltest_view_url":0},{"id":517888,"code":"B4KJ202201002-0424","latitude":"33.491491","longitude":"135.716219","source_code":"KK178666220400110015","project_name":"\u3059\u3055\u307f\u4e32\u672c\u9053\u8def\u7530\u4e26\u5730\u533a\u5730\u8cea\u8abf\u67fb\u696d\u52d9","survey_name":"\u3059\u3055\u307f\u4e32\u672c\u9053\u8def\u7530\u4e26\u5730\u533a\u5730\u8cea\u8abf\u67fb\u696d\u52d9","client_name":"\u56fd\u571f\u4ea4\u901a\u7701\u3000\u8fd1\u757f\u5730\u65b9\u6574\u5099\u5c40\u3000\u7d00\u5357\u6cb3\u5ddd\u56fd\u9053\u4e8b\u52d9\u6240","boring_xml_url":68,"boring_view_url":1,"soilmap_view_url":null,"soiltest_xml_url":0,"soiltest_view_url":0},{"id":517887,"code":"B4KJ202201002-0423","latitude":"33.490821","longitude":"135.703314","source_code":"KK178666220400110014","project_name":"\u3059\u3055\u307f\u4e32\u672c\u9053\u8def\u7530\u4e26\u5730\u533a\u5730\u8cea\u8abf\u67fb\u696d\u52d9","survey_name":"\u3059\u3055\u307f\u4e32\u672c\u9053\u8def\u7530\u4e26\u5730\u533a\u5730\u8cea\u8abf\u67fb\u696d\u52d9","client_name":"\u56fd\u571f\u4ea4\u901a\u7701\u3000\u8fd1\u757f\u5730\u65b9\u6574\u5099\u5c40\u3000\u7d00\u5357\u6cb3\u5ddd\u56fd\u9053\u4e8b\u52d9\u6240","boring_xml_url":68,"boring_view_url":1,"soilmap_view_url":null,"soiltest_xml_url":0,"soiltest_view_url":0},{"id":517886,"code":"B4KJ202201002-0422","latitude":"33.491066","longitude":"135.715498","source_code":"KK178666220400110013","project_name":"\u3059\u3055\u307f\u4e32\u672c\u9053\u8def\u7530\u4e26\u5730\u533a\u5730\u8cea\u8abf\u67fb\u696d\u52d9","survey_name":"\u3059\u3055\u307f\u4e32\u672c\u9053\u8def\u7530\u4e26\u5730\u533a\u5730\u8cea\u8abf\u67fb\u696d\u52d9","client_name":"\u56fd\u571f\u4ea4\u901a\u7701\u3000\u8fd1\u757f\u5730\u65b9\u6574\u5099\u5c40\u3000\u7d00\u5357\u6cb3\u5ddd\u56fd\u9053\u4e8b\u52d9\u6240","boring_xml_url":68,"boring_view_url":1,"soilmap_view_url":null,"soiltest_xml_url":0,"soiltest_view_url":0},{"id":517885,"code":"B4KJ202201002-0421","latitude":"33.491351","longitude":"135.715405","source_code":"KK178666220400110012","project_name":"\u3059\u3055\u307f\u4e32\u672c\u9053\u8def\u7530\u4e26\u5730\u533a\u5730\u8cea\u8abf\u67fb\u696d\u52d9","survey_name":"\u3059\u3055\u307f\u4e32\u672c\u9053\u8def\u7530\u4e26\u5730\u533a\u5730\u8cea\u8abf\u67fb\u696d\u52d9","client_name":"\u56fd\u571f\u4ea4\u901a\u7701\u3000\u8fd1\u757f\u5730\u65b9\u6574\u5099\u5c40\u3000\u7d00\u5357\u6cb3\u5ddd\u56fd\u9053\u4e8b\u52d9\u6240","boring_xml_url":68,"boring_view_url":1,"soilmap_view_url":null,"soiltest_xml_url":0,"soiltest_view_url":0},{"id":517884,"code":"B4KJ202201002-0420","latitude":"33.490864","longitude":"135.714478","source_code":"KK178666220400110011","project_name":"\u3059\u3055\u307f\u4e32\u672c\u9053\u8def\u7530\u4e26\u5730\u533a\u5730\u8cea\u8abf\u67fb\u696d\u52d9","survey_name":"\u3059\u3055\u307f\u4e32\u672c\u9053\u8def\u7530\u4e26\u5730\u533a\u5730\u8cea\u8abf\u67fb\u696d\u52d9","client_name":"\u56fd\u571f\u4ea4\u901a\u7701\u3000\u8fd1\u757f\u5730\u65b9\u6574\u5099\u5c40\u3000\u7d00\u5357\u6cb3\u5ddd\u56fd\u9053\u4e8b\u52d9\u6240","boring_xml_url":68,"boring_view_url":1,"soilmap_view_url":null,"soiltest_xml_url":0,"soiltest_view_url":0},{"id":517883,"code":"B4KJ202201002-0419","latitude":"33.491139","longitude":"135.713493","source_code":"KK178666220400110010","project_name":"\u3059\u3055\u307f\u4e32\u672c\u9053\u8def\u7530\u4e26\u5730\u533a\u5730\u8cea\u8abf\u67fb\u696d\u52d9","survey_name":"\u3059\u3055\u307f\u4e32\u672c\u9053\u8def\u7530\u4e26\u5730\u533a\u5730\u8cea\u8abf\u67fb\u696d\u52d9","client_name":"\u56fd\u571f\u4ea4\u901a\u7701\u3000\u8fd1\u757f\u5730\u65b9\u6574\u5099\u5c40\u3000\u7d00\u5357\u6cb3\u5ddd\u56fd\u9053\u4e8b\u52d9\u6240","boring_xml_url":68,"boring_view_url":1,"soilmap_view_url":null,"soiltest_xml_url":0,"soiltest_view_url":0},{"id":517882,"code":"B4KJ202201002-0418","latitude":"33.490556","longitude":"135.712996","source_code":"KK178666220400110009","project_name":"\u3059\u3055\u307f\u4e32\u672c\u9053\u8def\u7530\u4e26\u5730\u533a\u5730\u8cea\u8abf\u67fb\u696d\u52d9","survey_name":"\u3059\u3055\u307f\u4e32\u672c\u9053\u8def\u7530\u4e26\u5730\u533a\u5730\u8cea\u8abf\u67fb\u696d\u52d9","client_name":"\u56fd\u571f\u4ea4\u901a\u7701\u3000\u8fd1\u757f\u5730\u65b9\u6574\u5099\u5c40\u3000\u7d00\u5357\u6cb3\u5ddd\u56fd\u9053\u4e8b\u52d9\u6240","boring_xml_url":68,"boring_view_url":1,"soilmap_view_url":null,"soiltest_xml_url":0,"soiltest_view_url":0},{"id":517881,"code":"B4KJ202201002-0417","latitude":"33.491154","longitude":"135.711942","source_code":"KK178666220400110008","project_name":"\u3059\u3055\u307f\u4e32\u672c\u9053\u8def\u7530\u4e26\u5730\u533a\u5730\u8cea\u8abf\u67fb\u696d\u52d9","survey_name":"\u3059\u3055\u307f\u4e32\u672c\u9053\u8def\u7530\u4e26\u5730\u533a\u5730\u8cea\u8abf\u67fb\u696d\u52d9","client_name":"\u56fd\u571f\u4ea4\u901a\u7701\u3000\u8fd1\u757f\u5730\u65b9\u6574\u5099\u5c40\u3000\u7d00\u5357\u6cb3\u5ddd\u56fd\u9053\u4e8b\u52d9\u6240","boring_xml_url":68,"boring_view_url":1,"soilmap_view_url":null,"soiltest_xml_url":0,"soiltest_view_url":0},{"id":517880,"code":"B4KJ202201002-0416","latitude":"33.490696","longitude":"135.71132","source_code":"KK178666220400110007","project_name":"\u3059\u3055\u307f\u4e32\u672c\u9053\u8def\u7530\u4e26\u5730\u533a\u5730\u8cea\u8abf\u67fb\u696d\u52d9","survey_name":"\u3059\u3055\u307f\u4e32\u672c\u9053\u8def\u7530\u4e26\u5730\u533a\u5730\u8cea\u8abf\u67fb\u696d\u52d9","client_name":"\u56fd\u571f\u4ea4\u901a\u7701\u3000\u8fd1\u757f\u5730\u65b9\u6574\u5099\u5c40\u3000\u7d00\u5357\u6cb3\u5ddd\u56fd\u9053\u4e8b\u52d9\u6240","boring_xml_url":68,"boring_view_url":1,"soilmap_view_url":null,"soiltest_xml_url":0,"soiltest_view_url":0},{"id":517879,"code":"B4KJ202201002-0415","latitude":"33.491228","longitude":"135.711491","source_code":"KK178666220400110006","project_name":"\u3059\u3055\u307f\u4e32\u672c\u9053\u8def\u7530\u4e26\u5730\u533a\u5730\u8cea\u8abf\u67fb\u696d\u52d9","survey_name":"\u3059\u3055\u307f\u4e32\u672c\u9053\u8def\u7530\u4e26\u5730\u533a\u5730\u8cea\u8abf\u67fb\u696d\u52d9","client_name":"\u56fd\u571f\u4ea4\u901a\u7701\u3000\u8fd1\u757f\u5730\u65b9\u6574\u5099\u5c40\u3000\u7d00\u5357\u6cb3\u5ddd\u56fd\u9053\u4e8b\u52d9\u6240","boring_xml_url":68,"boring_view_url":1,"soilmap_view_url":null,"soiltest_xml_url":0,"soiltest_view_url":0}]}}