{"header":{"xyz":{"source":[],"mosaic":false},"page":92,"raw":{"soiltest_result":"0","bbox":"57.598333,109.544722,1.933333,163.806111","page":"92"},"conditions":{"soiltest_result":0,"north":57.598333,"west":109.544722,"south":1.933333,"east":163.806111},"success":true,"message":""},"data":{"meta":{"total":212844,"page":92,"pages":7095,"count":30},"values":[{"id":694035,"code":"NGIC202304064-0004","latitude":"38.745852777778","longitude":"140.11202777778","source_code":"","project_name":"","survey_name":"\u4ee4\u548c5\u5e74\u5ea6\u53e4\u53e3\u5730\u533a\u5730\u76e4\u8abf\u67fb\u696d\u52d9","client_name":"\u56fd\u571f\u4ea4\u901a\u7701\u6771\u5317\u5730\u65b9\u6574\u5099\u5c40\u5c71\u5f62\u6cb3\u5ddd\u56fd\u9053\u4e8b\u52d9\u6240","boring_xml_url":47,"boring_view_url":1,"soilmap_view_url":null,"soiltest_xml_url":0,"soiltest_view_url":0},{"id":694034,"code":"NGIC202304064-0003","latitude":"38.738319444444","longitude":"140.13115833333","source_code":"","project_name":"","survey_name":"\u4ee4\u548c5\u5e74\u5ea6\u53e4\u53e3\u5730\u533a\u5730\u76e4\u8abf\u67fb\u696d\u52d9","client_name":"\u56fd\u571f\u4ea4\u901a\u7701\u6771\u5317\u5730\u65b9\u6574\u5099\u5c40\u5c71\u5f62\u6cb3\u5ddd\u56fd\u9053\u4e8b\u52d9\u6240","boring_xml_url":47,"boring_view_url":1,"soilmap_view_url":null,"soiltest_xml_url":0,"soiltest_view_url":0},{"id":694033,"code":"NGIC202304064-0002","latitude":"38.734547222222","longitude":"140.13495555556","source_code":"","project_name":"","survey_name":"\u4ee4\u548c5\u5e74\u5ea6\u53e4\u53e3\u5730\u533a\u5730\u76e4\u8abf\u67fb\u696d\u52d9","client_name":"\u56fd\u571f\u4ea4\u901a\u7701\u6771\u5317\u5730\u65b9\u6574\u5099\u5c40\u5c71\u5f62\u6cb3\u5ddd\u56fd\u9053\u4e8b\u52d9\u6240","boring_xml_url":47,"boring_view_url":1,"soilmap_view_url":null,"soiltest_xml_url":0,"soiltest_view_url":0},{"id":694032,"code":"NGIC202304064-0001","latitude":"38.735013888889","longitude":"140.14853888889","source_code":"","project_name":"","survey_name":"\u4ee4\u548c5\u5e74\u5ea6\u53e4\u53e3\u5730\u533a\u5730\u76e4\u8abf\u67fb\u696d\u52d9","client_name":"\u56fd\u571f\u4ea4\u901a\u7701\u6771\u5317\u5730\u65b9\u6574\u5099\u5c40\u5c71\u5f62\u6cb3\u5ddd\u56fd\u9053\u4e8b\u52d9\u6240","boring_xml_url":47,"boring_view_url":1,"soilmap_view_url":null,"soiltest_xml_url":0,"soiltest_view_url":0},{"id":694022,"code":"NGIC202303606-0002","latitude":"34.385335833333","longitude":"132.44540333333","source_code":"","project_name":"","survey_name":"\u4ee4\u548c4\u5e74\u5ea6\u897f\u5e83\u5cf6\u30d0\u30a4\u30d1\u30b9\u5730\u8cea\u8abf\u67fb\u696d\u52d9","client_name":"\u56fd\u571f\u4ea4\u901a\u7701\u4e2d\u56fd\u5730\u65b9\u6574\u5099\u5c40\u5e83\u5cf6\u56fd\u9053\u4e8b\u52d9\u6240","boring_xml_url":47,"boring_view_url":1,"soilmap_view_url":null,"soiltest_xml_url":47,"soiltest_view_url":47},{"id":694021,"code":"NGIC202303606-0001","latitude":"34.385591277778","longitude":"132.44552358333","source_code":"","project_name":"","survey_name":"\u4ee4\u548c4\u5e74\u5ea6\u897f\u5e83\u5cf6\u30d0\u30a4\u30d1\u30b9\u5730\u8cea\u8abf\u67fb\u696d\u52d9","client_name":"\u56fd\u571f\u4ea4\u901a\u7701\u4e2d\u56fd\u5730\u65b9\u6574\u5099\u5c40\u5e83\u5cf6\u56fd\u9053\u4e8b\u52d9\u6240","boring_xml_url":47,"boring_view_url":1,"soilmap_view_url":null,"soiltest_xml_url":47,"soiltest_view_url":47},{"id":693983,"code":"NGIC202303924-0012","latitude":"35.018842222222","longitude":"133.17460216667","source_code":"","project_name":"","survey_name":"\u4ee4\u548c5\u5e74\u5ea6\u9375\u639b\u5ce0\u9053\u8def\u5916\u6e2c\u91cf\u8a2d\u8a08\u696d\u52d9","client_name":"\u56fd\u571f\u4ea4\u901a\u7701\u4e2d\u56fd\u5730\u65b9\u6574\u5099\u5c40\u4e09\u6b21\u6cb3\u5ddd\u56fd\u9053\u4e8b\u52d9\u6240","boring_xml_url":47,"boring_view_url":1,"soilmap_view_url":null,"soiltest_xml_url":0,"soiltest_view_url":0},{"id":693982,"code":"NGIC202303924-0011","latitude":"35.018586944444","longitude":"133.17497397222","source_code":"","project_name":"","survey_name":"\u4ee4\u548c5\u5e74\u5ea6\u9375\u639b\u5ce0\u9053\u8def\u5916\u6e2c\u91cf\u8a2d\u8a08\u696d\u52d9","client_name":"\u56fd\u571f\u4ea4\u901a\u7701\u4e2d\u56fd\u5730\u65b9\u6574\u5099\u5c40\u4e09\u6b21\u6cb3\u5ddd\u56fd\u9053\u4e8b\u52d9\u6240","boring_xml_url":47,"boring_view_url":1,"soilmap_view_url":null,"soiltest_xml_url":0,"soiltest_view_url":0},{"id":693981,"code":"NGIC202303924-0010","latitude":"35.018314305556","longitude":"133.17534708333","source_code":"","project_name":"","survey_name":"\u4ee4\u548c5\u5e74\u5ea6\u9375\u639b\u5ce0\u9053\u8def\u5916\u6e2c\u91cf\u8a2d\u8a08\u696d\u52d9","client_name":"\u56fd\u571f\u4ea4\u901a\u7701\u4e2d\u56fd\u5730\u65b9\u6574\u5099\u5c40\u4e09\u6b21\u6cb3\u5ddd\u56fd\u9053\u4e8b\u52d9\u6240","boring_xml_url":47,"boring_view_url":1,"soilmap_view_url":null,"soiltest_xml_url":0,"soiltest_view_url":0},{"id":693980,"code":"NGIC202303924-0009","latitude":"35.017932333333","longitude":"133.17578977778","source_code":"","project_name":"","survey_name":"\u4ee4\u548c5\u5e74\u5ea6\u9375\u639b\u5ce0\u9053\u8def\u5916\u6e2c\u91cf\u8a2d\u8a08\u696d\u52d9","client_name":"\u56fd\u571f\u4ea4\u901a\u7701\u4e2d\u56fd\u5730\u65b9\u6574\u5099\u5c40\u4e09\u6b21\u6cb3\u5ddd\u56fd\u9053\u4e8b\u52d9\u6240","boring_xml_url":47,"boring_view_url":1,"soilmap_view_url":null,"soiltest_xml_url":0,"soiltest_view_url":0},{"id":693979,"code":"NGIC202303924-0008","latitude":"35.039651666667","longitude":"133.18281127778","source_code":"","project_name":"","survey_name":"\u4ee4\u548c5\u5e74\u5ea6\u9375\u639b\u5ce0\u9053\u8def\u5916\u6e2c\u91cf\u8a2d\u8a08\u696d\u52d9","client_name":"\u56fd\u571f\u4ea4\u901a\u7701\u4e2d\u56fd\u5730\u65b9\u6574\u5099\u5c40\u4e09\u6b21\u6cb3\u5ddd\u56fd\u9053\u4e8b\u52d9\u6240","boring_xml_url":47,"boring_view_url":1,"soilmap_view_url":null,"soiltest_xml_url":0,"soiltest_view_url":0},{"id":693978,"code":"NGIC202303924-0007","latitude":"35.042380694444","longitude":"133.1863395","source_code":"","project_name":"","survey_name":"\u4ee4\u548c5\u5e74\u5ea6\u9375\u639b\u5ce0\u9053\u8def\u5916\u6e2c\u91cf\u8a2d\u8a08\u696d\u52d9","client_name":"\u56fd\u571f\u4ea4\u901a\u7701\u4e2d\u56fd\u5730\u65b9\u6574\u5099\u5c40\u4e09\u6b21\u6cb3\u5ddd\u56fd\u9053\u4e8b\u52d9\u6240","boring_xml_url":47,"boring_view_url":1,"soilmap_view_url":null,"soiltest_xml_url":0,"soiltest_view_url":0},{"id":693977,"code":"NGIC202303924-0006","latitude":"35.039362","longitude":"133.18283077778","source_code":"","project_name":"","survey_name":"\u4ee4\u548c5\u5e74\u5ea6\u9375\u639b\u5ce0\u9053\u8def\u5916\u6e2c\u91cf\u8a2d\u8a08\u696d\u52d9","client_name":"\u56fd\u571f\u4ea4\u901a\u7701\u4e2d\u56fd\u5730\u65b9\u6574\u5099\u5c40\u4e09\u6b21\u6cb3\u5ddd\u56fd\u9053\u4e8b\u52d9\u6240","boring_xml_url":47,"boring_view_url":1,"soilmap_view_url":null,"soiltest_xml_url":0,"soiltest_view_url":0},{"id":693976,"code":"NGIC202303924-0005","latitude":"35.032332472222","longitude":"133.18202055556","source_code":"","project_name":"","survey_name":"\u4ee4\u548c5\u5e74\u5ea6\u9375\u639b\u5ce0\u9053\u8def\u5916\u6e2c\u91cf\u8a2d\u8a08\u696d\u52d9","client_name":"\u56fd\u571f\u4ea4\u901a\u7701\u4e2d\u56fd\u5730\u65b9\u6574\u5099\u5c40\u4e09\u6b21\u6cb3\u5ddd\u56fd\u9053\u4e8b\u52d9\u6240","boring_xml_url":47,"boring_view_url":1,"soilmap_view_url":null,"soiltest_xml_url":0,"soiltest_view_url":0},{"id":693975,"code":"NGIC202303924-0004","latitude":"35.032226277778","longitude":"133.18177894444","source_code":"","project_name":"","survey_name":"\u4ee4\u548c5\u5e74\u5ea6\u9375\u639b\u5ce0\u9053\u8def\u5916\u6e2c\u91cf\u8a2d\u8a08\u696d\u52d9","client_name":"\u56fd\u571f\u4ea4\u901a\u7701\u4e2d\u56fd\u5730\u65b9\u6574\u5099\u5c40\u4e09\u6b21\u6cb3\u5ddd\u56fd\u9053\u4e8b\u52d9\u6240","boring_xml_url":47,"boring_view_url":1,"soilmap_view_url":null,"soiltest_xml_url":0,"soiltest_view_url":0},{"id":693974,"code":"NGIC202303924-0003","latitude":"35.009006055556","longitude":"133.18124369444","source_code":"","project_name":"","survey_name":"\u4ee4\u548c5\u5e74\u5ea6\u9375\u639b\u5ce0\u9053\u8def\u5916\u6e2c\u91cf\u8a2d\u8a08\u696d\u52d9","client_name":"\u56fd\u571f\u4ea4\u901a\u7701\u4e2d\u56fd\u5730\u65b9\u6574\u5099\u5c40\u4e09\u6b21\u6cb3\u5ddd\u56fd\u9053\u4e8b\u52d9\u6240","boring_xml_url":47,"boring_view_url":1,"soilmap_view_url":null,"soiltest_xml_url":0,"soiltest_view_url":0},{"id":693973,"code":"NGIC202303924-0002","latitude":"35.009059138889","longitude":"133.18105847222","source_code":"","project_name":"","survey_name":"\u4ee4\u548c5\u5e74\u5ea6\u9375\u639b\u5ce0\u9053\u8def\u5916\u6e2c\u91cf\u8a2d\u8a08\u696d\u52d9","client_name":"\u56fd\u571f\u4ea4\u901a\u7701\u4e2d\u56fd\u5730\u65b9\u6574\u5099\u5c40\u4e09\u6b21\u6cb3\u5ddd\u56fd\u9053\u4e8b\u52d9\u6240","boring_xml_url":47,"boring_view_url":1,"soilmap_view_url":null,"soiltest_xml_url":0,"soiltest_view_url":0},{"id":693972,"code":"NGIC202303924-0001","latitude":"35.009171611111","longitude":"133.18101486111","source_code":"","project_name":"","survey_name":"\u4ee4\u548c5\u5e74\u5ea6\u9375\u639b\u5ce0\u9053\u8def\u5916\u6e2c\u91cf\u8a2d\u8a08\u696d\u52d9","client_name":"\u56fd\u571f\u4ea4\u901a\u7701\u4e2d\u56fd\u5730\u65b9\u6574\u5099\u5c40\u4e09\u6b21\u6cb3\u5ddd\u56fd\u9053\u4e8b\u52d9\u6240","boring_xml_url":47,"boring_view_url":1,"soilmap_view_url":null,"soiltest_xml_url":0,"soiltest_view_url":0},{"id":693970,"code":"NGIC202303917-0010","latitude":"32.684830555556","longitude":"131.07039527778","source_code":"","project_name":"","survey_name":"\u4ee4\u548c5\u5e74\u5ea6\u77e2\u90e8\u6e05\u548c\u9053\u8def\u5730\u8cea\u8abf\u67fb\uff08\u305d\u306e2\uff09\u696d\u52d9","client_name":"\u56fd\u571f\u4ea4\u901a\u7701\u4e5d\u5dde\u5730\u65b9\u6574\u5099\u5c40\u718a\u672c\u6cb3\u5ddd\u56fd\u9053\u4e8b\u52d9\u6240","boring_xml_url":47,"boring_view_url":1,"soilmap_view_url":null,"soiltest_xml_url":0,"soiltest_view_url":0},{"id":693969,"code":"NGIC202303917-0009","latitude":"32.684678333333","longitude":"131.06793222222","source_code":"","project_name":"","survey_name":"\u4ee4\u548c5\u5e74\u5ea6\u77e2\u90e8\u6e05\u548c\u9053\u8def\u5730\u8cea\u8abf\u67fb\uff08\u305d\u306e2\uff09\u696d\u52d9","client_name":"\u56fd\u571f\u4ea4\u901a\u7701\u4e5d\u5dde\u5730\u65b9\u6574\u5099\u5c40\u718a\u672c\u6cb3\u5ddd\u56fd\u9053\u4e8b\u52d9\u6240","boring_xml_url":47,"boring_view_url":1,"soilmap_view_url":null,"soiltest_xml_url":0,"soiltest_view_url":0},{"id":693968,"code":"NGIC202303917-0008","latitude":"32.684250555556","longitude":"131.06411972222","source_code":"","project_name":"","survey_name":"\u4ee4\u548c5\u5e74\u5ea6\u77e2\u90e8\u6e05\u548c\u9053\u8def\u5730\u8cea\u8abf\u67fb\uff08\u305d\u306e2\uff09\u696d\u52d9","client_name":"\u56fd\u571f\u4ea4\u901a\u7701\u4e5d\u5dde\u5730\u65b9\u6574\u5099\u5c40\u718a\u672c\u6cb3\u5ddd\u56fd\u9053\u4e8b\u52d9\u6240","boring_xml_url":47,"boring_view_url":1,"soilmap_view_url":null,"soiltest_xml_url":0,"soiltest_view_url":0},{"id":693967,"code":"NGIC202303917-0007","latitude":"32.685142222222","longitude":"131.06325416667","source_code":"","project_name":"","survey_name":"\u4ee4\u548c5\u5e74\u5ea6\u77e2\u90e8\u6e05\u548c\u9053\u8def\u5730\u8cea\u8abf\u67fb\uff08\u305d\u306e2\uff09\u696d\u52d9","client_name":"\u56fd\u571f\u4ea4\u901a\u7701\u4e5d\u5dde\u5730\u65b9\u6574\u5099\u5c40\u718a\u672c\u6cb3\u5ddd\u56fd\u9053\u4e8b\u52d9\u6240","boring_xml_url":47,"boring_view_url":1,"soilmap_view_url":null,"soiltest_xml_url":0,"soiltest_view_url":0},{"id":693966,"code":"NGIC202303917-0006","latitude":"32.684261388889","longitude":"131.05942083333","source_code":"","project_name":"","survey_name":"\u4ee4\u548c5\u5e74\u5ea6\u77e2\u90e8\u6e05\u548c\u9053\u8def\u5730\u8cea\u8abf\u67fb\uff08\u305d\u306e2\uff09\u696d\u52d9","client_name":"\u56fd\u571f\u4ea4\u901a\u7701\u4e5d\u5dde\u5730\u65b9\u6574\u5099\u5c40\u718a\u672c\u6cb3\u5ddd\u56fd\u9053\u4e8b\u52d9\u6240","boring_xml_url":47,"boring_view_url":1,"soilmap_view_url":null,"soiltest_xml_url":0,"soiltest_view_url":0},{"id":693965,"code":"NGIC202303917-0005","latitude":"32.681306388889","longitude":"131.04482027778","source_code":"","project_name":"","survey_name":"\u4ee4\u548c5\u5e74\u5ea6\u77e2\u90e8\u6e05\u548c\u9053\u8def\u5730\u8cea\u8abf\u67fb\uff08\u305d\u306e2\uff09\u696d\u52d9","client_name":"\u56fd\u571f\u4ea4\u901a\u7701\u4e5d\u5dde\u5730\u65b9\u6574\u5099\u5c40\u718a\u672c\u6cb3\u5ddd\u56fd\u9053\u4e8b\u52d9\u6240","boring_xml_url":47,"boring_view_url":1,"soilmap_view_url":null,"soiltest_xml_url":0,"soiltest_view_url":0},{"id":693964,"code":"NGIC202303917-0004","latitude":"32.681924166667","longitude":"131.04459361111","source_code":"","project_name":"","survey_name":"\u4ee4\u548c5\u5e74\u5ea6\u77e2\u90e8\u6e05\u548c\u9053\u8def\u5730\u8cea\u8abf\u67fb\uff08\u305d\u306e2\uff09\u696d\u52d9","client_name":"\u56fd\u571f\u4ea4\u901a\u7701\u4e5d\u5dde\u5730\u65b9\u6574\u5099\u5c40\u718a\u672c\u6cb3\u5ddd\u56fd\u9053\u4e8b\u52d9\u6240","boring_xml_url":47,"boring_view_url":1,"soilmap_view_url":null,"soiltest_xml_url":0,"soiltest_view_url":0},{"id":693963,"code":"NGIC202303917-0003","latitude":"32.681900555556","longitude":"131.04249694444","source_code":"","project_name":"","survey_name":"\u4ee4\u548c5\u5e74\u5ea6\u77e2\u90e8\u6e05\u548c\u9053\u8def\u5730\u8cea\u8abf\u67fb\uff08\u305d\u306e2\uff09\u696d\u52d9","client_name":"\u56fd\u571f\u4ea4\u901a\u7701\u4e5d\u5dde\u5730\u65b9\u6574\u5099\u5c40\u718a\u672c\u6cb3\u5ddd\u56fd\u9053\u4e8b\u52d9\u6240","boring_xml_url":47,"boring_view_url":1,"soilmap_view_url":null,"soiltest_xml_url":47,"soiltest_view_url":47},{"id":693962,"code":"NGIC202303917-0002","latitude":"32.688384722222","longitude":"131.02427027778","source_code":"","project_name":"","survey_name":"\u4ee4\u548c5\u5e74\u5ea6\u77e2\u90e8\u6e05\u548c\u9053\u8def\u5730\u8cea\u8abf\u67fb\uff08\u305d\u306e2\uff09\u696d\u52d9","client_name":"\u56fd\u571f\u4ea4\u901a\u7701\u4e5d\u5dde\u5730\u65b9\u6574\u5099\u5c40\u718a\u672c\u6cb3\u5ddd\u56fd\u9053\u4e8b\u52d9\u6240","boring_xml_url":47,"boring_view_url":1,"soilmap_view_url":null,"soiltest_xml_url":0,"soiltest_view_url":0},{"id":693961,"code":"NGIC202303917-0001","latitude":"32.687962777778","longitude":"131.0231325","source_code":"","project_name":"","survey_name":"\u4ee4\u548c5\u5e74\u5ea6\u77e2\u90e8\u6e05\u548c\u9053\u8def\u5730\u8cea\u8abf\u67fb\uff08\u305d\u306e2\uff09\u696d\u52d9","client_name":"\u56fd\u571f\u4ea4\u901a\u7701\u4e5d\u5dde\u5730\u65b9\u6574\u5099\u5c40\u718a\u672c\u6cb3\u5ddd\u56fd\u9053\u4e8b\u52d9\u6240","boring_xml_url":47,"boring_view_url":1,"soilmap_view_url":null,"soiltest_xml_url":0,"soiltest_view_url":0},{"id":693960,"code":"NGIC202303873-0003","latitude":"32.872770972222","longitude":"130.97503713889","source_code":"","project_name":"","survey_name":"\u30c0\u30e0\u8caf\u6c34\u6c60\u659c\u9762\u89b3\u6e2c\u691c\u8a0e\u696d\u52d9","client_name":"\u56fd\u571f\u4ea4\u901a\u7701\u4e5d\u5dde\u5730\u65b9\u6574\u5099\u5c40\u7acb\u91ce\u30c0\u30e0\u5de5\u4e8b\u4e8b\u52d9\u6240","boring_xml_url":47,"boring_view_url":1,"soilmap_view_url":null,"soiltest_xml_url":0,"soiltest_view_url":0},{"id":693959,"code":"NGIC202303873-0002","latitude":"32.872541527778","longitude":"130.97523013889","source_code":"","project_name":"","survey_name":"\u30c0\u30e0\u8caf\u6c34\u6c60\u659c\u9762\u89b3\u6e2c\u691c\u8a0e\u696d\u52d9","client_name":"\u56fd\u571f\u4ea4\u901a\u7701\u4e5d\u5dde\u5730\u65b9\u6574\u5099\u5c40\u7acb\u91ce\u30c0\u30e0\u5de5\u4e8b\u4e8b\u52d9\u6240","boring_xml_url":47,"boring_view_url":1,"soilmap_view_url":null,"soiltest_xml_url":0,"soiltest_view_url":0}]}}