{"header":{"xyz":{"source":[],"mosaic":false},"page":924,"raw":{"soiltest_result":"0","bbox":"57.598333,109.544722,1.933333,163.806111","page":"924"},"conditions":{"soiltest_result":0,"north":57.598333,"west":109.544722,"south":1.933333,"east":163.806111},"success":true,"message":""},"data":{"meta":{"total":212844,"page":924,"pages":7095,"count":30},"values":[{"id":517698,"code":"B4KJ202201002-0234","latitude":"34.818056","longitude":"135.321389","source_code":"KK00001","project_name":"","survey_name":"\u540d\u5869\u9053\u8def\u751f\u702c\u5730\u533a\u4ed6\u5730\u8cea\u8abf\u67fb\u696d\u52d9","client_name":"\u56fd\u571f\u4ea4\u901a\u7701\u8fd1\u757f\u5730\u65b9\u6574\u5099\u5c40\u5175\u5eab\u56fd\u9053\u4e8b\u52d9\u6240","boring_xml_url":42,"boring_view_url":1,"soilmap_view_url":null,"soiltest_xml_url":0,"soiltest_view_url":0},{"id":517697,"code":"B4KJ202201002-0233","latitude":"34.602417","longitude":"136.0565","source_code":"KK16867320040070016","project_name":"\u5b87\u9640\u5ddd\u5de6\u5cb8\u7802\u9632\u5830\u5824\u8a73\u7d30\u8a2d\u8a08\u696d\u52d9","survey_name":"\u5b87\u9640\u5ddd\u5de6\u5cb8\u7802\u9632\u5830\u5824\u8a73\u7d30\u8a2d\u8a08\u696d\u52d9","client_name":"\u56fd\u571f\u4ea4\u901a\u7701\u3000\u8fd1\u757f\u5730\u65b9\u6574\u5099\u5c40\u3000\u6728\u6d25\u5ddd\u4e0a\u6d41\u6cb3\u5ddd\u4e8b\u52d9\u6240","boring_xml_url":66,"boring_view_url":1,"soilmap_view_url":null,"soiltest_xml_url":0,"soiltest_view_url":0},{"id":517696,"code":"B4KJ202201002-0232","latitude":"34.602472","longitude":"136.056139","source_code":"KK16867320040070015","project_name":"\u5b87\u9640\u5ddd\u5de6\u5cb8\u7802\u9632\u5830\u5824\u8a73\u7d30\u8a2d\u8a08\u696d\u52d9","survey_name":"\u5b87\u9640\u5ddd\u5de6\u5cb8\u7802\u9632\u5830\u5824\u8a73\u7d30\u8a2d\u8a08\u696d\u52d9","client_name":"\u56fd\u571f\u4ea4\u901a\u7701\u3000\u8fd1\u757f\u5730\u65b9\u6574\u5099\u5c40\u3000\u6728\u6d25\u5ddd\u4e0a\u6d41\u6cb3\u5ddd\u4e8b\u52d9\u6240","boring_xml_url":66,"boring_view_url":1,"soilmap_view_url":null,"soiltest_xml_url":0,"soiltest_view_url":0},{"id":517695,"code":"B4KJ202201002-0231","latitude":"34.602167","longitude":"136.056333","source_code":"KK16867320040070014","project_name":"\u5b87\u9640\u5ddd\u5de6\u5cb8\u7802\u9632\u5830\u5824\u8a73\u7d30\u8a2d\u8a08\u696d\u52d9","survey_name":"\u5b87\u9640\u5ddd\u5de6\u5cb8\u7802\u9632\u5830\u5824\u8a73\u7d30\u8a2d\u8a08\u696d\u52d9","client_name":"\u56fd\u571f\u4ea4\u901a\u7701\u3000\u8fd1\u757f\u5730\u65b9\u6574\u5099\u5c40\u3000\u6728\u6d25\u5ddd\u4e0a\u6d41\u6cb3\u5ddd\u4e8b\u52d9\u6240","boring_xml_url":66,"boring_view_url":1,"soilmap_view_url":null,"soiltest_xml_url":0,"soiltest_view_url":0},{"id":517694,"code":"B4KJ202201002-0230","latitude":"34.602306","longitude":"136.05625","source_code":"KK16867320040070013","project_name":"\u5b87\u9640\u5ddd\u5de6\u5cb8\u7802\u9632\u5830\u5824\u8a73\u7d30\u8a2d\u8a08\u696d\u52d9","survey_name":"\u5b87\u9640\u5ddd\u5de6\u5cb8\u7802\u9632\u5830\u5824\u8a73\u7d30\u8a2d\u8a08\u696d\u52d9","client_name":"\u56fd\u571f\u4ea4\u901a\u7701\u3000\u8fd1\u757f\u5730\u65b9\u6574\u5099\u5c40\u3000\u6728\u6d25\u5ddd\u4e0a\u6d41\u6cb3\u5ddd\u4e8b\u52d9\u6240","boring_xml_url":66,"boring_view_url":1,"soilmap_view_url":null,"soiltest_xml_url":0,"soiltest_view_url":0},{"id":517693,"code":"B4KJ202201002-0229","latitude":"34.602778","longitude":"136.056444","source_code":"KK16867320040070012","project_name":"\u5b87\u9640\u5ddd\u5de6\u5cb8\u7802\u9632\u5830\u5824\u8a73\u7d30\u8a2d\u8a08\u696d\u52d9","survey_name":"\u5b87\u9640\u5ddd\u5de6\u5cb8\u7802\u9632\u5830\u5824\u8a73\u7d30\u8a2d\u8a08\u696d\u52d9","client_name":"\u56fd\u571f\u4ea4\u901a\u7701\u3000\u8fd1\u757f\u5730\u65b9\u6574\u5099\u5c40\u3000\u6728\u6d25\u5ddd\u4e0a\u6d41\u6cb3\u5ddd\u4e8b\u52d9\u6240","boring_xml_url":66,"boring_view_url":1,"soilmap_view_url":null,"soiltest_xml_url":0,"soiltest_view_url":0},{"id":517692,"code":"B4KJ202201002-0228","latitude":"34.603083","longitude":"136.056306","source_code":"KK16867320040070011","project_name":"\u5b87\u9640\u5ddd\u5de6\u5cb8\u7802\u9632\u5830\u5824\u8a73\u7d30\u8a2d\u8a08\u696d\u52d9","survey_name":"\u5b87\u9640\u5ddd\u5de6\u5cb8\u7802\u9632\u5830\u5824\u8a73\u7d30\u8a2d\u8a08\u696d\u52d9","client_name":"\u56fd\u571f\u4ea4\u901a\u7701\u3000\u8fd1\u757f\u5730\u65b9\u6574\u5099\u5c40\u3000\u6728\u6d25\u5ddd\u4e0a\u6d41\u6cb3\u5ddd\u4e8b\u52d9\u6240","boring_xml_url":66,"boring_view_url":1,"soilmap_view_url":null,"soiltest_xml_url":0,"soiltest_view_url":0},{"id":517691,"code":"B4KJ202201002-0227","latitude":"34.60275","longitude":"136.056083","source_code":"KK16867320040070010","project_name":"\u5b87\u9640\u5ddd\u5de6\u5cb8\u7802\u9632\u5830\u5824\u8a73\u7d30\u8a2d\u8a08\u696d\u52d9","survey_name":"\u5b87\u9640\u5ddd\u5de6\u5cb8\u7802\u9632\u5830\u5824\u8a73\u7d30\u8a2d\u8a08\u696d\u52d9","client_name":"\u56fd\u571f\u4ea4\u901a\u7701\u3000\u8fd1\u757f\u5730\u65b9\u6574\u5099\u5c40\u3000\u6728\u6d25\u5ddd\u4e0a\u6d41\u6cb3\u5ddd\u4e8b\u52d9\u6240","boring_xml_url":66,"boring_view_url":1,"soilmap_view_url":null,"soiltest_xml_url":0,"soiltest_view_url":0},{"id":517690,"code":"B4KJ202201002-0226","latitude":"34.602917","longitude":"136.056194","source_code":"KK16867320040070009","project_name":"\u5b87\u9640\u5ddd\u5de6\u5cb8\u7802\u9632\u5830\u5824\u8a73\u7d30\u8a2d\u8a08\u696d\u52d9","survey_name":"\u5b87\u9640\u5ddd\u5de6\u5cb8\u7802\u9632\u5830\u5824\u8a73\u7d30\u8a2d\u8a08\u696d\u52d9","client_name":"\u56fd\u571f\u4ea4\u901a\u7701\u3000\u8fd1\u757f\u5730\u65b9\u6574\u5099\u5c40\u3000\u6728\u6d25\u5ddd\u4e0a\u6d41\u6cb3\u5ddd\u4e8b\u52d9\u6240","boring_xml_url":66,"boring_view_url":1,"soilmap_view_url":null,"soiltest_xml_url":0,"soiltest_view_url":0},{"id":517689,"code":"B4KJ202201002-0225","latitude":"34.604","longitude":"136.056722","source_code":"KK16867320040070008","project_name":"\u5b87\u9640\u5ddd\u5de6\u5cb8\u7802\u9632\u5830\u5824\u8a73\u7d30\u8a2d\u8a08\u696d\u52d9","survey_name":"\u5b87\u9640\u5ddd\u5de6\u5cb8\u7802\u9632\u5830\u5824\u8a73\u7d30\u8a2d\u8a08\u696d\u52d9","client_name":"\u56fd\u571f\u4ea4\u901a\u7701\u3000\u8fd1\u757f\u5730\u65b9\u6574\u5099\u5c40\u3000\u6728\u6d25\u5ddd\u4e0a\u6d41\u6cb3\u5ddd\u4e8b\u52d9\u6240","boring_xml_url":66,"boring_view_url":1,"soilmap_view_url":null,"soiltest_xml_url":0,"soiltest_view_url":0},{"id":517688,"code":"B4KJ202201002-0224","latitude":"34.604278","longitude":"136.056444","source_code":"KK16867320040070007","project_name":"\u5b87\u9640\u5ddd\u5de6\u5cb8\u7802\u9632\u5830\u5824\u8a73\u7d30\u8a2d\u8a08\u696d\u52d9","survey_name":"\u5b87\u9640\u5ddd\u5de6\u5cb8\u7802\u9632\u5830\u5824\u8a73\u7d30\u8a2d\u8a08\u696d\u52d9","client_name":"\u56fd\u571f\u4ea4\u901a\u7701\u3000\u8fd1\u757f\u5730\u65b9\u6574\u5099\u5c40\u3000\u6728\u6d25\u5ddd\u4e0a\u6d41\u6cb3\u5ddd\u4e8b\u52d9\u6240","boring_xml_url":66,"boring_view_url":1,"soilmap_view_url":null,"soiltest_xml_url":0,"soiltest_view_url":0},{"id":517687,"code":"B4KJ202201002-0223","latitude":"34.603917","longitude":"136.056333","source_code":"KK16867320040070006","project_name":"\u5b87\u9640\u5ddd\u5de6\u5cb8\u7802\u9632\u5830\u5824\u8a73\u7d30\u8a2d\u8a08\u696d\u52d9","survey_name":"\u5b87\u9640\u5ddd\u5de6\u5cb8\u7802\u9632\u5830\u5824\u8a73\u7d30\u8a2d\u8a08\u696d\u52d9","client_name":"\u56fd\u571f\u4ea4\u901a\u7701\u3000\u8fd1\u757f\u5730\u65b9\u6574\u5099\u5c40\u3000\u6728\u6d25\u5ddd\u4e0a\u6d41\u6cb3\u5ddd\u4e8b\u52d9\u6240","boring_xml_url":66,"boring_view_url":1,"soilmap_view_url":null,"soiltest_xml_url":0,"soiltest_view_url":0},{"id":517686,"code":"B4KJ202201002-0222","latitude":"34.604083","longitude":"136.056389","source_code":"KK16867320040070005","project_name":"\u5b87\u9640\u5ddd\u5de6\u5cb8\u7802\u9632\u5830\u5824\u8a73\u7d30\u8a2d\u8a08\u696d\u52d9","survey_name":"\u5b87\u9640\u5ddd\u5de6\u5cb8\u7802\u9632\u5830\u5824\u8a73\u7d30\u8a2d\u8a08\u696d\u52d9","client_name":"\u56fd\u571f\u4ea4\u901a\u7701\u3000\u8fd1\u757f\u5730\u65b9\u6574\u5099\u5c40\u3000\u6728\u6d25\u5ddd\u4e0a\u6d41\u6cb3\u5ddd\u4e8b\u52d9\u6240","boring_xml_url":66,"boring_view_url":1,"soilmap_view_url":null,"soiltest_xml_url":0,"soiltest_view_url":0},{"id":517685,"code":"B4KJ202201002-0221","latitude":"34.568139","longitude":"136.011306","source_code":"KK16867320040070004","project_name":"\u5b87\u9640\u5ddd\u5de6\u5cb8\u7802\u9632\u5830\u5824\u8a73\u7d30\u8a2d\u8a08\u696d\u52d9","survey_name":"\u5b87\u9640\u5ddd\u5de6\u5cb8\u7802\u9632\u5830\u5824\u8a73\u7d30\u8a2d\u8a08\u696d\u52d9","client_name":"\u56fd\u571f\u4ea4\u901a\u7701\u3000\u8fd1\u757f\u5730\u65b9\u6574\u5099\u5c40\u3000\u6728\u6d25\u5ddd\u4e0a\u6d41\u6cb3\u5ddd\u4e8b\u52d9\u6240","boring_xml_url":66,"boring_view_url":1,"soilmap_view_url":null,"soiltest_xml_url":0,"soiltest_view_url":0},{"id":517684,"code":"B4KJ202201002-0220","latitude":"34.568472","longitude":"136.011306","source_code":"KK16867320040070003","project_name":"\u5b87\u9640\u5ddd\u5de6\u5cb8\u7802\u9632\u5830\u5824\u8a73\u7d30\u8a2d\u8a08\u696d\u52d9","survey_name":"\u5b87\u9640\u5ddd\u5de6\u5cb8\u7802\u9632\u5830\u5824\u8a73\u7d30\u8a2d\u8a08\u696d\u52d9","client_name":"\u56fd\u571f\u4ea4\u901a\u7701\u3000\u8fd1\u757f\u5730\u65b9\u6574\u5099\u5c40\u3000\u6728\u6d25\u5ddd\u4e0a\u6d41\u6cb3\u5ddd\u4e8b\u52d9\u6240","boring_xml_url":66,"boring_view_url":1,"soilmap_view_url":null,"soiltest_xml_url":0,"soiltest_view_url":0},{"id":517683,"code":"B4KJ202201002-0219","latitude":"34.568111","longitude":"136.011","source_code":"KK16867320040070002","project_name":"\u5b87\u9640\u5ddd\u5de6\u5cb8\u7802\u9632\u5830\u5824\u8a73\u7d30\u8a2d\u8a08\u696d\u52d9","survey_name":"\u5b87\u9640\u5ddd\u5de6\u5cb8\u7802\u9632\u5830\u5824\u8a73\u7d30\u8a2d\u8a08\u696d\u52d9","client_name":"\u56fd\u571f\u4ea4\u901a\u7701\u3000\u8fd1\u757f\u5730\u65b9\u6574\u5099\u5c40\u3000\u6728\u6d25\u5ddd\u4e0a\u6d41\u6cb3\u5ddd\u4e8b\u52d9\u6240","boring_xml_url":66,"boring_view_url":1,"soilmap_view_url":null,"soiltest_xml_url":0,"soiltest_view_url":0},{"id":517682,"code":"B4KJ202201002-0218","latitude":"34.56825","longitude":"136.011139","source_code":"KK16867320040070001","project_name":"\u5b87\u9640\u5ddd\u5de6\u5cb8\u7802\u9632\u5830\u5824\u8a73\u7d30\u8a2d\u8a08\u696d\u52d9","survey_name":"\u5b87\u9640\u5ddd\u5de6\u5cb8\u7802\u9632\u5830\u5824\u8a73\u7d30\u8a2d\u8a08\u696d\u52d9","client_name":"\u56fd\u571f\u4ea4\u901a\u7701\u3000\u8fd1\u757f\u5730\u65b9\u6574\u5099\u5c40\u3000\u6728\u6d25\u5ddd\u4e0a\u6d41\u6cb3\u5ddd\u4e8b\u52d9\u6240","boring_xml_url":66,"boring_view_url":1,"soilmap_view_url":null,"soiltest_xml_url":0,"soiltest_view_url":0},{"id":517681,"code":"B4KJ202201002-0217","latitude":"34.729475","longitude":"135.823342","source_code":"KK158636200100090006","project_name":"\u6728\u6d25\u6771\u30d0\u30a4\u30d1\u30b9\u6728\u6d25\u5927\u8c37\u5730\u533a\u6539\u826f\u5de5\u4e8b","survey_name":"\u6728\u6d25\u6771\u30d0\u30a4\u30d1\u30b9\u6728\u6d25\u5927\u8c37\u5730\u533a\u6539\u826f\u5de5\u4e8b","client_name":"\u56fd\u571f\u4ea4\u901a\u7701\u8fd1\u757f\u5730\u65b9\u6574\u5099\u5c40\u4eac\u90fd\u56fd\u9053\u5de5\u4e8b\u4e8b\u52d9\u6240","boring_xml_url":68,"boring_view_url":1,"soilmap_view_url":null,"soiltest_xml_url":0,"soiltest_view_url":0},{"id":517680,"code":"B4KJ202201002-0216","latitude":"34.729131","longitude":"135.823139","source_code":"KK158636200100090005","project_name":"\u6728\u6d25\u6771\u30d0\u30a4\u30d1\u30b9\u6728\u6d25\u5927\u8c37\u5730\u533a\u6539\u826f\u5de5\u4e8b","survey_name":"\u6728\u6d25\u6771\u30d0\u30a4\u30d1\u30b9\u6728\u6d25\u5927\u8c37\u5730\u533a\u6539\u826f\u5de5\u4e8b","client_name":"\u56fd\u571f\u4ea4\u901a\u7701\u8fd1\u757f\u5730\u65b9\u6574\u5099\u5c40\u4eac\u90fd\u56fd\u9053\u5de5\u4e8b\u4e8b\u52d9\u6240","boring_xml_url":68,"boring_view_url":1,"soilmap_view_url":null,"soiltest_xml_url":0,"soiltest_view_url":0},{"id":517679,"code":"B4KJ202201002-0215","latitude":"34.729669","longitude":"135.822844","source_code":"KK158636200100090004","project_name":"\u6728\u6d25\u6771\u30d0\u30a4\u30d1\u30b9\u6728\u6d25\u5927\u8c37\u5730\u533a\u6539\u826f\u5de5\u4e8b","survey_name":"\u6728\u6d25\u6771\u30d0\u30a4\u30d1\u30b9\u6728\u6d25\u5927\u8c37\u5730\u533a\u6539\u826f\u5de5\u4e8b","client_name":"\u56fd\u571f\u4ea4\u901a\u7701\u8fd1\u757f\u5730\u65b9\u6574\u5099\u5c40\u4eac\u90fd\u56fd\u9053\u5de5\u4e8b\u4e8b\u52d9\u6240","boring_xml_url":68,"boring_view_url":1,"soilmap_view_url":null,"soiltest_xml_url":0,"soiltest_view_url":0},{"id":517678,"code":"B4KJ202201002-0214","latitude":"34.729353","longitude":"135.822608","source_code":"KK158636200100090003","project_name":"\u6728\u6d25\u6771\u30d0\u30a4\u30d1\u30b9\u6728\u6d25\u5927\u8c37\u5730\u533a\u6539\u826f\u5de5\u4e8b","survey_name":"\u6728\u6d25\u6771\u30d0\u30a4\u30d1\u30b9\u6728\u6d25\u5927\u8c37\u5730\u533a\u6539\u826f\u5de5\u4e8b","client_name":"\u56fd\u571f\u4ea4\u901a\u7701\u8fd1\u757f\u5730\u65b9\u6574\u5099\u5c40\u4eac\u90fd\u56fd\u9053\u5de5\u4e8b\u4e8b\u52d9\u6240","boring_xml_url":68,"boring_view_url":1,"soilmap_view_url":null,"soiltest_xml_url":0,"soiltest_view_url":0},{"id":517677,"code":"B4KJ202201002-0213","latitude":"34.729722","longitude":"135.822333","source_code":"KK158636200100090002","project_name":"\u6728\u6d25\u6771\u30d0\u30a4\u30d1\u30b9\u6728\u6d25\u5927\u8c37\u5730\u533a\u6539\u826f\u5de5\u4e8b","survey_name":"\u6728\u6d25\u6771\u30d0\u30a4\u30d1\u30b9\u6728\u6d25\u5927\u8c37\u5730\u533a\u6539\u826f\u5de5\u4e8b","client_name":"\u56fd\u571f\u4ea4\u901a\u7701\u8fd1\u757f\u5730\u65b9\u6574\u5099\u5c40\u4eac\u90fd\u56fd\u9053\u5de5\u4e8b\u4e8b\u52d9\u6240","boring_xml_url":68,"boring_view_url":1,"soilmap_view_url":null,"soiltest_xml_url":0,"soiltest_view_url":0},{"id":517676,"code":"B4KJ202201002-0212","latitude":"34.729489","longitude":"135.8223","source_code":"KK158636200100090001","project_name":"\u6728\u6d25\u6771\u30d0\u30a4\u30d1\u30b9\u6728\u6d25\u5927\u8c37\u5730\u533a\u6539\u826f\u5de5\u4e8b","survey_name":"\u6728\u6d25\u6771\u30d0\u30a4\u30d1\u30b9\u6728\u6d25\u5927\u8c37\u5730\u533a\u6539\u826f\u5de5\u4e8b","client_name":"\u56fd\u571f\u4ea4\u901a\u7701\u8fd1\u757f\u5730\u65b9\u6574\u5099\u5c40\u4eac\u90fd\u56fd\u9053\u5de5\u4e8b\u4e8b\u52d9\u6240","boring_xml_url":68,"boring_view_url":1,"soilmap_view_url":null,"soiltest_xml_url":0,"soiltest_view_url":0},{"id":517675,"code":"B4KJ202201002-0211","latitude":"34.846239","longitude":"135.772764","source_code":"KK168636330400080013","project_name":"\u5bfa\u7530\u62e1\u5e45\u5bfa\u7530\u9ad8\u67b6\u6a4b\u5730\u8cea\u8abf\u67fb\u696d\u52d9","survey_name":"\u5bfa\u7530\u62e1\u5e45\u5bfa\u7530\u9ad8\u67b6\u6a4b\u5730\u8cea\u8abf\u67fb\u696d\u52d9","client_name":"\"\u56fd\u571f\u4ea4\u901a\u7701 \u8fd1\u757f\u5730\u65b9\u6574\u5099\u5c40 \u4eac\u90fd\u56fd\u9053\u4e8b\u52d9\u6240\"","boring_xml_url":68,"boring_view_url":1,"soilmap_view_url":null,"soiltest_xml_url":0,"soiltest_view_url":0},{"id":517674,"code":"B4KJ202201002-0210","latitude":"34.846236","longitude":"135.771582","source_code":"KK168636330400080012","project_name":"\u5bfa\u7530\u62e1\u5e45\u5bfa\u7530\u9ad8\u67b6\u6a4b\u5730\u8cea\u8abf\u67fb\u696d\u52d9","survey_name":"\u5bfa\u7530\u62e1\u5e45\u5bfa\u7530\u9ad8\u67b6\u6a4b\u5730\u8cea\u8abf\u67fb\u696d\u52d9","client_name":"\"\u56fd\u571f\u4ea4\u901a\u7701 \u8fd1\u757f\u5730\u65b9\u6574\u5099\u5c40 \u4eac\u90fd\u56fd\u9053\u4e8b\u52d9\u6240\"","boring_xml_url":68,"boring_view_url":1,"soilmap_view_url":null,"soiltest_xml_url":0,"soiltest_view_url":0},{"id":517673,"code":"B4KJ202201002-0209","latitude":"34.846408","longitude":"135.776164","source_code":"KK168636330400080011","project_name":"\u5bfa\u7530\u62e1\u5e45\u5bfa\u7530\u9ad8\u67b6\u6a4b\u5730\u8cea\u8abf\u67fb\u696d\u52d9","survey_name":"\u5bfa\u7530\u62e1\u5e45\u5bfa\u7530\u9ad8\u67b6\u6a4b\u5730\u8cea\u8abf\u67fb\u696d\u52d9","client_name":"\"\u56fd\u571f\u4ea4\u901a\u7701 \u8fd1\u757f\u5730\u65b9\u6574\u5099\u5c40 \u4eac\u90fd\u56fd\u9053\u4e8b\u52d9\u6240\"","boring_xml_url":68,"boring_view_url":1,"soilmap_view_url":null,"soiltest_xml_url":0,"soiltest_view_url":0},{"id":517672,"code":"B4KJ202201002-0208","latitude":"34.846405","longitude":"135.774576","source_code":"KK168636330400080010","project_name":"\u5bfa\u7530\u62e1\u5e45\u5bfa\u7530\u9ad8\u67b6\u6a4b\u5730\u8cea\u8abf\u67fb\u696d\u52d9","survey_name":"\u5bfa\u7530\u62e1\u5e45\u5bfa\u7530\u9ad8\u67b6\u6a4b\u5730\u8cea\u8abf\u67fb\u696d\u52d9","client_name":"\"\u56fd\u571f\u4ea4\u901a\u7701 \u8fd1\u757f\u5730\u65b9\u6574\u5099\u5c40 \u4eac\u90fd\u56fd\u9053\u4e8b\u52d9\u6240\"","boring_xml_url":68,"boring_view_url":1,"soilmap_view_url":null,"soiltest_xml_url":0,"soiltest_view_url":0},{"id":517671,"code":"B4KJ202201002-0207","latitude":"34.846404","longitude":"135.773848","source_code":"KK168636330400080009","project_name":"\u5bfa\u7530\u62e1\u5e45\u5bfa\u7530\u9ad8\u67b6\u6a4b\u5730\u8cea\u8abf\u67fb\u696d\u52d9","survey_name":"\u5bfa\u7530\u62e1\u5e45\u5bfa\u7530\u9ad8\u67b6\u6a4b\u5730\u8cea\u8abf\u67fb\u696d\u52d9","client_name":"\"\u56fd\u571f\u4ea4\u901a\u7701 \u8fd1\u757f\u5730\u65b9\u6574\u5099\u5c40 \u4eac\u90fd\u56fd\u9053\u4e8b\u52d9\u6240\"","boring_xml_url":68,"boring_view_url":1,"soilmap_view_url":null,"soiltest_xml_url":0,"soiltest_view_url":0},{"id":517670,"code":"B4KJ202201002-0206","latitude":"34.846403","longitude":"135.773545","source_code":"KK168636330400080008","project_name":"\u5bfa\u7530\u62e1\u5e45\u5bfa\u7530\u9ad8\u67b6\u6a4b\u5730\u8cea\u8abf\u67fb\u696d\u52d9","survey_name":"\u5bfa\u7530\u62e1\u5e45\u5bfa\u7530\u9ad8\u67b6\u6a4b\u5730\u8cea\u8abf\u67fb\u696d\u52d9","client_name":"\"\u56fd\u571f\u4ea4\u901a\u7701 \u8fd1\u757f\u5730\u65b9\u6574\u5099\u5c40 \u4eac\u90fd\u56fd\u9053\u4e8b\u52d9\u6240\"","boring_xml_url":68,"boring_view_url":1,"soilmap_view_url":null,"soiltest_xml_url":0,"soiltest_view_url":0},{"id":517669,"code":"B4KJ202201002-0205","latitude":"34.846321","longitude":"135.773097","source_code":"KK168636330400080007","project_name":"\u5bfa\u7530\u62e1\u5e45\u5bfa\u7530\u9ad8\u67b6\u6a4b\u5730\u8cea\u8abf\u67fb\u696d\u52d9","survey_name":"\u5bfa\u7530\u62e1\u5e45\u5bfa\u7530\u9ad8\u67b6\u6a4b\u5730\u8cea\u8abf\u67fb\u696d\u52d9","client_name":"\"\u56fd\u571f\u4ea4\u901a\u7701 \u8fd1\u757f\u5730\u65b9\u6574\u5099\u5c40 \u4eac\u90fd\u56fd\u9053\u4e8b\u52d9\u6240\"","boring_xml_url":68,"boring_view_url":1,"soilmap_view_url":null,"soiltest_xml_url":0,"soiltest_view_url":0}]}}