{"header":{"xyz":{"source":[],"mosaic":false},"page":93,"raw":{"soiltest_result":"0","bbox":"57.598333,109.544722,1.933333,163.806111","page":"93"},"conditions":{"soiltest_result":0,"north":57.598333,"west":109.544722,"south":1.933333,"east":163.806111},"success":true,"message":""},"data":{"meta":{"total":212844,"page":93,"pages":7095,"count":30},"values":[{"id":693958,"code":"NGIC202303873-0001","latitude":"32.872783027778","longitude":"130.97503019444","source_code":"","project_name":"","survey_name":"\u30c0\u30e0\u8caf\u6c34\u6c60\u659c\u9762\u89b3\u6e2c\u691c\u8a0e\u696d\u52d9","client_name":"\u56fd\u571f\u4ea4\u901a\u7701\u4e5d\u5dde\u5730\u65b9\u6574\u5099\u5c40\u7acb\u91ce\u30c0\u30e0\u5de5\u4e8b\u4e8b\u52d9\u6240","boring_xml_url":47,"boring_view_url":1,"soilmap_view_url":null,"soiltest_xml_url":0,"soiltest_view_url":0},{"id":693957,"code":"NGIC202303889-0006","latitude":"33.329122777778","longitude":"130.03874361111","source_code":"","project_name":"","survey_name":"\u4ee4\u548c5\u5e74\u5ea6\u53b3\u6728\u5ddd\u6a2a\u65ad\u5de5\u4f5c\u7269\u4e88\u5099\u8a2d\u8a08\u696d\u52d9","client_name":"\u56fd\u571f\u4ea4\u901a\u7701\u4e5d\u5dde\u5730\u65b9\u6574\u5099\u5c40\u6b66\u96c4\u6cb3\u5ddd\u4e8b\u52d9\u6240","boring_xml_url":47,"boring_view_url":1,"soilmap_view_url":null,"soiltest_xml_url":47,"soiltest_view_url":47},{"id":693956,"code":"NGIC202303889-0005","latitude":"33.329021666667","longitude":"130.03874361111","source_code":"","project_name":"","survey_name":"\u4ee4\u548c5\u5e74\u5ea6\u53b3\u6728\u5ddd\u6a2a\u65ad\u5de5\u4f5c\u7269\u4e88\u5099\u8a2d\u8a08\u696d\u52d9","client_name":"\u56fd\u571f\u4ea4\u901a\u7701\u4e5d\u5dde\u5730\u65b9\u6574\u5099\u5c40\u6b66\u96c4\u6cb3\u5ddd\u4e8b\u52d9\u6240","boring_xml_url":47,"boring_view_url":1,"soilmap_view_url":null,"soiltest_xml_url":47,"soiltest_view_url":47},{"id":693955,"code":"NGIC202303889-0004","latitude":"33.328672222222","longitude":"130.03892","source_code":"","project_name":"","survey_name":"\u4ee4\u548c5\u5e74\u5ea6\u53b3\u6728\u5ddd\u6a2a\u65ad\u5de5\u4f5c\u7269\u4e88\u5099\u8a2d\u8a08\u696d\u52d9","client_name":"\u56fd\u571f\u4ea4\u901a\u7701\u4e5d\u5dde\u5730\u65b9\u6574\u5099\u5c40\u6b66\u96c4\u6cb3\u5ddd\u4e8b\u52d9\u6240","boring_xml_url":47,"boring_view_url":1,"soilmap_view_url":null,"soiltest_xml_url":47,"soiltest_view_url":47},{"id":693954,"code":"NGIC202303889-0003","latitude":"33.3285875","longitude":"130.03891333333","source_code":"","project_name":"","survey_name":"\u4ee4\u548c5\u5e74\u5ea6\u53b3\u6728\u5ddd\u6a2a\u65ad\u5de5\u4f5c\u7269\u4e88\u5099\u8a2d\u8a08\u696d\u52d9","client_name":"\u56fd\u571f\u4ea4\u901a\u7701\u4e5d\u5dde\u5730\u65b9\u6574\u5099\u5c40\u6b66\u96c4\u6cb3\u5ddd\u4e8b\u52d9\u6240","boring_xml_url":47,"boring_view_url":1,"soilmap_view_url":null,"soiltest_xml_url":0,"soiltest_view_url":0},{"id":693953,"code":"NGIC202303889-0002","latitude":"33.328306666667","longitude":"130.03911638889","source_code":"","project_name":"","survey_name":"\u4ee4\u548c5\u5e74\u5ea6\u53b3\u6728\u5ddd\u6a2a\u65ad\u5de5\u4f5c\u7269\u4e88\u5099\u8a2d\u8a08\u696d\u52d9","client_name":"\u56fd\u571f\u4ea4\u901a\u7701\u4e5d\u5dde\u5730\u65b9\u6574\u5099\u5c40\u6b66\u96c4\u6cb3\u5ddd\u4e8b\u52d9\u6240","boring_xml_url":47,"boring_view_url":1,"soilmap_view_url":null,"soiltest_xml_url":47,"soiltest_view_url":47},{"id":693952,"code":"NGIC202303889-0001","latitude":"33.328234722222","longitude":"130.03916916667","source_code":"","project_name":"","survey_name":"\u4ee4\u548c5\u5e74\u5ea6\u53b3\u6728\u5ddd\u6a2a\u65ad\u5de5\u4f5c\u7269\u4e88\u5099\u8a2d\u8a08\u696d\u52d9","client_name":"\u56fd\u571f\u4ea4\u901a\u7701\u4e5d\u5dde\u5730\u65b9\u6574\u5099\u5c40\u6b66\u96c4\u6cb3\u5ddd\u4e8b\u52d9\u6240","boring_xml_url":47,"boring_view_url":1,"soilmap_view_url":null,"soiltest_xml_url":47,"soiltest_view_url":47},{"id":693921,"code":"NGIC202304079-0008","latitude":"42.356696416667","longitude":"140.98761283333","source_code":"","project_name":"","survey_name":"\u4e00\u822c\u56fd\u905337\u53f7 \u9ed2\u677e\u5185\u753a \u9759\u72e9\u5730\u8cea\u8abf\u67fb\u696d\u52d9","client_name":"\u56fd\u571f\u4ea4\u901a\u7701\u5317\u6d77\u9053\u958b\u767a\u5c40\u5ba4\u862d\u958b\u767a\u5efa\u8a2d\u90e8\u672c\u90e8","boring_xml_url":47,"boring_view_url":1,"soilmap_view_url":null,"soiltest_xml_url":47,"soiltest_view_url":47},{"id":693920,"code":"NGIC202304079-0007","latitude":"42.356019527778","longitude":"140.98746238889","source_code":"","project_name":"","survey_name":"\u4e00\u822c\u56fd\u905337\u53f7 \u9ed2\u677e\u5185\u753a \u9759\u72e9\u5730\u8cea\u8abf\u67fb\u696d\u52d9","client_name":"\u56fd\u571f\u4ea4\u901a\u7701\u5317\u6d77\u9053\u958b\u767a\u5c40\u5ba4\u862d\u958b\u767a\u5efa\u8a2d\u90e8\u672c\u90e8","boring_xml_url":47,"boring_view_url":1,"soilmap_view_url":null,"soiltest_xml_url":47,"soiltest_view_url":47},{"id":693919,"code":"NGIC202304079-0006","latitude":"42.357060305556","longitude":"140.98771286111","source_code":"","project_name":"","survey_name":"\u4e00\u822c\u56fd\u905337\u53f7 \u9ed2\u677e\u5185\u753a \u9759\u72e9\u5730\u8cea\u8abf\u67fb\u696d\u52d9","client_name":"\u56fd\u571f\u4ea4\u901a\u7701\u5317\u6d77\u9053\u958b\u767a\u5c40\u5ba4\u862d\u958b\u767a\u5efa\u8a2d\u90e8\u672c\u90e8","boring_xml_url":47,"boring_view_url":1,"soilmap_view_url":null,"soiltest_xml_url":47,"soiltest_view_url":47},{"id":693918,"code":"NGIC202304079-0005","latitude":"42.60215275","longitude":"140.48307441667","source_code":"","project_name":"","survey_name":"\u4e00\u822c\u56fd\u905337\u53f7\u9ed2\u677e\u5185\u753a\u9759\u72e9\u5730\u8cea\u8abf\u67fb\u696d\u52d9","client_name":"\u56fd\u571f\u4ea4\u901a\u7701\u5317\u6d77\u9053\u958b\u767a\u5c40\u5ba4\u862d\u958b\u767a\u5efa\u8a2d\u90e8\u672c\u90e8","boring_xml_url":47,"boring_view_url":1,"soilmap_view_url":null,"soiltest_xml_url":0,"soiltest_view_url":0},{"id":693917,"code":"NGIC202304079-0004","latitude":"42.602257416667","longitude":"140.48223377778","source_code":"","project_name":"","survey_name":"\u4e00\u822c\u56fd\u905337\u53f7\u9ed2\u677e\u5185\u753a\u9759\u72e9\u5730\u8cea\u8abf\u67fb\u696d\u52d9","client_name":"\u56fd\u571f\u4ea4\u901a\u7701\u5317\u6d77\u9053\u958b\u767a\u5c40\u5ba4\u862d\u958b\u767a\u5efa\u8a2d\u90e8\u672c\u90e8","boring_xml_url":47,"boring_view_url":1,"soilmap_view_url":null,"soiltest_xml_url":0,"soiltest_view_url":0},{"id":693916,"code":"NGIC202304079-0003","latitude":"42.602301","longitude":"140.48174991667","source_code":"","project_name":"","survey_name":"\u4e00\u822c\u56fd\u905337\u53f7\u9ed2\u677e\u5185\u753a\u9759\u72e9\u5730\u8cea\u8abf\u67fb\u696d\u52d9","client_name":"\u56fd\u571f\u4ea4\u901a\u7701\u5317\u6d77\u9053\u958b\u767a\u5c40\u5ba4\u862d\u958b\u767a\u5efa\u8a2d\u90e8\u672c\u90e8","boring_xml_url":47,"boring_view_url":1,"soilmap_view_url":null,"soiltest_xml_url":0,"soiltest_view_url":0},{"id":693915,"code":"NGIC202304079-0002","latitude":"42.602332527778","longitude":"140.48126438889","source_code":"","project_name":"","survey_name":"\u4e00\u822c\u56fd\u905337\u53f7\u9ed2\u677e\u5185\u753a\u9759\u72e9\u5730\u8cea\u8abf\u67fb\u696d\u52d9","client_name":"\u56fd\u571f\u4ea4\u901a\u7701\u5317\u6d77\u9053\u958b\u767a\u5c40\u5ba4\u862d\u958b\u767a\u5efa\u8a2d\u90e8\u672c\u90e8","boring_xml_url":47,"boring_view_url":1,"soilmap_view_url":null,"soiltest_xml_url":0,"soiltest_view_url":0},{"id":693914,"code":"NGIC202304079-0001","latitude":"42.602353","longitude":"140.48077763889","source_code":"","project_name":"","survey_name":"\u4e00\u822c\u56fd\u905337\u53f7\u9ed2\u677e\u5185\u753a\u9759\u72e9\u5730\u8cea\u8abf\u67fb\u696d\u52d9","client_name":"\u56fd\u571f\u4ea4\u901a\u7701\u5317\u6d77\u9053\u958b\u767a\u5c40\u5ba4\u862d\u958b\u767a\u5efa\u8a2d\u90e8\u672c\u90e8","boring_xml_url":47,"boring_view_url":1,"soilmap_view_url":null,"soiltest_xml_url":0,"soiltest_view_url":0},{"id":693854,"code":"NGIC202303744-0002","latitude":"33.229166666667","longitude":"133.14772222222","source_code":"","project_name":"\u56fd\u905356\u53f7 64.2kp\u4ed8\u8fd1 \u30dc\u30fc\u30ea\u30f3\u30b0\u8abf\u67fb","survey_name":"\u4ee4\u548c5\u5e74\u5ea6\u4e2d\u6751\u7ba1\u5185\u9053\u8def\u571f\u5de5\u69cb\u9020\u7269\u70b9\u691c\u696d\u52d9","client_name":"\u56fd\u571f\u4ea4\u901a\u7701\u56db\u56fd\u5730\u65b9\u6574\u5099\u5c40\u4e2d\u6751\u6cb3\u5ddd\u56fd\u9053\u4e8b\u52d9\u6240","boring_xml_url":47,"boring_view_url":1,"soilmap_view_url":null,"soiltest_xml_url":0,"soiltest_view_url":0},{"id":693853,"code":"NGIC202303744-0001","latitude":"33.22925","longitude":"133.14766666667","source_code":"","project_name":"\u56fd\u905356\u53f7 64.2kp\u4ed8\u8fd1 \u30dc\u30fc\u30ea\u30f3\u30b0\u8abf\u67fb","survey_name":"\u4ee4\u548c5\u5e74\u5ea6\u4e2d\u6751\u7ba1\u5185\u9053\u8def\u571f\u5de5\u69cb\u9020\u7269\u70b9\u691c\u696d\u52d9","client_name":"\u56fd\u571f\u4ea4\u901a\u7701\u56db\u56fd\u5730\u65b9\u6574\u5099\u5c40\u4e2d\u6751\u6cb3\u5ddd\u56fd\u9053\u4e8b\u52d9\u6240","boring_xml_url":47,"boring_view_url":1,"soilmap_view_url":null,"soiltest_xml_url":0,"soiltest_view_url":0},{"id":693830,"code":"NGIC202303724-0012","latitude":"32.688423722222","longitude":"131.02299136111","source_code":"","project_name":"","survey_name":"\u4ee4\u548c5\u5e74\u5ea6\u77e2\u90e8\u6e05\u548c\u9053\u8def\u5730\u8cea\u8abf\u67fb\uff08\u305d\u306e1\uff09\u696d\u52d9","client_name":"\u56fd\u571f\u4ea4\u901a\u7701\u4e5d\u5dde\u5730\u65b9\u6574\u5099\u5c40\u718a\u672c\u6cb3\u5ddd\u56fd\u9053\u4e8b\u52d9\u6240","boring_xml_url":47,"boring_view_url":1,"soilmap_view_url":null,"soiltest_xml_url":0,"soiltest_view_url":0},{"id":693829,"code":"NGIC202303724-0011","latitude":"32.686410694444","longitude":"131.01711197222","source_code":"","project_name":"","survey_name":"\u4ee4\u548c5\u5e74\u5ea6\u77e2\u90e8\u6e05\u548c\u9053\u8def\u5730\u8cea\u8abf\u67fb\uff08\u305d\u306e1\uff09\u696d\u52d9","client_name":"\u56fd\u571f\u4ea4\u901a\u7701\u4e5d\u5dde\u5730\u65b9\u6574\u5099\u5c40\u718a\u672c\u6cb3\u5ddd\u56fd\u9053\u4e8b\u52d9\u6240","boring_xml_url":47,"boring_view_url":1,"soilmap_view_url":null,"soiltest_xml_url":0,"soiltest_view_url":0},{"id":693828,"code":"NGIC202303724-0010","latitude":"32.686950972222","longitude":"131.01698741667","source_code":"","project_name":"","survey_name":"\u4ee4\u548c5\u5e74\u5ea6\u77e2\u90e8\u6e05\u548c\u9053\u8def\u5730\u8cea\u8abf\u67fb\uff08\u305d\u306e1\uff09\u696d\u52d9","client_name":"\u56fd\u571f\u4ea4\u901a\u7701\u4e5d\u5dde\u5730\u65b9\u6574\u5099\u5c40\u718a\u672c\u6cb3\u5ddd\u56fd\u9053\u4e8b\u52d9\u6240","boring_xml_url":47,"boring_view_url":1,"soilmap_view_url":null,"soiltest_xml_url":0,"soiltest_view_url":0},{"id":693827,"code":"NGIC202303724-0009","latitude":"32.687688555556","longitude":"131.00816225","source_code":"","project_name":"","survey_name":"\u4ee4\u548c5\u5e74\u5ea6\u77e2\u90e8\u6e05\u548c\u9053\u8def\u5730\u8cea\u8abf\u67fb\uff08\u305d\u306e1\uff09\u696d\u52d9","client_name":"\u56fd\u571f\u4ea4\u901a\u7701\u4e5d\u5dde\u5730\u65b9\u6574\u5099\u5c40\u718a\u672c\u6cb3\u5ddd\u56fd\u9053\u4e8b\u52d9\u6240","boring_xml_url":47,"boring_view_url":1,"soilmap_view_url":null,"soiltest_xml_url":0,"soiltest_view_url":0},{"id":693826,"code":"NGIC202303724-0008","latitude":"32.688090583333","longitude":"131.00848461111","source_code":"","project_name":"","survey_name":"\u4ee4\u548c5\u5e74\u5ea6\u77e2\u90e8\u6e05\u548c\u9053\u8def\u5730\u8cea\u8abf\u67fb\uff08\u305d\u306e1\uff09\u696d\u52d9","client_name":"\u56fd\u571f\u4ea4\u901a\u7701\u4e5d\u5dde\u5730\u65b9\u6574\u5099\u5c40\u718a\u672c\u6cb3\u5ddd\u56fd\u9053\u4e8b\u52d9\u6240","boring_xml_url":47,"boring_view_url":1,"soilmap_view_url":null,"soiltest_xml_url":0,"soiltest_view_url":0},{"id":693825,"code":"NGIC202303724-0007","latitude":"32.688976611111","longitude":"131.00692297222","source_code":"","project_name":"","survey_name":"\u4ee4\u548c5\u5e74\u5ea6\u77e2\u90e8\u6e05\u548c\u9053\u8def\u5730\u8cea\u8abf\u67fb\uff08\u305d\u306e1\uff09\u696d\u52d9","client_name":"\u56fd\u571f\u4ea4\u901a\u7701\u4e5d\u5dde\u5730\u65b9\u6574\u5099\u5c40\u718a\u672c\u6cb3\u5ddd\u56fd\u9053\u4e8b\u52d9\u6240","boring_xml_url":47,"boring_view_url":1,"soilmap_view_url":null,"soiltest_xml_url":0,"soiltest_view_url":0},{"id":693824,"code":"NGIC202303724-0006","latitude":"32.689314916667","longitude":"131.00587258333","source_code":"","project_name":"","survey_name":"\u4ee4\u548c5\u5e74\u5ea6\u77e2\u90e8\u6e05\u548c\u9053\u8def\u5730\u8cea\u8abf\u67fb\uff08\u305d\u306e1\uff09\u696d\u52d9","client_name":"\u56fd\u571f\u4ea4\u901a\u7701\u4e5d\u5dde\u5730\u65b9\u6574\u5099\u5c40\u718a\u672c\u6cb3\u5ddd\u56fd\u9053\u4e8b\u52d9\u6240","boring_xml_url":47,"boring_view_url":1,"soilmap_view_url":null,"soiltest_xml_url":47,"soiltest_view_url":47},{"id":693823,"code":"NGIC202303724-0005","latitude":"32.690837277778","longitude":"131.00106863889","source_code":"","project_name":"","survey_name":"\u4ee4\u548c5\u5e74\u5ea6\u77e2\u90e8\u6e05\u548c\u9053\u8def\u5730\u8cea\u8abf\u67fb\uff08\u305d\u306e1\uff09\u696d\u52d9","client_name":"\u56fd\u571f\u4ea4\u901a\u7701\u4e5d\u5dde\u5730\u65b9\u6574\u5099\u5c40\u718a\u672c\u6cb3\u5ddd\u56fd\u9053\u4e8b\u52d9\u6240","boring_xml_url":47,"boring_view_url":1,"soilmap_view_url":null,"soiltest_xml_url":47,"soiltest_view_url":47},{"id":693822,"code":"NGIC202303724-0004","latitude":"32.691233055556","longitude":"131.00208925","source_code":"","project_name":"","survey_name":"\u4ee4\u548c5\u5e74\u5ea6\u77e2\u90e8\u6e05\u548c\u9053\u8def\u5730\u8cea\u8abf\u67fb\uff08\u305d\u306e1\uff09\u696d\u52d9","client_name":"\u56fd\u571f\u4ea4\u901a\u7701\u4e5d\u5dde\u5730\u65b9\u6574\u5099\u5c40\u718a\u672c\u6cb3\u5ddd\u56fd\u9053\u4e8b\u52d9\u6240","boring_xml_url":47,"boring_view_url":1,"soilmap_view_url":null,"soiltest_xml_url":47,"soiltest_view_url":47},{"id":693821,"code":"NGIC202303724-0003","latitude":"32.691401611111","longitude":"130.99968702778","source_code":"","project_name":"","survey_name":"\u4ee4\u548c5\u5e74\u5ea6\u77e2\u90e8\u6e05\u548c\u9053\u8def\u5730\u8cea\u8abf\u67fb\uff08\u305d\u306e1\uff09\u696d\u52d9","client_name":"\u56fd\u571f\u4ea4\u901a\u7701\u4e5d\u5dde\u5730\u65b9\u6574\u5099\u5c40\u718a\u672c\u6cb3\u5ddd\u56fd\u9053\u4e8b\u52d9\u6240","boring_xml_url":47,"boring_view_url":1,"soilmap_view_url":null,"soiltest_xml_url":47,"soiltest_view_url":47},{"id":693820,"code":"NGIC202303724-0002","latitude":"32.692058722222","longitude":"130.99878872222","source_code":"","project_name":"","survey_name":"\u4ee4\u548c5\u5e74\u5ea6\u77e2\u90e8\u6e05\u548c\u9053\u8def\u5730\u8cea\u8abf\u67fb\uff08\u305d\u306e1\uff09\u696d\u52d9","client_name":"\u56fd\u571f\u4ea4\u901a\u7701\u4e5d\u5dde\u5730\u65b9\u6574\u5099\u5c40\u718a\u672c\u6cb3\u5ddd\u56fd\u9053\u4e8b\u52d9\u6240","boring_xml_url":47,"boring_view_url":1,"soilmap_view_url":null,"soiltest_xml_url":0,"soiltest_view_url":0},{"id":693819,"code":"NGIC202303724-0001","latitude":"32.692492027778","longitude":"130.99773238889","source_code":"","project_name":"","survey_name":"\u4ee4\u548c5\u5e74\u5ea6\u77e2\u90e8\u6e05\u548c\u9053\u8def\u5730\u8cea\u8abf\u67fb\uff08\u305d\u306e1\uff09\u696d\u52d9","client_name":"\u56fd\u571f\u4ea4\u901a\u7701\u4e5d\u5dde\u5730\u65b9\u6574\u5099\u5c40\u718a\u672c\u6cb3\u5ddd\u56fd\u9053\u4e8b\u52d9\u6240","boring_xml_url":47,"boring_view_url":1,"soilmap_view_url":null,"soiltest_xml_url":47,"soiltest_view_url":47},{"id":693791,"code":"NGIC202304084-0001","latitude":"35.370602777778","longitude":"136.82252777778","source_code":"","project_name":"\u4ee4\u548c5\u5e74\u5ea6 \u4e00\u822c\u770c\u9053\u677e\u539f\u828b\u5cf6\u7dda\u5ddd\u5cf6\u5927\u6a4b\u53f3\u5cb8\u6a4b\u53f0\u5de5\u4e8b","survey_name":"\u4ee4\u548c5\u5e74\u5ea6 \u4e00\u822c\u770c\u9053\u677e\u539f\u828b\u5cf6\u7dda\u5ddd\u5cf6\u5927\u6a4b\u53f3\u5cb8\u6a4b\u53f0\u5de5\u4e8b","client_name":"\u56fd\u571f\u4ea4\u901a\u7701\u4e2d\u90e8\u5730\u65b9\u6574\u5099\u5c40\u5c90\u961c\u56fd\u9053\u4e8b\u52d9\u6240","boring_xml_url":47,"boring_view_url":1,"soilmap_view_url":null,"soiltest_xml_url":0,"soiltest_view_url":0}]}}