{"header":{"xyz":{"source":[],"mosaic":false},"page":931,"raw":{"soiltest_result":"0","bbox":"57.598333,109.544722,1.933333,163.806111","page":"931"},"conditions":{"soiltest_result":0,"north":57.598333,"west":109.544722,"south":1.933333,"east":163.806111},"success":true,"message":""},"data":{"meta":{"total":212844,"page":931,"pages":7095,"count":30},"values":[{"id":517488,"code":"B4KJ202201002-0024","latitude":"34.735714","longitude":"135.281267","source_code":"KK158652330400080001","project_name":"","survey_name":"\u4fdd\u4e45\u826f\u7802\u9632\u5830\u5824\u88dc\u5f37\u6539\u826f\u8a2d\u8a08\u696d\u52d9","client_name":"\u56fd\u571f\u4ea4\u901a\u7701\u8fd1\u757f\u5730\u65b9\u6574\u5099\u5c40\u3000\u516d\u7532\u7802\u9632\u4e8b\u52d9\u6240","boring_xml_url":68,"boring_view_url":1,"soilmap_view_url":null,"soiltest_xml_url":0,"soiltest_view_url":0},{"id":517487,"code":"B4KJ202201002-0023","latitude":"34.777008","longitude":"135.189817","source_code":"KK158652330400070015","project_name":"","survey_name":"\u6c34\u7121\u5ddd\u6d41\u57df\u4ed6\u7802\u9632\u5830\u5824\u8a2d\u8a08\u696d\u52d9","client_name":"\"\u56fd\u571f\u4ea4\u901a\u7701 \u8fd1\u757f\u5730\u65b9\u6574\u5099\u5c40 \u516d\u7532\u7802\u9632\u4e8b\u52d9\u6240\"","boring_xml_url":68,"boring_view_url":1,"soilmap_view_url":null,"soiltest_xml_url":0,"soiltest_view_url":0},{"id":517486,"code":"B4KJ202201002-0022","latitude":"34.777275","longitude":"135.189586","source_code":"KK158652330400070014","project_name":"","survey_name":"\u6c34\u7121\u5ddd\u6d41\u57df\u4ed6\u7802\u9632\u5830\u5824\u8a2d\u8a08\u696d\u52d9","client_name":"\"\u56fd\u571f\u4ea4\u901a\u7701 \u8fd1\u757f\u5730\u65b9\u6574\u5099\u5c40 \u516d\u7532\u7802\u9632\u4e8b\u52d9\u6240\"","boring_xml_url":68,"boring_view_url":1,"soilmap_view_url":null,"soiltest_xml_url":0,"soiltest_view_url":0},{"id":517485,"code":"B4KJ202201002-0021","latitude":"34.777306","longitude":"135.189881","source_code":"KK158652330400070013","project_name":"","survey_name":"\u6c34\u7121\u5ddd\u6d41\u57df\u4ed6\u7802\u9632\u5830\u5824\u8a2d\u8a08\u696d\u52d9","client_name":"\"\u56fd\u571f\u4ea4\u901a\u7701 \u8fd1\u757f\u5730\u65b9\u6574\u5099\u5c40 \u516d\u7532\u7802\u9632\u4e8b\u52d9\u6240\"","boring_xml_url":68,"boring_view_url":1,"soilmap_view_url":null,"soiltest_xml_url":0,"soiltest_view_url":0},{"id":517484,"code":"B4KJ202201002-0020","latitude":"34.777097","longitude":"135.189525","source_code":"KK158652330400070012","project_name":"","survey_name":"\u6c34\u7121\u5ddd\u6d41\u57df\u4ed6\u7802\u9632\u5830\u5824\u8a2d\u8a08\u696d\u52d9","client_name":"\"\u56fd\u571f\u4ea4\u901a\u7701 \u8fd1\u757f\u5730\u65b9\u6574\u5099\u5c40 \u516d\u7532\u7802\u9632\u4e8b\u52d9\u6240\"","boring_xml_url":68,"boring_view_url":1,"soilmap_view_url":null,"soiltest_xml_url":0,"soiltest_view_url":0},{"id":517483,"code":"B4KJ202201002-0019","latitude":"34.777181","longitude":"135.189667","source_code":"KK158652330400070011","project_name":"","survey_name":"\u6c34\u7121\u5ddd\u6d41\u57df\u4ed6\u7802\u9632\u5830\u5824\u8a2d\u8a08\u696d\u52d9","client_name":"\"\u56fd\u571f\u4ea4\u901a\u7701 \u8fd1\u757f\u5730\u65b9\u6574\u5099\u5c40 \u516d\u7532\u7802\u9632\u4e8b\u52d9\u6240\"","boring_xml_url":68,"boring_view_url":1,"soilmap_view_url":null,"soiltest_xml_url":0,"soiltest_view_url":0},{"id":517482,"code":"B4KJ202201002-0018","latitude":"34.759028","longitude":"135.165206","source_code":"KK158652330400070010","project_name":"","survey_name":"\u6c34\u7121\u5ddd\u6d41\u57df\u4ed6\u7802\u9632\u5830\u5824\u8a2d\u8a08\u696d\u52d9","client_name":"\"\u56fd\u571f\u4ea4\u901a\u7701 \u8fd1\u757f\u5730\u65b9\u6574\u5099\u5c40 \u516d\u7532\u7802\u9632\u4e8b\u52d9\u6240\"","boring_xml_url":68,"boring_view_url":1,"soilmap_view_url":null,"soiltest_xml_url":0,"soiltest_view_url":0},{"id":517481,"code":"B4KJ202201002-0017","latitude":"34.758767","longitude":"135.165125","source_code":"KK158652330400070009","project_name":"","survey_name":"\u6c34\u7121\u5ddd\u6d41\u57df\u4ed6\u7802\u9632\u5830\u5824\u8a2d\u8a08\u696d\u52d9","client_name":"\"\u56fd\u571f\u4ea4\u901a\u7701 \u8fd1\u757f\u5730\u65b9\u6574\u5099\u5c40 \u516d\u7532\u7802\u9632\u4e8b\u52d9\u6240\"","boring_xml_url":68,"boring_view_url":1,"soilmap_view_url":null,"soiltest_xml_url":0,"soiltest_view_url":0},{"id":517480,"code":"B4KJ202201002-0016","latitude":"34.758953","longitude":"135.165036","source_code":"KK158652330400070008","project_name":"","survey_name":"\u6c34\u7121\u5ddd\u6d41\u57df\u4ed6\u7802\u9632\u5830\u5824\u8a2d\u8a08\u696d\u52d9","client_name":"\"\u56fd\u571f\u4ea4\u901a\u7701 \u8fd1\u757f\u5730\u65b9\u6574\u5099\u5c40 \u516d\u7532\u7802\u9632\u4e8b\u52d9\u6240\"","boring_xml_url":68,"boring_view_url":1,"soilmap_view_url":null,"soiltest_xml_url":0,"soiltest_view_url":0},{"id":517479,"code":"B4KJ202201002-0015","latitude":"34.758897","longitude":"135.1653","source_code":"KK158652330400070007","project_name":"","survey_name":"\u6c34\u7121\u5ddd\u6d41\u57df\u4ed6\u7802\u9632\u5830\u5824\u8a2d\u8a08\u696d\u52d9","client_name":"\"\u56fd\u571f\u4ea4\u901a\u7701 \u8fd1\u757f\u5730\u65b9\u6574\u5099\u5c40 \u516d\u7532\u7802\u9632\u4e8b\u52d9\u6240\"","boring_xml_url":68,"boring_view_url":1,"soilmap_view_url":null,"soiltest_xml_url":0,"soiltest_view_url":0},{"id":517478,"code":"B4KJ202201002-0014","latitude":"34.758922","longitude":"135.165172","source_code":"KK158652330400070006","project_name":"","survey_name":"\u6c34\u7121\u5ddd\u6d41\u57df\u4ed6\u7802\u9632\u5830\u5824\u8a2d\u8a08\u696d\u52d9","client_name":"\"\u56fd\u571f\u4ea4\u901a\u7701 \u8fd1\u757f\u5730\u65b9\u6574\u5099\u5c40 \u516d\u7532\u7802\u9632\u4e8b\u52d9\u6240\"","boring_xml_url":68,"boring_view_url":1,"soilmap_view_url":null,"soiltest_xml_url":0,"soiltest_view_url":0},{"id":517477,"code":"B4KJ202201002-0013","latitude":"34.794853","longitude":"135.225431","source_code":"KK158652330400070005","project_name":"","survey_name":"\u6c34\u7121\u5ddd\u6d41\u57df\u4ed6\u7802\u9632\u5830\u5824\u8a2d\u8a08\u696d\u52d9","client_name":"\"\u56fd\u571f\u4ea4\u901a\u7701 \u8fd1\u757f\u5730\u65b9\u6574\u5099\u5c40 \u516d\u7532\u7802\u9632\u4e8b\u52d9\u6240\"","boring_xml_url":68,"boring_view_url":1,"soilmap_view_url":null,"soiltest_xml_url":0,"soiltest_view_url":0},{"id":517476,"code":"B4KJ202201002-0012","latitude":"34.794597","longitude":"135.225422","source_code":"KK158652330400070004","project_name":"","survey_name":"\u6c34\u7121\u5ddd\u6d41\u57df\u4ed6\u7802\u9632\u5830\u5824\u8a2d\u8a08\u696d\u52d9","client_name":"\"\u56fd\u571f\u4ea4\u901a\u7701 \u8fd1\u757f\u5730\u65b9\u6574\u5099\u5c40 \u516d\u7532\u7802\u9632\u4e8b\u52d9\u6240\"","boring_xml_url":68,"boring_view_url":1,"soilmap_view_url":null,"soiltest_xml_url":0,"soiltest_view_url":0},{"id":517475,"code":"B4KJ202201002-0011","latitude":"34.794714","longitude":"135.225242","source_code":"KK158652330400070003","project_name":"","survey_name":"\u6c34\u7121\u5ddd\u6d41\u57df\u4ed6\u7802\u9632\u5830\u5824\u8a2d\u8a08\u696d\u52d9","client_name":"\"\u56fd\u571f\u4ea4\u901a\u7701 \u8fd1\u757f\u5730\u65b9\u6574\u5099\u5c40 \u516d\u7532\u7802\u9632\u4e8b\u52d9\u6240\"","boring_xml_url":68,"boring_view_url":1,"soilmap_view_url":null,"soiltest_xml_url":0,"soiltest_view_url":0},{"id":517474,"code":"B4KJ202201002-0010","latitude":"34.794708","longitude":"135.225614","source_code":"KK158652330400070002","project_name":"","survey_name":"\u6c34\u7121\u5ddd\u6d41\u57df\u4ed6\u7802\u9632\u5830\u5824\u8a2d\u8a08\u696d\u52d9","client_name":"\"\u56fd\u571f\u4ea4\u901a\u7701 \u8fd1\u757f\u5730\u65b9\u6574\u5099\u5c40 \u516d\u7532\u7802\u9632\u4e8b\u52d9\u6240\"","boring_xml_url":68,"boring_view_url":1,"soilmap_view_url":null,"soiltest_xml_url":0,"soiltest_view_url":0},{"id":517473,"code":"B4KJ202201002-0009","latitude":"34.794714","longitude":"135.225428","source_code":"KK158652330400070001","project_name":"","survey_name":"\u6c34\u7121\u5ddd\u6d41\u57df\u4ed6\u7802\u9632\u5830\u5824\u8a2d\u8a08\u696d\u52d9","client_name":"\"\u56fd\u571f\u4ea4\u901a\u7701 \u8fd1\u757f\u5730\u65b9\u6574\u5099\u5c40 \u516d\u7532\u7802\u9632\u4e8b\u52d9\u6240\"","boring_xml_url":68,"boring_view_url":1,"soilmap_view_url":null,"soiltest_xml_url":0,"soiltest_view_url":0},{"id":517472,"code":"B4KJ202201002-0008","latitude":"34.738039","longitude":"135.237967","source_code":"KK158652330400060004","project_name":"\u516d\u7532\u5c71\u7cfb\u5371\u967a\u659c\u9762\u6574\u5099\u8a73\u7d30\u8a2d\u8a08\u4ed6\u696d\u52d9","survey_name":"\u516d\u7532\u5c71\u7cfb\u5371\u967a\u659c\u9762\u6574\u5099\u8a73\u7d30\u8a2d\u8a08\u4ed6\u696d\u52d9","client_name":"\u56fd\u571f\u4ea4\u901a\u7701\u8fd1\u757f\u5730\u65b9\u6574\u5099\u5c40\u516d\u7532\u7802\u9632\u4e8b\u52d9\u6240","boring_xml_url":68,"boring_view_url":1,"soilmap_view_url":null,"soiltest_xml_url":0,"soiltest_view_url":0},{"id":517471,"code":"B4KJ202201002-0007","latitude":"34.738942","longitude":"135.238081","source_code":"KK158652330400060001","project_name":"\u516d\u7532\u5c71\u7cfb\u5371\u967a\u659c\u9762\u6574\u5099\u8a73\u7d30\u8a2d\u8a08\u4ed6\u696d\u52d9","survey_name":"\u516d\u7532\u5c71\u7cfb\u5371\u967a\u659c\u9762\u6574\u5099\u8a73\u7d30\u8a2d\u8a08\u4ed6\u696d\u52d9","client_name":"\u56fd\u571f\u4ea4\u901a\u7701\u8fd1\u757f\u5730\u65b9\u6574\u5099\u5c40\u516d\u7532\u7802\u9632\u4e8b\u52d9\u6240","boring_xml_url":68,"boring_view_url":1,"soilmap_view_url":null,"soiltest_xml_url":0,"soiltest_view_url":0},{"id":517470,"code":"B4KJ202201002-0006","latitude":"34.78525","longitude":"136.122667","source_code":"KK168673200100010002","project_name":"\u6728\u6d25\u5ddd\u4e09\u7530\u5730\u533a\u7bc9\u5824\u8b77\u5cb8\u4ed6\u5de5\u4e8b","survey_name":"\u6728\u6d25\u5ddd\u4e09\u7530\u5730\u533a\u7bc9\u5824\u8b77\u5cb8\u4ed6\u5de5\u4e8b","client_name":"\u56fd\u571f\u4ea4\u901a\u7701\u8fd1\u757f\u5730\u65b9\u6574\u5099\u5c40\u6728\u6d25\u5ddd\u4e0a\u6d41\u6cb3\u5ddd\u4e8b\u52d9\u6240","boring_xml_url":68,"boring_view_url":1,"soilmap_view_url":null,"soiltest_xml_url":0,"soiltest_view_url":0},{"id":517469,"code":"B4KJ202201002-0005","latitude":"34.785222","longitude":"136.122333","source_code":"KK168673200100010001","project_name":"\u6728\u6d25\u5ddd\u4e09\u7530\u5730\u533a\u7bc9\u5824\u8b77\u5cb8\u4ed6\u5de5\u4e8b","survey_name":"\u6728\u6d25\u5ddd\u4e09\u7530\u5730\u533a\u7bc9\u5824\u8b77\u5cb8\u4ed6\u5de5\u4e8b","client_name":"\u56fd\u571f\u4ea4\u901a\u7701\u8fd1\u757f\u5730\u65b9\u6574\u5099\u5c40\u6728\u6d25\u5ddd\u4e0a\u6d41\u6cb3\u5ddd\u4e8b\u52d9\u6240","boring_xml_url":68,"boring_view_url":1,"soilmap_view_url":null,"soiltest_xml_url":0,"soiltest_view_url":0},{"id":517468,"code":"B4KJ202201002-0004","latitude":"33.799167","longitude":"135.236611","source_code":"KK168666600400150004","project_name":"","survey_name":"\u56fd\u905342\u53f7\u3000\u65b0\u5207\u76ee\u6b69\u9053\u6a4b\u5730\u8cea\u8abf\u67fb\u696d\u52d9","client_name":"\u56fd\u571f\u4ea4\u901a\u7701\u3000\u8fd1\u757f\u5730\u65b9\u6574\u5099\u5c40\u3000\u7d00\u5357\u6cb3\u5ddd\u56fd\u9053\u4e8b\u52d9\u6240","boring_xml_url":68,"boring_view_url":1,"soilmap_view_url":null,"soiltest_xml_url":0,"soiltest_view_url":0},{"id":517467,"code":"B4KJ202201002-0003","latitude":"33.799278","longitude":"135.236417","source_code":"KK168666600400150003","project_name":"","survey_name":"\u56fd\u905342\u53f7\u3000\u65b0\u5207\u76ee\u6b69\u9053\u6a4b\u5730\u8cea\u8abf\u67fb\u696d\u52d9","client_name":"\u56fd\u571f\u4ea4\u901a\u7701\u3000\u8fd1\u757f\u5730\u65b9\u6574\u5099\u5c40\u3000\u7d00\u5357\u6cb3\u5ddd\u56fd\u9053\u4e8b\u52d9\u6240","boring_xml_url":68,"boring_view_url":1,"soilmap_view_url":null,"soiltest_xml_url":0,"soiltest_view_url":0},{"id":517466,"code":"B4KJ202201002-0002","latitude":"33.799556","longitude":"135.235944","source_code":"KK168666600400150002","project_name":"","survey_name":"\u56fd\u905342\u53f7\u3000\u65b0\u5207\u76ee\u6b69\u9053\u6a4b\u5730\u8cea\u8abf\u67fb\u696d\u52d9","client_name":"\u56fd\u571f\u4ea4\u901a\u7701\u3000\u8fd1\u757f\u5730\u65b9\u6574\u5099\u5c40\u3000\u7d00\u5357\u6cb3\u5ddd\u56fd\u9053\u4e8b\u52d9\u6240","boring_xml_url":68,"boring_view_url":1,"soilmap_view_url":null,"soiltest_xml_url":0,"soiltest_view_url":0},{"id":517465,"code":"B4KJ202201002-0001","latitude":"33.799694","longitude":"135.23575","source_code":"KK168666600400150001","project_name":"","survey_name":"\u56fd\u905342\u53f7\u3000\u65b0\u5207\u76ee\u6b69\u9053\u6a4b\u5730\u8cea\u8abf\u67fb\u696d\u52d9","client_name":"\u56fd\u571f\u4ea4\u901a\u7701\u3000\u8fd1\u757f\u5730\u65b9\u6574\u5099\u5c40\u3000\u7d00\u5357\u6cb3\u5ddd\u56fd\u9053\u4e8b\u52d9\u6240","boring_xml_url":68,"boring_view_url":1,"soilmap_view_url":null,"soiltest_xml_url":0,"soiltest_view_url":0},{"id":517464,"code":"B4KJ202201002-0000","latitude":"34.782042","longitude":"136.117922","source_code":"KK158673200400120007","project_name":"","survey_name":"\u4e0a\u91ce\u904a\u6c34\u5730\u6771\u9ad8\u5009\u5730\u533a\u5730\u8cea\u8abf\u67fb\u696d\u52d9","client_name":"\"\u56fd\u571f\u4ea4\u901a\u7701 \u8fd1\u757f\u5730\u65b9\u6574\u5099\u5c40 \u6728\u6d25\u5ddd\u4e0a\u6d41\u6cb3\u5ddd\u4e8b\u52d9\u6240\"","boring_xml_url":68,"boring_view_url":1,"soilmap_view_url":null,"soiltest_xml_url":0,"soiltest_view_url":0},{"id":517463,"code":"B4KJ202201001-9999","latitude":"34.782042","longitude":"136.117922","source_code":"KK158673200400120006","project_name":"","survey_name":"\u4e0a\u91ce\u904a\u6c34\u5730\u6771\u9ad8\u5009\u5730\u533a\u5730\u8cea\u8abf\u67fb\u696d\u52d9","client_name":"\"\u56fd\u571f\u4ea4\u901a\u7701 \u8fd1\u757f\u5730\u65b9\u6574\u5099\u5c40 \u6728\u6d25\u5ddd\u4e0a\u6d41\u6cb3\u5ddd\u4e8b\u52d9\u6240\"","boring_xml_url":68,"boring_view_url":1,"soilmap_view_url":null,"soiltest_xml_url":0,"soiltest_view_url":0},{"id":517462,"code":"B4KJ202201001-9998","latitude":"34.782025","longitude":"136.105344","source_code":"KK158673200400120005","project_name":"","survey_name":"\u4e0a\u91ce\u904a\u6c34\u5730\u6771\u9ad8\u5009\u5730\u533a\u5730\u8cea\u8abf\u67fb\u696d\u52d9","client_name":"\"\u56fd\u571f\u4ea4\u901a\u7701 \u8fd1\u757f\u5730\u65b9\u6574\u5099\u5c40 \u6728\u6d25\u5ddd\u4e0a\u6d41\u6cb3\u5ddd\u4e8b\u52d9\u6240\"","boring_xml_url":68,"boring_view_url":1,"soilmap_view_url":null,"soiltest_xml_url":0,"soiltest_view_url":0},{"id":517461,"code":"B4KJ202201001-9997","latitude":"34.784144","longitude":"136.116131","source_code":"KK158673200400120004","project_name":"","survey_name":"\u4e0a\u91ce\u904a\u6c34\u5730\u6771\u9ad8\u5009\u5730\u533a\u5730\u8cea\u8abf\u67fb\u696d\u52d9","client_name":"\"\u56fd\u571f\u4ea4\u901a\u7701 \u8fd1\u757f\u5730\u65b9\u6574\u5099\u5c40 \u6728\u6d25\u5ddd\u4e0a\u6d41\u6cb3\u5ddd\u4e8b\u52d9\u6240\"","boring_xml_url":68,"boring_view_url":1,"soilmap_view_url":null,"soiltest_xml_url":0,"soiltest_view_url":0},{"id":517460,"code":"B4KJ202201001-9996","latitude":"34.784778","longitude":"136.115997","source_code":"KK158673200400120003","project_name":"","survey_name":"\u4e0a\u91ce\u904a\u6c34\u5730\u6771\u9ad8\u5009\u5730\u533a\u5730\u8cea\u8abf\u67fb\u696d\u52d9","client_name":"\"\u56fd\u571f\u4ea4\u901a\u7701 \u8fd1\u757f\u5730\u65b9\u6574\u5099\u5c40 \u6728\u6d25\u5ddd\u4e0a\u6d41\u6cb3\u5ddd\u4e8b\u52d9\u6240\"","boring_xml_url":68,"boring_view_url":1,"soilmap_view_url":null,"soiltest_xml_url":0,"soiltest_view_url":0},{"id":517459,"code":"B4KJ202201001-9995","latitude":"34.785244","longitude":"136.115875","source_code":"KK158673200400120002","project_name":"","survey_name":"\u4e0a\u91ce\u904a\u6c34\u5730\u6771\u9ad8\u5009\u5730\u533a\u5730\u8cea\u8abf\u67fb\u696d\u52d9","client_name":"\"\u56fd\u571f\u4ea4\u901a\u7701 \u8fd1\u757f\u5730\u65b9\u6574\u5099\u5c40 \u6728\u6d25\u5ddd\u4e0a\u6d41\u6cb3\u5ddd\u4e8b\u52d9\u6240\"","boring_xml_url":68,"boring_view_url":1,"soilmap_view_url":null,"soiltest_xml_url":0,"soiltest_view_url":0}]}}