{"header":{"xyz":{"source":[],"mosaic":false},"page":936,"raw":{"soiltest_result":"0","bbox":"57.598333,109.544722,1.933333,163.806111","page":"936"},"conditions":{"soiltest_result":0,"north":57.598333,"west":109.544722,"south":1.933333,"east":163.806111},"success":true,"message":""},"data":{"meta":{"total":212844,"page":936,"pages":7095,"count":30},"values":[{"id":517338,"code":"B4KJ202201001-9874","latitude":"34.571915","longitude":"135.653492","source_code":"KK158641200400050001","project_name":"\u5927\u548c\u5ddd\u6cb3\u5ddd\u8b77\u5cb8\u8a2d\u8a08\u4ed6\u696d\u52d9","survey_name":"\u5927\u548c\u5ddd\u6cb3\u5ddd\u8b77\u5cb8\u8a2d\u8a08\u4ed6\u696d\u52d9","client_name":"\u56fd\u571f\u4ea4\u901a\u7701\u3000\u8fd1\u757f\u5730\u65b9\u6574\u5099\u5c40\u3000\u5927\u548c\u5ddd\u6cb3\u5ddd\u4e8b\u52d9\u6240","boring_xml_url":68,"boring_view_url":1,"soilmap_view_url":null,"soiltest_xml_url":0,"soiltest_view_url":0},{"id":517337,"code":"B4KJ202201001-9873","latitude":"34.587889","longitude":"135.753083","source_code":"KK158641330400140003","project_name":"\u5927\u548c\u5ddd\u4fdd\u7530\u5730\u533a\u6a0b\u9580\u8a73\u7d30\u8a2d\u8a08\u696d\u52d9","survey_name":"\u5927\u548c\u5ddd\u4fdd\u7530\u5730\u533a\u6a0b\u9580\u8a73\u7d30\u8a2d\u8a08\u696d\u52d9","client_name":"\"\u56fd\u571f\u4ea4\u901a\u7701 \u8fd1\u757f\u5730\u65b9\u6574\u5099\u5c40 \u5927\u548c\u5ddd\u6cb3\u5ddd\u4e8b\u52d9\u6240\"","boring_xml_url":68,"boring_view_url":1,"soilmap_view_url":null,"soiltest_xml_url":0,"soiltest_view_url":0},{"id":517336,"code":"B4KJ202201001-9872","latitude":"34.587833","longitude":"135.751806","source_code":"KK158641330400140002","project_name":"\u5927\u548c\u5ddd\u4fdd\u7530\u5730\u533a\u6a0b\u9580\u8a73\u7d30\u8a2d\u8a08\u696d\u52d9","survey_name":"\u5927\u548c\u5ddd\u4fdd\u7530\u5730\u533a\u6a0b\u9580\u8a73\u7d30\u8a2d\u8a08\u696d\u52d9","client_name":"\"\u56fd\u571f\u4ea4\u901a\u7701 \u8fd1\u757f\u5730\u65b9\u6574\u5099\u5c40 \u5927\u548c\u5ddd\u6cb3\u5ddd\u4e8b\u52d9\u6240\"","boring_xml_url":68,"boring_view_url":1,"soilmap_view_url":null,"soiltest_xml_url":0,"soiltest_view_url":0},{"id":517335,"code":"B4KJ202201001-9871","latitude":"34.588278","longitude":"135.751861","source_code":"KK158641330400140001","project_name":"\u5927\u548c\u5ddd\u4fdd\u7530\u5730\u533a\u6a0b\u9580\u8a73\u7d30\u8a2d\u8a08\u696d\u52d9","survey_name":"\u5927\u548c\u5ddd\u4fdd\u7530\u5730\u533a\u6a0b\u9580\u8a73\u7d30\u8a2d\u8a08\u696d\u52d9","client_name":"\"\u56fd\u571f\u4ea4\u901a\u7701 \u8fd1\u757f\u5730\u65b9\u6574\u5099\u5c40 \u5927\u548c\u5ddd\u6cb3\u5ddd\u4e8b\u52d9\u6240\"","boring_xml_url":68,"boring_view_url":1,"soilmap_view_url":null,"soiltest_xml_url":0,"soiltest_view_url":0},{"id":517334,"code":"B4KJ202201001-9870","latitude":"36.175833","longitude":"136.266391","source_code":"KK158670220100330002","project_name":"\u798f\u4e95\u30d0\u30a4\u30d1\u30b9\u5800\u6c34\u5730\u533a\u4ed6\u6539\u826f\u5de5\u4e8b","survey_name":"\u6c34\u6587\u8abf\u67fb","client_name":"\u56fd\u571f\u4ea4\u901a\u7701\u3000\u8fd1\u757f\u5730\u65b9\u6574\u5099\u5c40\u3000\u798f\u4e95\u6cb3\u5ddd\u56fd\u9053\u4e8b\u52d9\u6240","boring_xml_url":68,"boring_view_url":1,"soilmap_view_url":null,"soiltest_xml_url":0,"soiltest_view_url":0},{"id":517333,"code":"B4KJ202201001-9869","latitude":"36.176111","longitude":"136.265836","source_code":"KK158670220100330001","project_name":"\u798f\u4e95\u30d0\u30a4\u30d1\u30b9\u5800\u6c34\u5730\u533a\u4ed6\u6539\u826f\u5de5\u4e8b","survey_name":"\u6c34\u6587\u8abf\u67fb","client_name":"\u56fd\u571f\u4ea4\u901a\u7701\u3000\u8fd1\u757f\u5730\u65b9\u6574\u5099\u5c40\u3000\u798f\u4e95\u6cb3\u5ddd\u56fd\u9053\u4e8b\u52d9\u6240","boring_xml_url":68,"boring_view_url":1,"soilmap_view_url":null,"soiltest_xml_url":0,"soiltest_view_url":0},{"id":517332,"code":"B4KJ202201001-9868","latitude":"36.168217","longitude":"136.266588","source_code":"KK158670220100320003","project_name":"","survey_name":"\u798f\u4e95\u30d0\u30a4\u30d1\u30b9\u7b39\u5ca1\u5730\u533a\u5207\u571f\u5de5\u4e8b","client_name":"\"\u8fd1\u757f\u5730\u65b9\u6574\u5099\u5c40 \u798f\u4e95\u6cb3\u5ddd\u56fd\u9053\u4e8b\u52d9\u6240\"","boring_xml_url":68,"boring_view_url":1,"soilmap_view_url":null,"soiltest_xml_url":0,"soiltest_view_url":0},{"id":517331,"code":"B4KJ202201001-9867","latitude":"36.207843","longitude":"136.268208","source_code":"KK158670220100320002","project_name":"","survey_name":"\u798f\u4e95\u30d0\u30a4\u30d1\u30b9\u7b39\u5ca1\u5730\u533a\u5207\u571f\u5de5\u4e8b","client_name":"\"\u8fd1\u757f\u5730\u65b9\u6574\u5099\u5c40 \u798f\u4e95\u6cb3\u5ddd\u56fd\u9053\u4e8b\u52d9\u6240\"","boring_xml_url":68,"boring_view_url":1,"soilmap_view_url":null,"soiltest_xml_url":0,"soiltest_view_url":0},{"id":517330,"code":"B4KJ202201001-9866","latitude":"36.207336","longitude":"136.267934","source_code":"KK158670220100320001","project_name":"","survey_name":"\u798f\u4e95\u30d0\u30a4\u30d1\u30b9\u7b39\u5ca1\u5730\u533a\u5207\u571f\u5de5\u4e8b","client_name":"\"\u8fd1\u757f\u5730\u65b9\u6574\u5099\u5c40 \u798f\u4e95\u6cb3\u5ddd\u56fd\u9053\u4e8b\u52d9\u6240\"","boring_xml_url":68,"boring_view_url":1,"soilmap_view_url":null,"soiltest_xml_url":0,"soiltest_view_url":0},{"id":517329,"code":"B4KJ202201001-9865","latitude":"35.311639","longitude":"135.177944","source_code":"KK168635340400090002","project_name":"\u7531\u826f\u5ddd\u4e2d\u6d41\u90e8\u7dca\u6025\u6cbb\u6c34\u5bfe\u7b56\u8a73\u7d30\u8a2d\u8a08\u696d\u52d9","survey_name":"\u7531\u826f\u5ddd\u4e2d\u6d41\u90e8\u7dca\u6025\u6cbb\u6c34\u5bfe\u7b56\u8a73\u7d30\u8a2d\u8a08\u696d\u52d9","client_name":"\u56fd\u571f\u4ea4\u901a\u7701\u8fd1\u757f\u5730\u65b9\u6574\u5099\u5c40\u798f\u77e5\u5c71\u6cb3\u5ddd\u56fd\u9053\u4e8b\u52d9\u6240","boring_xml_url":68,"boring_view_url":1,"soilmap_view_url":null,"soiltest_xml_url":0,"soiltest_view_url":0},{"id":517328,"code":"B4KJ202201001-9864","latitude":"35.312333","longitude":"135.175528","source_code":"KK168635340400090001","project_name":"\u7531\u826f\u5ddd\u4e2d\u6d41\u90e8\u7dca\u6025\u6cbb\u6c34\u5bfe\u7b56\u8a73\u7d30\u8a2d\u8a08\u696d\u52d9","survey_name":"\u7531\u826f\u5ddd\u4e2d\u6d41\u90e8\u7dca\u6025\u6cbb\u6c34\u5bfe\u7b56\u8a73\u7d30\u8a2d\u8a08\u696d\u52d9","client_name":"\u56fd\u571f\u4ea4\u901a\u7701\u8fd1\u757f\u5730\u65b9\u6574\u5099\u5c40\u798f\u77e5\u5c71\u6cb3\u5ddd\u56fd\u9053\u4e8b\u52d9\u6240","boring_xml_url":68,"boring_view_url":1,"soilmap_view_url":null,"soiltest_xml_url":0,"soiltest_view_url":0},{"id":517327,"code":"B4KJ202201001-9863","latitude":"35.446333","longitude":"135.266222","source_code":"KK158635340400210009","project_name":"\u7531\u826f\u5ddd\u4e0b\u6d41\u90e8\u571f\u8cea\u8abf\u67fb\u696d\u52d9","survey_name":"\u7531\u826f\u5ddd\u4e0b\u6d41\u90e8\u571f\u8cea\u8abf\u67fb\u696d\u52d9","client_name":"\u56fd\u571f\u4ea4\u901a\u7701\u8fd1\u757f\u5730\u65b9\u6574\u5099\u5c40\u798f\u77e5\u5c71\u6cb3\u5ddd\u56fd\u9053\u4e8b\u52d9\u6240","boring_xml_url":68,"boring_view_url":1,"soilmap_view_url":null,"soiltest_xml_url":0,"soiltest_view_url":0},{"id":517326,"code":"B4KJ202201001-9862","latitude":"35.446333","longitude":"135.266222","source_code":"KK158635340400210008","project_name":"\u7531\u826f\u5ddd\u4e0b\u6d41\u90e8\u571f\u8cea\u8abf\u67fb\u696d\u52d9","survey_name":"\u7531\u826f\u5ddd\u4e0b\u6d41\u90e8\u571f\u8cea\u8abf\u67fb\u696d\u52d9","client_name":"\u56fd\u571f\u4ea4\u901a\u7701\u8fd1\u757f\u5730\u65b9\u6574\u5099\u5c40\u798f\u77e5\u5c71\u6cb3\u5ddd\u56fd\u9053\u4e8b\u52d9\u6240","boring_xml_url":68,"boring_view_url":1,"soilmap_view_url":null,"soiltest_xml_url":0,"soiltest_view_url":0},{"id":517325,"code":"B4KJ202201001-9861","latitude":"35.443211","longitude":"135.264586","source_code":"KK158635340400210007","project_name":"\u7531\u826f\u5ddd\u4e0b\u6d41\u90e8\u571f\u8cea\u8abf\u67fb\u696d\u52d9","survey_name":"\u7531\u826f\u5ddd\u4e0b\u6d41\u90e8\u571f\u8cea\u8abf\u67fb\u696d\u52d9","client_name":"\u56fd\u571f\u4ea4\u901a\u7701\u8fd1\u757f\u5730\u65b9\u6574\u5099\u5c40\u798f\u77e5\u5c71\u6cb3\u5ddd\u56fd\u9053\u4e8b\u52d9\u6240","boring_xml_url":68,"boring_view_url":1,"soilmap_view_url":null,"soiltest_xml_url":0,"soiltest_view_url":0},{"id":517324,"code":"B4KJ202201001-9860","latitude":"35.444978","longitude":"135.265792","source_code":"KK158635340400210006","project_name":"\u7531\u826f\u5ddd\u4e0b\u6d41\u90e8\u571f\u8cea\u8abf\u67fb\u696d\u52d9","survey_name":"\u7531\u826f\u5ddd\u4e0b\u6d41\u90e8\u571f\u8cea\u8abf\u67fb\u696d\u52d9","client_name":"\u56fd\u571f\u4ea4\u901a\u7701\u8fd1\u757f\u5730\u65b9\u6574\u5099\u5c40\u798f\u77e5\u5c71\u6cb3\u5ddd\u56fd\u9053\u4e8b\u52d9\u6240","boring_xml_url":68,"boring_view_url":1,"soilmap_view_url":null,"soiltest_xml_url":0,"soiltest_view_url":0},{"id":517323,"code":"B4KJ202201001-9859","latitude":"35.446639","longitude":"135.266","source_code":"KK158635340400210005","project_name":"\u7531\u826f\u5ddd\u4e0b\u6d41\u90e8\u571f\u8cea\u8abf\u67fb\u696d\u52d9","survey_name":"\u7531\u826f\u5ddd\u4e0b\u6d41\u90e8\u571f\u8cea\u8abf\u67fb\u696d\u52d9","client_name":"\u56fd\u571f\u4ea4\u901a\u7701\u8fd1\u757f\u5730\u65b9\u6574\u5099\u5c40\u798f\u77e5\u5c71\u6cb3\u5ddd\u56fd\u9053\u4e8b\u52d9\u6240","boring_xml_url":68,"boring_view_url":1,"soilmap_view_url":null,"soiltest_xml_url":0,"soiltest_view_url":0},{"id":517322,"code":"B4KJ202201001-9858","latitude":"35.457389","longitude":"135.282444","source_code":"KK158635340400210004","project_name":"\u7531\u826f\u5ddd\u4e0b\u6d41\u90e8\u571f\u8cea\u8abf\u67fb\u696d\u52d9","survey_name":"\u7531\u826f\u5ddd\u4e0b\u6d41\u90e8\u571f\u8cea\u8abf\u67fb\u696d\u52d9","client_name":"\u56fd\u571f\u4ea4\u901a\u7701\u8fd1\u757f\u5730\u65b9\u6574\u5099\u5c40\u798f\u77e5\u5c71\u6cb3\u5ddd\u56fd\u9053\u4e8b\u52d9\u6240","boring_xml_url":68,"boring_view_url":1,"soilmap_view_url":null,"soiltest_xml_url":0,"soiltest_view_url":0},{"id":517321,"code":"B4KJ202201001-9857","latitude":"35.459556","longitude":"135.284278","source_code":"KK158635340400210003","project_name":"\u7531\u826f\u5ddd\u4e0b\u6d41\u90e8\u571f\u8cea\u8abf\u67fb\u696d\u52d9","survey_name":"\u7531\u826f\u5ddd\u4e0b\u6d41\u90e8\u571f\u8cea\u8abf\u67fb\u696d\u52d9","client_name":"\u56fd\u571f\u4ea4\u901a\u7701\u8fd1\u757f\u5730\u65b9\u6574\u5099\u5c40\u798f\u77e5\u5c71\u6cb3\u5ddd\u56fd\u9053\u4e8b\u52d9\u6240","boring_xml_url":68,"boring_view_url":1,"soilmap_view_url":null,"soiltest_xml_url":0,"soiltest_view_url":0},{"id":517320,"code":"B4KJ202201001-9856","latitude":"35.4605","longitude":"135.285028","source_code":"KK158635340400210002","project_name":"\u7531\u826f\u5ddd\u4e0b\u6d41\u90e8\u571f\u8cea\u8abf\u67fb\u696d\u52d9","survey_name":"\u7531\u826f\u5ddd\u4e0b\u6d41\u90e8\u571f\u8cea\u8abf\u67fb\u696d\u52d9","client_name":"\u56fd\u571f\u4ea4\u901a\u7701\u8fd1\u757f\u5730\u65b9\u6574\u5099\u5c40\u798f\u77e5\u5c71\u6cb3\u5ddd\u56fd\u9053\u4e8b\u52d9\u6240","boring_xml_url":68,"boring_view_url":1,"soilmap_view_url":null,"soiltest_xml_url":0,"soiltest_view_url":0},{"id":517319,"code":"B4KJ202201001-9855","latitude":"35.461972","longitude":"135.285528","source_code":"KK158635340400210001","project_name":"\u7531\u826f\u5ddd\u4e0b\u6d41\u90e8\u571f\u8cea\u8abf\u67fb\u696d\u52d9","survey_name":"\u7531\u826f\u5ddd\u4e0b\u6d41\u90e8\u571f\u8cea\u8abf\u67fb\u696d\u52d9","client_name":"\u56fd\u571f\u4ea4\u901a\u7701\u8fd1\u757f\u5730\u65b9\u6574\u5099\u5c40\u798f\u77e5\u5c71\u6cb3\u5ddd\u56fd\u9053\u4e8b\u52d9\u6240","boring_xml_url":68,"boring_view_url":1,"soilmap_view_url":null,"soiltest_xml_url":0,"soiltest_view_url":0},{"id":517318,"code":"B4KJ202201001-9854","latitude":"35.29853","longitude":"135.129966","source_code":"KK158635340400100004","project_name":"","survey_name":"\u6cd5\u5ddd\u30fb\u8352\u6cb3\u6392\u6c34\u6a5f\u5834\u5897\u8a2d\u8a73\u7d30\u8a2d\u8a08\u696d\u52d9","client_name":"\"\u56fd\u571f\u4ea4\u901a\u7701 \u8fd1\u757f\u5730\u65b9\u6574\u5099\u5c40 \u798f\u77e5\u5c71\u6cb3\u5ddd\u56fd\u9053\u4e8b\u52d9\u6240\"","boring_xml_url":68,"boring_view_url":1,"soilmap_view_url":null,"soiltest_xml_url":0,"soiltest_view_url":0},{"id":517317,"code":"B4KJ202201001-9853","latitude":"35.297961","longitude":"135.130794","source_code":"KK158635340400100003","project_name":"","survey_name":"\u6cd5\u5ddd\u30fb\u8352\u6cb3\u6392\u6c34\u6a5f\u5834\u5897\u8a2d\u8a73\u7d30\u8a2d\u8a08\u696d\u52d9","client_name":"\"\u56fd\u571f\u4ea4\u901a\u7701 \u8fd1\u757f\u5730\u65b9\u6574\u5099\u5c40 \u798f\u77e5\u5c71\u6cb3\u5ddd\u56fd\u9053\u4e8b\u52d9\u6240\"","boring_xml_url":68,"boring_view_url":1,"soilmap_view_url":null,"soiltest_xml_url":0,"soiltest_view_url":0},{"id":517316,"code":"B4KJ202201001-9852","latitude":"35.298219","longitude":"135.130741","source_code":"KK158635340400100002","project_name":"","survey_name":"\u6cd5\u5ddd\u30fb\u8352\u6cb3\u6392\u6c34\u6a5f\u5834\u5897\u8a2d\u8a73\u7d30\u8a2d\u8a08\u696d\u52d9","client_name":"\"\u56fd\u571f\u4ea4\u901a\u7701 \u8fd1\u757f\u5730\u65b9\u6574\u5099\u5c40 \u798f\u77e5\u5c71\u6cb3\u5ddd\u56fd\u9053\u4e8b\u52d9\u6240\"","boring_xml_url":68,"boring_view_url":1,"soilmap_view_url":null,"soiltest_xml_url":0,"soiltest_view_url":0},{"id":517315,"code":"B4KJ202201001-9851","latitude":"35.324433","longitude":"135.109614","source_code":"KK158635340400100001","project_name":"","survey_name":"\u6cd5\u5ddd\u30fb\u8352\u6cb3\u6392\u6c34\u6a5f\u5834\u5897\u8a2d\u8a73\u7d30\u8a2d\u8a08\u696d\u52d9","client_name":"\"\u56fd\u571f\u4ea4\u901a\u7701 \u8fd1\u757f\u5730\u65b9\u6574\u5099\u5c40 \u798f\u77e5\u5c71\u6cb3\u5ddd\u56fd\u9053\u4e8b\u52d9\u6240\"","boring_xml_url":68,"boring_view_url":1,"soilmap_view_url":null,"soiltest_xml_url":0,"soiltest_view_url":0},{"id":517314,"code":"B4KJ202201001-9850","latitude":"35.472553","longitude":"135.281117","source_code":"KK68635210100050001","project_name":"","survey_name":"\u4e2d\u5c71\u5730\u533a\u4ed6\u6574\u5099\u5de5\u4e8b","client_name":"\u8fd1\u757f\u5730\u65b9\u6574\u5099\u5c40\u798f\u77e5\u5c71\u6cb3\u5ddd\u56fd\u9053\u4e8b\u52d9\u6240","boring_xml_url":66,"boring_view_url":1,"soilmap_view_url":null,"soiltest_xml_url":0,"soiltest_view_url":0},{"id":517313,"code":"B4KJ202201001-9849","latitude":"36.087333","longitude":"136.327641","source_code":"KK148670220100230002","project_name":"\u6c38\u5e73\u5bfa\u5927\u91ce\u9053\u8def\u4ed6\u3000\u6574\u5099\u5de5\u4e8b","survey_name":"(\u88dc\u5f37\u571f\u58c1\u57fa\u790e\u5730\u76e4\u8abf\u67fb)","client_name":"\u56fd\u571f\u4ea4\u901a\u7701\u8fd1\u757f\u5730\u65b9\u6574\u5099\u5c40\u798f\u4e95\u6cb3\u5ddd\u56fd\u9053\u4e8b\u52d9\u6240","boring_xml_url":68,"boring_view_url":1,"soilmap_view_url":null,"soiltest_xml_url":0,"soiltest_view_url":0},{"id":517312,"code":"B4KJ202201001-9848","latitude":"36.087222","longitude":"136.327308","source_code":"KK148670220100230001","project_name":"\u6c38\u5e73\u5bfa\u5927\u91ce\u9053\u8def\u4ed6\u6574\u5099\u5de5\u4e8b","survey_name":"(\u88dc\u5f37\u571f\u58c1\u57fa\u790e\u5730\u76e4\u8abf\u67fb)","client_name":"\u56fd\u571f\u4ea4\u901a\u7701\u8fd1\u757f\u5730\u65b9\u6574\u5099\u5c40\u798f\u4e95\u6cb3\u5ddd\u56fd\u9053\u4e8b\u52d9\u6240","boring_xml_url":68,"boring_view_url":1,"soilmap_view_url":null,"soiltest_xml_url":0,"soiltest_view_url":0},{"id":517311,"code":"B4KJ202201001-9847","latitude":"35.095944","longitude":"135.997028","source_code":"KK168630200400020009","project_name":"","survey_name":"\u91ce\u6d32\u5ddd\u4e0a\u6d41\u5824\u9632\u5f37\u5316\u8a2d\u8a08\u696d\u52d9","client_name":"\"\u56fd\u571f\u4ea4\u901a\u7701\u3000\u8fd1\u757f\u5730\u65b9\u6574\u5099\u5c40 \u7435\u7436\u6e56\u6cb3\u5ddd\u4e8b\u52d9\u6240\"","boring_xml_url":68,"boring_view_url":1,"soilmap_view_url":null,"soiltest_xml_url":0,"soiltest_view_url":0},{"id":517310,"code":"B4KJ202201001-9846","latitude":"35.095861","longitude":"135.996833","source_code":"KK168630200400020008","project_name":"","survey_name":"\u91ce\u6d32\u5ddd\u4e0a\u6d41\u5824\u9632\u5f37\u5316\u8a2d\u8a08\u696d\u52d9","client_name":"\"\u56fd\u571f\u4ea4\u901a\u7701\u3000\u8fd1\u757f\u5730\u65b9\u6574\u5099\u5c40 \u7435\u7436\u6e56\u6cb3\u5ddd\u4e8b\u52d9\u6240\"","boring_xml_url":68,"boring_view_url":1,"soilmap_view_url":null,"soiltest_xml_url":0,"soiltest_view_url":0},{"id":517309,"code":"B4KJ202201001-9845","latitude":"35.095917","longitude":"135.996972","source_code":"KK168630200400020007","project_name":"","survey_name":"\u91ce\u6d32\u5ddd\u4e0a\u6d41\u5824\u9632\u5f37\u5316\u8a2d\u8a08\u696d\u52d9","client_name":"\"\u56fd\u571f\u4ea4\u901a\u7701\u3000\u8fd1\u757f\u5730\u65b9\u6574\u5099\u5c40 \u7435\u7436\u6e56\u6cb3\u5ddd\u4e8b\u52d9\u6240\"","boring_xml_url":68,"boring_view_url":1,"soilmap_view_url":null,"soiltest_xml_url":0,"soiltest_view_url":0}]}}