{"header":{"xyz":{"source":[],"mosaic":false},"page":94,"raw":{"soiltest_result":"0","bbox":"57.598333,109.544722,1.933333,163.806111","page":"94"},"conditions":{"soiltest_result":0,"north":57.598333,"west":109.544722,"south":1.933333,"east":163.806111},"success":true,"message":""},"data":{"meta":{"total":212844,"page":94,"pages":7095,"count":30},"values":[{"id":693757,"code":"NGIC202304008-0013","latitude":"31.615115416667","longitude":"130.79634952778","source_code":"","project_name":"\u725b\u6839\u5883\u5730\u533a","survey_name":"R4\u6cb9\u6d25\u30fb\u590f\u4e95\u9053\u8def\u5883\u8c37\u30c8\u30f3\u30cd\u30eb\u5916\u5730\u8cea\u8abf\u67fb\u696d\u52d9","client_name":"\u56fd\u571f\u4ea4\u901a\u7701\u4e5d\u5dde\u5730\u65b9\u6574\u5099\u5c40\u5927\u9685\u6cb3\u5ddd\u56fd\u9053\u4e8b\u52d9\u6240","boring_xml_url":47,"boring_view_url":1,"soilmap_view_url":null,"soiltest_xml_url":0,"soiltest_view_url":0},{"id":693756,"code":"NGIC202304008-0012","latitude":"31.615126972222","longitude":"130.79628116667","source_code":"","project_name":"\u725b\u6839\u5883\u5730\u533a","survey_name":"R4\u6cb9\u6d25\u30fb\u590f\u4e95\u9053\u8def\u5883\u8c37\u30c8\u30f3\u30cd\u30eb\u5916\u5730\u8cea\u8abf\u67fb\u696d\u52d9","client_name":"\u56fd\u571f\u4ea4\u901a\u7701\u4e5d\u5dde\u5730\u65b9\u6574\u5099\u5c40\u5927\u9685\u6cb3\u5ddd\u56fd\u9053\u4e8b\u52d9\u6240","boring_xml_url":47,"boring_view_url":1,"soilmap_view_url":null,"soiltest_xml_url":0,"soiltest_view_url":0},{"id":693755,"code":"NGIC202304008-0011","latitude":"31.46813275","longitude":"131.15016280556","source_code":"","project_name":"\u5de5\u4e8b\u7528\u9053\u8def\u76db\u571f\u8a08\u753b\u90e8\uff08\u91d1\u85cf\u8f2a\u5730\u533a\uff09","survey_name":"R4\u6cb9\u6d25\u30fb\u590f\u4e95\u9053\u8def\u5883\u8c37\u30c8\u30f3\u30cd\u30eb\u5916\u5730\u8cea\u8abf\u67fb\u696d\u52d9","client_name":"\u56fd\u571f\u4ea4\u901a\u7701\u4e5d\u5dde\u5730\u65b9\u6574\u5099\u5c40\u5927\u9685\u6cb3\u5ddd\u56fd\u9053\u4e8b\u52d9\u6240","boring_xml_url":47,"boring_view_url":1,"soilmap_view_url":null,"soiltest_xml_url":0,"soiltest_view_url":0},{"id":693754,"code":"NGIC202304008-0010","latitude":"31.468125583333","longitude":"131.15025536111","source_code":"","project_name":"\u5de5\u4e8b\u7528\u9053\u8def\u76db\u571f\u8a08\u753b\u90e8\uff08\u91d1\u85cf\u8f2a\u5730\u533a\uff09","survey_name":"R4\u6cb9\u6d25\u30fb\u590f\u4e95\u9053\u8def\u5883\u8c37\u30c8\u30f3\u30cd\u30eb\u5916\u5730\u8cea\u8abf\u67fb\u696d\u52d9","client_name":"\u56fd\u571f\u4ea4\u901a\u7701\u4e5d\u5dde\u5730\u65b9\u6574\u5099\u5c40\u5927\u9685\u6cb3\u5ddd\u56fd\u9053\u4e8b\u52d9\u6240","boring_xml_url":47,"boring_view_url":1,"soilmap_view_url":null,"soiltest_xml_url":47,"soiltest_view_url":47},{"id":693753,"code":"NGIC202304008-0009","latitude":"31.467936555556","longitude":"131.15020572222","source_code":"","project_name":"\u5de5\u4e8b\u7528\u9053\u8def\u76db\u571f\u8a08\u753b\u90e8\uff08\u91d1\u85cf\u8f2a\u5730\u533a\uff09","survey_name":"R4\u6cb9\u6d25\u30fb\u590f\u4e95\u9053\u8def\u5883\u8c37\u30c8\u30f3\u30cd\u30eb\u5916\u5730\u8cea\u8abf\u67fb\u696d\u52d9","client_name":"\u56fd\u571f\u4ea4\u901a\u7701\u4e5d\u5dde\u5730\u65b9\u6574\u5099\u5c40\u5927\u9685\u6cb3\u5ddd\u56fd\u9053\u4e8b\u52d9\u6240","boring_xml_url":47,"boring_view_url":1,"soilmap_view_url":null,"soiltest_xml_url":47,"soiltest_view_url":47},{"id":693752,"code":"NGIC202304008-0008","latitude":"31.467167027778","longitude":"131.15903275","source_code":"","project_name":"","survey_name":"R4\u6cb9\u6d25\u30fb\u590f\u4e95\u9053\u8def\u5883\u8c37\u30c8\u30f3\u30cd\u30eb\u5916\u5730\u8cea\u8abf\u67fb\u696d\u52d9","client_name":"\u56fd\u571f\u4ea4\u901a\u7701\u4e5d\u5dde\u5730\u65b9\u6574\u5099\u5c40\u5927\u9685\u6cb3\u5ddd\u56fd\u9053\u4e8b\u52d9\u6240","boring_xml_url":47,"boring_view_url":1,"soilmap_view_url":null,"soiltest_xml_url":0,"soiltest_view_url":0},{"id":693751,"code":"NGIC202304008-0007","latitude":"31.467234055556","longitude":"131.15913761111","source_code":"","project_name":"","survey_name":"R4\u6cb9\u6d25\u30fb\u590f\u4e95\u9053\u8def\u5883\u8c37\u30c8\u30f3\u30cd\u30eb\u5916\u5730\u8cea\u8abf\u67fb\u696d\u52d9","client_name":"\u56fd\u571f\u4ea4\u901a\u7701\u4e5d\u5dde\u5730\u65b9\u6574\u5099\u5c40\u5927\u9685\u6cb3\u5ddd\u56fd\u9053\u4e8b\u52d9\u6240","boring_xml_url":47,"boring_view_url":1,"soilmap_view_url":null,"soiltest_xml_url":0,"soiltest_view_url":0},{"id":693750,"code":"NGIC202304008-0006","latitude":"31.466641527778","longitude":"131.16026855556","source_code":"","project_name":"","survey_name":"R4\u6cb9\u6d25\u30fb\u590f\u4e95\u9053\u8def\u5883\u8c37\u30c8\u30f3\u30cd\u30eb\u5916\u5730\u8cea\u8abf\u67fb\u696d\u52d9","client_name":"\u56fd\u571f\u4ea4\u901a\u7701\u4e5d\u5dde\u5730\u65b9\u6574\u5099\u5c40\u5927\u9685\u6cb3\u5ddd\u56fd\u9053\u4e8b\u52d9\u6240","boring_xml_url":47,"boring_view_url":1,"soilmap_view_url":null,"soiltest_xml_url":0,"soiltest_view_url":0},{"id":693749,"code":"NGIC202304008-0005","latitude":"31.467242277778","longitude":"131.15911944444","source_code":"","project_name":"","survey_name":"R4\u6cb9\u6d25\u30fb\u590f\u4e95\u9053\u8def\u5883\u8c37\u30c8\u30f3\u30cd\u30eb\u5916\u5730\u8cea\u8abf\u67fb\u696d\u52d9","client_name":"\u56fd\u571f\u4ea4\u901a\u7701\u4e5d\u5dde\u5730\u65b9\u6574\u5099\u5c40\u5927\u9685\u6cb3\u5ddd\u56fd\u9053\u4e8b\u52d9\u6240","boring_xml_url":47,"boring_view_url":1,"soilmap_view_url":null,"soiltest_xml_url":0,"soiltest_view_url":0},{"id":693748,"code":"NGIC202304008-0004","latitude":"31.466678972222","longitude":"131.16020530556","source_code":"","project_name":"","survey_name":"R4\u6cb9\u6d25\u30fb\u590f\u4e95\u9053\u8def\u5883\u8c37\u30c8\u30f3\u30cd\u30eb\u5916\u5730\u8cea\u8abf\u67fb\u696d\u52d9","client_name":"\u56fd\u571f\u4ea4\u901a\u7701\u4e5d\u5dde\u5730\u65b9\u6574\u5099\u5c40\u5927\u9685\u6cb3\u5ddd\u56fd\u9053\u4e8b\u52d9\u6240","boring_xml_url":47,"boring_view_url":1,"soilmap_view_url":null,"soiltest_xml_url":0,"soiltest_view_url":0},{"id":693747,"code":"NGIC202304008-0003","latitude":"31.490308694444","longitude":"131.08673825","source_code":"","project_name":"\u5fd7\u5e03\u5fd7\u5e02\u8857\u5730\u51fd\u6e20\u90e8\uff08\u5fd7\u5e03\u5fd7\u5730\u533a\uff09","survey_name":"R4\u6cb9\u6d25\u30fb\u590f\u4e95\u9053\u8def\u5883\u8c37\u30c8\u30f3\u30cd\u30eb\u5916\u5730\u8cea\u8abf\u67fb\u696d\u52d9","client_name":"\u56fd\u571f\u4ea4\u901a\u7701\u4e5d\u5dde\u5730\u65b9\u6574\u5099\u5c40\u5927\u9685\u6cb3\u5ddd\u56fd\u9053\u4e8b\u52d9\u6240","boring_xml_url":47,"boring_view_url":1,"soilmap_view_url":null,"soiltest_xml_url":47,"soiltest_view_url":47},{"id":693746,"code":"NGIC202304008-0002","latitude":"31.490494361111","longitude":"131.08706808333","source_code":"","project_name":"\u5fd7\u5e03\u5fd7\u5e02\u8857\u5730\u51fd\u6e20\u90e8\uff08\u5fd7\u5e03\u5fd7\u5730\u533a\uff09","survey_name":"R4\u6cb9\u6d25\u30fb\u590f\u4e95\u9053\u8def\u5883\u8c37\u30c8\u30f3\u30cd\u30eb\u5916\u5730\u8cea\u8abf\u67fb\u696d\u52d9","client_name":"\u56fd\u571f\u4ea4\u901a\u7701\u4e5d\u5dde\u5730\u65b9\u6574\u5099\u5c40\u5927\u9685\u6cb3\u5ddd\u56fd\u9053\u4e8b\u52d9\u6240","boring_xml_url":47,"boring_view_url":1,"soilmap_view_url":null,"soiltest_xml_url":0,"soiltest_view_url":0},{"id":693745,"code":"NGIC202304008-0001","latitude":"31.490584777778","longitude":"131.08776188889","source_code":"","project_name":"\u5fd7\u5e03\u5fd7\u5e02\u8857\u5730\u51fd\u6e20\u90e8\uff08\u5fd7\u5e03\u5fd7\u5730\u533a\uff09","survey_name":"R4\u6cb9\u6d25\u30fb\u590f\u4e95\u9053\u8def\u5883\u8c37\u30c8\u30f3\u30cd\u30eb\u5916\u5730\u8cea\u8abf\u67fb\u696d\u52d9","client_name":"\u56fd\u571f\u4ea4\u901a\u7701\u4e5d\u5dde\u5730\u65b9\u6574\u5099\u5c40\u5927\u9685\u6cb3\u5ddd\u56fd\u9053\u4e8b\u52d9\u6240","boring_xml_url":47,"boring_view_url":1,"soilmap_view_url":null,"soiltest_xml_url":0,"soiltest_view_url":0},{"id":693720,"code":"NGIC202304017-0010","latitude":"37.857059666667","longitude":"139.41227716667","source_code":"","project_name":"\u4e2d\u4e2d\u5c71\u5730\u533a","survey_name":"\u8352\u5ddd\u4e0b\u6d41\u57df\u7ba1\u5185\u5730\u8cea\u8abf\u67fb\u696d\u52d9","client_name":"\u56fd\u571f\u4ea4\u901a\u7701\u5317\u9678\u5730\u65b9\u6574\u5099\u5c40\u98ef\u8c4a\u5c71\u7cfb\u7802\u9632\u4e8b\u52d9\u6240","boring_xml_url":47,"boring_view_url":1,"soilmap_view_url":null,"soiltest_xml_url":0,"soiltest_view_url":0},{"id":693719,"code":"NGIC202304017-0009","latitude":"37.857054777778","longitude":"139.41208058333","source_code":"","project_name":"\u4e2d\u4e2d\u5c71\u5730\u533a","survey_name":"\u8352\u5ddd\u4e0b\u6d41\u57df\u7ba1\u5185\u5730\u8cea\u8abf\u67fb\u696d\u52d9","client_name":"\u56fd\u571f\u4ea4\u901a\u7701\u5317\u9678\u5730\u65b9\u6574\u5099\u5c40\u98ef\u8c4a\u5c71\u7cfb\u7802\u9632\u4e8b\u52d9\u6240","boring_xml_url":47,"boring_view_url":1,"soilmap_view_url":null,"soiltest_xml_url":0,"soiltest_view_url":0},{"id":693718,"code":"NGIC202304017-0008","latitude":"37.857096805556","longitude":"139.41193772222","source_code":"","project_name":"\u4e2d\u4e2d\u5c71\u5730\u533a","survey_name":"\u8352\u5ddd\u4e0b\u6d41\u57df\u7ba1\u5185\u5730\u8cea\u8abf\u67fb\u696d\u52d9","client_name":"\u56fd\u571f\u4ea4\u901a\u7701\u5317\u9678\u5730\u65b9\u6574\u5099\u5c40\u98ef\u8c4a\u5c71\u7cfb\u7802\u9632\u4e8b\u52d9\u6240","boring_xml_url":47,"boring_view_url":1,"soilmap_view_url":null,"soiltest_xml_url":0,"soiltest_view_url":0},{"id":693717,"code":"NGIC202304017-0007","latitude":"38.136572416667","longitude":"139.59196544444","source_code":"","project_name":"\u5973\u5ddd\u6797\u9053\u6a4b","survey_name":"\u8352\u5ddd\u4e0b\u6d41\u57df\u7ba1\u5185\u5730\u8cea\u8abf\u67fb\u696d\u52d9","client_name":"\u56fd\u571f\u4ea4\u901a\u7701\u5317\u9678\u5730\u65b9\u6574\u5099\u5c40\u98ef\u8c4a\u5c71\u7cfb\u7802\u9632\u4e8b\u52d9\u6240","boring_xml_url":47,"boring_view_url":1,"soilmap_view_url":null,"soiltest_xml_url":0,"soiltest_view_url":0},{"id":693716,"code":"NGIC202304017-0006","latitude":"38.136551805556","longitude":"139.59168147222","source_code":"","project_name":"\u5973\u5ddd\u6797\u9053\u6a4b","survey_name":"\u8352\u5ddd\u4e0b\u6d41\u57df\u7ba1\u5185\u5730\u8cea\u8abf\u67fb\u696d\u52d9","client_name":"\u56fd\u571f\u4ea4\u901a\u7701\u5317\u9678\u5730\u65b9\u6574\u5099\u5c40\u98ef\u8c4a\u5c71\u7cfb\u7802\u9632\u4e8b\u52d9\u6240","boring_xml_url":47,"boring_view_url":1,"soilmap_view_url":null,"soiltest_xml_url":0,"soiltest_view_url":0},{"id":693715,"code":"NGIC202304017-0005","latitude":"38.094369777778","longitude":"139.58099622222","source_code":"","project_name":"\u6e6f\u6ca2\u6771\u6ca2\u7b2c2\u53f7\u7802\u9632\u5830\u5824\u7b87\u6240","survey_name":"\u8352\u5ddd\u4e0b\u6d41\u57df\u7ba1\u5185\u5730\u8cea\u8abf\u67fb\u696d\u52d9","client_name":"\u56fd\u571f\u4ea4\u901a\u7701\u5317\u9678\u5730\u65b9\u6574\u5099\u5c40\u98ef\u8c4a\u5c71\u7cfb\u7802\u9632\u4e8b\u52d9\u6240","boring_xml_url":47,"boring_view_url":1,"soilmap_view_url":null,"soiltest_xml_url":0,"soiltest_view_url":0},{"id":693714,"code":"NGIC202304017-0004","latitude":"38.094745111111","longitude":"139.58141547222","source_code":"","project_name":"\u6e6f\u6ca2\u6771\u6ca2\u7b2c2\u53f7\u7802\u9632\u5830\u5824\u7b87\u6240","survey_name":"\u8352\u5ddd\u4e0b\u6d41\u57df\u7ba1\u5185\u5730\u8cea\u8abf\u67fb\u696d\u52d9","client_name":"\u56fd\u571f\u4ea4\u901a\u7701\u5317\u9678\u5730\u65b9\u6574\u5099\u5c40\u98ef\u8c4a\u5c71\u7cfb\u7802\u9632\u4e8b\u52d9\u6240","boring_xml_url":47,"boring_view_url":1,"soilmap_view_url":null,"soiltest_xml_url":0,"soiltest_view_url":0},{"id":693713,"code":"NGIC202304017-0003","latitude":"38.094716666667","longitude":"139.581625","source_code":"","project_name":"\u6e6f\u6ca2\u6771\u6ca2\u7b2c2\u53f7\u7802\u9632\u5830\u5824\u7b87\u6240","survey_name":"\u8352\u5ddd\u4e0b\u6d41\u57df\u7ba1\u5185\u5730\u8cea\u8abf\u67fb\u696d\u52d9","client_name":"\u56fd\u571f\u4ea4\u901a\u7701\u5317\u9678\u5730\u65b9\u6574\u5099\u5c40\u98ef\u8c4a\u5c71\u7cfb\u7802\u9632\u4e8b\u52d9\u6240","boring_xml_url":47,"boring_view_url":1,"soilmap_view_url":null,"soiltest_xml_url":0,"soiltest_view_url":0},{"id":693712,"code":"NGIC202304017-0002","latitude":"38.094930861111","longitude":"139.58145763889","source_code":"","project_name":"\u6e6f\u6ca2\u6771\u6ca2\u7b2c2\u53f7\u7802\u9632\u5830\u5824\u7b87\u6240","survey_name":"\u8352\u5ddd\u4e0b\u6d41\u57df\u7ba1\u5185\u5730\u8cea\u8abf\u67fb\u696d\u52d9","client_name":"\u56fd\u571f\u4ea4\u901a\u7701\u5317\u9678\u5730\u65b9\u6574\u5099\u5c40\u98ef\u8c4a\u5c71\u7cfb\u7802\u9632\u4e8b\u52d9\u6240","boring_xml_url":47,"boring_view_url":1,"soilmap_view_url":null,"soiltest_xml_url":0,"soiltest_view_url":0},{"id":693711,"code":"NGIC202304017-0001","latitude":"38.094839472222","longitude":"139.58151291667","source_code":"","project_name":"\u6e6f\u6ca2\u6771\u6ca2\u7b2c2\u53f7\u7802\u9632\u5830\u5824\u7b87\u6240","survey_name":"\u8352\u5ddd\u4e0b\u6d41\u57df\u7ba1\u5185\u5730\u8cea\u8abf\u67fb\u696d\u52d9","client_name":"\u56fd\u571f\u4ea4\u901a\u7701\u5317\u9678\u5730\u65b9\u6574\u5099\u5c40\u98ef\u8c4a\u5c71\u7cfb\u7802\u9632\u4e8b\u52d9\u6240","boring_xml_url":47,"boring_view_url":1,"soilmap_view_url":null,"soiltest_xml_url":0,"soiltest_view_url":0},{"id":693686,"code":"NGIC202303977-0004","latitude":"32.337173972222","longitude":"130.84328811111","source_code":"","project_name":"","survey_name":"\u4ee4\u548c5\u5e74\u5ea6\u30c0\u30e0\u30b5\u30a4\u30c8\u5468\u8fba\u5730\u8cea\u8abf\u67fb\uff08\u305d\u306e9\uff09\u696d\u52d9","client_name":"\u56fd\u571f\u4ea4\u901a\u7701\u4e5d\u5dde\u5730\u65b9\u6574\u5099\u5c40\u5ddd\u8fba\u5ddd\u30c0\u30e0\u7802\u9632\u4e8b\u52d9\u6240","boring_xml_url":47,"boring_view_url":1,"soilmap_view_url":null,"soiltest_xml_url":0,"soiltest_view_url":0},{"id":693685,"code":"NGIC202303977-0003","latitude":"32.338075388889","longitude":"130.84298883333","source_code":"","project_name":"","survey_name":"\u4ee4\u548c5\u5e74\u5ea6\u30c0\u30e0\u30b5\u30a4\u30c8\u5468\u8fba\u5730\u8cea\u8abf\u67fb\uff08\u305d\u306e9\uff09\u696d\u52d9","client_name":"\u56fd\u571f\u4ea4\u901a\u7701\u4e5d\u5dde\u5730\u65b9\u6574\u5099\u5c40\u5ddd\u8fba\u5ddd\u30c0\u30e0\u7802\u9632\u4e8b\u52d9\u6240","boring_xml_url":47,"boring_view_url":1,"soilmap_view_url":null,"soiltest_xml_url":0,"soiltest_view_url":0},{"id":693684,"code":"NGIC202303977-0002","latitude":"32.337713833333","longitude":"130.84233083333","source_code":"","project_name":"","survey_name":"\u4ee4\u548c5\u5e74\u5ea6\u30c0\u30e0\u30b5\u30a4\u30c8\u5468\u8fba\u5730\u8cea\u8abf\u67fb\uff08\u305d\u306e9\uff09\u696d\u52d9","client_name":"\u56fd\u571f\u4ea4\u901a\u7701\u4e5d\u5dde\u5730\u65b9\u6574\u5099\u5c40\u5ddd\u8fba\u5ddd\u30c0\u30e0\u7802\u9632\u4e8b\u52d9\u6240","boring_xml_url":47,"boring_view_url":1,"soilmap_view_url":null,"soiltest_xml_url":0,"soiltest_view_url":0},{"id":693683,"code":"NGIC202303977-0001","latitude":"32.338074055556","longitude":"130.84190530556","source_code":"","project_name":"","survey_name":"\u4ee4\u548c5\u5e74\u5ea6\u30c0\u30e0\u30b5\u30a4\u30c8\u5468\u8fba\u5730\u8cea\u8abf\u67fb\uff08\u305d\u306e9\uff09\u696d\u52d9","client_name":"\u56fd\u571f\u4ea4\u901a\u7701\u4e5d\u5dde\u5730\u65b9\u6574\u5099\u5c40\u5ddd\u8fba\u5ddd\u30c0\u30e0\u7802\u9632\u4e8b\u52d9\u6240","boring_xml_url":47,"boring_view_url":1,"soilmap_view_url":null,"soiltest_xml_url":0,"soiltest_view_url":0},{"id":693677,"code":"NGIC202303986-0004","latitude":"32.335939333333","longitude":"130.84067652778","source_code":"","project_name":"","survey_name":"\u4ee4\u548c5\u5e74\u5ea6\u30c0\u30e0\u30b5\u30a4\u30c8\u5468\u8fba\u5730\u8cea\u8abf\u67fb(\u305d\u306e10)\u696d\u52d9","client_name":"\u56fd\u571f\u4ea4\u901a\u7701\u4e5d\u5dde\u5730\u65b9\u6574\u5099\u5c40\u5ddd\u8fba\u5ddd\u30c0\u30e0\u7802\u9632\u4e8b\u52d9\u6240\u3000\u5de5\u52d9\u7b2c\u4e00\u8ab2","boring_xml_url":47,"boring_view_url":1,"soilmap_view_url":null,"soiltest_xml_url":0,"soiltest_view_url":0},{"id":693676,"code":"NGIC202303986-0003","latitude":"32.335367583333","longitude":"130.84118772222","source_code":"","project_name":"","survey_name":"\u4ee4\u548c5\u5e74\u5ea6\u30c0\u30e0\u30b5\u30a4\u30c8\u5468\u8fba\u5730\u8cea\u8abf\u67fb(\u305d\u306e10)\u696d\u52d9","client_name":"\u56fd\u571f\u4ea4\u901a\u7701\u4e5d\u5dde\u5730\u65b9\u6574\u5099\u5c40\u5ddd\u8fba\u5ddd\u30c0\u30e0\u7802\u9632\u4e8b\u52d9\u6240\u3000\u5de5\u52d9\u7b2c\u4e00\u8ab2","boring_xml_url":47,"boring_view_url":1,"soilmap_view_url":null,"soiltest_xml_url":0,"soiltest_view_url":0},{"id":693675,"code":"NGIC202303986-0002","latitude":"32.335368305556","longitude":"130.84177183333","source_code":"","project_name":"","survey_name":"\u4ee4\u548c5\u5e74\u5ea6\u30c0\u30e0\u30b5\u30a4\u30c8\u5468\u8fba\u5730\u8cea\u8abf\u67fb(\u305d\u306e10)\u696d\u52d9","client_name":"\u56fd\u571f\u4ea4\u901a\u7701\u4e5d\u5dde\u5730\u65b9\u6574\u5099\u5c40\u5ddd\u8fba\u5ddd\u30c0\u30e0\u7802\u9632\u4e8b\u52d9\u6240\u3000\u5de5\u52d9\u7b2c\u4e00\u8ab2","boring_xml_url":47,"boring_view_url":1,"soilmap_view_url":null,"soiltest_xml_url":0,"soiltest_view_url":0}]}}