{"header":{"xyz":{"source":[],"mosaic":false},"page":940,"raw":{"soiltest_result":"0","bbox":"57.598333,109.544722,1.933333,163.806111","page":"940"},"conditions":{"soiltest_result":0,"north":57.598333,"west":109.544722,"south":1.933333,"east":163.806111},"success":true,"message":""},"data":{"meta":{"total":212844,"page":940,"pages":7095,"count":30},"values":[{"id":517218,"code":"B4KJ202201001-9754","latitude":"36.048988","longitude":"136.477167","source_code":"KK088670220100430011","project_name":"\u6c38\u5e73\u5bfa\u5927\u91ce\u9053\u8def\u6771\u9045\u7fbd\u53e3\u5730\u533a\u5730\u76e4\u6539\u826f\u5de5\u4e8b","survey_name":"\u6c38\u5e73\u5bfa\u5927\u91ce\u9053\u8def\u6771\u9045\u7fbd\u53e3\u5730\u533a\u5730\u76e4\u6539\u826f\u5de5\u4e8b","client_name":"\u56fd\u571f\u4ea4\u901a\u7701\u8fd1\u757f\u5730\u65b9\u6574\u5099\u5c40\u798f\u4e95\u6cb3\u5ddd\u56fd\u9053\u4e8b\u52d9\u6240","boring_xml_url":68,"boring_view_url":1,"soilmap_view_url":null,"soiltest_xml_url":0,"soiltest_view_url":0},{"id":517217,"code":"B4KJ202201001-9753","latitude":"36.049006","longitude":"136.477451","source_code":"KK088670220100430010","project_name":"\u6c38\u5e73\u5bfa\u5927\u91ce\u9053\u8def\u6771\u9045\u7fbd\u53e3\u5730\u533a\u5730\u76e4\u6539\u826f\u5de5\u4e8b","survey_name":"\u6c38\u5e73\u5bfa\u5927\u91ce\u9053\u8def\u6771\u9045\u7fbd\u53e3\u5730\u533a\u5730\u76e4\u6539\u826f\u5de5\u4e8b","client_name":"\u56fd\u571f\u4ea4\u901a\u7701\u8fd1\u757f\u5730\u65b9\u6574\u5099\u5c40\u798f\u4e95\u6cb3\u5ddd\u56fd\u9053\u4e8b\u52d9\u6240","boring_xml_url":68,"boring_view_url":1,"soilmap_view_url":null,"soiltest_xml_url":0,"soiltest_view_url":0},{"id":517216,"code":"B4KJ202201001-9752","latitude":"36.048427","longitude":"136.477378","source_code":"KK088670220100430009","project_name":"\u6c38\u5e73\u5bfa\u5927\u91ce\u9053\u8def\u6771\u9045\u7fbd\u53e3\u5730\u533a\u5730\u76e4\u6539\u826f\u5de5\u4e8b","survey_name":"\u6c38\u5e73\u5bfa\u5927\u91ce\u9053\u8def\u6771\u9045\u7fbd\u53e3\u5730\u533a\u5730\u76e4\u6539\u826f\u5de5\u4e8b","client_name":"\u56fd\u571f\u4ea4\u901a\u7701\u8fd1\u757f\u5730\u65b9\u6574\u5099\u5c40\u798f\u4e95\u6cb3\u5ddd\u56fd\u9053\u4e8b\u52d9\u6240","boring_xml_url":68,"boring_view_url":1,"soilmap_view_url":null,"soiltest_xml_url":0,"soiltest_view_url":0},{"id":517215,"code":"B4KJ202201001-9751","latitude":"36.048871","longitude":"136.477536","source_code":"KK088670220100430008","project_name":"\u6c38\u5e73\u5bfa\u5927\u91ce\u9053\u8def\u6771\u9045\u7fbd\u53e3\u5730\u533a\u5730\u76e4\u6539\u826f\u5de5\u4e8b","survey_name":"\u6c38\u5e73\u5bfa\u5927\u91ce\u9053\u8def\u6771\u9045\u7fbd\u53e3\u5730\u533a\u5730\u76e4\u6539\u826f\u5de5\u4e8b","client_name":"\u56fd\u571f\u4ea4\u901a\u7701\u8fd1\u757f\u5730\u65b9\u6574\u5099\u5c40\u798f\u4e95\u6cb3\u5ddd\u56fd\u9053\u4e8b\u52d9\u6240","boring_xml_url":68,"boring_view_url":1,"soilmap_view_url":null,"soiltest_xml_url":0,"soiltest_view_url":0},{"id":517214,"code":"B4KJ202201001-9750","latitude":"36.048805","longitude":"136.477392","source_code":"KK088670220100430007","project_name":"\u6c38\u5e73\u5bfa\u5927\u91ce\u9053\u8def\u6771\u9045\u7fbd\u53e3\u5730\u533a\u5730\u76e4\u6539\u826f\u5de5\u4e8b","survey_name":"\u6c38\u5e73\u5bfa\u5927\u91ce\u9053\u8def\u6771\u9045\u7fbd\u53e3\u5730\u533a\u5730\u76e4\u6539\u826f\u5de5\u4e8b","client_name":"\u56fd\u571f\u4ea4\u901a\u7701\u8fd1\u757f\u5730\u65b9\u6574\u5099\u5c40\u798f\u4e95\u6cb3\u5ddd\u56fd\u9053\u4e8b\u52d9\u6240","boring_xml_url":68,"boring_view_url":1,"soilmap_view_url":null,"soiltest_xml_url":0,"soiltest_view_url":0},{"id":517213,"code":"B4KJ202201001-9749","latitude":"36.048784","longitude":"136.477309","source_code":"KK088670220100430006","project_name":"\u6c38\u5e73\u5bfa\u5927\u91ce\u9053\u8def\u6771\u9045\u7fbd\u53e3\u5730\u533a\u5730\u76e4\u6539\u826f\u5de5\u4e8b","survey_name":"\u6c38\u5e73\u5bfa\u5927\u91ce\u9053\u8def\u6771\u9045\u7fbd\u53e3\u5730\u533a\u5730\u76e4\u6539\u826f\u5de5\u4e8b","client_name":"\u56fd\u571f\u4ea4\u901a\u7701\u8fd1\u757f\u5730\u65b9\u6574\u5099\u5c40\u798f\u4e95\u6cb3\u5ddd\u56fd\u9053\u4e8b\u52d9\u6240","boring_xml_url":68,"boring_view_url":1,"soilmap_view_url":null,"soiltest_xml_url":0,"soiltest_view_url":0},{"id":517212,"code":"B4KJ202201001-9748","latitude":"36.04874","longitude":"136.477259","source_code":"KK088670220100430005","project_name":"\u6c38\u5e73\u5bfa\u5927\u91ce\u9053\u8def\u6771\u9045\u7fbd\u53e3\u5730\u533a\u5730\u76e4\u6539\u826f\u5de5\u4e8b","survey_name":"\u6c38\u5e73\u5bfa\u5927\u91ce\u9053\u8def\u6771\u9045\u7fbd\u53e3\u5730\u533a\u5730\u76e4\u6539\u826f\u5de5\u4e8b","client_name":"\u56fd\u571f\u4ea4\u901a\u7701\u8fd1\u757f\u5730\u65b9\u6574\u5099\u5c40\u798f\u4e95\u6cb3\u5ddd\u56fd\u9053\u4e8b\u52d9\u6240","boring_xml_url":68,"boring_view_url":1,"soilmap_view_url":null,"soiltest_xml_url":0,"soiltest_view_url":0},{"id":517211,"code":"B4KJ202201001-9747","latitude":"36.048831","longitude":"136.477663","source_code":"KK088670220100430004","project_name":"\u6c38\u5e73\u5bfa\u5927\u91ce\u9053\u8def\u6771\u9045\u7fbd\u53e3\u5730\u533a\u5730\u76e4\u6539\u826f\u5de5\u4e8b","survey_name":"\u6c38\u5e73\u5bfa\u5927\u91ce\u9053\u8def\u6771\u9045\u7fbd\u53e3\u5730\u533a\u5730\u76e4\u6539\u826f\u5de5\u4e8b","client_name":"\u56fd\u571f\u4ea4\u901a\u7701\u8fd1\u757f\u5730\u65b9\u6574\u5099\u5c40\u798f\u4e95\u6cb3\u5ddd\u56fd\u9053\u4e8b\u52d9\u6240","boring_xml_url":68,"boring_view_url":1,"soilmap_view_url":null,"soiltest_xml_url":0,"soiltest_view_url":0},{"id":517210,"code":"B4KJ202201001-9746","latitude":"36.048792","longitude":"136.47754","source_code":"KK088670220100430003","project_name":"\u6c38\u5e73\u5bfa\u5927\u91ce\u9053\u8def\u6771\u9045\u7fbd\u53e3\u5730\u533a\u5730\u76e4\u6539\u826f\u5de5\u4e8b","survey_name":"\u6c38\u5e73\u5bfa\u5927\u91ce\u9053\u8def\u6771\u9045\u7fbd\u53e3\u5730\u533a\u5730\u76e4\u6539\u826f\u5de5\u4e8b","client_name":"\u56fd\u571f\u4ea4\u901a\u7701\u8fd1\u757f\u5730\u65b9\u6574\u5099\u5c40\u798f\u4e95\u6cb3\u5ddd\u56fd\u9053\u4e8b\u52d9\u6240","boring_xml_url":68,"boring_view_url":1,"soilmap_view_url":null,"soiltest_xml_url":0,"soiltest_view_url":0},{"id":517209,"code":"B4KJ202201001-9745","latitude":"36.048671","longitude":"136.477492","source_code":"KK088670220100430002","project_name":"\u6c38\u5e73\u5bfa\u5927\u91ce\u9053\u8def\u6771\u9045\u7fbd\u53e3\u5730\u533a\u5730\u76e4\u6539\u826f\u5de5\u4e8b","survey_name":"\u6c38\u5e73\u5bfa\u5927\u91ce\u9053\u8def\u6771\u9045\u7fbd\u53e3\u5730\u533a\u5730\u76e4\u6539\u826f\u5de5\u4e8b","client_name":"\u56fd\u571f\u4ea4\u901a\u7701\u8fd1\u757f\u5730\u65b9\u6574\u5099\u5c40\u798f\u4e95\u6cb3\u5ddd\u56fd\u9053\u4e8b\u52d9\u6240","boring_xml_url":68,"boring_view_url":1,"soilmap_view_url":null,"soiltest_xml_url":0,"soiltest_view_url":0},{"id":517208,"code":"B4KJ202201001-9744","latitude":"36.048623","longitude":"136.477397","source_code":"KK088670220100430001","project_name":"\u6c38\u5e73\u5bfa\u5927\u91ce\u9053\u8def\u6771\u9045\u7fbd\u53e3\u5730\u533a\u5730\u76e4\u6539\u826f\u5de5\u4e8b","survey_name":"\u6c38\u5e73\u5bfa\u5927\u91ce\u9053\u8def\u6771\u9045\u7fbd\u53e3\u5730\u533a\u5730\u76e4\u6539\u826f\u5de5\u4e8b","client_name":"\u56fd\u571f\u4ea4\u901a\u7701\u8fd1\u757f\u5730\u65b9\u6574\u5099\u5c40\u798f\u4e95\u6cb3\u5ddd\u56fd\u9053\u4e8b\u52d9\u6240","boring_xml_url":68,"boring_view_url":1,"soilmap_view_url":null,"soiltest_xml_url":0,"soiltest_view_url":0},{"id":517207,"code":"B4KJ202201001-9743","latitude":"33.995469","longitude":"135.192566","source_code":"KK168665620400030003","project_name":"","survey_name":"\u9053\u8def\u5553\u958b\u884c\u52d5\u8a08\u753b\u4ed6\u696d\u52d9","client_name":"\"\u56fd\u571f\u4ea4\u901a\u7701 \u8fd1\u757f\u5730\u65b9\u6574\u5099\u5c40 \u548c\u6b4c\u5c71\u6cb3\u5ddd\u56fd\u9053\u4e8b\u52d9\u6240\"","boring_xml_url":68,"boring_view_url":1,"soilmap_view_url":null,"soiltest_xml_url":0,"soiltest_view_url":0},{"id":517206,"code":"B4KJ202201001-9742","latitude":"33.995228","longitude":"135.192501","source_code":"KK168665620400030002","project_name":"","survey_name":"\u9053\u8def\u5553\u958b\u884c\u52d5\u8a08\u753b\u4ed6\u696d\u52d9","client_name":"\"\u56fd\u571f\u4ea4\u901a\u7701 \u8fd1\u757f\u5730\u65b9\u6574\u5099\u5c40 \u548c\u6b4c\u5c71\u6cb3\u5ddd\u56fd\u9053\u4e8b\u52d9\u6240\"","boring_xml_url":68,"boring_view_url":1,"soilmap_view_url":null,"soiltest_xml_url":0,"soiltest_view_url":0},{"id":517205,"code":"B4KJ202201001-9741","latitude":"33.995289","longitude":"135.192407","source_code":"KK168665620400030001","project_name":"","survey_name":"\u9053\u8def\u5553\u958b\u884c\u52d5\u8a08\u753b\u4ed6\u696d\u52d9","client_name":"\"\u56fd\u571f\u4ea4\u901a\u7701 \u8fd1\u757f\u5730\u65b9\u6574\u5099\u5c40 \u548c\u6b4c\u5c71\u6cb3\u5ddd\u56fd\u9053\u4e8b\u52d9\u6240\"","boring_xml_url":68,"boring_view_url":1,"soilmap_view_url":null,"soiltest_xml_url":0,"soiltest_view_url":0},{"id":517204,"code":"B4KJ202201001-9740","latitude":"34.9404","longitude":"134.962456","source_code":"KK158651340400180004","project_name":"\u6edd\u898b\u6a4b\u8a73\u7d30\u8a2d\u8a08\u696d\u52d9","survey_name":"\u6edd\u898b\u6a4b\u8a73\u7d30\u8a2d\u8a08\u696d\u52d9","client_name":"\u56fd\u571f\u4ea4\u901a\u7701\u8fd1\u757f\u5730\u65b9\u6574\u5099\u5c40\u59eb\u8def\u6cb3\u5ddd\u56fd\u9053\u4e8b\u52d9\u6240","boring_xml_url":68,"boring_view_url":1,"soilmap_view_url":null,"soiltest_xml_url":0,"soiltest_view_url":0},{"id":517203,"code":"B4KJ202201001-9739","latitude":"34.940553","longitude":"134.962064","source_code":"KK158651340400180003","project_name":"\u6edd\u898b\u6a4b\u8a73\u7d30\u8a2d\u8a08\u696d\u52d9","survey_name":"\u6edd\u898b\u6a4b\u8a73\u7d30\u8a2d\u8a08\u696d\u52d9","client_name":"\u56fd\u571f\u4ea4\u901a\u7701\u8fd1\u757f\u5730\u65b9\u6574\u5099\u5c40\u59eb\u8def\u6cb3\u5ddd\u56fd\u9053\u4e8b\u52d9\u6240","boring_xml_url":68,"boring_view_url":1,"soilmap_view_url":null,"soiltest_xml_url":0,"soiltest_view_url":0},{"id":517202,"code":"B4KJ202201001-9738","latitude":"34.940872","longitude":"134.961683","source_code":"KK158651340400180002","project_name":"\u6edd\u898b\u6a4b\u8a73\u7d30\u8a2d\u8a08\u696d\u52d9","survey_name":"\u6edd\u898b\u6a4b\u8a73\u7d30\u8a2d\u8a08\u696d\u52d9","client_name":"\u56fd\u571f\u4ea4\u901a\u7701\u8fd1\u757f\u5730\u65b9\u6574\u5099\u5c40\u59eb\u8def\u6cb3\u5ddd\u56fd\u9053\u4e8b\u52d9\u6240","boring_xml_url":68,"boring_view_url":1,"soilmap_view_url":null,"soiltest_xml_url":0,"soiltest_view_url":0},{"id":517201,"code":"B4KJ202201001-9737","latitude":"34.941094","longitude":"134.961328","source_code":"KK158651340400180001","project_name":"\u6edd\u898b\u6a4b\u8a73\u7d30\u8a2d\u8a08\u696d\u52d9","survey_name":"\u6edd\u898b\u6a4b\u8a73\u7d30\u8a2d\u8a08\u696d\u52d9","client_name":"\u56fd\u571f\u4ea4\u901a\u7701\u8fd1\u757f\u5730\u65b9\u6574\u5099\u5c40\u59eb\u8def\u6cb3\u5ddd\u56fd\u9053\u4e8b\u52d9\u6240","boring_xml_url":68,"boring_view_url":1,"soilmap_view_url":null,"soiltest_xml_url":0,"soiltest_view_url":0},{"id":517200,"code":"B4KJ202201001-9736","latitude":"33.989528","longitude":"135.161556","source_code":"KK158665620400050004","project_name":"\"\u56fd\u905342\u53f7433.8KP \u7551\u5730\u533a(K042G156)\"","survey_name":"\u7ba1\u5185\u9632\u707d\u5bfe\u7b56\u8a2d\u8a08\u696d\u52d9","client_name":"\"\u8fd1\u757f\u5730\u65b9\u6574\u5099\u5c40\u548c\u6b4c\u5c71\u6cb3\u5ddd\u56fd\u9053\u4e8b\u52d9\u6240 \u9053\u8def\u7ba1\u7406\u7b2c\u4e8c\u8ab2\"","boring_xml_url":68,"boring_view_url":1,"soilmap_view_url":null,"soiltest_xml_url":0,"soiltest_view_url":0},{"id":517199,"code":"B4KJ202201001-9735","latitude":"33.989694","longitude":"135.161417","source_code":"KK158665620400050003","project_name":"\"\u56fd\u905342\u53f7433.8KP \u7551\u5730\u533a(K042G156)\"","survey_name":"\u7ba1\u5185\u9632\u707d\u5bfe\u7b56\u8a2d\u8a08\u696d\u52d9","client_name":"\"\u8fd1\u757f\u5730\u65b9\u6574\u5099\u5c40\u548c\u6b4c\u5c71\u6cb3\u5ddd\u56fd\u9053\u4e8b\u52d9\u6240 \u9053\u8def\u7ba1\u7406\u7b2c\u4e8c\u8ab2\"","boring_xml_url":68,"boring_view_url":1,"soilmap_view_url":null,"soiltest_xml_url":0,"soiltest_view_url":0},{"id":517198,"code":"B4KJ202201001-9734","latitude":"33.953667","longitude":"135.124389","source_code":"KK158665620400050002","project_name":"\"\u56fd\u905342\u53f7427.5KP \u963f\u6238\u5730\u533a\uff08K042G086\uff09\"","survey_name":"\u7ba1\u5185\u9632\u707d\u5bfe\u7b56\u8a2d\u8a08\u696d\u52d9","client_name":"\u8fd1\u757f\u5730\u65b9\u6574\u5099\u5c40\u548c\u6b4c\u5c71\u6cb3\u5ddd\u56fd\u9053\u4e8b\u52d9\u6240\u3000\u9053\u8def\u7ba1\u7406\u7b2c\u4e8c\u8ab2","boring_xml_url":68,"boring_view_url":1,"soilmap_view_url":null,"soiltest_xml_url":0,"soiltest_view_url":0},{"id":517197,"code":"B4KJ202201001-9733","latitude":"33.953833","longitude":"135.124528","source_code":"KK158665620400050001","project_name":"\"\u56fd\u905342\u53f7427.5KP \u963f\u6238\u5730\u533a\uff08K042G086\uff09\"","survey_name":"\u7ba1\u5185\u9632\u707d\u5bfe\u7b56\u8a2d\u8a08\u696d\u52d9","client_name":"\u8fd1\u757f\u5730\u65b9\u6574\u5099\u5c40\u548c\u6b4c\u5c71\u6cb3\u5ddd\u56fd\u9053\u4e8b\u52d9\u6240\u3000\u9053\u8def\u7ba1\u7406\u7b2c\u4e8c\u8ab2","boring_xml_url":68,"boring_view_url":1,"soilmap_view_url":null,"soiltest_xml_url":0,"soiltest_view_url":0},{"id":517196,"code":"B4KJ202201001-9732","latitude":"34.928167","longitude":"135.915778","source_code":"KK128630000300020005","project_name":"\u702c\u7530\u5ddd\u53f3\u5cb8\u5357\u90f7\u5730\u533a\u4e2d\u6d41\u90e8\u6cb3\u9053\u6398\u524a\u5de5\u4e8b","survey_name":"\u702c\u7530\u5ddd\u53f3\u5cb8\u5357\u90f7\u5730\u533a\u4e2d\u6d41\u90e8\u6cb3\u9053\u6398\u524a\u5de5\u4e8b","client_name":"\u56fd\u571f\u4ea4\u901a\u7701\u8fd1\u757f\u5730\u65b9\u6574\u5099\u5c40\u7435\u7436\u6e56\u6cb3\u5ddd\u4e8b\u52d9\u6240","boring_xml_url":68,"boring_view_url":1,"soilmap_view_url":null,"soiltest_xml_url":0,"soiltest_view_url":0},{"id":517195,"code":"B4KJ202201001-9731","latitude":"34.928778","longitude":"135.915583","source_code":"KK128630000300020004","project_name":"\u702c\u7530\u5ddd\u53f3\u5cb8\u5357\u90f7\u5730\u533a\u4e2d\u6d41\u90e8\u6cb3\u9053\u6398\u524a\u5de5\u4e8b","survey_name":"\u702c\u7530\u5ddd\u53f3\u5cb8\u5357\u90f7\u5730\u533a\u4e2d\u6d41\u90e8\u6cb3\u9053\u6398\u524a\u5de5\u4e8b","client_name":"\u56fd\u571f\u4ea4\u901a\u7701\u8fd1\u757f\u5730\u65b9\u6574\u5099\u5c40\u7435\u7436\u6e56\u6cb3\u5ddd\u4e8b\u52d9\u6240","boring_xml_url":68,"boring_view_url":1,"soilmap_view_url":null,"soiltest_xml_url":0,"soiltest_view_url":0},{"id":517194,"code":"B4KJ202201001-9730","latitude":"34.929306","longitude":"135.915528","source_code":"KK128630000300020003","project_name":"\u702c\u7530\u5ddd\u53f3\u5cb8\u5357\u90f7\u5730\u533a\u4e2d\u6d41\u90e8\u6cb3\u9053\u6398\u524a\u5de5\u4e8b","survey_name":"\u702c\u7530\u5ddd\u53f3\u5cb8\u5357\u90f7\u5730\u533a\u4e2d\u6d41\u90e8\u6cb3\u9053\u6398\u524a\u5de5\u4e8b","client_name":"\u56fd\u571f\u4ea4\u901a\u7701\u8fd1\u757f\u5730\u65b9\u6574\u5099\u5c40\u7435\u7436\u6e56\u6cb3\u5ddd\u4e8b\u52d9\u6240","boring_xml_url":68,"boring_view_url":1,"soilmap_view_url":null,"soiltest_xml_url":0,"soiltest_view_url":0},{"id":517193,"code":"B4KJ202201001-9729","latitude":"34.929778","longitude":"135.915556","source_code":"KK128630000300020002","project_name":"\u702c\u7530\u5ddd\u53f3\u5cb8\u5357\u90f7\u5730\u533a\u4e2d\u6d41\u90e8\u6cb3\u9053\u6398\u524a\u5de5\u4e8b","survey_name":"\u702c\u7530\u5ddd\u53f3\u5cb8\u5357\u90f7\u5730\u533a\u4e2d\u6d41\u90e8\u6cb3\u9053\u6398\u524a\u5de5\u4e8b","client_name":"\u56fd\u571f\u4ea4\u901a\u7701\u8fd1\u757f\u5730\u65b9\u6574\u5099\u5c40\u7435\u7436\u6e56\u6cb3\u5ddd\u4e8b\u52d9\u6240","boring_xml_url":68,"boring_view_url":1,"soilmap_view_url":null,"soiltest_xml_url":0,"soiltest_view_url":0},{"id":517192,"code":"B4KJ202201001-9728","latitude":"34.930194","longitude":"135.9155","source_code":"KK128630000300020001","project_name":"\u702c\u7530\u5ddd\u53f3\u5cb8\u5357\u90f7\u5730\u533a\u4e2d\u6d41\u90e8\u6cb3\u9053\u6398\u524a\u5de5\u4e8b","survey_name":"\u702c\u7530\u5ddd\u53f3\u5cb8\u5357\u90f7\u5730\u533a\u4e2d\u6d41\u90e8\u6cb3\u9053\u6398\u524a\u5de5\u4e8b","client_name":"\u56fd\u571f\u4ea4\u901a\u7701\u8fd1\u757f\u5730\u65b9\u6574\u5099\u5c40\u7435\u7436\u6e56\u6cb3\u5ddd\u4e8b\u52d9\u6240","boring_xml_url":68,"boring_view_url":1,"soilmap_view_url":null,"soiltest_xml_url":0,"soiltest_view_url":0},{"id":517191,"code":"B4KJ202201001-9727","latitude":"35.330361","longitude":"136.030556","source_code":"KK128632200400110019","project_name":"\u56fd\u9053161\u53f7\u5b89\u66c7\u5ddd\u5730\u533a\u5730\u8cea\u8abf\u67fb\u696d\u52d9","survey_name":"\u56fd\u9053161\u53f7\u5b89\u66c7\u5ddd\u5730\u533a\u5730\u8cea\u8abf\u67fb\u696d\u52d9","client_name":"\"\u56fd\u571f\u4ea4\u901a\u7701\u8fd1\u757f\u5730\u65b9\u5efa\u8a2d\u5c40\u6ecb\u8cc0\u56fd\u9053\u4e8b\u52d9\u6240 \u5de5\u52d9\u8ab2\"","boring_xml_url":68,"boring_view_url":1,"soilmap_view_url":null,"soiltest_xml_url":0,"soiltest_view_url":0},{"id":517190,"code":"B4KJ202201001-9726","latitude":"35.330778","longitude":"136.031","source_code":"KK128632200400110018","project_name":"\u56fd\u9053161\u53f7\u5b89\u66c7\u5ddd\u5730\u533a\u5730\u8cea\u8abf\u67fb\u696d\u52d9","survey_name":"\u56fd\u9053161\u53f7\u5b89\u66c7\u5ddd\u5730\u533a\u5730\u8cea\u8abf\u67fb\u696d\u52d9","client_name":"\u56fd\u571f\u4ea4\u901a\u7701\u6ecb\u8cc0\u56fd\u9053\u4e8b\u52d9\u6240\u5de5\u52d9\u8ab2","boring_xml_url":68,"boring_view_url":1,"soilmap_view_url":null,"soiltest_xml_url":0,"soiltest_view_url":0},{"id":517189,"code":"B4KJ202201001-9725","latitude":"35.331306","longitude":"136.031611","source_code":"KK128632200400110017","project_name":"\u56fd\u9053161\u53f7\u5b89\u66c7\u5ddd\u5730\u533a\u5730\u8cea\u8abf\u67fb\u696d\u52d9","survey_name":"\u56fd\u9053161\u53f7\u5b89\u66c7\u5ddd\u5730\u533a\u5730\u8cea\u8abf\u67fb\u696d\u52d9","client_name":"\"\u56fd\u571f\u4ea4\u901a\u7701\u8fd1\u757f\u5730\u65b9\u6574\u5099\u5c40\u6ecb\u8cc0\u56fd\u9053\u4e8b\u52d9\u6240 \u5de5\u52d9\u8ab2\"","boring_xml_url":68,"boring_view_url":1,"soilmap_view_url":null,"soiltest_xml_url":0,"soiltest_view_url":0}]}}