{"header":{"xyz":{"source":[],"mosaic":false},"page":95,"raw":{"soiltest_result":"0","bbox":"57.598333,109.544722,1.933333,163.806111","page":"95"},"conditions":{"soiltest_result":0,"north":57.598333,"west":109.544722,"south":1.933333,"east":163.806111},"success":true,"message":""},"data":{"meta":{"total":212844,"page":95,"pages":7095,"count":30},"values":[{"id":693674,"code":"NGIC202303986-0001","latitude":"32.335368888889","longitude":"130.84224983333","source_code":"","project_name":"","survey_name":"\u4ee4\u548c5\u5e74\u5ea6\u30c0\u30e0\u30b5\u30a4\u30c8\u5468\u8fba\u5730\u8cea\u8abf\u67fb(\u305d\u306e10)\u696d\u52d9","client_name":"\u56fd\u571f\u4ea4\u901a\u7701\u4e5d\u5dde\u5730\u65b9\u6574\u5099\u5c40\u5ddd\u8fba\u5ddd\u30c0\u30e0\u7802\u9632\u4e8b\u52d9\u6240\u3000\u5de5\u52d9\u7b2c\u4e00\u8ab2","boring_xml_url":47,"boring_view_url":1,"soilmap_view_url":null,"soiltest_xml_url":0,"soiltest_view_url":0},{"id":693637,"code":"NGIC202303920-0002","latitude":"38.401666666667","longitude":"141.15361111111","source_code":"","project_name":"","survey_name":"\u5409\u7530\u5ddd\u6d45\u4e95\u5730\u533a\u4e0a\u6d41\u707d\u5bb3\u5fa9\u65e7\u5de5\u4e8b","client_name":"\u56fd\u571f\u4ea4\u901a\u7701\u6771\u5317\u5730\u65b9\u6574\u5099\u5c40\u5317\u4e0a\u5ddd\u4e0b\u6d41\u6cb3\u5ddd\u4e8b\u52d9\u6240","boring_xml_url":47,"boring_view_url":1,"soilmap_view_url":null,"soiltest_xml_url":0,"soiltest_view_url":0},{"id":693636,"code":"NGIC202303920-0001","latitude":"38.400833333333","longitude":"141.15444444444","source_code":"","project_name":"","survey_name":"\u5409\u7530\u5ddd\u6d45\u4e95\u5730\u533a\u4e0a\u6d41\u707d\u5bb3\u5fa9\u65e7\u5de5\u4e8b","client_name":"\u56fd\u571f\u4ea4\u901a\u7701\u6771\u5317\u5730\u65b9\u6574\u5099\u5c40\u5317\u4e0a\u5ddd\u4e0b\u6d41\u6cb3\u5ddd\u4e8b\u52d9\u6240","boring_xml_url":47,"boring_view_url":1,"soilmap_view_url":null,"soiltest_xml_url":0,"soiltest_view_url":0},{"id":693545,"code":"NGIC202303963-0002","latitude":"34.695208888889","longitude":"131.861855","source_code":"","project_name":"\u4ee4\u548c5\u5e74\u5ea6\u6d5c\u7530\u6cb3\u5ddd\u56fd\u9053\u9053\u8def\u7ba1\u7406","survey_name":"\u4ee4\u548c5\u5e74\u5ea6\u6d5c\u7530\u6cb3\u5ddd\u56fd\u9053\u9053\u8def\u7ba1\u7406\u6e2c\u91cf\u8a2d\u8a08\u696d\u52d9","client_name":"\u56fd\u571f\u4ea4\u901a\u7701\u4e2d\u56fd\u5730\u65b9\u6574\u5099\u5c40\u6d5c\u7530\u6cb3\u5ddd\u56fd\u9053\u4e8b\u52d9\u6240","boring_xml_url":47,"boring_view_url":1,"soilmap_view_url":null,"soiltest_xml_url":0,"soiltest_view_url":0},{"id":693544,"code":"NGIC202303963-0001","latitude":"34.695154444444","longitude":"131.86190055556","source_code":"","project_name":"\u4ee4\u548c5\u5e74\u5ea6\u6d5c\u7530\u6cb3\u5ddd\u56fd\u9053\u9053\u8def\u7ba1\u7406","survey_name":"\u4ee4\u548c5\u5e74\u5ea6\u6d5c\u7530\u6cb3\u5ddd\u56fd\u9053\u9053\u8def\u7ba1\u7406\u6e2c\u91cf\u8a2d\u8a08\u696d\u52d9","client_name":"\u56fd\u571f\u4ea4\u901a\u7701\u4e2d\u56fd\u5730\u65b9\u6574\u5099\u5c40\u6d5c\u7530\u6cb3\u5ddd\u56fd\u9053\u4e8b\u52d9\u6240","boring_xml_url":47,"boring_view_url":1,"soilmap_view_url":null,"soiltest_xml_url":0,"soiltest_view_url":0},{"id":693531,"code":"NGIC202304029-0001","latitude":"35.007583333333","longitude":"136.81258333333","source_code":"","project_name":"\u4ee4\u548c5\u5e74\u5ea6\u540d\u53e4\u5c4b\u6e2f\u30dd\u30fc\u30c8\u30a2\u30a4\u30e9\u30f3\u30c9\u571f\u8cea\u8abf\u67fb","survey_name":"\u4ee4\u548c5\u5e74\u5ea6\u540d\u53e4\u5c4b\u6e2f\u30dd\u30fc\u30c8\u30a2\u30a4\u30e9\u30f3\u30c9\u571f\u8cea\u8abf\u67fb","client_name":"\u56fd\u571f\u4ea4\u901a\u7701\u4e2d\u90e8\u5730\u65b9\u6574\u5099\u5c40\u540d\u53e4\u5c4b\u6e2f\u6e7e\u4e8b\u52d9\u6240","boring_xml_url":47,"boring_view_url":1,"soilmap_view_url":null,"soiltest_xml_url":47,"soiltest_view_url":47},{"id":693503,"code":"NGIC202303991-0003","latitude":"35.350302777778","longitude":"139.47603","source_code":"","project_name":"","survey_name":"R4\u6a2a\u6d5c\u6e58\u5357\u9053\u8def\u5730\u4e0b\u57cb\u8a2d\u7269\u8abf\u67fb\u696d\u52d9","client_name":"\u56fd\u571f\u4ea4\u901a\u7701\u95a2\u6771\u5730\u65b9\u6574\u5099\u5c40\u6a2a\u6d5c\u56fd\u9053\u4e8b\u52d9\u6240","boring_xml_url":47,"boring_view_url":1,"soilmap_view_url":null,"soiltest_xml_url":47,"soiltest_view_url":47},{"id":693502,"code":"NGIC202303991-0002","latitude":"35.350347777778","longitude":"139.47628194444","source_code":"","project_name":"","survey_name":"R4\u6a2a\u6d5c\u6e58\u5357\u9053\u8def\u5730\u4e0b\u57cb\u8a2d\u7269\u8abf\u67fb\u696d\u52d9","client_name":"\u56fd\u571f\u4ea4\u901a\u7701\u95a2\u6771\u5730\u65b9\u6574\u5099\u5c40\u6a2a\u6d5c\u56fd\u9053\u4e8b\u52d9\u6240","boring_xml_url":47,"boring_view_url":1,"soilmap_view_url":null,"soiltest_xml_url":47,"soiltest_view_url":47},{"id":693501,"code":"NGIC202303991-0001","latitude":"35.35038","longitude":"139.47658388889","source_code":"","project_name":"","survey_name":"R4\u6a2a\u6d5c\u6e58\u5357\u9053\u8def\u5730\u4e0b\u57cb\u8a2d\u7269\u8abf\u67fb\u696d\u52d9","client_name":"\u56fd\u571f\u4ea4\u901a\u7701\u95a2\u6771\u5730\u65b9\u6574\u5099\u5c40\u6a2a\u6d5c\u56fd\u9053\u4e8b\u52d9\u6240","boring_xml_url":47,"boring_view_url":1,"soilmap_view_url":null,"soiltest_xml_url":47,"soiltest_view_url":47},{"id":693489,"code":"NGIC202303955-0010","latitude":"38.582216666667","longitude":"140.64326111111","source_code":"","project_name":"","survey_name":"\u4ee4\u548c4\u5e74\u5ea6\u9cf4\u702c\u5ddd\u30c0\u30e0\u30c0\u30e0\u30b5\u30a4\u30c8\u5de6\u5cb8\u4e0a\u90e8\u5730\u8cea\u8abf\u67fb","client_name":"\u56fd\u571f\u4ea4\u901a\u7701\u6771\u5317\u5730\u65b9\u6574\u5099\u5c40\u9cf4\u702c\u5ddd\u7dcf\u5408\u958b\u767a\u5de5\u4e8b\u4e8b\u52d9\u6240","boring_xml_url":47,"boring_view_url":1,"soilmap_view_url":null,"soiltest_xml_url":0,"soiltest_view_url":0},{"id":693488,"code":"NGIC202303955-0009","latitude":"38.582619444444","longitude":"140.64422777778","source_code":"","project_name":"","survey_name":"\u4ee4\u548c4\u5e74\u5ea6\u9cf4\u702c\u5ddd\u30c0\u30e0\u30c0\u30e0\u30b5\u30a4\u30c8\u5de6\u5cb8\u4e0a\u90e8\u5730\u8cea\u8abf\u67fb","client_name":"\u56fd\u571f\u4ea4\u901a\u7701\u6771\u5317\u5730\u65b9\u6574\u5099\u5c40\u9cf4\u702c\u5ddd\u7dcf\u5408\u958b\u767a\u5de5\u4e8b\u4e8b\u52d9\u6240","boring_xml_url":47,"boring_view_url":1,"soilmap_view_url":null,"soiltest_xml_url":0,"soiltest_view_url":0},{"id":693487,"code":"NGIC202303955-0008","latitude":"38.582319444444","longitude":"140.64276388889","source_code":"","project_name":"","survey_name":"\u4ee4\u548c4\u5e74\u5ea6\u9cf4\u702c\u5ddd\u30c0\u30e0\u30c0\u30e0\u30b5\u30a4\u30c8\u5de6\u5cb8\u4e0a\u90e8\u5730\u8cea\u8abf\u67fb","client_name":"\u56fd\u571f\u4ea4\u901a\u7701\u6771\u5317\u5730\u65b9\u6574\u5099\u5c40\u9cf4\u702c\u5ddd\u7dcf\u5408\u958b\u767a\u5de5\u4e8b\u4e8b\u52d9\u6240","boring_xml_url":47,"boring_view_url":1,"soilmap_view_url":null,"soiltest_xml_url":0,"soiltest_view_url":0},{"id":693486,"code":"NGIC202303955-0007","latitude":"38.582988888889","longitude":"140.64313611111","source_code":"","project_name":"","survey_name":"\u4ee4\u548c4\u5e74\u5ea6\u9cf4\u702c\u5ddd\u30c0\u30e0\u30c0\u30e0\u30b5\u30a4\u30c8\u5de6\u5cb8\u4e0a\u90e8\u5730\u8cea\u8abf\u67fb","client_name":"\u56fd\u571f\u4ea4\u901a\u7701\u6771\u5317\u5730\u65b9\u6574\u5099\u5c40\u9cf4\u702c\u5ddd\u7dcf\u5408\u958b\u767a\u5de5\u4e8b\u4e8b\u52d9\u6240","boring_xml_url":47,"boring_view_url":1,"soilmap_view_url":null,"soiltest_xml_url":0,"soiltest_view_url":0},{"id":693485,"code":"NGIC202303955-0006","latitude":"38.582733333333","longitude":"140.64350833333","source_code":"","project_name":"","survey_name":"\u4ee4\u548c4\u5e74\u5ea6\u9cf4\u702c\u5ddd\u30c0\u30e0\u30c0\u30e0\u30b5\u30a4\u30c8\u5de6\u5cb8\u4e0a\u90e8\u5730\u8cea\u8abf\u67fb","client_name":"\u56fd\u571f\u4ea4\u901a\u7701\u6771\u5317\u5730\u65b9\u6574\u5099\u5c40\u9cf4\u702c\u5ddd\u7dcf\u5408\u958b\u767a\u5de5\u4e8b\u4e8b\u52d9\u6240","boring_xml_url":47,"boring_view_url":1,"soilmap_view_url":null,"soiltest_xml_url":0,"soiltest_view_url":0},{"id":693484,"code":"NGIC202303955-0005","latitude":"38.582925","longitude":"140.64400833333","source_code":"","project_name":"","survey_name":"\u4ee4\u548c4\u5e74\u5ea6\u9cf4\u702c\u5ddd\u30c0\u30e0\u30c0\u30e0\u30b5\u30a4\u30c8\u5de6\u5cb8\u4e0a\u90e8\u5730\u8cea\u8abf\u67fb","client_name":"\u56fd\u571f\u4ea4\u901a\u7701\u6771\u5317\u5730\u65b9\u6574\u5099\u5c40\u9cf4\u702c\u5ddd\u7dcf\u5408\u958b\u767a\u5de5\u4e8b\u4e8b\u52d9\u6240","boring_xml_url":47,"boring_view_url":1,"soilmap_view_url":null,"soiltest_xml_url":0,"soiltest_view_url":0},{"id":693483,"code":"NGIC202303955-0004","latitude":"38.584144444444","longitude":"140.64071666667","source_code":"","project_name":"","survey_name":"\u4ee4\u548c4\u5e74\u5ea6\u9cf4\u702c\u5ddd\u30c0\u30e0\u30c0\u30e0\u30b5\u30a4\u30c8\u5de6\u5cb8\u4e0a\u90e8\u5730\u8cea\u8abf\u67fb","client_name":"\u56fd\u571f\u4ea4\u901a\u7701\u6771\u5317\u5730\u65b9\u6574\u5099\u5c40\u9cf4\u702c\u5ddd\u7dcf\u5408\u958b\u767a\u5de5\u4e8b\u4e8b\u52d9\u6240","boring_xml_url":47,"boring_view_url":1,"soilmap_view_url":null,"soiltest_xml_url":0,"soiltest_view_url":0},{"id":693482,"code":"NGIC202303955-0003","latitude":"38.584161111111","longitude":"140.64122222222","source_code":"","project_name":"","survey_name":"\u4ee4\u548c4\u5e74\u5ea6\u9cf4\u702c\u5ddd\u30c0\u30e0\u30c0\u30e0\u30b5\u30a4\u30c8\u5de6\u5cb8\u4e0a\u90e8\u5730\u8cea\u8abf\u67fb","client_name":"\u56fd\u571f\u4ea4\u901a\u7701\u6771\u5317\u5730\u65b9\u6574\u5099\u5c40\u9cf4\u702c\u5ddd\u7dcf\u5408\u958b\u767a\u5de5\u4e8b\u4e8b\u52d9\u6240","boring_xml_url":47,"boring_view_url":1,"soilmap_view_url":null,"soiltest_xml_url":0,"soiltest_view_url":0},{"id":693481,"code":"NGIC202303955-0002","latitude":"38.585488888889","longitude":"140.64352222222","source_code":"","project_name":"","survey_name":"\u4ee4\u548c4\u5e74\u5ea6\u9cf4\u702c\u5ddd\u30c0\u30e0\u30c0\u30e0\u30b5\u30a4\u30c8\u5de6\u5cb8\u4e0a\u90e8\u5730\u8cea\u8abf\u67fb","client_name":"\u56fd\u571f\u4ea4\u901a\u7701\u6771\u5317\u5730\u65b9\u6574\u5099\u5c40\u9cf4\u702c\u5ddd\u7dcf\u5408\u958b\u767a\u5de5\u4e8b\u4e8b\u52d9\u6240","boring_xml_url":47,"boring_view_url":1,"soilmap_view_url":null,"soiltest_xml_url":0,"soiltest_view_url":0},{"id":693480,"code":"NGIC202303955-0001","latitude":"38.585516666667","longitude":"140.64380833333","source_code":"","project_name":"","survey_name":"\u4ee4\u548c4\u5e74\u5ea6\u9cf4\u702c\u5ddd\u30c0\u30e0\u30c0\u30e0\u30b5\u30a4\u30c8\u5de6\u5cb8\u4e0a\u90e8\u5730\u8cea\u8abf\u67fb","client_name":"\u56fd\u571f\u4ea4\u901a\u7701\u6771\u5317\u5730\u65b9\u6574\u5099\u5c40\u9cf4\u702c\u5ddd\u7dcf\u5408\u958b\u767a\u5de5\u4e8b\u4e8b\u52d9\u6240","boring_xml_url":47,"boring_view_url":1,"soilmap_view_url":null,"soiltest_xml_url":0,"soiltest_view_url":0},{"id":693456,"code":"NGIC202303893-0003","latitude":"37.935966027778","longitude":"139.72087105556","source_code":"","project_name":"","survey_name":"\u8352\u5ddd\u4e0a\u6d41\u57df\u7ba1\u5185\u5730\u8cea\u8abf\u67fb(\u305d\u306e2)\u696d\u52d9","client_name":"\u56fd\u571f\u4ea4\u901a\u7701\u5317\u9678\u5730\u65b9\u6574\u5099\u5c40\u98ef\u8c4a\u5c71\u7cfb\u7802\u9632\u4e8b\u52d9\u6240","boring_xml_url":47,"boring_view_url":1,"soilmap_view_url":null,"soiltest_xml_url":0,"soiltest_view_url":0},{"id":693455,"code":"NGIC202303893-0002","latitude":"37.936882361111","longitude":"139.72025772222","source_code":"","project_name":"","survey_name":"\u8352\u5ddd\u4e0a\u6d41\u57df\u7ba1\u5185\u5730\u8cea\u8abf\u67fb(\u305d\u306e2)\u696d\u52d9","client_name":"\u56fd\u571f\u4ea4\u901a\u7701\u5317\u9678\u5730\u65b9\u6574\u5099\u5c40\u98ef\u8c4a\u5c71\u7cfb\u7802\u9632\u4e8b\u52d9\u6240","boring_xml_url":47,"boring_view_url":1,"soilmap_view_url":null,"soiltest_xml_url":0,"soiltest_view_url":0},{"id":693454,"code":"NGIC202303893-0001","latitude":"37.938067638889","longitude":"139.71926422222","source_code":"","project_name":"","survey_name":"\u8352\u5ddd\u4e0a\u6d41\u57df\u7ba1\u5185\u5730\u8cea\u8abf\u67fb(\u305d\u306e2)\u696d\u52d9","client_name":"\u56fd\u571f\u4ea4\u901a\u7701\u5317\u9678\u5730\u65b9\u6574\u5099\u5c40\u98ef\u8c4a\u5c71\u7cfb\u7802\u9632\u4e8b\u52d9\u6240","boring_xml_url":47,"boring_view_url":1,"soilmap_view_url":null,"soiltest_xml_url":0,"soiltest_view_url":0},{"id":693443,"code":"NGIC202303898-0001","latitude":"43.308270277778","longitude":"141.70856416667","source_code":"","project_name":"\u56fd\u55b6\u7dca\u6025\u8fb2\u5730\u518d\u7de8\u6574\u5099\u4e8b\u696d","survey_name":"\u4ee4\u548c5\u5e74\u5ea6 \u5ca9\u898b\u6ca2\u5317\u6751\u5730\u533a \u8c4a\u6b6333\u30fb34\u533a\u533a\u753b\u6574\u7406\u8a2d\u8a08\u7b49\u696d\u52d9","client_name":"\u56fd\u571f\u4ea4\u901a\u7701\u5317\u6d77\u9053\u958b\u767a\u5c40\u672d\u5e4c\u958b\u767a\u5efa\u8a2d\u90e8\u5ca9\u898b\u6ca2\u8fb2\u696d\u4e8b\u52d9\u6240","boring_xml_url":47,"boring_view_url":1,"soilmap_view_url":null,"soiltest_xml_url":47,"soiltest_view_url":47},{"id":693438,"code":"NGIC202303807-0004","latitude":"43.4567225","longitude":"145.09022083333","source_code":"","project_name":"\u56fd\u55b6\u74b0\u5883\u4fdd\u5168\u578b\u304b\u3093\u304c\u3044\u6392\u6c34\u4e8b\u696d","survey_name":"\u4ee4\u548c5\u5e74\u5ea6 \u5225\u6d77\u5317\u90e8\u5730\u533a \u5225\u914d12\u53f7\u7528\u6c34\u8def\u4e2d\u6625\u5225\u7b2c3\u5de5\u533a\u8a2d\u8a08\u7b49\u696d\u52d9","client_name":"\u56fd\u571f\u4ea4\u901a\u7701\u5317\u6d77\u9053\u958b\u767a\u5c40\u91e7\u8def\u958b\u767a\u5efa\u8a2d\u90e8\u6839\u5ba4\u8fb2\u696d\u4e8b\u52d9\u6240","boring_xml_url":47,"boring_view_url":1,"soilmap_view_url":null,"soiltest_xml_url":47,"soiltest_view_url":47},{"id":693437,"code":"NGIC202303807-0003","latitude":"43.461217777778","longitude":"145.08730611111","source_code":"","project_name":"\u56fd\u55b6\u74b0\u5883\u4fdd\u5168\u578b\u304b\u3093\u304c\u3044\u6392\u6c34\u4e8b\u696d","survey_name":"\u4ee4\u548c5\u5e74\u5ea6 \u5225\u6d77\u5317\u90e8\u5730\u533a \u5225\u914d12\u53f7\u7528\u6c34\u8def\u4e2d\u6625\u5225\u7b2c3\u5de5\u533a\u8a2d\u8a08\u7b49\u696d\u52d9","client_name":"\u56fd\u571f\u4ea4\u901a\u7701\u5317\u6d77\u9053\u958b\u767a\u5c40\u91e7\u8def\u958b\u767a\u5efa\u8a2d\u90e8\u6839\u5ba4\u8fb2\u696d\u4e8b\u52d9\u6240","boring_xml_url":47,"boring_view_url":1,"soilmap_view_url":null,"soiltest_xml_url":47,"soiltest_view_url":47},{"id":693436,"code":"NGIC202303807-0002","latitude":"43.461980277778","longitude":"145.08681861111","source_code":"","project_name":"\u56fd\u55b6\u74b0\u5883\u4fdd\u5168\u578b\u304b\u3093\u304c\u3044\u6392\u6c34\u4e8b\u696d","survey_name":"\u4ee4\u548c5\u5e74\u5ea6 \u5225\u6d77\u5317\u90e8\u5730\u533a \u5225\u914d12\u53f7\u7528\u6c34\u8def\u4e2d\u6625\u5225\u7b2c3\u5de5\u533a\u8a2d\u8a08\u7b49\u696d\u52d9","client_name":"\u56fd\u571f\u4ea4\u901a\u7701\u5317\u6d77\u9053\u958b\u767a\u5c40\u91e7\u8def\u958b\u767a\u5efa\u8a2d\u90e8\u6839\u5ba4\u8fb2\u696d\u4e8b\u52d9\u6240","boring_xml_url":47,"boring_view_url":1,"soilmap_view_url":null,"soiltest_xml_url":47,"soiltest_view_url":47},{"id":693435,"code":"NGIC202303807-0001","latitude":"43.463623055556","longitude":"145.0857125","source_code":"","project_name":"\u56fd\u55b6\u74b0\u5883\u4fdd\u5168\u578b\u304b\u3093\u304c\u3044\u6392\u6c34\u4e8b\u696d","survey_name":"\u4ee4\u548c5\u5e74\u5ea6 \u5225\u6d77\u5317\u90e8\u5730\u533a \u5225\u914d12\u53f7\u7528\u6c34\u8def\u4e2d\u6625\u5225\u7b2c3\u5de5\u533a\u8a2d\u8a08\u7b49\u696d\u52d9","client_name":"\u56fd\u571f\u4ea4\u901a\u7701\u5317\u6d77\u9053\u958b\u767a\u5c40\u91e7\u8def\u958b\u767a\u5efa\u8a2d\u90e8\u6839\u5ba4\u8fb2\u696d\u4e8b\u52d9\u6240","boring_xml_url":47,"boring_view_url":1,"soilmap_view_url":null,"soiltest_xml_url":47,"soiltest_view_url":47},{"id":693408,"code":"NGIC202303911-0001","latitude":"33.242677222222","longitude":"131.60747758333","source_code":"","project_name":"\u5927\u5206\u5408\u540c\u5e81\u820e\uff08R5\uff09\u6577\u5730\u8abf\u67fb\u696d\u52d9","survey_name":"\u5927\u5206\u5408\u540c\u5e81\u820e\uff08R5\uff09\u6577\u5730\u8abf\u67fb\u696d\u52d9","client_name":"\u56fd\u571f\u4ea4\u901a\u7701\u4e5d\u5dde\u5730\u65b9\u6574\u5099\u5c40\u718a\u672c\u55b6\u7e55\u4e8b\u52d9\u6240","boring_xml_url":47,"boring_view_url":1,"soilmap_view_url":null,"soiltest_xml_url":47,"soiltest_view_url":47},{"id":693407,"code":"NGIC202303890-0012","latitude":"31.412428083333","longitude":"130.52547380556","source_code":"","project_name":"","survey_name":"\u4ee4\u548c5\u5e74\u5ea6\u9e7f\u5150\u5cf6\u5317\u30d0\u30a4\u30d1\u30b9\u5916\u5730\u8cea\u8abf\u67fb\u696d\u52d9","client_name":"\u56fd\u571f\u4ea4\u901a\u7701\u4e5d\u5dde\u5730\u65b9\u6574\u5099\u5c40\u9e7f\u5150\u5cf6\u56fd\u9053\u4e8b\u52d9\u6240","boring_xml_url":47,"boring_view_url":1,"soilmap_view_url":null,"soiltest_xml_url":0,"soiltest_view_url":0},{"id":693406,"code":"NGIC202303890-0011","latitude":"31.408948083333","longitude":"130.52644644444","source_code":"","project_name":"","survey_name":"\u4ee4\u548c5\u5e74\u5ea6\u9e7f\u5150\u5cf6\u5317\u30d0\u30a4\u30d1\u30b9\u5916\u5730\u8cea\u8abf\u67fb\u696d\u52d9","client_name":"\u56fd\u571f\u4ea4\u901a\u7701\u4e5d\u5dde\u5730\u65b9\u6574\u5099\u5c40\u9e7f\u5150\u5cf6\u56fd\u9053\u4e8b\u52d9\u6240","boring_xml_url":47,"boring_view_url":1,"soilmap_view_url":null,"soiltest_xml_url":0,"soiltest_view_url":0}]}}