{"header":{"xyz":{"source":[],"mosaic":false},"page":955,"raw":{"soiltest_result":"0","bbox":"57.598333,109.544722,1.933333,163.806111","page":"955"},"conditions":{"soiltest_result":0,"north":57.598333,"west":109.544722,"south":1.933333,"east":163.806111},"success":true,"message":""},"data":{"meta":{"total":212844,"page":955,"pages":7095,"count":30},"values":[{"id":516768,"code":"B4KJ202201001-9304","latitude":"34.880306","longitude":"135.82575","source_code":"KK138630240400290006","project_name":"","survey_name":"\u5929\u30f6\u702c\u30c0\u30e0\u518d\u958b\u767a\u4e8b\u696d\u3000\u89b3\u6e2c\u5b54\u8a2d\u7f6e\u696d\u52d9","client_name":"\u56fd\u571f\u4ea4\u901a\u7701\u3000\u8fd1\u757f\u5730\u65b9\u6574\u5099\u5c40\u3000\u7435\u7436\u6e56\u6cb3\u5ddd\u4e8b\u52d9\u6240","boring_xml_url":68,"boring_view_url":1,"soilmap_view_url":null,"soiltest_xml_url":0,"soiltest_view_url":0},{"id":516767,"code":"B4KJ202201001-9303","latitude":"34.879917","longitude":"135.826","source_code":"KK138630240400290005","project_name":"","survey_name":"\u5929\u30f6\u702c\u30c0\u30e0\u518d\u958b\u767a\u4e8b\u696d\u3000\u89b3\u6e2c\u5b54\u8a2d\u7f6e\u696d\u52d9","client_name":"\u56fd\u571f\u4ea4\u901a\u7701\u3000\u8fd1\u757f\u5730\u65b9\u6574\u5099\u5c40\u3000\u7435\u7436\u6e56\u6cb3\u5ddd\u4e8b\u52d9\u6240","boring_xml_url":68,"boring_view_url":1,"soilmap_view_url":null,"soiltest_xml_url":0,"soiltest_view_url":0},{"id":516766,"code":"B4KJ202201001-9302","latitude":"34.880139","longitude":"135.826","source_code":"KK138630240400290004","project_name":"","survey_name":"\u5929\u30f6\u702c\u30c0\u30e0\u518d\u958b\u767a\u4e8b\u696d\u3000\u89b3\u6e2c\u5b54\u8a2d\u7f6e\u696d\u52d9","client_name":"\u56fd\u571f\u4ea4\u901a\u7701\u3000\u8fd1\u757f\u5730\u65b9\u6574\u5099\u5c40\u3000\u7435\u7436\u6e56\u6cb3\u5ddd\u4e8b\u52d9\u6240","boring_xml_url":68,"boring_view_url":1,"soilmap_view_url":null,"soiltest_xml_url":0,"soiltest_view_url":0},{"id":516765,"code":"B4KJ202201001-9301","latitude":"34.87975","longitude":"135.826306","source_code":"KK138630240400290003","project_name":"","survey_name":"\u5929\u30f6\u702c\u30c0\u30e0\u518d\u958b\u767a\u4e8b\u696d\u3000\u89b3\u6e2c\u5b54\u8a2d\u7f6e\u696d\u52d9","client_name":"\u56fd\u571f\u4ea4\u901a\u7701\u3000\u8fd1\u757f\u5730\u65b9\u6574\u5099\u5c40\u3000\u7435\u7436\u6e56\u6cb3\u5ddd\u4e8b\u52d9\u6240","boring_xml_url":68,"boring_view_url":1,"soilmap_view_url":null,"soiltest_xml_url":0,"soiltest_view_url":0},{"id":516764,"code":"B4KJ202201001-9300","latitude":"34.879222","longitude":"135.826167","source_code":"KK138630240400290002","project_name":"","survey_name":"\u5929\u30f6\u702c\u30c0\u30e0\u518d\u958b\u767a\u4e8b\u696d\u3000\u89b3\u6e2c\u5b54\u8a2d\u7f6e\u696d\u52d9","client_name":"\u56fd\u571f\u4ea4\u901a\u7701\u3000\u8fd1\u757f\u5730\u65b9\u6574\u5099\u5c40\u3000\u7435\u7436\u6e56\u6cb3\u5ddd\u4e8b\u52d9\u6240","boring_xml_url":68,"boring_view_url":1,"soilmap_view_url":null,"soiltest_xml_url":0,"soiltest_view_url":0},{"id":516763,"code":"B4KJ202201001-9299","latitude":"34.878806","longitude":"135.825611","source_code":"KK138630240400290001","project_name":"","survey_name":"\u5929\u30f6\u702c\u30c0\u30e0\u518d\u958b\u767a\u4e8b\u696d\u3000\u89b3\u6e2c\u5b54\u8a2d\u7f6e\u696d\u52d9","client_name":"\u56fd\u571f\u4ea4\u901a\u7701\u3000\u8fd1\u757f\u5730\u65b9\u6574\u5099\u5c40\u3000\u7435\u7436\u6e56\u6cb3\u5ddd\u4e8b\u52d9\u6240","boring_xml_url":68,"boring_view_url":1,"soilmap_view_url":null,"soiltest_xml_url":0,"soiltest_view_url":0},{"id":516762,"code":"B4KJ202201001-9298","latitude":"34.348889","longitude":"135.948056","source_code":"KK148680490400040004","project_name":"\u5927\u6edd\u30c0\u30e0\u8caf\u6c34\u6c60\u6cd5\u9762\u5bfe\u7b56\u8a2d\u8a08\u696d\u52d9","survey_name":"\u5927\u6edd\u30c0\u30e0\u8caf\u6c34\u6c60\u6cd5\u9762\u5bfe\u7b56\u8a2d\u8a08\u696d\u52d9","client_name":"\u56fd\u571f\u4ea4\u901a\u7701\u3000\u8fd1\u757f\u5730\u65b9\u6574\u5099\u5c40\u3000\u7d00\u306e\u5ddd\u30c0\u30e0\u7d71\u5408\u7ba1\u7406\u4e8b\u52d9\u6240","boring_xml_url":68,"boring_view_url":1,"soilmap_view_url":null,"soiltest_xml_url":0,"soiltest_view_url":0},{"id":516761,"code":"B4KJ202201001-9297","latitude":"34.349167","longitude":"135.948056","source_code":"KK148680490400040003","project_name":"\u5927\u6edd\u30c0\u30e0\u8caf\u6c34\u6c60\u6cd5\u9762\u5bfe\u7b56\u8a2d\u8a08\u696d\u52d9","survey_name":"\u5927\u6edd\u30c0\u30e0\u8caf\u6c34\u6c60\u6cd5\u9762\u5bfe\u7b56\u8a2d\u8a08\u696d\u52d9","client_name":"\u56fd\u571f\u4ea4\u901a\u7701\u3000\u8fd1\u757f\u5730\u65b9\u6574\u5099\u5c40\u3000\u7d00\u306e\u5ddd\u30c0\u30e0\u7d71\u5408\u7ba1\u7406\u4e8b\u52d9\u6240","boring_xml_url":68,"boring_view_url":1,"soilmap_view_url":null,"soiltest_xml_url":0,"soiltest_view_url":0},{"id":516760,"code":"B4KJ202201001-9296","latitude":"34.341944","longitude":"135.955","source_code":"KK148680490400040002","project_name":"\u5927\u6edd\u30c0\u30e0\u8caf\u6c34\u6c60\u6cd5\u9762\u5bfe\u7b56\u8a2d\u8a08\u696d\u52d9","survey_name":"\u5927\u6edd\u30c0\u30e0\u8caf\u6c34\u6c60\u6cd5\u9762\u5bfe\u7b56\u8a2d\u8a08\u696d\u52d9","client_name":"\u56fd\u571f\u4ea4\u901a\u7701\u3000\u8fd1\u757f\u5730\u65b9\u6574\u5099\u5c40\u3000\u7d00\u306e\u5ddd\u30c0\u30e0\u7d71\u5408\u7ba1\u7406\u4e8b\u52d9\u6240","boring_xml_url":68,"boring_view_url":1,"soilmap_view_url":null,"soiltest_xml_url":0,"soiltest_view_url":0},{"id":516759,"code":"B4KJ202201001-9295","latitude":"34.341944","longitude":"135.955","source_code":"KK148680490400040001","project_name":"\u5927\u6edd\u30c0\u30e0\u8caf\u6c34\u6c60\u6cd5\u9762\u5bfe\u7b56\u8a2d\u8a08\u696d\u52d9","survey_name":"\u5927\u6edd\u30c0\u30e0\u8caf\u6c34\u6c60\u6cd5\u9762\u5bfe\u7b56\u8a2d\u8a08\u696d\u52d9","client_name":"\u56fd\u571f\u4ea4\u901a\u7701\u3000\u8fd1\u757f\u5730\u65b9\u6574\u5099\u5c40\u3000\u7d00\u306e\u5ddd\u30c0\u30e0\u7d71\u5408\u7ba1\u7406\u4e8b\u52d9\u6240","boring_xml_url":68,"boring_view_url":1,"soilmap_view_url":null,"soiltest_xml_url":0,"soiltest_view_url":0},{"id":516758,"code":"B4KJ202201001-9294","latitude":"34.728139","longitude":"135.824389","source_code":"KK148636330400180003","project_name":"","survey_name":"\u6728\u6d25\u6771\u30d0\u30a4\u30d1\u30b9\u4e8c\u53f7\u8abf\u6574\u6c60\u8a73\u7d30\u8a2d\u8a08\u4ed6\u696d\u52d9","client_name":"\u56fd\u571f\u4ea4\u901a\u7701\u3000\u8fd1\u757f\u5730\u65b9\u6574\u5099\u5c40\u3000\u4eac\u90fd\u56fd\u9053\u4e8b\u52d9\u6240","boring_xml_url":68,"boring_view_url":1,"soilmap_view_url":null,"soiltest_xml_url":0,"soiltest_view_url":0},{"id":516757,"code":"B4KJ202201001-9293","latitude":"34.728222","longitude":"135.824278","source_code":"KK148636330400180002","project_name":"","survey_name":"\u6728\u6d25\u6771\u30d0\u30a4\u30d1\u30b9\u4e8c\u53f7\u8abf\u6574\u6c60\u8a73\u7d30\u8a2d\u8a08\u4ed6\u696d\u52d9","client_name":"\u56fd\u571f\u4ea4\u901a\u7701\u3000\u8fd1\u757f\u5730\u65b9\u6574\u5099\u5c40\u3000\u4eac\u90fd\u56fd\u9053\u4e8b\u52d9\u6240","boring_xml_url":68,"boring_view_url":1,"soilmap_view_url":null,"soiltest_xml_url":0,"soiltest_view_url":0},{"id":516756,"code":"B4KJ202201001-9292","latitude":"34.728306","longitude":"135.824167","source_code":"KK148636330400180001","project_name":"","survey_name":"\u6728\u6d25\u6771\u30d0\u30a4\u30d1\u30b9\u4e8c\u53f7\u8abf\u6574\u6c60\u8a73\u7d30\u8a2d\u8a08\u4ed6\u696d\u52d9","client_name":"\u56fd\u571f\u4ea4\u901a\u7701\u3000\u8fd1\u757f\u5730\u65b9\u6574\u5099\u5c40\u3000\u4eac\u90fd\u56fd\u9053\u4e8b\u52d9\u6240","boring_xml_url":68,"boring_view_url":1,"soilmap_view_url":null,"soiltest_xml_url":0,"soiltest_view_url":0},{"id":516755,"code":"B4KJ202201001-9291","latitude":"34.326092","longitude":"135.174397","source_code":"KK138643200400250001","project_name":"-","survey_name":"\u7b2c\u4e8c\u962a\u548c\u56fd\u9053\u9053\u8def\u9644\u5c5e\u65bd\u8a2d\u4ed6\u8a73\u7d30\u8a2d\u8a08\u696d\u52d9","client_name":"\u56fd\u571f\u4ea4\u901a\u7701\u8fd1\u757f\u5730\u65b9\u6574\u5099\u5c40\u6d6a\u901f\u56fd\u9053\u4e8b\u52d9\u6240","boring_xml_url":68,"boring_view_url":1,"soilmap_view_url":null,"soiltest_xml_url":0,"soiltest_view_url":0},{"id":516754,"code":"B4KJ202201001-9290","latitude":"34.786783","longitude":"136.135986","source_code":"KK138673200400070004","project_name":"\u4e0a\u91ce\u5730\u533a\u6a0b\u9580\u8a73\u7d30\u8a2d\u8a08\u696d\u52d9\u5730\u8cea\u8abf\u67fb","survey_name":"\u4e0a\u91ce\u5730\u533a\u6a0b\u9580\u8a73\u7d30\u8a2d\u8a08\u696d\u52d9\u5730\u8cea\u8abf\u67fb","client_name":"\u8fd1\u757f\u5730\u65b9\u6574\u5099\u5c40\u6728\u6d25\u5ddd\u4e0a\u6d41\u6cb3\u5ddd\u4e8b\u52d9\u6240","boring_xml_url":68,"boring_view_url":1,"soilmap_view_url":null,"soiltest_xml_url":0,"soiltest_view_url":0},{"id":516753,"code":"B4KJ202201001-9289","latitude":"34.783342","longitude":"136.129689","source_code":"KK138673200400070003","project_name":"\u4e0a\u91ce\u5730\u533a\u6a0b\u9580\u8a73\u7d30\u8a2d\u8a08\u696d\u52d9\u5730\u8cea\u8abf\u67fb","survey_name":"\u4e0a\u91ce\u5730\u533a\u6a0b\u9580\u8a73\u7d30\u8a2d\u8a08\u696d\u52d9\u5730\u8cea\u8abf\u67fb","client_name":"\u8fd1\u757f\u5730\u65b9\u6574\u5099\u5c40\u6728\u6d25\u5ddd\u4e0a\u6d41\u6cb3\u5ddd\u4e8b\u52d9\u6240","boring_xml_url":68,"boring_view_url":1,"soilmap_view_url":null,"soiltest_xml_url":0,"soiltest_view_url":0},{"id":516752,"code":"B4KJ202201001-9288","latitude":"34.785275","longitude":"136.121361","source_code":"KK138673200400070002","project_name":"\u4e0a\u91ce\u5730\u533a\u6a0b\u9580\u8a73\u7d30\u8a2d\u8a08\u696d\u52d9\u5730\u8cea\u8abf\u67fb","survey_name":"\u4e0a\u91ce\u5730\u533a\u6a0b\u9580\u8a73\u7d30\u8a2d\u8a08\u696d\u52d9\u5730\u8cea\u8abf\u67fb","client_name":"\u8fd1\u757f\u5730\u65b9\u6574\u5099\u5c40\u6728\u6d25\u5ddd\u4e0a\u6d41\u6cb3\u5ddd\u4e8b\u52d9\u6240","boring_xml_url":68,"boring_view_url":1,"soilmap_view_url":null,"soiltest_xml_url":0,"soiltest_view_url":0},{"id":516751,"code":"B4KJ202201001-9287","latitude":"34.785169","longitude":"136.121342","source_code":"KK138673200400070001","project_name":"\u4e0a\u91ce\u5730\u533a\u6a0b\u9580\u8a73\u7d30\u8a2d\u8a08\u696d\u52d9\u5730\u8cea\u8abf\u67fb","survey_name":"\u4e0a\u91ce\u5730\u533a\u6a0b\u9580\u8a73\u7d30\u8a2d\u8a08\u696d\u52d9\u5730\u8cea\u8abf\u67fb","client_name":"\u8fd1\u757f\u5730\u65b9\u6574\u5099\u5c40\u6728\u6d25\u5ddd\u4e0a\u6d41\u6cb3\u5ddd\u4e8b\u52d9\u6240","boring_xml_url":68,"boring_view_url":1,"soilmap_view_url":null,"soiltest_xml_url":0,"soiltest_view_url":0},{"id":516750,"code":"B4KJ202201001-9286","latitude":"34.78665","longitude":"136.13605","source_code":"KK138673200400040009","project_name":"\u4e0a\u91ce\u5730\u533a\u7bc9\u5824\u8a73\u7d30\u8a2d\u8a08\u696d\u52d9\u5730\u8cea\u8abf\u67fb","survey_name":"\u4e0a\u91ce\u5730\u533a\u7bc9\u5824\u8a73\u7d30\u8a2d\u8a08\u696d\u52d9\u5730\u8cea\u8abf\u67fb","client_name":"\"\u56fd\u571f\u4ea4\u901a\u7701 \u8fd1\u757f\u5730\u65b9\u6574\u5099\u5c40 \u6728\u6d25\u5ddd\u4e0a\u6d41\u6cb3\u5ddd\u4e8b\u52d9\u6240\"","boring_xml_url":68,"boring_view_url":1,"soilmap_view_url":null,"soiltest_xml_url":0,"soiltest_view_url":0},{"id":516749,"code":"B4KJ202201001-9285","latitude":"34.78665","longitude":"136.13605","source_code":"KK138673200400040008","project_name":"\u4e0a\u91ce\u5730\u533a\u7bc9\u5824\u8a73\u7d30\u8a2d\u8a08\u696d\u52d9\u5730\u8cea\u8abf\u67fb","survey_name":"\u4e0a\u91ce\u5730\u533a\u7bc9\u5824\u8a73\u7d30\u8a2d\u8a08\u696d\u52d9\u5730\u8cea\u8abf\u67fb","client_name":"\"\u56fd\u571f\u4ea4\u901a\u7701 \u8fd1\u757f\u5730\u65b9\u6574\u5099\u5c40 \u6728\u6d25\u5ddd\u4e0a\u6d41\u6cb3\u5ddd\u4e8b\u52d9\u6240\"","boring_xml_url":68,"boring_view_url":1,"soilmap_view_url":null,"soiltest_xml_url":0,"soiltest_view_url":0},{"id":516748,"code":"B4KJ202201001-9284","latitude":"34.783992","longitude":"136.131636","source_code":"KK138673200400040007","project_name":"\u4e0a\u91ce\u5730\u533a\u7bc9\u5824\u8a73\u7d30\u8a2d\u8a08\u696d\u52d9\u5730\u8cea\u8abf\u67fb","survey_name":"\u4e0a\u91ce\u5730\u533a\u7bc9\u5824\u8a73\u7d30\u8a2d\u8a08\u696d\u52d9\u5730\u8cea\u8abf\u67fb","client_name":"\"\u56fd\u571f\u4ea4\u901a\u7701 \u8fd1\u757f\u5730\u65b9\u6574\u5099\u5c40 \u6728\u6d25\u5ddd\u4e0a\u6d41\u6cb3\u5ddd\u4e8b\u52d9\u6240\"","boring_xml_url":68,"boring_view_url":1,"soilmap_view_url":null,"soiltest_xml_url":0,"soiltest_view_url":0},{"id":516747,"code":"B4KJ202201001-9283","latitude":"34.783992","longitude":"136.131636","source_code":"KK138673200400040006","project_name":"\u4e0a\u91ce\u5730\u533a\u7bc9\u5824\u8a73\u7d30\u8a2d\u8a08\u696d\u52d9\u5730\u8cea\u8abf\u67fb","survey_name":"\u4e0a\u91ce\u5730\u533a\u7bc9\u5824\u8a73\u7d30\u8a2d\u8a08\u696d\u52d9\u5730\u8cea\u8abf\u67fb","client_name":"\"\u56fd\u571f\u4ea4\u901a\u7701 \u8fd1\u757f\u5730\u65b9\u6574\u5099\u5c40 \u6728\u6d25\u5ddd\u4e0a\u6d41\u6cb3\u5ddd\u4e8b\u52d9\u6240\"","boring_xml_url":68,"boring_view_url":1,"soilmap_view_url":null,"soiltest_xml_url":0,"soiltest_view_url":0},{"id":516746,"code":"B4KJ202201001-9282","latitude":"34.783489","longitude":"136.129647","source_code":"KK138673200400040005","project_name":"\u4e0a\u91ce\u5730\u533a\u7bc9\u5824\u8a73\u7d30\u8a2d\u8a08\u696d\u52d9\u5730\u8cea\u8abf\u67fb","survey_name":"\u4e0a\u91ce\u5730\u533a\u7bc9\u5824\u8a73\u7d30\u8a2d\u8a08\u696d\u52d9\u5730\u8cea\u8abf\u67fb","client_name":"\"\u56fd\u571f\u4ea4\u901a\u7701 \u8fd1\u757f\u5730\u65b9\u6574\u5099\u5c40 \u6728\u6d25\u5ddd\u4e0a\u6d41\u6cb3\u5ddd\u4e8b\u52d9\u6240\"","boring_xml_url":68,"boring_view_url":1,"soilmap_view_url":null,"soiltest_xml_url":0,"soiltest_view_url":0},{"id":516745,"code":"B4KJ202201001-9281","latitude":"34.783489","longitude":"136.129647","source_code":"KK138673200400040004","project_name":"\u4e0a\u91ce\u5730\u533a\u7bc9\u5824\u8a73\u7d30\u8a2d\u8a08\u696d\u52d9\u5730\u8cea\u8abf\u67fb","survey_name":"\u4e0a\u91ce\u5730\u533a\u7bc9\u5824\u8a73\u7d30\u8a2d\u8a08\u696d\u52d9\u5730\u8cea\u8abf\u67fb","client_name":"\"\u56fd\u571f\u4ea4\u901a\u7701 \u8fd1\u757f\u5730\u65b9\u6574\u5099\u5c40 \u6728\u6d25\u5ddd\u4e0a\u6d41\u6cb3\u5ddd\u4e8b\u52d9\u6240\"","boring_xml_url":68,"boring_view_url":1,"soilmap_view_url":null,"soiltest_xml_url":0,"soiltest_view_url":0},{"id":516744,"code":"B4KJ202201001-9280","latitude":"34.784989","longitude":"136.124506","source_code":"KK138673200400040003","project_name":"\u4e0a\u91ce\u5730\u533a\u7bc9\u5824\u8a73\u7d30\u8a2d\u8a08\u696d\u52d9\u5730\u8cea\u8abf\u67fb","survey_name":"\u4e0a\u91ce\u5730\u533a\u7bc9\u5824\u8a73\u7d30\u8a2d\u8a08\u696d\u52d9\u5730\u8cea\u8abf\u67fb","client_name":"\"\u56fd\u571f\u4ea4\u901a\u7701 \u8fd1\u757f\u5730\u65b9\u6574\u5099\u5c40 \u6728\u6d25\u5ddd\u4e0a\u6d41\u6cb3\u5ddd\u4e8b\u52d9\u6240\"","boring_xml_url":68,"boring_view_url":1,"soilmap_view_url":null,"soiltest_xml_url":0,"soiltest_view_url":0},{"id":516743,"code":"B4KJ202201001-9279","latitude":"34.785039","longitude":"136.121403","source_code":"KK138673200400040002","project_name":"\u4e0a\u91ce\u5730\u533a\u7bc9\u5824\u8a73\u7d30\u8a2d\u8a08\u696d\u52d9\u5730\u8cea\u8abf\u67fb","survey_name":"\u4e0a\u91ce\u5730\u533a\u7bc9\u5824\u8a73\u7d30\u8a2d\u8a08\u696d\u52d9\u5730\u8cea\u8abf\u67fb","client_name":"\"\u56fd\u571f\u4ea4\u901a\u7701 \u8fd1\u757f\u5730\u65b9\u6574\u5099\u5c40 \u6728\u6d25\u5ddd\u4e0a\u6d41\u6cb3\u5ddd\u4e8b\u52d9\u6240\"","boring_xml_url":68,"boring_view_url":1,"soilmap_view_url":null,"soiltest_xml_url":0,"soiltest_view_url":0},{"id":516742,"code":"B4KJ202201001-9278","latitude":"34.785039","longitude":"136.121403","source_code":"KK138673200400040001","project_name":"\u4e0a\u91ce\u5730\u533a\u7bc9\u5824\u8a73\u7d30\u8a2d\u8a08\u696d\u52d9\u5730\u8cea\u8abf\u67fb","survey_name":"\u4e0a\u91ce\u5730\u533a\u7bc9\u5824\u8a73\u7d30\u8a2d\u8a08\u696d\u52d9\u5730\u8cea\u8abf\u67fb","client_name":"\"\u56fd\u571f\u4ea4\u901a\u7701 \u8fd1\u757f\u5730\u65b9\u6574\u5099\u5c40 \u6728\u6d25\u5ddd\u4e0a\u6d41\u6cb3\u5ddd\u4e8b\u52d9\u6240\"","boring_xml_url":68,"boring_view_url":1,"soilmap_view_url":null,"soiltest_xml_url":0,"soiltest_view_url":0},{"id":516741,"code":"B4KJ202201001-9277","latitude":"35.927861","longitude":"136.380168","source_code":"KK138671270400010003","project_name":"\u539f\u77f3\u5c71\u5019\u88dc\u5730\u5730\u8cea\u8abf\u67fb\u696d\u52d9","survey_name":"\u539f\u77f3\u5c71\u5019\u88dc\u5730\u5730\u8cea\u8abf\u67fb\u696d\u52d9","client_name":"\"\u56fd\u571f\u4ea4\u901a\u7701 \u8fd1\u757f\u5730\u65b9\u6574\u5099\u5c40 \u8db3\u7fbd\u5ddd\u30c0\u30e0\u5de5\u4e8b\u4e8b\u52d9\u6240\"","boring_xml_url":68,"boring_view_url":1,"soilmap_view_url":null,"soiltest_xml_url":0,"soiltest_view_url":0},{"id":516740,"code":"B4KJ202201001-9276","latitude":"35.928472","longitude":"136.381057","source_code":"KK138671270400010002","project_name":"\u539f\u77f3\u5c71\u5019\u88dc\u5730\u5730\u8cea\u8abf\u67fb\u696d\u52d9","survey_name":"\u539f\u77f3\u5c71\u5019\u88dc\u5730\u5730\u8cea\u8abf\u67fb\u696d\u52d9","client_name":"\"\u56fd\u571f\u4ea4\u901a\u7701 \u8fd1\u757f\u5730\u65b9\u6574\u5099\u5c40 \u8db3\u7fbd\u5ddd\u30c0\u30e0\u5de5\u4e8b\u4e8b\u52d9\u6240\"","boring_xml_url":68,"boring_view_url":1,"soilmap_view_url":null,"soiltest_xml_url":0,"soiltest_view_url":0},{"id":516739,"code":"B4KJ202201001-9275","latitude":"35.926722","longitude":"136.380835","source_code":"KK138671270400010001","project_name":"\u539f\u77f3\u5c71\u5019\u88dc\u5730\u5730\u8cea\u8abf\u67fb\u696d\u52d9","survey_name":"\u539f\u77f3\u5c71\u5019\u88dc\u5730\u5730\u8cea\u8abf\u67fb\u696d\u52d9","client_name":"\"\u56fd\u571f\u4ea4\u901a\u7701 \u8fd1\u757f\u5730\u65b9\u6574\u5099\u5c40 \u8db3\u7fbd\u5ddd\u30c0\u30e0\u5de5\u4e8b\u4e8b\u52d9\u6240\"","boring_xml_url":68,"boring_view_url":1,"soilmap_view_url":null,"soiltest_xml_url":0,"soiltest_view_url":0}]}}