{"header":{"xyz":{"source":[],"mosaic":false},"page":960,"raw":{"soiltest_result":"0","bbox":"57.598333,109.544722,1.933333,163.806111","page":"960"},"conditions":{"soiltest_result":0,"north":57.598333,"west":109.544722,"south":1.933333,"east":163.806111},"success":true,"message":""},"data":{"meta":{"total":212844,"page":960,"pages":7095,"count":30},"values":[{"id":516618,"code":"B4KJ202201001-9154","latitude":"34.669881","longitude":"135.126219","source_code":"KK138652330400020001","project_name":"\u516d\u7532\u5c71\u7cfb\u7802\u9632\u5830\u5824\u88dc\u5f37\u6539\u826f\u8a2d\u8a08\u696d\u52d9","survey_name":"\u516d\u7532\u5c71\u7cfb\u7802\u9632\u5830\u5824\u88dc\u5f37\u6539\u826f\u8a2d\u8a08\u696d\u52d9","client_name":"\u56fd\u571f\u4ea4\u901a\u7701\u8fd1\u757f\u5730\u65b9\u6574\u5099\u5c40\u516d\u7532\u7802\u9632\u4e8b\u52d9\u6240","boring_xml_url":68,"boring_view_url":1,"soilmap_view_url":null,"soiltest_xml_url":0,"soiltest_view_url":0},{"id":516617,"code":"B4KJ202201001-9153","latitude":"34.727044","longitude":"135.225358","source_code":"KK138652330400010005","project_name":"\u65e5\u67f3\u7b2c\u4e8c\u5830\u5824\u88dc\u5f37\u8a73\u7d30\u8a2d\u8a08\u696d\u52d9","survey_name":"\u65e5\u67f3\u7b2c\u4e8c\u5830\u5824\u88dc\u5f37\u8a73\u7d30\u8a2d\u8a08\u696d\u52d9","client_name":"\"\u56fd\u571f\u4ea4\u901a\u7701\u8fd1\u757f\u5730\u65b9\u6574\u5099\u5c40 \u516d\u7532\u7802\u9632\u4e8b\u52d9\u6240\"","boring_xml_url":68,"boring_view_url":1,"soilmap_view_url":null,"soiltest_xml_url":0,"soiltest_view_url":0},{"id":516616,"code":"B4KJ202201001-9152","latitude":"34.727394","longitude":"135.225489","source_code":"KK138652330400010004","project_name":"\u65e5\u67f3\u7b2c\u4e8c\u5830\u5824\u88dc\u5f37\u8a73\u7d30\u8a2d\u8a08\u696d\u52d9","survey_name":"\u65e5\u67f3\u7b2c\u4e8c\u5830\u5824\u88dc\u5f37\u8a73\u7d30\u8a2d\u8a08\u696d\u52d9","client_name":"\"\u56fd\u571f\u4ea4\u901a\u7701\u8fd1\u757f\u5730\u65b9\u6574\u5099\u5c40 \u516d\u7532\u7802\u9632\u4e8b\u52d9\u6240\"","boring_xml_url":68,"boring_view_url":1,"soilmap_view_url":null,"soiltest_xml_url":0,"soiltest_view_url":0},{"id":516615,"code":"B4KJ202201001-9151","latitude":"34.727125","longitude":"135.225617","source_code":"KK138652330400010003","project_name":"\u65e5\u67f3\u7b2c\u4e8c\u5830\u5824\u88dc\u5f37\u8a73\u7d30\u8a2d\u8a08\u696d\u52d9","survey_name":"\u65e5\u67f3\u7b2c\u4e8c\u5830\u5824\u88dc\u5f37\u8a73\u7d30\u8a2d\u8a08\u696d\u52d9","client_name":"\"\u56fd\u571f\u4ea4\u901a\u7701\u8fd1\u757f\u5730\u65b9\u6574\u5099\u5c40 \u516d\u7532\u7802\u9632\u4e8b\u52d9\u6240\"","boring_xml_url":68,"boring_view_url":1,"soilmap_view_url":null,"soiltest_xml_url":0,"soiltest_view_url":0},{"id":516614,"code":"B4KJ202201001-9150","latitude":"34.727322","longitude":"135.225261","source_code":"KK138652330400010002","project_name":"\u65e5\u67f3\u7b2c\u4e8c\u5830\u5824\u88dc\u5f37\u8a73\u7d30\u8a2d\u8a08\u696d\u52d9","survey_name":"\u65e5\u67f3\u7b2c\u4e8c\u5830\u5824\u88dc\u5f37\u8a73\u7d30\u8a2d\u8a08\u696d\u52d9","client_name":"\"\u56fd\u571f\u4ea4\u901a\u7701\u8fd1\u757f\u5730\u65b9\u6574\u5099\u5c40 \u516d\u7532\u7802\u9632\u4e8b\u52d9\u6240\"","boring_xml_url":68,"boring_view_url":1,"soilmap_view_url":null,"soiltest_xml_url":0,"soiltest_view_url":0},{"id":516613,"code":"B4KJ202201001-9149","latitude":"34.727211","longitude":"135.225439","source_code":"KK138652330400010001","project_name":"\u65e5\u67f3\u7b2c\u4e8c\u5830\u5824\u88dc\u5f37\u8a73\u7d30\u8a2d\u8a08\u696d\u52d9","survey_name":"\u65e5\u67f3\u7b2c\u4e8c\u5830\u5824\u88dc\u5f37\u8a73\u7d30\u8a2d\u8a08\u696d\u52d9","client_name":"\"\u56fd\u571f\u4ea4\u901a\u7701\u8fd1\u757f\u5730\u65b9\u6574\u5099\u5c40 \u516d\u7532\u7802\u9632\u4e8b\u52d9\u6240\"","boring_xml_url":68,"boring_view_url":1,"soilmap_view_url":null,"soiltest_xml_url":0,"soiltest_view_url":0},{"id":516612,"code":"B4KJ202201001-9148","latitude":"34.736288","longitude":"135.274414","source_code":"KK128652360400190014","project_name":"\u57ce\u4e0b\u5830\u5824\u4ed6\u7802\u9632\u5830\u5824\u88dc\u5f37\u6539\u826f\u8a2d\u8a08\u696d\u52d9","survey_name":"\u57ce\u4e0b\u5830\u5824\u4ed6\u7802\u9632\u5830\u5824\u88dc\u5f37\u6539\u826f\u8a2d\u8a08\u696d\u52d9","client_name":"\u56fd\u571f\u4ea4\u901a\u7701\u8fd1\u757f\u5730\u65b9\u6574\u5099\u5c40\u3000\u516d\u7532\u7802\u9632\u4e8b\u52d9\u6240","boring_xml_url":68,"boring_view_url":1,"soilmap_view_url":null,"soiltest_xml_url":0,"soiltest_view_url":0},{"id":516611,"code":"B4KJ202201001-9147","latitude":"34.736286","longitude":"135.274518","source_code":"KK128652360400190013","project_name":"\u57ce\u4e0b\u5830\u5824\u4ed6\u7802\u9632\u5830\u5824\u88dc\u5f37\u6539\u826f\u8a2d\u8a08\u696d\u52d9","survey_name":"\u57ce\u4e0b\u5830\u5824\u4ed6\u7802\u9632\u5830\u5824\u88dc\u5f37\u6539\u826f\u8a2d\u8a08\u696d\u52d9","client_name":"\u56fd\u571f\u4ea4\u901a\u7701\u8fd1\u757f\u5730\u65b9\u6574\u5099\u5c40\u3000\u516d\u7532\u7802\u9632\u4e8b\u52d9\u6240","boring_xml_url":68,"boring_view_url":1,"soilmap_view_url":null,"soiltest_xml_url":0,"soiltest_view_url":0},{"id":516610,"code":"B4KJ202201001-9146","latitude":"34.736286","longitude":"135.274665","source_code":"KK128652360400190012","project_name":"\u57ce\u4e0b\u5830\u5824\u4ed6\u7802\u9632\u5830\u5824\u88dc\u5f37\u6539\u826f\u8a2d\u8a08\u696d\u52d9","survey_name":"\u57ce\u4e0b\u5830\u5824\u4ed6\u7802\u9632\u5830\u5824\u88dc\u5f37\u6539\u826f\u8a2d\u8a08\u696d\u52d9","client_name":"\u56fd\u571f\u4ea4\u901a\u7701\u8fd1\u757f\u5730\u65b9\u6574\u5099\u5c40\u3000\u516d\u7532\u7802\u9632\u4e8b\u52d9\u6240","boring_xml_url":68,"boring_view_url":1,"soilmap_view_url":null,"soiltest_xml_url":0,"soiltest_view_url":0},{"id":516609,"code":"B4KJ202201001-9145","latitude":"34.736588","longitude":"135.27452","source_code":"KK128652360400190011","project_name":"\u57ce\u4e0b\u5830\u5824\u4ed6\u7802\u9632\u5830\u5824\u88dc\u5f37\u6539\u826f\u8a2d\u8a08\u696d\u52d9","survey_name":"\u57ce\u4e0b\u5830\u5824\u4ed6\u7802\u9632\u5830\u5824\u88dc\u5f37\u6539\u826f\u8a2d\u8a08\u696d\u52d9","client_name":"\u56fd\u571f\u4ea4\u901a\u7701\u8fd1\u757f\u5730\u65b9\u6574\u5099\u5c40\u3000\u516d\u7532\u7802\u9632\u4e8b\u52d9\u6240","boring_xml_url":68,"boring_view_url":1,"soilmap_view_url":null,"soiltest_xml_url":0,"soiltest_view_url":0},{"id":516608,"code":"B4KJ202201001-9144","latitude":"34.736479","longitude":"135.274291","source_code":"KK128652360400190010","project_name":"\u57ce\u4e0b\u5830\u5824\u4ed6\u7802\u9632\u5830\u5824\u88dc\u5f37\u6539\u826f\u8a2d\u8a08\u696d\u52d9","survey_name":"\u57ce\u4e0b\u5830\u5824\u4ed6\u7802\u9632\u5830\u5824\u88dc\u5f37\u6539\u826f\u8a2d\u8a08\u696d\u52d9","client_name":"\u56fd\u571f\u4ea4\u901a\u7701\u8fd1\u757f\u5730\u65b9\u6574\u5099\u5c40\u3000\u516d\u7532\u7802\u9632\u4e8b\u52d9\u6240","boring_xml_url":68,"boring_view_url":1,"soilmap_view_url":null,"soiltest_xml_url":0,"soiltest_view_url":0},{"id":516607,"code":"B4KJ202201001-9143","latitude":"34.736419","longitude":"135.274519","source_code":"KK128652360400190009","project_name":"\u57ce\u4e0b\u5830\u5824\u4ed6\u7802\u9632\u5830\u5824\u88dc\u5f37\u6539\u826f\u8a2d\u8a08\u696d\u52d9","survey_name":"\u57ce\u4e0b\u5830\u5824\u4ed6\u7802\u9632\u5830\u5824\u88dc\u5f37\u6539\u826f\u8a2d\u8a08\u696d\u52d9","client_name":"\u56fd\u571f\u4ea4\u901a\u7701\u8fd1\u757f\u5730\u65b9\u6574\u5099\u5c40\u3000\u516d\u7532\u7802\u9632\u4e8b\u52d9\u6240","boring_xml_url":68,"boring_view_url":1,"soilmap_view_url":null,"soiltest_xml_url":0,"soiltest_view_url":0},{"id":516606,"code":"B4KJ202201001-9142","latitude":"34.736481","longitude":"135.274666","source_code":"KK128652360400190008","project_name":"\u57ce\u4e0b\u5830\u5824\u4ed6\u7802\u9632\u5830\u5824\u88dc\u5f37\u6539\u826f\u8a2d\u8a08\u696d\u52d9","survey_name":"\u57ce\u4e0b\u5830\u5824\u4ed6\u7802\u9632\u5830\u5824\u88dc\u5f37\u6539\u826f\u8a2d\u8a08\u696d\u52d9","client_name":"\u56fd\u571f\u4ea4\u901a\u7701\u8fd1\u757f\u5730\u65b9\u6574\u5099\u5c40\u3000\u516d\u7532\u7802\u9632\u4e8b\u52d9\u6240","boring_xml_url":68,"boring_view_url":1,"soilmap_view_url":null,"soiltest_xml_url":0,"soiltest_view_url":0},{"id":516605,"code":"B4KJ202201001-9141","latitude":"34.718333","longitude":"135.211965","source_code":"KK128652360400190007","project_name":"\u57ce\u4e0b\u5830\u5824\u4ed6\u7802\u9632\u5830\u5824\u88dc\u5f37\u6539\u826f\u8a2d\u8a08\u696d\u52d9","survey_name":"\u57ce\u4e0b\u5830\u5824\u4ed6\u7802\u9632\u5830\u5824\u88dc\u5f37\u6539\u826f\u8a2d\u8a08\u696d\u52d9","client_name":"\u56fd\u571f\u4ea4\u901a\u7701\u8fd1\u757f\u5730\u65b9\u6574\u5099\u5c40\u3000\u516d\u7532\u7802\u9632\u4e8b\u52d9\u6240","boring_xml_url":68,"boring_view_url":1,"soilmap_view_url":null,"soiltest_xml_url":0,"soiltest_view_url":0},{"id":516604,"code":"B4KJ202201001-9140","latitude":"34.718402","longitude":"135.212054","source_code":"KK128652360400190006","project_name":"\u57ce\u4e0b\u5830\u5824\u4ed6\u7802\u9632\u5830\u5824\u88dc\u5f37\u6539\u826f\u8a2d\u8a08\u696d\u52d9","survey_name":"\u57ce\u4e0b\u5830\u5824\u4ed6\u7802\u9632\u5830\u5824\u88dc\u5f37\u6539\u826f\u8a2d\u8a08\u696d\u52d9","client_name":"\u56fd\u571f\u4ea4\u901a\u7701\u8fd1\u757f\u5730\u65b9\u6574\u5099\u5c40\u3000\u516d\u7532\u7802\u9632\u4e8b\u52d9\u6240","boring_xml_url":68,"boring_view_url":1,"soilmap_view_url":null,"soiltest_xml_url":0,"soiltest_view_url":0},{"id":516603,"code":"B4KJ202201001-9139","latitude":"34.718539","longitude":"135.212142","source_code":"KK128652360400190005","project_name":"\u57ce\u4e0b\u5830\u5824\u4ed6\u7802\u9632\u5830\u5824\u88dc\u5f37\u6539\u826f\u8a2d\u8a08\u696d\u52d9","survey_name":"\u57ce\u4e0b\u5830\u5824\u4ed6\u7802\u9632\u5830\u5824\u88dc\u5f37\u6539\u826f\u8a2d\u8a08\u696d\u52d9","client_name":"\u56fd\u571f\u4ea4\u901a\u7701\u8fd1\u757f\u5730\u65b9\u6574\u5099\u5c40\u3000\u516d\u7532\u7802\u9632\u4e8b\u52d9\u6240","boring_xml_url":68,"boring_view_url":1,"soilmap_view_url":null,"soiltest_xml_url":0,"soiltest_view_url":0},{"id":516602,"code":"B4KJ202201001-9138","latitude":"34.718556","longitude":"135.211793","source_code":"KK128652360400190004","project_name":"\u57ce\u4e0b\u5830\u5824\u4ed6\u7802\u9632\u5830\u5824\u88dc\u5f37\u6539\u826f\u8a2d\u8a08\u696d\u52d9","survey_name":"\u57ce\u4e0b\u5830\u5824\u4ed6\u7802\u9632\u5830\u5824\u88dc\u5f37\u6539\u826f\u8a2d\u8a08\u696d\u52d9","client_name":"\u56fd\u571f\u4ea4\u901a\u7701\u8fd1\u757f\u5730\u65b9\u6574\u5099\u5c40\u3000\u516d\u7532\u7802\u9632\u4e8b\u52d9\u6240","boring_xml_url":68,"boring_view_url":1,"soilmap_view_url":null,"soiltest_xml_url":0,"soiltest_view_url":0},{"id":516601,"code":"B4KJ202201001-9137","latitude":"34.718326","longitude":"135.211732","source_code":"KK128652360400190003","project_name":"\u57ce\u4e0b\u5830\u5824\u4ed6\u7802\u9632\u5830\u5824\u88dc\u5f37\u6539\u826f\u8a2d\u8a08\u696d\u52d9","survey_name":"\u57ce\u4e0b\u5830\u5824\u4ed6\u7802\u9632\u5830\u5824\u88dc\u5f37\u6539\u826f\u8a2d\u8a08\u696d\u52d9","client_name":"\u56fd\u571f\u4ea4\u901a\u7701\u8fd1\u757f\u5730\u65b9\u6574\u5099\u5c40\u3000\u516d\u7532\u7802\u9632\u4e8b\u52d9\u6240","boring_xml_url":68,"boring_view_url":1,"soilmap_view_url":null,"soiltest_xml_url":0,"soiltest_view_url":0},{"id":516600,"code":"B4KJ202201001-9136","latitude":"34.718491","longitude":"135.21187","source_code":"KK128652360400190002","project_name":"\u57ce\u4e0b\u5830\u5824\u4ed6\u7802\u9632\u5830\u5824\u88dc\u5f37\u6539\u826f\u8a2d\u8a08\u696d\u52d9","survey_name":"\u57ce\u4e0b\u5830\u5824\u4ed6\u7802\u9632\u5830\u5824\u88dc\u5f37\u6539\u826f\u8a2d\u8a08\u696d\u52d9","client_name":"\u56fd\u571f\u4ea4\u901a\u7701\u8fd1\u757f\u5730\u65b9\u6574\u5099\u5c40\u3000\u516d\u7532\u7802\u9632\u4e8b\u52d9\u6240","boring_xml_url":68,"boring_view_url":1,"soilmap_view_url":null,"soiltest_xml_url":0,"soiltest_view_url":0},{"id":516599,"code":"B4KJ202201001-9135","latitude":"34.718668","longitude":"135.21203","source_code":"KK128652360400190001","project_name":"\u57ce\u4e0b\u5830\u5824\u4ed6\u7802\u9632\u5830\u5824\u88dc\u5f37\u6539\u826f\u8a2d\u8a08\u696d\u52d9","survey_name":"\u57ce\u4e0b\u5830\u5824\u4ed6\u7802\u9632\u5830\u5824\u88dc\u5f37\u6539\u826f\u8a2d\u8a08\u696d\u52d9","client_name":"\u56fd\u571f\u4ea4\u901a\u7701\u8fd1\u757f\u5730\u65b9\u6574\u5099\u5c40\u3000\u516d\u7532\u7802\u9632\u4e8b\u52d9\u6240","boring_xml_url":68,"boring_view_url":1,"soilmap_view_url":null,"soiltest_xml_url":0,"soiltest_view_url":0},{"id":516598,"code":"B4KJ202201001-9134","latitude":"35.049243","longitude":"134.575894","source_code":"KK138651340400420016","project_name":"","survey_name":"\u52a0\u53e4\u5ddd\u30fb\u63d6\u4fdd\u5ddd\u5824\u9632\u5730\u8cea\u8abf\u67fb\u696d\u52d9","client_name":"\u56fd\u571f\u4ea4\u901a\u7701\u8fd1\u757f\u5730\u65b9\u6574\u5099\u5c40\u59eb\u8def\u6cb3\u5ddd\u56fd\u9053\u4e8b\u52d9\u6240","boring_xml_url":68,"boring_view_url":1,"soilmap_view_url":null,"soiltest_xml_url":0,"soiltest_view_url":0},{"id":516597,"code":"B4KJ202201001-9133","latitude":"35.049335","longitude":"134.575749","source_code":"KK138651340400420015","project_name":"","survey_name":"\u52a0\u53e4\u5ddd\u30fb\u63d6\u4fdd\u5ddd\u5824\u9632\u5730\u8cea\u8abf\u67fb\u696d\u52d9","client_name":"\u56fd\u571f\u4ea4\u901a\u7701\u8fd1\u757f\u5730\u65b9\u6574\u5099\u5c40\u59eb\u8def\u6cb3\u5ddd\u56fd\u9053\u4e8b\u52d9\u6240","boring_xml_url":68,"boring_view_url":1,"soilmap_view_url":null,"soiltest_xml_url":0,"soiltest_view_url":0},{"id":516596,"code":"B4KJ202201001-9132","latitude":"35.049405","longitude":"134.575679","source_code":"KK138651340400420014","project_name":"","survey_name":"\u52a0\u53e4\u5ddd\u30fb\u63d6\u4fdd\u5ddd\u5824\u9632\u5730\u8cea\u8abf\u67fb\u696d\u52d9","client_name":"\u56fd\u571f\u4ea4\u901a\u7701\u8fd1\u757f\u5730\u65b9\u6574\u5099\u5c40\u59eb\u8def\u6cb3\u5ddd\u56fd\u9053\u4e8b\u52d9\u6240","boring_xml_url":68,"boring_view_url":1,"soilmap_view_url":null,"soiltest_xml_url":0,"soiltest_view_url":0},{"id":516595,"code":"B4KJ202201001-9131","latitude":"35.03691","longitude":"134.555707","source_code":"KK138651340400420013","project_name":"","survey_name":"\u52a0\u53e4\u5ddd\u30fb\u63d6\u4fdd\u5ddd\u5824\u9632\u5730\u8cea\u8abf\u67fb\u696d\u52d9","client_name":"\u56fd\u571f\u4ea4\u901a\u7701\u8fd1\u757f\u5730\u65b9\u6574\u5099\u5c40\u59eb\u8def\u6cb3\u5ddd\u56fd\u9053\u4e8b\u52d9\u6240","boring_xml_url":68,"boring_view_url":1,"soilmap_view_url":null,"soiltest_xml_url":0,"soiltest_view_url":0},{"id":516594,"code":"B4KJ202201001-9130","latitude":"35.036756","longitude":"134.556079","source_code":"KK138651340400420012","project_name":"","survey_name":"\u52a0\u53e4\u5ddd\u30fb\u63d6\u4fdd\u5ddd\u5824\u9632\u5730\u8cea\u8abf\u67fb\u696d\u52d9","client_name":"\u56fd\u571f\u4ea4\u901a\u7701\u8fd1\u757f\u5730\u65b9\u6574\u5099\u5c40\u59eb\u8def\u6cb3\u5ddd\u56fd\u9053\u4e8b\u52d9\u6240","boring_xml_url":68,"boring_view_url":1,"soilmap_view_url":null,"soiltest_xml_url":0,"soiltest_view_url":0},{"id":516593,"code":"B4KJ202201001-9129","latitude":"35.024231","longitude":"134.555697","source_code":"KK138651340400420011","project_name":"","survey_name":"\u52a0\u53e4\u5ddd\u30fb\u63d6\u4fdd\u5ddd\u5824\u9632\u5730\u8cea\u8abf\u67fb\u696d\u52d9","client_name":"\u56fd\u571f\u4ea4\u901a\u7701\u8fd1\u757f\u5730\u65b9\u6574\u5099\u5c40\u59eb\u8def\u6cb3\u5ddd\u56fd\u9053\u4e8b\u52d9\u6240","boring_xml_url":68,"boring_view_url":1,"soilmap_view_url":null,"soiltest_xml_url":0,"soiltest_view_url":0},{"id":516592,"code":"B4KJ202201001-9128","latitude":"35.024255","longitude":"134.555836","source_code":"KK138651340400420010","project_name":"","survey_name":"\u52a0\u53e4\u5ddd\u30fb\u63d6\u4fdd\u5ddd\u5824\u9632\u5730\u8cea\u8abf\u67fb\u696d\u52d9","client_name":"\u56fd\u571f\u4ea4\u901a\u7701\u8fd1\u757f\u5730\u65b9\u6574\u5099\u5c40\u59eb\u8def\u6cb3\u5ddd\u56fd\u9053\u4e8b\u52d9\u6240","boring_xml_url":68,"boring_view_url":1,"soilmap_view_url":null,"soiltest_xml_url":0,"soiltest_view_url":0},{"id":516591,"code":"B4KJ202201001-9127","latitude":"34.997087","longitude":"134.554034","source_code":"KK138651340400420009","project_name":"","survey_name":"\u52a0\u53e4\u5ddd\u30fb\u63d6\u4fdd\u5ddd\u5824\u9632\u5730\u8cea\u8abf\u67fb\u696d\u52d9","client_name":"\u56fd\u571f\u4ea4\u901a\u7701\u8fd1\u757f\u5730\u65b9\u6574\u5099\u5c40\u59eb\u8def\u6cb3\u5ddd\u56fd\u9053\u4e8b\u52d9\u6240","boring_xml_url":68,"boring_view_url":1,"soilmap_view_url":null,"soiltest_xml_url":0,"soiltest_view_url":0},{"id":516590,"code":"B4KJ202201001-9126","latitude":"34.997095","longitude":"134.554203","source_code":"KK138651340400420008","project_name":"","survey_name":"\u52a0\u53e4\u5ddd\u30fb\u63d6\u4fdd\u5ddd\u5824\u9632\u5730\u8cea\u8abf\u67fb\u696d\u52d9","client_name":"\u56fd\u571f\u4ea4\u901a\u7701\u8fd1\u757f\u5730\u65b9\u6574\u5099\u5c40\u59eb\u8def\u6cb3\u5ddd\u56fd\u9053\u4e8b\u52d9\u6240","boring_xml_url":68,"boring_view_url":1,"soilmap_view_url":null,"soiltest_xml_url":0,"soiltest_view_url":0},{"id":516589,"code":"B4KJ202201001-9125","latitude":"34.997097","longitude":"134.554316","source_code":"KK138651340400420007","project_name":"","survey_name":"\u52a0\u53e4\u5ddd\u30fb\u63d6\u4fdd\u5ddd\u5824\u9632\u5730\u8cea\u8abf\u67fb\u696d\u52d9","client_name":"\u56fd\u571f\u4ea4\u901a\u7701\u8fd1\u757f\u5730\u65b9\u6574\u5099\u5c40\u59eb\u8def\u6cb3\u5ddd\u56fd\u9053\u4e8b\u52d9\u6240","boring_xml_url":68,"boring_view_url":1,"soilmap_view_url":null,"soiltest_xml_url":0,"soiltest_view_url":0}]}}