{"header":{"xyz":{"source":[],"mosaic":false},"page":964,"raw":{"soiltest_result":"0","bbox":"57.598333,109.544722,1.933333,163.806111","page":"964"},"conditions":{"soiltest_result":0,"north":57.598333,"west":109.544722,"south":1.933333,"east":163.806111},"success":true,"message":""},"data":{"meta":{"total":212844,"page":964,"pages":7095,"count":30},"values":[{"id":516498,"code":"B4KJ202201001-9034","latitude":"34.788087","longitude":"135.205854","source_code":"KK128652360400160002","project_name":"\u5999\u6cd5\u5bfa\u5ddd\u6d41\u57df\u4ed6\u7802\u9632\u5830\u5824\u8a2d\u8a08\u696d\u52d9","survey_name":"\u5999\u6cd5\u5bfa\u5ddd\u6d41\u57df\u4ed6\u7802\u9632\u5830\u5824\u8a2d\u8a08\u696d\u52d9","client_name":"\u56fd\u571f\u4ea4\u901a\u7701\u3000\u8fd1\u757f\u5730\u65b9\u6574\u5099\u5c40\u3000\u516d\u7532\u7802\u9632\u4e8b\u52d9\u6240","boring_xml_url":68,"boring_view_url":1,"soilmap_view_url":null,"soiltest_xml_url":0,"soiltest_view_url":0},{"id":516497,"code":"B4KJ202201001-9033","latitude":"34.788196","longitude":"135.205977","source_code":"KK128652360400160001","project_name":"\u5999\u6cd5\u5bfa\u5ddd\u6d41\u57df\u4ed6\u7802\u9632\u5830\u5824\u8a2d\u8a08\u696d\u52d9","survey_name":"\u5999\u6cd5\u5bfa\u5ddd\u6d41\u57df\u4ed6\u7802\u9632\u5830\u5824\u8a2d\u8a08\u696d\u52d9","client_name":"\u56fd\u571f\u4ea4\u901a\u7701\u3000\u8fd1\u757f\u5730\u65b9\u6574\u5099\u5c40\u3000\u516d\u7532\u7802\u9632\u4e8b\u52d9\u6240","boring_xml_url":68,"boring_view_url":1,"soilmap_view_url":null,"soiltest_xml_url":0,"soiltest_view_url":0},{"id":516496,"code":"B4KJ202201001-9032","latitude":"34.722989","longitude":"135.201306","source_code":"KK118652360400290014","project_name":"\u65b0\u751f\u7530\u5ddd\u6d41\u57df\u4ed6\u7802\u9632\u5830\u5824\u8a2d\u8a08\u696d\u52d9","survey_name":"\u65b0\u751f\u7530\u5ddd\u6d41\u57df\u4ed6\u7802\u9632\u5830\u5824\u8a2d\u8a08\u696d\u52d9","client_name":"\"\u56fd\u571f\u4ea4\u901a\u7701 \u8fd1\u757f\u5730\u65b9\u6574\u5099\u5c40 \u516d\u7532\u7802\u9632\u4e8b\u52d9\u6240\"","boring_xml_url":68,"boring_view_url":1,"soilmap_view_url":null,"soiltest_xml_url":0,"soiltest_view_url":0},{"id":516495,"code":"B4KJ202201001-9031","latitude":"34.722956","longitude":"135.201575","source_code":"KK118652360400290013","project_name":"\u65b0\u751f\u7530\u5ddd\u6d41\u57df\u4ed6\u7802\u9632\u5830\u5824\u8a2d\u8a08\u696d\u52d9","survey_name":"\u65b0\u751f\u7530\u5ddd\u6d41\u57df\u4ed6\u7802\u9632\u5830\u5824\u8a2d\u8a08\u696d\u52d9","client_name":"\"\u56fd\u571f\u4ea4\u901a\u7701 \u8fd1\u757f\u5730\u65b9\u6574\u5099\u5c40 \u516d\u7532\u7802\u9632\u4e8b\u52d9\u6240\"","boring_xml_url":68,"boring_view_url":1,"soilmap_view_url":null,"soiltest_xml_url":0,"soiltest_view_url":0},{"id":516494,"code":"B4KJ202201001-9030","latitude":"34.723111","longitude":"135.201436","source_code":"KK118652360400290012","project_name":"\u65b0\u751f\u7530\u5ddd\u6d41\u57df\u4ed6\u7802\u9632\u5830\u5824\u8a2d\u8a08\u696d\u52d9","survey_name":"\u65b0\u751f\u7530\u5ddd\u6d41\u57df\u4ed6\u7802\u9632\u5830\u5824\u8a2d\u8a08\u696d\u52d9","client_name":"\"\u56fd\u571f\u4ea4\u901a\u7701 \u8fd1\u757f\u5730\u65b9\u6574\u5099\u5c40 \u516d\u7532\u7802\u9632\u4e8b\u52d9\u6240\"","boring_xml_url":68,"boring_view_url":1,"soilmap_view_url":null,"soiltest_xml_url":0,"soiltest_view_url":0},{"id":516493,"code":"B4KJ202201001-9029","latitude":"34.722869","longitude":"135.201394","source_code":"KK118652360400290011","project_name":"\u65b0\u751f\u7530\u5ddd\u6d41\u57df\u4ed6\u7802\u9632\u5830\u5824\u8a2d\u8a08\u696d\u52d9","survey_name":"\u65b0\u751f\u7530\u5ddd\u6d41\u57df\u4ed6\u7802\u9632\u5830\u5824\u8a2d\u8a08\u696d\u52d9","client_name":"\"\u56fd\u571f\u4ea4\u901a\u7701 \u8fd1\u757f\u5730\u65b9\u6574\u5099\u5c40 \u516d\u7532\u7802\u9632\u4e8b\u52d9\u6240\"","boring_xml_url":68,"boring_view_url":1,"soilmap_view_url":null,"soiltest_xml_url":0,"soiltest_view_url":0},{"id":516492,"code":"B4KJ202201001-9028","latitude":"34.722972","longitude":"135.201444","source_code":"KK118652360400290010","project_name":"\u65b0\u751f\u7530\u5ddd\u6d41\u57df\u4ed6\u7802\u9632\u5830\u5824\u8a2d\u8a08\u696d\u52d9","survey_name":"\u65b0\u751f\u7530\u5ddd\u6d41\u57df\u4ed6\u7802\u9632\u5830\u5824\u8a2d\u8a08\u696d\u52d9","client_name":"\"\u56fd\u571f\u4ea4\u901a\u7701 \u8fd1\u757f\u5730\u65b9\u6574\u5099\u5c40 \u516d\u7532\u7802\u9632\u4e8b\u52d9\u6240\"","boring_xml_url":68,"boring_view_url":1,"soilmap_view_url":null,"soiltest_xml_url":0,"soiltest_view_url":0},{"id":516491,"code":"B4KJ202201001-9027","latitude":"34.711333","longitude":"135.195228","source_code":"KK118652360400290009","project_name":"\u65b0\u751f\u7530\u5ddd\u6d41\u57df\u4ed6\u7802\u9632\u5830\u5824\u8a2d\u8a08\u696d\u52d9","survey_name":"\u65b0\u751f\u7530\u5ddd\u6d41\u57df\u4ed6\u7802\u9632\u5830\u5824\u8a2d\u8a08\u696d\u52d9","client_name":"\"\u56fd\u571f\u4ea4\u901a\u7701 \u8fd1\u757f\u5730\u65b9\u6574\u5099\u5c40 \u516d\u7532\u7802\u9632\u4e8b\u52d9\u6240\"","boring_xml_url":68,"boring_view_url":1,"soilmap_view_url":null,"soiltest_xml_url":0,"soiltest_view_url":0},{"id":516490,"code":"B4KJ202201001-9026","latitude":"34.711233","longitude":"135.194925","source_code":"KK118652360400290008","project_name":"\u65b0\u751f\u7530\u5ddd\u6d41\u57df\u4ed6\u7802\u9632\u5830\u5824\u8a2d\u8a08\u696d\u52d9","survey_name":"\u65b0\u751f\u7530\u5ddd\u6d41\u57df\u4ed6\u7802\u9632\u5830\u5824\u8a2d\u8a08\u696d\u52d9","client_name":"\"\u56fd\u571f\u4ea4\u901a\u7701 \u8fd1\u757f\u5730\u65b9\u6574\u5099\u5c40 \u516d\u7532\u7802\u9632\u4e8b\u52d9\u6240\"","boring_xml_url":68,"boring_view_url":1,"soilmap_view_url":null,"soiltest_xml_url":0,"soiltest_view_url":0},{"id":516489,"code":"B4KJ202201001-9025","latitude":"34.711283","longitude":"135.195075","source_code":"KK118652360400290007","project_name":"\u65b0\u751f\u7530\u5ddd\u6d41\u57df\u4ed6\u7802\u9632\u5830\u5824\u8a2d\u8a08\u696d\u52d9","survey_name":"\u65b0\u751f\u7530\u5ddd\u6d41\u57df\u4ed6\u7802\u9632\u5830\u5824\u8a2d\u8a08\u696d\u52d9","client_name":"\"\u56fd\u571f\u4ea4\u901a\u7701 \u8fd1\u757f\u5730\u65b9\u6574\u5099\u5c40 \u516d\u7532\u7802\u9632\u4e8b\u52d9\u6240\"","boring_xml_url":68,"boring_view_url":1,"soilmap_view_url":null,"soiltest_xml_url":0,"soiltest_view_url":0},{"id":516488,"code":"B4KJ202201001-9024","latitude":"34.711003","longitude":"135.195317","source_code":"KK118652360400290006","project_name":"\u65b0\u751f\u7530\u5ddd\u6d41\u57df\u4ed6\u7802\u9632\u5830\u5824\u8a2d\u8a08\u696d\u52d9","survey_name":"\u65b0\u751f\u7530\u5ddd\u6d41\u57df\u4ed6\u7802\u9632\u5830\u5824\u8a2d\u8a08\u696d\u52d9","client_name":"\"\u56fd\u571f\u4ea4\u901a\u7701 \u8fd1\u757f\u5730\u65b9\u6574\u5099\u5c40 \u516d\u7532\u7802\u9632\u4e8b\u52d9\u6240\"","boring_xml_url":68,"boring_view_url":1,"soilmap_view_url":null,"soiltest_xml_url":0,"soiltest_view_url":0},{"id":516487,"code":"B4KJ202201001-9023","latitude":"34.710944","longitude":"135.195122","source_code":"KK118652360400290005","project_name":"\u65b0\u751f\u7530\u5ddd\u6d41\u57df\u4ed6\u7802\u9632\u5830\u5824\u8a2d\u8a08\u696d\u52d9","survey_name":"\u65b0\u751f\u7530\u5ddd\u6d41\u57df\u4ed6\u7802\u9632\u5830\u5824\u8a2d\u8a08\u696d\u52d9","client_name":"\"\u56fd\u571f\u4ea4\u901a\u7701 \u8fd1\u757f\u5730\u65b9\u6574\u5099\u5c40 \u516d\u7532\u7802\u9632\u4e8b\u52d9\u6240\"","boring_xml_url":68,"boring_view_url":1,"soilmap_view_url":null,"soiltest_xml_url":0,"soiltest_view_url":0},{"id":516486,"code":"B4KJ202201001-9022","latitude":"34.710978","longitude":"135.195222","source_code":"KK118652360400290004","project_name":"\u65b0\u751f\u7530\u5ddd\u6d41\u57df\u4ed6\u7802\u9632\u5830\u5824\u8a2d\u8a08\u696d\u52d9","survey_name":"\u65b0\u751f\u7530\u5ddd\u6d41\u57df\u4ed6\u7802\u9632\u5830\u5824\u8a2d\u8a08\u696d\u52d9","client_name":"\"\u56fd\u571f\u4ea4\u901a\u7701 \u8fd1\u757f\u5730\u65b9\u6574\u5099\u5c40 \u516d\u7532\u7802\u9632\u4e8b\u52d9\u6240\"","boring_xml_url":68,"boring_view_url":1,"soilmap_view_url":null,"soiltest_xml_url":0,"soiltest_view_url":0},{"id":516485,"code":"B4KJ202201001-9021","latitude":"34.711167","longitude":"135.195308","source_code":"KK118652360400290003","project_name":"\u65b0\u751f\u7530\u5ddd\u6d41\u57df\u4ed6\u7802\u9632\u5830\u5824\u8a2d\u8a08\u696d\u52d9","survey_name":"\u65b0\u751f\u7530\u5ddd\u6d41\u57df\u4ed6\u7802\u9632\u5830\u5824\u8a2d\u8a08\u696d\u52d9","client_name":"\"\u56fd\u571f\u4ea4\u901a\u7701 \u8fd1\u757f\u5730\u65b9\u6574\u5099\u5c40 \u516d\u7532\u7802\u9632\u4e8b\u52d9\u6240\"","boring_xml_url":68,"boring_view_url":1,"soilmap_view_url":null,"soiltest_xml_url":0,"soiltest_view_url":0},{"id":516484,"code":"B4KJ202201001-9020","latitude":"34.711067","longitude":"135.195006","source_code":"KK118652360400290002","project_name":"\u65b0\u751f\u7530\u5ddd\u6d41\u57df\u4ed6\u7802\u9632\u5830\u5824\u8a2d\u8a08\u696d\u52d9","survey_name":"\u65b0\u751f\u7530\u5ddd\u6d41\u57df\u4ed6\u7802\u9632\u5830\u5824\u8a2d\u8a08\u696d\u52d9","client_name":"\"\u56fd\u571f\u4ea4\u901a\u7701 \u8fd1\u757f\u5730\u65b9\u6574\u5099\u5c40 \u516d\u7532\u7802\u9632\u4e8b\u52d9\u6240\"","boring_xml_url":68,"boring_view_url":1,"soilmap_view_url":null,"soiltest_xml_url":0,"soiltest_view_url":0},{"id":516483,"code":"B4KJ202201001-9019","latitude":"34.711117","longitude":"135.195156","source_code":"KK118652360400290001","project_name":"\u65b0\u751f\u7530\u5ddd\u6d41\u57df\u4ed6\u7802\u9632\u5830\u5824\u8a2d\u8a08\u696d\u52d9","survey_name":"\u65b0\u751f\u7530\u5ddd\u6d41\u57df\u4ed6\u7802\u9632\u5830\u5824\u8a2d\u8a08\u696d\u52d9","client_name":"\"\u56fd\u571f\u4ea4\u901a\u7701 \u8fd1\u757f\u5730\u65b9\u6574\u5099\u5c40 \u516d\u7532\u7802\u9632\u4e8b\u52d9\u6240\"","boring_xml_url":68,"boring_view_url":1,"soilmap_view_url":null,"soiltest_xml_url":0,"soiltest_view_url":0},{"id":516482,"code":"B4KJ202201001-9018","latitude":"34.800089","longitude":"134.747778","source_code":"KK128651620400070003","project_name":"","survey_name":"\u56fd\u905329\u53f7\u4ed6\u9053\u8def\u9632\u707d\u5bfe\u7b56\u8a2d\u8a08\u696d\u52d9","client_name":"\u56fd\u571f\u4ea4\u901a\u7701\u8fd1\u757f\u5730\u65b9\u6574\u5099\u5c40\u59eb\u8def\u6cb3\u5ddd\u56fd\u9053\u4e8b\u52d9\u6240","boring_xml_url":68,"boring_view_url":1,"soilmap_view_url":null,"soiltest_xml_url":0,"soiltest_view_url":0},{"id":516481,"code":"B4KJ202201001-9017","latitude":"34.800447","longitude":"134.747808","source_code":"KK128651620400070002","project_name":"","survey_name":"\u56fd\u905329\u53f7\u4ed6\u9053\u8def\u9632\u707d\u5bfe\u7b56\u8a2d\u8a08\u696d\u52d9","client_name":"\u56fd\u571f\u4ea4\u901a\u7701\u8fd1\u757f\u5730\u65b9\u6574\u5099\u5c40\u59eb\u8def\u6cb3\u5ddd\u56fd\u9053\u4e8b\u52d9\u6240","boring_xml_url":68,"boring_view_url":1,"soilmap_view_url":null,"soiltest_xml_url":0,"soiltest_view_url":0},{"id":516480,"code":"B4KJ202201001-9016","latitude":"34.800478","longitude":"134.748367","source_code":"KK128651620400070001","project_name":"","survey_name":"\u56fd\u905329\u53f7\u4ed6\u9053\u8def\u9632\u707d\u5bfe\u7b56\u8a2d\u8a08\u696d\u52d9","client_name":"\u56fd\u571f\u4ea4\u901a\u7701\u8fd1\u757f\u5730\u65b9\u6574\u5099\u5c40\u59eb\u8def\u6cb3\u5ddd\u56fd\u9053\u4e8b\u52d9\u6240","boring_xml_url":68,"boring_view_url":1,"soilmap_view_url":null,"soiltest_xml_url":0,"soiltest_view_url":0},{"id":516479,"code":"B4KJ202201001-9015","latitude":"34.830722","longitude":"134.54825","source_code":"KK128651620400050010","project_name":"\u56fd\u90532\u53f7\u9580\u524d\u5730\u533a\u5730\u8cea\u8abf\u67fb\u696d\u52d9","survey_name":"\u56fd\u90532\u53f7\u9580\u524d\u5730\u533a\u5730\u8cea\u8abf\u67fb\u696d\u52d9","client_name":"\"\u56fd\u571f\u4ea4\u901a\u7701\u8fd1\u757f\u5730\u65b9\u6574\u5099\u5c40 \u59eb\u8def\u6cb3\u5ddd\u56fd\u9053\u4e8b\u52d9\u6240\"","boring_xml_url":68,"boring_view_url":1,"soilmap_view_url":null,"soiltest_xml_url":0,"soiltest_view_url":0},{"id":516478,"code":"B4KJ202201001-9014","latitude":"34.830778","longitude":"134.548361","source_code":"KK128651620400050009","project_name":"\u56fd\u90532\u53f7\u9580\u524d\u5730\u533a\u5730\u8cea\u8abf\u67fb\u696d\u52d9","survey_name":"\u56fd\u90532\u53f7\u9580\u524d\u5730\u533a\u5730\u8cea\u8abf\u67fb\u696d\u52d9","client_name":"\"\u56fd\u571f\u4ea4\u901a\u7701\u8fd1\u757f\u5730\u65b9\u6574\u5099\u5c40 \u59eb\u8def\u6cb3\u5ddd\u56fd\u9053\u4e8b\u52d9\u6240\"","boring_xml_url":68,"boring_view_url":1,"soilmap_view_url":null,"soiltest_xml_url":0,"soiltest_view_url":0},{"id":516477,"code":"B4KJ202201001-9013","latitude":"34.830833","longitude":"134.5485","source_code":"KK128651620400050008","project_name":"\u56fd\u90532\u53f7\u9580\u524d\u5730\u533a\u5730\u8cea\u8abf\u67fb\u696d\u52d9","survey_name":"\u56fd\u90532\u53f7\u9580\u524d\u5730\u533a\u5730\u8cea\u8abf\u67fb\u696d\u52d9","client_name":"\"\u56fd\u571f\u4ea4\u901a\u7701\u8fd1\u757f\u5730\u65b9\u6574\u5099\u5c40 \u59eb\u8def\u6cb3\u5ddd\u56fd\u9053\u4e8b\u52d9\u6240\"","boring_xml_url":68,"boring_view_url":1,"soilmap_view_url":null,"soiltest_xml_url":0,"soiltest_view_url":0},{"id":516476,"code":"B4KJ202201001-9012","latitude":"34.830889","longitude":"134.548722","source_code":"KK128651620400050007","project_name":"\u56fd\u90532\u53f7\u9580\u524d\u5730\u533a\u5730\u8cea\u8abf\u67fb\u696d\u52d9","survey_name":"\u56fd\u90532\u53f7\u9580\u524d\u5730\u533a\u5730\u8cea\u8abf\u67fb\u696d\u52d9","client_name":"\"\u56fd\u571f\u4ea4\u901a\u7701\u8fd1\u757f\u5730\u65b9\u6574\u5099\u5c40 \u59eb\u8def\u6cb3\u5ddd\u56fd\u9053\u4e8b\u52d9\u6240\"","boring_xml_url":68,"boring_view_url":1,"soilmap_view_url":null,"soiltest_xml_url":0,"soiltest_view_url":0},{"id":516475,"code":"B4KJ202201001-9011","latitude":"34.831083","longitude":"134.549194","source_code":"KK128651620400050006","project_name":"\u56fd\u90532\u53f7\u9580\u524d\u5730\u533a\u5730\u8cea\u8abf\u67fb\u696d\u52d9","survey_name":"\u56fd\u90532\u53f7\u9580\u524d\u5730\u533a\u5730\u8cea\u8abf\u67fb\u696d\u52d9","client_name":"\"\u56fd\u571f\u4ea4\u901a\u7701\u8fd1\u757f\u5730\u65b9\u6574\u5099\u5c40 \u59eb\u8def\u6cb3\u5ddd\u56fd\u9053\u4e8b\u52d9\u6240\"","boring_xml_url":68,"boring_view_url":1,"soilmap_view_url":null,"soiltest_xml_url":0,"soiltest_view_url":0},{"id":516474,"code":"B4KJ202201001-9010","latitude":"34.831278","longitude":"134.549639","source_code":"KK128651620400050005","project_name":"\u56fd\u90532\u53f7\u9580\u524d\u5730\u533a\u5730\u8cea\u8abf\u67fb\u696d\u52d9","survey_name":"\u56fd\u90532\u53f7\u9580\u524d\u5730\u533a\u5730\u8cea\u8abf\u67fb\u696d\u52d9","client_name":"\"\u56fd\u571f\u4ea4\u901a\u7701\u8fd1\u757f\u5730\u65b9\u6574\u5099\u5c40 \u59eb\u8def\u6cb3\u5ddd\u56fd\u9053\u4e8b\u52d9\u6240\"","boring_xml_url":68,"boring_view_url":1,"soilmap_view_url":null,"soiltest_xml_url":0,"soiltest_view_url":0},{"id":516473,"code":"B4KJ202201001-9009","latitude":"34.831444","longitude":"134.549972","source_code":"KK128651620400050004","project_name":"\u56fd\u90532\u53f7\u9580\u524d\u5730\u533a\u5730\u8cea\u8abf\u67fb\u696d\u52d9","survey_name":"\u56fd\u90532\u53f7\u9580\u524d\u5730\u533a\u5730\u8cea\u8abf\u67fb\u696d\u52d9","client_name":"\"\u56fd\u571f\u4ea4\u901a\u7701\u8fd1\u757f\u5730\u65b9\u6574\u5099\u5c40 \u59eb\u8def\u6cb3\u5ddd\u56fd\u9053\u4e8b\u52d9\u6240\"","boring_xml_url":68,"boring_view_url":1,"soilmap_view_url":null,"soiltest_xml_url":0,"soiltest_view_url":0},{"id":516472,"code":"B4KJ202201001-9008","latitude":"34.831583","longitude":"134.550333","source_code":"KK128651620400050003","project_name":"\u56fd\u90532\u53f7\u9580\u524d\u5730\u533a\u5730\u8cea\u8abf\u67fb\u696d\u52d9","survey_name":"\u56fd\u90532\u53f7\u9580\u524d\u5730\u533a\u5730\u8cea\u8abf\u67fb\u696d\u52d9","client_name":"\"\u56fd\u571f\u4ea4\u901a\u7701\u8fd1\u757f\u5730\u65b9\u6574\u5099\u5c40 \u59eb\u8def\u6cb3\u5ddd\u56fd\u9053\u4e8b\u52d9\u6240\"","boring_xml_url":68,"boring_view_url":1,"soilmap_view_url":null,"soiltest_xml_url":0,"soiltest_view_url":0},{"id":516471,"code":"B4KJ202201001-9007","latitude":"34.831667","longitude":"134.550583","source_code":"KK128651620400050002","project_name":"\u56fd\u90532\u53f7\u9580\u524d\u5730\u533a\u5730\u8cea\u8abf\u67fb\u696d\u52d9","survey_name":"\u56fd\u90532\u53f7\u9580\u524d\u5730\u533a\u5730\u8cea\u8abf\u67fb\u696d\u52d9","client_name":"\"\u56fd\u571f\u4ea4\u901a\u7701\u8fd1\u757f\u5730\u65b9\u6574\u5099\u5c40 \u59eb\u8def\u6cb3\u5ddd\u56fd\u9053\u4e8b\u52d9\u6240\"","boring_xml_url":68,"boring_view_url":1,"soilmap_view_url":null,"soiltest_xml_url":0,"soiltest_view_url":0},{"id":516470,"code":"B4KJ202201001-9006","latitude":"34.831778","longitude":"134.550806","source_code":"KK128651620400050001","project_name":"\u56fd\u90532\u53f7\u9580\u524d\u5730\u533a\u5730\u8cea\u8abf\u67fb\u696d\u52d9","survey_name":"\u56fd\u90532\u53f7\u9580\u524d\u5730\u533a\u5730\u8cea\u8abf\u67fb\u696d\u52d9","client_name":"\"\u56fd\u571f\u4ea4\u901a\u7701\u8fd1\u757f\u5730\u65b9\u6574\u5099\u5c40 \u59eb\u8def\u6cb3\u5ddd\u56fd\u9053\u4e8b\u52d9\u6240\"","boring_xml_url":68,"boring_view_url":1,"soilmap_view_url":null,"soiltest_xml_url":0,"soiltest_view_url":0},{"id":516469,"code":"B4KJ202201001-9005","latitude":"35.317583","longitude":"134.889806","source_code":"KK118650600400150001","project_name":"\u56fd\u90539\u53f7\u77e2\u540d\u702c\u5730\u533a\u8a73\u7d30\u8a2d\u8a08\u4ed6\u696d\u52d9","survey_name":"\u56fd\u90539\u53f7\u77e2\u540d\u702c\u5730\u533a\u8a73\u7d30\u8a2d\u8a08\u4ed6\u696d\u52d9","client_name":"\u56fd\u571f\u4ea4\u901a\u7701\u3000\u8fd1\u757f\u5730\u65b9\u6574\u5099\u5c40\u3000\u8c4a\u5ca1\u6cb3\u5ddd\u56fd\u9053\u4e8b\u52d9\u6240","boring_xml_url":68,"boring_view_url":1,"soilmap_view_url":null,"soiltest_xml_url":0,"soiltest_view_url":0}]}}