{"header":{"xyz":{"source":[],"mosaic":false},"page":969,"raw":{"soiltest_result":"0","bbox":"57.598333,109.544722,1.933333,163.806111","page":"969"},"conditions":{"soiltest_result":0,"north":57.598333,"west":109.544722,"south":1.933333,"east":163.806111},"success":true,"message":""},"data":{"meta":{"total":212844,"page":969,"pages":7095,"count":30},"values":[{"id":516348,"code":"B4KJ202201001-8884","latitude":"34.465","longitude":"135.756944","source_code":"KK0686612000400070033","project_name":"","survey_name":"\u5927\u548c\u5fa1\u6240\u9053\u8def\u89b3\u97f3\u5bfa\u5730\u533a\u571f\u8cea\u8abf\u67fb\u696d\u52d9","client_name":"\u56fd\u571f\u4ea4\u901a\u7701\u3000\u8fd1\u757f\u5730\u65b9\u6574\u5099\u5c40\u3000\u5948\u826f\u56fd\u9053\u5de5\u4e8b\u4e8b\u52d9\u6240","boring_xml_url":70,"boring_view_url":1,"soilmap_view_url":null,"soiltest_xml_url":0,"soiltest_view_url":0},{"id":516347,"code":"B4KJ202201001-8883","latitude":"34.465556","longitude":"135.7575","source_code":"KK0686612000400070032","project_name":"","survey_name":"\u5927\u548c\u5fa1\u6240\u9053\u8def\u89b3\u97f3\u5bfa\u5730\u533a\u571f\u8cea\u8abf\u67fb\u696d\u52d9","client_name":"\u56fd\u571f\u4ea4\u901a\u7701\u3000\u8fd1\u757f\u5730\u65b9\u6574\u5099\u5c40\u3000\u5948\u826f\u56fd\u9053\u5de5\u4e8b\u4e8b\u52d9\u6240","boring_xml_url":70,"boring_view_url":1,"soilmap_view_url":null,"soiltest_xml_url":0,"soiltest_view_url":0},{"id":516346,"code":"B4KJ202201001-8882","latitude":"34.465833","longitude":"135.757778","source_code":"KK0686612000400070031","project_name":"","survey_name":"\u5927\u548c\u5fa1\u6240\u9053\u8def\u89b3\u97f3\u5bfa\u5730\u533a\u571f\u8cea\u8abf\u67fb\u696d\u52d9","client_name":"\u56fd\u571f\u4ea4\u901a\u7701\u3000\u8fd1\u757f\u5730\u65b9\u6574\u5099\u5c40\u3000\u5948\u826f\u56fd\u9053\u5de5\u4e8b\u4e8b\u52d9\u6240","boring_xml_url":70,"boring_view_url":1,"soilmap_view_url":null,"soiltest_xml_url":0,"soiltest_view_url":0},{"id":516345,"code":"B4KJ202201001-8881","latitude":"34.466389","longitude":"135.758333","source_code":"KK0686612000400070030","project_name":"","survey_name":"\u5927\u548c\u5fa1\u6240\u9053\u8def\u89b3\u97f3\u5bfa\u5730\u533a\u571f\u8cea\u8abf\u67fb\u696d\u52d9","client_name":"\u56fd\u571f\u4ea4\u901a\u7701\u3000\u8fd1\u757f\u5730\u65b9\u6574\u5099\u5c40\u3000\u5948\u826f\u56fd\u9053\u5de5\u4e8b\u4e8b\u52d9\u6240","boring_xml_url":70,"boring_view_url":1,"soilmap_view_url":null,"soiltest_xml_url":0,"soiltest_view_url":0},{"id":516344,"code":"B4KJ202201001-8880","latitude":"34.466667","longitude":"135.758889","source_code":"KK0686612000400070029","project_name":"","survey_name":"\u5927\u548c\u5fa1\u6240\u9053\u8def\u89b3\u97f3\u5bfa\u5730\u533a\u571f\u8cea\u8abf\u67fb\u696d\u52d9","client_name":"\u56fd\u571f\u4ea4\u901a\u7701\u3000\u8fd1\u757f\u5730\u65b9\u6574\u5099\u5c40\u3000\u5948\u826f\u56fd\u9053\u5de5\u4e8b\u4e8b\u52d9\u6240","boring_xml_url":70,"boring_view_url":1,"soilmap_view_url":null,"soiltest_xml_url":0,"soiltest_view_url":0},{"id":516343,"code":"B4KJ202201001-8879","latitude":"34.466944","longitude":"135.759167","source_code":"KK0686612000400070028","project_name":"","survey_name":"\u5927\u548c\u5fa1\u6240\u9053\u8def\u89b3\u97f3\u5bfa\u5730\u533a\u571f\u8cea\u8abf\u67fb\u696d\u52d9","client_name":"\u56fd\u571f\u4ea4\u901a\u7701\u3000\u8fd1\u757f\u5730\u65b9\u6574\u5099\u5c40\u3000\u5948\u826f\u56fd\u9053\u5de5\u4e8b\u4e8b\u52d9\u6240","boring_xml_url":70,"boring_view_url":1,"soilmap_view_url":null,"soiltest_xml_url":0,"soiltest_view_url":0},{"id":516342,"code":"B4KJ202201001-8878","latitude":"34.4675","longitude":"135.759722","source_code":"KK0686612000400070027","project_name":"","survey_name":"\u5927\u548c\u5fa1\u6240\u9053\u8def\u89b3\u97f3\u5bfa\u5730\u533a\u571f\u8cea\u8abf\u67fb\u696d\u52d9","client_name":"\u56fd\u571f\u4ea4\u901a\u7701\u3000\u8fd1\u757f\u5730\u65b9\u6574\u5099\u5c40\u3000\u5948\u826f\u56fd\u9053\u5de5\u4e8b\u4e8b\u52d9\u6240","boring_xml_url":70,"boring_view_url":1,"soilmap_view_url":null,"soiltest_xml_url":0,"soiltest_view_url":0},{"id":516341,"code":"B4KJ202201001-8877","latitude":"34.468056","longitude":"135.760556","source_code":"KK0686612000400070026","project_name":"","survey_name":"\u5927\u548c\u5fa1\u6240\u9053\u8def\u89b3\u97f3\u5bfa\u5730\u533a\u571f\u8cea\u8abf\u67fb\u696d\u52d9","client_name":"\u56fd\u571f\u4ea4\u901a\u7701\u3000\u8fd1\u757f\u5730\u65b9\u6574\u5099\u5c40\u3000\u5948\u826f\u56fd\u9053\u5de5\u4e8b\u4e8b\u52d9\u6240","boring_xml_url":70,"boring_view_url":1,"soilmap_view_url":null,"soiltest_xml_url":0,"soiltest_view_url":0},{"id":516340,"code":"B4KJ202201001-8876","latitude":"34.468333","longitude":"135.760833","source_code":"KK0686612000400070025","project_name":"","survey_name":"\u5927\u548c\u5fa1\u6240\u9053\u8def\u89b3\u97f3\u5bfa\u5730\u533a\u571f\u8cea\u8abf\u67fb\u696d\u52d9","client_name":"\u56fd\u571f\u4ea4\u901a\u7701\u3000\u8fd1\u757f\u5730\u65b9\u6574\u5099\u5c40\u3000\u5948\u826f\u56fd\u9053\u5de5\u4e8b\u4e8b\u52d9\u6240","boring_xml_url":70,"boring_view_url":1,"soilmap_view_url":null,"soiltest_xml_url":0,"soiltest_view_url":0},{"id":516339,"code":"B4KJ202201001-8875","latitude":"34.469167","longitude":"135.761667","source_code":"KK0686612000400070024","project_name":"","survey_name":"\u5927\u548c\u5fa1\u6240\u9053\u8def\u89b3\u97f3\u5bfa\u5730\u533a\u571f\u8cea\u8abf\u67fb\u696d\u52d9","client_name":"\u56fd\u571f\u4ea4\u901a\u7701\u3000\u8fd1\u757f\u5730\u65b9\u6574\u5099\u5c40\u3000\u5948\u826f\u56fd\u9053\u5de5\u4e8b\u4e8b\u52d9\u6240","boring_xml_url":70,"boring_view_url":1,"soilmap_view_url":null,"soiltest_xml_url":0,"soiltest_view_url":0},{"id":516338,"code":"B4KJ202201001-8874","latitude":"34.47","longitude":"135.762778","source_code":"KK0686612000400070023","project_name":"","survey_name":"\u5927\u548c\u5fa1\u6240\u9053\u8def\u89b3\u97f3\u5bfa\u5730\u533a\u571f\u8cea\u8abf\u67fb\u696d\u52d9","client_name":"\u56fd\u571f\u4ea4\u901a\u7701\u3000\u8fd1\u757f\u5730\u65b9\u6574\u5099\u5c40\u3000\u5948\u826f\u56fd\u9053\u5de5\u4e8b\u4e8b\u52d9\u6240","boring_xml_url":70,"boring_view_url":1,"soilmap_view_url":null,"soiltest_xml_url":0,"soiltest_view_url":0},{"id":516337,"code":"B4KJ202201001-8873","latitude":"34.470556","longitude":"135.763333","source_code":"KK0686612000400070022","project_name":"","survey_name":"\u5927\u548c\u5fa1\u6240\u9053\u8def\u89b3\u97f3\u5bfa\u5730\u533a\u571f\u8cea\u8abf\u67fb\u696d\u52d9","client_name":"\u56fd\u571f\u4ea4\u901a\u7701\u3000\u8fd1\u757f\u5730\u65b9\u6574\u5099\u5c40\u3000\u5948\u826f\u56fd\u9053\u5de5\u4e8b\u4e8b\u52d9\u6240","boring_xml_url":70,"boring_view_url":1,"soilmap_view_url":null,"soiltest_xml_url":0,"soiltest_view_url":0},{"id":516336,"code":"B4KJ202201001-8872","latitude":"34.471111","longitude":"135.764167","source_code":"KK0686612000400070021","project_name":"","survey_name":"\u5927\u548c\u5fa1\u6240\u9053\u8def\u89b3\u97f3\u5bfa\u5730\u533a\u571f\u8cea\u8abf\u67fb\u696d\u52d9","client_name":"\u56fd\u571f\u4ea4\u901a\u7701\u3000\u8fd1\u757f\u5730\u65b9\u6574\u5099\u5c40\u3000\u5948\u826f\u56fd\u9053\u5de5\u4e8b\u4e8b\u52d9\u6240","boring_xml_url":70,"boring_view_url":1,"soilmap_view_url":null,"soiltest_xml_url":0,"soiltest_view_url":0},{"id":516335,"code":"B4KJ202201001-8871","latitude":"34.471389","longitude":"135.764444","source_code":"KK0686612000400070020","project_name":"","survey_name":"\u5927\u548c\u5fa1\u6240\u9053\u8def\u89b3\u97f3\u5bfa\u5730\u533a\u571f\u8cea\u8abf\u67fb\u696d\u52d9","client_name":"\u56fd\u571f\u4ea4\u901a\u7701\u3000\u8fd1\u757f\u5730\u65b9\u6574\u5099\u5c40\u3000\u5948\u826f\u56fd\u9053\u5de5\u4e8b\u4e8b\u52d9\u6240","boring_xml_url":70,"boring_view_url":1,"soilmap_view_url":null,"soiltest_xml_url":0,"soiltest_view_url":0},{"id":516334,"code":"B4KJ202201001-8870","latitude":"34.471944","longitude":"135.765","source_code":"KK0686612000400070019","project_name":"","survey_name":"\u5927\u548c\u5fa1\u6240\u9053\u8def\u89b3\u97f3\u5bfa\u5730\u533a\u571f\u8cea\u8abf\u67fb\u696d\u52d9","client_name":"\u56fd\u571f\u4ea4\u901a\u7701\u3000\u8fd1\u757f\u5730\u65b9\u6574\u5099\u5c40\u3000\u5948\u826f\u56fd\u9053\u5de5\u4e8b\u4e8b\u52d9\u6240","boring_xml_url":70,"boring_view_url":1,"soilmap_view_url":null,"soiltest_xml_url":0,"soiltest_view_url":0},{"id":516333,"code":"B4KJ202201001-8869","latitude":"34.472778","longitude":"135.765278","source_code":"KK0686612000400070018","project_name":"","survey_name":"\u5927\u548c\u5fa1\u6240\u9053\u8def\u89b3\u97f3\u5bfa\u5730\u533a\u571f\u8cea\u8abf\u67fb\u696d\u52d9","client_name":"\u56fd\u571f\u4ea4\u901a\u7701\u3000\u8fd1\u757f\u5730\u65b9\u6574\u5099\u5c40\u3000\u5948\u826f\u56fd\u9053\u5de5\u4e8b\u4e8b\u52d9\u6240","boring_xml_url":70,"boring_view_url":1,"soilmap_view_url":null,"soiltest_xml_url":0,"soiltest_view_url":0},{"id":516332,"code":"B4KJ202201001-8868","latitude":"34.473611","longitude":"135.765833","source_code":"KK0686612000400070017","project_name":"","survey_name":"\u5927\u548c\u5fa1\u6240\u9053\u8def\u89b3\u97f3\u5bfa\u5730\u533a\u571f\u8cea\u8abf\u67fb\u696d\u52d9","client_name":"\u56fd\u571f\u4ea4\u901a\u7701\u3000\u8fd1\u757f\u5730\u65b9\u6574\u5099\u5c40\u3000\u5948\u826f\u56fd\u9053\u5de5\u4e8b\u4e8b\u52d9\u6240","boring_xml_url":70,"boring_view_url":1,"soilmap_view_url":null,"soiltest_xml_url":0,"soiltest_view_url":0},{"id":516331,"code":"B4KJ202201001-8867","latitude":"34.474444","longitude":"135.765833","source_code":"KK0686612000400070016","project_name":"","survey_name":"\u5927\u548c\u5fa1\u6240\u9053\u8def\u89b3\u97f3\u5bfa\u5730\u533a\u571f\u8cea\u8abf\u67fb\u696d\u52d9","client_name":"\u56fd\u571f\u4ea4\u901a\u7701\u3000\u8fd1\u757f\u5730\u65b9\u6574\u5099\u5c40\u3000\u5948\u826f\u56fd\u9053\u5de5\u4e8b\u4e8b\u52d9\u6240","boring_xml_url":70,"boring_view_url":1,"soilmap_view_url":null,"soiltest_xml_url":0,"soiltest_view_url":0},{"id":516330,"code":"B4KJ202201001-8866","latitude":"34.475278","longitude":"135.766111","source_code":"KK0686612000400070015","project_name":"","survey_name":"\u5927\u548c\u5fa1\u6240\u9053\u8def\u89b3\u97f3\u5bfa\u5730\u533a\u571f\u8cea\u8abf\u67fb\u696d\u52d9","client_name":"\u56fd\u571f\u4ea4\u901a\u7701\u3000\u8fd1\u757f\u5730\u65b9\u6574\u5099\u5c40\u3000\u5948\u826f\u56fd\u9053\u5de5\u4e8b\u4e8b\u52d9\u6240","boring_xml_url":70,"boring_view_url":1,"soilmap_view_url":null,"soiltest_xml_url":0,"soiltest_view_url":0},{"id":516329,"code":"B4KJ202201001-8865","latitude":"34.476111","longitude":"135.766111","source_code":"KK0686612000400070014","project_name":"","survey_name":"\u5927\u548c\u5fa1\u6240\u9053\u8def\u89b3\u97f3\u5bfa\u5730\u533a\u571f\u8cea\u8abf\u67fb\u696d\u52d9","client_name":"\u56fd\u571f\u4ea4\u901a\u7701\u3000\u8fd1\u757f\u5730\u65b9\u6574\u5099\u5c40\u3000\u5948\u826f\u56fd\u9053\u5de5\u4e8b\u4e8b\u52d9\u6240","boring_xml_url":70,"boring_view_url":1,"soilmap_view_url":null,"soiltest_xml_url":0,"soiltest_view_url":0},{"id":516328,"code":"B4KJ202201001-8864","latitude":"34.476667","longitude":"135.766111","source_code":"KK0686612000400070013","project_name":"","survey_name":"\u5927\u548c\u5fa1\u6240\u9053\u8def\u89b3\u97f3\u5bfa\u5730\u533a\u571f\u8cea\u8abf\u67fb\u696d\u52d9","client_name":"\u56fd\u571f\u4ea4\u901a\u7701\u3000\u8fd1\u757f\u5730\u65b9\u6574\u5099\u5c40\u3000\u5948\u826f\u56fd\u9053\u5de5\u4e8b\u4e8b\u52d9\u6240","boring_xml_url":70,"boring_view_url":1,"soilmap_view_url":null,"soiltest_xml_url":0,"soiltest_view_url":0},{"id":516327,"code":"B4KJ202201001-8863","latitude":"34.477778","longitude":"135.766111","source_code":"KK0686612000400070012","project_name":"","survey_name":"\u5927\u548c\u5fa1\u6240\u9053\u8def\u89b3\u97f3\u5bfa\u5730\u533a\u571f\u8cea\u8abf\u67fb\u696d\u52d9","client_name":"\u56fd\u571f\u4ea4\u901a\u7701\u3000\u8fd1\u757f\u5730\u65b9\u6574\u5099\u5c40\u3000\u5948\u826f\u56fd\u9053\u5de5\u4e8b\u4e8b\u52d9\u6240","boring_xml_url":70,"boring_view_url":1,"soilmap_view_url":null,"soiltest_xml_url":0,"soiltest_view_url":0},{"id":516326,"code":"B4KJ202201001-8862","latitude":"34.479167","longitude":"135.766111","source_code":"KK0686612000400070011","project_name":"","survey_name":"\u5927\u548c\u5fa1\u6240\u9053\u8def\u89b3\u97f3\u5bfa\u5730\u533a\u571f\u8cea\u8abf\u67fb\u696d\u52d9","client_name":"\u56fd\u571f\u4ea4\u901a\u7701\u3000\u8fd1\u757f\u5730\u65b9\u6574\u5099\u5c40\u3000\u5948\u826f\u56fd\u9053\u5de5\u4e8b\u4e8b\u52d9\u6240","boring_xml_url":70,"boring_view_url":1,"soilmap_view_url":null,"soiltest_xml_url":0,"soiltest_view_url":0},{"id":516325,"code":"B4KJ202201001-8861","latitude":"34.48","longitude":"135.766111","source_code":"KK0686612000400070010","project_name":"","survey_name":"\u5927\u548c\u5fa1\u6240\u9053\u8def\u89b3\u97f3\u5bfa\u5730\u533a\u571f\u8cea\u8abf\u67fb\u696d\u52d9","client_name":"\u56fd\u571f\u4ea4\u901a\u7701\u3000\u8fd1\u757f\u5730\u65b9\u6574\u5099\u5c40\u3000\u5948\u826f\u56fd\u9053\u5de5\u4e8b\u4e8b\u52d9\u6240","boring_xml_url":70,"boring_view_url":1,"soilmap_view_url":null,"soiltest_xml_url":0,"soiltest_view_url":0},{"id":516324,"code":"B4KJ202201001-8860","latitude":"34.480556","longitude":"135.766111","source_code":"KK0686612000400070009","project_name":"","survey_name":"\u5927\u548c\u5fa1\u6240\u9053\u8def\u89b3\u97f3\u5bfa\u5730\u533a\u571f\u8cea\u8abf\u67fb\u696d\u52d9","client_name":"\u56fd\u571f\u4ea4\u901a\u7701\u3000\u8fd1\u757f\u5730\u65b9\u6574\u5099\u5c40\u3000\u5948\u826f\u56fd\u9053\u5de5\u4e8b\u4e8b\u52d9\u6240","boring_xml_url":70,"boring_view_url":1,"soilmap_view_url":null,"soiltest_xml_url":0,"soiltest_view_url":0},{"id":516323,"code":"B4KJ202201001-8859","latitude":"34.481111","longitude":"135.765833","source_code":"KK0686612000400070008","project_name":"","survey_name":"\u5927\u548c\u5fa1\u6240\u9053\u8def\u89b3\u97f3\u5bfa\u5730\u533a\u571f\u8cea\u8abf\u67fb\u696d\u52d9","client_name":"\u56fd\u571f\u4ea4\u901a\u7701\u3000\u8fd1\u757f\u5730\u65b9\u6574\u5099\u5c40\u3000\u5948\u826f\u56fd\u9053\u5de5\u4e8b\u4e8b\u52d9\u6240","boring_xml_url":70,"boring_view_url":1,"soilmap_view_url":null,"soiltest_xml_url":0,"soiltest_view_url":0},{"id":516322,"code":"B4KJ202201001-8858","latitude":"34.481667","longitude":"135.765833","source_code":"KK0686612000400070007","project_name":"","survey_name":"\u5927\u548c\u5fa1\u6240\u9053\u8def\u89b3\u97f3\u5bfa\u5730\u533a\u571f\u8cea\u8abf\u67fb\u696d\u52d9","client_name":"\u56fd\u571f\u4ea4\u901a\u7701\u3000\u8fd1\u757f\u5730\u65b9\u6574\u5099\u5c40\u3000\u5948\u826f\u56fd\u9053\u5de5\u4e8b\u4e8b\u52d9\u6240","boring_xml_url":70,"boring_view_url":1,"soilmap_view_url":null,"soiltest_xml_url":0,"soiltest_view_url":0},{"id":516321,"code":"B4KJ202201001-8857","latitude":"34.482222","longitude":"135.765833","source_code":"KK0686612000400070006","project_name":"","survey_name":"\u5927\u548c\u5fa1\u6240\u9053\u8def\u89b3\u97f3\u5bfa\u5730\u533a\u571f\u8cea\u8abf\u67fb\u696d\u52d9","client_name":"\u56fd\u571f\u4ea4\u901a\u7701\u3000\u8fd1\u757f\u5730\u65b9\u6574\u5099\u5c40\u3000\u5948\u826f\u56fd\u9053\u5de5\u4e8b\u4e8b\u52d9\u6240","boring_xml_url":70,"boring_view_url":1,"soilmap_view_url":null,"soiltest_xml_url":0,"soiltest_view_url":0},{"id":516320,"code":"B4KJ202201001-8856","latitude":"34.482778","longitude":"135.765833","source_code":"KK0686612000400070005","project_name":"","survey_name":"\u5927\u548c\u5fa1\u6240\u9053\u8def\u89b3\u97f3\u5bfa\u5730\u533a\u571f\u8cea\u8abf\u67fb\u696d\u52d9","client_name":"\u56fd\u571f\u4ea4\u901a\u7701\u3000\u8fd1\u757f\u5730\u65b9\u6574\u5099\u5c40\u3000\u5948\u826f\u56fd\u9053\u5de5\u4e8b\u4e8b\u52d9\u6240","boring_xml_url":70,"boring_view_url":1,"soilmap_view_url":null,"soiltest_xml_url":0,"soiltest_view_url":0},{"id":516319,"code":"B4KJ202201001-8855","latitude":"34.483333","longitude":"135.765833","source_code":"KK0686612000400070004","project_name":"","survey_name":"\u5927\u548c\u5fa1\u6240\u9053\u8def\u89b3\u97f3\u5bfa\u5730\u533a\u571f\u8cea\u8abf\u67fb\u696d\u52d9","client_name":"\u56fd\u571f\u4ea4\u901a\u7701\u3000\u8fd1\u757f\u5730\u65b9\u6574\u5099\u5c40\u3000\u5948\u826f\u56fd\u9053\u5de5\u4e8b\u4e8b\u52d9\u6240","boring_xml_url":70,"boring_view_url":1,"soilmap_view_url":null,"soiltest_xml_url":0,"soiltest_view_url":0}]}}