{"header":{"xyz":{"source":[],"mosaic":false},"page":972,"raw":{"soiltest_result":"0","bbox":"57.598333,109.544722,1.933333,163.806111","page":"972"},"conditions":{"soiltest_result":0,"north":57.598333,"west":109.544722,"south":1.933333,"east":163.806111},"success":true,"message":""},"data":{"meta":{"total":212844,"page":972,"pages":7095,"count":30},"values":[{"id":516258,"code":"B4KJ202201001-8794","latitude":"34.737222","longitude":"135.295556","source_code":"KK048652300400340004","project_name":"","survey_name":"\u672c\u5c71\u4e2d\u91ce\u4ed6\u50be\u659c\u8a08\u8a2d\u7f6e\u89b3\u6e2c\u696d\u52d9","client_name":"\u56fd\u571f\u4ea4\u901a\u7701\u8fd1\u757f\u5730\u65b9\u6574\u5099\u5c40\u516d\u7532\u7802\u9632\u4e8b\u52d9\u6240","boring_xml_url":68,"boring_view_url":1,"soilmap_view_url":null,"soiltest_xml_url":0,"soiltest_view_url":0},{"id":516257,"code":"B4KJ202201001-8793","latitude":"34.735278","longitude":"135.283333","source_code":"KK048652300400340003","project_name":"","survey_name":"\u672c\u5c71\u4e2d\u91ce\u4ed6\u50be\u659c\u8a08\u8a2d\u7f6e\u89b3\u6e2c\u696d\u52d9","client_name":"\u56fd\u571f\u4ea4\u901a\u7701\u8fd1\u757f\u5730\u65b9\u6574\u5099\u5c40\u516d\u7532\u7802\u9632\u4e8b\u52d9\u6240","boring_xml_url":68,"boring_view_url":1,"soilmap_view_url":null,"soiltest_xml_url":0,"soiltest_view_url":0},{"id":516256,"code":"B4KJ202201001-8792","latitude":"34.735","longitude":"135.283056","source_code":"KK048652300400340002","project_name":"","survey_name":"\u672c\u5c71\u4e2d\u91ce\u4ed6\u50be\u659c\u8a08\u8a2d\u7f6e\u89b3\u6e2c\u696d\u52d9","client_name":"\u56fd\u571f\u4ea4\u901a\u7701\u8fd1\u757f\u5730\u65b9\u6574\u5099\u5c40\u516d\u7532\u7802\u9632\u4e8b\u52d9\u6240","boring_xml_url":68,"boring_view_url":1,"soilmap_view_url":null,"soiltest_xml_url":0,"soiltest_view_url":0},{"id":516255,"code":"B4KJ202201001-8791","latitude":"34.734722","longitude":"135.283056","source_code":"KK048652300400340001","project_name":"","survey_name":"\u672c\u5c71\u4e2d\u91ce\u4ed6\u50be\u659c\u8a08\u8a2d\u7f6e\u89b3\u6e2c\u696d\u52d9","client_name":"\u56fd\u571f\u4ea4\u901a\u7701\u8fd1\u757f\u5730\u65b9\u6574\u5099\u5c40\u516d\u7532\u7802\u9632\u4e8b\u52d9\u6240","boring_xml_url":68,"boring_view_url":1,"soilmap_view_url":null,"soiltest_xml_url":0,"soiltest_view_url":0},{"id":516254,"code":"B4KJ202201001-8790","latitude":"34.345639","longitude":"135.674833","source_code":"KK048661200400430011","project_name":"","survey_name":"\u4eac\u5948\u548c\u81ea\u52d5\u8eca\u9053\u571f\u8cea\u8abf\u67fb\u696d\u52d9","client_name":"\u56fd\u571f\u4ea4\u901a\u7701\u8fd1\u757f\u5730\u65b9\u6574\u5099\u5c40\u5948\u826f\u56fd\u9053\u4e8b\u52d9\u6240\u5de5\u52d9\u8ab2","boring_xml_url":68,"boring_view_url":1,"soilmap_view_url":null,"soiltest_xml_url":0,"soiltest_view_url":0},{"id":516253,"code":"B4KJ202201001-8789","latitude":"34.345806","longitude":"135.674611","source_code":"KK048661200400430010","project_name":"","survey_name":"\u4eac\u5948\u548c\u81ea\u52d5\u8eca\u9053\u571f\u8cea\u8abf\u67fb\u696d\u52d9","client_name":"\u56fd\u571f\u4ea4\u901a\u7701\u8fd1\u757f\u5730\u65b9\u6574\u5099\u5c40\u5948\u826f\u56fd\u9053\u4e8b\u52d9\u6240\u5de5\u52d9\u8ab2","boring_xml_url":68,"boring_view_url":1,"soilmap_view_url":null,"soiltest_xml_url":0,"soiltest_view_url":0},{"id":516252,"code":"B4KJ202201001-8788","latitude":"34.336389","longitude":"135.766667","source_code":"KK048661200400430009","project_name":"","survey_name":"\u4eac\u5948\u548c\u81ea\u52d5\u8eca\u9053\u571f\u8cea\u8abf\u67fb\u696d\u52d9","client_name":"\u56fd\u571f\u4ea4\u901a\u7701\u8fd1\u757f\u5730\u65b9\u6574\u5099\u5c40\u5948\u826f\u56fd\u9053\u4e8b\u52d9\u6240\u5de5\u52d9\u8ab2","boring_xml_url":68,"boring_view_url":1,"soilmap_view_url":null,"soiltest_xml_url":0,"soiltest_view_url":0},{"id":516251,"code":"B4KJ202201001-8787","latitude":"34.336389","longitude":"135.766667","source_code":"KK048661200400430008","project_name":"","survey_name":"\u4eac\u5948\u548c\u81ea\u52d5\u8eca\u9053\u571f\u8cea\u8abf\u67fb\u696d\u52d9","client_name":"\u56fd\u571f\u4ea4\u901a\u7701\u8fd1\u757f\u5730\u65b9\u6574\u5099\u5c40\u5948\u826f\u56fd\u9053\u4e8b\u52d9\u6240\u5de5\u52d9\u8ab2","boring_xml_url":68,"boring_view_url":1,"soilmap_view_url":null,"soiltest_xml_url":0,"soiltest_view_url":0},{"id":516250,"code":"B4KJ202201001-8786","latitude":"34.336111","longitude":"135.7675","source_code":"KK048661200400430007","project_name":"","survey_name":"\u4eac\u5948\u548c\u81ea\u52d5\u8eca\u9053\u571f\u8cea\u8abf\u67fb\u696d\u52d9","client_name":"\u56fd\u571f\u4ea4\u901a\u7701\u8fd1\u757f\u5730\u65b9\u6574\u5099\u5c40\u5948\u826f\u56fd\u9053\u4e8b\u52d9\u6240\u5de5\u52d9\u8ab2","boring_xml_url":68,"boring_view_url":1,"soilmap_view_url":null,"soiltest_xml_url":0,"soiltest_view_url":0},{"id":516249,"code":"B4KJ202201001-8785","latitude":"34.30875","longitude":"135.670417","source_code":"KK048661200400430006","project_name":"","survey_name":"\u4eac\u5948\u548c\u81ea\u52d5\u8eca\u9053\u571f\u8cea\u8abf\u67fb\u696d\u52d9","client_name":"\u56fd\u571f\u4ea4\u901a\u7701\u8fd1\u757f\u5730\u65b9\u6574\u5099\u5c40\u5948\u826f\u56fd\u9053\u4e8b\u52d9\u6240","boring_xml_url":68,"boring_view_url":1,"soilmap_view_url":null,"soiltest_xml_url":0,"soiltest_view_url":0},{"id":516248,"code":"B4KJ202201001-8784","latitude":"34.309306","longitude":"135.670528","source_code":"KK048661200400430004","project_name":"","survey_name":"\u4eac\u5948\u548c\u81ea\u52d5\u8eca\u9053\u571f\u8cea\u8abf\u67fb\u696d\u52d9","client_name":"\u56fd\u571f\u4ea4\u901a\u7701\u8fd1\u757f\u5730\u65b9\u6574\u5099\u5c40\u5948\u826f\u56fd\u9053\u4e8b\u52d9\u6240\u5de5\u52d9\u8ab2","boring_xml_url":68,"boring_view_url":1,"soilmap_view_url":null,"soiltest_xml_url":0,"soiltest_view_url":0},{"id":516247,"code":"B4KJ202201001-8783","latitude":"34.309333","longitude":"135.670361","source_code":"KK048661200400430003","project_name":"","survey_name":"\u4eac\u5948\u548c\u81ea\u52d5\u8eca\u9053\u571f\u8cea\u8abf\u67fb\u696d\u52d9","client_name":"\u56fd\u571f\u4ea4\u901a\u7701\u8fd1\u757f\u5730\u65b9\u6574\u5099\u5c40\u5948\u826f\u56fd\u9053\u4e8b\u52d9\u6240\u5de5\u52d9\u8ab2","boring_xml_url":68,"boring_view_url":1,"soilmap_view_url":null,"soiltest_xml_url":0,"soiltest_view_url":0},{"id":516246,"code":"B4KJ202201001-8782","latitude":"34.354722","longitude":"135.682806","source_code":"KK048661200400430002","project_name":"","survey_name":"\u4eac\u5948\u548c\u81ea\u52d5\u8eca\u9053\u571f\u8cea\u8abf\u67fb\u696d\u52d9","client_name":"\u56fd\u571f\u4ea4\u901a\u7701\u8fd1\u757f\u5730\u65b9\u6574\u5099\u5c40\u5948\u826f\u56fd\u9053\u4e8b\u52d9\u6240\u5de5\u52d9\u8ab2","boring_xml_url":68,"boring_view_url":1,"soilmap_view_url":null,"soiltest_xml_url":0,"soiltest_view_url":0},{"id":516245,"code":"B4KJ202201001-8781","latitude":"34.354889","longitude":"135.683083","source_code":"KK048661200400430001","project_name":"","survey_name":"\u4eac\u5948\u548c\u81ea\u52d5\u8eca\u9053\u571f\u8cea\u8abf\u67fb\u696d\u52d9","client_name":"\u56fd\u571f\u4ea4\u901a\u7701\u8fd1\u757f\u5730\u65b9\u6574\u5099\u5c40\u5948\u826f\u56fd\u9053\u4e8b\u52d9\u6240\u5de5\u52d9\u8ab2","boring_xml_url":68,"boring_view_url":1,"soilmap_view_url":null,"soiltest_xml_url":0,"soiltest_view_url":0},{"id":516244,"code":"B4KJ202201001-8780","latitude":"33.969267","longitude":"135.807144","source_code":"KK038661200400290004","project_name":"\u5e73\u621015\u5e74\u5ea6\u3000\u5341\u6d25\u5ddd\u9053\u8def\u6edd\u5730\u533a\u5730\u8cea\u8abf\u67fb\u696d\u52d9","survey_name":"\u5e73\u621015\u5e74\u5ea6\u3000\u5341\u6d25\u5ddd\u9053\u8def\u6edd\u5730\u533a\u5730\u8cea\u8abf\u67fb\u696d\u52d9","client_name":"\u56fd\u571f\u4ea4\u901a\u7701\u8fd1\u757f\u5730\u65b9\u6574\u5099\u5c40\u5948\u826f\u56fd\u9053\u4e8b\u52d9\u6240","boring_xml_url":68,"boring_view_url":1,"soilmap_view_url":null,"soiltest_xml_url":0,"soiltest_view_url":0},{"id":516243,"code":"B4KJ202201001-8779","latitude":"33.969389","longitude":"135.807044","source_code":"KK038661200400290003","project_name":"\u5e73\u621015\u5e74\u5ea6\u3000\u5341\u6d25\u5ddd\u9053\u8def\u6edd\u5730\u533a\u5730\u8cea\u8abf\u67fb\u696d\u52d9","survey_name":"\u5e73\u621015\u5e74\u5ea6\u3000\u5341\u6d25\u5ddd\u9053\u8def\u6edd\u5730\u533a\u5730\u8cea\u8abf\u67fb\u696d\u52d9","client_name":"\u56fd\u571f\u4ea4\u901a\u7701\u8fd1\u757f\u5730\u65b9\u6574\u5099\u5c40\u5948\u826f\u56fd\u9053\u4e8b\u52d9\u6240","boring_xml_url":68,"boring_view_url":1,"soilmap_view_url":null,"soiltest_xml_url":0,"soiltest_view_url":0},{"id":516242,"code":"B4KJ202201001-8778","latitude":"33.969314","longitude":"135.806697","source_code":"KK038661200400290002","project_name":"\u5e73\u621015\u5e74\u5ea6\u3000\u5341\u6d25\u5ddd\u9053\u8def\u6edd\u5730\u533a\u5730\u8cea\u8abf\u67fb\u696d\u52d9","survey_name":"\u5e73\u621015\u5e74\u5ea6\u3000\u5341\u6d25\u5ddd\u9053\u8def\u6edd\u5730\u533a\u5730\u8cea\u8abf\u67fb\u696d\u52d9","client_name":"\u56fd\u571f\u4ea4\u901a\u7701\u8fd1\u757f\u5730\u65b9\u6574\u5099\u5c40\u5948\u826f\u56fd\u9053\u4e8b\u52d9\u6240","boring_xml_url":68,"boring_view_url":1,"soilmap_view_url":null,"soiltest_xml_url":0,"soiltest_view_url":0},{"id":516241,"code":"B4KJ202201001-8777","latitude":"33.968825","longitude":"135.806636","source_code":"KK038661200400290001","project_name":"\u5e73\u621015\u5e74\u5ea6\u3000\u5341\u6d25\u5ddd\u9053\u8def\u6edd\u5730\u533a\u5730\u8cea\u8abf\u67fb\u696d\u52d9","survey_name":"\u5e73\u621015\u5e74\u5ea6\u3000\u5341\u6d25\u5ddd\u9053\u8def\u6edd\u5730\u533a\u5730\u8cea\u8abf\u67fb\u696d\u52d9","client_name":"\u56fd\u571f\u4ea4\u901a\u7701\u8fd1\u757f\u5730\u65b9\u6574\u5099\u5c40\u5948\u826f\u56fd\u9053\u4e8b\u52d9\u6240","boring_xml_url":68,"boring_view_url":1,"soilmap_view_url":null,"soiltest_xml_url":0,"soiltest_view_url":0},{"id":516240,"code":"B4KJ202201001-8776","latitude":"35.471542","longitude":"137.195211","source_code":"CB1785356120320003","project_name":"","survey_name":"\u5e73\u621029\u5e74\u5ea6\u3000\u65b0\u4e38\u5c71\u30c0\u30e0\u8caf\u6c34\u6c60\u5468\u8fba\u5730\u8cea\u8abf\u67fb\u696d\u52d9","client_name":"\u56fd\u571f\u4ea4\u901a\u7701\u4e2d\u90e8\u5730\u65b9\u6574\u5099\u5c40\u65b0\u4e38\u5c71\u30c0\u30e0\u5de5\u4e8b\u4e8b\u52d9\u6240","boring_xml_url":64,"boring_view_url":1,"soilmap_view_url":null,"soiltest_xml_url":0,"soiltest_view_url":0},{"id":516239,"code":"B4KJ202201001-8775","latitude":"35.471958","longitude":"137.193018","source_code":"CB1785356120320002","project_name":"","survey_name":"\"\u5e73\u621029\u5e74\u5ea6 \u65b0\u4e38\u5c71\u30c0\u30e0\u8caf\u6c34\u6c60\u5468\u8fba\u5730\u8cea\u8abf\u67fb\u696d\u52d9\"","client_name":"\u56fd\u571f\u4ea4\u901a\u7701\u4e2d\u90e8\u5730\u65b9\u6574\u5099\u5c40\u65b0\u4e38\u5c71\u30c0\u30e0\u5de5\u4e8b\u4e8b\u52d9\u6240","boring_xml_url":64,"boring_view_url":1,"soilmap_view_url":null,"soiltest_xml_url":0,"soiltest_view_url":0},{"id":516238,"code":"B4KJ202201001-8774","latitude":"35.472647","longitude":"137.194302","source_code":"CB1785356120320001","project_name":"","survey_name":"\"\u5e73\u621029\u5e74\u5ea6 \u65b0\u4e38\u5c71\u30c0\u30e0\u8caf\u6c34\u6c60\u5468\u8fba\u5730\u8cea\u8abf\u67fb\u696d\u52d9\"","client_name":"\u56fd\u571f\u4ea4\u901a\u7701\u4e2d\u90e8\u5730\u65b9\u6574\u5099\u5c40\u65b0\u4e38\u5c71\u30c0\u30e0\u5de5\u4e8b\u4e8b\u52d9\u6240","boring_xml_url":64,"boring_view_url":1,"soilmap_view_url":null,"soiltest_xml_url":0,"soiltest_view_url":0},{"id":516237,"code":"B4KJ202201001-8773","latitude":"35.472795","longitude":"137.194316","source_code":"CB1785356120170004","project_name":"","survey_name":"\u5e73\u621029\u5e74\u5ea6\u3000\u65b0\u4e38\u5c71\u30c0\u30e0\u8caf\u6c34\u6c60\u5de6\u5cb8\u5730\u8cea\u8abf\u67fb\u696d\u52d9","client_name":"\u56fd\u571f\u4ea4\u901a\u7701\u4e2d\u90e8\u5730\u65b9\u6574\u5099\u5c40\u65b0\u4e38\u5c71\u30c0\u30e0\u5de5\u4e8b\u4e8b\u52d9\u6240","boring_xml_url":64,"boring_view_url":1,"soilmap_view_url":null,"soiltest_xml_url":0,"soiltest_view_url":0},{"id":516236,"code":"B4KJ202201001-8772","latitude":"35.470005","longitude":"137.193653","source_code":"CB1785356120170003","project_name":"","survey_name":"\u5e73\u621029\u5e74\u5ea6\u3000\u65b0\u4e38\u5c71\u30c0\u30e0\u8caf\u6c34\u6c60\u5de6\u5cb8\u5730\u8cea\u8abf\u67fb\u696d\u52d9","client_name":"\u56fd\u571f\u4ea4\u901a\u7701\u4e2d\u90e8\u5730\u65b9\u6574\u5099\u5c40\u65b0\u4e38\u5c71\u30c0\u30e0\u5de5\u4e8b\u4e8b\u52d9\u6240","boring_xml_url":64,"boring_view_url":1,"soilmap_view_url":null,"soiltest_xml_url":0,"soiltest_view_url":0},{"id":516235,"code":"B4KJ202201001-8771","latitude":"35.471774","longitude":"137.194025","source_code":"CB1785356120170002","project_name":"","survey_name":"\u5e73\u621029\u5e74\u5ea6\u3000\u65b0\u4e38\u5c71\u30c0\u30e0\u8caf\u6c34\u6c60\u5de6\u5cb8\u5730\u8cea\u8abf\u67fb\u696d\u52d9","client_name":"\u56fd\u571f\u4ea4\u901a\u7701\u4e2d\u90e8\u5730\u65b9\u6574\u5099\u5c40\u65b0\u4e38\u5c71\u30c0\u30e0\u5de5\u4e8b\u4e8b\u52d9\u6240","boring_xml_url":64,"boring_view_url":1,"soilmap_view_url":null,"soiltest_xml_url":0,"soiltest_view_url":0},{"id":516234,"code":"B4KJ202201001-8770","latitude":"35.472638","longitude":"137.194195","source_code":"CB1785356120170001","project_name":"","survey_name":"\u5e73\u621029\u5e74\u5ea6\u3000\u65b0\u4e38\u5c71\u30c0\u30e0\u8caf\u6c34\u6c60\u5de6\u5cb8\u5730\u8cea\u8abf\u67fb\u696d\u52d9","client_name":"\u56fd\u571f\u4ea4\u901a\u7701\u4e2d\u90e8\u5730\u65b9\u6574\u5099\u5c40\u65b0\u4e38\u5c71\u30c0\u30e0\u5de5\u4e8b\u4e8b\u52d9\u6240","boring_xml_url":64,"boring_view_url":1,"soilmap_view_url":null,"soiltest_xml_url":0,"soiltest_view_url":0},{"id":516233,"code":"B4KJ202201001-8769","latitude":"35.535333","longitude":"136.507897","source_code":"CB1885326020230019","project_name":"","survey_name":"\u5e73\u621030\u5e74\u5ea6\u3000\u8d8a\u7f8e\u5c71\u7cfb\u7802\u9632\u5730\u8cea\u8abf\u67fb\u696d\u52d9","client_name":"\u56fd\u571f\u4ea4\u901a\u7701\u4e2d\u90e8\u5730\u65b9\u6574\u5099\u5c40\u8d8a\u7f8e\u5c71\u7cfb\u7802\u9632\u4e8b\u52d9\u6240","boring_xml_url":64,"boring_view_url":1,"soilmap_view_url":null,"soiltest_xml_url":0,"soiltest_view_url":0},{"id":516232,"code":"B4KJ202201001-8768","latitude":"35.536039","longitude":"136.508111","source_code":"CB1885326020230018","project_name":"","survey_name":"\u5e73\u621030\u5e74\u5ea6\u3000\u8d8a\u7f8e\u5c71\u7cfb\u7802\u9632\u5730\u8cea\u8abf\u67fb\u696d\u52d9","client_name":"\u56fd\u571f\u4ea4\u901a\u7701\u4e2d\u90e8\u5730\u65b9\u6574\u5099\u5c40\u8d8a\u7f8e\u5c71\u7cfb\u7802\u9632\u4e8b\u52d9\u6240","boring_xml_url":64,"boring_view_url":1,"soilmap_view_url":null,"soiltest_xml_url":0,"soiltest_view_url":0},{"id":516231,"code":"B4KJ202201001-8767","latitude":"35.537286","longitude":"136.5093","source_code":"CB1885326020230017","project_name":"","survey_name":"\u5e73\u621030\u5e74\u5ea6\u3000\u8d8a\u7f8e\u5c71\u7cfb\u7802\u9632\u5730\u8cea\u8abf\u67fb\u696d\u52d9","client_name":"\u56fd\u571f\u4ea4\u901a\u7701\u4e2d\u90e8\u5730\u65b9\u6574\u5099\u5c40\u8d8a\u7f8e\u5c71\u7cfb\u7802\u9632\u4e8b\u52d9\u6240","boring_xml_url":64,"boring_view_url":1,"soilmap_view_url":null,"soiltest_xml_url":0,"soiltest_view_url":0},{"id":516230,"code":"B4KJ202201001-8766","latitude":"35.537075","longitude":"136.509281","source_code":"CB1885326020230016","project_name":"","survey_name":"\u5e73\u621030\u5e74\u5ea6\u3000\u8d8a\u7f8e\u5c71\u7cfb\u7802\u9632\u5730\u8cea\u8abf\u67fb\u696d\u52d9","client_name":"\u56fd\u571f\u4ea4\u901a\u7701\u4e2d\u90e8\u5730\u65b9\u6574\u5099\u5c40\u8d8a\u7f8e\u5c71\u7cfb\u7802\u9632\u4e8b\u52d9\u6240","boring_xml_url":64,"boring_view_url":1,"soilmap_view_url":null,"soiltest_xml_url":0,"soiltest_view_url":0},{"id":516229,"code":"B4KJ202201001-8765","latitude":"35.536733","longitude":"136.5112","source_code":"CB1885326020230015","project_name":"","survey_name":"\u5e73\u621030\u5e74\u5ea6\u3000\u8d8a\u7f8e\u5c71\u7cfb\u7802\u9632\u5730\u8cea\u8abf\u67fb\u696d\u52d9","client_name":"\u56fd\u571f\u4ea4\u901a\u7701\u4e2d\u90e8\u5730\u65b9\u6574\u5099\u5c40\u8d8a\u7f8e\u5c71\u7cfb\u7802\u9632\u4e8b\u52d9\u6240","boring_xml_url":64,"boring_view_url":1,"soilmap_view_url":null,"soiltest_xml_url":0,"soiltest_view_url":0}]}}