{"header":{"xyz":{"source":[],"mosaic":false},"page":976,"raw":{"soiltest_result":"0","bbox":"57.598333,109.544722,1.933333,163.806111","page":"976"},"conditions":{"soiltest_result":0,"north":57.598333,"west":109.544722,"south":1.933333,"east":163.806111},"success":true,"message":""},"data":{"meta":{"total":212844,"page":976,"pages":7095,"count":30},"values":[{"id":516138,"code":"B4KJ202201001-8674","latitude":"35.139525","longitude":"138.863139","source_code":"CB1785426520670003","project_name":"1\u53f7\u6a4b\u30fb\u30e9\u30f3\u30d7\u6a4b","survey_name":"\"\u5e73\u621029\u5e74\u5ea6 \u6771\u99ff\u6cb3\u6e7e\u74b0\u72b6\u9053\u8def\uff08\u6cbc\u6d25\u5ca1\u5bae\u30fb\u611b\u9df9\uff09\u5730\u8cea\u8abf\u67fb\u696d\u52d9\"","client_name":"\u56fd\u571f\u4ea4\u901a\u7701\u4e2d\u90e8\u5730\u65b9\u6574\u5099\u5c40\u6cbc\u6d25\u6cb3\u5ddd\u56fd\u9053\u4e8b\u52d9\u6240","boring_xml_url":64,"boring_view_url":1,"soilmap_view_url":null,"soiltest_xml_url":0,"soiltest_view_url":0},{"id":516137,"code":"B4KJ202201001-8673","latitude":"35.139825","longitude":"138.863805","source_code":"CB1785426520670002","project_name":"1\u53f7\u6a4b\u30fb\u30e9\u30f3\u30d7\u6a4b","survey_name":"\"\u5e73\u621029\u5e74\u5ea6 \u6771\u99ff\u6cb3\u6e7e\u74b0\u72b6\u9053\u8def\uff08\u6cbc\u6d25\u5ca1\u5bae\u30fb\u611b\u9df9\uff09\u5730\u8cea\u8abf\u67fb\u696d\u52d9\"","client_name":"\u56fd\u571f\u4ea4\u901a\u7701\u4e2d\u90e8\u5730\u65b9\u6574\u5099\u5c40\u6cbc\u6d25\u6cb3\u5ddd\u56fd\u9053\u4e8b\u52d9\u6240","boring_xml_url":64,"boring_view_url":1,"soilmap_view_url":null,"soiltest_xml_url":0,"soiltest_view_url":0},{"id":516136,"code":"B4KJ202201001-8672","latitude":"35.14025","longitude":"138.86372","source_code":"CB1785426520670001","project_name":"1\u53f7\u6a4b\u30fb\u30e9\u30f3\u30d7\u6a4b","survey_name":"\"\u5e73\u621029\u5e74\u5ea6 \u6771\u99ff\u6cb3\u6e7e\u74b0\u72b6\u9053\u8def\uff08\u6cbc\u6d25\u5ca1\u5bae\u30fb\u611b\u9df9\uff09\u5730\u8cea\u8abf\u67fb\u696d\u52d9\"","client_name":"\u56fd\u571f\u4ea4\u901a\u7701\u4e2d\u90e8\u5730\u65b9\u6574\u5099\u5c40\u6cbc\u6d25\u6cb3\u5ddd\u56fd\u9053\u4e8b\u52d9\u6240","boring_xml_url":64,"boring_view_url":1,"soilmap_view_url":null,"soiltest_xml_url":0,"soiltest_view_url":0},{"id":516135,"code":"B4KJ202201001-8671","latitude":"34.784667","longitude":"139.039742","source_code":"CB1785426120180003","project_name":"","survey_name":"\"\u5e73\u621029\u5e74\u5ea6 \u4f0a\u8c46\u7e26\u8cab\u5229\u6c34\u5f71\u97ff\u691c\u8a0e\u696d\u52d9\"","client_name":"\u56fd\u571f\u4ea4\u901a\u7701\u4e2d\u90e8\u5730\u65b9\u6574\u5099\u5c40\u6cbc\u6d25\u6cb3\u5ddd\u56fd\u9053\u4e8b\u52d9\u6240","boring_xml_url":64,"boring_view_url":1,"soilmap_view_url":null,"soiltest_xml_url":0,"soiltest_view_url":0},{"id":516134,"code":"B4KJ202201001-8670","latitude":"34.785447","longitude":"139.038986","source_code":"CB1785426120180002","project_name":"","survey_name":"\"\u5e73\u621029\u5e74\u5ea6 \u4f0a\u8c46\u7e26\u8cab\u5229\u6c34\u5f71\u97ff\u691c\u8a0e\u696d\u52d9\"","client_name":"\u56fd\u571f\u4ea4\u901a\u7701\u4e2d\u90e8\u5730\u65b9\u6574\u5099\u5c40\u6cbc\u6d25\u6cb3\u5ddd\u56fd\u9053\u4e8b\u52d9\u6240","boring_xml_url":64,"boring_view_url":1,"soilmap_view_url":null,"soiltest_xml_url":0,"soiltest_view_url":0},{"id":516133,"code":"B4KJ202201001-8669","latitude":"34.786464","longitude":"139.040406","source_code":"CB1785426120180001","project_name":"","survey_name":"\"\u5e73\u621029\u5e74\u5ea6 \u4f0a\u8c46\u7e26\u8cab\u5229\u6c34\u5f71\u97ff\u691c\u8a0e\u696d\u52d9\"","client_name":"\u56fd\u571f\u4ea4\u901a\u7701\u4e2d\u90e8\u5730\u65b9\u6574\u5099\u5c40\u6cbc\u6d25\u6cb3\u5ddd\u56fd\u9053\u4e8b\u52d9\u6240","boring_xml_url":64,"boring_view_url":1,"soilmap_view_url":null,"soiltest_xml_url":0,"soiltest_view_url":0},{"id":516132,"code":"B4KJ202201001-8668","latitude":"35.072167","longitude":"138.938417","source_code":"CB1785426020440014","project_name":"","survey_name":"\u5e73\u621029\u5e74\u5ea6\u3000\u72e9\u91ce\u5ddd\u6d41\u57df\u5730\u8cea\u8abf\u67fb\u696d\u52d9","client_name":"\u56fd\u571f\u4ea4\u901a\u7701\u4e2d\u90e8\u5730\u65b9\u6574\u5099\u5c40\u6cbc\u6d25\u6cb3\u5ddd\u56fd\u9053\u4e8b\u52d9\u6240","boring_xml_url":64,"boring_view_url":1,"soilmap_view_url":null,"soiltest_xml_url":0,"soiltest_view_url":0},{"id":516131,"code":"B4KJ202201001-8667","latitude":"35.081389","longitude":"138.912139","source_code":"CB1785426020440013","project_name":"","survey_name":"\u5e73\u621029\u5e74\u5ea6\u3000\u72e9\u91ce\u5ddd\u6d41\u57df\u5730\u8cea\u8abf\u67fb\u696d\u52d9","client_name":"\u56fd\u571f\u4ea4\u901a\u7701\u4e2d\u90e8\u5730\u65b9\u6574\u5099\u5c40\u6cbc\u6d25\u6cb3\u5ddd\u56fd\u9053\u4e8b\u52d9\u6240","boring_xml_url":64,"boring_view_url":1,"soilmap_view_url":null,"soiltest_xml_url":0,"soiltest_view_url":0},{"id":516130,"code":"B4KJ202201001-8666","latitude":"35.081333","longitude":"138.912111","source_code":"CB1785426020440012","project_name":"","survey_name":"\u5e73\u621029\u5e74\u5ea6\u3000\u72e9\u91ce\u5ddd\u6d41\u57df\u5730\u8cea\u8abf\u67fb\u696d\u52d9","client_name":"\u56fd\u571f\u4ea4\u901a\u7701\u4e2d\u90e8\u5730\u65b9\u6574\u5099\u5c40\u6cbc\u6d25\u6cb3\u5ddd\u56fd\u9053\u4e8b\u52d9\u6240","boring_xml_url":64,"boring_view_url":1,"soilmap_view_url":null,"soiltest_xml_url":0,"soiltest_view_url":0},{"id":516129,"code":"B4KJ202201001-8665","latitude":"35.083722","longitude":"138.908806","source_code":"CB1785426020440011","project_name":"","survey_name":"\u5e73\u621029\u5e74\u5ea6\u3000\u72e9\u91ce\u5ddd\u6d41\u57df\u5730\u8cea\u8abf\u67fb\u696d\u52d9","client_name":"\u56fd\u571f\u4ea4\u901a\u7701\u4e2d\u90e8\u5730\u65b9\u6574\u5099\u5c40\u6cbc\u6d25\u6cb3\u5ddd\u56fd\u9053\u4e8b\u52d9\u6240","boring_xml_url":64,"boring_view_url":1,"soilmap_view_url":null,"soiltest_xml_url":0,"soiltest_view_url":0},{"id":516128,"code":"B4KJ202201001-8664","latitude":"35.083667","longitude":"138.908778","source_code":"CB1785426020440010","project_name":"","survey_name":"\u5e73\u621029\u5e74\u5ea6\u3000\u72e9\u91ce\u5ddd\u6d41\u57df\u5730\u8cea\u8abf\u67fb\u696d\u52d9","client_name":"\u56fd\u571f\u4ea4\u901a\u7701\u4e2d\u90e8\u5730\u65b9\u6574\u5099\u5c40\u6cbc\u6d25\u6cb3\u5ddd\u56fd\u9053\u4e8b\u52d9\u6240","boring_xml_url":64,"boring_view_url":1,"soilmap_view_url":null,"soiltest_xml_url":0,"soiltest_view_url":0},{"id":516127,"code":"B4KJ202201001-8663","latitude":"35.037972","longitude":"138.940111","source_code":"CB1785426020440009","project_name":"","survey_name":"\u5e73\u621029\u5e74\u5ea6\u3000\u72e9\u91ce\u5ddd\u6d41\u57df\u5730\u8cea\u8abf\u67fb\u696d\u52d9","client_name":"\u56fd\u571f\u4ea4\u901a\u7701\u4e2d\u90e8\u5730\u65b9\u6574\u5099\u5c40\u6cbc\u6d25\u6cb3\u5ddd\u56fd\u9053\u4e8b\u52d9\u6240","boring_xml_url":64,"boring_view_url":1,"soilmap_view_url":null,"soiltest_xml_url":0,"soiltest_view_url":0},{"id":516126,"code":"B4KJ202201001-8662","latitude":"35.038","longitude":"138.940056","source_code":"CB1785426020440008","project_name":"","survey_name":"\u5e73\u621029\u5e74\u5ea6\u3000\u72e9\u91ce\u5ddd\u6d41\u57df\u5730\u8cea\u8abf\u67fb\u696d\u52d9","client_name":"\u56fd\u571f\u4ea4\u901a\u7701\u4e2d\u90e8\u5730\u65b9\u6574\u5099\u5c40\u6cbc\u6d25\u6cb3\u5ddd\u56fd\u9053\u4e8b\u52d9\u6240","boring_xml_url":64,"boring_view_url":1,"soilmap_view_url":null,"soiltest_xml_url":0,"soiltest_view_url":0},{"id":516125,"code":"B4KJ202201001-8661","latitude":"35.103139","longitude":"138.8815","source_code":"CB1785426020440007","project_name":"","survey_name":"\u5e73\u621029\u5e74\u5ea6\u3000\u72e9\u91ce\u5ddd\u6d41\u57df\u5730\u8cea\u8abf\u67fb\u696d\u52d9","client_name":"\u56fd\u571f\u4ea4\u901a\u7701\u4e2d\u90e8\u5730\u65b9\u6574\u5099\u5c40\u6cbc\u6d25\u6cb3\u5ddd\u56fd\u9053\u4e8b\u52d9\u6240","boring_xml_url":64,"boring_view_url":1,"soilmap_view_url":null,"soiltest_xml_url":0,"soiltest_view_url":0},{"id":516124,"code":"B4KJ202201001-8660","latitude":"35.103139","longitude":"138.8815","source_code":"CB1785426020440006","project_name":"","survey_name":"\u5e73\u621029\u5e74\u5ea6\u3000\u72e9\u91ce\u5ddd\u6d41\u57df\u5730\u8cea\u8abf\u67fb\u696d\u52d9","client_name":"\u56fd\u571f\u4ea4\u901a\u7701\u4e2d\u90e8\u5730\u65b9\u6574\u5099\u5c40\u6cbc\u6d25\u6cb3\u5ddd\u56fd\u9053\u4e8b\u52d9\u6240","boring_xml_url":64,"boring_view_url":1,"soilmap_view_url":null,"soiltest_xml_url":0,"soiltest_view_url":0},{"id":516123,"code":"B4KJ202201001-8659","latitude":"35.103083","longitude":"138.8815","source_code":"CB1785426020440005","project_name":"","survey_name":"\u5e73\u621029\u5e74\u5ea6\u3000\u72e9\u91ce\u5ddd\u6d41\u57df\u5730\u8cea\u8abf\u67fb\u696d\u52d9","client_name":"\u56fd\u571f\u4ea4\u901a\u7701\u4e2d\u90e8\u5730\u65b9\u6574\u5099\u5c40\u6cbc\u6d25\u6cb3\u5ddd\u56fd\u9053\u4e8b\u52d9\u6240","boring_xml_url":64,"boring_view_url":1,"soilmap_view_url":null,"soiltest_xml_url":0,"soiltest_view_url":0},{"id":516122,"code":"B4KJ202201001-8658","latitude":"35.063667","longitude":"138.935583","source_code":"CB1785426020440004","project_name":"","survey_name":"\u5e73\u621029\u5e74\u5ea6\u3000\u72e9\u91ce\u5ddd\u6d41\u57df\u5730\u8cea\u8abf\u67fb\u696d\u52d9","client_name":"\u56fd\u571f\u4ea4\u901a\u7701\u4e2d\u90e8\u5730\u65b9\u6574\u5099\u5c40\u6cbc\u6d25\u6cb3\u5ddd\u56fd\u9053\u4e8b\u52d9\u6240","boring_xml_url":64,"boring_view_url":1,"soilmap_view_url":null,"soiltest_xml_url":0,"soiltest_view_url":0},{"id":516121,"code":"B4KJ202201001-8657","latitude":"35.063667","longitude":"138.935667","source_code":"CB1785426020440003","project_name":"","survey_name":"\u5e73\u621029\u5e74\u5ea6\u3000\u72e9\u91ce\u5ddd\u6d41\u57df\u5730\u8cea\u8abf\u67fb\u696d\u52d9","client_name":"\u56fd\u571f\u4ea4\u901a\u7701\u4e2d\u90e8\u5730\u65b9\u6574\u5099\u5c40\u6cbc\u6d25\u6cb3\u5ddd\u56fd\u9053\u4e8b\u52d9\u6240","boring_xml_url":64,"boring_view_url":1,"soilmap_view_url":null,"soiltest_xml_url":0,"soiltest_view_url":0},{"id":516120,"code":"B4KJ202201001-8656","latitude":"35.070222","longitude":"138.920778","source_code":"CB1785426020440002","project_name":"","survey_name":"\u5e73\u621029\u5e74\u5ea6\u3000\u72e9\u91ce\u5ddd\u6d41\u57df\u5730\u8cea\u8abf\u67fb\u696d\u52d9","client_name":"\u56fd\u571f\u4ea4\u901a\u7701\u4e2d\u90e8\u5730\u65b9\u6574\u5099\u5c40\u6cbc\u6d25\u6cb3\u5ddd\u56fd\u9053\u4e8b\u52d9\u6240","boring_xml_url":64,"boring_view_url":1,"soilmap_view_url":null,"soiltest_xml_url":0,"soiltest_view_url":0},{"id":516119,"code":"B4KJ202201001-8655","latitude":"35.099472","longitude":"138.876694","source_code":"CB1785426020440001","project_name":"","survey_name":"\u5e73\u621029\u5e74\u5ea6\u3000\u72e9\u91ce\u5ddd\u6d41\u57df\u5730\u8cea\u8abf\u67fb\u696d\u52d9","client_name":"\u56fd\u571f\u4ea4\u901a\u7701\u4e2d\u90e8\u5730\u65b9\u6574\u5099\u5c40\u6cbc\u6d25\u6cb3\u5ddd\u56fd\u9053\u4e8b\u52d9\u6240","boring_xml_url":64,"boring_view_url":1,"soilmap_view_url":null,"soiltest_xml_url":0,"soiltest_view_url":0},{"id":516118,"code":"B4KJ202201001-8654","latitude":"35.393775","longitude":"137.281292","source_code":"CB1785306520180025","project_name":"","survey_name":"\u5e73\u621029\u5e74\u5ea6\u3000\u745e\u6d6a\u6075\u90a3\u9053\u8def\u5730\u8cea\u8abf\u67fb\u696d\u52d9","client_name":"\u56fd\u571f\u4ea4\u901a\u7701\u3000\u591a\u6cbb\u898b\u7802\u9632\u56fd\u9053\u4e8b\u52d9\u6240","boring_xml_url":64,"boring_view_url":1,"soilmap_view_url":null,"soiltest_xml_url":0,"soiltest_view_url":0},{"id":516117,"code":"B4KJ202201001-8653","latitude":"35.39355","longitude":"137.280861","source_code":"CB1785306520180024","project_name":"","survey_name":"\u5e73\u621029\u5e74\u5ea6\u3000\u745e\u6d6a\u6075\u90a3\u9053\u8def\u5730\u8cea\u8abf\u67fb\u696d\u52d9","client_name":"\u56fd\u571f\u4ea4\u901a\u7701\u3000\u591a\u6cbb\u898b\u7802\u9632\u56fd\u9053\u4e8b\u52d9\u6240","boring_xml_url":64,"boring_view_url":1,"soilmap_view_url":null,"soiltest_xml_url":0,"soiltest_view_url":0},{"id":516116,"code":"B4KJ202201001-8652","latitude":"35.430725","longitude":"137.3436","source_code":"CB1785306520180023","project_name":"","survey_name":"\u5e73\u621029\u5e74\u5ea6\u3000\u745e\u6d6a\u6075\u90a3\u9053\u8def\u5730\u8cea\u8abf\u67fb\u696d\u52d9","client_name":"\u56fd\u571f\u4ea4\u901a\u7701\u3000\u591a\u6cbb\u898b\u7802\u9632\u56fd\u9053\u4e8b\u52d9\u6240","boring_xml_url":64,"boring_view_url":1,"soilmap_view_url":null,"soiltest_xml_url":0,"soiltest_view_url":0},{"id":516115,"code":"B4KJ202201001-8651","latitude":"35.430119","longitude":"137.342983","source_code":"CB1785306520180022","project_name":"","survey_name":"\u5e73\u621029\u5e74\u5ea6\u3000\u745e\u6d6a\u6075\u90a3\u9053\u8def\u5730\u8cea\u8abf\u67fb\u696d\u52d9","client_name":"\u56fd\u571f\u4ea4\u901a\u7701\u3000\u591a\u6cbb\u898b\u7802\u9632\u56fd\u9053\u4e8b\u52d9\u6240","boring_xml_url":64,"boring_view_url":1,"soilmap_view_url":null,"soiltest_xml_url":0,"soiltest_view_url":0},{"id":516114,"code":"B4KJ202201001-8650","latitude":"35.427678","longitude":"137.335231","source_code":"CB1785306520180021","project_name":"","survey_name":"\u5e73\u621029\u5e74\u5ea6\u3000\u745e\u6d6a\u6075\u90a3\u9053\u8def\u5730\u8cea\u8abf\u67fb\u696d\u52d9","client_name":"\u56fd\u571f\u4ea4\u901a\u7701\u3000\u591a\u6cbb\u898b\u7802\u9632\u56fd\u9053\u4e8b\u52d9\u6240","boring_xml_url":64,"boring_view_url":1,"soilmap_view_url":null,"soiltest_xml_url":0,"soiltest_view_url":0},{"id":516113,"code":"B4KJ202201001-8649","latitude":"35.4223","longitude":"137.327053","source_code":"CB1785306520180020","project_name":"","survey_name":"\u5e73\u621029\u5e74\u5ea6\u3000\u745e\u6d6a\u6075\u90a3\u9053\u8def\u5730\u8cea\u8abf\u67fb\u696d\u52d9","client_name":"\u56fd\u571f\u4ea4\u901a\u7701\u3000\u591a\u6cbb\u898b\u7802\u9632\u56fd\u9053\u4e8b\u52d9\u6240","boring_xml_url":64,"boring_view_url":1,"soilmap_view_url":null,"soiltest_xml_url":0,"soiltest_view_url":0},{"id":516112,"code":"B4KJ202201001-8648","latitude":"35.420978","longitude":"137.325461","source_code":"CB1785306520180019","project_name":"","survey_name":"\u5e73\u621029\u5e74\u5ea6\u3000\u745e\u6d6a\u6075\u90a3\u9053\u8def\u5730\u8cea\u8abf\u67fb\u696d\u52d9","client_name":"\u56fd\u571f\u4ea4\u901a\u7701\u3000\u591a\u6cbb\u898b\u7802\u9632\u56fd\u9053\u4e8b\u52d9\u6240","boring_xml_url":64,"boring_view_url":1,"soilmap_view_url":null,"soiltest_xml_url":0,"soiltest_view_url":0},{"id":516111,"code":"B4KJ202201001-8647","latitude":"35.419972","longitude":"137.324844","source_code":"CB1785306520180018","project_name":"","survey_name":"\u5e73\u621029\u5e74\u5ea6\u3000\u745e\u6d6a\u6075\u90a3\u9053\u8def\u5730\u8cea\u8abf\u67fb\u696d\u52d9","client_name":"\u56fd\u571f\u4ea4\u901a\u7701\u3000\u591a\u6cbb\u898b\u7802\u9632\u56fd\u9053\u4e8b\u52d9\u6240","boring_xml_url":64,"boring_view_url":1,"soilmap_view_url":null,"soiltest_xml_url":0,"soiltest_view_url":0},{"id":516110,"code":"B4KJ202201001-8646","latitude":"35.420236","longitude":"137.324569","source_code":"CB1785306520180017","project_name":"","survey_name":"\u5e73\u621029\u5e74\u5ea6\u3000\u745e\u6d6a\u6075\u90a3\u9053\u8def\u5730\u8cea\u8abf\u67fb\u696d\u52d9","client_name":"\u56fd\u571f\u4ea4\u901a\u7701\u3000\u591a\u6cbb\u898b\u7802\u9632\u56fd\u9053\u4e8b\u52d9\u6240","boring_xml_url":64,"boring_view_url":1,"soilmap_view_url":null,"soiltest_xml_url":0,"soiltest_view_url":0},{"id":516109,"code":"B4KJ202201001-8645","latitude":"35.418292","longitude":"137.322267","source_code":"CB1785306520180016","project_name":"","survey_name":"\u5e73\u621029\u5e74\u5ea6\u3000\u745e\u6d6a\u6075\u90a3\u9053\u8def\u5730\u8cea\u8abf\u67fb\u696d\u52d9","client_name":"\u56fd\u571f\u4ea4\u901a\u7701\u3000\u591a\u6cbb\u898b\u7802\u9632\u56fd\u9053\u4e8b\u52d9\u6240","boring_xml_url":64,"boring_view_url":1,"soilmap_view_url":null,"soiltest_xml_url":0,"soiltest_view_url":0}]}}