{"header":{"xyz":{"source":[],"mosaic":false},"page":982,"raw":{"soiltest_result":"0","bbox":"57.598333,109.544722,1.933333,163.806111","page":"982"},"conditions":{"soiltest_result":0,"north":57.598333,"west":109.544722,"south":1.933333,"east":163.806111},"success":true,"message":""},"data":{"meta":{"total":212844,"page":982,"pages":7095,"count":30},"values":[{"id":515958,"code":"B4KJ202201001-8494","latitude":"35.251384","longitude":"136.574838","source_code":"CB1785336520620015","project_name":"\u5e73\u621029\u5e74\u5ea6\u3000\u5c90\u961c\u56fd\u9053\u7ba1\u5185\u5730\u8cea\u8abf\u67fb","survey_name":"\u5e73\u621029\u5e74\u5ea6\u3000\u5c90\u961c\u56fd\u9053\u7ba1\u5185\u5730\u8cea\u8abf\u67fb","client_name":"\u56fd\u571f\u4ea4\u901a\u7701\u3000\u4e2d\u90e8\u5730\u65b9\u6574\u5099\u5c40\u3000\u5c90\u961c\u56fd\u9053\u4e8b\u52d9\u6240","boring_xml_url":64,"boring_view_url":1,"soilmap_view_url":null,"soiltest_xml_url":0,"soiltest_view_url":0},{"id":515957,"code":"B4KJ202201001-8493","latitude":"35.254792","longitude":"136.574527","source_code":"CB1785336520620014","project_name":"\u5e73\u621029\u5e74\u5ea6\u3000\u5c90\u961c\u56fd\u9053\u7ba1\u5185\u5730\u8cea\u8abf\u67fb","survey_name":"\u5e73\u621029\u5e74\u5ea6\u3000\u5c90\u961c\u56fd\u9053\u7ba1\u5185\u5730\u8cea\u8abf\u67fb","client_name":"\u56fd\u571f\u4ea4\u901a\u7701\u3000\u4e2d\u90e8\u5730\u65b9\u6574\u5099\u5c40\u3000\u5c90\u961c\u56fd\u9053\u4e8b\u52d9\u6240","boring_xml_url":64,"boring_view_url":1,"soilmap_view_url":null,"soiltest_xml_url":0,"soiltest_view_url":0},{"id":515956,"code":"B4KJ202201001-8492","latitude":"35.255068","longitude":"136.574153","source_code":"CB1785336520620013","project_name":"\u5e73\u621029\u5e74\u5ea6\u3000\u5c90\u961c\u56fd\u9053\u7ba1\u5185\u5730\u8cea\u8abf\u67fb","survey_name":"\u5e73\u621029\u5e74\u5ea6\u3000\u5c90\u961c\u56fd\u9053\u7ba1\u5185\u5730\u8cea\u8abf\u67fb","client_name":"\u56fd\u571f\u4ea4\u901a\u7701\u3000\u4e2d\u90e8\u5730\u65b9\u6574\u5099\u5c40\u3000\u5c90\u961c\u56fd\u9053\u4e8b\u52d9\u6240","boring_xml_url":64,"boring_view_url":1,"soilmap_view_url":null,"soiltest_xml_url":0,"soiltest_view_url":0},{"id":515955,"code":"B4KJ202201001-8491","latitude":"35.255379","longitude":"136.573792","source_code":"CB1785336520620012","project_name":"\u5e73\u621029\u5e74\u5ea6\u3000\u5c90\u961c\u56fd\u9053\u7ba1\u5185\u5730\u8cea\u8abf\u67fb","survey_name":"\u5e73\u621029\u5e74\u5ea6\u3000\u5c90\u961c\u56fd\u9053\u7ba1\u5185\u5730\u8cea\u8abf\u67fb","client_name":"\u56fd\u571f\u4ea4\u901a\u7701\u3000\u4e2d\u90e8\u5730\u65b9\u6574\u5099\u5c40\u3000\u5c90\u961c\u56fd\u9053\u4e8b\u52d9\u6240","boring_xml_url":64,"boring_view_url":1,"soilmap_view_url":null,"soiltest_xml_url":0,"soiltest_view_url":0},{"id":515954,"code":"B4KJ202201001-8490","latitude":"35.594561","longitude":"136.744374","source_code":"CB1785336520620011","project_name":"\u5e73\u621029\u5e74\u5ea6\u3000\u5c90\u961c\u56fd\u9053\u7ba1\u5185\u5730\u8cea\u8abf\u67fb","survey_name":"\u5e73\u621029\u5e74\u5ea6\u3000\u5c90\u961c\u56fd\u9053\u7ba1\u5185\u5730\u8cea\u8abf\u67fb","client_name":"\u56fd\u571f\u4ea4\u901a\u7701\u3000\u4e2d\u90e8\u5730\u65b9\u6574\u5099\u5c40\u3000\u5c90\u961c\u56fd\u9053\u4e8b\u52d9\u6240","boring_xml_url":64,"boring_view_url":1,"soilmap_view_url":null,"soiltest_xml_url":0,"soiltest_view_url":0},{"id":515953,"code":"B4KJ202201001-8489","latitude":"35.594858","longitude":"136.7453","source_code":"CB1785336520620010","project_name":"\u5e73\u621029\u5e74\u5ea6\u3000\u5c90\u961c\u56fd\u9053\u7ba1\u5185\u5730\u8cea\u8abf\u67fb","survey_name":"\u5e73\u621029\u5e74\u5ea6\u3000\u5c90\u961c\u56fd\u9053\u7ba1\u5185\u5730\u8cea\u8abf\u67fb","client_name":"\u56fd\u571f\u4ea4\u901a\u7701\u3000\u4e2d\u90e8\u5730\u65b9\u6574\u5099\u5c40\u3000\u5c90\u961c\u56fd\u9053\u4e8b\u52d9\u6240","boring_xml_url":64,"boring_view_url":1,"soilmap_view_url":null,"soiltest_xml_url":0,"soiltest_view_url":0},{"id":515952,"code":"B4KJ202201001-8488","latitude":"35.59567","longitude":"136.745043","source_code":"CB1785336520620009","project_name":"\u5e73\u621029\u5e74\u5ea6\u3000\u5c90\u961c\u56fd\u9053\u7ba1\u5185\u5730\u8cea\u8abf\u67fb","survey_name":"\u5e73\u621029\u5e74\u5ea6\u3000\u5c90\u961c\u56fd\u9053\u7ba1\u5185\u5730\u8cea\u8abf\u67fb","client_name":"\u56fd\u571f\u4ea4\u901a\u7701\u3000\u4e2d\u90e8\u5730\u65b9\u6574\u5099\u5c40\u3000\u5c90\u961c\u56fd\u9053\u4e8b\u52d9\u6240","boring_xml_url":64,"boring_view_url":1,"soilmap_view_url":null,"soiltest_xml_url":0,"soiltest_view_url":0},{"id":515951,"code":"B4KJ202201001-8487","latitude":"35.595626","longitude":"136.744322","source_code":"CB1785336520620008","project_name":"\u5e73\u621029\u5e74\u5ea6\u3000\u5c90\u961c\u56fd\u9053\u7ba1\u5185\u5730\u8cea\u8abf\u67fb","survey_name":"\u5e73\u621029\u5e74\u5ea6\u3000\u5c90\u961c\u56fd\u9053\u7ba1\u5185\u5730\u8cea\u8abf\u67fb","client_name":"\u56fd\u571f\u4ea4\u901a\u7701\u3000\u4e2d\u90e8\u5730\u65b9\u6574\u5099\u5c40\u3000\u5c90\u961c\u56fd\u9053\u4e8b\u52d9\u6240","boring_xml_url":64,"boring_view_url":1,"soilmap_view_url":null,"soiltest_xml_url":0,"soiltest_view_url":0},{"id":515950,"code":"B4KJ202201001-8486","latitude":"35.507383","longitude":"136.769103","source_code":"CB1785336520620007","project_name":"\u5e73\u621029\u5e74\u5ea6\u3000\u5c90\u961c\u56fd\u9053\u7ba1\u5185\u5730\u8cea\u8abf\u67fb","survey_name":"\u5e73\u621029\u5e74\u5ea6\u3000\u5c90\u961c\u56fd\u9053\u7ba1\u5185\u5730\u8cea\u8abf\u67fb","client_name":"\u56fd\u571f\u4ea4\u901a\u7701\u3000\u4e2d\u90e8\u5730\u65b9\u6574\u5099\u5c40\u3000\u5c90\u961c\u56fd\u9053\u4e8b\u52d9\u6240","boring_xml_url":64,"boring_view_url":1,"soilmap_view_url":null,"soiltest_xml_url":0,"soiltest_view_url":0},{"id":515949,"code":"B4KJ202201001-8485","latitude":"35.508691","longitude":"136.770955","source_code":"CB1785336520620006","project_name":"\u5e73\u621029\u5e74\u5ea6\u3000\u5c90\u961c\u56fd\u9053\u7ba1\u5185\u5730\u8cea\u8abf\u67fb","survey_name":"\u5e73\u621029\u5e74\u5ea6\u3000\u5c90\u961c\u56fd\u9053\u7ba1\u5185\u5730\u8cea\u8abf\u67fb","client_name":"\u56fd\u571f\u4ea4\u901a\u7701\u3000\u4e2d\u90e8\u5730\u65b9\u6574\u5099\u5c40\u3000\u5c90\u961c\u56fd\u9053\u4e8b\u52d9\u6240","boring_xml_url":64,"boring_view_url":1,"soilmap_view_url":null,"soiltest_xml_url":0,"soiltest_view_url":0},{"id":515948,"code":"B4KJ202201001-8484","latitude":"35.508873","longitude":"136.770812","source_code":"CB1785336520620005","project_name":"\u5e73\u621029\u5e74\u5ea6\u3000\u5c90\u961c\u56fd\u9053\u7ba1\u5185\u5730\u8cea\u8abf\u67fb","survey_name":"\u5e73\u621029\u5e74\u5ea6\u3000\u5c90\u961c\u56fd\u9053\u7ba1\u5185\u5730\u8cea\u8abf\u67fb","client_name":"\u56fd\u571f\u4ea4\u901a\u7701\u3000\u4e2d\u90e8\u5730\u65b9\u6574\u5099\u5c40\u3000\u5c90\u961c\u56fd\u9053\u4e8b\u52d9\u6240","boring_xml_url":64,"boring_view_url":1,"soilmap_view_url":null,"soiltest_xml_url":0,"soiltest_view_url":0},{"id":515947,"code":"B4KJ202201001-8483","latitude":"35.474557","longitude":"136.732012","source_code":"CB1785336520620004","project_name":"\u5e73\u621029\u5e74\u5ea6\u3000\u5c90\u961c\u56fd\u9053\u7ba1\u5185\u5730\u8cea\u8abf\u67fb","survey_name":"\u5e73\u621029\u5e74\u5ea6\u3000\u5c90\u961c\u56fd\u9053\u7ba1\u5185\u5730\u8cea\u8abf\u67fb","client_name":"\"\u56fd\u571f\u4ea4\u901a\u7701 \u4e2d\u90e8\u5730\u65b9\u6574\u5099\u5c40 \u5c90\u961c\u56fd\u9053\u4e8b\u52d9\u6240\"","boring_xml_url":64,"boring_view_url":1,"soilmap_view_url":null,"soiltest_xml_url":0,"soiltest_view_url":0},{"id":515946,"code":"B4KJ202201001-8482","latitude":"35.474598","longitude":"136.731788","source_code":"CB1785336520620003","project_name":"\u5e73\u621029\u5e74\u5ea6\u3000\u5c90\u961c\u56fd\u9053\u7ba1\u5185\u5730\u8cea\u8abf\u67fb","survey_name":"\u5e73\u621029\u5e74\u5ea6\u3000\u5c90\u961c\u56fd\u9053\u7ba1\u5185\u5730\u8cea\u8abf\u67fb","client_name":"\"\u56fd\u571f\u4ea4\u901a\u7701 \u4e2d\u90e8\u5730\u65b9\u6574\u5099\u5c40 \u5c90\u961c\u56fd\u9053\u4e8b\u52d9\u6240\"","boring_xml_url":64,"boring_view_url":1,"soilmap_view_url":null,"soiltest_xml_url":0,"soiltest_view_url":0},{"id":515945,"code":"B4KJ202201001-8481","latitude":"35.476355","longitude":"136.727485","source_code":"CB1785336520620002","project_name":"\u5e73\u621029\u5e74\u5ea6\u3000\u5c90\u961c\u56fd\u9053\u7ba1\u5185\u5730\u8cea\u8abf\u67fb","survey_name":"\u5e73\u621029\u5e74\u5ea6\u3000\u5c90\u961c\u56fd\u9053\u7ba1\u5185\u5730\u8cea\u8abf\u67fb","client_name":"\"\u56fd\u571f\u4ea4\u901a\u7701 \u4e2d\u90e8\u5730\u65b9\u6574\u5099\u5c40 \u5c90\u961c\u56fd\u9053\u4e8b\u52d9\u6240\"","boring_xml_url":64,"boring_view_url":1,"soilmap_view_url":null,"soiltest_xml_url":0,"soiltest_view_url":0},{"id":515944,"code":"B4KJ202201001-8480","latitude":"35.47663","longitude":"136.72792","source_code":"CB1785336520620001","project_name":"\u5e73\u621029\u5e74\u5ea6\u3000\u5c90\u961c\u56fd\u9053\u7ba1\u5185\u5730\u8cea\u8abf\u67fb","survey_name":"\u5e73\u621029\u5e74\u5ea6\u3000\u5c90\u961c\u56fd\u9053\u7ba1\u5185\u5730\u8cea\u8abf\u67fb","client_name":"\"\u56fd\u571f\u4ea4\u901a\u7701 \u4e2d\u90e8\u5730\u65b9\u6574\u5099\u5c40 \u5c90\u961c\u56fd\u9053\u4e8b\u52d9\u6240\"","boring_xml_url":64,"boring_view_url":1,"soilmap_view_url":null,"soiltest_xml_url":0,"soiltest_view_url":0},{"id":515943,"code":"B4KJ202201001-8479","latitude":"35.433338","longitude":"136.649613","source_code":"CB1785336520580030","project_name":"","survey_name":"\u5e73\u621029\u5e74\u5ea6\u6771\u6d77\u74b0\u72b6\uff08\u672c\u5de3\u304b\u3089\u5927\u91ce\u795e\u6238\uff09\u5317\u90e8\u5730\u533a\u5730\u8cea\u8abf\u67fb","client_name":"\u56fd\u571f\u4ea4\u901a\u7701\u4e2d\u90e8\u5730\u65b9\u6574\u5099\u5c40\u5c90\u961c\u56fd\u9053\u4e8b\u52d9\u6240","boring_xml_url":64,"boring_view_url":1,"soilmap_view_url":null,"soiltest_xml_url":0,"soiltest_view_url":0},{"id":515942,"code":"B4KJ202201001-8478","latitude":"35.431958","longitude":"136.648248","source_code":"CB1785336520580029","project_name":"","survey_name":"\u5e73\u621029\u5e74\u5ea6\u6771\u6d77\u74b0\u72b6\uff08\u672c\u5de3\u304b\u3089\u5927\u91ce\u795e\u6238\uff09\u5317\u90e8\u5730\u533a\u5730\u8cea\u8abf\u67fb","client_name":"\u56fd\u571f\u4ea4\u901a\u7701\u4e2d\u90e8\u5730\u65b9\u6574\u5099\u5c40\u5c90\u961c\u56fd\u9053\u4e8b\u52d9\u6240","boring_xml_url":64,"boring_view_url":1,"soilmap_view_url":null,"soiltest_xml_url":0,"soiltest_view_url":0},{"id":515941,"code":"B4KJ202201001-8477","latitude":"35.431721","longitude":"136.64796","source_code":"CB1785336520580028","project_name":"","survey_name":"\u5e73\u621029\u5e74\u5ea6\u6771\u6d77\u74b0\u72b6\uff08\u672c\u5de3\u304b\u3089\u5927\u91ce\u795e\u6238\uff09\u5317\u90e8\u5730\u533a\u5730\u8cea\u8abf\u67fb","client_name":"\u56fd\u571f\u4ea4\u901a\u7701\u4e2d\u90e8\u5730\u65b9\u6574\u5099\u5c40\u5c90\u961c\u56fd\u9053\u4e8b\u52d9\u6240","boring_xml_url":64,"boring_view_url":1,"soilmap_view_url":null,"soiltest_xml_url":0,"soiltest_view_url":0},{"id":515940,"code":"B4KJ202201001-8476","latitude":"35.457997","longitude":"136.66774","source_code":"CB1785336520580027","project_name":"","survey_name":"\u5e73\u621029\u5e74\u5ea6\u6771\u6d77\u74b0\u72b6\uff08\u672c\u5de3\u304b\u3089\u5927\u91ce\u795e\u6238\uff09\u5317\u90e8\u5730\u533a\u5730\u8cea\u8abf\u67fb","client_name":"\u56fd\u571f\u4ea4\u901a\u7701\u4e2d\u90e8\u5730\u65b9\u6574\u5099\u5c40\u5c90\u961c\u56fd\u9053\u4e8b\u52d9\u6240","boring_xml_url":64,"boring_view_url":1,"soilmap_view_url":null,"soiltest_xml_url":0,"soiltest_view_url":0},{"id":515939,"code":"B4KJ202201001-8475","latitude":"35.457088","longitude":"136.661743","source_code":"CB1785336520580026","project_name":"","survey_name":"\u5e73\u621029\u5e74\u5ea6\u6771\u6d77\u74b0\u72b6\uff08\u672c\u5de3\u304b\u3089\u5927\u91ce\u795e\u6238\uff09\u5317\u90e8\u5730\u533a\u5730\u8cea\u8abf\u67fb","client_name":"\u56fd\u571f\u4ea4\u901a\u7701\u4e2d\u90e8\u5730\u65b9\u6574\u5099\u5c40\u5c90\u961c\u56fd\u9053\u4e8b\u52d9\u6240","boring_xml_url":64,"boring_view_url":1,"soilmap_view_url":null,"soiltest_xml_url":0,"soiltest_view_url":0},{"id":515938,"code":"B4KJ202201001-8474","latitude":"35.450404","longitude":"136.656218","source_code":"CB1785336520580025","project_name":"","survey_name":"\u5e73\u621029\u5e74\u5ea6\u6771\u6d77\u74b0\u72b6\uff08\u672c\u5de3\u304b\u3089\u5927\u91ce\u795e\u6238\uff09\u5317\u90e8\u5730\u533a\u5730\u8cea\u8abf\u67fb","client_name":"\u56fd\u571f\u4ea4\u901a\u7701\u4e2d\u90e8\u5730\u65b9\u6574\u5099\u5c40\u5c90\u961c\u56fd\u9053\u4e8b\u52d9\u6240","boring_xml_url":64,"boring_view_url":1,"soilmap_view_url":null,"soiltest_xml_url":0,"soiltest_view_url":0},{"id":515937,"code":"B4KJ202201001-8473","latitude":"35.446464","longitude":"136.654351","source_code":"CB1785336520580024","project_name":"","survey_name":"\u5e73\u621029\u5e74\u5ea6\u6771\u6d77\u74b0\u72b6\uff08\u672c\u5de3\u304b\u3089\u5927\u91ce\u795e\u6238\uff09\u5317\u90e8\u5730\u533a\u5730\u8cea\u8abf\u67fb","client_name":"\u56fd\u571f\u4ea4\u901a\u7701\u4e2d\u90e8\u5730\u65b9\u6574\u5099\u5c40\u5c90\u961c\u56fd\u9053\u4e8b\u52d9\u6240","boring_xml_url":64,"boring_view_url":1,"soilmap_view_url":null,"soiltest_xml_url":0,"soiltest_view_url":0},{"id":515936,"code":"B4KJ202201001-8472","latitude":"35.441352","longitude":"136.652639","source_code":"CB1785336520580023","project_name":"","survey_name":"\u5e73\u621029\u5e74\u5ea6\u6771\u6d77\u74b0\u72b6\uff08\u672c\u5de3\u304b\u3089\u5927\u91ce\u795e\u6238\uff09\u5317\u90e8\u5730\u533a\u5730\u8cea\u8abf\u67fb","client_name":"\u56fd\u571f\u4ea4\u901a\u7701\u4e2d\u90e8\u5730\u65b9\u6574\u5099\u5c40\u5c90\u961c\u56fd\u9053\u4e8b\u52d9\u6240","boring_xml_url":64,"boring_view_url":1,"soilmap_view_url":null,"soiltest_xml_url":0,"soiltest_view_url":0},{"id":515935,"code":"B4KJ202201001-8471","latitude":"35.436562","longitude":"136.651486","source_code":"CB1785336520580022","project_name":"","survey_name":"\u5e73\u621029\u5e74\u5ea6\u6771\u6d77\u74b0\u72b6\uff08\u672c\u5de3\u304b\u3089\u5927\u91ce\u795e\u6238\uff09\u5317\u90e8\u5730\u533a\u5730\u8cea\u8abf\u67fb","client_name":"\u56fd\u571f\u4ea4\u901a\u7701\u4e2d\u90e8\u5730\u65b9\u6574\u5099\u5c40\u5c90\u961c\u56fd\u9053\u4e8b\u52d9\u6240","boring_xml_url":64,"boring_view_url":1,"soilmap_view_url":null,"soiltest_xml_url":0,"soiltest_view_url":0},{"id":515934,"code":"B4KJ202201001-8470","latitude":"35.434167","longitude":"136.65018","source_code":"CB1785336520580021","project_name":"","survey_name":"\u5e73\u621029\u5e74\u5ea6\u6771\u6d77\u74b0\u72b6\uff08\u672c\u5de3\u304b\u3089\u5927\u91ce\u795e\u6238\uff09\u5317\u90e8\u5730\u533a\u5730\u8cea\u8abf\u67fb","client_name":"\u56fd\u571f\u4ea4\u901a\u7701\u4e2d\u90e8\u5730\u65b9\u6574\u5099\u5c40\u5c90\u961c\u56fd\u9053\u4e8b\u52d9\u6240","boring_xml_url":64,"boring_view_url":1,"soilmap_view_url":null,"soiltest_xml_url":0,"soiltest_view_url":0},{"id":515933,"code":"B4KJ202201001-8469","latitude":"35.432744","longitude":"136.649091","source_code":"CB1785336520580020","project_name":"","survey_name":"\u5e73\u621029\u5e74\u5ea6\u6771\u6d77\u74b0\u72b6\uff08\u672c\u5de3\u304b\u3089\u5927\u91ce\u795e\u6238\uff09\u5317\u90e8\u5730\u533a\u5730\u8cea\u8abf\u67fb","client_name":"\u56fd\u571f\u4ea4\u901a\u7701\u4e2d\u90e8\u5730\u65b9\u6574\u5099\u5c40\u5c90\u961c\u56fd\u9053\u4e8b\u52d9\u6240","boring_xml_url":64,"boring_view_url":1,"soilmap_view_url":null,"soiltest_xml_url":0,"soiltest_view_url":0},{"id":515932,"code":"B4KJ202201001-8468","latitude":"35.431463","longitude":"136.647624","source_code":"CB1785336520580019","project_name":"","survey_name":"\u5e73\u621029\u5e74\u5ea6\u6771\u6d77\u74b0\u72b6\uff08\u672c\u5de3\u304b\u3089\u5927\u91ce\u795e\u6238\uff09\u5317\u90e8\u5730\u533a\u5730\u8cea\u8abf\u67fb","client_name":"\u56fd\u571f\u4ea4\u901a\u7701\u4e2d\u90e8\u5730\u65b9\u6574\u5099\u5c40\u5c90\u961c\u56fd\u9053\u4e8b\u52d9\u6240","boring_xml_url":64,"boring_view_url":1,"soilmap_view_url":null,"soiltest_xml_url":0,"soiltest_view_url":0},{"id":515931,"code":"B4KJ202201001-8467","latitude":"35.431281","longitude":"136.647373","source_code":"CB1785336520580018","project_name":"","survey_name":"\u5e73\u621029\u5e74\u5ea6\u6771\u6d77\u74b0\u72b6\uff08\u672c\u5de3\u304b\u3089\u5927\u91ce\u795e\u6238\uff09\u5317\u90e8\u5730\u533a\u5730\u8cea\u8abf\u67fb","client_name":"\u56fd\u571f\u4ea4\u901a\u7701\u4e2d\u90e8\u5730\u65b9\u6574\u5099\u5c40\u5c90\u961c\u56fd\u9053\u4e8b\u52d9\u6240","boring_xml_url":64,"boring_view_url":1,"soilmap_view_url":null,"soiltest_xml_url":0,"soiltest_view_url":0},{"id":515930,"code":"B4KJ202201001-8466","latitude":"35.430625","longitude":"136.646347","source_code":"CB1785336520580017","project_name":"","survey_name":"\u5e73\u621029\u5e74\u5ea6\u6771\u6d77\u74b0\u72b6\uff08\u672c\u5de3\u304b\u3089\u5927\u91ce\u795e\u6238\uff09\u5317\u90e8\u5730\u533a\u5730\u8cea\u8abf\u67fb","client_name":"\u56fd\u571f\u4ea4\u901a\u7701\u4e2d\u90e8\u5730\u65b9\u6574\u5099\u5c40\u5c90\u961c\u56fd\u9053\u4e8b\u52d9\u6240","boring_xml_url":64,"boring_view_url":1,"soilmap_view_url":null,"soiltest_xml_url":0,"soiltest_view_url":0},{"id":515929,"code":"B4KJ202201001-8465","latitude":"35.46065","longitude":"136.675533","source_code":"CB1785336520580016","project_name":"","survey_name":"\u5e73\u621029\u5e74\u5ea6\u6771\u6d77\u74b0\u72b6\uff08\u672c\u5de3\u304b\u3089\u5927\u91ce\u795e\u6238\uff09\u5317\u90e8\u5730\u533a\u5730\u8cea\u8abf\u67fb","client_name":"\u56fd\u571f\u4ea4\u901a\u7701\u4e2d\u90e8\u5730\u65b9\u6574\u5099\u5c40\u5c90\u961c\u56fd\u9053\u4e8b\u52d9\u6240","boring_xml_url":64,"boring_view_url":1,"soilmap_view_url":null,"soiltest_xml_url":0,"soiltest_view_url":0}]}}