{"header":{"xyz":{"source":[],"mosaic":false},"page":984,"raw":{"soiltest_result":"0","bbox":"57.598333,109.544722,1.933333,163.806111","page":"984"},"conditions":{"soiltest_result":0,"north":57.598333,"west":109.544722,"south":1.933333,"east":163.806111},"success":true,"message":""},"data":{"meta":{"total":212844,"page":984,"pages":7095,"count":30},"values":[{"id":515898,"code":"B4KJ202201001-8434","latitude":"35.429942","longitude":"136.623651","source_code":"CB1785336520570004","project_name":"\"No.683+16.66 L6.51m\uff08PD20\uff09\"","survey_name":"\u5e73\u621029\u5e74\u5ea6\u3000\u6771\u6d77\u74b0\u72b6\uff08\u672c\u5de3\u304b\u3089\u5927\u91ce\u795e\u6238\uff09\u5357\u90e8\u5730\u533a\u5730\u8cea\u8abf\u67fb","client_name":"\u56fd\u571f\u4ea4\u901a\u7701\u4e2d\u90e8\u5730\u65b9\u6574\u5099\u5c40\u5c90\u961c\u56fd\u9053\u4e8b\u52d9\u6240","boring_xml_url":64,"boring_view_url":1,"soilmap_view_url":null,"soiltest_xml_url":0,"soiltest_view_url":0},{"id":515897,"code":"B4KJ202201001-8433","latitude":"35.429831","longitude":"136.623651","source_code":"CB1785336520570003","project_name":"\"No.682+1.55 L11.95m\uff08PD19\uff09\"","survey_name":"\u5e73\u621029\u5e74\u5ea6\u3000\u6771\u6d77\u74b0\u72b6\uff08\u672c\u5de3\u304b\u3089\u5927\u91ce\u795e\u6238\uff09\u5357\u90e8\u5730\u533a\u5730\u8cea\u8abf\u67fb","client_name":"\u56fd\u571f\u4ea4\u901a\u7701\u4e2d\u90e8\u5730\u65b9\u6574\u5099\u5c40\u5c90\u961c\u56fd\u9053\u4e8b\u52d9\u6240","boring_xml_url":64,"boring_view_url":1,"soilmap_view_url":null,"soiltest_xml_url":0,"soiltest_view_url":0},{"id":515896,"code":"B4KJ202201001-8432","latitude":"35.429581","longitude":"136.622846","source_code":"CB1785336520570002","project_name":"\"No.679+13.98 L3.65m\uff08PD18)\"","survey_name":"\u5e73\u621029\u5e74\u5ea6\u3000\u6771\u6d77\u74b0\u72b6\uff08\u672c\u5de3\u304b\u3089\u5927\u91ce\u795e\u6238\uff09\u5357\u90e8\u5730\u533a\u5730\u8cea\u8abf\u67fb","client_name":"\u56fd\u571f\u4ea4\u901a\u7701\u4e2d\u90e8\u5730\u65b9\u6574\u5099\u5c40\u5c90\u961c\u56fd\u9053\u4e8b\u52d9\u6240","boring_xml_url":64,"boring_view_url":1,"soilmap_view_url":null,"soiltest_xml_url":0,"soiltest_view_url":0},{"id":515895,"code":"B4KJ202201001-8431","latitude":"35.429331","longitude":"136.622207","source_code":"CB1785336520570001","project_name":"\"No.676+10.00 L7.00m\uff08PD17)\"","survey_name":"\u5e73\u621029\u5e74\u5ea6\u3000\u6771\u6d77\u74b0\u72b6\uff08\u672c\u5de3\u304b\u3089\u5927\u91ce\u795e\u6238\uff09\u5357\u90e8\u5730\u533a\u5730\u8cea\u8abf\u67fb","client_name":"\u56fd\u571f\u4ea4\u901a\u7701\u4e2d\u90e8\u5730\u65b9\u6574\u5099\u5c40\u5c90\u961c\u56fd\u9053\u4e8b\u52d9\u6240","boring_xml_url":64,"boring_view_url":1,"soilmap_view_url":null,"soiltest_xml_url":0,"soiltest_view_url":0},{"id":515894,"code":"B4KJ202201001-8430","latitude":"35.471916","longitude":"136.731945","source_code":"CB1785336520430002","project_name":"","survey_name":"\"\u5e73\u621029\u5e74\u5ea6 \u6771\u6d77\u74b0\u72b6\u5317\u90e8\u6c34\u6587\u8abf\u67fb\"","client_name":"\u56fd\u571f\u4ea4\u901a\u7701\u3000\u4e2d\u90e8\u5730\u65b9\u6574\u5099\u5c40\u3000\u5c90\u961c\u56fd\u9053\u4e8b\u52d9\u6240","boring_xml_url":64,"boring_view_url":1,"soilmap_view_url":null,"soiltest_xml_url":0,"soiltest_view_url":0},{"id":515893,"code":"B4KJ202201001-8429","latitude":"35.472889","longitude":"136.733167","source_code":"CB1785336520430001","project_name":"","survey_name":"\"\u5e73\u621029\u5e74\u5ea6 \u6771\u6d77\u74b0\u72b6\u5317\u90e8\u6c34\u6587\u8abf\u67fb\"","client_name":"\u56fd\u571f\u4ea4\u901a\u7701\u3000\u4e2d\u90e8\u5730\u65b9\u6574\u5099\u5c40\u3000\u5c90\u961c\u56fd\u9053\u4e8b\u52d9\u6240","boring_xml_url":64,"boring_view_url":1,"soilmap_view_url":null,"soiltest_xml_url":0,"soiltest_view_url":0},{"id":515892,"code":"B4KJ202201001-8428","latitude":"35.460152","longitude":"136.674165","source_code":"CB1785336520140001","project_name":"\u3010\u5317\u65b9\u81ea\u52d5\u8eca\u5b66\u6821\u8fd1\u508d\u3000\u89b3\u6e2c\u5b54\u8a2d\u7f6e\u3011","survey_name":"\u5e73\u621029\u5e74\u5ea6\u3000\u6771\u6d77\u74b0\u72b6\u5357\u90e8\u6c34\u6587\u8abf\u67fb","client_name":"\u56fd\u571f\u4ea4\u901a\u7701\u3000\u4e2d\u90e8\u5730\u65b9\u6574\u5099\u5c40\u3000\u5c90\u961c\u56fd\u9053\u4e8b\u52d9\u6240","boring_xml_url":64,"boring_view_url":1,"soilmap_view_url":null,"soiltest_xml_url":0,"soiltest_view_url":0},{"id":515891,"code":"B4KJ202201001-8427","latitude":"35.237528","longitude":"137.420834","source_code":"CB1785782020110002","project_name":"\u5e73\u621029\u5e74\u5ea6\u77e2\u4f5c\u30c0\u30e0\u53f3\u5cb8\u5730\u8cea\u8abf\u67fb\u696d\u52d9","survey_name":"\u5e73\u621029\u5e74\u5ea6\u77e2\u4f5c\u30c0\u30e0\u53f3\u5cb8\u5730\u8cea\u8abf\u67fb\u696d\u52d9","client_name":"\u56fd\u571f\u4ea4\u901a\u7701\u4e2d\u90e8\u5730\u65b9\u6574\u5099\u5c40\u77e2\u4f5c\u30c0\u30e0\u7ba1\u7406\u6240","boring_xml_url":64,"boring_view_url":1,"soilmap_view_url":null,"soiltest_xml_url":0,"soiltest_view_url":0},{"id":515890,"code":"B4KJ202201001-8426","latitude":"35.237472","longitude":"137.420667","source_code":"CB1785782020110001","project_name":"\u5e73\u621029\u5e74\u5ea6\u77e2\u4f5c\u30c0\u30e0\u53f3\u5cb8\u5730\u8cea\u8abf\u67fb\u696d\u52d9","survey_name":"\u5e73\u621029\u5e74\u5ea6\u77e2\u4f5c\u30c0\u30e0\u53f3\u5cb8\u5730\u8cea\u8abf\u67fb\u696d\u52d9","client_name":"\u56fd\u571f\u4ea4\u901a\u7701\u4e2d\u90e8\u5730\u65b9\u6574\u5099\u5c40\u77e2\u4f5c\u30c0\u30e0\u7ba1\u7406\u6240","boring_xml_url":64,"boring_view_url":1,"soilmap_view_url":null,"soiltest_xml_url":0,"soiltest_view_url":0},{"id":515889,"code":"B4KJ202201001-8425","latitude":"35.298692","longitude":"137.921889","source_code":"CB1785706320850014","project_name":"\u5e73\u621029\u5e74\u5ea6\u5929\u7adc\u5ddd\u6c34\u7cfb\u9060\u5c71\u5ddd\u6d41\u57df\u5730\u8cea\u8abf\u67fb\u696d\u52d9","survey_name":"\u5e73\u621029\u5e74\u5ea6\u5929\u7adc\u5ddd\u6c34\u7cfb\u9060\u5c71\u5ddd\u6d41\u57df\u5730\u8cea\u8abf\u67fb\u696d\u52d9","client_name":"\u4e2d\u90e8\u5730\u65b9\u6574\u5099\u5c40\u5929\u7adc\u5ddd\u4e0a\u6d41\u6cb3\u5ddd\u4e8b\u52d9\u6240","boring_xml_url":64,"boring_view_url":1,"soilmap_view_url":null,"soiltest_xml_url":0,"soiltest_view_url":0},{"id":515888,"code":"B4KJ202201001-8424","latitude":"35.298719","longitude":"137.922545","source_code":"CB1785706320850013","project_name":"\u5e73\u621029\u5e74\u5ea6\u5929\u7adc\u5ddd\u6c34\u7cfb\u9060\u5c71\u5ddd\u6d41\u57df\u5730\u8cea\u8abf\u67fb\u696d\u52d9","survey_name":"\u5e73\u621029\u5e74\u5ea6\u5929\u7adc\u5ddd\u6c34\u7cfb\u9060\u5c71\u5ddd\u6d41\u57df\u5730\u8cea\u8abf\u67fb\u696d\u52d9","client_name":"\u4e2d\u90e8\u5730\u65b9\u6574\u5099\u5c40\u5929\u7adc\u5ddd\u4e0a\u6d41\u6cb3\u5ddd\u4e8b\u52d9\u6240","boring_xml_url":64,"boring_view_url":1,"soilmap_view_url":null,"soiltest_xml_url":0,"soiltest_view_url":0},{"id":515887,"code":"B4KJ202201001-8423","latitude":"35.299242","longitude":"137.923103","source_code":"CB1785706320850012","project_name":"\u5e73\u621029\u5e74\u5ea6\u5929\u7adc\u5ddd\u6c34\u7cfb\u9060\u5c71\u5ddd\u6d41\u57df\u5730\u8cea\u8abf\u67fb\u696d\u52d9","survey_name":"\u5e73\u621029\u5e74\u5ea6\u5929\u7adc\u5ddd\u6c34\u7cfb\u9060\u5c71\u5ddd\u6d41\u57df\u5730\u8cea\u8abf\u67fb\u696d\u52d9","client_name":"\u4e2d\u90e8\u5730\u65b9\u6574\u5099\u5c40\u5929\u7adc\u5ddd\u4e0a\u6d41\u6cb3\u5ddd\u4e8b\u52d9\u6240","boring_xml_url":64,"boring_view_url":1,"soilmap_view_url":null,"soiltest_xml_url":0,"soiltest_view_url":0},{"id":515886,"code":"B4KJ202201001-8422","latitude":"35.300519","longitude":"137.92355","source_code":"CB1785706320850011","project_name":"\u5e73\u621029\u5e74\u5ea6\u5929\u7adc\u5ddd\u6c34\u7cfb\u9060\u5c71\u5ddd\u6d41\u57df\u5730\u8cea\u8abf\u67fb\u696d\u52d9","survey_name":"\u5e73\u621029\u5e74\u5ea6\u5929\u7adc\u5ddd\u6c34\u7cfb\u9060\u5c71\u5ddd\u6d41\u57df\u5730\u8cea\u8abf\u67fb\u696d\u52d9","client_name":"\u4e2d\u90e8\u5730\u65b9\u6574\u5099\u5c40\u5929\u7adc\u5ddd\u4e0a\u6d41\u6cb3\u5ddd\u4e8b\u52d9\u6240","boring_xml_url":64,"boring_view_url":1,"soilmap_view_url":null,"soiltest_xml_url":0,"soiltest_view_url":0},{"id":515885,"code":"B4KJ202201001-8421","latitude":"35.301222","longitude":"137.924192","source_code":"CB1785706320850010","project_name":"\u5e73\u621029\u5e74\u5ea6\u5929\u7adc\u5ddd\u6c34\u7cfb\u9060\u5c71\u5ddd\u6d41\u57df\u5730\u8cea\u8abf\u67fb\u696d\u52d9","survey_name":"\u5e73\u621029\u5e74\u5ea6\u5929\u7adc\u5ddd\u6c34\u7cfb\u9060\u5c71\u5ddd\u6d41\u57df\u5730\u8cea\u8abf\u67fb\u696d\u52d9","client_name":"\u4e2d\u90e8\u5730\u65b9\u6574\u5099\u5c40\u5929\u7adc\u5ddd\u4e0a\u6d41\u6cb3\u5ddd\u4e8b\u52d9\u6240","boring_xml_url":64,"boring_view_url":1,"soilmap_view_url":null,"soiltest_xml_url":0,"soiltest_view_url":0},{"id":515884,"code":"B4KJ202201001-8420","latitude":"35.301178","longitude":"137.924253","source_code":"CB1785706320850009","project_name":"\u5e73\u621029\u5e74\u5ea6\u5929\u7adc\u5ddd\u6c34\u7cfb\u9060\u5c71\u5ddd\u6d41\u57df\u5730\u8cea\u8abf\u67fb\u696d\u52d9","survey_name":"\u5e73\u621029\u5e74\u5ea6\u5929\u7adc\u5ddd\u6c34\u7cfb\u9060\u5c71\u5ddd\u6d41\u57df\u5730\u8cea\u8abf\u67fb\u696d\u52d9","client_name":"\u4e2d\u90e8\u5730\u65b9\u6574\u5099\u5c40\u5929\u7adc\u5ddd\u4e0a\u6d41\u6cb3\u5ddd\u4e8b\u52d9\u6240","boring_xml_url":64,"boring_view_url":1,"soilmap_view_url":null,"soiltest_xml_url":0,"soiltest_view_url":0},{"id":515883,"code":"B4KJ202201001-8419","latitude":"35.439141","longitude":"137.996268","source_code":"CB1785706320850008","project_name":"\u5e73\u621029\u5e74\u5ea6\u5929\u7adc\u5ddd\u6c34\u7cfb\u9060\u5c71\u5ddd\u6d41\u57df\u5730\u8cea\u8abf\u67fb\u696d\u52d9","survey_name":"\u5e73\u621029\u5e74\u5ea6\u5929\u7adc\u5ddd\u6c34\u7cfb\u9060\u5c71\u5ddd\u6d41\u57df\u5730\u8cea\u8abf\u67fb\u696d\u52d9","client_name":"\u4e2d\u90e8\u5730\u65b9\u6574\u5099\u5c40\u5929\u7adc\u5ddd\u4e0a\u6d41\u6cb3\u5ddd\u4e8b\u52d9\u6240","boring_xml_url":64,"boring_view_url":1,"soilmap_view_url":null,"soiltest_xml_url":0,"soiltest_view_url":0},{"id":515882,"code":"B4KJ202201001-8418","latitude":"35.438944","longitude":"137.996218","source_code":"CB1785706320850007","project_name":"\u5e73\u621029\u5e74\u5ea6\u5929\u7adc\u5ddd\u6c34\u7cfb\u9060\u5c71\u5ddd\u6d41\u57df\u5730\u8cea\u8abf\u67fb\u696d\u52d9","survey_name":"\u5e73\u621029\u5e74\u5ea6\u5929\u7adc\u5ddd\u6c34\u7cfb\u9060\u5c71\u5ddd\u6d41\u57df\u5730\u8cea\u8abf\u67fb\u696d\u52d9","client_name":"\u4e2d\u90e8\u5730\u65b9\u6574\u5099\u5c40\u5929\u7adc\u5ddd\u4e0a\u6d41\u6cb3\u5ddd\u4e8b\u52d9\u6240","boring_xml_url":64,"boring_view_url":1,"soilmap_view_url":null,"soiltest_xml_url":0,"soiltest_view_url":0},{"id":515881,"code":"B4KJ202201001-8417","latitude":"35.440119","longitude":"137.993957","source_code":"CB1785706320850006","project_name":"\u5e73\u621029\u5e74\u5ea6\u5929\u7adc\u5ddd\u6c34\u7cfb\u9060\u5c71\u5ddd\u6d41\u57df\u5730\u8cea\u8abf\u67fb\u696d\u52d9","survey_name":"\u5e73\u621029\u5e74\u5ea6\u5929\u7adc\u5ddd\u6c34\u7cfb\u9060\u5c71\u5ddd\u6d41\u57df\u5730\u8cea\u8abf\u67fb\u696d\u52d9","client_name":"\u4e2d\u90e8\u5730\u65b9\u6574\u5099\u5c40\u5929\u7adc\u5ddd\u4e0a\u6d41\u6cb3\u5ddd\u4e8b\u52d9\u6240","boring_xml_url":64,"boring_view_url":1,"soilmap_view_url":null,"soiltest_xml_url":0,"soiltest_view_url":0},{"id":515880,"code":"B4KJ202201001-8416","latitude":"35.43985","longitude":"137.993993","source_code":"CB1785706320850005","project_name":"\u5e73\u621029\u5e74\u5ea6\u5929\u7adc\u5ddd\u6c34\u7cfb\u9060\u5c71\u5ddd\u6d41\u57df\u5730\u8cea\u8abf\u67fb\u696d\u52d9","survey_name":"\u5e73\u621029\u5e74\u5ea6\u5929\u7adc\u5ddd\u6c34\u7cfb\u9060\u5c71\u5ddd\u6d41\u57df\u5730\u8cea\u8abf\u67fb\u696d\u52d9","client_name":"\u4e2d\u90e8\u5730\u65b9\u6574\u5099\u5c40\u5929\u7adc\u5ddd\u4e0a\u6d41\u6cb3\u5ddd\u4e8b\u52d9\u6240","boring_xml_url":64,"boring_view_url":1,"soilmap_view_url":null,"soiltest_xml_url":0,"soiltest_view_url":0},{"id":515879,"code":"B4KJ202201001-8415","latitude":"35.439088","longitude":"137.994098","source_code":"CB1785706320850004","project_name":"\u5e73\u621029\u5e74\u5ea6\u5929\u7adc\u5ddd\u6c34\u7cfb\u9060\u5c71\u5ddd\u6d41\u57df\u5730\u8cea\u8abf\u67fb\u696d\u52d9","survey_name":"\u5e73\u621029\u5e74\u5ea6\u5929\u7adc\u5ddd\u6c34\u7cfb\u9060\u5c71\u5ddd\u6d41\u57df\u5730\u8cea\u8abf\u67fb\u696d\u52d9","client_name":"\u4e2d\u90e8\u5730\u65b9\u6574\u5099\u5c40\u5929\u7adc\u5ddd\u4e0a\u6d41\u6cb3\u5ddd\u4e8b\u52d9\u6240","boring_xml_url":64,"boring_view_url":1,"soilmap_view_url":null,"soiltest_xml_url":0,"soiltest_view_url":0},{"id":515878,"code":"B4KJ202201001-8414","latitude":"35.387383","longitude":"138.050084","source_code":"CB1785706320850003","project_name":"\u5e73\u621029\u5e74\u5ea6\u5929\u7adc\u5ddd\u6c34\u7cfb\u9060\u5c71\u5ddd\u6d41\u57df\u5730\u8cea\u8abf\u67fb\u696d\u52d9","survey_name":"\u5e73\u621029\u5e74\u5ea6\u5929\u7adc\u5ddd\u6c34\u7cfb\u9060\u5c71\u5ddd\u6d41\u57df\u5730\u8cea\u8abf\u67fb\u696d\u52d9","client_name":"\u4e2d\u90e8\u5730\u65b9\u6574\u5099\u5c40\u5929\u7adc\u5ddd\u4e0a\u6d41\u6cb3\u5ddd\u4e8b\u52d9\u6240","boring_xml_url":64,"boring_view_url":1,"soilmap_view_url":null,"soiltest_xml_url":0,"soiltest_view_url":0},{"id":515877,"code":"B4KJ202201001-8413","latitude":"35.387114","longitude":"138.049882","source_code":"CB1785706320850002","project_name":"\u5e73\u621029\u5e74\u5ea6\u5929\u7adc\u5ddd\u6c34\u7cfb\u9060\u5c71\u5ddd\u6d41\u57df\u5730\u8cea\u8abf\u67fb\u696d\u52d9","survey_name":"\u5e73\u621029\u5e74\u5ea6\u5929\u7adc\u5ddd\u6c34\u7cfb\u9060\u5c71\u5ddd\u6d41\u57df\u5730\u8cea\u8abf\u67fb\u696d\u52d9","client_name":"\u4e2d\u90e8\u5730\u65b9\u6574\u5099\u5c40\u5929\u7adc\u5ddd\u4e0a\u6d41\u6cb3\u5ddd\u4e8b\u52d9\u6240","boring_xml_url":64,"boring_view_url":1,"soilmap_view_url":null,"soiltest_xml_url":0,"soiltest_view_url":0},{"id":515876,"code":"B4KJ202201001-8412","latitude":"35.377419","longitude":"138.06559","source_code":"CB1785706320850001","project_name":"\u5e73\u621029\u5e74\u5ea6\u5929\u7adc\u5ddd\u6c34\u7cfb\u9060\u5c71\u5ddd\u6d41\u57df\u5730\u8cea\u8abf\u67fb\u696d\u52d9","survey_name":"\u5e73\u621029\u5e74\u5ea6\u5929\u7adc\u5ddd\u6c34\u7cfb\u9060\u5c71\u5ddd\u6d41\u57df\u5730\u8cea\u8abf\u67fb\u696d\u52d9","client_name":"\u4e2d\u90e8\u5730\u65b9\u6574\u5099\u5c40\u5929\u7adc\u5ddd\u4e0a\u6d41\u6cb3\u5ddd\u4e8b\u52d9\u6240","boring_xml_url":64,"boring_view_url":1,"soilmap_view_url":null,"soiltest_xml_url":0,"soiltest_view_url":0},{"id":515875,"code":"B4KJ202201001-8411","latitude":"35.627194","longitude":"137.851833","source_code":"CB1785706320840008","project_name":"\u5e73\u621029\u5e74\u5ea6\u3000\u5929\u7adc\u5ddd\u6c34\u7cfb\u7247\u6850\u677e\u5ddd\u6d41\u57df\u5730\u8cea\u8abf\u67fb\u696d\u52d9","survey_name":"\u5e73\u621029\u5e74\u5ea6\u3000\u5929\u7adc\u5ddd\u6c34\u7cfb\u7247\u6850\u677e\u5ddd\u6d41\u57df\u5730\u8cea\u8abf\u67fb\u696d\u52d9","client_name":"\u56fd\u571f\u4ea4\u901a\u7701\u3000\u4e2d\u90e8\u5730\u65b9\u6574\u5099\u5c40\u3000\u5929\u7adc\u5ddd\u4e0a\u6d41\u6cb3\u5ddd\u4e8b\u52d9\u6240","boring_xml_url":64,"boring_view_url":1,"soilmap_view_url":null,"soiltest_xml_url":0,"soiltest_view_url":0},{"id":515874,"code":"B4KJ202201001-8410","latitude":"35.627111","longitude":"137.851778","source_code":"CB1785706320840007","project_name":"\u5e73\u621029\u5e74\u5ea6\u3000\u5929\u7adc\u5ddd\u6c34\u7cfb\u7247\u6850\u677e\u5ddd\u6d41\u57df\u5730\u8cea\u8abf\u67fb\u696d\u52d9","survey_name":"\u5e73\u621029\u5e74\u5ea6\u3000\u5929\u7adc\u5ddd\u6c34\u7cfb\u7247\u6850\u677e\u5ddd\u6d41\u57df\u5730\u8cea\u8abf\u67fb\u696d\u52d9","client_name":"\u56fd\u571f\u4ea4\u901a\u7701\u3000\u4e2d\u90e8\u5730\u65b9\u6574\u5099\u5c40\u3000\u5929\u7adc\u5ddd\u4e0a\u6d41\u6cb3\u5ddd\u4e8b\u52d9\u6240","boring_xml_url":64,"boring_view_url":1,"soilmap_view_url":null,"soiltest_xml_url":0,"soiltest_view_url":0},{"id":515873,"code":"B4KJ202201001-8409","latitude":"35.620528","longitude":"137.875583","source_code":"CB1785706320840006","project_name":"\u5e73\u621029\u5e74\u5ea6\u3000\u5929\u7adc\u5ddd\u6c34\u7cfb\u7247\u6850\u677e\u5ddd\u6d41\u57df\u5730\u8cea\u8abf\u67fb\u696d\u52d9","survey_name":"\u5e73\u621029\u5e74\u5ea6\u3000\u5929\u7adc\u5ddd\u6c34\u7cfb\u7247\u6850\u677e\u5ddd\u6d41\u57df\u5730\u8cea\u8abf\u67fb\u696d\u52d9","client_name":"\u56fd\u571f\u4ea4\u901a\u7701\u3000\u4e2d\u90e8\u5730\u65b9\u6574\u5099\u5c40\u3000\u5929\u7adc\u5ddd\u4e0a\u6d41\u6cb3\u5ddd\u4e8b\u52d9\u6240","boring_xml_url":64,"boring_view_url":1,"soilmap_view_url":null,"soiltest_xml_url":0,"soiltest_view_url":0},{"id":515872,"code":"B4KJ202201001-8408","latitude":"35.620611","longitude":"137.874694","source_code":"CB1785706320840005","project_name":"\u5e73\u621029\u5e74\u5ea6\u3000\u5929\u7adc\u5ddd\u6c34\u7cfb\u7247\u6850\u677e\u5ddd\u6d41\u57df\u5730\u8cea\u8abf\u67fb\u696d\u52d9","survey_name":"\u5e73\u621029\u5e74\u5ea6\u3000\u5929\u7adc\u5ddd\u6c34\u7cfb\u7247\u6850\u677e\u5ddd\u6d41\u57df\u5730\u8cea\u8abf\u67fb\u696d\u52d9","client_name":"\u56fd\u571f\u4ea4\u901a\u7701\u3000\u4e2d\u90e8\u5730\u65b9\u6574\u5099\u5c40\u3000\u5929\u7adc\u5ddd\u4e0a\u6d41\u6cb3\u5ddd\u4e8b\u52d9\u6240","boring_xml_url":64,"boring_view_url":1,"soilmap_view_url":null,"soiltest_xml_url":0,"soiltest_view_url":0},{"id":515871,"code":"B4KJ202201001-8407","latitude":"35.620278","longitude":"137.879139","source_code":"CB1785706320840004","project_name":"\u5e73\u621029\u5e74\u5ea6\u3000\u5929\u7adc\u5ddd\u6c34\u7cfb\u7247\u6850\u677e\u5ddd\u6d41\u57df\u5730\u8cea\u8abf\u67fb\u696d\u52d9","survey_name":"\u5e73\u621029\u5e74\u5ea6\u3000\u5929\u7adc\u5ddd\u6c34\u7cfb\u7247\u6850\u677e\u5ddd\u6d41\u57df\u5730\u8cea\u8abf\u67fb\u696d\u52d9","client_name":"\u56fd\u571f\u4ea4\u901a\u7701\u3000\u4e2d\u90e8\u5730\u65b9\u6574\u5099\u5c40\u3000\u5929\u7adc\u5ddd\u4e0a\u6d41\u6cb3\u5ddd\u4e8b\u52d9\u6240","boring_xml_url":64,"boring_view_url":1,"soilmap_view_url":null,"soiltest_xml_url":0,"soiltest_view_url":0},{"id":515870,"code":"B4KJ202201001-8406","latitude":"35.621472","longitude":"137.876111","source_code":"CB1785706320840003","project_name":"\u5e73\u621029\u5e74\u5ea6\u3000\u5929\u7adc\u5ddd\u6c34\u7cfb\u7247\u6850\u677e\u5ddd\u6d41\u57df\u5730\u8cea\u8abf\u67fb\u696d\u52d9","survey_name":"\u5e73\u621029\u5e74\u5ea6\u3000\u5929\u7adc\u5ddd\u6c34\u7cfb\u7247\u6850\u677e\u5ddd\u6d41\u57df\u5730\u8cea\u8abf\u67fb\u696d\u52d9","client_name":"\u56fd\u571f\u4ea4\u901a\u7701\u3000\u4e2d\u90e8\u5730\u65b9\u6574\u5099\u5c40\u3000\u5929\u7adc\u5ddd\u4e0a\u6d41\u6cb3\u5ddd\u4e8b\u52d9\u6240","boring_xml_url":64,"boring_view_url":1,"soilmap_view_url":null,"soiltest_xml_url":0,"soiltest_view_url":0},{"id":515869,"code":"B4KJ202201001-8405","latitude":"35.62425","longitude":"137.881472","source_code":"CB1785706320840002","project_name":"\u5e73\u621029\u5e74\u5ea6\u3000\u5929\u7adc\u5ddd\u6c34\u7cfb\u7247\u6850\u677e\u5ddd\u6d41\u57df\u5730\u8cea\u8abf\u67fb\u696d\u52d9","survey_name":"\u5e73\u621029\u5e74\u5ea6\u3000\u5929\u7adc\u5ddd\u6c34\u7cfb\u7247\u6850\u677e\u5ddd\u6d41\u57df\u5730\u8cea\u8abf\u67fb\u696d\u52d9","client_name":"\u56fd\u571f\u4ea4\u901a\u7701\u3000\u4e2d\u90e8\u5730\u65b9\u6574\u5099\u5c40\u3000\u5929\u7adc\u5ddd\u4e0a\u6d41\u6cb3\u5ddd\u4e8b\u52d9\u6240","boring_xml_url":64,"boring_view_url":1,"soilmap_view_url":null,"soiltest_xml_url":0,"soiltest_view_url":0}]}}