{"header":{"xyz":{"source":[],"mosaic":false},"page":985,"raw":{"soiltest_result":"0","bbox":"57.598333,109.544722,1.933333,163.806111","page":"985"},"conditions":{"soiltest_result":0,"north":57.598333,"west":109.544722,"south":1.933333,"east":163.806111},"success":true,"message":""},"data":{"meta":{"total":212844,"page":985,"pages":7095,"count":30},"values":[{"id":515868,"code":"B4KJ202201001-8404","latitude":"35.624167","longitude":"137.881306","source_code":"CB1785706320840001","project_name":"\u5e73\u621029\u5e74\u5ea6\u3000\u5929\u7adc\u5ddd\u6c34\u7cfb\u7247\u6850\u677e\u5ddd\u6d41\u57df\u5730\u8cea\u8abf\u67fb\u696d\u52d9","survey_name":"\u5e73\u621029\u5e74\u5ea6\u3000\u5929\u7adc\u5ddd\u6c34\u7cfb\u7247\u6850\u677e\u5ddd\u6d41\u57df\u5730\u8cea\u8abf\u67fb\u696d\u52d9","client_name":"\u56fd\u571f\u4ea4\u901a\u7701\u3000\u4e2d\u90e8\u5730\u65b9\u6574\u5099\u5c40\u3000\u5929\u7adc\u5ddd\u4e0a\u6d41\u6cb3\u5ddd\u4e8b\u52d9\u6240","boring_xml_url":64,"boring_view_url":1,"soilmap_view_url":null,"soiltest_xml_url":0,"soiltest_view_url":0},{"id":515867,"code":"B4KJ202201001-8403","latitude":"35.7422","longitude":"138.032882","source_code":"CB1785706320830006","project_name":"\u65b0\u5bae\u5ddd\u6c34\u7cfb\u7802\u9632\u65bd\u8a2d\u65b0\u8a2d\u4e8b\u696d","survey_name":"\u5e73\u621029\u5e74\u5ea6\u3000\u5929\u7adc\u5ddd\u6c34\u7cfb\u65b0\u5bae\u5ddd\u6d41\u57df\u5730\u8cea\u8abf\u67fb\u696d\u52d9","client_name":"\u56fd\u571f\u4ea4\u901a\u7701\u4e2d\u90e8\u5730\u65b9\u6574\u5099\u5c40\u5929\u7adc\u5ddd\u30c0\u30e0\u7d71\u5408\u7ba1\u7406\u4e8b\u52d9\u6240","boring_xml_url":64,"boring_view_url":1,"soilmap_view_url":null,"soiltest_xml_url":0,"soiltest_view_url":0},{"id":515866,"code":"B4KJ202201001-8402","latitude":"35.730322","longitude":"137.993248","source_code":"CB1785706320830005","project_name":"\u65b0\u5bae\u5ddd\u6c34\u7cfb\u7802\u9632\u65bd\u8a2d\u65b0\u8a2d\u4e8b\u696d","survey_name":"\u5e73\u621029\u5e74\u5ea6\u3000\u5929\u7adc\u5ddd\u6c34\u7cfb\u65b0\u5bae\u5ddd\u6d41\u57df\u5730\u8cea\u8abf\u67fb\u696d\u52d9","client_name":"\"\u56fd\u571f\u4ea4\u901a\u7701 \u4e2d\u90e8\u5730\u65b9\u6574\u5099\u5c40 \u5929\u7adc\u5ddd\u4e0a\u6d41\u6cb3\u5ddd\u4e8b\u52d9\u6240\"","boring_xml_url":64,"boring_view_url":1,"soilmap_view_url":null,"soiltest_xml_url":0,"soiltest_view_url":0},{"id":515865,"code":"B4KJ202201001-8401","latitude":"35.733881","longitude":"137.992729","source_code":"CB1785706320830004","project_name":"\u65b0\u5bae\u5ddd\u6c34\u7cfb\u7802\u9632\u65bd\u8a2d\u65b0\u8a2d\u4e8b\u696d","survey_name":"\u5e73\u621029\u5e74\u5ea6\u3000\u5929\u7adc\u5ddd\u6c34\u7cfb\u65b0\u5bae\u5ddd\u6d41\u57df\u5730\u8cea\u8abf\u67fb\u696d\u52d9","client_name":"\"\u56fd\u571f\u4ea4\u901a\u7701 \u4e2d\u90e8\u5730\u65b9\u6574\u5099\u5c40 \u5929\u7adc\u5ddd\u4e0a\u6d41\u6cb3\u5ddd\u4e8b\u52d9\u6240\"","boring_xml_url":64,"boring_view_url":1,"soilmap_view_url":null,"soiltest_xml_url":0,"soiltest_view_url":0},{"id":515864,"code":"B4KJ202201001-8400","latitude":"35.733636","longitude":"137.994341","source_code":"CB1785706320830003","project_name":"\u65b0\u5bae\u5ddd\u6c34\u7cfb\u7802\u9632\u65bd\u8a2d\u65b0\u8a2d\u4e8b\u696d","survey_name":"\u5e73\u621029\u5e74\u5ea6\u3000\u5929\u7adc\u5ddd\u6c34\u7cfb\u65b0\u5bae\u5ddd\u6d41\u57df\u5730\u8cea\u8abf\u67fb\u696d\u52d9","client_name":"\"\u56fd\u571f\u4ea4\u901a\u7701 \u4e2d\u90e8\u5730\u65b9\u6574\u5099\u5c40 \u5929\u7adc\u5ddd\u4e0a\u6d41\u6cb3\u5ddd\u4e8b\u52d9\u6240\"","boring_xml_url":64,"boring_view_url":1,"soilmap_view_url":null,"soiltest_xml_url":0,"soiltest_view_url":0},{"id":515863,"code":"B4KJ202201001-8399","latitude":"35.734363","longitude":"137.993382","source_code":"CB1785706320830002","project_name":"\u65b0\u5bae\u5ddd\u6c34\u7cfb\u7802\u9632\u65bd\u8a2d\u65b0\u8a2d\u4e8b\u696d","survey_name":"\u5e73\u621029\u5e74\u5ea6\u3000\u5929\u7adc\u5ddd\u6c34\u7cfb\u65b0\u5bae\u5ddd\u6d41\u57df\u5730\u8cea\u8abf\u67fb\u696d\u52d9","client_name":"\"\u56fd\u571f\u4ea4\u901a\u7701 \u4e2d\u90e8\u5730\u65b9\u6574\u5099\u5c40 \u5929\u7adc\u5ddd\u4e0a\u6d41\u6cb3\u5ddd\u4e8b\u52d9\u6240\"","boring_xml_url":64,"boring_view_url":1,"soilmap_view_url":null,"soiltest_xml_url":0,"soiltest_view_url":0},{"id":515862,"code":"B4KJ202201001-8398","latitude":"35.736221","longitude":"137.993748","source_code":"CB1785706320830001","project_name":"\u65b0\u5bae\u5ddd\u6c34\u7cfb\u7802\u9632\u65bd\u8a2d\u65b0\u8a2d\u4e8b\u696d","survey_name":"\u5e73\u621029\u5e74\u5ea6\u3000\u5929\u7adc\u5ddd\u6c34\u7cfb\u65b0\u5bae\u5ddd\u6d41\u57df\u5730\u8cea\u8abf\u67fb\u696d\u52d9","client_name":"\"\u56fd\u571f\u4ea4\u901a\u7701 \u4e2d\u90e8\u5730\u65b9\u6574\u5099\u5c40 \u5929\u7adc\u5ddd\u4e0a\u6d41\u6cb3\u5ddd\u4e8b\u52d9\u6240\"","boring_xml_url":64,"boring_view_url":1,"soilmap_view_url":null,"soiltest_xml_url":0,"soiltest_view_url":0},{"id":515861,"code":"B4KJ202201001-8397","latitude":"35.583389","longitude":"138.059279","source_code":"CB1785706320820008","project_name":"\u5e73\u621029\u5e74\u5ea6\u3000\u5929\u7adc\u5ddd\u6c34\u7cfb\u9e7f\u5869\u5ddd\u6d41\u57df\u5730\u8cea\u8abf\u67fb\u696d\u52d9","survey_name":"\u5e73\u621029\u5e74\u5ea6\u3000\u5929\u7adc\u5ddd\u6c34\u7cfb\u9e7f\u5869\u5ddd\u6d41\u57df\u5730\u8cea\u8abf\u67fb\u696d\u52d9","client_name":"\u56fd\u571f\u4ea4\u901a\u7701\u3000\u4e2d\u90e8\u5730\u65b9\u6574\u5099\u5c40\u3000\u5929\u7adc\u5ddd\u4e0a\u6d41\u6cb3\u5ddd\u4e8b\u52d9\u6240","boring_xml_url":64,"boring_view_url":1,"soilmap_view_url":null,"soiltest_xml_url":0,"soiltest_view_url":0},{"id":515860,"code":"B4KJ202201001-8396","latitude":"35.581764","longitude":"138.058685","source_code":"CB1785706320820007","project_name":"\u5e73\u621029\u5e74\u5ea6\u3000\u5929\u7adc\u5ddd\u6c34\u7cfb\u9e7f\u5869\u5ddd\u6d41\u57df\u5730\u8cea\u8abf\u67fb\u696d\u52d9","survey_name":"\u5e73\u621029\u5e74\u5ea6\u3000\u5929\u7adc\u5ddd\u6c34\u7cfb\u9e7f\u5869\u5ddd\u6d41\u57df\u5730\u8cea\u8abf\u67fb\u696d\u52d9","client_name":"\u56fd\u571f\u4ea4\u901a\u7701\u3000\u4e2d\u90e8\u5730\u65b9\u6574\u5099\u5c40\u3000\u5929\u7adc\u5ddd\u4e0a\u6d41\u6cb3\u5ddd\u4e8b\u52d9\u6240","boring_xml_url":64,"boring_view_url":1,"soilmap_view_url":null,"soiltest_xml_url":0,"soiltest_view_url":0},{"id":515859,"code":"B4KJ202201001-8395","latitude":"35.581472","longitude":"138.061918","source_code":"CB1785706320820006","project_name":"\u5e73\u621029\u5e74\u5ea6\u3000\u5929\u7adc\u5ddd\u6c34\u7cfb\u9e7f\u5869\u5ddd\u6d41\u57df\u5730\u8cea\u8abf\u67fb\u696d\u52d9","survey_name":"\u5e73\u621029\u5e74\u5ea6\u3000\u5929\u7adc\u5ddd\u6c34\u7cfb\u9e7f\u5869\u5ddd\u6d41\u57df\u5730\u8cea\u8abf\u67fb\u696d\u52d9","client_name":"\u56fd\u571f\u4ea4\u901a\u7701\u3000\u4e2d\u90e8\u5730\u65b9\u6574\u5099\u5c40\u3000\u5929\u7adc\u5ddd\u4e0a\u6d41\u6cb3\u5ddd\u4e8b\u52d9\u6240","boring_xml_url":64,"boring_view_url":1,"soilmap_view_url":null,"soiltest_xml_url":0,"soiltest_view_url":0},{"id":515858,"code":"B4KJ202201001-8394","latitude":"35.604278","longitude":"138.083188","source_code":"CB1785706320820005","project_name":"\u5e73\u621029\u5e74\u5ea6\u3000\u5929\u7adc\u5ddd\u6c34\u7cfb\u9e7f\u5869\u5ddd\u6d41\u57df\u5730\u8cea\u8abf\u67fb\u696d\u52d9","survey_name":"\u5e73\u621029\u5e74\u5ea6\u3000\u5929\u7adc\u5ddd\u6c34\u7cfb\u9e7f\u5869\u5ddd\u6d41\u57df\u5730\u8cea\u8abf\u67fb\u696d\u52d9","client_name":"\u56fd\u571f\u4ea4\u901a\u7701\u3000\u4e2d\u90e8\u5730\u65b9\u6574\u5099\u5c40\u3000\u5929\u7adc\u5ddd\u4e0a\u6d41\u6cb3\u5ddd\u4e8b\u52d9\u6240","boring_xml_url":64,"boring_view_url":1,"soilmap_view_url":null,"soiltest_xml_url":0,"soiltest_view_url":0},{"id":515857,"code":"B4KJ202201001-8393","latitude":"35.599997","longitude":"138.081862","source_code":"CB1785706320820004","project_name":"\u5e73\u621029\u5e74\u5ea6\u3000\u5929\u7adc\u5ddd\u6c34\u7cfb\u9e7f\u5869\u5ddd\u6d41\u57df\u5730\u8cea\u8abf\u67fb\u696d\u52d9","survey_name":"\u5e73\u621029\u5e74\u5ea6\u3000\u5929\u7adc\u5ddd\u6c34\u7cfb\u9e7f\u5869\u5ddd\u6d41\u57df\u5730\u8cea\u8abf\u67fb\u696d\u52d9","client_name":"\u56fd\u571f\u4ea4\u901a\u7701\u3000\u4e2d\u90e8\u5730\u65b9\u6574\u5099\u5c40\u3000\u5929\u7adc\u5ddd\u4e0a\u6d41\u6cb3\u5ddd\u4e8b\u52d9\u6240","boring_xml_url":64,"boring_view_url":1,"soilmap_view_url":null,"soiltest_xml_url":0,"soiltest_view_url":0},{"id":515856,"code":"B4KJ202201001-8392","latitude":"35.680214","longitude":"138.060315","source_code":"CB1785706320820003","project_name":"\u5e73\u621029\u5e74\u5ea6\u3000\u5929\u7adc\u5ddd\u6c34\u7cfb\u9e7f\u5869\u5ddd\u6d41\u57df\u5730\u8cea\u8abf\u67fb\u696d\u52d9","survey_name":"\u5e73\u621029\u5e74\u5ea6\u3000\u5929\u7adc\u5ddd\u6c34\u7cfb\u9e7f\u5869\u5ddd\u6d41\u57df\u5730\u8cea\u8abf\u67fb\u696d\u52d9","client_name":"\u56fd\u571f\u4ea4\u901a\u7701\u3000\u4e2d\u90e8\u5730\u65b9\u6574\u5099\u5c40\u3000\u5929\u7adc\u5ddd\u4e0a\u6d41\u6cb3\u5ddd\u4e8b\u52d9\u6240","boring_xml_url":64,"boring_view_url":1,"soilmap_view_url":null,"soiltest_xml_url":0,"soiltest_view_url":0},{"id":515855,"code":"B4KJ202201001-8391","latitude":"35.680378","longitude":"138.061379","source_code":"CB1785706320820002","project_name":"\u5e73\u621029\u5e74\u5ea6\u3000\u5929\u7adc\u5ddd\u6c34\u7cfb\u9e7f\u5869\u5ddd\u6d41\u57df\u5730\u8cea\u8abf\u67fb\u696d\u52d9","survey_name":"\u5e73\u621029\u5e74\u5ea6\u3000\u5929\u7adc\u5ddd\u6c34\u7cfb\u9e7f\u5869\u5ddd\u6d41\u57df\u5730\u8cea\u8abf\u67fb\u696d\u52d9","client_name":"\u56fd\u571f\u4ea4\u901a\u7701\u3000\u4e2d\u90e8\u5730\u65b9\u6574\u5099\u5c40\u3000\u5929\u7adc\u5ddd\u4e0a\u6d41\u6cb3\u5ddd\u4e8b\u52d9\u6240","boring_xml_url":64,"boring_view_url":1,"soilmap_view_url":null,"soiltest_xml_url":0,"soiltest_view_url":0},{"id":515854,"code":"B4KJ202201001-8390","latitude":"35.680061","longitude":"138.06121","source_code":"CB1785706320820001","project_name":"\u5e73\u621029\u5e74\u5ea6\u3000\u5929\u7adc\u5ddd\u6c34\u7cfb\u9e7f\u5869\u5ddd\u6d41\u57df\u5730\u8cea\u8abf\u67fb\u696d\u52d9","survey_name":"\u5e73\u621029\u5e74\u5ea6\u3000\u5929\u7adc\u5ddd\u6c34\u7cfb\u9e7f\u5869\u5ddd\u6d41\u57df\u5730\u8cea\u8abf\u67fb\u696d\u52d9","client_name":"\u56fd\u571f\u4ea4\u901a\u7701\u4e2d\u90e8\u5730\u65b9\u6574\u5099\u5c40\u5929\u7adc\u5ddd\u4e0a\u6d41\u6cb3\u5ddd\u4e8b\u52d9\u6240","boring_xml_url":64,"boring_view_url":1,"soilmap_view_url":null,"soiltest_xml_url":0,"soiltest_view_url":0},{"id":515853,"code":"B4KJ202201001-8389","latitude":"35.894288","longitude":"138.127254","source_code":"CB1785706320730016","project_name":"(\u8d64\u7b39\u6ca2\u7802\u9632\u5830\u5824\u7ba1\u7406\u7528\u9053\u8def\u5730\u8cea\u8abf\u67fb)","survey_name":"\u5e73\u621029\u5e74\u5ea6\u3000\u5929\u7adc\u5ddd\u6c34\u7cfb\u4e09\u5cf0\u5ddd\u6d41\u57df\u5730\u8cea\u8abf\u67fb\u696d\u52d9","client_name":"\u56fd\u571f\u4ea4\u901a\u7701\u4e2d\u90e8\u5730\u65b9\u6574\u5099\u5c40\u5929\u7adc\u5ddd\u4e0a\u6d41\u6cb3\u5ddd\u4e8b\u52d9\u6240","boring_xml_url":64,"boring_view_url":1,"soilmap_view_url":null,"soiltest_xml_url":0,"soiltest_view_url":0},{"id":515852,"code":"B4KJ202201001-8388","latitude":"35.894701","longitude":"138.127717","source_code":"CB1785706320730015","project_name":"(\u8d64\u7b39\u6ca2\u7802\u9632\u5830\u5824\u7ba1\u7406\u7528\u9053\u8def\u5730\u8cea\u8abf\u67fb)","survey_name":"\u5e73\u621029\u5e74\u5ea6\u3000\u5929\u7adc\u5ddd\u6c34\u7cfb\u4e09\u5cf0\u5ddd\u6d41\u57df\u5730\u8cea\u8abf\u67fb\u696d\u52d9","client_name":"\u56fd\u571f\u4ea4\u901a\u7701\u4e2d\u90e8\u5730\u65b9\u6574\u5099\u5c40\u5929\u7adc\u5ddd\u4e0a\u6d41\u6cb3\u5ddd\u4e8b\u52d9\u6240","boring_xml_url":64,"boring_view_url":1,"soilmap_view_url":null,"soiltest_xml_url":0,"soiltest_view_url":0},{"id":515851,"code":"B4KJ202201001-8387","latitude":"35.883333","longitude":"138.12917","source_code":"CB1785706320730014","project_name":"(\u8d64\u7b39\u6ca2\u7802\u9632\u5830\u5824\u7ba1\u7406\u7528\u9053\u8def\u5730\u8cea\u8abf\u67fb)","survey_name":"\u5e73\u621029\u5e74\u5ea6\u3000\u5929\u7adc\u5ddd\u6c34\u7cfb\u4e09\u5cf0\u5ddd\u6d41\u57df\u5730\u8cea\u8abf\u67fb\u696d\u52d9","client_name":"\u56fd\u571f\u4ea4\u901a\u7701\u4e2d\u90e8\u5730\u65b9\u6574\u5099\u5c40\u5929\u7adc\u5ddd\u4e0a\u6d41\u6cb3\u5ddd\u4e8b\u52d9\u6240","boring_xml_url":64,"boring_view_url":1,"soilmap_view_url":null,"soiltest_xml_url":0,"soiltest_view_url":0},{"id":515850,"code":"B4KJ202201001-8386","latitude":"35.89438","longitude":"138.127732","source_code":"CB1785706320730013","project_name":"(\u8d64\u7b39\u6ca2\u7802\u9632\u5830\u5824\u7ba1\u7406\u7528\u9053\u8def\u5730\u8cea\u8abf\u67fb)","survey_name":"\u5e73\u621029\u5e74\u5ea6\u3000\u5929\u7adc\u5ddd\u6c34\u7cfb\u4e09\u5cf0\u5ddd\u6d41\u57df\u5730\u8cea\u8abf\u67fb\u696d\u52d9","client_name":"\u56fd\u571f\u4ea4\u901a\u7701\u4e2d\u90e8\u5730\u65b9\u6574\u5099\u5c40\u5929\u7adc\u5ddd\u4e0a\u6d41\u6cb3\u5ddd\u4e8b\u52d9\u6240","boring_xml_url":64,"boring_view_url":1,"soilmap_view_url":null,"soiltest_xml_url":0,"soiltest_view_url":0},{"id":515849,"code":"B4KJ202201001-8385","latitude":"35.89406","longitude":"138.130091","source_code":"CB1785706320730012","project_name":"(\u8d64\u7b39\u6ca2\u7802\u9632\u5830\u5824\u7ba1\u7406\u7528\u9053\u8def\u5730\u8cea\u8abf\u67fb)","survey_name":"\u5e73\u621029\u5e74\u5ea6\u3000\u5929\u7adc\u5ddd\u6c34\u7cfb\u4e09\u5cf0\u5ddd\u6d41\u57df\u5730\u8cea\u8abf\u67fb\u696d\u52d9","client_name":"\u56fd\u571f\u4ea4\u901a\u7701\u4e2d\u90e8\u5730\u65b9\u6574\u5099\u5c40\u5929\u7adc\u5ddd\u4e0a\u6d41\u6cb3\u5ddd\u4e8b\u52d9\u6240","boring_xml_url":64,"boring_view_url":1,"soilmap_view_url":null,"soiltest_xml_url":0,"soiltest_view_url":0},{"id":515848,"code":"B4KJ202201001-8384","latitude":"35.894083","longitude":"138.12932","source_code":"CB1785706320730011","project_name":"(\u8d64\u7b39\u6ca2\u7802\u9632\u5830\u5824\u7ba1\u7406\u7528\u9053\u8def\u5730\u8cea\u8abf\u67fb)","survey_name":"\u5e73\u621029\u5e74\u5ea6\u3000\u5929\u7adc\u5ddd\u6c34\u7cfb\u4e09\u5cf0\u5ddd\u6d41\u57df\u5730\u8cea\u8abf\u67fb\u696d\u52d9","client_name":"\u56fd\u571f\u4ea4\u901a\u7701\u4e2d\u90e8\u5730\u65b9\u6574\u5099\u5c40\u5929\u7adc\u5ddd\u4e0a\u6d41\u6cb3\u5ddd\u4e8b\u52d9\u6240","boring_xml_url":64,"boring_view_url":1,"soilmap_view_url":null,"soiltest_xml_url":0,"soiltest_view_url":0},{"id":515847,"code":"B4KJ202201001-8383","latitude":"35.89402","longitude":"138.128672","source_code":"CB1785706320730010","project_name":"(\u8d64\u7b39\u6ca2\u7802\u9632\u5830\u5824\u7ba1\u7406\u7528\u9053\u8def\u5730\u8cea\u8abf\u67fb)","survey_name":"\u5e73\u621029\u5e74\u5ea6\u3000\u5929\u7adc\u5ddd\u6c34\u7cfb\u4e09\u5cf0\u5ddd\u6d41\u57df\u5730\u8cea\u8abf\u67fb\u696d\u52d9","client_name":"\u56fd\u571f\u4ea4\u901a\u7701\u4e2d\u90e8\u5730\u65b9\u6574\u5099\u5c40\u5929\u7adc\u5ddd\u4e0a\u6d41\u6cb3\u5ddd\u4e8b\u52d9\u6240","boring_xml_url":64,"boring_view_url":1,"soilmap_view_url":null,"soiltest_xml_url":0,"soiltest_view_url":0},{"id":515846,"code":"B4KJ202201001-8382","latitude":"35.893831","longitude":"138.128082","source_code":"CB1785706320730009","project_name":"(\u8d64\u7b39\u6ca2\u7802\u9632\u5830\u5824\u7ba1\u7406\u7528\u9053\u8def\u5730\u8cea\u8abf\u67fb)","survey_name":"\u5e73\u621029\u5e74\u5ea6\u3000\u5929\u7adc\u5ddd\u6c34\u7cfb\u4e09\u5cf0\u5ddd\u6d41\u57df\u5730\u8cea\u8abf\u67fb\u696d\u52d9","client_name":"\u56fd\u571f\u4ea4\u901a\u7701\u4e2d\u90e8\u5730\u65b9\u6574\u5099\u5c40\u5929\u7adc\u5ddd\u4e0a\u6d41\u6cb3\u5ddd\u4e8b\u52d9\u6240","boring_xml_url":64,"boring_view_url":1,"soilmap_view_url":null,"soiltest_xml_url":0,"soiltest_view_url":0},{"id":515845,"code":"B4KJ202201001-8381","latitude":"35.708417","longitude":"138.068557","source_code":"CB1785706320730008","project_name":"","survey_name":"\u5e73\u621029\u5e74\u5ea6\u3000\u5929\u7adc\u5ddd\u6c34\u7cfb\u4e09\u5cf0\u5ddd\u6d41\u57df\u5730\u8cea\u8abf\u67fb\u696d\u52d9","client_name":"\u56fd\u571f\u4ea4\u901a\u7701\u4e2d\u90e8\u5730\u65b9\u6574\u5099\u5c40\u5929\u7adc\u5ddd\u4e0a\u6d41\u6cb3\u5ddd\u4e8b\u52d9\u6240","boring_xml_url":64,"boring_view_url":1,"soilmap_view_url":null,"soiltest_xml_url":0,"soiltest_view_url":0},{"id":515844,"code":"B4KJ202201001-8380","latitude":"35.714417","longitude":"138.067474","source_code":"CB1785706320730007","project_name":"","survey_name":"\u5e73\u621029\u5e74\u5ea6\u3000\u5929\u7adc\u5ddd\u6c34\u7cfb\u4e09\u5cf0\u5ddd\u6d41\u57df\u5730\u8cea\u8abf\u67fb\u696d\u52d9","client_name":"\u56fd\u571f\u4ea4\u901a\u7701\u4e2d\u90e8\u5730\u65b9\u6574\u5099\u5c40\u5929\u7adc\u5ddd\u4e0a\u6d41\u6cb3\u5ddd\u4e8b\u52d9\u6240","boring_xml_url":64,"boring_view_url":1,"soilmap_view_url":null,"soiltest_xml_url":0,"soiltest_view_url":0},{"id":515843,"code":"B4KJ202201001-8379","latitude":"35.915972","longitude":"138.149557","source_code":"CB1785706320730006","project_name":"","survey_name":"\u5e73\u621029\u5e74\u5ea6\u3000\u5929\u7adc\u5ddd\u6c34\u7cfb\u4e09\u5cf0\u5ddd\u6d41\u57df\u5730\u8cea\u8abf\u67fb\u696d\u52d9","client_name":"\u56fd\u571f\u4ea4\u901a\u7701\u4e2d\u90e8\u5730\u65b9\u6574\u5099\u5c40\u5929\u7adc\u5ddd\u4e0a\u6d41\u6cb3\u5ddd\u4e8b\u52d9\u6240","boring_xml_url":64,"boring_view_url":1,"soilmap_view_url":null,"soiltest_xml_url":0,"soiltest_view_url":0},{"id":515842,"code":"B4KJ202201001-8378","latitude":"35.708472","longitude":"138.068668","source_code":"CB1785706320730005","project_name":"","survey_name":"\u5e73\u621029\u5e74\u5ea6\u3000\u5929\u7adc\u5ddd\u6c34\u7cfb\u4e09\u5cf0\u5ddd\u6d41\u57df\u5730\u8cea\u8abf\u67fb\u696d\u52d9","client_name":"\u56fd\u571f\u4ea4\u901a\u7701\u4e2d\u90e8\u5730\u65b9\u6574\u5099\u5c40\u5929\u7adc\u5ddd\u4e0a\u6d41\u6cb3\u5ddd\u4e8b\u52d9\u6240","boring_xml_url":64,"boring_view_url":1,"soilmap_view_url":null,"soiltest_xml_url":0,"soiltest_view_url":0},{"id":515841,"code":"B4KJ202201001-8377","latitude":"35.708472","longitude":"138.068668","source_code":"CB1785706320730004","project_name":"","survey_name":"\u5e73\u621029\u5e74\u5ea6\u3000\u5929\u7adc\u5ddd\u6c34\u7cfb\u4e09\u5cf0\u5ddd\u6d41\u57df\u5730\u8cea\u8abf\u67fb\u696d\u52d9","client_name":"\u56fd\u571f\u4ea4\u901a\u7701\u4e2d\u90e8\u5730\u65b9\u6574\u5099\u5c40\u5929\u7adc\u5ddd\u4e0a\u6d41\u6cb3\u5ddd\u4e8b\u52d9\u6240","boring_xml_url":64,"boring_view_url":1,"soilmap_view_url":null,"soiltest_xml_url":0,"soiltest_view_url":0},{"id":515840,"code":"B4KJ202201001-8376","latitude":"35.917454","longitude":"138.146195","source_code":"CB1785706320730003","project_name":"","survey_name":"\u5e73\u621029\u5e74\u5ea6\u3000\u5929\u7adc\u5ddd\u6c34\u7cfb\u4e09\u5cf0\u5ddd\u6d41\u57df\u5730\u8cea\u8abf\u67fb\u696d\u52d9","client_name":"\u56fd\u571f\u4ea4\u901a\u7701\u4e2d\u90e8\u5730\u65b9\u6574\u5099\u5c40\u5929\u7adc\u5ddd\u4e0a\u6d41\u6cb3\u5ddd\u4e8b\u52d9\u6240","boring_xml_url":64,"boring_view_url":1,"soilmap_view_url":null,"soiltest_xml_url":0,"soiltest_view_url":0},{"id":515839,"code":"B4KJ202201001-8375","latitude":"35.915972","longitude":"138.149669","source_code":"CB1785706320730002","project_name":"","survey_name":"\u5e73\u621029\u5e74\u5ea6\u3000\u5929\u7adc\u5ddd\u6c34\u7cfb\u4e09\u5cf0\u5ddd\u6d41\u57df\u5730\u8cea\u8abf\u67fb\u696d\u52d9","client_name":"\u56fd\u571f\u4ea4\u901a\u7701\u4e2d\u90e8\u5730\u65b9\u6574\u5099\u5c40\u5929\u7adc\u5ddd\u4e0a\u6d41\u6cb3\u5ddd\u4e8b\u52d9\u6240","boring_xml_url":64,"boring_view_url":1,"soilmap_view_url":null,"soiltest_xml_url":0,"soiltest_view_url":0}]}}