{"header":{"xyz":{"source":[],"mosaic":false},"page":99,"raw":{"soiltest_result":"0","bbox":"57.598333,109.544722,1.933333,163.806111","page":"99"},"conditions":{"soiltest_result":0,"north":57.598333,"west":109.544722,"south":1.933333,"east":163.806111},"success":true,"message":""},"data":{"meta":{"total":212844,"page":99,"pages":7095,"count":30},"values":[{"id":692879,"code":"NGIC202303757-0001","latitude":"33.633795833333","longitude":"130.71854722222","source_code":"","project_name":"","survey_name":"\u4ee4\u548c4\u5e74\u5ea6\u516b\u5e61\u884c\u6a4b\u7ba1\u5185\u9053\u8def\u4fee\u7e55\u8a2d\u8a08\u5916\u696d\u52d9","client_name":"\u56fd\u571f\u4ea4\u901a\u7701\u4e5d\u5dde\u5730\u65b9\u6574\u5099\u5c40\u5317\u4e5d\u5dde\u56fd\u9053\u4e8b\u52d9\u6240","boring_xml_url":47,"boring_view_url":1,"soilmap_view_url":null,"soiltest_xml_url":0,"soiltest_view_url":0},{"id":692868,"code":"NGIC202303804-0019","latitude":"44.964469444444","longitude":"142.05811111111","source_code":"","project_name":"","survey_name":"\u5929\u5869\u5ddd\u4e0b\u6d41\u5de5\u4e8b\u7b87\u6240\u5730\u8cea\u8abf\u67fb\u5916\u696d\u52d9","client_name":"\u56fd\u571f\u4ea4\u901a\u7701\u5317\u6d77\u9053\u958b\u767a\u5c40\u7559\u840c\u958b\u767a\u5efa\u8a2d\u90e8\u5e4c\u5ef6\u6cb3\u5ddd\u4e8b\u52d9\u6240","boring_xml_url":47,"boring_view_url":1,"soilmap_view_url":null,"soiltest_xml_url":0,"soiltest_view_url":0},{"id":692867,"code":"NGIC202303804-0012","latitude":"44.964919444444","longitude":"142.05909722222","source_code":"","project_name":"","survey_name":"\u5929\u5869\u5ddd\u4e0b\u6d41\u5de5\u4e8b\u7b87\u6240\u5730\u8cea\u8abf\u67fb\u5916\u696d\u52d9","client_name":"\u56fd\u571f\u4ea4\u901a\u7701\u5317\u6d77\u9053\u958b\u767a\u5c40\u7559\u840c\u958b\u767a\u5efa\u8a2d\u90e8\u5e4c\u5ef6\u6cb3\u5ddd\u4e8b\u52d9\u6240","boring_xml_url":47,"boring_view_url":1,"soilmap_view_url":null,"soiltest_xml_url":0,"soiltest_view_url":0},{"id":692866,"code":"NGIC202303804-0011","latitude":"44.933541666667","longitude":"142.034025","source_code":"","project_name":"","survey_name":"\u5929\u5869\u5ddd\u4e0b\u6d41\u5de5\u4e8b\u7b87\u6240\u5730\u8cea\u8abf\u67fb\u5916\u696d\u52d9","client_name":"\u56fd\u571f\u4ea4\u901a\u7701\u5317\u6d77\u9053\u958b\u767a\u5c40\u7559\u840c\u958b\u767a\u5efa\u8a2d\u90e8\u5e4c\u5ef6\u6cb3\u5ddd\u4e8b\u52d9\u6240","boring_xml_url":47,"boring_view_url":1,"soilmap_view_url":null,"soiltest_xml_url":47,"soiltest_view_url":47},{"id":692865,"code":"NGIC202303804-0009","latitude":"44.917836111111","longitude":"142.01043333333","source_code":"","project_name":"","survey_name":"\u5929\u5869\u5ddd\u4e0b\u6d41\u5de5\u4e8b\u7b87\u6240\u5730\u8cea\u8abf\u67fb\u5916\u696d\u52d9","client_name":"\u56fd\u571f\u4ea4\u901a\u7701\u5317\u6d77\u9053\u958b\u767a\u5c40\u7559\u840c\u958b\u767a\u5efa\u8a2d\u90e8\u5e4c\u5ef6\u6cb3\u5ddd\u4e8b\u52d9\u6240","boring_xml_url":47,"boring_view_url":1,"soilmap_view_url":null,"soiltest_xml_url":0,"soiltest_view_url":0},{"id":692864,"code":"NGIC202303804-0008","latitude":"44.898883333333","longitude":"142.00671944444","source_code":"","project_name":"","survey_name":"\u5929\u5869\u5ddd\u4e0b\u6d41\u5de5\u4e8b\u7b87\u6240\u5730\u8cea\u8abf\u67fb\u5916\u696d\u52d9","client_name":"\u56fd\u571f\u4ea4\u901a\u7701\u5317\u6d77\u9053\u958b\u767a\u5c40\u7559\u840c\u958b\u767a\u5efa\u8a2d\u90e8\u5e4c\u5ef6\u6cb3\u5ddd\u4e8b\u52d9\u6240","boring_xml_url":47,"boring_view_url":1,"soilmap_view_url":null,"soiltest_xml_url":47,"soiltest_view_url":47},{"id":692863,"code":"NGIC202303804-0007","latitude":"44.898358333333","longitude":"142.00665833333","source_code":"","project_name":"","survey_name":"\u5929\u5869\u5ddd\u4e0b\u6d41\u5de5\u4e8b\u7b87\u6240\u5730\u8cea\u8abf\u67fb\u5916\u696d\u52d9","client_name":"\u56fd\u571f\u4ea4\u901a\u7701\u5317\u6d77\u9053\u958b\u767a\u5c40\u7559\u840c\u958b\u767a\u5efa\u8a2d\u90e8\u5e4c\u5ef6\u6cb3\u5ddd\u4e8b\u52d9\u6240","boring_xml_url":47,"boring_view_url":1,"soilmap_view_url":null,"soiltest_xml_url":0,"soiltest_view_url":0},{"id":692862,"code":"NGIC202303804-0006","latitude":"44.898005555556","longitude":"142.00661388889","source_code":"","project_name":"","survey_name":"\u5929\u5869\u5ddd\u4e0b\u6d41\u5de5\u4e8b\u7b87\u6240\u5730\u8cea\u8abf\u67fb\u5916\u696d\u52d9","client_name":"\u56fd\u571f\u4ea4\u901a\u7701\u5317\u6d77\u9053\u958b\u767a\u5c40\u7559\u840c\u958b\u767a\u5efa\u8a2d\u90e8\u5e4c\u5ef6\u6cb3\u5ddd\u4e8b\u52d9\u6240","boring_xml_url":47,"boring_view_url":1,"soilmap_view_url":null,"soiltest_xml_url":47,"soiltest_view_url":47},{"id":692861,"code":"NGIC202303804-0004","latitude":"44.994019444444","longitude":"141.84059444444","source_code":"","project_name":"","survey_name":"\u5929\u5869\u5ddd\u4e0b\u6d41\u5de5\u4e8b\u7b87\u6240\u5730\u8cea\u8abf\u67fb\u5916\u696d\u52d9","client_name":"\u56fd\u571f\u4ea4\u901a\u7701\u5317\u6d77\u9053\u958b\u767a\u5c40\u7559\u840c\u958b\u767a\u5efa\u8a2d\u90e8\u5e4c\u5ef6\u6cb3\u5ddd\u4e8b\u52d9\u6240","boring_xml_url":47,"boring_view_url":1,"soilmap_view_url":null,"soiltest_xml_url":0,"soiltest_view_url":0},{"id":692860,"code":"NGIC202303804-0003","latitude":"44.930825","longitude":"141.72196111111","source_code":"","project_name":"","survey_name":"\u5929\u5869\u5ddd\u4e0b\u6d41\u5de5\u4e8b\u7b87\u6240\u5730\u8cea\u8abf\u67fb\u5916\u696d\u52d9","client_name":"\u56fd\u571f\u4ea4\u901a\u7701\u5317\u6d77\u9053\u958b\u767a\u5c40\u7559\u840c\u958b\u767a\u5efa\u8a2d\u90e8\u5e4c\u5ef6\u6cb3\u5ddd\u4e8b\u52d9\u6240","boring_xml_url":47,"boring_view_url":1,"soilmap_view_url":null,"soiltest_xml_url":47,"soiltest_view_url":47},{"id":692859,"code":"NGIC202303804-0002","latitude":"44.929036111111","longitude":"141.72276388889","source_code":"","project_name":"","survey_name":"\u5929\u5869\u5ddd\u4e0b\u6d41\u5de5\u4e8b\u7b87\u6240\u5730\u8cea\u8abf\u67fb\u5916\u696d\u52d9","client_name":"\u56fd\u571f\u4ea4\u901a\u7701\u5317\u6d77\u9053\u958b\u767a\u5c40\u7559\u840c\u958b\u767a\u5efa\u8a2d\u90e8\u5e4c\u5ef6\u6cb3\u5ddd\u4e8b\u52d9\u6240","boring_xml_url":47,"boring_view_url":1,"soilmap_view_url":null,"soiltest_xml_url":47,"soiltest_view_url":47},{"id":692858,"code":"NGIC202303804-0001","latitude":"44.927391666667","longitude":"141.7235","source_code":"","project_name":"","survey_name":"\u5929\u5869\u5ddd\u4e0b\u6d41\u5de5\u4e8b\u7b87\u6240\u5730\u8cea\u8abf\u67fb\u5916\u696d\u52d9","client_name":"\u56fd\u571f\u4ea4\u901a\u7701\u5317\u6d77\u9053\u958b\u767a\u5c40\u7559\u840c\u958b\u767a\u5efa\u8a2d\u90e8\u5e4c\u5ef6\u6cb3\u5ddd\u4e8b\u52d9\u6240","boring_xml_url":47,"boring_view_url":1,"soilmap_view_url":null,"soiltest_xml_url":47,"soiltest_view_url":47},{"id":692857,"code":"NGIC202303771-0009","latitude":"42.309095861111","longitude":"143.3121245","source_code":"","project_name":"","survey_name":"\u5e2f\u5e83\u5e83\u5c3e\u81ea\u52d5\u8eca\u9053\u5e83\u5c3e\u753a\u30e9\u30c3\u30b3\u30d9\u30c4\u5730\u8cea\u8abf\u67fb\u696d\u52d9","client_name":"\u56fd\u571f\u4ea4\u901a\u7701\u5317\u6d77\u9053\u958b\u767a\u5c40\u5e2f\u5e83\u958b\u767a\u5efa\u8a2d\u90e8\u672c\u90e8","boring_xml_url":47,"boring_view_url":1,"soilmap_view_url":null,"soiltest_xml_url":0,"soiltest_view_url":0},{"id":692856,"code":"NGIC202303771-0008","latitude":"42.311277416667","longitude":"143.31809202778","source_code":"","project_name":"","survey_name":"\u5e2f\u5e83\u5e83\u5c3e\u81ea\u52d5\u8eca\u9053\u5e83\u5c3e\u753a\u30e9\u30c3\u30b3\u30d9\u30c4\u5730\u8cea\u8abf\u67fb\u696d\u52d9","client_name":"\u56fd\u571f\u4ea4\u901a\u7701\u5317\u6d77\u9053\u958b\u767a\u5c40\u5e2f\u5e83\u958b\u767a\u5efa\u8a2d\u90e8\u672c\u90e8","boring_xml_url":47,"boring_view_url":1,"soilmap_view_url":null,"soiltest_xml_url":0,"soiltest_view_url":0},{"id":692855,"code":"NGIC202303771-0007","latitude":"42.311986638889","longitude":"143.31702847222","source_code":"","project_name":"","survey_name":"\u5e2f\u5e83\u5e83\u5c3e\u81ea\u52d5\u8eca\u9053\u5e83\u5c3e\u753a\u30e9\u30c3\u30b3\u30d9\u30c4\u5730\u8cea\u8abf\u67fb\u696d\u52d9","client_name":"\u56fd\u571f\u4ea4\u901a\u7701\u5317\u6d77\u9053\u958b\u767a\u5c40\u5e2f\u5e83\u958b\u767a\u5efa\u8a2d\u90e8\u672c\u90e8","boring_xml_url":47,"boring_view_url":1,"soilmap_view_url":null,"soiltest_xml_url":47,"soiltest_view_url":47},{"id":692854,"code":"NGIC202303771-0006","latitude":"42.313347916667","longitude":"143.30688311111","source_code":"","project_name":"","survey_name":"\u5e2f\u5e83\u5e83\u5c3e\u81ea\u52d5\u8eca\u9053\u5e83\u5c3e\u753a\u30e9\u30c3\u30b3\u30d9\u30c4\u5730\u8cea\u8abf\u67fb\u696d\u52d9","client_name":"\u56fd\u571f\u4ea4\u901a\u7701\u5317\u6d77\u9053\u958b\u767a\u5c40\u5e2f\u5e83\u958b\u767a\u5efa\u8a2d\u90e8\u672c\u90e8","boring_xml_url":47,"boring_view_url":1,"soilmap_view_url":null,"soiltest_xml_url":47,"soiltest_view_url":47},{"id":692853,"code":"NGIC202303771-0005","latitude":"42.313769666667","longitude":"143.30731513889","source_code":"","project_name":"","survey_name":"\u5e2f\u5e83\u5e83\u5c3e\u81ea\u52d5\u8eca\u9053\u5e83\u5c3e\u753a\u30e9\u30c3\u30b3\u30d9\u30c4\u5730\u8cea\u8abf\u67fb\u696d\u52d9","client_name":"\u56fd\u571f\u4ea4\u901a\u7701\u5317\u6d77\u9053\u958b\u767a\u5c40\u5e2f\u5e83\u958b\u767a\u5efa\u8a2d\u90e8\u672c\u90e8","boring_xml_url":47,"boring_view_url":1,"soilmap_view_url":null,"soiltest_xml_url":47,"soiltest_view_url":47},{"id":692852,"code":"NGIC202303771-0004","latitude":"42.328413388889","longitude":"143.30142525","source_code":"","project_name":"","survey_name":"\u5e2f\u5e83\u5e83\u5c3e\u81ea\u52d5\u8eca\u9053\u5e83\u5c3e\u753a\u30e9\u30c3\u30b3\u30d9\u30c4\u5730\u8cea\u8abf\u67fb\u696d\u52d9","client_name":"\u56fd\u571f\u4ea4\u901a\u7701\u5317\u6d77\u9053\u958b\u767a\u5c40\u5e2f\u5e83\u958b\u767a\u5efa\u8a2d\u90e8\u672c\u90e8","boring_xml_url":47,"boring_view_url":1,"soilmap_view_url":null,"soiltest_xml_url":0,"soiltest_view_url":0},{"id":692851,"code":"NGIC202303771-0003","latitude":"42.328595944444","longitude":"143.30093816667","source_code":"","project_name":"","survey_name":"\u5e2f\u5e83\u5e83\u5c3e\u81ea\u52d5\u8eca\u9053\u5e83\u5c3e\u753a\u30e9\u30c3\u30b3\u30d9\u30c4\u5730\u8cea\u8abf\u67fb\u696d\u52d9","client_name":"\u56fd\u571f\u4ea4\u901a\u7701\u5317\u6d77\u9053\u958b\u767a\u5c40\u5e2f\u5e83\u958b\u767a\u5efa\u8a2d\u90e8\u672c\u90e8","boring_xml_url":47,"boring_view_url":1,"soilmap_view_url":null,"soiltest_xml_url":0,"soiltest_view_url":0},{"id":692850,"code":"NGIC202303771-0001","latitude":"42.32875875","longitude":"143.30050441667","source_code":"","project_name":"","survey_name":"\u5e2f\u5e83\u5e83\u5c3e\u81ea\u52d5\u8eca\u9053\u5e83\u5c3e\u753a\u30e9\u30c3\u30b3\u30d9\u30c4\u5730\u8cea\u8abf\u67fb\u696d\u52d9","client_name":"\u56fd\u571f\u4ea4\u901a\u7701\u5317\u6d77\u9053\u958b\u767a\u5c40\u5e2f\u5e83\u958b\u767a\u5efa\u8a2d\u90e8\u672c\u90e8","boring_xml_url":47,"boring_view_url":1,"soilmap_view_url":null,"soiltest_xml_url":47,"soiltest_view_url":47},{"id":692811,"code":"NGIC202303823-0005","latitude":"39.267651861111","longitude":"141.88970275","source_code":"","project_name":"","survey_name":"\u4ee4\u548c5\u5e74\u5ea6\u91dc\u77f3\u6e2f\u9808\u8cc0\u5730\u533a\u571f\u8cea\u8abf\u67fb","client_name":"\u56fd\u571f\u4ea4\u901a\u7701\u6771\u5317\u5730\u65b9\u6574\u5099\u5c40\u91dc\u77f3\u6e2f\u6e7e\u4e8b\u52d9\u6240","boring_xml_url":47,"boring_view_url":1,"soilmap_view_url":null,"soiltest_xml_url":47,"soiltest_view_url":47},{"id":692810,"code":"NGIC202303823-0004","latitude":"39.268977194444","longitude":"141.89074205556","source_code":"","project_name":"","survey_name":"\u4ee4\u548c5\u5e74\u5ea6\u91dc\u77f3\u6e2f\u9808\u8cc0\u5730\u533a\u571f\u8cea\u8abf\u67fb","client_name":"\u56fd\u571f\u4ea4\u901a\u7701\u6771\u5317\u5730\u65b9\u6574\u5099\u5c40\u91dc\u77f3\u6e2f\u6e7e\u4e8b\u52d9\u6240","boring_xml_url":47,"boring_view_url":1,"soilmap_view_url":null,"soiltest_xml_url":47,"soiltest_view_url":47},{"id":692809,"code":"NGIC202303823-0003","latitude":"39.268214","longitude":"141.89158463889","source_code":"","project_name":"","survey_name":"\u4ee4\u548c5\u5e74\u5ea6\u91dc\u77f3\u6e2f\u9808\u8cc0\u5730\u533a\u571f\u8cea\u8abf\u67fb","client_name":"\u56fd\u571f\u4ea4\u901a\u7701\u6771\u5317\u5730\u65b9\u6574\u5099\u5c40\u91dc\u77f3\u6e2f\u6e7e\u4e8b\u52d9\u6240","boring_xml_url":47,"boring_view_url":1,"soilmap_view_url":null,"soiltest_xml_url":47,"soiltest_view_url":47},{"id":692808,"code":"NGIC202303823-0002","latitude":"39.268561916667","longitude":"141.89051788889","source_code":"","project_name":"","survey_name":"\u4ee4\u548c5\u5e74\u5ea6\u91dc\u77f3\u6e2f\u9808\u8cc0\u5730\u533a\u571f\u8cea\u8abf\u67fb","client_name":"\u56fd\u571f\u4ea4\u901a\u7701\u6771\u5317\u5730\u65b9\u6574\u5099\u5c40\u91dc\u77f3\u6e2f\u6e7e\u4e8b\u52d9\u6240","boring_xml_url":47,"boring_view_url":1,"soilmap_view_url":null,"soiltest_xml_url":47,"soiltest_view_url":47},{"id":692807,"code":"NGIC202303823-0001","latitude":"39.268910416667","longitude":"141.88944936111","source_code":"","project_name":"","survey_name":"\u4ee4\u548c5\u5e74\u5ea6\u91dc\u77f3\u6e2f\u9808\u8cc0\u5730\u533a\u571f\u8cea\u8abf\u67fb","client_name":"\u56fd\u571f\u4ea4\u901a\u7701\u6771\u5317\u5730\u65b9\u6574\u5099\u5c40\u91dc\u77f3\u6e2f\u6e7e\u4e8b\u52d9\u6240","boring_xml_url":47,"boring_view_url":1,"soilmap_view_url":null,"soiltest_xml_url":47,"soiltest_view_url":47},{"id":692796,"code":"NGIC202303760-0002","latitude":"38.689428416667","longitude":"140.12639469444","source_code":"","project_name":"","survey_name":"\u89d2\u5ddd\u6d41\u57df\u9e7f\u306e\u6ca2\u7b2c2\u7802\u9632\u5830\u5824\u6539\u7bc9\u5916\u5de5\u4e8b","client_name":"\u56fd\u571f\u4ea4\u901a\u7701\u6771\u5317\u5730\u65b9\u6574\u5099\u5c40\u65b0\u5e84\u6cb3\u5ddd\u4e8b\u52d9\u6240","boring_xml_url":47,"boring_view_url":1,"soilmap_view_url":null,"soiltest_xml_url":0,"soiltest_view_url":0},{"id":692795,"code":"NGIC202303760-0001","latitude":"38.689399638889","longitude":"140.12637822222","source_code":"","project_name":"","survey_name":"\u89d2\u5ddd\u6d41\u57df\u9e7f\u306e\u6ca2\u7b2c2\u7802\u9632\u5830\u5824\u6539\u7bc9\u5916\u5de5\u4e8b","client_name":"\u56fd\u571f\u4ea4\u901a\u7701\u6771\u5317\u5730\u65b9\u6574\u5099\u5c40\u65b0\u5e84\u6cb3\u5ddd\u4e8b\u52d9\u6240","boring_xml_url":47,"boring_view_url":1,"soilmap_view_url":null,"soiltest_xml_url":0,"soiltest_view_url":0},{"id":692788,"code":"NGIC202303617-0002","latitude":"33.259402777778","longitude":"129.63965277778","source_code":"","project_name":"\u4ee4\u548c5\u5e74\u5ea6\u677e\u6d66\u4f50\u3005\u9053\u8def\u5730\u8cea\u8abf\u67fb\u696d\u52d9","survey_name":"\u4ee4\u548c5\u5e74\u5ea6\u677e\u6d66\u4f50\u3005\u9053\u8def\u5730\u8cea\u8abf\u67fb\u696d\u52d9","client_name":"\u56fd\u571f\u4ea4\u901a\u7701\u4e5d\u5dde\u5730\u65b9\u6574\u5099\u5c40\u9577\u5d0e\u6cb3\u5ddd\u56fd\u9053\u4e8b\u52d9\u6240","boring_xml_url":47,"boring_view_url":1,"soilmap_view_url":null,"soiltest_xml_url":0,"soiltest_view_url":0},{"id":692787,"code":"NGIC202303617-0001","latitude":"33.259997222222","longitude":"129.63880833333","source_code":"","project_name":"\u4ee4\u548c5\u5e74\u5ea6\u677e\u6d66\u4f50\u3005\u9053\u8def\u5730\u8cea\u8abf\u67fb\u696d\u52d9","survey_name":"\u4ee4\u548c5\u5e74\u5ea6\u677e\u6d66\u4f50\u3005\u9053\u8def\u5730\u8cea\u8abf\u67fb\u696d\u52d9","client_name":"\u56fd\u571f\u4ea4\u901a\u7701\u4e5d\u5dde\u5730\u65b9\u6574\u5099\u5c40\u9577\u5d0e\u6cb3\u5ddd\u56fd\u9053\u4e8b\u52d9\u6240","boring_xml_url":47,"boring_view_url":1,"soilmap_view_url":null,"soiltest_xml_url":0,"soiltest_view_url":0},{"id":692722,"code":"NGIC202303755-0001","latitude":"38.482702777778","longitude":"141.20651111111","source_code":"","project_name":"","survey_name":"\u65b0\u6cc9\u6ca2\u5730\u533a\u6a4b\u6881\u4e88\u5099\u8a2d\u8a08\u696d\u52d9","client_name":"\u56fd\u571f\u4ea4\u901a\u7701\u6771\u5317\u5730\u65b9\u6574\u5099\u5c40\u4ed9\u53f0\u6cb3\u5ddd\u56fd\u9053\u4e8b\u52d9\u6240","boring_xml_url":47,"boring_view_url":1,"soilmap_view_url":null,"soiltest_xml_url":47,"soiltest_view_url":47}]}}