{"header":{"xyz":{"source":[],"mosaic":false},"page":992,"raw":{"soiltest_result":"0","bbox":"57.598333,109.544722,1.933333,163.806111","page":"992"},"conditions":{"soiltest_result":0,"north":57.598333,"west":109.544722,"south":1.933333,"east":163.806111},"success":true,"message":""},"data":{"meta":{"total":212844,"page":992,"pages":7095,"count":30},"values":[{"id":515658,"code":"B4KJ202201001-8194","latitude":"35.468958","longitude":"137.171081","source_code":"CB1785356120020001","project_name":"","survey_name":"\u5e73\u621029\u5e74\u5ea6\u3000\u65b0\u4e38\u5c71\u30c0\u30e0\u30c0\u30e0\u30b5\u30a4\u30c8\u53f3\u5cb8\u6cb3\u5e8a\u90e8\u5730\u8cea\u8abf\u67fb\u696d\u52d9","client_name":"\"\u56fd\u571f\u4ea4\u901a\u7701 \u4e2d\u90e8\u5730\u65b9\u6574\u5099\u5c40 \u65b0\u4e38\u5c71\u30c0\u30e0\u5de5\u4e8b\u4e8b\u52d9\u6240 \u8abf\u67fb\u8ab2\"","boring_xml_url":64,"boring_view_url":1,"soilmap_view_url":null,"soiltest_xml_url":0,"soiltest_view_url":0},{"id":515657,"code":"B4KJ202201001-8193","latitude":"35.044515","longitude":"138.491808","source_code":"CB1785416520550011","project_name":"","survey_name":"\u5e73\u621029\u5e74\u5ea6\u3000\u9759\u5ca1\u56fd\u9053\u7ba1\u5185\u5730\u8cea\u8abf\u67fb\u696d\u52d9","client_name":"\"\u56fd\u571f\u4ea4\u901a\u7701\u3000\u4e2d\u90e8\u5730\u65b9\u6574\u5099\u5c40 \u9759\u5ca1\u56fd\u9053\u4e8b\u52d9\u6240\"","boring_xml_url":64,"boring_view_url":1,"soilmap_view_url":null,"soiltest_xml_url":0,"soiltest_view_url":0},{"id":515656,"code":"B4KJ202201001-8192","latitude":"35.044199","longitude":"138.490038","source_code":"CB1785416520550010","project_name":"","survey_name":"\u5e73\u621029\u5e74\u5ea6\u3000\u9759\u5ca1\u56fd\u9053\u7ba1\u5185\u5730\u8cea\u8abf\u67fb\u696d\u52d9","client_name":"\"\u56fd\u571f\u4ea4\u901a\u7701\u3000\u4e2d\u90e8\u5730\u65b9\u6574\u5099\u5c40 \u9759\u5ca1\u56fd\u9053\u4e8b\u52d9\u6240\"","boring_xml_url":64,"boring_view_url":1,"soilmap_view_url":null,"soiltest_xml_url":0,"soiltest_view_url":0},{"id":515655,"code":"B4KJ202201001-8191","latitude":"35.044602","longitude":"138.490996","source_code":"CB1785416520550009","project_name":"","survey_name":"\u5e73\u621029\u5e74\u5ea6\u3000\u9759\u5ca1\u56fd\u9053\u7ba1\u5185\u5730\u8cea\u8abf\u67fb\u696d\u52d9","client_name":"\"\u56fd\u571f\u4ea4\u901a\u7701\u3000\u4e2d\u90e8\u5730\u65b9\u6574\u5099\u5c40 \u9759\u5ca1\u56fd\u9053\u4e8b\u52d9\u6240\"","boring_xml_url":64,"boring_view_url":1,"soilmap_view_url":null,"soiltest_xml_url":0,"soiltest_view_url":0},{"id":515654,"code":"B4KJ202201001-8190","latitude":"35.044496","longitude":"138.491084","source_code":"CB1785416520550008","project_name":"","survey_name":"\u5e73\u621029\u5e74\u5ea6\u3000\u9759\u5ca1\u56fd\u9053\u7ba1\u5185\u5730\u8cea\u8abf\u67fb\u696d\u52d9","client_name":"\"\u56fd\u571f\u4ea4\u901a\u7701\u3000\u4e2d\u90e8\u5730\u65b9\u6574\u5099\u5c40 \u9759\u5ca1\u56fd\u9053\u4e8b\u52d9\u6240\"","boring_xml_url":64,"boring_view_url":1,"soilmap_view_url":null,"soiltest_xml_url":0,"soiltest_view_url":0},{"id":515653,"code":"B4KJ202201001-8189","latitude":"35.044708","longitude":"138.49161","source_code":"CB1785416520550007","project_name":"","survey_name":"\u5e73\u621029\u5e74\u5ea6\u3000\u9759\u5ca1\u56fd\u9053\u7ba1\u5185\u5730\u8cea\u8abf\u67fb\u696d\u52d9","client_name":"\"\u56fd\u571f\u4ea4\u901a\u7701\u3000\u4e2d\u90e8\u5730\u65b9\u6574\u5099\u5c40 \u9759\u5ca1\u56fd\u9053\u4e8b\u52d9\u6240\"","boring_xml_url":64,"boring_view_url":1,"soilmap_view_url":null,"soiltest_xml_url":0,"soiltest_view_url":0},{"id":515652,"code":"B4KJ202201001-8188","latitude":"35.04466","longitude":"138.491969","source_code":"CB1785416520550006","project_name":"","survey_name":"\u5e73\u621029\u5e74\u5ea6\u3000\u9759\u5ca1\u56fd\u9053\u7ba1\u5185\u5730\u8cea\u8abf\u67fb\u696d\u52d9","client_name":"\"\u56fd\u571f\u4ea4\u901a\u7701\u3000\u4e2d\u90e8\u5730\u65b9\u6574\u5099\u5c40 \u9759\u5ca1\u56fd\u9053\u4e8b\u52d9\u6240\"","boring_xml_url":64,"boring_view_url":1,"soilmap_view_url":null,"soiltest_xml_url":0,"soiltest_view_url":0},{"id":515651,"code":"B4KJ202201001-8187","latitude":"35.04462","longitude":"138.496586","source_code":"CB1785416520550005","project_name":"","survey_name":"\u5e73\u621029\u5e74\u5ea6\u3000\u9759\u5ca1\u56fd\u9053\u7ba1\u5185\u5730\u8cea\u8abf\u67fb\u696d\u52d9","client_name":"\"\u56fd\u571f\u4ea4\u901a\u7701\u3000\u4e2d\u90e8\u5730\u65b9\u6574\u5099\u5c40 \u9759\u5ca1\u56fd\u9053\u4e8b\u52d9\u6240\"","boring_xml_url":64,"boring_view_url":1,"soilmap_view_url":null,"soiltest_xml_url":0,"soiltest_view_url":0},{"id":515650,"code":"B4KJ202201001-8186","latitude":"34.891819","longitude":"138.261781","source_code":"CB1785416520550004","project_name":"","survey_name":"\u5e73\u621029\u5e74\u5ea6\u3000\u9759\u5ca1\u56fd\u9053\u7ba1\u5185\u5730\u8cea\u8abf\u67fb\u696d\u52d9","client_name":"\"\u56fd\u571f\u4ea4\u901a\u7701\u3000\u4e2d\u90e8\u5730\u65b9\u6574\u5099\u5c40 \u9759\u5ca1\u56fd\u9053\u4e8b\u52d9\u6240\"","boring_xml_url":64,"boring_view_url":1,"soilmap_view_url":null,"soiltest_xml_url":0,"soiltest_view_url":0},{"id":515649,"code":"B4KJ202201001-8185","latitude":"34.891992","longitude":"138.262228","source_code":"CB1785416520550003","project_name":"","survey_name":"\u5e73\u621029\u5e74\u5ea6\u3000\u9759\u5ca1\u56fd\u9053\u7ba1\u5185\u5730\u8cea\u8abf\u67fb\u696d\u52d9","client_name":"\"\u56fd\u571f\u4ea4\u901a\u7701\u3000\u4e2d\u90e8\u5730\u65b9\u6574\u5099\u5c40 \u9759\u5ca1\u56fd\u9053\u4e8b\u52d9\u6240\"","boring_xml_url":64,"boring_view_url":1,"soilmap_view_url":null,"soiltest_xml_url":0,"soiltest_view_url":0},{"id":515648,"code":"B4KJ202201001-8184","latitude":"34.891447","longitude":"138.261933","source_code":"CB1785416520550002","project_name":"","survey_name":"\u5e73\u621029\u5e74\u5ea6\u3000\u9759\u5ca1\u56fd\u9053\u7ba1\u5185\u5730\u8cea\u8abf\u67fb\u696d\u52d9","client_name":"\"\u56fd\u571f\u4ea4\u901a\u7701\u3000\u4e2d\u90e8\u5730\u65b9\u6574\u5099\u5c40 \u9759\u5ca1\u56fd\u9053\u4e8b\u52d9\u6240\"","boring_xml_url":64,"boring_view_url":1,"soilmap_view_url":null,"soiltest_xml_url":0,"soiltest_view_url":0},{"id":515647,"code":"B4KJ202201001-8183","latitude":"34.891603","longitude":"138.262367","source_code":"CB1785416520550001","project_name":"","survey_name":"\u5e73\u621029\u5e74\u5ea6\u3000\u9759\u5ca1\u56fd\u9053\u7ba1\u5185\u5730\u8cea\u8abf\u67fb\u696d\u52d9","client_name":"\"\u56fd\u571f\u4ea4\u901a\u7701\u3000\u4e2d\u90e8\u5730\u65b9\u6574\u5099\u5c40 \u9759\u5ca1\u56fd\u9053\u4e8b\u52d9\u6240\"","boring_xml_url":64,"boring_view_url":1,"soilmap_view_url":null,"soiltest_xml_url":0,"soiltest_view_url":0},{"id":515646,"code":"B4KJ202201001-8182","latitude":"36.174652","longitude":"137.260669","source_code":"CB1685346520450002","project_name":"","survey_name":"\u5e73\u621028\u5e74\u5ea6\u3000\u9ad8\u5c71\u6e05\u898b\u9053\u8def\u5730\u8cea\u8abf\u67fb\u696d\u52d9","client_name":"\u56fd\u571f\u4ea4\u901a\u7701\u3000\u4e2d\u90e8\u5730\u65b9\u6574\u5099\u5c40\u3000\u9ad8\u5c71\u56fd\u9053\u4e8b\u52d9\u6240","boring_xml_url":64,"boring_view_url":1,"soilmap_view_url":null,"soiltest_xml_url":0,"soiltest_view_url":0},{"id":515645,"code":"B4KJ202201001-8181","latitude":"36.174963","longitude":"137.260252","source_code":"CB1685346520450001","project_name":"","survey_name":"\u5e73\u621028\u5e74\u5ea6\u3000\u9ad8\u5c71\u6e05\u898b\u9053\u8def\u5730\u8cea\u8abf\u67fb\u696d\u52d9","client_name":"\u56fd\u571f\u4ea4\u901a\u7701\u3000\u4e2d\u90e8\u5730\u65b9\u6574\u5099\u5c40\u3000\u9ad8\u5c71\u56fd\u9053\u4e8b\u52d9\u6240","boring_xml_url":64,"boring_view_url":1,"soilmap_view_url":null,"soiltest_xml_url":0,"soiltest_view_url":0},{"id":515644,"code":"B4KJ202201001-8180","latitude":"35.53926","longitude":"137.172866","source_code":"CB1785356120270002","project_name":"","survey_name":"\u5e73\u621029\u5e74\u5ea6\u65b0\u4e38\u5c71\u30c0\u30e0\u516b\u767e\u6d25\u5730\u533a\u5730\u8cea\u8abf\u67fb\u696d\u52d9","client_name":"\"\u56fd\u571f\u4ea4\u901a\u7701\u3000\u4e2d\u90e8\u5730\u65b9\u6574\u5099\u5c40 \u65b0\u4e38\u5c71\u30c0\u30e0\u5de5\u4e8b\u4e8b\u52d9\u6240\"","boring_xml_url":64,"boring_view_url":1,"soilmap_view_url":null,"soiltest_xml_url":0,"soiltest_view_url":0},{"id":515643,"code":"B4KJ202201001-8179","latitude":"35.466687","longitude":"137.173465","source_code":"CB1785356120270001","project_name":"","survey_name":"\u5e73\u621029\u5e74\u5ea6\u65b0\u4e38\u5c71\u30c0\u30e0\u516b\u767e\u6d25\u5730\u533a\u5730\u8cea\u8abf\u67fb\u696d\u52d9","client_name":"\"\u56fd\u571f\u4ea4\u901a\u7701\u3000\u4e2d\u90e8\u5730\u65b9\u6574\u5099\u5c40 \u65b0\u4e38\u5c71\u30c0\u30e0\u5de5\u4e8b\u4e8b\u52d9\u6240\"","boring_xml_url":64,"boring_view_url":1,"soilmap_view_url":null,"soiltest_xml_url":0,"soiltest_view_url":0},{"id":515642,"code":"B4KJ202201001-8178","latitude":"35.458362","longitude":"137.292045","source_code":"CB1785356120150001","project_name":"","survey_name":"\u5e73\u621029\u5e74\u5ea6\u3000\u65b0\u4e38\u5c71\u30c0\u30e0\u98ef\u5730\u5730\u533a\u5730\u8cea\u8abf\u67fb\u696d\u52d9","client_name":"\"\u56fd\u571f\u4ea4\u901a\u7701\u3000\u4e2d\u90e8\u5730\u65b9\u6574\u5099\u5c40 \u65b0\u4e38\u5c71\u30c0\u30e0\u5de5\u4e8b\u4e8b\u52d9\u6240\"","boring_xml_url":64,"boring_view_url":1,"soilmap_view_url":null,"soiltest_xml_url":0,"soiltest_view_url":0},{"id":515641,"code":"B4KJ202201001-8177","latitude":"35.308889","longitude":"136.736389","source_code":"CB1785314020270023","project_name":"","survey_name":"\u5e73\u621029\u5e74\u5ea6\u3000\u6728\u66fd\u5ddd\u4e0a\u6d41\u5730\u8cea\u8abf\u67fb\u696d\u52d9","client_name":"\"\u56fd\u571f\u4ea4\u901a\u7701\u3000\u4e2d\u90e8\u5730\u65b9\u6574\u5099\u5c40 \u6728\u66fd\u5ddd\u4e0a\u6d41\u6cb3\u5ddd\u4e8b\u52d9\u6240\"","boring_xml_url":64,"boring_view_url":1,"soilmap_view_url":null,"soiltest_xml_url":0,"soiltest_view_url":0},{"id":515640,"code":"B4KJ202201001-8176","latitude":"35.313305","longitude":"136.563","source_code":"CB1785314020270022","project_name":"","survey_name":"\u5e73\u621029\u5e74\u5ea6\u3000\u6728\u66fd\u5ddd\u4e0a\u6d41\u5730\u8cea\u8abf\u67fb\u696d\u52d9","client_name":"\"\u56fd\u571f\u4ea4\u901a\u7701\u3000\u4e2d\u90e8\u5730\u65b9\u6574\u5099\u5c40 \u6728\u66fd\u5ddd\u4e0a\u6d41\u6cb3\u5ddd\u4e8b\u52d9\u6240\"","boring_xml_url":64,"boring_view_url":1,"soilmap_view_url":null,"soiltest_xml_url":0,"soiltest_view_url":0},{"id":515639,"code":"B4KJ202201001-8175","latitude":"35.371889","longitude":"136.805111","source_code":"CB1785314020270021","project_name":"","survey_name":"\u5e73\u621029\u5e74\u5ea6\u3000\u6728\u66fd\u5ddd\u4e0a\u6d41\u5730\u8cea\u8abf\u67fb\u696d\u52d9","client_name":"\"\u56fd\u571f\u4ea4\u901a\u7701\u3000\u4e2d\u90e8\u5730\u65b9\u6574\u5099\u5c40 \u6728\u66fd\u5ddd\u4e0a\u6d41\u6cb3\u5ddd\u4e8b\u52d9\u6240\"","boring_xml_url":64,"boring_view_url":1,"soilmap_view_url":null,"soiltest_xml_url":0,"soiltest_view_url":0},{"id":515638,"code":"B4KJ202201001-8174","latitude":"35.372194","longitude":"136.805","source_code":"CB1785314020270020","project_name":"","survey_name":"\u5e73\u621029\u5e74\u5ea6\u3000\u6728\u66fd\u5ddd\u4e0a\u6d41\u5730\u8cea\u8abf\u67fb\u696d\u52d9","client_name":"\"\u56fd\u571f\u4ea4\u901a\u7701\u3000\u4e2d\u90e8\u5730\u65b9\u6574\u5099\u5c40 \u6728\u66fd\u5ddd\u4e0a\u6d41\u6cb3\u5ddd\u4e8b\u52d9\u6240\"","boring_xml_url":64,"boring_view_url":1,"soilmap_view_url":null,"soiltest_xml_url":0,"soiltest_view_url":0},{"id":515637,"code":"B4KJ202201001-8173","latitude":"35.398694","longitude":"136.730833","source_code":"CB1785314020270019","project_name":"","survey_name":"\u5e73\u621029\u5e74\u5ea6\u3000\u6728\u66fd\u5ddd\u4e0a\u6d41\u5730\u8cea\u8abf\u67fb\u696d\u52d9","client_name":"\"\u56fd\u571f\u4ea4\u901a\u7701\u3000\u4e2d\u90e8\u5730\u65b9\u6574\u5099\u5c40 \u6728\u66fd\u5ddd\u4e0a\u6d41\u6cb3\u5ddd\u4e8b\u52d9\u6240\"","boring_xml_url":64,"boring_view_url":1,"soilmap_view_url":null,"soiltest_xml_url":0,"soiltest_view_url":0},{"id":515636,"code":"B4KJ202201001-8172","latitude":"35.398611","longitude":"136.730222","source_code":"CB1785314020270018","project_name":"","survey_name":"\u5e73\u621029\u5e74\u5ea6\u3000\u6728\u66fd\u5ddd\u4e0a\u6d41\u5730\u8cea\u8abf\u67fb\u696d\u52d9","client_name":"\"\u56fd\u571f\u4ea4\u901a\u7701\u3000\u4e2d\u90e8\u5730\u65b9\u6574\u5099\u5c40 \u6728\u66fd\u5ddd\u4e0a\u6d41\u6cb3\u5ddd\u4e8b\u52d9\u6240\"","boring_xml_url":64,"boring_view_url":1,"soilmap_view_url":null,"soiltest_xml_url":0,"soiltest_view_url":0},{"id":515635,"code":"B4KJ202201001-8171","latitude":"35.372167","longitude":"136.670889","source_code":"CB1785314020270017","project_name":"","survey_name":"\u5e73\u621029\u5e74\u5ea6\u3000\u6728\u66fd\u5ddd\u4e0a\u6d41\u5730\u8cea\u8abf\u67fb\u696d\u52d9","client_name":"\"\u56fd\u571f\u4ea4\u901a\u7701\u3000\u4e2d\u90e8\u5730\u65b9\u6574\u5099\u5c40 \u6728\u66fd\u5ddd\u4e0a\u6d41\u6cb3\u5ddd\u4e8b\u52d9\u6240\"","boring_xml_url":64,"boring_view_url":1,"soilmap_view_url":null,"soiltest_xml_url":0,"soiltest_view_url":0},{"id":515634,"code":"B4KJ202201001-8170","latitude":"35.372167","longitude":"136.670889","source_code":"CB1785314020270016","project_name":"","survey_name":"\u5e73\u621029\u5e74\u5ea6\u3000\u6728\u66fd\u5ddd\u4e0a\u6d41\u5730\u8cea\u8abf\u67fb\u696d\u52d9","client_name":"\"\u56fd\u571f\u4ea4\u901a\u7701\u3000\u4e2d\u90e8\u5730\u65b9\u6574\u5099\u5c40 \u6728\u66fd\u5ddd\u4e0a\u6d41\u6cb3\u5ddd\u4e8b\u52d9\u6240\"","boring_xml_url":64,"boring_view_url":1,"soilmap_view_url":null,"soiltest_xml_url":0,"soiltest_view_url":0},{"id":515633,"code":"B4KJ202201001-8169","latitude":"35.372167","longitude":"136.670889","source_code":"CB1785314020270015","project_name":"","survey_name":"\u5e73\u621029\u5e74\u5ea6\u3000\u6728\u66fd\u5ddd\u4e0a\u6d41\u5730\u8cea\u8abf\u67fb\u696d\u52d9","client_name":"\"\u56fd\u571f\u4ea4\u901a\u7701\u3000\u4e2d\u90e8\u5730\u65b9\u6574\u5099\u5c40 \u6728\u66fd\u5ddd\u4e0a\u6d41\u6cb3\u5ddd\u4e8b\u52d9\u6240\"","boring_xml_url":64,"boring_view_url":1,"soilmap_view_url":null,"soiltest_xml_url":0,"soiltest_view_url":0},{"id":515632,"code":"B4KJ202201001-8168","latitude":"35.372222","longitude":"136.670972","source_code":"CB1785314020270014","project_name":"","survey_name":"\u5e73\u621029\u5e74\u5ea6\u3000\u6728\u66fd\u5ddd\u4e0a\u6d41\u5730\u8cea\u8abf\u67fb\u696d\u52d9","client_name":"\"\u56fd\u571f\u4ea4\u901a\u7701\u3000\u4e2d\u90e8\u5730\u65b9\u6574\u5099\u5c40 \u6728\u66fd\u5ddd\u4e0a\u6d41\u6cb3\u5ddd\u4e8b\u52d9\u6240\"","boring_xml_url":64,"boring_view_url":1,"soilmap_view_url":null,"soiltest_xml_url":0,"soiltest_view_url":0},{"id":515631,"code":"B4KJ202201001-8167","latitude":"35.372333","longitude":"136.670695","source_code":"CB1785314020270013","project_name":"","survey_name":"\u5e73\u621029\u5e74\u5ea6\u3000\u6728\u66fd\u5ddd\u4e0a\u6d41\u5730\u8cea\u8abf\u67fb\u696d\u52d9","client_name":"\"\u56fd\u571f\u4ea4\u901a\u7701\u3000\u4e2d\u90e8\u5730\u65b9\u6574\u5099\u5c40 \u6728\u66fd\u5ddd\u4e0a\u6d41\u6cb3\u5ddd\u4e8b\u52d9\u6240\"","boring_xml_url":64,"boring_view_url":1,"soilmap_view_url":null,"soiltest_xml_url":0,"soiltest_view_url":0},{"id":515630,"code":"B4KJ202201001-8166","latitude":"35.372305","longitude":"136.670556","source_code":"CB1785314020270012","project_name":"","survey_name":"\u5e73\u621029\u5e74\u5ea6\u3000\u6728\u66fd\u5ddd\u4e0a\u6d41\u5730\u8cea\u8abf\u67fb\u696d\u52d9","client_name":"\"\u56fd\u571f\u4ea4\u901a\u7701\u3000\u4e2d\u90e8\u5730\u65b9\u6574\u5099\u5c40 \u6728\u66fd\u5ddd\u4e0a\u6d41\u6cb3\u5ddd\u4e8b\u52d9\u6240\"","boring_xml_url":64,"boring_view_url":1,"soilmap_view_url":null,"soiltest_xml_url":0,"soiltest_view_url":0},{"id":515629,"code":"B4KJ202201001-8165","latitude":"35.372333","longitude":"136.670695","source_code":"CB1785314020270011","project_name":"","survey_name":"\u5e73\u621029\u5e74\u5ea6\u3000\u6728\u66fd\u5ddd\u4e0a\u6d41\u5730\u8cea\u8abf\u67fb\u696d\u52d9","client_name":"\"\u56fd\u571f\u4ea4\u901a\u7701\u3000\u4e2d\u90e8\u5730\u65b9\u6574\u5099\u5c40 \u6728\u66fd\u5ddd\u4e0a\u6d41\u6cb3\u5ddd\u4e8b\u52d9\u6240\"","boring_xml_url":64,"boring_view_url":1,"soilmap_view_url":null,"soiltest_xml_url":0,"soiltest_view_url":0}]}}