{"header":{"xyz":{"source":[],"mosaic":false},"page":993,"raw":{"soiltest_result":"0","bbox":"57.598333,109.544722,1.933333,163.806111","page":"993"},"conditions":{"soiltest_result":0,"north":57.598333,"west":109.544722,"south":1.933333,"east":163.806111},"success":true,"message":""},"data":{"meta":{"total":212844,"page":993,"pages":7095,"count":30},"values":[{"id":515628,"code":"B4KJ202201001-8164","latitude":"35.372417","longitude":"136.670695","source_code":"CB1785314020270010","project_name":"","survey_name":"\u5e73\u621029\u5e74\u5ea6\u3000\u6728\u66fd\u5ddd\u4e0a\u6d41\u5730\u8cea\u8abf\u67fb\u696d\u52d9","client_name":"\"\u56fd\u571f\u4ea4\u901a\u7701\u3000\u4e2d\u90e8\u5730\u65b9\u6574\u5099\u5c40 \u6728\u66fd\u5ddd\u4e0a\u6d41\u6cb3\u5ddd\u4e8b\u52d9\u6240\"","boring_xml_url":64,"boring_view_url":1,"soilmap_view_url":null,"soiltest_xml_url":0,"soiltest_view_url":0},{"id":515627,"code":"B4KJ202201001-8163","latitude":"35.316139","longitude":"136.662306","source_code":"CB1785314020270009","project_name":"","survey_name":"\u5e73\u621029\u5e74\u5ea6\u3000\u6728\u66fd\u5ddd\u4e0a\u6d41\u5730\u8cea\u8abf\u67fb\u696d\u52d9","client_name":"\"\u56fd\u571f\u4ea4\u901a\u7701\u3000\u4e2d\u90e8\u5730\u65b9\u6574\u5099\u5c40 \u6728\u66fd\u5ddd\u4e0a\u6d41\u6cb3\u5ddd\u4e8b\u52d9\u6240\"","boring_xml_url":64,"boring_view_url":1,"soilmap_view_url":null,"soiltest_xml_url":0,"soiltest_view_url":0},{"id":515626,"code":"B4KJ202201001-8162","latitude":"35.314805","longitude":"136.660972","source_code":"CB1785314020270008","project_name":"","survey_name":"\u5e73\u621029\u5e74\u5ea6\u3000\u6728\u66fd\u5ddd\u4e0a\u6d41\u5730\u8cea\u8abf\u67fb\u696d\u52d9","client_name":"\"\u56fd\u571f\u4ea4\u901a\u7701\u3000\u4e2d\u90e8\u5730\u65b9\u6574\u5099\u5c40 \u6728\u66fd\u5ddd\u4e0a\u6d41\u6cb3\u5ddd\u4e8b\u52d9\u6240\"","boring_xml_url":64,"boring_view_url":1,"soilmap_view_url":null,"soiltest_xml_url":0,"soiltest_view_url":0},{"id":515625,"code":"B4KJ202201001-8161","latitude":"35.29425","longitude":"136.616333","source_code":"CB1785314020270007","project_name":"","survey_name":"\u5e73\u621029\u5e74\u5ea6\u3000\u6728\u66fd\u5ddd\u4e0a\u6d41\u5730\u8cea\u8abf\u67fb\u696d\u52d9","client_name":"\"\u56fd\u571f\u4ea4\u901a\u7701\u3000\u4e2d\u90e8\u5730\u65b9\u6574\u5099\u5c40 \u6728\u66fd\u5ddd\u4e0a\u6d41\u6cb3\u5ddd\u4e8b\u52d9\u6240\"","boring_xml_url":64,"boring_view_url":1,"soilmap_view_url":null,"soiltest_xml_url":0,"soiltest_view_url":0},{"id":515624,"code":"B4KJ202201001-8160","latitude":"35.295416","longitude":"136.612417","source_code":"CB1785314020270006","project_name":"","survey_name":"\u5e73\u621029\u5e74\u5ea6\u3000\u6728\u66fd\u5ddd\u4e0a\u6d41\u5730\u8cea\u8abf\u67fb\u696d\u52d9","client_name":"\"\u56fd\u571f\u4ea4\u901a\u7701\u3000\u4e2d\u90e8\u5730\u65b9\u6574\u5099\u5c40 \u6728\u66fd\u5ddd\u4e0a\u6d41\u6cb3\u5ddd\u4e8b\u52d9\u6240\"","boring_xml_url":64,"boring_view_url":1,"soilmap_view_url":null,"soiltest_xml_url":0,"soiltest_view_url":0},{"id":515623,"code":"B4KJ202201001-8159","latitude":"35.244889","longitude":"136.673722","source_code":"CB1785314020270005","project_name":"","survey_name":"\u5e73\u621029\u5e74\u5ea6\u3000\u6728\u66fd\u5ddd\u4e0a\u6d41\u5730\u8cea\u8abf\u67fb\u696d\u52d9","client_name":"\"\u56fd\u571f\u4ea4\u901a\u7701\u3000\u4e2d\u90e8\u5730\u65b9\u6574\u5099\u5c40 \u6728\u66fd\u5ddd\u4e0a\u6d41\u6cb3\u5ddd\u4e8b\u52d9\u6240\"","boring_xml_url":64,"boring_view_url":1,"soilmap_view_url":null,"soiltest_xml_url":0,"soiltest_view_url":0},{"id":515622,"code":"B4KJ202201001-8158","latitude":"35.246805","longitude":"136.6755","source_code":"CB1785314020270004","project_name":"","survey_name":"\u5e73\u621029\u5e74\u5ea6\u3000\u6728\u66fd\u5ddd\u4e0a\u6d41\u5730\u8cea\u8abf\u67fb\u696d\u52d9","client_name":"\"\u56fd\u571f\u4ea4\u901a\u7701\u3000\u4e2d\u90e8\u5730\u65b9\u6574\u5099\u5c40 \u6728\u66fd\u5ddd\u4e0a\u6d41\u6cb3\u5ddd\u4e8b\u52d9\u6240\"","boring_xml_url":64,"boring_view_url":1,"soilmap_view_url":null,"soiltest_xml_url":0,"soiltest_view_url":0},{"id":515621,"code":"B4KJ202201001-8157","latitude":"35.247361","longitude":"136.674361","source_code":"CB1785314020270003","project_name":"","survey_name":"\u5e73\u621029\u5e74\u5ea6\u3000\u6728\u66fd\u5ddd\u4e0a\u6d41\u5730\u8cea\u8abf\u67fb\u696d\u52d9","client_name":"\"\u56fd\u571f\u4ea4\u901a\u7701\u3000\u4e2d\u90e8\u5730\u65b9\u6574\u5099\u5c40 \u6728\u66fd\u5ddd\u4e0a\u6d41\u6cb3\u5ddd\u4e8b\u52d9\u6240\"","boring_xml_url":64,"boring_view_url":1,"soilmap_view_url":null,"soiltest_xml_url":0,"soiltest_view_url":0},{"id":515620,"code":"B4KJ202201001-8156","latitude":"35.308889","longitude":"136.736389","source_code":"CB1785314020270002","project_name":"","survey_name":"\u5e73\u621029\u5e74\u5ea6\u3000\u6728\u66fd\u5ddd\u4e0a\u6d41\u5730\u8cea\u8abf\u67fb\u696d\u52d9","client_name":"\"\u56fd\u571f\u4ea4\u901a\u7701\u3000\u4e2d\u90e8\u5730\u65b9\u6574\u5099\u5c40 \u6728\u66fd\u5ddd\u4e0a\u6d41\u6cb3\u5ddd\u4e8b\u52d9\u6240\"","boring_xml_url":64,"boring_view_url":1,"soilmap_view_url":null,"soiltest_xml_url":0,"soiltest_view_url":0},{"id":515619,"code":"B4KJ202201001-8155","latitude":"35.308889","longitude":"136.736389","source_code":"CB1785314020270001","project_name":"","survey_name":"\u5e73\u621029\u5e74\u5ea6\u3000\u6728\u66fd\u5ddd\u4e0a\u6d41\u5730\u8cea\u8abf\u67fb\u696d\u52d9","client_name":"\"\u56fd\u571f\u4ea4\u901a\u7701\u3000\u4e2d\u90e8\u5730\u65b9\u6574\u5099\u5c40 \u6728\u66fd\u5ddd\u4e0a\u6d41\u6cb3\u5ddd\u4e8b\u52d9\u6240\"","boring_xml_url":64,"boring_view_url":1,"soilmap_view_url":null,"soiltest_xml_url":0,"soiltest_view_url":0},{"id":515618,"code":"B4KJ202201001-8154","latitude":"34.893844","longitude":"136.551114","source_code":"CB1685604020700002","project_name":"","survey_name":"\u5e73\u621028\u5e74\u5ea6\u3000\u4e09\u91cd\u6cb3\u5ddd\u5730\u8cea\u8abf\u67fb\u696d\u52d9","client_name":"\u56fd\u571f\u4ea4\u901a\u7701\u4e2d\u90e8\u5730\u65b9\u6574\u5099\u5c40\u3000\u4e09\u91cd\u6cb3\u5ddd\u56fd\u9053\u4e8b\u52d9\u6240","boring_xml_url":64,"boring_view_url":1,"soilmap_view_url":null,"soiltest_xml_url":0,"soiltest_view_url":0},{"id":515617,"code":"B4KJ202201001-8153","latitude":"34.892325","longitude":"136.552764","source_code":"CB1685604020700001","project_name":"","survey_name":"\u5e73\u621028\u5e74\u5ea6\u3000\u4e09\u91cd\u6cb3\u5ddd\u5730\u8cea\u8abf\u67fb\u696d\u52d9","client_name":"\u56fd\u571f\u4ea4\u901a\u7701\u4e2d\u90e8\u5730\u65b9\u6574\u5099\u5c40\u3000\u4e09\u91cd\u6cb3\u5ddd\u56fd\u9053\u4e8b\u52d9\u6240","boring_xml_url":64,"boring_view_url":1,"soilmap_view_url":null,"soiltest_xml_url":0,"soiltest_view_url":0},{"id":515616,"code":"B4KJ202201001-8152","latitude":"35.041667","longitude":"137.722083","source_code":"CB1685446120740016","project_name":"","survey_name":"\"\u5e73\u621028\u5e74\u5ea6 \u9759\u5ca1\u770c\u897f\u90e8\u5730\u533a\u5730\u8cea\u8abf\u67fb\u696d\u52d9\"","client_name":"\u56fd\u571f\u4ea4\u901a\u7701\u4e2d\u90e8\u5730\u65b9\u6574\u5099\u5c40\u6d5c\u677e\u6cb3\u5ddd\u56fd\u9053\u4e8b\u52d9\u6240","boring_xml_url":64,"boring_view_url":1,"soilmap_view_url":null,"soiltest_xml_url":0,"soiltest_view_url":0},{"id":515615,"code":"B4KJ202201001-8151","latitude":"35.041389","longitude":"137.721889","source_code":"CB1685446120740015","project_name":"","survey_name":"\"\u5e73\u621028\u5e74\u5ea6 \u9759\u5ca1\u770c\u897f\u90e8\u5730\u533a\u5730\u8cea\u8abf\u67fb\u696d\u52d9\"","client_name":"\u56fd\u571f\u4ea4\u901a\u7701\u4e2d\u90e8\u5730\u65b9\u6574\u5099\u5c40\u6d5c\u677e\u6cb3\u5ddd\u56fd\u9053\u4e8b\u52d9\u6240","boring_xml_url":64,"boring_view_url":1,"soilmap_view_url":null,"soiltest_xml_url":0,"soiltest_view_url":0},{"id":515614,"code":"B4KJ202201001-8150","latitude":"35.041389","longitude":"137.721639","source_code":"CB1685446120740014","project_name":"","survey_name":"\"\u5e73\u621028\u5e74\u5ea6 \u9759\u5ca1\u770c\u897f\u90e8\u5730\u533a\u5730\u8cea\u8abf\u67fb\u696d\u52d9\"","client_name":"\u56fd\u571f\u4ea4\u901a\u7701\u4e2d\u90e8\u5730\u65b9\u6574\u5099\u5c40\u6d5c\u677e\u6cb3\u5ddd\u56fd\u9053\u4e8b\u52d9\u6240","boring_xml_url":64,"boring_view_url":1,"soilmap_view_url":null,"soiltest_xml_url":0,"soiltest_view_url":0},{"id":515613,"code":"B4KJ202201001-8149","latitude":"35.04125","longitude":"137.72175","source_code":"CB1685446120740013","project_name":"","survey_name":"\"\u5e73\u621028\u5e74\u5ea6 \u9759\u5ca1\u770c\u897f\u90e8\u5730\u533a\u5730\u8cea\u8abf\u67fb\u696d\u52d9\"","client_name":"\u56fd\u571f\u4ea4\u901a\u7701\u4e2d\u90e8\u5730\u65b9\u6574\u5099\u5c40\u6d5c\u677e\u6cb3\u5ddd\u56fd\u9053\u4e8b\u52d9\u6240","boring_xml_url":64,"boring_view_url":1,"soilmap_view_url":null,"soiltest_xml_url":0,"soiltest_view_url":0},{"id":515612,"code":"B4KJ202201001-8148","latitude":"35.062056","longitude":"137.7575","source_code":"CB1685446120740012","project_name":"","survey_name":"\"\u5e73\u621028\u5e74\u5ea6 \u9759\u5ca1\u770c\u897f\u90e8\u5730\u533a\u5730\u8cea\u8abf\u67fb\u696d\u52d9\"","client_name":"\u56fd\u571f\u4ea4\u901a\u7701\u4e2d\u90e8\u5730\u65b9\u6574\u5099\u5c40\u6d5c\u677e\u6cb3\u5ddd\u56fd\u9053\u4e8b\u52d9\u6240","boring_xml_url":64,"boring_view_url":1,"soilmap_view_url":null,"soiltest_xml_url":0,"soiltest_view_url":0},{"id":515611,"code":"B4KJ202201001-8147","latitude":"35.062028","longitude":"137.757917","source_code":"CB1685446120740011","project_name":"","survey_name":"\"\u5e73\u621028\u5e74\u5ea6 \u9759\u5ca1\u770c\u897f\u90e8\u5730\u533a\u5730\u8cea\u8abf\u67fb\u696d\u52d9\"","client_name":"\u56fd\u571f\u4ea4\u901a\u7701\u4e2d\u90e8\u5730\u65b9\u6574\u5099\u5c40\u6d5c\u677e\u6cb3\u5ddd\u56fd\u9053\u4e8b\u52d9\u6240","boring_xml_url":64,"boring_view_url":1,"soilmap_view_url":null,"soiltest_xml_url":0,"soiltest_view_url":0},{"id":515610,"code":"B4KJ202201001-8146","latitude":"35.035","longitude":"137.714167","source_code":"CB1685446120740010","project_name":"","survey_name":"\"\u5e73\u621028\u5e74\u5ea6 \u9759\u5ca1\u770c\u897f\u90e8\u5730\u533a\u5730\u8cea\u8abf\u67fb\u696d\u52d9\"","client_name":"\u56fd\u571f\u4ea4\u901a\u7701\u4e2d\u90e8\u5730\u65b9\u6574\u5099\u5c40\u6d5c\u677e\u6cb3\u5ddd\u56fd\u9053\u4e8b\u52d9\u6240","boring_xml_url":64,"boring_view_url":1,"soilmap_view_url":null,"soiltest_xml_url":0,"soiltest_view_url":0},{"id":515609,"code":"B4KJ202201001-8145","latitude":"35.035","longitude":"137.714722","source_code":"CB1685446120740009","project_name":"","survey_name":"\"\u5e73\u621028\u5e74\u5ea6 \u9759\u5ca1\u770c\u897f\u90e8\u5730\u533a\u5730\u8cea\u8abf\u67fb\u696d\u52d9\"","client_name":"\u56fd\u571f\u4ea4\u901a\u7701\u4e2d\u90e8\u5730\u65b9\u6574\u5099\u5c40\u6d5c\u677e\u6cb3\u5ddd\u56fd\u9053\u4e8b\u52d9\u6240","boring_xml_url":64,"boring_view_url":1,"soilmap_view_url":null,"soiltest_xml_url":0,"soiltest_view_url":0},{"id":515608,"code":"B4KJ202201001-8144","latitude":"35.035278","longitude":"137.714722","source_code":"CB1685446120740008","project_name":"","survey_name":"\"\u5e73\u621028\u5e74\u5ea6 \u9759\u5ca1\u770c\u897f\u90e8\u5730\u533a\u5730\u8cea\u8abf\u67fb\u696d\u52d9\"","client_name":"\u56fd\u571f\u4ea4\u901a\u7701\u4e2d\u90e8\u5730\u65b9\u6574\u5099\u5c40\u6d5c\u677e\u6cb3\u5ddd\u56fd\u9053\u4e8b\u52d9\u6240","boring_xml_url":64,"boring_view_url":1,"soilmap_view_url":null,"soiltest_xml_url":0,"soiltest_view_url":0},{"id":515607,"code":"B4KJ202201001-8143","latitude":"34.819958","longitude":"138.109083","source_code":"CB1685446120740007","project_name":"","survey_name":"\"\u5e73\u621028\u5e74\u5ea6 \u9759\u5ca1\u770c\u897f\u90e8\u5730\u533a\u5730\u8cea\u8abf\u67fb\u696d\u52d9\"","client_name":"\u56fd\u571f\u4ea4\u901a\u7701\u4e2d\u90e8\u5730\u65b9\u6574\u5099\u5c40\u6d5c\u677e\u6cb3\u5ddd\u56fd\u9053\u4e8b\u52d9\u6240","boring_xml_url":64,"boring_view_url":1,"soilmap_view_url":null,"soiltest_xml_url":0,"soiltest_view_url":0},{"id":515606,"code":"B4KJ202201001-8142","latitude":"34.819964","longitude":"138.109808","source_code":"CB1685446120740006","project_name":"","survey_name":"\"\u5e73\u621028\u5e74\u5ea6 \u9759\u5ca1\u770c\u897f\u90e8\u5730\u533a\u5730\u8cea\u8abf\u67fb\u696d\u52d9\"","client_name":"\u56fd\u571f\u4ea4\u901a\u7701\u4e2d\u90e8\u5730\u65b9\u6574\u5099\u5c40\u6d5c\u677e\u6cb3\u5ddd\u56fd\u9053\u4e8b\u52d9\u6240","boring_xml_url":64,"boring_view_url":1,"soilmap_view_url":null,"soiltest_xml_url":0,"soiltest_view_url":0},{"id":515605,"code":"B4KJ202201001-8141","latitude":"34.819956","longitude":"138.108042","source_code":"CB1685446120740005","project_name":"","survey_name":"\"\u5e73\u621028\u5e74\u5ea6 \u9759\u5ca1\u770c\u897f\u90e8\u5730\u533a\u5730\u8cea\u8abf\u67fb\u696d\u52d9\"","client_name":"\u56fd\u571f\u4ea4\u901a\u7701\u4e2d\u90e8\u5730\u65b9\u6574\u5099\u5c40\u6d5c\u677e\u6cb3\u5ddd\u56fd\u9053\u4e8b\u52d9\u6240","boring_xml_url":64,"boring_view_url":1,"soilmap_view_url":null,"soiltest_xml_url":0,"soiltest_view_url":0},{"id":515604,"code":"B4KJ202201001-8140","latitude":"34.845042","longitude":"138.15445","source_code":"CB1685446120740004","project_name":"","survey_name":"\"\u5e73\u621028\u5e74\u5ea6 \u9759\u5ca1\u770c\u897f\u90e8\u5730\u533a\u5730\u8cea\u8abf\u67fb\u696d\u52d9\"","client_name":"\u56fd\u571f\u4ea4\u901a\u7701\u4e2d\u90e8\u5730\u65b9\u6574\u5099\u5c40\u6d5c\u677e\u6cb3\u5ddd\u56fd\u9053\u4e8b\u52d9\u6240","boring_xml_url":64,"boring_view_url":1,"soilmap_view_url":null,"soiltest_xml_url":0,"soiltest_view_url":0},{"id":515603,"code":"B4KJ202201001-8139","latitude":"34.788878","longitude":"138.067489","source_code":"CB1685446120740003","project_name":"","survey_name":"\"\u5e73\u621028\u5e74\u5ea6 \u9759\u5ca1\u770c\u897f\u90e8\u5730\u533a\u5730\u8cea\u8abf\u67fb\u696d\u52d9\"","client_name":"\u56fd\u571f\u4ea4\u901a\u7701\u4e2d\u90e8\u5730\u65b9\u6574\u5099\u5c40\u6d5c\u677e\u6cb3\u5ddd\u56fd\u9053\u4e8b\u52d9\u6240","boring_xml_url":64,"boring_view_url":1,"soilmap_view_url":null,"soiltest_xml_url":0,"soiltest_view_url":0},{"id":515602,"code":"B4KJ202201001-8138","latitude":"34.788925","longitude":"138.067633","source_code":"CB1685446120740002","project_name":"","survey_name":"\"\u5e73\u621028\u5e74\u5ea6 \u9759\u5ca1\u770c\u897f\u90e8\u5730\u533a\u5730\u8cea\u8abf\u67fb\u696d\u52d9\"","client_name":"\u56fd\u571f\u4ea4\u901a\u7701\u4e2d\u90e8\u5730\u65b9\u6574\u5099\u5c40\u6d5c\u677e\u6cb3\u5ddd\u56fd\u9053\u4e8b\u52d9\u6240","boring_xml_url":64,"boring_view_url":1,"soilmap_view_url":null,"soiltest_xml_url":0,"soiltest_view_url":0},{"id":515601,"code":"B4KJ202201001-8137","latitude":"34.788989","longitude":"138.067831","source_code":"CB1685446120740001","project_name":"","survey_name":"\"\u5e73\u621028\u5e74\u5ea6 \u9759\u5ca1\u770c\u897f\u90e8\u5730\u533a\u5730\u8cea\u8abf\u67fb\u696d\u52d9\"","client_name":"\u56fd\u571f\u4ea4\u901a\u7701\u4e2d\u90e8\u5730\u65b9\u6574\u5099\u5c40\u6d5c\u677e\u6cb3\u5ddd\u56fd\u9053\u4e8b\u52d9\u6240","boring_xml_url":64,"boring_view_url":1,"soilmap_view_url":null,"soiltest_xml_url":0,"soiltest_view_url":0},{"id":515600,"code":"B4KJ202201001-8136","latitude":"35.059742","longitude":"137.73775","source_code":"CB1685446120100002","project_name":"\u5e73\u621028\u5e74\u5ea6\u3000\u4f50\u4e45\u9593\u9053\u8def\u30fb\u4e09\u9060\u9053\u8def\u6c34\u6587\u8abf\u67fb","survey_name":"\u5e73\u621028\u5e74\u5ea6\u3000\u4f50\u4e45\u9593\u9053\u8def\u30fb\u4e09\u9060\u9053\u8def\u6c34\u6587\u8abf\u67fb","client_name":"\u56fd\u571f\u4ea4\u901a\u7701\u4e2d\u90e8\u5730\u65b9\u6574\u5099\u5c40\u6d5c\u677e\u6cb3\u5ddd\u56fd\u9053\u4e8b\u52d9\u6240","boring_xml_url":64,"boring_view_url":1,"soilmap_view_url":null,"soiltest_xml_url":0,"soiltest_view_url":0},{"id":515599,"code":"B4KJ202201001-8135","latitude":"34.932964","longitude":"137.684911","source_code":"CB1685446120100001","project_name":"\u5e73\u621028\u5e74\u5ea6\u3000\u4f50\u4e45\u9593\u9053\u8def\u30fb\u4e09\u9060\u9053\u8def\u6c34\u6587\u8abf\u67fb","survey_name":"\u5e73\u621028\u5e74\u5ea6\u3000\u4f50\u4e45\u9593\u9053\u8def\u30fb\u4e09\u9060\u9053\u8def\u6c34\u6587\u8abf\u67fb","client_name":"\u56fd\u571f\u4ea4\u901a\u7701\u3000\u4e2d\u90e8\u5730\u65b9\u6574\u5099\u5c40\u3000\u6d5c\u677e\u6cb3\u5ddd\u56fd\u9053\u4e8b\u52d9\u6240","boring_xml_url":64,"boring_view_url":1,"soilmap_view_url":null,"soiltest_xml_url":0,"soiltest_view_url":0}]}}